date,trigger,state
2019-11-02 16:01:47,184055b6-b3ba-423f-b50c-7ad79b0d0faf,S
2019-11-02 16:03:20,184055b6-b3ba-423f-b50c-7ad79b0d0faf,A
2019-11-02 16:04:09,184055b6-b3ba-423f-b50c-7ad79b0d0faf,S
2019-11-02 16:04:15,184055b6-b3ba-423f-b50c-7ad79b0d0faf,A
2019-11-02 16:04:21,184055b6-b3ba-423f-b50c-7ad79b0d0faf,S
2019-11-02 16:04:45,184055b6-b3ba-423f-b50c-7ad79b0d0faf,A
2019-11-02 16:09:30,184055b6-b3ba-423f-b50c-7ad79b0d0faf,S
2019-11-02 16:13:38,184055b6-b3ba-423f-b50c-7ad79b0d0faf,A
2019-11-02 16:15:26,184055b6-b3ba-423f-b50c-7ad79b0d0faf,S
2019-11-02 16:17:40,184055b6-b3ba-423f-b50c-7ad79b0d0faf,A
2019-11-02 16:28:18,184055b6-b3ba-423f-b50c-7ad79b0d0faf,S
2019-11-02 16:30:20,184055b6-b3ba-423f-b50c-7ad79b0d0faf,A
2019-11-02 16:39:29,184055b6-b3ba-423f-b50c-7ad79b0d0faf,S
2019-11-02 16:42:05,184055b6-b3ba-423f-b50c-7ad79b0d0faf,A
2019-11-02 16:50:40,184055b6-b3ba-423f-b50c-7ad79b0d0faf,S
2019-11-02 16:52:42,184055b6-b3ba-423f-b50c-7ad79b0d0faf,A
2019-11-02 16:54:31,184055b6-b3ba-423f-b50c-7ad79b0d0faf,S
2019-11-02 16:57:34,184055b6-b3ba-423f-b50c-7ad79b0d0faf,A
2019-11-02 16:57:42,184055b6-b3ba-423f-b50c-7ad79b0d0faf,S
2019-11-02 17:09:45,184055b6-b3ba-423f-b50c-7ad79b0d0faf,A
2019-11-02 17:13:24,184055b6-b3ba-423f-b50c-7ad79b0d0faf,S
2019-11-02 17:25:08,184055b6-b3ba-423f-b50c-7ad79b0d0faf,A
2019-11-02 17:25:53,184055b6-b3ba-423f-b50c-7ad79b0d0faf,S
2019-11-02 17:32:46,184055b6-b3ba-423f-b50c-7ad79b0d0faf,A
2019-11-02 17:34:06,184055b6-b3ba-423f-b50c-7ad79b0d0faf,S
2019-11-02 17:36:33,184055b6-b3ba-423f-b50c-7ad79b0d0faf,A
2019-11-02 17:44:58,184055b6-b3ba-423f-b50c-7ad79b0d0faf,S
2019-11-02 17:53:07,184055b6-b3ba-423f-b50c-7ad79b0d0faf,A
2019-11-02 16:07:23,f83816e5-b83d-4d37-b700-af1449d1e75a,S
2019-11-02 16:12:21,f83816e5-b83d-4d37-b700-af1449d1e75a,A
2019-11-02 16:12:42,f83816e5-b83d-4d37-b700-af1449d1e75a,S
2019-11-02 16:17:27,f83816e5-b83d-4d37-b700-af1449d1e75a,A
2019-11-02 16:22:24,f83816e5-b83d-4d37-b700-af1449d1e75a,S
2019-11-02 16:24:26,f83816e5-b83d-4d37-b700-af1449d1e75a,A
2019-11-02 16:34:31,f83816e5-b83d-4d37-b700-af1449d1e75a,S
2019-11-02 16:37:12,f83816e5-b83d-4d37-b700-af1449d1e75a,A
2019-11-02 16:38:07,f83816e5-b83d-4d37-b700-af1449d1e75a,S
2019-11-02 16:46:09,f83816e5-b83d-4d37-b700-af1449d1e75a,A
2019-11-02 16:54:57,f83816e5-b83d-4d37-b700-af1449d1e75a,S
2019-11-02 16:57:07,f83816e5-b83d-4d37-b700-af1449d1e75a,A
2019-11-02 16:57:16,f83816e5-b83d-4d37-b700-af1449d1e75a,S
2019-11-02 17:16:33,f83816e5-b83d-4d37-b700-af1449d1e75a,A
2019-11-02 17:18:47,f83816e5-b83d-4d37-b700-af1449d1e75a,S
2019-11-02 17:36:21,f83816e5-b83d-4d37-b700-af1449d1e75a,A
2019-11-02 17:46:32,f83816e5-b83d-4d37-b700-af1449d1e75a,S
2019-11-02 18:02:23,f83816e5-b83d-4d37-b700-af1449d1e75a,A
2019-11-02 16:43:44,a59f6e20-7877-49c3-b112-e24d369d9d78,S
2019-11-02 16:45:55,a59f6e20-7877-49c3-b112-e24d369d9d78,A
2019-11-02 16:48:41,a59f6e20-7877-49c3-b112-e24d369d9d78,S
2019-11-02 17:05:37,a59f6e20-7877-49c3-b112-e24d369d9d78,A
2019-11-02 17:07:17,a59f6e20-7877-49c3-b112-e24d369d9d78,S
2019-11-02 17:08:24,a59f6e20-7877-49c3-b112-e24d369d9d78,A
2019-11-02 17:13:38,a59f6e20-7877-49c3-b112-e24d369d9d78,S
2019-11-02 17:22:16,a59f6e20-7877-49c3-b112-e24d369d9d78,A
2019-11-02 17:24:14,a59f6e20-7877-49c3-b112-e24d369d9d78,S
2019-11-02 17:31:49,a59f6e20-7877-49c3-b112-e24d369d9d78,A
2019-11-02 17:32:38,a59f6e20-7877-49c3-b112-e24d369d9d78,S
2019-11-02 17:44:25,a59f6e20-7877-49c3-b112-e24d369d9d78,A
2019-11-02 17:52:17,a59f6e20-7877-49c3-b112-e24d369d9d78,S
2019-11-02 17:53:55,a59f6e20-7877-49c3-b112-e24d369d9d78,A
2019-11-02 17:57:45,a59f6e20-7877-49c3-b112-e24d369d9d78,S
2019-11-02 18:00:03,a59f6e20-7877-49c3-b112-e24d369d9d78,A
2019-11-02 15:55:30,c6f9c93d-593a-4e0f-942d-52eb4285f552,A
2019-11-02 15:59:46,c6f9c93d-593a-4e0f-942d-52eb4285f552,S
2019-11-02 16:02:03,c6f9c93d-593a-4e0f-942d-52eb4285f552,A
2019-11-02 16:09:46,c6f9c93d-593a-4e0f-942d-52eb4285f552,S
2019-11-02 16:19:04,c6f9c93d-593a-4e0f-942d-52eb4285f552,A
2019-11-02 16:23:25,c6f9c93d-593a-4e0f-942d-52eb4285f552,S
2019-11-02 16:27:59,c6f9c93d-593a-4e0f-942d-52eb4285f552,A
2019-11-02 16:43:16,c6f9c93d-593a-4e0f-942d-52eb4285f552,S
2019-11-02 16:48:08,c6f9c93d-593a-4e0f-942d-52eb4285f552,A
2019-11-02 17:00:58,c6f9c93d-593a-4e0f-942d-52eb4285f552,S
2019-11-02 17:01:26,c6f9c93d-593a-4e0f-942d-52eb4285f552,A
2019-11-02 17:08:39,c6f9c93d-593a-4e0f-942d-52eb4285f552,S
2019-11-02 17:16:34,c6f9c93d-593a-4e0f-942d-52eb4285f552,A
2019-11-02 17:17:44,c6f9c93d-593a-4e0f-942d-52eb4285f552,S
2019-11-02 17:19:17,c6f9c93d-593a-4e0f-942d-52eb4285f552,A
2019-11-02 17:19:53,c6f9c93d-593a-4e0f-942d-52eb4285f552,S
2019-11-02 17:21:26,c6f9c93d-593a-4e0f-942d-52eb4285f552,A
2019-11-02 17:22:02,c6f9c93d-593a-4e0f-942d-52eb4285f552,S
2019-11-02 17:22:08,c6f9c93d-593a-4e0f-942d-52eb4285f552,A
2019-11-02 17:22:29,c6f9c93d-593a-4e0f-942d-52eb4285f552,S
2019-11-02 17:23:27,c6f9c93d-593a-4e0f-942d-52eb4285f552,A
2019-11-02 17:30:51,c6f9c93d-593a-4e0f-942d-52eb4285f552,S
2019-11-02 17:43:09,c6f9c93d-593a-4e0f-942d-52eb4285f552,A
2019-11-02 17:43:48,c6f9c93d-593a-4e0f-942d-52eb4285f552,S
2019-11-02 18:02:17,c6f9c93d-593a-4e0f-942d-52eb4285f552,A
2019-11-02 16:44:34,e62433e7-c856-462b-935d-32b0347c0e38,A
2019-11-02 17:18:20,e62433e7-c856-462b-935d-32b0347c0e38,S
2019-11-02 17:18:48,e62433e7-c856-462b-935d-32b0347c0e38,A
2019-11-02 17:48:04,e62433e7-c856-462b-935d-32b0347c0e38,S
2019-11-02 17:51:08,e62433e7-c856-462b-935d-32b0347c0e38,A
2019-11-02 17:53:36,e62433e7-c856-462b-935d-32b0347c0e38,S
2019-11-02 17:55:08,e62433e7-c856-462b-935d-32b0347c0e38,A
2019-11-02 17:55:54,e62433e7-c856-462b-935d-32b0347c0e38,S
2019-11-02 17:59:09,e62433e7-c856-462b-935d-32b0347c0e38,A
2019-11-02 16:26:56,026279d8-2be6-4ee3-8f7b-61f257a82d7d,S
2019-11-02 16:27:00,026279d8-2be6-4ee3-8f7b-61f257a82d7d,A
2019-11-02 16:34:11,026279d8-2be6-4ee3-8f7b-61f257a82d7d,S
2019-11-02 16:45:41,026279d8-2be6-4ee3-8f7b-61f257a82d7d,A
2019-11-02 16:47:17,026279d8-2be6-4ee3-8f7b-61f257a82d7d,S
2019-11-02 16:50:24,026279d8-2be6-4ee3-8f7b-61f257a82d7d,A
2019-11-02 16:50:41,026279d8-2be6-4ee3-8f7b-61f257a82d7d,S
2019-11-02 17:08:40,026279d8-2be6-4ee3-8f7b-61f257a82d7d,A
2019-11-02 17:11:04,026279d8-2be6-4ee3-8f7b-61f257a82d7d,S
2019-11-02 17:23:25,026279d8-2be6-4ee3-8f7b-61f257a82d7d,A
2019-11-02 17:35:33,026279d8-2be6-4ee3-8f7b-61f257a82d7d,S
2019-11-02 17:41:05,026279d8-2be6-4ee3-8f7b-61f257a82d7d,A
2019-11-02 17:41:31,026279d8-2be6-4ee3-8f7b-61f257a82d7d,S
2019-11-02 17:43:46,026279d8-2be6-4ee3-8f7b-61f257a82d7d,A
2019-11-02 17:47:25,026279d8-2be6-4ee3-8f7b-61f257a82d7d,S
2019-11-02 17:50:45,026279d8-2be6-4ee3-8f7b-61f257a82d7d,A
2019-11-02 17:55:15,026279d8-2be6-4ee3-8f7b-61f257a82d7d,S
2019-11-02 17:56:12,026279d8-2be6-4ee3-8f7b-61f257a82d7d,A
2019-11-02 17:56:34,026279d8-2be6-4ee3-8f7b-61f257a82d7d,S
2019-11-02 17:57:32,026279d8-2be6-4ee3-8f7b-61f257a82d7d,A
2019-11-02 16:15:00,4d1ae213-f705-4524-be41-309d64e88b07,S
2019-11-02 16:27:04,4d1ae213-f705-4524-be41-309d64e88b07,A
2019-11-02 16:45:26,4d1ae213-f705-4524-be41-309d64e88b07,S
2019-11-02 16:47:49,4d1ae213-f705-4524-be41-309d64e88b07,A
2019-11-02 16:51:08,4d1ae213-f705-4524-be41-309d64e88b07,S
2019-11-02 16:54:27,4d1ae213-f705-4524-be41-309d64e88b07,A
2019-11-02 17:05:57,4d1ae213-f705-4524-be41-309d64e88b07,S
2019-11-02 17:06:46,4d1ae213-f705-4524-be41-309d64e88b07,A
2019-11-02 17:08:26,4d1ae213-f705-4524-be41-309d64e88b07,S
2019-11-02 17:09:18,4d1ae213-f705-4524-be41-309d64e88b07,A
2019-11-02 17:26:43,4d1ae213-f705-4524-be41-309d64e88b07,S
2019-11-02 17:26:48,4d1ae213-f705-4524-be41-309d64e88b07,A
2019-11-02 17:29:58,4d1ae213-f705-4524-be41-309d64e88b07,S
2019-11-02 17:33:24,4d1ae213-f705-4524-be41-309d64e88b07,A
2019-11-02 17:35:38,4d1ae213-f705-4524-be41-309d64e88b07,S
2019-11-02 17:41:35,4d1ae213-f705-4524-be41-309d64e88b07,A
2019-11-02 17:42:58,4d1ae213-f705-4524-be41-309d64e88b07,S
2019-11-02 17:46:53,4d1ae213-f705-4524-be41-309d64e88b07,A
2019-11-02 17:52:27,4d1ae213-f705-4524-be41-309d64e88b07,S
2019-11-02 16:43:43,369e9153-64b7-4347-a80f-113bf36875de,S
2019-11-02 16:49:06,369e9153-64b7-4347-a80f-113bf36875de,A
2019-11-02 16:50:32,369e9153-64b7-4347-a80f-113bf36875de,S
2019-11-02 16:52:41,369e9153-64b7-4347-a80f-113bf36875de,A
2019-11-02 16:59:43,369e9153-64b7-4347-a80f-113bf36875de,S
2019-11-02 17:05:50,369e9153-64b7-4347-a80f-113bf36875de,A
2019-11-02 17:09:44,369e9153-64b7-4347-a80f-113bf36875de,S
2019-11-02 17:13:06,369e9153-64b7-4347-a80f-113bf36875de,A
2019-11-02 17:14:41,369e9153-64b7-4347-a80f-113bf36875de,S
2019-11-02 17:14:51,369e9153-64b7-4347-a80f-113bf36875de,A
2019-11-02 17:17:11,369e9153-64b7-4347-a80f-113bf36875de,S
2019-11-02 17:21:28,369e9153-64b7-4347-a80f-113bf36875de,A
2019-11-02 17:24:22,369e9153-64b7-4347-a80f-113bf36875de,S
2019-11-02 17:25:17,369e9153-64b7-4347-a80f-113bf36875de,A
2019-11-02 17:35:41,369e9153-64b7-4347-a80f-113bf36875de,S
2019-11-02 17:35:44,369e9153-64b7-4347-a80f-113bf36875de,A
2019-11-02 17:36:16,369e9153-64b7-4347-a80f-113bf36875de,S
2019-11-02 17:36:45,369e9153-64b7-4347-a80f-113bf36875de,A
2019-11-02 17:36:58,369e9153-64b7-4347-a80f-113bf36875de,S
2019-11-02 17:40:53,369e9153-64b7-4347-a80f-113bf36875de,A
2019-11-02 17:48:42,369e9153-64b7-4347-a80f-113bf36875de,S
2019-11-02 17:54:41,369e9153-64b7-4347-a80f-113bf36875de,A
2019-11-02 17:57:34,369e9153-64b7-4347-a80f-113bf36875de,S
2019-11-02 17:59:34,369e9153-64b7-4347-a80f-113bf36875de,A
2019-11-02 16:37:59,21181956-0a05-49c0-bc2a-0d2f7bb54c3b,S
2019-11-02 16:39:55,21181956-0a05-49c0-bc2a-0d2f7bb54c3b,A
2019-11-02 16:40:24,21181956-0a05-49c0-bc2a-0d2f7bb54c3b,S
2019-11-02 16:48:42,21181956-0a05-49c0-bc2a-0d2f7bb54c3b,A
2019-11-02 16:51:34,21181956-0a05-49c0-bc2a-0d2f7bb54c3b,S
2019-11-02 16:57:55,21181956-0a05-49c0-bc2a-0d2f7bb54c3b,A
2019-11-02 17:02:31,21181956-0a05-49c0-bc2a-0d2f7bb54c3b,S
2019-11-02 17:03:45,21181956-0a05-49c0-bc2a-0d2f7bb54c3b,A
2019-11-02 17:12:28,21181956-0a05-49c0-bc2a-0d2f7bb54c3b,S
2019-11-02 17:14:03,21181956-0a05-49c0-bc2a-0d2f7bb54c3b,A
2019-11-02 17:22:04,21181956-0a05-49c0-bc2a-0d2f7bb54c3b,S
2019-11-02 17:22:17,21181956-0a05-49c0-bc2a-0d2f7bb54c3b,A
2019-11-02 17:28:52,21181956-0a05-49c0-bc2a-0d2f7bb54c3b,S
2019-11-02 17:33:46,21181956-0a05-49c0-bc2a-0d2f7bb54c3b,A
2019-11-02 17:34:41,21181956-0a05-49c0-bc2a-0d2f7bb54c3b,S
2019-11-02 17:36:38,21181956-0a05-49c0-bc2a-0d2f7bb54c3b,A
2019-11-02 17:36:40,21181956-0a05-49c0-bc2a-0d2f7bb54c3b,S
2019-11-02 17:38:00,21181956-0a05-49c0-bc2a-0d2f7bb54c3b,A
2019-11-02 17:40:46,21181956-0a05-49c0-bc2a-0d2f7bb54c3b,S
2019-11-02 17:48:12,21181956-0a05-49c0-bc2a-0d2f7bb54c3b,A
2019-11-02 17:49:45,21181956-0a05-49c0-bc2a-0d2f7bb54c3b,S
2019-11-02 17:50:21,21181956-0a05-49c0-bc2a-0d2f7bb54c3b,A
2019-11-02 17:57:23,21181956-0a05-49c0-bc2a-0d2f7bb54c3b,S
2019-11-02 18:00:52,21181956-0a05-49c0-bc2a-0d2f7bb54c3b,A
2019-11-02 16:12:05,8bf92184-935e-4c4b-85b8-3d9928fd62eb,A
2019-11-02 16:15:31,8bf92184-935e-4c4b-85b8-3d9928fd62eb,S
2019-11-02 16:20:36,8bf92184-935e-4c4b-85b8-3d9928fd62eb,A
2019-11-02 16:22:27,8bf92184-935e-4c4b-85b8-3d9928fd62eb,S
2019-11-02 16:32:58,8bf92184-935e-4c4b-85b8-3d9928fd62eb,A
2019-11-02 16:33:33,8bf92184-935e-4c4b-85b8-3d9928fd62eb,S
2019-11-02 16:41:57,8bf92184-935e-4c4b-85b8-3d9928fd62eb,A
2019-11-02 16:44:18,8bf92184-935e-4c4b-85b8-3d9928fd62eb,S
2019-11-02 16:52:41,8bf92184-935e-4c4b-85b8-3d9928fd62eb,A
2019-11-02 17:11:07,8bf92184-935e-4c4b-85b8-3d9928fd62eb,S
2019-11-02 17:12:23,8bf92184-935e-4c4b-85b8-3d9928fd62eb,A
2019-11-02 17:12:34,8bf92184-935e-4c4b-85b8-3d9928fd62eb,S
2019-11-02 17:15:47,8bf92184-935e-4c4b-85b8-3d9928fd62eb,A
2019-11-02 17:24:37,8bf92184-935e-4c4b-85b8-3d9928fd62eb,S
2019-11-02 17:39:42,8bf92184-935e-4c4b-85b8-3d9928fd62eb,A
2019-11-02 17:40:00,8bf92184-935e-4c4b-85b8-3d9928fd62eb,S
2019-11-02 17:50:31,8bf92184-935e-4c4b-85b8-3d9928fd62eb,A
2019-11-02 18:03:31,8bf92184-935e-4c4b-85b8-3d9928fd62eb,S
2019-11-02 16:25:52,aee67715-4d49-491a-b372-af39e985baf1,A
2019-11-02 16:44:46,aee67715-4d49-491a-b372-af39e985baf1,S
2019-11-02 16:45:07,aee67715-4d49-491a-b372-af39e985baf1,A
2019-11-02 16:47:51,aee67715-4d49-491a-b372-af39e985baf1,S
2019-11-02 16:51:51,aee67715-4d49-491a-b372-af39e985baf1,A
2019-11-02 16:52:21,aee67715-4d49-491a-b372-af39e985baf1,S
2019-11-02 16:55:22,aee67715-4d49-491a-b372-af39e985baf1,A
2019-11-02 16:57:01,aee67715-4d49-491a-b372-af39e985baf1,S
2019-11-02 17:11:30,aee67715-4d49-491a-b372-af39e985baf1,A
2019-11-02 17:13:07,aee67715-4d49-491a-b372-af39e985baf1,S
2019-11-02 17:13:12,aee67715-4d49-491a-b372-af39e985baf1,A
2019-11-02 17:15:32,aee67715-4d49-491a-b372-af39e985baf1,S
2019-11-02 17:15:40,aee67715-4d49-491a-b372-af39e985baf1,A
2019-11-02 17:17:42,aee67715-4d49-491a-b372-af39e985baf1,S
2019-11-02 17:21:43,aee67715-4d49-491a-b372-af39e985baf1,A
2019-11-02 17:32:26,aee67715-4d49-491a-b372-af39e985baf1,S
2019-11-02 17:38:10,aee67715-4d49-491a-b372-af39e985baf1,A
2019-11-02 17:40:24,aee67715-4d49-491a-b372-af39e985baf1,S
2019-11-02 17:43:50,aee67715-4d49-491a-b372-af39e985baf1,A
2019-11-02 17:47:23,aee67715-4d49-491a-b372-af39e985baf1,S
2019-11-02 16:32:47,29f0553d-3aee-41d0-9ac1-ae0c2c0d9a78,A
2019-11-02 16:33:16,29f0553d-3aee-41d0-9ac1-ae0c2c0d9a78,S
2019-11-02 16:41:46,29f0553d-3aee-41d0-9ac1-ae0c2c0d9a78,A
2019-11-02 16:43:05,29f0553d-3aee-41d0-9ac1-ae0c2c0d9a78,S
2019-11-02 16:43:06,29f0553d-3aee-41d0-9ac1-ae0c2c0d9a78,A
2019-11-02 16:51:42,29f0553d-3aee-41d0-9ac1-ae0c2c0d9a78,S
2019-11-02 16:52:57,29f0553d-3aee-41d0-9ac1-ae0c2c0d9a78,A
2019-11-02 16:53:47,29f0553d-3aee-41d0-9ac1-ae0c2c0d9a78,S
2019-11-02 16:57:34,29f0553d-3aee-41d0-9ac1-ae0c2c0d9a78,A
2019-11-02 16:58:40,29f0553d-3aee-41d0-9ac1-ae0c2c0d9a78,S
2019-11-02 16:58:52,29f0553d-3aee-41d0-9ac1-ae0c2c0d9a78,A
2019-11-02 17:04:25,29f0553d-3aee-41d0-9ac1-ae0c2c0d9a78,S
2019-11-02 17:09:44,29f0553d-3aee-41d0-9ac1-ae0c2c0d9a78,A
2019-11-02 17:22:00,29f0553d-3aee-41d0-9ac1-ae0c2c0d9a78,S
2019-11-02 17:22:15,29f0553d-3aee-41d0-9ac1-ae0c2c0d9a78,A
2019-11-02 17:26:25,29f0553d-3aee-41d0-9ac1-ae0c2c0d9a78,S
2019-11-02 17:36:02,29f0553d-3aee-41d0-9ac1-ae0c2c0d9a78,A
2019-11-02 17:48:07,29f0553d-3aee-41d0-9ac1-ae0c2c0d9a78,S
2019-11-02 17:51:36,29f0553d-3aee-41d0-9ac1-ae0c2c0d9a78,A
2019-11-02 17:55:59,29f0553d-3aee-41d0-9ac1-ae0c2c0d9a78,S
2019-11-02 17:57:24,29f0553d-3aee-41d0-9ac1-ae0c2c0d9a78,A
2019-11-02 17:57:59,29f0553d-3aee-41d0-9ac1-ae0c2c0d9a78,S
2019-11-02 16:01:30,02ac930e-a230-4b07-9f27-74bd47671aa2,A
2019-11-02 16:04:57,02ac930e-a230-4b07-9f27-74bd47671aa2,S
2019-11-02 16:13:31,02ac930e-a230-4b07-9f27-74bd47671aa2,A
2019-11-02 16:16:34,02ac930e-a230-4b07-9f27-74bd47671aa2,S
2019-11-02 16:16:51,02ac930e-a230-4b07-9f27-74bd47671aa2,A
2019-11-02 16:19:19,02ac930e-a230-4b07-9f27-74bd47671aa2,S
2019-11-02 16:24:39,02ac930e-a230-4b07-9f27-74bd47671aa2,A
2019-11-02 16:28:34,02ac930e-a230-4b07-9f27-74bd47671aa2,S
2019-11-02 16:31:19,02ac930e-a230-4b07-9f27-74bd47671aa2,A
2019-11-02 16:42:07,02ac930e-a230-4b07-9f27-74bd47671aa2,S
2019-11-02 16:47:44,02ac930e-a230-4b07-9f27-74bd47671aa2,A
2019-11-02 17:10:18,02ac930e-a230-4b07-9f27-74bd47671aa2,S
2019-11-02 17:34:39,02ac930e-a230-4b07-9f27-74bd47671aa2,A
2019-11-02 17:41:14,02ac930e-a230-4b07-9f27-74bd47671aa2,S
2019-11-02 17:44:40,02ac930e-a230-4b07-9f27-74bd47671aa2,A
2019-11-02 17:47:34,02ac930e-a230-4b07-9f27-74bd47671aa2,S
2019-11-02 17:52:19,02ac930e-a230-4b07-9f27-74bd47671aa2,A
2019-11-02 16:37:33,59031f58-a919-4566-beb1-8a83ffd600d6,A
2019-11-02 16:41:01,59031f58-a919-4566-beb1-8a83ffd600d6,S
2019-11-02 16:44:05,59031f58-a919-4566-beb1-8a83ffd600d6,A
2019-11-02 16:53:02,59031f58-a919-4566-beb1-8a83ffd600d6,S
2019-11-02 17:07:59,59031f58-a919-4566-beb1-8a83ffd600d6,A
2019-11-02 17:09:01,59031f58-a919-4566-beb1-8a83ffd600d6,S
2019-11-02 17:09:30,59031f58-a919-4566-beb1-8a83ffd600d6,A
2019-11-02 17:10:09,59031f58-a919-4566-beb1-8a83ffd600d6,S
2019-11-02 17:17:13,59031f58-a919-4566-beb1-8a83ffd600d6,A
2019-11-02 17:22:23,59031f58-a919-4566-beb1-8a83ffd600d6,S
2019-11-02 17:41:15,59031f58-a919-4566-beb1-8a83ffd600d6,A
2019-11-02 17:43:22,59031f58-a919-4566-beb1-8a83ffd600d6,S
2019-11-02 17:50:29,59031f58-a919-4566-beb1-8a83ffd600d6,A
2019-11-02 17:53:59,59031f58-a919-4566-beb1-8a83ffd600d6,S
2019-11-02 16:08:23,72272544-cf73-490a-a54c-4e3535f7dd10,S
2019-11-02 16:12:30,72272544-cf73-490a-a54c-4e3535f7dd10,A
2019-11-02 16:22:54,72272544-cf73-490a-a54c-4e3535f7dd10,S
2019-11-02 16:24:28,72272544-cf73-490a-a54c-4e3535f7dd10,A
2019-11-02 16:31:58,72272544-cf73-490a-a54c-4e3535f7dd10,S
2019-11-02 16:32:13,72272544-cf73-490a-a54c-4e3535f7dd10,A
2019-11-02 16:33:38,72272544-cf73-490a-a54c-4e3535f7dd10,S
2019-11-02 16:50:55,72272544-cf73-490a-a54c-4e3535f7dd10,A
2019-11-02 16:56:41,72272544-cf73-490a-a54c-4e3535f7dd10,S
2019-11-02 17:00:16,72272544-cf73-490a-a54c-4e3535f7dd10,A
2019-11-02 17:03:28,72272544-cf73-490a-a54c-4e3535f7dd10,S
2019-11-02 17:03:44,72272544-cf73-490a-a54c-4e3535f7dd10,A
2019-11-02 17:22:19,72272544-cf73-490a-a54c-4e3535f7dd10,S
2019-11-02 17:22:45,72272544-cf73-490a-a54c-4e3535f7dd10,A
2019-11-02 17:25:36,72272544-cf73-490a-a54c-4e3535f7dd10,S
2019-11-02 17:39:09,72272544-cf73-490a-a54c-4e3535f7dd10,A
2019-11-02 17:42:27,72272544-cf73-490a-a54c-4e3535f7dd10,S
2019-11-02 17:44:54,72272544-cf73-490a-a54c-4e3535f7dd10,A
2019-11-02 17:45:32,72272544-cf73-490a-a54c-4e3535f7dd10,S
2019-11-02 17:50:45,72272544-cf73-490a-a54c-4e3535f7dd10,A
2019-11-02 17:55:25,72272544-cf73-490a-a54c-4e3535f7dd10,S
2019-11-02 17:59:22,72272544-cf73-490a-a54c-4e3535f7dd10,A
2019-11-02 18:01:14,72272544-cf73-490a-a54c-4e3535f7dd10,S
2019-11-02 18:02:12,72272544-cf73-490a-a54c-4e3535f7dd10,A
2019-11-02 16:17:57,0dd60954-03ed-4e3f-9666-e54efcc39637,A
2019-11-02 16:25:46,0dd60954-03ed-4e3f-9666-e54efcc39637,S
2019-11-02 16:27:17,0dd60954-03ed-4e3f-9666-e54efcc39637,A
2019-11-02 16:29:54,0dd60954-03ed-4e3f-9666-e54efcc39637,S
2019-11-02 16:34:35,0dd60954-03ed-4e3f-9666-e54efcc39637,A
2019-11-02 16:49:17,0dd60954-03ed-4e3f-9666-e54efcc39637,S
2019-11-02 16:49:52,0dd60954-03ed-4e3f-9666-e54efcc39637,A
2019-11-02 16:55:23,0dd60954-03ed-4e3f-9666-e54efcc39637,S
2019-11-02 17:02:35,0dd60954-03ed-4e3f-9666-e54efcc39637,A
2019-11-02 17:03:10,0dd60954-03ed-4e3f-9666-e54efcc39637,S
2019-11-02 17:15:01,0dd60954-03ed-4e3f-9666-e54efcc39637,A
2019-11-02 17:18:09,0dd60954-03ed-4e3f-9666-e54efcc39637,S
2019-11-02 17:29:59,0dd60954-03ed-4e3f-9666-e54efcc39637,A
2019-11-02 17:41:56,0dd60954-03ed-4e3f-9666-e54efcc39637,S
2019-11-02 17:46:48,0dd60954-03ed-4e3f-9666-e54efcc39637,A
2019-11-02 17:47:21,0dd60954-03ed-4e3f-9666-e54efcc39637,S
2019-11-02 17:47:39,0dd60954-03ed-4e3f-9666-e54efcc39637,A
2019-11-02 17:47:49,0dd60954-03ed-4e3f-9666-e54efcc39637,S
2019-11-02 16:11:45,4509df1e-eb07-480a-ad1b-abeab760d6a7,S
2019-11-02 16:23:41,4509df1e-eb07-480a-ad1b-abeab760d6a7,A
2019-11-02 16:23:59,4509df1e-eb07-480a-ad1b-abeab760d6a7,S
2019-11-02 16:39:23,4509df1e-eb07-480a-ad1b-abeab760d6a7,A
2019-11-02 16:42:16,4509df1e-eb07-480a-ad1b-abeab760d6a7,S
2019-11-02 16:44:16,4509df1e-eb07-480a-ad1b-abeab760d6a7,A
2019-11-02 16:52:22,4509df1e-eb07-480a-ad1b-abeab760d6a7,S
2019-11-02 16:53:18,4509df1e-eb07-480a-ad1b-abeab760d6a7,A
2019-11-02 16:55:31,4509df1e-eb07-480a-ad1b-abeab760d6a7,S
2019-11-02 17:09:56,4509df1e-eb07-480a-ad1b-abeab760d6a7,A
2019-11-02 17:15:14,4509df1e-eb07-480a-ad1b-abeab760d6a7,S
2019-11-02 17:16:47,4509df1e-eb07-480a-ad1b-abeab760d6a7,A
2019-11-02 16:31:35,bb276e6a-8fd5-48b9-8958-6018f01b9c93,S
2019-11-02 16:33:53,bb276e6a-8fd5-48b9-8958-6018f01b9c93,A
2019-11-02 16:39:05,bb276e6a-8fd5-48b9-8958-6018f01b9c93,S
2019-11-02 16:47:11,bb276e6a-8fd5-48b9-8958-6018f01b9c93,A
2019-11-02 16:54:34,bb276e6a-8fd5-48b9-8958-6018f01b9c93,S
2019-11-02 16:54:56,bb276e6a-8fd5-48b9-8958-6018f01b9c93,A
2019-11-02 17:00:29,bb276e6a-8fd5-48b9-8958-6018f01b9c93,S
2019-11-02 17:11:33,bb276e6a-8fd5-48b9-8958-6018f01b9c93,A
2019-11-02 17:15:57,bb276e6a-8fd5-48b9-8958-6018f01b9c93,S
2019-11-02 17:18:45,bb276e6a-8fd5-48b9-8958-6018f01b9c93,A
2019-11-02 17:25:27,bb276e6a-8fd5-48b9-8958-6018f01b9c93,S
2019-11-02 17:26:17,bb276e6a-8fd5-48b9-8958-6018f01b9c93,A
2019-11-02 17:29:03,bb276e6a-8fd5-48b9-8958-6018f01b9c93,S
2019-11-02 17:32:53,bb276e6a-8fd5-48b9-8958-6018f01b9c93,A
2019-11-02 17:39:21,bb276e6a-8fd5-48b9-8958-6018f01b9c93,S
2019-11-02 17:42:26,bb276e6a-8fd5-48b9-8958-6018f01b9c93,A
2019-11-02 17:54:46,bb276e6a-8fd5-48b9-8958-6018f01b9c93,S
2019-11-02 17:59:32,bb276e6a-8fd5-48b9-8958-6018f01b9c93,A
2019-11-02 18:01:37,bb276e6a-8fd5-48b9-8958-6018f01b9c93,S
2019-11-02 16:25:36,6dafe226-9a4c-44c3-b16c-b53592975822,S
2019-11-02 16:30:52,6dafe226-9a4c-44c3-b16c-b53592975822,A
2019-11-02 16:37:35,6dafe226-9a4c-44c3-b16c-b53592975822,S
2019-11-02 16:42:35,6dafe226-9a4c-44c3-b16c-b53592975822,A
2019-11-02 16:43:31,6dafe226-9a4c-44c3-b16c-b53592975822,S
2019-11-02 16:50:18,6dafe226-9a4c-44c3-b16c-b53592975822,A
2019-11-02 16:52:33,6dafe226-9a4c-44c3-b16c-b53592975822,S
2019-11-02 16:58:39,6dafe226-9a4c-44c3-b16c-b53592975822,A
2019-11-02 16:58:41,6dafe226-9a4c-44c3-b16c-b53592975822,S
2019-11-02 16:59:25,6dafe226-9a4c-44c3-b16c-b53592975822,A
2019-11-02 17:03:18,6dafe226-9a4c-44c3-b16c-b53592975822,S
2019-11-02 17:08:55,6dafe226-9a4c-44c3-b16c-b53592975822,A
2019-11-02 17:10:56,6dafe226-9a4c-44c3-b16c-b53592975822,S
2019-11-02 17:14:09,6dafe226-9a4c-44c3-b16c-b53592975822,A
2019-11-02 17:17:00,6dafe226-9a4c-44c3-b16c-b53592975822,S
2019-11-02 17:20:15,6dafe226-9a4c-44c3-b16c-b53592975822,A
2019-11-02 17:29:16,6dafe226-9a4c-44c3-b16c-b53592975822,S
2019-11-02 17:32:50,6dafe226-9a4c-44c3-b16c-b53592975822,A
2019-11-02 17:33:49,6dafe226-9a4c-44c3-b16c-b53592975822,S
2019-11-02 17:37:16,6dafe226-9a4c-44c3-b16c-b53592975822,A
2019-11-02 17:39:14,6dafe226-9a4c-44c3-b16c-b53592975822,S
2019-11-02 17:39:55,6dafe226-9a4c-44c3-b16c-b53592975822,A
2019-11-02 17:47:04,6dafe226-9a4c-44c3-b16c-b53592975822,S
2019-11-02 17:49:28,6dafe226-9a4c-44c3-b16c-b53592975822,A
2019-11-02 18:03:19,6dafe226-9a4c-44c3-b16c-b53592975822,S
2019-11-02 16:20:51,72f208e1-6df1-4f65-99c3-9c250cc39f65,S
2019-11-02 16:29:54,72f208e1-6df1-4f65-99c3-9c250cc39f65,A
2019-11-02 16:35:05,72f208e1-6df1-4f65-99c3-9c250cc39f65,S
2019-11-02 16:47:51,72f208e1-6df1-4f65-99c3-9c250cc39f65,A
2019-11-02 16:48:50,72f208e1-6df1-4f65-99c3-9c250cc39f65,S
2019-11-02 17:00:03,72f208e1-6df1-4f65-99c3-9c250cc39f65,A
2019-11-02 17:00:17,72f208e1-6df1-4f65-99c3-9c250cc39f65,S
2019-11-02 17:03:43,72f208e1-6df1-4f65-99c3-9c250cc39f65,A
2019-11-02 17:14:47,72f208e1-6df1-4f65-99c3-9c250cc39f65,S
2019-11-02 17:17:48,72f208e1-6df1-4f65-99c3-9c250cc39f65,A
2019-11-02 17:24:24,72f208e1-6df1-4f65-99c3-9c250cc39f65,S
2019-11-02 17:26:20,72f208e1-6df1-4f65-99c3-9c250cc39f65,A
2019-11-02 17:33:45,72f208e1-6df1-4f65-99c3-9c250cc39f65,S
2019-11-02 17:37:52,72f208e1-6df1-4f65-99c3-9c250cc39f65,A
2019-11-02 17:38:33,72f208e1-6df1-4f65-99c3-9c250cc39f65,S
2019-11-02 17:38:56,72f208e1-6df1-4f65-99c3-9c250cc39f65,A
2019-11-02 17:42:19,72f208e1-6df1-4f65-99c3-9c250cc39f65,S
2019-11-02 17:45:23,72f208e1-6df1-4f65-99c3-9c250cc39f65,A
2019-11-02 17:58:34,72f208e1-6df1-4f65-99c3-9c250cc39f65,S
2019-11-02 18:02:44,72f208e1-6df1-4f65-99c3-9c250cc39f65,A
2019-11-02 18:02:50,72f208e1-6df1-4f65-99c3-9c250cc39f65,S
2019-11-02 16:16:30,631e2bb7-d305-4d8f-b0c8-d9d0737924b4,S
2019-11-02 16:24:08,631e2bb7-d305-4d8f-b0c8-d9d0737924b4,A
2019-11-02 16:26:04,631e2bb7-d305-4d8f-b0c8-d9d0737924b4,S
2019-11-02 16:37:22,631e2bb7-d305-4d8f-b0c8-d9d0737924b4,A
2019-11-02 16:39:12,631e2bb7-d305-4d8f-b0c8-d9d0737924b4,S
2019-11-02 16:39:53,631e2bb7-d305-4d8f-b0c8-d9d0737924b4,A
2019-11-02 16:49:24,631e2bb7-d305-4d8f-b0c8-d9d0737924b4,S
2019-11-02 16:52:39,631e2bb7-d305-4d8f-b0c8-d9d0737924b4,A
2019-11-02 16:53:15,631e2bb7-d305-4d8f-b0c8-d9d0737924b4,S
2019-11-02 16:53:46,631e2bb7-d305-4d8f-b0c8-d9d0737924b4,A
2019-11-02 16:58:50,631e2bb7-d305-4d8f-b0c8-d9d0737924b4,S
2019-11-02 16:59:15,631e2bb7-d305-4d8f-b0c8-d9d0737924b4,A
2019-11-02 16:59:38,631e2bb7-d305-4d8f-b0c8-d9d0737924b4,S
2019-11-02 17:00:23,631e2bb7-d305-4d8f-b0c8-d9d0737924b4,A
2019-11-02 17:02:14,631e2bb7-d305-4d8f-b0c8-d9d0737924b4,S
2019-11-02 17:03:06,631e2bb7-d305-4d8f-b0c8-d9d0737924b4,A
2019-11-02 17:13:40,631e2bb7-d305-4d8f-b0c8-d9d0737924b4,S
2019-11-02 17:14:52,631e2bb7-d305-4d8f-b0c8-d9d0737924b4,A
2019-11-02 17:21:45,631e2bb7-d305-4d8f-b0c8-d9d0737924b4,S
2019-11-02 17:30:25,631e2bb7-d305-4d8f-b0c8-d9d0737924b4,A
2019-11-02 17:33:33,631e2bb7-d305-4d8f-b0c8-d9d0737924b4,S
2019-11-02 17:37:08,631e2bb7-d305-4d8f-b0c8-d9d0737924b4,A
2019-11-02 17:37:24,631e2bb7-d305-4d8f-b0c8-d9d0737924b4,S
2019-11-02 17:44:29,631e2bb7-d305-4d8f-b0c8-d9d0737924b4,A
2019-11-02 17:44:37,631e2bb7-d305-4d8f-b0c8-d9d0737924b4,S
2019-11-02 17:45:03,631e2bb7-d305-4d8f-b0c8-d9d0737924b4,A
2019-11-02 17:45:40,631e2bb7-d305-4d8f-b0c8-d9d0737924b4,S
2019-11-02 17:47:45,631e2bb7-d305-4d8f-b0c8-d9d0737924b4,A
2019-11-02 17:47:48,631e2bb7-d305-4d8f-b0c8-d9d0737924b4,S
2019-11-02 17:59:34,631e2bb7-d305-4d8f-b0c8-d9d0737924b4,A
2019-11-02 18:02:58,631e2bb7-d305-4d8f-b0c8-d9d0737924b4,S
2019-11-02 18:04:50,631e2bb7-d305-4d8f-b0c8-d9d0737924b4,A
2019-11-02 16:29:34,bd2aae7e-36eb-49db-8eaf-fc74d598cb37,S
2019-11-02 16:30:16,bd2aae7e-36eb-49db-8eaf-fc74d598cb37,A
2019-11-02 16:45:57,bd2aae7e-36eb-49db-8eaf-fc74d598cb37,S
2019-11-02 16:53:11,bd2aae7e-36eb-49db-8eaf-fc74d598cb37,A
2019-11-02 16:53:33,bd2aae7e-36eb-49db-8eaf-fc74d598cb37,S
2019-11-02 16:54:03,bd2aae7e-36eb-49db-8eaf-fc74d598cb37,A
2019-11-02 16:55:09,bd2aae7e-36eb-49db-8eaf-fc74d598cb37,S
2019-11-02 17:02:57,bd2aae7e-36eb-49db-8eaf-fc74d598cb37,A
2019-11-02 17:05:27,bd2aae7e-36eb-49db-8eaf-fc74d598cb37,S
2019-11-02 17:06:25,bd2aae7e-36eb-49db-8eaf-fc74d598cb37,A
2019-11-02 17:11:24,bd2aae7e-36eb-49db-8eaf-fc74d598cb37,S
2019-11-02 17:14:50,bd2aae7e-36eb-49db-8eaf-fc74d598cb37,A
2019-11-02 17:22:32,bd2aae7e-36eb-49db-8eaf-fc74d598cb37,S
2019-11-02 17:26:04,bd2aae7e-36eb-49db-8eaf-fc74d598cb37,A
2019-11-02 17:27:08,bd2aae7e-36eb-49db-8eaf-fc74d598cb37,S
2019-11-02 17:28:26,bd2aae7e-36eb-49db-8eaf-fc74d598cb37,A
2019-11-02 17:37:35,bd2aae7e-36eb-49db-8eaf-fc74d598cb37,S
2019-11-02 17:38:42,bd2aae7e-36eb-49db-8eaf-fc74d598cb37,A
2019-11-02 17:41:20,bd2aae7e-36eb-49db-8eaf-fc74d598cb37,S
2019-11-02 17:43:26,bd2aae7e-36eb-49db-8eaf-fc74d598cb37,A
2019-11-02 17:51:59,bd2aae7e-36eb-49db-8eaf-fc74d598cb37,S
2019-11-02 17:54:13,bd2aae7e-36eb-49db-8eaf-fc74d598cb37,A
2019-11-02 17:59:10,bd2aae7e-36eb-49db-8eaf-fc74d598cb37,S
2019-11-02 18:02:37,bd2aae7e-36eb-49db-8eaf-fc74d598cb37,A
2019-11-02 18:03:12,bd2aae7e-36eb-49db-8eaf-fc74d598cb37,S
2019-11-02 18:04:45,bd2aae7e-36eb-49db-8eaf-fc74d598cb37,A
2019-11-02 16:32:25,3ae7d058-8e21-4829-8fd4-5667dc2f521f,A
2019-11-02 16:35:54,3ae7d058-8e21-4829-8fd4-5667dc2f521f,S
2019-11-02 16:38:10,3ae7d058-8e21-4829-8fd4-5667dc2f521f,A
2019-11-02 16:40:11,3ae7d058-8e21-4829-8fd4-5667dc2f521f,S
2019-11-02 16:40:46,3ae7d058-8e21-4829-8fd4-5667dc2f521f,A
2019-11-02 16:43:21,3ae7d058-8e21-4829-8fd4-5667dc2f521f,S
2019-11-02 16:50:13,3ae7d058-8e21-4829-8fd4-5667dc2f521f,A
2019-11-02 16:51:40,3ae7d058-8e21-4829-8fd4-5667dc2f521f,S
2019-11-02 17:01:56,3ae7d058-8e21-4829-8fd4-5667dc2f521f,A
2019-11-02 17:41:01,3ae7d058-8e21-4829-8fd4-5667dc2f521f,S
2019-11-02 17:50:55,3ae7d058-8e21-4829-8fd4-5667dc2f521f,A
2019-11-02 17:50:59,3ae7d058-8e21-4829-8fd4-5667dc2f521f,S
2019-11-02 17:51:41,3ae7d058-8e21-4829-8fd4-5667dc2f521f,A
2019-11-02 17:54:45,3ae7d058-8e21-4829-8fd4-5667dc2f521f,S
2019-11-02 17:56:06,3ae7d058-8e21-4829-8fd4-5667dc2f521f,A
2019-11-02 17:57:27,3ae7d058-8e21-4829-8fd4-5667dc2f521f,S
2019-11-02 18:01:37,3ae7d058-8e21-4829-8fd4-5667dc2f521f,A
2019-11-02 18:03:11,3ae7d058-8e21-4829-8fd4-5667dc2f521f,S
2019-11-02 18:03:17,3ae7d058-8e21-4829-8fd4-5667dc2f521f,A
2019-11-02 15:59:28,14ee2bff-458e-4749-8a55-e2685cea2bce,S
2019-11-02 16:03:32,14ee2bff-458e-4749-8a55-e2685cea2bce,A
2019-11-02 16:04:21,14ee2bff-458e-4749-8a55-e2685cea2bce,S
2019-11-02 16:09:34,14ee2bff-458e-4749-8a55-e2685cea2bce,A
2019-11-02 16:14:27,14ee2bff-458e-4749-8a55-e2685cea2bce,S
2019-11-02 16:19:26,14ee2bff-458e-4749-8a55-e2685cea2bce,A
2019-11-02 16:22:00,14ee2bff-458e-4749-8a55-e2685cea2bce,S
2019-11-02 16:22:47,14ee2bff-458e-4749-8a55-e2685cea2bce,A
2019-11-02 16:33:23,14ee2bff-458e-4749-8a55-e2685cea2bce,S
2019-11-02 16:33:46,14ee2bff-458e-4749-8a55-e2685cea2bce,A
2019-11-02 16:41:24,14ee2bff-458e-4749-8a55-e2685cea2bce,S
2019-11-02 16:46:44,14ee2bff-458e-4749-8a55-e2685cea2bce,A
2019-11-02 16:47:10,14ee2bff-458e-4749-8a55-e2685cea2bce,S
2019-11-02 16:53:36,14ee2bff-458e-4749-8a55-e2685cea2bce,A
2019-11-02 16:55:40,14ee2bff-458e-4749-8a55-e2685cea2bce,S
2019-11-02 16:55:53,14ee2bff-458e-4749-8a55-e2685cea2bce,A
2019-11-02 17:00:56,14ee2bff-458e-4749-8a55-e2685cea2bce,S
2019-11-02 17:01:37,14ee2bff-458e-4749-8a55-e2685cea2bce,A
2019-11-02 17:18:44,14ee2bff-458e-4749-8a55-e2685cea2bce,S
2019-11-02 17:21:01,14ee2bff-458e-4749-8a55-e2685cea2bce,A
2019-11-02 17:21:20,14ee2bff-458e-4749-8a55-e2685cea2bce,S
2019-11-02 17:24:46,14ee2bff-458e-4749-8a55-e2685cea2bce,A
2019-11-02 17:24:57,14ee2bff-458e-4749-8a55-e2685cea2bce,S
2019-11-02 17:31:58,14ee2bff-458e-4749-8a55-e2685cea2bce,A
2019-11-02 17:37:47,14ee2bff-458e-4749-8a55-e2685cea2bce,S
2019-11-02 17:58:29,14ee2bff-458e-4749-8a55-e2685cea2bce,A
2019-11-02 17:59:46,14ee2bff-458e-4749-8a55-e2685cea2bce,S
2019-11-02 16:38:10,14e080aa-11ea-4deb-9036-b9c6587f6478,S
2019-11-02 16:38:53,14e080aa-11ea-4deb-9036-b9c6587f6478,A
2019-11-02 16:42:24,14e080aa-11ea-4deb-9036-b9c6587f6478,S
2019-11-02 16:46:26,14e080aa-11ea-4deb-9036-b9c6587f6478,A
2019-11-02 16:54:15,14e080aa-11ea-4deb-9036-b9c6587f6478,S
2019-11-02 17:00:44,14e080aa-11ea-4deb-9036-b9c6587f6478,A
2019-11-02 17:04:55,14e080aa-11ea-4deb-9036-b9c6587f6478,S
2019-11-02 17:06:20,14e080aa-11ea-4deb-9036-b9c6587f6478,A
2019-11-02 17:16:45,14e080aa-11ea-4deb-9036-b9c6587f6478,S
2019-11-02 17:17:00,14e080aa-11ea-4deb-9036-b9c6587f6478,A
2019-11-02 17:17:16,14e080aa-11ea-4deb-9036-b9c6587f6478,S
2019-11-02 17:18:46,14e080aa-11ea-4deb-9036-b9c6587f6478,A
2019-11-02 17:26:36,14e080aa-11ea-4deb-9036-b9c6587f6478,S
2019-11-02 17:30:33,14e080aa-11ea-4deb-9036-b9c6587f6478,A
2019-11-02 17:33:11,14e080aa-11ea-4deb-9036-b9c6587f6478,S
2019-11-02 17:35:38,14e080aa-11ea-4deb-9036-b9c6587f6478,A
2019-11-02 17:37:45,14e080aa-11ea-4deb-9036-b9c6587f6478,S
2019-11-02 17:42:26,14e080aa-11ea-4deb-9036-b9c6587f6478,A
2019-11-02 17:48:48,14e080aa-11ea-4deb-9036-b9c6587f6478,S
2019-11-02 17:48:58,14e080aa-11ea-4deb-9036-b9c6587f6478,A
2019-11-02 17:49:37,14e080aa-11ea-4deb-9036-b9c6587f6478,S
2019-11-02 17:51:55,14e080aa-11ea-4deb-9036-b9c6587f6478,A
2019-11-02 18:06:21,14e080aa-11ea-4deb-9036-b9c6587f6478,S
2019-11-02 16:14:12,2d8168f6-da10-4a00-be1e-b16ca0a3974b,A
2019-11-02 16:21:05,2d8168f6-da10-4a00-be1e-b16ca0a3974b,S
2019-11-02 16:25:51,2d8168f6-da10-4a00-be1e-b16ca0a3974b,A
2019-11-02 16:32:25,2d8168f6-da10-4a00-be1e-b16ca0a3974b,S
2019-11-02 16:38:19,2d8168f6-da10-4a00-be1e-b16ca0a3974b,A
2019-11-02 16:48:57,2d8168f6-da10-4a00-be1e-b16ca0a3974b,S
2019-11-02 16:56:13,2d8168f6-da10-4a00-be1e-b16ca0a3974b,A
2019-11-02 16:58:39,2d8168f6-da10-4a00-be1e-b16ca0a3974b,S
2019-11-02 17:00:20,2d8168f6-da10-4a00-be1e-b16ca0a3974b,A
2019-11-02 17:04:58,2d8168f6-da10-4a00-be1e-b16ca0a3974b,S
2019-11-02 17:09:58,2d8168f6-da10-4a00-be1e-b16ca0a3974b,A
2019-11-02 17:19:54,2d8168f6-da10-4a00-be1e-b16ca0a3974b,S
2019-11-02 17:19:57,2d8168f6-da10-4a00-be1e-b16ca0a3974b,A
2019-11-02 17:24:37,2d8168f6-da10-4a00-be1e-b16ca0a3974b,S
2019-11-02 17:26:22,2d8168f6-da10-4a00-be1e-b16ca0a3974b,A
2019-11-02 17:33:05,2d8168f6-da10-4a00-be1e-b16ca0a3974b,S
2019-11-02 17:33:11,2d8168f6-da10-4a00-be1e-b16ca0a3974b,A
2019-11-02 17:35:53,2d8168f6-da10-4a00-be1e-b16ca0a3974b,S
2019-11-02 17:42:46,2d8168f6-da10-4a00-be1e-b16ca0a3974b,A
2019-11-02 18:03:40,2d8168f6-da10-4a00-be1e-b16ca0a3974b,S
2019-11-02 16:30:23,35337171-9bc6-4edb-9004-ca04786726f6,S
2019-11-02 16:42:38,35337171-9bc6-4edb-9004-ca04786726f6,A
2019-11-02 16:52:46,35337171-9bc6-4edb-9004-ca04786726f6,S
2019-11-02 16:54:04,35337171-9bc6-4edb-9004-ca04786726f6,A
2019-11-02 16:56:03,35337171-9bc6-4edb-9004-ca04786726f6,S
2019-11-02 17:02:42,35337171-9bc6-4edb-9004-ca04786726f6,A
2019-11-02 17:03:29,35337171-9bc6-4edb-9004-ca04786726f6,S
2019-11-02 17:05:51,35337171-9bc6-4edb-9004-ca04786726f6,A
2019-11-02 17:06:42,35337171-9bc6-4edb-9004-ca04786726f6,S
2019-11-02 17:07:04,35337171-9bc6-4edb-9004-ca04786726f6,A
2019-11-02 17:07:22,35337171-9bc6-4edb-9004-ca04786726f6,S
2019-11-02 17:14:19,35337171-9bc6-4edb-9004-ca04786726f6,A
2019-11-02 17:27:09,35337171-9bc6-4edb-9004-ca04786726f6,S
2019-11-02 17:31:46,35337171-9bc6-4edb-9004-ca04786726f6,A
2019-11-02 17:32:25,35337171-9bc6-4edb-9004-ca04786726f6,S
2019-11-02 17:49:20,35337171-9bc6-4edb-9004-ca04786726f6,A
2019-11-02 17:51:41,35337171-9bc6-4edb-9004-ca04786726f6,S
2019-11-02 17:51:54,35337171-9bc6-4edb-9004-ca04786726f6,A
2019-11-02 17:53:14,35337171-9bc6-4edb-9004-ca04786726f6,S
2019-11-02 17:55:40,35337171-9bc6-4edb-9004-ca04786726f6,A
2019-11-02 18:01:08,35337171-9bc6-4edb-9004-ca04786726f6,S
2019-11-02 18:04:11,35337171-9bc6-4edb-9004-ca04786726f6,A
2019-11-02 16:09:48,e8ce38b9-6bc7-404c-aede-e2a9ebf249e2,S
2019-11-02 16:16:01,e8ce38b9-6bc7-404c-aede-e2a9ebf249e2,A
2019-11-02 16:20:24,e8ce38b9-6bc7-404c-aede-e2a9ebf249e2,S
2019-11-02 16:30:57,e8ce38b9-6bc7-404c-aede-e2a9ebf249e2,A
2019-11-02 16:31:16,e8ce38b9-6bc7-404c-aede-e2a9ebf249e2,S
2019-11-02 16:36:45,e8ce38b9-6bc7-404c-aede-e2a9ebf249e2,A
2019-11-02 16:37:20,e8ce38b9-6bc7-404c-aede-e2a9ebf249e2,S
2019-11-02 16:37:57,e8ce38b9-6bc7-404c-aede-e2a9ebf249e2,A
2019-11-02 16:40:29,e8ce38b9-6bc7-404c-aede-e2a9ebf249e2,S
2019-11-02 16:40:48,e8ce38b9-6bc7-404c-aede-e2a9ebf249e2,A
2019-11-02 16:41:40,e8ce38b9-6bc7-404c-aede-e2a9ebf249e2,S
2019-11-02 16:57:13,e8ce38b9-6bc7-404c-aede-e2a9ebf249e2,A
2019-11-02 16:58:32,e8ce38b9-6bc7-404c-aede-e2a9ebf249e2,S
2019-11-02 17:01:40,e8ce38b9-6bc7-404c-aede-e2a9ebf249e2,A
2019-11-02 17:13:34,e8ce38b9-6bc7-404c-aede-e2a9ebf249e2,S
2019-11-02 17:15:00,e8ce38b9-6bc7-404c-aede-e2a9ebf249e2,A
2019-11-02 17:16:10,e8ce38b9-6bc7-404c-aede-e2a9ebf249e2,S
2019-11-02 16:28:05,c5332574-a4ac-4abe-a297-4d62f8ee7866,S
2019-11-02 16:32:14,c5332574-a4ac-4abe-a297-4d62f8ee7866,A
2019-11-02 16:39:42,c5332574-a4ac-4abe-a297-4d62f8ee7866,S
2019-11-02 16:43:54,c5332574-a4ac-4abe-a297-4d62f8ee7866,A
2019-11-02 16:44:08,c5332574-a4ac-4abe-a297-4d62f8ee7866,S
2019-11-02 16:53:37,c5332574-a4ac-4abe-a297-4d62f8ee7866,A
2019-11-02 16:56:38,c5332574-a4ac-4abe-a297-4d62f8ee7866,S
2019-11-02 16:58:05,c5332574-a4ac-4abe-a297-4d62f8ee7866,A
2019-11-02 16:59:49,c5332574-a4ac-4abe-a297-4d62f8ee7866,S
2019-11-02 17:09:29,c5332574-a4ac-4abe-a297-4d62f8ee7866,A
2019-11-02 17:14:19,c5332574-a4ac-4abe-a297-4d62f8ee7866,S
2019-11-02 17:16:02,c5332574-a4ac-4abe-a297-4d62f8ee7866,A
2019-11-02 17:16:59,c5332574-a4ac-4abe-a297-4d62f8ee7866,S
2019-11-02 17:22:26,c5332574-a4ac-4abe-a297-4d62f8ee7866,A
2019-11-02 17:27:01,c5332574-a4ac-4abe-a297-4d62f8ee7866,S
2019-11-02 17:31:42,c5332574-a4ac-4abe-a297-4d62f8ee7866,A
2019-11-02 17:39:43,c5332574-a4ac-4abe-a297-4d62f8ee7866,S
2019-11-02 17:44:54,c5332574-a4ac-4abe-a297-4d62f8ee7866,A
2019-11-02 17:48:14,c5332574-a4ac-4abe-a297-4d62f8ee7866,S
2019-11-02 18:01:00,c5332574-a4ac-4abe-a297-4d62f8ee7866,A
2019-11-02 16:21:59,b92ac050-0a74-4864-b39e-2de8f8159a45,A
2019-11-02 16:28:01,b92ac050-0a74-4864-b39e-2de8f8159a45,S
2019-11-02 16:30:32,b92ac050-0a74-4864-b39e-2de8f8159a45,A
2019-11-02 16:31:16,b92ac050-0a74-4864-b39e-2de8f8159a45,S
2019-11-02 16:31:20,b92ac050-0a74-4864-b39e-2de8f8159a45,A
2019-11-02 16:34:10,b92ac050-0a74-4864-b39e-2de8f8159a45,S
2019-11-02 16:42:26,b92ac050-0a74-4864-b39e-2de8f8159a45,A
2019-11-02 16:45:11,b92ac050-0a74-4864-b39e-2de8f8159a45,S
2019-11-02 16:45:14,b92ac050-0a74-4864-b39e-2de8f8159a45,A
2019-11-02 16:51:20,b92ac050-0a74-4864-b39e-2de8f8159a45,S
2019-11-02 16:55:43,b92ac050-0a74-4864-b39e-2de8f8159a45,A
2019-11-02 17:03:04,b92ac050-0a74-4864-b39e-2de8f8159a45,S
2019-11-02 17:04:13,b92ac050-0a74-4864-b39e-2de8f8159a45,A
2019-11-02 17:08:09,b92ac050-0a74-4864-b39e-2de8f8159a45,S
2019-11-02 17:08:56,b92ac050-0a74-4864-b39e-2de8f8159a45,A
2019-11-02 17:09:14,b92ac050-0a74-4864-b39e-2de8f8159a45,S
2019-11-02 16:39:04,8f06af0a-4d48-4b95-983f-739b83dd3f48,A
2019-11-02 16:47:59,8f06af0a-4d48-4b95-983f-739b83dd3f48,S
2019-11-02 16:58:43,8f06af0a-4d48-4b95-983f-739b83dd3f48,A
2019-11-02 17:04:15,8f06af0a-4d48-4b95-983f-739b83dd3f48,S
2019-11-02 17:06:53,8f06af0a-4d48-4b95-983f-739b83dd3f48,A
2019-11-02 17:07:37,8f06af0a-4d48-4b95-983f-739b83dd3f48,S
2019-11-02 17:12:17,8f06af0a-4d48-4b95-983f-739b83dd3f48,A
2019-11-02 17:14:07,8f06af0a-4d48-4b95-983f-739b83dd3f48,S
2019-11-02 17:27:22,8f06af0a-4d48-4b95-983f-739b83dd3f48,A
2019-11-02 17:29:15,8f06af0a-4d48-4b95-983f-739b83dd3f48,S
2019-11-02 17:35:27,8f06af0a-4d48-4b95-983f-739b83dd3f48,A
2019-11-02 17:38:15,8f06af0a-4d48-4b95-983f-739b83dd3f48,S
2019-11-02 17:40:03,8f06af0a-4d48-4b95-983f-739b83dd3f48,A
2019-11-02 17:40:26,8f06af0a-4d48-4b95-983f-739b83dd3f48,S
2019-11-02 17:41:05,8f06af0a-4d48-4b95-983f-739b83dd3f48,A
2019-11-02 17:53:36,8f06af0a-4d48-4b95-983f-739b83dd3f48,S
2019-11-02 17:53:37,8f06af0a-4d48-4b95-983f-739b83dd3f48,A
2019-11-02 17:54:13,8f06af0a-4d48-4b95-983f-739b83dd3f48,S
2019-11-02 17:54:42,8f06af0a-4d48-4b95-983f-739b83dd3f48,A
2019-11-02 16:07:56,5daba8ce-664b-4a50-ad10-2338be619ae7,S
2019-11-02 16:24:03,5daba8ce-664b-4a50-ad10-2338be619ae7,A
2019-11-02 16:25:15,5daba8ce-664b-4a50-ad10-2338be619ae7,S
2019-11-02 16:30:04,5daba8ce-664b-4a50-ad10-2338be619ae7,A
2019-11-02 16:31:10,5daba8ce-664b-4a50-ad10-2338be619ae7,S
2019-11-02 16:33:57,5daba8ce-664b-4a50-ad10-2338be619ae7,A
2019-11-02 16:39:09,5daba8ce-664b-4a50-ad10-2338be619ae7,S
2019-11-02 16:41:19,5daba8ce-664b-4a50-ad10-2338be619ae7,A
2019-11-02 16:44:48,5daba8ce-664b-4a50-ad10-2338be619ae7,S
2019-11-02 16:50:23,5daba8ce-664b-4a50-ad10-2338be619ae7,A
2019-11-02 17:00:54,5daba8ce-664b-4a50-ad10-2338be619ae7,S
2019-11-02 17:06:35,5daba8ce-664b-4a50-ad10-2338be619ae7,A
2019-11-02 17:08:32,5daba8ce-664b-4a50-ad10-2338be619ae7,S
2019-11-02 17:10:34,5daba8ce-664b-4a50-ad10-2338be619ae7,A
2019-11-02 17:18:51,5daba8ce-664b-4a50-ad10-2338be619ae7,S
2019-11-02 17:21:01,5daba8ce-664b-4a50-ad10-2338be619ae7,A
2019-11-02 17:25:55,5daba8ce-664b-4a50-ad10-2338be619ae7,S
2019-11-02 17:28:54,5daba8ce-664b-4a50-ad10-2338be619ae7,A
2019-11-02 17:30:02,5daba8ce-664b-4a50-ad10-2338be619ae7,S
2019-11-02 17:34:57,5daba8ce-664b-4a50-ad10-2338be619ae7,A
2019-11-02 17:37:49,5daba8ce-664b-4a50-ad10-2338be619ae7,S
2019-11-02 17:41:39,5daba8ce-664b-4a50-ad10-2338be619ae7,A
2019-11-02 17:43:59,5daba8ce-664b-4a50-ad10-2338be619ae7,S
2019-11-02 17:47:45,5daba8ce-664b-4a50-ad10-2338be619ae7,A
2019-11-02 17:53:10,5daba8ce-664b-4a50-ad10-2338be619ae7,S
2019-11-02 17:54:17,5daba8ce-664b-4a50-ad10-2338be619ae7,A
2019-11-02 18:00:02,5daba8ce-664b-4a50-ad10-2338be619ae7,S
2019-11-02 18:00:59,5daba8ce-664b-4a50-ad10-2338be619ae7,A
2019-11-02 18:02:29,5daba8ce-664b-4a50-ad10-2338be619ae7,S
2019-11-02 18:03:01,5daba8ce-664b-4a50-ad10-2338be619ae7,A
2019-11-02 18:06:20,5daba8ce-664b-4a50-ad10-2338be619ae7,S
2019-11-02 16:12:22,2ebb9adc-e07b-475d-8515-34d5632e794b,A
2019-11-02 16:18:25,2ebb9adc-e07b-475d-8515-34d5632e794b,S
2019-11-02 16:21:13,2ebb9adc-e07b-475d-8515-34d5632e794b,A
2019-11-02 16:21:52,2ebb9adc-e07b-475d-8515-34d5632e794b,S
2019-11-02 16:22:37,2ebb9adc-e07b-475d-8515-34d5632e794b,A
2019-11-02 16:31:52,2ebb9adc-e07b-475d-8515-34d5632e794b,S
2019-11-02 16:32:18,2ebb9adc-e07b-475d-8515-34d5632e794b,A
2019-11-02 16:33:08,2ebb9adc-e07b-475d-8515-34d5632e794b,S
2019-11-02 16:38:02,2ebb9adc-e07b-475d-8515-34d5632e794b,A
2019-11-02 16:43:01,2ebb9adc-e07b-475d-8515-34d5632e794b,S
2019-11-02 16:43:14,2ebb9adc-e07b-475d-8515-34d5632e794b,A
2019-11-02 16:43:58,2ebb9adc-e07b-475d-8515-34d5632e794b,S
2019-11-02 16:46:18,2ebb9adc-e07b-475d-8515-34d5632e794b,A
2019-11-02 16:49:18,2ebb9adc-e07b-475d-8515-34d5632e794b,S
2019-11-02 16:50:34,2ebb9adc-e07b-475d-8515-34d5632e794b,A
2019-11-02 16:50:38,2ebb9adc-e07b-475d-8515-34d5632e794b,S
2019-11-02 16:58:44,2ebb9adc-e07b-475d-8515-34d5632e794b,A
2019-11-02 17:02:01,2ebb9adc-e07b-475d-8515-34d5632e794b,S
2019-11-02 17:03:54,2ebb9adc-e07b-475d-8515-34d5632e794b,A
2019-11-02 17:11:16,2ebb9adc-e07b-475d-8515-34d5632e794b,S
2019-11-02 17:21:30,2ebb9adc-e07b-475d-8515-34d5632e794b,A
2019-11-02 17:36:58,2ebb9adc-e07b-475d-8515-34d5632e794b,S
2019-11-02 17:39:20,2ebb9adc-e07b-475d-8515-34d5632e794b,A
2019-11-02 17:39:32,2ebb9adc-e07b-475d-8515-34d5632e794b,S
2019-11-02 17:47:38,2ebb9adc-e07b-475d-8515-34d5632e794b,A
2019-11-02 17:48:01,2ebb9adc-e07b-475d-8515-34d5632e794b,S
2019-11-02 17:56:20,2ebb9adc-e07b-475d-8515-34d5632e794b,A
2019-11-02 18:04:47,2ebb9adc-e07b-475d-8515-34d5632e794b,S
2019-11-02 16:07:16,21f342fc-8cc0-47af-b807-baeb7e39e6fd,S
2019-11-02 16:10:43,21f342fc-8cc0-47af-b807-baeb7e39e6fd,A
2019-11-02 16:16:46,21f342fc-8cc0-47af-b807-baeb7e39e6fd,S
2019-11-02 16:26:43,21f342fc-8cc0-47af-b807-baeb7e39e6fd,A
2019-11-02 16:46:51,21f342fc-8cc0-47af-b807-baeb7e39e6fd,S
2019-11-02 16:52:46,21f342fc-8cc0-47af-b807-baeb7e39e6fd,A
2019-11-02 17:03:36,21f342fc-8cc0-47af-b807-baeb7e39e6fd,S
2019-11-02 17:09:01,21f342fc-8cc0-47af-b807-baeb7e39e6fd,A
2019-11-02 17:13:18,21f342fc-8cc0-47af-b807-baeb7e39e6fd,S
2019-11-02 17:18:51,21f342fc-8cc0-47af-b807-baeb7e39e6fd,A
2019-11-02 17:19:03,21f342fc-8cc0-47af-b807-baeb7e39e6fd,S
2019-11-02 17:20:47,21f342fc-8cc0-47af-b807-baeb7e39e6fd,A
2019-11-02 17:26:41,21f342fc-8cc0-47af-b807-baeb7e39e6fd,S
2019-11-02 17:28:24,21f342fc-8cc0-47af-b807-baeb7e39e6fd,A
2019-11-02 17:32:55,21f342fc-8cc0-47af-b807-baeb7e39e6fd,S
2019-11-02 17:36:30,21f342fc-8cc0-47af-b807-baeb7e39e6fd,A
2019-11-02 17:41:48,21f342fc-8cc0-47af-b807-baeb7e39e6fd,S
2019-11-02 17:49:32,21f342fc-8cc0-47af-b807-baeb7e39e6fd,A
2019-11-02 15:56:40,a3c84591-cf59-4fa7-8475-0d6dafbb82d4,S
2019-11-02 15:57:46,a3c84591-cf59-4fa7-8475-0d6dafbb82d4,A
2019-11-02 15:59:00,a3c84591-cf59-4fa7-8475-0d6dafbb82d4,S
2019-11-02 16:02:39,a3c84591-cf59-4fa7-8475-0d6dafbb82d4,A
2019-11-02 16:05:23,a3c84591-cf59-4fa7-8475-0d6dafbb82d4,S
2019-11-02 16:10:33,a3c84591-cf59-4fa7-8475-0d6dafbb82d4,A
2019-11-02 16:11:51,a3c84591-cf59-4fa7-8475-0d6dafbb82d4,S
2019-11-02 16:17:50,a3c84591-cf59-4fa7-8475-0d6dafbb82d4,A
2019-11-02 16:29:07,a3c84591-cf59-4fa7-8475-0d6dafbb82d4,S
2019-11-02 16:32:47,a3c84591-cf59-4fa7-8475-0d6dafbb82d4,A
2019-11-02 16:37:19,a3c84591-cf59-4fa7-8475-0d6dafbb82d4,S
2019-11-02 16:48:46,a3c84591-cf59-4fa7-8475-0d6dafbb82d4,A
2019-11-02 17:02:13,a3c84591-cf59-4fa7-8475-0d6dafbb82d4,S
2019-11-02 17:03:11,a3c84591-cf59-4fa7-8475-0d6dafbb82d4,A
2019-11-02 17:04:44,a3c84591-cf59-4fa7-8475-0d6dafbb82d4,S
2019-11-02 17:05:30,a3c84591-cf59-4fa7-8475-0d6dafbb82d4,A
2019-11-02 17:06:39,a3c84591-cf59-4fa7-8475-0d6dafbb82d4,S
2019-11-02 17:15:15,a3c84591-cf59-4fa7-8475-0d6dafbb82d4,A
2019-11-02 17:17:13,a3c84591-cf59-4fa7-8475-0d6dafbb82d4,S
2019-11-02 17:19:01,a3c84591-cf59-4fa7-8475-0d6dafbb82d4,A
2019-11-02 17:23:49,a3c84591-cf59-4fa7-8475-0d6dafbb82d4,S
2019-11-02 17:32:42,a3c84591-cf59-4fa7-8475-0d6dafbb82d4,A
2019-11-02 17:43:34,a3c84591-cf59-4fa7-8475-0d6dafbb82d4,S
2019-11-02 17:47:30,a3c84591-cf59-4fa7-8475-0d6dafbb82d4,A
2019-11-02 17:47:48,a3c84591-cf59-4fa7-8475-0d6dafbb82d4,S
2019-11-02 17:53:27,a3c84591-cf59-4fa7-8475-0d6dafbb82d4,A
2019-11-02 17:59:52,a3c84591-cf59-4fa7-8475-0d6dafbb82d4,S
2019-11-02 17:59:53,a3c84591-cf59-4fa7-8475-0d6dafbb82d4,A
2019-11-02 18:01:52,a3c84591-cf59-4fa7-8475-0d6dafbb82d4,S
2019-11-02 18:04:30,a3c84591-cf59-4fa7-8475-0d6dafbb82d4,A
2019-11-02 18:06:19,a3c84591-cf59-4fa7-8475-0d6dafbb82d4,S
2019-11-02 16:45:27,a88da93d-3db7-40a4-bd10-76a2bdac54d6,S
2019-11-02 16:59:02,a88da93d-3db7-40a4-bd10-76a2bdac54d6,A
2019-11-02 17:03:55,a88da93d-3db7-40a4-bd10-76a2bdac54d6,S
2019-11-02 17:04:28,a88da93d-3db7-40a4-bd10-76a2bdac54d6,A
2019-11-02 17:08:20,a88da93d-3db7-40a4-bd10-76a2bdac54d6,S
2019-11-02 17:09:01,a88da93d-3db7-40a4-bd10-76a2bdac54d6,A
2019-11-02 17:17:40,a88da93d-3db7-40a4-bd10-76a2bdac54d6,S
2019-11-02 17:18:43,a88da93d-3db7-40a4-bd10-76a2bdac54d6,A
2019-11-02 17:20:59,a88da93d-3db7-40a4-bd10-76a2bdac54d6,S
2019-11-02 17:23:08,a88da93d-3db7-40a4-bd10-76a2bdac54d6,A
2019-11-02 17:25:30,a88da93d-3db7-40a4-bd10-76a2bdac54d6,S
2019-11-02 17:29:22,a88da93d-3db7-40a4-bd10-76a2bdac54d6,A
2019-11-02 17:30:33,a88da93d-3db7-40a4-bd10-76a2bdac54d6,S
2019-11-02 17:31:24,a88da93d-3db7-40a4-bd10-76a2bdac54d6,A
2019-11-02 17:33:34,a88da93d-3db7-40a4-bd10-76a2bdac54d6,S
2019-11-02 17:33:56,a88da93d-3db7-40a4-bd10-76a2bdac54d6,A
2019-11-02 17:34:12,a88da93d-3db7-40a4-bd10-76a2bdac54d6,S
2019-11-02 17:38:44,a88da93d-3db7-40a4-bd10-76a2bdac54d6,A
2019-11-02 17:39:34,a88da93d-3db7-40a4-bd10-76a2bdac54d6,S
2019-11-02 17:49:06,a88da93d-3db7-40a4-bd10-76a2bdac54d6,A
2019-11-02 17:55:09,a88da93d-3db7-40a4-bd10-76a2bdac54d6,S
2019-11-02 18:03:07,a88da93d-3db7-40a4-bd10-76a2bdac54d6,A
2019-11-02 18:06:36,a88da93d-3db7-40a4-bd10-76a2bdac54d6,S
2019-11-02 18:07:12,a88da93d-3db7-40a4-bd10-76a2bdac54d6,A
2019-11-02 16:35:18,6f7c8510-d702-4d4a-84c6-3562ce430b61,S
2019-11-02 16:37:13,6f7c8510-d702-4d4a-84c6-3562ce430b61,A
2019-11-02 16:40:22,6f7c8510-d702-4d4a-84c6-3562ce430b61,S
2019-11-02 16:40:51,6f7c8510-d702-4d4a-84c6-3562ce430b61,A
2019-11-02 16:44:00,6f7c8510-d702-4d4a-84c6-3562ce430b61,S
2019-11-02 16:46:00,6f7c8510-d702-4d4a-84c6-3562ce430b61,A
2019-11-02 16:50:16,6f7c8510-d702-4d4a-84c6-3562ce430b61,S
2019-11-02 16:51:13,6f7c8510-d702-4d4a-84c6-3562ce430b61,A
2019-11-02 16:52:03,6f7c8510-d702-4d4a-84c6-3562ce430b61,S
2019-11-02 16:59:30,6f7c8510-d702-4d4a-84c6-3562ce430b61,A
2019-11-02 17:01:43,6f7c8510-d702-4d4a-84c6-3562ce430b61,S
2019-11-02 17:05:14,6f7c8510-d702-4d4a-84c6-3562ce430b61,A
2019-11-02 17:13:31,6f7c8510-d702-4d4a-84c6-3562ce430b61,S
2019-11-02 17:20:55,6f7c8510-d702-4d4a-84c6-3562ce430b61,A
2019-11-02 17:22:57,6f7c8510-d702-4d4a-84c6-3562ce430b61,S
2019-11-02 17:25:42,6f7c8510-d702-4d4a-84c6-3562ce430b61,A
2019-11-02 17:26:47,6f7c8510-d702-4d4a-84c6-3562ce430b61,S
2019-11-02 17:28:05,6f7c8510-d702-4d4a-84c6-3562ce430b61,A
2019-11-02 17:29:37,6f7c8510-d702-4d4a-84c6-3562ce430b61,S
2019-11-02 17:37:44,6f7c8510-d702-4d4a-84c6-3562ce430b61,A
2019-11-02 17:37:55,6f7c8510-d702-4d4a-84c6-3562ce430b61,S
2019-11-02 17:38:06,6f7c8510-d702-4d4a-84c6-3562ce430b61,A
2019-11-02 17:41:57,6f7c8510-d702-4d4a-84c6-3562ce430b61,S
2019-11-02 17:44:21,6f7c8510-d702-4d4a-84c6-3562ce430b61,A
2019-11-02 17:45:05,6f7c8510-d702-4d4a-84c6-3562ce430b61,S
2019-11-02 17:46:23,6f7c8510-d702-4d4a-84c6-3562ce430b61,A
2019-11-02 17:47:17,6f7c8510-d702-4d4a-84c6-3562ce430b61,S
2019-11-02 17:55:39,6f7c8510-d702-4d4a-84c6-3562ce430b61,A
2019-11-02 17:56:53,6f7c8510-d702-4d4a-84c6-3562ce430b61,S
2019-11-02 18:05:51,6f7c8510-d702-4d4a-84c6-3562ce430b61,A
2019-11-02 16:25:55,ce59e41b-61f8-4e6f-922a-c1942b9e5d1b,S
2019-11-02 16:30:13,ce59e41b-61f8-4e6f-922a-c1942b9e5d1b,A
2019-11-02 16:43:56,ce59e41b-61f8-4e6f-922a-c1942b9e5d1b,S
2019-11-02 16:44:20,ce59e41b-61f8-4e6f-922a-c1942b9e5d1b,A
2019-11-02 16:48:56,ce59e41b-61f8-4e6f-922a-c1942b9e5d1b,S
2019-11-02 16:52:15,ce59e41b-61f8-4e6f-922a-c1942b9e5d1b,A
2019-11-02 16:55:21,ce59e41b-61f8-4e6f-922a-c1942b9e5d1b,S
2019-11-02 16:59:53,ce59e41b-61f8-4e6f-922a-c1942b9e5d1b,A
2019-11-02 17:03:07,ce59e41b-61f8-4e6f-922a-c1942b9e5d1b,S
2019-11-02 17:06:43,ce59e41b-61f8-4e6f-922a-c1942b9e5d1b,A
2019-11-02 17:22:34,ce59e41b-61f8-4e6f-922a-c1942b9e5d1b,S
2019-11-02 17:26:51,ce59e41b-61f8-4e6f-922a-c1942b9e5d1b,A
2019-11-02 17:27:13,ce59e41b-61f8-4e6f-922a-c1942b9e5d1b,S
2019-11-02 17:32:19,ce59e41b-61f8-4e6f-922a-c1942b9e5d1b,A
2019-11-02 17:39:38,ce59e41b-61f8-4e6f-922a-c1942b9e5d1b,S
2019-11-02 17:52:45,ce59e41b-61f8-4e6f-922a-c1942b9e5d1b,A
2019-11-02 17:53:46,ce59e41b-61f8-4e6f-922a-c1942b9e5d1b,S
2019-11-02 16:32:24,50bb43db-f56f-4e76-a39e-569621f7c5a0,A
2019-11-02 16:33:04,50bb43db-f56f-4e76-a39e-569621f7c5a0,S
2019-11-02 16:34:39,50bb43db-f56f-4e76-a39e-569621f7c5a0,A
2019-11-02 16:48:52,50bb43db-f56f-4e76-a39e-569621f7c5a0,S
2019-11-02 16:50:59,50bb43db-f56f-4e76-a39e-569621f7c5a0,A
2019-11-02 16:53:26,50bb43db-f56f-4e76-a39e-569621f7c5a0,S
2019-11-02 17:01:03,50bb43db-f56f-4e76-a39e-569621f7c5a0,A
2019-11-02 17:04:43,50bb43db-f56f-4e76-a39e-569621f7c5a0,S
2019-11-02 17:08:05,50bb43db-f56f-4e76-a39e-569621f7c5a0,A
2019-11-02 17:18:55,50bb43db-f56f-4e76-a39e-569621f7c5a0,S
2019-11-02 17:18:59,50bb43db-f56f-4e76-a39e-569621f7c5a0,A
2019-11-02 17:28:30,50bb43db-f56f-4e76-a39e-569621f7c5a0,S
2019-11-02 17:48:59,50bb43db-f56f-4e76-a39e-569621f7c5a0,A
2019-11-02 17:56:13,50bb43db-f56f-4e76-a39e-569621f7c5a0,S
2019-11-02 18:00:12,50bb43db-f56f-4e76-a39e-569621f7c5a0,A
2019-11-02 16:38:55,8b2d8cf6-d647-4f90-b185-dd2c07ae14da,A
2019-11-02 16:53:38,8b2d8cf6-d647-4f90-b185-dd2c07ae14da,S
2019-11-02 16:55:44,8b2d8cf6-d647-4f90-b185-dd2c07ae14da,A
2019-11-02 17:04:50,8b2d8cf6-d647-4f90-b185-dd2c07ae14da,S
2019-11-02 17:16:23,8b2d8cf6-d647-4f90-b185-dd2c07ae14da,A
2019-11-02 17:22:35,8b2d8cf6-d647-4f90-b185-dd2c07ae14da,S
2019-11-02 17:29:16,8b2d8cf6-d647-4f90-b185-dd2c07ae14da,A
2019-11-02 17:29:39,8b2d8cf6-d647-4f90-b185-dd2c07ae14da,S
2019-11-02 17:30:46,8b2d8cf6-d647-4f90-b185-dd2c07ae14da,A
2019-11-02 17:35:05,8b2d8cf6-d647-4f90-b185-dd2c07ae14da,S
2019-11-02 17:35:37,8b2d8cf6-d647-4f90-b185-dd2c07ae14da,A
2019-11-02 17:42:16,8b2d8cf6-d647-4f90-b185-dd2c07ae14da,S
2019-11-02 17:45:00,8b2d8cf6-d647-4f90-b185-dd2c07ae14da,A
2019-11-02 17:46:47,8b2d8cf6-d647-4f90-b185-dd2c07ae14da,S
2019-11-02 17:50:33,8b2d8cf6-d647-4f90-b185-dd2c07ae14da,A
2019-11-02 17:56:49,8b2d8cf6-d647-4f90-b185-dd2c07ae14da,S
2019-11-02 17:57:02,8b2d8cf6-d647-4f90-b185-dd2c07ae14da,A
2019-11-02 17:59:38,8b2d8cf6-d647-4f90-b185-dd2c07ae14da,S
2019-11-02 16:42:58,5b494a85-774b-4780-84a1-b0be1c77fa10,A
2019-11-02 16:48:04,5b494a85-774b-4780-84a1-b0be1c77fa10,S
2019-11-02 16:49:07,5b494a85-774b-4780-84a1-b0be1c77fa10,A
2019-11-02 16:51:03,5b494a85-774b-4780-84a1-b0be1c77fa10,S
2019-11-02 16:58:38,5b494a85-774b-4780-84a1-b0be1c77fa10,A
2019-11-02 17:00:03,5b494a85-774b-4780-84a1-b0be1c77fa10,S
2019-11-02 17:09:56,5b494a85-774b-4780-84a1-b0be1c77fa10,A
2019-11-02 17:11:44,5b494a85-774b-4780-84a1-b0be1c77fa10,S
2019-11-02 17:16:38,5b494a85-774b-4780-84a1-b0be1c77fa10,A
2019-11-02 17:21:02,5b494a85-774b-4780-84a1-b0be1c77fa10,S
2019-11-02 17:29:46,5b494a85-774b-4780-84a1-b0be1c77fa10,A
2019-11-02 17:31:18,5b494a85-774b-4780-84a1-b0be1c77fa10,S
2019-11-02 17:33:12,5b494a85-774b-4780-84a1-b0be1c77fa10,A
2019-11-02 17:35:39,5b494a85-774b-4780-84a1-b0be1c77fa10,S
2019-11-02 17:39:52,5b494a85-774b-4780-84a1-b0be1c77fa10,A
2019-11-02 17:45:42,5b494a85-774b-4780-84a1-b0be1c77fa10,S
2019-11-02 17:51:11,5b494a85-774b-4780-84a1-b0be1c77fa10,A
2019-11-02 18:00:24,5b494a85-774b-4780-84a1-b0be1c77fa10,S
2019-11-02 16:47:07,b625f9d3-fd5c-4323-b384-7933d4afe6fe,S
2019-11-02 16:49:26,b625f9d3-fd5c-4323-b384-7933d4afe6fe,A
2019-11-02 16:55:57,b625f9d3-fd5c-4323-b384-7933d4afe6fe,S
2019-11-02 16:56:55,b625f9d3-fd5c-4323-b384-7933d4afe6fe,A
2019-11-02 16:57:16,b625f9d3-fd5c-4323-b384-7933d4afe6fe,S
2019-11-02 17:02:26,b625f9d3-fd5c-4323-b384-7933d4afe6fe,A
2019-11-02 17:07:19,b625f9d3-fd5c-4323-b384-7933d4afe6fe,S
2019-11-02 17:11:59,b625f9d3-fd5c-4323-b384-7933d4afe6fe,A
2019-11-02 17:24:59,b625f9d3-fd5c-4323-b384-7933d4afe6fe,S
2019-11-02 17:42:28,b625f9d3-fd5c-4323-b384-7933d4afe6fe,A
2019-11-02 17:47:11,b625f9d3-fd5c-4323-b384-7933d4afe6fe,S
2019-11-02 17:49:20,b625f9d3-fd5c-4323-b384-7933d4afe6fe,A
2019-11-02 17:50:33,b625f9d3-fd5c-4323-b384-7933d4afe6fe,S
2019-11-02 17:51:56,b625f9d3-fd5c-4323-b384-7933d4afe6fe,A
2019-11-02 17:52:39,b625f9d3-fd5c-4323-b384-7933d4afe6fe,S
2019-11-02 17:53:12,b625f9d3-fd5c-4323-b384-7933d4afe6fe,A
2019-11-02 17:54:17,b625f9d3-fd5c-4323-b384-7933d4afe6fe,S
2019-11-02 18:00:58,b625f9d3-fd5c-4323-b384-7933d4afe6fe,A
2019-11-02 18:01:17,b625f9d3-fd5c-4323-b384-7933d4afe6fe,S
2019-11-02 18:02:05,b625f9d3-fd5c-4323-b384-7933d4afe6fe,A
2019-11-02 18:02:06,b625f9d3-fd5c-4323-b384-7933d4afe6fe,S
2019-11-02 18:08:54,b625f9d3-fd5c-4323-b384-7933d4afe6fe,A
2019-11-02 16:37:08,5e9601cb-4147-4413-a286-37a83719d34e,A
2019-11-02 16:44:22,5e9601cb-4147-4413-a286-37a83719d34e,S
2019-11-02 16:46:17,5e9601cb-4147-4413-a286-37a83719d34e,A
2019-11-02 16:51:07,5e9601cb-4147-4413-a286-37a83719d34e,S
2019-11-02 16:58:22,5e9601cb-4147-4413-a286-37a83719d34e,A
2019-11-02 17:05:19,5e9601cb-4147-4413-a286-37a83719d34e,S
2019-11-02 17:05:52,5e9601cb-4147-4413-a286-37a83719d34e,A
2019-11-02 17:06:17,5e9601cb-4147-4413-a286-37a83719d34e,S
2019-11-02 17:07:41,5e9601cb-4147-4413-a286-37a83719d34e,A
2019-11-02 17:08:19,5e9601cb-4147-4413-a286-37a83719d34e,S
2019-11-02 17:10:35,5e9601cb-4147-4413-a286-37a83719d34e,A
2019-11-02 17:16:57,5e9601cb-4147-4413-a286-37a83719d34e,S
2019-11-02 17:18:20,5e9601cb-4147-4413-a286-37a83719d34e,A
2019-11-02 17:21:02,5e9601cb-4147-4413-a286-37a83719d34e,S
2019-11-02 17:21:37,5e9601cb-4147-4413-a286-37a83719d34e,A
2019-11-02 17:22:56,5e9601cb-4147-4413-a286-37a83719d34e,S
2019-11-02 17:42:18,5e9601cb-4147-4413-a286-37a83719d34e,A
2019-11-02 18:00:18,5e9601cb-4147-4413-a286-37a83719d34e,S
2019-11-02 18:01:21,5e9601cb-4147-4413-a286-37a83719d34e,A
2019-11-02 16:44:57,5446e8fb-ddd4-4bbf-a661-e4efdf86a083,S
2019-11-02 16:45:46,5446e8fb-ddd4-4bbf-a661-e4efdf86a083,A
2019-11-02 16:58:22,5446e8fb-ddd4-4bbf-a661-e4efdf86a083,S
2019-11-02 16:59:28,5446e8fb-ddd4-4bbf-a661-e4efdf86a083,A
2019-11-02 17:01:33,5446e8fb-ddd4-4bbf-a661-e4efdf86a083,S
2019-11-02 17:26:26,5446e8fb-ddd4-4bbf-a661-e4efdf86a083,A
2019-11-02 17:38:16,5446e8fb-ddd4-4bbf-a661-e4efdf86a083,S
2019-11-02 17:42:37,5446e8fb-ddd4-4bbf-a661-e4efdf86a083,A
2019-11-02 17:42:38,5446e8fb-ddd4-4bbf-a661-e4efdf86a083,S
2019-11-02 17:46:47,5446e8fb-ddd4-4bbf-a661-e4efdf86a083,A
2019-11-02 17:50:59,5446e8fb-ddd4-4bbf-a661-e4efdf86a083,S
2019-11-02 18:00:21,5446e8fb-ddd4-4bbf-a661-e4efdf86a083,A
2019-11-02 18:05:31,5446e8fb-ddd4-4bbf-a661-e4efdf86a083,S
2019-11-02 16:38:04,36dd3db2-a4dc-4897-bdbc-db955010d188,A
2019-11-02 16:39:56,36dd3db2-a4dc-4897-bdbc-db955010d188,S
2019-11-02 16:49:24,36dd3db2-a4dc-4897-bdbc-db955010d188,A
2019-11-02 17:03:31,36dd3db2-a4dc-4897-bdbc-db955010d188,S
2019-11-02 17:05:07,36dd3db2-a4dc-4897-bdbc-db955010d188,A
2019-11-02 17:06:41,36dd3db2-a4dc-4897-bdbc-db955010d188,S
2019-11-02 17:08:34,36dd3db2-a4dc-4897-bdbc-db955010d188,A
2019-11-02 17:15:02,36dd3db2-a4dc-4897-bdbc-db955010d188,S
2019-11-02 17:19:56,36dd3db2-a4dc-4897-bdbc-db955010d188,A
2019-11-02 17:27:27,36dd3db2-a4dc-4897-bdbc-db955010d188,S
2019-11-02 17:27:30,36dd3db2-a4dc-4897-bdbc-db955010d188,A
2019-11-02 17:27:49,36dd3db2-a4dc-4897-bdbc-db955010d188,S
2019-11-02 17:30:09,36dd3db2-a4dc-4897-bdbc-db955010d188,A
2019-11-02 17:33:21,36dd3db2-a4dc-4897-bdbc-db955010d188,S
2019-11-02 17:34:07,36dd3db2-a4dc-4897-bdbc-db955010d188,A
2019-11-02 17:45:07,36dd3db2-a4dc-4897-bdbc-db955010d188,S
2019-11-02 17:45:55,36dd3db2-a4dc-4897-bdbc-db955010d188,A
2019-11-02 17:46:21,36dd3db2-a4dc-4897-bdbc-db955010d188,S
2019-11-02 17:48:34,36dd3db2-a4dc-4897-bdbc-db955010d188,A
2019-11-02 17:50:48,36dd3db2-a4dc-4897-bdbc-db955010d188,S
2019-11-02 17:51:07,36dd3db2-a4dc-4897-bdbc-db955010d188,A
2019-11-02 18:00:32,36dd3db2-a4dc-4897-bdbc-db955010d188,S
2019-11-02 18:05:16,36dd3db2-a4dc-4897-bdbc-db955010d188,A
2019-11-02 18:07:00,36dd3db2-a4dc-4897-bdbc-db955010d188,S
2019-11-02 18:08:10,36dd3db2-a4dc-4897-bdbc-db955010d188,A
2019-11-02 18:09:26,36dd3db2-a4dc-4897-bdbc-db955010d188,S
2019-11-02 16:11:49,90814dd5-4e6b-4263-ae1d-5413cc8dc47f,A
2019-11-02 16:14:40,90814dd5-4e6b-4263-ae1d-5413cc8dc47f,S
2019-11-02 16:19:47,90814dd5-4e6b-4263-ae1d-5413cc8dc47f,A
2019-11-02 16:35:14,90814dd5-4e6b-4263-ae1d-5413cc8dc47f,S
2019-11-02 16:44:17,90814dd5-4e6b-4263-ae1d-5413cc8dc47f,A
2019-11-02 16:54:00,90814dd5-4e6b-4263-ae1d-5413cc8dc47f,S
2019-11-02 17:02:30,90814dd5-4e6b-4263-ae1d-5413cc8dc47f,A
2019-11-02 17:03:16,90814dd5-4e6b-4263-ae1d-5413cc8dc47f,S
2019-11-02 17:03:35,90814dd5-4e6b-4263-ae1d-5413cc8dc47f,A
2019-11-02 17:12:14,90814dd5-4e6b-4263-ae1d-5413cc8dc47f,S
2019-11-02 17:15:12,90814dd5-4e6b-4263-ae1d-5413cc8dc47f,A
2019-11-02 17:15:15,90814dd5-4e6b-4263-ae1d-5413cc8dc47f,S
2019-11-02 17:16:26,90814dd5-4e6b-4263-ae1d-5413cc8dc47f,A
2019-11-02 17:18:16,90814dd5-4e6b-4263-ae1d-5413cc8dc47f,S
2019-11-02 17:20:07,90814dd5-4e6b-4263-ae1d-5413cc8dc47f,A
2019-11-02 17:21:06,90814dd5-4e6b-4263-ae1d-5413cc8dc47f,S
2019-11-02 17:22:49,90814dd5-4e6b-4263-ae1d-5413cc8dc47f,A
2019-11-02 17:32:05,90814dd5-4e6b-4263-ae1d-5413cc8dc47f,S
2019-11-02 17:34:12,90814dd5-4e6b-4263-ae1d-5413cc8dc47f,A
2019-11-02 17:35:10,90814dd5-4e6b-4263-ae1d-5413cc8dc47f,S
2019-11-02 17:37:37,90814dd5-4e6b-4263-ae1d-5413cc8dc47f,A
2019-11-02 17:46:23,90814dd5-4e6b-4263-ae1d-5413cc8dc47f,S
2019-11-02 17:48:40,90814dd5-4e6b-4263-ae1d-5413cc8dc47f,A
2019-11-02 17:53:32,90814dd5-4e6b-4263-ae1d-5413cc8dc47f,S
2019-11-02 17:53:39,90814dd5-4e6b-4263-ae1d-5413cc8dc47f,A
2019-11-02 17:54:18,90814dd5-4e6b-4263-ae1d-5413cc8dc47f,S
2019-11-02 17:57:48,90814dd5-4e6b-4263-ae1d-5413cc8dc47f,A
2019-11-02 17:59:14,90814dd5-4e6b-4263-ae1d-5413cc8dc47f,S
2019-11-02 18:04:53,90814dd5-4e6b-4263-ae1d-5413cc8dc47f,A
2019-11-02 18:05:21,90814dd5-4e6b-4263-ae1d-5413cc8dc47f,S
2019-11-02 16:29:43,0c4e046e-0ffc-4807-babd-ef9e980a1ecd,A
2019-11-02 16:41:13,0c4e046e-0ffc-4807-babd-ef9e980a1ecd,S
2019-11-02 16:51:09,0c4e046e-0ffc-4807-babd-ef9e980a1ecd,A
2019-11-02 16:56:37,0c4e046e-0ffc-4807-babd-ef9e980a1ecd,S
2019-11-02 16:57:20,0c4e046e-0ffc-4807-babd-ef9e980a1ecd,A
2019-11-02 16:58:17,0c4e046e-0ffc-4807-babd-ef9e980a1ecd,S
2019-11-02 17:00:14,0c4e046e-0ffc-4807-babd-ef9e980a1ecd,A
2019-11-02 17:01:35,0c4e046e-0ffc-4807-babd-ef9e980a1ecd,S
2019-11-02 17:08:54,0c4e046e-0ffc-4807-babd-ef9e980a1ecd,A
2019-11-02 17:10:47,0c4e046e-0ffc-4807-babd-ef9e980a1ecd,S
2019-11-02 17:12:31,0c4e046e-0ffc-4807-babd-ef9e980a1ecd,A
2019-11-02 17:27:55,0c4e046e-0ffc-4807-babd-ef9e980a1ecd,S
2019-11-02 17:33:49,0c4e046e-0ffc-4807-babd-ef9e980a1ecd,A
2019-11-02 17:38:21,0c4e046e-0ffc-4807-babd-ef9e980a1ecd,S
2019-11-02 17:39:25,0c4e046e-0ffc-4807-babd-ef9e980a1ecd,A
2019-11-02 17:41:45,0c4e046e-0ffc-4807-babd-ef9e980a1ecd,S
2019-11-02 17:45:25,0c4e046e-0ffc-4807-babd-ef9e980a1ecd,A
2019-11-02 17:47:26,0c4e046e-0ffc-4807-babd-ef9e980a1ecd,S
2019-11-02 17:47:33,0c4e046e-0ffc-4807-babd-ef9e980a1ecd,A
2019-11-02 17:56:40,0c4e046e-0ffc-4807-babd-ef9e980a1ecd,S
2019-11-02 18:02:59,0c4e046e-0ffc-4807-babd-ef9e980a1ecd,A
2019-11-02 18:04:05,0c4e046e-0ffc-4807-babd-ef9e980a1ecd,S
2019-11-02 18:04:58,0c4e046e-0ffc-4807-babd-ef9e980a1ecd,A
2019-11-02 18:07:56,0c4e046e-0ffc-4807-babd-ef9e980a1ecd,S
2019-11-02 15:59:01,d1d6aecc-6ec6-4a67-b04f-cf526cfa3241,A
2019-11-02 16:15:04,d1d6aecc-6ec6-4a67-b04f-cf526cfa3241,S
2019-11-02 16:18:18,d1d6aecc-6ec6-4a67-b04f-cf526cfa3241,A
2019-11-02 16:21:04,d1d6aecc-6ec6-4a67-b04f-cf526cfa3241,S
2019-11-02 16:21:34,d1d6aecc-6ec6-4a67-b04f-cf526cfa3241,A
2019-11-02 16:35:32,d1d6aecc-6ec6-4a67-b04f-cf526cfa3241,S
2019-11-02 16:39:02,d1d6aecc-6ec6-4a67-b04f-cf526cfa3241,A
2019-11-02 16:41:53,d1d6aecc-6ec6-4a67-b04f-cf526cfa3241,S
2019-11-02 16:45:53,d1d6aecc-6ec6-4a67-b04f-cf526cfa3241,A
2019-11-02 16:59:17,d1d6aecc-6ec6-4a67-b04f-cf526cfa3241,S
2019-11-02 16:59:28,d1d6aecc-6ec6-4a67-b04f-cf526cfa3241,A
2019-11-02 17:08:10,d1d6aecc-6ec6-4a67-b04f-cf526cfa3241,S
2019-11-02 17:12:26,d1d6aecc-6ec6-4a67-b04f-cf526cfa3241,A
2019-11-02 17:19:03,d1d6aecc-6ec6-4a67-b04f-cf526cfa3241,S
2019-11-02 17:21:35,d1d6aecc-6ec6-4a67-b04f-cf526cfa3241,A
2019-11-02 17:32:46,d1d6aecc-6ec6-4a67-b04f-cf526cfa3241,S
2019-11-02 17:34:40,d1d6aecc-6ec6-4a67-b04f-cf526cfa3241,A
2019-11-02 17:35:38,d1d6aecc-6ec6-4a67-b04f-cf526cfa3241,S
2019-11-02 17:38:30,d1d6aecc-6ec6-4a67-b04f-cf526cfa3241,A
2019-11-02 17:44:29,d1d6aecc-6ec6-4a67-b04f-cf526cfa3241,S
2019-11-02 17:53:17,d1d6aecc-6ec6-4a67-b04f-cf526cfa3241,A
2019-11-02 17:56:20,d1d6aecc-6ec6-4a67-b04f-cf526cfa3241,S
2019-11-02 17:58:11,d1d6aecc-6ec6-4a67-b04f-cf526cfa3241,A
2019-11-02 18:00:21,d1d6aecc-6ec6-4a67-b04f-cf526cfa3241,S
2019-11-02 16:16:59,59d49971-8476-461b-ace5-d0bc35d2be21,A
2019-11-02 16:20:41,59d49971-8476-461b-ace5-d0bc35d2be21,S
2019-11-02 16:24:00,59d49971-8476-461b-ace5-d0bc35d2be21,A
2019-11-02 16:25:40,59d49971-8476-461b-ace5-d0bc35d2be21,S
2019-11-02 16:41:10,59d49971-8476-461b-ace5-d0bc35d2be21,A
2019-11-02 16:42:54,59d49971-8476-461b-ace5-d0bc35d2be21,S
2019-11-02 16:43:17,59d49971-8476-461b-ace5-d0bc35d2be21,A
2019-11-02 16:47:12,b2be1549-2904-4bf3-ae86-a80825768c7a,S
2019-11-02 16:48:26,b2be1549-2904-4bf3-ae86-a80825768c7a,A
2019-11-02 16:54:11,b2be1549-2904-4bf3-ae86-a80825768c7a,S
2019-11-02 17:07:31,b2be1549-2904-4bf3-ae86-a80825768c7a,A
2019-11-02 17:15:16,b2be1549-2904-4bf3-ae86-a80825768c7a,S
2019-11-02 17:17:47,b2be1549-2904-4bf3-ae86-a80825768c7a,A
2019-11-02 17:34:10,b2be1549-2904-4bf3-ae86-a80825768c7a,S
2019-11-02 17:40:17,b2be1549-2904-4bf3-ae86-a80825768c7a,A
2019-11-02 17:55:06,b2be1549-2904-4bf3-ae86-a80825768c7a,S
2019-11-02 18:00:20,b2be1549-2904-4bf3-ae86-a80825768c7a,A
2019-11-02 18:02:54,b2be1549-2904-4bf3-ae86-a80825768c7a,S
2019-11-02 18:06:18,b2be1549-2904-4bf3-ae86-a80825768c7a,A
