date,trigger,state
2019-10-27 16:42:36,c0d55a1f-2d0d-4164-a904-60a3fd1d63a2,S
2019-10-27 16:52:20,c0d55a1f-2d0d-4164-a904-60a3fd1d63a2,A
2019-10-27 16:53:45,c0d55a1f-2d0d-4164-a904-60a3fd1d63a2,S
2019-10-27 17:01:59,c0d55a1f-2d0d-4164-a904-60a3fd1d63a2,A
2019-10-27 17:02:51,c0d55a1f-2d0d-4164-a904-60a3fd1d63a2,S
2019-10-27 17:03:33,c0d55a1f-2d0d-4164-a904-60a3fd1d63a2,A
2019-10-27 17:07:00,c0d55a1f-2d0d-4164-a904-60a3fd1d63a2,S
2019-10-27 17:14:46,c0d55a1f-2d0d-4164-a904-60a3fd1d63a2,A
2019-10-27 17:15:00,c0d55a1f-2d0d-4164-a904-60a3fd1d63a2,S
2019-10-27 17:20:46,c0d55a1f-2d0d-4164-a904-60a3fd1d63a2,A
2019-10-27 17:23:23,c0d55a1f-2d0d-4164-a904-60a3fd1d63a2,S
2019-10-27 17:23:28,c0d55a1f-2d0d-4164-a904-60a3fd1d63a2,A
2019-10-27 17:26:35,c0d55a1f-2d0d-4164-a904-60a3fd1d63a2,S
2019-10-27 17:27:02,c0d55a1f-2d0d-4164-a904-60a3fd1d63a2,A
2019-10-27 17:38:45,c0d55a1f-2d0d-4164-a904-60a3fd1d63a2,S
2019-10-27 17:41:16,c0d55a1f-2d0d-4164-a904-60a3fd1d63a2,A
2019-10-27 17:44:09,c0d55a1f-2d0d-4164-a904-60a3fd1d63a2,S
2019-10-27 17:44:16,c0d55a1f-2d0d-4164-a904-60a3fd1d63a2,A
2019-10-27 17:48:33,c0d55a1f-2d0d-4164-a904-60a3fd1d63a2,S
2019-10-27 17:50:50,c0d55a1f-2d0d-4164-a904-60a3fd1d63a2,A
2019-10-27 17:58:33,c0d55a1f-2d0d-4164-a904-60a3fd1d63a2,S
2019-10-27 18:07:51,c0d55a1f-2d0d-4164-a904-60a3fd1d63a2,A
2019-10-27 18:12:12,c0d55a1f-2d0d-4164-a904-60a3fd1d63a2,S
2019-10-27 16:37:39,0e8b9edb-c1c1-4609-af6b-22e9ef8bb57e,S
2019-10-27 16:45:31,0e8b9edb-c1c1-4609-af6b-22e9ef8bb57e,A
2019-10-27 17:01:56,0e8b9edb-c1c1-4609-af6b-22e9ef8bb57e,S
2019-10-27 17:27:41,0e8b9edb-c1c1-4609-af6b-22e9ef8bb57e,A
2019-10-27 17:37:16,0e8b9edb-c1c1-4609-af6b-22e9ef8bb57e,S
2019-10-27 17:37:24,0e8b9edb-c1c1-4609-af6b-22e9ef8bb57e,A
2019-10-27 17:49:57,0e8b9edb-c1c1-4609-af6b-22e9ef8bb57e,S
2019-10-27 17:53:00,0e8b9edb-c1c1-4609-af6b-22e9ef8bb57e,A
2019-10-27 18:00:04,0e8b9edb-c1c1-4609-af6b-22e9ef8bb57e,S
2019-10-27 18:05:03,0e8b9edb-c1c1-4609-af6b-22e9ef8bb57e,A
2019-10-27 18:05:34,0e8b9edb-c1c1-4609-af6b-22e9ef8bb57e,S
2019-10-27 18:13:00,0e8b9edb-c1c1-4609-af6b-22e9ef8bb57e,A
2019-10-27 16:59:32,a1190404-3444-4e9b-b329-66a3eeabd567,S
2019-10-27 17:03:56,a1190404-3444-4e9b-b329-66a3eeabd567,A
2019-10-27 17:04:53,a1190404-3444-4e9b-b329-66a3eeabd567,S
2019-10-27 17:08:09,a1190404-3444-4e9b-b329-66a3eeabd567,A
2019-10-27 17:08:33,a1190404-3444-4e9b-b329-66a3eeabd567,S
2019-10-27 17:11:31,a1190404-3444-4e9b-b329-66a3eeabd567,A
2019-10-27 17:15:31,a1190404-3444-4e9b-b329-66a3eeabd567,S
2019-10-27 17:17:45,a1190404-3444-4e9b-b329-66a3eeabd567,A
2019-10-27 17:19:51,a1190404-3444-4e9b-b329-66a3eeabd567,S
2019-10-27 17:24:01,a1190404-3444-4e9b-b329-66a3eeabd567,A
2019-10-27 17:28:39,a1190404-3444-4e9b-b329-66a3eeabd567,S
2019-10-27 17:31:43,a1190404-3444-4e9b-b329-66a3eeabd567,A
2019-10-27 17:33:53,a1190404-3444-4e9b-b329-66a3eeabd567,S
2019-10-27 17:39:56,a1190404-3444-4e9b-b329-66a3eeabd567,A
2019-10-27 17:42:27,a1190404-3444-4e9b-b329-66a3eeabd567,S
2019-10-27 17:43:11,a1190404-3444-4e9b-b329-66a3eeabd567,A
2019-10-27 17:43:14,a1190404-3444-4e9b-b329-66a3eeabd567,S
2019-10-27 17:46:04,a1190404-3444-4e9b-b329-66a3eeabd567,A
2019-10-27 17:54:20,a1190404-3444-4e9b-b329-66a3eeabd567,S
2019-10-27 17:57:06,a1190404-3444-4e9b-b329-66a3eeabd567,A
2019-10-27 17:57:09,a1190404-3444-4e9b-b329-66a3eeabd567,S
2019-10-27 18:03:14,a1190404-3444-4e9b-b329-66a3eeabd567,A
2019-10-27 18:07:37,a1190404-3444-4e9b-b329-66a3eeabd567,S
2019-10-27 16:37:55,c03f3ef0-d6c2-4b28-b447-e5c3420557af,A
2019-10-27 16:39:23,c03f3ef0-d6c2-4b28-b447-e5c3420557af,S
2019-10-27 16:42:51,c03f3ef0-d6c2-4b28-b447-e5c3420557af,A
2019-10-27 16:44:05,c03f3ef0-d6c2-4b28-b447-e5c3420557af,S
2019-10-27 16:46:32,c03f3ef0-d6c2-4b28-b447-e5c3420557af,A
2019-10-27 16:51:44,c03f3ef0-d6c2-4b28-b447-e5c3420557af,S
2019-10-27 16:57:37,c03f3ef0-d6c2-4b28-b447-e5c3420557af,A
2019-10-27 17:10:58,c03f3ef0-d6c2-4b28-b447-e5c3420557af,S
2019-10-27 17:15:36,c03f3ef0-d6c2-4b28-b447-e5c3420557af,A
2019-10-27 17:18:05,c03f3ef0-d6c2-4b28-b447-e5c3420557af,S
2019-10-27 17:27:19,c03f3ef0-d6c2-4b28-b447-e5c3420557af,A
2019-10-27 17:28:16,c03f3ef0-d6c2-4b28-b447-e5c3420557af,S
2019-10-27 17:31:46,c03f3ef0-d6c2-4b28-b447-e5c3420557af,A
2019-10-27 17:33:25,c03f3ef0-d6c2-4b28-b447-e5c3420557af,S
2019-10-27 17:38:59,c03f3ef0-d6c2-4b28-b447-e5c3420557af,A
2019-10-27 17:44:09,c03f3ef0-d6c2-4b28-b447-e5c3420557af,S
2019-10-27 17:47:02,c03f3ef0-d6c2-4b28-b447-e5c3420557af,A
2019-10-27 18:01:37,c03f3ef0-d6c2-4b28-b447-e5c3420557af,S
2019-10-27 18:05:03,c03f3ef0-d6c2-4b28-b447-e5c3420557af,A
2019-10-27 18:10:08,c03f3ef0-d6c2-4b28-b447-e5c3420557af,S
2019-10-27 18:11:58,c03f3ef0-d6c2-4b28-b447-e5c3420557af,A
2019-10-27 17:04:45,9f9a532d-6795-4549-b4c4-a1d130b71418,S
2019-10-27 17:04:46,9f9a532d-6795-4549-b4c4-a1d130b71418,A
2019-10-27 17:12:42,9f9a532d-6795-4549-b4c4-a1d130b71418,S
2019-10-27 17:21:13,9f9a532d-6795-4549-b4c4-a1d130b71418,A
2019-10-27 17:22:56,9f9a532d-6795-4549-b4c4-a1d130b71418,S
2019-10-27 17:24:21,9f9a532d-6795-4549-b4c4-a1d130b71418,A
2019-10-27 17:24:23,9f9a532d-6795-4549-b4c4-a1d130b71418,S
2019-10-27 17:24:31,9f9a532d-6795-4549-b4c4-a1d130b71418,A
2019-10-27 17:25:04,9f9a532d-6795-4549-b4c4-a1d130b71418,S
2019-10-27 17:37:11,9f9a532d-6795-4549-b4c4-a1d130b71418,A
2019-10-27 17:52:47,9f9a532d-6795-4549-b4c4-a1d130b71418,S
2019-10-27 17:55:22,9f9a532d-6795-4549-b4c4-a1d130b71418,A
2019-10-27 18:09:02,9f9a532d-6795-4549-b4c4-a1d130b71418,S
2019-10-27 18:12:31,9f9a532d-6795-4549-b4c4-a1d130b71418,A
2019-10-27 16:43:48,d93b70f6-8aff-40cb-badb-f75bb44ad2d6,S
2019-10-27 16:45:29,d93b70f6-8aff-40cb-badb-f75bb44ad2d6,A
2019-10-27 17:07:11,d93b70f6-8aff-40cb-badb-f75bb44ad2d6,S
2019-10-27 17:08:27,d93b70f6-8aff-40cb-badb-f75bb44ad2d6,A
2019-10-27 17:09:08,d93b70f6-8aff-40cb-badb-f75bb44ad2d6,S
2019-10-27 17:09:11,d93b70f6-8aff-40cb-badb-f75bb44ad2d6,A
2019-10-27 17:14:42,d93b70f6-8aff-40cb-badb-f75bb44ad2d6,S
2019-10-27 17:18:47,d93b70f6-8aff-40cb-badb-f75bb44ad2d6,A
2019-10-27 17:29:11,d93b70f6-8aff-40cb-badb-f75bb44ad2d6,S
2019-10-27 17:32:52,d93b70f6-8aff-40cb-badb-f75bb44ad2d6,A
2019-10-27 17:35:35,d93b70f6-8aff-40cb-badb-f75bb44ad2d6,S
2019-10-27 17:37:32,d93b70f6-8aff-40cb-badb-f75bb44ad2d6,A
2019-10-27 17:39:55,d93b70f6-8aff-40cb-badb-f75bb44ad2d6,S
2019-10-27 17:46:28,d93b70f6-8aff-40cb-badb-f75bb44ad2d6,A
2019-10-27 17:50:16,d93b70f6-8aff-40cb-badb-f75bb44ad2d6,S
2019-10-27 17:56:29,d93b70f6-8aff-40cb-badb-f75bb44ad2d6,A
2019-10-27 18:00:52,d93b70f6-8aff-40cb-badb-f75bb44ad2d6,S
2019-10-27 18:11:24,d93b70f6-8aff-40cb-badb-f75bb44ad2d6,A
2019-10-27 18:11:44,d93b70f6-8aff-40cb-badb-f75bb44ad2d6,S
2019-10-27 16:47:09,117abf80-6a75-40a9-9dea-30b06805cd71,S
2019-10-27 16:47:45,117abf80-6a75-40a9-9dea-30b06805cd71,A
2019-10-27 16:50:20,117abf80-6a75-40a9-9dea-30b06805cd71,S
2019-10-27 16:55:29,117abf80-6a75-40a9-9dea-30b06805cd71,A
2019-10-27 17:19:25,117abf80-6a75-40a9-9dea-30b06805cd71,S
2019-10-27 17:23:25,117abf80-6a75-40a9-9dea-30b06805cd71,A
2019-10-27 17:23:55,117abf80-6a75-40a9-9dea-30b06805cd71,S
2019-10-27 17:31:34,117abf80-6a75-40a9-9dea-30b06805cd71,A
2019-10-27 17:32:27,117abf80-6a75-40a9-9dea-30b06805cd71,S
2019-10-27 17:35:47,117abf80-6a75-40a9-9dea-30b06805cd71,A
2019-10-27 17:46:45,117abf80-6a75-40a9-9dea-30b06805cd71,S
2019-10-27 17:47:11,117abf80-6a75-40a9-9dea-30b06805cd71,A
2019-10-27 17:56:10,117abf80-6a75-40a9-9dea-30b06805cd71,S
2019-10-27 17:58:06,117abf80-6a75-40a9-9dea-30b06805cd71,A
2019-10-27 18:02:20,117abf80-6a75-40a9-9dea-30b06805cd71,S
2019-10-27 18:08:23,117abf80-6a75-40a9-9dea-30b06805cd71,A
2019-10-27 18:11:11,117abf80-6a75-40a9-9dea-30b06805cd71,S
2019-10-27 18:11:50,117abf80-6a75-40a9-9dea-30b06805cd71,A
2019-10-27 18:12:35,117abf80-6a75-40a9-9dea-30b06805cd71,S
2019-10-27 16:48:12,19128df6-acc1-48fa-86ca-3ad75cbc514f,A
2019-10-27 16:49:27,19128df6-acc1-48fa-86ca-3ad75cbc514f,S
2019-10-27 17:00:44,19128df6-acc1-48fa-86ca-3ad75cbc514f,A
2019-10-27 17:11:01,19128df6-acc1-48fa-86ca-3ad75cbc514f,S
2019-10-27 17:13:13,19128df6-acc1-48fa-86ca-3ad75cbc514f,A
2019-10-27 17:17:45,19128df6-acc1-48fa-86ca-3ad75cbc514f,S
2019-10-27 17:18:16,19128df6-acc1-48fa-86ca-3ad75cbc514f,A
2019-10-27 17:25:29,19128df6-acc1-48fa-86ca-3ad75cbc514f,S
2019-10-27 17:26:18,19128df6-acc1-48fa-86ca-3ad75cbc514f,A
2019-10-27 17:31:40,19128df6-acc1-48fa-86ca-3ad75cbc514f,S
2019-10-27 17:34:05,19128df6-acc1-48fa-86ca-3ad75cbc514f,A
2019-10-27 17:34:49,19128df6-acc1-48fa-86ca-3ad75cbc514f,S
2019-10-27 17:35:01,19128df6-acc1-48fa-86ca-3ad75cbc514f,A
2019-10-27 17:36:55,19128df6-acc1-48fa-86ca-3ad75cbc514f,S
2019-10-27 17:44:37,19128df6-acc1-48fa-86ca-3ad75cbc514f,A
2019-10-27 17:52:26,19128df6-acc1-48fa-86ca-3ad75cbc514f,S
2019-10-27 17:53:56,19128df6-acc1-48fa-86ca-3ad75cbc514f,A
2019-10-27 17:56:34,19128df6-acc1-48fa-86ca-3ad75cbc514f,S
2019-10-27 18:01:15,19128df6-acc1-48fa-86ca-3ad75cbc514f,A
2019-10-27 16:39:57,a01527ad-ef5a-4870-99d5-7a574e42f930,A
2019-10-27 16:49:54,a01527ad-ef5a-4870-99d5-7a574e42f930,S
2019-10-27 16:51:15,a01527ad-ef5a-4870-99d5-7a574e42f930,A
2019-10-27 16:55:59,a01527ad-ef5a-4870-99d5-7a574e42f930,S
2019-10-27 17:08:30,a01527ad-ef5a-4870-99d5-7a574e42f930,A
2019-10-27 17:11:29,a01527ad-ef5a-4870-99d5-7a574e42f930,S
2019-10-27 17:17:43,a01527ad-ef5a-4870-99d5-7a574e42f930,A
2019-10-27 17:21:17,a01527ad-ef5a-4870-99d5-7a574e42f930,S
2019-10-27 17:26:52,a01527ad-ef5a-4870-99d5-7a574e42f930,A
2019-10-27 17:29:11,a01527ad-ef5a-4870-99d5-7a574e42f930,S
2019-10-27 17:35:24,a01527ad-ef5a-4870-99d5-7a574e42f930,A
2019-10-27 17:38:43,a01527ad-ef5a-4870-99d5-7a574e42f930,S
2019-10-27 17:39:29,a01527ad-ef5a-4870-99d5-7a574e42f930,A
2019-10-27 17:47:39,a01527ad-ef5a-4870-99d5-7a574e42f930,S
2019-10-27 17:47:41,a01527ad-ef5a-4870-99d5-7a574e42f930,A
2019-10-27 17:49:14,a01527ad-ef5a-4870-99d5-7a574e42f930,S
2019-10-27 17:50:03,a01527ad-ef5a-4870-99d5-7a574e42f930,A
2019-10-27 17:50:09,a01527ad-ef5a-4870-99d5-7a574e42f930,S
2019-10-27 17:50:14,a01527ad-ef5a-4870-99d5-7a574e42f930,A
2019-10-27 17:50:39,a01527ad-ef5a-4870-99d5-7a574e42f930,S
2019-10-27 17:55:24,a01527ad-ef5a-4870-99d5-7a574e42f930,A
2019-10-27 17:59:32,a01527ad-ef5a-4870-99d5-7a574e42f930,S
2019-10-27 18:01:20,a01527ad-ef5a-4870-99d5-7a574e42f930,A
2019-10-27 18:03:34,a01527ad-ef5a-4870-99d5-7a574e42f930,S
2019-10-27 18:14:12,a01527ad-ef5a-4870-99d5-7a574e42f930,A
2019-10-27 16:38:52,16a5f765-b288-4c89-aa8e-f57339dbe966,S
2019-10-27 16:39:39,16a5f765-b288-4c89-aa8e-f57339dbe966,A
2019-10-27 16:46:49,16a5f765-b288-4c89-aa8e-f57339dbe966,S
2019-10-27 16:50:47,16a5f765-b288-4c89-aa8e-f57339dbe966,A
2019-10-27 16:50:15,97cf35e4-97b2-45d8-b4df-336f8dc7ad4d,S
2019-10-27 17:11:24,97cf35e4-97b2-45d8-b4df-336f8dc7ad4d,A
2019-10-27 17:19:59,97cf35e4-97b2-45d8-b4df-336f8dc7ad4d,S
2019-10-27 17:43:15,97cf35e4-97b2-45d8-b4df-336f8dc7ad4d,A
2019-10-27 17:43:25,97cf35e4-97b2-45d8-b4df-336f8dc7ad4d,S
2019-10-27 17:46:36,97cf35e4-97b2-45d8-b4df-336f8dc7ad4d,A
2019-10-27 17:56:26,97cf35e4-97b2-45d8-b4df-336f8dc7ad4d,S
2019-10-27 18:02:18,97cf35e4-97b2-45d8-b4df-336f8dc7ad4d,A
2019-10-27 18:03:30,97cf35e4-97b2-45d8-b4df-336f8dc7ad4d,S
2019-10-27 18:09:55,97cf35e4-97b2-45d8-b4df-336f8dc7ad4d,A
2019-10-27 18:13:58,97cf35e4-97b2-45d8-b4df-336f8dc7ad4d,S
2019-10-27 16:50:08,549bb624-f99f-4a60-9512-e04715058b1a,A
2019-10-27 16:55:31,549bb624-f99f-4a60-9512-e04715058b1a,S
2019-10-27 17:05:00,549bb624-f99f-4a60-9512-e04715058b1a,A
2019-10-27 17:08:27,549bb624-f99f-4a60-9512-e04715058b1a,S
2019-10-27 17:12:00,549bb624-f99f-4a60-9512-e04715058b1a,A
2019-10-27 17:23:05,549bb624-f99f-4a60-9512-e04715058b1a,S
2019-10-27 17:29:32,549bb624-f99f-4a60-9512-e04715058b1a,A
2019-10-27 17:40:22,549bb624-f99f-4a60-9512-e04715058b1a,S
2019-10-27 17:42:15,549bb624-f99f-4a60-9512-e04715058b1a,A
2019-10-27 17:42:33,549bb624-f99f-4a60-9512-e04715058b1a,S
2019-10-27 17:57:52,549bb624-f99f-4a60-9512-e04715058b1a,A
2019-10-27 17:59:30,549bb624-f99f-4a60-9512-e04715058b1a,S
2019-10-27 18:03:34,549bb624-f99f-4a60-9512-e04715058b1a,A
2019-10-27 18:05:19,549bb624-f99f-4a60-9512-e04715058b1a,S
2019-10-27 18:10:19,549bb624-f99f-4a60-9512-e04715058b1a,A
2019-10-27 16:54:09,34c5fc74-ee6c-4cb6-b7a1-ff2e40d0aa58,S
2019-10-27 16:57:39,34c5fc74-ee6c-4cb6-b7a1-ff2e40d0aa58,A
2019-10-27 16:59:05,34c5fc74-ee6c-4cb6-b7a1-ff2e40d0aa58,S
2019-10-27 17:13:16,34c5fc74-ee6c-4cb6-b7a1-ff2e40d0aa58,A
2019-10-27 17:18:57,34c5fc74-ee6c-4cb6-b7a1-ff2e40d0aa58,S
2019-10-27 17:37:17,34c5fc74-ee6c-4cb6-b7a1-ff2e40d0aa58,A
2019-10-27 17:38:11,34c5fc74-ee6c-4cb6-b7a1-ff2e40d0aa58,S
2019-10-27 17:46:04,34c5fc74-ee6c-4cb6-b7a1-ff2e40d0aa58,A
2019-10-27 17:59:38,34c5fc74-ee6c-4cb6-b7a1-ff2e40d0aa58,S
2019-10-27 18:00:27,34c5fc74-ee6c-4cb6-b7a1-ff2e40d0aa58,A
2019-10-27 18:03:07,34c5fc74-ee6c-4cb6-b7a1-ff2e40d0aa58,S
2019-10-27 16:59:53,68ad1c8e-ec14-4893-bc6e-96b8df876267,A
2019-10-27 17:03:09,68ad1c8e-ec14-4893-bc6e-96b8df876267,S
2019-10-27 17:08:13,68ad1c8e-ec14-4893-bc6e-96b8df876267,A
2019-10-27 17:16:49,68ad1c8e-ec14-4893-bc6e-96b8df876267,S
2019-10-27 17:21:16,68ad1c8e-ec14-4893-bc6e-96b8df876267,A
2019-10-27 17:24:24,68ad1c8e-ec14-4893-bc6e-96b8df876267,S
2019-10-27 17:25:15,68ad1c8e-ec14-4893-bc6e-96b8df876267,A
2019-10-27 17:26:38,68ad1c8e-ec14-4893-bc6e-96b8df876267,S
2019-10-27 17:31:52,68ad1c8e-ec14-4893-bc6e-96b8df876267,A
2019-10-27 17:37:29,68ad1c8e-ec14-4893-bc6e-96b8df876267,S
2019-10-27 17:48:51,68ad1c8e-ec14-4893-bc6e-96b8df876267,A
2019-10-27 17:48:54,68ad1c8e-ec14-4893-bc6e-96b8df876267,S
2019-10-27 17:56:05,68ad1c8e-ec14-4893-bc6e-96b8df876267,A
2019-10-27 18:07:35,68ad1c8e-ec14-4893-bc6e-96b8df876267,S
2019-10-27 18:09:11,68ad1c8e-ec14-4893-bc6e-96b8df876267,A
2019-10-27 18:12:19,68ad1c8e-ec14-4893-bc6e-96b8df876267,S
2019-10-27 18:12:35,68ad1c8e-ec14-4893-bc6e-96b8df876267,A
2019-10-27 16:36:38,0eac1a9e-7efc-4564-9d5e-07c2c7fd8125,A
2019-10-27 16:38:33,0eac1a9e-7efc-4564-9d5e-07c2c7fd8125,S
2019-10-27 16:40:18,0eac1a9e-7efc-4564-9d5e-07c2c7fd8125,A
2019-10-27 16:42:53,0eac1a9e-7efc-4564-9d5e-07c2c7fd8125,S
2019-10-27 16:46:18,0eac1a9e-7efc-4564-9d5e-07c2c7fd8125,A
2019-10-27 16:53:28,0eac1a9e-7efc-4564-9d5e-07c2c7fd8125,S
2019-10-27 16:54:56,0eac1a9e-7efc-4564-9d5e-07c2c7fd8125,A
2019-10-27 17:08:30,0eac1a9e-7efc-4564-9d5e-07c2c7fd8125,S
2019-10-27 17:09:02,0eac1a9e-7efc-4564-9d5e-07c2c7fd8125,A
2019-10-27 17:13:39,0eac1a9e-7efc-4564-9d5e-07c2c7fd8125,S
2019-10-27 17:14:16,0eac1a9e-7efc-4564-9d5e-07c2c7fd8125,A
2019-10-27 17:20:50,0eac1a9e-7efc-4564-9d5e-07c2c7fd8125,S
2019-10-27 17:21:17,0eac1a9e-7efc-4564-9d5e-07c2c7fd8125,A
2019-10-27 17:21:22,0eac1a9e-7efc-4564-9d5e-07c2c7fd8125,S
2019-10-27 17:32:32,0eac1a9e-7efc-4564-9d5e-07c2c7fd8125,A
2019-10-27 17:33:17,0eac1a9e-7efc-4564-9d5e-07c2c7fd8125,S
2019-10-27 17:35:58,0eac1a9e-7efc-4564-9d5e-07c2c7fd8125,A
2019-10-27 17:40:41,0eac1a9e-7efc-4564-9d5e-07c2c7fd8125,S
2019-10-27 17:56:44,0eac1a9e-7efc-4564-9d5e-07c2c7fd8125,A
2019-10-27 17:59:57,0eac1a9e-7efc-4564-9d5e-07c2c7fd8125,S
2019-10-27 18:02:43,0eac1a9e-7efc-4564-9d5e-07c2c7fd8125,A
2019-10-27 18:03:14,0eac1a9e-7efc-4564-9d5e-07c2c7fd8125,S
2019-10-27 16:56:24,86c00c00-cf4b-48a5-a56f-d484b9633369,S
2019-10-27 17:04:47,86c00c00-cf4b-48a5-a56f-d484b9633369,A
2019-10-27 17:04:57,86c00c00-cf4b-48a5-a56f-d484b9633369,S
2019-10-27 17:07:55,86c00c00-cf4b-48a5-a56f-d484b9633369,A
2019-10-27 17:09:46,86c00c00-cf4b-48a5-a56f-d484b9633369,S
2019-10-27 17:10:14,86c00c00-cf4b-48a5-a56f-d484b9633369,A
2019-10-27 17:21:37,86c00c00-cf4b-48a5-a56f-d484b9633369,S
2019-10-27 17:28:23,86c00c00-cf4b-48a5-a56f-d484b9633369,A
2019-10-27 17:51:49,86c00c00-cf4b-48a5-a56f-d484b9633369,S
2019-10-27 18:02:03,86c00c00-cf4b-48a5-a56f-d484b9633369,A
2019-10-27 18:10:10,86c00c00-cf4b-48a5-a56f-d484b9633369,S
2019-10-27 18:11:05,86c00c00-cf4b-48a5-a56f-d484b9633369,A
2019-10-27 18:14:24,86c00c00-cf4b-48a5-a56f-d484b9633369,S
2019-10-27 16:43:46,7274c7ad-e478-47d0-8175-66eed26e9084,A
2019-10-27 16:45:04,7274c7ad-e478-47d0-8175-66eed26e9084,S
2019-10-27 16:54:07,7274c7ad-e478-47d0-8175-66eed26e9084,A
2019-10-27 16:56:19,7274c7ad-e478-47d0-8175-66eed26e9084,S
2019-10-27 16:56:59,7274c7ad-e478-47d0-8175-66eed26e9084,A
2019-10-27 16:57:07,7274c7ad-e478-47d0-8175-66eed26e9084,S
2019-10-27 17:02:07,7274c7ad-e478-47d0-8175-66eed26e9084,A
2019-10-27 17:05:18,7274c7ad-e478-47d0-8175-66eed26e9084,S
2019-10-27 17:06:46,7274c7ad-e478-47d0-8175-66eed26e9084,A
2019-10-27 17:16:50,7274c7ad-e478-47d0-8175-66eed26e9084,S
2019-10-27 17:18:32,7274c7ad-e478-47d0-8175-66eed26e9084,A
2019-10-27 17:25:25,7274c7ad-e478-47d0-8175-66eed26e9084,S
2019-10-27 17:28:27,7274c7ad-e478-47d0-8175-66eed26e9084,A
2019-10-27 17:34:58,7274c7ad-e478-47d0-8175-66eed26e9084,S
2019-10-27 17:41:47,7274c7ad-e478-47d0-8175-66eed26e9084,A
2019-10-27 17:53:42,7274c7ad-e478-47d0-8175-66eed26e9084,S
2019-10-27 17:54:01,7274c7ad-e478-47d0-8175-66eed26e9084,A
2019-10-27 18:09:25,7274c7ad-e478-47d0-8175-66eed26e9084,S
2019-10-27 18:12:17,7274c7ad-e478-47d0-8175-66eed26e9084,A
2019-10-27 18:14:17,7274c7ad-e478-47d0-8175-66eed26e9084,S
2019-10-27 16:52:07,cb9e4d52-9fdd-4f8c-9a7c-0105bf9dcf98,A
2019-10-27 16:54:00,cb9e4d52-9fdd-4f8c-9a7c-0105bf9dcf98,S
2019-10-27 16:57:08,cb9e4d52-9fdd-4f8c-9a7c-0105bf9dcf98,A
2019-10-27 17:27:42,cb9e4d52-9fdd-4f8c-9a7c-0105bf9dcf98,S
2019-10-27 17:29:40,cb9e4d52-9fdd-4f8c-9a7c-0105bf9dcf98,A
2019-10-27 17:35:44,cb9e4d52-9fdd-4f8c-9a7c-0105bf9dcf98,S
2019-10-27 17:36:30,cb9e4d52-9fdd-4f8c-9a7c-0105bf9dcf98,A
2019-10-27 17:37:38,cb9e4d52-9fdd-4f8c-9a7c-0105bf9dcf98,S
2019-10-27 17:50:22,cb9e4d52-9fdd-4f8c-9a7c-0105bf9dcf98,A
2019-10-27 17:50:58,cb9e4d52-9fdd-4f8c-9a7c-0105bf9dcf98,S
2019-10-27 17:55:23,cb9e4d52-9fdd-4f8c-9a7c-0105bf9dcf98,A
2019-10-27 18:03:02,cb9e4d52-9fdd-4f8c-9a7c-0105bf9dcf98,S
2019-10-27 18:07:01,cb9e4d52-9fdd-4f8c-9a7c-0105bf9dcf98,A
2019-10-27 18:07:44,cb9e4d52-9fdd-4f8c-9a7c-0105bf9dcf98,S
2019-10-27 18:08:19,cb9e4d52-9fdd-4f8c-9a7c-0105bf9dcf98,A
2019-10-27 18:11:22,cb9e4d52-9fdd-4f8c-9a7c-0105bf9dcf98,S
2019-10-27 18:11:39,cb9e4d52-9fdd-4f8c-9a7c-0105bf9dcf98,A
2019-10-27 18:14:07,cb9e4d52-9fdd-4f8c-9a7c-0105bf9dcf98,S
2019-10-27 16:38:30,da797f62-45b5-407d-a0d2-91f1f6cba75f,A
2019-10-27 16:45:09,da797f62-45b5-407d-a0d2-91f1f6cba75f,S
2019-10-27 16:51:29,da797f62-45b5-407d-a0d2-91f1f6cba75f,A
2019-10-27 16:54:09,da797f62-45b5-407d-a0d2-91f1f6cba75f,S
2019-10-27 17:03:35,da797f62-45b5-407d-a0d2-91f1f6cba75f,A
2019-10-27 17:09:37,da797f62-45b5-407d-a0d2-91f1f6cba75f,S
2019-10-27 17:13:53,da797f62-45b5-407d-a0d2-91f1f6cba75f,A
2019-10-27 17:19:38,da797f62-45b5-407d-a0d2-91f1f6cba75f,S
2019-10-27 17:21:12,da797f62-45b5-407d-a0d2-91f1f6cba75f,A
2019-10-27 17:22:49,da797f62-45b5-407d-a0d2-91f1f6cba75f,S
2019-10-27 17:25:51,da797f62-45b5-407d-a0d2-91f1f6cba75f,A
2019-10-27 17:30:39,da797f62-45b5-407d-a0d2-91f1f6cba75f,S
2019-10-27 17:31:44,da797f62-45b5-407d-a0d2-91f1f6cba75f,A
2019-10-27 17:35:01,da797f62-45b5-407d-a0d2-91f1f6cba75f,S
2019-10-27 17:37:00,da797f62-45b5-407d-a0d2-91f1f6cba75f,A
2019-10-27 17:38:04,da797f62-45b5-407d-a0d2-91f1f6cba75f,S
2019-10-27 17:45:50,da797f62-45b5-407d-a0d2-91f1f6cba75f,A
2019-10-27 17:53:53,da797f62-45b5-407d-a0d2-91f1f6cba75f,S
2019-10-27 17:58:38,da797f62-45b5-407d-a0d2-91f1f6cba75f,A
2019-10-27 18:03:35,da797f62-45b5-407d-a0d2-91f1f6cba75f,S
2019-10-27 18:05:37,da797f62-45b5-407d-a0d2-91f1f6cba75f,A
2019-10-27 18:15:42,da797f62-45b5-407d-a0d2-91f1f6cba75f,S
2019-10-27 17:13:47,5406b780-aec9-4350-979f-b1cff077b242,A
2019-10-27 17:18:24,5406b780-aec9-4350-979f-b1cff077b242,S
2019-10-27 17:37:56,5406b780-aec9-4350-979f-b1cff077b242,A
2019-10-27 17:42:27,5406b780-aec9-4350-979f-b1cff077b242,S
2019-10-27 17:44:10,5406b780-aec9-4350-979f-b1cff077b242,A
2019-10-27 17:48:47,5406b780-aec9-4350-979f-b1cff077b242,S
2019-10-27 17:48:52,5406b780-aec9-4350-979f-b1cff077b242,A
2019-10-27 17:51:43,5406b780-aec9-4350-979f-b1cff077b242,S
2019-10-27 17:53:05,5406b780-aec9-4350-979f-b1cff077b242,A
2019-10-27 17:54:10,5406b780-aec9-4350-979f-b1cff077b242,S
2019-10-27 17:54:24,5406b780-aec9-4350-979f-b1cff077b242,A
2019-10-27 17:58:43,5406b780-aec9-4350-979f-b1cff077b242,S
2019-10-27 18:10:35,5406b780-aec9-4350-979f-b1cff077b242,A
2019-10-27 18:11:17,5406b780-aec9-4350-979f-b1cff077b242,S
2019-10-27 16:41:53,c5b014cd-6d10-4fcd-83db-a4faf667a2bb,A
2019-10-27 16:42:29,c5b014cd-6d10-4fcd-83db-a4faf667a2bb,S
2019-10-27 16:52:06,c5b014cd-6d10-4fcd-83db-a4faf667a2bb,A
2019-10-27 17:02:53,c5b014cd-6d10-4fcd-83db-a4faf667a2bb,S
2019-10-27 17:09:20,c5b014cd-6d10-4fcd-83db-a4faf667a2bb,A
2019-10-27 17:10:28,c5b014cd-6d10-4fcd-83db-a4faf667a2bb,S
2019-10-27 17:22:40,c5b014cd-6d10-4fcd-83db-a4faf667a2bb,A
2019-10-27 17:24:35,c5b014cd-6d10-4fcd-83db-a4faf667a2bb,S
2019-10-27 17:33:17,c5b014cd-6d10-4fcd-83db-a4faf667a2bb,A
2019-10-27 17:35:49,c5b014cd-6d10-4fcd-83db-a4faf667a2bb,S
2019-10-27 17:36:03,c5b014cd-6d10-4fcd-83db-a4faf667a2bb,A
2019-10-27 17:37:34,c5b014cd-6d10-4fcd-83db-a4faf667a2bb,S
2019-10-27 17:45:44,c5b014cd-6d10-4fcd-83db-a4faf667a2bb,A
2019-10-27 17:49:33,c5b014cd-6d10-4fcd-83db-a4faf667a2bb,S
2019-10-27 17:52:56,c5b014cd-6d10-4fcd-83db-a4faf667a2bb,A
2019-10-27 17:56:23,c5b014cd-6d10-4fcd-83db-a4faf667a2bb,S
2019-10-27 18:02:26,c5b014cd-6d10-4fcd-83db-a4faf667a2bb,A
2019-10-27 18:12:22,c5b014cd-6d10-4fcd-83db-a4faf667a2bb,S
2019-10-27 16:45:17,1045a63c-8757-414c-94bf-433adc30a843,S
2019-10-27 16:49:26,1045a63c-8757-414c-94bf-433adc30a843,A
2019-10-27 17:07:21,1045a63c-8757-414c-94bf-433adc30a843,S
2019-10-27 17:09:15,1045a63c-8757-414c-94bf-433adc30a843,A
2019-10-27 17:15:41,1045a63c-8757-414c-94bf-433adc30a843,S
2019-10-27 17:17:08,1045a63c-8757-414c-94bf-433adc30a843,A
2019-10-27 17:21:41,1045a63c-8757-414c-94bf-433adc30a843,S
2019-10-27 17:22:10,1045a63c-8757-414c-94bf-433adc30a843,A
2019-10-27 17:25:07,1045a63c-8757-414c-94bf-433adc30a843,S
2019-10-27 17:25:20,1045a63c-8757-414c-94bf-433adc30a843,A
2019-10-27 17:27:06,1045a63c-8757-414c-94bf-433adc30a843,S
2019-10-27 17:27:38,1045a63c-8757-414c-94bf-433adc30a843,A
2019-10-27 17:29:27,1045a63c-8757-414c-94bf-433adc30a843,S
2019-10-27 17:34:25,1045a63c-8757-414c-94bf-433adc30a843,A
2019-10-27 17:35:44,1045a63c-8757-414c-94bf-433adc30a843,S
2019-10-27 17:39:51,1045a63c-8757-414c-94bf-433adc30a843,A
2019-10-27 17:50:14,1045a63c-8757-414c-94bf-433adc30a843,S
2019-10-27 17:51:49,1045a63c-8757-414c-94bf-433adc30a843,A
2019-10-27 17:59:19,1045a63c-8757-414c-94bf-433adc30a843,S
2019-10-27 17:59:34,1045a63c-8757-414c-94bf-433adc30a843,A
2019-10-27 18:00:59,1045a63c-8757-414c-94bf-433adc30a843,S
2019-10-27 17:11:08,53b6359f-5f4f-41e7-a1ff-439ae4b38884,A
2019-10-27 17:21:20,53b6359f-5f4f-41e7-a1ff-439ae4b38884,S
2019-10-27 17:26:30,53b6359f-5f4f-41e7-a1ff-439ae4b38884,A
2019-10-27 17:32:17,53b6359f-5f4f-41e7-a1ff-439ae4b38884,S
2019-10-27 17:41:09,53b6359f-5f4f-41e7-a1ff-439ae4b38884,A
2019-10-27 17:50:04,53b6359f-5f4f-41e7-a1ff-439ae4b38884,S
2019-10-27 18:07:22,53b6359f-5f4f-41e7-a1ff-439ae4b38884,A
2019-10-27 18:11:23,53b6359f-5f4f-41e7-a1ff-439ae4b38884,S
2019-10-27 18:13:06,53b6359f-5f4f-41e7-a1ff-439ae4b38884,A
2019-10-27 16:49:22,266514d4-7f3a-4801-b901-59d520d96f85,S
2019-10-27 16:50:13,266514d4-7f3a-4801-b901-59d520d96f85,A
2019-10-27 16:50:48,dc269cb4-2ad7-4bb3-b02f-8e6ecfd57230,A
2019-10-27 16:52:00,dc269cb4-2ad7-4bb3-b02f-8e6ecfd57230,S
2019-10-27 16:53:23,dc269cb4-2ad7-4bb3-b02f-8e6ecfd57230,A
2019-10-27 16:59:51,dc269cb4-2ad7-4bb3-b02f-8e6ecfd57230,S
2019-10-27 17:03:15,dc269cb4-2ad7-4bb3-b02f-8e6ecfd57230,A
2019-10-27 17:06:10,dc269cb4-2ad7-4bb3-b02f-8e6ecfd57230,S
2019-10-27 17:07:16,dc269cb4-2ad7-4bb3-b02f-8e6ecfd57230,A
2019-10-27 17:09:48,dc269cb4-2ad7-4bb3-b02f-8e6ecfd57230,S
2019-10-27 17:10:47,dc269cb4-2ad7-4bb3-b02f-8e6ecfd57230,A
2019-10-27 17:12:52,dc269cb4-2ad7-4bb3-b02f-8e6ecfd57230,S
2019-10-27 17:14:14,dc269cb4-2ad7-4bb3-b02f-8e6ecfd57230,A
2019-10-27 17:20:47,dc269cb4-2ad7-4bb3-b02f-8e6ecfd57230,S
2019-10-27 17:22:15,dc269cb4-2ad7-4bb3-b02f-8e6ecfd57230,A
2019-10-27 17:23:03,dc269cb4-2ad7-4bb3-b02f-8e6ecfd57230,S
2019-10-27 17:23:33,dc269cb4-2ad7-4bb3-b02f-8e6ecfd57230,A
2019-10-27 17:26:23,dc269cb4-2ad7-4bb3-b02f-8e6ecfd57230,S
2019-10-27 17:31:30,dc269cb4-2ad7-4bb3-b02f-8e6ecfd57230,A
2019-10-27 17:46:58,dc269cb4-2ad7-4bb3-b02f-8e6ecfd57230,S
2019-10-27 17:56:00,dc269cb4-2ad7-4bb3-b02f-8e6ecfd57230,A
2019-10-27 18:05:43,dc269cb4-2ad7-4bb3-b02f-8e6ecfd57230,S
2019-10-27 18:14:14,dc269cb4-2ad7-4bb3-b02f-8e6ecfd57230,A
2019-10-27 18:15:00,dc269cb4-2ad7-4bb3-b02f-8e6ecfd57230,S
2019-10-27 18:15:19,dc269cb4-2ad7-4bb3-b02f-8e6ecfd57230,A
