date,actor,success,from,to
2019-11-10 13:10:18,f5e2a087-6ec1-4e85-be70-4d69f5616448,1,9e6fb8c1-ff15-40cb-a57c-676ed13cc735,a5dbe1fd-0dfe-4680-842f-05faa19cef08
2019-11-10 13:10:18,e2230e5e-7157-4462-a0aa-d141156522f2,1,9e6fb8c1-ff15-40cb-a57c-676ed13cc735,832d4e47-e417-4bd9-bed7-1ab4e4f29077
2019-11-10 13:10:18,1ac6644b-26d0-4cb7-a84b-3ce7e964221e,1,9e6fb8c1-ff15-40cb-a57c-676ed13cc735,9e6fb8c1-ff15-40cb-a57c-676ed13cc735
2019-11-10 13:34:40,4f485b71-41ae-4c49-86fa-b560eeccc14b,1,9e6fb8c1-ff15-40cb-a57c-676ed13cc735,5b3f9692-80cc-474c-82e2-43f1a1671272
2019-11-10 13:37:50,a769a961-b791-4554-9300-ffedd9d0ec2c,1,9e6fb8c1-ff15-40cb-a57c-676ed13cc735,a5dbe1fd-0dfe-4680-842f-05faa19cef08
2019-11-10 13:40:14,2cef399f-9743-4cd4-a8be-4fe9ccb6bb7c,1,9e6fb8c1-ff15-40cb-a57c-676ed13cc735,34bce75e-a02c-4a0b-9130-e43f3836a02a
2019-11-10 13:50:33,2b55eba1-6625-47a8-b9e8-a590e816be69,1,9e6fb8c1-ff15-40cb-a57c-676ed13cc735,b108b4a2-d341-4bb9-9d5f-1f18b7671885
2019-11-10 13:51:14,343f1241-b470-4d86-995c-542cfd044b4a,1,9e6fb8c1-ff15-40cb-a57c-676ed13cc735,7b888feb-a5c2-4761-b50e-0f0844ec1770
2019-11-10 13:51:17,1ac6644b-26d0-4cb7-a84b-3ce7e964221e,1,9e6fb8c1-ff15-40cb-a57c-676ed13cc735,0135650c-cb02-42a1-9d14-8fb9ef8e33a5
2019-11-10 13:52:19,36c1905e-e50e-40d9-839f-0a211ae00ed9,1,9e6fb8c1-ff15-40cb-a57c-676ed13cc735,212d4e8f-f2e3-4654-b55e-af55bf46b80a
2019-11-10 13:52:21,4f485b71-41ae-4c49-86fa-b560eeccc14b,1,9e6fb8c1-ff15-40cb-a57c-676ed13cc735,212d4e8f-f2e3-4654-b55e-af55bf46b80a
2019-11-10 13:52:23,d1d920f6-a8f9-49e5-90c6-72b73fe2677f,1,9e6fb8c1-ff15-40cb-a57c-676ed13cc735,34bce75e-a02c-4a0b-9130-e43f3836a02a
2019-11-10 13:55:25,4f485b71-41ae-4c49-86fa-b560eeccc14b,1,9e6fb8c1-ff15-40cb-a57c-676ed13cc735,064ba3dd-093b-470e-9702-5cc2f6954bec
2019-11-10 13:58:19,a0f7f13b-ffb5-40d1-9fde-ecdef36592cb,1,9e6fb8c1-ff15-40cb-a57c-676ed13cc735,7b888feb-a5c2-4761-b50e-0f0844ec1770
2019-11-10 13:59:25,8ca580d7-981a-46f4-bd7d-660e23170ff7,1,9e6fb8c1-ff15-40cb-a57c-676ed13cc735,34bce75e-a02c-4a0b-9130-e43f3836a02a
2019-11-10 14:12:54,42c0e47e-caad-4dd6-a75f-d399fa74abb0,1,9e6fb8c1-ff15-40cb-a57c-676ed13cc735,660b016c-91d2-4c7c-853c-8cf4a01b32f8
2019-11-10 14:16:46,32bb6b79-efa9-4285-af91-2339ddcadd04,1,9e6fb8c1-ff15-40cb-a57c-676ed13cc735,3b6ebdfb-dce3-48fd-aac3-fb2c283be8d4
2019-11-10 14:22:30,36c1905e-e50e-40d9-839f-0a211ae00ed9,1,9e6fb8c1-ff15-40cb-a57c-676ed13cc735,34bce75e-a02c-4a0b-9130-e43f3836a02a
2019-11-10 14:23:41,a0f7f13b-ffb5-40d1-9fde-ecdef36592cb,1,9e6fb8c1-ff15-40cb-a57c-676ed13cc735,3b6ebdfb-dce3-48fd-aac3-fb2c283be8d4
2019-11-10 14:23:49,4f485b71-41ae-4c49-86fa-b560eeccc14b,1,9e6fb8c1-ff15-40cb-a57c-676ed13cc735,064ba3dd-093b-470e-9702-5cc2f6954bec
2019-11-10 14:23:51,d9049ede-58db-4247-b19f-7b12d146d0d8,1,9e6fb8c1-ff15-40cb-a57c-676ed13cc735,0b423b97-aeb9-4eb9-8b1a-1a090010bc0c
2019-11-10 13:10:17,9d6b8b46-2207-4487-8361-d5d80c85b6a0,1,a5dbe1fd-0dfe-4680-842f-05faa19cef08,a5dbe1fd-0dfe-4680-842f-05faa19cef08
2019-11-10 13:10:17,d1d920f6-a8f9-49e5-90c6-72b73fe2677f,1,a5dbe1fd-0dfe-4680-842f-05faa19cef08,064ba3dd-093b-470e-9702-5cc2f6954bec
2019-11-10 13:10:17,13dda0d3-7238-455d-b2eb-69f26b055c12,1,a5dbe1fd-0dfe-4680-842f-05faa19cef08,0adf23f0-694f-4359-b871-66785fba13ac
2019-11-10 13:18:10,a769a961-b791-4554-9300-ffedd9d0ec2c,1,a5dbe1fd-0dfe-4680-842f-05faa19cef08,9e6fb8c1-ff15-40cb-a57c-676ed13cc735
2019-11-10 13:19:11,f5e2a087-6ec1-4e85-be70-4d69f5616448,1,a5dbe1fd-0dfe-4680-842f-05faa19cef08,7b888feb-a5c2-4761-b50e-0f0844ec1770
2019-11-10 13:27:11,cc5fd19f-ca5b-4345-b277-d24b29eef5d3,1,a5dbe1fd-0dfe-4680-842f-05faa19cef08,832d4e47-e417-4bd9-bed7-1ab4e4f29077
2019-11-10 13:40:37,d9049ede-58db-4247-b19f-7b12d146d0d8,1,a5dbe1fd-0dfe-4680-842f-05faa19cef08,5b3f9692-80cc-474c-82e2-43f1a1671272
2019-11-10 13:47:37,a1dc9e15-1cee-4d13-b65c-567141d9c0f8,1,a5dbe1fd-0dfe-4680-842f-05faa19cef08,3b6ebdfb-dce3-48fd-aac3-fb2c283be8d4
2019-11-10 13:47:43,8857bd5c-1696-4d8e-8017-b2e46ecb3559,1,a5dbe1fd-0dfe-4680-842f-05faa19cef08,9cbb7170-b929-4500-996d-4c19f6f41c67
2019-11-10 13:47:44,6d2aa4ca-85f4-4b1b-b695-763078fe5c77,1,a5dbe1fd-0dfe-4680-842f-05faa19cef08,7b888feb-a5c2-4761-b50e-0f0844ec1770
2019-11-10 13:47:47,a769a961-b791-4554-9300-ffedd9d0ec2c,1,a5dbe1fd-0dfe-4680-842f-05faa19cef08,212d4e8f-f2e3-4654-b55e-af55bf46b80a
2019-11-10 13:47:49,9d6b8b46-2207-4487-8361-d5d80c85b6a0,1,a5dbe1fd-0dfe-4680-842f-05faa19cef08,212d4e8f-f2e3-4654-b55e-af55bf46b80a
2019-11-10 13:52:06,4f485b71-41ae-4c49-86fa-b560eeccc14b,1,a5dbe1fd-0dfe-4680-842f-05faa19cef08,9e6fb8c1-ff15-40cb-a57c-676ed13cc735
2019-11-10 13:05:01,8d22a0b7-fef3-46af-87b4-84092fbd292d,1,064ba3dd-093b-470e-9702-5cc2f6954bec,0135650c-cb02-42a1-9d14-8fb9ef8e33a5
2019-11-10 13:05:01,7cd10f0f-96d5-4155-9fa3-9593c05fd48f,1,064ba3dd-093b-470e-9702-5cc2f6954bec,064ba3dd-093b-470e-9702-5cc2f6954bec
2019-11-10 13:05:01,8ca580d7-981a-46f4-bd7d-660e23170ff7,1,064ba3dd-093b-470e-9702-5cc2f6954bec,e60c233c-bdac-40e4-99fb-f5dcd3a0c81a
2019-11-10 13:16:40,d1d920f6-a8f9-49e5-90c6-72b73fe2677f,1,064ba3dd-093b-470e-9702-5cc2f6954bec,34bce75e-a02c-4a0b-9130-e43f3836a02a
2019-11-10 13:42:52,a831610f-a9f8-4760-bc19-b48eae75eed9,1,064ba3dd-093b-470e-9702-5cc2f6954bec,832d4e47-e417-4bd9-bed7-1ab4e4f29077
2019-11-10 13:42:56,b8d0ce3b-8524-48a8-95ff-7606ca36ab27,1,064ba3dd-093b-470e-9702-5cc2f6954bec,b108b4a2-d341-4bb9-9d5f-1f18b7671885
2019-11-10 13:43:14,7cd10f0f-96d5-4155-9fa3-9593c05fd48f,1,064ba3dd-093b-470e-9702-5cc2f6954bec,34bce75e-a02c-4a0b-9130-e43f3836a02a
2019-11-10 13:44:59,25ad1455-f4c9-4de7-a494-03f4ce43de3b,1,064ba3dd-093b-470e-9702-5cc2f6954bec,3b6ebdfb-dce3-48fd-aac3-fb2c283be8d4
2019-11-10 13:49:20,d1d920f6-a8f9-49e5-90c6-72b73fe2677f,1,064ba3dd-093b-470e-9702-5cc2f6954bec,9e6fb8c1-ff15-40cb-a57c-676ed13cc735
2019-11-10 14:00:03,e2230e5e-7157-4462-a0aa-d141156522f2,1,064ba3dd-093b-470e-9702-5cc2f6954bec,5b3f9692-80cc-474c-82e2-43f1a1671272
2019-11-10 14:09:46,a831610f-a9f8-4760-bc19-b48eae75eed9,1,064ba3dd-093b-470e-9702-5cc2f6954bec,0135650c-cb02-42a1-9d14-8fb9ef8e33a5
2019-11-10 14:13:05,4f485b71-41ae-4c49-86fa-b560eeccc14b,1,064ba3dd-093b-470e-9702-5cc2f6954bec,9e6fb8c1-ff15-40cb-a57c-676ed13cc735
2019-11-10 13:10:17,bd8be065-1e2b-42ed-a710-0858a2be4fc6,1,5b3f9692-80cc-474c-82e2-43f1a1671272,9cbb7170-b929-4500-996d-4c19f6f41c67
2019-11-10 13:10:17,622887e2-07cd-4993-97f7-da7e3bcfca3b,1,5b3f9692-80cc-474c-82e2-43f1a1671272,5b3f9692-80cc-474c-82e2-43f1a1671272
2019-11-10 13:10:17,4fb481d4-a331-4ac3-b686-ed51d04be5fe,1,5b3f9692-80cc-474c-82e2-43f1a1671272,9cbb7170-b929-4500-996d-4c19f6f41c67
2019-11-10 13:12:59,4f485b71-41ae-4c49-86fa-b560eeccc14b,1,5b3f9692-80cc-474c-82e2-43f1a1671272,9e6fb8c1-ff15-40cb-a57c-676ed13cc735
2019-11-10 13:18:09,8857bd5c-1696-4d8e-8017-b2e46ecb3559,1,5b3f9692-80cc-474c-82e2-43f1a1671272,832d4e47-e417-4bd9-bed7-1ab4e4f29077
2019-11-10 13:25:01,88fd3919-cd8b-47b3-8184-06d2173dee96,1,5b3f9692-80cc-474c-82e2-43f1a1671272,0b423b97-aeb9-4eb9-8b1a-1a090010bc0c
2019-11-10 13:27:13,54d94dab-99cb-491c-b720-98080232e38f,1,5b3f9692-80cc-474c-82e2-43f1a1671272,0135650c-cb02-42a1-9d14-8fb9ef8e33a5
2019-11-10 13:35:00,4f485b71-41ae-4c49-86fa-b560eeccc14b,1,5b3f9692-80cc-474c-82e2-43f1a1671272,212d4e8f-f2e3-4654-b55e-af55bf46b80a
2019-11-10 13:35:01,4fb481d4-a331-4ac3-b686-ed51d04be5fe,1,5b3f9692-80cc-474c-82e2-43f1a1671272,b108b4a2-d341-4bb9-9d5f-1f18b7671885
2019-11-10 13:59:35,ab48f624-1bf7-45d3-bf09-9d9d36b76df6,1,5b3f9692-80cc-474c-82e2-43f1a1671272,b108b4a2-d341-4bb9-9d5f-1f18b7671885
2019-11-10 14:01:14,88fd3919-cd8b-47b3-8184-06d2173dee96,1,5b3f9692-80cc-474c-82e2-43f1a1671272,3b6ebdfb-dce3-48fd-aac3-fb2c283be8d4
2019-11-10 14:11:17,2cef399f-9743-4cd4-a8be-4fe9ccb6bb7c,1,5b3f9692-80cc-474c-82e2-43f1a1671272,9e6fb8c1-ff15-40cb-a57c-676ed13cc735
2019-11-10 14:13:57,e2230e5e-7157-4462-a0aa-d141156522f2,1,5b3f9692-80cc-474c-82e2-43f1a1671272,832d4e47-e417-4bd9-bed7-1ab4e4f29077
2019-11-10 14:18:35,5b32652c-1e97-46ae-925b-fc2c4c1bdcc4,1,5b3f9692-80cc-474c-82e2-43f1a1671272,064ba3dd-093b-470e-9702-5cc2f6954bec
2019-11-10 14:18:42,8cf331db-8d32-463a-b1cf-8b13c9250811,1,5b3f9692-80cc-474c-82e2-43f1a1671272,0135650c-cb02-42a1-9d14-8fb9ef8e33a5
2019-11-10 14:23:36,d9049ede-58db-4247-b19f-7b12d146d0d8,1,5b3f9692-80cc-474c-82e2-43f1a1671272,9e6fb8c1-ff15-40cb-a57c-676ed13cc735
2019-11-10 12:58:44,23590a92-55b4-472d-b2d6-7426865b9a9e,1,7b888feb-a5c2-4761-b50e-0f0844ec1770,7b888feb-a5c2-4761-b50e-0f0844ec1770
2019-11-10 12:58:44,8857bd5c-1696-4d8e-8017-b2e46ecb3559,1,7b888feb-a5c2-4761-b50e-0f0844ec1770,5b3f9692-80cc-474c-82e2-43f1a1671272
2019-11-10 13:10:18,d8764638-a200-4952-9341-bfceecf8a057,1,7b888feb-a5c2-4761-b50e-0f0844ec1770,e60c233c-bdac-40e4-99fb-f5dcd3a0c81a
2019-11-10 13:11:22,36c1905e-e50e-40d9-839f-0a211ae00ed9,1,7b888feb-a5c2-4761-b50e-0f0844ec1770,34bce75e-a02c-4a0b-9130-e43f3836a02a
2019-11-10 13:13:15,3a991d1e-1267-4b55-8600-948a93a26250,1,7b888feb-a5c2-4761-b50e-0f0844ec1770,e60c233c-bdac-40e4-99fb-f5dcd3a0c81a
2019-11-10 13:17:02,25ad1455-f4c9-4de7-a494-03f4ce43de3b,1,7b888feb-a5c2-4761-b50e-0f0844ec1770,3b6ebdfb-dce3-48fd-aac3-fb2c283be8d4
2019-11-10 13:17:02,b8d0ce3b-8524-48a8-95ff-7606ca36ab27,1,7b888feb-a5c2-4761-b50e-0f0844ec1770,0135650c-cb02-42a1-9d14-8fb9ef8e33a5
2019-11-10 13:17:08,343f1241-b470-4d86-995c-542cfd044b4a,1,7b888feb-a5c2-4761-b50e-0f0844ec1770,34bce75e-a02c-4a0b-9130-e43f3836a02a
2019-11-10 13:18:26,8784c1b6-4952-41b1-9d14-6d5763f4fb6a,1,7b888feb-a5c2-4761-b50e-0f0844ec1770,0adf23f0-694f-4359-b871-66785fba13ac
2019-11-10 13:22:12,f5e2a087-6ec1-4e85-be70-4d69f5616448,1,7b888feb-a5c2-4761-b50e-0f0844ec1770,660b016c-91d2-4c7c-853c-8cf4a01b32f8
2019-11-10 13:41:46,8d22a0b7-fef3-46af-87b4-84092fbd292d,1,7b888feb-a5c2-4761-b50e-0f0844ec1770,0135650c-cb02-42a1-9d14-8fb9ef8e33a5
2019-11-10 14:09:18,36c1905e-e50e-40d9-839f-0a211ae00ed9,1,7b888feb-a5c2-4761-b50e-0f0844ec1770,0adf23f0-694f-4359-b871-66785fba13ac
2019-11-10 14:11:05,a0f7f13b-ffb5-40d1-9fde-ecdef36592cb,1,7b888feb-a5c2-4761-b50e-0f0844ec1770,9e6fb8c1-ff15-40cb-a57c-676ed13cc735
2019-11-10 12:53:30,9fb0a096-c9f9-43d6-b6b8-c404a83a002e,1,34bce75e-a02c-4a0b-9130-e43f3836a02a,b108b4a2-d341-4bb9-9d5f-1f18b7671885
2019-11-10 12:53:30,5b32652c-1e97-46ae-925b-fc2c4c1bdcc4,1,34bce75e-a02c-4a0b-9130-e43f3836a02a,e60c233c-bdac-40e4-99fb-f5dcd3a0c81a
2019-11-10 13:10:16,b8d0ce3b-8524-48a8-95ff-7606ca36ab27,1,34bce75e-a02c-4a0b-9130-e43f3836a02a,7b888feb-a5c2-4761-b50e-0f0844ec1770
2019-11-10 13:10:16,36c1905e-e50e-40d9-839f-0a211ae00ed9,1,34bce75e-a02c-4a0b-9130-e43f3836a02a,7b888feb-a5c2-4761-b50e-0f0844ec1770
2019-11-10 13:17:43,d1d920f6-a8f9-49e5-90c6-72b73fe2677f,1,34bce75e-a02c-4a0b-9130-e43f3836a02a,212d4e8f-f2e3-4654-b55e-af55bf46b80a
2019-11-10 13:18:34,54d94dab-99cb-491c-b720-98080232e38f,1,34bce75e-a02c-4a0b-9130-e43f3836a02a,5b3f9692-80cc-474c-82e2-43f1a1671272
2019-11-10 13:18:35,2d85984b-e032-4c4a-ae07-bc191ea53202,1,34bce75e-a02c-4a0b-9130-e43f3836a02a,660b016c-91d2-4c7c-853c-8cf4a01b32f8
2019-11-10 13:18:40,36c1905e-e50e-40d9-839f-0a211ae00ed9,1,34bce75e-a02c-4a0b-9130-e43f3836a02a,e60c233c-bdac-40e4-99fb-f5dcd3a0c81a
2019-11-10 13:23:41,50d39e71-03e2-4300-82e4-8393317e5bf2,1,34bce75e-a02c-4a0b-9130-e43f3836a02a,b108b4a2-d341-4bb9-9d5f-1f18b7671885
2019-11-10 13:23:42,d8764638-a200-4952-9341-bfceecf8a057,1,34bce75e-a02c-4a0b-9130-e43f3836a02a,660b016c-91d2-4c7c-853c-8cf4a01b32f8
2019-11-10 13:23:55,343f1241-b470-4d86-995c-542cfd044b4a,1,34bce75e-a02c-4a0b-9130-e43f3836a02a,9e6fb8c1-ff15-40cb-a57c-676ed13cc735
2019-11-10 13:31:28,3b26f3a5-c39e-46f2-bbce-0c80e54b34cd,1,34bce75e-a02c-4a0b-9130-e43f3836a02a,660b016c-91d2-4c7c-853c-8cf4a01b32f8
2019-11-10 13:32:39,3b26f3a5-c39e-46f2-bbce-0c80e54b34cd,1,34bce75e-a02c-4a0b-9130-e43f3836a02a,212d4e8f-f2e3-4654-b55e-af55bf46b80a
2019-11-10 13:34:01,d1d920f6-a8f9-49e5-90c6-72b73fe2677f,1,34bce75e-a02c-4a0b-9130-e43f3836a02a,9cbb7170-b929-4500-996d-4c19f6f41c67
2019-11-10 13:53:51,3b26f3a5-c39e-46f2-bbce-0c80e54b34cd,1,34bce75e-a02c-4a0b-9130-e43f3836a02a,660b016c-91d2-4c7c-853c-8cf4a01b32f8
2019-11-10 13:55:19,2cef399f-9743-4cd4-a8be-4fe9ccb6bb7c,1,34bce75e-a02c-4a0b-9130-e43f3836a02a,9cbb7170-b929-4500-996d-4c19f6f41c67
2019-11-10 13:59:40,36c1905e-e50e-40d9-839f-0a211ae00ed9,1,34bce75e-a02c-4a0b-9130-e43f3836a02a,212d4e8f-f2e3-4654-b55e-af55bf46b80a
2019-11-10 13:59:40,8ca580d7-981a-46f4-bd7d-660e23170ff7,1,34bce75e-a02c-4a0b-9130-e43f3836a02a,212d4e8f-f2e3-4654-b55e-af55bf46b80a
2019-11-10 14:02:45,36c1905e-e50e-40d9-839f-0a211ae00ed9,1,34bce75e-a02c-4a0b-9130-e43f3836a02a,7b888feb-a5c2-4761-b50e-0f0844ec1770
2019-11-10 14:19:27,3b26f3a5-c39e-46f2-bbce-0c80e54b34cd,1,34bce75e-a02c-4a0b-9130-e43f3836a02a,212d4e8f-f2e3-4654-b55e-af55bf46b80a
2019-11-10 14:22:49,3b26f3a5-c39e-46f2-bbce-0c80e54b34cd,1,34bce75e-a02c-4a0b-9130-e43f3836a02a,212d4e8f-f2e3-4654-b55e-af55bf46b80a
2019-11-10 12:53:30,cc5fd19f-ca5b-4345-b277-d24b29eef5d3,1,3b6ebdfb-dce3-48fd-aac3-fb2c283be8d4,a5dbe1fd-0dfe-4680-842f-05faa19cef08
2019-11-10 12:53:30,a831610f-a9f8-4760-bc19-b48eae75eed9,1,3b6ebdfb-dce3-48fd-aac3-fb2c283be8d4,832d4e47-e417-4bd9-bed7-1ab4e4f29077
2019-11-10 13:10:16,2cef399f-9743-4cd4-a8be-4fe9ccb6bb7c,1,3b6ebdfb-dce3-48fd-aac3-fb2c283be8d4,9cbb7170-b929-4500-996d-4c19f6f41c67
2019-11-10 13:12:18,3e737326-c6ea-426a-aef1-afe62f724302,1,3b6ebdfb-dce3-48fd-aac3-fb2c283be8d4,b108b4a2-d341-4bb9-9d5f-1f18b7671885
2019-11-10 13:19:31,32bb6b79-efa9-4285-af91-2339ddcadd04,1,3b6ebdfb-dce3-48fd-aac3-fb2c283be8d4,832d4e47-e417-4bd9-bed7-1ab4e4f29077
2019-11-10 13:22:59,25ad1455-f4c9-4de7-a494-03f4ce43de3b,1,3b6ebdfb-dce3-48fd-aac3-fb2c283be8d4,064ba3dd-093b-470e-9702-5cc2f6954bec
2019-11-10 13:35:21,32bb6b79-efa9-4285-af91-2339ddcadd04,1,3b6ebdfb-dce3-48fd-aac3-fb2c283be8d4,b108b4a2-d341-4bb9-9d5f-1f18b7671885
2019-11-10 13:38:41,28f26320-b209-476e-9c5d-4ce134f319e7,1,3b6ebdfb-dce3-48fd-aac3-fb2c283be8d4,e60c233c-bdac-40e4-99fb-f5dcd3a0c81a
2019-11-10 13:38:46,32bb6b79-efa9-4285-af91-2339ddcadd04,1,3b6ebdfb-dce3-48fd-aac3-fb2c283be8d4,9e6fb8c1-ff15-40cb-a57c-676ed13cc735
2019-11-10 14:06:04,42c0e47e-caad-4dd6-a75f-d399fa74abb0,1,3b6ebdfb-dce3-48fd-aac3-fb2c283be8d4,9e6fb8c1-ff15-40cb-a57c-676ed13cc735
2019-11-10 14:06:32,0f7ba48f-4f44-45e4-b81b-754491c8d103,1,3b6ebdfb-dce3-48fd-aac3-fb2c283be8d4,7b888feb-a5c2-4761-b50e-0f0844ec1770
2019-11-10 14:06:36,5b32652c-1e97-46ae-925b-fc2c4c1bdcc4,1,3b6ebdfb-dce3-48fd-aac3-fb2c283be8d4,5b3f9692-80cc-474c-82e2-43f1a1671272
2019-11-10 14:06:41,a831610f-a9f8-4760-bc19-b48eae75eed9,1,3b6ebdfb-dce3-48fd-aac3-fb2c283be8d4,064ba3dd-093b-470e-9702-5cc2f6954bec
2019-11-10 14:08:21,a1dc9e15-1cee-4d13-b65c-567141d9c0f8,1,3b6ebdfb-dce3-48fd-aac3-fb2c283be8d4,b108b4a2-d341-4bb9-9d5f-1f18b7671885
2019-11-10 14:19:11,25ad1455-f4c9-4de7-a494-03f4ce43de3b,1,3b6ebdfb-dce3-48fd-aac3-fb2c283be8d4,7b888feb-a5c2-4761-b50e-0f0844ec1770
2019-11-10 14:21:21,88fd3919-cd8b-47b3-8184-06d2173dee96,1,3b6ebdfb-dce3-48fd-aac3-fb2c283be8d4,5b3f9692-80cc-474c-82e2-43f1a1671272
2019-11-10 12:38:50,25ad1455-f4c9-4de7-a494-03f4ce43de3b,1,0adf23f0-694f-4359-b871-66785fba13ac,7b888feb-a5c2-4761-b50e-0f0844ec1770
2019-11-10 13:10:16,ab48f624-1bf7-45d3-bf09-9d9d36b76df6,1,0adf23f0-694f-4359-b871-66785fba13ac,0135650c-cb02-42a1-9d14-8fb9ef8e33a5
2019-11-10 13:10:16,4f485b71-41ae-4c49-86fa-b560eeccc14b,1,0adf23f0-694f-4359-b871-66785fba13ac,5b3f9692-80cc-474c-82e2-43f1a1671272
2019-11-10 13:13:52,3b26f3a5-c39e-46f2-bbce-0c80e54b34cd,1,0adf23f0-694f-4359-b871-66785fba13ac,660b016c-91d2-4c7c-853c-8cf4a01b32f8
2019-11-10 13:20:15,e92c278d-aadd-44d3-9716-7f51992c95d2,1,0adf23f0-694f-4359-b871-66785fba13ac,0135650c-cb02-42a1-9d14-8fb9ef8e33a5
2019-11-10 13:21:58,8784c1b6-4952-41b1-9d14-6d5763f4fb6a,1,0adf23f0-694f-4359-b871-66785fba13ac,832d4e47-e417-4bd9-bed7-1ab4e4f29077
2019-11-10 13:25:05,6771c1e3-e64c-4d19-a706-17f8a421161a,1,0adf23f0-694f-4359-b871-66785fba13ac,0b423b97-aeb9-4eb9-8b1a-1a090010bc0c
2019-11-10 13:47:43,13dda0d3-7238-455d-b2eb-69f26b055c12,1,0adf23f0-694f-4359-b871-66785fba13ac,9cbb7170-b929-4500-996d-4c19f6f41c67
2019-11-10 13:52:03,36c1905e-e50e-40d9-839f-0a211ae00ed9,1,0adf23f0-694f-4359-b871-66785fba13ac,9e6fb8c1-ff15-40cb-a57c-676ed13cc735
2019-11-10 13:52:05,029aa2da-1bb8-40bf-a0f8-83ea8e9ef665,1,0adf23f0-694f-4359-b871-66785fba13ac,660b016c-91d2-4c7c-853c-8cf4a01b32f8
2019-11-10 13:59:28,36c1905e-e50e-40d9-839f-0a211ae00ed9,1,0adf23f0-694f-4359-b871-66785fba13ac,34bce75e-a02c-4a0b-9130-e43f3836a02a
2019-11-10 14:13:56,36c1905e-e50e-40d9-839f-0a211ae00ed9,1,0adf23f0-694f-4359-b871-66785fba13ac,9e6fb8c1-ff15-40cb-a57c-676ed13cc735
2019-11-10 13:00:50,d9049ede-58db-4247-b19f-7b12d146d0d8,1,e60c233c-bdac-40e4-99fb-f5dcd3a0c81a,0b423b97-aeb9-4eb9-8b1a-1a090010bc0c
2019-11-10 13:00:50,029aa2da-1bb8-40bf-a0f8-83ea8e9ef665,1,e60c233c-bdac-40e4-99fb-f5dcd3a0c81a,0adf23f0-694f-4359-b871-66785fba13ac
2019-11-10 13:00:50,3b26f3a5-c39e-46f2-bbce-0c80e54b34cd,1,e60c233c-bdac-40e4-99fb-f5dcd3a0c81a,0adf23f0-694f-4359-b871-66785fba13ac
2019-11-10 13:12:21,d8764638-a200-4952-9341-bfceecf8a057,1,e60c233c-bdac-40e4-99fb-f5dcd3a0c81a,34bce75e-a02c-4a0b-9130-e43f3836a02a
2019-11-10 13:19:45,3a991d1e-1267-4b55-8600-948a93a26250,1,e60c233c-bdac-40e4-99fb-f5dcd3a0c81a,212d4e8f-f2e3-4654-b55e-af55bf46b80a
2019-11-10 13:20:27,5b32652c-1e97-46ae-925b-fc2c4c1bdcc4,1,e60c233c-bdac-40e4-99fb-f5dcd3a0c81a,3b6ebdfb-dce3-48fd-aac3-fb2c283be8d4
2019-11-10 13:21:43,36c1905e-e50e-40d9-839f-0a211ae00ed9,1,e60c233c-bdac-40e4-99fb-f5dcd3a0c81a,0adf23f0-694f-4359-b871-66785fba13ac
2019-11-10 13:21:46,4fb481d4-a331-4ac3-b686-ed51d04be5fe,1,e60c233c-bdac-40e4-99fb-f5dcd3a0c81a,212d4e8f-f2e3-4654-b55e-af55bf46b80a
2019-11-10 13:21:46,8ca580d7-981a-46f4-bd7d-660e23170ff7,1,e60c233c-bdac-40e4-99fb-f5dcd3a0c81a,9cbb7170-b929-4500-996d-4c19f6f41c67
2019-11-10 13:56:23,8ca580d7-981a-46f4-bd7d-660e23170ff7,1,e60c233c-bdac-40e4-99fb-f5dcd3a0c81a,9e6fb8c1-ff15-40cb-a57c-676ed13cc735
2019-11-10 13:59:18,4fb481d4-a331-4ac3-b686-ed51d04be5fe,1,e60c233c-bdac-40e4-99fb-f5dcd3a0c81a,b108b4a2-d341-4bb9-9d5f-1f18b7671885
2019-11-10 13:10:16,32bb6b79-efa9-4285-af91-2339ddcadd04,1,9cbb7170-b929-4500-996d-4c19f6f41c67,3b6ebdfb-dce3-48fd-aac3-fb2c283be8d4
2019-11-10 13:10:16,a1dc9e15-1cee-4d13-b65c-567141d9c0f8,1,9cbb7170-b929-4500-996d-4c19f6f41c67,a5dbe1fd-0dfe-4680-842f-05faa19cef08
2019-11-10 13:10:16,a769a961-b791-4554-9300-ffedd9d0ec2c,1,9cbb7170-b929-4500-996d-4c19f6f41c67,0135650c-cb02-42a1-9d14-8fb9ef8e33a5
2019-11-10 13:21:31,4fb481d4-a331-4ac3-b686-ed51d04be5fe,1,9cbb7170-b929-4500-996d-4c19f6f41c67,e60c233c-bdac-40e4-99fb-f5dcd3a0c81a
2019-11-10 13:21:36,0f7ba48f-4f44-45e4-b81b-754491c8d103,1,9cbb7170-b929-4500-996d-4c19f6f41c67,3b6ebdfb-dce3-48fd-aac3-fb2c283be8d4
2019-11-10 13:23:32,d1d920f6-a8f9-49e5-90c6-72b73fe2677f,1,9cbb7170-b929-4500-996d-4c19f6f41c67,34bce75e-a02c-4a0b-9130-e43f3836a02a
2019-11-10 13:29:34,8ca580d7-981a-46f4-bd7d-660e23170ff7,1,9cbb7170-b929-4500-996d-4c19f6f41c67,b108b4a2-d341-4bb9-9d5f-1f18b7671885
2019-11-10 13:37:03,3a991d1e-1267-4b55-8600-948a93a26250,1,9cbb7170-b929-4500-996d-4c19f6f41c67,212d4e8f-f2e3-4654-b55e-af55bf46b80a
2019-11-10 13:37:13,2cef399f-9743-4cd4-a8be-4fe9ccb6bb7c,1,9cbb7170-b929-4500-996d-4c19f6f41c67,9e6fb8c1-ff15-40cb-a57c-676ed13cc735
2019-11-10 13:39:18,a0f7f13b-ffb5-40d1-9fde-ecdef36592cb,1,9cbb7170-b929-4500-996d-4c19f6f41c67,9e6fb8c1-ff15-40cb-a57c-676ed13cc735
2019-11-10 13:44:57,d1d920f6-a8f9-49e5-90c6-72b73fe2677f,1,9cbb7170-b929-4500-996d-4c19f6f41c67,064ba3dd-093b-470e-9702-5cc2f6954bec
2019-11-10 13:46:46,8cf331db-8d32-463a-b1cf-8b13c9250811,1,9cbb7170-b929-4500-996d-4c19f6f41c67,5b3f9692-80cc-474c-82e2-43f1a1671272
2019-11-10 13:50:49,8ca580d7-981a-46f4-bd7d-660e23170ff7,1,9cbb7170-b929-4500-996d-4c19f6f41c67,e60c233c-bdac-40e4-99fb-f5dcd3a0c81a
2019-11-10 14:06:36,2cef399f-9743-4cd4-a8be-4fe9ccb6bb7c,1,9cbb7170-b929-4500-996d-4c19f6f41c67,5b3f9692-80cc-474c-82e2-43f1a1671272
2019-11-10 13:10:18,6d2aa4ca-85f4-4b1b-b695-763078fe5c77,1,0135650c-cb02-42a1-9d14-8fb9ef8e33a5,a5dbe1fd-0dfe-4680-842f-05faa19cef08
2019-11-10 13:10:18,2b55eba1-6625-47a8-b9e8-a590e816be69,1,0135650c-cb02-42a1-9d14-8fb9ef8e33a5,9e6fb8c1-ff15-40cb-a57c-676ed13cc735
2019-11-10 13:10:18,a0f7f13b-ffb5-40d1-9fde-ecdef36592cb,1,0135650c-cb02-42a1-9d14-8fb9ef8e33a5,9cbb7170-b929-4500-996d-4c19f6f41c67
2019-11-10 13:14:28,a769a961-b791-4554-9300-ffedd9d0ec2c,1,0135650c-cb02-42a1-9d14-8fb9ef8e33a5,a5dbe1fd-0dfe-4680-842f-05faa19cef08
2019-11-10 13:25:12,ab48f624-1bf7-45d3-bf09-9d9d36b76df6,1,0135650c-cb02-42a1-9d14-8fb9ef8e33a5,b108b4a2-d341-4bb9-9d5f-1f18b7671885
2019-11-10 13:30:07,d8764638-a200-4952-9341-bfceecf8a057,1,0135650c-cb02-42a1-9d14-8fb9ef8e33a5,b108b4a2-d341-4bb9-9d5f-1f18b7671885
2019-11-10 13:33:47,f5e2a087-6ec1-4e85-be70-4d69f5616448,1,0135650c-cb02-42a1-9d14-8fb9ef8e33a5,660b016c-91d2-4c7c-853c-8cf4a01b32f8
2019-11-10 13:34:55,54d94dab-99cb-491c-b720-98080232e38f,1,0135650c-cb02-42a1-9d14-8fb9ef8e33a5,660b016c-91d2-4c7c-853c-8cf4a01b32f8
2019-11-10 13:36:07,8d22a0b7-fef3-46af-87b4-84092fbd292d,1,0135650c-cb02-42a1-9d14-8fb9ef8e33a5,7b888feb-a5c2-4761-b50e-0f0844ec1770
2019-11-10 13:36:11,b8d0ce3b-8524-48a8-95ff-7606ca36ab27,1,0135650c-cb02-42a1-9d14-8fb9ef8e33a5,064ba3dd-093b-470e-9702-5cc2f6954bec
2019-11-10 13:39:14,e92c278d-aadd-44d3-9716-7f51992c95d2,1,0135650c-cb02-42a1-9d14-8fb9ef8e33a5,0adf23f0-694f-4359-b871-66785fba13ac
2019-11-10 13:39:15,f5e2a087-6ec1-4e85-be70-4d69f5616448,1,0135650c-cb02-42a1-9d14-8fb9ef8e33a5,212d4e8f-f2e3-4654-b55e-af55bf46b80a
2019-11-10 13:44:35,8d22a0b7-fef3-46af-87b4-84092fbd292d,1,0135650c-cb02-42a1-9d14-8fb9ef8e33a5,212d4e8f-f2e3-4654-b55e-af55bf46b80a
2019-11-10 13:44:37,f5e2a087-6ec1-4e85-be70-4d69f5616448,1,0135650c-cb02-42a1-9d14-8fb9ef8e33a5,660b016c-91d2-4c7c-853c-8cf4a01b32f8
2019-11-10 13:51:41,ab48f624-1bf7-45d3-bf09-9d9d36b76df6,1,0135650c-cb02-42a1-9d14-8fb9ef8e33a5,b108b4a2-d341-4bb9-9d5f-1f18b7671885
2019-11-10 14:03:03,ab48f624-1bf7-45d3-bf09-9d9d36b76df6,1,0135650c-cb02-42a1-9d14-8fb9ef8e33a5,b108b4a2-d341-4bb9-9d5f-1f18b7671885
2019-11-10 14:03:14,1ac6644b-26d0-4cb7-a84b-3ce7e964221e,1,0135650c-cb02-42a1-9d14-8fb9ef8e33a5,9e6fb8c1-ff15-40cb-a57c-676ed13cc735
2019-11-10 14:15:24,f5e2a087-6ec1-4e85-be70-4d69f5616448,1,0135650c-cb02-42a1-9d14-8fb9ef8e33a5,660b016c-91d2-4c7c-853c-8cf4a01b32f8
2019-11-10 13:05:01,e92c278d-aadd-44d3-9716-7f51992c95d2,1,660b016c-91d2-4c7c-853c-8cf4a01b32f8,0adf23f0-694f-4359-b871-66785fba13ac
2019-11-10 13:05:01,8cf331db-8d32-463a-b1cf-8b13c9250811,1,660b016c-91d2-4c7c-853c-8cf4a01b32f8,9cbb7170-b929-4500-996d-4c19f6f41c67
2019-11-10 13:10:16,0f7ba48f-4f44-45e4-b81b-754491c8d103,1,660b016c-91d2-4c7c-853c-8cf4a01b32f8,9cbb7170-b929-4500-996d-4c19f6f41c67
2019-11-10 13:28:06,d8764638-a200-4952-9341-bfceecf8a057,1,660b016c-91d2-4c7c-853c-8cf4a01b32f8,0135650c-cb02-42a1-9d14-8fb9ef8e33a5
2019-11-10 13:28:06,f5e2a087-6ec1-4e85-be70-4d69f5616448,1,660b016c-91d2-4c7c-853c-8cf4a01b32f8,212d4e8f-f2e3-4654-b55e-af55bf46b80a
2019-11-10 13:28:07,3b26f3a5-c39e-46f2-bbce-0c80e54b34cd,1,660b016c-91d2-4c7c-853c-8cf4a01b32f8,34bce75e-a02c-4a0b-9130-e43f3836a02a
2019-11-10 13:32:14,3b26f3a5-c39e-46f2-bbce-0c80e54b34cd,1,660b016c-91d2-4c7c-853c-8cf4a01b32f8,34bce75e-a02c-4a0b-9130-e43f3836a02a
2019-11-10 13:35:36,2d85984b-e032-4c4a-ae07-bc191ea53202,1,660b016c-91d2-4c7c-853c-8cf4a01b32f8,34bce75e-a02c-4a0b-9130-e43f3836a02a
2019-11-10 13:37:44,f5e2a087-6ec1-4e85-be70-4d69f5616448,1,660b016c-91d2-4c7c-853c-8cf4a01b32f8,0135650c-cb02-42a1-9d14-8fb9ef8e33a5
2019-11-10 13:47:05,3ae14fa8-adf0-4844-86dc-656ab36c5632,1,660b016c-91d2-4c7c-853c-8cf4a01b32f8,832d4e47-e417-4bd9-bed7-1ab4e4f29077
2019-11-10 13:53:59,f5e2a087-6ec1-4e85-be70-4d69f5616448,1,660b016c-91d2-4c7c-853c-8cf4a01b32f8,0135650c-cb02-42a1-9d14-8fb9ef8e33a5
2019-11-10 13:54:05,88fd3919-cd8b-47b3-8184-06d2173dee96,1,660b016c-91d2-4c7c-853c-8cf4a01b32f8,5b3f9692-80cc-474c-82e2-43f1a1671272
2019-11-10 14:15:50,f5e2a087-6ec1-4e85-be70-4d69f5616448,1,660b016c-91d2-4c7c-853c-8cf4a01b32f8,212d4e8f-f2e3-4654-b55e-af55bf46b80a
2019-11-10 14:18:46,3b26f3a5-c39e-46f2-bbce-0c80e54b34cd,1,660b016c-91d2-4c7c-853c-8cf4a01b32f8,34bce75e-a02c-4a0b-9130-e43f3836a02a
2019-11-10 14:23:54,f5e2a087-6ec1-4e85-be70-4d69f5616448,1,660b016c-91d2-4c7c-853c-8cf4a01b32f8,a5dbe1fd-0dfe-4680-842f-05faa19cef08
2019-11-10 13:10:20,50d39e71-03e2-4300-82e4-8393317e5bf2,1,b108b4a2-d341-4bb9-9d5f-1f18b7671885,34bce75e-a02c-4a0b-9130-e43f3836a02a
2019-11-10 13:10:20,54d94dab-99cb-491c-b720-98080232e38f,1,b108b4a2-d341-4bb9-9d5f-1f18b7671885,34bce75e-a02c-4a0b-9130-e43f3836a02a
2019-11-10 13:10:20,3ae14fa8-adf0-4844-86dc-656ab36c5632,1,b108b4a2-d341-4bb9-9d5f-1f18b7671885,832d4e47-e417-4bd9-bed7-1ab4e4f29077
2019-11-10 13:12:56,88fd3919-cd8b-47b3-8184-06d2173dee96,1,b108b4a2-d341-4bb9-9d5f-1f18b7671885,5b3f9692-80cc-474c-82e2-43f1a1671272
2019-11-10 13:31:37,28f26320-b209-476e-9c5d-4ce134f319e7,1,b108b4a2-d341-4bb9-9d5f-1f18b7671885,3b6ebdfb-dce3-48fd-aac3-fb2c283be8d4
2019-11-10 13:35:32,4fb481d4-a331-4ac3-b686-ed51d04be5fe,1,b108b4a2-d341-4bb9-9d5f-1f18b7671885,212d4e8f-f2e3-4654-b55e-af55bf46b80a
2019-11-10 13:35:35,ab48f624-1bf7-45d3-bf09-9d9d36b76df6,1,b108b4a2-d341-4bb9-9d5f-1f18b7671885,0135650c-cb02-42a1-9d14-8fb9ef8e33a5
2019-11-10 13:35:37,32bb6b79-efa9-4285-af91-2339ddcadd04,1,b108b4a2-d341-4bb9-9d5f-1f18b7671885,212d4e8f-f2e3-4654-b55e-af55bf46b80a
2019-11-10 13:43:10,8ca580d7-981a-46f4-bd7d-660e23170ff7,1,b108b4a2-d341-4bb9-9d5f-1f18b7671885,9cbb7170-b929-4500-996d-4c19f6f41c67
2019-11-10 13:51:56,ab48f624-1bf7-45d3-bf09-9d9d36b76df6,1,b108b4a2-d341-4bb9-9d5f-1f18b7671885,212d4e8f-f2e3-4654-b55e-af55bf46b80a
2019-11-10 13:53:35,b8d0ce3b-8524-48a8-95ff-7606ca36ab27,1,b108b4a2-d341-4bb9-9d5f-1f18b7671885,7b888feb-a5c2-4761-b50e-0f0844ec1770
2019-11-10 14:02:10,d8764638-a200-4952-9341-bfceecf8a057,1,b108b4a2-d341-4bb9-9d5f-1f18b7671885,e60c233c-bdac-40e4-99fb-f5dcd3a0c81a
2019-11-10 14:02:12,ab48f624-1bf7-45d3-bf09-9d9d36b76df6,1,b108b4a2-d341-4bb9-9d5f-1f18b7671885,0135650c-cb02-42a1-9d14-8fb9ef8e33a5
2019-11-10 14:04:55,9fb0a096-c9f9-43d6-b6b8-c404a83a002e,1,b108b4a2-d341-4bb9-9d5f-1f18b7671885,a5dbe1fd-0dfe-4680-842f-05faa19cef08
2019-11-10 14:16:10,3e737326-c6ea-426a-aef1-afe62f724302,1,b108b4a2-d341-4bb9-9d5f-1f18b7671885,9e6fb8c1-ff15-40cb-a57c-676ed13cc735
2019-11-10 14:16:11,a1dc9e15-1cee-4d13-b65c-567141d9c0f8,1,b108b4a2-d341-4bb9-9d5f-1f18b7671885,a5dbe1fd-0dfe-4680-842f-05faa19cef08
2019-11-10 14:18:58,2b55eba1-6625-47a8-b9e8-a590e816be69,1,b108b4a2-d341-4bb9-9d5f-1f18b7671885,3b6ebdfb-dce3-48fd-aac3-fb2c283be8d4
2019-11-10 12:18:51,9fb0a096-c9f9-43d6-b6b8-c404a83a002e,1,212d4e8f-f2e3-4654-b55e-af55bf46b80a,34bce75e-a02c-4a0b-9130-e43f3836a02a
2019-11-10 12:18:51,44db152a-f58f-4955-b885-a75b5fe3657d,1,212d4e8f-f2e3-4654-b55e-af55bf46b80a,b6fe12c5-9bf9-480a-a5ad-a99e4b24dce8
2019-11-10 12:18:51,9e10a1c6-7ced-4066-b4c4-687153351526,1,212d4e8f-f2e3-4654-b55e-af55bf46b80a,34bce75e-a02c-4a0b-9130-e43f3836a02a
2019-11-10 12:19:54,54d94dab-99cb-491c-b720-98080232e38f,1,212d4e8f-f2e3-4654-b55e-af55bf46b80a,b108b4a2-d341-4bb9-9d5f-1f18b7671885
2019-11-10 12:19:54,13b5a749-ca8c-4288-9918-449e51722c59,1,212d4e8f-f2e3-4654-b55e-af55bf46b80a,26990ec5-2d7d-4668-8d82-82722033a5ac
2019-11-10 12:19:54,b343d2ee-f70d-4344-9021-b249d33b324c,1,212d4e8f-f2e3-4654-b55e-af55bf46b80a,b108b4a2-d341-4bb9-9d5f-1f18b7671885
2019-11-10 12:20:57,6f2b751e-c5db-433d-ae48-f2f388dcf835,1,212d4e8f-f2e3-4654-b55e-af55bf46b80a,3b6ebdfb-dce3-48fd-aac3-fb2c283be8d4
2019-11-10 12:20:57,a831610f-a9f8-4760-bc19-b48eae75eed9,1,212d4e8f-f2e3-4654-b55e-af55bf46b80a,3b6ebdfb-dce3-48fd-aac3-fb2c283be8d4
2019-11-10 12:20:57,221547d5-d2eb-455e-8f11-7bc8b8a87091,1,212d4e8f-f2e3-4654-b55e-af55bf46b80a,58b43805-2c5a-4f5b-9af5-1b52eb73707d
2019-11-10 12:22:00,aa9f2a91-c841-4026-b45f-d4c46cedb911,1,212d4e8f-f2e3-4654-b55e-af55bf46b80a,832d4e47-e417-4bd9-bed7-1ab4e4f29077
2019-11-10 12:22:00,1bf84cd4-7cf3-45c5-b687-44bc4e58fcc1,1,212d4e8f-f2e3-4654-b55e-af55bf46b80a,832d4e47-e417-4bd9-bed7-1ab4e4f29077
2019-11-10 12:22:00,8784c1b6-4952-41b1-9d14-6d5763f4fb6a,1,212d4e8f-f2e3-4654-b55e-af55bf46b80a,832d4e47-e417-4bd9-bed7-1ab4e4f29077
2019-11-10 12:23:03,efe73760-a927-4b6d-832f-027873f481a1,1,212d4e8f-f2e3-4654-b55e-af55bf46b80a,0b423b97-aeb9-4eb9-8b1a-1a090010bc0c
2019-11-10 12:23:03,559b192a-b7bd-4938-b182-57052525e875,1,212d4e8f-f2e3-4654-b55e-af55bf46b80a,eded97bb-e241-4e6d-ae1b-5471d5839e05
2019-11-10 12:23:03,3a991d1e-1267-4b55-8600-948a93a26250,1,212d4e8f-f2e3-4654-b55e-af55bf46b80a,0b423b97-aeb9-4eb9-8b1a-1a090010bc0c
2019-11-10 12:24:05,68f63d0c-1d39-4bd2-bc64-43add47f70a1,1,212d4e8f-f2e3-4654-b55e-af55bf46b80a,0adf23f0-694f-4359-b871-66785fba13ac
2019-11-10 12:24:05,ddfb302c-005e-4b14-bd1a-290b38086125,1,212d4e8f-f2e3-4654-b55e-af55bf46b80a,8fb5d4c5-2c11-48cd-8e51-bb5765bb8111
2019-11-10 12:24:05,25ad1455-f4c9-4de7-a494-03f4ce43de3b,1,212d4e8f-f2e3-4654-b55e-af55bf46b80a,0adf23f0-694f-4359-b871-66785fba13ac
2019-11-10 12:25:08,23f9fa1b-7b1f-434d-b9f7-2ca4ed6a045c,1,212d4e8f-f2e3-4654-b55e-af55bf46b80a,e60c233c-bdac-40e4-99fb-f5dcd3a0c81a
2019-11-10 12:25:08,d9049ede-58db-4247-b19f-7b12d146d0d8,1,212d4e8f-f2e3-4654-b55e-af55bf46b80a,e60c233c-bdac-40e4-99fb-f5dcd3a0c81a
2019-11-10 12:25:08,b4c86c65-d9e5-4d5a-8d76-a7b2eda6e960,1,212d4e8f-f2e3-4654-b55e-af55bf46b80a,892b52c6-9e79-428a-8275-a59740f927a1
2019-11-10 12:26:11,a9670147-f40c-4a9e-8a82-485c55a1771d,1,212d4e8f-f2e3-4654-b55e-af55bf46b80a,14e83bec-db4e-4640-85d5-b445a5e50b9c
2019-11-10 12:26:11,c79fda04-0a9c-4846-8a69-7ab8656dc948,1,212d4e8f-f2e3-4654-b55e-af55bf46b80a,9e6fb8c1-ff15-40cb-a57c-676ed13cc735
2019-11-10 12:26:11,e2230e5e-7157-4462-a0aa-d141156522f2,1,212d4e8f-f2e3-4654-b55e-af55bf46b80a,9e6fb8c1-ff15-40cb-a57c-676ed13cc735
2019-11-10 12:27:14,5b661a81-de2f-47f8-a588-089879dfb514,1,212d4e8f-f2e3-4654-b55e-af55bf46b80a,9e472621-f36f-408b-9697-8675ed247277
2019-11-10 12:27:14,d1d920f6-a8f9-49e5-90c6-72b73fe2677f,1,212d4e8f-f2e3-4654-b55e-af55bf46b80a,a5dbe1fd-0dfe-4680-842f-05faa19cef08
2019-11-10 12:27:14,7fffc9a0-076a-4cf1-b15e-d84b7aba267d,1,212d4e8f-f2e3-4654-b55e-af55bf46b80a,a5dbe1fd-0dfe-4680-842f-05faa19cef08
2019-11-10 12:28:16,d76dc1a3-312d-49f5-a30b-071106259485,1,212d4e8f-f2e3-4654-b55e-af55bf46b80a,5b3f9692-80cc-474c-82e2-43f1a1671272
2019-11-10 12:28:16,c97baf0c-d2c8-4232-81d8-206af375c243,1,212d4e8f-f2e3-4654-b55e-af55bf46b80a,e0b0fd7a-df1f-4e7c-a567-ff2b3ea89452
2019-11-10 12:28:16,4fb481d4-a331-4ac3-b686-ed51d04be5fe,1,212d4e8f-f2e3-4654-b55e-af55bf46b80a,5b3f9692-80cc-474c-82e2-43f1a1671272
2019-11-10 12:29:19,721d73e0-e979-4b8e-9690-717cb37d5a0c,1,212d4e8f-f2e3-4654-b55e-af55bf46b80a,660b016c-91d2-4c7c-853c-8cf4a01b32f8
2019-11-10 12:29:19,e92c278d-aadd-44d3-9716-7f51992c95d2,1,212d4e8f-f2e3-4654-b55e-af55bf46b80a,660b016c-91d2-4c7c-853c-8cf4a01b32f8
2019-11-10 12:29:19,59791a0e-dc4e-427d-9017-3689dd3cb7ce,1,212d4e8f-f2e3-4654-b55e-af55bf46b80a,1ab02509-908c-408c-babc-931d42e8d255
2019-11-10 12:30:22,c4f4c83a-9750-4791-8e92-871b9e64a3bc,1,212d4e8f-f2e3-4654-b55e-af55bf46b80a,064ba3dd-093b-470e-9702-5cc2f6954bec
2019-11-10 12:30:22,7cd10f0f-96d5-4155-9fa3-9593c05fd48f,1,212d4e8f-f2e3-4654-b55e-af55bf46b80a,064ba3dd-093b-470e-9702-5cc2f6954bec
2019-11-10 12:30:22,95b6f7a9-1d08-4c90-a2cd-4655b0daac9a,1,212d4e8f-f2e3-4654-b55e-af55bf46b80a,e1b6688e-8f20-4877-98fe-93d6ff841a99
2019-11-10 12:31:25,214edd24-1e72-4b4a-9d55-aa531b60b0ff,1,212d4e8f-f2e3-4654-b55e-af55bf46b80a,7b888feb-a5c2-4761-b50e-0f0844ec1770
2019-11-10 12:31:25,23590a92-55b4-472d-b2d6-7426865b9a9e,1,212d4e8f-f2e3-4654-b55e-af55bf46b80a,7b888feb-a5c2-4761-b50e-0f0844ec1770
2019-11-10 12:31:25,76b22769-cf06-4ea1-b583-af1be82fa842,1,212d4e8f-f2e3-4654-b55e-af55bf46b80a,a31bcf14-8783-42b7-89e2-95c0ad074f59
2019-11-10 12:32:28,2a751d23-df4b-49b1-b8fa-fd8b229c645e,1,212d4e8f-f2e3-4654-b55e-af55bf46b80a,7d85cb75-6abc-4c8b-8c12-64a49e7bd6b3
2019-11-10 12:32:28,a769a961-b791-4554-9300-ffedd9d0ec2c,1,212d4e8f-f2e3-4654-b55e-af55bf46b80a,9cbb7170-b929-4500-996d-4c19f6f41c67
2019-11-10 12:32:28,7fd591de-c906-40d4-9a14-0d2d46cc091d,1,212d4e8f-f2e3-4654-b55e-af55bf46b80a,9cbb7170-b929-4500-996d-4c19f6f41c67
2019-11-10 12:33:30,b00eb3a7-2f4a-44e9-9671-7c7e7d1db1e1,1,212d4e8f-f2e3-4654-b55e-af55bf46b80a,0135650c-cb02-42a1-9d14-8fb9ef8e33a5
2019-11-10 12:33:30,7bbb2645-42ea-4054-b826-2c5937c8e67e,1,212d4e8f-f2e3-4654-b55e-af55bf46b80a,3f993c59-cd62-4810-bc4c-cf083e076e6a
2019-11-10 12:33:30,2b55eba1-6625-47a8-b9e8-a590e816be69,1,212d4e8f-f2e3-4654-b55e-af55bf46b80a,0135650c-cb02-42a1-9d14-8fb9ef8e33a5
2019-11-10 12:34:33,6ae95401-51dd-4cc0-92b7-6fd4172de619,1,212d4e8f-f2e3-4654-b55e-af55bf46b80a,e8c7c7c9-1864-4d15-9743-6351f12c2411
2019-11-10 12:34:33,e240cbfa-6067-4dd8-8881-3e748606bdf7,1,212d4e8f-f2e3-4654-b55e-af55bf46b80a,34bce75e-a02c-4a0b-9130-e43f3836a02a
2019-11-10 12:34:33,5b32652c-1e97-46ae-925b-fc2c4c1bdcc4,1,212d4e8f-f2e3-4654-b55e-af55bf46b80a,34bce75e-a02c-4a0b-9130-e43f3836a02a
2019-11-10 12:35:36,397fb44a-ac77-4f3f-964d-f1008f492613,1,212d4e8f-f2e3-4654-b55e-af55bf46b80a,b108b4a2-d341-4bb9-9d5f-1f18b7671885
2019-11-10 12:35:36,3ae14fa8-adf0-4844-86dc-656ab36c5632,1,212d4e8f-f2e3-4654-b55e-af55bf46b80a,b108b4a2-d341-4bb9-9d5f-1f18b7671885
2019-11-10 12:35:36,3adb2fe9-8b10-4b05-80cb-d96c222874c8,1,212d4e8f-f2e3-4654-b55e-af55bf46b80a,d689fe28-3634-4700-86ba-d4ab27b3cf08
2019-11-10 12:36:39,cc5fd19f-ca5b-4345-b277-d24b29eef5d3,1,212d4e8f-f2e3-4654-b55e-af55bf46b80a,3b6ebdfb-dce3-48fd-aac3-fb2c283be8d4
2019-11-10 12:36:39,67a5b621-f28d-42e7-9c85-d0a573284ea7,1,212d4e8f-f2e3-4654-b55e-af55bf46b80a,3b6ebdfb-dce3-48fd-aac3-fb2c283be8d4
2019-11-10 12:36:39,2bd478ae-ed62-42ac-a6e5-d7b87abbccc8,1,212d4e8f-f2e3-4654-b55e-af55bf46b80a,0ebc39d4-af59-4075-bf2f-afd13eccdffe
2019-11-10 12:37:42,1688e1e8-edab-4ff0-b335-b13845945240,1,212d4e8f-f2e3-4654-b55e-af55bf46b80a,1c73f658-78f5-49f8-932f-8edad81fca59
2019-11-10 12:37:42,42c0e47e-caad-4dd6-a75f-d399fa74abb0,1,212d4e8f-f2e3-4654-b55e-af55bf46b80a,832d4e47-e417-4bd9-bed7-1ab4e4f29077
2019-11-10 12:37:42,042764c4-2213-47eb-9f84-83b210430ace,1,212d4e8f-f2e3-4654-b55e-af55bf46b80a,832d4e47-e417-4bd9-bed7-1ab4e4f29077
2019-11-10 12:38:45,343f1241-b470-4d86-995c-542cfd044b4a,1,212d4e8f-f2e3-4654-b55e-af55bf46b80a,0b423b97-aeb9-4eb9-8b1a-1a090010bc0c
2019-11-10 12:38:45,98e7a461-5035-4e80-8eaa-936a0413ad0f,1,212d4e8f-f2e3-4654-b55e-af55bf46b80a,0b423b97-aeb9-4eb9-8b1a-1a090010bc0c
2019-11-10 12:38:45,0984261f-3cae-4554-aac7-1587156f50d3,1,212d4e8f-f2e3-4654-b55e-af55bf46b80a,afdc3103-cbe3-4cf7-8415-e7d81dfa12a7
2019-11-10 12:39:47,4f485b71-41ae-4c49-86fa-b560eeccc14b,1,212d4e8f-f2e3-4654-b55e-af55bf46b80a,0adf23f0-694f-4359-b871-66785fba13ac
2019-11-10 12:39:47,718bd496-357a-4e48-942a-ab1074037c8a,1,212d4e8f-f2e3-4654-b55e-af55bf46b80a,20610e78-8552-4e70-8ab0-5074b0aad6c1
2019-11-10 12:39:48,e4fea531-40a9-40fa-b849-6dfca67c8b14,1,212d4e8f-f2e3-4654-b55e-af55bf46b80a,0adf23f0-694f-4359-b871-66785fba13ac
2019-11-10 12:40:50,95884ea6-6f43-4c2d-99bc-0ce973d8f069,1,212d4e8f-f2e3-4654-b55e-af55bf46b80a,e60c233c-bdac-40e4-99fb-f5dcd3a0c81a
2019-11-10 12:40:50,6532b2de-24a9-4620-8cd1-e0788a81dd5e,1,212d4e8f-f2e3-4654-b55e-af55bf46b80a,e60c233c-bdac-40e4-99fb-f5dcd3a0c81a
2019-11-10 12:40:50,3b26f3a5-c39e-46f2-bbce-0c80e54b34cd,1,212d4e8f-f2e3-4654-b55e-af55bf46b80a,e60c233c-bdac-40e4-99fb-f5dcd3a0c81a
2019-11-10 12:41:53,8d57e605-99c0-4037-a31d-e6ef8f9923b4,1,212d4e8f-f2e3-4654-b55e-af55bf46b80a,bfa471e0-0963-45b3-bae7-96e65e460482
2019-11-10 12:41:53,f5e2a087-6ec1-4e85-be70-4d69f5616448,1,212d4e8f-f2e3-4654-b55e-af55bf46b80a,9e6fb8c1-ff15-40cb-a57c-676ed13cc735
2019-11-10 12:41:53,57154c42-a412-4496-ab67-e311b1154060,1,212d4e8f-f2e3-4654-b55e-af55bf46b80a,9e6fb8c1-ff15-40cb-a57c-676ed13cc735
2019-11-10 12:42:56,13dda0d3-7238-455d-b2eb-69f26b055c12,1,212d4e8f-f2e3-4654-b55e-af55bf46b80a,a5dbe1fd-0dfe-4680-842f-05faa19cef08
2019-11-10 12:42:56,c33be8c8-45ec-4e1d-b7f2-23faaedea4a8,1,212d4e8f-f2e3-4654-b55e-af55bf46b80a,bc8c9f1b-f265-48d1-abda-cc54ef4a1e64
2019-11-10 12:42:56,a694171d-6497-4cc4-8da9-b5fa43ea09bd,1,212d4e8f-f2e3-4654-b55e-af55bf46b80a,a5dbe1fd-0dfe-4680-842f-05faa19cef08
2019-11-10 12:43:59,b1bbd4b8-7308-4dc9-9a34-9a6bcee15979,1,212d4e8f-f2e3-4654-b55e-af55bf46b80a,5b3f9692-80cc-474c-82e2-43f1a1671272
2019-11-10 12:43:59,e5fe8754-0d63-4e93-a653-59a07997c11f,1,212d4e8f-f2e3-4654-b55e-af55bf46b80a,2822937d-03b1-4247-9e91-021ac1fd8cbe
2019-11-10 12:43:59,bd8be065-1e2b-42ed-a710-0858a2be4fc6,1,212d4e8f-f2e3-4654-b55e-af55bf46b80a,5b3f9692-80cc-474c-82e2-43f1a1671272
2019-11-10 12:45:02,b53dce40-fdb5-4817-8120-c01eb98cdd9e,1,212d4e8f-f2e3-4654-b55e-af55bf46b80a,8253d204-9e11-4ff7-8c12-84d33bbc8175
2019-11-10 12:45:02,0f7ba48f-4f44-45e4-b81b-754491c8d103,1,212d4e8f-f2e3-4654-b55e-af55bf46b80a,660b016c-91d2-4c7c-853c-8cf4a01b32f8
2019-11-10 12:45:02,fb5a65de-a93d-4874-8a18-c19e87abaf0a,1,212d4e8f-f2e3-4654-b55e-af55bf46b80a,660b016c-91d2-4c7c-853c-8cf4a01b32f8
2019-11-10 12:46:05,b0c54198-59af-46a6-b829-8718c34ed3e1,1,212d4e8f-f2e3-4654-b55e-af55bf46b80a,efaab897-7bbe-4d7f-ab84-5081c6c6e4f0
2019-11-10 12:46:05,8d22a0b7-fef3-46af-87b4-84092fbd292d,1,212d4e8f-f2e3-4654-b55e-af55bf46b80a,064ba3dd-093b-470e-9702-5cc2f6954bec
2019-11-10 12:46:05,bdc7c010-1826-4b67-9dfc-0809e7cdee2e,1,212d4e8f-f2e3-4654-b55e-af55bf46b80a,064ba3dd-093b-470e-9702-5cc2f6954bec
2019-11-10 12:47:08,d31d47d3-4707-478b-9c9b-871b0dc4f331,1,212d4e8f-f2e3-4654-b55e-af55bf46b80a,4ea796f9-4ff8-401b-8674-84191b5dfc0f
2019-11-10 12:47:08,c00644e5-d0dd-4248-9abc-5d20a2d5389a,1,212d4e8f-f2e3-4654-b55e-af55bf46b80a,7b888feb-a5c2-4761-b50e-0f0844ec1770
2019-11-10 12:47:08,8857bd5c-1696-4d8e-8017-b2e46ecb3559,1,212d4e8f-f2e3-4654-b55e-af55bf46b80a,7b888feb-a5c2-4761-b50e-0f0844ec1770
2019-11-10 12:48:10,0a3bff20-64e2-4ddf-a96d-a51a77849685,1,212d4e8f-f2e3-4654-b55e-af55bf46b80a,9cbb7170-b929-4500-996d-4c19f6f41c67
2019-11-10 12:48:10,b1567716-e734-4faf-a700-03681fed7b72,1,212d4e8f-f2e3-4654-b55e-af55bf46b80a,b935726b-08a6-4e76-a5e4-e9adc91d5a50
2019-11-10 12:48:10,a1dc9e15-1cee-4d13-b65c-567141d9c0f8,1,212d4e8f-f2e3-4654-b55e-af55bf46b80a,9cbb7170-b929-4500-996d-4c19f6f41c67
2019-11-10 12:49:13,6d2aa4ca-85f4-4b1b-b695-763078fe5c77,1,212d4e8f-f2e3-4654-b55e-af55bf46b80a,0135650c-cb02-42a1-9d14-8fb9ef8e33a5
2019-11-10 12:49:13,44da1df9-4258-4f37-8e99-015ca5a4489b,1,212d4e8f-f2e3-4654-b55e-af55bf46b80a,fb6b35fd-8004-4dd1-9be7-b1727f7a039e
2019-11-10 12:49:13,66df4cd4-1457-42bb-950f-597995b61f93,1,212d4e8f-f2e3-4654-b55e-af55bf46b80a,0135650c-cb02-42a1-9d14-8fb9ef8e33a5
2019-11-10 12:50:16,9f5c8987-98da-4dc5-a717-0394ce0ce0dd,1,212d4e8f-f2e3-4654-b55e-af55bf46b80a,34bce75e-a02c-4a0b-9130-e43f3836a02a
2019-11-10 12:50:16,0cd5d034-ad77-40ca-bbf5-edac0bd9ffb9,1,212d4e8f-f2e3-4654-b55e-af55bf46b80a,ffa6f436-fd07-4966-83d6-42d192b24088
2019-11-10 12:50:16,b8d0ce3b-8524-48a8-95ff-7606ca36ab27,1,212d4e8f-f2e3-4654-b55e-af55bf46b80a,34bce75e-a02c-4a0b-9130-e43f3836a02a
2019-11-10 12:51:19,302bd566-7b6f-45ea-b0e5-fc005b0a2b7c,1,212d4e8f-f2e3-4654-b55e-af55bf46b80a,b108b4a2-d341-4bb9-9d5f-1f18b7671885
2019-11-10 12:51:19,50d39e71-03e2-4300-82e4-8393317e5bf2,1,212d4e8f-f2e3-4654-b55e-af55bf46b80a,b108b4a2-d341-4bb9-9d5f-1f18b7671885
2019-11-10 12:51:19,dd53116b-3f03-43ea-b33a-80844875b88a,1,212d4e8f-f2e3-4654-b55e-af55bf46b80a,886208e3-4f57-4bdb-b330-819e430412f6
2019-11-10 12:52:22,19c8af24-fded-4274-8ef9-1bf9711ccb3f,1,212d4e8f-f2e3-4654-b55e-af55bf46b80a,06a70b33-8ba6-4fd2-ad4d-ae5c6eb5e891
2019-11-10 12:52:22,2cef399f-9743-4cd4-a8be-4fe9ccb6bb7c,1,212d4e8f-f2e3-4654-b55e-af55bf46b80a,3b6ebdfb-dce3-48fd-aac3-fb2c283be8d4
2019-11-10 12:52:22,3241d976-9cea-4496-913b-c108be9fd585,1,212d4e8f-f2e3-4654-b55e-af55bf46b80a,3b6ebdfb-dce3-48fd-aac3-fb2c283be8d4
2019-11-10 12:53:25,5b4f0da6-da64-45b5-bb50-ad4f986a644a,1,212d4e8f-f2e3-4654-b55e-af55bf46b80a,27a776da-e41b-433d-a138-71689c73e809
2019-11-10 12:53:25,bea8cfbb-a238-4bb2-9931-4ba7dfe5f76a,1,212d4e8f-f2e3-4654-b55e-af55bf46b80a,832d4e47-e417-4bd9-bed7-1ab4e4f29077
2019-11-10 12:53:25,bab8bd59-7bfd-4cf8-a066-bc3f23af82cf,1,212d4e8f-f2e3-4654-b55e-af55bf46b80a,832d4e47-e417-4bd9-bed7-1ab4e4f29077
2019-11-10 12:54:27,c47802dc-88b5-430c-a158-f07dbcdd5b2c,1,212d4e8f-f2e3-4654-b55e-af55bf46b80a,0b423b97-aeb9-4eb9-8b1a-1a090010bc0c
2019-11-10 12:54:27,2d85984b-e032-4c4a-ae07-bc191ea53202,1,212d4e8f-f2e3-4654-b55e-af55bf46b80a,0b423b97-aeb9-4eb9-8b1a-1a090010bc0c
2019-11-10 12:54:27,489cc815-1042-444c-b464-ee31c2663b90,1,212d4e8f-f2e3-4654-b55e-af55bf46b80a,a24db2a7-422c-4836-a5e5-183e0623ff7e
2019-11-10 12:55:30,ab48f624-1bf7-45d3-bf09-9d9d36b76df6,1,212d4e8f-f2e3-4654-b55e-af55bf46b80a,0adf23f0-694f-4359-b871-66785fba13ac
2019-11-10 12:55:30,3c58c88c-38d7-4524-ab75-b6ffeedb7f75,1,212d4e8f-f2e3-4654-b55e-af55bf46b80a,0adf23f0-694f-4359-b871-66785fba13ac
2019-11-10 12:55:30,938ceb72-5e6c-44e1-9a99-ddcb3dbf8adb,1,212d4e8f-f2e3-4654-b55e-af55bf46b80a,688e8ccb-dcc4-4921-afe9-b370f518b60e
2019-11-10 12:56:33,1778440a-f5c9-4e43-8683-cc913db44dab,1,212d4e8f-f2e3-4654-b55e-af55bf46b80a,e60c233c-bdac-40e4-99fb-f5dcd3a0c81a
2019-11-10 12:56:33,029aa2da-1bb8-40bf-a0f8-83ea8e9ef665,1,212d4e8f-f2e3-4654-b55e-af55bf46b80a,e60c233c-bdac-40e4-99fb-f5dcd3a0c81a
2019-11-10 12:56:33,cf06e46a-3ec1-4e71-92ca-d7f366b3df25,1,212d4e8f-f2e3-4654-b55e-af55bf46b80a,37a9a965-1c4c-47e1-99b9-e3dda3d20586
2019-11-10 12:57:36,1ac6644b-26d0-4cb7-a84b-3ce7e964221e,1,212d4e8f-f2e3-4654-b55e-af55bf46b80a,9e6fb8c1-ff15-40cb-a57c-676ed13cc735
2019-11-10 12:57:36,934277be-4401-46ed-b64a-ec1c73e7d6d4,1,212d4e8f-f2e3-4654-b55e-af55bf46b80a,fc4f654d-43c7-44ad-b887-5c42485114a7
2019-11-10 12:57:36,cccfa93c-7f45-4985-ad6a-fc23704b60b7,1,212d4e8f-f2e3-4654-b55e-af55bf46b80a,9e6fb8c1-ff15-40cb-a57c-676ed13cc735
2019-11-10 12:58:39,9d6b8b46-2207-4487-8361-d5d80c85b6a0,1,212d4e8f-f2e3-4654-b55e-af55bf46b80a,a5dbe1fd-0dfe-4680-842f-05faa19cef08
2019-11-10 12:58:39,a858a23b-93c0-49f5-b5b3-715c6eddb3b8,1,212d4e8f-f2e3-4654-b55e-af55bf46b80a,c30da44e-699e-4845-8138-4cb954a9609f
2019-11-10 12:58:39,dfcfbacb-fae2-42ae-877f-ae7d9b56b4c6,1,212d4e8f-f2e3-4654-b55e-af55bf46b80a,a5dbe1fd-0dfe-4680-842f-05faa19cef08
2019-11-10 12:59:42,622887e2-07cd-4993-97f7-da7e3bcfca3b,1,212d4e8f-f2e3-4654-b55e-af55bf46b80a,5b3f9692-80cc-474c-82e2-43f1a1671272
2019-11-10 12:59:42,bae0b930-4c4a-40c7-aab6-787f3aa7862d,1,212d4e8f-f2e3-4654-b55e-af55bf46b80a,5b3f9692-80cc-474c-82e2-43f1a1671272
2019-11-10 12:59:42,3e8a89a0-f888-4b03-bc12-92500ca1d18d,1,212d4e8f-f2e3-4654-b55e-af55bf46b80a,5b3f9692-80cc-474c-82e2-43f1a1671272
2019-11-10 13:00:44,8cf331db-8d32-463a-b1cf-8b13c9250811,1,212d4e8f-f2e3-4654-b55e-af55bf46b80a,660b016c-91d2-4c7c-853c-8cf4a01b32f8
2019-11-10 13:00:44,57cbe415-6129-4090-a12f-ecd178a3d32d,1,212d4e8f-f2e3-4654-b55e-af55bf46b80a,1ad27e26-b852-4669-a0ee-4a2093757aa5
2019-11-10 13:00:44,b8e072f9-914c-4311-8c67-1377dad316dc,1,212d4e8f-f2e3-4654-b55e-af55bf46b80a,660b016c-91d2-4c7c-853c-8cf4a01b32f8
2019-11-10 13:01:47,43f91c1f-1d98-4f9b-a178-82e3b9198eaa,1,212d4e8f-f2e3-4654-b55e-af55bf46b80a,ddfa1955-af16-4abc-a3ad-071e230dddc5
2019-11-10 13:01:47,bd64fc96-b9f2-48c2-8a9c-a96e9b7ff350,1,212d4e8f-f2e3-4654-b55e-af55bf46b80a,064ba3dd-093b-470e-9702-5cc2f6954bec
2019-11-10 13:01:47,8ca580d7-981a-46f4-bd7d-660e23170ff7,1,212d4e8f-f2e3-4654-b55e-af55bf46b80a,064ba3dd-093b-470e-9702-5cc2f6954bec
2019-11-10 13:02:50,03804af5-a9d0-4261-8d2e-6e82039da262,1,212d4e8f-f2e3-4654-b55e-af55bf46b80a,7b888feb-a5c2-4761-b50e-0f0844ec1770
2019-11-10 13:02:50,d8764638-a200-4952-9341-bfceecf8a057,1,212d4e8f-f2e3-4654-b55e-af55bf46b80a,7b888feb-a5c2-4761-b50e-0f0844ec1770
2019-11-10 13:02:50,dece6eef-79ba-4a3a-a24d-cb3390c838eb,1,212d4e8f-f2e3-4654-b55e-af55bf46b80a,6b59785a-5038-468c-9c92-f03c94dfac7a
2019-11-10 13:03:52,f99e9410-c910-48ac-b504-a705f7595625,1,212d4e8f-f2e3-4654-b55e-af55bf46b80a,9cbb7170-b929-4500-996d-4c19f6f41c67
2019-11-10 13:03:52,32bb6b79-efa9-4285-af91-2339ddcadd04,1,212d4e8f-f2e3-4654-b55e-af55bf46b80a,9cbb7170-b929-4500-996d-4c19f6f41c67
2019-11-10 13:03:52,3565a091-f9d8-4404-a51c-c83642515f70,1,212d4e8f-f2e3-4654-b55e-af55bf46b80a,bb328e1f-4351-4a92-b572-78bcf24f2e13
2019-11-10 13:04:56,e5e8aaf0-201f-4b7e-9f26-82594da3302e,1,212d4e8f-f2e3-4654-b55e-af55bf46b80a,0135650c-cb02-42a1-9d14-8fb9ef8e33a5
2019-11-10 13:04:56,a0f7f13b-ffb5-40d1-9fde-ecdef36592cb,1,212d4e8f-f2e3-4654-b55e-af55bf46b80a,0135650c-cb02-42a1-9d14-8fb9ef8e33a5
2019-11-10 13:04:56,df6cbe1b-b640-4fac-a8ec-5709abc25da7,1,212d4e8f-f2e3-4654-b55e-af55bf46b80a,bdcf5341-1f45-4d69-8c00-54875c7f6f98
2019-11-10 13:05:58,2cfb02e6-df3e-40e8-bc58-e66e1193f60e,1,212d4e8f-f2e3-4654-b55e-af55bf46b80a,359b51c0-a000-4c40-96d6-5aff713f28c4
2019-11-10 13:05:58,5ad5e261-48e8-444a-8b2c-804f47eef832,1,212d4e8f-f2e3-4654-b55e-af55bf46b80a,34bce75e-a02c-4a0b-9130-e43f3836a02a
2019-11-10 13:05:58,36c1905e-e50e-40d9-839f-0a211ae00ed9,1,212d4e8f-f2e3-4654-b55e-af55bf46b80a,34bce75e-a02c-4a0b-9130-e43f3836a02a
2019-11-10 13:07:01,88fd3919-cd8b-47b3-8184-06d2173dee96,1,212d4e8f-f2e3-4654-b55e-af55bf46b80a,b108b4a2-d341-4bb9-9d5f-1f18b7671885
2019-11-10 13:07:01,a875d2b1-c5a1-49be-af18-98cc9e7c91e2,1,212d4e8f-f2e3-4654-b55e-af55bf46b80a,4bf21adc-4e15-40b0-b44c-4b978c56304f
2019-11-10 13:07:01,0e24a433-ae87-404d-8051-7230222772d4,1,212d4e8f-f2e3-4654-b55e-af55bf46b80a,b108b4a2-d341-4bb9-9d5f-1f18b7671885
2019-11-10 13:08:04,7dbba03f-4ff2-4dba-b06b-a04f7bb55dd9,1,212d4e8f-f2e3-4654-b55e-af55bf46b80a,3b6ebdfb-dce3-48fd-aac3-fb2c283be8d4
2019-11-10 13:08:04,3e737326-c6ea-426a-aef1-afe62f724302,1,212d4e8f-f2e3-4654-b55e-af55bf46b80a,3b6ebdfb-dce3-48fd-aac3-fb2c283be8d4
2019-11-10 13:08:04,398a9d34-cc17-4535-91e4-8451017d2934,1,212d4e8f-f2e3-4654-b55e-af55bf46b80a,7b7e57a1-2fa2-41c3-8048-973428e4b047
2019-11-10 13:09:07,47398c70-19ed-4546-b4c4-fe75e1a52d16,1,212d4e8f-f2e3-4654-b55e-af55bf46b80a,436749cb-84e2-4190-aedc-bb8dd1286834
2019-11-10 13:09:07,6771c1e3-e64c-4d19-a706-17f8a421161a,1,212d4e8f-f2e3-4654-b55e-af55bf46b80a,832d4e47-e417-4bd9-bed7-1ab4e4f29077
2019-11-10 13:09:07,e91fb58f-3902-4209-bf5f-a48a9f6002c8,1,212d4e8f-f2e3-4654-b55e-af55bf46b80a,832d4e47-e417-4bd9-bed7-1ab4e4f29077
2019-11-10 13:10:10,28f26320-b209-476e-9c5d-4ce134f319e7,1,212d4e8f-f2e3-4654-b55e-af55bf46b80a,0b423b97-aeb9-4eb9-8b1a-1a090010bc0c
2019-11-10 13:10:10,861da00a-6fa1-4dde-ac1e-480d68c39880,1,212d4e8f-f2e3-4654-b55e-af55bf46b80a,2a045276-d173-4f41-a329-b46fecc5a338
2019-11-10 13:10:10,bc1b7040-3f11-4a85-9e2b-aa597639a3ce,1,212d4e8f-f2e3-4654-b55e-af55bf46b80a,0b423b97-aeb9-4eb9-8b1a-1a090010bc0c
2019-11-10 13:19:44,d1d920f6-a8f9-49e5-90c6-72b73fe2677f,1,212d4e8f-f2e3-4654-b55e-af55bf46b80a,9cbb7170-b929-4500-996d-4c19f6f41c67
2019-11-10 13:21:46,3a991d1e-1267-4b55-8600-948a93a26250,1,212d4e8f-f2e3-4654-b55e-af55bf46b80a,0b423b97-aeb9-4eb9-8b1a-1a090010bc0c
2019-11-10 13:25:13,4fb481d4-a331-4ac3-b686-ed51d04be5fe,1,212d4e8f-f2e3-4654-b55e-af55bf46b80a,5b3f9692-80cc-474c-82e2-43f1a1671272
2019-11-10 13:27:45,3a991d1e-1267-4b55-8600-948a93a26250,1,212d4e8f-f2e3-4654-b55e-af55bf46b80a,9cbb7170-b929-4500-996d-4c19f6f41c67
2019-11-10 13:30:07,f5e2a087-6ec1-4e85-be70-4d69f5616448,1,212d4e8f-f2e3-4654-b55e-af55bf46b80a,0135650c-cb02-42a1-9d14-8fb9ef8e33a5
2019-11-10 13:32:18,32bb6b79-efa9-4285-af91-2339ddcadd04,1,212d4e8f-f2e3-4654-b55e-af55bf46b80a,3b6ebdfb-dce3-48fd-aac3-fb2c283be8d4
2019-11-10 13:35:15,3b26f3a5-c39e-46f2-bbce-0c80e54b34cd,1,212d4e8f-f2e3-4654-b55e-af55bf46b80a,34bce75e-a02c-4a0b-9130-e43f3836a02a
2019-11-10 13:36:42,4fb481d4-a331-4ac3-b686-ed51d04be5fe,1,212d4e8f-f2e3-4654-b55e-af55bf46b80a,e60c233c-bdac-40e4-99fb-f5dcd3a0c81a
2019-11-10 13:36:44,32bb6b79-efa9-4285-af91-2339ddcadd04,1,212d4e8f-f2e3-4654-b55e-af55bf46b80a,3b6ebdfb-dce3-48fd-aac3-fb2c283be8d4
2019-11-10 13:37:41,4f485b71-41ae-4c49-86fa-b560eeccc14b,1,212d4e8f-f2e3-4654-b55e-af55bf46b80a,a5dbe1fd-0dfe-4680-842f-05faa19cef08
2019-11-10 13:39:39,3a991d1e-1267-4b55-8600-948a93a26250,1,212d4e8f-f2e3-4654-b55e-af55bf46b80a,e60c233c-bdac-40e4-99fb-f5dcd3a0c81a
2019-11-10 13:41:51,f5e2a087-6ec1-4e85-be70-4d69f5616448,1,212d4e8f-f2e3-4654-b55e-af55bf46b80a,0135650c-cb02-42a1-9d14-8fb9ef8e33a5
2019-11-10 13:47:14,8d22a0b7-fef3-46af-87b4-84092fbd292d,1,212d4e8f-f2e3-4654-b55e-af55bf46b80a,0135650c-cb02-42a1-9d14-8fb9ef8e33a5
2019-11-10 13:48:33,a769a961-b791-4554-9300-ffedd9d0ec2c,1,212d4e8f-f2e3-4654-b55e-af55bf46b80a,9e6fb8c1-ff15-40cb-a57c-676ed13cc735
2019-11-10 13:50:36,9d6b8b46-2207-4487-8361-d5d80c85b6a0,1,212d4e8f-f2e3-4654-b55e-af55bf46b80a,a5dbe1fd-0dfe-4680-842f-05faa19cef08
2019-11-10 13:52:57,ab48f624-1bf7-45d3-bf09-9d9d36b76df6,1,212d4e8f-f2e3-4654-b55e-af55bf46b80a,5b3f9692-80cc-474c-82e2-43f1a1671272
2019-11-10 13:53:20,36c1905e-e50e-40d9-839f-0a211ae00ed9,1,212d4e8f-f2e3-4654-b55e-af55bf46b80a,0adf23f0-694f-4359-b871-66785fba13ac
2019-11-10 13:53:22,4f485b71-41ae-4c49-86fa-b560eeccc14b,1,212d4e8f-f2e3-4654-b55e-af55bf46b80a,9e6fb8c1-ff15-40cb-a57c-676ed13cc735
2019-11-10 14:00:40,8ca580d7-981a-46f4-bd7d-660e23170ff7,1,212d4e8f-f2e3-4654-b55e-af55bf46b80a,9cbb7170-b929-4500-996d-4c19f6f41c67
2019-11-10 14:00:41,36c1905e-e50e-40d9-839f-0a211ae00ed9,1,212d4e8f-f2e3-4654-b55e-af55bf46b80a,34bce75e-a02c-4a0b-9130-e43f3836a02a
2019-11-10 14:18:26,f5e2a087-6ec1-4e85-be70-4d69f5616448,1,212d4e8f-f2e3-4654-b55e-af55bf46b80a,660b016c-91d2-4c7c-853c-8cf4a01b32f8
2019-11-10 14:22:09,3b26f3a5-c39e-46f2-bbce-0c80e54b34cd,1,212d4e8f-f2e3-4654-b55e-af55bf46b80a,34bce75e-a02c-4a0b-9130-e43f3836a02a
2019-11-10 12:51:24,343f1241-b470-4d86-995c-542cfd044b4a,1,0b423b97-aeb9-4eb9-8b1a-1a090010bc0c,7b888feb-a5c2-4761-b50e-0f0844ec1770
2019-11-10 12:51:24,3a991d1e-1267-4b55-8600-948a93a26250,1,0b423b97-aeb9-4eb9-8b1a-1a090010bc0c,7b888feb-a5c2-4761-b50e-0f0844ec1770
2019-11-10 13:10:18,2d85984b-e032-4c4a-ae07-bc191ea53202,1,0b423b97-aeb9-4eb9-8b1a-1a090010bc0c,34bce75e-a02c-4a0b-9130-e43f3836a02a
2019-11-10 13:13:15,28f26320-b209-476e-9c5d-4ce134f319e7,1,0b423b97-aeb9-4eb9-8b1a-1a090010bc0c,b108b4a2-d341-4bb9-9d5f-1f18b7671885
2019-11-10 13:25:16,d9049ede-58db-4247-b19f-7b12d146d0d8,1,0b423b97-aeb9-4eb9-8b1a-1a090010bc0c,a5dbe1fd-0dfe-4680-842f-05faa19cef08
2019-11-10 13:25:18,3a991d1e-1267-4b55-8600-948a93a26250,1,0b423b97-aeb9-4eb9-8b1a-1a090010bc0c,212d4e8f-f2e3-4654-b55e-af55bf46b80a
2019-11-10 13:38:50,8857bd5c-1696-4d8e-8017-b2e46ecb3559,1,0b423b97-aeb9-4eb9-8b1a-1a090010bc0c,a5dbe1fd-0dfe-4680-842f-05faa19cef08
2019-11-10 13:41:42,88fd3919-cd8b-47b3-8184-06d2173dee96,1,0b423b97-aeb9-4eb9-8b1a-1a090010bc0c,660b016c-91d2-4c7c-853c-8cf4a01b32f8
2019-11-10 13:10:19,42c0e47e-caad-4dd6-a75f-d399fa74abb0,1,832d4e47-e417-4bd9-bed7-1ab4e4f29077,3b6ebdfb-dce3-48fd-aac3-fb2c283be8d4
2019-11-10 13:10:19,8784c1b6-4952-41b1-9d14-6d5763f4fb6a,1,832d4e47-e417-4bd9-bed7-1ab4e4f29077,7b888feb-a5c2-4761-b50e-0f0844ec1770
2019-11-10 13:10:19,bea8cfbb-a238-4bb2-9931-4ba7dfe5f76a,1,832d4e47-e417-4bd9-bed7-1ab4e4f29077,064ba3dd-093b-470e-9702-5cc2f6954bec
2019-11-10 13:22:53,6771c1e3-e64c-4d19-a706-17f8a421161a,1,832d4e47-e417-4bd9-bed7-1ab4e4f29077,0adf23f0-694f-4359-b871-66785fba13ac
2019-11-10 13:28:46,8857bd5c-1696-4d8e-8017-b2e46ecb3559,1,832d4e47-e417-4bd9-bed7-1ab4e4f29077,0b423b97-aeb9-4eb9-8b1a-1a090010bc0c
2019-11-10 13:29:39,3ae14fa8-adf0-4844-86dc-656ab36c5632,1,832d4e47-e417-4bd9-bed7-1ab4e4f29077,660b016c-91d2-4c7c-853c-8cf4a01b32f8
2019-11-10 13:29:41,32bb6b79-efa9-4285-af91-2339ddcadd04,1,832d4e47-e417-4bd9-bed7-1ab4e4f29077,212d4e8f-f2e3-4654-b55e-af55bf46b80a
2019-11-10 13:29:43,a831610f-a9f8-4760-bc19-b48eae75eed9,1,832d4e47-e417-4bd9-bed7-1ab4e4f29077,064ba3dd-093b-470e-9702-5cc2f6954bec
2019-11-10 13:51:51,a831610f-a9f8-4760-bc19-b48eae75eed9,1,832d4e47-e417-4bd9-bed7-1ab4e4f29077,3b6ebdfb-dce3-48fd-aac3-fb2c283be8d4
2019-11-10 13:54:30,e2230e5e-7157-4462-a0aa-d141156522f2,1,832d4e47-e417-4bd9-bed7-1ab4e4f29077,064ba3dd-093b-470e-9702-5cc2f6954bec
2019-11-10 14:07:48,cc5fd19f-ca5b-4345-b277-d24b29eef5d3,1,832d4e47-e417-4bd9-bed7-1ab4e4f29077,a5dbe1fd-0dfe-4680-842f-05faa19cef08
2019-11-10 14:21:21,3ae14fa8-adf0-4844-86dc-656ab36c5632,1,832d4e47-e417-4bd9-bed7-1ab4e4f29077,660b016c-91d2-4c7c-853c-8cf4a01b32f8
