actor,node
0704e0a9-f6a6-4fac-b7b9-0c2c7fa9a390,64ef1c5e-909d-4c05-9e35-d2f959d703f1
7584d1a1-a422-479f-bd0a-a9f40482e571,9c747b4d-f9c9-412f-b1c4-8a453a2cd6a0
99ec55c4-beff-49f8-b425-b5779814421a,9c747b4d-f9c9-412f-b1c4-8a453a2cd6a0
9b742d0d-d76d-499a-b307-d773face57b5,85772858-9dbb-43d7-9159-48f85306fc8b
45121628-62fa-4074-9470-37f37bca3d3d,93393921-1b6d-4684-80d3-bb937a8373df
2be9e83b-532d-4010-9543-a6ccf2a85b17,85772858-9dbb-43d7-9159-48f85306fc8b
ca267d72-80da-4727-90a1-4e07a9f4e718,044a63b1-a40c-4e05-a5b7-085dd38484ef
11ceae69-2708-4024-8829-24fc843b89a0,85772858-9dbb-43d7-9159-48f85306fc8b
ef16a696-e949-4dbb-ace9-d73ce7e225d2,85772858-9dbb-43d7-9159-48f85306fc8b
cb9d4ebe-e33d-45ef-9c68-7b85630d99b8,247f19e2-95dd-4d89-be04-0dfb38459923
dd4a718d-86c8-40f1-92be-907c9c57dc46,3e31dd08-f80f-4647-92b7-1fe36ccb7d90
790b3576-5216-4727-a446-9d4b0cf120df,247f19e2-95dd-4d89-be04-0dfb38459923
cf11dbf1-babc-4ce0-8775-9ddbb76487a9,eaae2630-6983-48e5-9e5c-878df4e94307
e059ffb6-7b8e-49b8-9bec-3106c65b6ee1,eaae2630-6983-48e5-9e5c-878df4e94307
714faaed-c567-4aa8-8198-c7065489356f,bc66f1b7-8499-497a-8990-f28e290e50de
ef9c182b-9911-4da6-8093-a3ca22595848,f178aebf-ff9b-49f7-bad9-9a85fc19625a
d48f87fe-41d2-45dd-85fb-7e60dc9f96df,5fd66512-beeb-4350-90e7-c4f695c2f01d
290d9d97-0ce4-46a2-80a1-0a5b0f944f56,5fd66512-beeb-4350-90e7-c4f695c2f01d
c6ce6fbc-df86-4945-8c6f-cd4064d34b48,85772858-9dbb-43d7-9159-48f85306fc8b
9f792399-e05e-4d01-9d5a-dda3cf48d703,38560db7-8e08-47cc-8c5f-0c162128272b
7bbf58e6-0f6d-4776-bdee-ad69549ff2d2,85772858-9dbb-43d7-9159-48f85306fc8b
55a53ba4-d392-4d3b-ba39-4281b8360bd0,22240d57-f463-461b-8b96-92f300731639
47bc0daa-a9e2-483f-a410-365c463eb04a,31b62932-235e-40e4-86ab-42f6db3270ab
57146fbb-56b9-47e3-bbaf-7754ae05e855,eb6368a4-cb73-4419-8c63-5ff85b600eee
a5038646-f17f-4673-8c47-0ba89b6a0928,eb6368a4-cb73-4419-8c63-5ff85b600eee
0eb5e503-2628-492f-b145-520c3244920f,9c747b4d-f9c9-412f-b1c4-8a453a2cd6a0
e1154b48-ae49-46d1-8b5f-27a5ee12a74d,178970cd-bc9d-4dd4-8d4e-28b48d775c08
f31c3f59-717e-407d-b67a-add29bd3d14a,b1cf7a02-d2c3-4ec0-83d6-dab1d3ff9d75
bb1e46ef-6038-4c60-b2fa-30db458968dc,31b62932-235e-40e4-86ab-42f6db3270ab
79baabbf-a113-4972-9d65-51fa7e128a75,31b62932-235e-40e4-86ab-42f6db3270ab
95e29e7e-ce86-47c1-b019-5a44ae9620be,76f2ae44-176e-4668-9d23-aea6a4582da7
c97347a2-4b6f-4778-91cc-d8228dbaf2cd,cb3bde7c-0902-4d44-ae46-726f0a62275b
23d87f86-b795-46e2-be6c-917f73879de3,76f2ae44-176e-4668-9d23-aea6a4582da7
2b8e137d-a94c-4059-9442-c212379ffa48,e0175c2d-47ed-47d7-88cf-5c17884483cf
3b1d5e03-3490-4fe8-a7ce-65518c2267c4,8d0e0a7c-7eac-4b38-9ae0-b264fd9da8f2
a1df099c-62ef-443a-9807-f87ed8fdfd8b,8d0e0a7c-7eac-4b38-9ae0-b264fd9da8f2
e5829b85-e379-4955-9999-c9c8fec8fd09,9c747b4d-f9c9-412f-b1c4-8a453a2cd6a0
ae823275-9660-4e9e-a2cf-303ede1b9ece,9c747b4d-f9c9-412f-b1c4-8a453a2cd6a0
b6929526-11b1-407d-8809-c7ce71d1ba18,7ae2b643-1394-4df8-b8dc-1ffddcc6a44f
76b3041e-ca82-4092-bcb0-aaeccda1905f,54f2af16-3d5c-44eb-9b9b-d1a7e439e4ac
52032e7b-d2c5-43fe-b68a-940b030dd5a6,29a2ea8e-228a-4498-8eb9-19df1da0b9da
7b4438d3-7138-42d4-9ea9-6cd10c686886,8d0e0a7c-7eac-4b38-9ae0-b264fd9da8f2
422fb2c8-7517-4c61-a77d-b0f201526b2a,997823af-72ae-40b5-b60b-b40b7954bd36
c3eb7037-d67a-4770-acd5-5db19a398e31,821112f3-db66-49b2-9e5d-d7ca9ec96f47
77b4eff8-1879-44ab-a17a-756e57951b3c,821112f3-db66-49b2-9e5d-d7ca9ec96f47
fb74eac2-1ad0-455c-8956-aa5175bad15b,0b4a0e50-7c72-4234-9180-31edfc084bd7
b3df9ad6-8a77-4c03-8c23-21572833c95a,f1768818-c235-42be-a478-24448950e7ba
f3f7bc8b-667a-4143-bcc6-0a47dce9df8e,f1768818-c235-42be-a478-24448950e7ba
3111c884-adab-4ea8-a863-88524dd5c15b,dc911f1a-4a41-4f6c-9a95-57a310cca86d
a1aa0f5f-e9f1-4e1e-b402-e9b59cbfc9ff,dc911f1a-4a41-4f6c-9a95-57a310cca86d
a054a29b-afbc-4de0-9a1c-03ba805624bc,7e39a8e5-9988-465d-b892-376960f46a37
0af25e07-8a40-4016-b7fc-e377d3ec5f7a,ff274441-2de5-4268-addd-6b520dbcf968
2a07be9d-9458-4e2a-beb4-e45788e3d769,0c5180c4-2745-4cf5-a3df-a489d8ddfba6
963ea200-4e96-4d29-8fa9-0921ad6be79c,0c5180c4-2745-4cf5-a3df-a489d8ddfba6
a3446b21-aea1-4882-ada0-ce32fbc3274f,f3fb9468-bb9f-40dd-b3bd-9b29fb7a6c52
01ee5d8c-89c6-4736-a7c7-1f4b4f6098cc,76f2ae44-176e-4668-9d23-aea6a4582da7
4fc08e5b-4574-41ac-b956-7dc2bd9cb6be,76f2ae44-176e-4668-9d23-aea6a4582da7
77f12e27-3315-4675-afc5-a90670545beb,54f2af16-3d5c-44eb-9b9b-d1a7e439e4ac
8a127188-224c-46b8-9ac1-898dd440d8ce,96a4612e-577f-4a27-99cc-24a7d92f4a67
9102fc1e-d4dc-4f34-a922-3f0d8f168fe8,8d0e0a7c-7eac-4b38-9ae0-b264fd9da8f2
978e9b81-2803-4d18-9bf3-54695ce861c1,bf6e805c-625c-453e-b85e-6e6eecd110fc
a899cfaa-2637-496d-81e9-d1de990c6cae,f1768818-c235-42be-a478-24448950e7ba
f01e6727-e9d0-4a5f-95c9-25d0ec8807ba,f1768818-c235-42be-a478-24448950e7ba
45528518-e4b2-4d1d-b038-034391e4ed4e,54f2af16-3d5c-44eb-9b9b-d1a7e439e4ac
46012f4a-329b-4fd8-85c5-a6a0995ab1f0,76f2ae44-176e-4668-9d23-aea6a4582da7
20b605a1-9cff-44c9-ae23-53b5ce354dd8,ec6d25b9-f2f6-470a-8b54-ab6e7f304c00
fdf532ae-164c-4a49-9870-b2c03c9310a0,76f2ae44-176e-4668-9d23-aea6a4582da7
a4d550ce-13cb-4579-b43c-9fe937057f54,76f2ae44-176e-4668-9d23-aea6a4582da7
06e85a98-b5c5-4d0c-9bcf-2e9da98d2a4f,9cda959a-be2a-4017-b17b-89fdc8d0a3db
a381a2b6-01ff-447e-ba44-98f40e7a154d,76f2ae44-176e-4668-9d23-aea6a4582da7
9e7e8dad-cc66-4895-9ec0-d55cdafd415f,76f2ae44-176e-4668-9d23-aea6a4582da7
3460ccbd-de40-467e-9b91-148205a8825d,528f7429-2f32-483b-8e7f-758c4bfead4f
48ee6a02-4e96-47b4-abe1-47db1ffd9833,55c07e0c-0c06-4fb0-b755-194f550f6ef7
68039b0a-9601-411f-b3e4-5848c3772776,32f86a9a-e0dc-476a-ae64-b4ccc241b339
ee8ea9a1-d493-457b-9bc0-f5adfa894630,32f86a9a-e0dc-476a-ae64-b4ccc241b339
