date,actor,success,from,to
2019-11-01 21:08:18,af1e956d-d43c-4a6f-a5e7-20f69c17d7e8,1,1383dc2f-80bf-46d2-a294-b6adfeb4cbec,eb3df129-e910-4327-9c82-56066dcf9010
2019-11-01 21:08:18,4a17c849-9178-4846-9c0f-3647d3a53fb8,1,1383dc2f-80bf-46d2-a294-b6adfeb4cbec,eb3df129-e910-4327-9c82-56066dcf9010
2019-11-01 21:08:18,717dbc6e-eb0b-4f4a-825b-885b8c7c3da7,1,1383dc2f-80bf-46d2-a294-b6adfeb4cbec,1e4f3c8f-bc19-4d3e-b20d-632bef90ec40
2019-11-01 21:09:21,8ce3cbd9-5e3c-44b9-a7b9-8c2683251fce,1,1383dc2f-80bf-46d2-a294-b6adfeb4cbec,630e6c05-969c-45ee-b0ef-f1e75ee62fca
2019-11-01 21:09:21,8a8b989f-b870-425e-a8eb-3423464b13e7,1,1383dc2f-80bf-46d2-a294-b6adfeb4cbec,9c791cab-eb49-4fb3-92bf-73fc5eacc225
2019-11-01 21:09:21,2ac093fc-c6d2-43b2-87a9-327c1112b982,1,1383dc2f-80bf-46d2-a294-b6adfeb4cbec,d070c573-46e2-4760-9603-0124c1e9483d
2019-11-01 21:10:25,77b95a86-1b18-40d4-be5e-2b785765630f,1,1383dc2f-80bf-46d2-a294-b6adfeb4cbec,630e6c05-969c-45ee-b0ef-f1e75ee62fca
2019-11-01 21:10:25,16c3016d-36da-4697-b328-ceb6874c1fee,1,1383dc2f-80bf-46d2-a294-b6adfeb4cbec,d070c573-46e2-4760-9603-0124c1e9483d
2019-11-01 21:10:25,92e6adf8-fbc4-4de4-bfc9-0d5504720f56,1,1383dc2f-80bf-46d2-a294-b6adfeb4cbec,f58c8e16-cbee-47d3-b9f4-ffed825a7425
2019-11-01 21:11:29,908af06b-de7d-4ab7-8e4f-92b378ec61d7,1,1383dc2f-80bf-46d2-a294-b6adfeb4cbec,4de155eb-ddf8-4ec1-899e-9fb2348da887
2019-11-01 21:11:29,a27458a3-f8fe-4ff7-ae01-820a50fdf804,1,1383dc2f-80bf-46d2-a294-b6adfeb4cbec,b5764d29-9e9f-4eff-96c1-880f28870d96
2019-11-01 21:11:29,9561ce84-dd1f-4f3b-ab1e-54534b720282,1,1383dc2f-80bf-46d2-a294-b6adfeb4cbec,5e68f4da-b45d-4111-9347-95b34964637f
2019-11-01 21:12:33,8cd99d4a-1204-4587-824e-3cf846f33a05,1,1383dc2f-80bf-46d2-a294-b6adfeb4cbec,b5764d29-9e9f-4eff-96c1-880f28870d96
2019-11-01 21:12:33,61f85066-22b5-4f1e-a3a8-fa63dd9160c6,1,1383dc2f-80bf-46d2-a294-b6adfeb4cbec,73bbd45d-c12d-49a9-b42d-a20444881cc3
2019-11-01 21:12:33,07a5d18a-68fa-4070-8974-ea5fb52c5789,1,1383dc2f-80bf-46d2-a294-b6adfeb4cbec,d8c55a1c-16dd-41cc-aa1f-41615e09d0b0
2019-11-01 21:13:37,817b5c42-e70c-465c-ac70-2d2cc717306c,1,1383dc2f-80bf-46d2-a294-b6adfeb4cbec,7a8d31a0-bbbd-4cae-9f43-d024dd2afac2
2019-11-01 21:13:37,0634e5df-573f-4efb-bbac-738031d7f4db,1,1383dc2f-80bf-46d2-a294-b6adfeb4cbec,fe884641-c823-4b6e-9e7c-edd75e9c8bcb
2019-11-01 21:13:37,5b0c8acc-d5b4-43bf-845e-ae2b0c84ca98,1,1383dc2f-80bf-46d2-a294-b6adfeb4cbec,fe884641-c823-4b6e-9e7c-edd75e9c8bcb
2019-11-01 21:14:41,ef2cada8-a7c7-4e83-b00f-9cf7279e08ae,1,1383dc2f-80bf-46d2-a294-b6adfeb4cbec,b1f20a35-7896-41f3-9540-43f9530df53a
2019-11-01 21:14:41,2b98acd0-4480-400b-876c-23ead5a05303,1,1383dc2f-80bf-46d2-a294-b6adfeb4cbec,fe884641-c823-4b6e-9e7c-edd75e9c8bcb
2019-11-01 21:14:41,6a40635e-2567-4e12-8fae-508156442232,1,1383dc2f-80bf-46d2-a294-b6adfeb4cbec,fe884641-c823-4b6e-9e7c-edd75e9c8bcb
2019-11-01 21:15:44,cfd5b5a2-9310-4c93-a240-fd9e007c3786,1,1383dc2f-80bf-46d2-a294-b6adfeb4cbec,b5764d29-9e9f-4eff-96c1-880f28870d96
2019-11-01 21:15:44,bdba6f3d-3e30-4c00-80f0-4b6ec40861c1,1,1383dc2f-80bf-46d2-a294-b6adfeb4cbec,b5764d29-9e9f-4eff-96c1-880f28870d96
2019-11-01 21:15:44,bebba60f-269a-4571-bafb-f36ef6ee427c,1,1383dc2f-80bf-46d2-a294-b6adfeb4cbec,caea3749-662f-453a-9256-7cf85a3bff01
2019-11-01 21:16:48,7ec47393-9468-4ed8-b54e-6474ebf3fba3,1,1383dc2f-80bf-46d2-a294-b6adfeb4cbec,b0c67b60-0cf9-44f5-9dd4-795d8cbd8dd9
2019-11-01 21:16:48,49bb1655-e5a1-4364-b810-180ba5f98441,1,1383dc2f-80bf-46d2-a294-b6adfeb4cbec,736dcc56-e801-4db8-b857-a17d32213ae6
2019-11-01 21:16:48,4a41b834-ce08-4982-8c0a-21210033c3f1,1,1383dc2f-80bf-46d2-a294-b6adfeb4cbec,b0c67b60-0cf9-44f5-9dd4-795d8cbd8dd9
2019-11-01 21:17:52,000d96c5-b852-4461-8325-f297804080f2,1,1383dc2f-80bf-46d2-a294-b6adfeb4cbec,73bbd45d-c12d-49a9-b42d-a20444881cc3
2019-11-01 21:17:52,81c58998-1271-4029-96d9-d07135fce014,1,1383dc2f-80bf-46d2-a294-b6adfeb4cbec,7279ed63-7ec6-4670-881a-94c1bf8cd499
2019-11-01 21:17:52,b41b9d6e-a12d-475e-adb3-d3d788115d60,1,1383dc2f-80bf-46d2-a294-b6adfeb4cbec,b5764d29-9e9f-4eff-96c1-880f28870d96
2019-11-01 21:18:56,d94cd5ba-2511-48c4-b004-df26013f9009,1,1383dc2f-80bf-46d2-a294-b6adfeb4cbec,73bbd45d-c12d-49a9-b42d-a20444881cc3
2019-11-01 21:18:56,e5f9fbd0-fc6b-409e-80db-50a8eb611f73,1,1383dc2f-80bf-46d2-a294-b6adfeb4cbec,73bbd45d-c12d-49a9-b42d-a20444881cc3
2019-11-01 21:18:56,5da0d04d-0641-459a-ad71-d4bafa324069,1,1383dc2f-80bf-46d2-a294-b6adfeb4cbec,8ecacbb3-3d66-430e-82d0-8cfa34c55a78
2019-11-01 21:20:00,b46a6670-2cb2-4032-b126-6b4988ad8df9,1,1383dc2f-80bf-46d2-a294-b6adfeb4cbec,4308b8f5-25a7-48be-bfec-d04bd8dc190a
2019-11-01 21:20:00,963db3cd-389a-4406-bc25-f98bf42a0c7c,1,1383dc2f-80bf-46d2-a294-b6adfeb4cbec,41383d68-7d35-406b-9b31-549f61d00cb2
2019-11-01 21:20:00,e6224bb2-470b-4dd7-b61d-d9e41c5bf1ca,1,1383dc2f-80bf-46d2-a294-b6adfeb4cbec,41383d68-7d35-406b-9b31-549f61d00cb2
2019-11-01 21:21:03,1cc30397-de9f-4ba0-b72c-f25335697919,1,1383dc2f-80bf-46d2-a294-b6adfeb4cbec,1c3a4fb0-30f1-4162-8e3b-c5ae8ad2f650
2019-11-01 21:21:03,c1b80083-ece1-4c2b-950e-3ab320b44709,1,1383dc2f-80bf-46d2-a294-b6adfeb4cbec,a1bb7d23-bffe-4d02-b482-e536a8e3816f
2019-11-01 21:21:03,51094c4e-6761-4019-9a03-8df32a834c86,1,1383dc2f-80bf-46d2-a294-b6adfeb4cbec,1c3a4fb0-30f1-4162-8e3b-c5ae8ad2f650
2019-11-01 21:22:07,454fc0f5-2774-443a-955b-8331fdc2cf9d,1,1383dc2f-80bf-46d2-a294-b6adfeb4cbec,1c3a4fb0-30f1-4162-8e3b-c5ae8ad2f650
2019-11-01 21:22:07,6c5f16f4-fa4f-4884-ab75-58ebda2bb4cc,1,1383dc2f-80bf-46d2-a294-b6adfeb4cbec,805ba59a-7329-4488-b2f4-a93c337d376f
2019-11-01 21:22:07,1742770f-f928-4250-9027-28e680fdf1a2,1,1383dc2f-80bf-46d2-a294-b6adfeb4cbec,d32d0e2b-d757-4482-b7b3-86c1d4517347
2019-11-01 21:23:11,fbdcdacf-ef64-431b-a15c-fc5a666bb4f6,1,1383dc2f-80bf-46d2-a294-b6adfeb4cbec,41383d68-7d35-406b-9b31-549f61d00cb2
2019-11-01 21:23:11,dce80d61-6369-4a5f-9ada-4744e815c4d9,1,1383dc2f-80bf-46d2-a294-b6adfeb4cbec,b71c114f-7612-4003-ad4a-c4c1809e23c7
2019-11-01 21:23:11,f38814d2-b7bd-4196-a5e4-46a05fd7ad62,1,1383dc2f-80bf-46d2-a294-b6adfeb4cbec,41383d68-7d35-406b-9b31-549f61d00cb2
2019-11-01 21:24:15,535361f9-ba22-40de-bf69-d8ccf1005dd5,1,1383dc2f-80bf-46d2-a294-b6adfeb4cbec,95c349f2-c8f0-4c78-9699-4546752ff354
2019-11-01 21:24:15,6347903a-b7b1-4fef-9159-18f95e9ad7a0,1,1383dc2f-80bf-46d2-a294-b6adfeb4cbec,95c349f2-c8f0-4c78-9699-4546752ff354
2019-11-01 21:24:15,775d7329-d082-4ace-98af-8b45645e69d8,1,1383dc2f-80bf-46d2-a294-b6adfeb4cbec,dfc05638-7a28-4967-890e-297631252133
2019-11-01 21:25:19,a261b0ea-9f9a-4fdb-b236-9055350d4841,1,1383dc2f-80bf-46d2-a294-b6adfeb4cbec,009574ed-4e9a-41c0-b472-22f040b707d1
2019-11-01 21:25:19,f6b77326-c962-4bef-b33d-bdfe09f50928,1,1383dc2f-80bf-46d2-a294-b6adfeb4cbec,b9920d0a-1218-4ae7-81d0-040adc25a32e
2019-11-01 21:25:19,0f92ea10-1512-4a92-9b4d-b713e4550d3f,1,1383dc2f-80bf-46d2-a294-b6adfeb4cbec,b9920d0a-1218-4ae7-81d0-040adc25a32e
2019-11-01 21:26:23,10ec4b0b-47aa-4445-a5a3-72b91c3c31a6,1,1383dc2f-80bf-46d2-a294-b6adfeb4cbec,5e68f4da-b45d-4111-9347-95b34964637f
2019-11-01 21:26:23,da9f90ee-c957-43d7-bb2c-bbdfe80e3dbf,1,1383dc2f-80bf-46d2-a294-b6adfeb4cbec,5e68f4da-b45d-4111-9347-95b34964637f
2019-11-01 21:26:23,9b55d916-2e20-4a28-9d6f-011cacff84a2,1,1383dc2f-80bf-46d2-a294-b6adfeb4cbec,1e9c0789-df87-4635-9b79-9e9230f34d5d
2019-11-01 21:27:26,4b21ad5a-8e71-48f7-8ad8-8576d2cc7011,1,1383dc2f-80bf-46d2-a294-b6adfeb4cbec,41383d68-7d35-406b-9b31-549f61d00cb2
2019-11-01 21:27:26,5012c307-852e-4c7f-bb10-336b8bc0ce6e,1,1383dc2f-80bf-46d2-a294-b6adfeb4cbec,51e85dec-3f68-4966-bf46-cd9e62ebd5a5
2019-11-01 21:27:26,d91e7aba-c9fc-4d77-9444-2fc7277ea2f2,1,1383dc2f-80bf-46d2-a294-b6adfeb4cbec,fe884641-c823-4b6e-9e7c-edd75e9c8bcb
2019-11-01 21:28:30,2a07e283-74dd-4140-8f36-68a10a2a9a36,1,1383dc2f-80bf-46d2-a294-b6adfeb4cbec,fe884641-c823-4b6e-9e7c-edd75e9c8bcb
2019-11-01 21:28:30,a3fd4a14-7ad2-4db0-8f77-f1cd39b077c1,1,1383dc2f-80bf-46d2-a294-b6adfeb4cbec,fe884641-c823-4b6e-9e7c-edd75e9c8bcb
2019-11-01 21:28:30,c4add89e-c08f-40f4-ac17-ba523e4c1892,1,1383dc2f-80bf-46d2-a294-b6adfeb4cbec,8b0e2fb2-151c-4a2c-a161-19a72db63eb2
2019-11-01 21:29:34,127c85d5-15bd-4060-8d1f-307ebdf95880,1,1383dc2f-80bf-46d2-a294-b6adfeb4cbec,b0c67b60-0cf9-44f5-9dd4-795d8cbd8dd9
2019-11-01 21:29:34,d3f6c9a9-309d-45a4-a4ea-cab43f6a1296,1,1383dc2f-80bf-46d2-a294-b6adfeb4cbec,b0c67b60-0cf9-44f5-9dd4-795d8cbd8dd9
2019-11-01 21:29:34,979df4cc-ca96-4cd5-8a28-9bb4ac57796d,1,1383dc2f-80bf-46d2-a294-b6adfeb4cbec,1942bb38-ad62-45bf-b781-35a19753977b
2019-11-01 21:30:38,dc77912e-734c-4305-8eac-eefc900529b2,1,1383dc2f-80bf-46d2-a294-b6adfeb4cbec,d070c573-46e2-4760-9603-0124c1e9483d
2019-11-01 21:30:38,233d2d40-d51f-4065-a091-a8f9d24a3bf7,1,1383dc2f-80bf-46d2-a294-b6adfeb4cbec,faddcbe9-13d1-42d3-a458-7247e4173b06
2019-11-01 21:30:38,438d6aa6-61b2-4f6b-8623-355b402f2783,1,1383dc2f-80bf-46d2-a294-b6adfeb4cbec,d070c573-46e2-4760-9603-0124c1e9483d
2019-11-01 21:31:41,454ffef4-fff6-4a6c-be00-9e54375d6a7c,1,1383dc2f-80bf-46d2-a294-b6adfeb4cbec,b9920d0a-1218-4ae7-81d0-040adc25a32e
2019-11-01 21:31:41,0e5c0919-344a-479f-860c-f3286cf65e91,1,1383dc2f-80bf-46d2-a294-b6adfeb4cbec,67bb5878-19d6-4e0d-9915-3d1d421b3c5d
2019-11-01 21:31:41,e9a12e65-9051-4900-becb-7e88d82c1936,1,1383dc2f-80bf-46d2-a294-b6adfeb4cbec,b9920d0a-1218-4ae7-81d0-040adc25a32e
2019-11-01 21:32:45,74fffc12-a47d-4b22-aab7-31ba79eb8b49,1,1383dc2f-80bf-46d2-a294-b6adfeb4cbec,4f519945-12ec-4f31-a2e1-8a9df460927b
2019-11-01 21:32:45,3d1d708a-5393-4a9b-8e1b-55a3a1cb7b89,1,1383dc2f-80bf-46d2-a294-b6adfeb4cbec,c1ac9bba-a24e-40a3-9459-60a8f1079796
2019-11-01 21:32:45,d6d29e87-5359-40a4-8377-6783850fb204,1,1383dc2f-80bf-46d2-a294-b6adfeb4cbec,c1ac9bba-a24e-40a3-9459-60a8f1079796
2019-11-01 21:33:49,90a4a555-7232-40ea-8b0a-dd63bc5fe6be,1,1383dc2f-80bf-46d2-a294-b6adfeb4cbec,c1ac9bba-a24e-40a3-9459-60a8f1079796
2019-11-01 21:33:49,fdff5f50-7db4-49c2-bc04-a59ccbe43ff4,1,1383dc2f-80bf-46d2-a294-b6adfeb4cbec,c1ac9bba-a24e-40a3-9459-60a8f1079796
2019-11-01 21:33:49,1e85269d-6da0-41f4-b91c-311978468d5c,1,1383dc2f-80bf-46d2-a294-b6adfeb4cbec,a6804ffc-1a35-4b3e-9cd7-0006fb68365e
2019-11-01 21:34:53,74957bcd-a713-4cff-a6dc-d79e3483948c,1,1383dc2f-80bf-46d2-a294-b6adfeb4cbec,c1ac9bba-a24e-40a3-9459-60a8f1079796
2019-11-01 21:34:53,61f87427-4aa3-4447-8ea3-db9dd8ee6936,1,1383dc2f-80bf-46d2-a294-b6adfeb4cbec,c1ac9bba-a24e-40a3-9459-60a8f1079796
2019-11-01 21:34:53,eded83b5-cf29-4ed8-b2b6-3275c2acca02,1,1383dc2f-80bf-46d2-a294-b6adfeb4cbec,29ecd40d-b3c5-4944-8855-751cbcf1ec77
2019-11-01 21:35:56,d23a0ab0-3c39-4bfc-af88-0c415c88960c,1,1383dc2f-80bf-46d2-a294-b6adfeb4cbec,eb3df129-e910-4327-9c82-56066dcf9010
2019-11-01 21:35:56,82124288-e744-4f06-893d-844452e16698,1,1383dc2f-80bf-46d2-a294-b6adfeb4cbec,9067bd5f-1e11-4984-aae3-9f49d055d311
2019-11-01 21:35:56,d80a4336-5f01-4b14-82c0-332b7f30eab7,1,1383dc2f-80bf-46d2-a294-b6adfeb4cbec,eb3df129-e910-4327-9c82-56066dcf9010
2019-11-01 21:37:00,6b2ef480-7852-4396-8655-29834db4c92a,1,1383dc2f-80bf-46d2-a294-b6adfeb4cbec,41383d68-7d35-406b-9b31-549f61d00cb2
2019-11-01 21:37:00,ed372b08-1953-4b15-bc13-91a39785187f,1,1383dc2f-80bf-46d2-a294-b6adfeb4cbec,0c8838ab-f6d2-49b9-bab5-6881d4a879e0
2019-11-01 21:37:00,fe03cb81-57bd-4edb-a338-3056862b4017,1,1383dc2f-80bf-46d2-a294-b6adfeb4cbec,41383d68-7d35-406b-9b31-549f61d00cb2
2019-11-01 21:38:04,e5e1d2f7-2581-41df-9487-8db3b6acf193,1,1383dc2f-80bf-46d2-a294-b6adfeb4cbec,630e6c05-969c-45ee-b0ef-f1e75ee62fca
2019-11-01 21:38:04,b4bb5c20-6c35-4101-bf86-9996ef6a7748,1,1383dc2f-80bf-46d2-a294-b6adfeb4cbec,630e6c05-969c-45ee-b0ef-f1e75ee62fca
2019-11-01 21:38:04,135e9714-0a0a-4f90-8d4b-91a160e2bc10,1,1383dc2f-80bf-46d2-a294-b6adfeb4cbec,59f918c1-2947-4f37-be35-cd39902d7520
2019-11-01 21:39:08,9df68abf-a6d2-44f8-ab08-bcdf6183985a,1,1383dc2f-80bf-46d2-a294-b6adfeb4cbec,41383d68-7d35-406b-9b31-549f61d00cb2
2019-11-01 21:39:08,f6169625-ed02-4ef0-9192-ed0842c76af5,1,1383dc2f-80bf-46d2-a294-b6adfeb4cbec,a5056ce1-ee40-4199-b929-3d04e7f2680b
2019-11-01 21:39:08,3f1e68e6-e496-4d1a-b96e-c6092836b6bf,1,1383dc2f-80bf-46d2-a294-b6adfeb4cbec,41383d68-7d35-406b-9b31-549f61d00cb2
2019-11-01 21:40:12,75e888f1-5b9b-480c-9f2a-8c967145fa9d,1,1383dc2f-80bf-46d2-a294-b6adfeb4cbec,f6967006-d089-46e2-9c82-09841ea15397
2019-11-01 21:40:12,eaa597f1-9b55-4d3d-9152-33e986a81fb5,1,1383dc2f-80bf-46d2-a294-b6adfeb4cbec,c1ac9bba-a24e-40a3-9459-60a8f1079796
2019-11-01 21:40:12,1725acdc-6e8f-47e5-b37e-87660f54a229,1,1383dc2f-80bf-46d2-a294-b6adfeb4cbec,c1ac9bba-a24e-40a3-9459-60a8f1079796
2019-11-01 21:41:15,4496c77b-1f15-4d94-acc0-c26d8461e733,1,1383dc2f-80bf-46d2-a294-b6adfeb4cbec,41383d68-7d35-406b-9b31-549f61d00cb2
2019-11-01 21:41:15,105b4bf4-53ec-49ef-bb1f-c3db1c480a9a,1,1383dc2f-80bf-46d2-a294-b6adfeb4cbec,41383d68-7d35-406b-9b31-549f61d00cb2
2019-11-01 21:41:15,7385c3f3-08bf-4276-8e65-0280e9d0abb2,1,1383dc2f-80bf-46d2-a294-b6adfeb4cbec,787ae118-2200-477a-9ef9-4ebbb6aec74c
2019-11-01 21:42:20,0bdf57c6-dca8-401e-af50-98a81a6c04dc,1,1383dc2f-80bf-46d2-a294-b6adfeb4cbec,8d06b9e2-9e1d-4272-a5e1-930b7a36b529
2019-11-01 21:42:20,760ded69-43fe-4898-a32d-fa0abfbc7428,1,1383dc2f-80bf-46d2-a294-b6adfeb4cbec,c1ac9bba-a24e-40a3-9459-60a8f1079796
2019-11-01 21:42:20,051bd133-f0fc-4e06-9f8c-f01c98f9c735,1,1383dc2f-80bf-46d2-a294-b6adfeb4cbec,c1ac9bba-a24e-40a3-9459-60a8f1079796
2019-11-01 21:43:24,21224320-db2c-4301-a027-4c24b5165689,1,1383dc2f-80bf-46d2-a294-b6adfeb4cbec,d87c1594-6419-42b9-aac7-2695386c87bb
2019-11-01 21:43:24,4a5f93a8-6221-49ad-b8d2-857ce61f114f,1,1383dc2f-80bf-46d2-a294-b6adfeb4cbec,eb3df129-e910-4327-9c82-56066dcf9010
2019-11-01 21:43:24,eb98926d-41a1-4817-b571-bd244f603e02,1,1383dc2f-80bf-46d2-a294-b6adfeb4cbec,eb3df129-e910-4327-9c82-56066dcf9010
2019-11-01 21:44:28,856ea4dc-7d97-4de8-9a8f-37a64fffaabc,1,1383dc2f-80bf-46d2-a294-b6adfeb4cbec,630e6c05-969c-45ee-b0ef-f1e75ee62fca
2019-11-01 21:44:28,89d6a978-b67e-4924-ae21-d7f88f568ad0,1,1383dc2f-80bf-46d2-a294-b6adfeb4cbec,630e6c05-969c-45ee-b0ef-f1e75ee62fca
2019-11-01 21:44:28,35a4f07a-537c-415b-a573-1e66d25c80bf,1,1383dc2f-80bf-46d2-a294-b6adfeb4cbec,5b8b2599-436f-44ef-98a7-8434e85b90ee
2019-11-01 21:45:32,174b26aa-f775-4b20-a318-4c95b9b1a508,1,1383dc2f-80bf-46d2-a294-b6adfeb4cbec,eb3df129-e910-4327-9c82-56066dcf9010
2019-11-01 21:45:32,db692285-d7f9-4932-a08a-b2fd5123886a,1,1383dc2f-80bf-46d2-a294-b6adfeb4cbec,eb3df129-e910-4327-9c82-56066dcf9010
2019-11-01 21:45:32,6a1deec3-4115-4f01-af61-73a1e6a00364,1,1383dc2f-80bf-46d2-a294-b6adfeb4cbec,869cfcb5-5e27-43e5-9658-ac1eb741612c
2019-11-01 21:46:25,d3f6c9a9-309d-45a4-a4ea-cab43f6a1296,1,1383dc2f-80bf-46d2-a294-b6adfeb4cbec,b9920d0a-1218-4ae7-81d0-040adc25a32e
2019-11-01 21:46:36,04556326-214e-4efd-8cdf-e9c367a58208,1,1383dc2f-80bf-46d2-a294-b6adfeb4cbec,c1ac9bba-a24e-40a3-9459-60a8f1079796
2019-11-01 21:46:36,011ec642-f3b1-4697-a3bd-dc50d625ecef,1,1383dc2f-80bf-46d2-a294-b6adfeb4cbec,f4408b52-f456-4832-ab36-3fde67f4e7fd
2019-11-01 21:46:36,16478d4b-64e7-46d2-95f0-04339b2bf05e,1,1383dc2f-80bf-46d2-a294-b6adfeb4cbec,c1ac9bba-a24e-40a3-9459-60a8f1079796
2019-11-01 21:47:42,e65c49c3-18ff-4117-9633-19fc6af6d46b,1,1383dc2f-80bf-46d2-a294-b6adfeb4cbec,228f5b27-ad1f-47ce-96b5-b4616302b319
2019-11-01 21:47:42,395fbeb0-f555-4167-a84b-43724f4bc717,1,1383dc2f-80bf-46d2-a294-b6adfeb4cbec,95c349f2-c8f0-4c78-9699-4546752ff354
2019-11-01 21:47:42,585263f1-83f2-4bd5-8b06-05331d798957,1,1383dc2f-80bf-46d2-a294-b6adfeb4cbec,95c349f2-c8f0-4c78-9699-4546752ff354
2019-11-01 21:48:46,733c2861-4487-431b-b214-ecc1e4e60cb5,1,1383dc2f-80bf-46d2-a294-b6adfeb4cbec,e9a20ef3-02de-4f9f-a21a-66092511ecb4
2019-11-01 21:48:46,d98e91b1-eeb5-415b-8626-518dcb7cc532,1,1383dc2f-80bf-46d2-a294-b6adfeb4cbec,73bbd45d-c12d-49a9-b42d-a20444881cc3
2019-11-01 21:48:46,29f9fcb3-8f11-452b-8e34-16c60de5e94a,1,1383dc2f-80bf-46d2-a294-b6adfeb4cbec,73bbd45d-c12d-49a9-b42d-a20444881cc3
2019-11-01 21:49:51,52846f4e-4d08-4f9d-b216-8b87e678e76b,1,1383dc2f-80bf-46d2-a294-b6adfeb4cbec,73bbd45d-c12d-49a9-b42d-a20444881cc3
2019-11-01 21:49:51,df48a4c9-88e2-4e1f-a33d-88744d722e47,1,1383dc2f-80bf-46d2-a294-b6adfeb4cbec,73bbd45d-c12d-49a9-b42d-a20444881cc3
2019-11-01 21:49:51,5ccb7e5f-bef9-4c63-9c64-10990dfd7dac,1,1383dc2f-80bf-46d2-a294-b6adfeb4cbec,7811e599-191b-4563-bafe-00266fa84a6c
2019-11-01 21:49:52,e9a12e65-9051-4900-becb-7e88d82c1936,1,1383dc2f-80bf-46d2-a294-b6adfeb4cbec,95c349f2-c8f0-4c78-9699-4546752ff354
2019-11-01 21:50:55,bee9c2b2-de5a-4e3a-900b-93c3d29b5ba3,1,1383dc2f-80bf-46d2-a294-b6adfeb4cbec,c1ac9bba-a24e-40a3-9459-60a8f1079796
2019-11-01 21:50:55,d34bebda-01d7-48f2-af82-1fbf16c73cb6,1,1383dc2f-80bf-46d2-a294-b6adfeb4cbec,1cd7ac47-0e61-4d49-a5bb-3e1204139861
2019-11-01 21:50:55,e7bf9515-5c68-467d-b7a4-eac49df469e7,1,1383dc2f-80bf-46d2-a294-b6adfeb4cbec,c1ac9bba-a24e-40a3-9459-60a8f1079796
2019-11-01 21:51:48,000d96c5-b852-4461-8325-f297804080f2,1,1383dc2f-80bf-46d2-a294-b6adfeb4cbec,1c3a4fb0-30f1-4162-8e3b-c5ae8ad2f650
2019-11-01 21:51:59,82da9758-a4b7-4605-9834-30a46e66ed6c,1,1383dc2f-80bf-46d2-a294-b6adfeb4cbec,630e6c05-969c-45ee-b0ef-f1e75ee62fca
2019-11-01 21:51:59,bf6410eb-f454-401c-80cd-06fe83de2703,1,1383dc2f-80bf-46d2-a294-b6adfeb4cbec,ebf3e51c-a127-4969-a556-bd3d181d07d8
2019-11-01 21:51:59,202dfc09-c539-4dfc-9e32-3861cd7467dd,1,1383dc2f-80bf-46d2-a294-b6adfeb4cbec,630e6c05-969c-45ee-b0ef-f1e75ee62fca
2019-11-01 21:53:04,e149a39a-c03d-40a2-92f3-c3ffe22c4cb7,1,1383dc2f-80bf-46d2-a294-b6adfeb4cbec,73bbd45d-c12d-49a9-b42d-a20444881cc3
2019-11-01 21:53:04,3817e02e-a7ad-4bde-b15f-de2ab38f5337,1,1383dc2f-80bf-46d2-a294-b6adfeb4cbec,6ab71bbc-03f4-4d4c-86e7-8ad42bc709e3
2019-11-01 21:53:04,b54519cc-be33-43eb-b70f-52d15401d7d5,1,1383dc2f-80bf-46d2-a294-b6adfeb4cbec,73bbd45d-c12d-49a9-b42d-a20444881cc3
2019-11-01 21:54:08,2c0f1923-32eb-48d7-aef5-f82d35a5ec53,1,1383dc2f-80bf-46d2-a294-b6adfeb4cbec,b0c67b60-0cf9-44f5-9dd4-795d8cbd8dd9
2019-11-01 21:54:08,ce9dfb0d-f0d0-44cc-90a3-dbf48de72466,1,1383dc2f-80bf-46d2-a294-b6adfeb4cbec,b0c67b60-0cf9-44f5-9dd4-795d8cbd8dd9
2019-11-01 21:54:08,30ed2225-12e1-4052-91d6-ad7a957fe30b,1,1383dc2f-80bf-46d2-a294-b6adfeb4cbec,b9b9a986-a70a-4452-bcce-eb9c2cc693dc
2019-11-01 21:55:13,43217492-093a-4a2c-8ee6-228a4551a7c9,1,1383dc2f-80bf-46d2-a294-b6adfeb4cbec,d37a7795-e8ea-413d-80e8-88e65968bf7f
2019-11-01 21:55:13,5de5c2fb-c77a-46d4-a1b2-4442a29a2619,1,1383dc2f-80bf-46d2-a294-b6adfeb4cbec,b9920d0a-1218-4ae7-81d0-040adc25a32e
2019-11-01 21:55:13,5940cebf-68af-4596-b133-7483fa4cd7ef,1,1383dc2f-80bf-46d2-a294-b6adfeb4cbec,b9920d0a-1218-4ae7-81d0-040adc25a32e
2019-11-01 21:56:18,582c2417-420a-4368-9cb3-0062beaaf8d6,1,1383dc2f-80bf-46d2-a294-b6adfeb4cbec,d070c573-46e2-4760-9603-0124c1e9483d
2019-11-01 21:56:18,b101f9c3-bd63-4b65-9b27-0add2cfb2975,1,1383dc2f-80bf-46d2-a294-b6adfeb4cbec,d070c573-46e2-4760-9603-0124c1e9483d
2019-11-01 21:56:18,77c3e3af-9ce8-4a93-9807-ebe74a1f4308,1,1383dc2f-80bf-46d2-a294-b6adfeb4cbec,7c7685c5-a4dd-4e57-bbd1-b45b4f567ee5
2019-11-01 21:56:44,df48a4c9-88e2-4e1f-a33d-88744d722e47,1,1383dc2f-80bf-46d2-a294-b6adfeb4cbec,7a9bdc48-9771-49d9-9903-cdfb2ef80c93
2019-11-01 21:57:08,000d96c5-b852-4461-8325-f297804080f2,1,1383dc2f-80bf-46d2-a294-b6adfeb4cbec,b9920d0a-1218-4ae7-81d0-040adc25a32e
2019-11-01 21:57:22,d7fc1bc3-e2d9-45f9-bba8-bd10d5b008f7,1,1383dc2f-80bf-46d2-a294-b6adfeb4cbec,0168a794-f026-461f-a5e4-b6b9c7741f7a
2019-11-01 21:57:22,fb4d6eff-6a45-4a8b-a6c0-3da600a1d613,1,1383dc2f-80bf-46d2-a294-b6adfeb4cbec,41383d68-7d35-406b-9b31-549f61d00cb2
2019-11-01 21:57:22,7db2e156-55a6-40fb-b857-235bea2f40d6,1,1383dc2f-80bf-46d2-a294-b6adfeb4cbec,41383d68-7d35-406b-9b31-549f61d00cb2
2019-11-01 21:58:28,9d402adb-abf1-4339-8db9-cb2df17e44da,1,1383dc2f-80bf-46d2-a294-b6adfeb4cbec,d070c573-46e2-4760-9603-0124c1e9483d
2019-11-01 21:58:28,eab7500d-4b96-4ea4-8fb5-2d2fb7e106be,1,1383dc2f-80bf-46d2-a294-b6adfeb4cbec,28f2dbc8-3f68-4ede-8499-d910be2b886a
2019-11-01 21:58:28,accfd8e5-aed5-4053-8f1a-14709f953929,1,1383dc2f-80bf-46d2-a294-b6adfeb4cbec,d070c573-46e2-4760-9603-0124c1e9483d
2019-11-01 21:58:41,b54519cc-be33-43eb-b70f-52d15401d7d5,1,1383dc2f-80bf-46d2-a294-b6adfeb4cbec,805ba59a-7329-4488-b2f4-a93c337d376f
2019-11-01 21:58:50,82da9758-a4b7-4605-9834-30a46e66ed6c,1,1383dc2f-80bf-46d2-a294-b6adfeb4cbec,b0c67b60-0cf9-44f5-9dd4-795d8cbd8dd9
2019-11-01 21:59:32,0359a608-ea1f-421f-bab3-1c9fc0572323,1,1383dc2f-80bf-46d2-a294-b6adfeb4cbec,d070c573-46e2-4760-9603-0124c1e9483d
2019-11-01 21:59:32,fe6b84fa-4a4d-4658-911e-186299267f92,1,1383dc2f-80bf-46d2-a294-b6adfeb4cbec,d070c573-46e2-4760-9603-0124c1e9483d
2019-11-01 21:59:32,25a94382-7d94-4cc2-a03a-3cc92e2dca6d,1,1383dc2f-80bf-46d2-a294-b6adfeb4cbec,af9c9105-c1b1-4413-9b45-fc1de8158842
2019-11-01 22:00:37,66d28ca5-1bc8-4175-92a5-bba93948b31b,1,1383dc2f-80bf-46d2-a294-b6adfeb4cbec,7b1306bf-bb83-433e-95a6-fddb5cdaaa39
2019-11-01 22:00:37,12646ea2-f964-413b-96d6-4dc62e3db89b,1,1383dc2f-80bf-46d2-a294-b6adfeb4cbec,eb3df129-e910-4327-9c82-56066dcf9010
2019-11-01 22:00:37,ad8c88af-67c7-4bf5-85d8-19c59d7f6925,1,1383dc2f-80bf-46d2-a294-b6adfeb4cbec,eb3df129-e910-4327-9c82-56066dcf9010
2019-11-01 22:02:19,df48a4c9-88e2-4e1f-a33d-88744d722e47,1,1383dc2f-80bf-46d2-a294-b6adfeb4cbec,805ba59a-7329-4488-b2f4-a93c337d376f
2019-11-01 22:02:42,000d96c5-b852-4461-8325-f297804080f2,1,1383dc2f-80bf-46d2-a294-b6adfeb4cbec,b9920d0a-1218-4ae7-81d0-040adc25a32e
2019-11-01 22:06:34,454fc0f5-2774-443a-955b-8331fdc2cf9d,1,1383dc2f-80bf-46d2-a294-b6adfeb4cbec,b0c67b60-0cf9-44f5-9dd4-795d8cbd8dd9
2019-11-01 22:12:38,4496c77b-1f15-4d94-acc0-c26d8461e733,1,1383dc2f-80bf-46d2-a294-b6adfeb4cbec,805ba59a-7329-4488-b2f4-a93c337d376f
2019-11-01 22:12:51,9561ce84-dd1f-4f3b-ab1e-54534b720282,1,1383dc2f-80bf-46d2-a294-b6adfeb4cbec,630e6c05-969c-45ee-b0ef-f1e75ee62fca
2019-11-01 22:13:06,61f85066-22b5-4f1e-a3a8-fa63dd9160c6,1,1383dc2f-80bf-46d2-a294-b6adfeb4cbec,5e68f4da-b45d-4111-9347-95b34964637f
2019-11-01 22:17:46,454fc0f5-2774-443a-955b-8331fdc2cf9d,1,1383dc2f-80bf-46d2-a294-b6adfeb4cbec,73bbd45d-c12d-49a9-b42d-a20444881cc3
2019-11-01 22:17:59,4496c77b-1f15-4d94-acc0-c26d8461e733,1,1383dc2f-80bf-46d2-a294-b6adfeb4cbec,805ba59a-7329-4488-b2f4-a93c337d376f
2019-11-01 22:18:31,b54519cc-be33-43eb-b70f-52d15401d7d5,1,1383dc2f-80bf-46d2-a294-b6adfeb4cbec,b5764d29-9e9f-4eff-96c1-880f28870d96
2019-11-01 22:18:54,0359a608-ea1f-421f-bab3-1c9fc0572323,1,1383dc2f-80bf-46d2-a294-b6adfeb4cbec,73bbd45d-c12d-49a9-b42d-a20444881cc3
2019-11-01 22:19:32,df48a4c9-88e2-4e1f-a33d-88744d722e47,1,1383dc2f-80bf-46d2-a294-b6adfeb4cbec,1c3a4fb0-30f1-4162-8e3b-c5ae8ad2f650
2019-11-01 22:19:42,d23a0ab0-3c39-4bfc-af88-0c415c88960c,1,1383dc2f-80bf-46d2-a294-b6adfeb4cbec,5e68f4da-b45d-4111-9347-95b34964637f
2019-11-01 22:19:44,61f85066-22b5-4f1e-a3a8-fa63dd9160c6,1,1383dc2f-80bf-46d2-a294-b6adfeb4cbec,41383d68-7d35-406b-9b31-549f61d00cb2
2019-11-01 22:20:15,4b21ad5a-8e71-48f7-8ad8-8576d2cc7011,1,1383dc2f-80bf-46d2-a294-b6adfeb4cbec,b5764d29-9e9f-4eff-96c1-880f28870d96
2019-11-01 22:23:22,db692285-d7f9-4932-a08a-b2fd5123886a,1,1383dc2f-80bf-46d2-a294-b6adfeb4cbec,b5764d29-9e9f-4eff-96c1-880f28870d96
2019-11-01 22:23:24,454fc0f5-2774-443a-955b-8331fdc2cf9d,1,1383dc2f-80bf-46d2-a294-b6adfeb4cbec,73bbd45d-c12d-49a9-b42d-a20444881cc3
2019-11-01 22:23:54,9561ce84-dd1f-4f3b-ab1e-54534b720282,1,1383dc2f-80bf-46d2-a294-b6adfeb4cbec,630e6c05-969c-45ee-b0ef-f1e75ee62fca
2019-11-01 22:25:35,df48a4c9-88e2-4e1f-a33d-88744d722e47,1,1383dc2f-80bf-46d2-a294-b6adfeb4cbec,b0c67b60-0cf9-44f5-9dd4-795d8cbd8dd9
2019-11-01 22:25:38,4b21ad5a-8e71-48f7-8ad8-8576d2cc7011,1,1383dc2f-80bf-46d2-a294-b6adfeb4cbec,c1ac9bba-a24e-40a3-9459-60a8f1079796
2019-11-01 22:26:21,4a41b834-ce08-4982-8c0a-21210033c3f1,1,1383dc2f-80bf-46d2-a294-b6adfeb4cbec,41383d68-7d35-406b-9b31-549f61d00cb2
2019-11-01 22:28:25,51094c4e-6761-4019-9a03-8df32a834c86,1,1383dc2f-80bf-46d2-a294-b6adfeb4cbec,5e68f4da-b45d-4111-9347-95b34964637f
2019-11-01 22:28:35,000d96c5-b852-4461-8325-f297804080f2,1,1383dc2f-80bf-46d2-a294-b6adfeb4cbec,b9920d0a-1218-4ae7-81d0-040adc25a32e
2019-11-01 22:28:41,f6b77326-c962-4bef-b33d-bdfe09f50928,1,1383dc2f-80bf-46d2-a294-b6adfeb4cbec,c1ac9bba-a24e-40a3-9459-60a8f1079796
2019-11-01 22:28:45,d98e91b1-eeb5-415b-8626-518dcb7cc532,1,1383dc2f-80bf-46d2-a294-b6adfeb4cbec,d070c573-46e2-4760-9603-0124c1e9483d
2019-11-01 22:28:57,454fc0f5-2774-443a-955b-8331fdc2cf9d,1,1383dc2f-80bf-46d2-a294-b6adfeb4cbec,b5764d29-9e9f-4eff-96c1-880f28870d96
2019-11-01 22:28:59,0359a608-ea1f-421f-bab3-1c9fc0572323,1,1383dc2f-80bf-46d2-a294-b6adfeb4cbec,73bbd45d-c12d-49a9-b42d-a20444881cc3
2019-11-01 22:30:25,4496c77b-1f15-4d94-acc0-c26d8461e733,1,1383dc2f-80bf-46d2-a294-b6adfeb4cbec,630e6c05-969c-45ee-b0ef-f1e75ee62fca
2019-11-01 22:31:13,df48a4c9-88e2-4e1f-a33d-88744d722e47,1,1383dc2f-80bf-46d2-a294-b6adfeb4cbec,b5764d29-9e9f-4eff-96c1-880f28870d96
2019-11-01 22:31:44,4a41b834-ce08-4982-8c0a-21210033c3f1,1,1383dc2f-80bf-46d2-a294-b6adfeb4cbec,41383d68-7d35-406b-9b31-549f61d00cb2
2019-11-01 22:35:44,4b21ad5a-8e71-48f7-8ad8-8576d2cc7011,1,1383dc2f-80bf-46d2-a294-b6adfeb4cbec,c1ac9bba-a24e-40a3-9459-60a8f1079796
2019-11-01 22:36:20,82da9758-a4b7-4605-9834-30a46e66ed6c,1,1383dc2f-80bf-46d2-a294-b6adfeb4cbec,b0c67b60-0cf9-44f5-9dd4-795d8cbd8dd9
2019-11-01 22:37:41,f6b77326-c962-4bef-b33d-bdfe09f50928,1,1383dc2f-80bf-46d2-a294-b6adfeb4cbec,fe884641-c823-4b6e-9e7c-edd75e9c8bcb
2019-11-01 22:40:06,d23a0ab0-3c39-4bfc-af88-0c415c88960c,1,1383dc2f-80bf-46d2-a294-b6adfeb4cbec,b9920d0a-1218-4ae7-81d0-040adc25a32e
2019-11-01 22:40:29,4a41b834-ce08-4982-8c0a-21210033c3f1,1,1383dc2f-80bf-46d2-a294-b6adfeb4cbec,b5764d29-9e9f-4eff-96c1-880f28870d96
2019-11-01 22:42:07,000d96c5-b852-4461-8325-f297804080f2,1,1383dc2f-80bf-46d2-a294-b6adfeb4cbec,fe884641-c823-4b6e-9e7c-edd75e9c8bcb
2019-11-01 22:42:48,438d6aa6-61b2-4f6b-8623-355b402f2783,1,1383dc2f-80bf-46d2-a294-b6adfeb4cbec,b0c67b60-0cf9-44f5-9dd4-795d8cbd8dd9
2019-11-01 22:42:49,454fc0f5-2774-443a-955b-8331fdc2cf9d,1,1383dc2f-80bf-46d2-a294-b6adfeb4cbec,73bbd45d-c12d-49a9-b42d-a20444881cc3
2019-11-01 22:42:49,d3f6c9a9-309d-45a4-a4ea-cab43f6a1296,1,1383dc2f-80bf-46d2-a294-b6adfeb4cbec,41383d68-7d35-406b-9b31-549f61d00cb2
2019-11-01 22:42:59,51094c4e-6761-4019-9a03-8df32a834c86,1,1383dc2f-80bf-46d2-a294-b6adfeb4cbec,5e68f4da-b45d-4111-9347-95b34964637f
2019-11-01 22:47:44,f6b77326-c962-4bef-b33d-bdfe09f50928,1,1383dc2f-80bf-46d2-a294-b6adfeb4cbec,fe884641-c823-4b6e-9e7c-edd75e9c8bcb
2019-11-01 22:49:33,4b21ad5a-8e71-48f7-8ad8-8576d2cc7011,1,1383dc2f-80bf-46d2-a294-b6adfeb4cbec,c1ac9bba-a24e-40a3-9459-60a8f1079796
2019-11-01 22:50:11,d3f6c9a9-309d-45a4-a4ea-cab43f6a1296,1,1383dc2f-80bf-46d2-a294-b6adfeb4cbec,5e68f4da-b45d-4111-9347-95b34964637f
2019-11-01 22:53:22,fb4d6eff-6a45-4a8b-a6c0-3da600a1d613,1,1383dc2f-80bf-46d2-a294-b6adfeb4cbec,630e6c05-969c-45ee-b0ef-f1e75ee62fca
2019-11-01 22:56:05,000d96c5-b852-4461-8325-f297804080f2,1,1383dc2f-80bf-46d2-a294-b6adfeb4cbec,b9920d0a-1218-4ae7-81d0-040adc25a32e
2019-11-01 22:56:49,e9a12e65-9051-4900-becb-7e88d82c1936,1,1383dc2f-80bf-46d2-a294-b6adfeb4cbec,95c349f2-c8f0-4c78-9699-4546752ff354
2019-11-01 22:57:04,f6b77326-c962-4bef-b33d-bdfe09f50928,1,1383dc2f-80bf-46d2-a294-b6adfeb4cbec,fe884641-c823-4b6e-9e7c-edd75e9c8bcb
2019-11-01 22:58:17,5b0c8acc-d5b4-43bf-845e-ae2b0c84ca98,1,1383dc2f-80bf-46d2-a294-b6adfeb4cbec,d070c573-46e2-4760-9603-0124c1e9483d
2019-11-01 22:58:48,9561ce84-dd1f-4f3b-ab1e-54534b720282,1,1383dc2f-80bf-46d2-a294-b6adfeb4cbec,630e6c05-969c-45ee-b0ef-f1e75ee62fca
2019-11-01 22:59:03,6a40635e-2567-4e12-8fae-508156442232,1,1383dc2f-80bf-46d2-a294-b6adfeb4cbec,eb3df129-e910-4327-9c82-56066dcf9010
2019-11-01 23:00:09,d3f6c9a9-309d-45a4-a4ea-cab43f6a1296,1,1383dc2f-80bf-46d2-a294-b6adfeb4cbec,5e68f4da-b45d-4111-9347-95b34964637f
2019-11-01 23:00:09,fb4d6eff-6a45-4a8b-a6c0-3da600a1d613,1,1383dc2f-80bf-46d2-a294-b6adfeb4cbec,630e6c05-969c-45ee-b0ef-f1e75ee62fca
2019-11-01 23:04:13,4b21ad5a-8e71-48f7-8ad8-8576d2cc7011,1,1383dc2f-80bf-46d2-a294-b6adfeb4cbec,1c3a4fb0-30f1-4162-8e3b-c5ae8ad2f650
2019-11-01 23:04:32,82da9758-a4b7-4605-9834-30a46e66ed6c,1,1383dc2f-80bf-46d2-a294-b6adfeb4cbec,b0c67b60-0cf9-44f5-9dd4-795d8cbd8dd9
2019-11-01 23:05:09,ce9dfb0d-f0d0-44cc-90a3-dbf48de72466,1,1383dc2f-80bf-46d2-a294-b6adfeb4cbec,1c3a4fb0-30f1-4162-8e3b-c5ae8ad2f650
2019-11-01 23:06:44,454fc0f5-2774-443a-955b-8331fdc2cf9d,1,1383dc2f-80bf-46d2-a294-b6adfeb4cbec,73bbd45d-c12d-49a9-b42d-a20444881cc3
2019-11-01 23:10:03,d3f6c9a9-309d-45a4-a4ea-cab43f6a1296,1,1383dc2f-80bf-46d2-a294-b6adfeb4cbec,5e68f4da-b45d-4111-9347-95b34964637f
2019-11-01 23:10:33,ce9dfb0d-f0d0-44cc-90a3-dbf48de72466,1,1383dc2f-80bf-46d2-a294-b6adfeb4cbec,fe884641-c823-4b6e-9e7c-edd75e9c8bcb
2019-11-01 23:12:51,82da9758-a4b7-4605-9834-30a46e66ed6c,1,1383dc2f-80bf-46d2-a294-b6adfeb4cbec,7a9bdc48-9771-49d9-9903-cdfb2ef80c93
2019-11-01 23:14:29,9561ce84-dd1f-4f3b-ab1e-54534b720282,1,1383dc2f-80bf-46d2-a294-b6adfeb4cbec,c1ac9bba-a24e-40a3-9459-60a8f1079796
2019-11-01 23:14:39,d23a0ab0-3c39-4bfc-af88-0c415c88960c,1,1383dc2f-80bf-46d2-a294-b6adfeb4cbec,95c349f2-c8f0-4c78-9699-4546752ff354
2019-11-01 21:13:02,4a17c849-9178-4846-9c0f-3647d3a53fb8,1,eb3df129-e910-4327-9c82-56066dcf9010,805ba59a-7329-4488-b2f4-a93c337d376f
2019-11-01 21:28:10,51094c4e-6761-4019-9a03-8df32a834c86,1,eb3df129-e910-4327-9c82-56066dcf9010,5e68f4da-b45d-4111-9347-95b34964637f
2019-11-01 21:44:55,d23a0ab0-3c39-4bfc-af88-0c415c88960c,1,eb3df129-e910-4327-9c82-56066dcf9010,805ba59a-7329-4488-b2f4-a93c337d376f
2019-11-01 21:53:59,db692285-d7f9-4932-a08a-b2fd5123886a,1,eb3df129-e910-4327-9c82-56066dcf9010,b5764d29-9e9f-4eff-96c1-880f28870d96
2019-11-01 21:56:42,eb98926d-41a1-4817-b571-bd244f603e02,1,eb3df129-e910-4327-9c82-56066dcf9010,805ba59a-7329-4488-b2f4-a93c337d376f
2019-11-01 22:03:42,12646ea2-f964-413b-96d6-4dc62e3db89b,1,eb3df129-e910-4327-9c82-56066dcf9010,b5764d29-9e9f-4eff-96c1-880f28870d96
2019-11-01 22:13:34,0359a608-ea1f-421f-bab3-1c9fc0572323,1,eb3df129-e910-4327-9c82-56066dcf9010,73bbd45d-c12d-49a9-b42d-a20444881cc3
2019-11-01 22:23:34,6a40635e-2567-4e12-8fae-508156442232,1,eb3df129-e910-4327-9c82-56066dcf9010,73bbd45d-c12d-49a9-b42d-a20444881cc3
2019-11-01 22:23:53,f6b77326-c962-4bef-b33d-bdfe09f50928,1,eb3df129-e910-4327-9c82-56066dcf9010,1383dc2f-80bf-46d2-a294-b6adfeb4cbec
2019-11-01 22:52:12,f6b77326-c962-4bef-b33d-bdfe09f50928,1,eb3df129-e910-4327-9c82-56066dcf9010,1383dc2f-80bf-46d2-a294-b6adfeb4cbec
2019-11-01 23:06:31,6a40635e-2567-4e12-8fae-508156442232,1,eb3df129-e910-4327-9c82-56066dcf9010,630e6c05-969c-45ee-b0ef-f1e75ee62fca
2019-11-01 23:06:31,db692285-d7f9-4932-a08a-b2fd5123886a,1,eb3df129-e910-4327-9c82-56066dcf9010,805ba59a-7329-4488-b2f4-a93c337d376f
2019-11-01 23:08:52,963db3cd-389a-4406-bc25-f98bf42a0c7c,1,eb3df129-e910-4327-9c82-56066dcf9010,630e6c05-969c-45ee-b0ef-f1e75ee62fca
2019-11-01 23:13:54,51094c4e-6761-4019-9a03-8df32a834c86,1,eb3df129-e910-4327-9c82-56066dcf9010,1383dc2f-80bf-46d2-a294-b6adfeb4cbec
2019-11-01 23:17:21,6a40635e-2567-4e12-8fae-508156442232,1,eb3df129-e910-4327-9c82-56066dcf9010,630e6c05-969c-45ee-b0ef-f1e75ee62fca
2019-11-01 23:17:21,000d96c5-b852-4461-8325-f297804080f2,1,eb3df129-e910-4327-9c82-56066dcf9010,630e6c05-969c-45ee-b0ef-f1e75ee62fca
2019-11-01 21:28:13,f38814d2-b7bd-4196-a5e4-46a05fd7ad62,1,41383d68-7d35-406b-9b31-549f61d00cb2,73bbd45d-c12d-49a9-b42d-a20444881cc3
2019-11-01 21:30:04,963db3cd-389a-4406-bc25-f98bf42a0c7c,1,41383d68-7d35-406b-9b31-549f61d00cb2,630e6c05-969c-45ee-b0ef-f1e75ee62fca
2019-11-01 21:38:12,4b21ad5a-8e71-48f7-8ad8-8576d2cc7011,1,41383d68-7d35-406b-9b31-549f61d00cb2,805ba59a-7329-4488-b2f4-a93c337d376f
2019-11-01 21:39:58,3f1e68e6-e496-4d1a-b96e-c6092836b6bf,1,41383d68-7d35-406b-9b31-549f61d00cb2,b0c67b60-0cf9-44f5-9dd4-795d8cbd8dd9
2019-11-01 21:44:15,fe03cb81-57bd-4edb-a338-3056862b4017,1,41383d68-7d35-406b-9b31-549f61d00cb2,630e6c05-969c-45ee-b0ef-f1e75ee62fca
2019-11-01 21:44:32,e9a12e65-9051-4900-becb-7e88d82c1936,1,41383d68-7d35-406b-9b31-549f61d00cb2,95c349f2-c8f0-4c78-9699-4546752ff354
2019-11-01 21:44:33,4a41b834-ce08-4982-8c0a-21210033c3f1,1,41383d68-7d35-406b-9b31-549f61d00cb2,1c3a4fb0-30f1-4162-8e3b-c5ae8ad2f650
2019-11-01 21:46:18,4496c77b-1f15-4d94-acc0-c26d8461e733,1,41383d68-7d35-406b-9b31-549f61d00cb2,805ba59a-7329-4488-b2f4-a93c337d376f
2019-11-01 21:59:52,d3f6c9a9-309d-45a4-a4ea-cab43f6a1296,1,41383d68-7d35-406b-9b31-549f61d00cb2,5e68f4da-b45d-4111-9347-95b34964637f
2019-11-01 22:03:17,fb4d6eff-6a45-4a8b-a6c0-3da600a1d613,1,41383d68-7d35-406b-9b31-549f61d00cb2,b0c67b60-0cf9-44f5-9dd4-795d8cbd8dd9
2019-11-01 22:14:43,61f85066-22b5-4f1e-a3a8-fa63dd9160c6,1,41383d68-7d35-406b-9b31-549f61d00cb2,1383dc2f-80bf-46d2-a294-b6adfeb4cbec
2019-11-01 22:20:46,61f85066-22b5-4f1e-a3a8-fa63dd9160c6,1,41383d68-7d35-406b-9b31-549f61d00cb2,7a9bdc48-9771-49d9-9903-cdfb2ef80c93
2019-11-01 22:20:47,4a41b834-ce08-4982-8c0a-21210033c3f1,1,41383d68-7d35-406b-9b31-549f61d00cb2,1c3a4fb0-30f1-4162-8e3b-c5ae8ad2f650
2019-11-01 22:24:04,0359a608-ea1f-421f-bab3-1c9fc0572323,1,41383d68-7d35-406b-9b31-549f61d00cb2,1383dc2f-80bf-46d2-a294-b6adfeb4cbec
2019-11-01 22:26:40,4a41b834-ce08-4982-8c0a-21210033c3f1,1,41383d68-7d35-406b-9b31-549f61d00cb2,1383dc2f-80bf-46d2-a294-b6adfeb4cbec
2019-11-01 22:35:12,4a41b834-ce08-4982-8c0a-21210033c3f1,1,41383d68-7d35-406b-9b31-549f61d00cb2,1c3a4fb0-30f1-4162-8e3b-c5ae8ad2f650
2019-11-01 22:43:04,d3f6c9a9-309d-45a4-a4ea-cab43f6a1296,1,41383d68-7d35-406b-9b31-549f61d00cb2,5e68f4da-b45d-4111-9347-95b34964637f
2019-11-01 23:08:45,e7bf9515-5c68-467d-b7a4-eac49df469e7,1,41383d68-7d35-406b-9b31-549f61d00cb2,1c3a4fb0-30f1-4162-8e3b-c5ae8ad2f650
2019-11-01 23:12:06,051bd133-f0fc-4e06-9f8c-f01c98f9c735,1,41383d68-7d35-406b-9b31-549f61d00cb2,7a9bdc48-9771-49d9-9903-cdfb2ef80c93
2019-11-01 23:15:20,fb4d6eff-6a45-4a8b-a6c0-3da600a1d613,1,41383d68-7d35-406b-9b31-549f61d00cb2,1383dc2f-80bf-46d2-a294-b6adfeb4cbec
2019-11-01 23:15:21,d94cd5ba-2511-48c4-b004-df26013f9009,1,41383d68-7d35-406b-9b31-549f61d00cb2,1383dc2f-80bf-46d2-a294-b6adfeb4cbec
2019-11-01 21:26:23,454fc0f5-2774-443a-955b-8331fdc2cf9d,1,1c3a4fb0-30f1-4162-8e3b-c5ae8ad2f650,73bbd45d-c12d-49a9-b42d-a20444881cc3
2019-11-01 21:26:33,51094c4e-6761-4019-9a03-8df32a834c86,1,1c3a4fb0-30f1-4162-8e3b-c5ae8ad2f650,eb3df129-e910-4327-9c82-56066dcf9010
2019-11-01 21:44:13,4a41b834-ce08-4982-8c0a-21210033c3f1,1,1c3a4fb0-30f1-4162-8e3b-c5ae8ad2f650,41383d68-7d35-406b-9b31-549f61d00cb2
2019-11-01 21:44:44,000d96c5-b852-4461-8325-f297804080f2,1,1c3a4fb0-30f1-4162-8e3b-c5ae8ad2f650,b9920d0a-1218-4ae7-81d0-040adc25a32e
2019-11-01 21:51:28,4a41b834-ce08-4982-8c0a-21210033c3f1,1,1c3a4fb0-30f1-4162-8e3b-c5ae8ad2f650,7a9bdc48-9771-49d9-9903-cdfb2ef80c93
2019-11-01 21:51:28,df48a4c9-88e2-4e1f-a33d-88744d722e47,1,1c3a4fb0-30f1-4162-8e3b-c5ae8ad2f650,b5764d29-9e9f-4eff-96c1-880f28870d96
2019-11-01 21:52:19,000d96c5-b852-4461-8325-f297804080f2,1,1c3a4fb0-30f1-4162-8e3b-c5ae8ad2f650,1383dc2f-80bf-46d2-a294-b6adfeb4cbec
2019-11-01 21:53:41,d98e91b1-eeb5-415b-8626-518dcb7cc532,1,1c3a4fb0-30f1-4162-8e3b-c5ae8ad2f650,b5764d29-9e9f-4eff-96c1-880f28870d96
2019-11-01 21:57:13,82da9758-a4b7-4605-9834-30a46e66ed6c,1,1c3a4fb0-30f1-4162-8e3b-c5ae8ad2f650,1383dc2f-80bf-46d2-a294-b6adfeb4cbec
2019-11-01 21:58:49,16478d4b-64e7-46d2-95f0-04339b2bf05e,1,1c3a4fb0-30f1-4162-8e3b-c5ae8ad2f650,5e68f4da-b45d-4111-9347-95b34964637f
2019-11-01 21:59:05,d6d29e87-5359-40a4-8377-6783850fb204,1,1c3a4fb0-30f1-4162-8e3b-c5ae8ad2f650,805ba59a-7329-4488-b2f4-a93c337d376f
2019-11-01 22:13:51,4a41b834-ce08-4982-8c0a-21210033c3f1,1,1c3a4fb0-30f1-4162-8e3b-c5ae8ad2f650,41383d68-7d35-406b-9b31-549f61d00cb2
2019-11-01 22:13:52,000d96c5-b852-4461-8325-f297804080f2,1,1c3a4fb0-30f1-4162-8e3b-c5ae8ad2f650,b9920d0a-1218-4ae7-81d0-040adc25a32e
2019-11-01 22:19:54,9561ce84-dd1f-4f3b-ab1e-54534b720282,1,1c3a4fb0-30f1-4162-8e3b-c5ae8ad2f650,1383dc2f-80bf-46d2-a294-b6adfeb4cbec
2019-11-01 22:20:17,df48a4c9-88e2-4e1f-a33d-88744d722e47,1,1c3a4fb0-30f1-4162-8e3b-c5ae8ad2f650,805ba59a-7329-4488-b2f4-a93c337d376f
2019-11-01 22:21:13,4a41b834-ce08-4982-8c0a-21210033c3f1,1,1c3a4fb0-30f1-4162-8e3b-c5ae8ad2f650,1383dc2f-80bf-46d2-a294-b6adfeb4cbec
2019-11-01 22:27:31,3f1e68e6-e496-4d1a-b96e-c6092836b6bf,1,1c3a4fb0-30f1-4162-8e3b-c5ae8ad2f650,b0c67b60-0cf9-44f5-9dd4-795d8cbd8dd9
2019-11-01 22:36:35,4a41b834-ce08-4982-8c0a-21210033c3f1,1,1c3a4fb0-30f1-4162-8e3b-c5ae8ad2f650,1383dc2f-80bf-46d2-a294-b6adfeb4cbec
2019-11-01 22:36:35,ce9dfb0d-f0d0-44cc-90a3-dbf48de72466,1,1c3a4fb0-30f1-4162-8e3b-c5ae8ad2f650,fe884641-c823-4b6e-9e7c-edd75e9c8bcb
2019-11-01 22:54:17,16478d4b-64e7-46d2-95f0-04339b2bf05e,1,1c3a4fb0-30f1-4162-8e3b-c5ae8ad2f650,fe884641-c823-4b6e-9e7c-edd75e9c8bcb
2019-11-01 22:59:27,ce9dfb0d-f0d0-44cc-90a3-dbf48de72466,1,1c3a4fb0-30f1-4162-8e3b-c5ae8ad2f650,1383dc2f-80bf-46d2-a294-b6adfeb4cbec
2019-11-01 22:59:28,82da9758-a4b7-4605-9834-30a46e66ed6c,1,1c3a4fb0-30f1-4162-8e3b-c5ae8ad2f650,1383dc2f-80bf-46d2-a294-b6adfeb4cbec
2019-11-01 23:00:50,90a4a555-7232-40ea-8b0a-dd63bc5fe6be,1,1c3a4fb0-30f1-4162-8e3b-c5ae8ad2f650,805ba59a-7329-4488-b2f4-a93c337d376f
2019-11-01 23:05:29,ce9dfb0d-f0d0-44cc-90a3-dbf48de72466,1,1c3a4fb0-30f1-4162-8e3b-c5ae8ad2f650,1383dc2f-80bf-46d2-a294-b6adfeb4cbec
2019-11-01 23:13:47,4b21ad5a-8e71-48f7-8ad8-8576d2cc7011,1,1c3a4fb0-30f1-4162-8e3b-c5ae8ad2f650,805ba59a-7329-4488-b2f4-a93c337d376f
2019-11-01 21:38:41,4a41b834-ce08-4982-8c0a-21210033c3f1,1,7a9bdc48-9771-49d9-9903-cdfb2ef80c93,1c3a4fb0-30f1-4162-8e3b-c5ae8ad2f650
2019-11-01 21:51:43,61f85066-22b5-4f1e-a3a8-fa63dd9160c6,1,7a9bdc48-9771-49d9-9903-cdfb2ef80c93,b5764d29-9e9f-4eff-96c1-880f28870d96
2019-11-01 21:56:59,df48a4c9-88e2-4e1f-a33d-88744d722e47,1,7a9bdc48-9771-49d9-9903-cdfb2ef80c93,b5764d29-9e9f-4eff-96c1-880f28870d96
2019-11-01 21:57:01,4a41b834-ce08-4982-8c0a-21210033c3f1,1,7a9bdc48-9771-49d9-9903-cdfb2ef80c93,1c3a4fb0-30f1-4162-8e3b-c5ae8ad2f650
2019-11-01 22:10:02,61f85066-22b5-4f1e-a3a8-fa63dd9160c6,1,7a9bdc48-9771-49d9-9903-cdfb2ef80c93,1383dc2f-80bf-46d2-a294-b6adfeb4cbec
2019-11-01 22:17:14,051bd133-f0fc-4e06-9f8c-f01c98f9c735,1,7a9bdc48-9771-49d9-9903-cdfb2ef80c93,41383d68-7d35-406b-9b31-549f61d00cb2
2019-11-01 22:31:07,82da9758-a4b7-4605-9834-30a46e66ed6c,1,7a9bdc48-9771-49d9-9903-cdfb2ef80c93,1383dc2f-80bf-46d2-a294-b6adfeb4cbec
2019-11-01 22:46:10,61f85066-22b5-4f1e-a3a8-fa63dd9160c6,1,7a9bdc48-9771-49d9-9903-cdfb2ef80c93,630e6c05-969c-45ee-b0ef-f1e75ee62fca
2019-11-01 22:46:10,82da9758-a4b7-4605-9834-30a46e66ed6c,1,7a9bdc48-9771-49d9-9903-cdfb2ef80c93,c1ac9bba-a24e-40a3-9459-60a8f1079796
2019-11-01 23:05:07,82da9758-a4b7-4605-9834-30a46e66ed6c,1,7a9bdc48-9771-49d9-9903-cdfb2ef80c93,1383dc2f-80bf-46d2-a294-b6adfeb4cbec
2019-11-01 23:13:08,b54519cc-be33-43eb-b70f-52d15401d7d5,1,7a9bdc48-9771-49d9-9903-cdfb2ef80c93,805ba59a-7329-4488-b2f4-a93c337d376f
2019-11-01 21:15:32,6a40635e-2567-4e12-8fae-508156442232,1,fe884641-c823-4b6e-9e7c-edd75e9c8bcb,630e6c05-969c-45ee-b0ef-f1e75ee62fca
2019-11-01 21:26:21,5b0c8acc-d5b4-43bf-845e-ae2b0c84ca98,1,fe884641-c823-4b6e-9e7c-edd75e9c8bcb,d070c573-46e2-4760-9603-0124c1e9483d
2019-11-01 21:31:03,a3fd4a14-7ad2-4db0-8f77-f1cd39b077c1,1,fe884641-c823-4b6e-9e7c-edd75e9c8bcb,630e6c05-969c-45ee-b0ef-f1e75ee62fca
2019-11-01 22:00:21,90a4a555-7232-40ea-8b0a-dd63bc5fe6be,1,fe884641-c823-4b6e-9e7c-edd75e9c8bcb,b9920d0a-1218-4ae7-81d0-040adc25a32e
2019-11-01 22:00:41,da9f90ee-c957-43d7-bb2c-bbdfe80e3dbf,1,fe884641-c823-4b6e-9e7c-edd75e9c8bcb,c1ac9bba-a24e-40a3-9459-60a8f1079796
2019-11-01 22:07:48,4496c77b-1f15-4d94-acc0-c26d8461e733,1,fe884641-c823-4b6e-9e7c-edd75e9c8bcb,1383dc2f-80bf-46d2-a294-b6adfeb4cbec
2019-11-01 22:23:17,f6b77326-c962-4bef-b33d-bdfe09f50928,1,fe884641-c823-4b6e-9e7c-edd75e9c8bcb,eb3df129-e910-4327-9c82-56066dcf9010
2019-11-01 22:23:20,51094c4e-6761-4019-9a03-8df32a834c86,1,fe884641-c823-4b6e-9e7c-edd75e9c8bcb,1383dc2f-80bf-46d2-a294-b6adfeb4cbec
2019-11-01 22:25:06,000d96c5-b852-4461-8325-f297804080f2,1,fe884641-c823-4b6e-9e7c-edd75e9c8bcb,1383dc2f-80bf-46d2-a294-b6adfeb4cbec
2019-11-01 22:25:08,4496c77b-1f15-4d94-acc0-c26d8461e733,1,fe884641-c823-4b6e-9e7c-edd75e9c8bcb,b0c67b60-0cf9-44f5-9dd4-795d8cbd8dd9
2019-11-01 22:26:20,eaa597f1-9b55-4d3d-9152-33e986a81fb5,1,fe884641-c823-4b6e-9e7c-edd75e9c8bcb,630e6c05-969c-45ee-b0ef-f1e75ee62fca
2019-11-01 22:30:58,f6b77326-c962-4bef-b33d-bdfe09f50928,1,fe884641-c823-4b6e-9e7c-edd75e9c8bcb,1383dc2f-80bf-46d2-a294-b6adfeb4cbec
2019-11-01 22:36:50,ce9dfb0d-f0d0-44cc-90a3-dbf48de72466,1,fe884641-c823-4b6e-9e7c-edd75e9c8bcb,1c3a4fb0-30f1-4162-8e3b-c5ae8ad2f650
2019-11-01 22:36:51,000d96c5-b852-4461-8325-f297804080f2,1,fe884641-c823-4b6e-9e7c-edd75e9c8bcb,b9920d0a-1218-4ae7-81d0-040adc25a32e
2019-11-01 22:42:41,f6b77326-c962-4bef-b33d-bdfe09f50928,1,fe884641-c823-4b6e-9e7c-edd75e9c8bcb,1383dc2f-80bf-46d2-a294-b6adfeb4cbec
2019-11-01 22:50:46,000d96c5-b852-4461-8325-f297804080f2,1,fe884641-c823-4b6e-9e7c-edd75e9c8bcb,b9920d0a-1218-4ae7-81d0-040adc25a32e
2019-11-01 22:51:47,f6b77326-c962-4bef-b33d-bdfe09f50928,1,fe884641-c823-4b6e-9e7c-edd75e9c8bcb,eb3df129-e910-4327-9c82-56066dcf9010
2019-11-01 22:51:47,5b0c8acc-d5b4-43bf-845e-ae2b0c84ca98,1,fe884641-c823-4b6e-9e7c-edd75e9c8bcb,d070c573-46e2-4760-9603-0124c1e9483d
2019-11-01 23:13:33,16478d4b-64e7-46d2-95f0-04339b2bf05e,1,fe884641-c823-4b6e-9e7c-edd75e9c8bcb,805ba59a-7329-4488-b2f4-a93c337d376f
2019-11-01 21:46:32,d23a0ab0-3c39-4bfc-af88-0c415c88960c,1,805ba59a-7329-4488-b2f4-a93c337d376f,b9920d0a-1218-4ae7-81d0-040adc25a32e
2019-11-01 21:51:34,4b21ad5a-8e71-48f7-8ad8-8576d2cc7011,1,805ba59a-7329-4488-b2f4-a93c337d376f,c1ac9bba-a24e-40a3-9459-60a8f1079796
2019-11-01 21:58:05,4496c77b-1f15-4d94-acc0-c26d8461e733,1,805ba59a-7329-4488-b2f4-a93c337d376f,b0c67b60-0cf9-44f5-9dd4-795d8cbd8dd9
2019-11-01 21:59:03,eb98926d-41a1-4817-b571-bd244f603e02,1,805ba59a-7329-4488-b2f4-a93c337d376f,eb3df129-e910-4327-9c82-56066dcf9010
2019-11-01 22:03:52,db692285-d7f9-4932-a08a-b2fd5123886a,1,805ba59a-7329-4488-b2f4-a93c337d376f,73bbd45d-c12d-49a9-b42d-a20444881cc3
2019-11-01 22:12:53,df48a4c9-88e2-4e1f-a33d-88744d722e47,1,805ba59a-7329-4488-b2f4-a93c337d376f,b0c67b60-0cf9-44f5-9dd4-795d8cbd8dd9
2019-11-01 22:12:58,4496c77b-1f15-4d94-acc0-c26d8461e733,1,805ba59a-7329-4488-b2f4-a93c337d376f,1383dc2f-80bf-46d2-a294-b6adfeb4cbec
2019-11-01 22:12:58,b54519cc-be33-43eb-b70f-52d15401d7d5,1,805ba59a-7329-4488-b2f4-a93c337d376f,b5764d29-9e9f-4eff-96c1-880f28870d96
2019-11-01 22:14:25,b54519cc-be33-43eb-b70f-52d15401d7d5,1,805ba59a-7329-4488-b2f4-a93c337d376f,1383dc2f-80bf-46d2-a294-b6adfeb4cbec
2019-11-01 22:14:52,df48a4c9-88e2-4e1f-a33d-88744d722e47,1,805ba59a-7329-4488-b2f4-a93c337d376f,1383dc2f-80bf-46d2-a294-b6adfeb4cbec
2019-11-01 22:14:54,4b21ad5a-8e71-48f7-8ad8-8576d2cc7011,1,805ba59a-7329-4488-b2f4-a93c337d376f,c1ac9bba-a24e-40a3-9459-60a8f1079796
2019-11-01 22:23:54,4a17c849-9178-4846-9c0f-3647d3a53fb8,1,805ba59a-7329-4488-b2f4-a93c337d376f,b9920d0a-1218-4ae7-81d0-040adc25a32e
2019-11-01 22:24:52,4496c77b-1f15-4d94-acc0-c26d8461e733,1,805ba59a-7329-4488-b2f4-a93c337d376f,fe884641-c823-4b6e-9e7c-edd75e9c8bcb
2019-11-01 22:24:53,df48a4c9-88e2-4e1f-a33d-88744d722e47,1,805ba59a-7329-4488-b2f4-a93c337d376f,1383dc2f-80bf-46d2-a294-b6adfeb4cbec
2019-11-01 22:37:55,4496c77b-1f15-4d94-acc0-c26d8461e733,1,805ba59a-7329-4488-b2f4-a93c337d376f,b0c67b60-0cf9-44f5-9dd4-795d8cbd8dd9
2019-11-01 22:37:59,51094c4e-6761-4019-9a03-8df32a834c86,1,805ba59a-7329-4488-b2f4-a93c337d376f,1383dc2f-80bf-46d2-a294-b6adfeb4cbec
2019-11-01 22:40:06,12646ea2-f964-413b-96d6-4dc62e3db89b,1,805ba59a-7329-4488-b2f4-a93c337d376f,b5764d29-9e9f-4eff-96c1-880f28870d96
2019-11-01 22:45:50,4b21ad5a-8e71-48f7-8ad8-8576d2cc7011,1,805ba59a-7329-4488-b2f4-a93c337d376f,1383dc2f-80bf-46d2-a294-b6adfeb4cbec
2019-11-01 22:47:28,d6d29e87-5359-40a4-8377-6783850fb204,1,805ba59a-7329-4488-b2f4-a93c337d376f,95c349f2-c8f0-4c78-9699-4546752ff354
2019-11-01 22:49:11,585263f1-83f2-4bd5-8b06-05331d798957,1,805ba59a-7329-4488-b2f4-a93c337d376f,b5764d29-9e9f-4eff-96c1-880f28870d96
2019-11-01 22:49:56,b54519cc-be33-43eb-b70f-52d15401d7d5,1,805ba59a-7329-4488-b2f4-a93c337d376f,73bbd45d-c12d-49a9-b42d-a20444881cc3
2019-11-01 22:59:13,4b21ad5a-8e71-48f7-8ad8-8576d2cc7011,1,805ba59a-7329-4488-b2f4-a93c337d376f,1383dc2f-80bf-46d2-a294-b6adfeb4cbec
2019-11-01 23:06:44,438d6aa6-61b2-4f6b-8623-355b402f2783,1,805ba59a-7329-4488-b2f4-a93c337d376f,b0c67b60-0cf9-44f5-9dd4-795d8cbd8dd9
2019-11-01 23:14:02,4b21ad5a-8e71-48f7-8ad8-8576d2cc7011,1,805ba59a-7329-4488-b2f4-a93c337d376f,c1ac9bba-a24e-40a3-9459-60a8f1079796
2019-11-01 23:14:04,b54519cc-be33-43eb-b70f-52d15401d7d5,1,805ba59a-7329-4488-b2f4-a93c337d376f,1383dc2f-80bf-46d2-a294-b6adfeb4cbec
2019-11-01 23:15:14,db692285-d7f9-4932-a08a-b2fd5123886a,1,805ba59a-7329-4488-b2f4-a93c337d376f,630e6c05-969c-45ee-b0ef-f1e75ee62fca
2019-11-01 21:25:53,f6b77326-c962-4bef-b33d-bdfe09f50928,1,b9920d0a-1218-4ae7-81d0-040adc25a32e,95c349f2-c8f0-4c78-9699-4546752ff354
2019-11-01 21:44:17,e9a12e65-9051-4900-becb-7e88d82c1936,1,b9920d0a-1218-4ae7-81d0-040adc25a32e,41383d68-7d35-406b-9b31-549f61d00cb2
2019-11-01 21:46:40,000d96c5-b852-4461-8325-f297804080f2,1,b9920d0a-1218-4ae7-81d0-040adc25a32e,1383dc2f-80bf-46d2-a294-b6adfeb4cbec
2019-11-01 21:46:40,d3f6c9a9-309d-45a4-a4ea-cab43f6a1296,1,b9920d0a-1218-4ae7-81d0-040adc25a32e,41383d68-7d35-406b-9b31-549f61d00cb2
2019-11-01 21:51:18,d6d29e87-5359-40a4-8377-6783850fb204,1,b9920d0a-1218-4ae7-81d0-040adc25a32e,1c3a4fb0-30f1-4162-8e3b-c5ae8ad2f650
2019-11-01 21:57:08,5de5c2fb-c77a-46d4-a1b2-4442a29a2619,1,b9920d0a-1218-4ae7-81d0-040adc25a32e,b9920d0a-1218-4ae7-81d0-040adc25a32e
2019-11-01 21:57:23,d23a0ab0-3c39-4bfc-af88-0c415c88960c,1,b9920d0a-1218-4ae7-81d0-040adc25a32e,c1ac9bba-a24e-40a3-9459-60a8f1079796
2019-11-01 21:57:23,000d96c5-b852-4461-8325-f297804080f2,1,b9920d0a-1218-4ae7-81d0-040adc25a32e,630e6c05-969c-45ee-b0ef-f1e75ee62fca
2019-11-01 22:13:34,d23a0ab0-3c39-4bfc-af88-0c415c88960c,1,b9920d0a-1218-4ae7-81d0-040adc25a32e,c1ac9bba-a24e-40a3-9459-60a8f1079796
2019-11-01 22:13:37,000d96c5-b852-4461-8325-f297804080f2,1,b9920d0a-1218-4ae7-81d0-040adc25a32e,1c3a4fb0-30f1-4162-8e3b-c5ae8ad2f650
2019-11-01 22:23:10,d3f6c9a9-309d-45a4-a4ea-cab43f6a1296,1,b9920d0a-1218-4ae7-81d0-040adc25a32e,5e68f4da-b45d-4111-9347-95b34964637f
2019-11-01 22:23:17,000d96c5-b852-4461-8325-f297804080f2,1,b9920d0a-1218-4ae7-81d0-040adc25a32e,fe884641-c823-4b6e-9e7c-edd75e9c8bcb
2019-11-01 22:31:48,90a4a555-7232-40ea-8b0a-dd63bc5fe6be,1,b9920d0a-1218-4ae7-81d0-040adc25a32e,1c3a4fb0-30f1-4162-8e3b-c5ae8ad2f650
2019-11-01 22:34:59,000d96c5-b852-4461-8325-f297804080f2,1,b9920d0a-1218-4ae7-81d0-040adc25a32e,fe884641-c823-4b6e-9e7c-edd75e9c8bcb
2019-11-01 22:36:33,5de5c2fb-c77a-46d4-a1b2-4442a29a2619,1,b9920d0a-1218-4ae7-81d0-040adc25a32e,41383d68-7d35-406b-9b31-549f61d00cb2
2019-11-01 22:37:03,d23a0ab0-3c39-4bfc-af88-0c415c88960c,1,b9920d0a-1218-4ae7-81d0-040adc25a32e,1383dc2f-80bf-46d2-a294-b6adfeb4cbec
2019-11-01 22:40:19,000d96c5-b852-4461-8325-f297804080f2,1,b9920d0a-1218-4ae7-81d0-040adc25a32e,1383dc2f-80bf-46d2-a294-b6adfeb4cbec
2019-11-01 22:41:05,bdba6f3d-3e30-4c00-80f0-4b6ec40861c1,1,b9920d0a-1218-4ae7-81d0-040adc25a32e,b0c67b60-0cf9-44f5-9dd4-795d8cbd8dd9
2019-11-01 22:51:25,d23a0ab0-3c39-4bfc-af88-0c415c88960c,1,b9920d0a-1218-4ae7-81d0-040adc25a32e,95c349f2-c8f0-4c78-9699-4546752ff354
2019-11-01 22:51:27,000d96c5-b852-4461-8325-f297804080f2,1,b9920d0a-1218-4ae7-81d0-040adc25a32e,1383dc2f-80bf-46d2-a294-b6adfeb4cbec
2019-11-01 23:09:36,d23a0ab0-3c39-4bfc-af88-0c415c88960c,1,b9920d0a-1218-4ae7-81d0-040adc25a32e,1383dc2f-80bf-46d2-a294-b6adfeb4cbec
2019-11-01 23:17:06,d23a0ab0-3c39-4bfc-af88-0c415c88960c,1,b9920d0a-1218-4ae7-81d0-040adc25a32e,1383dc2f-80bf-46d2-a294-b6adfeb4cbec
2019-11-01 23:17:06,000d96c5-b852-4461-8325-f297804080f2,1,b9920d0a-1218-4ae7-81d0-040adc25a32e,eb3df129-e910-4327-9c82-56066dcf9010
2019-11-01 21:17:23,bdba6f3d-3e30-4c00-80f0-4b6ec40861c1,1,b5764d29-9e9f-4eff-96c1-880f28870d96,b9920d0a-1218-4ae7-81d0-040adc25a32e
2019-11-01 21:51:58,61f85066-22b5-4f1e-a3a8-fa63dd9160c6,1,b5764d29-9e9f-4eff-96c1-880f28870d96,630e6c05-969c-45ee-b0ef-f1e75ee62fca
2019-11-01 21:51:59,df48a4c9-88e2-4e1f-a33d-88744d722e47,1,b5764d29-9e9f-4eff-96c1-880f28870d96,1383dc2f-80bf-46d2-a294-b6adfeb4cbec
2019-11-01 21:57:51,df48a4c9-88e2-4e1f-a33d-88744d722e47,1,b5764d29-9e9f-4eff-96c1-880f28870d96,1383dc2f-80bf-46d2-a294-b6adfeb4cbec
2019-11-01 22:03:37,db692285-d7f9-4932-a08a-b2fd5123886a,1,b5764d29-9e9f-4eff-96c1-880f28870d96,805ba59a-7329-4488-b2f4-a93c337d376f
2019-11-01 22:06:48,9561ce84-dd1f-4f3b-ab1e-54534b720282,1,b5764d29-9e9f-4eff-96c1-880f28870d96,630e6c05-969c-45ee-b0ef-f1e75ee62fca
2019-11-01 22:07:21,12646ea2-f964-413b-96d6-4dc62e3db89b,1,b5764d29-9e9f-4eff-96c1-880f28870d96,805ba59a-7329-4488-b2f4-a93c337d376f
2019-11-01 22:13:13,b54519cc-be33-43eb-b70f-52d15401d7d5,1,b5764d29-9e9f-4eff-96c1-880f28870d96,805ba59a-7329-4488-b2f4-a93c337d376f
2019-11-01 22:19:21,db692285-d7f9-4932-a08a-b2fd5123886a,1,b5764d29-9e9f-4eff-96c1-880f28870d96,1383dc2f-80bf-46d2-a294-b6adfeb4cbec
2019-11-01 22:20:34,4b21ad5a-8e71-48f7-8ad8-8576d2cc7011,1,b5764d29-9e9f-4eff-96c1-880f28870d96,1383dc2f-80bf-46d2-a294-b6adfeb4cbec
2019-11-01 22:23:38,db692285-d7f9-4932-a08a-b2fd5123886a,1,b5764d29-9e9f-4eff-96c1-880f28870d96,eb3df129-e910-4327-9c82-56066dcf9010
2019-11-01 22:23:54,454fc0f5-2774-443a-955b-8331fdc2cf9d,1,b5764d29-9e9f-4eff-96c1-880f28870d96,1383dc2f-80bf-46d2-a294-b6adfeb4cbec
2019-11-01 22:26:09,df48a4c9-88e2-4e1f-a33d-88744d722e47,1,b5764d29-9e9f-4eff-96c1-880f28870d96,1383dc2f-80bf-46d2-a294-b6adfeb4cbec
2019-11-01 22:26:09,d98e91b1-eeb5-415b-8626-518dcb7cc532,1,b5764d29-9e9f-4eff-96c1-880f28870d96,1383dc2f-80bf-46d2-a294-b6adfeb4cbec
2019-11-01 22:35:53,454fc0f5-2774-443a-955b-8331fdc2cf9d,1,b5764d29-9e9f-4eff-96c1-880f28870d96,73bbd45d-c12d-49a9-b42d-a20444881cc3
2019-11-01 22:41:46,b54519cc-be33-43eb-b70f-52d15401d7d5,1,b5764d29-9e9f-4eff-96c1-880f28870d96,73bbd45d-c12d-49a9-b42d-a20444881cc3
2019-11-01 22:49:05,d98e91b1-eeb5-415b-8626-518dcb7cc532,1,b5764d29-9e9f-4eff-96c1-880f28870d96,73bbd45d-c12d-49a9-b42d-a20444881cc3
2019-11-01 22:56:33,df48a4c9-88e2-4e1f-a33d-88744d722e47,1,b5764d29-9e9f-4eff-96c1-880f28870d96,b0c67b60-0cf9-44f5-9dd4-795d8cbd8dd9
2019-11-01 22:56:33,4a41b834-ce08-4982-8c0a-21210033c3f1,1,b5764d29-9e9f-4eff-96c1-880f28870d96,1c3a4fb0-30f1-4162-8e3b-c5ae8ad2f650
2019-11-01 22:56:37,585263f1-83f2-4bd5-8b06-05331d798957,1,b5764d29-9e9f-4eff-96c1-880f28870d96,c1ac9bba-a24e-40a3-9459-60a8f1079796
2019-11-01 23:06:16,12646ea2-f964-413b-96d6-4dc62e3db89b,1,b5764d29-9e9f-4eff-96c1-880f28870d96,fe884641-c823-4b6e-9e7c-edd75e9c8bcb
2019-11-01 21:36:03,90a4a555-7232-40ea-8b0a-dd63bc5fe6be,1,c1ac9bba-a24e-40a3-9459-60a8f1079796,fe884641-c823-4b6e-9e7c-edd75e9c8bcb
2019-11-01 21:43:47,eaa597f1-9b55-4d3d-9152-33e986a81fb5,1,c1ac9bba-a24e-40a3-9459-60a8f1079796,fe884641-c823-4b6e-9e7c-edd75e9c8bcb
2019-11-01 21:46:29,d6d29e87-5359-40a4-8377-6783850fb204,1,c1ac9bba-a24e-40a3-9459-60a8f1079796,b9920d0a-1218-4ae7-81d0-040adc25a32e
2019-11-01 21:46:54,16478d4b-64e7-46d2-95f0-04339b2bf05e,1,c1ac9bba-a24e-40a3-9459-60a8f1079796,1c3a4fb0-30f1-4162-8e3b-c5ae8ad2f650
2019-11-01 21:51:17,051bd133-f0fc-4e06-9f8c-f01c98f9c735,1,c1ac9bba-a24e-40a3-9459-60a8f1079796,7a9bdc48-9771-49d9-9903-cdfb2ef80c93
2019-11-01 21:51:43,e7bf9515-5c68-467d-b7a4-eac49df469e7,1,c1ac9bba-a24e-40a3-9459-60a8f1079796,73bbd45d-c12d-49a9-b42d-a20444881cc3
2019-11-01 21:53:30,82da9758-a4b7-4605-9834-30a46e66ed6c,1,c1ac9bba-a24e-40a3-9459-60a8f1079796,1c3a4fb0-30f1-4162-8e3b-c5ae8ad2f650
2019-11-01 21:54:07,b54519cc-be33-43eb-b70f-52d15401d7d5,1,c1ac9bba-a24e-40a3-9459-60a8f1079796,1383dc2f-80bf-46d2-a294-b6adfeb4cbec
2019-11-01 21:57:37,d23a0ab0-3c39-4bfc-af88-0c415c88960c,1,c1ac9bba-a24e-40a3-9459-60a8f1079796,b9920d0a-1218-4ae7-81d0-040adc25a32e
2019-11-01 21:58:39,61f87427-4aa3-4447-8ea3-db9dd8ee6936,1,c1ac9bba-a24e-40a3-9459-60a8f1079796,fe884641-c823-4b6e-9e7c-edd75e9c8bcb
2019-11-01 22:14:38,4b21ad5a-8e71-48f7-8ad8-8576d2cc7011,1,c1ac9bba-a24e-40a3-9459-60a8f1079796,805ba59a-7329-4488-b2f4-a93c337d376f
2019-11-01 22:14:41,d23a0ab0-3c39-4bfc-af88-0c415c88960c,1,c1ac9bba-a24e-40a3-9459-60a8f1079796,1383dc2f-80bf-46d2-a294-b6adfeb4cbec
2019-11-01 22:18:37,4b21ad5a-8e71-48f7-8ad8-8576d2cc7011,1,c1ac9bba-a24e-40a3-9459-60a8f1079796,1383dc2f-80bf-46d2-a294-b6adfeb4cbec
2019-11-01 22:18:37,9561ce84-dd1f-4f3b-ab1e-54534b720282,1,c1ac9bba-a24e-40a3-9459-60a8f1079796,1c3a4fb0-30f1-4162-8e3b-c5ae8ad2f650
2019-11-01 22:30:38,f6b77326-c962-4bef-b33d-bdfe09f50928,1,c1ac9bba-a24e-40a3-9459-60a8f1079796,fe884641-c823-4b6e-9e7c-edd75e9c8bcb
2019-11-01 22:30:39,4b21ad5a-8e71-48f7-8ad8-8576d2cc7011,1,c1ac9bba-a24e-40a3-9459-60a8f1079796,1383dc2f-80bf-46d2-a294-b6adfeb4cbec
2019-11-01 22:39:24,4b21ad5a-8e71-48f7-8ad8-8576d2cc7011,1,c1ac9bba-a24e-40a3-9459-60a8f1079796,805ba59a-7329-4488-b2f4-a93c337d376f
2019-11-01 22:40:25,9561ce84-dd1f-4f3b-ab1e-54534b720282,1,c1ac9bba-a24e-40a3-9459-60a8f1079796,630e6c05-969c-45ee-b0ef-f1e75ee62fca
2019-11-01 22:51:17,82da9758-a4b7-4605-9834-30a46e66ed6c,1,c1ac9bba-a24e-40a3-9459-60a8f1079796,1c3a4fb0-30f1-4162-8e3b-c5ae8ad2f650
2019-11-01 22:58:48,4b21ad5a-8e71-48f7-8ad8-8576d2cc7011,1,c1ac9bba-a24e-40a3-9459-60a8f1079796,805ba59a-7329-4488-b2f4-a93c337d376f
2019-11-01 23:07:46,da9f90ee-c957-43d7-bb2c-bbdfe80e3dbf,1,c1ac9bba-a24e-40a3-9459-60a8f1079796,805ba59a-7329-4488-b2f4-a93c337d376f
2019-11-01 23:09:02,fe03cb81-57bd-4edb-a338-3056862b4017,1,c1ac9bba-a24e-40a3-9459-60a8f1079796,d070c573-46e2-4760-9603-0124c1e9483d
2019-11-01 23:09:15,d23a0ab0-3c39-4bfc-af88-0c415c88960c,1,c1ac9bba-a24e-40a3-9459-60a8f1079796,b9920d0a-1218-4ae7-81d0-040adc25a32e
2019-11-01 23:14:14,9561ce84-dd1f-4f3b-ab1e-54534b720282,1,c1ac9bba-a24e-40a3-9459-60a8f1079796,1383dc2f-80bf-46d2-a294-b6adfeb4cbec
2019-11-01 23:14:43,4b21ad5a-8e71-48f7-8ad8-8576d2cc7011,1,c1ac9bba-a24e-40a3-9459-60a8f1079796,1383dc2f-80bf-46d2-a294-b6adfeb4cbec
2019-11-01 23:14:44,9561ce84-dd1f-4f3b-ab1e-54534b720282,1,c1ac9bba-a24e-40a3-9459-60a8f1079796,630e6c05-969c-45ee-b0ef-f1e75ee62fca
2019-11-01 21:43:56,438d6aa6-61b2-4f6b-8623-355b402f2783,1,d070c573-46e2-4760-9603-0124c1e9483d,b0c67b60-0cf9-44f5-9dd4-795d8cbd8dd9
2019-11-01 21:59:56,582c2417-420a-4368-9cb3-0062beaaf8d6,1,d070c573-46e2-4760-9603-0124c1e9483d,73bbd45d-c12d-49a9-b42d-a20444881cc3
2019-11-01 22:02:39,accfd8e5-aed5-4053-8f1a-14709f953929,1,d070c573-46e2-4760-9603-0124c1e9483d,d070c573-46e2-4760-9603-0124c1e9483d
2019-11-01 22:13:18,0359a608-ea1f-421f-bab3-1c9fc0572323,1,d070c573-46e2-4760-9603-0124c1e9483d,eb3df129-e910-4327-9c82-56066dcf9010
2019-11-01 22:30:45,5b0c8acc-d5b4-43bf-845e-ae2b0c84ca98,1,d070c573-46e2-4760-9603-0124c1e9483d,fe884641-c823-4b6e-9e7c-edd75e9c8bcb
2019-11-01 22:30:45,fb4d6eff-6a45-4a8b-a6c0-3da600a1d613,1,d070c573-46e2-4760-9603-0124c1e9483d,630e6c05-969c-45ee-b0ef-f1e75ee62fca
2019-11-01 22:37:59,d98e91b1-eeb5-415b-8626-518dcb7cc532,1,d070c573-46e2-4760-9603-0124c1e9483d,b5764d29-9e9f-4eff-96c1-880f28870d96
2019-11-01 22:53:13,5b0c8acc-d5b4-43bf-845e-ae2b0c84ca98,1,d070c573-46e2-4760-9603-0124c1e9483d,1383dc2f-80bf-46d2-a294-b6adfeb4cbec
2019-11-01 23:17:36,0359a608-ea1f-421f-bab3-1c9fc0572323,1,d070c573-46e2-4760-9603-0124c1e9483d,73bbd45d-c12d-49a9-b42d-a20444881cc3
2019-11-01 23:17:42,5b0c8acc-d5b4-43bf-845e-ae2b0c84ca98,1,d070c573-46e2-4760-9603-0124c1e9483d,1383dc2f-80bf-46d2-a294-b6adfeb4cbec
2019-11-01 21:32:00,535361f9-ba22-40de-bf69-d8ccf1005dd5,1,95c349f2-c8f0-4c78-9699-4546752ff354,b0c67b60-0cf9-44f5-9dd4-795d8cbd8dd9
2019-11-01 21:44:53,f6b77326-c962-4bef-b33d-bdfe09f50928,1,95c349f2-c8f0-4c78-9699-4546752ff354,fe884641-c823-4b6e-9e7c-edd75e9c8bcb
2019-11-01 21:44:53,e9a12e65-9051-4900-becb-7e88d82c1936,1,95c349f2-c8f0-4c78-9699-4546752ff354,1383dc2f-80bf-46d2-a294-b6adfeb4cbec
2019-11-01 21:52:59,585263f1-83f2-4bd5-8b06-05331d798957,1,95c349f2-c8f0-4c78-9699-4546752ff354,805ba59a-7329-4488-b2f4-a93c337d376f
2019-11-01 22:07:22,582c2417-420a-4368-9cb3-0062beaaf8d6,1,95c349f2-c8f0-4c78-9699-4546752ff354,630e6c05-969c-45ee-b0ef-f1e75ee62fca
2019-11-01 22:51:47,e9a12e65-9051-4900-becb-7e88d82c1936,1,95c349f2-c8f0-4c78-9699-4546752ff354,1383dc2f-80bf-46d2-a294-b6adfeb4cbec
2019-11-01 22:57:48,d23a0ab0-3c39-4bfc-af88-0c415c88960c,1,95c349f2-c8f0-4c78-9699-4546752ff354,c1ac9bba-a24e-40a3-9459-60a8f1079796
2019-11-01 23:16:46,d23a0ab0-3c39-4bfc-af88-0c415c88960c,1,95c349f2-c8f0-4c78-9699-4546752ff354,b9920d0a-1218-4ae7-81d0-040adc25a32e
2019-11-01 21:26:08,9561ce84-dd1f-4f3b-ab1e-54534b720282,1,5e68f4da-b45d-4111-9347-95b34964637f,630e6c05-969c-45ee-b0ef-f1e75ee62fca
2019-11-01 21:41:07,da9f90ee-c957-43d7-bb2c-bbdfe80e3dbf,1,5e68f4da-b45d-4111-9347-95b34964637f,fe884641-c823-4b6e-9e7c-edd75e9c8bcb
2019-11-01 21:41:22,d3f6c9a9-309d-45a4-a4ea-cab43f6a1296,1,5e68f4da-b45d-4111-9347-95b34964637f,1383dc2f-80bf-46d2-a294-b6adfeb4cbec
2019-11-01 22:14:28,61f85066-22b5-4f1e-a3a8-fa63dd9160c6,1,5e68f4da-b45d-4111-9347-95b34964637f,41383d68-7d35-406b-9b31-549f61d00cb2
2019-11-01 22:19:43,16478d4b-64e7-46d2-95f0-04339b2bf05e,1,5e68f4da-b45d-4111-9347-95b34964637f,1c3a4fb0-30f1-4162-8e3b-c5ae8ad2f650
2019-11-01 22:22:49,d3f6c9a9-309d-45a4-a4ea-cab43f6a1296,1,5e68f4da-b45d-4111-9347-95b34964637f,b9920d0a-1218-4ae7-81d0-040adc25a32e
2019-11-01 22:23:05,51094c4e-6761-4019-9a03-8df32a834c86,1,5e68f4da-b45d-4111-9347-95b34964637f,fe884641-c823-4b6e-9e7c-edd75e9c8bcb
2019-11-01 22:23:06,d23a0ab0-3c39-4bfc-af88-0c415c88960c,1,5e68f4da-b45d-4111-9347-95b34964637f,b9920d0a-1218-4ae7-81d0-040adc25a32e
2019-11-01 22:37:43,51094c4e-6761-4019-9a03-8df32a834c86,1,5e68f4da-b45d-4111-9347-95b34964637f,805ba59a-7329-4488-b2f4-a93c337d376f
2019-11-01 22:37:47,d3f6c9a9-309d-45a4-a4ea-cab43f6a1296,1,5e68f4da-b45d-4111-9347-95b34964637f,1383dc2f-80bf-46d2-a294-b6adfeb4cbec
2019-11-01 22:37:48,0359a608-ea1f-421f-bab3-1c9fc0572323,1,5e68f4da-b45d-4111-9347-95b34964637f,d070c573-46e2-4760-9603-0124c1e9483d
2019-11-01 22:46:38,d3f6c9a9-309d-45a4-a4ea-cab43f6a1296,1,5e68f4da-b45d-4111-9347-95b34964637f,1383dc2f-80bf-46d2-a294-b6adfeb4cbec
2019-11-01 22:55:18,d3f6c9a9-309d-45a4-a4ea-cab43f6a1296,1,5e68f4da-b45d-4111-9347-95b34964637f,1383dc2f-80bf-46d2-a294-b6adfeb4cbec
2019-11-01 23:04:58,d3f6c9a9-309d-45a4-a4ea-cab43f6a1296,1,5e68f4da-b45d-4111-9347-95b34964637f,1383dc2f-80bf-46d2-a294-b6adfeb4cbec
2019-11-01 23:12:50,d3f6c9a9-309d-45a4-a4ea-cab43f6a1296,1,5e68f4da-b45d-4111-9347-95b34964637f,1383dc2f-80bf-46d2-a294-b6adfeb4cbec
2019-11-01 23:13:39,61f85066-22b5-4f1e-a3a8-fa63dd9160c6,1,5e68f4da-b45d-4111-9347-95b34964637f,41383d68-7d35-406b-9b31-549f61d00cb2
2019-11-01 23:13:39,51094c4e-6761-4019-9a03-8df32a834c86,1,5e68f4da-b45d-4111-9347-95b34964637f,eb3df129-e910-4327-9c82-56066dcf9010
2019-11-01 21:17:33,61f85066-22b5-4f1e-a3a8-fa63dd9160c6,1,73bbd45d-c12d-49a9-b42d-a20444881cc3,7a9bdc48-9771-49d9-9903-cdfb2ef80c93
2019-11-01 21:24:47,000d96c5-b852-4461-8325-f297804080f2,1,73bbd45d-c12d-49a9-b42d-a20444881cc3,1c3a4fb0-30f1-4162-8e3b-c5ae8ad2f650
2019-11-01 21:37:44,d94cd5ba-2511-48c4-b004-df26013f9009,1,73bbd45d-c12d-49a9-b42d-a20444881cc3,41383d68-7d35-406b-9b31-549f61d00cb2
2019-11-01 21:51:13,df48a4c9-88e2-4e1f-a33d-88744d722e47,1,73bbd45d-c12d-49a9-b42d-a20444881cc3,1c3a4fb0-30f1-4162-8e3b-c5ae8ad2f650
2019-11-01 21:52:08,d98e91b1-eeb5-415b-8626-518dcb7cc532,1,73bbd45d-c12d-49a9-b42d-a20444881cc3,1c3a4fb0-30f1-4162-8e3b-c5ae8ad2f650
2019-11-01 21:53:15,b54519cc-be33-43eb-b70f-52d15401d7d5,1,73bbd45d-c12d-49a9-b42d-a20444881cc3,c1ac9bba-a24e-40a3-9459-60a8f1079796
2019-11-01 22:00:27,582c2417-420a-4368-9cb3-0062beaaf8d6,1,73bbd45d-c12d-49a9-b42d-a20444881cc3,95c349f2-c8f0-4c78-9699-4546752ff354
2019-11-01 22:00:29,454fc0f5-2774-443a-955b-8331fdc2cf9d,1,73bbd45d-c12d-49a9-b42d-a20444881cc3,1383dc2f-80bf-46d2-a294-b6adfeb4cbec
2019-11-01 22:13:50,0359a608-ea1f-421f-bab3-1c9fc0572323,1,73bbd45d-c12d-49a9-b42d-a20444881cc3,1383dc2f-80bf-46d2-a294-b6adfeb4cbec
2019-11-01 22:18:05,db692285-d7f9-4932-a08a-b2fd5123886a,1,73bbd45d-c12d-49a9-b42d-a20444881cc3,b5764d29-9e9f-4eff-96c1-880f28870d96
2019-11-01 22:18:07,454fc0f5-2774-443a-955b-8331fdc2cf9d,1,73bbd45d-c12d-49a9-b42d-a20444881cc3,630e6c05-969c-45ee-b0ef-f1e75ee62fca
2019-11-01 22:23:39,0359a608-ea1f-421f-bab3-1c9fc0572323,1,73bbd45d-c12d-49a9-b42d-a20444881cc3,41383d68-7d35-406b-9b31-549f61d00cb2
2019-11-01 22:23:39,454fc0f5-2774-443a-955b-8331fdc2cf9d,1,73bbd45d-c12d-49a9-b42d-a20444881cc3,b5764d29-9e9f-4eff-96c1-880f28870d96
2019-11-01 22:25:54,e7bf9515-5c68-467d-b7a4-eac49df469e7,1,73bbd45d-c12d-49a9-b42d-a20444881cc3,41383d68-7d35-406b-9b31-549f61d00cb2
2019-11-01 22:33:03,963db3cd-389a-4406-bc25-f98bf42a0c7c,1,73bbd45d-c12d-49a9-b42d-a20444881cc3,eb3df129-e910-4327-9c82-56066dcf9010
2019-11-01 22:37:30,454fc0f5-2774-443a-955b-8331fdc2cf9d,1,73bbd45d-c12d-49a9-b42d-a20444881cc3,b0c67b60-0cf9-44f5-9dd4-795d8cbd8dd9
2019-11-01 22:37:32,0359a608-ea1f-421f-bab3-1c9fc0572323,1,73bbd45d-c12d-49a9-b42d-a20444881cc3,5e68f4da-b45d-4111-9347-95b34964637f
2019-11-01 22:43:02,b54519cc-be33-43eb-b70f-52d15401d7d5,1,73bbd45d-c12d-49a9-b42d-a20444881cc3,805ba59a-7329-4488-b2f4-a93c337d376f
2019-11-01 22:48:48,454fc0f5-2774-443a-955b-8331fdc2cf9d,1,73bbd45d-c12d-49a9-b42d-a20444881cc3,b0c67b60-0cf9-44f5-9dd4-795d8cbd8dd9
2019-11-01 22:50:13,6a40635e-2567-4e12-8fae-508156442232,1,73bbd45d-c12d-49a9-b42d-a20444881cc3,630e6c05-969c-45ee-b0ef-f1e75ee62fca
2019-11-01 23:01:45,b54519cc-be33-43eb-b70f-52d15401d7d5,1,73bbd45d-c12d-49a9-b42d-a20444881cc3,7a9bdc48-9771-49d9-9903-cdfb2ef80c93
2019-11-01 23:01:46,454fc0f5-2774-443a-955b-8331fdc2cf9d,1,73bbd45d-c12d-49a9-b42d-a20444881cc3,1383dc2f-80bf-46d2-a294-b6adfeb4cbec
2019-11-01 23:17:48,454fc0f5-2774-443a-955b-8331fdc2cf9d,1,73bbd45d-c12d-49a9-b42d-a20444881cc3,b0c67b60-0cf9-44f5-9dd4-795d8cbd8dd9
2019-11-01 23:17:48,db692285-d7f9-4932-a08a-b2fd5123886a,1,73bbd45d-c12d-49a9-b42d-a20444881cc3,1383dc2f-80bf-46d2-a294-b6adfeb4cbec
2019-11-01 21:38:05,4a41b834-ce08-4982-8c0a-21210033c3f1,1,b0c67b60-0cf9-44f5-9dd4-795d8cbd8dd9,7a9bdc48-9771-49d9-9903-cdfb2ef80c93
2019-11-01 21:41:01,d3f6c9a9-309d-45a4-a4ea-cab43f6a1296,1,b0c67b60-0cf9-44f5-9dd4-795d8cbd8dd9,5e68f4da-b45d-4111-9347-95b34964637f
2019-11-01 22:00:07,ce9dfb0d-f0d0-44cc-90a3-dbf48de72466,1,b0c67b60-0cf9-44f5-9dd4-795d8cbd8dd9,1c3a4fb0-30f1-4162-8e3b-c5ae8ad2f650
2019-11-01 22:00:08,4496c77b-1f15-4d94-acc0-c26d8461e733,1,b0c67b60-0cf9-44f5-9dd4-795d8cbd8dd9,fe884641-c823-4b6e-9e7c-edd75e9c8bcb
2019-11-01 22:01:04,3f1e68e6-e496-4d1a-b96e-c6092836b6bf,1,b0c67b60-0cf9-44f5-9dd4-795d8cbd8dd9,1c3a4fb0-30f1-4162-8e3b-c5ae8ad2f650
2019-11-01 22:02:01,82da9758-a4b7-4605-9834-30a46e66ed6c,1,b0c67b60-0cf9-44f5-9dd4-795d8cbd8dd9,7a9bdc48-9771-49d9-9903-cdfb2ef80c93
2019-11-01 22:12:58,454fc0f5-2774-443a-955b-8331fdc2cf9d,1,b0c67b60-0cf9-44f5-9dd4-795d8cbd8dd9,1383dc2f-80bf-46d2-a294-b6adfeb4cbec
2019-11-01 22:12:58,fb4d6eff-6a45-4a8b-a6c0-3da600a1d613,1,b0c67b60-0cf9-44f5-9dd4-795d8cbd8dd9,d070c573-46e2-4760-9603-0124c1e9483d
2019-11-01 22:14:15,df48a4c9-88e2-4e1f-a33d-88744d722e47,1,b0c67b60-0cf9-44f5-9dd4-795d8cbd8dd9,805ba59a-7329-4488-b2f4-a93c337d376f
2019-11-01 22:25:28,4496c77b-1f15-4d94-acc0-c26d8461e733,1,b0c67b60-0cf9-44f5-9dd4-795d8cbd8dd9,1383dc2f-80bf-46d2-a294-b6adfeb4cbec
2019-11-01 22:25:53,df48a4c9-88e2-4e1f-a33d-88744d722e47,1,b0c67b60-0cf9-44f5-9dd4-795d8cbd8dd9,b5764d29-9e9f-4eff-96c1-880f28870d96
2019-11-01 22:36:35,82da9758-a4b7-4605-9834-30a46e66ed6c,1,b0c67b60-0cf9-44f5-9dd4-795d8cbd8dd9,7a9bdc48-9771-49d9-9903-cdfb2ef80c93
2019-11-01 22:37:45,454fc0f5-2774-443a-955b-8331fdc2cf9d,1,b0c67b60-0cf9-44f5-9dd4-795d8cbd8dd9,1383dc2f-80bf-46d2-a294-b6adfeb4cbec
2019-11-01 22:38:08,438d6aa6-61b2-4f6b-8623-355b402f2783,1,b0c67b60-0cf9-44f5-9dd4-795d8cbd8dd9,1383dc2f-80bf-46d2-a294-b6adfeb4cbec
2019-11-01 22:38:10,4496c77b-1f15-4d94-acc0-c26d8461e733,1,b0c67b60-0cf9-44f5-9dd4-795d8cbd8dd9,805ba59a-7329-4488-b2f4-a93c337d376f
2019-11-01 22:46:42,3f1e68e6-e496-4d1a-b96e-c6092836b6bf,1,b0c67b60-0cf9-44f5-9dd4-795d8cbd8dd9,1c3a4fb0-30f1-4162-8e3b-c5ae8ad2f650
2019-11-01 22:53:33,454fc0f5-2774-443a-955b-8331fdc2cf9d,1,b0c67b60-0cf9-44f5-9dd4-795d8cbd8dd9,73bbd45d-c12d-49a9-b42d-a20444881cc3
2019-11-01 22:54:56,535361f9-ba22-40de-bf69-d8ccf1005dd5,1,b0c67b60-0cf9-44f5-9dd4-795d8cbd8dd9,d070c573-46e2-4760-9603-0124c1e9483d
2019-11-01 22:59:42,df48a4c9-88e2-4e1f-a33d-88744d722e47,1,b0c67b60-0cf9-44f5-9dd4-795d8cbd8dd9,b5764d29-9e9f-4eff-96c1-880f28870d96
2019-11-01 23:04:51,438d6aa6-61b2-4f6b-8623-355b402f2783,1,b0c67b60-0cf9-44f5-9dd4-795d8cbd8dd9,805ba59a-7329-4488-b2f4-a93c337d376f
2019-11-01 23:04:52,82da9758-a4b7-4605-9834-30a46e66ed6c,1,b0c67b60-0cf9-44f5-9dd4-795d8cbd8dd9,7a9bdc48-9771-49d9-9903-cdfb2ef80c93
2019-11-01 21:09:32,8ce3cbd9-5e3c-44b9-a7b9-8c2683251fce,1,630e6c05-969c-45ee-b0ef-f1e75ee62fca,d070c573-46e2-4760-9603-0124c1e9483d
2019-11-01 21:27:57,6a40635e-2567-4e12-8fae-508156442232,1,630e6c05-969c-45ee-b0ef-f1e75ee62fca,eb3df129-e910-4327-9c82-56066dcf9010
2019-11-01 21:46:31,856ea4dc-7d97-4de8-9a8f-37a64fffaabc,1,630e6c05-969c-45ee-b0ef-f1e75ee62fca,5e68f4da-b45d-4111-9347-95b34964637f
2019-11-01 21:47:56,b4bb5c20-6c35-4101-bf86-9996ef6a7748,1,630e6c05-969c-45ee-b0ef-f1e75ee62fca,b5764d29-9e9f-4eff-96c1-880f28870d96
2019-11-01 21:53:04,82da9758-a4b7-4605-9834-30a46e66ed6c,1,630e6c05-969c-45ee-b0ef-f1e75ee62fca,c1ac9bba-a24e-40a3-9459-60a8f1079796
2019-11-01 21:54:36,963db3cd-389a-4406-bc25-f98bf42a0c7c,1,630e6c05-969c-45ee-b0ef-f1e75ee62fca,73bbd45d-c12d-49a9-b42d-a20444881cc3
2019-11-01 21:57:38,000d96c5-b852-4461-8325-f297804080f2,1,630e6c05-969c-45ee-b0ef-f1e75ee62fca,1383dc2f-80bf-46d2-a294-b6adfeb4cbec
2019-11-01 21:57:38,9561ce84-dd1f-4f3b-ab1e-54534b720282,1,630e6c05-969c-45ee-b0ef-f1e75ee62fca,b5764d29-9e9f-4eff-96c1-880f28870d96
2019-11-01 22:07:50,9561ce84-dd1f-4f3b-ab1e-54534b720282,1,630e6c05-969c-45ee-b0ef-f1e75ee62fca,1383dc2f-80bf-46d2-a294-b6adfeb4cbec
2019-11-01 22:07:50,61f85066-22b5-4f1e-a3a8-fa63dd9160c6,1,630e6c05-969c-45ee-b0ef-f1e75ee62fca,7a9bdc48-9771-49d9-9903-cdfb2ef80c93
2019-11-01 22:18:21,454fc0f5-2774-443a-955b-8331fdc2cf9d,1,630e6c05-969c-45ee-b0ef-f1e75ee62fca,1383dc2f-80bf-46d2-a294-b6adfeb4cbec
2019-11-01 22:18:22,9561ce84-dd1f-4f3b-ab1e-54534b720282,1,630e6c05-969c-45ee-b0ef-f1e75ee62fca,c1ac9bba-a24e-40a3-9459-60a8f1079796
2019-11-01 22:30:40,4496c77b-1f15-4d94-acc0-c26d8461e733,1,630e6c05-969c-45ee-b0ef-f1e75ee62fca,805ba59a-7329-4488-b2f4-a93c337d376f
2019-11-01 22:30:40,9561ce84-dd1f-4f3b-ab1e-54534b720282,1,630e6c05-969c-45ee-b0ef-f1e75ee62fca,c1ac9bba-a24e-40a3-9459-60a8f1079796
2019-11-01 22:37:55,fe03cb81-57bd-4edb-a338-3056862b4017,1,630e6c05-969c-45ee-b0ef-f1e75ee62fca,c1ac9bba-a24e-40a3-9459-60a8f1079796
2019-11-01 22:41:26,a3fd4a14-7ad2-4db0-8f77-f1cd39b077c1,1,630e6c05-969c-45ee-b0ef-f1e75ee62fca,95c349f2-c8f0-4c78-9699-4546752ff354
2019-11-01 22:46:26,61f85066-22b5-4f1e-a3a8-fa63dd9160c6,1,630e6c05-969c-45ee-b0ef-f1e75ee62fca,5e68f4da-b45d-4111-9347-95b34964637f
2019-11-01 22:50:27,fb4d6eff-6a45-4a8b-a6c0-3da600a1d613,1,630e6c05-969c-45ee-b0ef-f1e75ee62fca,1383dc2f-80bf-46d2-a294-b6adfeb4cbec
2019-11-01 22:53:54,9561ce84-dd1f-4f3b-ab1e-54534b720282,1,630e6c05-969c-45ee-b0ef-f1e75ee62fca,1383dc2f-80bf-46d2-a294-b6adfeb4cbec
2019-11-01 22:55:14,6a40635e-2567-4e12-8fae-508156442232,1,630e6c05-969c-45ee-b0ef-f1e75ee62fca,1383dc2f-80bf-46d2-a294-b6adfeb4cbec
2019-11-01 22:55:14,fb4d6eff-6a45-4a8b-a6c0-3da600a1d613,1,630e6c05-969c-45ee-b0ef-f1e75ee62fca,1383dc2f-80bf-46d2-a294-b6adfeb4cbec
2019-11-01 23:06:46,6a40635e-2567-4e12-8fae-508156442232,1,630e6c05-969c-45ee-b0ef-f1e75ee62fca,eb3df129-e910-4327-9c82-56066dcf9010
2019-11-01 23:09:03,9561ce84-dd1f-4f3b-ab1e-54534b720282,1,630e6c05-969c-45ee-b0ef-f1e75ee62fca,c1ac9bba-a24e-40a3-9459-60a8f1079796
2019-11-01 23:15:00,9561ce84-dd1f-4f3b-ab1e-54534b720282,1,630e6c05-969c-45ee-b0ef-f1e75ee62fca,1383dc2f-80bf-46d2-a294-b6adfeb4cbec
2019-11-01 23:15:00,fb4d6eff-6a45-4a8b-a6c0-3da600a1d613,1,630e6c05-969c-45ee-b0ef-f1e75ee62fca,41383d68-7d35-406b-9b31-549f61d00cb2
2019-11-01 23:17:32,db692285-d7f9-4932-a08a-b2fd5123886a,1,630e6c05-969c-45ee-b0ef-f1e75ee62fca,73bbd45d-c12d-49a9-b42d-a20444881cc3
2019-11-01 23:17:37,6a40635e-2567-4e12-8fae-508156442232,1,630e6c05-969c-45ee-b0ef-f1e75ee62fca,eb3df129-e910-4327-9c82-56066dcf9010
2019-11-01 23:17:37,000d96c5-b852-4461-8325-f297804080f2,1,630e6c05-969c-45ee-b0ef-f1e75ee62fca,1383dc2f-80bf-46d2-a294-b6adfeb4cbec
