app_number,app_id,trigger,burn,sink,deploy_date,token_interval
1,635b9f46-3861-4348-be58-726e12b0ba65,717dbc6e-eb0b-4f4a-825b-885b8c7c3da7,4a17c849-9178-4846-9c0f-3647d3a53fb8,af1e956d-d43c-4a6f-a5e7-20f69c17d7e8,2019-11-01 21:08:14,1.000000
2,389a56a2-5186-4cd8-b3ef-75cd685dba5e,8a8b989f-b870-425e-a8eb-3423464b13e7,8ce3cbd9-5e3c-44b9-a7b9-8c2683251fce,2ac093fc-c6d2-43b2-87a9-327c1112b982,2019-11-01 21:09:18,1.000000
3,c2d5d375-2d6e-40ce-afbf-61becc3d734f,92e6adf8-fbc4-4de4-bfc9-0d5504720f56,77b95a86-1b18-40d4-be5e-2b785765630f,16c3016d-36da-4697-b328-ceb6874c1fee,2019-11-01 21:10:22,1.000000
4,aea2b98b-3d8c-470a-a9e2-5aae1e902a3d,908af06b-de7d-4ab7-8e4f-92b378ec61d7,9561ce84-dd1f-4f3b-ab1e-54534b720282,a27458a3-f8fe-4ff7-ae01-820a50fdf804,2019-11-01 21:11:25,0.200000
5,dc11b273-ed63-4b97-bb8f-7ecca4a2cd10,07a5d18a-68fa-4070-8974-ea5fb52c5789,61f85066-22b5-4f1e-a3a8-fa63dd9160c6,8cd99d4a-1204-4587-824e-3cf846f33a05,2019-11-01 21:12:29,0.200000
6,441901c5-50d4-4bf5-93ee-48e7d2b78a60,817b5c42-e70c-465c-ac70-2d2cc717306c,5b0c8acc-d5b4-43bf-845e-ae2b0c84ca98,0634e5df-573f-4efb-bbac-738031d7f4db,2019-11-01 21:13:33,0.200000
7,f8f5f629-8815-4048-b38c-83ea08db76a1,ef2cada8-a7c7-4e83-b00f-9cf7279e08ae,6a40635e-2567-4e12-8fae-508156442232,2b98acd0-4480-400b-876c-23ead5a05303,2019-11-01 21:14:37,0.200000
8,0e92753a-13d7-4026-a5f1-cc0fba1acbba,bebba60f-269a-4571-bafb-f36ef6ee427c,bdba6f3d-3e30-4c00-80f0-4b6ec40861c1,cfd5b5a2-9310-4c93-a240-fd9e007c3786,2019-11-01 21:15:41,1.000000
9,84d0e464-8813-4ec0-89e4-3b8d06a0c879,49bb1655-e5a1-4364-b810-180ba5f98441,4a41b834-ce08-4982-8c0a-21210033c3f1,7ec47393-9468-4ed8-b54e-6474ebf3fba3,2019-11-01 21:16:45,0.200000
10,b2b32970-4ec7-4cfc-8910-ea361c4fff2b,81c58998-1271-4029-96d9-d07135fce014,000d96c5-b852-4461-8325-f297804080f2,b41b9d6e-a12d-475e-adb3-d3d788115d60,2019-11-01 21:17:48,0.200000
11,8ff22844-bf1b-4380-9d48-cc60d398056b,5da0d04d-0641-459a-ad71-d4bafa324069,d94cd5ba-2511-48c4-b004-df26013f9009,e5f9fbd0-fc6b-409e-80db-50a8eb611f73,2019-11-01 21:18:52,0.200000
12,48a6d824-5218-4a86-82b9-66e5360558ce,b46a6670-2cb2-4032-b126-6b4988ad8df9,963db3cd-389a-4406-bc25-f98bf42a0c7c,e6224bb2-470b-4dd7-b61d-d9e41c5bf1ca,2019-11-01 21:19:56,1.000000
13,2759b05d-c55e-4a38-a2bd-5a939cb00195,c1b80083-ece1-4c2b-950e-3ab320b44709,51094c4e-6761-4019-9a03-8df32a834c86,1cc30397-de9f-4ba0-b72c-f25335697919,2019-11-01 21:21:00,0.200000
14,f4496f55-b0ea-470b-af82-1870b471e5cb,1742770f-f928-4250-9027-28e680fdf1a2,454fc0f5-2774-443a-955b-8331fdc2cf9d,6c5f16f4-fa4f-4884-ab75-58ebda2bb4cc,2019-11-01 21:22:04,0.200000
15,cb2dcc56-a0a4-4053-acbd-c9197eada44a,dce80d61-6369-4a5f-9ada-4744e815c4d9,f38814d2-b7bd-4196-a5e4-46a05fd7ad62,fbdcdacf-ef64-431b-a15c-fc5a666bb4f6,2019-11-01 21:23:08,1.000000
16,990da645-54c2-494e-83be-a737d4e68cf1,775d7329-d082-4ace-98af-8b45645e69d8,535361f9-ba22-40de-bf69-d8ccf1005dd5,6347903a-b7b1-4fef-9159-18f95e9ad7a0,2019-11-01 21:24:11,1.000000
17,c505dc28-44c6-4ad1-844c-299da380690c,a261b0ea-9f9a-4fdb-b236-9055350d4841,f6b77326-c962-4bef-b33d-bdfe09f50928,0f92ea10-1512-4a92-9b4d-b713e4550d3f,2019-11-01 21:25:15,0.200000
18,0d47d86c-3dc1-4607-83f1-738e2b333ce1,9b55d916-2e20-4a28-9d6f-011cacff84a2,da9f90ee-c957-43d7-bb2c-bbdfe80e3dbf,10ec4b0b-47aa-4445-a5a3-72b91c3c31a6,2019-11-01 21:26:19,1.000000
19,74d90f0b-6d6b-44b8-8746-de73bfa40351,5012c307-852e-4c7f-bb10-336b8bc0ce6e,4b21ad5a-8e71-48f7-8ad8-8576d2cc7011,d91e7aba-c9fc-4d77-9444-2fc7277ea2f2,2019-11-01 21:27:23,0.200000
20,398504aa-0045-4d03-a6aa-cbc4f7976a30,c4add89e-c08f-40f4-ac17-ba523e4c1892,a3fd4a14-7ad2-4db0-8f77-f1cd39b077c1,2a07e283-74dd-4140-8f36-68a10a2a9a36,2019-11-01 21:28:27,1.000000
21,0d0f343b-8286-4910-a09b-2ad2cf3bcace,979df4cc-ca96-4cd5-8a28-9bb4ac57796d,d3f6c9a9-309d-45a4-a4ea-cab43f6a1296,127c85d5-15bd-4060-8d1f-307ebdf95880,2019-11-01 21:29:30,0.200000
22,723f2888-3edb-42d7-8f77-29d759b73497,233d2d40-d51f-4065-a091-a8f9d24a3bf7,438d6aa6-61b2-4f6b-8623-355b402f2783,dc77912e-734c-4305-8eac-eefc900529b2,2019-11-01 21:30:34,0.200000
23,b68ec509-d6d7-4125-8ad3-1efa78feae55,0e5c0919-344a-479f-860c-f3286cf65e91,e9a12e65-9051-4900-becb-7e88d82c1936,454ffef4-fff6-4a6c-be00-9e54375d6a7c,2019-11-01 21:31:38,0.200000
24,f2c273fd-4982-4feb-b281-419cdda3ddc6,74fffc12-a47d-4b22-aab7-31ba79eb8b49,d6d29e87-5359-40a4-8377-6783850fb204,3d1d708a-5393-4a9b-8e1b-55a3a1cb7b89,2019-11-01 21:32:42,1.000000
25,052891ba-9f90-437f-9331-955fda900172,1e85269d-6da0-41f4-b91c-311978468d5c,90a4a555-7232-40ea-8b0a-dd63bc5fe6be,fdff5f50-7db4-49c2-bc04-a59ccbe43ff4,2019-11-01 21:33:45,1.000000
26,a5fdc4c2-7f81-436f-b9ea-44f075d54a99,eded83b5-cf29-4ed8-b2b6-3275c2acca02,61f87427-4aa3-4447-8ea3-db9dd8ee6936,74957bcd-a713-4cff-a6dc-d79e3483948c,2019-11-01 21:34:49,1.000000
27,2b60ac10-e7e4-4979-8ab1-2fa56491c754,82124288-e744-4f06-893d-844452e16698,d23a0ab0-3c39-4bfc-af88-0c415c88960c,d80a4336-5f01-4b14-82c0-332b7f30eab7,2019-11-01 21:35:53,0.200000
28,7cdd0505-4c77-4652-b055-80f8e4e6f7b6,ed372b08-1953-4b15-bc13-91a39785187f,fe03cb81-57bd-4edb-a338-3056862b4017,6b2ef480-7852-4396-8655-29834db4c92a,2019-11-01 21:36:56,1.000000
29,b46535a6-dae9-4f06-b99f-cf1f322ae4fa,135e9714-0a0a-4f90-8d4b-91a160e2bc10,b4bb5c20-6c35-4101-bf86-9996ef6a7748,e5e1d2f7-2581-41df-9487-8db3b6acf193,2019-11-01 21:38:00,1.000000
30,3acec8f4-1b0b-468e-ab94-9d4fec41f8d5,f6169625-ed02-4ef0-9192-ed0842c76af5,3f1e68e6-e496-4d1a-b96e-c6092836b6bf,9df68abf-a6d2-44f8-ab08-bcdf6183985a,2019-11-01 21:39:04,1.000000
31,c14fad48-b883-4483-a08f-1868c9a9885b,75e888f1-5b9b-480c-9f2a-8c967145fa9d,eaa597f1-9b55-4d3d-9152-33e986a81fb5,1725acdc-6e8f-47e5-b37e-87660f54a229,2019-11-01 21:40:08,1.000000
32,14122288-4a07-4ec3-b04a-ab23e6453ca7,7385c3f3-08bf-4276-8e65-0280e9d0abb2,4496c77b-1f15-4d94-acc0-c26d8461e733,105b4bf4-53ec-49ef-bb1f-c3db1c480a9a,2019-11-01 21:41:12,0.200000
33,8325f65b-d602-466c-b21b-1d7de6c61303,0bdf57c6-dca8-401e-af50-98a81a6c04dc,051bd133-f0fc-4e06-9f8c-f01c98f9c735,760ded69-43fe-4898-a32d-fa0abfbc7428,2019-11-01 21:42:16,1.000000
34,d04e5b78-6190-4be2-86dd-43f2a51d7861,21224320-db2c-4301-a027-4c24b5165689,eb98926d-41a1-4817-b571-bd244f603e02,4a5f93a8-6221-49ad-b8d2-857ce61f114f,2019-11-01 21:43:20,0.200000
35,15fd6291-6652-4a71-aefd-1c08c714e0ce,35a4f07a-537c-415b-a573-1e66d25c80bf,856ea4dc-7d97-4de8-9a8f-37a64fffaabc,89d6a978-b67e-4924-ae21-d7f88f568ad0,2019-11-01 21:44:24,1.000000
36,f4e2c912-12d1-40fc-9ef2-af8a8623d350,6a1deec3-4115-4f01-af61-73a1e6a00364,db692285-d7f9-4932-a08a-b2fd5123886a,174b26aa-f775-4b20-a318-4c95b9b1a508,2019-11-01 21:45:28,0.200000
37,3fe4e979-3f22-430b-afcb-6bfc1c0cc606,011ec642-f3b1-4697-a3bd-dc50d625ecef,16478d4b-64e7-46d2-95f0-04339b2bf05e,04556326-214e-4efd-8cdf-e9c367a58208,2019-11-01 21:46:33,1.000000
38,8c243fab-d318-4211-8a41-70672b9606d5,e65c49c3-18ff-4117-9633-19fc6af6d46b,585263f1-83f2-4bd5-8b06-05331d798957,395fbeb0-f555-4167-a84b-43724f4bc717,2019-11-01 21:47:37,1.000000
39,1ea07026-228c-43bd-8c44-3ac78354d9a9,733c2861-4487-431b-b214-ecc1e4e60cb5,d98e91b1-eeb5-415b-8626-518dcb7cc532,29f9fcb3-8f11-452b-8e34-16c60de5e94a,2019-11-01 21:48:42,0.200000
40,1125af22-2879-4eac-b754-e113e4a3df89,5ccb7e5f-bef9-4c63-9c64-10990dfd7dac,df48a4c9-88e2-4e1f-a33d-88744d722e47,52846f4e-4d08-4f9d-b216-8b87e678e76b,2019-11-01 21:49:47,0.200000
41,df727951-9f74-4a64-8235-7222fd788ed0,d34bebda-01d7-48f2-af82-1fbf16c73cb6,e7bf9515-5c68-467d-b7a4-eac49df469e7,bee9c2b2-de5a-4e3a-900b-93c3d29b5ba3,2019-11-01 21:50:52,1.000000
42,79c61fa3-5652-45b7-bb3e-882c15794b44,bf6410eb-f454-401c-80cd-06fe83de2703,82da9758-a4b7-4605-9834-30a46e66ed6c,202dfc09-c539-4dfc-9e32-3861cd7467dd,2019-11-01 21:51:56,0.200000
43,17e93331-d5d2-4351-b752-4bd13442856b,3817e02e-a7ad-4bde-b15f-de2ab38f5337,b54519cc-be33-43eb-b70f-52d15401d7d5,e149a39a-c03d-40a2-92f3-c3ffe22c4cb7,2019-11-01 21:53:00,0.200000
44,954c179e-6c22-43d5-95c8-f2e8b7df08e6,30ed2225-12e1-4052-91d6-ad7a957fe30b,ce9dfb0d-f0d0-44cc-90a3-dbf48de72466,2c0f1923-32eb-48d7-aef5-f82d35a5ec53,2019-11-01 21:54:04,0.200000
45,839f9fef-d5c6-456e-89f6-71598acf26db,43217492-093a-4a2c-8ee6-228a4551a7c9,5de5c2fb-c77a-46d4-a1b2-4442a29a2619,5940cebf-68af-4596-b133-7483fa4cd7ef,2019-11-01 21:55:09,1.000000
46,4292a740-c56a-440e-bc4e-d87f6281de4e,77c3e3af-9ce8-4a93-9807-ebe74a1f4308,582c2417-420a-4368-9cb3-0062beaaf8d6,b101f9c3-bd63-4b65-9b27-0add2cfb2975,2019-11-01 21:56:14,0.200000
47,98e2a20e-20e8-4cff-9eb8-9493ebc1a9e1,d7fc1bc3-e2d9-45f9-bba8-bd10d5b008f7,fb4d6eff-6a45-4a8b-a6c0-3da600a1d613,7db2e156-55a6-40fb-b857-235bea2f40d6,2019-11-01 21:57:18,0.200000
48,d59aa852-1585-4594-b2df-6b2dde3c4e40,eab7500d-4b96-4ea4-8fb5-2d2fb7e106be,accfd8e5-aed5-4053-8f1a-14709f953929,9d402adb-abf1-4339-8db9-cb2df17e44da,2019-11-01 21:58:23,1.000000
49,b6eb446c-3085-4833-910c-f8db8730f52c,25a94382-7d94-4cc2-a03a-3cc92e2dca6d,0359a608-ea1f-421f-bab3-1c9fc0572323,fe6b84fa-4a4d-4658-911e-186299267f92,2019-11-01 21:59:28,0.200000
50,2efb1bff-cbb6-4286-919e-e26c7b531139,66d28ca5-1bc8-4175-92a5-bba93948b31b,12646ea2-f964-413b-96d6-4dc62e3db89b,ad8c88af-67c7-4bf5-85d8-19c59d7f6925,2019-11-01 22:00:33,1.000000
