node,ip,uuid
node-a8-199.grenoble.iot-lab.info,172.20.64.1,84078b86-dca8-4fba-aa6d-037667523f8b
node-a8-200.grenoble.iot-lab.info,172.20.64.2,ea67f23e-efed-4967-9220-7df1f5cb2e7c
node-a8-201.grenoble.iot-lab.info,172.20.64.3,52dee749-a5da-4a40-8a90-500d40912e77
node-a8-202.grenoble.iot-lab.info,172.20.64.4,3dd8bc5b-e9dc-484c-9262-dd5815736de4
node-a8-204.grenoble.iot-lab.info,172.20.64.5,f92e496a-b98a-41e5-8459-325f3ffeed65
node-a8-205.grenoble.iot-lab.info,172.20.64.6,9e4dc76a-ee53-48fa-97de-51aa64c18c55
node-a8-206.grenoble.iot-lab.info,172.20.64.7,50751171-35d4-4f97-ba8a-c8b3f15daec7
node-a8-207.grenoble.iot-lab.info,172.20.64.8,63569f61-894c-4ab4-a838-5d8e2e45be2c
node-a8-208.grenoble.iot-lab.info,172.20.64.9,fc040899-d37c-40d5-9b2c-c37a08e296e1
node-a8-209.grenoble.iot-lab.info,172.20.64.10,9c2384db-3163-406b-8b37-b7d559e26cbc
node-a8-210.grenoble.iot-lab.info,172.20.64.11,07448ca7-7b0f-4b15-8bdc-bad5c53c224a
node-a8-211.grenoble.iot-lab.info,172.20.64.12,bdf7327d-4039-4fe7-b505-b3ef7b873179
node-a8-212.grenoble.iot-lab.info,172.20.64.13,88223a73-57da-46d8-81c5-f09951e52105
node-a8-214.grenoble.iot-lab.info,172.20.64.14,3b329acd-edde-46d5-8121-f5d396df10af
node-a8-216.grenoble.iot-lab.info,172.20.64.15,9ce0303a-8f3f-42bb-b483-a7123ba96654
node-a8-217.grenoble.iot-lab.info,172.20.64.16,9735c4a2-cf95-4f98-a7d8-ee4ff82da04e
node-a8-218.grenoble.iot-lab.info,172.20.64.17,046b885b-6a96-4a08-b899-13e9c05f8f34
node-a8-219.grenoble.iot-lab.info,172.20.64.18,48bf19bd-fbcb-46a0-99c8-f307a93a6dc4
node-a8-220.grenoble.iot-lab.info,172.20.64.19,e403ae2b-fbe9-4e32-9b25-c33da6ccb9e7
node-a8-221.grenoble.iot-lab.info,172.20.64.20,c05029ca-b8e0-41c3-9f12-0ed376eaa466
node-a8-165.grenoble.iot-lab.info,172.20.64.21,bc87174b-e37e-4657-90bd-a237d1db417a
node-a8-166.grenoble.iot-lab.info,172.20.64.22,603573ba-e778-40a6-bfb3-738a6693965e
node-a8-167.grenoble.iot-lab.info,172.20.64.23,4863905c-f898-4c07-92dd-6c2417a411c9
node-a8-168.grenoble.iot-lab.info,172.20.64.24,c51cc7c4-54ce-48d5-9655-e02be1cb646a
node-a8-169.grenoble.iot-lab.info,172.20.64.25,cb224079-cf04-4890-bda3-ecef6bb48987
node-a8-170.grenoble.iot-lab.info,172.20.64.26,a8d2fdc0-620e-45e8-8911-953da9b6e1cb
node-a8-171.grenoble.iot-lab.info,172.20.64.27,5d202b2a-21ae-4069-bdca-4271e5e7dc3b
node-a8-173.grenoble.iot-lab.info,172.20.64.28,a2413a32-1345-4b3f-ada3-35d14f87a47a
node-a8-174.grenoble.iot-lab.info,172.20.64.29,95f53a40-24b4-4353-b85a-4ed772cca41f
node-a8-175.grenoble.iot-lab.info,172.20.64.30,2f83e95d-d250-47ef-81e3-ec4a856bf574
node-a8-176.grenoble.iot-lab.info,172.20.64.31,9ca1c49b-5979-422d-b0b9-6740759639b0
node-a8-177.grenoble.iot-lab.info,172.20.64.32,3a24c7d3-de0e-4ad7-b22b-7204ff8ca85b
node-a8-179.grenoble.iot-lab.info,172.20.64.33,4e391985-c582-4301-a172-e74377924c9b
node-a8-180.grenoble.iot-lab.info,172.20.64.34,ead43783-77b7-4ac5-9309-63c8b93811eb
node-a8-181.grenoble.iot-lab.info,172.20.64.35,1d20ad9e-5601-4915-bde7-5a14cad274e5
node-a8-182.grenoble.iot-lab.info,172.20.64.36,e7bcc48b-a80b-4108-821c-a8524477a234
node-a8-183.grenoble.iot-lab.info,172.20.64.37,e34fdea1-0b94-44d6-877a-6ae72a6d7c8f
node-a8-184.grenoble.iot-lab.info,172.20.64.38,132751e7-40f5-4e97-9ea7-c28f928ccb65
node-a8-185.grenoble.iot-lab.info,172.20.64.39,e6ecb36a-ad0c-44a2-ac40-71b27bbec074
node-a8-187.grenoble.iot-lab.info,172.20.64.40,e8229233-dcce-4174-afb5-4adc8a213137
node-a8-188.grenoble.iot-lab.info,172.20.64.41,69b35d5f-ab50-4a5c-a835-752aa0f324d3
node-a8-189.grenoble.iot-lab.info,172.20.64.42,41ac7f0b-7a75-4658-b2fd-945313195139
node-a8-190.grenoble.iot-lab.info,172.20.64.43,445fde3b-96ca-4853-8b45-91ed9baa83fe
node-a8-191.grenoble.iot-lab.info,172.20.64.44,a17a5718-000c-4bc5-a6f1-e64f6044221a
node-a8-192.grenoble.iot-lab.info,172.20.64.45,c4d7b838-1f12-4709-b8c5-4b39d2fa0c16
node-a8-193.grenoble.iot-lab.info,172.20.64.46,0b975d9b-cac5-4841-9e7a-bff34ae2f13c
node-a8-194.grenoble.iot-lab.info,172.20.64.47,6d9c8305-4582-400e-baf0-62bed4f395f8
node-a8-195.grenoble.iot-lab.info,172.20.64.48,80532906-c941-46d4-8f0a-7e96bfd6dd1f
node-a8-197.grenoble.iot-lab.info,172.20.64.49,af6f7414-85e5-4c2c-a206-72c681c6f211
node-a8-198.grenoble.iot-lab.info,172.20.64.50,962a22de-1dd4-46be-bb5a-8a4320937fdb
uvb-29.sophia.grid5000.fr,172.16.132.29,d995179d-67d2-47c9-b96c-2a98e6c90e05
uvb-31.sophia.grid5000.fr,172.16.132.31,333b8a75-3c86-4dbe-b3b0-c2582bf6d1ed
uvb-33.sophia.grid5000.fr,172.16.132.33,eb7293c6-600a-4ee6-ba2c-8a877e521cff
uvb-34.sophia.grid5000.fr,172.16.132.34,ca1f888e-358b-4950-9f36-f8e158822238
uvb-35.sophia.grid5000.fr,172.16.132.35,bcf4c6ed-2131-4de6-8cb7-4e8e25fed263
uvb-36.sophia.grid5000.fr,172.16.132.36,70b8f99a-574b-43c3-bcc0-e64b8ea29880
uvb-37.sophia.grid5000.fr,172.16.132.37,638a2ab6-9f87-44a2-88d4-a757427cc4af
uvb-38.sophia.grid5000.fr,172.16.132.38,25062f2b-7a38-4373-8fd4-a2afc490f6d5
uvb-4.sophia.grid5000.fr,172.16.132.4,c958b6f5-897c-4c02-94a3-4815cebbaa40
uvb-41.sophia.grid5000.fr,172.16.132.41,cda48ecd-d3b7-48f2-af20-c4ed94172043
uvb-42.sophia.grid5000.fr,172.16.132.42,47d66b27-039b-4af1-8f8a-6d59d16e8d5a
uvb-43.sophia.grid5000.fr,172.16.132.43,0302b7c5-21f6-42e7-9809-039fec1aebe3
uvb-44.sophia.grid5000.fr,172.16.132.44,0a845652-e116-4729-8f18-e3766d790c26
uvb-5.sophia.grid5000.fr,172.16.132.5,873d9fea-cdf5-4eb2-8e42-faf1a55fec82
uvb-8.sophia.grid5000.fr,172.16.132.8,de12b7eb-0465-4dda-bf87-e24cbfdbd9bf
