node,ip,uuid
node-a8-199.grenoble.iot-lab.info,172.20.64.1,16999ced-be40-4b37-8295-5e63fd235c15
node-a8-200.grenoble.iot-lab.info,172.20.64.2,b2996c63-b8bf-4d79-bb15-7563b9cc61b4
node-a8-201.grenoble.iot-lab.info,172.20.64.3,603cd579-e0b3-4653-9a0a-be2958e19c5d
node-a8-202.grenoble.iot-lab.info,172.20.64.4,ee800822-88d6-4858-8a49-4922ec18c344
node-a8-204.grenoble.iot-lab.info,172.20.64.5,dae4a948-1b71-4528-8f10-3021811d8de3
node-a8-205.grenoble.iot-lab.info,172.20.64.6,48ad12b6-5f3e-49bf-b06b-303c0305cf24
node-a8-206.grenoble.iot-lab.info,172.20.64.7,b8c01085-7a57-40b4-a587-a825f003917b
node-a8-207.grenoble.iot-lab.info,172.20.64.8,697f6a18-0379-4a29-9732-69c2d51fe4c2
node-a8-208.grenoble.iot-lab.info,172.20.64.9,f46c2c78-cdb4-49e8-a203-0f25099ae917
node-a8-209.grenoble.iot-lab.info,172.20.64.10,d12d9a5e-b9c0-43f7-b9a9-acc1e144dc07
node-a8-210.grenoble.iot-lab.info,172.20.64.11,2892a243-a7e8-4bda-9405-462ba7bf7ae8
node-a8-211.grenoble.iot-lab.info,172.20.64.12,25aee015-a6f0-4068-ac24-b0b4dc5151c3
node-a8-212.grenoble.iot-lab.info,172.20.64.13,24f5be89-91d7-426f-8f29-c9038d472358
node-a8-214.grenoble.iot-lab.info,172.20.64.14,13e924ba-066d-42dd-b5d2-cc09dfbeab6e
node-a8-216.grenoble.iot-lab.info,172.20.64.15,f4d724f1-0994-4305-a3cf-666c8147c8d7
node-a8-217.grenoble.iot-lab.info,172.20.64.16,d7cb89ce-7739-4c11-b2b3-b103f1378d9a
node-a8-218.grenoble.iot-lab.info,172.20.64.17,0658bfd5-8900-4666-b4bc-5178486d439e
node-a8-219.grenoble.iot-lab.info,172.20.64.18,6bf6e55f-c99c-4b79-8bea-548dc00ffaad
node-a8-220.grenoble.iot-lab.info,172.20.64.19,b0a3bb3c-acc9-445f-a838-8778ad9c9152
node-a8-221.grenoble.iot-lab.info,172.20.64.20,71d45c53-f29e-4c38-ad38-39c144c4b1e8
node-a8-165.grenoble.iot-lab.info,172.20.64.21,1093d85d-7736-4afb-9731-bf8ee95fe41a
node-a8-166.grenoble.iot-lab.info,172.20.64.22,53e3a286-12fa-4900-bf35-d4b0ba70e10b
node-a8-167.grenoble.iot-lab.info,172.20.64.23,b94fe621-673c-41fe-8c05-cea356976cc1
node-a8-168.grenoble.iot-lab.info,172.20.64.24,7bda26f1-9349-43ae-b795-b34083525418
node-a8-169.grenoble.iot-lab.info,172.20.64.25,55d0d377-4375-49fc-9573-96e67022039e
node-a8-170.grenoble.iot-lab.info,172.20.64.26,8b99c5f0-0704-4b97-968f-2e4c21768d9b
node-a8-171.grenoble.iot-lab.info,172.20.64.27,ad387758-66aa-4c42-8a50-78e994ce3701
node-a8-173.grenoble.iot-lab.info,172.20.64.28,dbf22c24-bfbc-4098-ab01-044b661dc911
node-a8-174.grenoble.iot-lab.info,172.20.64.29,427a2a1e-8aa5-4fe3-a64a-973341f5b8b5
node-a8-175.grenoble.iot-lab.info,172.20.64.30,cbfc6256-fc2a-4c2f-befc-fcced4e024ce
node-a8-176.grenoble.iot-lab.info,172.20.64.31,6ba14088-3c1d-44c7-ae54-25542ed7fe3c
node-a8-177.grenoble.iot-lab.info,172.20.64.32,93623e2d-0157-4db0-a41d-9734e6216163
node-a8-179.grenoble.iot-lab.info,172.20.64.33,c42ed258-842f-4b0e-8869-bd922b4afadf
node-a8-180.grenoble.iot-lab.info,172.20.64.34,4f35aed7-378c-4fb7-8371-c58348e7433a
node-a8-181.grenoble.iot-lab.info,172.20.64.35,792ff66f-cd3c-425b-ae52-574d523846df
node-a8-182.grenoble.iot-lab.info,172.20.64.36,45a7f969-dec3-46d5-ba91-b381cca63a71
node-a8-183.grenoble.iot-lab.info,172.20.64.37,d3b1a5ca-6f1b-4ea8-98e2-f1e41111ca6b
node-a8-184.grenoble.iot-lab.info,172.20.64.38,97379d84-a40b-4990-8d33-1565a762f2c0
node-a8-185.grenoble.iot-lab.info,172.20.64.39,e0187310-bb01-43a6-b023-422189e8bfb9
node-a8-187.grenoble.iot-lab.info,172.20.64.40,bb33b290-1d89-4d8f-817b-edf21d79bdbb
node-a8-188.grenoble.iot-lab.info,172.20.64.41,a7dac1cd-c3c3-4e74-9450-b0b49613e773
node-a8-189.grenoble.iot-lab.info,172.20.64.42,a626347a-7a27-45ce-8ed2-c4e361e69afc
node-a8-190.grenoble.iot-lab.info,172.20.64.43,3819d719-4310-47c6-9fa0-797c50f7ed5e
node-a8-191.grenoble.iot-lab.info,172.20.64.44,8a53fd5c-6e8f-4104-a842-115312c35a56
node-a8-192.grenoble.iot-lab.info,172.20.64.45,416a66d1-0cd7-4f1b-b234-faf1623a9f23
node-a8-193.grenoble.iot-lab.info,172.20.64.46,7b9c10b0-3e2f-4763-900d-d3032e7614d1
node-a8-194.grenoble.iot-lab.info,172.20.64.47,2b5c63e8-aac4-477f-9eb9-60d9df4918ac
node-a8-195.grenoble.iot-lab.info,172.20.64.48,16b02dd4-ac25-455d-b1a4-c33293b35fd8
node-a8-197.grenoble.iot-lab.info,172.20.64.49,8fc68397-24a5-470b-b93a-9e5b37d56454
node-a8-198.grenoble.iot-lab.info,172.20.64.50,d4565aef-5909-4f10-8aec-e22713cb17fa
suno-11.sophia.grid5000.fr,172.16.130.11,0809260e-a40b-41e0-beb2-f1453af76f57
suno-14.sophia.grid5000.fr,172.16.130.14,2741c73c-535f-4801-9755-33ed1d47ade4
suno-15.sophia.grid5000.fr,172.16.130.15,5bd9425e-ea73-49f5-b31f-0bc5f2a9fe6e
suno-2.sophia.grid5000.fr,172.16.130.2,e282cfb6-ebef-426f-b7f7-f6e527af55ce
suno-25.sophia.grid5000.fr,172.16.130.25,dcff2be7-5c18-415a-9707-95c57cc12131
suno-27.sophia.grid5000.fr,172.16.130.27,25d28152-d80f-4856-8f8b-5382a46f78dc
suno-28.sophia.grid5000.fr,172.16.130.28,0ea6e05d-c561-45dd-ba60-43f921b6a319
suno-30.sophia.grid5000.fr,172.16.130.30,149acc8c-c953-4be3-ae70-95fd09a53b26
suno-32.sophia.grid5000.fr,172.16.130.32,1da81c44-dc4b-413d-8598-853b14c0a6b6
suno-33.sophia.grid5000.fr,172.16.130.33,9f8a60a2-efcd-4fc5-9156-7ab78adb1ae9
suno-34.sophia.grid5000.fr,172.16.130.34,8d1f0e09-22f6-4cc3-9a0a-e08cd66dbc68
suno-36.sophia.grid5000.fr,172.16.130.36,4c531425-b5da-4fe6-9f4c-748cb60c8cc0
suno-37.sophia.grid5000.fr,172.16.130.37,0450f8f8-156d-471c-a9e6-a717ab5e06c0
suno-43.sophia.grid5000.fr,172.16.130.43,5f800b51-c1e8-43b9-a8e2-596d6bb1407b
suno-44.sophia.grid5000.fr,172.16.130.44,1d1e3df1-2279-424e-aa78-398824a4d819
suno-8.sophia.grid5000.fr,172.16.130.8,6a91d43e-47aa-47fb-a851-68744180d364
