actor,node
e3b444d2-3ed8-4e95-a0f3-03be060f22e8,6f6477b9-24a5-48fd-9ba0-df90e44b9284
9ac4a023-19ef-47a0-a010-c4c5e0817f8c,c4ae2ca6-07a3-448a-a106-b547d3300f7d
154e2733-6a29-4684-ac52-1d640efcd2d3,053fe4a7-8975-4d17-9bb9-9e509a18f75f
918e42d4-d7cd-43a9-a0b6-26368c0f5800,e0a765e2-c3ce-4889-b002-5b9922a9d05f
a8e8946b-c2c5-4406-ac36-c72789bf9ece,6f6477b9-24a5-48fd-9ba0-df90e44b9284
21f4d0ad-45fc-4736-b1b1-3f89a3f38a25,6f6477b9-24a5-48fd-9ba0-df90e44b9284
987b0036-75fe-4c5a-a5da-fd50e3f4aea4,0ac0065b-1341-4efe-bd5b-773ea7609f7c
0a4450ba-8762-460f-8c58-fbedc87cd2b9,6f6477b9-24a5-48fd-9ba0-df90e44b9284
23d809dd-39ba-4876-a883-1845a44a3476,6f6477b9-24a5-48fd-9ba0-df90e44b9284
10346953-6218-4395-ab84-f7edd56fbfa4,71548b84-9e42-4394-b0b7-eea19574e6bf
9c1eb826-ff42-455b-be80-fe8e34c30d95,4268f75b-507e-4d7c-88e5-ac84caf2f4c5
2a63945b-3c62-45b4-b282-da58635d752d,71548b84-9e42-4394-b0b7-eea19574e6bf
0f815785-9e86-4de0-9280-8792dc4f3e0e,0e4b4f5a-c69c-497c-90b9-67ebc681c4bd
a5f75cb7-682a-4dd1-815a-d81651b66a9e,053fe4a7-8975-4d17-9bb9-9e509a18f75f
475c9853-9f4d-4cd0-b74a-10f83960c55a,71548b84-9e42-4394-b0b7-eea19574e6bf
d31685d4-9379-4210-82fd-0451ff76ef26,7d24e608-cbe2-4c57-8512-3a3a2a963afb
efaa9ec3-7183-41e7-ad36-7abce01d1e3d,266bffa9-c325-4db2-b4a5-0ec284136d38
e0581e5a-7738-4c54-b823-0a99e00d32d1,74ce77fc-3c3f-4fef-9992-b4deadf7479e
0f28408c-1da6-40a4-9938-9306540a0a53,f5876ea9-e3e8-4822-803c-df0b6212d225
dc3e394b-0b31-4c9b-91f1-d9a83c7552f7,3f0c73b6-34bc-4c38-a659-ee16f53d20dd
88fb1038-297a-408e-8158-a148166ee54c,72d0755f-b7ed-4c86-8871-d7ac94dff1cf
1579d8ea-a7b7-4917-ae43-dff630010fe5,9f0c1db2-f6ad-4169-b7b5-897943a72068
c683b339-8993-4f87-908f-5ece0b23ffdd,c95ec959-432c-4a49-a951-6b0974e51784
95cca965-5bdc-4ebc-a014-970c8a1a846d,e28cbfc0-bb16-4313-ace3-27cea2d9f542
a2c7a623-a0d9-4edd-b589-75aef2087e34,ef879285-c89d-404e-9f9a-17d88cf7a646
cfa98b27-e987-4cde-a48a-4133277940e7,c95ec959-432c-4a49-a951-6b0974e51784
8196395c-2465-4cdb-b9a0-54dbd24afc73,b8e25b42-ba82-49df-ac1c-60ebc49f7a32
c82b00b4-441f-4a0e-aec6-a2e49c66badb,ef879285-c89d-404e-9f9a-17d88cf7a646
c8894385-99e0-4e86-9da4-8d13ef520207,d9b31490-a515-41fc-8013-ca831c1b99d7
82fa4e86-4edf-48c7-909c-904220482ec6,ef879285-c89d-404e-9f9a-17d88cf7a646
a391645e-96d5-410f-8de1-bd30233447d7,74ce77fc-3c3f-4fef-9992-b4deadf7479e
21614929-3b7a-4276-a1ec-71e44b923277,74ce77fc-3c3f-4fef-9992-b4deadf7479e
e4f0dfad-7b0c-4988-a64c-c84a6c149264,113c6019-6ef6-440f-9dd1-b14e625f7f50
4f37e56c-4594-4e0d-bb8e-f6dc8dacce2b,034e1c48-a013-4699-897d-d8b3b2f047f1
0bd382e7-d9ab-49c4-9054-7fc26ad315ad,fec5f0b2-707e-4dec-ba08-559f58ba5334
8b3eaa8d-347d-4e32-8547-91fc63278e85,034e1c48-a013-4699-897d-d8b3b2f047f1
a04bd4f9-8c24-47a3-ad5c-f8f786d701d4,72d0755f-b7ed-4c86-8871-d7ac94dff1cf
2ac12591-6380-43a8-8552-ac936e9e2c4d,f42bc50f-fa2b-4410-a712-8786c469b752
c1972aab-f73f-4051-b317-7953c87f59c8,72d0755f-b7ed-4c86-8871-d7ac94dff1cf
8cabe1a7-0c87-4a62-ba0d-0070013e8af1,f1b64e61-febd-4650-8f21-5d795ca7421a
29557829-0131-4ca1-99cd-b62c92c63414,ab72ccf5-4c0c-42ae-b468-740d7fab87f1
063bd488-1b1c-47d6-a363-3ba52ad72c67,f1b64e61-febd-4650-8f21-5d795ca7421a
8df56c4b-c4dc-4613-929e-edabdb1ab81a,d369e374-06ac-4086-a1fa-b18ec2b768dc
46471480-37da-4f55-9f49-0fc1e84294e7,ef879285-c89d-404e-9f9a-17d88cf7a646
507eeabb-fc7d-4235-a076-4ac8a9485a31,3f0c73b6-34bc-4c38-a659-ee16f53d20dd
61e39b30-d786-4154-a3db-7e320abcb945,053fe4a7-8975-4d17-9bb9-9e509a18f75f
188dd258-2fee-4975-ba4e-cd22f2d3287b,053fe4a7-8975-4d17-9bb9-9e509a18f75f
c43a090e-959b-43b6-ba52-c943c22b8cca,a7321738-2018-47a6-bdf4-449b9f457983
9644c1a9-6927-424d-aa14-025aad8669d3,ef879285-c89d-404e-9f9a-17d88cf7a646
f1b2cfa6-ed22-4cf2-86f7-507eee0acc7d,fb4c668e-d508-4e87-9efa-c5fbe3db33f1
9bfddb53-3e48-4187-a635-b888533bf6a1,053fe4a7-8975-4d17-9bb9-9e509a18f75f
4b788f0e-0469-4588-8c0e-6d715becf87f,ff09325a-b0fa-4cd0-b8c2-a20764885033
2fc15b67-4cde-4e80-80f5-c0c016469b05,74ce77fc-3c3f-4fef-9992-b4deadf7479e
17303c4e-9b94-4cc3-a919-233238ae44b4,e28cbfc0-bb16-4313-ace3-27cea2d9f542
3ca96cb9-f04c-4350-8a32-a26f885958d1,e28cbfc0-bb16-4313-ace3-27cea2d9f542
a8821d12-706e-426d-9d42-78f76f13f9a7,236b9be8-0884-4798-81b6-2be89f1db567
73e29bd0-3502-45b8-8e60-381a2b2f315d,e28cbfc0-bb16-4313-ace3-27cea2d9f542
07a1a661-933d-44a1-8a50-d6521348724d,053fe4a7-8975-4d17-9bb9-9e509a18f75f
af8f6a9b-1c9d-45f8-8a0d-76e9621c3d87,160121d9-c396-486c-a231-36b67625af69
8f293aba-af7b-4834-943d-13bba395322c,053fe4a7-8975-4d17-9bb9-9e509a18f75f
49c630bc-9d28-4a8c-9f34-d866cd81fda3,053fe4a7-8975-4d17-9bb9-9e509a18f75f
61b25d85-66f6-4c09-8e54-a8e1fad6d9fd,9a01e648-5a67-437b-ab42-f6bd2265e3b4
5d31e36f-e72c-4bc7-b477-09434c98d510,053fe4a7-8975-4d17-9bb9-9e509a18f75f
751ca7c7-2faf-46bb-8053-621af4879f08,2a913203-91e1-45ae-b10e-a3c86039c74e
5568c641-3b8f-463a-8809-647a57ef4c7d,c95ec959-432c-4a49-a951-6b0974e51784
b4d612df-8bf2-4d33-b146-feb684f6a9b0,c95ec959-432c-4a49-a951-6b0974e51784
cc856648-d602-4432-91b7-17fbb2bd7de0,3f0c73b6-34bc-4c38-a659-ee16f53d20dd
6a35b078-98d4-45b6-a8bf-b8fcde755217,f1b64e61-febd-4650-8f21-5d795ca7421a
c058fe2d-a484-4150-ad7d-da82740aab37,ca619bee-2530-4f81-b54c-8dcd5053949a
67e3dbd5-10ea-4b3d-9127-e4ffacb7574c,053fe4a7-8975-4d17-9bb9-9e509a18f75f
f647d532-0c6c-4861-942b-0e35f9e71f45,907d8930-1739-400b-9e64-5b7baa1768e7
51c1be1b-f712-419f-941c-ac51ab3e639c,053fe4a7-8975-4d17-9bb9-9e509a18f75f
8f4c5de9-12cd-4c73-8ee9-0bc05e521f15,48ea8059-3050-4b32-898c-01f68653ba16
d42d3128-0de0-4ab4-a881-82bd8e4e331c,cdd5fed8-a74a-4df8-8598-2bc8806c29c1
5a3e360d-2c08-4bed-a5ef-224f035c6604,48ea8059-3050-4b32-898c-01f68653ba16
