app_number,app_id,trigger,burn,sink,deploy_date,token_interval
1,ca842c2f-26a9-416e-a28a-a9dbade3d80e,6b9f2dba-2ef7-4514-91c3-b21b3dba5945,0afe6fa9-9584-45ab-a89d-c978d65f3b01,5ec63333-7dbe-4198-b2a5-19bf761594f1,2019-07-25 22:21:04,1.000000
2,795e5df9-740b-4a17-950d-339ab76a0d38,bd1464a9-ebd2-429d-beff-f5907ab8a02e,1c9ed581-8f05-4322-a4e5-1e6cce9c6e83,5bb61e5f-db40-4d53-93cb-04d8a8724554,2019-07-25 22:22:08,1.000000
3,61dc81ef-2d47-4793-8f25-203429e0a9f3,3ebc2f01-8bc7-4e95-82af-48554e753d44,dcfb7eeb-7014-4073-8562-202955b66a60,4a834d0d-1092-4695-b77c-ec785a89ff76,2019-07-25 22:23:11,1.000000
4,58537d42-f042-468e-9d0a-1938a8dcf544,58aadf3a-23db-439e-81ab-08789f7263f1,b981e7cc-4f5b-4b63-af60-620f9b5eaa20,6923b4a4-2692-4334-b528-66ad9b0775ea,2019-07-25 22:24:15,0.200000
5,50ed5404-4b0a-491b-b4f3-601b475f606e,4adc15ab-dbd0-4671-949b-ad61a3380b02,85be7945-d3fe-4f96-8038-3587f733a60d,337b9732-a33a-48f0-a226-b38b512ca809,2019-07-25 22:25:19,0.200000
6,d9406be8-705b-40f0-bc8c-07a03c633114,ba819bf9-0260-440a-8aba-aadc2e5cdff3,c96ae93c-4ec4-40f7-9eb5-b706e7fe2a1b,ba191604-4500-4347-99bb-edaf8f9675e2,2019-07-25 22:26:22,0.200000
7,0e7b338d-6f34-46b3-ab31-0db9fdaca43c,85285f77-8f7b-4ecc-85b6-5c47076c7c37,58d6ece0-4d6d-49f8-9695-d8e68edf4a1a,4578eb4d-a188-45c9-bf73-2be9758959bd,2019-07-25 22:27:26,0.200000
8,2cb932d6-3951-4652-98bf-8137f75c545e,4ab5f39d-50bb-43da-885c-8d77c9735ceb,acb2ae2b-380b-48a0-abd7-8e47d5bde47d,bb2fc7a4-e6be-4686-a097-c53c1c484796,2019-07-25 22:28:30,1.000000
9,e172a4ff-2bfd-48a9-a86b-beb0fd433307,db93b754-2cbd-4a08-801a-7afae3e5ba2e,9268df62-b908-44e0-9c26-f21cf76e1871,60dff04d-d990-4073-9dbe-c2ec69b22307,2019-07-25 22:29:34,0.200000
10,2acd0699-9633-433c-9df2-dfa1651eea27,b50ebb8b-efc9-46d5-93b3-00c273ce9731,2b16f60c-67db-43ff-9928-84e7caba51e1,eec6e67a-126d-47fc-92d1-4b530da0cd11,2019-07-25 22:30:37,0.200000
11,5176e63b-37a6-4c2a-ade2-6c9a21345a87,0042e0e0-b140-4110-bd9e-078830314543,261ac9e9-9522-4300-b0b1-5989d03c120b,977c5691-b08f-4419-8afe-1fdaf6447129,2019-07-25 22:31:41,0.200000
12,d1773638-f475-459c-8c1e-e3eb8f19a69b,f2fac7b2-d41c-4075-bfae-da541a21887e,49274986-8de2-4a73-80f4-5b956a01c973,04e49a75-f93c-4f84-b92a-4160b72e29e7,2019-07-25 22:32:45,1.000000
13,95012916-f963-4137-ae59-2fbf8847ee7d,bd86ac73-27c8-49b9-b918-e01a8be445f3,46c7bbf8-08f2-4fce-b349-5aafe4825ef9,55cee0a2-60da-4a3b-ba8e-64f66a4dd606,2019-07-25 22:33:49,0.200000
14,a327979d-ced2-4da7-b409-1bd6c5600be8,c43579e8-32ab-46ba-b97d-fa9f6271ffe0,f862964b-3347-40fd-8166-33c5b378b9c9,8381892a-7f9c-4152-a0cd-ea96a1bd4d96,2019-07-25 22:34:52,0.200000
15,39fe9aa6-189a-4f30-a700-3d0d4db8c8fe,bbb8c294-c2ee-4c91-ab95-526ae1d5ceca,468ab61a-de9e-4216-83b5-aa38f280e552,9069d244-e0b1-47d8-a133-e3e1a240cfb9,2019-07-25 22:35:56,1.000000
16,2d1f2e7e-3d7a-4e71-a890-3c032c83e001,e8071b19-fa60-4020-a0f5-c0e147f5e858,c725789d-06f5-47f3-bb68-b679d5b69d5d,1a36ef5a-2c7c-4dda-b384-18c2ac8d5fb4,2019-07-25 22:37:00,1.000000
17,6c905931-7100-4bd5-a28f-c4fe5086eee9,54151099-6f77-47ed-a011-4bf43e67a4d9,802ad2b8-e3af-4af2-b0e3-0ab0f933dcd0,f7105c80-94a1-4681-b63b-ff67bf46598f,2019-07-25 22:38:04,0.200000
18,1380ad99-2fe2-47fe-a2ff-5b0eda7e55b3,f23b4839-a907-47f3-82f7-4163c90334c7,a5f161e5-f211-4406-be5e-53697038e9e8,ad402b16-ff04-49f2-807c-cbaf23879b8f,2019-07-25 22:39:08,1.000000
19,aa0aa472-02f9-4843-8aab-00398f1e8550,21b80b0b-cd13-4ecf-83a8-479f6616d564,d3bda7f9-00c9-4e90-83e2-77e768aea551,3485837c-454d-4fe7-bcc5-fbdda997deb8,2019-07-25 22:40:12,0.200000
20,fd53d7b3-70b7-4189-b05d-dec831587033,6105d3dd-d8cd-4a0e-9663-a86acb0af0d0,86e86532-3209-40e3-a58f-5d0a6e12d541,303b5669-7f2f-4b49-829d-2b47708a26f8,2019-07-25 22:41:15,1.000000
21,a4859dd9-1a6e-4f78-b2ee-eb08e8b1559e,f10d27c2-a6a2-46ae-b9c2-5a77ddf62c73,5fb4da3f-82f4-4847-b02c-b0afdea9dea6,e0efb040-db2e-4147-8cc7-174faa8acda8,2019-07-25 22:42:19,0.200000
22,5ce1708d-0dc6-4b8b-bd20-35448c8a7005,480e9782-2046-4241-9555-c87c4df0020d,da9f6028-3611-4c6b-a65b-42fc8f30b4e6,cd8aa445-7bcf-4da2-9e4b-4e84e09a2fb6,2019-07-25 22:43:23,0.200000
23,0b4da4e7-8207-4690-baba-6c47ce786865,4a52b680-cb4b-44d2-babc-cc8e969f2a9f,f7137d0b-aa83-40d3-8265-70fc5eedd5ab,8c93f152-fa39-4bdc-85ee-314fb6f22d0e,2019-07-25 22:44:26,0.200000
24,208f5b5e-e283-4617-9850-7e1ec611e0cb,d8c59ad0-5f5f-496f-a939-62b1066c69ae,81830aaa-97b5-430b-8dba-e5e06c4d9533,c1ea5b66-f03c-43de-a66f-135cc8a35b7c,2019-07-25 22:45:30,1.000000
25,52da4333-5522-4815-9376-e2e11b21c837,be130c32-6e22-4adb-aab2-ddddd3176417,21567153-66b4-4c01-a47e-ba1d8c63e41b,7edc0e30-646c-4c97-b0ef-1718e99e883e,2019-07-25 22:46:34,1.000000
26,a2bf2699-6abb-41d5-9c83-7dcfb5f54b79,719c940a-e482-4fa9-9857-7873e518f456,9e0d15e3-f670-4b51-aa07-da177330170c,c4f7e8fe-ba09-4f15-805b-58397284809f,2019-07-25 22:47:38,1.000000
27,d2763805-b28c-427b-b49e-9dd6bfe761c4,a3d76c8d-feb8-4820-9257-9417ea479c96,34fe765e-976c-4b84-a070-21fca4fc9d80,4fae4d93-cc77-4236-9bd5-a50b23be2512,2019-07-25 22:48:41,0.200000
28,d69b7b0d-8098-4357-a74f-cb24d1bb2adb,b96d8f45-4383-47e2-b14c-df5e63028347,a8e4eea5-2b97-463d-bdd5-776051d5e74d,468aa0ee-9685-4960-8c7e-68f33c47de3f,2019-07-25 22:49:45,1.000000
29,395f63cf-b4cf-4685-897d-252da2633e10,71c41736-d6e9-4bfb-a725-e22e074a13e0,ab576f57-e03f-405f-81ee-87762e28396b,c798b83f-2559-4de5-a8ee-36d1875d48f2,2019-07-25 22:50:49,1.000000
30,19328c07-2c2d-416d-851e-02259600c86b,d496914f-a40a-4d41-aa21-0bb696a5b581,ef7c6bb1-9d3e-4c5d-aa4f-784e91567ebf,805db336-623b-4dc1-ad2b-28a93834a66c,2019-07-25 22:51:53,1.000000
31,579d0cc1-402a-4670-a13c-b67e0ec05c7b,160ce2f3-76e9-4754-a0fa-a21e42c91b18,2e19da09-a3fb-4c8d-a34a-31ff67808561,4ab4ada0-6796-4cfb-b07a-5bad7face9d5,2019-07-25 22:52:57,1.000000
32,e44aca8f-35e5-44f6-b742-b73ff0449cc1,de7a33c2-0621-4d52-b70b-a61ee86904fb,301017ae-e06f-4b78-8b86-fc1143a24a1d,519f5f1d-7276-4c15-866f-0d95a1ec4417,2019-07-25 22:54:01,0.200000
33,9a736673-bcd4-4911-ad13-8e04b2c6f9a4,b4d8bcb7-b2a7-4718-bafc-2ff878c039fc,d593659a-e924-45c9-b24b-1331a3bab63e,7e4046c3-9bf5-4de0-9020-e6db14ae89b9,2019-07-25 22:55:04,1.000000
34,575bf968-6191-4828-9e40-23a606a43e61,1bb3d754-b6fd-4cad-a086-08b8b62374f1,3d874a19-4c9e-4942-88b3-61f03d6dca29,6fda7593-312c-47f8-a961-739ae01c4c23,2019-07-25 22:56:08,0.200000
35,75ea1aba-3483-4a11-b2bb-a59db430739e,496e5c94-6cf7-43f0-b646-c79c6b855cd1,ece0241a-98f8-4d28-8271-0965d50c56ac,a31d8195-5cd6-4e1a-b762-c1146b849478,2019-07-25 22:57:12,1.000000
36,6ae2224d-e66f-4661-88db-8e61cee70331,6d6f7a51-a677-4b07-8044-ed1e0283674a,65ed776a-4e7c-45a6-b4b6-bb23e6f6707f,286b2e4c-84f0-43d7-824c-18f9a5117a4b,2019-07-25 22:58:16,0.200000
37,d883a25c-d6f5-4784-91b7-25d8d8326d33,f09fa80b-c7dc-4297-acdb-ee6ff1c67efc,54052950-d168-4d8a-8b8c-3b1f69f35620,5497e471-fefc-4256-b5ea-1306850e4968,2019-07-25 22:59:20,1.000000
38,ae77e4d2-e2fc-45c3-a261-af67a89aaec1,fcb9dbaa-b800-4a03-9f8f-0993048315f1,4e140a25-0f02-445f-91e6-4efc31d85b22,506f4929-7a7d-49a2-be63-4e836b3d5ed1,2019-07-25 23:00:24,1.000000
39,1b12e3e0-5682-468f-8afa-7737b8108c2e,44cff72d-814b-4f94-86d0-67b10bee7d56,119fdc77-2634-4b59-9df2-bf55e2eca80b,6ad64f3c-16f6-4869-82d2-90e363d544d7,2019-07-25 23:01:27,0.200000
40,db93a49c-f7e2-4df0-962a-c97997c4ebc7,575187c0-f7c3-4d4d-83ed-1ce108eec3c1,1db52577-4e36-4caf-b62b-274f9c7a24f3,3fb70254-3fad-47a5-add3-d94cabaab1c4,2019-07-25 23:02:31,0.200000
41,f01c9116-ddbb-4191-bdb8-8a57400b6b7a,d0324d53-7cbb-47c9-a87f-b0e94bd84e82,66d9a646-b262-4fdf-9171-fe2c58a75ce3,ad0a7bdb-f22e-4684-ba80-6490322be017,2019-07-25 23:03:35,1.000000
42,dca24558-4cc9-4900-b2bd-58ec4c9b9a0c,e33dbfb3-1920-4d49-bba2-1274d6854e93,8012b5d0-fd6d-45d7-9a47-12075c5e4588,d104c950-8835-4a8e-95f6-814cc02bec17,2019-07-25 23:04:39,0.200000
43,85fb6489-558b-49e6-919c-ad91e98c2db7,b21a6f48-5f7b-466b-af61-9cbaa1069566,0f41a448-84e0-442f-9224-138e2793c141,ada482f4-0b86-4b9e-aea3-547ed8cf300a,2019-07-25 23:05:42,0.200000
44,2c2be84c-3297-420a-8af8-a4742b2d80a9,78907cb2-0f4f-49c6-9000-e299d0a9dfcb,20321ea9-7d45-4951-b601-baaaac8cd2a9,76539a76-2b2f-4c84-858c-500ad14f6542,2019-07-25 23:06:46,0.200000
45,725fe791-af7e-4df2-a38d-5f1d59b7a40c,d2207643-e184-4360-9255-546afc0281a5,28893d58-62b0-4be2-b793-63050bc0d626,9594f6be-770d-4c2d-9a64-77e5528fdac0,2019-07-25 23:07:50,1.000000
46,e79ec5cd-0290-4c42-bda6-5f8c5bdf98c5,9044d400-db8b-415e-9359-0f27ce5e5a33,0150021a-af70-4da8-b481-7e5f43eed8b2,4b592a7e-78c8-42a8-ba7d-d2975352a2f6,2019-07-25 23:08:54,0.200000
47,26a6bb20-3966-452a-8ff9-c19c84c3a7c8,98f5f6ed-6619-4d14-99b2-9793cdec7706,44faa6bf-95aa-4c6b-927e-31e85d1039b2,ff6f4bba-7ee8-4ead-94dd-180a5dc88100,2019-07-25 23:09:57,0.200000
48,538cbf6c-6e41-4e7b-902a-594c9c4948cd,efbd6af5-df9f-403a-b393-2569c6d1f348,3b8f19eb-fdce-4a56-accd-33f26fed28aa,575b093e-df7a-46a3-8f5d-fe61ef540d42,2019-07-25 23:11:01,1.000000
49,0afd9978-7a5b-4461-bc58-8c014c0b0c97,04a5cf37-ae3b-4068-91ea-901d29c1a5a2,ab735031-7347-44c3-a70e-2189c00ded40,bf874b52-9c34-4fb3-b380-996e53e50169,2019-07-25 23:12:04,0.200000
50,63916ad4-831f-45cf-b5b3-3bf2a9826be6,0d2a9c65-475f-4dd1-940d-b284a1bc5464,8c0bf624-010d-418d-9bd7-be148fb3fa81,44922131-8b7e-4907-b0ef-91861be3a389,2019-07-25 23:13:08,1.000000
