app_number,app_id,trigger,burn,sink,deploy_date,token_interval
1,7fe1eca5-41e6-4f06-929c-353f19c1b4a8,7d39d00a-f523-455f-bc07-8f8918ff647f,c1447853-330a-4309-a9a8-732293a52389,0ac75bed-43fd-480c-b657-21e2a5b3d2d2,2020-02-12 21:44:30,1.000000
2,11082a27-13f7-4b2b-a43f-fa8cdacc9bd4,bf608f27-a228-44cd-aaef-4e897cf13e94,1908aa24-ab79-41e4-ae47-2502857def72,025cc1bf-af8a-4c9e-8f70-28034edef6fb,2020-02-12 21:45:33,1.000000
3,fedfa6a9-909a-477f-9ea1-0574bc6ba5ec,e03baf91-68a8-4ab7-9f1f-59562396223a,28f554bb-15c2-4a0c-8c28-1f32587037db,cff35761-fbfa-4799-a9a1-2c4aa0123388,2020-02-12 21:46:35,1.000000
4,c402b2fd-e30c-473f-90f5-fa4143d3b67d,c042ff8e-4d44-4b60-a43a-78999903967a,8b3507aa-cc01-452b-baf2-3a87386f7595,2b2ae4c2-7c3e-40fb-bead-286e08e0b396,2020-02-12 21:47:39,0.200000
5,88765df5-25db-4543-9d3d-f2e8d4fe9152,ae1cdb39-c52b-43a6-a2cc-219a801fd67d,62af0a6a-426e-4ac6-89da-9cd4ff3081d7,bb13e891-60f9-4be4-aa54-c911320a4b60,2020-02-12 21:48:42,0.200000
6,366b6970-ab46-481d-a7a8-e20623b55a3c,2de87bbf-6a4b-4f86-856b-22802e635f42,3fcc37be-8c92-4c6f-99fd-b61a01fc0410,8e4b3179-b9a6-44a1-9ca4-f60b3dedba09,2020-02-12 21:49:45,0.200000
7,92440742-23ca-4cf4-aa34-210db2b64553,651c203a-aba9-4bc0-81bb-9da4b1aaee29,6ff87ea5-0c30-4443-801d-a7929b368fb1,c377c5e1-06b0-4bbc-8436-e9d87ce62d00,2020-02-12 21:50:48,0.200000
8,03154d6a-6ec6-40de-b1fa-a4389acb1715,56f504f6-c790-4720-ae2e-2e267573d366,0970acb2-0a96-48ac-9be0-6684bc989b55,f2d4013a-b943-4f58-b01c-b863c111291c,2020-02-12 21:51:51,1.000000
9,00a0f8e8-7537-439d-893c-88c53608020a,5e853400-f717-437a-aafc-c320b040fd9a,88e0a9be-a4e0-41cf-9b6b-315c40a6aac9,12a9495d-c6bc-4dd4-99f2-c47261f113d1,2020-02-12 21:52:54,0.200000
10,fc85bbfc-96e4-41b0-8309-1d55f185300c,70ee2bb7-78fe-49ce-a96c-51a5fe223951,c3150b82-2e86-4611-9037-4897f4b03895,e19e2d75-c86e-4133-b7eb-0d383c74019e,2020-02-12 21:53:56,0.200000
11,a748607e-f839-4d94-ad03-c546c79161b1,a46aee88-d2c9-4013-bb23-ad34b55a1eb5,c7e4c4be-6c86-4bc4-8baa-4a0e1cc37441,e22f3abf-391e-4544-836d-6200967034fb,2020-02-12 21:54:59,0.200000
12,deca41a4-708b-4342-a9e5-64686ad08370,5e8f565a-75b2-400c-87de-36a3ef0e322e,0c55d796-f713-428b-a870-f69b4409383c,9e48661d-c82e-4b6a-9440-de38a0fdda89,2020-02-12 21:56:02,1.000000
13,6a4996df-3e13-45c1-a219-548b169597dc,4b7d9f58-3747-4035-b2e4-d26a626adb00,691e85d9-4090-4b30-aef1-22a1bf1bcade,5dc7481c-2c10-4768-997f-d45626715f07,2020-02-12 21:57:06,0.200000
14,c9e702de-bfe5-4a81-93d1-ca8153fef88c,150a39e4-bf2c-4d77-8175-a85fac7a5298,476a7181-ceda-4cde-b771-a9d634e9b71e,5026e6d8-7bea-4c2d-91aa-b59ca7d92f4d,2020-02-12 21:58:09,0.200000
15,d3d7a92b-cfdc-4f07-9573-efdab52cdfa9,c887e9fa-c82f-4c31-9590-42e04c670d13,20da185a-3579-44ad-afcb-770e92d7943e,c976f2be-a0c5-491d-8c4b-42b944c2ae94,2020-02-12 21:59:12,1.000000
16,15cfe777-eff0-465e-9f0f-de79e19d7f3c,8180ef27-9f4b-4018-a3a6-cf2475da1ced,8ee7e84e-a001-44ca-a069-25e209ac96fa,26692d19-a3c6-4768-bd05-efa5d39b52ba,2020-02-12 22:00:14,1.000000
17,baa2b141-c4f6-4251-9551-9479de96bb4d,3c1af5d5-2df6-4774-8ef6-5c6ff87dfe4a,606f9987-4aa7-4e74-850e-c694d76084ad,b32b544d-31ad-4d59-8821-d7b68314f266,2020-02-12 22:01:17,0.200000
18,973c2b7a-33db-4f8d-92ce-2dbaff1725cf,34a54530-334e-41f0-b69b-646f26b3fd51,a70a6245-1559-4a60-a441-5ed419433352,a2f21234-5746-4195-8df0-05fdfb90c794,2020-02-12 22:02:20,1.000000
19,22fce9da-55c0-4a40-9eaf-a31a83415904,0c8dad54-15a2-4fdc-b454-3b0ccde0a200,446cefcd-4c40-4b3f-bf35-c349ee77d516,c2129531-ca2c-4ffa-8cfe-cc59695a35fd,2020-02-12 22:03:23,0.200000
20,461491bc-db2b-4724-8435-bd52aab1741f,82ce3807-fde2-4680-b4a9-968198f18813,b9be8537-5e97-4983-8601-bb047c56c358,2cb226c4-ab74-4a99-9526-fedf646862da,2020-02-12 22:04:26,1.000000
21,1584deee-8b61-44c6-a4cf-3cacb5eadbdf,7c788edf-ea5b-4732-bfc5-9b3700343067,fd2fe3d4-c37a-4e59-bf0b-e67aad3f2d04,78fc4503-376b-4822-a11f-7c92d7caa8b4,2020-02-12 22:05:29,0.200000
22,f3a5e5ca-8c7c-478e-8aa9-4be83e7f7a4e,8c9d97d1-f566-456b-ac66-47988314048e,15705842-cc41-4bcc-af43-9096ff802728,b80d11ab-1dfa-49b5-a28d-3c6b30e2408e,2020-02-12 22:06:32,0.200000
23,deef49d5-7c1b-42f5-b45f-fdc7003098d5,3371d942-ba46-45bc-b0c6-d96d90ef9460,0a9f6fd4-1484-4962-9abb-2db27f5f5965,f7c11e4c-a64f-44e7-b63f-edb3c36b3cce,2020-02-12 22:07:35,0.200000
24,0308f238-9278-4563-8d16-cd9aebdd27eb,ce786043-3a7a-45f0-960e-80b60b5fd23d,ba74d1f3-5130-4e05-bb22-1dd67f24ea3f,627d7858-ec91-4290-8d58-5c9ca4c1fc8a,2020-02-12 22:08:38,1.000000
25,ccfdb266-959c-4600-b4a7-849238ce4ebf,8c520df7-9cce-457c-9e48-541827ca2e0b,fe367cf2-1d5a-4a6a-8a66-2f1862af33ee,061412f3-db3a-44c4-aa25-4c9b09e47648,2020-02-12 22:09:41,1.000000
26,e18643cd-2151-46b1-984d-26afce88272e,1e508e78-896d-4ba6-9f77-bf7a87d35212,8c381b68-200e-480a-a115-6b274bedf61b,57721d8c-ba72-4224-b5bf-e5c6bad3ac3b,2020-02-12 22:10:44,1.000000
27,957e3591-cf05-4710-a384-fd9d7a2f8d5e,7f26dd4f-4e34-472a-a4cd-911937b6b7f0,e81a5932-3b8f-4011-9762-e83eb10833af,c87cf89b-22e9-4270-afd1-4cf64e885cc9,2020-02-12 22:11:47,0.200000
28,e74c1919-61df-4acd-8378-47f934a342fd,06121c75-cf57-4386-8113-61feec38c37e,718e884f-71f2-448d-8e1d-c8dd2bd4bd47,026c0c23-6791-4981-9684-308906cbe70d,2020-02-12 22:12:50,1.000000
29,9c92fd7a-d660-4b2a-8505-44a40e0bc78b,5be46d98-619f-4bea-af69-316dc512e017,e1b6d908-9643-4e43-b3a6-bd2cffcc9251,8925483d-e282-463c-85fa-d4a02d60d91b,2020-02-12 22:13:54,1.000000
30,aeeb18b7-b526-4061-b3bf-dc278dff2938,8ff69e38-21e3-4ce0-8e6d-ca883387414b,e3d242e7-ec84-4381-81ed-d2d71b60e74b,7ba172fb-296b-446d-bbc4-0640e131178e,2020-02-12 22:14:57,1.000000
31,1fd4a113-9293-43b1-9c14-16b9deef4b11,0d0b186c-acde-4439-bd2f-14d5ff4feddd,fd0ca147-5c97-4fb2-a137-dfb649f4645b,2c853a82-1667-49f1-bfcd-31376eebae80,2020-02-12 22:16:00,1.000000
32,b8b94c1e-cf73-4a6d-b8f6-172440e9098c,35054e71-319d-45b8-8021-eacc23048772,8d11d126-6dc5-4903-ac60-140731d81db3,c7a9326a-2244-4a03-bd58-eb5bc94575cc,2020-02-12 22:17:03,0.200000
33,d1152174-3add-415a-a5b9-fef38e35b4d8,a77bb7c0-4eef-4e0f-87bf-64b9910ff79c,f78fd116-2e6b-4894-b3b3-85a2f4df8944,7d8117d0-3c69-4474-8ce3-a51c8d3f956e,2020-02-12 22:18:06,1.000000
34,b147fedd-d9be-4137-b9b9-09fba92b1db2,f96e2e38-6fcd-481a-9387-764481038ac1,804592bc-c865-49dc-9f46-199a0782d87f,953b241d-dd8b-477d-9c17-101643eb8476,2020-02-12 22:19:09,0.200000
35,594e2ff1-4a17-4db6-8ae8-8d2bfd11c122,cfcf0e1a-6088-4beb-8513-e8175f8908d7,67c75113-dff9-4e52-ae60-35231804dce8,5f9bd179-9914-4558-83a4-8e3792e36e24,2020-02-12 22:20:12,1.000000
36,cb7bcef3-0b31-49c8-8b81-f4dded7c8be2,3347c66e-c42e-4d88-a0ee-bb7e3f745522,59da814c-7d6f-4e30-a85f-7b2ce38106c3,016588db-edb4-4404-9cd8-8f5dca8b0886,2020-02-12 22:21:15,0.200000
37,616ba1a8-5c84-4aa0-8bbc-714eb218c460,98383df6-2f14-40c7-94d8-d96f16e9067d,f09af3c1-a933-4ff7-ae35-68afcfc4d661,ea3c020f-f30e-47da-a87b-137ab2714e3c,2020-02-12 22:22:18,1.000000
38,7dc267cd-fb04-4762-b3d0-735dcc9535c2,5de623dc-d9d7-46cc-bcad-0977e022845d,6642c720-9b57-4be1-8845-d86f547e3478,b0afdf9b-8ef2-4631-b29b-5cf28c654ab1,2020-02-12 22:23:21,1.000000
39,39af8bb5-c529-402a-98e2-fbe35c810816,48702a9b-258c-4212-a22c-0e50f248eca3,f6b883e1-2523-4cf9-ab84-1fe1b52e7b77,25bfb8b0-f571-4d77-b36a-ff9e6646719a,2020-02-12 22:24:24,0.200000
40,c12fb93d-5cc4-4d88-ba96-20119d2aa513,da8ec278-06f3-4cb2-b6ac-2108cff53ed8,ba6b55f1-9d03-4241-a377-1b0a1028cac5,6fa5d645-0b52-4be5-addf-b12b4b826efd,2020-02-12 22:25:27,0.200000
41,f9b59ee7-51b4-4544-aecc-27bcc213418f,cbf5d222-de3f-4065-a5e5-ef7726f955bb,e11c3f79-d41a-494e-8b6d-cdcea9145ef4,1dfe4db5-32c5-433d-9ab0-c937cb004161,2020-02-12 22:26:30,1.000000
42,f2fe6c86-2c3d-4e85-9f45-d95466d95698,ceefaeb2-1639-496e-9248-e91444a70f63,fcc81527-43c7-45a8-852f-ef54c5ab2a10,1782dd16-aacf-4f79-9175-b95d3b487aac,2020-02-12 22:27:33,0.200000
43,0dae7f90-c0bc-4095-afcd-b7eaae6259c7,7fb3ad1b-1e5a-401c-b0a8-8ee6f6b067f6,85cc082c-dd35-4042-b933-3244359e046b,90d2cb28-930e-497e-9235-d1bbfa299888,2020-02-12 22:28:36,0.200000
44,62eda6bd-8c00-4488-98f8-3e67c9aa4382,801fbbe0-2a1f-4e02-a010-7062f4fe9864,33d577e7-70a1-4cee-ab4c-e31c5833cd9e,21da7592-f829-4236-b6a5-d500fb5c9887,2020-02-12 22:29:39,0.200000
45,1c5afb1d-9e7f-4da6-94e3-e976441f05b3,533236e9-5422-43b1-ad8c-2c147ac75bcd,1e24c8a0-abf9-476b-9078-9bb8b9f717d6,3641f2bf-17bf-447d-9d12-96bd06b97dd2,2020-02-12 22:30:42,1.000000
46,1549b35d-a456-4bf2-8ae8-508df72e9d51,a7495c7e-170b-473d-a17b-b800e890ba2b,50990bc0-0610-45e8-9e78-ae73901470c8,8d50eafe-8bf4-4f6d-8b5f-55510fcb3d9d,2020-02-12 22:31:45,0.200000
47,6bc09a49-ab9f-46fc-8e4b-ab501d61e2cf,485527de-730b-4924-b629-2986480753a1,7057b6ee-393b-459d-8272-01032c920070,f8096b8c-e8c5-4121-9fc5-97cb7aeb84c6,2020-02-12 22:32:48,0.200000
48,8a078e5a-60b1-4d21-8f78-5cc58eb51242,f5c23dc7-bec4-4fd2-b9be-bab41659a52e,bbcb0283-56cd-4c4f-b1e7-5bc477a01706,0c77f658-2f0b-479a-aa31-32eefee54a73,2020-02-12 22:33:50,1.000000
49,b7f2055e-21b3-47c8-aa66-54bee0d1d2db,28bbd9de-ee31-4adf-99f5-1e461d739f82,14e846c1-72ad-4e31-96c6-2a3de7f4673e,4e60f16d-dd3f-4db8-8897-4f1d0d288ea9,2020-02-12 22:34:53,0.200000
50,ec819956-bd68-4e75-ad42-9ac4c11c7f8c,1bd4659e-af54-4f1e-965e-11d5b7775eb1,37f1db38-c94c-4aba-a0b1-e93bbfe9e977,cfc37530-71c4-4c13-81a9-fc5caca0f590,2020-02-12 22:35:56,1.000000
