date,trigger,state
2020-02-12 22:27:15,cbf5d222-de3f-4065-a5e5-ef7726f955bb,A
2020-02-12 22:30:44,cbf5d222-de3f-4065-a5e5-ef7726f955bb,S
2020-02-12 22:33:47,cbf5d222-de3f-4065-a5e5-ef7726f955bb,A
2020-02-12 22:42:44,cbf5d222-de3f-4065-a5e5-ef7726f955bb,S
2020-02-12 22:57:41,cbf5d222-de3f-4065-a5e5-ef7726f955bb,A
2020-02-12 22:58:43,cbf5d222-de3f-4065-a5e5-ef7726f955bb,S
2020-02-12 22:59:12,cbf5d222-de3f-4065-a5e5-ef7726f955bb,A
2020-02-12 22:59:52,cbf5d222-de3f-4065-a5e5-ef7726f955bb,S
2020-02-12 23:06:55,cbf5d222-de3f-4065-a5e5-ef7726f955bb,A
2020-02-12 23:12:06,cbf5d222-de3f-4065-a5e5-ef7726f955bb,S
2020-02-12 23:30:57,cbf5d222-de3f-4065-a5e5-ef7726f955bb,A
2020-02-12 23:33:04,cbf5d222-de3f-4065-a5e5-ef7726f955bb,S
2020-02-12 23:40:12,cbf5d222-de3f-4065-a5e5-ef7726f955bb,A
2020-02-12 23:43:41,cbf5d222-de3f-4065-a5e5-ef7726f955bb,S
2020-02-12 21:49:38,ae1cdb39-c52b-43a6-a2cc-219a801fd67d,S
2020-02-12 21:53:41,ae1cdb39-c52b-43a6-a2cc-219a801fd67d,A
2020-02-12 21:54:31,ae1cdb39-c52b-43a6-a2cc-219a801fd67d,S
2020-02-12 21:59:44,ae1cdb39-c52b-43a6-a2cc-219a801fd67d,A
2020-02-12 22:04:37,ae1cdb39-c52b-43a6-a2cc-219a801fd67d,S
2020-02-12 22:09:35,ae1cdb39-c52b-43a6-a2cc-219a801fd67d,A
2020-02-12 22:12:10,ae1cdb39-c52b-43a6-a2cc-219a801fd67d,S
2020-02-12 22:12:56,ae1cdb39-c52b-43a6-a2cc-219a801fd67d,A
2020-02-12 22:23:32,ae1cdb39-c52b-43a6-a2cc-219a801fd67d,S
2020-02-12 22:23:56,ae1cdb39-c52b-43a6-a2cc-219a801fd67d,A
2020-02-12 22:31:34,ae1cdb39-c52b-43a6-a2cc-219a801fd67d,S
2020-02-12 22:36:54,ae1cdb39-c52b-43a6-a2cc-219a801fd67d,A
2020-02-12 22:37:20,ae1cdb39-c52b-43a6-a2cc-219a801fd67d,S
2020-02-12 22:43:46,ae1cdb39-c52b-43a6-a2cc-219a801fd67d,A
2020-02-12 22:45:50,ae1cdb39-c52b-43a6-a2cc-219a801fd67d,S
2020-02-12 22:46:03,ae1cdb39-c52b-43a6-a2cc-219a801fd67d,A
2020-02-12 22:51:06,ae1cdb39-c52b-43a6-a2cc-219a801fd67d,S
2020-02-12 22:51:47,ae1cdb39-c52b-43a6-a2cc-219a801fd67d,A
2020-02-12 23:08:54,ae1cdb39-c52b-43a6-a2cc-219a801fd67d,S
2020-02-12 23:11:10,ae1cdb39-c52b-43a6-a2cc-219a801fd67d,A
2020-02-12 23:11:30,ae1cdb39-c52b-43a6-a2cc-219a801fd67d,S
2020-02-12 23:14:56,ae1cdb39-c52b-43a6-a2cc-219a801fd67d,A
2020-02-12 23:15:07,ae1cdb39-c52b-43a6-a2cc-219a801fd67d,S
2020-02-12 23:22:08,ae1cdb39-c52b-43a6-a2cc-219a801fd67d,A
2020-02-12 23:27:56,ae1cdb39-c52b-43a6-a2cc-219a801fd67d,S
2020-02-12 23:48:39,ae1cdb39-c52b-43a6-a2cc-219a801fd67d,A
2020-02-12 23:49:55,ae1cdb39-c52b-43a6-a2cc-219a801fd67d,S
2020-02-12 22:01:49,3c1af5d5-2df6-4774-8ef6-5c6ff87dfe4a,A
2020-02-12 22:04:40,3c1af5d5-2df6-4774-8ef6-5c6ff87dfe4a,S
2020-02-12 22:09:47,3c1af5d5-2df6-4774-8ef6-5c6ff87dfe4a,A
2020-02-12 22:25:14,3c1af5d5-2df6-4774-8ef6-5c6ff87dfe4a,S
2020-02-12 22:34:17,3c1af5d5-2df6-4774-8ef6-5c6ff87dfe4a,A
2020-02-12 22:44:00,3c1af5d5-2df6-4774-8ef6-5c6ff87dfe4a,S
2020-02-12 22:52:30,3c1af5d5-2df6-4774-8ef6-5c6ff87dfe4a,A
2020-02-12 22:53:16,3c1af5d5-2df6-4774-8ef6-5c6ff87dfe4a,S
2020-02-12 22:53:35,3c1af5d5-2df6-4774-8ef6-5c6ff87dfe4a,A
2020-02-12 23:02:13,3c1af5d5-2df6-4774-8ef6-5c6ff87dfe4a,S
2020-02-12 23:05:12,3c1af5d5-2df6-4774-8ef6-5c6ff87dfe4a,A
2020-02-12 23:05:15,3c1af5d5-2df6-4774-8ef6-5c6ff87dfe4a,S
2020-02-12 23:06:26,3c1af5d5-2df6-4774-8ef6-5c6ff87dfe4a,A
2020-02-12 23:08:16,3c1af5d5-2df6-4774-8ef6-5c6ff87dfe4a,S
2020-02-12 23:10:07,3c1af5d5-2df6-4774-8ef6-5c6ff87dfe4a,A
2020-02-12 23:11:06,3c1af5d5-2df6-4774-8ef6-5c6ff87dfe4a,S
2020-02-12 23:12:49,3c1af5d5-2df6-4774-8ef6-5c6ff87dfe4a,A
2020-02-12 23:22:05,3c1af5d5-2df6-4774-8ef6-5c6ff87dfe4a,S
2020-02-12 23:24:12,3c1af5d5-2df6-4774-8ef6-5c6ff87dfe4a,A
2020-02-12 23:25:10,3c1af5d5-2df6-4774-8ef6-5c6ff87dfe4a,S
2020-02-12 23:27:37,3c1af5d5-2df6-4774-8ef6-5c6ff87dfe4a,A
2020-02-12 23:36:23,3c1af5d5-2df6-4774-8ef6-5c6ff87dfe4a,S
2020-02-12 23:38:40,3c1af5d5-2df6-4774-8ef6-5c6ff87dfe4a,A
2020-02-12 23:43:32,3c1af5d5-2df6-4774-8ef6-5c6ff87dfe4a,S
2020-02-12 23:43:40,3c1af5d5-2df6-4774-8ef6-5c6ff87dfe4a,A
2020-02-12 23:44:18,3c1af5d5-2df6-4774-8ef6-5c6ff87dfe4a,S
2020-02-12 23:47:48,3c1af5d5-2df6-4774-8ef6-5c6ff87dfe4a,A
2020-02-12 23:49:14,3c1af5d5-2df6-4774-8ef6-5c6ff87dfe4a,S
2020-02-12 22:34:27,1e508e78-896d-4ba6-9f77-bf7a87d35212,A
2020-02-12 23:08:14,1e508e78-896d-4ba6-9f77-bf7a87d35212,S
2020-02-12 23:08:41,1e508e78-896d-4ba6-9f77-bf7a87d35212,A
2020-02-12 23:37:58,1e508e78-896d-4ba6-9f77-bf7a87d35212,S
2020-02-12 23:41:01,1e508e78-896d-4ba6-9f77-bf7a87d35212,A
2020-02-12 23:43:29,1e508e78-896d-4ba6-9f77-bf7a87d35212,S
2020-02-12 23:45:01,1e508e78-896d-4ba6-9f77-bf7a87d35212,A
2020-02-12 23:45:47,1e508e78-896d-4ba6-9f77-bf7a87d35212,S
2020-02-12 23:49:02,1e508e78-896d-4ba6-9f77-bf7a87d35212,A
2020-02-12 22:06:57,82ce3807-fde2-4680-b4a9-968198f18813,A
2020-02-12 22:10:38,82ce3807-fde2-4680-b4a9-968198f18813,S
2020-02-12 22:13:57,82ce3807-fde2-4680-b4a9-968198f18813,A
2020-02-12 22:15:37,82ce3807-fde2-4680-b4a9-968198f18813,S
2020-02-12 22:31:07,82ce3807-fde2-4680-b4a9-968198f18813,A
2020-02-12 22:32:52,82ce3807-fde2-4680-b4a9-968198f18813,S
2020-02-12 22:33:15,82ce3807-fde2-4680-b4a9-968198f18813,A
2020-02-12 22:55:03,82ce3807-fde2-4680-b4a9-968198f18813,S
2020-02-12 23:02:13,82ce3807-fde2-4680-b4a9-968198f18813,A
2020-02-12 23:06:34,82ce3807-fde2-4680-b4a9-968198f18813,S
2020-02-12 23:07:14,82ce3807-fde2-4680-b4a9-968198f18813,A
2020-02-12 23:11:29,82ce3807-fde2-4680-b4a9-968198f18813,S
2020-02-12 23:13:19,82ce3807-fde2-4680-b4a9-968198f18813,A
2020-02-12 23:16:01,82ce3807-fde2-4680-b4a9-968198f18813,S
2020-02-12 23:25:16,82ce3807-fde2-4680-b4a9-968198f18813,A
2020-02-12 23:32:52,82ce3807-fde2-4680-b4a9-968198f18813,S
2020-02-12 23:37:48,82ce3807-fde2-4680-b4a9-968198f18813,A
2020-02-12 23:44:26,82ce3807-fde2-4680-b4a9-968198f18813,S
2020-02-12 22:28:37,ceefaeb2-1639-496e-9248-e91444a70f63,A
2020-02-12 22:43:20,ceefaeb2-1639-496e-9248-e91444a70f63,S
2020-02-12 22:45:26,ceefaeb2-1639-496e-9248-e91444a70f63,A
2020-02-12 22:54:31,ceefaeb2-1639-496e-9248-e91444a70f63,S
2020-02-12 23:06:04,ceefaeb2-1639-496e-9248-e91444a70f63,A
2020-02-12 23:12:16,ceefaeb2-1639-496e-9248-e91444a70f63,S
2020-02-12 23:18:57,ceefaeb2-1639-496e-9248-e91444a70f63,A
2020-02-12 23:19:21,ceefaeb2-1639-496e-9248-e91444a70f63,S
2020-02-12 23:20:28,ceefaeb2-1639-496e-9248-e91444a70f63,A
2020-02-12 23:24:47,ceefaeb2-1639-496e-9248-e91444a70f63,S
2020-02-12 23:25:19,ceefaeb2-1639-496e-9248-e91444a70f63,A
2020-02-12 23:31:58,ceefaeb2-1639-496e-9248-e91444a70f63,S
2020-02-12 23:34:41,ceefaeb2-1639-496e-9248-e91444a70f63,A
2020-02-12 23:36:28,ceefaeb2-1639-496e-9248-e91444a70f63,S
2020-02-12 23:40:15,ceefaeb2-1639-496e-9248-e91444a70f63,A
2020-02-12 23:46:31,ceefaeb2-1639-496e-9248-e91444a70f63,S
2020-02-12 23:46:43,ceefaeb2-1639-496e-9248-e91444a70f63,A
2020-02-12 23:49:19,ceefaeb2-1639-496e-9248-e91444a70f63,S
2020-02-12 21:46:52,e03baf91-68a8-4ab7-9f1f-59562396223a,S
2020-02-12 21:47:57,e03baf91-68a8-4ab7-9f1f-59562396223a,A
2020-02-12 21:49:12,e03baf91-68a8-4ab7-9f1f-59562396223a,S
2020-02-12 21:52:50,e03baf91-68a8-4ab7-9f1f-59562396223a,A
2020-02-12 21:55:34,e03baf91-68a8-4ab7-9f1f-59562396223a,S
2020-02-12 22:00:44,e03baf91-68a8-4ab7-9f1f-59562396223a,A
2020-02-12 22:02:02,e03baf91-68a8-4ab7-9f1f-59562396223a,S
2020-02-12 22:08:01,e03baf91-68a8-4ab7-9f1f-59562396223a,A
2020-02-12 22:19:18,e03baf91-68a8-4ab7-9f1f-59562396223a,S
2020-02-12 22:22:58,e03baf91-68a8-4ab7-9f1f-59562396223a,A
2020-02-12 22:27:30,e03baf91-68a8-4ab7-9f1f-59562396223a,S
2020-02-12 22:38:58,e03baf91-68a8-4ab7-9f1f-59562396223a,A
2020-02-12 22:52:24,e03baf91-68a8-4ab7-9f1f-59562396223a,S
2020-02-12 22:53:23,e03baf91-68a8-4ab7-9f1f-59562396223a,A
2020-02-12 22:54:55,e03baf91-68a8-4ab7-9f1f-59562396223a,S
2020-02-12 22:55:41,e03baf91-68a8-4ab7-9f1f-59562396223a,A
2020-02-12 22:56:51,e03baf91-68a8-4ab7-9f1f-59562396223a,S
2020-02-12 23:05:27,e03baf91-68a8-4ab7-9f1f-59562396223a,A
2020-02-12 23:07:25,e03baf91-68a8-4ab7-9f1f-59562396223a,S
2020-02-12 23:09:13,e03baf91-68a8-4ab7-9f1f-59562396223a,A
2020-02-12 23:14:01,e03baf91-68a8-4ab7-9f1f-59562396223a,S
2020-02-12 23:22:53,e03baf91-68a8-4ab7-9f1f-59562396223a,A
2020-02-12 23:33:46,e03baf91-68a8-4ab7-9f1f-59562396223a,S
2020-02-12 23:37:42,e03baf91-68a8-4ab7-9f1f-59562396223a,A
2020-02-12 23:37:59,e03baf91-68a8-4ab7-9f1f-59562396223a,S
2020-02-12 23:43:39,e03baf91-68a8-4ab7-9f1f-59562396223a,A
2020-02-12 23:50:04,e03baf91-68a8-4ab7-9f1f-59562396223a,S
2020-02-12 23:50:04,e03baf91-68a8-4ab7-9f1f-59562396223a,A
2020-02-12 23:52:03,e03baf91-68a8-4ab7-9f1f-59562396223a,S
2020-02-12 22:33:20,485527de-730b-4924-b629-2986480753a1,S
2020-02-12 22:38:44,485527de-730b-4924-b629-2986480753a1,A
2020-02-12 22:40:09,485527de-730b-4924-b629-2986480753a1,S
2020-02-12 22:42:19,485527de-730b-4924-b629-2986480753a1,A
2020-02-12 22:49:21,485527de-730b-4924-b629-2986480753a1,S
2020-02-12 22:55:27,485527de-730b-4924-b629-2986480753a1,A
2020-02-12 22:59:22,485527de-730b-4924-b629-2986480753a1,S
2020-02-12 23:02:44,485527de-730b-4924-b629-2986480753a1,A
2020-02-12 23:04:18,485527de-730b-4924-b629-2986480753a1,S
2020-02-12 23:04:29,485527de-730b-4924-b629-2986480753a1,A
2020-02-12 23:06:49,485527de-730b-4924-b629-2986480753a1,S
2020-02-12 23:11:06,485527de-730b-4924-b629-2986480753a1,A
2020-02-12 23:14:00,485527de-730b-4924-b629-2986480753a1,S
2020-02-12 23:14:54,485527de-730b-4924-b629-2986480753a1,A
2020-02-12 23:25:18,485527de-730b-4924-b629-2986480753a1,S
2020-02-12 23:25:22,485527de-730b-4924-b629-2986480753a1,A
2020-02-12 23:25:54,485527de-730b-4924-b629-2986480753a1,S
2020-02-12 23:26:23,485527de-730b-4924-b629-2986480753a1,A
2020-02-12 23:26:36,485527de-730b-4924-b629-2986480753a1,S
2020-02-12 23:30:31,485527de-730b-4924-b629-2986480753a1,A
2020-02-12 23:38:20,485527de-730b-4924-b629-2986480753a1,S
2020-02-12 23:44:19,485527de-730b-4924-b629-2986480753a1,A
2020-02-12 23:47:12,485527de-730b-4924-b629-2986480753a1,S
2020-02-12 23:49:11,485527de-730b-4924-b629-2986480753a1,A
2020-02-12 22:04:13,c887e9fa-c82f-4c31-9590-42e04c670d13,A
2020-02-12 22:11:06,c887e9fa-c82f-4c31-9590-42e04c670d13,S
2020-02-12 22:15:52,c887e9fa-c82f-4c31-9590-42e04c670d13,A
2020-02-12 22:22:26,c887e9fa-c82f-4c31-9590-42e04c670d13,S
2020-02-12 22:28:21,c887e9fa-c82f-4c31-9590-42e04c670d13,A
2020-02-12 22:38:59,c887e9fa-c82f-4c31-9590-42e04c670d13,S
2020-02-12 22:46:14,c887e9fa-c82f-4c31-9590-42e04c670d13,A
2020-02-12 22:48:41,c887e9fa-c82f-4c31-9590-42e04c670d13,S
2020-02-12 22:50:22,c887e9fa-c82f-4c31-9590-42e04c670d13,A
2020-02-12 22:54:59,c887e9fa-c82f-4c31-9590-42e04c670d13,S
2020-02-12 23:00:00,c887e9fa-c82f-4c31-9590-42e04c670d13,A
2020-02-12 23:09:55,c887e9fa-c82f-4c31-9590-42e04c670d13,S
2020-02-12 23:09:59,c887e9fa-c82f-4c31-9590-42e04c670d13,A
2020-02-12 23:14:39,c887e9fa-c82f-4c31-9590-42e04c670d13,S
2020-02-12 23:16:23,c887e9fa-c82f-4c31-9590-42e04c670d13,A
2020-02-12 23:23:06,c887e9fa-c82f-4c31-9590-42e04c670d13,S
2020-02-12 23:23:12,c887e9fa-c82f-4c31-9590-42e04c670d13,A
2020-02-12 23:25:55,c887e9fa-c82f-4c31-9590-42e04c670d13,S
2020-02-12 23:32:48,c887e9fa-c82f-4c31-9590-42e04c670d13,A
2020-02-12 22:35:03,28bbd9de-ee31-4adf-99f5-1e461d739f82,S
2020-02-12 22:48:38,28bbd9de-ee31-4adf-99f5-1e461d739f82,A
2020-02-12 22:53:31,28bbd9de-ee31-4adf-99f5-1e461d739f82,S
2020-02-12 22:54:04,28bbd9de-ee31-4adf-99f5-1e461d739f82,A
2020-02-12 22:57:56,28bbd9de-ee31-4adf-99f5-1e461d739f82,S
2020-02-12 22:58:37,28bbd9de-ee31-4adf-99f5-1e461d739f82,A
2020-02-12 23:07:16,28bbd9de-ee31-4adf-99f5-1e461d739f82,S
2020-02-12 23:08:19,28bbd9de-ee31-4adf-99f5-1e461d739f82,A
2020-02-12 23:10:35,28bbd9de-ee31-4adf-99f5-1e461d739f82,S
2020-02-12 23:12:44,28bbd9de-ee31-4adf-99f5-1e461d739f82,A
2020-02-12 23:15:06,28bbd9de-ee31-4adf-99f5-1e461d739f82,S
2020-02-12 23:18:58,28bbd9de-ee31-4adf-99f5-1e461d739f82,A
2020-02-12 23:20:09,28bbd9de-ee31-4adf-99f5-1e461d739f82,S
2020-02-12 23:21:00,28bbd9de-ee31-4adf-99f5-1e461d739f82,A
2020-02-12 23:23:09,28bbd9de-ee31-4adf-99f5-1e461d739f82,S
2020-02-12 23:23:32,28bbd9de-ee31-4adf-99f5-1e461d739f82,A
2020-02-12 23:23:48,28bbd9de-ee31-4adf-99f5-1e461d739f82,S
2020-02-12 23:28:20,28bbd9de-ee31-4adf-99f5-1e461d739f82,A
2020-02-12 23:29:10,28bbd9de-ee31-4adf-99f5-1e461d739f82,S
2020-02-12 23:38:42,28bbd9de-ee31-4adf-99f5-1e461d739f82,A
2020-02-12 23:44:45,28bbd9de-ee31-4adf-99f5-1e461d739f82,S
2020-02-12 23:52:43,28bbd9de-ee31-4adf-99f5-1e461d739f82,A
2020-02-12 22:16:53,7c788edf-ea5b-4732-bfc5-9b3700343067,S
2020-02-12 22:16:57,7c788edf-ea5b-4732-bfc5-9b3700343067,A
2020-02-12 22:24:07,7c788edf-ea5b-4732-bfc5-9b3700343067,S
2020-02-12 22:35:38,7c788edf-ea5b-4732-bfc5-9b3700343067,A
2020-02-12 22:37:14,7c788edf-ea5b-4732-bfc5-9b3700343067,S
2020-02-12 22:40:21,7c788edf-ea5b-4732-bfc5-9b3700343067,A
2020-02-12 22:40:38,7c788edf-ea5b-4732-bfc5-9b3700343067,S
2020-02-12 22:58:36,7c788edf-ea5b-4732-bfc5-9b3700343067,A
2020-02-12 23:01:00,7c788edf-ea5b-4732-bfc5-9b3700343067,S
2020-02-12 23:13:22,7c788edf-ea5b-4732-bfc5-9b3700343067,A
2020-02-12 23:25:30,7c788edf-ea5b-4732-bfc5-9b3700343067,S
2020-02-12 23:31:01,7c788edf-ea5b-4732-bfc5-9b3700343067,A
2020-02-12 23:31:28,7c788edf-ea5b-4732-bfc5-9b3700343067,S
2020-02-12 23:33:43,7c788edf-ea5b-4732-bfc5-9b3700343067,A
2020-02-12 23:37:22,7c788edf-ea5b-4732-bfc5-9b3700343067,S
2020-02-12 23:40:42,7c788edf-ea5b-4732-bfc5-9b3700343067,A
2020-02-12 23:45:12,7c788edf-ea5b-4732-bfc5-9b3700343067,S
2020-02-12 23:46:09,7c788edf-ea5b-4732-bfc5-9b3700343067,A
2020-02-12 23:46:31,7c788edf-ea5b-4732-bfc5-9b3700343067,S
2020-02-12 23:47:29,7c788edf-ea5b-4732-bfc5-9b3700343067,A
2020-02-12 22:01:50,a46aee88-d2c9-4013-bb23-ad34b55a1eb5,S
2020-02-12 22:13:46,a46aee88-d2c9-4013-bb23-ad34b55a1eb5,A
2020-02-12 22:14:04,a46aee88-d2c9-4013-bb23-ad34b55a1eb5,S
2020-02-12 22:29:28,a46aee88-d2c9-4013-bb23-ad34b55a1eb5,A
2020-02-12 22:32:21,a46aee88-d2c9-4013-bb23-ad34b55a1eb5,S
2020-02-12 22:34:20,a46aee88-d2c9-4013-bb23-ad34b55a1eb5,A
2020-02-12 22:42:27,a46aee88-d2c9-4013-bb23-ad34b55a1eb5,S
2020-02-12 22:43:23,a46aee88-d2c9-4013-bb23-ad34b55a1eb5,A
2020-02-12 22:45:36,a46aee88-d2c9-4013-bb23-ad34b55a1eb5,S
2020-02-12 23:00:01,a46aee88-d2c9-4013-bb23-ad34b55a1eb5,A
2020-02-12 23:05:19,a46aee88-d2c9-4013-bb23-ad34b55a1eb5,S
2020-02-12 23:06:52,a46aee88-d2c9-4013-bb23-ad34b55a1eb5,A
2020-02-12 23:07:40,a46aee88-d2c9-4013-bb23-ad34b55a1eb5,S
2020-02-12 23:09:37,a46aee88-d2c9-4013-bb23-ad34b55a1eb5,A
2020-02-12 23:12:54,a46aee88-d2c9-4013-bb23-ad34b55a1eb5,S
2020-02-12 23:13:01,a46aee88-d2c9-4013-bb23-ad34b55a1eb5,A
2020-02-12 23:25:20,a46aee88-d2c9-4013-bb23-ad34b55a1eb5,S
2020-02-12 23:26:40,a46aee88-d2c9-4013-bb23-ad34b55a1eb5,A
2020-02-12 23:31:33,a46aee88-d2c9-4013-bb23-ad34b55a1eb5,S
2020-02-12 23:34:58,a46aee88-d2c9-4013-bb23-ad34b55a1eb5,A
2020-02-12 23:36:13,a46aee88-d2c9-4013-bb23-ad34b55a1eb5,S
2020-02-12 23:36:55,a46aee88-d2c9-4013-bb23-ad34b55a1eb5,A
2020-02-12 23:49:35,a46aee88-d2c9-4013-bb23-ad34b55a1eb5,S
2020-02-12 23:51:03,a46aee88-d2c9-4013-bb23-ad34b55a1eb5,A
2020-02-12 23:52:17,a46aee88-d2c9-4013-bb23-ad34b55a1eb5,S
2020-02-12 21:58:02,5e853400-f717-437a-aafc-c320b040fd9a,S
2020-02-12 22:14:09,5e853400-f717-437a-aafc-c320b040fd9a,A
2020-02-12 22:15:22,5e853400-f717-437a-aafc-c320b040fd9a,S
2020-02-12 22:20:11,5e853400-f717-437a-aafc-c320b040fd9a,A
2020-02-12 22:21:16,5e853400-f717-437a-aafc-c320b040fd9a,S
2020-02-12 22:24:04,5e853400-f717-437a-aafc-c320b040fd9a,A
2020-02-12 22:29:16,5e853400-f717-437a-aafc-c320b040fd9a,S
2020-02-12 22:31:26,5e853400-f717-437a-aafc-c320b040fd9a,A
2020-02-12 22:34:55,5e853400-f717-437a-aafc-c320b040fd9a,S
2020-02-12 22:40:30,5e853400-f717-437a-aafc-c320b040fd9a,A
2020-02-12 22:51:01,5e853400-f717-437a-aafc-c320b040fd9a,S
2020-02-12 22:56:41,5e853400-f717-437a-aafc-c320b040fd9a,A
2020-02-12 22:58:39,5e853400-f717-437a-aafc-c320b040fd9a,S
2020-02-12 23:00:41,5e853400-f717-437a-aafc-c320b040fd9a,A
2020-02-12 23:08:58,5e853400-f717-437a-aafc-c320b040fd9a,S
2020-02-12 23:11:07,5e853400-f717-437a-aafc-c320b040fd9a,A
2020-02-12 23:16:02,5e853400-f717-437a-aafc-c320b040fd9a,S
2020-02-12 23:19:01,5e853400-f717-437a-aafc-c320b040fd9a,A
2020-02-12 23:20:08,5e853400-f717-437a-aafc-c320b040fd9a,S
2020-02-12 23:25:03,5e853400-f717-437a-aafc-c320b040fd9a,A
2020-02-12 23:27:56,5e853400-f717-437a-aafc-c320b040fd9a,S
2020-02-12 23:31:45,5e853400-f717-437a-aafc-c320b040fd9a,A
2020-02-12 23:34:06,5e853400-f717-437a-aafc-c320b040fd9a,S
2020-02-12 23:37:52,5e853400-f717-437a-aafc-c320b040fd9a,A
2020-02-12 23:43:17,5e853400-f717-437a-aafc-c320b040fd9a,S
2020-02-12 23:44:24,5e853400-f717-437a-aafc-c320b040fd9a,A
2020-02-12 23:50:08,5e853400-f717-437a-aafc-c320b040fd9a,S
2020-02-12 23:51:05,5e853400-f717-437a-aafc-c320b040fd9a,A
2020-02-12 23:52:35,5e853400-f717-437a-aafc-c320b040fd9a,S
2020-02-12 23:53:08,5e853400-f717-437a-aafc-c320b040fd9a,A
2020-02-12 22:22:33,98383df6-2f14-40c7-94d8-d96f16e9067d,A
2020-02-12 22:23:02,98383df6-2f14-40c7-94d8-d96f16e9067d,S
2020-02-12 22:31:32,98383df6-2f14-40c7-94d8-d96f16e9067d,A
2020-02-12 22:32:51,98383df6-2f14-40c7-94d8-d96f16e9067d,S
2020-02-12 22:41:28,98383df6-2f14-40c7-94d8-d96f16e9067d,S
2020-02-12 22:42:43,98383df6-2f14-40c7-94d8-d96f16e9067d,A
2020-02-12 22:43:33,98383df6-2f14-40c7-94d8-d96f16e9067d,S
2020-02-12 22:47:20,98383df6-2f14-40c7-94d8-d96f16e9067d,A
2020-02-12 22:48:26,98383df6-2f14-40c7-94d8-d96f16e9067d,S
2020-02-12 22:48:38,98383df6-2f14-40c7-94d8-d96f16e9067d,A
2020-02-12 22:54:11,98383df6-2f14-40c7-94d8-d96f16e9067d,S
2020-02-12 22:59:30,98383df6-2f14-40c7-94d8-d96f16e9067d,A
2020-02-12 23:11:46,98383df6-2f14-40c7-94d8-d96f16e9067d,S
2020-02-12 23:12:01,98383df6-2f14-40c7-94d8-d96f16e9067d,A
2020-02-12 23:16:11,98383df6-2f14-40c7-94d8-d96f16e9067d,S
2020-02-12 23:25:47,98383df6-2f14-40c7-94d8-d96f16e9067d,A
2020-02-12 23:37:53,98383df6-2f14-40c7-94d8-d96f16e9067d,S
2020-02-12 23:41:22,98383df6-2f14-40c7-94d8-d96f16e9067d,A
2020-02-12 23:45:45,98383df6-2f14-40c7-94d8-d96f16e9067d,S
2020-02-12 23:47:10,98383df6-2f14-40c7-94d8-d96f16e9067d,A
2020-02-12 23:47:45,98383df6-2f14-40c7-94d8-d96f16e9067d,S
2020-02-12 21:51:55,56f504f6-c790-4720-ae2e-2e267573d366,S
2020-02-12 21:53:28,56f504f6-c790-4720-ae2e-2e267573d366,A
2020-02-12 21:54:16,56f504f6-c790-4720-ae2e-2e267573d366,S
2020-02-12 21:54:22,56f504f6-c790-4720-ae2e-2e267573d366,A
2020-02-12 21:54:28,56f504f6-c790-4720-ae2e-2e267573d366,S
2020-02-12 21:54:53,56f504f6-c790-4720-ae2e-2e267573d366,A
2020-02-12 21:59:38,56f504f6-c790-4720-ae2e-2e267573d366,S
2020-02-12 22:03:46,56f504f6-c790-4720-ae2e-2e267573d366,A
2020-02-12 22:05:34,56f504f6-c790-4720-ae2e-2e267573d366,S
2020-02-12 22:07:47,56f504f6-c790-4720-ae2e-2e267573d366,A
2020-02-12 22:18:25,56f504f6-c790-4720-ae2e-2e267573d366,S
2020-02-12 22:20:28,56f504f6-c790-4720-ae2e-2e267573d366,A
2020-02-12 22:29:37,56f504f6-c790-4720-ae2e-2e267573d366,S
2020-02-12 22:32:12,56f504f6-c790-4720-ae2e-2e267573d366,A
2020-02-12 22:40:48,56f504f6-c790-4720-ae2e-2e267573d366,S
2020-02-12 22:42:50,56f504f6-c790-4720-ae2e-2e267573d366,A
2020-02-12 22:44:38,56f504f6-c790-4720-ae2e-2e267573d366,S
2020-02-12 22:47:42,56f504f6-c790-4720-ae2e-2e267573d366,A
2020-02-12 22:47:49,56f504f6-c790-4720-ae2e-2e267573d366,S
2020-02-12 22:59:53,56f504f6-c790-4720-ae2e-2e267573d366,A
2020-02-12 23:03:32,56f504f6-c790-4720-ae2e-2e267573d366,S
2020-02-12 23:15:15,56f504f6-c790-4720-ae2e-2e267573d366,A
2020-02-12 23:16:00,56f504f6-c790-4720-ae2e-2e267573d366,S
2020-02-12 23:22:53,56f504f6-c790-4720-ae2e-2e267573d366,A
2020-02-12 23:24:14,56f504f6-c790-4720-ae2e-2e267573d366,S
2020-02-12 23:26:41,56f504f6-c790-4720-ae2e-2e267573d366,A
2020-02-12 23:35:06,56f504f6-c790-4720-ae2e-2e267573d366,S
2020-02-12 23:43:15,56f504f6-c790-4720-ae2e-2e267573d366,A
2020-02-12 23:53:24,56f504f6-c790-4720-ae2e-2e267573d366,S
2020-02-12 22:27:48,48702a9b-258c-4212-a22c-0e50f248eca3,A
2020-02-12 22:29:39,48702a9b-258c-4212-a22c-0e50f248eca3,S
2020-02-12 22:39:07,48702a9b-258c-4212-a22c-0e50f248eca3,A
2020-02-12 22:53:15,48702a9b-258c-4212-a22c-0e50f248eca3,S
2020-02-12 22:54:51,48702a9b-258c-4212-a22c-0e50f248eca3,A
2020-02-12 22:56:25,48702a9b-258c-4212-a22c-0e50f248eca3,S
2020-02-12 22:58:18,48702a9b-258c-4212-a22c-0e50f248eca3,A
2020-02-12 23:04:46,48702a9b-258c-4212-a22c-0e50f248eca3,S
2020-02-12 23:09:39,48702a9b-258c-4212-a22c-0e50f248eca3,A
2020-02-12 23:17:11,48702a9b-258c-4212-a22c-0e50f248eca3,S
2020-02-12 23:17:13,48702a9b-258c-4212-a22c-0e50f248eca3,A
2020-02-12 23:17:33,48702a9b-258c-4212-a22c-0e50f248eca3,S
2020-02-12 23:19:53,48702a9b-258c-4212-a22c-0e50f248eca3,A
2020-02-12 23:23:04,48702a9b-258c-4212-a22c-0e50f248eca3,S
2020-02-12 23:23:51,48702a9b-258c-4212-a22c-0e50f248eca3,A
2020-02-12 23:34:51,48702a9b-258c-4212-a22c-0e50f248eca3,S
2020-02-12 23:35:39,48702a9b-258c-4212-a22c-0e50f248eca3,A
2020-02-12 23:36:05,48702a9b-258c-4212-a22c-0e50f248eca3,S
2020-02-12 23:38:18,48702a9b-258c-4212-a22c-0e50f248eca3,A
2020-02-12 23:40:32,48702a9b-258c-4212-a22c-0e50f248eca3,S
2020-02-12 23:40:51,48702a9b-258c-4212-a22c-0e50f248eca3,A
2020-02-12 23:50:16,48702a9b-258c-4212-a22c-0e50f248eca3,S
2020-02-12 22:36:49,f5c23dc7-bec4-4fd2-b9be-bab41659a52e,S
2020-02-12 22:38:03,f5c23dc7-bec4-4fd2-b9be-bab41659a52e,A
2020-02-12 22:43:48,f5c23dc7-bec4-4fd2-b9be-bab41659a52e,S
2020-02-12 22:57:08,f5c23dc7-bec4-4fd2-b9be-bab41659a52e,A
2020-02-12 23:04:53,f5c23dc7-bec4-4fd2-b9be-bab41659a52e,S
2020-02-12 23:07:24,f5c23dc7-bec4-4fd2-b9be-bab41659a52e,A
2020-02-12 23:23:47,f5c23dc7-bec4-4fd2-b9be-bab41659a52e,S
2020-02-12 23:29:54,f5c23dc7-bec4-4fd2-b9be-bab41659a52e,A
2020-02-12 23:44:43,f5c23dc7-bec4-4fd2-b9be-bab41659a52e,S
2020-02-12 23:49:57,f5c23dc7-bec4-4fd2-b9be-bab41659a52e,A
2020-02-12 23:52:31,f5c23dc7-bec4-4fd2-b9be-bab41659a52e,S
2020-02-12 22:15:47,06121c75-cf57-4386-8113-61feec38c37e,S
2020-02-12 22:20:05,06121c75-cf57-4386-8113-61feec38c37e,A
2020-02-12 22:33:48,06121c75-cf57-4386-8113-61feec38c37e,S
2020-02-12 22:34:12,06121c75-cf57-4386-8113-61feec38c37e,A
2020-02-12 22:38:49,06121c75-cf57-4386-8113-61feec38c37e,S
2020-02-12 22:42:07,06121c75-cf57-4386-8113-61feec38c37e,A
2020-02-12 22:45:13,06121c75-cf57-4386-8113-61feec38c37e,S
2020-02-12 22:49:45,06121c75-cf57-4386-8113-61feec38c37e,A
2020-02-12 22:52:58,06121c75-cf57-4386-8113-61feec38c37e,S
2020-02-12 22:56:35,06121c75-cf57-4386-8113-61feec38c37e,A
2020-02-12 23:12:26,06121c75-cf57-4386-8113-61feec38c37e,S
2020-02-12 23:16:43,06121c75-cf57-4386-8113-61feec38c37e,A
2020-02-12 23:17:05,06121c75-cf57-4386-8113-61feec38c37e,S
2020-02-12 23:22:11,06121c75-cf57-4386-8113-61feec38c37e,A
2020-02-12 23:29:30,06121c75-cf57-4386-8113-61feec38c37e,S
2020-02-12 23:42:37,06121c75-cf57-4386-8113-61feec38c37e,A
2020-02-12 23:43:38,06121c75-cf57-4386-8113-61feec38c37e,S
2020-02-12 22:15:29,7f26dd4f-4e34-472a-a4cd-911937b6b7f0,S
2020-02-12 22:20:44,7f26dd4f-4e34-472a-a4cd-911937b6b7f0,A
2020-02-12 22:27:28,7f26dd4f-4e34-472a-a4cd-911937b6b7f0,S
2020-02-12 22:32:27,7f26dd4f-4e34-472a-a4cd-911937b6b7f0,A
2020-02-12 22:33:23,7f26dd4f-4e34-472a-a4cd-911937b6b7f0,S
2020-02-12 22:40:10,7f26dd4f-4e34-472a-a4cd-911937b6b7f0,A
2020-02-12 22:42:26,7f26dd4f-4e34-472a-a4cd-911937b6b7f0,S
2020-02-12 22:48:32,7f26dd4f-4e34-472a-a4cd-911937b6b7f0,A
2020-02-12 22:48:34,7f26dd4f-4e34-472a-a4cd-911937b6b7f0,S
2020-02-12 22:49:18,7f26dd4f-4e34-472a-a4cd-911937b6b7f0,A
2020-02-12 22:53:11,7f26dd4f-4e34-472a-a4cd-911937b6b7f0,S
2020-02-12 22:58:47,7f26dd4f-4e34-472a-a4cd-911937b6b7f0,A
2020-02-12 23:00:49,7f26dd4f-4e34-472a-a4cd-911937b6b7f0,S
2020-02-12 23:04:02,7f26dd4f-4e34-472a-a4cd-911937b6b7f0,A
2020-02-12 23:06:53,7f26dd4f-4e34-472a-a4cd-911937b6b7f0,S
2020-02-12 23:10:07,7f26dd4f-4e34-472a-a4cd-911937b6b7f0,A
2020-02-12 23:19:09,7f26dd4f-4e34-472a-a4cd-911937b6b7f0,S
2020-02-12 23:22:42,7f26dd4f-4e34-472a-a4cd-911937b6b7f0,A
2020-02-12 23:23:41,7f26dd4f-4e34-472a-a4cd-911937b6b7f0,S
2020-02-12 23:27:08,7f26dd4f-4e34-472a-a4cd-911937b6b7f0,A
2020-02-12 23:29:06,7f26dd4f-4e34-472a-a4cd-911937b6b7f0,S
2020-02-12 23:29:48,7f26dd4f-4e34-472a-a4cd-911937b6b7f0,A
2020-02-12 23:36:56,7f26dd4f-4e34-472a-a4cd-911937b6b7f0,S
2020-02-12 23:39:20,7f26dd4f-4e34-472a-a4cd-911937b6b7f0,A
2020-02-12 23:53:12,7f26dd4f-4e34-472a-a4cd-911937b6b7f0,S
2020-02-12 21:57:22,70ee2bb7-78fe-49ce-a96c-51a5fe223951,S
2020-02-12 22:00:49,70ee2bb7-78fe-49ce-a96c-51a5fe223951,A
2020-02-12 22:06:52,70ee2bb7-78fe-49ce-a96c-51a5fe223951,S
2020-02-12 22:16:48,70ee2bb7-78fe-49ce-a96c-51a5fe223951,A
2020-02-12 22:36:56,70ee2bb7-78fe-49ce-a96c-51a5fe223951,S
2020-02-12 22:42:52,70ee2bb7-78fe-49ce-a96c-51a5fe223951,A
2020-02-12 22:53:41,70ee2bb7-78fe-49ce-a96c-51a5fe223951,S
2020-02-12 22:59:07,70ee2bb7-78fe-49ce-a96c-51a5fe223951,A
2020-02-12 23:03:23,70ee2bb7-78fe-49ce-a96c-51a5fe223951,S
2020-02-12 23:08:57,70ee2bb7-78fe-49ce-a96c-51a5fe223951,A
2020-02-12 23:09:08,70ee2bb7-78fe-49ce-a96c-51a5fe223951,S
2020-02-12 23:10:52,70ee2bb7-78fe-49ce-a96c-51a5fe223951,A
2020-02-12 23:16:47,70ee2bb7-78fe-49ce-a96c-51a5fe223951,S
2020-02-12 23:18:30,70ee2bb7-78fe-49ce-a96c-51a5fe223951,A
2020-02-12 23:23:01,70ee2bb7-78fe-49ce-a96c-51a5fe223951,S
2020-02-12 23:26:35,70ee2bb7-78fe-49ce-a96c-51a5fe223951,A
2020-02-12 23:31:54,70ee2bb7-78fe-49ce-a96c-51a5fe223951,S
2020-02-12 23:39:38,70ee2bb7-78fe-49ce-a96c-51a5fe223951,A
2020-02-12 22:32:37,533236e9-5422-43b1-ad8c-2c147ac75bcd,A
2020-02-12 22:37:43,533236e9-5422-43b1-ad8c-2c147ac75bcd,S
2020-02-12 22:38:46,533236e9-5422-43b1-ad8c-2c147ac75bcd,A
2020-02-12 22:40:42,533236e9-5422-43b1-ad8c-2c147ac75bcd,S
2020-02-12 22:48:17,533236e9-5422-43b1-ad8c-2c147ac75bcd,A
2020-02-12 22:49:42,533236e9-5422-43b1-ad8c-2c147ac75bcd,S
2020-02-12 22:59:35,533236e9-5422-43b1-ad8c-2c147ac75bcd,A
2020-02-12 23:01:23,533236e9-5422-43b1-ad8c-2c147ac75bcd,S
2020-02-12 23:06:17,533236e9-5422-43b1-ad8c-2c147ac75bcd,A
2020-02-12 23:10:41,533236e9-5422-43b1-ad8c-2c147ac75bcd,S
2020-02-12 23:19:25,533236e9-5422-43b1-ad8c-2c147ac75bcd,A
2020-02-12 23:20:56,533236e9-5422-43b1-ad8c-2c147ac75bcd,S
2020-02-12 23:22:50,533236e9-5422-43b1-ad8c-2c147ac75bcd,A
2020-02-12 23:25:18,533236e9-5422-43b1-ad8c-2c147ac75bcd,S
2020-02-12 23:29:31,533236e9-5422-43b1-ad8c-2c147ac75bcd,A
2020-02-12 23:35:20,533236e9-5422-43b1-ad8c-2c147ac75bcd,S
2020-02-12 23:40:50,533236e9-5422-43b1-ad8c-2c147ac75bcd,A
2020-02-12 23:50:03,533236e9-5422-43b1-ad8c-2c147ac75bcd,S
2020-02-12 22:20:11,f96e2e38-6fcd-481a-9387-764481038ac1,S
2020-02-12 22:32:26,f96e2e38-6fcd-481a-9387-764481038ac1,A
2020-02-12 22:42:34,f96e2e38-6fcd-481a-9387-764481038ac1,S
2020-02-12 22:43:52,f96e2e38-6fcd-481a-9387-764481038ac1,A
2020-02-12 22:45:51,f96e2e38-6fcd-481a-9387-764481038ac1,S
2020-02-12 22:52:30,f96e2e38-6fcd-481a-9387-764481038ac1,A
2020-02-12 22:53:17,f96e2e38-6fcd-481a-9387-764481038ac1,S
2020-02-12 22:55:39,f96e2e38-6fcd-481a-9387-764481038ac1,A
2020-02-12 22:56:30,f96e2e38-6fcd-481a-9387-764481038ac1,S
2020-02-12 22:56:52,f96e2e38-6fcd-481a-9387-764481038ac1,A
2020-02-12 22:57:10,f96e2e38-6fcd-481a-9387-764481038ac1,S
2020-02-12 23:04:07,f96e2e38-6fcd-481a-9387-764481038ac1,A
2020-02-12 23:16:57,f96e2e38-6fcd-481a-9387-764481038ac1,S
2020-02-12 23:21:34,f96e2e38-6fcd-481a-9387-764481038ac1,A
2020-02-12 23:22:13,f96e2e38-6fcd-481a-9387-764481038ac1,S
2020-02-12 23:39:08,f96e2e38-6fcd-481a-9387-764481038ac1,A
2020-02-12 23:41:29,f96e2e38-6fcd-481a-9387-764481038ac1,S
2020-02-12 23:41:43,f96e2e38-6fcd-481a-9387-764481038ac1,A
2020-02-12 23:43:02,f96e2e38-6fcd-481a-9387-764481038ac1,S
2020-02-12 23:45:28,f96e2e38-6fcd-481a-9387-764481038ac1,A
2020-02-12 23:50:56,f96e2e38-6fcd-481a-9387-764481038ac1,S
2020-02-12 23:54:00,f96e2e38-6fcd-481a-9387-764481038ac1,A
2020-02-12 22:22:12,cfcf0e1a-6088-4beb-8513-e8175f8908d7,A
2020-02-12 22:22:51,cfcf0e1a-6088-4beb-8513-e8175f8908d7,S
2020-02-12 22:24:27,cfcf0e1a-6088-4beb-8513-e8175f8908d7,A
2020-02-12 22:38:40,cfcf0e1a-6088-4beb-8513-e8175f8908d7,S
2020-02-12 22:40:46,cfcf0e1a-6088-4beb-8513-e8175f8908d7,A
2020-02-12 22:43:13,cfcf0e1a-6088-4beb-8513-e8175f8908d7,S
2020-02-12 22:50:51,cfcf0e1a-6088-4beb-8513-e8175f8908d7,A
2020-02-12 22:54:31,cfcf0e1a-6088-4beb-8513-e8175f8908d7,S
2020-02-12 22:57:52,cfcf0e1a-6088-4beb-8513-e8175f8908d7,A
2020-02-12 23:08:43,cfcf0e1a-6088-4beb-8513-e8175f8908d7,S
2020-02-12 23:08:46,cfcf0e1a-6088-4beb-8513-e8175f8908d7,A
2020-02-12 23:18:17,cfcf0e1a-6088-4beb-8513-e8175f8908d7,S
2020-02-12 23:38:46,cfcf0e1a-6088-4beb-8513-e8175f8908d7,A
2020-02-12 23:46:01,cfcf0e1a-6088-4beb-8513-e8175f8908d7,S
2020-02-12 23:50:00,cfcf0e1a-6088-4beb-8513-e8175f8908d7,A
2020-02-12 22:22:19,ce786043-3a7a-45f0-960e-80b60b5fd23d,A
2020-02-12 22:25:48,ce786043-3a7a-45f0-960e-80b60b5fd23d,S
2020-02-12 22:28:04,ce786043-3a7a-45f0-960e-80b60b5fd23d,A
2020-02-12 22:30:05,ce786043-3a7a-45f0-960e-80b60b5fd23d,S
2020-02-12 22:30:40,ce786043-3a7a-45f0-960e-80b60b5fd23d,A
2020-02-12 22:33:15,ce786043-3a7a-45f0-960e-80b60b5fd23d,S
2020-02-12 22:40:07,ce786043-3a7a-45f0-960e-80b60b5fd23d,A
2020-02-12 22:41:35,ce786043-3a7a-45f0-960e-80b60b5fd23d,S
2020-02-12 22:51:50,ce786043-3a7a-45f0-960e-80b60b5fd23d,A
2020-02-12 23:30:55,ce786043-3a7a-45f0-960e-80b60b5fd23d,S
2020-02-12 23:40:50,ce786043-3a7a-45f0-960e-80b60b5fd23d,A
2020-02-12 23:40:54,ce786043-3a7a-45f0-960e-80b60b5fd23d,S
2020-02-12 23:41:36,ce786043-3a7a-45f0-960e-80b60b5fd23d,A
2020-02-12 23:44:39,ce786043-3a7a-45f0-960e-80b60b5fd23d,S
2020-02-12 23:46:01,ce786043-3a7a-45f0-960e-80b60b5fd23d,A
2020-02-12 23:47:22,ce786043-3a7a-45f0-960e-80b60b5fd23d,S
2020-02-12 23:51:31,ce786043-3a7a-45f0-960e-80b60b5fd23d,A
2020-02-12 23:53:06,ce786043-3a7a-45f0-960e-80b60b5fd23d,S
2020-02-12 23:53:11,ce786043-3a7a-45f0-960e-80b60b5fd23d,A
2020-02-12 22:02:16,c042ff8e-4d44-4b60-a43a-78999903967a,A
2020-02-12 22:05:42,c042ff8e-4d44-4b60-a43a-78999903967a,S
2020-02-12 22:10:47,c042ff8e-4d44-4b60-a43a-78999903967a,A
2020-02-12 22:12:37,c042ff8e-4d44-4b60-a43a-78999903967a,S
2020-02-12 22:23:08,c042ff8e-4d44-4b60-a43a-78999903967a,A
2020-02-12 22:23:43,c042ff8e-4d44-4b60-a43a-78999903967a,S
2020-02-12 22:32:08,c042ff8e-4d44-4b60-a43a-78999903967a,A
2020-02-12 22:34:28,c042ff8e-4d44-4b60-a43a-78999903967a,S
2020-02-12 22:42:52,c042ff8e-4d44-4b60-a43a-78999903967a,A
2020-02-12 23:01:18,c042ff8e-4d44-4b60-a43a-78999903967a,S
2020-02-12 23:02:33,c042ff8e-4d44-4b60-a43a-78999903967a,A
2020-02-12 23:02:45,c042ff8e-4d44-4b60-a43a-78999903967a,S
2020-02-12 23:05:57,c042ff8e-4d44-4b60-a43a-78999903967a,A
2020-02-12 23:14:47,c042ff8e-4d44-4b60-a43a-78999903967a,S
2020-02-12 23:29:53,c042ff8e-4d44-4b60-a43a-78999903967a,A
2020-02-12 23:30:10,c042ff8e-4d44-4b60-a43a-78999903967a,S
2020-02-12 23:40:42,c042ff8e-4d44-4b60-a43a-78999903967a,A
2020-02-12 23:53:41,c042ff8e-4d44-4b60-a43a-78999903967a,S
2020-02-12 23:54:41,c042ff8e-4d44-4b60-a43a-78999903967a,A
2020-02-12 23:55:06,c042ff8e-4d44-4b60-a43a-78999903967a,S
2020-02-12 21:49:14,7d39d00a-f523-455f-bc07-8f8918ff647f,A
2020-02-12 22:05:17,7d39d00a-f523-455f-bc07-8f8918ff647f,S
2020-02-12 22:08:31,7d39d00a-f523-455f-bc07-8f8918ff647f,A
2020-02-12 22:11:17,7d39d00a-f523-455f-bc07-8f8918ff647f,S
2020-02-12 22:11:47,7d39d00a-f523-455f-bc07-8f8918ff647f,A
2020-02-12 22:25:45,7d39d00a-f523-455f-bc07-8f8918ff647f,S
2020-02-12 22:29:15,7d39d00a-f523-455f-bc07-8f8918ff647f,A
2020-02-12 22:32:06,7d39d00a-f523-455f-bc07-8f8918ff647f,S
2020-02-12 22:36:06,7d39d00a-f523-455f-bc07-8f8918ff647f,A
2020-02-12 22:49:30,7d39d00a-f523-455f-bc07-8f8918ff647f,S
2020-02-12 22:49:41,7d39d00a-f523-455f-bc07-8f8918ff647f,A
2020-02-12 22:58:23,7d39d00a-f523-455f-bc07-8f8918ff647f,S
2020-02-12 23:02:39,7d39d00a-f523-455f-bc07-8f8918ff647f,A
2020-02-12 23:09:16,7d39d00a-f523-455f-bc07-8f8918ff647f,S
2020-02-12 23:11:48,7d39d00a-f523-455f-bc07-8f8918ff647f,A
2020-02-12 23:22:59,7d39d00a-f523-455f-bc07-8f8918ff647f,S
2020-02-12 23:24:53,7d39d00a-f523-455f-bc07-8f8918ff647f,A
2020-02-12 23:25:51,7d39d00a-f523-455f-bc07-8f8918ff647f,S
2020-02-12 23:28:43,7d39d00a-f523-455f-bc07-8f8918ff647f,A
2020-02-12 23:34:42,7d39d00a-f523-455f-bc07-8f8918ff647f,S
2020-02-12 23:43:30,7d39d00a-f523-455f-bc07-8f8918ff647f,A
2020-02-12 23:46:33,7d39d00a-f523-455f-bc07-8f8918ff647f,S
2020-02-12 23:48:24,7d39d00a-f523-455f-bc07-8f8918ff647f,A
2020-02-12 23:50:34,7d39d00a-f523-455f-bc07-8f8918ff647f,S
2020-02-12 22:28:45,7fb3ad1b-1e5a-401c-b0a8-8ee6f6b067f6,A
2020-02-12 22:37:40,7fb3ad1b-1e5a-401c-b0a8-8ee6f6b067f6,S
2020-02-12 22:48:24,7fb3ad1b-1e5a-401c-b0a8-8ee6f6b067f6,A
2020-02-12 22:53:56,7fb3ad1b-1e5a-401c-b0a8-8ee6f6b067f6,S
2020-02-12 22:56:34,7fb3ad1b-1e5a-401c-b0a8-8ee6f6b067f6,A
2020-02-12 22:57:18,7fb3ad1b-1e5a-401c-b0a8-8ee6f6b067f6,S
2020-02-12 23:01:58,7fb3ad1b-1e5a-401c-b0a8-8ee6f6b067f6,A
2020-02-12 23:03:48,7fb3ad1b-1e5a-401c-b0a8-8ee6f6b067f6,S
2020-02-12 23:17:03,7fb3ad1b-1e5a-401c-b0a8-8ee6f6b067f6,A
2020-02-12 23:18:56,7fb3ad1b-1e5a-401c-b0a8-8ee6f6b067f6,S
2020-02-12 23:25:08,7fb3ad1b-1e5a-401c-b0a8-8ee6f6b067f6,A
2020-02-12 23:27:56,7fb3ad1b-1e5a-401c-b0a8-8ee6f6b067f6,S
2020-02-12 23:29:44,7fb3ad1b-1e5a-401c-b0a8-8ee6f6b067f6,A
2020-02-12 23:30:07,7fb3ad1b-1e5a-401c-b0a8-8ee6f6b067f6,S
2020-02-12 23:30:46,7fb3ad1b-1e5a-401c-b0a8-8ee6f6b067f6,A
2020-02-12 23:43:17,7fb3ad1b-1e5a-401c-b0a8-8ee6f6b067f6,S
2020-02-12 23:43:18,7fb3ad1b-1e5a-401c-b0a8-8ee6f6b067f6,A
2020-02-12 23:43:54,7fb3ad1b-1e5a-401c-b0a8-8ee6f6b067f6,S
2020-02-12 23:44:23,7fb3ad1b-1e5a-401c-b0a8-8ee6f6b067f6,A
2020-02-12 22:36:42,1bd4659e-af54-4f1e-965e-11d5b7775eb1,S
2020-02-12 22:39:01,1bd4659e-af54-4f1e-965e-11d5b7775eb1,A
2020-02-12 22:45:32,1bd4659e-af54-4f1e-965e-11d5b7775eb1,S
2020-02-12 22:46:30,1bd4659e-af54-4f1e-965e-11d5b7775eb1,A
2020-02-12 22:46:51,1bd4659e-af54-4f1e-965e-11d5b7775eb1,S
2020-02-12 22:52:00,1bd4659e-af54-4f1e-965e-11d5b7775eb1,A
2020-02-12 22:56:54,1bd4659e-af54-4f1e-965e-11d5b7775eb1,S
2020-02-12 23:01:34,1bd4659e-af54-4f1e-965e-11d5b7775eb1,A
2020-02-12 23:14:34,1bd4659e-af54-4f1e-965e-11d5b7775eb1,S
2020-02-12 23:32:03,1bd4659e-af54-4f1e-965e-11d5b7775eb1,A
2020-02-12 23:36:46,1bd4659e-af54-4f1e-965e-11d5b7775eb1,S
2020-02-12 23:38:55,1bd4659e-af54-4f1e-965e-11d5b7775eb1,A
2020-02-12 23:40:08,1bd4659e-af54-4f1e-965e-11d5b7775eb1,S
2020-02-12 23:41:31,1bd4659e-af54-4f1e-965e-11d5b7775eb1,A
2020-02-12 23:42:14,1bd4659e-af54-4f1e-965e-11d5b7775eb1,S
2020-02-12 23:42:47,1bd4659e-af54-4f1e-965e-11d5b7775eb1,A
2020-02-12 23:43:52,1bd4659e-af54-4f1e-965e-11d5b7775eb1,S
2020-02-12 23:50:33,1bd4659e-af54-4f1e-965e-11d5b7775eb1,A
2020-02-12 23:50:52,1bd4659e-af54-4f1e-965e-11d5b7775eb1,S
2020-02-12 23:51:40,1bd4659e-af54-4f1e-965e-11d5b7775eb1,A
2020-02-12 23:51:41,1bd4659e-af54-4f1e-965e-11d5b7775eb1,S
2020-02-12 22:10:48,8c9d97d1-f566-456b-ac66-47988314048e,S
2020-02-12 22:19:50,8c9d97d1-f566-456b-ac66-47988314048e,A
2020-02-12 22:25:02,8c9d97d1-f566-456b-ac66-47988314048e,S
2020-02-12 22:37:48,8c9d97d1-f566-456b-ac66-47988314048e,A
2020-02-12 22:38:47,8c9d97d1-f566-456b-ac66-47988314048e,S
2020-02-12 22:49:59,8c9d97d1-f566-456b-ac66-47988314048e,A
2020-02-12 22:50:13,8c9d97d1-f566-456b-ac66-47988314048e,S
2020-02-12 22:53:40,8c9d97d1-f566-456b-ac66-47988314048e,A
2020-02-12 23:04:43,8c9d97d1-f566-456b-ac66-47988314048e,S
2020-02-12 23:07:44,8c9d97d1-f566-456b-ac66-47988314048e,A
2020-02-12 23:14:21,8c9d97d1-f566-456b-ac66-47988314048e,S
2020-02-12 23:16:16,8c9d97d1-f566-456b-ac66-47988314048e,A
2020-02-12 23:23:42,8c9d97d1-f566-456b-ac66-47988314048e,S
2020-02-12 23:27:48,8c9d97d1-f566-456b-ac66-47988314048e,A
2020-02-12 23:28:29,8c9d97d1-f566-456b-ac66-47988314048e,S
2020-02-12 23:28:52,8c9d97d1-f566-456b-ac66-47988314048e,A
2020-02-12 23:32:15,8c9d97d1-f566-456b-ac66-47988314048e,S
2020-02-12 23:35:19,8c9d97d1-f566-456b-ac66-47988314048e,A
2020-02-12 23:48:30,8c9d97d1-f566-456b-ac66-47988314048e,S
2020-02-12 23:52:40,8c9d97d1-f566-456b-ac66-47988314048e,A
2020-02-12 23:52:47,8c9d97d1-f566-456b-ac66-47988314048e,S
2020-02-12 22:02:25,150a39e4-bf2c-4d77-8175-a85fac7a5298,A
2020-02-12 22:08:28,150a39e4-bf2c-4d77-8175-a85fac7a5298,S
2020-02-12 22:11:16,150a39e4-bf2c-4d77-8175-a85fac7a5298,A
2020-02-12 22:11:55,150a39e4-bf2c-4d77-8175-a85fac7a5298,S
2020-02-12 22:12:40,150a39e4-bf2c-4d77-8175-a85fac7a5298,A
2020-02-12 22:21:55,150a39e4-bf2c-4d77-8175-a85fac7a5298,S
2020-02-12 22:22:21,150a39e4-bf2c-4d77-8175-a85fac7a5298,A
2020-02-12 22:23:11,150a39e4-bf2c-4d77-8175-a85fac7a5298,S
2020-02-12 22:28:05,150a39e4-bf2c-4d77-8175-a85fac7a5298,A
2020-02-12 22:33:05,150a39e4-bf2c-4d77-8175-a85fac7a5298,S
2020-02-12 22:33:17,150a39e4-bf2c-4d77-8175-a85fac7a5298,A
2020-02-12 22:34:01,150a39e4-bf2c-4d77-8175-a85fac7a5298,S
2020-02-12 22:36:21,150a39e4-bf2c-4d77-8175-a85fac7a5298,A
2020-02-12 22:39:21,150a39e4-bf2c-4d77-8175-a85fac7a5298,S
2020-02-12 22:40:37,150a39e4-bf2c-4d77-8175-a85fac7a5298,A
2020-02-12 22:40:41,150a39e4-bf2c-4d77-8175-a85fac7a5298,S
2020-02-12 22:48:47,150a39e4-bf2c-4d77-8175-a85fac7a5298,A
2020-02-12 22:52:04,150a39e4-bf2c-4d77-8175-a85fac7a5298,S
2020-02-12 22:53:57,150a39e4-bf2c-4d77-8175-a85fac7a5298,A
2020-02-12 23:01:19,150a39e4-bf2c-4d77-8175-a85fac7a5298,S
2020-02-12 23:11:33,150a39e4-bf2c-4d77-8175-a85fac7a5298,A
2020-02-12 23:27:01,150a39e4-bf2c-4d77-8175-a85fac7a5298,S
2020-02-12 23:29:23,150a39e4-bf2c-4d77-8175-a85fac7a5298,A
2020-02-12 23:29:35,150a39e4-bf2c-4d77-8175-a85fac7a5298,S
2020-02-12 23:37:40,150a39e4-bf2c-4d77-8175-a85fac7a5298,A
2020-02-12 23:38:03,150a39e4-bf2c-4d77-8175-a85fac7a5298,S
2020-02-12 23:46:23,150a39e4-bf2c-4d77-8175-a85fac7a5298,A
2020-02-12 23:54:50,150a39e4-bf2c-4d77-8175-a85fac7a5298,S
2020-02-12 21:58:27,4b7d9f58-3747-4035-b2e4-d26a626adb00,S
2020-02-12 22:02:34,4b7d9f58-3747-4035-b2e4-d26a626adb00,A
2020-02-12 22:12:57,4b7d9f58-3747-4035-b2e4-d26a626adb00,S
2020-02-12 22:14:31,4b7d9f58-3747-4035-b2e4-d26a626adb00,A
2020-02-12 22:22:02,4b7d9f58-3747-4035-b2e4-d26a626adb00,S
2020-02-12 22:22:17,4b7d9f58-3747-4035-b2e4-d26a626adb00,A
2020-02-12 22:23:42,4b7d9f58-3747-4035-b2e4-d26a626adb00,S
2020-02-12 22:40:59,4b7d9f58-3747-4035-b2e4-d26a626adb00,A
2020-02-12 22:46:45,4b7d9f58-3747-4035-b2e4-d26a626adb00,S
2020-02-12 22:50:19,4b7d9f58-3747-4035-b2e4-d26a626adb00,A
2020-02-12 22:53:31,4b7d9f58-3747-4035-b2e4-d26a626adb00,S
2020-02-12 22:53:48,4b7d9f58-3747-4035-b2e4-d26a626adb00,A
2020-02-12 23:12:23,4b7d9f58-3747-4035-b2e4-d26a626adb00,S
2020-02-12 23:12:49,4b7d9f58-3747-4035-b2e4-d26a626adb00,A
2020-02-12 23:15:39,4b7d9f58-3747-4035-b2e4-d26a626adb00,S
2020-02-12 23:29:12,4b7d9f58-3747-4035-b2e4-d26a626adb00,A
2020-02-12 23:32:30,4b7d9f58-3747-4035-b2e4-d26a626adb00,S
2020-02-12 23:34:58,4b7d9f58-3747-4035-b2e4-d26a626adb00,A
2020-02-12 23:35:35,4b7d9f58-3747-4035-b2e4-d26a626adb00,S
2020-02-12 23:40:49,4b7d9f58-3747-4035-b2e4-d26a626adb00,A
2020-02-12 23:45:29,4b7d9f58-3747-4035-b2e4-d26a626adb00,S
2020-02-12 23:49:26,4b7d9f58-3747-4035-b2e4-d26a626adb00,A
2020-02-12 23:51:18,4b7d9f58-3747-4035-b2e4-d26a626adb00,S
2020-02-12 23:52:16,4b7d9f58-3747-4035-b2e4-d26a626adb00,A
2020-02-12 22:07:57,8180ef27-9f4b-4018-a3a6-cf2475da1ced,A
2020-02-12 22:15:47,8180ef27-9f4b-4018-a3a6-cf2475da1ced,S
2020-02-12 22:17:17,8180ef27-9f4b-4018-a3a6-cf2475da1ced,A
2020-02-12 22:19:55,8180ef27-9f4b-4018-a3a6-cf2475da1ced,S
2020-02-12 22:24:36,8180ef27-9f4b-4018-a3a6-cf2475da1ced,A
2020-02-12 22:39:18,8180ef27-9f4b-4018-a3a6-cf2475da1ced,S
2020-02-12 22:39:53,8180ef27-9f4b-4018-a3a6-cf2475da1ced,A
2020-02-12 22:45:23,8180ef27-9f4b-4018-a3a6-cf2475da1ced,S
2020-02-12 22:52:36,8180ef27-9f4b-4018-a3a6-cf2475da1ced,A
2020-02-12 22:53:11,8180ef27-9f4b-4018-a3a6-cf2475da1ced,S
2020-02-12 23:05:01,8180ef27-9f4b-4018-a3a6-cf2475da1ced,A
2020-02-12 23:08:09,8180ef27-9f4b-4018-a3a6-cf2475da1ced,S
2020-02-12 23:19:59,8180ef27-9f4b-4018-a3a6-cf2475da1ced,A
2020-02-12 23:31:56,8180ef27-9f4b-4018-a3a6-cf2475da1ced,S
2020-02-12 23:36:49,8180ef27-9f4b-4018-a3a6-cf2475da1ced,A
2020-02-12 23:37:21,8180ef27-9f4b-4018-a3a6-cf2475da1ced,S
2020-02-12 23:37:39,8180ef27-9f4b-4018-a3a6-cf2475da1ced,A
2020-02-12 23:37:50,8180ef27-9f4b-4018-a3a6-cf2475da1ced,S
2020-02-12 23:39:00,8180ef27-9f4b-4018-a3a6-cf2475da1ced,A
2020-02-12 23:42:42,8180ef27-9f4b-4018-a3a6-cf2475da1ced,S
2020-02-12 23:51:33,8180ef27-9f4b-4018-a3a6-cf2475da1ced,A
2020-02-12 23:55:46,8180ef27-9f4b-4018-a3a6-cf2475da1ced,S
2020-02-12 22:19:32,0d0b186c-acde-4439-bd2f-14d5ff4feddd,A
2020-02-12 22:31:03,0d0b186c-acde-4439-bd2f-14d5ff4feddd,S
2020-02-12 22:40:59,0d0b186c-acde-4439-bd2f-14d5ff4feddd,A
2020-02-12 22:46:27,0d0b186c-acde-4439-bd2f-14d5ff4feddd,S
2020-02-12 22:47:09,0d0b186c-acde-4439-bd2f-14d5ff4feddd,A
2020-02-12 22:48:06,0d0b186c-acde-4439-bd2f-14d5ff4feddd,S
2020-02-12 22:50:04,0d0b186c-acde-4439-bd2f-14d5ff4feddd,A
2020-02-12 22:51:24,0d0b186c-acde-4439-bd2f-14d5ff4feddd,S
2020-02-12 22:58:44,0d0b186c-acde-4439-bd2f-14d5ff4feddd,A
2020-02-12 23:00:37,0d0b186c-acde-4439-bd2f-14d5ff4feddd,S
2020-02-12 23:02:20,0d0b186c-acde-4439-bd2f-14d5ff4feddd,A
2020-02-12 23:17:45,0d0b186c-acde-4439-bd2f-14d5ff4feddd,S
2020-02-12 23:23:38,0d0b186c-acde-4439-bd2f-14d5ff4feddd,A
2020-02-12 23:28:11,0d0b186c-acde-4439-bd2f-14d5ff4feddd,S
2020-02-12 23:29:15,0d0b186c-acde-4439-bd2f-14d5ff4feddd,A
2020-02-12 23:31:35,0d0b186c-acde-4439-bd2f-14d5ff4feddd,S
2020-02-12 23:35:14,0d0b186c-acde-4439-bd2f-14d5ff4feddd,A
2020-02-12 23:37:15,0d0b186c-acde-4439-bd2f-14d5ff4feddd,S
2020-02-12 23:37:23,0d0b186c-acde-4439-bd2f-14d5ff4feddd,A
2020-02-12 23:46:29,0d0b186c-acde-4439-bd2f-14d5ff4feddd,S
2020-02-12 23:52:48,0d0b186c-acde-4439-bd2f-14d5ff4feddd,A
2020-02-12 23:53:54,0d0b186c-acde-4439-bd2f-14d5ff4feddd,S
2020-02-12 23:54:47,0d0b186c-acde-4439-bd2f-14d5ff4feddd,A
2020-02-12 22:15:43,8ff69e38-21e3-4ce0-8e6d-ca883387414b,A
2020-02-12 22:34:36,8ff69e38-21e3-4ce0-8e6d-ca883387414b,S
2020-02-12 22:34:58,8ff69e38-21e3-4ce0-8e6d-ca883387414b,A
2020-02-12 22:37:42,8ff69e38-21e3-4ce0-8e6d-ca883387414b,S
2020-02-12 22:41:42,8ff69e38-21e3-4ce0-8e6d-ca883387414b,A
2020-02-12 22:42:12,8ff69e38-21e3-4ce0-8e6d-ca883387414b,S
2020-02-12 22:45:13,8ff69e38-21e3-4ce0-8e6d-ca883387414b,A
2020-02-12 22:46:52,8ff69e38-21e3-4ce0-8e6d-ca883387414b,S
2020-02-12 23:01:21,8ff69e38-21e3-4ce0-8e6d-ca883387414b,A
2020-02-12 23:02:57,8ff69e38-21e3-4ce0-8e6d-ca883387414b,S
2020-02-12 23:03:03,8ff69e38-21e3-4ce0-8e6d-ca883387414b,A
2020-02-12 23:05:23,8ff69e38-21e3-4ce0-8e6d-ca883387414b,S
2020-02-12 23:05:30,8ff69e38-21e3-4ce0-8e6d-ca883387414b,A
2020-02-12 23:07:33,8ff69e38-21e3-4ce0-8e6d-ca883387414b,S
2020-02-12 23:11:34,8ff69e38-21e3-4ce0-8e6d-ca883387414b,A
2020-02-12 23:22:17,8ff69e38-21e3-4ce0-8e6d-ca883387414b,S
2020-02-12 23:28:01,8ff69e38-21e3-4ce0-8e6d-ca883387414b,A
2020-02-12 23:30:15,8ff69e38-21e3-4ce0-8e6d-ca883387414b,S
2020-02-12 23:33:41,8ff69e38-21e3-4ce0-8e6d-ca883387414b,A
2020-02-12 23:37:13,8ff69e38-21e3-4ce0-8e6d-ca883387414b,S
2020-02-12 23:54:59,8ff69e38-21e3-4ce0-8e6d-ca883387414b,A
2020-02-12 22:27:46,3347c66e-c42e-4d88-a0ee-bb7e3f745522,S
2020-02-12 22:29:42,3347c66e-c42e-4d88-a0ee-bb7e3f745522,A
2020-02-12 22:30:10,3347c66e-c42e-4d88-a0ee-bb7e3f745522,S
2020-02-12 22:38:29,3347c66e-c42e-4d88-a0ee-bb7e3f745522,A
2020-02-12 22:41:21,3347c66e-c42e-4d88-a0ee-bb7e3f745522,S
2020-02-12 22:47:42,3347c66e-c42e-4d88-a0ee-bb7e3f745522,A
2020-02-12 22:52:18,3347c66e-c42e-4d88-a0ee-bb7e3f745522,S
2020-02-12 22:53:31,3347c66e-c42e-4d88-a0ee-bb7e3f745522,A
2020-02-12 23:02:15,3347c66e-c42e-4d88-a0ee-bb7e3f745522,S
2020-02-12 23:03:50,3347c66e-c42e-4d88-a0ee-bb7e3f745522,A
2020-02-12 23:11:51,3347c66e-c42e-4d88-a0ee-bb7e3f745522,S
2020-02-12 23:12:04,3347c66e-c42e-4d88-a0ee-bb7e3f745522,A
2020-02-12 23:18:39,3347c66e-c42e-4d88-a0ee-bb7e3f745522,S
2020-02-12 23:23:33,3347c66e-c42e-4d88-a0ee-bb7e3f745522,A
2020-02-12 23:24:28,3347c66e-c42e-4d88-a0ee-bb7e3f745522,S
2020-02-12 23:26:25,3347c66e-c42e-4d88-a0ee-bb7e3f745522,A
2020-02-12 23:26:26,3347c66e-c42e-4d88-a0ee-bb7e3f745522,S
2020-02-12 23:27:46,3347c66e-c42e-4d88-a0ee-bb7e3f745522,A
2020-02-12 23:30:33,3347c66e-c42e-4d88-a0ee-bb7e3f745522,S
2020-02-12 23:37:59,3347c66e-c42e-4d88-a0ee-bb7e3f745522,A
2020-02-12 23:39:32,3347c66e-c42e-4d88-a0ee-bb7e3f745522,S
2020-02-12 23:40:08,3347c66e-c42e-4d88-a0ee-bb7e3f745522,A
2020-02-12 23:47:10,3347c66e-c42e-4d88-a0ee-bb7e3f745522,S
2020-02-12 23:50:39,3347c66e-c42e-4d88-a0ee-bb7e3f745522,A
2020-02-12 22:21:26,5be46d98-619f-4bea-af69-316dc512e017,S
2020-02-12 22:23:45,5be46d98-619f-4bea-af69-316dc512e017,A
2020-02-12 22:28:56,5be46d98-619f-4bea-af69-316dc512e017,S
2020-02-12 22:37:02,5be46d98-619f-4bea-af69-316dc512e017,A
2020-02-12 22:44:26,5be46d98-619f-4bea-af69-316dc512e017,S
2020-02-12 22:44:48,5be46d98-619f-4bea-af69-316dc512e017,A
2020-02-12 22:50:21,5be46d98-619f-4bea-af69-316dc512e017,S
2020-02-12 23:01:24,5be46d98-619f-4bea-af69-316dc512e017,A
2020-02-12 23:05:49,5be46d98-619f-4bea-af69-316dc512e017,S
2020-02-12 23:08:36,5be46d98-619f-4bea-af69-316dc512e017,A
2020-02-12 23:15:18,5be46d98-619f-4bea-af69-316dc512e017,S
2020-02-12 23:16:08,5be46d98-619f-4bea-af69-316dc512e017,A
2020-02-12 23:18:54,5be46d98-619f-4bea-af69-316dc512e017,S
2020-02-12 23:22:44,5be46d98-619f-4bea-af69-316dc512e017,A
2020-02-12 23:29:12,5be46d98-619f-4bea-af69-316dc512e017,S
2020-02-12 23:32:17,5be46d98-619f-4bea-af69-316dc512e017,A
2020-02-12 23:44:37,5be46d98-619f-4bea-af69-316dc512e017,S
2020-02-12 23:49:24,5be46d98-619f-4bea-af69-316dc512e017,A
2020-02-12 23:51:28,5be46d98-619f-4bea-af69-316dc512e017,S
2020-02-12 23:55:16,5be46d98-619f-4bea-af69-316dc512e017,A
2020-02-12 23:58:00,5be46d98-619f-4bea-af69-316dc512e017,S
2020-02-12 21:59:53,5e8f565a-75b2-400c-87de-36a3ef0e322e,S
2020-02-12 22:06:06,5e8f565a-75b2-400c-87de-36a3ef0e322e,A
2020-02-12 22:10:29,5e8f565a-75b2-400c-87de-36a3ef0e322e,S
2020-02-12 22:21:01,5e8f565a-75b2-400c-87de-36a3ef0e322e,A
2020-02-12 22:21:21,5e8f565a-75b2-400c-87de-36a3ef0e322e,S
2020-02-12 22:26:50,5e8f565a-75b2-400c-87de-36a3ef0e322e,A
2020-02-12 22:27:24,5e8f565a-75b2-400c-87de-36a3ef0e322e,S
2020-02-12 22:28:01,5e8f565a-75b2-400c-87de-36a3ef0e322e,A
2020-02-12 22:30:33,5e8f565a-75b2-400c-87de-36a3ef0e322e,S
2020-02-12 22:30:53,5e8f565a-75b2-400c-87de-36a3ef0e322e,A
2020-02-12 22:31:45,5e8f565a-75b2-400c-87de-36a3ef0e322e,S
2020-02-12 22:47:17,5e8f565a-75b2-400c-87de-36a3ef0e322e,A
2020-02-12 22:48:37,5e8f565a-75b2-400c-87de-36a3ef0e322e,S
2020-02-12 22:51:45,5e8f565a-75b2-400c-87de-36a3ef0e322e,A
2020-02-12 23:03:39,5e8f565a-75b2-400c-87de-36a3ef0e322e,S
2020-02-12 23:05:05,5e8f565a-75b2-400c-87de-36a3ef0e322e,A
2020-02-12 23:06:14,5e8f565a-75b2-400c-87de-36a3ef0e322e,S
2020-02-12 23:07:05,5e8f565a-75b2-400c-87de-36a3ef0e322e,A
2020-02-12 23:07:28,5e8f565a-75b2-400c-87de-36a3ef0e322e,S
2020-02-12 23:13:58,5e8f565a-75b2-400c-87de-36a3ef0e322e,A
2020-02-12 23:44:38,5e8f565a-75b2-400c-87de-36a3ef0e322e,S
2020-02-12 23:48:23,5e8f565a-75b2-400c-87de-36a3ef0e322e,A
2020-02-12 23:57:05,5e8f565a-75b2-400c-87de-36a3ef0e322e,S
2020-02-12 22:33:23,801fbbe0-2a1f-4e02-a010-7062f4fe9864,S
2020-02-12 22:35:35,801fbbe0-2a1f-4e02-a010-7062f4fe9864,A
2020-02-12 22:38:20,801fbbe0-2a1f-4e02-a010-7062f4fe9864,S
2020-02-12 22:55:16,801fbbe0-2a1f-4e02-a010-7062f4fe9864,A
2020-02-12 22:56:56,801fbbe0-2a1f-4e02-a010-7062f4fe9864,S
2020-02-12 22:58:03,801fbbe0-2a1f-4e02-a010-7062f4fe9864,A
2020-02-12 23:03:18,801fbbe0-2a1f-4e02-a010-7062f4fe9864,S
2020-02-12 23:11:56,801fbbe0-2a1f-4e02-a010-7062f4fe9864,A
2020-02-12 23:13:53,801fbbe0-2a1f-4e02-a010-7062f4fe9864,S
2020-02-12 23:21:28,801fbbe0-2a1f-4e02-a010-7062f4fe9864,A
2020-02-12 23:22:17,801fbbe0-2a1f-4e02-a010-7062f4fe9864,S
2020-02-12 23:34:04,801fbbe0-2a1f-4e02-a010-7062f4fe9864,A
2020-02-12 23:41:56,801fbbe0-2a1f-4e02-a010-7062f4fe9864,S
2020-02-12 23:43:35,801fbbe0-2a1f-4e02-a010-7062f4fe9864,A
2020-02-12 23:47:24,801fbbe0-2a1f-4e02-a010-7062f4fe9864,S
2020-02-12 23:49:42,801fbbe0-2a1f-4e02-a010-7062f4fe9864,A
2020-02-12 22:19:29,3371d942-ba46-45bc-b0c6-d96d90ef9460,S
2020-02-12 22:20:11,3371d942-ba46-45bc-b0c6-d96d90ef9460,A
2020-02-12 22:35:52,3371d942-ba46-45bc-b0c6-d96d90ef9460,S
2020-02-12 22:43:06,3371d942-ba46-45bc-b0c6-d96d90ef9460,A
2020-02-12 22:43:28,3371d942-ba46-45bc-b0c6-d96d90ef9460,S
2020-02-12 22:43:58,3371d942-ba46-45bc-b0c6-d96d90ef9460,A
2020-02-12 22:45:04,3371d942-ba46-45bc-b0c6-d96d90ef9460,S
2020-02-12 22:52:53,3371d942-ba46-45bc-b0c6-d96d90ef9460,A
2020-02-12 22:55:22,3371d942-ba46-45bc-b0c6-d96d90ef9460,S
2020-02-12 22:56:20,3371d942-ba46-45bc-b0c6-d96d90ef9460,A
2020-02-12 23:01:19,3371d942-ba46-45bc-b0c6-d96d90ef9460,S
2020-02-12 23:04:45,3371d942-ba46-45bc-b0c6-d96d90ef9460,A
2020-02-12 23:12:27,3371d942-ba46-45bc-b0c6-d96d90ef9460,S
2020-02-12 23:15:59,3371d942-ba46-45bc-b0c6-d96d90ef9460,A
2020-02-12 23:17:03,3371d942-ba46-45bc-b0c6-d96d90ef9460,S
2020-02-12 23:18:21,3371d942-ba46-45bc-b0c6-d96d90ef9460,A
2020-02-12 23:27:30,3371d942-ba46-45bc-b0c6-d96d90ef9460,S
2020-02-12 23:28:37,3371d942-ba46-45bc-b0c6-d96d90ef9460,A
2020-02-12 23:31:15,3371d942-ba46-45bc-b0c6-d96d90ef9460,S
2020-02-12 23:33:22,3371d942-ba46-45bc-b0c6-d96d90ef9460,A
2020-02-12 23:41:54,3371d942-ba46-45bc-b0c6-d96d90ef9460,S
2020-02-12 23:44:08,3371d942-ba46-45bc-b0c6-d96d90ef9460,A
2020-02-12 23:49:05,3371d942-ba46-45bc-b0c6-d96d90ef9460,S
2020-02-12 23:52:32,3371d942-ba46-45bc-b0c6-d96d90ef9460,A
2020-02-12 23:53:07,3371d942-ba46-45bc-b0c6-d96d90ef9460,S
2020-02-12 23:54:40,3371d942-ba46-45bc-b0c6-d96d90ef9460,A
2020-02-12 22:26:52,da8ec278-06f3-4cb2-b6ac-2108cff53ed8,A
2020-02-12 22:34:06,da8ec278-06f3-4cb2-b6ac-2108cff53ed8,S
2020-02-12 22:36:00,da8ec278-06f3-4cb2-b6ac-2108cff53ed8,A
2020-02-12 22:11:53,8c520df7-9cce-457c-9e48-541827ca2e0b,A
2020-02-12 22:17:56,8c520df7-9cce-457c-9e48-541827ca2e0b,S
2020-02-12 22:20:27,8c520df7-9cce-457c-9e48-541827ca2e0b,A
2020-02-12 22:21:11,8c520df7-9cce-457c-9e48-541827ca2e0b,S
2020-02-12 22:21:14,8c520df7-9cce-457c-9e48-541827ca2e0b,A
2020-02-12 22:24:04,8c520df7-9cce-457c-9e48-541827ca2e0b,S
2020-02-12 22:32:20,8c520df7-9cce-457c-9e48-541827ca2e0b,A
2020-02-12 22:35:06,8c520df7-9cce-457c-9e48-541827ca2e0b,S
2020-02-12 22:35:09,8c520df7-9cce-457c-9e48-541827ca2e0b,A
2020-02-12 22:41:14,8c520df7-9cce-457c-9e48-541827ca2e0b,S
2020-02-12 22:45:37,8c520df7-9cce-457c-9e48-541827ca2e0b,A
2020-02-12 22:52:58,8c520df7-9cce-457c-9e48-541827ca2e0b,S
2020-02-12 22:54:08,8c520df7-9cce-457c-9e48-541827ca2e0b,A
2020-02-12 22:58:04,8c520df7-9cce-457c-9e48-541827ca2e0b,S
2020-02-12 22:58:51,8c520df7-9cce-457c-9e48-541827ca2e0b,A
2020-02-12 22:59:08,8c520df7-9cce-457c-9e48-541827ca2e0b,S
2020-02-12 23:09:42,8c520df7-9cce-457c-9e48-541827ca2e0b,A
2020-02-12 23:11:05,8c520df7-9cce-457c-9e48-541827ca2e0b,S
2020-02-12 23:16:49,8c520df7-9cce-457c-9e48-541827ca2e0b,A
2020-02-12 23:21:16,8c520df7-9cce-457c-9e48-541827ca2e0b,S
2020-02-12 23:22:35,8c520df7-9cce-457c-9e48-541827ca2e0b,A
2020-02-12 23:25:22,8c520df7-9cce-457c-9e48-541827ca2e0b,S
2020-02-12 23:26:47,8c520df7-9cce-457c-9e48-541827ca2e0b,A
2020-02-12 23:35:36,8c520df7-9cce-457c-9e48-541827ca2e0b,S
2020-02-12 23:37:06,8c520df7-9cce-457c-9e48-541827ca2e0b,A
2020-02-12 23:40:44,8c520df7-9cce-457c-9e48-541827ca2e0b,S
2020-02-12 23:41:01,8c520df7-9cce-457c-9e48-541827ca2e0b,A
2020-02-12 23:44:59,8c520df7-9cce-457c-9e48-541827ca2e0b,S
2020-02-12 21:51:38,651c203a-aba9-4bc0-81bb-9da4b1aaee29,A
2020-02-12 21:55:05,651c203a-aba9-4bc0-81bb-9da4b1aaee29,S
2020-02-12 22:03:39,651c203a-aba9-4bc0-81bb-9da4b1aaee29,A
2020-02-12 22:06:42,651c203a-aba9-4bc0-81bb-9da4b1aaee29,S
2020-02-12 22:06:59,651c203a-aba9-4bc0-81bb-9da4b1aaee29,A
2020-02-12 22:09:27,651c203a-aba9-4bc0-81bb-9da4b1aaee29,S
2020-02-12 22:14:47,651c203a-aba9-4bc0-81bb-9da4b1aaee29,A
2020-02-12 22:18:42,651c203a-aba9-4bc0-81bb-9da4b1aaee29,S
2020-02-12 22:21:27,651c203a-aba9-4bc0-81bb-9da4b1aaee29,A
2020-02-12 22:32:15,651c203a-aba9-4bc0-81bb-9da4b1aaee29,S
2020-02-12 22:37:52,651c203a-aba9-4bc0-81bb-9da4b1aaee29,A
2020-02-12 23:00:27,651c203a-aba9-4bc0-81bb-9da4b1aaee29,S
2020-02-12 23:24:47,651c203a-aba9-4bc0-81bb-9da4b1aaee29,A
2020-02-12 23:31:22,651c203a-aba9-4bc0-81bb-9da4b1aaee29,S
2020-02-12 23:34:48,651c203a-aba9-4bc0-81bb-9da4b1aaee29,A
2020-02-12 23:37:42,651c203a-aba9-4bc0-81bb-9da4b1aaee29,S
2020-02-12 23:42:27,651c203a-aba9-4bc0-81bb-9da4b1aaee29,A
2020-02-12 23:55:31,651c203a-aba9-4bc0-81bb-9da4b1aaee29,S
2020-02-12 23:57:04,651c203a-aba9-4bc0-81bb-9da4b1aaee29,A
2020-02-12 22:17:54,35054e71-319d-45b8-8021-eacc23048772,S
2020-02-12 22:22:03,35054e71-319d-45b8-8021-eacc23048772,A
2020-02-12 22:29:31,35054e71-319d-45b8-8021-eacc23048772,S
2020-02-12 22:33:43,35054e71-319d-45b8-8021-eacc23048772,A
2020-02-12 22:33:57,35054e71-319d-45b8-8021-eacc23048772,S
2020-02-12 22:43:26,35054e71-319d-45b8-8021-eacc23048772,A
2020-02-12 22:46:27,35054e71-319d-45b8-8021-eacc23048772,S
2020-02-12 22:47:54,35054e71-319d-45b8-8021-eacc23048772,A
2020-02-12 22:49:38,35054e71-319d-45b8-8021-eacc23048772,S
2020-02-12 22:59:18,35054e71-319d-45b8-8021-eacc23048772,A
2020-02-12 23:04:08,35054e71-319d-45b8-8021-eacc23048772,S
2020-02-12 23:05:51,35054e71-319d-45b8-8021-eacc23048772,A
2020-02-12 23:06:48,35054e71-319d-45b8-8021-eacc23048772,S
2020-02-12 23:12:15,35054e71-319d-45b8-8021-eacc23048772,A
2020-02-12 23:16:50,35054e71-319d-45b8-8021-eacc23048772,S
2020-02-12 23:21:31,35054e71-319d-45b8-8021-eacc23048772,A
2020-02-12 23:29:32,35054e71-319d-45b8-8021-eacc23048772,S
2020-02-12 23:34:43,35054e71-319d-45b8-8021-eacc23048772,A
2020-02-12 23:38:03,35054e71-319d-45b8-8021-eacc23048772,S
2020-02-12 23:50:49,35054e71-319d-45b8-8021-eacc23048772,A
2020-02-12 23:58:58,35054e71-319d-45b8-8021-eacc23048772,S
2020-02-12 22:34:36,a7495c7e-170b-473d-a17b-b800e890ba2b,S
2020-02-12 22:35:25,a7495c7e-170b-473d-a17b-b800e890ba2b,A
2020-02-12 22:48:01,a7495c7e-170b-473d-a17b-b800e890ba2b,S
2020-02-12 22:49:07,a7495c7e-170b-473d-a17b-b800e890ba2b,A
2020-02-12 22:51:12,a7495c7e-170b-473d-a17b-b800e890ba2b,S
2020-02-12 23:16:05,a7495c7e-170b-473d-a17b-b800e890ba2b,A
2020-02-12 23:27:55,a7495c7e-170b-473d-a17b-b800e890ba2b,S
2020-02-12 23:32:16,a7495c7e-170b-473d-a17b-b800e890ba2b,A
2020-02-12 23:32:17,a7495c7e-170b-473d-a17b-b800e890ba2b,S
2020-02-12 23:36:26,a7495c7e-170b-473d-a17b-b800e890ba2b,A
2020-02-12 23:40:38,a7495c7e-170b-473d-a17b-b800e890ba2b,S
2020-02-12 23:50:00,a7495c7e-170b-473d-a17b-b800e890ba2b,A
2020-02-12 23:55:10,a7495c7e-170b-473d-a17b-b800e890ba2b,S
2020-02-12 21:57:32,2de87bbf-6a4b-4f86-856b-22802e635f42,S
2020-02-12 22:02:29,2de87bbf-6a4b-4f86-856b-22802e635f42,A
2020-02-12 22:02:51,2de87bbf-6a4b-4f86-856b-22802e635f42,S
2020-02-12 22:07:36,2de87bbf-6a4b-4f86-856b-22802e635f42,A
2020-02-12 22:12:33,2de87bbf-6a4b-4f86-856b-22802e635f42,S
2020-02-12 22:14:35,2de87bbf-6a4b-4f86-856b-22802e635f42,A
2020-02-12 22:24:40,2de87bbf-6a4b-4f86-856b-22802e635f42,S
2020-02-12 22:27:21,2de87bbf-6a4b-4f86-856b-22802e635f42,A
2020-02-12 22:28:16,2de87bbf-6a4b-4f86-856b-22802e635f42,S
2020-02-12 22:36:17,2de87bbf-6a4b-4f86-856b-22802e635f42,A
2020-02-12 22:45:06,2de87bbf-6a4b-4f86-856b-22802e635f42,S
2020-02-12 22:47:16,2de87bbf-6a4b-4f86-856b-22802e635f42,A
2020-02-12 22:47:25,2de87bbf-6a4b-4f86-856b-22802e635f42,S
2020-02-12 23:06:42,2de87bbf-6a4b-4f86-856b-22802e635f42,A
2020-02-12 23:08:55,2de87bbf-6a4b-4f86-856b-22802e635f42,S
2020-02-12 23:26:30,2de87bbf-6a4b-4f86-856b-22802e635f42,A
2020-02-12 23:36:41,2de87bbf-6a4b-4f86-856b-22802e635f42,S
2020-02-12 23:52:32,2de87bbf-6a4b-4f86-856b-22802e635f42,A
2020-02-12 23:53:45,2de87bbf-6a4b-4f86-856b-22802e635f42,S
2020-02-12 21:45:42,bf608f27-a228-44cd-aaef-4e897cf13e94,A
2020-02-12 21:49:58,bf608f27-a228-44cd-aaef-4e897cf13e94,S
2020-02-12 21:52:15,bf608f27-a228-44cd-aaef-4e897cf13e94,A
2020-02-12 21:59:58,bf608f27-a228-44cd-aaef-4e897cf13e94,S
2020-02-12 22:09:16,bf608f27-a228-44cd-aaef-4e897cf13e94,A
2020-02-12 22:13:37,bf608f27-a228-44cd-aaef-4e897cf13e94,S
2020-02-12 22:18:11,bf608f27-a228-44cd-aaef-4e897cf13e94,A
2020-02-12 22:33:28,bf608f27-a228-44cd-aaef-4e897cf13e94,S
2020-02-12 22:38:21,bf608f27-a228-44cd-aaef-4e897cf13e94,A
2020-02-12 22:51:10,bf608f27-a228-44cd-aaef-4e897cf13e94,S
2020-02-12 22:51:38,bf608f27-a228-44cd-aaef-4e897cf13e94,A
2020-02-12 22:58:51,bf608f27-a228-44cd-aaef-4e897cf13e94,S
2020-02-12 23:06:46,bf608f27-a228-44cd-aaef-4e897cf13e94,A
2020-02-12 23:07:56,bf608f27-a228-44cd-aaef-4e897cf13e94,S
2020-02-12 23:09:29,bf608f27-a228-44cd-aaef-4e897cf13e94,A
2020-02-12 23:10:06,bf608f27-a228-44cd-aaef-4e897cf13e94,S
2020-02-12 23:11:38,bf608f27-a228-44cd-aaef-4e897cf13e94,A
2020-02-12 23:12:14,bf608f27-a228-44cd-aaef-4e897cf13e94,S
2020-02-12 23:12:20,bf608f27-a228-44cd-aaef-4e897cf13e94,A
2020-02-12 23:12:42,bf608f27-a228-44cd-aaef-4e897cf13e94,S
2020-02-12 23:13:39,bf608f27-a228-44cd-aaef-4e897cf13e94,A
2020-02-12 23:21:04,bf608f27-a228-44cd-aaef-4e897cf13e94,S
2020-02-12 23:33:22,bf608f27-a228-44cd-aaef-4e897cf13e94,A
2020-02-12 23:34:00,bf608f27-a228-44cd-aaef-4e897cf13e94,S
2020-02-12 23:52:29,bf608f27-a228-44cd-aaef-4e897cf13e94,A
2020-02-12 22:04:59,34a54530-334e-41f0-b69b-646f26b3fd51,S
2020-02-12 22:17:04,34a54530-334e-41f0-b69b-646f26b3fd51,A
2020-02-12 22:35:25,34a54530-334e-41f0-b69b-646f26b3fd51,S
2020-02-12 22:37:49,34a54530-334e-41f0-b69b-646f26b3fd51,A
2020-02-12 22:41:07,34a54530-334e-41f0-b69b-646f26b3fd51,S
2020-02-12 22:44:27,34a54530-334e-41f0-b69b-646f26b3fd51,A
2020-02-12 22:55:56,34a54530-334e-41f0-b69b-646f26b3fd51,S
2020-02-12 22:56:46,34a54530-334e-41f0-b69b-646f26b3fd51,A
2020-02-12 22:58:25,34a54530-334e-41f0-b69b-646f26b3fd51,S
2020-02-12 22:59:18,34a54530-334e-41f0-b69b-646f26b3fd51,A
2020-02-12 23:16:42,34a54530-334e-41f0-b69b-646f26b3fd51,S
2020-02-12 23:16:47,34a54530-334e-41f0-b69b-646f26b3fd51,A
2020-02-12 23:19:57,34a54530-334e-41f0-b69b-646f26b3fd51,S
2020-02-12 23:23:24,34a54530-334e-41f0-b69b-646f26b3fd51,A
2020-02-12 23:25:38,34a54530-334e-41f0-b69b-646f26b3fd51,S
2020-02-12 23:31:34,34a54530-334e-41f0-b69b-646f26b3fd51,A
2020-02-12 23:32:57,34a54530-334e-41f0-b69b-646f26b3fd51,S
2020-02-12 23:36:52,34a54530-334e-41f0-b69b-646f26b3fd51,A
2020-02-12 23:42:26,34a54530-334e-41f0-b69b-646f26b3fd51,S
2020-02-12 23:53:58,34a54530-334e-41f0-b69b-646f26b3fd51,A
2020-02-12 23:59:46,34a54530-334e-41f0-b69b-646f26b3fd51,S
2020-02-12 22:25:06,a77bb7c0-4eef-4e0f-87bf-64b9910ff79c,S
2020-02-12 22:27:02,a77bb7c0-4eef-4e0f-87bf-64b9910ff79c,A
2020-02-12 22:30:10,a77bb7c0-4eef-4e0f-87bf-64b9910ff79c,S
2020-02-12 22:30:40,a77bb7c0-4eef-4e0f-87bf-64b9910ff79c,A
2020-02-12 22:33:48,a77bb7c0-4eef-4e0f-87bf-64b9910ff79c,S
2020-02-12 22:35:48,a77bb7c0-4eef-4e0f-87bf-64b9910ff79c,A
2020-02-12 22:40:04,a77bb7c0-4eef-4e0f-87bf-64b9910ff79c,S
2020-02-12 22:41:02,a77bb7c0-4eef-4e0f-87bf-64b9910ff79c,A
2020-02-12 22:41:51,a77bb7c0-4eef-4e0f-87bf-64b9910ff79c,S
2020-02-12 22:49:18,a77bb7c0-4eef-4e0f-87bf-64b9910ff79c,A
2020-02-12 22:51:31,a77bb7c0-4eef-4e0f-87bf-64b9910ff79c,S
2020-02-12 22:55:02,a77bb7c0-4eef-4e0f-87bf-64b9910ff79c,A
2020-02-12 23:03:19,a77bb7c0-4eef-4e0f-87bf-64b9910ff79c,S
2020-02-12 23:10:43,a77bb7c0-4eef-4e0f-87bf-64b9910ff79c,A
2020-02-12 23:12:46,a77bb7c0-4eef-4e0f-87bf-64b9910ff79c,S
2020-02-12 23:15:31,a77bb7c0-4eef-4e0f-87bf-64b9910ff79c,A
2020-02-12 23:16:35,a77bb7c0-4eef-4e0f-87bf-64b9910ff79c,S
2020-02-12 23:17:53,a77bb7c0-4eef-4e0f-87bf-64b9910ff79c,A
2020-02-12 23:19:25,a77bb7c0-4eef-4e0f-87bf-64b9910ff79c,S
2020-02-12 23:27:33,a77bb7c0-4eef-4e0f-87bf-64b9910ff79c,A
2020-02-12 23:27:43,a77bb7c0-4eef-4e0f-87bf-64b9910ff79c,S
2020-02-12 23:27:54,a77bb7c0-4eef-4e0f-87bf-64b9910ff79c,A
2020-02-12 23:31:45,a77bb7c0-4eef-4e0f-87bf-64b9910ff79c,S
2020-02-12 23:34:09,a77bb7c0-4eef-4e0f-87bf-64b9910ff79c,A
2020-02-12 23:34:54,a77bb7c0-4eef-4e0f-87bf-64b9910ff79c,S
2020-02-12 23:36:12,a77bb7c0-4eef-4e0f-87bf-64b9910ff79c,A
2020-02-12 23:37:05,a77bb7c0-4eef-4e0f-87bf-64b9910ff79c,S
2020-02-12 23:45:28,a77bb7c0-4eef-4e0f-87bf-64b9910ff79c,A
2020-02-12 23:46:41,a77bb7c0-4eef-4e0f-87bf-64b9910ff79c,S
2020-02-12 23:55:40,a77bb7c0-4eef-4e0f-87bf-64b9910ff79c,A
2020-02-12 23:59:36,a77bb7c0-4eef-4e0f-87bf-64b9910ff79c,S
2020-02-12 22:06:28,0c8dad54-15a2-4fdc-b454-3b0ccde0a200,S
2020-02-12 22:14:07,0c8dad54-15a2-4fdc-b454-3b0ccde0a200,A
2020-02-12 22:16:03,0c8dad54-15a2-4fdc-b454-3b0ccde0a200,S
2020-02-12 22:27:21,0c8dad54-15a2-4fdc-b454-3b0ccde0a200,A
2020-02-12 22:29:10,0c8dad54-15a2-4fdc-b454-3b0ccde0a200,S
2020-02-12 22:29:52,0c8dad54-15a2-4fdc-b454-3b0ccde0a200,A
2020-02-12 22:39:23,0c8dad54-15a2-4fdc-b454-3b0ccde0a200,S
2020-02-12 22:42:38,0c8dad54-15a2-4fdc-b454-3b0ccde0a200,A
2020-02-12 22:43:14,0c8dad54-15a2-4fdc-b454-3b0ccde0a200,S
2020-02-12 22:43:45,0c8dad54-15a2-4fdc-b454-3b0ccde0a200,A
2020-02-12 22:48:49,0c8dad54-15a2-4fdc-b454-3b0ccde0a200,S
2020-02-12 22:49:14,0c8dad54-15a2-4fdc-b454-3b0ccde0a200,A
2020-02-12 22:49:37,0c8dad54-15a2-4fdc-b454-3b0ccde0a200,S
2020-02-12 22:50:21,0c8dad54-15a2-4fdc-b454-3b0ccde0a200,A
2020-02-12 22:52:13,0c8dad54-15a2-4fdc-b454-3b0ccde0a200,S
2020-02-12 22:53:05,0c8dad54-15a2-4fdc-b454-3b0ccde0a200,A
2020-02-12 23:03:39,0c8dad54-15a2-4fdc-b454-3b0ccde0a200,S
2020-02-12 23:04:51,0c8dad54-15a2-4fdc-b454-3b0ccde0a200,A
2020-02-12 23:11:43,0c8dad54-15a2-4fdc-b454-3b0ccde0a200,S
2020-02-12 23:20:23,0c8dad54-15a2-4fdc-b454-3b0ccde0a200,A
2020-02-12 23:23:31,0c8dad54-15a2-4fdc-b454-3b0ccde0a200,S
2020-02-12 23:27:07,0c8dad54-15a2-4fdc-b454-3b0ccde0a200,A
2020-02-12 23:27:23,0c8dad54-15a2-4fdc-b454-3b0ccde0a200,S
2020-02-12 23:34:28,0c8dad54-15a2-4fdc-b454-3b0ccde0a200,A
2020-02-12 23:34:36,0c8dad54-15a2-4fdc-b454-3b0ccde0a200,S
2020-02-12 23:35:01,0c8dad54-15a2-4fdc-b454-3b0ccde0a200,A
2020-02-12 23:35:38,0c8dad54-15a2-4fdc-b454-3b0ccde0a200,S
2020-02-12 23:37:43,0c8dad54-15a2-4fdc-b454-3b0ccde0a200,A
2020-02-12 23:37:46,0c8dad54-15a2-4fdc-b454-3b0ccde0a200,S
2020-02-12 23:49:33,0c8dad54-15a2-4fdc-b454-3b0ccde0a200,A
2020-02-12 23:52:56,0c8dad54-15a2-4fdc-b454-3b0ccde0a200,S
2020-02-12 23:54:49,0c8dad54-15a2-4fdc-b454-3b0ccde0a200,A
2020-02-12 22:27:55,5de623dc-d9d7-46cc-bcad-0977e022845d,S
2020-02-12 22:28:38,5de623dc-d9d7-46cc-bcad-0977e022845d,A
2020-02-12 22:32:09,5de623dc-d9d7-46cc-bcad-0977e022845d,S
2020-02-12 22:36:11,5de623dc-d9d7-46cc-bcad-0977e022845d,A
2020-02-12 22:44:00,5de623dc-d9d7-46cc-bcad-0977e022845d,S
2020-02-12 22:50:29,5de623dc-d9d7-46cc-bcad-0977e022845d,A
2020-02-12 22:54:40,5de623dc-d9d7-46cc-bcad-0977e022845d,S
2020-02-12 22:56:05,5de623dc-d9d7-46cc-bcad-0977e022845d,A
2020-02-12 23:06:30,5de623dc-d9d7-46cc-bcad-0977e022845d,S
2020-02-12 23:06:45,5de623dc-d9d7-46cc-bcad-0977e022845d,A
2020-02-12 23:07:01,5de623dc-d9d7-46cc-bcad-0977e022845d,S
2020-02-12 23:08:30,5de623dc-d9d7-46cc-bcad-0977e022845d,A
2020-02-12 23:16:20,5de623dc-d9d7-46cc-bcad-0977e022845d,S
2020-02-12 23:20:18,5de623dc-d9d7-46cc-bcad-0977e022845d,A
2020-02-12 23:22:56,5de623dc-d9d7-46cc-bcad-0977e022845d,S
2020-02-12 23:25:23,5de623dc-d9d7-46cc-bcad-0977e022845d,A
2020-02-12 23:27:30,5de623dc-d9d7-46cc-bcad-0977e022845d,S
2020-02-12 23:32:11,5de623dc-d9d7-46cc-bcad-0977e022845d,A
2020-02-12 23:38:32,5de623dc-d9d7-46cc-bcad-0977e022845d,S
2020-02-12 23:38:42,5de623dc-d9d7-46cc-bcad-0977e022845d,A
2020-02-12 23:39:22,5de623dc-d9d7-46cc-bcad-0977e022845d,S
2020-02-12 23:41:40,5de623dc-d9d7-46cc-bcad-0977e022845d,A
2020-02-12 23:56:06,5de623dc-d9d7-46cc-bcad-0977e022845d,S
