date,trigger,state
2019-04-06 19:52:19,75347249-bc42-486d-adfa-a27536110547,A
2019-04-06 19:55:48,75347249-bc42-486d-adfa-a27536110547,S
2019-04-06 19:58:52,75347249-bc42-486d-adfa-a27536110547,A
2019-04-06 20:07:49,75347249-bc42-486d-adfa-a27536110547,S
2019-04-06 20:22:45,75347249-bc42-486d-adfa-a27536110547,A
2019-04-06 20:23:48,75347249-bc42-486d-adfa-a27536110547,S
2019-04-06 20:24:17,75347249-bc42-486d-adfa-a27536110547,A
2019-04-06 20:24:56,75347249-bc42-486d-adfa-a27536110547,S
2019-04-06 20:32:00,75347249-bc42-486d-adfa-a27536110547,A
2019-04-06 20:37:10,75347249-bc42-486d-adfa-a27536110547,S
2019-04-06 20:56:02,75347249-bc42-486d-adfa-a27536110547,A
2019-04-06 20:58:09,75347249-bc42-486d-adfa-a27536110547,S
2019-04-06 21:05:16,75347249-bc42-486d-adfa-a27536110547,A
2019-04-06 21:08:46,75347249-bc42-486d-adfa-a27536110547,S
2019-04-06 19:47:11,f968c725-9dcd-47fb-92dc-5bdbd8c21e06,A
2019-04-06 19:47:51,f968c725-9dcd-47fb-92dc-5bdbd8c21e06,S
2019-04-06 19:49:26,f968c725-9dcd-47fb-92dc-5bdbd8c21e06,A
2019-04-06 20:03:39,f968c725-9dcd-47fb-92dc-5bdbd8c21e06,S
2019-04-06 20:05:46,f968c725-9dcd-47fb-92dc-5bdbd8c21e06,A
2019-04-06 20:08:13,f968c725-9dcd-47fb-92dc-5bdbd8c21e06,S
2019-04-06 20:15:50,f968c725-9dcd-47fb-92dc-5bdbd8c21e06,A
2019-04-06 20:19:31,f968c725-9dcd-47fb-92dc-5bdbd8c21e06,S
2019-04-06 20:22:52,f968c725-9dcd-47fb-92dc-5bdbd8c21e06,A
2019-04-06 20:33:42,f968c725-9dcd-47fb-92dc-5bdbd8c21e06,S
2019-04-06 20:33:46,f968c725-9dcd-47fb-92dc-5bdbd8c21e06,A
2019-04-06 20:43:17,f968c725-9dcd-47fb-92dc-5bdbd8c21e06,S
2019-04-06 21:03:46,f968c725-9dcd-47fb-92dc-5bdbd8c21e06,A
2019-04-06 21:11:01,f968c725-9dcd-47fb-92dc-5bdbd8c21e06,S
2019-04-06 21:14:59,f968c725-9dcd-47fb-92dc-5bdbd8c21e06,A
2019-04-06 20:02:00,923f64e3-134b-4eb4-bfbe-0a2d4228276a,S
2019-04-06 20:03:14,923f64e3-134b-4eb4-bfbe-0a2d4228276a,A
2019-04-06 20:08:59,923f64e3-134b-4eb4-bfbe-0a2d4228276a,S
2019-04-06 20:22:19,923f64e3-134b-4eb4-bfbe-0a2d4228276a,A
2019-04-06 20:30:04,923f64e3-134b-4eb4-bfbe-0a2d4228276a,S
2019-04-06 20:32:35,923f64e3-134b-4eb4-bfbe-0a2d4228276a,A
2019-04-06 20:48:57,923f64e3-134b-4eb4-bfbe-0a2d4228276a,S
2019-04-06 20:55:05,923f64e3-134b-4eb4-bfbe-0a2d4228276a,A
2019-04-06 21:09:53,923f64e3-134b-4eb4-bfbe-0a2d4228276a,S
2019-04-06 21:15:08,923f64e3-134b-4eb4-bfbe-0a2d4228276a,A
2019-04-06 19:22:06,b93272d9-dee3-4d96-bba8-8a522a0e047f,S
2019-04-06 19:25:34,b93272d9-dee3-4d96-bba8-8a522a0e047f,A
2019-04-06 19:31:36,b93272d9-dee3-4d96-bba8-8a522a0e047f,S
2019-04-06 19:41:33,b93272d9-dee3-4d96-bba8-8a522a0e047f,A
2019-04-06 20:01:41,b93272d9-dee3-4d96-bba8-8a522a0e047f,S
2019-04-06 20:07:36,b93272d9-dee3-4d96-bba8-8a522a0e047f,A
2019-04-06 20:18:28,b93272d9-dee3-4d96-bba8-8a522a0e047f,S
2019-04-06 20:23:51,b93272d9-dee3-4d96-bba8-8a522a0e047f,A
2019-04-06 20:28:08,b93272d9-dee3-4d96-bba8-8a522a0e047f,S
2019-04-06 20:33:41,b93272d9-dee3-4d96-bba8-8a522a0e047f,A
2019-04-06 20:33:53,b93272d9-dee3-4d96-bba8-8a522a0e047f,S
2019-04-06 20:35:37,b93272d9-dee3-4d96-bba8-8a522a0e047f,A
2019-04-06 20:41:31,b93272d9-dee3-4d96-bba8-8a522a0e047f,S
2019-04-06 20:43:14,b93272d9-dee3-4d96-bba8-8a522a0e047f,A
2019-04-06 20:47:46,b93272d9-dee3-4d96-bba8-8a522a0e047f,S
2019-04-06 20:51:20,b93272d9-dee3-4d96-bba8-8a522a0e047f,A
2019-04-06 20:56:38,b93272d9-dee3-4d96-bba8-8a522a0e047f,S
2019-04-06 21:04:22,b93272d9-dee3-4d96-bba8-8a522a0e047f,A
2019-04-06 19:32:46,ec400d97-2865-4b5d-9ac6-20012ad32b00,A
2019-04-06 19:40:35,ec400d97-2865-4b5d-9ac6-20012ad32b00,S
2019-04-06 19:42:05,ec400d97-2865-4b5d-9ac6-20012ad32b00,A
2019-04-06 19:44:43,ec400d97-2865-4b5d-9ac6-20012ad32b00,S
2019-04-06 19:49:24,ec400d97-2865-4b5d-9ac6-20012ad32b00,A
2019-04-06 20:04:06,ec400d97-2865-4b5d-9ac6-20012ad32b00,S
2019-04-06 20:04:41,ec400d97-2865-4b5d-9ac6-20012ad32b00,A
2019-04-06 20:10:11,ec400d97-2865-4b5d-9ac6-20012ad32b00,S
2019-04-06 20:17:24,ec400d97-2865-4b5d-9ac6-20012ad32b00,A
2019-04-06 20:17:59,ec400d97-2865-4b5d-9ac6-20012ad32b00,S
2019-04-06 20:29:49,ec400d97-2865-4b5d-9ac6-20012ad32b00,A
2019-04-06 20:32:57,ec400d97-2865-4b5d-9ac6-20012ad32b00,S
2019-04-06 20:44:47,ec400d97-2865-4b5d-9ac6-20012ad32b00,A
2019-04-06 20:56:44,ec400d97-2865-4b5d-9ac6-20012ad32b00,S
2019-04-06 21:01:37,ec400d97-2865-4b5d-9ac6-20012ad32b00,A
2019-04-06 21:02:09,ec400d97-2865-4b5d-9ac6-20012ad32b00,S
2019-04-06 21:02:28,ec400d97-2865-4b5d-9ac6-20012ad32b00,A
2019-04-06 21:02:38,ec400d97-2865-4b5d-9ac6-20012ad32b00,S
2019-04-06 21:03:49,ec400d97-2865-4b5d-9ac6-20012ad32b00,A
2019-04-06 21:07:30,ec400d97-2865-4b5d-9ac6-20012ad32b00,S
2019-04-06 21:16:21,ec400d97-2865-4b5d-9ac6-20012ad32b00,A
2019-04-06 19:53:42,c079bb50-33e7-4287-9661-993832214455,A
2019-04-06 20:09:21,c079bb50-33e7-4287-9661-993832214455,S
2019-04-06 20:10:31,c079bb50-33e7-4287-9661-993832214455,A
2019-04-06 20:19:37,c079bb50-33e7-4287-9661-993832214455,S
2019-04-06 20:31:10,c079bb50-33e7-4287-9661-993832214455,A
2019-04-06 20:37:22,c079bb50-33e7-4287-9661-993832214455,S
2019-04-06 20:44:03,c079bb50-33e7-4287-9661-993832214455,A
2019-04-06 20:44:26,c079bb50-33e7-4287-9661-993832214455,S
2019-04-06 20:45:33,c079bb50-33e7-4287-9661-993832214455,A
2019-04-06 20:49:52,c079bb50-33e7-4287-9661-993832214455,S
2019-04-06 20:50:24,c079bb50-33e7-4287-9661-993832214455,A
2019-04-06 20:57:03,c079bb50-33e7-4287-9661-993832214455,S
2019-04-06 20:59:47,c079bb50-33e7-4287-9661-993832214455,A
2019-04-06 21:01:34,c079bb50-33e7-4287-9661-993832214455,S
2019-04-06 21:05:21,c079bb50-33e7-4287-9661-993832214455,A
2019-04-06 21:11:36,c079bb50-33e7-4287-9661-993832214455,S
2019-04-06 21:11:49,c079bb50-33e7-4287-9661-993832214455,A
2019-04-06 21:14:25,c079bb50-33e7-4287-9661-993832214455,S
2019-04-06 19:13:53,7b1fd8e5-024d-4346-bea2-ae58969e76a4,A
2019-04-06 19:29:56,7b1fd8e5-024d-4346-bea2-ae58969e76a4,S
2019-04-06 19:33:09,7b1fd8e5-024d-4346-bea2-ae58969e76a4,A
2019-04-06 19:35:55,7b1fd8e5-024d-4346-bea2-ae58969e76a4,S
2019-04-06 19:36:26,7b1fd8e5-024d-4346-bea2-ae58969e76a4,A
2019-04-06 19:50:24,7b1fd8e5-024d-4346-bea2-ae58969e76a4,S
2019-04-06 19:53:53,7b1fd8e5-024d-4346-bea2-ae58969e76a4,A
2019-04-06 19:56:45,7b1fd8e5-024d-4346-bea2-ae58969e76a4,S
2019-04-06 20:00:45,7b1fd8e5-024d-4346-bea2-ae58969e76a4,A
2019-04-06 20:14:08,7b1fd8e5-024d-4346-bea2-ae58969e76a4,S
2019-04-06 20:14:19,7b1fd8e5-024d-4346-bea2-ae58969e76a4,A
2019-04-06 20:23:01,7b1fd8e5-024d-4346-bea2-ae58969e76a4,S
2019-04-06 20:27:18,7b1fd8e5-024d-4346-bea2-ae58969e76a4,A
2019-04-06 20:33:54,7b1fd8e5-024d-4346-bea2-ae58969e76a4,S
2019-04-06 20:36:26,7b1fd8e5-024d-4346-bea2-ae58969e76a4,A
2019-04-06 20:47:37,7b1fd8e5-024d-4346-bea2-ae58969e76a4,S
2019-04-06 20:49:32,7b1fd8e5-024d-4346-bea2-ae58969e76a4,A
2019-04-06 20:50:29,7b1fd8e5-024d-4346-bea2-ae58969e76a4,S
2019-04-06 20:53:22,7b1fd8e5-024d-4346-bea2-ae58969e76a4,A
2019-04-06 20:59:20,7b1fd8e5-024d-4346-bea2-ae58969e76a4,S
2019-04-06 21:08:08,7b1fd8e5-024d-4346-bea2-ae58969e76a4,A
2019-04-06 21:11:11,7b1fd8e5-024d-4346-bea2-ae58969e76a4,S
2019-04-06 21:13:02,7b1fd8e5-024d-4346-bea2-ae58969e76a4,A
2019-04-06 21:15:12,7b1fd8e5-024d-4346-bea2-ae58969e76a4,S
2019-04-06 19:36:46,c31cbba0-41f3-40db-903f-38d7ea31034d,A
2019-04-06 19:42:49,c31cbba0-41f3-40db-903f-38d7ea31034d,S
2019-04-06 19:45:20,c31cbba0-41f3-40db-903f-38d7ea31034d,A
2019-04-06 19:46:04,c31cbba0-41f3-40db-903f-38d7ea31034d,S
2019-04-06 19:46:07,c31cbba0-41f3-40db-903f-38d7ea31034d,A
2019-04-06 19:48:57,c31cbba0-41f3-40db-903f-38d7ea31034d,S
2019-04-06 19:57:13,c31cbba0-41f3-40db-903f-38d7ea31034d,A
2019-04-06 19:59:59,c31cbba0-41f3-40db-903f-38d7ea31034d,S
2019-04-06 20:00:02,c31cbba0-41f3-40db-903f-38d7ea31034d,A
2019-04-06 20:06:08,c31cbba0-41f3-40db-903f-38d7ea31034d,S
2019-04-06 20:10:30,c31cbba0-41f3-40db-903f-38d7ea31034d,A
2019-04-06 20:17:51,c31cbba0-41f3-40db-903f-38d7ea31034d,S
2019-04-06 20:19:01,c31cbba0-41f3-40db-903f-38d7ea31034d,A
2019-04-06 20:22:57,c31cbba0-41f3-40db-903f-38d7ea31034d,S
2019-04-06 20:23:44,c31cbba0-41f3-40db-903f-38d7ea31034d,A
2019-04-06 20:24:02,c31cbba0-41f3-40db-903f-38d7ea31034d,S
2019-04-06 20:34:35,c31cbba0-41f3-40db-903f-38d7ea31034d,A
2019-04-06 20:35:58,c31cbba0-41f3-40db-903f-38d7ea31034d,S
2019-04-06 20:41:43,c31cbba0-41f3-40db-903f-38d7ea31034d,A
2019-04-06 20:46:09,c31cbba0-41f3-40db-903f-38d7ea31034d,S
2019-04-06 20:47:28,c31cbba0-41f3-40db-903f-38d7ea31034d,A
2019-04-06 20:50:16,c31cbba0-41f3-40db-903f-38d7ea31034d,S
2019-04-06 20:51:40,c31cbba0-41f3-40db-903f-38d7ea31034d,A
2019-04-06 21:00:29,c31cbba0-41f3-40db-903f-38d7ea31034d,S
2019-04-06 21:01:59,c31cbba0-41f3-40db-903f-38d7ea31034d,A
2019-04-06 21:05:38,c31cbba0-41f3-40db-903f-38d7ea31034d,S
2019-04-06 21:05:55,c31cbba0-41f3-40db-903f-38d7ea31034d,A
2019-04-06 21:09:53,c31cbba0-41f3-40db-903f-38d7ea31034d,S
2019-04-06 19:27:12,7c172e78-124e-4b5b-8c57-d3bb2a3554d3,A
2019-04-06 19:33:15,7c172e78-124e-4b5b-8c57-d3bb2a3554d3,S
2019-04-06 19:36:03,7c172e78-124e-4b5b-8c57-d3bb2a3554d3,A
2019-04-06 19:36:42,7c172e78-124e-4b5b-8c57-d3bb2a3554d3,S
2019-04-06 19:37:27,7c172e78-124e-4b5b-8c57-d3bb2a3554d3,A
2019-04-06 19:46:42,7c172e78-124e-4b5b-8c57-d3bb2a3554d3,S
2019-04-06 19:47:08,7c172e78-124e-4b5b-8c57-d3bb2a3554d3,A
2019-04-06 19:47:58,7c172e78-124e-4b5b-8c57-d3bb2a3554d3,S
2019-04-06 19:52:52,7c172e78-124e-4b5b-8c57-d3bb2a3554d3,A
2019-04-06 19:57:51,7c172e78-124e-4b5b-8c57-d3bb2a3554d3,S
2019-04-06 19:58:03,7c172e78-124e-4b5b-8c57-d3bb2a3554d3,A
2019-04-06 19:58:48,7c172e78-124e-4b5b-8c57-d3bb2a3554d3,S
2019-04-06 20:01:08,7c172e78-124e-4b5b-8c57-d3bb2a3554d3,A
2019-04-06 20:04:08,7c172e78-124e-4b5b-8c57-d3bb2a3554d3,S
2019-04-06 20:05:24,7c172e78-124e-4b5b-8c57-d3bb2a3554d3,A
2019-04-06 20:05:28,7c172e78-124e-4b5b-8c57-d3bb2a3554d3,S
2019-04-06 20:13:34,7c172e78-124e-4b5b-8c57-d3bb2a3554d3,A
2019-04-06 20:16:51,7c172e78-124e-4b5b-8c57-d3bb2a3554d3,S
2019-04-06 20:18:44,7c172e78-124e-4b5b-8c57-d3bb2a3554d3,A
2019-04-06 20:26:19,7c172e78-124e-4b5b-8c57-d3bb2a3554d3,S
2019-04-06 20:36:20,7c172e78-124e-4b5b-8c57-d3bb2a3554d3,A
2019-04-06 19:58:31,da956564-2106-4173-b814-7335e9565c6b,S
2019-04-06 20:00:42,da956564-2106-4173-b814-7335e9565c6b,A
2019-04-06 20:03:27,da956564-2106-4173-b814-7335e9565c6b,S
2019-04-06 20:20:23,da956564-2106-4173-b814-7335e9565c6b,A
2019-04-06 20:22:32,da956564-2106-4173-b814-7335e9565c6b,S
2019-04-06 20:23:36,da956564-2106-4173-b814-7335e9565c6b,A
2019-04-06 20:28:25,da956564-2106-4173-b814-7335e9565c6b,S
2019-04-06 20:37:03,da956564-2106-4173-b814-7335e9565c6b,A
2019-04-06 20:39:01,da956564-2106-4173-b814-7335e9565c6b,S
2019-04-06 20:46:36,da956564-2106-4173-b814-7335e9565c6b,A
2019-04-06 20:47:24,da956564-2106-4173-b814-7335e9565c6b,S
2019-04-06 20:59:11,da956564-2106-4173-b814-7335e9565c6b,A
2019-04-06 21:07:04,da956564-2106-4173-b814-7335e9565c6b,S
2019-04-06 21:08:42,da956564-2106-4173-b814-7335e9565c6b,A
2019-04-06 21:12:31,da956564-2106-4173-b814-7335e9565c6b,S
2019-04-06 21:14:49,da956564-2106-4173-b814-7335e9565c6b,A
2019-04-06 19:57:45,127563c3-5095-4d46-8f0e-41bcc833b3aa,A
2019-04-06 20:02:51,127563c3-5095-4d46-8f0e-41bcc833b3aa,S
2019-04-06 20:03:55,127563c3-5095-4d46-8f0e-41bcc833b3aa,A
2019-04-06 20:05:50,127563c3-5095-4d46-8f0e-41bcc833b3aa,S
2019-04-06 20:13:25,127563c3-5095-4d46-8f0e-41bcc833b3aa,A
2019-04-06 20:14:50,127563c3-5095-4d46-8f0e-41bcc833b3aa,S
2019-04-06 20:24:43,127563c3-5095-4d46-8f0e-41bcc833b3aa,A
2019-04-06 20:26:32,127563c3-5095-4d46-8f0e-41bcc833b3aa,S
2019-04-06 20:31:25,127563c3-5095-4d46-8f0e-41bcc833b3aa,A
2019-04-06 20:35:50,127563c3-5095-4d46-8f0e-41bcc833b3aa,S
2019-04-06 20:44:34,127563c3-5095-4d46-8f0e-41bcc833b3aa,A
2019-04-06 20:46:05,127563c3-5095-4d46-8f0e-41bcc833b3aa,S
2019-04-06 20:47:59,127563c3-5095-4d46-8f0e-41bcc833b3aa,A
2019-04-06 20:50:26,127563c3-5095-4d46-8f0e-41bcc833b3aa,S
2019-04-06 20:54:40,127563c3-5095-4d46-8f0e-41bcc833b3aa,A
2019-04-06 21:00:29,127563c3-5095-4d46-8f0e-41bcc833b3aa,S
2019-04-06 21:05:59,127563c3-5095-4d46-8f0e-41bcc833b3aa,A
2019-04-06 21:15:12,127563c3-5095-4d46-8f0e-41bcc833b3aa,S
2019-04-06 19:46:22,852a87c1-9662-4d75-bc53-43b86a353aca,S
2019-04-06 19:48:41,852a87c1-9662-4d75-bc53-43b86a353aca,A
2019-04-06 19:53:52,852a87c1-9662-4d75-bc53-43b86a353aca,S
2019-04-06 20:01:58,852a87c1-9662-4d75-bc53-43b86a353aca,A
2019-04-06 20:09:22,852a87c1-9662-4d75-bc53-43b86a353aca,S
2019-04-06 20:09:44,852a87c1-9662-4d75-bc53-43b86a353aca,A
2019-04-06 20:15:17,852a87c1-9662-4d75-bc53-43b86a353aca,S
2019-04-06 20:26:20,852a87c1-9662-4d75-bc53-43b86a353aca,A
2019-04-06 20:30:44,852a87c1-9662-4d75-bc53-43b86a353aca,S
2019-04-06 20:33:32,852a87c1-9662-4d75-bc53-43b86a353aca,A
2019-04-06 20:40:14,852a87c1-9662-4d75-bc53-43b86a353aca,S
2019-04-06 20:41:04,852a87c1-9662-4d75-bc53-43b86a353aca,A
2019-04-06 20:43:50,852a87c1-9662-4d75-bc53-43b86a353aca,S
2019-04-06 20:47:40,852a87c1-9662-4d75-bc53-43b86a353aca,A
2019-04-06 20:54:08,852a87c1-9662-4d75-bc53-43b86a353aca,S
2019-04-06 20:57:13,852a87c1-9662-4d75-bc53-43b86a353aca,A
2019-04-06 21:09:33,852a87c1-9662-4d75-bc53-43b86a353aca,S
2019-04-06 21:14:20,852a87c1-9662-4d75-bc53-43b86a353aca,A
2019-04-06 21:16:24,852a87c1-9662-4d75-bc53-43b86a353aca,S
2019-04-06 19:16:38,f5458fdb-f538-4c6b-8e54-000b819912e1,S
2019-04-06 19:18:11,f5458fdb-f538-4c6b-8e54-000b819912e1,A
2019-04-06 19:18:59,f5458fdb-f538-4c6b-8e54-000b819912e1,S
2019-04-06 19:19:05,f5458fdb-f538-4c6b-8e54-000b819912e1,A
2019-04-06 19:19:11,f5458fdb-f538-4c6b-8e54-000b819912e1,S
2019-04-06 19:19:35,f5458fdb-f538-4c6b-8e54-000b819912e1,A
2019-04-06 19:24:20,f5458fdb-f538-4c6b-8e54-000b819912e1,S
2019-04-06 19:28:29,f5458fdb-f538-4c6b-8e54-000b819912e1,A
2019-04-06 19:30:17,f5458fdb-f538-4c6b-8e54-000b819912e1,S
2019-04-06 19:32:30,f5458fdb-f538-4c6b-8e54-000b819912e1,A
2019-04-06 19:43:08,f5458fdb-f538-4c6b-8e54-000b819912e1,S
2019-04-06 19:45:11,f5458fdb-f538-4c6b-8e54-000b819912e1,A
2019-04-06 19:54:20,f5458fdb-f538-4c6b-8e54-000b819912e1,S
2019-04-06 19:56:55,f5458fdb-f538-4c6b-8e54-000b819912e1,A
2019-04-06 20:05:31,f5458fdb-f538-4c6b-8e54-000b819912e1,S
2019-04-06 20:07:33,f5458fdb-f538-4c6b-8e54-000b819912e1,A
2019-04-06 20:09:21,f5458fdb-f538-4c6b-8e54-000b819912e1,S
2019-04-06 20:12:25,f5458fdb-f538-4c6b-8e54-000b819912e1,A
2019-04-06 20:12:32,f5458fdb-f538-4c6b-8e54-000b819912e1,S
2019-04-06 20:24:36,f5458fdb-f538-4c6b-8e54-000b819912e1,A
2019-04-06 20:28:15,f5458fdb-f538-4c6b-8e54-000b819912e1,S
2019-04-06 20:39:58,f5458fdb-f538-4c6b-8e54-000b819912e1,A
2019-04-06 20:40:43,f5458fdb-f538-4c6b-8e54-000b819912e1,S
2019-04-06 20:47:36,f5458fdb-f538-4c6b-8e54-000b819912e1,A
2019-04-06 20:48:56,f5458fdb-f538-4c6b-8e54-000b819912e1,S
2019-04-06 20:51:24,f5458fdb-f538-4c6b-8e54-000b819912e1,A
2019-04-06 20:59:49,f5458fdb-f538-4c6b-8e54-000b819912e1,S
2019-04-06 21:07:58,f5458fdb-f538-4c6b-8e54-000b819912e1,A
2019-04-06 19:31:18,e03437b1-ef55-4ebd-91dc-509db2365acf,S
2019-04-06 19:38:57,e03437b1-ef55-4ebd-91dc-509db2365acf,A
2019-04-06 19:40:53,e03437b1-ef55-4ebd-91dc-509db2365acf,S
2019-04-06 19:52:11,e03437b1-ef55-4ebd-91dc-509db2365acf,A
2019-04-06 19:54:00,e03437b1-ef55-4ebd-91dc-509db2365acf,S
2019-04-06 19:54:42,e03437b1-ef55-4ebd-91dc-509db2365acf,A
2019-04-06 20:04:13,e03437b1-ef55-4ebd-91dc-509db2365acf,S
2019-04-06 20:07:28,e03437b1-ef55-4ebd-91dc-509db2365acf,A
2019-04-06 20:08:03,e03437b1-ef55-4ebd-91dc-509db2365acf,S
2019-04-06 20:08:35,e03437b1-ef55-4ebd-91dc-509db2365acf,A
2019-04-06 20:14:08,e03437b1-ef55-4ebd-91dc-509db2365acf,S
2019-04-06 20:15:42,e03437b1-ef55-4ebd-91dc-509db2365acf,S
2019-04-06 20:17:03,e03437b1-ef55-4ebd-91dc-509db2365acf,S
2019-04-06 20:17:55,e03437b1-ef55-4ebd-91dc-509db2365acf,A
2019-04-06 20:28:29,e03437b1-ef55-4ebd-91dc-509db2365acf,S
2019-04-06 20:29:41,e03437b1-ef55-4ebd-91dc-509db2365acf,A
2019-04-06 20:36:33,e03437b1-ef55-4ebd-91dc-509db2365acf,S
2019-04-06 20:45:13,e03437b1-ef55-4ebd-91dc-509db2365acf,A
2019-04-06 20:48:21,e03437b1-ef55-4ebd-91dc-509db2365acf,S
2019-04-06 20:51:57,e03437b1-ef55-4ebd-91dc-509db2365acf,A
2019-04-06 20:52:13,e03437b1-ef55-4ebd-91dc-509db2365acf,S
2019-04-06 20:59:18,e03437b1-ef55-4ebd-91dc-509db2365acf,A
2019-04-06 20:59:26,e03437b1-ef55-4ebd-91dc-509db2365acf,S
2019-04-06 20:59:51,e03437b1-ef55-4ebd-91dc-509db2365acf,A
2019-04-06 21:00:28,e03437b1-ef55-4ebd-91dc-509db2365acf,S
2019-04-06 21:02:33,e03437b1-ef55-4ebd-91dc-509db2365acf,A
2019-04-06 21:02:36,e03437b1-ef55-4ebd-91dc-509db2365acf,S
2019-04-06 21:14:23,e03437b1-ef55-4ebd-91dc-509db2365acf,A
2019-04-06 19:52:57,96404e4c-4bef-4849-9bfa-8a05c430ed93,S
2019-04-06 19:53:40,96404e4c-4bef-4849-9bfa-8a05c430ed93,A
2019-04-06 19:57:11,96404e4c-4bef-4849-9bfa-8a05c430ed93,S
2019-04-06 20:01:13,96404e4c-4bef-4849-9bfa-8a05c430ed93,A
2019-04-06 20:09:02,96404e4c-4bef-4849-9bfa-8a05c430ed93,S
2019-04-06 20:15:31,96404e4c-4bef-4849-9bfa-8a05c430ed93,A
2019-04-06 20:19:42,96404e4c-4bef-4849-9bfa-8a05c430ed93,S
2019-04-06 20:21:07,96404e4c-4bef-4849-9bfa-8a05c430ed93,A
2019-04-06 20:31:32,96404e4c-4bef-4849-9bfa-8a05c430ed93,S
2019-04-06 20:31:47,96404e4c-4bef-4849-9bfa-8a05c430ed93,A
2019-04-06 20:32:03,96404e4c-4bef-4849-9bfa-8a05c430ed93,S
2019-04-06 20:33:32,96404e4c-4bef-4849-9bfa-8a05c430ed93,A
2019-04-06 20:41:23,96404e4c-4bef-4849-9bfa-8a05c430ed93,S
2019-04-06 20:45:20,96404e4c-4bef-4849-9bfa-8a05c430ed93,A
2019-04-06 20:47:58,96404e4c-4bef-4849-9bfa-8a05c430ed93,S
2019-04-06 20:50:25,96404e4c-4bef-4849-9bfa-8a05c430ed93,A
2019-04-06 20:52:32,96404e4c-4bef-4849-9bfa-8a05c430ed93,S
2019-04-06 20:57:13,96404e4c-4bef-4849-9bfa-8a05c430ed93,A
2019-04-06 21:03:34,96404e4c-4bef-4849-9bfa-8a05c430ed93,S
2019-04-06 21:03:44,96404e4c-4bef-4849-9bfa-8a05c430ed93,A
2019-04-06 21:04:24,96404e4c-4bef-4849-9bfa-8a05c430ed93,S
2019-04-06 21:06:42,96404e4c-4bef-4849-9bfa-8a05c430ed93,A
2019-04-06 19:59:22,d73e7a00-8b74-4c94-bd53-df2afd2d47ea,A
2019-04-06 20:33:08,d73e7a00-8b74-4c94-bd53-df2afd2d47ea,S
2019-04-06 20:33:35,d73e7a00-8b74-4c94-bd53-df2afd2d47ea,A
2019-04-06 21:02:52,d73e7a00-8b74-4c94-bd53-df2afd2d47ea,S
2019-04-06 21:05:56,d73e7a00-8b74-4c94-bd53-df2afd2d47ea,A
2019-04-06 21:08:23,d73e7a00-8b74-4c94-bd53-df2afd2d47ea,S
2019-04-06 21:09:55,d73e7a00-8b74-4c94-bd53-df2afd2d47ea,A
2019-04-06 21:10:41,d73e7a00-8b74-4c94-bd53-df2afd2d47ea,S
2019-04-06 21:13:56,d73e7a00-8b74-4c94-bd53-df2afd2d47ea,A
2019-04-06 19:47:35,cff3a70b-eeb4-419f-94be-46026de92381,A
2019-04-06 19:48:04,cff3a70b-eeb4-419f-94be-46026de92381,S
2019-04-06 19:56:34,cff3a70b-eeb4-419f-94be-46026de92381,A
2019-04-06 19:57:53,cff3a70b-eeb4-419f-94be-46026de92381,S
2019-04-06 20:06:30,cff3a70b-eeb4-419f-94be-46026de92381,S
2019-04-06 20:07:45,cff3a70b-eeb4-419f-94be-46026de92381,A
2019-04-06 20:08:34,cff3a70b-eeb4-419f-94be-46026de92381,S
2019-04-06 20:12:22,cff3a70b-eeb4-419f-94be-46026de92381,A
2019-04-06 20:13:28,cff3a70b-eeb4-419f-94be-46026de92381,S
2019-04-06 20:13:40,cff3a70b-eeb4-419f-94be-46026de92381,A
2019-04-06 20:19:13,cff3a70b-eeb4-419f-94be-46026de92381,S
2019-04-06 20:24:32,cff3a70b-eeb4-419f-94be-46026de92381,A
2019-04-06 20:36:47,cff3a70b-eeb4-419f-94be-46026de92381,S
2019-04-06 20:37:03,cff3a70b-eeb4-419f-94be-46026de92381,A
2019-04-06 20:41:13,cff3a70b-eeb4-419f-94be-46026de92381,S
2019-04-06 20:50:49,cff3a70b-eeb4-419f-94be-46026de92381,A
2019-04-06 21:02:55,cff3a70b-eeb4-419f-94be-46026de92381,S
2019-04-06 21:06:24,cff3a70b-eeb4-419f-94be-46026de92381,A
2019-04-06 21:10:47,cff3a70b-eeb4-419f-94be-46026de92381,S
2019-04-06 21:12:11,cff3a70b-eeb4-419f-94be-46026de92381,A
2019-04-06 21:12:47,cff3a70b-eeb4-419f-94be-46026de92381,S
2019-04-06 19:47:12,2175a073-f7f2-484c-984c-3a3fb3f9b294,A
2019-04-06 19:50:41,2175a073-f7f2-484c-984c-3a3fb3f9b294,S
2019-04-06 19:52:57,2175a073-f7f2-484c-984c-3a3fb3f9b294,A
2019-04-06 19:54:59,2175a073-f7f2-484c-984c-3a3fb3f9b294,S
2019-04-06 19:55:33,2175a073-f7f2-484c-984c-3a3fb3f9b294,A
2019-04-06 19:58:09,2175a073-f7f2-484c-984c-3a3fb3f9b294,S
2019-04-06 20:05:00,2175a073-f7f2-484c-984c-3a3fb3f9b294,A
2019-04-06 20:06:28,2175a073-f7f2-484c-984c-3a3fb3f9b294,S
2019-04-06 20:16:43,2175a073-f7f2-484c-984c-3a3fb3f9b294,A
2019-04-06 20:55:48,2175a073-f7f2-484c-984c-3a3fb3f9b294,S
2019-04-06 21:05:43,2175a073-f7f2-484c-984c-3a3fb3f9b294,A
2019-04-06 21:05:46,2175a073-f7f2-484c-984c-3a3fb3f9b294,S
2019-04-06 21:06:29,2175a073-f7f2-484c-984c-3a3fb3f9b294,A
2019-04-06 21:09:32,2175a073-f7f2-484c-984c-3a3fb3f9b294,S
2019-04-06 21:10:54,2175a073-f7f2-484c-984c-3a3fb3f9b294,A
2019-04-06 21:12:15,2175a073-f7f2-484c-984c-3a3fb3f9b294,S
2019-04-06 21:16:25,2175a073-f7f2-484c-984c-3a3fb3f9b294,A
2019-04-06 19:22:13,5577eccf-4ea2-4dd2-a5fa-74fc371ac5a5,S
2019-04-06 19:27:11,5577eccf-4ea2-4dd2-a5fa-74fc371ac5a5,A
2019-04-06 19:27:33,5577eccf-4ea2-4dd2-a5fa-74fc371ac5a5,S
2019-04-06 19:32:17,5577eccf-4ea2-4dd2-a5fa-74fc371ac5a5,A
2019-04-06 19:37:15,5577eccf-4ea2-4dd2-a5fa-74fc371ac5a5,S
2019-04-06 19:39:17,5577eccf-4ea2-4dd2-a5fa-74fc371ac5a5,A
2019-04-06 19:49:21,5577eccf-4ea2-4dd2-a5fa-74fc371ac5a5,S
2019-04-06 19:52:02,5577eccf-4ea2-4dd2-a5fa-74fc371ac5a5,A
2019-04-06 19:52:57,5577eccf-4ea2-4dd2-a5fa-74fc371ac5a5,S
2019-04-06 20:00:59,5577eccf-4ea2-4dd2-a5fa-74fc371ac5a5,A
2019-04-06 19:52:47,155dfc71-fe0a-4123-9378-682cff88a63c,S
2019-04-06 19:54:42,155dfc71-fe0a-4123-9378-682cff88a63c,A
2019-04-06 19:55:11,155dfc71-fe0a-4123-9378-682cff88a63c,S
2019-04-06 20:03:29,155dfc71-fe0a-4123-9378-682cff88a63c,A
2019-04-06 20:07:04,155dfc71-fe0a-4123-9378-682cff88a63c,S
2019-04-06 20:12:42,155dfc71-fe0a-4123-9378-682cff88a63c,A
2019-04-06 20:17:18,155dfc71-fe0a-4123-9378-682cff88a63c,S
2019-04-06 20:18:32,155dfc71-fe0a-4123-9378-682cff88a63c,A
2019-04-06 20:27:15,155dfc71-fe0a-4123-9378-682cff88a63c,S
2019-04-06 20:28:50,155dfc71-fe0a-4123-9378-682cff88a63c,A
2019-04-06 20:36:52,155dfc71-fe0a-4123-9378-682cff88a63c,S
2019-04-06 20:37:04,155dfc71-fe0a-4123-9378-682cff88a63c,A
2019-04-06 19:29:01,9ec0c7d5-723f-4c0e-a979-477bab10d2d1,A
2019-04-06 19:35:54,9ec0c7d5-723f-4c0e-a979-477bab10d2d1,S
2019-04-06 19:40:40,9ec0c7d5-723f-4c0e-a979-477bab10d2d1,A
2019-04-06 19:47:14,9ec0c7d5-723f-4c0e-a979-477bab10d2d1,S
2019-04-06 19:53:09,9ec0c7d5-723f-4c0e-a979-477bab10d2d1,A
2019-04-06 20:03:46,9ec0c7d5-723f-4c0e-a979-477bab10d2d1,S
2019-04-06 20:11:02,9ec0c7d5-723f-4c0e-a979-477bab10d2d1,A
2019-04-06 20:13:29,9ec0c7d5-723f-4c0e-a979-477bab10d2d1,S
2019-04-06 20:15:09,9ec0c7d5-723f-4c0e-a979-477bab10d2d1,A
2019-04-06 20:19:47,9ec0c7d5-723f-4c0e-a979-477bab10d2d1,S
2019-04-06 20:24:47,9ec0c7d5-723f-4c0e-a979-477bab10d2d1,A
2019-04-06 20:34:43,9ec0c7d5-723f-4c0e-a979-477bab10d2d1,S
2019-04-06 20:34:47,9ec0c7d5-723f-4c0e-a979-477bab10d2d1,A
2019-04-06 20:39:27,9ec0c7d5-723f-4c0e-a979-477bab10d2d1,S
2019-04-06 20:41:11,9ec0c7d5-723f-4c0e-a979-477bab10d2d1,A
2019-04-06 20:47:54,9ec0c7d5-723f-4c0e-a979-477bab10d2d1,S
2019-04-06 20:48:00,9ec0c7d5-723f-4c0e-a979-477bab10d2d1,A
2019-04-06 20:50:43,9ec0c7d5-723f-4c0e-a979-477bab10d2d1,S
2019-04-06 20:57:35,9ec0c7d5-723f-4c0e-a979-477bab10d2d1,A
2019-04-06 20:01:54,bb09ffa0-300c-4be2-847d-87cd4fe2a2c7,S
2019-04-06 20:04:13,bb09ffa0-300c-4be2-847d-87cd4fe2a2c7,A
2019-04-06 20:10:44,bb09ffa0-300c-4be2-847d-87cd4fe2a2c7,S
2019-04-06 20:11:42,bb09ffa0-300c-4be2-847d-87cd4fe2a2c7,A
2019-04-06 20:12:03,bb09ffa0-300c-4be2-847d-87cd4fe2a2c7,S
2019-04-06 20:17:13,bb09ffa0-300c-4be2-847d-87cd4fe2a2c7,A
2019-04-06 20:22:06,bb09ffa0-300c-4be2-847d-87cd4fe2a2c7,S
2019-04-06 20:26:46,bb09ffa0-300c-4be2-847d-87cd4fe2a2c7,A
2019-04-06 20:39:46,bb09ffa0-300c-4be2-847d-87cd4fe2a2c7,S
2019-04-06 20:57:15,bb09ffa0-300c-4be2-847d-87cd4fe2a2c7,A
2019-04-06 21:01:58,bb09ffa0-300c-4be2-847d-87cd4fe2a2c7,S
2019-04-06 21:04:07,bb09ffa0-300c-4be2-847d-87cd4fe2a2c7,A
2019-04-06 21:05:20,bb09ffa0-300c-4be2-847d-87cd4fe2a2c7,S
2019-04-06 21:06:43,bb09ffa0-300c-4be2-847d-87cd4fe2a2c7,A
2019-04-06 21:07:26,bb09ffa0-300c-4be2-847d-87cd4fe2a2c7,S
2019-04-06 21:07:59,bb09ffa0-300c-4be2-847d-87cd4fe2a2c7,A
2019-04-06 21:09:04,bb09ffa0-300c-4be2-847d-87cd4fe2a2c7,S
2019-04-06 21:15:45,bb09ffa0-300c-4be2-847d-87cd4fe2a2c7,A
2019-04-06 21:16:04,bb09ffa0-300c-4be2-847d-87cd4fe2a2c7,S
2019-04-06 21:16:52,bb09ffa0-300c-4be2-847d-87cd4fe2a2c7,A
2019-04-06 21:16:53,bb09ffa0-300c-4be2-847d-87cd4fe2a2c7,S
2019-04-06 19:35:40,ef33dbbf-f5b3-4518-8487-1f523b91b197,S
2019-04-06 19:44:42,ef33dbbf-f5b3-4518-8487-1f523b91b197,A
2019-04-06 19:49:54,ef33dbbf-f5b3-4518-8487-1f523b91b197,S
2019-04-06 20:02:40,ef33dbbf-f5b3-4518-8487-1f523b91b197,A
2019-04-06 20:03:39,ef33dbbf-f5b3-4518-8487-1f523b91b197,S
2019-04-06 20:14:51,ef33dbbf-f5b3-4518-8487-1f523b91b197,A
2019-04-06 20:15:05,ef33dbbf-f5b3-4518-8487-1f523b91b197,S
2019-04-06 20:18:32,ef33dbbf-f5b3-4518-8487-1f523b91b197,A
2019-04-06 20:29:35,ef33dbbf-f5b3-4518-8487-1f523b91b197,S
2019-04-06 20:32:37,ef33dbbf-f5b3-4518-8487-1f523b91b197,A
2019-04-06 20:39:13,ef33dbbf-f5b3-4518-8487-1f523b91b197,S
2019-04-06 20:41:09,ef33dbbf-f5b3-4518-8487-1f523b91b197,A
2019-04-06 20:48:34,ef33dbbf-f5b3-4518-8487-1f523b91b197,S
2019-04-06 20:52:40,ef33dbbf-f5b3-4518-8487-1f523b91b197,A
2019-04-06 20:53:22,ef33dbbf-f5b3-4518-8487-1f523b91b197,S
2019-04-06 20:53:44,ef33dbbf-f5b3-4518-8487-1f523b91b197,A
2019-04-06 20:57:28,ef33dbbf-f5b3-4518-8487-1f523b91b197,S
2019-04-06 21:00:11,ef33dbbf-f5b3-4518-8487-1f523b91b197,A
2019-04-06 21:13:22,ef33dbbf-f5b3-4518-8487-1f523b91b197,S
2019-04-06 21:17:32,ef33dbbf-f5b3-4518-8487-1f523b91b197,A
2019-04-06 21:17:39,ef33dbbf-f5b3-4518-8487-1f523b91b197,S
2019-04-06 19:26:35,ed704c24-834c-4058-816a-81706bb72ddc,S
2019-04-06 19:38:31,ed704c24-834c-4058-816a-81706bb72ddc,A
2019-04-06 19:38:49,ed704c24-834c-4058-816a-81706bb72ddc,S
2019-04-06 19:54:13,ed704c24-834c-4058-816a-81706bb72ddc,A
2019-04-06 19:57:06,ed704c24-834c-4058-816a-81706bb72ddc,S
2019-04-06 19:59:06,ed704c24-834c-4058-816a-81706bb72ddc,A
2019-04-06 20:07:12,ed704c24-834c-4058-816a-81706bb72ddc,S
2019-04-06 20:08:09,ed704c24-834c-4058-816a-81706bb72ddc,A
2019-04-06 20:10:21,ed704c24-834c-4058-816a-81706bb72ddc,S
2019-04-06 20:24:46,ed704c24-834c-4058-816a-81706bb72ddc,A
2019-04-06 20:30:04,ed704c24-834c-4058-816a-81706bb72ddc,S
2019-04-06 20:31:37,ed704c24-834c-4058-816a-81706bb72ddc,A
2019-04-06 20:32:25,ed704c24-834c-4058-816a-81706bb72ddc,S
2019-04-06 20:34:22,ed704c24-834c-4058-816a-81706bb72ddc,A
2019-04-06 20:37:39,ed704c24-834c-4058-816a-81706bb72ddc,S
2019-04-06 20:37:46,ed704c24-834c-4058-816a-81706bb72ddc,A
2019-04-06 20:50:05,ed704c24-834c-4058-816a-81706bb72ddc,S
2019-04-06 20:51:26,ed704c24-834c-4058-816a-81706bb72ddc,A
2019-04-06 20:56:18,ed704c24-834c-4058-816a-81706bb72ddc,S
2019-04-06 20:59:43,ed704c24-834c-4058-816a-81706bb72ddc,A
2019-04-06 21:00:58,ed704c24-834c-4058-816a-81706bb72ddc,S
2019-04-06 21:01:40,ed704c24-834c-4058-816a-81706bb72ddc,A
2019-04-06 21:14:20,ed704c24-834c-4058-816a-81706bb72ddc,S
2019-04-06 21:15:48,ed704c24-834c-4058-816a-81706bb72ddc,A
2019-04-06 21:17:01,ed704c24-834c-4058-816a-81706bb72ddc,S
2019-04-06 19:22:46,fb0de8fd-f9c7-4322-b683-972b1dbfb45a,S
2019-04-06 19:38:53,fb0de8fd-f9c7-4322-b683-972b1dbfb45a,A
2019-04-06 19:40:06,fb0de8fd-f9c7-4322-b683-972b1dbfb45a,S
2019-04-06 19:44:55,fb0de8fd-f9c7-4322-b683-972b1dbfb45a,A
2019-04-06 19:46:00,fb0de8fd-f9c7-4322-b683-972b1dbfb45a,S
2019-04-06 19:48:48,fb0de8fd-f9c7-4322-b683-972b1dbfb45a,A
2019-04-06 19:54:00,fb0de8fd-f9c7-4322-b683-972b1dbfb45a,S
2019-04-06 19:56:10,fb0de8fd-f9c7-4322-b683-972b1dbfb45a,A
2019-04-06 19:59:39,fb0de8fd-f9c7-4322-b683-972b1dbfb45a,S
2019-04-06 20:05:14,fb0de8fd-f9c7-4322-b683-972b1dbfb45a,A
2019-04-06 20:15:45,fb0de8fd-f9c7-4322-b683-972b1dbfb45a,S
2019-04-06 20:21:25,fb0de8fd-f9c7-4322-b683-972b1dbfb45a,A
2019-04-06 20:23:23,fb0de8fd-f9c7-4322-b683-972b1dbfb45a,S
2019-04-06 20:25:25,fb0de8fd-f9c7-4322-b683-972b1dbfb45a,A
2019-04-06 20:33:42,fb0de8fd-f9c7-4322-b683-972b1dbfb45a,S
2019-04-06 20:35:51,fb0de8fd-f9c7-4322-b683-972b1dbfb45a,A
2019-04-06 20:40:46,fb0de8fd-f9c7-4322-b683-972b1dbfb45a,S
2019-04-06 20:43:45,fb0de8fd-f9c7-4322-b683-972b1dbfb45a,A
2019-04-06 20:44:52,fb0de8fd-f9c7-4322-b683-972b1dbfb45a,S
2019-04-06 20:49:47,fb0de8fd-f9c7-4322-b683-972b1dbfb45a,A
2019-04-06 20:52:40,fb0de8fd-f9c7-4322-b683-972b1dbfb45a,S
2019-04-06 20:56:29,fb0de8fd-f9c7-4322-b683-972b1dbfb45a,A
2019-04-06 20:58:49,fb0de8fd-f9c7-4322-b683-972b1dbfb45a,S
2019-04-06 21:02:35,fb0de8fd-f9c7-4322-b683-972b1dbfb45a,A
2019-04-06 21:08:01,fb0de8fd-f9c7-4322-b683-972b1dbfb45a,S
2019-04-06 21:09:07,fb0de8fd-f9c7-4322-b683-972b1dbfb45a,A
2019-04-06 21:14:52,fb0de8fd-f9c7-4322-b683-972b1dbfb45a,S
2019-04-06 21:15:49,fb0de8fd-f9c7-4322-b683-972b1dbfb45a,A
2019-04-06 21:17:20,fb0de8fd-f9c7-4322-b683-972b1dbfb45a,S
2019-04-06 21:17:51,fb0de8fd-f9c7-4322-b683-972b1dbfb45a,A
2019-04-06 19:31:47,3aba33d6-f391-42cb-85fa-18ad58a2d656,A
2019-04-06 19:35:29,3aba33d6-f391-42cb-85fa-18ad58a2d656,S
2019-04-06 19:38:48,3aba33d6-f391-42cb-85fa-18ad58a2d656,A
2019-04-06 19:40:28,3aba33d6-f391-42cb-85fa-18ad58a2d656,S
2019-04-06 19:55:58,3aba33d6-f391-42cb-85fa-18ad58a2d656,A
2019-04-06 19:57:43,3aba33d6-f391-42cb-85fa-18ad58a2d656,S
2019-04-06 19:58:05,3aba33d6-f391-42cb-85fa-18ad58a2d656,A
2019-04-06 20:19:53,3aba33d6-f391-42cb-85fa-18ad58a2d656,S
2019-04-06 20:27:04,3aba33d6-f391-42cb-85fa-18ad58a2d656,A
2019-04-06 20:31:25,3aba33d6-f391-42cb-85fa-18ad58a2d656,S
2019-04-06 20:32:05,3aba33d6-f391-42cb-85fa-18ad58a2d656,A
2019-04-06 20:36:20,3aba33d6-f391-42cb-85fa-18ad58a2d656,S
2019-04-06 20:38:10,3aba33d6-f391-42cb-85fa-18ad58a2d656,A
2019-04-06 20:40:52,3aba33d6-f391-42cb-85fa-18ad58a2d656,S
2019-04-06 20:50:07,3aba33d6-f391-42cb-85fa-18ad58a2d656,A
2019-04-06 20:57:43,3aba33d6-f391-42cb-85fa-18ad58a2d656,S
2019-04-06 21:02:39,3aba33d6-f391-42cb-85fa-18ad58a2d656,A
2019-04-06 21:09:17,3aba33d6-f391-42cb-85fa-18ad58a2d656,S
2019-04-06 19:23:13,9528968a-6baa-4080-8d4d-d7c1303885ac,S
2019-04-06 19:27:20,9528968a-6baa-4080-8d4d-d7c1303885ac,A
2019-04-06 19:37:44,9528968a-6baa-4080-8d4d-d7c1303885ac,S
2019-04-06 19:39:18,9528968a-6baa-4080-8d4d-d7c1303885ac,A
2019-04-06 19:46:48,9528968a-6baa-4080-8d4d-d7c1303885ac,S
2019-04-06 19:47:03,9528968a-6baa-4080-8d4d-d7c1303885ac,A
2019-04-06 19:48:28,9528968a-6baa-4080-8d4d-d7c1303885ac,S
2019-04-06 20:05:45,9528968a-6baa-4080-8d4d-d7c1303885ac,A
2019-04-06 20:11:31,9528968a-6baa-4080-8d4d-d7c1303885ac,S
2019-04-06 20:15:06,9528968a-6baa-4080-8d4d-d7c1303885ac,A
2019-04-06 20:18:18,9528968a-6baa-4080-8d4d-d7c1303885ac,S
2019-04-06 20:18:34,9528968a-6baa-4080-8d4d-d7c1303885ac,A
2019-04-06 19:26:56,c0e0685b-6fcb-494e-8632-9b2fabec8600,A
2019-04-06 19:40:40,54f9f975-b8e9-4bb4-95b6-075fa00d3049,A
2019-04-06 19:59:33,54f9f975-b8e9-4bb4-95b6-075fa00d3049,S
2019-04-06 19:59:54,54f9f975-b8e9-4bb4-95b6-075fa00d3049,A
2019-04-06 20:02:38,54f9f975-b8e9-4bb4-95b6-075fa00d3049,S
2019-04-06 20:06:38,54f9f975-b8e9-4bb4-95b6-075fa00d3049,A
2019-04-06 20:07:08,54f9f975-b8e9-4bb4-95b6-075fa00d3049,S
2019-04-06 20:10:10,54f9f975-b8e9-4bb4-95b6-075fa00d3049,A
2019-04-06 20:11:48,54f9f975-b8e9-4bb4-95b6-075fa00d3049,S
2019-04-06 20:26:17,54f9f975-b8e9-4bb4-95b6-075fa00d3049,A
2019-04-06 20:27:54,54f9f975-b8e9-4bb4-95b6-075fa00d3049,S
2019-04-06 20:27:59,54f9f975-b8e9-4bb4-95b6-075fa00d3049,A
2019-04-06 20:30:20,54f9f975-b8e9-4bb4-95b6-075fa00d3049,S
2019-04-06 20:30:27,54f9f975-b8e9-4bb4-95b6-075fa00d3049,A
2019-04-06 20:32:29,54f9f975-b8e9-4bb4-95b6-075fa00d3049,S
2019-04-06 20:36:30,54f9f975-b8e9-4bb4-95b6-075fa00d3049,A
2019-04-06 20:47:13,54f9f975-b8e9-4bb4-95b6-075fa00d3049,S
2019-04-06 20:52:57,54f9f975-b8e9-4bb4-95b6-075fa00d3049,A
2019-04-06 20:55:12,54f9f975-b8e9-4bb4-95b6-075fa00d3049,S
2019-04-06 20:58:37,54f9f975-b8e9-4bb4-95b6-075fa00d3049,A
2019-04-06 21:02:10,54f9f975-b8e9-4bb4-95b6-075fa00d3049,S
2019-04-06 19:52:51,84d26bce-25a0-45b7-b1e5-01d7e1ae5d6b,A
2019-04-06 19:54:42,84d26bce-25a0-45b7-b1e5-01d7e1ae5d6b,S
2019-04-06 20:04:10,84d26bce-25a0-45b7-b1e5-01d7e1ae5d6b,A
2019-04-06 20:18:18,84d26bce-25a0-45b7-b1e5-01d7e1ae5d6b,S
2019-04-06 20:20:06,84d26bce-25a0-45b7-b1e5-01d7e1ae5d6b,A
2019-04-06 20:21:28,84d26bce-25a0-45b7-b1e5-01d7e1ae5d6b,S
2019-04-06 20:23:21,84d26bce-25a0-45b7-b1e5-01d7e1ae5d6b,A
2019-04-06 20:29:49,84d26bce-25a0-45b7-b1e5-01d7e1ae5d6b,S
2019-04-06 20:34:43,84d26bce-25a0-45b7-b1e5-01d7e1ae5d6b,A
2019-04-06 20:42:14,84d26bce-25a0-45b7-b1e5-01d7e1ae5d6b,S
2019-04-06 20:42:16,84d26bce-25a0-45b7-b1e5-01d7e1ae5d6b,A
2019-04-06 20:42:36,84d26bce-25a0-45b7-b1e5-01d7e1ae5d6b,S
2019-04-06 20:44:56,84d26bce-25a0-45b7-b1e5-01d7e1ae5d6b,A
2019-04-06 20:48:08,84d26bce-25a0-45b7-b1e5-01d7e1ae5d6b,S
2019-04-06 20:48:54,84d26bce-25a0-45b7-b1e5-01d7e1ae5d6b,A
2019-04-06 21:00:45,84d26bce-25a0-45b7-b1e5-01d7e1ae5d6b,S
2019-04-06 21:01:51,84d26bce-25a0-45b7-b1e5-01d7e1ae5d6b,S
2019-04-06 21:03:21,84d26bce-25a0-45b7-b1e5-01d7e1ae5d6b,A
2019-04-06 21:05:54,84d26bce-25a0-45b7-b1e5-01d7e1ae5d6b,S
2019-04-06 21:15:19,84d26bce-25a0-45b7-b1e5-01d7e1ae5d6b,S
2019-04-06 19:40:43,43e3902f-8706-4a84-95f2-f7859090033f,S
2019-04-06 19:45:01,43e3902f-8706-4a84-95f2-f7859090033f,A
2019-04-06 19:58:43,43e3902f-8706-4a84-95f2-f7859090033f,S
2019-04-06 19:59:07,43e3902f-8706-4a84-95f2-f7859090033f,A
2019-04-06 20:03:44,43e3902f-8706-4a84-95f2-f7859090033f,S
2019-04-06 20:07:02,43e3902f-8706-4a84-95f2-f7859090033f,A
2019-04-06 20:10:08,43e3902f-8706-4a84-95f2-f7859090033f,S
2019-04-06 20:14:41,43e3902f-8706-4a84-95f2-f7859090033f,A
2019-04-06 20:17:54,43e3902f-8706-4a84-95f2-f7859090033f,S
2019-04-06 20:21:31,43e3902f-8706-4a84-95f2-f7859090033f,A
2019-04-06 20:37:22,43e3902f-8706-4a84-95f2-f7859090033f,S
2019-04-06 20:41:39,43e3902f-8706-4a84-95f2-f7859090033f,A
2019-04-06 20:42:00,43e3902f-8706-4a84-95f2-f7859090033f,S
2019-04-06 20:47:07,43e3902f-8706-4a84-95f2-f7859090033f,A
2019-04-06 20:54:25,43e3902f-8706-4a84-95f2-f7859090033f,S
2019-04-06 21:07:32,43e3902f-8706-4a84-95f2-f7859090033f,A
2019-04-06 21:08:34,43e3902f-8706-4a84-95f2-f7859090033f,S
2019-04-06 19:50:04,ee0446b3-fe8a-4ecd-9305-444262a9e69b,S
2019-04-06 19:51:59,ee0446b3-fe8a-4ecd-9305-444262a9e69b,A
2019-04-06 19:55:08,ee0446b3-fe8a-4ecd-9305-444262a9e69b,S
2019-04-06 19:55:37,ee0446b3-fe8a-4ecd-9305-444262a9e69b,A
2019-04-06 19:58:46,ee0446b3-fe8a-4ecd-9305-444262a9e69b,S
2019-04-06 20:00:46,ee0446b3-fe8a-4ecd-9305-444262a9e69b,A
2019-04-06 20:05:02,ee0446b3-fe8a-4ecd-9305-444262a9e69b,S
2019-04-06 20:05:59,ee0446b3-fe8a-4ecd-9305-444262a9e69b,A
2019-04-06 20:06:49,ee0446b3-fe8a-4ecd-9305-444262a9e69b,S
2019-04-06 20:14:16,ee0446b3-fe8a-4ecd-9305-444262a9e69b,A
2019-04-06 20:16:29,ee0446b3-fe8a-4ecd-9305-444262a9e69b,S
2019-04-06 20:20:00,ee0446b3-fe8a-4ecd-9305-444262a9e69b,A
2019-04-06 20:28:17,ee0446b3-fe8a-4ecd-9305-444262a9e69b,S
2019-04-06 20:35:41,ee0446b3-fe8a-4ecd-9305-444262a9e69b,A
2019-04-06 20:37:43,ee0446b3-fe8a-4ecd-9305-444262a9e69b,S
2019-04-06 20:40:28,ee0446b3-fe8a-4ecd-9305-444262a9e69b,A
2019-04-06 20:41:33,ee0446b3-fe8a-4ecd-9305-444262a9e69b,S
2019-04-06 20:42:51,ee0446b3-fe8a-4ecd-9305-444262a9e69b,A
2019-04-06 20:44:23,ee0446b3-fe8a-4ecd-9305-444262a9e69b,S
2019-04-06 20:52:30,ee0446b3-fe8a-4ecd-9305-444262a9e69b,A
2019-04-06 20:52:41,ee0446b3-fe8a-4ecd-9305-444262a9e69b,S
2019-04-06 20:52:52,ee0446b3-fe8a-4ecd-9305-444262a9e69b,A
2019-04-06 20:56:43,ee0446b3-fe8a-4ecd-9305-444262a9e69b,S
2019-04-06 20:59:07,ee0446b3-fe8a-4ecd-9305-444262a9e69b,A
2019-04-06 20:59:51,ee0446b3-fe8a-4ecd-9305-444262a9e69b,S
2019-04-06 21:01:10,ee0446b3-fe8a-4ecd-9305-444262a9e69b,A
2019-04-06 21:02:03,ee0446b3-fe8a-4ecd-9305-444262a9e69b,S
2019-04-06 21:10:26,ee0446b3-fe8a-4ecd-9305-444262a9e69b,A
2019-04-06 21:11:39,ee0446b3-fe8a-4ecd-9305-444262a9e69b,S
2019-04-06 19:26:38,db29427e-c24b-40e0-a84a-0ae847146aca,A
2019-04-06 19:29:29,db29427e-c24b-40e0-a84a-0ae847146aca,S
2019-04-06 19:34:35,db29427e-c24b-40e0-a84a-0ae847146aca,A
2019-04-06 19:50:03,db29427e-c24b-40e0-a84a-0ae847146aca,S
2019-04-06 19:59:06,db29427e-c24b-40e0-a84a-0ae847146aca,A
2019-04-06 20:08:49,db29427e-c24b-40e0-a84a-0ae847146aca,S
2019-04-06 20:17:19,db29427e-c24b-40e0-a84a-0ae847146aca,A
2019-04-06 20:18:05,db29427e-c24b-40e0-a84a-0ae847146aca,S
2019-04-06 20:18:24,db29427e-c24b-40e0-a84a-0ae847146aca,A
2019-04-06 20:27:02,db29427e-c24b-40e0-a84a-0ae847146aca,S
2019-04-06 20:30:01,db29427e-c24b-40e0-a84a-0ae847146aca,A
2019-04-06 20:30:04,db29427e-c24b-40e0-a84a-0ae847146aca,S
2019-04-06 20:31:15,db29427e-c24b-40e0-a84a-0ae847146aca,A
2019-04-06 20:33:05,db29427e-c24b-40e0-a84a-0ae847146aca,S
2019-04-06 20:34:56,db29427e-c24b-40e0-a84a-0ae847146aca,A
2019-04-06 20:35:55,db29427e-c24b-40e0-a84a-0ae847146aca,S
2019-04-06 20:37:38,db29427e-c24b-40e0-a84a-0ae847146aca,A
2019-04-06 20:46:54,db29427e-c24b-40e0-a84a-0ae847146aca,S
2019-04-06 20:49:01,db29427e-c24b-40e0-a84a-0ae847146aca,A
2019-04-06 20:49:59,db29427e-c24b-40e0-a84a-0ae847146aca,S
2019-04-06 20:52:26,db29427e-c24b-40e0-a84a-0ae847146aca,A
2019-04-06 21:01:12,db29427e-c24b-40e0-a84a-0ae847146aca,S
2019-04-06 21:03:29,db29427e-c24b-40e0-a84a-0ae847146aca,A
2019-04-06 21:08:24,db29427e-c24b-40e0-a84a-0ae847146aca,S
2019-04-06 21:08:28,db29427e-c24b-40e0-a84a-0ae847146aca,A
2019-04-06 21:09:07,db29427e-c24b-40e0-a84a-0ae847146aca,S
2019-04-06 21:12:36,db29427e-c24b-40e0-a84a-0ae847146aca,A
2019-04-06 21:14:03,db29427e-c24b-40e0-a84a-0ae847146aca,S
2019-04-06 19:51:55,7f4cf984-0d27-4baf-85ad-eda793d1f8f1,A
2019-04-06 19:59:09,7f4cf984-0d27-4baf-85ad-eda793d1f8f1,S
2019-04-06 20:01:03,7f4cf984-0d27-4baf-85ad-eda793d1f8f1,A
2019-04-06 20:05:59,7f4cf984-0d27-4baf-85ad-eda793d1f8f1,S
2019-04-06 20:13:08,7f4cf984-0d27-4baf-85ad-eda793d1f8f1,A
2019-04-06 20:20:05,7f4cf984-0d27-4baf-85ad-eda793d1f8f1,S
2019-04-06 20:21:27,7f4cf984-0d27-4baf-85ad-eda793d1f8f1,A
2019-04-06 20:22:45,7f4cf984-0d27-4baf-85ad-eda793d1f8f1,A
2019-04-06 20:23:48,7f4cf984-0d27-4baf-85ad-eda793d1f8f1,S
2019-04-06 20:25:22,7f4cf984-0d27-4baf-85ad-eda793d1f8f1,A
2019-04-06 20:31:43,7f4cf984-0d27-4baf-85ad-eda793d1f8f1,S
2019-04-06 20:33:06,7f4cf984-0d27-4baf-85ad-eda793d1f8f1,A
2019-04-06 20:35:48,7f4cf984-0d27-4baf-85ad-eda793d1f8f1,S
2019-04-06 20:36:23,7f4cf984-0d27-4baf-85ad-eda793d1f8f1,A
2019-04-06 20:38:11,7f4cf984-0d27-4baf-85ad-eda793d1f8f1,S
2019-04-06 20:57:04,7f4cf984-0d27-4baf-85ad-eda793d1f8f1,A
2019-04-06 21:15:04,7f4cf984-0d27-4baf-85ad-eda793d1f8f1,S
2019-04-06 21:16:08,7f4cf984-0d27-4baf-85ad-eda793d1f8f1,A
2019-04-06 19:58:30,73e84fcf-e178-4d4b-9ef8-3088e99e994f,S
2019-04-06 20:03:53,73e84fcf-e178-4d4b-9ef8-3088e99e994f,A
2019-04-06 20:05:19,73e84fcf-e178-4d4b-9ef8-3088e99e994f,S
2019-04-06 20:07:29,73e84fcf-e178-4d4b-9ef8-3088e99e994f,A
2019-04-06 20:14:31,73e84fcf-e178-4d4b-9ef8-3088e99e994f,S
2019-04-06 20:20:37,73e84fcf-e178-4d4b-9ef8-3088e99e994f,A
2019-04-06 20:24:32,73e84fcf-e178-4d4b-9ef8-3088e99e994f,S
2019-04-06 20:27:54,73e84fcf-e178-4d4b-9ef8-3088e99e994f,A
2019-04-06 20:29:28,73e84fcf-e178-4d4b-9ef8-3088e99e994f,S
2019-04-06 20:29:39,73e84fcf-e178-4d4b-9ef8-3088e99e994f,A
2019-04-06 20:31:59,73e84fcf-e178-4d4b-9ef8-3088e99e994f,S
2019-04-06 20:36:15,73e84fcf-e178-4d4b-9ef8-3088e99e994f,A
2019-04-06 20:39:10,73e84fcf-e178-4d4b-9ef8-3088e99e994f,S
2019-04-06 20:40:04,73e84fcf-e178-4d4b-9ef8-3088e99e994f,A
2019-04-06 20:50:28,73e84fcf-e178-4d4b-9ef8-3088e99e994f,S
2019-04-06 20:50:32,73e84fcf-e178-4d4b-9ef8-3088e99e994f,A
2019-04-06 20:51:04,73e84fcf-e178-4d4b-9ef8-3088e99e994f,S
2019-04-06 20:51:33,73e84fcf-e178-4d4b-9ef8-3088e99e994f,A
2019-04-06 20:51:46,73e84fcf-e178-4d4b-9ef8-3088e99e994f,S
2019-04-06 20:55:41,73e84fcf-e178-4d4b-9ef8-3088e99e994f,A
2019-04-06 21:03:30,73e84fcf-e178-4d4b-9ef8-3088e99e994f,S
2019-04-06 21:09:28,73e84fcf-e178-4d4b-9ef8-3088e99e994f,A
2019-04-06 21:12:22,73e84fcf-e178-4d4b-9ef8-3088e99e994f,S
2019-04-06 21:14:21,73e84fcf-e178-4d4b-9ef8-3088e99e994f,A
2019-04-06 19:42:50,830102fa-f0a2-462a-a273-1980438721ea,S
2019-04-06 19:47:00,830102fa-f0a2-462a-a273-1980438721ea,A
2019-04-06 19:54:27,830102fa-f0a2-462a-a273-1980438721ea,S
2019-04-06 19:58:40,830102fa-f0a2-462a-a273-1980438721ea,A
2019-04-06 19:58:54,830102fa-f0a2-462a-a273-1980438721ea,S
2019-04-06 20:08:23,830102fa-f0a2-462a-a273-1980438721ea,A
2019-04-06 20:11:23,830102fa-f0a2-462a-a273-1980438721ea,S
2019-04-06 20:12:51,830102fa-f0a2-462a-a273-1980438721ea,A
2019-04-06 20:14:34,830102fa-f0a2-462a-a273-1980438721ea,S
2019-04-06 20:24:14,830102fa-f0a2-462a-a273-1980438721ea,A
2019-04-06 20:29:05,830102fa-f0a2-462a-a273-1980438721ea,S
2019-04-06 20:30:48,830102fa-f0a2-462a-a273-1980438721ea,A
2019-04-06 20:31:44,830102fa-f0a2-462a-a273-1980438721ea,S
2019-04-06 20:37:12,830102fa-f0a2-462a-a273-1980438721ea,A
2019-04-06 20:41:47,830102fa-f0a2-462a-a273-1980438721ea,S
2019-04-06 20:46:28,830102fa-f0a2-462a-a273-1980438721ea,A
2019-04-06 20:54:29,830102fa-f0a2-462a-a273-1980438721ea,S
2019-04-06 20:59:40,830102fa-f0a2-462a-a273-1980438721ea,A
2019-04-06 21:03:00,830102fa-f0a2-462a-a273-1980438721ea,S
2019-04-06 21:15:46,830102fa-f0a2-462a-a273-1980438721ea,A
2019-04-06 19:59:45,de01966f-5379-409b-897b-004d85d5d20b,S
2019-04-06 20:00:34,de01966f-5379-409b-897b-004d85d5d20b,A
2019-04-06 20:13:09,de01966f-5379-409b-897b-004d85d5d20b,S
2019-04-06 20:14:16,de01966f-5379-409b-897b-004d85d5d20b,A
2019-04-06 20:16:21,de01966f-5379-409b-897b-004d85d5d20b,S
2019-04-06 20:41:13,de01966f-5379-409b-897b-004d85d5d20b,A
2019-04-06 20:53:32,de01966f-5379-409b-897b-004d85d5d20b,S
2019-04-06 20:57:25,de01966f-5379-409b-897b-004d85d5d20b,A
2019-04-06 20:57:26,de01966f-5379-409b-897b-004d85d5d20b,S
2019-04-06 21:01:35,de01966f-5379-409b-897b-004d85d5d20b,A
2019-04-06 21:05:47,de01966f-5379-409b-897b-004d85d5d20b,S
2019-04-06 21:15:09,de01966f-5379-409b-897b-004d85d5d20b,A
2019-04-06 19:11:31,19b2aaa6-385a-4e8d-999d-6a5e323d4846,S
2019-04-06 19:12:37,19b2aaa6-385a-4e8d-999d-6a5e323d4846,A
2019-04-06 19:13:51,19b2aaa6-385a-4e8d-999d-6a5e323d4846,S
2019-04-06 19:17:29,19b2aaa6-385a-4e8d-999d-6a5e323d4846,A
2019-04-06 19:20:13,19b2aaa6-385a-4e8d-999d-6a5e323d4846,S
2019-04-06 19:25:24,19b2aaa6-385a-4e8d-999d-6a5e323d4846,A
2019-04-06 19:26:42,19b2aaa6-385a-4e8d-999d-6a5e323d4846,S
2019-04-06 19:32:41,19b2aaa6-385a-4e8d-999d-6a5e323d4846,A
2019-04-06 19:43:57,19b2aaa6-385a-4e8d-999d-6a5e323d4846,S
2019-04-06 19:47:38,19b2aaa6-385a-4e8d-999d-6a5e323d4846,A
2019-04-06 19:52:10,19b2aaa6-385a-4e8d-999d-6a5e323d4846,S
2019-04-06 20:03:37,19b2aaa6-385a-4e8d-999d-6a5e323d4846,A
2019-04-06 20:17:04,19b2aaa6-385a-4e8d-999d-6a5e323d4846,S
2019-04-06 20:18:02,19b2aaa6-385a-4e8d-999d-6a5e323d4846,A
2019-04-06 20:19:35,19b2aaa6-385a-4e8d-999d-6a5e323d4846,S
2019-04-06 20:20:21,19b2aaa6-385a-4e8d-999d-6a5e323d4846,A
2019-04-06 20:21:30,19b2aaa6-385a-4e8d-999d-6a5e323d4846,S
2019-04-06 20:30:06,19b2aaa6-385a-4e8d-999d-6a5e323d4846,A
2019-04-06 20:32:04,19b2aaa6-385a-4e8d-999d-6a5e323d4846,S
2019-04-06 20:33:52,19b2aaa6-385a-4e8d-999d-6a5e323d4846,A
2019-04-06 20:38:40,19b2aaa6-385a-4e8d-999d-6a5e323d4846,S
2019-04-06 20:47:33,19b2aaa6-385a-4e8d-999d-6a5e323d4846,A
2019-04-06 20:58:25,19b2aaa6-385a-4e8d-999d-6a5e323d4846,S
2019-04-06 21:02:21,19b2aaa6-385a-4e8d-999d-6a5e323d4846,A
2019-04-06 21:02:39,19b2aaa6-385a-4e8d-999d-6a5e323d4846,S
2019-04-06 21:08:18,19b2aaa6-385a-4e8d-999d-6a5e323d4846,A
2019-04-06 21:14:43,19b2aaa6-385a-4e8d-999d-6a5e323d4846,S
2019-04-06 21:14:44,19b2aaa6-385a-4e8d-999d-6a5e323d4846,A
2019-04-06 21:16:43,19b2aaa6-385a-4e8d-999d-6a5e323d4846,S
2019-04-06 21:19:20,19b2aaa6-385a-4e8d-999d-6a5e323d4846,A
2019-04-06 19:44:29,8a86f872-c633-4331-95b8-631ca18a0e98,A
2019-04-06 19:56:00,8a86f872-c633-4331-95b8-631ca18a0e98,S
2019-04-06 20:05:56,8a86f872-c633-4331-95b8-631ca18a0e98,A
2019-04-06 20:11:23,8a86f872-c633-4331-95b8-631ca18a0e98,S
2019-04-06 20:12:06,8a86f872-c633-4331-95b8-631ca18a0e98,A
2019-04-06 20:13:03,8a86f872-c633-4331-95b8-631ca18a0e98,S
2019-04-06 20:15:00,8a86f872-c633-4331-95b8-631ca18a0e98,A
2019-04-06 20:16:21,8a86f872-c633-4331-95b8-631ca18a0e98,S
2019-04-06 20:23:40,8a86f872-c633-4331-95b8-631ca18a0e98,A
2019-04-06 20:25:34,8a86f872-c633-4331-95b8-631ca18a0e98,S
2019-04-06 20:27:17,8a86f872-c633-4331-95b8-631ca18a0e98,A
2019-04-06 20:42:41,8a86f872-c633-4331-95b8-631ca18a0e98,S
2019-04-06 20:48:35,8a86f872-c633-4331-95b8-631ca18a0e98,A
2019-04-06 20:53:08,8a86f872-c633-4331-95b8-631ca18a0e98,S
2019-04-06 20:54:12,8a86f872-c633-4331-95b8-631ca18a0e98,A
2019-04-06 20:56:31,8a86f872-c633-4331-95b8-631ca18a0e98,S
2019-04-06 21:00:11,8a86f872-c633-4331-95b8-631ca18a0e98,A
2019-04-06 21:02:12,8a86f872-c633-4331-95b8-631ca18a0e98,S
2019-04-06 21:02:20,8a86f872-c633-4331-95b8-631ca18a0e98,A
2019-04-06 21:11:26,8a86f872-c633-4331-95b8-631ca18a0e98,S
2019-04-06 21:17:45,8a86f872-c633-4331-95b8-631ca18a0e98,A
2019-04-06 21:18:51,8a86f872-c633-4331-95b8-631ca18a0e98,S
2019-04-06 21:19:44,8a86f872-c633-4331-95b8-631ca18a0e98,A
2019-04-06 20:00:15,30642249-0389-422c-be7f-726dff431481,S
2019-04-06 20:13:50,30642249-0389-422c-be7f-726dff431481,A
2019-04-06 20:18:43,30642249-0389-422c-be7f-726dff431481,S
2019-04-06 20:19:16,30642249-0389-422c-be7f-726dff431481,A
2019-04-06 20:23:48,30642249-0389-422c-be7f-726dff431481,S
2019-04-06 20:23:49,30642249-0389-422c-be7f-726dff431481,A
2019-04-06 20:32:28,30642249-0389-422c-be7f-726dff431481,S
2019-04-06 20:33:31,30642249-0389-422c-be7f-726dff431481,A
2019-04-06 20:35:46,30642249-0389-422c-be7f-726dff431481,S
2019-04-06 20:37:56,30642249-0389-422c-be7f-726dff431481,A
2019-04-06 20:40:18,30642249-0389-422c-be7f-726dff431481,S
2019-04-06 20:44:09,30642249-0389-422c-be7f-726dff431481,A
2019-04-06 20:45:21,30642249-0389-422c-be7f-726dff431481,S
2019-04-06 20:46:11,30642249-0389-422c-be7f-726dff431481,A
2019-04-06 20:48:21,30642249-0389-422c-be7f-726dff431481,S
2019-04-06 20:48:44,30642249-0389-422c-be7f-726dff431481,A
2019-04-06 20:49:00,30642249-0389-422c-be7f-726dff431481,S
2019-04-06 20:53:31,30642249-0389-422c-be7f-726dff431481,A
2019-04-06 20:54:22,30642249-0389-422c-be7f-726dff431481,S
2019-04-06 21:03:54,30642249-0389-422c-be7f-726dff431481,A
2019-04-06 21:09:56,30642249-0389-422c-be7f-726dff431481,S
2019-04-06 21:17:55,30642249-0389-422c-be7f-726dff431481,A
2019-04-06 19:45:10,f42e68f5-d16f-4fd2-903d-90472daebafc,S
2019-04-06 19:57:25,f42e68f5-d16f-4fd2-903d-90472daebafc,A
2019-04-06 20:07:34,f42e68f5-d16f-4fd2-903d-90472daebafc,S
2019-04-06 20:08:51,f42e68f5-d16f-4fd2-903d-90472daebafc,A
2019-04-06 20:10:50,f42e68f5-d16f-4fd2-903d-90472daebafc,S
2019-04-06 20:17:30,f42e68f5-d16f-4fd2-903d-90472daebafc,A
2019-04-06 20:18:16,f42e68f5-d16f-4fd2-903d-90472daebafc,S
2019-04-06 20:20:38,f42e68f5-d16f-4fd2-903d-90472daebafc,A
2019-04-06 20:21:39,f42e68f5-d16f-4fd2-903d-90472daebafc,S
2019-04-06 20:21:51,f42e68f5-d16f-4fd2-903d-90472daebafc,A
2019-04-06 20:22:45,f42e68f5-d16f-4fd2-903d-90472daebafc,S
2019-04-06 20:29:06,f42e68f5-d16f-4fd2-903d-90472daebafc,A
2019-04-06 20:41:56,f42e68f5-d16f-4fd2-903d-90472daebafc,S
2019-04-06 20:46:33,f42e68f5-d16f-4fd2-903d-90472daebafc,A
2019-04-06 20:47:12,f42e68f5-d16f-4fd2-903d-90472daebafc,S
2019-04-06 21:04:08,f42e68f5-d16f-4fd2-903d-90472daebafc,A
2019-04-06 21:06:28,f42e68f5-d16f-4fd2-903d-90472daebafc,S
2019-04-06 21:06:42,f42e68f5-d16f-4fd2-903d-90472daebafc,A
2019-04-06 21:08:01,f42e68f5-d16f-4fd2-903d-90472daebafc,S
2019-04-06 21:10:27,f42e68f5-d16f-4fd2-903d-90472daebafc,A
2019-04-06 21:15:55,f42e68f5-d16f-4fd2-903d-90472daebafc,S
2019-04-06 21:18:59,f42e68f5-d16f-4fd2-903d-90472daebafc,A
2019-04-06 19:16:19,d09f6e02-86f6-4832-a925-bf4326197de0,A
2019-04-06 19:19:47,d09f6e02-86f6-4832-a925-bf4326197de0,S
2019-04-06 19:28:21,d09f6e02-86f6-4832-a925-bf4326197de0,A
2019-04-06 19:31:24,d09f6e02-86f6-4832-a925-bf4326197de0,S
2019-04-06 19:31:41,d09f6e02-86f6-4832-a925-bf4326197de0,A
2019-04-06 19:34:09,d09f6e02-86f6-4832-a925-bf4326197de0,S
2019-04-06 19:39:29,d09f6e02-86f6-4832-a925-bf4326197de0,A
2019-04-06 19:43:24,d09f6e02-86f6-4832-a925-bf4326197de0,S
2019-04-06 19:46:09,d09f6e02-86f6-4832-a925-bf4326197de0,A
2019-04-06 19:56:56,d09f6e02-86f6-4832-a925-bf4326197de0,S
2019-04-06 20:02:34,d09f6e02-86f6-4832-a925-bf4326197de0,A
2019-04-06 20:25:08,d09f6e02-86f6-4832-a925-bf4326197de0,S
2019-04-06 20:49:29,d09f6e02-86f6-4832-a925-bf4326197de0,A
2019-04-06 20:56:03,d09f6e02-86f6-4832-a925-bf4326197de0,S
2019-04-06 20:59:30,d09f6e02-86f6-4832-a925-bf4326197de0,A
2019-04-06 19:53:51,e6abafbf-3916-400d-ac77-6cb1b97f9c46,A
2019-04-06 20:02:46,e6abafbf-3916-400d-ac77-6cb1b97f9c46,S
2019-04-06 20:13:30,e6abafbf-3916-400d-ac77-6cb1b97f9c46,A
2019-04-06 20:19:02,e6abafbf-3916-400d-ac77-6cb1b97f9c46,S
2019-04-06 20:21:40,e6abafbf-3916-400d-ac77-6cb1b97f9c46,A
2019-04-06 20:22:24,e6abafbf-3916-400d-ac77-6cb1b97f9c46,S
2019-04-06 20:27:04,e6abafbf-3916-400d-ac77-6cb1b97f9c46,A
2019-04-06 20:28:55,e6abafbf-3916-400d-ac77-6cb1b97f9c46,S
2019-04-06 20:42:10,e6abafbf-3916-400d-ac77-6cb1b97f9c46,A
2019-04-06 20:44:02,e6abafbf-3916-400d-ac77-6cb1b97f9c46,S
2019-04-06 20:50:14,e6abafbf-3916-400d-ac77-6cb1b97f9c46,A
2019-04-06 20:53:02,e6abafbf-3916-400d-ac77-6cb1b97f9c46,S
2019-04-06 20:54:50,e6abafbf-3916-400d-ac77-6cb1b97f9c46,A
2019-04-06 20:55:40,e6abafbf-3916-400d-ac77-6cb1b97f9c46,S
2019-04-06 20:55:52,e6abafbf-3916-400d-ac77-6cb1b97f9c46,A
2019-04-06 21:08:23,e6abafbf-3916-400d-ac77-6cb1b97f9c46,S
2019-04-06 21:08:24,e6abafbf-3916-400d-ac77-6cb1b97f9c46,A
2019-04-06 21:09:03,e6abafbf-3916-400d-ac77-6cb1b97f9c46,S
2019-04-06 21:09:29,e6abafbf-3916-400d-ac77-6cb1b97f9c46,A
2019-04-06 19:41:45,6bb54ef2-1f46-450c-b18f-8ed764cd42e4,S
2019-04-06 19:41:49,6bb54ef2-1f46-450c-b18f-8ed764cd42e4,A
2019-04-06 19:48:59,6bb54ef2-1f46-450c-b18f-8ed764cd42e4,S
2019-04-06 20:00:29,6bb54ef2-1f46-450c-b18f-8ed764cd42e4,A
2019-04-06 20:02:05,6bb54ef2-1f46-450c-b18f-8ed764cd42e4,S
2019-04-06 20:05:13,6bb54ef2-1f46-450c-b18f-8ed764cd42e4,A
2019-04-06 20:05:40,6bb54ef2-1f46-450c-b18f-8ed764cd42e4,S
2019-04-06 20:23:28,6bb54ef2-1f46-450c-b18f-8ed764cd42e4,A
2019-04-06 20:25:52,6bb54ef2-1f46-450c-b18f-8ed764cd42e4,S
2019-04-06 20:38:14,6bb54ef2-1f46-450c-b18f-8ed764cd42e4,A
2019-04-06 20:50:22,6bb54ef2-1f46-450c-b18f-8ed764cd42e4,S
2019-04-06 20:55:53,6bb54ef2-1f46-450c-b18f-8ed764cd42e4,A
2019-04-06 20:56:20,6bb54ef2-1f46-450c-b18f-8ed764cd42e4,S
2019-04-06 20:58:35,6bb54ef2-1f46-450c-b18f-8ed764cd42e4,A
2019-04-06 21:02:14,6bb54ef2-1f46-450c-b18f-8ed764cd42e4,S
2019-04-06 21:05:34,6bb54ef2-1f46-450c-b18f-8ed764cd42e4,A
2019-04-06 21:10:04,6bb54ef2-1f46-450c-b18f-8ed764cd42e4,S
2019-04-06 21:11:01,6bb54ef2-1f46-450c-b18f-8ed764cd42e4,A
2019-04-06 21:11:22,6bb54ef2-1f46-450c-b18f-8ed764cd42e4,S
2019-04-06 21:12:20,6bb54ef2-1f46-450c-b18f-8ed764cd42e4,A
2019-04-06 19:44:22,de839e0a-d23b-4a33-ae66-f87bcd40c74c,S
2019-04-06 19:45:04,de839e0a-d23b-4a33-ae66-f87bcd40c74c,A
2019-04-06 20:00:45,de839e0a-d23b-4a33-ae66-f87bcd40c74c,S
2019-04-06 20:07:59,de839e0a-d23b-4a33-ae66-f87bcd40c74c,A
2019-04-06 20:08:21,de839e0a-d23b-4a33-ae66-f87bcd40c74c,S
2019-04-06 20:08:51,de839e0a-d23b-4a33-ae66-f87bcd40c74c,A
2019-04-06 20:09:57,de839e0a-d23b-4a33-ae66-f87bcd40c74c,S
2019-04-06 20:17:46,de839e0a-d23b-4a33-ae66-f87bcd40c74c,A
2019-04-06 20:20:15,de839e0a-d23b-4a33-ae66-f87bcd40c74c,S
2019-04-06 20:21:13,de839e0a-d23b-4a33-ae66-f87bcd40c74c,A
2019-04-06 20:26:12,de839e0a-d23b-4a33-ae66-f87bcd40c74c,S
2019-04-06 20:29:38,de839e0a-d23b-4a33-ae66-f87bcd40c74c,A
2019-04-06 20:37:20,de839e0a-d23b-4a33-ae66-f87bcd40c74c,S
2019-04-06 20:40:52,de839e0a-d23b-4a33-ae66-f87bcd40c74c,A
2019-04-06 20:41:56,de839e0a-d23b-4a33-ae66-f87bcd40c74c,S
2019-04-06 20:43:14,de839e0a-d23b-4a33-ae66-f87bcd40c74c,A
2019-04-06 20:52:23,de839e0a-d23b-4a33-ae66-f87bcd40c74c,S
2019-04-06 20:53:32,de839e0a-d23b-4a33-ae66-f87bcd40c74c,A
2019-04-06 20:56:28,de839e0a-d23b-4a33-ae66-f87bcd40c74c,S
2019-04-06 20:58:14,de839e0a-d23b-4a33-ae66-f87bcd40c74c,A
2019-04-06 21:06:47,de839e0a-d23b-4a33-ae66-f87bcd40c74c,S
2019-04-06 21:09:01,de839e0a-d23b-4a33-ae66-f87bcd40c74c,A
2019-04-06 21:13:58,de839e0a-d23b-4a33-ae66-f87bcd40c74c,S
2019-04-06 21:17:25,de839e0a-d23b-4a33-ae66-f87bcd40c74c,A
2019-04-06 21:18:00,de839e0a-d23b-4a33-ae66-f87bcd40c74c,S
2019-04-06 21:19:33,de839e0a-d23b-4a33-ae66-f87bcd40c74c,A
2019-04-06 19:14:19,6e3bf47e-2fb9-426b-92a9-cbafc8104513,S
2019-04-06 19:18:22,6e3bf47e-2fb9-426b-92a9-cbafc8104513,A
2019-04-06 19:19:11,6e3bf47e-2fb9-426b-92a9-cbafc8104513,S
2019-04-06 19:24:24,6e3bf47e-2fb9-426b-92a9-cbafc8104513,A
2019-04-06 19:29:17,6e3bf47e-2fb9-426b-92a9-cbafc8104513,S
2019-04-06 19:34:16,6e3bf47e-2fb9-426b-92a9-cbafc8104513,A
2019-04-06 19:36:51,6e3bf47e-2fb9-426b-92a9-cbafc8104513,S
2019-04-06 19:37:37,6e3bf47e-2fb9-426b-92a9-cbafc8104513,A
2019-04-06 19:48:13,6e3bf47e-2fb9-426b-92a9-cbafc8104513,S
2019-04-06 19:48:36,6e3bf47e-2fb9-426b-92a9-cbafc8104513,A
2019-04-06 19:56:14,6e3bf47e-2fb9-426b-92a9-cbafc8104513,S
2019-04-06 20:01:34,6e3bf47e-2fb9-426b-92a9-cbafc8104513,A
2019-04-06 20:02:00,6e3bf47e-2fb9-426b-92a9-cbafc8104513,S
2019-04-06 20:08:26,6e3bf47e-2fb9-426b-92a9-cbafc8104513,A
2019-04-06 20:10:30,6e3bf47e-2fb9-426b-92a9-cbafc8104513,S
2019-04-06 20:10:43,6e3bf47e-2fb9-426b-92a9-cbafc8104513,A
2019-04-06 20:15:46,6e3bf47e-2fb9-426b-92a9-cbafc8104513,S
2019-04-06 20:17:20,6e3bf47e-2fb9-426b-92a9-cbafc8104513,A
2019-04-06 19:40:23,e51181a5-a91a-4ec7-9f69-445112ab609c,S
2019-04-06 19:45:39,e51181a5-a91a-4ec7-9f69-445112ab609c,A
2019-04-06 19:52:22,e51181a5-a91a-4ec7-9f69-445112ab609c,S
2019-04-06 19:57:22,e51181a5-a91a-4ec7-9f69-445112ab609c,A
2019-04-06 19:58:18,e51181a5-a91a-4ec7-9f69-445112ab609c,S
2019-04-06 20:05:05,e51181a5-a91a-4ec7-9f69-445112ab609c,A
2019-04-06 20:07:20,e51181a5-a91a-4ec7-9f69-445112ab609c,S
2019-04-06 20:13:26,e51181a5-a91a-4ec7-9f69-445112ab609c,A
2019-04-06 20:13:28,e51181a5-a91a-4ec7-9f69-445112ab609c,S
2019-04-06 20:14:12,e51181a5-a91a-4ec7-9f69-445112ab609c,A
2019-04-06 20:18:06,e51181a5-a91a-4ec7-9f69-445112ab609c,S
2019-04-06 20:23:42,e51181a5-a91a-4ec7-9f69-445112ab609c,A
2019-04-06 20:25:43,e51181a5-a91a-4ec7-9f69-445112ab609c,S
2019-04-06 20:28:56,e51181a5-a91a-4ec7-9f69-445112ab609c,A
2019-04-06 20:31:48,e51181a5-a91a-4ec7-9f69-445112ab609c,S
2019-04-06 20:35:02,e51181a5-a91a-4ec7-9f69-445112ab609c,A
2019-04-06 20:44:03,e51181a5-a91a-4ec7-9f69-445112ab609c,S
2019-04-06 20:47:37,e51181a5-a91a-4ec7-9f69-445112ab609c,A
2019-04-06 20:48:37,e51181a5-a91a-4ec7-9f69-445112ab609c,S
2019-04-06 20:52:03,e51181a5-a91a-4ec7-9f69-445112ab609c,A
2019-04-06 20:54:01,e51181a5-a91a-4ec7-9f69-445112ab609c,S
2019-04-06 20:54:42,e51181a5-a91a-4ec7-9f69-445112ab609c,A
2019-04-06 21:01:51,e51181a5-a91a-4ec7-9f69-445112ab609c,S
2019-04-06 21:04:15,e51181a5-a91a-4ec7-9f69-445112ab609c,A
2019-04-06 21:18:06,e51181a5-a91a-4ec7-9f69-445112ab609c,S
2019-04-06 21:21:06,e51181a5-a91a-4ec7-9f69-445112ab609c,A
2019-04-06 19:29:48,388031f2-a834-4a9c-9fca-591b8ccc0aaf,S
2019-04-06 19:41:53,388031f2-a834-4a9c-9fca-591b8ccc0aaf,A
2019-04-06 20:00:15,388031f2-a834-4a9c-9fca-591b8ccc0aaf,S
2019-04-06 20:02:38,388031f2-a834-4a9c-9fca-591b8ccc0aaf,A
2019-04-06 20:05:57,388031f2-a834-4a9c-9fca-591b8ccc0aaf,S
2019-04-06 20:09:16,388031f2-a834-4a9c-9fca-591b8ccc0aaf,A
2019-04-06 20:20:46,388031f2-a834-4a9c-9fca-591b8ccc0aaf,S
2019-04-06 20:21:35,388031f2-a834-4a9c-9fca-591b8ccc0aaf,A
2019-04-06 20:23:14,388031f2-a834-4a9c-9fca-591b8ccc0aaf,S
2019-04-06 20:24:07,388031f2-a834-4a9c-9fca-591b8ccc0aaf,A
2019-04-06 20:41:31,388031f2-a834-4a9c-9fca-591b8ccc0aaf,S
2019-04-06 20:41:37,388031f2-a834-4a9c-9fca-591b8ccc0aaf,A
2019-04-06 20:44:46,388031f2-a834-4a9c-9fca-591b8ccc0aaf,S
2019-04-06 20:48:13,388031f2-a834-4a9c-9fca-591b8ccc0aaf,A
2019-04-06 20:50:27,388031f2-a834-4a9c-9fca-591b8ccc0aaf,S
2019-04-06 20:56:24,388031f2-a834-4a9c-9fca-591b8ccc0aaf,A
2019-04-06 20:57:46,388031f2-a834-4a9c-9fca-591b8ccc0aaf,S
2019-04-06 21:01:42,388031f2-a834-4a9c-9fca-591b8ccc0aaf,A
2019-04-06 21:07:15,388031f2-a834-4a9c-9fca-591b8ccc0aaf,S
2019-04-06 21:18:47,388031f2-a834-4a9c-9fca-591b8ccc0aaf,A
2019-04-06 19:10:21,b1471eee-5847-4f16-9715-df5cf235d58c,A
2019-04-06 19:14:37,b1471eee-5847-4f16-9715-df5cf235d58c,S
2019-04-06 19:16:54,b1471eee-5847-4f16-9715-df5cf235d58c,A
2019-04-06 19:24:37,b1471eee-5847-4f16-9715-df5cf235d58c,S
2019-04-06 19:33:55,b1471eee-5847-4f16-9715-df5cf235d58c,A
2019-04-06 19:38:16,b1471eee-5847-4f16-9715-df5cf235d58c,S
2019-04-06 19:42:50,b1471eee-5847-4f16-9715-df5cf235d58c,A
2019-04-06 19:58:07,b1471eee-5847-4f16-9715-df5cf235d58c,S
2019-04-06 20:03:00,b1471eee-5847-4f16-9715-df5cf235d58c,A
2019-04-06 20:15:49,b1471eee-5847-4f16-9715-df5cf235d58c,S
2019-04-06 20:16:17,b1471eee-5847-4f16-9715-df5cf235d58c,A
2019-04-06 20:23:31,b1471eee-5847-4f16-9715-df5cf235d58c,S
2019-04-06 20:31:25,b1471eee-5847-4f16-9715-df5cf235d58c,A
2019-04-06 20:32:35,b1471eee-5847-4f16-9715-df5cf235d58c,S
2019-04-06 20:34:08,b1471eee-5847-4f16-9715-df5cf235d58c,A
2019-04-06 20:34:45,b1471eee-5847-4f16-9715-df5cf235d58c,S
2019-04-06 20:36:17,b1471eee-5847-4f16-9715-df5cf235d58c,A
2019-04-06 20:36:53,b1471eee-5847-4f16-9715-df5cf235d58c,S
2019-04-06 20:37:00,b1471eee-5847-4f16-9715-df5cf235d58c,A
2019-04-06 20:37:21,b1471eee-5847-4f16-9715-df5cf235d58c,S
2019-04-06 20:38:18,b1471eee-5847-4f16-9715-df5cf235d58c,A
2019-04-06 20:45:43,b1471eee-5847-4f16-9715-df5cf235d58c,S
2019-04-06 20:58:01,b1471eee-5847-4f16-9715-df5cf235d58c,A
2019-04-06 20:58:39,b1471eee-5847-4f16-9715-df5cf235d58c,S
2019-04-06 21:17:08,b1471eee-5847-4f16-9715-df5cf235d58c,A
2019-04-06 19:24:39,0ccb677b-cf8d-4ee5-8dbb-9c291144f218,S
2019-04-06 19:30:51,0ccb677b-cf8d-4ee5-8dbb-9c291144f218,A
2019-04-06 19:35:15,0ccb677b-cf8d-4ee5-8dbb-9c291144f218,S
2019-04-06 19:45:47,0ccb677b-cf8d-4ee5-8dbb-9c291144f218,A
2019-04-06 19:46:07,0ccb677b-cf8d-4ee5-8dbb-9c291144f218,S
2019-04-06 19:51:36,0ccb677b-cf8d-4ee5-8dbb-9c291144f218,A
2019-04-06 19:52:10,0ccb677b-cf8d-4ee5-8dbb-9c291144f218,S
2019-04-06 19:52:47,0ccb677b-cf8d-4ee5-8dbb-9c291144f218,A
2019-04-06 19:55:19,0ccb677b-cf8d-4ee5-8dbb-9c291144f218,S
2019-04-06 19:55:39,0ccb677b-cf8d-4ee5-8dbb-9c291144f218,A
2019-04-06 19:56:30,0ccb677b-cf8d-4ee5-8dbb-9c291144f218,S
2019-04-06 20:12:03,0ccb677b-cf8d-4ee5-8dbb-9c291144f218,A
2019-04-06 20:13:22,0ccb677b-cf8d-4ee5-8dbb-9c291144f218,S
2019-04-06 20:16:30,0ccb677b-cf8d-4ee5-8dbb-9c291144f218,A
2019-04-06 20:28:24,0ccb677b-cf8d-4ee5-8dbb-9c291144f218,S
2019-04-06 20:29:51,0ccb677b-cf8d-4ee5-8dbb-9c291144f218,A
2019-04-06 20:31:00,0ccb677b-cf8d-4ee5-8dbb-9c291144f218,S
2019-04-06 20:31:51,0ccb677b-cf8d-4ee5-8dbb-9c291144f218,A
2019-04-06 20:32:14,0ccb677b-cf8d-4ee5-8dbb-9c291144f218,S
2019-04-06 20:38:44,0ccb677b-cf8d-4ee5-8dbb-9c291144f218,A
2019-04-06 21:09:23,0ccb677b-cf8d-4ee5-8dbb-9c291144f218,S
2019-04-06 21:13:09,0ccb677b-cf8d-4ee5-8dbb-9c291144f218,A
