node,ip,uuid
node-a8-199.grenoble.iot-lab.info,172.20.64.1,2ea845b1-8a39-4eae-8103-8188eb752176
node-a8-200.grenoble.iot-lab.info,172.20.64.2,9556a522-4dc4-4cf2-8418-4f2162dd9d71
node-a8-201.grenoble.iot-lab.info,172.20.64.3,f1cb77fd-891e-4d7a-8e3f-95e7bd5f758e
node-a8-202.grenoble.iot-lab.info,172.20.64.4,2b13df64-37d2-47a8-8ec4-a49e0884cc0a
node-a8-204.grenoble.iot-lab.info,172.20.64.5,08a815a6-489e-4cad-a665-9e3f3356a23e
node-a8-205.grenoble.iot-lab.info,172.20.64.6,80dd88b9-2d14-460a-ac12-945fd4d18e84
node-a8-206.grenoble.iot-lab.info,172.20.64.7,a7293b52-dd8e-4ab3-8385-d3a0ff177fef
node-a8-207.grenoble.iot-lab.info,172.20.64.8,75dda66a-e60f-44c3-a550-e4c97722cc0f
node-a8-208.grenoble.iot-lab.info,172.20.64.9,3485476a-c448-44ec-8c94-c7b73269d5b2
node-a8-209.grenoble.iot-lab.info,172.20.64.10,0ba67d39-a697-49b8-b326-c2fb56865a4f
node-a8-210.grenoble.iot-lab.info,172.20.64.11,ded46837-0c88-4380-a94f-1912a03759aa
node-a8-211.grenoble.iot-lab.info,172.20.64.12,c46d986a-f3a8-4602-8cdb-19e7d67b9900
node-a8-212.grenoble.iot-lab.info,172.20.64.13,efcff6c1-db3a-4143-ae81-44e17e2522bb
node-a8-214.grenoble.iot-lab.info,172.20.64.14,c19ddb69-3504-41de-9830-e7e77f1c8842
node-a8-216.grenoble.iot-lab.info,172.20.64.15,17f643e1-001c-483b-b70a-8c758eec02de
node-a8-217.grenoble.iot-lab.info,172.20.64.16,1c0a0d75-50a9-443c-b76b-f7b577dff2b7
node-a8-218.grenoble.iot-lab.info,172.20.64.17,7d08e54d-c291-4441-82a9-24b2c8e5b5a3
node-a8-219.grenoble.iot-lab.info,172.20.64.18,20d07d41-02e5-4eee-8b00-716de2edd3f0
node-a8-220.grenoble.iot-lab.info,172.20.64.19,3965dba9-ac85-4354-8c42-c29bbe67d95e
node-a8-221.grenoble.iot-lab.info,172.20.64.20,85b79a0a-e88f-4fc0-94df-726fa094aadf
node-a8-165.grenoble.iot-lab.info,172.20.64.21,19ee0567-0cab-4c4f-980b-359ecbfa9c76
node-a8-166.grenoble.iot-lab.info,172.20.64.22,bb4c8ee9-8f04-4ae4-b643-f34b58be1c9d
node-a8-167.grenoble.iot-lab.info,172.20.64.23,d5de2062-197d-43fa-934a-e4159c4ddbf9
node-a8-168.grenoble.iot-lab.info,172.20.64.24,4b4b324b-a558-4439-b780-0251b542835a
node-a8-169.grenoble.iot-lab.info,172.20.64.25,69c80b64-8404-41ac-9107-e373c8365e94
node-a8-170.grenoble.iot-lab.info,172.20.64.26,231d94e1-3764-45a8-b931-18a3e25fbf8e
node-a8-171.grenoble.iot-lab.info,172.20.64.27,de818176-9198-4d11-a06a-7c67dfd24a27
node-a8-173.grenoble.iot-lab.info,172.20.64.28,830e48cc-40b5-416c-a524-c1b4516ffc8a
node-a8-174.grenoble.iot-lab.info,172.20.64.29,3920fd71-7f52-4a31-92eb-78a9bcdb099a
node-a8-175.grenoble.iot-lab.info,172.20.64.30,1ebbb750-6ee1-407a-9a57-48a5845a8d38
node-a8-176.grenoble.iot-lab.info,172.20.64.31,5ac7c2a0-e155-4224-acd2-079f6105da1f
node-a8-177.grenoble.iot-lab.info,172.20.64.32,ff804f44-4418-4829-b448-e5814cb43779
node-a8-179.grenoble.iot-lab.info,172.20.64.33,6df0dbcf-470a-4b23-9ac2-f7538a6c8aaa
node-a8-180.grenoble.iot-lab.info,172.20.64.34,092999ba-e2bd-4857-89db-4a787d784f3e
node-a8-181.grenoble.iot-lab.info,172.20.64.35,52c2c5d1-2dea-44a8-b197-e3a1007cb9f1
node-a8-182.grenoble.iot-lab.info,172.20.64.36,1fba978e-4048-4ad3-a933-a7f9758a12b1
node-a8-183.grenoble.iot-lab.info,172.20.64.37,a39736b7-5cc0-4e68-9a78-3d80e5c2c0a3
node-a8-184.grenoble.iot-lab.info,172.20.64.38,f519a51a-9034-4b8f-9aac-abf312b19ae1
node-a8-185.grenoble.iot-lab.info,172.20.64.39,e9e8f2da-02bb-494a-9743-d06e9cce753a
node-a8-187.grenoble.iot-lab.info,172.20.64.40,d5fe121c-746d-426c-b10c-f292a0451ab4
node-a8-188.grenoble.iot-lab.info,172.20.64.41,19542827-b907-4a59-a21d-506e6adab01b
node-a8-189.grenoble.iot-lab.info,172.20.64.42,ff115bd9-784f-4f15-b1f8-b7c840b6599a
node-a8-190.grenoble.iot-lab.info,172.20.64.43,4624a324-7782-4de4-ba92-54c945078fbe
node-a8-191.grenoble.iot-lab.info,172.20.64.44,77609ce7-b7d0-4226-8b3e-a1b6765dd084
node-a8-192.grenoble.iot-lab.info,172.20.64.45,57f81524-eb5c-49dd-afa0-c594142a704f
node-a8-193.grenoble.iot-lab.info,172.20.64.46,9006c278-3db7-4745-a935-7ffd78a34ebe
node-a8-194.grenoble.iot-lab.info,172.20.64.47,aaf4945a-6a6d-4a92-b7f6-250444f5bd4c
node-a8-195.grenoble.iot-lab.info,172.20.64.48,158e5217-466d-4ad6-bf0c-c62f996bcd4e
node-a8-197.grenoble.iot-lab.info,172.20.64.49,ed7f6aac-3b41-4115-99c0-fafdcbd9f7ed
node-a8-198.grenoble.iot-lab.info,172.20.64.50,8fc5c60d-26be-45df-a3c5-e5a16aa287ef
uvb-8.sophia.grid5000.fr,172.16.132.8,2f9d4fd5-6eb8-4e9b-9a91-25013bd6238b
uvb-6.sophia.grid5000.fr,172.16.132.6,3934131b-0907-49c5-a15e-84e131da419c
uvb-5.sophia.grid5000.fr,172.16.132.5,723286f2-a9f1-4bd3-8e6b-43c41c718f31
uvb-44.sophia.grid5000.fr,172.16.132.44,0b2c21ad-4a5a-401c-9133-eea9e175f70a
uvb-43.sophia.grid5000.fr,172.16.132.43,3d9dab9b-6c7e-4f27-ae30-27a67202ba9b
uvb-42.sophia.grid5000.fr,172.16.132.42,9ef53302-88ef-47ff-9b1a-bf894f6e31cb
uvb-41.sophia.grid5000.fr,172.16.132.41,75faf598-81cf-4456-a7c2-5688e258577e
uvb-4.sophia.grid5000.fr,172.16.132.4,c430595f-8464-475c-8f37-8bfef57f9124
uvb-37.sophia.grid5000.fr,172.16.132.37,9e14d203-d223-407a-b64a-cd4e0798970f
uvb-36.sophia.grid5000.fr,172.16.132.36,d4307c34-1419-4c0e-97d1-032f523d4c44
uvb-35.sophia.grid5000.fr,172.16.132.35,cfd5154b-5d21-4a2a-97d9-f08ab0d949ea
uvb-34.sophia.grid5000.fr,172.16.132.34,b4fb2f8d-39db-4ed1-b82d-f222aee77e21
uvb-33.sophia.grid5000.fr,172.16.132.33,832e4b14-d858-4c6b-ab9f-abeff3464ea4
uvb-31.sophia.grid5000.fr,172.16.132.31,80b36a5d-11ca-40bc-9062-de133ef3a3b5
uvb-29.sophia.grid5000.fr,172.16.132.29,2deb7878-c38f-4bb0-8482-20ad9736e171
