actor,node
939d14d5-51db-4a95-9b0d-407367015825,687beb88-5416-4bfe-b3c1-a6f3f71119fe
1b9dca9b-02e1-4075-bcf4-a93210f66e9e,fcf7a8c3-5089-4ad2-9060-0b597c615e82
734bf94f-d66d-4be4-ad43-e31c8753cac1,687beb88-5416-4bfe-b3c1-a6f3f71119fe
15a3cad3-d577-4a14-83bc-9c62c307adfa,ac4c129c-06b2-4e4e-915b-ee817c0501d9
d84b8927-2663-49c4-a987-3deefbc5c876,ac4c129c-06b2-4e4e-915b-ee817c0501d9
1b45b80a-b1ac-43b7-a7eb-41bc70f86d0a,eeabfdbb-9a38-47ff-a27a-73897ae1a093
9f3c2165-be3e-4768-97f3-030aa0178431,8462e558-3dd6-4e54-a8c5-cda0977a67f6
85f3b7d4-895d-4578-80d9-04d9be9bdde6,e1ce7222-c1a9-4caf-84a5-336933b53d6c
a970cc34-a9a2-484a-ad1f-062414acb56c,8462e558-3dd6-4e54-a8c5-cda0977a67f6
4f216fad-7038-44e2-8611-0269c35924f3,b1d946b9-dee7-4c31-998b-1758a086cc12
932e94e4-4b98-4202-9148-702ec9d04518,64c6acd4-6824-4100-9aba-862e0b6cab1d
4ba28bbb-5c57-4ea8-a879-a360734fef2e,64c6acd4-6824-4100-9aba-862e0b6cab1d
9b2130ce-8cb7-4e9e-ad22-e7a1f52b82ec,86d00e1e-995d-49a6-97e8-1736c2d28d56
5c92e66c-2d96-4f33-9974-82c47151a95d,44f91318-4a6c-481c-802d-58103b48d0ba
81eb37d9-858a-41d1-92c0-e10114dd57d2,44f91318-4a6c-481c-802d-58103b48d0ba
f9175e46-34e3-4769-8878-5b949b96a929,813fb87b-6737-4aff-95ca-4a55b2632be3
0fb1b1c3-e9fd-4659-9646-c2f6a921ea13,a56b5900-a515-46a6-84b8-fabd41b2415b
59ac4a15-3597-4483-8722-5fcc884480f1,a56b5900-a515-46a6-84b8-fabd41b2415b
985f30cc-2e30-45ed-8c49-57c5c79c8c83,ec141169-7937-4b86-a77b-6e41d8824418
f63850c3-a4da-40bd-91c9-3b2e778e1476,ec141169-7937-4b86-a77b-6e41d8824418
bd3064dd-d3e0-4e6b-b56c-1cf119326a5f,e2196169-a9c2-4fd1-8090-eaed9ffe8c37
9170c929-53b7-413d-95e2-ff702dc2efce,cd58fa3f-46b3-4e53-9001-0c153fc54056
2090579d-79e0-42c0-930c-7f1841f5452a,cd58fa3f-46b3-4e53-9001-0c153fc54056
e5cf4826-84aa-4ac4-8b1a-102032741c21,af7964da-b1b8-4a64-9c63-75963f573f1a
5456d1db-c612-42f2-b05a-665352faf9dd,784a9486-ac2e-4d0d-b305-ff952bbfd1a5
1874bfdf-b7fa-4305-8a06-aa9c360c8748,bdf7d7fc-c8a8-493d-a29d-5165cc06640f
d3fa2114-aadb-4a49-a89d-04aebfbc9231,784a9486-ac2e-4d0d-b305-ff952bbfd1a5
667bb723-7e7a-4827-aebe-0ea716708c76,93558a04-6b4a-4bce-87aa-644e406d82f8
08b9ab47-f8ae-48bb-af8a-aae542fb74d8,93558a04-6b4a-4bce-87aa-644e406d82f8
b0150b9a-ee3c-411a-b999-89eaa6a2daaf,b9bb2294-6424-40be-aaf2-6aae6d2f72cc
9cd4e2ec-4673-40de-91f7-f6f4ed39e35e,d5a3e71b-9f1d-429d-a7ca-2391b76ce2e9
03f5d603-9fb3-4a7a-8a33-c26649a434fe,d5a3e71b-9f1d-429d-a7ca-2391b76ce2e9
b03b5930-841e-4b7b-9205-61bc66a2b762,6e21eb05-6e25-4c15-bd42-f778c0a2e4a5
bb663904-48b9-40a2-a225-1f039628a94a,99aba3e3-395f-46e3-b527-15346b159429
a65bf302-3f64-42c5-90c4-bfd299341135,99aba3e3-395f-46e3-b527-15346b159429
e27f864d-54c2-4b44-976f-e7251e651ae2,c26838b1-bd6e-48f7-8273-94617a60ef4c
d6a04740-84c6-466a-9f3a-5fcd4258e756,ce962b23-1edd-49eb-a6b3-23aa82f6fac0
24aea62a-74b9-442e-a20f-a0fda52f08f4,f295584c-9106-42a5-8c9d-73f9340fce8e
8e541375-029f-437e-a42f-35c72af75f7b,f295584c-9106-42a5-8c9d-73f9340fce8e
f7956aa3-e735-4e1f-bbad-bad76f1b51e9,744e0322-8294-4025-bbfd-332c5ae286f8
264b3647-f282-487c-9043-6383adfc29fc,8a103d2d-8988-4d79-b906-75e831e8a216
6419effa-9467-43d1-ad4f-31de242206d4,744e0322-8294-4025-bbfd-332c5ae286f8
436b8cfb-c765-44ee-8cf8-0507b400ccbc,62bb4bf7-989a-4d82-9cdd-19f521408431
1f183171-79f0-4c8b-90a6-1bb723bb5177,d5bf52ed-e3f5-4d21-bc81-b5b92a1ef416
4a8a1939-e816-4643-a8f3-4cbf24c84ab6,62bb4bf7-989a-4d82-9cdd-19f521408431
4ed68c9c-b40b-437f-8bd5-fc8ecc3ab86d,687beb88-5416-4bfe-b3c1-a6f3f71119fe
2004526a-e747-4890-9a78-86fc6693fb3e,687beb88-5416-4bfe-b3c1-a6f3f71119fe
7a1720a5-cb3f-4a5e-8e01-abf9d9979549,303ea31c-a648-46c3-9b1f-0d822b60d682
4d163ffc-916f-40b1-8d0d-87f7d6268690,ac4c129c-06b2-4e4e-915b-ee817c0501d9
bf7691d8-6ff4-44b2-99cf-f777873c8313,ac4c129c-06b2-4e4e-915b-ee817c0501d9
42c64320-1977-4528-8c6b-d182519d7db1,8620c4fa-6c34-4b4c-bdef-ff4e82cf1160
002cdce7-8543-47aa-b967-ed43d95168be,24a72a3b-0a2b-48f9-b7a3-ec5f31c5db8e
271e0d6f-64b7-4ed5-af8d-edf5d8912af8,8462e558-3dd6-4e54-a8c5-cda0977a67f6
8d63f0b7-e601-471a-8d5c-7ef4af979818,8462e558-3dd6-4e54-a8c5-cda0977a67f6
a6f2ff50-f317-44a7-a688-332d9e7b810a,64c6acd4-6824-4100-9aba-862e0b6cab1d
ab7f536e-ebe6-45f0-acb9-079638b21204,b0fe785a-4d17-426e-bee0-d9d93c0743e7
a4d3aff3-4de0-4583-8712-0c471d53d826,64c6acd4-6824-4100-9aba-862e0b6cab1d
72c31c89-7eaa-41ff-978f-75868d31222a,f29cf851-365a-4fa4-9a57-b4517d06c085
4b19ce12-bf20-4c08-93cc-6d62491452ac,44f91318-4a6c-481c-802d-58103b48d0ba
ceb8d9e1-b5d0-479c-b610-5a6454101985,44f91318-4a6c-481c-802d-58103b48d0ba
9fcb6c57-0a9f-4b3a-b17a-d0b7ded0bd9c,a56b5900-a515-46a6-84b8-fabd41b2415b
26a72591-9da6-4c8d-924a-e383222718ff,5451e3ea-5f13-4a85-a82c-237e61e06a5d
6193f334-d118-4f60-a9f6-61f072162d00,a56b5900-a515-46a6-84b8-fabd41b2415b
173f83a5-b9fa-4b43-beb0-aa6d9c7a8244,ec141169-7937-4b86-a77b-6e41d8824418
9b5f2566-e085-44f6-b889-ca02e6ad2cc2,ec141169-7937-4b86-a77b-6e41d8824418
17c93633-fad5-40d3-881c-34f15c4e85f5,69eb1cd9-e4bb-4ffc-b88f-f8c8b2325a21
2c90bbc0-f96d-4a3e-9fae-6edd50c7fe3a,cd58fa3f-46b3-4e53-9001-0c153fc54056
9aaedea0-7a3c-4f01-a85f-4b9b25a18166,e8f4bb57-6417-41d6-be0c-02c737933310
5f81dc21-4da8-49d2-85ca-15da7cf0e4c3,cd58fa3f-46b3-4e53-9001-0c153fc54056
b444f065-3c81-4a13-bae0-60c7766c25c7,784a9486-ac2e-4d0d-b305-ff952bbfd1a5
c05e40be-04c8-4484-8525-f5f9a6a05a67,784a9486-ac2e-4d0d-b305-ff952bbfd1a5
d15f42b9-57a0-4858-952e-019bd3a07814,8ba32c62-b89c-4ad4-ae46-fc8ecf71f4a4
d583bcf2-542c-43a7-b987-f4834d742dd4,93558a04-6b4a-4bce-87aa-644e406d82f8
31bf50d0-d48c-4396-bdac-59cc957bbb92,c43151d2-9edb-495f-a483-a168b7470931
6604aa50-a760-4585-9582-41a253b2da6c,93558a04-6b4a-4bce-87aa-644e406d82f8
ea689afa-6a72-42e5-8989-91fb136c05e4,d5a3e71b-9f1d-429d-a7ca-2391b76ce2e9
72a50fed-c868-40ad-84fe-ef3c990c3a47,f44fa9ce-abb4-479d-8bf9-ad0b19c08763
26bbf674-1dbd-4c3d-abf0-6c39d1a4590e,d5a3e71b-9f1d-429d-a7ca-2391b76ce2e9
098822f8-6264-4793-8424-157ebc4ae49c,a183fb8e-f223-41de-af79-88f29693426e
a78c5f1c-37a0-4b13-a638-8b6a58a8ac62,99aba3e3-395f-46e3-b527-15346b159429
15ae8b84-3cd9-4382-b664-09eae424d5df,99aba3e3-395f-46e3-b527-15346b159429
2a9ba8c9-5c51-4679-9bee-5dd778b1d45f,f295584c-9106-42a5-8c9d-73f9340fce8e
4a9fc8a8-844c-479b-ae26-d7d7cdcd850f,f295584c-9106-42a5-8c9d-73f9340fce8e
97d265bb-5fa3-4b93-9e3b-99b2c551aa08,f55872b8-d26d-4bab-88e3-32f43aa3d486
1e30760d-8936-45a1-947a-e0c566ee0434,b4cae273-31b4-44a9-a5f0-105e571738d8
23abb552-59d3-4f8a-872f-c9ac35e95f75,744e0322-8294-4025-bbfd-332c5ae286f8
06200fb7-2685-40ca-81e4-500152088e76,744e0322-8294-4025-bbfd-332c5ae286f8
c43694b2-fadc-4947-a096-e3fa80b58853,376dbac1-2ccf-45f6-94e6-5ca0b41dd2eb
ad2a6dc8-3c37-4d13-92e9-cb9045e5783d,62bb4bf7-989a-4d82-9cdd-19f521408431
967271ae-9d66-4d10-92c1-e44c6940ab3c,62bb4bf7-989a-4d82-9cdd-19f521408431
2bd85f35-e034-4383-886d-a1dcf0209e32,687beb88-5416-4bfe-b3c1-a6f3f71119fe
7d7c8c5b-394a-439b-8fa5-4e4bc5059cb7,687beb88-5416-4bfe-b3c1-a6f3f71119fe
2567ee38-db7f-48b5-bedb-4da05044fa24,cec2f9fd-f89b-4cae-9a7c-27b9f35c9eff
e6306bfd-f6f2-47f1-af5b-b2f5ff71bb54,ac4c129c-06b2-4e4e-915b-ee817c0501d9
3ddd1e87-761e-4aba-9ae5-f622695917bc,ac4c129c-06b2-4e4e-915b-ee817c0501d9
86c02e86-c76b-43bc-a669-c77ab9e88249,2ecc88e8-634a-44a9-8db5-3e63901d4fa6
a992e470-4fba-41a6-a59c-8e6567cdae17,87edf6b3-8670-4ad8-90c9-8a8acc1a7181
6e7fc2cf-eb15-4aab-b581-bc6c4ae91ad0,8462e558-3dd6-4e54-a8c5-cda0977a67f6
531edefd-aca0-4f70-9f43-55ab3b93517f,8462e558-3dd6-4e54-a8c5-cda0977a67f6
160d00ca-bacc-41ae-bba7-5a5371e46634,64c6acd4-6824-4100-9aba-862e0b6cab1d
45e66505-8e5a-4ad5-90d2-cd1a636d8d19,f1a71ed9-7553-4f03-aceb-3d285818ef2d
2c546bef-9ca5-458e-919d-a44cfccd2d92,64c6acd4-6824-4100-9aba-862e0b6cab1d
32e09006-035e-4e96-9930-01024e348a2c,44f91318-4a6c-481c-802d-58103b48d0ba
ce068deb-2175-4051-9b74-69a2268ae76a,44f91318-4a6c-481c-802d-58103b48d0ba
28ef734d-cc48-4fa2-a20c-7636f8279144,e300b764-6cc0-4b7a-818f-a87db77f44a2
59cce38f-eeee-41de-907d-da6ab62bafb9,a56b5900-a515-46a6-84b8-fabd41b2415b
c826305e-1bc8-4591-bf88-d75d60c27490,a56b5900-a515-46a6-84b8-fabd41b2415b
d01d9209-bf06-48cb-985c-627d75fc5494,117b2bdf-17eb-4efb-9b01-a075e6f96f13
b8f43c25-dc1f-4d31-8da1-c4f93464d3c8,0ae33898-1991-4281-90af-7cc6e27ee2e8
7025f7c5-3ac6-4286-b733-4d7fa2d8b722,ec141169-7937-4b86-a77b-6e41d8824418
d5b9f0df-6978-4fa9-aa10-bd47bdd6e466,ec141169-7937-4b86-a77b-6e41d8824418
3f1f6572-f237-4639-a4d4-b9c6490db839,cd58fa3f-46b3-4e53-9001-0c153fc54056
496142b6-1970-42ee-ac56-413427bed677,cd58fa3f-46b3-4e53-9001-0c153fc54056
2ebc0818-4eda-43eb-bac0-fb21f60d5e89,57740c0b-a975-49f5-b1f4-3ae512149aaa
ad64f797-e25f-4dc8-ad1e-f645b003696c,5b224cd3-1a4b-4da3-a870-1108f661fc77
6c913d2a-65c2-489d-90ef-55e206fa2699,784a9486-ac2e-4d0d-b305-ff952bbfd1a5
8949be44-5b0e-49ae-9a69-d51d34b87ca1,784a9486-ac2e-4d0d-b305-ff952bbfd1a5
d4d333ca-8d52-45c5-9d93-8cdf2a776919,93558a04-6b4a-4bce-87aa-644e406d82f8
a0c9619e-d5c2-450b-959f-b76e069a0525,93558a04-6b4a-4bce-87aa-644e406d82f8
dcf15d7d-4669-471d-8272-e75526b8af08,576973d4-3861-46f4-b444-4fffcaa4b8b9
0b6ec9e2-3d2c-4ebd-83eb-4d422862ed9e,d5a3e71b-9f1d-429d-a7ca-2391b76ce2e9
93c7dba5-8e3a-4e98-a436-ff763c03c002,d5a3e71b-9f1d-429d-a7ca-2391b76ce2e9
ccf00da3-95e9-4c9d-812b-106025c42a9a,dc648fb4-e136-45eb-a443-7be8db44a726
94073897-6529-4bf2-9c39-b0a0fe48e709,99aba3e3-395f-46e3-b527-15346b159429
b48803b9-c1e8-4e59-862d-40665f78d916,99aba3e3-395f-46e3-b527-15346b159429
2672659a-8bc7-4fab-b628-00d4348733d4,728eaed5-3ae6-4d4c-87dd-fa351a32d96e
9b224832-8aed-49b9-8b4d-70a171b60c75,918e61af-eb2b-4a28-8835-4daaf7994cc0
3b411631-3fe1-43ab-9185-c8d1073100b8,f295584c-9106-42a5-8c9d-73f9340fce8e
0699416b-8dac-468d-b932-4103ce1e7268,f295584c-9106-42a5-8c9d-73f9340fce8e
4e5d9eea-2e5b-4b9c-a974-e92aacaf6bdc,744e0322-8294-4025-bbfd-332c5ae286f8
ec52c84e-3f9b-43d4-866c-e2def10a829a,52d38bbb-dbbb-4a63-bdc3-40ef0cac21f7
ca595844-2d88-425a-8fcf-77b68a65c321,744e0322-8294-4025-bbfd-332c5ae286f8
9bf69391-d9ac-428f-a20f-139ed5281d34,62bb4bf7-989a-4d82-9cdd-19f521408431
72722845-59d3-4d60-b8b4-8ca4c5be076a,07815e4e-2725-4c64-bf5d-6247c69546f4
7bd083e2-d385-433b-b47a-aca263740dfd,62bb4bf7-989a-4d82-9cdd-19f521408431
6e52114b-1ec5-406b-afd3-20902879f3da,d3ac841d-1cec-427f-bbc3-d42b5d1c0f7c
ca586d8c-765e-40b3-9063-288381771960,687beb88-5416-4bfe-b3c1-a6f3f71119fe
4a87422b-6cd0-437a-a39f-23a0bd4ea530,687beb88-5416-4bfe-b3c1-a6f3f71119fe
b54f2760-13e0-4a32-a318-f85056a027d6,e32880de-c413-4a0e-9242-6f165794e0ea
f57d42df-6d34-45e2-9eaf-3e6c61a65384,ac4c129c-06b2-4e4e-915b-ee817c0501d9
f25cd261-2345-47bc-90af-9f419a5cc685,ac4c129c-06b2-4e4e-915b-ee817c0501d9
dd350dea-0b86-41b2-8df9-4a377c31d707,05deba33-8099-4aef-80c7-a79888c97ced
77f6c3e3-5740-4a4d-977b-dba620c3982c,8462e558-3dd6-4e54-a8c5-cda0977a67f6
bf16f4df-8fe0-4fac-80de-a72b2a0171b0,8462e558-3dd6-4e54-a8c5-cda0977a67f6
5eb02db3-ca71-4af0-8105-df3d95afd21a,64c6acd4-6824-4100-9aba-862e0b6cab1d
cb34e0fd-8e38-41df-90e5-ec59480a6332,f7d008f9-c315-4262-8a78-05f7258ec41c
8bb8c6f3-41c7-4356-a2c4-b4dd0d26e5e6,64c6acd4-6824-4100-9aba-862e0b6cab1d
cde6368b-fc8f-4f79-b27f-cdcaadc35161,06310b84-da36-4c46-af7f-60eacc6b5452
b8c30be4-efc3-4470-9819-f406d1218a43,44f91318-4a6c-481c-802d-58103b48d0ba
e651d1e9-b404-41a2-9c0c-265fe5cc4438,44f91318-4a6c-481c-802d-58103b48d0ba
