date,trigger,state
2019-09-15 21:05:09,8128d48c-f89d-4af3-a55a-09a5d61a8da3,S
2019-09-15 21:05:45,8128d48c-f89d-4af3-a55a-09a5d61a8da3,A
2019-09-15 21:08:20,8128d48c-f89d-4af3-a55a-09a5d61a8da3,S
2019-09-15 21:13:30,8128d48c-f89d-4af3-a55a-09a5d61a8da3,A
2019-09-15 21:37:25,8128d48c-f89d-4af3-a55a-09a5d61a8da3,S
2019-09-15 21:41:26,8128d48c-f89d-4af3-a55a-09a5d61a8da3,A
2019-09-15 21:41:55,8128d48c-f89d-4af3-a55a-09a5d61a8da3,S
2019-09-15 21:49:34,8128d48c-f89d-4af3-a55a-09a5d61a8da3,A
2019-09-15 21:50:27,8128d48c-f89d-4af3-a55a-09a5d61a8da3,S
2019-09-15 21:53:47,8128d48c-f89d-4af3-a55a-09a5d61a8da3,A
2019-09-15 22:04:45,8128d48c-f89d-4af3-a55a-09a5d61a8da3,S
2019-09-15 22:05:12,8128d48c-f89d-4af3-a55a-09a5d61a8da3,A
2019-09-15 22:14:11,8128d48c-f89d-4af3-a55a-09a5d61a8da3,S
2019-09-15 22:16:06,8128d48c-f89d-4af3-a55a-09a5d61a8da3,A
2019-09-15 22:20:21,8128d48c-f89d-4af3-a55a-09a5d61a8da3,S
2019-09-15 22:26:24,8128d48c-f89d-4af3-a55a-09a5d61a8da3,A
2019-09-15 22:29:12,8128d48c-f89d-4af3-a55a-09a5d61a8da3,S
2019-09-15 21:12:09,191a52f1-7e26-4298-a9a9-9965e522850d,S
2019-09-15 21:15:39,191a52f1-7e26-4298-a9a9-9965e522850d,A
2019-09-15 21:17:05,191a52f1-7e26-4298-a9a9-9965e522850d,S
2019-09-15 21:31:16,191a52f1-7e26-4298-a9a9-9965e522850d,A
2019-09-15 21:36:57,191a52f1-7e26-4298-a9a9-9965e522850d,S
2019-09-15 21:55:17,191a52f1-7e26-4298-a9a9-9965e522850d,A
2019-09-15 21:56:11,191a52f1-7e26-4298-a9a9-9965e522850d,S
2019-09-15 22:04:04,191a52f1-7e26-4298-a9a9-9965e522850d,A
2019-09-15 22:17:38,191a52f1-7e26-4298-a9a9-9965e522850d,S
2019-09-15 22:18:27,191a52f1-7e26-4298-a9a9-9965e522850d,A
2019-09-15 22:21:07,191a52f1-7e26-4298-a9a9-9965e522850d,S
2019-09-15 21:06:12,c3b1d6ec-c9a7-41df-b89b-50a2a6423559,A
2019-09-15 21:07:27,c3b1d6ec-c9a7-41df-b89b-50a2a6423559,S
2019-09-15 21:18:44,c3b1d6ec-c9a7-41df-b89b-50a2a6423559,A
2019-09-15 21:29:00,c3b1d6ec-c9a7-41df-b89b-50a2a6423559,S
2019-09-15 21:31:13,c3b1d6ec-c9a7-41df-b89b-50a2a6423559,A
2019-09-15 21:35:45,c3b1d6ec-c9a7-41df-b89b-50a2a6423559,S
2019-09-15 21:36:16,c3b1d6ec-c9a7-41df-b89b-50a2a6423559,A
2019-09-15 21:43:29,c3b1d6ec-c9a7-41df-b89b-50a2a6423559,S
2019-09-15 21:44:18,c3b1d6ec-c9a7-41df-b89b-50a2a6423559,A
2019-09-15 21:49:41,c3b1d6ec-c9a7-41df-b89b-50a2a6423559,S
2019-09-15 21:52:05,c3b1d6ec-c9a7-41df-b89b-50a2a6423559,A
2019-09-15 21:52:49,c3b1d6ec-c9a7-41df-b89b-50a2a6423559,S
2019-09-15 21:53:01,c3b1d6ec-c9a7-41df-b89b-50a2a6423559,A
2019-09-15 21:54:55,c3b1d6ec-c9a7-41df-b89b-50a2a6423559,S
2019-09-15 22:02:36,c3b1d6ec-c9a7-41df-b89b-50a2a6423559,A
2019-09-15 22:10:26,c3b1d6ec-c9a7-41df-b89b-50a2a6423559,S
2019-09-15 22:11:56,c3b1d6ec-c9a7-41df-b89b-50a2a6423559,A
2019-09-15 22:14:34,c3b1d6ec-c9a7-41df-b89b-50a2a6423559,S
2019-09-15 22:19:15,c3b1d6ec-c9a7-41df-b89b-50a2a6423559,A
2019-09-15 21:10:07,79868c8c-f60a-458c-bd75-456d71882c95,A
2019-09-15 21:12:00,79868c8c-f60a-458c-bd75-456d71882c95,S
2019-09-15 21:15:08,79868c8c-f60a-458c-bd75-456d71882c95,A
2019-09-15 21:45:42,79868c8c-f60a-458c-bd75-456d71882c95,S
2019-09-15 21:47:40,79868c8c-f60a-458c-bd75-456d71882c95,A
2019-09-15 21:53:44,79868c8c-f60a-458c-bd75-456d71882c95,S
2019-09-15 21:54:31,79868c8c-f60a-458c-bd75-456d71882c95,A
2019-09-15 21:55:38,79868c8c-f60a-458c-bd75-456d71882c95,S
2019-09-15 22:08:22,79868c8c-f60a-458c-bd75-456d71882c95,A
2019-09-15 22:08:58,79868c8c-f60a-458c-bd75-456d71882c95,S
2019-09-15 22:13:23,79868c8c-f60a-458c-bd75-456d71882c95,A
2019-09-15 22:21:02,79868c8c-f60a-458c-bd75-456d71882c95,S
2019-09-15 22:25:01,79868c8c-f60a-458c-bd75-456d71882c95,A
2019-09-15 22:25:44,79868c8c-f60a-458c-bd75-456d71882c95,S
2019-09-15 22:26:19,79868c8c-f60a-458c-bd75-456d71882c95,A
2019-09-15 22:29:22,79868c8c-f60a-458c-bd75-456d71882c95,S
2019-09-15 22:29:39,79868c8c-f60a-458c-bd75-456d71882c95,A
2019-09-15 21:14:24,f9779b9c-de11-44e7-884b-bfef15700858,S
2019-09-15 21:22:47,f9779b9c-de11-44e7-884b-bfef15700858,A
2019-09-15 21:22:57,f9779b9c-de11-44e7-884b-bfef15700858,S
2019-09-15 21:25:55,f9779b9c-de11-44e7-884b-bfef15700858,A
2019-09-15 21:27:46,f9779b9c-de11-44e7-884b-bfef15700858,S
2019-09-15 21:28:14,f9779b9c-de11-44e7-884b-bfef15700858,A
2019-09-15 21:39:36,f9779b9c-de11-44e7-884b-bfef15700858,S
2019-09-15 21:46:23,f9779b9c-de11-44e7-884b-bfef15700858,A
2019-09-15 22:09:48,f9779b9c-de11-44e7-884b-bfef15700858,S
2019-09-15 22:20:02,f9779b9c-de11-44e7-884b-bfef15700858,A
2019-09-15 22:28:10,f9779b9c-de11-44e7-884b-bfef15700858,S
2019-09-15 22:29:04,f9779b9c-de11-44e7-884b-bfef15700858,A
2019-09-15 20:56:30,9e272642-b6bd-4746-b11d-73a0d1088407,A
2019-09-15 21:03:10,9e272642-b6bd-4746-b11d-73a0d1088407,S
2019-09-15 21:09:29,9e272642-b6bd-4746-b11d-73a0d1088407,A
2019-09-15 21:12:09,9e272642-b6bd-4746-b11d-73a0d1088407,S
2019-09-15 21:21:35,9e272642-b6bd-4746-b11d-73a0d1088407,A
2019-09-15 21:27:37,9e272642-b6bd-4746-b11d-73a0d1088407,S
2019-09-15 21:31:53,9e272642-b6bd-4746-b11d-73a0d1088407,A
2019-09-15 21:37:38,9e272642-b6bd-4746-b11d-73a0d1088407,S
2019-09-15 21:39:12,9e272642-b6bd-4746-b11d-73a0d1088407,A
2019-09-15 21:40:49,9e272642-b6bd-4746-b11d-73a0d1088407,S
2019-09-15 21:43:52,9e272642-b6bd-4746-b11d-73a0d1088407,A
2019-09-15 21:48:39,9e272642-b6bd-4746-b11d-73a0d1088407,S
2019-09-15 21:49:44,9e272642-b6bd-4746-b11d-73a0d1088407,A
2019-09-15 21:53:02,9e272642-b6bd-4746-b11d-73a0d1088407,S
2019-09-15 21:55:00,9e272642-b6bd-4746-b11d-73a0d1088407,A
2019-09-15 21:56:04,9e272642-b6bd-4746-b11d-73a0d1088407,S
2019-09-15 22:03:50,9e272642-b6bd-4746-b11d-73a0d1088407,A
2019-09-15 22:11:54,9e272642-b6bd-4746-b11d-73a0d1088407,S
2019-09-15 22:16:38,9e272642-b6bd-4746-b11d-73a0d1088407,A
2019-09-15 22:21:35,9e272642-b6bd-4746-b11d-73a0d1088407,S
2019-09-15 22:23:37,9e272642-b6bd-4746-b11d-73a0d1088407,A
2019-09-15 21:08:08,985df934-785d-49d1-99cc-77564028d745,A
2019-09-15 21:13:31,985df934-785d-49d1-99cc-77564028d745,S
2019-09-15 21:23:00,985df934-785d-49d1-99cc-77564028d745,A
2019-09-15 21:26:27,985df934-785d-49d1-99cc-77564028d745,S
2019-09-15 21:30:00,985df934-785d-49d1-99cc-77564028d745,A
2019-09-15 21:41:05,985df934-785d-49d1-99cc-77564028d745,S
2019-09-15 21:47:32,985df934-785d-49d1-99cc-77564028d745,A
2019-09-15 21:58:22,985df934-785d-49d1-99cc-77564028d745,S
2019-09-15 22:00:16,985df934-785d-49d1-99cc-77564028d745,A
2019-09-15 22:00:33,985df934-785d-49d1-99cc-77564028d745,S
2019-09-15 22:15:52,985df934-785d-49d1-99cc-77564028d745,A
2019-09-15 22:17:30,985df934-785d-49d1-99cc-77564028d745,S
2019-09-15 22:21:34,985df934-785d-49d1-99cc-77564028d745,A
2019-09-15 22:23:19,985df934-785d-49d1-99cc-77564028d745,S
2019-09-15 22:28:19,985df934-785d-49d1-99cc-77564028d745,A
2019-09-15 21:17:32,cefa5359-a7d8-4b02-928f-af6260cf1320,S
2019-09-15 21:21:56,cefa5359-a7d8-4b02-928f-af6260cf1320,A
2019-09-15 21:22:54,cefa5359-a7d8-4b02-928f-af6260cf1320,S
2019-09-15 21:26:10,cefa5359-a7d8-4b02-928f-af6260cf1320,A
2019-09-15 21:26:33,cefa5359-a7d8-4b02-928f-af6260cf1320,S
2019-09-15 21:29:31,cefa5359-a7d8-4b02-928f-af6260cf1320,A
2019-09-15 21:33:31,cefa5359-a7d8-4b02-928f-af6260cf1320,S
2019-09-15 21:35:45,cefa5359-a7d8-4b02-928f-af6260cf1320,A
2019-09-15 21:37:51,cefa5359-a7d8-4b02-928f-af6260cf1320,S
2019-09-15 21:42:02,cefa5359-a7d8-4b02-928f-af6260cf1320,A
2019-09-15 21:46:39,cefa5359-a7d8-4b02-928f-af6260cf1320,S
2019-09-15 21:49:44,cefa5359-a7d8-4b02-928f-af6260cf1320,A
2019-09-15 21:51:54,cefa5359-a7d8-4b02-928f-af6260cf1320,S
2019-09-15 21:57:56,cefa5359-a7d8-4b02-928f-af6260cf1320,A
2019-09-15 22:00:27,cefa5359-a7d8-4b02-928f-af6260cf1320,S
2019-09-15 22:01:11,cefa5359-a7d8-4b02-928f-af6260cf1320,A
2019-09-15 22:01:15,cefa5359-a7d8-4b02-928f-af6260cf1320,S
2019-09-15 22:04:05,cefa5359-a7d8-4b02-928f-af6260cf1320,A
2019-09-15 22:12:21,cefa5359-a7d8-4b02-928f-af6260cf1320,S
2019-09-15 22:15:06,cefa5359-a7d8-4b02-928f-af6260cf1320,A
2019-09-15 22:15:09,cefa5359-a7d8-4b02-928f-af6260cf1320,S
2019-09-15 22:21:15,cefa5359-a7d8-4b02-928f-af6260cf1320,A
2019-09-15 22:25:38,cefa5359-a7d8-4b02-928f-af6260cf1320,S
2019-09-15 21:01:46,61511bb0-7c7b-4d93-a08a-4b68c6ca5076,A
2019-09-15 21:03:03,61511bb0-7c7b-4d93-a08a-4b68c6ca5076,S
2019-09-15 21:12:06,61511bb0-7c7b-4d93-a08a-4b68c6ca5076,A
2019-09-15 21:14:19,61511bb0-7c7b-4d93-a08a-4b68c6ca5076,S
2019-09-15 21:14:59,61511bb0-7c7b-4d93-a08a-4b68c6ca5076,A
2019-09-15 21:15:07,61511bb0-7c7b-4d93-a08a-4b68c6ca5076,S
2019-09-15 21:20:07,61511bb0-7c7b-4d93-a08a-4b68c6ca5076,A
2019-09-15 21:23:18,61511bb0-7c7b-4d93-a08a-4b68c6ca5076,S
2019-09-15 21:24:46,61511bb0-7c7b-4d93-a08a-4b68c6ca5076,A
2019-09-15 21:34:50,61511bb0-7c7b-4d93-a08a-4b68c6ca5076,S
2019-09-15 21:36:32,61511bb0-7c7b-4d93-a08a-4b68c6ca5076,A
2019-09-15 21:43:24,61511bb0-7c7b-4d93-a08a-4b68c6ca5076,S
2019-09-15 21:46:27,61511bb0-7c7b-4d93-a08a-4b68c6ca5076,A
2019-09-15 21:52:57,61511bb0-7c7b-4d93-a08a-4b68c6ca5076,S
2019-09-15 21:59:47,61511bb0-7c7b-4d93-a08a-4b68c6ca5076,A
2019-09-15 22:11:42,61511bb0-7c7b-4d93-a08a-4b68c6ca5076,S
2019-09-15 22:12:00,61511bb0-7c7b-4d93-a08a-4b68c6ca5076,A
2019-09-15 22:27:24,61511bb0-7c7b-4d93-a08a-4b68c6ca5076,S
2019-09-15 22:30:17,61511bb0-7c7b-4d93-a08a-4b68c6ca5076,A
2019-09-15 20:55:56,ad770031-e4ed-4685-95ae-e9fa6affb29f,A
2019-09-15 20:57:24,ad770031-e4ed-4685-95ae-e9fa6affb29f,S
2019-09-15 21:00:51,ad770031-e4ed-4685-95ae-e9fa6affb29f,A
2019-09-15 21:02:05,ad770031-e4ed-4685-95ae-e9fa6affb29f,S
2019-09-15 21:04:32,ad770031-e4ed-4685-95ae-e9fa6affb29f,A
2019-09-15 21:09:44,ad770031-e4ed-4685-95ae-e9fa6affb29f,S
2019-09-15 21:15:37,ad770031-e4ed-4685-95ae-e9fa6affb29f,A
2019-09-15 21:28:58,ad770031-e4ed-4685-95ae-e9fa6affb29f,S
2019-09-15 21:33:36,ad770031-e4ed-4685-95ae-e9fa6affb29f,A
2019-09-15 21:36:05,ad770031-e4ed-4685-95ae-e9fa6affb29f,S
2019-09-15 21:45:19,ad770031-e4ed-4685-95ae-e9fa6affb29f,A
2019-09-15 21:46:17,ad770031-e4ed-4685-95ae-e9fa6affb29f,S
2019-09-15 21:49:46,ad770031-e4ed-4685-95ae-e9fa6affb29f,A
2019-09-15 21:51:25,ad770031-e4ed-4685-95ae-e9fa6affb29f,S
2019-09-15 21:56:59,ad770031-e4ed-4685-95ae-e9fa6affb29f,A
2019-09-15 22:02:09,ad770031-e4ed-4685-95ae-e9fa6affb29f,S
2019-09-15 22:05:02,ad770031-e4ed-4685-95ae-e9fa6affb29f,A
2019-09-15 22:19:37,ad770031-e4ed-4685-95ae-e9fa6affb29f,S
2019-09-15 22:23:03,ad770031-e4ed-4685-95ae-e9fa6affb29f,A
2019-09-15 22:28:08,ad770031-e4ed-4685-95ae-e9fa6affb29f,S
2019-09-15 22:29:59,ad770031-e4ed-4685-95ae-e9fa6affb29f,A
2019-09-15 21:31:47,37c4ee9d-6007-4d05-9327-88a29e3fa714,A
2019-09-15 21:36:24,37c4ee9d-6007-4d05-9327-88a29e3fa714,S
2019-09-15 21:55:56,37c4ee9d-6007-4d05-9327-88a29e3fa714,A
2019-09-15 22:00:27,37c4ee9d-6007-4d05-9327-88a29e3fa714,S
2019-09-15 22:02:10,37c4ee9d-6007-4d05-9327-88a29e3fa714,A
2019-09-15 22:06:47,37c4ee9d-6007-4d05-9327-88a29e3fa714,S
2019-09-15 22:06:52,37c4ee9d-6007-4d05-9327-88a29e3fa714,A
2019-09-15 22:09:43,37c4ee9d-6007-4d05-9327-88a29e3fa714,S
2019-09-15 22:11:05,37c4ee9d-6007-4d05-9327-88a29e3fa714,A
2019-09-15 22:12:10,37c4ee9d-6007-4d05-9327-88a29e3fa714,S
2019-09-15 22:12:24,37c4ee9d-6007-4d05-9327-88a29e3fa714,A
2019-09-15 22:16:43,37c4ee9d-6007-4d05-9327-88a29e3fa714,S
2019-09-15 22:28:35,37c4ee9d-6007-4d05-9327-88a29e3fa714,A
2019-09-15 22:29:17,37c4ee9d-6007-4d05-9327-88a29e3fa714,S
2019-09-15 20:55:40,1732e4bc-b7c5-4665-bb1b-3ebdf13b3b87,S
2019-09-15 21:03:31,1732e4bc-b7c5-4665-bb1b-3ebdf13b3b87,A
2019-09-15 21:19:57,1732e4bc-b7c5-4665-bb1b-3ebdf13b3b87,S
2019-09-15 21:45:41,1732e4bc-b7c5-4665-bb1b-3ebdf13b3b87,A
2019-09-15 21:55:17,1732e4bc-b7c5-4665-bb1b-3ebdf13b3b87,S
2019-09-15 21:55:25,1732e4bc-b7c5-4665-bb1b-3ebdf13b3b87,A
2019-09-15 22:07:58,1732e4bc-b7c5-4665-bb1b-3ebdf13b3b87,S
2019-09-15 22:11:01,1732e4bc-b7c5-4665-bb1b-3ebdf13b3b87,A
2019-09-15 22:18:05,1732e4bc-b7c5-4665-bb1b-3ebdf13b3b87,S
2019-09-15 22:23:03,1732e4bc-b7c5-4665-bb1b-3ebdf13b3b87,A
2019-09-15 22:23:34,1732e4bc-b7c5-4665-bb1b-3ebdf13b3b87,S
2019-09-15 22:31:00,1732e4bc-b7c5-4665-bb1b-3ebdf13b3b87,A
2019-09-15 22:31:57,1732e4bc-b7c5-4665-bb1b-3ebdf13b3b87,S
2019-09-15 21:17:53,f23862b5-2308-4438-a2e6-4b0c1b57bcda,A
2019-09-15 21:21:08,f23862b5-2308-4438-a2e6-4b0c1b57bcda,S
2019-09-15 21:26:13,f23862b5-2308-4438-a2e6-4b0c1b57bcda,A
2019-09-15 21:34:48,f23862b5-2308-4438-a2e6-4b0c1b57bcda,S
2019-09-15 21:39:16,f23862b5-2308-4438-a2e6-4b0c1b57bcda,A
2019-09-15 21:42:24,f23862b5-2308-4438-a2e6-4b0c1b57bcda,S
2019-09-15 21:43:14,f23862b5-2308-4438-a2e6-4b0c1b57bcda,A
2019-09-15 21:44:37,f23862b5-2308-4438-a2e6-4b0c1b57bcda,S
2019-09-15 21:49:52,f23862b5-2308-4438-a2e6-4b0c1b57bcda,A
2019-09-15 21:55:28,f23862b5-2308-4438-a2e6-4b0c1b57bcda,S
2019-09-15 22:06:50,f23862b5-2308-4438-a2e6-4b0c1b57bcda,A
2019-09-15 22:06:54,f23862b5-2308-4438-a2e6-4b0c1b57bcda,S
2019-09-15 22:14:05,f23862b5-2308-4438-a2e6-4b0c1b57bcda,A
2019-09-15 22:25:35,f23862b5-2308-4438-a2e6-4b0c1b57bcda,S
2019-09-15 22:27:11,f23862b5-2308-4438-a2e6-4b0c1b57bcda,A
2019-09-15 22:30:18,f23862b5-2308-4438-a2e6-4b0c1b57bcda,S
2019-09-15 22:30:35,f23862b5-2308-4438-a2e6-4b0c1b57bcda,A
2019-09-15 21:29:08,c9ebf97e-5fc2-4adc-a468-8e9273609c56,A
2019-09-15 21:39:19,c9ebf97e-5fc2-4adc-a468-8e9273609c56,S
2019-09-15 21:44:29,c9ebf97e-5fc2-4adc-a468-8e9273609c56,A
2019-09-15 21:50:16,c9ebf97e-5fc2-4adc-a468-8e9273609c56,S
2019-09-15 21:59:09,c9ebf97e-5fc2-4adc-a468-8e9273609c56,A
2019-09-15 22:08:03,c9ebf97e-5fc2-4adc-a468-8e9273609c56,S
2019-09-15 22:25:21,c9ebf97e-5fc2-4adc-a468-8e9273609c56,A
2019-09-15 22:29:22,c9ebf97e-5fc2-4adc-a468-8e9273609c56,S
2019-09-15 22:31:05,c9ebf97e-5fc2-4adc-a468-8e9273609c56,A
2019-09-15 20:57:57,7acce786-a660-4424-8cc5-dd40c6161fed,A
2019-09-15 21:07:54,7acce786-a660-4424-8cc5-dd40c6161fed,S
2019-09-15 21:09:15,7acce786-a660-4424-8cc5-dd40c6161fed,A
2019-09-15 21:14:00,7acce786-a660-4424-8cc5-dd40c6161fed,S
2019-09-15 21:26:30,7acce786-a660-4424-8cc5-dd40c6161fed,A
2019-09-15 21:29:29,7acce786-a660-4424-8cc5-dd40c6161fed,S
2019-09-15 21:35:43,7acce786-a660-4424-8cc5-dd40c6161fed,A
2019-09-15 21:39:17,7acce786-a660-4424-8cc5-dd40c6161fed,S
2019-09-15 21:44:52,7acce786-a660-4424-8cc5-dd40c6161fed,A
2019-09-15 21:47:11,7acce786-a660-4424-8cc5-dd40c6161fed,S
2019-09-15 21:53:24,7acce786-a660-4424-8cc5-dd40c6161fed,A
2019-09-15 21:56:43,7acce786-a660-4424-8cc5-dd40c6161fed,S
2019-09-15 21:57:29,7acce786-a660-4424-8cc5-dd40c6161fed,A
2019-09-15 22:05:39,7acce786-a660-4424-8cc5-dd40c6161fed,S
2019-09-15 22:05:41,7acce786-a660-4424-8cc5-dd40c6161fed,A
2019-09-15 22:07:14,7acce786-a660-4424-8cc5-dd40c6161fed,S
2019-09-15 22:08:03,7acce786-a660-4424-8cc5-dd40c6161fed,A
2019-09-15 22:08:09,7acce786-a660-4424-8cc5-dd40c6161fed,S
2019-09-15 22:08:15,7acce786-a660-4424-8cc5-dd40c6161fed,A
2019-09-15 22:08:39,7acce786-a660-4424-8cc5-dd40c6161fed,S
2019-09-15 22:13:24,7acce786-a660-4424-8cc5-dd40c6161fed,A
2019-09-15 22:17:32,7acce786-a660-4424-8cc5-dd40c6161fed,S
2019-09-15 22:19:20,7acce786-a660-4424-8cc5-dd40c6161fed,A
2019-09-15 22:21:34,7acce786-a660-4424-8cc5-dd40c6161fed,S
2019-09-15 22:32:12,7acce786-a660-4424-8cc5-dd40c6161fed,A
2019-09-15 21:00:36,f84599d0-1ffc-4dfc-aa3b-fa3628b02f17,S
2019-09-15 21:10:21,f84599d0-1ffc-4dfc-aa3b-fa3628b02f17,A
2019-09-15 21:11:46,f84599d0-1ffc-4dfc-aa3b-fa3628b02f17,S
2019-09-15 21:19:59,f84599d0-1ffc-4dfc-aa3b-fa3628b02f17,A
2019-09-15 21:20:51,f84599d0-1ffc-4dfc-aa3b-fa3628b02f17,S
2019-09-15 21:21:33,f84599d0-1ffc-4dfc-aa3b-fa3628b02f17,A
2019-09-15 21:25:00,f84599d0-1ffc-4dfc-aa3b-fa3628b02f17,S
2019-09-15 21:32:47,f84599d0-1ffc-4dfc-aa3b-fa3628b02f17,A
2019-09-15 21:33:00,f84599d0-1ffc-4dfc-aa3b-fa3628b02f17,S
2019-09-15 21:38:47,f84599d0-1ffc-4dfc-aa3b-fa3628b02f17,A
2019-09-15 21:41:23,f84599d0-1ffc-4dfc-aa3b-fa3628b02f17,S
2019-09-15 21:41:28,f84599d0-1ffc-4dfc-aa3b-fa3628b02f17,A
2019-09-15 21:44:36,f84599d0-1ffc-4dfc-aa3b-fa3628b02f17,S
2019-09-15 21:45:03,f84599d0-1ffc-4dfc-aa3b-fa3628b02f17,A
2019-09-15 21:56:46,f84599d0-1ffc-4dfc-aa3b-fa3628b02f17,S
2019-09-15 21:59:16,f84599d0-1ffc-4dfc-aa3b-fa3628b02f17,A
2019-09-15 22:02:10,f84599d0-1ffc-4dfc-aa3b-fa3628b02f17,S
2019-09-15 22:02:17,f84599d0-1ffc-4dfc-aa3b-fa3628b02f17,A
2019-09-15 22:06:33,f84599d0-1ffc-4dfc-aa3b-fa3628b02f17,S
2019-09-15 22:08:50,f84599d0-1ffc-4dfc-aa3b-fa3628b02f17,A
2019-09-15 22:16:33,f84599d0-1ffc-4dfc-aa3b-fa3628b02f17,S
2019-09-15 22:25:51,f84599d0-1ffc-4dfc-aa3b-fa3628b02f17,A
2019-09-15 22:30:12,f84599d0-1ffc-4dfc-aa3b-fa3628b02f17,S
2019-09-15 21:22:45,4864ff99-3869-4804-a1ea-120fb16c790f,S
2019-09-15 21:22:47,4864ff99-3869-4804-a1ea-120fb16c790f,A
2019-09-15 21:30:42,4864ff99-3869-4804-a1ea-120fb16c790f,S
2019-09-15 21:39:13,4864ff99-3869-4804-a1ea-120fb16c790f,A
2019-09-15 21:40:57,4864ff99-3869-4804-a1ea-120fb16c790f,S
2019-09-15 21:42:22,4864ff99-3869-4804-a1ea-120fb16c790f,A
2019-09-15 21:42:23,4864ff99-3869-4804-a1ea-120fb16c790f,S
2019-09-15 21:42:31,4864ff99-3869-4804-a1ea-120fb16c790f,A
2019-09-15 21:43:04,4864ff99-3869-4804-a1ea-120fb16c790f,S
2019-09-15 21:55:11,4864ff99-3869-4804-a1ea-120fb16c790f,A
2019-09-15 22:10:47,4864ff99-3869-4804-a1ea-120fb16c790f,S
2019-09-15 22:13:22,4864ff99-3869-4804-a1ea-120fb16c790f,A
2019-09-15 22:27:02,4864ff99-3869-4804-a1ea-120fb16c790f,S
2019-09-15 22:30:31,4864ff99-3869-4804-a1ea-120fb16c790f,A
2019-09-15 22:32:47,4864ff99-3869-4804-a1ea-120fb16c790f,S
2019-09-15 21:08:15,d9780fee-bd55-4329-bba5-1a017cecd6ea,S
2019-09-15 21:29:24,d9780fee-bd55-4329-bba5-1a017cecd6ea,A
2019-09-15 21:37:59,d9780fee-bd55-4329-bba5-1a017cecd6ea,S
2019-09-15 22:01:15,d9780fee-bd55-4329-bba5-1a017cecd6ea,A
2019-09-15 22:01:25,d9780fee-bd55-4329-bba5-1a017cecd6ea,S
2019-09-15 22:04:37,d9780fee-bd55-4329-bba5-1a017cecd6ea,A
2019-09-15 22:14:25,d9780fee-bd55-4329-bba5-1a017cecd6ea,S
2019-09-15 22:20:18,d9780fee-bd55-4329-bba5-1a017cecd6ea,A
2019-09-15 22:21:30,d9780fee-bd55-4329-bba5-1a017cecd6ea,S
2019-09-15 22:27:55,d9780fee-bd55-4329-bba5-1a017cecd6ea,A
2019-09-15 22:31:58,d9780fee-bd55-4329-bba5-1a017cecd6ea,S
2019-09-15 20:56:52,35fd1534-4083-4580-800e-43c0913c6ca1,S
2019-09-15 20:57:39,35fd1534-4083-4580-800e-43c0913c6ca1,A
2019-09-15 21:04:50,35fd1534-4083-4580-800e-43c0913c6ca1,S
2019-09-15 21:08:48,35fd1534-4083-4580-800e-43c0913c6ca1,A
2019-09-15 21:09:35,35fd1534-4083-4580-800e-43c0913c6ca1,S
2019-09-15 21:10:41,35fd1534-4083-4580-800e-43c0913c6ca1,A
2019-09-15 21:27:38,35fd1534-4083-4580-800e-43c0913c6ca1,S
2019-09-15 21:27:39,35fd1534-4083-4580-800e-43c0913c6ca1,A
2019-09-15 21:29:40,35fd1534-4083-4580-800e-43c0913c6ca1,S
2019-09-15 21:31:18,35fd1534-4083-4580-800e-43c0913c6ca1,A
2019-09-15 21:38:09,35fd1534-4083-4580-800e-43c0913c6ca1,S
2019-09-15 21:38:21,35fd1534-4083-4580-800e-43c0913c6ca1,A
2019-09-15 21:53:24,35fd1534-4083-4580-800e-43c0913c6ca1,S
2019-09-15 21:58:26,35fd1534-4083-4580-800e-43c0913c6ca1,A
2019-09-15 22:02:18,35fd1534-4083-4580-800e-43c0913c6ca1,S
2019-09-15 22:13:37,35fd1534-4083-4580-800e-43c0913c6ca1,A
2019-09-15 22:21:28,35fd1534-4083-4580-800e-43c0913c6ca1,S
2019-09-15 22:23:50,35fd1534-4083-4580-800e-43c0913c6ca1,A
2019-09-15 22:27:53,35fd1534-4083-4580-800e-43c0913c6ca1,S
2019-09-15 22:28:42,35fd1534-4083-4580-800e-43c0913c6ca1,A
2019-09-15 21:01:48,761ca5b4-75df-4ec5-bd6e-4acd1fc213bd,S
2019-09-15 21:03:29,761ca5b4-75df-4ec5-bd6e-4acd1fc213bd,A
2019-09-15 21:25:11,761ca5b4-75df-4ec5-bd6e-4acd1fc213bd,S
2019-09-15 21:26:27,761ca5b4-75df-4ec5-bd6e-4acd1fc213bd,A
2019-09-15 21:27:08,761ca5b4-75df-4ec5-bd6e-4acd1fc213bd,S
2019-09-15 21:27:11,761ca5b4-75df-4ec5-bd6e-4acd1fc213bd,A
2019-09-15 21:32:42,761ca5b4-75df-4ec5-bd6e-4acd1fc213bd,S
2019-09-15 21:36:47,761ca5b4-75df-4ec5-bd6e-4acd1fc213bd,A
2019-09-15 21:47:11,761ca5b4-75df-4ec5-bd6e-4acd1fc213bd,S
2019-09-15 21:50:52,761ca5b4-75df-4ec5-bd6e-4acd1fc213bd,A
2019-09-15 21:53:35,761ca5b4-75df-4ec5-bd6e-4acd1fc213bd,S
2019-09-15 21:55:32,761ca5b4-75df-4ec5-bd6e-4acd1fc213bd,A
2019-09-15 21:57:55,761ca5b4-75df-4ec5-bd6e-4acd1fc213bd,S
2019-09-15 22:04:28,761ca5b4-75df-4ec5-bd6e-4acd1fc213bd,A
2019-09-15 22:08:16,761ca5b4-75df-4ec5-bd6e-4acd1fc213bd,S
2019-09-15 22:14:29,761ca5b4-75df-4ec5-bd6e-4acd1fc213bd,A
2019-09-15 22:18:52,761ca5b4-75df-4ec5-bd6e-4acd1fc213bd,S
2019-09-15 22:29:24,761ca5b4-75df-4ec5-bd6e-4acd1fc213bd,A
2019-09-15 22:29:44,761ca5b4-75df-4ec5-bd6e-4acd1fc213bd,S
2019-09-15 21:03:17,90b650c9-9c93-4de7-9fa4-9b92781d6767,S
2019-09-15 21:07:26,90b650c9-9c93-4de7-9fa4-9b92781d6767,A
2019-09-15 21:25:21,90b650c9-9c93-4de7-9fa4-9b92781d6767,S
2019-09-15 21:27:15,90b650c9-9c93-4de7-9fa4-9b92781d6767,A
2019-09-15 21:33:41,90b650c9-9c93-4de7-9fa4-9b92781d6767,S
2019-09-15 21:35:09,90b650c9-9c93-4de7-9fa4-9b92781d6767,A
2019-09-15 21:39:42,90b650c9-9c93-4de7-9fa4-9b92781d6767,S
2019-09-15 21:40:11,90b650c9-9c93-4de7-9fa4-9b92781d6767,A
2019-09-15 21:43:07,90b650c9-9c93-4de7-9fa4-9b92781d6767,S
2019-09-15 21:43:20,90b650c9-9c93-4de7-9fa4-9b92781d6767,A
2019-09-15 21:45:07,90b650c9-9c93-4de7-9fa4-9b92781d6767,S
2019-09-15 21:45:39,90b650c9-9c93-4de7-9fa4-9b92781d6767,A
2019-09-15 21:47:28,90b650c9-9c93-4de7-9fa4-9b92781d6767,S
2019-09-15 21:52:25,90b650c9-9c93-4de7-9fa4-9b92781d6767,A
2019-09-15 21:53:45,90b650c9-9c93-4de7-9fa4-9b92781d6767,S
2019-09-15 21:57:51,90b650c9-9c93-4de7-9fa4-9b92781d6767,A
2019-09-15 22:08:15,90b650c9-9c93-4de7-9fa4-9b92781d6767,S
2019-09-15 22:09:49,90b650c9-9c93-4de7-9fa4-9b92781d6767,A
2019-09-15 22:17:19,90b650c9-9c93-4de7-9fa4-9b92781d6767,S
2019-09-15 22:17:34,90b650c9-9c93-4de7-9fa4-9b92781d6767,A
2019-09-15 22:18:59,90b650c9-9c93-4de7-9fa4-9b92781d6767,S
2019-09-15 20:59:53,eb400070-3fbc-456b-8ac4-0d54b1cd1644,A
2019-09-15 21:00:29,eb400070-3fbc-456b-8ac4-0d54b1cd1644,S
2019-09-15 21:10:06,eb400070-3fbc-456b-8ac4-0d54b1cd1644,A
2019-09-15 21:20:53,eb400070-3fbc-456b-8ac4-0d54b1cd1644,S
2019-09-15 21:27:20,eb400070-3fbc-456b-8ac4-0d54b1cd1644,A
2019-09-15 21:28:28,eb400070-3fbc-456b-8ac4-0d54b1cd1644,S
2019-09-15 21:40:41,eb400070-3fbc-456b-8ac4-0d54b1cd1644,A
2019-09-15 21:42:36,eb400070-3fbc-456b-8ac4-0d54b1cd1644,S
2019-09-15 21:51:17,eb400070-3fbc-456b-8ac4-0d54b1cd1644,A
2019-09-15 21:53:49,eb400070-3fbc-456b-8ac4-0d54b1cd1644,S
2019-09-15 21:54:03,eb400070-3fbc-456b-8ac4-0d54b1cd1644,A
2019-09-15 21:55:35,eb400070-3fbc-456b-8ac4-0d54b1cd1644,S
2019-09-15 22:03:44,eb400070-3fbc-456b-8ac4-0d54b1cd1644,A
2019-09-15 22:07:33,eb400070-3fbc-456b-8ac4-0d54b1cd1644,S
2019-09-15 22:10:56,eb400070-3fbc-456b-8ac4-0d54b1cd1644,A
2019-09-15 22:14:24,eb400070-3fbc-456b-8ac4-0d54b1cd1644,S
2019-09-15 22:20:26,eb400070-3fbc-456b-8ac4-0d54b1cd1644,A
2019-09-15 22:30:23,eb400070-3fbc-456b-8ac4-0d54b1cd1644,S
2019-09-15 21:07:22,5a9fbd2b-ec99-4eef-af04-1666f47b4a40,S
2019-09-15 21:08:14,5a9fbd2b-ec99-4eef-af04-1666f47b4a40,A
2019-09-15 21:11:18,5a9fbd2b-ec99-4eef-af04-1666f47b4a40,S
2019-09-15 21:21:15,5a9fbd2b-ec99-4eef-af04-1666f47b4a40,A
2019-09-15 21:23:52,5a9fbd2b-ec99-4eef-af04-1666f47b4a40,S
2019-09-15 21:30:15,5a9fbd2b-ec99-4eef-af04-1666f47b4a40,A
2019-09-15 21:35:18,5a9fbd2b-ec99-4eef-af04-1666f47b4a40,S
2019-09-15 21:36:10,5a9fbd2b-ec99-4eef-af04-1666f47b4a40,A
2019-09-15 21:46:46,5a9fbd2b-ec99-4eef-af04-1666f47b4a40,S
2019-09-15 21:50:16,5a9fbd2b-ec99-4eef-af04-1666f47b4a40,A
2019-09-15 21:50:35,5a9fbd2b-ec99-4eef-af04-1666f47b4a40,S
2019-09-15 21:50:50,5a9fbd2b-ec99-4eef-af04-1666f47b4a40,A
2019-09-15 21:56:30,5a9fbd2b-ec99-4eef-af04-1666f47b4a40,S
2019-09-15 22:04:16,5a9fbd2b-ec99-4eef-af04-1666f47b4a40,A
2019-09-15 22:09:23,5a9fbd2b-ec99-4eef-af04-1666f47b4a40,S
2019-09-15 22:25:30,5a9fbd2b-ec99-4eef-af04-1666f47b4a40,A
2019-09-15 22:26:42,5a9fbd2b-ec99-4eef-af04-1666f47b4a40,S
2019-09-15 22:31:31,5a9fbd2b-ec99-4eef-af04-1666f47b4a40,A
2019-09-15 22:32:37,5a9fbd2b-ec99-4eef-af04-1666f47b4a40,S
2019-09-15 20:54:38,7e4c6fbc-8ebf-4860-9953-0ed4f66b6d7f,A
2019-09-15 20:56:34,7e4c6fbc-8ebf-4860-9953-0ed4f66b6d7f,S
2019-09-15 20:58:19,7e4c6fbc-8ebf-4860-9953-0ed4f66b6d7f,A
2019-09-15 21:00:53,7e4c6fbc-8ebf-4860-9953-0ed4f66b6d7f,S
2019-09-15 21:04:18,7e4c6fbc-8ebf-4860-9953-0ed4f66b6d7f,A
2019-09-15 21:11:29,7e4c6fbc-8ebf-4860-9953-0ed4f66b6d7f,S
2019-09-15 21:12:57,7e4c6fbc-8ebf-4860-9953-0ed4f66b6d7f,A
2019-09-15 21:26:31,7e4c6fbc-8ebf-4860-9953-0ed4f66b6d7f,S
2019-09-15 21:27:02,7e4c6fbc-8ebf-4860-9953-0ed4f66b6d7f,A
2019-09-15 21:31:39,7e4c6fbc-8ebf-4860-9953-0ed4f66b6d7f,S
2019-09-15 21:32:16,7e4c6fbc-8ebf-4860-9953-0ed4f66b6d7f,A
2019-09-15 21:38:50,7e4c6fbc-8ebf-4860-9953-0ed4f66b6d7f,S
2019-09-15 21:39:18,7e4c6fbc-8ebf-4860-9953-0ed4f66b6d7f,A
2019-09-15 21:39:22,7e4c6fbc-8ebf-4860-9953-0ed4f66b6d7f,S
2019-09-15 21:50:32,7e4c6fbc-8ebf-4860-9953-0ed4f66b6d7f,A
2019-09-15 21:51:18,7e4c6fbc-8ebf-4860-9953-0ed4f66b6d7f,S
2019-09-15 21:53:58,7e4c6fbc-8ebf-4860-9953-0ed4f66b6d7f,A
2019-09-15 21:58:41,7e4c6fbc-8ebf-4860-9953-0ed4f66b6d7f,S
2019-09-15 22:14:44,7e4c6fbc-8ebf-4860-9953-0ed4f66b6d7f,A
2019-09-15 22:17:58,7e4c6fbc-8ebf-4860-9953-0ed4f66b6d7f,S
2019-09-15 22:20:44,7e4c6fbc-8ebf-4860-9953-0ed4f66b6d7f,A
2019-09-15 22:21:14,7e4c6fbc-8ebf-4860-9953-0ed4f66b6d7f,S
