actor,node
f346bd95-de77-46c8-89df-9332bd60eaad,15015031-53d5-4c71-a464-fe4329286b2c
50f7a70a-eebc-4a4d-8aeb-47012d1ac4e2,030ab3dd-82e4-4240-a8e2-a91275c09061
ec4cbcd8-450d-4414-bb56-4020d461bc19,15015031-53d5-4c71-a464-fe4329286b2c
c750c2de-9fd6-4802-b716-295ab20f561a,3ea921e7-845c-4bf0-aa31-0e23e681ce3b
54fdc56f-44d5-497d-bfcb-c83063783e71,37f7c036-db53-4f04-ba9a-9a3562f5af45
29f1bbd4-b96a-4c02-b545-9d2fa5105e4b,3ea921e7-845c-4bf0-aa31-0e23e681ce3b
69aee39b-3725-4bc2-94b9-5cd5bc087fa8,a8eff7bc-110c-40dc-b528-005baf0b2e45
871d4bcb-4951-40d3-9abd-0115c4bf0e6a,a8eff7bc-110c-40dc-b528-005baf0b2e45
924bcdb5-8eb9-45fb-8a81-000c1334673e,2c2e7169-f385-4970-9d49-f36a02ef7abc
d445e50a-2c14-42af-98ee-376aa34dcffa,3adf684b-5e2e-4022-89dd-27193e3cca38
2b356083-f362-48b2-9916-45eca620f669,9894448d-a1ca-49a1-b3c1-8e72a39b7be3
f014e120-bc1a-4c49-b895-ea0220f7c5cd,9894448d-a1ca-49a1-b3c1-8e72a39b7be3
55f23b4a-0ea8-42d8-a69b-5b19a6b572bc,f274f730-7118-4d61-8116-44ad9bf8597d
c7fac20e-ad3c-49cd-9e82-6561e16b5606,4c9c419f-e94f-433f-b491-2cf17717eee8
aae0d5e5-fcd4-4357-aa31-6d1063084d03,4c9c419f-e94f-433f-b491-2cf17717eee8
e5123988-d6c6-4455-af80-0c28a1915c48,f5dc53b6-ff62-48ae-b1b4-eb5a28be5e7d
d495c5d6-fc91-41fb-b791-518d615f81ab,64ba4989-ae07-423b-8057-65717601a504
c25b0563-b5d2-4783-aff8-c8c69efcc666,64ba4989-ae07-423b-8057-65717601a504
7a6c515b-b47a-419a-a6c4-ac8dbcd68b46,9f1bbedb-d6dd-4839-9ab4-8214bbd4ddfc
03046b55-17d9-42d0-8519-ca8c0dd511fe,6158cc53-a2fd-4caa-accc-fbeab139d945
cc7f27ba-2994-487a-a6d2-6c32bc909b5d,6158cc53-a2fd-4caa-accc-fbeab139d945
af3292f3-6d4a-476a-a830-536a5553355c,36dce767-2f2a-4bdb-bc49-d2bbb9074ade
af8e555f-706c-4c53-a987-dce0fe314338,36dce767-2f2a-4bdb-bc49-d2bbb9074ade
ede49090-e927-4864-9ec9-c3e7ae3cf6e4,6ae4091e-0f25-433a-8219-7fd025400146
6558307a-5585-4b48-b856-02dfafc8d388,5ae6aeec-3f46-44fc-bb7f-0fb9669ff69c
f58ae715-f497-4747-a8e4-c3bc148b23b3,53590b8f-e702-401e-8b7a-10cba262858d
05c45979-6f4f-4b09-8818-f755a8fad035,53590b8f-e702-401e-8b7a-10cba262858d
e7894deb-37f1-48fc-a0d3-e024989f5a51,7e2e8852-716f-454c-8ab6-b2ab9a666de0
cee705b3-6419-490c-8d05-02e629e2b4e1,ad43aa94-f716-44a3-9037-6403e372fadd
3a8d774e-0b14-4e2b-ad9c-c9746086b4d2,ad43aa94-f716-44a3-9037-6403e372fadd
cc2a7f66-4f06-4701-8339-14fb2f3daf66,63f2532d-274d-4ebc-ba7a-2dccd093a3cb
d80c4a36-244b-4bc1-a39a-462147eeb057,ffc11533-0ec5-447d-a2e8-3f28338b0d05
4c805607-7877-4ce0-a650-c4b1c4a99921,63f2532d-274d-4ebc-ba7a-2dccd093a3cb
05895566-0259-4577-aaf8-ddce35b8ca74,20bf1a7e-84d6-4325-84be-520aad6ebc3f
1dd31f4f-a701-4770-8e64-c6e822dd2293,50fbc8a1-9674-4df8-8c51-f29a094ce9df
5c4f5971-0626-4736-8d14-a3847f3c53ff,50fbc8a1-9674-4df8-8c51-f29a094ce9df
9b9d8fc6-112d-4a8c-b10c-1d4809f3b742,c6c12243-f3cf-45e9-862e-93de3384b3ab
2cc12f9c-69f8-4e3d-8cbc-7d8a6333fb45,a6e61268-b2f6-4d0f-ade5-248d0fe9434d
2a726c92-dfc1-450d-ad45-a4389d423a83,c6c12243-f3cf-45e9-862e-93de3384b3ab
1286d58a-543b-4934-b7cd-b94b16158e1e,e697ddc4-13c4-442f-8da2-21ad5ed6446f
92724413-5db1-42e2-9ece-877dc011574b,e697ddc4-13c4-442f-8da2-21ad5ed6446f
abb0b3a6-99b2-4c0a-b147-5f7f00187bc7,a6c7e8a2-8f93-43ce-8d95-e4023242a99e
56a11d06-8d2c-4c04-9119-0dbc07a4d9f5,9ae1e65f-e872-4792-b947-f29ab931449f
388d4e43-957c-4adf-977b-73a8dd91de4d,9ae1e65f-e872-4792-b947-f29ab931449f
4d8faccf-6c65-4f51-9940-1c8c9ad3a120,3bdc98f6-47fd-435c-b743-3668cef5cb9d
1940b0e3-858a-45b0-8722-58b701e6184e,15015031-53d5-4c71-a464-fe4329286b2c
0fbe9166-62e9-49af-96d9-6a0ba9b61285,15015031-53d5-4c71-a464-fe4329286b2c
f30ceb41-9cd7-43a2-9f8e-b363f70f4b54,441b8933-80b2-4570-a0e0-8a977ad78040
0ec1c6c3-3869-4e16-8803-14cf3ec4675e,29f86309-4cd0-4306-bf24-bb5a7306e416
3da9ee1f-8109-4d54-ae86-3b81342f2c67,3ea921e7-845c-4bf0-aa31-0e23e681ce3b
18822845-0be4-468a-b234-27fb130646cd,3ea921e7-845c-4bf0-aa31-0e23e681ce3b
1852458d-3388-4e67-b414-983273f5d6e6,51d73429-8809-4029-8eb8-301114d311c8
6e237b1e-2895-4541-bc09-8dd10d8b35af,a8eff7bc-110c-40dc-b528-005baf0b2e45
4e1a934f-510f-44d5-8a74-2782cb1610e2,a8eff7bc-110c-40dc-b528-005baf0b2e45
de5bca3b-d338-4cfb-b152-4ecb9ed1dcdb,9894448d-a1ca-49a1-b3c1-8e72a39b7be3
f90183c7-a5b8-482b-93c4-ee6652c943cf,9894448d-a1ca-49a1-b3c1-8e72a39b7be3
97a3ed28-f84f-475d-8602-b62e6ceae4bc,bd01dd4e-601d-4eec-b795-92a95fa8e080
1a3cbd98-a76c-41ee-8733-ab02c2765db7,4c9c419f-e94f-433f-b491-2cf17717eee8
2279ce4d-485d-484a-b307-a08b17989de0,4c9c419f-e94f-433f-b491-2cf17717eee8
bb588ad6-9499-45c4-9cfa-a09c2faa1d1b,b99d8405-433d-4053-a28b-b4762f75dfad
0aa252ba-2d49-4572-9053-c439e4f8353e,ff1330fc-4664-40b9-b4e9-23caf83b5559
4f7b7c90-919d-4b8c-9be4-f8c292665f84,64ba4989-ae07-423b-8057-65717601a504
43b11e5b-0466-42e4-918b-cbd803c806fa,64ba4989-ae07-423b-8057-65717601a504
0e1bae0a-2936-4b98-9514-244b63ea8de9,6158cc53-a2fd-4caa-accc-fbeab139d945
970a42fd-b29e-4792-90b0-7a5bb7c4a475,6158cc53-a2fd-4caa-accc-fbeab139d945
65e144e1-35e5-4092-8bb9-2fde799cf553,ed6c0494-e055-49ae-9ced-9d16fdb269ce
1fd570c5-2ff2-42ed-ba6d-ab9e994ab29e,36dce767-2f2a-4bdb-bc49-d2bbb9074ade
671e99f2-354e-4907-b565-4eb7059e6709,13b45ee1-5aa7-4045-b1be-098554e633cd
e1a68ddb-1747-4ad8-b802-86c187049f2d,36dce767-2f2a-4bdb-bc49-d2bbb9074ade
d74897bc-2726-4707-af1d-31795bcb8435,53590b8f-e702-401e-8b7a-10cba262858d
a6a991a3-adfe-41c4-97e5-22164b1dbd05,53590b8f-e702-401e-8b7a-10cba262858d
3ba1680e-192c-41db-9083-dbed911b51d5,72251c3c-d814-4b8a-9edb-e261c6f04471
9e86eeee-ea74-4164-bad2-fd7a1a5ec9e8,ad43aa94-f716-44a3-9037-6403e372fadd
ffb5d598-8318-4f43-85f9-18f79abac72d,ad43aa94-f716-44a3-9037-6403e372fadd
6db7f3be-94a6-4690-a2f8-6cdfe57d500e,9d126986-2463-412b-a785-fcd3e6c402bc
a5a98c07-9726-4b0c-b2af-4d94b8f62669,aca65834-0002-471b-aa55-976669b4e7e1
943668c4-d253-41ac-abcf-517188962a67,63f2532d-274d-4ebc-ba7a-2dccd093a3cb
d9c9ad93-3835-4aa1-86b4-901cfeb73ebb,63f2532d-274d-4ebc-ba7a-2dccd093a3cb
476ab409-23e2-4a62-a41c-8bdab4f0ffb4,50fbc8a1-9674-4df8-8c51-f29a094ce9df
b10bf370-6d6d-4989-86a7-2051da9a51d8,6ab5b390-6427-4ef6-bdad-c7cee4493756
58cf2cfb-12d3-4765-a447-263b3726b3d9,50fbc8a1-9674-4df8-8c51-f29a094ce9df
4ecd7024-20eb-4e27-9f9b-9ff4bc61b72d,888e5c8a-3df5-42d1-bc4e-80171adf81d9
c611ef9b-fb14-4afd-9a97-459e6bdc70c8,c6c12243-f3cf-45e9-862e-93de3384b3ab
d535dfc5-5cb8-4442-9380-63dd1b5d7b57,c6c12243-f3cf-45e9-862e-93de3384b3ab
523f9969-2f90-47fe-aed7-9e54de855d90,e697ddc4-13c4-442f-8da2-21ad5ed6446f
59c76b4a-a58b-4b44-b20f-ef8d0f38ead0,e697ddc4-13c4-442f-8da2-21ad5ed6446f
77a4b6e7-a488-4d47-9810-704b73cc0b16,8dacb8e1-0745-4c79-930f-02f5369194e5
77e4b6ea-7b75-4053-8cfe-ad4076ff39b2,9ae1e65f-e872-4792-b947-f29ab931449f
c3278bb7-64eb-4fcd-a028-31fffbe60a42,9ae1e65f-e872-4792-b947-f29ab931449f
2a931789-f99b-4be6-ac85-83f8603ef7c1,7db838ca-e3ac-4da7-8ce2-170304bd6817
3c238a22-714f-4813-ba3c-f3bd060966ef,15015031-53d5-4c71-a464-fe4329286b2c
0c9009bf-bfdd-4511-b765-3e9ca4e13713,15015031-53d5-4c71-a464-fe4329286b2c
f625e9a5-24f4-47fb-9496-d2070bdd723c,b0e25fe6-867b-4dcf-bc2a-020fedfc707b
34dfd1db-40d7-41c3-87ee-e11b11ccf387,3ea921e7-845c-4bf0-aa31-0e23e681ce3b
a4f3e349-e8db-4d6c-bde2-03f3aeb08e2d,ad901ad1-a68b-4d4f-8193-46bc3806d9df
da4ee183-680a-4597-a1e7-a1cdb3c81af6,3ea921e7-845c-4bf0-aa31-0e23e681ce3b
7ec5f910-5423-484a-b155-a956272a8f81,a8eff7bc-110c-40dc-b528-005baf0b2e45
d13435ab-4f61-43b1-b228-452608df7996,a8eff7bc-110c-40dc-b528-005baf0b2e45
3c142fb0-3a16-45d0-81e5-64d0eb1ea2a1,f2542beb-c1e6-4c39-a9f4-b0013bce5b2d
a12deb98-cf3b-44f7-8e77-a0d2eb2d8d71,5a632667-023f-4ba4-9ac0-78033fc397d3
7e57babe-2755-468e-8f0b-d9e54b83d29e,9894448d-a1ca-49a1-b3c1-8e72a39b7be3
71ecf445-08f6-4091-bdbc-49d8c72f79dc,9894448d-a1ca-49a1-b3c1-8e72a39b7be3
ed2eda51-2db0-45c2-a441-f4c20ef83523,4c9c419f-e94f-433f-b491-2cf17717eee8
b39f5105-d1af-40ed-9984-6670dfafc787,4c9c419f-e94f-433f-b491-2cf17717eee8
bbd948d6-d864-4e6a-9446-f80c182f90b1,88b3f050-26df-45f6-a605-41d0aabd0f9c
b908b37e-7904-420a-be45-1a046de169df,64ba4989-ae07-423b-8057-65717601a504
e7548f22-644b-44b7-b7d6-bc2c525a37c8,ba1dbca6-be3c-4e49-af5d-ce05528fdfda
94959c5a-6e2c-446e-ba97-bd428884a0bf,64ba4989-ae07-423b-8057-65717601a504
49d3e1ab-f73b-457b-87e7-d0a0010bb5aa,6158cc53-a2fd-4caa-accc-fbeab139d945
6e590559-bd03-49b6-80eb-13c0e6c81e81,551894c4-debd-45fc-b286-000e59393f3e
675a5291-455e-4bdd-8194-194674289f1b,6158cc53-a2fd-4caa-accc-fbeab139d945
a7b1bcb1-498f-4ff6-9d9b-cb893e73e9aa,92042c6c-5a57-4b38-be8d-07309fb2572d
70b2f8e3-9a16-4116-839c-e927e41b56bb,36dce767-2f2a-4bdb-bc49-d2bbb9074ade
916be868-7031-4e80-9dc5-aee9159d4d0d,36dce767-2f2a-4bdb-bc49-d2bbb9074ade
fa8c54bd-8626-441e-bc15-c20372f62a05,53590b8f-e702-401e-8b7a-10cba262858d
5e69f86b-5c89-4341-9a7c-42cad76e6710,d8db692e-477d-4069-80c1-23b46bca451a
b7a1ef9f-c740-4371-8eb8-6687744e6971,53590b8f-e702-401e-8b7a-10cba262858d
729572df-254f-438b-ba42-99de9acfb707,ad43aa94-f716-44a3-9037-6403e372fadd
b50393bf-c0d7-4447-b33d-d769ef17c20e,ad43aa94-f716-44a3-9037-6403e372fadd
7c8bec89-d7eb-43c1-b56a-1042e5f145ed,12785521-35ba-4ff0-9639-87c7775cb847
71b3a3f7-e875-4e91-83ba-4be2e1a9e121,63f2532d-274d-4ebc-ba7a-2dccd093a3cb
a0584c50-52ba-45c6-a41c-0422e8b18f60,63f2532d-274d-4ebc-ba7a-2dccd093a3cb
9bb2a9b9-a196-440c-bae8-a267bdc8e618,8bfa7eae-aa02-40df-999f-a3135465539e
87e666c3-f91c-48de-a0c3-ca47d3228f24,50fbc8a1-9674-4df8-8c51-f29a094ce9df
006dd066-3dc9-48e8-88a7-48ad88f71d10,50fbc8a1-9674-4df8-8c51-f29a094ce9df
9282985a-8354-4d51-acba-aa0656d1656b,137698a0-001e-46ac-9953-9d6fbdc5231e
99fcb895-48e0-4f26-be39-bbc11bbd4a6e,c0c1de62-a458-4307-afeb-2fe8868e6f52
ad4fa53f-f1e6-421c-bcdd-8622c3c28306,c6c12243-f3cf-45e9-862e-93de3384b3ab
81e18e88-8a74-4b02-9434-673f77df34f2,c6c12243-f3cf-45e9-862e-93de3384b3ab
d73085fc-75a6-436d-8b06-e6d55b3207af,e697ddc4-13c4-442f-8da2-21ad5ed6446f
667e395a-08a8-4b66-8d16-33910b5f6ab5,e697ddc4-13c4-442f-8da2-21ad5ed6446f
cd57fec1-4a52-4410-82db-10e62fc1a91e,4644aa2f-4d4d-430d-bb6f-94f16c5c49a3
816dc7c8-d3e1-4a3a-8db1-f1d977462d08,9ae1e65f-e872-4792-b947-f29ab931449f
26cb1366-40d1-4563-aea0-dce93bd73f45,9ae1e65f-e872-4792-b947-f29ab931449f
7834c16b-ae72-47a9-8539-8f561cfe771e,da4ccdee-1ec9-4336-ab55-8001731c9645
41837ee1-cdc8-4fcf-aa15-378d9c0c8c69,c3354616-8fe2-44fb-af63-69992721cd79
7f8ae1a2-6dfb-4589-818f-f01679606b95,15015031-53d5-4c71-a464-fe4329286b2c
23956133-46df-40d6-83fe-879de592ef2c,15015031-53d5-4c71-a464-fe4329286b2c
eac02d16-82db-4303-b6eb-d329c6a00a38,1d5b9cbf-5094-4b2a-8ac3-eb5efc9b8e26
1f806306-f9d8-4978-afb1-aa097564e80c,3ea921e7-845c-4bf0-aa31-0e23e681ce3b
2f30847f-15b9-48a9-ad37-2b528b119214,3ea921e7-845c-4bf0-aa31-0e23e681ce3b
17ed7a35-7a71-486d-bafc-62cd5ad23da8,2dac2f70-3136-4043-829c-472bd4c3ed54
88b6ff36-59f8-4b9c-ab5a-e268559793e2,a8eff7bc-110c-40dc-b528-005baf0b2e45
cfd68d6b-99d3-4b81-b455-8e1422075263,a8eff7bc-110c-40dc-b528-005baf0b2e45
ce1d094b-0733-44eb-a82a-45d2030c03e4,9894448d-a1ca-49a1-b3c1-8e72a39b7be3
91c9dc5f-1ee0-4e9b-b825-3e07d7843881,3ed20cd5-1f3f-4f7f-8116-08adeee45b97
998b9f2a-6db1-4ed3-b4cd-920c32073d4d,9894448d-a1ca-49a1-b3c1-8e72a39b7be3
a6df98e3-b7b4-4a3e-8fd8-7f0e7fa1d660,213500f1-41a7-4713-973b-b14048f31d71
6762c2ce-416d-4fb3-bf5f-364c01695ef2,4c9c419f-e94f-433f-b491-2cf17717eee8
3b59c577-274b-4d30-9988-fa2d3070fd3b,4c9c419f-e94f-433f-b491-2cf17717eee8
