date,trigger,state
2019-11-08 03:37:06,e5123988-d6c6-4455-af80-0c28a1915c48,S
2019-11-08 03:42:04,e5123988-d6c6-4455-af80-0c28a1915c48,A
2019-11-08 03:42:25,e5123988-d6c6-4455-af80-0c28a1915c48,S
2019-11-08 03:47:10,e5123988-d6c6-4455-af80-0c28a1915c48,A
2019-11-08 03:52:07,e5123988-d6c6-4455-af80-0c28a1915c48,S
2019-11-08 03:54:09,e5123988-d6c6-4455-af80-0c28a1915c48,A
2019-11-08 04:04:14,e5123988-d6c6-4455-af80-0c28a1915c48,S
2019-11-08 04:06:55,e5123988-d6c6-4455-af80-0c28a1915c48,A
2019-11-08 04:07:50,e5123988-d6c6-4455-af80-0c28a1915c48,S
2019-11-08 04:15:52,e5123988-d6c6-4455-af80-0c28a1915c48,A
2019-11-08 04:24:40,e5123988-d6c6-4455-af80-0c28a1915c48,S
2019-11-08 04:26:50,e5123988-d6c6-4455-af80-0c28a1915c48,A
2019-11-08 04:26:59,e5123988-d6c6-4455-af80-0c28a1915c48,S
2019-11-08 04:46:16,e5123988-d6c6-4455-af80-0c28a1915c48,A
2019-11-08 04:48:30,e5123988-d6c6-4455-af80-0c28a1915c48,S
2019-11-08 05:06:04,e5123988-d6c6-4455-af80-0c28a1915c48,A
2019-11-08 05:16:15,e5123988-d6c6-4455-af80-0c28a1915c48,S
2019-11-08 03:41:24,d80c4a36-244b-4bc1-a39a-462147eeb057,S
2019-11-08 03:53:19,d80c4a36-244b-4bc1-a39a-462147eeb057,A
2019-11-08 03:53:38,d80c4a36-244b-4bc1-a39a-462147eeb057,S
2019-11-08 04:09:02,d80c4a36-244b-4bc1-a39a-462147eeb057,A
2019-11-08 04:11:54,d80c4a36-244b-4bc1-a39a-462147eeb057,S
2019-11-08 04:13:54,d80c4a36-244b-4bc1-a39a-462147eeb057,A
2019-11-08 04:22:01,d80c4a36-244b-4bc1-a39a-462147eeb057,S
2019-11-08 04:22:57,d80c4a36-244b-4bc1-a39a-462147eeb057,A
2019-11-08 04:25:10,d80c4a36-244b-4bc1-a39a-462147eeb057,S
2019-11-08 04:39:34,d80c4a36-244b-4bc1-a39a-462147eeb057,A
2019-11-08 04:44:53,d80c4a36-244b-4bc1-a39a-462147eeb057,S
2019-11-08 04:46:26,d80c4a36-244b-4bc1-a39a-462147eeb057,A
2019-11-08 04:47:13,d80c4a36-244b-4bc1-a39a-462147eeb057,S
2019-11-08 04:49:10,d80c4a36-244b-4bc1-a39a-462147eeb057,A
2019-11-08 04:52:28,d80c4a36-244b-4bc1-a39a-462147eeb057,S
2019-11-08 04:52:35,d80c4a36-244b-4bc1-a39a-462147eeb057,A
2019-11-08 05:04:54,d80c4a36-244b-4bc1-a39a-462147eeb057,S
2019-11-08 05:06:14,d80c4a36-244b-4bc1-a39a-462147eeb057,A
2019-11-08 05:11:06,d80c4a36-244b-4bc1-a39a-462147eeb057,S
2019-11-08 05:14:32,d80c4a36-244b-4bc1-a39a-462147eeb057,A
2019-11-08 05:15:46,d80c4a36-244b-4bc1-a39a-462147eeb057,S
2019-11-08 05:16:28,d80c4a36-244b-4bc1-a39a-462147eeb057,A
2019-11-08 05:29:09,d80c4a36-244b-4bc1-a39a-462147eeb057,S
2019-11-08 03:41:50,d445e50a-2c14-42af-98ee-376aa34dcffa,A
2019-11-08 03:45:16,d445e50a-2c14-42af-98ee-376aa34dcffa,S
2019-11-08 03:50:21,d445e50a-2c14-42af-98ee-376aa34dcffa,A
2019-11-08 03:52:11,d445e50a-2c14-42af-98ee-376aa34dcffa,S
2019-11-08 04:02:43,d445e50a-2c14-42af-98ee-376aa34dcffa,A
2019-11-08 04:03:17,d445e50a-2c14-42af-98ee-376aa34dcffa,S
2019-11-08 04:11:42,d445e50a-2c14-42af-98ee-376aa34dcffa,A
2019-11-08 04:14:02,d445e50a-2c14-42af-98ee-376aa34dcffa,S
2019-11-08 04:22:26,d445e50a-2c14-42af-98ee-376aa34dcffa,A
2019-11-08 04:40:52,d445e50a-2c14-42af-98ee-376aa34dcffa,S
2019-11-08 04:42:08,d445e50a-2c14-42af-98ee-376aa34dcffa,A
2019-11-08 04:42:19,d445e50a-2c14-42af-98ee-376aa34dcffa,S
2019-11-08 04:45:31,d445e50a-2c14-42af-98ee-376aa34dcffa,A
2019-11-08 04:54:22,d445e50a-2c14-42af-98ee-376aa34dcffa,S
2019-11-08 05:09:27,d445e50a-2c14-42af-98ee-376aa34dcffa,A
2019-11-08 05:09:44,d445e50a-2c14-42af-98ee-376aa34dcffa,S
2019-11-08 05:20:16,d445e50a-2c14-42af-98ee-376aa34dcffa,A
2019-11-08 03:26:26,924bcdb5-8eb9-45fb-8a81-000c1334673e,S
2019-11-08 03:27:32,924bcdb5-8eb9-45fb-8a81-000c1334673e,A
2019-11-08 03:28:46,924bcdb5-8eb9-45fb-8a81-000c1334673e,S
2019-11-08 03:32:24,924bcdb5-8eb9-45fb-8a81-000c1334673e,A
2019-11-08 03:35:08,924bcdb5-8eb9-45fb-8a81-000c1334673e,S
2019-11-08 03:40:18,924bcdb5-8eb9-45fb-8a81-000c1334673e,A
2019-11-08 03:41:36,924bcdb5-8eb9-45fb-8a81-000c1334673e,S
2019-11-08 03:47:36,924bcdb5-8eb9-45fb-8a81-000c1334673e,A
2019-11-08 03:58:52,924bcdb5-8eb9-45fb-8a81-000c1334673e,S
2019-11-08 04:02:32,924bcdb5-8eb9-45fb-8a81-000c1334673e,A
2019-11-08 04:07:04,924bcdb5-8eb9-45fb-8a81-000c1334673e,S
2019-11-08 04:18:32,924bcdb5-8eb9-45fb-8a81-000c1334673e,A
2019-11-08 04:31:59,924bcdb5-8eb9-45fb-8a81-000c1334673e,S
2019-11-08 04:32:57,924bcdb5-8eb9-45fb-8a81-000c1334673e,A
2019-11-08 04:34:30,924bcdb5-8eb9-45fb-8a81-000c1334673e,S
2019-11-08 04:35:16,924bcdb5-8eb9-45fb-8a81-000c1334673e,A
2019-11-08 04:36:25,924bcdb5-8eb9-45fb-8a81-000c1334673e,S
2019-11-08 04:45:01,924bcdb5-8eb9-45fb-8a81-000c1334673e,A
2019-11-08 04:46:59,924bcdb5-8eb9-45fb-8a81-000c1334673e,S
2019-11-08 04:48:47,924bcdb5-8eb9-45fb-8a81-000c1334673e,A
2019-11-08 04:53:35,924bcdb5-8eb9-45fb-8a81-000c1334673e,S
2019-11-08 05:02:28,924bcdb5-8eb9-45fb-8a81-000c1334673e,A
2019-11-08 05:13:20,924bcdb5-8eb9-45fb-8a81-000c1334673e,S
2019-11-08 05:17:16,924bcdb5-8eb9-45fb-8a81-000c1334673e,A
2019-11-08 05:17:34,924bcdb5-8eb9-45fb-8a81-000c1334673e,S
2019-11-08 05:23:13,924bcdb5-8eb9-45fb-8a81-000c1334673e,A
2019-11-08 05:29:38,924bcdb5-8eb9-45fb-8a81-000c1334673e,S
2019-11-08 05:29:39,924bcdb5-8eb9-45fb-8a81-000c1334673e,A
2019-11-08 04:06:18,7c8bec89-d7eb-43c1-b56a-1042e5f145ed,A
2019-11-08 04:13:32,7c8bec89-d7eb-43c1-b56a-1042e5f145ed,S
2019-11-08 04:15:26,7c8bec89-d7eb-43c1-b56a-1042e5f145ed,A
2019-11-08 04:20:17,7c8bec89-d7eb-43c1-b56a-1042e5f145ed,S
2019-11-08 04:27:32,7c8bec89-d7eb-43c1-b56a-1042e5f145ed,A
2019-11-08 04:34:28,7c8bec89-d7eb-43c1-b56a-1042e5f145ed,S
2019-11-08 04:35:02,7c8bec89-d7eb-43c1-b56a-1042e5f145ed,A
2019-11-08 04:35:27,7c8bec89-d7eb-43c1-b56a-1042e5f145ed,S
2019-11-08 04:36:50,7c8bec89-d7eb-43c1-b56a-1042e5f145ed,A
2019-11-08 04:37:28,7c8bec89-d7eb-43c1-b56a-1042e5f145ed,S
2019-11-08 04:39:45,7c8bec89-d7eb-43c1-b56a-1042e5f145ed,A
2019-11-08 04:46:06,7c8bec89-d7eb-43c1-b56a-1042e5f145ed,S
2019-11-08 04:47:30,7c8bec89-d7eb-43c1-b56a-1042e5f145ed,A
2019-11-08 04:50:11,7c8bec89-d7eb-43c1-b56a-1042e5f145ed,S
2019-11-08 04:50:46,7c8bec89-d7eb-43c1-b56a-1042e5f145ed,A
2019-11-08 04:52:06,7c8bec89-d7eb-43c1-b56a-1042e5f145ed,S
2019-11-08 05:11:27,7c8bec89-d7eb-43c1-b56a-1042e5f145ed,A
2019-11-08 05:29:28,7c8bec89-d7eb-43c1-b56a-1042e5f145ed,S
2019-11-08 05:30:31,7c8bec89-d7eb-43c1-b56a-1042e5f145ed,A
2019-11-08 03:38:00,2cc12f9c-69f8-4e3d-8cbc-7d8a6333fb45,S
2019-11-08 03:42:07,2cc12f9c-69f8-4e3d-8cbc-7d8a6333fb45,A
2019-11-08 03:52:30,2cc12f9c-69f8-4e3d-8cbc-7d8a6333fb45,S
2019-11-08 03:54:04,2cc12f9c-69f8-4e3d-8cbc-7d8a6333fb45,A
2019-11-08 04:01:34,2cc12f9c-69f8-4e3d-8cbc-7d8a6333fb45,S
2019-11-08 04:01:50,2cc12f9c-69f8-4e3d-8cbc-7d8a6333fb45,A
2019-11-08 04:03:15,2cc12f9c-69f8-4e3d-8cbc-7d8a6333fb45,S
2019-11-08 04:20:31,2cc12f9c-69f8-4e3d-8cbc-7d8a6333fb45,A
2019-11-08 04:26:17,2cc12f9c-69f8-4e3d-8cbc-7d8a6333fb45,S
2019-11-08 04:29:52,2cc12f9c-69f8-4e3d-8cbc-7d8a6333fb45,A
2019-11-08 04:33:04,2cc12f9c-69f8-4e3d-8cbc-7d8a6333fb45,S
2019-11-08 04:33:21,2cc12f9c-69f8-4e3d-8cbc-7d8a6333fb45,A
2019-11-08 04:51:56,2cc12f9c-69f8-4e3d-8cbc-7d8a6333fb45,S
2019-11-08 04:52:22,2cc12f9c-69f8-4e3d-8cbc-7d8a6333fb45,A
2019-11-08 04:55:12,2cc12f9c-69f8-4e3d-8cbc-7d8a6333fb45,S
2019-11-08 05:08:45,2cc12f9c-69f8-4e3d-8cbc-7d8a6333fb45,A
2019-11-08 05:12:03,2cc12f9c-69f8-4e3d-8cbc-7d8a6333fb45,S
2019-11-08 05:14:31,2cc12f9c-69f8-4e3d-8cbc-7d8a6333fb45,A
2019-11-08 05:15:08,2cc12f9c-69f8-4e3d-8cbc-7d8a6333fb45,S
2019-11-08 05:20:21,2cc12f9c-69f8-4e3d-8cbc-7d8a6333fb45,A
2019-11-08 05:25:02,2cc12f9c-69f8-4e3d-8cbc-7d8a6333fb45,S
2019-11-08 05:28:58,2cc12f9c-69f8-4e3d-8cbc-7d8a6333fb45,A
2019-11-08 05:30:51,2cc12f9c-69f8-4e3d-8cbc-7d8a6333fb45,S
2019-11-08 03:41:21,0ec1c6c3-3869-4e16-8803-14cf3ec4675e,A
2019-11-08 03:44:12,0ec1c6c3-3869-4e16-8803-14cf3ec4675e,S
2019-11-08 03:49:19,0ec1c6c3-3869-4e16-8803-14cf3ec4675e,A
2019-11-08 04:04:46,0ec1c6c3-3869-4e16-8803-14cf3ec4675e,S
2019-11-08 04:13:49,0ec1c6c3-3869-4e16-8803-14cf3ec4675e,A
2019-11-08 04:23:32,0ec1c6c3-3869-4e16-8803-14cf3ec4675e,S
2019-11-08 04:32:02,0ec1c6c3-3869-4e16-8803-14cf3ec4675e,A
2019-11-08 04:32:48,0ec1c6c3-3869-4e16-8803-14cf3ec4675e,S
2019-11-08 04:33:07,0ec1c6c3-3869-4e16-8803-14cf3ec4675e,A
2019-11-08 04:41:46,0ec1c6c3-3869-4e16-8803-14cf3ec4675e,S
2019-11-08 04:44:44,0ec1c6c3-3869-4e16-8803-14cf3ec4675e,A
2019-11-08 04:44:47,0ec1c6c3-3869-4e16-8803-14cf3ec4675e,S
2019-11-08 04:45:58,0ec1c6c3-3869-4e16-8803-14cf3ec4675e,A
2019-11-08 04:47:48,0ec1c6c3-3869-4e16-8803-14cf3ec4675e,S
2019-11-08 04:49:39,0ec1c6c3-3869-4e16-8803-14cf3ec4675e,A
2019-11-08 04:50:38,0ec1c6c3-3869-4e16-8803-14cf3ec4675e,S
2019-11-08 04:52:21,0ec1c6c3-3869-4e16-8803-14cf3ec4675e,A
2019-11-08 05:01:37,0ec1c6c3-3869-4e16-8803-14cf3ec4675e,S
2019-11-08 05:03:44,0ec1c6c3-3869-4e16-8803-14cf3ec4675e,A
2019-11-08 05:04:42,0ec1c6c3-3869-4e16-8803-14cf3ec4675e,S
2019-11-08 05:07:09,0ec1c6c3-3869-4e16-8803-14cf3ec4675e,A
2019-11-08 05:15:55,0ec1c6c3-3869-4e16-8803-14cf3ec4675e,S
2019-11-08 05:18:12,0ec1c6c3-3869-4e16-8803-14cf3ec4675e,A
2019-11-08 05:23:04,0ec1c6c3-3869-4e16-8803-14cf3ec4675e,S
2019-11-08 05:23:12,0ec1c6c3-3869-4e16-8803-14cf3ec4675e,A
2019-11-08 05:23:50,0ec1c6c3-3869-4e16-8803-14cf3ec4675e,S
2019-11-08 05:27:20,0ec1c6c3-3869-4e16-8803-14cf3ec4675e,A
2019-11-08 05:28:46,0ec1c6c3-3869-4e16-8803-14cf3ec4675e,S
2019-11-08 04:01:39,bbd948d6-d864-4e6a-9446-f80c182f90b1,A
2019-11-08 04:02:19,bbd948d6-d864-4e6a-9446-f80c182f90b1,S
2019-11-08 04:03:54,bbd948d6-d864-4e6a-9446-f80c182f90b1,A
2019-11-08 04:18:07,bbd948d6-d864-4e6a-9446-f80c182f90b1,S
2019-11-08 04:20:13,bbd948d6-d864-4e6a-9446-f80c182f90b1,A
2019-11-08 04:22:40,bbd948d6-d864-4e6a-9446-f80c182f90b1,S
2019-11-08 04:30:18,bbd948d6-d864-4e6a-9446-f80c182f90b1,A
2019-11-08 04:33:58,bbd948d6-d864-4e6a-9446-f80c182f90b1,S
2019-11-08 04:37:20,bbd948d6-d864-4e6a-9446-f80c182f90b1,A
2019-11-08 04:48:10,bbd948d6-d864-4e6a-9446-f80c182f90b1,S
2019-11-08 04:48:14,bbd948d6-d864-4e6a-9446-f80c182f90b1,A
2019-11-08 04:57:45,bbd948d6-d864-4e6a-9446-f80c182f90b1,S
2019-11-08 05:18:13,bbd948d6-d864-4e6a-9446-f80c182f90b1,A
2019-11-08 05:25:28,bbd948d6-d864-4e6a-9446-f80c182f90b1,S
2019-11-08 05:29:27,bbd948d6-d864-4e6a-9446-f80c182f90b1,A
2019-11-08 04:07:15,5e69f86b-5c89-4341-9a7c-42cad76e6710,A
2019-11-08 04:09:06,5e69f86b-5c89-4341-9a7c-42cad76e6710,S
2019-11-08 04:18:34,5e69f86b-5c89-4341-9a7c-42cad76e6710,A
2019-11-08 04:32:41,5e69f86b-5c89-4341-9a7c-42cad76e6710,S
2019-11-08 04:34:17,5e69f86b-5c89-4341-9a7c-42cad76e6710,A
2019-11-08 04:35:52,5e69f86b-5c89-4341-9a7c-42cad76e6710,S
2019-11-08 04:37:44,5e69f86b-5c89-4341-9a7c-42cad76e6710,A
2019-11-08 04:44:12,5e69f86b-5c89-4341-9a7c-42cad76e6710,S
2019-11-08 04:49:06,5e69f86b-5c89-4341-9a7c-42cad76e6710,A
2019-11-08 04:56:37,5e69f86b-5c89-4341-9a7c-42cad76e6710,S
2019-11-08 04:56:40,5e69f86b-5c89-4341-9a7c-42cad76e6710,A
2019-11-08 04:56:59,5e69f86b-5c89-4341-9a7c-42cad76e6710,S
2019-11-08 04:59:20,5e69f86b-5c89-4341-9a7c-42cad76e6710,A
2019-11-08 05:02:31,5e69f86b-5c89-4341-9a7c-42cad76e6710,S
2019-11-08 05:03:17,5e69f86b-5c89-4341-9a7c-42cad76e6710,A
2019-11-08 05:14:18,5e69f86b-5c89-4341-9a7c-42cad76e6710,S
2019-11-08 05:15:06,5e69f86b-5c89-4341-9a7c-42cad76e6710,A
2019-11-08 05:15:31,5e69f86b-5c89-4341-9a7c-42cad76e6710,S
2019-11-08 05:17:44,5e69f86b-5c89-4341-9a7c-42cad76e6710,A
2019-11-08 05:19:58,5e69f86b-5c89-4341-9a7c-42cad76e6710,S
2019-11-08 05:20:17,5e69f86b-5c89-4341-9a7c-42cad76e6710,A
2019-11-08 05:29:42,5e69f86b-5c89-4341-9a7c-42cad76e6710,S
2019-11-08 04:12:03,7834c16b-ae72-47a9-8539-8f561cfe771e,A
2019-11-08 04:17:09,7834c16b-ae72-47a9-8539-8f561cfe771e,S
2019-11-08 04:18:13,7834c16b-ae72-47a9-8539-8f561cfe771e,A
2019-11-08 04:20:08,7834c16b-ae72-47a9-8539-8f561cfe771e,S
2019-11-08 04:27:43,7834c16b-ae72-47a9-8539-8f561cfe771e,A
2019-11-08 04:29:08,7834c16b-ae72-47a9-8539-8f561cfe771e,S
2019-11-08 04:39:01,7834c16b-ae72-47a9-8539-8f561cfe771e,A
2019-11-08 04:40:50,7834c16b-ae72-47a9-8539-8f561cfe771e,S
2019-11-08 04:45:44,7834c16b-ae72-47a9-8539-8f561cfe771e,A
2019-11-08 04:50:08,7834c16b-ae72-47a9-8539-8f561cfe771e,S
2019-11-08 04:58:52,7834c16b-ae72-47a9-8539-8f561cfe771e,A
2019-11-08 05:00:23,7834c16b-ae72-47a9-8539-8f561cfe771e,S
2019-11-08 05:02:17,7834c16b-ae72-47a9-8539-8f561cfe771e,A
2019-11-08 05:04:44,7834c16b-ae72-47a9-8539-8f561cfe771e,S
2019-11-08 05:08:58,7834c16b-ae72-47a9-8539-8f561cfe771e,A
2019-11-08 05:14:47,7834c16b-ae72-47a9-8539-8f561cfe771e,S
2019-11-08 05:20:17,7834c16b-ae72-47a9-8539-8f561cfe771e,A
2019-11-08 05:29:30,7834c16b-ae72-47a9-8539-8f561cfe771e,S
2019-11-08 03:29:12,55f23b4a-0ea8-42d8-a69b-5b19a6b572bc,S
2019-11-08 03:33:15,55f23b4a-0ea8-42d8-a69b-5b19a6b572bc,A
2019-11-08 03:34:05,55f23b4a-0ea8-42d8-a69b-5b19a6b572bc,S
2019-11-08 03:39:18,55f23b4a-0ea8-42d8-a69b-5b19a6b572bc,A
2019-11-08 03:44:11,55f23b4a-0ea8-42d8-a69b-5b19a6b572bc,S
2019-11-08 03:49:10,55f23b4a-0ea8-42d8-a69b-5b19a6b572bc,A
2019-11-08 03:51:44,55f23b4a-0ea8-42d8-a69b-5b19a6b572bc,S
2019-11-08 03:52:31,55f23b4a-0ea8-42d8-a69b-5b19a6b572bc,A
2019-11-08 04:03:07,55f23b4a-0ea8-42d8-a69b-5b19a6b572bc,S
2019-11-08 04:03:30,55f23b4a-0ea8-42d8-a69b-5b19a6b572bc,A
2019-11-08 04:11:08,55f23b4a-0ea8-42d8-a69b-5b19a6b572bc,S
2019-11-08 04:16:28,55f23b4a-0ea8-42d8-a69b-5b19a6b572bc,A
2019-11-08 04:16:54,55f23b4a-0ea8-42d8-a69b-5b19a6b572bc,S
2019-11-08 04:23:20,55f23b4a-0ea8-42d8-a69b-5b19a6b572bc,A
2019-11-08 04:25:24,55f23b4a-0ea8-42d8-a69b-5b19a6b572bc,S
2019-11-08 04:25:37,55f23b4a-0ea8-42d8-a69b-5b19a6b572bc,A
2019-11-08 04:30:40,55f23b4a-0ea8-42d8-a69b-5b19a6b572bc,S
2019-11-08 04:31:22,55f23b4a-0ea8-42d8-a69b-5b19a6b572bc,A
2019-11-08 04:48:28,55f23b4a-0ea8-42d8-a69b-5b19a6b572bc,S
2019-11-08 04:50:44,55f23b4a-0ea8-42d8-a69b-5b19a6b572bc,A
2019-11-08 04:51:04,55f23b4a-0ea8-42d8-a69b-5b19a6b572bc,S
2019-11-08 04:54:30,55f23b4a-0ea8-42d8-a69b-5b19a6b572bc,A
2019-11-08 04:54:41,55f23b4a-0ea8-42d8-a69b-5b19a6b572bc,S
2019-11-08 05:01:42,55f23b4a-0ea8-42d8-a69b-5b19a6b572bc,A
2019-11-08 05:07:30,55f23b4a-0ea8-42d8-a69b-5b19a6b572bc,S
2019-11-08 05:28:13,55f23b4a-0ea8-42d8-a69b-5b19a6b572bc,A
2019-11-08 05:29:29,55f23b4a-0ea8-42d8-a69b-5b19a6b572bc,S
2019-11-08 03:44:31,1852458d-3388-4e67-b414-983273f5d6e6,S
2019-11-08 03:56:36,1852458d-3388-4e67-b414-983273f5d6e6,A
2019-11-08 04:14:57,1852458d-3388-4e67-b414-983273f5d6e6,S
2019-11-08 04:17:20,1852458d-3388-4e67-b414-983273f5d6e6,A
2019-11-08 04:20:39,1852458d-3388-4e67-b414-983273f5d6e6,S
2019-11-08 04:23:58,1852458d-3388-4e67-b414-983273f5d6e6,A
2019-11-08 04:35:28,1852458d-3388-4e67-b414-983273f5d6e6,S
2019-11-08 04:36:18,1852458d-3388-4e67-b414-983273f5d6e6,A
2019-11-08 04:37:57,1852458d-3388-4e67-b414-983273f5d6e6,S
2019-11-08 04:38:49,1852458d-3388-4e67-b414-983273f5d6e6,A
2019-11-08 04:56:14,1852458d-3388-4e67-b414-983273f5d6e6,S
2019-11-08 04:56:19,1852458d-3388-4e67-b414-983273f5d6e6,A
2019-11-08 04:59:29,1852458d-3388-4e67-b414-983273f5d6e6,S
2019-11-08 05:02:56,1852458d-3388-4e67-b414-983273f5d6e6,A
2019-11-08 05:05:10,1852458d-3388-4e67-b414-983273f5d6e6,S
2019-11-08 05:11:06,1852458d-3388-4e67-b414-983273f5d6e6,A
2019-11-08 05:12:29,1852458d-3388-4e67-b414-983273f5d6e6,S
2019-11-08 05:16:24,1852458d-3388-4e67-b414-983273f5d6e6,A
2019-11-08 05:21:58,1852458d-3388-4e67-b414-983273f5d6e6,S
2019-11-08 03:50:18,65e144e1-35e5-4092-8bb9-2fde799cf553,S
2019-11-08 03:59:20,65e144e1-35e5-4092-8bb9-2fde799cf553,A
2019-11-08 04:04:32,65e144e1-35e5-4092-8bb9-2fde799cf553,S
2019-11-08 04:17:18,65e144e1-35e5-4092-8bb9-2fde799cf553,A
2019-11-08 04:18:17,65e144e1-35e5-4092-8bb9-2fde799cf553,S
2019-11-08 04:29:29,65e144e1-35e5-4092-8bb9-2fde799cf553,A
2019-11-08 04:29:43,65e144e1-35e5-4092-8bb9-2fde799cf553,S
2019-11-08 04:33:10,65e144e1-35e5-4092-8bb9-2fde799cf553,A
2019-11-08 04:44:13,65e144e1-35e5-4092-8bb9-2fde799cf553,S
2019-11-08 04:47:15,65e144e1-35e5-4092-8bb9-2fde799cf553,A
2019-11-08 04:53:50,65e144e1-35e5-4092-8bb9-2fde799cf553,S
2019-11-08 04:55:47,65e144e1-35e5-4092-8bb9-2fde799cf553,A
2019-11-08 05:03:12,65e144e1-35e5-4092-8bb9-2fde799cf553,S
2019-11-08 05:07:18,65e144e1-35e5-4092-8bb9-2fde799cf553,A
2019-11-08 05:08:00,65e144e1-35e5-4092-8bb9-2fde799cf553,S
2019-11-08 05:08:22,65e144e1-35e5-4092-8bb9-2fde799cf553,A
2019-11-08 05:11:45,65e144e1-35e5-4092-8bb9-2fde799cf553,S
2019-11-08 05:14:49,65e144e1-35e5-4092-8bb9-2fde799cf553,A
2019-11-08 05:28:00,65e144e1-35e5-4092-8bb9-2fde799cf553,S
2019-11-08 05:32:10,65e144e1-35e5-4092-8bb9-2fde799cf553,A
2019-11-08 05:32:17,65e144e1-35e5-4092-8bb9-2fde799cf553,S
2019-11-08 04:14:29,91c9dc5f-1ee0-4e9b-b825-3e07d7843881,S
2019-11-08 04:28:03,91c9dc5f-1ee0-4e9b-b825-3e07d7843881,A
2019-11-08 04:32:57,91c9dc5f-1ee0-4e9b-b825-3e07d7843881,S
2019-11-08 04:33:29,91c9dc5f-1ee0-4e9b-b825-3e07d7843881,A
2019-11-08 04:37:21,91c9dc5f-1ee0-4e9b-b825-3e07d7843881,S
2019-11-08 04:38:02,91c9dc5f-1ee0-4e9b-b825-3e07d7843881,A
2019-11-08 04:46:41,91c9dc5f-1ee0-4e9b-b825-3e07d7843881,S
2019-11-08 04:47:45,91c9dc5f-1ee0-4e9b-b825-3e07d7843881,A
2019-11-08 04:50:00,91c9dc5f-1ee0-4e9b-b825-3e07d7843881,S
2019-11-08 04:52:10,91c9dc5f-1ee0-4e9b-b825-3e07d7843881,A
2019-11-08 04:54:32,91c9dc5f-1ee0-4e9b-b825-3e07d7843881,S
2019-11-08 04:58:23,91c9dc5f-1ee0-4e9b-b825-3e07d7843881,A
2019-11-08 04:59:35,91c9dc5f-1ee0-4e9b-b825-3e07d7843881,S
2019-11-08 05:00:25,91c9dc5f-1ee0-4e9b-b825-3e07d7843881,A
2019-11-08 05:02:35,91c9dc5f-1ee0-4e9b-b825-3e07d7843881,S
2019-11-08 05:02:58,91c9dc5f-1ee0-4e9b-b825-3e07d7843881,A
2019-11-08 05:03:14,91c9dc5f-1ee0-4e9b-b825-3e07d7843881,S
2019-11-08 05:07:45,91c9dc5f-1ee0-4e9b-b825-3e07d7843881,A
2019-11-08 05:08:35,91c9dc5f-1ee0-4e9b-b825-3e07d7843881,S
2019-11-08 05:18:07,91c9dc5f-1ee0-4e9b-b825-3e07d7843881,A
2019-11-08 05:24:10,91c9dc5f-1ee0-4e9b-b825-3e07d7843881,S
2019-11-08 05:32:08,91c9dc5f-1ee0-4e9b-b825-3e07d7843881,A
2019-11-08 04:07:21,a7b1bcb1-498f-4ff6-9d9b-cb893e73e9aa,S
2019-11-08 04:08:04,a7b1bcb1-498f-4ff6-9d9b-cb893e73e9aa,A
2019-11-08 04:11:35,a7b1bcb1-498f-4ff6-9d9b-cb893e73e9aa,S
2019-11-08 04:15:38,a7b1bcb1-498f-4ff6-9d9b-cb893e73e9aa,A
2019-11-08 04:23:26,a7b1bcb1-498f-4ff6-9d9b-cb893e73e9aa,S
2019-11-08 04:29:56,a7b1bcb1-498f-4ff6-9d9b-cb893e73e9aa,A
2019-11-08 04:34:06,a7b1bcb1-498f-4ff6-9d9b-cb893e73e9aa,S
2019-11-08 04:35:32,a7b1bcb1-498f-4ff6-9d9b-cb893e73e9aa,A
2019-11-08 04:45:56,a7b1bcb1-498f-4ff6-9d9b-cb893e73e9aa,S
2019-11-08 04:46:11,a7b1bcb1-498f-4ff6-9d9b-cb893e73e9aa,A
2019-11-08 04:46:28,a7b1bcb1-498f-4ff6-9d9b-cb893e73e9aa,S
2019-11-08 04:47:57,a7b1bcb1-498f-4ff6-9d9b-cb893e73e9aa,A
2019-11-08 04:55:47,a7b1bcb1-498f-4ff6-9d9b-cb893e73e9aa,S
2019-11-08 04:59:44,a7b1bcb1-498f-4ff6-9d9b-cb893e73e9aa,A
2019-11-08 05:02:22,a7b1bcb1-498f-4ff6-9d9b-cb893e73e9aa,S
2019-11-08 05:04:50,a7b1bcb1-498f-4ff6-9d9b-cb893e73e9aa,A
2019-11-08 05:06:57,a7b1bcb1-498f-4ff6-9d9b-cb893e73e9aa,S
2019-11-08 05:11:37,a7b1bcb1-498f-4ff6-9d9b-cb893e73e9aa,A
2019-11-08 05:17:59,a7b1bcb1-498f-4ff6-9d9b-cb893e73e9aa,S
2019-11-08 05:18:09,a7b1bcb1-498f-4ff6-9d9b-cb893e73e9aa,A
2019-11-08 05:18:48,a7b1bcb1-498f-4ff6-9d9b-cb893e73e9aa,S
2019-11-08 05:21:06,a7b1bcb1-498f-4ff6-9d9b-cb893e73e9aa,A
2019-11-08 04:06:41,9bb2a9b9-a196-440c-bae8-a267bdc8e618,A
2019-11-08 04:10:10,9bb2a9b9-a196-440c-bae8-a267bdc8e618,S
2019-11-08 04:13:13,9bb2a9b9-a196-440c-bae8-a267bdc8e618,A
2019-11-08 04:22:10,9bb2a9b9-a196-440c-bae8-a267bdc8e618,S
2019-11-08 04:37:07,9bb2a9b9-a196-440c-bae8-a267bdc8e618,A
2019-11-08 04:38:09,9bb2a9b9-a196-440c-bae8-a267bdc8e618,S
2019-11-08 04:38:39,9bb2a9b9-a196-440c-bae8-a267bdc8e618,A
2019-11-08 04:39:18,9bb2a9b9-a196-440c-bae8-a267bdc8e618,S
2019-11-08 04:46:21,9bb2a9b9-a196-440c-bae8-a267bdc8e618,A
2019-11-08 04:51:32,9bb2a9b9-a196-440c-bae8-a267bdc8e618,S
2019-11-08 05:10:23,9bb2a9b9-a196-440c-bae8-a267bdc8e618,A
2019-11-08 05:12:30,9bb2a9b9-a196-440c-bae8-a267bdc8e618,S
2019-11-08 05:19:38,9bb2a9b9-a196-440c-bae8-a267bdc8e618,A
2019-11-08 05:23:07,9bb2a9b9-a196-440c-bae8-a267bdc8e618,S
2019-11-08 03:57:21,a4f3e349-e8db-4d6c-bde2-03f3aeb08e2d,S
2019-11-08 04:01:31,a4f3e349-e8db-4d6c-bde2-03f3aeb08e2d,A
2019-11-08 04:08:58,a4f3e349-e8db-4d6c-bde2-03f3aeb08e2d,S
2019-11-08 04:13:11,a4f3e349-e8db-4d6c-bde2-03f3aeb08e2d,A
2019-11-08 04:13:25,a4f3e349-e8db-4d6c-bde2-03f3aeb08e2d,S
2019-11-08 04:22:54,a4f3e349-e8db-4d6c-bde2-03f3aeb08e2d,A
2019-11-08 04:25:54,a4f3e349-e8db-4d6c-bde2-03f3aeb08e2d,S
2019-11-08 04:27:22,a4f3e349-e8db-4d6c-bde2-03f3aeb08e2d,A
2019-11-08 04:29:05,a4f3e349-e8db-4d6c-bde2-03f3aeb08e2d,S
2019-11-08 04:38:46,a4f3e349-e8db-4d6c-bde2-03f3aeb08e2d,A
2019-11-08 04:43:36,a4f3e349-e8db-4d6c-bde2-03f3aeb08e2d,S
2019-11-08 04:45:19,a4f3e349-e8db-4d6c-bde2-03f3aeb08e2d,A
2019-11-08 04:46:15,a4f3e349-e8db-4d6c-bde2-03f3aeb08e2d,S
2019-11-08 04:51:43,a4f3e349-e8db-4d6c-bde2-03f3aeb08e2d,A
2019-11-08 04:56:18,a4f3e349-e8db-4d6c-bde2-03f3aeb08e2d,S
2019-11-08 05:00:59,a4f3e349-e8db-4d6c-bde2-03f3aeb08e2d,A
2019-11-08 05:09:00,a4f3e349-e8db-4d6c-bde2-03f3aeb08e2d,S
2019-11-08 05:14:11,a4f3e349-e8db-4d6c-bde2-03f3aeb08e2d,A
2019-11-08 05:17:31,a4f3e349-e8db-4d6c-bde2-03f3aeb08e2d,S
2019-11-08 05:30:17,a4f3e349-e8db-4d6c-bde2-03f3aeb08e2d,A
2019-11-08 04:01:50,3ba1680e-192c-41db-9083-dbed911b51d5,A
2019-11-08 04:05:19,3ba1680e-192c-41db-9083-dbed911b51d5,S
2019-11-08 04:07:35,3ba1680e-192c-41db-9083-dbed911b51d5,A
2019-11-08 04:09:36,3ba1680e-192c-41db-9083-dbed911b51d5,S
2019-11-08 04:10:11,3ba1680e-192c-41db-9083-dbed911b51d5,A
2019-11-08 04:12:46,3ba1680e-192c-41db-9083-dbed911b51d5,S
2019-11-08 04:19:38,3ba1680e-192c-41db-9083-dbed911b51d5,A
2019-11-08 04:21:05,3ba1680e-192c-41db-9083-dbed911b51d5,S
2019-11-08 04:31:21,3ba1680e-192c-41db-9083-dbed911b51d5,A
2019-11-08 05:10:26,3ba1680e-192c-41db-9083-dbed911b51d5,S
2019-11-08 05:20:20,3ba1680e-192c-41db-9083-dbed911b51d5,A
2019-11-08 05:20:24,3ba1680e-192c-41db-9083-dbed911b51d5,S
2019-11-08 05:21:06,3ba1680e-192c-41db-9083-dbed911b51d5,A
2019-11-08 05:24:10,3ba1680e-192c-41db-9083-dbed911b51d5,S
2019-11-08 05:25:32,3ba1680e-192c-41db-9083-dbed911b51d5,A
2019-11-08 05:26:53,3ba1680e-192c-41db-9083-dbed911b51d5,S
2019-11-08 05:31:02,3ba1680e-192c-41db-9083-dbed911b51d5,A
2019-11-08 05:32:36,3ba1680e-192c-41db-9083-dbed911b51d5,S
2019-11-08 05:32:42,3ba1680e-192c-41db-9083-dbed911b51d5,A
2019-11-08 04:07:13,e7548f22-644b-44b7-b7d6-bc2c525a37c8,S
2019-11-08 04:09:09,e7548f22-644b-44b7-b7d6-bc2c525a37c8,A
2019-11-08 04:09:37,e7548f22-644b-44b7-b7d6-bc2c525a37c8,S
2019-11-08 04:17:56,e7548f22-644b-44b7-b7d6-bc2c525a37c8,A
2019-11-08 04:20:48,e7548f22-644b-44b7-b7d6-bc2c525a37c8,S
2019-11-08 04:27:09,e7548f22-644b-44b7-b7d6-bc2c525a37c8,A
2019-11-08 04:31:45,e7548f22-644b-44b7-b7d6-bc2c525a37c8,S
2019-11-08 04:32:58,e7548f22-644b-44b7-b7d6-bc2c525a37c8,A
2019-11-08 04:41:42,e7548f22-644b-44b7-b7d6-bc2c525a37c8,S
2019-11-08 04:43:16,e7548f22-644b-44b7-b7d6-bc2c525a37c8,A
2019-11-08 04:51:18,e7548f22-644b-44b7-b7d6-bc2c525a37c8,S
2019-11-08 04:51:31,e7548f22-644b-44b7-b7d6-bc2c525a37c8,A
2019-11-08 04:58:06,e7548f22-644b-44b7-b7d6-bc2c525a37c8,S
2019-11-08 05:03:00,e7548f22-644b-44b7-b7d6-bc2c525a37c8,A
2019-11-08 05:03:55,e7548f22-644b-44b7-b7d6-bc2c525a37c8,S
2019-11-08 05:05:52,e7548f22-644b-44b7-b7d6-bc2c525a37c8,A
2019-11-08 05:05:53,e7548f22-644b-44b7-b7d6-bc2c525a37c8,S
2019-11-08 05:07:13,e7548f22-644b-44b7-b7d6-bc2c525a37c8,A
2019-11-08 05:10:00,e7548f22-644b-44b7-b7d6-bc2c525a37c8,S
2019-11-08 05:17:26,e7548f22-644b-44b7-b7d6-bc2c525a37c8,A
2019-11-08 05:18:59,e7548f22-644b-44b7-b7d6-bc2c525a37c8,S
2019-11-08 05:19:35,e7548f22-644b-44b7-b7d6-bc2c525a37c8,A
2019-11-08 05:26:37,e7548f22-644b-44b7-b7d6-bc2c525a37c8,S
2019-11-08 05:30:06,e7548f22-644b-44b7-b7d6-bc2c525a37c8,A
2019-11-08 03:46:00,97a3ed28-f84f-475d-8602-b62e6ceae4bc,S
2019-11-08 03:53:39,97a3ed28-f84f-475d-8602-b62e6ceae4bc,A
2019-11-08 03:55:34,97a3ed28-f84f-475d-8602-b62e6ceae4bc,S
2019-11-08 04:06:52,97a3ed28-f84f-475d-8602-b62e6ceae4bc,A
2019-11-08 04:08:42,97a3ed28-f84f-475d-8602-b62e6ceae4bc,S
2019-11-08 04:09:23,97a3ed28-f84f-475d-8602-b62e6ceae4bc,A
2019-11-08 04:18:54,97a3ed28-f84f-475d-8602-b62e6ceae4bc,S
2019-11-08 04:22:09,97a3ed28-f84f-475d-8602-b62e6ceae4bc,A
2019-11-08 04:22:45,97a3ed28-f84f-475d-8602-b62e6ceae4bc,S
2019-11-08 04:23:16,97a3ed28-f84f-475d-8602-b62e6ceae4bc,A
2019-11-08 04:28:20,97a3ed28-f84f-475d-8602-b62e6ceae4bc,S
2019-11-08 04:28:45,97a3ed28-f84f-475d-8602-b62e6ceae4bc,A
2019-11-08 04:29:09,97a3ed28-f84f-475d-8602-b62e6ceae4bc,S
2019-11-08 04:29:53,97a3ed28-f84f-475d-8602-b62e6ceae4bc,A
2019-11-08 04:31:45,97a3ed28-f84f-475d-8602-b62e6ceae4bc,S
2019-11-08 04:32:37,97a3ed28-f84f-475d-8602-b62e6ceae4bc,A
2019-11-08 04:43:11,97a3ed28-f84f-475d-8602-b62e6ceae4bc,S
2019-11-08 04:44:23,97a3ed28-f84f-475d-8602-b62e6ceae4bc,A
2019-11-08 04:51:15,97a3ed28-f84f-475d-8602-b62e6ceae4bc,S
2019-11-08 04:59:55,97a3ed28-f84f-475d-8602-b62e6ceae4bc,A
2019-11-08 05:03:03,97a3ed28-f84f-475d-8602-b62e6ceae4bc,S
2019-11-08 05:06:38,97a3ed28-f84f-475d-8602-b62e6ceae4bc,A
2019-11-08 05:06:54,97a3ed28-f84f-475d-8602-b62e6ceae4bc,S
2019-11-08 05:13:59,97a3ed28-f84f-475d-8602-b62e6ceae4bc,A
2019-11-08 05:14:07,97a3ed28-f84f-475d-8602-b62e6ceae4bc,S
2019-11-08 05:14:33,97a3ed28-f84f-475d-8602-b62e6ceae4bc,A
2019-11-08 05:15:10,97a3ed28-f84f-475d-8602-b62e6ceae4bc,S
2019-11-08 05:17:15,97a3ed28-f84f-475d-8602-b62e6ceae4bc,A
2019-11-08 05:17:18,97a3ed28-f84f-475d-8602-b62e6ceae4bc,S
2019-11-08 05:29:04,97a3ed28-f84f-475d-8602-b62e6ceae4bc,A
2019-11-08 05:32:28,97a3ed28-f84f-475d-8602-b62e6ceae4bc,S
2019-11-08 03:47:30,f30ceb41-9cd7-43a2-9f8e-b363f70f4b54,A
2019-11-08 03:55:19,f30ceb41-9cd7-43a2-9f8e-b363f70f4b54,S
2019-11-08 03:56:49,f30ceb41-9cd7-43a2-9f8e-b363f70f4b54,A
2019-11-08 03:59:27,f30ceb41-9cd7-43a2-9f8e-b363f70f4b54,S
2019-11-08 04:04:08,f30ceb41-9cd7-43a2-9f8e-b363f70f4b54,A
2019-11-08 04:18:50,f30ceb41-9cd7-43a2-9f8e-b363f70f4b54,S
2019-11-08 04:19:25,f30ceb41-9cd7-43a2-9f8e-b363f70f4b54,A
2019-11-08 04:24:55,f30ceb41-9cd7-43a2-9f8e-b363f70f4b54,S
2019-11-08 04:32:08,f30ceb41-9cd7-43a2-9f8e-b363f70f4b54,A
2019-11-08 04:32:43,f30ceb41-9cd7-43a2-9f8e-b363f70f4b54,S
2019-11-08 04:44:34,f30ceb41-9cd7-43a2-9f8e-b363f70f4b54,A
2019-11-08 04:47:41,f30ceb41-9cd7-43a2-9f8e-b363f70f4b54,S
2019-11-08 04:59:32,f30ceb41-9cd7-43a2-9f8e-b363f70f4b54,A
2019-11-08 05:11:29,f30ceb41-9cd7-43a2-9f8e-b363f70f4b54,S
2019-11-08 05:16:21,f30ceb41-9cd7-43a2-9f8e-b363f70f4b54,A
2019-11-08 05:16:54,f30ceb41-9cd7-43a2-9f8e-b363f70f4b54,S
2019-11-08 05:17:12,f30ceb41-9cd7-43a2-9f8e-b363f70f4b54,A
2019-11-08 05:17:22,f30ceb41-9cd7-43a2-9f8e-b363f70f4b54,S
2019-11-08 05:18:33,f30ceb41-9cd7-43a2-9f8e-b363f70f4b54,A
2019-11-08 05:22:14,f30ceb41-9cd7-43a2-9f8e-b363f70f4b54,S
2019-11-08 05:31:06,f30ceb41-9cd7-43a2-9f8e-b363f70f4b54,A
2019-11-08 03:36:55,e7894deb-37f1-48fc-a0d3-e024989f5a51,S
2019-11-08 03:40:23,e7894deb-37f1-48fc-a0d3-e024989f5a51,A
2019-11-08 03:46:25,e7894deb-37f1-48fc-a0d3-e024989f5a51,S
2019-11-08 03:56:22,e7894deb-37f1-48fc-a0d3-e024989f5a51,A
2019-11-08 04:16:30,e7894deb-37f1-48fc-a0d3-e024989f5a51,S
2019-11-08 04:22:26,e7894deb-37f1-48fc-a0d3-e024989f5a51,A
2019-11-08 04:33:15,e7894deb-37f1-48fc-a0d3-e024989f5a51,S
2019-11-08 04:38:40,e7894deb-37f1-48fc-a0d3-e024989f5a51,A
2019-11-08 04:42:57,e7894deb-37f1-48fc-a0d3-e024989f5a51,S
2019-11-08 04:48:30,e7894deb-37f1-48fc-a0d3-e024989f5a51,A
2019-11-08 04:48:42,e7894deb-37f1-48fc-a0d3-e024989f5a51,S
2019-11-08 04:50:26,e7894deb-37f1-48fc-a0d3-e024989f5a51,A
2019-11-08 04:56:20,e7894deb-37f1-48fc-a0d3-e024989f5a51,S
2019-11-08 04:58:03,e7894deb-37f1-48fc-a0d3-e024989f5a51,A
2019-11-08 05:02:34,e7894deb-37f1-48fc-a0d3-e024989f5a51,S
2019-11-08 05:06:09,e7894deb-37f1-48fc-a0d3-e024989f5a51,A
2019-11-08 05:11:27,e7894deb-37f1-48fc-a0d3-e024989f5a51,S
2019-11-08 05:19:11,e7894deb-37f1-48fc-a0d3-e024989f5a51,A
2019-11-08 03:55:12,2a931789-f99b-4be6-ac85-83f8603ef7c1,A
2019-11-08 04:14:05,2a931789-f99b-4be6-ac85-83f8603ef7c1,S
2019-11-08 04:14:26,2a931789-f99b-4be6-ac85-83f8603ef7c1,A
2019-11-08 04:17:11,2a931789-f99b-4be6-ac85-83f8603ef7c1,S
2019-11-08 04:21:11,2a931789-f99b-4be6-ac85-83f8603ef7c1,A
2019-11-08 04:21:40,2a931789-f99b-4be6-ac85-83f8603ef7c1,S
2019-11-08 04:24:42,2a931789-f99b-4be6-ac85-83f8603ef7c1,A
2019-11-08 04:26:21,2a931789-f99b-4be6-ac85-83f8603ef7c1,S
2019-11-08 04:40:50,2a931789-f99b-4be6-ac85-83f8603ef7c1,A
2019-11-08 04:42:26,2a931789-f99b-4be6-ac85-83f8603ef7c1,S
2019-11-08 04:42:32,2a931789-f99b-4be6-ac85-83f8603ef7c1,A
2019-11-08 04:44:52,2a931789-f99b-4be6-ac85-83f8603ef7c1,S
2019-11-08 04:44:59,2a931789-f99b-4be6-ac85-83f8603ef7c1,A
2019-11-08 04:47:02,2a931789-f99b-4be6-ac85-83f8603ef7c1,S
2019-11-08 04:51:03,2a931789-f99b-4be6-ac85-83f8603ef7c1,A
2019-11-08 05:01:46,2a931789-f99b-4be6-ac85-83f8603ef7c1,S
2019-11-08 05:07:29,2a931789-f99b-4be6-ac85-83f8603ef7c1,A
2019-11-08 05:09:44,2a931789-f99b-4be6-ac85-83f8603ef7c1,S
2019-11-08 05:13:09,2a931789-f99b-4be6-ac85-83f8603ef7c1,A
2019-11-08 05:16:42,2a931789-f99b-4be6-ac85-83f8603ef7c1,S
2019-11-08 03:46:28,bb588ad6-9499-45c4-9cfa-a09c2faa1d1b,A
2019-11-08 03:50:09,bb588ad6-9499-45c4-9cfa-a09c2faa1d1b,S
2019-11-08 03:53:29,bb588ad6-9499-45c4-9cfa-a09c2faa1d1b,A
2019-11-08 03:55:08,bb588ad6-9499-45c4-9cfa-a09c2faa1d1b,S
2019-11-08 04:10:39,bb588ad6-9499-45c4-9cfa-a09c2faa1d1b,A
2019-11-08 04:12:23,bb588ad6-9499-45c4-9cfa-a09c2faa1d1b,S
2019-11-08 04:12:46,bb588ad6-9499-45c4-9cfa-a09c2faa1d1b,A
2019-11-08 04:34:34,bb588ad6-9499-45c4-9cfa-a09c2faa1d1b,S
2019-11-08 04:41:44,bb588ad6-9499-45c4-9cfa-a09c2faa1d1b,A
2019-11-08 04:46:05,bb588ad6-9499-45c4-9cfa-a09c2faa1d1b,S
2019-11-08 04:46:45,bb588ad6-9499-45c4-9cfa-a09c2faa1d1b,A
2019-11-08 04:51:00,bb588ad6-9499-45c4-9cfa-a09c2faa1d1b,S
2019-11-08 04:52:50,bb588ad6-9499-45c4-9cfa-a09c2faa1d1b,A
2019-11-08 04:55:33,bb588ad6-9499-45c4-9cfa-a09c2faa1d1b,S
2019-11-08 05:04:47,bb588ad6-9499-45c4-9cfa-a09c2faa1d1b,A
2019-11-08 05:12:23,bb588ad6-9499-45c4-9cfa-a09c2faa1d1b,S
2019-11-08 05:17:20,bb588ad6-9499-45c4-9cfa-a09c2faa1d1b,A
2019-11-08 05:23:57,bb588ad6-9499-45c4-9cfa-a09c2faa1d1b,S
2019-11-08 03:43:46,4d8faccf-6c65-4f51-9940-1c8c9ad3a120,A
2019-11-08 03:50:39,4d8faccf-6c65-4f51-9940-1c8c9ad3a120,S
2019-11-08 03:55:25,4d8faccf-6c65-4f51-9940-1c8c9ad3a120,A
2019-11-08 04:01:59,4d8faccf-6c65-4f51-9940-1c8c9ad3a120,S
2019-11-08 04:07:54,4d8faccf-6c65-4f51-9940-1c8c9ad3a120,A
2019-11-08 04:18:31,4d8faccf-6c65-4f51-9940-1c8c9ad3a120,S
2019-11-08 04:25:47,4d8faccf-6c65-4f51-9940-1c8c9ad3a120,A
2019-11-08 04:28:14,4d8faccf-6c65-4f51-9940-1c8c9ad3a120,S
2019-11-08 04:29:54,4d8faccf-6c65-4f51-9940-1c8c9ad3a120,A
2019-11-08 04:34:32,4d8faccf-6c65-4f51-9940-1c8c9ad3a120,S
2019-11-08 04:39:32,4d8faccf-6c65-4f51-9940-1c8c9ad3a120,A
2019-11-08 04:49:28,4d8faccf-6c65-4f51-9940-1c8c9ad3a120,S
2019-11-08 04:49:31,4d8faccf-6c65-4f51-9940-1c8c9ad3a120,A
2019-11-08 04:54:11,4d8faccf-6c65-4f51-9940-1c8c9ad3a120,S
2019-11-08 04:55:56,4d8faccf-6c65-4f51-9940-1c8c9ad3a120,A
2019-11-08 05:02:39,4d8faccf-6c65-4f51-9940-1c8c9ad3a120,S
2019-11-08 05:02:45,4d8faccf-6c65-4f51-9940-1c8c9ad3a120,A
2019-11-08 05:05:27,4d8faccf-6c65-4f51-9940-1c8c9ad3a120,S
2019-11-08 05:12:20,4d8faccf-6c65-4f51-9940-1c8c9ad3a120,A
2019-11-08 05:33:14,4d8faccf-6c65-4f51-9940-1c8c9ad3a120,S
2019-11-08 04:13:57,a5a98c07-9726-4b0c-b2af-4d94b8f62669,A
2019-11-08 04:47:44,a5a98c07-9726-4b0c-b2af-4d94b8f62669,S
2019-11-08 04:48:11,a5a98c07-9726-4b0c-b2af-4d94b8f62669,A
2019-11-08 05:17:28,a5a98c07-9726-4b0c-b2af-4d94b8f62669,S
2019-11-08 05:20:31,a5a98c07-9726-4b0c-b2af-4d94b8f62669,A
2019-11-08 05:22:59,a5a98c07-9726-4b0c-b2af-4d94b8f62669,S
2019-11-08 05:24:31,a5a98c07-9726-4b0c-b2af-4d94b8f62669,A
2019-11-08 05:25:17,a5a98c07-9726-4b0c-b2af-4d94b8f62669,S
2019-11-08 05:28:32,a5a98c07-9726-4b0c-b2af-4d94b8f62669,A
2019-11-08 03:25:16,54fdc56f-44d5-497d-bfcb-c83063783e71,A
2019-11-08 03:29:33,54fdc56f-44d5-497d-bfcb-c83063783e71,S
2019-11-08 03:31:50,54fdc56f-44d5-497d-bfcb-c83063783e71,A
2019-11-08 03:39:33,54fdc56f-44d5-497d-bfcb-c83063783e71,S
2019-11-08 03:48:51,54fdc56f-44d5-497d-bfcb-c83063783e71,A
2019-11-08 03:53:11,54fdc56f-44d5-497d-bfcb-c83063783e71,S
2019-11-08 03:57:45,54fdc56f-44d5-497d-bfcb-c83063783e71,A
2019-11-08 04:13:02,54fdc56f-44d5-497d-bfcb-c83063783e71,S
2019-11-08 04:17:55,54fdc56f-44d5-497d-bfcb-c83063783e71,A
2019-11-08 04:30:44,54fdc56f-44d5-497d-bfcb-c83063783e71,S
2019-11-08 04:31:13,54fdc56f-44d5-497d-bfcb-c83063783e71,A
2019-11-08 04:38:26,54fdc56f-44d5-497d-bfcb-c83063783e71,S
2019-11-08 04:46:20,54fdc56f-44d5-497d-bfcb-c83063783e71,A
2019-11-08 04:47:30,54fdc56f-44d5-497d-bfcb-c83063783e71,S
2019-11-08 04:49:03,54fdc56f-44d5-497d-bfcb-c83063783e71,A
2019-11-08 04:49:40,54fdc56f-44d5-497d-bfcb-c83063783e71,S
2019-11-08 04:51:13,54fdc56f-44d5-497d-bfcb-c83063783e71,A
2019-11-08 04:51:48,54fdc56f-44d5-497d-bfcb-c83063783e71,S
2019-11-08 04:51:55,54fdc56f-44d5-497d-bfcb-c83063783e71,A
2019-11-08 04:52:16,54fdc56f-44d5-497d-bfcb-c83063783e71,S
2019-11-08 04:53:13,54fdc56f-44d5-497d-bfcb-c83063783e71,A
2019-11-08 05:00:38,54fdc56f-44d5-497d-bfcb-c83063783e71,S
2019-11-08 05:12:56,54fdc56f-44d5-497d-bfcb-c83063783e71,A
2019-11-08 05:13:34,54fdc56f-44d5-497d-bfcb-c83063783e71,S
2019-11-08 05:32:04,54fdc56f-44d5-497d-bfcb-c83063783e71,A
2019-11-08 04:04:34,3c142fb0-3a16-45d0-81e5-64d0eb1ea2a1,S
2019-11-08 04:06:29,3c142fb0-3a16-45d0-81e5-64d0eb1ea2a1,A
2019-11-08 04:09:38,3c142fb0-3a16-45d0-81e5-64d0eb1ea2a1,S
2019-11-08 04:10:07,3c142fb0-3a16-45d0-81e5-64d0eb1ea2a1,A
2019-11-08 04:13:16,3c142fb0-3a16-45d0-81e5-64d0eb1ea2a1,S
2019-11-08 04:15:16,3c142fb0-3a16-45d0-81e5-64d0eb1ea2a1,A
2019-11-08 04:19:32,3c142fb0-3a16-45d0-81e5-64d0eb1ea2a1,S
2019-11-08 04:20:30,3c142fb0-3a16-45d0-81e5-64d0eb1ea2a1,A
2019-11-08 04:21:19,3c142fb0-3a16-45d0-81e5-64d0eb1ea2a1,S
2019-11-08 04:28:46,3c142fb0-3a16-45d0-81e5-64d0eb1ea2a1,A
2019-11-08 04:30:59,3c142fb0-3a16-45d0-81e5-64d0eb1ea2a1,S
2019-11-08 04:34:30,3c142fb0-3a16-45d0-81e5-64d0eb1ea2a1,A
2019-11-08 04:42:47,3c142fb0-3a16-45d0-81e5-64d0eb1ea2a1,S
2019-11-08 04:50:11,3c142fb0-3a16-45d0-81e5-64d0eb1ea2a1,A
2019-11-08 04:52:13,3c142fb0-3a16-45d0-81e5-64d0eb1ea2a1,S
2019-11-08 04:54:58,3c142fb0-3a16-45d0-81e5-64d0eb1ea2a1,A
2019-11-08 04:56:03,3c142fb0-3a16-45d0-81e5-64d0eb1ea2a1,S
2019-11-08 04:57:21,3c142fb0-3a16-45d0-81e5-64d0eb1ea2a1,A
2019-11-08 04:58:53,3c142fb0-3a16-45d0-81e5-64d0eb1ea2a1,S
2019-11-08 05:07:00,3c142fb0-3a16-45d0-81e5-64d0eb1ea2a1,A
2019-11-08 05:07:11,3c142fb0-3a16-45d0-81e5-64d0eb1ea2a1,S
2019-11-08 05:07:22,3c142fb0-3a16-45d0-81e5-64d0eb1ea2a1,A
2019-11-08 05:11:13,3c142fb0-3a16-45d0-81e5-64d0eb1ea2a1,S
2019-11-08 05:13:37,3c142fb0-3a16-45d0-81e5-64d0eb1ea2a1,A
2019-11-08 05:14:21,3c142fb0-3a16-45d0-81e5-64d0eb1ea2a1,S
2019-11-08 05:15:40,3c142fb0-3a16-45d0-81e5-64d0eb1ea2a1,A
2019-11-08 05:16:33,3c142fb0-3a16-45d0-81e5-64d0eb1ea2a1,S
2019-11-08 05:24:56,3c142fb0-3a16-45d0-81e5-64d0eb1ea2a1,A
2019-11-08 05:26:09,3c142fb0-3a16-45d0-81e5-64d0eb1ea2a1,S
2019-11-08 04:00:55,77a4b6e7-a488-4d47-9810-704b73cc0b16,S
2019-11-08 04:03:14,77a4b6e7-a488-4d47-9810-704b73cc0b16,A
2019-11-08 04:08:25,77a4b6e7-a488-4d47-9810-704b73cc0b16,S
2019-11-08 04:16:31,77a4b6e7-a488-4d47-9810-704b73cc0b16,A
2019-11-08 04:23:55,77a4b6e7-a488-4d47-9810-704b73cc0b16,S
2019-11-08 04:24:17,77a4b6e7-a488-4d47-9810-704b73cc0b16,A
2019-11-08 04:29:50,77a4b6e7-a488-4d47-9810-704b73cc0b16,S
2019-11-08 04:40:53,77a4b6e7-a488-4d47-9810-704b73cc0b16,A
2019-11-08 04:45:17,77a4b6e7-a488-4d47-9810-704b73cc0b16,S
2019-11-08 04:48:05,77a4b6e7-a488-4d47-9810-704b73cc0b16,A
2019-11-08 04:54:47,77a4b6e7-a488-4d47-9810-704b73cc0b16,S
2019-11-08 04:55:37,77a4b6e7-a488-4d47-9810-704b73cc0b16,A
2019-11-08 04:58:23,77a4b6e7-a488-4d47-9810-704b73cc0b16,S
2019-11-08 05:02:13,77a4b6e7-a488-4d47-9810-704b73cc0b16,A
2019-11-08 05:08:42,77a4b6e7-a488-4d47-9810-704b73cc0b16,S
2019-11-08 05:11:46,77a4b6e7-a488-4d47-9810-704b73cc0b16,A
2019-11-08 05:24:06,77a4b6e7-a488-4d47-9810-704b73cc0b16,S
2019-11-08 05:28:53,77a4b6e7-a488-4d47-9810-704b73cc0b16,A
2019-11-08 05:30:57,77a4b6e7-a488-4d47-9810-704b73cc0b16,S
2019-11-08 04:08:03,9282985a-8354-4d51-acba-aa0656d1656b,A
2019-11-08 04:22:46,9282985a-8354-4d51-acba-aa0656d1656b,S
2019-11-08 04:24:52,9282985a-8354-4d51-acba-aa0656d1656b,A
2019-11-08 04:33:58,9282985a-8354-4d51-acba-aa0656d1656b,S
2019-11-08 04:45:31,9282985a-8354-4d51-acba-aa0656d1656b,A
2019-11-08 04:51:43,9282985a-8354-4d51-acba-aa0656d1656b,S
2019-11-08 04:58:24,9282985a-8354-4d51-acba-aa0656d1656b,A
2019-11-08 04:58:47,9282985a-8354-4d51-acba-aa0656d1656b,S
2019-11-08 04:59:54,9282985a-8354-4d51-acba-aa0656d1656b,A
2019-11-08 05:04:13,9282985a-8354-4d51-acba-aa0656d1656b,S
2019-11-08 05:04:45,9282985a-8354-4d51-acba-aa0656d1656b,A
2019-11-08 05:11:24,9282985a-8354-4d51-acba-aa0656d1656b,S
2019-11-08 05:14:08,9282985a-8354-4d51-acba-aa0656d1656b,A
2019-11-08 05:15:55,9282985a-8354-4d51-acba-aa0656d1656b,S
2019-11-08 05:19:42,9282985a-8354-4d51-acba-aa0656d1656b,A
2019-11-08 05:25:57,9282985a-8354-4d51-acba-aa0656d1656b,S
2019-11-08 05:26:10,9282985a-8354-4d51-acba-aa0656d1656b,A
2019-11-08 05:28:46,9282985a-8354-4d51-acba-aa0656d1656b,S
2019-11-08 04:12:46,eac02d16-82db-4303-b6eb-d329c6a00a38,S
2019-11-08 04:18:09,eac02d16-82db-4303-b6eb-d329c6a00a38,A
2019-11-08 04:19:35,eac02d16-82db-4303-b6eb-d329c6a00a38,S
2019-11-08 04:21:45,eac02d16-82db-4303-b6eb-d329c6a00a38,A
2019-11-08 04:28:47,eac02d16-82db-4303-b6eb-d329c6a00a38,S
2019-11-08 04:34:53,eac02d16-82db-4303-b6eb-d329c6a00a38,A
2019-11-08 04:38:48,eac02d16-82db-4303-b6eb-d329c6a00a38,S
2019-11-08 04:42:10,eac02d16-82db-4303-b6eb-d329c6a00a38,A
2019-11-08 04:43:44,eac02d16-82db-4303-b6eb-d329c6a00a38,S
2019-11-08 04:43:55,eac02d16-82db-4303-b6eb-d329c6a00a38,A
2019-11-08 04:46:15,eac02d16-82db-4303-b6eb-d329c6a00a38,S
2019-11-08 04:50:31,eac02d16-82db-4303-b6eb-d329c6a00a38,A
2019-11-08 04:53:25,eac02d16-82db-4303-b6eb-d329c6a00a38,S
2019-11-08 04:54:20,eac02d16-82db-4303-b6eb-d329c6a00a38,A
2019-11-08 05:04:44,eac02d16-82db-4303-b6eb-d329c6a00a38,S
2019-11-08 05:04:48,eac02d16-82db-4303-b6eb-d329c6a00a38,A
2019-11-08 05:05:20,eac02d16-82db-4303-b6eb-d329c6a00a38,S
2019-11-08 05:05:49,eac02d16-82db-4303-b6eb-d329c6a00a38,A
2019-11-08 05:06:02,eac02d16-82db-4303-b6eb-d329c6a00a38,S
2019-11-08 05:09:57,eac02d16-82db-4303-b6eb-d329c6a00a38,A
2019-11-08 05:17:46,eac02d16-82db-4303-b6eb-d329c6a00a38,S
2019-11-08 05:23:44,eac02d16-82db-4303-b6eb-d329c6a00a38,A
2019-11-08 05:26:38,eac02d16-82db-4303-b6eb-d329c6a00a38,S
2019-11-08 05:28:37,eac02d16-82db-4303-b6eb-d329c6a00a38,A
2019-11-08 03:51:23,6db7f3be-94a6-4690-a2f8-6cdfe57d500e,A
2019-11-08 03:57:26,6db7f3be-94a6-4690-a2f8-6cdfe57d500e,S
2019-11-08 03:59:56,6db7f3be-94a6-4690-a2f8-6cdfe57d500e,A
2019-11-08 04:00:41,6db7f3be-94a6-4690-a2f8-6cdfe57d500e,S
2019-11-08 04:00:44,6db7f3be-94a6-4690-a2f8-6cdfe57d500e,A
2019-11-08 04:03:34,6db7f3be-94a6-4690-a2f8-6cdfe57d500e,S
2019-11-08 04:11:50,6db7f3be-94a6-4690-a2f8-6cdfe57d500e,A
2019-11-08 04:14:36,6db7f3be-94a6-4690-a2f8-6cdfe57d500e,S
2019-11-08 04:14:39,6db7f3be-94a6-4690-a2f8-6cdfe57d500e,A
2019-11-08 04:20:44,6db7f3be-94a6-4690-a2f8-6cdfe57d500e,S
2019-11-08 04:25:07,6db7f3be-94a6-4690-a2f8-6cdfe57d500e,A
2019-11-08 04:32:28,6db7f3be-94a6-4690-a2f8-6cdfe57d500e,S
2019-11-08 04:33:38,6db7f3be-94a6-4690-a2f8-6cdfe57d500e,A
2019-11-08 04:37:34,6db7f3be-94a6-4690-a2f8-6cdfe57d500e,S
2019-11-08 04:38:21,6db7f3be-94a6-4690-a2f8-6cdfe57d500e,A
2019-11-08 04:38:39,6db7f3be-94a6-4690-a2f8-6cdfe57d500e,S
2019-11-08 04:49:12,6db7f3be-94a6-4690-a2f8-6cdfe57d500e,A
2019-11-08 04:50:35,6db7f3be-94a6-4690-a2f8-6cdfe57d500e,S
2019-11-08 04:56:19,6db7f3be-94a6-4690-a2f8-6cdfe57d500e,A
2019-11-08 05:00:46,6db7f3be-94a6-4690-a2f8-6cdfe57d500e,S
2019-11-08 05:02:05,6db7f3be-94a6-4690-a2f8-6cdfe57d500e,A
2019-11-08 05:04:53,6db7f3be-94a6-4690-a2f8-6cdfe57d500e,S
2019-11-08 05:06:16,6db7f3be-94a6-4690-a2f8-6cdfe57d500e,A
2019-11-08 05:15:06,6db7f3be-94a6-4690-a2f8-6cdfe57d500e,S
2019-11-08 05:16:36,6db7f3be-94a6-4690-a2f8-6cdfe57d500e,A
2019-11-08 05:20:14,6db7f3be-94a6-4690-a2f8-6cdfe57d500e,S
2019-11-08 05:20:31,6db7f3be-94a6-4690-a2f8-6cdfe57d500e,A
2019-11-08 05:24:29,6db7f3be-94a6-4690-a2f8-6cdfe57d500e,S
2019-11-08 03:28:49,50f7a70a-eebc-4a4d-8aeb-47012d1ac4e2,A
2019-11-08 03:44:52,50f7a70a-eebc-4a4d-8aeb-47012d1ac4e2,S
2019-11-08 03:48:06,50f7a70a-eebc-4a4d-8aeb-47012d1ac4e2,A
2019-11-08 03:50:52,50f7a70a-eebc-4a4d-8aeb-47012d1ac4e2,S
2019-11-08 03:51:22,50f7a70a-eebc-4a4d-8aeb-47012d1ac4e2,A
2019-11-08 04:05:20,50f7a70a-eebc-4a4d-8aeb-47012d1ac4e2,S
2019-11-08 04:08:49,50f7a70a-eebc-4a4d-8aeb-47012d1ac4e2,A
2019-11-08 04:11:41,50f7a70a-eebc-4a4d-8aeb-47012d1ac4e2,S
2019-11-08 04:15:41,50f7a70a-eebc-4a4d-8aeb-47012d1ac4e2,A
2019-11-08 04:29:05,50f7a70a-eebc-4a4d-8aeb-47012d1ac4e2,S
2019-11-08 04:29:15,50f7a70a-eebc-4a4d-8aeb-47012d1ac4e2,A
2019-11-08 04:37:57,50f7a70a-eebc-4a4d-8aeb-47012d1ac4e2,S
2019-11-08 04:42:14,50f7a70a-eebc-4a4d-8aeb-47012d1ac4e2,A
2019-11-08 04:48:50,50f7a70a-eebc-4a4d-8aeb-47012d1ac4e2,S
2019-11-08 04:51:22,50f7a70a-eebc-4a4d-8aeb-47012d1ac4e2,A
2019-11-08 05:02:33,50f7a70a-eebc-4a4d-8aeb-47012d1ac4e2,S
2019-11-08 05:04:28,50f7a70a-eebc-4a4d-8aeb-47012d1ac4e2,A
2019-11-08 05:05:25,50f7a70a-eebc-4a4d-8aeb-47012d1ac4e2,S
2019-11-08 05:08:18,50f7a70a-eebc-4a4d-8aeb-47012d1ac4e2,A
2019-11-08 05:14:17,50f7a70a-eebc-4a4d-8aeb-47012d1ac4e2,S
2019-11-08 05:23:05,50f7a70a-eebc-4a4d-8aeb-47012d1ac4e2,A
2019-11-08 05:26:08,50f7a70a-eebc-4a4d-8aeb-47012d1ac4e2,S
2019-11-08 05:27:59,50f7a70a-eebc-4a4d-8aeb-47012d1ac4e2,A
2019-11-08 05:30:08,50f7a70a-eebc-4a4d-8aeb-47012d1ac4e2,S
2019-11-08 03:55:17,4ecd7024-20eb-4e27-9f9b-9ff4bc61b72d,S
2019-11-08 03:59:35,4ecd7024-20eb-4e27-9f9b-9ff4bc61b72d,A
2019-11-08 04:13:17,4ecd7024-20eb-4e27-9f9b-9ff4bc61b72d,S
2019-11-08 04:13:41,4ecd7024-20eb-4e27-9f9b-9ff4bc61b72d,A
2019-11-08 04:18:18,4ecd7024-20eb-4e27-9f9b-9ff4bc61b72d,S
2019-11-08 04:21:36,4ecd7024-20eb-4e27-9f9b-9ff4bc61b72d,A
2019-11-08 04:24:42,4ecd7024-20eb-4e27-9f9b-9ff4bc61b72d,S
2019-11-08 04:29:15,4ecd7024-20eb-4e27-9f9b-9ff4bc61b72d,A
2019-11-08 04:32:28,4ecd7024-20eb-4e27-9f9b-9ff4bc61b72d,S
2019-11-08 04:36:05,4ecd7024-20eb-4e27-9f9b-9ff4bc61b72d,A
2019-11-08 04:51:56,4ecd7024-20eb-4e27-9f9b-9ff4bc61b72d,S
2019-11-08 04:56:13,4ecd7024-20eb-4e27-9f9b-9ff4bc61b72d,A
2019-11-08 04:56:34,4ecd7024-20eb-4e27-9f9b-9ff4bc61b72d,S
2019-11-08 05:01:41,4ecd7024-20eb-4e27-9f9b-9ff4bc61b72d,A
2019-11-08 05:08:59,4ecd7024-20eb-4e27-9f9b-9ff4bc61b72d,S
2019-11-08 05:22:06,4ecd7024-20eb-4e27-9f9b-9ff4bc61b72d,A
2019-11-08 05:23:08,4ecd7024-20eb-4e27-9f9b-9ff4bc61b72d,S
2019-11-08 03:59:01,f625e9a5-24f4-47fb-9496-d2070bdd723c,A
2019-11-08 04:10:31,f625e9a5-24f4-47fb-9496-d2070bdd723c,S
2019-11-08 04:20:27,f625e9a5-24f4-47fb-9496-d2070bdd723c,A
2019-11-08 04:25:55,f625e9a5-24f4-47fb-9496-d2070bdd723c,S
2019-11-08 04:26:38,f625e9a5-24f4-47fb-9496-d2070bdd723c,A
2019-11-08 04:27:35,f625e9a5-24f4-47fb-9496-d2070bdd723c,S
2019-11-08 04:29:32,f625e9a5-24f4-47fb-9496-d2070bdd723c,A
2019-11-08 04:30:52,f625e9a5-24f4-47fb-9496-d2070bdd723c,S
2019-11-08 04:38:12,f625e9a5-24f4-47fb-9496-d2070bdd723c,A
2019-11-08 04:40:06,f625e9a5-24f4-47fb-9496-d2070bdd723c,S
2019-11-08 04:41:49,f625e9a5-24f4-47fb-9496-d2070bdd723c,A
2019-11-08 04:57:13,f625e9a5-24f4-47fb-9496-d2070bdd723c,S
2019-11-08 05:03:07,f625e9a5-24f4-47fb-9496-d2070bdd723c,A
2019-11-08 05:07:39,f625e9a5-24f4-47fb-9496-d2070bdd723c,S
2019-11-08 05:08:43,f625e9a5-24f4-47fb-9496-d2070bdd723c,A
2019-11-08 05:11:03,f625e9a5-24f4-47fb-9496-d2070bdd723c,S
2019-11-08 05:14:43,f625e9a5-24f4-47fb-9496-d2070bdd723c,A
2019-11-08 05:16:44,f625e9a5-24f4-47fb-9496-d2070bdd723c,S
2019-11-08 05:16:51,f625e9a5-24f4-47fb-9496-d2070bdd723c,A
2019-11-08 05:25:58,f625e9a5-24f4-47fb-9496-d2070bdd723c,S
2019-11-08 05:32:17,f625e9a5-24f4-47fb-9496-d2070bdd723c,A
2019-11-08 05:33:22,f625e9a5-24f4-47fb-9496-d2070bdd723c,S
2019-11-08 05:34:16,f625e9a5-24f4-47fb-9496-d2070bdd723c,A
2019-11-08 03:31:28,ede49090-e927-4864-9ec9-c3e7ae3cf6e4,S
2019-11-08 03:33:01,ede49090-e927-4864-9ec9-c3e7ae3cf6e4,A
2019-11-08 03:33:50,ede49090-e927-4864-9ec9-c3e7ae3cf6e4,S
2019-11-08 03:33:56,ede49090-e927-4864-9ec9-c3e7ae3cf6e4,A
2019-11-08 03:34:02,ede49090-e927-4864-9ec9-c3e7ae3cf6e4,S
2019-11-08 03:34:26,ede49090-e927-4864-9ec9-c3e7ae3cf6e4,A
2019-11-08 03:39:11,ede49090-e927-4864-9ec9-c3e7ae3cf6e4,S
2019-11-08 03:43:19,ede49090-e927-4864-9ec9-c3e7ae3cf6e4,A
2019-11-08 03:45:08,ede49090-e927-4864-9ec9-c3e7ae3cf6e4,S
2019-11-08 03:47:21,ede49090-e927-4864-9ec9-c3e7ae3cf6e4,A
2019-11-08 03:57:59,ede49090-e927-4864-9ec9-c3e7ae3cf6e4,S
2019-11-08 04:00:01,ede49090-e927-4864-9ec9-c3e7ae3cf6e4,A
2019-11-08 04:09:10,ede49090-e927-4864-9ec9-c3e7ae3cf6e4,S
2019-11-08 04:11:46,ede49090-e927-4864-9ec9-c3e7ae3cf6e4,A
2019-11-08 04:20:22,ede49090-e927-4864-9ec9-c3e7ae3cf6e4,S
2019-11-08 04:22:23,ede49090-e927-4864-9ec9-c3e7ae3cf6e4,A
2019-11-08 04:24:12,ede49090-e927-4864-9ec9-c3e7ae3cf6e4,S
2019-11-08 04:27:16,ede49090-e927-4864-9ec9-c3e7ae3cf6e4,A
2019-11-08 04:27:23,ede49090-e927-4864-9ec9-c3e7ae3cf6e4,S
2019-11-08 04:39:27,ede49090-e927-4864-9ec9-c3e7ae3cf6e4,A
2019-11-08 04:43:05,ede49090-e927-4864-9ec9-c3e7ae3cf6e4,S
2019-11-08 04:54:49,ede49090-e927-4864-9ec9-c3e7ae3cf6e4,A
2019-11-08 04:55:34,ede49090-e927-4864-9ec9-c3e7ae3cf6e4,S
2019-11-08 05:02:27,ede49090-e927-4864-9ec9-c3e7ae3cf6e4,A
2019-11-08 05:03:47,ede49090-e927-4864-9ec9-c3e7ae3cf6e4,S
2019-11-08 05:06:14,ede49090-e927-4864-9ec9-c3e7ae3cf6e4,A
2019-11-08 05:14:39,ede49090-e927-4864-9ec9-c3e7ae3cf6e4,S
2019-11-08 05:22:48,ede49090-e927-4864-9ec9-c3e7ae3cf6e4,A
2019-11-08 05:32:58,ede49090-e927-4864-9ec9-c3e7ae3cf6e4,S
2019-11-08 05:34:56,ede49090-e927-4864-9ec9-c3e7ae3cf6e4,A
2019-11-08 04:14:01,41837ee1-cdc8-4fcf-aa15-378d9c0c8c69,S
2019-11-08 04:14:51,41837ee1-cdc8-4fcf-aa15-378d9c0c8c69,A
2019-11-08 04:27:26,41837ee1-cdc8-4fcf-aa15-378d9c0c8c69,S
2019-11-08 04:28:33,41837ee1-cdc8-4fcf-aa15-378d9c0c8c69,A
2019-11-08 04:30:38,41837ee1-cdc8-4fcf-aa15-378d9c0c8c69,S
2019-11-08 04:55:30,41837ee1-cdc8-4fcf-aa15-378d9c0c8c69,A
2019-11-08 05:07:21,41837ee1-cdc8-4fcf-aa15-378d9c0c8c69,S
2019-11-08 05:11:41,41837ee1-cdc8-4fcf-aa15-378d9c0c8c69,A
2019-11-08 05:11:42,41837ee1-cdc8-4fcf-aa15-378d9c0c8c69,S
2019-11-08 05:15:52,41837ee1-cdc8-4fcf-aa15-378d9c0c8c69,A
2019-11-08 05:20:03,41837ee1-cdc8-4fcf-aa15-378d9c0c8c69,S
2019-11-08 05:29:26,41837ee1-cdc8-4fcf-aa15-378d9c0c8c69,A
2019-11-08 05:34:35,41837ee1-cdc8-4fcf-aa15-378d9c0c8c69,S
2019-11-08 03:56:24,0aa252ba-2d49-4572-9053-c439e4f8353e,S
2019-11-08 03:56:28,0aa252ba-2d49-4572-9053-c439e4f8353e,A
2019-11-08 04:03:38,0aa252ba-2d49-4572-9053-c439e4f8353e,S
2019-11-08 04:15:08,0aa252ba-2d49-4572-9053-c439e4f8353e,A
2019-11-08 04:16:45,0aa252ba-2d49-4572-9053-c439e4f8353e,S
2019-11-08 04:19:52,0aa252ba-2d49-4572-9053-c439e4f8353e,A
2019-11-08 04:20:09,0aa252ba-2d49-4572-9053-c439e4f8353e,S
2019-11-08 04:38:07,0aa252ba-2d49-4572-9053-c439e4f8353e,A
2019-11-08 04:40:31,0aa252ba-2d49-4572-9053-c439e4f8353e,S
2019-11-08 04:52:53,0aa252ba-2d49-4572-9053-c439e4f8353e,A
2019-11-08 05:05:01,0aa252ba-2d49-4572-9053-c439e4f8353e,S
2019-11-08 05:10:32,0aa252ba-2d49-4572-9053-c439e4f8353e,A
2019-11-08 05:10:59,0aa252ba-2d49-4572-9053-c439e4f8353e,S
2019-11-08 05:13:14,0aa252ba-2d49-4572-9053-c439e4f8353e,A
2019-11-08 05:16:53,0aa252ba-2d49-4572-9053-c439e4f8353e,S
2019-11-08 05:20:13,0aa252ba-2d49-4572-9053-c439e4f8353e,A
2019-11-08 05:24:43,0aa252ba-2d49-4572-9053-c439e4f8353e,S
2019-11-08 05:25:40,0aa252ba-2d49-4572-9053-c439e4f8353e,A
2019-11-08 05:26:01,0aa252ba-2d49-4572-9053-c439e4f8353e,S
2019-11-08 05:27:00,0aa252ba-2d49-4572-9053-c439e4f8353e,A
2019-11-08 03:41:58,abb0b3a6-99b2-4c0a-b147-5f7f00187bc7,A
2019-11-08 03:48:01,abb0b3a6-99b2-4c0a-b147-5f7f00187bc7,S
2019-11-08 03:50:49,abb0b3a6-99b2-4c0a-b147-5f7f00187bc7,A
2019-11-08 03:51:27,abb0b3a6-99b2-4c0a-b147-5f7f00187bc7,S
2019-11-08 03:52:13,abb0b3a6-99b2-4c0a-b147-5f7f00187bc7,A
2019-11-08 04:01:28,abb0b3a6-99b2-4c0a-b147-5f7f00187bc7,S
2019-11-08 04:01:53,abb0b3a6-99b2-4c0a-b147-5f7f00187bc7,A
2019-11-08 04:02:43,abb0b3a6-99b2-4c0a-b147-5f7f00187bc7,S
2019-11-08 04:07:37,abb0b3a6-99b2-4c0a-b147-5f7f00187bc7,A
2019-11-08 04:12:37,abb0b3a6-99b2-4c0a-b147-5f7f00187bc7,S
2019-11-08 04:12:49,abb0b3a6-99b2-4c0a-b147-5f7f00187bc7,A
2019-11-08 04:13:33,abb0b3a6-99b2-4c0a-b147-5f7f00187bc7,S
2019-11-08 04:15:54,abb0b3a6-99b2-4c0a-b147-5f7f00187bc7,A
2019-11-08 04:18:54,abb0b3a6-99b2-4c0a-b147-5f7f00187bc7,S
2019-11-08 04:20:10,abb0b3a6-99b2-4c0a-b147-5f7f00187bc7,A
2019-11-08 04:20:14,abb0b3a6-99b2-4c0a-b147-5f7f00187bc7,S
2019-11-08 04:28:20,abb0b3a6-99b2-4c0a-b147-5f7f00187bc7,A
2019-11-08 04:31:37,abb0b3a6-99b2-4c0a-b147-5f7f00187bc7,S
2019-11-08 04:33:29,abb0b3a6-99b2-4c0a-b147-5f7f00187bc7,A
2019-11-08 04:40:51,abb0b3a6-99b2-4c0a-b147-5f7f00187bc7,S
2019-11-08 04:51:06,abb0b3a6-99b2-4c0a-b147-5f7f00187bc7,A
2019-11-08 05:06:33,abb0b3a6-99b2-4c0a-b147-5f7f00187bc7,S
2019-11-08 05:08:56,abb0b3a6-99b2-4c0a-b147-5f7f00187bc7,A
2019-11-08 05:09:07,abb0b3a6-99b2-4c0a-b147-5f7f00187bc7,S
2019-11-08 05:17:13,abb0b3a6-99b2-4c0a-b147-5f7f00187bc7,A
2019-11-08 05:17:36,abb0b3a6-99b2-4c0a-b147-5f7f00187bc7,S
2019-11-08 05:25:55,abb0b3a6-99b2-4c0a-b147-5f7f00187bc7,A
2019-11-08 05:34:22,abb0b3a6-99b2-4c0a-b147-5f7f00187bc7,S
2019-11-08 03:31:11,7a6c515b-b47a-419a-a6c4-ac8dbcd68b46,A
2019-11-08 03:34:39,7a6c515b-b47a-419a-a6c4-ac8dbcd68b46,S
2019-11-08 03:43:13,7a6c515b-b47a-419a-a6c4-ac8dbcd68b46,A
2019-11-08 03:46:16,7a6c515b-b47a-419a-a6c4-ac8dbcd68b46,S
2019-11-08 03:46:32,7a6c515b-b47a-419a-a6c4-ac8dbcd68b46,A
2019-11-08 03:49:01,7a6c515b-b47a-419a-a6c4-ac8dbcd68b46,S
2019-11-08 03:54:21,7a6c515b-b47a-419a-a6c4-ac8dbcd68b46,A
2019-11-08 03:58:16,7a6c515b-b47a-419a-a6c4-ac8dbcd68b46,S
2019-11-08 04:01:00,7a6c515b-b47a-419a-a6c4-ac8dbcd68b46,A
2019-11-08 04:11:48,7a6c515b-b47a-419a-a6c4-ac8dbcd68b46,S
2019-11-08 04:17:26,7a6c515b-b47a-419a-a6c4-ac8dbcd68b46,A
2019-11-08 04:40:00,7a6c515b-b47a-419a-a6c4-ac8dbcd68b46,S
2019-11-08 05:04:21,7a6c515b-b47a-419a-a6c4-ac8dbcd68b46,A
2019-11-08 05:10:55,7a6c515b-b47a-419a-a6c4-ac8dbcd68b46,S
2019-11-08 05:14:22,7a6c515b-b47a-419a-a6c4-ac8dbcd68b46,A
2019-11-08 05:17:16,7a6c515b-b47a-419a-a6c4-ac8dbcd68b46,S
2019-11-08 05:22:01,7a6c515b-b47a-419a-a6c4-ac8dbcd68b46,A
2019-11-08 05:35:05,7a6c515b-b47a-419a-a6c4-ac8dbcd68b46,S
2019-11-08 04:16:07,a6df98e3-b7b4-4a3e-8fd8-7f0e7fa1d660,S
2019-11-08 04:18:26,a6df98e3-b7b4-4a3e-8fd8-7f0e7fa1d660,A
2019-11-08 04:24:57,a6df98e3-b7b4-4a3e-8fd8-7f0e7fa1d660,S
2019-11-08 04:25:55,a6df98e3-b7b4-4a3e-8fd8-7f0e7fa1d660,A
2019-11-08 04:26:16,a6df98e3-b7b4-4a3e-8fd8-7f0e7fa1d660,S
2019-11-08 04:31:26,a6df98e3-b7b4-4a3e-8fd8-7f0e7fa1d660,A
2019-11-08 04:36:19,a6df98e3-b7b4-4a3e-8fd8-7f0e7fa1d660,S
2019-11-08 04:40:59,a6df98e3-b7b4-4a3e-8fd8-7f0e7fa1d660,A
2019-11-08 04:53:59,a6df98e3-b7b4-4a3e-8fd8-7f0e7fa1d660,S
2019-11-08 05:11:28,a6df98e3-b7b4-4a3e-8fd8-7f0e7fa1d660,A
2019-11-08 05:16:11,a6df98e3-b7b4-4a3e-8fd8-7f0e7fa1d660,S
2019-11-08 05:18:20,a6df98e3-b7b4-4a3e-8fd8-7f0e7fa1d660,A
2019-11-08 05:19:33,a6df98e3-b7b4-4a3e-8fd8-7f0e7fa1d660,S
2019-11-08 05:20:56,a6df98e3-b7b4-4a3e-8fd8-7f0e7fa1d660,A
2019-11-08 05:21:39,a6df98e3-b7b4-4a3e-8fd8-7f0e7fa1d660,S
2019-11-08 05:22:12,a6df98e3-b7b4-4a3e-8fd8-7f0e7fa1d660,A
2019-11-08 05:23:17,a6df98e3-b7b4-4a3e-8fd8-7f0e7fa1d660,S
2019-11-08 05:29:57,a6df98e3-b7b4-4a3e-8fd8-7f0e7fa1d660,A
2019-11-08 05:30:17,a6df98e3-b7b4-4a3e-8fd8-7f0e7fa1d660,S
2019-11-08 05:31:05,a6df98e3-b7b4-4a3e-8fd8-7f0e7fa1d660,A
2019-11-08 05:31:06,a6df98e3-b7b4-4a3e-8fd8-7f0e7fa1d660,S
2019-11-08 04:02:00,6e590559-bd03-49b6-80eb-13c0e6c81e81,A
2019-11-08 04:02:29,6e590559-bd03-49b6-80eb-13c0e6c81e81,S
2019-11-08 04:10:59,6e590559-bd03-49b6-80eb-13c0e6c81e81,A
2019-11-08 04:12:18,6e590559-bd03-49b6-80eb-13c0e6c81e81,S
2019-11-08 04:12:18,6e590559-bd03-49b6-80eb-13c0e6c81e81,A
2019-11-08 04:20:55,6e590559-bd03-49b6-80eb-13c0e6c81e81,S
2019-11-08 04:22:09,6e590559-bd03-49b6-80eb-13c0e6c81e81,A
2019-11-08 04:22:59,6e590559-bd03-49b6-80eb-13c0e6c81e81,S
2019-11-08 04:26:46,6e590559-bd03-49b6-80eb-13c0e6c81e81,A
2019-11-08 04:27:53,6e590559-bd03-49b6-80eb-13c0e6c81e81,S
2019-11-08 04:28:05,6e590559-bd03-49b6-80eb-13c0e6c81e81,A
2019-11-08 04:33:38,6e590559-bd03-49b6-80eb-13c0e6c81e81,S
2019-11-08 04:38:57,6e590559-bd03-49b6-80eb-13c0e6c81e81,A
2019-11-08 04:51:12,6e590559-bd03-49b6-80eb-13c0e6c81e81,S
2019-11-08 04:51:28,6e590559-bd03-49b6-80eb-13c0e6c81e81,A
2019-11-08 04:55:38,6e590559-bd03-49b6-80eb-13c0e6c81e81,S
2019-11-08 05:05:14,6e590559-bd03-49b6-80eb-13c0e6c81e81,A
2019-11-08 05:17:19,6e590559-bd03-49b6-80eb-13c0e6c81e81,S
2019-11-08 05:20:49,6e590559-bd03-49b6-80eb-13c0e6c81e81,A
2019-11-08 05:25:12,6e590559-bd03-49b6-80eb-13c0e6c81e81,S
2019-11-08 05:26:36,6e590559-bd03-49b6-80eb-13c0e6c81e81,A
2019-11-08 05:27:12,6e590559-bd03-49b6-80eb-13c0e6c81e81,S
2019-11-08 05:34:12,6e590559-bd03-49b6-80eb-13c0e6c81e81,A
2019-11-08 05:35:40,6e590559-bd03-49b6-80eb-13c0e6c81e81,S
2019-11-08 05:36:12,6e590559-bd03-49b6-80eb-13c0e6c81e81,A
2019-11-08 03:54:58,b10bf370-6d6d-4989-86a7-2051da9a51d8,S
2019-11-08 04:00:14,b10bf370-6d6d-4989-86a7-2051da9a51d8,A
2019-11-08 04:06:57,b10bf370-6d6d-4989-86a7-2051da9a51d8,S
2019-11-08 04:11:57,b10bf370-6d6d-4989-86a7-2051da9a51d8,A
2019-11-08 04:12:53,b10bf370-6d6d-4989-86a7-2051da9a51d8,S
2019-11-08 04:19:40,b10bf370-6d6d-4989-86a7-2051da9a51d8,A
2019-11-08 04:21:55,b10bf370-6d6d-4989-86a7-2051da9a51d8,S
2019-11-08 04:28:01,b10bf370-6d6d-4989-86a7-2051da9a51d8,A
2019-11-08 04:28:03,b10bf370-6d6d-4989-86a7-2051da9a51d8,S
2019-11-08 04:28:47,b10bf370-6d6d-4989-86a7-2051da9a51d8,A
2019-11-08 04:32:40,b10bf370-6d6d-4989-86a7-2051da9a51d8,S
2019-11-08 04:38:17,b10bf370-6d6d-4989-86a7-2051da9a51d8,A
2019-11-08 04:40:18,b10bf370-6d6d-4989-86a7-2051da9a51d8,S
2019-11-08 04:43:31,b10bf370-6d6d-4989-86a7-2051da9a51d8,A
2019-11-08 04:46:22,b10bf370-6d6d-4989-86a7-2051da9a51d8,S
2019-11-08 04:49:37,b10bf370-6d6d-4989-86a7-2051da9a51d8,A
2019-11-08 04:58:38,b10bf370-6d6d-4989-86a7-2051da9a51d8,S
2019-11-08 05:02:12,b10bf370-6d6d-4989-86a7-2051da9a51d8,A
2019-11-08 05:03:11,b10bf370-6d6d-4989-86a7-2051da9a51d8,S
2019-11-08 05:06:38,b10bf370-6d6d-4989-86a7-2051da9a51d8,A
2019-11-08 05:08:36,b10bf370-6d6d-4989-86a7-2051da9a51d8,S
2019-11-08 05:09:17,b10bf370-6d6d-4989-86a7-2051da9a51d8,A
2019-11-08 05:16:26,b10bf370-6d6d-4989-86a7-2051da9a51d8,S
2019-11-08 05:18:50,b10bf370-6d6d-4989-86a7-2051da9a51d8,A
2019-11-08 05:32:41,b10bf370-6d6d-4989-86a7-2051da9a51d8,S
2019-11-08 05:35:40,b10bf370-6d6d-4989-86a7-2051da9a51d8,A
2019-11-08 04:12:50,cd57fec1-4a52-4410-82db-10e62fc1a91e,S
2019-11-08 04:15:01,cd57fec1-4a52-4410-82db-10e62fc1a91e,A
2019-11-08 04:17:46,cd57fec1-4a52-4410-82db-10e62fc1a91e,S
2019-11-08 04:34:42,cd57fec1-4a52-4410-82db-10e62fc1a91e,A
2019-11-08 04:36:23,cd57fec1-4a52-4410-82db-10e62fc1a91e,S
2019-11-08 04:37:29,cd57fec1-4a52-4410-82db-10e62fc1a91e,A
2019-11-08 04:42:44,cd57fec1-4a52-4410-82db-10e62fc1a91e,S
2019-11-08 04:51:22,cd57fec1-4a52-4410-82db-10e62fc1a91e,A
2019-11-08 04:53:20,cd57fec1-4a52-4410-82db-10e62fc1a91e,S
2019-11-08 05:00:55,cd57fec1-4a52-4410-82db-10e62fc1a91e,A
2019-11-08 05:01:43,cd57fec1-4a52-4410-82db-10e62fc1a91e,S
2019-11-08 05:13:30,cd57fec1-4a52-4410-82db-10e62fc1a91e,A
2019-11-08 05:21:23,cd57fec1-4a52-4410-82db-10e62fc1a91e,S
2019-11-08 05:23:01,cd57fec1-4a52-4410-82db-10e62fc1a91e,A
2019-11-08 05:26:50,cd57fec1-4a52-4410-82db-10e62fc1a91e,S
2019-11-08 05:29:08,cd57fec1-4a52-4410-82db-10e62fc1a91e,A
2019-11-08 03:59:00,671e99f2-354e-4907-b565-4eb7059e6709,S
2019-11-08 03:59:42,671e99f2-354e-4907-b565-4eb7059e6709,A
2019-11-08 04:15:22,671e99f2-354e-4907-b565-4eb7059e6709,S
2019-11-08 04:22:37,671e99f2-354e-4907-b565-4eb7059e6709,A
2019-11-08 04:22:59,671e99f2-354e-4907-b565-4eb7059e6709,S
2019-11-08 04:23:28,671e99f2-354e-4907-b565-4eb7059e6709,A
2019-11-08 04:24:35,671e99f2-354e-4907-b565-4eb7059e6709,S
2019-11-08 04:32:23,671e99f2-354e-4907-b565-4eb7059e6709,A
2019-11-08 04:34:52,671e99f2-354e-4907-b565-4eb7059e6709,S
2019-11-08 04:35:50,671e99f2-354e-4907-b565-4eb7059e6709,A
2019-11-08 04:40:49,671e99f2-354e-4907-b565-4eb7059e6709,S
2019-11-08 04:44:15,671e99f2-354e-4907-b565-4eb7059e6709,A
2019-11-08 04:51:58,671e99f2-354e-4907-b565-4eb7059e6709,S
2019-11-08 04:55:30,671e99f2-354e-4907-b565-4eb7059e6709,A
2019-11-08 04:56:34,671e99f2-354e-4907-b565-4eb7059e6709,S
2019-11-08 04:57:52,671e99f2-354e-4907-b565-4eb7059e6709,A
2019-11-08 05:07:01,671e99f2-354e-4907-b565-4eb7059e6709,S
2019-11-08 05:08:08,671e99f2-354e-4907-b565-4eb7059e6709,A
2019-11-08 05:10:45,671e99f2-354e-4907-b565-4eb7059e6709,S
2019-11-08 05:12:52,671e99f2-354e-4907-b565-4eb7059e6709,A
2019-11-08 05:21:25,671e99f2-354e-4907-b565-4eb7059e6709,S
2019-11-08 05:23:38,671e99f2-354e-4907-b565-4eb7059e6709,A
2019-11-08 05:28:36,671e99f2-354e-4907-b565-4eb7059e6709,S
2019-11-08 05:32:03,671e99f2-354e-4907-b565-4eb7059e6709,A
2019-11-08 05:32:38,671e99f2-354e-4907-b565-4eb7059e6709,S
2019-11-08 05:34:10,671e99f2-354e-4907-b565-4eb7059e6709,A
2019-11-08 03:37:36,6558307a-5585-4b48-b856-02dfafc8d388,S
2019-11-08 03:53:43,6558307a-5585-4b48-b856-02dfafc8d388,A
2019-11-08 03:54:56,6558307a-5585-4b48-b856-02dfafc8d388,S
2019-11-08 03:59:44,6558307a-5585-4b48-b856-02dfafc8d388,A
2019-11-08 04:00:50,6558307a-5585-4b48-b856-02dfafc8d388,S
2019-11-08 04:03:38,6558307a-5585-4b48-b856-02dfafc8d388,A
2019-11-08 04:08:49,6558307a-5585-4b48-b856-02dfafc8d388,S
2019-11-08 04:10:59,6558307a-5585-4b48-b856-02dfafc8d388,A
2019-11-08 04:14:28,6558307a-5585-4b48-b856-02dfafc8d388,S
2019-11-08 04:20:04,6558307a-5585-4b48-b856-02dfafc8d388,A
2019-11-08 04:30:35,6558307a-5585-4b48-b856-02dfafc8d388,S
2019-11-08 04:36:15,6558307a-5585-4b48-b856-02dfafc8d388,A
2019-11-08 04:38:13,6558307a-5585-4b48-b856-02dfafc8d388,S
2019-11-08 04:40:14,6558307a-5585-4b48-b856-02dfafc8d388,A
2019-11-08 04:48:32,6558307a-5585-4b48-b856-02dfafc8d388,S
2019-11-08 04:50:41,6558307a-5585-4b48-b856-02dfafc8d388,A
2019-11-08 04:55:36,6558307a-5585-4b48-b856-02dfafc8d388,S
2019-11-08 04:58:34,6558307a-5585-4b48-b856-02dfafc8d388,A
2019-11-08 04:59:42,6558307a-5585-4b48-b856-02dfafc8d388,S
2019-11-08 05:04:37,6558307a-5585-4b48-b856-02dfafc8d388,A
2019-11-08 05:07:30,6558307a-5585-4b48-b856-02dfafc8d388,S
2019-11-08 05:11:19,6558307a-5585-4b48-b856-02dfafc8d388,A
2019-11-08 05:13:39,6558307a-5585-4b48-b856-02dfafc8d388,S
2019-11-08 05:17:25,6558307a-5585-4b48-b856-02dfafc8d388,A
2019-11-08 05:22:51,6558307a-5585-4b48-b856-02dfafc8d388,S
2019-11-08 05:23:57,6558307a-5585-4b48-b856-02dfafc8d388,A
2019-11-08 05:29:42,6558307a-5585-4b48-b856-02dfafc8d388,S
2019-11-08 05:30:39,6558307a-5585-4b48-b856-02dfafc8d388,A
2019-11-08 05:32:09,6558307a-5585-4b48-b856-02dfafc8d388,S
2019-11-08 05:32:41,6558307a-5585-4b48-b856-02dfafc8d388,A
2019-11-08 05:36:01,6558307a-5585-4b48-b856-02dfafc8d388,S
2019-11-08 05:37:30,6558307a-5585-4b48-b856-02dfafc8d388,A
2019-11-08 04:08:11,99fcb895-48e0-4f26-be39-bbc11bbd4a6e,A
2019-11-08 04:17:06,99fcb895-48e0-4f26-be39-bbc11bbd4a6e,S
2019-11-08 04:27:50,99fcb895-48e0-4f26-be39-bbc11bbd4a6e,A
2019-11-08 04:33:22,99fcb895-48e0-4f26-be39-bbc11bbd4a6e,S
2019-11-08 04:36:00,99fcb895-48e0-4f26-be39-bbc11bbd4a6e,A
2019-11-08 04:36:44,99fcb895-48e0-4f26-be39-bbc11bbd4a6e,S
2019-11-08 04:41:24,99fcb895-48e0-4f26-be39-bbc11bbd4a6e,A
2019-11-08 04:43:14,99fcb895-48e0-4f26-be39-bbc11bbd4a6e,S
2019-11-08 04:56:29,99fcb895-48e0-4f26-be39-bbc11bbd4a6e,A
2019-11-08 04:58:22,99fcb895-48e0-4f26-be39-bbc11bbd4a6e,S
2019-11-08 05:04:34,99fcb895-48e0-4f26-be39-bbc11bbd4a6e,A
2019-11-08 05:07:22,99fcb895-48e0-4f26-be39-bbc11bbd4a6e,S
2019-11-08 05:09:10,99fcb895-48e0-4f26-be39-bbc11bbd4a6e,A
2019-11-08 05:09:33,99fcb895-48e0-4f26-be39-bbc11bbd4a6e,S
2019-11-08 05:10:12,99fcb895-48e0-4f26-be39-bbc11bbd4a6e,A
2019-11-08 05:22:43,99fcb895-48e0-4f26-be39-bbc11bbd4a6e,S
2019-11-08 05:22:44,99fcb895-48e0-4f26-be39-bbc11bbd4a6e,A
2019-11-08 05:23:20,99fcb895-48e0-4f26-be39-bbc11bbd4a6e,S
2019-11-08 05:23:49,99fcb895-48e0-4f26-be39-bbc11bbd4a6e,A
2019-11-08 05:37:13,99fcb895-48e0-4f26-be39-bbc11bbd4a6e,S
2019-11-08 03:39:26,05895566-0259-4577-aaf8-ddce35b8ca74,S
2019-11-08 03:45:38,05895566-0259-4577-aaf8-ddce35b8ca74,A
2019-11-08 03:50:02,05895566-0259-4577-aaf8-ddce35b8ca74,S
2019-11-08 04:00:34,05895566-0259-4577-aaf8-ddce35b8ca74,A
2019-11-08 04:00:54,05895566-0259-4577-aaf8-ddce35b8ca74,S
2019-11-08 04:06:22,05895566-0259-4577-aaf8-ddce35b8ca74,A
2019-11-08 04:06:57,05895566-0259-4577-aaf8-ddce35b8ca74,S
2019-11-08 04:07:34,05895566-0259-4577-aaf8-ddce35b8ca74,A
2019-11-08 04:10:06,05895566-0259-4577-aaf8-ddce35b8ca74,S
2019-11-08 04:10:26,05895566-0259-4577-aaf8-ddce35b8ca74,A
2019-11-08 04:11:17,05895566-0259-4577-aaf8-ddce35b8ca74,S
2019-11-08 04:26:50,05895566-0259-4577-aaf8-ddce35b8ca74,A
2019-11-08 04:28:09,05895566-0259-4577-aaf8-ddce35b8ca74,S
2019-11-08 04:31:17,05895566-0259-4577-aaf8-ddce35b8ca74,A
2019-11-08 04:43:11,05895566-0259-4577-aaf8-ddce35b8ca74,S
2019-11-08 04:44:38,05895566-0259-4577-aaf8-ddce35b8ca74,A
2019-11-08 04:45:47,05895566-0259-4577-aaf8-ddce35b8ca74,S
2019-11-08 04:46:38,05895566-0259-4577-aaf8-ddce35b8ca74,A
2019-11-08 04:47:01,05895566-0259-4577-aaf8-ddce35b8ca74,S
2019-11-08 04:53:31,05895566-0259-4577-aaf8-ddce35b8ca74,A
2019-11-08 05:24:10,05895566-0259-4577-aaf8-ddce35b8ca74,S
2019-11-08 05:27:56,05895566-0259-4577-aaf8-ddce35b8ca74,A
2019-11-08 05:36:38,05895566-0259-4577-aaf8-ddce35b8ca74,S
2019-11-08 03:59:38,a12deb98-cf3b-44f7-8e77-a0d2eb2d8d71,S
2019-11-08 04:11:53,a12deb98-cf3b-44f7-8e77-a0d2eb2d8d71,A
2019-11-08 04:22:01,a12deb98-cf3b-44f7-8e77-a0d2eb2d8d71,S
2019-11-08 04:23:19,a12deb98-cf3b-44f7-8e77-a0d2eb2d8d71,A
2019-11-08 04:25:18,a12deb98-cf3b-44f7-8e77-a0d2eb2d8d71,S
2019-11-08 04:31:57,a12deb98-cf3b-44f7-8e77-a0d2eb2d8d71,A
2019-11-08 04:32:44,a12deb98-cf3b-44f7-8e77-a0d2eb2d8d71,S
2019-11-08 04:35:06,a12deb98-cf3b-44f7-8e77-a0d2eb2d8d71,A
2019-11-08 04:35:57,a12deb98-cf3b-44f7-8e77-a0d2eb2d8d71,S
2019-11-08 04:36:19,a12deb98-cf3b-44f7-8e77-a0d2eb2d8d71,A
2019-11-08 04:36:37,a12deb98-cf3b-44f7-8e77-a0d2eb2d8d71,S
2019-11-08 04:43:34,a12deb98-cf3b-44f7-8e77-a0d2eb2d8d71,A
2019-11-08 04:56:24,a12deb98-cf3b-44f7-8e77-a0d2eb2d8d71,S
2019-11-08 05:01:01,a12deb98-cf3b-44f7-8e77-a0d2eb2d8d71,A
2019-11-08 05:01:40,a12deb98-cf3b-44f7-8e77-a0d2eb2d8d71,S
2019-11-08 05:18:35,a12deb98-cf3b-44f7-8e77-a0d2eb2d8d71,A
2019-11-08 05:20:56,a12deb98-cf3b-44f7-8e77-a0d2eb2d8d71,S
2019-11-08 05:21:10,a12deb98-cf3b-44f7-8e77-a0d2eb2d8d71,A
2019-11-08 05:22:29,a12deb98-cf3b-44f7-8e77-a0d2eb2d8d71,S
2019-11-08 05:24:55,a12deb98-cf3b-44f7-8e77-a0d2eb2d8d71,A
2019-11-08 05:30:23,a12deb98-cf3b-44f7-8e77-a0d2eb2d8d71,S
2019-11-08 05:33:27,a12deb98-cf3b-44f7-8e77-a0d2eb2d8d71,A
2019-11-08 04:16:15,17ed7a35-7a71-486d-bafc-62cd5ad23da8,S
2019-11-08 04:17:29,17ed7a35-7a71-486d-bafc-62cd5ad23da8,A
2019-11-08 04:23:14,17ed7a35-7a71-486d-bafc-62cd5ad23da8,S
2019-11-08 04:36:34,17ed7a35-7a71-486d-bafc-62cd5ad23da8,A
2019-11-08 04:44:19,17ed7a35-7a71-486d-bafc-62cd5ad23da8,S
2019-11-08 04:46:50,17ed7a35-7a71-486d-bafc-62cd5ad23da8,A
2019-11-08 05:03:12,17ed7a35-7a71-486d-bafc-62cd5ad23da8,S
2019-11-08 05:09:20,17ed7a35-7a71-486d-bafc-62cd5ad23da8,A
2019-11-08 05:24:08,17ed7a35-7a71-486d-bafc-62cd5ad23da8,S
2019-11-08 05:29:23,17ed7a35-7a71-486d-bafc-62cd5ad23da8,A
2019-11-08 05:31:56,17ed7a35-7a71-486d-bafc-62cd5ad23da8,S
2019-11-08 05:35:21,17ed7a35-7a71-486d-bafc-62cd5ad23da8,A
