app_number,app_id,trigger,burn,sink,deploy_date,token_interval
1,2c666a79-b5fd-4109-a6ba-27d1e16657f6,abae7aa3-2bbf-49cf-bcee-5705b3197f2e,deef0a4a-128f-46e4-90af-bf94c7b3c261,90948bde-bcc3-4b0e-ae00-7cac0fb9b861,2020-02-22 13:17:33,1.000000
2,b0ff5d7d-93e9-430b-89b7-7ee2ffe66cc0,7f0db47c-5132-4d01-a46d-6db635abf166,121bfa85-4c1a-4ec7-8ad1-5cfc275e8a0b,11999dec-426d-4f23-8536-91693ff88176,2020-02-22 13:18:36,1.000000
3,0f20e90e-425c-442a-b2cd-0fa56d388a90,3a7f151c-642f-45fc-870a-6aafbd2758ee,76de63a8-c207-429b-92b7-d8e2ac10dafe,e3504948-2ac5-47fa-bb0e-0d43c542bcd7,2020-02-22 13:19:40,1.000000
4,a3ff5591-44ba-420a-a42e-6b8c3993dd9a,643c5873-1ee2-4a6a-9ca3-29449faab409,5b335b4f-0255-451f-84df-2a69466bfae1,f13e886a-a090-42fc-ba90-1c1edd6a71fa,2020-02-22 13:20:43,0.200000
5,ae7e3a06-a29f-498a-bc35-202a464f8ad6,ede05cc5-d100-43c7-987f-0332f8580a0f,1ebe3459-cbeb-4702-8988-ea250ee0fba3,9a9e398e-3ea8-443a-be05-1d9f4f5f4ee3,2020-02-22 13:21:47,0.200000
6,4411c494-0bd6-4fb2-bac3-9d93ae46c3f2,63e60ae2-dd1d-4cca-94c7-f1b6e16f898c,ab6b6813-34f4-4ab0-b0fe-9873deab9279,f28749db-7d77-463f-94d0-b47b579c4982,2020-02-22 13:22:50,0.200000
7,cd8f9630-af21-420e-995d-14c2fdd2323a,7f7788d7-3765-43b9-be58-2ab19c917556,9f721b91-eed1-467b-a7fc-af0f1356d13d,bf6ce6ed-c1e8-4396-850c-b47549748c0c,2020-02-22 13:23:53,0.200000
8,ff91c30c-4d49-467d-a97c-d6598de1459f,cf6166b8-cb21-40fa-8eb6-36e12b4a04d5,f956c642-c809-45b2-a18c-7f196cc72bab,89f7238a-d25b-42b8-bd88-58cc19f6430d,2020-02-22 13:24:57,1.000000
9,33c52780-23a4-4b0c-90ef-46865294ce53,0e278506-1c43-47bd-9e86-8118bc01b9e9,17a3c738-501a-4b45-ba75-35fa477c81b3,44b5f835-c1b5-43f4-a10b-4c6aaf566568,2020-02-22 13:26:00,0.200000
10,ef3464d5-3603-4dc6-a567-f3adac41e8ad,9f8b446f-5f02-4002-b04b-f2b351367d76,41b68db1-e5be-4033-a5ca-3c89ae7b1537,4072e977-722d-4b69-8d99-4d1fa1432f7c,2020-02-22 13:27:03,0.200000
11,5ceacc67-9d3e-467c-8509-89c719427bed,a2e59294-ddfe-4245-b1e2-c1a7b80941a3,73574dff-57c4-4a85-a1cb-cc0df59bf5f0,e3e5c9b3-24c2-4ec0-9d8e-7a4ccd802d23,2020-02-22 13:28:07,0.200000
12,7f049b54-16c6-4ee6-ab10-f0c78d7892de,bf82046b-4ec9-4348-a1ba-8b7c6c771c6c,d753c3a8-e63e-4dd8-8f0f-0cc3f3babdd2,6474c712-b826-4909-8a87-8fd198e0e051,2020-02-22 13:29:10,1.000000
13,d750fa6c-718c-465c-b5c5-eef189886042,a6fc9257-e50d-4bbc-8374-db8e9f4731f8,714d8e8e-d589-494a-ac2d-a946fa6accc4,f6df34da-0c6b-4ba5-9ade-0b20809d52f8,2020-02-22 13:30:13,0.200000
14,54e14621-59bd-4516-a61a-c24e83ba4af8,4665e0df-ac9a-4ecd-af66-80a7c04d6466,e35d7ba2-5bc9-487d-9382-5f6fb9d5e8dd,af15a5d6-fe71-48fa-9505-2ccf959490f8,2020-02-22 13:31:16,0.200000
15,fc2534f3-b12d-4880-8cf3-443d0793cc0d,4a1d4a5f-ae75-45d8-b70f-91b435c39870,369913e0-d9a6-41e2-90fd-9b4f6ee5a171,57930851-9f4a-4aa6-88d2-1634d0c96392,2020-02-22 13:32:20,1.000000
16,2171f503-32e0-4bd6-b1aa-c3b273a486c1,02babc66-6fa8-44c2-b13a-08eb9ed676b0,9c789104-7b6e-4fbc-9262-98a0ae4d88c6,aa019549-2474-4f91-af92-2fdd9803bf10,2020-02-22 13:33:23,1.000000
17,9d9ce758-1df9-4f2d-b662-e9c82d076c10,958e661e-78cf-4884-af87-f9295174b2cc,3447f345-604e-43a5-9038-af8b4fa3afc7,8f9ef55a-259f-4d86-bfeb-9bcbb4fcbfee,2020-02-22 13:34:27,0.200000
18,687345ee-a8eb-446b-a93a-17badfe72b83,1da74db1-79e3-4b9c-b8ec-cb39619c0e08,8414c141-255c-4a94-bd52-e1e1797415f7,72538078-d7fe-43f2-aa81-92c675aa3442,2020-02-22 13:35:30,1.000000
19,f89a2bf0-a8f7-4f75-ae15-8978d91605aa,12ca2394-b076-4fb3-b8c0-f87851c01cc9,ec8d304a-8975-4f78-a0b5-6e1b38c0149c,2b92cb56-15d7-4d10-8314-dcc9fcdda115,2020-02-22 13:36:33,0.200000
20,ee4d86e8-3892-4538-8ce0-3b323905690d,aea6a186-d3ea-4c29-8280-31c952d10375,3cb8c81e-3445-4e61-84c4-fef71de3194f,265481aa-a5cb-4990-a490-1aadbdf215b6,2020-02-22 13:37:36,1.000000
21,92fac324-6e98-49a9-b73f-ff7ed9790bb5,1198f4d3-f782-4d47-bfd6-980ae2a9b327,c076150c-388b-4696-811c-c32cb619b4a7,a74fad23-0b6e-406a-b7cd-853034a8d849,2020-02-22 13:38:40,0.200000
22,3e94c5e4-d9f2-4379-a434-92080dc3ed84,8ef1f369-98bf-451c-97d0-ba2a8e9fdfa5,1462d337-5a87-4e0a-b5c2-9bf8b135ab09,f7d4995b-28e3-4e38-9938-546d823a2613,2020-02-22 13:39:43,0.200000
23,691405aa-8b1c-4380-953e-8a57d7b905ee,0c747484-8ca8-4b29-938b-a745f23b0199,4997488f-9854-4bab-bc62-6432296d299d,0c14695d-b9d8-4e17-8a83-5c3accb6bb75,2020-02-22 13:40:47,0.200000
24,044dd318-7407-4359-b621-6f1f506bf68a,4d32827c-a4fc-4fb6-850a-e5361b6a8ccb,1b078caa-0ac7-4a13-89bd-937cf1d2e9a0,c3a514dd-2745-43c1-89e1-95dc02d2a2d5,2020-02-22 13:41:50,1.000000
25,0cacbae4-200d-4076-8afa-0fc468fcdf9c,179cce9a-e879-4c53-952e-37b1ae45cfef,86633ac3-2aea-4aa1-b8d5-2e1edc7c219f,02b9e420-09dc-45e3-b37e-6256649b95e1,2020-02-22 13:42:53,1.000000
26,dc2bb3cc-74af-44b4-8557-af601b49afb8,a9fc82b1-f028-4c28-8c98-204a5911f3d4,a3c1c58f-6eed-4364-8765-f2ed9d5d516a,a105b3b3-c4b4-4448-b2e1-e7257f41066d,2020-02-22 13:43:57,1.000000
27,10192501-553e-43fc-9e82-6add4b794603,7f89a156-f516-4b0a-801b-f74bac3769b8,bd682aa9-4a36-47fc-bb51-2093a21d5d9b,059bad97-7299-4616-b46a-680b9e2eb5e7,2020-02-22 13:45:00,0.200000
28,9cacb84a-d930-41f2-8bb3-ed899d0f5205,3afb413b-d51f-4199-a3fc-7b7f54495f39,ad399f1d-a255-4baf-8692-d4a62e3cbc34,8b16f4b0-a32f-4c9a-85f9-3b4ed9b6c0df,2020-02-22 13:46:03,1.000000
29,3cfdbb02-1ffb-4d4e-90a4-6e57dcfe26a0,0fdca42e-b601-49c4-80c3-c682a7ea0607,c36b5144-c9b9-4e89-bd7e-8c226dbeefa7,03ca7c01-f5cc-4a4d-b541-bcf65da4623e,2020-02-22 13:47:07,1.000000
30,28468e6b-b98b-41f0-a267-510b3bf888c9,0b222437-5d8f-4583-8967-6732a5fdd0d4,5668509e-55e3-402b-bd43-0401cebba3a5,9f64e741-8e3b-4804-9d91-2264bb8f54c9,2020-02-22 13:48:10,1.000000
31,3b26a673-539a-4ba9-9038-22517ed7b453,9e7eb63a-e5a5-41ec-8707-0821b1484b0b,8791407e-95e4-49dc-870f-9c7054000b61,cb055db4-c97a-4d40-8d53-67a7cc0f3518,2020-02-22 13:49:13,1.000000
32,1e8b1649-4ee8-4adc-8273-fc6bb3653ae7,5d69d371-1bf6-40bc-99ed-3ea21b251e2f,026e47e7-7a52-455a-8306-6bb26189d129,dc199113-1530-4568-a54c-db562149298c,2020-02-22 13:50:16,0.200000
33,06b9221a-44f3-4e0d-983b-b1e5b1f383e9,78ae3771-6047-4ad0-ac1a-94f92c3429c0,13adeed6-e495-4e89-b07b-db8818e851f9,23843300-fd69-4261-8509-6a87c3f7221b,2020-02-22 13:51:20,1.000000
34,a25cb9d5-a0fa-49e8-9392-43b7262c734a,dd1aea7f-b17b-403e-ac05-8a25961d6606,9738ed86-fa51-4c78-aea0-ee203f34e908,ca733b3b-9826-4ffc-8037-1bd6f31af647,2020-02-22 13:52:23,0.200000
35,7ea24170-e31b-47bc-8a5a-4a01548f028f,b56050df-fcd6-4a0b-afc0-6b5453ead6d2,3604811c-9c03-451b-aef3-aa655c81c7f0,1ef050aa-b4dc-4262-bf38-10cec7dff383,2020-02-22 13:53:26,1.000000
36,02bea2e8-0e98-463d-bf40-c85ba76d1c23,41c9de89-036b-4117-8695-c28c343d53f8,990993c5-f9d9-4440-93f6-aac3c1e6eacd,5f9b2694-1d96-4255-a087-23fc3b3cb31d,2020-02-22 13:54:30,0.200000
37,1ec17f3d-891d-439a-8bb0-fa80199e94eb,94529562-c0d6-417a-8ab7-740642f86ca6,eaf29310-4f1a-4cf4-ab99-39f0fedc43ac,927128dc-681b-4744-8609-c5530828edc1,2020-02-22 13:55:33,1.000000
38,298ca341-0f9c-459e-be6b-52c97e4f37b8,b736527f-04a4-48d9-9fcf-3c72eb69b013,3aa1d1ba-89d8-4a80-bc07-2c7e1c3b879f,b31254a3-2627-4d7a-8700-61b06cdd9d09,2020-02-22 13:56:36,1.000000
39,35f0a1ff-a756-4a83-97bb-aef1a61ec0b9,9a014941-1249-4fda-afc7-60567fc4aa6d,0955b84b-0d05-4e26-a498-a39c437de195,ec6f3342-2c9e-4b67-8ecc-ab283d009169,2020-02-22 13:57:40,0.200000
40,7d92bc33-61da-47da-9f9a-c0ea41bcd9e8,a6170fa8-5327-42da-a2ef-1bc669b5da0f,9dd9e2fd-4858-4ee4-b30a-a2ea9c91ed7a,e2be1d05-6a27-49ba-930b-d724ea8e36c6,2020-02-22 13:58:43,0.200000
41,6437e9a1-7782-474e-93d3-c0bf7e8dafcb,eaf9b290-de50-4e6e-ad36-8c5aeaaeefef,2c430d12-f3f6-4ed5-a711-01108f2f9f46,aee6a48f-e8ae-4db4-b939-d322608bc807,2020-02-22 13:59:46,1.000000
42,ce4f1c43-5f9d-4695-9531-5dda53d82331,82975983-d402-4fe9-9d0b-5cb87070e9df,0e0ad8ac-80d8-4fe9-92b6-7bd58e007404,695b993b-a2d9-4486-8a0b-0cf610d0e1c3,2020-02-22 14:00:50,0.200000
43,35863159-6388-42f7-9f64-87d618d2ee17,affc6e9e-c636-4155-84b8-fd4ec41222bf,63ae2c4e-4a0f-4c2c-94ff-523e9887eedd,e99f1785-6c5e-47c5-803b-bc860f610dfb,2020-02-22 14:01:53,0.200000
44,6fca311a-1e47-41d2-9ed9-c874968e558a,c65a6c2c-8ca6-4c85-be74-f79ee7c186e3,9a2ab5b3-ab33-4bcf-833c-5bbe4376f327,c395b6f9-2779-4e2d-9a3c-54fa959220ec,2020-02-22 14:02:56,0.200000
45,7c0d3202-ca3d-46b7-b8d7-59ed862ea8e1,40037213-6cb0-4915-8cfb-f362eca2c219,b7a66eaa-bd23-420d-a1e0-f9a5900da47c,c3d5e8dc-773f-4daf-ad46-e5eaf48e9bc3,2020-02-22 14:04:00,1.000000
46,dc01a90d-a01a-4555-9ab1-c85a79a47db3,7d18f574-e451-41b6-967d-6a646fc1dac1,f41fa242-391f-4fe9-bb4c-40342bb8ca5b,1f0335b5-e113-4ba1-94e9-b77b77f24674,2020-02-22 14:05:03,0.200000
47,8621c491-764e-49e1-9ccf-4caaf5d58a38,47d201a7-0b04-4bf9-ab67-a3e4a7f53a65,3658ed5f-196e-41e6-8233-89022b6ebb09,b38446f2-5489-4a5d-b1b9-136cb55bd6c6,2020-02-22 14:06:06,0.200000
48,dbc79356-346e-478f-8965-c67f8f1cc9c4,b2a204b5-6bf9-4302-abf6-7a87196d1507,a7bc8479-eafa-4d7c-a5a4-92175236789d,1f75a131-0cbd-4711-bb75-87679ce897c8,2020-02-22 14:07:10,1.000000
49,16558ac4-b714-4aee-8312-0ce846b40650,1b510b7f-527b-4dc0-a9c6-b076f9ee652b,b70d2d50-b29a-4a8f-a357-1a74b9cbc21b,18401bd6-20eb-478e-80c2-3b150eeca2d9,2020-02-22 14:08:13,0.200000
50,4089373f-930c-403e-b586-4fe6efaae07a,006cbaa0-ab81-4ad9-bcb7-971a0bbb4270,33c6db1e-e9b6-40c7-900c-2accb3baabd3,5d3d116c-c7bd-4a3b-8517-6b480bfe05cc,2020-02-22 14:09:16,1.000000
