node,ip,uuid
node-a8-199.grenoble.iot-lab.info,172.20.64.1,d0dd6e89-0c9d-445c-9cd1-8eb3318871c9
node-a8-200.grenoble.iot-lab.info,172.20.64.2,99483969-04ce-4d8f-8aba-0523456f7a7a
node-a8-201.grenoble.iot-lab.info,172.20.64.3,19b35351-446b-4690-86a9-272873055071
node-a8-202.grenoble.iot-lab.info,172.20.64.4,efc865dc-9fb5-4ec2-8f58-f5cb5b24b227
node-a8-204.grenoble.iot-lab.info,172.20.64.5,1d3d553f-6f11-41f0-84a0-0f7a19858851
node-a8-205.grenoble.iot-lab.info,172.20.64.6,ca6a38a1-8ce0-4576-b7b1-ffb6253167f2
node-a8-206.grenoble.iot-lab.info,172.20.64.7,809f4281-4a19-4059-a2e7-9520d873fdc2
node-a8-207.grenoble.iot-lab.info,172.20.64.8,8865f69b-1963-4386-b517-ba07ef3a9b29
node-a8-208.grenoble.iot-lab.info,172.20.64.9,98c16139-c4e2-4f94-a86c-d97dd4df2535
node-a8-209.grenoble.iot-lab.info,172.20.64.10,ac118278-9195-42d4-b42f-eb3b7418e12c
node-a8-210.grenoble.iot-lab.info,172.20.64.11,712057d4-6c2a-4bbd-a36d-5eef3b1df198
node-a8-211.grenoble.iot-lab.info,172.20.64.12,a4648198-246f-4b99-b340-dda3e039a635
node-a8-212.grenoble.iot-lab.info,172.20.64.13,47b1f9bd-497b-4d2b-b7ac-3a70b4296e63
node-a8-214.grenoble.iot-lab.info,172.20.64.14,d7af4df1-2cda-4e36-aaea-66759ea6eb08
node-a8-216.grenoble.iot-lab.info,172.20.64.15,ebb39b4f-9762-4d54-9c74-e077ed124fd6
node-a8-217.grenoble.iot-lab.info,172.20.64.16,8776be90-f61b-4578-8b17-289767e62daf
node-a8-218.grenoble.iot-lab.info,172.20.64.17,2a398f5c-141c-40d0-bf83-5fcc1c20fb88
node-a8-219.grenoble.iot-lab.info,172.20.64.18,0a3c0b69-a396-4caa-be57-63ba44b08458
node-a8-220.grenoble.iot-lab.info,172.20.64.19,e2a65ced-e4f8-4487-a445-62c5074b3c3f
node-a8-221.grenoble.iot-lab.info,172.20.64.20,946a7120-9751-4e7b-8200-1865a7171f9b
node-a8-165.grenoble.iot-lab.info,172.20.64.21,ccba15e8-0f63-4adb-bb9a-65de7b7665c7
node-a8-166.grenoble.iot-lab.info,172.20.64.22,ab7d4abb-f1ec-44d3-9b9d-3431156b9e88
node-a8-167.grenoble.iot-lab.info,172.20.64.23,0266e30e-fd06-4462-ba28-05359412771c
node-a8-168.grenoble.iot-lab.info,172.20.64.24,e0aa671b-8315-40c9-81f0-117ecb3ce250
node-a8-169.grenoble.iot-lab.info,172.20.64.25,3e4c54ed-5f36-4d47-864f-584ac09c7af5
node-a8-170.grenoble.iot-lab.info,172.20.64.26,146bde8e-0276-4eeb-8eb3-2ffe2a4a60c1
node-a8-171.grenoble.iot-lab.info,172.20.64.27,58b6545b-e85f-4827-b43d-fc76f399f58b
node-a8-173.grenoble.iot-lab.info,172.20.64.28,7ae80b9a-eee7-4845-bb0f-22ec69a4b9bf
node-a8-174.grenoble.iot-lab.info,172.20.64.29,e6bcd386-ea6e-4a9c-a123-0e3f54a2c2f6
node-a8-175.grenoble.iot-lab.info,172.20.64.30,4113637f-5d1c-45b6-9854-6e34e9659975
node-a8-176.grenoble.iot-lab.info,172.20.64.31,458ac5da-5f7b-4bdb-901f-c5e62ae04850
node-a8-177.grenoble.iot-lab.info,172.20.64.32,d30c2826-a325-44ac-8d3e-9e5e0fbcd044
node-a8-179.grenoble.iot-lab.info,172.20.64.33,bafda7c1-8fb7-40ee-a5a0-acf41af968ab
node-a8-180.grenoble.iot-lab.info,172.20.64.34,a2c47df6-4b23-4282-9e61-252dcecb6a2c
node-a8-181.grenoble.iot-lab.info,172.20.64.35,32b1e48a-9e56-417a-8c2a-34cd89084aef
node-a8-182.grenoble.iot-lab.info,172.20.64.36,72063295-77fa-4047-8b80-2e74fee9a416
node-a8-183.grenoble.iot-lab.info,172.20.64.37,eceb87ca-e817-467e-bcbb-c61e30dd5b6f
node-a8-184.grenoble.iot-lab.info,172.20.64.38,d8e7cc35-6f0b-434e-b317-5234af42e7c7
node-a8-185.grenoble.iot-lab.info,172.20.64.39,762918f0-ee55-42d6-8fa9-6f3b1ad22746
node-a8-187.grenoble.iot-lab.info,172.20.64.40,d78f3e1d-d865-4310-9d33-db9cd23b4c20
node-a8-188.grenoble.iot-lab.info,172.20.64.41,d18e29f1-60bc-4845-8051-3156bad23437
node-a8-189.grenoble.iot-lab.info,172.20.64.42,6b36d398-83ae-45ed-8634-8204c0e98125
node-a8-190.grenoble.iot-lab.info,172.20.64.43,a75402f0-946f-44c2-afdf-5263b6685606
node-a8-191.grenoble.iot-lab.info,172.20.64.44,45007ae6-417b-4e2c-a1ba-6d83311d89e1
node-a8-192.grenoble.iot-lab.info,172.20.64.45,60869d56-7862-4b7e-af4b-5f63ac9cf695
node-a8-193.grenoble.iot-lab.info,172.20.64.46,07e81cda-4712-4d70-9017-bc77b8df5de7
node-a8-194.grenoble.iot-lab.info,172.20.64.47,01d44db4-21d8-47df-84b9-24e7ce7fed53
node-a8-195.grenoble.iot-lab.info,172.20.64.48,d4b4a02e-5a03-4a72-8c6c-5f537806f4eb
node-a8-197.grenoble.iot-lab.info,172.20.64.49,7de79a96-696a-45a1-862e-d7a780ac31cb
node-a8-198.grenoble.iot-lab.info,172.20.64.50,8d56fa74-9c3a-4c44-84c8-1fe7ff1264ef
uvb-28.sophia.grid5000.fr,172.16.132.28,15a95970-04ec-4368-bdf4-b7bc4670ccd7
suno-8.sophia.grid5000.fr,172.16.130.8,f2f9a15a-95a1-4ba8-8b76-109bc5846f2c
suno-44.sophia.grid5000.fr,172.16.130.44,bf85299a-6114-4afa-a01b-0a0c92751819
suno-36.sophia.grid5000.fr,172.16.130.36,5cc3a4ce-fe44-4bec-95a9-22a5c6665df1
suno-34.sophia.grid5000.fr,172.16.130.34,76cf339f-ccf7-4dbb-bc45-f7fc07c2dda9
suno-33.sophia.grid5000.fr,172.16.130.33,24337f41-8f2b-401a-ab33-8f3e679d5b75
suno-32.sophia.grid5000.fr,172.16.130.32,f4c00b12-2d61-4fe4-8c12-a84af6857486
suno-30.sophia.grid5000.fr,172.16.130.30,6877473d-d47e-4e9e-bc9c-493041e50fa7
suno-28.sophia.grid5000.fr,172.16.130.28,6aa8ca50-ac58-494a-92ce-5a4fa14d211b
suno-27.sophia.grid5000.fr,172.16.130.27,0a055c90-65ce-4da1-bc84-5ff4540768a6
suno-25.sophia.grid5000.fr,172.16.130.25,6094aecc-ab08-4c1e-9975-c852b9328c77
suno-2.sophia.grid5000.fr,172.16.130.2,c5a7ea6d-2296-4d2b-8f56-362dd1a65baa
suno-15.sophia.grid5000.fr,172.16.130.15,efe9b06d-f3e0-4f36-a3a3-c47994b4f2ae
suno-14.sophia.grid5000.fr,172.16.130.14,0142f85e-61c4-4856-a9fe-297e23673add
suno-11.sophia.grid5000.fr,172.16.130.11,8e379422-eb5f-4eba-81cd-8af9d6c3aefd
