app_number,app_id,trigger,burn,sink,deploy_date,token_interval
1,8eb0a90c-2b53-40f1-a1eb-fe2f7c840c92,21a01121-c317-4e84-9d9f-c64a6f71fa60,14879b63-0b11-4478-8f5c-ebac372f1311,68b14832-a509-4790-a0a8-606c2665b787,2019-09-08 02:38:36,1.000000
2,24480712-3ef5-441a-83b7-278b2eabb17a,223ccea1-ceec-4c4d-a9c7-c44f8b4576eb,c5454728-86c9-4758-ad37-c430a68ebb9a,2ecf777a-341b-4dc7-8c9b-95db6cc0b67e,2019-09-08 02:39:40,1.000000
3,bd34bc89-84d4-4b76-bdce-59c749fceda3,31e823c6-53ed-4452-9fd7-7610da5e297f,78545896-4510-4824-8647-4795edf987c6,d429e18d-6fe0-43a0-99bd-2126603a16f5,2019-09-08 02:40:44,1.000000
4,a0e8e1de-dc79-4770-ac21-56baa47e4561,092ba7f9-4417-47d3-9173-6a3d1f4f7a97,b1a06efb-72e2-411d-8487-679e14532ec9,2b96ce72-c8b0-4d18-8271-151f669c6a3f,2019-09-08 02:41:47,0.200000
5,da27cf60-ae56-4dc9-acbb-487981a839f0,cfcff254-9538-465d-b0e3-78ee2c16da8c,77310558-2117-4b14-95f5-0a9af852caf2,3473cbce-f539-463c-a336-b96a5bec332e,2019-09-08 02:42:51,0.200000
6,d137f8aa-5b72-42e3-95b1-a4b6c5918139,12ef5935-04fc-4510-b577-77cf4b76f9e6,bc070c0b-0a4a-4210-9969-19ed7bfcab96,8973cf74-205f-40a8-bb3d-d3a69f72bcac,2019-09-08 02:43:55,0.200000
7,5ddcf675-1caa-46e0-81fd-00e62053a9ef,9beb6fa2-f8ed-40a3-af6a-3a4fef8e1224,bffc1668-7d7a-4b34-a93e-433afc987596,c80e9c37-9c91-47e4-a0cd-55128a0b1109,2019-09-08 02:44:59,0.200000
8,eeeb0f62-f1b5-46ac-a855-dc87666fd6a5,f82b92d6-abe1-4e8b-99cc-fa1531fc59b8,d2ca21ad-6f9f-42d8-a17f-658a9ab24d81,e734423f-2a79-46e5-bcf0-c9201c39e4f3,2019-09-08 02:46:02,1.000000
9,52054e83-fd63-4b64-82eb-bcbeee1152e2,355d86f8-297f-49ee-8409-22150f0a7497,409395de-4466-4afa-a56c-d8dbbf051af2,c0032ab6-64ce-45a0-9845-383df5d3b18d,2019-09-08 02:47:05,0.200000
10,a469621b-83cd-481a-92e0-8b1487be492c,6bf57e2f-d843-4107-b89f-6c44219bd635,eb6cea81-8631-4546-a26d-283573bcbbf9,8b69379a-c403-47f1-81ee-721dc1a35640,2019-09-08 02:48:09,0.200000
11,20760e88-0a99-4a43-a0c7-e96f793670d5,48ce441c-5d37-4fcf-8b27-babb979b77c9,6b99bf43-d206-4cad-a9a3-3c73df5fa635,233ceace-22fc-4898-b0e1-d6b0c2b82215,2019-09-08 02:49:13,0.200000
12,abb72a46-2fda-43dd-aff4-7bb13a9cbee0,fd395ca7-355f-4851-b7f8-0fdd057e728b,bea3337a-1ca7-484a-86aa-a847d48c8cb6,324dda75-3474-4ec5-ab15-6dfa1d917881,2019-09-08 02:50:16,1.000000
13,9762c061-4e25-4da6-adfb-35ee30c0b077,b4bea27b-b19a-4f69-83de-37fa61a1bec7,8fe2b574-cebc-49fb-90c7-279df7eb8093,16e9264a-eff3-44e5-b161-55b47e6ec36b,2019-09-08 02:51:20,0.200000
14,f834d5f0-43b2-4ae4-bed7-6e66b89fe5df,880cddda-519f-4188-baa1-ff453e118c5c,b2044903-245a-44af-836a-c17bb5cad0c0,75879aba-2f59-4f22-b44b-f3f816e0249a,2019-09-08 02:52:24,0.200000
15,6c4d67c0-4090-41d1-a988-c3f5ea0e76dd,06cb9ae1-1acf-4ec7-a1cb-79c66dd1e5d5,b4993766-da88-41c6-91a7-c97b3d4ca706,02d74dec-f9cb-49cd-ab86-6b2c35e57f9e,2019-09-08 02:53:28,1.000000
16,8165f6f2-f1f7-423f-ac4f-18c5a1aecc09,7b13cb5b-190a-4cdc-8ecb-cd2352bd143b,d5a70715-9b77-441e-949e-d2083ec2ba7d,2bf88791-b339-4989-b1fb-97b506541cc6,2019-09-08 02:54:32,1.000000
17,e047746f-72f7-47e1-a998-8f49bd07e802,7168f3d6-4229-4849-942d-f11596d3aff9,7338c789-7d48-4ec9-9922-e0e7c937c5b1,a28a9130-03aa-498a-8652-a65a8e76a1a7,2019-09-08 02:55:36,0.200000
18,74f25b6a-a2bb-4994-b862-0faaf478d63a,2f7e492d-46c1-4413-af3a-7681be29b72d,c5ccdbb3-188d-4e6d-b986-456f0d8154dc,196113da-cede-434d-b8b8-694e0915cf4b,2019-09-08 02:56:39,1.000000
19,347e69e4-cd3b-42a3-ac32-fb260a4a6f2c,bd55a975-585d-4ebe-bb89-1cd0d1df3c6a,0e6233d7-4312-457c-b03a-e72850f3c681,20146ae8-fd5c-446f-be7d-87e3e8ecb142,2019-09-08 02:57:43,0.200000
20,3ded3212-c48b-493e-9c6f-a9218bcb5469,5c7e8f5d-41c0-4c24-8b2d-580b7400a9f3,dd7a543e-822e-4264-a126-048bd64db148,bc36fecc-d696-4dc8-ad70-29cf47efada6,2019-09-08 02:58:47,1.000000
21,f996e458-f6df-47dd-984d-8d20857aaf28,61f4bcf8-354e-4b78-9b92-f7975fa5b2ca,86b209bc-bcfb-4b74-8f65-be0d1f1a71a2,e392bed8-555f-4201-b5de-404aacb02e53,2019-09-08 02:59:51,0.200000
22,89c00efd-963c-4f74-87d4-273ff107e0b7,b4a1caa2-04d8-481b-82df-a30c63ff7b38,803f607f-ea8a-46e8-83c5-254fb3a17923,a7dd2dd0-a21b-44ea-88da-4bcbbc7e4720,2019-09-08 03:00:54,0.200000
23,1d7be1c2-8494-4b80-95ed-aa75a6576f47,c3b36f81-2261-488c-9e5c-28a78966c591,31b2b019-30dd-4d70-a0fb-c15ceb15940f,49bce4f7-07bc-4cc6-96d5-c2857dcb27ff,2019-09-08 03:01:58,0.200000
24,8dfbe57c-318a-4e68-a4c9-6e043479abf6,0609303a-9474-44e0-ae0c-50148a79882a,64b27f4e-6e9b-40c7-982f-2f3d3f944e80,8f7a2637-f09c-4cb1-896d-87bd5cf6afdd,2019-09-08 03:03:02,1.000000
25,a9819460-b6c1-4c88-9b71-46b89be0991b,2ea422dd-9d42-4150-bf1b-1c7b55e121ba,62b8d979-2646-4fcf-b0a6-7ab3e33b5f33,683ffbbc-1fc1-4dd1-94b6-3f528a590505,2019-09-08 03:04:05,1.000000
