app_number,app_id,trigger,burn,sink,deploy_date,token_interval
1,2669f0d9-1009-4dae-9ef7-f9434f28be9f,fe5c6f8f-815f-4f3a-8714-47e985bc4718,f295ce9e-9429-4497-98f5-17869df2b716,8064b31c-7ef3-4bd8-80d6-6a342d43b63e,2019-07-30 22:20:37,1.000000
2,cce4aa46-192e-4429-9fbc-9063c996d3f6,d9b75f2f-07a8-4c46-96e5-b57c499ad81c,c380e864-0b10-4059-be98-effe20f36fdf,602cf567-b2d5-40c6-91c8-1560148c2984,2019-07-30 22:21:41,1.000000
3,c0f8dcb6-d5fc-4d17-9fe6-3d12e9261ccf,a753df8f-8edf-4abe-b3ca-345e91c5455e,b866c422-ea86-49b7-a413-3cd49689e3d0,17b6dad9-96d1-434f-8884-5155e3771733,2019-07-30 22:22:45,1.000000
4,3fc2e089-edbd-49d1-8c86-733a97255a09,8ba37dc4-9c5f-4cfb-ad14-ea31031732f5,911def57-41bf-48c6-93b2-6bdb7a29d4a6,39befaa5-f204-4c57-9b59-c615149dec05,2019-07-30 22:23:49,0.200000
5,31427348-7441-428c-a838-048b1bbdf5c0,4630b3d2-9d00-4619-a924-7eb93ddd3c56,d62cbe2e-f13f-4925-967e-b3c5a64c92c5,828dc9e6-e3a7-4f99-8c08-92e1d796f839,2019-07-30 22:24:53,0.200000
6,70947575-1bf8-4eaf-8948-bda81fad2426,9f7495eb-5b04-4a96-9097-5a271fd24bc7,aab72bde-e14c-4bd3-ba0e-7d9662e4b874,74dc3278-b53e-470f-9d2f-ee2c95d6dd5f,2019-07-30 22:25:57,0.200000
7,ae360256-ec93-45a7-9811-607db5ef3e4f,d9cef22a-f542-450f-94be-9b346b7f53f3,659fa40b-2dae-4891-8211-c2821d2320eb,97ca942b-3000-467f-a626-1d5a572c18a8,2019-07-30 22:27:01,0.200000
8,2e4cf7d4-7e8e-4817-8e2d-9e4eb5031e8b,0b36f744-792c-451d-aba9-73ac36381758,ff92fd7a-63e7-4f3e-9645-8129f23dcc62,dda5d2c7-463f-4ed2-bc3e-cb2164711e24,2019-07-30 22:28:04,1.000000
9,0252467c-fa85-4b09-9623-dbdad4ef145a,982b1ad4-d0f4-4644-98ff-40645f707e32,ef9349de-cb99-4d24-bfdf-0b4c7b79cd05,513c8563-192d-4818-8943-e174077632a1,2019-07-30 22:29:08,0.200000
10,cdc57c17-0d44-433c-b810-c10d344921cd,1c0d8092-856f-4859-bab5-5055abe7baea,7f5efd10-01c6-4f48-9249-94289e7cc8e9,934adb38-1b61-45b3-8a67-1d01f04cbf54,2019-07-30 22:30:12,0.200000
11,3e822f7d-b6ad-4468-9749-19baed3dd046,dd45029c-83c9-437c-8db1-44a1f46afbc7,059f1a11-23d6-4eae-ab87-f55f48fd47af,0d9fd96e-f0db-4672-b117-5dbd83e955ff,2019-07-30 22:31:16,0.200000
12,98798f59-be23-448f-acfc-bfa008fe12da,bf9468dc-b422-4eed-bba5-63425bdf1bcc,71923378-e226-4cfc-a15f-fd2a0ae97940,c8e430af-8268-44d8-950c-2044f9e5ce3d,2019-07-30 22:32:20,1.000000
13,5edee73a-0a73-401f-97bd-6fa43b4804c1,1b8f4ebb-a07e-4351-b613-bf18ac1b069e,d06afa43-0e00-4b7e-9950-2512c2b5c10d,f99c08c0-e2b8-47c2-a493-1bbc10d38f35,2019-07-30 22:33:23,0.200000
14,ebd711b5-aa56-419d-beca-f80a90177faf,46309312-1078-4f95-ba7c-127b65af8fb7,1c98251b-3041-4332-8cc7-24bad35ac4a9,575b1cb9-fcd9-46c3-a3ca-620227c99e96,2019-07-30 22:34:27,0.200000
15,fbd646a2-097c-44de-87db-1d66580b3e9c,a2cd9ddb-c953-4563-9362-28d548a8d75b,6e2b7eae-8ea5-4612-9cf3-118b1146aef2,bac2c039-3576-4077-a694-8138d721c8b5,2019-07-30 22:35:31,1.000000
16,e8d90023-5b82-4e1e-913c-0737e8b998e9,f8a10762-34f1-4eb9-8133-56c30c0e4cec,5deb9a79-ae95-4b74-9bcd-995aba71ad99,ccd06b39-e20b-48ef-83be-68ff3e37931b,2019-07-30 22:36:35,1.000000
17,52fbcbf4-bf2c-43e3-94c4-7b71ffd56be1,8b70ca05-b8b3-43f4-aad0-32ca7de1c089,bb685cb2-2964-4dac-99f6-f04c074a4c84,1bbdb677-9319-4f29-a31b-25ca7c12e6cc,2019-07-30 22:37:39,0.200000
18,627533d4-deca-42d7-b0f1-409fc8aacc59,226fbebf-ec5c-4973-a927-3d1e88cbbe3f,83c8b67e-ae51-471b-9b4e-6c86fd9fe6ea,acd0b471-ae5f-4e8f-9e38-a40b7654252a,2019-07-30 22:38:42,1.000000
19,4b018516-6605-4a82-a6e0-813726a5f361,b1b8a69a-5c4c-48e5-8dee-e7f84edf63c8,8298dea0-5fe4-4bae-8b33-0efc4d110c68,1ea65348-fcc2-4e7c-8ea0-4017fbdfe518,2019-07-30 22:39:46,0.200000
20,84d7b249-e482-40cf-a7b6-cb9f036737fb,879402be-7af9-4a22-872f-ac244ccc347a,f7c1c5c1-ee92-44a7-ae5f-d827e8e59317,c6e584a7-fa86-4d24-94f3-4b32cbf6c3cf,2019-07-30 22:40:50,1.000000
21,ed40d488-e64d-400d-9fb7-f550e714c29f,d581a2da-758e-4bc4-8794-6f50dbcbb2fd,4e551bdb-82b6-4d72-8b18-918281790c64,d0b8e172-30ee-4497-b0ae-f5f83cfd5d55,2019-07-30 22:41:54,0.200000
22,f2b96db4-aa85-4278-9e47-48539d553e9d,7a51b69b-86d0-4e64-8b78-10b86dbc525a,83017bb0-1297-4602-8ff9-dc3ee57b6ef3,45ee3181-ca45-4e73-8d63-97f8f805a80d,2019-07-30 22:42:57,0.200000
23,9efdfc41-87ea-4cdc-87bb-328c2a695bf1,bc91d548-7f56-4c0c-b317-0cc0969053a9,84da7ac7-3dc0-4df0-a4d3-597d13efc565,90724f4a-7d14-42a0-915f-ada76ce7ca0c,2019-07-30 22:44:01,0.200000
24,35accc51-3c19-4768-855e-0228a88af69d,a254717a-1fbc-4e7e-a93e-a33c293cd04e,87fba07c-1802-43c7-b78d-074a4ab96670,2cd0f685-4997-4edf-9270-e311e776ec94,2019-07-30 22:45:05,1.000000
25,ca8f1d58-2a36-44b3-a934-c75980a6e23d,4db7bd1b-a64b-4251-bbe2-da54a801a0f9,b2cecdc2-7ea1-442b-8866-f4e4231b5029,d22babc5-79e1-4867-bf48-c079632dc4a2,2019-07-30 22:46:09,1.000000
26,54514ae8-bdf3-4064-baab-37f819ff3be4,97690bee-9459-404a-b404-3becf5a2ac4d,7f3f3332-3343-4b9c-ac46-9813becf4043,b6222df5-a056-4da5-9cbd-59e810565d56,2019-07-30 22:47:13,1.000000
27,6a677e4b-81cc-4277-acef-2489fa68f684,6b5510d0-f647-4671-b8ed-5c60d2991f79,db9bb5c8-123e-4639-879c-d97249405094,a54583cb-b083-4b0a-8e23-946e0c253421,2019-07-30 22:48:17,0.200000
28,3e99b212-b390-42ad-bd21-2c761eb43d1e,59cb1342-09bf-445b-be4b-ef06c8954eeb,8e2a24c2-6d5f-4bec-ac96-8b5d7ebfc2e5,2fa96af4-080d-46e2-8106-a1c836ff3f09,2019-07-30 22:49:20,1.000000
29,6cd8635c-2181-4cdc-86cb-f93c13b667ef,0b350f6f-2c31-4aec-b42a-bc413ee735eb,545aeb9c-05dc-4934-ad90-92cb6c65bd58,0852e11c-8cce-49b5-8e86-f5e5abf27336,2019-07-30 22:50:24,1.000000
30,1e7d7d50-aa20-44d8-85fd-0bd686a7ff01,5cfd7c8d-4972-41f5-8ae8-25fb21ef42bd,d2c8ae69-1f69-4859-8e11-543b504f0f25,20053d00-265d-4545-95a3-c44cf131ef40,2019-07-30 22:51:28,1.000000
31,79bd182e-ad61-4576-b392-f1c0e1cb2afe,07b6ca63-341d-42c2-8b26-a9686670ccb4,d0ca8e1f-c953-4b4f-96cc-f813cfc1dd49,146a08eb-0824-44b0-a0f6-05906264dec7,2019-07-30 22:52:32,1.000000
32,292c4a13-9e3d-4d7c-8ffc-dd0f8130ad17,10f47897-f97a-4c15-bf1f-bf584547e6ba,c4667850-0767-41bb-8772-fc1baf3fe06b,d3209202-1a3f-4ff1-b7e1-76fc4c6783c7,2019-07-30 22:53:36,0.200000
33,098d557c-231c-48ba-a237-78fa3911243c,2e2e2ae5-c68e-4d14-91ff-7e9b21c4302b,1942f26f-e915-4f83-b19e-5d0b0a4e254c,256258ff-285a-4155-8d5c-874133a40c4b,2019-07-30 22:54:39,1.000000
34,b83827dd-0a29-4b43-942b-667ed7a204aa,d714ca93-881d-40c7-ab16-7698cf0c4f59,cfbdf469-3f99-4a63-a0e9-fb5468456044,568a12fd-5ec1-4538-8269-7d30f5218666,2019-07-30 22:55:43,0.200000
35,16d596a7-d7fb-4979-8e27-a5b7be966670,afe61ec2-8632-4c70-89e6-1a273e24ce01,5bf87a09-3b06-453e-89c3-92b2e09b9fcb,d32c7765-d4fd-4274-b535-8f070706d656,2019-07-30 22:56:47,1.000000
36,fd9144ed-db5b-4a93-a1b7-012fe0535327,c73aafa8-a2da-432a-bb9e-569df6c88a3b,4ed9c464-562a-44d1-8c07-07d3866d5003,bb190e66-5f06-4d22-9d6f-bd90cfdfdcd0,2019-07-30 22:57:51,0.200000
37,0999dde1-ab85-4eda-878d-4e4b760e1f06,cfbc500b-a7fd-499b-90f5-455716f374d0,1eea840a-e5c6-4ce7-adcc-6911ce7b734b,a261eb85-060c-4b4e-8c79-a92465e6642d,2019-07-30 22:58:55,1.000000
38,4fb832d6-71af-4dfb-be7d-13c9b3f34b51,7faec13b-347e-40e9-bca8-1fbc5a89135d,10de80f4-3610-48ca-ba46-3192f0cf9a9b,d7e946ef-626f-42db-a708-d9a0cdf3ec43,2019-07-30 22:59:59,1.000000
39,3fbfa559-d489-44db-aab1-82d2b2588480,f6c92729-8586-45ff-9762-a9db1c5e5fb7,363764c1-3349-408b-813d-2960e78c248d,2b7d6c14-9cc0-4a60-9e92-87c597852ca7,2019-07-30 23:01:02,0.200000
40,e7fe1954-afe5-4374-a62b-a025d5fe77a6,b5531486-14a9-4d5e-84c8-aeade9b880cb,3c516283-199f-498b-adf2-3074ce548c86,d91b1edc-1992-4eb8-8947-60b26cb12282,2019-07-30 23:02:06,0.200000
41,d9175fcf-9ab7-4141-a08d-ad3e60d708ec,7c32d36f-e62e-4fda-bb6e-1647087c6971,87708843-5929-43c7-b6fe-8616732c5afa,0389c199-fc36-4a5d-99d3-94cfd10d40b2,2019-07-30 23:03:10,1.000000
42,1aa85ff6-8685-45ef-9bf1-6f731bd6742f,ccf8f436-034f-4be5-8d06-ab350c8bc4bd,53b64873-b7cc-47c8-8ee9-19638d3cf6e5,721c1a1c-7317-4cbc-8481-ec1c2cad6621,2019-07-30 23:04:14,0.200000
43,2cb1295f-d1d6-4b89-aa7c-84e09a168252,bf2817be-27e8-42c5-8512-120ca6b09128,7b9d02b0-37df-4dd3-8bbb-f6e7ce08de82,01bfd43f-7048-4620-a913-85b41d796348,2019-07-30 23:05:17,0.200000
44,e9b8ef52-dbd8-423b-8984-2f6002dc8924,53ca1b09-a1b9-4df9-8625-4917224661d2,b3a5389f-2f9d-4f7b-9196-dd788f63f19c,eabf69ca-598f-4cdd-a946-b833c85135b5,2019-07-30 23:06:22,0.200000
45,1fb066d5-dc67-451c-acfa-c518baa0bd2c,73716347-7832-48b7-a86a-59481f495efc,d63ed2a3-e7c8-4b33-82e7-46dc308a6fac,6859169d-ba2c-4bcf-9776-42716b479e65,2019-07-30 23:07:26,1.000000
46,d251abd7-1058-45eb-adb9-bbe0ef145b36,e62e4872-39dd-47cc-96d4-bca93c70708c,6222e1c2-ab39-4273-ae53-d6a1f706d589,3a390d76-8e23-4aa8-87c3-7f5b8b055fcb,2019-07-30 23:08:30,0.200000
47,9fae9e0a-c336-4190-9a80-a0faf8d7bfdb,3703705c-c673-413c-9de9-66f0bcab7ee0,c57c06b3-9e7c-4c2f-a7ca-6f9aa5607840,34920be2-6733-4ed6-96d1-f9e301534a3e,2019-07-30 23:09:34,0.200000
48,772e788a-c078-4d99-ade7-544368dd0554,5d9243c6-23f0-4649-a0a7-21b63b7c8e45,fe5c718b-d4e2-4f81-b088-b721c32c1e33,9a178492-8b10-4399-a894-d68cf596c8ef,2019-07-30 23:10:38,1.000000
49,c6028f2d-434f-46f0-a164-bdf94d88acd9,610cfc9b-ebae-4c28-870c-ca3bf4cbad8a,d789b18a-6813-48e2-b7a6-7b51eb3ea078,54e742a8-3276-448c-948d-984bd6dcae57,2019-07-30 23:11:41,0.200000
50,22ff5e48-e2ff-4b17-8e60-ff0e07dddd44,6d3f8dd2-42fe-4619-a522-7f44cd6eb29e,87bc28e5-bf59-4d50-911b-e12da3c2670e,c6eaa58b-628d-4f0b-abe9-acee0ca60a03,2019-07-30 23:12:45,1.000000
