app_number,app_id,trigger,burn,sink,deploy_date,token_interval
1,c1df07bf-125b-4575-a28c-d530e3be1cb4,44517bfd-4a6e-4e4c-b733-d53961213292,d561b40e-27f5-456c-9929-27d709c4f220,d249554e-5da2-4e70-97cd-1f2e9b70e206,2019-07-20 11:18:02,1.000000
2,98ba079d-9ee5-48f8-84e8-a905df31fe54,7d01f578-3982-4666-9ff2-6c79fe1125a1,2457f8f4-bade-4c0f-8fb7-865330028cb2,8721a0c9-f24e-4466-9dde-7528ee1eb700,2019-07-20 11:19:06,1.000000
3,3702ef8d-f10a-4086-ba0e-341fb5f6da96,b452d006-f390-44fe-a69f-2d7f61224949,41c90a6b-0532-4a0c-9791-c13872360dac,3be1f39d-9a59-421b-b9d7-2e78732ccc4f,2019-07-20 11:20:10,1.000000
4,ddcca01e-fdda-4ea7-a657-05bc33f0bcac,ed1f2bd6-88dd-4cd8-897d-203b2391428e,0138e2f8-ca6f-4c74-9c2a-c612c7f90fab,27aef460-dcda-44a9-ae78-ed12bc216ada,2019-07-20 11:21:13,0.200000
5,d268feb1-d464-48ab-86bd-e5eee70e693d,2ea471e1-af95-44c5-9bbb-c72df125e8ef,06d21bf9-017e-4650-a498-be69d9aef8c9,9bc7385e-ff1f-4e1f-b523-5c8a21f2a20e,2019-07-20 11:22:17,0.200000
6,77b7d231-3659-4bcf-a7f7-3058ba9c42d2,b33705f8-0327-404e-b06d-ea0e442d43e0,ff9cc2a9-a248-476b-8cbd-f84bc4540c06,1ed8f586-ad9a-4d4e-bb77-407ad891ef2d,2019-07-20 11:23:21,0.200000
7,f17411b9-cad3-4c1a-8a05-7881935b57cf,01bc7ea4-2288-4c11-acc0-78bffeda80ca,079fe8c8-bf45-4696-9b9a-59bf1bd31162,c550c830-1d8f-4841-a60e-ca1507c6540a,2019-07-20 11:24:25,0.200000
8,13fb7d3e-4ea6-472b-8ac7-d3bcd330bc7d,c720e357-0f26-48ab-8626-4a863b9289ea,34149b20-dfa0-435b-a13f-059736e69b88,844c2bdb-ebfb-40f6-8936-08d1da29080f,2019-07-20 11:25:29,1.000000
9,9f1fc85f-5ea9-4dfc-b1e4-5549f66ab313,fa99cbe2-0f9f-431d-9902-a8a90afd753e,2791e39d-4821-4c65-abc8-de953663c7e4,06e7fcfc-ca87-47db-a376-a4664f44c07f,2019-07-20 11:26:33,0.200000
10,26461329-315e-491d-acaf-4023b7097ea3,93db2e6e-780c-4120-9cae-d1a11c03d1b0,b8d2bc38-47c5-4d51-9b1c-7c57f604fff2,d2b3501b-8da8-4e8a-b3c5-9066762396aa,2019-07-20 11:27:37,0.200000
11,8731c6d4-c0f5-43fe-b859-b0a4c736b6bf,2884835a-116b-4b53-b0fb-13144d03d204,c6b554d5-e350-43bc-a326-d91d56167eb9,baeac1e8-53d4-437c-b668-43860b32472f,2019-07-20 11:28:41,0.200000
12,ceb8c866-ee1d-4346-a47c-099a089e9ecd,58537444-6947-4673-be1f-cbb2c8ffc0e8,d08a2801-5bd4-47c4-a62a-00a70a045f82,981404a7-3f9c-4e17-b705-6cba16fdab30,2019-07-20 11:29:45,1.000000
13,6ed84906-e413-4b5b-aee3-561210524abb,c4cf400e-f5fa-45db-b852-745afe609560,70344feb-ff5b-442b-af5e-1e4729ccdc6b,9118fac6-7600-4d64-b85f-0b55cc5796aa,2019-07-20 11:30:49,0.200000
14,b516e3e5-81b7-4fd1-b163-5cfe52889555,71932a2d-a444-4687-9e8b-ba79c15ed341,c8c23ed1-5888-419c-b053-6ea4ac567194,ef65c70c-217f-4994-87dc-80e6aa40f9e7,2019-07-20 11:31:52,0.200000
15,c6526d33-487b-4797-8e0e-649691b043a0,f5d6072e-daa2-4ffc-803e-463e2dc7da27,1f4d7351-bc2a-4b3e-85de-969e854eb97f,3546e58c-3d49-4d0a-9e1c-23f5eb3772db,2019-07-20 11:32:56,1.000000
16,e613cdbb-c9c9-4201-91d8-285e1d16e8f3,5533bc4c-f9d0-4d32-a001-7b7e371964ae,83370a5a-95aa-4fae-9632-19cdc29a7c37,b7d71ac4-3a0b-4e69-93ca-fafec841a875,2019-07-20 11:34:00,1.000000
17,7155da5f-29d1-4bfb-a7b5-ca6871c2f705,00c8bdb3-d10b-4d7e-8625-bf7303a5b105,9e5419f5-3e12-4eb8-ae66-043b36897833,221062b6-1ae0-4140-aac7-d0da89bfe295,2019-07-20 11:35:04,0.200000
18,3b4e976c-c347-4163-87f2-ce6632395b26,17bdac13-3e7f-48df-b515-4916d1786396,58d7c69a-9812-42b1-ac10-6d99f5160365,e98b82d8-dc92-4635-980c-9d4eedcf5f36,2019-07-20 11:36:08,1.000000
19,3c18b4e4-2401-4a01-af79-943cb4d47052,a8d99a32-b544-41c3-bf7d-0cd18caca88b,9195deae-3b8d-4264-b32b-b7ca8e533248,9fce97a9-cf62-471c-b548-66aff4bfaca7,2019-07-20 11:37:11,0.200000
20,dc1af580-38dc-425a-b7af-3a9c71cbc4e7,9502c982-432a-4d81-aa52-02f781acdf1b,82f38e8b-8806-439d-80a0-c47f9470a9c1,9f8d957d-b395-4985-b4eb-b31432464c97,2019-07-20 11:38:15,1.000000
21,0db062b1-6c0c-4a0e-b880-85b78cd9be25,1c7587be-d6b7-49f8-b718-430bc1f9aa43,87e9719c-3e81-420b-b560-be39cecf5393,e448a757-db80-43be-b18c-e7e90933db0a,2019-07-20 11:39:19,0.200000
22,a6d8c81b-7060-4f5a-bb26-1516bd817662,0d972edf-6766-44d1-9eb1-f90711e86d2a,0e95f33e-07a5-4f9d-9da6-a6ae60adedd3,3013a0ca-b6d8-4b1c-8a4d-0840d440e444,2019-07-20 11:40:23,0.200000
23,f3eb9838-7797-4e12-a726-e726094a500b,b4f8ea1c-86c6-4191-8c00-94d8a7b5f0dc,6ada4c26-62c5-42ac-9881-2a094c8b8d23,755cbb0e-d132-4b93-a920-a9acbc4e5af2,2019-07-20 11:41:26,0.200000
24,c1dda5bc-9215-481d-b216-47e66fead4c2,b09ac66d-6ae6-4bfc-8ffb-3f0fb27322f2,d3d26950-31af-433b-a51e-954dc6168d4f,7f77d501-8262-41d5-9d91-1f7c284f2c56,2019-07-20 11:42:30,1.000000
25,66432f10-7d9a-4c13-aecf-15d6d747b20e,a7d83c23-3092-4b73-abd1-c83068478b5b,317cd355-1807-4f0a-8872-45198e9fff68,3ff25ec0-3bc0-4b10-b1ab-4831c9a847ec,2019-07-20 11:43:33,1.000000
26,b0afb77d-f3ad-472f-a3d6-9fef36e1fd7e,40e41a3f-a5df-4b73-948e-e99a9036ae16,291acd90-5f6b-4cf6-b94a-947e2455b08f,020e10fa-935d-42e8-af67-4ec66f487ccf,2019-07-20 11:44:37,1.000000
27,96bf15b8-1832-4f96-8d55-6f6d560997ed,86d254e3-197c-461f-822b-0ac224ab7713,7818d969-0ecc-4292-963e-de7ded0c4af4,19bacc0a-afe2-4dd9-9a62-fec9bd72d9c7,2019-07-20 11:45:41,0.200000
28,a614ca61-7cdf-4924-8304-faf064ce61e9,0b11d6a4-72df-4f09-a169-5b085692cb0c,9a9d96c1-aeb4-44f9-ae83-9fde9e201afb,d155113c-e423-4ce9-a096-14361cb33859,2019-07-20 11:46:45,1.000000
29,5c06f2c5-8165-46c5-90c0-846fff433d47,0f455cd2-e4e6-4d1e-98fc-19b6927377fb,2e724498-ff1b-4f02-8c38-7bfd7500a7bc,1777ba06-d8e6-4c58-8871-82ab425e53bc,2019-07-20 11:47:49,1.000000
30,fdef1308-5ae6-401a-bfdd-ee6f28f0dffe,1cbb1852-a0cb-4c1f-898c-3bcef5c2ece0,f7fd8afa-f78c-43ab-9b79-8bbf49653c56,138ce72a-d572-4f15-a1e4-7926bb33c357,2019-07-20 11:48:53,1.000000
31,ff523a69-b227-4282-abe1-39bbe93506a3,e47fedfc-2a8f-4c48-b382-df6ec35be082,644b1a4f-2a08-4e75-9b64-5e89e47900b8,768424b9-f7f4-4567-a9f1-2dc3525d7b30,2019-07-20 11:49:56,1.000000
32,b268bbf7-637c-4549-96b8-5059bc5e4e88,dea60e6f-d2ab-4daf-99e2-fdab6f87be06,5e06119d-f11f-401f-b7f0-9cdc133b37df,0808bff4-5737-49cb-a6c5-2aa9520125b6,2019-07-20 11:51:00,0.200000
33,29098083-7819-4e3a-ab27-4a7af730bc1f,f0210760-f5ad-468c-a04b-6db22dfcb566,ad9c238d-9663-4e72-ad39-db6adda7cbc1,0b61dea1-79fa-4acf-9e7d-0a00276e963c,2019-07-20 11:52:04,1.000000
34,2a5cf0ca-7c31-4eb2-87db-0faa98bc33d7,bf8a53a3-605e-476f-a75c-770770f5556b,6ed6882c-e8f7-4a0d-9615-d5099f93dcba,776e0f8f-96f7-4783-be43-1a5bbc8d13a8,2019-07-20 11:53:07,0.200000
35,f13516d8-0f30-46ff-b3c7-93cd618271ff,7d88012a-74f1-4a70-93af-81a5ec0e7761,5b038893-20aa-476f-8337-697eb470fb95,fd98a43d-4122-4f66-9716-1d848c87a5b7,2019-07-20 11:54:11,1.000000
36,d63ae88f-d568-43bb-a951-c34f55e3c436,25935936-7b6a-4874-9df8-586caa74d247,95a12fdb-082b-48f4-b3b2-91a58fc0882b,2d8d34a3-622a-4c63-a1f0-e7e9b3eba917,2019-07-20 11:55:15,0.200000
37,f22c7477-21a1-46fa-b919-c848a384fd3e,94893a10-26eb-4cff-a571-0cf8fbd92668,4d00ae70-c98f-4896-8dc1-4ded7d0f38c3,d9ef57c0-95be-4034-95d2-9f6ad2587085,2019-07-20 11:56:19,1.000000
38,5423098a-9af4-48be-98b7-360b5b445dbb,324228ab-750b-41ca-b14d-48b7fa3841cc,e2518aef-1dd7-4308-b7bb-0159f2b6cb06,33aced18-f7a7-4b78-a3bf-2a4fe93e2a1e,2019-07-20 11:57:23,1.000000
39,b06c5717-3dae-4589-b2c0-a7229792b831,6d8361b5-0fab-4939-8ac5-881d960fbd96,c26120ad-4f15-4f94-a9b2-cc3f827fcc64,c3d54814-6196-421f-8de7-401f0c0703e3,2019-07-20 11:58:27,0.200000
40,a38b86f0-1203-490f-8f5f-a550fe8301db,8b0236e3-9236-4341-8846-429e9b22a78d,a712efe3-1d3f-492d-94a8-f04652dac1e3,1107c752-8b78-4b2a-8a71-0f1ce3bee460,2019-07-20 11:59:30,0.200000
41,0e19eed0-f5d5-4c68-92d8-fc8c7043db1c,ef0a74f1-2fe3-4ea2-a287-022dc9098dfd,fa25efb6-8c0a-4566-bd59-d6299b75e642,ef20aeea-c4be-44b3-ba92-75a5374b5922,2019-07-20 12:00:34,1.000000
42,d87b9b5b-12c6-43c3-bc83-412635be945a,70d6fb4b-bf87-4866-8a81-7aac78feaa46,0721bc9b-108a-4f37-b0df-fad81d53f66a,9071ecfe-8f42-4a33-9872-ba3fc89adc24,2019-07-20 12:01:38,0.200000
43,49e1ed88-3a9f-4339-adfd-bce0141907b1,3e6eefb8-a246-4d6f-9cb4-47b141e174a4,228b14ea-39ad-43c7-bf70-35f6532b923c,3cef9d03-c97f-47c4-8bf5-2ef62ec49e87,2019-07-20 12:02:41,0.200000
44,d7398ed6-faa7-408a-8662-8c0e15b53a92,9784590c-bd01-4ec0-bdf6-498c5ac3a6ae,e5542aa7-6382-4367-8f1a-f7f1ed7f4f7f,e633dcda-5cf3-4849-86a5-b365cc905485,2019-07-20 12:03:45,0.200000
45,77501939-04bc-4d8b-9612-2a655a0655e2,996f5114-8e42-4b7b-9135-b95f1c42544a,ce9cfe86-bf2e-4daf-8dfb-48fb0738ccae,4f4e76f1-64e0-44dd-834b-e868453c4817,2019-07-20 12:04:49,1.000000
46,400841a5-f2fe-4c98-96cb-c36e9c949bf1,1152c68d-8279-4d98-b6aa-eeec5cba7c75,5ccbdcfa-0137-4e59-ae2b-2dba0bab0050,117edc43-4477-40e4-9d5c-0e17d81da7df,2019-07-20 12:05:53,0.200000
47,b8d430f9-31e7-4324-8af5-74e644f34224,7896538a-dbfb-4ede-9fec-ce4a0e518b96,9777847e-3bf8-4896-a8d7-c6700b983db1,2c320a6c-dfda-4df8-9e3d-afcbb979f689,2019-07-20 12:06:57,0.200000
48,a0e9e1ee-30ba-4719-bd30-d083d03ce368,657d19be-850b-4dcf-a68a-ddea1ada3f5b,2b929eea-b016-4b90-bb20-d560ee4e4c35,98a1d1a6-eb6a-40ae-a216-296ae12c339b,2019-07-20 12:08:00,1.000000
49,29fcf281-da30-45b8-b53a-2cf05478c1d7,599665df-1fc8-409d-99b2-1e587e7f9903,d32a0097-2ea5-4c16-aace-ebe21ef6e6a8,7e73ebe8-4c5b-4638-b322-f67acdddef0d,2019-07-20 12:09:04,0.200000
50,a6b5848b-a587-4a9c-83d2-1f2554d01d04,f4f90787-8d49-4492-badf-0bdb2ef83cf6,c73f7971-9ded-4dff-b399-292b7699e3a2,ef5e09ec-f2e2-4f92-8110-daa4bd98c6f0,2019-07-20 12:10:08,1.000000
