actor,node
be046f1a-a820-45fe-9765-75b761b1a0b1,205ebe8c-0bd2-4a7b-9af8-9d3e7b8dbecf
e174c719-978c-4bc8-98fd-c9b981a021bf,9c20d32a-3cf4-4646-8bdd-155335b5b76e
2cf912f6-7a74-4007-8e9a-9768318da759,9bf08443-bc44-4901-9ff1-dc329545c84b
87bb5fbd-19c3-4e93-80c0-8c4704456f16,2614a625-cf38-49ea-bbee-3ec004399040
c650ba6a-66ac-49ce-8787-0f5fb543e2ed,7fb216bf-d77c-46ef-8198-9ba5c163530b
12da795d-12c0-4983-90c9-54112a0e10d9,7fb216bf-d77c-46ef-8198-9ba5c163530b
c46b16e1-744c-4cec-9fb8-bf8dbea1776c,155682bc-0461-4341-8ed7-4ee08e278ac5
15344a93-062a-4586-a494-3e4e0579b07d,155682bc-0461-4341-8ed7-4ee08e278ac5
22c60f2d-4350-4f8e-a85a-f0d477e04976,22446924-2a09-4004-976d-e8be252afa9f
bdccdada-b62f-4073-b70f-65418199db3c,7fb216bf-d77c-46ef-8198-9ba5c163530b
d21d7f12-3285-4cca-a8e4-62ec226a8b16,a4b54599-2316-40bb-aa81-af306752c8af
eae79668-4811-4424-9d61-dc09ce6a9093,8f1c4c8c-c47f-475d-ab9f-2e98a59248d2
d262e072-6b6e-476e-866f-c487480ebc87,a46737ca-f372-4051-91d2-a1bed234c6d4
a9756ef5-1f01-4e4a-bf9b-ef94d780f97b,a4b54599-2316-40bb-aa81-af306752c8af
b7a51dfd-1269-413c-ad20-3acc192af561,a4b54599-2316-40bb-aa81-af306752c8af
bb9c8813-33b0-4cfa-9f6f-6b0905f5faee,a4b54599-2316-40bb-aa81-af306752c8af
c1e551cd-82cd-498e-8d00-a5f11b7c37fa,e9a1b8cd-19a3-48f9-9bb6-45554c0ceddb
b4b9287c-1f22-4da1-8cb2-8925c5fe6f1a,a4b54599-2316-40bb-aa81-af306752c8af
4c6d3dec-fa7b-4bfc-a97d-da353c31fe2b,bd5cd794-458c-4e9e-834b-43cba72d5569
db770dd8-f808-4b7e-a67c-5e341fc8d6cb,0a64c53b-6e08-4499-9e14-6dbc390ee8f2
3cf081a9-3852-4ce8-8d4c-7d1d4f29258c,bd5cd794-458c-4e9e-834b-43cba72d5569
5c235c96-f4c6-436f-9849-197132da2178,978e74b6-daec-42ac-93a1-403425bbe733
a8934d54-0637-4110-a23b-e7d9a791aa0e,ee4d1d6d-2ad6-41fe-aa57-0a8b105b2d81
83de6b72-3f7b-4ce5-9ddf-a510fa94bc4b,ee4d1d6d-2ad6-41fe-aa57-0a8b105b2d81
bd698b2e-5789-4b8c-ae9f-6d040ec7199f,7f7d070a-e955-4ffd-b7df-a6181721ba09
ac0cb0ab-52ce-469c-a1f9-912744b350a2,2f4e2d22-f919-4f28-ac4b-ce44b368c41c
8a41b608-42fa-4c25-9fa9-1a9b44d997b9,7fb216bf-d77c-46ef-8198-9ba5c163530b
1060bd41-f4ef-47e0-825f-ca1ea3897fca,155682bc-0461-4341-8ed7-4ee08e278ac5
4c70fdd5-68ec-4db0-bfbe-bf2b3e27e359,b1447698-e2f3-4b94-ba52-f4b568035cc8
14b23b3e-8b4f-4539-8311-ca050e91dd33,155682bc-0461-4341-8ed7-4ee08e278ac5
ecb1c914-b5c9-4156-92aa-96f60218d25e,1f975da1-a445-4531-8a1e-89d3aaf90bbe
5b50f3fb-2eb2-4cac-89d4-a3eb79d5a17a,039c030f-8d38-42b0-934d-d127c9e167c8
c35179f4-bb4e-4438-9e77-26e5e4ff52bd,1f975da1-a445-4531-8a1e-89d3aaf90bbe
b1da2d0f-8693-48a8-b04a-3a10aaff6e1b,98a3ce19-e6b3-4eda-8421-892dce596737
49130b4e-0683-489f-90ca-67357263005b,6ca5f995-49f7-4b47-b488-65bc78a08fe9
98feb64f-1219-41ae-b2dc-77e2a28736b4,6ca5f995-49f7-4b47-b488-65bc78a08fe9
dc039175-40c8-49f0-8957-593d6d475de8,02023ae1-a378-4006-b6d2-c0a483872b4e
fcde6561-97a5-4dc3-807e-29468432336d,7990f103-9959-48df-8af3-19b3bd6c94e4
bfdfb2d9-0cc7-45a1-bce6-cf899cb33fdd,7990f103-9959-48df-8af3-19b3bd6c94e4
6bfb7505-cfba-405a-9604-f4ba54fdafb7,70ed4219-e784-4429-af58-55cb80aa4c00
ca49daf2-d619-4794-bdf3-b0064af011ae,e0f32f59-fc00-4501-8b06-a943e5e7f531
80e35826-9849-4692-a0c3-7a2e8a2e882d,e0f32f59-fc00-4501-8b06-a943e5e7f531
539aa8ff-1598-4d5d-8ce8-3241e9ac7606,2f4e2d22-f919-4f28-ac4b-ce44b368c41c
caaa0d13-590f-4490-8551-50933841d0af,10f850a1-d5cd-415c-b258-ed1474124f49
556fd39f-3e4b-459c-84a1-bdda9951a52a,725323a5-82fc-4446-9984-8929f9ff80ca
db702f40-0fd4-4350-898b-f93cb749cbb8,6a187953-7250-4f3d-bc41-bcb865a88745
e9ab324b-8740-4561-83b0-97bff0aa1075,1ccfed60-0d57-4292-8074-b78f6a7a022c
346d9c12-0815-49b9-8e8a-f96cbdf848f4,6a187953-7250-4f3d-bc41-bcb865a88745
37ca3b66-ef39-4baa-acf7-40bc1cf52023,6a187953-7250-4f3d-bc41-bcb865a88745
9a3aca1d-c42d-47f4-a737-3c47800dadad,f2903d7c-977c-4bd4-9039-7060a703fbd9
8a0f9727-a5a3-4cd2-a179-fbd40d19c212,2f4e2d22-f919-4f28-ac4b-ce44b368c41c
dc9a3b5b-3c15-44ba-8966-3bcabb0f2ba2,2f4e2d22-f919-4f28-ac4b-ce44b368c41c
01e0f109-7537-40e3-a478-bff8cf464c4f,6650da08-f385-47e1-89f5-f004017a69bc
86725827-abff-4b81-b4a8-e15ed4926218,2f4e2d22-f919-4f28-ac4b-ce44b368c41c
a87cdd0b-0d0c-46cf-b700-b597c9694882,e0f32f59-fc00-4501-8b06-a943e5e7f531
6bf1ebc2-6e0b-44f9-ab41-7fa8279d770f,5408633e-4477-436b-af11-a04e805bd47e
beff24d3-e9d6-4d59-9a36-b95bd8126b7a,e0f32f59-fc00-4501-8b06-a943e5e7f531
8dc31fe5-17cb-4f48-8b37-688e95cc6342,f476caba-8b07-4a95-b912-944cb0f52ead
931c9ef4-5681-40ad-8364-ced323e865b6,31ec171b-09c3-4e13-8e99-42d0a007fc64
1979303b-bbae-4992-bb36-15c09afa70c2,f476caba-8b07-4a95-b912-944cb0f52ead
7719b452-eaf4-4728-911e-6b62c0dfe24d,7fb216bf-d77c-46ef-8198-9ba5c163530b
92cfc873-3276-4df3-9d9a-baa4430be3f8,19a2e2a4-b760-4e38-8516-67029eee8a53
fc429e7b-becc-4277-8258-b91f174ce4aa,7fb216bf-d77c-46ef-8198-9ba5c163530b
bb605b73-db3e-4713-aa43-eb740b721865,2f4e2d22-f919-4f28-ac4b-ce44b368c41c
2c858605-deb8-4135-ae3c-a035c63f9bbe,2f4e2d22-f919-4f28-ac4b-ce44b368c41c
14e8c847-c8d5-45d0-abcc-f9cfc6c296e7,4291222c-1745-45bf-b5c1-71eaca4dd0b4
dcdb8a8e-f9ae-40ae-b70f-4189f454b34a,725323a5-82fc-4446-9984-8929f9ff80ca
a5069a10-4014-4568-aaa4-1f4496bad4f8,368c258f-8aac-4a22-8125-729f96122f0c
03e32396-b4cc-42e5-89d6-55749ef2dbf6,725323a5-82fc-4446-9984-8929f9ff80ca
2c89b7b6-936a-415e-9aa0-646ec5fdb533,d728d413-6803-41fa-a7b3-ca82de8cb661
5d6bc698-355b-4c96-85c1-9506e597544b,ee4d1d6d-2ad6-41fe-aa57-0a8b105b2d81
da616b75-2e39-4ae4-aa28-ddff0bc3d6d5,ee4d1d6d-2ad6-41fe-aa57-0a8b105b2d81
c87918f9-1ab9-40ec-bdf7-0672b1f7222c,9c20d32a-3cf4-4646-8bdd-155335b5b76e
8a0f7f8a-de33-4b00-8ec9-30211f60ce0f,4d2d5c25-976c-4ced-9f9d-73507bf58397
23950e5e-e329-4647-94e0-e499a736fb53,9c20d32a-3cf4-4646-8bdd-155335b5b76e
