actor,node
4a35130c-1c21-4286-b107-f898444c88a6,209f8be6-f803-47fe-a2e8-5cacaab4a3e8
861f5906-51d0-4d4c-90a7-cc94a7c40433,ca5cfc4a-150f-4889-87cc-758075c59dad
ace9338f-15c1-4a67-9870-93bb6dfa0525,209f8be6-f803-47fe-a2e8-5cacaab4a3e8
256d2e6e-98b8-4f6c-9ef3-188b61ae2c84,22f5b57a-4adb-4611-b44e-ec0c384e9c68
bb27af1b-d5f7-4e5c-9109-b0404b385af7,076b2cf5-e714-4f75-821c-65d9887dd838
bb096d45-171b-4522-bb74-37260d8a51a9,22f5b57a-4adb-4611-b44e-ec0c384e9c68
37b92bfa-a49a-4a83-bfad-2a2e16c6cb19,e064ddec-746e-4ba3-b66c-21d91248ef85
d59ba9f8-55ee-47bf-ab16-b8f620ae4d07,fbc115a8-5085-4f00-b51f-c6bc7616829c
10506efd-f878-45e2-ac4c-63b4e13655e0,9085cf7c-599e-4704-8192-d36e5197fb42
63580269-e163-466f-b010-72d417ae1aea,e064ddec-746e-4ba3-b66c-21d91248ef85
11c22ecf-e662-42a2-851a-da8b0dd83f71,e064ddec-746e-4ba3-b66c-21d91248ef85
04efc9c1-37c5-4f41-98be-8a13553c1d54,73cff2fe-bc83-451e-a01f-1b54e0dbcf28
27897434-ddd7-439f-a824-e23767b5ca71,6ddbbf18-3233-4bf3-add3-50d05ecafdd9
a0447aec-9df1-4229-82d1-923b39f74bf7,e25e0cf7-53ae-4d73-a88b-3cc6a0c16661
272d9b65-9719-434e-8406-f8b6a76decec,64311692-9334-4898-a7e0-6924bccb3f3d
a32ba729-3004-41e9-ac36-9b6e73506b23,56d117ca-4207-4bb3-be7e-52c667cf3ed5
c56daba2-6e6c-463b-b4b6-bc53a723ca0e,64311692-9334-4898-a7e0-6924bccb3f3d
8e7af42b-da11-48f3-9853-f9d8979143b0,6ddbbf18-3233-4bf3-add3-50d05ecafdd9
31825e1e-ed8b-4747-933b-15d45e62838b,6ea7f56e-8914-4941-af1d-6f2b9fc19415
b15bfa76-859d-4a05-aa1b-b9f9a4e564bf,31a77745-054f-4d9d-bf0a-9af5f03f9274
0f805e65-7d62-4130-8274-76f0e369f12a,53983ee5-feeb-4605-913f-79ff05576a2c
a3f05f10-2bd6-46c1-a2f7-e7c48509c332,24e953f4-978a-4883-ae06-35f9479edae0
a149bfc2-df98-494d-9ea5-2c47c0e93793,8c63c257-f9b2-4779-b2c1-9e97dd45a727
1aca1e88-3d74-4599-a091-d71ae2fd8149,0971bfd4-c0d7-4ff9-991f-5ce2ea1f5bc4
61d475c7-74bd-4933-ad01-adac5c91ddc9,797ef6fe-7e27-441c-9bce-a9ad14bb7d19
97ea2581-dc40-4b7d-8332-9aae034f8f1d,fbc115a8-5085-4f00-b51f-c6bc7616829c
e3e6fc30-0da5-4623-bf6b-1266e79df97b,939d8dd5-8199-4e53-83f5-15e54b00b11d
3cf25e32-aa13-46a6-befc-f4307f39a24e,3b874a95-ee1e-42c6-9570-b347ac86e683
a508cb07-e42b-47c9-8861-79ac27330960,3b874a95-ee1e-42c6-9570-b347ac86e683
632ee7c5-85c6-4fa6-baf2-c4c12d431680,feaf3391-f6b7-4599-8fa2-b88b4730ec2f
95e744be-4967-4b83-aa01-42f30350b4e2,0c348785-2281-496f-8520-4357513ead70
eb1185f9-7e73-4d14-bcf4-052d1ff9ead2,209f8be6-f803-47fe-a2e8-5cacaab4a3e8
d317c2d2-0474-489a-a77a-f12eb94bb564,209f8be6-f803-47fe-a2e8-5cacaab4a3e8
3464f1c1-ba24-416c-8a1d-c9d2797924a1,a05f94f0-4d77-4828-9c30-982096d12a5a
4a9fb3fc-d1eb-4862-b868-1ea70177d42a,a05f94f0-4d77-4828-9c30-982096d12a5a
2d7fec6f-da71-45ad-a463-f79cbe679bfa,ca0df680-ec1b-454b-93bf-63e7a33b979f
7b59169d-52df-404f-8f15-7bea3094f3e0,939d8dd5-8199-4e53-83f5-15e54b00b11d
60fc19f0-7459-4140-affd-4382b213c124,939d8dd5-8199-4e53-83f5-15e54b00b11d
4c03e7d6-9e93-45e5-bc2e-2ed6e9ddd660,50febb1f-9e68-45aa-9dee-1255ea314a58
243f5437-3322-4681-9bb8-310bee206282,e48459e8-edc7-48c9-a740-1a1beb43f5d1
dbff2adc-6d71-4834-a0bb-e6042aab1b0f,6ea7f56e-8914-4941-af1d-6f2b9fc19415
7d6605fd-aab4-4f4a-97b2-0a9460ba8075,6ea7f56e-8914-4941-af1d-6f2b9fc19415
bbea9ca5-6f08-49e9-83d0-bf337239d0f9,6a4ef742-acd5-4c28-bcfc-11c550b2b91c
531b62c5-1edc-436d-a8f4-e566e29dd269,6ea7f56e-8914-4941-af1d-6f2b9fc19415
1cbc1503-9cad-40a1-b367-39f90e75e44c,6ea7f56e-8914-4941-af1d-6f2b9fc19415
a64b3125-301c-4c53-942f-73d54af3f7b1,4a049def-5c55-4c6f-8e05-a9841f580c0f
7970501d-b91d-4be7-b2de-1238134c9f4b,4a049def-5c55-4c6f-8e05-a9841f580c0f
e7fcf9d2-fd7d-4f5f-bbbd-29d98645322b,04cfc5bc-0661-492a-85d3-a775520fe6f1
50ea2231-2c53-4936-89a9-d92eb732eb62,24e953f4-978a-4883-ae06-35f9479edae0
bbe2026e-e230-4c14-ad92-465a60518100,b12674b0-1749-4c9e-aaca-fd5194aa1978
300afa45-8a65-45f9-a40c-6c7ca917ffda,24e953f4-978a-4883-ae06-35f9479edae0
cf944be3-9157-49af-8772-aa2b2a01caac,3b874a95-ee1e-42c6-9570-b347ac86e683
8f0a8a63-8545-4129-ac68-898cda5db8e4,f1656eb0-54f4-4cb2-a432-872db5431f46
a612f16b-f0f3-4a29-b383-cfd4fd44253a,3b874a95-ee1e-42c6-9570-b347ac86e683
b1e30cd9-4dec-4a57-9c2a-02f8241bb52c,b7d1b6fe-5aff-40f8-84b7-fffba9c4a73b
b7e52c65-97ee-4d1d-8e8f-7a4ccdc91f5e,6ddbbf18-3233-4bf3-add3-50d05ecafdd9
34679f4f-5010-4bff-905f-f03058dafa94,6ddbbf18-3233-4bf3-add3-50d05ecafdd9
b99f4b58-c01d-4812-b978-c6fec6fc507f,e58d99ae-1194-4c4a-b613-8773a4024f7e
cfdba56f-ce7b-45f5-bae7-7a78698ec326,4a049def-5c55-4c6f-8e05-a9841f580c0f
ad4b5b72-27ab-4d9a-8608-f68cbddb1707,4a049def-5c55-4c6f-8e05-a9841f580c0f
8b6ce96b-712e-4cd9-a8ca-1222e3d5cade,87043a8a-3092-47e2-aa99-d5d8d4cce341
62860f41-1889-477c-858c-0850259163ea,a05f94f0-4d77-4828-9c30-982096d12a5a
8000e9e1-b1da-491f-a166-61d57a5deaca,a05f94f0-4d77-4828-9c30-982096d12a5a
40e35b8e-a465-45fe-ae92-9ca6a7e1f51e,f928a3ab-1110-487e-b616-0c2784a9e8de
91d788ab-c511-4f01-9446-20ad637ac7ec,e064ddec-746e-4ba3-b66c-21d91248ef85
b9fea4ca-0d1c-4115-a498-bc1e53077ac3,e064ddec-746e-4ba3-b66c-21d91248ef85
32ca6b0e-3877-4d05-b487-7b96e2e99e60,0971bfd4-c0d7-4ff9-991f-5ce2ea1f5bc4
ff17aca9-a0b7-4074-8f76-b511f01ee9a7,51228c03-931f-4c0b-8a12-a5a7dbf32566
6875dc64-236e-4747-93f3-9b03300707f8,0971bfd4-c0d7-4ff9-991f-5ce2ea1f5bc4
a839778b-e5a1-4457-bdb3-00824f64b947,a05f94f0-4d77-4828-9c30-982096d12a5a
e5f6e164-304e-4eab-8bb0-f378d5ae1718,2558022f-bd1f-4bbc-9ab3-bd93f8e923b9
16b5b05d-dbf9-4640-8033-49b3df46a3dc,a05f94f0-4d77-4828-9c30-982096d12a5a
84828ee1-3074-4eda-89d1-7d22f4db07fc,b8fa676e-77b9-4d4f-984c-03c62dd3c494
8d582681-8d83-4e14-b97a-beedbb325c9d,0971bfd4-c0d7-4ff9-991f-5ce2ea1f5bc4
e8f710c9-e122-4b33-80da-38dc732fbf87,31a77745-054f-4d9d-bf0a-9af5f03f9274
