date,trigger,state
2020-02-29 02:04:18,629f7c71-f76f-4864-ac15-7909f69ca429,S
2020-02-29 02:06:37,629f7c71-f76f-4864-ac15-7909f69ca429,A
2020-02-29 02:14:30,629f7c71-f76f-4864-ac15-7909f69ca429,S
2020-02-29 02:26:42,629f7c71-f76f-4864-ac15-7909f69ca429,A
2020-02-29 02:30:26,629f7c71-f76f-4864-ac15-7909f69ca429,S
2020-02-29 02:39:19,629f7c71-f76f-4864-ac15-7909f69ca429,A
2020-02-29 02:41:38,629f7c71-f76f-4864-ac15-7909f69ca429,S
2020-02-29 02:46:53,629f7c71-f76f-4864-ac15-7909f69ca429,A
2020-02-29 02:54:01,629f7c71-f76f-4864-ac15-7909f69ca429,S
2020-02-29 02:59:15,629f7c71-f76f-4864-ac15-7909f69ca429,A
2020-02-29 03:01:08,629f7c71-f76f-4864-ac15-7909f69ca429,S
2020-02-29 03:12:39,629f7c71-f76f-4864-ac15-7909f69ca429,A
2020-02-29 03:18:10,629f7c71-f76f-4864-ac15-7909f69ca429,S
2020-02-29 03:18:33,629f7c71-f76f-4864-ac15-7909f69ca429,A
2020-02-29 03:26:22,629f7c71-f76f-4864-ac15-7909f69ca429,S
2020-02-29 03:32:49,629f7c71-f76f-4864-ac15-7909f69ca429,A
2020-02-29 03:44:35,629f7c71-f76f-4864-ac15-7909f69ca429,S
2020-02-29 03:47:28,629f7c71-f76f-4864-ac15-7909f69ca429,A
2020-02-29 03:51:50,629f7c71-f76f-4864-ac15-7909f69ca429,S
2020-02-29 03:55:47,629f7c71-f76f-4864-ac15-7909f69ca429,A
2020-02-29 04:01:20,629f7c71-f76f-4864-ac15-7909f69ca429,S
2020-02-29 04:09:29,629f7c71-f76f-4864-ac15-7909f69ca429,A
2020-02-29 04:09:44,629f7c71-f76f-4864-ac15-7909f69ca429,S
2020-02-29 04:10:34,629f7c71-f76f-4864-ac15-7909f69ca429,A
2020-02-29 04:13:51,629f7c71-f76f-4864-ac15-7909f69ca429,S
2020-02-29 04:17:09,629f7c71-f76f-4864-ac15-7909f69ca429,A
2020-02-29 04:17:56,629f7c71-f76f-4864-ac15-7909f69ca429,S
2020-02-29 04:21:47,629f7c71-f76f-4864-ac15-7909f69ca429,A
2020-02-29 01:58:14,c377c3b6-d839-49ef-bd9f-1b7a7d2e7b6a,A
2020-02-29 02:01:04,c377c3b6-d839-49ef-bd9f-1b7a7d2e7b6a,S
2020-02-29 02:10:51,c377c3b6-d839-49ef-bd9f-1b7a7d2e7b6a,A
2020-02-29 02:16:57,c377c3b6-d839-49ef-bd9f-1b7a7d2e7b6a,S
2020-02-29 02:26:08,c377c3b6-d839-49ef-bd9f-1b7a7d2e7b6a,A
2020-02-29 02:35:15,c377c3b6-d839-49ef-bd9f-1b7a7d2e7b6a,S
2020-02-29 02:53:44,c377c3b6-d839-49ef-bd9f-1b7a7d2e7b6a,A
2020-02-29 02:55:12,c377c3b6-d839-49ef-bd9f-1b7a7d2e7b6a,S
2020-02-29 02:58:44,c377c3b6-d839-49ef-bd9f-1b7a7d2e7b6a,A
2020-02-29 03:07:48,c377c3b6-d839-49ef-bd9f-1b7a7d2e7b6a,S
2020-02-29 03:12:01,c377c3b6-d839-49ef-bd9f-1b7a7d2e7b6a,A
2020-02-29 03:14:39,c377c3b6-d839-49ef-bd9f-1b7a7d2e7b6a,S
2020-02-29 03:24:09,c377c3b6-d839-49ef-bd9f-1b7a7d2e7b6a,A
2020-02-29 03:29:08,c377c3b6-d839-49ef-bd9f-1b7a7d2e7b6a,S
2020-02-29 03:31:20,c377c3b6-d839-49ef-bd9f-1b7a7d2e7b6a,A
2020-02-29 03:32:07,c377c3b6-d839-49ef-bd9f-1b7a7d2e7b6a,S
2020-02-29 03:35:13,c377c3b6-d839-49ef-bd9f-1b7a7d2e7b6a,A
2020-02-29 03:39:29,c377c3b6-d839-49ef-bd9f-1b7a7d2e7b6a,S
2020-02-29 03:49:21,c377c3b6-d839-49ef-bd9f-1b7a7d2e7b6a,A
2020-02-29 04:07:21,c377c3b6-d839-49ef-bd9f-1b7a7d2e7b6a,S
2020-02-29 04:07:54,c377c3b6-d839-49ef-bd9f-1b7a7d2e7b6a,A
2020-02-29 04:11:18,c377c3b6-d839-49ef-bd9f-1b7a7d2e7b6a,S
2020-02-29 04:14:05,c377c3b6-d839-49ef-bd9f-1b7a7d2e7b6a,A
2020-02-29 04:25:12,c377c3b6-d839-49ef-bd9f-1b7a7d2e7b6a,S
2020-02-29 01:55:37,caa2446c-da25-4206-849b-1f5731f32d5e,S
2020-02-29 01:57:24,caa2446c-da25-4206-849b-1f5731f32d5e,A
2020-02-29 01:59:21,caa2446c-da25-4206-849b-1f5731f32d5e,S
2020-02-29 02:01:41,caa2446c-da25-4206-849b-1f5731f32d5e,A
2020-02-29 02:05:03,caa2446c-da25-4206-849b-1f5731f32d5e,S
2020-02-29 02:16:38,caa2446c-da25-4206-849b-1f5731f32d5e,A
2020-02-29 02:18:10,caa2446c-da25-4206-849b-1f5731f32d5e,S
2020-02-29 02:31:19,caa2446c-da25-4206-849b-1f5731f32d5e,A
2020-02-29 02:37:02,caa2446c-da25-4206-849b-1f5731f32d5e,S
2020-02-29 02:43:24,caa2446c-da25-4206-849b-1f5731f32d5e,A
2020-02-29 02:46:17,caa2446c-da25-4206-849b-1f5731f32d5e,S
2020-02-29 02:54:17,caa2446c-da25-4206-849b-1f5731f32d5e,A
2020-02-29 03:00:27,caa2446c-da25-4206-849b-1f5731f32d5e,S
2020-02-29 03:03:50,caa2446c-da25-4206-849b-1f5731f32d5e,A
2020-02-29 03:04:43,caa2446c-da25-4206-849b-1f5731f32d5e,S
2020-02-29 03:13:46,caa2446c-da25-4206-849b-1f5731f32d5e,A
2020-02-29 03:15:48,caa2446c-da25-4206-849b-1f5731f32d5e,S
2020-02-29 03:16:54,caa2446c-da25-4206-849b-1f5731f32d5e,A
2020-02-29 03:20:14,caa2446c-da25-4206-849b-1f5731f32d5e,S
2020-02-29 03:21:27,caa2446c-da25-4206-849b-1f5731f32d5e,A
2020-02-29 03:24:12,caa2446c-da25-4206-849b-1f5731f32d5e,S
2020-02-29 03:27:25,caa2446c-da25-4206-849b-1f5731f32d5e,A
2020-02-29 03:31:01,caa2446c-da25-4206-849b-1f5731f32d5e,S
2020-02-29 03:31:24,caa2446c-da25-4206-849b-1f5731f32d5e,A
2020-02-29 03:44:30,caa2446c-da25-4206-849b-1f5731f32d5e,S
2020-02-29 03:46:18,caa2446c-da25-4206-849b-1f5731f32d5e,A
2020-02-29 03:50:08,caa2446c-da25-4206-849b-1f5731f32d5e,S
2020-02-29 04:05:38,caa2446c-da25-4206-849b-1f5731f32d5e,A
2020-02-29 04:12:14,caa2446c-da25-4206-849b-1f5731f32d5e,S
2020-02-29 04:17:28,caa2446c-da25-4206-849b-1f5731f32d5e,A
2020-02-29 04:18:33,caa2446c-da25-4206-849b-1f5731f32d5e,S
2020-02-29 01:38:22,b431c416-d756-45af-a3cd-54cd9c639f51,S
2020-02-29 01:42:02,b431c416-d756-45af-a3cd-54cd9c639f51,A
2020-02-29 01:44:31,b431c416-d756-45af-a3cd-54cd9c639f51,S
2020-02-29 01:49:14,b431c416-d756-45af-a3cd-54cd9c639f51,A
2020-02-29 01:57:53,b431c416-d756-45af-a3cd-54cd9c639f51,S
2020-02-29 02:01:38,b431c416-d756-45af-a3cd-54cd9c639f51,A
2020-02-29 02:03:15,b431c416-d756-45af-a3cd-54cd9c639f51,S
2020-02-29 02:11:46,b431c416-d756-45af-a3cd-54cd9c639f51,A
2020-02-29 02:20:11,b431c416-d756-45af-a3cd-54cd9c639f51,S
2020-02-29 02:27:48,b431c416-d756-45af-a3cd-54cd9c639f51,A
2020-02-29 02:29:32,b431c416-d756-45af-a3cd-54cd9c639f51,S
2020-02-29 02:34:03,b431c416-d756-45af-a3cd-54cd9c639f51,A
2020-02-29 02:35:08,b431c416-d756-45af-a3cd-54cd9c639f51,S
2020-02-29 02:39:09,b431c416-d756-45af-a3cd-54cd9c639f51,A
2020-02-29 02:46:40,b431c416-d756-45af-a3cd-54cd9c639f51,S
2020-02-29 02:48:58,b431c416-d756-45af-a3cd-54cd9c639f51,A
2020-02-29 02:54:11,b431c416-d756-45af-a3cd-54cd9c639f51,S
2020-02-29 03:02:15,b431c416-d756-45af-a3cd-54cd9c639f51,A
2020-02-29 03:09:40,b431c416-d756-45af-a3cd-54cd9c639f51,S
2020-02-29 03:10:01,b431c416-d756-45af-a3cd-54cd9c639f51,A
2020-02-29 03:15:36,b431c416-d756-45af-a3cd-54cd9c639f51,S
2020-02-29 03:26:38,b431c416-d756-45af-a3cd-54cd9c639f51,A
2020-02-29 03:31:02,b431c416-d756-45af-a3cd-54cd9c639f51,S
2020-02-29 03:33:49,b431c416-d756-45af-a3cd-54cd9c639f51,A
2020-02-29 03:40:32,b431c416-d756-45af-a3cd-54cd9c639f51,S
2020-02-29 03:41:22,b431c416-d756-45af-a3cd-54cd9c639f51,A
2020-02-29 03:44:08,b431c416-d756-45af-a3cd-54cd9c639f51,S
2020-02-29 03:47:58,b431c416-d756-45af-a3cd-54cd9c639f51,A
2020-02-29 03:54:26,b431c416-d756-45af-a3cd-54cd9c639f51,S
2020-02-29 03:57:31,b431c416-d756-45af-a3cd-54cd9c639f51,A
2020-02-29 04:09:51,b431c416-d756-45af-a3cd-54cd9c639f51,S
2020-02-29 04:14:37,b431c416-d756-45af-a3cd-54cd9c639f51,A
2020-02-29 04:16:41,b431c416-d756-45af-a3cd-54cd9c639f51,S
2020-02-29 04:20:30,b431c416-d756-45af-a3cd-54cd9c639f51,A
2020-02-29 04:23:13,b431c416-d756-45af-a3cd-54cd9c639f51,S
2020-02-29 04:24:44,b431c416-d756-45af-a3cd-54cd9c639f51,A
2020-02-29 01:43:31,2aba353e-9588-459f-b1dd-2e00c19b7e4c,A
2020-02-29 01:51:18,2aba353e-9588-459f-b1dd-2e00c19b7e4c,S
2020-02-29 01:53:11,2aba353e-9588-459f-b1dd-2e00c19b7e4c,A
2020-02-29 01:54:29,2aba353e-9588-459f-b1dd-2e00c19b7e4c,S
2020-02-29 01:59:18,2aba353e-9588-459f-b1dd-2e00c19b7e4c,A
2020-02-29 02:13:14,2aba353e-9588-459f-b1dd-2e00c19b7e4c,S
2020-02-29 02:13:56,2aba353e-9588-459f-b1dd-2e00c19b7e4c,A
2020-02-29 02:13:59,2aba353e-9588-459f-b1dd-2e00c19b7e4c,S
2020-02-29 02:17:14,2aba353e-9588-459f-b1dd-2e00c19b7e4c,A
2020-02-29 02:17:19,2aba353e-9588-459f-b1dd-2e00c19b7e4c,S
2020-02-29 02:19:23,2aba353e-9588-459f-b1dd-2e00c19b7e4c,A
2020-02-29 02:19:43,2aba353e-9588-459f-b1dd-2e00c19b7e4c,S
2020-02-29 02:20:43,2aba353e-9588-459f-b1dd-2e00c19b7e4c,A
2020-02-29 02:21:17,2aba353e-9588-459f-b1dd-2e00c19b7e4c,S
2020-02-29 02:24:04,2aba353e-9588-459f-b1dd-2e00c19b7e4c,A
2020-02-29 02:32:01,2aba353e-9588-459f-b1dd-2e00c19b7e4c,S
2020-02-29 02:40:06,2aba353e-9588-459f-b1dd-2e00c19b7e4c,A
2020-02-29 02:50:43,2aba353e-9588-459f-b1dd-2e00c19b7e4c,S
2020-02-29 02:51:29,2aba353e-9588-459f-b1dd-2e00c19b7e4c,A
2020-02-29 02:51:37,2aba353e-9588-459f-b1dd-2e00c19b7e4c,S
2020-02-29 03:00:32,2aba353e-9588-459f-b1dd-2e00c19b7e4c,A
2020-02-29 03:11:16,2aba353e-9588-459f-b1dd-2e00c19b7e4c,S
2020-02-29 03:16:47,2aba353e-9588-459f-b1dd-2e00c19b7e4c,A
2020-02-29 03:19:25,2aba353e-9588-459f-b1dd-2e00c19b7e4c,S
2020-02-29 03:20:09,2aba353e-9588-459f-b1dd-2e00c19b7e4c,A
2020-02-29 03:24:49,2aba353e-9588-459f-b1dd-2e00c19b7e4c,S
2020-02-29 03:26:40,2aba353e-9588-459f-b1dd-2e00c19b7e4c,A
2020-02-29 03:39:55,2aba353e-9588-459f-b1dd-2e00c19b7e4c,S
2020-02-29 03:41:48,2aba353e-9588-459f-b1dd-2e00c19b7e4c,A
2020-02-29 03:48:00,2aba353e-9588-459f-b1dd-2e00c19b7e4c,S
2020-02-29 03:50:47,2aba353e-9588-459f-b1dd-2e00c19b7e4c,A
2020-02-29 03:52:35,2aba353e-9588-459f-b1dd-2e00c19b7e4c,S
2020-02-29 03:52:58,2aba353e-9588-459f-b1dd-2e00c19b7e4c,A
2020-02-29 03:53:38,2aba353e-9588-459f-b1dd-2e00c19b7e4c,S
2020-02-29 04:06:08,2aba353e-9588-459f-b1dd-2e00c19b7e4c,A
2020-02-29 04:06:10,2aba353e-9588-459f-b1dd-2e00c19b7e4c,S
2020-02-29 04:06:46,2aba353e-9588-459f-b1dd-2e00c19b7e4c,A
2020-02-29 04:07:14,2aba353e-9588-459f-b1dd-2e00c19b7e4c,S
2020-02-29 04:20:38,2aba353e-9588-459f-b1dd-2e00c19b7e4c,A
2020-02-29 04:25:46,2aba353e-9588-459f-b1dd-2e00c19b7e4c,S
2020-02-29 01:50:55,cd4c9478-e628-4149-be0d-d54c60b7c59c,S
2020-02-29 02:01:02,cd4c9478-e628-4149-be0d-d54c60b7c59c,A
2020-02-29 02:07:50,cd4c9478-e628-4149-be0d-d54c60b7c59c,S
2020-02-29 02:09:03,cd4c9478-e628-4149-be0d-d54c60b7c59c,A
2020-02-29 02:09:58,cd4c9478-e628-4149-be0d-d54c60b7c59c,S
2020-02-29 02:15:49,cd4c9478-e628-4149-be0d-d54c60b7c59c,A
2020-02-29 01:32:41,99600bac-b8ca-4b5b-b57c-ed86a5db1fce,A
2020-02-29 01:52:13,99600bac-b8ca-4b5b-b57c-ed86a5db1fce,S
2020-02-29 01:56:44,99600bac-b8ca-4b5b-b57c-ed86a5db1fce,A
2020-02-29 01:58:27,99600bac-b8ca-4b5b-b57c-ed86a5db1fce,S
2020-02-29 02:03:04,99600bac-b8ca-4b5b-b57c-ed86a5db1fce,A
2020-02-29 02:03:09,99600bac-b8ca-4b5b-b57c-ed86a5db1fce,S
2020-02-29 02:06:00,99600bac-b8ca-4b5b-b57c-ed86a5db1fce,A
2020-02-29 02:07:22,99600bac-b8ca-4b5b-b57c-ed86a5db1fce,S
2020-02-29 02:08:27,99600bac-b8ca-4b5b-b57c-ed86a5db1fce,A
2020-02-29 02:08:41,99600bac-b8ca-4b5b-b57c-ed86a5db1fce,S
2020-02-29 02:13:00,99600bac-b8ca-4b5b-b57c-ed86a5db1fce,A
2020-02-29 02:24:53,99600bac-b8ca-4b5b-b57c-ed86a5db1fce,S
2020-02-29 02:25:34,99600bac-b8ca-4b5b-b57c-ed86a5db1fce,A
2020-02-29 02:41:15,99600bac-b8ca-4b5b-b57c-ed86a5db1fce,S
2020-02-29 02:48:30,99600bac-b8ca-4b5b-b57c-ed86a5db1fce,A
2020-02-29 02:48:51,99600bac-b8ca-4b5b-b57c-ed86a5db1fce,S
2020-02-29 02:49:21,99600bac-b8ca-4b5b-b57c-ed86a5db1fce,A
2020-02-29 02:50:28,99600bac-b8ca-4b5b-b57c-ed86a5db1fce,S
2020-02-29 02:58:16,99600bac-b8ca-4b5b-b57c-ed86a5db1fce,A
2020-02-29 03:00:45,99600bac-b8ca-4b5b-b57c-ed86a5db1fce,S
2020-02-29 03:01:43,99600bac-b8ca-4b5b-b57c-ed86a5db1fce,A
2020-02-29 03:06:42,99600bac-b8ca-4b5b-b57c-ed86a5db1fce,S
2020-02-29 03:10:08,99600bac-b8ca-4b5b-b57c-ed86a5db1fce,A
2020-02-29 03:17:50,99600bac-b8ca-4b5b-b57c-ed86a5db1fce,S
2020-02-29 03:21:22,99600bac-b8ca-4b5b-b57c-ed86a5db1fce,A
2020-02-29 03:22:27,99600bac-b8ca-4b5b-b57c-ed86a5db1fce,S
2020-02-29 03:23:45,99600bac-b8ca-4b5b-b57c-ed86a5db1fce,A
2020-02-29 03:32:53,99600bac-b8ca-4b5b-b57c-ed86a5db1fce,S
2020-02-29 03:34:00,99600bac-b8ca-4b5b-b57c-ed86a5db1fce,A
2020-02-29 03:36:38,99600bac-b8ca-4b5b-b57c-ed86a5db1fce,S
2020-02-29 03:38:45,99600bac-b8ca-4b5b-b57c-ed86a5db1fce,A
2020-02-29 03:47:17,99600bac-b8ca-4b5b-b57c-ed86a5db1fce,S
2020-02-29 03:49:31,99600bac-b8ca-4b5b-b57c-ed86a5db1fce,A
2020-02-29 03:54:28,99600bac-b8ca-4b5b-b57c-ed86a5db1fce,S
2020-02-29 03:57:56,99600bac-b8ca-4b5b-b57c-ed86a5db1fce,A
2020-02-29 03:58:31,99600bac-b8ca-4b5b-b57c-ed86a5db1fce,S
2020-02-29 04:00:03,99600bac-b8ca-4b5b-b57c-ed86a5db1fce,A
2020-02-29 04:04:37,99600bac-b8ca-4b5b-b57c-ed86a5db1fce,S
2020-02-29 04:09:06,99600bac-b8ca-4b5b-b57c-ed86a5db1fce,A
2020-02-29 04:09:27,99600bac-b8ca-4b5b-b57c-ed86a5db1fce,S
2020-02-29 04:14:59,99600bac-b8ca-4b5b-b57c-ed86a5db1fce,A
2020-02-29 04:15:30,99600bac-b8ca-4b5b-b57c-ed86a5db1fce,S
2020-02-29 01:39:31,a1939cd0-38e5-45f4-bbbf-ae577826c847,S
2020-02-29 01:40:04,a1939cd0-38e5-45f4-bbbf-ae577826c847,A
2020-02-29 01:41:36,a1939cd0-38e5-45f4-bbbf-ae577826c847,S
2020-02-29 01:45:41,a1939cd0-38e5-45f4-bbbf-ae577826c847,A
2020-02-29 02:00:39,a1939cd0-38e5-45f4-bbbf-ae577826c847,S
2020-02-29 02:01:29,a1939cd0-38e5-45f4-bbbf-ae577826c847,A
2020-02-29 02:06:47,a1939cd0-38e5-45f4-bbbf-ae577826c847,S
2020-02-29 02:15:46,a1939cd0-38e5-45f4-bbbf-ae577826c847,A
2020-02-29 02:19:10,a1939cd0-38e5-45f4-bbbf-ae577826c847,S
2020-02-29 02:19:38,a1939cd0-38e5-45f4-bbbf-ae577826c847,A
2020-02-29 02:40:37,a1939cd0-38e5-45f4-bbbf-ae577826c847,S
2020-02-29 02:42:43,a1939cd0-38e5-45f4-bbbf-ae577826c847,A
2020-02-29 02:48:12,a1939cd0-38e5-45f4-bbbf-ae577826c847,S
2020-02-29 02:53:59,a1939cd0-38e5-45f4-bbbf-ae577826c847,A
2020-02-29 02:54:47,a1939cd0-38e5-45f4-bbbf-ae577826c847,S
2020-02-29 02:56:44,a1939cd0-38e5-45f4-bbbf-ae577826c847,A
2020-02-29 02:58:20,a1939cd0-38e5-45f4-bbbf-ae577826c847,S
2020-02-29 03:12:33,a1939cd0-38e5-45f4-bbbf-ae577826c847,A
2020-02-29 03:14:39,a1939cd0-38e5-45f4-bbbf-ae577826c847,S
2020-02-29 03:17:06,a1939cd0-38e5-45f4-bbbf-ae577826c847,A
2020-02-29 03:24:44,a1939cd0-38e5-45f4-bbbf-ae577826c847,S
2020-02-29 03:28:24,a1939cd0-38e5-45f4-bbbf-ae577826c847,A
2020-02-29 03:31:46,a1939cd0-38e5-45f4-bbbf-ae577826c847,S
2020-02-29 03:42:36,a1939cd0-38e5-45f4-bbbf-ae577826c847,A
2020-02-29 03:42:39,a1939cd0-38e5-45f4-bbbf-ae577826c847,S
2020-02-29 03:52:11,a1939cd0-38e5-45f4-bbbf-ae577826c847,A
2020-02-29 04:12:39,a1939cd0-38e5-45f4-bbbf-ae577826c847,S
2020-02-29 04:19:54,a1939cd0-38e5-45f4-bbbf-ae577826c847,A
2020-02-29 04:23:53,a1939cd0-38e5-45f4-bbbf-ae577826c847,S
2020-02-29 01:55:09,3f8c1dee-d6c5-49f7-8d81-df774952e9a6,A
2020-02-29 02:00:09,3f8c1dee-d6c5-49f7-8d81-df774952e9a6,S
2020-02-29 02:02:29,3f8c1dee-d6c5-49f7-8d81-df774952e9a6,A
2020-02-29 02:12:47,3f8c1dee-d6c5-49f7-8d81-df774952e9a6,S
2020-02-29 02:21:30,3f8c1dee-d6c5-49f7-8d81-df774952e9a6,A
2020-02-29 02:23:29,3f8c1dee-d6c5-49f7-8d81-df774952e9a6,S
2020-02-29 02:38:09,3f8c1dee-d6c5-49f7-8d81-df774952e9a6,A
2020-02-29 02:38:22,3f8c1dee-d6c5-49f7-8d81-df774952e9a6,S
2020-02-29 02:41:04,3f8c1dee-d6c5-49f7-8d81-df774952e9a6,A
2020-02-29 02:44:24,3f8c1dee-d6c5-49f7-8d81-df774952e9a6,S
2020-02-29 02:45:45,3f8c1dee-d6c5-49f7-8d81-df774952e9a6,A
2020-02-29 02:46:07,3f8c1dee-d6c5-49f7-8d81-df774952e9a6,S
2020-02-29 02:48:36,3f8c1dee-d6c5-49f7-8d81-df774952e9a6,A
2020-02-29 02:50:21,3f8c1dee-d6c5-49f7-8d81-df774952e9a6,S
2020-02-29 02:51:23,3f8c1dee-d6c5-49f7-8d81-df774952e9a6,A
2020-02-29 02:53:39,3f8c1dee-d6c5-49f7-8d81-df774952e9a6,S
2020-02-29 03:00:35,3f8c1dee-d6c5-49f7-8d81-df774952e9a6,A
2020-02-29 03:02:47,3f8c1dee-d6c5-49f7-8d81-df774952e9a6,S
2020-02-29 03:06:25,3f8c1dee-d6c5-49f7-8d81-df774952e9a6,A
2020-02-29 03:09:42,3f8c1dee-d6c5-49f7-8d81-df774952e9a6,S
2020-02-29 03:12:11,3f8c1dee-d6c5-49f7-8d81-df774952e9a6,A
2020-02-29 03:12:54,3f8c1dee-d6c5-49f7-8d81-df774952e9a6,S
2020-02-29 03:17:15,3f8c1dee-d6c5-49f7-8d81-df774952e9a6,A
2020-02-29 03:24:46,3f8c1dee-d6c5-49f7-8d81-df774952e9a6,S
2020-02-29 03:28:44,3f8c1dee-d6c5-49f7-8d81-df774952e9a6,A
2020-02-29 03:31:29,3f8c1dee-d6c5-49f7-8d81-df774952e9a6,S
2020-02-29 03:34:54,3f8c1dee-d6c5-49f7-8d81-df774952e9a6,A
2020-02-29 03:39:56,3f8c1dee-d6c5-49f7-8d81-df774952e9a6,S
2020-02-29 03:40:38,3f8c1dee-d6c5-49f7-8d81-df774952e9a6,A
2020-02-29 03:44:38,3f8c1dee-d6c5-49f7-8d81-df774952e9a6,S
2020-02-29 03:45:49,3f8c1dee-d6c5-49f7-8d81-df774952e9a6,A
2020-02-29 03:52:31,3f8c1dee-d6c5-49f7-8d81-df774952e9a6,S
2020-02-29 03:54:47,3f8c1dee-d6c5-49f7-8d81-df774952e9a6,A
2020-02-29 03:56:42,3f8c1dee-d6c5-49f7-8d81-df774952e9a6,S
2020-02-29 03:58:21,3f8c1dee-d6c5-49f7-8d81-df774952e9a6,A
2020-02-29 04:08:16,3f8c1dee-d6c5-49f7-8d81-df774952e9a6,S
2020-02-29 01:55:44,adf7cdaa-c3a2-434c-923c-f86f25aded63,A
2020-02-29 01:57:54,adf7cdaa-c3a2-434c-923c-f86f25aded63,S
2020-02-29 01:58:02,adf7cdaa-c3a2-434c-923c-f86f25aded63,A
2020-02-29 01:59:28,adf7cdaa-c3a2-434c-923c-f86f25aded63,S
2020-02-29 02:06:14,adf7cdaa-c3a2-434c-923c-f86f25aded63,A
2020-02-29 02:07:40,adf7cdaa-c3a2-434c-923c-f86f25aded63,S
2020-02-29 02:10:58,adf7cdaa-c3a2-434c-923c-f86f25aded63,A
2020-02-29 02:12:39,adf7cdaa-c3a2-434c-923c-f86f25aded63,S
2020-02-29 02:15:53,adf7cdaa-c3a2-434c-923c-f86f25aded63,A
2020-02-29 02:17:21,adf7cdaa-c3a2-434c-923c-f86f25aded63,S
2020-02-29 02:17:24,adf7cdaa-c3a2-434c-923c-f86f25aded63,A
2020-02-29 02:17:49,adf7cdaa-c3a2-434c-923c-f86f25aded63,S
2020-02-29 02:20:59,adf7cdaa-c3a2-434c-923c-f86f25aded63,A
2020-02-29 02:23:38,adf7cdaa-c3a2-434c-923c-f86f25aded63,S
2020-02-29 02:23:51,adf7cdaa-c3a2-434c-923c-f86f25aded63,A
2020-02-29 02:30:55,adf7cdaa-c3a2-434c-923c-f86f25aded63,S
2020-02-29 02:32:35,adf7cdaa-c3a2-434c-923c-f86f25aded63,A
2020-02-29 02:32:46,adf7cdaa-c3a2-434c-923c-f86f25aded63,S
2020-02-29 02:37:08,adf7cdaa-c3a2-434c-923c-f86f25aded63,A
2020-02-29 02:39:00,adf7cdaa-c3a2-434c-923c-f86f25aded63,S
2020-02-29 02:48:02,adf7cdaa-c3a2-434c-923c-f86f25aded63,A
2020-02-29 02:49:37,adf7cdaa-c3a2-434c-923c-f86f25aded63,S
2020-02-29 02:57:32,adf7cdaa-c3a2-434c-923c-f86f25aded63,A
2020-02-29 03:00:31,adf7cdaa-c3a2-434c-923c-f86f25aded63,S
2020-02-29 03:03:20,adf7cdaa-c3a2-434c-923c-f86f25aded63,A
2020-02-29 03:03:46,adf7cdaa-c3a2-434c-923c-f86f25aded63,S
2020-02-29 03:07:15,adf7cdaa-c3a2-434c-923c-f86f25aded63,A
2020-02-29 03:10:56,adf7cdaa-c3a2-434c-923c-f86f25aded63,S
2020-02-29 03:10:59,adf7cdaa-c3a2-434c-923c-f86f25aded63,A
2020-02-29 03:20:18,adf7cdaa-c3a2-434c-923c-f86f25aded63,S
2020-02-29 03:20:50,adf7cdaa-c3a2-434c-923c-f86f25aded63,A
2020-02-29 03:25:26,adf7cdaa-c3a2-434c-923c-f86f25aded63,S
2020-02-29 03:31:08,adf7cdaa-c3a2-434c-923c-f86f25aded63,A
2020-02-29 03:36:15,adf7cdaa-c3a2-434c-923c-f86f25aded63,S
2020-02-29 03:40:39,adf7cdaa-c3a2-434c-923c-f86f25aded63,A
2020-02-29 03:49:06,adf7cdaa-c3a2-434c-923c-f86f25aded63,S
2020-02-29 03:51:49,adf7cdaa-c3a2-434c-923c-f86f25aded63,A
2020-02-29 03:53:07,adf7cdaa-c3a2-434c-923c-f86f25aded63,S
2020-02-29 03:54:38,adf7cdaa-c3a2-434c-923c-f86f25aded63,A
2020-02-29 04:08:12,adf7cdaa-c3a2-434c-923c-f86f25aded63,S
2020-02-29 04:09:48,adf7cdaa-c3a2-434c-923c-f86f25aded63,A
2020-02-29 04:11:13,adf7cdaa-c3a2-434c-923c-f86f25aded63,S
2020-02-29 04:17:13,adf7cdaa-c3a2-434c-923c-f86f25aded63,A
2020-02-29 04:17:44,adf7cdaa-c3a2-434c-923c-f86f25aded63,S
2020-02-29 04:20:45,adf7cdaa-c3a2-434c-923c-f86f25aded63,A
2020-02-29 04:22:30,adf7cdaa-c3a2-434c-923c-f86f25aded63,S
2020-02-29 04:23:50,adf7cdaa-c3a2-434c-923c-f86f25aded63,A
2020-02-29 04:26:27,adf7cdaa-c3a2-434c-923c-f86f25aded63,S
2020-02-29 01:35:47,c5735807-ca0a-4600-b16f-820bc281d493,S
2020-02-29 01:40:11,c5735807-ca0a-4600-b16f-820bc281d493,A
2020-02-29 01:41:09,c5735807-ca0a-4600-b16f-820bc281d493,S
2020-02-29 01:44:25,c5735807-ca0a-4600-b16f-820bc281d493,A
2020-02-29 01:44:48,c5735807-ca0a-4600-b16f-820bc281d493,S
2020-02-29 01:47:46,c5735807-ca0a-4600-b16f-820bc281d493,A
2020-02-29 01:51:46,c5735807-ca0a-4600-b16f-820bc281d493,S
2020-02-29 01:54:00,c5735807-ca0a-4600-b16f-820bc281d493,A
2020-02-29 01:56:06,c5735807-ca0a-4600-b16f-820bc281d493,S
2020-02-29 02:00:17,c5735807-ca0a-4600-b16f-820bc281d493,A
2020-02-29 02:04:54,c5735807-ca0a-4600-b16f-820bc281d493,S
2020-02-29 02:07:59,c5735807-ca0a-4600-b16f-820bc281d493,A
2020-02-29 02:10:09,c5735807-ca0a-4600-b16f-820bc281d493,S
2020-02-29 02:16:11,c5735807-ca0a-4600-b16f-820bc281d493,A
2020-02-29 02:18:42,c5735807-ca0a-4600-b16f-820bc281d493,S
2020-02-29 02:19:26,c5735807-ca0a-4600-b16f-820bc281d493,A
2020-02-29 02:19:30,c5735807-ca0a-4600-b16f-820bc281d493,S
2020-02-29 02:22:20,c5735807-ca0a-4600-b16f-820bc281d493,A
2020-02-29 02:30:36,c5735807-ca0a-4600-b16f-820bc281d493,S
2020-02-29 02:33:21,c5735807-ca0a-4600-b16f-820bc281d493,A
2020-02-29 02:33:24,c5735807-ca0a-4600-b16f-820bc281d493,S
2020-02-29 02:39:30,c5735807-ca0a-4600-b16f-820bc281d493,A
2020-02-29 02:43:53,c5735807-ca0a-4600-b16f-820bc281d493,S
2020-02-29 02:51:13,c5735807-ca0a-4600-b16f-820bc281d493,A
2020-02-29 02:52:23,c5735807-ca0a-4600-b16f-820bc281d493,S
2020-02-29 02:56:19,c5735807-ca0a-4600-b16f-820bc281d493,A
2020-02-29 02:57:06,c5735807-ca0a-4600-b16f-820bc281d493,S
2020-02-29 02:57:24,c5735807-ca0a-4600-b16f-820bc281d493,A
2020-02-29 03:07:57,c5735807-ca0a-4600-b16f-820bc281d493,S
2020-02-29 03:09:20,c5735807-ca0a-4600-b16f-820bc281d493,A
2020-02-29 03:15:05,c5735807-ca0a-4600-b16f-820bc281d493,S
2020-02-29 03:19:31,c5735807-ca0a-4600-b16f-820bc281d493,A
2020-02-29 03:20:50,c5735807-ca0a-4600-b16f-820bc281d493,S
2020-02-29 03:23:38,c5735807-ca0a-4600-b16f-820bc281d493,A
2020-02-29 03:25:02,c5735807-ca0a-4600-b16f-820bc281d493,S
2020-02-29 03:33:51,c5735807-ca0a-4600-b16f-820bc281d493,A
2020-02-29 03:35:21,c5735807-ca0a-4600-b16f-820bc281d493,S
2020-02-29 03:39:00,c5735807-ca0a-4600-b16f-820bc281d493,A
2020-02-29 03:39:17,c5735807-ca0a-4600-b16f-820bc281d493,S
2020-02-29 03:43:15,c5735807-ca0a-4600-b16f-820bc281d493,A
2020-02-29 04:27:27,c5735807-ca0a-4600-b16f-820bc281d493,S
2020-02-29 01:59:10,6d05b50d-1d81-42a1-93fa-ee33581f307b,A
2020-02-29 02:00:21,6d05b50d-1d81-42a1-93fa-ee33581f307b,S
2020-02-29 02:04:53,6d05b50d-1d81-42a1-93fa-ee33581f307b,A
2020-02-29 02:05:33,6d05b50d-1d81-42a1-93fa-ee33581f307b,S
2020-02-29 02:15:36,6d05b50d-1d81-42a1-93fa-ee33581f307b,A
2020-02-29 02:19:12,6d05b50d-1d81-42a1-93fa-ee33581f307b,S
2020-02-29 02:30:28,6d05b50d-1d81-42a1-93fa-ee33581f307b,A
2020-02-29 03:02:50,6d05b50d-1d81-42a1-93fa-ee33581f307b,S
2020-02-29 03:04:31,6d05b50d-1d81-42a1-93fa-ee33581f307b,A
2020-02-29 03:05:20,6d05b50d-1d81-42a1-93fa-ee33581f307b,S
2020-02-29 03:08:44,6d05b50d-1d81-42a1-93fa-ee33581f307b,A
2020-02-29 03:20:10,6d05b50d-1d81-42a1-93fa-ee33581f307b,S
2020-02-29 03:24:52,6d05b50d-1d81-42a1-93fa-ee33581f307b,A
2020-02-29 03:28:13,6d05b50d-1d81-42a1-93fa-ee33581f307b,S
2020-02-29 03:34:30,6d05b50d-1d81-42a1-93fa-ee33581f307b,A
2020-02-29 03:35:15,6d05b50d-1d81-42a1-93fa-ee33581f307b,S
2020-02-29 03:38:55,6d05b50d-1d81-42a1-93fa-ee33581f307b,A
2020-02-29 03:41:30,6d05b50d-1d81-42a1-93fa-ee33581f307b,S
2020-02-29 03:50:06,6d05b50d-1d81-42a1-93fa-ee33581f307b,A
2020-02-29 03:54:44,6d05b50d-1d81-42a1-93fa-ee33581f307b,S
2020-02-29 03:55:55,6d05b50d-1d81-42a1-93fa-ee33581f307b,A
2020-02-29 04:00:45,6d05b50d-1d81-42a1-93fa-ee33581f307b,S
2020-02-29 04:04:09,6d05b50d-1d81-42a1-93fa-ee33581f307b,A
2020-02-29 04:09:21,6d05b50d-1d81-42a1-93fa-ee33581f307b,S
2020-02-29 04:10:49,6d05b50d-1d81-42a1-93fa-ee33581f307b,A
2020-02-29 04:11:13,6d05b50d-1d81-42a1-93fa-ee33581f307b,S
2020-02-29 04:15:40,6d05b50d-1d81-42a1-93fa-ee33581f307b,A
2020-02-29 02:21:05,c8d6efcf-d773-4f08-948d-045dc75c86d7,S
2020-02-29 02:24:30,c8d6efcf-d773-4f08-948d-045dc75c86d7,A
2020-02-29 02:24:40,c8d6efcf-d773-4f08-948d-045dc75c86d7,S
2020-02-29 02:31:40,c8d6efcf-d773-4f08-948d-045dc75c86d7,A
2020-02-29 02:33:06,c8d6efcf-d773-4f08-948d-045dc75c86d7,S
2020-02-29 02:38:00,c8d6efcf-d773-4f08-948d-045dc75c86d7,A
2020-02-29 02:39:35,c8d6efcf-d773-4f08-948d-045dc75c86d7,S
2020-02-29 02:40:02,c8d6efcf-d773-4f08-948d-045dc75c86d7,A
2020-02-29 02:45:36,c8d6efcf-d773-4f08-948d-045dc75c86d7,S
2020-02-29 02:59:18,c8d6efcf-d773-4f08-948d-045dc75c86d7,A
2020-02-29 03:03:08,c8d6efcf-d773-4f08-948d-045dc75c86d7,S
2020-02-29 03:13:35,c8d6efcf-d773-4f08-948d-045dc75c86d7,A
2020-02-29 03:14:24,c8d6efcf-d773-4f08-948d-045dc75c86d7,S
2020-02-29 03:17:13,c8d6efcf-d773-4f08-948d-045dc75c86d7,A
2020-02-29 03:17:47,c8d6efcf-d773-4f08-948d-045dc75c86d7,S
2020-02-29 03:35:51,c8d6efcf-d773-4f08-948d-045dc75c86d7,A
2020-02-29 03:41:08,c8d6efcf-d773-4f08-948d-045dc75c86d7,S
2020-02-29 03:46:57,c8d6efcf-d773-4f08-948d-045dc75c86d7,A
2020-02-29 03:54:42,c8d6efcf-d773-4f08-948d-045dc75c86d7,S
2020-02-29 03:55:29,c8d6efcf-d773-4f08-948d-045dc75c86d7,A
2020-02-29 03:58:00,c8d6efcf-d773-4f08-948d-045dc75c86d7,S
2020-02-29 03:58:22,c8d6efcf-d773-4f08-948d-045dc75c86d7,A
2020-02-29 04:07:25,c8d6efcf-d773-4f08-948d-045dc75c86d7,S
2020-02-29 04:21:53,c8d6efcf-d773-4f08-948d-045dc75c86d7,A
2020-02-29 04:24:22,c8d6efcf-d773-4f08-948d-045dc75c86d7,S
2020-02-29 04:26:10,c8d6efcf-d773-4f08-948d-045dc75c86d7,A
2020-02-29 02:17:37,a7c154f7-d295-47e9-af3e-bbcd517d50e4,S
2020-02-29 02:24:34,a7c154f7-d295-47e9-af3e-bbcd517d50e4,A
2020-02-29 02:42:09,a7c154f7-d295-47e9-af3e-bbcd517d50e4,S
2020-02-29 02:59:12,a7c154f7-d295-47e9-af3e-bbcd517d50e4,A
2020-02-29 03:00:05,a7c154f7-d295-47e9-af3e-bbcd517d50e4,S
2020-02-29 03:05:28,a7c154f7-d295-47e9-af3e-bbcd517d50e4,A
2020-02-29 03:06:16,a7c154f7-d295-47e9-af3e-bbcd517d50e4,S
2020-02-29 03:14:59,a7c154f7-d295-47e9-af3e-bbcd517d50e4,A
2020-02-29 03:15:11,a7c154f7-d295-47e9-af3e-bbcd517d50e4,S
2020-02-29 03:16:07,a7c154f7-d295-47e9-af3e-bbcd517d50e4,A
2020-02-29 03:18:23,a7c154f7-d295-47e9-af3e-bbcd517d50e4,S
2020-02-29 03:27:12,a7c154f7-d295-47e9-af3e-bbcd517d50e4,A
2020-02-29 03:29:40,a7c154f7-d295-47e9-af3e-bbcd517d50e4,S
2020-02-29 03:37:41,a7c154f7-d295-47e9-af3e-bbcd517d50e4,A
2020-02-29 03:44:13,a7c154f7-d295-47e9-af3e-bbcd517d50e4,S
2020-02-29 04:07:02,a7c154f7-d295-47e9-af3e-bbcd517d50e4,A
2020-02-29 04:09:55,a7c154f7-d295-47e9-af3e-bbcd517d50e4,S
2020-02-29 04:10:03,a7c154f7-d295-47e9-af3e-bbcd517d50e4,A
2020-02-29 04:12:26,a7c154f7-d295-47e9-af3e-bbcd517d50e4,S
2020-02-29 04:15:46,a7c154f7-d295-47e9-af3e-bbcd517d50e4,A
2020-02-29 04:18:39,a7c154f7-d295-47e9-af3e-bbcd517d50e4,S
2020-02-29 04:20:01,a7c154f7-d295-47e9-af3e-bbcd517d50e4,A
2020-02-29 04:21:01,a7c154f7-d295-47e9-af3e-bbcd517d50e4,S
2020-02-29 04:21:59,a7c154f7-d295-47e9-af3e-bbcd517d50e4,A
2020-02-29 04:23:06,a7c154f7-d295-47e9-af3e-bbcd517d50e4,S
2020-02-29 04:23:45,a7c154f7-d295-47e9-af3e-bbcd517d50e4,A
2020-02-29 01:50:53,176a7bbf-dc1e-4dd7-8cd0-f9918a489a30,S
2020-02-29 01:55:51,176a7bbf-dc1e-4dd7-8cd0-f9918a489a30,A
2020-02-29 01:59:06,176a7bbf-dc1e-4dd7-8cd0-f9918a489a30,S
2020-02-29 02:04:04,176a7bbf-dc1e-4dd7-8cd0-f9918a489a30,A
2020-02-29 02:12:41,176a7bbf-dc1e-4dd7-8cd0-f9918a489a30,S
2020-02-29 02:31:12,176a7bbf-dc1e-4dd7-8cd0-f9918a489a30,A
2020-02-29 02:36:52,176a7bbf-dc1e-4dd7-8cd0-f9918a489a30,S
2020-02-29 02:39:25,176a7bbf-dc1e-4dd7-8cd0-f9918a489a30,A
2020-02-29 02:50:09,176a7bbf-dc1e-4dd7-8cd0-f9918a489a30,S
2020-02-29 02:58:50,176a7bbf-dc1e-4dd7-8cd0-f9918a489a30,A
2020-02-29 03:02:33,176a7bbf-dc1e-4dd7-8cd0-f9918a489a30,S
2020-02-29 03:07:50,176a7bbf-dc1e-4dd7-8cd0-f9918a489a30,A
2020-02-29 03:24:52,176a7bbf-dc1e-4dd7-8cd0-f9918a489a30,S
2020-02-29 03:32:55,176a7bbf-dc1e-4dd7-8cd0-f9918a489a30,A
2020-02-29 03:36:03,176a7bbf-dc1e-4dd7-8cd0-f9918a489a30,S
2020-02-29 03:38:26,176a7bbf-dc1e-4dd7-8cd0-f9918a489a30,A
2020-02-29 03:57:50,176a7bbf-dc1e-4dd7-8cd0-f9918a489a30,S
2020-02-29 04:00:50,176a7bbf-dc1e-4dd7-8cd0-f9918a489a30,A
2020-02-29 04:05:37,176a7bbf-dc1e-4dd7-8cd0-f9918a489a30,S
2020-02-29 04:09:23,176a7bbf-dc1e-4dd7-8cd0-f9918a489a30,A
2020-02-29 04:11:00,176a7bbf-dc1e-4dd7-8cd0-f9918a489a30,S
2020-02-29 04:23:05,176a7bbf-dc1e-4dd7-8cd0-f9918a489a30,A
2020-02-29 01:38:02,c70397aa-68f4-40da-a2ef-9dd37e61bb7d,S
2020-02-29 01:40:18,c70397aa-68f4-40da-a2ef-9dd37e61bb7d,A
2020-02-29 01:41:57,c70397aa-68f4-40da-a2ef-9dd37e61bb7d,S
2020-02-29 01:42:29,c70397aa-68f4-40da-a2ef-9dd37e61bb7d,A
2020-02-29 01:46:32,c70397aa-68f4-40da-a2ef-9dd37e61bb7d,S
2020-02-29 01:49:21,c70397aa-68f4-40da-a2ef-9dd37e61bb7d,A
2020-02-29 01:56:53,c70397aa-68f4-40da-a2ef-9dd37e61bb7d,S
2020-02-29 01:57:27,c70397aa-68f4-40da-a2ef-9dd37e61bb7d,A
2020-02-29 01:57:54,c70397aa-68f4-40da-a2ef-9dd37e61bb7d,S
2020-02-29 02:04:00,c70397aa-68f4-40da-a2ef-9dd37e61bb7d,A
2020-02-29 02:05:25,c70397aa-68f4-40da-a2ef-9dd37e61bb7d,S
2020-02-29 02:18:34,c70397aa-68f4-40da-a2ef-9dd37e61bb7d,A
2020-02-29 02:26:10,c70397aa-68f4-40da-a2ef-9dd37e61bb7d,S
2020-02-29 02:29:17,c70397aa-68f4-40da-a2ef-9dd37e61bb7d,A
2020-02-29 02:44:47,c70397aa-68f4-40da-a2ef-9dd37e61bb7d,S
2020-02-29 02:51:33,c70397aa-68f4-40da-a2ef-9dd37e61bb7d,A
2020-02-29 02:58:32,c70397aa-68f4-40da-a2ef-9dd37e61bb7d,S
2020-02-29 03:00:27,c70397aa-68f4-40da-a2ef-9dd37e61bb7d,A
2020-02-29 03:03:36,c70397aa-68f4-40da-a2ef-9dd37e61bb7d,S
2020-02-29 03:04:05,c70397aa-68f4-40da-a2ef-9dd37e61bb7d,A
2020-02-29 03:07:13,c70397aa-68f4-40da-a2ef-9dd37e61bb7d,S
2020-02-29 03:09:14,c70397aa-68f4-40da-a2ef-9dd37e61bb7d,A
2020-02-29 03:13:30,c70397aa-68f4-40da-a2ef-9dd37e61bb7d,S
2020-02-29 03:14:27,c70397aa-68f4-40da-a2ef-9dd37e61bb7d,A
2020-02-29 03:15:16,c70397aa-68f4-40da-a2ef-9dd37e61bb7d,S
2020-02-29 03:22:43,c70397aa-68f4-40da-a2ef-9dd37e61bb7d,A
2020-02-29 03:24:56,c70397aa-68f4-40da-a2ef-9dd37e61bb7d,S
2020-02-29 03:28:28,c70397aa-68f4-40da-a2ef-9dd37e61bb7d,A
2020-02-29 03:36:46,c70397aa-68f4-40da-a2ef-9dd37e61bb7d,S
2020-02-29 03:44:09,c70397aa-68f4-40da-a2ef-9dd37e61bb7d,A
2020-02-29 03:46:11,c70397aa-68f4-40da-a2ef-9dd37e61bb7d,S
2020-02-29 03:48:56,c70397aa-68f4-40da-a2ef-9dd37e61bb7d,A
2020-02-29 03:50:00,c70397aa-68f4-40da-a2ef-9dd37e61bb7d,S
2020-02-29 03:51:18,c70397aa-68f4-40da-a2ef-9dd37e61bb7d,A
2020-02-29 03:52:51,c70397aa-68f4-40da-a2ef-9dd37e61bb7d,S
2020-02-29 04:00:58,c70397aa-68f4-40da-a2ef-9dd37e61bb7d,A
2020-02-29 04:01:08,c70397aa-68f4-40da-a2ef-9dd37e61bb7d,S
2020-02-29 04:01:20,c70397aa-68f4-40da-a2ef-9dd37e61bb7d,A
2020-02-29 04:05:11,c70397aa-68f4-40da-a2ef-9dd37e61bb7d,S
2020-02-29 04:07:35,c70397aa-68f4-40da-a2ef-9dd37e61bb7d,A
2020-02-29 04:08:19,c70397aa-68f4-40da-a2ef-9dd37e61bb7d,S
2020-02-29 04:09:37,c70397aa-68f4-40da-a2ef-9dd37e61bb7d,A
2020-02-29 04:10:31,c70397aa-68f4-40da-a2ef-9dd37e61bb7d,S
2020-02-29 04:18:53,c70397aa-68f4-40da-a2ef-9dd37e61bb7d,A
2020-02-29 04:20:06,c70397aa-68f4-40da-a2ef-9dd37e61bb7d,S
2020-02-29 02:09:49,0568e2ca-2db9-495f-85f6-1e3fe6757674,A
2020-02-29 02:10:35,0568e2ca-2db9-495f-85f6-1e3fe6757674,S
2020-02-29 02:10:56,0568e2ca-2db9-495f-85f6-1e3fe6757674,A
2020-02-29 02:11:19,0568e2ca-2db9-495f-85f6-1e3fe6757674,S
2020-02-29 02:19:53,0568e2ca-2db9-495f-85f6-1e3fe6757674,A
2020-02-29 02:43:26,0568e2ca-2db9-495f-85f6-1e3fe6757674,S
2020-02-29 03:19:27,0568e2ca-2db9-495f-85f6-1e3fe6757674,A
2020-02-29 03:23:40,0568e2ca-2db9-495f-85f6-1e3fe6757674,S
2020-02-29 03:25:25,0568e2ca-2db9-495f-85f6-1e3fe6757674,A
2020-02-29 03:26:47,0568e2ca-2db9-495f-85f6-1e3fe6757674,S
2020-02-29 03:27:56,0568e2ca-2db9-495f-85f6-1e3fe6757674,A
2020-02-29 03:36:35,0568e2ca-2db9-495f-85f6-1e3fe6757674,S
2020-02-29 03:42:49,0568e2ca-2db9-495f-85f6-1e3fe6757674,A
2020-02-29 04:01:35,0568e2ca-2db9-495f-85f6-1e3fe6757674,S
2020-02-29 04:03:35,0568e2ca-2db9-495f-85f6-1e3fe6757674,A
2020-02-29 04:06:57,0568e2ca-2db9-495f-85f6-1e3fe6757674,S
2020-02-29 04:19:40,0568e2ca-2db9-495f-85f6-1e3fe6757674,A
2020-02-29 01:33:13,2d98332a-d5ba-4b47-8096-cbb1343f2bab,A
2020-02-29 01:36:16,2d98332a-d5ba-4b47-8096-cbb1343f2bab,S
2020-02-29 01:42:47,2d98332a-d5ba-4b47-8096-cbb1343f2bab,A
2020-02-29 01:49:36,2d98332a-d5ba-4b47-8096-cbb1343f2bab,S
2020-02-29 02:01:31,2d98332a-d5ba-4b47-8096-cbb1343f2bab,A
2020-02-29 02:01:49,2d98332a-d5ba-4b47-8096-cbb1343f2bab,S
2020-02-29 02:17:13,2d98332a-d5ba-4b47-8096-cbb1343f2bab,A
2020-02-29 02:20:06,2d98332a-d5ba-4b47-8096-cbb1343f2bab,S
2020-02-29 02:22:06,2d98332a-d5ba-4b47-8096-cbb1343f2bab,A
2020-02-29 02:30:13,2d98332a-d5ba-4b47-8096-cbb1343f2bab,S
2020-02-29 02:31:08,2d98332a-d5ba-4b47-8096-cbb1343f2bab,A
2020-02-29 02:33:21,2d98332a-d5ba-4b47-8096-cbb1343f2bab,S
2020-02-29 02:47:46,2d98332a-d5ba-4b47-8096-cbb1343f2bab,A
2020-02-29 02:53:04,2d98332a-d5ba-4b47-8096-cbb1343f2bab,S
2020-02-29 02:54:37,2d98332a-d5ba-4b47-8096-cbb1343f2bab,A
2020-02-29 02:55:26,2d98332a-d5ba-4b47-8096-cbb1343f2bab,S
2020-02-29 02:57:22,2d98332a-d5ba-4b47-8096-cbb1343f2bab,A
2020-02-29 03:00:40,2d98332a-d5ba-4b47-8096-cbb1343f2bab,S
2020-02-29 03:00:46,2d98332a-d5ba-4b47-8096-cbb1343f2bab,A
2020-02-29 03:13:05,2d98332a-d5ba-4b47-8096-cbb1343f2bab,S
2020-02-29 03:14:26,2d98332a-d5ba-4b47-8096-cbb1343f2bab,A
2020-02-29 03:19:18,2d98332a-d5ba-4b47-8096-cbb1343f2bab,S
2020-02-29 03:22:44,2d98332a-d5ba-4b47-8096-cbb1343f2bab,A
2020-02-29 03:23:58,2d98332a-d5ba-4b47-8096-cbb1343f2bab,S
2020-02-29 03:24:40,2d98332a-d5ba-4b47-8096-cbb1343f2bab,A
2020-02-29 03:37:20,2d98332a-d5ba-4b47-8096-cbb1343f2bab,S
2020-02-29 03:38:48,2d98332a-d5ba-4b47-8096-cbb1343f2bab,A
2020-02-29 03:40:02,2d98332a-d5ba-4b47-8096-cbb1343f2bab,S
2020-02-29 03:42:39,2d98332a-d5ba-4b47-8096-cbb1343f2bab,A
2020-02-29 03:49:12,2d98332a-d5ba-4b47-8096-cbb1343f2bab,S
2020-02-29 03:53:58,2d98332a-d5ba-4b47-8096-cbb1343f2bab,A
2020-02-29 03:55:39,2d98332a-d5ba-4b47-8096-cbb1343f2bab,S
2020-02-29 04:07:13,2d98332a-d5ba-4b47-8096-cbb1343f2bab,A
2020-02-29 04:11:17,2d98332a-d5ba-4b47-8096-cbb1343f2bab,S
2020-02-29 04:18:23,2d98332a-d5ba-4b47-8096-cbb1343f2bab,A
2020-02-29 04:18:25,2d98332a-d5ba-4b47-8096-cbb1343f2bab,S
2020-02-29 04:20:05,2d98332a-d5ba-4b47-8096-cbb1343f2bab,A
2020-02-29 01:51:40,86c6f946-58f7-4208-8b70-5e8a48ab40c7,A
2020-02-29 01:58:29,86c6f946-58f7-4208-8b70-5e8a48ab40c7,S
2020-02-29 01:58:44,86c6f946-58f7-4208-8b70-5e8a48ab40c7,A
2020-02-29 02:08:23,86c6f946-58f7-4208-8b70-5e8a48ab40c7,S
2020-02-29 02:13:32,86c6f946-58f7-4208-8b70-5e8a48ab40c7,A
2020-02-29 02:23:19,86c6f946-58f7-4208-8b70-5e8a48ab40c7,S
2020-02-29 02:27:46,86c6f946-58f7-4208-8b70-5e8a48ab40c7,A
2020-02-29 02:30:06,86c6f946-58f7-4208-8b70-5e8a48ab40c7,S
2020-02-29 02:30:13,86c6f946-58f7-4208-8b70-5e8a48ab40c7,A
2020-02-29 02:37:29,86c6f946-58f7-4208-8b70-5e8a48ab40c7,S
2020-02-29 02:39:28,86c6f946-58f7-4208-8b70-5e8a48ab40c7,A
2020-02-29 02:41:18,86c6f946-58f7-4208-8b70-5e8a48ab40c7,S
2020-02-29 02:49:08,86c6f946-58f7-4208-8b70-5e8a48ab40c7,A
2020-02-29 02:49:47,86c6f946-58f7-4208-8b70-5e8a48ab40c7,S
2020-02-29 02:51:54,86c6f946-58f7-4208-8b70-5e8a48ab40c7,A
2020-02-29 03:03:59,86c6f946-58f7-4208-8b70-5e8a48ab40c7,S
2020-02-29 03:18:47,86c6f946-58f7-4208-8b70-5e8a48ab40c7,A
2020-02-29 03:18:55,86c6f946-58f7-4208-8b70-5e8a48ab40c7,S
2020-02-29 03:32:30,86c6f946-58f7-4208-8b70-5e8a48ab40c7,A
2020-02-29 03:37:23,86c6f946-58f7-4208-8b70-5e8a48ab40c7,S
2020-02-29 03:37:56,86c6f946-58f7-4208-8b70-5e8a48ab40c7,A
2020-02-29 03:41:47,86c6f946-58f7-4208-8b70-5e8a48ab40c7,S
2020-02-29 03:42:29,86c6f946-58f7-4208-8b70-5e8a48ab40c7,A
2020-02-29 03:51:08,86c6f946-58f7-4208-8b70-5e8a48ab40c7,S
2020-02-29 03:52:11,86c6f946-58f7-4208-8b70-5e8a48ab40c7,A
2020-02-29 03:54:27,86c6f946-58f7-4208-8b70-5e8a48ab40c7,S
2020-02-29 03:56:36,86c6f946-58f7-4208-8b70-5e8a48ab40c7,A
2020-02-29 03:58:58,86c6f946-58f7-4208-8b70-5e8a48ab40c7,S
2020-02-29 04:02:50,86c6f946-58f7-4208-8b70-5e8a48ab40c7,A
2020-02-29 04:04:01,86c6f946-58f7-4208-8b70-5e8a48ab40c7,S
2020-02-29 04:04:52,86c6f946-58f7-4208-8b70-5e8a48ab40c7,A
2020-02-29 04:07:01,86c6f946-58f7-4208-8b70-5e8a48ab40c7,S
2020-02-29 04:07:24,86c6f946-58f7-4208-8b70-5e8a48ab40c7,A
2020-02-29 04:07:40,86c6f946-58f7-4208-8b70-5e8a48ab40c7,S
2020-02-29 04:12:11,86c6f946-58f7-4208-8b70-5e8a48ab40c7,A
2020-02-29 04:13:02,86c6f946-58f7-4208-8b70-5e8a48ab40c7,S
2020-02-29 04:22:34,86c6f946-58f7-4208-8b70-5e8a48ab40c7,A
2020-02-29 04:28:37,86c6f946-58f7-4208-8b70-5e8a48ab40c7,S
2020-02-29 02:33:01,3a4bae81-a38f-4af2-a6be-8a36b0aec8cd,S
2020-02-29 02:38:06,3a4bae81-a38f-4af2-a6be-8a36b0aec8cd,A
2020-02-29 02:46:12,3a4bae81-a38f-4af2-a6be-8a36b0aec8cd,S
2020-02-29 02:54:55,3a4bae81-a38f-4af2-a6be-8a36b0aec8cd,A
2020-02-29 03:05:48,3a4bae81-a38f-4af2-a6be-8a36b0aec8cd,S
2020-02-29 03:16:59,3a4bae81-a38f-4af2-a6be-8a36b0aec8cd,A
2020-02-29 03:19:01,3a4bae81-a38f-4af2-a6be-8a36b0aec8cd,S
2020-02-29 03:26:33,3a4bae81-a38f-4af2-a6be-8a36b0aec8cd,A
2020-02-29 03:29:17,3a4bae81-a38f-4af2-a6be-8a36b0aec8cd,S
2020-02-29 03:36:56,3a4bae81-a38f-4af2-a6be-8a36b0aec8cd,A
2020-02-29 03:40:30,3a4bae81-a38f-4af2-a6be-8a36b0aec8cd,S
2020-02-29 03:43:40,3a4bae81-a38f-4af2-a6be-8a36b0aec8cd,A
2020-02-29 03:45:42,3a4bae81-a38f-4af2-a6be-8a36b0aec8cd,S
2020-02-29 03:50:38,3a4bae81-a38f-4af2-a6be-8a36b0aec8cd,A
2020-02-29 03:53:16,3a4bae81-a38f-4af2-a6be-8a36b0aec8cd,S
2020-02-29 03:54:12,3a4bae81-a38f-4af2-a6be-8a36b0aec8cd,A
2020-02-29 03:54:52,3a4bae81-a38f-4af2-a6be-8a36b0aec8cd,S
2020-02-29 03:55:03,3a4bae81-a38f-4af2-a6be-8a36b0aec8cd,A
2020-02-29 03:59:20,3a4bae81-a38f-4af2-a6be-8a36b0aec8cd,S
2020-02-29 04:06:37,3a4bae81-a38f-4af2-a6be-8a36b0aec8cd,A
2020-02-29 04:21:55,3a4bae81-a38f-4af2-a6be-8a36b0aec8cd,S
2020-02-29 04:23:20,3a4bae81-a38f-4af2-a6be-8a36b0aec8cd,A
2020-02-29 04:26:44,3a4bae81-a38f-4af2-a6be-8a36b0aec8cd,S
2020-02-29 04:27:57,3a4bae81-a38f-4af2-a6be-8a36b0aec8cd,A
2020-02-29 02:02:59,7b08dd86-2a6f-4b34-81bb-612a3815f8ef,A
2020-02-29 02:08:42,7b08dd86-2a6f-4b34-81bb-612a3815f8ef,S
2020-02-29 02:10:29,7b08dd86-2a6f-4b34-81bb-612a3815f8ef,A
2020-02-29 02:12:40,7b08dd86-2a6f-4b34-81bb-612a3815f8ef,S
2020-02-29 02:15:27,7b08dd86-2a6f-4b34-81bb-612a3815f8ef,A
2020-02-29 01:39:33,74d95600-b2b2-4b80-b615-a6b5eabcc6f6,A
2020-02-29 01:44:23,74d95600-b2b2-4b80-b615-a6b5eabcc6f6,S
2020-02-29 01:50:11,74d95600-b2b2-4b80-b615-a6b5eabcc6f6,A
2020-02-29 01:50:47,74d95600-b2b2-4b80-b615-a6b5eabcc6f6,S
2020-02-29 02:09:59,74d95600-b2b2-4b80-b615-a6b5eabcc6f6,A
2020-02-29 02:10:13,74d95600-b2b2-4b80-b615-a6b5eabcc6f6,S
2020-02-29 02:27:49,74d95600-b2b2-4b80-b615-a6b5eabcc6f6,A
2020-02-29 02:27:56,74d95600-b2b2-4b80-b615-a6b5eabcc6f6,S
2020-02-29 02:35:39,74d95600-b2b2-4b80-b615-a6b5eabcc6f6,A
2020-02-29 02:38:23,74d95600-b2b2-4b80-b615-a6b5eabcc6f6,S
2020-02-29 02:43:34,74d95600-b2b2-4b80-b615-a6b5eabcc6f6,A
2020-02-29 02:46:04,74d95600-b2b2-4b80-b615-a6b5eabcc6f6,S
2020-02-29 02:46:41,74d95600-b2b2-4b80-b615-a6b5eabcc6f6,A
2020-02-29 02:46:55,74d95600-b2b2-4b80-b615-a6b5eabcc6f6,S
2020-02-29 02:49:31,74d95600-b2b2-4b80-b615-a6b5eabcc6f6,A
2020-02-29 02:53:02,74d95600-b2b2-4b80-b615-a6b5eabcc6f6,S
2020-02-29 03:04:32,74d95600-b2b2-4b80-b615-a6b5eabcc6f6,A
2020-02-29 03:14:29,74d95600-b2b2-4b80-b615-a6b5eabcc6f6,S
2020-02-29 03:19:56,74d95600-b2b2-4b80-b615-a6b5eabcc6f6,A
2020-02-29 03:20:39,74d95600-b2b2-4b80-b615-a6b5eabcc6f6,S
2020-02-29 03:21:36,74d95600-b2b2-4b80-b615-a6b5eabcc6f6,A
2020-02-29 03:23:33,74d95600-b2b2-4b80-b615-a6b5eabcc6f6,S
2020-02-29 03:24:54,74d95600-b2b2-4b80-b615-a6b5eabcc6f6,A
2020-02-29 03:32:13,74d95600-b2b2-4b80-b615-a6b5eabcc6f6,S
2020-02-29 03:34:07,74d95600-b2b2-4b80-b615-a6b5eabcc6f6,A
2020-02-29 03:35:50,74d95600-b2b2-4b80-b615-a6b5eabcc6f6,S
2020-02-29 03:51:14,74d95600-b2b2-4b80-b615-a6b5eabcc6f6,A
2020-02-29 03:57:08,74d95600-b2b2-4b80-b615-a6b5eabcc6f6,S
2020-02-29 04:01:41,74d95600-b2b2-4b80-b615-a6b5eabcc6f6,A
2020-02-29 04:02:44,74d95600-b2b2-4b80-b615-a6b5eabcc6f6,S
2020-02-29 04:05:04,74d95600-b2b2-4b80-b615-a6b5eabcc6f6,A
2020-02-29 04:08:44,74d95600-b2b2-4b80-b615-a6b5eabcc6f6,S
2020-02-29 04:10:45,74d95600-b2b2-4b80-b615-a6b5eabcc6f6,A
2020-02-29 04:10:53,74d95600-b2b2-4b80-b615-a6b5eabcc6f6,S
2020-02-29 04:19:59,74d95600-b2b2-4b80-b615-a6b5eabcc6f6,A
2020-02-29 04:26:18,74d95600-b2b2-4b80-b615-a6b5eabcc6f6,S
2020-02-29 04:27:24,74d95600-b2b2-4b80-b615-a6b5eabcc6f6,A
2020-02-29 04:28:17,74d95600-b2b2-4b80-b615-a6b5eabcc6f6,S
2020-02-29 01:30:58,b9be6e78-87a6-474b-8f2b-cb952a9843e8,A
2020-02-29 01:38:44,b9be6e78-87a6-474b-8f2b-cb952a9843e8,S
2020-02-29 01:43:51,b9be6e78-87a6-474b-8f2b-cb952a9843e8,A
2020-02-29 01:59:58,b9be6e78-87a6-474b-8f2b-cb952a9843e8,S
2020-02-29 02:01:10,b9be6e78-87a6-474b-8f2b-cb952a9843e8,A
2020-02-29 02:05:59,b9be6e78-87a6-474b-8f2b-cb952a9843e8,S
2020-02-29 02:07:05,b9be6e78-87a6-474b-8f2b-cb952a9843e8,A
2020-02-29 02:09:53,b9be6e78-87a6-474b-8f2b-cb952a9843e8,S
2020-02-29 02:15:04,b9be6e78-87a6-474b-8f2b-cb952a9843e8,A
2020-02-29 02:17:14,b9be6e78-87a6-474b-8f2b-cb952a9843e8,S
2020-02-29 02:20:43,b9be6e78-87a6-474b-8f2b-cb952a9843e8,A
2020-02-29 02:26:20,b9be6e78-87a6-474b-8f2b-cb952a9843e8,S
2020-02-29 02:36:49,b9be6e78-87a6-474b-8f2b-cb952a9843e8,A
2020-02-29 02:42:30,b9be6e78-87a6-474b-8f2b-cb952a9843e8,S
2020-02-29 02:44:27,b9be6e78-87a6-474b-8f2b-cb952a9843e8,A
2020-02-29 02:46:29,b9be6e78-87a6-474b-8f2b-cb952a9843e8,S
2020-02-29 02:54:46,b9be6e78-87a6-474b-8f2b-cb952a9843e8,A
2020-02-29 02:56:56,b9be6e78-87a6-474b-8f2b-cb952a9843e8,S
2020-02-29 03:01:50,b9be6e78-87a6-474b-8f2b-cb952a9843e8,A
2020-02-29 03:04:49,b9be6e78-87a6-474b-8f2b-cb952a9843e8,S
2020-02-29 03:05:57,b9be6e78-87a6-474b-8f2b-cb952a9843e8,A
2020-02-29 03:10:53,b9be6e78-87a6-474b-8f2b-cb952a9843e8,S
2020-02-29 03:13:44,b9be6e78-87a6-474b-8f2b-cb952a9843e8,A
2020-02-29 03:17:34,b9be6e78-87a6-474b-8f2b-cb952a9843e8,S
2020-02-29 03:19:54,b9be6e78-87a6-474b-8f2b-cb952a9843e8,A
2020-02-29 03:23:40,b9be6e78-87a6-474b-8f2b-cb952a9843e8,S
2020-02-29 03:29:05,b9be6e78-87a6-474b-8f2b-cb952a9843e8,A
2020-02-29 03:30:12,b9be6e78-87a6-474b-8f2b-cb952a9843e8,S
2020-02-29 03:35:57,b9be6e78-87a6-474b-8f2b-cb952a9843e8,A
2020-02-29 03:36:54,b9be6e78-87a6-474b-8f2b-cb952a9843e8,S
2020-02-29 03:38:24,b9be6e78-87a6-474b-8f2b-cb952a9843e8,A
2020-02-29 03:38:56,b9be6e78-87a6-474b-8f2b-cb952a9843e8,S
2020-02-29 03:42:15,b9be6e78-87a6-474b-8f2b-cb952a9843e8,A
2020-02-29 03:43:44,b9be6e78-87a6-474b-8f2b-cb952a9843e8,S
2020-02-29 03:56:57,b9be6e78-87a6-474b-8f2b-cb952a9843e8,A
2020-02-29 04:06:26,b9be6e78-87a6-474b-8f2b-cb952a9843e8,S
2020-02-29 04:07:57,b9be6e78-87a6-474b-8f2b-cb952a9843e8,A
2020-02-29 04:08:20,b9be6e78-87a6-474b-8f2b-cb952a9843e8,S
2020-02-29 04:08:56,b9be6e78-87a6-474b-8f2b-cb952a9843e8,A
2020-02-29 04:18:33,b9be6e78-87a6-474b-8f2b-cb952a9843e8,S
2020-02-29 01:31:27,22301e2a-7f4d-458c-92d2-c11a32ca8f80,A
2020-02-29 01:33:16,22301e2a-7f4d-458c-92d2-c11a32ca8f80,S
2020-02-29 01:43:49,22301e2a-7f4d-458c-92d2-c11a32ca8f80,A
2020-02-29 01:44:02,22301e2a-7f4d-458c-92d2-c11a32ca8f80,S
2020-02-29 01:45:48,22301e2a-7f4d-458c-92d2-c11a32ca8f80,A
2020-02-29 01:46:20,22301e2a-7f4d-458c-92d2-c11a32ca8f80,S
2020-02-29 01:48:10,22301e2a-7f4d-458c-92d2-c11a32ca8f80,A
2020-02-29 01:53:07,22301e2a-7f4d-458c-92d2-c11a32ca8f80,S
2020-02-29 01:54:26,22301e2a-7f4d-458c-92d2-c11a32ca8f80,A
2020-02-29 01:58:33,22301e2a-7f4d-458c-92d2-c11a32ca8f80,S
2020-02-29 02:08:57,22301e2a-7f4d-458c-92d2-c11a32ca8f80,A
2020-02-29 02:10:31,22301e2a-7f4d-458c-92d2-c11a32ca8f80,S
2020-02-29 02:18:01,22301e2a-7f4d-458c-92d2-c11a32ca8f80,A
2020-02-29 02:18:16,22301e2a-7f4d-458c-92d2-c11a32ca8f80,S
2020-02-29 02:19:41,22301e2a-7f4d-458c-92d2-c11a32ca8f80,A
2020-02-29 02:36:58,22301e2a-7f4d-458c-92d2-c11a32ca8f80,S
2020-02-29 02:42:44,22301e2a-7f4d-458c-92d2-c11a32ca8f80,A
2020-02-29 02:46:19,22301e2a-7f4d-458c-92d2-c11a32ca8f80,S
2020-02-29 02:49:31,22301e2a-7f4d-458c-92d2-c11a32ca8f80,A
2020-02-29 02:49:47,22301e2a-7f4d-458c-92d2-c11a32ca8f80,S
2020-02-29 03:08:22,22301e2a-7f4d-458c-92d2-c11a32ca8f80,A
2020-02-29 03:08:48,22301e2a-7f4d-458c-92d2-c11a32ca8f80,S
2020-02-29 03:11:39,22301e2a-7f4d-458c-92d2-c11a32ca8f80,A
2020-02-29 03:25:12,22301e2a-7f4d-458c-92d2-c11a32ca8f80,S
2020-02-29 03:28:30,22301e2a-7f4d-458c-92d2-c11a32ca8f80,A
2020-02-29 03:30:57,22301e2a-7f4d-458c-92d2-c11a32ca8f80,S
2020-02-29 03:31:34,22301e2a-7f4d-458c-92d2-c11a32ca8f80,A
2020-02-29 03:36:48,22301e2a-7f4d-458c-92d2-c11a32ca8f80,S
2020-02-29 03:41:28,22301e2a-7f4d-458c-92d2-c11a32ca8f80,A
2020-02-29 03:45:25,22301e2a-7f4d-458c-92d2-c11a32ca8f80,S
2020-02-29 03:47:17,22301e2a-7f4d-458c-92d2-c11a32ca8f80,A
2020-02-29 03:48:15,22301e2a-7f4d-458c-92d2-c11a32ca8f80,S
2020-02-29 03:54:53,22301e2a-7f4d-458c-92d2-c11a32ca8f80,A
2020-02-29 03:55:45,22301e2a-7f4d-458c-92d2-c11a32ca8f80,S
2020-02-29 04:10:26,22301e2a-7f4d-458c-92d2-c11a32ca8f80,A
2020-02-29 04:12:39,22301e2a-7f4d-458c-92d2-c11a32ca8f80,S
2020-02-29 04:15:59,22301e2a-7f4d-458c-92d2-c11a32ca8f80,A
2020-02-29 04:17:22,22301e2a-7f4d-458c-92d2-c11a32ca8f80,S
2020-02-29 04:24:17,22301e2a-7f4d-458c-92d2-c11a32ca8f80,A
2020-02-29 04:27:01,22301e2a-7f4d-458c-92d2-c11a32ca8f80,S
2020-02-29 01:56:38,9f241995-90d8-4360-8858-54f841140fa5,A
2020-02-29 01:58:43,9f241995-90d8-4360-8858-54f841140fa5,S
2020-02-29 01:59:41,9f241995-90d8-4360-8858-54f841140fa5,A
2020-02-29 01:59:57,9f241995-90d8-4360-8858-54f841140fa5,S
2020-02-29 02:09:03,9f241995-90d8-4360-8858-54f841140fa5,A
2020-02-29 02:21:59,9f241995-90d8-4360-8858-54f841140fa5,S
2020-02-29 02:26:32,9f241995-90d8-4360-8858-54f841140fa5,A
2020-02-29 02:27:58,9f241995-90d8-4360-8858-54f841140fa5,S
2020-02-29 02:32:09,9f241995-90d8-4360-8858-54f841140fa5,A
2020-02-29 02:35:15,9f241995-90d8-4360-8858-54f841140fa5,S
2020-02-29 02:41:22,9f241995-90d8-4360-8858-54f841140fa5,A
2020-02-29 02:58:09,9f241995-90d8-4360-8858-54f841140fa5,S
2020-02-29 03:08:42,9f241995-90d8-4360-8858-54f841140fa5,A
2020-02-29 03:09:49,9f241995-90d8-4360-8858-54f841140fa5,S
2020-02-29 03:10:11,9f241995-90d8-4360-8858-54f841140fa5,A
2020-02-29 03:22:10,9f241995-90d8-4360-8858-54f841140fa5,S
2020-02-29 03:22:43,9f241995-90d8-4360-8858-54f841140fa5,A
2020-02-29 03:24:32,9f241995-90d8-4360-8858-54f841140fa5,S
2020-02-29 03:27:45,9f241995-90d8-4360-8858-54f841140fa5,A
2020-02-29 03:31:31,9f241995-90d8-4360-8858-54f841140fa5,S
2020-02-29 03:36:11,9f241995-90d8-4360-8858-54f841140fa5,A
2020-02-29 03:37:36,9f241995-90d8-4360-8858-54f841140fa5,S
2020-02-29 03:39:46,9f241995-90d8-4360-8858-54f841140fa5,A
2020-02-29 03:46:48,9f241995-90d8-4360-8858-54f841140fa5,S
2020-02-29 03:52:54,9f241995-90d8-4360-8858-54f841140fa5,A
2020-02-29 03:56:49,9f241995-90d8-4360-8858-54f841140fa5,S
2020-02-29 04:00:11,9f241995-90d8-4360-8858-54f841140fa5,A
2020-02-29 04:01:45,9f241995-90d8-4360-8858-54f841140fa5,S
2020-02-29 04:01:56,9f241995-90d8-4360-8858-54f841140fa5,A
2020-02-29 04:04:16,9f241995-90d8-4360-8858-54f841140fa5,S
2020-02-29 04:08:33,9f241995-90d8-4360-8858-54f841140fa5,A
2020-02-29 04:11:27,9f241995-90d8-4360-8858-54f841140fa5,S
2020-02-29 04:12:22,9f241995-90d8-4360-8858-54f841140fa5,A
2020-02-29 04:22:46,9f241995-90d8-4360-8858-54f841140fa5,S
2020-02-29 04:22:49,9f241995-90d8-4360-8858-54f841140fa5,A
2020-02-29 04:23:21,9f241995-90d8-4360-8858-54f841140fa5,S
2020-02-29 04:23:50,9f241995-90d8-4360-8858-54f841140fa5,A
2020-02-29 04:24:03,9f241995-90d8-4360-8858-54f841140fa5,S
2020-02-29 04:27:58,9f241995-90d8-4360-8858-54f841140fa5,A
2020-02-29 02:15:47,639fffcb-348d-4fed-9937-3f1e91c37011,S
2020-02-29 02:26:20,639fffcb-348d-4fed-9937-3f1e91c37011,A
2020-02-29 02:37:56,639fffcb-348d-4fed-9937-3f1e91c37011,S
2020-02-29 02:38:09,639fffcb-348d-4fed-9937-3f1e91c37011,A
2020-02-29 02:41:56,639fffcb-348d-4fed-9937-3f1e91c37011,S
2020-02-29 02:46:09,639fffcb-348d-4fed-9937-3f1e91c37011,A
2020-02-29 02:49:58,639fffcb-348d-4fed-9937-3f1e91c37011,S
2020-02-29 02:51:12,639fffcb-348d-4fed-9937-3f1e91c37011,A
2020-02-29 03:01:39,639fffcb-348d-4fed-9937-3f1e91c37011,S
2020-02-29 03:04:26,639fffcb-348d-4fed-9937-3f1e91c37011,A
2020-02-29 03:05:33,639fffcb-348d-4fed-9937-3f1e91c37011,S
2020-02-29 03:08:42,639fffcb-348d-4fed-9937-3f1e91c37011,A
2020-02-29 03:12:24,639fffcb-348d-4fed-9937-3f1e91c37011,S
2020-02-29 03:23:24,639fffcb-348d-4fed-9937-3f1e91c37011,A
2020-02-29 03:26:29,639fffcb-348d-4fed-9937-3f1e91c37011,S
2020-02-29 03:26:57,639fffcb-348d-4fed-9937-3f1e91c37011,A
2020-02-29 03:29:11,639fffcb-348d-4fed-9937-3f1e91c37011,S
2020-02-29 03:31:10,639fffcb-348d-4fed-9937-3f1e91c37011,A
2020-02-29 03:35:33,639fffcb-348d-4fed-9937-3f1e91c37011,S
2020-02-29 03:43:33,639fffcb-348d-4fed-9937-3f1e91c37011,A
2020-02-29 03:46:42,639fffcb-348d-4fed-9937-3f1e91c37011,S
2020-02-29 03:49:35,639fffcb-348d-4fed-9937-3f1e91c37011,A
2020-02-29 03:52:07,639fffcb-348d-4fed-9937-3f1e91c37011,S
2020-02-29 03:56:51,639fffcb-348d-4fed-9937-3f1e91c37011,A
2020-02-29 03:59:08,639fffcb-348d-4fed-9937-3f1e91c37011,S
2020-02-29 04:06:08,639fffcb-348d-4fed-9937-3f1e91c37011,A
2020-02-29 04:13:53,639fffcb-348d-4fed-9937-3f1e91c37011,S
2020-02-29 04:19:43,639fffcb-348d-4fed-9937-3f1e91c37011,A
2020-02-29 01:37:17,b056ac0a-0e6e-4148-be80-865509656c8b,A
2020-02-29 01:40:35,b056ac0a-0e6e-4148-be80-865509656c8b,S
2020-02-29 01:54:46,b056ac0a-0e6e-4148-be80-865509656c8b,A
2020-02-29 02:00:27,b056ac0a-0e6e-4148-be80-865509656c8b,S
2020-02-29 02:18:47,b056ac0a-0e6e-4148-be80-865509656c8b,A
2020-02-29 02:19:42,b056ac0a-0e6e-4148-be80-865509656c8b,S
2020-02-29 02:27:35,b056ac0a-0e6e-4148-be80-865509656c8b,A
2020-02-29 02:41:08,b056ac0a-0e6e-4148-be80-865509656c8b,S
2020-02-29 02:41:58,b056ac0a-0e6e-4148-be80-865509656c8b,A
2020-02-29 02:44:37,b056ac0a-0e6e-4148-be80-865509656c8b,S
2020-02-29 02:58:16,b056ac0a-0e6e-4148-be80-865509656c8b,A
2020-02-29 03:01:19,b056ac0a-0e6e-4148-be80-865509656c8b,S
2020-02-29 03:08:58,b056ac0a-0e6e-4148-be80-865509656c8b,A
2020-02-29 03:10:53,b056ac0a-0e6e-4148-be80-865509656c8b,S
2020-02-29 03:22:11,b056ac0a-0e6e-4148-be80-865509656c8b,A
2020-02-29 03:24:01,b056ac0a-0e6e-4148-be80-865509656c8b,S
2020-02-29 03:24:42,b056ac0a-0e6e-4148-be80-865509656c8b,A
2020-02-29 03:34:13,b056ac0a-0e6e-4148-be80-865509656c8b,S
2020-02-29 03:37:29,b056ac0a-0e6e-4148-be80-865509656c8b,A
2020-02-29 03:38:04,b056ac0a-0e6e-4148-be80-865509656c8b,S
2020-02-29 03:38:35,b056ac0a-0e6e-4148-be80-865509656c8b,A
2020-02-29 03:43:40,b056ac0a-0e6e-4148-be80-865509656c8b,S
2020-02-29 03:44:05,b056ac0a-0e6e-4148-be80-865509656c8b,A
2020-02-29 03:44:28,b056ac0a-0e6e-4148-be80-865509656c8b,S
2020-02-29 03:45:12,b056ac0a-0e6e-4148-be80-865509656c8b,A
2020-02-29 03:47:04,b056ac0a-0e6e-4148-be80-865509656c8b,S
2020-02-29 03:47:56,b056ac0a-0e6e-4148-be80-865509656c8b,A
2020-02-29 03:58:30,b056ac0a-0e6e-4148-be80-865509656c8b,S
2020-02-29 03:59:42,b056ac0a-0e6e-4148-be80-865509656c8b,A
2020-02-29 04:06:34,b056ac0a-0e6e-4148-be80-865509656c8b,S
2020-02-29 04:15:14,b056ac0a-0e6e-4148-be80-865509656c8b,A
2020-02-29 04:18:22,b056ac0a-0e6e-4148-be80-865509656c8b,S
2020-02-29 04:21:58,b056ac0a-0e6e-4148-be80-865509656c8b,A
2020-02-29 04:22:13,b056ac0a-0e6e-4148-be80-865509656c8b,S
2020-02-29 04:29:19,b056ac0a-0e6e-4148-be80-865509656c8b,A
2020-02-29 04:29:27,b056ac0a-0e6e-4148-be80-865509656c8b,S
2020-02-29 01:42:31,401fd7b6-92d8-4ee7-ab62-586b02535639,A
2020-02-29 01:42:34,401fd7b6-92d8-4ee7-ab62-586b02535639,S
2020-02-29 01:44:52,401fd7b6-92d8-4ee7-ab62-586b02535639,A
2020-02-29 01:47:18,401fd7b6-92d8-4ee7-ab62-586b02535639,S
2020-02-29 01:47:39,401fd7b6-92d8-4ee7-ab62-586b02535639,A
2020-02-29 01:53:16,401fd7b6-92d8-4ee7-ab62-586b02535639,S
2020-02-29 01:57:02,401fd7b6-92d8-4ee7-ab62-586b02535639,A
2020-02-29 02:00:58,401fd7b6-92d8-4ee7-ab62-586b02535639,S
2020-02-29 02:14:07,401fd7b6-92d8-4ee7-ab62-586b02535639,A
2020-02-29 02:14:30,401fd7b6-92d8-4ee7-ab62-586b02535639,S
2020-02-29 02:17:54,401fd7b6-92d8-4ee7-ab62-586b02535639,A
2020-02-29 02:18:07,401fd7b6-92d8-4ee7-ab62-586b02535639,S
2020-02-29 02:23:22,401fd7b6-92d8-4ee7-ab62-586b02535639,A
2020-02-29 02:34:30,401fd7b6-92d8-4ee7-ab62-586b02535639,S
2020-02-29 02:34:54,401fd7b6-92d8-4ee7-ab62-586b02535639,A
2020-02-29 02:38:16,401fd7b6-92d8-4ee7-ab62-586b02535639,S
2020-02-29 02:40:07,401fd7b6-92d8-4ee7-ab62-586b02535639,A
2020-02-29 02:49:35,401fd7b6-92d8-4ee7-ab62-586b02535639,S
2020-02-29 03:03:42,401fd7b6-92d8-4ee7-ab62-586b02535639,A
2020-02-29 03:05:18,401fd7b6-92d8-4ee7-ab62-586b02535639,S
2020-02-29 03:06:52,401fd7b6-92d8-4ee7-ab62-586b02535639,A
2020-02-29 03:08:45,401fd7b6-92d8-4ee7-ab62-586b02535639,S
2020-02-29 03:15:13,401fd7b6-92d8-4ee7-ab62-586b02535639,A
2020-02-29 03:20:07,401fd7b6-92d8-4ee7-ab62-586b02535639,S
2020-02-29 03:27:38,401fd7b6-92d8-4ee7-ab62-586b02535639,A
2020-02-29 03:27:41,401fd7b6-92d8-4ee7-ab62-586b02535639,S
2020-02-29 03:28:00,401fd7b6-92d8-4ee7-ab62-586b02535639,A
2020-02-29 03:30:21,401fd7b6-92d8-4ee7-ab62-586b02535639,S
2020-02-29 03:33:32,401fd7b6-92d8-4ee7-ab62-586b02535639,A
2020-02-29 03:34:18,401fd7b6-92d8-4ee7-ab62-586b02535639,S
2020-02-29 03:45:19,401fd7b6-92d8-4ee7-ab62-586b02535639,A
2020-02-29 03:46:07,401fd7b6-92d8-4ee7-ab62-586b02535639,S
2020-02-29 03:46:32,401fd7b6-92d8-4ee7-ab62-586b02535639,A
2020-02-29 03:48:46,401fd7b6-92d8-4ee7-ab62-586b02535639,S
2020-02-29 03:50:59,401fd7b6-92d8-4ee7-ab62-586b02535639,A
2020-02-29 03:51:18,401fd7b6-92d8-4ee7-ab62-586b02535639,S
2020-02-29 04:00:43,401fd7b6-92d8-4ee7-ab62-586b02535639,A
2020-02-29 04:05:27,401fd7b6-92d8-4ee7-ab62-586b02535639,S
2020-02-29 04:07:11,401fd7b6-92d8-4ee7-ab62-586b02535639,A
2020-02-29 04:08:21,401fd7b6-92d8-4ee7-ab62-586b02535639,S
2020-02-29 04:09:37,401fd7b6-92d8-4ee7-ab62-586b02535639,A
2020-02-29 04:11:56,401fd7b6-92d8-4ee7-ab62-586b02535639,S
2020-02-29 04:12:00,401fd7b6-92d8-4ee7-ab62-586b02535639,A
2020-02-29 04:22:17,401fd7b6-92d8-4ee7-ab62-586b02535639,S
2020-02-29 04:25:43,401fd7b6-92d8-4ee7-ab62-586b02535639,A
2020-02-29 04:28:55,401fd7b6-92d8-4ee7-ab62-586b02535639,S
2020-02-29 02:05:26,b4afbe08-cde1-40b3-86f1-5a44c56c8ff7,S
2020-02-29 02:06:04,b4afbe08-cde1-40b3-86f1-5a44c56c8ff7,A
2020-02-29 02:16:34,b4afbe08-cde1-40b3-86f1-5a44c56c8ff7,S
2020-02-29 02:16:48,b4afbe08-cde1-40b3-86f1-5a44c56c8ff7,A
2020-02-29 02:17:25,b4afbe08-cde1-40b3-86f1-5a44c56c8ff7,S
2020-02-29 02:24:05,b4afbe08-cde1-40b3-86f1-5a44c56c8ff7,A
2020-02-29 02:29:00,b4afbe08-cde1-40b3-86f1-5a44c56c8ff7,S
2020-02-29 02:36:52,b4afbe08-cde1-40b3-86f1-5a44c56c8ff7,A
2020-02-29 02:41:40,b4afbe08-cde1-40b3-86f1-5a44c56c8ff7,S
2020-02-29 03:12:52,b4afbe08-cde1-40b3-86f1-5a44c56c8ff7,A
2020-02-29 03:17:55,b4afbe08-cde1-40b3-86f1-5a44c56c8ff7,S
2020-02-29 03:18:41,b4afbe08-cde1-40b3-86f1-5a44c56c8ff7,A
2020-02-29 03:39:07,b4afbe08-cde1-40b3-86f1-5a44c56c8ff7,S
2020-02-29 03:41:35,b4afbe08-cde1-40b3-86f1-5a44c56c8ff7,A
2020-02-29 03:46:48,b4afbe08-cde1-40b3-86f1-5a44c56c8ff7,S
2020-02-29 03:55:27,b4afbe08-cde1-40b3-86f1-5a44c56c8ff7,A
2020-02-29 04:06:59,b4afbe08-cde1-40b3-86f1-5a44c56c8ff7,S
2020-02-29 04:08:21,b4afbe08-cde1-40b3-86f1-5a44c56c8ff7,A
2020-02-29 04:10:10,b4afbe08-cde1-40b3-86f1-5a44c56c8ff7,S
2020-02-29 04:16:06,b4afbe08-cde1-40b3-86f1-5a44c56c8ff7,A
2020-02-29 01:53:07,f2369fda-c4f0-4799-9691-07f87aef2ed7,S
2020-02-29 02:02:36,f2369fda-c4f0-4799-9691-07f87aef2ed7,A
2020-02-29 02:05:00,f2369fda-c4f0-4799-9691-07f87aef2ed7,S
2020-02-29 02:10:14,f2369fda-c4f0-4799-9691-07f87aef2ed7,A
2020-02-29 02:14:42,f2369fda-c4f0-4799-9691-07f87aef2ed7,S
2020-02-29 02:17:52,f2369fda-c4f0-4799-9691-07f87aef2ed7,A
2020-02-29 02:18:28,f2369fda-c4f0-4799-9691-07f87aef2ed7,S
2020-02-29 02:33:12,f2369fda-c4f0-4799-9691-07f87aef2ed7,A
2020-02-29 02:42:15,f2369fda-c4f0-4799-9691-07f87aef2ed7,S
2020-02-29 02:44:23,f2369fda-c4f0-4799-9691-07f87aef2ed7,A
2020-02-29 02:47:21,f2369fda-c4f0-4799-9691-07f87aef2ed7,S
2020-02-29 02:49:02,f2369fda-c4f0-4799-9691-07f87aef2ed7,A
2020-02-29 02:52:17,f2369fda-c4f0-4799-9691-07f87aef2ed7,S
2020-02-29 03:07:36,f2369fda-c4f0-4799-9691-07f87aef2ed7,A
2020-02-29 03:09:05,f2369fda-c4f0-4799-9691-07f87aef2ed7,S
2020-02-29 03:22:33,f2369fda-c4f0-4799-9691-07f87aef2ed7,A
2020-02-29 03:26:46,f2369fda-c4f0-4799-9691-07f87aef2ed7,S
2020-02-29 03:27:49,f2369fda-c4f0-4799-9691-07f87aef2ed7,A
2020-02-29 03:29:09,f2369fda-c4f0-4799-9691-07f87aef2ed7,S
2020-02-29 03:34:23,f2369fda-c4f0-4799-9691-07f87aef2ed7,A
2020-02-29 03:35:16,f2369fda-c4f0-4799-9691-07f87aef2ed7,S
2020-02-29 03:44:28,f2369fda-c4f0-4799-9691-07f87aef2ed7,A
2020-02-29 03:48:50,f2369fda-c4f0-4799-9691-07f87aef2ed7,S
2020-02-29 03:51:16,f2369fda-c4f0-4799-9691-07f87aef2ed7,A
2020-02-29 04:05:41,f2369fda-c4f0-4799-9691-07f87aef2ed7,S
2020-02-29 04:09:42,f2369fda-c4f0-4799-9691-07f87aef2ed7,A
2020-02-29 04:16:09,f2369fda-c4f0-4799-9691-07f87aef2ed7,S
2020-02-29 04:17:27,f2369fda-c4f0-4799-9691-07f87aef2ed7,A
2020-02-29 04:28:42,f2369fda-c4f0-4799-9691-07f87aef2ed7,S
2020-02-29 01:32:54,640fc45d-f687-4b57-a302-c3d192cb51fa,S
2020-02-29 01:35:48,640fc45d-f687-4b57-a302-c3d192cb51fa,A
2020-02-29 01:36:54,640fc45d-f687-4b57-a302-c3d192cb51fa,S
2020-02-29 01:39:27,640fc45d-f687-4b57-a302-c3d192cb51fa,A
2020-02-29 01:40:25,640fc45d-f687-4b57-a302-c3d192cb51fa,S
2020-02-29 01:42:31,640fc45d-f687-4b57-a302-c3d192cb51fa,A
2020-02-29 01:43:53,640fc45d-f687-4b57-a302-c3d192cb51fa,S
2020-02-29 01:50:26,640fc45d-f687-4b57-a302-c3d192cb51fa,A
2020-02-29 01:51:53,640fc45d-f687-4b57-a302-c3d192cb51fa,S
2020-02-29 01:52:41,640fc45d-f687-4b57-a302-c3d192cb51fa,A
2020-02-29 01:53:11,640fc45d-f687-4b57-a302-c3d192cb51fa,S
2020-02-29 01:56:01,640fc45d-f687-4b57-a302-c3d192cb51fa,A
2020-02-29 02:01:08,640fc45d-f687-4b57-a302-c3d192cb51fa,S
2020-02-29 02:16:36,640fc45d-f687-4b57-a302-c3d192cb51fa,A
2020-02-29 02:25:39,640fc45d-f687-4b57-a302-c3d192cb51fa,S
2020-02-29 02:35:22,640fc45d-f687-4b57-a302-c3d192cb51fa,A
2020-02-29 02:43:52,640fc45d-f687-4b57-a302-c3d192cb51fa,S
2020-02-29 02:44:38,640fc45d-f687-4b57-a302-c3d192cb51fa,A
2020-02-29 02:44:57,640fc45d-f687-4b57-a302-c3d192cb51fa,S
2020-02-29 02:53:35,640fc45d-f687-4b57-a302-c3d192cb51fa,A
2020-02-29 02:56:34,640fc45d-f687-4b57-a302-c3d192cb51fa,S
2020-02-29 02:56:37,640fc45d-f687-4b57-a302-c3d192cb51fa,A
2020-02-29 02:57:48,640fc45d-f687-4b57-a302-c3d192cb51fa,S
2020-02-29 02:59:38,640fc45d-f687-4b57-a302-c3d192cb51fa,A
2020-02-29 03:01:29,640fc45d-f687-4b57-a302-c3d192cb51fa,S
2020-02-29 03:02:28,640fc45d-f687-4b57-a302-c3d192cb51fa,A
2020-02-29 03:04:11,640fc45d-f687-4b57-a302-c3d192cb51fa,S
2020-02-29 03:13:26,640fc45d-f687-4b57-a302-c3d192cb51fa,A
2020-02-29 03:15:34,640fc45d-f687-4b57-a302-c3d192cb51fa,S
2020-02-29 03:16:32,640fc45d-f687-4b57-a302-c3d192cb51fa,A
2020-02-29 03:18:59,640fc45d-f687-4b57-a302-c3d192cb51fa,S
2020-02-29 03:27:45,640fc45d-f687-4b57-a302-c3d192cb51fa,A
2020-02-29 03:30:01,640fc45d-f687-4b57-a302-c3d192cb51fa,S
2020-02-29 03:34:54,640fc45d-f687-4b57-a302-c3d192cb51fa,A
2020-02-29 03:35:02,640fc45d-f687-4b57-a302-c3d192cb51fa,S
2020-02-29 03:35:40,640fc45d-f687-4b57-a302-c3d192cb51fa,A
2020-02-29 03:39:09,640fc45d-f687-4b57-a302-c3d192cb51fa,S
2020-02-29 03:40:35,640fc45d-f687-4b57-a302-c3d192cb51fa,A
2020-02-29 03:46:15,640fc45d-f687-4b57-a302-c3d192cb51fa,S
2020-02-29 03:46:43,640fc45d-f687-4b57-a302-c3d192cb51fa,A
2020-02-29 04:02:23,640fc45d-f687-4b57-a302-c3d192cb51fa,S
2020-02-29 04:03:28,640fc45d-f687-4b57-a302-c3d192cb51fa,A
2020-02-29 04:05:32,640fc45d-f687-4b57-a302-c3d192cb51fa,S
2020-02-29 04:09:41,640fc45d-f687-4b57-a302-c3d192cb51fa,A
2020-02-29 04:16:14,640fc45d-f687-4b57-a302-c3d192cb51fa,S
2020-02-29 04:16:30,640fc45d-f687-4b57-a302-c3d192cb51fa,A
2020-02-29 01:31:54,6debde5f-a1f4-4149-8f7b-c04f35e1e38c,S
2020-02-29 01:35:53,6debde5f-a1f4-4149-8f7b-c04f35e1e38c,A
2020-02-29 01:36:37,6debde5f-a1f4-4149-8f7b-c04f35e1e38c,S
2020-02-29 01:37:11,6debde5f-a1f4-4149-8f7b-c04f35e1e38c,A
2020-02-29 01:40:14,6debde5f-a1f4-4149-8f7b-c04f35e1e38c,S
2020-02-29 01:40:31,6debde5f-a1f4-4149-8f7b-c04f35e1e38c,A
2020-02-29 01:43:00,6debde5f-a1f4-4149-8f7b-c04f35e1e38c,S
2020-02-29 01:48:19,6debde5f-a1f4-4149-8f7b-c04f35e1e38c,A
2020-02-29 01:52:15,6debde5f-a1f4-4149-8f7b-c04f35e1e38c,S
2020-02-29 01:54:59,6debde5f-a1f4-4149-8f7b-c04f35e1e38c,A
2020-02-29 02:05:47,6debde5f-a1f4-4149-8f7b-c04f35e1e38c,S
2020-02-29 02:11:25,6debde5f-a1f4-4149-8f7b-c04f35e1e38c,A
2020-02-29 02:33:59,6debde5f-a1f4-4149-8f7b-c04f35e1e38c,S
2020-02-29 02:58:20,6debde5f-a1f4-4149-8f7b-c04f35e1e38c,A
2020-02-29 03:04:54,6debde5f-a1f4-4149-8f7b-c04f35e1e38c,S
2020-02-29 03:08:20,6debde5f-a1f4-4149-8f7b-c04f35e1e38c,A
2020-02-29 03:11:15,6debde5f-a1f4-4149-8f7b-c04f35e1e38c,S
2020-02-29 03:15:59,6debde5f-a1f4-4149-8f7b-c04f35e1e38c,A
2020-02-29 03:29:03,6debde5f-a1f4-4149-8f7b-c04f35e1e38c,S
2020-02-29 03:30:36,6debde5f-a1f4-4149-8f7b-c04f35e1e38c,A
2020-02-29 03:43:13,6debde5f-a1f4-4149-8f7b-c04f35e1e38c,S
2020-02-29 03:49:11,6debde5f-a1f4-4149-8f7b-c04f35e1e38c,A
2020-02-29 03:51:34,6debde5f-a1f4-4149-8f7b-c04f35e1e38c,S
2020-02-29 03:53:30,6debde5f-a1f4-4149-8f7b-c04f35e1e38c,A
2020-02-29 03:54:56,6debde5f-a1f4-4149-8f7b-c04f35e1e38c,S
2020-02-29 04:00:10,6debde5f-a1f4-4149-8f7b-c04f35e1e38c,A
2020-02-29 04:07:43,6debde5f-a1f4-4149-8f7b-c04f35e1e38c,S
2020-02-29 04:08:56,6debde5f-a1f4-4149-8f7b-c04f35e1e38c,A
2020-02-29 04:11:45,6debde5f-a1f4-4149-8f7b-c04f35e1e38c,S
2020-02-29 04:18:28,6debde5f-a1f4-4149-8f7b-c04f35e1e38c,A
2020-02-29 04:24:59,6debde5f-a1f4-4149-8f7b-c04f35e1e38c,S
2020-02-29 02:04:29,2e36e2d1-fdfb-4950-938b-7a5bf284e154,S
2020-02-29 02:08:08,2e36e2d1-fdfb-4950-938b-7a5bf284e154,A
2020-02-29 02:09:55,2e36e2d1-fdfb-4950-938b-7a5bf284e154,S
2020-02-29 02:10:23,2e36e2d1-fdfb-4950-938b-7a5bf284e154,A
2020-02-29 02:10:27,2e36e2d1-fdfb-4950-938b-7a5bf284e154,S
2020-02-29 02:21:46,2e36e2d1-fdfb-4950-938b-7a5bf284e154,A
2020-02-29 01:38:17,7c2eba0a-72c7-4abf-b7fd-4ccbfa86a769,A
2020-02-29 01:41:33,7c2eba0a-72c7-4abf-b7fd-4ccbfa86a769,S
2020-02-29 01:46:37,7c2eba0a-72c7-4abf-b7fd-4ccbfa86a769,A
2020-02-29 01:55:13,7c2eba0a-72c7-4abf-b7fd-4ccbfa86a769,S
2020-02-29 01:59:40,7c2eba0a-72c7-4abf-b7fd-4ccbfa86a769,A
2020-02-29 02:02:48,7c2eba0a-72c7-4abf-b7fd-4ccbfa86a769,S
2020-02-29 02:03:39,7c2eba0a-72c7-4abf-b7fd-4ccbfa86a769,A
2020-02-29 02:05:02,7c2eba0a-72c7-4abf-b7fd-4ccbfa86a769,S
2020-02-29 02:10:16,7c2eba0a-72c7-4abf-b7fd-4ccbfa86a769,A
2020-02-29 02:15:53,7c2eba0a-72c7-4abf-b7fd-4ccbfa86a769,S
2020-02-29 02:27:15,7c2eba0a-72c7-4abf-b7fd-4ccbfa86a769,A
2020-02-29 02:27:19,7c2eba0a-72c7-4abf-b7fd-4ccbfa86a769,S
2020-02-29 02:34:29,7c2eba0a-72c7-4abf-b7fd-4ccbfa86a769,A
2020-02-29 02:45:59,7c2eba0a-72c7-4abf-b7fd-4ccbfa86a769,S
2020-02-29 02:47:36,7c2eba0a-72c7-4abf-b7fd-4ccbfa86a769,A
2020-02-29 02:50:43,7c2eba0a-72c7-4abf-b7fd-4ccbfa86a769,S
2020-02-29 02:51:00,7c2eba0a-72c7-4abf-b7fd-4ccbfa86a769,A
2020-02-29 03:08:58,7c2eba0a-72c7-4abf-b7fd-4ccbfa86a769,S
2020-02-29 03:11:22,7c2eba0a-72c7-4abf-b7fd-4ccbfa86a769,A
2020-02-29 03:23:44,7c2eba0a-72c7-4abf-b7fd-4ccbfa86a769,S
2020-02-29 03:35:52,7c2eba0a-72c7-4abf-b7fd-4ccbfa86a769,A
2020-02-29 03:41:23,7c2eba0a-72c7-4abf-b7fd-4ccbfa86a769,S
2020-02-29 03:41:50,7c2eba0a-72c7-4abf-b7fd-4ccbfa86a769,A
2020-02-29 03:44:05,7c2eba0a-72c7-4abf-b7fd-4ccbfa86a769,S
2020-02-29 03:47:44,7c2eba0a-72c7-4abf-b7fd-4ccbfa86a769,A
2020-02-29 03:51:04,7c2eba0a-72c7-4abf-b7fd-4ccbfa86a769,S
2020-02-29 03:55:34,7c2eba0a-72c7-4abf-b7fd-4ccbfa86a769,A
2020-02-29 03:56:31,7c2eba0a-72c7-4abf-b7fd-4ccbfa86a769,S
2020-02-29 03:56:52,7c2eba0a-72c7-4abf-b7fd-4ccbfa86a769,A
2020-02-29 03:57:50,7c2eba0a-72c7-4abf-b7fd-4ccbfa86a769,S
2020-02-29 04:09:41,7c2eba0a-72c7-4abf-b7fd-4ccbfa86a769,A
2020-02-29 04:14:30,7c2eba0a-72c7-4abf-b7fd-4ccbfa86a769,S
2020-02-29 04:18:13,7c2eba0a-72c7-4abf-b7fd-4ccbfa86a769,A
2020-02-29 04:24:11,7c2eba0a-72c7-4abf-b7fd-4ccbfa86a769,S
2020-02-29 04:27:43,7c2eba0a-72c7-4abf-b7fd-4ccbfa86a769,A
2020-02-29 04:28:00,7c2eba0a-72c7-4abf-b7fd-4ccbfa86a769,S
2020-02-29 01:27:58,54538c9e-939d-420c-81ef-09e98e836bd6,A
2020-02-29 01:30:50,54538c9e-939d-420c-81ef-09e98e836bd6,S
2020-02-29 01:32:10,54538c9e-939d-420c-81ef-09e98e836bd6,A
2020-02-29 01:42:24,54538c9e-939d-420c-81ef-09e98e836bd6,S
2020-02-29 01:42:38,54538c9e-939d-420c-81ef-09e98e836bd6,A
2020-02-29 01:43:43,54538c9e-939d-420c-81ef-09e98e836bd6,S
2020-02-29 01:44:57,54538c9e-939d-420c-81ef-09e98e836bd6,A
2020-02-29 01:48:36,54538c9e-939d-420c-81ef-09e98e836bd6,S
2020-02-29 01:51:20,54538c9e-939d-420c-81ef-09e98e836bd6,A
2020-02-29 01:56:30,54538c9e-939d-420c-81ef-09e98e836bd6,S
2020-02-29 01:57:48,54538c9e-939d-420c-81ef-09e98e836bd6,A
2020-02-29 02:03:47,54538c9e-939d-420c-81ef-09e98e836bd6,S
2020-02-29 02:15:04,54538c9e-939d-420c-81ef-09e98e836bd6,A
2020-02-29 02:18:44,54538c9e-939d-420c-81ef-09e98e836bd6,S
2020-02-29 02:23:16,54538c9e-939d-420c-81ef-09e98e836bd6,A
2020-02-29 02:34:44,54538c9e-939d-420c-81ef-09e98e836bd6,S
2020-02-29 02:48:10,54538c9e-939d-420c-81ef-09e98e836bd6,A
2020-02-29 02:49:09,54538c9e-939d-420c-81ef-09e98e836bd6,S
2020-02-29 02:50:41,54538c9e-939d-420c-81ef-09e98e836bd6,A
2020-02-29 02:51:27,54538c9e-939d-420c-81ef-09e98e836bd6,S
2020-02-29 02:52:37,54538c9e-939d-420c-81ef-09e98e836bd6,A
2020-02-29 03:01:13,54538c9e-939d-420c-81ef-09e98e836bd6,S
2020-02-29 03:03:11,54538c9e-939d-420c-81ef-09e98e836bd6,A
2020-02-29 03:04:59,54538c9e-939d-420c-81ef-09e98e836bd6,S
2020-02-29 03:09:46,54538c9e-939d-420c-81ef-09e98e836bd6,A
2020-02-29 03:18:39,54538c9e-939d-420c-81ef-09e98e836bd6,S
2020-02-29 03:29:32,54538c9e-939d-420c-81ef-09e98e836bd6,A
2020-02-29 03:33:28,54538c9e-939d-420c-81ef-09e98e836bd6,S
2020-02-29 03:33:45,54538c9e-939d-420c-81ef-09e98e836bd6,A
2020-02-29 03:39:25,54538c9e-939d-420c-81ef-09e98e836bd6,S
2020-02-29 03:45:50,54538c9e-939d-420c-81ef-09e98e836bd6,A
2020-02-29 03:45:50,54538c9e-939d-420c-81ef-09e98e836bd6,S
2020-02-29 03:47:49,54538c9e-939d-420c-81ef-09e98e836bd6,A
2020-02-29 03:50:27,54538c9e-939d-420c-81ef-09e98e836bd6,S
2020-02-29 03:52:16,54538c9e-939d-420c-81ef-09e98e836bd6,A
2020-02-29 03:55:18,54538c9e-939d-420c-81ef-09e98e836bd6,S
2020-02-29 03:58:06,54538c9e-939d-420c-81ef-09e98e836bd6,A
2020-02-29 03:59:34,54538c9e-939d-420c-81ef-09e98e836bd6,S
2020-02-29 04:03:01,54538c9e-939d-420c-81ef-09e98e836bd6,A
2020-02-29 04:04:15,54538c9e-939d-420c-81ef-09e98e836bd6,S
2020-02-29 04:06:43,54538c9e-939d-420c-81ef-09e98e836bd6,A
2020-02-29 04:11:54,54538c9e-939d-420c-81ef-09e98e836bd6,S
2020-02-29 04:17:47,54538c9e-939d-420c-81ef-09e98e836bd6,A
2020-02-29 02:11:00,383894b5-eb33-4285-a840-5b072bbefa6a,S
2020-02-29 02:12:40,383894b5-eb33-4285-a840-5b072bbefa6a,A
2020-02-29 02:15:34,383894b5-eb33-4285-a840-5b072bbefa6a,S
2020-02-29 02:16:28,383894b5-eb33-4285-a840-5b072bbefa6a,A
2020-02-29 02:17:30,383894b5-eb33-4285-a840-5b072bbefa6a,S
2020-02-29 02:35:59,383894b5-eb33-4285-a840-5b072bbefa6a,A
2020-02-29 02:42:31,383894b5-eb33-4285-a840-5b072bbefa6a,S
2020-02-29 02:43:47,383894b5-eb33-4285-a840-5b072bbefa6a,A
2020-02-29 02:46:59,383894b5-eb33-4285-a840-5b072bbefa6a,S
2020-02-29 02:57:11,383894b5-eb33-4285-a840-5b072bbefa6a,A
2020-02-29 02:58:34,383894b5-eb33-4285-a840-5b072bbefa6a,S
2020-02-29 03:03:14,383894b5-eb33-4285-a840-5b072bbefa6a,A
2020-02-29 03:04:46,383894b5-eb33-4285-a840-5b072bbefa6a,S
2020-02-29 03:25:20,383894b5-eb33-4285-a840-5b072bbefa6a,A
2020-02-29 03:29:38,383894b5-eb33-4285-a840-5b072bbefa6a,S
2020-02-29 03:29:54,383894b5-eb33-4285-a840-5b072bbefa6a,A
2020-02-29 03:37:37,383894b5-eb33-4285-a840-5b072bbefa6a,S
2020-02-29 03:40:39,383894b5-eb33-4285-a840-5b072bbefa6a,A
2020-02-29 03:53:02,383894b5-eb33-4285-a840-5b072bbefa6a,S
2020-02-29 04:28:21,383894b5-eb33-4285-a840-5b072bbefa6a,A
2020-02-29 01:25:50,0c38d0a5-3452-4f10-a95a-c40ca9f1881a,A
2020-02-29 01:41:52,0c38d0a5-3452-4f10-a95a-c40ca9f1881a,S
2020-02-29 01:45:06,0c38d0a5-3452-4f10-a95a-c40ca9f1881a,A
2020-02-29 01:47:52,0c38d0a5-3452-4f10-a95a-c40ca9f1881a,S
2020-02-29 01:48:23,0c38d0a5-3452-4f10-a95a-c40ca9f1881a,A
2020-02-29 02:02:21,0c38d0a5-3452-4f10-a95a-c40ca9f1881a,S
2020-02-29 02:05:50,0c38d0a5-3452-4f10-a95a-c40ca9f1881a,A
2020-02-29 02:08:42,0c38d0a5-3452-4f10-a95a-c40ca9f1881a,S
2020-02-29 02:12:42,0c38d0a5-3452-4f10-a95a-c40ca9f1881a,A
2020-02-29 02:26:05,0c38d0a5-3452-4f10-a95a-c40ca9f1881a,S
2020-02-29 02:26:16,0c38d0a5-3452-4f10-a95a-c40ca9f1881a,A
2020-02-29 02:34:58,0c38d0a5-3452-4f10-a95a-c40ca9f1881a,S
2020-02-29 02:39:15,0c38d0a5-3452-4f10-a95a-c40ca9f1881a,A
2020-02-29 02:45:51,0c38d0a5-3452-4f10-a95a-c40ca9f1881a,S
2020-02-29 02:48:23,0c38d0a5-3452-4f10-a95a-c40ca9f1881a,A
2020-02-29 02:59:34,0c38d0a5-3452-4f10-a95a-c40ca9f1881a,S
2020-02-29 03:01:29,0c38d0a5-3452-4f10-a95a-c40ca9f1881a,A
2020-02-29 03:02:26,0c38d0a5-3452-4f10-a95a-c40ca9f1881a,S
2020-02-29 03:05:19,0c38d0a5-3452-4f10-a95a-c40ca9f1881a,A
2020-02-29 03:11:17,0c38d0a5-3452-4f10-a95a-c40ca9f1881a,S
2020-02-29 03:20:05,0c38d0a5-3452-4f10-a95a-c40ca9f1881a,A
2020-02-29 03:23:08,0c38d0a5-3452-4f10-a95a-c40ca9f1881a,S
2020-02-29 03:24:59,0c38d0a5-3452-4f10-a95a-c40ca9f1881a,A
2020-02-29 03:27:09,0c38d0a5-3452-4f10-a95a-c40ca9f1881a,S
2020-02-29 03:39:10,0c38d0a5-3452-4f10-a95a-c40ca9f1881a,A
2020-02-29 03:40:39,0c38d0a5-3452-4f10-a95a-c40ca9f1881a,S
2020-02-29 03:51:33,0c38d0a5-3452-4f10-a95a-c40ca9f1881a,A
2020-02-29 03:54:36,0c38d0a5-3452-4f10-a95a-c40ca9f1881a,S
2020-02-29 03:56:08,0c38d0a5-3452-4f10-a95a-c40ca9f1881a,A
2020-02-29 03:57:34,0c38d0a5-3452-4f10-a95a-c40ca9f1881a,S
2020-02-29 03:58:24,0c38d0a5-3452-4f10-a95a-c40ca9f1881a,A
2020-02-29 04:04:07,0c38d0a5-3452-4f10-a95a-c40ca9f1881a,S
2020-02-29 04:13:43,0c38d0a5-3452-4f10-a95a-c40ca9f1881a,A
2020-02-29 04:23:28,0c38d0a5-3452-4f10-a95a-c40ca9f1881a,S
2020-02-29 04:24:52,0c38d0a5-3452-4f10-a95a-c40ca9f1881a,A
2020-02-29 02:09:32,7a376069-801e-40d6-a5ba-fa8a03ae508d,A
2020-02-29 02:10:59,7a376069-801e-40d6-a5ba-fa8a03ae508d,S
2020-02-29 02:19:32,7a376069-801e-40d6-a5ba-fa8a03ae508d,A
2020-02-29 02:21:56,7a376069-801e-40d6-a5ba-fa8a03ae508d,S
2020-02-29 02:22:50,7a376069-801e-40d6-a5ba-fa8a03ae508d,A
2020-02-29 02:23:11,7a376069-801e-40d6-a5ba-fa8a03ae508d,S
2020-02-29 02:25:51,7a376069-801e-40d6-a5ba-fa8a03ae508d,A
2020-02-29 02:26:06,7a376069-801e-40d6-a5ba-fa8a03ae508d,S
2020-02-29 02:30:18,7a376069-801e-40d6-a5ba-fa8a03ae508d,A
2020-02-29 02:33:28,7a376069-801e-40d6-a5ba-fa8a03ae508d,S
2020-02-29 02:40:14,7a376069-801e-40d6-a5ba-fa8a03ae508d,A
2020-02-29 02:44:02,7a376069-801e-40d6-a5ba-fa8a03ae508d,S
2020-02-29 02:47:14,7a376069-801e-40d6-a5ba-fa8a03ae508d,A
2020-02-29 02:47:21,7a376069-801e-40d6-a5ba-fa8a03ae508d,S
2020-02-29 02:50:51,7a376069-801e-40d6-a5ba-fa8a03ae508d,A
2020-02-29 02:50:54,7a376069-801e-40d6-a5ba-fa8a03ae508d,S
2020-02-29 02:58:41,7a376069-801e-40d6-a5ba-fa8a03ae508d,A
2020-02-29 03:03:02,7a376069-801e-40d6-a5ba-fa8a03ae508d,S
2020-02-29 03:13:09,7a376069-801e-40d6-a5ba-fa8a03ae508d,A
2020-02-29 03:19:44,7a376069-801e-40d6-a5ba-fa8a03ae508d,S
2020-02-29 03:23:54,7a376069-801e-40d6-a5ba-fa8a03ae508d,A
2020-02-29 03:34:43,7a376069-801e-40d6-a5ba-fa8a03ae508d,S
2020-02-29 03:37:33,7a376069-801e-40d6-a5ba-fa8a03ae508d,A
2020-02-29 03:43:03,7a376069-801e-40d6-a5ba-fa8a03ae508d,S
2020-02-29 03:54:10,7a376069-801e-40d6-a5ba-fa8a03ae508d,A
2020-02-29 03:57:53,7a376069-801e-40d6-a5ba-fa8a03ae508d,S
2020-02-29 04:12:10,7a376069-801e-40d6-a5ba-fa8a03ae508d,A
2020-02-29 04:18:11,7a376069-801e-40d6-a5ba-fa8a03ae508d,S
2020-02-29 04:23:11,7a376069-801e-40d6-a5ba-fa8a03ae508d,A
2020-02-29 04:23:33,7a376069-801e-40d6-a5ba-fa8a03ae508d,S
2020-02-29 04:25:32,7a376069-801e-40d6-a5ba-fa8a03ae508d,A
2020-02-29 02:19:57,3e31c145-15b5-402e-b539-acbf4aa46d26,S
2020-02-29 02:20:56,3e31c145-15b5-402e-b539-acbf4aa46d26,A
2020-02-29 02:27:41,3e31c145-15b5-402e-b539-acbf4aa46d26,S
2020-02-29 02:33:32,3e31c145-15b5-402e-b539-acbf4aa46d26,A
2020-02-29 02:35:40,3e31c145-15b5-402e-b539-acbf4aa46d26,S
2020-02-29 02:38:30,3e31c145-15b5-402e-b539-acbf4aa46d26,A
2020-02-29 02:39:05,3e31c145-15b5-402e-b539-acbf4aa46d26,S
2020-02-29 02:42:03,3e31c145-15b5-402e-b539-acbf4aa46d26,A
2020-02-29 02:43:26,3e31c145-15b5-402e-b539-acbf4aa46d26,S
2020-02-29 02:48:18,3e31c145-15b5-402e-b539-acbf4aa46d26,A
2020-02-29 02:59:07,3e31c145-15b5-402e-b539-acbf4aa46d26,S
2020-02-29 03:03:43,3e31c145-15b5-402e-b539-acbf4aa46d26,A
2020-02-29 03:10:03,3e31c145-15b5-402e-b539-acbf4aa46d26,S
2020-02-29 03:12:43,3e31c145-15b5-402e-b539-acbf4aa46d26,A
2020-02-29 03:15:11,3e31c145-15b5-402e-b539-acbf4aa46d26,S
2020-02-29 03:18:55,3e31c145-15b5-402e-b539-acbf4aa46d26,A
2020-02-29 03:20:42,3e31c145-15b5-402e-b539-acbf4aa46d26,S
2020-02-29 03:25:58,3e31c145-15b5-402e-b539-acbf4aa46d26,A
2020-02-29 03:27:45,3e31c145-15b5-402e-b539-acbf4aa46d26,S
2020-02-29 03:28:39,3e31c145-15b5-402e-b539-acbf4aa46d26,A
2020-02-29 03:44:59,3e31c145-15b5-402e-b539-acbf4aa46d26,S
2020-02-29 03:46:20,3e31c145-15b5-402e-b539-acbf4aa46d26,A
2020-02-29 03:46:54,3e31c145-15b5-402e-b539-acbf4aa46d26,S
2020-02-29 03:50:01,3e31c145-15b5-402e-b539-acbf4aa46d26,A
2020-02-29 03:56:11,3e31c145-15b5-402e-b539-acbf4aa46d26,S
2020-02-29 04:08:55,3e31c145-15b5-402e-b539-acbf4aa46d26,A
2020-02-29 04:09:31,3e31c145-15b5-402e-b539-acbf4aa46d26,S
2020-02-29 04:11:28,3e31c145-15b5-402e-b539-acbf4aa46d26,A
2020-02-29 04:28:26,3e31c145-15b5-402e-b539-acbf4aa46d26,S
2020-02-29 04:30:26,3e31c145-15b5-402e-b539-acbf4aa46d26,A
2020-02-29 01:50:58,a1d7005c-4b2e-4d0b-8aaf-4b26e5326594,S
2020-02-29 02:08:44,a1d7005c-4b2e-4d0b-8aaf-4b26e5326594,A
2020-02-29 02:13:09,a1d7005c-4b2e-4d0b-8aaf-4b26e5326594,S
2020-02-29 02:13:15,a1d7005c-4b2e-4d0b-8aaf-4b26e5326594,A
2020-02-29 02:14:41,a1d7005c-4b2e-4d0b-8aaf-4b26e5326594,S
2020-02-29 02:15:50,a1d7005c-4b2e-4d0b-8aaf-4b26e5326594,A
2020-02-29 02:18:03,a1d7005c-4b2e-4d0b-8aaf-4b26e5326594,S
2020-02-29 02:25:43,a1d7005c-4b2e-4d0b-8aaf-4b26e5326594,A
2020-02-29 02:39:39,a1d7005c-4b2e-4d0b-8aaf-4b26e5326594,S
2020-02-29 02:46:10,a1d7005c-4b2e-4d0b-8aaf-4b26e5326594,A
2020-02-29 02:51:55,a1d7005c-4b2e-4d0b-8aaf-4b26e5326594,S
2020-02-29 02:54:08,a1d7005c-4b2e-4d0b-8aaf-4b26e5326594,A
2020-02-29 02:59:52,a1d7005c-4b2e-4d0b-8aaf-4b26e5326594,S
2020-02-29 03:11:42,a1d7005c-4b2e-4d0b-8aaf-4b26e5326594,A
2020-02-29 03:31:22,a1d7005c-4b2e-4d0b-8aaf-4b26e5326594,S
2020-02-29 03:35:15,a1d7005c-4b2e-4d0b-8aaf-4b26e5326594,A
2020-02-29 03:36:28,a1d7005c-4b2e-4d0b-8aaf-4b26e5326594,S
2020-02-29 03:38:43,a1d7005c-4b2e-4d0b-8aaf-4b26e5326594,A
2020-02-29 03:46:44,a1d7005c-4b2e-4d0b-8aaf-4b26e5326594,S
2020-02-29 03:49:57,a1d7005c-4b2e-4d0b-8aaf-4b26e5326594,A
2020-02-29 03:50:25,a1d7005c-4b2e-4d0b-8aaf-4b26e5326594,S
2020-02-29 03:59:57,a1d7005c-4b2e-4d0b-8aaf-4b26e5326594,A
2020-02-29 04:06:35,a1d7005c-4b2e-4d0b-8aaf-4b26e5326594,S
2020-02-29 04:26:33,a1d7005c-4b2e-4d0b-8aaf-4b26e5326594,A
2020-02-29 04:28:14,a1d7005c-4b2e-4d0b-8aaf-4b26e5326594,S
2020-02-29 04:28:29,a1d7005c-4b2e-4d0b-8aaf-4b26e5326594,A
2020-02-29 02:05:38,44e1586b-a7f7-46f9-a62e-1150dca72f92,S
2020-02-29 02:06:23,44e1586b-a7f7-46f9-a62e-1150dca72f92,A
2020-02-29 02:12:07,44e1586b-a7f7-46f9-a62e-1150dca72f92,S
2020-02-29 02:16:21,44e1586b-a7f7-46f9-a62e-1150dca72f92,A
2020-02-29 02:24:56,44e1586b-a7f7-46f9-a62e-1150dca72f92,S
2020-02-29 02:25:49,44e1586b-a7f7-46f9-a62e-1150dca72f92,A
2020-02-29 02:30:01,44e1586b-a7f7-46f9-a62e-1150dca72f92,S
2020-02-29 02:31:10,44e1586b-a7f7-46f9-a62e-1150dca72f92,A
2020-02-29 02:34:41,44e1586b-a7f7-46f9-a62e-1150dca72f92,S
2020-02-29 02:44:34,44e1586b-a7f7-46f9-a62e-1150dca72f92,A
2020-02-29 02:49:09,44e1586b-a7f7-46f9-a62e-1150dca72f92,S
2020-02-29 02:51:33,44e1586b-a7f7-46f9-a62e-1150dca72f92,A
2020-02-29 02:53:08,44e1586b-a7f7-46f9-a62e-1150dca72f92,S
2020-02-29 03:00:01,44e1586b-a7f7-46f9-a62e-1150dca72f92,A
2020-02-29 03:12:05,44e1586b-a7f7-46f9-a62e-1150dca72f92,S
2020-02-29 03:13:25,44e1586b-a7f7-46f9-a62e-1150dca72f92,A
2020-02-29 03:15:24,44e1586b-a7f7-46f9-a62e-1150dca72f92,S
2020-02-29 03:17:23,44e1586b-a7f7-46f9-a62e-1150dca72f92,A
2020-02-29 03:23:48,44e1586b-a7f7-46f9-a62e-1150dca72f92,S
2020-02-29 03:45:18,44e1586b-a7f7-46f9-a62e-1150dca72f92,A
2020-02-29 03:45:55,44e1586b-a7f7-46f9-a62e-1150dca72f92,S
2020-02-29 03:47:10,44e1586b-a7f7-46f9-a62e-1150dca72f92,A
2020-02-29 03:49:06,44e1586b-a7f7-46f9-a62e-1150dca72f92,S
2020-02-29 03:52:39,44e1586b-a7f7-46f9-a62e-1150dca72f92,A
2020-02-29 04:01:56,44e1586b-a7f7-46f9-a62e-1150dca72f92,S
2020-02-29 04:10:02,44e1586b-a7f7-46f9-a62e-1150dca72f92,A
2020-02-29 04:25:54,44e1586b-a7f7-46f9-a62e-1150dca72f92,S
2020-02-29 01:39:31,d2f54e2a-72b8-4c77-92a1-cf172945a9cb,S
2020-02-29 01:45:58,d2f54e2a-72b8-4c77-92a1-cf172945a9cb,A
2020-02-29 01:56:49,d2f54e2a-72b8-4c77-92a1-cf172945a9cb,S
2020-02-29 01:58:42,d2f54e2a-72b8-4c77-92a1-cf172945a9cb,A
2020-02-29 01:58:59,d2f54e2a-72b8-4c77-92a1-cf172945a9cb,S
2020-02-29 02:14:18,d2f54e2a-72b8-4c77-92a1-cf172945a9cb,A
2020-02-29 02:15:56,d2f54e2a-72b8-4c77-92a1-cf172945a9cb,S
2020-02-29 02:20:00,d2f54e2a-72b8-4c77-92a1-cf172945a9cb,A
2020-02-29 02:21:45,d2f54e2a-72b8-4c77-92a1-cf172945a9cb,S
2020-02-29 02:26:45,d2f54e2a-72b8-4c77-92a1-cf172945a9cb,A
2020-02-29 02:33:38,d2f54e2a-72b8-4c77-92a1-cf172945a9cb,S
2020-02-29 02:38:24,d2f54e2a-72b8-4c77-92a1-cf172945a9cb,A
2020-02-29 02:44:58,d2f54e2a-72b8-4c77-92a1-cf172945a9cb,S
2020-02-29 02:50:53,d2f54e2a-72b8-4c77-92a1-cf172945a9cb,A
2020-02-29 03:01:31,d2f54e2a-72b8-4c77-92a1-cf172945a9cb,S
2020-02-29 03:08:46,d2f54e2a-72b8-4c77-92a1-cf172945a9cb,A
2020-02-29 03:11:13,d2f54e2a-72b8-4c77-92a1-cf172945a9cb,S
2020-02-29 03:12:53,d2f54e2a-72b8-4c77-92a1-cf172945a9cb,A
2020-02-29 03:17:33,d2f54e2a-72b8-4c77-92a1-cf172945a9cb,S
2020-02-29 03:22:31,d2f54e2a-72b8-4c77-92a1-cf172945a9cb,A
2020-02-29 03:32:27,d2f54e2a-72b8-4c77-92a1-cf172945a9cb,S
2020-02-29 03:32:31,d2f54e2a-72b8-4c77-92a1-cf172945a9cb,A
2020-02-29 03:37:11,d2f54e2a-72b8-4c77-92a1-cf172945a9cb,S
2020-02-29 03:38:55,d2f54e2a-72b8-4c77-92a1-cf172945a9cb,A
2020-02-29 03:45:38,d2f54e2a-72b8-4c77-92a1-cf172945a9cb,S
2020-02-29 03:45:44,d2f54e2a-72b8-4c77-92a1-cf172945a9cb,A
2020-02-29 03:48:27,d2f54e2a-72b8-4c77-92a1-cf172945a9cb,S
2020-02-29 03:55:19,d2f54e2a-72b8-4c77-92a1-cf172945a9cb,A
2020-02-29 04:16:14,d2f54e2a-72b8-4c77-92a1-cf172945a9cb,S
2020-02-29 04:23:02,d2f54e2a-72b8-4c77-92a1-cf172945a9cb,A
2020-02-29 01:51:37,3e4259e4-df39-4975-8fe7-4977ea65aa4b,A
2020-02-29 01:59:21,3e4259e4-df39-4975-8fe7-4977ea65aa4b,S
2020-02-29 02:03:12,3e4259e4-df39-4975-8fe7-4977ea65aa4b,A
2020-02-29 02:22:12,3e4259e4-df39-4975-8fe7-4977ea65aa4b,S
2020-02-29 02:28:56,3e4259e4-df39-4975-8fe7-4977ea65aa4b,A
2020-02-29 02:34:47,3e4259e4-df39-4975-8fe7-4977ea65aa4b,S
2020-02-29 02:41:49,3e4259e4-df39-4975-8fe7-4977ea65aa4b,A
2020-02-29 02:48:52,3e4259e4-df39-4975-8fe7-4977ea65aa4b,S
2020-02-29 02:49:05,3e4259e4-df39-4975-8fe7-4977ea65aa4b,A
2020-02-29 02:50:15,3e4259e4-df39-4975-8fe7-4977ea65aa4b,S
2020-02-29 02:52:47,3e4259e4-df39-4975-8fe7-4977ea65aa4b,A
2020-02-29 02:57:28,3e4259e4-df39-4975-8fe7-4977ea65aa4b,S
2020-02-29 02:57:29,3e4259e4-df39-4975-8fe7-4977ea65aa4b,A
2020-02-29 02:58:25,3e4259e4-df39-4975-8fe7-4977ea65aa4b,S
2020-02-29 03:00:46,3e4259e4-df39-4975-8fe7-4977ea65aa4b,A
2020-02-29 03:03:00,3e4259e4-df39-4975-8fe7-4977ea65aa4b,S
2020-02-29 03:10:24,3e4259e4-df39-4975-8fe7-4977ea65aa4b,A
2020-02-29 03:22:28,3e4259e4-df39-4975-8fe7-4977ea65aa4b,S
2020-02-29 03:48:17,3e4259e4-df39-4975-8fe7-4977ea65aa4b,A
2020-02-29 03:51:29,3e4259e4-df39-4975-8fe7-4977ea65aa4b,S
2020-02-29 03:56:40,3e4259e4-df39-4975-8fe7-4977ea65aa4b,A
2020-02-29 03:57:37,3e4259e4-df39-4975-8fe7-4977ea65aa4b,S
2020-02-29 03:59:56,3e4259e4-df39-4975-8fe7-4977ea65aa4b,A
2020-02-29 04:17:23,3e4259e4-df39-4975-8fe7-4977ea65aa4b,S
2020-02-29 04:22:16,3e4259e4-df39-4975-8fe7-4977ea65aa4b,A
2020-02-29 04:23:02,3e4259e4-df39-4975-8fe7-4977ea65aa4b,S
2020-02-29 04:23:53,3e4259e4-df39-4975-8fe7-4977ea65aa4b,A
2020-02-29 04:26:36,3e4259e4-df39-4975-8fe7-4977ea65aa4b,S
2020-02-29 04:27:28,3e4259e4-df39-4975-8fe7-4977ea65aa4b,A
2020-02-29 02:01:54,132d45c8-163f-4619-ad23-b25cda77fd56,A
2020-02-29 02:13:22,132d45c8-163f-4619-ad23-b25cda77fd56,S
2020-02-29 02:13:23,132d45c8-163f-4619-ad23-b25cda77fd56,A
2020-02-29 02:20:08,132d45c8-163f-4619-ad23-b25cda77fd56,S
2020-02-29 02:21:10,132d45c8-163f-4619-ad23-b25cda77fd56,A
2020-02-29 02:21:20,132d45c8-163f-4619-ad23-b25cda77fd56,S
2020-02-29 02:23:24,132d45c8-163f-4619-ad23-b25cda77fd56,A
2020-02-29 02:24:06,132d45c8-163f-4619-ad23-b25cda77fd56,S
2020-02-29 02:27:28,132d45c8-163f-4619-ad23-b25cda77fd56,A
2020-02-29 02:36:01,132d45c8-163f-4619-ad23-b25cda77fd56,S
2020-02-29 02:45:20,132d45c8-163f-4619-ad23-b25cda77fd56,A
2020-02-29 02:46:38,132d45c8-163f-4619-ad23-b25cda77fd56,S
2020-02-29 02:53:54,132d45c8-163f-4619-ad23-b25cda77fd56,A
2020-02-29 02:56:15,132d45c8-163f-4619-ad23-b25cda77fd56,S
2020-02-29 02:59:07,132d45c8-163f-4619-ad23-b25cda77fd56,A
2020-02-29 02:59:56,132d45c8-163f-4619-ad23-b25cda77fd56,S
2020-02-29 03:00:08,132d45c8-163f-4619-ad23-b25cda77fd56,A
2020-02-29 03:02:05,132d45c8-163f-4619-ad23-b25cda77fd56,S
2020-02-29 03:05:15,132d45c8-163f-4619-ad23-b25cda77fd56,A
2020-02-29 03:11:59,132d45c8-163f-4619-ad23-b25cda77fd56,S
2020-02-29 03:13:57,132d45c8-163f-4619-ad23-b25cda77fd56,A
2020-02-29 03:25:43,132d45c8-163f-4619-ad23-b25cda77fd56,S
2020-02-29 03:33:44,132d45c8-163f-4619-ad23-b25cda77fd56,A
2020-02-29 03:36:35,132d45c8-163f-4619-ad23-b25cda77fd56,S
2020-02-29 03:39:07,132d45c8-163f-4619-ad23-b25cda77fd56,A
2020-02-29 03:41:20,132d45c8-163f-4619-ad23-b25cda77fd56,S
2020-02-29 03:42:28,132d45c8-163f-4619-ad23-b25cda77fd56,A
2020-02-29 03:57:12,132d45c8-163f-4619-ad23-b25cda77fd56,S
2020-02-29 03:59:53,132d45c8-163f-4619-ad23-b25cda77fd56,A
2020-02-29 04:00:31,132d45c8-163f-4619-ad23-b25cda77fd56,S
2020-02-29 04:03:27,132d45c8-163f-4619-ad23-b25cda77fd56,A
2020-02-29 04:06:13,132d45c8-163f-4619-ad23-b25cda77fd56,S
2020-02-29 04:06:42,132d45c8-163f-4619-ad23-b25cda77fd56,A
2020-02-29 04:18:09,132d45c8-163f-4619-ad23-b25cda77fd56,S
2020-02-29 04:22:18,132d45c8-163f-4619-ad23-b25cda77fd56,A
2020-02-29 04:23:15,132d45c8-163f-4619-ad23-b25cda77fd56,S
2020-02-29 04:24:09,132d45c8-163f-4619-ad23-b25cda77fd56,A
2020-02-29 04:26:19,132d45c8-163f-4619-ad23-b25cda77fd56,S
2020-02-29 04:27:52,132d45c8-163f-4619-ad23-b25cda77fd56,A
2020-02-29 01:46:06,146a7fc2-84fb-4cfc-b1ab-d8137f5ca25c,S
2020-02-29 01:54:33,146a7fc2-84fb-4cfc-b1ab-d8137f5ca25c,A
2020-02-29 01:57:38,146a7fc2-84fb-4cfc-b1ab-d8137f5ca25c,S
2020-02-29 02:06:27,146a7fc2-84fb-4cfc-b1ab-d8137f5ca25c,A
2020-02-29 02:16:01,146a7fc2-84fb-4cfc-b1ab-d8137f5ca25c,S
2020-02-29 02:19:27,146a7fc2-84fb-4cfc-b1ab-d8137f5ca25c,A
2020-02-29 02:20:21,146a7fc2-84fb-4cfc-b1ab-d8137f5ca25c,S
2020-02-29 02:22:34,146a7fc2-84fb-4cfc-b1ab-d8137f5ca25c,A
2020-02-29 02:38:32,146a7fc2-84fb-4cfc-b1ab-d8137f5ca25c,S
2020-02-29 02:40:38,146a7fc2-84fb-4cfc-b1ab-d8137f5ca25c,A
2020-02-29 02:40:40,146a7fc2-84fb-4cfc-b1ab-d8137f5ca25c,S
2020-02-29 02:51:56,146a7fc2-84fb-4cfc-b1ab-d8137f5ca25c,A
2020-02-29 02:59:37,146a7fc2-84fb-4cfc-b1ab-d8137f5ca25c,S
2020-02-29 03:08:57,146a7fc2-84fb-4cfc-b1ab-d8137f5ca25c,A
2020-02-29 03:14:13,146a7fc2-84fb-4cfc-b1ab-d8137f5ca25c,S
2020-02-29 03:17:02,146a7fc2-84fb-4cfc-b1ab-d8137f5ca25c,A
2020-02-29 03:17:45,146a7fc2-84fb-4cfc-b1ab-d8137f5ca25c,S
2020-02-29 03:21:14,146a7fc2-84fb-4cfc-b1ab-d8137f5ca25c,A
2020-02-29 03:24:17,146a7fc2-84fb-4cfc-b1ab-d8137f5ca25c,S
2020-02-29 03:33:14,146a7fc2-84fb-4cfc-b1ab-d8137f5ca25c,A
2020-02-29 03:48:11,146a7fc2-84fb-4cfc-b1ab-d8137f5ca25c,S
2020-02-29 03:49:13,146a7fc2-84fb-4cfc-b1ab-d8137f5ca25c,A
2020-02-29 03:49:42,146a7fc2-84fb-4cfc-b1ab-d8137f5ca25c,S
2020-02-29 03:50:22,146a7fc2-84fb-4cfc-b1ab-d8137f5ca25c,A
2020-02-29 03:57:25,146a7fc2-84fb-4cfc-b1ab-d8137f5ca25c,S
2020-02-29 04:02:35,146a7fc2-84fb-4cfc-b1ab-d8137f5ca25c,A
2020-02-29 04:21:27,146a7fc2-84fb-4cfc-b1ab-d8137f5ca25c,S
2020-02-29 04:23:34,146a7fc2-84fb-4cfc-b1ab-d8137f5ca25c,A
2020-02-29 04:30:42,146a7fc2-84fb-4cfc-b1ab-d8137f5ca25c,S
2020-02-29 01:37:12,09e3c255-61ce-420a-ae30-d525b05be1d2,A
2020-02-29 01:42:14,09e3c255-61ce-420a-ae30-d525b05be1d2,S
2020-02-29 01:46:05,09e3c255-61ce-420a-ae30-d525b05be1d2,A
2020-02-29 01:57:25,09e3c255-61ce-420a-ae30-d525b05be1d2,S
2020-02-29 02:05:15,09e3c255-61ce-420a-ae30-d525b05be1d2,A
2020-02-29 02:07:38,09e3c255-61ce-420a-ae30-d525b05be1d2,S
2020-02-29 02:11:41,09e3c255-61ce-420a-ae30-d525b05be1d2,A
2020-02-29 02:12:30,09e3c255-61ce-420a-ae30-d525b05be1d2,S
2020-02-29 02:17:43,09e3c255-61ce-420a-ae30-d525b05be1d2,A
2020-02-29 02:22:37,09e3c255-61ce-420a-ae30-d525b05be1d2,S
2020-02-29 02:27:35,09e3c255-61ce-420a-ae30-d525b05be1d2,A
2020-02-29 02:30:10,09e3c255-61ce-420a-ae30-d525b05be1d2,S
2020-02-29 02:30:56,09e3c255-61ce-420a-ae30-d525b05be1d2,A
2020-02-29 02:41:34,09e3c255-61ce-420a-ae30-d525b05be1d2,S
2020-02-29 02:41:56,09e3c255-61ce-420a-ae30-d525b05be1d2,A
2020-02-29 02:49:33,09e3c255-61ce-420a-ae30-d525b05be1d2,S
2020-02-29 02:54:54,09e3c255-61ce-420a-ae30-d525b05be1d2,A
2020-02-29 02:55:19,09e3c255-61ce-420a-ae30-d525b05be1d2,S
2020-02-29 03:01:45,09e3c255-61ce-420a-ae30-d525b05be1d2,A
2020-02-29 03:03:49,09e3c255-61ce-420a-ae30-d525b05be1d2,S
2020-02-29 03:04:03,09e3c255-61ce-420a-ae30-d525b05be1d2,A
2020-02-29 03:09:06,09e3c255-61ce-420a-ae30-d525b05be1d2,S
2020-02-29 03:09:47,09e3c255-61ce-420a-ae30-d525b05be1d2,A
2020-02-29 03:26:53,09e3c255-61ce-420a-ae30-d525b05be1d2,S
2020-02-29 03:29:10,09e3c255-61ce-420a-ae30-d525b05be1d2,A
2020-02-29 03:29:30,09e3c255-61ce-420a-ae30-d525b05be1d2,S
2020-02-29 03:32:55,09e3c255-61ce-420a-ae30-d525b05be1d2,A
2020-02-29 03:33:06,09e3c255-61ce-420a-ae30-d525b05be1d2,S
2020-02-29 03:40:07,09e3c255-61ce-420a-ae30-d525b05be1d2,A
2020-02-29 03:45:56,09e3c255-61ce-420a-ae30-d525b05be1d2,S
2020-02-29 04:06:38,09e3c255-61ce-420a-ae30-d525b05be1d2,A
2020-02-29 04:07:55,09e3c255-61ce-420a-ae30-d525b05be1d2,S
2020-02-29 04:19:49,09e3c255-61ce-420a-ae30-d525b05be1d2,A
2020-02-29 04:25:51,09e3c255-61ce-420a-ae30-d525b05be1d2,S
2020-02-29 04:27:32,09e3c255-61ce-420a-ae30-d525b05be1d2,A
2020-02-29 01:52:41,749ddea2-5647-4cee-99e3-1bfc820f8905,S
2020-02-29 01:53:03,749ddea2-5647-4cee-99e3-1bfc820f8905,A
2020-02-29 01:53:42,749ddea2-5647-4cee-99e3-1bfc820f8905,S
2020-02-29 01:54:01,749ddea2-5647-4cee-99e3-1bfc820f8905,A
2020-02-29 01:59:52,749ddea2-5647-4cee-99e3-1bfc820f8905,S
2020-02-29 02:06:51,749ddea2-5647-4cee-99e3-1bfc820f8905,A
2020-02-29 02:15:49,749ddea2-5647-4cee-99e3-1bfc820f8905,S
2020-02-29 02:17:29,749ddea2-5647-4cee-99e3-1bfc820f8905,A
2020-02-29 02:27:03,749ddea2-5647-4cee-99e3-1bfc820f8905,S
2020-02-29 02:34:31,749ddea2-5647-4cee-99e3-1bfc820f8905,A
2020-02-29 02:34:58,749ddea2-5647-4cee-99e3-1bfc820f8905,S
2020-02-29 02:35:28,749ddea2-5647-4cee-99e3-1bfc820f8905,A
2020-02-29 02:36:36,749ddea2-5647-4cee-99e3-1bfc820f8905,S
2020-02-29 02:40:51,749ddea2-5647-4cee-99e3-1bfc820f8905,A
2020-02-29 02:43:28,749ddea2-5647-4cee-99e3-1bfc820f8905,S
2020-02-29 02:57:22,749ddea2-5647-4cee-99e3-1bfc820f8905,A
2020-02-29 03:02:54,749ddea2-5647-4cee-99e3-1bfc820f8905,S
2020-02-29 03:06:17,749ddea2-5647-4cee-99e3-1bfc820f8905,A
2020-02-29 03:26:58,749ddea2-5647-4cee-99e3-1bfc820f8905,S
2020-02-29 03:29:39,749ddea2-5647-4cee-99e3-1bfc820f8905,A
2020-02-29 03:31:48,749ddea2-5647-4cee-99e3-1bfc820f8905,S
2020-02-29 03:35:15,749ddea2-5647-4cee-99e3-1bfc820f8905,A
2020-02-29 03:35:18,749ddea2-5647-4cee-99e3-1bfc820f8905,S
2020-02-29 03:36:40,749ddea2-5647-4cee-99e3-1bfc820f8905,A
2020-02-29 03:39:25,749ddea2-5647-4cee-99e3-1bfc820f8905,S
2020-02-29 03:40:20,749ddea2-5647-4cee-99e3-1bfc820f8905,A
2020-02-29 03:40:54,749ddea2-5647-4cee-99e3-1bfc820f8905,S
2020-02-29 03:44:29,749ddea2-5647-4cee-99e3-1bfc820f8905,A
2020-02-29 03:48:02,749ddea2-5647-4cee-99e3-1bfc820f8905,S
2020-02-29 03:54:26,749ddea2-5647-4cee-99e3-1bfc820f8905,A
2020-02-29 03:57:37,749ddea2-5647-4cee-99e3-1bfc820f8905,S
2020-02-29 04:00:40,749ddea2-5647-4cee-99e3-1bfc820f8905,A
2020-02-29 04:01:57,749ddea2-5647-4cee-99e3-1bfc820f8905,S
2020-02-29 04:08:52,749ddea2-5647-4cee-99e3-1bfc820f8905,A
2020-02-29 04:09:18,749ddea2-5647-4cee-99e3-1bfc820f8905,S
2020-02-29 04:15:06,749ddea2-5647-4cee-99e3-1bfc820f8905,A
2020-02-29 04:16:59,749ddea2-5647-4cee-99e3-1bfc820f8905,S
2020-02-29 04:17:28,749ddea2-5647-4cee-99e3-1bfc820f8905,A
2020-02-29 04:22:06,749ddea2-5647-4cee-99e3-1bfc820f8905,S
2020-02-29 04:23:18,749ddea2-5647-4cee-99e3-1bfc820f8905,A
2020-02-29 04:28:58,749ddea2-5647-4cee-99e3-1bfc820f8905,S
2020-02-29 04:31:00,749ddea2-5647-4cee-99e3-1bfc820f8905,A
2020-02-29 01:42:01,47766489-e606-49a7-96c3-1b9fd55fb256,A
2020-02-29 01:47:32,47766489-e606-49a7-96c3-1b9fd55fb256,S
2020-02-29 01:56:02,47766489-e606-49a7-96c3-1b9fd55fb256,A
2020-02-29 02:01:13,47766489-e606-49a7-96c3-1b9fd55fb256,S
2020-02-29 02:04:29,47766489-e606-49a7-96c3-1b9fd55fb256,A
2020-02-29 02:06:19,47766489-e606-49a7-96c3-1b9fd55fb256,S
2020-02-29 02:08:32,47766489-e606-49a7-96c3-1b9fd55fb256,A
2020-02-29 02:17:32,47766489-e606-49a7-96c3-1b9fd55fb256,S
2020-02-29 02:21:02,47766489-e606-49a7-96c3-1b9fd55fb256,A
2020-02-29 02:24:14,47766489-e606-49a7-96c3-1b9fd55fb256,S
2020-02-29 02:25:56,47766489-e606-49a7-96c3-1b9fd55fb256,A
2020-02-29 02:36:14,47766489-e606-49a7-96c3-1b9fd55fb256,S
2020-02-29 02:50:38,47766489-e606-49a7-96c3-1b9fd55fb256,A
2020-02-29 02:54:18,47766489-e606-49a7-96c3-1b9fd55fb256,S
2020-02-29 02:59:34,47766489-e606-49a7-96c3-1b9fd55fb256,A
2020-02-29 03:06:17,47766489-e606-49a7-96c3-1b9fd55fb256,S
2020-02-29 03:11:17,47766489-e606-49a7-96c3-1b9fd55fb256,A
2020-02-29 03:12:14,47766489-e606-49a7-96c3-1b9fd55fb256,S
2020-02-29 03:18:59,47766489-e606-49a7-96c3-1b9fd55fb256,A
2020-02-29 03:21:17,47766489-e606-49a7-96c3-1b9fd55fb256,S
2020-02-29 03:27:21,47766489-e606-49a7-96c3-1b9fd55fb256,A
2020-02-29 03:27:23,47766489-e606-49a7-96c3-1b9fd55fb256,S
2020-02-29 03:28:07,47766489-e606-49a7-96c3-1b9fd55fb256,A
2020-02-29 03:32:00,47766489-e606-49a7-96c3-1b9fd55fb256,S
2020-02-29 03:37:37,47766489-e606-49a7-96c3-1b9fd55fb256,A
2020-02-29 03:39:38,47766489-e606-49a7-96c3-1b9fd55fb256,S
2020-02-29 03:42:51,47766489-e606-49a7-96c3-1b9fd55fb256,A
2020-02-29 03:45:42,47766489-e606-49a7-96c3-1b9fd55fb256,S
2020-02-29 03:48:57,47766489-e606-49a7-96c3-1b9fd55fb256,A
2020-02-29 03:57:58,47766489-e606-49a7-96c3-1b9fd55fb256,S
2020-02-29 04:01:32,47766489-e606-49a7-96c3-1b9fd55fb256,A
2020-02-29 04:02:31,47766489-e606-49a7-96c3-1b9fd55fb256,S
2020-02-29 04:05:57,47766489-e606-49a7-96c3-1b9fd55fb256,A
2020-02-29 04:07:55,47766489-e606-49a7-96c3-1b9fd55fb256,S
2020-02-29 04:08:37,47766489-e606-49a7-96c3-1b9fd55fb256,A
2020-02-29 04:15:45,47766489-e606-49a7-96c3-1b9fd55fb256,S
2020-02-29 04:18:10,47766489-e606-49a7-96c3-1b9fd55fb256,A
2020-02-29 02:14:37,c35371b0-f968-410b-b392-31eb6ed5b87c,S
2020-02-29 02:15:04,c35371b0-f968-410b-b392-31eb6ed5b87c,A
2020-02-29 01:47:09,d5f2af27-daf0-4c1f-a643-95c37ce54e7a,S
2020-02-29 01:52:41,d5f2af27-daf0-4c1f-a643-95c37ce54e7a,A
2020-02-29 01:54:02,d5f2af27-daf0-4c1f-a643-95c37ce54e7a,S
2020-02-29 02:08:24,d5f2af27-daf0-4c1f-a643-95c37ce54e7a,A
2020-02-29 02:10:37,d5f2af27-daf0-4c1f-a643-95c37ce54e7a,S
2020-02-29 02:13:04,d5f2af27-daf0-4c1f-a643-95c37ce54e7a,A
2020-02-29 02:13:53,d5f2af27-daf0-4c1f-a643-95c37ce54e7a,S
2020-02-29 02:17:24,d5f2af27-daf0-4c1f-a643-95c37ce54e7a,A
2020-02-29 02:18:45,d5f2af27-daf0-4c1f-a643-95c37ce54e7a,S
2020-02-29 02:22:22,d5f2af27-daf0-4c1f-a643-95c37ce54e7a,A
2020-02-29 02:24:59,d5f2af27-daf0-4c1f-a643-95c37ce54e7a,S
2020-02-29 02:25:27,d5f2af27-daf0-4c1f-a643-95c37ce54e7a,A
2020-02-29 02:45:47,d5f2af27-daf0-4c1f-a643-95c37ce54e7a,S
2020-02-29 02:50:26,d5f2af27-daf0-4c1f-a643-95c37ce54e7a,A
2020-02-29 02:51:38,d5f2af27-daf0-4c1f-a643-95c37ce54e7a,S
2020-02-29 02:53:27,d5f2af27-daf0-4c1f-a643-95c37ce54e7a,A
2020-02-29 03:01:57,d5f2af27-daf0-4c1f-a643-95c37ce54e7a,S
2020-02-29 03:03:16,d5f2af27-daf0-4c1f-a643-95c37ce54e7a,A
2020-02-29 03:11:53,d5f2af27-daf0-4c1f-a643-95c37ce54e7a,A
2020-02-29 03:13:07,d5f2af27-daf0-4c1f-a643-95c37ce54e7a,S
2020-02-29 03:13:57,d5f2af27-daf0-4c1f-a643-95c37ce54e7a,A
2020-02-29 03:17:45,d5f2af27-daf0-4c1f-a643-95c37ce54e7a,S
2020-02-29 03:18:51,d5f2af27-daf0-4c1f-a643-95c37ce54e7a,A
2020-02-29 03:19:03,d5f2af27-daf0-4c1f-a643-95c37ce54e7a,S
2020-02-29 03:24:36,d5f2af27-daf0-4c1f-a643-95c37ce54e7a,A
2020-02-29 03:29:55,d5f2af27-daf0-4c1f-a643-95c37ce54e7a,S
2020-02-29 03:42:10,d5f2af27-daf0-4c1f-a643-95c37ce54e7a,A
2020-02-29 03:42:26,d5f2af27-daf0-4c1f-a643-95c37ce54e7a,S
2020-02-29 03:46:36,d5f2af27-daf0-4c1f-a643-95c37ce54e7a,A
2020-02-29 03:56:13,d5f2af27-daf0-4c1f-a643-95c37ce54e7a,S
2020-02-29 04:08:18,d5f2af27-daf0-4c1f-a643-95c37ce54e7a,A
2020-02-29 04:11:47,d5f2af27-daf0-4c1f-a643-95c37ce54e7a,S
2020-02-29 04:16:10,d5f2af27-daf0-4c1f-a643-95c37ce54e7a,A
2020-02-29 04:17:34,d5f2af27-daf0-4c1f-a643-95c37ce54e7a,S
2020-02-29 04:18:10,d5f2af27-daf0-4c1f-a643-95c37ce54e7a,A
2020-02-29 04:25:10,d5f2af27-daf0-4c1f-a643-95c37ce54e7a,S
2020-02-29 04:26:39,d5f2af27-daf0-4c1f-a643-95c37ce54e7a,A
2020-02-29 04:27:11,d5f2af27-daf0-4c1f-a643-95c37ce54e7a,S
2020-02-29 04:31:40,d5f2af27-daf0-4c1f-a643-95c37ce54e7a,A
