app_number,app_id,trigger,burn,sink,deploy_date,token_interval
1,9448eaf9-39d8-4fa2-8e79-691ac0763350,595a27f9-d975-41b4-a434-cc98d7b39e8b,1a4bc14e-350e-415a-96a0-89f8ac73e9d9,5e6ad6c6-a310-4570-ae0f-df12cacf8a88,2019-12-21 00:08:05,2.000000
2,7e9040d5-24b5-4777-82b6-d4bc1a5174ec,7ad291dc-d662-491c-90d3-a48d8e4e199a,b09f4aa5-39fc-4e5b-8f9e-2e29a0c9d387,91ecd7bf-52b9-410a-90b6-e118670233d5,2019-12-21 00:09:08,2.000000
3,0e74abaf-1a3b-4cac-afb3-09052cd722e0,d0af2976-f020-478a-89cc-6e12eaeedf85,820ab867-c7e1-4532-aea8-09984a42d4ed,0ca89bf0-37aa-49a0-b4b7-8f644e19a550,2019-12-21 00:10:10,2.000000
4,197ead83-e28c-4975-8a8f-0f1013727374,2cae8aec-8519-4e64-be13-1fadaf97e353,1aed6d11-380d-426c-8e37-20af26f97e86,7e18e415-09d1-4356-aaca-734872641bd9,2019-12-21 00:11:13,1.000000
5,d414bbad-1e81-4329-8ada-91f055072a98,d8d4d54f-7f25-457a-a5fa-227f58e79908,0a22cb0f-607b-4fdd-ae6f-19cd871a4ed2,a90a4ed4-f591-41f1-881e-11f660c617ed,2019-12-21 00:12:16,1.000000
6,3c7f6f36-004e-462a-82d3-2d88f4d3a907,33d7bb0f-33ed-434a-b207-84d4141bb252,e0c10e24-0e23-4bb6-9c9f-20a3d801f046,41df5901-62ab-468a-8048-04b06b64cbe0,2019-12-21 00:13:19,1.000000
7,a51682fc-a9f1-4164-88fa-aeb8325d86ef,79ffd4cd-6bd2-4d0a-9d61-e1be011820e7,cb62e6f9-3856-489e-8748-d34d874d8cbb,ca7c700b-69dc-4391-97dc-03459b402f3e,2019-12-21 00:14:22,1.000000
8,2df747cb-f96b-489f-991f-3f36e2dc1eee,dfdab218-fce9-4a55-81e0-d2c531373fbc,3f96ab4f-2aa5-4038-8408-8d349a147bb4,58db30c4-368a-4a07-95f4-baedc3aa6368,2019-12-21 00:15:25,2.000000
9,afa151c6-23c1-40c0-b92f-869e5d43eba9,7acf1631-7bbe-4bdb-b891-fca8af6bfe98,69895153-6502-4695-937f-90f8ed46e1bf,a5e10238-4f58-4085-ae31-aea0e793bdd2,2019-12-21 00:16:27,1.000000
10,7295a7fd-d182-41ea-9ed3-005e24a73808,f4e4cdc3-91cd-4c4e-b23c-4be55552bd8b,9e5856c3-f17c-4ee2-b2a3-8873aff3ba80,942fb416-c0ef-4392-9f25-41eec6db60e7,2019-12-21 00:17:30,1.000000
11,65bc985d-fd4b-44b9-a7c8-b82587c94653,485e3d87-0f95-434c-854d-d88120a329ee,fccc02b6-ed2f-4b63-b6d9-c7c33208a7aa,e410cec5-dff1-4a8f-a7d6-7aa429610579,2019-12-21 00:18:33,1.000000
12,620f9764-c6b2-47ae-99be-a6a58f7d7b53,1ffb5cd4-dd0b-49ec-91a0-6e02717355c9,57ee5468-c962-450c-b73b-e948919ff7d4,4347eb50-07fa-4ac6-a153-946694547e73,2019-12-21 00:19:36,2.000000
13,af32884c-346b-4b67-b189-a6df881a7c95,e47cccab-6d24-4410-b82b-025ed0fef015,378d77ff-c4b2-4e2e-a207-75abffe4e5ad,3e28a058-2cd6-4bc8-a375-cebd164cf58e,2019-12-21 00:20:38,1.000000
14,fb629378-1899-48c9-8c26-ab5786249303,dc68467f-6392-4eab-b453-25f47492a114,529a28f6-3fd3-43da-8f71-a8d989df4625,2c4a8cbb-e287-4d9e-80e7-6bc56626ff7a,2019-12-21 00:21:41,1.000000
15,5a274828-1a99-4f0c-84ec-4856c0f863c6,1cefc00e-c0c0-48b4-9d3c-a5aeba426a8e,64f699f1-93c2-47e8-bec4-9ecbb2c565f5,7f40cbef-752e-4e86-a6ed-9022466a08f2,2019-12-21 00:22:44,2.000000
16,0d0364af-ca0f-4d02-883e-8e712b6ed5db,85c00e09-7e01-4015-a98c-f984bad6338b,a1499760-aa8a-4c54-81f0-b72c0d5e2199,92c5e01a-f543-4346-ab13-e49f817ba8f8,2019-12-21 00:23:47,2.000000
17,435b49b6-f07f-4e36-a603-e5b377c56131,fc365e70-f670-421b-9a95-2d5cc477f0a5,885b7294-f3ac-4f0d-884e-4a5d5c4f5f5d,f55ad00a-0b41-47c9-b6bb-bbeb028a2d71,2019-12-21 00:24:50,1.000000
18,abef1bae-7d68-4cb3-a6ae-b3267cca8102,ef29d7a1-20ab-4cf5-9304-f7e692e97dc3,7cb84962-2ea9-458e-9b10-3316d78bae57,b87971a9-24c9-4224-9cb1-270dcaf6bc31,2019-12-21 00:25:53,2.000000
19,89f0f2d9-7552-43e7-95cf-05db222a57fe,3983536a-cd5f-436a-8c5f-1ad224bb04a3,fdefc27d-3a31-4e68-950d-d0e44e5fee56,f326175c-9759-4f54-9ad1-00c240963e83,2019-12-21 00:26:56,1.000000
20,4341fa5d-34ab-4ba9-90eb-0638c21489a2,c33b8f63-407d-47d5-a6c6-43fade7dadd4,eb28c94c-ddae-4b85-a307-be2ff6e31186,a3678038-4a72-41ad-be89-556dede46c43,2019-12-21 00:27:59,2.000000
21,1c1bc701-5330-4523-a376-aaebcb774f46,50dd397b-b3b2-45d2-9fb4-20796de0a916,05b76628-e6d3-4596-98cc-1b7680da06fa,0b0bcad5-7e62-4ab5-85d5-525d7463608f,2019-12-21 00:29:01,1.000000
22,422b9c4f-09ae-4030-9227-a8b23c48bac2,d31c078d-9117-4d59-b9a7-a9c976be82e9,27c79c61-8c18-4d5e-a4d0-cbebc86612d7,a960e057-e0d4-48c1-bdab-ef6dbf30fc24,2019-12-21 00:30:04,1.000000
23,98df2f32-b1d7-4206-b829-83f0056df7f4,6a6d6c10-1bb1-43ab-83f1-8f70822a9f0a,3abbfe72-94c6-42d3-86c2-f969ebc27fdf,fef8761f-6c94-483d-a665-e73fefc69825,2019-12-21 00:31:07,1.000000
24,f1a2ed40-6413-4722-bb0b-9215df204399,086a59b7-7878-42b3-b46a-2adbc12dd2ed,686d5c49-4ba2-401f-ad4f-8707a48e6e4d,a426c1cd-0daf-40cb-b46b-2e078d02538f,2019-12-21 00:32:10,2.000000
25,9260c372-6603-4868-b259-c2798174b4d1,1f0d982e-0200-49d2-a359-f8ba26001dd6,7f2efb8e-dec1-4e66-8803-d18d669878b0,bdd6ab72-3820-4f8f-b996-5d276580542b,2019-12-21 00:33:13,2.000000
26,d245dedf-0707-4d6d-92f3-963a83f4c0dc,7344d42b-fc78-462a-8ab0-78a5eef9e694,d14fc7a4-624f-4d86-9588-48a033084cd1,dd5178c9-8504-49e6-ac9d-dc2dece266b9,2019-12-21 00:34:15,2.000000
27,080730be-0032-4087-a2e2-6bf818af0576,8411af3c-d452-4ccc-a4d3-1c2cbb15f735,784fb2fd-7c21-4854-8b58-9861b62c189f,254de998-71f6-47f2-8fc7-cd520ef08c6c,2019-12-21 00:35:18,1.000000
28,a7518572-1e3b-4c69-9f0e-d239958dc939,65f1c55c-6cb9-400b-b1ed-bd8fcdb654c8,ae400e01-6dee-4eba-9fb2-671bb1c5f78e,e8a1b678-8f0f-4b9d-bc89-3aff4371fca6,2019-12-21 00:36:20,2.000000
29,85d0c78a-d909-47c7-968f-f9911689ee01,11745f5b-266e-4beb-a873-7812b4d895db,6e5310b9-444e-4a48-9d28-59c8fa1e44ff,e2a901f9-b971-49a0-8cb8-a76e8724e58d,2019-12-21 00:37:23,2.000000
30,1873d3ec-b971-46be-8f3b-8569c58b398d,55feb7c3-4458-40c6-8a63-b35d11792220,49e6c31a-d232-45cf-85fc-0474ec77086f,7141b8eb-fd24-4073-aafd-065525c08860,2019-12-21 00:38:26,2.000000
31,6c0ca7b3-4887-4bf7-8d36-32a44be74d26,9b4cad5b-198d-486d-94fe-53466fd6a0ec,0b5bef01-3ef3-406f-b008-4bfad1cc804c,822c0cd1-b196-4124-97d0-ce758cce4589,2019-12-21 00:39:29,2.000000
32,4a7ee564-176c-47a2-950a-ddfa67dbbec8,5d894b5e-67c6-4935-81cb-769885489549,fb178995-396f-42b4-8077-2a75e6b08cb1,b468f659-cc97-48ae-a91d-e42d99c1df6d,2019-12-21 00:40:32,1.000000
33,4f12fb6a-195d-434b-8ef2-6753c1265fe5,f2d5ede1-ac2f-49c4-9bf4-7f9d97fed5d5,bffda327-ded8-458c-ba7f-9b3860b3b03a,27db6c6b-cb35-424e-aba9-5d90424f8ba6,2019-12-21 00:41:35,2.000000
34,07262fab-3832-42bf-8d4e-a6e2d58d46b4,4474e11e-4542-4dd8-9643-4f00bd9f24a3,457874e2-65a6-49d1-914d-7b4448694e4a,e99db826-2788-47af-bc6f-c57ddf2339f7,2019-12-21 00:42:37,1.000000
35,9d7a3e32-3162-4fc8-8c6f-3009453ad761,949f2c1b-3b58-454f-8732-04af283208bc,9d03e29d-75c8-493b-9e4b-90d231165da7,31eb43af-2655-4702-b69e-a70df163738f,2019-12-21 00:43:40,2.000000
36,f9b10b34-993e-4b8a-8be3-dc04f12403e4,1e13b207-7201-4479-9629-ffe6ef71cca5,318c2095-883e-4de4-911e-cf4cd57dd435,c1cce19d-8f68-4708-9121-3fc74782475a,2019-12-21 00:44:43,1.000000
37,b9626b28-0455-49b1-90a0-3fbc0b66048e,63a4ad7c-1cd0-45ce-9038-670e65d6de3f,53a660c5-8649-4063-87df-8da8dab77f72,42266ce1-7051-4288-ae51-345eca125d82,2019-12-21 00:45:46,2.000000
38,8cc9be1a-d615-4ef8-a191-7f3e2c9642e2,efc41dde-61a2-4ae8-bef8-0d5f622c4c74,a08ebb15-ab55-4e96-9b8d-c502a57a2928,8c9c76d3-3017-4f7c-a63f-9247c33bdd44,2019-12-21 00:46:49,2.000000
39,065d1e5d-949b-4ffd-8e72-c7ad9e712339,7120bec9-e225-4e1e-996b-1642483b1f09,14e419a7-cfae-4383-85b1-7fdd3dcafdca,3f551fd7-0c10-491d-a1f2-711dc2aede61,2019-12-21 00:47:51,1.000000
40,aa131074-699e-455f-ae58-c96cd973d4bc,86b5c093-c85e-448c-8ba1-efb7b4345a7b,ea3788f2-c573-460d-8a7d-37144b03d25b,2d78fa0a-a385-4e11-8aef-8eff1fa9748e,2019-12-21 00:48:54,1.000000
41,0b812a94-50f7-472a-b74a-1d36c53a3083,e7f52c8e-076f-4805-8039-034206aa508a,8028a04b-6c56-4449-b48e-fed69362a63f,04c98ccd-2d62-48bb-ac43-2dc51485f926,2019-12-21 00:49:57,2.000000
42,28734eef-a9a3-4731-b084-85e7203af5c5,9879e61a-8fbc-4392-8e76-5cce7297b1f9,417d9d0d-9cbc-4675-bb30-b162c1ee5ce7,ed9489ad-2f68-44c1-bce6-1f488730209e,2019-12-21 00:51:00,1.000000
43,bfd66390-604e-465b-85dc-644a18b471a9,81fb9e06-af12-4fc5-a365-37559fa07066,37e10f44-cc23-4add-853d-1d07acc45163,a60464f9-ecd0-4c49-ae59-50ed5c19dd29,2019-12-21 00:52:03,1.000000
44,6470a4d8-3101-41fb-899a-1fb8beb48f61,dc5832fc-01b0-4e16-a487-73b26688990b,8ba82b84-e47e-4e94-8479-36060fa143f9,a42bc74d-58b8-445a-b1f4-fd7457bde182,2019-12-21 00:53:06,1.000000
45,7cb7b78d-a6d1-44b7-935e-226559af6f72,b396c7a2-9558-47ec-b0d1-a4764579356e,f6c7a3be-c7ac-48cb-8dd3-0f48193ea591,e68c4ad1-3691-4cd8-901c-eb32b4613e8a,2019-12-21 00:54:08,2.000000
46,411aec31-1aa2-484d-a83a-e0e46e8c9e83,7ed908e8-1b41-47e3-9625-1b95fafae6f0,fcf34546-7185-4699-87e2-e0f16158ba9c,cfdeacbc-c6c3-4a73-85ab-7265e8e4e81a,2019-12-21 00:55:11,1.000000
47,2e9695fb-3acd-4b7a-b8d3-a6e39cddac7b,4f349ba2-ed61-4a13-8cb6-d0110388e2a7,f3ed96e1-af20-461c-b96a-9311ac4a152f,cdeb28bb-1273-43af-9086-71b36d79dbef,2019-12-21 00:56:14,1.000000
48,4a04bc94-4a9c-4dec-b84e-f67ee075363f,435e3d68-312b-4aa2-9427-195af0e75870,f1736b95-5554-400c-9f58-c28be29906d4,4f00e45a-07dd-4a25-9cb3-41e69e26b380,2019-12-21 00:57:17,2.000000
49,66d9c044-b2b8-488e-a735-bb3adc981333,c4f51cf2-9e3c-4193-9b97-af2ae3635fa3,4bc19cf8-ffa3-4aa8-87ec-4e42179739bf,4a9ceba0-f6e7-4e2f-b624-94eb36abc8c1,2019-12-21 00:58:20,1.000000
50,16ab1380-8e00-4cee-9cce-1c5823150f57,953f01e6-5a4b-498e-81a1-2ca075ccd4c7,63f354ef-31b4-4615-a55f-59936a766728,8dc0a5d6-5858-4825-9bb1-3d942034d46c,2019-12-21 00:59:23,2.000000
