date,trigger,state
2019-03-27 00:21:28,11b10c22-ecaf-4be6-8718-9dfab5caa224,S
2019-03-27 00:29:35,11b10c22-ecaf-4be6-8718-9dfab5caa224,A
2019-03-27 00:33:02,11b10c22-ecaf-4be6-8718-9dfab5caa224,S
2019-03-27 00:40:23,11b10c22-ecaf-4be6-8718-9dfab5caa224,A
2019-03-27 00:40:27,11b10c22-ecaf-4be6-8718-9dfab5caa224,S
2019-03-27 00:47:58,11b10c22-ecaf-4be6-8718-9dfab5caa224,A
2019-03-27 00:50:24,11b10c22-ecaf-4be6-8718-9dfab5caa224,S
2019-03-27 00:57:54,11b10c22-ecaf-4be6-8718-9dfab5caa224,A
2019-03-27 00:59:20,11b10c22-ecaf-4be6-8718-9dfab5caa224,S
2019-03-27 01:06:11,11b10c22-ecaf-4be6-8718-9dfab5caa224,A
2019-03-27 01:12:05,11b10c22-ecaf-4be6-8718-9dfab5caa224,S
2019-03-27 01:23:13,11b10c22-ecaf-4be6-8718-9dfab5caa224,A
2019-03-27 01:33:20,11b10c22-ecaf-4be6-8718-9dfab5caa224,S
2019-03-27 01:33:25,11b10c22-ecaf-4be6-8718-9dfab5caa224,A
2019-03-27 01:35:35,11b10c22-ecaf-4be6-8718-9dfab5caa224,S
2019-03-27 01:39:57,11b10c22-ecaf-4be6-8718-9dfab5caa224,A
2019-03-27 01:46:23,11b10c22-ecaf-4be6-8718-9dfab5caa224,S
2019-03-27 01:46:53,11b10c22-ecaf-4be6-8718-9dfab5caa224,A
2019-03-27 01:47:03,11b10c22-ecaf-4be6-8718-9dfab5caa224,S
2019-03-27 01:47:17,11b10c22-ecaf-4be6-8718-9dfab5caa224,A
2019-03-27 01:50:13,11b10c22-ecaf-4be6-8718-9dfab5caa224,S
2019-03-27 01:58:25,11b10c22-ecaf-4be6-8718-9dfab5caa224,A
2019-03-27 02:12:27,11b10c22-ecaf-4be6-8718-9dfab5caa224,S
2019-03-27 02:14:16,11b10c22-ecaf-4be6-8718-9dfab5caa224,A
2019-03-27 02:15:32,11b10c22-ecaf-4be6-8718-9dfab5caa224,S
2019-03-27 02:20:19,11b10c22-ecaf-4be6-8718-9dfab5caa224,A
2019-03-27 00:58:37,e14bb5d7-b1ff-445f-93c8-f965c8bcb0fc,A
2019-03-27 01:01:35,e14bb5d7-b1ff-445f-93c8-f965c8bcb0fc,S
2019-03-27 01:09:17,e14bb5d7-b1ff-445f-93c8-f965c8bcb0fc,A
2019-03-27 01:12:36,e14bb5d7-b1ff-445f-93c8-f965c8bcb0fc,S
2019-03-27 01:13:03,e14bb5d7-b1ff-445f-93c8-f965c8bcb0fc,A
2019-03-27 01:25:37,e14bb5d7-b1ff-445f-93c8-f965c8bcb0fc,S
2019-03-27 01:32:54,e14bb5d7-b1ff-445f-93c8-f965c8bcb0fc,A
2019-03-27 01:40:32,e14bb5d7-b1ff-445f-93c8-f965c8bcb0fc,S
2019-03-27 01:41:26,e14bb5d7-b1ff-445f-93c8-f965c8bcb0fc,A
2019-03-27 01:52:03,e14bb5d7-b1ff-445f-93c8-f965c8bcb0fc,S
2019-03-27 01:53:06,e14bb5d7-b1ff-445f-93c8-f965c8bcb0fc,A
2019-03-27 01:55:53,e14bb5d7-b1ff-445f-93c8-f965c8bcb0fc,S
2019-03-27 02:01:24,e14bb5d7-b1ff-445f-93c8-f965c8bcb0fc,A
2019-03-27 02:04:08,e14bb5d7-b1ff-445f-93c8-f965c8bcb0fc,S
2019-03-27 02:14:21,e14bb5d7-b1ff-445f-93c8-f965c8bcb0fc,A
2019-03-27 02:19:12,e14bb5d7-b1ff-445f-93c8-f965c8bcb0fc,S
2019-03-27 01:08:59,f4b01fdc-6c16-42ea-8c8a-30ccd6ed7c16,S
2019-03-27 01:10:17,f4b01fdc-6c16-42ea-8c8a-30ccd6ed7c16,A
2019-03-27 01:12:29,f4b01fdc-6c16-42ea-8c8a-30ccd6ed7c16,S
2019-03-27 01:16:04,f4b01fdc-6c16-42ea-8c8a-30ccd6ed7c16,A
2019-03-27 01:16:59,f4b01fdc-6c16-42ea-8c8a-30ccd6ed7c16,S
2019-03-27 01:17:19,f4b01fdc-6c16-42ea-8c8a-30ccd6ed7c16,A
2019-03-27 01:24:16,f4b01fdc-6c16-42ea-8c8a-30ccd6ed7c16,S
2019-03-27 01:33:05,f4b01fdc-6c16-42ea-8c8a-30ccd6ed7c16,A
2019-03-27 01:35:14,f4b01fdc-6c16-42ea-8c8a-30ccd6ed7c16,S
2019-03-27 01:47:38,f4b01fdc-6c16-42ea-8c8a-30ccd6ed7c16,A
2019-03-27 01:48:17,f4b01fdc-6c16-42ea-8c8a-30ccd6ed7c16,S
2019-03-27 01:55:00,f4b01fdc-6c16-42ea-8c8a-30ccd6ed7c16,A
2019-03-27 00:40:22,0b2cc42c-4571-428f-8e36-be614059bc0a,S
2019-03-27 00:41:09,0b2cc42c-4571-428f-8e36-be614059bc0a,A
2019-03-27 00:43:59,0b2cc42c-4571-428f-8e36-be614059bc0a,S
2019-03-27 00:49:01,0b2cc42c-4571-428f-8e36-be614059bc0a,A
2019-03-27 00:53:33,0b2cc42c-4571-428f-8e36-be614059bc0a,S
2019-03-27 01:06:14,0b2cc42c-4571-428f-8e36-be614059bc0a,A
2019-03-27 01:09:19,0b2cc42c-4571-428f-8e36-be614059bc0a,S
2019-03-27 01:11:25,0b2cc42c-4571-428f-8e36-be614059bc0a,A
2019-03-27 01:23:18,0b2cc42c-4571-428f-8e36-be614059bc0a,S
2019-03-27 01:27:44,0b2cc42c-4571-428f-8e36-be614059bc0a,A
2019-03-27 01:31:24,0b2cc42c-4571-428f-8e36-be614059bc0a,S
2019-03-27 01:38:55,0b2cc42c-4571-428f-8e36-be614059bc0a,A
2019-03-27 01:45:09,0b2cc42c-4571-428f-8e36-be614059bc0a,S
2019-03-27 01:46:18,0b2cc42c-4571-428f-8e36-be614059bc0a,A
2019-03-27 02:00:11,0b2cc42c-4571-428f-8e36-be614059bc0a,S
2019-03-27 02:01:08,0b2cc42c-4571-428f-8e36-be614059bc0a,A
2019-03-27 02:06:58,0b2cc42c-4571-428f-8e36-be614059bc0a,S
2019-03-27 02:12:23,0b2cc42c-4571-428f-8e36-be614059bc0a,A
2019-03-27 02:16:39,0b2cc42c-4571-428f-8e36-be614059bc0a,S
2019-03-27 02:18:08,0b2cc42c-4571-428f-8e36-be614059bc0a,A
2019-03-27 02:20:25,0b2cc42c-4571-428f-8e36-be614059bc0a,S
2019-03-27 02:21:08,0b2cc42c-4571-428f-8e36-be614059bc0a,A
2019-03-27 00:37:53,68ae20e9-3e1c-4d5b-9fba-87ebc022d15e,S
2019-03-27 00:41:26,68ae20e9-3e1c-4d5b-9fba-87ebc022d15e,A
2019-03-27 00:41:40,68ae20e9-3e1c-4d5b-9fba-87ebc022d15e,S
2019-03-27 00:50:20,68ae20e9-3e1c-4d5b-9fba-87ebc022d15e,A
2019-03-27 01:05:48,68ae20e9-3e1c-4d5b-9fba-87ebc022d15e,S
2019-03-27 01:06:32,68ae20e9-3e1c-4d5b-9fba-87ebc022d15e,A
2019-03-27 01:16:20,68ae20e9-3e1c-4d5b-9fba-87ebc022d15e,S
2019-03-27 01:21:53,68ae20e9-3e1c-4d5b-9fba-87ebc022d15e,A
2019-03-27 01:22:05,68ae20e9-3e1c-4d5b-9fba-87ebc022d15e,S
2019-03-27 01:47:18,68ae20e9-3e1c-4d5b-9fba-87ebc022d15e,A
2019-03-27 01:52:15,68ae20e9-3e1c-4d5b-9fba-87ebc022d15e,S
2019-03-27 01:54:16,68ae20e9-3e1c-4d5b-9fba-87ebc022d15e,A
2019-03-27 02:02:38,68ae20e9-3e1c-4d5b-9fba-87ebc022d15e,S
2019-03-27 02:05:48,68ae20e9-3e1c-4d5b-9fba-87ebc022d15e,A
2019-03-27 02:11:44,68ae20e9-3e1c-4d5b-9fba-87ebc022d15e,S
2019-03-27 02:13:27,68ae20e9-3e1c-4d5b-9fba-87ebc022d15e,A
2019-03-27 02:15:58,68ae20e9-3e1c-4d5b-9fba-87ebc022d15e,S
2019-03-27 02:20:27,68ae20e9-3e1c-4d5b-9fba-87ebc022d15e,A
2019-03-27 02:22:01,68ae20e9-3e1c-4d5b-9fba-87ebc022d15e,S
2019-03-27 00:48:45,65329799-50dd-41fa-a6e6-56e80b3b306b,A
2019-03-27 00:50:50,65329799-50dd-41fa-a6e6-56e80b3b306b,S
2019-03-27 00:52:08,65329799-50dd-41fa-a6e6-56e80b3b306b,A
2019-03-27 00:52:43,65329799-50dd-41fa-a6e6-56e80b3b306b,S
2019-03-27 01:17:18,65329799-50dd-41fa-a6e6-56e80b3b306b,A
2019-03-27 01:28:29,65329799-50dd-41fa-a6e6-56e80b3b306b,S
2019-03-27 01:30:20,65329799-50dd-41fa-a6e6-56e80b3b306b,A
2019-03-27 01:31:53,65329799-50dd-41fa-a6e6-56e80b3b306b,S
2019-03-27 01:33:56,65329799-50dd-41fa-a6e6-56e80b3b306b,A
2019-03-27 01:34:42,65329799-50dd-41fa-a6e6-56e80b3b306b,S
2019-03-27 01:36:08,65329799-50dd-41fa-a6e6-56e80b3b306b,A
2019-03-27 01:36:43,65329799-50dd-41fa-a6e6-56e80b3b306b,S
2019-03-27 01:37:49,65329799-50dd-41fa-a6e6-56e80b3b306b,A
2019-03-27 01:47:22,65329799-50dd-41fa-a6e6-56e80b3b306b,S
2019-03-27 01:50:25,65329799-50dd-41fa-a6e6-56e80b3b306b,A
2019-03-27 01:57:29,65329799-50dd-41fa-a6e6-56e80b3b306b,S
2019-03-27 02:12:15,65329799-50dd-41fa-a6e6-56e80b3b306b,A
2019-03-27 02:13:10,65329799-50dd-41fa-a6e6-56e80b3b306b,S
2019-03-27 02:14:09,65329799-50dd-41fa-a6e6-56e80b3b306b,A
2019-03-27 00:31:06,636fce33-45ae-4251-a740-54da97700c87,S
2019-03-27 00:45:18,636fce33-45ae-4251-a740-54da97700c87,A
2019-03-27 00:46:44,636fce33-45ae-4251-a740-54da97700c87,S
2019-03-27 00:55:44,636fce33-45ae-4251-a740-54da97700c87,A
2019-03-27 01:05:08,636fce33-45ae-4251-a740-54da97700c87,S
2019-03-27 01:05:22,636fce33-45ae-4251-a740-54da97700c87,A
2019-03-27 01:07:47,636fce33-45ae-4251-a740-54da97700c87,S
2019-03-27 01:14:43,636fce33-45ae-4251-a740-54da97700c87,A
2019-03-27 01:15:26,636fce33-45ae-4251-a740-54da97700c87,S
2019-03-27 01:17:08,636fce33-45ae-4251-a740-54da97700c87,A
2019-03-27 01:19:21,636fce33-45ae-4251-a740-54da97700c87,S
2019-03-27 01:31:10,636fce33-45ae-4251-a740-54da97700c87,A
2019-03-27 01:33:35,636fce33-45ae-4251-a740-54da97700c87,S
2019-03-27 01:49:20,636fce33-45ae-4251-a740-54da97700c87,A
2019-03-27 02:02:36,636fce33-45ae-4251-a740-54da97700c87,S
2019-03-27 02:05:10,636fce33-45ae-4251-a740-54da97700c87,A
2019-03-27 02:08:48,636fce33-45ae-4251-a740-54da97700c87,S
2019-03-27 02:13:09,636fce33-45ae-4251-a740-54da97700c87,A
2019-03-27 02:13:28,636fce33-45ae-4251-a740-54da97700c87,S
2019-03-27 02:16:37,636fce33-45ae-4251-a740-54da97700c87,A
2019-03-27 02:17:55,636fce33-45ae-4251-a740-54da97700c87,S
2019-03-27 00:31:34,77df0176-b8a5-471b-afc8-b08885239398,A
2019-03-27 00:48:17,77df0176-b8a5-471b-afc8-b08885239398,S
2019-03-27 00:51:08,77df0176-b8a5-471b-afc8-b08885239398,A
2019-03-27 00:56:50,77df0176-b8a5-471b-afc8-b08885239398,S
2019-03-27 00:58:33,77df0176-b8a5-471b-afc8-b08885239398,A
2019-03-27 00:59:34,77df0176-b8a5-471b-afc8-b08885239398,S
2019-03-27 01:01:35,77df0176-b8a5-471b-afc8-b08885239398,A
2019-03-27 01:04:41,77df0176-b8a5-471b-afc8-b08885239398,S
2019-03-27 01:06:40,77df0176-b8a5-471b-afc8-b08885239398,A
2019-03-27 01:19:21,77df0176-b8a5-471b-afc8-b08885239398,S
2019-03-27 01:29:02,77df0176-b8a5-471b-afc8-b08885239398,A
2019-03-27 01:42:51,77df0176-b8a5-471b-afc8-b08885239398,S
2019-03-27 01:48:48,77df0176-b8a5-471b-afc8-b08885239398,A
2019-03-27 01:53:32,77df0176-b8a5-471b-afc8-b08885239398,S
2019-03-27 01:53:38,77df0176-b8a5-471b-afc8-b08885239398,A
2019-03-27 01:55:38,77df0176-b8a5-471b-afc8-b08885239398,S
2019-03-27 01:56:10,77df0176-b8a5-471b-afc8-b08885239398,A
2019-03-27 02:00:21,77df0176-b8a5-471b-afc8-b08885239398,S
2019-03-27 02:04:36,77df0176-b8a5-471b-afc8-b08885239398,A
2019-03-27 02:05:19,77df0176-b8a5-471b-afc8-b08885239398,S
2019-03-27 02:15:59,77df0176-b8a5-471b-afc8-b08885239398,A
2019-03-27 02:21:02,77df0176-b8a5-471b-afc8-b08885239398,S
2019-03-27 01:00:16,ee66672a-e966-472b-a45e-b91ee01891fd,S
2019-03-27 01:01:41,ee66672a-e966-472b-a45e-b91ee01891fd,A
2019-03-27 01:01:58,ee66672a-e966-472b-a45e-b91ee01891fd,S
2019-03-27 01:04:13,ee66672a-e966-472b-a45e-b91ee01891fd,A
2019-03-27 01:08:12,ee66672a-e966-472b-a45e-b91ee01891fd,S
2019-03-27 01:12:50,ee66672a-e966-472b-a45e-b91ee01891fd,A
2019-03-27 01:13:18,ee66672a-e966-472b-a45e-b91ee01891fd,S
2019-03-27 01:19:36,ee66672a-e966-472b-a45e-b91ee01891fd,A
2019-03-27 01:25:23,ee66672a-e966-472b-a45e-b91ee01891fd,S
2019-03-27 01:38:38,ee66672a-e966-472b-a45e-b91ee01891fd,A
2019-03-27 01:45:34,ee66672a-e966-472b-a45e-b91ee01891fd,S
2019-03-27 01:45:35,ee66672a-e966-472b-a45e-b91ee01891fd,A
2019-03-27 01:54:27,ee66672a-e966-472b-a45e-b91ee01891fd,S
2019-03-27 01:56:07,ee66672a-e966-472b-a45e-b91ee01891fd,A
2019-03-27 01:56:12,ee66672a-e966-472b-a45e-b91ee01891fd,S
2019-03-27 02:02:43,ee66672a-e966-472b-a45e-b91ee01891fd,A
2019-03-27 02:08:57,ee66672a-e966-472b-a45e-b91ee01891fd,S
2019-03-27 02:18:18,ee66672a-e966-472b-a45e-b91ee01891fd,A
2019-03-27 00:38:55,0a30022f-c8de-43df-a1be-2ea0ead45e8d,S
2019-03-27 00:39:25,0a30022f-c8de-43df-a1be-2ea0ead45e8d,A
2019-03-27 00:45:45,0a30022f-c8de-43df-a1be-2ea0ead45e8d,S
2019-03-27 00:45:56,0a30022f-c8de-43df-a1be-2ea0ead45e8d,A
2019-03-27 00:59:55,0a30022f-c8de-43df-a1be-2ea0ead45e8d,S
2019-03-27 01:00:53,0a30022f-c8de-43df-a1be-2ea0ead45e8d,A
2019-03-27 01:04:30,0a30022f-c8de-43df-a1be-2ea0ead45e8d,S
2019-03-27 01:05:07,0a30022f-c8de-43df-a1be-2ea0ead45e8d,A
2019-03-27 01:05:15,0a30022f-c8de-43df-a1be-2ea0ead45e8d,S
2019-03-27 01:09:40,0a30022f-c8de-43df-a1be-2ea0ead45e8d,A
2019-03-27 01:15:53,0a30022f-c8de-43df-a1be-2ea0ead45e8d,S
2019-03-27 01:16:20,0a30022f-c8de-43df-a1be-2ea0ead45e8d,A
2019-03-27 01:25:54,0a30022f-c8de-43df-a1be-2ea0ead45e8d,S
2019-03-27 01:28:38,0a30022f-c8de-43df-a1be-2ea0ead45e8d,A
2019-03-27 01:29:26,0a30022f-c8de-43df-a1be-2ea0ead45e8d,S
2019-03-27 01:38:15,0a30022f-c8de-43df-a1be-2ea0ead45e8d,A
2019-03-27 01:54:29,0a30022f-c8de-43df-a1be-2ea0ead45e8d,S
2019-03-27 01:54:45,0a30022f-c8de-43df-a1be-2ea0ead45e8d,A
2019-03-27 01:57:41,0a30022f-c8de-43df-a1be-2ea0ead45e8d,S
2019-03-27 01:59:56,0a30022f-c8de-43df-a1be-2ea0ead45e8d,A
2019-03-27 02:06:30,0a30022f-c8de-43df-a1be-2ea0ead45e8d,S
2019-03-27 02:10:28,0a30022f-c8de-43df-a1be-2ea0ead45e8d,A
2019-03-27 02:20:06,0a30022f-c8de-43df-a1be-2ea0ead45e8d,S
2019-03-27 02:21:35,0a30022f-c8de-43df-a1be-2ea0ead45e8d,A
2019-03-27 02:22:46,0a30022f-c8de-43df-a1be-2ea0ead45e8d,S
2019-03-27 02:22:51,0a30022f-c8de-43df-a1be-2ea0ead45e8d,A
2019-03-27 02:23:13,0a30022f-c8de-43df-a1be-2ea0ead45e8d,S
2019-03-27 00:58:31,5e63498f-401e-40b5-b167-190d7b20015b,S
2019-03-27 00:58:41,5e63498f-401e-40b5-b167-190d7b20015b,A
2019-03-27 00:58:53,5e63498f-401e-40b5-b167-190d7b20015b,S
2019-03-27 00:59:48,5e63498f-401e-40b5-b167-190d7b20015b,A
2019-03-27 01:01:57,5e63498f-401e-40b5-b167-190d7b20015b,S
2019-03-27 01:06:29,5e63498f-401e-40b5-b167-190d7b20015b,A
2019-03-27 01:11:05,5e63498f-401e-40b5-b167-190d7b20015b,S
2019-03-27 01:13:36,5e63498f-401e-40b5-b167-190d7b20015b,A
2019-03-27 01:15:51,5e63498f-401e-40b5-b167-190d7b20015b,S
2019-03-27 01:24:29,5e63498f-401e-40b5-b167-190d7b20015b,A
2019-03-27 01:25:34,5e63498f-401e-40b5-b167-190d7b20015b,S
2019-03-27 01:37:27,5e63498f-401e-40b5-b167-190d7b20015b,A
2019-03-27 01:38:38,5e63498f-401e-40b5-b167-190d7b20015b,S
2019-03-27 01:39:31,5e63498f-401e-40b5-b167-190d7b20015b,A
2019-03-27 01:39:40,5e63498f-401e-40b5-b167-190d7b20015b,S
2019-03-27 01:47:45,5e63498f-401e-40b5-b167-190d7b20015b,A
2019-03-27 01:50:53,5e63498f-401e-40b5-b167-190d7b20015b,S
2019-03-27 02:01:44,5e63498f-401e-40b5-b167-190d7b20015b,A
2019-03-27 02:06:04,5e63498f-401e-40b5-b167-190d7b20015b,S
2019-03-27 02:06:18,5e63498f-401e-40b5-b167-190d7b20015b,A
2019-03-27 02:06:49,5e63498f-401e-40b5-b167-190d7b20015b,S
2019-03-27 02:13:50,5e63498f-401e-40b5-b167-190d7b20015b,A
2019-03-27 02:17:32,5e63498f-401e-40b5-b167-190d7b20015b,S
2019-03-27 02:22:00,5e63498f-401e-40b5-b167-190d7b20015b,A
2019-03-27 00:55:19,1fda5e4c-15a2-4160-8863-f561cd546455,S
2019-03-27 01:02:51,1fda5e4c-15a2-4160-8863-f561cd546455,A
2019-03-27 01:05:46,1fda5e4c-15a2-4160-8863-f561cd546455,S
2019-03-27 01:10:23,1fda5e4c-15a2-4160-8863-f561cd546455,A
2019-03-27 01:22:47,1fda5e4c-15a2-4160-8863-f561cd546455,S
2019-03-27 01:23:14,1fda5e4c-15a2-4160-8863-f561cd546455,A
2019-03-27 01:35:38,1fda5e4c-15a2-4160-8863-f561cd546455,S
2019-03-27 01:39:12,1fda5e4c-15a2-4160-8863-f561cd546455,A
2019-03-27 01:44:17,1fda5e4c-15a2-4160-8863-f561cd546455,S
2019-03-27 01:50:08,1fda5e4c-15a2-4160-8863-f561cd546455,A
2019-03-27 01:54:48,1fda5e4c-15a2-4160-8863-f561cd546455,S
2019-03-27 02:07:40,1fda5e4c-15a2-4160-8863-f561cd546455,A
2019-03-27 02:10:06,1fda5e4c-15a2-4160-8863-f561cd546455,S
2019-03-27 02:11:40,1fda5e4c-15a2-4160-8863-f561cd546455,A
2019-03-27 02:20:24,1fda5e4c-15a2-4160-8863-f561cd546455,S
2019-03-27 00:54:52,50f87c12-e7c3-413b-b1ec-0806aa006db2,S
2019-03-27 01:05:08,50f87c12-e7c3-413b-b1ec-0806aa006db2,A
2019-03-27 01:06:38,50f87c12-e7c3-413b-b1ec-0806aa006db2,S
2019-03-27 01:09:09,50f87c12-e7c3-413b-b1ec-0806aa006db2,A
2019-03-27 01:11:32,50f87c12-e7c3-413b-b1ec-0806aa006db2,S
2019-03-27 01:12:10,50f87c12-e7c3-413b-b1ec-0806aa006db2,A
2019-03-27 01:40:20,50f87c12-e7c3-413b-b1ec-0806aa006db2,S
2019-03-27 01:48:32,50f87c12-e7c3-413b-b1ec-0806aa006db2,A
2019-03-27 01:51:42,50f87c12-e7c3-413b-b1ec-0806aa006db2,S
2019-03-27 01:55:44,50f87c12-e7c3-413b-b1ec-0806aa006db2,A
2019-03-27 01:55:46,50f87c12-e7c3-413b-b1ec-0806aa006db2,S
2019-03-27 01:57:17,50f87c12-e7c3-413b-b1ec-0806aa006db2,A
2019-03-27 01:58:49,50f87c12-e7c3-413b-b1ec-0806aa006db2,S
2019-03-27 02:02:54,50f87c12-e7c3-413b-b1ec-0806aa006db2,A
2019-03-27 02:04:02,50f87c12-e7c3-413b-b1ec-0806aa006db2,S
2019-03-27 02:04:28,50f87c12-e7c3-413b-b1ec-0806aa006db2,A
2019-03-27 02:11:39,50f87c12-e7c3-413b-b1ec-0806aa006db2,S
2019-03-27 02:13:37,50f87c12-e7c3-413b-b1ec-0806aa006db2,A
2019-03-27 02:16:28,50f87c12-e7c3-413b-b1ec-0806aa006db2,S
2019-03-27 02:20:52,50f87c12-e7c3-413b-b1ec-0806aa006db2,A
2019-03-27 02:22:49,50f87c12-e7c3-413b-b1ec-0806aa006db2,S
2019-03-27 00:53:42,75a49b95-4f80-4354-8064-25d2bedc9a40,A
2019-03-27 00:55:38,75a49b95-4f80-4354-8064-25d2bedc9a40,S
2019-03-27 01:06:22,75a49b95-4f80-4354-8064-25d2bedc9a40,A
2019-03-27 01:09:10,75a49b95-4f80-4354-8064-25d2bedc9a40,S
2019-03-27 01:11:30,75a49b95-4f80-4354-8064-25d2bedc9a40,A
2019-03-27 01:18:25,75a49b95-4f80-4354-8064-25d2bedc9a40,S
2019-03-27 01:27:18,75a49b95-4f80-4354-8064-25d2bedc9a40,A
2019-03-27 01:36:32,75a49b95-4f80-4354-8064-25d2bedc9a40,S
2019-03-27 01:45:59,75a49b95-4f80-4354-8064-25d2bedc9a40,A
2019-03-27 01:48:40,75a49b95-4f80-4354-8064-25d2bedc9a40,S
2019-03-27 01:55:28,75a49b95-4f80-4354-8064-25d2bedc9a40,A
2019-03-27 02:02:41,75a49b95-4f80-4354-8064-25d2bedc9a40,S
2019-03-27 02:04:46,75a49b95-4f80-4354-8064-25d2bedc9a40,A
2019-03-27 02:05:55,75a49b95-4f80-4354-8064-25d2bedc9a40,S
2019-03-27 02:07:53,75a49b95-4f80-4354-8064-25d2bedc9a40,A
2019-03-27 02:17:05,75a49b95-4f80-4354-8064-25d2bedc9a40,S
2019-03-27 00:56:59,5ba3cc25-fe19-4249-8fe2-879048568aa4,A
2019-03-27 01:05:54,5ba3cc25-fe19-4249-8fe2-879048568aa4,S
2019-03-27 01:08:38,5ba3cc25-fe19-4249-8fe2-879048568aa4,A
2019-03-27 01:16:43,5ba3cc25-fe19-4249-8fe2-879048568aa4,S
2019-03-27 01:23:55,5ba3cc25-fe19-4249-8fe2-879048568aa4,A
2019-03-27 01:28:20,5ba3cc25-fe19-4249-8fe2-879048568aa4,S
2019-03-27 01:33:08,5ba3cc25-fe19-4249-8fe2-879048568aa4,A
2019-03-27 01:33:59,5ba3cc25-fe19-4249-8fe2-879048568aa4,S
2019-03-27 01:36:28,5ba3cc25-fe19-4249-8fe2-879048568aa4,A
2019-03-27 01:37:54,5ba3cc25-fe19-4249-8fe2-879048568aa4,S
2019-03-27 01:42:53,5ba3cc25-fe19-4249-8fe2-879048568aa4,A
2019-03-27 01:48:08,5ba3cc25-fe19-4249-8fe2-879048568aa4,S
2019-03-27 01:57:06,5ba3cc25-fe19-4249-8fe2-879048568aa4,A
2019-03-27 02:00:14,5ba3cc25-fe19-4249-8fe2-879048568aa4,S
2019-03-27 02:03:05,5ba3cc25-fe19-4249-8fe2-879048568aa4,A
2019-03-27 02:03:52,5ba3cc25-fe19-4249-8fe2-879048568aa4,S
2019-03-27 02:08:58,5ba3cc25-fe19-4249-8fe2-879048568aa4,A
2019-03-27 02:14:44,5ba3cc25-fe19-4249-8fe2-879048568aa4,S
2019-03-27 02:21:39,5ba3cc25-fe19-4249-8fe2-879048568aa4,A
2019-03-27 02:21:53,5ba3cc25-fe19-4249-8fe2-879048568aa4,S
2019-03-27 02:23:22,5ba3cc25-fe19-4249-8fe2-879048568aa4,A
2019-03-27 01:16:15,55624fb6-638c-4e3e-8255-5bd6f7506fd9,A
2019-03-27 01:17:10,55624fb6-638c-4e3e-8255-5bd6f7506fd9,S
2019-03-27 01:20:17,55624fb6-638c-4e3e-8255-5bd6f7506fd9,A
2019-03-27 01:29:38,55624fb6-638c-4e3e-8255-5bd6f7506fd9,S
2019-03-27 01:32:35,55624fb6-638c-4e3e-8255-5bd6f7506fd9,A
2019-03-27 01:34:59,55624fb6-638c-4e3e-8255-5bd6f7506fd9,S
2019-03-27 01:38:49,55624fb6-638c-4e3e-8255-5bd6f7506fd9,A
2019-03-27 01:51:23,55624fb6-638c-4e3e-8255-5bd6f7506fd9,S
2019-03-27 01:57:12,55624fb6-638c-4e3e-8255-5bd6f7506fd9,A
2019-03-27 01:57:28,55624fb6-638c-4e3e-8255-5bd6f7506fd9,S
2019-03-27 02:02:33,55624fb6-638c-4e3e-8255-5bd6f7506fd9,A
2019-03-27 02:04:42,55624fb6-638c-4e3e-8255-5bd6f7506fd9,S
2019-03-27 02:07:45,55624fb6-638c-4e3e-8255-5bd6f7506fd9,A
2019-03-27 02:10:25,55624fb6-638c-4e3e-8255-5bd6f7506fd9,S
2019-03-27 02:17:47,55624fb6-638c-4e3e-8255-5bd6f7506fd9,A
2019-03-27 02:20:29,55624fb6-638c-4e3e-8255-5bd6f7506fd9,S
2019-03-27 01:10:46,8b45f503-0a13-4f1f-99e0-0e8967331443,A
2019-03-27 01:12:24,8b45f503-0a13-4f1f-99e0-0e8967331443,S
2019-03-27 01:19:22,8b45f503-0a13-4f1f-99e0-0e8967331443,A
2019-03-27 01:29:37,8b45f503-0a13-4f1f-99e0-0e8967331443,S
2019-03-27 01:36:38,8b45f503-0a13-4f1f-99e0-0e8967331443,A
2019-03-27 01:39:16,8b45f503-0a13-4f1f-99e0-0e8967331443,S
2019-03-27 01:44:05,8b45f503-0a13-4f1f-99e0-0e8967331443,A
2019-03-27 01:45:08,8b45f503-0a13-4f1f-99e0-0e8967331443,S
2019-03-27 01:51:17,8b45f503-0a13-4f1f-99e0-0e8967331443,A
2019-03-27 01:51:36,8b45f503-0a13-4f1f-99e0-0e8967331443,S
2019-03-27 02:01:15,8b45f503-0a13-4f1f-99e0-0e8967331443,A
2019-03-27 02:02:35,8b45f503-0a13-4f1f-99e0-0e8967331443,S
2019-03-27 02:19:24,8b45f503-0a13-4f1f-99e0-0e8967331443,A
2019-03-27 00:45:38,3cfd69ae-c014-4d8b-82cf-40e6f6afe6f6,A
2019-03-27 00:55:03,3cfd69ae-c014-4d8b-82cf-40e6f6afe6f6,S
2019-03-27 01:04:33,3cfd69ae-c014-4d8b-82cf-40e6f6afe6f6,A
2019-03-27 01:12:42,3cfd69ae-c014-4d8b-82cf-40e6f6afe6f6,S
2019-03-27 01:26:12,3cfd69ae-c014-4d8b-82cf-40e6f6afe6f6,A
2019-03-27 01:31:56,3cfd69ae-c014-4d8b-82cf-40e6f6afe6f6,S
2019-03-27 01:36:47,3cfd69ae-c014-4d8b-82cf-40e6f6afe6f6,A
2019-03-27 01:37:33,3cfd69ae-c014-4d8b-82cf-40e6f6afe6f6,S
2019-03-27 01:42:23,3cfd69ae-c014-4d8b-82cf-40e6f6afe6f6,A
2019-03-27 01:54:35,3cfd69ae-c014-4d8b-82cf-40e6f6afe6f6,S
2019-03-27 01:55:00,3cfd69ae-c014-4d8b-82cf-40e6f6afe6f6,A
2019-03-27 01:56:51,3cfd69ae-c014-4d8b-82cf-40e6f6afe6f6,S
2019-03-27 01:56:58,3cfd69ae-c014-4d8b-82cf-40e6f6afe6f6,A
2019-03-27 02:02:00,3cfd69ae-c014-4d8b-82cf-40e6f6afe6f6,S
2019-03-27 02:02:20,3cfd69ae-c014-4d8b-82cf-40e6f6afe6f6,A
2019-03-27 02:02:35,3cfd69ae-c014-4d8b-82cf-40e6f6afe6f6,S
2019-03-27 02:08:59,3cfd69ae-c014-4d8b-82cf-40e6f6afe6f6,A
2019-03-27 02:14:30,3cfd69ae-c014-4d8b-82cf-40e6f6afe6f6,S
2019-03-27 02:17:10,3cfd69ae-c014-4d8b-82cf-40e6f6afe6f6,A
2019-03-27 02:23:55,3cfd69ae-c014-4d8b-82cf-40e6f6afe6f6,S
2019-03-27 00:54:46,3f1ccc98-273d-49e8-aa7a-f635a60fbff4,A
2019-03-27 01:13:07,3f1ccc98-273d-49e8-aa7a-f635a60fbff4,S
2019-03-27 01:18:02,3f1ccc98-273d-49e8-aa7a-f635a60fbff4,S
2019-03-27 01:20:11,3f1ccc98-273d-49e8-aa7a-f635a60fbff4,A
2019-03-27 01:21:16,3f1ccc98-273d-49e8-aa7a-f635a60fbff4,S
2019-03-27 01:22:17,3f1ccc98-273d-49e8-aa7a-f635a60fbff4,A
2019-03-27 01:26:57,3f1ccc98-273d-49e8-aa7a-f635a60fbff4,S
2019-03-27 01:33:35,3f1ccc98-273d-49e8-aa7a-f635a60fbff4,A
2019-03-27 01:38:36,3f1ccc98-273d-49e8-aa7a-f635a60fbff4,S
2019-03-27 01:49:38,3f1ccc98-273d-49e8-aa7a-f635a60fbff4,A
2019-03-27 02:03:26,3f1ccc98-273d-49e8-aa7a-f635a60fbff4,S
2019-03-27 02:08:54,3f1ccc98-273d-49e8-aa7a-f635a60fbff4,A
2019-03-27 02:12:58,3f1ccc98-273d-49e8-aa7a-f635a60fbff4,S
2019-03-27 02:15:04,3f1ccc98-273d-49e8-aa7a-f635a60fbff4,A
2019-03-27 02:19:39,3f1ccc98-273d-49e8-aa7a-f635a60fbff4,S
2019-03-27 01:20:28,618f174f-6399-4230-8ed3-032abca44598,A
2019-03-27 01:28:26,618f174f-6399-4230-8ed3-032abca44598,S
2019-03-27 01:35:35,618f174f-6399-4230-8ed3-032abca44598,S
2019-03-27 01:51:36,618f174f-6399-4230-8ed3-032abca44598,A
2019-03-27 02:08:39,618f174f-6399-4230-8ed3-032abca44598,S
2019-03-27 02:21:24,618f174f-6399-4230-8ed3-032abca44598,A
2019-03-27 00:50:48,36bdba71-8c12-4ad7-94a5-4726a0926206,S
2019-03-27 01:00:08,36bdba71-8c12-4ad7-94a5-4726a0926206,A
2019-03-27 01:03:35,36bdba71-8c12-4ad7-94a5-4726a0926206,S
2019-03-27 01:07:43,36bdba71-8c12-4ad7-94a5-4726a0926206,A
2019-03-27 01:13:25,36bdba71-8c12-4ad7-94a5-4726a0926206,S
2019-03-27 01:13:32,36bdba71-8c12-4ad7-94a5-4726a0926206,A
2019-03-27 01:16:57,36bdba71-8c12-4ad7-94a5-4726a0926206,S
2019-03-27 01:17:36,36bdba71-8c12-4ad7-94a5-4726a0926206,A
2019-03-27 01:17:57,36bdba71-8c12-4ad7-94a5-4726a0926206,S
2019-03-27 01:22:18,36bdba71-8c12-4ad7-94a5-4726a0926206,A
2019-03-27 01:24:12,36bdba71-8c12-4ad7-94a5-4726a0926206,S
2019-03-27 01:25:24,36bdba71-8c12-4ad7-94a5-4726a0926206,A
2019-03-27 01:25:42,36bdba71-8c12-4ad7-94a5-4726a0926206,S
2019-03-27 01:33:56,36bdba71-8c12-4ad7-94a5-4726a0926206,A
2019-03-27 01:40:31,36bdba71-8c12-4ad7-94a5-4726a0926206,S
2019-03-27 01:42:51,36bdba71-8c12-4ad7-94a5-4726a0926206,A
2019-03-27 01:47:34,36bdba71-8c12-4ad7-94a5-4726a0926206,S
2019-03-27 01:56:44,36bdba71-8c12-4ad7-94a5-4726a0926206,A
2019-03-27 01:57:44,36bdba71-8c12-4ad7-94a5-4726a0926206,S
2019-03-27 02:06:49,36bdba71-8c12-4ad7-94a5-4726a0926206,A
2019-03-27 02:09:55,36bdba71-8c12-4ad7-94a5-4726a0926206,S
2019-03-27 02:23:05,36bdba71-8c12-4ad7-94a5-4726a0926206,A
2019-03-27 00:37:24,1794481d-0643-4ee6-8d8f-775fc724cb2b,S
2019-03-27 00:37:51,1794481d-0643-4ee6-8d8f-775fc724cb2b,A
2019-03-27 00:37:54,1794481d-0643-4ee6-8d8f-775fc724cb2b,S
2019-03-27 00:42:55,1794481d-0643-4ee6-8d8f-775fc724cb2b,A
2019-03-27 00:47:37,1794481d-0643-4ee6-8d8f-775fc724cb2b,S
2019-03-27 00:52:59,1794481d-0643-4ee6-8d8f-775fc724cb2b,A
2019-03-27 00:57:59,1794481d-0643-4ee6-8d8f-775fc724cb2b,S
2019-03-27 01:02:09,1794481d-0643-4ee6-8d8f-775fc724cb2b,A
2019-03-27 01:06:07,1794481d-0643-4ee6-8d8f-775fc724cb2b,S
2019-03-27 01:06:12,1794481d-0643-4ee6-8d8f-775fc724cb2b,A
2019-03-27 01:14:46,1794481d-0643-4ee6-8d8f-775fc724cb2b,S
2019-03-27 01:15:27,1794481d-0643-4ee6-8d8f-775fc724cb2b,A
2019-03-27 01:18:36,1794481d-0643-4ee6-8d8f-775fc724cb2b,S
2019-03-27 01:19:22,1794481d-0643-4ee6-8d8f-775fc724cb2b,A
2019-03-27 01:19:55,1794481d-0643-4ee6-8d8f-775fc724cb2b,S
2019-03-27 01:20:29,1794481d-0643-4ee6-8d8f-775fc724cb2b,A
2019-03-27 01:24:18,1794481d-0643-4ee6-8d8f-775fc724cb2b,S
2019-03-27 01:29:54,1794481d-0643-4ee6-8d8f-775fc724cb2b,A
2019-03-27 01:38:59,1794481d-0643-4ee6-8d8f-775fc724cb2b,S
2019-03-27 01:43:48,1794481d-0643-4ee6-8d8f-775fc724cb2b,A
2019-03-27 01:56:03,1794481d-0643-4ee6-8d8f-775fc724cb2b,S
2019-03-27 01:58:52,1794481d-0643-4ee6-8d8f-775fc724cb2b,A
2019-03-27 02:10:36,1794481d-0643-4ee6-8d8f-775fc724cb2b,S
2019-03-27 02:19:29,1794481d-0643-4ee6-8d8f-775fc724cb2b,A
2019-03-27 02:21:10,1794481d-0643-4ee6-8d8f-775fc724cb2b,S
2019-03-27 00:57:14,ec363511-5cf3-488c-b3b6-54448186ced0,A
2019-03-27 00:58:21,ec363511-5cf3-488c-b3b6-54448186ced0,S
2019-03-27 00:59:35,ec363511-5cf3-488c-b3b6-54448186ced0,A
2019-03-27 01:02:48,ec363511-5cf3-488c-b3b6-54448186ced0,S
2019-03-27 01:03:19,ec363511-5cf3-488c-b3b6-54448186ced0,A
2019-03-27 01:05:47,ec363511-5cf3-488c-b3b6-54448186ced0,S
2019-03-27 01:08:21,ec363511-5cf3-488c-b3b6-54448186ced0,A
2019-03-27 01:11:22,ec363511-5cf3-488c-b3b6-54448186ced0,S
2019-03-27 01:15:13,ec363511-5cf3-488c-b3b6-54448186ced0,A
2019-03-27 01:15:49,ec363511-5cf3-488c-b3b6-54448186ced0,S
2019-03-27 01:20:48,ec363511-5cf3-488c-b3b6-54448186ced0,A
2019-03-27 01:23:03,ec363511-5cf3-488c-b3b6-54448186ced0,S
2019-03-27 01:24:19,ec363511-5cf3-488c-b3b6-54448186ced0,A
2019-03-27 01:31:16,ec363511-5cf3-488c-b3b6-54448186ced0,S
2019-03-27 01:38:23,ec363511-5cf3-488c-b3b6-54448186ced0,A
2019-03-27 01:39:01,ec363511-5cf3-488c-b3b6-54448186ced0,S
2019-03-27 01:41:25,ec363511-5cf3-488c-b3b6-54448186ced0,A
2019-03-27 01:44:48,ec363511-5cf3-488c-b3b6-54448186ced0,S
2019-03-27 01:54:16,ec363511-5cf3-488c-b3b6-54448186ced0,A
2019-03-27 01:54:54,ec363511-5cf3-488c-b3b6-54448186ced0,S
2019-03-27 01:59:48,ec363511-5cf3-488c-b3b6-54448186ced0,A
2019-03-27 02:13:03,ec363511-5cf3-488c-b3b6-54448186ced0,S
2019-03-27 02:16:24,ec363511-5cf3-488c-b3b6-54448186ced0,A
2019-03-27 02:19:05,ec363511-5cf3-488c-b3b6-54448186ced0,S
2019-03-27 02:21:10,ec363511-5cf3-488c-b3b6-54448186ced0,A
2019-03-27 02:21:18,ec363511-5cf3-488c-b3b6-54448186ced0,S
2019-03-27 02:21:28,ec363511-5cf3-488c-b3b6-54448186ced0,A
2019-03-27 00:38:22,e6185f1c-47e5-4397-a07a-735470f316cd,A
2019-03-27 00:43:02,e6185f1c-47e5-4397-a07a-735470f316cd,S
2019-03-27 00:45:36,e6185f1c-47e5-4397-a07a-735470f316cd,A
2019-03-27 00:47:24,e6185f1c-47e5-4397-a07a-735470f316cd,S
2019-03-27 00:52:01,e6185f1c-47e5-4397-a07a-735470f316cd,A
2019-03-27 00:53:18,e6185f1c-47e5-4397-a07a-735470f316cd,S
2019-03-27 00:55:19,e6185f1c-47e5-4397-a07a-735470f316cd,A
2019-03-27 00:55:53,e6185f1c-47e5-4397-a07a-735470f316cd,S
2019-03-27 01:04:12,e6185f1c-47e5-4397-a07a-735470f316cd,A
2019-03-27 01:05:07,e6185f1c-47e5-4397-a07a-735470f316cd,S
2019-03-27 01:07:14,e6185f1c-47e5-4397-a07a-735470f316cd,A
2019-03-27 01:14:46,e6185f1c-47e5-4397-a07a-735470f316cd,S
2019-03-27 01:23:19,e6185f1c-47e5-4397-a07a-735470f316cd,A
2019-03-27 01:26:30,e6185f1c-47e5-4397-a07a-735470f316cd,S
2019-03-27 01:29:30,e6185f1c-47e5-4397-a07a-735470f316cd,A
2019-03-27 01:30:58,e6185f1c-47e5-4397-a07a-735470f316cd,S
2019-03-27 01:31:53,e6185f1c-47e5-4397-a07a-735470f316cd,A
2019-03-27 01:42:11,e6185f1c-47e5-4397-a07a-735470f316cd,S
2019-03-27 02:10:48,e6185f1c-47e5-4397-a07a-735470f316cd,A
2019-03-27 02:10:58,e6185f1c-47e5-4397-a07a-735470f316cd,S
2019-03-27 02:11:27,e6185f1c-47e5-4397-a07a-735470f316cd,A
2019-03-27 02:11:50,e6185f1c-47e5-4397-a07a-735470f316cd,S
2019-03-27 02:17:48,e6185f1c-47e5-4397-a07a-735470f316cd,A
2019-03-27 02:18:56,e6185f1c-47e5-4397-a07a-735470f316cd,S
2019-03-27 00:31:54,bb06f450-a888-4629-845a-873e91b9c31b,S
2019-03-27 00:58:55,bb06f450-a888-4629-845a-873e91b9c31b,A
2019-03-27 01:02:07,bb06f450-a888-4629-845a-873e91b9c31b,S
2019-03-27 01:03:45,bb06f450-a888-4629-845a-873e91b9c31b,A
2019-03-27 01:05:18,bb06f450-a888-4629-845a-873e91b9c31b,S
2019-03-27 01:08:32,bb06f450-a888-4629-845a-873e91b9c31b,A
2019-03-27 01:10:44,bb06f450-a888-4629-845a-873e91b9c31b,S
2019-03-27 01:19:43,bb06f450-a888-4629-845a-873e91b9c31b,A
2019-03-27 01:27:14,bb06f450-a888-4629-845a-873e91b9c31b,S
2019-03-27 01:49:42,bb06f450-a888-4629-845a-873e91b9c31b,A
2019-03-27 01:52:01,bb06f450-a888-4629-845a-873e91b9c31b,S
2019-03-27 02:02:45,bb06f450-a888-4629-845a-873e91b9c31b,A
2019-03-27 02:08:30,bb06f450-a888-4629-845a-873e91b9c31b,S
2019-03-27 02:14:56,bb06f450-a888-4629-845a-873e91b9c31b,A
2019-03-27 02:15:43,bb06f450-a888-4629-845a-873e91b9c31b,S
2019-03-27 02:19:11,bb06f450-a888-4629-845a-873e91b9c31b,A
2019-03-27 02:22:33,bb06f450-a888-4629-845a-873e91b9c31b,S
2019-03-27 01:17:57,b550ff59-5902-44f8-a600-1813c52ba438,A
2019-03-27 01:21:11,b550ff59-5902-44f8-a600-1813c52ba438,S
2019-03-27 01:31:51,b550ff59-5902-44f8-a600-1813c52ba438,A
2019-03-27 01:36:36,b550ff59-5902-44f8-a600-1813c52ba438,S
2019-03-27 01:53:53,b550ff59-5902-44f8-a600-1813c52ba438,A
2019-03-27 01:54:32,b550ff59-5902-44f8-a600-1813c52ba438,S
2019-03-27 01:55:19,b550ff59-5902-44f8-a600-1813c52ba438,A
2019-03-27 02:00:33,b550ff59-5902-44f8-a600-1813c52ba438,S
2019-03-27 02:10:08,b550ff59-5902-44f8-a600-1813c52ba438,A
2019-03-27 02:18:07,b550ff59-5902-44f8-a600-1813c52ba438,S
2019-03-27 02:21:27,b550ff59-5902-44f8-a600-1813c52ba438,A
2019-03-27 02:24:15,b550ff59-5902-44f8-a600-1813c52ba438,S
2019-03-27 00:47:43,4e1204a2-b308-4af0-a4cd-c5d00ae0197c,A
2019-03-27 00:48:26,4e1204a2-b308-4af0-a4cd-c5d00ae0197c,S
2019-03-27 00:53:28,4e1204a2-b308-4af0-a4cd-c5d00ae0197c,A
2019-03-27 00:53:59,4e1204a2-b308-4af0-a4cd-c5d00ae0197c,S
2019-03-27 00:56:36,4e1204a2-b308-4af0-a4cd-c5d00ae0197c,A
2019-03-27 00:59:41,4e1204a2-b308-4af0-a4cd-c5d00ae0197c,S
2019-03-27 01:05:14,4e1204a2-b308-4af0-a4cd-c5d00ae0197c,A
2019-03-27 01:05:35,4e1204a2-b308-4af0-a4cd-c5d00ae0197c,S
2019-03-27 01:05:43,4e1204a2-b308-4af0-a4cd-c5d00ae0197c,A
2019-03-27 01:17:06,4e1204a2-b308-4af0-a4cd-c5d00ae0197c,S
2019-03-27 01:30:03,4e1204a2-b308-4af0-a4cd-c5d00ae0197c,A
2019-03-27 01:36:37,4e1204a2-b308-4af0-a4cd-c5d00ae0197c,S
2019-03-27 01:38:30,4e1204a2-b308-4af0-a4cd-c5d00ae0197c,A
2019-03-27 01:55:33,4e1204a2-b308-4af0-a4cd-c5d00ae0197c,S
2019-03-27 01:58:08,4e1204a2-b308-4af0-a4cd-c5d00ae0197c,A
2019-03-27 01:59:23,4e1204a2-b308-4af0-a4cd-c5d00ae0197c,S
2019-03-27 02:02:05,4e1204a2-b308-4af0-a4cd-c5d00ae0197c,A
2019-03-27 02:06:57,4e1204a2-b308-4af0-a4cd-c5d00ae0197c,S
2019-03-27 02:10:43,4e1204a2-b308-4af0-a4cd-c5d00ae0197c,A
2019-03-27 02:12:42,4e1204a2-b308-4af0-a4cd-c5d00ae0197c,S
2019-03-27 02:19:04,4e1204a2-b308-4af0-a4cd-c5d00ae0197c,A
2019-03-27 02:20:17,4e1204a2-b308-4af0-a4cd-c5d00ae0197c,S
2019-03-27 00:39:07,130864c0-3419-4366-9f4f-4b72fe516619,A
2019-03-27 00:39:50,130864c0-3419-4366-9f4f-4b72fe516619,S
2019-03-27 00:45:51,130864c0-3419-4366-9f4f-4b72fe516619,A
2019-03-27 00:47:05,130864c0-3419-4366-9f4f-4b72fe516619,S
2019-03-27 00:55:29,130864c0-3419-4366-9f4f-4b72fe516619,A
2019-03-27 00:55:50,130864c0-3419-4366-9f4f-4b72fe516619,S
2019-03-27 01:03:38,130864c0-3419-4366-9f4f-4b72fe516619,A
2019-03-27 01:05:25,130864c0-3419-4366-9f4f-4b72fe516619,S
2019-03-27 01:13:01,130864c0-3419-4366-9f4f-4b72fe516619,A
2019-03-27 01:16:01,130864c0-3419-4366-9f4f-4b72fe516619,S
2019-03-27 01:24:28,130864c0-3419-4366-9f4f-4b72fe516619,A
2019-03-27 01:40:00,130864c0-3419-4366-9f4f-4b72fe516619,S
2019-03-27 01:45:01,130864c0-3419-4366-9f4f-4b72fe516619,A
2019-03-27 01:51:33,130864c0-3419-4366-9f4f-4b72fe516619,S
2019-03-27 01:57:59,130864c0-3419-4366-9f4f-4b72fe516619,A
2019-03-27 02:09:39,130864c0-3419-4366-9f4f-4b72fe516619,S
2019-03-27 02:14:38,130864c0-3419-4366-9f4f-4b72fe516619,A
2019-03-27 02:16:06,130864c0-3419-4366-9f4f-4b72fe516619,S
2019-03-27 02:20:18,130864c0-3419-4366-9f4f-4b72fe516619,A
2019-03-27 02:23:45,130864c0-3419-4366-9f4f-4b72fe516619,S
2019-03-27 01:02:10,464e4ee1-9820-4253-b38a-1073d2f4f1d0,A
2019-03-27 01:15:39,464e4ee1-9820-4253-b38a-1073d2f4f1d0,S
2019-03-27 01:18:44,464e4ee1-9820-4253-b38a-1073d2f4f1d0,A
2019-03-27 01:26:48,464e4ee1-9820-4253-b38a-1073d2f4f1d0,S
2019-03-27 01:36:55,464e4ee1-9820-4253-b38a-1073d2f4f1d0,A
2019-03-27 01:46:01,464e4ee1-9820-4253-b38a-1073d2f4f1d0,S
2019-03-27 01:51:15,464e4ee1-9820-4253-b38a-1073d2f4f1d0,A
2019-03-27 01:53:08,464e4ee1-9820-4253-b38a-1073d2f4f1d0,S
2019-03-27 01:55:40,464e4ee1-9820-4253-b38a-1073d2f4f1d0,A
2019-03-27 01:57:14,464e4ee1-9820-4253-b38a-1073d2f4f1d0,S
2019-03-27 01:59:10,464e4ee1-9820-4253-b38a-1073d2f4f1d0,A
2019-03-27 02:00:10,464e4ee1-9820-4253-b38a-1073d2f4f1d0,S
2019-03-27 02:03:03,464e4ee1-9820-4253-b38a-1073d2f4f1d0,A
2019-03-27 02:05:58,464e4ee1-9820-4253-b38a-1073d2f4f1d0,S
2019-03-27 02:08:25,464e4ee1-9820-4253-b38a-1073d2f4f1d0,A
2019-03-27 02:11:57,464e4ee1-9820-4253-b38a-1073d2f4f1d0,S
2019-03-27 02:13:22,464e4ee1-9820-4253-b38a-1073d2f4f1d0,A
2019-03-27 02:14:45,464e4ee1-9820-4253-b38a-1073d2f4f1d0,S
2019-03-27 00:27:36,c88dd85a-b1b0-48b9-b885-5bb269f34c6a,S
2019-03-27 00:33:41,c88dd85a-b1b0-48b9-b885-5bb269f34c6a,A
2019-03-27 00:49:29,c88dd85a-b1b0-48b9-b885-5bb269f34c6a,S
2019-03-27 00:51:35,c88dd85a-b1b0-48b9-b885-5bb269f34c6a,A
2019-03-27 00:55:00,c88dd85a-b1b0-48b9-b885-5bb269f34c6a,S
2019-03-27 01:04:06,c88dd85a-b1b0-48b9-b885-5bb269f34c6a,A
2019-03-27 01:22:43,c88dd85a-b1b0-48b9-b885-5bb269f34c6a,S
2019-03-27 01:24:31,c88dd85a-b1b0-48b9-b885-5bb269f34c6a,A
2019-03-27 01:39:15,c88dd85a-b1b0-48b9-b885-5bb269f34c6a,S
2019-03-27 01:52:42,c88dd85a-b1b0-48b9-b885-5bb269f34c6a,A
2019-03-27 01:53:43,c88dd85a-b1b0-48b9-b885-5bb269f34c6a,S
2019-03-27 02:00:59,c88dd85a-b1b0-48b9-b885-5bb269f34c6a,A
2019-03-27 02:13:37,c88dd85a-b1b0-48b9-b885-5bb269f34c6a,S
2019-03-27 02:17:15,c88dd85a-b1b0-48b9-b885-5bb269f34c6a,A
2019-03-27 02:18:20,c88dd85a-b1b0-48b9-b885-5bb269f34c6a,S
2019-03-27 02:20:18,c88dd85a-b1b0-48b9-b885-5bb269f34c6a,A
2019-03-27 02:21:54,c88dd85a-b1b0-48b9-b885-5bb269f34c6a,S
2019-03-27 01:08:33,70d7a08e-a7d8-43a9-b43a-443e7b986b15,A
2019-03-27 01:27:03,70d7a08e-a7d8-43a9-b43a-443e7b986b15,S
2019-03-27 01:31:33,70d7a08e-a7d8-43a9-b43a-443e7b986b15,A
2019-03-27 01:35:24,70d7a08e-a7d8-43a9-b43a-443e7b986b15,S
2019-03-27 01:37:44,70d7a08e-a7d8-43a9-b43a-443e7b986b15,A
2019-03-27 01:43:42,70d7a08e-a7d8-43a9-b43a-443e7b986b15,S
2019-03-27 01:46:41,70d7a08e-a7d8-43a9-b43a-443e7b986b15,A
2019-03-27 02:08:48,70d7a08e-a7d8-43a9-b43a-443e7b986b15,S
2019-03-27 02:12:18,70d7a08e-a7d8-43a9-b43a-443e7b986b15,A
2019-03-27 02:19:50,70d7a08e-a7d8-43a9-b43a-443e7b986b15,S
2019-03-27 02:21:55,70d7a08e-a7d8-43a9-b43a-443e7b986b15,A
2019-03-27 02:25:32,70d7a08e-a7d8-43a9-b43a-443e7b986b15,S
2019-03-27 01:06:55,70d29ae8-0be6-4749-bd24-1aad3550f0af,S
2019-03-27 01:17:39,70d29ae8-0be6-4749-bd24-1aad3550f0af,A
2019-03-27 01:18:03,70d29ae8-0be6-4749-bd24-1aad3550f0af,S
2019-03-27 01:19:55,70d29ae8-0be6-4749-bd24-1aad3550f0af,A
2019-03-27 01:42:21,70d29ae8-0be6-4749-bd24-1aad3550f0af,S
2019-03-27 01:43:16,70d29ae8-0be6-4749-bd24-1aad3550f0af,A
2019-03-27 01:48:22,70d29ae8-0be6-4749-bd24-1aad3550f0af,S
2019-03-27 01:50:54,70d29ae8-0be6-4749-bd24-1aad3550f0af,A
2019-03-27 01:51:30,70d29ae8-0be6-4749-bd24-1aad3550f0af,S
2019-03-27 02:11:52,70d29ae8-0be6-4749-bd24-1aad3550f0af,A
2019-03-27 02:16:15,70d29ae8-0be6-4749-bd24-1aad3550f0af,S
2019-03-27 02:16:41,70d29ae8-0be6-4749-bd24-1aad3550f0af,A
2019-03-27 02:17:59,70d29ae8-0be6-4749-bd24-1aad3550f0af,S
2019-03-27 02:19:50,70d29ae8-0be6-4749-bd24-1aad3550f0af,A
2019-03-27 02:21:43,70d29ae8-0be6-4749-bd24-1aad3550f0af,S
2019-03-27 00:29:03,2434c9a6-0719-4fe2-a9e0-5925657ce3bc,A
2019-03-27 00:33:26,2434c9a6-0719-4fe2-a9e0-5925657ce3bc,S
2019-03-27 00:34:51,2434c9a6-0719-4fe2-a9e0-5925657ce3bc,A
2019-03-27 00:35:56,2434c9a6-0719-4fe2-a9e0-5925657ce3bc,S
2019-03-27 00:40:37,2434c9a6-0719-4fe2-a9e0-5925657ce3bc,A
2019-03-27 00:42:03,2434c9a6-0719-4fe2-a9e0-5925657ce3bc,S
2019-03-27 00:44:58,2434c9a6-0719-4fe2-a9e0-5925657ce3bc,A
2019-03-27 00:48:23,2434c9a6-0719-4fe2-a9e0-5925657ce3bc,S
2019-03-27 00:55:38,2434c9a6-0719-4fe2-a9e0-5925657ce3bc,A
2019-03-27 00:55:50,2434c9a6-0719-4fe2-a9e0-5925657ce3bc,S
2019-03-27 01:14:32,2434c9a6-0719-4fe2-a9e0-5925657ce3bc,A
2019-03-27 01:16:48,2434c9a6-0719-4fe2-a9e0-5925657ce3bc,S
2019-03-27 01:24:31,2434c9a6-0719-4fe2-a9e0-5925657ce3bc,A
2019-03-27 01:25:14,2434c9a6-0719-4fe2-a9e0-5925657ce3bc,S
2019-03-27 01:26:59,2434c9a6-0719-4fe2-a9e0-5925657ce3bc,A
2019-03-27 01:33:48,2434c9a6-0719-4fe2-a9e0-5925657ce3bc,S
2019-03-27 01:34:24,2434c9a6-0719-4fe2-a9e0-5925657ce3bc,A
2019-03-27 01:38:19,2434c9a6-0719-4fe2-a9e0-5925657ce3bc,S
2019-03-27 01:41:21,2434c9a6-0719-4fe2-a9e0-5925657ce3bc,A
2019-03-27 01:49:03,2434c9a6-0719-4fe2-a9e0-5925657ce3bc,S
2019-03-27 01:53:15,2434c9a6-0719-4fe2-a9e0-5925657ce3bc,A
2019-03-27 01:59:23,2434c9a6-0719-4fe2-a9e0-5925657ce3bc,S
2019-03-27 02:00:57,2434c9a6-0719-4fe2-a9e0-5925657ce3bc,A
2019-03-27 02:02:31,2434c9a6-0719-4fe2-a9e0-5925657ce3bc,S
2019-03-27 02:02:59,2434c9a6-0719-4fe2-a9e0-5925657ce3bc,A
2019-03-27 02:05:32,2434c9a6-0719-4fe2-a9e0-5925657ce3bc,S
2019-03-27 02:11:12,2434c9a6-0719-4fe2-a9e0-5925657ce3bc,A
2019-03-27 02:14:09,2434c9a6-0719-4fe2-a9e0-5925657ce3bc,S
2019-03-27 02:15:48,2434c9a6-0719-4fe2-a9e0-5925657ce3bc,A
2019-03-27 02:24:41,2434c9a6-0719-4fe2-a9e0-5925657ce3bc,S
2019-03-27 00:39:53,99f3f419-0dd6-4a64-b00b-34df8752695d,A
2019-03-27 00:40:06,99f3f419-0dd6-4a64-b00b-34df8752695d,S
2019-03-27 00:41:26,99f3f419-0dd6-4a64-b00b-34df8752695d,A
2019-03-27 00:44:17,99f3f419-0dd6-4a64-b00b-34df8752695d,S
2019-03-27 00:57:30,99f3f419-0dd6-4a64-b00b-34df8752695d,A
2019-03-27 00:57:35,99f3f419-0dd6-4a64-b00b-34df8752695d,S
2019-03-27 01:05:05,99f3f419-0dd6-4a64-b00b-34df8752695d,A
2019-03-27 01:15:33,99f3f419-0dd6-4a64-b00b-34df8752695d,S
2019-03-27 01:19:13,99f3f419-0dd6-4a64-b00b-34df8752695d,A
2019-03-27 01:32:35,99f3f419-0dd6-4a64-b00b-34df8752695d,S
2019-03-27 01:37:19,99f3f419-0dd6-4a64-b00b-34df8752695d,A
2019-03-27 01:40:46,99f3f419-0dd6-4a64-b00b-34df8752695d,S
2019-03-27 01:51:56,99f3f419-0dd6-4a64-b00b-34df8752695d,A
2019-03-27 02:00:06,99f3f419-0dd6-4a64-b00b-34df8752695d,S
2019-03-27 02:00:56,99f3f419-0dd6-4a64-b00b-34df8752695d,A
2019-03-27 02:03:35,99f3f419-0dd6-4a64-b00b-34df8752695d,S
2019-03-27 02:07:57,99f3f419-0dd6-4a64-b00b-34df8752695d,A
2019-03-27 02:08:59,99f3f419-0dd6-4a64-b00b-34df8752695d,S
2019-03-27 02:13:13,99f3f419-0dd6-4a64-b00b-34df8752695d,A
2019-03-27 02:20:59,99f3f419-0dd6-4a64-b00b-34df8752695d,S
2019-03-27 02:22:24,99f3f419-0dd6-4a64-b00b-34df8752695d,A
2019-03-27 02:24:34,99f3f419-0dd6-4a64-b00b-34df8752695d,S
2019-03-27 00:22:18,3265a7bb-2b4e-4611-a9b1-d386b3673211,A
2019-03-27 00:27:55,3265a7bb-2b4e-4611-a9b1-d386b3673211,S
2019-03-27 00:29:33,3265a7bb-2b4e-4611-a9b1-d386b3673211,A
2019-03-27 00:34:11,3265a7bb-2b4e-4611-a9b1-d386b3673211,S
2019-03-27 00:42:03,3265a7bb-2b4e-4611-a9b1-d386b3673211,A
2019-03-27 00:42:58,3265a7bb-2b4e-4611-a9b1-d386b3673211,S
2019-03-27 00:46:28,3265a7bb-2b4e-4611-a9b1-d386b3673211,A
2019-03-27 00:51:01,3265a7bb-2b4e-4611-a9b1-d386b3673211,S
2019-03-27 00:51:20,3265a7bb-2b4e-4611-a9b1-d386b3673211,A
2019-03-27 01:04:10,3265a7bb-2b4e-4611-a9b1-d386b3673211,S
2019-03-27 01:04:52,3265a7bb-2b4e-4611-a9b1-d386b3673211,A
2019-03-27 01:15:06,3265a7bb-2b4e-4611-a9b1-d386b3673211,S
2019-03-27 01:26:04,3265a7bb-2b4e-4611-a9b1-d386b3673211,A
2019-03-27 01:33:25,3265a7bb-2b4e-4611-a9b1-d386b3673211,S
2019-03-27 01:35:02,3265a7bb-2b4e-4611-a9b1-d386b3673211,A
2019-03-27 01:46:37,3265a7bb-2b4e-4611-a9b1-d386b3673211,S
2019-03-27 02:05:39,3265a7bb-2b4e-4611-a9b1-d386b3673211,A
2019-03-27 02:07:45,3265a7bb-2b4e-4611-a9b1-d386b3673211,S
2019-03-27 02:21:04,3265a7bb-2b4e-4611-a9b1-d386b3673211,A
2019-03-27 02:21:52,3265a7bb-2b4e-4611-a9b1-d386b3673211,S
2019-03-27 02:23:05,3265a7bb-2b4e-4611-a9b1-d386b3673211,A
2019-03-27 02:24:28,3265a7bb-2b4e-4611-a9b1-d386b3673211,S
2019-03-27 00:47:03,620d1c8e-2190-4665-9232-1d6231e62fbb,A
2019-03-27 00:47:22,620d1c8e-2190-4665-9232-1d6231e62fbb,S
2019-03-27 00:49:42,620d1c8e-2190-4665-9232-1d6231e62fbb,A
2019-03-27 00:53:48,620d1c8e-2190-4665-9232-1d6231e62fbb,S
2019-03-27 00:55:30,620d1c8e-2190-4665-9232-1d6231e62fbb,A
2019-03-27 00:57:29,620d1c8e-2190-4665-9232-1d6231e62fbb,S
2019-03-27 01:00:16,620d1c8e-2190-4665-9232-1d6231e62fbb,A
2019-03-27 01:08:02,620d1c8e-2190-4665-9232-1d6231e62fbb,S
2019-03-27 01:08:12,620d1c8e-2190-4665-9232-1d6231e62fbb,A
2019-03-27 01:16:28,620d1c8e-2190-4665-9232-1d6231e62fbb,S
2019-03-27 01:18:38,620d1c8e-2190-4665-9232-1d6231e62fbb,A
2019-03-27 01:21:33,620d1c8e-2190-4665-9232-1d6231e62fbb,S
2019-03-27 01:27:29,620d1c8e-2190-4665-9232-1d6231e62fbb,A
2019-03-27 01:28:09,620d1c8e-2190-4665-9232-1d6231e62fbb,S
2019-03-27 01:28:25,620d1c8e-2190-4665-9232-1d6231e62fbb,A
2019-03-27 01:30:04,620d1c8e-2190-4665-9232-1d6231e62fbb,S
2019-03-27 01:30:23,620d1c8e-2190-4665-9232-1d6231e62fbb,A
2019-03-27 01:31:40,620d1c8e-2190-4665-9232-1d6231e62fbb,S
2019-03-27 01:36:37,620d1c8e-2190-4665-9232-1d6231e62fbb,A
2019-03-27 01:38:30,620d1c8e-2190-4665-9232-1d6231e62fbb,S
2019-03-27 01:38:51,620d1c8e-2190-4665-9232-1d6231e62fbb,A
2019-03-27 01:40:02,620d1c8e-2190-4665-9232-1d6231e62fbb,S
2019-03-27 01:46:55,620d1c8e-2190-4665-9232-1d6231e62fbb,A
2019-03-27 01:48:17,620d1c8e-2190-4665-9232-1d6231e62fbb,S
2019-03-27 02:07:19,620d1c8e-2190-4665-9232-1d6231e62fbb,A
2019-03-27 02:13:39,620d1c8e-2190-4665-9232-1d6231e62fbb,S
2019-03-27 02:15:01,620d1c8e-2190-4665-9232-1d6231e62fbb,A
2019-03-27 02:15:17,620d1c8e-2190-4665-9232-1d6231e62fbb,S
2019-03-27 02:24:20,620d1c8e-2190-4665-9232-1d6231e62fbb,A
2019-03-27 00:25:49,2b76ef59-f543-4733-8d4a-c2b52105b0b2,S
2019-03-27 00:28:28,2b76ef59-f543-4733-8d4a-c2b52105b0b2,A
2019-03-27 00:38:35,2b76ef59-f543-4733-8d4a-c2b52105b0b2,S
2019-03-27 00:39:10,2b76ef59-f543-4733-8d4a-c2b52105b0b2,A
2019-03-27 00:40:39,2b76ef59-f543-4733-8d4a-c2b52105b0b2,S
2019-03-27 00:40:57,2b76ef59-f543-4733-8d4a-c2b52105b0b2,A
2019-03-27 00:48:37,2b76ef59-f543-4733-8d4a-c2b52105b0b2,S
2019-03-27 00:52:16,2b76ef59-f543-4733-8d4a-c2b52105b0b2,A
2019-03-27 00:55:09,2b76ef59-f543-4733-8d4a-c2b52105b0b2,S
2019-03-27 01:00:11,2b76ef59-f543-4733-8d4a-c2b52105b0b2,A
2019-03-27 01:05:33,2b76ef59-f543-4733-8d4a-c2b52105b0b2,S
2019-03-27 01:06:03,2b76ef59-f543-4733-8d4a-c2b52105b0b2,A
2019-03-27 01:06:42,2b76ef59-f543-4733-8d4a-c2b52105b0b2,S
2019-03-27 01:16:26,2b76ef59-f543-4733-8d4a-c2b52105b0b2,A
2019-03-27 01:18:23,2b76ef59-f543-4733-8d4a-c2b52105b0b2,S
2019-03-27 01:21:40,2b76ef59-f543-4733-8d4a-c2b52105b0b2,A
2019-03-27 01:28:09,2b76ef59-f543-4733-8d4a-c2b52105b0b2,S
2019-03-27 01:28:49,2b76ef59-f543-4733-8d4a-c2b52105b0b2,A
2019-03-27 01:31:09,2b76ef59-f543-4733-8d4a-c2b52105b0b2,S
2019-03-27 01:33:01,2b76ef59-f543-4733-8d4a-c2b52105b0b2,A
2019-03-27 01:34:41,2b76ef59-f543-4733-8d4a-c2b52105b0b2,S
2019-03-27 01:39:11,2b76ef59-f543-4733-8d4a-c2b52105b0b2,A
2019-03-27 01:43:41,2b76ef59-f543-4733-8d4a-c2b52105b0b2,S
2019-03-27 01:47:28,2b76ef59-f543-4733-8d4a-c2b52105b0b2,A
2019-03-27 01:52:16,2b76ef59-f543-4733-8d4a-c2b52105b0b2,S
2019-03-27 01:53:49,2b76ef59-f543-4733-8d4a-c2b52105b0b2,A
2019-03-27 02:12:07,2b76ef59-f543-4733-8d4a-c2b52105b0b2,S
2019-03-27 02:16:16,2b76ef59-f543-4733-8d4a-c2b52105b0b2,A
2019-03-27 02:24:53,2b76ef59-f543-4733-8d4a-c2b52105b0b2,S
2019-03-27 00:33:11,8299def4-a7ec-4895-a400-be401cdf50e0,S
2019-03-27 00:33:25,8299def4-a7ec-4895-a400-be401cdf50e0,A
2019-03-27 00:47:58,8299def4-a7ec-4895-a400-be401cdf50e0,S
2019-03-27 00:48:55,8299def4-a7ec-4895-a400-be401cdf50e0,A
2019-03-27 00:50:39,8299def4-a7ec-4895-a400-be401cdf50e0,S
2019-03-27 00:52:06,8299def4-a7ec-4895-a400-be401cdf50e0,A
2019-03-27 00:53:50,8299def4-a7ec-4895-a400-be401cdf50e0,S
2019-03-27 00:54:34,8299def4-a7ec-4895-a400-be401cdf50e0,A
2019-03-27 01:08:19,8299def4-a7ec-4895-a400-be401cdf50e0,S
2019-03-27 01:09:07,8299def4-a7ec-4895-a400-be401cdf50e0,A
2019-03-27 01:09:16,8299def4-a7ec-4895-a400-be401cdf50e0,S
2019-03-27 01:13:07,8299def4-a7ec-4895-a400-be401cdf50e0,A
2019-03-27 01:23:56,8299def4-a7ec-4895-a400-be401cdf50e0,S
2019-03-27 01:32:08,8299def4-a7ec-4895-a400-be401cdf50e0,A
2019-03-27 01:32:28,8299def4-a7ec-4895-a400-be401cdf50e0,S
2019-03-27 01:34:09,8299def4-a7ec-4895-a400-be401cdf50e0,A
2019-03-27 01:42:23,8299def4-a7ec-4895-a400-be401cdf50e0,S
2019-03-27 01:48:11,8299def4-a7ec-4895-a400-be401cdf50e0,A
2019-03-27 01:52:43,8299def4-a7ec-4895-a400-be401cdf50e0,S
2019-03-27 01:53:19,8299def4-a7ec-4895-a400-be401cdf50e0,A
2019-03-27 02:00:40,8299def4-a7ec-4895-a400-be401cdf50e0,S
2019-03-27 02:02:11,8299def4-a7ec-4895-a400-be401cdf50e0,A
2019-03-27 02:08:23,8299def4-a7ec-4895-a400-be401cdf50e0,S
2019-03-27 02:09:55,8299def4-a7ec-4895-a400-be401cdf50e0,A
2019-03-27 02:13:54,8299def4-a7ec-4895-a400-be401cdf50e0,S
2019-03-27 02:14:03,8299def4-a7ec-4895-a400-be401cdf50e0,A
2019-03-27 02:16:34,8299def4-a7ec-4895-a400-be401cdf50e0,S
2019-03-27 02:26:26,8299def4-a7ec-4895-a400-be401cdf50e0,A
2019-03-27 00:33:40,565fc7f7-9fc7-40c3-bc2d-edef0f7d7e25,A
2019-03-27 00:42:13,565fc7f7-9fc7-40c3-bc2d-edef0f7d7e25,S
2019-03-27 00:45:19,565fc7f7-9fc7-40c3-bc2d-edef0f7d7e25,A
2019-03-27 00:46:27,565fc7f7-9fc7-40c3-bc2d-edef0f7d7e25,S
2019-03-27 00:51:46,565fc7f7-9fc7-40c3-bc2d-edef0f7d7e25,A
2019-03-27 00:52:27,565fc7f7-9fc7-40c3-bc2d-edef0f7d7e25,S
2019-03-27 00:54:13,565fc7f7-9fc7-40c3-bc2d-edef0f7d7e25,A
2019-03-27 00:55:25,565fc7f7-9fc7-40c3-bc2d-edef0f7d7e25,S
2019-03-27 01:05:25,565fc7f7-9fc7-40c3-bc2d-edef0f7d7e25,A
2019-03-27 01:09:06,565fc7f7-9fc7-40c3-bc2d-edef0f7d7e25,S
2019-03-27 01:11:00,565fc7f7-9fc7-40c3-bc2d-edef0f7d7e25,A
2019-03-27 01:18:57,565fc7f7-9fc7-40c3-bc2d-edef0f7d7e25,S
2019-03-27 01:22:54,565fc7f7-9fc7-40c3-bc2d-edef0f7d7e25,A
2019-03-27 01:37:00,565fc7f7-9fc7-40c3-bc2d-edef0f7d7e25,S
2019-03-27 01:47:43,565fc7f7-9fc7-40c3-bc2d-edef0f7d7e25,A
2019-03-27 01:49:09,565fc7f7-9fc7-40c3-bc2d-edef0f7d7e25,S
2019-03-27 02:00:16,565fc7f7-9fc7-40c3-bc2d-edef0f7d7e25,A
2019-03-27 02:02:05,565fc7f7-9fc7-40c3-bc2d-edef0f7d7e25,S
2019-03-27 02:02:16,565fc7f7-9fc7-40c3-bc2d-edef0f7d7e25,A
2019-03-27 02:07:07,565fc7f7-9fc7-40c3-bc2d-edef0f7d7e25,S
2019-03-27 02:18:33,565fc7f7-9fc7-40c3-bc2d-edef0f7d7e25,A
2019-03-27 02:24:17,565fc7f7-9fc7-40c3-bc2d-edef0f7d7e25,S
2019-03-27 01:15:43,a0b9fcd8-ada7-497b-95b0-87a15d02b1a0,A
2019-03-27 01:16:15,a0b9fcd8-ada7-497b-95b0-87a15d02b1a0,S
2019-03-27 01:29:14,a0b9fcd8-ada7-497b-95b0-87a15d02b1a0,A
2019-03-27 01:42:03,a0b9fcd8-ada7-497b-95b0-87a15d02b1a0,S
2019-03-27 01:42:08,a0b9fcd8-ada7-497b-95b0-87a15d02b1a0,A
2019-03-27 01:43:52,a0b9fcd8-ada7-497b-95b0-87a15d02b1a0,S
2019-03-27 01:47:37,a0b9fcd8-ada7-497b-95b0-87a15d02b1a0,A
2019-03-27 01:48:37,a0b9fcd8-ada7-497b-95b0-87a15d02b1a0,S
2019-03-27 01:52:59,a0b9fcd8-ada7-497b-95b0-87a15d02b1a0,A
2019-03-27 02:14:21,a0b9fcd8-ada7-497b-95b0-87a15d02b1a0,S
2019-03-27 02:14:38,a0b9fcd8-ada7-497b-95b0-87a15d02b1a0,A
2019-03-27 02:15:18,a0b9fcd8-ada7-497b-95b0-87a15d02b1a0,S
2019-03-27 02:16:50,a0b9fcd8-ada7-497b-95b0-87a15d02b1a0,A
2019-03-27 02:17:31,a0b9fcd8-ada7-497b-95b0-87a15d02b1a0,S
2019-03-27 02:23:38,a0b9fcd8-ada7-497b-95b0-87a15d02b1a0,A
2019-03-27 00:21:51,a6984cfc-a2c9-46ae-9f0c-2678fc2423ab,A
2019-03-27 00:28:15,a6984cfc-a2c9-46ae-9f0c-2678fc2423ab,S
2019-03-27 00:38:13,a6984cfc-a2c9-46ae-9f0c-2678fc2423ab,A
2019-03-27 00:51:40,a6984cfc-a2c9-46ae-9f0c-2678fc2423ab,S
2019-03-27 00:54:54,a6984cfc-a2c9-46ae-9f0c-2678fc2423ab,A
2019-03-27 01:04:25,a6984cfc-a2c9-46ae-9f0c-2678fc2423ab,S
2019-03-27 01:10:09,a6984cfc-a2c9-46ae-9f0c-2678fc2423ab,A
2019-03-27 01:12:43,a6984cfc-a2c9-46ae-9f0c-2678fc2423ab,S
2019-03-27 01:16:51,a6984cfc-a2c9-46ae-9f0c-2678fc2423ab,A
2019-03-27 01:21:05,a6984cfc-a2c9-46ae-9f0c-2678fc2423ab,S
2019-03-27 01:21:25,a6984cfc-a2c9-46ae-9f0c-2678fc2423ab,A
2019-03-27 01:25:59,a6984cfc-a2c9-46ae-9f0c-2678fc2423ab,S
2019-03-27 01:27:15,a6984cfc-a2c9-46ae-9f0c-2678fc2423ab,A
2019-03-27 01:41:24,a6984cfc-a2c9-46ae-9f0c-2678fc2423ab,S
2019-03-27 01:44:08,a6984cfc-a2c9-46ae-9f0c-2678fc2423ab,A
2019-03-27 01:48:40,a6984cfc-a2c9-46ae-9f0c-2678fc2423ab,S
2019-03-27 01:49:40,a6984cfc-a2c9-46ae-9f0c-2678fc2423ab,A
2019-03-27 01:54:57,a6984cfc-a2c9-46ae-9f0c-2678fc2423ab,S
2019-03-27 02:01:51,a6984cfc-a2c9-46ae-9f0c-2678fc2423ab,A
2019-03-27 02:12:59,a6984cfc-a2c9-46ae-9f0c-2678fc2423ab,S
2019-03-27 02:15:38,a6984cfc-a2c9-46ae-9f0c-2678fc2423ab,A
2019-03-27 02:17:47,a6984cfc-a2c9-46ae-9f0c-2678fc2423ab,S
2019-03-27 02:24:29,a6984cfc-a2c9-46ae-9f0c-2678fc2423ab,A
2019-03-27 01:09:07,a6654819-e710-441c-8b74-978d3f45b3ab,S
2019-03-27 01:23:37,a6654819-e710-441c-8b74-978d3f45b3ab,A
2019-03-27 01:29:00,a6654819-e710-441c-8b74-978d3f45b3ab,S
2019-03-27 01:29:12,a6654819-e710-441c-8b74-978d3f45b3ab,A
2019-03-27 01:31:41,a6654819-e710-441c-8b74-978d3f45b3ab,S
2019-03-27 01:43:06,a6654819-e710-441c-8b74-978d3f45b3ab,A
2019-03-27 01:43:42,a6654819-e710-441c-8b74-978d3f45b3ab,S
2019-03-27 01:48:25,a6654819-e710-441c-8b74-978d3f45b3ab,A
2019-03-27 01:50:38,a6654819-e710-441c-8b74-978d3f45b3ab,S
2019-03-27 01:51:06,a6654819-e710-441c-8b74-978d3f45b3ab,A
2019-03-27 01:52:10,a6654819-e710-441c-8b74-978d3f45b3ab,S
2019-03-27 02:14:25,a6654819-e710-441c-8b74-978d3f45b3ab,A
2019-03-27 02:19:58,a6654819-e710-441c-8b74-978d3f45b3ab,S
2019-03-27 02:23:40,a6654819-e710-441c-8b74-978d3f45b3ab,A
2019-03-27 02:25:58,a6654819-e710-441c-8b74-978d3f45b3ab,S
2019-03-27 00:40:47,c852f361-7abe-4583-b166-f1d153466416,A
2019-03-27 00:50:57,c852f361-7abe-4583-b166-f1d153466416,S
2019-03-27 01:06:03,c852f361-7abe-4583-b166-f1d153466416,A
2019-03-27 01:07:43,c852f361-7abe-4583-b166-f1d153466416,S
2019-03-27 01:08:22,c852f361-7abe-4583-b166-f1d153466416,A
2019-03-27 01:09:38,c852f361-7abe-4583-b166-f1d153466416,S
2019-03-27 01:14:04,c852f361-7abe-4583-b166-f1d153466416,A
2019-03-27 01:16:02,c852f361-7abe-4583-b166-f1d153466416,S
2019-03-27 01:17:44,c852f361-7abe-4583-b166-f1d153466416,A
2019-03-27 01:19:26,c852f361-7abe-4583-b166-f1d153466416,S
2019-03-27 01:35:03,c852f361-7abe-4583-b166-f1d153466416,A
2019-03-27 01:40:05,c852f361-7abe-4583-b166-f1d153466416,S
2019-03-27 01:45:12,c852f361-7abe-4583-b166-f1d153466416,A
2019-03-27 01:48:04,c852f361-7abe-4583-b166-f1d153466416,S
2019-03-27 01:50:42,c852f361-7abe-4583-b166-f1d153466416,A
2019-03-27 01:53:56,c852f361-7abe-4583-b166-f1d153466416,S
2019-03-27 01:58:56,c852f361-7abe-4583-b166-f1d153466416,A
2019-03-27 02:11:56,c852f361-7abe-4583-b166-f1d153466416,S
2019-03-27 02:14:43,c852f361-7abe-4583-b166-f1d153466416,A
2019-03-27 02:15:13,c852f361-7abe-4583-b166-f1d153466416,S
2019-03-27 02:16:01,c852f361-7abe-4583-b166-f1d153466416,A
2019-03-27 02:17:06,c852f361-7abe-4583-b166-f1d153466416,S
2019-03-27 00:51:25,4bd6b6ba-931f-4809-9222-c3e031124ece,S
2019-03-27 00:51:37,4bd6b6ba-931f-4809-9222-c3e031124ece,A
2019-03-27 00:58:47,4bd6b6ba-931f-4809-9222-c3e031124ece,S
2019-03-27 01:09:16,4bd6b6ba-931f-4809-9222-c3e031124ece,A
2019-03-27 01:09:54,4bd6b6ba-931f-4809-9222-c3e031124ece,S
2019-03-27 01:13:49,4bd6b6ba-931f-4809-9222-c3e031124ece,A
2019-03-27 01:24:18,4bd6b6ba-931f-4809-9222-c3e031124ece,S
2019-03-27 01:24:47,4bd6b6ba-931f-4809-9222-c3e031124ece,A
2019-03-27 01:26:02,4bd6b6ba-931f-4809-9222-c3e031124ece,S
2019-03-27 01:33:16,4bd6b6ba-931f-4809-9222-c3e031124ece,A
2019-03-27 01:35:23,4bd6b6ba-931f-4809-9222-c3e031124ece,S
2019-03-27 01:38:07,4bd6b6ba-931f-4809-9222-c3e031124ece,A
2019-03-27 01:46:53,4bd6b6ba-931f-4809-9222-c3e031124ece,S
2019-03-27 01:58:41,4bd6b6ba-931f-4809-9222-c3e031124ece,A
2019-03-27 02:05:36,4bd6b6ba-931f-4809-9222-c3e031124ece,S
2019-03-27 02:05:43,4bd6b6ba-931f-4809-9222-c3e031124ece,A
2019-03-27 02:13:20,4bd6b6ba-931f-4809-9222-c3e031124ece,S
2019-03-27 02:17:56,4bd6b6ba-931f-4809-9222-c3e031124ece,A
2019-03-27 02:20:00,4bd6b6ba-931f-4809-9222-c3e031124ece,S
2019-03-27 02:20:49,4bd6b6ba-931f-4809-9222-c3e031124ece,A
2019-03-27 02:22:33,4bd6b6ba-931f-4809-9222-c3e031124ece,S
2019-03-27 02:23:43,4bd6b6ba-931f-4809-9222-c3e031124ece,A
2019-03-27 00:47:51,cea732c8-5800-4440-8af6-196358063b6f,S
2019-03-27 00:48:23,cea732c8-5800-4440-8af6-196358063b6f,A
2019-03-27 00:54:29,cea732c8-5800-4440-8af6-196358063b6f,S
2019-03-27 00:57:46,cea732c8-5800-4440-8af6-196358063b6f,A
2019-03-27 01:06:06,cea732c8-5800-4440-8af6-196358063b6f,S
2019-03-27 01:06:58,cea732c8-5800-4440-8af6-196358063b6f,A
2019-03-27 01:11:41,cea732c8-5800-4440-8af6-196358063b6f,S
2019-03-27 01:20:14,cea732c8-5800-4440-8af6-196358063b6f,A
2019-03-27 01:39:10,cea732c8-5800-4440-8af6-196358063b6f,S
2019-03-27 01:43:58,cea732c8-5800-4440-8af6-196358063b6f,A
2019-03-27 01:54:44,cea732c8-5800-4440-8af6-196358063b6f,S
2019-03-27 01:55:08,cea732c8-5800-4440-8af6-196358063b6f,A
2019-03-27 01:55:33,cea732c8-5800-4440-8af6-196358063b6f,S
2019-03-27 01:57:19,cea732c8-5800-4440-8af6-196358063b6f,A
2019-03-27 01:58:53,cea732c8-5800-4440-8af6-196358063b6f,S
2019-03-27 02:00:42,cea732c8-5800-4440-8af6-196358063b6f,A
2019-03-27 02:03:17,cea732c8-5800-4440-8af6-196358063b6f,S
2019-03-27 02:03:28,cea732c8-5800-4440-8af6-196358063b6f,A
2019-03-27 02:10:43,cea732c8-5800-4440-8af6-196358063b6f,S
2019-03-27 02:20:17,cea732c8-5800-4440-8af6-196358063b6f,A
2019-03-27 02:25:39,cea732c8-5800-4440-8af6-196358063b6f,S
2019-03-27 02:26:40,cea732c8-5800-4440-8af6-196358063b6f,A
2019-03-27 01:06:24,d219828a-de12-4615-b563-4f0960ca1495,A
2019-03-27 01:10:10,d219828a-de12-4615-b563-4f0960ca1495,S
2019-03-27 01:15:24,d219828a-de12-4615-b563-4f0960ca1495,A
2019-03-27 01:22:41,d219828a-de12-4615-b563-4f0960ca1495,S
2019-03-27 01:31:10,d219828a-de12-4615-b563-4f0960ca1495,A
2019-03-27 01:38:44,d219828a-de12-4615-b563-4f0960ca1495,S
2019-03-27 01:45:13,d219828a-de12-4615-b563-4f0960ca1495,A
2019-03-27 01:50:48,d219828a-de12-4615-b563-4f0960ca1495,S
2019-03-27 01:59:23,d219828a-de12-4615-b563-4f0960ca1495,A
2019-03-27 02:03:35,d219828a-de12-4615-b563-4f0960ca1495,S
2019-03-27 02:15:35,d219828a-de12-4615-b563-4f0960ca1495,A
2019-03-27 02:15:40,d219828a-de12-4615-b563-4f0960ca1495,S
2019-03-27 02:17:29,d219828a-de12-4615-b563-4f0960ca1495,A
2019-03-27 02:18:23,d219828a-de12-4615-b563-4f0960ca1495,S
2019-03-27 02:18:55,d219828a-de12-4615-b563-4f0960ca1495,A
2019-03-27 02:22:39,d219828a-de12-4615-b563-4f0960ca1495,S
2019-03-27 02:25:24,d219828a-de12-4615-b563-4f0960ca1495,A
2019-03-27 00:42:52,bba07ca3-ebfc-473f-9751-30eb8be79b80,S
2019-03-27 00:43:07,bba07ca3-ebfc-473f-9751-30eb8be79b80,A
2019-03-27 00:55:53,bba07ca3-ebfc-473f-9751-30eb8be79b80,S
2019-03-27 00:58:57,bba07ca3-ebfc-473f-9751-30eb8be79b80,A
2019-03-27 01:31:12,bba07ca3-ebfc-473f-9751-30eb8be79b80,S
2019-03-27 01:35:27,bba07ca3-ebfc-473f-9751-30eb8be79b80,A
2019-03-27 01:38:04,bba07ca3-ebfc-473f-9751-30eb8be79b80,S
2019-03-27 01:41:50,bba07ca3-ebfc-473f-9751-30eb8be79b80,A
2019-03-27 01:42:40,bba07ca3-ebfc-473f-9751-30eb8be79b80,S
2019-03-27 01:44:55,bba07ca3-ebfc-473f-9751-30eb8be79b80,A
2019-03-27 01:45:42,bba07ca3-ebfc-473f-9751-30eb8be79b80,S
2019-03-27 01:52:32,bba07ca3-ebfc-473f-9751-30eb8be79b80,A
2019-03-27 02:04:52,bba07ca3-ebfc-473f-9751-30eb8be79b80,S
2019-03-27 02:19:37,bba07ca3-ebfc-473f-9751-30eb8be79b80,A
2019-03-27 02:23:52,bba07ca3-ebfc-473f-9751-30eb8be79b80,S
2019-03-27 02:28:29,bba07ca3-ebfc-473f-9751-30eb8be79b80,A
2019-03-27 00:30:30,343d53be-7cae-455a-84c8-4bc6b1c16131,A
2019-03-27 00:33:00,343d53be-7cae-455a-84c8-4bc6b1c16131,S
2019-03-27 00:35:45,343d53be-7cae-455a-84c8-4bc6b1c16131,A
2019-03-27 00:38:46,343d53be-7cae-455a-84c8-4bc6b1c16131,S
2019-03-27 00:38:53,343d53be-7cae-455a-84c8-4bc6b1c16131,A
2019-03-27 00:40:35,343d53be-7cae-455a-84c8-4bc6b1c16131,S
2019-03-27 00:42:35,343d53be-7cae-455a-84c8-4bc6b1c16131,A
2019-03-27 00:55:11,343d53be-7cae-455a-84c8-4bc6b1c16131,S
2019-03-27 00:56:59,343d53be-7cae-455a-84c8-4bc6b1c16131,A
2019-03-27 01:05:44,343d53be-7cae-455a-84c8-4bc6b1c16131,S
2019-03-27 01:19:14,343d53be-7cae-455a-84c8-4bc6b1c16131,A
2019-03-27 01:22:48,343d53be-7cae-455a-84c8-4bc6b1c16131,S
2019-03-27 01:24:48,343d53be-7cae-455a-84c8-4bc6b1c16131,A
2019-03-27 01:30:01,343d53be-7cae-455a-84c8-4bc6b1c16131,S
2019-03-27 01:39:18,343d53be-7cae-455a-84c8-4bc6b1c16131,A
2019-03-27 01:39:52,343d53be-7cae-455a-84c8-4bc6b1c16131,S
2019-03-27 01:41:49,343d53be-7cae-455a-84c8-4bc6b1c16131,A
2019-03-27 01:49:39,343d53be-7cae-455a-84c8-4bc6b1c16131,S
2019-03-27 01:51:57,343d53be-7cae-455a-84c8-4bc6b1c16131,A
2019-03-27 02:02:29,343d53be-7cae-455a-84c8-4bc6b1c16131,S
2019-03-27 02:07:02,343d53be-7cae-455a-84c8-4bc6b1c16131,A
2019-03-27 02:11:56,343d53be-7cae-455a-84c8-4bc6b1c16131,S
2019-03-27 02:18:25,343d53be-7cae-455a-84c8-4bc6b1c16131,A
2019-03-27 00:47:07,30998096-afe3-43b9-8033-c223eca78663,A
2019-03-27 00:57:25,30998096-afe3-43b9-8033-c223eca78663,S
2019-03-27 00:59:42,30998096-afe3-43b9-8033-c223eca78663,A
2019-03-27 01:01:35,30998096-afe3-43b9-8033-c223eca78663,S
2019-03-27 01:07:00,30998096-afe3-43b9-8033-c223eca78663,A
2019-03-27 01:14:41,30998096-afe3-43b9-8033-c223eca78663,S
2019-03-27 01:16:56,30998096-afe3-43b9-8033-c223eca78663,A
2019-03-27 01:30:09,30998096-afe3-43b9-8033-c223eca78663,S
2019-03-27 01:33:06,30998096-afe3-43b9-8033-c223eca78663,A
2019-03-27 01:45:19,30998096-afe3-43b9-8033-c223eca78663,S
2019-03-27 01:46:32,30998096-afe3-43b9-8033-c223eca78663,A
2019-03-27 01:52:28,30998096-afe3-43b9-8033-c223eca78663,S
2019-03-27 01:56:07,30998096-afe3-43b9-8033-c223eca78663,A
2019-03-27 01:58:47,30998096-afe3-43b9-8033-c223eca78663,S
2019-03-27 02:03:25,30998096-afe3-43b9-8033-c223eca78663,A
2019-03-27 02:12:17,30998096-afe3-43b9-8033-c223eca78663,S
2019-03-27 02:17:37,30998096-afe3-43b9-8033-c223eca78663,A
2019-03-27 02:17:56,30998096-afe3-43b9-8033-c223eca78663,S
2019-03-27 02:23:52,30998096-afe3-43b9-8033-c223eca78663,A
2019-03-27 00:58:25,e4618050-4910-4577-a774-f69cb6dc304c,A
2019-03-27 00:58:27,e4618050-4910-4577-a774-f69cb6dc304c,S
2019-03-27 01:03:53,e4618050-4910-4577-a774-f69cb6dc304c,A
2019-03-27 01:06:12,e4618050-4910-4577-a774-f69cb6dc304c,S
2019-03-27 01:09:27,e4618050-4910-4577-a774-f69cb6dc304c,A
2019-03-27 01:14:58,e4618050-4910-4577-a774-f69cb6dc304c,S
2019-03-27 01:20:27,e4618050-4910-4577-a774-f69cb6dc304c,A
2019-03-27 01:30:42,e4618050-4910-4577-a774-f69cb6dc304c,S
2019-03-27 01:46:00,e4618050-4910-4577-a774-f69cb6dc304c,A
2019-03-27 01:51:08,e4618050-4910-4577-a774-f69cb6dc304c,S
2019-03-27 01:53:02,e4618050-4910-4577-a774-f69cb6dc304c,A
2019-03-27 01:58:00,e4618050-4910-4577-a774-f69cb6dc304c,S
2019-03-27 02:02:01,e4618050-4910-4577-a774-f69cb6dc304c,A
2019-03-27 02:03:19,e4618050-4910-4577-a774-f69cb6dc304c,S
2019-03-27 02:08:26,e4618050-4910-4577-a774-f69cb6dc304c,A
2019-03-27 02:10:12,e4618050-4910-4577-a774-f69cb6dc304c,S
2019-03-27 02:10:57,e4618050-4910-4577-a774-f69cb6dc304c,A
2019-03-27 02:12:44,e4618050-4910-4577-a774-f69cb6dc304c,S
2019-03-27 02:13:45,e4618050-4910-4577-a774-f69cb6dc304c,A
