node,ip,uuid
node-a8-199.grenoble.iot-lab.info,172.20.64.2,fe0ce811-4f3f-4e42-bb34-7c1b7124390d
node-a8-200.grenoble.iot-lab.info,172.20.64.3,5eb20175-e55c-424e-81cf-e14009c4454f
node-a8-201.grenoble.iot-lab.info,172.20.64.4,f2734731-aada-4d2f-8b67-605de2828684
node-a8-202.grenoble.iot-lab.info,172.20.64.5,dbe607a9-4a27-47aa-98c9-582e0120dcf9
node-a8-204.grenoble.iot-lab.info,172.20.64.6,1ba37805-8a6b-4f12-a87d-36108b947e8d
node-a8-205.grenoble.iot-lab.info,172.20.64.7,a3cf34da-230f-45bf-8513-3a93acfa5d8e
node-a8-206.grenoble.iot-lab.info,172.20.64.8,bca72e4b-11db-4961-a9eb-7f3b8db4e814
node-a8-207.grenoble.iot-lab.info,172.20.64.9,2d57a4c1-6c11-4ee4-8d3c-c1c901ceb791
node-a8-208.grenoble.iot-lab.info,172.20.64.10,5854e69a-27d9-4967-afa3-b4216c20f5a9
node-a8-209.grenoble.iot-lab.info,172.20.64.11,33de2d8a-664d-493c-844d-bbec3096e7eb
node-a8-210.grenoble.iot-lab.info,172.20.64.12,4ab66fee-9ee4-4021-8e46-dbdfb7e61930
node-a8-211.grenoble.iot-lab.info,172.20.64.13,47ca5dfb-9d29-401f-9adf-2004e9348b2b
node-a8-212.grenoble.iot-lab.info,172.20.64.14,e64482c1-55cb-4667-9310-f810e349ad6f
node-a8-214.grenoble.iot-lab.info,172.20.64.15,00a8ab22-1bad-4578-ae1a-23df52287ade
node-a8-216.grenoble.iot-lab.info,172.20.64.16,3a290ed3-23f0-4d18-8d3d-138f0a71b7e0
node-a8-217.grenoble.iot-lab.info,172.20.64.17,0559c404-bfba-4ae8-b083-c2b07aab7d29
node-a8-218.grenoble.iot-lab.info,172.20.64.18,934554f3-8912-441b-a037-1e438ae5bde7
node-a8-219.grenoble.iot-lab.info,172.20.64.19,2cac0e42-7b22-4e14-a5d1-6ed052d06c50
node-a8-220.grenoble.iot-lab.info,172.20.64.20,09296f79-02c4-4550-9c69-39c10002dea9
node-a8-221.grenoble.iot-lab.info,172.20.64.21,7f074ce4-d8cb-4467-aaef-5e6c96ddbc6e
node-a8-165.grenoble.iot-lab.info,172.20.64.22,61ce627f-726c-4170-8710-ef875556ba6b
node-a8-166.grenoble.iot-lab.info,172.20.64.23,7f3620b1-d485-4ee1-b2bf-5aaba58e36ba
node-a8-167.grenoble.iot-lab.info,172.20.64.24,eb63ea67-7b5c-4d8e-8f2e-a2262837cde1
node-a8-168.grenoble.iot-lab.info,172.20.64.25,00388825-e608-4a44-986a-c7f2e5708653
node-a8-169.grenoble.iot-lab.info,172.20.64.26,47efc877-977c-4f8a-b7c6-1d781ad7831b
node-a8-170.grenoble.iot-lab.info,172.20.64.27,1153a7f7-c8a4-4fa8-b303-26551246cf89
node-a8-171.grenoble.iot-lab.info,172.20.64.28,5916a97c-f1a3-4f39-8d4f-9707dd8484f0
node-a8-173.grenoble.iot-lab.info,172.20.64.29,71af2163-1cae-4d83-8b42-2ba0ee237272
node-a8-174.grenoble.iot-lab.info,172.20.64.30,b56591a2-b39e-4ae5-8aa0-c5cac287f74a
node-a8-175.grenoble.iot-lab.info,172.20.64.31,15268ea1-b98c-4cf1-a0b7-0d63ccf7a085
node-a8-176.grenoble.iot-lab.info,172.20.64.32,0cad466d-96ad-4ac5-9cc2-86271e383bf1
node-a8-177.grenoble.iot-lab.info,172.20.64.33,f32e126f-805c-4918-a73b-489588c84780
node-a8-179.grenoble.iot-lab.info,172.20.64.34,1682b8d3-8752-4f14-ab5c-fec294f760d2
node-a8-180.grenoble.iot-lab.info,172.20.64.35,dc667ec1-b608-417a-86a0-706ab225538d
node-a8-181.grenoble.iot-lab.info,172.20.64.36,3a76150d-e4b7-4891-b4ab-4c5efffb317d
node-a8-182.grenoble.iot-lab.info,172.20.64.37,e6ac8c5f-daa6-4644-946d-54a0295694aa
node-a8-183.grenoble.iot-lab.info,172.20.64.38,384cbe49-6268-4471-ab5b-9d146d40d7cb
node-a8-184.grenoble.iot-lab.info,172.20.64.39,c96b96b3-d9f2-4479-bee8-06871360fab4
node-a8-185.grenoble.iot-lab.info,172.20.64.40,aff4ab60-73eb-400c-8214-399918f1bf94
node-a8-187.grenoble.iot-lab.info,172.20.64.41,43683dc3-d87a-4259-9006-a9929d3103f6
node-a8-188.grenoble.iot-lab.info,172.20.64.42,28dbca43-e567-4e9f-bbb9-201ffa7b07a5
node-a8-189.grenoble.iot-lab.info,172.20.64.43,83d03b0d-eaf9-4a23-bfe2-da48966b0bc9
node-a8-190.grenoble.iot-lab.info,172.20.64.44,dfa5de8a-4c49-44f9-ae68-5c6f08ac8be4
node-a8-191.grenoble.iot-lab.info,172.20.64.45,125af085-cb42-453a-9549-5b67fe44e496
node-a8-192.grenoble.iot-lab.info,172.20.64.46,ed00bee3-06d8-4c3d-8f89-ebd92c550296
node-a8-193.grenoble.iot-lab.info,172.20.64.47,e3378f85-b428-45f2-9768-866c2313f62c
node-a8-194.grenoble.iot-lab.info,172.20.64.48,da9194ca-9dc1-4baa-b5c6-b71a9c6ba6a0
node-a8-195.grenoble.iot-lab.info,172.20.64.49,8c6d8440-be11-4e49-bcc1-f1694dc4d5a8
node-a8-197.grenoble.iot-lab.info,172.20.64.50,06546693-41b6-4dcf-97a0-4a815eb998fd
node-a8-198.grenoble.iot-lab.info,172.20.64.51,80a4b2d3-372f-444a-92e9-6c404629c736
suno-11.sophia.grid5000.fr,172.16.130.11,a39a09b4-3d20-444d-a27d-a81c66721a65
suno-14.sophia.grid5000.fr,172.16.130.14,30c7cb43-c5c6-403c-9dd1-36bfc76962da
suno-15.sophia.grid5000.fr,172.16.130.15,2da3be0f-916f-40cb-b9ba-d5a71f5ad709
suno-2.sophia.grid5000.fr,172.16.130.2,72a769a7-a023-43bd-8de0-42b58887a2b8
suno-25.sophia.grid5000.fr,172.16.130.25,37ac7565-9f87-4b21-8f46-2cd6fed70a67
suno-27.sophia.grid5000.fr,172.16.130.27,f93b2960-e5c4-4772-ac25-f3cc9e0882bf
suno-28.sophia.grid5000.fr,172.16.130.28,ba294a5f-b1a3-4472-b4a2-34ef5428dc4e
suno-30.sophia.grid5000.fr,172.16.130.30,ef6f93f7-73ce-4246-ad0d-47e5e94ade07
suno-32.sophia.grid5000.fr,172.16.130.32,6a3aa692-9474-4042-84fb-6b2ed5d0d441
suno-33.sophia.grid5000.fr,172.16.130.33,471aff52-4526-4c6c-bdda-a37d130e048c
suno-34.sophia.grid5000.fr,172.16.130.34,ebfe1d8c-cd72-44d6-83b7-a1468be2d06a
suno-36.sophia.grid5000.fr,172.16.130.36,b2fe9b53-9cc1-4e15-952b-5351f397b0d1
suno-37.sophia.grid5000.fr,172.16.130.37,0f814d98-b845-49b2-b89d-fe8af5b6b08c
suno-43.sophia.grid5000.fr,172.16.130.43,039e3fa4-dcbe-436f-bf8a-9e55c2deca89
suno-44.sophia.grid5000.fr,172.16.130.44,8c88a0c6-31f2-4699-b25b-318003263bb5
suno-8.sophia.grid5000.fr,172.16.130.8,fb43157b-f516-43d4-8024-a2f388d8f5bf
