Application,Deploy Time, G5K CPU usage, G5K RAM usage, A8 CPU usage, A8 RAM usage, G5K Bandwidth, A8 Bandwidth, G5K Latency, A8 Latency, Processed Tokens
98,11.875000,4.741696,227.779687,13.810665,102.366657,0.969926,0.067911,0.005459,0.033103,0.000000
82,19.263000,13.999042,228.486458,15.423694,102.366461,1.085921,0.346538,0.007942,0.033340,2.925000
76,5.452000,26.263396,228.651563,16.091627,102.329931,0.642861,0.551038,0.005734,0.032714,8.100129
69,6.162000,34.573593,229.338542,18.589761,102.323860,1.701632,0.765994,0.005592,0.033061,10.200131
42,7.593000,40.574164,230.544792,19.583446,102.309414,1.014418,1.016877,0.004012,0.033065,14.000000
37,7.104000,48.004357,231.707552,21.817455,102.290992,2.132034,1.205583,0.003129,0.046127,15.875000
32,27.578000,57.972897,232.960156,23.516757,102.277484,2.093020,1.468979,0.002891,0.033481,19.400128
30,25.944000,72.335811,237.797396,24.919042,102.250592,2.163072,1.744787,0.003285,0.034127,24.875000
23,6.779000,77.663831,240.553646,25.580649,102.341553,2.126756,1.835177,0.002103,0.035960,27.725000
1,4.477000,87.181374,242.196875,28.402343,102.329242,2.864394,2.166435,0.001767,0.033248,31.249880
13,4.303000,88.391728,243.329167,27.551341,102.321277,2.397926,2.166499,0.002676,0.032784,31.399879
9,4.072000,87.222947,244.378385,28.487901,102.314678,2.809093,2.137991,0.002783,0.032605,31.224993
99,4.122000,87.552396,245.503125,27.498086,98.864421,2.411757,2.089122,0.001966,0.033181,31.174883
87,3.899000,85.535988,246.574740,27.466637,92.577454,1.977782,2.141388,0.002294,0.032983,31.300000
84,4.048000,87.128251,247.647917,26.910647,92.119638,1.904334,2.138001,0.002250,0.033500,31.350251
80,3.789000,88.024312,248.615104,26.850441,92.120479,1.913437,2.148371,0.002078,0.033475,31.374881
79,3.671000,87.238757,249.601042,26.883283,92.113034,1.926570,2.242647,0.002011,0.046161,31.274882
70,3.762000,86.308673,250.442969,27.598725,92.111221,1.903248,2.195066,0.001720,0.033119,31.250130
68,3.781000,88.950655,251.417969,26.715767,92.109908,1.897505,2.080693,0.002157,0.033210,31.300000
60,3.784000,91.327690,252.591927,28.161816,92.099324,1.931946,2.253620,0.001844,0.033040,32.274858
55,3.822000,90.128466,253.565885,28.088329,92.091793,1.880686,2.335269,0.001674,0.033952,32.174727
54,3.635000,89.967919,254.675781,28.429474,92.083558,1.899617,2.302323,0.002545,0.033047,32.424716
46,3.982000,89.960568,255.488542,28.339760,92.084438,1.923927,2.294293,0.001703,0.032859,32.175128
41,3.969000,89.912298,256.468750,28.400200,92.088957,1.895878,2.295480,0.001711,0.033337,32.075000
39,3.992000,90.679180,257.489844,28.319931,92.093617,1.900194,2.296424,0.002205,0.033007,32.099859
34,3.828000,90.758361,258.359896,28.131070,92.094358,1.897248,2.225995,0.001767,0.033466,32.049734
29,3.958000,88.547604,259.441406,28.382451,92.093256,1.899224,2.308591,0.002133,0.032878,32.149860
27,3.739000,91.758154,260.251823,28.045329,92.073089,1.928790,2.295305,0.001748,0.032640,32.074593
22,3.826000,89.352426,261.085938,28.165420,92.070960,1.901424,2.312701,0.001695,0.033308,32.175000
11,3.975000,91.285093,262.195833,28.373912,92.068805,1.911206,2.305696,0.002205,0.033384,32.225143
97,3.538000,91.961301,263.297917,28.075134,92.066171,1.904414,2.278063,0.002086,0.033518,32.199985
94,3.435000,89.714097,264.378906,28.369163,92.059311,1.953900,2.324657,0.002054,0.033516,32.175000
93,3.307000,91.093212,265.388802,28.037718,92.058413,1.916615,2.332288,0.001711,0.032938,32.125000
91,3.593000,89.329835,266.490365,27.983085,92.057806,1.906925,2.296405,0.001708,0.033254,32.175000
8,3.339000,89.522872,267.587760,27.869797,92.051150,1.905942,2.316602,0.001725,0.033134,32.049998
83,3.405000,91.757212,268.632292,28.061969,92.042487,1.912878,2.289185,0.001808,0.033153,32.075141
7,3.268000,90.652818,269.747656,28.358744,92.041251,1.890747,2.316285,0.001689,0.032927,31.875009
78,3.411000,93.091629,270.930990,28.315964,92.041380,1.906104,2.322160,0.002003,0.032681,32.449856
66,3.419000,89.881970,272.066927,27.738810,92.041499,1.907715,2.274409,0.001948,0.032537,32.175000
62,3.404000,89.804698,273.178125,28.198889,92.031664,1.921668,2.341993,0.001788,0.035186,32.225015
59,3.233000,89.931878,274.224740,27.902507,92.021177,1.918408,2.307022,0.001956,0.033280,32.125000
58,3.681000,90.709204,275.430729,28.314865,92.017821,1.885954,2.309948,0.001759,0.033222,32.025138
57,3.413000,90.042190,276.492448,27.839046,92.011148,1.945407,2.280818,0.001788,0.032469,32.124994
53,3.541000,91.651939,277.703646,28.507087,92.010152,1.919408,2.334610,0.002027,0.033140,31.924991
50,3.707000,91.716965,278.814583,28.032624,92.008371,1.908170,2.254306,0.002051,0.033573,32.325000
4,3.452000,89.996725,279.984375,28.113663,92.003969,1.902352,2.241702,0.001798,0.033046,32.100270
47,3.274000,90.832857,281.060938,28.145355,92.003327,1.900641,2.287934,0.002042,0.033398,31.974861
45,3.407000,90.929962,282.286719,28.123469,92.001284,1.906740,2.276207,0.001938,0.033119,31.900000
44,3.379000,89.788039,283.294271,28.042177,91.995583,1.924631,2.364781,0.002233,0.033195,32.200141
43,3.351000,90.564846,284.514844,28.504918,91.996019,1.884512,2.302600,0.001751,0.033236,32.200015
40,3.513000,89.878244,285.650260,27.667823,91.994484,1.911187,2.240193,0.001763,0.696621,32.099859
3,3.380000,90.891655,286.801823,27.788035,91.989734,1.913328,2.217842,0.001667,0.317152,32.200008
38,3.423000,89.323410,287.888021,27.657352,91.988923,1.942892,2.231322,0.002120,0.434495,32.150000
35,3.351000,90.608450,289.041406,28.192469,91.987999,1.892124,2.209443,0.002057,0.369936,31.950000
2,3.390000,89.141504,290.175000,25.415464,91.987045,1.845943,1.713515,0.002374,1.754149,31.849869
28,3.304000,91.441215,291.352865,28.072143,91.986025,1.890309,2.208714,0.001816,0.247636,32.225000
26,3.415000,89.090271,292.471615,27.748761,91.986810,1.916593,2.296367,0.001738,0.033541,32.050000
15,3.179000,92.063212,293.567969,27.774269,91.985316,1.868940,2.254252,0.001785,0.498638,32.049860
14,3.650000,91.056779,294.565104,27.712646,91.986235,1.891341,2.179600,0.025928,0.459506,32.100130
12,3.325000,91.308681,295.683854,27.755649,91.980254,1.898447,2.184131,0.002181,0.448323,32.250000
10,3.391000,88.775415,296.744010,28.056017,91.977777,1.912728,2.190142,0.001987,0.195486,32.124986
96,3.066000,90.708026,297.909115,28.189229,91.975245,1.909973,2.224631,0.001746,0.032821,32.074868
86,2.977000,90.957946,299.070833,28.191990,91.972709,1.920437,2.328005,0.001780,0.082429,32.049990
85,3.231000,89.605329,300.235937,27.975263,91.972082,1.886963,2.220297,0.001743,0.041968,32.199870
81,3.022000,88.618325,301.237500,27.592640,91.971540,1.906110,2.205754,0.002640,0.033093,32.024731
77,2.862000,90.806039,302.439583,28.267553,91.970679,1.924167,2.351758,0.001755,0.033278,32.250141
75,2.918000,89.754021,303.499740,27.918198,91.969073,1.907703,2.313256,0.001783,0.033366,32.275121
74,2.912000,90.070935,304.632812,26.981127,91.969483,1.888612,2.064912,0.001798,1.679270,31.899860
73,3.028000,90.082934,305.728646,27.712680,91.968333,1.928971,2.241413,0.001760,0.413081,32.100139
72,3.020000,89.851539,306.856250,28.070915,91.967113,1.921280,2.386274,0.001934,0.033090,32.250131
6,2.993000,88.944841,307.950521,27.955644,91.966824,1.913380,2.265037,0.001683,0.032816,32.200000
65,3.018000,91.142125,309.033854,27.840281,91.964772,1.899643,2.268327,0.001694,0.033191,32.150000
64,2.829000,91.885736,310.194271,27.917211,91.965147,1.925475,2.269627,0.001895,0.032705,32.075141
63,2.916000,90.915090,311.184635,28.174718,91.973573,1.919855,2.313592,0.002112,0.041142,32.450146
61,2.843000,91.595978,312.398438,28.070883,91.975784,1.895782,2.314076,0.001964,0.033411,32.174858
5,3.074000,91.505229,313.403906,27.948978,91.974036,1.896469,2.288148,0.002740,0.047202,31.899862
49,2.986000,90.572252,314.589844,28.020743,91.972643,1.899077,2.325569,0.001786,0.033570,32.249856
48,3.176000,89.300966,315.564583,27.677293,91.971036,1.895149,2.247453,0.002177,0.033318,31.925000
36,2.981000,89.672969,316.814062,27.646656,91.960364,1.905880,2.180156,0.001990,0.220675,32.225000
33,2.986000,91.342732,317.826563,28.152841,91.960316,1.897660,2.223000,0.002074,0.258761,32.124729
31,2.872000,90.317852,318.987240,27.850127,91.960508,1.946654,2.253200,0.002158,0.245019,32.000288
25,3.036000,91.098271,320.082552,27.991677,91.959434,1.898076,2.231411,0.001709,0.221362,32.025000
24,2.887000,89.503992,321.132812,27.562406,91.957797,1.900563,2.220349,0.001944,0.093423,32.374871
21,2.998000,90.802115,322.309635,27.700086,91.958440,1.887814,2.227420,0.002011,0.193730,32.275141
20,3.022000,90.093112,323.359375,27.968271,91.956958,1.848357,2.260579,0.001951,0.064098,31.974861
18,2.850000,88.806621,324.513802,27.947579,91.956393,1.913940,2.253536,0.001711,0.066512,32.150000
17,2.880000,88.776946,325.587760,28.185034,91.956255,1.892498,2.384328,0.001773,0.048865,32.049868
0,3.172000,90.114700,326.743750,27.636932,91.955025,1.910808,2.282563,0.001708,0.033337,32.125137
95,2.637000,91.009454,327.913281,27.989830,91.954058,1.913700,2.293848,0.001743,0.032868,32.025024
92,2.658000,91.002681,328.989323,28.260024,91.954284,1.925677,2.293235,0.001803,0.034058,31.975139
90,2.652000,90.370804,330.055990,28.153140,91.953981,1.933172,2.369413,0.002580,0.032572,32.075000
89,2.654000,91.785505,331.306771,27.973398,91.950858,1.925351,2.368518,0.001690,0.033578,32.100000
88,2.653000,91.029336,332.321875,27.956180,91.949713,1.903245,2.304778,0.002629,0.033770,32.124864
71,2.641000,90.570309,333.477344,27.914545,91.948257,1.894584,2.390619,0.002271,0.033579,32.224998
67,2.662000,89.750162,334.545833,28.313768,91.947278,1.896636,2.310321,0.002303,0.032882,32.175000
56,2.660000,89.245963,335.745313,27.745785,91.945705,1.897426,2.254817,0.002083,0.033027,32.375000
52,2.635000,90.382069,336.835156,28.249091,91.945012,1.920196,2.314949,0.001813,0.033407,32.275000
51,2.625000,90.342384,338.023177,27.961593,91.944473,1.900483,2.279732,0.001745,0.033524,32.075000
19,2.673000,90.542954,339.114844,28.324941,91.945079,1.919853,2.281500,0.001704,0.092307,32.249854
16,2.634000,89.674206,340.201042,27.697666,91.942824,1.897417,2.246631,0.001792,0.126514,32.125000
