Application,Deploy Time, G5K CPU usage, G5K RAM usage, A8 CPU usage, A8 RAM usage, G5K Bandwidth, A8 Bandwidth, G5K Latency, A8 Latency, Processed Tokens
7,10.381000,13.112056,225.991016,12.940776,98.966404,0.394369,0.072774,0.005121,0.028731,0.000000
36,9.404000,14.356016,231.874414,19.936872,99.188551,3.383244,0.677603,0.004200,0.029977,34.025000
28,9.392000,20.338517,238.221680,26.303704,99.414329,6.051425,1.314064,0.002928,0.031025,67.900000
26,8.712000,28.835443,245.437305,32.547318,99.756648,8.064154,1.968521,0.002821,0.032887,100.850000
17,9.673000,30.743305,254.449023,37.444697,99.907158,10.725483,2.617770,0.003182,0.033596,136.025000
16,9.180000,31.114307,264.667969,43.826387,100.057677,13.552463,3.215617,0.003146,0.035531,169.500000
8,7.553000,38.713493,275.308008,50.655009,100.246567,16.468427,3.831190,0.002541,0.037046,203.175000
47,7.763000,41.508942,285.853125,54.707974,100.237884,17.888510,4.309242,0.002621,0.037849,220.825000
43,7.798000,41.014288,296.001367,56.867862,100.300178,18.529815,4.638981,0.003151,0.039349,229.225213
42,7.293000,42.032564,307.260352,61.750456,100.417084,20.252745,5.072291,0.003649,0.041402,246.350000
41,7.698000,49.755536,317.883008,65.209983,100.468060,21.494933,5.367016,0.003635,0.042721,254.350000
40,7.790000,53.376298,330.754297,69.875541,100.587895,22.665623,5.922496,0.003086,0.043227,287.425000
35,6.725000,60.709530,344.652539,74.562429,100.761566,24.841887,6.467614,0.003384,0.044497,309.500000
34,6.181000,57.092983,357.083203,77.044539,100.856503,25.236677,6.683429,0.002608,0.045542,314.875000
33,7.988000,62.163738,368.629883,77.151911,100.897330,25.372530,6.719473,0.003657,0.045420,316.900000
31,6.391000,62.666608,382.277930,80.258427,101.042109,25.937223,7.102491,0.003454,0.045555,333.575000
27,5.624000,63.186299,393.850195,80.561718,101.109865,26.295582,7.062875,0.002974,0.044755,330.550000
25,6.987000,62.601898,405.397852,80.727900,101.115415,26.101677,7.051490,0.003770,0.056781,331.550000
23,7.030000,64.890508,417.374414,80.075544,101.129371,25.814822,7.168926,0.002723,0.046292,328.125000
20,6.794000,62.327571,429.608984,80.276891,101.122789,26.230127,7.153518,0.003980,0.045352,330.850000
19,6.784000,59.807132,441.337109,80.314938,101.132846,26.093819,7.044007,0.004133,0.045915,330.775157
15,6.080000,64.610266,453.658789,80.079661,101.127031,25.859092,7.065677,0.003095,0.045910,331.625000
14,6.830000,60.405897,465.502734,80.132403,101.115943,26.005078,7.140094,0.003503,0.055499,330.400000
12,6.858000,61.102690,477.158398,80.414371,101.119910,26.121760,6.987534,0.003214,0.045594,328.175000
11,6.805000,60.647055,488.779883,79.992221,101.123976,25.870145,7.079010,0.003346,0.046115,329.125000
10,6.931000,62.105809,500.881445,79.851222,101.118889,26.357628,7.132273,0.002596,0.045328,332.300000
0,6.237000,58.936304,513.210938,80.455052,101.122656,26.181049,7.043897,0.003033,0.045126,331.600000
9,5.994000,61.051742,525.196484,80.303527,101.130017,26.439040,7.042937,0.002971,0.045427,330.800000
4,6.808000,58.869656,537.227930,80.112640,101.125836,25.749384,7.063572,0.003306,0.043936,332.125000
48,5.810000,60.215159,548.835742,80.430278,101.173739,26.234697,7.098767,0.003044,0.046482,328.650000
46,5.905000,63.213137,559.891602,80.213854,101.124834,26.325996,7.105076,0.003532,0.044941,330.775000
45,7.516000,61.749797,570.793359,79.824516,101.131462,25.750149,7.084203,0.002669,0.045882,331.275000
44,5.730000,65.144379,584.344727,83.189236,101.268637,27.763471,7.445851,0.002946,0.045324,348.475000
3,5.709000,61.887549,596.768945,82.929057,101.292074,27.098244,7.360454,0.004321,0.045202,345.949851
39,6.818000,61.720564,608.821094,82.680088,101.294661,27.019759,7.332796,0.003475,0.045636,346.074648
38,6.501000,64.573035,621.083789,83.202160,101.299450,27.036172,7.455902,0.003905,0.045572,346.325212
37,5.655000,58.443723,633.699609,83.161278,101.298670,27.297944,7.331173,0.002958,0.044942,344.925000
32,6.454000,65.964815,645.916797,82.768372,101.322997,27.079325,7.401750,0.003425,0.046185,347.800000
2,5.381000,60.704899,657.198633,82.548327,101.315817,27.241131,7.414232,0.004132,0.045978,344.350000
29,5.623000,61.783293,666.744922,83.038165,101.305457,27.468666,7.341239,0.002427,0.046931,345.300000
24,5.293000,66.807966,676.216602,82.700541,101.307588,26.724286,7.373072,0.002578,0.045556,344.325000
22,6.000000,63.908054,686.178516,82.502766,101.308288,26.755973,7.309510,0.003221,0.045318,342.850000
21,5.222000,65.120865,695.537305,83.156043,101.306270,27.618987,7.391958,0.003346,0.046757,345.375143
1,5.923000,61.394163,705.211328,82.803491,101.307967,27.499961,7.376473,0.003328,0.045111,345.525000
18,5.190000,64.944805,714.806641,82.565458,101.313330,27.074434,7.476286,0.003040,0.043881,344.725000
13,5.397000,65.460051,724.115430,83.107406,101.314284,27.035066,7.341544,0.002887,0.045534,343.650150
6,5.102000,61.844031,733.872070,82.536670,101.312663,27.253466,7.324371,0.003669,0.045745,343.750000
5,5.313000,63.792494,743.441992,82.724346,101.316639,26.807065,7.394644,0.003009,0.046340,344.925000
49,5.062000,63.594399,753.472461,83.176506,101.320233,27.303915,7.320032,0.003117,0.045805,346.350000
30,4.964000,61.383160,762.792578,82.632418,101.338359,27.105602,7.318421,0.003325,0.045376,344.000136
