Application,Deploy Time, G5K CPU usage, G5K RAM usage, A8 CPU usage, A8 RAM usage, G5K Bandwidth, A8 Bandwidth, G5K Latency, A8 Latency, Processed Tokens
7,10.059000,14.990927,225.082227,13.661708,98.539067,0.381989,0.073194,0.006199,0.029430,0.000000
36,9.285000,16.073614,231.157227,19.968567,98.689880,3.473433,0.670947,0.002876,0.030224,34.075000
28,9.431000,17.108121,234.342383,23.216519,98.750621,4.156937,1.086729,0.003900,0.031752,42.375211
26,8.773000,22.399806,237.998828,25.386408,98.960719,4.753005,1.416328,0.004057,0.032061,49.900000
17,8.820000,25.658868,243.069727,29.536745,99.101696,6.635681,1.858460,0.003748,0.032758,75.950000
16,8.828000,27.537146,250.951953,36.587763,99.320789,9.186660,2.449942,0.003736,0.034589,109.050000
8,8.409000,40.070092,259.376562,42.478827,99.521490,11.394004,3.102457,0.003427,0.036418,137.575000
47,7.424000,44.894206,269.016992,46.644069,99.670733,12.923985,3.676414,0.005403,0.038885,167.475000
43,8.284000,45.639621,277.230859,50.506114,99.768477,14.959671,4.056077,0.004100,0.038198,185.026482
42,7.247000,44.959340,287.283789,56.426446,99.968457,16.804080,4.573888,0.003965,0.040567,208.575000
41,8.523000,54.266729,298.819727,60.857106,100.122961,18.447148,5.040401,0.004400,0.041712,233.824580
40,7.429000,53.955170,309.646484,64.085348,100.253950,19.205270,5.498740,0.003587,0.043456,248.226459
35,7.037000,55.500430,320.494727,67.259556,100.322850,20.597009,5.737256,0.003275,0.044068,259.050000
34,7.642000,57.231917,331.931836,69.998104,100.402426,21.325209,5.969923,0.003606,0.044539,272.525000
33,8.482000,61.481530,344.175000,73.111505,100.502558,25.239608,6.413480,0.003018,0.046158,295.625000
31,8.264000,60.790260,356.301953,74.726117,100.516699,22.645441,6.599291,0.002635,0.046918,288.550000
27,7.730000,59.156771,367.210352,76.607661,100.513038,23.604914,6.687227,0.002380,0.047053,293.526520
25,7.574000,61.905569,378.168945,76.614720,100.500730,22.678799,6.795617,0.003809,0.047535,289.175421
23,8.398000,64.848875,388.823242,78.079227,100.501716,23.916184,7.068430,0.003449,0.049714,291.749574
20,8.912000,59.528303,400.523242,79.811879,100.496174,23.417993,7.181319,0.003471,0.049672,286.775000
19,7.459000,58.345924,412.289844,78.579407,100.484688,23.991752,7.019269,0.003206,0.047927,278.800000
15,6.280000,59.826754,423.938867,82.019172,100.537192,23.962102,7.568469,0.003747,0.047891,298.625000
14,7.551000,60.215555,434.719727,82.204229,100.544939,25.896951,7.606213,0.003889,0.050311,299.075000
12,6.491000,61.762128,445.845312,82.175345,100.550079,24.266769,7.422351,0.003378,0.050147,295.900423
11,7.000000,61.297215,456.610352,82.224501,100.551458,24.567987,7.505711,0.003807,0.048475,299.975000
10,6.604000,61.538053,467.332422,82.196382,100.554113,24.634625,7.507649,0.002499,0.049273,298.749583
0,6.152000,61.691401,478.572070,82.677752,100.565332,24.995653,7.535270,0.003300,0.049035,299.125000
9,6.376000,61.802636,489.393555,82.287506,100.565108,24.519321,7.528827,0.002544,0.050687,299.899578
4,6.853000,61.269155,501.004883,82.104049,100.556926,24.223954,7.521441,0.003119,0.049235,299.751910
48,5.650000,60.707468,511.741797,82.712406,100.614521,24.613671,7.548824,0.003649,0.048263,297.425000
46,6.182000,62.420843,520.649219,82.188393,100.554792,24.420890,7.485573,0.003662,0.048476,298.324576
45,5.779000,58.799172,526.922461,81.921305,100.542589,23.819709,7.552620,0.003626,0.049595,296.700000
44,6.093000,63.299237,533.686914,82.195582,100.536324,24.642715,7.473672,0.003695,0.047782,299.300000
3,5.369000,62.153801,540.477734,81.795554,100.546021,23.749575,7.502216,0.003213,0.047511,294.899579
39,5.817000,61.689960,547.404102,81.769930,100.544835,24.393598,7.556682,0.004237,0.048598,298.125000
38,6.034000,60.313965,554.387695,82.552645,100.559096,24.662322,7.508888,0.002947,0.049947,296.974579
37,6.448000,65.216110,561.838672,82.014522,100.558596,24.517542,7.464127,0.003525,0.047509,297.525000
32,5.820000,62.895968,568.847656,81.961243,100.584722,23.989375,7.555469,0.004036,0.049974,297.375000
2,5.613000,56.621934,575.682227,82.494920,100.580737,24.084295,7.477920,0.003133,0.047996,298.323073
29,6.214000,60.225611,582.855859,82.316416,100.588406,24.543752,7.510215,0.003702,0.047650,298.200000
24,6.190000,57.251281,590.207031,81.927536,100.593667,23.999672,7.596128,0.002900,0.049074,298.849574
22,6.185000,63.725478,597.146289,82.283959,100.598036,24.244214,7.513166,0.002850,0.049257,297.850000
21,6.328000,59.507849,604.168164,82.310226,100.597274,24.561463,7.525445,0.003742,0.048582,297.323476
1,6.191000,61.308936,611.474023,81.586483,100.598347,23.844889,7.536306,0.003074,0.047886,296.773898
18,6.179000,59.692476,618.573437,82.087766,100.601773,24.475632,7.528259,0.003305,0.049035,297.075000
13,5.565000,63.381753,625.461914,82.436225,100.607130,24.150448,7.503555,0.004420,0.048400,299.150000
6,5.207000,62.596971,632.865039,81.202025,100.611762,23.330152,7.558443,0.004552,0.046985,295.325000
5,5.800000,59.279453,639.771484,82.633694,100.614408,24.826470,7.510848,0.003453,0.049002,300.850000
49,5.160000,61.886808,646.831641,82.245036,100.619426,24.334040,7.488516,0.003955,0.047611,289.575000
30,5.021000,60.196024,653.591406,81.765760,100.625712,24.287772,7.541740,0.003548,0.048046,299.400000
