Application,Deploy Time, G5K CPU usage, G5K RAM usage, A8 CPU usage, A8 RAM usage, G5K Bandwidth, A8 Bandwidth, G5K Latency, A8 Latency, Processed Tokens, Accepted
0,10.786000,10.988412,224.774023,14.337181,99.300114,0.619723,0.058398,0.005468,0.029035,0.000000,1
10,5.862000,20.464618,228.838477,13.712706,99.254238,0.624822,0.179511,0.005815,0.030469,6.300000,1
11,7.581000,28.983794,231.299023,15.674188,99.308304,1.386734,0.251811,0.003898,0.031373,9.950000,1
12,7.380000,34.639146,235.280078,15.487282,99.384899,1.672430,0.441368,0.004140,0.032872,20.100000,1
13,5.599000,42.397848,239.481250,18.561263,99.500607,3.090568,0.700738,0.005272,0.033802,32.200000,1
14,4.908000,46.657402,242.819141,17.638204,99.518691,2.703943,0.775406,0.004911,0.033821,32.150000,1
15,4.901000,45.774403,245.313672,19.584835,99.601887,3.096566,0.774664,0.004474,0.033543,32.350000,1
16,5.676000,49.355584,248.363281,19.088523,99.661950,2.918126,0.863130,0.004720,0.033683,36.575000,1
17,4.698000,55.241092,251.638281,20.876615,99.693639,3.538006,0.910329,0.005198,0.034577,39.150000,1
18,5.424000,53.988928,255.111719,20.095287,99.769315,3.222925,0.947704,0.004481,0.035927,40.900000,1
19,6.091000,61.173237,259.730859,22.543852,99.837783,4.209546,1.120620,0.003724,0.092399,48.150000,1
1,4.154000,61.634079,263.865625,21.564559,99.888482,3.791807,1.159707,0.002746,0.103107,50.125000,1
20,5.910000,64.462161,267.765039,23.712558,99.938648,4.410357,1.174746,0.004508,0.035628,51.675000,1
21,6.253000,65.446739,272.555078,23.452939,100.017578,4.148375,1.378271,0.003760,0.036375,57.075000,1
22,6.496000,69.677012,278.819141,25.718830,100.044168,5.252451,1.505799,0.002577,0.036957,63.950000,1
23,7.476000,70.745896,285.069922,24.823651,100.100666,4.826220,1.579286,0.003040,0.038427,66.725000,1
24,7.467000,71.607381,291.821680,26.354964,100.144451,5.707576,1.676731,0.003474,0.043254,72.675000,1
25,4.801000,77.142811,299.482813,26.361130,100.194937,5.582480,1.774409,0.003805,0.037770,77.400000,0
26,6.137000,74.410606,304.163281,26.462896,100.208289,6.059539,1.747153,0.003687,0.036432,77.600000,1
27,4.943000,77.405446,311.497461,27.372063,100.250304,6.247857,1.917941,0.002771,0.037022,86.350000,1
28,5.493000,80.293449,318.648242,28.862595,100.288207,7.167941,2.046086,0.002577,0.037493,92.550000,1
29,7.251000,83.183434,325.159570,28.776282,100.300201,6.872510,2.103383,0.002746,0.040954,94.725000,1
2,7.711000,87.495255,333.523438,30.105875,100.374260,7.590362,2.162648,0.002188,0.037189,98.975000,1
30,6.622000,89.927408,341.734570,29.922207,100.417812,7.528410,2.238361,0.002177,0.038526,98.575000,1
31,3.249000,89.657175,349.718359,31.156575,100.438832,8.122125,2.385357,0.002548,0.038917,107.125000,0
32,4.155000,88.306521,356.169922,30.667612,100.475527,8.157630,2.430845,0.002389,0.038204,106.525000,1
33,3.380000,90.446705,363.528125,31.442379,100.448706,8.202724,2.403877,0.002373,0.038034,106.600000,0
34,5.387000,88.331563,370.033789,31.409540,100.483317,7.788862,2.402722,0.002232,0.039657,106.950000,1
35,3.233000,89.466882,377.630664,32.568788,100.556624,8.524946,2.500017,0.002549,0.037941,112.225000,0
36,5.242000,89.551783,384.408203,31.625228,100.574706,8.159296,2.513701,0.002345,0.038721,111.625000,1
37,4.153000,89.193240,392.200977,33.411026,100.547821,8.527510,2.550331,0.002677,0.038150,111.550000,0
38,4.787000,90.893585,398.900195,32.352264,100.579143,8.300156,2.552930,0.002759,0.039514,111.675000,0
39,3.994000,88.220430,405.727344,33.372431,100.593641,8.527981,2.562577,0.002374,0.037693,111.300000,1
3,3.702000,90.045662,413.037305,32.293843,100.642377,8.299252,2.513216,0.002630,0.038063,111.900000,0
40,4.415000,89.895530,419.101367,33.532745,100.661028,8.490693,2.485679,0.002412,0.039747,112.000000,0
41,5.882000,91.163049,425.078320,32.560599,100.668232,8.416066,2.500575,0.002636,0.038439,111.775000,1
42,3.257000,91.020908,432.186719,34.319105,100.645541,8.771686,2.578702,0.002838,0.040019,115.375000,0
43,6.065000,93.660495,438.819531,33.179130,100.668109,8.671446,2.581892,0.002548,0.039142,115.300000,1
44,5.129000,94.869252,447.449414,34.983812,100.695949,8.957952,2.716071,0.002322,0.039658,115.400000,0
45,4.963000,92.012222,454.194922,34.386289,100.713187,8.944327,2.687854,0.002307,0.039646,115.475000,0
46,2.945000,91.386118,460.739062,34.701003,100.753452,8.878766,2.704024,0.002621,0.038969,115.100000,0
47,5.314000,92.268769,467.084375,34.375558,100.763725,8.885116,2.654290,0.002462,0.039370,115.025000,0
48,3.398000,94.034578,473.355859,34.638140,100.767057,8.826901,2.656428,0.002467,0.040500,115.450000,1
49,2.932000,91.800981,480.413086,35.065899,100.824652,9.005065,2.683758,0.002352,0.038910,116.725000,0
4,4.591000,93.750442,486.714258,34.516229,100.845096,8.955945,2.703096,0.002772,0.040538,117.100000,0
5,2.889000,94.468089,493.217773,34.641652,100.835795,9.034313,2.703812,0.002179,0.039068,116.525000,0
6,4.126000,92.789548,499.396289,34.238127,100.838498,8.641244,2.711252,0.001955,0.039495,117.300000,1
7,2.555000,90.364501,507.186328,35.077470,100.887455,8.967554,2.699564,0.002879,0.039488,116.650000,0
8,4.404000,92.539073,513.589258,34.485260,100.894783,8.717720,2.713132,0.002204,0.039892,116.800000,1
9,4.258000,94.166063,521.277344,35.788330,100.910699,8.963677,2.756629,0.002346,0.039450,116.600000,0
