Application,Deploy Time, G5K CPU usage, G5K RAM usage, A8 CPU usage, A8 RAM usage, G5K Bandwidth, A8 Bandwidth, G5K Latency, A8 Latency, Processed Tokens, Accepted
0,10.541000,12.192749,224.430664,13.942187,98.446073,0.858160,0.058084,0.004787,0.029791,0.000000,1
10,5.862000,21.929096,228.376367,13.436651,98.429493,0.854445,0.177980,0.005776,0.032475,6.100000,1
11,6.902000,29.421401,231.052344,16.040421,98.395146,1.497739,0.249506,0.004892,0.032634,10.025000,1
12,7.063000,35.384361,235.004102,15.743418,98.477488,1.625387,0.439655,0.003915,0.033422,19.875000,1
13,4.957000,41.865585,238.399805,18.231463,98.583276,2.618359,0.683674,0.004337,0.034381,19.550153,1
14,4.643000,40.845079,241.944531,17.525755,98.682998,2.248634,0.749267,0.003963,0.034119,22.825000,1
15,5.111000,42.569773,244.421094,19.148932,98.726343,2.920585,0.759779,0.003973,0.033851,24.075000,1
16,5.186000,49.903519,247.186328,18.884882,98.793253,2.529374,0.840176,0.003733,0.035335,28.100000,1
17,4.733000,48.996454,250.582812,20.155969,98.863964,3.215943,0.864709,0.003621,0.035031,28.325000,1
18,5.224000,52.927857,253.875391,18.973574,98.925998,2.660467,0.865242,0.003938,0.034996,28.075000,1
19,5.361000,53.866967,258.141016,21.420074,98.988105,3.725774,0.998956,0.004571,0.035789,35.050000,1
1,4.589000,55.825222,262.220898,19.943400,99.055595,3.171185,1.007385,0.003690,0.034882,34.900000,1
20,5.686000,57.023109,265.440039,21.108131,99.117086,3.801508,1.010187,0.003496,0.035251,36.475000,1
21,6.282000,58.951182,270.001172,21.186348,99.166016,3.998356,1.201935,0.004786,0.035916,46.600301,1
22,6.683000,57.407401,275.264844,22.457182,99.242488,4.494592,1.200130,0.004064,0.036112,46.850000,1
23,8.192000,57.532578,280.247656,21.050872,99.288488,4.086712,1.239448,0.003625,0.036246,47.425000,1
24,7.917000,57.883335,285.983008,22.435372,99.356292,4.554208,1.187658,0.004186,0.035446,46.700000,1
25,6.432000,57.499651,291.543164,21.462049,99.408569,4.347728,1.239810,0.003268,0.035715,47.475000,1
26,6.628000,58.731973,298.155859,21.976723,99.421785,5.479306,1.517923,0.003768,0.035879,52.650000,1
27,5.789000,64.305076,304.621289,22.822625,99.400105,5.591757,1.721975,0.003305,0.036916,61.975303,1
28,5.071000,66.569615,310.975195,24.500442,99.460343,6.545765,1.819600,0.003598,0.037534,67.050000,1
29,8.225000,66.341304,316.591211,23.910043,99.510158,5.987691,1.824745,0.002939,0.036788,67.050000,1
2,7.641000,63.963033,324.192383,24.487783,99.589387,6.190535,1.808744,0.002977,0.037879,66.725000,1
30,7.265000,70.438542,331.655078,24.346263,99.639358,6.046114,1.848889,0.003846,0.037772,65.550000,1
31,4.755000,65.985612,338.716797,25.030477,99.692663,6.915616,1.991050,0.003357,0.037497,76.000000,1
32,5.227000,68.391347,345.447852,25.438134,99.772822,7.143704,1.981854,0.003219,0.039183,74.450298,1
33,5.061000,64.090310,351.942383,25.371681,99.815959,6.898088,1.945460,0.003202,0.036989,73.199967,1
34,5.951000,68.071704,359.364453,26.373020,99.855478,7.427796,2.079038,0.003238,0.038314,73.725000,1
35,4.645000,66.900154,365.805664,26.331863,99.942907,6.896410,2.062862,0.002352,0.036766,73.750000,1
36,6.321000,66.952346,371.848047,26.381030,99.992916,6.813569,2.029527,0.002986,0.036918,72.900000,1
37,6.039000,63.886256,378.300391,26.207610,100.027247,6.533693,2.003742,0.002786,0.037276,71.600000,1
38,7.518000,62.428892,384.956836,26.468187,100.083898,6.720111,2.031622,0.003255,0.037363,72.275000,1
39,5.194000,69.742313,393.733398,27.339621,100.130967,7.330221,2.332267,0.002494,0.035487,86.275000,1
3,5.311000,74.645770,400.444922,28.380437,100.200141,7.681552,2.300391,0.002419,0.037731,86.325000,1
40,6.668000,72.273861,406.902344,27.585101,100.247953,7.260463,2.326091,0.002279,0.036352,86.150000,1
41,6.207000,77.964461,413.848828,29.846099,100.303347,7.873714,2.445485,0.002373,0.036438,89.250000,1
42,4.203000,76.872009,420.587305,28.763395,100.342828,7.425700,2.463472,0.002601,0.037030,89.774850,1
43,6.501000,73.318606,426.834961,29.737890,100.422675,7.665152,2.454091,0.002386,0.038781,88.749709,1
44,7.470000,74.350539,433.586523,28.785724,100.447489,7.577865,2.457472,0.002144,0.037269,89.275000,1
45,6.881000,85.455240,441.711914,30.937905,100.427376,8.460105,2.631427,0.002618,0.038628,95.200000,1
46,3.059000,79.906530,449.769922,29.726120,100.519842,7.913294,2.604696,0.002559,0.037295,94.025000,0
47,7.521000,80.327215,455.417188,30.956247,100.529223,8.487151,2.600262,0.002438,0.037329,95.275000,1
48,4.015000,81.067111,463.428320,29.736269,100.596143,7.874787,2.602803,0.002088,0.038703,94.775000,1
49,4.002000,78.465101,469.413672,30.729856,100.642518,8.467090,2.593423,0.002291,0.036926,94.525000,1
4,6.396000,82.627837,475.541797,29.747718,100.661863,7.934712,2.600567,0.002654,0.037998,94.075000,1
5,3.263000,80.980958,482.673047,30.714317,100.702003,8.408843,2.614904,0.002607,0.037630,94.475000,1
6,4.544000,82.319480,488.731055,30.011310,100.778451,8.081315,2.628253,0.002875,0.038123,93.350000,1
7,4.107000,83.588079,495.096094,30.626886,100.828787,8.210031,2.578889,0.002381,0.038385,93.000000,1
8,4.681000,77.371134,501.152734,30.034537,100.878421,8.122347,2.586976,0.002457,0.037507,93.925000,1
9,4.683000,80.822501,507.662500,30.655898,100.928405,8.224143,2.576786,0.003173,0.038261,94.075000,0
