Application,Deploy Time, G5K CPU usage, G5K RAM usage, A8 CPU usage, A8 RAM usage, G5K Bandwidth, A8 Bandwidth, G5K Latency, A8 Latency, Processed Tokens, Accepted
0,8.338000,11.767457,225.362109,13.663011,99.271058,0.739715,0.062283,0.004868,0.029007,0.000000,1
10,5.183000,15.280736,228.575391,13.618025,99.274686,0.456297,0.174012,0.006179,0.028868,6.400000,0
11,6.387000,14.063825,228.854102,14.774759,99.295898,0.807455,0.176957,0.006132,0.028533,6.400000,1
12,5.721000,18.873857,231.730859,14.468671,99.343341,0.647805,0.354315,0.004897,0.029080,16.700000,0
13,4.054000,17.939820,232.614844,15.970154,99.383955,1.228930,0.353348,0.004383,0.029008,16.550000,0
14,3.293000,18.630838,233.309766,14.477076,99.402004,0.600245,0.352906,0.005145,0.028996,16.425326,0
15,3.243000,19.210512,233.886133,16.025688,99.410345,1.197424,0.349086,0.005168,0.029302,16.600000,0
16,4.911000,19.833883,234.620898,14.488657,99.422715,0.639472,0.356348,0.005318,0.028665,16.725000,1
17,4.060000,22.346210,236.819922,16.554752,99.378267,1.154213,0.422241,0.005159,0.029447,20.325000,1
18,4.895000,22.849368,238.425195,15.424082,99.419568,0.640829,0.425354,0.005321,0.031543,20.275000,1
19,4.696000,27.199519,240.957617,17.409612,99.486899,1.438346,0.555439,0.005195,0.028649,26.625000,1
1,3.333000,27.762974,243.241406,16.666215,99.572392,1.073135,0.559822,0.004991,0.029116,26.450000,1
20,4.331000,28.069571,245.208789,17.839176,99.597738,1.512663,0.590724,0.005759,0.028945,28.350000,0
21,5.833000,27.471972,246.338477,17.237990,99.627035,1.198609,0.593475,0.005232,0.029575,28.450000,1
22,6.745000,32.131199,249.904687,19.006881,99.686929,1.873256,0.706781,0.004907,0.030133,34.275000,1
23,7.769000,33.849684,253.268555,18.334770,99.758123,1.587683,0.762589,0.006353,0.030323,33.400000,1
24,7.947000,37.904104,257.264063,19.559915,99.863020,2.285896,0.876391,0.004688,0.030328,38.625000,1
25,4.775000,39.205675,261.497070,19.379867,99.901208,1.945016,0.951435,0.004097,0.030795,41.700000,0
26,5.897000,39.898089,263.460742,20.086692,99.921648,2.388085,0.942960,0.004670,0.030516,41.700000,0
27,4.487000,39.412998,265.575195,19.235039,99.937984,2.045951,0.961165,0.004451,0.030255,41.725000,0
28,4.913000,38.310284,267.666406,20.351046,99.945036,2.418505,0.944929,0.004827,0.030314,41.825000,1
29,8.139000,40.852674,270.838477,19.798300,99.978686,2.057044,1.001824,0.005278,0.030135,44.275000,1
2,7.307000,43.740844,275.638086,21.328319,100.030991,2.750824,1.079574,0.003439,0.030384,48.575000,1
30,5.851000,45.517299,280.234766,20.625817,100.080184,2.429044,1.151376,0.004044,0.030674,50.700000,1
31,3.974000,46.261254,284.955469,22.736966,100.113933,2.829857,1.303399,0.002697,0.030802,59.050000,1
32,3.876000,48.594928,288.822266,22.043245,100.088002,2.715949,1.359137,0.004585,0.030756,60.400440,1
33,4.495000,49.188504,292.526953,23.750979,100.163164,3.199686,1.357349,0.002775,0.031349,61.800000,1
34,4.694000,52.208421,297.214453,23.139436,100.232138,3.073127,1.477727,0.003760,0.030917,68.324558,1
35,3.540000,52.556240,302.023828,25.554995,100.293103,3.627678,1.574710,0.003817,0.031526,72.974558,0
36,4.806000,53.092647,305.138672,24.196657,100.320450,3.087904,1.577559,0.003157,0.030429,73.650000,1
37,5.729000,53.405869,310.124023,26.104085,100.332447,3.629467,1.619128,0.002368,0.031676,76.150000,1
38,6.234000,58.396906,315.071680,25.697797,100.409191,3.396393,1.685473,0.003647,0.031520,79.300000,0
39,3.912000,59.224635,318.970312,26.361409,100.453072,4.003209,1.673586,0.003792,0.031358,79.075443,1
3,5.112000,59.158548,323.471094,25.561995,100.500320,3.441070,1.713897,0.004121,0.031513,80.149557,1
40,5.972000,61.986369,328.320703,26.902915,100.562192,4.070540,1.741076,0.002942,0.031558,83.225000,1
41,5.934000,66.117330,334.999414,27.295584,100.588935,4.238305,1.964389,0.003868,0.032477,93.350000,1
42,3.458000,67.769270,339.885742,28.392036,100.671761,4.990507,2.002741,0.003035,0.032053,96.600000,0
43,5.772000,68.084929,344.112305,27.598270,100.687004,4.438321,1.995584,0.003368,0.032979,96.550000,1
44,5.320000,67.463127,350.188086,28.815262,100.715326,5.200912,2.057081,0.003219,0.032940,101.200000,0
45,7.280000,68.194318,354.883398,28.266808,100.731740,4.916281,2.104086,0.003257,0.031578,100.875000,1
46,2.908000,78.028381,361.647266,29.282984,100.815673,5.500847,2.131496,0.002956,0.034843,104.425446,0
47,7.315000,74.565828,366.633984,28.738399,100.836629,5.180185,2.150690,0.003478,0.034190,104.450000,1
48,3.081000,87.390437,374.770117,30.483214,100.869433,6.079203,2.329359,0.002541,0.036126,114.575000,0
49,2.992000,90.313137,380.313477,29.857943,100.888511,5.886284,2.316590,0.002457,0.036739,113.699558,0
4,5.030000,89.030167,385.618750,30.051645,100.904277,6.125767,2.321577,0.002927,0.035587,114.175000,0
5,2.621000,88.690952,390.809766,29.834599,100.918662,5.897224,2.318822,0.002884,0.036440,114.025000,0
6,3.341000,86.553874,395.996875,29.846645,100.930146,5.675375,2.328189,0.003023,0.035571,114.500000,0
7,3.173000,89.683704,400.716016,30.449628,100.939090,6.061970,2.339936,0.002403,0.036276,113.900000,0
8,3.838000,86.497814,405.896094,30.082806,100.943431,5.588117,2.322430,0.002164,0.036118,114.200000,0
9,4.407000,88.580670,410.755859,30.696450,100.950255,6.092088,2.327507,0.002208,0.036343,113.749560,0
