Application,Deploy Time, G5K CPU usage, G5K RAM usage, A8 CPU usage, A8 RAM usage, G5K Bandwidth, A8 Bandwidth, G5K Latency, A8 Latency, Processed Tokens, Accepted
0,6.448000,12.128987,224.900586,13.590396,98.436035,0.320548,0.063986,0.003269,0.029229,0.000000,1
10,4.780000,18.900944,228.993750,14.069286,98.402780,0.937596,0.183565,0.003781,0.030427,6.375000,1
11,5.236000,25.512234,231.706250,15.678116,98.426593,1.496671,0.259476,0.004363,0.030744,10.225000,1
12,4.673000,31.934949,235.857227,15.607747,98.423650,1.936553,0.452272,0.003821,0.031640,20.425000,1
13,4.495000,33.713430,240.438281,18.123719,98.521753,2.851010,0.694918,0.004907,0.031959,20.250000,1
14,3.167000,40.687896,243.756641,17.860038,98.543828,2.966194,0.776241,0.004366,0.031612,24.050000,1
15,3.665000,44.518339,246.435156,19.308822,98.584818,3.071568,0.801972,0.004685,0.032291,25.650000,1
16,4.161000,44.713120,249.910352,19.901526,98.600132,3.526371,0.883277,0.003613,0.031967,29.750000,1
17,4.033000,48.623452,253.808398,20.845386,98.614199,3.579497,0.942407,0.004586,0.033107,33.125000,1
18,4.676000,48.681980,257.362695,21.417562,98.652857,3.884104,0.977907,0.003011,0.032252,34.850000,1
19,4.612000,55.055190,261.897461,22.149817,98.737730,4.212713,1.115019,0.003507,0.033378,42.325000,1
1,3.197000,57.354953,266.299219,23.191984,98.796097,4.534685,1.172215,0.002842,0.032660,43.800000,1
20,4.581000,58.655445,269.995508,23.416886,98.862590,4.411452,1.213839,0.003168,0.033727,45.675000,1
21,4.582000,60.450811,275.155859,25.072580,98.928171,5.433418,1.407110,0.002499,0.034513,56.375000,1
22,5.283000,68.350660,280.968750,25.631889,98.964408,5.630217,1.540760,0.003077,0.035724,63.100000,1
23,6.231000,67.685251,287.319531,26.745175,99.013635,6.178103,1.591577,0.003057,0.035800,66.099884,1
24,6.397000,72.799902,294.928711,26.783998,99.072561,6.188128,1.700232,0.002301,0.035950,72.575000,1
25,4.490000,80.225891,302.543359,28.268393,99.129864,6.407563,1.796769,0.002500,0.036733,77.550000,0
26,5.524000,78.075165,307.333203,27.710596,99.172159,6.517901,1.791104,0.002312,0.036590,77.550000,1
27,4.377000,80.571185,314.902539,29.321457,99.237519,7.126321,1.967551,0.001847,0.036875,86.875000,1
28,4.772000,82.868641,322.152344,30.091563,99.287873,7.504438,2.082643,0.001960,0.037163,92.700000,1
29,4.637000,83.941813,329.684570,31.016227,99.317943,7.776118,2.122821,0.002374,0.036793,95.450000,0
2,5.061000,86.159522,335.686914,30.131973,99.331473,7.636910,2.143271,0.002370,0.038237,95.300000,0
30,5.397000,85.885275,341.916211,31.195809,99.336977,7.818517,2.121306,0.002535,0.037151,95.250000,1
31,3.230000,86.252693,350.013281,31.330943,99.290894,8.197086,2.288864,0.002087,0.038275,103.750000,0
32,3.810000,86.467023,357.004687,32.455197,99.314314,8.702007,2.269327,0.002168,0.037066,103.750000,1
33,3.402000,86.678520,364.508008,31.628902,99.307238,8.240828,2.319934,0.002492,0.037243,105.050000,0
34,4.520000,83.825466,370.946875,32.941336,99.335507,8.742422,2.305785,0.002540,0.037976,105.525000,1
35,3.305000,87.939441,378.526172,32.308747,99.328480,8.125907,2.360785,0.002114,0.037534,110.500000,0
36,4.710000,87.946342,385.122656,33.412255,99.352480,8.551325,2.352553,0.002603,0.037384,110.150000,1
37,4.126000,88.797562,392.635742,33.298221,99.351597,8.440031,2.429910,0.002571,0.038380,113.450000,0
38,4.595000,87.355231,399.017773,34.066563,99.370894,8.758767,2.420294,0.002063,0.037210,113.125000,0
39,3.781000,85.143807,405.883789,33.211100,99.378079,8.488109,2.427595,0.002048,0.037094,113.350000,1
3,3.981000,91.044914,413.178711,34.340760,99.334109,8.819508,2.436947,0.001878,0.039029,113.925000,0
40,4.421000,87.870577,419.270117,33.956048,99.345868,8.456731,2.436497,0.002274,0.037245,114.350000,0
41,5.056000,86.815842,424.970117,34.254407,99.356077,8.669442,2.432088,0.002166,0.037914,114.400000,1
42,3.246000,90.866375,432.357031,34.686289,99.365115,8.574263,2.510766,0.002008,0.038344,115.825000,0
43,4.710000,88.590172,437.995117,34.564196,99.381472,8.865926,2.505674,0.002076,0.037479,116.725116,1
44,5.088000,91.362638,445.971680,35.362461,99.441897,8.980782,2.605452,0.002323,0.039853,121.300000,0
45,4.967000,90.838185,452.374219,34.974074,99.452562,9.142542,2.583038,0.002280,0.037856,121.325000,0
46,2.935000,91.878189,458.804883,35.541171,99.481682,8.962088,2.584956,0.001972,0.038264,120.550000,0
47,5.039000,92.640476,464.961328,34.694376,99.494871,9.165022,2.647646,0.002299,0.038054,121.525000,0
48,3.238000,88.915747,471.744922,35.446135,99.490125,9.099228,2.579343,0.002123,0.038805,121.000000,1
49,2.600000,92.213262,478.339063,35.527436,99.507184,9.080615,2.607665,0.002476,0.038652,122.525000,0
4,5.220000,90.439000,484.671680,36.267317,99.522200,9.700351,2.621409,0.001874,0.039125,122.050000,1
5,2.823000,91.573715,492.335742,35.576363,99.569402,9.292033,2.695596,0.002019,0.039365,122.750000,0
6,3.182000,92.563517,498.616211,36.761396,99.567218,9.486982,2.674714,0.002391,0.039894,122.475000,0
7,2.538000,92.884332,504.809375,35.412835,99.577582,8.986639,2.675840,0.002212,0.037949,122.650000,0
8,3.894000,93.387855,510.892773,36.410760,99.586944,9.500802,2.681729,0.001938,0.039782,122.900000,1
9,4.598000,91.770498,518.673242,35.836667,99.550050,9.100651,2.721355,0.002184,0.038727,125.700000,0
