Application,Deploy Time, G5K CPU usage, G5K RAM usage, A8 CPU usage, A8 RAM usage, G5K Bandwidth, A8 Bandwidth, G5K Latency, A8 Latency, Processed Tokens
45,9.250000,13.581305,225.235938,13.743969,98.978551,0.613778,0.067299,0.005273,0.030239,0.000000
28,9.176000,16.519957,231.033789,20.347261,99.198410,3.311007,0.684038,0.004396,0.030413,33.925000
7,8.113000,24.660771,237.583203,26.060568,99.428573,5.870248,1.323659,0.002779,0.031342,67.725000
4,7.488000,31.207652,243.960156,30.615856,99.711472,7.395490,1.829740,0.003079,0.032377,93.425425
47,8.673000,32.837111,251.570703,34.499358,99.844483,9.300633,2.286332,0.002221,0.034329,118.499579
40,8.264000,41.546258,260.607031,41.570032,100.001996,12.684514,2.911380,0.002340,0.035566,152.275000
37,8.849000,48.640285,269.996875,47.371424,100.200147,14.835141,3.527234,0.003822,0.037936,184.450000
36,8.460000,51.976892,281.246875,52.824213,100.376473,16.918805,4.145418,0.002942,0.038695,218.200000
35,8.760000,56.209483,291.804688,57.789351,100.562018,18.316527,4.647931,0.003703,0.039724,238.275000
34,6.879000,62.552296,303.464258,63.288975,100.749787,21.121515,5.225482,0.003815,0.041155,261.551173
31,7.124000,63.369845,313.570117,62.875072,100.836424,20.556867,5.272251,0.002855,0.041378,263.225000
30,7.069000,61.896436,323.127344,63.108471,100.851354,20.946204,5.270990,0.002242,0.041490,265.475000
29,6.844000,63.164629,332.521484,63.699888,100.826359,21.049051,5.239606,0.002886,0.042252,263.550000
27,7.000000,61.913732,342.772656,63.388441,100.826088,20.906870,5.211167,0.003895,0.041960,264.900000
25,6.860000,63.485167,352.354688,62.946028,100.833473,20.620415,5.277698,0.003038,0.041535,264.875000
19,7.524000,62.626148,362.131641,62.943998,100.825866,20.407629,5.219521,0.003960,0.041861,262.900000
17,6.925000,73.457675,375.392383,68.000687,100.882261,22.654472,5.650779,0.002763,0.044380,286.200000
15,7.436000,69.031913,385.921484,67.639220,100.903903,22.255777,5.709804,0.003118,0.044429,288.750000
14,7.700000,82.389367,399.207227,71.845994,101.054676,24.414015,6.131767,0.002415,0.048435,311.876157
11,7.614000,86.292420,412.066211,75.071175,101.229266,25.167512,6.388891,0.016061,0.048957,319.375000
10,7.153000,85.572007,424.204297,76.871339,101.274181,25.599535,6.692700,0.002064,0.049751,320.850000
8,5.437000,85.990156,436.513086,78.069915,101.443577,24.654939,6.806298,0.002546,0.049909,323.500000
5,6.478000,87.727417,448.283203,78.573868,101.451476,25.585556,6.841034,0.002883,0.052203,324.867472
48,6.322000,88.468789,460.328516,79.368060,101.522064,25.775005,7.146431,0.002631,0.051029,323.549302
46,4.971000,87.200843,472.378711,79.040183,101.550709,24.777570,7.078904,0.002725,0.050962,324.425000
44,6.264000,89.646383,483.784570,79.573921,101.552068,25.576656,7.050907,0.003088,0.052081,325.800000
43,5.940000,89.443411,495.239844,79.467187,101.553488,25.113280,7.034347,0.003244,0.053997,324.400000
42,5.190000,85.063485,506.839844,79.557102,101.575702,25.212342,7.149616,0.002623,0.050924,326.900000
41,5.930000,86.193218,518.412109,79.480627,101.575759,25.686565,7.065497,0.002560,0.050513,323.475000
3,6.684000,89.657239,529.796484,79.450258,101.609664,25.086430,7.041013,0.002933,0.051095,324.750000
39,4.938000,90.352843,541.018164,78.854026,101.584456,25.068514,7.071386,0.003049,0.051787,323.474309
33,5.973000,89.915264,551.976758,79.809808,101.593009,25.769623,7.167323,0.002586,0.053603,324.050000
32,6.289000,84.367524,563.038867,79.289079,101.586321,25.034295,7.057700,0.002475,0.048759,322.475000
2,5.221000,87.073891,574.110937,79.181851,101.565031,25.264375,7.092401,0.002581,0.049900,325.400000
26,4.748000,92.022803,585.979883,79.270981,101.555744,24.829668,6.928165,0.003518,0.051996,322.724319
24,6.265000,89.178022,597.250586,79.541406,101.548977,25.486556,6.998743,0.003157,0.051926,323.550000
23,5.450000,87.817342,608.605664,79.124715,101.546475,24.604233,7.090768,0.002361,0.052226,321.800000
22,4.763000,89.016325,620.083789,79.572202,101.553873,25.087928,7.000612,0.002686,0.050582,323.075000
20,5.055000,90.338156,631.455469,79.073673,101.551138,25.018495,6.975111,0.002704,0.049097,320.325000
18,4.833000,87.687498,642.775000,79.006494,101.551005,25.106940,7.050194,0.002786,0.053608,322.250000
16,4.972000,88.128524,654.129688,79.352583,101.552485,25.476342,7.074733,0.002343,0.050661,322.150000
12,5.099000,88.134352,665.615039,79.265946,101.543382,25.932221,7.135235,0.002925,0.053422,323.400000
0,4.970000,88.162567,677.163672,78.897454,101.545892,24.456280,6.943390,0.002973,0.050638,321.900000
9,4.144000,86.602340,688.530078,79.537415,101.517223,25.527815,6.998522,0.002529,0.050168,322.100000
6,4.574000,89.293625,699.537695,78.705836,101.510873,24.768453,7.005580,0.002824,0.050489,321.877197
49,4.591000,91.875404,710.826953,79.028552,101.510791,24.603289,6.946423,0.003100,0.053039,319.825676
38,4.458000,89.118208,722.229687,79.106687,101.506651,25.387656,6.971910,0.003078,0.052057,322.200000
21,4.415000,86.542280,733.884961,78.774960,101.494343,24.811757,6.945635,0.002755,0.050714,321.974321
1,4.488000,85.311892,745.157031,78.863851,101.489841,24.672221,6.953016,0.003085,0.050346,321.300000
13,4.541000,90.012810,756.238086,79.432181,101.490998,25.371733,6.977174,0.002608,0.050401,321.425000
