Application,Deploy Time, G5K CPU usage, G5K RAM usage, A8 CPU usage, A8 RAM usage, G5K Bandwidth, A8 Bandwidth, G5K Latency, A8 Latency, Processed Tokens
8,9.979000,16.547554,225.093164,13.652552,98.823426,0.406921,0.083934,0.004389,0.037969,0.000000
7,10.374000,17.472551,228.833398,17.145218,98.989112,1.819793,0.409361,0.003329,0.038697,17.850000
6,8.942000,26.260039,233.168359,21.609498,99.230300,2.982115,0.753706,0.004049,0.040340,35.825000
5,9.366000,28.789627,237.912305,26.175607,99.462234,4.949528,1.075753,0.003841,0.040376,53.675000
4,8.592000,34.560909,243.245898,30.562037,99.666082,6.274870,1.418004,0.003406,0.041055,71.625000
3,9.200000,41.110811,249.749805,34.753433,99.913373,7.544079,1.770015,0.003175,0.042252,89.375783
2,9.034000,48.043576,256.415625,38.598185,100.138934,8.938771,2.097807,0.003328,0.043256,106.675000
1,9.594000,54.677212,264.251367,42.421851,100.325971,9.728271,2.425850,0.003424,0.043712,124.750000
9,7.302000,62.561356,271.579102,45.725890,100.519231,10.578959,2.799657,0.002682,0.046106,134.625000
15,8.872000,66.486807,280.273047,48.831908,100.724469,12.060326,3.052040,0.002895,0.048632,148.425000
14,8.779000,76.691844,288.061719,52.626516,100.881392,12.737933,3.389904,0.002547,0.056212,158.575000
13,8.572000,80.786334,295.849414,55.268348,100.973368,13.301950,3.644042,0.002232,0.058648,162.699247
12,7.751000,85.633149,303.425586,57.519353,101.097947,13.266625,3.940237,0.002618,0.060274,162.474266
11,7.306000,86.740128,311.293359,58.622596,101.252116,13.206073,4.073116,0.002498,0.060729,162.150000
10,7.602000,85.323826,319.479688,60.063883,101.402163,13.086810,4.119031,0.003078,0.059111,166.875436
