Token Size,Iteration,Token Interval,CPU
2048,11,0.1,93.6
2048,11,0.3,59.2
2048,11,0.5,46.6
2048,11,0.7,41.8
2048,11,1,36.1
2048,11,1.5,29.4
2048,11,2,23.9
2048,12,0.1,93.5
2048,12,0.3,58.9
2048,12,0.5,47.0
2048,12,0.7,42.8
2048,12,1,35.2
2048,12,1.5,28.7
2048,12,2,24.5
2048,13,0.1,93.9
2048,13,0.3,59.5
2048,13,0.5,47.2
2048,13,0.7,42.4
2048,13,1,35.1
2048,13,1.5,28.2
2048,13,2,25.1
2048,14,0.1,94.1
2048,14,0.3,59.4
2048,14,0.5,46.8
2048,14,0.7,42.4
2048,14,1,35.7
2048,14,1.5,28.9
2048,14,2,24.8
2048,15,0.1,93.6
2048,15,0.3,60.5
2048,15,0.5,46.5
2048,15,0.7,42.4
2048,15,1,34.9
2048,15,1.5,28.7
2048,15,2,25.0
2048,16,0.1,93.7
2048,16,0.3,58.8
2048,16,0.5,46.2
2048,16,0.7,42.9
2048,16,1,36.4
2048,16,1.5,28.7
2048,16,2,24.4
2048,17,0.1,94.0
2048,17,0.3,58.8
2048,17,0.5,45.9
2048,17,0.7,43.1
2048,17,1,35.1
2048,17,1.5,28.2
2048,17,2,25.0
2048,18,0.1,93.8
2048,18,0.3,59.4
2048,18,0.5,46.6
2048,18,0.7,42.6
2048,18,1,34.8
2048,18,1.5,28.0
2048,18,2,25.6
2048,19,0.1,93.8
2048,19,0.3,59.8
2048,19,0.5,46.3
2048,19,0.7,42.4
2048,19,1,34.6
2048,19,1.5,29.5
2048,19,2,24.7
2048,20,0.1,93.7
2048,20,0.3,59.5
2048,20,0.5,46.7
2048,20,0.7,41.7
2048,20,1,36.2
2048,20,1.5,28.1
2048,20,2,24.3
2048,21,0.1,93.4
2048,21,0.3,59.5
2048,21,0.5,45.4
2048,21,0.7,41.7
2048,21,1,35.1
2048,21,1.5,29.1
2048,21,2,25.6
2048,22,0.1,93.9
2048,22,0.3,59.2
2048,22,0.5,46.9
2048,22,0.7,42.7
2048,22,1,35.9
2048,22,1.5,29.3
2048,22,2,25.8
2048,23,0.1,93.8
2048,23,0.3,59.8
2048,23,0.5,46.5
2048,23,0.7,42.3
2048,23,1,35.5
2048,23,1.5,29.3
2048,23,2,25.7
2048,24,0.1,93.8
2048,24,0.3,59.1
2048,24,0.5,46.4
2048,24,0.7,42.4
2048,24,1,35.4
2048,24,1.5,29.2
2048,24,2,25.6
2048,25,0.1,95.5
2048,25,0.3,59.4
2048,25,0.5,46.0
2048,25,0.7,42.9
2048,25,1,34.2
2048,25,1.5,28.9
2048,25,2,25.7
2048,26,0.1,93.7
2048,26,0.3,59.3
2048,26,0.5,46.6
2048,26,0.7,41.9
2048,26,1,35.5
2048,26,1.5,29.1
2048,26,2,25.8
2048,27,0.1,94.5
2048,27,0.3,16.0
2048,27,0.5,46.8
2048,27,0.7,42.7
2048,27,1,35.7
2048,27,1.5,29.3
2048,27,2,25.5
2048,28,0.1,93.8
2048,28,0.3,16.4
2048,28,0.5,47.5
2048,28,0.7,42.8
2048,28,1,35.5
2048,28,1.5,29.1
2048,28,2,25.0
2048,29,0.1,93.6
2048,29,0.3,16.6
2048,29,0.5,45.9
2048,29,0.7,41.7
2048,29,1,34.8
2048,29,1.5,29.1
2048,29,2,24.3
2048,30,0.1,94.5
2048,30,0.3,15.8
2048,30,0.5,46.7
2048,30,0.7,42.6
2048,30,1,35.8
2048,30,1.5,29.1
2048,30,2,24.8
1024,30,0.1,89.2
1024,30,0.3,15.9
1024,30,0.5,44.5
1024,30,0.7,41.5
1024,30,1,34.8
1024,30,1.5,27.6
1024,30,2,24.4
1024,31,0.1,89.6
1024,31,0.3,16.0
1024,31,0.5,44.6
1024,31,0.7,41.2
1024,31,1,34.4
1024,31,1.5,28.5
1024,31,2,25.1
1024,32,0.1,89.5
1024,32,0.3,15.3
1024,32,0.5,45.1
1024,32,0.7,41.5
1024,32,1,34.3
1024,32,1.5,27.9
1024,32,2,24.6
1024,33,0.1,89.6
1024,33,0.3,15.2
1024,33,0.5,44.5
1024,33,0.7,41.5
1024,33,1,33.8
1024,33,1.5,26.8
1024,33,2,23.7
1024,34,0.1,89.4
1024,34,0.3,12.8
1024,34,0.5,43.8
1024,34,0.7,41.5
1024,34,1,34.7
1024,34,1.5,26.9
1024,34,2,23.4
1024,35,0.1,89.6
1024,35,0.3,14.1
1024,35,0.5,45.6
1024,35,0.7,41.8
1024,35,1,33.1
1024,35,1.5,28.6
1024,35,2,24.7
1024,36,0.1,89.2
1024,36,0.3,14.2
1024,36,0.5,44.9
1024,36,0.7,41.9
1024,36,1,33.0
1024,36,1.5,27.8
1024,36,2,23.3
1024,37,0.1,87.6
1024,37,0.3,13.9
1024,37,0.5,44.7
1024,37,0.7,41.6
1024,37,1,34.4
1024,37,1.5,27.3
1024,37,2,23.7
1024,38,0.1,89.5
1024,38,0.3,15.0
1024,38,0.5,45.3
1024,38,0.7,41.4
1024,38,1,35.0
1024,38,1.5,28.4
1024,38,2,24.9
1024,39,0.1,89.6
1024,39,0.3,15.1
1024,39,0.5,45.2
1024,39,0.7,41.9
1024,39,1,33.1
1024,39,1.5,28.6
1024,39,2,24.8
1024,40,0.1,89.4
1024,40,0.3,14.1
1024,40,0.5,44.5
1024,40,0.7,42.0
1024,40,1,34.2
1024,40,1.5,28.2
1024,40,2,24.8
