Application,Deploy Time, G5K CPU usage, G5K RAM usage, A8 CPU usage, A8 RAM usage, G5K Bandwidth, A8 Bandwidth, G5K Latency, A8 Latency, Processed Tokens
6,7.642000,15.509658,225.151953,13.762007,98.973054,0.552997,0.082415,0.005617,0.037714,0.000000
46,6.542000,17.901216,226.463867,15.650973,98.973168,1.016667,0.141104,0.006755,0.038512,3.875000
30,7.234000,22.477758,227.846484,16.845197,99.061712,0.819024,0.211327,0.003753,0.039190,7.725000
17,6.486000,24.773841,229.387305,17.501842,99.163535,1.115988,0.298768,0.004803,0.038532,11.500000
9,6.664000,29.864101,230.680078,20.034915,99.307926,1.841619,0.369014,0.005884,0.039186,15.225000
7,5.879000,29.645282,232.204688,21.583596,99.400278,2.174351,0.410000,0.004247,0.039696,18.125000
4,5.989000,34.281519,233.401563,22.344445,99.394426,1.700367,0.575380,0.005136,0.040371,20.125000
49,6.753000,35.280644,234.765625,24.010223,99.432640,2.518289,0.624516,0.005620,0.040957,22.699976
47,6.453000,40.461145,236.323633,26.232668,99.454045,2.837965,0.737121,0.003305,0.040770,26.550000
45,5.972000,44.016572,238.054102,27.160336,99.464461,2.961089,0.836765,0.005103,0.040604,30.175000
44,6.678000,44.762910,239.841406,27.565280,99.535604,2.683255,0.877411,0.006189,0.043338,32.950000
39,6.206000,49.910957,241.592969,29.672148,99.594963,3.520571,0.914317,0.004480,0.044024,35.724953
38,6.373000,48.484916,243.474219,30.624953,99.637293,3.668519,0.947281,0.003784,0.043949,39.699954
36,6.396000,51.475715,245.572266,31.533215,99.672532,3.464352,1.118299,0.002919,0.043306,41.499953
35,6.625000,56.579874,247.639258,33.644666,99.685902,4.353838,1.223145,0.003598,0.044967,42.575000
33,6.413000,51.360303,250.151172,35.724393,99.609235,5.144124,1.444360,0.003574,0.045500,42.375048
32,5.776000,57.207196,252.173633,35.551271,99.600452,4.837109,1.419195,0.003963,0.044292,45.175000
31,6.553000,61.550050,254.005469,36.146774,99.594886,4.322876,1.396860,0.004707,0.044280,47.950000
28,6.206000,62.171875,256.119141,38.429242,99.613667,4.915902,1.489811,0.002634,0.043933,51.375000
27,6.233000,64.415203,258.640625,39.263052,99.732335,4.896544,1.561577,0.003073,0.045744,55.099769
25,6.227000,64.229089,260.984766,41.212871,99.818866,5.215102,1.769182,0.002587,0.044519,57.100000
22,6.221000,67.184192,263.180273,41.662724,99.902308,5.656152,1.750757,0.003404,0.045401,59.624908
21,6.135000,67.953576,265.658984,43.280709,99.971933,5.157821,1.901888,0.003168,0.047119,60.700000
1,5.874000,73.416057,267.781836,43.304435,99.994506,5.207150,2.022326,0.002429,0.045948,62.475000
12,6.116000,67.206457,269.983594,44.046836,99.998522,5.739200,2.006564,0.002376,0.046344,62.450074
8,5.099000,68.621622,272.166406,44.142571,99.976658,5.740305,2.024642,0.002805,0.047878,62.375000
5,4.800000,74.284149,274.453906,43.477765,99.938883,5.147156,2.036677,0.002979,0.047096,62.325072
48,5.350000,70.296608,276.659570,44.229631,99.910018,5.662250,2.019268,0.004342,0.046769,61.725000
43,5.519000,72.186074,279.209961,44.753052,99.901112,5.776881,2.088954,0.002902,0.048579,64.025000
42,5.609000,73.634657,281.589453,44.258985,99.888509,5.275249,2.083452,0.002702,0.047315,64.075000
41,5.828000,69.994888,283.698242,45.461684,99.880357,5.970536,2.089286,0.002570,0.047240,64.200000
3,5.472000,72.994235,285.511914,45.199449,99.872746,5.793145,2.112269,0.003237,0.047490,64.175071
34,5.247000,74.333295,287.472070,44.396427,99.870816,5.479571,2.086661,0.003216,0.048734,64.000000
2,5.764000,73.721596,289.384180,45.396414,99.858244,6.006280,2.103557,0.002856,0.046531,64.000141
29,5.305000,68.677988,291.960156,46.861723,99.821170,5.878080,2.281142,0.002897,0.049444,64.150000
24,5.144000,74.629174,294.378711,46.191038,99.809741,5.794681,2.282932,0.002888,0.050348,64.000000
20,5.511000,75.226557,296.678711,46.499295,99.799591,6.192083,2.267840,0.003509,0.047221,63.975071
19,6.086000,70.622655,299.100000,46.778068,99.803328,5.724037,2.240842,0.002940,0.047463,64.250000
18,5.578000,74.243847,301.572070,46.802362,99.826113,6.034427,2.285301,0.003062,0.049647,66.048200
16,5.715000,74.069267,304.020508,47.569650,99.844963,6.202504,2.290410,0.003308,0.050033,66.100076
14,5.948000,74.228923,306.408203,47.173838,99.851434,5.749448,2.327459,0.002508,0.049401,65.825000
13,5.648000,79.866983,309.075391,48.257609,99.863889,5.774037,2.426396,0.002300,0.052777,68.600074
11,5.644000,78.874891,311.710352,48.994463,99.886333,6.303398,2.424323,0.003049,0.051946,68.575000
0,5.542000,76.921046,314.381836,48.928868,99.893191,6.299196,2.396804,0.003370,0.052228,68.725000
40,4.910000,78.681117,316.919922,48.376567,99.889026,5.637928,2.410791,0.002757,0.051520,68.550072
37,4.981000,77.709982,319.419531,49.522203,99.874640,6.292885,2.415950,0.002412,0.052127,68.600000
26,4.743000,73.841375,321.951172,48.824147,99.870650,6.177513,2.454714,0.002668,0.051288,69.250000
23,4.776000,78.197905,324.462109,48.488818,99.868871,5.749596,2.423758,0.002542,0.052215,68.925000
15,4.959000,76.307405,326.958984,49.429093,99.873012,6.344638,2.435575,0.002507,0.051994,68.425273
10,5.073000,76.627861,329.451563,48.356854,99.875408,6.113355,2.408838,0.002743,0.050824,68.424926
