Application,Deploy Time, G5K CPU usage, G5K RAM usage, A8 CPU usage, A8 RAM usage, G5K Bandwidth, A8 Bandwidth, G5K Latency, A8 Latency, Processed Tokens, Accepted
0,12.406000,9.526634,231.955469,15.643703,101.683961,0.699906,0.056343,0.005534,0.029089,0.000000,1
10,5.762000,9.978327,234.491797,16.546011,101.715054,1.323892,0.210457,0.005401,0.029280,8.450000,1
11,5.064000,10.548216,235.947656,16.391586,101.764390,1.047610,0.253830,0.004289,0.029175,10.725000,1
12,10.406000,13.184524,237.529102,18.578781,101.827074,1.722822,0.319935,0.003882,0.029466,14.150000,1
13,10.246000,12.812833,239.147852,18.687856,101.826398,1.735785,0.344790,0.003532,0.028889,15.525000,1
14,9.804000,15.661542,241.412695,17.830179,101.864328,1.440213,0.386026,0.004968,0.028649,15.650000,1
15,18.244000,14.320706,244.908203,20.604803,101.919402,2.805350,0.556417,0.002928,0.029226,25.175000,1
16,9.680000,21.738605,250.218555,21.186081,101.976878,3.313585,0.733623,0.003192,0.029842,34.850000,1
17,12.930000,24.547714,254.155859,21.044115,102.035765,3.053147,0.798901,0.002703,0.030131,34.900000,1
18,4.985000,35.678964,259.833594,23.053728,102.117852,4.662081,1.016059,0.003236,0.030959,46.250000,1
19,6.666000,37.734445,263.324219,23.142221,102.183986,4.240890,1.020458,0.002442,0.031166,46.375000,1
1,19.731000,40.559527,267.441992,23.959457,102.232149,3.959931,1.101128,0.002502,0.031998,46.400000,1
20,18.229000,45.983030,273.726367,25.541127,102.265415,4.939187,1.155619,0.003589,0.032936,50.100000,1
21,6.492000,45.394192,279.648438,25.597098,102.304503,4.834097,1.224133,0.002430,0.032947,54.175000,1
22,18.833000,51.164296,284.309766,25.375497,102.357940,4.710124,1.279942,0.002759,0.032970,56.000000,1
23,12.481000,49.273450,290.293750,27.613105,102.407672,5.746384,1.379629,0.003461,0.032848,62.075000,1
24,8.552000,54.763113,296.565625,27.534406,102.463199,5.787647,1.460243,0.003055,0.033747,66.200000,1
25,18.704000,61.580544,302.540039,28.195538,102.537000,6.034647,1.548829,0.002956,0.034674,70.900000,1
26,7.871000,59.522869,310.562695,29.924742,102.567847,6.582687,1.618714,0.004116,0.035540,75.550000,1
27,8.371000,58.407342,316.154102,29.710142,102.606027,6.471512,1.660035,0.002637,0.035035,77.750000,1
28,11.098000,67.517623,322.924609,31.191490,102.646130,7.164629,1.779622,0.002518,0.036076,83.425000,1
29,10.603000,68.138777,330.664648,31.545213,102.692397,7.489497,1.854315,0.003388,0.036519,87.425000,1
2,7.831000,70.308358,339.173047,32.144494,102.736914,7.515394,1.961411,0.002594,0.034812,93.100000,1
30,4.299000,78.332008,346.321484,33.959202,102.791602,8.116828,2.038546,0.002621,0.035628,95.600000,1
31,5.275000,75.898410,353.270312,33.354817,102.858910,7.821124,2.084192,0.002220,0.035991,97.675000,1
32,3.841000,78.529398,360.417773,34.826561,102.899550,8.130036,2.091127,0.002754,0.036620,97.400000,1
33,6.587000,78.954890,366.907031,34.841347,102.969441,7.986557,2.165534,0.001888,0.036618,100.100000,1
34,14.752000,79.394085,374.031641,36.613405,103.027532,8.578267,2.215616,0.002493,0.036047,104.150000,1
35,10.740000,81.941436,382.357422,36.676930,103.067656,8.913899,2.322217,0.002498,0.036773,108.725000,1
36,6.166000,85.194414,391.002539,37.571711,103.101101,9.500393,2.370391,0.002501,0.038109,111.250000,0
37,9.332000,86.561094,397.149805,37.222891,103.135568,9.175046,2.369248,0.002245,0.037560,111.025000,1
38,16.762000,86.184724,404.253711,37.774818,103.160124,8.962833,2.402968,0.002658,0.036963,114.025000,1
39,12.250000,87.356718,413.982227,39.678303,103.189543,10.079992,2.524446,0.002496,0.038415,117.200000,1
3,10.477000,87.763658,422.738867,39.290378,103.233931,9.634466,2.571838,0.002450,0.037428,117.325000,1
40,6.409000,89.163560,430.973242,40.257586,103.280543,9.526114,2.649065,0.002389,0.037866,117.375000,1
41,5.353000,91.481290,438.532227,40.613038,103.302119,9.850961,2.656686,0.002402,0.040528,117.875000,0
42,4.123000,91.790558,445.292578,40.616062,103.359508,9.732475,2.663192,0.002081,0.038617,118.050000,0
43,7.600000,90.187825,451.836719,40.392741,103.373994,9.815058,2.664052,0.002740,0.037904,117.975000,1
44,14.233000,90.127685,460.223242,41.336858,103.367167,10.126342,2.717489,0.002030,0.039222,121.000000,1
45,4.544000,87.870184,468.303125,41.481732,103.434684,10.331998,2.723869,0.002069,0.038731,121.225000,1
46,4.401000,92.846628,476.006250,41.292236,103.444877,10.280280,2.752234,0.002381,0.039065,121.150000,0
47,4.823000,91.588261,482.594727,42.050377,103.467331,10.252738,2.768681,0.002324,0.038938,121.300000,0
48,6.569000,91.744928,489.477148,41.478450,103.481777,10.467768,2.749003,0.002192,0.038991,121.400000,0
49,6.070000,90.630110,496.109375,41.588733,103.474065,10.247549,2.740046,0.002204,0.038439,120.975000,0
4,6.461000,91.100647,503.070703,41.384733,103.456486,10.062544,2.749856,0.002682,0.040071,121.300000,0
5,4.328000,90.421210,509.640234,41.928917,103.448612,10.201947,2.717107,0.002083,0.039496,121.225000,0
6,7.159000,92.093220,516.422070,41.296318,103.438772,9.860896,2.724471,0.002431,0.040932,121.425000,0
7,19.951000,90.326653,523.706836,42.064999,103.432264,10.176029,2.725991,0.002777,0.038582,121.225000,1
8,3.812000,92.371556,533.144922,45.682184,103.541002,10.377843,2.797222,0.002404,0.038523,124.575000,0
9,5.626000,91.387327,539.919531,46.156153,103.550228,10.657601,2.776886,0.002354,0.038864,124.125000,0
