Application,Deploy Time, G5K CPU usage, G5K RAM usage, A8 CPU usage, A8 RAM usage, G5K Bandwidth, A8 Bandwidth, G5K Latency, A8 Latency, Processed Tokens, Accepted
0,10.709000,9.384330,229.413477,14.102926,101.512510,0.703226,0.057873,0.006355,0.218489,0.000000,1
10,5.997000,13.306342,232.394922,15.437119,101.549029,1.176783,0.218980,0.004840,0.218221,8.475000,1
11,4.892000,12.950444,233.710742,16.228236,101.588358,1.321423,0.265020,0.005972,0.218444,8.500000,1
12,10.328000,12.117054,234.882227,17.167155,101.651363,1.069491,0.329155,0.005609,0.218849,8.400000,1
13,10.395000,13.244236,236.554297,17.707346,101.707764,0.781077,0.357042,0.005476,0.219255,8.450000,1
14,13.847000,12.987251,238.642969,19.216278,101.774129,1.423977,0.392281,0.005256,0.218937,8.375000,1
15,19.525000,12.927190,241.397070,19.713820,101.859106,1.426258,0.566956,0.005770,0.219795,13.300000,1
16,9.630000,17.125502,245.953320,21.309925,101.926233,1.779673,0.752900,0.003839,0.219793,13.200000,1
17,12.195000,19.171867,249.189648,22.246910,101.960931,2.405015,0.806401,0.005302,0.219758,13.275000,1
18,5.216000,25.245427,253.866602,22.717164,102.040994,2.489396,1.027665,0.003501,0.219646,17.200000,1
19,6.347000,24.796192,256.951367,24.813610,102.113626,3.003149,1.039556,0.004043,0.219828,17.025095,1
1,19.180000,24.823481,260.241797,24.333125,102.184836,2.424700,1.107011,0.002783,0.221125,17.100000,1
20,15.317000,30.009069,265.761523,25.874453,102.237514,2.783028,1.176475,0.003323,0.220922,17.150096,1
21,5.704000,30.701948,270.695703,27.658565,102.279751,3.311644,1.245484,0.003183,0.221548,18.350000,1
22,18.913000,33.838764,274.517969,27.113129,102.335076,2.774052,1.290475,0.005259,0.222223,18.450000,1
23,12.204000,35.243368,280.317187,28.118630,102.369865,3.468018,1.403733,0.003569,0.222181,18.200000,1
24,8.185000,38.170445,285.694141,29.159519,102.399523,3.804266,1.477919,0.003112,0.223636,22.575199,1
25,19.784000,41.809107,290.668945,29.667771,102.490249,4.032540,1.594374,0.004393,0.223212,25.125000,1
26,7.523000,41.175710,297.021875,31.552772,102.511902,4.238810,1.664265,0.003233,0.222697,25.100000,0
27,8.103000,42.559719,300.938672,30.649707,102.537031,3.721882,1.670742,0.004322,0.223496,25.250000,1
28,11.225000,42.934821,306.316406,32.652731,102.588968,4.630406,1.772139,0.004088,0.223437,30.625000,1
29,11.249000,49.039871,312.747070,32.072443,102.637306,5.099025,1.762239,0.003265,0.222898,31.050000,1
2,7.907000,54.203365,319.169922,32.952783,102.682761,5.164385,1.892539,0.003124,0.223406,36.975000,1
30,3.950000,55.377236,325.473242,34.684786,102.715723,5.662737,1.950394,0.003575,0.223145,41.000000,1
31,5.491000,57.088539,330.647070,34.070151,102.755450,5.608036,2.007694,0.003638,0.222949,42.900000,1
32,3.905000,59.879831,336.967969,35.519440,102.805441,5.840116,2.023180,0.003343,0.223903,44.550000,1
33,7.306000,59.967283,342.165430,36.048896,102.835667,5.854142,2.098010,0.004036,0.223780,47.400000,1
34,13.172000,64.563338,348.980859,37.579284,102.908649,6.325315,2.154999,0.003804,0.224313,51.350000,1
35,11.043000,64.384257,356.371680,37.557496,102.969574,6.451310,2.208441,0.003608,0.224542,55.875316,1
36,9.774000,67.185896,363.894141,38.888924,102.997535,7.285435,2.256925,0.003163,0.224722,58.650000,1
37,8.853000,77.465629,371.585547,37.616301,103.003913,7.057318,2.345252,0.003085,0.225318,62.525000,1
38,20.669000,79.525541,378.701758,39.723760,103.041683,7.132147,2.378650,0.003202,0.226063,62.225000,1
39,12.344000,77.615320,387.250586,40.863037,103.104249,8.025476,2.464055,0.002893,0.226154,68.824685,1
3,10.885000,77.709451,394.786133,39.888505,103.125938,7.540859,2.473607,0.002442,0.225849,68.500000,1
40,6.560000,80.412883,401.371875,42.388342,103.170326,8.253561,2.628765,0.002982,0.226397,68.625000,1
41,6.997000,81.262675,408.330273,41.503608,103.224457,7.653932,2.604535,0.002311,0.226685,68.700000,1
42,3.795000,84.944633,416.207031,43.680598,103.287302,8.274520,2.681896,0.002218,0.225683,72.524684,0
43,8.343000,83.338903,422.030469,42.773049,103.303109,7.776108,2.651867,0.002801,0.225539,72.600000,1
44,14.052000,83.960128,429.560938,43.812016,103.320799,8.417760,2.727116,0.002256,0.227151,72.325000,1
45,4.501000,84.836165,438.587109,44.145893,103.359141,8.645990,2.782334,0.002686,0.226937,77.325000,1
46,4.713000,83.157119,445.473047,45.347016,103.403086,9.162473,2.833968,0.003058,0.226932,78.100000,0
47,4.862000,84.025208,452.034961,44.690652,103.410209,8.294049,2.825506,0.002628,0.225804,78.250000,0
48,6.862000,85.856727,458.283398,44.800502,103.415708,8.899230,2.778665,0.002596,0.225625,78.275000,0
49,6.443000,86.431678,464.811719,45.133434,103.409942,8.569922,2.805011,0.002895,0.226301,78.250000,0
4,5.654000,86.507685,471.336133,45.198036,103.387774,8.917481,2.804830,0.002382,0.225219,78.050000,0
5,4.394000,87.000497,477.958008,44.808428,103.367138,8.552990,2.783463,0.002203,0.225465,78.225000,0
6,6.634000,85.976649,484.020508,45.137412,103.342281,8.993060,2.793149,0.002471,0.225617,78.425000,0
7,16.227000,85.869344,490.643555,44.400988,103.353216,8.454703,2.786849,0.002628,0.226552,78.450000,1
8,3.191000,86.290014,500.202734,46.129849,103.349190,8.798420,2.908806,0.003136,0.225687,84.675000,0
9,5.324000,88.087337,506.844336,45.393971,103.360626,8.774871,2.876892,0.002883,0.227123,84.375000,0
