Application,Deploy Time, G5K CPU usage, G5K RAM usage, A8 CPU usage, A8 RAM usage, G5K Bandwidth, A8 Bandwidth, G5K Latency, A8 Latency, Processed Tokens, Accepted
0,11.636000,10.831621,232.325586,14.334289,102.375419,0.639726,0.060318,0.004656,0.218165,0.000000,1
10,7.224000,12.632314,234.722461,14.823150,102.393392,0.881294,0.219325,0.005328,0.218569,8.425000,1
11,5.564000,15.381453,236.007422,15.636405,102.439157,1.375201,0.268875,0.004069,0.218929,10.700000,1
12,7.325000,17.517876,237.988477,17.155964,102.476910,1.570047,0.335274,0.004963,0.218890,14.175000,1
13,9.071000,17.239071,239.997461,16.981694,102.524557,1.746427,0.363044,0.006301,0.219225,15.525000,0
14,16.108000,17.246597,240.821484,17.047168,102.544880,1.657455,0.352528,0.006387,0.219566,15.450210,1
15,17.299000,15.639494,244.177734,18.052504,102.579745,1.985064,0.537262,0.004705,0.220302,25.225000,1
16,9.768000,20.158273,249.087500,19.238158,102.643335,2.693021,0.718878,0.004806,0.219704,34.900000,1
17,12.695000,23.249345,252.717773,20.605745,102.703312,3.238548,0.775167,0.004794,0.219679,38.225000,1
18,6.544000,29.620992,257.818359,21.454407,102.785004,3.827834,0.995773,0.004293,0.219485,49.675000,1
19,7.336000,32.345939,261.476562,22.815653,102.887632,4.181200,1.004527,0.003927,0.219937,50.525000,1
1,16.819000,33.213519,265.472266,23.026946,102.949400,4.105785,1.073046,0.004735,0.220367,53.575000,1
20,13.770000,35.270999,271.894727,24.099425,102.999819,4.437433,1.149133,0.003457,0.219935,57.650000,1
21,7.333000,37.479386,277.848047,25.277566,103.035157,4.949548,1.218499,0.003627,0.220142,61.675000,1
22,20.541000,37.657707,282.178516,25.176346,103.101406,4.709968,1.258846,0.003857,0.220288,61.800000,1
23,13.168000,38.380688,289.718555,26.994078,103.192669,5.178330,1.372124,0.003680,0.219749,67.875000,1
24,7.485000,41.296047,296.248828,28.148316,103.246899,5.779069,1.443913,0.002718,0.220871,71.625000,1
25,19.940000,41.201577,301.924023,28.613810,103.318072,5.697982,1.553619,0.003976,0.220803,74.625000,1
26,9.546000,43.268882,310.160156,30.060895,103.365258,6.046698,1.638493,0.002651,0.220389,79.425000,1
27,9.069000,43.595855,315.534570,30.723407,103.405825,6.135246,1.668465,0.002107,0.221011,81.575000,1
28,11.993000,46.247778,322.171094,30.564830,103.433092,6.671471,1.783963,0.004124,0.221877,86.975000,1
29,12.535000,51.728339,329.678320,30.845047,103.436537,6.920284,1.852262,0.003475,0.221949,86.725000,1
2,8.381000,55.007434,337.464063,31.117130,103.446908,6.916844,1.980698,0.003609,0.221685,89.500000,1
30,3.727000,58.364964,344.956641,32.736622,103.457189,7.543025,2.052281,0.003261,0.221691,93.125000,1
31,6.576000,64.744581,351.353320,33.438202,103.510662,7.326164,2.098962,0.003319,0.222512,95.375000,1
32,3.246000,64.939404,358.675586,34.066104,103.574828,7.852880,2.116361,0.003524,0.223301,96.800000,0
33,4.726000,66.254911,364.097070,34.065685,103.599542,7.335673,2.123922,0.003024,0.223750,96.900000,0
34,15.136000,66.055993,370.097852,34.164277,103.607765,7.840633,2.119124,0.016346,0.222884,96.150000,1
35,13.020000,64.309875,378.642969,34.986514,103.636857,8.037436,2.208184,0.004466,0.222763,100.700000,1
36,601.071000,73.095719,387.340430,36.300202,103.668126,8.363790,2.256066,0.003147,0.225609,103.850000,0
37,13.243000,76.986621,430.871875,35.726371,103.721829,8.122656,2.270499,0.002552,0.223892,107.950000,1
38,19.966000,77.096906,438.447461,36.343257,103.747004,8.290215,2.311118,0.002784,0.224650,110.325000,1
39,12.911000,76.820621,448.477930,37.733411,103.790619,8.783600,2.432329,0.002440,0.225677,116.600000,1
3,12.113000,78.041109,457.669727,38.838394,103.847699,9.142747,2.469486,0.002578,0.224135,119.825000,1
40,8.293000,82.818743,466.302734,39.361011,103.897177,9.107054,2.548906,0.002707,0.226422,123.675000,1
41,5.143000,79.521128,474.242969,39.961248,103.948838,9.366988,2.548548,0.002297,0.225086,124.200000,0
42,3.960000,81.357619,480.951563,40.123126,103.973146,9.158076,2.566828,0.002235,0.225154,124.600000,0
43,9.844000,80.961817,488.031250,40.232003,103.984893,9.511254,2.559094,0.002637,0.225958,124.350000,1
44,15.674000,83.770855,496.640430,40.882786,103.998331,9.609153,2.630187,0.002790,0.226342,127.650000,1
45,6.000000,85.065573,506.581836,41.580564,104.028259,9.518311,2.688880,0.003273,0.226092,130.749765,1
46,5.211000,87.737304,514.193164,42.448419,104.063786,9.991020,2.681234,0.002313,0.227696,130.900000,0
47,4.527000,87.150686,521.589844,41.972971,104.071377,9.424151,2.686329,0.002217,0.226581,131.425000,0
48,6.765000,83.464700,528.547852,42.482504,104.079774,10.004387,2.683100,0.002596,0.226325,130.825000,0
49,6.274000,85.777325,536.018750,41.899047,104.074053,9.802379,2.687545,0.002940,0.227538,131.225000,0
4,5.943000,85.281810,543.330664,41.874651,104.079940,9.605361,2.708131,0.002857,0.227919,130.925000,0
5,4.147000,84.323141,549.894922,42.175235,104.082912,9.775738,2.683892,0.002269,0.226730,131.175000,0
6,6.856000,85.991153,556.861719,41.940339,104.070351,9.674311,2.695403,0.002441,0.226629,131.200000,0
7,14.486000,85.531125,564.154102,42.356722,104.068198,9.940554,2.686813,0.002478,0.227104,131.100000,1
8,3.735000,89.596786,573.878125,43.017670,104.078383,10.019848,2.783395,0.002810,0.227500,136.100000,0
9,5.997000,85.422424,581.323633,43.357632,104.093380,9.966583,2.775213,0.002875,0.227780,136.300000,0
