Application,Deploy Time, G5K CPU usage, G5K RAM usage, A8 CPU usage, A8 RAM usage, G5K Bandwidth, A8 Bandwidth, G5K Latency, A8 Latency, Processed Tokens, Accepted
0,10.770000,9.974391,229.178125,13.071763,100.229532,0.409639,0.059687,0.005361,0.218454,0.000000,1
10,6.552000,12.553438,230.514062,15.510627,100.208909,0.594106,0.400843,0.006101,0.219454,8.450000,1
11,5.224000,10.647719,231.165039,16.308795,100.322939,0.384560,0.441599,0.004169,0.219615,8.450000,1
12,6.411000,15.189681,232.116797,18.330506,100.482247,0.613730,0.592199,0.004242,0.219222,11.900000,1
13,9.324000,13.760659,232.658203,17.964780,100.720388,0.281760,0.277509,0.006122,0.218900,4.725000,1
14,12.934000,21.887209,233.468359,20.084883,100.892496,0.699068,0.366455,0.005189,0.219716,6.575000,0
15,15.660000,18.243235,233.502539,18.686466,100.964464,0.240523,0.355546,0.006023,0.220188,6.675000,1
16,8.663000,22.515781,235.973047,20.937800,101.282569,0.237475,0.689697,0.004751,0.220119,6.625000,1
17,10.496000,27.863589,237.054297,22.027578,101.482011,0.212410,0.831454,0.004466,0.221696,8.900000,1
18,5.370000,39.335049,239.473828,24.496121,101.736941,0.275298,1.262159,0.004915,0.238893,18.000000,1
19,5.835000,43.325664,240.558984,24.683759,101.948123,0.219900,1.284532,0.004611,0.223668,20.650000,1
1,13.971000,44.524847,242.126563,26.552495,102.171070,0.687156,1.372112,0.004742,0.223801,23.475000,1
20,15.878000,50.253185,245.150586,26.757628,102.590522,0.261932,1.525660,0.003446,0.224880,27.275000,1
21,5.414000,47.189385,246.771094,29.480721,102.903706,0.510553,1.581430,0.004183,0.225307,28.624369,1
22,18.391000,49.338755,248.511133,30.607423,103.175741,0.242376,1.629845,0.005243,0.225894,30.375000,1
23,10.530000,51.742566,250.707227,38.374823,103.622388,0.578242,1.658506,0.004436,0.225054,30.100000,1
24,6.686000,52.611416,252.240625,39.326021,104.018975,0.661175,1.683996,0.002927,0.226155,31.775000,1
25,14.798000,52.128303,258.524023,39.485147,104.340048,0.556521,1.683238,0.002712,0.226015,31.675000,1
26,7.858000,48.135225,259.746094,44.315116,104.889898,0.502337,1.570390,0.004677,0.225985,29.275000,1
27,7.406000,45.137497,260.676172,45.122448,105.195630,0.160351,1.331383,0.004441,0.224786,26.950000,1
28,10.227000,45.723720,262.618359,47.060673,105.569867,0.425364,1.493106,0.004460,0.226022,30.650000,1
29,9.959000,52.512030,264.785547,47.722420,106.011243,0.165718,1.660682,0.003799,0.225317,31.100000,1
2,6.232000,54.506490,266.875586,49.339429,106.363000,0.325639,1.784537,0.003390,0.226431,34.850000,0
30,3.759000,55.166838,267.749219,49.298434,106.607852,0.204786,1.790912,0.003510,0.225655,34.250000,0
31,5.163000,53.396555,269.030078,49.041782,106.849085,0.300224,1.802731,0.003906,0.225500,34.200000,1
32,3.986000,57.471921,270.725781,50.677090,107.217676,0.614794,1.867688,0.004039,0.226567,35.050000,1
33,6.979000,55.882320,272.394531,50.249742,107.536341,0.192919,1.977120,0.003912,0.227626,37.850000,1
34,11.272000,62.491088,274.530273,51.843253,107.896476,0.618690,2.143989,0.002714,0.227963,41.550089,0
35,9.027000,62.216008,276.322461,50.989125,108.269700,0.221987,2.148869,0.004033,0.226667,41.600000,1
36,9.168000,63.312480,279.060938,52.949822,108.748211,0.594679,2.242944,0.004991,0.228492,44.500000,1
37,7.582000,65.023608,281.795898,53.542368,109.179229,0.312924,2.531742,0.002991,0.227186,45.675000,1
38,11.853000,66.424067,284.297656,56.225806,109.582983,0.580147,2.425308,0.002887,0.228136,47.024926,0
39,10.308000,66.084604,286.114844,55.720454,110.006350,0.359091,2.412784,0.002222,0.228240,47.100000,1
3,7.039000,67.841714,288.075586,60.755860,110.579618,0.538256,2.436315,0.003998,0.227783,48.349930,0
40,601.128000,67.233359,289.543555,60.743618,110.917861,0.471041,2.442984,0.004428,0.227187,48.100000,0
41,6.303000,66.262462,301.291797,61.026156,113.550845,0.227930,2.402501,0.003339,0.251348,45.549831,1
42,5.093000,71.045962,303.842969,63.301856,113.973616,0.730124,2.432683,0.003732,0.408391,47.475070,1
43,5.223000,72.664729,306.770508,62.834180,112.088364,0.310474,2.482914,0.003409,0.404290,49.125000,0
44,10.931000,72.917347,308.718555,63.305481,112.518563,0.359378,2.554812,0.002999,0.266025,49.075074,1
45,3.465000,75.461936,310.996484,69.362654,113.153911,0.388050,2.607707,0.003611,0.232931,50.100069,0
46,5.154000,74.498170,313.086914,69.826989,113.521907,0.354150,2.530167,0.003045,0.315924,50.250000,0
47,4.565000,74.687983,315.087109,69.907431,113.866465,0.420017,2.590742,0.003288,0.289794,50.150000,0
48,7.020000,75.869043,316.977344,69.720104,114.248375,0.415892,2.622932,0.003795,0.251249,51.020987,0
49,6.683000,73.226889,319.122852,70.432493,114.615647,0.705804,2.600903,0.003349,0.407342,54.575000,0
4,6.534000,74.437429,321.217383,69.800575,115.006164,0.350770,2.548608,0.003454,0.418608,54.600000,0
5,5.551000,74.891829,323.400977,70.292083,115.425158,0.638945,3.039195,0.003299,0.236587,55.049904,1
6,10.506000,77.660781,326.055469,69.998840,115.850282,0.532061,2.631865,0.003128,0.228318,56.999995,0
7,10.052000,75.044556,327.831836,70.512721,116.271361,0.608803,2.634722,0.002310,0.228751,57.100000,0
8,3.393000,76.612160,329.911914,70.254215,116.620439,0.538094,2.581388,0.002498,0.238416,56.625069,0
9,8.023000,73.642280,331.860937,70.230976,116.945626,0.576230,2.413766,0.002738,0.416726,48.774931,0
