Application,Deploy Time, G5K CPU usage, G5K RAM usage, A8 CPU usage, A8 RAM usage, G5K Bandwidth, A8 Bandwidth, G5K Latency, A8 Latency, Processed Tokens
46,9.853000,5.828705,222.558203,13.468917,95.918997,0.655796,0.069792,0.005006,0.220366,0.000000
39,9.928000,15.730671,223.796289,15.175515,95.929325,0.864187,0.248853,0.003646,0.221137,2.925000
38,12.809000,17.690924,224.898438,14.993107,95.939867,1.012426,0.254730,0.004448,0.221361,5.525000
36,12.968000,24.658190,226.092383,16.059374,95.932348,1.219723,0.450560,0.018934,0.318646,8.100000
30,11.830000,21.686952,227.240234,15.579851,95.932000,1.436614,0.482403,0.003207,0.246268,7.950066
23,13.325000,28.453847,228.100391,16.749768,95.931938,1.214610,0.516682,0.003619,0.221496,11.950000
17,13.653000,29.696021,229.058203,16.618677,95.994922,1.449547,0.601355,0.003016,0.359131,15.300047
15,12.731000,35.312139,230.048828,17.506309,96.007409,1.894647,0.637797,0.003630,0.221593,16.250000
0,14.425000,28.574736,231.465625,18.014700,96.004495,2.599416,0.785430,0.003295,0.221251,11.649948
8,9.081000,25.841762,232.136914,19.015804,95.996802,2.559600,0.800546,0.003402,0.504009,11.950086
6,8.652000,31.733307,232.813867,20.257957,95.994350,3.134405,0.906623,0.003249,0.221682,12.875000
5,9.907000,32.277400,234.002734,21.697575,95.982848,3.088696,1.052316,0.003695,0.221178,12.550000
4,11.301000,26.208961,235.116016,21.764497,95.982295,3.771550,1.049794,0.002611,0.220888,12.075000
48,10.517000,29.719313,237.047266,23.847517,95.971419,4.505284,1.370764,0.003060,0.221185,12.300041
43,6.966000,33.321418,239.277539,25.432022,95.953942,5.880640,1.695176,0.003872,0.221223,12.325000
42,8.655000,32.961227,240.921094,27.281571,95.950116,6.575506,1.979602,0.003212,0.221245,12.149959
40,6.744000,29.597331,243.142383,29.050178,95.955856,7.918559,2.258830,0.003281,0.221443,12.100042
3,9.825000,32.917875,243.824414,29.975899,95.945548,6.793329,2.253736,0.002668,0.221435,14.100000
34,8.171000,34.240582,244.542969,30.125015,95.947350,6.808243,2.342872,0.002957,0.221490,13.800106
33,9.209000,38.020674,245.628125,30.256876,95.945082,6.506379,2.309559,0.003692,0.221314,14.449956
31,11.243000,34.893775,246.317969,30.650558,95.943743,6.759698,2.441096,0.003217,0.221490,14.299957
26,10.626000,34.458742,247.895703,31.949651,95.921043,7.027845,2.749878,0.003247,0.033123,14.425000
25,8.231000,34.417885,249.614062,33.776221,95.910996,8.149045,3.136627,0.003228,0.032924,14.725043
24,6.748000,37.684746,250.932422,35.397254,95.894906,7.602405,3.364927,0.003839,0.033202,14.074958
22,9.723000,40.846005,251.132031,36.435966,95.894784,6.239277,3.396045,0.002715,0.033451,16.350000
20,8.687000,42.120808,251.024219,35.342649,95.898979,4.379391,2.842783,0.003673,0.033671,18.625080
1,9.992000,39.539871,251.115430,35.442805,95.899879,4.630551,2.942977,0.002884,0.033298,19.325000
18,8.649000,40.216863,251.757617,35.608530,95.896693,5.032120,2.960688,0.003469,0.033554,18.225000
16,8.456000,46.455349,252.442383,35.373702,95.892893,4.538948,2.889059,0.003632,0.032964,19.475000
9,7.061000,47.355054,253.417969,35.826528,95.889320,4.200285,2.900704,0.003267,0.033398,21.274925
7,6.426000,43.860814,254.810937,36.833295,95.890315,5.341098,2.977109,0.002320,0.033849,21.225000
47,6.701000,49.907195,255.793945,35.627927,95.887497,3.971685,2.735823,0.003220,0.034157,23.424896
45,7.857000,52.840050,256.786914,35.262166,95.882995,3.872497,2.614399,0.003003,0.036283,25.374991
41,5.954000,58.090915,257.936328,35.637863,95.853436,3.228255,2.552307,0.002564,0.039769,27.125000
37,6.149000,53.203856,259.179102,35.775273,95.850367,3.318127,2.568688,0.003143,0.103711,27.175000
35,5.868000,55.922807,260.317187,35.631830,95.853058,2.973461,2.315119,0.003255,0.051055,27.324881
32,5.916000,54.784296,261.511719,35.714063,95.844485,2.928092,2.408434,0.002869,0.059027,27.300123
2,7.590000,57.223538,262.606250,35.824947,95.837727,2.804382,2.359851,0.002871,0.049776,27.750000
29,8.426000,57.479297,263.580078,34.964210,95.838153,2.853645,2.296198,0.003286,0.043733,28.299892
28,8.841000,56.637928,264.774023,34.817544,95.837316,2.921015,2.302290,0.002672,0.038608,28.175024
19,6.947000,56.360655,266.018750,34.665533,95.837510,2.911292,2.193987,0.003829,0.039805,28.050000
14,8.347000,56.887463,267.185352,35.020618,95.838231,2.900435,2.175178,0.002855,0.040508,28.200106
12,6.438000,57.834496,268.389844,34.887784,95.839460,2.851583,2.202516,0.003819,0.039637,28.374892
11,6.750000,56.805637,269.614648,34.790780,95.837109,2.890593,2.133436,0.002456,0.050011,28.475107
10,6.325000,56.433027,270.790625,34.906788,95.835635,3.015123,2.185322,0.003058,0.039667,28.375000
49,6.373000,56.496421,271.901563,35.201809,95.832236,2.915367,2.164288,0.002868,0.055923,28.224195
44,5.351000,56.245252,273.102344,35.849284,95.832445,2.874345,2.286064,0.003413,0.039885,28.000000
27,6.279000,57.786292,274.267578,35.076438,95.831440,2.883432,2.144502,0.002804,0.039203,28.300000
21,5.708000,57.526406,275.500781,35.309397,95.831284,2.933511,2.227212,0.002608,0.040352,28.625000
13,6.588000,57.658213,276.951367,35.782772,95.825950,2.904469,2.350013,0.002457,0.040379,28.475105
