Application,Deploy Time, G5K CPU usage, G5K RAM usage, A8 CPU usage, A8 RAM usage, G5K Bandwidth, A8 Bandwidth, G5K Latency, A8 Latency, Processed Tokens
9,5.500000,12.408720,247.167969,14.077962,98.175832,2.261721,0.059256,0.001843,0.027909,0.000000
36,5.426000,13.427975,248.338976,11.892061,98.163969,0.251068,0.091363,0.001993,0.027409,0.000000
28,5.157000,22.696973,250.235243,15.280478,98.201311,2.940633,0.283882,0.004456,0.028597,4.275000
26,5.505000,15.138907,251.233507,13.947478,98.257694,1.157749,0.251960,0.006429,0.030495,4.300000
24,5.202000,25.370369,253.862413,16.795346,98.255186,3.956510,0.472781,0.004163,0.029038,8.974912
23,5.157000,43.608210,255.645399,18.670025,98.284225,4.725695,0.737291,0.003048,0.030486,13.425000
21,5.553000,45.112316,256.661024,18.703595,98.398318,4.788060,0.817600,0.006598,0.031204,13.349911
10,5.180000,37.409347,257.609809,18.726809,98.477027,4.845367,0.807805,0.002922,0.029829,13.300000
8,4.864000,37.897370,258.518663,18.368732,98.513016,4.621976,0.797327,0.003268,0.030273,13.350000
49,4.924000,42.342434,259.376736,19.201163,98.529646,4.877121,0.824208,0.005133,0.031032,13.325000
47,4.895000,48.404541,263.736111,21.549857,98.571489,5.720750,1.394805,0.003341,0.030844,26.575000
46,4.879000,45.653911,265.756510,22.900382,98.670894,7.787560,1.402245,0.005297,0.032579,26.499912
45,5.035000,53.157833,267.288628,21.624911,98.562312,6.022693,1.401592,0.002886,0.052089,26.624912
44,4.685000,53.400541,269.344618,22.975815,98.542323,7.709386,1.394176,0.004126,0.032538,26.574912
42,4.789000,46.967438,271.101997,21.636978,98.529427,6.150099,1.419455,0.004275,0.031364,26.625000
38,4.431000,46.512053,272.961372,22.724374,98.523634,6.858327,1.412290,0.004294,0.031145,26.625000
37,4.877000,50.166272,274.909288,22.188722,98.517795,6.476058,1.423513,0.001816,0.030925,26.575089
35,4.812000,52.151007,276.962240,23.848928,98.529814,6.623793,1.821108,0.002298,0.032328,27.300000
33,4.840000,49.738419,280.160156,26.276166,98.538408,8.717659,2.210367,0.003162,0.031887,30.200000
29,4.823000,50.558435,282.116753,24.816364,98.612951,7.004692,2.253090,0.004177,0.139471,30.025000
16,4.753000,55.573931,283.938368,26.236745,98.641247,8.722076,2.194925,0.004712,0.652001,30.000000
7,4.333000,53.455666,286.280382,24.918590,98.652849,6.878004,2.217336,0.003354,0.095924,29.950000
6,4.249000,56.381031,288.207031,26.563326,98.655594,8.429962,2.223458,0.002000,0.032544,29.899912
5,4.304000,52.894633,290.097222,25.149973,98.649634,7.874137,2.242095,0.004287,0.075693,30.375089
4,4.327000,48.004567,292.293403,26.392458,98.640952,8.411671,2.244636,0.002999,0.032509,30.450000
48,4.560000,50.526884,294.289931,25.878565,98.615143,8.040995,2.216512,0.004253,0.032342,29.949912
41,4.539000,53.753803,296.746962,26.819454,98.628846,6.674841,2.550814,0.003012,0.031907,30.550000
40,4.428000,50.690729,298.808594,27.224086,98.665488,8.074012,2.583146,0.004222,0.032453,30.175000
3,4.530000,55.283576,300.726128,26.153704,98.686667,6.488638,2.614145,0.002033,0.031091,30.150084
34,4.193000,62.973335,303.715712,29.112018,98.653248,9.164724,2.735762,0.006098,0.032358,34.074916
31,4.401000,60.210413,306.146267,27.862376,98.702790,7.237274,2.689908,0.003998,0.032342,34.050000
30,4.330000,57.032715,308.164497,28.727714,98.712482,8.911141,2.745485,0.006211,0.032970,33.775000
27,4.177000,59.028323,310.884549,28.203068,98.702065,7.282351,2.706687,0.004028,0.031899,34.425000
25,4.238000,59.637680,313.097222,28.451674,98.701003,8.855656,2.752887,0.004152,0.032776,34.050084
22,4.295000,57.025614,315.069444,28.736805,98.698973,9.196711,2.725776,0.004018,0.032364,33.800000
20,4.216000,58.636599,317.689236,28.095249,98.703336,8.703462,2.816891,0.003146,0.032921,33.900000
1,4.449000,57.896898,319.651910,28.881078,98.664070,9.220141,2.772537,0.001926,0.033371,33.950084
19,4.342000,59.826525,321.004340,27.700481,98.634687,7.684744,2.782753,0.002068,0.033463,33.875000
18,4.216000,58.285557,322.638455,28.935532,98.641644,9.346986,2.732344,0.004887,0.032069,33.950000
15,4.297000,55.023558,324.750000,27.649231,98.640678,7.878735,2.726329,0.004173,0.031982,33.499916
14,4.303000,59.939034,327.202691,28.556379,98.645280,7.850450,2.730351,0.003287,0.032062,33.774917
13,4.300000,62.349983,329.353733,28.560461,98.641475,8.207630,2.732272,0.003767,0.033992,33.750000
12,4.425000,58.363743,331.384115,28.403754,98.649829,7.659730,2.783622,0.004236,0.032551,33.750000
11,4.377000,58.665934,333.781250,28.819539,98.655891,9.241399,2.756224,0.002973,0.031651,33.700000
0,4.437000,61.105889,336.023003,27.631843,98.679149,7.537906,2.747701,0.004232,0.032198,33.699917
43,3.737000,56.562841,338.136285,28.649085,98.688848,9.150032,2.743560,0.004428,0.032720,33.600000
39,3.720000,58.495833,340.563368,27.745787,98.688894,8.728144,2.716169,0.001848,0.032791,33.625000
32,3.764000,57.999241,342.873264,28.540521,98.691120,9.076977,2.718220,0.004346,0.032920,33.200000
2,3.806000,61.546398,344.957031,28.560967,98.695951,8.916358,2.725328,0.004311,0.033464,33.575000
17,3.779000,57.379965,347.412760,27.950638,98.697201,7.302641,2.735859,0.003609,0.031665,33.824917
