Application,Deploy Time, G5K CPU usage, G5K RAM usage, A8 CPU usage, A8 RAM usage, G5K Bandwidth, A8 Bandwidth, G5K Latency, A8 Latency, Processed Tokens, Accepted, G5K RAM stddev, A8 CPU stddev, A8 RAM stddev, G5K CPU stddev,App Latency
0,8.555000,10.770604,199.461523,26.461637,105.658587,0.597610,0.058657,0.005691,0.042888,0.000000,0,119.490530,98.383985,2.769348,10.305707,-1.000000
10,5.080000,15.334850,199.648828,26.225663,105.658464,0.356108,0.083888,0.003642,0.042143,0.000000,1,119.036806,98.313308,2.769666,19.835586,0.031311
11,4.879000,12.326993,200.640820,26.374030,105.667542,0.643874,0.104703,0.006117,0.045132,2.125000,1,118.933255,98.241590,2.768023,14.466542,0.042165
12,5.822000,13.973431,201.972656,27.423031,105.701514,0.716490,0.173755,0.003429,0.044367,5.650000,1,118.677544,93.162610,2.757108,17.176270,0.088646
13,7.990000,16.040466,203.336133,28.501344,105.749753,0.836367,0.208541,0.005663,0.045769,7.125000,1,118.358986,91.494472,2.738409,17.409236,0.031424
14,11.419000,18.297198,204.501563,28.617373,105.780911,0.823383,0.246942,0.004310,0.046218,6.775000,0,118.421637,92.206124,2.699903,23.557013,-1.000000
15,18.866000,16.941881,204.905664,28.596189,105.837309,0.715518,0.243787,0.005704,0.047046,6.900000,1,117.976810,92.165899,2.688938,23.242413,0.101645
16,8.217000,17.514039,208.654102,27.529731,105.854436,0.807699,0.418605,0.003731,0.046610,6.575000,1,118.729292,92.418566,2.685562,22.540795,0.100632
17,11.770000,17.328358,210.665039,29.490059,105.881660,1.148829,0.473947,0.006831,0.046071,6.825000,1,119.411677,91.103051,2.677511,22.041455,0.032135
18,4.702000,23.247468,212.835352,30.314847,105.973273,1.021993,0.687398,0.002776,0.045639,13.950000,1,119.081036,88.070737,2.620244,28.706625,0.101739
19,5.862000,21.246798,215.417773,31.619020,106.006401,1.599127,0.703695,0.004849,0.046666,13.950000,1,120.134178,87.795161,2.610556,27.881247,0.101152
1,18.471000,25.074442,217.998242,30.610421,106.056073,1.367080,0.772414,0.004072,0.045492,13.700000,1,121.739226,88.207253,2.609346,30.123573,0.101390
20,17.266000,26.540457,221.204492,33.101087,106.121046,2.198990,0.766463,0.004748,0.047699,13.725000,1,124.337251,86.226760,2.635454,31.781360,0.029725
21,6.000000,25.351253,224.559180,31.381470,106.144143,0.932960,1.061744,0.005851,0.048347,17.700000,1,127.324215,87.492495,2.636241,30.693207,0.101143
22,18.479000,27.658445,226.345117,32.616976,106.178692,1.596793,0.950073,0.005139,0.048810,17.850000,1,128.806104,88.296968,2.631113,32.279995,0.099947
23,13.101000,28.662656,229.613281,33.307676,106.209954,1.556587,1.040187,0.006029,0.050192,18.800000,1,132.568902,86.596603,2.600527,34.266649,0.090265
24,8.280000,27.912977,232.176562,32.497476,106.246088,1.387055,1.057755,0.005487,0.049937,19.150000,1,135.464026,87.316579,2.542990,32.679561,0.087035
25,20.967000,28.440236,234.462500,34.433570,106.274438,1.953335,1.110936,0.004499,0.050608,19.297588,1,138.006769,85.651920,2.516869,32.818448,0.174677
26,8.161000,26.028114,238.787305,34.417428,106.211545,1.077425,1.262014,0.004759,0.053213,17.425000,1,143.780427,85.614211,2.420759,32.270233,0.099923
27,8.353000,32.011065,241.226953,35.151044,106.275462,1.601466,1.368854,0.004326,0.049775,19.375000,1,147.420533,85.792670,2.447016,32.737970,0.101091
28,11.453000,31.157619,243.989844,35.467291,106.326440,1.427190,1.380697,0.003666,0.050208,19.550000,1,151.893893,84.979179,2.485208,32.152902,0.101655
29,11.289000,26.622295,247.072461,38.548951,106.365546,2.239724,1.451686,0.005208,0.049865,19.725000,1,157.197295,83.451557,2.495896,33.043631,0.101243
2,8.228000,29.062948,250.365625,36.935160,106.368812,2.448024,1.527885,0.005590,0.049681,19.600000,1,162.881952,84.720634,2.472543,32.441857,0.095357
30,4.393000,27.409870,253.002930,39.000443,106.421561,2.768950,1.580217,0.003573,0.049983,19.700000,1,167.572103,84.532734,2.480116,33.555644,0.097633
31,5.677000,28.897825,256.131250,37.772098,106.453286,2.422002,1.451988,0.005589,0.050646,19.025000,1,173.105524,84.101639,2.501001,34.460605,0.074828
32,4.271000,28.232876,258.806055,38.732557,106.457046,2.708859,1.488628,0.004733,0.050150,19.975000,1,178.167417,84.279797,2.481327,35.174952,0.031890
33,7.616000,27.034475,262.568555,38.396777,106.508114,2.351449,1.596090,0.004553,0.051210,22.600000,1,182.704293,84.256801,2.453124,34.136739,0.089360
34,12.478000,32.436799,265.446289,39.168565,106.566444,3.038441,2.240564,0.003209,0.050333,21.075000,1,188.001373,83.875342,2.453102,33.938731,0.100215
35,12.554000,29.066012,270.312891,38.275580,106.615509,2.241408,1.767946,0.004084,0.050485,21.625000,1,198.305354,84.361539,2.504434,33.253475,0.101173
36,11.060000,29.211046,273.620508,40.986768,106.655891,3.233407,1.810231,0.003967,0.052299,23.825000,1,205.248434,82.886292,2.531518,32.945934,0.101095
37,8.569000,31.895937,277.105273,42.207924,106.657117,3.035751,1.830576,0.003472,0.050996,23.600000,1,212.463761,82.762327,2.503636,35.209164,0.099897
38,17.718000,29.393169,280.395508,43.550258,106.681759,3.344752,1.863200,0.004116,0.050916,23.175000,1,219.253846,82.487731,2.519667,33.756082,0.099905
39,12.256000,28.295969,284.863477,45.262620,106.728207,3.158254,1.888530,0.003474,0.052309,23.050000,1,229.250231,81.892753,2.567858,34.367809,0.101903
3,9.944000,31.182425,289.677344,45.132432,106.768604,3.222041,2.052640,0.004607,0.050666,27.350000,1,240.437473,82.565222,2.607824,33.676092,0.099866
40,5.711000,30.811841,293.322461,46.687617,106.814763,3.510211,2.114048,0.005214,0.050999,25.525000,1,248.925388,83.085462,2.649831,34.235658,0.100015
41,6.130000,32.221736,297.199023,46.381213,106.875667,2.956682,2.109390,0.005524,0.051408,26.825000,0,258.281185,83.728981,2.654035,35.075872,-1.000000
42,5.020000,27.975770,300.174023,45.981675,106.908882,2.269581,2.161157,0.003674,0.051054,24.500000,1,264.920115,84.046955,2.624413,33.384735,0.038053
43,8.289000,34.805594,304.755469,47.309974,107.031364,2.852003,2.277927,0.002476,0.049716,27.375000,1,271.264787,84.256247,2.611408,36.687083,0.101793
44,15.037000,32.158448,308.076758,48.114088,107.072592,2.776960,2.274799,0.002878,0.050403,27.850000,1,279.200547,84.488585,2.605206,33.116221,0.003175
45,4.453000,35.015222,312.308789,47.954138,107.140607,3.793898,2.294790,0.003584,0.050525,26.325000,1,289.668428,84.392610,2.593005,34.289282,0.097887
46,7.368000,31.872280,315.529688,47.500387,107.177662,3.877696,2.335390,0.004025,0.051066,28.175000,1,297.049673,85.905167,2.541263,32.566623,0.101179
47,4.403000,33.528866,318.192383,49.152135,107.207101,4.618947,2.328688,0.004396,0.050693,29.875000,0,304.363426,85.090734,2.527318,33.540205,-1.000000
48,10.445000,32.504236,321.008984,48.054488,107.193036,3.801793,2.342239,0.004101,0.050474,26.800000,1,310.970306,86.025860,2.518663,33.295710,0.101155
49,7.804000,34.741330,324.346680,48.100096,107.173924,4.571806,2.020075,0.003947,0.051264,27.775000,0,320.680699,85.306736,2.530811,33.599293,-1.000000
4,10.665000,32.640341,327.248633,47.891982,107.238216,4.402914,2.282553,0.004743,0.050958,28.250000,1,327.300533,86.707919,2.577006,32.685194,0.100985
5,7.231000,33.929329,330.914648,49.777359,107.256084,5.248402,2.443160,0.003986,0.049972,27.800000,1,336.175146,85.636325,2.582292,34.431063,0.030477
6,16.199000,32.746516,334.307422,50.277333,107.254440,5.072156,1.880126,0.004106,0.051964,26.350000,1,343.990692,86.335771,2.590162,33.870345,0.100752
7,17.510000,32.376637,338.940820,50.527813,107.309952,5.411712,2.044464,0.003912,0.051279,25.200000,1,355.142573,86.046424,2.603654,35.686731,0.086404
8,3.496000,31.562705,343.392578,52.477678,107.344252,6.460867,2.433782,0.004202,0.051759,28.725000,0,366.558347,86.934705,2.608404,32.741007,-1.000000
9,10.013000,34.002990,347.328516,51.243901,107.355532,5.179533,2.318603,0.003327,0.050970,28.025000,1,376.584173,87.217156,2.616411,32.393440,0.101163
