Application,Deploy Time, G5K CPU usage, G5K RAM usage, A8 CPU usage, A8 RAM usage, G5K Bandwidth, A8 Bandwidth, G5K Latency, A8 Latency, Processed Tokens, Accepted, G5K RAM stddev, A8 CPU stddev, A8 RAM stddev, G5K CPU stddev,App Latency
0,9.374000,10.649079,201.767773,27.336484,105.631272,0.746904,0.059308,0.005060,0.043429,0.000000,0,125.677269,97.798666,3.188852,10.438600,-1.000000
10,6.542000,8.654350,202.094336,25.427703,105.606708,0.157042,0.064387,0.004903,0.041983,0.000000,1,125.115084,98.986808,3.158372,4.807759,0.032754
11,6.045000,13.861388,202.987109,27.509345,105.613086,1.064307,0.122868,0.003286,0.042463,2.150000,1,125.024348,98.522280,3.155695,11.663010,0.032555
12,11.955000,18.348391,204.391211,27.063463,105.657494,0.618016,0.185541,0.003424,0.043191,5.650000,1,124.823676,93.048831,3.139325,17.873052,0.052854
13,11.846000,14.189164,205.921289,28.764528,105.736643,1.353186,0.203278,0.005851,0.043180,7.050000,1,124.665184,91.650495,3.113952,13.319538,0.040356
14,10.905000,19.043344,207.751563,29.062682,105.780934,1.187237,0.240043,0.003817,0.043686,9.025000,0,123.792146,91.759381,3.152927,20.485402,-1.000000
15,26.663000,17.459509,208.416602,28.024582,105.813206,0.780058,0.240873,0.003087,0.044280,9.100000,1,123.473965,91.805298,3.178779,19.021468,0.033726
16,10.212000,26.090476,212.740820,28.600331,105.833398,2.152200,0.432918,0.002049,0.044083,18.525000,1,122.704586,91.187994,3.193270,21.103446,0.083702
17,301.042000,31.097964,215.578906,30.386793,105.898790,1.886181,0.493105,0.003072,0.045938,20.475000,0,122.908115,90.206380,3.144076,25.097763,-1.000000
18,5.085000,31.292268,220.809961,28.917701,106.009646,1.616016,0.497715,0.002085,0.045550,29.700000,1,125.597535,90.263885,3.014998,28.474016,0.032249
19,6.783000,32.628412,222.729688,29.508829,106.034525,1.788897,0.511112,0.002933,0.046276,32.525000,1,126.671288,90.352277,2.987178,28.241731,0.043985
1,22.559000,32.577489,225.469141,31.084417,106.072333,2.715847,0.566873,0.005012,0.046744,36.850000,1,127.846454,90.047636,2.961525,26.213496,0.099860
20,17.733000,33.402246,230.118359,30.726986,106.075534,2.196789,0.620963,0.003150,0.049655,34.900000,1,129.141479,89.767638,2.920720,23.917715,0.090996
21,5.259000,34.891912,234.269531,30.311710,106.123986,2.136222,0.699935,0.003385,0.046893,34.625000,1,131.068450,89.398602,2.945404,25.952821,0.101228
22,21.709000,36.423101,237.141797,30.660956,106.139069,2.534025,0.739585,0.003653,0.046159,33.100000,1,133.382741,89.798161,2.956683,25.382712,0.101192
23,13.842000,37.696015,241.817773,31.853598,106.175744,2.806554,0.888668,0.004454,0.046543,37.050000,1,135.986581,87.654709,2.917060,23.539163,0.101065
24,301.095000,36.799960,246.556836,31.756152,106.205464,2.983564,0.933629,0.003577,0.047550,38.700000,0,138.863982,88.128727,2.889408,22.908899,-1.000000
25,19.992000,38.201210,255.881250,32.245179,106.225224,3.190238,0.943071,0.004970,0.047142,36.925000,1,146.721606,88.246892,2.844500,21.898483,0.101620
26,7.424000,38.300047,261.302148,32.682437,106.255730,2.402086,1.083719,0.003833,0.047788,39.175000,1,153.037340,87.544620,2.842325,24.710117,0.029241
27,6.797000,37.365041,264.963867,32.702827,106.294401,2.452129,1.056792,0.002822,0.046793,38.450000,1,157.444859,87.603330,2.835371,23.530545,0.101128
28,301.082000,38.794595,269.280664,34.188865,106.333489,2.938732,1.077073,0.003544,0.047571,37.475000,0,162.948982,87.664270,2.830708,22.489660,-1.000000
29,301.119000,40.033153,280.540430,35.891895,106.432370,3.472903,1.154028,0.003158,0.047247,40.275000,0,176.508503,86.308675,2.807710,24.020490,-1.000000
2,7.341000,39.815610,292.316016,34.780200,106.528811,2.675190,1.166027,0.003933,0.046939,42.075000,1,192.814040,86.781360,2.807820,23.991890,0.101174
30,4.972000,40.080170,297.621094,35.012543,106.600871,2.684403,1.242363,0.004306,0.048272,39.525000,1,201.492035,85.846008,2.779486,23.265833,0.101081
31,5.750000,39.716578,302.712891,36.601749,106.593382,2.923339,1.272746,0.003444,0.047836,40.025000,1,209.891943,86.071165,2.797077,23.407194,0.100656
32,3.407000,39.098365,308.063086,37.307619,106.612216,3.233720,1.278122,0.004081,0.047381,37.450000,0,218.912742,86.310016,2.797552,23.910534,-1.000000
33,301.113000,40.645935,312.697070,36.172013,106.615356,2.621727,1.271638,0.003613,0.047742,37.225000,0,225.949593,85.694689,2.808518,25.169227,-1.000000
34,14.811000,39.618780,325.379687,35.266603,106.655386,2.510937,1.302699,0.002864,0.048801,38.875000,1,246.812290,85.907862,2.819398,23.697099,0.071865
35,301.109000,40.415933,330.841602,35.088296,106.670520,2.587862,1.367233,0.005018,0.048050,37.300000,0,259.350356,85.765497,2.823423,24.461757,-1.000000
36,301.112000,38.167099,343.160156,37.413067,106.749285,3.404839,1.406605,0.005008,0.047030,39.700000,0,284.570067,86.370446,2.829762,22.370068,-1.000000
37,8.170000,40.319960,354.329687,35.654825,106.767425,2.775235,1.412181,0.004120,0.048896,38.500000,1,306.650138,85.987528,2.852479,23.997643,0.099924
38,22.086000,38.493384,359.557422,37.290111,106.753411,3.489480,1.402057,0.004152,0.047836,37.425000,1,319.401258,86.129471,2.834307,23.090036,0.100017
39,12.586000,38.974775,365.132812,37.895737,106.812960,3.475379,1.444399,0.003220,0.046879,38.000000,1,332.499387,86.413569,2.907560,22.329169,0.101066
3,9.890000,39.166442,371.161133,37.714052,106.940509,2.980098,1.526499,0.003220,0.047905,37.500000,1,346.976509,85.451963,2.938484,22.956789,0.098885
40,6.258000,41.155925,376.794141,40.267633,107.001555,3.596413,1.579184,0.003915,0.050141,39.400000,1,362.784712,86.277573,2.916829,21.888275,0.100001
41,301.017000,40.482170,382.436133,38.508202,106.999790,2.701869,1.667347,0.004676,0.046952,36.725000,0,378.066450,85.288224,2.907773,22.290494,-1.000000
42,4.742000,40.490348,394.618750,39.818141,107.056111,3.666826,1.773610,0.004090,0.048725,37.625000,0,407.416336,85.466095,2.838462,21.513518,-1.000000
43,8.351000,41.434185,396.417578,40.974322,107.181950,4.360987,1.809155,0.003198,0.048232,37.925000,1,407.400623,86.229170,2.970129,23.397813,0.101053
44,14.852000,40.002793,398.990234,41.864804,107.389661,3.975252,1.751976,0.004153,0.048313,37.825000,1,407.513241,86.747412,3.397134,22.622540,0.003436
45,4.609000,40.998524,401.804492,41.816513,107.437098,4.495213,1.671815,0.003635,0.047862,34.375000,1,407.032506,86.736304,3.394837,22.792279,0.082806
46,7.172000,42.807405,404.063281,40.123330,107.647895,4.684142,1.805636,0.003906,0.049187,35.425000,1,406.174222,85.899223,4.193329,21.355707,0.101025
47,5.309000,41.870777,406.620508,40.180973,107.697674,4.300914,1.943347,0.003799,0.049858,37.175000,0,405.954937,85.190227,4.167482,20.642669,-1.000000
48,301.097000,41.347118,409.138867,40.014051,107.578289,3.625559,1.997308,0.004772,0.048180,37.550000,0,407.113279,85.316017,3.701888,21.730636,-1.000000
49,301.111000,41.310836,414.795117,40.308488,108.229095,3.833494,2.010329,0.004563,0.052596,34.350000,0,406.960743,85.404574,5.845246,21.343288,-1.000000
4,301.083000,41.648776,422.286719,40.144980,109.116206,3.647585,1.879003,0.005087,0.049369,36.975000,0,406.568834,85.604419,8.799144,21.262493,-1.000000
5,6.597000,41.216922,428.190820,40.813938,109.518393,3.970233,2.137316,0.003687,0.049256,35.900000,1,406.611243,84.927568,8.863660,20.137737,0.097800
6,301.117000,44.537124,431.215039,41.242028,109.955427,4.796363,1.956664,0.003592,0.049530,33.475000,0,406.656722,86.112073,8.839741,24.944267,-1.000000
7,17.823000,40.068882,435.615625,42.574868,110.529973,4.070247,1.927361,0.004470,0.048224,34.450000,1,407.351321,82.345291,8.199212,22.835669,0.099965
8,5.122000,40.787440,441.422656,41.939794,111.816509,4.687782,2.127264,0.004392,0.049200,34.025000,0,406.659633,86.656259,14.186253,21.655343,-1.000000
9,301.056000,42.457592,442.412891,40.572653,112.255427,3.875860,2.084120,0.003084,0.049155,35.425023,0,406.474059,86.626792,14.596527,21.568750,-1.000000
