Application,Deploy Time, G5K CPU usage, G5K RAM usage, A8 CPU usage, A8 RAM usage, G5K Bandwidth, A8 Bandwidth, G5K Latency, A8 Latency, Processed Tokens
7,13.705000,16.862240,229.040039,13.563289,106.010675,0.157928,0.080606,0.004801,0.141823,0.000000
28,10.682000,24.646265,229.128125,13.417459,106.029667,0.212790,0.086322,0.004259,0.214780,0.700000
24,11.857000,30.483936,229.549805,13.513883,106.046780,0.302694,0.108649,0.003435,0.084958,1.550000
6,11.465000,40.193443,230.170508,13.573928,106.060397,0.414874,0.135397,0.002979,0.043541,2.300000
4,9.937000,39.411612,230.643164,14.373763,106.076778,0.656069,0.144586,0.003892,0.083914,2.350000
46,10.803000,47.067665,230.616016,13.744957,106.087023,0.642940,0.156345,0.004564,0.106693,2.675000
41,11.960000,52.380770,230.755078,14.054058,106.107740,0.656130,0.186813,0.004321,0.078295,3.175000
40,13.956000,60.948441,231.018555,13.935380,106.169716,0.670373,0.202771,0.003337,0.176260,3.650000
39,9.619000,64.342913,231.350586,14.130601,106.181793,1.066539,0.216650,0.002636,0.257900,3.825000
38,8.776000,62.528977,231.521484,13.675389,106.201054,1.029054,0.235131,0.003201,0.097198,3.850000
35,11.026000,66.948501,232.044141,13.866839,105.912035,1.078324,0.239668,0.002883,0.218564,4.250000
2,11.323000,67.548444,232.149023,13.942238,105.732591,1.056329,0.240854,0.003459,0.109796,4.200000
29,10.244000,68.166226,232.336523,15.708117,105.717012,0.982051,0.278050,0.002996,0.089468,4.125000
26,6.414000,72.891032,232.534180,14.351344,105.643099,1.076546,0.269960,0.003159,0.280176,4.325000
25,8.923000,68.739689,232.748242,13.998354,105.571751,1.022442,0.264428,0.003470,0.069919,4.225000
23,6.311000,71.330165,232.853516,14.307140,105.579070,0.991694,0.274306,0.003741,0.049995,4.400000
1,10.138000,71.414270,233.110352,14.404249,105.549804,0.978079,0.271929,0.003891,0.088439,4.425000
18,7.730000,70.348333,233.325195,14.264870,105.466128,0.931023,0.271685,0.002762,0.069873,4.500000
17,8.604000,71.543933,233.310937,14.359343,105.376163,0.868422,0.270833,0.003198,0.109465,4.500000
16,10.194000,70.012646,233.569922,13.883670,105.387302,0.878050,0.277820,0.002964,0.232193,4.325000
15,9.866000,71.625844,233.815625,13.679479,105.161991,1.083010,0.265976,0.003155,0.218203,4.525000
14,11.403000,72.378978,237.223633,13.313011,104.959785,1.104253,0.229551,0.003333,0.145724,4.275000
13,8.681000,70.805542,237.680469,13.826636,104.964751,1.063985,0.267983,0.004218,0.101122,4.425000
12,5.757000,70.915050,237.962305,14.243492,104.917921,1.111096,0.274280,0.003609,0.232796,4.325000
11,12.517000,69.249699,237.558594,13.230929,104.735408,1.092441,0.264171,0.003174,0.168763,4.150000
10,10.222000,72.129935,237.483789,14.103396,104.573314,1.084884,0.275454,0.003571,0.264171,4.350000
9,8.982000,70.864999,237.333984,14.097338,104.575803,1.086881,0.261695,0.003032,0.163413,4.400000
8,7.867000,68.444210,237.506836,14.052632,104.575801,1.088458,0.251025,0.002713,0.063917,4.350000
5,8.352000,71.880888,237.680859,14.051868,104.576785,1.067796,0.262645,0.003173,0.183677,4.325000
49,5.786000,68.173928,237.687695,14.158494,104.578508,1.054921,0.254824,0.003790,0.302797,4.250000
48,6.187000,71.965462,237.981641,13.860695,104.577483,1.070493,0.274194,0.002750,0.251978,4.175000
45,4.970000,69.678773,238.152930,13.829731,104.574796,1.107764,0.263615,0.002921,0.116891,4.325000
44,6.635000,71.674389,238.435742,13.798670,104.573840,1.060761,0.272198,0.002849,0.214100,4.225000
43,7.506000,66.775650,238.650977,13.415906,104.572203,1.022449,0.251775,0.002765,0.146588,4.425000
42,10.932000,71.663371,238.864648,13.504597,104.569486,0.976811,0.263015,0.002493,0.225401,4.425000
3,9.928000,74.624182,239.468164,13.800819,104.567055,0.982601,0.270006,0.002638,0.078983,4.575000
37,7.028000,75.068473,239.698047,13.777952,104.566969,0.914836,0.269454,0.002691,0.098291,4.575000
36,8.713000,77.112626,239.900391,14.251432,104.563565,0.894528,0.260679,0.002881,0.109233,4.450000
33,8.397000,76.743409,239.847266,13.938895,104.564772,0.841932,0.256557,0.002711,0.078223,4.625000
32,6.573000,78.122813,239.754102,13.958712,104.559312,0.791446,0.269023,0.003366,0.147087,4.375000
31,7.433000,75.499961,239.830273,14.396622,104.563661,0.728650,0.261940,0.002707,0.171215,4.500000
30,8.878000,77.732967,240.041016,14.435824,104.561708,0.707348,0.255165,0.002595,0.212453,4.625000
27,6.460000,73.906140,240.175195,14.397607,104.560999,0.691214,0.275226,0.003262,0.089518,4.475000
21,6.692000,76.975510,240.423047,14.481952,104.562394,0.653800,0.268343,0.003208,0.173301,4.650000
20,5.744000,76.920585,240.654492,13.995114,104.562232,0.611869,0.283532,0.002830,0.175794,4.575000
19,6.671000,74.128222,240.902148,13.582529,104.551435,0.579557,0.257678,0.002795,0.277050,4.425000
47,7.955000,75.689321,241.129297,13.434233,104.547066,0.530387,0.263088,0.002631,0.166281,4.500000
34,6.475000,76.618517,241.387305,13.471752,104.545170,0.531818,0.248643,0.002667,0.137267,4.475000
22,4.180000,75.108746,241.625391,12.964482,104.543132,0.514290,0.260187,0.002575,0.130956,4.525000
0,5.529000,74.985383,241.808008,13.231374,104.543637,0.476304,0.249401,0.002442,0.067547,4.550000
