Application,Deploy Time, G5K CPU usage, G5K RAM usage, A8 CPU usage, A8 RAM usage, G5K Bandwidth, A8 Bandwidth, G5K Latency, A8 Latency, Processed Tokens
49,5.566000,12.792213,248.013455,14.050519,100.231653,1.553457,0.061562,0.002023,0.027557,0.000000
48,5.849000,17.041659,249.045573,12.679555,100.228976,0.254047,0.072714,0.003305,0.027558,0.000000
43,4.863000,19.115153,249.186632,13.734772,100.212583,1.863799,0.089832,0.007270,0.028486,0.000000
38,5.479000,8.722228,249.080729,11.996532,100.226144,0.096225,0.056273,0.005004,0.028650,0.000000
26,5.440000,10.360496,249.194444,12.871113,100.225794,1.545039,0.070354,0.006570,0.028308,0.000000
18,5.540000,15.688052,249.300347,12.593347,100.236653,0.084279,0.075864,0.003616,0.027517,0.000000
12,5.972000,19.198560,249.434896,12.773859,100.236802,1.397385,0.078173,0.007101,0.027974,0.000000
4,4.700000,10.448566,249.504774,13.274954,100.242844,2.130379,0.069841,0.006233,0.029048,0.000000
42,5.291000,12.121947,249.587240,13.099925,100.254312,1.280855,0.071331,0.006280,0.028334,0.000000
34,4.747000,17.159129,249.642795,13.580598,100.260798,2.133077,0.081201,0.004541,0.028673,0.000000
33,4.885000,14.421615,249.691406,12.271165,100.263923,0.440002,0.083143,0.002852,0.028325,0.000000
31,5.243000,13.166509,249.818576,13.882682,100.266601,2.177165,0.073679,0.009610,0.028377,0.000000
2,4.851000,12.948610,249.856771,13.568602,100.284556,0.535170,0.070014,0.002340,0.027993,0.000000
23,4.721000,16.451364,249.942274,13.303837,100.284682,0.938712,0.074207,0.075293,0.028686,0.000000
22,5.771000,17.228723,250.075087,13.142245,100.295507,0.683034,0.082270,0.005231,0.028805,0.000000
21,5.155000,12.495794,250.139323,13.078295,100.301952,0.786854,0.064082,0.007004,0.028803,0.000000
19,5.253000,11.183274,250.226562,13.562778,100.303210,2.220820,0.072911,0.005941,0.028998,0.000000
16,5.106000,15.374175,250.305556,13.003142,100.317886,0.741959,0.083182,0.007261,0.028556,0.000000
0,5.124000,12.978076,250.403212,13.341837,100.329088,2.135623,0.068656,0.003713,0.028398,0.000000
8,4.632000,12.997448,250.521701,12.447970,100.333817,1.029910,0.074368,0.004477,0.028016,0.000000
7,4.304000,23.473239,252.730903,16.060858,100.412877,3.141895,0.297481,0.003905,0.029026,4.625000
47,4.821000,28.686732,253.682726,15.343463,100.486398,2.194030,0.288836,0.006292,0.029291,4.600000
44,4.712000,23.043614,256.236111,18.068752,100.555887,3.174967,0.640820,0.004323,0.029496,4.599971
41,4.250000,24.835039,259.625434,18.901240,100.579297,6.253950,1.083144,0.004072,0.030703,14.700092
3,4.801000,29.571639,260.631944,18.145459,100.581878,5.126181,1.096970,0.002293,0.030339,14.725000
36,4.695000,34.888263,261.706163,18.618518,100.609709,6.562721,1.104836,0.003581,0.030820,14.675000
32,4.265000,27.770724,262.643663,17.620274,100.629701,4.898765,1.094829,0.003263,0.031303,14.675000
28,4.990000,27.973179,264.254774,19.989244,100.650961,6.425576,1.422599,0.004267,0.029955,14.700092
15,5.252000,33.815639,265.310330,20.698189,100.652860,7.007298,1.440813,0.002291,0.031690,14.675000
13,4.717000,34.304270,267.512587,22.628128,100.706636,6.990890,1.631399,0.002851,0.031965,18.950000
9,4.343000,27.288512,269.586806,24.567205,100.780997,8.235924,1.823899,0.003213,0.032167,20.550000
6,4.108000,29.426540,272.889757,23.155012,100.824931,8.866094,2.124162,0.002914,0.031601,20.525000
39,3.850000,34.384777,274.480035,24.668888,100.851578,10.702786,2.137442,0.072753,0.030372,20.450000
30,4.045000,33.780683,276.237847,23.309015,100.863857,9.016783,2.418391,0.002099,0.033228,20.425000
29,4.105000,32.090271,278.668403,26.704724,100.889187,10.716253,2.593814,0.002289,0.032148,20.475000
24,4.283000,33.631635,280.401910,27.407908,100.932042,10.403428,2.626295,0.003093,0.032016,21.550174
17,4.271000,34.315396,281.910590,27.568122,100.981153,10.767469,2.648254,0.002665,0.032291,21.600000
11,4.080000,34.920154,282.333767,27.140097,101.016533,11.871260,2.758216,0.001906,0.032779,22.475171
10,4.452000,35.959565,283.762587,28.156563,101.028558,10.325437,2.958218,0.003410,0.032382,23.525000
5,3.684000,33.668029,286.016927,28.942805,101.047948,12.528318,3.402458,0.003589,0.032879,23.625000
45,3.612000,35.466887,289.094184,31.536442,101.080009,13.302781,3.565115,0.004171,0.034879,23.450000
37,3.295000,38.658460,291.248698,34.540018,101.178604,13.157406,3.712634,0.002236,0.032317,27.150000
35,3.161000,41.594921,293.190104,34.356791,101.237040,12.814066,3.705332,0.002428,0.032999,28.400000
27,3.183000,39.531710,295.096354,34.045906,101.231348,12.007364,3.720832,0.002040,0.032407,28.150000
1,3.277000,43.377006,296.993490,34.698277,101.251837,13.784569,3.715518,0.003847,0.033159,28.199788
46,5.845000,42.789475,299.010417,34.316623,101.268276,12.967227,3.667045,0.002831,0.034092,28.325178
40,6.071000,43.344777,301.200087,34.435659,101.283985,13.366624,3.716881,0.002895,0.033581,28.250000
25,5.646000,46.114528,303.196181,35.083150,101.276758,13.402516,3.667988,0.004548,0.033073,28.175000
20,5.949000,38.925210,305.243490,34.130577,101.280591,13.426942,3.700806,0.002517,0.031848,28.274787
14,5.975000,42.343442,307.136719,34.706707,101.259400,13.896269,3.733168,0.002229,0.033971,28.075000
