Application,Deploy Time, G5K CPU usage, G5K RAM usage, A8 CPU usage, A8 RAM usage, G5K Bandwidth, A8 Bandwidth, G5K Latency, A8 Latency, Processed Tokens
41,6.944000,15.054232,217.532031,14.937847,98.897718,1.718332,0.082167,0.006431,0.036480,0.000000
3,7.604000,17.532539,220.543945,15.528317,98.875768,0.788169,0.150806,0.004899,0.038821,3.825000
0,6.694000,21.242810,222.007031,17.099714,98.927861,1.120317,0.221478,0.005453,0.039070,7.675000
6,6.845000,25.573758,223.802539,18.595820,99.106858,1.386202,0.303337,0.005182,0.039912,11.350000
5,6.445000,27.412414,225.097070,19.038965,99.237647,1.137405,0.359978,0.004675,0.056317,14.300000
42,6.758000,31.217123,226.722266,20.741100,99.336262,1.390960,0.439163,0.004521,0.039856,18.050000
40,5.609000,29.731849,228.454297,21.481898,99.393861,1.567341,0.480864,0.005283,0.039933,20.900000
39,6.492000,36.488216,230.303711,23.033615,99.451785,1.875837,0.569269,0.004611,0.042381,24.850000
38,7.193000,39.797354,233.015430,26.218662,99.438959,2.838975,0.873678,0.004094,0.054234,24.825000
35,7.391000,39.255647,234.959570,27.540243,99.395251,3.064033,0.952102,0.004448,0.044843,27.675000
31,5.352000,35.313401,237.598242,29.886714,99.362447,3.942441,1.274868,0.003640,0.045920,27.525000
30,6.843000,41.861033,239.982031,31.528828,99.423940,4.141060,1.356997,0.003709,0.045956,31.100000
28,5.874000,42.684927,241.824805,33.543076,99.430895,4.261539,1.586256,0.002804,0.046950,33.475000
27,7.238000,45.068645,243.872852,34.306924,99.335768,4.213865,1.593709,0.003836,0.045624,36.375000
26,6.287000,47.599907,246.333984,34.890406,99.351078,4.385297,1.656360,0.004148,0.046853,39.075000
25,6.869000,51.443566,249.328320,35.730170,99.376851,5.193771,1.749772,0.003685,0.047086,40.850000
23,6.109000,48.372205,251.712500,36.685676,99.424823,4.722396,1.839636,0.003288,0.045733,41.600000
1,6.439000,53.395141,254.351562,37.409714,99.415047,4.776471,1.860236,0.004133,0.049323,44.500000
19,6.499000,51.645391,256.872852,38.796716,99.435999,4.872834,1.977649,0.002673,0.046372,48.350000
18,6.778000,57.142288,259.622070,40.372043,99.494887,5.443164,2.072642,0.003744,0.048834,51.875000
17,6.849000,56.377693,262.317383,41.396887,99.514132,5.440925,2.189577,0.003495,0.118143,53.350000
16,7.163000,58.287237,265.587305,43.742195,99.563417,5.587206,2.386651,0.002568,0.305325,54.450000
10,6.626000,60.090743,268.704492,45.873716,99.596786,5.445181,2.712403,0.003126,0.051495,53.975000
9,5.426000,60.126687,271.611328,46.978374,99.612510,5.830553,2.838205,0.002863,0.053095,54.750000
8,5.505000,61.631284,274.779492,48.564720,99.618776,5.854639,2.984397,0.002680,0.052381,55.725000
7,5.297000,59.059461,277.768750,49.675045,99.622719,6.544032,3.252907,0.002281,0.053589,55.825000
4,6.313000,64.364375,279.744531,49.459339,99.636862,6.229428,3.165336,0.003186,0.063092,57.325000
49,5.445000,60.148062,283.068945,50.674638,99.565119,6.523504,3.409781,0.003157,0.051549,57.600000
48,6.236000,64.721304,285.793164,51.932313,99.580502,6.703458,3.444635,0.002928,0.053782,59.225000
47,5.386000,64.096509,288.690039,52.447496,99.618515,6.395438,3.460318,0.002160,0.157420,61.825000
45,6.566000,64.092162,291.666992,53.311600,99.646198,6.527580,3.525492,0.002253,0.083425,61.750000
44,4.701000,71.267775,295.012891,54.099507,99.663637,6.475920,3.664296,0.003050,0.270179,65.475000
43,5.221000,74.492297,298.264648,54.714608,99.708427,6.523216,3.693884,0.002806,0.053685,68.025000
37,6.434000,70.180841,301.745898,56.156729,99.716440,7.032318,3.706518,0.002291,0.053016,72.450000
36,5.224000,70.043308,306.019531,58.280210,99.771582,7.617552,4.047745,0.002959,0.057580,71.450000
34,5.684000,73.132851,309.763477,59.212463,99.756712,7.677776,4.103289,0.001866,0.054216,73.425000
2,5.881000,75.574978,313.564648,61.230879,99.767556,8.033126,4.313511,0.002308,0.056960,73.400000
29,5.904000,74.128621,317.082812,62.191989,99.731394,7.754320,4.321527,0.002357,0.056130,77.025000
24,5.086000,72.439192,321.174414,63.499738,99.719765,8.660365,4.565306,0.002021,0.055805,76.050000
22,5.465000,74.679752,325.116211,64.481891,99.733185,8.840282,4.642148,0.002878,0.057654,75.750000
21,5.352000,77.385379,329.253320,65.111723,99.731218,9.297582,4.773612,0.002373,0.057348,75.375000
20,6.072000,78.047538,332.832227,65.353386,99.738798,8.834470,4.832210,0.002074,0.056873,77.950000
15,5.813000,76.815693,336.330469,66.180930,99.786943,8.983769,4.893233,0.002192,0.058564,78.175000
14,5.327000,76.303635,339.749805,65.881891,99.789705,8.879254,4.875129,0.002016,0.057419,77.875000
13,6.115000,77.842042,343.631445,65.893025,99.778909,9.135563,4.906857,0.002227,0.057431,77.900000
12,5.545000,75.771038,346.942187,65.656027,99.781543,8.940940,4.838157,0.002334,0.057849,77.550000
11,4.674000,73.241241,347.533203,65.427774,99.769592,8.546420,4.898057,0.002037,0.056587,78.350000
46,5.467000,77.322793,348.061523,65.381193,99.767844,8.630281,4.901848,0.002392,0.067891,77.700000
33,5.033000,80.717132,348.611523,65.481227,99.764172,8.532064,4.875772,0.002833,0.057128,77.825000
32,4.354000,72.723790,349.197656,65.601158,99.759557,8.871150,4.966239,0.001988,0.056789,77.825000
