Application,Deploy Time, G5K CPU usage, G5K RAM usage, A8 CPU usage, A8 RAM usage, G5K Bandwidth, A8 Bandwidth, G5K Latency, A8 Latency, Processed Tokens
45,9.304000,12.123614,219.998437,14.553204,100.117630,0.640056,0.067409,0.004290,0.036664,0.000000
42,11.723000,16.526804,223.407031,15.850982,100.177561,1.569510,0.297348,0.004778,0.036985,11.575000
20,10.298000,18.036844,226.586133,17.311284,100.218573,2.388282,0.502319,0.004369,0.036838,21.825000
9,10.699000,14.235777,229.677539,18.204990,100.273585,3.050384,0.819868,0.003958,0.037591,20.550000
5,8.378000,18.261658,232.527734,20.213477,100.240273,4.725048,1.088025,0.004347,0.037982,20.500000
4,9.171000,14.811260,235.463086,22.009887,100.267688,5.998449,1.378008,0.003422,0.038217,20.375000
49,10.839000,19.085488,237.521094,24.209930,100.291679,7.012653,1.678190,0.004298,0.039734,20.375000
48,6.792000,16.567780,240.089258,25.902801,100.351937,7.082263,1.923697,0.003037,0.039287,27.725000
47,8.496000,16.229136,242.648633,26.883580,100.366565,7.757896,2.100971,0.002528,0.039582,27.875000
46,8.731000,17.773106,245.819727,26.818024,100.389400,9.709488,2.235233,0.002396,0.038671,27.700000
44,7.145000,15.989966,248.693945,28.547812,100.411833,11.388777,2.216280,0.003135,0.039921,31.125000
43,7.282000,21.883638,251.151563,30.858024,100.412053,12.384304,2.445966,0.003059,0.039835,31.350000
40,9.505000,16.920085,254.069727,32.698226,100.420783,13.210202,2.630306,0.003518,0.041075,32.925000
39,10.010000,21.923537,256.460742,32.937684,100.429284,13.349643,2.737330,0.004044,0.040963,30.850000
38,10.027000,18.004839,259.281836,33.386610,100.410261,13.865162,3.031006,0.002274,0.040077,31.750000
31,8.369000,22.971973,261.851953,35.507546,100.431625,14.304953,3.342899,0.004675,0.041348,30.500000
2,11.576000,20.222531,264.905469,38.063992,100.455027,14.957057,3.576013,0.002683,0.051480,30.375000
29,8.181000,22.663879,268.096484,39.885662,100.475137,16.368962,3.963145,0.004008,0.042723,30.400000
27,8.962000,24.604443,270.683008,41.338897,100.556261,17.215410,4.285719,0.002789,0.041852,35.650000
24,7.665000,19.751014,272.875195,43.049766,100.593382,16.556436,4.556913,0.002676,0.042764,35.775000
23,9.706000,21.815241,275.306250,44.764419,100.596763,16.509867,4.834631,0.003240,0.043841,34.775000
22,12.081000,21.955828,278.206641,46.529256,100.624206,17.398897,5.180852,0.003477,0.043312,35.300000
21,9.135000,20.452529,281.350000,48.244323,100.667653,18.184293,5.509686,0.002679,0.043480,34.875000
19,6.882000,24.022585,283.701563,50.027085,100.686407,17.872493,5.765328,0.003479,0.044254,34.375000
18,7.484000,24.287334,285.752734,51.558944,100.711842,18.653427,5.955281,0.002984,0.045150,34.775000
17,10.786000,24.015219,286.734570,53.077491,100.740809,18.670756,6.192829,0.003605,0.045290,34.425000
16,11.648000,21.745135,289.678711,54.209652,100.746772,19.178842,6.603188,0.003947,0.046090,35.000000
13,11.159000,23.778245,292.493750,56.248673,100.760841,19.504877,6.969719,0.003377,0.046146,34.725000
8,7.663000,28.225749,295.014258,56.698292,100.826646,20.448652,7.055890,0.003558,0.046522,34.625000
7,8.810000,27.014723,298.056250,58.760898,100.868300,20.499827,7.326437,0.002195,0.046019,34.750000
41,9.130000,22.247092,300.768359,60.538998,100.879945,21.064255,7.592517,0.003198,0.046440,34.775000
36,8.746000,26.534888,303.603906,61.681583,100.892606,21.505276,7.909974,0.003053,0.046985,35.025000
35,6.594000,26.626196,306.224805,63.371773,100.852340,21.770692,8.209267,0.002871,0.047790,34.650000
34,8.385000,25.029411,309.412305,65.084460,100.865918,22.946461,8.428402,0.004515,0.048267,34.925000
28,7.824000,28.580451,311.922656,65.340082,100.883407,23.646694,8.557575,0.002781,0.050115,34.675000
26,8.871000,29.407507,314.601367,67.454158,100.892795,23.403769,8.983983,0.002618,0.048356,36.550000
1,6.996000,24.456568,317.479883,69.470085,100.915430,24.035936,9.249238,0.003855,0.048906,36.550000
15,7.985000,26.489614,320.114453,71.027012,100.943225,25.029650,9.489405,0.003960,0.049879,37.300000
14,6.764000,28.602783,323.113281,72.411229,100.983480,25.204921,9.810413,0.004074,0.050053,35.450000
12,5.455000,27.648936,325.278125,74.022834,101.016196,25.442703,10.093063,0.001899,0.049737,35.300000
11,9.561000,25.363967,328.611328,75.773016,101.067868,25.165736,10.369015,0.002984,0.052114,44.000000
6,5.253000,29.372600,331.786719,77.401875,101.080827,25.868888,10.712406,0.004037,0.052309,44.950000
3,6.433000,33.143391,334.713672,78.870891,101.100255,25.715037,10.887830,0.002835,0.052740,44.650000
37,6.091000,29.873137,338.362891,80.919115,101.157107,26.665939,11.147342,0.003219,0.052103,56.275000
33,6.154000,30.041902,342.809766,82.853760,101.196267,27.032672,11.445108,0.003043,0.052587,70.500000
32,6.312000,32.057659,346.588867,83.075038,101.198134,26.429252,11.404667,0.003038,0.053304,69.100000
30,5.556000,29.763262,349.820117,82.703142,101.207805,27.196463,11.213372,0.003036,0.052687,69.150000
25,5.875000,28.966271,353.742188,84.716784,101.173757,27.867345,11.494429,0.004333,0.053691,66.725000
10,5.012000,31.939163,357.352930,84.540152,101.192808,27.762374,11.541648,0.003492,0.052492,69.375000
0,5.609000,29.471647,360.391211,84.267731,101.174350,27.566526,11.570244,0.002846,0.054458,67.575000
