Application,Deploy Time, G5K CPU usage, G5K RAM usage, A8 CPU usage, A8 RAM usage, G5K Bandwidth, A8 Bandwidth, G5K Latency, A8 Latency, Processed Tokens
0,5.581000,16.189088,224.904492,14.385077,102.224255,0.860411,0.075243,0.005994,0.029301,0.000000
10,5.855000,15.896897,225.705664,14.584388,102.241355,0.929009,0.087946,0.004845,0.029520,1.250000
11,4.877000,18.029300,226.346484,13.565065,102.243335,0.418532,0.114388,0.003351,0.029801,2.250000
12,4.079000,21.132403,226.946289,15.271856,102.304056,0.834557,0.158694,0.004546,0.043002,3.875000
13,6.898000,24.323480,227.973828,16.919477,102.380744,1.434060,0.216243,0.005192,0.030512,7.650000
14,6.960000,23.205251,229.225586,16.336856,102.430105,1.592790,0.334969,0.004452,0.030449,7.725000
15,5.663000,24.652026,230.241211,17.169273,102.457178,2.378604,0.402761,0.005150,0.032061,7.700000
16,4.005000,24.470408,230.745703,18.374227,102.451243,2.602964,0.394809,0.004923,0.031435,7.725000
17,3.505000,23.354236,231.371875,18.155034,102.460128,1.929301,0.502969,0.004748,0.032526,7.700000
18,8.090000,22.267044,231.736719,18.135920,102.467582,2.454040,0.503080,0.003627,0.030784,7.650000
19,5.723000,24.864289,233.297656,19.683681,102.473693,4.237658,0.566506,0.004108,0.031503,7.700000
1,5.018000,25.753990,233.962500,19.228908,102.474105,3.695987,0.558153,0.005073,0.032125,9.400000
20,3.722000,25.970480,234.581836,18.865509,102.505193,3.076624,0.600177,0.004394,0.031567,9.450000
21,4.147000,25.913849,234.946484,20.477613,102.500905,3.759984,0.612315,0.004486,0.032927,9.425000
22,7.378000,25.015315,235.496094,20.380272,102.519330,3.696090,0.645687,0.005327,0.033388,9.400000
23,4.866000,30.333947,235.891211,19.237707,102.492779,2.623069,0.577861,0.004936,0.033042,9.700000
24,5.205000,30.802436,236.248242,20.219882,102.520646,2.965606,0.560038,0.005789,0.032591,8.500000
25,7.237000,26.347785,236.571875,20.122232,102.546389,2.489967,0.560491,0.003510,0.033390,8.325000
26,6.583000,29.354262,237.012891,19.508708,102.563341,2.624987,0.692743,0.004391,0.033468,8.225000
27,4.544000,29.951334,237.490039,20.881219,102.561428,2.630614,0.686582,0.005168,0.034062,8.250000
28,6.681000,30.022181,237.773242,22.208753,102.566803,3.079899,0.788436,0.004990,0.032856,8.200000
29,9.597000,30.149366,238.316602,21.645026,102.566104,2.711668,0.853525,0.004399,0.034683,8.175013
2,6.190000,32.425684,239.432422,22.031124,102.546530,3.848941,0.865939,0.004874,0.034059,8.200000
30,9.366000,27.327598,239.931250,23.006881,102.564305,4.335897,0.876715,0.005927,0.034641,8.125000
31,6.464000,28.007102,240.502344,22.504236,102.538721,3.763195,0.935061,0.004234,0.045810,8.400000
32,8.224000,30.994429,241.072070,22.827195,102.543148,3.868016,0.959828,0.005688,0.035137,8.150000
33,10.225000,30.519444,242.254492,24.114410,102.529154,5.154601,1.064929,0.003348,0.035160,8.075000
34,3.953000,31.234186,242.696094,23.991024,102.531142,5.531448,1.035346,0.005571,0.035363,8.075000
35,10.074000,29.953745,243.239453,24.138010,102.535611,4.921367,1.125933,0.004820,0.034824,8.075000
36,5.733000,27.832663,244.112500,25.260606,102.525913,5.418539,1.307602,0.004587,0.036075,8.100000
37,5.888000,29.700823,244.150781,26.458652,102.549185,5.899103,1.374197,0.004049,0.036845,7.975000
38,7.940000,30.594350,244.113477,27.102609,102.555820,6.052226,1.551125,0.003990,0.036546,7.950000
39,8.322000,30.055021,244.367383,26.948824,102.561985,6.373306,1.554143,0.002881,0.037559,8.025000
3,6.492000,30.863839,245.091406,28.589820,102.550188,6.893961,1.666911,0.003688,0.037752,7.975000
40,4.880000,29.369839,245.753125,28.714570,102.556193,7.107181,1.669464,0.005376,0.037955,8.000000
41,6.921000,32.714646,245.997070,28.226696,102.584643,6.964910,1.716933,0.003016,0.037706,7.975000
42,6.775000,34.145019,246.487695,28.792371,102.570598,6.577938,1.651835,0.004367,0.038068,8.000000
43,8.696000,31.141806,246.941016,29.965402,102.589782,8.062517,1.763972,0.004685,0.037370,7.950000
44,8.165000,28.755895,248.082422,28.401486,102.611928,8.434767,1.731732,0.003785,0.144959,7.950000
45,6.722000,31.981005,248.854688,30.202328,102.609579,7.857752,1.890582,0.003554,0.040208,7.800000
46,7.993000,30.668519,249.552930,31.278726,102.575015,8.952156,1.907412,0.004223,0.038035,7.875000
47,9.851000,33.740329,250.397070,31.915528,102.594197,10.331477,2.014917,0.003192,0.039290,7.775000
48,10.042000,33.210975,251.542578,31.679926,102.620883,10.037770,2.078558,0.004674,0.038780,7.975000
49,9.397000,31.624415,252.173047,31.462220,102.614171,9.287015,1.976494,0.003711,0.039763,8.274991
4,10.071000,34.377337,252.526367,32.715639,102.652425,9.606542,2.059302,0.002961,0.038988,8.325000
5,9.440000,32.916907,252.939063,33.529521,102.690352,10.740647,2.208078,0.004313,0.040682,8.275000
6,6.943000,34.580497,253.870898,33.133777,102.703005,9.728797,2.243878,0.003525,0.039861,8.075000
7,7.617000,34.712216,254.483984,34.299946,102.703116,11.096777,2.271337,0.003955,0.039847,8.175000
8,6.706000,37.424639,255.346680,34.723697,102.723279,10.851689,2.231543,0.003913,0.039779,8.175000
9,9.888000,34.222363,256.046289,34.193101,102.738818,10.783254,2.356016,0.004207,0.040812,8.300000
