Application,Deploy Time, G5K CPU usage, G5K RAM usage, A8 CPU usage, A8 RAM usage, G5K Bandwidth, A8 Bandwidth, G5K Latency, A8 Latency, Processed Tokens
8,8.756000,13.354349,225.485352,13.559330,99.357293,0.714612,0.068276,0.004718,0.029705,0.000000
5,6.673000,18.336280,231.807813,18.808663,99.550122,2.760838,0.706528,0.004684,0.029803,33.675000
43,7.576000,16.109111,239.187891,24.867382,99.761072,5.381883,1.334110,0.003923,0.032039,68.200000
38,6.807000,25.437392,247.091211,29.910058,99.993652,8.162689,1.893351,0.005096,0.034192,96.950000
16,7.049000,24.176566,256.578906,36.287430,100.169019,10.700977,2.513202,0.003634,0.033923,130.750000
14,8.329000,29.966084,266.929492,41.317170,100.319591,12.665927,3.019958,0.002661,0.036888,158.750801
13,7.290000,29.970841,275.847656,43.663531,100.297963,13.680396,3.284931,0.002710,0.037272,157.599509
7,6.893000,31.897826,285.894141,47.988527,100.473732,14.961731,3.843612,0.002647,0.039082,174.152228
48,5.768000,34.581092,297.707617,52.248752,100.619084,16.909966,4.283395,0.002936,0.040018,199.400000
46,7.319000,40.978738,309.039062,56.253847,100.751866,17.866557,4.797498,0.003232,0.042223,220.751224
45,5.759000,46.469664,323.045313,60.363746,100.919678,21.110971,5.498722,0.003048,0.043480,252.199506
42,7.040000,44.180730,338.158398,64.751463,101.027396,22.138155,5.807571,0.002416,0.044067,274.974502
41,6.909000,51.528748,354.665234,68.552737,101.155376,24.187100,6.313251,0.002791,0.045967,305.800000
39,6.310000,47.804915,369.316797,70.801756,101.268408,24.550010,6.580688,0.003154,0.045993,311.204560
36,7.232000,50.951422,385.420703,73.427664,101.262925,25.959963,6.844780,0.002323,0.090341,313.350481
34,6.303000,46.714421,399.703125,75.211028,101.199119,27.054573,7.229847,0.002847,0.048593,310.176444
33,5.937000,55.168926,414.290234,77.307121,101.220102,27.242805,7.393350,0.002713,0.050903,311.875000
32,6.855000,52.452971,429.635156,78.963628,101.197630,28.578736,7.584677,0.002617,0.049675,308.275000
30,7.352000,55.111320,445.117383,81.044279,101.173354,29.471580,7.769764,0.003240,0.050556,308.175000
27,6.563000,51.577863,459.701953,82.540385,101.199908,30.559917,8.142284,0.003416,0.062650,307.700000
26,6.703000,53.170674,475.648438,84.899763,101.200948,31.127412,8.564344,0.002694,0.052923,306.474289
25,6.063000,54.778561,491.831055,87.715761,101.312183,32.299656,8.989220,0.002692,0.053796,325.775000
24,6.951000,61.051073,507.271680,88.949385,101.421618,32.776828,9.106079,0.002300,0.053390,328.925000
19,6.214000,53.395073,522.640234,88.866347,101.440570,33.074824,9.095465,0.002539,0.054157,331.125123
18,5.649000,58.585428,537.187891,88.938217,101.517239,32.408344,9.008048,0.002244,0.055685,327.852450
17,5.635000,54.757869,550.842383,89.137626,101.486189,32.523671,9.000811,0.002143,0.053508,329.623843
12,6.160000,54.761247,565.342383,89.114292,101.440640,32.705716,9.081489,0.002381,0.054012,326.791912
11,6.041000,59.143492,579.671484,88.833152,101.411672,32.753592,8.957456,0.002605,0.053470,328.075733
9,4.347000,58.470512,593.848438,89.091255,101.430249,32.957915,8.989540,0.002588,0.054118,325.800000
6,5.136000,53.838247,608.259570,88.763361,101.425955,32.813928,8.874447,0.002085,0.051383,325.725000
4,5.287000,59.882267,623.152930,88.821724,101.429524,32.688509,8.767484,0.002866,0.052699,324.548226
47,5.066000,55.264722,637.737695,88.515411,101.454414,32.688470,8.981967,0.002091,0.051408,321.525606
3,4.637000,51.898736,651.961523,88.708499,101.451072,32.828008,8.845119,0.002634,0.051900,323.399272
37,5.859000,58.295899,666.318945,88.544477,101.416742,32.836608,8.849728,0.002755,0.052656,323.649273
35,4.723000,52.963162,680.900000,88.636700,101.427619,33.034639,8.903103,0.002378,0.051268,321.373119
31,5.561000,57.401406,695.394531,88.170916,101.452254,32.166091,8.891878,0.003271,0.052455,319.675000
29,5.125000,56.407299,709.370508,87.758540,101.453159,31.835235,8.881461,0.002514,0.053411,318.125724
28,6.212000,57.027096,723.621289,87.677220,101.448471,32.893469,9.028468,0.002857,0.051368,316.300728
22,6.255000,54.661835,738.213086,87.802958,101.445693,32.128004,8.876311,0.002470,0.051564,316.751162
21,6.197000,60.212155,754.278711,89.575653,101.459499,32.961088,9.129300,0.003351,0.052611,335.275000
20,5.924000,53.125015,769.419922,89.610801,101.460353,33.140610,9.121505,0.002495,0.052699,332.500131
1,5.652000,57.679962,784.559961,89.551845,101.464637,33.079557,9.126697,0.002965,0.052123,332.725130
15,4.609000,55.916194,799.301172,89.410280,101.480706,33.507154,9.040947,0.003172,0.052169,331.225000
10,5.771000,56.994533,813.724805,89.457022,101.473737,33.295040,9.050106,0.002908,0.052942,332.000575
0,6.350000,56.778592,828.555664,89.304587,101.480558,33.515905,9.054864,0.002223,0.050860,331.823396
49,5.062000,58.817346,844.526367,90.782881,101.517070,33.231926,9.203172,0.002639,0.053744,333.799388
44,5.541000,55.785405,859.278906,90.618688,101.518778,33.828337,9.248603,0.002198,0.052186,331.425728
40,4.300000,55.989633,874.313477,90.664970,101.518232,33.519751,9.234143,0.002696,0.053723,331.974311
2,4.603000,58.269384,888.650195,90.431513,101.546467,33.229435,9.199412,0.002709,0.051534,329.525840
23,5.259000,57.419128,903.851758,90.259621,101.547864,33.399828,9.182826,0.002372,0.053961,330.675726
