Application,Deploy Time, G5K CPU usage, G5K RAM usage, A8 CPU usage, A8 RAM usage, G5K Bandwidth, A8 Bandwidth, G5K Latency, A8 Latency, Processed Tokens
8,15.554000,15.004244,225.272070,13.839701,99.182871,0.641851,0.078579,0.005944,0.029415,0.000000
5,9.816000,18.727319,231.509180,18.892966,99.424906,2.776612,0.714617,0.005573,0.029987,33.900000
43,13.781000,18.340287,238.754492,26.149861,99.676338,6.017989,1.326884,0.003802,0.031122,67.700000
38,10.663000,22.408261,247.236328,32.311572,99.979415,8.558173,1.972711,0.004930,0.033654,101.550245
16,10.793000,24.409148,257.010938,37.786438,100.216465,11.213097,2.589719,0.002838,0.034397,135.100248
14,14.924000,26.336055,268.959180,43.359692,100.341690,13.238870,3.244547,0.004026,0.036828,170.050000
13,14.626000,34.935747,282.843555,49.779038,100.579355,16.214623,3.882969,0.003895,0.037716,203.999750
7,10.928000,35.689473,298.148242,56.412049,100.755230,18.966220,4.483004,0.003247,0.038345,236.550247
48,7.941000,33.287602,309.641016,58.058641,100.723115,19.012273,4.716491,0.003025,0.039939,237.424751
46,11.425000,40.144957,325.994922,63.960466,100.953412,21.254748,5.363607,0.003064,0.042324,271.575000
45,9.585000,39.710215,340.322852,67.052047,100.892345,22.790299,5.873175,0.002102,0.043920,271.928172
42,11.566000,37.245556,358.204883,72.846169,101.011687,25.450937,6.529521,0.002944,0.043609,305.150000
41,11.378000,42.645610,377.335547,79.144839,101.225122,27.807831,7.115938,0.003457,0.046727,340.475000
39,7.535000,48.539998,396.993945,84.378479,101.422009,29.817757,7.600997,0.002788,0.047331,369.548063
36,9.000000,44.494836,416.062109,86.187564,101.439083,31.109143,7.813664,0.002725,0.048875,370.901958
34,7.927000,50.083386,433.639648,86.295530,101.445545,31.356862,7.889766,0.003302,0.049439,369.950000
33,7.295000,50.064608,451.282031,86.077029,101.455735,30.975458,7.862705,0.003797,0.048991,368.001938
32,8.831000,48.210753,469.001367,86.023836,101.471506,30.646386,7.898176,0.002883,0.049701,369.273069
30,8.249000,48.175453,486.252734,86.287476,101.466792,30.865880,7.906093,0.003588,0.048183,371.875000
27,8.824000,49.424928,504.183008,86.008895,101.466969,31.465797,7.948918,0.002901,0.047787,370.448061
26,7.904000,45.453278,520.798437,86.013924,101.467799,30.896272,7.856467,0.003652,0.048383,370.225000
25,7.036000,48.387737,538.484766,86.534530,101.472561,31.066791,7.828605,0.003674,0.048475,372.326944
24,10.808000,49.767758,555.925195,86.202669,101.474085,31.160881,7.816298,0.003508,0.049829,368.600000
19,9.384000,49.973833,573.303711,86.682887,101.522237,31.068907,7.827472,0.003552,0.048502,369.050000
18,8.621000,50.601118,590.322461,86.260607,101.454079,30.760344,7.850880,0.003806,0.048703,370.800000
17,6.854000,47.870867,606.962891,86.227558,101.460167,30.962336,7.884341,0.003114,0.048867,370.151939
12,9.649000,49.354579,624.112500,85.924678,101.466405,30.917549,7.903416,0.004223,0.049299,369.650000
11,10.762000,50.082688,640.625586,85.932500,101.473796,30.669639,7.864830,0.003301,0.048991,371.250000
9,5.983000,45.339000,659.058594,86.278106,101.487490,31.725641,7.958698,0.003223,0.048790,370.825000
6,7.381000,48.588445,672.737891,86.205834,101.492372,31.028062,7.822085,0.003272,0.051296,369.498053
4,6.529000,49.062188,687.121289,86.324831,101.495010,30.982408,7.841067,0.003343,0.048493,370.850000
47,7.584000,47.407065,700.995703,86.578594,101.500139,31.030305,7.808741,0.003039,0.049048,369.875000
3,5.592000,46.399419,714.327539,86.171819,101.504117,31.389713,7.919020,0.003323,0.048037,367.848074
37,6.651000,49.826260,728.638477,86.146527,101.506442,30.995910,7.848134,0.002774,0.050177,368.775000
35,6.362000,45.521313,742.481055,86.346193,101.510845,30.894572,7.895847,0.003697,0.048773,372.073047
31,7.539000,47.275349,753.441992,89.312852,101.605409,29.034661,7.529109,0.003470,0.047409,358.475000
29,6.388000,50.169756,764.521680,88.353621,101.536491,30.430098,7.816124,0.003547,0.049283,367.400000
28,7.917000,46.625004,774.724414,86.035857,101.539644,31.197169,7.886789,0.003626,0.050597,370.601953
22,7.629000,51.026859,785.560938,86.361980,101.543409,30.974896,7.845622,0.003441,0.048184,370.625000
21,8.600000,47.777468,796.049219,86.176037,101.543108,30.478439,7.827283,0.003264,0.049378,370.300000
20,7.004000,47.895648,806.448437,86.300828,101.522919,31.049990,7.823693,0.003198,0.047794,368.675000
1,8.840000,47.837759,817.517773,86.703341,101.519736,31.210806,7.849642,0.002752,0.049154,370.850000
15,5.607000,50.116381,826.415430,86.191149,101.517599,30.694424,7.810950,0.004007,0.049349,369.326939
10,7.068000,49.891842,834.906055,86.029086,101.520641,30.930623,7.861622,0.003227,0.048945,369.348064
0,8.429000,48.465976,842.220898,86.410453,101.523322,31.228680,7.899279,0.002480,0.059940,371.101946
49,7.234000,48.987984,849.947070,88.306011,101.638139,32.040731,8.220772,0.004082,0.049019,387.600000
44,7.672000,51.411539,856.660547,88.501544,101.656994,31.783432,8.180985,0.003125,0.049236,387.748063
40,4.110000,48.220413,862.730078,88.673732,101.702686,32.284889,8.117961,0.003422,0.047946,366.801829
2,5.382000,53.432872,868.925586,88.808743,101.703901,32.352079,8.165150,0.003343,0.048060,386.898065
23,7.803000,46.025704,875.807031,88.596738,101.715663,32.077255,8.141895,0.004077,0.049070,387.075000
