Application,Deploy Time, G5K CPU usage, G5K RAM usage, A8 CPU usage, A8 RAM usage, G5K Bandwidth, A8 Bandwidth, G5K Latency, A8 Latency, Processed Tokens
0,7.111000,16.750280,224.899609,14.105385,102.444806,0.896990,0.075367,0.006113,0.028686,0.000000
10,5.576000,12.377401,225.930859,14.923882,102.469827,1.051754,0.108528,0.004574,0.028868,2.325000
11,8.484000,17.110538,226.886328,14.508965,102.503015,0.734780,0.158825,0.003545,0.028619,4.475000
12,7.360000,18.213110,227.325000,14.149502,102.559100,0.675894,0.166976,0.004253,0.028436,4.450000
13,5.884000,18.005503,227.752930,15.543754,102.574613,0.685969,0.154335,0.006831,0.029662,4.450000
14,6.407000,16.308173,228.439844,16.120466,102.623009,1.471602,0.203418,0.004634,0.029188,7.400000
15,5.076000,19.432804,229.995313,16.236205,102.665980,2.144912,0.355253,0.004765,0.029227,7.450000
16,5.478000,16.860851,231.856641,16.856046,102.684725,3.686084,0.431043,0.005231,0.029650,7.425000
17,6.884000,19.913925,232.745508,19.080977,102.725671,4.405578,0.496214,0.004782,0.030585,11.175063
18,10.679000,18.939128,234.428516,18.874810,102.758634,4.959365,0.636177,0.004053,0.030067,11.225063
19,4.491000,20.576243,237.713672,18.967886,102.786108,8.058316,0.718618,0.003599,0.030466,11.249936
1,5.260000,19.387781,239.060352,20.969058,102.801543,9.363597,0.791974,0.018257,0.032046,11.200063
20,5.886000,20.586487,240.267969,21.818733,102.813451,9.789427,0.912324,0.004684,0.031645,11.150063
21,6.021000,20.801676,241.418164,21.674949,102.821986,9.880028,1.050901,0.004101,0.032286,11.250000
22,5.743000,24.564963,242.220508,23.231961,102.878438,9.294929,1.100176,0.005420,0.031759,16.799936
23,6.917000,26.365752,242.954883,24.826811,102.920122,8.821776,1.133428,0.005197,0.032309,18.700063
24,3.816000,28.237370,244.216211,24.597017,102.989517,8.718042,1.213306,0.004748,0.031703,23.475064
25,3.912000,24.788269,245.116992,24.515865,103.017208,8.307754,1.214007,0.004438,0.032457,23.325063
26,7.939000,25.441057,246.375195,26.223903,103.035080,9.697117,1.285226,0.003680,0.032964,23.350063
27,4.336000,33.327238,248.006250,26.755517,103.090947,9.025136,1.395475,0.003787,0.032240,29.200000
28,5.924000,32.007282,249.187500,27.041575,103.111821,8.747269,1.473375,0.004916,0.033743,29.200000
29,3.195000,29.030501,251.190820,28.573575,103.113536,10.693286,1.588747,0.002765,0.033716,29.075063
2,7.705000,33.422603,252.352734,28.354295,103.126463,9.980249,1.602640,0.004069,0.034427,29.125000
30,4.718000,30.228276,253.436328,27.612230,103.129747,9.821869,1.590816,0.003291,0.033164,29.100000
31,3.560000,31.305178,254.596875,28.810781,103.135249,10.455491,1.593556,0.004988,0.034832,29.025000
32,5.009000,29.488160,255.509375,28.404444,103.144133,9.942146,1.591436,0.003257,0.034252,28.975063
33,6.788000,32.701905,256.757031,28.353722,103.155760,10.004001,1.676569,0.004033,0.034041,29.075063
34,6.701000,29.942789,258.359961,29.732972,103.176758,10.683639,1.729525,0.003900,0.034657,29.025000
35,8.040000,34.341836,259.985742,31.020264,103.200908,10.998905,1.797481,0.003319,0.034898,32.775063
36,7.350000,33.397405,261.304688,30.850133,103.246353,10.342097,1.824890,0.004291,0.035071,35.325000
37,3.258000,34.069060,262.462695,31.664987,103.267307,11.124605,1.964382,0.002708,0.035245,35.125063
38,8.059000,37.310235,263.302734,32.629393,103.282458,11.017960,1.931749,0.003944,0.034431,35.225063
39,5.323000,33.574377,264.152148,32.812083,103.290800,11.600722,2.088671,0.002202,0.034715,35.225000
3,11.549000,37.544659,266.309570,33.111236,103.314169,11.862754,2.156941,0.003105,0.034427,35.050000
40,7.613000,36.903710,269.289844,34.664379,103.312811,15.111931,2.206282,0.002839,0.036145,35.174938
41,8.974000,36.277094,270.861328,34.960471,103.356485,14.396320,2.223493,0.003085,0.035538,37.425064
42,8.359000,40.083703,272.794531,35.201730,103.413281,14.200018,2.310440,0.004009,0.035908,41.050063
43,6.904000,38.960151,275.371094,36.031998,103.455213,14.915532,2.434409,0.004017,0.036161,40.849937
44,8.000000,39.316419,278.245313,37.720845,103.450422,17.357339,2.457491,0.002710,0.036951,40.825063
45,9.930000,37.389678,280.333984,38.564780,103.473134,16.857835,2.562061,0.002614,0.037130,46.200063
46,6.543000,41.259655,283.108594,38.575486,103.483104,17.636655,2.703688,0.002816,0.037070,46.075064
47,4.108000,40.324828,285.642383,39.699848,103.498068,18.046838,2.760439,0.002951,0.036701,45.825000
48,5.590000,38.465879,287.423047,40.708558,103.529418,18.522665,2.772340,0.002235,0.037749,48.325000
49,3.991000,44.103253,289.227148,40.556597,103.554969,17.793409,2.850004,0.003032,0.038412,48.375000
4,6.483000,45.004429,291.229297,41.749110,103.560083,17.449075,2.884017,0.004283,0.038103,51.375000
5,7.356000,43.363558,293.523438,42.852442,103.591960,18.340780,2.977523,0.002925,0.038317,51.399938
6,5.906000,43.501244,295.700391,42.900016,103.570022,18.013654,3.132166,0.003761,0.039332,51.724937
7,3.383000,47.140043,298.395898,43.393638,103.580975,18.981091,3.195709,0.002930,0.039030,51.150000
8,8.130000,42.366156,300.304883,44.505436,103.610506,19.421398,3.135567,0.003048,0.040822,51.325000
9,4.286000,43.252136,303.285742,44.609993,103.640977,20.982699,3.254408,0.002963,0.039488,51.425063
