Application,Deploy Time, G5K CPU usage, G5K RAM usage, A8 CPU usage, A8 RAM usage, G5K Bandwidth, A8 Bandwidth, G5K Latency, A8 Latency, Processed Tokens
47,10.475000,14.696286,225.546680,14.267411,98.965308,0.616249,0.075427,0.005423,0.033516,0.000000
41,10.932000,19.686679,226.684375,15.135393,98.924621,0.396169,0.240487,0.003530,0.037115,3.075000
20,11.794000,19.391896,227.688477,15.441842,99.022988,0.550898,0.268075,0.006492,0.038148,4.925000
16,15.103000,23.277191,228.911523,17.346882,99.104836,1.278893,0.320942,0.006225,0.040773,7.750000
9,10.528000,26.719168,230.135938,19.456181,99.135094,1.464343,0.469301,0.005971,0.040375,8.675000
8,8.983000,29.262456,231.240625,19.407750,99.185363,1.560250,0.510831,0.005328,0.041159,9.575000
6,9.030000,32.703821,231.992188,20.410055,99.236479,1.131593,0.627157,0.004303,0.041413,11.825000
5,12.446000,31.295791,233.110352,20.722587,99.322363,1.465835,0.669588,0.005112,0.041836,15.525000
48,14.100000,34.134042,234.640625,23.140990,99.380848,2.073206,1.006806,0.003995,0.042617,15.325000
46,10.505000,31.141809,235.840430,24.823333,99.429730,2.563418,1.007631,0.006248,0.042992,16.900000
45,8.860000,34.920218,237.340039,26.075099,99.469785,2.962073,1.210378,0.004086,0.043644,17.525000
44,12.338000,32.545419,238.431250,26.512643,99.472551,2.636062,1.275132,0.003653,0.043111,17.500000
42,10.050000,32.268827,239.328906,26.007443,99.472134,2.513708,1.271659,0.005306,0.043198,17.300116
40,10.696000,31.876943,240.216406,26.646216,99.447725,2.505801,1.421434,0.005373,0.043073,17.175000
3,11.365000,34.320904,241.328711,27.666367,99.484099,2.271532,1.384760,0.005167,0.044707,17.150000
39,9.724000,31.302880,242.244141,29.541446,99.488462,2.984666,1.517634,0.004561,0.043356,16.825000
38,8.694000,33.373891,243.141992,29.677218,99.514247,2.951492,1.566982,0.004614,0.044510,16.500000
37,9.929000,38.107108,244.081055,29.720575,99.539827,2.940851,1.523357,0.004398,0.044706,17.800000
33,12.036000,36.881942,245.431445,30.275601,99.577169,2.827654,1.542826,0.004301,0.045563,21.425000
32,11.748000,35.582604,246.755859,30.578777,99.627022,2.323826,1.594324,0.003569,0.045640,22.525000
31,9.449000,35.428618,248.202344,32.240921,99.663075,2.486078,1.891767,0.005201,0.046056,22.250000
28,8.245000,39.351457,249.676367,33.694650,99.677580,2.981930,1.883977,0.005789,0.046821,25.824836
27,11.449000,42.331135,251.209766,34.161375,99.706503,3.228948,1.931947,0.004535,0.046605,26.825000
26,10.903000,40.362350,252.733398,35.566194,99.706086,3.504721,1.884795,0.004331,0.046798,28.300000
22,9.698000,40.742806,253.364844,35.491620,99.761314,3.505108,1.882814,0.004165,0.055143,28.950000
21,13.467000,42.280679,254.443359,35.720792,99.769109,3.260898,1.884951,0.004410,0.045772,31.600000
1,11.574000,45.870851,255.751953,36.943724,99.825267,3.378055,1.969306,0.004270,0.047533,34.625000
19,11.879000,49.692300,257.418555,37.734500,99.865038,3.380559,1.940262,0.005680,0.046720,35.950000
17,7.906000,50.270106,259.348437,39.058382,99.932232,4.064071,2.199260,0.005805,0.047027,36.025000
14,10.688000,49.776362,261.209766,40.114546,99.979984,4.083006,2.213196,0.004040,0.046995,37.825000
12,8.827000,47.775760,263.381250,40.630363,100.009314,4.083973,2.331183,0.003938,0.046840,37.950000
10,8.395000,47.540787,265.333203,41.678411,99.970067,4.183295,2.592896,0.003803,0.047720,37.750000
0,10.093000,50.382440,267.305859,42.572501,99.956691,4.227855,2.577421,0.003882,0.050195,37.650000
7,7.427000,51.475494,269.708789,43.099952,99.969579,4.012609,2.763318,0.003699,0.048421,37.375000
4,7.466000,48.777376,271.775391,44.347367,99.975541,4.020708,2.898745,0.004300,0.049717,37.650000
43,7.494000,49.640191,273.482227,44.698638,99.974667,4.289703,2.959606,0.003952,0.048717,37.375000
36,6.326000,51.199445,275.195703,44.817837,99.983455,4.275818,2.910005,0.004187,0.047485,37.300000
35,7.493000,49.758768,277.000000,45.960462,100.002449,4.159709,2.940515,0.003325,0.048163,37.450000
34,8.056000,48.991840,278.864648,47.038779,100.026138,4.572934,3.065160,0.004032,0.048007,36.825000
30,8.929000,50.177206,281.591992,48.062734,100.026834,5.661143,3.194044,0.003602,0.048342,37.325000
29,9.323000,50.512796,283.644531,49.003750,100.028077,5.403051,3.250467,0.016289,0.049143,36.575000
25,10.218000,52.273534,285.403125,48.451918,100.005205,5.477102,3.289662,0.003277,0.047853,37.175000
23,9.140000,51.089756,287.546289,49.622803,100.015881,5.577805,3.520277,0.003870,0.048867,36.575000
18,8.105000,50.271310,289.574219,50.439281,100.020516,5.245391,3.669429,0.003803,0.049785,37.125000
15,7.853000,51.667709,291.755469,51.424595,100.032446,5.648703,3.708423,0.003121,0.049021,36.425000
13,10.458000,50.357451,293.475000,51.738628,100.051232,6.139313,3.798117,0.003931,0.050220,36.350000
11,7.054000,46.633525,295.400977,52.582022,100.066896,6.018209,3.889822,0.003225,0.049540,36.950000
49,5.899000,50.742273,297.279297,52.856542,100.077145,5.915883,3.868023,0.003567,0.049997,36.725000
2,6.152000,51.852509,299.170313,53.535184,100.032058,6.107245,3.961812,0.003480,0.050180,36.500000
24,6.930000,50.780622,300.945898,54.173305,100.051212,5.951267,3.873398,0.002974,0.050188,36.600122
