Application,Deploy Time, G5K CPU usage, G5K RAM usage, A8 CPU usage, A8 RAM usage, G5K Bandwidth, A8 Bandwidth, G5K Latency, A8 Latency, Processed Tokens, Accepted
49,6.917000,12.805409,219.646484,13.985361,99.788308,0.538694,0.072164,0.005378,0.026114,0.000000,1
48,6.751000,15.010489,223.113477,14.897180,99.788868,0.689700,0.159659,0.004966,0.027037,4.900000,1
28,6.826000,20.803453,226.880078,13.384785,99.737292,1.554204,0.256179,0.005384,0.026543,10.450000,1
17,6.475000,22.047019,230.637695,14.136561,99.742539,1.809902,0.370663,0.004104,0.026145,16.325000,1
8,5.085000,19.732448,234.695703,14.165225,99.826406,1.856810,0.434669,0.002966,0.026557,20.450000,1
5,5.178000,22.864307,239.466797,14.155194,99.832890,3.474301,0.694209,0.003733,0.026741,34.125000,1
45,7.165000,22.119852,243.870508,14.053358,99.835807,3.542424,0.770604,0.002989,0.026471,38.625000,1
41,5.234000,27.026935,248.801758,16.251935,99.894876,3.621413,0.864046,0.002354,0.026740,44.050000,1
35,4.864000,29.003968,253.020508,17.187991,99.953205,4.498367,0.929981,0.004037,0.026823,47.375000,1
27,5.181000,34.456961,257.464063,16.338120,100.003816,4.748282,1.138408,0.004192,0.027692,54.625000,1
24,3.776000,38.622701,263.761719,16.037848,99.969350,5.643890,1.430993,0.002220,0.027831,69.225000,0
23,5.008000,41.203581,267.085352,17.481216,99.979023,6.100304,1.400278,0.002917,0.027909,69.325000,1
22,3.614000,50.567790,272.657812,16.663999,99.992982,6.239658,1.475884,0.002136,0.029623,72.775000,0
21,4.043000,48.290679,275.979297,16.038015,100.016197,5.835141,1.474313,0.002465,0.030024,72.750000,0
13,4.951000,47.819413,279.580859,17.411416,100.094531,6.374606,1.487307,0.002690,0.029264,72.875000,1
12,6.479000,50.051371,285.085352,17.119464,100.064831,6.504931,1.532403,0.001981,0.030370,75.775000,1
11,3.503000,50.766406,291.989844,19.810533,100.102644,6.451174,1.703327,0.002005,0.031138,75.975000,0
6,3.078000,49.116607,295.972070,20.400601,100.141577,6.792745,1.705205,0.002455,0.029944,76.125000,0
4,2.938000,49.011907,299.999414,20.985070,100.192578,6.947937,1.693694,0.002492,0.030259,75.650000,0
47,3.905000,48.145963,304.156055,19.620039,100.232201,6.543762,1.708549,0.001979,0.030375,75.676013,1
46,3.453000,50.596285,309.772461,21.764343,100.273295,6.722087,1.754678,0.002514,0.030361,78.225000,0
3,2.842000,52.160409,313.908594,22.564932,100.318750,6.789374,1.739342,0.002415,0.029919,77.950000,0
38,3.278000,52.455624,317.912500,21.739173,100.355716,7.153374,1.746036,0.002383,0.031110,77.950000,0
37,3.815000,52.635643,321.411328,21.487494,100.383074,6.830631,1.753575,0.003909,0.030314,78.300000,1
34,3.376000,57.107560,326.934375,22.012122,100.372627,6.926851,1.799071,0.002316,0.031330,80.750000,0
33,3.126000,53.941251,330.930273,21.849101,100.377296,7.248066,1.787547,0.002022,0.031130,80.600000,0
2,3.225000,54.743838,335.000586,21.953974,100.373912,7.083807,1.793644,0.002694,0.030336,80.350000,0
25,3.849000,54.879935,339.241602,21.751908,100.357304,7.183989,1.810900,0.002765,0.030272,80.575000,1
20,3.261000,55.511941,344.782031,24.191616,100.328463,6.975208,1.831848,0.001773,0.030670,82.600000,0
14,3.206000,55.330181,349.168359,23.238264,100.349712,7.500437,1.824449,0.001992,0.031347,82.500000,0
10,3.166000,53.543839,353.393164,23.295041,100.360205,7.214702,1.822642,0.003121,0.030129,82.325000,0
9,2.872000,54.850448,357.870508,23.409624,100.364296,7.103405,1.842569,0.002592,0.031378,82.400000,0
44,2.888000,53.932792,362.474414,23.703760,100.361354,7.498813,1.823322,0.002358,0.031706,82.425000,0
43,2.827000,50.107826,366.757422,23.891176,100.365144,7.255886,1.823025,0.002887,0.031211,81.850000,0
42,2.428000,51.309426,371.116602,23.237672,100.395338,7.306950,1.829399,0.001805,0.030496,82.050000,0
40,2.818000,52.913795,375.215039,22.852920,100.399973,6.943374,1.837960,0.002503,0.030413,82.175000,0
36,2.909000,52.144508,379.050781,24.538829,100.396784,7.494071,1.823222,0.002570,0.031787,82.475000,0
32,2.787000,55.077545,382.713281,23.116131,100.351119,7.326989,1.826788,0.003067,0.030255,82.625000,0
31,3.184000,55.828065,386.464063,23.061623,100.360312,6.951987,1.833527,0.002494,0.030366,82.700000,1
1,2.595000,56.811772,391.376562,24.022556,100.384896,7.467359,1.859296,0.002485,0.030913,83.650000,0
18,3.511000,57.354252,395.284375,24.186245,100.398922,7.417573,1.862252,0.001853,0.031439,83.675000,1
16,2.727000,56.664971,400.541992,23.251887,100.406680,7.707428,1.901059,0.002546,0.031365,86.175000,0
15,2.762000,58.048195,404.452539,23.203652,100.413412,7.303458,1.902364,0.002570,0.031823,86.375000,0
7,2.196000,55.985929,408.244922,24.486058,100.421367,7.566689,1.892857,0.002302,0.031537,86.175000,0
39,2.447000,54.861207,412.162695,24.094271,100.428737,7.696364,1.885176,0.002238,0.031524,86.150000,1
30,2.454000,55.457372,416.773828,22.586749,100.443703,7.440957,1.917309,0.002292,0.031944,87.425000,1
29,2.445000,56.140631,421.587305,23.359857,100.455234,7.527868,1.952189,0.001933,0.030781,88.300000,1
26,2.464000,55.160013,426.159961,25.761797,100.437878,7.657045,1.957277,0.002540,0.030779,89.300000,0
19,2.508000,56.197962,430.089648,25.120595,100.458979,8.004278,1.966165,0.002344,0.032016,89.325000,0
0,2.232000,55.154922,434.208203,25.210622,100.485156,7.707247,1.965151,0.003203,0.031027,89.375000,0
