Application,Deploy Time, G5K CPU usage, G5K RAM usage, A8 CPU usage, A8 RAM usage, G5K Bandwidth, A8 Bandwidth, G5K Latency, A8 Latency, Processed Tokens, Accepted
49,7.127000,14.873997,219.350000,14.656465,100.105139,0.642471,0.080856,0.004987,0.025940,0.000000,1
48,6.548000,16.803805,222.681836,14.433823,100.101968,0.539950,0.167141,0.005987,0.026645,4.900000,1
28,6.998000,18.376297,226.451367,14.107764,100.104747,1.438472,0.253138,0.005942,0.027555,7.675000,1
17,6.574000,20.085750,230.325195,14.900418,100.082226,1.896392,0.364285,0.005595,0.227076,13.625000,1
8,5.006000,18.147545,234.168359,14.037325,100.095103,1.456120,0.436727,0.003475,0.026325,13.600000,1
5,5.217000,18.263149,238.719531,14.803088,100.100827,3.072154,0.684349,0.003296,0.026394,27.200000,1
45,6.645000,20.417826,243.090430,14.647256,100.206671,3.539635,0.769288,0.003632,0.026584,31.850000,1
41,5.230000,23.821065,248.024609,14.852536,100.328838,3.666513,0.867230,0.003377,0.026421,31.925000,1
35,4.930000,25.135461,252.058203,14.628110,100.331039,3.975898,0.931533,0.002811,0.027538,32.950000,1
27,5.103000,29.802776,257.038281,19.391944,100.238987,4.064616,1.153358,0.002795,0.027594,36.975000,1
24,3.883000,33.763203,262.409766,25.556757,100.474843,4.884506,1.426758,0.003940,0.027304,41.675000,0
23,5.419000,32.457699,265.639648,25.200073,100.611611,5.104667,1.415340,0.002857,0.028451,41.500000,1
22,3.623000,38.256242,270.994336,25.194101,100.627688,5.553768,1.489841,0.003422,0.027243,45.050000,0
21,3.840000,35.665097,274.331641,24.495501,100.636806,5.207405,1.479757,0.003272,0.027888,45.200000,0
13,5.073000,34.087649,277.462695,24.994427,100.635126,5.250882,1.475018,0.003037,0.027590,45.350000,1
12,6.264000,37.585766,283.306055,25.360722,100.635337,5.818951,1.525380,0.002700,0.027911,48.275000,1
11,3.767000,37.465173,290.935938,28.897071,100.512597,6.277450,1.715058,0.002092,0.028331,58.200000,0
6,3.598000,38.668665,295.082422,29.580547,100.528635,6.166893,1.719149,0.002408,0.037972,58.275000,1
4,3.011000,40.332515,300.493750,29.664930,100.580048,6.843106,1.752435,0.002566,0.028467,60.400000,0
47,3.763000,41.706490,304.567187,28.059961,100.607426,6.488095,1.752767,0.002829,0.028249,60.500000,1
46,3.378000,43.399516,309.539258,28.128872,100.610637,6.492639,1.800585,0.002845,0.028272,62.450000,0
3,3.212000,43.862028,313.810156,29.204947,100.631760,6.960004,1.797302,0.002804,0.028695,62.400000,0
38,3.334000,45.588981,317.921484,28.947830,100.643083,6.970493,1.805292,0.002333,0.029155,62.275000,0
37,3.785000,47.065511,321.549219,28.268990,100.656759,6.772930,1.812458,0.002476,0.029367,62.525000,1
34,3.433000,46.654499,326.939258,29.153762,100.664065,6.511247,1.857447,0.002533,0.029085,63.700000,0
33,3.292000,45.577814,330.796484,28.940289,100.669136,6.977593,1.848995,0.001541,0.030811,63.500000,0
2,3.396000,44.439260,334.938281,28.501788,100.674320,6.945179,1.840089,0.002600,0.029556,63.825000,0
25,3.991000,45.133495,338.628906,29.208891,100.689961,6.439582,1.850709,0.003360,0.029210,63.525000,1
20,3.475000,47.115779,344.207422,29.175943,100.697772,7.119322,1.883461,0.002254,0.029120,65.725000,0
14,3.463000,47.816808,348.619727,28.452162,100.701545,7.178694,1.893946,0.002177,0.039241,65.575000,0
10,3.350000,45.155507,353.032031,29.044838,100.713330,7.192513,1.886321,0.002426,0.029940,65.575000,0
9,3.016000,47.288088,357.377539,28.871123,100.713357,6.581868,1.882447,0.003005,0.028956,65.775000,0
44,2.604000,46.127268,361.949023,29.133095,100.724709,7.080903,1.882249,0.002400,0.029556,65.625000,0
43,2.645000,45.514745,365.897070,28.432347,100.735093,7.210683,1.875849,0.002877,0.029954,65.575000,0
42,2.885000,43.891304,370.246094,29.112902,100.737044,6.688441,1.884859,0.002529,0.029129,65.525000,0
40,2.504000,43.846751,374.400977,28.872884,100.745674,6.750716,1.886692,0.002602,0.029790,65.575000,0
36,2.640000,46.864980,378.267383,28.436386,100.756263,7.101613,1.857080,0.003229,0.028224,65.700000,0
32,2.825000,47.064156,381.987500,29.376424,100.766926,7.307133,1.861072,0.002708,0.028957,65.850000,0
31,3.337000,44.330090,385.827344,28.979036,100.780349,6.946349,1.859376,0.002691,0.030118,65.325000,1
1,2.923000,48.267553,390.418945,28.852754,100.818611,7.112401,1.881932,0.002363,0.029027,66.950000,0
18,3.634000,47.019705,394.464648,29.238856,100.833847,7.402137,1.875596,0.002002,0.028912,66.825000,1
16,2.894000,46.691063,399.602344,29.119626,100.834737,7.351722,1.932044,0.002304,0.029167,69.550000,0
15,2.539000,47.961800,403.510547,28.201818,100.841242,7.664125,1.928321,0.002146,0.029797,69.725000,0
7,2.603000,48.511454,406.889258,29.156302,100.849014,7.463771,1.928224,0.002881,0.030809,69.625000,1
39,2.595000,49.746059,411.096875,29.157562,100.867397,7.987209,1.943281,0.001692,0.029249,70.425000,1
30,2.597000,49.309001,415.653711,29.875855,100.852557,7.672818,1.963229,0.002477,0.029535,70.800000,1
29,2.626000,51.218600,419.557227,31.427322,100.816630,7.589015,1.991011,0.003729,0.030588,72.100000,1
26,2.555000,48.667819,424.038281,32.869941,100.893164,8.124413,2.011400,0.002300,0.029693,72.750000,1
19,2.687000,50.029877,428.628711,32.489895,100.928531,8.270460,2.038618,0.003090,0.030461,74.975000,0
0,1.931000,53.130875,432.478711,31.547840,100.947431,8.115801,2.053624,0.002714,0.029297,74.975000,0
