Application,Deploy Time, G5K CPU usage, G5K RAM usage, A8 CPU usage, A8 RAM usage, G5K Bandwidth, A8 Bandwidth, G5K Latency, A8 Latency, Processed Tokens, Accepted
0,4.052000,11.586041,224.376563,14.216097,98.368323,0.921888,0.064783,0.003827,0.028456,0.000000,1
10,6.316000,16.166763,226.143750,14.127282,98.405203,0.522569,0.138755,0.003374,0.066761,3.925000,1
11,6.380000,29.075904,229.430273,16.271156,98.458049,2.033774,0.346075,0.003353,0.029397,14.850273,1
12,7.195000,40.701983,233.282422,16.169941,98.524578,2.202692,0.484628,0.003738,0.029946,22.300000,1
13,6.049000,39.893771,238.089648,18.472236,98.570313,3.343109,0.665229,0.004034,0.042879,32.300000,1
14,6.257000,41.325613,242.145312,17.866331,98.636128,2.969268,0.723658,0.003190,0.051514,33.375000,1
15,3.637000,51.490552,246.271289,19.510552,98.697799,3.595301,0.847692,0.003414,0.033375,39.775337,1
16,3.906000,55.887391,250.011914,19.277804,98.724090,3.573395,0.885009,0.004290,0.034496,41.975000,1
17,7.015000,56.210020,253.757617,21.306772,98.721807,4.141020,0.931784,0.003649,0.034670,44.875000,1
18,4.757000,57.736746,259.181250,20.562970,98.802062,4.067905,1.018774,0.003218,0.034702,49.200000,1
19,3.084000,59.113444,263.581836,22.568076,98.863478,4.702875,1.081117,0.003608,0.035593,51.825000,1
1,4.084000,61.850216,267.169531,21.560075,98.917996,4.264287,1.072545,0.003453,0.036892,52.825000,0
20,6.434000,62.722527,270.375391,23.184845,98.968769,4.820338,1.095891,0.002849,0.035656,52.450000,1
21,8.283000,64.122417,275.979688,22.194737,98.974128,4.541386,1.142750,0.003105,0.035935,55.775000,1
22,5.879000,69.671356,282.898828,24.345425,99.002714,5.597189,1.289269,0.002667,0.036969,61.975000,1
23,5.950000,80.485720,288.992969,24.588008,99.065320,6.137589,1.391946,0.003005,0.037824,70.175000,1
24,6.934000,82.236826,294.691406,25.667219,99.106522,6.449457,1.467944,0.002355,0.037409,72.900000,1
25,4.786000,87.242386,301.731445,26.172007,99.115517,6.835526,1.624071,0.002838,0.036140,80.250507,1
26,3.253000,89.359790,307.920898,27.167949,99.158041,7.260335,1.694340,0.002369,0.037995,82.475528,1
27,5.439000,92.041779,313.334766,27.308829,99.194503,6.946750,1.697278,0.002093,0.037740,84.399473,1
28,6.844000,90.046744,321.635156,29.043618,99.272786,8.612945,1.949930,0.002319,0.037224,99.600000,1
29,3.122000,91.841395,329.359180,29.339395,99.259013,8.290686,2.076785,0.002662,0.037910,101.350000,1
2,3.980000,94.086501,335.624219,30.418171,99.279085,8.794654,2.063609,0.002183,0.038754,102.525000,0
30,3.139000,91.672594,341.319531,29.596889,99.315704,8.128484,2.078487,0.003084,0.038779,102.225000,1
31,3.733000,93.248518,347.753125,31.059013,99.324411,9.251153,2.126297,0.002896,0.039541,104.275000,1
32,3.049000,94.726875,354.110547,30.355920,99.374203,8.154135,2.122324,0.002464,0.038482,104.975000,0
33,3.675000,92.944255,360.035742,31.328081,99.388212,8.720562,2.101870,0.002873,0.039292,105.675000,0
34,3.866000,92.677079,365.961719,30.318148,99.405986,8.220664,2.122636,0.003035,0.038091,105.250000,0
35,4.594000,94.844332,371.701367,31.314974,99.386660,8.812204,2.119127,0.002892,0.038612,105.400533,0
36,3.233000,94.512797,377.627734,30.581004,99.387287,8.437834,2.143250,0.002525,0.038225,104.725000,0
37,3.606000,95.531558,383.324609,31.376660,99.391331,8.678874,2.107020,0.002430,0.038550,105.400000,0
38,4.018000,94.869923,389.495898,30.837135,99.393073,9.009391,2.166842,0.002771,0.039635,104.025000,0
39,3.087000,93.768195,395.065625,31.031144,99.392335,8.585431,2.116394,0.002347,0.039975,105.075000,1
3,3.651000,96.443675,401.391406,31.413491,99.402885,8.716619,2.139283,0.002424,0.039432,105.925000,0
40,3.267000,95.055859,406.469531,30.941783,99.403144,8.659387,2.140871,0.002450,0.039600,106.975000,0
41,4.423000,95.322389,411.695898,31.917988,99.409096,8.678089,2.129050,0.002351,0.038891,105.775000,0
42,2.970000,93.894400,416.869727,30.962820,99.419267,8.039766,2.141006,0.002499,0.039424,105.650000,0
43,3.480000,96.419696,421.870313,31.975153,99.426411,8.781887,2.133298,0.002383,0.039458,105.675000,0
44,3.161000,93.627445,427.648047,30.736565,99.440521,8.773549,2.199807,0.002580,0.039212,106.174471,0
45,4.273000,95.424129,433.152344,32.249882,99.445713,8.957644,2.116397,0.002634,0.039250,105.900000,0
46,4.136000,92.943188,438.934375,30.894757,99.465999,8.074454,2.153532,0.002224,0.037738,105.300000,0
47,3.641000,94.187982,444.547266,31.932140,99.470086,8.994834,2.123892,0.002315,0.038822,106.650249,0
48,4.801000,94.658269,450.049609,30.815997,99.470692,8.163646,2.139481,0.002532,0.038740,105.925535,0
49,4.665000,94.670256,455.069727,31.454376,99.473492,9.010620,2.149915,0.002670,0.039320,105.850000,0
4,3.906000,95.520910,460.891016,30.713700,99.484947,8.204760,2.136927,0.002556,0.039513,105.825000,0
5,4.030000,93.670298,465.970117,31.789912,99.494710,9.416666,2.176465,0.002461,0.038622,105.400000,0
6,3.628000,95.940270,471.522461,30.927333,99.494519,8.176314,2.130140,0.002186,0.039915,105.025000,0
7,2.870000,95.410505,476.704492,31.384035,99.505861,8.276286,2.118724,0.002429,0.039168,106.375247,0
8,4.081000,94.092117,481.800781,31.397331,99.513645,8.322877,2.143407,0.002675,0.039362,106.400000,0
9,3.157000,95.532209,486.838672,31.173013,99.518253,8.212945,2.180852,0.003066,0.039325,106.000000,0
