Application,Deploy Time, G5K CPU usage, G5K RAM usage, A8 CPU usage, A8 RAM usage, G5K Bandwidth, A8 Bandwidth, G5K Latency, A8 Latency, Processed Tokens, Accepted, G5K RAM stddev, A8 CPU stddev, A8 RAM stddev, G5K CPU stddev,App Latency
0,7.976000,12.374197,224.451275,15.140166,102.111684,0.606426,0.084191,0.004460,0.039802,0.000000,0,143.012719,97.110812,2.907845,16.322637,-1.000000
10,4.136000,10.936895,224.498972,12.824894,102.066133,0.248940,0.075571,0.002484,0.039218,0.000000,1,142.895726,98.635090,2.844739,9.139679,0.038912
11,3.580000,12.510719,225.496299,13.282562,102.047746,0.375075,0.103130,0.002843,0.039946,2.078526,1,142.207487,94.611748,2.829154,14.520305,0.038387
12,7.938000,13.713658,226.946546,14.818377,102.083751,1.123379,0.175219,0.003314,0.041330,5.593208,1,141.959262,91.681620,2.831870,16.221473,0.103936
13,6.306000,16.892128,228.443462,16.353566,102.137598,1.219376,0.223806,0.004258,0.041129,7.114358,1,141.352843,91.122898,2.850020,16.984509,0.040117
14,5.883000,18.340232,230.431743,16.678917,102.167312,1.438022,0.259393,0.004574,0.041348,9.050000,1,141.087004,90.544408,2.849112,15.576855,0.039696
15,10.689000,20.809942,232.588199,17.557655,102.223605,1.866961,0.441005,0.004998,0.042529,13.546310,1,140.343903,87.878978,2.835686,16.765766,0.039523
16,5.625000,22.410570,236.844572,17.920349,102.294059,1.886479,0.624436,0.003288,0.043367,13.700000,1,139.821405,85.553760,2.829318,17.428604,0.038259
17,8.445000,22.938499,239.867393,18.585233,102.350312,2.031253,0.686880,0.004673,0.041667,13.725000,1,139.649712,84.683820,2.843270,18.746508,0.039653
18,3.523000,31.240057,244.236020,20.535517,102.412738,3.110715,0.925463,0.003864,0.042368,24.968563,1,138.565315,83.215465,2.839260,18.540258,0.040340
19,3.984000,34.321595,246.762541,21.519300,102.468448,3.141148,0.933120,0.002493,0.043636,26.175000,1,137.940161,83.011876,2.832436,20.790911,0.038954
1,10.217000,34.482747,249.931538,22.326366,102.523248,3.813970,0.993929,0.003090,0.045404,29.175000,1,137.475471,82.462955,2.840445,18.730643,0.038671
20,8.263000,36.934493,254.732319,22.533980,102.603457,4.150068,1.072728,0.002969,0.044628,33.200000,1,136.810160,82.647301,2.791999,16.693367,0.081768
21,4.054000,41.249143,259.037212,22.940911,102.648860,3.991305,1.167932,0.002701,0.046597,37.300000,1,136.840349,82.034923,2.775950,16.581851,0.041492
22,11.730000,43.582025,262.650288,23.186300,102.657103,4.134845,1.199929,0.003418,0.045964,38.986406,1,136.602357,81.577137,2.776760,13.723613,0.040231
23,6.914000,42.843968,268.094161,24.671159,102.710741,4.584590,1.317031,0.002858,0.056825,45.350000,1,136.793495,80.829322,2.826046,13.533942,0.039710
24,4.961000,45.690061,272.978618,25.947544,102.772034,5.341774,1.400668,0.003017,0.047538,45.275000,1,137.070794,80.643288,2.857526,16.185302,0.083782
25,11.660000,44.839530,277.242393,26.863601,102.836076,5.566137,1.488940,0.002066,0.047136,47.654543,1,137.757824,80.368042,2.864750,14.242247,0.042940
26,5.313000,46.720179,283.182977,27.032477,102.907866,5.214161,1.591933,0.002613,0.046878,47.950000,1,138.631379,79.991471,2.877315,14.199818,0.038255
27,4.944000,46.994875,287.166324,27.516873,102.944215,5.220580,1.641004,0.001884,0.046270,47.800000,1,139.170009,79.975358,2.886240,12.025449,0.039257
28,6.861000,47.656505,291.981086,28.579012,102.984762,5.297354,1.753151,0.001611,0.048140,50.750000,1,140.295959,79.500228,2.966939,11.353129,0.038499
29,600.866000,49.276424,297.593339,29.265817,103.030983,5.477828,1.820700,0.001805,0.047608,50.825000,0,142.074538,78.905504,2.945378,9.659505,-1.000000
2,4.166000,54.621033,332.705592,29.831586,103.153935,6.061591,1.836091,0.002292,0.048352,57.125000,1,155.788108,78.979692,2.967624,14.427488,0.038224
30,2.742000,52.942003,338.215461,30.483983,103.177876,6.065205,1.903986,0.002147,0.048853,59.325000,0,159.427436,79.390642,2.967430,7.545186,-1.000000
31,2.668000,52.566948,342.549959,29.896577,103.196003,5.695396,1.917324,0.002797,0.046516,59.525000,0,161.710178,79.125316,2.965467,8.581157,-1.000000
32,2.537000,54.012951,346.513569,29.915221,103.217874,6.006744,1.913724,0.002344,0.048406,59.250000,0,163.553979,79.078103,2.967230,9.933100,-1.000000
33,3.388000,56.414423,350.683183,30.916186,103.228719,5.925145,1.916312,0.002225,0.048664,59.300000,0,165.863819,78.996271,2.962504,10.281195,-1.000000
34,8.297000,50.329178,354.934416,30.570820,103.242322,6.309598,1.900259,0.001910,0.048113,59.225000,1,168.250059,79.424838,2.964679,7.688076,0.039568
35,3.934000,52.316501,361.254934,30.553832,103.261074,6.052008,1.983839,0.003076,0.046547,63.775000,0,170.771499,78.904777,2.960484,7.899585,-1.000000
36,4.350000,54.795269,365.730674,31.193352,103.286297,6.144925,1.981481,0.001559,0.047848,63.625000,0,173.226295,78.696928,2.954382,10.202094,-1.000000
37,5.798000,54.935192,370.069490,31.534192,103.303952,6.717868,1.985198,0.002051,0.048072,63.575000,1,175.673359,79.158797,2.948878,10.282971,0.075123
38,10.541000,53.354948,375.146998,33.224976,103.365857,6.144331,2.012182,0.002591,0.048961,64.886546,1,179.755237,77.311484,2.918872,7.105568,0.074643
39,7.707000,51.942069,382.962171,34.841441,103.453330,6.421816,2.150689,0.002094,0.047951,68.375000,1,182.960700,77.047893,2.887608,7.535051,0.052838
3,6.515000,55.218088,388.055099,40.801198,103.608909,6.871111,2.231321,0.001429,0.049262,68.325000,0,186.598267,73.666870,2.913346,10.063429,-1.000000
40,3.889000,54.866984,392.670847,40.009282,103.660032,6.466886,2.221328,0.002295,0.048866,68.600000,1,189.528442,73.282851,2.916374,8.525822,0.004000
41,3.523000,53.243951,397.297492,42.264523,103.813144,6.381346,2.203095,0.002025,0.048813,67.536610,0,192.715097,72.497616,2.987015,7.367688,-1.000000
42,2.648000,52.141466,401.665296,42.532971,103.867983,6.856367,2.196699,0.001382,0.047376,67.550000,0,195.835632,72.393322,2.998580,6.797594,-1.000000
43,5.391000,52.816846,405.725535,42.341959,103.915762,6.393330,2.212911,0.002203,0.047198,67.375000,1,198.822359,72.643798,3.041986,7.631235,0.074354
44,9.103000,53.873873,411.074836,44.505426,103.965745,6.384271,2.241224,0.002121,0.047960,69.400000,1,202.293794,72.092703,3.075917,7.664695,0.004000
45,3.232000,54.478519,415.728618,52.861472,104.146581,7.112935,2.234418,0.002228,0.047787,69.258415,1,205.800490,70.677741,3.125837,9.086511,0.038922
46,3.462000,54.998415,420.092105,54.623291,104.214988,6.491851,2.248789,0.001622,0.047358,69.150000,0,208.846078,70.587640,3.174916,8.714673,-1.000000
47,600.868000,53.791695,424.177632,54.069914,104.242708,6.330808,2.239084,0.001895,0.050617,69.550000,0,212.529851,70.476706,3.156453,9.434614,-1.000000
48,4.008000,54.476428,462.617804,54.204258,104.466220,6.318905,2.249542,0.001738,0.049046,81.825000,0,244.467045,70.546353,3.584393,11.081834,-1.000000
49,4.490000,55.865248,467.213816,55.151109,104.501190,6.725226,2.240635,0.001961,0.049220,81.675000,0,248.454000,71.101115,3.654347,11.771442,-1.000000
4,4.460000,54.073950,471.649054,54.382398,104.536143,6.883618,2.247285,0.001835,0.047939,81.475000,0,252.348493,70.624953,3.728506,11.316236,-1.000000
5,3.429000,54.864417,476.150905,54.075392,104.578295,6.922451,2.270154,0.001367,0.048349,82.175000,0,256.216792,70.360577,3.806350,10.834623,-1.000000
6,4.539000,53.714173,480.648849,54.889548,104.616025,7.142290,2.265375,0.002070,0.048066,81.600000,0,260.172898,70.846749,3.893524,11.850420,-1.000000
7,8.744000,54.873123,484.792352,54.779163,104.662312,7.514339,2.261342,0.001577,0.048361,81.825000,0,263.802204,70.747501,3.973193,11.888426,-1.000000
8,2.480000,54.021132,488.792763,53.563127,104.721423,6.596019,2.162964,0.001345,0.047883,77.450000,0,267.286103,70.554707,4.065375,10.126189,-1.000000
9,4.214000,54.721423,492.773026,54.186177,104.777336,6.697471,2.173775,0.001424,0.048593,77.375000,0,270.787878,70.888792,4.133646,10.836714,-1.000000
