Application,Deploy Time, G5K CPU usage, G5K RAM usage, A8 CPU usage, A8 RAM usage, G5K Bandwidth, A8 Bandwidth, G5K Latency, A8 Latency, Processed Tokens, Accepted, G5K RAM stddev, A8 CPU stddev, A8 RAM stddev, G5K CPU stddev,App Latency
0,7.940000,11.131631,209.503516,27.301405,105.763053,0.973311,0.059392,0.004821,0.050424,0.000000,0,148.101970,98.158416,3.725054,16.444429,-1.000000
10,22.270000,13.009916,209.708594,27.239895,105.710709,0.776918,0.077904,0.005887,0.051041,0.000000,1,148.039831,98.346471,3.656919,17.405655,0.047315
11,18.919000,8.583685,210.769141,26.284253,105.714855,0.366820,0.114138,0.005722,0.051195,2.175000,1,147.817435,95.907150,3.674760,4.958180,0.093570
12,29.968000,10.395935,211.900977,29.032325,105.732491,1.103155,0.171083,0.006703,0.050739,5.644000,1,147.418395,93.297143,3.673749,9.433294,0.076089
13,56.062000,11.153493,213.590625,27.728234,105.774251,0.354243,0.192101,0.003135,0.050832,7.050000,1,146.311620,92.495503,3.689338,8.885099,0.040778
14,6.058000,11.867925,215.430664,28.486503,105.816322,1.036573,0.230274,0.002477,0.051425,9.025000,0,145.060662,92.131694,3.682758,9.738823,-1.000000
15,153.012000,14.924639,215.633789,29.208912,105.840930,0.959414,0.246575,0.004410,0.051266,8.925000,1,144.120624,92.446085,3.667390,12.926859,0.038999
16,55.459000,16.409658,218.684766,28.942110,105.844020,0.823602,0.403146,0.004220,0.051003,14.600000,1,143.191499,90.514960,3.625643,21.510817,0.062760
17,72.788000,17.758966,220.860156,29.670127,105.897109,0.693658,0.460122,0.004950,0.050954,17.900000,1,142.704084,90.150364,3.607514,20.908746,0.063905
18,20.380000,23.044869,224.163477,31.990523,105.988614,1.872342,0.660791,0.003093,0.052320,26.850000,1,141.786298,88.100513,3.539965,29.240750,0.063030
19,26.976000,23.331614,226.190430,30.791081,106.043666,1.260949,0.679468,0.003316,0.054326,27.875000,1,141.447281,88.366915,3.501768,28.621811,0.081810
1,153.195000,26.144820,228.635938,32.735099,106.107692,1.982640,0.733165,0.003392,0.055104,31.025000,1,140.861744,87.286823,3.461042,27.396339,0.039092
20,88.916000,29.554708,233.742578,32.429572,106.204060,1.075737,0.815544,0.003867,0.054587,33.215716,1,140.158073,86.980439,3.450982,30.726726,0.068923
21,25.926000,30.274212,238.011328,33.179835,106.239026,1.368492,0.885660,0.002913,0.054755,37.525000,1,139.589708,87.094363,3.432636,31.785143,0.048795
22,136.173000,33.601202,240.604688,33.604526,106.285346,0.980209,0.914747,0.003220,0.055281,39.196770,1,138.960485,86.049546,3.447499,33.434328,0.063389
23,80.028000,35.623160,246.646875,35.099812,106.316070,1.621398,1.035941,0.004263,0.055495,45.500000,1,138.101456,86.641447,3.409987,32.630804,0.077229
24,29.734000,39.600121,251.400000,34.777770,106.352327,1.071314,1.095973,0.003758,0.057834,49.410494,1,137.366401,85.633835,3.362733,33.094338,0.074631
25,108.284000,42.836070,254.924609,36.044508,106.277066,2.085754,1.193801,0.004225,0.057056,54.731483,1,137.052362,85.690961,3.298995,32.967080,0.041525
26,16.834000,42.819111,261.822656,37.133078,106.322686,2.385485,1.281319,0.004587,0.057724,59.413600,1,135.422438,85.108986,3.295415,30.158853,0.040131
27,33.032000,44.674509,264.741016,36.343932,106.361973,1.621753,1.314709,0.003802,0.058263,61.325000,1,134.647533,85.331308,3.283372,32.066085,0.058507
28,57.607000,46.101059,268.673633,38.663779,106.398020,2.218915,1.421458,0.002798,0.057853,66.975000,1,134.393391,84.650779,3.219799,30.771525,0.064075
29,45.770000,52.587457,273.766992,39.021714,106.442869,2.588494,1.501341,0.003885,0.060529,71.400000,1,134.285620,84.891431,3.183382,33.609633,0.060275
2,28.183000,52.156169,278.647656,39.453596,106.476845,2.605002,1.603977,0.002704,0.058826,71.400000,1,133.546018,84.109982,3.168294,34.316550,0.048021
30,8.294000,57.347690,282.706836,38.792781,106.472226,1.985014,1.687119,0.003054,0.062104,75.400000,1,133.649479,84.356451,3.215476,33.864405,0.061248
31,15.276000,58.713227,286.003711,39.625352,106.391357,2.781323,1.735551,0.003072,0.061825,77.366700,1,133.925054,84.226496,3.186602,32.511048,0.047957
32,600.817000,59.578242,289.929492,41.147110,106.434667,2.974542,1.749713,0.002308,0.062486,79.000103,0,133.397197,83.989922,3.205451,32.091113,-1.000000
33,600.831000,63.546449,314.775977,41.289902,106.556799,3.299340,1.765187,0.001833,0.061339,81.999899,0,134.824858,84.420597,3.222717,27.582159,-1.000000
34,56.881000,61.780098,340.270312,41.398582,106.624742,3.055732,1.765121,0.003330,0.061309,85.925000,1,138.961815,84.123119,3.232017,28.194084,0.041680
35,46.884000,61.188681,346.635156,42.054096,106.546036,2.914138,1.839557,0.003417,0.061609,90.300102,1,138.730784,83.935657,3.003655,30.433001,0.055216
36,33.541000,62.467338,352.614648,42.455941,106.578069,2.915643,1.891353,0.002320,0.061869,93.300000,1,138.309668,83.847213,3.004983,30.123561,0.041191
37,29.388000,67.554353,357.823047,41.632237,106.615773,2.416955,1.968710,0.001910,0.062391,95.650000,1,138.712332,84.424872,2.983122,30.416457,0.057750
38,57.604000,68.262351,363.010156,42.381334,106.513367,3.173968,1.999323,0.002473,0.064462,97.524899,1,139.224349,85.171613,2.845095,27.676266,0.047583
39,35.385000,68.434655,370.426367,42.747748,106.552581,2.448520,2.118710,0.002594,0.064179,103.800000,1,138.666045,84.732793,2.832706,27.623802,0.084978
3,17.972000,72.541189,376.340039,44.025170,106.542533,3.134540,2.172001,0.002396,0.063007,107.125000,1,138.388162,84.666281,2.839894,27.407183,0.042350
40,10.923000,70.858988,381.372656,43.318165,106.543584,2.526602,2.248444,0.002596,0.062664,110.875102,1,138.721597,84.764120,2.829997,27.207818,0.063880
41,600.867000,73.174351,385.968555,45.026997,106.562242,2.971424,2.262913,0.002586,0.063025,111.925000,0,139.201091,85.043319,2.836655,25.354791,-1.000000
42,600.863000,72.637244,417.198047,45.395046,106.507914,3.411751,2.256153,0.002482,0.062155,115.850101,0,146.701959,85.155593,2.856340,25.418318,-1.000000
43,18.590000,73.491173,448.041406,45.118163,106.584651,3.135508,2.264711,0.001307,0.064003,116.774898,1,157.354489,85.051671,2.842890,24.632598,0.039810
44,36.941000,75.137370,453.566211,45.422713,106.602838,3.297883,2.327362,0.002116,0.062942,120.125000,1,158.068564,85.418017,2.829467,25.719034,0.047337
45,5.182000,76.455385,460.692773,45.211310,106.640085,2.804336,2.426397,0.001977,0.063227,125.125000,1,158.668229,85.429330,2.808406,22.868088,0.047470
46,600.868000,76.957828,465.498242,46.555415,106.655921,3.503912,2.417821,0.002051,0.064042,126.150000,0,159.872875,85.448010,2.819265,22.744186,-1.000000
47,600.865000,75.665617,499.061914,45.968570,106.656128,2.835678,2.430535,0.001821,0.063033,126.775000,0,171.159096,85.305504,2.830296,22.671285,-1.000000
48,600.781000,75.884573,532.883594,46.067437,106.680815,2.955714,2.425387,0.002512,0.063023,132.050000,0,184.545070,86.010790,2.897676,23.390092,-1.000000
49,600.863000,77.139174,567.208008,45.729824,106.686957,3.470631,2.414470,0.001796,0.063463,131.275000,0,198.957449,85.862338,2.888891,24.121886,-1.000000
4,600.782000,76.275264,602.527734,46.674680,106.706540,3.599676,2.384716,0.001502,0.063915,133.900000,0,214.670048,85.539216,2.923633,23.669845,-1.000000
5,600.797000,75.731573,638.533594,46.703089,106.734070,3.078566,2.417686,0.002292,0.062396,135.525000,0,231.414056,85.449115,2.937108,22.493230,-1.000000
6,600.803000,76.008334,674.330469,46.787751,106.781300,3.411859,2.829266,0.002396,0.062380,135.300000,0,247.890807,83.565559,2.953475,24.143980,-1.000000
7,33.578000,75.877011,709.442578,47.369995,106.782002,3.402290,2.776838,0.002352,0.062623,133.175000,1,264.964192,84.374310,2.974856,22.535028,0.117291
8,600.800000,74.581961,719.772656,49.059493,106.885371,3.327774,2.932340,0.002457,0.066992,137.699898,0,269.351588,82.275983,2.917901,22.621288,-1.000000
9,600.865000,74.543993,755.720898,49.048994,106.324382,3.129655,2.939253,0.003202,0.064363,138.249899,0,287.412364,81.879648,2.717541,22.314798,-1.000000
