Application,Deploy Time, G5K CPU usage, G5K RAM usage, A8 CPU usage, A8 RAM usage, G5K Bandwidth, A8 Bandwidth, G5K Latency, A8 Latency, Processed Tokens, Accepted, G5K RAM stddev, A8 CPU stddev, A8 RAM stddev, G5K CPU stddev,App Latency
0,5.117000,11.563299,222.911914,14.605266,101.739808,0.166524,0.067612,0.004510,0.248465,0.000000,0,143.050116,97.557780,3.691724,15.057537,-1.000000
10,3.327000,12.798131,223.295508,13.088329,101.652642,0.201142,0.084228,0.003706,0.228688,0.000000,1,142.535136,98.666670,3.606864,12.722583,0.075644
11,3.122000,9.930373,224.075391,13.980007,101.669582,0.174814,0.143625,0.003935,0.229192,2.085492,1,142.489725,93.967382,3.574231,10.413983,0.096302
12,3.323000,12.689084,224.816797,15.857679,101.746445,0.490787,0.280226,0.003543,0.230030,5.599947,1,141.937136,90.309471,3.530035,12.604255,0.076037
13,3.950000,14.056804,225.433008,17.591587,101.819632,0.490601,0.353802,0.003860,0.229818,6.442102,1,140.851953,89.526551,3.534958,13.170437,0.076916
14,4.418000,17.655596,227.152344,18.603770,101.892266,0.738608,0.419598,0.003413,0.231646,6.450000,1,140.561008,88.902733,3.524577,16.334413,0.040369
15,6.104000,16.499409,227.918164,23.837426,102.051996,0.766342,0.447734,0.004383,0.230965,9.326654,1,140.403298,78.986836,3.613886,14.092279,0.077067
16,4.248000,21.330895,231.192773,26.393362,102.401898,0.684608,0.767879,0.003875,0.231684,17.554795,1,139.761320,77.506057,3.935211,16.374405,0.075943
17,5.380000,28.178501,232.692578,27.752843,102.620582,0.452486,0.941469,0.003293,0.233566,23.575000,1,139.137770,76.866614,4.166168,22.916023,0.076308
18,3.319000,32.609610,235.573828,28.258467,102.843533,0.490813,1.319022,0.003429,0.233679,30.612850,1,138.140799,76.652924,4.366151,20.400557,0.038382
19,3.502000,33.113651,237.312695,29.296120,103.071404,0.417846,1.419675,0.003228,0.234949,40.125000,1,137.860073,75.873223,4.586290,19.454736,0.074460
1,5.865000,33.998222,238.891211,30.973438,103.301714,0.516925,1.491407,0.004612,0.234524,38.729903,1,137.534845,76.451556,4.812121,21.452657,0.082041
20,5.392000,37.486687,241.825586,31.915359,103.557972,0.534240,1.625022,0.002419,0.234428,43.851221,1,137.162684,76.203826,5.081073,19.562510,0.004000
21,3.636000,40.493809,242.743359,37.524680,103.838241,0.847099,1.636535,0.003612,0.234333,43.667158,1,136.902772,71.406936,5.342004,17.523843,0.073348
22,6.130000,39.368443,246.642773,37.879503,104.056213,0.848824,1.618471,0.003798,0.235240,43.200000,1,137.168783,71.480662,5.648066,18.884805,0.075139
23,5.456000,38.182353,248.620313,43.135853,104.457118,0.613935,1.750913,0.002825,0.234633,46.731360,1,136.592704,69.794134,5.761686,17.678701,0.075649
24,4.194000,39.366903,250.821484,43.224256,104.797036,0.678138,1.890778,0.003360,0.235390,46.850000,1,135.993680,69.962674,6.004877,15.711204,0.075904
25,6.325000,44.431300,252.368359,45.169688,105.101320,0.457795,2.089736,0.002320,0.236502,51.602422,1,135.767736,70.876070,6.359875,15.343652,0.004000
26,3.071000,43.943859,253.591211,51.137780,105.657843,0.444824,2.041044,0.003400,0.236877,50.322785,1,135.409838,69.281310,6.662391,14.176607,0.038253
27,4.512000,41.680135,254.693555,52.273567,105.993152,0.342997,1.983859,0.002435,0.235762,49.531910,1,135.399490,68.117389,6.938537,14.720362,0.098746
28,5.236000,45.611180,256.680664,54.343995,106.311903,0.786495,2.199854,0.002475,0.238191,55.467428,1,134.807043,69.051990,7.387994,12.842786,0.075206
29,3.776000,47.009773,259.589063,55.567212,106.765677,0.770668,2.292466,0.002908,0.238093,57.225000,0,134.249671,70.087102,7.963241,9.894453,-1.000000
2,3.545000,49.911439,260.362695,55.703462,107.112513,0.630095,2.359977,0.003308,0.238246,60.900000,0,133.845384,69.961120,8.435055,15.993550,-1.000000
30,2.600000,51.195122,261.393359,55.442543,107.422990,0.602200,2.389103,0.001948,0.236379,61.400000,0,133.528694,69.784199,8.860657,17.321918,-1.000000
31,3.083000,50.541928,262.387695,55.525142,107.667544,0.647685,2.356393,0.003110,0.236417,59.650000,0,133.189825,69.796630,9.278024,12.260992,-1.000000
32,2.328000,50.983559,263.847266,55.289371,107.979442,0.348194,2.352887,0.002428,0.238197,59.525000,0,132.668595,69.756901,9.783150,11.437822,-1.000000
33,3.405000,49.189340,265.124609,55.473105,108.211824,0.342706,2.345676,0.002219,0.237661,59.700000,0,132.346559,69.637795,10.273928,13.075254,-1.000000
34,4.144000,48.711443,266.402930,55.326963,108.487383,0.364599,2.368123,0.002891,0.237697,59.925000,0,132.216198,69.561740,10.699173,12.049278,-1.000000
35,4.181000,49.277871,267.534766,55.324425,108.816417,0.625501,2.374154,0.002022,0.236660,59.675000,0,131.485102,69.709466,11.220757,12.170542,-1.000000
36,5.250000,51.615637,268.924414,55.512980,109.110967,0.573781,2.354614,0.003116,0.237668,59.750000,1,131.144296,69.731749,11.701919,14.999108,0.073625
37,3.052000,51.089945,271.614258,57.474539,109.578555,0.574899,2.486741,0.002676,0.236864,63.594208,0,131.355861,71.075926,12.133739,15.757490,-1.000000
38,5.485000,54.055565,272.959570,57.647192,109.878936,0.797706,2.502397,0.002719,0.239138,63.375000,0,131.096143,71.349378,12.595987,14.434457,-1.000000
39,4.651000,53.437832,274.495898,57.361390,110.221253,0.783422,2.503870,0.002468,0.237143,63.200000,0,130.772384,71.272471,13.025500,14.598621,-1.000000
3,3.595000,50.609047,275.977539,57.070465,110.575839,0.420295,2.476469,0.001661,0.236524,63.050000,0,130.410861,71.085005,13.534345,14.429104,-1.000000
40,3.061000,52.040215,277.470312,56.641633,110.909390,0.438235,2.503180,0.002768,0.238196,63.474936,0,130.260750,70.720322,14.013666,17.212375,-1.000000
41,3.328000,50.555893,278.773828,56.657298,111.218315,0.467649,2.499190,0.002000,0.237542,63.250000,0,129.629188,70.636613,14.438584,16.521055,-1.000000
42,2.513000,51.891859,280.271289,56.580324,111.567223,0.509784,2.506705,0.002004,0.237952,63.400000,0,129.503479,70.798346,14.961874,14.956602,-1.000000
43,4.196000,52.874172,281.779883,56.857524,111.891878,0.435559,2.497774,0.001900,0.237063,63.474937,1,129.095465,71.089908,15.446055,16.792778,0.074187
44,6.568000,51.691697,283.909766,59.766422,112.234295,0.500061,2.557300,0.002424,0.238950,65.200000,1,129.971715,71.890850,15.895245,13.929165,0.179673
45,3.394000,55.303437,286.505859,64.827829,112.867609,0.756593,2.637415,0.002250,0.238739,66.953610,1,129.577272,73.443520,16.406943,11.584009,0.004000
46,3.296000,55.792691,288.100000,66.704741,113.210785,0.701476,2.620767,0.002584,0.238668,66.975000,0,129.459903,73.827646,16.854662,11.725769,-1.000000
47,2.968000,56.472796,289.531055,66.644892,113.534028,0.685421,2.624532,0.002049,0.238798,67.225000,0,129.194650,73.855504,17.338471,13.664045,-1.000000
48,3.828000,55.313780,291.012305,66.867493,113.898088,0.597287,2.633493,0.002371,0.237665,67.350000,0,128.999625,73.762895,17.819037,12.702782,-1.000000
49,3.889000,55.456297,292.559766,66.640663,114.245494,0.522831,2.643120,0.002543,0.238464,67.125000,0,128.571976,73.683371,18.246052,12.070252,-1.000000
4,4.138000,57.435444,294.043555,66.555448,114.624463,0.401047,2.616531,0.001771,0.240041,67.075000,0,128.213688,73.722912,18.738175,12.595292,-1.000000
5,3.347000,53.888331,295.518945,66.652800,114.989466,0.361343,2.645174,0.002650,0.238700,67.400000,0,127.996250,73.998125,19.214087,14.082045,-1.000000
6,4.247000,55.284425,297.011328,66.549030,115.317505,0.368961,2.658939,0.002300,0.239956,67.325000,0,127.502247,73.766197,19.642730,12.544896,-1.000000
7,5.929000,57.083361,298.674609,66.870445,115.681768,0.726583,2.644448,0.002951,0.237750,67.275000,1,127.279474,74.110458,20.143408,11.386085,0.108491
8,2.626000,50.328834,300.376758,69.721605,116.290425,0.729311,2.294224,0.001787,0.237510,58.483020,0,127.151078,72.935376,20.565925,17.670208,-1.000000
9,4.825000,48.269218,301.420313,69.740947,116.609724,0.635697,2.286051,0.002668,0.237864,58.100000,1,127.030340,72.847761,21.038784,17.019849,0.118389
