Application,Deploy Time, G5K CPU usage, G5K RAM usage, A8 CPU usage, A8 RAM usage, G5K Bandwidth, A8 Bandwidth, G5K Latency, A8 Latency, Processed Tokens, Accepted, G5K RAM stddev, A8 CPU stddev, A8 RAM stddev, G5K CPU stddev,App Latency
0,8.231000,10.352151,208.994531,27.948561,104.534507,1.090658,0.061403,0.004858,0.052833,0.000000,0,149.156570,98.002811,2.630770,13.534151,-1.000000
10,21.078000,9.170305,209.249023,26.324360,104.507179,0.273713,0.083273,0.005903,0.051618,0.000000,1,148.843138,98.709737,2.593983,3.780162,0.056389
11,17.236000,10.749457,210.248047,27.999682,104.525435,0.759318,0.113155,0.005548,0.051705,2.150000,1,148.752956,95.566051,2.594530,6.971703,0.050566
12,27.294000,11.976253,211.340234,28.113645,104.562699,0.429766,0.178662,0.006568,0.052719,5.625000,1,147.989829,93.333047,2.623499,10.325097,0.058512
13,51.594000,10.641976,212.807813,29.087980,104.644986,0.722833,0.195889,0.004952,0.050847,7.075000,1,146.656427,92.367288,2.649346,9.226592,0.039494
14,5.856000,12.256795,214.946875,29.730620,104.696608,0.673343,0.230697,0.004514,0.051914,9.000000,0,145.850315,92.041961,2.666155,9.743962,-1.000000
15,132.720000,14.540089,215.182031,29.660110,104.738273,1.389806,0.251277,0.004252,0.051950,9.025000,1,145.279512,92.329531,2.696792,11.572994,0.040725
16,46.437000,16.558579,218.771094,29.135669,104.809835,1.355277,0.402091,0.005028,0.052574,18.425000,1,143.760807,90.601494,2.718271,21.365404,0.043758
17,66.157000,18.327816,221.310937,29.913932,104.867899,1.370184,0.462188,0.004081,0.052290,21.750000,1,143.026600,90.023146,2.740170,22.363087,0.064451
18,17.951000,23.100695,224.291211,31.173479,104.948040,1.193027,0.655621,0.002937,0.051566,30.850000,1,142.800976,88.389293,2.734996,28.081544,0.043032
19,22.309000,23.224142,226.342187,32.346018,105.014960,2.034296,0.676057,0.004456,0.052285,31.775000,1,142.427141,88.239989,2.740715,27.446734,0.065543
1,141.337000,24.935314,228.780859,31.773021,105.078308,1.175786,0.738539,0.004496,0.051949,34.800000,1,142.261969,87.453379,2.729418,29.231413,0.040386
20,81.438000,29.081883,234.481055,33.678438,105.169758,2.021830,0.803981,0.004753,0.052882,38.920342,1,141.415741,87.136984,2.682524,29.440080,0.039061
21,23.018000,29.292181,238.675000,32.833793,105.236315,1.128392,0.875549,0.005013,0.052620,42.825000,1,140.649126,86.964137,2.648813,29.837494,0.040367
22,129.221000,31.130663,241.464453,34.463043,105.275136,2.132118,0.912747,0.003728,0.053437,44.700044,1,140.438159,86.279195,2.646026,29.209495,0.090132
23,80.502000,34.567859,247.697266,35.157922,105.349322,1.882534,1.031231,0.003592,0.055398,50.801180,1,139.639468,86.323896,2.623677,30.347494,0.043713
24,26.110000,37.876328,252.381055,34.651936,105.421711,1.231570,1.108822,0.004285,0.056487,54.824727,1,138.494622,85.829168,2.662007,31.695384,0.043097
25,114.940000,42.764270,255.489258,36.345455,105.479657,2.374743,1.197266,0.004373,0.056047,59.910852,1,138.053527,85.599619,2.705005,32.284650,0.049945
26,16.537000,45.095988,262.563086,37.240362,105.559515,2.484385,1.284243,0.003602,0.056472,64.734368,1,136.549094,85.455200,2.765768,31.025760,0.063203
27,29.827000,46.032598,265.780469,36.410291,105.617923,1.686180,1.324374,0.004343,0.057114,66.800000,1,136.112511,85.030582,2.727247,32.813926,0.055237
28,40.800000,46.585058,269.573438,38.634606,105.654724,2.405572,1.415127,0.002749,0.056831,72.450000,1,135.481410,84.945865,2.674235,31.235990,0.042876
29,600.855000,51.106644,274.826953,38.525432,105.704926,2.346957,1.502964,0.004096,0.056993,76.675000,0,134.438122,84.377119,2.647151,33.278444,-1.000000
2,22.924000,54.824834,297.500977,39.174828,105.825309,3.001118,1.501804,0.002241,0.057804,83.325000,1,134.174585,84.159303,2.626743,31.036049,0.053392
30,7.417000,58.298549,301.430664,38.351087,105.853782,2.038006,1.583857,0.003384,0.059846,87.100000,1,133.794528,84.714263,2.625664,30.684340,0.060774
31,12.426000,57.490265,304.883789,40.229519,105.896553,3.051716,1.609361,0.002878,0.058639,88.875000,1,133.455752,84.454675,2.621047,30.057394,0.058091
32,600.859000,60.811954,309.151367,39.791609,105.952190,2.442785,1.647958,0.002481,0.060004,90.425000,0,133.102356,84.718407,2.589900,28.810959,-1.000000
33,600.866000,63.274337,334.310938,39.664257,106.139195,2.190436,1.651908,0.002406,0.060601,92.625000,0,133.944034,84.490639,2.592030,29.218813,-1.000000
34,42.163000,62.542686,360.605078,39.664549,106.231022,2.461608,1.645485,0.001359,0.059552,96.200044,1,136.913437,84.507719,2.550547,27.520666,0.048622
35,31.838000,61.587967,366.868359,40.390431,106.272087,2.433281,1.751031,0.002357,0.059075,101.200000,1,137.994113,84.178348,2.546638,27.770614,0.047882
36,25.931000,65.388998,372.520312,40.456727,106.306377,2.634749,1.784545,0.002333,0.059689,103.272126,1,138.343245,84.711214,2.539114,27.546295,0.050779
37,16.735000,69.518541,377.780859,41.306140,106.342666,2.606242,1.855048,0.001812,0.060104,105.525000,1,139.433315,84.431014,2.507196,27.590769,0.081945
38,44.228000,71.084518,382.829492,42.537150,106.367242,3.603905,1.906873,0.002193,0.065624,108.200000,1,141.386076,84.811051,2.489795,24.365663,0.052194
39,26.045000,70.202843,390.187500,43.381510,106.433251,3.805096,2.000700,0.001532,0.062710,114.100000,1,140.660771,84.276493,2.484305,25.569906,0.039805
3,13.407000,74.026428,396.673437,43.070126,106.468457,2.910018,2.074420,0.002014,0.062004,117.100000,1,140.443977,84.962266,2.471235,23.489189,0.068337
40,8.415000,72.662580,401.976953,44.271646,106.477300,3.059294,2.115140,0.001560,0.060675,120.975000,1,140.707559,84.688791,2.483198,22.873791,0.039545
41,600.841000,73.761781,406.844727,43.678013,106.543917,2.871361,2.160318,0.001685,0.060628,122.200000,0,140.976197,85.338117,2.517720,22.519712,-1.000000
42,600.871000,72.988107,438.613086,45.298744,106.545321,3.483250,2.138489,0.001580,0.060161,124.450000,0,148.574418,84.954891,2.527119,22.642520,-1.000000
43,12.859000,74.218157,470.359570,43.364054,106.592174,2.886788,2.151506,0.002196,0.060506,124.525000,1,158.361323,85.155016,2.540950,22.618958,0.057814
44,600.865000,74.373403,476.115820,44.160683,106.633136,2.882402,2.197791,0.001721,0.060460,127.025000,0,159.254485,85.005124,2.533548,22.317623,-1.000000
45,3.743000,72.554929,509.003320,45.675605,106.681490,3.838942,2.201263,0.001607,0.060748,129.175000,1,171.607734,84.723425,2.534908,20.727192,0.063741
46,600.781000,73.140160,514.199805,45.262569,106.719429,2.948191,2.216371,0.002140,0.061417,130.750000,0,173.905271,85.774244,2.518189,21.730105,-1.000000
47,600.883000,73.854787,548.712305,45.344920,106.794113,3.517490,2.248331,0.002712,0.061396,130.700000,0,189.000583,85.061608,2.493678,22.050901,-1.000000
48,600.815000,73.145542,582.393555,44.682789,106.826866,3.297323,2.231910,0.002607,0.061430,132.700000,0,205.320544,85.236841,2.533564,22.109421,-1.000000
49,600.832000,73.740465,617.403125,45.717576,106.879727,3.879745,2.211111,0.001585,0.062067,133.275000,0,224.398067,85.379729,2.550304,22.294977,-1.000000
4,600.879000,74.682270,652.588672,44.714747,106.918736,2.964481,2.228232,0.002242,0.061311,135.500000,0,243.819282,85.407515,2.559428,22.410865,-1.000000
5,600.885000,73.505126,687.799023,46.081133,106.986626,3.386303,2.206774,0.002448,0.061687,137.175000,0,264.543951,85.565427,2.586615,21.343287,-1.000000
6,600.875000,73.339290,722.727344,44.676542,106.530387,3.048605,2.209291,0.002265,0.062042,136.725000,0,285.185238,85.026332,2.547956,22.611058,-1.000000
7,26.103000,73.542295,759.139648,44.303352,106.332127,2.924850,2.228055,0.001636,0.062660,135.825000,1,306.633894,85.379418,2.459364,21.447517,0.083668
8,600.866000,70.582994,768.843750,48.815173,106.545600,3.331936,2.293439,0.002428,0.062329,135.175000,0,311.991393,82.006782,2.392107,20.202955,-1.000000
9,600.873000,72.084534,803.458594,48.061103,106.752417,3.159676,2.299681,0.002137,0.061490,136.625000,0,332.397193,82.101549,2.520029,21.317328,-1.000000
