Application,Deploy Time, G5K CPU usage, G5K RAM usage, A8 CPU usage, A8 RAM usage, G5K Bandwidth, A8 Bandwidth, G5K Latency, A8 Latency, Processed Tokens, Accepted, G5K RAM stddev, A8 CPU stddev, A8 RAM stddev, G5K CPU stddev,App Latency
0,7.962000,10.062281,223.752148,13.480110,102.886283,0.234634,0.058264,0.005018,0.427752,0.000000,0,145.616876,98.383767,3.144184,13.265247,-1.000000
10,5.564000,7.635647,223.828711,13.371415,102.907558,0.224301,0.059193,0.005124,0.428388,0.000000,1,145.247631,98.445490,3.158196,2.095335,0.041304
11,4.772000,15.386800,224.548828,13.535358,102.600673,0.367022,0.123544,0.004521,0.427984,2.071543,1,145.052550,97.806173,2.475988,15.963036,0.082343
12,5.919000,13.393615,226.875781,13.902051,102.618329,1.114152,0.184102,0.004602,0.428837,5.421984,1,144.550367,98.229782,2.465001,15.203202,0.044298
13,10.116000,12.146191,227.867188,14.605832,102.623065,1.177110,0.215700,0.005009,0.429126,7.092162,1,143.916978,97.797713,2.466497,9.546293,0.043543
14,9.672000,13.129358,229.606641,14.948473,102.641872,1.264705,0.252316,0.004558,0.428294,9.025000,1,143.750328,98.410453,2.434203,8.986509,0.042641
15,23.387000,13.258022,231.945312,18.628611,102.747791,1.456326,0.439902,0.005386,0.429005,17.807084,1,143.553893,84.244712,2.395496,9.231381,0.136685
16,9.725000,19.695728,236.359961,17.461559,102.855574,1.637245,0.643075,0.004556,0.429676,27.900000,1,143.389198,83.157356,2.388425,13.342571,0.041113
17,11.500000,20.822234,239.111719,18.170373,102.874525,2.330315,0.704295,0.005160,0.429444,31.075000,1,143.360930,83.545952,2.431737,14.762620,0.041527
18,5.049000,29.435253,242.947266,20.366427,102.877972,2.958043,0.949571,0.003449,0.429851,41.691112,1,142.774446,83.965190,2.430317,20.760995,0.042080
19,5.253000,28.414679,246.691602,20.157284,102.883067,2.914129,0.965007,0.003383,0.429680,43.303486,1,142.321490,83.491522,2.410720,19.063361,0.042071
1,20.001000,32.493568,249.056055,18.620648,102.890941,3.179980,1.048782,0.003403,0.429890,46.825000,1,141.954512,83.883580,2.414169,19.014062,0.053869
20,13.866000,34.330786,254.042969,17.123730,102.900781,2.914147,1.119348,0.003386,0.430339,51.200000,1,141.563889,83.729334,2.411648,17.636578,0.042704
21,5.295000,35.044747,257.526172,20.583937,102.930520,3.542988,1.199870,0.002972,0.430177,55.050000,1,141.534165,82.081655,2.401723,17.320388,0.040479
22,20.715000,34.986627,261.743945,21.544708,102.994981,3.564364,1.224385,0.002656,0.430011,56.350169,1,141.491980,81.297716,2.399487,18.623779,0.042593
23,14.222000,36.232727,266.473828,21.634836,103.048311,4.054690,1.363050,0.003054,0.429307,62.304700,1,140.920077,81.920441,2.400928,15.589274,0.042826
24,3.194000,39.245304,271.558008,20.929334,103.092217,3.775685,1.453270,0.003086,0.431074,66.567033,0,140.666305,81.681828,2.418129,16.260023,-1.000000
25,19.408000,38.849499,274.865234,20.297545,103.142502,3.793528,1.450802,0.003501,0.431635,67.125000,1,140.677396,82.084655,2.450821,14.657083,0.101491
26,6.157000,40.298201,280.877539,24.007910,103.193331,4.342522,1.548288,0.002591,0.431633,71.562510,1,139.615213,79.641532,2.439733,14.812376,0.041653
27,3.254000,39.102691,284.387500,24.288446,103.241316,4.332282,1.585701,0.002711,0.442631,73.680205,0,139.263836,79.397901,2.395520,14.065560,-1.000000
28,3.676000,42.779938,287.272852,24.860664,103.289469,4.719921,1.588059,0.001924,0.432873,73.775000,0,139.322174,79.966867,2.377397,10.986028,-1.000000
29,3.665000,41.620588,290.548047,24.141306,103.313557,4.705313,1.588522,0.001970,0.430262,73.875000,0,139.376137,79.818843,2.362514,14.268956,-1.000000
2,3.410000,40.533316,293.133594,25.124446,103.320199,4.711191,1.588070,0.003225,0.431763,73.950048,0,139.633746,80.051474,2.361145,13.106197,-1.000000
30,2.290000,40.677501,296.165234,24.660954,103.304102,4.692814,1.581666,0.002993,0.432276,73.875049,0,139.796149,80.423214,2.347563,12.391776,-1.000000
31,2.749000,40.286692,298.769141,25.599281,103.297086,4.724893,1.592773,0.003285,0.431962,73.825000,0,139.986110,80.730568,2.345527,13.615244,-1.000000
32,2.301000,44.628549,301.626172,25.645985,103.302104,4.717812,1.588229,0.002729,0.431778,73.650000,0,140.011027,80.787482,2.342633,12.808180,-1.000000
33,3.209000,41.584141,304.491211,25.016685,103.294801,4.141297,1.584706,0.002230,0.431668,73.600000,0,140.265487,80.361495,2.343531,14.630346,-1.000000
34,14.148000,40.858316,307.162109,24.933922,103.298393,4.196274,1.594553,0.002278,0.431573,73.725000,1,140.385445,80.166175,2.340578,10.616760,0.042798
35,3.885000,40.494790,312.744336,22.908037,103.301502,4.158352,1.698852,0.002535,0.670067,73.950000,0,140.176577,80.150882,2.331547,12.846603,-1.000000
36,4.471000,39.941191,315.567773,23.081820,103.315445,4.172282,1.685497,0.003484,0.431165,73.775000,0,140.709099,80.004851,2.327286,13.917353,-1.000000
37,8.863000,43.692348,318.890430,23.662385,103.283288,4.143152,1.694947,0.002353,0.840498,73.850000,1,140.938036,80.176346,2.342178,14.192579,0.064247
38,19.414000,40.663720,323.450000,24.000196,103.275857,4.202403,1.726389,0.003245,0.432324,74.125000,1,141.622154,79.451090,2.344211,12.876057,0.040988
39,13.456000,44.079622,329.769141,28.892325,103.318599,4.982990,1.853036,0.002755,0.432556,76.475000,1,141.036149,78.988432,2.320679,14.956926,0.045982
3,8.688000,42.886004,335.340430,28.905870,103.375375,4.626058,1.917646,0.002473,0.433269,79.821905,1,140.635194,78.671263,2.328722,11.092097,0.039176
40,6.146000,44.343648,340.455664,28.978894,103.447764,4.783936,1.993565,0.002378,0.433086,83.975000,1,140.722896,78.098966,2.315555,10.000256,0.042465
41,3.655000,44.499728,345.476953,31.191359,103.556234,4.762861,2.007226,0.002562,0.433667,83.700000,0,140.768441,79.035653,2.371961,10.776950,-1.000000
42,2.847000,48.459081,349.258008,31.220644,103.574187,4.755771,2.021339,0.001862,0.434577,83.975000,0,141.275015,78.976708,2.355847,10.812909,-1.000000
43,7.397000,46.369177,352.625977,30.896745,103.633680,4.782212,2.026406,0.002249,0.432941,84.049873,1,141.559155,78.826630,2.407513,10.411844,0.041582
44,8.964000,44.560541,357.535352,34.529544,103.711936,5.487461,2.076892,0.002320,0.446869,86.575126,0,141.805185,79.196642,2.474116,9.249973,-1.000000
45,4.078000,49.021726,361.629102,35.017062,103.706670,5.428217,2.085737,0.001333,0.434714,86.749873,1,142.120823,79.408805,2.483983,7.767967,0.112392
46,3.062000,48.641736,365.916602,37.665332,103.811555,5.370119,2.108621,0.001879,0.434487,86.800000,0,142.809348,80.382226,2.583042,10.006511,-1.000000
47,2.770000,50.336511,369.567383,37.863285,103.887242,5.271261,2.100903,0.002248,0.435999,86.275000,0,143.282533,79.876232,2.600875,9.573266,-1.000000
48,4.478000,45.215187,373.030078,36.601873,103.874975,5.302233,2.095085,0.001514,0.434084,86.825000,0,143.689808,79.496334,2.615312,8.558844,-1.000000
49,4.172000,46.520321,376.863281,36.302558,103.903816,5.360170,2.100753,0.002698,0.433568,86.499874,0,144.141350,79.850253,2.610915,11.707015,-1.000000
4,3.965000,49.259116,380.416602,35.677067,103.909676,5.355842,2.111007,0.002601,0.434736,86.750000,0,144.892011,79.789176,2.611006,9.212368,-1.000000
5,3.009000,45.720504,383.910937,35.528320,103.873248,5.400457,2.108941,0.002034,0.434114,86.675000,0,145.592784,79.403208,2.555314,11.125780,-1.000000
6,4.820000,48.552380,387.475781,35.591389,103.874511,4.868496,2.109995,0.002406,0.435050,86.825000,0,146.011852,80.033676,2.540884,10.227928,-1.000000
7,14.911000,45.875383,390.865234,35.877460,103.919079,4.883490,2.120506,0.002608,0.437294,87.000000,1,146.583987,80.241464,2.521598,10.753533,0.043534
8,2.273000,47.207103,397.175391,39.591185,103.979711,5.556724,2.244214,0.002224,0.436428,93.025000,0,146.745525,80.015143,2.372355,9.016301,-1.000000
9,3.456000,49.019116,401.360547,40.319868,103.967790,5.520894,2.233150,0.001717,0.435038,93.324874,0,147.313880,80.638791,2.172364,9.200674,-1.000000
