Application,Deploy Time, G5K CPU usage, G5K RAM usage, A8 CPU usage, A8 RAM usage, G5K Bandwidth, A8 Bandwidth, G5K Latency, A8 Latency, Processed Tokens, Accepted, G5K RAM stddev, A8 CPU stddev, A8 RAM stddev, G5K CPU stddev,App Latency
0,4.957000,10.051952,228.126850,15.762681,101.912771,1.235036,0.058709,0.004566,0.042552,0.000000,0,149.770106,97.150667,3.126349,13.346147,-1.000000
10,2.677000,13.302992,228.304482,14.202120,101.903473,0.643146,0.077352,0.007234,0.103198,0.000000,1,148.849570,97.888085,3.104761,19.449989,0.137528
11,2.678000,18.721427,228.939556,14.578248,101.930275,0.669657,0.166589,0.003871,0.254720,2.150000,1,148.800645,94.105279,3.086098,21.744347,0.088284
12,3.609000,20.246659,229.953331,16.196170,102.016450,0.240642,0.300904,0.004458,0.062177,5.588812,1,148.738410,90.525815,3.103733,21.572200,0.080134
13,3.974000,19.210107,231.252878,17.317147,102.111655,0.215310,0.359879,0.005320,0.174688,7.095878,1,148.465665,89.453058,3.157225,18.212104,0.106312
14,4.022000,22.969692,232.891653,18.620978,102.166743,0.206564,0.446765,0.002914,0.044301,9.065956,0,147.675825,88.689275,3.169706,20.475013,-1.000000
15,6.230000,25.396520,233.295847,18.894648,102.253316,1.076926,0.434763,0.004291,0.044695,8.975000,1,147.405352,88.380563,3.221533,22.387764,0.113837
16,4.027000,29.213209,236.761719,21.670154,102.507306,1.071826,0.770925,0.004155,0.045873,17.250000,1,146.852376,85.356132,3.763462,23.671381,0.079060
17,5.418000,30.628281,238.750617,23.382891,102.556795,0.931552,0.958188,0.003317,0.647145,21.801290,1,146.649083,84.896098,3.771260,18.115595,0.209929
18,3.043000,33.684154,241.941817,24.477841,102.748781,1.518044,1.253682,0.002983,0.600949,33.123828,1,146.107021,82.570894,4.010089,19.726205,0.083302
19,3.358000,35.658595,243.725123,24.509035,102.920445,0.782612,1.290589,0.003589,0.046345,34.350000,1,145.903042,82.342259,4.310944,18.927690,0.081251
1,5.746000,35.121718,246.023849,25.852980,103.128760,0.770170,1.408709,0.003533,0.046661,37.594503,1,145.746119,81.829238,4.572157,19.247374,0.129703
20,3.934000,43.113336,249.316612,27.304506,103.502193,1.604944,1.571140,0.002859,0.049713,41.950000,0,144.964200,80.465995,5.238490,18.291270,-1.000000
21,3.402000,45.845221,250.279605,27.919670,103.701522,1.569599,1.579725,0.003896,0.050292,41.799961,1,144.680498,80.372210,5.627426,20.202124,0.039344
22,5.745000,48.043608,252.498355,29.006635,103.859189,1.722236,1.613770,0.002938,0.052856,43.016451,1,144.144471,80.546730,5.975169,20.181447,0.004000
23,4.870000,45.850675,253.638363,37.901435,104.263743,1.845497,1.606284,0.003163,0.051344,43.479397,1,144.187705,72.853721,6.492101,17.607461,0.089444
24,4.255000,47.868697,259.944490,37.491248,104.492822,2.577864,1.671482,0.001850,0.050262,43.850000,1,145.614911,73.007479,6.870490,18.674879,0.078771
25,5.768000,49.784130,262.635074,37.404743,104.826279,0.934013,1.862985,0.002663,0.050092,48.865862,1,144.884621,72.873574,7.330371,14.608955,0.089177
26,2.652000,46.910530,264.567845,38.014712,105.178599,1.037582,1.862020,0.004027,0.782710,45.441931,0,144.424607,70.544342,7.785832,16.822806,-1.000000
27,4.517000,43.461028,265.439556,38.543791,105.366306,1.507167,1.811226,0.002404,0.049985,46.925000,1,144.082204,70.502740,8.252183,16.698499,0.084247
28,4.818000,45.670225,267.229646,40.955386,105.594702,1.679965,1.968966,0.002466,0.049319,52.409828,1,143.884229,70.633024,8.681465,9.796164,0.076692
29,4.669000,46.113972,270.342311,42.260410,105.834964,1.664784,2.051445,0.002587,0.049965,52.600039,0,143.568145,71.386044,9.140798,10.646221,-1.000000
2,3.282000,56.723323,271.319901,42.747031,106.098536,2.178618,2.127162,0.002500,0.049530,56.525000,0,143.233135,71.232789,9.609221,18.264385,-1.000000
30,2.225000,56.670006,272.666941,42.389851,106.348064,2.144173,2.147254,0.002566,0.051251,56.300000,0,143.064909,71.324526,10.020151,15.226947,-1.000000
31,3.326000,57.622390,273.965255,42.342991,106.538695,1.344634,2.131093,0.002407,0.052475,56.400000,1,142.610561,71.364138,10.536391,15.155734,0.117790
32,2.572000,56.576071,276.275493,42.609649,106.754490,1.339294,2.201309,0.002593,0.051227,58.233635,0,142.529989,71.677172,10.942882,12.985084,-1.000000
33,2.861000,55.090367,277.830592,42.531727,106.954356,1.377691,2.232470,0.002159,0.049666,59.749730,0,142.429410,71.508469,11.344434,12.618916,-1.000000
34,4.809000,53.798368,279.363692,42.646821,107.224916,1.462425,2.221335,0.002356,0.051671,59.700000,1,142.251649,71.342810,11.852599,12.728493,0.004000
35,3.980000,56.201996,281.102179,48.948771,107.571150,1.384103,2.191236,0.002662,0.052082,60.330150,0,142.162229,69.089126,12.217298,13.010366,-1.000000
36,4.155000,58.509576,282.678248,49.237400,107.836894,2.209242,2.161148,0.002552,0.052913,59.750000,0,141.991279,69.271611,12.670989,13.707241,-1.000000
37,3.927000,57.315356,284.390831,49.573444,108.101437,2.171184,2.146893,0.002544,0.052308,59.525000,1,141.763834,69.480342,13.124017,13.272903,0.004000
38,6.256000,53.512299,285.859992,51.850655,108.413032,2.017449,2.048519,0.002498,0.052233,59.642722,1,141.796776,69.412386,13.559796,13.982899,0.004000
39,5.193000,52.494661,287.431127,51.501377,108.822582,1.676925,2.060915,0.002423,0.052090,60.174961,1,141.409983,69.403957,14.024393,13.204206,0.004000
3,3.978000,51.058991,288.925370,57.681806,109.291088,1.705657,2.053043,0.002911,0.050718,59.851469,1,141.411294,68.959469,14.430932,13.619141,0.004000
40,2.860000,52.383137,290.653577,58.342804,109.649235,2.235655,2.063441,0.002886,0.052859,59.475000,0,141.653549,69.447280,14.809255,14.804553,-1.000000
41,3.440000,52.486013,292.225329,57.512406,109.917966,1.420906,2.054132,0.001734,0.051427,59.924936,0,141.698092,68.859146,15.212350,14.404473,-1.000000
42,2.863000,53.839951,293.684827,58.015699,110.211151,2.004873,2.059374,0.002864,0.053218,60.100000,0,141.420132,68.973367,15.670837,12.520193,-1.000000
43,3.409000,54.310578,295.209293,59.333858,110.429337,1.937762,1.984071,0.002505,0.050276,58.425000,0,141.265086,68.429625,16.129263,15.093501,-1.000000
44,6.373000,55.559162,296.640419,59.160884,110.614354,2.035016,1.979513,0.002787,0.051330,58.250000,1,141.126771,68.297557,16.515441,15.020177,0.055670
45,3.118000,54.043144,298.744860,67.832209,110.964915,1.731588,1.991806,0.003210,0.052276,58.441816,1,140.840648,71.007819,16.926436,17.083924,0.004000
46,3.110000,57.150356,300.387952,69.814835,111.177277,1.685799,1.988956,0.003087,0.050382,58.449961,0,141.134649,72.062044,17.310730,15.213627,-1.000000
47,3.031000,55.836167,301.934416,69.695841,111.436265,1.242708,1.982051,0.002220,0.050645,58.725000,0,141.169950,71.865412,17.772724,16.619546,-1.000000
48,4.342000,52.229356,303.410156,69.332034,111.693112,1.279398,1.986133,0.001918,0.049972,58.750000,0,141.208734,71.557562,18.174268,15.601223,-1.000000
49,5.018000,51.635032,304.913651,69.657754,111.950448,1.287139,1.967265,0.002408,0.051001,58.725000,1,140.943576,71.686131,18.610095,14.901475,0.084234
4,4.703000,52.061191,306.797697,71.464298,112.291895,2.022313,2.245546,0.001456,0.050620,67.388572,0,141.462495,73.224261,18.964701,15.816874,-1.000000
5,2.870000,51.223746,308.501234,71.900282,112.521802,1.907814,2.226809,0.001913,0.050086,67.250039,0,141.723737,73.459751,19.390125,15.520150,-1.000000
6,4.230000,49.607629,310.245066,71.667623,112.837098,2.122085,2.242830,0.002716,0.051242,67.350033,0,142.012398,73.263154,19.879579,14.839103,-1.000000
7,5.442000,50.738878,311.952303,71.706807,113.124478,2.169611,2.239588,0.003386,0.050654,67.275000,0,142.244088,73.339733,20.283416,16.222704,-1.000000
8,2.376000,51.833279,313.456003,71.406900,113.434487,1.639873,2.268027,0.002132,0.051005,67.550000,0,142.630561,73.296294,20.704173,16.273642,-1.000000
9,3.400000,55.620150,314.934622,72.037321,113.484411,1.592293,2.334392,0.002605,0.061967,70.299725,0,143.096765,72.812773,20.181810,16.820574,-1.000000
