Application,Deploy Time, G5K CPU usage, G5K RAM usage, A8 CPU usage, A8 RAM usage, G5K Bandwidth, A8 Bandwidth, G5K Latency, A8 Latency, Processed Tokens, Accepted, G5K RAM stddev, A8 CPU stddev, A8 RAM stddev, G5K CPU stddev,App Latency
0,6.675000,10.800622,209.407813,27.765047,104.110147,1.124850,0.059910,0.006039,0.050206,0.000000,0,144.376600,97.876538,3.741578,16.512029,-1.000000
10,19.897000,13.144245,209.212305,27.152385,104.096505,0.446277,0.079267,0.005488,0.049788,0.000000,1,142.488425,98.300421,3.703998,18.671093,0.053060
11,16.459000,10.190233,210.018164,26.875357,104.120018,0.578949,0.117901,0.006728,0.050382,2.125000,1,141.975924,95.391747,3.696849,4.336554,0.047168
12,26.677000,11.025141,211.248633,28.825746,104.165251,1.433199,0.179046,0.006080,0.050301,5.600000,1,141.572636,93.289636,3.685729,9.495304,0.069091
13,49.236000,12.361212,212.951562,27.948060,104.243411,0.780459,0.194994,0.005368,0.051074,7.050000,1,140.643042,92.234980,3.699650,11.545391,0.040728
14,9.142000,13.886442,214.917969,28.435210,104.301274,0.694094,0.230000,0.004203,0.050498,9.000000,0,138.622496,92.095215,3.696038,11.351561,-1.000000
15,129.383000,16.791724,215.146680,29.279342,104.336951,1.539599,0.241609,0.006584,0.050612,8.975000,1,137.310751,92.108668,3.687256,18.377902,0.040354
16,45.831000,16.727376,218.178516,30.164392,104.426568,1.272805,0.401051,0.004942,0.050200,14.600000,1,136.294883,91.165759,3.673958,21.640461,0.061697
17,61.917000,17.432201,220.399219,31.041010,104.479736,1.323443,0.464769,0.004399,0.050665,17.725000,1,135.639409,90.408997,3.696015,21.756898,0.071244
18,18.527000,22.659470,223.098828,31.564871,104.536291,1.364887,0.672656,0.004726,0.050354,26.875000,1,135.460957,88.662973,3.698316,28.143600,0.038543
19,23.376000,22.970380,224.965820,31.207319,104.588262,0.577723,0.671899,0.004101,0.050303,27.725000,1,135.439839,87.560935,3.693260,28.034802,0.041402
1,125.631000,26.187790,227.447852,32.615318,104.643462,1.614466,0.738104,0.003944,0.051693,30.875000,1,135.073378,87.637316,3.716823,28.477113,0.039402
20,80.403000,28.864797,233.162305,32.596595,104.700463,1.164029,0.811369,0.005087,0.052187,34.575000,1,134.054027,87.369741,3.774716,29.488550,0.039257
21,18.532000,32.442025,237.533789,33.531190,104.750020,1.697451,0.887147,0.003534,0.053039,38.747062,1,133.358396,86.373932,3.775678,29.796377,0.064673
22,114.838000,32.513403,239.885352,34.397528,104.788172,2.005979,0.920384,0.004754,0.053555,40.525000,1,132.807624,87.024450,3.789313,29.269637,0.039263
23,73.827000,33.998700,245.875391,34.647255,104.875952,2.021781,1.020110,0.005156,0.052973,47.075000,1,132.061400,86.238343,3.821605,29.019243,0.060109
24,25.868000,38.886437,250.243945,34.278794,104.916140,1.264556,1.095985,0.003809,0.055826,51.082255,1,130.870703,85.845521,3.820292,32.379016,0.043742
25,97.745000,43.436334,253.188672,36.205590,104.949123,2.013409,1.189026,0.003619,0.056334,55.608003,1,130.333318,85.215926,3.826601,32.494686,0.039671
26,16.168000,43.840665,259.475195,36.401652,105.013008,1.468901,1.283355,0.004535,0.065207,60.675568,1,129.042358,85.025632,3.874572,31.625694,0.070331
27,24.886000,45.202718,262.113672,37.816981,105.049386,2.118874,1.323627,0.002478,0.144113,62.645306,1,127.721941,85.417336,3.898578,32.812062,0.083000
28,42.710000,47.056925,265.866211,37.345657,105.142788,1.421749,1.419859,0.003619,0.057798,68.200000,1,127.455008,84.760801,3.870123,29.837558,0.061561
29,31.244000,50.156541,270.842773,37.725723,105.173375,1.712267,1.498699,0.003112,0.056704,72.726369,1,127.250524,84.660712,3.822972,29.561420,0.075405
2,22.188000,54.424165,275.795117,39.678916,105.221391,2.785197,1.584170,0.002033,0.056541,78.375000,1,126.031798,83.862561,3.829677,30.498186,0.058200
30,6.565000,57.723382,280.259766,38.833546,105.174950,2.414662,1.683987,0.003897,0.057432,82.650000,1,125.488530,84.324463,3.655598,27.610671,0.091322
31,7.843000,63.941813,283.476367,39.972502,105.191006,2.446184,1.736037,0.002147,0.057970,84.600000,1,125.506089,84.397581,3.664660,22.735734,0.067712
32,600.770000,66.636323,287.237500,40.808764,105.228701,3.093512,1.763514,0.002883,0.059711,86.400000,0,124.686757,84.017017,3.641705,22.000959,-1.000000
33,600.873000,67.315300,312.728320,40.425241,105.307042,2.826794,1.754498,0.002460,0.059939,89.275000,0,122.971236,83.910403,3.567329,23.281846,-1.000000
34,21.754000,64.083970,338.223437,40.867162,105.391534,2.553893,1.766301,0.002213,0.059535,93.350000,1,123.730980,84.256205,3.534659,23.124986,0.050909
35,600.763000,64.245363,343.244922,41.377922,105.435244,2.370733,1.836846,0.002962,0.058153,97.550000,0,122.702800,84.161742,3.562258,23.114463,-1.000000
36,600.802000,64.180071,371.090039,40.494435,105.439211,2.411915,1.845562,0.001899,0.058231,100.525000,0,125.118668,84.223038,3.492051,22.231272,-1.000000
37,13.827000,64.887335,398.974609,41.468928,105.511312,2.841334,1.842987,0.001957,0.057723,102.775000,1,129.014360,84.074233,3.493911,22.234995,0.065680
38,35.965000,66.182515,404.001758,41.214419,105.531692,2.199401,1.892485,0.001774,0.057635,105.450000,1,129.655207,84.168461,3.490698,22.195547,0.038511
39,21.446000,66.127955,411.384375,42.265572,105.470841,2.202053,2.022263,0.001563,0.065107,111.025000,1,130.781001,84.223010,3.362102,22.455596,0.042071
3,10.995000,67.872972,417.404492,42.690058,105.478276,2.191462,2.063043,0.001544,0.058564,113.325000,1,130.581659,84.260094,3.360862,21.730925,0.056697
40,6.510000,67.922679,422.854883,43.822596,105.529711,2.953418,2.113569,0.001934,0.058354,118.825000,1,131.167785,84.291282,3.366191,21.586453,0.038115
41,600.819000,66.851829,428.081836,43.760799,105.564931,2.505565,2.144139,0.002249,0.058837,118.900000,0,131.091451,84.633854,3.367224,20.135682,-1.000000
42,2.827000,66.921824,461.390039,44.512385,105.555234,3.438758,2.145040,0.001761,0.058571,120.200000,0,136.734667,84.797628,3.302791,20.608984,-1.000000
43,600.832000,67.027233,465.972266,43.517093,105.554878,2.823702,2.143372,0.001813,0.057997,120.575000,0,137.368294,84.591527,3.306442,21.334988,-1.000000
44,600.771000,66.525816,498.855078,44.311804,105.659392,3.060082,2.136419,0.001798,0.057919,121.775000,0,144.945094,84.653098,3.280859,20.958970,-1.000000
45,3.516000,67.673144,530.411523,44.136544,105.701760,2.974877,2.145697,0.002051,0.066820,122.925000,1,155.192719,84.341354,3.245821,20.819676,0.094812
46,600.799000,67.730376,535.180078,44.092027,105.724877,2.468291,2.196793,0.002091,0.059617,124.375000,0,156.876741,84.915323,3.237882,20.416753,-1.000000
47,600.863000,66.333509,566.948437,43.974024,105.775355,2.718109,2.190860,0.003036,0.060429,124.575000,0,168.152481,84.966532,3.225983,21.486764,-1.000000
48,600.825000,67.928804,597.897852,45.232690,105.930138,3.417308,2.190869,0.002193,0.057514,125.475000,0,180.606208,84.899112,3.180579,20.848182,-1.000000
49,600.813000,65.924856,630.024023,45.094068,105.989427,3.487627,2.178557,0.001865,0.058441,127.050000,0,194.384309,85.411920,3.073514,19.956648,-1.000000
4,600.778000,66.814507,662.108398,44.647075,106.088714,2.814504,2.370437,0.001933,0.059190,127.650000,0,208.846895,84.087124,3.106251,21.029864,-1.000000
5,600.789000,67.543048,692.125586,45.004687,106.168325,2.734333,2.325839,0.002955,0.059741,130.025000,0,223.086673,84.496867,3.157920,22.078533,-1.000000
6,600.866000,66.624754,723.254883,45.310666,105.539239,3.352137,2.340404,0.001676,0.058469,128.975000,0,237.603877,84.405756,3.781732,20.450723,-1.000000
7,12.295000,67.042875,755.135742,45.867310,105.604443,3.447719,2.376403,0.002755,0.057617,127.375000,1,252.824560,84.266891,3.998655,22.577006,0.004000
8,3.433000,63.299027,762.124414,51.900771,105.882104,3.159912,2.248349,0.002647,0.058021,123.850000,0,256.254636,79.292577,4.139262,24.079079,-1.000000
9,600.780000,64.035603,769.129102,52.175243,105.923077,3.149913,2.283383,0.001940,0.058092,123.600000,0,259.756309,78.990649,4.253195,23.861606,-1.000000
