Application,Deploy Time, G5K CPU usage, G5K RAM usage, A8 CPU usage, A8 RAM usage, G5K Bandwidth, A8 Bandwidth, G5K Latency, A8 Latency, Processed Tokens, Accepted, G5K RAM stddev, A8 CPU stddev, A8 RAM stddev, G5K CPU stddev,App Latency
0,8.082000,13.338103,223.233347,15.489288,101.427313,0.663560,0.083234,0.002895,0.040051,0.000000,1,142.283717,97.674147,3.479637,15.516940,0.037106
10,4.292000,9.845933,225.659539,14.446240,101.394506,0.547903,0.219940,0.003123,0.039662,8.142187,1,142.730681,92.408606,3.452609,7.870877,0.037940
11,3.730000,11.046741,226.797903,14.581654,101.413582,0.503442,0.281051,0.004542,0.040540,10.563598,1,141.955151,90.919837,3.496104,6.112422,0.037198
12,7.584000,13.196775,228.006990,15.435367,101.469370,0.248688,0.345472,0.004612,0.039491,14.130849,1,141.396895,89.010564,3.517905,10.929617,0.037111
13,6.952000,12.062459,229.730263,16.350058,101.518866,0.184169,0.363318,0.003414,0.050302,15.479541,1,140.097952,88.075701,3.545095,10.633971,0.037438
14,10.563000,16.653252,231.497738,17.435721,101.570884,0.716018,0.425906,0.003507,0.040343,17.509013,1,139.395535,88.062443,3.579476,13.552285,0.038012
15,13.107000,16.148749,233.609992,18.971566,101.642635,0.712389,0.591582,0.003954,0.052252,26.413732,1,138.107013,85.610274,3.580356,11.506809,0.038166
16,6.333000,21.166057,237.177015,19.327957,101.709945,0.575824,0.773263,0.003423,0.050485,35.528292,1,137.718425,84.386281,3.572942,21.711971,0.037292
17,9.112000,24.255272,239.166530,19.480758,101.757691,0.157758,0.849022,0.004785,0.040908,39.525000,1,137.358368,84.110091,3.569083,22.524922,0.036703
18,3.614000,25.075608,241.965049,20.219898,101.831521,0.131314,1.043399,0.003722,0.040542,48.275000,1,137.302081,82.962795,3.596885,28.059401,0.037407
19,4.287000,27.471775,243.613898,21.381470,101.892425,0.697826,1.058455,0.003269,0.041329,49.000000,1,137.465971,82.456036,3.632827,27.167396,0.038264
1,13.341000,30.597666,245.769120,22.585519,101.938342,0.664661,1.138962,0.003511,0.041907,52.105168,1,137.014430,81.614238,3.637172,28.535745,0.037307
20,12.816000,31.516997,249.947780,23.811457,102.004787,0.752780,1.210119,0.004690,0.041291,56.072800,1,136.582630,81.933071,3.642035,28.662961,0.037091
21,4.155000,34.370533,253.421875,23.417613,102.067190,0.102073,1.287658,0.003696,0.040883,60.056760,1,135.550624,82.022741,3.618939,28.476743,0.037959
22,15.831000,34.930583,256.186266,23.651239,102.104715,0.097359,1.328669,0.003850,0.041080,61.924287,1,135.763750,81.298329,3.621989,26.218651,0.037898
23,9.050000,36.815472,260.496505,25.079328,102.155945,0.515782,1.430959,0.003220,0.041403,68.275000,1,135.360353,80.894927,3.622900,28.839167,0.037109
24,4.897000,38.332572,264.205181,26.297475,102.213179,0.496241,1.508656,0.003440,0.041476,72.185118,1,135.024298,80.629917,3.620811,27.368573,0.037981
25,14.479000,41.715770,267.623972,27.662882,102.262941,0.823869,1.606202,0.002765,0.041899,77.550000,1,135.497690,80.525549,3.604241,29.462326,0.037140
26,5.689000,42.734959,271.807360,27.722354,102.330159,0.188517,1.712526,0.003214,0.042051,82.375000,1,136.588973,80.484412,3.607064,29.617315,0.037199
27,6.165000,41.743716,274.891653,27.634374,102.374373,0.218130,1.742349,0.003372,0.041465,84.275150,1,136.924462,79.992851,3.607018,29.473473,0.097259
28,4.145000,47.235939,278.006990,28.549221,102.435022,0.445809,1.860933,0.003540,0.044217,89.018217,0,137.041304,79.833617,3.610592,31.617740,-1.000000
29,4.318000,46.674859,280.410979,29.052213,102.489172,0.417581,1.855700,0.003733,0.044129,89.300000,0,137.451114,79.679964,3.613976,31.164342,-1.000000
2,5.830000,45.277438,282.415913,29.134418,102.518116,0.394689,1.838009,0.003322,0.044936,89.250000,1,137.623235,79.652164,3.620056,31.662744,0.037235
30,2.319000,50.990384,285.679276,30.345113,102.508195,0.833787,1.924323,0.001879,0.048197,93.074662,0,137.617630,79.483454,3.651652,32.697015,-1.000000
31,3.688000,51.032438,288.126234,30.403492,102.530363,0.819858,1.927831,0.002272,0.046978,93.075000,1,137.937423,79.856709,3.669426,31.156506,0.051026
32,2.297000,53.301194,291.361637,31.035642,102.559750,0.798023,1.964072,0.003014,0.048404,94.687467,0,137.551506,80.111214,3.692260,30.311407,-1.000000
33,3.269000,53.819235,293.780839,30.840574,102.588671,0.370051,1.968933,0.003027,0.048660,94.750000,0,138.001388,80.124200,3.710970,30.705973,-1.000000
34,10.728000,52.472378,296.078536,30.205950,102.614798,0.415650,1.957545,0.003445,0.048277,94.625000,1,138.127156,79.787515,3.724474,31.454631,0.037133
35,7.550000,54.535751,300.629112,30.789821,102.621644,0.267309,2.055540,0.003903,0.048255,99.043350,1,137.358568,79.659002,3.739227,28.778114,0.039049
36,7.213000,58.795770,305.340666,31.675071,102.662823,0.269523,2.097157,0.002128,0.052265,101.190345,1,136.713484,79.498910,3.732953,31.184905,0.038011
37,6.719000,61.940379,309.440173,32.471811,102.693770,0.702610,2.169054,0.002963,0.052461,103.700000,1,137.455948,79.436562,3.736553,31.893501,0.037420
38,11.156000,62.325067,313.388569,33.518936,102.709755,0.724431,2.222972,0.002659,0.051895,104.325000,1,138.351741,80.034186,3.698004,29.949170,0.037914
39,8.673000,61.435223,318.721423,34.052335,102.744832,0.546649,2.348908,0.002935,0.052316,109.992207,1,137.354171,80.079516,3.690130,29.909712,0.036543
3,7.012000,64.609291,323.517270,33.919935,102.796275,0.559574,2.398145,0.002206,0.052285,113.700000,1,137.151134,80.103802,3.714513,29.342653,0.037090
40,4.133000,64.947566,327.867599,34.459731,102.833222,0.185475,2.461419,0.001779,0.052291,117.600000,1,137.081093,80.336412,3.723187,29.082223,0.092054
41,3.477000,65.962487,331.968544,35.136472,102.880263,0.190691,2.479225,0.002281,0.053437,118.200000,0,137.033074,80.563562,3.719151,28.590308,-1.000000
42,2.838000,64.973577,334.830181,34.979451,102.910549,0.189509,2.494758,0.001741,0.052882,118.725226,0,137.314336,80.677256,3.710895,27.675239,-1.000000
43,5.529000,65.287435,337.829770,35.115920,102.923323,0.666092,2.485525,0.002017,0.052864,118.300000,1,137.763472,80.212626,3.705254,27.857167,0.037300
44,10.399000,67.449064,342.114309,36.622920,102.941463,0.624613,2.539968,0.001356,0.052857,121.075000,1,137.238397,80.538528,3.700186,26.169092,0.038402
45,3.356000,67.318565,347.784745,37.244999,102.946313,0.744108,2.637045,0.002467,0.052628,125.950000,1,137.899467,81.398745,3.699819,26.706849,0.037220
46,3.294000,69.688040,351.691406,37.569567,102.956967,0.782445,2.647322,0.002552,0.054067,126.900000,0,138.276126,81.319230,3.686147,26.022636,-1.000000
47,3.023000,67.812111,354.858758,37.150821,102.989874,0.787546,2.657337,0.001878,0.052654,127.275000,0,138.704466,81.059505,3.677238,25.870428,-1.000000
48,4.169000,70.188971,358.048931,36.710138,103.001152,0.117987,2.664269,0.001684,0.143582,127.375000,0,139.162256,80.932501,3.668998,24.730297,-1.000000
49,4.180000,68.883698,361.306743,36.539144,103.014249,0.143342,2.689790,0.002378,0.054260,127.000000,0,139.328917,81.184835,3.668563,24.990292,-1.000000
4,4.141000,67.621218,364.530222,36.826263,103.005209,0.147508,2.671762,0.001869,0.053142,127.250000,0,139.892904,81.092396,3.675567,23.922237,-1.000000
5,3.079000,67.998671,367.774054,36.811835,103.002534,0.491994,2.661589,0.002320,0.054829,127.100000,0,140.504187,81.260523,3.673156,24.680705,-1.000000
6,4.593000,69.008336,371.106497,37.150081,103.013194,0.444355,2.668288,0.002481,0.053702,127.500000,0,140.972880,81.164570,3.668865,25.456505,-1.000000
7,13.381000,68.888669,374.293791,37.659824,103.014715,0.914561,2.644672,0.001877,0.053417,127.175000,1,141.404552,81.137673,3.665830,24.993068,0.099957
8,2.227000,69.753214,380.374589,38.031475,103.003638,0.899713,2.775901,0.002882,0.054194,133.624774,0,141.773531,81.661051,3.674126,25.916621,-1.000000
9,3.946000,70.522342,383.921053,38.107846,103.005722,0.196214,2.768531,0.002367,0.054320,134.025000,0,142.437174,81.604395,3.676595,22.545257,-1.000000
