Application,Deploy Time, G5K CPU usage, G5K RAM usage, A8 CPU usage, A8 RAM usage, G5K Bandwidth, A8 Bandwidth, G5K Latency, A8 Latency, Processed Tokens, Accepted, G5K RAM stddev, A8 CPU stddev, A8 RAM stddev, G5K CPU stddev,App Latency
0,9.780000,9.727349,223.591016,13.482215,101.239524,0.295856,0.057943,0.005052,0.427538,0.000000,1,145.774721,98.387547,2.731447,13.630078,0.038831
10,4.362000,7.956670,224.925781,12.883622,101.234891,0.276246,0.219516,0.005377,0.427950,7.999053,1,145.766211,98.092883,2.771015,4.426255,0.040427
11,3.770000,9.534197,226.014648,13.325468,101.213192,0.778127,0.270037,0.007489,0.427756,10.626242,1,145.603370,98.362046,2.836998,5.165271,0.039349
12,7.543000,10.938616,228.182422,14.697105,101.215358,0.732425,0.337620,0.005229,0.428883,13.941158,1,145.105585,98.308438,2.837453,8.894265,0.038557
13,7.401000,12.223896,229.232812,15.216602,101.220864,0.695239,0.374868,0.005625,0.428381,15.525564,1,143.779466,98.680682,2.843013,11.018700,0.041040
14,10.269000,12.597204,231.105273,13.454967,101.229990,0.507075,0.408233,0.004906,0.428162,17.345403,1,143.507452,97.918441,2.840478,10.223603,0.040064
15,13.272000,15.577296,233.349609,18.089184,101.330896,0.240621,0.603879,0.005104,0.428462,26.634526,1,142.615868,82.402954,3.002475,10.223647,0.039588
16,6.311000,19.672423,236.468750,18.578779,101.466938,0.251575,0.769995,0.005372,0.429051,35.558810,1,142.426024,82.247741,3.263926,21.647745,0.039607
17,8.840000,19.671362,238.700977,19.868052,101.517329,0.602661,0.837956,0.003662,0.429068,39.600000,1,142.482482,81.842615,3.325129,20.268794,0.039772
18,3.848000,24.018997,241.571484,20.966164,101.551224,0.603821,1.034272,0.005891,0.428707,48.150000,1,142.885645,83.361144,3.313227,27.213079,0.050294
19,4.503000,24.509566,243.127148,20.784393,101.562624,0.629571,1.058674,0.004518,0.428375,48.875000,1,143.166679,83.440260,3.320523,27.092965,0.039106
1,12.327000,25.533563,245.148438,18.838123,101.561559,0.603327,1.132477,0.004483,0.428577,52.225000,1,143.223593,83.260820,3.319313,26.764539,0.039901
20,9.584000,29.040563,248.870117,18.506556,101.567347,0.146303,1.211014,0.003337,0.429434,56.134870,1,142.621059,83.388212,3.325187,30.571390,0.038810
21,4.196000,30.384521,251.924219,21.634732,101.601652,0.143450,1.281531,0.003079,0.431496,60.100245,1,142.429945,81.353717,3.337863,29.344845,0.040098
22,15.061000,32.075475,254.667969,22.032415,101.662430,0.677216,1.317043,0.003395,0.435739,61.694621,1,142.268612,81.270006,3.360599,29.778248,0.059457
23,11.077000,32.617408,258.746094,22.622971,101.714897,1.054678,1.436272,0.003831,0.434182,67.792840,1,141.244891,81.332273,3.388387,27.378441,0.040861
24,4.770000,35.819130,262.763477,23.110172,101.778710,1.086169,1.518803,0.003681,0.435098,71.991147,1,139.946302,82.103351,3.416784,27.966868,0.039532
25,14.346000,39.435710,265.914648,22.824227,101.768520,0.509753,1.620272,0.004606,0.431807,77.600000,1,140.056704,81.841225,3.424986,31.423209,0.042809
26,5.526000,40.216593,270.425781,25.065658,101.857901,0.845147,1.709951,0.004033,0.430174,82.375000,1,140.148528,80.608473,3.380570,31.720928,0.041689
27,4.351000,40.853458,273.063086,25.547650,101.904102,0.805407,1.745449,0.003966,0.434926,84.250000,0,140.263137,80.225755,3.361282,31.162110,-1.000000
28,4.057000,40.814000,275.036523,25.620269,101.939986,0.763391,1.747920,0.004823,0.434490,84.450000,0,140.176412,79.989142,3.332721,30.226459,-1.000000
29,3.868000,39.093194,277.274219,25.772141,101.944106,1.285546,1.740784,0.004268,0.430196,84.525000,0,140.509094,79.944935,3.313118,29.821074,-1.000000
2,5.783000,40.741080,279.201758,26.532384,101.940874,1.298155,1.734435,0.003859,0.431095,84.150000,1,140.740519,79.722414,3.308651,30.751131,0.041736
30,2.317000,42.004741,282.365234,29.975325,102.011186,1.317711,1.822054,0.004356,0.430729,88.175000,0,141.041072,79.647023,3.286107,30.804043,-1.000000
31,4.006000,44.072743,284.625586,29.830387,102.079936,0.515655,1.838970,0.005207,0.431371,88.300000,1,141.418973,79.024291,3.277772,30.240880,0.039514
32,2.329000,41.877613,287.899219,28.737042,102.139577,0.537083,1.855918,0.003999,0.430829,89.825000,0,142.270845,79.106462,3.280319,30.966141,-1.000000
33,3.206000,43.786747,289.902734,27.833218,102.162961,0.578239,1.862664,0.006688,0.430937,89.950000,0,142.741189,78.911486,3.284886,29.093042,-1.000000
34,8.853000,42.757897,292.114453,27.535031,102.190466,0.641421,1.860247,0.004598,0.430976,89.775000,1,143.273809,78.782671,3.280247,32.728811,0.041852
35,8.107000,43.014003,296.190820,28.934021,102.148206,0.675055,1.954338,0.003918,0.430761,94.828290,1,142.913315,79.558290,3.300597,31.281408,0.038626
36,7.965000,47.830937,300.263477,30.970129,102.185813,0.677771,1.991490,0.003559,0.433344,96.245125,1,142.490846,79.513975,3.317649,32.056928,0.038103
37,6.073000,52.117342,304.409570,32.473970,102.229225,1.141593,2.073599,0.003353,0.436024,98.058822,1,142.153102,79.545061,3.342604,32.954099,0.038996
38,13.477000,53.484818,307.875781,32.274370,102.270294,1.167139,2.127334,0.004070,0.436997,100.896627,1,142.042219,80.301053,3.355967,31.403834,0.038393
39,8.338000,55.087947,313.559961,33.876207,102.326740,0.698062,2.249837,0.003547,0.436891,106.692763,1,140.355862,79.325206,3.375278,29.600088,0.037449
3,7.388000,56.968426,317.595117,36.106982,102.365004,0.632526,2.290532,0.003086,0.438163,109.903067,1,139.793308,80.281500,3.448239,30.262421,0.038624
40,4.516000,59.620608,321.805078,36.895598,102.378267,0.639851,2.390039,0.002630,0.438356,114.250000,1,138.455146,79.928820,3.553223,28.606047,0.038095
41,3.405000,57.484759,325.036523,38.731656,102.421076,0.591540,2.392094,0.002296,0.438774,114.525000,0,138.415271,81.072253,3.579444,27.233346,-1.000000
42,2.774000,57.672498,327.885352,38.967621,102.460902,1.083165,2.378628,0.002887,0.438831,114.775000,0,138.490929,81.934456,3.587397,28.560847,-1.000000
43,5.912000,58.814913,330.525586,40.533284,102.477753,1.062198,2.390455,0.002900,0.439125,114.850000,1,138.504408,82.127743,3.587622,30.676506,0.039860
44,11.470000,60.590408,334.417188,40.477855,102.539855,1.020608,2.450299,0.003335,0.438315,117.900000,1,139.074931,82.379145,3.611853,28.237240,0.040157
45,3.413000,61.879397,339.564258,38.913788,102.532298,1.227164,2.429668,0.002830,0.440583,119.775000,1,138.503136,82.216263,3.612121,28.073620,0.039530
46,3.615000,64.888889,343.022266,38.161648,102.541175,1.254605,2.487045,0.002214,0.441697,121.350000,0,138.983473,82.325773,3.603646,27.908757,-1.000000
47,2.887000,63.159562,345.880664,37.703112,102.545404,0.847369,2.472952,0.003188,0.451899,120.925000,0,139.531834,81.792455,3.612474,28.295833,-1.000000
48,4.367000,63.441277,348.653516,38.477740,102.532670,0.815495,2.483530,0.002726,0.441379,121.375000,0,139.513554,81.655374,3.610845,28.232731,-1.000000
49,4.104000,62.998411,351.677539,37.279118,102.530016,0.801348,2.475867,0.002471,0.440657,121.600000,0,139.819798,81.916640,3.616288,28.806113,-1.000000
4,4.276000,64.464286,354.618359,38.104609,102.425125,0.787845,2.479808,0.002472,0.440572,121.650000,0,140.356503,81.609290,3.568204,27.101281,-1.000000
5,3.123000,62.703744,357.579297,37.933958,102.394833,1.272835,2.457425,0.002246,0.441503,121.625000,0,141.109264,82.577677,3.562526,28.147036,-1.000000
6,4.666000,65.143539,360.730469,39.413338,102.411115,1.243299,2.478000,0.002806,0.441565,121.025000,0,141.560198,82.198486,3.577176,27.470040,-1.000000
7,11.592000,63.489474,363.605859,39.455644,102.349059,1.206129,2.466396,0.001783,0.440799,121.075000,1,142.155312,81.746902,3.534185,28.471868,0.038492
8,2.304000,64.996687,369.551367,42.777867,102.360049,1.408445,2.582349,0.002227,0.441666,127.625000,0,141.546558,82.653473,3.464574,27.089213,-1.000000
9,3.510000,61.988919,372.473242,43.387468,102.400781,1.471641,2.599577,0.001808,0.440649,128.050000,0,142.058507,83.703448,3.395612,27.672368,-1.000000
