N_app,N_run,Iteration,Container,Response Time
2,1,1,bcddaee63f88,2.60839
2,1,2,a3b73c6af3df,1.98521
2,1,3,195fa63e5a92,2.93409
2,1,4,ba1b681cf92f,2.57028
2,1,5,eca8baf286c0,1.95547
2,1,6,cb91e983349c,1.49925
2,1,7,c24f75ad8737,3.35047
2,1,8,784577e88704,3.22837
2,1,9,41559e3c85f4,2.59149
2,1,10,9d0ca702bcea,1.95704
2,1,11,67471dc224f9,1.49483
2,1,12,bcb24aaffc11,1.98489
2,1,13,55635f3ee7ec,1.95307
2,1,14,8bab3603579e,2.88413
2,1,15,6e60dcc7a8d8,2.65446
2,1,16,594eb2e65841,4.68371
2,1,17,12d9541b8800,1.98441
2,1,18,3fd8f937df82,3.83354
2,1,19,d274b8587ae7,4.08268
2,1,20,c2ce5beea37b,3.18451
2,1,21,87e73d35fac2,1.95909
2,1,22,15ec08d3cccb,3.70428
2,1,23,efa65672ff8b,2.90631
2,1,24,c47f8b6aa0a1,3.38448
2,1,25,603618cd34ff,1.92552
2,1,26,59de404d4536,2.23445
2,1,27,d4186d2e8757,1.98654
2,1,28,54bfccc549f0,3.83062
2,1,29,b8121b85e59e,2.57311
2,1,30,83a68e593f66,2.82449
