date,trigger,state
2020-02-27 04:37:07,aab6d342-54d5-4d0f-a277-ea2ea0e1d6da,A
2020-02-27 04:39:11,aab6d342-54d5-4d0f-a277-ea2ea0e1d6da,S
2020-02-27 04:40:09,aab6d342-54d5-4d0f-a277-ea2ea0e1d6da,A
2020-02-27 04:40:26,aab6d342-54d5-4d0f-a277-ea2ea0e1d6da,S
2020-02-27 04:49:32,aab6d342-54d5-4d0f-a277-ea2ea0e1d6da,A
2020-02-27 05:02:28,aab6d342-54d5-4d0f-a277-ea2ea0e1d6da,S
2020-02-27 05:07:01,aab6d342-54d5-4d0f-a277-ea2ea0e1d6da,A
2020-02-27 05:08:26,aab6d342-54d5-4d0f-a277-ea2ea0e1d6da,S
2020-02-27 05:12:37,aab6d342-54d5-4d0f-a277-ea2ea0e1d6da,A
2020-02-27 05:15:44,aab6d342-54d5-4d0f-a277-ea2ea0e1d6da,S
2020-02-27 05:21:51,aab6d342-54d5-4d0f-a277-ea2ea0e1d6da,A
2020-02-27 05:38:38,aab6d342-54d5-4d0f-a277-ea2ea0e1d6da,S
2020-02-27 05:49:11,aab6d342-54d5-4d0f-a277-ea2ea0e1d6da,A
2020-02-27 05:50:18,aab6d342-54d5-4d0f-a277-ea2ea0e1d6da,S
2020-02-27 05:50:40,aab6d342-54d5-4d0f-a277-ea2ea0e1d6da,A
2020-02-27 06:02:38,aab6d342-54d5-4d0f-a277-ea2ea0e1d6da,S
2020-02-27 06:03:11,aab6d342-54d5-4d0f-a277-ea2ea0e1d6da,A
2020-02-27 06:05:01,aab6d342-54d5-4d0f-a277-ea2ea0e1d6da,S
2020-02-27 06:08:14,aab6d342-54d5-4d0f-a277-ea2ea0e1d6da,A
2020-02-27 06:11:59,aab6d342-54d5-4d0f-a277-ea2ea0e1d6da,S
2020-02-27 06:16:39,aab6d342-54d5-4d0f-a277-ea2ea0e1d6da,A
2020-02-27 06:18:04,aab6d342-54d5-4d0f-a277-ea2ea0e1d6da,S
2020-02-27 06:20:15,aab6d342-54d5-4d0f-a277-ea2ea0e1d6da,A
2020-02-27 06:27:17,aab6d342-54d5-4d0f-a277-ea2ea0e1d6da,S
2020-02-27 06:33:23,aab6d342-54d5-4d0f-a277-ea2ea0e1d6da,A
2020-02-27 06:37:20,aab6d342-54d5-4d0f-a277-ea2ea0e1d6da,S
2020-02-27 06:40:40,aab6d342-54d5-4d0f-a277-ea2ea0e1d6da,A
2020-02-27 06:42:14,aab6d342-54d5-4d0f-a277-ea2ea0e1d6da,S
2020-02-27 06:42:25,aab6d342-54d5-4d0f-a277-ea2ea0e1d6da,A
2020-02-27 06:44:45,aab6d342-54d5-4d0f-a277-ea2ea0e1d6da,S
2020-02-27 06:49:01,aab6d342-54d5-4d0f-a277-ea2ea0e1d6da,A
2020-02-27 06:51:55,aab6d342-54d5-4d0f-a277-ea2ea0e1d6da,S
2020-02-27 06:52:50,aab6d342-54d5-4d0f-a277-ea2ea0e1d6da,A
2020-02-27 07:03:14,aab6d342-54d5-4d0f-a277-ea2ea0e1d6da,S
2020-02-27 07:03:18,aab6d342-54d5-4d0f-a277-ea2ea0e1d6da,A
2020-02-27 07:03:50,aab6d342-54d5-4d0f-a277-ea2ea0e1d6da,S
2020-02-27 07:04:19,aab6d342-54d5-4d0f-a277-ea2ea0e1d6da,A
2020-02-27 07:04:32,aab6d342-54d5-4d0f-a277-ea2ea0e1d6da,S
2020-02-27 04:13:23,848d5419-1d69-4932-97e8-fca106607aac,S
2020-02-27 04:16:17,848d5419-1d69-4932-97e8-fca106607aac,A
2020-02-27 04:17:24,848d5419-1d69-4932-97e8-fca106607aac,S
2020-02-27 04:19:56,848d5419-1d69-4932-97e8-fca106607aac,A
2020-02-27 04:20:55,848d5419-1d69-4932-97e8-fca106607aac,S
2020-02-27 04:23:00,848d5419-1d69-4932-97e8-fca106607aac,A
2020-02-27 04:24:22,848d5419-1d69-4932-97e8-fca106607aac,S
2020-02-27 04:30:55,848d5419-1d69-4932-97e8-fca106607aac,A
2020-02-27 04:32:22,848d5419-1d69-4932-97e8-fca106607aac,S
2020-02-27 04:33:10,848d5419-1d69-4932-97e8-fca106607aac,A
2020-02-27 04:33:40,848d5419-1d69-4932-97e8-fca106607aac,S
2020-02-27 04:36:31,848d5419-1d69-4932-97e8-fca106607aac,A
2020-02-27 04:41:38,848d5419-1d69-4932-97e8-fca106607aac,S
2020-02-27 04:57:05,848d5419-1d69-4932-97e8-fca106607aac,A
2020-02-27 05:06:08,848d5419-1d69-4932-97e8-fca106607aac,S
2020-02-27 05:15:51,848d5419-1d69-4932-97e8-fca106607aac,A
2020-02-27 05:24:22,848d5419-1d69-4932-97e8-fca106607aac,S
2020-02-27 05:25:07,848d5419-1d69-4932-97e8-fca106607aac,A
2020-02-27 05:25:26,848d5419-1d69-4932-97e8-fca106607aac,S
2020-02-27 05:34:05,848d5419-1d69-4932-97e8-fca106607aac,A
2020-02-27 05:37:04,848d5419-1d69-4932-97e8-fca106607aac,S
2020-02-27 05:37:06,848d5419-1d69-4932-97e8-fca106607aac,A
2020-02-27 05:38:17,848d5419-1d69-4932-97e8-fca106607aac,S
2020-02-27 05:40:07,848d5419-1d69-4932-97e8-fca106607aac,A
2020-02-27 05:41:58,848d5419-1d69-4932-97e8-fca106607aac,S
2020-02-27 05:42:57,848d5419-1d69-4932-97e8-fca106607aac,A
2020-02-27 05:44:40,848d5419-1d69-4932-97e8-fca106607aac,S
2020-02-27 05:53:56,848d5419-1d69-4932-97e8-fca106607aac,A
2020-02-27 05:56:03,848d5419-1d69-4932-97e8-fca106607aac,S
2020-02-27 05:57:01,848d5419-1d69-4932-97e8-fca106607aac,A
2020-02-27 05:59:29,848d5419-1d69-4932-97e8-fca106607aac,S
2020-02-27 06:08:14,848d5419-1d69-4932-97e8-fca106607aac,A
2020-02-27 06:10:31,848d5419-1d69-4932-97e8-fca106607aac,S
2020-02-27 06:15:23,848d5419-1d69-4932-97e8-fca106607aac,A
2020-02-27 06:15:31,848d5419-1d69-4932-97e8-fca106607aac,S
2020-02-27 06:16:09,848d5419-1d69-4932-97e8-fca106607aac,A
2020-02-27 06:19:39,848d5419-1d69-4932-97e8-fca106607aac,S
2020-02-27 06:21:05,848d5419-1d69-4932-97e8-fca106607aac,A
2020-02-27 06:26:44,848d5419-1d69-4932-97e8-fca106607aac,S
2020-02-27 06:27:12,848d5419-1d69-4932-97e8-fca106607aac,A
2020-02-27 06:42:52,848d5419-1d69-4932-97e8-fca106607aac,S
2020-02-27 06:43:57,848d5419-1d69-4932-97e8-fca106607aac,A
2020-02-27 06:46:01,848d5419-1d69-4932-97e8-fca106607aac,S
2020-02-27 06:50:10,848d5419-1d69-4932-97e8-fca106607aac,A
2020-02-27 06:56:43,848d5419-1d69-4932-97e8-fca106607aac,S
2020-02-27 06:56:59,848d5419-1d69-4932-97e8-fca106607aac,A
2020-02-27 04:11:27,7812dc9c-3f03-47da-bafd-d69c680e4f94,A
2020-02-27 04:19:13,7812dc9c-3f03-47da-bafd-d69c680e4f94,S
2020-02-27 04:24:20,7812dc9c-3f03-47da-bafd-d69c680e4f94,A
2020-02-27 04:40:27,7812dc9c-3f03-47da-bafd-d69c680e4f94,S
2020-02-27 04:41:40,7812dc9c-3f03-47da-bafd-d69c680e4f94,A
2020-02-27 04:46:29,7812dc9c-3f03-47da-bafd-d69c680e4f94,S
2020-02-27 04:47:34,7812dc9c-3f03-47da-bafd-d69c680e4f94,A
2020-02-27 04:50:22,7812dc9c-3f03-47da-bafd-d69c680e4f94,S
2020-02-27 04:55:33,7812dc9c-3f03-47da-bafd-d69c680e4f94,A
2020-02-27 04:57:44,7812dc9c-3f03-47da-bafd-d69c680e4f94,S
2020-02-27 05:01:13,7812dc9c-3f03-47da-bafd-d69c680e4f94,A
2020-02-27 05:06:48,7812dc9c-3f03-47da-bafd-d69c680e4f94,S
2020-02-27 05:17:19,7812dc9c-3f03-47da-bafd-d69c680e4f94,A
2020-02-27 05:22:59,7812dc9c-3f03-47da-bafd-d69c680e4f94,S
2020-02-27 05:24:57,7812dc9c-3f03-47da-bafd-d69c680e4f94,A
2020-02-27 05:26:59,7812dc9c-3f03-47da-bafd-d69c680e4f94,S
2020-02-27 05:35:16,7812dc9c-3f03-47da-bafd-d69c680e4f94,A
2020-02-27 05:37:25,7812dc9c-3f03-47da-bafd-d69c680e4f94,S
2020-02-27 05:42:20,7812dc9c-3f03-47da-bafd-d69c680e4f94,A
2020-02-27 05:45:18,7812dc9c-3f03-47da-bafd-d69c680e4f94,S
2020-02-27 05:46:26,7812dc9c-3f03-47da-bafd-d69c680e4f94,A
2020-02-27 05:51:21,7812dc9c-3f03-47da-bafd-d69c680e4f94,S
2020-02-27 05:54:14,7812dc9c-3f03-47da-bafd-d69c680e4f94,A
2020-02-27 05:58:03,7812dc9c-3f03-47da-bafd-d69c680e4f94,S
2020-02-27 06:00:23,7812dc9c-3f03-47da-bafd-d69c680e4f94,A
2020-02-27 06:04:09,7812dc9c-3f03-47da-bafd-d69c680e4f94,S
2020-02-27 06:09:35,7812dc9c-3f03-47da-bafd-d69c680e4f94,A
2020-02-27 06:10:42,7812dc9c-3f03-47da-bafd-d69c680e4f94,S
2020-02-27 06:16:26,7812dc9c-3f03-47da-bafd-d69c680e4f94,A
2020-02-27 06:17:23,7812dc9c-3f03-47da-bafd-d69c680e4f94,S
2020-02-27 06:18:53,7812dc9c-3f03-47da-bafd-d69c680e4f94,A
2020-02-27 06:19:25,7812dc9c-3f03-47da-bafd-d69c680e4f94,S
2020-02-27 06:22:45,7812dc9c-3f03-47da-bafd-d69c680e4f94,A
2020-02-27 06:24:14,7812dc9c-3f03-47da-bafd-d69c680e4f94,S
2020-02-27 06:37:27,7812dc9c-3f03-47da-bafd-d69c680e4f94,A
2020-02-27 06:46:55,7812dc9c-3f03-47da-bafd-d69c680e4f94,S
2020-02-27 06:48:26,7812dc9c-3f03-47da-bafd-d69c680e4f94,A
2020-02-27 06:48:50,7812dc9c-3f03-47da-bafd-d69c680e4f94,S
2020-02-27 06:49:25,7812dc9c-3f03-47da-bafd-d69c680e4f94,A
2020-02-27 06:59:03,7812dc9c-3f03-47da-bafd-d69c680e4f94,S
2020-02-27 04:38:43,2e8966ea-27d1-4a26-972b-4afa3d1a8acd,A
2020-02-27 04:41:32,2e8966ea-27d1-4a26-972b-4afa3d1a8acd,S
2020-02-27 04:51:19,2e8966ea-27d1-4a26-972b-4afa3d1a8acd,A
2020-02-27 04:57:25,2e8966ea-27d1-4a26-972b-4afa3d1a8acd,S
2020-02-27 05:06:36,2e8966ea-27d1-4a26-972b-4afa3d1a8acd,A
2020-02-27 05:15:43,2e8966ea-27d1-4a26-972b-4afa3d1a8acd,S
2020-02-27 05:34:12,2e8966ea-27d1-4a26-972b-4afa3d1a8acd,A
2020-02-27 05:35:40,2e8966ea-27d1-4a26-972b-4afa3d1a8acd,S
2020-02-27 05:39:12,2e8966ea-27d1-4a26-972b-4afa3d1a8acd,A
2020-02-27 05:48:17,2e8966ea-27d1-4a26-972b-4afa3d1a8acd,S
2020-02-27 05:52:29,2e8966ea-27d1-4a26-972b-4afa3d1a8acd,A
2020-02-27 05:55:07,2e8966ea-27d1-4a26-972b-4afa3d1a8acd,S
2020-02-27 06:04:37,2e8966ea-27d1-4a26-972b-4afa3d1a8acd,A
2020-02-27 06:09:37,2e8966ea-27d1-4a26-972b-4afa3d1a8acd,S
2020-02-27 06:11:49,2e8966ea-27d1-4a26-972b-4afa3d1a8acd,A
2020-02-27 06:12:35,2e8966ea-27d1-4a26-972b-4afa3d1a8acd,S
2020-02-27 06:15:42,2e8966ea-27d1-4a26-972b-4afa3d1a8acd,A
2020-02-27 06:19:57,2e8966ea-27d1-4a26-972b-4afa3d1a8acd,S
2020-02-27 06:29:50,2e8966ea-27d1-4a26-972b-4afa3d1a8acd,A
2020-02-27 06:47:50,2e8966ea-27d1-4a26-972b-4afa3d1a8acd,S
2020-02-27 06:48:22,2e8966ea-27d1-4a26-972b-4afa3d1a8acd,A
2020-02-27 06:51:47,2e8966ea-27d1-4a26-972b-4afa3d1a8acd,S
2020-02-27 06:54:33,2e8966ea-27d1-4a26-972b-4afa3d1a8acd,A
2020-02-27 07:05:40,2e8966ea-27d1-4a26-972b-4afa3d1a8acd,S
2020-02-27 04:20:03,c0a54231-df6b-42cc-8c4e-0654d4dcce7b,A
2020-02-27 04:24:53,c0a54231-df6b-42cc-8c4e-0654d4dcce7b,S
2020-02-27 04:30:40,c0a54231-df6b-42cc-8c4e-0654d4dcce7b,A
2020-02-27 04:31:16,c0a54231-df6b-42cc-8c4e-0654d4dcce7b,S
2020-02-27 04:50:29,c0a54231-df6b-42cc-8c4e-0654d4dcce7b,A
2020-02-27 04:50:42,c0a54231-df6b-42cc-8c4e-0654d4dcce7b,S
2020-02-27 05:08:18,c0a54231-df6b-42cc-8c4e-0654d4dcce7b,A
2020-02-27 05:08:26,c0a54231-df6b-42cc-8c4e-0654d4dcce7b,S
2020-02-27 05:16:09,c0a54231-df6b-42cc-8c4e-0654d4dcce7b,A
2020-02-27 05:18:51,c0a54231-df6b-42cc-8c4e-0654d4dcce7b,S
2020-02-27 05:24:04,c0a54231-df6b-42cc-8c4e-0654d4dcce7b,A
2020-02-27 05:26:33,c0a54231-df6b-42cc-8c4e-0654d4dcce7b,S
2020-02-27 05:27:11,c0a54231-df6b-42cc-8c4e-0654d4dcce7b,A
2020-02-27 05:27:25,c0a54231-df6b-42cc-8c4e-0654d4dcce7b,S
2020-02-27 05:30:01,c0a54231-df6b-42cc-8c4e-0654d4dcce7b,A
2020-02-27 05:33:31,c0a54231-df6b-42cc-8c4e-0654d4dcce7b,S
2020-02-27 05:45:02,c0a54231-df6b-42cc-8c4e-0654d4dcce7b,A
2020-02-27 05:54:58,c0a54231-df6b-42cc-8c4e-0654d4dcce7b,S
2020-02-27 06:00:26,c0a54231-df6b-42cc-8c4e-0654d4dcce7b,A
2020-02-27 06:01:09,c0a54231-df6b-42cc-8c4e-0654d4dcce7b,S
2020-02-27 06:02:05,c0a54231-df6b-42cc-8c4e-0654d4dcce7b,A
2020-02-27 06:04:03,c0a54231-df6b-42cc-8c4e-0654d4dcce7b,S
2020-02-27 06:05:23,c0a54231-df6b-42cc-8c4e-0654d4dcce7b,A
2020-02-27 06:12:43,c0a54231-df6b-42cc-8c4e-0654d4dcce7b,S
2020-02-27 06:14:36,c0a54231-df6b-42cc-8c4e-0654d4dcce7b,A
2020-02-27 06:16:19,c0a54231-df6b-42cc-8c4e-0654d4dcce7b,S
2020-02-27 06:31:44,c0a54231-df6b-42cc-8c4e-0654d4dcce7b,A
2020-02-27 06:37:37,c0a54231-df6b-42cc-8c4e-0654d4dcce7b,S
2020-02-27 06:42:10,c0a54231-df6b-42cc-8c4e-0654d4dcce7b,A
2020-02-27 06:43:14,c0a54231-df6b-42cc-8c4e-0654d4dcce7b,S
2020-02-27 06:45:34,c0a54231-df6b-42cc-8c4e-0654d4dcce7b,A
2020-02-27 06:49:13,c0a54231-df6b-42cc-8c4e-0654d4dcce7b,S
2020-02-27 06:51:14,c0a54231-df6b-42cc-8c4e-0654d4dcce7b,A
2020-02-27 06:51:22,c0a54231-df6b-42cc-8c4e-0654d4dcce7b,S
2020-02-27 07:00:28,c0a54231-df6b-42cc-8c4e-0654d4dcce7b,A
2020-02-27 07:06:48,c0a54231-df6b-42cc-8c4e-0654d4dcce7b,S
2020-02-27 04:31:22,9da17296-3f4e-4b82-aaa1-ab12eb14b305,S
2020-02-27 04:36:19,9da17296-3f4e-4b82-aaa1-ab12eb14b305,A
2020-02-27 04:39:34,9da17296-3f4e-4b82-aaa1-ab12eb14b305,S
2020-02-27 04:44:32,9da17296-3f4e-4b82-aaa1-ab12eb14b305,A
2020-02-27 04:53:09,9da17296-3f4e-4b82-aaa1-ab12eb14b305,S
2020-02-27 05:11:41,9da17296-3f4e-4b82-aaa1-ab12eb14b305,A
2020-02-27 05:17:20,9da17296-3f4e-4b82-aaa1-ab12eb14b305,S
2020-02-27 05:19:53,9da17296-3f4e-4b82-aaa1-ab12eb14b305,A
2020-02-27 05:30:37,9da17296-3f4e-4b82-aaa1-ab12eb14b305,S
2020-02-27 05:39:18,9da17296-3f4e-4b82-aaa1-ab12eb14b305,A
2020-02-27 05:43:01,9da17296-3f4e-4b82-aaa1-ab12eb14b305,S
2020-02-27 05:48:18,9da17296-3f4e-4b82-aaa1-ab12eb14b305,A
2020-02-27 06:05:21,9da17296-3f4e-4b82-aaa1-ab12eb14b305,S
2020-02-27 06:13:23,9da17296-3f4e-4b82-aaa1-ab12eb14b305,A
2020-02-27 06:16:34,9da17296-3f4e-4b82-aaa1-ab12eb14b305,S
2020-02-27 06:18:54,9da17296-3f4e-4b82-aaa1-ab12eb14b305,A
2020-02-27 06:38:18,9da17296-3f4e-4b82-aaa1-ab12eb14b305,S
2020-02-27 06:41:18,9da17296-3f4e-4b82-aaa1-ab12eb14b305,A
2020-02-27 06:46:06,9da17296-3f4e-4b82-aaa1-ab12eb14b305,S
2020-02-27 06:49:52,9da17296-3f4e-4b82-aaa1-ab12eb14b305,A
2020-02-27 06:51:28,9da17296-3f4e-4b82-aaa1-ab12eb14b305,S
2020-02-27 07:03:33,9da17296-3f4e-4b82-aaa1-ab12eb14b305,A
2020-02-27 04:42:23,868b2616-d0d9-4505-a40a-fcac0466b6e0,A
2020-02-27 04:45:56,1a53caf1-7f28-44c4-8910-7a328991439d,S
2020-02-27 04:46:34,1a53caf1-7f28-44c4-8910-7a328991439d,A
2020-02-27 04:57:03,1a53caf1-7f28-44c4-8910-7a328991439d,S
2020-02-27 04:57:17,1a53caf1-7f28-44c4-8910-7a328991439d,A
2020-02-27 04:57:54,1a53caf1-7f28-44c4-8910-7a328991439d,S
2020-02-27 05:04:34,1a53caf1-7f28-44c4-8910-7a328991439d,A
2020-02-27 05:09:28,1a53caf1-7f28-44c4-8910-7a328991439d,S
2020-02-27 05:17:22,1a53caf1-7f28-44c4-8910-7a328991439d,A
2020-02-27 05:22:10,1a53caf1-7f28-44c4-8910-7a328991439d,S
2020-02-27 05:53:21,1a53caf1-7f28-44c4-8910-7a328991439d,A
2020-02-27 05:58:25,1a53caf1-7f28-44c4-8910-7a328991439d,S
2020-02-27 05:59:11,1a53caf1-7f28-44c4-8910-7a328991439d,A
2020-02-27 06:19:36,1a53caf1-7f28-44c4-8910-7a328991439d,S
2020-02-27 06:22:04,1a53caf1-7f28-44c4-8910-7a328991439d,A
2020-02-27 06:27:18,1a53caf1-7f28-44c4-8910-7a328991439d,S
2020-02-27 06:35:56,1a53caf1-7f28-44c4-8910-7a328991439d,A
2020-02-27 06:47:29,1a53caf1-7f28-44c4-8910-7a328991439d,S
2020-02-27 06:48:50,1a53caf1-7f28-44c4-8910-7a328991439d,A
2020-02-27 06:50:39,1a53caf1-7f28-44c4-8910-7a328991439d,S
2020-02-27 06:56:35,1a53caf1-7f28-44c4-8910-7a328991439d,A
2020-02-27 04:17:42,8af3fa41-d6d7-4f91-8989-466fa6df0d46,A
2020-02-27 04:22:44,8af3fa41-d6d7-4f91-8989-466fa6df0d46,S
2020-02-27 04:26:35,8af3fa41-d6d7-4f91-8989-466fa6df0d46,A
2020-02-27 04:37:54,8af3fa41-d6d7-4f91-8989-466fa6df0d46,S
2020-02-27 04:45:45,8af3fa41-d6d7-4f91-8989-466fa6df0d46,A
2020-02-27 04:48:07,8af3fa41-d6d7-4f91-8989-466fa6df0d46,S
2020-02-27 04:52:10,8af3fa41-d6d7-4f91-8989-466fa6df0d46,A
2020-02-27 04:53:00,8af3fa41-d6d7-4f91-8989-466fa6df0d46,S
2020-02-27 04:58:13,8af3fa41-d6d7-4f91-8989-466fa6df0d46,A
2020-02-27 05:03:06,8af3fa41-d6d7-4f91-8989-466fa6df0d46,S
2020-02-27 05:08:05,8af3fa41-d6d7-4f91-8989-466fa6df0d46,A
2020-02-27 05:10:39,8af3fa41-d6d7-4f91-8989-466fa6df0d46,S
2020-02-27 05:11:26,8af3fa41-d6d7-4f91-8989-466fa6df0d46,A
2020-02-27 05:22:02,8af3fa41-d6d7-4f91-8989-466fa6df0d46,S
2020-02-27 05:22:25,8af3fa41-d6d7-4f91-8989-466fa6df0d46,A
2020-02-27 05:30:03,8af3fa41-d6d7-4f91-8989-466fa6df0d46,S
2020-02-27 05:35:23,8af3fa41-d6d7-4f91-8989-466fa6df0d46,A
2020-02-27 05:35:49,8af3fa41-d6d7-4f91-8989-466fa6df0d46,S
2020-02-27 05:42:15,8af3fa41-d6d7-4f91-8989-466fa6df0d46,A
2020-02-27 05:44:19,8af3fa41-d6d7-4f91-8989-466fa6df0d46,S
2020-02-27 05:44:32,8af3fa41-d6d7-4f91-8989-466fa6df0d46,A
2020-02-27 05:49:35,8af3fa41-d6d7-4f91-8989-466fa6df0d46,S
2020-02-27 05:50:16,8af3fa41-d6d7-4f91-8989-466fa6df0d46,A
2020-02-27 06:07:23,8af3fa41-d6d7-4f91-8989-466fa6df0d46,S
2020-02-27 06:09:40,8af3fa41-d6d7-4f91-8989-466fa6df0d46,A
2020-02-27 06:09:59,8af3fa41-d6d7-4f91-8989-466fa6df0d46,S
2020-02-27 06:13:25,8af3fa41-d6d7-4f91-8989-466fa6df0d46,A
2020-02-27 06:13:36,8af3fa41-d6d7-4f91-8989-466fa6df0d46,S
2020-02-27 06:20:37,8af3fa41-d6d7-4f91-8989-466fa6df0d46,A
2020-02-27 06:26:25,8af3fa41-d6d7-4f91-8989-466fa6df0d46,S
2020-02-27 06:47:08,8af3fa41-d6d7-4f91-8989-466fa6df0d46,A
2020-02-27 06:48:25,8af3fa41-d6d7-4f91-8989-466fa6df0d46,S
2020-02-27 07:00:19,8af3fa41-d6d7-4f91-8989-466fa6df0d46,A
2020-02-27 07:06:21,8af3fa41-d6d7-4f91-8989-466fa6df0d46,S
2020-02-27 04:20:00,6d600260-7556-4754-a11c-e63504c41fdd,S
2020-02-27 04:20:33,6d600260-7556-4754-a11c-e63504c41fdd,A
2020-02-27 04:22:06,6d600260-7556-4754-a11c-e63504c41fdd,S
2020-02-27 04:26:10,6d600260-7556-4754-a11c-e63504c41fdd,A
2020-02-27 04:41:09,6d600260-7556-4754-a11c-e63504c41fdd,S
2020-02-27 04:41:58,6d600260-7556-4754-a11c-e63504c41fdd,A
2020-02-27 04:47:16,6d600260-7556-4754-a11c-e63504c41fdd,S
2020-02-27 04:56:15,6d600260-7556-4754-a11c-e63504c41fdd,A
2020-02-27 04:59:40,6d600260-7556-4754-a11c-e63504c41fdd,S
2020-02-27 05:00:08,6d600260-7556-4754-a11c-e63504c41fdd,A
2020-02-27 05:21:07,6d600260-7556-4754-a11c-e63504c41fdd,S
2020-02-27 05:23:13,6d600260-7556-4754-a11c-e63504c41fdd,A
2020-02-27 05:28:42,6d600260-7556-4754-a11c-e63504c41fdd,S
2020-02-27 05:34:28,6d600260-7556-4754-a11c-e63504c41fdd,A
2020-02-27 05:35:16,6d600260-7556-4754-a11c-e63504c41fdd,S
2020-02-27 05:37:14,6d600260-7556-4754-a11c-e63504c41fdd,A
2020-02-27 05:38:49,6d600260-7556-4754-a11c-e63504c41fdd,S
2020-02-27 05:53:02,6d600260-7556-4754-a11c-e63504c41fdd,A
2020-02-27 05:55:09,6d600260-7556-4754-a11c-e63504c41fdd,S
2020-02-27 05:57:36,6d600260-7556-4754-a11c-e63504c41fdd,A
2020-02-27 06:05:13,6d600260-7556-4754-a11c-e63504c41fdd,S
2020-02-27 06:08:53,6d600260-7556-4754-a11c-e63504c41fdd,A
2020-02-27 06:12:15,6d600260-7556-4754-a11c-e63504c41fdd,S
2020-02-27 06:23:05,6d600260-7556-4754-a11c-e63504c41fdd,A
2020-02-27 06:23:09,6d600260-7556-4754-a11c-e63504c41fdd,S
2020-02-27 06:32:40,6d600260-7556-4754-a11c-e63504c41fdd,A
2020-02-27 06:53:09,6d600260-7556-4754-a11c-e63504c41fdd,S
2020-02-27 07:00:24,6d600260-7556-4754-a11c-e63504c41fdd,A
2020-02-27 07:04:22,6d600260-7556-4754-a11c-e63504c41fdd,S
2020-02-27 04:26:35,e2205ae9-0b60-47f0-a4ed-09cd80a2e3bf,S
2020-02-27 04:35:03,e2205ae9-0b60-47f0-a4ed-09cd80a2e3bf,A
2020-02-27 04:38:08,e2205ae9-0b60-47f0-a4ed-09cd80a2e3bf,S
2020-02-27 04:46:56,e2205ae9-0b60-47f0-a4ed-09cd80a2e3bf,A
2020-02-27 04:56:30,e2205ae9-0b60-47f0-a4ed-09cd80a2e3bf,S
2020-02-27 04:59:56,e2205ae9-0b60-47f0-a4ed-09cd80a2e3bf,A
2020-02-27 05:00:50,e2205ae9-0b60-47f0-a4ed-09cd80a2e3bf,S
2020-02-27 05:03:03,e2205ae9-0b60-47f0-a4ed-09cd80a2e3bf,A
2020-02-27 05:19:01,e2205ae9-0b60-47f0-a4ed-09cd80a2e3bf,S
2020-02-27 05:21:07,e2205ae9-0b60-47f0-a4ed-09cd80a2e3bf,A
2020-02-27 05:21:09,e2205ae9-0b60-47f0-a4ed-09cd80a2e3bf,S
2020-02-27 05:32:25,e2205ae9-0b60-47f0-a4ed-09cd80a2e3bf,A
2020-02-27 05:40:07,e2205ae9-0b60-47f0-a4ed-09cd80a2e3bf,S
2020-02-27 05:49:26,e2205ae9-0b60-47f0-a4ed-09cd80a2e3bf,A
2020-02-27 05:54:43,e2205ae9-0b60-47f0-a4ed-09cd80a2e3bf,S
2020-02-27 05:57:31,e2205ae9-0b60-47f0-a4ed-09cd80a2e3bf,A
2020-02-27 05:58:14,e2205ae9-0b60-47f0-a4ed-09cd80a2e3bf,S
2020-02-27 06:01:43,e2205ae9-0b60-47f0-a4ed-09cd80a2e3bf,A
2020-02-27 06:04:46,e2205ae9-0b60-47f0-a4ed-09cd80a2e3bf,S
2020-02-27 06:13:43,e2205ae9-0b60-47f0-a4ed-09cd80a2e3bf,A
2020-02-27 06:28:40,e2205ae9-0b60-47f0-a4ed-09cd80a2e3bf,S
2020-02-27 06:29:42,e2205ae9-0b60-47f0-a4ed-09cd80a2e3bf,A
2020-02-27 06:30:12,e2205ae9-0b60-47f0-a4ed-09cd80a2e3bf,S
2020-02-27 06:30:51,e2205ae9-0b60-47f0-a4ed-09cd80a2e3bf,A
2020-02-27 06:37:55,e2205ae9-0b60-47f0-a4ed-09cd80a2e3bf,S
2020-02-27 06:43:05,e2205ae9-0b60-47f0-a4ed-09cd80a2e3bf,A
2020-02-27 07:01:57,e2205ae9-0b60-47f0-a4ed-09cd80a2e3bf,S
2020-02-27 07:04:04,e2205ae9-0b60-47f0-a4ed-09cd80a2e3bf,A
2020-02-27 04:18:52,dfc86f51-5c0f-4b47-b5ed-231f6747b4ee,S
2020-02-27 04:22:32,dfc86f51-5c0f-4b47-b5ed-231f6747b4ee,A
2020-02-27 04:25:01,dfc86f51-5c0f-4b47-b5ed-231f6747b4ee,S
2020-02-27 04:29:43,dfc86f51-5c0f-4b47-b5ed-231f6747b4ee,A
2020-02-27 04:38:22,dfc86f51-5c0f-4b47-b5ed-231f6747b4ee,S
2020-02-27 04:42:07,dfc86f51-5c0f-4b47-b5ed-231f6747b4ee,A
2020-02-27 04:43:45,dfc86f51-5c0f-4b47-b5ed-231f6747b4ee,S
2020-02-27 04:52:16,dfc86f51-5c0f-4b47-b5ed-231f6747b4ee,A
2020-02-27 05:00:41,dfc86f51-5c0f-4b47-b5ed-231f6747b4ee,S
2020-02-27 05:08:17,dfc86f51-5c0f-4b47-b5ed-231f6747b4ee,A
2020-02-27 05:10:02,dfc86f51-5c0f-4b47-b5ed-231f6747b4ee,S
2020-02-27 05:14:33,dfc86f51-5c0f-4b47-b5ed-231f6747b4ee,A
2020-02-27 05:15:39,dfc86f51-5c0f-4b47-b5ed-231f6747b4ee,S
2020-02-27 05:19:38,dfc86f51-5c0f-4b47-b5ed-231f6747b4ee,A
2020-02-27 05:27:10,dfc86f51-5c0f-4b47-b5ed-231f6747b4ee,S
2020-02-27 05:29:28,dfc86f51-5c0f-4b47-b5ed-231f6747b4ee,A
2020-02-27 05:34:40,dfc86f51-5c0f-4b47-b5ed-231f6747b4ee,S
2020-02-27 05:42:45,dfc86f51-5c0f-4b47-b5ed-231f6747b4ee,A
2020-02-27 05:50:09,dfc86f51-5c0f-4b47-b5ed-231f6747b4ee,S
2020-02-27 05:50:31,dfc86f51-5c0f-4b47-b5ed-231f6747b4ee,A
2020-02-27 05:56:04,dfc86f51-5c0f-4b47-b5ed-231f6747b4ee,S
2020-02-27 06:07:08,dfc86f51-5c0f-4b47-b5ed-231f6747b4ee,A
2020-02-27 06:11:32,dfc86f51-5c0f-4b47-b5ed-231f6747b4ee,S
2020-02-27 06:14:19,dfc86f51-5c0f-4b47-b5ed-231f6747b4ee,A
2020-02-27 06:21:01,dfc86f51-5c0f-4b47-b5ed-231f6747b4ee,S
2020-02-27 06:21:52,dfc86f51-5c0f-4b47-b5ed-231f6747b4ee,A
2020-02-27 06:24:37,dfc86f51-5c0f-4b47-b5ed-231f6747b4ee,S
2020-02-27 06:28:28,dfc86f51-5c0f-4b47-b5ed-231f6747b4ee,A
2020-02-27 06:34:56,dfc86f51-5c0f-4b47-b5ed-231f6747b4ee,S
2020-02-27 06:38:00,dfc86f51-5c0f-4b47-b5ed-231f6747b4ee,A
2020-02-27 06:50:20,dfc86f51-5c0f-4b47-b5ed-231f6747b4ee,S
2020-02-27 06:55:07,dfc86f51-5c0f-4b47-b5ed-231f6747b4ee,A
2020-02-27 06:57:11,dfc86f51-5c0f-4b47-b5ed-231f6747b4ee,S
2020-02-27 07:01:00,dfc86f51-5c0f-4b47-b5ed-231f6747b4ee,A
2020-02-27 07:03:43,dfc86f51-5c0f-4b47-b5ed-231f6747b4ee,S
2020-02-27 07:05:14,dfc86f51-5c0f-4b47-b5ed-231f6747b4ee,A
2020-02-27 04:20:01,dbc3e17a-b3e5-4008-b7ee-192f21ab94c5,S
2020-02-27 04:26:28,dbc3e17a-b3e5-4008-b7ee-192f21ab94c5,A
2020-02-27 04:37:19,dbc3e17a-b3e5-4008-b7ee-192f21ab94c5,S
2020-02-27 04:39:11,dbc3e17a-b3e5-4008-b7ee-192f21ab94c5,A
2020-02-27 04:39:29,dbc3e17a-b3e5-4008-b7ee-192f21ab94c5,S
2020-02-27 04:54:48,dbc3e17a-b3e5-4008-b7ee-192f21ab94c5,A
2020-02-27 04:56:26,dbc3e17a-b3e5-4008-b7ee-192f21ab94c5,S
2020-02-27 05:00:30,dbc3e17a-b3e5-4008-b7ee-192f21ab94c5,A
2020-02-27 05:02:15,dbc3e17a-b3e5-4008-b7ee-192f21ab94c5,S
2020-02-27 05:07:15,dbc3e17a-b3e5-4008-b7ee-192f21ab94c5,A
2020-02-27 05:14:08,dbc3e17a-b3e5-4008-b7ee-192f21ab94c5,S
2020-02-27 05:18:54,dbc3e17a-b3e5-4008-b7ee-192f21ab94c5,A
2020-02-27 05:25:28,dbc3e17a-b3e5-4008-b7ee-192f21ab94c5,S
2020-02-27 05:31:22,dbc3e17a-b3e5-4008-b7ee-192f21ab94c5,A
2020-02-27 05:42:00,dbc3e17a-b3e5-4008-b7ee-192f21ab94c5,S
2020-02-27 05:49:16,dbc3e17a-b3e5-4008-b7ee-192f21ab94c5,A
2020-02-27 05:51:42,dbc3e17a-b3e5-4008-b7ee-192f21ab94c5,S
2020-02-27 05:53:23,dbc3e17a-b3e5-4008-b7ee-192f21ab94c5,A
2020-02-27 05:58:01,dbc3e17a-b3e5-4008-b7ee-192f21ab94c5,S
2020-02-27 06:03:01,dbc3e17a-b3e5-4008-b7ee-192f21ab94c5,A
2020-02-27 06:12:57,dbc3e17a-b3e5-4008-b7ee-192f21ab94c5,S
2020-02-27 06:13:00,dbc3e17a-b3e5-4008-b7ee-192f21ab94c5,A
2020-02-27 06:17:44,dbc3e17a-b3e5-4008-b7ee-192f21ab94c5,S
2020-02-27 06:19:25,dbc3e17a-b3e5-4008-b7ee-192f21ab94c5,A
2020-02-27 06:26:08,dbc3e17a-b3e5-4008-b7ee-192f21ab94c5,S
2020-02-27 06:26:16,dbc3e17a-b3e5-4008-b7ee-192f21ab94c5,A
2020-02-27 06:28:56,dbc3e17a-b3e5-4008-b7ee-192f21ab94c5,S
2020-02-27 06:35:49,dbc3e17a-b3e5-4008-b7ee-192f21ab94c5,A
2020-02-27 06:56:43,dbc3e17a-b3e5-4008-b7ee-192f21ab94c5,S
2020-02-27 07:03:31,dbc3e17a-b3e5-4008-b7ee-192f21ab94c5,A
2020-02-27 04:56:16,3673aa08-7a2b-46e7-97ca-e1e1e5ebf457,S
2020-02-27 05:06:49,3673aa08-7a2b-46e7-97ca-e1e1e5ebf457,A
2020-02-27 05:18:26,3673aa08-7a2b-46e7-97ca-e1e1e5ebf457,S
2020-02-27 05:18:38,3673aa08-7a2b-46e7-97ca-e1e1e5ebf457,A
2020-02-27 05:22:25,3673aa08-7a2b-46e7-97ca-e1e1e5ebf457,S
2020-02-27 05:26:39,3673aa08-7a2b-46e7-97ca-e1e1e5ebf457,A
2020-02-27 05:30:27,3673aa08-7a2b-46e7-97ca-e1e1e5ebf457,S
2020-02-27 05:31:42,3673aa08-7a2b-46e7-97ca-e1e1e5ebf457,A
2020-02-27 05:42:09,3673aa08-7a2b-46e7-97ca-e1e1e5ebf457,S
2020-02-27 05:44:55,3673aa08-7a2b-46e7-97ca-e1e1e5ebf457,A
2020-02-27 05:46:03,3673aa08-7a2b-46e7-97ca-e1e1e5ebf457,S
2020-02-27 05:49:12,3673aa08-7a2b-46e7-97ca-e1e1e5ebf457,A
2020-02-27 05:52:54,3673aa08-7a2b-46e7-97ca-e1e1e5ebf457,S
2020-02-27 06:03:53,3673aa08-7a2b-46e7-97ca-e1e1e5ebf457,A
2020-02-27 06:06:58,3673aa08-7a2b-46e7-97ca-e1e1e5ebf457,S
2020-02-27 06:07:26,3673aa08-7a2b-46e7-97ca-e1e1e5ebf457,A
2020-02-27 06:09:41,3673aa08-7a2b-46e7-97ca-e1e1e5ebf457,S
2020-02-27 06:11:40,3673aa08-7a2b-46e7-97ca-e1e1e5ebf457,A
2020-02-27 06:16:02,3673aa08-7a2b-46e7-97ca-e1e1e5ebf457,S
2020-02-27 06:24:02,3673aa08-7a2b-46e7-97ca-e1e1e5ebf457,A
2020-02-27 06:27:12,3673aa08-7a2b-46e7-97ca-e1e1e5ebf457,S
2020-02-27 06:30:04,3673aa08-7a2b-46e7-97ca-e1e1e5ebf457,A
2020-02-27 06:32:37,3673aa08-7a2b-46e7-97ca-e1e1e5ebf457,S
2020-02-27 06:37:21,3673aa08-7a2b-46e7-97ca-e1e1e5ebf457,A
2020-02-27 06:39:37,3673aa08-7a2b-46e7-97ca-e1e1e5ebf457,S
2020-02-27 06:46:38,3673aa08-7a2b-46e7-97ca-e1e1e5ebf457,A
2020-02-27 06:54:23,3673aa08-7a2b-46e7-97ca-e1e1e5ebf457,S
2020-02-27 07:00:12,3673aa08-7a2b-46e7-97ca-e1e1e5ebf457,A
2020-02-27 04:13:11,9eecde22-7839-4028-b7a7-3190897fc55f,A
2020-02-27 04:32:43,9eecde22-7839-4028-b7a7-3190897fc55f,S
2020-02-27 04:37:14,9eecde22-7839-4028-b7a7-3190897fc55f,A
2020-02-27 04:38:57,9eecde22-7839-4028-b7a7-3190897fc55f,S
2020-02-27 04:43:34,9eecde22-7839-4028-b7a7-3190897fc55f,A
2020-02-27 04:43:38,9eecde22-7839-4028-b7a7-3190897fc55f,S
2020-02-27 04:46:30,9eecde22-7839-4028-b7a7-3190897fc55f,A
2020-02-27 04:47:52,9eecde22-7839-4028-b7a7-3190897fc55f,S
2020-02-27 04:48:57,9eecde22-7839-4028-b7a7-3190897fc55f,A
2020-02-27 04:49:11,9eecde22-7839-4028-b7a7-3190897fc55f,S
2020-02-27 04:53:30,9eecde22-7839-4028-b7a7-3190897fc55f,A
2020-02-27 05:05:22,9eecde22-7839-4028-b7a7-3190897fc55f,S
2020-02-27 05:06:04,9eecde22-7839-4028-b7a7-3190897fc55f,A
2020-02-27 05:21:45,9eecde22-7839-4028-b7a7-3190897fc55f,S
2020-02-27 05:28:59,9eecde22-7839-4028-b7a7-3190897fc55f,A
2020-02-27 05:29:21,9eecde22-7839-4028-b7a7-3190897fc55f,S
2020-02-27 05:29:51,9eecde22-7839-4028-b7a7-3190897fc55f,A
2020-02-27 05:30:57,9eecde22-7839-4028-b7a7-3190897fc55f,S
2020-02-27 05:38:46,9eecde22-7839-4028-b7a7-3190897fc55f,A
2020-02-27 05:41:15,9eecde22-7839-4028-b7a7-3190897fc55f,S
2020-02-27 05:42:13,9eecde22-7839-4028-b7a7-3190897fc55f,A
2020-02-27 05:47:12,9eecde22-7839-4028-b7a7-3190897fc55f,S
2020-02-27 05:50:38,9eecde22-7839-4028-b7a7-3190897fc55f,A
2020-02-27 05:58:20,9eecde22-7839-4028-b7a7-3190897fc55f,S
2020-02-27 06:01:52,9eecde22-7839-4028-b7a7-3190897fc55f,A
2020-02-27 06:02:56,9eecde22-7839-4028-b7a7-3190897fc55f,S
2020-02-27 06:04:14,9eecde22-7839-4028-b7a7-3190897fc55f,A
2020-02-27 06:13:23,9eecde22-7839-4028-b7a7-3190897fc55f,S
2020-02-27 06:14:30,9eecde22-7839-4028-b7a7-3190897fc55f,A
2020-02-27 06:17:08,9eecde22-7839-4028-b7a7-3190897fc55f,S
2020-02-27 06:19:14,9eecde22-7839-4028-b7a7-3190897fc55f,A
2020-02-27 06:27:47,9eecde22-7839-4028-b7a7-3190897fc55f,S
2020-02-27 06:30:01,9eecde22-7839-4028-b7a7-3190897fc55f,A
2020-02-27 06:34:58,9eecde22-7839-4028-b7a7-3190897fc55f,S
2020-02-27 06:38:25,9eecde22-7839-4028-b7a7-3190897fc55f,A
2020-02-27 06:39:00,9eecde22-7839-4028-b7a7-3190897fc55f,S
2020-02-27 06:40:33,9eecde22-7839-4028-b7a7-3190897fc55f,A
2020-02-27 06:45:07,9eecde22-7839-4028-b7a7-3190897fc55f,S
2020-02-27 06:49:36,9eecde22-7839-4028-b7a7-3190897fc55f,A
2020-02-27 06:49:57,9eecde22-7839-4028-b7a7-3190897fc55f,S
2020-02-27 06:55:29,9eecde22-7839-4028-b7a7-3190897fc55f,A
2020-02-27 06:56:00,9eecde22-7839-4028-b7a7-3190897fc55f,S
2020-02-27 04:46:08,0b06dc3c-26b8-438f-a952-7081832753cf,S
2020-02-27 04:46:52,0b06dc3c-26b8-438f-a952-7081832753cf,A
2020-02-27 04:52:37,0b06dc3c-26b8-438f-a952-7081832753cf,S
2020-02-27 04:56:51,0b06dc3c-26b8-438f-a952-7081832753cf,A
2020-02-27 05:05:26,0b06dc3c-26b8-438f-a952-7081832753cf,S
2020-02-27 05:06:19,0b06dc3c-26b8-438f-a952-7081832753cf,A
2020-02-27 05:10:30,0b06dc3c-26b8-438f-a952-7081832753cf,S
2020-02-27 05:11:40,0b06dc3c-26b8-438f-a952-7081832753cf,A
2020-02-27 05:15:10,0b06dc3c-26b8-438f-a952-7081832753cf,S
2020-02-27 05:25:03,0b06dc3c-26b8-438f-a952-7081832753cf,A
2020-02-27 05:29:39,0b06dc3c-26b8-438f-a952-7081832753cf,S
2020-02-27 05:32:02,0b06dc3c-26b8-438f-a952-7081832753cf,A
2020-02-27 05:33:38,0b06dc3c-26b8-438f-a952-7081832753cf,S
2020-02-27 05:40:30,0b06dc3c-26b8-438f-a952-7081832753cf,A
2020-02-27 05:52:35,0b06dc3c-26b8-438f-a952-7081832753cf,S
2020-02-27 05:53:55,0b06dc3c-26b8-438f-a952-7081832753cf,A
2020-02-27 05:55:54,0b06dc3c-26b8-438f-a952-7081832753cf,S
2020-02-27 05:57:52,0b06dc3c-26b8-438f-a952-7081832753cf,A
2020-02-27 06:04:18,0b06dc3c-26b8-438f-a952-7081832753cf,S
2020-02-27 06:25:47,0b06dc3c-26b8-438f-a952-7081832753cf,A
2020-02-27 06:26:24,0b06dc3c-26b8-438f-a952-7081832753cf,S
2020-02-27 06:27:39,0b06dc3c-26b8-438f-a952-7081832753cf,A
2020-02-27 06:29:36,0b06dc3c-26b8-438f-a952-7081832753cf,S
2020-02-27 06:33:08,0b06dc3c-26b8-438f-a952-7081832753cf,A
2020-02-27 06:42:25,0b06dc3c-26b8-438f-a952-7081832753cf,S
2020-02-27 06:50:32,0b06dc3c-26b8-438f-a952-7081832753cf,A
2020-02-27 07:06:23,0b06dc3c-26b8-438f-a952-7081832753cf,S
2020-02-27 04:06:19,4e8c1d90-3733-4a55-9297-c5a5044e2f0b,A
2020-02-27 04:22:22,4e8c1d90-3733-4a55-9297-c5a5044e2f0b,S
2020-02-27 04:25:35,4e8c1d90-3733-4a55-9297-c5a5044e2f0b,A
2020-02-27 04:28:22,4e8c1d90-3733-4a55-9297-c5a5044e2f0b,S
2020-02-27 04:28:52,4e8c1d90-3733-4a55-9297-c5a5044e2f0b,A
2020-02-27 04:42:50,4e8c1d90-3733-4a55-9297-c5a5044e2f0b,S
2020-02-27 04:46:19,4e8c1d90-3733-4a55-9297-c5a5044e2f0b,A
2020-02-27 04:49:11,4e8c1d90-3733-4a55-9297-c5a5044e2f0b,S
2020-02-27 04:53:11,4e8c1d90-3733-4a55-9297-c5a5044e2f0b,A
2020-02-27 05:06:35,4e8c1d90-3733-4a55-9297-c5a5044e2f0b,S
2020-02-27 05:06:45,4e8c1d90-3733-4a55-9297-c5a5044e2f0b,A
2020-02-27 05:15:29,4e8c1d90-3733-4a55-9297-c5a5044e2f0b,S
2020-02-27 05:19:44,4e8c1d90-3733-4a55-9297-c5a5044e2f0b,A
2020-02-27 05:26:20,4e8c1d90-3733-4a55-9297-c5a5044e2f0b,S
2020-02-27 05:28:52,4e8c1d90-3733-4a55-9297-c5a5044e2f0b,A
2020-02-27 05:40:03,4e8c1d90-3733-4a55-9297-c5a5044e2f0b,S
2020-02-27 05:41:58,4e8c1d90-3733-4a55-9297-c5a5044e2f0b,A
2020-02-27 05:42:57,4e8c1d90-3733-4a55-9297-c5a5044e2f0b,S
2020-02-27 05:45:48,4e8c1d90-3733-4a55-9297-c5a5044e2f0b,A
2020-02-27 05:51:46,4e8c1d90-3733-4a55-9297-c5a5044e2f0b,S
2020-02-27 06:00:35,4e8c1d90-3733-4a55-9297-c5a5044e2f0b,A
2020-02-27 06:03:37,4e8c1d90-3733-4a55-9297-c5a5044e2f0b,S
2020-02-27 06:05:28,4e8c1d90-3733-4a55-9297-c5a5044e2f0b,A
2020-02-27 06:07:38,4e8c1d90-3733-4a55-9297-c5a5044e2f0b,S
2020-02-27 06:19:39,4e8c1d90-3733-4a55-9297-c5a5044e2f0b,A
2020-02-27 06:21:08,4e8c1d90-3733-4a55-9297-c5a5044e2f0b,S
2020-02-27 06:32:03,4e8c1d90-3733-4a55-9297-c5a5044e2f0b,A
2020-02-27 06:35:05,4e8c1d90-3733-4a55-9297-c5a5044e2f0b,S
2020-02-27 06:36:37,4e8c1d90-3733-4a55-9297-c5a5044e2f0b,A
2020-02-27 06:38:03,4e8c1d90-3733-4a55-9297-c5a5044e2f0b,S
2020-02-27 06:38:53,4e8c1d90-3733-4a55-9297-c5a5044e2f0b,A
2020-02-27 06:44:36,4e8c1d90-3733-4a55-9297-c5a5044e2f0b,S
2020-02-27 06:54:12,4e8c1d90-3733-4a55-9297-c5a5044e2f0b,A
2020-02-27 07:03:57,4e8c1d90-3733-4a55-9297-c5a5044e2f0b,S
2020-02-27 07:05:22,4e8c1d90-3733-4a55-9297-c5a5044e2f0b,A
2020-02-27 04:32:05,b1ae46c6-1194-4837-aebf-252368dba9b4,A
2020-02-27 04:39:49,b1ae46c6-1194-4837-aebf-252368dba9b4,S
2020-02-27 04:43:40,b1ae46c6-1194-4837-aebf-252368dba9b4,A
2020-02-27 05:02:40,b1ae46c6-1194-4837-aebf-252368dba9b4,S
2020-02-27 05:09:24,b1ae46c6-1194-4837-aebf-252368dba9b4,A
2020-02-27 05:15:15,b1ae46c6-1194-4837-aebf-252368dba9b4,S
2020-02-27 05:22:18,b1ae46c6-1194-4837-aebf-252368dba9b4,A
2020-02-27 05:29:18,b1ae46c6-1194-4837-aebf-252368dba9b4,S
2020-02-27 05:29:34,b1ae46c6-1194-4837-aebf-252368dba9b4,A
2020-02-27 05:30:43,b1ae46c6-1194-4837-aebf-252368dba9b4,S
2020-02-27 05:33:16,b1ae46c6-1194-4837-aebf-252368dba9b4,A
2020-02-27 05:38:00,b1ae46c6-1194-4837-aebf-252368dba9b4,S
2020-02-27 05:38:53,b1ae46c6-1194-4837-aebf-252368dba9b4,S
2020-02-27 05:41:14,b1ae46c6-1194-4837-aebf-252368dba9b4,A
2020-02-27 05:43:28,b1ae46c6-1194-4837-aebf-252368dba9b4,S
2020-02-27 05:50:52,b1ae46c6-1194-4837-aebf-252368dba9b4,A
2020-02-27 06:02:56,b1ae46c6-1194-4837-aebf-252368dba9b4,S
2020-02-27 06:28:45,b1ae46c6-1194-4837-aebf-252368dba9b4,A
2020-02-27 06:31:57,b1ae46c6-1194-4837-aebf-252368dba9b4,S
2020-02-27 06:37:08,b1ae46c6-1194-4837-aebf-252368dba9b4,A
2020-02-27 06:38:05,b1ae46c6-1194-4837-aebf-252368dba9b4,S
2020-02-27 06:40:24,b1ae46c6-1194-4837-aebf-252368dba9b4,A
2020-02-27 06:57:51,b1ae46c6-1194-4837-aebf-252368dba9b4,S
2020-02-27 07:02:44,b1ae46c6-1194-4837-aebf-252368dba9b4,A
2020-02-27 07:03:30,b1ae46c6-1194-4837-aebf-252368dba9b4,S
2020-02-27 07:04:21,b1ae46c6-1194-4837-aebf-252368dba9b4,A
2020-02-27 07:07:04,b1ae46c6-1194-4837-aebf-252368dba9b4,S
2020-02-27 07:07:56,b1ae46c6-1194-4837-aebf-252368dba9b4,A
2020-02-27 04:33:36,03d5afb5-a94c-4b75-a3de-3a8b41a17d75,S
2020-02-27 04:43:04,03d5afb5-a94c-4b75-a3de-3a8b41a17d75,A
2020-02-27 04:45:29,03d5afb5-a94c-4b75-a3de-3a8b41a17d75,S
2020-02-27 04:50:42,03d5afb5-a94c-4b75-a3de-3a8b41a17d75,A
2020-02-27 04:55:10,03d5afb5-a94c-4b75-a3de-3a8b41a17d75,S
2020-02-27 04:58:20,03d5afb5-a94c-4b75-a3de-3a8b41a17d75,A
2020-02-27 04:58:56,03d5afb5-a94c-4b75-a3de-3a8b41a17d75,S
2020-02-27 05:13:41,03d5afb5-a94c-4b75-a3de-3a8b41a17d75,A
2020-02-27 05:22:44,03d5afb5-a94c-4b75-a3de-3a8b41a17d75,S
2020-02-27 05:24:52,03d5afb5-a94c-4b75-a3de-3a8b41a17d75,A
2020-02-27 05:27:50,03d5afb5-a94c-4b75-a3de-3a8b41a17d75,S
2020-02-27 05:29:31,03d5afb5-a94c-4b75-a3de-3a8b41a17d75,A
2020-02-27 05:32:46,03d5afb5-a94c-4b75-a3de-3a8b41a17d75,S
2020-02-27 05:48:05,03d5afb5-a94c-4b75-a3de-3a8b41a17d75,A
2020-02-27 05:49:33,03d5afb5-a94c-4b75-a3de-3a8b41a17d75,S
2020-02-27 06:03:01,03d5afb5-a94c-4b75-a3de-3a8b41a17d75,A
2020-02-27 06:07:14,03d5afb5-a94c-4b75-a3de-3a8b41a17d75,S
2020-02-27 06:08:17,03d5afb5-a94c-4b75-a3de-3a8b41a17d75,A
2020-02-27 06:09:37,03d5afb5-a94c-4b75-a3de-3a8b41a17d75,S
2020-02-27 06:14:51,03d5afb5-a94c-4b75-a3de-3a8b41a17d75,A
2020-02-27 06:15:45,03d5afb5-a94c-4b75-a3de-3a8b41a17d75,S
2020-02-27 06:24:57,03d5afb5-a94c-4b75-a3de-3a8b41a17d75,A
2020-02-27 06:29:19,03d5afb5-a94c-4b75-a3de-3a8b41a17d75,S
2020-02-27 06:31:44,03d5afb5-a94c-4b75-a3de-3a8b41a17d75,A
2020-02-27 06:46:10,03d5afb5-a94c-4b75-a3de-3a8b41a17d75,S
2020-02-27 06:50:11,03d5afb5-a94c-4b75-a3de-3a8b41a17d75,A
2020-02-27 06:56:37,03d5afb5-a94c-4b75-a3de-3a8b41a17d75,S
2020-02-27 06:57:56,03d5afb5-a94c-4b75-a3de-3a8b41a17d75,A
2020-02-27 04:17:46,8fa05b97-a2f2-4122-92fb-51b08f520c10,A
2020-02-27 04:21:04,8fa05b97-a2f2-4122-92fb-51b08f520c10,S
2020-02-27 04:35:15,8fa05b97-a2f2-4122-92fb-51b08f520c10,A
2020-02-27 04:40:56,8fa05b97-a2f2-4122-92fb-51b08f520c10,S
2020-02-27 04:59:16,8fa05b97-a2f2-4122-92fb-51b08f520c10,A
2020-02-27 05:00:11,8fa05b97-a2f2-4122-92fb-51b08f520c10,S
2020-02-27 05:08:03,8fa05b97-a2f2-4122-92fb-51b08f520c10,A
2020-02-27 05:21:37,8fa05b97-a2f2-4122-92fb-51b08f520c10,S
2020-02-27 05:22:27,8fa05b97-a2f2-4122-92fb-51b08f520c10,A
2020-02-27 05:25:07,8fa05b97-a2f2-4122-92fb-51b08f520c10,S
2020-02-27 05:38:45,8fa05b97-a2f2-4122-92fb-51b08f520c10,A
2020-02-27 05:41:48,8fa05b97-a2f2-4122-92fb-51b08f520c10,S
2020-02-27 05:49:27,8fa05b97-a2f2-4122-92fb-51b08f520c10,A
2020-02-27 05:51:22,8fa05b97-a2f2-4122-92fb-51b08f520c10,S
2020-02-27 06:02:40,8fa05b97-a2f2-4122-92fb-51b08f520c10,A
2020-02-27 06:04:30,8fa05b97-a2f2-4122-92fb-51b08f520c10,S
2020-02-27 06:05:12,8fa05b97-a2f2-4122-92fb-51b08f520c10,A
2020-02-27 06:14:43,8fa05b97-a2f2-4122-92fb-51b08f520c10,S
2020-02-27 06:17:58,8fa05b97-a2f2-4122-92fb-51b08f520c10,A
2020-02-27 06:18:33,8fa05b97-a2f2-4122-92fb-51b08f520c10,S
2020-02-27 06:19:04,8fa05b97-a2f2-4122-92fb-51b08f520c10,A
2020-02-27 06:24:09,8fa05b97-a2f2-4122-92fb-51b08f520c10,S
2020-02-27 06:24:34,8fa05b97-a2f2-4122-92fb-51b08f520c10,A
2020-02-27 06:24:57,8fa05b97-a2f2-4122-92fb-51b08f520c10,S
2020-02-27 06:25:41,8fa05b97-a2f2-4122-92fb-51b08f520c10,A
2020-02-27 06:27:33,8fa05b97-a2f2-4122-92fb-51b08f520c10,S
2020-02-27 06:28:25,8fa05b97-a2f2-4122-92fb-51b08f520c10,A
2020-02-27 06:38:59,8fa05b97-a2f2-4122-92fb-51b08f520c10,S
2020-02-27 06:40:11,8fa05b97-a2f2-4122-92fb-51b08f520c10,A
2020-02-27 06:47:03,8fa05b97-a2f2-4122-92fb-51b08f520c10,S
2020-02-27 06:55:43,8fa05b97-a2f2-4122-92fb-51b08f520c10,A
2020-02-27 06:58:51,8fa05b97-a2f2-4122-92fb-51b08f520c10,S
2020-02-27 07:02:27,8fa05b97-a2f2-4122-92fb-51b08f520c10,A
2020-02-27 07:02:42,8fa05b97-a2f2-4122-92fb-51b08f520c10,S
2020-02-27 04:51:30,77b33267-d705-4f82-b10c-c62005022508,S
2020-02-27 04:53:09,77b33267-d705-4f82-b10c-c62005022508,A
2020-02-27 04:56:05,77b33267-d705-4f82-b10c-c62005022508,S
2020-02-27 04:56:58,77b33267-d705-4f82-b10c-c62005022508,A
2020-02-27 04:57:59,77b33267-d705-4f82-b10c-c62005022508,S
2020-02-27 05:16:28,77b33267-d705-4f82-b10c-c62005022508,A
2020-02-27 05:23:00,77b33267-d705-4f82-b10c-c62005022508,S
2020-02-27 05:24:16,77b33267-d705-4f82-b10c-c62005022508,A
2020-02-27 05:27:28,77b33267-d705-4f82-b10c-c62005022508,S
2020-02-27 05:37:40,77b33267-d705-4f82-b10c-c62005022508,A
2020-02-27 05:39:02,77b33267-d705-4f82-b10c-c62005022508,S
2020-02-27 05:43:44,77b33267-d705-4f82-b10c-c62005022508,A
2020-02-27 05:45:16,77b33267-d705-4f82-b10c-c62005022508,S
2020-02-27 06:05:49,77b33267-d705-4f82-b10c-c62005022508,A
2020-02-27 06:10:07,77b33267-d705-4f82-b10c-c62005022508,S
2020-02-27 06:10:24,77b33267-d705-4f82-b10c-c62005022508,A
2020-02-27 06:18:07,77b33267-d705-4f82-b10c-c62005022508,S
2020-02-27 06:21:08,77b33267-d705-4f82-b10c-c62005022508,A
2020-02-27 06:33:31,77b33267-d705-4f82-b10c-c62005022508,S
2020-02-27 07:08:50,77b33267-d705-4f82-b10c-c62005022508,A
2020-02-27 04:50:19,82140bf6-30f4-47e3-b656-1afb9d5065b0,A
2020-02-27 04:51:04,82140bf6-30f4-47e3-b656-1afb9d5065b0,S
2020-02-27 04:51:25,82140bf6-30f4-47e3-b656-1afb9d5065b0,A
2020-02-27 04:51:49,82140bf6-30f4-47e3-b656-1afb9d5065b0,S
2020-02-27 05:00:22,82140bf6-30f4-47e3-b656-1afb9d5065b0,A
2020-02-27 05:23:55,82140bf6-30f4-47e3-b656-1afb9d5065b0,S
2020-02-27 05:59:56,82140bf6-30f4-47e3-b656-1afb9d5065b0,A
2020-02-27 06:04:09,82140bf6-30f4-47e3-b656-1afb9d5065b0,S
2020-02-27 06:05:54,82140bf6-30f4-47e3-b656-1afb9d5065b0,A
2020-02-27 06:07:16,82140bf6-30f4-47e3-b656-1afb9d5065b0,S
2020-02-27 06:08:25,82140bf6-30f4-47e3-b656-1afb9d5065b0,A
2020-02-27 06:17:04,82140bf6-30f4-47e3-b656-1afb9d5065b0,S
2020-02-27 06:23:19,82140bf6-30f4-47e3-b656-1afb9d5065b0,A
2020-02-27 06:42:04,82140bf6-30f4-47e3-b656-1afb9d5065b0,S
2020-02-27 06:44:05,82140bf6-30f4-47e3-b656-1afb9d5065b0,A
2020-02-27 06:47:27,82140bf6-30f4-47e3-b656-1afb9d5065b0,S
2020-02-27 07:00:09,82140bf6-30f4-47e3-b656-1afb9d5065b0,A
2020-02-27 05:00:27,fc11ade4-4610-406d-b713-f6a9cc6f6334,S
2020-02-27 05:01:25,fc11ade4-4610-406d-b713-f6a9cc6f6334,A
2020-02-27 05:08:10,fc11ade4-4610-406d-b713-f6a9cc6f6334,S
2020-02-27 05:14:01,fc11ade4-4610-406d-b713-f6a9cc6f6334,A
2020-02-27 05:16:09,fc11ade4-4610-406d-b713-f6a9cc6f6334,S
2020-02-27 05:19:00,fc11ade4-4610-406d-b713-f6a9cc6f6334,A
2020-02-27 05:19:35,fc11ade4-4610-406d-b713-f6a9cc6f6334,S
2020-02-27 05:22:32,fc11ade4-4610-406d-b713-f6a9cc6f6334,A
2020-02-27 05:23:55,fc11ade4-4610-406d-b713-f6a9cc6f6334,S
2020-02-27 05:28:47,fc11ade4-4610-406d-b713-f6a9cc6f6334,A
2020-02-27 05:39:37,fc11ade4-4610-406d-b713-f6a9cc6f6334,S
2020-02-27 05:44:13,fc11ade4-4610-406d-b713-f6a9cc6f6334,A
2020-02-27 05:50:32,fc11ade4-4610-406d-b713-f6a9cc6f6334,S
2020-02-27 05:53:12,fc11ade4-4610-406d-b713-f6a9cc6f6334,A
2020-02-27 05:55:41,fc11ade4-4610-406d-b713-f6a9cc6f6334,S
2020-02-27 05:59:24,fc11ade4-4610-406d-b713-f6a9cc6f6334,A
2020-02-27 06:01:11,fc11ade4-4610-406d-b713-f6a9cc6f6334,S
2020-02-27 06:06:27,fc11ade4-4610-406d-b713-f6a9cc6f6334,A
2020-02-27 06:08:14,fc11ade4-4610-406d-b713-f6a9cc6f6334,S
2020-02-27 06:09:08,fc11ade4-4610-406d-b713-f6a9cc6f6334,A
2020-02-27 06:25:29,fc11ade4-4610-406d-b713-f6a9cc6f6334,S
2020-02-27 06:26:50,fc11ade4-4610-406d-b713-f6a9cc6f6334,A
2020-02-27 06:27:24,fc11ade4-4610-406d-b713-f6a9cc6f6334,S
2020-02-27 06:30:30,fc11ade4-4610-406d-b713-f6a9cc6f6334,A
2020-02-27 06:36:40,fc11ade4-4610-406d-b713-f6a9cc6f6334,S
2020-02-27 06:49:24,fc11ade4-4610-406d-b713-f6a9cc6f6334,A
2020-02-27 06:50:00,fc11ade4-4610-406d-b713-f6a9cc6f6334,S
2020-02-27 06:51:58,fc11ade4-4610-406d-b713-f6a9cc6f6334,A
2020-02-27 07:08:56,fc11ade4-4610-406d-b713-f6a9cc6f6334,S
2020-02-27 04:08:28,95bf79cc-30da-45f1-82c7-ae675b309b57,A
2020-02-27 04:11:19,95bf79cc-30da-45f1-82c7-ae675b309b57,S
2020-02-27 04:12:39,95bf79cc-30da-45f1-82c7-ae675b309b57,A
2020-02-27 04:22:53,95bf79cc-30da-45f1-82c7-ae675b309b57,S
2020-02-27 04:23:07,95bf79cc-30da-45f1-82c7-ae675b309b57,A
2020-02-27 04:24:13,95bf79cc-30da-45f1-82c7-ae675b309b57,S
2020-02-27 04:25:27,95bf79cc-30da-45f1-82c7-ae675b309b57,A
2020-02-27 04:29:05,95bf79cc-30da-45f1-82c7-ae675b309b57,S
2020-02-27 04:31:49,95bf79cc-30da-45f1-82c7-ae675b309b57,A
2020-02-27 04:36:59,95bf79cc-30da-45f1-82c7-ae675b309b57,S
2020-02-27 04:38:17,95bf79cc-30da-45f1-82c7-ae675b309b57,A
2020-02-27 04:44:17,95bf79cc-30da-45f1-82c7-ae675b309b57,S
2020-02-27 04:55:33,95bf79cc-30da-45f1-82c7-ae675b309b57,A
2020-02-27 04:16:17,c56cc203-d5e1-4def-b45c-a3ed08a8d95e,S
2020-02-27 04:20:41,c56cc203-d5e1-4def-b45c-a3ed08a8d95e,A
2020-02-27 04:21:38,c56cc203-d5e1-4def-b45c-a3ed08a8d95e,S
2020-02-27 04:24:54,c56cc203-d5e1-4def-b45c-a3ed08a8d95e,A
2020-02-27 04:25:18,c56cc203-d5e1-4def-b45c-a3ed08a8d95e,S
2020-02-27 04:28:16,c56cc203-d5e1-4def-b45c-a3ed08a8d95e,A
2020-02-27 04:32:16,c56cc203-d5e1-4def-b45c-a3ed08a8d95e,S
2020-02-27 04:34:30,c56cc203-d5e1-4def-b45c-a3ed08a8d95e,A
2020-02-27 04:36:36,c56cc203-d5e1-4def-b45c-a3ed08a8d95e,S
2020-02-27 04:40:46,c56cc203-d5e1-4def-b45c-a3ed08a8d95e,A
2020-02-27 04:45:24,c56cc203-d5e1-4def-b45c-a3ed08a8d95e,S
2020-02-27 04:48:28,c56cc203-d5e1-4def-b45c-a3ed08a8d95e,A
2020-02-27 04:50:38,c56cc203-d5e1-4def-b45c-a3ed08a8d95e,S
2020-02-27 04:56:41,c56cc203-d5e1-4def-b45c-a3ed08a8d95e,A
2020-02-27 04:59:11,c56cc203-d5e1-4def-b45c-a3ed08a8d95e,S
2020-02-27 04:59:56,c56cc203-d5e1-4def-b45c-a3ed08a8d95e,A
2020-02-27 04:59:59,c56cc203-d5e1-4def-b45c-a3ed08a8d95e,S
2020-02-27 05:02:49,c56cc203-d5e1-4def-b45c-a3ed08a8d95e,A
2020-02-27 05:11:05,c56cc203-d5e1-4def-b45c-a3ed08a8d95e,S
2020-02-27 05:13:51,c56cc203-d5e1-4def-b45c-a3ed08a8d95e,A
2020-02-27 05:13:54,c56cc203-d5e1-4def-b45c-a3ed08a8d95e,S
2020-02-27 05:19:59,c56cc203-d5e1-4def-b45c-a3ed08a8d95e,A
2020-02-27 05:24:22,c56cc203-d5e1-4def-b45c-a3ed08a8d95e,S
2020-02-27 05:31:43,c56cc203-d5e1-4def-b45c-a3ed08a8d95e,A
2020-02-27 05:32:53,c56cc203-d5e1-4def-b45c-a3ed08a8d95e,S
2020-02-27 05:36:49,c56cc203-d5e1-4def-b45c-a3ed08a8d95e,A
2020-02-27 05:37:36,c56cc203-d5e1-4def-b45c-a3ed08a8d95e,S
2020-02-27 05:37:54,c56cc203-d5e1-4def-b45c-a3ed08a8d95e,A
2020-02-27 05:48:27,c56cc203-d5e1-4def-b45c-a3ed08a8d95e,S
2020-02-27 05:49:50,c56cc203-d5e1-4def-b45c-a3ed08a8d95e,A
2020-02-27 05:55:34,c56cc203-d5e1-4def-b45c-a3ed08a8d95e,S
2020-02-27 06:00:01,c56cc203-d5e1-4def-b45c-a3ed08a8d95e,A
2020-02-27 06:01:20,c56cc203-d5e1-4def-b45c-a3ed08a8d95e,S
2020-02-27 06:04:07,c56cc203-d5e1-4def-b45c-a3ed08a8d95e,A
2020-02-27 06:05:32,c56cc203-d5e1-4def-b45c-a3ed08a8d95e,S
2020-02-27 06:14:21,c56cc203-d5e1-4def-b45c-a3ed08a8d95e,A
2020-02-27 06:15:50,c56cc203-d5e1-4def-b45c-a3ed08a8d95e,S
2020-02-27 06:19:29,c56cc203-d5e1-4def-b45c-a3ed08a8d95e,A
2020-02-27 06:19:46,c56cc203-d5e1-4def-b45c-a3ed08a8d95e,S
2020-02-27 06:23:44,c56cc203-d5e1-4def-b45c-a3ed08a8d95e,A
2020-02-27 07:07:56,c56cc203-d5e1-4def-b45c-a3ed08a8d95e,S
2020-02-27 04:33:09,78fa792f-be4b-4d99-9aaa-c0efd3a727bf,S
2020-02-27 04:33:31,78fa792f-be4b-4d99-9aaa-c0efd3a727bf,A
2020-02-27 04:34:11,78fa792f-be4b-4d99-9aaa-c0efd3a727bf,S
2020-02-27 04:34:29,78fa792f-be4b-4d99-9aaa-c0efd3a727bf,A
2020-02-27 04:40:20,78fa792f-be4b-4d99-9aaa-c0efd3a727bf,S
2020-02-27 04:47:19,78fa792f-be4b-4d99-9aaa-c0efd3a727bf,A
2020-02-27 04:56:17,78fa792f-be4b-4d99-9aaa-c0efd3a727bf,S
2020-02-27 04:57:57,78fa792f-be4b-4d99-9aaa-c0efd3a727bf,A
2020-02-27 05:07:31,78fa792f-be4b-4d99-9aaa-c0efd3a727bf,S
2020-02-27 05:14:59,78fa792f-be4b-4d99-9aaa-c0efd3a727bf,A
2020-02-27 05:15:26,78fa792f-be4b-4d99-9aaa-c0efd3a727bf,S
2020-02-27 05:15:56,78fa792f-be4b-4d99-9aaa-c0efd3a727bf,A
2020-02-27 05:17:04,78fa792f-be4b-4d99-9aaa-c0efd3a727bf,S
2020-02-27 05:21:20,78fa792f-be4b-4d99-9aaa-c0efd3a727bf,A
2020-02-27 05:23:56,78fa792f-be4b-4d99-9aaa-c0efd3a727bf,S
2020-02-27 05:37:50,78fa792f-be4b-4d99-9aaa-c0efd3a727bf,A
2020-02-27 05:43:23,78fa792f-be4b-4d99-9aaa-c0efd3a727bf,S
2020-02-27 05:46:45,78fa792f-be4b-4d99-9aaa-c0efd3a727bf,A
2020-02-27 06:07:26,78fa792f-be4b-4d99-9aaa-c0efd3a727bf,S
2020-02-27 06:10:07,78fa792f-be4b-4d99-9aaa-c0efd3a727bf,A
2020-02-27 06:12:16,78fa792f-be4b-4d99-9aaa-c0efd3a727bf,S
2020-02-27 06:15:43,78fa792f-be4b-4d99-9aaa-c0efd3a727bf,A
2020-02-27 06:15:47,78fa792f-be4b-4d99-9aaa-c0efd3a727bf,S
2020-02-27 06:17:08,78fa792f-be4b-4d99-9aaa-c0efd3a727bf,A
2020-02-27 06:19:54,78fa792f-be4b-4d99-9aaa-c0efd3a727bf,S
2020-02-27 06:20:48,78fa792f-be4b-4d99-9aaa-c0efd3a727bf,A
2020-02-27 06:21:22,78fa792f-be4b-4d99-9aaa-c0efd3a727bf,S
2020-02-27 06:24:57,78fa792f-be4b-4d99-9aaa-c0efd3a727bf,A
2020-02-27 06:28:31,78fa792f-be4b-4d99-9aaa-c0efd3a727bf,S
2020-02-27 06:34:55,78fa792f-be4b-4d99-9aaa-c0efd3a727bf,A
2020-02-27 06:38:05,78fa792f-be4b-4d99-9aaa-c0efd3a727bf,S
2020-02-27 06:41:08,78fa792f-be4b-4d99-9aaa-c0efd3a727bf,A
2020-02-27 06:42:25,78fa792f-be4b-4d99-9aaa-c0efd3a727bf,S
2020-02-27 06:49:20,78fa792f-be4b-4d99-9aaa-c0efd3a727bf,A
2020-02-27 06:49:46,78fa792f-be4b-4d99-9aaa-c0efd3a727bf,S
2020-02-27 06:55:35,78fa792f-be4b-4d99-9aaa-c0efd3a727bf,A
2020-02-27 06:57:28,78fa792f-be4b-4d99-9aaa-c0efd3a727bf,S
2020-02-27 06:57:56,78fa792f-be4b-4d99-9aaa-c0efd3a727bf,A
2020-02-27 07:02:34,78fa792f-be4b-4d99-9aaa-c0efd3a727bf,S
2020-02-27 07:03:47,78fa792f-be4b-4d99-9aaa-c0efd3a727bf,A
2020-02-27 04:18:31,f54f0685-299c-44d4-808d-5c610e163e9c,S
2020-02-27 04:20:48,f54f0685-299c-44d4-808d-5c610e163e9c,A
2020-02-27 04:22:26,f54f0685-299c-44d4-808d-5c610e163e9c,S
2020-02-27 04:22:58,f54f0685-299c-44d4-808d-5c610e163e9c,A
2020-02-27 04:27:01,f54f0685-299c-44d4-808d-5c610e163e9c,S
2020-02-27 04:29:50,f54f0685-299c-44d4-808d-5c610e163e9c,A
2020-02-27 04:37:22,f54f0685-299c-44d4-808d-5c610e163e9c,S
2020-02-27 04:37:56,f54f0685-299c-44d4-808d-5c610e163e9c,A
2020-02-27 04:38:23,f54f0685-299c-44d4-808d-5c610e163e9c,S
2020-02-27 04:44:29,f54f0685-299c-44d4-808d-5c610e163e9c,A
2020-02-27 04:45:54,f54f0685-299c-44d4-808d-5c610e163e9c,S
2020-02-27 04:59:03,f54f0685-299c-44d4-808d-5c610e163e9c,A
2020-02-27 05:06:40,f54f0685-299c-44d4-808d-5c610e163e9c,S
2020-02-27 05:09:46,f54f0685-299c-44d4-808d-5c610e163e9c,A
2020-02-27 05:25:16,f54f0685-299c-44d4-808d-5c610e163e9c,S
2020-02-27 05:32:02,f54f0685-299c-44d4-808d-5c610e163e9c,A
2020-02-27 05:39:01,f54f0685-299c-44d4-808d-5c610e163e9c,S
2020-02-27 05:40:56,f54f0685-299c-44d4-808d-5c610e163e9c,A
2020-02-27 05:44:05,f54f0685-299c-44d4-808d-5c610e163e9c,S
2020-02-27 05:44:34,f54f0685-299c-44d4-808d-5c610e163e9c,A
2020-02-27 05:47:43,f54f0685-299c-44d4-808d-5c610e163e9c,S
2020-02-27 05:49:43,f54f0685-299c-44d4-808d-5c610e163e9c,A
2020-02-27 05:53:59,f54f0685-299c-44d4-808d-5c610e163e9c,S
2020-02-27 05:54:56,f54f0685-299c-44d4-808d-5c610e163e9c,A
2020-02-27 05:55:46,f54f0685-299c-44d4-808d-5c610e163e9c,S
2020-02-27 06:03:12,f54f0685-299c-44d4-808d-5c610e163e9c,A
2020-02-27 06:05:25,f54f0685-299c-44d4-808d-5c610e163e9c,S
2020-02-27 06:08:57,f54f0685-299c-44d4-808d-5c610e163e9c,A
2020-02-27 06:17:13,f54f0685-299c-44d4-808d-5c610e163e9c,S
2020-02-27 06:24:38,f54f0685-299c-44d4-808d-5c610e163e9c,A
2020-02-27 06:26:40,f54f0685-299c-44d4-808d-5c610e163e9c,S
2020-02-27 06:29:25,f54f0685-299c-44d4-808d-5c610e163e9c,A
2020-02-27 06:30:29,f54f0685-299c-44d4-808d-5c610e163e9c,S
2020-02-27 06:31:47,f54f0685-299c-44d4-808d-5c610e163e9c,A
2020-02-27 06:33:20,f54f0685-299c-44d4-808d-5c610e163e9c,S
2020-02-27 06:41:27,f54f0685-299c-44d4-808d-5c610e163e9c,A
2020-02-27 06:41:39,f54f0685-299c-44d4-808d-5c610e163e9c,S
2020-02-27 06:41:49,f54f0685-299c-44d4-808d-5c610e163e9c,A
2020-02-27 06:45:40,f54f0685-299c-44d4-808d-5c610e163e9c,S
2020-02-27 06:48:04,f54f0685-299c-44d4-808d-5c610e163e9c,A
2020-02-27 06:48:48,f54f0685-299c-44d4-808d-5c610e163e9c,S
2020-02-27 06:50:06,f54f0685-299c-44d4-808d-5c610e163e9c,A
2020-02-27 06:51:00,f54f0685-299c-44d4-808d-5c610e163e9c,S
2020-02-27 06:59:22,f54f0685-299c-44d4-808d-5c610e163e9c,A
2020-02-27 07:00:36,f54f0685-299c-44d4-808d-5c610e163e9c,S
2020-02-27 04:35:38,6a7a1aad-2a3e-487d-826e-5ecc958a4ba5,A
2020-02-27 04:40:38,6a7a1aad-2a3e-487d-826e-5ecc958a4ba5,S
2020-02-27 04:42:58,6a7a1aad-2a3e-487d-826e-5ecc958a4ba5,A
2020-02-27 04:53:15,6a7a1aad-2a3e-487d-826e-5ecc958a4ba5,S
2020-02-27 05:01:58,6a7a1aad-2a3e-487d-826e-5ecc958a4ba5,A
2020-02-27 05:03:57,6a7a1aad-2a3e-487d-826e-5ecc958a4ba5,S
2020-02-27 05:18:37,6a7a1aad-2a3e-487d-826e-5ecc958a4ba5,A
2020-02-27 05:18:50,6a7a1aad-2a3e-487d-826e-5ecc958a4ba5,S
2020-02-27 05:21:32,6a7a1aad-2a3e-487d-826e-5ecc958a4ba5,A
2020-02-27 05:24:53,6a7a1aad-2a3e-487d-826e-5ecc958a4ba5,S
2020-02-27 05:26:14,6a7a1aad-2a3e-487d-826e-5ecc958a4ba5,A
2020-02-27 05:26:36,6a7a1aad-2a3e-487d-826e-5ecc958a4ba5,S
2020-02-27 05:29:04,6a7a1aad-2a3e-487d-826e-5ecc958a4ba5,A
2020-02-27 05:30:50,6a7a1aad-2a3e-487d-826e-5ecc958a4ba5,S
2020-02-27 05:31:51,6a7a1aad-2a3e-487d-826e-5ecc958a4ba5,A
2020-02-27 05:34:08,6a7a1aad-2a3e-487d-826e-5ecc958a4ba5,S
2020-02-27 05:41:04,6a7a1aad-2a3e-487d-826e-5ecc958a4ba5,A
2020-02-27 05:43:16,6a7a1aad-2a3e-487d-826e-5ecc958a4ba5,S
2020-02-27 05:46:54,6a7a1aad-2a3e-487d-826e-5ecc958a4ba5,A
2020-02-27 05:50:10,6a7a1aad-2a3e-487d-826e-5ecc958a4ba5,S
2020-02-27 05:52:39,6a7a1aad-2a3e-487d-826e-5ecc958a4ba5,A
2020-02-27 05:53:22,6a7a1aad-2a3e-487d-826e-5ecc958a4ba5,S
2020-02-27 05:57:44,6a7a1aad-2a3e-487d-826e-5ecc958a4ba5,A
2020-02-27 06:05:14,6a7a1aad-2a3e-487d-826e-5ecc958a4ba5,S
2020-02-27 06:09:12,6a7a1aad-2a3e-487d-826e-5ecc958a4ba5,A
2020-02-27 06:11:58,6a7a1aad-2a3e-487d-826e-5ecc958a4ba5,S
2020-02-27 06:15:22,6a7a1aad-2a3e-487d-826e-5ecc958a4ba5,A
2020-02-27 06:20:24,6a7a1aad-2a3e-487d-826e-5ecc958a4ba5,S
2020-02-27 06:21:07,6a7a1aad-2a3e-487d-826e-5ecc958a4ba5,A
2020-02-27 06:25:06,6a7a1aad-2a3e-487d-826e-5ecc958a4ba5,S
2020-02-27 06:26:17,6a7a1aad-2a3e-487d-826e-5ecc958a4ba5,A
2020-02-27 06:33:00,6a7a1aad-2a3e-487d-826e-5ecc958a4ba5,S
2020-02-27 06:35:15,6a7a1aad-2a3e-487d-826e-5ecc958a4ba5,A
2020-02-27 06:37:10,6a7a1aad-2a3e-487d-826e-5ecc958a4ba5,S
2020-02-27 06:38:50,6a7a1aad-2a3e-487d-826e-5ecc958a4ba5,A
2020-02-27 06:48:46,6a7a1aad-2a3e-487d-826e-5ecc958a4ba5,S
2020-02-27 04:13:43,8f9cbdfa-c667-47ed-bad9-f7fd6161ea41,A
2020-02-27 04:16:46,8f9cbdfa-c667-47ed-bad9-f7fd6161ea41,S
2020-02-27 04:23:17,8f9cbdfa-c667-47ed-bad9-f7fd6161ea41,A
2020-02-27 04:30:06,8f9cbdfa-c667-47ed-bad9-f7fd6161ea41,S
2020-02-27 04:42:01,8f9cbdfa-c667-47ed-bad9-f7fd6161ea41,A
2020-02-27 04:42:19,8f9cbdfa-c667-47ed-bad9-f7fd6161ea41,S
2020-02-27 04:57:43,8f9cbdfa-c667-47ed-bad9-f7fd6161ea41,A
2020-02-27 05:00:36,8f9cbdfa-c667-47ed-bad9-f7fd6161ea41,S
2020-02-27 05:02:36,8f9cbdfa-c667-47ed-bad9-f7fd6161ea41,A
2020-02-27 05:10:43,8f9cbdfa-c667-47ed-bad9-f7fd6161ea41,S
2020-02-27 05:11:39,8f9cbdfa-c667-47ed-bad9-f7fd6161ea41,A
2020-02-27 05:13:52,8f9cbdfa-c667-47ed-bad9-f7fd6161ea41,S
2020-02-27 05:28:16,8f9cbdfa-c667-47ed-bad9-f7fd6161ea41,A
2020-02-27 05:33:34,8f9cbdfa-c667-47ed-bad9-f7fd6161ea41,S
2020-02-27 05:35:07,8f9cbdfa-c667-47ed-bad9-f7fd6161ea41,A
2020-02-27 05:35:56,8f9cbdfa-c667-47ed-bad9-f7fd6161ea41,S
2020-02-27 05:37:52,8f9cbdfa-c667-47ed-bad9-f7fd6161ea41,A
2020-02-27 05:41:10,8f9cbdfa-c667-47ed-bad9-f7fd6161ea41,S
2020-02-27 05:41:16,8f9cbdfa-c667-47ed-bad9-f7fd6161ea41,A
2020-02-27 05:53:36,8f9cbdfa-c667-47ed-bad9-f7fd6161ea41,S
2020-02-27 05:54:56,8f9cbdfa-c667-47ed-bad9-f7fd6161ea41,A
2020-02-27 05:59:48,8f9cbdfa-c667-47ed-bad9-f7fd6161ea41,S
2020-02-27 06:03:14,8f9cbdfa-c667-47ed-bad9-f7fd6161ea41,A
2020-02-27 06:04:28,8f9cbdfa-c667-47ed-bad9-f7fd6161ea41,S
2020-02-27 06:05:10,8f9cbdfa-c667-47ed-bad9-f7fd6161ea41,A
2020-02-27 06:17:50,8f9cbdfa-c667-47ed-bad9-f7fd6161ea41,S
2020-02-27 06:19:18,8f9cbdfa-c667-47ed-bad9-f7fd6161ea41,A
2020-02-27 06:20:32,8f9cbdfa-c667-47ed-bad9-f7fd6161ea41,S
2020-02-27 06:23:09,8f9cbdfa-c667-47ed-bad9-f7fd6161ea41,A
2020-02-27 06:29:42,8f9cbdfa-c667-47ed-bad9-f7fd6161ea41,S
2020-02-27 06:34:28,8f9cbdfa-c667-47ed-bad9-f7fd6161ea41,A
2020-02-27 06:36:06,8f9cbdfa-c667-47ed-bad9-f7fd6161ea41,S
2020-02-27 06:47:43,8f9cbdfa-c667-47ed-bad9-f7fd6161ea41,A
2020-02-27 06:51:47,8f9cbdfa-c667-47ed-bad9-f7fd6161ea41,S
2020-02-27 06:58:53,8f9cbdfa-c667-47ed-bad9-f7fd6161ea41,A
2020-02-27 06:58:55,8f9cbdfa-c667-47ed-bad9-f7fd6161ea41,S
2020-02-27 07:00:35,8f9cbdfa-c667-47ed-bad9-f7fd6161ea41,A
2020-02-27 04:36:06,20d80298-7dbd-472d-8557-77369abe2b4c,S
2020-02-27 04:37:52,20d80298-7dbd-472d-8557-77369abe2b4c,A
2020-02-27 04:39:50,20d80298-7dbd-472d-8557-77369abe2b4c,S
2020-02-27 04:42:09,20d80298-7dbd-472d-8557-77369abe2b4c,A
2020-02-27 04:45:31,20d80298-7dbd-472d-8557-77369abe2b4c,S
2020-02-27 04:57:07,20d80298-7dbd-472d-8557-77369abe2b4c,A
2020-02-27 04:58:38,20d80298-7dbd-472d-8557-77369abe2b4c,S
2020-02-27 05:11:47,20d80298-7dbd-472d-8557-77369abe2b4c,A
2020-02-27 05:17:30,20d80298-7dbd-472d-8557-77369abe2b4c,S
2020-02-27 05:23:52,20d80298-7dbd-472d-8557-77369abe2b4c,A
2020-02-27 05:26:45,20d80298-7dbd-472d-8557-77369abe2b4c,S
2020-02-27 05:34:45,20d80298-7dbd-472d-8557-77369abe2b4c,A
2020-02-27 05:40:54,20d80298-7dbd-472d-8557-77369abe2b4c,S
2020-02-27 05:44:18,20d80298-7dbd-472d-8557-77369abe2b4c,A
2020-02-27 05:45:11,20d80298-7dbd-472d-8557-77369abe2b4c,S
2020-02-27 05:54:14,20d80298-7dbd-472d-8557-77369abe2b4c,A
2020-02-27 05:56:16,20d80298-7dbd-472d-8557-77369abe2b4c,S
2020-02-27 05:57:23,20d80298-7dbd-472d-8557-77369abe2b4c,A
2020-02-27 06:00:43,20d80298-7dbd-472d-8557-77369abe2b4c,S
2020-02-27 06:01:55,20d80298-7dbd-472d-8557-77369abe2b4c,A
2020-02-27 06:04:39,20d80298-7dbd-472d-8557-77369abe2b4c,S
2020-02-27 06:07:53,20d80298-7dbd-472d-8557-77369abe2b4c,A
2020-02-27 06:11:29,20d80298-7dbd-472d-8557-77369abe2b4c,S
2020-02-27 06:11:53,20d80298-7dbd-472d-8557-77369abe2b4c,A
2020-02-27 06:24:58,20d80298-7dbd-472d-8557-77369abe2b4c,S
2020-02-27 06:26:47,20d80298-7dbd-472d-8557-77369abe2b4c,A
2020-02-27 06:30:37,20d80298-7dbd-472d-8557-77369abe2b4c,S
2020-02-27 06:46:06,20d80298-7dbd-472d-8557-77369abe2b4c,A
2020-02-27 06:52:43,20d80298-7dbd-472d-8557-77369abe2b4c,S
2020-02-27 06:57:56,20d80298-7dbd-472d-8557-77369abe2b4c,A
2020-02-27 06:59:01,20d80298-7dbd-472d-8557-77369abe2b4c,S
2020-02-27 04:39:39,96c1a0ed-8f9f-4151-aa69-3687e7a93209,A
2020-02-27 04:40:50,96c1a0ed-8f9f-4151-aa69-3687e7a93209,S
2020-02-27 04:45:22,96c1a0ed-8f9f-4151-aa69-3687e7a93209,A
2020-02-27 04:46:02,96c1a0ed-8f9f-4151-aa69-3687e7a93209,S
2020-02-27 04:56:05,96c1a0ed-8f9f-4151-aa69-3687e7a93209,A
2020-02-27 04:59:41,96c1a0ed-8f9f-4151-aa69-3687e7a93209,S
2020-02-27 05:10:57,96c1a0ed-8f9f-4151-aa69-3687e7a93209,A
2020-02-27 05:43:19,96c1a0ed-8f9f-4151-aa69-3687e7a93209,S
2020-02-27 05:45:00,96c1a0ed-8f9f-4151-aa69-3687e7a93209,A
2020-02-27 05:45:49,96c1a0ed-8f9f-4151-aa69-3687e7a93209,S
2020-02-27 05:49:13,96c1a0ed-8f9f-4151-aa69-3687e7a93209,A
2020-02-27 06:00:39,96c1a0ed-8f9f-4151-aa69-3687e7a93209,S
2020-02-27 06:05:21,96c1a0ed-8f9f-4151-aa69-3687e7a93209,A
2020-02-27 06:08:42,96c1a0ed-8f9f-4151-aa69-3687e7a93209,S
2020-02-27 06:15:00,96c1a0ed-8f9f-4151-aa69-3687e7a93209,A
2020-02-27 06:15:44,96c1a0ed-8f9f-4151-aa69-3687e7a93209,S
2020-02-27 06:19:24,96c1a0ed-8f9f-4151-aa69-3687e7a93209,A
2020-02-27 06:21:59,96c1a0ed-8f9f-4151-aa69-3687e7a93209,S
2020-02-27 06:30:35,96c1a0ed-8f9f-4151-aa69-3687e7a93209,A
2020-02-27 06:35:13,96c1a0ed-8f9f-4151-aa69-3687e7a93209,S
2020-02-27 06:36:24,96c1a0ed-8f9f-4151-aa69-3687e7a93209,A
2020-02-27 06:41:14,96c1a0ed-8f9f-4151-aa69-3687e7a93209,S
2020-02-27 06:44:38,96c1a0ed-8f9f-4151-aa69-3687e7a93209,A
2020-02-27 06:49:50,96c1a0ed-8f9f-4151-aa69-3687e7a93209,S
2020-02-27 06:51:18,96c1a0ed-8f9f-4151-aa69-3687e7a93209,A
2020-02-27 06:51:42,96c1a0ed-8f9f-4151-aa69-3687e7a93209,S
2020-02-27 06:56:09,96c1a0ed-8f9f-4151-aa69-3687e7a93209,A
2020-02-27 04:27:38,c78094e5-8b1d-4443-a345-a572a4226e9a,S
2020-02-27 04:33:10,c78094e5-8b1d-4443-a345-a572a4226e9a,A
2020-02-27 04:34:32,c78094e5-8b1d-4443-a345-a572a4226e9a,S
2020-02-27 04:48:53,c78094e5-8b1d-4443-a345-a572a4226e9a,A
2020-02-27 04:51:06,c78094e5-8b1d-4443-a345-a572a4226e9a,S
2020-02-27 04:53:30,c78094e5-8b1d-4443-a345-a572a4226e9a,A
2020-02-27 04:54:22,c78094e5-8b1d-4443-a345-a572a4226e9a,S
2020-02-27 04:57:53,c78094e5-8b1d-4443-a345-a572a4226e9a,A
2020-02-27 04:59:15,c78094e5-8b1d-4443-a345-a572a4226e9a,S
2020-02-27 05:02:51,c78094e5-8b1d-4443-a345-a572a4226e9a,A
2020-02-27 05:05:29,c78094e5-8b1d-4443-a345-a572a4226e9a,S
2020-02-27 05:05:57,c78094e5-8b1d-4443-a345-a572a4226e9a,A
2020-02-27 05:26:16,c78094e5-8b1d-4443-a345-a572a4226e9a,S
2020-02-27 05:30:55,c78094e5-8b1d-4443-a345-a572a4226e9a,A
2020-02-27 05:32:08,c78094e5-8b1d-4443-a345-a572a4226e9a,S
2020-02-27 05:33:56,c78094e5-8b1d-4443-a345-a572a4226e9a,A
2020-02-27 05:42:26,c78094e5-8b1d-4443-a345-a572a4226e9a,S
2020-02-27 05:43:45,c78094e5-8b1d-4443-a345-a572a4226e9a,A
2020-02-27 05:43:46,c78094e5-8b1d-4443-a345-a572a4226e9a,S
2020-02-27 05:52:22,c78094e5-8b1d-4443-a345-a572a4226e9a,A
2020-02-27 05:53:37,c78094e5-8b1d-4443-a345-a572a4226e9a,S
2020-02-27 05:54:27,c78094e5-8b1d-4443-a345-a572a4226e9a,A
2020-02-27 05:58:14,c78094e5-8b1d-4443-a345-a572a4226e9a,S
2020-02-27 05:59:20,c78094e5-8b1d-4443-a345-a572a4226e9a,A
2020-02-27 05:59:33,c78094e5-8b1d-4443-a345-a572a4226e9a,S
2020-02-27 06:05:05,c78094e5-8b1d-4443-a345-a572a4226e9a,A
2020-02-27 06:10:24,c78094e5-8b1d-4443-a345-a572a4226e9a,S
2020-02-27 06:22:40,c78094e5-8b1d-4443-a345-a572a4226e9a,A
2020-02-27 06:22:55,c78094e5-8b1d-4443-a345-a572a4226e9a,S
2020-02-27 06:27:06,c78094e5-8b1d-4443-a345-a572a4226e9a,A
2020-02-27 06:36:42,c78094e5-8b1d-4443-a345-a572a4226e9a,S
2020-02-27 06:48:47,c78094e5-8b1d-4443-a345-a572a4226e9a,A
2020-02-27 06:52:17,c78094e5-8b1d-4443-a345-a572a4226e9a,S
2020-02-27 06:56:39,c78094e5-8b1d-4443-a345-a572a4226e9a,A
2020-02-27 06:58:04,c78094e5-8b1d-4443-a345-a572a4226e9a,S
2020-02-27 06:58:39,c78094e5-8b1d-4443-a345-a572a4226e9a,A
2020-02-27 07:05:40,c78094e5-8b1d-4443-a345-a572a4226e9a,S
2020-02-27 07:07:08,c78094e5-8b1d-4443-a345-a572a4226e9a,A
2020-02-27 07:07:40,c78094e5-8b1d-4443-a345-a572a4226e9a,S
2020-02-27 04:18:47,5f05d43a-c4d8-478f-a4aa-6204b4d15ad5,A
2020-02-27 04:22:02,5f05d43a-c4d8-478f-a4aa-6204b4d15ad5,S
2020-02-27 04:27:07,5f05d43a-c4d8-478f-a4aa-6204b4d15ad5,A
2020-02-27 04:35:42,5f05d43a-c4d8-478f-a4aa-6204b4d15ad5,S
2020-02-27 04:40:10,5f05d43a-c4d8-478f-a4aa-6204b4d15ad5,A
2020-02-27 04:43:18,5f05d43a-c4d8-478f-a4aa-6204b4d15ad5,S
2020-02-27 04:44:08,5f05d43a-c4d8-478f-a4aa-6204b4d15ad5,A
2020-02-27 04:45:31,5f05d43a-c4d8-478f-a4aa-6204b4d15ad5,S
2020-02-27 04:50:46,5f05d43a-c4d8-478f-a4aa-6204b4d15ad5,A
2020-02-27 04:56:22,5f05d43a-c4d8-478f-a4aa-6204b4d15ad5,S
2020-02-27 04:50:01,88756bc6-08ee-4084-b047-26edda84013b,A
2020-02-27 04:51:27,88756bc6-08ee-4084-b047-26edda84013b,S
2020-02-27 05:00:01,88756bc6-08ee-4084-b047-26edda84013b,A
2020-02-27 05:02:25,88756bc6-08ee-4084-b047-26edda84013b,S
2020-02-27 05:03:19,88756bc6-08ee-4084-b047-26edda84013b,A
2020-02-27 05:03:40,88756bc6-08ee-4084-b047-26edda84013b,S
2020-02-27 05:06:20,88756bc6-08ee-4084-b047-26edda84013b,A
2020-02-27 05:06:34,88756bc6-08ee-4084-b047-26edda84013b,S
2020-02-27 05:10:47,88756bc6-08ee-4084-b047-26edda84013b,A
2020-02-27 05:13:57,88756bc6-08ee-4084-b047-26edda84013b,S
2020-02-27 05:20:43,88756bc6-08ee-4084-b047-26edda84013b,A
2020-02-27 05:24:31,88756bc6-08ee-4084-b047-26edda84013b,S
2020-02-27 05:27:43,88756bc6-08ee-4084-b047-26edda84013b,A
2020-02-27 05:27:50,88756bc6-08ee-4084-b047-26edda84013b,S
2020-02-27 05:31:20,88756bc6-08ee-4084-b047-26edda84013b,A
2020-02-27 05:31:23,88756bc6-08ee-4084-b047-26edda84013b,S
2020-02-27 05:39:10,88756bc6-08ee-4084-b047-26edda84013b,A
2020-02-27 05:43:30,88756bc6-08ee-4084-b047-26edda84013b,S
2020-02-27 05:53:38,88756bc6-08ee-4084-b047-26edda84013b,A
2020-02-27 06:00:13,88756bc6-08ee-4084-b047-26edda84013b,S
2020-02-27 06:04:23,88756bc6-08ee-4084-b047-26edda84013b,A
2020-02-27 06:15:12,88756bc6-08ee-4084-b047-26edda84013b,S
2020-02-27 06:18:02,88756bc6-08ee-4084-b047-26edda84013b,A
2020-02-27 06:23:32,88756bc6-08ee-4084-b047-26edda84013b,S
2020-02-27 06:34:39,88756bc6-08ee-4084-b047-26edda84013b,A
2020-02-27 06:38:22,88756bc6-08ee-4084-b047-26edda84013b,S
2020-02-27 06:52:39,88756bc6-08ee-4084-b047-26edda84013b,A
2020-02-27 06:58:40,88756bc6-08ee-4084-b047-26edda84013b,S
2020-02-27 07:03:40,88756bc6-08ee-4084-b047-26edda84013b,A
2020-02-27 07:04:02,88756bc6-08ee-4084-b047-26edda84013b,S
2020-02-27 07:06:01,88756bc6-08ee-4084-b047-26edda84013b,A
2020-02-27 04:36:14,84548ea8-0770-4839-9f7d-c2ec7a1b02db,A
2020-02-27 04:38:23,84548ea8-0770-4839-9f7d-c2ec7a1b02db,S
2020-02-27 04:38:31,84548ea8-0770-4839-9f7d-c2ec7a1b02db,A
2020-02-27 04:39:57,84548ea8-0770-4839-9f7d-c2ec7a1b02db,S
2020-02-27 04:46:43,84548ea8-0770-4839-9f7d-c2ec7a1b02db,A
2020-02-27 04:48:09,84548ea8-0770-4839-9f7d-c2ec7a1b02db,S
2020-02-27 04:51:27,84548ea8-0770-4839-9f7d-c2ec7a1b02db,A
2020-02-27 04:53:08,84548ea8-0770-4839-9f7d-c2ec7a1b02db,S
2020-02-27 04:56:22,84548ea8-0770-4839-9f7d-c2ec7a1b02db,A
2020-02-27 04:57:50,84548ea8-0770-4839-9f7d-c2ec7a1b02db,S
2020-02-27 04:57:57,84548ea8-0770-4839-9f7d-c2ec7a1b02db,A
2020-02-27 04:58:18,84548ea8-0770-4839-9f7d-c2ec7a1b02db,S
2020-02-27 05:01:28,84548ea8-0770-4839-9f7d-c2ec7a1b02db,A
2020-02-27 05:04:07,84548ea8-0770-4839-9f7d-c2ec7a1b02db,S
2020-02-27 05:04:20,84548ea8-0770-4839-9f7d-c2ec7a1b02db,A
2020-02-27 05:11:24,84548ea8-0770-4839-9f7d-c2ec7a1b02db,S
2020-02-27 05:13:04,84548ea8-0770-4839-9f7d-c2ec7a1b02db,A
2020-02-27 05:13:15,84548ea8-0770-4839-9f7d-c2ec7a1b02db,S
2020-02-27 05:17:37,84548ea8-0770-4839-9f7d-c2ec7a1b02db,A
2020-02-27 05:19:29,84548ea8-0770-4839-9f7d-c2ec7a1b02db,S
2020-02-27 05:28:31,84548ea8-0770-4839-9f7d-c2ec7a1b02db,A
2020-02-27 05:30:05,84548ea8-0770-4839-9f7d-c2ec7a1b02db,S
2020-02-27 05:38:01,84548ea8-0770-4839-9f7d-c2ec7a1b02db,A
2020-02-27 05:41:00,84548ea8-0770-4839-9f7d-c2ec7a1b02db,S
2020-02-27 05:43:49,84548ea8-0770-4839-9f7d-c2ec7a1b02db,A
2020-02-27 05:44:15,84548ea8-0770-4839-9f7d-c2ec7a1b02db,S
2020-02-27 05:47:44,84548ea8-0770-4839-9f7d-c2ec7a1b02db,A
2020-02-27 05:51:25,84548ea8-0770-4839-9f7d-c2ec7a1b02db,S
2020-02-27 05:51:28,84548ea8-0770-4839-9f7d-c2ec7a1b02db,A
2020-02-27 06:00:47,84548ea8-0770-4839-9f7d-c2ec7a1b02db,S
2020-02-27 06:01:19,84548ea8-0770-4839-9f7d-c2ec7a1b02db,A
2020-02-27 06:05:54,84548ea8-0770-4839-9f7d-c2ec7a1b02db,S
2020-02-27 06:11:37,84548ea8-0770-4839-9f7d-c2ec7a1b02db,A
2020-02-27 06:16:44,84548ea8-0770-4839-9f7d-c2ec7a1b02db,S
2020-02-27 06:21:08,84548ea8-0770-4839-9f7d-c2ec7a1b02db,A
2020-02-27 06:29:35,84548ea8-0770-4839-9f7d-c2ec7a1b02db,S
2020-02-27 06:32:18,84548ea8-0770-4839-9f7d-c2ec7a1b02db,A
2020-02-27 06:33:36,84548ea8-0770-4839-9f7d-c2ec7a1b02db,S
2020-02-27 06:35:07,84548ea8-0770-4839-9f7d-c2ec7a1b02db,A
2020-02-27 06:48:41,84548ea8-0770-4839-9f7d-c2ec7a1b02db,S
2020-02-27 06:50:17,84548ea8-0770-4839-9f7d-c2ec7a1b02db,A
2020-02-27 06:51:42,84548ea8-0770-4839-9f7d-c2ec7a1b02db,S
2020-02-27 06:57:42,84548ea8-0770-4839-9f7d-c2ec7a1b02db,A
2020-02-27 06:58:13,84548ea8-0770-4839-9f7d-c2ec7a1b02db,S
2020-02-27 07:01:14,84548ea8-0770-4839-9f7d-c2ec7a1b02db,A
2020-02-27 07:03:00,84548ea8-0770-4839-9f7d-c2ec7a1b02db,S
2020-02-27 07:04:19,84548ea8-0770-4839-9f7d-c2ec7a1b02db,A
2020-02-27 07:06:57,84548ea8-0770-4839-9f7d-c2ec7a1b02db,S
2020-02-27 07:10:01,84548ea8-0770-4839-9f7d-c2ec7a1b02db,A
2020-02-27 04:31:24,0d36e7e8-f8b5-4b72-b020-d78cedcf9d7c,S
2020-02-27 04:41:31,0d36e7e8-f8b5-4b72-b020-d78cedcf9d7c,A
2020-02-27 04:48:18,0d36e7e8-f8b5-4b72-b020-d78cedcf9d7c,S
2020-02-27 04:49:32,0d36e7e8-f8b5-4b72-b020-d78cedcf9d7c,A
2020-02-27 04:50:26,0d36e7e8-f8b5-4b72-b020-d78cedcf9d7c,S
2020-02-27 04:56:18,0d36e7e8-f8b5-4b72-b020-d78cedcf9d7c,A
2020-02-27 05:05:40,0d36e7e8-f8b5-4b72-b020-d78cedcf9d7c,S
2020-02-27 05:14:43,0d36e7e8-f8b5-4b72-b020-d78cedcf9d7c,A
2020-02-27 05:17:13,0d36e7e8-f8b5-4b72-b020-d78cedcf9d7c,S
2020-02-27 05:17:20,0d36e7e8-f8b5-4b72-b020-d78cedcf9d7c,A
2020-02-27 05:20:03,0d36e7e8-f8b5-4b72-b020-d78cedcf9d7c,S
2020-02-27 05:29:35,0d36e7e8-f8b5-4b72-b020-d78cedcf9d7c,A
2020-02-27 05:30:15,0d36e7e8-f8b5-4b72-b020-d78cedcf9d7c,S
2020-02-27 05:34:41,0d36e7e8-f8b5-4b72-b020-d78cedcf9d7c,A
2020-02-27 05:42:42,0d36e7e8-f8b5-4b72-b020-d78cedcf9d7c,S
2020-02-27 05:48:20,0d36e7e8-f8b5-4b72-b020-d78cedcf9d7c,A
2020-02-27 05:49:03,0d36e7e8-f8b5-4b72-b020-d78cedcf9d7c,S
2020-02-27 05:57:53,0d36e7e8-f8b5-4b72-b020-d78cedcf9d7c,A
2020-02-27 06:03:08,0d36e7e8-f8b5-4b72-b020-d78cedcf9d7c,S
2020-02-27 06:06:00,0d36e7e8-f8b5-4b72-b020-d78cedcf9d7c,A
2020-02-27 06:06:26,0d36e7e8-f8b5-4b72-b020-d78cedcf9d7c,S
2020-02-27 06:11:33,0d36e7e8-f8b5-4b72-b020-d78cedcf9d7c,A
2020-02-27 06:12:36,0d36e7e8-f8b5-4b72-b020-d78cedcf9d7c,S
2020-02-27 06:14:32,0d36e7e8-f8b5-4b72-b020-d78cedcf9d7c,A
2020-02-27 06:22:06,0d36e7e8-f8b5-4b72-b020-d78cedcf9d7c,S
2020-02-27 06:23:31,0d36e7e8-f8b5-4b72-b020-d78cedcf9d7c,A
2020-02-27 06:33:25,0d36e7e8-f8b5-4b72-b020-d78cedcf9d7c,S
2020-02-27 06:35:13,0d36e7e8-f8b5-4b72-b020-d78cedcf9d7c,A
2020-02-27 06:40:07,0d36e7e8-f8b5-4b72-b020-d78cedcf9d7c,S
2020-02-27 06:44:31,0d36e7e8-f8b5-4b72-b020-d78cedcf9d7c,A
2020-02-27 06:53:15,0d36e7e8-f8b5-4b72-b020-d78cedcf9d7c,S
2020-02-27 06:54:46,0d36e7e8-f8b5-4b72-b020-d78cedcf9d7c,A
2020-02-27 06:56:40,0d36e7e8-f8b5-4b72-b020-d78cedcf9d7c,S
2020-02-27 06:59:07,0d36e7e8-f8b5-4b72-b020-d78cedcf9d7c,A
2020-02-27 07:03:21,0d36e7e8-f8b5-4b72-b020-d78cedcf9d7c,S
2020-02-27 07:09:10,0d36e7e8-f8b5-4b72-b020-d78cedcf9d7c,A
2020-02-27 04:24:00,e718f8d0-698a-4ee7-b04c-bfa7ac37eda3,A
2020-02-27 04:31:47,e718f8d0-698a-4ee7-b04c-bfa7ac37eda3,S
2020-02-27 04:33:40,e718f8d0-698a-4ee7-b04c-bfa7ac37eda3,A
2020-02-27 04:34:58,e718f8d0-698a-4ee7-b04c-bfa7ac37eda3,S
2020-02-27 04:39:46,e718f8d0-698a-4ee7-b04c-bfa7ac37eda3,A
2020-02-27 04:53:43,e718f8d0-698a-4ee7-b04c-bfa7ac37eda3,S
2020-02-27 04:54:25,e718f8d0-698a-4ee7-b04c-bfa7ac37eda3,A
2020-02-27 04:54:28,e718f8d0-698a-4ee7-b04c-bfa7ac37eda3,S
2020-02-27 04:57:43,e718f8d0-698a-4ee7-b04c-bfa7ac37eda3,A
2020-02-27 04:57:48,e718f8d0-698a-4ee7-b04c-bfa7ac37eda3,S
2020-02-27 04:59:51,e718f8d0-698a-4ee7-b04c-bfa7ac37eda3,A
2020-02-27 05:00:12,e718f8d0-698a-4ee7-b04c-bfa7ac37eda3,S
2020-02-27 05:01:12,e718f8d0-698a-4ee7-b04c-bfa7ac37eda3,A
2020-02-27 05:01:46,e718f8d0-698a-4ee7-b04c-bfa7ac37eda3,S
2020-02-27 05:04:33,e718f8d0-698a-4ee7-b04c-bfa7ac37eda3,A
2020-02-27 05:12:30,e718f8d0-698a-4ee7-b04c-bfa7ac37eda3,S
2020-02-27 05:20:35,e718f8d0-698a-4ee7-b04c-bfa7ac37eda3,A
2020-02-27 05:31:12,e718f8d0-698a-4ee7-b04c-bfa7ac37eda3,S
2020-02-27 05:31:58,e718f8d0-698a-4ee7-b04c-bfa7ac37eda3,A
2020-02-27 05:32:05,e718f8d0-698a-4ee7-b04c-bfa7ac37eda3,S
2020-02-27 05:41:01,e718f8d0-698a-4ee7-b04c-bfa7ac37eda3,A
2020-02-27 05:51:44,e718f8d0-698a-4ee7-b04c-bfa7ac37eda3,S
2020-02-27 05:57:16,e718f8d0-698a-4ee7-b04c-bfa7ac37eda3,A
2020-02-27 05:59:54,e718f8d0-698a-4ee7-b04c-bfa7ac37eda3,S
2020-02-27 06:00:38,e718f8d0-698a-4ee7-b04c-bfa7ac37eda3,A
2020-02-27 06:05:18,e718f8d0-698a-4ee7-b04c-bfa7ac37eda3,S
2020-02-27 06:07:09,e718f8d0-698a-4ee7-b04c-bfa7ac37eda3,A
2020-02-27 06:20:24,e718f8d0-698a-4ee7-b04c-bfa7ac37eda3,S
2020-02-27 06:22:17,e718f8d0-698a-4ee7-b04c-bfa7ac37eda3,A
2020-02-27 06:28:29,e718f8d0-698a-4ee7-b04c-bfa7ac37eda3,S
2020-02-27 06:31:16,e718f8d0-698a-4ee7-b04c-bfa7ac37eda3,A
2020-02-27 06:33:04,e718f8d0-698a-4ee7-b04c-bfa7ac37eda3,S
2020-02-27 06:33:27,e718f8d0-698a-4ee7-b04c-bfa7ac37eda3,A
2020-02-27 06:34:06,e718f8d0-698a-4ee7-b04c-bfa7ac37eda3,S
2020-02-27 06:46:37,e718f8d0-698a-4ee7-b04c-bfa7ac37eda3,A
2020-02-27 06:46:38,e718f8d0-698a-4ee7-b04c-bfa7ac37eda3,S
2020-02-27 06:47:14,e718f8d0-698a-4ee7-b04c-bfa7ac37eda3,A
2020-02-27 06:47:43,e718f8d0-698a-4ee7-b04c-bfa7ac37eda3,S
2020-02-27 07:01:07,e718f8d0-698a-4ee7-b04c-bfa7ac37eda3,A
2020-02-27 07:06:15,e718f8d0-698a-4ee7-b04c-bfa7ac37eda3,S
2020-02-27 04:55:07,279edfcd-d5c6-43cc-b435-d69c22a3d6c7,S
2020-02-27 04:55:33,279edfcd-d5c6-43cc-b435-d69c22a3d6c7,A
2020-02-27 05:11:12,279edfcd-d5c6-43cc-b435-d69c22a3d6c7,S
2020-02-27 05:12:23,279edfcd-d5c6-43cc-b435-d69c22a3d6c7,A
2020-02-27 05:25:48,279edfcd-d5c6-43cc-b435-d69c22a3d6c7,S
2020-02-27 05:28:44,279edfcd-d5c6-43cc-b435-d69c22a3d6c7,A
2020-02-27 05:30:08,279edfcd-d5c6-43cc-b435-d69c22a3d6c7,S
2020-02-27 05:49:51,279edfcd-d5c6-43cc-b435-d69c22a3d6c7,A
2020-02-27 05:50:04,279edfcd-d5c6-43cc-b435-d69c22a3d6c7,S
2020-02-27 05:56:36,279edfcd-d5c6-43cc-b435-d69c22a3d6c7,A
2020-02-27 06:00:06,279edfcd-d5c6-43cc-b435-d69c22a3d6c7,S
2020-02-27 06:03:21,279edfcd-d5c6-43cc-b435-d69c22a3d6c7,A
2020-02-27 06:09:16,279edfcd-d5c6-43cc-b435-d69c22a3d6c7,S
2020-02-27 06:29:10,279edfcd-d5c6-43cc-b435-d69c22a3d6c7,A
2020-02-27 06:32:48,279edfcd-d5c6-43cc-b435-d69c22a3d6c7,S
2020-02-27 06:45:02,279edfcd-d5c6-43cc-b435-d69c22a3d6c7,A
2020-02-27 06:50:44,279edfcd-d5c6-43cc-b435-d69c22a3d6c7,S
2020-02-27 06:56:16,279edfcd-d5c6-43cc-b435-d69c22a3d6c7,A
2020-02-27 07:04:38,279edfcd-d5c6-43cc-b435-d69c22a3d6c7,S
2020-02-27 04:43:28,9dd6d6f0-bbdd-4b69-95a9-d03653025cbc,A
2020-02-27 04:49:11,9dd6d6f0-bbdd-4b69-95a9-d03653025cbc,S
2020-02-27 04:50:59,9dd6d6f0-bbdd-4b69-95a9-d03653025cbc,A
2020-02-27 04:53:10,9dd6d6f0-bbdd-4b69-95a9-d03653025cbc,S
2020-02-27 04:55:56,9dd6d6f0-bbdd-4b69-95a9-d03653025cbc,A
2020-02-27 05:00:48,9dd6d6f0-bbdd-4b69-95a9-d03653025cbc,S
2020-02-27 05:06:30,9dd6d6f0-bbdd-4b69-95a9-d03653025cbc,A
2020-02-27 05:08:10,9dd6d6f0-bbdd-4b69-95a9-d03653025cbc,S
2020-02-27 05:09:16,9dd6d6f0-bbdd-4b69-95a9-d03653025cbc,A
2020-02-27 05:13:06,9dd6d6f0-bbdd-4b69-95a9-d03653025cbc,S
2020-02-27 05:16:26,9dd6d6f0-bbdd-4b69-95a9-d03653025cbc,A
2020-02-27 05:24:30,9dd6d6f0-bbdd-4b69-95a9-d03653025cbc,S
2020-02-27 05:33:31,9dd6d6f0-bbdd-4b69-95a9-d03653025cbc,A
2020-02-27 05:34:15,9dd6d6f0-bbdd-4b69-95a9-d03653025cbc,S
2020-02-27 05:44:32,9dd6d6f0-bbdd-4b69-95a9-d03653025cbc,A
2020-02-27 05:44:38,9dd6d6f0-bbdd-4b69-95a9-d03653025cbc,S
2020-02-27 05:45:56,9dd6d6f0-bbdd-4b69-95a9-d03653025cbc,A
2020-02-27 05:50:34,9dd6d6f0-bbdd-4b69-95a9-d03653025cbc,S
2020-02-27 05:56:41,9dd6d6f0-bbdd-4b69-95a9-d03653025cbc,A
2020-02-27 06:06:14,9dd6d6f0-bbdd-4b69-95a9-d03653025cbc,S
2020-02-27 06:09:37,9dd6d6f0-bbdd-4b69-95a9-d03653025cbc,A
2020-02-27 06:11:05,9dd6d6f0-bbdd-4b69-95a9-d03653025cbc,S
2020-02-27 06:12:38,9dd6d6f0-bbdd-4b69-95a9-d03653025cbc,A
2020-02-27 06:21:23,9dd6d6f0-bbdd-4b69-95a9-d03653025cbc,S
2020-02-27 06:22:19,9dd6d6f0-bbdd-4b69-95a9-d03653025cbc,A
2020-02-27 06:26:26,9dd6d6f0-bbdd-4b69-95a9-d03653025cbc,S
2020-02-27 06:29:18,9dd6d6f0-bbdd-4b69-95a9-d03653025cbc,A
2020-02-27 06:32:57,9dd6d6f0-bbdd-4b69-95a9-d03653025cbc,S
2020-02-27 06:35:19,9dd6d6f0-bbdd-4b69-95a9-d03653025cbc,A
2020-02-27 06:35:41,9dd6d6f0-bbdd-4b69-95a9-d03653025cbc,S
2020-02-27 06:42:40,9dd6d6f0-bbdd-4b69-95a9-d03653025cbc,A
2020-02-27 06:42:47,9dd6d6f0-bbdd-4b69-95a9-d03653025cbc,S
2020-02-27 06:49:44,9dd6d6f0-bbdd-4b69-95a9-d03653025cbc,A
2020-02-27 06:58:52,9dd6d6f0-bbdd-4b69-95a9-d03653025cbc,S
2020-02-27 07:00:58,9dd6d6f0-bbdd-4b69-95a9-d03653025cbc,A
2020-02-27 07:01:41,9dd6d6f0-bbdd-4b69-95a9-d03653025cbc,S
2020-02-27 07:05:30,9dd6d6f0-bbdd-4b69-95a9-d03653025cbc,A
2020-02-27 04:32:09,ec59bf28-683a-4e11-a968-54a4f648c0aa,A
2020-02-27 04:38:58,ec59bf28-683a-4e11-a968-54a4f648c0aa,S
2020-02-27 04:39:12,ec59bf28-683a-4e11-a968-54a4f648c0aa,A
2020-02-27 04:48:52,ec59bf28-683a-4e11-a968-54a4f648c0aa,S
2020-02-27 04:54:00,ec59bf28-683a-4e11-a968-54a4f648c0aa,A
2020-02-27 05:03:47,ec59bf28-683a-4e11-a968-54a4f648c0aa,S
2020-02-27 05:08:15,ec59bf28-683a-4e11-a968-54a4f648c0aa,A
2020-02-27 05:10:34,ec59bf28-683a-4e11-a968-54a4f648c0aa,S
2020-02-27 05:10:41,ec59bf28-683a-4e11-a968-54a4f648c0aa,A
2020-02-27 05:17:58,ec59bf28-683a-4e11-a968-54a4f648c0aa,S
2020-02-27 05:19:56,ec59bf28-683a-4e11-a968-54a4f648c0aa,A
2020-02-27 05:21:47,ec59bf28-683a-4e11-a968-54a4f648c0aa,S
2020-02-27 05:29:37,ec59bf28-683a-4e11-a968-54a4f648c0aa,A
2020-02-27 05:30:15,ec59bf28-683a-4e11-a968-54a4f648c0aa,S
2020-02-27 05:32:23,ec59bf28-683a-4e11-a968-54a4f648c0aa,A
2020-02-27 05:44:28,ec59bf28-683a-4e11-a968-54a4f648c0aa,S
2020-02-27 05:59:15,ec59bf28-683a-4e11-a968-54a4f648c0aa,A
2020-02-27 05:59:24,ec59bf28-683a-4e11-a968-54a4f648c0aa,S
2020-02-27 06:12:58,ec59bf28-683a-4e11-a968-54a4f648c0aa,A
2020-02-27 06:17:52,ec59bf28-683a-4e11-a968-54a4f648c0aa,S
2020-02-27 06:18:24,ec59bf28-683a-4e11-a968-54a4f648c0aa,A
2020-02-27 06:22:16,ec59bf28-683a-4e11-a968-54a4f648c0aa,S
2020-02-27 06:22:57,ec59bf28-683a-4e11-a968-54a4f648c0aa,A
2020-02-27 06:31:36,ec59bf28-683a-4e11-a968-54a4f648c0aa,S
2020-02-27 06:32:40,ec59bf28-683a-4e11-a968-54a4f648c0aa,A
2020-02-27 06:34:55,ec59bf28-683a-4e11-a968-54a4f648c0aa,S
2020-02-27 06:37:05,ec59bf28-683a-4e11-a968-54a4f648c0aa,A
2020-02-27 06:39:27,ec59bf28-683a-4e11-a968-54a4f648c0aa,S
2020-02-27 06:43:18,ec59bf28-683a-4e11-a968-54a4f648c0aa,A
2020-02-27 06:44:30,ec59bf28-683a-4e11-a968-54a4f648c0aa,S
2020-02-27 06:45:20,ec59bf28-683a-4e11-a968-54a4f648c0aa,A
2020-02-27 06:47:30,ec59bf28-683a-4e11-a968-54a4f648c0aa,S
2020-02-27 06:47:52,ec59bf28-683a-4e11-a968-54a4f648c0aa,A
2020-02-27 06:48:09,ec59bf28-683a-4e11-a968-54a4f648c0aa,S
2020-02-27 06:52:40,ec59bf28-683a-4e11-a968-54a4f648c0aa,A
2020-02-27 06:53:30,ec59bf28-683a-4e11-a968-54a4f648c0aa,S
2020-02-27 07:03:02,ec59bf28-683a-4e11-a968-54a4f648c0aa,A
2020-02-27 07:09:05,ec59bf28-683a-4e11-a968-54a4f648c0aa,S
2020-02-27 04:44:48,ba012139-a3b5-4494-bbaa-26a595931619,S
2020-02-27 04:47:07,ba012139-a3b5-4494-bbaa-26a595931619,A
2020-02-27 04:54:59,ba012139-a3b5-4494-bbaa-26a595931619,S
2020-02-27 05:07:12,ba012139-a3b5-4494-bbaa-26a595931619,A
2020-02-27 05:10:56,ba012139-a3b5-4494-bbaa-26a595931619,S
2020-02-27 05:19:49,ba012139-a3b5-4494-bbaa-26a595931619,A
2020-02-27 05:22:08,ba012139-a3b5-4494-bbaa-26a595931619,S
2020-02-27 05:27:22,ba012139-a3b5-4494-bbaa-26a595931619,A
2020-02-27 05:34:31,ba012139-a3b5-4494-bbaa-26a595931619,S
2020-02-27 05:39:44,ba012139-a3b5-4494-bbaa-26a595931619,A
2020-02-27 05:41:38,ba012139-a3b5-4494-bbaa-26a595931619,S
2020-02-27 05:53:08,ba012139-a3b5-4494-bbaa-26a595931619,A
2020-02-27 05:58:40,ba012139-a3b5-4494-bbaa-26a595931619,S
2020-02-27 05:59:02,ba012139-a3b5-4494-bbaa-26a595931619,A
2020-02-27 06:06:52,ba012139-a3b5-4494-bbaa-26a595931619,S
2020-02-27 06:13:19,ba012139-a3b5-4494-bbaa-26a595931619,A
2020-02-27 06:25:04,ba012139-a3b5-4494-bbaa-26a595931619,S
2020-02-27 06:27:57,ba012139-a3b5-4494-bbaa-26a595931619,A
2020-02-27 06:32:20,ba012139-a3b5-4494-bbaa-26a595931619,S
2020-02-27 06:36:17,ba012139-a3b5-4494-bbaa-26a595931619,A
2020-02-27 06:41:49,ba012139-a3b5-4494-bbaa-26a595931619,S
2020-02-27 06:49:58,ba012139-a3b5-4494-bbaa-26a595931619,A
2020-02-27 06:50:13,ba012139-a3b5-4494-bbaa-26a595931619,S
2020-02-27 06:51:03,ba012139-a3b5-4494-bbaa-26a595931619,A
2020-02-27 06:54:20,ba012139-a3b5-4494-bbaa-26a595931619,S
2020-02-27 06:57:38,ba012139-a3b5-4494-bbaa-26a595931619,A
2020-02-27 06:58:26,ba012139-a3b5-4494-bbaa-26a595931619,S
2020-02-27 07:02:16,ba012139-a3b5-4494-bbaa-26a595931619,A
2020-02-27 07:08:24,ba012139-a3b5-4494-bbaa-26a595931619,S
2020-02-27 07:09:34,ba012139-a3b5-4494-bbaa-26a595931619,A
2020-02-27 04:23:00,42b70752-4fa8-47a0-8ccc-31d0e58661e1,A
2020-02-27 04:23:03,42b70752-4fa8-47a0-8ccc-31d0e58661e1,S
2020-02-27 04:25:21,42b70752-4fa8-47a0-8ccc-31d0e58661e1,A
2020-02-27 04:27:48,42b70752-4fa8-47a0-8ccc-31d0e58661e1,S
2020-02-27 04:28:08,42b70752-4fa8-47a0-8ccc-31d0e58661e1,A
2020-02-27 04:33:45,42b70752-4fa8-47a0-8ccc-31d0e58661e1,S
2020-02-27 04:37:31,42b70752-4fa8-47a0-8ccc-31d0e58661e1,A
2020-02-27 04:41:27,42b70752-4fa8-47a0-8ccc-31d0e58661e1,S
2020-02-27 04:54:36,42b70752-4fa8-47a0-8ccc-31d0e58661e1,A
2020-02-27 04:54:59,42b70752-4fa8-47a0-8ccc-31d0e58661e1,S
2020-02-27 05:13:31,3ff5922a-04d4-419e-b9af-8e50b08595e4,S
2020-02-27 05:18:36,3ff5922a-04d4-419e-b9af-8e50b08595e4,A
2020-02-27 05:26:43,3ff5922a-04d4-419e-b9af-8e50b08595e4,S
2020-02-27 05:35:26,3ff5922a-04d4-419e-b9af-8e50b08595e4,A
2020-02-27 05:46:18,3ff5922a-04d4-419e-b9af-8e50b08595e4,S
2020-02-27 05:57:29,3ff5922a-04d4-419e-b9af-8e50b08595e4,A
2020-02-27 05:59:31,3ff5922a-04d4-419e-b9af-8e50b08595e4,S
2020-02-27 06:07:04,3ff5922a-04d4-419e-b9af-8e50b08595e4,A
2020-02-27 06:09:48,3ff5922a-04d4-419e-b9af-8e50b08595e4,S
2020-02-27 06:17:26,3ff5922a-04d4-419e-b9af-8e50b08595e4,A
2020-02-27 06:21:00,3ff5922a-04d4-419e-b9af-8e50b08595e4,S
2020-02-27 06:24:10,3ff5922a-04d4-419e-b9af-8e50b08595e4,A
2020-02-27 06:26:12,3ff5922a-04d4-419e-b9af-8e50b08595e4,S
2020-02-27 06:31:08,3ff5922a-04d4-419e-b9af-8e50b08595e4,A
2020-02-27 06:33:46,3ff5922a-04d4-419e-b9af-8e50b08595e4,S
2020-02-27 06:34:42,3ff5922a-04d4-419e-b9af-8e50b08595e4,A
2020-02-27 06:35:23,3ff5922a-04d4-419e-b9af-8e50b08595e4,S
2020-02-27 06:35:33,3ff5922a-04d4-419e-b9af-8e50b08595e4,A
2020-02-27 06:39:50,3ff5922a-04d4-419e-b9af-8e50b08595e4,S
2020-02-27 06:47:08,3ff5922a-04d4-419e-b9af-8e50b08595e4,A
2020-02-27 07:02:25,3ff5922a-04d4-419e-b9af-8e50b08595e4,S
2020-02-27 07:03:50,3ff5922a-04d4-419e-b9af-8e50b08595e4,A
2020-02-27 07:07:14,3ff5922a-04d4-419e-b9af-8e50b08595e4,S
2020-02-27 07:08:28,3ff5922a-04d4-419e-b9af-8e50b08595e4,A
2020-02-27 04:58:07,a386e1d5-84e2-4865-83ed-21b3ef6f1e7b,S
2020-02-27 05:05:04,a386e1d5-84e2-4865-83ed-21b3ef6f1e7b,A
2020-02-27 05:22:39,a386e1d5-84e2-4865-83ed-21b3ef6f1e7b,S
2020-02-27 05:39:42,a386e1d5-84e2-4865-83ed-21b3ef6f1e7b,A
2020-02-27 05:40:35,a386e1d5-84e2-4865-83ed-21b3ef6f1e7b,S
2020-02-27 05:45:58,a386e1d5-84e2-4865-83ed-21b3ef6f1e7b,A
2020-02-27 05:46:46,a386e1d5-84e2-4865-83ed-21b3ef6f1e7b,S
2020-02-27 05:55:28,a386e1d5-84e2-4865-83ed-21b3ef6f1e7b,A
2020-02-27 05:55:41,a386e1d5-84e2-4865-83ed-21b3ef6f1e7b,S
2020-02-27 05:56:37,a386e1d5-84e2-4865-83ed-21b3ef6f1e7b,A
2020-02-27 05:58:53,a386e1d5-84e2-4865-83ed-21b3ef6f1e7b,S
2020-02-27 06:07:41,a386e1d5-84e2-4865-83ed-21b3ef6f1e7b,A
2020-02-27 06:10:09,a386e1d5-84e2-4865-83ed-21b3ef6f1e7b,S
2020-02-27 06:18:11,a386e1d5-84e2-4865-83ed-21b3ef6f1e7b,A
2020-02-27 06:24:43,a386e1d5-84e2-4865-83ed-21b3ef6f1e7b,S
2020-02-27 06:47:32,a386e1d5-84e2-4865-83ed-21b3ef6f1e7b,A
2020-02-27 06:50:25,a386e1d5-84e2-4865-83ed-21b3ef6f1e7b,S
2020-02-27 06:50:33,a386e1d5-84e2-4865-83ed-21b3ef6f1e7b,A
2020-02-27 06:52:56,a386e1d5-84e2-4865-83ed-21b3ef6f1e7b,S
2020-02-27 06:56:16,a386e1d5-84e2-4865-83ed-21b3ef6f1e7b,A
2020-02-27 06:59:09,a386e1d5-84e2-4865-83ed-21b3ef6f1e7b,S
2020-02-27 07:00:31,a386e1d5-84e2-4865-83ed-21b3ef6f1e7b,A
2020-02-27 07:01:31,a386e1d5-84e2-4865-83ed-21b3ef6f1e7b,S
2020-02-27 07:02:29,a386e1d5-84e2-4865-83ed-21b3ef6f1e7b,A
2020-02-27 07:03:36,a386e1d5-84e2-4865-83ed-21b3ef6f1e7b,S
2020-02-27 07:04:15,a386e1d5-84e2-4865-83ed-21b3ef6f1e7b,A
2020-02-27 04:31:26,3185c3fd-8777-4960-80b7-e761e47dc4d1,S
2020-02-27 04:49:12,3185c3fd-8777-4960-80b7-e761e47dc4d1,A
2020-02-27 04:53:37,3185c3fd-8777-4960-80b7-e761e47dc4d1,S
2020-02-27 04:53:44,3185c3fd-8777-4960-80b7-e761e47dc4d1,A
2020-02-27 04:55:10,3185c3fd-8777-4960-80b7-e761e47dc4d1,S
2020-02-27 04:56:18,3185c3fd-8777-4960-80b7-e761e47dc4d1,A
2020-02-27 04:58:31,3185c3fd-8777-4960-80b7-e761e47dc4d1,S
2020-02-27 05:06:11,3185c3fd-8777-4960-80b7-e761e47dc4d1,A
2020-02-27 05:20:09,3185c3fd-8777-4960-80b7-e761e47dc4d1,S
2020-02-27 05:26:39,3185c3fd-8777-4960-80b7-e761e47dc4d1,A
2020-02-27 05:32:23,3185c3fd-8777-4960-80b7-e761e47dc4d1,S
2020-02-27 05:34:36,3185c3fd-8777-4960-80b7-e761e47dc4d1,A
2020-02-27 05:40:20,3185c3fd-8777-4960-80b7-e761e47dc4d1,S
2020-02-27 05:52:10,3185c3fd-8777-4960-80b7-e761e47dc4d1,A
2020-02-27 06:11:50,3185c3fd-8777-4960-80b7-e761e47dc4d1,S
2020-02-27 06:15:44,3185c3fd-8777-4960-80b7-e761e47dc4d1,A
2020-02-27 06:16:57,3185c3fd-8777-4960-80b7-e761e47dc4d1,S
2020-02-27 06:19:12,3185c3fd-8777-4960-80b7-e761e47dc4d1,A
2020-02-27 06:27:12,3185c3fd-8777-4960-80b7-e761e47dc4d1,S
2020-02-27 06:30:25,3185c3fd-8777-4960-80b7-e761e47dc4d1,A
2020-02-27 06:30:53,3185c3fd-8777-4960-80b7-e761e47dc4d1,S
2020-02-27 06:40:25,3185c3fd-8777-4960-80b7-e761e47dc4d1,A
2020-02-27 06:47:03,3185c3fd-8777-4960-80b7-e761e47dc4d1,S
2020-02-27 07:07:01,3185c3fd-8777-4960-80b7-e761e47dc4d1,A
2020-02-27 07:08:42,3185c3fd-8777-4960-80b7-e761e47dc4d1,S
2020-02-27 07:08:57,3185c3fd-8777-4960-80b7-e761e47dc4d1,A
2020-02-27 04:11:57,de839d4b-eea1-4ed9-8a10-17690e61703d,A
2020-02-27 04:13:46,de839d4b-eea1-4ed9-8a10-17690e61703d,S
2020-02-27 04:24:19,de839d4b-eea1-4ed9-8a10-17690e61703d,A
2020-02-27 04:24:32,de839d4b-eea1-4ed9-8a10-17690e61703d,S
2020-02-27 04:26:18,de839d4b-eea1-4ed9-8a10-17690e61703d,A
2020-02-27 04:26:50,de839d4b-eea1-4ed9-8a10-17690e61703d,S
2020-02-27 04:28:39,de839d4b-eea1-4ed9-8a10-17690e61703d,A
2020-02-27 04:33:37,de839d4b-eea1-4ed9-8a10-17690e61703d,S
2020-02-27 04:34:56,de839d4b-eea1-4ed9-8a10-17690e61703d,A
2020-02-27 04:39:03,de839d4b-eea1-4ed9-8a10-17690e61703d,S
2020-02-27 04:49:26,de839d4b-eea1-4ed9-8a10-17690e61703d,A
2020-02-27 04:51:00,de839d4b-eea1-4ed9-8a10-17690e61703d,S
2020-02-27 04:58:31,de839d4b-eea1-4ed9-8a10-17690e61703d,A
2020-02-27 04:58:46,de839d4b-eea1-4ed9-8a10-17690e61703d,S
2020-02-27 05:00:11,de839d4b-eea1-4ed9-8a10-17690e61703d,A
2020-02-27 04:44:58,47c55638-339b-477a-92a7-9abb813ceef8,S
2020-02-27 04:48:37,47c55638-339b-477a-92a7-9abb813ceef8,A
2020-02-27 04:50:24,47c55638-339b-477a-92a7-9abb813ceef8,S
2020-02-27 04:50:53,47c55638-339b-477a-92a7-9abb813ceef8,A
2020-02-27 04:50:57,47c55638-339b-477a-92a7-9abb813ceef8,S
2020-02-27 05:02:16,47c55638-339b-477a-92a7-9abb813ceef8,A
2020-02-27 04:22:31,c2aa57ad-1dcf-4fc2-aed9-17a367c1c5e9,A
2020-02-27 04:28:02,c2aa57ad-1dcf-4fc2-aed9-17a367c1c5e9,S
2020-02-27 04:36:31,c2aa57ad-1dcf-4fc2-aed9-17a367c1c5e9,A
2020-02-27 04:41:42,c2aa57ad-1dcf-4fc2-aed9-17a367c1c5e9,S
2020-02-27 04:44:59,c2aa57ad-1dcf-4fc2-aed9-17a367c1c5e9,A
2020-02-27 04:46:48,c2aa57ad-1dcf-4fc2-aed9-17a367c1c5e9,S
2020-02-27 04:49:01,c2aa57ad-1dcf-4fc2-aed9-17a367c1c5e9,A
2020-02-27 04:58:01,c2aa57ad-1dcf-4fc2-aed9-17a367c1c5e9,S
2020-02-27 05:01:31,c2aa57ad-1dcf-4fc2-aed9-17a367c1c5e9,A
2020-02-27 05:04:43,c2aa57ad-1dcf-4fc2-aed9-17a367c1c5e9,S
2020-02-27 05:06:25,c2aa57ad-1dcf-4fc2-aed9-17a367c1c5e9,A
2020-02-27 05:16:43,c2aa57ad-1dcf-4fc2-aed9-17a367c1c5e9,S
2020-02-27 05:31:08,c2aa57ad-1dcf-4fc2-aed9-17a367c1c5e9,A
2020-02-27 05:34:48,c2aa57ad-1dcf-4fc2-aed9-17a367c1c5e9,S
2020-02-27 05:40:03,c2aa57ad-1dcf-4fc2-aed9-17a367c1c5e9,A
2020-02-27 05:46:47,c2aa57ad-1dcf-4fc2-aed9-17a367c1c5e9,S
2020-02-27 05:51:46,c2aa57ad-1dcf-4fc2-aed9-17a367c1c5e9,A
2020-02-27 05:52:42,c2aa57ad-1dcf-4fc2-aed9-17a367c1c5e9,S
2020-02-27 05:59:29,c2aa57ad-1dcf-4fc2-aed9-17a367c1c5e9,A
2020-02-27 06:01:45,c2aa57ad-1dcf-4fc2-aed9-17a367c1c5e9,S
2020-02-27 06:07:51,c2aa57ad-1dcf-4fc2-aed9-17a367c1c5e9,A
2020-02-27 06:07:52,c2aa57ad-1dcf-4fc2-aed9-17a367c1c5e9,S
2020-02-27 06:08:37,c2aa57ad-1dcf-4fc2-aed9-17a367c1c5e9,A
2020-02-27 06:12:30,c2aa57ad-1dcf-4fc2-aed9-17a367c1c5e9,S
2020-02-27 06:18:06,c2aa57ad-1dcf-4fc2-aed9-17a367c1c5e9,A
2020-02-27 06:20:07,c2aa57ad-1dcf-4fc2-aed9-17a367c1c5e9,S
2020-02-27 06:23:21,c2aa57ad-1dcf-4fc2-aed9-17a367c1c5e9,A
2020-02-27 06:26:12,c2aa57ad-1dcf-4fc2-aed9-17a367c1c5e9,S
2020-02-27 06:29:26,c2aa57ad-1dcf-4fc2-aed9-17a367c1c5e9,A
2020-02-27 06:38:28,c2aa57ad-1dcf-4fc2-aed9-17a367c1c5e9,S
2020-02-27 06:42:01,c2aa57ad-1dcf-4fc2-aed9-17a367c1c5e9,A
2020-02-27 06:43:00,c2aa57ad-1dcf-4fc2-aed9-17a367c1c5e9,S
2020-02-27 06:46:27,c2aa57ad-1dcf-4fc2-aed9-17a367c1c5e9,A
2020-02-27 06:48:25,c2aa57ad-1dcf-4fc2-aed9-17a367c1c5e9,S
2020-02-27 06:49:06,c2aa57ad-1dcf-4fc2-aed9-17a367c1c5e9,A
2020-02-27 06:56:15,c2aa57ad-1dcf-4fc2-aed9-17a367c1c5e9,S
2020-02-27 06:58:39,c2aa57ad-1dcf-4fc2-aed9-17a367c1c5e9,A
2020-02-27 05:01:34,db361cc1-6f52-485f-a4e5-2e6720fa1dfe,S
2020-02-27 05:04:59,db361cc1-6f52-485f-a4e5-2e6720fa1dfe,A
2020-02-27 05:05:09,db361cc1-6f52-485f-a4e5-2e6720fa1dfe,S
2020-02-27 05:12:09,db361cc1-6f52-485f-a4e5-2e6720fa1dfe,A
2020-02-27 05:13:35,db361cc1-6f52-485f-a4e5-2e6720fa1dfe,S
2020-02-27 05:18:30,db361cc1-6f52-485f-a4e5-2e6720fa1dfe,A
2020-02-27 05:20:05,db361cc1-6f52-485f-a4e5-2e6720fa1dfe,S
2020-02-27 05:20:31,db361cc1-6f52-485f-a4e5-2e6720fa1dfe,A
2020-02-27 05:26:05,db361cc1-6f52-485f-a4e5-2e6720fa1dfe,S
2020-02-27 05:39:47,db361cc1-6f52-485f-a4e5-2e6720fa1dfe,A
2020-02-27 05:43:37,db361cc1-6f52-485f-a4e5-2e6720fa1dfe,S
2020-02-27 05:54:04,db361cc1-6f52-485f-a4e5-2e6720fa1dfe,A
2020-02-27 05:54:53,db361cc1-6f52-485f-a4e5-2e6720fa1dfe,S
2020-02-27 05:57:43,db361cc1-6f52-485f-a4e5-2e6720fa1dfe,A
2020-02-27 05:58:16,db361cc1-6f52-485f-a4e5-2e6720fa1dfe,S
2020-02-27 06:16:21,db361cc1-6f52-485f-a4e5-2e6720fa1dfe,A
2020-02-27 06:21:37,db361cc1-6f52-485f-a4e5-2e6720fa1dfe,S
2020-02-27 06:27:27,db361cc1-6f52-485f-a4e5-2e6720fa1dfe,A
2020-02-27 06:35:11,db361cc1-6f52-485f-a4e5-2e6720fa1dfe,S
2020-02-27 06:35:58,db361cc1-6f52-485f-a4e5-2e6720fa1dfe,A
2020-02-27 06:38:29,db361cc1-6f52-485f-a4e5-2e6720fa1dfe,S
2020-02-27 06:38:52,db361cc1-6f52-485f-a4e5-2e6720fa1dfe,A
2020-02-27 06:47:55,db361cc1-6f52-485f-a4e5-2e6720fa1dfe,S
2020-02-27 07:02:22,db361cc1-6f52-485f-a4e5-2e6720fa1dfe,A
2020-02-27 07:04:51,db361cc1-6f52-485f-a4e5-2e6720fa1dfe,S
2020-02-27 07:06:39,db361cc1-6f52-485f-a4e5-2e6720fa1dfe,A
2020-02-27 07:10:47,db361cc1-6f52-485f-a4e5-2e6720fa1dfe,S
2020-02-27 04:12:24,5f652a74-70a3-4eed-9ced-13a1df97c030,S
2020-02-27 04:16:23,5f652a74-70a3-4eed-9ced-13a1df97c030,A
2020-02-27 04:17:06,5f652a74-70a3-4eed-9ced-13a1df97c030,S
2020-02-27 04:17:41,5f652a74-70a3-4eed-9ced-13a1df97c030,A
2020-02-27 04:20:44,5f652a74-70a3-4eed-9ced-13a1df97c030,S
2020-02-27 04:21:01,5f652a74-70a3-4eed-9ced-13a1df97c030,A
2020-02-27 04:23:29,5f652a74-70a3-4eed-9ced-13a1df97c030,S
2020-02-27 04:28:49,5f652a74-70a3-4eed-9ced-13a1df97c030,A
2020-02-27 04:32:44,5f652a74-70a3-4eed-9ced-13a1df97c030,S
2020-02-27 04:35:29,5f652a74-70a3-4eed-9ced-13a1df97c030,A
2020-02-27 04:46:17,5f652a74-70a3-4eed-9ced-13a1df97c030,S
2020-02-27 04:51:54,5f652a74-70a3-4eed-9ced-13a1df97c030,A
2020-02-27 05:14:29,5f652a74-70a3-4eed-9ced-13a1df97c030,S
2020-02-27 05:38:49,5f652a74-70a3-4eed-9ced-13a1df97c030,A
2020-02-27 05:45:24,5f652a74-70a3-4eed-9ced-13a1df97c030,S
2020-02-27 05:48:50,5f652a74-70a3-4eed-9ced-13a1df97c030,A
2020-02-27 05:51:45,5f652a74-70a3-4eed-9ced-13a1df97c030,S
2020-02-27 05:56:29,5f652a74-70a3-4eed-9ced-13a1df97c030,A
2020-02-27 06:09:33,5f652a74-70a3-4eed-9ced-13a1df97c030,S
2020-02-27 06:11:06,5f652a74-70a3-4eed-9ced-13a1df97c030,A
2020-02-27 06:23:42,5f652a74-70a3-4eed-9ced-13a1df97c030,S
2020-02-27 06:29:41,5f652a74-70a3-4eed-9ced-13a1df97c030,A
2020-02-27 06:32:04,5f652a74-70a3-4eed-9ced-13a1df97c030,S
2020-02-27 06:34:00,5f652a74-70a3-4eed-9ced-13a1df97c030,A
2020-02-27 06:35:26,5f652a74-70a3-4eed-9ced-13a1df97c030,S
2020-02-27 06:40:39,5f652a74-70a3-4eed-9ced-13a1df97c030,A
2020-02-27 06:48:12,5f652a74-70a3-4eed-9ced-13a1df97c030,S
2020-02-27 06:49:26,5f652a74-70a3-4eed-9ced-13a1df97c030,A
2020-02-27 06:52:15,5f652a74-70a3-4eed-9ced-13a1df97c030,S
2020-02-27 06:58:58,5f652a74-70a3-4eed-9ced-13a1df97c030,A
2020-02-27 07:05:29,5f652a74-70a3-4eed-9ced-13a1df97c030,S
