app_number,app_id,trigger,burn,sink,deploy_date,token_interval
1,961429af-d46b-4362-a33d-2513e85019bd,987dc4d5-accd-425d-ada0-8518f292b507,8290b6d6-c211-426a-9ae7-454aacb00fe3,704afb91-d21e-47d5-b685-3b7d165f56ab,2019-08-02 00:55:27,1.000000
2,e890807c-1133-41af-a67c-21f2ca6a1320,ab707310-b9c2-4383-b22b-17f5ab9afe1e,0d585a5f-7e67-4a4c-96a3-393efc9f8bad,a3bf629c-d173-487e-8efe-6ee84c883497,2019-08-02 00:56:31,1.000000
3,c7a971c1-e316-4afa-ba61-01635f129ce4,98b6c603-e340-4a8f-815c-5bcb00ff0461,42e9ec6a-fd25-4d8f-8e11-23073550d3f2,bd825a51-6158-44f7-9572-abe67d97aee7,2019-08-02 00:57:34,1.000000
4,97568b0c-ae20-4364-9057-e2971ee898fe,7f94a147-60ef-4af5-a4f1-b5afbcc6da37,b3177303-ed63-4bf3-a7a2-14384bf0f6a5,9e193b8d-c2c2-4a97-9253-30344e17572f,2019-08-02 00:58:38,0.200000
5,0abaeebc-690a-4e65-846a-8a35d4b8e948,6f4ef076-d56d-4540-b45b-560eccfed92d,0e6559df-31e4-4c87-8a43-21d0b8e8a406,df5e19d5-1f71-4132-88cf-d4d96635df2f,2019-08-02 00:59:42,0.200000
6,d784e084-06fe-44d6-88ff-e39bac4e29c5,e4e683cb-4a4b-4fee-a85f-b19427d0463b,860efd98-a63c-4d61-8e1b-1b27ed86f3e5,61cc470f-d86f-4e03-af22-4acbe31d9c67,2019-08-02 01:00:46,0.200000
7,e7848fb5-6e35-4eb0-bbaf-e0cbe5aa24ad,6d1743b5-746d-4328-a9b3-26eaa49461b1,3ea886fd-7bd7-4413-b7cf-bd2ee02b0c8f,05ced3b0-b64f-4b29-bdaa-7f3c231eba13,2019-08-02 01:01:50,0.200000
8,b8d7d557-bb5a-4125-87c6-929c517faba6,00c67fc9-29e7-46dc-888e-7d2811d51faa,36086a48-7ff1-4d0d-b212-70493b422fe7,8b654aae-ed51-47e1-bc53-2adad1b05d97,2019-08-02 01:02:54,1.000000
9,ffa6a6f8-1761-47fa-a5e9-c827f38a786e,aac679ab-3534-4a0d-9d51-ce581d078af4,8bf7133e-7c0d-47cb-b429-d8500bfeb9c6,287bccaa-c55a-437c-aaa3-b3994bba083d,2019-08-02 01:03:58,0.200000
10,3cd8572f-419e-44ed-a3f2-770055a140f9,e415b028-8573-4c9d-b61a-d9e3fecdfd98,f239ee02-c1fe-438c-9912-f04a70c5e61c,c5488e7f-6d6a-46aa-a9e5-22375a6e5c46,2019-08-02 01:05:02,0.200000
11,74791476-c42f-4ef0-920e-b0070c175b0a,89fa9e44-a9e3-4fa9-84f8-abc6cf7d6b1f,04989a82-6499-4d66-8c2f-5df6598cf215,7a118c2a-d44f-4d2d-9a74-3fffc9ed3f4e,2019-08-02 01:06:06,0.200000
12,536ecee2-88b9-4d6d-9636-0bae682b4e84,4987e46f-5cba-4d2e-a286-4d573d5aa4c2,d76be7f3-4131-4dcf-8806-3337f24bcc54,2ff01cb6-aa70-49a8-887f-e48c24573982,2019-08-02 01:07:09,1.000000
13,9c08cbff-0a17-4726-83bf-7a240b69de92,9bd8c3c4-af86-4901-99d8-c57db6fe8740,ea5d383c-43a9-4701-ac99-ee87791adb0c,c168faa8-67b2-4381-bed9-314392fdf5fa,2019-08-02 01:08:13,0.200000
14,00d15876-9367-45dd-8a1a-84aed6397a23,3ead924b-a2d0-44cb-a987-b550f627a073,428b6403-86de-4103-8500-7c41ba5461a2,7bcb0c63-cd29-4b66-959a-8eb997638d39,2019-08-02 01:09:17,0.200000
15,cbc94d0c-96e4-4225-a274-501f30751b3d,dc570a92-e065-4de5-b78f-5cd2186ad30b,b2084c42-ad78-4aaa-8ac5-53e70d6307d9,bdac34d3-c94f-4ab5-b21c-e7acf930354a,2019-08-02 01:10:20,1.000000
16,06216848-235e-4380-af5d-e0f9fd9947b4,ef5f36db-3748-4643-aed5-56b7734c1feb,3312b2be-2efc-402e-98c2-d2e31a11a5ab,00b8f624-b05d-4c6d-a322-4c4d023cef95,2019-08-02 01:11:24,1.000000
17,fe17e6a9-82e0-40fe-95c7-cc609922523f,baf98765-4cfa-4aa9-a13a-2abbc298655a,f6c05cdf-2d71-483e-9509-e53c91565ee7,faaa87cc-335a-43a0-9ab1-a2d5bc5ab225,2019-08-02 01:12:28,0.200000
18,520b7c9a-60df-48b5-9a0e-bc86d8b6b6c7,36588fba-4de7-41b5-9a6e-316dd4982ddd,591b8b0e-eb61-40a0-bfea-6f9dfabcf67e,f5abdb64-b6e3-4081-bd20-cd41b21a2e8e,2019-08-02 01:13:32,1.000000
19,8627d268-ffa8-4013-ba54-76e624f1960d,e48af946-879a-4b0b-bf5e-159b2b7a9af7,1e0d192f-8079-4e08-95d5-67e626b52d9c,6ba30e7b-2512-4222-aa8d-d51d554e2594,2019-08-02 01:14:36,0.200000
20,5f2b8764-cd66-4a4a-a2aa-9a6511b60b49,59381e3f-e10a-4621-a72b-814767c5a0df,3933f98b-1a64-43e5-9bc3-f51a33f03079,ba29af69-488e-42a8-80d6-9a69de83f372,2019-08-02 01:15:39,1.000000
21,ed83a24d-04fa-4951-86ab-a90a4c4d5fe0,64ff36bf-53c5-49f3-ac0e-20d3ad5d86dd,68757432-bddc-49da-b0f9-b35570d7eaf8,4a0561fd-3eee-443d-8553-c39bd1cfea63,2019-08-02 01:16:43,0.200000
22,f4259649-7db6-46a0-8631-22983063bc56,0b3b6da0-289e-4bd7-af64-b28caaab0b49,9baed24e-36ae-41d0-8c44-6edbe48e2d07,47d9b4e7-28e8-4054-8016-8e393648369d,2019-08-02 01:17:46,0.200000
23,6ed9879d-4e6d-4165-9dea-65bb228e9153,81800fdf-086b-4cdd-bc53-ce619783c7dc,0dafe703-bc8f-4dda-bfc0-bdc4d15165d2,0af86409-52d5-410d-8715-33a654644c91,2019-08-02 01:18:50,0.200000
24,05e5e669-24a0-42b1-b073-531b6ee941d0,e53e70a1-57bb-41a8-ae75-261554e8cf61,fb72c7ea-89a4-40a5-a3aa-4c40b2618878,d75b6334-26fb-4218-9b33-5a900bb2bc82,2019-08-02 01:19:54,1.000000
25,7d69406f-f86c-4bd8-ace3-6353e1e47faa,ff62b9c3-65fc-45a7-adc1-b3f45000cbfb,4fd193df-c837-4710-ae87-76b6de348527,d4e10bd7-077f-4016-b206-3e828fbdeb22,2019-08-02 01:20:58,1.000000
26,c61a8694-e903-4bd0-9109-b0931a38b47f,d01f8026-8194-471f-80a7-756e19d9114b,b89fc806-5c25-4070-9ee5-5a897f9c66a5,3f428cca-bcef-4d04-9d01-229ecc622a15,2019-08-02 01:22:02,1.000000
27,97522cbf-ba1f-4d0a-8c69-88389788213f,4befe3e0-1ae0-418a-ad31-5f83e2988e13,c8240dac-587e-4388-8864-f9f99e51f7b5,4b930fc1-5c47-4082-81ca-ba7215bfdb06,2019-08-02 01:23:06,0.200000
28,2d975e77-66fa-4b68-b649-6902fd8ee096,cf0f40ec-8785-4703-b9a0-0517b5ec22c7,f226415b-2959-407a-a383-1063454ea2b8,546f0513-11a5-4cfd-9c58-d3095a0267c0,2019-08-02 01:24:09,1.000000
29,b9f66a58-efa0-4fe9-aba2-7c3bafa859e1,fe668ecc-757f-457b-a1b0-cc8c4b6e2ce1,5283484c-2ce8-436c-a8bd-5dffada24c0e,f239e802-6ad4-42fe-b8b3-cee8ac5bdd23,2019-08-02 01:25:14,1.000000
30,806bdf63-7b75-489d-9ada-910846567b11,bbe7f748-9ba5-48cf-878a-01d006aac446,00d47dcc-bdad-499b-a8e9-c63f5abedd8e,30097d6b-83d0-4aa7-b1f5-d5f8a5706858,2019-08-02 01:26:18,1.000000
31,4a7a7538-f9a4-4044-a589-7e0c8876b12b,3243812f-1fd1-4c1a-9262-5772156119f5,5713b355-91d2-48b5-9f8b-7c3eb2f79a0a,bc9ae5c1-669c-400c-a8ac-4ae0a237cb7e,2019-08-02 01:27:21,1.000000
32,458b5a25-cbb4-473c-b800-1631accc7192,a0e1949a-43c8-475d-b1bb-a964dbb62d6c,4e3fdf33-6b14-4455-bc7e-93b1a461bc48,b42940ae-d8f8-4329-babf-1701393a213b,2019-08-02 01:28:25,0.200000
33,2869f3d6-d238-4477-aca6-dd4e45b99baf,dd9d579c-ad48-4af9-a0af-637d4878a8a4,9a89ec02-4a32-4be6-a2fd-5ec75bcc82dc,6667ee2f-29a8-452b-afcc-7441598fb58e,2019-08-02 01:29:29,1.000000
34,4a1bbb41-731b-4cbd-86c5-3ca7ab8cd1a3,a15ea25a-a33b-4549-9a61-f2a249a5225e,9cc117e6-ad4b-4a2c-8662-02d217a8e058,cba7c490-e8db-4754-a14a-6dfccd7fba1b,2019-08-02 01:30:33,0.200000
35,a6539a6a-525d-494b-b192-db3b7bec7aa2,dc84f2cb-35c8-46f2-bcbd-937d0f5929f2,6f59e0f0-a3dc-4fe6-a47a-7506cda50211,6ca75bb8-3bc9-48aa-8905-d524dfa0bb9a,2019-08-02 01:31:37,1.000000
36,0aab0280-d9ad-4303-877a-012666867e19,d470fff2-eb10-4518-8336-41999d1f107f,e7ec61ed-6d0f-4dfa-a1f5-0aeac5752f49,c9c8a118-30ed-4ed7-a054-1f614645593c,2019-08-02 01:32:40,0.200000
37,222fccf7-6a6e-408d-abba-0f4e8a721ff5,ab96293f-7b9c-40fb-bdb6-8c6f592b70e9,c2efcb43-9645-4e12-aaf2-0bea6e3828c1,767dce77-b4fe-4a5e-9d2a-6f54f65b66bf,2019-08-02 01:33:44,1.000000
38,1109fc87-5970-46c1-b8ae-aafd0025a45d,dde93c26-cfbb-4f33-8c5b-7e96395eccbd,b03c0201-95cb-4deb-afde-52a6ddede0b3,6ac007c9-8ef5-4a96-889c-a4f9c39ab320,2019-08-02 01:34:48,1.000000
39,93ad8804-fdc4-4920-8a64-7c2e603624a4,fe38a436-b58b-457d-9649-7b1618656926,b9435a2c-d64f-486d-be0c-1c7d18d81ac9,730852a8-26e8-454e-a43b-170672919e63,2019-08-02 01:35:52,0.200000
40,454b12dd-7b5a-4bfe-a661-646e7d90fb1c,9d7cbbfb-039b-42b1-b9d5-4fd942992fa8,18384c88-4065-4a5c-904d-2d0751fea6d3,d5611c39-752b-4993-b597-9c3474b51e58,2019-08-02 01:36:55,0.200000
41,5900b594-45c0-4496-bec2-0f3cdf8e49ac,79240943-9f40-44b3-b92a-e4947a1a6e14,6efe8720-5bc2-4e6d-8b2b-21356a8f25ce,b34c3481-0ddb-451c-938a-e2cb674bdc6c,2019-08-02 01:37:59,1.000000
42,58ca2050-4a0b-46d0-81c3-3fc0bd6cdb5a,41050707-572a-4c99-a5c6-c4a04e5534e6,9fa86703-d0c0-4804-b0aa-a91ac5cb2e65,a52b7833-00ce-4b77-85da-13bfe6654bae,2019-08-02 01:39:03,0.200000
43,cc64a299-8b13-428c-82fd-c528434545a6,458b91ec-d4e9-4628-b92a-53342d0fb185,27b4e486-4e6e-45bb-82a1-bce796a7405b,4d67afbe-bb21-4138-ab3d-b1610e13f783,2019-08-02 01:40:07,0.200000
44,c6955a8b-2ad7-4e0c-9979-c98a9849f757,7976d9f3-35e2-4f49-a01e-bfea2ac570c9,ee9988cb-5b6d-494e-a2e1-dd6307392602,59a46c62-ba5d-4f28-885d-778f6f61cd91,2019-08-02 01:41:11,0.200000
45,8cc5b896-25d7-496f-9f6c-5a98e677505f,0beaa94a-04de-4066-a3be-3f5d2d67dd09,513fccf7-b3d0-48f5-80d6-ed71a4df185c,561d98b1-d19c-4a73-ae22-875f009f9e2c,2019-08-02 01:42:15,1.000000
46,636fcebd-9000-4c75-bbeb-bcdafa827142,eeb3a221-c8f2-40db-a7d6-f00a0a1b1516,cc57165d-80d8-4012-8945-182a2d0e50e1,8f790cc9-d37f-43bd-8a07-790016847ee5,2019-08-02 01:43:19,0.200000
47,b2efeba4-8fc5-42d9-bc55-1f83e03c4ae8,25dfbe22-0620-4ee4-9e22-53f491e419f4,f0bda486-65a7-4054-8645-6eca3031d7b5,5a7b8b71-09b9-4219-9afa-eaeffbb78358,2019-08-02 01:44:22,0.200000
48,4c0ca2ec-f92e-4708-8c8b-d2b0d94a2aa2,7fe7e105-c04e-410f-9873-f46ca834ec4e,c5852b7c-9ae5-47db-b562-4434d51acbfb,6133e810-cfea-494a-af56-bb153d5521ea,2019-08-02 01:45:26,1.000000
49,b39cf326-40bb-4917-8b11-661603474def,cd299ca7-2f4e-42c1-83ce-60c0d46d0729,363247aa-f928-4454-957e-267d9d2dce87,0319532f-e551-4b0d-86b1-e2fada57e9df,2019-08-02 01:46:30,0.200000
50,1d9ce250-21f9-463b-92b6-687606dbc8e3,194e0ad3-b411-4e22-a22a-02130acecaed,2e8aff44-3b93-428f-9345-f92f41bf63c3,2d6f8986-51dc-4635-b6d4-94510c2e6a43,2019-08-02 01:47:34,1.000000
