date,actor,success,from,to
2019-09-07 06:39:27,5f6c6e4c-93a9-4f94-a758-708e3ee8772d,1,4a049def-5c55-4c6f-8e05-a9841f580c0f,22f5b57a-4adb-4611-b44e-ec0c384e9c68
2019-09-07 06:39:27,1f515a6a-2f44-4cf4-ae2a-7163b7a30a91,1,4a049def-5c55-4c6f-8e05-a9841f580c0f,24e953f4-978a-4883-ae06-35f9479edae0
2019-09-07 06:39:38,6d670a5e-4512-4744-8fe4-bcf8d81d0a40,1,4a049def-5c55-4c6f-8e05-a9841f580c0f,e064ddec-746e-4ba3-b66c-21d91248ef85
2019-09-07 06:39:38,f4297666-82be-4610-afad-798595557270,1,4a049def-5c55-4c6f-8e05-a9841f580c0f,e064ddec-746e-4ba3-b66c-21d91248ef85
2019-09-07 06:39:49,6d670a5e-4512-4744-8fe4-bcf8d81d0a40,1,e064ddec-746e-4ba3-b66c-21d91248ef85,24e953f4-978a-4883-ae06-35f9479edae0
2019-09-07 06:39:49,f4297666-82be-4610-afad-798595557270,1,e064ddec-746e-4ba3-b66c-21d91248ef85,24e953f4-978a-4883-ae06-35f9479edae0
2019-09-07 05:57:04,99a70a58-ee41-478b-aafa-99deec403b29,1,be4b4bfc-1b2e-4d61-a093-873e2bf4c9c1,ca5cfc4a-150f-4889-87cc-758075c59dad
2019-09-07 05:57:04,d5517d50-e2d2-44ee-9924-aebf7c4a1a38,1,be4b4bfc-1b2e-4d61-a093-873e2bf4c9c1,fbc115a8-5085-4f00-b51f-c6bc7616829c
2019-09-07 05:57:04,1d426dce-1480-452d-8109-9af4a0db8dd5,1,be4b4bfc-1b2e-4d61-a093-873e2bf4c9c1,6ddbbf18-3233-4bf3-add3-50d05ecafdd9
2019-09-07 05:58:08,983567a7-ad15-4854-a62b-3ef2a7c3d0e5,1,be4b4bfc-1b2e-4d61-a093-873e2bf4c9c1,6ddbbf18-3233-4bf3-add3-50d05ecafdd9
2019-09-07 05:58:08,efb480db-e07b-4ac2-97e4-b5e04e03e91b,1,be4b4bfc-1b2e-4d61-a093-873e2bf4c9c1,076b2cf5-e714-4f75-821c-65d9887dd838
2019-09-07 05:58:08,2a8857a8-2937-44d1-9abb-884c8f832cc6,1,be4b4bfc-1b2e-4d61-a093-873e2bf4c9c1,6ddbbf18-3233-4bf3-add3-50d05ecafdd9
2019-09-07 05:59:12,ef75ee1a-b09c-4158-84e9-6525f9820296,1,be4b4bfc-1b2e-4d61-a093-873e2bf4c9c1,9085cf7c-599e-4704-8192-d36e5197fb42
2019-09-07 05:59:12,9418d5b2-bde2-4cfe-a113-48abf4befb26,1,be4b4bfc-1b2e-4d61-a093-873e2bf4c9c1,6ddbbf18-3233-4bf3-add3-50d05ecafdd9
2019-09-07 05:59:12,f8d6bbeb-f973-4699-81f1-7fe3e4d49838,1,be4b4bfc-1b2e-4d61-a093-873e2bf4c9c1,6ddbbf18-3233-4bf3-add3-50d05ecafdd9
2019-09-07 06:00:16,113c19f0-c02d-4693-8795-83ac23f31a42,1,be4b4bfc-1b2e-4d61-a093-873e2bf4c9c1,73cff2fe-bc83-451e-a01f-1b54e0dbcf28
2019-09-07 06:00:16,0cdde09d-fcc5-43ce-bfbc-71400e4b7aa7,1,be4b4bfc-1b2e-4d61-a093-873e2bf4c9c1,6ea7f56e-8914-4941-af1d-6f2b9fc19415
2019-09-07 06:00:16,4552795a-10ba-48c4-9f3b-576c8f887783,1,be4b4bfc-1b2e-4d61-a093-873e2bf4c9c1,6ea7f56e-8914-4941-af1d-6f2b9fc19415
2019-09-07 06:01:20,6d670a5e-4512-4744-8fe4-bcf8d81d0a40,1,be4b4bfc-1b2e-4d61-a093-873e2bf4c9c1,24e953f4-978a-4883-ae06-35f9479edae0
2019-09-07 06:01:20,8a165fe8-e334-4d77-b29f-4ae87b9a4917,1,be4b4bfc-1b2e-4d61-a093-873e2bf4c9c1,e25e0cf7-53ae-4d73-a88b-3cc6a0c16661
2019-09-07 06:01:20,f4297666-82be-4610-afad-798595557270,1,be4b4bfc-1b2e-4d61-a093-873e2bf4c9c1,6ddbbf18-3233-4bf3-add3-50d05ecafdd9
2019-09-07 06:02:23,9f45dfc5-17e4-4513-926f-94626640a8e5,1,be4b4bfc-1b2e-4d61-a093-873e2bf4c9c1,4a049def-5c55-4c6f-8e05-a9841f580c0f
2019-09-07 06:02:23,2c64379a-9020-40dd-ba35-1db0cb06aaaa,1,be4b4bfc-1b2e-4d61-a093-873e2bf4c9c1,4a049def-5c55-4c6f-8e05-a9841f580c0f
2019-09-07 06:02:23,09d7eeed-a0b3-4313-9579-129e149adef7,1,be4b4bfc-1b2e-4d61-a093-873e2bf4c9c1,56d117ca-4207-4bb3-be7e-52c667cf3ed5
2019-09-07 06:03:27,667116a6-c11d-4c8f-b812-71c7b9d66a91,1,be4b4bfc-1b2e-4d61-a093-873e2bf4c9c1,53983ee5-feeb-4605-913f-79ff05576a2c
2019-09-07 06:03:27,e5fe09dd-0edc-4395-88fc-ccf3608f855a,1,be4b4bfc-1b2e-4d61-a093-873e2bf4c9c1,31a77745-054f-4d9d-bf0a-9af5f03f9274
2019-09-07 06:03:27,762164d1-dae7-48ff-999b-bc7d4b2ad763,1,be4b4bfc-1b2e-4d61-a093-873e2bf4c9c1,31a77745-054f-4d9d-bf0a-9af5f03f9274
2019-09-07 06:04:30,d3262f96-3698-4b75-9cd4-0d35343450f4,1,be4b4bfc-1b2e-4d61-a093-873e2bf4c9c1,e064ddec-746e-4ba3-b66c-21d91248ef85
2019-09-07 06:04:30,067cabef-02ca-4408-becd-73ba28f46293,1,be4b4bfc-1b2e-4d61-a093-873e2bf4c9c1,8c63c257-f9b2-4779-b2c1-9e97dd45a727
2019-09-07 06:04:30,197f1ced-2298-4c22-a3d8-0663f285404e,1,be4b4bfc-1b2e-4d61-a093-873e2bf4c9c1,e064ddec-746e-4ba3-b66c-21d91248ef85
2019-09-07 06:05:34,0d166b15-c0fa-4df6-a69f-bdb39b148911,1,be4b4bfc-1b2e-4d61-a093-873e2bf4c9c1,a05f94f0-4d77-4828-9c30-982096d12a5a
2019-09-07 06:05:34,e637f07e-31f7-4ecd-a911-5d83733af1e9,1,be4b4bfc-1b2e-4d61-a093-873e2bf4c9c1,a05f94f0-4d77-4828-9c30-982096d12a5a
2019-09-07 06:05:34,97e2f8c2-061e-4757-be99-d5b26e6b49c1,1,be4b4bfc-1b2e-4d61-a093-873e2bf4c9c1,797ef6fe-7e27-441c-9bce-a9ad14bb7d19
2019-09-07 06:06:38,2d804914-f64c-4819-ade5-2d103e90b12f,1,be4b4bfc-1b2e-4d61-a093-873e2bf4c9c1,22f5b57a-4adb-4611-b44e-ec0c384e9c68
2019-09-07 06:06:38,d8cd83d9-276c-4d3b-8890-6513a84ecd18,1,be4b4bfc-1b2e-4d61-a093-873e2bf4c9c1,22f5b57a-4adb-4611-b44e-ec0c384e9c68
2019-09-07 06:06:38,834e42ad-275a-4e95-acff-c53a178f7ae2,1,be4b4bfc-1b2e-4d61-a093-873e2bf4c9c1,feaf3391-f6b7-4599-8fa2-b88b4730ec2f
2019-09-07 06:07:41,1f2e8344-8095-4cdf-a734-6016d690eb01,1,be4b4bfc-1b2e-4d61-a093-873e2bf4c9c1,0971bfd4-c0d7-4ff9-991f-5ce2ea1f5bc4
2019-09-07 06:07:41,7606dcb2-0964-47f1-9199-3dcc49b9a684,1,be4b4bfc-1b2e-4d61-a093-873e2bf4c9c1,0c348785-2281-496f-8520-4357513ead70
2019-09-07 06:07:41,2071efa0-5097-4731-8242-b8b41946d2fe,1,be4b4bfc-1b2e-4d61-a093-873e2bf4c9c1,64311692-9334-4898-a7e0-6924bccb3f3d
2019-09-07 06:08:45,20d47c4a-b02e-4492-ac59-c280f1591d10,1,be4b4bfc-1b2e-4d61-a093-873e2bf4c9c1,0971bfd4-c0d7-4ff9-991f-5ce2ea1f5bc4
2019-09-07 06:08:45,63577939-9fc6-4a51-90cc-7fe2dee92346,1,be4b4bfc-1b2e-4d61-a093-873e2bf4c9c1,ca0df680-ec1b-454b-93bf-63e7a33b979f
2019-09-07 06:08:45,6e48caa6-a33e-449c-a82e-9f607f75d2eb,1,be4b4bfc-1b2e-4d61-a093-873e2bf4c9c1,0971bfd4-c0d7-4ff9-991f-5ce2ea1f5bc4
2019-09-07 06:09:48,d813c793-7a55-4868-9188-47e9cae2672e,1,be4b4bfc-1b2e-4d61-a093-873e2bf4c9c1,fbc115a8-5085-4f00-b51f-c6bc7616829c
2019-09-07 06:09:48,a69e64f3-d4d2-4faf-a469-36b4369a8fa0,1,be4b4bfc-1b2e-4d61-a093-873e2bf4c9c1,50febb1f-9e68-45aa-9dee-1255ea314a58
2019-09-07 06:09:48,4e774c65-2e50-42f8-8b45-223e10cd082d,1,be4b4bfc-1b2e-4d61-a093-873e2bf4c9c1,fbc115a8-5085-4f00-b51f-c6bc7616829c
2019-09-07 06:10:52,0ae96eca-0509-4eb4-8e32-7faa6c6ce0cd,1,be4b4bfc-1b2e-4d61-a093-873e2bf4c9c1,3b874a95-ee1e-42c6-9570-b347ac86e683
2019-09-07 06:10:52,4322ab42-1e07-41cf-ad3e-f68a9fdba45a,1,be4b4bfc-1b2e-4d61-a093-873e2bf4c9c1,e48459e8-edc7-48c9-a740-1a1beb43f5d1
2019-09-07 06:10:52,06dc0c07-805c-452c-a1ef-65364fc37c30,1,be4b4bfc-1b2e-4d61-a093-873e2bf4c9c1,3b874a95-ee1e-42c6-9570-b347ac86e683
2019-09-07 06:11:56,2b603805-dfa0-43f3-ba8e-0714b6a31f1d,1,be4b4bfc-1b2e-4d61-a093-873e2bf4c9c1,3b874a95-ee1e-42c6-9570-b347ac86e683
2019-09-07 06:11:56,af495e9f-d54e-4d02-86fa-ec441bf04039,1,be4b4bfc-1b2e-4d61-a093-873e2bf4c9c1,6a4ef742-acd5-4c28-bcfc-11c550b2b91c
2019-09-07 06:11:56,786d5d06-98b1-42da-b659-9c1f333697e5,1,be4b4bfc-1b2e-4d61-a093-873e2bf4c9c1,3b874a95-ee1e-42c6-9570-b347ac86e683
2019-09-07 06:12:59,0d4d8bf5-a784-43db-a41f-ee3afd3e310f,1,be4b4bfc-1b2e-4d61-a093-873e2bf4c9c1,4a049def-5c55-4c6f-8e05-a9841f580c0f
2019-09-07 06:12:59,16406daa-47e3-482f-bbdd-eebfc2b11421,1,be4b4bfc-1b2e-4d61-a093-873e2bf4c9c1,04cfc5bc-0661-492a-85d3-a775520fe6f1
2019-09-07 06:12:59,b3eac0ce-c42d-484f-8aeb-ced3d82506d1,1,be4b4bfc-1b2e-4d61-a093-873e2bf4c9c1,fbc115a8-5085-4f00-b51f-c6bc7616829c
2019-09-07 06:14:03,e9276573-e411-4e3b-9f9c-662f51480a3b,1,be4b4bfc-1b2e-4d61-a093-873e2bf4c9c1,b12674b0-1749-4c9e-aaca-fd5194aa1978
2019-09-07 06:14:03,4d6441c2-1337-492a-886c-7a1f758b30ea,1,be4b4bfc-1b2e-4d61-a093-873e2bf4c9c1,209f8be6-f803-47fe-a2e8-5cacaab4a3e8
2019-09-07 06:14:03,ee8c1ddd-061d-4f1b-bd98-2de1e447d7bd,1,be4b4bfc-1b2e-4d61-a093-873e2bf4c9c1,209f8be6-f803-47fe-a2e8-5cacaab4a3e8
2019-09-07 06:15:07,41ef1cfc-f950-46c8-9a20-08621497323c,1,be4b4bfc-1b2e-4d61-a093-873e2bf4c9c1,209f8be6-f803-47fe-a2e8-5cacaab4a3e8
2019-09-07 06:15:07,a8c4bfb5-2260-4788-98fb-db41c7619b42,1,be4b4bfc-1b2e-4d61-a093-873e2bf4c9c1,209f8be6-f803-47fe-a2e8-5cacaab4a3e8
2019-09-07 06:15:07,b70d08e1-8d33-448d-b445-7a5209514f86,1,be4b4bfc-1b2e-4d61-a093-873e2bf4c9c1,f1656eb0-54f4-4cb2-a432-872db5431f46
2019-09-07 06:16:11,5f6c6e4c-93a9-4f94-a758-708e3ee8772d,1,be4b4bfc-1b2e-4d61-a093-873e2bf4c9c1,939d8dd5-8199-4e53-83f5-15e54b00b11d
2019-09-07 06:16:11,1f515a6a-2f44-4cf4-ae2a-7163b7a30a91,1,be4b4bfc-1b2e-4d61-a093-873e2bf4c9c1,939d8dd5-8199-4e53-83f5-15e54b00b11d
2019-09-07 06:16:11,4bde3949-1702-420f-b9e6-425e43d1921a,1,be4b4bfc-1b2e-4d61-a093-873e2bf4c9c1,b7d1b6fe-5aff-40f8-84b7-fffba9c4a73b
2019-09-07 06:17:15,00213c78-d506-4fa3-bd7a-697c88bfb846,1,be4b4bfc-1b2e-4d61-a093-873e2bf4c9c1,64311692-9334-4898-a7e0-6924bccb3f3d
2019-09-07 06:17:15,9845c767-7514-48f1-8299-e4289ef046ef,1,be4b4bfc-1b2e-4d61-a093-873e2bf4c9c1,22f5b57a-4adb-4611-b44e-ec0c384e9c68
2019-09-07 06:17:15,31f79a2b-265c-4d09-8de6-7a79d87eabee,1,be4b4bfc-1b2e-4d61-a093-873e2bf4c9c1,e58d99ae-1194-4c4a-b613-8773a4024f7e
2019-09-07 06:18:18,5a6e06a0-390f-464a-ae2b-6f409eadce57,1,be4b4bfc-1b2e-4d61-a093-873e2bf4c9c1,87043a8a-3092-47e2-aa99-d5d8d4cce341
2019-09-07 06:18:18,aa3b5dfb-865a-411a-853d-6981bd67d44d,1,be4b4bfc-1b2e-4d61-a093-873e2bf4c9c1,939d8dd5-8199-4e53-83f5-15e54b00b11d
2019-09-07 06:18:18,0565e454-b396-40ac-8b20-a64be1bf18b3,1,be4b4bfc-1b2e-4d61-a093-873e2bf4c9c1,939d8dd5-8199-4e53-83f5-15e54b00b11d
2019-09-07 06:19:22,ae594f4a-55e0-43db-8618-a75d57bc0f58,1,be4b4bfc-1b2e-4d61-a093-873e2bf4c9c1,f928a3ab-1110-487e-b616-0c2784a9e8de
2019-09-07 06:19:22,867ff71c-7fd1-4e66-9275-0bdc4c36f612,1,be4b4bfc-1b2e-4d61-a093-873e2bf4c9c1,0971bfd4-c0d7-4ff9-991f-5ce2ea1f5bc4
2019-09-07 06:19:22,f0f90e75-8661-4531-ae45-05e2c7145f8a,1,be4b4bfc-1b2e-4d61-a093-873e2bf4c9c1,3b874a95-ee1e-42c6-9570-b347ac86e683
2019-09-07 06:20:26,48ac7d58-dc4e-42c3-b64b-670e5c32bda9,1,be4b4bfc-1b2e-4d61-a093-873e2bf4c9c1,3b874a95-ee1e-42c6-9570-b347ac86e683
2019-09-07 06:20:26,68d25731-1d28-4c7e-8711-786e13bc7ebe,1,be4b4bfc-1b2e-4d61-a093-873e2bf4c9c1,3b874a95-ee1e-42c6-9570-b347ac86e683
2019-09-07 06:20:26,8cb3efb9-f714-4384-86b8-cf184ba61ae1,1,be4b4bfc-1b2e-4d61-a093-873e2bf4c9c1,51228c03-931f-4c0b-8a12-a5a7dbf32566
2019-09-07 06:21:30,3564735c-91a7-49a3-9161-1a8dc5a0a0a5,1,be4b4bfc-1b2e-4d61-a093-873e2bf4c9c1,4a049def-5c55-4c6f-8e05-a9841f580c0f
2019-09-07 06:21:30,c2a0ffc1-a3dc-4c4c-82f7-5fe139e7b575,1,be4b4bfc-1b2e-4d61-a093-873e2bf4c9c1,4a049def-5c55-4c6f-8e05-a9841f580c0f
2019-09-07 06:21:30,22ebee02-0cc6-4127-928d-0abcd376c001,1,be4b4bfc-1b2e-4d61-a093-873e2bf4c9c1,2558022f-bd1f-4bbc-9ab3-bd93f8e923b9
2019-09-07 06:22:34,b6ef3e7b-c944-444d-8ef2-83e36dbb73e5,1,be4b4bfc-1b2e-4d61-a093-873e2bf4c9c1,6ea7f56e-8914-4941-af1d-6f2b9fc19415
2019-09-07 06:22:34,1592d31f-3a96-452a-bbd0-99904235d848,1,be4b4bfc-1b2e-4d61-a093-873e2bf4c9c1,b8fa676e-77b9-4d4f-984c-03c62dd3c494
2019-09-07 06:22:34,ce8809d9-fc5c-4022-9ab0-b09f81424c98,1,be4b4bfc-1b2e-4d61-a093-873e2bf4c9c1,31a77745-054f-4d9d-bf0a-9af5f03f9274
2019-09-07 06:38:47,5f6c6e4c-93a9-4f94-a758-708e3ee8772d,1,939d8dd5-8199-4e53-83f5-15e54b00b11d,24e953f4-978a-4883-ae06-35f9479edae0
2019-09-07 06:38:47,1f515a6a-2f44-4cf4-ae2a-7163b7a30a91,1,939d8dd5-8199-4e53-83f5-15e54b00b11d,24e953f4-978a-4883-ae06-35f9479edae0
2019-09-07 06:39:06,f4297666-82be-4610-afad-798595557270,1,6ddbbf18-3233-4bf3-add3-50d05ecafdd9,6ea7f56e-8914-4941-af1d-6f2b9fc19415
2019-09-07 06:39:14,5f6c6e4c-93a9-4f94-a758-708e3ee8772d,1,6ddbbf18-3233-4bf3-add3-50d05ecafdd9,4a049def-5c55-4c6f-8e05-a9841f580c0f
2019-09-07 06:39:14,1f515a6a-2f44-4cf4-ae2a-7163b7a30a91,1,6ddbbf18-3233-4bf3-add3-50d05ecafdd9,4a049def-5c55-4c6f-8e05-a9841f580c0f
2019-09-07 06:39:16,6d670a5e-4512-4744-8fe4-bcf8d81d0a40,1,6ddbbf18-3233-4bf3-add3-50d05ecafdd9,4a049def-5c55-4c6f-8e05-a9841f580c0f
2019-09-07 06:39:36,5f6c6e4c-93a9-4f94-a758-708e3ee8772d,1,22f5b57a-4adb-4611-b44e-ec0c384e9c68,e064ddec-746e-4ba3-b66c-21d91248ef85
2019-09-07 06:39:01,5f6c6e4c-93a9-4f94-a758-708e3ee8772d,1,24e953f4-978a-4883-ae06-35f9479edae0,6ddbbf18-3233-4bf3-add3-50d05ecafdd9
2019-09-07 06:39:01,1f515a6a-2f44-4cf4-ae2a-7163b7a30a91,1,24e953f4-978a-4883-ae06-35f9479edae0,6ddbbf18-3233-4bf3-add3-50d05ecafdd9
2019-09-07 06:39:06,6d670a5e-4512-4744-8fe4-bcf8d81d0a40,1,24e953f4-978a-4883-ae06-35f9479edae0,6ddbbf18-3233-4bf3-add3-50d05ecafdd9
2019-09-07 06:39:36,1f515a6a-2f44-4cf4-ae2a-7163b7a30a91,1,24e953f4-978a-4883-ae06-35f9479edae0,e064ddec-746e-4ba3-b66c-21d91248ef85
2019-09-07 06:39:16,f4297666-82be-4610-afad-798595557270,1,6ea7f56e-8914-4941-af1d-6f2b9fc19415,4a049def-5c55-4c6f-8e05-a9841f580c0f
2019-09-07 06:39:10,48ac7d58-dc4e-42c3-b64b-670e5c32bda9,1,3b874a95-ee1e-42c6-9570-b347ac86e683,6ddbbf18-3233-4bf3-add3-50d05ecafdd9
2019-09-07 06:39:10,68d25731-1d28-4c7e-8711-786e13bc7ebe,1,3b874a95-ee1e-42c6-9570-b347ac86e683,6ddbbf18-3233-4bf3-add3-50d05ecafdd9
2019-09-07 06:39:10,8cb3efb9-f714-4384-86b8-cf184ba61ae1,1,51228c03-931f-4c0b-8a12-a5a7dbf32566,51228c03-931f-4c0b-8a12-a5a7dbf32566
2019-09-07 06:38:48,4bde3949-1702-420f-b9e6-425e43d1921a,1,b7d1b6fe-5aff-40f8-84b7-fffba9c4a73b,b7d1b6fe-5aff-40f8-84b7-fffba9c4a73b
2019-09-07 06:39:27,4bde3949-1702-420f-b9e6-425e43d1921a,0,NA,NA
2019-09-07 06:39:38,8a165fe8-e334-4d77-b29f-4ae87b9a4917,0,NA,NA
2019-09-07 06:39:49,8a165fe8-e334-4d77-b29f-4ae87b9a4917,0,NA,NA
2019-09-07 06:39:06,8a165fe8-e334-4d77-b29f-4ae87b9a4917,0,NA,NA
2019-09-07 06:39:14,4bde3949-1702-420f-b9e6-425e43d1921a,0,NA,NA
2019-09-07 06:39:01,4bde3949-1702-420f-b9e6-425e43d1921a,0,NA,NA
2019-09-07 06:39:36,4bde3949-1702-420f-b9e6-425e43d1921a,0,NA,NA
2019-09-07 06:39:16,8a165fe8-e334-4d77-b29f-4ae87b9a4917,0,NA,NA
