app_number,app_id,trigger,burn,sink,deploy_date,token_interval
1,0e696b6f-7e0f-4d88-b64e-a64e68366e5c,34b7cacb-827e-4ca0-be46-8391ca92798c,5d44af41-d62c-4e20-b6a3-439145146932,ff15c857-db9a-490c-8e9a-56b6414d5eac,2019-12-08 11:02:25,2.000000
2,ebbd96a9-a572-4eb5-8198-5cf8ff96b798,b294fa49-8abf-4928-bbe1-7976c03233ad,a429a406-a3c1-4542-8d63-20ed20531273,707caf99-d9e2-4275-872e-034a1ca42909,2019-12-08 11:03:28,2.000000
3,e8dd6122-c2e4-4c03-bb8c-6580c310e43a,1698923d-a143-4666-87e9-0081535b2783,6408d54f-b7d0-49d1-9a8a-06a2a511fed2,0561ee84-398c-421e-bc7d-71b99ca5c91e,2019-12-08 11:04:31,2.000000
4,18a69990-2bbe-4ab2-96e9-5f26b16b2832,e2620634-d3d0-4eaa-9393-e954c907ed4d,e885f73d-338d-4e79-9beb-9de6fe79e30b,aa51679c-1cf9-4328-b1b9-293e0bc965a3,2019-12-08 11:05:33,1.000000
5,64d812a0-31a6-44dd-b629-7b05a6f29a6c,1c4a6f1f-816f-4368-9a65-3dcabb1b8b99,cb130480-2e53-449b-9d98-e923b69e86bb,f98f8a6b-d7d1-419d-bc1c-7589a2021b43,2019-12-08 11:06:36,1.000000
6,108f8603-c6f5-4c72-8e6e-4f0521e034c1,9da2464e-fb19-4315-bc90-d3dae33a6734,1829107d-8b2a-4aa1-bace-18306ae5ad45,6c6c4cc4-c56d-4e05-a7cc-a74df2f96186,2019-12-08 11:07:39,1.000000
7,1a5c8826-d86d-4f8c-9012-7d04f198b2eb,4c8985fe-c717-4a58-a7b3-2615d14219e6,3297f4ba-a1a3-45d5-912b-6b50e8335f60,496c1be6-f501-4bd6-a144-2b4dcbaea02e,2019-12-08 11:08:42,1.000000
8,cad88316-d3d3-4c7c-9023-9bfad64fe588,bc423ecd-63fe-47e7-a08e-a4526fe4e04c,63d4436c-5c7c-4b0f-84fc-d72c83242d26,0c983042-33cf-431c-9659-7c366c570700,2019-12-08 11:09:45,2.000000
9,147b81fc-a654-47e6-b49b-4703eec9aad4,43e46814-afc6-4c02-98e2-b7237eaaa822,3111022c-cc43-4941-945b-9baa63754c29,28499143-27aa-487e-8be1-cd47e070236d,2019-12-08 11:10:48,1.000000
10,73528541-3f83-4bdf-aaab-8e7ae47541e2,2471b0ee-aeb5-42b8-8eb3-53eaf9993816,7f84b7bf-5d8c-40ce-9f9b-75e3ce016a21,24fc7e92-b689-4db5-9d2c-dabc9e0faa01,2019-12-08 11:11:51,1.000000
11,af5a9fd9-74d4-4ced-af55-5dddedd9df83,e455752e-72cf-4f04-bebf-d8638263bd48,25cd8417-7ce4-421c-aaba-488f1b771ec0,777d10bc-e8e5-4743-9f13-50717c592ea1,2019-12-08 11:12:54,1.000000
12,908df4d4-826b-4291-bb77-4da6f9e780d1,8d2e4b53-8a38-4d61-a58b-373fb0ba1617,e1d86541-bfe2-41b0-b0e9-73e53bd704d7,1865fb9c-ced6-46c2-a596-cf0061999073,2019-12-08 11:13:57,2.000000
13,67bc622b-e5d5-4391-9cd8-2b854ccb4ab5,54a1e492-d7af-40cc-af9f-798b75ad38ec,7d332522-d435-44cf-bba7-6168cc82ebd2,ceb1f2aa-c038-4361-bfb8-04e188d692d0,2019-12-08 11:15:00,1.000000
14,9c6d4292-0203-45fb-8d30-85e52ecacd5b,f5337e4f-b536-4f88-a901-6906317ffb2e,9462733a-7628-4ae3-a9e3-8a653eb0201b,5fc9fdf4-100f-4538-adba-e248317e8835,2019-12-08 11:16:02,1.000000
15,02009c14-3fcd-4e0d-87dc-4e31cea720d7,950f0e18-c7b6-4d4b-b811-f01d2108cea1,c9155563-e732-4787-92c8-7af1516187b4,9df98457-9490-43d3-8fe5-dc3eda363f49,2019-12-08 11:17:05,2.000000
16,a9377106-05b3-4ba8-ae91-b871f7198087,e7c69b76-8b84-407e-841a-fe718ea31f41,4993fa8b-5a22-4117-89ea-38fd403b363f,b22dd9ac-663a-4397-84f6-b63fb99b3492,2019-12-08 11:18:08,2.000000
17,af192f7d-863d-4d67-b3a6-e8025613514d,57fd46b4-7e56-4833-8cb7-de76b788b0b9,126cb8ac-0e1d-4211-937f-b5d8ca056f16,8ce6efad-d09a-42c6-b97e-42fb0ba59cb9,2019-12-08 11:19:11,1.000000
18,834e6d7e-ab80-428f-bc64-29c1e2416727,b86b2329-7121-4e3c-b2dd-f19f0a5f4cda,497d78e8-52a7-4a15-86ab-8a16c3cf5d0a,ee5d6df5-1f83-4a89-aaa2-e42903952608,2019-12-08 11:20:14,2.000000
19,fb6b5f1e-7f1d-4473-8567-7e4e55e0cb53,ad2bd9ba-043c-4fbc-bc77-b285d7f29338,c032800a-4a48-490b-be3c-c7b2be0dab15,be99f28d-c450-4113-b0de-15d2adde31f5,2019-12-08 11:21:17,1.000000
20,15e6f5d5-544c-451e-b72c-e6fc7a127ff1,d1c280d6-020e-443b-b31a-fe6e534428f9,c5b2332d-6521-4d31-b709-7c03956a6eda,e7e5686d-034c-4562-8b6e-c04c65a21147,2019-12-08 11:22:20,2.000000
21,4bd90799-ed56-4fe6-8894-1b8575a1a520,479a0c43-7939-41db-ba65-b26e67e6fd3d,164bf0d1-e267-4ae5-ba47-a292a5cd2665,cae4651d-6daf-4154-a0d2-5acf02823987,2019-12-08 11:23:23,1.000000
22,2b851d73-b9d0-46ae-af88-7df45955341a,83e82dd2-3d52-441d-b952-8eb36858b27f,d77e75d6-2c59-46bd-ae57-4e6ddbf45479,3f523670-5ba4-44e3-a3ed-bcd0bcfbbf44,2019-12-08 11:24:26,1.000000
23,c7219f18-47f9-4bab-8e93-4c952668985e,7e01505f-cef6-4b71-a7fe-84043a6a6b11,aa1ed2f0-807b-4fb2-9e4b-ff5c6ddf0c0b,f9b0f0b3-a711-4ac7-88ce-31cc303260c4,2019-12-08 11:25:29,1.000000
24,2780da8e-5906-424d-b2cf-c1c942ca8ed3,183a10b4-205b-4d6c-a299-91a1ed99aaf3,cd86dba3-66c9-4e3f-befe-84e8d0ef85a0,06ed7991-5bd3-4399-80fb-3347eafb1e67,2019-12-08 11:26:32,2.000000
25,d2d1a2d5-fbb2-4e4b-9d84-ce32bb1ab219,31a5c766-072b-4cc1-89b7-a1b824c657df,bbc2c255-a6dc-4542-8b1c-1102d54ea4f7,3724a4aa-024b-4cef-8133-4505139c1b30,2019-12-08 11:27:35,2.000000
26,e13da2e1-e9d5-4a33-af6b-b1415ebeca63,8f153ce4-50ba-43bc-851b-5192e48bac83,609906a6-8084-4fef-a02c-1217e3e9464a,48d5255d-2e26-4144-84b0-e72b9a5b9c04,2019-12-08 11:28:37,2.000000
27,08b14f20-33fc-4ea9-92dc-9881b821857a,9a2c0495-9de2-4296-9f9f-8240e51857f5,eec697fd-4c2a-4387-88dd-848ddfb8a3ad,8213e5d8-7a4b-4a45-a26b-f62d53ec6eeb,2019-12-08 11:29:40,1.000000
28,a2fac6e5-1932-407d-9f43-20b13e54e030,43631cfb-33ee-41ae-b2a8-dd9a3f11f35b,27f58cda-9654-45cf-8db0-98402b39ae29,4535e3c2-54c1-4107-a5f7-bac50985413d,2019-12-08 11:30:43,2.000000
29,85933b60-a4e1-48a6-88ae-057256164cee,21b55fc1-291c-430f-9544-2738df10ac51,d9d5c196-5874-47d0-b778-9fdbb8d8cbfa,bed8d2af-b340-4257-a8d1-b38f42f1c58e,2019-12-08 11:31:45,2.000000
30,f14007b7-47a3-456b-aa2c-5445f4888bad,a56f4ad8-8fec-4beb-86f1-c68d5b168ffe,998181c6-62fb-495f-8a8b-67c2de5f57a3,59d9cc85-1e6c-4ebf-8d4c-239583b27153,2019-12-08 11:32:48,2.000000
31,bbd7c77b-4626-4f8b-83b8-e40d9c717187,7232be14-0d23-4f10-a070-c0443c09dacd,191c3c8f-39a2-45b9-9326-0164687c25f7,1048f545-49e7-4f25-abde-fc4d917b575f,2019-12-08 11:33:51,2.000000
32,79f08bc6-d401-4775-be79-13039663afc5,f62247dc-5636-4ed2-a8e0-80d47c0d7ef4,a07a0575-6e58-427a-b651-a496774bfede,680c048c-a41b-446e-a8bf-f26a7e0868de,2019-12-08 11:34:53,1.000000
33,7539129d-0006-41c2-bbd3-ea4006fce481,eb306a26-0115-477d-bf55-6bef47bb6813,54885511-044b-4c9a-8c7e-6a3f993c4494,326e8e21-cf16-40a5-8310-5cee3a3f7611,2019-12-08 11:35:56,2.000000
34,5aa228e4-b673-4080-97ba-54709e20b0a7,e07492c5-e6d5-4b8b-a2e9-5f64de448dfe,c1c75c48-962c-41b5-8c73-a65a0ec319ff,c416e955-09c6-4f96-98bc-bff775dfeffd,2019-12-08 11:36:59,1.000000
35,e4613e9b-7685-45b6-a9c8-8c292644bd87,a69cc4f9-2894-4c13-bd17-ca43c3c6684d,51929711-6a77-4f43-88cc-cccc5e515e01,67d19657-11c9-4922-a2c9-6a4c9d129af1,2019-12-08 11:38:02,2.000000
36,51287f19-4986-4d95-bcd4-bbf8a3ac5eb6,18b9d9b3-748a-4d69-a6d7-a2aa850a41bc,44729d34-0929-4e98-8509-e76517a6d75c,ec515ee3-d6a1-4dfd-a3aa-f5e204aeb2a8,2019-12-08 11:39:05,1.000000
37,cdaa01fc-6929-4a54-8e96-43cb48efb70e,21685061-4759-425a-b500-d18648fd19a4,1767b00d-b921-4ae8-b076-c086fa2f0063,3295c005-ec61-4a06-8d24-0b3be5ee3947,2019-12-08 11:40:08,2.000000
38,0f4f4d36-87c2-4e67-b36b-9d09215d0194,de7d679a-f89e-4fbf-a410-e0be66f44de9,7d0541e6-52a2-463a-9afb-8a9bcebf86f5,5af9d7a1-f2cd-4352-9c02-b07e22885173,2019-12-08 11:41:10,2.000000
39,8e3b4fcc-6f41-4fbb-9a0a-f01da5f42c22,e5082bee-7154-49db-8cea-661e1e0ee0d9,f53ed1fc-8546-498f-b504-766ca82557a3,5c70a022-ae63-4923-8cb7-9ea0a7260a50,2019-12-08 11:42:13,1.000000
40,f566d714-2349-407e-a35f-3284a261407f,392ba72f-a6a3-45fc-bbbb-0bfd37c0ae73,2d622cca-f3c4-432e-9364-0b2ccfcd9521,bc7e5234-c24d-4b8f-93b3-89277c9147b7,2019-12-08 11:43:16,1.000000
41,a65a0d4a-0706-44c0-89fe-79d680cfdb72,874ceda7-a7c7-4069-be3a-f0ba6cceffab,acd6d9b1-1d3f-4930-9524-89e7f106b8af,318b98d9-48be-4596-95c4-f168d864b703,2019-12-08 11:44:19,2.000000
42,5db3bd15-672a-46f8-8b37-e6fcd64dd551,63b30895-2754-4d4d-afc2-2ceabb1ba2b5,2fc5b5e4-6f42-4e96-a358-5974ade9446c,f5c92fde-f2c9-4c4f-909a-d477a61a642e,2019-12-08 11:45:22,1.000000
43,fc7794e9-4c5e-4cfb-b646-7d30f3d17544,53b844e0-1ea8-43a8-aad4-c07b00d0d44f,94fea318-3608-483b-ba10-81c6e70f1ad5,58cf4219-41b6-47fc-b48f-ca7b36903ca1,2019-12-08 11:46:24,1.000000
44,f4fa0289-bf4e-4a24-b25c-792f1f7ada84,1ec1ae79-46a1-411d-acca-6b2f916214b0,5b4a15e5-fce7-4b71-a9f6-2c74c1b665ce,9055ac61-c70e-4502-a837-98e6dcc57940,2019-12-08 11:47:27,1.000000
45,8104ceb9-901e-4a5a-b7f1-03034f0b219e,8ada50c0-2b01-4506-9e51-327036ab4714,a6665c77-e696-4b00-8e64-6e0a634c637d,352ca89b-de98-46d0-b902-022ce8fa71e3,2019-12-08 11:48:30,2.000000
46,192ee3b9-d6f6-4baa-908d-5266eb7ab7a0,61a1ae17-e926-4731-939c-b7b85bff6cc3,9ce99ae1-e83c-4b97-995d-0b81f4dbad07,62f099c0-5fa8-40da-98e4-b2e3f452a86b,2019-12-08 11:49:33,1.000000
47,2a89538a-902f-4a37-8cf0-8d85dadfb1ea,ea08ce9e-1715-464b-ad2d-b6e12cc07a67,45d85c42-e879-4750-81e3-40b0a21f203e,06c27ce4-f37b-4aca-9de4-31854dde461d,2019-12-08 11:50:36,1.000000
48,51aba880-800d-4a5c-84a4-aff59cdc34f9,d0a58d05-9c53-49f5-9ab0-5380b3cce9b4,c77310fa-2f22-4ddd-a95e-e5da544e7d63,fc4289af-b40e-4bdb-88b9-8aabe69f3fee,2019-12-08 11:51:38,2.000000
49,9ba7df19-6921-4a11-acfd-b0db6e85ee80,4822b902-1677-409d-938d-6a92380352bd,60de1dca-150f-4047-ba7e-0a5b208fc248,c9f6046d-731a-4bc7-83c9-09cda91b20ee,2019-12-08 11:52:41,1.000000
50,9062ea12-e1f7-4b93-b348-097b0f26c1e3,fb840120-f18c-400b-925a-d4d39f71150e,e99177a3-00eb-462e-a509-6b4f0006f301,ba984cc8-ced1-4759-b793-3b825a732062,2019-12-08 11:53:44,2.000000
