date,trigger,state
2019-10-15 04:04:42,665aaece-7a9c-4a00-bd86-6018719b3cc7,S
2019-10-15 04:16:56,665aaece-7a9c-4a00-bd86-6018719b3cc7,A
2019-10-15 04:27:04,665aaece-7a9c-4a00-bd86-6018719b3cc7,S
2019-10-15 04:28:23,665aaece-7a9c-4a00-bd86-6018719b3cc7,A
2019-10-15 04:30:21,665aaece-7a9c-4a00-bd86-6018719b3cc7,S
2019-10-15 04:37:01,665aaece-7a9c-4a00-bd86-6018719b3cc7,A
2019-10-15 04:37:47,665aaece-7a9c-4a00-bd86-6018719b3cc7,S
2019-10-15 04:40:09,665aaece-7a9c-4a00-bd86-6018719b3cc7,A
2019-10-15 04:41:00,665aaece-7a9c-4a00-bd86-6018719b3cc7,S
2019-10-15 04:41:22,665aaece-7a9c-4a00-bd86-6018719b3cc7,A
2019-10-15 04:41:41,665aaece-7a9c-4a00-bd86-6018719b3cc7,S
2019-10-15 04:48:37,665aaece-7a9c-4a00-bd86-6018719b3cc7,A
2019-10-15 05:01:27,665aaece-7a9c-4a00-bd86-6018719b3cc7,S
2019-10-15 05:06:04,665aaece-7a9c-4a00-bd86-6018719b3cc7,A
2019-10-15 05:06:43,665aaece-7a9c-4a00-bd86-6018719b3cc7,S
2019-10-15 05:23:38,665aaece-7a9c-4a00-bd86-6018719b3cc7,A
2019-10-15 05:25:59,665aaece-7a9c-4a00-bd86-6018719b3cc7,S
2019-10-15 05:26:13,665aaece-7a9c-4a00-bd86-6018719b3cc7,A
2019-10-15 05:27:32,665aaece-7a9c-4a00-bd86-6018719b3cc7,S
2019-10-15 05:29:58,665aaece-7a9c-4a00-bd86-6018719b3cc7,A
2019-10-15 05:35:26,665aaece-7a9c-4a00-bd86-6018719b3cc7,S
2019-10-15 03:46:25,20748851-3e76-4fbb-b2c3-84e40f24e2bf,A
2019-10-15 03:49:50,20748851-3e76-4fbb-b2c3-84e40f24e2bf,S
2019-10-15 03:54:55,20748851-3e76-4fbb-b2c3-84e40f24e2bf,A
2019-10-15 03:56:46,20748851-3e76-4fbb-b2c3-84e40f24e2bf,S
2019-10-15 04:07:17,20748851-3e76-4fbb-b2c3-84e40f24e2bf,A
2019-10-15 04:07:52,20748851-3e76-4fbb-b2c3-84e40f24e2bf,S
2019-10-15 04:16:16,20748851-3e76-4fbb-b2c3-84e40f24e2bf,A
2019-10-15 04:18:37,20748851-3e76-4fbb-b2c3-84e40f24e2bf,S
2019-10-15 04:27:00,20748851-3e76-4fbb-b2c3-84e40f24e2bf,A
2019-10-15 04:45:26,20748851-3e76-4fbb-b2c3-84e40f24e2bf,S
2019-10-15 04:46:42,20748851-3e76-4fbb-b2c3-84e40f24e2bf,A
2019-10-15 04:46:53,20748851-3e76-4fbb-b2c3-84e40f24e2bf,S
2019-10-15 04:50:06,20748851-3e76-4fbb-b2c3-84e40f24e2bf,A
2019-10-15 04:58:56,20748851-3e76-4fbb-b2c3-84e40f24e2bf,S
2019-10-15 05:14:01,20748851-3e76-4fbb-b2c3-84e40f24e2bf,A
2019-10-15 05:14:19,20748851-3e76-4fbb-b2c3-84e40f24e2bf,S
2019-10-15 05:24:51,20748851-3e76-4fbb-b2c3-84e40f24e2bf,A
2019-10-15 03:55:10,38ca9f4c-82ab-433c-8653-228924bf951f,S
2019-10-15 04:04:12,38ca9f4c-82ab-433c-8653-228924bf951f,A
2019-10-15 04:09:24,38ca9f4c-82ab-433c-8653-228924bf951f,S
2019-10-15 04:22:10,38ca9f4c-82ab-433c-8653-228924bf951f,A
2019-10-15 04:23:09,38ca9f4c-82ab-433c-8653-228924bf951f,S
2019-10-15 04:34:22,38ca9f4c-82ab-433c-8653-228924bf951f,A
2019-10-15 04:34:35,38ca9f4c-82ab-433c-8653-228924bf951f,S
2019-10-15 04:38:02,38ca9f4c-82ab-433c-8653-228924bf951f,A
2019-10-15 04:49:06,38ca9f4c-82ab-433c-8653-228924bf951f,S
2019-10-15 04:52:07,38ca9f4c-82ab-433c-8653-228924bf951f,A
2019-10-15 04:58:43,38ca9f4c-82ab-433c-8653-228924bf951f,S
2019-10-15 05:00:39,38ca9f4c-82ab-433c-8653-228924bf951f,A
2019-10-15 05:08:04,38ca9f4c-82ab-433c-8653-228924bf951f,S
2019-10-15 05:12:11,38ca9f4c-82ab-433c-8653-228924bf951f,A
2019-10-15 05:12:52,38ca9f4c-82ab-433c-8653-228924bf951f,S
2019-10-15 05:13:14,38ca9f4c-82ab-433c-8653-228924bf951f,A
2019-10-15 05:16:37,38ca9f4c-82ab-433c-8653-228924bf951f,S
2019-10-15 05:19:42,38ca9f4c-82ab-433c-8653-228924bf951f,A
2019-10-15 05:32:53,38ca9f4c-82ab-433c-8653-228924bf951f,S
2019-10-15 05:37:03,38ca9f4c-82ab-433c-8653-228924bf951f,A
2019-10-15 05:37:10,38ca9f4c-82ab-433c-8653-228924bf951f,S
2019-10-15 03:51:18,c46a70cb-a0c0-4500-a6fa-8c53697dd369,A
2019-10-15 03:54:59,c46a70cb-a0c0-4500-a6fa-8c53697dd369,S
2019-10-15 03:58:19,c46a70cb-a0c0-4500-a6fa-8c53697dd369,A
2019-10-15 03:59:58,c46a70cb-a0c0-4500-a6fa-8c53697dd369,S
2019-10-15 04:15:28,c46a70cb-a0c0-4500-a6fa-8c53697dd369,A
2019-10-15 04:17:13,c46a70cb-a0c0-4500-a6fa-8c53697dd369,S
2019-10-15 04:17:36,c46a70cb-a0c0-4500-a6fa-8c53697dd369,A
2019-10-15 04:39:24,c46a70cb-a0c0-4500-a6fa-8c53697dd369,S
2019-10-15 04:46:34,c46a70cb-a0c0-4500-a6fa-8c53697dd369,A
2019-10-15 04:50:55,c46a70cb-a0c0-4500-a6fa-8c53697dd369,S
2019-10-15 04:51:35,c46a70cb-a0c0-4500-a6fa-8c53697dd369,A
2019-10-15 04:55:50,c46a70cb-a0c0-4500-a6fa-8c53697dd369,S
2019-10-15 04:57:40,c46a70cb-a0c0-4500-a6fa-8c53697dd369,A
2019-10-15 05:00:22,c46a70cb-a0c0-4500-a6fa-8c53697dd369,S
2019-10-15 05:09:37,c46a70cb-a0c0-4500-a6fa-8c53697dd369,A
2019-10-15 05:17:13,c46a70cb-a0c0-4500-a6fa-8c53697dd369,S
2019-10-15 05:22:10,c46a70cb-a0c0-4500-a6fa-8c53697dd369,A
2019-10-15 05:28:47,c46a70cb-a0c0-4500-a6fa-8c53697dd369,S
2019-10-15 04:18:00,abc1e5d3-b2df-4760-8f66-51d8669ee695,S
2019-10-15 04:23:23,abc1e5d3-b2df-4760-8f66-51d8669ee695,A
2019-10-15 04:24:49,abc1e5d3-b2df-4760-8f66-51d8669ee695,S
2019-10-15 04:26:59,abc1e5d3-b2df-4760-8f66-51d8669ee695,A
2019-10-15 04:34:01,abc1e5d3-b2df-4760-8f66-51d8669ee695,S
2019-10-15 04:40:07,abc1e5d3-b2df-4760-8f66-51d8669ee695,A
2019-10-15 04:44:02,abc1e5d3-b2df-4760-8f66-51d8669ee695,S
2019-10-15 04:47:24,abc1e5d3-b2df-4760-8f66-51d8669ee695,A
2019-10-15 04:48:58,abc1e5d3-b2df-4760-8f66-51d8669ee695,S
2019-10-15 04:49:09,abc1e5d3-b2df-4760-8f66-51d8669ee695,A
2019-10-15 04:51:29,abc1e5d3-b2df-4760-8f66-51d8669ee695,S
2019-10-15 04:55:45,abc1e5d3-b2df-4760-8f66-51d8669ee695,A
2019-10-15 04:58:39,abc1e5d3-b2df-4760-8f66-51d8669ee695,S
2019-10-15 04:59:34,abc1e5d3-b2df-4760-8f66-51d8669ee695,A
2019-10-15 04:21:25,0e036a40-2ea5-4f49-9d7c-fce87899aaa9,S
2019-10-15 04:23:44,0e036a40-2ea5-4f49-9d7c-fce87899aaa9,A
2019-10-15 04:30:15,0e036a40-2ea5-4f49-9d7c-fce87899aaa9,S
2019-10-15 04:31:13,0e036a40-2ea5-4f49-9d7c-fce87899aaa9,A
2019-10-15 04:31:33,0e036a40-2ea5-4f49-9d7c-fce87899aaa9,S
2019-10-15 04:36:43,0e036a40-2ea5-4f49-9d7c-fce87899aaa9,A
2019-10-15 04:41:37,0e036a40-2ea5-4f49-9d7c-fce87899aaa9,S
2019-10-15 04:46:17,0e036a40-2ea5-4f49-9d7c-fce87899aaa9,A
2019-10-15 04:59:16,0e036a40-2ea5-4f49-9d7c-fce87899aaa9,S
2019-10-15 05:16:46,0e036a40-2ea5-4f49-9d7c-fce87899aaa9,A
2019-10-15 05:21:29,0e036a40-2ea5-4f49-9d7c-fce87899aaa9,S
2019-10-15 05:23:37,0e036a40-2ea5-4f49-9d7c-fce87899aaa9,A
2019-10-15 05:24:51,0e036a40-2ea5-4f49-9d7c-fce87899aaa9,S
2019-10-15 05:26:13,0e036a40-2ea5-4f49-9d7c-fce87899aaa9,A
2019-10-15 05:26:57,0e036a40-2ea5-4f49-9d7c-fce87899aaa9,S
2019-10-15 05:27:30,0e036a40-2ea5-4f49-9d7c-fce87899aaa9,A
2019-10-15 05:28:35,0e036a40-2ea5-4f49-9d7c-fce87899aaa9,S
2019-10-15 05:35:15,0e036a40-2ea5-4f49-9d7c-fce87899aaa9,A
2019-10-15 05:35:35,0e036a40-2ea5-4f49-9d7c-fce87899aaa9,S
2019-10-15 05:36:22,0e036a40-2ea5-4f49-9d7c-fce87899aaa9,A
2019-10-15 05:36:24,0e036a40-2ea5-4f49-9d7c-fce87899aaa9,S
2019-10-15 03:50:48,262eee58-36d9-440d-aded-3da5ec929efe,S
2019-10-15 03:58:27,262eee58-36d9-440d-aded-3da5ec929efe,A
2019-10-15 04:00:23,262eee58-36d9-440d-aded-3da5ec929efe,S
2019-10-15 04:11:41,262eee58-36d9-440d-aded-3da5ec929efe,A
2019-10-15 04:13:30,262eee58-36d9-440d-aded-3da5ec929efe,S
2019-10-15 04:14:12,262eee58-36d9-440d-aded-3da5ec929efe,A
2019-10-15 04:23:43,262eee58-36d9-440d-aded-3da5ec929efe,S
2019-10-15 04:26:58,262eee58-36d9-440d-aded-3da5ec929efe,A
2019-10-15 04:27:34,262eee58-36d9-440d-aded-3da5ec929efe,S
2019-10-15 04:28:05,262eee58-36d9-440d-aded-3da5ec929efe,A
2019-10-15 04:33:09,262eee58-36d9-440d-aded-3da5ec929efe,S
2019-10-15 04:33:34,262eee58-36d9-440d-aded-3da5ec929efe,A
2019-10-15 04:33:57,262eee58-36d9-440d-aded-3da5ec929efe,S
2019-10-15 04:34:41,262eee58-36d9-440d-aded-3da5ec929efe,A
2019-10-15 04:36:33,262eee58-36d9-440d-aded-3da5ec929efe,S
2019-10-15 04:37:25,262eee58-36d9-440d-aded-3da5ec929efe,A
2019-10-15 04:47:59,262eee58-36d9-440d-aded-3da5ec929efe,S
2019-10-15 04:49:11,262eee58-36d9-440d-aded-3da5ec929efe,A
2019-10-15 04:56:03,262eee58-36d9-440d-aded-3da5ec929efe,S
2019-10-15 05:04:44,262eee58-36d9-440d-aded-3da5ec929efe,A
2019-10-15 05:07:51,262eee58-36d9-440d-aded-3da5ec929efe,S
2019-10-15 05:11:27,262eee58-36d9-440d-aded-3da5ec929efe,A
2019-10-15 05:11:43,262eee58-36d9-440d-aded-3da5ec929efe,S
2019-10-15 05:18:48,262eee58-36d9-440d-aded-3da5ec929efe,A
2019-10-15 05:18:56,262eee58-36d9-440d-aded-3da5ec929efe,S
2019-10-15 05:19:22,262eee58-36d9-440d-aded-3da5ec929efe,A
2019-10-15 05:19:58,262eee58-36d9-440d-aded-3da5ec929efe,S
2019-10-15 05:22:03,262eee58-36d9-440d-aded-3da5ec929efe,A
2019-10-15 05:22:07,262eee58-36d9-440d-aded-3da5ec929efe,S
2019-10-15 05:33:53,262eee58-36d9-440d-aded-3da5ec929efe,A
2019-10-15 05:37:17,262eee58-36d9-440d-aded-3da5ec929efe,S
2019-10-15 03:41:35,85a41e74-4266-447f-aca2-ba8407ef749d,S
2019-10-15 03:45:03,85a41e74-4266-447f-aca2-ba8407ef749d,A
2019-10-15 03:51:06,85a41e74-4266-447f-aca2-ba8407ef749d,S
2019-10-15 04:01:02,85a41e74-4266-447f-aca2-ba8407ef749d,A
2019-10-15 04:21:10,85a41e74-4266-447f-aca2-ba8407ef749d,S
2019-10-15 04:27:06,85a41e74-4266-447f-aca2-ba8407ef749d,A
2019-10-15 04:37:55,85a41e74-4266-447f-aca2-ba8407ef749d,S
2019-10-15 04:43:20,85a41e74-4266-447f-aca2-ba8407ef749d,A
2019-10-15 04:47:37,85a41e74-4266-447f-aca2-ba8407ef749d,S
2019-10-15 04:53:10,85a41e74-4266-447f-aca2-ba8407ef749d,A
2019-10-15 04:53:22,85a41e74-4266-447f-aca2-ba8407ef749d,S
2019-10-15 04:55:06,85a41e74-4266-447f-aca2-ba8407ef749d,A
2019-10-15 05:01:01,85a41e74-4266-447f-aca2-ba8407ef749d,S
2019-10-15 05:02:43,85a41e74-4266-447f-aca2-ba8407ef749d,A
2019-10-15 05:07:15,85a41e74-4266-447f-aca2-ba8407ef749d,S
2019-10-15 05:10:49,85a41e74-4266-447f-aca2-ba8407ef749d,A
2019-10-15 05:16:07,85a41e74-4266-447f-aca2-ba8407ef749d,S
2019-10-15 05:23:51,85a41e74-4266-447f-aca2-ba8407ef749d,A
2019-10-15 04:13:12,fca1d738-ae4e-402b-b601-c892a56d4ce4,A
2019-10-15 04:27:55,fca1d738-ae4e-402b-b601-c892a56d4ce4,S
2019-10-15 04:30:01,fca1d738-ae4e-402b-b601-c892a56d4ce4,A
2019-10-15 04:39:07,fca1d738-ae4e-402b-b601-c892a56d4ce4,S
2019-10-15 04:50:40,fca1d738-ae4e-402b-b601-c892a56d4ce4,A
2019-10-15 04:09:36,16853bf5-6027-404e-8c7d-d37a39c616a9,S
2019-10-15 04:11:31,16853bf5-6027-404e-8c7d-d37a39c616a9,A
2019-10-15 04:14:40,16853bf5-6027-404e-8c7d-d37a39c616a9,S
2019-10-15 04:15:09,16853bf5-6027-404e-8c7d-d37a39c616a9,A
2019-10-15 04:18:18,16853bf5-6027-404e-8c7d-d37a39c616a9,S
2019-10-15 04:20:18,16853bf5-6027-404e-8c7d-d37a39c616a9,A
2019-10-15 04:24:34,16853bf5-6027-404e-8c7d-d37a39c616a9,S
2019-10-15 04:25:31,16853bf5-6027-404e-8c7d-d37a39c616a9,A
2019-10-15 04:26:21,16853bf5-6027-404e-8c7d-d37a39c616a9,S
2019-10-15 04:33:48,16853bf5-6027-404e-8c7d-d37a39c616a9,A
2019-10-15 04:36:00,16853bf5-6027-404e-8c7d-d37a39c616a9,S
2019-10-15 04:39:32,16853bf5-6027-404e-8c7d-d37a39c616a9,A
2019-10-15 04:47:49,16853bf5-6027-404e-8c7d-d37a39c616a9,S
2019-10-15 04:55:13,16853bf5-6027-404e-8c7d-d37a39c616a9,A
2019-10-15 04:57:15,16853bf5-6027-404e-8c7d-d37a39c616a9,S
2019-10-15 05:00:00,16853bf5-6027-404e-8c7d-d37a39c616a9,A
2019-10-15 05:01:05,16853bf5-6027-404e-8c7d-d37a39c616a9,S
2019-10-15 05:02:23,16853bf5-6027-404e-8c7d-d37a39c616a9,A
2019-10-15 05:03:55,16853bf5-6027-404e-8c7d-d37a39c616a9,S
2019-10-15 05:12:02,16853bf5-6027-404e-8c7d-d37a39c616a9,A
2019-10-15 05:12:13,16853bf5-6027-404e-8c7d-d37a39c616a9,S
2019-10-15 05:12:24,16853bf5-6027-404e-8c7d-d37a39c616a9,A
2019-10-15 05:16:15,16853bf5-6027-404e-8c7d-d37a39c616a9,S
2019-10-15 05:18:39,16853bf5-6027-404e-8c7d-d37a39c616a9,A
2019-10-15 05:19:23,16853bf5-6027-404e-8c7d-d37a39c616a9,S
2019-10-15 05:20:41,16853bf5-6027-404e-8c7d-d37a39c616a9,A
2019-10-15 05:21:35,16853bf5-6027-404e-8c7d-d37a39c616a9,S
2019-10-15 05:29:57,16853bf5-6027-404e-8c7d-d37a39c616a9,A
2019-10-15 05:31:11,16853bf5-6027-404e-8c7d-d37a39c616a9,S
2019-10-15 04:12:18,a7f907c5-fe87-48c6-886d-a881faeeadeb,S
2019-10-15 04:14:14,a7f907c5-fe87-48c6-886d-a881faeeadeb,A
2019-10-15 04:14:43,a7f907c5-fe87-48c6-886d-a881faeeadeb,S
2019-10-15 04:23:01,a7f907c5-fe87-48c6-886d-a881faeeadeb,A
2019-10-15 04:25:53,a7f907c5-fe87-48c6-886d-a881faeeadeb,S
2019-10-15 04:32:14,a7f907c5-fe87-48c6-886d-a881faeeadeb,A
2019-10-15 04:36:50,a7f907c5-fe87-48c6-886d-a881faeeadeb,S
2019-10-15 04:38:03,a7f907c5-fe87-48c6-886d-a881faeeadeb,A
2019-10-15 04:46:47,a7f907c5-fe87-48c6-886d-a881faeeadeb,S
2019-10-15 04:48:21,a7f907c5-fe87-48c6-886d-a881faeeadeb,A
2019-10-15 04:56:23,a7f907c5-fe87-48c6-886d-a881faeeadeb,S
2019-10-15 04:56:36,a7f907c5-fe87-48c6-886d-a881faeeadeb,A
2019-10-15 05:03:11,a7f907c5-fe87-48c6-886d-a881faeeadeb,S
2019-10-15 05:08:05,a7f907c5-fe87-48c6-886d-a881faeeadeb,A
2019-10-15 05:09:00,a7f907c5-fe87-48c6-886d-a881faeeadeb,S
2019-10-15 05:10:57,a7f907c5-fe87-48c6-886d-a881faeeadeb,A
2019-10-15 05:10:58,a7f907c5-fe87-48c6-886d-a881faeeadeb,S
2019-10-15 05:12:18,a7f907c5-fe87-48c6-886d-a881faeeadeb,A
2019-10-15 05:15:05,a7f907c5-fe87-48c6-886d-a881faeeadeb,S
2019-10-15 05:22:31,a7f907c5-fe87-48c6-886d-a881faeeadeb,A
2019-10-15 05:24:04,a7f907c5-fe87-48c6-886d-a881faeeadeb,S
2019-10-15 05:24:40,a7f907c5-fe87-48c6-886d-a881faeeadeb,A
2019-10-15 05:31:42,a7f907c5-fe87-48c6-886d-a881faeeadeb,S
2019-10-15 05:35:11,a7f907c5-fe87-48c6-886d-a881faeeadeb,A
2019-10-15 04:18:53,492cccda-8316-415c-91da-8d59a3754137,A
2019-10-15 04:52:39,492cccda-8316-415c-91da-8d59a3754137,S
2019-10-15 04:53:06,492cccda-8316-415c-91da-8d59a3754137,A
2019-10-15 05:22:23,492cccda-8316-415c-91da-8d59a3754137,S
2019-10-15 05:25:26,492cccda-8316-415c-91da-8d59a3754137,A
2019-10-15 05:27:54,492cccda-8316-415c-91da-8d59a3754137,S
2019-10-15 05:29:26,492cccda-8316-415c-91da-8d59a3754137,A
2019-10-15 05:30:12,492cccda-8316-415c-91da-8d59a3754137,S
2019-10-15 05:33:27,492cccda-8316-415c-91da-8d59a3754137,A
2019-10-15 03:48:31,77d565d5-e628-4d41-b7bb-eb394808b0e0,A
2019-10-15 03:55:23,77d565d5-e628-4d41-b7bb-eb394808b0e0,S
2019-10-15 04:00:10,77d565d5-e628-4d41-b7bb-eb394808b0e0,A
2019-10-15 04:06:44,77d565d5-e628-4d41-b7bb-eb394808b0e0,S
2019-10-15 04:12:38,77d565d5-e628-4d41-b7bb-eb394808b0e0,A
2019-10-15 04:23:16,77d565d5-e628-4d41-b7bb-eb394808b0e0,S
2019-10-15 04:30:31,77d565d5-e628-4d41-b7bb-eb394808b0e0,A
2019-10-15 04:32:58,77d565d5-e628-4d41-b7bb-eb394808b0e0,S
2019-10-15 04:34:39,77d565d5-e628-4d41-b7bb-eb394808b0e0,A
2019-10-15 04:39:17,77d565d5-e628-4d41-b7bb-eb394808b0e0,S
2019-10-15 04:44:17,77d565d5-e628-4d41-b7bb-eb394808b0e0,A
2019-10-15 04:54:12,77d565d5-e628-4d41-b7bb-eb394808b0e0,S
2019-10-15 04:54:16,77d565d5-e628-4d41-b7bb-eb394808b0e0,A
2019-10-15 04:58:56,77d565d5-e628-4d41-b7bb-eb394808b0e0,S
2019-10-15 05:00:41,77d565d5-e628-4d41-b7bb-eb394808b0e0,A
2019-10-15 05:07:23,77d565d5-e628-4d41-b7bb-eb394808b0e0,S
2019-10-15 05:07:30,77d565d5-e628-4d41-b7bb-eb394808b0e0,A
2019-10-15 05:10:12,77d565d5-e628-4d41-b7bb-eb394808b0e0,S
2019-10-15 05:17:05,77d565d5-e628-4d41-b7bb-eb394808b0e0,A
2019-10-15 05:37:59,77d565d5-e628-4d41-b7bb-eb394808b0e0,S
2019-10-15 04:03:52,7c9f6ca8-dfe5-4da2-bda1-80738ae881e9,S
2019-10-15 04:04:34,7c9f6ca8-dfe5-4da2-bda1-80738ae881e9,A
2019-10-15 04:20:15,7c9f6ca8-dfe5-4da2-bda1-80738ae881e9,S
2019-10-15 04:27:30,7c9f6ca8-dfe5-4da2-bda1-80738ae881e9,A
2019-10-15 04:27:51,7c9f6ca8-dfe5-4da2-bda1-80738ae881e9,S
2019-10-15 04:28:21,7c9f6ca8-dfe5-4da2-bda1-80738ae881e9,A
2019-10-15 04:29:32,7c9f6ca8-dfe5-4da2-bda1-80738ae881e9,S
2019-10-15 04:37:16,7c9f6ca8-dfe5-4da2-bda1-80738ae881e9,A
2019-10-15 04:39:45,7c9f6ca8-dfe5-4da2-bda1-80738ae881e9,S
2019-10-15 04:40:43,7c9f6ca8-dfe5-4da2-bda1-80738ae881e9,A
2019-10-15 04:45:42,7c9f6ca8-dfe5-4da2-bda1-80738ae881e9,S
2019-10-15 04:49:08,7c9f6ca8-dfe5-4da2-bda1-80738ae881e9,A
2019-10-15 04:56:50,7c9f6ca8-dfe5-4da2-bda1-80738ae881e9,S
2019-10-15 05:00:23,7c9f6ca8-dfe5-4da2-bda1-80738ae881e9,A
2019-10-15 05:01:27,7c9f6ca8-dfe5-4da2-bda1-80738ae881e9,S
2019-10-15 05:02:45,7c9f6ca8-dfe5-4da2-bda1-80738ae881e9,A
2019-10-15 05:11:54,7c9f6ca8-dfe5-4da2-bda1-80738ae881e9,S
2019-10-15 05:13:01,7c9f6ca8-dfe5-4da2-bda1-80738ae881e9,A
2019-10-15 05:15:38,7c9f6ca8-dfe5-4da2-bda1-80738ae881e9,S
2019-10-15 05:17:45,7c9f6ca8-dfe5-4da2-bda1-80738ae881e9,A
2019-10-15 05:26:17,7c9f6ca8-dfe5-4da2-bda1-80738ae881e9,S
2019-10-15 05:28:31,7c9f6ca8-dfe5-4da2-bda1-80738ae881e9,A
2019-10-15 05:33:28,7c9f6ca8-dfe5-4da2-bda1-80738ae881e9,S
2019-10-15 05:36:56,7c9f6ca8-dfe5-4da2-bda1-80738ae881e9,A
2019-10-15 05:37:31,7c9f6ca8-dfe5-4da2-bda1-80738ae881e9,S
2019-10-15 04:11:50,d3a87bdb-1ca3-453e-9d17-62112f276841,A
2019-10-15 04:15:19,d3a87bdb-1ca3-453e-9d17-62112f276841,S
2019-10-15 04:18:22,d3a87bdb-1ca3-453e-9d17-62112f276841,A
2019-10-15 04:27:19,d3a87bdb-1ca3-453e-9d17-62112f276841,S
2019-10-15 04:42:16,d3a87bdb-1ca3-453e-9d17-62112f276841,A
2019-10-15 04:43:18,d3a87bdb-1ca3-453e-9d17-62112f276841,S
2019-10-15 04:43:48,d3a87bdb-1ca3-453e-9d17-62112f276841,A
2019-10-15 04:44:27,d3a87bdb-1ca3-453e-9d17-62112f276841,S
2019-10-15 04:51:31,d3a87bdb-1ca3-453e-9d17-62112f276841,A
2019-10-15 04:56:40,d3a87bdb-1ca3-453e-9d17-62112f276841,S
2019-10-15 05:15:32,d3a87bdb-1ca3-453e-9d17-62112f276841,A
2019-10-15 05:17:39,d3a87bdb-1ca3-453e-9d17-62112f276841,S
2019-10-15 05:24:46,d3a87bdb-1ca3-453e-9d17-62112f276841,A
2019-10-15 05:28:16,d3a87bdb-1ca3-453e-9d17-62112f276841,S
2019-10-15 04:19:46,626b578a-d7b8-44b6-91d1-8db1ae028586,S
2019-10-15 04:33:20,626b578a-d7b8-44b6-91d1-8db1ae028586,A
2019-10-15 04:38:14,626b578a-d7b8-44b6-91d1-8db1ae028586,S
2019-10-15 04:38:46,626b578a-d7b8-44b6-91d1-8db1ae028586,A
2019-10-15 04:42:38,626b578a-d7b8-44b6-91d1-8db1ae028586,S
2019-10-15 04:43:19,626b578a-d7b8-44b6-91d1-8db1ae028586,A
2019-10-15 04:51:58,626b578a-d7b8-44b6-91d1-8db1ae028586,S
2019-10-15 04:53:02,626b578a-d7b8-44b6-91d1-8db1ae028586,A
2019-10-15 04:55:17,626b578a-d7b8-44b6-91d1-8db1ae028586,S
2019-10-15 04:57:27,626b578a-d7b8-44b6-91d1-8db1ae028586,A
2019-10-15 04:59:49,626b578a-d7b8-44b6-91d1-8db1ae028586,S
2019-10-15 05:03:40,626b578a-d7b8-44b6-91d1-8db1ae028586,A
2019-10-15 05:04:51,626b578a-d7b8-44b6-91d1-8db1ae028586,S
2019-10-15 05:05:42,626b578a-d7b8-44b6-91d1-8db1ae028586,A
2019-10-15 05:07:52,626b578a-d7b8-44b6-91d1-8db1ae028586,S
2019-10-15 05:08:14,626b578a-d7b8-44b6-91d1-8db1ae028586,A
2019-10-15 05:08:31,626b578a-d7b8-44b6-91d1-8db1ae028586,S
2019-10-15 05:13:02,626b578a-d7b8-44b6-91d1-8db1ae028586,A
2019-10-15 05:13:52,626b578a-d7b8-44b6-91d1-8db1ae028586,S
2019-10-15 05:23:24,626b578a-d7b8-44b6-91d1-8db1ae028586,A
2019-10-15 05:29:27,626b578a-d7b8-44b6-91d1-8db1ae028586,S
2019-10-15 05:37:25,626b578a-d7b8-44b6-91d1-8db1ae028586,A
2019-10-15 03:30:59,98d32b87-8686-4922-97a6-9c336bbcee67,S
2019-10-15 03:32:04,98d32b87-8686-4922-97a6-9c336bbcee67,A
2019-10-15 03:33:19,98d32b87-8686-4922-97a6-9c336bbcee67,S
2019-10-15 03:36:57,98d32b87-8686-4922-97a6-9c336bbcee67,A
2019-10-15 03:39:41,98d32b87-8686-4922-97a6-9c336bbcee67,S
2019-10-15 03:44:51,98d32b87-8686-4922-97a6-9c336bbcee67,A
2019-10-15 03:46:09,98d32b87-8686-4922-97a6-9c336bbcee67,S
2019-10-15 03:52:08,98d32b87-8686-4922-97a6-9c336bbcee67,A
2019-10-15 04:03:25,98d32b87-8686-4922-97a6-9c336bbcee67,S
2019-10-15 04:07:05,98d32b87-8686-4922-97a6-9c336bbcee67,A
2019-10-15 04:11:37,98d32b87-8686-4922-97a6-9c336bbcee67,S
2019-10-15 04:23:05,98d32b87-8686-4922-97a6-9c336bbcee67,A
2019-10-15 04:36:32,98d32b87-8686-4922-97a6-9c336bbcee67,S
2019-10-15 04:37:30,98d32b87-8686-4922-97a6-9c336bbcee67,A
2019-10-15 04:39:03,98d32b87-8686-4922-97a6-9c336bbcee67,S
2019-10-15 04:39:49,98d32b87-8686-4922-97a6-9c336bbcee67,A
2019-10-15 04:40:58,98d32b87-8686-4922-97a6-9c336bbcee67,S
2019-10-15 04:49:34,98d32b87-8686-4922-97a6-9c336bbcee67,A
2019-10-15 04:51:32,98d32b87-8686-4922-97a6-9c336bbcee67,S
2019-10-15 04:53:20,98d32b87-8686-4922-97a6-9c336bbcee67,A
2019-10-15 04:58:08,98d32b87-8686-4922-97a6-9c336bbcee67,S
2019-10-15 05:07:01,98d32b87-8686-4922-97a6-9c336bbcee67,A
2019-10-15 05:17:53,98d32b87-8686-4922-97a6-9c336bbcee67,S
2019-10-15 05:21:49,98d32b87-8686-4922-97a6-9c336bbcee67,A
2019-10-15 05:22:06,98d32b87-8686-4922-97a6-9c336bbcee67,S
2019-10-15 05:27:46,98d32b87-8686-4922-97a6-9c336bbcee67,A
2019-10-15 05:34:11,98d32b87-8686-4922-97a6-9c336bbcee67,S
2019-10-15 05:34:12,98d32b87-8686-4922-97a6-9c336bbcee67,A
2019-10-15 05:36:11,98d32b87-8686-4922-97a6-9c336bbcee67,S
2019-10-15 05:38:48,98d32b87-8686-4922-97a6-9c336bbcee67,A
2019-10-15 03:52:15,df82c9d0-da3a-44a5-a9c8-ca1e269a7d3a,A
2019-10-15 04:00:04,df82c9d0-da3a-44a5-a9c8-ca1e269a7d3a,S
2019-10-15 04:01:35,df82c9d0-da3a-44a5-a9c8-ca1e269a7d3a,A
2019-10-15 04:04:13,df82c9d0-da3a-44a5-a9c8-ca1e269a7d3a,S
2019-10-15 04:08:54,df82c9d0-da3a-44a5-a9c8-ca1e269a7d3a,A
2019-10-15 04:23:36,df82c9d0-da3a-44a5-a9c8-ca1e269a7d3a,S
2019-10-15 04:24:11,df82c9d0-da3a-44a5-a9c8-ca1e269a7d3a,A
2019-10-15 04:29:41,df82c9d0-da3a-44a5-a9c8-ca1e269a7d3a,S
2019-10-15 04:36:54,df82c9d0-da3a-44a5-a9c8-ca1e269a7d3a,A
2019-10-15 04:37:29,df82c9d0-da3a-44a5-a9c8-ca1e269a7d3a,S
2019-10-15 04:49:19,df82c9d0-da3a-44a5-a9c8-ca1e269a7d3a,A
2019-10-15 04:52:27,df82c9d0-da3a-44a5-a9c8-ca1e269a7d3a,S
2019-10-15 05:04:17,df82c9d0-da3a-44a5-a9c8-ca1e269a7d3a,A
2019-10-15 05:16:14,df82c9d0-da3a-44a5-a9c8-ca1e269a7d3a,S
2019-10-15 05:21:07,df82c9d0-da3a-44a5-a9c8-ca1e269a7d3a,A
2019-10-15 05:21:39,df82c9d0-da3a-44a5-a9c8-ca1e269a7d3a,S
2019-10-15 05:21:57,df82c9d0-da3a-44a5-a9c8-ca1e269a7d3a,A
2019-10-15 05:22:08,df82c9d0-da3a-44a5-a9c8-ca1e269a7d3a,S
2019-10-15 05:23:18,df82c9d0-da3a-44a5-a9c8-ca1e269a7d3a,A
2019-10-15 05:27:00,df82c9d0-da3a-44a5-a9c8-ca1e269a7d3a,S
2019-10-15 05:35:51,df82c9d0-da3a-44a5-a9c8-ca1e269a7d3a,A
2019-10-15 03:56:17,5928564c-7596-4512-8e20-ad305f690d57,A
2019-10-15 04:02:20,5928564c-7596-4512-8e20-ad305f690d57,S
2019-10-15 04:04:50,5928564c-7596-4512-8e20-ad305f690d57,A
2019-10-15 04:05:35,5928564c-7596-4512-8e20-ad305f690d57,S
2019-10-15 04:05:38,5928564c-7596-4512-8e20-ad305f690d57,A
2019-10-15 04:08:28,5928564c-7596-4512-8e20-ad305f690d57,S
2019-10-15 04:16:44,5928564c-7596-4512-8e20-ad305f690d57,A
2019-10-15 04:19:30,5928564c-7596-4512-8e20-ad305f690d57,S
2019-10-15 04:19:33,5928564c-7596-4512-8e20-ad305f690d57,A
2019-10-15 04:25:38,5928564c-7596-4512-8e20-ad305f690d57,S
2019-10-15 04:30:01,5928564c-7596-4512-8e20-ad305f690d57,A
2019-10-15 04:37:22,5928564c-7596-4512-8e20-ad305f690d57,S
2019-10-15 04:38:32,5928564c-7596-4512-8e20-ad305f690d57,A
2019-10-15 04:42:28,5928564c-7596-4512-8e20-ad305f690d57,S
2019-10-15 04:43:15,5928564c-7596-4512-8e20-ad305f690d57,A
2019-10-15 04:43:33,5928564c-7596-4512-8e20-ad305f690d57,S
2019-10-15 04:54:06,5928564c-7596-4512-8e20-ad305f690d57,A
2019-10-15 04:55:29,5928564c-7596-4512-8e20-ad305f690d57,S
2019-10-15 05:01:13,5928564c-7596-4512-8e20-ad305f690d57,A
2019-10-15 05:05:40,5928564c-7596-4512-8e20-ad305f690d57,S
2019-10-15 05:06:59,5928564c-7596-4512-8e20-ad305f690d57,A
2019-10-15 05:09:46,5928564c-7596-4512-8e20-ad305f690d57,S
2019-10-15 05:11:11,5928564c-7596-4512-8e20-ad305f690d57,A
2019-10-15 05:20:00,5928564c-7596-4512-8e20-ad305f690d57,S
2019-10-15 05:21:30,5928564c-7596-4512-8e20-ad305f690d57,A
2019-10-15 05:25:08,5928564c-7596-4512-8e20-ad305f690d57,S
2019-10-15 05:25:26,5928564c-7596-4512-8e20-ad305f690d57,A
2019-10-15 05:29:24,5928564c-7596-4512-8e20-ad305f690d57,S
2019-10-15 03:42:43,7a023cc3-03b4-4bcc-a775-028e4c359b4b,S
2019-10-15 03:46:50,7a023cc3-03b4-4bcc-a775-028e4c359b4b,A
2019-10-15 03:57:13,7a023cc3-03b4-4bcc-a775-028e4c359b4b,S
2019-10-15 03:58:47,7a023cc3-03b4-4bcc-a775-028e4c359b4b,A
2019-10-15 04:06:18,7a023cc3-03b4-4bcc-a775-028e4c359b4b,S
2019-10-15 04:06:33,7a023cc3-03b4-4bcc-a775-028e4c359b4b,A
2019-10-15 04:07:58,7a023cc3-03b4-4bcc-a775-028e4c359b4b,S
2019-10-15 04:25:15,7a023cc3-03b4-4bcc-a775-028e4c359b4b,A
2019-10-15 04:31:01,7a023cc3-03b4-4bcc-a775-028e4c359b4b,S
2019-10-15 04:34:36,7a023cc3-03b4-4bcc-a775-028e4c359b4b,A
2019-10-15 04:37:48,7a023cc3-03b4-4bcc-a775-028e4c359b4b,S
2019-10-15 04:38:04,7a023cc3-03b4-4bcc-a775-028e4c359b4b,A
2019-10-15 04:56:39,7a023cc3-03b4-4bcc-a775-028e4c359b4b,S
2019-10-15 04:57:05,7a023cc3-03b4-4bcc-a775-028e4c359b4b,A
2019-10-15 05:00:21,7a023cc3-03b4-4bcc-a775-028e4c359b4b,S
2019-10-15 05:13:28,7a023cc3-03b4-4bcc-a775-028e4c359b4b,A
2019-10-15 05:16:46,7a023cc3-03b4-4bcc-a775-028e4c359b4b,S
2019-10-15 05:19:14,7a023cc3-03b4-4bcc-a775-028e4c359b4b,A
2019-10-15 05:19:51,7a023cc3-03b4-4bcc-a775-028e4c359b4b,S
2019-10-15 05:25:05,7a023cc3-03b4-4bcc-a775-028e4c359b4b,A
2019-10-15 05:29:45,7a023cc3-03b4-4bcc-a775-028e4c359b4b,S
2019-10-15 05:33:42,7a023cc3-03b4-4bcc-a775-028e4c359b4b,A
2019-10-15 05:35:34,7a023cc3-03b4-4bcc-a775-028e4c359b4b,S
2019-10-15 05:36:32,7a023cc3-03b4-4bcc-a775-028e4c359b4b,A
2019-10-15 03:49:19,6537aeaf-6535-47af-a1d8-7929bc72ccca,S
2019-10-15 04:01:24,6537aeaf-6535-47af-a1d8-7929bc72ccca,A
2019-10-15 04:19:45,6537aeaf-6535-47af-a1d8-7929bc72ccca,S
2019-10-15 04:22:09,6537aeaf-6535-47af-a1d8-7929bc72ccca,A
2019-10-15 04:25:27,6537aeaf-6535-47af-a1d8-7929bc72ccca,S
2019-10-15 04:28:46,6537aeaf-6535-47af-a1d8-7929bc72ccca,A
2019-10-15 04:40:16,6537aeaf-6535-47af-a1d8-7929bc72ccca,S
2019-10-15 04:41:06,6537aeaf-6535-47af-a1d8-7929bc72ccca,A
2019-10-15 04:42:45,6537aeaf-6535-47af-a1d8-7929bc72ccca,S
2019-10-15 04:43:37,6537aeaf-6535-47af-a1d8-7929bc72ccca,A
2019-10-15 05:01:02,6537aeaf-6535-47af-a1d8-7929bc72ccca,S
2019-10-15 05:01:07,6537aeaf-6535-47af-a1d8-7929bc72ccca,A
2019-10-15 05:04:17,6537aeaf-6535-47af-a1d8-7929bc72ccca,S
2019-10-15 05:07:44,6537aeaf-6535-47af-a1d8-7929bc72ccca,A
2019-10-15 05:09:58,6537aeaf-6535-47af-a1d8-7929bc72ccca,S
2019-10-15 05:15:54,6537aeaf-6535-47af-a1d8-7929bc72ccca,A
2019-10-15 05:17:17,6537aeaf-6535-47af-a1d8-7929bc72ccca,S
2019-10-15 05:21:12,6537aeaf-6535-47af-a1d8-7929bc72ccca,A
2019-10-15 05:26:46,6537aeaf-6535-47af-a1d8-7929bc72ccca,S
2019-10-15 05:38:18,6537aeaf-6535-47af-a1d8-7929bc72ccca,A
2019-10-15 04:21:30,9b0676a6-b2dd-4cea-bb31-63ffadbce78d,S
2019-10-15 04:22:44,9b0676a6-b2dd-4cea-bb31-63ffadbce78d,A
2019-10-15 04:28:29,9b0676a6-b2dd-4cea-bb31-63ffadbce78d,S
2019-10-15 04:41:49,9b0676a6-b2dd-4cea-bb31-63ffadbce78d,A
2019-10-15 04:49:34,9b0676a6-b2dd-4cea-bb31-63ffadbce78d,S
2019-10-15 04:52:05,9b0676a6-b2dd-4cea-bb31-63ffadbce78d,A
2019-10-15 05:08:27,9b0676a6-b2dd-4cea-bb31-63ffadbce78d,S
2019-10-15 05:14:35,9b0676a6-b2dd-4cea-bb31-63ffadbce78d,A
2019-10-15 05:29:23,9b0676a6-b2dd-4cea-bb31-63ffadbce78d,S
2019-10-15 05:34:38,9b0676a6-b2dd-4cea-bb31-63ffadbce78d,A
2019-10-15 05:37:12,9b0676a6-b2dd-4cea-bb31-63ffadbce78d,S
2019-10-15 03:46:05,46047a16-8e7f-4c5a-9f34-46b08a9d9ea4,S
2019-10-15 03:58:00,46047a16-8e7f-4c5a-9f34-46b08a9d9ea4,A
2019-10-15 03:58:18,46047a16-8e7f-4c5a-9f34-46b08a9d9ea4,S
2019-10-15 04:13:42,46047a16-8e7f-4c5a-9f34-46b08a9d9ea4,A
2019-10-15 04:16:35,46047a16-8e7f-4c5a-9f34-46b08a9d9ea4,S
2019-10-15 04:18:35,46047a16-8e7f-4c5a-9f34-46b08a9d9ea4,A
2019-10-15 04:26:42,46047a16-8e7f-4c5a-9f34-46b08a9d9ea4,S
2019-10-15 04:27:38,46047a16-8e7f-4c5a-9f34-46b08a9d9ea4,A
2019-10-15 04:29:53,46047a16-8e7f-4c5a-9f34-46b08a9d9ea4,S
2019-10-15 04:44:15,46047a16-8e7f-4c5a-9f34-46b08a9d9ea4,A
2019-10-15 04:49:33,46047a16-8e7f-4c5a-9f34-46b08a9d9ea4,S
2019-10-15 04:51:06,46047a16-8e7f-4c5a-9f34-46b08a9d9ea4,A
2019-10-15 04:51:54,46047a16-8e7f-4c5a-9f34-46b08a9d9ea4,S
2019-10-15 04:53:51,46047a16-8e7f-4c5a-9f34-46b08a9d9ea4,A
2019-10-15 04:57:09,46047a16-8e7f-4c5a-9f34-46b08a9d9ea4,S
2019-10-15 04:57:15,46047a16-8e7f-4c5a-9f34-46b08a9d9ea4,A
2019-10-15 05:09:34,46047a16-8e7f-4c5a-9f34-46b08a9d9ea4,S
2019-10-15 05:10:55,46047a16-8e7f-4c5a-9f34-46b08a9d9ea4,A
2019-10-15 05:15:47,46047a16-8e7f-4c5a-9f34-46b08a9d9ea4,S
2019-10-15 05:19:13,46047a16-8e7f-4c5a-9f34-46b08a9d9ea4,A
2019-10-15 05:20:27,46047a16-8e7f-4c5a-9f34-46b08a9d9ea4,S
2019-10-15 05:21:09,46047a16-8e7f-4c5a-9f34-46b08a9d9ea4,A
2019-10-15 05:33:49,46047a16-8e7f-4c5a-9f34-46b08a9d9ea4,S
2019-10-15 05:35:17,46047a16-8e7f-4c5a-9f34-46b08a9d9ea4,A
2019-10-15 05:36:31,46047a16-8e7f-4c5a-9f34-46b08a9d9ea4,S
2019-10-15 05:39:08,46047a16-8e7f-4c5a-9f34-46b08a9d9ea4,A
2019-10-15 04:01:15,e36d4ff4-0b1d-4923-8339-7b7da3297ad3,S
2019-10-15 04:01:19,e36d4ff4-0b1d-4923-8339-7b7da3297ad3,A
2019-10-15 04:08:29,e36d4ff4-0b1d-4923-8339-7b7da3297ad3,S
2019-10-15 04:20:00,e36d4ff4-0b1d-4923-8339-7b7da3297ad3,A
2019-10-15 04:21:36,e36d4ff4-0b1d-4923-8339-7b7da3297ad3,S
2019-10-15 04:24:43,e36d4ff4-0b1d-4923-8339-7b7da3297ad3,A
2019-10-15 04:25:00,e36d4ff4-0b1d-4923-8339-7b7da3297ad3,S
2019-10-15 04:42:58,e36d4ff4-0b1d-4923-8339-7b7da3297ad3,A
2019-10-15 04:45:33,e36d4ff4-0b1d-4923-8339-7b7da3297ad3,S
2019-10-15 04:57:44,e36d4ff4-0b1d-4923-8339-7b7da3297ad3,A
2019-10-15 05:09:52,e36d4ff4-0b1d-4923-8339-7b7da3297ad3,S
2019-10-15 05:15:23,e36d4ff4-0b1d-4923-8339-7b7da3297ad3,A
2019-10-15 05:15:50,e36d4ff4-0b1d-4923-8339-7b7da3297ad3,S
2019-10-15 05:18:05,e36d4ff4-0b1d-4923-8339-7b7da3297ad3,A
2019-10-15 05:21:44,e36d4ff4-0b1d-4923-8339-7b7da3297ad3,S
2019-10-15 05:25:04,e36d4ff4-0b1d-4923-8339-7b7da3297ad3,A
2019-10-15 05:29:34,e36d4ff4-0b1d-4923-8339-7b7da3297ad3,S
2019-10-15 05:30:31,e36d4ff4-0b1d-4923-8339-7b7da3297ad3,A
2019-10-15 05:30:53,e36d4ff4-0b1d-4923-8339-7b7da3297ad3,S
2019-10-15 05:31:51,e36d4ff4-0b1d-4923-8339-7b7da3297ad3,A
2019-10-15 04:02:23,d2be2657-8fc4-4fe5-944e-9673fb7e44af,S
2019-10-15 04:06:32,d2be2657-8fc4-4fe5-944e-9673fb7e44af,A
2019-10-15 04:04:01,b74b3bb3-0b00-4576-a1f3-fa81b9913dac,A
2019-10-15 04:15:32,b74b3bb3-0b00-4576-a1f3-fa81b9913dac,S
2019-10-15 04:25:28,b74b3bb3-0b00-4576-a1f3-fa81b9913dac,A
2019-10-15 04:30:56,b74b3bb3-0b00-4576-a1f3-fa81b9913dac,S
2019-10-15 04:31:38,b74b3bb3-0b00-4576-a1f3-fa81b9913dac,A
2019-10-15 04:32:35,b74b3bb3-0b00-4576-a1f3-fa81b9913dac,S
2019-10-15 04:34:33,b74b3bb3-0b00-4576-a1f3-fa81b9913dac,A
2019-10-15 04:35:53,b74b3bb3-0b00-4576-a1f3-fa81b9913dac,S
2019-10-15 04:43:12,b74b3bb3-0b00-4576-a1f3-fa81b9913dac,A
2019-10-15 04:45:06,b74b3bb3-0b00-4576-a1f3-fa81b9913dac,S
2019-10-15 04:46:49,b74b3bb3-0b00-4576-a1f3-fa81b9913dac,A
2019-10-15 05:02:13,b74b3bb3-0b00-4576-a1f3-fa81b9913dac,S
2019-10-15 05:08:07,b74b3bb3-0b00-4576-a1f3-fa81b9913dac,A
2019-10-15 05:12:40,b74b3bb3-0b00-4576-a1f3-fa81b9913dac,S
2019-10-15 05:13:44,b74b3bb3-0b00-4576-a1f3-fa81b9913dac,A
2019-10-15 05:16:04,b74b3bb3-0b00-4576-a1f3-fa81b9913dac,S
2019-10-15 05:19:43,b74b3bb3-0b00-4576-a1f3-fa81b9913dac,A
2019-10-15 05:21:44,b74b3bb3-0b00-4576-a1f3-fa81b9913dac,S
2019-10-15 05:21:52,b74b3bb3-0b00-4576-a1f3-fa81b9913dac,A
2019-10-15 05:30:58,b74b3bb3-0b00-4576-a1f3-fa81b9913dac,S
2019-10-15 05:37:17,b74b3bb3-0b00-4576-a1f3-fa81b9913dac,A
2019-10-15 05:38:23,b74b3bb3-0b00-4576-a1f3-fa81b9913dac,S
2019-10-15 05:39:16,b74b3bb3-0b00-4576-a1f3-fa81b9913dac,A
2019-10-15 04:13:21,03a508b6-f4cd-4bca-9f88-55dcbe3162d1,A
2019-10-15 04:22:17,03a508b6-f4cd-4bca-9f88-55dcbe3162d1,S
2019-10-15 04:33:00,03a508b6-f4cd-4bca-9f88-55dcbe3162d1,A
2019-10-15 04:38:32,03a508b6-f4cd-4bca-9f88-55dcbe3162d1,S
2019-10-15 04:41:10,03a508b6-f4cd-4bca-9f88-55dcbe3162d1,A
2019-10-15 04:41:54,03a508b6-f4cd-4bca-9f88-55dcbe3162d1,S
2019-10-15 04:46:34,03a508b6-f4cd-4bca-9f88-55dcbe3162d1,A
2019-10-15 04:48:25,03a508b6-f4cd-4bca-9f88-55dcbe3162d1,S
2019-10-15 05:01:40,03a508b6-f4cd-4bca-9f88-55dcbe3162d1,A
2019-10-15 05:03:32,03a508b6-f4cd-4bca-9f88-55dcbe3162d1,S
2019-10-15 05:09:44,03a508b6-f4cd-4bca-9f88-55dcbe3162d1,A
2019-10-15 05:12:32,03a508b6-f4cd-4bca-9f88-55dcbe3162d1,S
2019-10-15 05:14:20,03a508b6-f4cd-4bca-9f88-55dcbe3162d1,A
2019-10-15 05:14:43,03a508b6-f4cd-4bca-9f88-55dcbe3162d1,S
2019-10-15 05:15:22,03a508b6-f4cd-4bca-9f88-55dcbe3162d1,A
2019-10-15 05:27:53,03a508b6-f4cd-4bca-9f88-55dcbe3162d1,S
2019-10-15 05:27:54,03a508b6-f4cd-4bca-9f88-55dcbe3162d1,A
2019-10-15 05:28:30,03a508b6-f4cd-4bca-9f88-55dcbe3162d1,S
2019-10-15 05:28:59,03a508b6-f4cd-4bca-9f88-55dcbe3162d1,A
2019-10-15 04:17:15,7d775c60-4902-42b2-9196-54a4f9b425d1,A
2019-10-15 04:22:21,7d775c60-4902-42b2-9196-54a4f9b425d1,S
2019-10-15 04:23:25,7d775c60-4902-42b2-9196-54a4f9b425d1,A
2019-10-15 04:25:20,7d775c60-4902-42b2-9196-54a4f9b425d1,S
2019-10-15 04:32:55,7d775c60-4902-42b2-9196-54a4f9b425d1,A
2019-10-15 04:34:20,7d775c60-4902-42b2-9196-54a4f9b425d1,S
2019-10-15 04:44:13,7d775c60-4902-42b2-9196-54a4f9b425d1,A
2019-10-15 04:46:02,7d775c60-4902-42b2-9196-54a4f9b425d1,S
2019-10-15 04:50:55,7d775c60-4902-42b2-9196-54a4f9b425d1,A
2019-10-15 04:55:19,7d775c60-4902-42b2-9196-54a4f9b425d1,S
2019-10-15 05:04:04,7d775c60-4902-42b2-9196-54a4f9b425d1,A
2019-10-15 05:05:35,7d775c60-4902-42b2-9196-54a4f9b425d1,S
2019-10-15 05:07:29,7d775c60-4902-42b2-9196-54a4f9b425d1,A
2019-10-15 05:09:56,7d775c60-4902-42b2-9196-54a4f9b425d1,S
2019-10-15 05:14:10,7d775c60-4902-42b2-9196-54a4f9b425d1,A
2019-10-15 05:19:59,7d775c60-4902-42b2-9196-54a4f9b425d1,S
2019-10-15 05:25:29,7d775c60-4902-42b2-9196-54a4f9b425d1,A
2019-10-15 05:34:42,7d775c60-4902-42b2-9196-54a4f9b425d1,S
2019-10-15 03:46:42,ca4089f6-9301-495e-bbca-cf57ed5a3a04,A
2019-10-15 03:52:45,ca4089f6-9301-495e-bbca-cf57ed5a3a04,S
2019-10-15 03:55:33,ca4089f6-9301-495e-bbca-cf57ed5a3a04,A
2019-10-15 03:56:11,ca4089f6-9301-495e-bbca-cf57ed5a3a04,S
2019-10-15 03:56:56,ca4089f6-9301-495e-bbca-cf57ed5a3a04,A
2019-10-15 04:06:12,ca4089f6-9301-495e-bbca-cf57ed5a3a04,S
2019-10-15 04:06:37,ca4089f6-9301-495e-bbca-cf57ed5a3a04,A
2019-10-15 04:07:27,ca4089f6-9301-495e-bbca-cf57ed5a3a04,S
2019-10-15 04:12:21,ca4089f6-9301-495e-bbca-cf57ed5a3a04,A
2019-10-15 04:17:21,ca4089f6-9301-495e-bbca-cf57ed5a3a04,S
2019-10-15 04:17:33,ca4089f6-9301-495e-bbca-cf57ed5a3a04,A
2019-10-15 04:18:17,ca4089f6-9301-495e-bbca-cf57ed5a3a04,S
2019-10-15 04:20:38,ca4089f6-9301-495e-bbca-cf57ed5a3a04,A
2019-10-15 04:23:37,ca4089f6-9301-495e-bbca-cf57ed5a3a04,S
2019-10-15 04:24:54,ca4089f6-9301-495e-bbca-cf57ed5a3a04,A
2019-10-15 04:24:58,ca4089f6-9301-495e-bbca-cf57ed5a3a04,S
2019-10-15 04:33:03,ca4089f6-9301-495e-bbca-cf57ed5a3a04,A
2019-10-15 04:36:20,ca4089f6-9301-495e-bbca-cf57ed5a3a04,S
2019-10-15 04:12:28,f4d5c8da-6502-40ea-978c-028449a39d6e,S
2019-10-15 04:13:11,f4d5c8da-6502-40ea-978c-028449a39d6e,A
2019-10-15 04:16:42,f4d5c8da-6502-40ea-978c-028449a39d6e,S
2019-10-15 04:20:44,f4d5c8da-6502-40ea-978c-028449a39d6e,A
2019-10-15 04:28:33,f4d5c8da-6502-40ea-978c-028449a39d6e,S
2019-10-15 04:35:02,f4d5c8da-6502-40ea-978c-028449a39d6e,A
2019-10-15 04:39:13,f4d5c8da-6502-40ea-978c-028449a39d6e,S
2019-10-15 04:40:38,f4d5c8da-6502-40ea-978c-028449a39d6e,A
2019-10-15 04:51:03,f4d5c8da-6502-40ea-978c-028449a39d6e,S
2019-10-15 04:51:18,f4d5c8da-6502-40ea-978c-028449a39d6e,A
2019-10-15 04:51:34,f4d5c8da-6502-40ea-978c-028449a39d6e,S
2019-10-15 04:53:03,f4d5c8da-6502-40ea-978c-028449a39d6e,A
2019-10-15 05:00:54,f4d5c8da-6502-40ea-978c-028449a39d6e,S
2019-10-15 05:04:51,f4d5c8da-6502-40ea-978c-028449a39d6e,A
2019-10-15 05:07:29,f4d5c8da-6502-40ea-978c-028449a39d6e,S
2019-10-15 05:09:56,f4d5c8da-6502-40ea-978c-028449a39d6e,A
2019-10-15 05:12:03,f4d5c8da-6502-40ea-978c-028449a39d6e,S
2019-10-15 05:16:44,f4d5c8da-6502-40ea-978c-028449a39d6e,A
2019-10-15 05:23:05,f4d5c8da-6502-40ea-978c-028449a39d6e,S
2019-10-15 05:23:15,f4d5c8da-6502-40ea-978c-028449a39d6e,A
2019-10-15 05:23:55,f4d5c8da-6502-40ea-978c-028449a39d6e,S
2019-10-15 05:26:13,f4d5c8da-6502-40ea-978c-028449a39d6e,A
2019-10-15 05:40:39,f4d5c8da-6502-40ea-978c-028449a39d6e,S
2019-10-15 03:42:15,01e7a5a0-0cb7-448b-b9a8-59d3e1ea85ec,S
2019-10-15 03:58:22,01e7a5a0-0cb7-448b-b9a8-59d3e1ea85ec,A
2019-10-15 03:59:34,01e7a5a0-0cb7-448b-b9a8-59d3e1ea85ec,S
2019-10-15 04:04:23,01e7a5a0-0cb7-448b-b9a8-59d3e1ea85ec,A
2019-10-15 04:05:29,01e7a5a0-0cb7-448b-b9a8-59d3e1ea85ec,S
2019-10-15 04:08:16,01e7a5a0-0cb7-448b-b9a8-59d3e1ea85ec,A
2019-10-15 04:13:28,01e7a5a0-0cb7-448b-b9a8-59d3e1ea85ec,S
2019-10-15 04:15:38,01e7a5a0-0cb7-448b-b9a8-59d3e1ea85ec,A
2019-10-15 04:19:07,01e7a5a0-0cb7-448b-b9a8-59d3e1ea85ec,S
2019-10-15 04:24:43,01e7a5a0-0cb7-448b-b9a8-59d3e1ea85ec,A
2019-10-15 04:35:13,01e7a5a0-0cb7-448b-b9a8-59d3e1ea85ec,S
2019-10-15 04:40:54,01e7a5a0-0cb7-448b-b9a8-59d3e1ea85ec,A
2019-10-15 04:42:52,01e7a5a0-0cb7-448b-b9a8-59d3e1ea85ec,S
2019-10-15 04:44:53,01e7a5a0-0cb7-448b-b9a8-59d3e1ea85ec,A
2019-10-15 04:53:10,01e7a5a0-0cb7-448b-b9a8-59d3e1ea85ec,S
2019-10-15 04:55:20,01e7a5a0-0cb7-448b-b9a8-59d3e1ea85ec,A
2019-10-15 05:00:14,01e7a5a0-0cb7-448b-b9a8-59d3e1ea85ec,S
2019-10-15 05:03:13,01e7a5a0-0cb7-448b-b9a8-59d3e1ea85ec,A
2019-10-15 05:04:21,01e7a5a0-0cb7-448b-b9a8-59d3e1ea85ec,S
2019-10-15 05:09:16,01e7a5a0-0cb7-448b-b9a8-59d3e1ea85ec,A
2019-10-15 05:12:08,01e7a5a0-0cb7-448b-b9a8-59d3e1ea85ec,S
2019-10-15 05:15:58,01e7a5a0-0cb7-448b-b9a8-59d3e1ea85ec,A
2019-10-15 05:18:18,01e7a5a0-0cb7-448b-b9a8-59d3e1ea85ec,S
2019-10-15 05:22:04,01e7a5a0-0cb7-448b-b9a8-59d3e1ea85ec,A
2019-10-15 05:27:29,01e7a5a0-0cb7-448b-b9a8-59d3e1ea85ec,S
2019-10-15 05:28:36,01e7a5a0-0cb7-448b-b9a8-59d3e1ea85ec,A
2019-10-15 05:34:21,01e7a5a0-0cb7-448b-b9a8-59d3e1ea85ec,S
2019-10-15 05:35:18,01e7a5a0-0cb7-448b-b9a8-59d3e1ea85ec,A
2019-10-15 05:36:48,01e7a5a0-0cb7-448b-b9a8-59d3e1ea85ec,S
2019-10-15 05:37:20,01e7a5a0-0cb7-448b-b9a8-59d3e1ea85ec,A
2019-10-15 05:40:39,01e7a5a0-0cb7-448b-b9a8-59d3e1ea85ec,S
2019-10-15 04:05:54,e5bcb763-15fc-4497-bf62-658209deacb1,S
2019-10-15 04:08:12,e5bcb763-15fc-4497-bf62-658209deacb1,A
2019-10-15 04:13:24,e5bcb763-15fc-4497-bf62-658209deacb1,S
2019-10-15 04:21:30,e5bcb763-15fc-4497-bf62-658209deacb1,A
2019-10-15 04:28:54,e5bcb763-15fc-4497-bf62-658209deacb1,S
2019-10-15 04:29:16,e5bcb763-15fc-4497-bf62-658209deacb1,A
2019-10-15 04:34:49,e5bcb763-15fc-4497-bf62-658209deacb1,S
2019-10-15 04:45:52,e5bcb763-15fc-4497-bf62-658209deacb1,A
2019-10-15 04:50:16,e5bcb763-15fc-4497-bf62-658209deacb1,S
2019-10-15 04:53:04,e5bcb763-15fc-4497-bf62-658209deacb1,A
2019-10-15 04:59:46,e5bcb763-15fc-4497-bf62-658209deacb1,S
2019-10-15 05:00:36,e5bcb763-15fc-4497-bf62-658209deacb1,A
2019-10-15 05:03:22,e5bcb763-15fc-4497-bf62-658209deacb1,S
2019-10-15 05:07:12,e5bcb763-15fc-4497-bf62-658209deacb1,A
2019-10-15 05:13:40,e5bcb763-15fc-4497-bf62-658209deacb1,S
2019-10-15 05:16:45,e5bcb763-15fc-4497-bf62-658209deacb1,A
2019-10-15 05:29:05,e5bcb763-15fc-4497-bf62-658209deacb1,S
2019-10-15 05:33:52,e5bcb763-15fc-4497-bf62-658209deacb1,A
2019-10-15 05:35:56,e5bcb763-15fc-4497-bf62-658209deacb1,S
2019-10-15 05:39:44,e5bcb763-15fc-4497-bf62-658209deacb1,A
2019-10-15 04:00:11,931b737c-5dc4-482a-8a78-6375ee70621c,A
2019-10-15 04:19:04,931b737c-5dc4-482a-8a78-6375ee70621c,S
2019-10-15 04:19:26,931b737c-5dc4-482a-8a78-6375ee70621c,A
2019-10-15 04:22:10,931b737c-5dc4-482a-8a78-6375ee70621c,S
2019-10-15 04:26:10,931b737c-5dc4-482a-8a78-6375ee70621c,A
2019-10-15 04:26:40,931b737c-5dc4-482a-8a78-6375ee70621c,S
2019-10-15 04:29:41,931b737c-5dc4-482a-8a78-6375ee70621c,A
2019-10-15 04:31:20,931b737c-5dc4-482a-8a78-6375ee70621c,S
2019-10-15 04:45:49,931b737c-5dc4-482a-8a78-6375ee70621c,A
2019-10-15 04:47:25,931b737c-5dc4-482a-8a78-6375ee70621c,S
2019-10-15 04:47:31,931b737c-5dc4-482a-8a78-6375ee70621c,A
2019-10-15 04:49:51,931b737c-5dc4-482a-8a78-6375ee70621c,S
2019-10-15 04:49:59,931b737c-5dc4-482a-8a78-6375ee70621c,A
2019-10-15 04:52:01,931b737c-5dc4-482a-8a78-6375ee70621c,S
2019-10-15 04:56:02,931b737c-5dc4-482a-8a78-6375ee70621c,A
2019-10-15 05:06:45,931b737c-5dc4-482a-8a78-6375ee70621c,S
2019-10-15 05:12:29,931b737c-5dc4-482a-8a78-6375ee70621c,A
2019-10-15 05:14:43,931b737c-5dc4-482a-8a78-6375ee70621c,S
2019-10-15 05:18:09,931b737c-5dc4-482a-8a78-6375ee70621c,A
2019-10-15 05:21:42,931b737c-5dc4-482a-8a78-6375ee70621c,S
2019-10-15 05:39:27,931b737c-5dc4-482a-8a78-6375ee70621c,A
2019-10-15 03:46:08,0b7e3674-2d84-4863-bf95-b49dac7d3954,A
2019-10-15 03:48:58,0b7e3674-2d84-4863-bf95-b49dac7d3954,S
2019-10-15 03:54:05,0b7e3674-2d84-4863-bf95-b49dac7d3954,A
2019-10-15 04:09:33,0b7e3674-2d84-4863-bf95-b49dac7d3954,S
2019-10-15 04:18:35,0b7e3674-2d84-4863-bf95-b49dac7d3954,A
2019-10-15 04:28:19,0b7e3674-2d84-4863-bf95-b49dac7d3954,S
2019-10-15 04:36:49,0b7e3674-2d84-4863-bf95-b49dac7d3954,A
2019-10-15 04:37:35,0b7e3674-2d84-4863-bf95-b49dac7d3954,S
2019-10-15 04:37:54,0b7e3674-2d84-4863-bf95-b49dac7d3954,A
2019-10-15 04:46:32,0b7e3674-2d84-4863-bf95-b49dac7d3954,S
2019-10-15 04:49:31,0b7e3674-2d84-4863-bf95-b49dac7d3954,A
2019-10-15 04:49:34,0b7e3674-2d84-4863-bf95-b49dac7d3954,S
2019-10-15 04:50:45,0b7e3674-2d84-4863-bf95-b49dac7d3954,A
2019-10-15 04:52:35,0b7e3674-2d84-4863-bf95-b49dac7d3954,S
2019-10-15 04:54:26,0b7e3674-2d84-4863-bf95-b49dac7d3954,A
2019-10-15 04:55:25,0b7e3674-2d84-4863-bf95-b49dac7d3954,S
2019-10-15 04:57:08,0b7e3674-2d84-4863-bf95-b49dac7d3954,A
2019-10-15 05:06:23,0b7e3674-2d84-4863-bf95-b49dac7d3954,S
2019-10-15 05:08:30,0b7e3674-2d84-4863-bf95-b49dac7d3954,A
2019-10-15 05:09:29,0b7e3674-2d84-4863-bf95-b49dac7d3954,S
2019-10-15 05:11:56,0b7e3674-2d84-4863-bf95-b49dac7d3954,A
2019-10-15 05:20:41,0b7e3674-2d84-4863-bf95-b49dac7d3954,S
2019-10-15 05:22:58,0b7e3674-2d84-4863-bf95-b49dac7d3954,A
2019-10-15 05:27:51,0b7e3674-2d84-4863-bf95-b49dac7d3954,S
2019-10-15 05:27:58,0b7e3674-2d84-4863-bf95-b49dac7d3954,A
2019-10-15 05:28:37,0b7e3674-2d84-4863-bf95-b49dac7d3954,S
2019-10-15 05:32:06,0b7e3674-2d84-4863-bf95-b49dac7d3954,A
2019-10-15 05:33:32,0b7e3674-2d84-4863-bf95-b49dac7d3954,S
2019-10-15 05:39:12,0b7e3674-2d84-4863-bf95-b49dac7d3954,A
2019-10-15 05:39:40,0b7e3674-2d84-4863-bf95-b49dac7d3954,S
2019-10-15 03:59:55,63008f8c-b4e5-4e65-b35d-ab101e386abc,S
2019-10-15 04:05:11,63008f8c-b4e5-4e65-b35d-ab101e386abc,A
2019-10-15 04:11:54,63008f8c-b4e5-4e65-b35d-ab101e386abc,S
2019-10-15 04:16:54,63008f8c-b4e5-4e65-b35d-ab101e386abc,A
2019-10-15 04:17:50,63008f8c-b4e5-4e65-b35d-ab101e386abc,S
2019-10-15 04:24:37,63008f8c-b4e5-4e65-b35d-ab101e386abc,A
2019-10-15 04:26:52,63008f8c-b4e5-4e65-b35d-ab101e386abc,S
2019-10-15 04:32:58,63008f8c-b4e5-4e65-b35d-ab101e386abc,A
2019-10-15 04:33:00,63008f8c-b4e5-4e65-b35d-ab101e386abc,S
2019-10-15 04:33:44,63008f8c-b4e5-4e65-b35d-ab101e386abc,A
2019-10-15 04:37:37,63008f8c-b4e5-4e65-b35d-ab101e386abc,S
2019-10-15 04:43:14,63008f8c-b4e5-4e65-b35d-ab101e386abc,A
2019-10-15 04:45:15,63008f8c-b4e5-4e65-b35d-ab101e386abc,S
2019-10-15 04:48:28,63008f8c-b4e5-4e65-b35d-ab101e386abc,A
2019-10-15 04:51:19,63008f8c-b4e5-4e65-b35d-ab101e386abc,S
2019-10-15 04:54:34,63008f8c-b4e5-4e65-b35d-ab101e386abc,A
2019-10-15 04:06:43,1de254ce-ad5e-43d2-bd05-a3d10d64bac2,A
2019-10-15 04:10:12,1de254ce-ad5e-43d2-bd05-a3d10d64bac2,S
2019-10-15 04:12:28,1de254ce-ad5e-43d2-bd05-a3d10d64bac2,A
2019-10-15 04:14:29,1de254ce-ad5e-43d2-bd05-a3d10d64bac2,S
2019-10-15 04:15:04,1de254ce-ad5e-43d2-bd05-a3d10d64bac2,A
2019-10-15 04:17:39,1de254ce-ad5e-43d2-bd05-a3d10d64bac2,S
2019-10-15 04:24:30,1de254ce-ad5e-43d2-bd05-a3d10d64bac2,A
2019-10-15 04:25:58,1de254ce-ad5e-43d2-bd05-a3d10d64bac2,S
2019-10-15 04:36:14,1de254ce-ad5e-43d2-bd05-a3d10d64bac2,A
2019-10-15 05:15:19,1de254ce-ad5e-43d2-bd05-a3d10d64bac2,S
2019-10-15 05:25:13,1de254ce-ad5e-43d2-bd05-a3d10d64bac2,A
2019-10-15 05:25:17,1de254ce-ad5e-43d2-bd05-a3d10d64bac2,S
2019-10-15 05:25:59,1de254ce-ad5e-43d2-bd05-a3d10d64bac2,A
2019-10-15 05:29:03,1de254ce-ad5e-43d2-bd05-a3d10d64bac2,S
2019-10-15 05:30:25,1de254ce-ad5e-43d2-bd05-a3d10d64bac2,A
2019-10-15 05:31:45,1de254ce-ad5e-43d2-bd05-a3d10d64bac2,S
2019-10-15 05:35:55,1de254ce-ad5e-43d2-bd05-a3d10d64bac2,A
2019-10-15 05:37:29,1de254ce-ad5e-43d2-bd05-a3d10d64bac2,S
2019-10-15 05:37:35,1de254ce-ad5e-43d2-bd05-a3d10d64bac2,A
2019-10-15 03:36:07,8e0d7829-ae8d-4a30-be6b-f563c852c5fd,S
2019-10-15 03:37:39,8e0d7829-ae8d-4a30-be6b-f563c852c5fd,A
2019-10-15 03:38:28,8e0d7829-ae8d-4a30-be6b-f563c852c5fd,S
2019-10-15 03:38:34,8e0d7829-ae8d-4a30-be6b-f563c852c5fd,A
2019-10-15 03:38:40,8e0d7829-ae8d-4a30-be6b-f563c852c5fd,S
2019-10-15 03:39:04,8e0d7829-ae8d-4a30-be6b-f563c852c5fd,A
2019-10-15 03:43:49,8e0d7829-ae8d-4a30-be6b-f563c852c5fd,S
2019-10-15 03:47:57,8e0d7829-ae8d-4a30-be6b-f563c852c5fd,A
2019-10-15 03:49:46,8e0d7829-ae8d-4a30-be6b-f563c852c5fd,S
2019-10-15 03:51:59,8e0d7829-ae8d-4a30-be6b-f563c852c5fd,A
2019-10-15 04:02:37,8e0d7829-ae8d-4a30-be6b-f563c852c5fd,S
2019-10-15 04:04:40,8e0d7829-ae8d-4a30-be6b-f563c852c5fd,A
2019-10-15 04:13:48,8e0d7829-ae8d-4a30-be6b-f563c852c5fd,S
2019-10-15 04:16:24,8e0d7829-ae8d-4a30-be6b-f563c852c5fd,A
2019-10-15 04:25:00,8e0d7829-ae8d-4a30-be6b-f563c852c5fd,S
2019-10-15 04:27:02,8e0d7829-ae8d-4a30-be6b-f563c852c5fd,A
2019-10-15 04:28:50,8e0d7829-ae8d-4a30-be6b-f563c852c5fd,S
2019-10-15 04:31:54,8e0d7829-ae8d-4a30-be6b-f563c852c5fd,A
2019-10-15 04:32:01,8e0d7829-ae8d-4a30-be6b-f563c852c5fd,S
2019-10-15 04:44:05,8e0d7829-ae8d-4a30-be6b-f563c852c5fd,A
2019-10-15 04:47:43,8e0d7829-ae8d-4a30-be6b-f563c852c5fd,S
2019-10-15 04:59:27,8e0d7829-ae8d-4a30-be6b-f563c852c5fd,A
2019-10-15 05:00:12,8e0d7829-ae8d-4a30-be6b-f563c852c5fd,S
2019-10-15 05:07:05,8e0d7829-ae8d-4a30-be6b-f563c852c5fd,A
2019-10-15 05:08:25,8e0d7829-ae8d-4a30-be6b-f563c852c5fd,S
2019-10-15 05:10:52,8e0d7829-ae8d-4a30-be6b-f563c852c5fd,A
2019-10-15 05:19:17,8e0d7829-ae8d-4a30-be6b-f563c852c5fd,S
2019-10-15 05:27:27,8e0d7829-ae8d-4a30-be6b-f563c852c5fd,A
2019-10-15 05:37:36,8e0d7829-ae8d-4a30-be6b-f563c852c5fd,S
2019-10-15 05:39:34,8e0d7829-ae8d-4a30-be6b-f563c852c5fd,A
2019-10-15 03:33:47,acc58797-6d6a-4253-9418-0f88ba9e4eb8,S
2019-10-15 03:37:50,acc58797-6d6a-4253-9418-0f88ba9e4eb8,A
2019-10-15 03:38:40,acc58797-6d6a-4253-9418-0f88ba9e4eb8,S
2019-10-15 03:43:53,acc58797-6d6a-4253-9418-0f88ba9e4eb8,A
2019-10-15 03:48:46,acc58797-6d6a-4253-9418-0f88ba9e4eb8,S
2019-10-15 03:53:44,acc58797-6d6a-4253-9418-0f88ba9e4eb8,A
2019-10-15 03:56:19,acc58797-6d6a-4253-9418-0f88ba9e4eb8,S
2019-10-15 03:57:05,acc58797-6d6a-4253-9418-0f88ba9e4eb8,A
2019-10-15 04:07:41,acc58797-6d6a-4253-9418-0f88ba9e4eb8,S
2019-10-15 04:08:05,acc58797-6d6a-4253-9418-0f88ba9e4eb8,A
2019-10-15 04:15:43,acc58797-6d6a-4253-9418-0f88ba9e4eb8,S
2019-10-15 04:21:03,acc58797-6d6a-4253-9418-0f88ba9e4eb8,A
2019-10-15 04:21:29,acc58797-6d6a-4253-9418-0f88ba9e4eb8,S
2019-10-15 04:27:55,acc58797-6d6a-4253-9418-0f88ba9e4eb8,A
2019-10-15 04:29:59,acc58797-6d6a-4253-9418-0f88ba9e4eb8,S
2019-10-15 04:30:12,acc58797-6d6a-4253-9418-0f88ba9e4eb8,A
2019-10-15 04:35:15,acc58797-6d6a-4253-9418-0f88ba9e4eb8,S
2019-10-15 04:35:56,acc58797-6d6a-4253-9418-0f88ba9e4eb8,A
2019-10-15 04:53:03,acc58797-6d6a-4253-9418-0f88ba9e4eb8,S
2019-10-15 04:55:19,acc58797-6d6a-4253-9418-0f88ba9e4eb8,A
2019-10-15 04:55:39,acc58797-6d6a-4253-9418-0f88ba9e4eb8,S
2019-10-15 04:59:05,acc58797-6d6a-4253-9418-0f88ba9e4eb8,A
2019-10-15 04:59:16,acc58797-6d6a-4253-9418-0f88ba9e4eb8,S
2019-10-15 05:06:17,acc58797-6d6a-4253-9418-0f88ba9e4eb8,A
2019-10-15 05:12:05,acc58797-6d6a-4253-9418-0f88ba9e4eb8,S
2019-10-15 05:32:48,acc58797-6d6a-4253-9418-0f88ba9e4eb8,A
2019-10-15 05:34:04,acc58797-6d6a-4253-9418-0f88ba9e4eb8,S
2019-10-15 03:44:08,a4af2939-5a39-42f1-83e1-30be0e1a6894,S
2019-10-15 03:50:20,a4af2939-5a39-42f1-83e1-30be0e1a6894,A
2019-10-15 03:54:44,a4af2939-5a39-42f1-83e1-30be0e1a6894,S
2019-10-15 04:05:16,a4af2939-5a39-42f1-83e1-30be0e1a6894,A
2019-10-15 04:05:36,a4af2939-5a39-42f1-83e1-30be0e1a6894,S
2019-10-15 04:11:04,a4af2939-5a39-42f1-83e1-30be0e1a6894,A
2019-10-15 04:11:39,a4af2939-5a39-42f1-83e1-30be0e1a6894,S
2019-10-15 04:12:16,a4af2939-5a39-42f1-83e1-30be0e1a6894,A
2019-10-15 04:14:48,a4af2939-5a39-42f1-83e1-30be0e1a6894,S
2019-10-15 04:15:08,a4af2939-5a39-42f1-83e1-30be0e1a6894,A
2019-10-15 04:15:59,a4af2939-5a39-42f1-83e1-30be0e1a6894,S
2019-10-15 04:31:32,a4af2939-5a39-42f1-83e1-30be0e1a6894,A
2019-10-15 04:32:51,a4af2939-5a39-42f1-83e1-30be0e1a6894,S
2019-10-15 04:35:59,a4af2939-5a39-42f1-83e1-30be0e1a6894,A
2019-10-15 04:47:53,a4af2939-5a39-42f1-83e1-30be0e1a6894,S
2019-10-15 04:49:20,a4af2939-5a39-42f1-83e1-30be0e1a6894,A
2019-10-15 04:50:29,a4af2939-5a39-42f1-83e1-30be0e1a6894,S
2019-10-15 04:51:20,a4af2939-5a39-42f1-83e1-30be0e1a6894,A
2019-10-15 04:51:43,a4af2939-5a39-42f1-83e1-30be0e1a6894,S
2019-10-15 04:58:13,a4af2939-5a39-42f1-83e1-30be0e1a6894,A
2019-10-15 05:28:52,a4af2939-5a39-42f1-83e1-30be0e1a6894,S
2019-10-15 05:32:38,a4af2939-5a39-42f1-83e1-30be0e1a6894,A
2019-10-15 05:41:20,a4af2939-5a39-42f1-83e1-30be0e1a6894,S
2019-10-15 04:00:14,399c4ea9-1202-4ab0-a12c-c4537f98a37b,S
2019-10-15 04:04:32,399c4ea9-1202-4ab0-a12c-c4537f98a37b,A
2019-10-15 04:18:15,399c4ea9-1202-4ab0-a12c-c4537f98a37b,S
2019-10-15 04:18:39,399c4ea9-1202-4ab0-a12c-c4537f98a37b,A
2019-10-15 04:23:15,399c4ea9-1202-4ab0-a12c-c4537f98a37b,S
2019-10-15 04:26:34,399c4ea9-1202-4ab0-a12c-c4537f98a37b,A
2019-10-15 04:29:40,399c4ea9-1202-4ab0-a12c-c4537f98a37b,S
2019-10-15 04:34:12,399c4ea9-1202-4ab0-a12c-c4537f98a37b,A
2019-10-15 04:37:25,399c4ea9-1202-4ab0-a12c-c4537f98a37b,S
2019-10-15 04:41:02,399c4ea9-1202-4ab0-a12c-c4537f98a37b,A
2019-10-15 04:56:53,399c4ea9-1202-4ab0-a12c-c4537f98a37b,S
2019-10-15 05:01:10,399c4ea9-1202-4ab0-a12c-c4537f98a37b,A
2019-10-15 05:01:32,399c4ea9-1202-4ab0-a12c-c4537f98a37b,S
2019-10-15 05:06:38,399c4ea9-1202-4ab0-a12c-c4537f98a37b,A
2019-10-15 05:13:57,399c4ea9-1202-4ab0-a12c-c4537f98a37b,S
2019-10-15 05:27:04,399c4ea9-1202-4ab0-a12c-c4537f98a37b,A
2019-10-15 05:28:05,399c4ea9-1202-4ab0-a12c-c4537f98a37b,S
2019-10-15 03:41:42,c2c3559f-02c7-4293-bbd0-ad37d1e2da1b,S
2019-10-15 03:46:39,c2c3559f-02c7-4293-bbd0-ad37d1e2da1b,A
2019-10-15 03:47:01,c2c3559f-02c7-4293-bbd0-ad37d1e2da1b,S
2019-10-15 03:51:45,c2c3559f-02c7-4293-bbd0-ad37d1e2da1b,A
2019-10-15 03:56:43,c2c3559f-02c7-4293-bbd0-ad37d1e2da1b,S
2019-10-15 03:58:45,c2c3559f-02c7-4293-bbd0-ad37d1e2da1b,A
2019-10-15 04:08:49,c2c3559f-02c7-4293-bbd0-ad37d1e2da1b,S
2019-10-15 04:11:31,c2c3559f-02c7-4293-bbd0-ad37d1e2da1b,A
2019-10-15 04:12:26,c2c3559f-02c7-4293-bbd0-ad37d1e2da1b,S
2019-10-15 04:20:27,c2c3559f-02c7-4293-bbd0-ad37d1e2da1b,A
2019-10-15 04:29:15,c2c3559f-02c7-4293-bbd0-ad37d1e2da1b,S
2019-10-15 04:31:25,c2c3559f-02c7-4293-bbd0-ad37d1e2da1b,A
2019-10-15 04:31:35,c2c3559f-02c7-4293-bbd0-ad37d1e2da1b,S
2019-10-15 04:50:52,c2c3559f-02c7-4293-bbd0-ad37d1e2da1b,A
2019-10-15 04:53:05,c2c3559f-02c7-4293-bbd0-ad37d1e2da1b,S
2019-10-15 05:10:40,c2c3559f-02c7-4293-bbd0-ad37d1e2da1b,A
2019-10-15 05:20:51,c2c3559f-02c7-4293-bbd0-ad37d1e2da1b,S
2019-10-15 05:36:42,c2c3559f-02c7-4293-bbd0-ad37d1e2da1b,A
2019-10-15 05:37:55,c2c3559f-02c7-4293-bbd0-ad37d1e2da1b,S
2019-10-15 04:12:22,5b43b18a-9115-486e-94e6-d5e2b382377f,A
2019-10-15 04:14:13,5b43b18a-9115-486e-94e6-d5e2b382377f,S
2019-10-15 04:23:41,5b43b18a-9115-486e-94e6-d5e2b382377f,A
2019-10-15 04:37:49,5b43b18a-9115-486e-94e6-d5e2b382377f,S
2019-10-15 04:39:24,5b43b18a-9115-486e-94e6-d5e2b382377f,A
2019-10-15 04:40:59,5b43b18a-9115-486e-94e6-d5e2b382377f,S
2019-10-15 04:42:52,5b43b18a-9115-486e-94e6-d5e2b382377f,A
2019-10-15 04:49:19,5b43b18a-9115-486e-94e6-d5e2b382377f,S
2019-10-15 04:54:13,5b43b18a-9115-486e-94e6-d5e2b382377f,A
2019-10-15 05:01:47,5b43b18a-9115-486e-94e6-d5e2b382377f,S
2019-10-15 05:01:47,5b43b18a-9115-486e-94e6-d5e2b382377f,A
2019-10-15 05:02:07,5b43b18a-9115-486e-94e6-d5e2b382377f,S
2019-10-15 05:04:27,5b43b18a-9115-486e-94e6-d5e2b382377f,A
2019-10-15 05:07:38,5b43b18a-9115-486e-94e6-d5e2b382377f,S
2019-10-15 05:08:24,5b43b18a-9115-486e-94e6-d5e2b382377f,A
2019-10-15 05:19:25,5b43b18a-9115-486e-94e6-d5e2b382377f,S
2019-10-15 05:20:13,5b43b18a-9115-486e-94e6-d5e2b382377f,A
2019-10-15 05:20:39,5b43b18a-9115-486e-94e6-d5e2b382377f,S
2019-10-15 05:22:52,5b43b18a-9115-486e-94e6-d5e2b382377f,A
2019-10-15 05:25:06,5b43b18a-9115-486e-94e6-d5e2b382377f,S
2019-10-15 05:25:24,5b43b18a-9115-486e-94e6-d5e2b382377f,A
2019-10-15 05:34:50,5b43b18a-9115-486e-94e6-d5e2b382377f,S
2019-10-15 05:39:33,5b43b18a-9115-486e-94e6-d5e2b382377f,A
2019-10-15 05:41:17,5b43b18a-9115-486e-94e6-d5e2b382377f,S
2019-10-15 05:42:27,5b43b18a-9115-486e-94e6-d5e2b382377f,A
2019-10-15 03:35:48,0af6c293-f34d-428e-943c-6e79bf298527,A
2019-10-15 03:39:16,0af6c293-f34d-428e-943c-6e79bf298527,S
2019-10-15 03:47:49,0af6c293-f34d-428e-943c-6e79bf298527,A
2019-10-15 03:50:52,0af6c293-f34d-428e-943c-6e79bf298527,S
2019-10-15 03:51:09,0af6c293-f34d-428e-943c-6e79bf298527,A
2019-10-15 03:53:38,0af6c293-f34d-428e-943c-6e79bf298527,S
2019-10-15 03:58:57,0af6c293-f34d-428e-943c-6e79bf298527,A
2019-10-15 04:02:53,0af6c293-f34d-428e-943c-6e79bf298527,S
2019-10-15 04:05:37,0af6c293-f34d-428e-943c-6e79bf298527,A
2019-10-15 04:16:25,0af6c293-f34d-428e-943c-6e79bf298527,S
2019-10-15 04:22:03,0af6c293-f34d-428e-943c-6e79bf298527,A
2019-10-15 04:44:37,0af6c293-f34d-428e-943c-6e79bf298527,S
2019-10-15 05:08:58,0af6c293-f34d-428e-943c-6e79bf298527,A
2019-10-15 05:15:32,0af6c293-f34d-428e-943c-6e79bf298527,S
2019-10-15 05:18:58,0af6c293-f34d-428e-943c-6e79bf298527,A
2019-10-15 05:21:53,0af6c293-f34d-428e-943c-6e79bf298527,S
2019-10-15 05:26:38,0af6c293-f34d-428e-943c-6e79bf298527,A
2019-10-15 05:39:42,0af6c293-f34d-428e-943c-6e79bf298527,S
2019-10-15 05:41:14,0af6c293-f34d-428e-943c-6e79bf298527,A
2019-10-15 03:29:49,79c13a79-c19b-4c43-92ed-ef9ddd376588,A
2019-10-15 03:34:05,79c13a79-c19b-4c43-92ed-ef9ddd376588,S
2019-10-15 03:36:22,79c13a79-c19b-4c43-92ed-ef9ddd376588,A
2019-10-15 03:44:05,79c13a79-c19b-4c43-92ed-ef9ddd376588,S
2019-10-15 03:53:23,79c13a79-c19b-4c43-92ed-ef9ddd376588,A
2019-10-15 03:57:44,79c13a79-c19b-4c43-92ed-ef9ddd376588,S
2019-10-15 04:02:18,79c13a79-c19b-4c43-92ed-ef9ddd376588,A
2019-10-15 04:17:35,79c13a79-c19b-4c43-92ed-ef9ddd376588,S
2019-10-15 04:22:27,79c13a79-c19b-4c43-92ed-ef9ddd376588,A
2019-10-15 04:35:16,79c13a79-c19b-4c43-92ed-ef9ddd376588,S
2019-10-15 04:35:45,79c13a79-c19b-4c43-92ed-ef9ddd376588,A
2019-10-15 04:42:58,79c13a79-c19b-4c43-92ed-ef9ddd376588,S
2019-10-15 04:50:53,79c13a79-c19b-4c43-92ed-ef9ddd376588,A
2019-10-15 04:52:02,79c13a79-c19b-4c43-92ed-ef9ddd376588,S
2019-10-15 04:53:36,79c13a79-c19b-4c43-92ed-ef9ddd376588,A
2019-10-15 04:54:12,79c13a79-c19b-4c43-92ed-ef9ddd376588,S
2019-10-15 04:55:45,79c13a79-c19b-4c43-92ed-ef9ddd376588,A
2019-10-15 04:56:21,79c13a79-c19b-4c43-92ed-ef9ddd376588,S
2019-10-15 04:56:27,79c13a79-c19b-4c43-92ed-ef9ddd376588,A
2019-10-15 04:56:48,79c13a79-c19b-4c43-92ed-ef9ddd376588,S
2019-10-15 04:57:45,79c13a79-c19b-4c43-92ed-ef9ddd376588,A
2019-10-15 05:05:10,79c13a79-c19b-4c43-92ed-ef9ddd376588,S
2019-10-15 05:17:28,79c13a79-c19b-4c43-92ed-ef9ddd376588,A
2019-10-15 05:18:07,79c13a79-c19b-4c43-92ed-ef9ddd376588,S
2019-10-15 05:36:36,79c13a79-c19b-4c43-92ed-ef9ddd376588,A
2019-10-15 03:33:20,f01051cf-f351-4d0e-ad6c-e0b5bedd2f44,A
2019-10-15 03:49:23,f01051cf-f351-4d0e-ad6c-e0b5bedd2f44,S
2019-10-15 03:52:37,f01051cf-f351-4d0e-ad6c-e0b5bedd2f44,A
2019-10-15 03:55:23,f01051cf-f351-4d0e-ad6c-e0b5bedd2f44,S
2019-10-15 03:55:53,f01051cf-f351-4d0e-ad6c-e0b5bedd2f44,A
2019-10-15 04:09:51,f01051cf-f351-4d0e-ad6c-e0b5bedd2f44,S
2019-10-15 04:13:20,f01051cf-f351-4d0e-ad6c-e0b5bedd2f44,A
2019-10-15 04:16:12,f01051cf-f351-4d0e-ad6c-e0b5bedd2f44,S
2019-10-15 04:20:12,f01051cf-f351-4d0e-ad6c-e0b5bedd2f44,A
2019-10-15 04:33:36,f01051cf-f351-4d0e-ad6c-e0b5bedd2f44,S
2019-10-15 04:33:46,f01051cf-f351-4d0e-ad6c-e0b5bedd2f44,A
2019-10-15 04:42:28,f01051cf-f351-4d0e-ad6c-e0b5bedd2f44,S
2019-10-15 04:46:45,f01051cf-f351-4d0e-ad6c-e0b5bedd2f44,A
2019-10-15 04:53:21,f01051cf-f351-4d0e-ad6c-e0b5bedd2f44,S
2019-10-15 04:55:53,f01051cf-f351-4d0e-ad6c-e0b5bedd2f44,A
2019-10-15 05:07:04,f01051cf-f351-4d0e-ad6c-e0b5bedd2f44,S
2019-10-15 05:08:59,f01051cf-f351-4d0e-ad6c-e0b5bedd2f44,A
2019-10-15 05:09:57,f01051cf-f351-4d0e-ad6c-e0b5bedd2f44,S
2019-10-15 05:12:49,f01051cf-f351-4d0e-ad6c-e0b5bedd2f44,A
2019-10-15 05:18:47,f01051cf-f351-4d0e-ad6c-e0b5bedd2f44,S
2019-10-15 05:27:36,f01051cf-f351-4d0e-ad6c-e0b5bedd2f44,A
2019-10-15 05:30:38,f01051cf-f351-4d0e-ad6c-e0b5bedd2f44,S
2019-10-15 05:32:29,f01051cf-f351-4d0e-ad6c-e0b5bedd2f44,A
2019-10-15 05:34:39,f01051cf-f351-4d0e-ad6c-e0b5bedd2f44,S
2019-10-15 04:11:25,d97815d7-1f0c-4996-96df-9a8c05d6560b,A
2019-10-15 04:18:39,d97815d7-1f0c-4996-96df-9a8c05d6560b,S
2019-10-15 04:20:34,d97815d7-1f0c-4996-96df-9a8c05d6560b,A
2019-10-15 04:25:24,d97815d7-1f0c-4996-96df-9a8c05d6560b,S
2019-10-15 04:32:39,d97815d7-1f0c-4996-96df-9a8c05d6560b,A
2019-10-15 04:07:06,d3a1dbab-2e1a-4cca-98cf-033709cc8af5,A
2019-10-15 04:07:35,d3a1dbab-2e1a-4cca-98cf-033709cc8af5,S
2019-10-15 04:16:05,d3a1dbab-2e1a-4cca-98cf-033709cc8af5,A
2019-10-15 04:17:24,d3a1dbab-2e1a-4cca-98cf-033709cc8af5,S
2019-10-15 04:26:01,d3a1dbab-2e1a-4cca-98cf-033709cc8af5,S
2019-10-15 04:27:15,d3a1dbab-2e1a-4cca-98cf-033709cc8af5,A
2019-10-15 04:28:05,d3a1dbab-2e1a-4cca-98cf-033709cc8af5,S
2019-10-15 04:31:52,d3a1dbab-2e1a-4cca-98cf-033709cc8af5,A
2019-10-15 04:32:59,d3a1dbab-2e1a-4cca-98cf-033709cc8af5,S
2019-10-15 04:33:11,d3a1dbab-2e1a-4cca-98cf-033709cc8af5,A
2019-10-15 04:38:44,d3a1dbab-2e1a-4cca-98cf-033709cc8af5,S
2019-10-15 04:44:03,d3a1dbab-2e1a-4cca-98cf-033709cc8af5,A
2019-10-15 04:56:18,d3a1dbab-2e1a-4cca-98cf-033709cc8af5,S
2019-10-15 04:56:34,d3a1dbab-2e1a-4cca-98cf-033709cc8af5,A
2019-10-15 05:00:44,d3a1dbab-2e1a-4cca-98cf-033709cc8af5,S
2019-10-15 05:10:20,d3a1dbab-2e1a-4cca-98cf-033709cc8af5,A
2019-10-15 05:22:25,d3a1dbab-2e1a-4cca-98cf-033709cc8af5,S
2019-10-15 05:25:55,d3a1dbab-2e1a-4cca-98cf-033709cc8af5,A
2019-10-15 05:30:18,d3a1dbab-2e1a-4cca-98cf-033709cc8af5,S
2019-10-15 05:31:42,d3a1dbab-2e1a-4cca-98cf-033709cc8af5,A
2019-10-15 05:32:18,d3a1dbab-2e1a-4cca-98cf-033709cc8af5,S
2019-10-15 05:39:18,d3a1dbab-2e1a-4cca-98cf-033709cc8af5,A
2019-10-15 05:40:46,d3a1dbab-2e1a-4cca-98cf-033709cc8af5,S
2019-10-15 05:41:18,d3a1dbab-2e1a-4cca-98cf-033709cc8af5,A
2019-10-15 04:18:01,189bd4a9-5171-4b81-abee-38be676fdb0a,S
2019-10-15 04:20:12,189bd4a9-5171-4b81-abee-38be676fdb0a,A
2019-10-15 04:22:58,189bd4a9-5171-4b81-abee-38be676fdb0a,S
2019-10-15 04:39:54,189bd4a9-5171-4b81-abee-38be676fdb0a,A
2019-10-15 04:41:36,189bd4a9-5171-4b81-abee-38be676fdb0a,S
2019-10-15 04:42:41,189bd4a9-5171-4b81-abee-38be676fdb0a,A
2019-10-15 04:47:55,189bd4a9-5171-4b81-abee-38be676fdb0a,S
2019-10-15 04:56:33,189bd4a9-5171-4b81-abee-38be676fdb0a,A
2019-10-15 04:58:31,189bd4a9-5171-4b81-abee-38be676fdb0a,S
2019-10-15 05:06:06,189bd4a9-5171-4b81-abee-38be676fdb0a,A
2019-10-15 05:06:55,189bd4a9-5171-4b81-abee-38be676fdb0a,S
2019-10-15 05:18:42,189bd4a9-5171-4b81-abee-38be676fdb0a,A
2019-10-15 05:26:34,189bd4a9-5171-4b81-abee-38be676fdb0a,S
2019-10-15 05:28:12,189bd4a9-5171-4b81-abee-38be676fdb0a,A
2019-10-15 05:32:02,189bd4a9-5171-4b81-abee-38be676fdb0a,S
2019-10-15 05:34:20,189bd4a9-5171-4b81-abee-38be676fdb0a,A
2019-10-15 04:19:15,9d163a01-53d1-415a-9d90-fcc92cccccc4,S
2019-10-15 04:20:04,9d163a01-53d1-415a-9d90-fcc92cccccc4,A
2019-10-15 04:32:39,9d163a01-53d1-415a-9d90-fcc92cccccc4,S
2019-10-15 04:33:46,9d163a01-53d1-415a-9d90-fcc92cccccc4,A
2019-10-15 04:35:51,9d163a01-53d1-415a-9d90-fcc92cccccc4,S
2019-10-15 05:00:43,9d163a01-53d1-415a-9d90-fcc92cccccc4,A
2019-10-15 05:12:34,9d163a01-53d1-415a-9d90-fcc92cccccc4,S
2019-10-15 05:16:55,9d163a01-53d1-415a-9d90-fcc92cccccc4,A
2019-10-15 05:16:56,9d163a01-53d1-415a-9d90-fcc92cccccc4,S
2019-10-15 05:21:05,9d163a01-53d1-415a-9d90-fcc92cccccc4,A
2019-10-15 05:25:17,9d163a01-53d1-415a-9d90-fcc92cccccc4,S
2019-10-15 05:34:39,9d163a01-53d1-415a-9d90-fcc92cccccc4,A
2019-10-15 05:39:49,9d163a01-53d1-415a-9d90-fcc92cccccc4,S
2019-10-15 04:06:43,4b24ec39-c493-4699-8396-e96e83bcabb4,A
2019-10-15 04:07:23,4b24ec39-c493-4699-8396-e96e83bcabb4,S
2019-10-15 04:08:58,4b24ec39-c493-4699-8396-e96e83bcabb4,A
2019-10-15 04:23:11,4b24ec39-c493-4699-8396-e96e83bcabb4,S
2019-10-15 04:25:17,4b24ec39-c493-4699-8396-e96e83bcabb4,A
2019-10-15 04:27:44,4b24ec39-c493-4699-8396-e96e83bcabb4,S
2019-10-15 04:35:22,4b24ec39-c493-4699-8396-e96e83bcabb4,A
2019-10-15 04:39:02,4b24ec39-c493-4699-8396-e96e83bcabb4,S
2019-10-15 04:42:24,4b24ec39-c493-4699-8396-e96e83bcabb4,A
2019-10-15 04:53:14,4b24ec39-c493-4699-8396-e96e83bcabb4,S
2019-10-15 04:53:17,4b24ec39-c493-4699-8396-e96e83bcabb4,A
2019-10-15 05:02:49,4b24ec39-c493-4699-8396-e96e83bcabb4,S
2019-10-15 05:23:17,4b24ec39-c493-4699-8396-e96e83bcabb4,A
2019-10-15 05:30:32,4b24ec39-c493-4699-8396-e96e83bcabb4,S
2019-10-15 05:34:31,4b24ec39-c493-4699-8396-e96e83bcabb4,A
