node,ip,uuid
node-a8-199.grenoble.iot-lab.info,172.20.64.2,faae1a7f-edc0-44e0-a84b-8beae3b99cad
node-a8-200.grenoble.iot-lab.info,172.20.64.3,5ad6da54-5a72-42bb-b261-cefea65d678a
node-a8-201.grenoble.iot-lab.info,172.20.64.4,f626d0ce-8324-4828-9baa-8ae8a3f0f2cb
node-a8-202.grenoble.iot-lab.info,172.20.64.5,292922de-76e2-4696-940e-ffd42a0ddb03
node-a8-204.grenoble.iot-lab.info,172.20.64.6,59e22715-0337-4174-b504-d72cf169d628
node-a8-205.grenoble.iot-lab.info,172.20.64.7,16d5c5f4-65b9-45c2-a17b-513668591842
node-a8-206.grenoble.iot-lab.info,172.20.64.8,5f2580dd-fd7a-4ac1-b8f0-b041fc3f820a
node-a8-207.grenoble.iot-lab.info,172.20.64.9,5c8cc820-c758-42fc-90d2-cc6c10b53236
node-a8-208.grenoble.iot-lab.info,172.20.64.10,a0978ea3-3bd2-45de-88d5-3ca2a24d8a94
node-a8-209.grenoble.iot-lab.info,172.20.64.11,f9ff2330-33f3-48b8-9693-67ef3bcc4b1c
node-a8-210.grenoble.iot-lab.info,172.20.64.12,0a9eb1f2-9f3f-456e-861d-113dd94f2ea6
node-a8-211.grenoble.iot-lab.info,172.20.64.13,083c1662-ecf7-4d38-9757-b799c6708013
node-a8-212.grenoble.iot-lab.info,172.20.64.14,a0bf5c59-0cc9-41da-ba2f-76197b8de548
node-a8-214.grenoble.iot-lab.info,172.20.64.15,cdf0a67d-70c5-47f8-8a36-40b724943349
node-a8-216.grenoble.iot-lab.info,172.20.64.16,269657c9-e810-47bd-a82c-a47eca70bfbd
node-a8-217.grenoble.iot-lab.info,172.20.64.17,ecd2210f-825f-4fa9-9c93-66fc2a4fcf1e
node-a8-218.grenoble.iot-lab.info,172.20.64.18,c0209152-9065-4347-a165-f20f30130ca7
node-a8-219.grenoble.iot-lab.info,172.20.64.19,e4375c85-e872-4669-89cb-a6795269f337
node-a8-220.grenoble.iot-lab.info,172.20.64.20,f84fce9d-048f-4a9d-ab1d-5dffcfd5a18f
node-a8-221.grenoble.iot-lab.info,172.20.64.21,5771d4a2-0f3c-4bbc-b091-1bbd241268eb
node-a8-165.grenoble.iot-lab.info,172.20.64.22,0e293c41-51a3-40b9-8479-8caab105d25b
node-a8-166.grenoble.iot-lab.info,172.20.64.23,034e48f6-08fe-4f64-aba8-9c6c32441803
node-a8-167.grenoble.iot-lab.info,172.20.64.24,901b1d30-d813-41f9-8ab1-1ddc13eeb2f1
node-a8-168.grenoble.iot-lab.info,172.20.64.25,24ff8865-944d-44ab-99a0-2472a5cb3eb8
node-a8-169.grenoble.iot-lab.info,172.20.64.26,d49d8c40-2ae6-46ac-85c5-3aa64b500606
node-a8-170.grenoble.iot-lab.info,172.20.64.27,7f9c4619-e1f4-4e81-944e-b8dc5f04790b
node-a8-171.grenoble.iot-lab.info,172.20.64.28,762c3a6f-3cd7-46a1-bc4b-9cce932bd6d4
node-a8-173.grenoble.iot-lab.info,172.20.64.29,e6085a97-dcf3-43ae-8f83-be9a3eb35c16
node-a8-174.grenoble.iot-lab.info,172.20.64.30,af2cfaa5-f75d-4b37-aa45-b06b6f7e2c6f
node-a8-175.grenoble.iot-lab.info,172.20.64.31,cfe7eaba-bbda-47df-ac5c-12a4d7d7b3dc
node-a8-176.grenoble.iot-lab.info,172.20.64.32,a9ded4ff-937b-4a22-bf5b-e702cfa16f2e
node-a8-177.grenoble.iot-lab.info,172.20.64.33,c1fa9c22-fe0b-49bf-939e-6b150576b5fb
node-a8-179.grenoble.iot-lab.info,172.20.64.34,87e20c75-0d19-47fb-a630-a88c5700606a
node-a8-180.grenoble.iot-lab.info,172.20.64.35,6813651b-50ca-4c88-ae2f-4e21179442bd
node-a8-181.grenoble.iot-lab.info,172.20.64.36,000f3c4d-c60f-4515-acb9-2c88f18b7e96
node-a8-182.grenoble.iot-lab.info,172.20.64.37,1701c593-f974-4e40-9a24-6d02dc6f5c39
node-a8-183.grenoble.iot-lab.info,172.20.64.38,02bc04df-7f85-49e5-8e51-eeacec33dc85
node-a8-184.grenoble.iot-lab.info,172.20.64.39,4694e3f4-508e-4b44-b779-8d594694ee63
node-a8-185.grenoble.iot-lab.info,172.20.64.40,9b701de3-23a4-48ba-a368-23b081972a6e
node-a8-187.grenoble.iot-lab.info,172.20.64.41,deca600a-46d4-4f7c-947b-d4d065be248f
node-a8-188.grenoble.iot-lab.info,172.20.64.42,802bd3b1-78c9-4629-bd30-5a29977aad7e
node-a8-189.grenoble.iot-lab.info,172.20.64.43,0e2a2155-1a41-4e5d-aebf-f26c619fd3d3
node-a8-190.grenoble.iot-lab.info,172.20.64.44,c6077770-7f15-4aec-850a-b292340ebb85
node-a8-191.grenoble.iot-lab.info,172.20.64.45,fc3794a4-cce8-43fa-bc5c-656064ee8945
node-a8-192.grenoble.iot-lab.info,172.20.64.46,dab519df-97c4-45bd-9ffa-478b493cff90
node-a8-193.grenoble.iot-lab.info,172.20.64.47,fe74c2df-53ef-40e7-b6c6-f800b4b33fac
node-a8-194.grenoble.iot-lab.info,172.20.64.48,31ee4de6-16c9-4068-b0ba-65ffb3995447
node-a8-195.grenoble.iot-lab.info,172.20.64.49,5e802872-1907-4eb2-bd31-33577311d0ed
node-a8-197.grenoble.iot-lab.info,172.20.64.50,28c921b8-56e2-4c7f-a529-1f7b664a8cf1
node-a8-198.grenoble.iot-lab.info,172.20.64.51,3272b92c-7aed-404f-95f4-deb52b2a1ba4
suno-11.sophia.grid5000.fr,172.16.130.11,5a31c797-961a-45a4-839c-18af87cdfcd6
suno-14.sophia.grid5000.fr,172.16.130.14,fb605e13-b6e8-4cfd-b92f-8f1798e1e604
suno-15.sophia.grid5000.fr,172.16.130.15,5bd2da1a-b026-41be-843f-eddc25c6ec82
suno-2.sophia.grid5000.fr,172.16.130.2,cfb60f3a-8d3c-4a93-9d66-ce895b8bde53
suno-24.sophia.grid5000.fr,172.16.130.24,dd05ea55-fdbd-4064-9ebc-686baf364b41
suno-25.sophia.grid5000.fr,172.16.130.25,7cc439c1-01c3-4bd9-ac2a-06fe560c3195
suno-27.sophia.grid5000.fr,172.16.130.27,59f27c0c-9538-432d-98b5-34ed0423ba3a
suno-28.sophia.grid5000.fr,172.16.130.28,dc222148-80bc-45ea-86c5-b0b98d489ebf
suno-30.sophia.grid5000.fr,172.16.130.30,1ced4ed7-db3e-46f7-8c70-81bb1e2d4ba6
suno-32.sophia.grid5000.fr,172.16.130.32,0a062320-9f1e-4c0b-b4f7-084ee38a0526
suno-33.sophia.grid5000.fr,172.16.130.33,95dcb39f-fb85-424f-a121-e182125c9fc8
suno-36.sophia.grid5000.fr,172.16.130.36,5d8fa5e3-4821-47ca-8696-ef2bd03cd3b8
suno-37.sophia.grid5000.fr,172.16.130.37,a7cd43d7-2a69-43ad-a358-7b198165ab0a
suno-43.sophia.grid5000.fr,172.16.130.43,0633f749-3ff3-4d1b-be18-1cfccd433424
suno-44.sophia.grid5000.fr,172.16.130.44,a3e892fe-90c7-4599-baf4-7254ba28d9c4
suno-8.sophia.grid5000.fr,172.16.130.8,e24f9699-1a7e-415b-957c-78d974ad9b16
