date,actor,success,from,to
2020-02-09 05:22:18,5061fdb5-fe2d-406d-8b6c-3f703ba4adfc,1,f1681225-f770-44da-b09d-6b0c33eaaa73,b5cc0486-fb0e-4dfe-a5da-b68af27d71f5
2020-02-09 05:22:18,11158066-3e36-40cb-8b19-75ecff785b4d,1,f1681225-f770-44da-b09d-6b0c33eaaa73,b5cc0486-fb0e-4dfe-a5da-b68af27d71f5
2020-02-09 05:22:18,8389f005-ce9a-4293-bb28-edd04b950e85,1,f1681225-f770-44da-b09d-6b0c33eaaa73,629721b6-dab2-48f3-9d97-e3d329e2e1a3
2020-02-09 05:23:21,89852766-1751-44da-8fbb-6f3efe661e26,1,f1681225-f770-44da-b09d-6b0c33eaaa73,1146d6d4-aeab-40c6-bd3d-84d022d343eb
2020-02-09 05:23:21,001c12bb-c627-42cb-bb8c-0b4848e13004,1,f1681225-f770-44da-b09d-6b0c33eaaa73,546a9dc4-82df-4d23-9410-c713026985c7
2020-02-09 05:23:21,5dfbb1c1-6470-435a-bc69-89a2c69de608,1,f1681225-f770-44da-b09d-6b0c33eaaa73,546a9dc4-82df-4d23-9410-c713026985c7
2020-02-09 05:24:24,eee88462-b23a-471c-b05e-1032b21c9ea8,1,f1681225-f770-44da-b09d-6b0c33eaaa73,f6795636-9450-458f-bfbd-9bdb0f08af76
2020-02-09 05:24:24,422e8404-4116-4a67-9e0c-9e03135de39c,1,f1681225-f770-44da-b09d-6b0c33eaaa73,f6795636-9450-458f-bfbd-9bdb0f08af76
2020-02-09 05:24:24,82264ea7-6808-4a48-b8b7-292df5c298b2,1,f1681225-f770-44da-b09d-6b0c33eaaa73,11d19c5d-bcd5-4eda-b4c2-7e4a80e108cc
2020-02-09 05:25:27,7bbbb316-caa7-43a5-b43b-ae84cce5aa6b,1,f1681225-f770-44da-b09d-6b0c33eaaa73,8ac48064-08f8-4d76-81b5-508e0872f0bc
2020-02-09 05:25:27,fca7cd97-4079-4733-a454-300c21fbbe4a,1,f1681225-f770-44da-b09d-6b0c33eaaa73,aeb3337e-f6b6-4731-8607-c56c9f3f2875
2020-02-09 05:25:27,acf6eff9-1594-4a6d-9bcd-7d9705ef525d,1,f1681225-f770-44da-b09d-6b0c33eaaa73,8ac48064-08f8-4d76-81b5-508e0872f0bc
2020-02-09 05:26:30,719183ce-cf46-4e3f-8c46-7f68fe9760e0,1,f1681225-f770-44da-b09d-6b0c33eaaa73,2e3bea00-6c69-4be4-8df5-aaced22bacd1
2020-02-09 05:26:30,0293a51d-672c-41f8-bd6d-42e159e6d841,1,f1681225-f770-44da-b09d-6b0c33eaaa73,ab4084e0-9baf-4df9-ba13-f7daab60f86f
2020-02-09 05:26:30,553c70ca-3cae-418f-b00a-4d1deab80679,1,f1681225-f770-44da-b09d-6b0c33eaaa73,ab4084e0-9baf-4df9-ba13-f7daab60f86f
2020-02-09 05:27:33,bafd18bf-5f3a-451b-99e7-6aaaa9b151a6,1,f1681225-f770-44da-b09d-6b0c33eaaa73,60d65b73-301b-48cd-81ed-26eabd166d40
2020-02-09 05:27:33,863fc0a7-c76f-46c3-a53f-1fcc7d91ac22,1,f1681225-f770-44da-b09d-6b0c33eaaa73,7143f9cb-42a1-4303-abc6-f068338bc857
2020-02-09 05:27:33,1bd17ded-2eb1-4360-a736-a5d89ad2b332,1,f1681225-f770-44da-b09d-6b0c33eaaa73,60d65b73-301b-48cd-81ed-26eabd166d40
2020-02-09 05:28:36,2e26ba94-4cdd-4189-858c-e4b4799f40bb,1,f1681225-f770-44da-b09d-6b0c33eaaa73,4519f1db-56d2-47d8-9774-084aff0e65a4
2020-02-09 05:28:36,312e3084-eea0-4eb6-b0a8-725010ffb189,1,f1681225-f770-44da-b09d-6b0c33eaaa73,be1125e5-7d19-406e-a8fe-c92a8f57c87b
2020-02-09 05:28:36,422e6387-625e-4914-8f0a-945630f0a0e4,1,f1681225-f770-44da-b09d-6b0c33eaaa73,be1125e5-7d19-406e-a8fe-c92a8f57c87b
2020-02-09 05:29:39,587ad2a4-a377-4dab-b0ad-6eedbb740f9f,1,f1681225-f770-44da-b09d-6b0c33eaaa73,df9f9bce-d567-425b-ba14-530d45275183
2020-02-09 05:29:39,15691f59-e449-4e30-9eb0-4df33592037f,1,f1681225-f770-44da-b09d-6b0c33eaaa73,df9f9bce-d567-425b-ba14-530d45275183
2020-02-09 05:29:39,f62b0519-4215-48ee-bbb7-95ba8bb214a3,1,f1681225-f770-44da-b09d-6b0c33eaaa73,c3a483ea-4545-418c-a5c9-c93bad726ee9
2020-02-09 05:30:41,5fff1660-6281-463f-9639-9d825270dceb,1,f1681225-f770-44da-b09d-6b0c33eaaa73,2c0935a4-c50d-4bf7-8228-8729816c9e59
2020-02-09 05:30:42,5ec051a5-375a-459c-92d5-a0ef3046fab2,1,f1681225-f770-44da-b09d-6b0c33eaaa73,2c0935a4-c50d-4bf7-8228-8729816c9e59
2020-02-09 05:30:42,d03fa4fd-42bf-4878-a3c0-d038e62ab5c4,1,f1681225-f770-44da-b09d-6b0c33eaaa73,3d2e81d0-3a63-4bda-af15-50b42312b31b
2020-02-09 05:31:44,f6544a18-7307-4b93-997f-af9fbffa17a4,1,f1681225-f770-44da-b09d-6b0c33eaaa73,7d22eb57-7bca-4827-b6ee-74f6c0cb43fe
2020-02-09 05:31:44,10d7d282-07d8-4b4d-9924-7938a9581223,1,f1681225-f770-44da-b09d-6b0c33eaaa73,814f9619-ee53-48d8-944b-9cf3fdd3b745
2020-02-09 05:31:44,e72c522c-c40f-4915-a01a-d34cd3ecf455,1,f1681225-f770-44da-b09d-6b0c33eaaa73,7d22eb57-7bca-4827-b6ee-74f6c0cb43fe
2020-02-09 05:32:47,f7abbe68-7b7d-4875-b75e-9be0957cc427,1,f1681225-f770-44da-b09d-6b0c33eaaa73,166f85c3-66b8-43bf-a356-ffaba46299fa
2020-02-09 05:32:47,c1ce45fe-3914-42a0-8d32-9d6569845810,1,f1681225-f770-44da-b09d-6b0c33eaaa73,77a49101-a457-4bfc-b84b-5e6aa3b2991c
2020-02-09 05:32:47,0cfae83a-2630-4ef8-8050-0dd0064e6e93,1,f1681225-f770-44da-b09d-6b0c33eaaa73,77a49101-a457-4bfc-b84b-5e6aa3b2991c
2020-02-09 05:33:50,29ca694c-d7d3-4d86-88b9-2c4c0430a22d,1,f1681225-f770-44da-b09d-6b0c33eaaa73,b24f582d-8d62-4f73-9593-1db6e740358b
2020-02-09 05:33:50,89b9b5c0-74ac-4c40-a2bd-0a329fb5740e,1,f1681225-f770-44da-b09d-6b0c33eaaa73,8a3e8a69-d845-4f30-97d9-5b9cd5a5b1d1
2020-02-09 05:33:50,5c402abd-0945-40e8-b6b5-ca1ff5f484ca,1,f1681225-f770-44da-b09d-6b0c33eaaa73,8a3e8a69-d845-4f30-97d9-5b9cd5a5b1d1
2020-02-09 05:34:53,8fdb06ad-8e53-4df3-9db2-add2a2a55e90,1,f1681225-f770-44da-b09d-6b0c33eaaa73,e9e1b00c-a4ff-4caf-a33d-a2f8375245b6
2020-02-09 05:34:53,66cf8813-5a9c-451e-b5eb-69a654d98060,1,f1681225-f770-44da-b09d-6b0c33eaaa73,e9e1b00c-a4ff-4caf-a33d-a2f8375245b6
2020-02-09 05:34:53,2a7033cd-69a0-48cd-905a-4b8157d555dd,1,f1681225-f770-44da-b09d-6b0c33eaaa73,0d0dd2c3-3c24-4749-aaab-f7f95fd153cb
2020-02-09 05:35:56,07407560-8fa4-4bc7-a63e-c7039f7db466,1,f1681225-f770-44da-b09d-6b0c33eaaa73,b21fd893-fa50-461f-8e09-c770073a8f21
2020-02-09 05:35:56,aa11225a-b4e3-4b7c-b75a-975d9c4f401b,1,f1681225-f770-44da-b09d-6b0c33eaaa73,b21fd893-fa50-461f-8e09-c770073a8f21
2020-02-09 05:35:56,538897de-0685-41f7-b07e-51a829159f74,1,f1681225-f770-44da-b09d-6b0c33eaaa73,3c96244b-2935-4a57-a7da-f45b721b6b67
2020-02-09 05:36:59,20a49985-08a3-4aec-bba6-793a239e9286,1,f1681225-f770-44da-b09d-6b0c33eaaa73,ed5b29d4-cbd0-439b-993a-3e2f9d9b99c5
2020-02-09 05:36:59,298d2482-d227-43cc-b3df-5926ea778071,1,f1681225-f770-44da-b09d-6b0c33eaaa73,be855b5e-6628-41f6-af8f-5e3b70a7a4a9
2020-02-09 05:36:59,145a730d-43d2-4930-b4cf-1f822b61d086,1,f1681225-f770-44da-b09d-6b0c33eaaa73,ed5b29d4-cbd0-439b-993a-3e2f9d9b99c5
2020-02-09 05:38:01,8aac39ec-4c84-44e8-94af-032c5e785043,1,f1681225-f770-44da-b09d-6b0c33eaaa73,b5cc0486-fb0e-4dfe-a5da-b68af27d71f5
2020-02-09 05:38:01,f6fbffcc-d386-4d53-ac44-66c97644f706,1,f1681225-f770-44da-b09d-6b0c33eaaa73,944df215-8a53-4a41-a16b-d2be6f85c89d
2020-02-09 05:38:01,f6bee91c-0522-4fe8-89e6-0c21b56dc0a0,1,f1681225-f770-44da-b09d-6b0c33eaaa73,b5cc0486-fb0e-4dfe-a5da-b68af27d71f5
2020-02-09 05:39:04,84fad085-0fce-44a0-a3e7-6bd6d91fee43,1,f1681225-f770-44da-b09d-6b0c33eaaa73,546a9dc4-82df-4d23-9410-c713026985c7
2020-02-09 05:39:04,a069319b-aaba-4e8f-98b4-8d368060c461,1,f1681225-f770-44da-b09d-6b0c33eaaa73,546a9dc4-82df-4d23-9410-c713026985c7
2020-02-09 05:39:04,18c1c802-07fa-46e3-8b56-e5cc9b238d4a,1,f1681225-f770-44da-b09d-6b0c33eaaa73,5b10bc2d-6ff1-48d7-aa62-d763ce6ca6ea
2020-02-09 05:40:07,58eece39-2fc8-43ab-92d3-d258bdd776ab,1,f1681225-f770-44da-b09d-6b0c33eaaa73,28cfec4c-d4f7-4079-b01d-312a010a8c7d
2020-02-09 05:40:07,d17adda6-6072-4e30-a47c-dcdb5a19742f,1,f1681225-f770-44da-b09d-6b0c33eaaa73,f6795636-9450-458f-bfbd-9bdb0f08af76
2020-02-09 05:40:07,3145a6ad-df92-471e-8d07-412af178bc63,1,f1681225-f770-44da-b09d-6b0c33eaaa73,f6795636-9450-458f-bfbd-9bdb0f08af76
2020-02-09 05:41:10,176b7fe1-5b3e-425a-bde0-5a1939421924,1,f1681225-f770-44da-b09d-6b0c33eaaa73,8ac48064-08f8-4d76-81b5-508e0872f0bc
2020-02-09 05:41:10,38bdc07e-57f5-4b55-abba-de2f695c98ec,1,f1681225-f770-44da-b09d-6b0c33eaaa73,8ac48064-08f8-4d76-81b5-508e0872f0bc
2020-02-09 05:41:10,60587556-73dd-4a56-9e9b-7634aa8dcf42,1,f1681225-f770-44da-b09d-6b0c33eaaa73,10da25b9-66db-4c9b-9913-b9b892381f3a
2020-02-09 05:42:13,97bc12dd-d059-439f-95cf-efc823d6a7c5,1,f1681225-f770-44da-b09d-6b0c33eaaa73,1ee4ee2d-c673-41a4-8065-71c3b76cb4db
2020-02-09 05:42:13,765500ee-8807-48ac-9e38-c82fd3fd08bb,1,f1681225-f770-44da-b09d-6b0c33eaaa73,ab4084e0-9baf-4df9-ba13-f7daab60f86f
2020-02-09 05:42:13,8d6f3608-979d-4620-801d-fb181edd36a5,1,f1681225-f770-44da-b09d-6b0c33eaaa73,ab4084e0-9baf-4df9-ba13-f7daab60f86f
2020-02-09 05:43:16,59213b4b-4bbb-41f4-a563-2a27dd710564,1,f1681225-f770-44da-b09d-6b0c33eaaa73,60d65b73-301b-48cd-81ed-26eabd166d40
2020-02-09 05:43:16,679e81ee-7818-4184-a6ba-c6aa68b3cce0,1,f1681225-f770-44da-b09d-6b0c33eaaa73,50bf9179-4550-4e78-8c98-feaa7707ab9e
2020-02-09 05:43:16,4768fed3-21ad-4dfe-9fd4-a2984b254b43,1,f1681225-f770-44da-b09d-6b0c33eaaa73,60d65b73-301b-48cd-81ed-26eabd166d40
2020-02-09 05:44:18,82eed55d-7c55-4c93-9a59-8477ee1e6e2c,1,f1681225-f770-44da-b09d-6b0c33eaaa73,be1125e5-7d19-406e-a8fe-c92a8f57c87b
2020-02-09 05:44:18,195bd237-ef31-445b-8dd1-11d586cfe84d,1,f1681225-f770-44da-b09d-6b0c33eaaa73,f8786cf2-ae87-40a7-855c-de7083eb2027
2020-02-09 05:44:18,c420c8d8-219a-4835-9ad2-fed370cd3cd4,1,f1681225-f770-44da-b09d-6b0c33eaaa73,be1125e5-7d19-406e-a8fe-c92a8f57c87b
2020-02-09 05:45:21,f6205e49-b36d-4555-8dc5-3a03905ee89c,1,f1681225-f770-44da-b09d-6b0c33eaaa73,009741fb-2607-4dc3-8af3-69accf0f8583
2020-02-09 05:45:21,7415891c-5483-4fca-b4fa-f2b56a908e09,1,f1681225-f770-44da-b09d-6b0c33eaaa73,df9f9bce-d567-425b-ba14-530d45275183
2020-02-09 05:45:21,73ecd63a-f745-462c-bd50-bcf0f85d9d2f,1,f1681225-f770-44da-b09d-6b0c33eaaa73,df9f9bce-d567-425b-ba14-530d45275183
2020-02-09 05:46:24,c665c050-4fb8-4e14-9b47-b495f82b7396,1,f1681225-f770-44da-b09d-6b0c33eaaa73,2c0935a4-c50d-4bf7-8228-8729816c9e59
2020-02-09 05:46:24,f6161989-655d-4ef7-89e0-ec3b9c798d59,1,f1681225-f770-44da-b09d-6b0c33eaaa73,2c0935a4-c50d-4bf7-8228-8729816c9e59
2020-02-09 05:46:24,46bb5888-a9d1-41bc-adc1-a667f03101a8,1,f1681225-f770-44da-b09d-6b0c33eaaa73,d160049c-2a6d-48e3-bc6d-31f30afffb5f
2020-02-09 05:47:27,6c32ffab-a8d6-4e3d-9320-55b7f0c4a63f,1,f1681225-f770-44da-b09d-6b0c33eaaa73,7d22eb57-7bca-4827-b6ee-74f6c0cb43fe
2020-02-09 05:47:27,b5783a50-487f-41c1-ba14-0a63958e6b05,1,f1681225-f770-44da-b09d-6b0c33eaaa73,7d22eb57-7bca-4827-b6ee-74f6c0cb43fe
2020-02-09 05:47:27,a95afa80-4c5f-4532-9618-9762d9eae23f,1,f1681225-f770-44da-b09d-6b0c33eaaa73,252fe32d-b109-4f45-8fdc-daa625e68ded
2020-02-09 05:48:29,ba40c9fe-bdf7-48da-afbf-fde2d020002d,1,f1681225-f770-44da-b09d-6b0c33eaaa73,9da289ef-7b6c-4015-9b70-ef3d489a2184
2020-02-09 05:48:29,b5013b6d-ad73-4107-845c-0c0fa15edd95,1,f1681225-f770-44da-b09d-6b0c33eaaa73,77a49101-a457-4bfc-b84b-5e6aa3b2991c
2020-02-09 05:48:29,c2b563e2-5b6b-45cf-9af9-1a70633421a6,1,f1681225-f770-44da-b09d-6b0c33eaaa73,77a49101-a457-4bfc-b84b-5e6aa3b2991c
2020-02-09 05:49:32,7e1889ea-08a8-45f5-b311-9f8c106f213d,1,f1681225-f770-44da-b09d-6b0c33eaaa73,8a3e8a69-d845-4f30-97d9-5b9cd5a5b1d1
2020-02-09 05:49:32,5f0a51d0-dd8c-4f51-8596-5372689c3357,1,f1681225-f770-44da-b09d-6b0c33eaaa73,ab87f112-5f7f-4660-a03a-9557790511ab
2020-02-09 05:49:32,91889c6b-ec7a-483e-b8f1-88ef03b37ca6,1,f1681225-f770-44da-b09d-6b0c33eaaa73,8a3e8a69-d845-4f30-97d9-5b9cd5a5b1d1
2020-02-09 05:50:35,9941dc43-1626-4c23-90ab-17f68aac8212,1,f1681225-f770-44da-b09d-6b0c33eaaa73,5323b4e0-a14d-4297-93fd-56edb60f823f
2020-02-09 05:50:35,1ad12bcf-14e7-4230-9fee-ec6e74aac295,1,f1681225-f770-44da-b09d-6b0c33eaaa73,e9e1b00c-a4ff-4caf-a33d-a2f8375245b6
2020-02-09 05:50:35,50557d04-2306-4083-9d3a-fddf9d304e3c,1,f1681225-f770-44da-b09d-6b0c33eaaa73,e9e1b00c-a4ff-4caf-a33d-a2f8375245b6
2020-02-09 05:51:38,dadf3599-dd3f-4803-b892-fab8bf5abf0d,1,f1681225-f770-44da-b09d-6b0c33eaaa73,b21fd893-fa50-461f-8e09-c770073a8f21
2020-02-09 05:51:38,7ac79fcb-01ab-47e4-b547-33b1af6b4a10,1,f1681225-f770-44da-b09d-6b0c33eaaa73,5ed213e8-0438-459c-8c6e-a5e70fe16840
2020-02-09 05:51:38,feea2a9a-1f49-4175-b9ed-aa8c29f12c8b,1,f1681225-f770-44da-b09d-6b0c33eaaa73,b21fd893-fa50-461f-8e09-c770073a8f21
2020-02-09 05:52:41,76f51354-d1d0-4cf9-9d06-89625072a6f4,1,f1681225-f770-44da-b09d-6b0c33eaaa73,ed5b29d4-cbd0-439b-993a-3e2f9d9b99c5
2020-02-09 05:52:41,9c9c8fe2-f3ef-4e1a-99fd-898a2a86820a,1,f1681225-f770-44da-b09d-6b0c33eaaa73,5041a8ae-e1e2-48b9-bc06-0bc7daa1de12
2020-02-09 05:52:41,ac56e4f9-94bf-427c-a77c-05d51851743d,1,f1681225-f770-44da-b09d-6b0c33eaaa73,ed5b29d4-cbd0-439b-993a-3e2f9d9b99c5
2020-02-09 05:53:44,25d2c578-7dc0-4856-94cb-2cc7a88b4a1b,1,f1681225-f770-44da-b09d-6b0c33eaaa73,b5cc0486-fb0e-4dfe-a5da-b68af27d71f5
2020-02-09 05:53:44,363fb36a-a34a-40d3-9e04-7b5d8d9f1ea0,1,f1681225-f770-44da-b09d-6b0c33eaaa73,48740012-dbc6-40df-ab59-e6cdbcac032e
2020-02-09 05:53:44,85836e16-0518-4433-8d7e-85653fa748ee,1,f1681225-f770-44da-b09d-6b0c33eaaa73,b5cc0486-fb0e-4dfe-a5da-b68af27d71f5
2020-02-09 05:54:47,3d5b580a-9e89-4719-8148-319f5cc0639d,1,f1681225-f770-44da-b09d-6b0c33eaaa73,09c119fa-d385-42c2-acd7-84e5878352fc
2020-02-09 05:54:47,72bb5e32-d65f-429e-8b99-9e00bd23888a,1,f1681225-f770-44da-b09d-6b0c33eaaa73,546a9dc4-82df-4d23-9410-c713026985c7
2020-02-09 05:54:47,63ef9d1c-bf81-40db-921d-1407e34443ac,1,f1681225-f770-44da-b09d-6b0c33eaaa73,546a9dc4-82df-4d23-9410-c713026985c7
2020-02-09 05:55:49,d93ee574-8b8a-4757-b72f-83ccd0ee2797,1,f1681225-f770-44da-b09d-6b0c33eaaa73,f6795636-9450-458f-bfbd-9bdb0f08af76
2020-02-09 05:55:49,01b922cb-80ee-43f9-9c90-be4cf9330d84,1,f1681225-f770-44da-b09d-6b0c33eaaa73,ce8e3fc7-b621-4b4f-b933-01c187beb230
2020-02-09 05:55:49,a180020f-f191-42fa-8925-2cc60b4ac2b7,1,f1681225-f770-44da-b09d-6b0c33eaaa73,f6795636-9450-458f-bfbd-9bdb0f08af76
2020-02-09 05:56:52,593fca45-54bb-4ab4-ba15-08503530bd66,1,f1681225-f770-44da-b09d-6b0c33eaaa73,70a65830-80fd-404f-baf0-80cb7a480774
2020-02-09 05:56:52,95f6b65e-65c1-45f6-80da-b6ebc81a3d96,1,f1681225-f770-44da-b09d-6b0c33eaaa73,8ac48064-08f8-4d76-81b5-508e0872f0bc
2020-02-09 05:56:52,a429a07d-8155-40e3-bfc3-9fec3da4e2ac,1,f1681225-f770-44da-b09d-6b0c33eaaa73,8ac48064-08f8-4d76-81b5-508e0872f0bc
2020-02-09 05:57:55,b572b6f8-9e7a-45cc-901e-b83355eb17f0,1,f1681225-f770-44da-b09d-6b0c33eaaa73,94885565-2e6d-4d2a-b079-da28646f325e
2020-02-09 05:57:55,beefd140-bda3-4c15-b418-09113197fb51,1,f1681225-f770-44da-b09d-6b0c33eaaa73,ab4084e0-9baf-4df9-ba13-f7daab60f86f
2020-02-09 05:57:55,265a10fe-1c56-4815-81e0-dc148d6d3b59,1,f1681225-f770-44da-b09d-6b0c33eaaa73,ab4084e0-9baf-4df9-ba13-f7daab60f86f
2020-02-09 05:58:58,0767c0bd-6abe-4a87-b4fe-f594726429c7,1,f1681225-f770-44da-b09d-6b0c33eaaa73,60d65b73-301b-48cd-81ed-26eabd166d40
2020-02-09 05:58:58,796aa758-df50-45e8-9f11-4b25136bcfce,1,f1681225-f770-44da-b09d-6b0c33eaaa73,ff1b9b3e-3ac6-4808-897f-65a34d542d38
2020-02-09 05:58:58,6dede7aa-d58a-40eb-86a1-58dcd6960f04,1,f1681225-f770-44da-b09d-6b0c33eaaa73,60d65b73-301b-48cd-81ed-26eabd166d40
2020-02-09 06:00:01,2022ed48-b345-4fe1-8b5e-aa7ecdf8fbd5,1,f1681225-f770-44da-b09d-6b0c33eaaa73,be1125e5-7d19-406e-a8fe-c92a8f57c87b
2020-02-09 06:00:01,c84119c9-fff1-4db3-8b28-3f6574669ce9,1,f1681225-f770-44da-b09d-6b0c33eaaa73,be1125e5-7d19-406e-a8fe-c92a8f57c87b
2020-02-09 06:00:01,381a5058-74d8-4e4c-bbea-05ebe4e517ae,1,f1681225-f770-44da-b09d-6b0c33eaaa73,355cde8f-2c4b-4a36-a96c-6574f7a6a202
2020-02-09 06:01:03,acf073d5-1c2a-4a78-8a05-376babf8d0cb,1,f1681225-f770-44da-b09d-6b0c33eaaa73,df9f9bce-d567-425b-ba14-530d45275183
2020-02-09 06:01:03,0e8b8c5c-441e-4511-b335-bb73824e40ac,1,f1681225-f770-44da-b09d-6b0c33eaaa73,df9f9bce-d567-425b-ba14-530d45275183
2020-02-09 06:01:03,c9d48c51-900e-4e86-b586-dbf95fedeaa5,1,f1681225-f770-44da-b09d-6b0c33eaaa73,5c329aac-76b0-4658-bfc8-a5849cc11821
2020-02-09 06:02:06,22aa2562-ab75-4c91-ac6f-0661fe1c6cfc,1,f1681225-f770-44da-b09d-6b0c33eaaa73,2c0935a4-c50d-4bf7-8228-8729816c9e59
2020-02-09 06:02:06,3caa1e12-53bc-4629-947c-daa4bfdbd761,1,f1681225-f770-44da-b09d-6b0c33eaaa73,b4eb44f1-ef4e-442b-81d3-6ad6e02b6502
2020-02-09 06:02:06,195e953c-9be4-42bf-b342-3a3f697924df,1,f1681225-f770-44da-b09d-6b0c33eaaa73,2c0935a4-c50d-4bf7-8228-8729816c9e59
2020-02-09 06:03:09,539dd7c7-a584-4eb1-ab68-9d465373e6fb,1,f1681225-f770-44da-b09d-6b0c33eaaa73,7d22eb57-7bca-4827-b6ee-74f6c0cb43fe
2020-02-09 06:03:09,238b8144-8c7b-47d6-bc20-2fd393c4644d,1,f1681225-f770-44da-b09d-6b0c33eaaa73,7d22eb57-7bca-4827-b6ee-74f6c0cb43fe
2020-02-09 06:03:09,0d79aa23-dc7a-4491-89b3-11e063f745ed,1,f1681225-f770-44da-b09d-6b0c33eaaa73,95ac4bfc-c7bd-4470-bb88-fd73bdddb8e5
2020-02-09 06:04:12,49c91271-ddaf-431f-9f10-21d59c7969aa,1,f1681225-f770-44da-b09d-6b0c33eaaa73,77a49101-a457-4bfc-b84b-5e6aa3b2991c
2020-02-09 06:04:12,3ede7173-b888-42e7-8c6a-40f4c4865e8e,1,f1681225-f770-44da-b09d-6b0c33eaaa73,af659369-5eb5-490e-a227-c1b6ce789bed
2020-02-09 06:04:12,40531cc2-f9a5-4fc1-96b4-3341e3ed51b0,1,f1681225-f770-44da-b09d-6b0c33eaaa73,77a49101-a457-4bfc-b84b-5e6aa3b2991c
2020-02-09 06:05:15,9711c49f-40f9-4b92-84a5-b721d448ae58,1,f1681225-f770-44da-b09d-6b0c33eaaa73,0dbd8a13-3226-4535-995b-86b0e51ff948
2020-02-09 06:05:15,3d169a88-faed-40a7-91e6-726884b91f6a,1,f1681225-f770-44da-b09d-6b0c33eaaa73,8a3e8a69-d845-4f30-97d9-5b9cd5a5b1d1
2020-02-09 06:05:15,be1f131b-74c0-4f3b-9f74-0eab7f72ad72,1,f1681225-f770-44da-b09d-6b0c33eaaa73,8a3e8a69-d845-4f30-97d9-5b9cd5a5b1d1
2020-02-09 06:06:17,a8697c5e-64f9-4e68-8da2-25f597f274fe,1,f1681225-f770-44da-b09d-6b0c33eaaa73,e9e1b00c-a4ff-4caf-a33d-a2f8375245b6
2020-02-09 06:06:17,e90c34e7-0d37-4571-94d1-9ad38fbd325f,1,f1681225-f770-44da-b09d-6b0c33eaaa73,e9e1b00c-a4ff-4caf-a33d-a2f8375245b6
2020-02-09 06:06:17,9363f887-5f4c-4f8e-838b-398fd32bd82e,1,f1681225-f770-44da-b09d-6b0c33eaaa73,d4621246-e6c8-4303-b4c4-fb6cf45bff05
2020-02-09 06:07:20,58caa50d-8444-45d9-a0a6-c9d3a2720d35,1,f1681225-f770-44da-b09d-6b0c33eaaa73,9ee41eea-24df-45d7-a946-7f27d057b5bc
2020-02-09 06:07:20,f242598c-2afd-4313-b68b-b8d8a5b7557e,1,f1681225-f770-44da-b09d-6b0c33eaaa73,b21fd893-fa50-461f-8e09-c770073a8f21
2020-02-09 06:07:20,501d2c9a-65de-4a65-a985-417fd5765e3f,1,f1681225-f770-44da-b09d-6b0c33eaaa73,b21fd893-fa50-461f-8e09-c770073a8f21
2020-02-09 06:08:23,aa2ab298-bb77-464c-80b1-267c97a1d796,1,f1681225-f770-44da-b09d-6b0c33eaaa73,ed5b29d4-cbd0-439b-993a-3e2f9d9b99c5
2020-02-09 06:08:23,b5f85a4b-43e4-4697-8122-bb328537cf31,1,f1681225-f770-44da-b09d-6b0c33eaaa73,6a641f43-4038-494a-bff8-e280a22e8ed5
2020-02-09 06:08:23,57c7ea82-a739-48a1-88e9-2ba659327e35,1,f1681225-f770-44da-b09d-6b0c33eaaa73,ed5b29d4-cbd0-439b-993a-3e2f9d9b99c5
2020-02-09 06:09:26,32adeeeb-950a-4a01-bf16-a36efafca077,1,f1681225-f770-44da-b09d-6b0c33eaaa73,b5cc0486-fb0e-4dfe-a5da-b68af27d71f5
2020-02-09 06:09:26,d47ad88d-f64d-4be9-a1ac-ca0abed07636,1,f1681225-f770-44da-b09d-6b0c33eaaa73,b5cc0486-fb0e-4dfe-a5da-b68af27d71f5
2020-02-09 06:09:26,d487a972-5bc7-42e1-a112-6a5742274427,1,f1681225-f770-44da-b09d-6b0c33eaaa73,e190ea26-df7b-4176-bc0f-002bef881861
2020-02-09 06:10:29,0239b47b-9d6e-4375-bf7f-3cf60fd83e38,1,f1681225-f770-44da-b09d-6b0c33eaaa73,d4f29334-2693-40cd-ad46-58ccfa4e2eab
2020-02-09 06:10:29,49ba0b11-a0c1-42c3-b74f-3d9aca8ff0c6,1,f1681225-f770-44da-b09d-6b0c33eaaa73,546a9dc4-82df-4d23-9410-c713026985c7
2020-02-09 06:10:29,44ac692b-cc6e-460d-b7cf-92dba543d4cc,1,f1681225-f770-44da-b09d-6b0c33eaaa73,546a9dc4-82df-4d23-9410-c713026985c7
2020-02-09 06:11:32,3825be2b-282f-4e10-bac1-b7f6bcdeede9,1,f1681225-f770-44da-b09d-6b0c33eaaa73,f6795636-9450-458f-bfbd-9bdb0f08af76
2020-02-09 06:11:32,6a823760-c8b4-4e2c-bd0a-344d6feb6a24,1,f1681225-f770-44da-b09d-6b0c33eaaa73,f6795636-9450-458f-bfbd-9bdb0f08af76
2020-02-09 06:11:32,8ca66946-673c-48a3-9e6d-58279bb29570,1,f1681225-f770-44da-b09d-6b0c33eaaa73,1962fa5c-fe6a-44b5-a524-d4a221c7d397
2020-02-09 06:12:34,5c763823-0a63-4038-89af-154894359c38,1,f1681225-f770-44da-b09d-6b0c33eaaa73,8ac48064-08f8-4d76-81b5-508e0872f0bc
2020-02-09 06:12:34,43bf7811-f03d-46be-93b0-d1c2396084c4,1,f1681225-f770-44da-b09d-6b0c33eaaa73,a8d81c52-af6c-413f-9561-1810bd763661
2020-02-09 06:12:34,b2c8b722-0b92-413d-ac2b-38928997819a,1,f1681225-f770-44da-b09d-6b0c33eaaa73,8ac48064-08f8-4d76-81b5-508e0872f0bc
2020-02-09 06:13:37,4cdcaa93-8bd9-4bed-944c-dc861c47d1f3,1,f1681225-f770-44da-b09d-6b0c33eaaa73,ab4084e0-9baf-4df9-ba13-f7daab60f86f
2020-02-09 06:13:37,b1ff0f91-6b31-4e09-adac-ea6121f909ed,1,f1681225-f770-44da-b09d-6b0c33eaaa73,f8997d4c-a08f-4580-becb-b5e2d2baa3ef
2020-02-09 06:13:37,890e45ce-8cbb-4215-baf8-d674664beef2,1,f1681225-f770-44da-b09d-6b0c33eaaa73,ab4084e0-9baf-4df9-ba13-f7daab60f86f
