date,trigger,state
2020-02-09 05:34:25,863fc0a7-c76f-46c3-a53f-1fcc7d91ac22,A
2020-02-09 05:37:28,863fc0a7-c76f-46c3-a53f-1fcc7d91ac22,S
2020-02-09 05:43:58,863fc0a7-c76f-46c3-a53f-1fcc7d91ac22,A
2020-02-09 05:50:47,863fc0a7-c76f-46c3-a53f-1fcc7d91ac22,S
2020-02-09 06:02:43,863fc0a7-c76f-46c3-a53f-1fcc7d91ac22,A
2020-02-09 06:03:01,863fc0a7-c76f-46c3-a53f-1fcc7d91ac22,S
2020-02-09 06:18:25,863fc0a7-c76f-46c3-a53f-1fcc7d91ac22,A
2020-02-09 06:21:18,863fc0a7-c76f-46c3-a53f-1fcc7d91ac22,S
2020-02-09 06:23:17,863fc0a7-c76f-46c3-a53f-1fcc7d91ac22,A
2020-02-09 06:31:24,863fc0a7-c76f-46c3-a53f-1fcc7d91ac22,S
2020-02-09 06:32:20,863fc0a7-c76f-46c3-a53f-1fcc7d91ac22,A
2020-02-09 06:34:33,863fc0a7-c76f-46c3-a53f-1fcc7d91ac22,S
2020-02-09 06:48:58,863fc0a7-c76f-46c3-a53f-1fcc7d91ac22,A
2020-02-09 06:54:16,863fc0a7-c76f-46c3-a53f-1fcc7d91ac22,S
2020-02-09 06:55:49,863fc0a7-c76f-46c3-a53f-1fcc7d91ac22,A
2020-02-09 06:56:37,863fc0a7-c76f-46c3-a53f-1fcc7d91ac22,S
2020-02-09 06:58:34,863fc0a7-c76f-46c3-a53f-1fcc7d91ac22,A
2020-02-09 07:01:51,863fc0a7-c76f-46c3-a53f-1fcc7d91ac22,S
2020-02-09 07:01:58,863fc0a7-c76f-46c3-a53f-1fcc7d91ac22,A
2020-02-09 07:14:17,863fc0a7-c76f-46c3-a53f-1fcc7d91ac22,S
2020-02-09 07:15:37,863fc0a7-c76f-46c3-a53f-1fcc7d91ac22,A
2020-02-09 07:20:30,863fc0a7-c76f-46c3-a53f-1fcc7d91ac22,S
2020-02-09 07:23:55,863fc0a7-c76f-46c3-a53f-1fcc7d91ac22,A
2020-02-09 07:25:10,863fc0a7-c76f-46c3-a53f-1fcc7d91ac22,S
2020-02-09 07:25:52,863fc0a7-c76f-46c3-a53f-1fcc7d91ac22,A
2020-02-09 07:38:32,863fc0a7-c76f-46c3-a53f-1fcc7d91ac22,S
2020-02-09 07:40:00,863fc0a7-c76f-46c3-a53f-1fcc7d91ac22,A
2020-02-09 07:41:13,863fc0a7-c76f-46c3-a53f-1fcc7d91ac22,S
2020-02-09 07:43:50,863fc0a7-c76f-46c3-a53f-1fcc7d91ac22,A
2020-02-09 07:50:24,863fc0a7-c76f-46c3-a53f-1fcc7d91ac22,S
2020-02-09 07:55:10,863fc0a7-c76f-46c3-a53f-1fcc7d91ac22,A
2020-02-09 07:56:48,863fc0a7-c76f-46c3-a53f-1fcc7d91ac22,S
2020-02-09 08:08:25,863fc0a7-c76f-46c3-a53f-1fcc7d91ac22,A
2020-02-09 08:12:28,863fc0a7-c76f-46c3-a53f-1fcc7d91ac22,S
2020-02-09 08:19:34,863fc0a7-c76f-46c3-a53f-1fcc7d91ac22,A
2020-02-09 08:19:36,863fc0a7-c76f-46c3-a53f-1fcc7d91ac22,S
2020-02-09 08:21:16,863fc0a7-c76f-46c3-a53f-1fcc7d91ac22,A
2020-02-09 06:22:18,796aa758-df50-45e8-9f11-4b25136bcfce,S
2020-02-09 06:25:43,796aa758-df50-45e8-9f11-4b25136bcfce,A
2020-02-09 06:25:52,796aa758-df50-45e8-9f11-4b25136bcfce,S
2020-02-09 06:32:52,796aa758-df50-45e8-9f11-4b25136bcfce,A
2020-02-09 06:34:18,796aa758-df50-45e8-9f11-4b25136bcfce,S
2020-02-09 06:39:13,796aa758-df50-45e8-9f11-4b25136bcfce,A
2020-02-09 06:40:48,796aa758-df50-45e8-9f11-4b25136bcfce,S
2020-02-09 06:41:15,796aa758-df50-45e8-9f11-4b25136bcfce,A
2020-02-09 06:46:49,796aa758-df50-45e8-9f11-4b25136bcfce,S
2020-02-09 07:00:30,796aa758-df50-45e8-9f11-4b25136bcfce,A
2020-02-09 07:04:20,796aa758-df50-45e8-9f11-4b25136bcfce,S
2020-02-09 07:14:47,796aa758-df50-45e8-9f11-4b25136bcfce,A
2020-02-09 07:15:37,796aa758-df50-45e8-9f11-4b25136bcfce,S
2020-02-09 07:18:26,796aa758-df50-45e8-9f11-4b25136bcfce,A
2020-02-09 07:19:00,796aa758-df50-45e8-9f11-4b25136bcfce,S
2020-02-09 07:37:04,796aa758-df50-45e8-9f11-4b25136bcfce,A
2020-02-09 07:42:20,796aa758-df50-45e8-9f11-4b25136bcfce,S
2020-02-09 07:48:10,796aa758-df50-45e8-9f11-4b25136bcfce,A
2020-02-09 07:55:54,796aa758-df50-45e8-9f11-4b25136bcfce,S
2020-02-09 07:56:42,796aa758-df50-45e8-9f11-4b25136bcfce,A
2020-02-09 07:59:13,796aa758-df50-45e8-9f11-4b25136bcfce,S
2020-02-09 07:59:35,796aa758-df50-45e8-9f11-4b25136bcfce,A
2020-02-09 08:08:38,796aa758-df50-45e8-9f11-4b25136bcfce,S
2020-02-09 08:23:05,796aa758-df50-45e8-9f11-4b25136bcfce,A
2020-02-09 08:25:34,796aa758-df50-45e8-9f11-4b25136bcfce,S
2020-02-09 08:27:22,796aa758-df50-45e8-9f11-4b25136bcfce,A
2020-02-09 05:43:14,538897de-0685-41f7-b07e-51a829159f74,A
2020-02-09 05:48:44,538897de-0685-41f7-b07e-51a829159f74,S
2020-02-09 05:57:14,538897de-0685-41f7-b07e-51a829159f74,A
2020-02-09 06:02:25,538897de-0685-41f7-b07e-51a829159f74,S
2020-02-09 06:05:42,538897de-0685-41f7-b07e-51a829159f74,A
2020-02-09 06:07:31,538897de-0685-41f7-b07e-51a829159f74,S
2020-02-09 06:09:44,538897de-0685-41f7-b07e-51a829159f74,A
2020-02-09 06:18:44,538897de-0685-41f7-b07e-51a829159f74,S
2020-02-09 06:22:14,538897de-0685-41f7-b07e-51a829159f74,A
2020-02-09 06:25:25,538897de-0685-41f7-b07e-51a829159f74,S
2020-02-09 06:27:08,538897de-0685-41f7-b07e-51a829159f74,A
2020-02-09 06:37:26,538897de-0685-41f7-b07e-51a829159f74,S
2020-02-09 06:51:50,538897de-0685-41f7-b07e-51a829159f74,A
2020-02-09 06:55:30,538897de-0685-41f7-b07e-51a829159f74,S
2020-02-09 07:00:45,538897de-0685-41f7-b07e-51a829159f74,A
2020-02-09 07:07:29,538897de-0685-41f7-b07e-51a829159f74,S
2020-02-09 07:12:29,538897de-0685-41f7-b07e-51a829159f74,A
2020-02-09 07:13:25,538897de-0685-41f7-b07e-51a829159f74,S
2020-02-09 07:20:11,538897de-0685-41f7-b07e-51a829159f74,A
2020-02-09 07:22:27,538897de-0685-41f7-b07e-51a829159f74,S
2020-02-09 07:28:33,538897de-0685-41f7-b07e-51a829159f74,A
2020-02-09 07:28:35,538897de-0685-41f7-b07e-51a829159f74,S
2020-02-09 07:29:19,538897de-0685-41f7-b07e-51a829159f74,A
2020-02-09 07:33:12,538897de-0685-41f7-b07e-51a829159f74,S
2020-02-09 07:38:49,538897de-0685-41f7-b07e-51a829159f74,A
2020-02-09 07:40:50,538897de-0685-41f7-b07e-51a829159f74,S
2020-02-09 07:44:03,538897de-0685-41f7-b07e-51a829159f74,A
2020-02-09 07:46:54,538897de-0685-41f7-b07e-51a829159f74,S
2020-02-09 07:50:09,538897de-0685-41f7-b07e-51a829159f74,A
2020-02-09 07:59:10,538897de-0685-41f7-b07e-51a829159f74,S
2020-02-09 08:02:44,538897de-0685-41f7-b07e-51a829159f74,A
2020-02-09 08:03:43,538897de-0685-41f7-b07e-51a829159f74,S
2020-02-09 08:07:10,538897de-0685-41f7-b07e-51a829159f74,A
2020-02-09 08:09:07,538897de-0685-41f7-b07e-51a829159f74,S
2020-02-09 08:09:49,538897de-0685-41f7-b07e-51a829159f74,A
2020-02-09 08:16:57,538897de-0685-41f7-b07e-51a829159f74,S
2020-02-09 08:19:22,538897de-0685-41f7-b07e-51a829159f74,A
2020-02-09 05:32:09,719183ce-cf46-4e3f-8c46-7f68fe9760e0,A
2020-02-09 05:39:55,719183ce-cf46-4e3f-8c46-7f68fe9760e0,S
2020-02-09 05:45:02,719183ce-cf46-4e3f-8c46-7f68fe9760e0,A
2020-02-09 06:01:09,719183ce-cf46-4e3f-8c46-7f68fe9760e0,S
2020-02-09 06:02:22,719183ce-cf46-4e3f-8c46-7f68fe9760e0,A
2020-02-09 06:07:10,719183ce-cf46-4e3f-8c46-7f68fe9760e0,S
2020-02-09 06:08:16,719183ce-cf46-4e3f-8c46-7f68fe9760e0,A
2020-02-09 06:11:04,719183ce-cf46-4e3f-8c46-7f68fe9760e0,S
2020-02-09 06:16:15,719183ce-cf46-4e3f-8c46-7f68fe9760e0,A
2020-02-09 06:18:26,719183ce-cf46-4e3f-8c46-7f68fe9760e0,S
2020-02-09 06:21:55,719183ce-cf46-4e3f-8c46-7f68fe9760e0,A
2020-02-09 06:27:30,719183ce-cf46-4e3f-8c46-7f68fe9760e0,S
2020-02-09 06:38:01,719183ce-cf46-4e3f-8c46-7f68fe9760e0,A
2020-02-09 06:43:41,719183ce-cf46-4e3f-8c46-7f68fe9760e0,S
2020-02-09 06:45:39,719183ce-cf46-4e3f-8c46-7f68fe9760e0,A
2020-02-09 06:47:40,719183ce-cf46-4e3f-8c46-7f68fe9760e0,S
2020-02-09 06:55:58,719183ce-cf46-4e3f-8c46-7f68fe9760e0,A
2020-02-09 06:58:07,719183ce-cf46-4e3f-8c46-7f68fe9760e0,S
2020-02-09 07:03:02,719183ce-cf46-4e3f-8c46-7f68fe9760e0,A
2020-02-09 07:06:00,719183ce-cf46-4e3f-8c46-7f68fe9760e0,S
2020-02-09 07:07:08,719183ce-cf46-4e3f-8c46-7f68fe9760e0,A
2020-02-09 07:12:03,719183ce-cf46-4e3f-8c46-7f68fe9760e0,S
2020-02-09 07:14:56,719183ce-cf46-4e3f-8c46-7f68fe9760e0,A
2020-02-09 07:18:45,719183ce-cf46-4e3f-8c46-7f68fe9760e0,S
2020-02-09 07:21:05,719183ce-cf46-4e3f-8c46-7f68fe9760e0,A
2020-02-09 07:24:51,719183ce-cf46-4e3f-8c46-7f68fe9760e0,S
2020-02-09 07:30:17,719183ce-cf46-4e3f-8c46-7f68fe9760e0,A
2020-02-09 07:31:23,719183ce-cf46-4e3f-8c46-7f68fe9760e0,S
2020-02-09 07:37:08,719183ce-cf46-4e3f-8c46-7f68fe9760e0,A
2020-02-09 07:38:05,719183ce-cf46-4e3f-8c46-7f68fe9760e0,S
2020-02-09 07:39:35,719183ce-cf46-4e3f-8c46-7f68fe9760e0,A
2020-02-09 07:40:07,719183ce-cf46-4e3f-8c46-7f68fe9760e0,S
2020-02-09 07:43:27,719183ce-cf46-4e3f-8c46-7f68fe9760e0,A
2020-02-09 07:44:56,719183ce-cf46-4e3f-8c46-7f68fe9760e0,S
2020-02-09 07:58:08,719183ce-cf46-4e3f-8c46-7f68fe9760e0,A
2020-02-09 08:07:37,719183ce-cf46-4e3f-8c46-7f68fe9760e0,S
2020-02-09 08:09:08,719183ce-cf46-4e3f-8c46-7f68fe9760e0,A
2020-02-09 08:09:32,719183ce-cf46-4e3f-8c46-7f68fe9760e0,S
2020-02-09 08:10:07,719183ce-cf46-4e3f-8c46-7f68fe9760e0,A
2020-02-09 08:19:44,719183ce-cf46-4e3f-8c46-7f68fe9760e0,S
2020-02-09 06:11:01,b5f85a4b-43e4-4697-8122-bb328537cf31,A
2020-02-09 06:11:46,b5f85a4b-43e4-4697-8122-bb328537cf31,S
2020-02-09 06:12:08,b5f85a4b-43e4-4697-8122-bb328537cf31,A
2020-02-09 06:12:31,b5f85a4b-43e4-4697-8122-bb328537cf31,S
2020-02-09 06:21:04,b5f85a4b-43e4-4697-8122-bb328537cf31,A
2020-02-09 06:44:37,b5f85a4b-43e4-4697-8122-bb328537cf31,S
2020-02-09 07:20:38,b5f85a4b-43e4-4697-8122-bb328537cf31,A
2020-02-09 07:24:52,b5f85a4b-43e4-4697-8122-bb328537cf31,S
2020-02-09 07:26:37,b5f85a4b-43e4-4697-8122-bb328537cf31,A
2020-02-09 07:27:59,b5f85a4b-43e4-4697-8122-bb328537cf31,S
2020-02-09 07:29:08,b5f85a4b-43e4-4697-8122-bb328537cf31,A
2020-02-09 07:37:46,b5f85a4b-43e4-4697-8122-bb328537cf31,S
2020-02-09 07:44:01,b5f85a4b-43e4-4697-8122-bb328537cf31,A
2020-02-09 08:02:46,b5f85a4b-43e4-4697-8122-bb328537cf31,S
2020-02-09 08:04:47,b5f85a4b-43e4-4697-8122-bb328537cf31,A
2020-02-09 08:08:09,b5f85a4b-43e4-4697-8122-bb328537cf31,S
2020-02-09 08:20:51,b5f85a4b-43e4-4697-8122-bb328537cf31,A
2020-02-09 05:27:00,8389f005-ce9a-4293-bb28-edd04b950e85,A
2020-02-09 05:43:03,8389f005-ce9a-4293-bb28-edd04b950e85,S
2020-02-09 05:46:17,8389f005-ce9a-4293-bb28-edd04b950e85,A
2020-02-09 05:49:03,8389f005-ce9a-4293-bb28-edd04b950e85,S
2020-02-09 05:49:34,8389f005-ce9a-4293-bb28-edd04b950e85,A
2020-02-09 06:03:32,8389f005-ce9a-4293-bb28-edd04b950e85,S
2020-02-09 06:07:01,8389f005-ce9a-4293-bb28-edd04b950e85,A
2020-02-09 06:09:52,8389f005-ce9a-4293-bb28-edd04b950e85,S
2020-02-09 06:13:53,8389f005-ce9a-4293-bb28-edd04b950e85,A
2020-02-09 06:27:16,8389f005-ce9a-4293-bb28-edd04b950e85,S
2020-02-09 06:27:27,8389f005-ce9a-4293-bb28-edd04b950e85,A
2020-02-09 06:36:09,8389f005-ce9a-4293-bb28-edd04b950e85,S
2020-02-09 06:40:25,8389f005-ce9a-4293-bb28-edd04b950e85,A
2020-02-09 06:47:02,8389f005-ce9a-4293-bb28-edd04b950e85,S
2020-02-09 06:49:34,8389f005-ce9a-4293-bb28-edd04b950e85,A
2020-02-09 07:00:45,8389f005-ce9a-4293-bb28-edd04b950e85,S
2020-02-09 07:02:40,8389f005-ce9a-4293-bb28-edd04b950e85,A
2020-02-09 07:03:37,8389f005-ce9a-4293-bb28-edd04b950e85,S
2020-02-09 07:06:30,8389f005-ce9a-4293-bb28-edd04b950e85,A
2020-02-09 07:12:28,8389f005-ce9a-4293-bb28-edd04b950e85,S
2020-02-09 07:21:16,8389f005-ce9a-4293-bb28-edd04b950e85,A
2020-02-09 07:24:19,8389f005-ce9a-4293-bb28-edd04b950e85,S
2020-02-09 07:26:10,8389f005-ce9a-4293-bb28-edd04b950e85,A
2020-02-09 07:28:20,8389f005-ce9a-4293-bb28-edd04b950e85,S
2020-02-09 07:40:21,8389f005-ce9a-4293-bb28-edd04b950e85,A
2020-02-09 07:41:50,8389f005-ce9a-4293-bb28-edd04b950e85,S
2020-02-09 07:52:44,8389f005-ce9a-4293-bb28-edd04b950e85,A
2020-02-09 07:55:46,8389f005-ce9a-4293-bb28-edd04b950e85,S
2020-02-09 07:57:19,8389f005-ce9a-4293-bb28-edd04b950e85,A
2020-02-09 07:58:45,8389f005-ce9a-4293-bb28-edd04b950e85,S
2020-02-09 07:59:35,8389f005-ce9a-4293-bb28-edd04b950e85,A
2020-02-09 08:05:18,8389f005-ce9a-4293-bb28-edd04b950e85,S
2020-02-09 08:14:54,8389f005-ce9a-4293-bb28-edd04b950e85,A
2020-02-09 08:24:39,8389f005-ce9a-4293-bb28-edd04b950e85,S
2020-02-09 08:26:03,8389f005-ce9a-4293-bb28-edd04b950e85,A
2020-02-09 06:21:09,d487a972-5bc7-42e1-a112-6a5742274427,S
2020-02-09 06:22:08,d487a972-5bc7-42e1-a112-6a5742274427,A
2020-02-09 06:28:53,d487a972-5bc7-42e1-a112-6a5742274427,S
2020-02-09 06:34:44,d487a972-5bc7-42e1-a112-6a5742274427,A
2020-02-09 06:36:52,d487a972-5bc7-42e1-a112-6a5742274427,S
2020-02-09 06:39:42,d487a972-5bc7-42e1-a112-6a5742274427,A
2020-02-09 06:40:17,d487a972-5bc7-42e1-a112-6a5742274427,S
2020-02-09 06:43:15,d487a972-5bc7-42e1-a112-6a5742274427,A
2020-02-09 06:44:38,d487a972-5bc7-42e1-a112-6a5742274427,S
2020-02-09 06:49:30,d487a972-5bc7-42e1-a112-6a5742274427,A
2020-02-09 07:00:19,d487a972-5bc7-42e1-a112-6a5742274427,S
2020-02-09 07:04:55,d487a972-5bc7-42e1-a112-6a5742274427,A
2020-02-09 07:11:15,d487a972-5bc7-42e1-a112-6a5742274427,S
2020-02-09 07:13:55,d487a972-5bc7-42e1-a112-6a5742274427,A
2020-02-09 07:16:23,d487a972-5bc7-42e1-a112-6a5742274427,S
2020-02-09 07:20:07,d487a972-5bc7-42e1-a112-6a5742274427,A
2020-02-09 07:21:54,d487a972-5bc7-42e1-a112-6a5742274427,S
2020-02-09 07:27:10,d487a972-5bc7-42e1-a112-6a5742274427,A
2020-02-09 07:28:57,d487a972-5bc7-42e1-a112-6a5742274427,S
2020-02-09 07:29:51,d487a972-5bc7-42e1-a112-6a5742274427,A
2020-02-09 07:46:11,d487a972-5bc7-42e1-a112-6a5742274427,S
2020-02-09 07:47:33,d487a972-5bc7-42e1-a112-6a5742274427,A
2020-02-09 07:48:06,d487a972-5bc7-42e1-a112-6a5742274427,S
2020-02-09 07:51:13,d487a972-5bc7-42e1-a112-6a5742274427,A
2020-02-09 07:57:23,d487a972-5bc7-42e1-a112-6a5742274427,S
2020-02-09 08:10:07,d487a972-5bc7-42e1-a112-6a5742274427,A
2020-02-09 08:10:43,d487a972-5bc7-42e1-a112-6a5742274427,S
2020-02-09 08:12:41,d487a972-5bc7-42e1-a112-6a5742274427,A
2020-02-09 06:10:43,58caa50d-8444-45d9-a0a6-c9d3a2720d35,A
2020-02-09 06:12:10,58caa50d-8444-45d9-a0a6-c9d3a2720d35,S
2020-02-09 06:20:43,58caa50d-8444-45d9-a0a6-c9d3a2720d35,A
2020-02-09 06:23:08,58caa50d-8444-45d9-a0a6-c9d3a2720d35,S
2020-02-09 06:24:02,58caa50d-8444-45d9-a0a6-c9d3a2720d35,A
2020-02-09 06:24:23,58caa50d-8444-45d9-a0a6-c9d3a2720d35,S
2020-02-09 06:27:03,58caa50d-8444-45d9-a0a6-c9d3a2720d35,A
2020-02-09 06:27:17,58caa50d-8444-45d9-a0a6-c9d3a2720d35,S
2020-02-09 06:31:30,58caa50d-8444-45d9-a0a6-c9d3a2720d35,A
2020-02-09 06:34:40,58caa50d-8444-45d9-a0a6-c9d3a2720d35,S
2020-02-09 06:41:26,58caa50d-8444-45d9-a0a6-c9d3a2720d35,A
2020-02-09 06:45:13,58caa50d-8444-45d9-a0a6-c9d3a2720d35,S
2020-02-09 06:48:26,58caa50d-8444-45d9-a0a6-c9d3a2720d35,A
2020-02-09 06:48:33,58caa50d-8444-45d9-a0a6-c9d3a2720d35,S
2020-02-09 06:52:03,58caa50d-8444-45d9-a0a6-c9d3a2720d35,A
2020-02-09 06:52:06,58caa50d-8444-45d9-a0a6-c9d3a2720d35,S
2020-02-09 06:59:53,58caa50d-8444-45d9-a0a6-c9d3a2720d35,A
2020-02-09 07:04:13,58caa50d-8444-45d9-a0a6-c9d3a2720d35,S
2020-02-09 07:14:21,58caa50d-8444-45d9-a0a6-c9d3a2720d35,A
2020-02-09 07:20:56,58caa50d-8444-45d9-a0a6-c9d3a2720d35,S
2020-02-09 07:25:06,58caa50d-8444-45d9-a0a6-c9d3a2720d35,A
2020-02-09 07:35:55,58caa50d-8444-45d9-a0a6-c9d3a2720d35,S
2020-02-09 07:38:45,58caa50d-8444-45d9-a0a6-c9d3a2720d35,A
2020-02-09 07:44:15,58caa50d-8444-45d9-a0a6-c9d3a2720d35,S
2020-02-09 07:55:22,58caa50d-8444-45d9-a0a6-c9d3a2720d35,A
2020-02-09 07:59:05,58caa50d-8444-45d9-a0a6-c9d3a2720d35,S
2020-02-09 08:13:22,58caa50d-8444-45d9-a0a6-c9d3a2720d35,A
2020-02-09 08:19:23,58caa50d-8444-45d9-a0a6-c9d3a2720d35,S
2020-02-09 08:24:23,58caa50d-8444-45d9-a0a6-c9d3a2720d35,A
2020-02-09 08:24:45,58caa50d-8444-45d9-a0a6-c9d3a2720d35,S
2020-02-09 08:26:44,58caa50d-8444-45d9-a0a6-c9d3a2720d35,A
2020-02-09 05:40:43,f62b0519-4215-48ee-bbb7-95ba8bb214a3,S
2020-02-09 05:47:10,f62b0519-4215-48ee-bbb7-95ba8bb214a3,A
2020-02-09 05:58:01,f62b0519-4215-48ee-bbb7-95ba8bb214a3,S
2020-02-09 05:59:54,f62b0519-4215-48ee-bbb7-95ba8bb214a3,A
2020-02-09 06:00:11,f62b0519-4215-48ee-bbb7-95ba8bb214a3,S
2020-02-09 06:15:30,f62b0519-4215-48ee-bbb7-95ba8bb214a3,A
2020-02-09 06:17:08,f62b0519-4215-48ee-bbb7-95ba8bb214a3,S
2020-02-09 06:21:12,f62b0519-4215-48ee-bbb7-95ba8bb214a3,A
2020-02-09 06:22:57,f62b0519-4215-48ee-bbb7-95ba8bb214a3,S
2020-02-09 06:27:57,f62b0519-4215-48ee-bbb7-95ba8bb214a3,A
2020-02-09 06:34:50,f62b0519-4215-48ee-bbb7-95ba8bb214a3,S
2020-02-09 06:39:36,f62b0519-4215-48ee-bbb7-95ba8bb214a3,A
2020-02-09 06:46:10,f62b0519-4215-48ee-bbb7-95ba8bb214a3,S
2020-02-09 06:52:05,f62b0519-4215-48ee-bbb7-95ba8bb214a3,A
2020-02-09 07:02:42,f62b0519-4215-48ee-bbb7-95ba8bb214a3,S
2020-02-09 07:09:58,f62b0519-4215-48ee-bbb7-95ba8bb214a3,A
2020-02-09 07:12:25,f62b0519-4215-48ee-bbb7-95ba8bb214a3,S
2020-02-09 07:14:05,f62b0519-4215-48ee-bbb7-95ba8bb214a3,A
2020-02-09 07:18:43,f62b0519-4215-48ee-bbb7-95ba8bb214a3,S
2020-02-09 07:23:43,f62b0519-4215-48ee-bbb7-95ba8bb214a3,A
2020-02-09 07:33:39,f62b0519-4215-48ee-bbb7-95ba8bb214a3,S
2020-02-09 07:33:43,f62b0519-4215-48ee-bbb7-95ba8bb214a3,A
2020-02-09 07:38:23,f62b0519-4215-48ee-bbb7-95ba8bb214a3,S
2020-02-09 07:40:07,f62b0519-4215-48ee-bbb7-95ba8bb214a3,A
2020-02-09 07:46:50,f62b0519-4215-48ee-bbb7-95ba8bb214a3,S
2020-02-09 07:46:56,f62b0519-4215-48ee-bbb7-95ba8bb214a3,A
2020-02-09 07:49:39,f62b0519-4215-48ee-bbb7-95ba8bb214a3,S
2020-02-09 07:56:31,f62b0519-4215-48ee-bbb7-95ba8bb214a3,A
2020-02-09 08:17:26,f62b0519-4215-48ee-bbb7-95ba8bb214a3,S
2020-02-09 08:24:13,f62b0519-4215-48ee-bbb7-95ba8bb214a3,A
2020-02-09 05:38:29,10d7d282-07d8-4b4d-9924-7938a9581223,A
2020-02-09 05:41:47,10d7d282-07d8-4b4d-9924-7938a9581223,S
2020-02-09 05:55:58,10d7d282-07d8-4b4d-9924-7938a9581223,A
2020-02-09 06:01:39,10d7d282-07d8-4b4d-9924-7938a9581223,S
2020-02-09 06:19:59,10d7d282-07d8-4b4d-9924-7938a9581223,A
2020-02-09 06:20:54,10d7d282-07d8-4b4d-9924-7938a9581223,S
2020-02-09 06:28:46,10d7d282-07d8-4b4d-9924-7938a9581223,A
2020-02-09 06:42:20,10d7d282-07d8-4b4d-9924-7938a9581223,S
2020-02-09 06:43:10,10d7d282-07d8-4b4d-9924-7938a9581223,A
2020-02-09 06:45:50,10d7d282-07d8-4b4d-9924-7938a9581223,S
2020-02-09 06:59:28,10d7d282-07d8-4b4d-9924-7938a9581223,A
2020-02-09 07:02:31,10d7d282-07d8-4b4d-9924-7938a9581223,S
2020-02-09 07:10:10,10d7d282-07d8-4b4d-9924-7938a9581223,A
2020-02-09 07:12:05,10d7d282-07d8-4b4d-9924-7938a9581223,S
2020-02-09 07:23:23,10d7d282-07d8-4b4d-9924-7938a9581223,A
2020-02-09 07:25:13,10d7d282-07d8-4b4d-9924-7938a9581223,S
2020-02-09 07:25:55,10d7d282-07d8-4b4d-9924-7938a9581223,A
2020-02-09 07:35:25,10d7d282-07d8-4b4d-9924-7938a9581223,S
2020-02-09 07:38:40,10d7d282-07d8-4b4d-9924-7938a9581223,A
2020-02-09 07:39:16,10d7d282-07d8-4b4d-9924-7938a9581223,S
2020-02-09 07:39:48,10d7d282-07d8-4b4d-9924-7938a9581223,A
2020-02-09 07:44:51,10d7d282-07d8-4b4d-9924-7938a9581223,S
2020-02-09 07:45:17,10d7d282-07d8-4b4d-9924-7938a9581223,A
2020-02-09 07:45:40,10d7d282-07d8-4b4d-9924-7938a9581223,S
2020-02-09 07:46:24,10d7d282-07d8-4b4d-9924-7938a9581223,A
2020-02-09 07:48:16,10d7d282-07d8-4b4d-9924-7938a9581223,S
2020-02-09 07:49:08,10d7d282-07d8-4b4d-9924-7938a9581223,A
2020-02-09 07:59:42,10d7d282-07d8-4b4d-9924-7938a9581223,S
2020-02-09 08:00:54,10d7d282-07d8-4b4d-9924-7938a9581223,A
2020-02-09 08:07:46,10d7d282-07d8-4b4d-9924-7938a9581223,S
2020-02-09 08:16:26,10d7d282-07d8-4b4d-9924-7938a9581223,A
2020-02-09 08:19:34,10d7d282-07d8-4b4d-9924-7938a9581223,S
2020-02-09 08:23:10,10d7d282-07d8-4b4d-9924-7938a9581223,A
2020-02-09 08:23:25,10d7d282-07d8-4b4d-9924-7938a9581223,S
2020-02-09 05:52:07,f6205e49-b36d-4555-8dc5-3a03905ee89c,S
2020-02-09 06:02:14,f6205e49-b36d-4555-8dc5-3a03905ee89c,A
2020-02-09 06:09:01,f6205e49-b36d-4555-8dc5-3a03905ee89c,S
2020-02-09 06:10:15,f6205e49-b36d-4555-8dc5-3a03905ee89c,A
2020-02-09 06:11:09,f6205e49-b36d-4555-8dc5-3a03905ee89c,S
2020-02-09 06:17:01,f6205e49-b36d-4555-8dc5-3a03905ee89c,A
2020-02-09 06:26:23,f6205e49-b36d-4555-8dc5-3a03905ee89c,S
2020-02-09 06:35:26,f6205e49-b36d-4555-8dc5-3a03905ee89c,A
2020-02-09 06:37:56,f6205e49-b36d-4555-8dc5-3a03905ee89c,S
2020-02-09 06:38:03,f6205e49-b36d-4555-8dc5-3a03905ee89c,A
2020-02-09 06:40:46,f6205e49-b36d-4555-8dc5-3a03905ee89c,S
2020-02-09 06:50:18,f6205e49-b36d-4555-8dc5-3a03905ee89c,A
2020-02-09 06:50:58,f6205e49-b36d-4555-8dc5-3a03905ee89c,S
2020-02-09 06:55:24,f6205e49-b36d-4555-8dc5-3a03905ee89c,A
2020-02-09 07:03:25,f6205e49-b36d-4555-8dc5-3a03905ee89c,S
2020-02-09 07:09:03,f6205e49-b36d-4555-8dc5-3a03905ee89c,A
2020-02-09 07:09:46,f6205e49-b36d-4555-8dc5-3a03905ee89c,S
2020-02-09 07:18:36,f6205e49-b36d-4555-8dc5-3a03905ee89c,A
2020-02-09 07:23:51,f6205e49-b36d-4555-8dc5-3a03905ee89c,S
2020-02-09 07:26:43,f6205e49-b36d-4555-8dc5-3a03905ee89c,A
2020-02-09 07:27:09,f6205e49-b36d-4555-8dc5-3a03905ee89c,S
2020-02-09 07:32:15,f6205e49-b36d-4555-8dc5-3a03905ee89c,A
2020-02-09 07:33:19,f6205e49-b36d-4555-8dc5-3a03905ee89c,S
2020-02-09 07:35:15,f6205e49-b36d-4555-8dc5-3a03905ee89c,A
2020-02-09 07:42:49,f6205e49-b36d-4555-8dc5-3a03905ee89c,S
2020-02-09 07:44:14,f6205e49-b36d-4555-8dc5-3a03905ee89c,A
2020-02-09 07:54:08,f6205e49-b36d-4555-8dc5-3a03905ee89c,S
2020-02-09 07:55:56,f6205e49-b36d-4555-8dc5-3a03905ee89c,A
2020-02-09 08:00:50,f6205e49-b36d-4555-8dc5-3a03905ee89c,S
2020-02-09 08:05:14,f6205e49-b36d-4555-8dc5-3a03905ee89c,A
2020-02-09 08:13:58,f6205e49-b36d-4555-8dc5-3a03905ee89c,S
2020-02-09 08:15:29,f6205e49-b36d-4555-8dc5-3a03905ee89c,A
2020-02-09 08:17:23,f6205e49-b36d-4555-8dc5-3a03905ee89c,S
2020-02-09 08:19:50,f6205e49-b36d-4555-8dc5-3a03905ee89c,A
2020-02-09 08:24:04,f6205e49-b36d-4555-8dc5-3a03905ee89c,S
2020-02-09 05:52:09,9941dc43-1626-4c23-90ab-17f68aac8212,S
2020-02-09 06:09:55,9941dc43-1626-4c23-90ab-17f68aac8212,A
2020-02-09 06:14:20,9941dc43-1626-4c23-90ab-17f68aac8212,S
2020-02-09 06:14:27,9941dc43-1626-4c23-90ab-17f68aac8212,A
2020-02-09 06:15:52,9941dc43-1626-4c23-90ab-17f68aac8212,S
2020-02-09 06:17:01,9941dc43-1626-4c23-90ab-17f68aac8212,A
2020-02-09 06:19:14,9941dc43-1626-4c23-90ab-17f68aac8212,S
2020-02-09 06:26:54,9941dc43-1626-4c23-90ab-17f68aac8212,A
2020-02-09 06:40:50,9941dc43-1626-4c23-90ab-17f68aac8212,S
2020-02-09 06:47:21,9941dc43-1626-4c23-90ab-17f68aac8212,A
2020-02-09 06:53:06,9941dc43-1626-4c23-90ab-17f68aac8212,S
2020-02-09 06:55:19,9941dc43-1626-4c23-90ab-17f68aac8212,A
2020-02-09 07:01:03,9941dc43-1626-4c23-90ab-17f68aac8212,S
2020-02-09 07:12:53,9941dc43-1626-4c23-90ab-17f68aac8212,A
2020-02-09 07:32:33,9941dc43-1626-4c23-90ab-17f68aac8212,S
2020-02-09 07:36:26,9941dc43-1626-4c23-90ab-17f68aac8212,A
2020-02-09 07:37:39,9941dc43-1626-4c23-90ab-17f68aac8212,S
2020-02-09 07:39:54,9941dc43-1626-4c23-90ab-17f68aac8212,A
2020-02-09 07:47:55,9941dc43-1626-4c23-90ab-17f68aac8212,S
2020-02-09 07:51:08,9941dc43-1626-4c23-90ab-17f68aac8212,A
2020-02-09 07:51:36,9941dc43-1626-4c23-90ab-17f68aac8212,S
2020-02-09 08:01:08,9941dc43-1626-4c23-90ab-17f68aac8212,A
2020-02-09 08:07:46,9941dc43-1626-4c23-90ab-17f68aac8212,S
2020-02-09 08:27:44,9941dc43-1626-4c23-90ab-17f68aac8212,A
2020-02-09 05:34:05,d03fa4fd-42bf-4878-a3c0-d038e62ab5c4,S
2020-02-09 05:37:00,d03fa4fd-42bf-4878-a3c0-d038e62ab5c4,A
2020-02-09 05:38:06,d03fa4fd-42bf-4878-a3c0-d038e62ab5c4,S
2020-02-09 05:40:38,d03fa4fd-42bf-4878-a3c0-d038e62ab5c4,A
2020-02-09 05:41:37,d03fa4fd-42bf-4878-a3c0-d038e62ab5c4,S
2020-02-09 05:43:42,d03fa4fd-42bf-4878-a3c0-d038e62ab5c4,A
2020-02-09 05:45:05,d03fa4fd-42bf-4878-a3c0-d038e62ab5c4,S
2020-02-09 05:51:37,d03fa4fd-42bf-4878-a3c0-d038e62ab5c4,A
2020-02-09 05:53:05,d03fa4fd-42bf-4878-a3c0-d038e62ab5c4,S
2020-02-09 05:53:53,d03fa4fd-42bf-4878-a3c0-d038e62ab5c4,A
2020-02-09 05:54:23,d03fa4fd-42bf-4878-a3c0-d038e62ab5c4,S
2020-02-09 05:57:13,d03fa4fd-42bf-4878-a3c0-d038e62ab5c4,A
2020-02-09 06:02:20,d03fa4fd-42bf-4878-a3c0-d038e62ab5c4,S
2020-02-09 06:17:48,d03fa4fd-42bf-4878-a3c0-d038e62ab5c4,A
2020-02-09 06:26:50,d03fa4fd-42bf-4878-a3c0-d038e62ab5c4,S
2020-02-09 06:36:34,d03fa4fd-42bf-4878-a3c0-d038e62ab5c4,A
2020-02-09 06:45:04,d03fa4fd-42bf-4878-a3c0-d038e62ab5c4,S
2020-02-09 06:45:50,d03fa4fd-42bf-4878-a3c0-d038e62ab5c4,A
2020-02-09 06:46:09,d03fa4fd-42bf-4878-a3c0-d038e62ab5c4,S
2020-02-09 06:54:47,d03fa4fd-42bf-4878-a3c0-d038e62ab5c4,A
2020-02-09 06:57:46,d03fa4fd-42bf-4878-a3c0-d038e62ab5c4,S
2020-02-09 06:57:49,d03fa4fd-42bf-4878-a3c0-d038e62ab5c4,A
2020-02-09 06:59:00,d03fa4fd-42bf-4878-a3c0-d038e62ab5c4,S
2020-02-09 07:00:50,d03fa4fd-42bf-4878-a3c0-d038e62ab5c4,A
2020-02-09 07:02:41,d03fa4fd-42bf-4878-a3c0-d038e62ab5c4,S
2020-02-09 07:03:40,d03fa4fd-42bf-4878-a3c0-d038e62ab5c4,A
2020-02-09 07:05:23,d03fa4fd-42bf-4878-a3c0-d038e62ab5c4,S
2020-02-09 07:14:38,d03fa4fd-42bf-4878-a3c0-d038e62ab5c4,A
2020-02-09 07:16:45,d03fa4fd-42bf-4878-a3c0-d038e62ab5c4,S
2020-02-09 07:17:44,d03fa4fd-42bf-4878-a3c0-d038e62ab5c4,A
2020-02-09 07:20:11,d03fa4fd-42bf-4878-a3c0-d038e62ab5c4,S
2020-02-09 07:28:56,d03fa4fd-42bf-4878-a3c0-d038e62ab5c4,A
2020-02-09 07:31:14,d03fa4fd-42bf-4878-a3c0-d038e62ab5c4,S
2020-02-09 07:36:05,d03fa4fd-42bf-4878-a3c0-d038e62ab5c4,A
2020-02-09 07:36:13,d03fa4fd-42bf-4878-a3c0-d038e62ab5c4,S
2020-02-09 07:36:52,d03fa4fd-42bf-4878-a3c0-d038e62ab5c4,A
2020-02-09 07:40:21,d03fa4fd-42bf-4878-a3c0-d038e62ab5c4,S
2020-02-09 07:41:47,d03fa4fd-42bf-4878-a3c0-d038e62ab5c4,A
2020-02-09 07:47:27,d03fa4fd-42bf-4878-a3c0-d038e62ab5c4,S
2020-02-09 07:47:55,d03fa4fd-42bf-4878-a3c0-d038e62ab5c4,A
2020-02-09 08:03:35,d03fa4fd-42bf-4878-a3c0-d038e62ab5c4,S
2020-02-09 08:04:40,d03fa4fd-42bf-4878-a3c0-d038e62ab5c4,A
2020-02-09 08:06:43,d03fa4fd-42bf-4878-a3c0-d038e62ab5c4,S
2020-02-09 08:10:53,d03fa4fd-42bf-4878-a3c0-d038e62ab5c4,A
2020-02-09 08:17:26,d03fa4fd-42bf-4878-a3c0-d038e62ab5c4,S
2020-02-09 08:17:41,d03fa4fd-42bf-4878-a3c0-d038e62ab5c4,A
2020-02-09 06:03:06,381a5058-74d8-4e4c-bbea-05ebe4e517ae,A
2020-02-09 06:14:29,381a5058-74d8-4e4c-bbea-05ebe4e517ae,S
2020-02-09 06:14:36,381a5058-74d8-4e4c-bbea-05ebe4e517ae,A
2020-02-09 06:21:21,381a5058-74d8-4e4c-bbea-05ebe4e517ae,S
2020-02-09 06:22:22,381a5058-74d8-4e4c-bbea-05ebe4e517ae,A
2020-02-09 06:22:33,381a5058-74d8-4e4c-bbea-05ebe4e517ae,S
2020-02-09 06:24:37,381a5058-74d8-4e4c-bbea-05ebe4e517ae,A
2020-02-09 06:25:19,381a5058-74d8-4e4c-bbea-05ebe4e517ae,S
2020-02-09 06:28:41,381a5058-74d8-4e4c-bbea-05ebe4e517ae,A
2020-02-09 06:37:14,381a5058-74d8-4e4c-bbea-05ebe4e517ae,S
2020-02-09 06:46:33,381a5058-74d8-4e4c-bbea-05ebe4e517ae,A
2020-02-09 06:47:51,381a5058-74d8-4e4c-bbea-05ebe4e517ae,S
2020-02-09 06:55:06,381a5058-74d8-4e4c-bbea-05ebe4e517ae,A
2020-02-09 06:57:27,381a5058-74d8-4e4c-bbea-05ebe4e517ae,S
2020-02-09 07:00:19,381a5058-74d8-4e4c-bbea-05ebe4e517ae,A
2020-02-09 07:01:08,381a5058-74d8-4e4c-bbea-05ebe4e517ae,S
2020-02-09 07:01:21,381a5058-74d8-4e4c-bbea-05ebe4e517ae,A
2020-02-09 07:03:17,381a5058-74d8-4e4c-bbea-05ebe4e517ae,S
2020-02-09 07:06:27,381a5058-74d8-4e4c-bbea-05ebe4e517ae,A
2020-02-09 07:13:12,381a5058-74d8-4e4c-bbea-05ebe4e517ae,S
2020-02-09 07:15:10,381a5058-74d8-4e4c-bbea-05ebe4e517ae,A
2020-02-09 07:26:56,381a5058-74d8-4e4c-bbea-05ebe4e517ae,S
2020-02-09 07:34:57,381a5058-74d8-4e4c-bbea-05ebe4e517ae,A
2020-02-09 07:37:48,381a5058-74d8-4e4c-bbea-05ebe4e517ae,S
2020-02-09 07:40:20,381a5058-74d8-4e4c-bbea-05ebe4e517ae,A
2020-02-09 07:42:32,381a5058-74d8-4e4c-bbea-05ebe4e517ae,S
2020-02-09 07:43:41,381a5058-74d8-4e4c-bbea-05ebe4e517ae,A
2020-02-09 07:58:25,381a5058-74d8-4e4c-bbea-05ebe4e517ae,S
2020-02-09 08:01:06,381a5058-74d8-4e4c-bbea-05ebe4e517ae,A
2020-02-09 08:01:44,381a5058-74d8-4e4c-bbea-05ebe4e517ae,S
2020-02-09 08:04:40,381a5058-74d8-4e4c-bbea-05ebe4e517ae,A
2020-02-09 08:07:26,381a5058-74d8-4e4c-bbea-05ebe4e517ae,S
2020-02-09 08:07:55,381a5058-74d8-4e4c-bbea-05ebe4e517ae,A
2020-02-09 08:19:22,381a5058-74d8-4e4c-bbea-05ebe4e517ae,S
2020-02-09 08:23:31,381a5058-74d8-4e4c-bbea-05ebe4e517ae,A
2020-02-09 08:24:28,381a5058-74d8-4e4c-bbea-05ebe4e517ae,S
2020-02-09 08:25:21,381a5058-74d8-4e4c-bbea-05ebe4e517ae,A
2020-02-09 08:27:31,381a5058-74d8-4e4c-bbea-05ebe4e517ae,S
2020-02-09 08:29:04,381a5058-74d8-4e4c-bbea-05ebe4e517ae,A
2020-02-09 06:16:58,9363f887-5f4c-4f8e-838b-398fd32bd82e,S
2020-02-09 06:27:32,9363f887-5f4c-4f8e-838b-398fd32bd82e,A
2020-02-09 06:39:08,9363f887-5f4c-4f8e-838b-398fd32bd82e,S
2020-02-09 06:39:21,9363f887-5f4c-4f8e-838b-398fd32bd82e,A
2020-02-09 06:43:08,9363f887-5f4c-4f8e-838b-398fd32bd82e,S
2020-02-09 06:47:21,9363f887-5f4c-4f8e-838b-398fd32bd82e,A
2020-02-09 06:51:10,9363f887-5f4c-4f8e-838b-398fd32bd82e,S
2020-02-09 06:52:24,9363f887-5f4c-4f8e-838b-398fd32bd82e,A
2020-02-09 07:02:51,9363f887-5f4c-4f8e-838b-398fd32bd82e,S
2020-02-09 07:05:37,9363f887-5f4c-4f8e-838b-398fd32bd82e,A
2020-02-09 07:06:45,9363f887-5f4c-4f8e-838b-398fd32bd82e,S
2020-02-09 07:09:54,9363f887-5f4c-4f8e-838b-398fd32bd82e,A
2020-02-09 07:13:36,9363f887-5f4c-4f8e-838b-398fd32bd82e,S
2020-02-09 07:24:36,9363f887-5f4c-4f8e-838b-398fd32bd82e,A
2020-02-09 07:27:41,9363f887-5f4c-4f8e-838b-398fd32bd82e,S
2020-02-09 07:28:08,9363f887-5f4c-4f8e-838b-398fd32bd82e,A
2020-02-09 07:30:23,9363f887-5f4c-4f8e-838b-398fd32bd82e,S
2020-02-09 07:32:22,9363f887-5f4c-4f8e-838b-398fd32bd82e,A
2020-02-09 07:36:45,9363f887-5f4c-4f8e-838b-398fd32bd82e,S
2020-02-09 07:44:45,9363f887-5f4c-4f8e-838b-398fd32bd82e,A
2020-02-09 07:47:54,9363f887-5f4c-4f8e-838b-398fd32bd82e,S
2020-02-09 07:50:47,9363f887-5f4c-4f8e-838b-398fd32bd82e,A
2020-02-09 07:53:19,9363f887-5f4c-4f8e-838b-398fd32bd82e,S
2020-02-09 07:58:03,9363f887-5f4c-4f8e-838b-398fd32bd82e,A
2020-02-09 08:00:20,9363f887-5f4c-4f8e-838b-398fd32bd82e,S
2020-02-09 08:07:20,9363f887-5f4c-4f8e-838b-398fd32bd82e,A
2020-02-09 08:15:05,9363f887-5f4c-4f8e-838b-398fd32bd82e,S
2020-02-09 08:20:54,9363f887-5f4c-4f8e-838b-398fd32bd82e,A
2020-02-09 06:12:13,0239b47b-9d6e-4375-bf7f-3cf60fd83e38,S
2020-02-09 06:13:52,0239b47b-9d6e-4375-bf7f-3cf60fd83e38,A
2020-02-09 06:16:46,0239b47b-9d6e-4375-bf7f-3cf60fd83e38,S
2020-02-09 06:17:41,0239b47b-9d6e-4375-bf7f-3cf60fd83e38,A
2020-02-09 06:18:42,0239b47b-9d6e-4375-bf7f-3cf60fd83e38,S
2020-02-09 06:37:11,0239b47b-9d6e-4375-bf7f-3cf60fd83e38,A
2020-02-09 06:43:43,0239b47b-9d6e-4375-bf7f-3cf60fd83e38,S
2020-02-09 06:44:59,0239b47b-9d6e-4375-bf7f-3cf60fd83e38,A
2020-02-09 06:48:11,0239b47b-9d6e-4375-bf7f-3cf60fd83e38,S
2020-02-09 06:58:23,0239b47b-9d6e-4375-bf7f-3cf60fd83e38,A
2020-02-09 06:59:45,0239b47b-9d6e-4375-bf7f-3cf60fd83e38,S
2020-02-09 07:04:27,0239b47b-9d6e-4375-bf7f-3cf60fd83e38,A
2020-02-09 07:05:59,0239b47b-9d6e-4375-bf7f-3cf60fd83e38,S
2020-02-09 07:26:32,0239b47b-9d6e-4375-bf7f-3cf60fd83e38,A
2020-02-09 07:30:50,0239b47b-9d6e-4375-bf7f-3cf60fd83e38,S
2020-02-09 07:31:07,0239b47b-9d6e-4375-bf7f-3cf60fd83e38,A
2020-02-09 07:38:50,0239b47b-9d6e-4375-bf7f-3cf60fd83e38,S
2020-02-09 07:41:51,0239b47b-9d6e-4375-bf7f-3cf60fd83e38,A
2020-02-09 07:54:14,0239b47b-9d6e-4375-bf7f-3cf60fd83e38,S
2020-02-09 08:29:33,0239b47b-9d6e-4375-bf7f-3cf60fd83e38,A
2020-02-09 05:53:52,5f0a51d0-dd8c-4f51-8596-5372689c3357,S
2020-02-09 05:54:14,5f0a51d0-dd8c-4f51-8596-5372689c3357,A
2020-02-09 05:54:53,5f0a51d0-dd8c-4f51-8596-5372689c3357,S
2020-02-09 05:55:12,5f0a51d0-dd8c-4f51-8596-5372689c3357,A
2020-02-09 06:01:03,5f0a51d0-dd8c-4f51-8596-5372689c3357,S
2020-02-09 06:08:02,5f0a51d0-dd8c-4f51-8596-5372689c3357,A
2020-02-09 06:17:00,5f0a51d0-dd8c-4f51-8596-5372689c3357,S
2020-02-09 06:18:40,5f0a51d0-dd8c-4f51-8596-5372689c3357,A
2020-02-09 06:28:14,5f0a51d0-dd8c-4f51-8596-5372689c3357,S
2020-02-09 06:35:42,5f0a51d0-dd8c-4f51-8596-5372689c3357,A
2020-02-09 06:36:09,5f0a51d0-dd8c-4f51-8596-5372689c3357,S
2020-02-09 06:36:39,5f0a51d0-dd8c-4f51-8596-5372689c3357,A
2020-02-09 06:37:47,5f0a51d0-dd8c-4f51-8596-5372689c3357,S
2020-02-09 06:42:02,5f0a51d0-dd8c-4f51-8596-5372689c3357,A
2020-02-09 06:44:39,5f0a51d0-dd8c-4f51-8596-5372689c3357,S
2020-02-09 06:58:33,5f0a51d0-dd8c-4f51-8596-5372689c3357,A
2020-02-09 07:04:06,5f0a51d0-dd8c-4f51-8596-5372689c3357,S
2020-02-09 07:07:28,5f0a51d0-dd8c-4f51-8596-5372689c3357,A
2020-02-09 07:28:09,5f0a51d0-dd8c-4f51-8596-5372689c3357,S
2020-02-09 07:30:50,5f0a51d0-dd8c-4f51-8596-5372689c3357,A
2020-02-09 07:32:59,5f0a51d0-dd8c-4f51-8596-5372689c3357,S
2020-02-09 07:36:26,5f0a51d0-dd8c-4f51-8596-5372689c3357,A
2020-02-09 07:36:30,5f0a51d0-dd8c-4f51-8596-5372689c3357,S
2020-02-09 07:37:51,5f0a51d0-dd8c-4f51-8596-5372689c3357,A
2020-02-09 07:40:37,5f0a51d0-dd8c-4f51-8596-5372689c3357,S
2020-02-09 07:41:31,5f0a51d0-dd8c-4f51-8596-5372689c3357,A
2020-02-09 07:42:05,5f0a51d0-dd8c-4f51-8596-5372689c3357,S
2020-02-09 07:45:40,5f0a51d0-dd8c-4f51-8596-5372689c3357,A
2020-02-09 07:49:13,5f0a51d0-dd8c-4f51-8596-5372689c3357,S
2020-02-09 07:55:37,5f0a51d0-dd8c-4f51-8596-5372689c3357,A
2020-02-09 07:58:48,5f0a51d0-dd8c-4f51-8596-5372689c3357,S
2020-02-09 08:01:51,5f0a51d0-dd8c-4f51-8596-5372689c3357,A
2020-02-09 08:03:08,5f0a51d0-dd8c-4f51-8596-5372689c3357,S
2020-02-09 08:10:03,5f0a51d0-dd8c-4f51-8596-5372689c3357,A
2020-02-09 08:10:29,5f0a51d0-dd8c-4f51-8596-5372689c3357,S
2020-02-09 08:16:17,5f0a51d0-dd8c-4f51-8596-5372689c3357,A
2020-02-09 08:18:11,5f0a51d0-dd8c-4f51-8596-5372689c3357,S
2020-02-09 08:18:39,5f0a51d0-dd8c-4f51-8596-5372689c3357,A
2020-02-09 08:23:17,5f0a51d0-dd8c-4f51-8596-5372689c3357,S
2020-02-09 08:24:30,5f0a51d0-dd8c-4f51-8596-5372689c3357,A
2020-02-09 06:04:11,3caa1e12-53bc-4629-947c-daa4bfdbd761,A
2020-02-09 06:09:54,3caa1e12-53bc-4629-947c-daa4bfdbd761,S
2020-02-09 06:11:41,3caa1e12-53bc-4629-947c-daa4bfdbd761,A
2020-02-09 06:13:52,3caa1e12-53bc-4629-947c-daa4bfdbd761,S
2020-02-09 06:16:39,3caa1e12-53bc-4629-947c-daa4bfdbd761,A
2020-02-09 06:21:31,3caa1e12-53bc-4629-947c-daa4bfdbd761,S
2020-02-09 06:27:13,3caa1e12-53bc-4629-947c-daa4bfdbd761,A
2020-02-09 06:28:53,3caa1e12-53bc-4629-947c-daa4bfdbd761,S
2020-02-09 06:29:59,3caa1e12-53bc-4629-947c-daa4bfdbd761,A
2020-02-09 06:33:48,3caa1e12-53bc-4629-947c-daa4bfdbd761,S
2020-02-09 06:37:09,3caa1e12-53bc-4629-947c-daa4bfdbd761,A
2020-02-09 06:45:12,3caa1e12-53bc-4629-947c-daa4bfdbd761,S
2020-02-09 06:54:14,3caa1e12-53bc-4629-947c-daa4bfdbd761,A
2020-02-09 06:54:58,3caa1e12-53bc-4629-947c-daa4bfdbd761,S
2020-02-09 07:05:15,3caa1e12-53bc-4629-947c-daa4bfdbd761,A
2020-02-09 07:05:21,3caa1e12-53bc-4629-947c-daa4bfdbd761,S
2020-02-09 07:06:38,3caa1e12-53bc-4629-947c-daa4bfdbd761,A
2020-02-09 07:11:17,3caa1e12-53bc-4629-947c-daa4bfdbd761,S
2020-02-09 07:17:24,3caa1e12-53bc-4629-947c-daa4bfdbd761,A
2020-02-09 07:26:57,3caa1e12-53bc-4629-947c-daa4bfdbd761,S
2020-02-09 07:30:20,3caa1e12-53bc-4629-947c-daa4bfdbd761,A
2020-02-09 07:31:48,3caa1e12-53bc-4629-947c-daa4bfdbd761,S
2020-02-09 07:33:21,3caa1e12-53bc-4629-947c-daa4bfdbd761,A
2020-02-09 07:42:06,3caa1e12-53bc-4629-947c-daa4bfdbd761,S
2020-02-09 07:43:02,3caa1e12-53bc-4629-947c-daa4bfdbd761,A
2020-02-09 07:47:09,3caa1e12-53bc-4629-947c-daa4bfdbd761,S
2020-02-09 07:50:01,3caa1e12-53bc-4629-947c-daa4bfdbd761,A
2020-02-09 07:53:40,3caa1e12-53bc-4629-947c-daa4bfdbd761,S
2020-02-09 07:56:02,3caa1e12-53bc-4629-947c-daa4bfdbd761,A
2020-02-09 07:56:24,3caa1e12-53bc-4629-947c-daa4bfdbd761,S
2020-02-09 08:03:23,3caa1e12-53bc-4629-947c-daa4bfdbd761,A
2020-02-09 08:03:30,3caa1e12-53bc-4629-947c-daa4bfdbd761,S
2020-02-09 08:10:27,3caa1e12-53bc-4629-947c-daa4bfdbd761,A
2020-02-09 08:19:35,3caa1e12-53bc-4629-947c-daa4bfdbd761,S
2020-02-09 08:21:41,3caa1e12-53bc-4629-947c-daa4bfdbd761,A
2020-02-09 08:22:24,3caa1e12-53bc-4629-947c-daa4bfdbd761,S
2020-02-09 08:26:13,3caa1e12-53bc-4629-947c-daa4bfdbd761,A
2020-02-09 06:18:50,43bf7811-f03d-46be-93b0-d1c2396084c4,S
2020-02-09 06:25:46,43bf7811-f03d-46be-93b0-d1c2396084c4,A
2020-02-09 06:43:22,43bf7811-f03d-46be-93b0-d1c2396084c4,S
2020-02-09 07:00:25,43bf7811-f03d-46be-93b0-d1c2396084c4,A
2020-02-09 07:01:18,43bf7811-f03d-46be-93b0-d1c2396084c4,S
2020-02-09 07:06:41,43bf7811-f03d-46be-93b0-d1c2396084c4,A
2020-02-09 07:07:29,43bf7811-f03d-46be-93b0-d1c2396084c4,S
2020-02-09 07:16:11,43bf7811-f03d-46be-93b0-d1c2396084c4,A
2020-02-09 07:16:23,43bf7811-f03d-46be-93b0-d1c2396084c4,S
2020-02-09 07:17:19,43bf7811-f03d-46be-93b0-d1c2396084c4,A
2020-02-09 07:19:36,43bf7811-f03d-46be-93b0-d1c2396084c4,S
2020-02-09 07:28:24,43bf7811-f03d-46be-93b0-d1c2396084c4,A
2020-02-09 07:30:52,43bf7811-f03d-46be-93b0-d1c2396084c4,S
2020-02-09 07:38:53,43bf7811-f03d-46be-93b0-d1c2396084c4,A
2020-02-09 07:45:26,43bf7811-f03d-46be-93b0-d1c2396084c4,S
2020-02-09 08:08:14,43bf7811-f03d-46be-93b0-d1c2396084c4,A
2020-02-09 08:11:07,43bf7811-f03d-46be-93b0-d1c2396084c4,S
2020-02-09 08:11:16,43bf7811-f03d-46be-93b0-d1c2396084c4,A
2020-02-09 08:13:39,43bf7811-f03d-46be-93b0-d1c2396084c4,S
2020-02-09 08:16:59,43bf7811-f03d-46be-93b0-d1c2396084c4,A
2020-02-09 08:19:52,43bf7811-f03d-46be-93b0-d1c2396084c4,S
2020-02-09 08:21:13,43bf7811-f03d-46be-93b0-d1c2396084c4,A
2020-02-09 08:22:13,43bf7811-f03d-46be-93b0-d1c2396084c4,S
2020-02-09 08:23:11,43bf7811-f03d-46be-93b0-d1c2396084c4,A
2020-02-09 08:24:19,43bf7811-f03d-46be-93b0-d1c2396084c4,S
2020-02-09 08:24:57,43bf7811-f03d-46be-93b0-d1c2396084c4,A
2020-02-09 05:39:34,298d2482-d227-43cc-b3df-5926ea778071,S
2020-02-09 05:43:14,298d2482-d227-43cc-b3df-5926ea778071,A
2020-02-09 05:45:43,298d2482-d227-43cc-b3df-5926ea778071,S
2020-02-09 05:50:25,298d2482-d227-43cc-b3df-5926ea778071,A
2020-02-09 05:59:05,298d2482-d227-43cc-b3df-5926ea778071,S
2020-02-09 06:02:49,298d2482-d227-43cc-b3df-5926ea778071,A
2020-02-09 06:04:27,298d2482-d227-43cc-b3df-5926ea778071,S
2020-02-09 06:12:58,298d2482-d227-43cc-b3df-5926ea778071,A
2020-02-09 06:21:23,298d2482-d227-43cc-b3df-5926ea778071,S
2020-02-09 06:28:59,298d2482-d227-43cc-b3df-5926ea778071,A
2020-02-09 06:30:44,298d2482-d227-43cc-b3df-5926ea778071,S
2020-02-09 06:35:15,298d2482-d227-43cc-b3df-5926ea778071,A
2020-02-09 06:36:20,298d2482-d227-43cc-b3df-5926ea778071,S
2020-02-09 06:40:21,298d2482-d227-43cc-b3df-5926ea778071,A
2020-02-09 06:47:52,298d2482-d227-43cc-b3df-5926ea778071,S
2020-02-09 06:50:10,298d2482-d227-43cc-b3df-5926ea778071,A
2020-02-09 06:55:22,298d2482-d227-43cc-b3df-5926ea778071,S
2020-02-09 07:03:27,298d2482-d227-43cc-b3df-5926ea778071,A
2020-02-09 07:10:51,298d2482-d227-43cc-b3df-5926ea778071,S
2020-02-09 07:11:13,298d2482-d227-43cc-b3df-5926ea778071,A
2020-02-09 07:16:46,298d2482-d227-43cc-b3df-5926ea778071,S
2020-02-09 07:27:50,298d2482-d227-43cc-b3df-5926ea778071,A
2020-02-09 07:32:14,298d2482-d227-43cc-b3df-5926ea778071,S
2020-02-09 07:35:01,298d2482-d227-43cc-b3df-5926ea778071,A
2020-02-09 07:41:43,298d2482-d227-43cc-b3df-5926ea778071,S
2020-02-09 07:42:34,298d2482-d227-43cc-b3df-5926ea778071,A
2020-02-09 07:45:19,298d2482-d227-43cc-b3df-5926ea778071,S
2020-02-09 07:49:10,298d2482-d227-43cc-b3df-5926ea778071,A
2020-02-09 07:55:38,298d2482-d227-43cc-b3df-5926ea778071,S
2020-02-09 07:58:43,298d2482-d227-43cc-b3df-5926ea778071,A
2020-02-09 08:11:03,298d2482-d227-43cc-b3df-5926ea778071,S
2020-02-09 08:15:49,298d2482-d227-43cc-b3df-5926ea778071,A
2020-02-09 08:17:53,298d2482-d227-43cc-b3df-5926ea778071,S
2020-02-09 08:21:42,298d2482-d227-43cc-b3df-5926ea778071,A
2020-02-09 08:24:25,298d2482-d227-43cc-b3df-5926ea778071,S
2020-02-09 08:25:56,298d2482-d227-43cc-b3df-5926ea778071,A
2020-02-09 05:40:43,58eece39-2fc8-43ab-92d3-d258bdd776ab,S
2020-02-09 05:41:16,58eece39-2fc8-43ab-92d3-d258bdd776ab,A
2020-02-09 05:42:48,58eece39-2fc8-43ab-92d3-d258bdd776ab,S
2020-02-09 05:46:53,58eece39-2fc8-43ab-92d3-d258bdd776ab,A
2020-02-09 06:01:51,58eece39-2fc8-43ab-92d3-d258bdd776ab,S
2020-02-09 06:02:41,58eece39-2fc8-43ab-92d3-d258bdd776ab,A
2020-02-09 06:07:59,58eece39-2fc8-43ab-92d3-d258bdd776ab,S
2020-02-09 06:16:58,58eece39-2fc8-43ab-92d3-d258bdd776ab,A
2020-02-09 06:20:22,58eece39-2fc8-43ab-92d3-d258bdd776ab,S
2020-02-09 06:20:51,58eece39-2fc8-43ab-92d3-d258bdd776ab,A
2020-02-09 06:41:49,58eece39-2fc8-43ab-92d3-d258bdd776ab,S
2020-02-09 06:43:55,58eece39-2fc8-43ab-92d3-d258bdd776ab,A
2020-02-09 06:49:24,58eece39-2fc8-43ab-92d3-d258bdd776ab,S
2020-02-09 06:55:11,58eece39-2fc8-43ab-92d3-d258bdd776ab,A
2020-02-09 06:55:59,58eece39-2fc8-43ab-92d3-d258bdd776ab,S
2020-02-09 06:57:56,58eece39-2fc8-43ab-92d3-d258bdd776ab,A
2020-02-09 06:59:32,58eece39-2fc8-43ab-92d3-d258bdd776ab,S
2020-02-09 07:13:45,58eece39-2fc8-43ab-92d3-d258bdd776ab,A
2020-02-09 07:15:51,58eece39-2fc8-43ab-92d3-d258bdd776ab,S
2020-02-09 07:18:18,58eece39-2fc8-43ab-92d3-d258bdd776ab,A
2020-02-09 07:25:56,58eece39-2fc8-43ab-92d3-d258bdd776ab,S
2020-02-09 07:29:36,58eece39-2fc8-43ab-92d3-d258bdd776ab,A
2020-02-09 07:32:58,58eece39-2fc8-43ab-92d3-d258bdd776ab,S
2020-02-09 07:43:48,58eece39-2fc8-43ab-92d3-d258bdd776ab,A
2020-02-09 07:43:52,58eece39-2fc8-43ab-92d3-d258bdd776ab,S
2020-02-09 07:53:23,58eece39-2fc8-43ab-92d3-d258bdd776ab,A
2020-02-09 08:13:51,58eece39-2fc8-43ab-92d3-d258bdd776ab,S
2020-02-09 08:21:06,58eece39-2fc8-43ab-92d3-d258bdd776ab,A
2020-02-09 08:25:05,58eece39-2fc8-43ab-92d3-d258bdd776ab,S
2020-02-09 05:29:09,89852766-1751-44da-8fbb-6f3efe661e26,A
2020-02-09 05:32:01,89852766-1751-44da-8fbb-6f3efe661e26,S
2020-02-09 05:33:21,89852766-1751-44da-8fbb-6f3efe661e26,A
2020-02-09 05:43:35,89852766-1751-44da-8fbb-6f3efe661e26,S
2020-02-09 05:43:49,89852766-1751-44da-8fbb-6f3efe661e26,A
2020-02-09 05:44:54,89852766-1751-44da-8fbb-6f3efe661e26,S
2020-02-09 05:46:09,89852766-1751-44da-8fbb-6f3efe661e26,A
2020-02-09 05:49:47,89852766-1751-44da-8fbb-6f3efe661e26,S
2020-02-09 05:52:31,89852766-1751-44da-8fbb-6f3efe661e26,A
2020-02-09 05:57:41,89852766-1751-44da-8fbb-6f3efe661e26,S
2020-02-09 05:58:59,89852766-1751-44da-8fbb-6f3efe661e26,A
2020-02-09 06:04:58,89852766-1751-44da-8fbb-6f3efe661e26,S
2020-02-09 06:16:15,89852766-1751-44da-8fbb-6f3efe661e26,A
2020-02-09 06:19:55,89852766-1751-44da-8fbb-6f3efe661e26,S
2020-02-09 06:24:27,89852766-1751-44da-8fbb-6f3efe661e26,A
2020-02-09 06:35:55,89852766-1751-44da-8fbb-6f3efe661e26,S
2020-02-09 06:49:21,89852766-1751-44da-8fbb-6f3efe661e26,A
2020-02-09 06:50:20,89852766-1751-44da-8fbb-6f3efe661e26,S
2020-02-09 06:51:53,89852766-1751-44da-8fbb-6f3efe661e26,A
2020-02-09 06:52:39,89852766-1751-44da-8fbb-6f3efe661e26,S
2020-02-09 06:53:48,89852766-1751-44da-8fbb-6f3efe661e26,A
2020-02-09 07:02:24,89852766-1751-44da-8fbb-6f3efe661e26,S
2020-02-09 07:04:22,89852766-1751-44da-8fbb-6f3efe661e26,A
2020-02-09 07:06:10,89852766-1751-44da-8fbb-6f3efe661e26,S
2020-02-09 07:10:57,89852766-1751-44da-8fbb-6f3efe661e26,A
2020-02-09 07:19:51,89852766-1751-44da-8fbb-6f3efe661e26,S
2020-02-09 07:30:43,89852766-1751-44da-8fbb-6f3efe661e26,A
2020-02-09 07:34:39,89852766-1751-44da-8fbb-6f3efe661e26,S
2020-02-09 07:34:56,89852766-1751-44da-8fbb-6f3efe661e26,A
2020-02-09 07:40:36,89852766-1751-44da-8fbb-6f3efe661e26,S
2020-02-09 07:47:01,89852766-1751-44da-8fbb-6f3efe661e26,A
2020-02-09 07:47:02,89852766-1751-44da-8fbb-6f3efe661e26,S
2020-02-09 07:49:00,89852766-1751-44da-8fbb-6f3efe661e26,A
2020-02-09 07:51:38,89852766-1751-44da-8fbb-6f3efe661e26,S
2020-02-09 07:53:28,89852766-1751-44da-8fbb-6f3efe661e26,A
2020-02-09 07:56:29,89852766-1751-44da-8fbb-6f3efe661e26,S
2020-02-09 07:59:17,89852766-1751-44da-8fbb-6f3efe661e26,A
2020-02-09 08:00:45,89852766-1751-44da-8fbb-6f3efe661e26,S
2020-02-09 08:04:12,89852766-1751-44da-8fbb-6f3efe661e26,A
2020-02-09 08:05:26,89852766-1751-44da-8fbb-6f3efe661e26,S
2020-02-09 08:07:54,89852766-1751-44da-8fbb-6f3efe661e26,A
2020-02-09 08:13:05,89852766-1751-44da-8fbb-6f3efe661e26,S
2020-02-09 08:18:59,89852766-1751-44da-8fbb-6f3efe661e26,A
2020-02-09 06:06:38,9711c49f-40f9-4b92-84a5-b721d448ae58,S
2020-02-09 06:07:16,9711c49f-40f9-4b92-84a5-b721d448ae58,A
2020-02-09 06:17:46,9711c49f-40f9-4b92-84a5-b721d448ae58,S
2020-02-09 06:18:00,9711c49f-40f9-4b92-84a5-b721d448ae58,A
2020-02-09 06:18:37,9711c49f-40f9-4b92-84a5-b721d448ae58,S
2020-02-09 06:25:16,9711c49f-40f9-4b92-84a5-b721d448ae58,A
2020-02-09 06:30:11,9711c49f-40f9-4b92-84a5-b721d448ae58,S
2020-02-09 06:38:04,9711c49f-40f9-4b92-84a5-b721d448ae58,A
2020-02-09 06:42:52,9711c49f-40f9-4b92-84a5-b721d448ae58,S
2020-02-09 07:14:04,9711c49f-40f9-4b92-84a5-b721d448ae58,A
2020-02-09 07:19:07,9711c49f-40f9-4b92-84a5-b721d448ae58,S
2020-02-09 07:19:53,9711c49f-40f9-4b92-84a5-b721d448ae58,A
2020-02-09 07:40:19,9711c49f-40f9-4b92-84a5-b721d448ae58,S
2020-02-09 07:42:47,9711c49f-40f9-4b92-84a5-b721d448ae58,A
2020-02-09 07:48:00,9711c49f-40f9-4b92-84a5-b721d448ae58,S
2020-02-09 07:56:39,9711c49f-40f9-4b92-84a5-b721d448ae58,A
2020-02-09 08:08:11,9711c49f-40f9-4b92-84a5-b721d448ae58,S
2020-02-09 08:09:33,9711c49f-40f9-4b92-84a5-b721d448ae58,A
2020-02-09 08:11:22,9711c49f-40f9-4b92-84a5-b721d448ae58,S
2020-02-09 08:17:18,9711c49f-40f9-4b92-84a5-b721d448ae58,A
2020-02-09 06:15:49,8ca66946-673c-48a3-9e6d-58279bb29570,S
2020-02-09 06:16:16,8ca66946-673c-48a3-9e6d-58279bb29570,A
2020-02-09 06:31:55,8ca66946-673c-48a3-9e6d-58279bb29570,S
2020-02-09 06:33:05,8ca66946-673c-48a3-9e6d-58279bb29570,A
2020-02-09 06:46:31,8ca66946-673c-48a3-9e6d-58279bb29570,S
2020-02-09 06:49:27,8ca66946-673c-48a3-9e6d-58279bb29570,A
2020-02-09 06:50:51,8ca66946-673c-48a3-9e6d-58279bb29570,S
2020-02-09 07:10:34,8ca66946-673c-48a3-9e6d-58279bb29570,A
2020-02-09 07:10:47,8ca66946-673c-48a3-9e6d-58279bb29570,S
2020-02-09 07:17:18,8ca66946-673c-48a3-9e6d-58279bb29570,A
2020-02-09 07:20:49,8ca66946-673c-48a3-9e6d-58279bb29570,S
2020-02-09 07:24:04,8ca66946-673c-48a3-9e6d-58279bb29570,A
2020-02-09 07:29:58,8ca66946-673c-48a3-9e6d-58279bb29570,S
2020-02-09 07:49:52,8ca66946-673c-48a3-9e6d-58279bb29570,A
2020-02-09 07:53:31,8ca66946-673c-48a3-9e6d-58279bb29570,S
2020-02-09 08:05:45,8ca66946-673c-48a3-9e6d-58279bb29570,A
2020-02-09 08:11:27,8ca66946-673c-48a3-9e6d-58279bb29570,S
2020-02-09 08:16:59,8ca66946-673c-48a3-9e6d-58279bb29570,A
2020-02-09 08:25:21,8ca66946-673c-48a3-9e6d-58279bb29570,S
2020-02-09 05:52:48,ba40c9fe-bdf7-48da-afbf-fde2d020002d,A
2020-02-09 06:00:33,ba40c9fe-bdf7-48da-afbf-fde2d020002d,S
2020-02-09 06:04:23,ba40c9fe-bdf7-48da-afbf-fde2d020002d,A
2020-02-09 06:23:24,ba40c9fe-bdf7-48da-afbf-fde2d020002d,S
2020-02-09 06:30:08,ba40c9fe-bdf7-48da-afbf-fde2d020002d,A
2020-02-09 06:35:58,ba40c9fe-bdf7-48da-afbf-fde2d020002d,S
2020-02-09 06:43:01,ba40c9fe-bdf7-48da-afbf-fde2d020002d,A
2020-02-09 06:50:02,ba40c9fe-bdf7-48da-afbf-fde2d020002d,S
2020-02-09 06:50:17,ba40c9fe-bdf7-48da-afbf-fde2d020002d,A
2020-02-09 06:51:27,ba40c9fe-bdf7-48da-afbf-fde2d020002d,S
2020-02-09 06:53:59,ba40c9fe-bdf7-48da-afbf-fde2d020002d,A
2020-02-09 06:58:40,ba40c9fe-bdf7-48da-afbf-fde2d020002d,S
2020-02-09 06:58:40,ba40c9fe-bdf7-48da-afbf-fde2d020002d,A
2020-02-09 06:59:37,ba40c9fe-bdf7-48da-afbf-fde2d020002d,S
2020-02-09 07:01:57,ba40c9fe-bdf7-48da-afbf-fde2d020002d,A
2020-02-09 07:04:11,ba40c9fe-bdf7-48da-afbf-fde2d020002d,S
2020-02-09 07:11:36,ba40c9fe-bdf7-48da-afbf-fde2d020002d,A
2020-02-09 07:23:39,ba40c9fe-bdf7-48da-afbf-fde2d020002d,S
2020-02-09 07:49:29,ba40c9fe-bdf7-48da-afbf-fde2d020002d,A
2020-02-09 07:52:41,ba40c9fe-bdf7-48da-afbf-fde2d020002d,S
2020-02-09 07:57:51,ba40c9fe-bdf7-48da-afbf-fde2d020002d,A
2020-02-09 07:58:48,ba40c9fe-bdf7-48da-afbf-fde2d020002d,S
2020-02-09 08:01:08,ba40c9fe-bdf7-48da-afbf-fde2d020002d,A
2020-02-09 08:18:34,ba40c9fe-bdf7-48da-afbf-fde2d020002d,S
2020-02-09 08:23:28,ba40c9fe-bdf7-48da-afbf-fde2d020002d,A
2020-02-09 08:24:13,ba40c9fe-bdf7-48da-afbf-fde2d020002d,S
2020-02-09 08:25:05,ba40c9fe-bdf7-48da-afbf-fde2d020002d,A
2020-02-09 08:27:48,ba40c9fe-bdf7-48da-afbf-fde2d020002d,S
2020-02-09 08:28:40,ba40c9fe-bdf7-48da-afbf-fde2d020002d,A
2020-02-09 06:00:22,b572b6f8-9e7a-45cc-901e-b83355eb17f0,A
2020-02-09 06:01:33,b572b6f8-9e7a-45cc-901e-b83355eb17f0,S
2020-02-09 06:06:05,b572b6f8-9e7a-45cc-901e-b83355eb17f0,A
2020-02-09 06:06:45,b572b6f8-9e7a-45cc-901e-b83355eb17f0,S
2020-02-09 06:16:48,b572b6f8-9e7a-45cc-901e-b83355eb17f0,A
2020-02-09 06:20:24,b572b6f8-9e7a-45cc-901e-b83355eb17f0,S
2020-02-09 06:31:40,b572b6f8-9e7a-45cc-901e-b83355eb17f0,A
2020-02-09 07:04:02,b572b6f8-9e7a-45cc-901e-b83355eb17f0,S
2020-02-09 07:05:43,b572b6f8-9e7a-45cc-901e-b83355eb17f0,A
2020-02-09 07:06:32,b572b6f8-9e7a-45cc-901e-b83355eb17f0,S
2020-02-09 07:09:56,b572b6f8-9e7a-45cc-901e-b83355eb17f0,A
2020-02-09 07:21:22,b572b6f8-9e7a-45cc-901e-b83355eb17f0,S
2020-02-09 07:26:04,b572b6f8-9e7a-45cc-901e-b83355eb17f0,A
2020-02-09 07:29:25,b572b6f8-9e7a-45cc-901e-b83355eb17f0,S
2020-02-09 07:35:43,b572b6f8-9e7a-45cc-901e-b83355eb17f0,A
2020-02-09 07:36:27,b572b6f8-9e7a-45cc-901e-b83355eb17f0,S
2020-02-09 07:40:07,b572b6f8-9e7a-45cc-901e-b83355eb17f0,A
2020-02-09 07:42:43,b572b6f8-9e7a-45cc-901e-b83355eb17f0,S
2020-02-09 07:51:18,b572b6f8-9e7a-45cc-901e-b83355eb17f0,A
2020-02-09 07:55:56,b572b6f8-9e7a-45cc-901e-b83355eb17f0,S
2020-02-09 07:57:07,b572b6f8-9e7a-45cc-901e-b83355eb17f0,A
2020-02-09 08:01:57,b572b6f8-9e7a-45cc-901e-b83355eb17f0,S
2020-02-09 08:05:21,b572b6f8-9e7a-45cc-901e-b83355eb17f0,A
2020-02-09 08:10:33,b572b6f8-9e7a-45cc-901e-b83355eb17f0,S
2020-02-09 08:12:01,b572b6f8-9e7a-45cc-901e-b83355eb17f0,A
2020-02-09 08:12:24,b572b6f8-9e7a-45cc-901e-b83355eb17f0,S
2020-02-09 08:16:52,b572b6f8-9e7a-45cc-901e-b83355eb17f0,A
2020-02-09 05:59:26,01b922cb-80ee-43f9-9c90-be4cf9330d84,A
2020-02-09 06:02:16,01b922cb-80ee-43f9-9c90-be4cf9330d84,S
2020-02-09 06:12:02,01b922cb-80ee-43f9-9c90-be4cf9330d84,A
2020-02-09 06:18:09,01b922cb-80ee-43f9-9c90-be4cf9330d84,S
2020-02-09 06:27:20,01b922cb-80ee-43f9-9c90-be4cf9330d84,A
2020-02-09 06:36:27,01b922cb-80ee-43f9-9c90-be4cf9330d84,S
2020-02-09 06:54:55,01b922cb-80ee-43f9-9c90-be4cf9330d84,A
2020-02-09 06:56:24,01b922cb-80ee-43f9-9c90-be4cf9330d84,S
2020-02-09 06:59:56,01b922cb-80ee-43f9-9c90-be4cf9330d84,A
2020-02-09 07:09:00,01b922cb-80ee-43f9-9c90-be4cf9330d84,S
2020-02-09 07:13:13,01b922cb-80ee-43f9-9c90-be4cf9330d84,A
2020-02-09 07:15:51,01b922cb-80ee-43f9-9c90-be4cf9330d84,S
2020-02-09 07:25:21,01b922cb-80ee-43f9-9c90-be4cf9330d84,A
2020-02-09 07:30:20,01b922cb-80ee-43f9-9c90-be4cf9330d84,S
2020-02-09 07:32:32,01b922cb-80ee-43f9-9c90-be4cf9330d84,A
2020-02-09 07:33:18,01b922cb-80ee-43f9-9c90-be4cf9330d84,S
2020-02-09 07:36:25,01b922cb-80ee-43f9-9c90-be4cf9330d84,A
2020-02-09 07:40:41,01b922cb-80ee-43f9-9c90-be4cf9330d84,S
2020-02-09 07:50:33,01b922cb-80ee-43f9-9c90-be4cf9330d84,A
2020-02-09 08:08:33,01b922cb-80ee-43f9-9c90-be4cf9330d84,S
2020-02-09 08:09:06,01b922cb-80ee-43f9-9c90-be4cf9330d84,A
2020-02-09 08:12:30,01b922cb-80ee-43f9-9c90-be4cf9330d84,S
2020-02-09 08:15:17,01b922cb-80ee-43f9-9c90-be4cf9330d84,A
2020-02-09 08:26:24,01b922cb-80ee-43f9-9c90-be4cf9330d84,S
2020-02-09 08:29:34,01b922cb-80ee-43f9-9c90-be4cf9330d84,A
2020-02-09 05:56:21,9c9c8fe2-f3ef-4e1a-99fd-898a2a86820a,A
2020-02-09 06:01:21,9c9c8fe2-f3ef-4e1a-99fd-898a2a86820a,S
2020-02-09 06:03:41,9c9c8fe2-f3ef-4e1a-99fd-898a2a86820a,A
2020-02-09 06:13:58,9c9c8fe2-f3ef-4e1a-99fd-898a2a86820a,S
2020-02-09 06:22:41,9c9c8fe2-f3ef-4e1a-99fd-898a2a86820a,A
2020-02-09 06:24:40,9c9c8fe2-f3ef-4e1a-99fd-898a2a86820a,S
2020-02-09 06:39:20,9c9c8fe2-f3ef-4e1a-99fd-898a2a86820a,A
2020-02-09 06:39:33,9c9c8fe2-f3ef-4e1a-99fd-898a2a86820a,S
2020-02-09 06:42:15,9c9c8fe2-f3ef-4e1a-99fd-898a2a86820a,A
2020-02-09 06:45:36,9c9c8fe2-f3ef-4e1a-99fd-898a2a86820a,S
2020-02-09 06:46:57,9c9c8fe2-f3ef-4e1a-99fd-898a2a86820a,A
2020-02-09 06:47:19,9c9c8fe2-f3ef-4e1a-99fd-898a2a86820a,S
2020-02-09 06:49:47,9c9c8fe2-f3ef-4e1a-99fd-898a2a86820a,A
2020-02-09 06:51:33,9c9c8fe2-f3ef-4e1a-99fd-898a2a86820a,S
2020-02-09 06:52:34,9c9c8fe2-f3ef-4e1a-99fd-898a2a86820a,A
2020-02-09 06:54:51,9c9c8fe2-f3ef-4e1a-99fd-898a2a86820a,S
2020-02-09 07:01:47,9c9c8fe2-f3ef-4e1a-99fd-898a2a86820a,A
2020-02-09 07:03:59,9c9c8fe2-f3ef-4e1a-99fd-898a2a86820a,S
2020-02-09 07:07:37,9c9c8fe2-f3ef-4e1a-99fd-898a2a86820a,A
2020-02-09 07:10:53,9c9c8fe2-f3ef-4e1a-99fd-898a2a86820a,S
2020-02-09 07:13:23,9c9c8fe2-f3ef-4e1a-99fd-898a2a86820a,A
2020-02-09 07:14:05,9c9c8fe2-f3ef-4e1a-99fd-898a2a86820a,S
2020-02-09 07:18:27,9c9c8fe2-f3ef-4e1a-99fd-898a2a86820a,A
2020-02-09 07:25:57,9c9c8fe2-f3ef-4e1a-99fd-898a2a86820a,S
2020-02-09 07:29:55,9c9c8fe2-f3ef-4e1a-99fd-898a2a86820a,A
2020-02-09 07:32:41,9c9c8fe2-f3ef-4e1a-99fd-898a2a86820a,S
2020-02-09 07:36:05,9c9c8fe2-f3ef-4e1a-99fd-898a2a86820a,A
2020-02-09 07:41:07,9c9c8fe2-f3ef-4e1a-99fd-898a2a86820a,S
2020-02-09 07:41:50,9c9c8fe2-f3ef-4e1a-99fd-898a2a86820a,A
2020-02-09 07:45:49,9c9c8fe2-f3ef-4e1a-99fd-898a2a86820a,S
2020-02-09 07:47:00,9c9c8fe2-f3ef-4e1a-99fd-898a2a86820a,A
2020-02-09 07:53:43,9c9c8fe2-f3ef-4e1a-99fd-898a2a86820a,S
2020-02-09 07:55:59,9c9c8fe2-f3ef-4e1a-99fd-898a2a86820a,A
2020-02-09 07:57:53,9c9c8fe2-f3ef-4e1a-99fd-898a2a86820a,S
2020-02-09 07:59:33,9c9c8fe2-f3ef-4e1a-99fd-898a2a86820a,A
2020-02-09 08:09:28,9c9c8fe2-f3ef-4e1a-99fd-898a2a86820a,S
2020-02-09 05:48:21,60587556-73dd-4a56-9e9b-7634aa8dcf42,S
2020-02-09 05:53:53,60587556-73dd-4a56-9e9b-7634aa8dcf42,A
2020-02-09 05:55:14,60587556-73dd-4a56-9e9b-7634aa8dcf42,S
2020-02-09 06:09:36,60587556-73dd-4a56-9e9b-7634aa8dcf42,A
2020-02-09 06:11:49,60587556-73dd-4a56-9e9b-7634aa8dcf42,S
2020-02-09 06:14:12,60587556-73dd-4a56-9e9b-7634aa8dcf42,A
2020-02-09 06:15:05,60587556-73dd-4a56-9e9b-7634aa8dcf42,S
2020-02-09 06:18:36,60587556-73dd-4a56-9e9b-7634aa8dcf42,A
2020-02-09 06:19:57,60587556-73dd-4a56-9e9b-7634aa8dcf42,S
2020-02-09 06:23:34,60587556-73dd-4a56-9e9b-7634aa8dcf42,A
2020-02-09 06:26:10,60587556-73dd-4a56-9e9b-7634aa8dcf42,S
2020-02-09 06:26:39,60587556-73dd-4a56-9e9b-7634aa8dcf42,A
2020-02-09 06:46:59,60587556-73dd-4a56-9e9b-7634aa8dcf42,S
2020-02-09 06:51:38,60587556-73dd-4a56-9e9b-7634aa8dcf42,A
2020-02-09 06:52:51,60587556-73dd-4a56-9e9b-7634aa8dcf42,S
2020-02-09 06:54:39,60587556-73dd-4a56-9e9b-7634aa8dcf42,A
2020-02-09 07:03:09,60587556-73dd-4a56-9e9b-7634aa8dcf42,S
2020-02-09 07:04:28,60587556-73dd-4a56-9e9b-7634aa8dcf42,A
2020-02-09 07:13:05,60587556-73dd-4a56-9e9b-7634aa8dcf42,A
2020-02-09 07:14:19,60587556-73dd-4a56-9e9b-7634aa8dcf42,S
2020-02-09 07:15:09,60587556-73dd-4a56-9e9b-7634aa8dcf42,A
2020-02-09 07:18:56,60587556-73dd-4a56-9e9b-7634aa8dcf42,S
2020-02-09 07:20:03,60587556-73dd-4a56-9e9b-7634aa8dcf42,A
2020-02-09 07:20:15,60587556-73dd-4a56-9e9b-7634aa8dcf42,S
2020-02-09 07:25:48,60587556-73dd-4a56-9e9b-7634aa8dcf42,A
2020-02-09 07:31:07,60587556-73dd-4a56-9e9b-7634aa8dcf42,S
2020-02-09 07:43:22,60587556-73dd-4a56-9e9b-7634aa8dcf42,A
2020-02-09 07:43:38,60587556-73dd-4a56-9e9b-7634aa8dcf42,S
2020-02-09 07:47:48,60587556-73dd-4a56-9e9b-7634aa8dcf42,A
2020-02-09 07:57:24,60587556-73dd-4a56-9e9b-7634aa8dcf42,S
2020-02-09 08:09:30,60587556-73dd-4a56-9e9b-7634aa8dcf42,A
2020-02-09 08:12:59,60587556-73dd-4a56-9e9b-7634aa8dcf42,S
2020-02-09 08:17:22,60587556-73dd-4a56-9e9b-7634aa8dcf42,A
2020-02-09 08:18:46,60587556-73dd-4a56-9e9b-7634aa8dcf42,S
2020-02-09 08:19:22,60587556-73dd-4a56-9e9b-7634aa8dcf42,A
2020-02-09 08:26:22,60587556-73dd-4a56-9e9b-7634aa8dcf42,S
2020-02-09 08:27:51,60587556-73dd-4a56-9e9b-7634aa8dcf42,A
2020-02-09 08:28:22,60587556-73dd-4a56-9e9b-7634aa8dcf42,S
2020-02-09 05:33:06,fca7cd97-4079-4733-a454-300c21fbbe4a,S
2020-02-09 05:37:05,fca7cd97-4079-4733-a454-300c21fbbe4a,A
2020-02-09 05:37:48,fca7cd97-4079-4733-a454-300c21fbbe4a,S
2020-02-09 05:38:23,fca7cd97-4079-4733-a454-300c21fbbe4a,A
2020-02-09 05:41:26,fca7cd97-4079-4733-a454-300c21fbbe4a,S
2020-02-09 05:41:43,fca7cd97-4079-4733-a454-300c21fbbe4a,A
2020-02-09 05:44:11,fca7cd97-4079-4733-a454-300c21fbbe4a,S
2020-02-09 05:49:31,fca7cd97-4079-4733-a454-300c21fbbe4a,A
2020-02-09 05:53:26,fca7cd97-4079-4733-a454-300c21fbbe4a,S
2020-02-09 05:56:10,fca7cd97-4079-4733-a454-300c21fbbe4a,A
2020-02-09 06:06:58,fca7cd97-4079-4733-a454-300c21fbbe4a,S
2020-02-09 06:12:36,fca7cd97-4079-4733-a454-300c21fbbe4a,A
2020-02-09 06:35:10,fca7cd97-4079-4733-a454-300c21fbbe4a,S
2020-02-09 06:59:31,fca7cd97-4079-4733-a454-300c21fbbe4a,A
2020-02-09 07:06:05,fca7cd97-4079-4733-a454-300c21fbbe4a,S
2020-02-09 07:09:32,fca7cd97-4079-4733-a454-300c21fbbe4a,A
2020-02-09 07:12:26,fca7cd97-4079-4733-a454-300c21fbbe4a,S
2020-02-09 07:17:11,fca7cd97-4079-4733-a454-300c21fbbe4a,A
2020-02-09 07:30:15,fca7cd97-4079-4733-a454-300c21fbbe4a,S
2020-02-09 07:31:48,fca7cd97-4079-4733-a454-300c21fbbe4a,A
2020-02-09 07:44:24,fca7cd97-4079-4733-a454-300c21fbbe4a,S
2020-02-09 07:50:23,fca7cd97-4079-4733-a454-300c21fbbe4a,A
2020-02-09 07:52:46,fca7cd97-4079-4733-a454-300c21fbbe4a,S
2020-02-09 07:54:41,fca7cd97-4079-4733-a454-300c21fbbe4a,A
2020-02-09 07:56:08,fca7cd97-4079-4733-a454-300c21fbbe4a,S
2020-02-09 08:01:21,fca7cd97-4079-4733-a454-300c21fbbe4a,A
2020-02-09 08:08:54,fca7cd97-4079-4733-a454-300c21fbbe4a,S
2020-02-09 08:10:07,fca7cd97-4079-4733-a454-300c21fbbe4a,A
2020-02-09 08:12:57,fca7cd97-4079-4733-a454-300c21fbbe4a,S
2020-02-09 08:19:40,fca7cd97-4079-4733-a454-300c21fbbe4a,A
2020-02-09 08:26:10,fca7cd97-4079-4733-a454-300c21fbbe4a,S
2020-02-09 05:52:52,a95afa80-4c5f-4532-9618-9762d9eae23f,A
2020-02-09 05:59:41,a95afa80-4c5f-4532-9618-9762d9eae23f,S
2020-02-09 05:59:55,a95afa80-4c5f-4532-9618-9762d9eae23f,A
2020-02-09 06:09:35,a95afa80-4c5f-4532-9618-9762d9eae23f,S
2020-02-09 06:14:43,a95afa80-4c5f-4532-9618-9762d9eae23f,A
2020-02-09 06:24:30,a95afa80-4c5f-4532-9618-9762d9eae23f,S
2020-02-09 06:28:57,a95afa80-4c5f-4532-9618-9762d9eae23f,A
2020-02-09 06:31:17,a95afa80-4c5f-4532-9618-9762d9eae23f,S
2020-02-09 06:31:24,a95afa80-4c5f-4532-9618-9762d9eae23f,A
2020-02-09 06:38:41,a95afa80-4c5f-4532-9618-9762d9eae23f,S
2020-02-09 06:40:39,a95afa80-4c5f-4532-9618-9762d9eae23f,A
2020-02-09 06:42:29,a95afa80-4c5f-4532-9618-9762d9eae23f,S
2020-02-09 06:50:19,a95afa80-4c5f-4532-9618-9762d9eae23f,A
2020-02-09 06:50:58,a95afa80-4c5f-4532-9618-9762d9eae23f,S
2020-02-09 06:53:05,a95afa80-4c5f-4532-9618-9762d9eae23f,A
2020-02-09 07:05:10,a95afa80-4c5f-4532-9618-9762d9eae23f,S
2020-02-09 07:19:58,a95afa80-4c5f-4532-9618-9762d9eae23f,A
2020-02-09 07:20:06,a95afa80-4c5f-4532-9618-9762d9eae23f,S
2020-02-09 07:33:41,a95afa80-4c5f-4532-9618-9762d9eae23f,A
2020-02-09 07:38:34,a95afa80-4c5f-4532-9618-9762d9eae23f,S
2020-02-09 07:39:07,a95afa80-4c5f-4532-9618-9762d9eae23f,A
2020-02-09 07:42:59,a95afa80-4c5f-4532-9618-9762d9eae23f,S
2020-02-09 07:43:40,a95afa80-4c5f-4532-9618-9762d9eae23f,A
2020-02-09 07:52:19,a95afa80-4c5f-4532-9618-9762d9eae23f,S
2020-02-09 07:53:22,a95afa80-4c5f-4532-9618-9762d9eae23f,A
2020-02-09 07:55:38,a95afa80-4c5f-4532-9618-9762d9eae23f,S
2020-02-09 07:57:48,a95afa80-4c5f-4532-9618-9762d9eae23f,A
2020-02-09 08:00:09,a95afa80-4c5f-4532-9618-9762d9eae23f,S
2020-02-09 08:04:01,a95afa80-4c5f-4532-9618-9762d9eae23f,A
2020-02-09 08:05:12,a95afa80-4c5f-4532-9618-9762d9eae23f,S
2020-02-09 08:06:03,a95afa80-4c5f-4532-9618-9762d9eae23f,A
2020-02-09 08:08:12,a95afa80-4c5f-4532-9618-9762d9eae23f,S
2020-02-09 08:08:35,a95afa80-4c5f-4532-9618-9762d9eae23f,A
2020-02-09 08:08:51,a95afa80-4c5f-4532-9618-9762d9eae23f,S
2020-02-09 08:13:23,a95afa80-4c5f-4532-9618-9762d9eae23f,A
2020-02-09 08:14:13,a95afa80-4c5f-4532-9618-9762d9eae23f,S
2020-02-09 08:23:45,a95afa80-4c5f-4532-9618-9762d9eae23f,A
2020-02-09 08:29:48,a95afa80-4c5f-4532-9618-9762d9eae23f,S
2020-02-09 05:47:18,679e81ee-7818-4184-a6ba-c6aa68b3cce0,S
2020-02-09 05:55:45,679e81ee-7818-4184-a6ba-c6aa68b3cce0,A
2020-02-09 05:58:50,679e81ee-7818-4184-a6ba-c6aa68b3cce0,S
2020-02-09 06:07:38,679e81ee-7818-4184-a6ba-c6aa68b3cce0,A
2020-02-09 06:17:13,679e81ee-7818-4184-a6ba-c6aa68b3cce0,S
2020-02-09 06:20:39,679e81ee-7818-4184-a6ba-c6aa68b3cce0,A
2020-02-09 06:21:33,679e81ee-7818-4184-a6ba-c6aa68b3cce0,S
2020-02-09 06:23:46,679e81ee-7818-4184-a6ba-c6aa68b3cce0,A
2020-02-09 06:39:43,679e81ee-7818-4184-a6ba-c6aa68b3cce0,S
2020-02-09 06:41:50,679e81ee-7818-4184-a6ba-c6aa68b3cce0,A
2020-02-09 06:41:52,679e81ee-7818-4184-a6ba-c6aa68b3cce0,S
2020-02-09 06:53:08,679e81ee-7818-4184-a6ba-c6aa68b3cce0,A
2020-02-09 07:00:49,679e81ee-7818-4184-a6ba-c6aa68b3cce0,S
2020-02-09 07:10:08,679e81ee-7818-4184-a6ba-c6aa68b3cce0,A
2020-02-09 07:15:25,679e81ee-7818-4184-a6ba-c6aa68b3cce0,S
2020-02-09 07:18:14,679e81ee-7818-4184-a6ba-c6aa68b3cce0,A
2020-02-09 07:18:57,679e81ee-7818-4184-a6ba-c6aa68b3cce0,S
2020-02-09 07:22:25,679e81ee-7818-4184-a6ba-c6aa68b3cce0,A
2020-02-09 07:25:29,679e81ee-7818-4184-a6ba-c6aa68b3cce0,S
2020-02-09 07:34:26,679e81ee-7818-4184-a6ba-c6aa68b3cce0,A
2020-02-09 07:49:23,679e81ee-7818-4184-a6ba-c6aa68b3cce0,S
2020-02-09 07:50:25,679e81ee-7818-4184-a6ba-c6aa68b3cce0,A
2020-02-09 07:50:54,679e81ee-7818-4184-a6ba-c6aa68b3cce0,S
2020-02-09 07:51:34,679e81ee-7818-4184-a6ba-c6aa68b3cce0,A
2020-02-09 07:58:37,679e81ee-7818-4184-a6ba-c6aa68b3cce0,S
2020-02-09 08:03:47,679e81ee-7818-4184-a6ba-c6aa68b3cce0,A
2020-02-09 08:22:39,679e81ee-7818-4184-a6ba-c6aa68b3cce0,S
2020-02-09 08:24:46,679e81ee-7818-4184-a6ba-c6aa68b3cce0,A
2020-02-09 06:34:14,b1ff0f91-6b31-4e09-adac-ea6121f909ed,S
2020-02-09 06:39:19,b1ff0f91-6b31-4e09-adac-ea6121f909ed,A
2020-02-09 06:47:25,b1ff0f91-6b31-4e09-adac-ea6121f909ed,S
2020-02-09 06:56:08,b1ff0f91-6b31-4e09-adac-ea6121f909ed,A
2020-02-09 07:07:01,b1ff0f91-6b31-4e09-adac-ea6121f909ed,S
2020-02-09 07:18:12,b1ff0f91-6b31-4e09-adac-ea6121f909ed,A
2020-02-09 07:20:13,b1ff0f91-6b31-4e09-adac-ea6121f909ed,S
2020-02-09 07:27:46,b1ff0f91-6b31-4e09-adac-ea6121f909ed,A
2020-02-09 07:30:30,b1ff0f91-6b31-4e09-adac-ea6121f909ed,S
2020-02-09 07:38:08,b1ff0f91-6b31-4e09-adac-ea6121f909ed,A
2020-02-09 07:41:43,b1ff0f91-6b31-4e09-adac-ea6121f909ed,S
2020-02-09 07:44:53,b1ff0f91-6b31-4e09-adac-ea6121f909ed,A
2020-02-09 07:46:55,b1ff0f91-6b31-4e09-adac-ea6121f909ed,S
2020-02-09 07:51:51,b1ff0f91-6b31-4e09-adac-ea6121f909ed,A
2020-02-09 07:54:29,b1ff0f91-6b31-4e09-adac-ea6121f909ed,S
2020-02-09 07:55:25,b1ff0f91-6b31-4e09-adac-ea6121f909ed,A
2020-02-09 07:56:05,b1ff0f91-6b31-4e09-adac-ea6121f909ed,S
2020-02-09 07:56:16,b1ff0f91-6b31-4e09-adac-ea6121f909ed,A
2020-02-09 08:00:33,b1ff0f91-6b31-4e09-adac-ea6121f909ed,S
2020-02-09 08:07:50,b1ff0f91-6b31-4e09-adac-ea6121f909ed,A
2020-02-09 08:23:08,b1ff0f91-6b31-4e09-adac-ea6121f909ed,S
2020-02-09 08:24:33,b1ff0f91-6b31-4e09-adac-ea6121f909ed,A
2020-02-09 08:27:57,b1ff0f91-6b31-4e09-adac-ea6121f909ed,S
2020-02-09 08:29:10,b1ff0f91-6b31-4e09-adac-ea6121f909ed,A
2020-02-09 05:39:30,f7abbe68-7b7d-4875-b75e-9be0957cc427,A
2020-02-09 05:42:45,f7abbe68-7b7d-4875-b75e-9be0957cc427,S
2020-02-09 05:47:49,f7abbe68-7b7d-4875-b75e-9be0957cc427,A
2020-02-09 05:56:25,f7abbe68-7b7d-4875-b75e-9be0957cc427,S
2020-02-09 06:00:52,f7abbe68-7b7d-4875-b75e-9be0957cc427,A
2020-02-09 06:04:00,f7abbe68-7b7d-4875-b75e-9be0957cc427,S
2020-02-09 06:04:51,f7abbe68-7b7d-4875-b75e-9be0957cc427,A
2020-02-09 06:06:14,f7abbe68-7b7d-4875-b75e-9be0957cc427,S
2020-02-09 06:11:28,f7abbe68-7b7d-4875-b75e-9be0957cc427,A
2020-02-09 06:17:05,f7abbe68-7b7d-4875-b75e-9be0957cc427,S
2020-02-09 06:28:27,f7abbe68-7b7d-4875-b75e-9be0957cc427,A
2020-02-09 06:28:31,f7abbe68-7b7d-4875-b75e-9be0957cc427,S
2020-02-09 06:35:41,f7abbe68-7b7d-4875-b75e-9be0957cc427,A
2020-02-09 06:47:12,f7abbe68-7b7d-4875-b75e-9be0957cc427,S
2020-02-09 06:48:48,f7abbe68-7b7d-4875-b75e-9be0957cc427,A
2020-02-09 06:51:55,f7abbe68-7b7d-4875-b75e-9be0957cc427,S
2020-02-09 06:52:12,f7abbe68-7b7d-4875-b75e-9be0957cc427,A
2020-02-09 07:10:10,f7abbe68-7b7d-4875-b75e-9be0957cc427,S
2020-02-09 07:12:34,f7abbe68-7b7d-4875-b75e-9be0957cc427,A
2020-02-09 07:24:56,f7abbe68-7b7d-4875-b75e-9be0957cc427,S
2020-02-09 07:37:04,f7abbe68-7b7d-4875-b75e-9be0957cc427,A
2020-02-09 07:42:36,f7abbe68-7b7d-4875-b75e-9be0957cc427,S
2020-02-09 07:43:02,f7abbe68-7b7d-4875-b75e-9be0957cc427,A
2020-02-09 07:45:17,f7abbe68-7b7d-4875-b75e-9be0957cc427,S
2020-02-09 07:48:56,f7abbe68-7b7d-4875-b75e-9be0957cc427,A
2020-02-09 07:52:16,f7abbe68-7b7d-4875-b75e-9be0957cc427,S
2020-02-09 07:56:46,f7abbe68-7b7d-4875-b75e-9be0957cc427,A
2020-02-09 07:57:43,f7abbe68-7b7d-4875-b75e-9be0957cc427,S
2020-02-09 07:58:05,f7abbe68-7b7d-4875-b75e-9be0957cc427,A
2020-02-09 07:59:03,f7abbe68-7b7d-4875-b75e-9be0957cc427,S
2020-02-09 08:10:53,f7abbe68-7b7d-4875-b75e-9be0957cc427,A
2020-02-09 08:15:42,f7abbe68-7b7d-4875-b75e-9be0957cc427,S
2020-02-09 08:19:25,f7abbe68-7b7d-4875-b75e-9be0957cc427,A
2020-02-09 08:25:23,f7abbe68-7b7d-4875-b75e-9be0957cc427,S
2020-02-09 08:28:56,f7abbe68-7b7d-4875-b75e-9be0957cc427,A
2020-02-09 08:29:13,f7abbe68-7b7d-4875-b75e-9be0957cc427,S
2020-02-09 05:33:53,29ca694c-d7d3-4d86-88b9-2c4c0430a22d,A
2020-02-09 05:53:25,29ca694c-d7d3-4d86-88b9-2c4c0430a22d,S
2020-02-09 05:57:56,29ca694c-d7d3-4d86-88b9-2c4c0430a22d,A
2020-02-09 05:59:39,29ca694c-d7d3-4d86-88b9-2c4c0430a22d,S
2020-02-09 06:04:16,29ca694c-d7d3-4d86-88b9-2c4c0430a22d,A
2020-02-09 06:04:21,29ca694c-d7d3-4d86-88b9-2c4c0430a22d,S
2020-02-09 06:07:12,29ca694c-d7d3-4d86-88b9-2c4c0430a22d,A
2020-02-09 06:08:34,29ca694c-d7d3-4d86-88b9-2c4c0430a22d,S
2020-02-09 06:09:39,29ca694c-d7d3-4d86-88b9-2c4c0430a22d,A
2020-02-09 06:09:53,29ca694c-d7d3-4d86-88b9-2c4c0430a22d,S
2020-02-09 06:14:12,29ca694c-d7d3-4d86-88b9-2c4c0430a22d,A
2020-02-09 06:26:05,29ca694c-d7d3-4d86-88b9-2c4c0430a22d,S
2020-02-09 06:26:46,29ca694c-d7d3-4d86-88b9-2c4c0430a22d,A
2020-02-09 06:42:27,29ca694c-d7d3-4d86-88b9-2c4c0430a22d,S
2020-02-09 06:49:42,29ca694c-d7d3-4d86-88b9-2c4c0430a22d,A
2020-02-09 06:50:03,29ca694c-d7d3-4d86-88b9-2c4c0430a22d,S
2020-02-09 06:50:33,29ca694c-d7d3-4d86-88b9-2c4c0430a22d,A
2020-02-09 06:51:40,29ca694c-d7d3-4d86-88b9-2c4c0430a22d,S
2020-02-09 06:59:28,29ca694c-d7d3-4d86-88b9-2c4c0430a22d,A
2020-02-09 07:01:57,29ca694c-d7d3-4d86-88b9-2c4c0430a22d,S
2020-02-09 07:02:55,29ca694c-d7d3-4d86-88b9-2c4c0430a22d,A
2020-02-09 07:07:54,29ca694c-d7d3-4d86-88b9-2c4c0430a22d,S
2020-02-09 07:11:20,29ca694c-d7d3-4d86-88b9-2c4c0430a22d,A
2020-02-09 07:19:02,29ca694c-d7d3-4d86-88b9-2c4c0430a22d,S
2020-02-09 07:22:34,29ca694c-d7d3-4d86-88b9-2c4c0430a22d,A
2020-02-09 07:23:39,29ca694c-d7d3-4d86-88b9-2c4c0430a22d,S
2020-02-09 07:24:57,29ca694c-d7d3-4d86-88b9-2c4c0430a22d,A
2020-02-09 07:34:06,29ca694c-d7d3-4d86-88b9-2c4c0430a22d,S
2020-02-09 07:35:12,29ca694c-d7d3-4d86-88b9-2c4c0430a22d,A
2020-02-09 07:37:50,29ca694c-d7d3-4d86-88b9-2c4c0430a22d,S
2020-02-09 07:39:57,29ca694c-d7d3-4d86-88b9-2c4c0430a22d,A
2020-02-09 07:48:29,29ca694c-d7d3-4d86-88b9-2c4c0430a22d,S
2020-02-09 07:50:43,29ca694c-d7d3-4d86-88b9-2c4c0430a22d,A
2020-02-09 07:55:40,29ca694c-d7d3-4d86-88b9-2c4c0430a22d,S
2020-02-09 07:59:08,29ca694c-d7d3-4d86-88b9-2c4c0430a22d,A
2020-02-09 07:59:43,29ca694c-d7d3-4d86-88b9-2c4c0430a22d,S
2020-02-09 08:01:15,29ca694c-d7d3-4d86-88b9-2c4c0430a22d,A
2020-02-09 08:05:49,29ca694c-d7d3-4d86-88b9-2c4c0430a22d,S
2020-02-09 08:10:18,29ca694c-d7d3-4d86-88b9-2c4c0430a22d,A
2020-02-09 08:10:39,29ca694c-d7d3-4d86-88b9-2c4c0430a22d,S
2020-02-09 08:16:12,29ca694c-d7d3-4d86-88b9-2c4c0430a22d,A
2020-02-09 08:16:42,29ca694c-d7d3-4d86-88b9-2c4c0430a22d,S
2020-02-09 08:29:12,29ca694c-d7d3-4d86-88b9-2c4c0430a22d,A
2020-02-09 08:29:26,29ca694c-d7d3-4d86-88b9-2c4c0430a22d,S
2020-02-09 05:54:19,363fb36a-a34a-40d3-9e04-7b5d8d9f1ea0,S
2020-02-09 06:03:47,363fb36a-a34a-40d3-9e04-7b5d8d9f1ea0,A
2020-02-09 06:06:12,363fb36a-a34a-40d3-9e04-7b5d8d9f1ea0,S
2020-02-09 06:11:25,363fb36a-a34a-40d3-9e04-7b5d8d9f1ea0,A
2020-02-09 06:15:54,363fb36a-a34a-40d3-9e04-7b5d8d9f1ea0,S
2020-02-09 06:19:03,363fb36a-a34a-40d3-9e04-7b5d8d9f1ea0,A
2020-02-09 06:19:40,363fb36a-a34a-40d3-9e04-7b5d8d9f1ea0,S
2020-02-09 06:34:24,363fb36a-a34a-40d3-9e04-7b5d8d9f1ea0,A
2020-02-09 06:43:27,363fb36a-a34a-40d3-9e04-7b5d8d9f1ea0,S
2020-02-09 06:45:35,363fb36a-a34a-40d3-9e04-7b5d8d9f1ea0,A
2020-02-09 06:48:33,363fb36a-a34a-40d3-9e04-7b5d8d9f1ea0,S
2020-02-09 06:50:14,363fb36a-a34a-40d3-9e04-7b5d8d9f1ea0,A
2020-02-09 06:53:29,363fb36a-a34a-40d3-9e04-7b5d8d9f1ea0,S
2020-02-09 07:08:48,363fb36a-a34a-40d3-9e04-7b5d8d9f1ea0,A
2020-02-09 07:10:16,363fb36a-a34a-40d3-9e04-7b5d8d9f1ea0,S
2020-02-09 07:23:44,363fb36a-a34a-40d3-9e04-7b5d8d9f1ea0,A
2020-02-09 07:27:58,363fb36a-a34a-40d3-9e04-7b5d8d9f1ea0,S
2020-02-09 07:29:00,363fb36a-a34a-40d3-9e04-7b5d8d9f1ea0,A
2020-02-09 07:30:20,363fb36a-a34a-40d3-9e04-7b5d8d9f1ea0,S
2020-02-09 07:35:34,363fb36a-a34a-40d3-9e04-7b5d8d9f1ea0,A
2020-02-09 07:36:28,363fb36a-a34a-40d3-9e04-7b5d8d9f1ea0,S
2020-02-09 07:45:40,363fb36a-a34a-40d3-9e04-7b5d8d9f1ea0,A
2020-02-09 07:50:02,363fb36a-a34a-40d3-9e04-7b5d8d9f1ea0,S
2020-02-09 07:52:27,363fb36a-a34a-40d3-9e04-7b5d8d9f1ea0,A
2020-02-09 08:06:53,363fb36a-a34a-40d3-9e04-7b5d8d9f1ea0,S
2020-02-09 08:10:54,363fb36a-a34a-40d3-9e04-7b5d8d9f1ea0,A
2020-02-09 08:17:21,363fb36a-a34a-40d3-9e04-7b5d8d9f1ea0,S
2020-02-09 08:18:39,363fb36a-a34a-40d3-9e04-7b5d8d9f1ea0,A
2020-02-09 08:29:53,363fb36a-a34a-40d3-9e04-7b5d8d9f1ea0,S
2020-02-09 05:38:23,82264ea7-6808-4a48-b8b7-292df5c298b2,A
2020-02-09 05:43:25,82264ea7-6808-4a48-b8b7-292df5c298b2,S
2020-02-09 05:47:17,82264ea7-6808-4a48-b8b7-292df5c298b2,A
2020-02-09 05:58:36,82264ea7-6808-4a48-b8b7-292df5c298b2,S
2020-02-09 06:06:27,82264ea7-6808-4a48-b8b7-292df5c298b2,A
2020-02-09 06:08:49,82264ea7-6808-4a48-b8b7-292df5c298b2,S
2020-02-09 06:12:52,82264ea7-6808-4a48-b8b7-292df5c298b2,A
2020-02-09 06:13:42,82264ea7-6808-4a48-b8b7-292df5c298b2,S
2020-02-09 06:18:55,82264ea7-6808-4a48-b8b7-292df5c298b2,A
2020-02-09 06:23:48,82264ea7-6808-4a48-b8b7-292df5c298b2,S
2020-02-09 06:28:46,82264ea7-6808-4a48-b8b7-292df5c298b2,A
2020-02-09 06:31:21,82264ea7-6808-4a48-b8b7-292df5c298b2,S
2020-02-09 06:32:07,82264ea7-6808-4a48-b8b7-292df5c298b2,A
2020-02-09 06:42:43,82264ea7-6808-4a48-b8b7-292df5c298b2,S
2020-02-09 06:43:07,82264ea7-6808-4a48-b8b7-292df5c298b2,A
2020-02-09 06:50:45,82264ea7-6808-4a48-b8b7-292df5c298b2,S
2020-02-09 06:56:05,82264ea7-6808-4a48-b8b7-292df5c298b2,A
2020-02-09 06:56:31,82264ea7-6808-4a48-b8b7-292df5c298b2,S
2020-02-09 07:02:57,82264ea7-6808-4a48-b8b7-292df5c298b2,A
2020-02-09 07:05:01,82264ea7-6808-4a48-b8b7-292df5c298b2,S
2020-02-09 07:05:14,82264ea7-6808-4a48-b8b7-292df5c298b2,A
2020-02-09 07:10:17,82264ea7-6808-4a48-b8b7-292df5c298b2,S
2020-02-09 07:10:58,82264ea7-6808-4a48-b8b7-292df5c298b2,A
2020-02-09 07:28:04,82264ea7-6808-4a48-b8b7-292df5c298b2,S
2020-02-09 07:30:21,82264ea7-6808-4a48-b8b7-292df5c298b2,A
2020-02-09 07:30:41,82264ea7-6808-4a48-b8b7-292df5c298b2,S
2020-02-09 07:34:07,82264ea7-6808-4a48-b8b7-292df5c298b2,A
2020-02-09 07:34:17,82264ea7-6808-4a48-b8b7-292df5c298b2,S
2020-02-09 07:41:19,82264ea7-6808-4a48-b8b7-292df5c298b2,A
2020-02-09 07:47:07,82264ea7-6808-4a48-b8b7-292df5c298b2,S
2020-02-09 08:07:50,82264ea7-6808-4a48-b8b7-292df5c298b2,A
2020-02-09 08:09:06,82264ea7-6808-4a48-b8b7-292df5c298b2,S
2020-02-09 08:21:01,82264ea7-6808-4a48-b8b7-292df5c298b2,A
2020-02-09 08:27:03,82264ea7-6808-4a48-b8b7-292df5c298b2,S
2020-02-09 08:28:44,82264ea7-6808-4a48-b8b7-292df5c298b2,A
2020-02-09 05:44:43,195bd237-ef31-445b-8dd1-11d586cfe84d,A
2020-02-09 05:52:30,195bd237-ef31-445b-8dd1-11d586cfe84d,S
2020-02-09 05:54:23,195bd237-ef31-445b-8dd1-11d586cfe84d,A
2020-02-09 05:55:41,195bd237-ef31-445b-8dd1-11d586cfe84d,S
2020-02-09 06:00:29,195bd237-ef31-445b-8dd1-11d586cfe84d,A
2020-02-09 06:14:26,195bd237-ef31-445b-8dd1-11d586cfe84d,S
2020-02-09 06:15:08,195bd237-ef31-445b-8dd1-11d586cfe84d,A
2020-02-09 06:15:10,195bd237-ef31-445b-8dd1-11d586cfe84d,S
2020-02-09 06:18:26,195bd237-ef31-445b-8dd1-11d586cfe84d,A
2020-02-09 06:18:31,195bd237-ef31-445b-8dd1-11d586cfe84d,S
2020-02-09 06:20:34,195bd237-ef31-445b-8dd1-11d586cfe84d,A
2020-02-09 06:20:54,195bd237-ef31-445b-8dd1-11d586cfe84d,S
2020-02-09 06:21:55,195bd237-ef31-445b-8dd1-11d586cfe84d,A
2020-02-09 06:22:29,195bd237-ef31-445b-8dd1-11d586cfe84d,S
2020-02-09 06:25:16,195bd237-ef31-445b-8dd1-11d586cfe84d,A
2020-02-09 06:33:13,195bd237-ef31-445b-8dd1-11d586cfe84d,S
2020-02-09 06:41:18,195bd237-ef31-445b-8dd1-11d586cfe84d,A
2020-02-09 06:51:55,195bd237-ef31-445b-8dd1-11d586cfe84d,S
2020-02-09 06:52:41,195bd237-ef31-445b-8dd1-11d586cfe84d,A
2020-02-09 06:52:48,195bd237-ef31-445b-8dd1-11d586cfe84d,S
2020-02-09 07:01:43,195bd237-ef31-445b-8dd1-11d586cfe84d,A
2020-02-09 07:12:27,195bd237-ef31-445b-8dd1-11d586cfe84d,S
2020-02-09 07:17:59,195bd237-ef31-445b-8dd1-11d586cfe84d,A
2020-02-09 07:20:37,195bd237-ef31-445b-8dd1-11d586cfe84d,S
2020-02-09 07:21:21,195bd237-ef31-445b-8dd1-11d586cfe84d,A
2020-02-09 07:26:01,195bd237-ef31-445b-8dd1-11d586cfe84d,S
2020-02-09 07:27:51,195bd237-ef31-445b-8dd1-11d586cfe84d,A
2020-02-09 07:41:07,195bd237-ef31-445b-8dd1-11d586cfe84d,S
2020-02-09 07:42:59,195bd237-ef31-445b-8dd1-11d586cfe84d,A
2020-02-09 07:49:11,195bd237-ef31-445b-8dd1-11d586cfe84d,S
2020-02-09 07:51:59,195bd237-ef31-445b-8dd1-11d586cfe84d,A
2020-02-09 07:53:47,195bd237-ef31-445b-8dd1-11d586cfe84d,S
2020-02-09 07:54:10,195bd237-ef31-445b-8dd1-11d586cfe84d,A
2020-02-09 07:54:49,195bd237-ef31-445b-8dd1-11d586cfe84d,S
2020-02-09 08:07:20,195bd237-ef31-445b-8dd1-11d586cfe84d,A
2020-02-09 08:07:21,195bd237-ef31-445b-8dd1-11d586cfe84d,S
2020-02-09 08:07:57,195bd237-ef31-445b-8dd1-11d586cfe84d,A
2020-02-09 08:08:26,195bd237-ef31-445b-8dd1-11d586cfe84d,S
2020-02-09 08:21:50,195bd237-ef31-445b-8dd1-11d586cfe84d,A
2020-02-09 08:26:58,195bd237-ef31-445b-8dd1-11d586cfe84d,S
2020-02-09 05:56:49,3d5b580a-9e89-4719-8148-319f5cc0639d,S
2020-02-09 05:58:36,3d5b580a-9e89-4719-8148-319f5cc0639d,A
2020-02-09 06:00:33,3d5b580a-9e89-4719-8148-319f5cc0639d,S
2020-02-09 06:02:52,3d5b580a-9e89-4719-8148-319f5cc0639d,A
2020-02-09 06:06:14,3d5b580a-9e89-4719-8148-319f5cc0639d,S
2020-02-09 06:17:50,3d5b580a-9e89-4719-8148-319f5cc0639d,A
2020-02-09 06:19:22,3d5b580a-9e89-4719-8148-319f5cc0639d,S
2020-02-09 06:32:30,3d5b580a-9e89-4719-8148-319f5cc0639d,A
2020-02-09 06:38:13,3d5b580a-9e89-4719-8148-319f5cc0639d,S
2020-02-09 06:44:35,3d5b580a-9e89-4719-8148-319f5cc0639d,A
2020-02-09 06:47:29,3d5b580a-9e89-4719-8148-319f5cc0639d,S
2020-02-09 06:55:28,3d5b580a-9e89-4719-8148-319f5cc0639d,A
2020-02-09 07:01:37,3d5b580a-9e89-4719-8148-319f5cc0639d,S
2020-02-09 07:05:01,3d5b580a-9e89-4719-8148-319f5cc0639d,A
2020-02-09 07:05:54,3d5b580a-9e89-4719-8148-319f5cc0639d,S
2020-02-09 07:14:57,3d5b580a-9e89-4719-8148-319f5cc0639d,A
2020-02-09 07:16:59,3d5b580a-9e89-4719-8148-319f5cc0639d,S
2020-02-09 07:18:06,3d5b580a-9e89-4719-8148-319f5cc0639d,A
2020-02-09 07:21:26,3d5b580a-9e89-4719-8148-319f5cc0639d,S
2020-02-09 07:22:38,3d5b580a-9e89-4719-8148-319f5cc0639d,A
2020-02-09 07:25:23,3d5b580a-9e89-4719-8148-319f5cc0639d,S
2020-02-09 07:28:36,3d5b580a-9e89-4719-8148-319f5cc0639d,A
2020-02-09 07:32:12,3d5b580a-9e89-4719-8148-319f5cc0639d,S
2020-02-09 07:32:36,3d5b580a-9e89-4719-8148-319f5cc0639d,A
2020-02-09 07:45:41,3d5b580a-9e89-4719-8148-319f5cc0639d,S
2020-02-09 07:47:30,3d5b580a-9e89-4719-8148-319f5cc0639d,A
2020-02-09 07:51:20,3d5b580a-9e89-4719-8148-319f5cc0639d,S
2020-02-09 08:06:49,3d5b580a-9e89-4719-8148-319f5cc0639d,A
2020-02-09 08:13:26,3d5b580a-9e89-4719-8148-319f5cc0639d,S
2020-02-09 08:18:39,3d5b580a-9e89-4719-8148-319f5cc0639d,A
2020-02-09 08:19:44,3d5b580a-9e89-4719-8148-319f5cc0639d,S
2020-02-09 06:05:41,3ede7173-b888-42e7-8c6a-40f4c4865e8e,S
2020-02-09 06:09:19,3ede7173-b888-42e7-8c6a-40f4c4865e8e,A
2020-02-09 06:11:06,3ede7173-b888-42e7-8c6a-40f4c4865e8e,S
2020-02-09 06:11:35,3ede7173-b888-42e7-8c6a-40f4c4865e8e,A
2020-02-09 06:11:39,3ede7173-b888-42e7-8c6a-40f4c4865e8e,S
2020-02-09 06:22:58,3ede7173-b888-42e7-8c6a-40f4c4865e8e,A
2020-02-09 06:39:27,3ede7173-b888-42e7-8c6a-40f4c4865e8e,S
2020-02-09 06:43:32,3ede7173-b888-42e7-8c6a-40f4c4865e8e,A
2020-02-09 06:48:27,3ede7173-b888-42e7-8c6a-40f4c4865e8e,S
2020-02-09 06:55:15,3ede7173-b888-42e7-8c6a-40f4c4865e8e,A
2020-02-09 07:00:36,3ede7173-b888-42e7-8c6a-40f4c4865e8e,S
2020-02-09 07:03:39,3ede7173-b888-42e7-8c6a-40f4c4865e8e,A
2020-02-09 07:04:48,3ede7173-b888-42e7-8c6a-40f4c4865e8e,S
2020-02-09 07:07:27,3ede7173-b888-42e7-8c6a-40f4c4865e8e,A
2020-02-09 07:07:57,3ede7173-b888-42e7-8c6a-40f4c4865e8e,S
2020-02-09 07:09:10,3ede7173-b888-42e7-8c6a-40f4c4865e8e,A
2020-02-09 07:10:06,3ede7173-b888-42e7-8c6a-40f4c4865e8e,S
2020-02-09 07:21:18,3ede7173-b888-42e7-8c6a-40f4c4865e8e,A
2020-02-09 07:26:32,3ede7173-b888-42e7-8c6a-40f4c4865e8e,S
2020-02-09 07:29:19,3ede7173-b888-42e7-8c6a-40f4c4865e8e,A
2020-02-09 07:30:59,3ede7173-b888-42e7-8c6a-40f4c4865e8e,S
2020-02-09 07:33:17,3ede7173-b888-42e7-8c6a-40f4c4865e8e,A
2020-02-09 07:46:33,3ede7173-b888-42e7-8c6a-40f4c4865e8e,S
2020-02-09 07:50:07,3ede7173-b888-42e7-8c6a-40f4c4865e8e,A
2020-02-09 07:56:02,3ede7173-b888-42e7-8c6a-40f4c4865e8e,S
2020-02-09 07:57:26,3ede7173-b888-42e7-8c6a-40f4c4865e8e,A
2020-02-09 08:06:14,3ede7173-b888-42e7-8c6a-40f4c4865e8e,S
2020-02-09 08:08:34,3ede7173-b888-42e7-8c6a-40f4c4865e8e,A
2020-02-09 08:13:39,3ede7173-b888-42e7-8c6a-40f4c4865e8e,S
2020-02-09 08:19:01,3ede7173-b888-42e7-8c6a-40f4c4865e8e,A
2020-02-09 08:20:00,3ede7173-b888-42e7-8c6a-40f4c4865e8e,S
2020-02-09 08:20:01,3ede7173-b888-42e7-8c6a-40f4c4865e8e,A
2020-02-09 08:20:10,3ede7173-b888-42e7-8c6a-40f4c4865e8e,S
2020-02-09 08:23:33,3ede7173-b888-42e7-8c6a-40f4c4865e8e,A
2020-02-09 08:25:24,3ede7173-b888-42e7-8c6a-40f4c4865e8e,S
2020-02-09 05:39:14,18c1c802-07fa-46e3-8b56-e5cc9b238d4a,S
2020-02-09 05:41:30,18c1c802-07fa-46e3-8b56-e5cc9b238d4a,A
2020-02-09 05:43:08,18c1c802-07fa-46e3-8b56-e5cc9b238d4a,S
2020-02-09 05:43:41,18c1c802-07fa-46e3-8b56-e5cc9b238d4a,A
2020-02-09 05:47:43,18c1c802-07fa-46e3-8b56-e5cc9b238d4a,S
2020-02-09 05:50:33,18c1c802-07fa-46e3-8b56-e5cc9b238d4a,A
2020-02-09 05:58:05,18c1c802-07fa-46e3-8b56-e5cc9b238d4a,S
2020-02-09 05:58:39,18c1c802-07fa-46e3-8b56-e5cc9b238d4a,A
2020-02-09 05:59:05,18c1c802-07fa-46e3-8b56-e5cc9b238d4a,S
2020-02-09 06:05:12,18c1c802-07fa-46e3-8b56-e5cc9b238d4a,A
2020-02-09 06:06:36,18c1c802-07fa-46e3-8b56-e5cc9b238d4a,S
2020-02-09 06:19:46,18c1c802-07fa-46e3-8b56-e5cc9b238d4a,A
2020-02-09 06:27:22,18c1c802-07fa-46e3-8b56-e5cc9b238d4a,S
2020-02-09 06:30:28,18c1c802-07fa-46e3-8b56-e5cc9b238d4a,A
2020-02-09 06:45:59,18c1c802-07fa-46e3-8b56-e5cc9b238d4a,S
2020-02-09 06:52:45,18c1c802-07fa-46e3-8b56-e5cc9b238d4a,A
2020-02-09 06:59:44,18c1c802-07fa-46e3-8b56-e5cc9b238d4a,S
2020-02-09 07:01:39,18c1c802-07fa-46e3-8b56-e5cc9b238d4a,A
2020-02-09 07:04:47,18c1c802-07fa-46e3-8b56-e5cc9b238d4a,S
2020-02-09 07:05:16,18c1c802-07fa-46e3-8b56-e5cc9b238d4a,A
2020-02-09 07:08:25,18c1c802-07fa-46e3-8b56-e5cc9b238d4a,S
2020-02-09 07:10:25,18c1c802-07fa-46e3-8b56-e5cc9b238d4a,A
2020-02-09 07:14:42,18c1c802-07fa-46e3-8b56-e5cc9b238d4a,S
2020-02-09 07:15:39,18c1c802-07fa-46e3-8b56-e5cc9b238d4a,A
2020-02-09 07:16:28,18c1c802-07fa-46e3-8b56-e5cc9b238d4a,S
2020-02-09 07:23:55,18c1c802-07fa-46e3-8b56-e5cc9b238d4a,A
2020-02-09 07:26:08,18c1c802-07fa-46e3-8b56-e5cc9b238d4a,S
2020-02-09 07:29:39,18c1c802-07fa-46e3-8b56-e5cc9b238d4a,A
2020-02-09 07:37:56,18c1c802-07fa-46e3-8b56-e5cc9b238d4a,S
2020-02-09 07:45:20,18c1c802-07fa-46e3-8b56-e5cc9b238d4a,A
2020-02-09 07:47:23,18c1c802-07fa-46e3-8b56-e5cc9b238d4a,S
2020-02-09 07:50:08,18c1c802-07fa-46e3-8b56-e5cc9b238d4a,A
2020-02-09 07:51:12,18c1c802-07fa-46e3-8b56-e5cc9b238d4a,S
2020-02-09 07:52:30,18c1c802-07fa-46e3-8b56-e5cc9b238d4a,A
2020-02-09 07:54:02,18c1c802-07fa-46e3-8b56-e5cc9b238d4a,S
2020-02-09 08:02:10,18c1c802-07fa-46e3-8b56-e5cc9b238d4a,A
2020-02-09 08:02:20,18c1c802-07fa-46e3-8b56-e5cc9b238d4a,S
2020-02-09 08:02:32,18c1c802-07fa-46e3-8b56-e5cc9b238d4a,A
2020-02-09 08:06:22,18c1c802-07fa-46e3-8b56-e5cc9b238d4a,S
2020-02-09 08:08:46,18c1c802-07fa-46e3-8b56-e5cc9b238d4a,A
2020-02-09 08:09:31,18c1c802-07fa-46e3-8b56-e5cc9b238d4a,S
2020-02-09 08:10:49,18c1c802-07fa-46e3-8b56-e5cc9b238d4a,A
2020-02-09 08:11:42,18c1c802-07fa-46e3-8b56-e5cc9b238d4a,S
2020-02-09 08:20:05,18c1c802-07fa-46e3-8b56-e5cc9b238d4a,A
2020-02-09 08:21:18,18c1c802-07fa-46e3-8b56-e5cc9b238d4a,S
2020-02-09 08:30:17,18c1c802-07fa-46e3-8b56-e5cc9b238d4a,A
2020-02-09 05:43:43,97bc12dd-d059-439f-95cf-efc823d6a7c5,A
2020-02-09 05:43:45,97bc12dd-d059-439f-95cf-efc823d6a7c5,S
2020-02-09 05:46:04,97bc12dd-d059-439f-95cf-efc823d6a7c5,A
2020-02-09 05:48:30,97bc12dd-d059-439f-95cf-efc823d6a7c5,S
2020-02-09 05:48:51,97bc12dd-d059-439f-95cf-efc823d6a7c5,A
2020-02-09 05:54:27,97bc12dd-d059-439f-95cf-efc823d6a7c5,S
2020-02-09 05:58:14,97bc12dd-d059-439f-95cf-efc823d6a7c5,A
2020-02-09 06:02:10,97bc12dd-d059-439f-95cf-efc823d6a7c5,S
2020-02-09 06:15:19,97bc12dd-d059-439f-95cf-efc823d6a7c5,A
2020-02-09 06:15:41,97bc12dd-d059-439f-95cf-efc823d6a7c5,S
2020-02-09 06:19:05,97bc12dd-d059-439f-95cf-efc823d6a7c5,A
2020-02-09 06:19:19,97bc12dd-d059-439f-95cf-efc823d6a7c5,S
2020-02-09 06:24:33,97bc12dd-d059-439f-95cf-efc823d6a7c5,A
2020-02-09 06:35:42,97bc12dd-d059-439f-95cf-efc823d6a7c5,S
2020-02-09 06:36:05,97bc12dd-d059-439f-95cf-efc823d6a7c5,A
2020-02-09 06:39:27,97bc12dd-d059-439f-95cf-efc823d6a7c5,S
2020-02-09 06:41:19,97bc12dd-d059-439f-95cf-efc823d6a7c5,A
2020-02-09 06:50:46,97bc12dd-d059-439f-95cf-efc823d6a7c5,S
2020-02-09 07:04:54,97bc12dd-d059-439f-95cf-efc823d6a7c5,A
2020-02-09 07:06:30,97bc12dd-d059-439f-95cf-efc823d6a7c5,S
2020-02-09 07:08:04,97bc12dd-d059-439f-95cf-efc823d6a7c5,A
2020-02-09 07:09:57,97bc12dd-d059-439f-95cf-efc823d6a7c5,S
2020-02-09 07:16:25,97bc12dd-d059-439f-95cf-efc823d6a7c5,A
2020-02-09 07:21:19,97bc12dd-d059-439f-95cf-efc823d6a7c5,S
2020-02-09 07:28:50,97bc12dd-d059-439f-95cf-efc823d6a7c5,A
2020-02-09 07:28:52,97bc12dd-d059-439f-95cf-efc823d6a7c5,S
2020-02-09 07:29:12,97bc12dd-d059-439f-95cf-efc823d6a7c5,A
2020-02-09 07:31:32,97bc12dd-d059-439f-95cf-efc823d6a7c5,S
2020-02-09 07:34:43,97bc12dd-d059-439f-95cf-efc823d6a7c5,A
2020-02-09 07:35:30,97bc12dd-d059-439f-95cf-efc823d6a7c5,S
2020-02-09 07:46:30,97bc12dd-d059-439f-95cf-efc823d6a7c5,A
2020-02-09 07:47:18,97bc12dd-d059-439f-95cf-efc823d6a7c5,S
2020-02-09 07:47:44,97bc12dd-d059-439f-95cf-efc823d6a7c5,A
2020-02-09 07:49:57,97bc12dd-d059-439f-95cf-efc823d6a7c5,S
2020-02-09 07:52:11,97bc12dd-d059-439f-95cf-efc823d6a7c5,A
2020-02-09 07:52:30,97bc12dd-d059-439f-95cf-efc823d6a7c5,S
2020-02-09 08:01:55,97bc12dd-d059-439f-95cf-efc823d6a7c5,A
2020-02-09 08:06:39,97bc12dd-d059-439f-95cf-efc823d6a7c5,S
2020-02-09 08:08:23,97bc12dd-d059-439f-95cf-efc823d6a7c5,A
2020-02-09 08:09:32,97bc12dd-d059-439f-95cf-efc823d6a7c5,S
2020-02-09 08:10:48,97bc12dd-d059-439f-95cf-efc823d6a7c5,A
2020-02-09 08:13:07,97bc12dd-d059-439f-95cf-efc823d6a7c5,S
2020-02-09 08:13:12,97bc12dd-d059-439f-95cf-efc823d6a7c5,A
2020-02-09 08:23:29,97bc12dd-d059-439f-95cf-efc823d6a7c5,S
2020-02-09 08:26:54,97bc12dd-d059-439f-95cf-efc823d6a7c5,A
2020-02-09 08:30:07,97bc12dd-d059-439f-95cf-efc823d6a7c5,S
2020-02-09 05:52:04,7ac79fcb-01ab-47e4-b547-33b1af6b4a10,S
2020-02-09 05:57:02,7ac79fcb-01ab-47e4-b547-33b1af6b4a10,A
2020-02-09 06:00:17,7ac79fcb-01ab-47e4-b547-33b1af6b4a10,S
2020-02-09 06:05:15,7ac79fcb-01ab-47e4-b547-33b1af6b4a10,A
2020-02-09 06:13:52,7ac79fcb-01ab-47e4-b547-33b1af6b4a10,S
2020-02-09 06:32:23,7ac79fcb-01ab-47e4-b547-33b1af6b4a10,A
2020-02-09 06:38:03,7ac79fcb-01ab-47e4-b547-33b1af6b4a10,S
2020-02-09 06:40:36,7ac79fcb-01ab-47e4-b547-33b1af6b4a10,A
2020-02-09 06:51:20,7ac79fcb-01ab-47e4-b547-33b1af6b4a10,S
2020-02-09 07:00:01,7ac79fcb-01ab-47e4-b547-33b1af6b4a10,A
2020-02-09 07:03:44,7ac79fcb-01ab-47e4-b547-33b1af6b4a10,S
2020-02-09 07:09:01,7ac79fcb-01ab-47e4-b547-33b1af6b4a10,A
2020-02-09 07:26:03,7ac79fcb-01ab-47e4-b547-33b1af6b4a10,S
2020-02-09 07:34:06,7ac79fcb-01ab-47e4-b547-33b1af6b4a10,A
2020-02-09 07:37:14,7ac79fcb-01ab-47e4-b547-33b1af6b4a10,S
2020-02-09 07:39:37,7ac79fcb-01ab-47e4-b547-33b1af6b4a10,A
2020-02-09 07:59:01,7ac79fcb-01ab-47e4-b547-33b1af6b4a10,S
2020-02-09 08:02:01,7ac79fcb-01ab-47e4-b547-33b1af6b4a10,A
2020-02-09 08:06:48,7ac79fcb-01ab-47e4-b547-33b1af6b4a10,S
2020-02-09 08:10:34,7ac79fcb-01ab-47e4-b547-33b1af6b4a10,A
2020-02-09 08:12:11,7ac79fcb-01ab-47e4-b547-33b1af6b4a10,S
2020-02-09 08:24:16,7ac79fcb-01ab-47e4-b547-33b1af6b4a10,A
2020-02-09 08:30:19,7ac79fcb-01ab-47e4-b547-33b1af6b4a10,S
2020-02-09 05:57:50,46bb5888-a9d1-41bc-adc1-a667f03101a8,A
2020-02-09 05:59:54,46bb5888-a9d1-41bc-adc1-a667f03101a8,S
2020-02-09 06:00:52,46bb5888-a9d1-41bc-adc1-a667f03101a8,A
2020-02-09 06:01:08,46bb5888-a9d1-41bc-adc1-a667f03101a8,S
2020-02-09 06:10:15,46bb5888-a9d1-41bc-adc1-a667f03101a8,A
2020-02-09 06:23:11,46bb5888-a9d1-41bc-adc1-a667f03101a8,S
2020-02-09 06:27:43,46bb5888-a9d1-41bc-adc1-a667f03101a8,A
2020-02-09 06:29:09,46bb5888-a9d1-41bc-adc1-a667f03101a8,S
2020-02-09 06:33:20,46bb5888-a9d1-41bc-adc1-a667f03101a8,A
2020-02-09 06:36:27,46bb5888-a9d1-41bc-adc1-a667f03101a8,S
2020-02-09 06:42:33,46bb5888-a9d1-41bc-adc1-a667f03101a8,A
2020-02-09 06:59:20,46bb5888-a9d1-41bc-adc1-a667f03101a8,S
2020-02-09 07:09:53,46bb5888-a9d1-41bc-adc1-a667f03101a8,A
2020-02-09 07:11:01,46bb5888-a9d1-41bc-adc1-a667f03101a8,S
2020-02-09 07:11:22,46bb5888-a9d1-41bc-adc1-a667f03101a8,A
2020-02-09 07:23:21,46bb5888-a9d1-41bc-adc1-a667f03101a8,S
2020-02-09 07:23:54,46bb5888-a9d1-41bc-adc1-a667f03101a8,A
2020-02-09 07:25:43,46bb5888-a9d1-41bc-adc1-a667f03101a8,S
2020-02-09 07:28:57,46bb5888-a9d1-41bc-adc1-a667f03101a8,A
2020-02-09 07:32:42,46bb5888-a9d1-41bc-adc1-a667f03101a8,S
2020-02-09 07:37:22,46bb5888-a9d1-41bc-adc1-a667f03101a8,A
2020-02-09 07:38:47,46bb5888-a9d1-41bc-adc1-a667f03101a8,S
2020-02-09 07:40:57,46bb5888-a9d1-41bc-adc1-a667f03101a8,A
2020-02-09 07:48:00,46bb5888-a9d1-41bc-adc1-a667f03101a8,S
2020-02-09 07:54:06,46bb5888-a9d1-41bc-adc1-a667f03101a8,A
2020-02-09 07:58:01,46bb5888-a9d1-41bc-adc1-a667f03101a8,S
2020-02-09 08:01:22,46bb5888-a9d1-41bc-adc1-a667f03101a8,A
2020-02-09 08:02:57,46bb5888-a9d1-41bc-adc1-a667f03101a8,S
2020-02-09 08:03:07,46bb5888-a9d1-41bc-adc1-a667f03101a8,A
2020-02-09 08:05:27,46bb5888-a9d1-41bc-adc1-a667f03101a8,S
2020-02-09 08:09:44,46bb5888-a9d1-41bc-adc1-a667f03101a8,A
2020-02-09 08:12:38,46bb5888-a9d1-41bc-adc1-a667f03101a8,S
2020-02-09 08:13:33,46bb5888-a9d1-41bc-adc1-a667f03101a8,A
2020-02-09 08:23:57,46bb5888-a9d1-41bc-adc1-a667f03101a8,S
2020-02-09 08:24:01,46bb5888-a9d1-41bc-adc1-a667f03101a8,A
2020-02-09 08:24:32,46bb5888-a9d1-41bc-adc1-a667f03101a8,S
2020-02-09 08:25:01,46bb5888-a9d1-41bc-adc1-a667f03101a8,A
2020-02-09 08:25:14,46bb5888-a9d1-41bc-adc1-a667f03101a8,S
2020-02-09 08:29:10,46bb5888-a9d1-41bc-adc1-a667f03101a8,A
2020-02-09 06:06:50,c9d48c51-900e-4e86-b586-dbf95fedeaa5,S
2020-02-09 06:07:35,c9d48c51-900e-4e86-b586-dbf95fedeaa5,A
2020-02-09 06:13:19,c9d48c51-900e-4e86-b586-dbf95fedeaa5,S
2020-02-09 06:17:34,c9d48c51-900e-4e86-b586-dbf95fedeaa5,A
2020-02-09 06:26:08,c9d48c51-900e-4e86-b586-dbf95fedeaa5,S
2020-02-09 06:27:02,c9d48c51-900e-4e86-b586-dbf95fedeaa5,A
2020-02-09 06:31:13,c9d48c51-900e-4e86-b586-dbf95fedeaa5,S
2020-02-09 06:32:22,c9d48c51-900e-4e86-b586-dbf95fedeaa5,A
2020-02-09 06:35:53,c9d48c51-900e-4e86-b586-dbf95fedeaa5,S
2020-02-09 06:45:46,c9d48c51-900e-4e86-b586-dbf95fedeaa5,A
2020-02-09 06:50:21,c9d48c51-900e-4e86-b586-dbf95fedeaa5,S
2020-02-09 06:52:45,c9d48c51-900e-4e86-b586-dbf95fedeaa5,A
2020-02-09 06:54:21,c9d48c51-900e-4e86-b586-dbf95fedeaa5,S
2020-02-09 07:01:13,c9d48c51-900e-4e86-b586-dbf95fedeaa5,A
2020-02-09 07:13:18,c9d48c51-900e-4e86-b586-dbf95fedeaa5,S
2020-02-09 07:14:37,c9d48c51-900e-4e86-b586-dbf95fedeaa5,A
2020-02-09 07:16:37,c9d48c51-900e-4e86-b586-dbf95fedeaa5,S
2020-02-09 07:18:35,c9d48c51-900e-4e86-b586-dbf95fedeaa5,A
2020-02-09 07:25:01,c9d48c51-900e-4e86-b586-dbf95fedeaa5,S
2020-02-09 07:46:30,c9d48c51-900e-4e86-b586-dbf95fedeaa5,A
2020-02-09 07:47:07,c9d48c51-900e-4e86-b586-dbf95fedeaa5,S
2020-02-09 07:48:22,c9d48c51-900e-4e86-b586-dbf95fedeaa5,A
2020-02-09 07:50:19,c9d48c51-900e-4e86-b586-dbf95fedeaa5,S
2020-02-09 07:53:51,c9d48c51-900e-4e86-b586-dbf95fedeaa5,A
2020-02-09 08:03:08,c9d48c51-900e-4e86-b586-dbf95fedeaa5,S
2020-02-09 08:11:14,c9d48c51-900e-4e86-b586-dbf95fedeaa5,A
2020-02-09 08:27:06,c9d48c51-900e-4e86-b586-dbf95fedeaa5,S
2020-02-09 05:56:56,593fca45-54bb-4ab4-ba15-08503530bd66,A
2020-02-09 05:59:06,593fca45-54bb-4ab4-ba15-08503530bd66,S
2020-02-09 05:59:14,593fca45-54bb-4ab4-ba15-08503530bd66,A
2020-02-09 06:00:40,593fca45-54bb-4ab4-ba15-08503530bd66,S
2020-02-09 06:07:26,593fca45-54bb-4ab4-ba15-08503530bd66,A
2020-02-09 06:08:52,593fca45-54bb-4ab4-ba15-08503530bd66,S
2020-02-09 06:12:10,593fca45-54bb-4ab4-ba15-08503530bd66,A
2020-02-09 06:13:51,593fca45-54bb-4ab4-ba15-08503530bd66,S
2020-02-09 06:17:05,593fca45-54bb-4ab4-ba15-08503530bd66,A
2020-02-09 06:18:33,593fca45-54bb-4ab4-ba15-08503530bd66,S
2020-02-09 06:18:36,593fca45-54bb-4ab4-ba15-08503530bd66,A
2020-02-09 06:19:01,593fca45-54bb-4ab4-ba15-08503530bd66,S
2020-02-09 06:22:11,593fca45-54bb-4ab4-ba15-08503530bd66,A
2020-02-09 06:24:50,593fca45-54bb-4ab4-ba15-08503530bd66,S
2020-02-09 06:25:03,593fca45-54bb-4ab4-ba15-08503530bd66,A
2020-02-09 06:32:07,593fca45-54bb-4ab4-ba15-08503530bd66,S
2020-02-09 06:33:47,593fca45-54bb-4ab4-ba15-08503530bd66,A
2020-02-09 06:33:58,593fca45-54bb-4ab4-ba15-08503530bd66,S
2020-02-09 06:38:20,593fca45-54bb-4ab4-ba15-08503530bd66,A
2020-02-09 06:40:12,593fca45-54bb-4ab4-ba15-08503530bd66,S
2020-02-09 06:49:14,593fca45-54bb-4ab4-ba15-08503530bd66,A
2020-02-09 06:50:48,593fca45-54bb-4ab4-ba15-08503530bd66,S
2020-02-09 06:58:44,593fca45-54bb-4ab4-ba15-08503530bd66,A
2020-02-09 07:01:43,593fca45-54bb-4ab4-ba15-08503530bd66,S
2020-02-09 07:04:32,593fca45-54bb-4ab4-ba15-08503530bd66,A
2020-02-09 07:04:58,593fca45-54bb-4ab4-ba15-08503530bd66,S
2020-02-09 07:08:28,593fca45-54bb-4ab4-ba15-08503530bd66,A
2020-02-09 07:12:08,593fca45-54bb-4ab4-ba15-08503530bd66,S
2020-02-09 07:12:11,593fca45-54bb-4ab4-ba15-08503530bd66,A
2020-02-09 07:21:30,593fca45-54bb-4ab4-ba15-08503530bd66,S
2020-02-09 07:22:02,593fca45-54bb-4ab4-ba15-08503530bd66,A
2020-02-09 07:26:37,593fca45-54bb-4ab4-ba15-08503530bd66,S
2020-02-09 07:32:20,593fca45-54bb-4ab4-ba15-08503530bd66,A
2020-02-09 07:37:27,593fca45-54bb-4ab4-ba15-08503530bd66,S
2020-02-09 07:41:51,593fca45-54bb-4ab4-ba15-08503530bd66,A
2020-02-09 07:50:18,593fca45-54bb-4ab4-ba15-08503530bd66,S
2020-02-09 07:53:01,593fca45-54bb-4ab4-ba15-08503530bd66,A
2020-02-09 07:54:19,593fca45-54bb-4ab4-ba15-08503530bd66,S
2020-02-09 07:55:50,593fca45-54bb-4ab4-ba15-08503530bd66,A
2020-02-09 08:09:24,593fca45-54bb-4ab4-ba15-08503530bd66,S
2020-02-09 08:11:00,593fca45-54bb-4ab4-ba15-08503530bd66,A
2020-02-09 08:12:25,593fca45-54bb-4ab4-ba15-08503530bd66,S
2020-02-09 08:18:25,593fca45-54bb-4ab4-ba15-08503530bd66,A
2020-02-09 08:18:56,593fca45-54bb-4ab4-ba15-08503530bd66,S
2020-02-09 08:21:57,593fca45-54bb-4ab4-ba15-08503530bd66,A
2020-02-09 08:23:43,593fca45-54bb-4ab4-ba15-08503530bd66,S
2020-02-09 08:25:02,593fca45-54bb-4ab4-ba15-08503530bd66,A
2020-02-09 08:27:40,593fca45-54bb-4ab4-ba15-08503530bd66,S
2020-02-09 08:30:44,593fca45-54bb-4ab4-ba15-08503530bd66,A
2020-02-09 06:05:30,0d79aa23-dc7a-4491-89b3-11e063f745ed,S
2020-02-09 06:07:49,0d79aa23-dc7a-4491-89b3-11e063f745ed,A
2020-02-09 06:15:42,0d79aa23-dc7a-4491-89b3-11e063f745ed,S
2020-02-09 06:27:54,0d79aa23-dc7a-4491-89b3-11e063f745ed,A
2020-02-09 06:31:38,0d79aa23-dc7a-4491-89b3-11e063f745ed,S
2020-02-09 06:40:32,0d79aa23-dc7a-4491-89b3-11e063f745ed,A
2020-02-09 06:42:50,0d79aa23-dc7a-4491-89b3-11e063f745ed,S
2020-02-09 06:48:05,0d79aa23-dc7a-4491-89b3-11e063f745ed,A
2020-02-09 06:55:14,0d79aa23-dc7a-4491-89b3-11e063f745ed,S
2020-02-09 07:00:27,0d79aa23-dc7a-4491-89b3-11e063f745ed,A
2020-02-09 07:02:20,0d79aa23-dc7a-4491-89b3-11e063f745ed,S
2020-02-09 07:13:51,0d79aa23-dc7a-4491-89b3-11e063f745ed,A
2020-02-09 07:19:22,0d79aa23-dc7a-4491-89b3-11e063f745ed,S
2020-02-09 07:19:45,0d79aa23-dc7a-4491-89b3-11e063f745ed,A
2020-02-09 07:27:34,0d79aa23-dc7a-4491-89b3-11e063f745ed,S
2020-02-09 07:34:01,0d79aa23-dc7a-4491-89b3-11e063f745ed,A
2020-02-09 07:45:47,0d79aa23-dc7a-4491-89b3-11e063f745ed,S
2020-02-09 07:48:39,0d79aa23-dc7a-4491-89b3-11e063f745ed,A
2020-02-09 07:53:02,0d79aa23-dc7a-4491-89b3-11e063f745ed,S
2020-02-09 07:57:00,0d79aa23-dc7a-4491-89b3-11e063f745ed,A
2020-02-09 08:02:31,0d79aa23-dc7a-4491-89b3-11e063f745ed,S
2020-02-09 08:10:41,0d79aa23-dc7a-4491-89b3-11e063f745ed,A
2020-02-09 08:10:56,0d79aa23-dc7a-4491-89b3-11e063f745ed,S
2020-02-09 08:11:46,0d79aa23-dc7a-4491-89b3-11e063f745ed,A
2020-02-09 08:15:03,0d79aa23-dc7a-4491-89b3-11e063f745ed,S
2020-02-09 08:18:21,0d79aa23-dc7a-4491-89b3-11e063f745ed,A
2020-02-09 08:19:08,0d79aa23-dc7a-4491-89b3-11e063f745ed,S
2020-02-09 08:22:59,0d79aa23-dc7a-4491-89b3-11e063f745ed,A
2020-02-09 08:29:06,0d79aa23-dc7a-4491-89b3-11e063f745ed,S
2020-02-09 08:30:16,0d79aa23-dc7a-4491-89b3-11e063f745ed,A
2020-02-09 05:36:59,2a7033cd-69a0-48cd-905a-4b8157d555dd,S
2020-02-09 05:41:23,2a7033cd-69a0-48cd-905a-4b8157d555dd,A
2020-02-09 05:42:21,2a7033cd-69a0-48cd-905a-4b8157d555dd,S
2020-02-09 05:45:37,2a7033cd-69a0-48cd-905a-4b8157d555dd,A
2020-02-09 05:46:00,2a7033cd-69a0-48cd-905a-4b8157d555dd,S
2020-02-09 05:48:58,2a7033cd-69a0-48cd-905a-4b8157d555dd,A
2020-02-09 05:52:58,2a7033cd-69a0-48cd-905a-4b8157d555dd,S
2020-02-09 05:55:12,2a7033cd-69a0-48cd-905a-4b8157d555dd,A
2020-02-09 05:57:18,2a7033cd-69a0-48cd-905a-4b8157d555dd,S
2020-02-09 06:01:29,2a7033cd-69a0-48cd-905a-4b8157d555dd,A
2020-02-09 06:06:06,2a7033cd-69a0-48cd-905a-4b8157d555dd,S
2020-02-09 06:09:11,2a7033cd-69a0-48cd-905a-4b8157d555dd,A
2020-02-09 06:11:21,2a7033cd-69a0-48cd-905a-4b8157d555dd,S
2020-02-09 06:17:23,2a7033cd-69a0-48cd-905a-4b8157d555dd,A
2020-02-09 06:19:54,2a7033cd-69a0-48cd-905a-4b8157d555dd,S
2020-02-09 06:20:38,2a7033cd-69a0-48cd-905a-4b8157d555dd,A
2020-02-09 06:20:42,2a7033cd-69a0-48cd-905a-4b8157d555dd,S
2020-02-09 06:23:32,2a7033cd-69a0-48cd-905a-4b8157d555dd,A
2020-02-09 06:31:48,2a7033cd-69a0-48cd-905a-4b8157d555dd,S
2020-02-09 06:34:33,2a7033cd-69a0-48cd-905a-4b8157d555dd,A
2020-02-09 06:34:36,2a7033cd-69a0-48cd-905a-4b8157d555dd,S
2020-02-09 06:40:42,2a7033cd-69a0-48cd-905a-4b8157d555dd,A
2020-02-09 06:45:05,2a7033cd-69a0-48cd-905a-4b8157d555dd,S
2020-02-09 06:52:26,2a7033cd-69a0-48cd-905a-4b8157d555dd,A
2020-02-09 06:53:35,2a7033cd-69a0-48cd-905a-4b8157d555dd,S
2020-02-09 06:57:31,2a7033cd-69a0-48cd-905a-4b8157d555dd,A
2020-02-09 06:58:18,2a7033cd-69a0-48cd-905a-4b8157d555dd,S
2020-02-09 06:58:36,2a7033cd-69a0-48cd-905a-4b8157d555dd,A
2020-02-09 07:09:09,2a7033cd-69a0-48cd-905a-4b8157d555dd,S
2020-02-09 07:10:32,2a7033cd-69a0-48cd-905a-4b8157d555dd,A
2020-02-09 07:16:17,2a7033cd-69a0-48cd-905a-4b8157d555dd,S
2020-02-09 07:20:43,2a7033cd-69a0-48cd-905a-4b8157d555dd,A
2020-02-09 07:22:02,2a7033cd-69a0-48cd-905a-4b8157d555dd,S
2020-02-09 07:24:50,2a7033cd-69a0-48cd-905a-4b8157d555dd,A
2020-02-09 07:26:14,2a7033cd-69a0-48cd-905a-4b8157d555dd,S
2020-02-09 07:35:03,2a7033cd-69a0-48cd-905a-4b8157d555dd,A
2020-02-09 07:36:33,2a7033cd-69a0-48cd-905a-4b8157d555dd,S
2020-02-09 07:40:12,2a7033cd-69a0-48cd-905a-4b8157d555dd,A
2020-02-09 07:40:29,2a7033cd-69a0-48cd-905a-4b8157d555dd,S
2020-02-09 07:44:27,2a7033cd-69a0-48cd-905a-4b8157d555dd,A
2020-02-09 08:28:39,2a7033cd-69a0-48cd-905a-4b8157d555dd,S
2020-02-09 08:30:55,2a7033cd-69a0-48cd-905a-4b8157d555dd,A
2020-02-09 05:32:39,2e26ba94-4cdd-4189-858c-e4b4799f40bb,A
2020-02-09 05:34:27,2e26ba94-4cdd-4189-858c-e4b4799f40bb,S
2020-02-09 05:45:00,2e26ba94-4cdd-4189-858c-e4b4799f40bb,A
2020-02-09 05:45:14,2e26ba94-4cdd-4189-858c-e4b4799f40bb,S
2020-02-09 05:47:00,2e26ba94-4cdd-4189-858c-e4b4799f40bb,A
2020-02-09 05:47:32,2e26ba94-4cdd-4189-858c-e4b4799f40bb,S
2020-02-09 05:49:21,2e26ba94-4cdd-4189-858c-e4b4799f40bb,A
2020-02-09 05:54:18,2e26ba94-4cdd-4189-858c-e4b4799f40bb,S
2020-02-09 05:55:38,2e26ba94-4cdd-4189-858c-e4b4799f40bb,A
2020-02-09 05:59:45,2e26ba94-4cdd-4189-858c-e4b4799f40bb,S
2020-02-09 06:10:08,2e26ba94-4cdd-4189-858c-e4b4799f40bb,A
2020-02-09 06:11:42,2e26ba94-4cdd-4189-858c-e4b4799f40bb,S
2020-02-09 06:19:13,2e26ba94-4cdd-4189-858c-e4b4799f40bb,A
2020-02-09 06:19:28,2e26ba94-4cdd-4189-858c-e4b4799f40bb,S
2020-02-09 06:20:53,2e26ba94-4cdd-4189-858c-e4b4799f40bb,A
2020-02-09 06:38:10,2e26ba94-4cdd-4189-858c-e4b4799f40bb,S
2020-02-09 06:43:56,2e26ba94-4cdd-4189-858c-e4b4799f40bb,A
2020-02-09 06:47:30,2e26ba94-4cdd-4189-858c-e4b4799f40bb,S
2020-02-09 06:50:42,2e26ba94-4cdd-4189-858c-e4b4799f40bb,A
2020-02-09 06:50:59,2e26ba94-4cdd-4189-858c-e4b4799f40bb,S
2020-02-09 07:09:34,2e26ba94-4cdd-4189-858c-e4b4799f40bb,A
2020-02-09 07:10:00,2e26ba94-4cdd-4189-858c-e4b4799f40bb,S
2020-02-09 07:12:50,2e26ba94-4cdd-4189-858c-e4b4799f40bb,A
2020-02-09 07:26:23,2e26ba94-4cdd-4189-858c-e4b4799f40bb,S
2020-02-09 07:29:41,2e26ba94-4cdd-4189-858c-e4b4799f40bb,A
2020-02-09 07:32:09,2e26ba94-4cdd-4189-858c-e4b4799f40bb,S
2020-02-09 07:32:46,2e26ba94-4cdd-4189-858c-e4b4799f40bb,A
2020-02-09 07:38:00,2e26ba94-4cdd-4189-858c-e4b4799f40bb,S
2020-02-09 07:42:40,2e26ba94-4cdd-4189-858c-e4b4799f40bb,A
2020-02-09 07:46:36,2e26ba94-4cdd-4189-858c-e4b4799f40bb,S
2020-02-09 07:48:29,2e26ba94-4cdd-4189-858c-e4b4799f40bb,A
2020-02-09 07:49:27,2e26ba94-4cdd-4189-858c-e4b4799f40bb,S
2020-02-09 07:56:05,2e26ba94-4cdd-4189-858c-e4b4799f40bb,A
2020-02-09 07:56:57,2e26ba94-4cdd-4189-858c-e4b4799f40bb,S
2020-02-09 08:11:38,2e26ba94-4cdd-4189-858c-e4b4799f40bb,A
2020-02-09 08:13:50,2e26ba94-4cdd-4189-858c-e4b4799f40bb,S
2020-02-09 08:17:11,2e26ba94-4cdd-4189-858c-e4b4799f40bb,A
2020-02-09 08:18:34,2e26ba94-4cdd-4189-858c-e4b4799f40bb,S
2020-02-09 08:25:28,2e26ba94-4cdd-4189-858c-e4b4799f40bb,A
2020-02-09 08:28:13,2e26ba94-4cdd-4189-858c-e4b4799f40bb,S
2020-02-09 05:40:45,f6fbffcc-d386-4d53-ac44-66c97644f706,A
2020-02-09 05:45:35,f6fbffcc-d386-4d53-ac44-66c97644f706,S
2020-02-09 05:51:22,f6fbffcc-d386-4d53-ac44-66c97644f706,A
2020-02-09 05:51:59,f6fbffcc-d386-4d53-ac44-66c97644f706,S
2020-02-09 06:11:11,f6fbffcc-d386-4d53-ac44-66c97644f706,A
2020-02-09 06:11:24,f6fbffcc-d386-4d53-ac44-66c97644f706,S
2020-02-09 06:29:01,f6fbffcc-d386-4d53-ac44-66c97644f706,A
2020-02-09 06:29:08,f6fbffcc-d386-4d53-ac44-66c97644f706,S
2020-02-09 06:36:51,f6fbffcc-d386-4d53-ac44-66c97644f706,A
2020-02-09 06:39:33,f6fbffcc-d386-4d53-ac44-66c97644f706,S
2020-02-09 06:44:46,f6fbffcc-d386-4d53-ac44-66c97644f706,A
2020-02-09 06:47:16,f6fbffcc-d386-4d53-ac44-66c97644f706,S
2020-02-09 06:47:53,f6fbffcc-d386-4d53-ac44-66c97644f706,A
2020-02-09 06:48:07,f6fbffcc-d386-4d53-ac44-66c97644f706,S
2020-02-09 06:50:43,f6fbffcc-d386-4d53-ac44-66c97644f706,A
2020-02-09 06:54:14,f6fbffcc-d386-4d53-ac44-66c97644f706,S
2020-02-09 07:05:44,f6fbffcc-d386-4d53-ac44-66c97644f706,A
2020-02-09 07:15:40,f6fbffcc-d386-4d53-ac44-66c97644f706,S
2020-02-09 07:21:08,f6fbffcc-d386-4d53-ac44-66c97644f706,A
2020-02-09 07:21:51,f6fbffcc-d386-4d53-ac44-66c97644f706,S
2020-02-09 07:22:47,f6fbffcc-d386-4d53-ac44-66c97644f706,A
2020-02-09 07:24:45,f6fbffcc-d386-4d53-ac44-66c97644f706,S
2020-02-09 07:26:05,f6fbffcc-d386-4d53-ac44-66c97644f706,A
2020-02-09 07:33:25,f6fbffcc-d386-4d53-ac44-66c97644f706,S
2020-02-09 07:35:18,f6fbffcc-d386-4d53-ac44-66c97644f706,A
2020-02-09 07:37:02,f6fbffcc-d386-4d53-ac44-66c97644f706,S
2020-02-09 07:52:26,f6fbffcc-d386-4d53-ac44-66c97644f706,A
2020-02-09 07:58:20,f6fbffcc-d386-4d53-ac44-66c97644f706,S
2020-02-09 08:02:52,f6fbffcc-d386-4d53-ac44-66c97644f706,A
2020-02-09 08:03:56,f6fbffcc-d386-4d53-ac44-66c97644f706,S
2020-02-09 08:06:16,f6fbffcc-d386-4d53-ac44-66c97644f706,A
2020-02-09 08:09:56,f6fbffcc-d386-4d53-ac44-66c97644f706,S
2020-02-09 08:11:56,f6fbffcc-d386-4d53-ac44-66c97644f706,A
2020-02-09 08:12:04,f6fbffcc-d386-4d53-ac44-66c97644f706,S
2020-02-09 08:21:10,f6fbffcc-d386-4d53-ac44-66c97644f706,A
2020-02-09 08:27:30,f6fbffcc-d386-4d53-ac44-66c97644f706,S
2020-02-09 08:28:35,f6fbffcc-d386-4d53-ac44-66c97644f706,A
2020-02-09 08:29:29,f6fbffcc-d386-4d53-ac44-66c97644f706,S
2020-02-09 08:32:27,f6fbffcc-d386-4d53-ac44-66c97644f706,A
