app_number,app_id,trigger,burn,sink,deploy_date,token_interval
1,b1d162a8-649d-4172-b5ee-5d8d00147e95,4a1775d9-7c2f-4e4a-8031-dff767441992,1f0277ad-8f4e-4925-91f4-d5ffc4c422c8,8110b493-5c29-4107-9d3c-dc8b410cf811,2019-09-21 00:24:42,1.000000
2,ebfcd09b-4780-4ade-860d-d6cee02b2c95,e813c8d3-c00b-4e5e-9705-2667e11b0880,3dd464db-e454-4ec0-b10b-f44f84a9a4d7,58c95dfb-36e6-44ed-8411-12e976489234,2019-09-21 00:25:45,1.000000
3,e7a130d8-eb37-48e4-8d2d-24bc8312d0ea,5328427b-c985-4ba8-95a7-63e6f0fc4028,07928ae4-0b21-4655-9fae-a23957e5b0b5,581a8c9d-5a93-4cdc-bf12-c38e2b3ba991,2019-09-21 00:26:49,1.000000
4,NA,NA,NA,NA,2019-09-21 00:27:53,NA
5,b2aa5909-3288-40fa-a7b1-3d3570700380,84ffde6e-54f3-4920-8db1-8e431258fdb9,e2455078-8953-46b8-aa95-f04eb6ad1a41,943aac78-2b33-48dc-801d-1b2e75a348e4,2019-09-21 00:28:57,0.200000
6,47c60c38-c37b-4592-ae91-e223159048ab,f172c78d-d255-46fe-aee0-c6393206c5a5,b84721da-331e-4752-8c83-69f0070b34f7,1a15838e-57eb-4354-9315-5cbe9cc7c41e,2019-09-21 00:30:01,0.200000
7,4e238254-fd73-429d-9fdb-4bb57c3a31f9,7f8bab19-3fd0-47dd-a9fe-45a2fc39e5e5,20793ca3-0ab6-4b22-8329-52863cab4118,f1addb19-fae0-4f91-8d8b-d676e3633fab,2019-09-21 00:31:04,0.200000
8,9a193675-1f7e-4471-b240-6e307ecdd865,a483a95c-07d0-4cef-96c0-94d9280d3773,931ad04c-0664-44e4-b42a-69ad130ba861,4a96c2a3-48e8-4bbe-9c87-cecf52e0fc9a,2019-09-21 00:32:08,1.000000
9,86991a22-5618-4bc5-97ce-a2e437daa6d0,1bfba504-4657-405f-a304-6e22b25ccd03,9dfd1cd7-27f4-4e35-8d97-f0be7a9967dd,9dee7f27-1990-4529-9c18-31eb238872fa,2019-09-21 00:33:12,0.200000
10,739bb531-ddaa-4d74-83fa-b89c084c39c6,84027f2c-fcc3-4ff3-8bc0-0f8f32cc32f8,f6f90738-478d-4261-b96d-ab92e36eb1fd,70a43fb0-239b-4a5f-b960-09220e073311,2019-09-21 00:34:16,0.200000
11,6f4680df-d485-4046-b9e8-74614dc53ae6,5e6789b9-9386-45c2-bfa0-24abc1bb9337,21464d20-b0cf-4276-b926-796eb95845e0,e011b3b9-c166-401f-a575-2e772984cc39,2019-09-21 00:35:20,0.200000
12,fff24c45-fc53-412a-8c98-4b21de3da436,133d0a3b-4eb1-4638-bd7a-719a029108bc,37f28c22-0f7e-483f-be16-67955d956081,ccd5a94e-e24a-4c0a-a3fd-55e713044ab0,2019-09-21 00:36:24,1.000000
13,e9aac7c4-9fc9-4856-aaf8-5adbc533b79e,c34db9b7-a154-4fae-9bbd-87564f93c6ee,35eeca7f-3b24-42cc-84de-195a02d9642b,3cd37c0c-8c5c-49fb-9104-8e61b832700f,2019-09-21 00:37:27,0.200000
14,dedbd601-a2c2-4554-917d-426533fa2800,f10b4df6-e8aa-442c-a4d6-d86b875badbb,4c81c2c3-4668-4a55-bc32-bce0bd18317a,d202c076-fc53-42dc-b2ef-4d4040ca3646,2019-09-21 00:38:31,0.200000
15,f69d431e-47a2-48d8-a752-dacefa90b158,cc1d0548-08cc-4e8e-bf99-d682c20015e9,8ff208f3-b46d-4a6e-a4c4-13b1851a0b9d,60ff73ee-76cf-4878-bb36-daabecac3db7,2019-09-21 00:39:35,1.000000
16,3d59015d-7f7e-4346-9bcb-544ddea90c34,ad94ecba-014c-44dd-859f-bf7f83ffb5db,d4647e31-1310-4e9f-9fbd-e3466e242ee0,0e96b1ab-276a-4917-8d98-851ef754ff94,2019-09-21 00:40:39,1.000000
17,aa8b6b4b-adc9-4e9a-86c3-c96d97735998,b45abf3e-ffd3-4f21-9bcc-8ce37a1a63d6,2d3f487b-7b8b-4cd2-beed-01c9349f02d3,ec6593a0-047a-4aa6-9cec-5f0d1d822104,2019-09-21 00:41:42,0.200000
18,6c384d39-8c2f-4793-9c65-2020cbd00a3c,fa8941d7-694a-4068-99a6-916130ccce78,3c28165b-12aa-4e9c-851d-e95b52adba21,3b266a65-e88f-4b86-8512-bd7d50e06706,2019-09-21 00:42:46,1.000000
19,f7afdd9f-4fe8-4c96-8fe1-b252bfed65fc,c7ea8a5d-8247-4599-8fb4-1a683a90523b,30d223a7-ab84-42f1-be95-addc9a068f20,c8bbf82a-1575-4101-ad45-4308bd9a4f83,2019-09-21 00:43:50,0.200000
20,f01c8bfe-bf79-4f9b-abdb-de09cc87b2be,70d1cc4d-14eb-40c1-b683-c29ee10904dc,a2c2809e-39a3-4707-abc4-eb2658eaf23e,af891004-49f7-4f80-be44-09aa783bdc55,2019-09-21 00:44:54,1.000000
21,9ccbb883-d65e-485b-9c90-57dffe4c6582,467b8454-0f0e-4090-8602-106b1fbe3d91,f278ddfd-7111-4b58-8c95-1656cf968c5c,3a52883e-69e8-443f-857b-8ce7c0291d34,2019-09-21 00:45:58,0.200000
22,0afbce02-bfc2-46ac-9a62-5a6eb8666e17,1436745a-efa2-4a28-9d53-829fe5fd63fa,34da2cbb-4a72-4b1f-822a-b9c9c1b2acd5,a62345a5-d9b3-40e6-a89d-bd3cf4cf235a,2019-09-21 00:47:01,0.200000
23,NA,NA,NA,NA,2019-09-21 00:48:05,NA
24,b9186f12-2f90-4f17-b9c8-53ba626926f9,8f1e91cf-6db8-419d-a78a-82ab46ed4b6c,ba72b05f-6e70-4dc6-bd31-6f9bee4af24d,a0988979-2860-4a6e-a55e-62efe938e13a,2019-09-21 00:49:09,1.000000
25,2b825b32-53ff-4273-8d52-b90b5023999d,5a928256-aacb-4943-8464-c9439f0607f0,f0b6e0b3-d139-46e6-9f7e-4ced2609407a,e7a17fc3-e20b-4cf4-91ac-302ea56910f7,2019-09-21 00:50:13,1.000000
26,93da8d4a-ea26-4ba9-a55e-5cd4ff0f25f6,0fc40fb9-50cb-49f4-9f96-ffaaefc55a40,b1bda26e-42d2-41d1-837b-e7bd41690070,d202240b-6b2e-4fa0-bc98-1dba9a716a3c,2019-09-21 00:51:17,1.000000
27,9b6e12a0-ccba-4317-826e-9c36f6035b76,98bbee2e-dfeb-4794-97b6-3c6b1f8bf23b,cd1ce233-2e21-4f5f-91f9-39497efcc885,624cf657-ae6f-4001-8458-23147bff6329,2019-09-21 00:52:20,0.200000
28,ec1f8651-e261-4b96-b2e9-8cf0593c6fed,7b7e128e-16fa-43b5-bc11-0086c4b49420,a508acbb-3533-4c97-9cbc-7d41feb2db78,aee8602d-67cf-4122-90da-3bc794510016,2019-09-21 00:53:24,1.000000
29,b58ed204-38b6-4d53-90e4-502b9ff943b8,4e7724f5-527e-4e39-b387-a24608657927,e9ec71a4-4147-495f-919b-ae26400d73f6,64cd04f9-a9f7-44bb-bb5c-8e3bb86eb686,2019-09-21 00:54:28,1.000000
30,bbd42a6f-c4f7-488e-af23-679274ea680e,0b3df5e7-e4c5-4789-adcc-2aefb217b6bc,bc2f5f63-c7b2-4e83-90fc-98fc4c7fc21b,6366b221-82ac-4388-8b01-51de854dd1fe,2019-09-21 00:55:31,1.000000
31,NA,NA,NA,NA,2019-09-21 00:56:35,NA
32,6f37dccb-ad30-469f-8f6a-d018c675f547,6ea1e1db-2064-4b78-a68e-c03c1ba3be07,1d373c4e-23ed-4fa6-abc1-178102d04e07,610b8bbc-cb32-4052-9a77-e78589a765e5,2019-09-21 00:57:39,0.200000
33,NA,NA,NA,NA,2019-09-21 00:58:43,NA
34,6920f133-d6c8-44c4-8328-163e8639c128,081b2544-e5f7-4cae-9f93-398cb596f00e,02ef4620-d88c-4947-aeaa-85f94cb381fa,45e6163c-ec9b-4263-bd5f-813ef1727cf2,2019-09-21 00:59:47,0.200000
35,b4271ca6-b999-4acb-b7df-974887c5e764,9051ebd1-9b4f-439d-94dc-df62d86bfa61,c3895191-00b0-4a57-85fb-acd72f1acee5,c49da26c-4a92-4433-b8df-eda3103627d6,2019-09-21 01:00:51,1.000000
36,7c4898e5-8807-45a3-9657-8f796b86912e,c5efcc1e-a440-4788-afcc-224b93364fca,937718b3-6016-4f16-a053-732ac3a2be9e,87c3c9a5-fbc6-421f-92de-e5cee64ae392,2019-09-21 01:01:54,0.200000
37,06ecd731-deb4-4960-b7e3-24c889b0a816,6866cfdb-b9c9-4aa4-ae41-97affb4182a3,df13ddd7-abdd-4874-a7be-2cfca4c2cd7c,554bdac5-d8b7-4be8-a408-b196ac362796,2019-09-21 01:02:58,1.000000
38,NA,NA,NA,NA,2019-09-21 01:04:02,NA
39,NA,NA,NA,NA,2019-09-21 01:05:06,NA
40,850018d3-2ae4-4cc0-adf5-0847e15ebddb,89dc27a5-2b7c-473a-a52b-3addfd603767,caff518c-357c-4dff-89bf-3083c3828678,28cb7f47-cf04-4e1a-a8df-6f863f70a62d,2019-09-21 01:06:10,0.200000
41,06c9c9ee-dd5c-484d-985b-7ea6fc80b9ab,c96430b6-70c5-421c-98fc-3abf6616bc37,d51637d1-1ee3-4f3d-a9db-920e72a0e3bd,5d85f668-8d04-463e-97a3-32e15f761e5d,2019-09-21 01:07:13,1.000000
42,a3636fd8-be1b-49e0-ae8d-b0a1903a99b8,6fc12cd2-cbc7-4a8d-bd49-7ae9a9536013,11c586a0-e570-40ea-b3c5-6a601cc69eff,331bd361-3b36-439f-b0d8-db18e56ceb2e,2019-09-21 01:08:17,0.200000
43,2563e704-7a7a-4d3c-9af6-7632996363df,8fe498b1-c4b4-4a8b-be33-ade66d4ccb33,f52c4a20-7602-4df0-a2c7-60dc2b065fd6,603e7796-f778-4e9d-abcd-b6d492da0c15,2019-09-21 01:09:20,0.200000
44,b8457805-16c4-4c29-8b31-f55c9023127c,9ec6759e-6a3c-47f5-892e-b1328098d0c1,72d1ae34-de78-4bb7-ab0d-ac6946e7653b,328a5a35-1c79-4de2-8f3c-296bc804de37,2019-09-21 01:10:23,0.200000
45,60dd865a-2fa6-413f-8c8b-9a33440e055c,f73b098a-d0a4-4421-a0fa-f56f1a8b8ee7,0f680b39-5527-41f3-8469-7447073caa5b,cd604270-adfe-4495-9068-0e7abd7f6b9e,2019-09-21 01:11:27,1.000000
46,NA,NA,NA,NA,2019-09-21 01:12:31,NA
47,182bdec9-d909-4e4f-bea1-c7ec152e4b3b,0051e2e9-5454-4ac8-9da9-3e80be0359b6,9a8e322a-6600-474e-a792-fb755ca6fe9b,466e07c2-dfa8-4e52-b46c-071ebbd49a65,2019-09-21 01:13:35,0.200000
48,91752dc9-ee02-4d4b-a56c-03cfcf218db9,8118eaaa-880d-4137-a5ab-3d50b72adbbc,e1ed6a3f-6e82-46c9-9d48-de8f095d9f3a,6ae87f11-7c66-4839-b06c-9d1f3fc5c247,2019-09-21 01:14:38,1.000000
49,f7ea5463-e1a4-4657-a090-0f288f920ec1,fbb9de86-6e5a-4f05-8da2-1e09fea251ef,924e3a14-3c0d-43eb-97ed-8ee42d93c8d1,0ad68a73-ab12-449a-94f2-c88a490a7db7,2019-09-21 01:15:42,0.200000
50,b461453e-9e39-49c9-8c85-ad1ec8ca31ff,b8de0213-f92c-4369-9087-358b26875605,14579543-6949-4e52-a94d-43ba5974ae1a,bc8b5645-f2fe-4522-bb39-6302e8a3d713,2019-09-21 01:16:46,1.000000
