actor,node
deba0397-cf15-4dd3-8a69-a1d3ce915fd4,0835f7ed-52eb-44a1-acf3-9ae8e633bab1
cbea182b-fd2a-420a-8300-a0420bcbc39e,75d9cdc3-aa34-4d84-b994-7fbff533c50a
67646293-05e1-40ea-9da3-468e4ad54393,75d9cdc3-aa34-4d84-b994-7fbff533c50a
5852c080-725e-4f33-a25a-5d6408969d1a,ed3709f9-4320-4bf5-910e-3f27dc85985f
db10015e-f13c-44b0-ba3a-9d4988c25735,11bed503-7fe2-46d2-a0f7-f542e5a4b586
32629b37-f70f-412f-b722-6711b1567575,11bed503-7fe2-46d2-a0f7-f542e5a4b586
f3eff765-292a-4403-b292-bc6266abcd34,2337eb42-8a4c-49f3-9f2a-978c58aaaf29
8d35cc29-75a9-4afa-8fb6-a91e3e9c4d39,2337eb42-8a4c-49f3-9f2a-978c58aaaf29
868cb116-c047-4907-b257-98a7f8f0d01e,75541d51-dc1a-467c-819f-bd0ae3f06d0a
4c235674-65c0-4897-8a68-736968f5a249,72d9d930-157d-4fdb-b249-0365060c24f5
5c6b5ecc-c018-4c38-8d10-0000b6881436,0365857f-8302-49b8-b4a1-01ca4b0ed146
5fcd9ebf-bcc5-4996-81fe-de3a4e383bc7,0365857f-8302-49b8-b4a1-01ca4b0ed146
01799ef3-1c1a-4c1c-b150-2d74a0dbd4b3,12aaa151-139c-479c-9cdd-782bcec24492
8c14e873-43e6-4175-a4ba-d47dd54d7cdb,12aaa151-139c-479c-9cdd-782bcec24492
a245ff30-bf7c-4ca9-87c4-7e4d9dfd768e,12e3453d-2c71-46a9-b9cf-ef5798fd8c67
3c21df1f-69f6-47c3-ac41-8f14769854b9,a14dd62b-7468-45a6-8977-8afe9c335d44
57ca262b-add6-4a89-9430-af75b6ef4621,38dc98f7-a169-4e06-bb72-f564e40f3854
94b234ca-a4b7-42a6-a0c5-af92ddfbec6c,a14dd62b-7468-45a6-8977-8afe9c335d44
a73fa21c-0b2a-4780-869b-dfd5d22b14c0,72e6c189-3e11-4f5d-8a54-a18f46b06bc6
f6c9b3b4-6249-4102-ab7f-90fc352af408,57e21c8d-ad49-45f7-b7f7-12744fb3831c
c2b66bd6-3bee-43b2-a2fb-b72f1acd5d6c,57e21c8d-ad49-45f7-b7f7-12744fb3831c
84119d46-3ea8-4447-9b8d-d400d0ab791a,4b365036-9f09-4602-9af9-9e5c4d33f5ea
87b7a1aa-72e7-44eb-97d6-9c3b5e4eec2c,27e3d83b-ab2f-48ed-bd31-280bc004eed1
6491b868-3cb5-4c5e-89b2-832bc4fa35ed,27e3d83b-ab2f-48ed-bd31-280bc004eed1
2d623ceb-1e61-46a3-b8d3-36a23ed2dee2,172dff13-70b2-4906-862e-4cb599b7dcdb
79b3705b-b81c-466c-a629-22c919daf141,1adf6dd0-4574-44b4-ab23-970e0afffa60
1bb686f1-43e5-444b-a2f6-19a8b3428388,172dff13-70b2-4906-862e-4cb599b7dcdb
4c9b2c8f-bf62-4bca-a54f-54cca11e9157,7e68b31b-459b-4075-bf9d-080e4b9ff120
5215d33e-47b5-4d95-8c50-c8986ed6f876,7e68b31b-459b-4075-bf9d-080e4b9ff120
4efcc612-47e1-4b74-a0e4-322fc4c1bcdb,8a700c2e-f460-4c52-91fb-3ce2ce56c8ca
7f7630ee-f382-4215-99e3-90f8694de27b,31cfdd63-988e-4b6f-98e5-df2afbfacae3
3bc56693-9357-40c1-ae5e-8b22d203f0e8,31cfdd63-988e-4b6f-98e5-df2afbfacae3
551bd5d5-0432-4fb8-984e-dd0ea0d27a10,45205b05-f944-4bf2-9720-3a00b383792f
d66ee28a-345e-479a-a0cf-8ad7ac0ab246,28eaa846-6c9b-4cf1-bc1d-9fd1bfc08e7c
67e721ea-ecf6-4afd-9002-88d1149e24ad,28eaa846-6c9b-4cf1-bc1d-9fd1bfc08e7c
92a8e2b3-80f5-4bf5-ab40-f0227f23dc43,9263585c-6ede-4fdf-abec-8c0dfa582bf8
7b3759be-5242-407f-9e3e-856666965ff8,7db175bf-ec67-4c97-bbe6-a7499e21f465
3595b565-e896-4641-bac6-7ff4dec78fe5,d640c3c5-0ef0-44e3-88c9-a924a1733d3f
053f0b97-fda8-45f3-b5bd-d79a0b5ab817,d640c3c5-0ef0-44e3-88c9-a924a1733d3f
f75740f6-07f2-42cb-b864-f3db05e957e8,2d50ba02-cd55-419a-831a-d17e52be9a55
29575e00-5bff-4647-adca-6c9a4e30c21a,2d50ba02-cd55-419a-831a-d17e52be9a55
caf42622-3aca-47ab-9463-e1f5a6ac9fb8,758ee8d9-f01d-4a69-b7b6-650f88711428
91cb6d9c-663b-49ff-ba8b-e17743e03c6d,2985f6de-9e6a-47c2-b80f-97ccdaf7788a
ccfd487f-7d23-4a66-8931-b8d9d830063a,9796b0a5-ab44-4b43-a435-0bbdb5e7956e
93449448-165d-4a64-b70d-c8eb86c87459,9796b0a5-ab44-4b43-a435-0bbdb5e7956e
4e3d9ad0-8c77-4250-ac88-bed58a6fd0c6,75d9cdc3-aa34-4d84-b994-7fbff533c50a
bc2f35c3-f6f9-4d0a-b404-38c7e42d5f6f,8e5cd7d0-7a74-40a6-bc68-39521277bc7e
96a5319c-e5d8-4427-a1c6-ea7ed401a370,75d9cdc3-aa34-4d84-b994-7fbff533c50a
93bbc334-d882-4124-95c4-35bd619b0235,11bed503-7fe2-46d2-a0f7-f542e5a4b586
2a5ceac5-56b7-4cdb-a279-a35d4f3c1a56,391436a7-cc35-4be4-a4f6-5c55ac1ffdc1
6c1b96b2-5ac0-40c4-a051-df17e64b6612,11bed503-7fe2-46d2-a0f7-f542e5a4b586
837e2f3f-faa5-441b-a9fa-cb9191c41519,2337eb42-8a4c-49f3-9f2a-978c58aaaf29
7ea5ee7d-d36b-4c86-9a38-9a6c43ff04c0,2337eb42-8a4c-49f3-9f2a-978c58aaaf29
52ed1af2-ea32-4b5b-a29d-dd23df5cbf55,64acdf9d-fbd2-40d8-8686-23bcf6293a01
4f3db3a6-2ddc-4b9a-9bcd-dcc617b5521a,0365857f-8302-49b8-b4a1-01ca4b0ed146
66162d4c-bfe6-4422-8c59-413ce5abe153,0365857f-8302-49b8-b4a1-01ca4b0ed146
5551220c-8f26-4014-83de-cd365d8d885f,367830f2-a08f-45aa-9f5e-0a16201b1375
0e818993-f9a6-4946-ac69-2db41bd71935,12aaa151-139c-479c-9cdd-782bcec24492
1812d07f-9dca-47fa-9af6-a86530f67039,4bbad25c-6bc9-4d93-8c03-8babc2723a8f
03544f87-463d-4f85-a80b-827d0cacd454,12aaa151-139c-479c-9cdd-782bcec24492
d3ae67c6-e9af-4bb5-a610-c0d15c6ee77b,a14dd62b-7468-45a6-8977-8afe9c335d44
54c0e93f-7d06-49d4-8759-cd005357b247,a14dd62b-7468-45a6-8977-8afe9c335d44
d58c3845-8a62-40b2-8ed1-ba27c5b0dd1c,fc801169-07d2-4721-be81-7a758bf583b8
b553ec75-bba9-4d0b-ab9b-94b4dff9a0e8,57e21c8d-ad49-45f7-b7f7-12744fb3831c
f3b0a889-2a71-41bb-adb3-8514a5f8b0d9,57e21c8d-ad49-45f7-b7f7-12744fb3831c
24966ee2-b5a6-4585-b79c-270716f5f6f8,6618612c-d2e5-4165-8aeb-9da3bfb90f50
f47b8301-c4ca-442c-a95b-44ec5f3b4658,27e3d83b-ab2f-48ed-bd31-280bc004eed1
8227b9eb-f436-448e-95d8-833c29c99843,27e3d83b-ab2f-48ed-bd31-280bc004eed1
7acbc4ea-3077-4ceb-8259-927dd36aedd7,fd47a0b4-27b9-4e67-a133-18f8e959179c
30279b83-8057-43ec-866f-c29aa58014fd,172dff13-70b2-4906-862e-4cb599b7dcdb
708032d6-31be-495c-89c7-5f79f3063efe,c1c63b56-a8da-4590-a67a-186c69b17725
4184e845-f7c0-4824-9e86-98745fb84f3f,172dff13-70b2-4906-862e-4cb599b7dcdb
bccebb4d-7010-4c58-a37d-ad6ba6feb4b4,7e68b31b-459b-4075-bf9d-080e4b9ff120
3d30c554-aee5-4b1b-a3af-fb961ce3972c,a7dba74d-bfaa-4152-aaae-4b2c6033322c
aff0db27-f171-4867-b7ff-41f0bd121236,7e68b31b-459b-4075-bf9d-080e4b9ff120
f3a23b3b-b4ac-4288-97dc-291037aa9ac1,31cfdd63-988e-4b6f-98e5-df2afbfacae3
b04cadec-c9ed-4994-a48b-7bed80dc7ecf,31cfdd63-988e-4b6f-98e5-df2afbfacae3
72fa66aa-68e3-43f5-8517-ec137bd7e9a8,edbae9aa-4ae0-4756-805b-5b8d40cdf6d4
a7519c26-77f9-4b87-8de9-003ee12caf56,28eaa846-6c9b-4cf1-bc1d-9fd1bfc08e7c
6e307065-3c09-44e6-bb6f-d021264248d7,28eaa846-6c9b-4cf1-bc1d-9fd1bfc08e7c
9a76c6cf-05a4-4126-981d-6beb09b0e30a,d3e55ee1-4511-4f70-8f27-b754bd76a918
a598214f-3e21-43bb-8fe7-25ef8901e617,849b9584-452f-438a-bbf1-99cd3977ace4
bc06805e-509f-438e-b49b-8a777d3ed078,d640c3c5-0ef0-44e3-88c9-a924a1733d3f
55c9bf83-142b-4fd5-8085-62c63606cf0b,d640c3c5-0ef0-44e3-88c9-a924a1733d3f
4a24a13a-f242-4f5b-8a74-8886745eaee9,b1decfec-2829-4c44-8a4b-158137dbaab8
cf2f258b-29be-4085-974c-a89d13ea4efd,2d50ba02-cd55-419a-831a-d17e52be9a55
cc7b2374-bd02-4951-b1c1-61ad59543259,2d50ba02-cd55-419a-831a-d17e52be9a55
afdd7359-8812-4c69-a1f2-42fd273d0eb3,f544670f-20e6-4303-9b7b-2774f06ef04e
23a4b740-c747-42b4-a4f5-134d2f79ebae,9796b0a5-ab44-4b43-a435-0bbdb5e7956e
2e79bb14-e3e6-4037-8df0-53304ce933eb,9796b0a5-ab44-4b43-a435-0bbdb5e7956e
108c768e-6950-4722-b603-f7bf8bd32bdb,75d9cdc3-aa34-4d84-b994-7fbff533c50a
f80ab8b1-7595-457c-969b-f5b3e5cc3bee,f2da9a7c-5228-413f-ad40-69d3bb87e100
052574d6-879e-4234-a032-d796919a9ad2,75d9cdc3-aa34-4d84-b994-7fbff533c50a
c5c498c9-0752-4e46-bfb0-6b5bb6faf26e,17a205ac-02ad-4db9-ba64-78f8245b3256
65f96ff1-18b2-4749-9fc6-feda0ff4756b,11bed503-7fe2-46d2-a0f7-f542e5a4b586
e8cee0da-f63c-41e6-b0da-18fa36cb6b72,11bed503-7fe2-46d2-a0f7-f542e5a4b586
90e3b812-449c-40c5-916c-7bd94793f795,2337eb42-8a4c-49f3-9f2a-978c58aaaf29
7f53a5e2-cf3f-41ef-a9ed-b6df57f2e053,2337eb42-8a4c-49f3-9f2a-978c58aaaf29
e712afbe-e167-44b0-9db7-e460d7cd0662,c519af7f-b540-40ea-bc67-dffd8eaacb7e
cedc2917-7af1-4a82-8690-3641faa07c1e,0365857f-8302-49b8-b4a1-01ca4b0ed146
72266c95-9c25-4e7e-9729-6a692bb8fd0a,2896a95c-6062-45f5-ab5c-42755b348500
6d42ec8b-918e-4673-ab04-e5732b2afc9f,0365857f-8302-49b8-b4a1-01ca4b0ed146
7f2c7cb3-a2c8-40ac-bb96-d2b8c0b1a60b,12aaa151-139c-479c-9cdd-782bcec24492
ec1c28a0-dc46-41ba-9604-5c80f6cb6a58,70c76fcd-9b13-4001-9655-5a3292c05721
e9b5eb21-a9ac-4ff1-b234-be4d8cef4d5b,12aaa151-139c-479c-9cdd-782bcec24492
3d333a52-bb71-4353-9269-9b813be7ac8c,a14dd62b-7468-45a6-8977-8afe9c335d44
7f0db614-86bb-4940-a9f3-a73ff014ebb0,cdd1a6e7-c40e-4a12-9de4-30961776ecad
b9f31f1b-20bf-47af-8c3f-ecd36495d8f0,a14dd62b-7468-45a6-8977-8afe9c335d44
510fc434-f7c9-4f36-a0d5-62fa05d4754a,57e21c8d-ad49-45f7-b7f7-12744fb3831c
b4b92145-f78d-4ed0-bccf-38fbe1e37b81,57e21c8d-ad49-45f7-b7f7-12744fb3831c
412df604-8aab-4536-9633-b8fc42353476,87e47cf2-d9d9-4847-bac5-44928a01a14f
29b049bf-2fcc-4538-808a-28b6f2342a69,27e3d83b-ab2f-48ed-bd31-280bc004eed1
23f83629-11b7-47c6-8920-77af3ca39d46,b37e29a0-7b4b-4bf4-9762-1b9d48e9f5ea
b28afa5c-c553-4c58-99f5-2f9af627d404,27e3d83b-ab2f-48ed-bd31-280bc004eed1
ca65e292-7b80-4228-96d7-dbd1fde98d7c,172dff13-70b2-4906-862e-4cb599b7dcdb
a5fa41c5-8b04-44c5-a24b-983bb30d2fc9,172dff13-70b2-4906-862e-4cb599b7dcdb
bf9815b9-87a0-4a78-bccc-42748c08b8f9,88ddec0d-a643-4ffe-b09c-f95c71ed71d6
7d354af3-3182-4c26-92fc-2cac8278a1dc,7e68b31b-459b-4075-bf9d-080e4b9ff120
532cd213-af6d-4dd9-9d01-eba08d8153a2,92ab7930-81ce-4e86-892c-95f47d55f28e
2c07ab2f-c5f5-4257-a33d-485d56df6a32,7e68b31b-459b-4075-bf9d-080e4b9ff120
ca024c0c-a06c-41d2-9490-080a7099de64,acdb36d1-bbf3-4d74-a394-29fb5f35b9bb
7ea8d348-fa38-4b67-b2df-dc108cbd548a,31cfdd63-988e-4b6f-98e5-df2afbfacae3
944428bf-dacf-4365-911a-c63dc14d6f76,31cfdd63-988e-4b6f-98e5-df2afbfacae3
ab997c86-1fc0-4826-9874-c97ddfd24107,28eaa846-6c9b-4cf1-bc1d-9fd1bfc08e7c
c1369cf9-99d8-4018-ba60-df461a8ec517,28eaa846-6c9b-4cf1-bc1d-9fd1bfc08e7c
f3cc52bb-acb8-4d39-8c2d-a372871b516e,ead443fc-366a-4036-be99-851eac8e6919
fcb95dac-3620-4a39-8ce5-a7a9838f9e0c,d640c3c5-0ef0-44e3-88c9-a924a1733d3f
291b435e-6845-4a31-838e-7a97a38ff922,d640c3c5-0ef0-44e3-88c9-a924a1733d3f
873a4a5b-6f85-49dd-a5bd-7775fae451b8,7c646cb1-a4e0-4877-a554-fdfa8ec08454
7a361b43-a3c9-4996-af5b-638b37148efc,2d50ba02-cd55-419a-831a-d17e52be9a55
79db4138-52d4-469e-9291-c91e32dbee6a,2d50ba02-cd55-419a-831a-d17e52be9a55
36f74fc6-f9ba-4d6f-be05-990fe70b14fd,99be1670-68a8-4798-a69f-bce0cbe432f3
4e9232f6-5001-423c-aad8-a443616ad2ab,9796b0a5-ab44-4b43-a435-0bbdb5e7956e
05b2ffd4-860e-4dbf-b989-9e0145a79fa3,39ae96ed-381d-428b-a023-4de9f0813411
90d7228a-96fc-42a8-a9fd-1af4f4351dc6,9796b0a5-ab44-4b43-a435-0bbdb5e7956e
a5785c37-39a5-4ffc-bda5-bc584972115e,75d9cdc3-aa34-4d84-b994-7fbff533c50a
ed30f3ca-d918-4f67-9771-baae52167264,75d9cdc3-aa34-4d84-b994-7fbff533c50a
3cd20f67-3407-4860-a298-318fb2b8e5d2,8d9b31b2-0b91-43e6-9420-fd85fdb7033b
1d8cc2f3-a728-4e5b-9e6e-a17a026e520e,a8a04551-5f41-4773-accb-3f2cf2c172a7
d99e20fc-f32c-49f9-8809-17b151b980e5,11bed503-7fe2-46d2-a0f7-f542e5a4b586
a8abf806-a79d-433a-a7cc-53d3edfd9120,11bed503-7fe2-46d2-a0f7-f542e5a4b586
43f19223-2333-4f6b-8380-4f40ebe260df,3528c0d3-e2bb-41de-8721-f5ec00cc7da3
2e1cf812-fa68-4be8-8fef-a212f7cf9518,2337eb42-8a4c-49f3-9f2a-978c58aaaf29
25b626a3-668f-4fe4-8fe9-ffcd499e409b,2337eb42-8a4c-49f3-9f2a-978c58aaaf29
f261b680-d893-4ad4-a041-4139aef1978c,7fff123f-4ffb-413e-9341-0e8929bfdf55
3ac4c807-ecbc-4901-9d0f-7ab930ddb832,0365857f-8302-49b8-b4a1-01ca4b0ed146
a3d7786d-b058-4e1f-80c2-28d318746400,0365857f-8302-49b8-b4a1-01ca4b0ed146
3d176868-ce6f-49e0-b221-9886e90d1b3a,12aaa151-139c-479c-9cdd-782bcec24492
fed85e59-9482-4c04-b492-57e24b78875f,12aaa151-139c-479c-9cdd-782bcec24492
05ef0a94-97b5-4cce-97dc-2b6dbf1dcfc6,6615fa29-c259-4d6b-a07c-61915093c0cc
