date,actor,success,from,to
2019-09-14 02:13:24,35ed1c51-00fe-43b3-8fbd-7c4d168996cd,1,fb4d6213-da09-4c2a-8f6c-4e0d7cbb1809,7fb216bf-d77c-46ef-8198-9ba5c163530b
2019-09-14 02:13:24,d400f50d-83d0-4796-bf3d-a39c7fe7ef4d,1,fb4d6213-da09-4c2a-8f6c-4e0d7cbb1809,9bf08443-bc44-4901-9ff1-dc329545c84b
2019-09-14 02:13:24,06ad484f-8b1f-4c99-8b3e-6818515021f1,1,fb4d6213-da09-4c2a-8f6c-4e0d7cbb1809,7fb216bf-d77c-46ef-8198-9ba5c163530b
2019-09-14 02:14:28,8ea8ade5-8445-4f37-bbe7-d871f30ad795,1,fb4d6213-da09-4c2a-8f6c-4e0d7cbb1809,6ca5f995-49f7-4b47-b488-65bc78a08fe9
2019-09-14 02:14:28,cfe3bd79-fbf8-4389-a002-fb90d847e3a6,1,fb4d6213-da09-4c2a-8f6c-4e0d7cbb1809,6ca5f995-49f7-4b47-b488-65bc78a08fe9
2019-09-14 02:14:28,b50c4397-d25d-4642-bf16-19b5b8616161,1,fb4d6213-da09-4c2a-8f6c-4e0d7cbb1809,2614a625-cf38-49ea-bbee-3ec004399040
2019-09-14 02:15:32,3fe79a78-be52-417b-991e-1f465f989fb0,1,fb4d6213-da09-4c2a-8f6c-4e0d7cbb1809,22446924-2a09-4004-976d-e8be252afa9f
2019-09-14 02:15:32,19dd9d77-1c72-4d84-9014-dbc1836ab071,1,fb4d6213-da09-4c2a-8f6c-4e0d7cbb1809,155682bc-0461-4341-8ed7-4ee08e278ac5
2019-09-14 02:15:32,f8bfb1d7-bd1c-446a-b2eb-d00afd5aee71,1,fb4d6213-da09-4c2a-8f6c-4e0d7cbb1809,155682bc-0461-4341-8ed7-4ee08e278ac5
2019-09-14 02:16:35,814a1d3d-60a3-4418-9a51-a768cd2b3510,1,fb4d6213-da09-4c2a-8f6c-4e0d7cbb1809,1f975da1-a445-4531-8a1e-89d3aaf90bbe
2019-09-14 02:16:35,b09bf5f3-ee82-4234-abfe-ed78c638d3ae,1,fb4d6213-da09-4c2a-8f6c-4e0d7cbb1809,1f975da1-a445-4531-8a1e-89d3aaf90bbe
2019-09-14 02:16:35,d4f5a647-5e15-4e04-809d-3241ea71d9a0,1,fb4d6213-da09-4c2a-8f6c-4e0d7cbb1809,8f1c4c8c-c47f-475d-ab9f-2e98a59248d2
2019-09-14 02:17:39,007684ed-5ec3-477d-9b8e-a0e1b8fdc6ea,1,fb4d6213-da09-4c2a-8f6c-4e0d7cbb1809,a46737ca-f372-4051-91d2-a1bed234c6d4
2019-09-14 02:17:39,7d16a8c6-2482-41fd-a76f-c793fad7f588,1,fb4d6213-da09-4c2a-8f6c-4e0d7cbb1809,205ebe8c-0bd2-4a7b-9af8-9d3e7b8dbecf
2019-09-14 02:17:39,aad6f04e-a7c3-450f-9f54-9ae6e55f9dce,1,fb4d6213-da09-4c2a-8f6c-4e0d7cbb1809,9c20d32a-3cf4-4646-8bdd-155335b5b76e
2019-09-14 02:18:43,d82de1db-28c6-4460-b52b-cd0ac0af9f68,1,fb4d6213-da09-4c2a-8f6c-4e0d7cbb1809,e9a1b8cd-19a3-48f9-9bb6-45554c0ceddb
2019-09-14 02:18:43,50f0bc60-fdb8-45a9-b865-45851eb9fa42,1,fb4d6213-da09-4c2a-8f6c-4e0d7cbb1809,a4b54599-2316-40bb-aa81-af306752c8af
2019-09-14 02:18:43,a5725030-bab2-477c-bb3b-5aa49f0988b0,1,fb4d6213-da09-4c2a-8f6c-4e0d7cbb1809,a4b54599-2316-40bb-aa81-af306752c8af
2019-09-14 02:19:47,a756a574-888b-4382-9bbb-145addd75670,1,fb4d6213-da09-4c2a-8f6c-4e0d7cbb1809,ee4d1d6d-2ad6-41fe-aa57-0a8b105b2d81
2019-09-14 02:19:47,e3aa7315-59ee-498e-81d7-759c9fc4d3c4,1,fb4d6213-da09-4c2a-8f6c-4e0d7cbb1809,0a64c53b-6e08-4499-9e14-6dbc390ee8f2
2019-09-14 02:19:47,4900046f-8506-4621-829b-31ab1fbaec2c,1,fb4d6213-da09-4c2a-8f6c-4e0d7cbb1809,ee4d1d6d-2ad6-41fe-aa57-0a8b105b2d81
2019-09-14 02:20:51,76c868d0-7ea3-454d-b2e1-cac7063dee17,1,fb4d6213-da09-4c2a-8f6c-4e0d7cbb1809,e0f32f59-fc00-4501-8b06-a943e5e7f531
2019-09-14 02:20:51,209fdd15-ddbf-4883-a914-3efe8ed72f99,1,fb4d6213-da09-4c2a-8f6c-4e0d7cbb1809,978e74b6-daec-42ac-93a1-403425bbe733
2019-09-14 02:20:51,062f055e-462f-4694-995c-02151ddca6e1,1,fb4d6213-da09-4c2a-8f6c-4e0d7cbb1809,e0f32f59-fc00-4501-8b06-a943e5e7f531
2019-09-14 02:21:55,b14e26ad-3390-482e-8443-39c397480076,1,fb4d6213-da09-4c2a-8f6c-4e0d7cbb1809,725323a5-82fc-4446-9984-8929f9ff80ca
2019-09-14 02:21:55,a33155c5-6543-407b-8d80-83f98e77d3d7,1,fb4d6213-da09-4c2a-8f6c-4e0d7cbb1809,725323a5-82fc-4446-9984-8929f9ff80ca
2019-09-14 02:21:55,a0ca0c50-4d7e-4755-89f2-7f7945da20d7,1,fb4d6213-da09-4c2a-8f6c-4e0d7cbb1809,7f7d070a-e955-4ffd-b7df-a6181721ba09
2019-09-14 02:22:58,dc40e746-edd9-40c5-a848-1d68898bc99c,1,fb4d6213-da09-4c2a-8f6c-4e0d7cbb1809,bd5cd794-458c-4e9e-834b-43cba72d5569
2019-09-14 02:22:58,67f2680f-5d15-4a04-bf29-94e870dc2f83,1,fb4d6213-da09-4c2a-8f6c-4e0d7cbb1809,b1447698-e2f3-4b94-ba52-f4b568035cc8
2019-09-14 02:22:58,a13ede60-f713-4876-8e6c-977b688ca4e4,1,fb4d6213-da09-4c2a-8f6c-4e0d7cbb1809,bd5cd794-458c-4e9e-834b-43cba72d5569
2019-09-14 02:24:01,07dff119-fd01-48d2-8293-736b3e53bd0d,1,fb4d6213-da09-4c2a-8f6c-4e0d7cbb1809,039c030f-8d38-42b0-934d-d127c9e167c8
2019-09-14 02:24:01,3e774b36-2c1f-46ab-820f-80704d29fda2,1,fb4d6213-da09-4c2a-8f6c-4e0d7cbb1809,7990f103-9959-48df-8af3-19b3bd6c94e4
2019-09-14 02:24:01,19968d6b-8cb1-4416-9df3-928d08c6d652,1,fb4d6213-da09-4c2a-8f6c-4e0d7cbb1809,7990f103-9959-48df-8af3-19b3bd6c94e4
2019-09-14 02:25:05,d31a4936-2ea7-4ace-a382-bbc8be123de8,1,fb4d6213-da09-4c2a-8f6c-4e0d7cbb1809,6ca5f995-49f7-4b47-b488-65bc78a08fe9
2019-09-14 02:25:05,8820a79b-4afa-4bb8-89e6-1e81dd168c73,1,fb4d6213-da09-4c2a-8f6c-4e0d7cbb1809,98a3ce19-e6b3-4eda-8421-892dce596737
2019-09-14 02:25:05,fdc29877-7a28-4a1d-8b85-3b3ccd7a7b34,1,fb4d6213-da09-4c2a-8f6c-4e0d7cbb1809,6ca5f995-49f7-4b47-b488-65bc78a08fe9
2019-09-14 02:26:09,53a9e510-8f8b-4dd8-b471-41421ca5b364,1,fb4d6213-da09-4c2a-8f6c-4e0d7cbb1809,02023ae1-a378-4006-b6d2-c0a483872b4e
2019-09-14 02:26:09,81dfa0cf-23b4-4437-b800-3d97020d8e1b,1,fb4d6213-da09-4c2a-8f6c-4e0d7cbb1809,155682bc-0461-4341-8ed7-4ee08e278ac5
2019-09-14 02:26:09,a910337f-8d46-44e4-b270-6f3aaa46d3e4,1,fb4d6213-da09-4c2a-8f6c-4e0d7cbb1809,155682bc-0461-4341-8ed7-4ee08e278ac5
2019-09-14 02:27:13,24c4d771-5ceb-46e1-a16c-0929ab5a4a0b,1,fb4d6213-da09-4c2a-8f6c-4e0d7cbb1809,70ed4219-e784-4429-af58-55cb80aa4c00
2019-09-14 02:27:13,0875fd9a-d461-4e04-ab1d-e39c04d86aad,1,fb4d6213-da09-4c2a-8f6c-4e0d7cbb1809,f476caba-8b07-4a95-b912-944cb0f52ead
2019-09-14 02:27:13,78b75b9d-67b7-4a87-a45f-48a631a6f358,1,fb4d6213-da09-4c2a-8f6c-4e0d7cbb1809,f476caba-8b07-4a95-b912-944cb0f52ead
2019-09-14 02:28:16,ef6099fd-eb57-49d9-863d-a801b57768e3,1,fb4d6213-da09-4c2a-8f6c-4e0d7cbb1809,ee4d1d6d-2ad6-41fe-aa57-0a8b105b2d81
2019-09-14 02:28:16,2ab10a8a-9231-4260-9af2-1cdcac86cfdf,1,fb4d6213-da09-4c2a-8f6c-4e0d7cbb1809,10f850a1-d5cd-415c-b258-ed1474124f49
2019-09-14 02:28:16,750aebdd-ccc8-4077-a45a-c421100f537c,1,fb4d6213-da09-4c2a-8f6c-4e0d7cbb1809,725323a5-82fc-4446-9984-8929f9ff80ca
2019-09-14 02:29:20,94e0b263-2909-4372-827f-740942d782fc,1,fb4d6213-da09-4c2a-8f6c-4e0d7cbb1809,1ccfed60-0d57-4292-8074-b78f6a7a022c
2019-09-14 02:29:20,8f182fb6-078e-4918-94ea-e262ba195b20,1,fb4d6213-da09-4c2a-8f6c-4e0d7cbb1809,7fb216bf-d77c-46ef-8198-9ba5c163530b
2019-09-14 02:29:20,d13fa42b-3b0d-4d68-ad36-4c2c433b1a85,1,fb4d6213-da09-4c2a-8f6c-4e0d7cbb1809,7fb216bf-d77c-46ef-8198-9ba5c163530b
2019-09-14 02:30:24,fb18c37a-4719-45a6-ad25-544e8f479deb,1,fb4d6213-da09-4c2a-8f6c-4e0d7cbb1809,2f4e2d22-f919-4f28-ac4b-ce44b368c41c
2019-09-14 02:30:24,ecaed575-d96d-45ac-b5d5-725dc8940fda,1,fb4d6213-da09-4c2a-8f6c-4e0d7cbb1809,f2903d7c-977c-4bd4-9039-7060a703fbd9
2019-09-14 02:30:24,122d2f7f-500a-4bf6-8f26-712b92a3eeff,1,fb4d6213-da09-4c2a-8f6c-4e0d7cbb1809,2f4e2d22-f919-4f28-ac4b-ce44b368c41c
2019-09-14 02:31:27,e168e75e-bc59-4241-9f98-af8ede8e7ae8,1,fb4d6213-da09-4c2a-8f6c-4e0d7cbb1809,7fb216bf-d77c-46ef-8198-9ba5c163530b
2019-09-14 02:31:27,251e5206-7275-42d2-b98b-05d75d90e159,1,fb4d6213-da09-4c2a-8f6c-4e0d7cbb1809,6650da08-f385-47e1-89f5-f004017a69bc
2019-09-14 02:31:27,0766085e-7ebd-49c5-baf8-5de5aa9d7b25,1,fb4d6213-da09-4c2a-8f6c-4e0d7cbb1809,7fb216bf-d77c-46ef-8198-9ba5c163530b
2019-09-14 02:32:31,031f79c9-69e1-42ba-a880-9438e0f36b39,1,fb4d6213-da09-4c2a-8f6c-4e0d7cbb1809,bd5cd794-458c-4e9e-834b-43cba72d5569
2019-09-14 02:32:31,5803ae00-e243-459d-b1c4-fb0414e7f1cc,1,fb4d6213-da09-4c2a-8f6c-4e0d7cbb1809,bd5cd794-458c-4e9e-834b-43cba72d5569
2019-09-14 02:32:31,357fede8-41f1-4edb-b2f2-f6f34cbec283,1,fb4d6213-da09-4c2a-8f6c-4e0d7cbb1809,5408633e-4477-436b-af11-a04e805bd47e
2019-09-14 02:33:35,0489b5de-75d6-485c-9dad-e91cbb2b6f0e,1,fb4d6213-da09-4c2a-8f6c-4e0d7cbb1809,31ec171b-09c3-4e13-8e99-42d0a007fc64
2019-09-14 02:33:35,85f0b43c-d39e-43e7-9b46-beb62e5427cc,1,fb4d6213-da09-4c2a-8f6c-4e0d7cbb1809,2f4e2d22-f919-4f28-ac4b-ce44b368c41c
2019-09-14 02:33:35,5c492c04-0f2d-4b8f-a8b3-ff22c25e5335,1,fb4d6213-da09-4c2a-8f6c-4e0d7cbb1809,2f4e2d22-f919-4f28-ac4b-ce44b368c41c
2019-09-14 02:34:39,80ece045-75c2-4815-a372-fb0d68e119cc,1,fb4d6213-da09-4c2a-8f6c-4e0d7cbb1809,6a187953-7250-4f3d-bc41-bcb865a88745
2019-09-14 02:34:39,054de42e-5cb4-4107-b5c7-250a3ee6729c,1,fb4d6213-da09-4c2a-8f6c-4e0d7cbb1809,6a187953-7250-4f3d-bc41-bcb865a88745
2019-09-14 02:34:39,3c71521f-74a1-44f9-b498-19f1716dbbbf,1,fb4d6213-da09-4c2a-8f6c-4e0d7cbb1809,19a2e2a4-b760-4e38-8516-67029eee8a53
2019-09-14 02:35:42,49b4547a-6051-4fc0-8e10-e3209697e92e,1,fb4d6213-da09-4c2a-8f6c-4e0d7cbb1809,f476caba-8b07-4a95-b912-944cb0f52ead
2019-09-14 02:35:42,131317ff-efba-4239-a7d4-e0f26c0bc59a,1,fb4d6213-da09-4c2a-8f6c-4e0d7cbb1809,f476caba-8b07-4a95-b912-944cb0f52ead
2019-09-14 02:35:42,53392a60-a4d7-464b-aa78-3829f2486e6a,1,fb4d6213-da09-4c2a-8f6c-4e0d7cbb1809,4291222c-1745-45bf-b5c1-71eaca4dd0b4
2019-09-14 02:36:46,d90805a6-124b-4edf-aab1-899840535c25,1,fb4d6213-da09-4c2a-8f6c-4e0d7cbb1809,6ca5f995-49f7-4b47-b488-65bc78a08fe9
2019-09-14 02:36:46,77bd6e7b-74c2-4598-92cd-4082a4416440,1,fb4d6213-da09-4c2a-8f6c-4e0d7cbb1809,6ca5f995-49f7-4b47-b488-65bc78a08fe9
2019-09-14 02:36:46,53bba181-9495-4c87-b14f-236e57e39cd3,1,fb4d6213-da09-4c2a-8f6c-4e0d7cbb1809,368c258f-8aac-4a22-8125-729f96122f0c
2019-09-14 02:37:50,82eb9fbb-9ef3-48d4-ae63-f3649d265011,1,fb4d6213-da09-4c2a-8f6c-4e0d7cbb1809,e0f32f59-fc00-4501-8b06-a943e5e7f531
2019-09-14 02:37:50,2ae12b55-712a-4b21-8b3e-7ea76335f4ff,1,fb4d6213-da09-4c2a-8f6c-4e0d7cbb1809,e0f32f59-fc00-4501-8b06-a943e5e7f531
2019-09-14 02:37:50,a752d081-8bf9-471c-9834-e1678318f3cc,1,fb4d6213-da09-4c2a-8f6c-4e0d7cbb1809,d728d413-6803-41fa-a7b3-ca82de8cb661
2019-09-14 02:38:54,15fe0adb-088d-41f6-90db-700f1710185e,1,fb4d6213-da09-4c2a-8f6c-4e0d7cbb1809,7fb216bf-d77c-46ef-8198-9ba5c163530b
2019-09-14 02:38:54,83346378-c6d9-4b38-adf1-815d5fa9fbcc,1,fb4d6213-da09-4c2a-8f6c-4e0d7cbb1809,4d2d5c25-976c-4ced-9f9d-73507bf58397
2019-09-14 02:38:54,85c48033-0993-41d2-b5ea-d3cb1b3c0b1d,1,fb4d6213-da09-4c2a-8f6c-4e0d7cbb1809,7fb216bf-d77c-46ef-8198-9ba5c163530b
2019-09-14 02:55:36,19968d6b-8cb1-4416-9df3-928d08c6d652,1,e0f32f59-fc00-4501-8b06-a943e5e7f531,1f975da1-a445-4531-8a1e-89d3aaf90bbe
2019-09-14 02:55:36,3e774b36-2c1f-46ab-820f-80704d29fda2,1,e0f32f59-fc00-4501-8b06-a943e5e7f531,1f975da1-a445-4531-8a1e-89d3aaf90bbe
2019-09-14 02:55:40,49b4547a-6051-4fc0-8e10-e3209697e92e,1,a4b54599-2316-40bb-aa81-af306752c8af,1f975da1-a445-4531-8a1e-89d3aaf90bbe
2019-09-14 02:55:40,131317ff-efba-4239-a7d4-e0f26c0bc59a,1,a4b54599-2316-40bb-aa81-af306752c8af,1f975da1-a445-4531-8a1e-89d3aaf90bbe
2019-09-14 03:38:03,19968d6b-8cb1-4416-9df3-928d08c6d652,1,a4b54599-2316-40bb-aa81-af306752c8af,f476caba-8b07-4a95-b912-944cb0f52ead
2019-09-14 03:38:03,3e774b36-2c1f-46ab-820f-80704d29fda2,1,a4b54599-2316-40bb-aa81-af306752c8af,f476caba-8b07-4a95-b912-944cb0f52ead
2019-09-14 02:39:20,031f79c9-69e1-42ba-a880-9438e0f36b39,1,bd5cd794-458c-4e9e-834b-43cba72d5569,7990f103-9959-48df-8af3-19b3bd6c94e4
2019-09-14 02:39:20,5803ae00-e243-459d-b1c4-fb0414e7f1cc,1,bd5cd794-458c-4e9e-834b-43cba72d5569,7990f103-9959-48df-8af3-19b3bd6c94e4
2019-09-14 03:14:59,19968d6b-8cb1-4416-9df3-928d08c6d652,1,bd5cd794-458c-4e9e-834b-43cba72d5569,f476caba-8b07-4a95-b912-944cb0f52ead
2019-09-14 03:14:59,3e774b36-2c1f-46ab-820f-80704d29fda2,1,bd5cd794-458c-4e9e-834b-43cba72d5569,f476caba-8b07-4a95-b912-944cb0f52ead
2019-09-14 03:44:16,19968d6b-8cb1-4416-9df3-928d08c6d652,1,bd5cd794-458c-4e9e-834b-43cba72d5569,1f975da1-a445-4531-8a1e-89d3aaf90bbe
2019-09-14 03:44:16,3e774b36-2c1f-46ab-820f-80704d29fda2,1,bd5cd794-458c-4e9e-834b-43cba72d5569,1f975da1-a445-4531-8a1e-89d3aaf90bbe
2019-09-14 02:55:27,19968d6b-8cb1-4416-9df3-928d08c6d652,1,7990f103-9959-48df-8af3-19b3bd6c94e4,e0f32f59-fc00-4501-8b06-a943e5e7f531
2019-09-14 02:55:27,3e774b36-2c1f-46ab-820f-80704d29fda2,1,7990f103-9959-48df-8af3-19b3bd6c94e4,e0f32f59-fc00-4501-8b06-a943e5e7f531
2019-09-14 03:27:51,19968d6b-8cb1-4416-9df3-928d08c6d652,1,7990f103-9959-48df-8af3-19b3bd6c94e4,6a187953-7250-4f3d-bc41-bcb865a88745
2019-09-14 03:27:51,3e774b36-2c1f-46ab-820f-80704d29fda2,1,7990f103-9959-48df-8af3-19b3bd6c94e4,6a187953-7250-4f3d-bc41-bcb865a88745
2019-09-14 02:55:51,49b4547a-6051-4fc0-8e10-e3209697e92e,1,1f975da1-a445-4531-8a1e-89d3aaf90bbe,e0f32f59-fc00-4501-8b06-a943e5e7f531
2019-09-14 02:55:51,131317ff-efba-4239-a7d4-e0f26c0bc59a,1,1f975da1-a445-4531-8a1e-89d3aaf90bbe,e0f32f59-fc00-4501-8b06-a943e5e7f531
2019-09-14 03:13:30,19968d6b-8cb1-4416-9df3-928d08c6d652,1,1f975da1-a445-4531-8a1e-89d3aaf90bbe,bd5cd794-458c-4e9e-834b-43cba72d5569
2019-09-14 03:13:30,3e774b36-2c1f-46ab-820f-80704d29fda2,1,1f975da1-a445-4531-8a1e-89d3aaf90bbe,bd5cd794-458c-4e9e-834b-43cba72d5569
2019-09-14 03:49:02,19968d6b-8cb1-4416-9df3-928d08c6d652,1,1f975da1-a445-4531-8a1e-89d3aaf90bbe,6ca5f995-49f7-4b47-b488-65bc78a08fe9
2019-09-14 03:49:02,3e774b36-2c1f-46ab-820f-80704d29fda2,1,1f975da1-a445-4531-8a1e-89d3aaf90bbe,6ca5f995-49f7-4b47-b488-65bc78a08fe9
2019-09-14 03:37:51,19968d6b-8cb1-4416-9df3-928d08c6d652,1,6a187953-7250-4f3d-bc41-bcb865a88745,a4b54599-2316-40bb-aa81-af306752c8af
2019-09-14 03:37:51,3e774b36-2c1f-46ab-820f-80704d29fda2,1,6a187953-7250-4f3d-bc41-bcb865a88745,a4b54599-2316-40bb-aa81-af306752c8af
2019-09-14 02:52:52,49b4547a-6051-4fc0-8e10-e3209697e92e,1,f476caba-8b07-4a95-b912-944cb0f52ead,a4b54599-2316-40bb-aa81-af306752c8af
2019-09-14 02:52:52,131317ff-efba-4239-a7d4-e0f26c0bc59a,1,f476caba-8b07-4a95-b912-944cb0f52ead,a4b54599-2316-40bb-aa81-af306752c8af
2019-09-14 03:23:39,3e774b36-2c1f-46ab-820f-80704d29fda2,1,f476caba-8b07-4a95-b912-944cb0f52ead,7990f103-9959-48df-8af3-19b3bd6c94e4
2019-09-14 03:23:39,19968d6b-8cb1-4416-9df3-928d08c6d652,1,f476caba-8b07-4a95-b912-944cb0f52ead,7990f103-9959-48df-8af3-19b3bd6c94e4
2019-09-14 03:40:12,19968d6b-8cb1-4416-9df3-928d08c6d652,1,f476caba-8b07-4a95-b912-944cb0f52ead,bd5cd794-458c-4e9e-834b-43cba72d5569
2019-09-14 03:40:12,3e774b36-2c1f-46ab-820f-80704d29fda2,1,f476caba-8b07-4a95-b912-944cb0f52ead,bd5cd794-458c-4e9e-834b-43cba72d5569
2019-09-14 02:52:53,53392a60-a4d7-464b-aa78-3829f2486e6a,1,4291222c-1745-45bf-b5c1-71eaca4dd0b4,4291222c-1745-45bf-b5c1-71eaca4dd0b4
2019-09-14 03:23:40,07dff119-fd01-48d2-8293-736b3e53bd0d,1,039c030f-8d38-42b0-934d-d127c9e167c8,039c030f-8d38-42b0-934d-d127c9e167c8
2019-09-14 02:39:21,357fede8-41f1-4edb-b2f2-f6f34cbec283,1,5408633e-4477-436b-af11-a04e805bd47e,5408633e-4477-436b-af11-a04e805bd47e
2019-09-14 02:55:36,07dff119-fd01-48d2-8293-736b3e53bd0d,0,NA,NA
2019-09-14 02:55:40,53392a60-a4d7-464b-aa78-3829f2486e6a,0,NA,NA
2019-09-14 03:38:03,07dff119-fd01-48d2-8293-736b3e53bd0d,0,NA,NA
2019-09-14 03:14:59,07dff119-fd01-48d2-8293-736b3e53bd0d,0,NA,NA
2019-09-14 03:44:16,07dff119-fd01-48d2-8293-736b3e53bd0d,0,NA,NA
2019-09-14 02:55:27,07dff119-fd01-48d2-8293-736b3e53bd0d,0,NA,NA
2019-09-14 03:27:51,07dff119-fd01-48d2-8293-736b3e53bd0d,0,NA,NA
2019-09-14 02:55:51,53392a60-a4d7-464b-aa78-3829f2486e6a,0,NA,NA
2019-09-14 03:13:30,07dff119-fd01-48d2-8293-736b3e53bd0d,0,NA,NA
2019-09-14 03:49:02,07dff119-fd01-48d2-8293-736b3e53bd0d,0,NA,NA
2019-09-14 03:37:51,07dff119-fd01-48d2-8293-736b3e53bd0d,0,NA,NA
2019-09-14 03:40:12,07dff119-fd01-48d2-8293-736b3e53bd0d,0,NA,NA
