node,ip,uuid
node-a8-199.grenoble.iot-lab.info,172.20.64.2,406c2aec-3de1-44e3-a572-010e1f20de79
node-a8-200.grenoble.iot-lab.info,172.20.64.3,0b865867-0816-49db-b638-d23eba9a983b
node-a8-201.grenoble.iot-lab.info,172.20.64.4,33fc5847-52e2-4fc8-8833-a89b1b374d0e
node-a8-202.grenoble.iot-lab.info,172.20.64.5,09b9d193-4fd9-44f1-af8a-420e2951305e
node-a8-205.grenoble.iot-lab.info,172.20.64.7,fac75462-a2c0-483a-ad82-e175c47dfb8e
node-a8-206.grenoble.iot-lab.info,172.20.64.8,8211b056-692a-49e5-8830-69663f0784e9
node-a8-207.grenoble.iot-lab.info,172.20.64.9,05c3822d-6446-4e40-b35a-c102fc2be4a3
node-a8-208.grenoble.iot-lab.info,172.20.64.10,9210fc43-b4e0-40b5-af5b-991b72d30134
node-a8-209.grenoble.iot-lab.info,172.20.64.11,7d8926ec-5eb6-49bb-a8bd-7d98fdb65654
node-a8-210.grenoble.iot-lab.info,172.20.64.12,abee8e16-7472-43ca-b7e0-bb7dad35110f
node-a8-211.grenoble.iot-lab.info,172.20.64.13,a5623526-214f-4d77-939f-11e88c9e8bb7
node-a8-212.grenoble.iot-lab.info,172.20.64.14,f637ae26-818d-4a55-827d-e15e602d06f3
node-a8-214.grenoble.iot-lab.info,172.20.64.15,13a76735-fd20-453a-aa80-e2e84cc6b477
node-a8-216.grenoble.iot-lab.info,172.20.64.16,449d4bcf-eb73-4e69-8ba4-8befc92f161a
node-a8-217.grenoble.iot-lab.info,172.20.64.17,98e6cf70-0a88-4298-ada8-b19ceb929856
node-a8-218.grenoble.iot-lab.info,172.20.64.18,a25aa363-9973-4d59-be18-5100ae9b02ce
node-a8-219.grenoble.iot-lab.info,172.20.64.19,de2d95ed-550a-4393-9517-0d39c7a92f09
node-a8-220.grenoble.iot-lab.info,172.20.64.20,7b66bccf-b9e9-4c9f-b5fd-894af4baf2f7
node-a8-221.grenoble.iot-lab.info,172.20.64.21,f2f0aa2c-deff-443c-9e3e-0d52889b4f45
node-a8-165.grenoble.iot-lab.info,172.20.64.22,32acf387-68eb-42cb-bd32-af9a6de363e0
node-a8-166.grenoble.iot-lab.info,172.20.64.23,b84c2c2c-ae32-43c1-aa01-82d74913de95
node-a8-167.grenoble.iot-lab.info,172.20.64.24,fb9c8625-c1df-4fe8-8684-ba6d2be3834a
node-a8-168.grenoble.iot-lab.info,172.20.64.50,4866f9f6-48aa-43b0-9641-1d5535781fb1
node-a8-169.grenoble.iot-lab.info,172.20.64.25,dedc36c1-1b19-4730-b87d-f9f74f8a1b23
node-a8-170.grenoble.iot-lab.info,172.20.64.26,42f1d629-8805-49c9-892b-721066cfa8a8
node-a8-171.grenoble.iot-lab.info,172.20.64.27,1807ab96-12bd-4355-b71b-196a85d88b4b
node-a8-173.grenoble.iot-lab.info,172.20.64.28,e28b2231-c7f6-47fa-9813-b21eaa2aeda2
node-a8-174.grenoble.iot-lab.info,172.20.64.29,a67b5ded-bfeb-4e84-9f60-d4bef13cb00a
node-a8-175.grenoble.iot-lab.info,172.20.64.30,f2a5a3d6-ebfc-461c-9ef2-bc54df5cdde4
node-a8-176.grenoble.iot-lab.info,172.20.64.31,4360a973-a66a-492b-b94f-13fb2adae672
node-a8-177.grenoble.iot-lab.info,172.20.64.32,572d145f-a004-49a6-ac68-cb9da6eb4d2c
node-a8-179.grenoble.iot-lab.info,172.20.64.33,8a12fee6-40f8-42a2-82f2-dc931fe231b9
node-a8-180.grenoble.iot-lab.info,172.20.64.34,26aea3d8-40d5-4c22-8e3d-bff7fd451da2
node-a8-181.grenoble.iot-lab.info,172.20.64.35,d0a1c3fb-d1ae-4eaa-86c9-371824ac9356
node-a8-182.grenoble.iot-lab.info,172.20.64.36,06533d6e-845c-480a-a1e8-6c2e6c92ea69
node-a8-183.grenoble.iot-lab.info,172.20.64.37,140893cb-ab41-46a5-ad98-56fd5e5265a2
node-a8-184.grenoble.iot-lab.info,172.20.64.38,9fa2ab9c-ea7b-4a40-8c59-377f7fb62fee
node-a8-185.grenoble.iot-lab.info,172.20.64.39,8dac406c-9a45-4c60-942e-f0b5186fcd57
node-a8-187.grenoble.iot-lab.info,172.20.64.40,b9f43809-68b9-477f-acaf-87b4eb03439e
node-a8-188.grenoble.iot-lab.info,172.20.64.41,95e5c59c-fe8c-4816-b027-ead8bd35752a
node-a8-189.grenoble.iot-lab.info,172.20.64.42,f4669db8-ee07-420b-9032-cfeeac0c4a7a
node-a8-190.grenoble.iot-lab.info,172.20.64.43,0a6c9962-18d3-40ff-9cde-eb4a92788ef9
node-a8-191.grenoble.iot-lab.info,172.20.64.44,c061d984-ebd2-4ceb-9ef2-7f08dc5dfaa7
node-a8-192.grenoble.iot-lab.info,172.20.64.45,3987aa6a-516f-44b1-aee4-cfce0e2a5d8a
node-a8-193.grenoble.iot-lab.info,172.20.64.46,35f77d4e-38e7-46b9-b53b-a0efa8c50935
node-a8-194.grenoble.iot-lab.info,172.20.64.47,74f17f34-94d9-4f1b-aacf-2082d92155ee
node-a8-195.grenoble.iot-lab.info,172.20.64.48,fc85dd39-557b-465c-ad9f-6aed99e23fc3
node-a8-197.grenoble.iot-lab.info,172.20.64.49,3186c2e5-d3a2-4204-8723-e6a7e376517a
node-a8-198.grenoble.iot-lab.info,172.20.64.51,f03b6cb0-7871-4bc9-8729-51b9d7f3210b
suno-11.sophia.grid5000.fr,172.16.130.11,fb4d6213-da09-4c2a-8f6c-4e0d7cbb1809
suno-14.sophia.grid5000.fr,172.16.130.14,6ca5f995-49f7-4b47-b488-65bc78a08fe9
suno-15.sophia.grid5000.fr,172.16.130.15,1f975da1-a445-4531-8a1e-89d3aaf90bbe
suno-2.sophia.grid5000.fr,172.16.130.2,155682bc-0461-4341-8ed7-4ee08e278ac5
suno-25.sophia.grid5000.fr,172.16.130.25,7fb216bf-d77c-46ef-8198-9ba5c163530b
suno-27.sophia.grid5000.fr,172.16.130.27,ee4d1d6d-2ad6-41fe-aa57-0a8b105b2d81
suno-28.sophia.grid5000.fr,172.16.130.28,bd5cd794-458c-4e9e-834b-43cba72d5569
suno-30.sophia.grid5000.fr,172.16.130.30,a4b54599-2316-40bb-aa81-af306752c8af
suno-32.sophia.grid5000.fr,172.16.130.32,9c20d32a-3cf4-4646-8bdd-155335b5b76e
suno-33.sophia.grid5000.fr,172.16.130.33,f476caba-8b07-4a95-b912-944cb0f52ead
suno-34.sophia.grid5000.fr,172.16.130.34,e0f32f59-fc00-4501-8b06-a943e5e7f531
suno-36.sophia.grid5000.fr,172.16.130.36,205ebe8c-0bd2-4a7b-9af8-9d3e7b8dbecf
suno-37.sophia.grid5000.fr,172.16.130.37,725323a5-82fc-4446-9984-8929f9ff80ca
suno-43.sophia.grid5000.fr,172.16.130.43,7990f103-9959-48df-8af3-19b3bd6c94e4
suno-44.sophia.grid5000.fr,172.16.130.44,2f4e2d22-f919-4f28-ac4b-ce44b368c41c
suno-8.sophia.grid5000.fr,172.16.130.8,6a187953-7250-4f3d-bc41-bcb865a88745
