date,trigger,state
2019-09-16 05:25:53,dab726ff-b4c3-4a16-ba61-fc4b4d18f771,S
2019-09-16 05:26:29,dab726ff-b4c3-4a16-ba61-fc4b4d18f771,A
2019-09-16 05:29:05,dab726ff-b4c3-4a16-ba61-fc4b4d18f771,S
2019-09-16 05:34:14,dab726ff-b4c3-4a16-ba61-fc4b4d18f771,A
2019-09-16 05:58:10,dab726ff-b4c3-4a16-ba61-fc4b4d18f771,S
2019-09-16 06:02:10,dab726ff-b4c3-4a16-ba61-fc4b4d18f771,A
2019-09-16 06:02:39,dab726ff-b4c3-4a16-ba61-fc4b4d18f771,S
2019-09-16 06:10:19,dab726ff-b4c3-4a16-ba61-fc4b4d18f771,A
2019-09-16 06:11:11,dab726ff-b4c3-4a16-ba61-fc4b4d18f771,S
2019-09-16 06:14:32,dab726ff-b4c3-4a16-ba61-fc4b4d18f771,A
2019-09-16 06:25:30,dab726ff-b4c3-4a16-ba61-fc4b4d18f771,S
2019-09-16 06:25:56,dab726ff-b4c3-4a16-ba61-fc4b4d18f771,A
2019-09-16 06:34:55,dab726ff-b4c3-4a16-ba61-fc4b4d18f771,S
2019-09-16 06:36:51,dab726ff-b4c3-4a16-ba61-fc4b4d18f771,A
2019-09-16 06:41:05,dab726ff-b4c3-4a16-ba61-fc4b4d18f771,S
2019-09-16 06:47:08,dab726ff-b4c3-4a16-ba61-fc4b4d18f771,A
2019-09-16 06:49:56,dab726ff-b4c3-4a16-ba61-fc4b4d18f771,S
2019-09-16 06:50:35,dab726ff-b4c3-4a16-ba61-fc4b4d18f771,A
2019-09-16 05:22:33,91913ca0-a4e9-47ef-a524-d4f402868b0a,S
2019-09-16 05:24:13,91913ca0-a4e9-47ef-a524-d4f402868b0a,A
2019-09-16 05:45:56,91913ca0-a4e9-47ef-a524-d4f402868b0a,S
2019-09-16 05:47:11,91913ca0-a4e9-47ef-a524-d4f402868b0a,A
2019-09-16 05:47:52,91913ca0-a4e9-47ef-a524-d4f402868b0a,S
2019-09-16 05:47:56,91913ca0-a4e9-47ef-a524-d4f402868b0a,A
2019-09-16 05:53:26,91913ca0-a4e9-47ef-a524-d4f402868b0a,S
2019-09-16 05:57:31,91913ca0-a4e9-47ef-a524-d4f402868b0a,A
2019-09-16 06:07:55,91913ca0-a4e9-47ef-a524-d4f402868b0a,S
2019-09-16 06:11:36,91913ca0-a4e9-47ef-a524-d4f402868b0a,A
2019-09-16 06:14:19,91913ca0-a4e9-47ef-a524-d4f402868b0a,S
2019-09-16 06:16:16,91913ca0-a4e9-47ef-a524-d4f402868b0a,A
2019-09-16 06:18:40,91913ca0-a4e9-47ef-a524-d4f402868b0a,S
2019-09-16 06:25:12,91913ca0-a4e9-47ef-a524-d4f402868b0a,A
2019-09-16 06:29:01,91913ca0-a4e9-47ef-a524-d4f402868b0a,S
2019-09-16 06:35:13,91913ca0-a4e9-47ef-a524-d4f402868b0a,A
2019-09-16 06:39:37,91913ca0-a4e9-47ef-a524-d4f402868b0a,S
2019-09-16 06:50:09,91913ca0-a4e9-47ef-a524-d4f402868b0a,A
2019-09-16 06:50:28,91913ca0-a4e9-47ef-a524-d4f402868b0a,S
2019-09-16 05:32:53,041dbea5-2f95-4ec1-9a72-4b0c2272f970,S
2019-09-16 05:36:23,041dbea5-2f95-4ec1-9a72-4b0c2272f970,A
2019-09-16 05:37:49,041dbea5-2f95-4ec1-9a72-4b0c2272f970,S
2019-09-16 05:52:00,041dbea5-2f95-4ec1-9a72-4b0c2272f970,A
2019-09-16 05:57:41,041dbea5-2f95-4ec1-9a72-4b0c2272f970,S
2019-09-16 06:16:01,041dbea5-2f95-4ec1-9a72-4b0c2272f970,A
2019-09-16 06:16:55,041dbea5-2f95-4ec1-9a72-4b0c2272f970,S
2019-09-16 06:24:48,041dbea5-2f95-4ec1-9a72-4b0c2272f970,A
2019-09-16 06:38:22,041dbea5-2f95-4ec1-9a72-4b0c2272f970,S
2019-09-16 06:39:11,041dbea5-2f95-4ec1-9a72-4b0c2272f970,A
2019-09-16 06:41:51,041dbea5-2f95-4ec1-9a72-4b0c2272f970,S
2019-09-16 05:26:55,bc23ff93-ae49-43c4-b360-48e11e7d240b,A
2019-09-16 05:28:11,bc23ff93-ae49-43c4-b360-48e11e7d240b,S
2019-09-16 05:39:27,bc23ff93-ae49-43c4-b360-48e11e7d240b,A
2019-09-16 05:49:44,bc23ff93-ae49-43c4-b360-48e11e7d240b,S
2019-09-16 05:51:57,bc23ff93-ae49-43c4-b360-48e11e7d240b,A
2019-09-16 05:56:29,bc23ff93-ae49-43c4-b360-48e11e7d240b,S
2019-09-16 05:57:00,bc23ff93-ae49-43c4-b360-48e11e7d240b,A
2019-09-16 06:04:12,bc23ff93-ae49-43c4-b360-48e11e7d240b,S
2019-09-16 06:05:02,bc23ff93-ae49-43c4-b360-48e11e7d240b,A
2019-09-16 06:10:24,bc23ff93-ae49-43c4-b360-48e11e7d240b,S
2019-09-16 06:12:48,bc23ff93-ae49-43c4-b360-48e11e7d240b,A
2019-09-16 06:13:32,bc23ff93-ae49-43c4-b360-48e11e7d240b,S
2019-09-16 06:13:45,bc23ff93-ae49-43c4-b360-48e11e7d240b,A
2019-09-16 06:15:39,bc23ff93-ae49-43c4-b360-48e11e7d240b,S
2019-09-16 06:23:20,bc23ff93-ae49-43c4-b360-48e11e7d240b,A
2019-09-16 06:31:09,bc23ff93-ae49-43c4-b360-48e11e7d240b,S
2019-09-16 06:32:40,bc23ff93-ae49-43c4-b360-48e11e7d240b,A
2019-09-16 06:35:17,bc23ff93-ae49-43c4-b360-48e11e7d240b,S
2019-09-16 06:39:58,bc23ff93-ae49-43c4-b360-48e11e7d240b,A
2019-09-16 05:30:51,84adff99-a644-4f2e-be33-efa7d493035d,A
2019-09-16 05:32:44,84adff99-a644-4f2e-be33-efa7d493035d,S
2019-09-16 05:35:52,84adff99-a644-4f2e-be33-efa7d493035d,A
2019-09-16 06:06:26,84adff99-a644-4f2e-be33-efa7d493035d,S
2019-09-16 06:08:24,84adff99-a644-4f2e-be33-efa7d493035d,A
2019-09-16 06:14:28,84adff99-a644-4f2e-be33-efa7d493035d,S
2019-09-16 06:15:14,84adff99-a644-4f2e-be33-efa7d493035d,A
2019-09-16 06:16:22,84adff99-a644-4f2e-be33-efa7d493035d,S
2019-09-16 06:29:06,84adff99-a644-4f2e-be33-efa7d493035d,A
2019-09-16 06:29:42,84adff99-a644-4f2e-be33-efa7d493035d,S
2019-09-16 06:34:07,84adff99-a644-4f2e-be33-efa7d493035d,A
2019-09-16 06:41:46,84adff99-a644-4f2e-be33-efa7d493035d,S
2019-09-16 06:45:45,84adff99-a644-4f2e-be33-efa7d493035d,A
2019-09-16 06:46:28,84adff99-a644-4f2e-be33-efa7d493035d,S
2019-09-16 06:47:03,84adff99-a644-4f2e-be33-efa7d493035d,A
2019-09-16 06:50:06,84adff99-a644-4f2e-be33-efa7d493035d,S
2019-09-16 06:50:23,84adff99-a644-4f2e-be33-efa7d493035d,A
2019-09-16 05:35:08,83c1ee04-5c17-4698-8db0-89026322db2f,S
2019-09-16 05:43:32,83c1ee04-5c17-4698-8db0-89026322db2f,A
2019-09-16 05:43:41,83c1ee04-5c17-4698-8db0-89026322db2f,S
2019-09-16 05:46:39,83c1ee04-5c17-4698-8db0-89026322db2f,A
2019-09-16 05:48:30,83c1ee04-5c17-4698-8db0-89026322db2f,S
2019-09-16 05:48:58,83c1ee04-5c17-4698-8db0-89026322db2f,A
2019-09-16 06:00:21,83c1ee04-5c17-4698-8db0-89026322db2f,S
2019-09-16 06:07:07,83c1ee04-5c17-4698-8db0-89026322db2f,A
2019-09-16 06:30:33,83c1ee04-5c17-4698-8db0-89026322db2f,S
2019-09-16 06:40:47,83c1ee04-5c17-4698-8db0-89026322db2f,A
2019-09-16 06:48:55,83c1ee04-5c17-4698-8db0-89026322db2f,S
2019-09-16 06:49:49,83c1ee04-5c17-4698-8db0-89026322db2f,A
2019-09-16 05:17:15,1ac2bc6d-2448-4a67-b16e-8f919f15e22b,A
2019-09-16 05:23:54,1ac2bc6d-2448-4a67-b16e-8f919f15e22b,S
2019-09-16 05:30:13,1ac2bc6d-2448-4a67-b16e-8f919f15e22b,A
2019-09-16 05:32:53,1ac2bc6d-2448-4a67-b16e-8f919f15e22b,S
2019-09-16 05:42:19,1ac2bc6d-2448-4a67-b16e-8f919f15e22b,A
2019-09-16 05:48:21,1ac2bc6d-2448-4a67-b16e-8f919f15e22b,S
2019-09-16 05:52:37,1ac2bc6d-2448-4a67-b16e-8f919f15e22b,A
2019-09-16 05:58:22,1ac2bc6d-2448-4a67-b16e-8f919f15e22b,S
2019-09-16 05:59:56,1ac2bc6d-2448-4a67-b16e-8f919f15e22b,A
2019-09-16 06:01:34,1ac2bc6d-2448-4a67-b16e-8f919f15e22b,S
2019-09-16 06:04:36,1ac2bc6d-2448-4a67-b16e-8f919f15e22b,A
2019-09-16 06:09:24,1ac2bc6d-2448-4a67-b16e-8f919f15e22b,S
2019-09-16 06:10:28,1ac2bc6d-2448-4a67-b16e-8f919f15e22b,A
2019-09-16 06:13:46,1ac2bc6d-2448-4a67-b16e-8f919f15e22b,S
2019-09-16 06:15:44,1ac2bc6d-2448-4a67-b16e-8f919f15e22b,A
2019-09-16 06:16:49,1ac2bc6d-2448-4a67-b16e-8f919f15e22b,S
2019-09-16 06:24:34,1ac2bc6d-2448-4a67-b16e-8f919f15e22b,A
2019-09-16 06:32:38,1ac2bc6d-2448-4a67-b16e-8f919f15e22b,S
2019-09-16 06:37:22,1ac2bc6d-2448-4a67-b16e-8f919f15e22b,A
2019-09-16 06:42:20,1ac2bc6d-2448-4a67-b16e-8f919f15e22b,S
2019-09-16 06:44:22,1ac2bc6d-2448-4a67-b16e-8f919f15e22b,A
2019-09-16 05:38:16,65057d9d-4dd4-49b7-8343-ed2bb9531321,S
2019-09-16 05:42:39,65057d9d-4dd4-49b7-8343-ed2bb9531321,A
2019-09-16 05:43:37,65057d9d-4dd4-49b7-8343-ed2bb9531321,S
2019-09-16 05:46:53,65057d9d-4dd4-49b7-8343-ed2bb9531321,A
2019-09-16 05:47:17,65057d9d-4dd4-49b7-8343-ed2bb9531321,S
2019-09-16 05:50:15,65057d9d-4dd4-49b7-8343-ed2bb9531321,A
2019-09-16 05:54:15,65057d9d-4dd4-49b7-8343-ed2bb9531321,S
2019-09-16 05:56:29,65057d9d-4dd4-49b7-8343-ed2bb9531321,A
2019-09-16 05:58:35,65057d9d-4dd4-49b7-8343-ed2bb9531321,S
2019-09-16 06:02:45,65057d9d-4dd4-49b7-8343-ed2bb9531321,A
2019-09-16 06:07:23,65057d9d-4dd4-49b7-8343-ed2bb9531321,S
2019-09-16 06:10:27,65057d9d-4dd4-49b7-8343-ed2bb9531321,A
2019-09-16 06:12:37,65057d9d-4dd4-49b7-8343-ed2bb9531321,S
2019-09-16 06:18:40,65057d9d-4dd4-49b7-8343-ed2bb9531321,A
2019-09-16 06:21:10,65057d9d-4dd4-49b7-8343-ed2bb9531321,S
2019-09-16 06:21:55,65057d9d-4dd4-49b7-8343-ed2bb9531321,A
2019-09-16 06:21:58,65057d9d-4dd4-49b7-8343-ed2bb9531321,S
2019-09-16 06:24:48,65057d9d-4dd4-49b7-8343-ed2bb9531321,A
2019-09-16 06:33:04,65057d9d-4dd4-49b7-8343-ed2bb9531321,S
2019-09-16 06:35:50,65057d9d-4dd4-49b7-8343-ed2bb9531321,A
2019-09-16 06:35:53,65057d9d-4dd4-49b7-8343-ed2bb9531321,S
2019-09-16 06:41:58,65057d9d-4dd4-49b7-8343-ed2bb9531321,A
2019-09-16 06:46:21,65057d9d-4dd4-49b7-8343-ed2bb9531321,S
2019-09-16 05:22:30,47821a61-a552-4265-a656-02ed100eac8e,A
2019-09-16 05:23:47,47821a61-a552-4265-a656-02ed100eac8e,S
2019-09-16 05:32:51,47821a61-a552-4265-a656-02ed100eac8e,A
2019-09-16 05:35:03,47821a61-a552-4265-a656-02ed100eac8e,S
2019-09-16 05:35:43,47821a61-a552-4265-a656-02ed100eac8e,A
2019-09-16 05:35:51,47821a61-a552-4265-a656-02ed100eac8e,S
2019-09-16 05:40:51,47821a61-a552-4265-a656-02ed100eac8e,A
2019-09-16 05:44:02,47821a61-a552-4265-a656-02ed100eac8e,S
2019-09-16 05:45:30,47821a61-a552-4265-a656-02ed100eac8e,A
2019-09-16 05:55:34,47821a61-a552-4265-a656-02ed100eac8e,S
2019-09-16 05:57:16,47821a61-a552-4265-a656-02ed100eac8e,A
2019-09-16 06:04:09,47821a61-a552-4265-a656-02ed100eac8e,S
2019-09-16 06:07:11,47821a61-a552-4265-a656-02ed100eac8e,A
2019-09-16 06:13:42,47821a61-a552-4265-a656-02ed100eac8e,S
2019-09-16 06:20:31,47821a61-a552-4265-a656-02ed100eac8e,A
2019-09-16 06:32:26,47821a61-a552-4265-a656-02ed100eac8e,S
2019-09-16 06:32:45,47821a61-a552-4265-a656-02ed100eac8e,A
2019-09-16 06:48:09,47821a61-a552-4265-a656-02ed100eac8e,S
2019-09-16 06:51:01,47821a61-a552-4265-a656-02ed100eac8e,A
2019-09-16 05:16:39,fc6e073a-5144-4484-8442-056cf0dc3284,A
2019-09-16 05:18:07,fc6e073a-5144-4484-8442-056cf0dc3284,S
2019-09-16 05:21:35,fc6e073a-5144-4484-8442-056cf0dc3284,A
2019-09-16 05:22:49,fc6e073a-5144-4484-8442-056cf0dc3284,S
2019-09-16 05:25:16,fc6e073a-5144-4484-8442-056cf0dc3284,A
2019-09-16 05:30:28,fc6e073a-5144-4484-8442-056cf0dc3284,S
2019-09-16 05:36:21,fc6e073a-5144-4484-8442-056cf0dc3284,A
2019-09-16 05:49:42,fc6e073a-5144-4484-8442-056cf0dc3284,S
2019-09-16 05:54:20,fc6e073a-5144-4484-8442-056cf0dc3284,A
2019-09-16 05:56:49,fc6e073a-5144-4484-8442-056cf0dc3284,S
2019-09-16 06:06:03,fc6e073a-5144-4484-8442-056cf0dc3284,A
2019-09-16 06:07:00,fc6e073a-5144-4484-8442-056cf0dc3284,S
2019-09-16 06:10:30,fc6e073a-5144-4484-8442-056cf0dc3284,A
2019-09-16 06:12:09,fc6e073a-5144-4484-8442-056cf0dc3284,S
2019-09-16 06:17:43,fc6e073a-5144-4484-8442-056cf0dc3284,A
2019-09-16 06:22:53,fc6e073a-5144-4484-8442-056cf0dc3284,S
2019-09-16 06:25:46,fc6e073a-5144-4484-8442-056cf0dc3284,A
2019-09-16 06:40:21,fc6e073a-5144-4484-8442-056cf0dc3284,S
2019-09-16 06:43:47,fc6e073a-5144-4484-8442-056cf0dc3284,A
2019-09-16 06:48:52,fc6e073a-5144-4484-8442-056cf0dc3284,S
2019-09-16 06:50:43,fc6e073a-5144-4484-8442-056cf0dc3284,A
2019-09-16 05:52:31,6a16b48f-714c-4504-a679-30c68afdb6e0,A
2019-09-16 05:57:09,6a16b48f-714c-4504-a679-30c68afdb6e0,S
2019-09-16 06:16:40,6a16b48f-714c-4504-a679-30c68afdb6e0,A
2019-09-16 06:21:11,6a16b48f-714c-4504-a679-30c68afdb6e0,S
2019-09-16 06:22:54,6a16b48f-714c-4504-a679-30c68afdb6e0,A
2019-09-16 06:27:31,6a16b48f-714c-4504-a679-30c68afdb6e0,S
2019-09-16 06:27:36,6a16b48f-714c-4504-a679-30c68afdb6e0,A
2019-09-16 06:30:27,6a16b48f-714c-4504-a679-30c68afdb6e0,S
2019-09-16 06:31:49,6a16b48f-714c-4504-a679-30c68afdb6e0,A
2019-09-16 06:32:54,6a16b48f-714c-4504-a679-30c68afdb6e0,S
2019-09-16 06:33:08,6a16b48f-714c-4504-a679-30c68afdb6e0,A
2019-09-16 06:37:27,6a16b48f-714c-4504-a679-30c68afdb6e0,S
2019-09-16 06:49:19,6a16b48f-714c-4504-a679-30c68afdb6e0,A
2019-09-16 06:50:01,6a16b48f-714c-4504-a679-30c68afdb6e0,S
2019-09-16 05:16:24,66deeed8-0d75-4790-817f-b8525dc5c00b,S
2019-09-16 05:24:15,66deeed8-0d75-4790-817f-b8525dc5c00b,A
2019-09-16 05:40:41,66deeed8-0d75-4790-817f-b8525dc5c00b,S
2019-09-16 06:06:25,66deeed8-0d75-4790-817f-b8525dc5c00b,A
2019-09-16 06:16:00,66deeed8-0d75-4790-817f-b8525dc5c00b,S
2019-09-16 06:16:08,66deeed8-0d75-4790-817f-b8525dc5c00b,A
2019-09-16 06:28:42,66deeed8-0d75-4790-817f-b8525dc5c00b,S
2019-09-16 06:31:45,66deeed8-0d75-4790-817f-b8525dc5c00b,A
2019-09-16 06:38:49,66deeed8-0d75-4790-817f-b8525dc5c00b,S
2019-09-16 06:43:47,66deeed8-0d75-4790-817f-b8525dc5c00b,A
2019-09-16 06:44:18,66deeed8-0d75-4790-817f-b8525dc5c00b,S
2019-09-16 06:51:44,66deeed8-0d75-4790-817f-b8525dc5c00b,A
2019-09-16 06:52:41,66deeed8-0d75-4790-817f-b8525dc5c00b,S
2019-09-16 05:28:52,e8e25a09-0546-400c-aad5-05fdd3cc4c92,A
2019-09-16 05:34:15,e8e25a09-0546-400c-aad5-05fdd3cc4c92,S
2019-09-16 05:43:44,e8e25a09-0546-400c-aad5-05fdd3cc4c92,A
2019-09-16 05:47:11,e8e25a09-0546-400c-aad5-05fdd3cc4c92,S
2019-09-16 05:50:44,e8e25a09-0546-400c-aad5-05fdd3cc4c92,A
2019-09-16 06:01:49,e8e25a09-0546-400c-aad5-05fdd3cc4c92,S
2019-09-16 06:08:16,e8e25a09-0546-400c-aad5-05fdd3cc4c92,A
2019-09-16 06:19:06,e8e25a09-0546-400c-aad5-05fdd3cc4c92,S
2019-09-16 06:20:59,e8e25a09-0546-400c-aad5-05fdd3cc4c92,A
2019-09-16 06:21:16,e8e25a09-0546-400c-aad5-05fdd3cc4c92,S
2019-09-16 06:36:36,e8e25a09-0546-400c-aad5-05fdd3cc4c92,A
2019-09-16 06:38:14,e8e25a09-0546-400c-aad5-05fdd3cc4c92,S
2019-09-16 06:42:18,e8e25a09-0546-400c-aad5-05fdd3cc4c92,A
2019-09-16 06:44:03,e8e25a09-0546-400c-aad5-05fdd3cc4c92,S
2019-09-16 06:49:03,e8e25a09-0546-400c-aad5-05fdd3cc4c92,A
2019-09-16 05:38:37,9974a5b9-8925-45bc-a541-dc059c637555,A
2019-09-16 05:41:52,9974a5b9-8925-45bc-a541-dc059c637555,S
2019-09-16 05:46:57,9974a5b9-8925-45bc-a541-dc059c637555,A
2019-09-16 05:55:32,9974a5b9-8925-45bc-a541-dc059c637555,S
2019-09-16 06:00:00,9974a5b9-8925-45bc-a541-dc059c637555,A
2019-09-16 06:03:08,9974a5b9-8925-45bc-a541-dc059c637555,S
2019-09-16 06:03:58,9974a5b9-8925-45bc-a541-dc059c637555,A
2019-09-16 06:05:21,9974a5b9-8925-45bc-a541-dc059c637555,S
2019-09-16 06:10:36,9974a5b9-8925-45bc-a541-dc059c637555,A
2019-09-16 06:16:12,9974a5b9-8925-45bc-a541-dc059c637555,S
2019-09-16 06:27:34,9974a5b9-8925-45bc-a541-dc059c637555,A
2019-09-16 06:27:38,9974a5b9-8925-45bc-a541-dc059c637555,S
2019-09-16 06:34:49,9974a5b9-8925-45bc-a541-dc059c637555,A
2019-09-16 06:46:19,9974a5b9-8925-45bc-a541-dc059c637555,S
2019-09-16 06:47:55,9974a5b9-8925-45bc-a541-dc059c637555,A
2019-09-16 06:51:03,9974a5b9-8925-45bc-a541-dc059c637555,S
2019-09-16 06:51:19,9974a5b9-8925-45bc-a541-dc059c637555,A
2019-09-16 05:49:52,cf07e9f8-ca90-4bf7-b637-3b414f0def7c,A
2019-09-16 06:00:04,cf07e9f8-ca90-4bf7-b637-3b414f0def7c,S
2019-09-16 06:05:14,cf07e9f8-ca90-4bf7-b637-3b414f0def7c,A
2019-09-16 06:11:01,cf07e9f8-ca90-4bf7-b637-3b414f0def7c,S
2019-09-16 06:19:53,cf07e9f8-ca90-4bf7-b637-3b414f0def7c,A
2019-09-16 06:28:48,cf07e9f8-ca90-4bf7-b637-3b414f0def7c,S
2019-09-16 06:46:06,cf07e9f8-ca90-4bf7-b637-3b414f0def7c,A
2019-09-16 06:50:07,cf07e9f8-ca90-4bf7-b637-3b414f0def7c,S
2019-09-16 06:51:50,cf07e9f8-ca90-4bf7-b637-3b414f0def7c,A
2019-09-16 05:21:20,d382e6a8-2de1-469a-b909-9a351b74412b,S
2019-09-16 05:31:05,d382e6a8-2de1-469a-b909-9a351b74412b,A
2019-09-16 05:32:29,d382e6a8-2de1-469a-b909-9a351b74412b,S
2019-09-16 05:40:43,d382e6a8-2de1-469a-b909-9a351b74412b,A
2019-09-16 05:41:35,d382e6a8-2de1-469a-b909-9a351b74412b,S
2019-09-16 05:42:17,d382e6a8-2de1-469a-b909-9a351b74412b,A
2019-09-16 05:45:44,d382e6a8-2de1-469a-b909-9a351b74412b,S
2019-09-16 05:53:30,d382e6a8-2de1-469a-b909-9a351b74412b,A
2019-09-16 05:53:44,d382e6a8-2de1-469a-b909-9a351b74412b,S
2019-09-16 05:59:31,d382e6a8-2de1-469a-b909-9a351b74412b,A
2019-09-16 06:02:07,d382e6a8-2de1-469a-b909-9a351b74412b,S
2019-09-16 06:02:12,d382e6a8-2de1-469a-b909-9a351b74412b,A
2019-09-16 06:05:20,d382e6a8-2de1-469a-b909-9a351b74412b,S
2019-09-16 06:05:46,d382e6a8-2de1-469a-b909-9a351b74412b,A
2019-09-16 06:17:30,d382e6a8-2de1-469a-b909-9a351b74412b,S
2019-09-16 06:20:00,d382e6a8-2de1-469a-b909-9a351b74412b,A
2019-09-16 06:22:54,d382e6a8-2de1-469a-b909-9a351b74412b,S
2019-09-16 06:23:01,d382e6a8-2de1-469a-b909-9a351b74412b,A
2019-09-16 06:27:17,d382e6a8-2de1-469a-b909-9a351b74412b,S
2019-09-16 06:29:34,d382e6a8-2de1-469a-b909-9a351b74412b,A
2019-09-16 06:37:17,d382e6a8-2de1-469a-b909-9a351b74412b,S
2019-09-16 06:46:35,d382e6a8-2de1-469a-b909-9a351b74412b,A
2019-09-16 06:50:56,d382e6a8-2de1-469a-b909-9a351b74412b,S
2019-09-16 05:18:41,2808335b-00a1-4bb1-b7e1-bf29ad842977,A
2019-09-16 05:28:38,2808335b-00a1-4bb1-b7e1-bf29ad842977,S
2019-09-16 05:29:59,2808335b-00a1-4bb1-b7e1-bf29ad842977,A
2019-09-16 05:34:44,2808335b-00a1-4bb1-b7e1-bf29ad842977,S
2019-09-16 05:47:14,2808335b-00a1-4bb1-b7e1-bf29ad842977,A
2019-09-16 05:50:13,2808335b-00a1-4bb1-b7e1-bf29ad842977,S
2019-09-16 05:56:27,2808335b-00a1-4bb1-b7e1-bf29ad842977,A
2019-09-16 06:00:01,2808335b-00a1-4bb1-b7e1-bf29ad842977,S
2019-09-16 06:05:36,2808335b-00a1-4bb1-b7e1-bf29ad842977,A
2019-09-16 06:07:55,2808335b-00a1-4bb1-b7e1-bf29ad842977,S
2019-09-16 06:14:08,2808335b-00a1-4bb1-b7e1-bf29ad842977,A
2019-09-16 06:17:27,2808335b-00a1-4bb1-b7e1-bf29ad842977,S
2019-09-16 06:18:13,2808335b-00a1-4bb1-b7e1-bf29ad842977,A
2019-09-16 06:26:23,2808335b-00a1-4bb1-b7e1-bf29ad842977,S
2019-09-16 06:26:25,2808335b-00a1-4bb1-b7e1-bf29ad842977,A
2019-09-16 06:27:58,2808335b-00a1-4bb1-b7e1-bf29ad842977,S
2019-09-16 06:28:46,2808335b-00a1-4bb1-b7e1-bf29ad842977,A
2019-09-16 06:28:53,2808335b-00a1-4bb1-b7e1-bf29ad842977,S
2019-09-16 06:28:58,2808335b-00a1-4bb1-b7e1-bf29ad842977,A
2019-09-16 06:29:23,2808335b-00a1-4bb1-b7e1-bf29ad842977,S
2019-09-16 06:34:08,2808335b-00a1-4bb1-b7e1-bf29ad842977,A
2019-09-16 06:38:16,2808335b-00a1-4bb1-b7e1-bf29ad842977,S
2019-09-16 06:40:04,2808335b-00a1-4bb1-b7e1-bf29ad842977,A
2019-09-16 06:42:18,2808335b-00a1-4bb1-b7e1-bf29ad842977,S
2019-09-16 06:52:56,2808335b-00a1-4bb1-b7e1-bf29ad842977,A
2019-09-16 05:43:29,ef8ceffb-381b-4c84-a085-b78834217d9e,S
2019-09-16 05:43:30,ef8ceffb-381b-4c84-a085-b78834217d9e,A
2019-09-16 05:51:26,ef8ceffb-381b-4c84-a085-b78834217d9e,S
2019-09-16 05:59:57,ef8ceffb-381b-4c84-a085-b78834217d9e,A
2019-09-16 06:01:40,ef8ceffb-381b-4c84-a085-b78834217d9e,S
2019-09-16 06:03:06,ef8ceffb-381b-4c84-a085-b78834217d9e,A
2019-09-16 06:03:07,ef8ceffb-381b-4c84-a085-b78834217d9e,S
2019-09-16 06:03:15,ef8ceffb-381b-4c84-a085-b78834217d9e,A
2019-09-16 06:03:48,ef8ceffb-381b-4c84-a085-b78834217d9e,S
2019-09-16 06:15:55,ef8ceffb-381b-4c84-a085-b78834217d9e,A
2019-09-16 06:31:31,ef8ceffb-381b-4c84-a085-b78834217d9e,S
2019-09-16 06:34:06,ef8ceffb-381b-4c84-a085-b78834217d9e,A
2019-09-16 06:47:46,ef8ceffb-381b-4c84-a085-b78834217d9e,S
2019-09-16 06:51:15,ef8ceffb-381b-4c84-a085-b78834217d9e,A
2019-09-16 06:53:31,ef8ceffb-381b-4c84-a085-b78834217d9e,S
2019-09-16 05:28:06,ba5bd618-2127-4eba-8b20-a7d72ad461dc,S
2019-09-16 05:28:58,ba5bd618-2127-4eba-8b20-a7d72ad461dc,A
2019-09-16 05:32:02,ba5bd618-2127-4eba-8b20-a7d72ad461dc,S
2019-09-16 05:41:59,ba5bd618-2127-4eba-8b20-a7d72ad461dc,A
2019-09-16 05:44:36,ba5bd618-2127-4eba-8b20-a7d72ad461dc,S
2019-09-16 05:50:59,ba5bd618-2127-4eba-8b20-a7d72ad461dc,A
2019-09-16 05:56:02,ba5bd618-2127-4eba-8b20-a7d72ad461dc,S
2019-09-16 05:56:54,ba5bd618-2127-4eba-8b20-a7d72ad461dc,A
2019-09-16 06:07:30,ba5bd618-2127-4eba-8b20-a7d72ad461dc,S
2019-09-16 06:11:00,ba5bd618-2127-4eba-8b20-a7d72ad461dc,A
2019-09-16 06:11:19,ba5bd618-2127-4eba-8b20-a7d72ad461dc,S
2019-09-16 06:11:34,ba5bd618-2127-4eba-8b20-a7d72ad461dc,A
2019-09-16 06:17:14,ba5bd618-2127-4eba-8b20-a7d72ad461dc,S
2019-09-16 06:25:00,ba5bd618-2127-4eba-8b20-a7d72ad461dc,A
2019-09-16 06:30:07,ba5bd618-2127-4eba-8b20-a7d72ad461dc,S
2019-09-16 06:46:14,ba5bd618-2127-4eba-8b20-a7d72ad461dc,A
2019-09-16 06:47:26,ba5bd618-2127-4eba-8b20-a7d72ad461dc,S
2019-09-16 06:52:15,ba5bd618-2127-4eba-8b20-a7d72ad461dc,A
2019-09-16 06:53:21,ba5bd618-2127-4eba-8b20-a7d72ad461dc,S
2019-09-16 05:17:36,74757e9f-f50c-4039-b02e-2dbe063c72a9,S
2019-09-16 05:18:23,74757e9f-f50c-4039-b02e-2dbe063c72a9,A
2019-09-16 05:25:34,74757e9f-f50c-4039-b02e-2dbe063c72a9,S
2019-09-16 05:29:32,74757e9f-f50c-4039-b02e-2dbe063c72a9,A
2019-09-16 05:30:19,74757e9f-f50c-4039-b02e-2dbe063c72a9,S
2019-09-16 05:31:25,74757e9f-f50c-4039-b02e-2dbe063c72a9,A
2019-09-16 05:48:22,74757e9f-f50c-4039-b02e-2dbe063c72a9,S
2019-09-16 05:48:23,74757e9f-f50c-4039-b02e-2dbe063c72a9,A
2019-09-16 05:50:25,74757e9f-f50c-4039-b02e-2dbe063c72a9,S
2019-09-16 05:52:02,74757e9f-f50c-4039-b02e-2dbe063c72a9,A
2019-09-16 05:58:53,74757e9f-f50c-4039-b02e-2dbe063c72a9,S
2019-09-16 05:59:05,74757e9f-f50c-4039-b02e-2dbe063c72a9,A
2019-09-16 06:14:08,74757e9f-f50c-4039-b02e-2dbe063c72a9,S
2019-09-16 06:19:10,74757e9f-f50c-4039-b02e-2dbe063c72a9,A
2019-09-16 06:23:02,74757e9f-f50c-4039-b02e-2dbe063c72a9,S
2019-09-16 06:34:21,74757e9f-f50c-4039-b02e-2dbe063c72a9,A
2019-09-16 06:42:12,74757e9f-f50c-4039-b02e-2dbe063c72a9,S
2019-09-16 06:44:34,74757e9f-f50c-4039-b02e-2dbe063c72a9,A
2019-09-16 06:48:37,74757e9f-f50c-4039-b02e-2dbe063c72a9,S
2019-09-16 06:49:26,74757e9f-f50c-4039-b02e-2dbe063c72a9,A
2019-09-16 06:54:40,74757e9f-f50c-4039-b02e-2dbe063c72a9,S
2019-09-16 05:24:02,21028bd6-a4b5-40cd-9918-c96a891a0741,S
2019-09-16 05:28:11,21028bd6-a4b5-40cd-9918-c96a891a0741,A
2019-09-16 05:46:06,21028bd6-a4b5-40cd-9918-c96a891a0741,S
2019-09-16 05:48:00,21028bd6-a4b5-40cd-9918-c96a891a0741,A
2019-09-16 05:54:26,21028bd6-a4b5-40cd-9918-c96a891a0741,S
2019-09-16 05:55:53,21028bd6-a4b5-40cd-9918-c96a891a0741,A
2019-09-16 06:00:26,21028bd6-a4b5-40cd-9918-c96a891a0741,S
2019-09-16 06:00:55,21028bd6-a4b5-40cd-9918-c96a891a0741,A
2019-09-16 06:03:52,21028bd6-a4b5-40cd-9918-c96a891a0741,S
2019-09-16 06:04:05,21028bd6-a4b5-40cd-9918-c96a891a0741,A
2019-09-16 06:05:51,21028bd6-a4b5-40cd-9918-c96a891a0741,S
2019-09-16 06:06:23,21028bd6-a4b5-40cd-9918-c96a891a0741,A
2019-09-16 06:08:12,21028bd6-a4b5-40cd-9918-c96a891a0741,S
2019-09-16 06:13:10,21028bd6-a4b5-40cd-9918-c96a891a0741,A
2019-09-16 06:14:29,21028bd6-a4b5-40cd-9918-c96a891a0741,S
2019-09-16 06:18:36,21028bd6-a4b5-40cd-9918-c96a891a0741,A
2019-09-16 06:28:59,21028bd6-a4b5-40cd-9918-c96a891a0741,S
2019-09-16 06:30:33,21028bd6-a4b5-40cd-9918-c96a891a0741,A
2019-09-16 06:38:04,21028bd6-a4b5-40cd-9918-c96a891a0741,S
2019-09-16 06:38:19,21028bd6-a4b5-40cd-9918-c96a891a0741,A
2019-09-16 06:39:44,21028bd6-a4b5-40cd-9918-c96a891a0741,S
2019-09-16 05:20:38,747d4e5f-1181-4462-b7af-3c0404dd3522,A
2019-09-16 05:21:13,747d4e5f-1181-4462-b7af-3c0404dd3522,S
2019-09-16 05:30:50,747d4e5f-1181-4462-b7af-3c0404dd3522,A
2019-09-16 05:41:37,747d4e5f-1181-4462-b7af-3c0404dd3522,S
2019-09-16 05:48:04,747d4e5f-1181-4462-b7af-3c0404dd3522,A
2019-09-16 05:49:12,747d4e5f-1181-4462-b7af-3c0404dd3522,S
2019-09-16 06:01:25,747d4e5f-1181-4462-b7af-3c0404dd3522,A
2019-09-16 06:03:19,747d4e5f-1181-4462-b7af-3c0404dd3522,S
2019-09-16 06:12:01,747d4e5f-1181-4462-b7af-3c0404dd3522,A
2019-09-16 06:14:33,747d4e5f-1181-4462-b7af-3c0404dd3522,S
2019-09-16 06:14:47,747d4e5f-1181-4462-b7af-3c0404dd3522,A
2019-09-16 06:16:19,747d4e5f-1181-4462-b7af-3c0404dd3522,S
2019-09-16 06:24:28,747d4e5f-1181-4462-b7af-3c0404dd3522,A
2019-09-16 06:28:17,747d4e5f-1181-4462-b7af-3c0404dd3522,S
2019-09-16 06:31:40,747d4e5f-1181-4462-b7af-3c0404dd3522,A
2019-09-16 06:35:08,747d4e5f-1181-4462-b7af-3c0404dd3522,S
2019-09-16 06:41:10,747d4e5f-1181-4462-b7af-3c0404dd3522,A
2019-09-16 06:51:07,747d4e5f-1181-4462-b7af-3c0404dd3522,S
2019-09-16 05:28:59,e69dd67e-c5f5-497f-9d64-d359dd5f5140,S
2019-09-16 05:50:08,e69dd67e-c5f5-497f-9d64-d359dd5f5140,A
2019-09-16 05:58:43,e69dd67e-c5f5-497f-9d64-d359dd5f5140,S
2019-09-16 06:21:59,e69dd67e-c5f5-497f-9d64-d359dd5f5140,A
2019-09-16 06:22:09,e69dd67e-c5f5-497f-9d64-d359dd5f5140,S
2019-09-16 06:25:20,e69dd67e-c5f5-497f-9d64-d359dd5f5140,A
2019-09-16 06:35:09,e69dd67e-c5f5-497f-9d64-d359dd5f5140,S
2019-09-16 06:41:02,e69dd67e-c5f5-497f-9d64-d359dd5f5140,A
2019-09-16 06:42:14,e69dd67e-c5f5-497f-9d64-d359dd5f5140,S
2019-09-16 06:48:39,e69dd67e-c5f5-497f-9d64-d359dd5f5140,A
2019-09-16 06:52:42,e69dd67e-c5f5-497f-9d64-d359dd5f5140,S
2019-09-16 06:55:23,e69dd67e-c5f5-497f-9d64-d359dd5f5140,A
2019-09-16 05:15:22,4233b96d-cf3c-4712-a111-88a886721d5f,A
2019-09-16 05:17:18,4233b96d-cf3c-4712-a111-88a886721d5f,S
2019-09-16 05:19:02,4233b96d-cf3c-4712-a111-88a886721d5f,A
2019-09-16 05:21:37,4233b96d-cf3c-4712-a111-88a886721d5f,S
2019-09-16 05:25:02,4233b96d-cf3c-4712-a111-88a886721d5f,A
2019-09-16 05:32:13,4233b96d-cf3c-4712-a111-88a886721d5f,S
2019-09-16 05:33:40,4233b96d-cf3c-4712-a111-88a886721d5f,A
2019-09-16 05:47:14,4233b96d-cf3c-4712-a111-88a886721d5f,S
2019-09-16 05:47:46,4233b96d-cf3c-4712-a111-88a886721d5f,A
2019-09-16 05:52:23,4233b96d-cf3c-4712-a111-88a886721d5f,S
2019-09-16 05:53:00,4233b96d-cf3c-4712-a111-88a886721d5f,A
2019-09-16 05:59:34,4233b96d-cf3c-4712-a111-88a886721d5f,S
2019-09-16 06:00:01,4233b96d-cf3c-4712-a111-88a886721d5f,A
2019-09-16 06:00:06,4233b96d-cf3c-4712-a111-88a886721d5f,S
2019-09-16 06:11:16,4233b96d-cf3c-4712-a111-88a886721d5f,A
2019-09-16 06:12:01,4233b96d-cf3c-4712-a111-88a886721d5f,S
2019-09-16 06:14:42,4233b96d-cf3c-4712-a111-88a886721d5f,A
2019-09-16 06:19:25,4233b96d-cf3c-4712-a111-88a886721d5f,S
2019-09-16 06:35:28,4233b96d-cf3c-4712-a111-88a886721d5f,A
2019-09-16 06:38:41,4233b96d-cf3c-4712-a111-88a886721d5f,S
2019-09-16 06:41:27,4233b96d-cf3c-4712-a111-88a886721d5f,A
2019-09-16 06:41:58,4233b96d-cf3c-4712-a111-88a886721d5f,S
