actor,node
5bcc6b15-017b-4f2d-9496-70ec66b94bdd,76cf339f-ccf7-4dbb-bc45-f7fc07c2dda9
82968e54-dc8e-4d0b-a694-77bae20aea40,99483969-04ce-4d8f-8aba-0523456f7a7a
fe87db3c-2864-481e-8332-dc724ca80f78,76cf339f-ccf7-4dbb-bc45-f7fc07c2dda9
a4180b74-96cb-4cdd-9aad-f1cf9218566c,6aa8ca50-ac58-494a-92ce-5a4fa14d211b
9a9d79cb-c007-4263-a980-76a91771c3c3,1d3d553f-6f11-41f0-84a0-0f7a19858851
3758dc88-84fc-42a2-9539-5588dba1d6c3,6aa8ca50-ac58-494a-92ce-5a4fa14d211b
8d9ea52d-6293-40a2-a98c-e771bff65765,f2f9a15a-95a1-4ba8-8b76-109bc5846f2c
302898a7-8117-4fa6-ba14-98346e5d17d5,8865f69b-1963-4386-b517-ba07ef3a9b29
bb40763d-8c4a-4b81-be88-131ced50e302,f2f9a15a-95a1-4ba8-8b76-109bc5846f2c
2b1f777a-08d6-4917-b2d4-183fa7363057,712057d4-6c2a-4bbd-a36d-5eef3b1df198
5a835a64-1eed-47bf-b37d-650747a7a675,f2f9a15a-95a1-4ba8-8b76-109bc5846f2c
7073dc13-9875-4c71-b0ad-035cafdc4a72,f2f9a15a-95a1-4ba8-8b76-109bc5846f2c
9685cf2a-6206-4d17-be93-3f2752c4932a,5cc3a4ce-fe44-4bec-95a9-22a5c6665df1
ca371a1f-d7c3-4b4d-aa40-c7d76cac3fdd,5cc3a4ce-fe44-4bec-95a9-22a5c6665df1
2acb709a-6aa8-4c58-a6fb-fb2c973f0c50,d7af4df1-2cda-4e36-aaea-66759ea6eb08
59a12530-f78b-4906-964f-337bb2930ba4,bf85299a-6114-4afa-a01b-0a0c92751819
6cdc7a27-2c75-4894-aba6-5b178dc9944a,bf85299a-6114-4afa-a01b-0a0c92751819
dc2a74da-b701-498d-adac-9ec08d61070f,2a398f5c-141c-40d0-bf83-5fcc1c20fb88
3a894972-b813-4286-9a1f-c504af44a749,6877473d-d47e-4e9e-bc9c-493041e50fa7
6cb5c2a9-6d6d-49ec-9199-30f2f265a253,6877473d-d47e-4e9e-bc9c-493041e50fa7
9eef4f0b-003b-4669-a5f2-2dd53525539a,946a7120-9751-4e7b-8200-1865a7171f9b
f78c1d6a-ab73-41c8-a93a-c74ae1ced6cb,0266e30e-fd06-4462-ba28-05359412771c
6799bbdb-2473-4500-bee4-c51c0dac54f6,f2f9a15a-95a1-4ba8-8b76-109bc5846f2c
872b2d86-0b3d-453d-9d5b-25ba2c05b8c1,f2f9a15a-95a1-4ba8-8b76-109bc5846f2c
4e706b0d-ebc0-4407-b0c3-e71f0e45b41b,f2f9a15a-95a1-4ba8-8b76-109bc5846f2c
feb5d32c-aeaa-426b-95ac-c89237867da5,146bde8e-0276-4eeb-8eb3-2ffe2a4a60c1
b931548e-911d-49d1-bbbc-cd578f8456ca,f2f9a15a-95a1-4ba8-8b76-109bc5846f2c
132d10e7-4f83-4db2-b517-620e4e990707,e6bcd386-ea6e-4a9c-a123-0e3f54a2c2f6
9b2bfc99-9329-4901-8c4b-3f62c8040cfd,f4c00b12-2d61-4fe4-8c12-a84af6857486
0bcedec1-c444-4137-9dd9-106cdfc0fd5d,0a055c90-65ce-4da1-bc84-5ff4540768a6
310988d7-0320-4d80-9e46-7f24256df45c,6094aecc-ab08-4c1e-9975-c852b9328c77
081b9408-cf56-4ae9-8845-70753904a0d6,6094aecc-ab08-4c1e-9975-c852b9328c77
023aa7f9-3bcf-4a73-ad78-ca3839a3090a,d30c2826-a325-44ac-8d3e-9e5e0fbcd044
792cd4df-8c96-42f7-951d-59fdee19b53c,24337f41-8f2b-401a-ab33-8f3e679d5b75
64bcd5f5-e747-4754-b3aa-65edb62fc4f9,32b1e48a-9e56-417a-8c2a-34cd89084aef
2c6cbba2-d93d-4a13-ace1-ba5572dc93e5,24337f41-8f2b-401a-ab33-8f3e679d5b75
37d6d618-4af4-44ba-8005-f2bcf6b1c4c2,0142f85e-61c4-4856-a9fe-297e23673add
4ff4f6a8-2e3c-4d21-9557-064ebdb9d2b0,d8e7cc35-6f0b-434e-b317-5234af42e7c7
26e9b44e-817e-4b37-a0d4-abfdcb51d479,0142f85e-61c4-4856-a9fe-297e23673add
a76b79e4-821a-44d2-a887-e7ac8c1361c4,24337f41-8f2b-401a-ab33-8f3e679d5b75
bc35a586-6ddd-42e7-bde3-630644fd3e6c,d18e29f1-60bc-4845-8051-3156bad23437
2f10b312-8350-4bf2-a61c-8e8e4bca1a9f,24337f41-8f2b-401a-ab33-8f3e679d5b75
a6250299-e452-407c-b064-bc5386dcede7,6aa8ca50-ac58-494a-92ce-5a4fa14d211b
f680e1be-a56f-4f7a-b8dd-9ad34d61b30f,45007ae6-417b-4e2c-a1ba-6d83311d89e1
c28f8092-14cb-4843-a0c0-100e4850e6f5,6aa8ca50-ac58-494a-92ce-5a4fa14d211b
94d5ac5a-c8b7-4945-94fd-26139bd0e2d5,01d44db4-21d8-47df-84b9-24e7ce7fed53
37ebb87b-e0b4-426b-a8e6-acf008cd0240,0a055c90-65ce-4da1-bc84-5ff4540768a6
28c46a48-386b-4ad2-862b-5f84ef1ce025,0a055c90-65ce-4da1-bc84-5ff4540768a6
99f9a93c-08f5-4c47-bccc-70a4802ed341,0a055c90-65ce-4da1-bc84-5ff4540768a6
14039c8a-5c25-472a-bed7-525a87c8717c,8d56fa74-9c3a-4c44-84c8-1fe7ff1264ef
f48877f7-9c95-4538-acfe-6ba17f6eebb0,0a055c90-65ce-4da1-bc84-5ff4540768a6
121fc3a9-c0c7-4a96-ad53-14eb7aa82a20,24337f41-8f2b-401a-ab33-8f3e679d5b75
c15bc1f4-44ae-4b00-807c-b3d9f2d9fb78,24337f41-8f2b-401a-ab33-8f3e679d5b75
095ea875-6999-4dfe-b021-4591351c0fc4,19b35351-446b-4690-86a9-272873055071
a7ef304c-b54f-4186-b3db-a9802817145f,6aa8ca50-ac58-494a-92ce-5a4fa14d211b
631545e1-c8de-4ef7-8beb-0300cd8ee0db,6aa8ca50-ac58-494a-92ce-5a4fa14d211b
4781df2b-4359-49e4-b0c1-d268d14bab81,ca6a38a1-8ce0-4576-b7b1-ffb6253167f2
e6f07915-6cb7-4fdb-bf51-0d47cb4cbc78,8e379422-eb5f-4eba-81cd-8af9d6c3aefd
28bb7a39-964b-446d-b707-393685ab0d78,8e379422-eb5f-4eba-81cd-8af9d6c3aefd
97ac2c8f-2d73-4f68-949e-7dc1eb0a1439,98c16139-c4e2-4f94-a86c-d97dd4df2535
80b41bf2-b828-4275-9891-3afa8e3c6b22,a4648198-246f-4b99-b340-dda3e039a635
aa02203e-e72e-47f3-a0ec-b7c749fd3925,6aa8ca50-ac58-494a-92ce-5a4fa14d211b
da988ab9-8cc2-441d-85e6-fcb52fa791eb,6aa8ca50-ac58-494a-92ce-5a4fa14d211b
75239585-b2ab-4e22-a4ec-a70d743b4579,6aa8ca50-ac58-494a-92ce-5a4fa14d211b
0543b3fb-136c-44cd-a0c9-311bec1af882,ebb39b4f-9762-4d54-9c74-e077ed124fd6
d2c46503-beeb-451d-bcb4-5a6e5a3880f4,6aa8ca50-ac58-494a-92ce-5a4fa14d211b
315e9680-1b75-42fb-b627-cecbb007d46b,0a3c0b69-a396-4caa-be57-63ba44b08458
05a3d60d-bfdb-4df9-8743-a77fd5631d55,76cf339f-ccf7-4dbb-bc45-f7fc07c2dda9
96f5a0e3-d3e0-48ce-bd38-9cd6dc7ced7d,76cf339f-ccf7-4dbb-bc45-f7fc07c2dda9
86b0f19f-4ea6-4058-a891-7633a714987b,ccba15e8-0f63-4adb-bb9a-65de7b7665c7
b3f2a596-1e4e-46f9-8c9f-6e61e5ff1f83,f4c00b12-2d61-4fe4-8c12-a84af6857486
7c985afd-6335-41e0-87a5-1df62a8fa950,8e379422-eb5f-4eba-81cd-8af9d6c3aefd
e707de78-da82-488d-8024-7dba0bb768af,f4c00b12-2d61-4fe4-8c12-a84af6857486
83c805a9-907d-407b-a392-9440144eb7d7,e0aa671b-8315-40c9-81f0-117ecb3ce250
d9629d45-745b-4c66-abb7-fe697f4d9324,f4c00b12-2d61-4fe4-8c12-a84af6857486
55ad5b52-b0e4-4de1-9b4a-6f1a4bdfd99f,24337f41-8f2b-401a-ab33-8f3e679d5b75
07cd1ad3-482b-4443-b8b6-c67a8c8ab9fd,58b6545b-e85f-4827-b43d-fc76f399f58b
76741ff7-d843-4e14-ab20-5a51e651d4b2,24337f41-8f2b-401a-ab33-8f3e679d5b75
5c20e686-1bb7-4342-b327-003f25661a36,24337f41-8f2b-401a-ab33-8f3e679d5b75
1960193f-42d6-4c5a-9f71-6ceb1773b8f7,4113637f-5d1c-45b6-9854-6e34e9659975
0e8b269e-b9a1-4e96-be5d-a9b6819cf7c3,24337f41-8f2b-401a-ab33-8f3e679d5b75
cf315b3f-6745-4588-90a8-f59c6a2fc637,6877473d-d47e-4e9e-bc9c-493041e50fa7
5c36f492-66f7-42a2-9fc2-e401ec43e37a,6877473d-d47e-4e9e-bc9c-493041e50fa7
12d2450f-a7d2-418a-8f6c-82b683a9a031,bafda7c1-8fb7-40ee-a5a0-acf41af968ab
538a50ac-68f6-4f97-9316-f424f4b65294,6aa8ca50-ac58-494a-92ce-5a4fa14d211b
e079a3c3-4a99-466b-bc20-2cf6487ce0e7,72063295-77fa-4047-8b80-2e74fee9a416
0dfe4bb1-e7a5-4e30-9af2-b2f5c39dac43,6aa8ca50-ac58-494a-92ce-5a4fa14d211b
411cecd4-f84a-4573-a054-95142e09cbed,8e379422-eb5f-4eba-81cd-8af9d6c3aefd
b23ae63a-8ef8-497c-8cb0-775008d82979,8e379422-eb5f-4eba-81cd-8af9d6c3aefd
5c6ace49-4bdf-456d-aff7-0f875897ab5b,762918f0-ee55-42d6-8fa9-6f3b1ad22746
11c02eee-7395-41d8-915c-d91749b64c11,efe9b06d-f3e0-4f36-a3a3-c47994b4f2ae
cff65c05-9b9b-43c6-b84e-c74e8c3c9784,6b36d398-83ae-45ed-8634-8204c0e98125
5ed7709b-8e6e-4024-8a27-bf98d0263cb5,efe9b06d-f3e0-4f36-a3a3-c47994b4f2ae
a5bd4aa7-2f2e-4bf8-812d-651b14b3d2b4,60869d56-7862-4b7e-af4b-5f63ac9cf695
1313a5ed-3805-438c-92c7-11dc3c5313c5,76cf339f-ccf7-4dbb-bc45-f7fc07c2dda9
58a8db58-7834-41ca-8c94-455129604722,76cf339f-ccf7-4dbb-bc45-f7fc07c2dda9
74a1989d-5c0a-45db-bf1f-fe8acd1f73bb,d4b4a02e-5a03-4a72-8c6c-5f537806f4eb
b0c8fbdc-7c36-4bc6-9827-44501b920ad4,0142f85e-61c4-4856-a9fe-297e23673add
7edb8f2d-81ff-452d-8846-b43d17035f0f,0142f85e-61c4-4856-a9fe-297e23673add
d519b0dc-aeef-45ff-b43c-ccd79538e5e9,f2f9a15a-95a1-4ba8-8b76-109bc5846f2c
30cc5fbe-172b-4d7f-a18c-4ff1369c4085,f2f9a15a-95a1-4ba8-8b76-109bc5846f2c
79757b50-9e4d-40d8-b4a4-272fd648bc71,d0dd6e89-0c9d-445c-9cd1-8eb3318871c9
2e3e7803-fb2d-446b-987a-5fa07ea0a01f,0142f85e-61c4-4856-a9fe-297e23673add
64179c8f-ed92-420b-a0d1-fe945c01cf38,0142f85e-61c4-4856-a9fe-297e23673add
1b380f32-ed2d-4b13-92b4-5b535235057c,efc865dc-9fb5-4ec2-8f58-f5cb5b24b227
f877b932-e46b-4bb4-b61d-1b0e6a6c0cf8,0142f85e-61c4-4856-a9fe-297e23673add
7528f779-3cdf-43fc-88b6-30ff2abb15db,809f4281-4a19-4059-a2e7-9520d873fdc2
ce586765-d721-4de8-9694-b6841209f5f7,0142f85e-61c4-4856-a9fe-297e23673add
2f060716-f4b8-4288-8adf-ae1b2b71620f,ac118278-9195-42d4-b42f-eb3b7418e12c
f867da29-fce0-4924-8073-eb6e9f1778a4,8e379422-eb5f-4eba-81cd-8af9d6c3aefd
ba74db9b-a475-42ef-951f-dac70a0b7b77,8e379422-eb5f-4eba-81cd-8af9d6c3aefd
faee6972-7ad5-4c19-a16f-6b16a88de732,47b1f9bd-497b-4d2b-b7ac-3a70b4296e63
c27a83df-267f-473e-bb2b-88412722bb12,f2f9a15a-95a1-4ba8-8b76-109bc5846f2c
4f840314-08ea-432a-950d-57b49fe137a8,f2f9a15a-95a1-4ba8-8b76-109bc5846f2c
c5222874-f3be-4b69-960c-2f352971a57f,0142f85e-61c4-4856-a9fe-297e23673add
14a0ece8-04ad-4379-9a3a-80f4c836818a,8776be90-f61b-4578-8b17-289767e62daf
07ad5d49-b9a5-406d-bc6a-ddd620b4c216,0142f85e-61c4-4856-a9fe-297e23673add
b46ffa89-03bb-4c41-8906-5c4c3c8c78f9,f4c00b12-2d61-4fe4-8c12-a84af6857486
b80c5d37-9c8d-458d-8ae3-1fb3b1fe6677,e2a65ced-e4f8-4487-a445-62c5074b3c3f
88c9f842-7751-4b31-8388-95e7ec6df50a,f4c00b12-2d61-4fe4-8c12-a84af6857486
f0c721f9-e6c8-45e4-9d16-bb7b5b8217fb,efe9b06d-f3e0-4f36-a3a3-c47994b4f2ae
a245a2fd-ed5c-4fbd-a7af-33a088ec2290,ab7d4abb-f1ec-44d3-9b9d-3431156b9e88
49cd0ca5-0380-4b6a-bf1a-7af7ea92f73d,efe9b06d-f3e0-4f36-a3a3-c47994b4f2ae
d730e777-ee56-4ce2-82f9-82727de9a676,efe9b06d-f3e0-4f36-a3a3-c47994b4f2ae
2ee08331-dfdf-42d4-b748-17159678f9c1,efe9b06d-f3e0-4f36-a3a3-c47994b4f2ae
ebf628ee-d4b4-431d-958a-c4d8634b1c7a,3e4c54ed-5f36-4d47-864f-584ac09c7af5
83987072-f275-4336-8895-0e15e02ab10b,efe9b06d-f3e0-4f36-a3a3-c47994b4f2ae
f21c80be-af65-46f1-8dbf-a5afb8bb4172,efe9b06d-f3e0-4f36-a3a3-c47994b4f2ae
31fe46ae-dfbf-4932-94d6-91a641247af9,7ae80b9a-eee7-4845-bb0f-22ec69a4b9bf
2056799a-965b-4769-af8f-4ea04d436504,458ac5da-5f7b-4bdb-901f-c5e62ae04850
3019aee5-f720-49de-a25b-9e80bfabed0e,6094aecc-ab08-4c1e-9975-c852b9328c77
ead8a7c6-f882-4556-b004-48254ba1110d,6094aecc-ab08-4c1e-9975-c852b9328c77
9b3c91c4-ff2d-45b1-aafe-dda942568182,6094aecc-ab08-4c1e-9975-c852b9328c77
6cfa5846-3503-4fb2-95fc-5c79cd4ba469,a2c47df6-4b23-4282-9e61-252dcecb6a2c
db34b7a7-cc8d-49e5-9897-bfda34bf08ed,6094aecc-ab08-4c1e-9975-c852b9328c77
513eb46d-4992-4ecf-9a4c-0c674e85294e,6094aecc-ab08-4c1e-9975-c852b9328c77
9e9fd32a-4497-49c0-aba8-b803628237f3,eceb87ca-e817-467e-bcbb-c61e30dd5b6f
b40a4594-3524-4a24-a608-e8a4094d4041,6094aecc-ab08-4c1e-9975-c852b9328c77
2cf17ef6-87bc-47da-8f40-7cee57dba71e,d78f3e1d-d865-4310-9d33-db9cd23b4c20
7e01a873-7818-4676-99d9-514a8d40876a,6094aecc-ab08-4c1e-9975-c852b9328c77
dd7f071a-4142-4bf5-ad9b-759a1f24d5b8,6094aecc-ab08-4c1e-9975-c852b9328c77
4f9e9036-8d9e-4ab0-a47f-e061645ff19c,a75402f0-946f-44c2-afdf-5263b6685606
077466ce-3ccd-4bcd-84d1-cc7b7f9eb701,0142f85e-61c4-4856-a9fe-297e23673add
40b72e34-95f8-4b6d-819c-9e0b9881d782,0142f85e-61c4-4856-a9fe-297e23673add
c1812212-eac6-47b2-92ec-d68630425292,07e81cda-4712-4d70-9017-bc77b8df5de7
a6944feb-7f1e-48bc-b67a-b81dee8ab953,f4c00b12-2d61-4fe4-8c12-a84af6857486
16a0e97c-a15f-4a34-982b-9898f916d267,f4c00b12-2d61-4fe4-8c12-a84af6857486
0e058aeb-0b4c-4cff-a5f4-0b16d922e799,bf85299a-6114-4afa-a01b-0a0c92751819
66f10921-fda2-46a5-9f92-5205e296b719,7de79a96-696a-45a1-862e-d7a780ac31cb
bed4ea6a-ef36-413c-a963-4f456cad86ce,bf85299a-6114-4afa-a01b-0a0c92751819
