actor,node
0d56f986-8615-45be-b866-2f7ebee76b98,eb7293c6-600a-4ee6-ba2c-8a877e521cff
88c1c5a4-a720-400c-af69-6afaedf767eb,ea67f23e-efed-4967-9220-7df1f5cb2e7c
d2d626ab-22f6-4ef4-906f-9d2c84940857,eb7293c6-600a-4ee6-ba2c-8a877e521cff
f3ba29f4-671c-4398-839f-b07d804a41ab,ca1f888e-358b-4950-9f36-f8e158822238
b6c2665f-ea41-4995-9bc2-6b44a074bedf,f92e496a-b98a-41e5-8459-325f3ffeed65
a4317ab4-9ea2-42ae-8416-0f598449567d,ca1f888e-358b-4950-9f36-f8e158822238
bb3523b0-75de-4146-b356-982cc899e9f0,63569f61-894c-4ab4-a838-5d8e2e45be2c
cbc8ab13-d7de-4644-b799-bb331a64fa26,bcf4c6ed-2131-4de6-8cb7-4e8e25fed263
30303765-16fc-481f-ab0a-4a0fe44751ec,bcf4c6ed-2131-4de6-8cb7-4e8e25fed263
07df19ce-c4cc-42f1-9157-696330654561,07448ca7-7b0f-4b15-8bdc-bad5c53c224a
87a23a69-1171-4bf5-ba12-388a96a2ac80,70b8f99a-574b-43c3-bcc0-e64b8ea29880
fc4300b0-c300-457e-a49c-e85e41a1a655,70b8f99a-574b-43c3-bcc0-e64b8ea29880
7c0a27b1-9a7d-4bbf-8dbb-282e36bdf32c,3b329acd-edde-46d5-8121-f5d396df10af
c265776f-86a1-4597-ac12-0bff079b8b78,638a2ab6-9f87-44a2-88d4-a757427cc4af
c5cdead3-b4f8-4635-900b-ed013e2e70ad,638a2ab6-9f87-44a2-88d4-a757427cc4af
5110303f-462a-4b58-9031-251ab930e2e1,25062f2b-7a38-4373-8fd4-a2afc490f6d5
4244239b-db73-47fb-9355-707810487570,25062f2b-7a38-4373-8fd4-a2afc490f6d5
a0465bce-6ed9-4bb2-82e2-9f41aca0d2a4,046b885b-6a96-4a08-b899-13e9c05f8f34
054fa5d5-66e0-4b8d-88da-f9ce4f83a6f8,cda48ecd-d3b7-48f2-af20-c4ed94172043
ca5c7602-6e59-4f65-9955-d18ca9c0fa10,cda48ecd-d3b7-48f2-af20-c4ed94172043
970620c1-2002-4189-b0ec-ef34f93e5feb,c05029ca-b8e0-41c3-9f12-0ed376eaa466
ea1f0885-0023-414b-a174-ce79a9e37867,47d66b27-039b-4af1-8f8a-6d59d16e8d5a
9c6d4fb7-d0bd-47bf-a264-3a25f3789428,4863905c-f898-4c07-92dd-6c2417a411c9
0db97e39-2462-4eb6-b379-db2c0f1dcaf4,47d66b27-039b-4af1-8f8a-6d59d16e8d5a
0cbaf232-dd99-4201-b980-31654b3f3022,0302b7c5-21f6-42e7-9809-039fec1aebe3
aee545ca-5ef8-4012-b465-2d142df51ed8,0302b7c5-21f6-42e7-9809-039fec1aebe3
a0cef07f-f05d-498e-8674-d6b1f1943bed,a8d2fdc0-620e-45e8-8911-953da9b6e1cb
f5e571a9-7aea-4bc6-81be-09c7d90021e7,0a845652-e116-4729-8f18-e3766d790c26
d9385d94-fa75-4574-a7b2-666c159922a9,95f53a40-24b4-4353-b85a-4ed772cca41f
d98187e1-0574-4596-b2fa-63941ebbed13,0a845652-e116-4729-8f18-e3766d790c26
83856bbc-18b5-4061-aac8-425b719dde17,c958b6f5-897c-4c02-94a3-4815cebbaa40
b2cb8c6e-af44-4ed8-a2ff-19b189681c0b,3a24c7d3-de0e-4ad7-b22b-7204ff8ca85b
209418ed-97c5-4428-98b1-f8fea0b3612b,c958b6f5-897c-4c02-94a3-4815cebbaa40
c73a6cba-9c15-4351-8a28-b94bdbc0b40e,873d9fea-cdf5-4eb2-8e42-faf1a55fec82
e427fd9e-1454-4455-b72e-f909118d7ec3,873d9fea-cdf5-4eb2-8e42-faf1a55fec82
9e3f453f-7637-4392-8405-8a231131174f,1d20ad9e-5601-4915-bde7-5a14cad274e5
6638201e-b28f-4e90-b13a-78f4a83c2a2d,de12b7eb-0465-4dda-bf87-e24cbfdbd9bf
6a48ba5c-cb25-4dc9-8d5a-099745e6b74c,132751e7-40f5-4e97-9ea7-c28f928ccb65
8dd5a11f-797c-4d34-9b1b-8a864cec5d56,de12b7eb-0465-4dda-bf87-e24cbfdbd9bf
c8fd05f6-0c5b-4226-8545-1547f05f46b1,69b35d5f-ab50-4a5c-a835-752aa0f324d3
56e2f90a-eb94-4ec8-806c-fdd2f0f279ec,333b8a75-3c86-4dbe-b3b0-c2582bf6d1ed
a30882ec-602c-4c66-86c8-2b0247201d0d,333b8a75-3c86-4dbe-b3b0-c2582bf6d1ed
2dba877c-0683-435f-9390-abaa51a1ccfe,a17a5718-000c-4bc5-a6f1-e64f6044221a
c791c1a7-85f5-4157-be5a-cfc0d5b6c038,eb7293c6-600a-4ee6-ba2c-8a877e521cff
62767ed0-d4f5-4dad-b4b5-687c0307a7af,eb7293c6-600a-4ee6-ba2c-8a877e521cff
88a437c4-0b3e-4234-8b74-3079b2aae65e,ca1f888e-358b-4950-9f36-f8e158822238
60a80045-89a4-4c76-867c-01206ece31ba,6d9c8305-4582-400e-baf0-62bed4f395f8
b8225797-01ab-47ac-96e5-c699ef978018,ca1f888e-358b-4950-9f36-f8e158822238
2efd473d-7bc9-45eb-b887-b06abe6789a6,962a22de-1dd4-46be-bb5a-8a4320937fdb
6f0e125c-dd6b-4284-b0fd-658f0eb54ca1,bcf4c6ed-2131-4de6-8cb7-4e8e25fed263
12d95aa1-1d3a-4988-acac-db145793f16e,bcf4c6ed-2131-4de6-8cb7-4e8e25fed263
16c8b68f-4dc9-49e9-a901-409788c7af4b,70b8f99a-574b-43c3-bcc0-e64b8ea29880
e3044c31-6e3a-4651-9c0a-94cdbc959fb5,70b8f99a-574b-43c3-bcc0-e64b8ea29880
35edbe96-4440-4627-ad5f-047aaaaa11c0,52dee749-a5da-4a40-8a90-500d40912e77
d88fcedc-4ffd-411b-b7db-4774462149ac,638a2ab6-9f87-44a2-88d4-a757427cc4af
a1a4793f-058e-421b-9c1e-77ba671aa146,9e4dc76a-ee53-48fa-97de-51aa64c18c55
ff204d84-9092-461d-85b7-6edd698fec16,638a2ab6-9f87-44a2-88d4-a757427cc4af
b283d4eb-6287-42bf-bccb-28d646fe5229,25062f2b-7a38-4373-8fd4-a2afc490f6d5
38ff4ff3-26bd-4bfa-b89a-5fbe53ab1f33,fc040899-d37c-40d5-9b2c-c37a08e296e1
360971c5-2376-4d19-991e-601f6e134720,25062f2b-7a38-4373-8fd4-a2afc490f6d5
c89e025e-6190-4926-81ce-a78997f46160,cda48ecd-d3b7-48f2-af20-c4ed94172043
dcaa7314-c58e-4d84-bac4-77f2eac8453b,bdf7327d-4039-4fe7-b505-b3ef7b873179
3022e27d-18e0-470d-9f7c-2abde9dbec1f,cda48ecd-d3b7-48f2-af20-c4ed94172043
65a606d3-f32d-4843-a745-3551b5155621,47d66b27-039b-4af1-8f8a-6d59d16e8d5a
7601ab19-d9df-4685-9e79-c0ac53c697c3,47d66b27-039b-4af1-8f8a-6d59d16e8d5a
9e82c046-c837-4af3-8978-c6e65743b0dc,9ce0303a-8f3f-42bb-b483-a7123ba96654
83273d70-5ff2-41c3-be2e-dc63ac9b8e7b,0302b7c5-21f6-42e7-9809-039fec1aebe3
bbab98ce-79a2-4960-b5cb-83f2cf687a65,48bf19bd-fbcb-46a0-99c8-f307a93a6dc4
9abfe461-cd36-4d63-b70e-431e0383f153,0302b7c5-21f6-42e7-9809-039fec1aebe3
e961bb01-f684-465a-8b22-937a4e145404,0a845652-e116-4729-8f18-e3766d790c26
d2b2086b-4c20-40da-b156-1e4c9ec306b4,0a845652-e116-4729-8f18-e3766d790c26
d2e1a9c6-116b-4fce-9662-b08b1b408016,bc87174b-e37e-4657-90bd-a237d1db417a
405eefb0-11e4-4ad9-8e93-d7c9aad5817a,c958b6f5-897c-4c02-94a3-4815cebbaa40
c1c75429-ce43-48f0-95f0-4172a02d2759,c958b6f5-897c-4c02-94a3-4815cebbaa40
a1673ff7-3924-4d5a-8025-1a31d643b5ed,c51cc7c4-54ce-48d5-9655-e02be1cb646a
ea2082bd-2a78-4d49-8950-964b3dae8bf2,873d9fea-cdf5-4eb2-8e42-faf1a55fec82
202c4bd1-4f92-4ebe-80c5-e43ceb434569,873d9fea-cdf5-4eb2-8e42-faf1a55fec82
0ef51aed-7204-4d29-8098-774d6a2af89d,5d202b2a-21ae-4069-bdca-4271e5e7dc3b
e4e125de-6ba7-4387-ad19-156cdddf459b,de12b7eb-0465-4dda-bf87-e24cbfdbd9bf
ec6eeb54-9cae-4eec-88c6-bc1ad11a3d8a,2f83e95d-d250-47ef-81e3-ec4a856bf574
3b0c7a14-2213-4592-8530-1345399d93b1,de12b7eb-0465-4dda-bf87-e24cbfdbd9bf
df66255a-b2ea-4b9e-9fd0-febcd78f2c91,333b8a75-3c86-4dbe-b3b0-c2582bf6d1ed
02b8a502-9faf-4c74-b611-70070e9605c3,333b8a75-3c86-4dbe-b3b0-c2582bf6d1ed
ece1c8bf-2d22-4c61-a892-9776b48fcfcd,4e391985-c582-4301-a172-e74377924c9b
ed76c002-697f-46c6-8850-904f415baa35,eb7293c6-600a-4ee6-ba2c-8a877e521cff
bf1b0f53-ff7e-4349-80e5-54f5537ee9a1,e7bcc48b-a80b-4108-821c-a8524477a234
a8fc14fb-a802-4007-84d8-f8aafd7d6cff,eb7293c6-600a-4ee6-ba2c-8a877e521cff
22182977-b8a7-4099-b200-b07e0add555a,ca1f888e-358b-4950-9f36-f8e158822238
f9285ddb-4b3a-4e12-b745-b2a398d6d743,ca1f888e-358b-4950-9f36-f8e158822238
71a9efc0-fb0b-42b0-b7d5-4f3d3c9e4f46,e6ecb36a-ad0c-44a2-ac40-71b27bbec074
89142489-1b20-46f1-a3db-240e776e59f0,bcf4c6ed-2131-4de6-8cb7-4e8e25fed263
d6bc001c-171d-4ae6-b8b6-bbb4582c258f,41ac7f0b-7a75-4658-b2fd-945313195139
a32819d0-46b2-4ad9-b4d2-964f399de545,bcf4c6ed-2131-4de6-8cb7-4e8e25fed263
3aed4f48-9afe-4b46-8748-34d95f319eca,70b8f99a-574b-43c3-bcc0-e64b8ea29880
2e367259-7018-4793-ab13-55adbf9af532,c4d7b838-1f12-4709-b8c5-4b39d2fa0c16
1d9ae6f8-39ec-4cbb-817b-0f63f7bf8fd2,70b8f99a-574b-43c3-bcc0-e64b8ea29880
1bff92c9-bbcc-4dec-9783-a0ce907cb70d,638a2ab6-9f87-44a2-88d4-a757427cc4af
3ec9e0f3-5851-4982-8cc6-a2a3c6f26a60,638a2ab6-9f87-44a2-88d4-a757427cc4af
8dc609a7-5ce3-4755-b9e1-226c34a72bc8,80532906-c941-46d4-8f0a-7e96bfd6dd1f
1b6464fd-8246-4bef-97e6-30bdfbee8c4f,84078b86-dca8-4fba-aa6d-037667523f8b
a44bc002-fff4-4cbd-9eb8-151ae4221d72,25062f2b-7a38-4373-8fd4-a2afc490f6d5
9ab9e6af-f958-4151-a17a-13096a0df8d7,25062f2b-7a38-4373-8fd4-a2afc490f6d5
acba0023-e3e5-4f49-a1aa-0a692cd3da29,cda48ecd-d3b7-48f2-af20-c4ed94172043
21b7c76d-7617-46b0-a6e7-db27f377620b,3dd8bc5b-e9dc-484c-9262-dd5815736de4
94d667f3-c8ad-4b50-a6c2-be8087de9be8,cda48ecd-d3b7-48f2-af20-c4ed94172043
c65f76a7-de0d-40d8-b64c-cf1454215dc2,47d66b27-039b-4af1-8f8a-6d59d16e8d5a
78696e02-cfad-4b16-822e-245c89f74057,50751171-35d4-4f97-ba8a-c8b3f15daec7
d3c5e3a4-cde6-4981-99f0-bab85c5a46ea,47d66b27-039b-4af1-8f8a-6d59d16e8d5a
29614a5d-72a7-4338-a109-ccc845f6c28a,9c2384db-3163-406b-8b37-b7d559e26cbc
4720d743-72dc-4d8f-91d9-ef85febb4c7b,0302b7c5-21f6-42e7-9809-039fec1aebe3
54f7a5f0-049d-477b-88e9-f08bf0cba1e8,0302b7c5-21f6-42e7-9809-039fec1aebe3
4536f4dd-5686-4509-9c69-3e2f2a0625f0,0a845652-e116-4729-8f18-e3766d790c26
b34ce893-9706-4a0c-b858-73ae2f09a6f7,88223a73-57da-46d8-81c5-f09951e52105
b974ca32-dfca-4128-abfe-f642cff8c931,0a845652-e116-4729-8f18-e3766d790c26
256733f8-51c2-4109-b52a-f59fee4d9077,9735c4a2-cf95-4f98-a7d8-ee4ff82da04e
fd830133-b36f-4db6-b724-42637cca3de6,c958b6f5-897c-4c02-94a3-4815cebbaa40
699dff31-358e-4ada-9c79-422a350f8ae0,c958b6f5-897c-4c02-94a3-4815cebbaa40
118c7444-e775-483d-8ff2-4a56ad531b2c,873d9fea-cdf5-4eb2-8e42-faf1a55fec82
c5ae2b14-43ea-41e8-91eb-4abed45e3359,e403ae2b-fbe9-4e32-9b25-c33da6ccb9e7
c15d0f56-b3ee-477b-9755-b4ce3140108c,873d9fea-cdf5-4eb2-8e42-faf1a55fec82
6a5cdc30-fe01-4786-a751-72668c14c727,603573ba-e778-40a6-bfb3-738a6693965e
6e5b4ac7-5e0d-4c20-8886-1058ad82aa0f,de12b7eb-0465-4dda-bf87-e24cbfdbd9bf
85064e56-086d-49c6-a287-245cc4d8b420,de12b7eb-0465-4dda-bf87-e24cbfdbd9bf
16adb420-e5a4-4326-94de-7c0d40e365eb,333b8a75-3c86-4dbe-b3b0-c2582bf6d1ed
6fe47d16-0b05-477d-a75e-4d27028eee13,333b8a75-3c86-4dbe-b3b0-c2582bf6d1ed
d8ccd374-1893-43c4-a936-db86f34347c2,cb224079-cf04-4890-bda3-ecef6bb48987
784a6bb8-863b-4c34-8832-28fffe5c89c6,eb7293c6-600a-4ee6-ba2c-8a877e521cff
76f6b9d0-760b-429f-a9c0-37382f13a541,a2413a32-1345-4b3f-ada3-35d14f87a47a
e3cd7ff8-9c41-4755-be86-1a6b013a84d3,eb7293c6-600a-4ee6-ba2c-8a877e521cff
05fb7739-aa16-46ff-ac3f-e8b6ccfcc255,ca1f888e-358b-4950-9f36-f8e158822238
f15eb821-882a-40bb-abfb-3a0500a99bf0,ca1f888e-358b-4950-9f36-f8e158822238
fa78995a-6ddd-4da3-b35b-bbee2a4be348,9ca1c49b-5979-422d-b0b9-6740759639b0
3a98c157-9e4d-4ea5-a166-1b84456c4d31,ead43783-77b7-4ac5-9309-63c8b93811eb
3814f3a2-7760-4d6b-8b06-d9e9558149eb,bcf4c6ed-2131-4de6-8cb7-4e8e25fed263
81577099-fb8c-4447-9fe0-f8377f79eb3c,bcf4c6ed-2131-4de6-8cb7-4e8e25fed263
6ce61e20-a816-402b-addc-b124304681b3,cda48ecd-d3b7-48f2-af20-c4ed94172043
7373a115-d345-4832-b96d-2ca3d2f2c3e0,e34fdea1-0b94-44d6-877a-6ae72a6d7c8f
12c7e7c5-5a53-47c5-96e9-ff0673342401,70b8f99a-574b-43c3-bcc0-e64b8ea29880
58de160d-3ca7-4ee1-8e4c-6e2b45c71999,638a2ab6-9f87-44a2-88d4-a757427cc4af
151c0172-ae3b-4d64-a499-4a0aa8ea13fe,638a2ab6-9f87-44a2-88d4-a757427cc4af
73561e5d-25e5-44aa-8a5a-aeca9132f898,e8229233-dcce-4174-afb5-4adc8a213137
08545dcc-37a2-43a6-ba6c-186bf4c86389,445fde3b-96ca-4853-8b45-91ed9baa83fe
93350841-d117-4ae7-adc4-7b5912d31e73,25062f2b-7a38-4373-8fd4-a2afc490f6d5
2163fe4a-888a-44a3-a6dd-f3cf4e85b80c,25062f2b-7a38-4373-8fd4-a2afc490f6d5
743ae12e-1dab-44c6-8961-588cf3557752,cda48ecd-d3b7-48f2-af20-c4ed94172043
f868aa42-4b13-40b3-b429-c6b1f35cc312,cda48ecd-d3b7-48f2-af20-c4ed94172043
7397ffc3-22fa-4dc8-9744-70b103f6b8d0,0b975d9b-cac5-4841-9e7a-bff34ae2f13c
269b92eb-e316-4793-93dd-7039e0554b7c,47d66b27-039b-4af1-8f8a-6d59d16e8d5a
b1d675ed-024b-493f-9623-344e72e4e1ac,af6f7414-85e5-4c2c-a206-72c681c6f211
869db6fc-dca0-4f57-b41c-d17f3f7afdeb,47d66b27-039b-4af1-8f8a-6d59d16e8d5a
