app_number,app_id,trigger,burn,sink,deploy_date,token_interval
1,f5be5615-d984-499f-b850-12485a52e0df,4cc63eb9-6676-4103-8451-7daee59278e1,9b6eb1c7-1cfd-494b-b7df-48bd573094b5,cabc15f0-69a9-4479-a6c6-bd57eaf9691f,2019-09-25 04:34:28,1.000000
2,cfd60432-cdf1-43b2-a6cc-eb977609cde4,67c74bf5-8942-42f7-b0a1-2528741e9a95,0e1437a4-61a3-4c91-83f2-aa28409c3adf,4a91d933-3645-4dae-9c37-812dcafcb182,2019-09-25 04:35:31,1.000000
3,d07f5d7e-23a6-4d3b-a607-9a2173bfea53,27354dba-2a5a-4a9b-9398-3ba0ea5b6ea0,3f4c29f3-c2a7-4599-9971-c8862cb5ec35,8c7376a0-a58f-46c7-b327-ec01e8cb51e0,2019-09-25 04:36:35,1.000000
4,4f842589-e6e3-4a97-a463-997c20ec9532,f1bc887f-d73c-45fc-b822-29f2404aa368,ba018deb-9bca-4cca-ab88-a38f8b19632d,97e1c05f-8241-4a9a-b41c-0178d2375c8b,2019-09-25 04:37:39,0.200000
5,2aa3f8dc-c257-4690-bfe5-bf72af0ddf65,8817a93d-1f52-42ea-a8ed-18bf2b99de4e,c2841e59-2adf-4020-a08e-14cf8a146969,6d9ac0c3-04c8-4048-9398-2305ea866599,2019-09-25 04:38:43,0.200000
6,3cc6251f-de01-4947-ad77-0b3a0e04093a,2c4e283a-71ae-45ca-9d7e-ba7927782c10,6b91bb45-bcdc-4340-abad-be3dac8b28b8,e0ba4340-376e-42df-a0e6-2b84979c1cda,2019-09-25 04:39:46,0.200000
7,68999ce1-1bbc-4deb-91a7-a49d00efc3d9,b7f160b2-f2fa-47ce-b089-9b50b046aefd,1b39f434-4754-4e1a-9b72-924f1ee52587,7792a266-4f3d-472a-9871-5c4516edd665,2019-09-25 04:40:50,0.200000
8,f75b2277-5159-4736-9b3d-313f2dc4aced,dd2dd2b4-fa21-44e1-b0be-a9598d4a104e,ebdb23b8-bc95-4164-984d-307579d88161,fe43b71d-dcc8-459e-8e8b-78ba112d5b52,2019-09-25 04:41:54,1.000000
9,5999d1d0-cc49-4411-b0fe-7dc16f72168d,d7977f2a-2363-49f7-b384-e03f7957b531,c3b2d7fb-3dd9-4510-90b6-eaba3b64c9a0,a2440029-a46e-4e2e-96a9-a50b2f24420a,2019-09-25 04:42:58,0.200000
10,9d6c1cdf-8240-4fd6-8126-0cdc07b13668,70392b23-41e3-4f7b-8561-df6a2d4dd05d,c9478aec-10f7-4159-aa5f-a1042b5de2aa,da0c76f7-33e5-4474-b4f5-f976e80ee1c1,2019-09-25 04:44:02,0.200000
11,fbd8bc0e-ab38-4d20-afe7-7c62db37fcf9,778400f7-433d-438a-b457-2e494c5b92c2,685c5f23-1150-4705-9d1e-67210ed8d8a6,225410b9-ba48-472c-88c2-ef2af1ce9017,2019-09-25 04:45:05,0.200000
12,68030e53-c861-4a25-b0a2-769b82edb2ab,001d8d03-951c-4ada-9426-1cdd378e62f5,7a7d6da9-4802-4547-8f7b-2da81b37b769,1b358b31-5b83-4305-89bd-bea0ded61a19,2019-09-25 04:46:09,1.000000
13,0f50a942-bd38-48be-a7ec-86bf42a4c4ea,992c60ab-3699-4b67-a757-d0d04e4b752f,a2b8f775-e0c9-42a4-9d9f-159b8a28a2ae,18444252-dece-4849-8724-78524eae5b11,2019-09-25 04:47:13,0.200000
14,7b5b1950-5d2f-48cb-bca2-492c88bee015,8a2632c5-6164-40e0-a0e2-817f5ad33a5b,7907850a-9deb-4486-a38d-c069a043b119,94626c10-3aa6-438d-a32d-02f39faee620,2019-09-25 04:48:16,0.200000
15,23f8d593-67f2-46f8-92af-8dfbeccf63e9,09f8f6cc-fc97-4eb3-89c7-c48cd48b911a,1ad00363-3f24-49db-ad1b-f3d07204c2e2,c8b8da38-cff5-49fd-b135-75b115664f99,2019-09-25 04:49:20,1.000000
16,229a9de6-4b10-45f4-b27e-e712b922b9c6,467a96b7-187f-44ae-8b9f-c103c222852e,01405e6d-5b52-4c37-90ec-288a53f0eade,18255580-1f2c-4f35-b94f-aa8087f51188,2019-09-25 04:50:24,1.000000
17,3ad9546a-7e7e-4ed2-8218-62efec089226,16ad1250-1a2e-414e-821b-c3f277a1ecb7,719dcdf0-9e16-4cae-ae28-85ca5d207a6e,0154b51f-1129-4f99-8eb4-c175b5f83519,2019-09-25 04:51:28,0.200000
18,ec885539-93e7-4e06-aaa1-743e409ba189,032771cf-0654-4617-9860-d5eec94b5267,817a524f-f472-4720-bc29-277f56fde295,e53462b6-052c-4e2d-917c-9c237cae8b8d,2019-09-25 04:52:32,1.000000
19,888ae810-55de-4163-b09d-b55bbfcefc59,66c35b42-bb35-46b7-bcc6-35bbc8c1cd1d,e45e5ef0-e662-49df-911c-4f49ff538d37,33632d16-71af-4941-9099-3cae9c001f01,2019-09-25 04:53:35,0.200000
20,6d10d49f-a8a6-420e-9726-83c683a6ad1a,5e0fdacc-2e71-4e7a-b56a-f11833c7c585,53d2cde3-dec1-49d6-bcce-8a54f2010fb9,b4249f03-8cf5-4f3b-804a-b67e0b79a7d0,2019-09-25 04:54:39,1.000000
21,df38bec1-39fb-4ad2-a0b1-501c8139571e,fa77a09d-cbec-47ff-acd1-a61805bf1f57,d2e63f27-78a8-4316-b790-bac93ed22fa6,88f62388-2cd2-4ba4-ad0e-4422a869874d,2019-09-25 04:55:43,0.200000
22,5ddae948-681c-4a62-9bd1-56f543f02174,1944e91b-0ba3-45c7-8995-a48c7fc78b54,53fe2470-6be5-4619-bdb5-265dce5186d5,cb37fefb-0d2f-465c-ada3-2856e341c1a9,2019-09-25 04:56:47,0.200000
23,371f7e11-b8e2-4466-bc7c-ba1a4e469b9f,fd493c85-ecb2-4dcc-995f-b9580e1bf7a0,0c2c22d0-2710-4d6c-98b4-fc2e4650ba7e,5ed10fc5-9357-4671-85dd-23a0dfadf3ed,2019-09-25 04:57:50,0.200000
24,2f48c4ad-2182-4d7f-8c30-cfdf40d48402,2f4e356d-4b80-4116-8714-2d72bf5e376b,1088ee22-786e-4c1a-97d8-01f874f5cf85,2092fcc2-ced8-400b-a2d5-331f237a58c2,2019-09-25 04:58:54,1.000000
25,cf9b6444-2a9d-462e-877d-4fe248d0cfbb,5c943b85-03d6-45d1-99c9-3a2597c47bf1,b9af32eb-e65d-4772-b198-77660bbff90c,7c62916f-7f48-426c-a397-1f617094e008,2019-09-25 04:59:57,1.000000
