app_number,app_id,trigger,burn,sink,deploy_date,token_interval
1,b2b2ef2f-79eb-44e5-aa98-1cb0d227385c,0f459d6d-148d-4cbf-85d5-53e6bb7487a0,94cb26fc-cc4e-4d6c-ae5f-0c897167e314,5bcbf921-f5db-4435-b279-e9723f2c8d0d,2019-04-06 11:50:09,1.000000
2,f0d88b96-3118-4de2-aa4e-ec0f89453544,a7b851d2-7f71-49a4-a659-cf1e8c4de978,43d7462f-7dfb-4d35-a301-2286df7eb479,f162ac17-d51b-4fb7-9675-84a5675c4293,2019-04-06 11:51:13,1.000000
3,6e0fbbb6-bf0f-4450-a89e-b603b04cf311,340b8d5f-f7d7-4bde-a3fb-92770bfad7e2,2119320a-8d87-4d96-ac5e-790ca1fdb2b4,99f33910-9040-47d9-8192-86a13a61ba0e,2019-04-06 11:52:17,1.000000
4,3ca0a7e3-4753-4491-8f24-6e8aa08b9eeb,ebf53d89-7af7-4830-b624-bbe9a0dae2c8,69a998fa-bd06-4624-925a-8373ae8d0649,e552d3e3-10da-4481-8338-f0048e43c26a,2019-04-06 11:53:21,0.200000
5,ecd295a1-558d-43d4-a69b-c70e4cb00895,6c1758b6-12f9-48d4-a4f2-733c96b24332,c8375be8-97c3-4cc5-a7c7-f730b62ee4fb,34d066fe-0d93-486f-b2cc-0d7dffef8719,2019-04-06 11:54:24,0.200000
6,826e95c2-2639-4cd7-a9b6-a2c8fe255c6d,91502848-9709-49b4-ae5f-0bf1d2282fcf,4b38c651-9b19-4aa9-86f7-a79c8543f3e4,645f953d-d675-4d8d-9382-f29e492325b7,2019-04-06 11:55:28,0.200000
7,2d8d1637-32d8-4fd6-ab75-2b2f319e3517,e9c0de6d-03fe-4421-a111-f3d40a3b5f52,1408b15c-ef5d-44a7-b65c-a590b28ca422,cbe4540b-83bd-4c23-a6bd-24d97ba079af,2019-04-06 11:56:32,0.200000
8,85273c06-4d24-4328-8b52-c130d5621c51,f4d3c84a-3d7f-4ae6-a296-3698546df97c,94ed102f-000b-4666-bc7c-3c23722d5100,ac1fbd09-c8ec-4cf7-a8aa-afeb06a1105a,2019-04-06 11:57:35,1.000000
9,68b41114-70cd-459f-b793-c82d5f52cc62,8f2c726d-7f88-4b0b-b3cb-d7c5ab2ff080,3e093a5c-3303-4d79-9279-6e46e279185d,647a8462-86c9-4102-a336-73a4e4e2ddeb,2019-04-06 11:58:39,0.200000
10,444ebc6a-8a79-4ce6-a348-f14e30266176,6209bf08-9550-42d8-8b96-aee78547d833,19021df4-ba19-4df6-8bf9-2214e10365b9,814591c8-9be0-4cdf-b6f6-7a1a97477ae8,2019-04-06 11:59:43,0.200000
11,f6302971-c546-4f1c-8806-8b93347579b5,e6b4df7c-b3a4-4e05-aab8-571a0f6a2618,dd56d664-7f36-4e4a-85e6-4d1b5133d040,9cb1fe76-0513-4502-89cd-6702350a2cc9,2019-04-06 12:00:46,0.200000
12,34be314e-4095-45dd-9253-783e009901ef,bfd910da-e627-4d9b-ae80-c8580843c61e,6b6b3d7f-ec31-4f15-906a-a996b6d8e911,3c5580cd-3cbc-4e42-8952-69f9fdbb79b1,2019-04-06 12:01:50,1.000000
13,b4b069a4-9009-492a-83b4-1b83397b99c0,816f92f6-fce5-419c-9497-af62f02bc4f1,ab96861c-727c-4413-8b24-f2f7be3bc29b,2f5f8374-dc3f-4e47-9f4c-774625ea1a0c,2019-04-06 12:02:54,0.200000
14,42b3c078-688c-4613-8456-d391d40ec3b3,529c7db0-3fa8-499c-9c9b-beafb0c7d00c,5ea912d3-f08f-4400-8284-bf41a9b7ad3b,e1b7d442-d023-4a56-98d2-6452ff5f414b,2019-04-06 12:03:57,0.200000
15,8a1cdbcd-89c5-4bd3-8949-e755cd0c6f57,c3da1669-075f-498b-b760-36351626c023,6ac3724b-2641-44fa-b933-5fac55e05175,cc7c1553-d803-440c-86b8-c20c48b3b064,2019-04-06 12:05:01,1.000000
16,a1f839ad-bb9c-474f-b76c-bc5b0d5ed2d8,4818cda6-5d2b-461e-a56a-7cccdaa05326,1aed0f0e-43d7-46de-a907-fc2133db3aef,27488f44-1c23-4b9b-8042-0b9655f5c062,2019-04-06 12:06:05,1.000000
17,2a3d0490-abcf-4df8-a592-7f207d4b4e12,010a155f-87c5-478d-8645-9f93b5ac2577,95a2b49c-687c-4f60-91fb-4649eea48eaf,302644a3-99a9-40d1-b7c7-930845141470,2019-04-06 12:07:08,0.200000
18,844ac20c-2dba-4629-8517-c80bf96ee2bd,69e4fcb5-3985-411e-ab68-33b833ac8dc8,776c3830-8783-4974-8993-514f5b1591ed,50d4f34e-7b27-49fc-b952-c814c161568f,2019-04-06 12:08:12,1.000000
19,12476be5-1fe4-40ae-a009-5915e734f80c,cb2a31c1-46d4-4f21-b77d-c028cec6d1f5,1dc2630c-fefb-4ab9-a478-b911f6da7db3,f0d55b83-3ddb-431c-9837-d5e858c5b8e0,2019-04-06 12:09:16,0.200000
20,e80b66bd-9bac-4326-9c4f-1ff4b0be487b,de8076c3-f32f-4243-aa7e-5ee8a3a91137,e4c29dc7-7c4d-44d9-8b87-a18682069fc9,a0a39c32-fb52-4677-bda4-e7684fe7859e,2019-04-06 12:10:20,1.000000
21,60b4771f-eed0-4108-b381-42cf0be030de,2ff8e797-ce96-4894-96f4-867a4dfe9f05,304f0713-3ccf-4836-a489-36933ed25db5,84c35bc6-db97-4baa-b25f-e8bf067cfa0f,2019-04-06 12:11:23,0.200000
22,8f7e947c-fa2c-4446-91a9-62af81f760ad,1a006006-94d2-4fff-bd48-26b3e76f19ff,2debff3a-5fad-4064-92f5-58eea4f92439,b54bc8a1-6ade-4a41-97ac-ca85c72dc96a,2019-04-06 12:12:26,0.200000
23,7e3c4fa7-5f7d-4e44-9bec-c1f01a8f9bb1,d8fc371c-1227-452a-b724-ad0c04ed11bc,c2cd96b3-0f5a-4bd2-b571-922786159d3a,e3986abd-2d76-4e2b-acf5-e223b804cf13,2019-04-06 12:13:30,0.200000
24,725f9837-cac5-458c-9272-824b5acd5943,f0aeb95e-b25f-481f-a580-fe581a4e817b,11c4e4f3-9c39-41b9-b2b7-f873f833e7d2,81c761a3-2a46-4942-98a9-a9b38acbd6fb,2019-04-06 12:14:33,1.000000
25,d46b6dac-936a-45ea-b4f6-efd447712165,b6ffc436-306e-41d5-b762-f1a57c471635,1e13a0de-444f-44e6-8a91-7f0c29c082b2,f370585b-0a38-470c-9ed6-b30a313d73a2,2019-04-06 12:15:37,1.000000
26,4fcf95a3-7eef-4987-9419-9225051acafa,d587316c-11ec-4159-bd15-00510652210a,f6ba0c0c-5a6d-432f-bbd6-908cd86ae3a1,80d03122-5f1a-4794-ad08-50cdd46790b7,2019-04-06 12:16:40,1.000000
27,6c1c0278-9209-435d-9ac6-e0a2f88d4269,dd8b1348-47d0-4d71-9e8b-962e293563e8,74c0dcb0-c49c-4576-bede-08326cdde372,bd8bb015-6245-4dc2-8b8d-df2304d3f499,2019-04-06 12:17:44,0.200000
28,58769ee7-85dc-4b8b-b8ac-05a33deae6fd,70e85758-a1bf-4aba-b907-dff07ba01d65,4e4e7d54-d356-4b8f-80cc-2825bf5220fa,49d8db18-0382-4fbc-ae71-d15e6ea7e74a,2019-04-06 12:18:48,1.000000
29,66cfab05-1c72-4357-ae65-616799ff7053,cda59c3e-7e20-47d0-b7f0-1f7508073dfa,5f0ef600-40c0-4ae0-98e6-87a4cd212cde,b39a3acf-d817-491f-8226-bb2b433125f5,2019-04-06 12:19:52,1.000000
30,18f484e3-bcc3-466f-a667-ed930d4f1f2f,c621e8da-2e45-4785-8070-b25250ea515f,91e6d3a3-c854-4122-b2cc-33682aca086c,680c946a-4960-43a1-97d1-881439755e55,2019-04-06 12:20:55,1.000000
31,354ede27-11b3-44a3-9123-b2c2e33be3e3,ab5a4cce-aa71-4967-bda5-af689fc64caf,645ab52f-8e42-431c-bdc3-d0b75d5e4a81,df071a62-8723-4b8f-9213-a3b52b2f5b28,2019-04-06 12:21:59,1.000000
32,c60df923-0369-4756-b79c-5f5424b5d45d,bb4bba14-0526-4add-ac4a-b83e219f208a,3b1c4e38-3945-429f-abec-140128cc1265,dafb8059-f53a-4a16-a88d-a6901621cae1,2019-04-06 12:23:02,0.200000
33,7112fa60-3af6-46af-a915-ee622f55c2cc,a8ebc6bb-543d-4acd-953e-86076b332adb,01270192-5244-43d9-b566-42ff109856ab,d7e4f8c3-c6d0-4348-85d5-61393c1761ed,2019-04-06 12:24:06,1.000000
34,71a8598c-59a8-4970-9610-f8082f24c953,707fddcc-60f4-42da-9643-e23f7220bddd,92df2c17-feca-4846-8665-b10f5f44ce06,512f6460-3a4d-46a3-89f1-b4e90829bb41,2019-04-06 12:25:09,0.200000
35,fd1d929a-a5e7-4471-aa19-fbb5c820b55f,ae07e9a7-1dfe-40c7-8029-73be4c8eac37,5bf53aaf-e55e-44fb-b0b3-26eab2e5af90,7224b55a-c0c2-4ae7-b64c-7d497fe42d60,2019-04-06 12:26:13,1.000000
36,e21ad437-2f7d-440d-8340-adc3ce40437a,b84d93c0-a281-4e02-936c-95ed96c04d4f,85d9b152-9e55-4e26-a3cc-1792f43a2f70,1357eb35-25bb-452a-9489-0dcf7d38b9cf,2019-04-06 12:27:17,0.200000
37,0cf69fb7-1479-49da-bb9d-c794716b6ac7,0a7c1d4a-f68a-46a3-9214-43b83d79805c,df410881-d1d1-43e1-ab23-ed9356a3c799,daab895f-c1b4-4046-b672-8406f9c3167b,2019-04-06 12:28:21,1.000000
38,a1690496-828a-487c-8c91-b8820dc40e78,0f73bfc2-d7e2-487b-b4cf-b5643035f4e4,eb52abed-4535-4f80-979b-924cdba4f94d,abdf75fb-debe-4caf-b4ff-90b48af815ea,2019-04-06 12:29:24,1.000000
39,c942ddb5-829a-432e-8994-abfa43e033d0,d858d046-b6fe-4ae3-a111-b6b927d19c1f,d518e817-4b8c-46ee-8ae8-7382ee410edd,561a7a8d-2d8f-4870-a10e-d645375670a6,2019-04-06 12:30:28,0.200000
40,caba97a6-7577-4b65-9299-33a085b56d0b,7e06ea3c-31d0-4cbe-a1ea-4280ef6fd4a0,5d4d7d0f-61b7-42e4-9492-33b4403870b7,1412d28f-ee4c-40b1-8a5c-3d012c49ea4b,2019-04-06 12:31:31,0.200000
41,86220e4a-de6b-4d10-999e-50bb58a4b176,e0855f87-9250-415d-831c-f7a9e4781f9f,6811cca7-0c1f-4289-b314-7ac895e1613c,8c69cd96-1522-42d2-891f-3f9b07e940d1,2019-04-06 12:32:35,1.000000
42,7c55ffa7-ca57-47f5-a4af-6097cbec9b35,08412196-f755-4413-9480-3f253ab31c54,bd369c79-0383-4c7e-950c-415f43e7ef90,c3c757ca-2f05-4f27-bddd-0a50e5505e04,2019-04-06 12:33:38,0.200000
43,c4f97cea-15d8-4b5f-b87e-a38d197b0960,c33f5401-ccc4-4d6c-af1b-15be721b65e5,09250019-ad9e-4253-9ec4-27e3b0c2a716,2025b637-286a-4eb5-8728-605a2aea0482,2019-04-06 12:34:42,0.200000
44,fd7f0b52-6325-4d02-a4d2-3f056224a5a5,da13e656-d159-4d35-8f2f-6893b64e9b24,6fc7d96e-4df4-4427-b774-4eb91a2dc493,6ec75e99-4f9e-4739-adca-9b6854d84940,2019-04-06 12:35:45,0.200000
45,07dc52a1-4da5-4b24-85cf-09f7b55441e1,a1c1103f-8791-4e0d-b7b5-c407a2742b02,725d689f-3d76-485c-8644-a53435d224f8,8bf8f850-ce01-4d30-9409-73cedf2b40f3,2019-04-06 12:36:49,1.000000
46,5d8fa847-6daa-4810-99e8-b017e0226aec,84fd8f4b-5fb2-4fcf-8c78-005accafdf47,15347220-7803-40b6-9bc7-1976f66da41f,471f9f92-66ac-4c40-9c40-05efd62b38ef,2019-04-06 12:37:53,0.200000
47,db7c60da-7055-42fc-b2d6-d781934bddba,4b6dec2c-1810-44b6-911c-c0c668e1f5c9,4decf4d0-9fb6-457a-91fd-b26c7b9043af,3593782c-b121-4b2a-a265-83bdb202312c,2019-04-06 12:38:56,0.200000
48,d13cd39d-72c3-452f-99a6-2dada42fa6ad,77894702-9178-4678-abc4-f230330fb604,301a1ddc-6004-4e49-922f-d8df7c6d5545,8c6a030a-ae2b-4ac0-a454-60e097213f7c,2019-04-06 12:40:00,1.000000
49,17b482fe-e355-4e8b-8784-328675e6836e,19198847-aad2-453d-b2e8-6a84dbbed3eb,d3aa90cf-fa6a-4442-a540-a1fc21b4e305,7cd02105-199e-48e2-8034-1d8e5211bdf5,2019-04-06 12:41:04,0.200000
50,c6f0183e-7524-4fd5-af1d-46bb403d0d36,b911a35a-9668-4707-80f6-f3b93ae6b338,6a0d6ef7-8c9b-4347-823e-a8bedb0186c6,0ec6a70e-b706-4921-8764-6a15beecbb0b,2019-04-06 12:42:07,1.000000
