app_number,app_id,trigger,burn,sink,deploy_date,token_interval
1,032cb37a-e7b0-41dc-816c-20e820a85a7e,c88af2d3-41e9-4372-b8e7-77cec5d944d6,793f505a-de93-40e9-ae14-25b352a82a2d,2c01bead-7b48-4480-8972-cdbbc90c6373,2019-10-31 01:21:41,1.000000
2,f66b0417-92ae-4423-9f15-602eb643be0e,e792e2ac-d13d-486d-b0f4-544933bf834d,8131279a-9c1e-44ba-adc5-d49a44d6b6ab,638edf99-62d2-41ea-848f-dfed533dd09c,2019-10-31 01:22:44,1.000000
3,82098137-7caa-4a32-8511-c392bd3566d4,db6eac69-195d-478f-b6cf-969333cdab0c,15c3b3c1-227a-43b1-b6b4-b200112c84b5,52103c70-25bc-43e4-af52-372f3a6d4e43,2019-10-31 01:23:48,1.000000
4,f43ebcd8-1d2f-4c2a-9762-1abe15201fb8,05198b6c-d5d8-485d-8aa9-5ecb8431a8d3,5d258561-b9af-47a3-ada9-c83abc392cf2,b35a7c7a-4085-40cf-9c87-e27d9618ee2d,2019-10-31 01:24:52,0.200000
5,f2933877-301f-4922-98f0-ae95c579c5c6,15f6bd29-74ee-409f-834a-49fa8d091f44,0fa741b2-6f83-4c13-89b4-fb7438541d3f,cebdb460-483b-4bcc-a5a7-1aa596531a3c,2019-10-31 01:25:55,0.200000
6,9a83e87b-2395-41bd-833a-2b057ae8b83e,0d324b77-5abc-4984-8570-772c8cadef7e,17c8229c-1c61-4adc-a411-8a6b95bad6d5,9b80de0d-7c45-47ce-aa7c-45762040479b,2019-10-31 01:26:59,0.200000
7,4cb9e957-9dc8-43a1-aede-bdde3207fd3b,792143f6-028f-4f2f-a43d-cf136c4c0f1a,7e2f8caf-1274-4fe0-aa82-e099006bd823,eff6c104-166a-4386-924a-abb1f744e5e8,2019-10-31 01:28:03,0.200000
8,82cd6baf-5ec6-4884-a20f-82b6bc753545,8b95c743-28b8-4a64-b629-81d10c3557f4,daac6412-cbf7-45b2-84d6-9d574df039e3,8e81b8db-687c-406c-8f50-e882a9ce93d9,2019-10-31 01:29:06,1.000000
9,990474a5-7eb5-48ac-a16a-f2778538890f,64f70338-2316-493b-b50a-76b74c3ab86a,24f070ad-ed4f-4fc9-b2bc-dff362c2371b,94363cf8-cb78-4d89-8c4d-5cc6f7b7c5c6,2019-10-31 01:30:10,0.200000
10,02b97a91-09ac-4f9f-94eb-bb639918a97a,d176e950-6166-42d0-aaa4-2070659ef61a,f81e7554-96aa-4da2-a2ae-4cfeaf712851,40ba8e7d-7655-43fe-a27c-7aa2a161ebe4,2019-10-31 01:31:14,0.200000
11,d24dd9d6-2712-4836-a0dd-a6b98be79553,ffffc611-8041-4125-8797-8bc3cb93f22b,e24e4ac9-647f-4af3-b0e7-b735faadd52d,108d5f8c-1b7a-459e-b410-721deb090da4,2019-10-31 01:32:18,0.200000
12,7dda6f4e-c3f5-481d-8d60-d005c71acf85,8fd7cbdf-9411-4549-9360-f0428b5d42c0,cc0e2b41-a6a4-4323-a30c-9cabf9f9aecc,7cfcd86f-cb1c-464d-87cd-a92556b3362a,2019-10-31 01:33:21,1.000000
13,96aed753-6563-435e-a846-ac960db60c6c,285cd56f-e9b5-4191-93ee-8f5d8dbf32c5,d65c89a2-2b14-402a-a8a0-910133f45469,6ce96fdf-12c6-49f5-af3d-90da5bc2c306,2019-10-31 01:34:25,0.200000
14,47d2bb83-64c3-4936-abba-2c15281e8b7c,441939ca-997e-4a09-b2c2-881a0ac54dfb,2fcafb46-a6e5-4845-9760-2cebbcb397d6,4ae0bc02-cd09-4b4b-aa3d-a63243592480,2019-10-31 01:35:29,0.200000
15,3651504f-2492-4029-97fe-71f1d88cc437,d96f9cd7-b725-4161-887e-97f63743eb9c,4e261b80-45ec-468c-b537-f3623012841d,303ee84d-e38b-499e-88d9-b4a9ce5c7468,2019-10-31 01:36:33,1.000000
16,c80ca4b5-58fc-4a3b-9516-60edbff8472f,b8eef505-5ae4-4cde-be0b-b94fee3906f4,45f4829f-0073-4d96-9c9f-7d322abdde3c,6da95770-8f36-42ad-9d5a-3d7a8081fa36,2019-10-31 01:37:37,1.000000
17,9c4035e3-2919-4718-995c-7e6ea953bf6a,a9f3ecbb-cb08-4e3a-8c70-2537bcb35b3f,ace907eb-1b27-4d5a-ab0b-9b03afed7c38,9b69274c-c61c-4605-a684-073e2eb716a1,2019-10-31 01:38:40,0.200000
18,7eb078bd-dee8-4323-80d5-e273ecba7351,7178db88-5f05-471e-99ea-c169a2f082df,ef0ff8fa-f0b5-43a3-aaf1-c764714f0928,7014cdb8-d96d-4ec3-abfe-ae80f1639ac6,2019-10-31 01:39:44,1.000000
19,e273d009-96e5-4451-a1f7-289af6ce41db,abb256c0-1b74-41b0-8b24-2b77ddfea84a,23432743-fee4-4ad3-b262-8105555fb134,57db0807-8c87-4551-ac38-4534edb81562,2019-10-31 01:40:48,0.200000
20,1b4520e0-61fe-400f-bbfb-060246a4ddc2,a492e932-02ff-4d86-8dc4-119a07539238,91441629-fab0-44da-b5e0-f429c771fc3d,0d514247-78d1-41da-85d1-ef35bd144911,2019-10-31 01:41:52,1.000000
21,212a4190-6380-44c4-869e-b28b279a7a54,2d4c1ca1-ad41-4bfe-9915-3ddda5dcd027,565da6c7-2747-4605-9b78-81a7138d8181,e432d3df-1ff9-4c32-a2b6-d5f46dfb50ff,2019-10-31 01:42:56,0.200000
22,b899d41f-abbc-4194-94b7-65c625a36140,791de7e4-0d1c-4392-a735-cced388f788d,649a1641-6b46-4169-9abe-e501b6c4b8d4,d4698d0e-a1bb-47e4-b65e-cf5bf0a76cad,2019-10-31 01:43:59,0.200000
23,ae1a5bc1-7389-480d-93aa-2b8d25b052df,6d8b9c95-66f8-4e89-95d8-bdc9770b4a51,3e062298-3485-48ef-8a6d-f7c6350a810e,b60926ff-a6d2-4440-ac9f-ead93b4c8035,2019-10-31 01:45:03,0.200000
24,550609b7-25e7-478b-a1a8-c1c269a2b015,ff7f4243-6d73-4435-af3c-caa58aab1238,ec079c83-2c24-44fc-8bde-37c8876dcc66,7cc3380b-392d-4bf8-ae65-8755f2662dec,2019-10-31 01:46:07,1.000000
25,0897028e-618a-4ccf-bec2-0c59c2d114bb,ab8c25e2-b433-4e27-b380-ec116c9fa7f5,60e3f190-d20a-4961-97f7-5bf507cdc993,e7a971f7-d0d3-4b0f-b115-f7fc8ec1cef6,2019-10-31 01:47:11,1.000000
26,f54aa212-497e-4e58-8846-bafa26e52bb0,7b38434d-347d-497d-98f6-56eab1a75fda,e745c64c-00bb-4243-af8c-2a1abdb54a64,36594560-86bd-4122-9dc6-2200511aa388,2019-10-31 01:48:15,1.000000
27,fa57562b-d268-433a-aa71-a5dd0e287f0e,3c1f62f6-c38f-4151-b0bc-0e55d22a35d8,4277d815-a16c-41cc-83b2-ed6d4dc2f55d,2cf757dd-0244-4392-a37c-d45ca6bb2070,2019-10-31 01:49:18,0.200000
28,060532ee-594e-4ddd-9788-5355a1e4c335,76a09ec2-0c3c-4a1d-ab41-760a706959c3,6dc0626b-47a8-4ae7-bd84-91a79a05bb6c,dd4c879e-835b-433c-8188-f6970540926d,2019-10-31 01:50:22,1.000000
29,d3548bf7-1621-4985-9719-1a76f8b296b6,3354757c-d14f-4a36-ad12-1ef4a5d087d9,be1f793b-849f-4aab-9968-16613bd9a357,9debb9e1-0142-48c8-a9c5-d0fc1cfde3a9,2019-10-31 01:51:26,1.000000
30,b33c7520-2271-4446-8174-8a9b38bd5d7a,0e3d866f-160b-4e13-8332-789200d3e47a,6f8161a3-1f62-41cf-9a7a-f0f960a096d6,e06302fc-2b96-4f03-8c93-fca252dc2ab8,2019-10-31 01:52:30,1.000000
31,c7bf2ff8-809b-4d32-bcd8-bab1b2140777,b64d0027-7a6c-4b70-88fd-797344019bc4,786b6265-6016-4010-84b3-bea6d742061f,36baae69-4561-438a-81ad-aac4d48696b5,2019-10-31 01:53:34,1.000000
32,f58d6107-62d1-4844-8456-7382f29c66cd,e98a1d46-1f32-4820-b35e-142f198d8ed8,2c3e46ea-2854-469e-ae59-15596830cae9,202e1505-fdfa-4e1a-b4c5-e2cc8c6b8c3c,2019-10-31 01:54:38,0.200000
33,bca5bf97-0fbf-448e-ba3f-bc59ffd44396,9039d0ad-429e-4e73-87c5-79f872501193,85a81bfa-52e7-426d-b62f-f1cc65d8fb95,15cb610f-bbcf-45f8-801e-645c993e8153,2019-10-31 01:55:42,1.000000
34,fb4e9231-0583-4127-8bab-5d13698331a1,417d9171-db1b-43aa-8ec1-ee07ec645347,47e3f3f6-1d70-4655-9e88-13955cd73944,e9934ed8-9972-4a2a-8b3c-b8dc495cda0e,2019-10-31 01:56:46,0.200000
35,c8da8a9b-e7fd-42fc-8aaf-8d3d8f9461b8,c52f1f74-5ada-496a-aa72-4dbdd179dc84,d75d2a04-5b83-4a24-84eb-395d3ab2c26e,2879a21a-d331-4e7d-9cc1-cd47795ea555,2019-10-31 01:57:49,1.000000
36,dea3aed2-07b5-4d8b-b102-01969bff517d,f99e64a3-cba1-4bf1-9ee3-1d6954d48f5b,a92a8574-0063-4b62-9b23-9ec96b64e0bd,852794a1-f772-4316-b8c9-0cdb8c8f2baf,2019-10-31 01:58:53,0.200000
37,da4f6411-8db6-46f8-a9e3-68f6a0557afe,dc2f8404-a8de-4c5c-8d6d-39997f87170b,d43aeb48-a372-43ea-a31f-ffdd2a033000,a1c8789c-d862-4e70-8135-d9eb7051ba6f,2019-10-31 01:59:57,1.000000
38,925d7e0f-b100-4587-8b61-33510e13102f,e18d1b10-5e0f-42b1-ae64-6724f05b052f,175d8a9e-4ffe-447e-a9ca-17affc072992,47288c01-8378-4f66-b911-0c65cff4d932,2019-10-31 02:01:01,1.000000
39,de0496fd-7540-455a-9fa0-bb4cd9cf674e,1db04b8b-659b-41f7-bed3-77e260a3cb52,e2c6bd8c-0e8c-473b-afbe-f59bb961110d,f55bc2e7-5181-4012-960e-20192b225ce1,2019-10-31 02:02:05,0.200000
40,a4b0c0d3-4afb-4bc3-b943-325dd75f3f3f,f1739a89-03bc-4059-b16b-0f156e677846,379a1347-943b-4536-a90d-ab5f16656464,4b0ca4ca-3b3f-4745-82fd-056f68e6258a,2019-10-31 02:03:09,0.200000
41,3f3958ad-b496-4f34-82a8-066d0a3c6b32,8b43a120-239c-42f3-bff7-141fa75919bf,82e6bd07-8ef8-4104-819e-b6593738ef65,5da59bf3-7649-4677-b37b-26392fa47524,2019-10-31 02:04:13,1.000000
42,a703a861-64d2-49bf-83f9-d25f49a30bf3,f94e2c79-6bed-44be-bb17-5a5f5c7febb4,79a8b905-cb1f-43c8-9c9b-034eb314eb9d,25a8fbdf-6b3c-420a-949f-918f41ba9871,2019-10-31 02:05:17,0.200000
43,c613a70f-c02a-4b8a-b6e5-986f5f44ecd1,aa394085-72aa-4f8f-8848-0d567cf68acb,72d9ca59-99af-449e-bc1d-e478289c8ce0,8715f1ad-3369-4c38-a5e6-eacd81ef262c,2019-10-31 02:06:20,0.200000
44,408d9488-1993-460d-be6a-f73b0056717a,1ce4855d-7908-4b6b-b718-7ac46f09f69a,42af3b64-79d7-4d97-ad7e-f4a5a9982b58,6c15b53d-426e-4525-9f1a-84fb05ca8b76,2019-10-31 02:07:24,0.200000
45,6afd51bc-25f8-4d1d-af13-99d3a2f8a295,26e13e04-7dda-450e-bc01-5f990de19c7d,0eafad6a-9fb1-4550-9847-1faf92e21e52,0c872fbf-9019-4e4d-bd9b-e849047caccf,2019-10-31 02:08:28,1.000000
46,8a0575ec-57c7-4ff2-8687-f26881074676,9d1f499a-3cb5-4db4-a361-89ea391bdad8,5c8f1072-0ba9-432c-acd2-b6181e993a19,b1a33199-c4eb-4891-b2c3-14b5479309ff,2019-10-31 02:09:32,0.200000
47,9e2e9738-ebbc-4188-811b-922317597be4,be3ff84a-4d9e-401c-aa52-190e5a7180cd,91adf2e3-aec3-4300-b2cb-ddd9891aadb0,56ae910e-f2ea-4875-a6e1-9eaf1d3defbf,2019-10-31 02:10:36,0.200000
48,0bb445b9-38c4-4138-a491-99ccd3c9779b,0a986ac1-9d4a-494c-b96c-a4f0ae911922,25ea55e2-ef62-461c-8829-6830a04e9f64,da2c91fe-cfea-450e-bfcf-c4b03810f23b,2019-10-31 02:11:39,1.000000
49,e8c87562-518d-468e-a8be-2632f6964ed6,de5a9f7a-9bd6-4db5-b01f-37125eb83a44,7c44e79f-012b-4bff-adae-a641b20317fc,d6454341-45ed-4962-975a-0602bda12099,2019-10-31 02:12:43,0.200000
50,d9f6a5f8-703e-4c60-9f51-92ef0d329429,96b3800e-2173-4b29-993e-52ccfb08deda,83286792-ee60-486d-9a18-9e16e4559dbd,8029bdb5-88ab-4787-b2e7-504ea8de4194,2019-10-31 02:13:46,1.000000
