actor,node
ec86c15f-4749-466c-8435-8aeca16dc781,b5cc0486-fb0e-4dfe-a5da-b68af27d71f5
7e5e9fcc-af11-4016-8d10-e75cd73a7013,b5cc0486-fb0e-4dfe-a5da-b68af27d71f5
df6a1091-acb7-4f0f-983e-909012f9e20b,629721b6-dab2-48f3-9d97-e3d329e2e1a3
afed1945-2d92-4f9f-8adb-1aeb29da1fce,1146d6d4-aeab-40c6-bd3d-84d022d343eb
498ce168-1c19-4054-a2fa-644451e52cae,546a9dc4-82df-4d23-9410-c713026985c7
56a4c21b-c492-4f86-813a-69a97fb491b5,546a9dc4-82df-4d23-9410-c713026985c7
8da42349-0f21-4e1c-b366-295b02975d98,f6795636-9450-458f-bfbd-9bdb0f08af76
df72a2db-5ca2-4976-b846-eb3609dd5b15,f6795636-9450-458f-bfbd-9bdb0f08af76
65f862b7-00da-4f9a-968a-9dae96fb44dd,11d19c5d-bcd5-4eda-b4c2-7e4a80e108cc
abda810d-3a73-4404-b52c-de039e668881,8ac48064-08f8-4d76-81b5-508e0872f0bc
996ab837-b53e-4791-8be1-63d781f8e50d,aeb3337e-f6b6-4731-8607-c56c9f3f2875
62bcf379-0de3-41d8-aa17-11ce69024132,8ac48064-08f8-4d76-81b5-508e0872f0bc
a309062a-3662-4b85-9391-a3fbd04c1c45,ab4084e0-9baf-4df9-ba13-f7daab60f86f
eb1aeb0c-017c-47bd-b16e-ea7e289a1345,ab4084e0-9baf-4df9-ba13-f7daab60f86f
35fa3e41-53f6-4afa-9b0f-6a1cf4e52054,2e3bea00-6c69-4be4-8df5-aaced22bacd1
6c3fdc65-0277-493b-9786-59b7e43a0b82,60d65b73-301b-48cd-81ed-26eabd166d40
85fe0c0b-5102-4d07-9200-4e61a87bf52f,60d65b73-301b-48cd-81ed-26eabd166d40
5cfb1d61-17f3-4cb3-8225-0b015bccec8a,7143f9cb-42a1-4303-abc6-f068338bc857
30996f66-c107-4ed4-a323-29eb28ebfea9,be1125e5-7d19-406e-a8fe-c92a8f57c87b
a3e149cf-f20d-4477-86ce-a2862067a617,4519f1db-56d2-47d8-9774-084aff0e65a4
9304183d-7c44-4b91-a130-e8d2f7f83d07,be1125e5-7d19-406e-a8fe-c92a8f57c87b
7a329ca1-0709-4375-83f4-bcd92dcdc04a,df9f9bce-d567-425b-ba14-530d45275183
35886481-1aec-4b3e-b37a-bd635c9f2c8a,c3a483ea-4545-418c-a5c9-c93bad726ee9
85e92846-c154-4733-95a3-d29ff155c6a7,df9f9bce-d567-425b-ba14-530d45275183
905cb5ea-c654-412b-a21c-255b77de19ba,2c0935a4-c50d-4bf7-8228-8729816c9e59
ac403764-af7c-43f5-af5f-9bdc75540549,3d2e81d0-3a63-4bda-af15-50b42312b31b
92e7849f-eb8b-4414-bb45-94089d71a7e7,2c0935a4-c50d-4bf7-8228-8729816c9e59
8576c057-f117-459f-9fb4-a5747792c5f9,814f9619-ee53-48d8-944b-9cf3fdd3b745
021e3849-eadd-41db-b2c4-4af78469fd0c,7d22eb57-7bca-4827-b6ee-74f6c0cb43fe
ccc3ab60-300c-4c24-86bc-c92e3fbddd1f,7d22eb57-7bca-4827-b6ee-74f6c0cb43fe
e75dca43-cdab-4a91-a1d5-8401cb27222b,77a49101-a457-4bfc-b84b-5e6aa3b2991c
1fdcc49e-f595-485f-b974-92e1a9f9ec56,77a49101-a457-4bfc-b84b-5e6aa3b2991c
6910c0d0-2766-4909-81ca-fb300eb1af00,166f85c3-66b8-43bf-a356-ffaba46299fa
c9cda920-67eb-4c03-81ce-8b0c4fcae1b8,8a3e8a69-d845-4f30-97d9-5b9cd5a5b1d1
1e4deb42-86d6-46dd-bfb4-49bac451a211,8a3e8a69-d845-4f30-97d9-5b9cd5a5b1d1
d6056143-9e00-4289-870d-30a27936a582,b24f582d-8d62-4f73-9593-1db6e740358b
19ca1784-dffe-416c-87ce-b8c5e43d83e6,e9e1b00c-a4ff-4caf-a33d-a2f8375245b6
c3a7bf86-221b-4742-8c29-4a0f4a25c6e3,0d0dd2c3-3c24-4749-aaab-f7f95fd153cb
aef0c715-e07b-490c-b06a-cd0697c0388c,e9e1b00c-a4ff-4caf-a33d-a2f8375245b6
07569e09-f567-453d-bad1-3f69e1201110,b21fd893-fa50-461f-8e09-c770073a8f21
edcca273-1515-4ab7-b42a-4c49b7c73ea5,b21fd893-fa50-461f-8e09-c770073a8f21
aa798ed3-f8a9-4a10-b605-8e761ba692aa,3c96244b-2935-4a57-a7da-f45b721b6b67
ef24b303-e965-4393-8fef-ed4fd32fe365,ed5b29d4-cbd0-439b-993a-3e2f9d9b99c5
8b4a1099-5455-4acc-8bf9-bd605058ae41,be855b5e-6628-41f6-af8f-5e3b70a7a4a9
e47f5b02-4731-4fbe-bd08-162e28daa74b,ed5b29d4-cbd0-439b-993a-3e2f9d9b99c5
a5ff7c4c-85fe-4255-a8e8-706faa29c6cc,944df215-8a53-4a41-a16b-d2be6f85c89d
f64c9150-aeb4-4ac1-b0b9-ba49e2f79d37,b5cc0486-fb0e-4dfe-a5da-b68af27d71f5
646e530d-76e5-4951-bc25-16cb92f3fe83,b5cc0486-fb0e-4dfe-a5da-b68af27d71f5
f058692f-19ba-472d-9fd1-0be07108c454,546a9dc4-82df-4d23-9410-c713026985c7
9d887fc3-9732-4d32-b7b5-c56ed15cd3a4,546a9dc4-82df-4d23-9410-c713026985c7
39ec0912-b220-4c37-b468-ab22028115bf,5b10bc2d-6ff1-48d7-aa62-d763ce6ca6ea
9dbb2402-e76f-4a6d-a443-3ad660ae93a9,f6795636-9450-458f-bfbd-9bdb0f08af76
12df844e-db70-4516-a781-d08e4c624c2c,28cfec4c-d4f7-4079-b01d-312a010a8c7d
e5d59652-2566-42d5-8fb0-2408932118df,f6795636-9450-458f-bfbd-9bdb0f08af76
684e8040-7118-4ae2-914e-a8edfa7feeef,10da25b9-66db-4c9b-9913-b9b892381f3a
cfe62f0f-48fc-4ad1-93d4-d31d13427c7d,8ac48064-08f8-4d76-81b5-508e0872f0bc
f8fbd358-d1d3-48b6-a1e7-8a29ef07189e,8ac48064-08f8-4d76-81b5-508e0872f0bc
6e61457b-bd94-4bf5-91cd-a5174b1e01e9,ab4084e0-9baf-4df9-ba13-f7daab60f86f
db80d566-6b2f-457d-a94e-ca26b6a5cf8b,1ee4ee2d-c673-41a4-8065-71c3b76cb4db
87910855-d9fe-4daf-9ca6-1ad7cd9e333c,ab4084e0-9baf-4df9-ba13-f7daab60f86f
061fc57b-3c7d-47bb-8c24-8c9b1b54354e,60d65b73-301b-48cd-81ed-26eabd166d40
eebf6913-93e2-4154-8d7a-0b73018d7516,50bf9179-4550-4e78-8c98-feaa7707ab9e
beae7360-4f70-49ee-8e97-ce9ffeeca1cc,60d65b73-301b-48cd-81ed-26eabd166d40
c95b84ba-9999-45a6-aa6f-c4df4bee510b,f8786cf2-ae87-40a7-855c-de7083eb2027
a23be37c-769b-4291-8ee2-534af772d041,be1125e5-7d19-406e-a8fe-c92a8f57c87b
5a07dca8-468f-4111-9cb3-7daec83243f3,be1125e5-7d19-406e-a8fe-c92a8f57c87b
dfa85c23-7ae2-42df-bacb-fd590666d290,009741fb-2607-4dc3-8af3-69accf0f8583
d2c3426e-3eee-4c1d-8dff-bfe03f6257e6,df9f9bce-d567-425b-ba14-530d45275183
2c7ea03d-35df-4a0d-895a-cf7bf51a1c42,df9f9bce-d567-425b-ba14-530d45275183
0c7450de-9b94-4292-8a1f-847f59832092,d160049c-2a6d-48e3-bc6d-31f30afffb5f
72472700-9204-4c3d-86a8-3ad65b35ef8c,2c0935a4-c50d-4bf7-8228-8729816c9e59
fb08fd39-257f-449c-ad1e-8eb0c9d221f3,2c0935a4-c50d-4bf7-8228-8729816c9e59
03589939-3cf5-4f64-9fc2-9d0c1e9f4b10,252fe32d-b109-4f45-8fdc-daa625e68ded
6cb21c95-0068-4da4-9297-c933ece808c2,7d22eb57-7bca-4827-b6ee-74f6c0cb43fe
b0f24882-2b59-4d00-a96b-aeb52eb5604f,7d22eb57-7bca-4827-b6ee-74f6c0cb43fe
9bf72478-a6ba-4ecb-bcce-14e7b20d5c54,77a49101-a457-4bfc-b84b-5e6aa3b2991c
e8c2035f-7a77-4357-8f43-c4a290188d11,9da289ef-7b6c-4015-9b70-ef3d489a2184
9b324e6d-e428-4cbb-b249-71b6ec042ade,77a49101-a457-4bfc-b84b-5e6aa3b2991c
125d9df9-b062-41c6-ab02-73b05a1291d4,ab87f112-5f7f-4660-a03a-9557790511ab
40c04339-3f75-4bef-8959-3a53cd5cc4ce,8a3e8a69-d845-4f30-97d9-5b9cd5a5b1d1
67e3275e-72f2-4959-ae58-ad258e26ab68,8a3e8a69-d845-4f30-97d9-5b9cd5a5b1d1
824cc476-3be7-43e1-9d49-f3abde8fae69,e9e1b00c-a4ff-4caf-a33d-a2f8375245b6
1c8f7bb3-0c24-43a7-9212-e9672f9e5212,e9e1b00c-a4ff-4caf-a33d-a2f8375245b6
c2dd7ce9-26b2-418f-9a13-c5125df09120,5323b4e0-a14d-4297-93fd-56edb60f823f
9c14d1f7-5b7e-47d8-907b-04e8502970e6,b21fd893-fa50-461f-8e09-c770073a8f21
614ceddd-b86e-4277-8d19-1717529e8151,b21fd893-fa50-461f-8e09-c770073a8f21
a3d3cb89-3b5d-415b-b350-61c5fa5fdeff,5ed213e8-0438-459c-8c6e-a5e70fe16840
b16d2c1d-064c-4f3e-a9c7-5fca2f12ba49,ed5b29d4-cbd0-439b-993a-3e2f9d9b99c5
cd862d11-e6df-4d3f-a3cc-5e3b61ed6612,ed5b29d4-cbd0-439b-993a-3e2f9d9b99c5
de8bb765-33c1-4704-accd-34e6c50b71c8,5041a8ae-e1e2-48b9-bc06-0bc7daa1de12
f75f9c2f-77c5-41d4-ad10-34587572f97d,b5cc0486-fb0e-4dfe-a5da-b68af27d71f5
0b429ff7-1da2-4f9b-9cf4-822d318fcea7,b5cc0486-fb0e-4dfe-a5da-b68af27d71f5
734ae842-90f7-4abf-9be7-7eea89781ce8,48740012-dbc6-40df-ab59-e6cdbcac032e
806674ab-7372-4f83-a5b2-1fa0e4da658e,546a9dc4-82df-4d23-9410-c713026985c7
b972565c-513c-437b-8303-ad0474dae730,546a9dc4-82df-4d23-9410-c713026985c7
0cdd1b96-ec46-42af-8b29-586190653531,09c119fa-d385-42c2-acd7-84e5878352fc
4b471fbf-cb9b-4841-9e92-0b7ec182ce84,f6795636-9450-458f-bfbd-9bdb0f08af76
89c2c9d3-fd58-461d-85f7-768b4ece7992,f6795636-9450-458f-bfbd-9bdb0f08af76
fae8a49f-b9d0-4141-960f-363ac7d1b4ae,ce8e3fc7-b621-4b4f-b933-01c187beb230
597a74fe-fb9b-425a-8959-50fde731873c,8ac48064-08f8-4d76-81b5-508e0872f0bc
92499a59-1362-4bc8-9b28-21ce29620e83,2975125b-b126-4752-99c4-08964664578f
530a6363-df1e-4603-8f1c-225cd8b96e2f,8ac48064-08f8-4d76-81b5-508e0872f0bc
9ded9b51-d68a-4a53-af92-db85a847fb08,ab4084e0-9baf-4df9-ba13-f7daab60f86f
f4400d75-fdf8-4400-8343-ab36d828c17a,94885565-2e6d-4d2a-b079-da28646f325e
241c2614-b40a-4b40-b7e5-916d792a8fbc,ab4084e0-9baf-4df9-ba13-f7daab60f86f
06828b98-fce4-40c9-af92-c48a112be939,60d65b73-301b-48cd-81ed-26eabd166d40
affde6dd-e208-43c4-9282-ace007bc0d13,60d65b73-301b-48cd-81ed-26eabd166d40
eddd2952-bcfd-4476-890c-774524839401,ff1b9b3e-3ac6-4808-897f-65a34d542d38
57f67a8d-7d90-4c36-8f4a-18ccbf0c1d7b,355cde8f-2c4b-4a36-a96c-6574f7a6a202
f6eb234a-349f-4448-8325-2d0ab8211065,be1125e5-7d19-406e-a8fe-c92a8f57c87b
31379321-0d20-4851-a23a-b656c17b28aa,be1125e5-7d19-406e-a8fe-c92a8f57c87b
975bc17c-dfbd-44bf-9564-dae8539b18be,df9f9bce-d567-425b-ba14-530d45275183
ec4a0611-ff5d-40eb-b585-3dd580636f82,5c329aac-76b0-4658-bfc8-a5849cc11821
f8d49799-1f77-4da7-83f0-986506cb111e,df9f9bce-d567-425b-ba14-530d45275183
9232ddec-cffa-4381-9c3c-ed08c1c1a188,2c0935a4-c50d-4bf7-8228-8729816c9e59
ae4b30cc-a14a-4626-afac-cf4dd3261f4f,b4eb44f1-ef4e-442b-81d3-6ad6e02b6502
0ac5198b-9f1f-4217-b6d7-867ab6adb5ba,2c0935a4-c50d-4bf7-8228-8729816c9e59
9017bc2a-1abb-4ccf-86b5-88da219c2a02,7d22eb57-7bca-4827-b6ee-74f6c0cb43fe
ddc9c7d3-475c-4c3d-87c5-db596560fbb9,7d22eb57-7bca-4827-b6ee-74f6c0cb43fe
bc2d08c9-ec44-4983-870a-a2f9cd1946f0,95ac4bfc-c7bd-4470-bb88-fd73bdddb8e5
8f42688c-c241-477d-91bc-632bf49ab407,77a49101-a457-4bfc-b84b-5e6aa3b2991c
14030fcd-e549-47b3-b2e5-085d2d09558d,77a49101-a457-4bfc-b84b-5e6aa3b2991c
ba5feedc-5d73-4666-b103-12b9e00c2a48,af659369-5eb5-490e-a227-c1b6ce789bed
608ecae4-569d-4d4f-aeed-fbcc2ea2a83e,8a3e8a69-d845-4f30-97d9-5b9cd5a5b1d1
6a361314-4c53-4ea1-984b-7eef0ab42e65,0dbd8a13-3226-4535-995b-86b0e51ff948
751710d5-27fb-4037-8e98-58bc03c20c2e,8a3e8a69-d845-4f30-97d9-5b9cd5a5b1d1
0e899a3a-cef1-4aec-9140-3293ef8eb931,e9e1b00c-a4ff-4caf-a33d-a2f8375245b6
6c738ba5-c231-48d0-bb34-843236bf9384,d4621246-e6c8-4303-b4c4-fb6cf45bff05
c9a89bec-efbd-4eba-9d93-50cf087537ec,e9e1b00c-a4ff-4caf-a33d-a2f8375245b6
959ce659-ea22-4898-adb2-5ea82dc6405f,9ee41eea-24df-45d7-a946-7f27d057b5bc
f42495d9-d052-4b7d-a0c0-44855a38af78,b21fd893-fa50-461f-8e09-c770073a8f21
65f8ce33-3672-41be-967a-2d1657a14eec,b21fd893-fa50-461f-8e09-c770073a8f21
1dc35274-dce1-477f-9cc4-d1fd8b1905e4,ed5b29d4-cbd0-439b-993a-3e2f9d9b99c5
4abbaa29-a26a-4a0c-a51b-e085e009bb83,6a641f43-4038-494a-bff8-e280a22e8ed5
246a5bc4-d478-421c-81d4-450b42f0d3c5,ed5b29d4-cbd0-439b-993a-3e2f9d9b99c5
ae746f89-b8a3-4266-91c0-9777ddd6f4e0,b5cc0486-fb0e-4dfe-a5da-b68af27d71f5
5824a658-b405-4c40-a7f9-f3871e97e7db,e190ea26-df7b-4176-bc0f-002bef881861
607d9852-f440-49bf-ba4d-6cfa20d86e9a,b5cc0486-fb0e-4dfe-a5da-b68af27d71f5
67ffc9e3-9c7a-4826-9282-e04eabb12e83,d4f29334-2693-40cd-ad46-58ccfa4e2eab
e332acad-6de0-421d-9663-5a2a373b17dc,546a9dc4-82df-4d23-9410-c713026985c7
92d73106-a3ca-4a42-a3dc-a5517d3524c5,546a9dc4-82df-4d23-9410-c713026985c7
4697f85c-907f-4c99-9b4b-af0899635ee9,f6795636-9450-458f-bfbd-9bdb0f08af76
f295b5f0-e887-4248-9fed-e00d0735a187,1962fa5c-fe6a-44b5-a524-d4a221c7d397
5fc83560-6e86-4c91-8834-77e973aa1fb6,f6795636-9450-458f-bfbd-9bdb0f08af76
5bd88346-eb58-470d-855d-5d28ada90bd9,8ac48064-08f8-4d76-81b5-508e0872f0bc
a08ecabb-09e3-46e8-89f6-3ffdca84f7b9,8ac48064-08f8-4d76-81b5-508e0872f0bc
ee5311ec-81d9-49db-8c3e-bd33d1dd1f68,a8d81c52-af6c-413f-9561-1810bd763661
f446501a-07e9-4373-8431-8fdf35f4a671,ab4084e0-9baf-4df9-ba13-f7daab60f86f
5dcd3538-d256-4c4c-9296-816c5e4823e2,f8997d4c-a08f-4580-becb-b5e2d2baa3ef
8af4eae2-99d0-4c56-bfea-16b189451a79,ab4084e0-9baf-4df9-ba13-f7daab60f86f
