app_number,app_id,trigger,burn,sink,deploy_date,token_interval
1,dd11c4fd-435d-4d53-b78b-5e227e8483c4,c3093e5d-4df7-475f-86ba-25f8dc9d7f21,73b895bc-288e-4d6f-9d81-9971951cb4f0,9832a02d-e7b4-4421-b98b-52ecc4c34bd6,2020-02-08 18:56:22,2.000000
2,4b50f1e6-6c0f-4d18-af3d-9d018965457d,585738d5-c728-4703-a63f-f7cc47ef9d52,98e55881-653b-4607-a2f2-5c52c50d4420,69382724-1804-42a9-85e3-f42559d28b33,2020-02-08 18:57:24,2.000000
3,3aff459c-d63d-4230-ade2-da473208c65f,4773cf40-0d16-4bad-911d-624f3ab762fa,18ab2e47-818b-4bad-8d81-b38f835263d5,6a42e9f7-77b4-48d0-89ea-b77294c5e482,2020-02-08 18:58:27,2.000000
4,eb8aaa3d-6ee4-43c8-9cb7-748d11cdea7c,08f9086c-0750-4355-b759-b32584e7ae77,1a9f1a43-621f-47e3-b206-38dce1626a2a,fc9f323b-baca-44f6-9ecf-58298925ce0c,2020-02-08 18:59:30,1.000000
5,5d4a40aa-8eff-407b-9295-36a83116db6e,df110ab2-669d-4106-ae4a-45a4024cf12c,23a6ddf7-9585-4416-9fa6-e109f93bd3dd,b72438b8-fc41-4c8d-8eee-7fd235d9d995,2020-02-08 19:00:32,1.000000
6,c0806160-e336-4036-8b1e-8c9fd21d34ed,a5af8108-2df6-40e5-a6c8-edc5f443c05b,b9d52ab2-c8c6-44e5-90e1-9650960ffe20,8a2c3dec-5717-4ad1-aa55-788e9677f98f,2020-02-08 19:01:35,1.000000
7,7364f255-12fe-421f-bc69-fe8ad9babb8f,4d856890-7b81-4e0e-832a-087445055447,928e3c09-4184-4944-840e-459b57bfdd99,6fda5c02-ae8b-4c19-a656-da2b7effd64e,2020-02-08 19:02:38,1.000000
8,6ea1fc3f-5b24-452b-8ce2-608ac123f2a9,bf96490c-2175-4694-84d7-55943963307c,b7e3989d-f9d1-4de2-8e30-618a0566e292,e180ae89-b593-483b-a94f-3246962b7ecc,2020-02-08 19:03:41,2.000000
9,ee812880-3e54-403a-be1f-0c2ae97022e5,0b502b0c-8633-4dab-85de-7c80770cc3f9,5c1d96a6-1746-47a8-bbc2-849622ae7986,ce4ec0e1-5119-4afb-bd50-c71249d7b9d6,2020-02-08 19:04:43,1.000000
10,f941d3d6-fb44-41ea-8260-0201b9202a69,58927289-e402-4ac0-bb10-86f9cddc462d,7741d3fd-e92b-4345-b6ee-3d0400dbae32,a4b5441f-d49c-44e5-b8d8-b1224ec252ee,2020-02-08 19:05:46,1.000000
11,5c00aee1-361c-4cf5-b2db-8b28d3be6843,6d1209f8-df85-4a25-be39-c359bf5c0ab8,f558085f-c387-479a-8096-9e57c956ad47,a4530bee-13ad-4cc3-a504-7de6c18e19ea,2020-02-08 19:06:49,1.000000
12,fe54b04a-230a-474a-9d39-1183b970a0dc,15b2fabf-263d-4202-8b9b-880ca5672ab6,2f98a84c-6b35-4da1-809b-ef3857183294,743a3a42-7033-4f68-8289-34fcfcfcab49,2020-02-08 19:07:51,2.000000
13,f837669b-06cf-45de-9d31-2c61bf9439f3,8e087916-0d0d-471f-baad-a819b115c0b6,e5437415-e7f3-487f-a467-4fae5688ecb3,fd34a98f-d339-4e08-a1f7-45b855c1339c,2020-02-08 19:08:54,1.000000
14,01dfa89c-dedf-4f66-ac3c-7c5bb1ffe7e5,53a1acd6-558b-468c-a708-4d43e739e167,25f0010d-bbf2-416f-860e-47554d813166,6548124f-ef28-414a-b310-492a0368b678,2020-02-08 19:09:57,1.000000
15,08426b2c-8030-4460-9fdc-3e7fc983b4df,32b99970-11fa-4542-8bab-a11316bb426d,06709972-e27d-452c-b86d-a2b8907509e5,58da11e3-64bf-4b54-8a68-a4c52b8fa0da,2020-02-08 19:10:59,2.000000
16,0aea5fcd-a1f8-4ebd-ab20-b1ec46dca463,74532658-2b6b-43ab-bbc7-7c9eaa74bcae,807be0d5-cd36-4106-bb26-59729dbc8c20,b464ddb9-f075-48b9-92c3-54ebef220c3a,2020-02-08 19:12:02,2.000000
17,9d4bff10-1327-4dfc-b987-f80b7240f695,61062971-59cc-4250-bd21-24063581bf48,304d28ef-1d33-4bf9-888c-40aab41ce7bb,38a49345-9499-4966-992d-34abfb8df5e8,2020-02-08 19:13:05,1.000000
18,4bc79441-b9a6-45e7-99e5-5128c2d7dd23,78cf4c3e-3775-42ca-a004-ba561fc7bab9,752fbee7-21c5-4157-bf84-52a4ee44d8f5,98ac90db-90db-494b-887e-9e17a7173197,2020-02-08 19:14:08,2.000000
19,baf2f99e-6303-442d-a0d0-b45125af1ee5,c752f0d7-364f-4fd4-b4e9-2d70e93c778d,eebede4c-4bf5-4ebc-86e2-fc50426a5a22,300dab5d-e8c9-4377-aae9-193c0705ea10,2020-02-08 19:15:10,1.000000
20,4ad32437-004d-41a2-bad1-59fbd66a3afe,2589fc11-b07f-4984-a6bb-6f79125680ad,a6804d5f-c433-4903-8216-c89ad0be6d78,1fa39d07-bd57-4165-b9bf-40e3ca119ea4,2020-02-08 19:16:13,2.000000
21,c00582c8-1c60-4988-993d-c2baa8293e99,06beede2-0b3c-42f2-bf78-5da37d956fdd,3426cc26-1124-40c4-a03b-2d0f374070d1,9a20521e-e428-491c-b433-02be91b73329,2020-02-08 19:17:16,1.000000
22,effb01bb-6123-424c-8b70-8e2266663bda,b10d4f85-9cd5-4360-ab53-c4c3d8a65d52,f8133186-8204-4b1e-addf-2befc45e3a3a,3fd3b539-39c1-4240-9635-d73222405ad1,2020-02-08 19:18:19,1.000000
23,a2b38630-40a6-4d56-9e1b-55ffda688d22,f35b0b3a-bc7d-47a4-bb80-11a971c75bb9,a7570138-4fd5-401c-9ec2-e9ce9073a892,ac78afa5-bab9-4351-9ba1-de91b2b2c1b7,2020-02-08 19:19:22,1.000000
24,73ebcfca-09c1-4e01-b110-198a294e56b0,f1a5dfe5-e5f3-4a2d-baf7-bb96a839a9a8,8fd8d423-3b7c-4b28-bad3-47b1a8747a37,41c72da2-2d77-4292-850e-b580436ada0b,2020-02-08 19:20:24,2.000000
25,240cf01d-17e2-4df8-a379-1d72a67d891b,7283f3e7-dfe9-4a2c-a317-6359eed064cc,f10ddc32-b69a-436d-85df-c918b089b702,d96af541-f9f2-4eb1-bcf8-a63048c9547a,2020-02-08 19:21:27,2.000000
26,f58df98d-80ec-421a-a50e-e1d15b1600e1,b6aa25f8-ba55-48fd-a1c7-92f084e17da9,77c5aaa2-a6a8-4490-b046-712079f8418a,806fab56-86d7-4fc0-8bb8-ec6aeac1cda7,2020-02-08 19:22:30,2.000000
27,1ac73bbc-ae4a-41a3-a5a4-aaa860c6ed8d,2b04bb31-9788-4de3-9b3b-11d56c935b99,c3a1f13a-2567-45a0-8133-a907ce169154,b92d92db-1591-4e1f-a0ba-b265cec03612,2020-02-08 19:23:33,1.000000
28,3abc6bef-63ff-4d87-adec-d38b52955466,f0bacfea-1f02-479d-8f79-34c9a4fd4ae3,e13e3de7-ce9d-4e75-96cc-f0771784072a,dccf7b82-983b-45ab-a346-4e2f6109d030,2020-02-08 19:24:36,2.000000
29,2b41ad4e-8323-4e71-b683-2f813344fe06,7e55e4ca-275a-488a-abdf-926381308238,7aef0894-2aa0-47e1-9a3d-ded02d1dfad1,38862513-5235-4484-a928-e650e3418060,2020-02-08 19:25:39,2.000000
30,ad113cf6-d122-4749-b5a9-ec3f02a4ae73,91ab5581-c469-49e3-8d40-b577729310fc,c9662458-8a3a-4a6d-9628-8eb30bd60cd0,cea21f9d-43f2-471b-ab93-f91aa7109c83,2020-02-08 19:26:41,2.000000
31,40e90054-6122-49ce-844c-d26ba431dc57,3304ee05-01cc-48c1-9b3d-be0fb6d14381,5d872456-b316-4931-b1bd-e67fb3931080,869f33fd-c822-478a-84e1-c9e721129cec,2020-02-08 19:27:44,2.000000
32,e6645d8b-5c54-4710-8a5c-e12cdb8daa25,f8050c45-d735-4c99-bef1-5c2d99783650,6cb9ea52-0674-4fdc-b3a1-b483e31d50a7,3191f32c-ef31-43e8-8f9c-ecab7c039f3e,2020-02-08 19:28:47,1.000000
33,88eeecfa-4abc-4e7f-bdf2-bed6d73ba059,25240274-8430-4bb6-988a-8d830ecde37b,07591749-7109-4d1b-90c3-75a24865df02,b86a9cf6-ac65-4354-b062-cbd0931883ad,2020-02-08 19:29:50,2.000000
34,c630e742-354b-4e85-a206-3b8c82a6ca69,5b6baca2-0328-4044-b82b-1e6fcbe6bb66,02e0e980-6b59-4614-8d95-43c1f1eee8f8,95d32b28-c96f-4056-b899-30275bd2d1e3,2020-02-08 19:30:53,1.000000
35,8679a003-2d73-407c-aaf8-a30b9a914e79,bb014285-531e-4bc7-94a8-7603eef019f0,40dc8897-67d1-456a-a3c8-749167f9e443,63ad9f4e-f116-4425-8a57-02d5f395ed14,2020-02-08 19:31:56,2.000000
36,4b897c3d-2db9-4680-a8bd-bb28492e73d1,2bda5a34-b0b5-4d28-a624-c6fb6a89357e,a9852a4b-16b8-424e-9363-ef79e013b290,f4b4801e-da4c-4be0-a232-efebd1952bf6,2020-02-08 19:32:58,1.000000
37,cb5cff3d-924f-44fc-a47f-1f79e21284f7,04b258ec-3156-42dc-bd21-97d92fa7abe2,bfdcb2bf-5f95-4c3c-875a-d0574700d31e,e94818e6-589d-4854-a8c3-b31dbf23dff4,2020-02-08 19:34:01,2.000000
38,52e8c017-d165-4076-b655-0e5e9a3a5afc,a75f3464-c2b4-40e4-8623-40f6b5c9ceb1,cc0f987e-eb76-4ce1-87cd-163d6554f611,b64a3a11-f10f-401f-8e22-4d32624cf46d,2020-02-08 19:35:04,2.000000
39,524dfc83-0dfa-4bc8-b4b1-989e5d5c9171,c32d4922-57b9-4e90-a147-576e272c8ac6,ff3ee866-687d-4bba-a87a-f87656714598,f8cf4f0b-a94b-457d-8747-c0d3d47bbc27,2020-02-08 19:36:07,1.000000
40,f6b0d376-34a5-404c-b158-87f5ee772dd0,8d647abe-9aa8-4114-b1e4-cb1445c1bf76,b23420ca-f404-479c-9270-0a95d06b4be2,396b16a4-51e6-4aad-a588-082151998b07,2020-02-08 19:37:10,1.000000
41,1e423c28-4d87-473a-a635-9138a4c0ff87,129b56b6-4ef8-4adc-8688-15a0a5c457b8,8dfff4c9-2e4a-4953-a06d-f19265b71c4b,01b9b9c2-6f9f-48dc-91fd-5ed532593c1d,2020-02-08 19:38:13,2.000000
42,2a075228-9739-4b69-8304-59e1afa91b52,f80de5a6-871e-4066-ba52-170261de8e5a,0f220b8f-b0f7-4fa2-b747-1c4f8b0d2a8f,82b46d3f-89cf-4b5a-929d-5bacc7b46e45,2020-02-08 19:39:16,1.000000
43,51bd6fb4-742b-4270-9671-262aeb86285d,048925ee-3dc6-45b9-a89e-f066c783a2e5,71fcdb67-30ce-4405-b30a-12614b5fa715,a8bb2316-1f61-49a6-baf2-e8b72116e0bc,2020-02-08 19:40:18,1.000000
44,24a3751f-8e63-455b-8147-2788da919e9b,3c992554-b05d-480a-8ba8-d568ecd93b20,a075a3de-4fff-4bf6-9e7b-7481d8800531,4ff37b03-b7ad-4160-bf91-74f99441e805,2020-02-08 19:41:21,1.000000
45,a93703b2-e8cd-444b-94e1-b81386d54f4e,7333a00f-9c93-4af0-8c3f-8e2ecd662b86,5b3ec020-05da-4983-a844-e31317937ab9,ed768c8e-cf23-4f17-aa76-dfd4de11f2cd,2020-02-08 19:42:24,2.000000
46,26c31a0f-8d45-4c70-b9a1-624e6b073631,873a7a86-2dae-442f-af4c-f4a1e60d455e,59fbd428-57dc-404d-9c6a-ac2cae2dbe1a,2fd33853-ad51-4c60-84c5-37a62e0d558c,2020-02-08 19:43:26,1.000000
47,a314ac6a-637b-4bf6-b0fb-77b1f56ec64a,f49bd13d-4a8c-48e5-9494-4c7ac513fd1e,65f5f654-78ae-4a48-9407-6756ba6b3c83,66ce5fb5-f949-4fb0-8576-e1d943d48998,2020-02-08 19:44:29,1.000000
48,c4f8c466-915c-469c-a4de-b3e7e12f909b,6505ee4c-d5e0-46a0-bf88-f358a41dd3bf,344d3ddd-2d37-40bd-9fbb-029a3f665278,0c0d4918-244a-4317-a2e2-faaa60242651,2020-02-08 19:45:32,2.000000
49,b234d5f5-437d-40dc-a4ad-dc424b86a798,ef59f3b5-f77f-4338-a4f8-b6fdf9e5fd6f,aed45f86-dcdc-438a-923a-d491974f2275,9f3b1856-c67a-4a85-9859-1e30c1540143,2020-02-08 19:46:35,1.000000
50,52b30b7a-e8dc-4a86-ade7-b9c3addc6b51,80676c2f-f7bd-4d14-bf2e-34d57893446e,d7f8bc72-133d-4c74-80be-74601b984a33,c7a954f5-769f-476a-af3c-9c601b922175,2020-02-08 19:47:38,2.000000
