node,ip,uuid
node-a8-199.grenoble.iot-lab.info,172.20.64.1,470477c6-6d32-4405-9dd2-ee1f566ac477
node-a8-200.grenoble.iot-lab.info,172.20.64.2,41216232-c431-431c-a751-b9bfdff55838
node-a8-201.grenoble.iot-lab.info,172.20.64.3,edcba5b3-0828-4d03-9a7d-89594cf2b177
node-a8-202.grenoble.iot-lab.info,172.20.64.4,7074a53b-5024-42ba-bd2c-4bb3071b8f4f
node-a8-204.grenoble.iot-lab.info,172.20.64.5,5949c6b2-7d2c-477f-ab81-30de3f85130d
node-a8-205.grenoble.iot-lab.info,172.20.64.6,0e2a24fc-a46d-44b1-b7ce-8f265bd9f27c
node-a8-206.grenoble.iot-lab.info,172.20.64.7,eb3dfc1a-6061-4f23-a334-41da5540ca8f
node-a8-207.grenoble.iot-lab.info,172.20.64.8,6c45f0d7-d786-41a8-a544-d1e2cd06da30
node-a8-208.grenoble.iot-lab.info,172.20.64.9,870a7028-c45a-48fc-99fd-61f1502f80b2
node-a8-209.grenoble.iot-lab.info,172.20.64.10,faae3587-4f61-4763-8d11-8ebb0c48812d
node-a8-210.grenoble.iot-lab.info,172.20.64.11,04191c0e-7284-4476-86f3-e5981b4021c6
node-a8-211.grenoble.iot-lab.info,172.20.64.12,f46247b4-26e9-458d-a2fc-1dc4d34bc25d
node-a8-212.grenoble.iot-lab.info,172.20.64.13,e1910667-b723-4a50-9ead-ee633706741b
node-a8-214.grenoble.iot-lab.info,172.20.64.14,ab8872d8-faf3-4085-a55b-caaa211fa669
node-a8-216.grenoble.iot-lab.info,172.20.64.15,3ef6b120-22f4-4754-a054-f23996a962e0
node-a8-217.grenoble.iot-lab.info,172.20.64.16,67a8fef8-4fd1-40b2-b92d-d047dd8f9c99
node-a8-218.grenoble.iot-lab.info,172.20.64.17,f17b2b98-49e6-4a5c-aaa2-6bf0e047411f
node-a8-219.grenoble.iot-lab.info,172.20.64.18,131c0b7a-6d5c-444e-86c4-72ce5adda26d
node-a8-220.grenoble.iot-lab.info,172.20.64.19,3ccdac04-c944-4115-8ac7-ea9ba2e627e8
node-a8-221.grenoble.iot-lab.info,172.20.64.20,b4b304e7-5bca-49f6-8595-ff45b3572cfc
node-a8-165.grenoble.iot-lab.info,172.20.64.21,4909bb1c-6428-4503-9a92-7862f65c7cde
node-a8-166.grenoble.iot-lab.info,172.20.64.22,90add923-8127-4202-95a3-baf33a53a825
node-a8-167.grenoble.iot-lab.info,172.20.64.23,5c6ec966-14b5-4ca3-9433-d8ad5e3912a5
node-a8-168.grenoble.iot-lab.info,172.20.64.24,a789a7ad-05c3-4d70-9ff5-497429d29860
node-a8-169.grenoble.iot-lab.info,172.20.64.25,3af952bd-4c03-4917-8f8c-589934d0f878
node-a8-170.grenoble.iot-lab.info,172.20.64.26,be4265ea-1bfc-4735-b864-526909d175cf
node-a8-171.grenoble.iot-lab.info,172.20.64.27,9df878fa-78cd-4dc6-9e38-caa3a4dab421
node-a8-173.grenoble.iot-lab.info,172.20.64.28,4dc38230-bfc3-4995-b8ef-bf567e356500
node-a8-174.grenoble.iot-lab.info,172.20.64.29,a388c0a5-e567-4c8d-8c99-1dfed097a6c4
node-a8-175.grenoble.iot-lab.info,172.20.64.30,0f49b766-486b-4a32-843a-b18cf277c61c
node-a8-176.grenoble.iot-lab.info,172.20.64.31,aa7e538f-4468-4c3d-9dc1-1bd5a37a66d1
node-a8-177.grenoble.iot-lab.info,172.20.64.32,a9a5bd19-6224-4a32-b606-33b329e25a20
node-a8-179.grenoble.iot-lab.info,172.20.64.33,aa82351c-2e78-4a0d-a449-10a60bbe5880
node-a8-180.grenoble.iot-lab.info,172.20.64.34,44b536b4-88fc-455d-b6ff-a8edfe302ccf
node-a8-181.grenoble.iot-lab.info,172.20.64.35,1490ca32-c3ca-4b9b-8e1a-2cd9ef6da176
node-a8-182.grenoble.iot-lab.info,172.20.64.36,12cf0ca1-87f0-40c7-b113-412cec44a7b8
node-a8-183.grenoble.iot-lab.info,172.20.64.37,9062b16e-3f93-46cd-8966-663110c95caa
node-a8-184.grenoble.iot-lab.info,172.20.64.38,58efc703-60da-4110-bdca-20dadb503b21
node-a8-185.grenoble.iot-lab.info,172.20.64.39,52dedfe5-0570-4aa8-8371-fe9667fee9ff
node-a8-187.grenoble.iot-lab.info,172.20.64.40,79bca62b-f782-4e7e-866c-79c5e6378dce
node-a8-188.grenoble.iot-lab.info,172.20.64.41,603040f9-0fe1-4e4e-8a50-d30194914517
node-a8-189.grenoble.iot-lab.info,172.20.64.42,2ad9ad09-4b5b-4f48-85ee-26e01afa4bfd
node-a8-190.grenoble.iot-lab.info,172.20.64.43,9021f9a1-5646-403d-8924-4f785d2e981c
node-a8-191.grenoble.iot-lab.info,172.20.64.44,2019a641-358b-4f60-960a-ed004cd86a2e
node-a8-192.grenoble.iot-lab.info,172.20.64.45,4ac511fd-9d11-4bab-8a5f-1ad36b173850
node-a8-193.grenoble.iot-lab.info,172.20.64.46,a1e5eee9-7bdd-45f2-89dc-6edd051e7b5d
node-a8-194.grenoble.iot-lab.info,172.20.64.47,98d57b5a-6cde-4611-b377-15790a11623d
node-a8-195.grenoble.iot-lab.info,172.20.64.48,1145217d-c533-44f9-8bc6-87e5843b5f0e
node-a8-197.grenoble.iot-lab.info,172.20.64.49,2ce26f96-ee2e-4743-add8-f9d6e1d6f863
node-a8-198.grenoble.iot-lab.info,172.20.64.50,1fdc57bf-4def-4d5c-b1a3-05d3e15769f8
paravance-8.rennes.grid5000.fr,172.16.96.8,6b9e6c0e-1b81-4a23-99f6-795da8084d52
paravance-72.rennes.grid5000.fr,172.16.96.72,7f2c4dad-5952-4e93-bdc3-65e8c042e4f7
paravance-71.rennes.grid5000.fr,172.16.96.71,875027a1-19b4-4d06-a774-fe3ce6bf5b46
paravance-70.rennes.grid5000.fr,172.16.96.70,28b633a9-5e7c-4690-a92f-dc4844810160
paravance-7.rennes.grid5000.fr,172.16.96.7,8aeb4070-559d-4a3d-b066-1743e7429b3a
paravance-69.rennes.grid5000.fr,172.16.96.69,99fc4596-f289-4478-b75c-362b9bb2e17e
paravance-64.rennes.grid5000.fr,172.16.96.64,44f76944-0542-496d-bb60-9a0bb573634b
paravance-62.rennes.grid5000.fr,172.16.96.62,59260f20-2b98-4bbe-ae51-bc5c9182a16b
paravance-61.rennes.grid5000.fr,172.16.96.61,9e9f46fd-d6c2-4937-a0e4-8cdf19adfa60
paravance-60.rennes.grid5000.fr,172.16.96.60,f9a9fdef-9ddd-4fa5-88c6-087f80a34203
paravance-6.rennes.grid5000.fr,172.16.96.6,b6012833-aa35-4c63-b99e-6fdf807eba70
paravance-59.rennes.grid5000.fr,172.16.96.59,b28e5297-4d38-4ea2-9cbd-b8519ae5becf
paravance-58.rennes.grid5000.fr,172.16.96.58,de37d71c-167a-4ff5-a012-2746edb96452
paravance-57.rennes.grid5000.fr,172.16.96.57,35e88cf6-8af3-4b38-a177-8ea8ce56ec7a
paravance-56.rennes.grid5000.fr,172.16.96.56,ed8e9826-dd94-4ab1-b640-9621d82f7773
paravance-55.rennes.grid5000.fr,172.16.96.55,9678d0c7-ee59-4ddd-8deb-ddd995dd1691
