date,actor,success,from,to
2019-11-02 21:08:55,af9fe61f-9b53-458b-8076-82b06295baa8,1,1383dc2f-80bf-46d2-a294-b6adfeb4cbec,d070c573-46e2-4760-9603-0124c1e9483d
2019-11-02 21:08:55,e35b304f-7e66-404f-b0f7-a5d99ab64c6c,1,1383dc2f-80bf-46d2-a294-b6adfeb4cbec,d070c573-46e2-4760-9603-0124c1e9483d
2019-11-02 21:08:55,b5b3ab92-1421-4094-ba37-1f1cb6556358,1,1383dc2f-80bf-46d2-a294-b6adfeb4cbec,1e4f3c8f-bc19-4d3e-b20d-632bef90ec40
2019-11-02 21:09:58,bf2ccf49-a7ad-422a-b46a-3e13a84ccbb6,1,1383dc2f-80bf-46d2-a294-b6adfeb4cbec,9c791cab-eb49-4fb3-92bf-73fc5eacc225
2019-11-02 21:09:58,745228e3-235a-4d89-8ffa-77627fc7309a,1,1383dc2f-80bf-46d2-a294-b6adfeb4cbec,d070c573-46e2-4760-9603-0124c1e9483d
2019-11-02 21:09:58,a76b840d-dad3-4af9-8752-b23bc4ae30ec,1,1383dc2f-80bf-46d2-a294-b6adfeb4cbec,630e6c05-969c-45ee-b0ef-f1e75ee62fca
2019-11-02 21:11:02,d5f2d727-eca4-43bd-b3eb-4dfca9f89c51,1,1383dc2f-80bf-46d2-a294-b6adfeb4cbec,d070c573-46e2-4760-9603-0124c1e9483d
2019-11-02 21:11:02,3dbe6fcb-f289-433f-9e33-0809a4b15337,1,1383dc2f-80bf-46d2-a294-b6adfeb4cbec,630e6c05-969c-45ee-b0ef-f1e75ee62fca
2019-11-02 21:11:02,d812afb9-e6aa-48e9-96ec-b585767ec32d,1,1383dc2f-80bf-46d2-a294-b6adfeb4cbec,f58c8e16-cbee-47d3-b9f4-ffed825a7425
2019-11-02 21:12:06,5d080d52-3155-4859-8aff-d6f479a14673,1,1383dc2f-80bf-46d2-a294-b6adfeb4cbec,fe884641-c823-4b6e-9e7c-edd75e9c8bcb
2019-11-02 21:12:06,69cfa3f4-9c46-450c-afb9-4043b610281a,1,1383dc2f-80bf-46d2-a294-b6adfeb4cbec,4de155eb-ddf8-4ec1-899e-9fb2348da887
2019-11-02 21:12:06,c53b28db-82ba-4bca-80fd-489506a30f27,1,1383dc2f-80bf-46d2-a294-b6adfeb4cbec,5e68f4da-b45d-4111-9347-95b34964637f
2019-11-02 21:13:10,a491eb8a-b64b-4e56-b490-d678bd35731a,1,1383dc2f-80bf-46d2-a294-b6adfeb4cbec,b9920d0a-1218-4ae7-81d0-040adc25a32e
2019-11-02 21:13:10,9a1c5b66-902e-4fae-b8fb-9ad3da2a6cc4,1,1383dc2f-80bf-46d2-a294-b6adfeb4cbec,d8c55a1c-16dd-41cc-aa1f-41615e09d0b0
2019-11-02 21:13:10,341c2d92-9587-443c-8ca1-6d10fdab3ff1,1,1383dc2f-80bf-46d2-a294-b6adfeb4cbec,b9920d0a-1218-4ae7-81d0-040adc25a32e
2019-11-02 21:14:13,eaf1ecb8-06e8-4b1e-aa7b-f98d9544d587,1,1383dc2f-80bf-46d2-a294-b6adfeb4cbec,7a8d31a0-bbbd-4cae-9f43-d024dd2afac2
2019-11-02 21:14:13,52f502a6-400d-4ac5-be4a-ef3727181c70,1,1383dc2f-80bf-46d2-a294-b6adfeb4cbec,95c349f2-c8f0-4c78-9699-4546752ff354
2019-11-02 21:14:13,c60df566-1c2e-482d-a1d7-11edc50801e1,1,1383dc2f-80bf-46d2-a294-b6adfeb4cbec,95c349f2-c8f0-4c78-9699-4546752ff354
2019-11-02 21:15:17,2a4a32b5-c685-4529-ad2b-13e24f0ec27d,1,1383dc2f-80bf-46d2-a294-b6adfeb4cbec,b5764d29-9e9f-4eff-96c1-880f28870d96
2019-11-02 21:15:17,8d2f5b25-e206-4c72-8220-735477bdfce7,1,1383dc2f-80bf-46d2-a294-b6adfeb4cbec,b5764d29-9e9f-4eff-96c1-880f28870d96
2019-11-02 21:15:17,f94a7a7c-56a3-4f4a-9d61-4bcc8a645ab1,1,1383dc2f-80bf-46d2-a294-b6adfeb4cbec,b1f20a35-7896-41f3-9540-43f9530df53a
2019-11-02 21:16:21,03ba98e4-6b91-49da-8f60-7863e3da8403,1,1383dc2f-80bf-46d2-a294-b6adfeb4cbec,caea3749-662f-453a-9256-7cf85a3bff01
2019-11-02 21:16:21,a8687431-d49c-497a-ac21-e7c1d4caa074,1,1383dc2f-80bf-46d2-a294-b6adfeb4cbec,7a9bdc48-9771-49d9-9903-cdfb2ef80c93
2019-11-02 21:16:21,47f67017-e30a-4d12-991d-ebd34a5c1155,1,1383dc2f-80bf-46d2-a294-b6adfeb4cbec,7a9bdc48-9771-49d9-9903-cdfb2ef80c93
2019-11-02 21:17:25,a178a4f7-0445-4599-98a7-e4ca15fc1bdc,1,1383dc2f-80bf-46d2-a294-b6adfeb4cbec,1c3a4fb0-30f1-4162-8e3b-c5ae8ad2f650
2019-11-02 21:17:25,66aae9c4-e341-4b06-87ab-d2506570e00c,1,1383dc2f-80bf-46d2-a294-b6adfeb4cbec,736dcc56-e801-4db8-b857-a17d32213ae6
2019-11-02 21:17:25,b4ba3208-12e5-4e01-8ac1-70f371c3e16d,1,1383dc2f-80bf-46d2-a294-b6adfeb4cbec,1c3a4fb0-30f1-4162-8e3b-c5ae8ad2f650
2019-11-02 21:18:29,eca98f70-5521-4484-bc63-673aa64c4cbd,1,1383dc2f-80bf-46d2-a294-b6adfeb4cbec,7279ed63-7ec6-4670-881a-94c1bf8cd499
2019-11-02 21:18:29,3c5a5c78-3a56-4f4f-9507-f51fdbdc9b36,1,1383dc2f-80bf-46d2-a294-b6adfeb4cbec,73bbd45d-c12d-49a9-b42d-a20444881cc3
2019-11-02 21:18:29,86340c38-4796-46d5-ac92-d132b4f33e7e,1,1383dc2f-80bf-46d2-a294-b6adfeb4cbec,73bbd45d-c12d-49a9-b42d-a20444881cc3
2019-11-02 21:19:32,a0d7802e-9c88-424c-bd14-dabe6d00b568,1,1383dc2f-80bf-46d2-a294-b6adfeb4cbec,8ecacbb3-3d66-430e-82d0-8cfa34c55a78
2019-11-02 21:19:32,70c0eb72-f800-4f7b-b29b-3969ded9634e,1,1383dc2f-80bf-46d2-a294-b6adfeb4cbec,c1ac9bba-a24e-40a3-9459-60a8f1079796
2019-11-02 21:19:32,d7c38379-226b-49d8-b2d6-3aa7b50ab7c5,1,1383dc2f-80bf-46d2-a294-b6adfeb4cbec,c1ac9bba-a24e-40a3-9459-60a8f1079796
2019-11-02 21:20:36,d8b08733-c693-496a-8400-e0cebf8c87b9,1,1383dc2f-80bf-46d2-a294-b6adfeb4cbec,b0c67b60-0cf9-44f5-9dd4-795d8cbd8dd9
2019-11-02 21:20:36,29538ff1-262e-487b-b170-4cf948a5b734,1,1383dc2f-80bf-46d2-a294-b6adfeb4cbec,b0c67b60-0cf9-44f5-9dd4-795d8cbd8dd9
2019-11-02 21:20:36,16992ecf-b9d9-48e4-85f8-db2812053f60,1,1383dc2f-80bf-46d2-a294-b6adfeb4cbec,4308b8f5-25a7-48be-bfec-d04bd8dc190a
2019-11-02 21:21:40,da01a59a-2f63-48be-adf4-35a7023119b8,1,1383dc2f-80bf-46d2-a294-b6adfeb4cbec,a1bb7d23-bffe-4d02-b482-e536a8e3816f
2019-11-02 21:21:40,82d857c5-fa08-4627-b3c4-6f944a8d0101,1,1383dc2f-80bf-46d2-a294-b6adfeb4cbec,1c3a4fb0-30f1-4162-8e3b-c5ae8ad2f650
2019-11-02 21:21:40,53c4d8c7-fc3d-4119-b311-6de41af13ac2,1,1383dc2f-80bf-46d2-a294-b6adfeb4cbec,1c3a4fb0-30f1-4162-8e3b-c5ae8ad2f650
2019-11-02 21:22:44,c71c86bc-3394-4f70-8c61-3baf86a10f3e,1,1383dc2f-80bf-46d2-a294-b6adfeb4cbec,d32d0e2b-d757-4482-b7b3-86c1d4517347
2019-11-02 21:22:44,71e8aeb5-c43e-42f0-9fa7-5bf3fce3f887,1,1383dc2f-80bf-46d2-a294-b6adfeb4cbec,c1ac9bba-a24e-40a3-9459-60a8f1079796
2019-11-02 21:22:44,6b40f22f-f04d-44fe-ae4e-d1421596276a,1,1383dc2f-80bf-46d2-a294-b6adfeb4cbec,41383d68-7d35-406b-9b31-549f61d00cb2
2019-11-02 21:23:48,8de20f41-ddeb-4479-9345-7aa33f97233d,1,1383dc2f-80bf-46d2-a294-b6adfeb4cbec,630e6c05-969c-45ee-b0ef-f1e75ee62fca
2019-11-02 21:23:48,f870e8c3-5940-4ac8-a145-01895ea72623,1,1383dc2f-80bf-46d2-a294-b6adfeb4cbec,b71c114f-7612-4003-ad4a-c4c1809e23c7
2019-11-02 21:23:48,f26a133b-1dff-4162-9c4e-6bcd4389f377,1,1383dc2f-80bf-46d2-a294-b6adfeb4cbec,d070c573-46e2-4760-9603-0124c1e9483d
2019-11-02 21:24:52,2a108d79-8dc2-44b7-9065-639807e617d0,1,1383dc2f-80bf-46d2-a294-b6adfeb4cbec,5e68f4da-b45d-4111-9347-95b34964637f
2019-11-02 21:24:52,906f1c79-bf17-4f29-a2f2-5ca04be8e075,1,1383dc2f-80bf-46d2-a294-b6adfeb4cbec,5e68f4da-b45d-4111-9347-95b34964637f
2019-11-02 21:24:52,2eee3d54-d345-46ea-bb6e-1c539d303199,1,1383dc2f-80bf-46d2-a294-b6adfeb4cbec,dfc05638-7a28-4967-890e-297631252133
2019-11-02 21:25:55,8a64e7ea-cc4b-4ab3-a656-66cb4258aca5,1,1383dc2f-80bf-46d2-a294-b6adfeb4cbec,b5764d29-9e9f-4eff-96c1-880f28870d96
2019-11-02 21:25:55,6b9050ea-fced-4d4c-beef-54fcbabc3487,1,1383dc2f-80bf-46d2-a294-b6adfeb4cbec,009574ed-4e9a-41c0-b472-22f040b707d1
2019-11-02 21:25:55,074f3748-084a-4196-adc9-44f59c1224dd,1,1383dc2f-80bf-46d2-a294-b6adfeb4cbec,b5764d29-9e9f-4eff-96c1-880f28870d96
2019-11-02 21:26:59,d8050192-7792-4a5f-aaa4-b71bb4ae31fb,1,1383dc2f-80bf-46d2-a294-b6adfeb4cbec,1e9c0789-df87-4635-9b79-9e9230f34d5d
2019-11-02 21:26:59,03bee3c3-7d4a-428b-8340-b06c3afca4cb,1,1383dc2f-80bf-46d2-a294-b6adfeb4cbec,630e6c05-969c-45ee-b0ef-f1e75ee62fca
2019-11-02 21:26:59,19ce9121-3c58-4ea1-ba8e-6a903847dab3,1,1383dc2f-80bf-46d2-a294-b6adfeb4cbec,630e6c05-969c-45ee-b0ef-f1e75ee62fca
2019-11-02 21:28:03,faff0148-2b57-4b38-8455-5c27e65891b7,1,1383dc2f-80bf-46d2-a294-b6adfeb4cbec,51e85dec-3f68-4966-bf46-cd9e62ebd5a5
2019-11-02 21:28:03,895b1780-b26e-42fa-9dba-7f5b706d2c55,1,1383dc2f-80bf-46d2-a294-b6adfeb4cbec,b9920d0a-1218-4ae7-81d0-040adc25a32e
2019-11-02 21:28:03,69d15d1d-8d75-43e0-9e86-5e9cb3171056,1,1383dc2f-80bf-46d2-a294-b6adfeb4cbec,b9920d0a-1218-4ae7-81d0-040adc25a32e
2019-11-02 21:29:07,11617fd7-3ba8-4906-8fa7-fd711deb048a,1,1383dc2f-80bf-46d2-a294-b6adfeb4cbec,b0c67b60-0cf9-44f5-9dd4-795d8cbd8dd9
2019-11-02 21:29:07,571c98f7-7e62-43ba-b26e-ad6dde7b47f3,1,1383dc2f-80bf-46d2-a294-b6adfeb4cbec,8b0e2fb2-151c-4a2c-a161-19a72db63eb2
2019-11-02 21:29:07,79ee4880-2859-48bc-ab4e-fa3223095c82,1,1383dc2f-80bf-46d2-a294-b6adfeb4cbec,b0c67b60-0cf9-44f5-9dd4-795d8cbd8dd9
2019-11-02 21:30:10,0a20f9f8-4ff0-43ae-8b1c-2b74b2df6493,1,1383dc2f-80bf-46d2-a294-b6adfeb4cbec,41383d68-7d35-406b-9b31-549f61d00cb2
2019-11-02 21:30:10,b33270ca-ef1d-4469-9dd9-ae011f72b2dd,1,1383dc2f-80bf-46d2-a294-b6adfeb4cbec,1942bb38-ad62-45bf-b781-35a19753977b
2019-11-02 21:30:10,fe5122f1-3211-48de-a1e9-162659d28d5a,1,1383dc2f-80bf-46d2-a294-b6adfeb4cbec,41383d68-7d35-406b-9b31-549f61d00cb2
2019-11-02 21:31:14,4a138687-11e7-4bde-accf-a1027e1e484b,1,1383dc2f-80bf-46d2-a294-b6adfeb4cbec,fe884641-c823-4b6e-9e7c-edd75e9c8bcb
2019-11-02 21:31:14,7de9b64d-14e2-4dde-8253-e789a4826cd1,1,1383dc2f-80bf-46d2-a294-b6adfeb4cbec,faddcbe9-13d1-42d3-a458-7247e4173b06
2019-11-02 21:31:14,02a82f8b-fda9-4795-b812-85466683ca79,1,1383dc2f-80bf-46d2-a294-b6adfeb4cbec,fe884641-c823-4b6e-9e7c-edd75e9c8bcb
2019-11-02 21:32:18,b8d96198-7136-40b9-b81e-98ec44c2743e,1,1383dc2f-80bf-46d2-a294-b6adfeb4cbec,eb3df129-e910-4327-9c82-56066dcf9010
2019-11-02 21:32:18,bb5b4fd3-6042-4932-9287-6de2b1ab2c70,1,1383dc2f-80bf-46d2-a294-b6adfeb4cbec,67bb5878-19d6-4e0d-9915-3d1d421b3c5d
2019-11-02 21:32:18,de0598d1-7fcd-469f-b8dc-23aebb9079dc,1,1383dc2f-80bf-46d2-a294-b6adfeb4cbec,eb3df129-e910-4327-9c82-56066dcf9010
2019-11-02 21:33:22,deeb6e72-17b6-4e7d-9630-39500a3f58cc,1,1383dc2f-80bf-46d2-a294-b6adfeb4cbec,b5764d29-9e9f-4eff-96c1-880f28870d96
2019-11-02 21:33:22,d405aa30-9f7e-48b4-93c3-1473670b7068,1,1383dc2f-80bf-46d2-a294-b6adfeb4cbec,b5764d29-9e9f-4eff-96c1-880f28870d96
2019-11-02 21:33:22,7613be60-1743-440b-b1c8-4b00a6b667bd,1,1383dc2f-80bf-46d2-a294-b6adfeb4cbec,4f519945-12ec-4f31-a2e1-8a9df460927b
2019-11-02 21:34:26,8cbcdf84-154a-4547-b2db-9f0c5612942d,1,1383dc2f-80bf-46d2-a294-b6adfeb4cbec,b0c67b60-0cf9-44f5-9dd4-795d8cbd8dd9
2019-11-02 21:34:26,6651d3f6-3db5-461c-a6b4-2202fcd9b4d3,1,1383dc2f-80bf-46d2-a294-b6adfeb4cbec,b0c67b60-0cf9-44f5-9dd4-795d8cbd8dd9
2019-11-02 21:34:26,dd8d1f0d-8e95-48eb-9c5b-c87efaba8be7,1,1383dc2f-80bf-46d2-a294-b6adfeb4cbec,a6804ffc-1a35-4b3e-9cd7-0006fb68365e
2019-11-02 21:38:18,53c4d8c7-fc3d-4119-b311-6de41af13ac2,1,1383dc2f-80bf-46d2-a294-b6adfeb4cbec,630e6c05-969c-45ee-b0ef-f1e75ee62fca
2019-11-02 21:55:28,0a20f9f8-4ff0-43ae-8b1c-2b74b2df6493,1,1383dc2f-80bf-46d2-a294-b6adfeb4cbec,1c3a4fb0-30f1-4162-8e3b-c5ae8ad2f650
2019-11-02 21:28:27,c53b28db-82ba-4bca-80fd-489506a30f27,1,eb3df129-e910-4327-9c82-56066dcf9010,c1ac9bba-a24e-40a3-9459-60a8f1079796
2019-11-02 21:28:27,8a64e7ea-cc4b-4ab3-a656-66cb4258aca5,1,eb3df129-e910-4327-9c82-56066dcf9010,b5764d29-9e9f-4eff-96c1-880f28870d96
2019-11-02 21:48:28,0a20f9f8-4ff0-43ae-8b1c-2b74b2df6493,1,eb3df129-e910-4327-9c82-56066dcf9010,1383dc2f-80bf-46d2-a294-b6adfeb4cbec
2019-11-02 21:48:28,02a82f8b-fda9-4795-b812-85466683ca79,1,eb3df129-e910-4327-9c82-56066dcf9010,fe884641-c823-4b6e-9e7c-edd75e9c8bcb
2019-11-02 21:50:50,b8d96198-7136-40b9-b81e-98ec44c2743e,1,eb3df129-e910-4327-9c82-56066dcf9010,73bbd45d-c12d-49a9-b42d-a20444881cc3
2019-11-02 21:16:56,341c2d92-9587-443c-8ca1-6d10fdab3ff1,1,41383d68-7d35-406b-9b31-549f61d00cb2,95c349f2-c8f0-4c78-9699-4546752ff354
2019-11-02 21:16:56,52f502a6-400d-4ac5-be4a-ef3727181c70,1,41383d68-7d35-406b-9b31-549f61d00cb2,d070c573-46e2-4760-9603-0124c1e9483d
2019-11-02 21:36:55,0a20f9f8-4ff0-43ae-8b1c-2b74b2df6493,1,41383d68-7d35-406b-9b31-549f61d00cb2,1c3a4fb0-30f1-4162-8e3b-c5ae8ad2f650
2019-11-02 21:26:26,53c4d8c7-fc3d-4119-b311-6de41af13ac2,1,1c3a4fb0-30f1-4162-8e3b-c5ae8ad2f650,805ba59a-7329-4488-b2f4-a93c337d376f
2019-11-02 21:27:17,b4ba3208-12e5-4e01-8ac1-70f371c3e16d,1,1c3a4fb0-30f1-4162-8e3b-c5ae8ad2f650,630e6c05-969c-45ee-b0ef-f1e75ee62fca
2019-11-02 21:37:08,86340c38-4796-46d5-ac92-d132b4f33e7e,1,1c3a4fb0-30f1-4162-8e3b-c5ae8ad2f650,73bbd45d-c12d-49a9-b42d-a20444881cc3
2019-11-02 21:39:31,0a20f9f8-4ff0-43ae-8b1c-2b74b2df6493,1,1c3a4fb0-30f1-4162-8e3b-c5ae8ad2f650,5e68f4da-b45d-4111-9347-95b34964637f
2019-11-02 21:39:31,d7c38379-226b-49d8-b2d6-3aa7b50ab7c5,1,1c3a4fb0-30f1-4162-8e3b-c5ae8ad2f650,41383d68-7d35-406b-9b31-549f61d00cb2
2019-11-02 21:16:56,a8687431-d49c-497a-ac21-e7c1d4caa074,1,7a9bdc48-9771-49d9-9903-cdfb2ef80c93,805ba59a-7329-4488-b2f4-a93c337d376f
2019-11-02 21:48:13,02a82f8b-fda9-4795-b812-85466683ca79,1,fe884641-c823-4b6e-9e7c-edd75e9c8bcb,eb3df129-e910-4327-9c82-56066dcf9010
2019-11-02 22:21:15,8de20f41-ddeb-4479-9345-7aa33f97233d,1,fe884641-c823-4b6e-9e7c-edd75e9c8bcb,c1ac9bba-a24e-40a3-9459-60a8f1079796
2019-11-02 22:26:09,2a108d79-8dc2-44b7-9065-639807e617d0,1,fe884641-c823-4b6e-9e7c-edd75e9c8bcb,d070c573-46e2-4760-9603-0124c1e9483d
2019-11-02 21:22:31,d8b08733-c693-496a-8400-e0cebf8c87b9,1,b0c67b60-0cf9-44f5-9dd4-795d8cbd8dd9,c1ac9bba-a24e-40a3-9459-60a8f1079796
2019-11-02 21:41:02,8cbcdf84-154a-4547-b2db-9f0c5612942d,1,b0c67b60-0cf9-44f5-9dd4-795d8cbd8dd9,73bbd45d-c12d-49a9-b42d-a20444881cc3
2019-11-02 21:41:52,11617fd7-3ba8-4906-8fa7-fd711deb048a,1,b0c67b60-0cf9-44f5-9dd4-795d8cbd8dd9,d070c573-46e2-4760-9603-0124c1e9483d
2019-11-02 21:13:42,e35b304f-7e66-404f-b0f7-a5d99ab64c6c,1,d070c573-46e2-4760-9603-0124c1e9483d,95c349f2-c8f0-4c78-9699-4546752ff354
2019-11-02 21:40:42,52f502a6-400d-4ac5-be4a-ef3727181c70,1,d070c573-46e2-4760-9603-0124c1e9483d,b0c67b60-0cf9-44f5-9dd4-795d8cbd8dd9
2019-11-02 22:23:13,71e8aeb5-c43e-42f0-9fa7-5bf3fce3f887,1,d070c573-46e2-4760-9603-0124c1e9483d,5e68f4da-b45d-4111-9347-95b34964637f
2019-11-02 22:23:14,b8d96198-7136-40b9-b81e-98ec44c2743e,1,d070c573-46e2-4760-9603-0124c1e9483d,630e6c05-969c-45ee-b0ef-f1e75ee62fca
2019-11-02 21:16:41,341c2d92-9587-443c-8ca1-6d10fdab3ff1,1,b9920d0a-1218-4ae7-81d0-040adc25a32e,41383d68-7d35-406b-9b31-549f61d00cb2
2019-11-02 21:34:40,69d15d1d-8d75-43e0-9e86-5e9cb3171056,1,b9920d0a-1218-4ae7-81d0-040adc25a32e,b5764d29-9e9f-4eff-96c1-880f28870d96
2019-11-02 21:27:52,8a64e7ea-cc4b-4ab3-a656-66cb4258aca5,1,b5764d29-9e9f-4eff-96c1-880f28870d96,805ba59a-7329-4488-b2f4-a93c337d376f
2019-11-02 21:29:08,2a4a32b5-c685-4529-ad2b-13e24f0ec27d,1,b5764d29-9e9f-4eff-96c1-880f28870d96,7a9bdc48-9771-49d9-9903-cdfb2ef80c93
2019-11-02 21:41:49,d405aa30-9f7e-48b4-93c3-1473670b7068,1,b5764d29-9e9f-4eff-96c1-880f28870d96,fe884641-c823-4b6e-9e7c-edd75e9c8bcb
2019-11-02 21:20:46,d7c38379-226b-49d8-b2d6-3aa7b50ab7c5,1,c1ac9bba-a24e-40a3-9459-60a8f1079796,630e6c05-969c-45ee-b0ef-f1e75ee62fca
2019-11-02 21:24:47,71e8aeb5-c43e-42f0-9fa7-5bf3fce3f887,1,c1ac9bba-a24e-40a3-9459-60a8f1079796,5e68f4da-b45d-4111-9347-95b34964637f
2019-11-02 21:28:43,c53b28db-82ba-4bca-80fd-489506a30f27,1,c1ac9bba-a24e-40a3-9459-60a8f1079796,630e6c05-969c-45ee-b0ef-f1e75ee62fca
2019-11-02 21:28:43,53c4d8c7-fc3d-4119-b311-6de41af13ac2,1,c1ac9bba-a24e-40a3-9459-60a8f1079796,805ba59a-7329-4488-b2f4-a93c337d376f
2019-11-02 21:15:31,52f502a6-400d-4ac5-be4a-ef3727181c70,1,95c349f2-c8f0-4c78-9699-4546752ff354,41383d68-7d35-406b-9b31-549f61d00cb2
2019-11-02 21:14:56,c53b28db-82ba-4bca-80fd-489506a30f27,1,5e68f4da-b45d-4111-9347-95b34964637f,eb3df129-e910-4327-9c82-56066dcf9010
2019-11-02 21:25:17,2a108d79-8dc2-44b7-9065-639807e617d0,1,5e68f4da-b45d-4111-9347-95b34964637f,fe884641-c823-4b6e-9e7c-edd75e9c8bcb
2019-11-02 21:32:41,53c4d8c7-fc3d-4119-b311-6de41af13ac2,1,5e68f4da-b45d-4111-9347-95b34964637f,1383dc2f-80bf-46d2-a294-b6adfeb4cbec
2019-11-02 21:39:46,71e8aeb5-c43e-42f0-9fa7-5bf3fce3f887,1,5e68f4da-b45d-4111-9347-95b34964637f,d070c573-46e2-4760-9603-0124c1e9483d
2019-11-02 21:39:46,0a20f9f8-4ff0-43ae-8b1c-2b74b2df6493,1,5e68f4da-b45d-4111-9347-95b34964637f,805ba59a-7329-4488-b2f4-a93c337d376f
2019-11-02 21:18:55,86340c38-4796-46d5-ac92-d132b4f33e7e,1,73bbd45d-c12d-49a9-b42d-a20444881cc3,805ba59a-7329-4488-b2f4-a93c337d376f
2019-11-02 22:22:59,b8d96198-7136-40b9-b81e-98ec44c2743e,1,73bbd45d-c12d-49a9-b42d-a20444881cc3,d070c573-46e2-4760-9603-0124c1e9483d
2019-11-02 21:28:12,53c4d8c7-fc3d-4119-b311-6de41af13ac2,1,805ba59a-7329-4488-b2f4-a93c337d376f,c1ac9bba-a24e-40a3-9459-60a8f1079796
2019-11-02 21:28:13,8a64e7ea-cc4b-4ab3-a656-66cb4258aca5,1,805ba59a-7329-4488-b2f4-a93c337d376f,eb3df129-e910-4327-9c82-56066dcf9010
2019-11-02 21:29:17,86340c38-4796-46d5-ac92-d132b4f33e7e,1,805ba59a-7329-4488-b2f4-a93c337d376f,1c3a4fb0-30f1-4162-8e3b-c5ae8ad2f650
2019-11-02 21:29:18,53c4d8c7-fc3d-4119-b311-6de41af13ac2,1,805ba59a-7329-4488-b2f4-a93c337d376f,630e6c05-969c-45ee-b0ef-f1e75ee62fca
2019-11-02 21:41:48,0a20f9f8-4ff0-43ae-8b1c-2b74b2df6493,1,805ba59a-7329-4488-b2f4-a93c337d376f,eb3df129-e910-4327-9c82-56066dcf9010
2019-11-02 21:22:34,3dbe6fcb-f289-433f-9e33-0809a4b15337,1,630e6c05-969c-45ee-b0ef-f1e75ee62fca,c1ac9bba-a24e-40a3-9459-60a8f1079796
2019-11-02 21:27:11,8de20f41-ddeb-4479-9345-7aa33f97233d,1,630e6c05-969c-45ee-b0ef-f1e75ee62fca,fe884641-c823-4b6e-9e7c-edd75e9c8bcb
2019-11-02 21:29:23,a76b840d-dad3-4af9-8752-b23bc4ae30ec,1,630e6c05-969c-45ee-b0ef-f1e75ee62fca,1c3a4fb0-30f1-4162-8e3b-c5ae8ad2f650
2019-11-02 21:29:38,b4ba3208-12e5-4e01-8ac1-70f371c3e16d,1,630e6c05-969c-45ee-b0ef-f1e75ee62fca,b9920d0a-1218-4ae7-81d0-040adc25a32e
2019-11-02 21:31:15,53c4d8c7-fc3d-4119-b311-6de41af13ac2,1,630e6c05-969c-45ee-b0ef-f1e75ee62fca,5e68f4da-b45d-4111-9347-95b34964637f
2019-11-02 21:38:33,53c4d8c7-fc3d-4119-b311-6de41af13ac2,1,630e6c05-969c-45ee-b0ef-f1e75ee62fca,805ba59a-7329-4488-b2f4-a93c337d376f
2019-11-02 21:39:16,d7c38379-226b-49d8-b2d6-3aa7b50ab7c5,1,630e6c05-969c-45ee-b0ef-f1e75ee62fca,1c3a4fb0-30f1-4162-8e3b-c5ae8ad2f650
2019-11-02 21:48:28,03bee3c3-7d4a-428b-8340-b06c3afca4cb,1,630e6c05-969c-45ee-b0ef-f1e75ee62fca,41383d68-7d35-406b-9b31-549f61d00cb2
2019-11-02 22:24:13,c53b28db-82ba-4bca-80fd-489506a30f27,1,630e6c05-969c-45ee-b0ef-f1e75ee62fca,eb3df129-e910-4327-9c82-56066dcf9010
