actor,node
f77a97a4-19af-4e3b-a541-02dbc90d4af5,b1da3a1f-3ffd-4f2d-ac81-157eb4ef4eb4
10fc06ee-ac0b-499b-ad0f-06fb463132b4,757b73ce-c4fe-4f6a-9792-50ca7c076fed
8b5ef1e8-81f0-4667-abe5-6cdedfea32dc,e0f00c1d-4353-4377-9bdd-b9e30a6bfcf7
54448a4e-5731-4975-a024-359a0c87d681,02b2af87-efb8-429d-9d11-2f9d3144b006
3bd2a16d-077a-4942-97df-dab115f0e466,757b73ce-c4fe-4f6a-9792-50ca7c076fed
f0777703-0cc1-407c-a805-fa61a8f9a6db,757b73ce-c4fe-4f6a-9792-50ca7c076fed
e47e6f41-b012-45c3-9060-e429d7dbc4d9,9cd530f2-a1ca-4da7-b1f4-3e361f71fbc7
60f66983-2361-4587-936b-7775bdc9f289,f52a1ed1-af5f-4f53-9b76-94575c0542c4
2f789373-12cd-432e-b670-8f4f9d441b3d,9cd530f2-a1ca-4da7-b1f4-3e361f71fbc7
03cc8114-cbb0-4f0e-bec5-3bbc3f8244ef,3e2494ab-d4e1-4da8-b4ff-9aef74403171
882cf7b4-30fb-4037-b121-0352a9892608,3e2494ab-d4e1-4da8-b4ff-9aef74403171
434b1165-0de5-4ef2-bb81-1f4445328c9a,5280c97a-b903-40eb-91ce-c1aa1c254807
2895b4e7-d1d1-4d53-b9b7-d877ee766b9b,32af675b-3b65-40dd-9765-7826d3f02f50
cdfb487c-dd64-4a72-9716-43113aecc260,2afe58a0-9cdf-4785-9400-7ffcb17ada93
1b8be890-00fd-461c-9965-f71b36927286,2afe58a0-9cdf-4785-9400-7ffcb17ada93
fb1c7c44-7b9d-43d7-982a-a901c7c3d9fe,ebbcc431-faaa-4191-a339-09a30e2370f6
d228f460-3514-4ef4-aef9-ed8e9c3d0a7f,ebbcc431-faaa-4191-a339-09a30e2370f6
d9de9802-da2e-4a85-8c31-3d4a981d0307,17451750-55a5-4e5e-9e6f-c4f2f192b28d
d5118266-0ea5-4942-8728-ea068a004911,2afe58a0-9cdf-4785-9400-7ffcb17ada93
59a8a1a2-e115-4788-be1b-c53ed466fe51,2afe58a0-9cdf-4785-9400-7ffcb17ada93
73b21a09-8bad-4a9e-ab88-b29fe41ad528,234bf61e-b10a-46b3-84c6-c9ac67724f28
d52c9a08-8ecd-43e3-ad1b-1e340d99d95d,bd98ccaf-a2b3-4862-bcb0-ae04d865fa0d
c268f1f7-7a74-4bcc-a1d3-674170b13ab1,757b73ce-c4fe-4f6a-9792-50ca7c076fed
517d9b53-82c8-4f99-9906-e5ad737275de,757b73ce-c4fe-4f6a-9792-50ca7c076fed
9b219dff-2547-4d58-9991-270b720589dd,9cd530f2-a1ca-4da7-b1f4-3e361f71fbc7
8a384548-74ee-4052-aa9d-296b80b8b52f,9ef2c08c-476d-4c1a-8026-f7f8fdc5e84c
e4e6cd54-b25b-44f4-8919-8efa6acf9de3,46847f49-c520-4a3c-b363-6c630e963c3a
7ff94e59-db31-43a1-a105-db5628c558b1,a7a41564-84de-4ef4-aaab-d02d38d3487b
81483b8f-efdb-423c-9190-2e7258cfd9cc,9cd530f2-a1ca-4da7-b1f4-3e361f71fbc7
d5406649-ea41-4676-8916-44dc0317ad8e,277dda01-5ad9-459b-a3cb-6e2a3f7b944c
836b6820-6edd-4fea-a807-2d6ad8511067,3218a226-10db-4755-8742-e19e845f013b
59b5326e-e6f1-4998-b1c7-2b901e977f38,277dda01-5ad9-459b-a3cb-6e2a3f7b944c
9db339b5-023d-4d88-bbf7-0aaa58a452d2,277dda01-5ad9-459b-a3cb-6e2a3f7b944c
fcea0ba9-7fdc-48ce-9a55-f15515e46610,9cd530f2-a1ca-4da7-b1f4-3e361f71fbc7
fe096029-1f25-4017-84ed-107b05c3ac8c,9cd530f2-a1ca-4da7-b1f4-3e361f71fbc7
dd4bff81-337e-4bb8-9acf-b55e672f122d,0135970a-da22-46fb-ac87-6c6b7c301ea6
5eab9287-f983-4215-84ed-ef98fc167f3e,e0f00c1d-4353-4377-9bdd-b9e30a6bfcf7
21d6819d-4d39-46dd-8c83-2fa567e44eea,fa5ee38a-6894-4cc6-83d5-aac16e493aef
e68b5c21-f227-41b5-85a9-147e10f71d83,e0f00c1d-4353-4377-9bdd-b9e30a6bfcf7
671bab86-2c22-411c-8882-93992ceddc2f,703c772a-abff-4396-8fcd-fdf76431b0d8
eb733de4-0f69-462a-ae31-c4a63e58985a,268a9bd3-afcb-4ef0-8bd2-925fd3164d1b
0aecbde8-66ae-4c30-a41a-62099231e626,703c772a-abff-4396-8fcd-fdf76431b0d8
02e6021b-8393-4d39-ac74-33cad64da053,703c772a-abff-4396-8fcd-fdf76431b0d8
f0ffa747-1b69-4b51-9a73-aa45f7abdf4f,703c772a-abff-4396-8fcd-fdf76431b0d8
4762f455-5623-4dd0-90d9-b8840446c603,70ec402b-ed30-4ce1-b412-6aeb9f92babd
e7723842-1489-4f4e-9471-3dabb000572d,f40078a1-8cdc-490a-916a-e52889516ab6
4711e77d-1660-47e4-8ccb-a98814b2d78b,f40078a1-8cdc-490a-916a-e52889516ab6
30435ec0-88b0-4e2e-921a-1002e8bfeead,1a5cc72d-17fb-4200-9088-b1e58c84a15c
ac6be5df-6257-4de9-8642-c2d6ff3cf356,81cdd5c9-7ab5-4669-9b89-bb8851228287
5999e499-9bc1-41df-b5f7-afd67bd5815f,f40078a1-8cdc-490a-916a-e52889516ab6
674ebb12-739f-4ae6-8a83-bafc634fc14e,f40078a1-8cdc-490a-916a-e52889516ab6
a4a15f3d-ae91-4f4d-a6d9-d8b669a83fac,d97d0cdb-886c-4d85-b187-20302411f8ed
1709bbfc-dcad-4ba0-9da8-021bb4307965,a7b0b36b-28fb-4c0a-96fe-2514916478fc
6e6c6d32-7c77-449d-9deb-5063d2d6d9f0,d97d0cdb-886c-4d85-b187-20302411f8ed
0787539d-26a2-4333-8d52-dc0c7ed115ba,46847f49-c520-4a3c-b363-6c630e963c3a
3802dd5c-8ea8-452e-900c-966f52790f62,9b128743-6d53-41bc-9131-819ec8e2fede
378eb7c8-dd62-4fb0-8868-2245df099308,46847f49-c520-4a3c-b363-6c630e963c3a
c728bd40-4c16-4fc1-8d2f-774e5c95a039,05ad3cc5-5bc3-4ddb-a68b-9cc6b282fd4f
2917b1d9-2177-49aa-bc43-97b0a0e1ce9c,05ad3cc5-5bc3-4ddb-a68b-9cc6b282fd4f
42e3906f-78ea-4e94-ac68-f3536e2f4e8a,c4381ce7-20be-45fd-9926-8608febec3b5
5cd56569-f807-47a5-bbce-a20d465648bc,a39eed1c-7b80-4a2b-b17a-364bd892136a
8c118102-49d4-444d-b71d-6f3bea62ce15,277dda01-5ad9-459b-a3cb-6e2a3f7b944c
3bf40d71-148e-450a-89ea-60a52c03264f,d97d0cdb-886c-4d85-b187-20302411f8ed
dac58d28-c11f-4002-9bc8-8647cca380c0,de99e591-b2a7-41bd-94c9-ff14b32dd0da
8a6ea00f-b84e-462d-a9c7-38bbcd47b3e2,8c3304aa-d5e6-4801-acb0-83f261e2375f
a2e4386b-b65e-4855-a95d-d598c2498331,de99e591-b2a7-41bd-94c9-ff14b32dd0da
075d1d07-5f8a-4951-bd40-7e0699ddea49,ef67198c-5cfa-467c-930d-936da483c32c
6483b592-6bc0-4b2f-b013-a4ec2078a920,de99e591-b2a7-41bd-94c9-ff14b32dd0da
aa0f61ec-35cb-4168-935f-f7937a8157f5,de99e591-b2a7-41bd-94c9-ff14b32dd0da
7f98fab0-8db5-4ff3-adb2-64ae27e1573f,05ad3cc5-5bc3-4ddb-a68b-9cc6b282fd4f
f1c0713d-59f9-437c-9979-731bb9aac222,48417eea-9c6e-4386-9342-e8e10f98e56a
d9406af8-ff3b-4a6c-a71d-6dc82a7d214c,05ad3cc5-5bc3-4ddb-a68b-9cc6b282fd4f
b373a2ba-16da-4d80-92a0-d1df3609fb27,277dda01-5ad9-459b-a3cb-6e2a3f7b944c
c07fb642-1332-4ab3-a1f5-91db5bc0d303,277dda01-5ad9-459b-a3cb-6e2a3f7b944c
187d95c9-fef1-425c-be2c-30a599a1f0b5,dc032810-abd3-43e5-a490-835d8f0a4a0e
