app_number,app_id,trigger,burn,sink,deploy_date,token_interval
1,d3d8f196-5846-40ce-89c4-9d825f773101,1b745d14-a1d4-4f3f-8cba-f34b25e940b7,042273c1-3699-4517-b768-b8dafc3d78f3,4c7d32c7-42f1-4bb1-afc3-bbe76bbf30cc,2019-09-13 06:27:47,1.000000
2,07d4ebfc-5acf-4fe6-ab00-4212d3efd62f,51d70e5f-29fe-4038-93c4-b0de490706ec,b8446426-3aa2-4664-b39c-fecc2fd92643,a8c6f00b-851b-43c6-8189-ddfa0617b2cc,2019-09-13 06:28:51,1.000000
3,65f68fba-1a4d-4523-909a-5648aa883fbf,a512fe68-bed3-4537-8f79-03c1d1c8e0b3,fa3cd464-648f-4276-9fea-97b57c17df37,03b24400-ed7f-41c6-8a55-0552ccc58ce5,2019-09-13 06:29:55,1.000000
4,dfea6216-2f5e-4ff5-bf90-c6658aa7f57e,ff30823a-1920-4d92-aad9-1bcc08cc9a30,9afe3415-b7ce-43fb-9b91-bb6be8f91abf,9fc86e9a-3c72-4e00-b6a4-7279e5510431,2019-09-13 06:30:58,0.200000
5,5203c0a0-04b6-4964-8b71-95ea18215775,6d255ad3-2bc1-4829-b23c-6ab142113348,24a9adcb-bab7-4b7f-b702-e86de963664f,01e775c3-6795-41f6-acfb-dfb84eba9169,2019-09-13 06:32:02,0.200000
6,e0c7ccf0-8a25-489a-ae54-9d1b5059bbb3,45a2aed0-dad3-4108-b8a7-55a13df695bc,c8838a7d-1712-43e8-98cb-b3e394e07e56,60b61cba-abb1-4da2-9b95-51843e2b7cb8,2019-09-13 06:33:06,0.200000
7,b569a43a-75de-4341-b4bf-4fa221c25b70,2cf54ea2-b1d6-49e6-b7c1-89a0b7dd7474,84ca18ed-22b5-4750-b5f4-476e78dc24cc,2c0f7920-296a-4d4a-ba5f-4cc20d52c883,2019-09-13 06:34:10,0.200000
8,2cc8a58f-1724-4efc-b3c1-6ecfe33475f8,99876f4d-4430-416b-bb46-6a1b9652a372,c4aea37f-e496-40f4-b82d-6cd9bacb6fa2,bd5ec4a5-0ea6-4bf4-9f75-1d9316ece0d6,2019-09-13 06:35:14,1.000000
9,f1c21c47-44a0-4abf-ba15-2ff392e2fda0,63d0a378-5997-4ec9-99bb-996b1b831334,12acad2b-1864-4629-8dc4-a25c5dff6601,16c96f77-1eee-48c8-86be-eefd13c658b1,2019-09-13 06:36:17,0.200000
10,85f04042-c22a-4618-86c9-5f9ec9cef2b1,43319cd0-8b60-4e37-9fee-3037aa67d2bc,fdd7b14b-d159-4b65-8ff2-2d1d3a2c8a65,8b17dee8-e181-4725-9745-e54ff2649800,2019-09-13 06:37:21,0.200000
11,0a03b7a4-4697-4ed8-a182-15c2fb1ba199,ab1d45b7-cff3-4d72-a4a7-6fa290e0e8cc,ac6f265c-91f7-4b1a-b5ef-3548660ad1fb,93023d04-7c80-40e6-9b8e-c2de0f94e490,2019-09-13 06:38:25,0.200000
12,140efbaf-8854-4e11-8b30-92d1dece35b1,c1e29c96-b5e8-4803-b9c2-74be6ce4d80d,2fc574b8-0702-47f2-a725-0dd8c2e9840f,42eb8981-4193-4dfc-85bb-6c6db9f0d324,2019-09-13 06:39:29,1.000000
13,36752875-771f-40e3-a1a7-a171351b3609,253d8b8e-43f1-499e-8032-e24071b08798,9a137cf6-457d-4813-8328-e62e7db57474,dfa47f58-a588-4b20-8ea2-d89d4d12bf1e,2019-09-13 06:40:33,0.200000
14,6ab2a4be-73d6-48a9-acad-697f13b41537,4a99abee-4579-4022-9563-83ea6cfe200c,8c9af29f-ce62-445c-bf06-4f7bb7c11cfa,f585e5f7-b8c7-4332-a449-828028d0ab48,2019-09-13 06:41:36,0.200000
15,6cdc6b16-b8e4-4976-80ac-d82b979610f8,39026f4f-c6e9-4724-b44a-c4374746b29f,ef4a5439-3c69-4d95-bf27-b2167b93b536,1f49da48-3e5d-4a5a-a681-4aa179ee6bbd,2019-09-13 06:42:39,1.000000
16,fac6a7f6-8851-4d19-a80a-a86045d48c32,8b65e81e-ac4a-4046-a7ee-c0937cab5352,e2770e0f-0901-43d1-9864-a74af1b25f59,b052e5d4-6719-4e56-b3c3-225dd5155513,2019-09-13 06:43:43,1.000000
17,93e3a351-664e-4748-ae0f-664192f0d31a,65624c84-c2d1-4bf0-811a-8216c1970c88,780621a4-b122-499a-9c33-a9e6b06647ea,6bb80d62-2a07-46c4-8d52-17db8b56a286,2019-09-13 06:44:47,0.200000
18,36b4ec06-4551-4c01-a131-039981943f24,5a091220-0b7d-46ad-9e53-c1bc9aa118a1,aa2de889-35b8-45f6-88a9-f691d6271211,d9c41918-1e39-463c-9cef-cfa3de6f785b,2019-09-13 06:45:51,1.000000
19,30da70aa-402a-42f8-96a6-55075e102be0,c25eb9a8-faa3-4c17-ab56-79e00aba71ae,67ddbc9c-a8bc-4506-b43c-cc814a5bad6c,89c59411-1925-4602-9267-0284de5f928b,2019-09-13 06:46:55,0.200000
20,6f087788-6dad-4e00-b594-5f3fc998430c,b93bbded-24d6-4f43-80c3-d1522109dc36,6bdd06df-1367-4498-93a2-4fad78f59e6f,ba733ebd-b023-4f29-bb57-bf0453ad64ad,2019-09-13 06:47:59,1.000000
21,9ea09ec7-0380-448f-82ad-a6507baad149,e5eb8001-2a73-4c77-91d2-4ad1ea3f4828,e5b0f51b-27ce-48ef-b87a-35012bfd75fc,0af1146f-146e-422e-83ca-7cb0f7cf4add,2019-09-13 06:49:02,0.200000
22,eee2e42e-2367-4312-bed3-94d62d60b966,bb569c21-1d0a-4f86-bc7b-6ae63b639e3b,a059f80f-9085-4745-9ad0-655880ff931e,eaf3cb30-c659-44d9-92da-6e598662f912,2019-09-13 06:50:05,0.200000
23,2b84c063-4a8b-4442-82bd-71b7f3e1a435,8280dc78-851e-4eb5-8c8f-26bb90f6d2f3,9de18db3-8ec3-492a-be93-4daff24de816,0ba73a47-51bf-41ca-8850-cc9195f3c40e,2019-09-13 06:51:09,0.200000
24,ab86da78-adb3-4823-aeec-d123a41b584a,167394d4-b15e-42ce-acc6-045e7429b197,50832741-40ef-4ee1-8234-5c92bee93f15,f6dac0d8-d734-43d3-bac6-d9f503d29795,2019-09-13 06:52:12,1.000000
25,eaa92d9f-b1f5-4ca4-ad5c-9edfe5e7e95b,edb3c1a6-4ce2-4d92-b393-666297544cee,9b0647ee-b849-4919-a58d-8869a3831dd5,44e0791d-565d-4cec-bb46-56f6993602bd,2019-09-13 06:53:16,1.000000
