date,trigger,state
2020-02-06 00:28:20,24e11bd1-1a2b-476a-97b6-72e650dc3c70,S
2020-02-06 00:29:53,24e11bd1-1a2b-476a-97b6-72e650dc3c70,A
2020-02-06 00:30:41,24e11bd1-1a2b-476a-97b6-72e650dc3c70,S
2020-02-06 00:30:47,24e11bd1-1a2b-476a-97b6-72e650dc3c70,A
2020-02-06 00:30:53,24e11bd1-1a2b-476a-97b6-72e650dc3c70,S
2020-02-06 00:31:18,24e11bd1-1a2b-476a-97b6-72e650dc3c70,A
2020-02-06 00:36:03,24e11bd1-1a2b-476a-97b6-72e650dc3c70,S
2020-02-06 00:40:11,24e11bd1-1a2b-476a-97b6-72e650dc3c70,A
2020-02-06 00:41:59,24e11bd1-1a2b-476a-97b6-72e650dc3c70,S
2020-02-06 00:44:12,24e11bd1-1a2b-476a-97b6-72e650dc3c70,A
2020-02-06 00:54:50,24e11bd1-1a2b-476a-97b6-72e650dc3c70,S
2020-02-06 00:56:53,24e11bd1-1a2b-476a-97b6-72e650dc3c70,A
2020-02-06 01:06:02,24e11bd1-1a2b-476a-97b6-72e650dc3c70,S
2020-02-06 01:08:37,24e11bd1-1a2b-476a-97b6-72e650dc3c70,A
2020-02-06 01:17:13,24e11bd1-1a2b-476a-97b6-72e650dc3c70,S
2020-02-06 01:19:15,24e11bd1-1a2b-476a-97b6-72e650dc3c70,A
2020-02-06 01:21:03,24e11bd1-1a2b-476a-97b6-72e650dc3c70,S
2020-02-06 01:24:07,24e11bd1-1a2b-476a-97b6-72e650dc3c70,A
2020-02-06 01:24:14,24e11bd1-1a2b-476a-97b6-72e650dc3c70,S
2020-02-06 01:36:18,24e11bd1-1a2b-476a-97b6-72e650dc3c70,A
2020-02-06 01:39:57,24e11bd1-1a2b-476a-97b6-72e650dc3c70,S
2020-02-06 01:51:40,24e11bd1-1a2b-476a-97b6-72e650dc3c70,A
2020-02-06 01:52:25,24e11bd1-1a2b-476a-97b6-72e650dc3c70,S
2020-02-06 01:59:18,24e11bd1-1a2b-476a-97b6-72e650dc3c70,A
2020-02-06 02:00:38,24e11bd1-1a2b-476a-97b6-72e650dc3c70,S
2020-02-06 02:03:06,24e11bd1-1a2b-476a-97b6-72e650dc3c70,A
2020-02-06 02:11:31,24e11bd1-1a2b-476a-97b6-72e650dc3c70,S
2020-02-06 02:19:40,24e11bd1-1a2b-476a-97b6-72e650dc3c70,A
2020-02-06 01:13:16,1df5bcb7-1770-40dc-b522-399aa63078c5,S
2020-02-06 01:14:30,1df5bcb7-1770-40dc-b522-399aa63078c5,A
2020-02-06 01:20:15,1df5bcb7-1770-40dc-b522-399aa63078c5,S
2020-02-06 01:33:35,1df5bcb7-1770-40dc-b522-399aa63078c5,A
2020-02-06 01:41:20,1df5bcb7-1770-40dc-b522-399aa63078c5,S
2020-02-06 01:43:51,1df5bcb7-1770-40dc-b522-399aa63078c5,A
2020-02-06 02:00:13,1df5bcb7-1770-40dc-b522-399aa63078c5,S
2020-02-06 02:06:20,1df5bcb7-1770-40dc-b522-399aa63078c5,A
2020-02-06 02:21:10,1df5bcb7-1770-40dc-b522-399aa63078c5,S
2020-02-06 02:26:24,1df5bcb7-1770-40dc-b522-399aa63078c5,A
2020-02-06 00:26:03,96bd6e24-318d-4093-ad9a-5a3c9758a7ac,S
2020-02-06 00:30:07,96bd6e24-318d-4093-ad9a-5a3c9758a7ac,A
2020-02-06 00:30:56,96bd6e24-318d-4093-ad9a-5a3c9758a7ac,S
2020-02-06 00:36:09,96bd6e24-318d-4093-ad9a-5a3c9758a7ac,A
2020-02-06 00:41:02,96bd6e24-318d-4093-ad9a-5a3c9758a7ac,S
2020-02-06 00:46:01,96bd6e24-318d-4093-ad9a-5a3c9758a7ac,A
2020-02-06 00:48:35,96bd6e24-318d-4093-ad9a-5a3c9758a7ac,S
2020-02-06 00:49:22,96bd6e24-318d-4093-ad9a-5a3c9758a7ac,A
2020-02-06 00:59:58,96bd6e24-318d-4093-ad9a-5a3c9758a7ac,S
2020-02-06 01:00:21,96bd6e24-318d-4093-ad9a-5a3c9758a7ac,A
2020-02-06 01:07:59,96bd6e24-318d-4093-ad9a-5a3c9758a7ac,S
2020-02-06 01:13:19,96bd6e24-318d-4093-ad9a-5a3c9758a7ac,A
2020-02-06 01:13:45,96bd6e24-318d-4093-ad9a-5a3c9758a7ac,S
2020-02-06 01:20:11,96bd6e24-318d-4093-ad9a-5a3c9758a7ac,A
2020-02-06 01:22:15,96bd6e24-318d-4093-ad9a-5a3c9758a7ac,S
2020-02-06 01:22:28,96bd6e24-318d-4093-ad9a-5a3c9758a7ac,A
2020-02-06 01:27:31,96bd6e24-318d-4093-ad9a-5a3c9758a7ac,S
2020-02-06 01:28:13,96bd6e24-318d-4093-ad9a-5a3c9758a7ac,A
2020-02-06 01:45:19,96bd6e24-318d-4093-ad9a-5a3c9758a7ac,S
2020-02-06 01:47:36,96bd6e24-318d-4093-ad9a-5a3c9758a7ac,A
2020-02-06 01:47:55,96bd6e24-318d-4093-ad9a-5a3c9758a7ac,S
2020-02-06 01:51:21,96bd6e24-318d-4093-ad9a-5a3c9758a7ac,A
2020-02-06 01:51:32,96bd6e24-318d-4093-ad9a-5a3c9758a7ac,S
2020-02-06 01:58:33,96bd6e24-318d-4093-ad9a-5a3c9758a7ac,A
2020-02-06 02:04:22,96bd6e24-318d-4093-ad9a-5a3c9758a7ac,S
2020-02-06 02:25:04,96bd6e24-318d-4093-ad9a-5a3c9758a7ac,A
2020-02-06 02:26:21,96bd6e24-318d-4093-ad9a-5a3c9758a7ac,S
2020-02-06 00:40:39,c5491ff1-a5ca-4ffd-b02d-dff2f9e58b69,A
2020-02-06 00:47:31,c5491ff1-a5ca-4ffd-b02d-dff2f9e58b69,S
2020-02-06 00:52:18,c5491ff1-a5ca-4ffd-b02d-dff2f9e58b69,A
2020-02-06 00:58:52,c5491ff1-a5ca-4ffd-b02d-dff2f9e58b69,S
2020-02-06 01:04:46,c5491ff1-a5ca-4ffd-b02d-dff2f9e58b69,A
2020-02-06 01:15:24,c5491ff1-a5ca-4ffd-b02d-dff2f9e58b69,S
2020-02-06 01:22:39,c5491ff1-a5ca-4ffd-b02d-dff2f9e58b69,A
2020-02-06 01:25:06,c5491ff1-a5ca-4ffd-b02d-dff2f9e58b69,S
2020-02-06 01:26:47,c5491ff1-a5ca-4ffd-b02d-dff2f9e58b69,A
2020-02-06 01:31:25,c5491ff1-a5ca-4ffd-b02d-dff2f9e58b69,S
2020-02-06 01:36:25,c5491ff1-a5ca-4ffd-b02d-dff2f9e58b69,A
2020-02-06 01:46:20,c5491ff1-a5ca-4ffd-b02d-dff2f9e58b69,S
2020-02-06 01:46:24,c5491ff1-a5ca-4ffd-b02d-dff2f9e58b69,A
2020-02-06 01:51:04,c5491ff1-a5ca-4ffd-b02d-dff2f9e58b69,S
2020-02-06 01:52:49,c5491ff1-a5ca-4ffd-b02d-dff2f9e58b69,A
2020-02-06 01:59:31,c5491ff1-a5ca-4ffd-b02d-dff2f9e58b69,S
2020-02-06 01:59:38,c5491ff1-a5ca-4ffd-b02d-dff2f9e58b69,A
2020-02-06 02:02:20,c5491ff1-a5ca-4ffd-b02d-dff2f9e58b69,S
2020-02-06 02:09:13,c5491ff1-a5ca-4ffd-b02d-dff2f9e58b69,A
2020-02-06 01:04:12,3199be1a-554f-4bd9-bd0b-6523291b2004,S
2020-02-06 01:06:08,3199be1a-554f-4bd9-bd0b-6523291b2004,A
2020-02-06 01:06:37,3199be1a-554f-4bd9-bd0b-6523291b2004,S
2020-02-06 01:14:55,3199be1a-554f-4bd9-bd0b-6523291b2004,A
2020-02-06 01:17:47,3199be1a-554f-4bd9-bd0b-6523291b2004,S
2020-02-06 01:24:08,3199be1a-554f-4bd9-bd0b-6523291b2004,A
2020-02-06 01:28:44,3199be1a-554f-4bd9-bd0b-6523291b2004,S
2020-02-06 01:29:57,3199be1a-554f-4bd9-bd0b-6523291b2004,A
2020-02-06 01:38:41,3199be1a-554f-4bd9-bd0b-6523291b2004,S
2020-02-06 01:40:16,3199be1a-554f-4bd9-bd0b-6523291b2004,A
2020-02-06 01:48:17,3199be1a-554f-4bd9-bd0b-6523291b2004,S
2020-02-06 01:48:30,3199be1a-554f-4bd9-bd0b-6523291b2004,A
2020-02-06 01:55:05,3199be1a-554f-4bd9-bd0b-6523291b2004,S
2020-02-06 01:59:59,3199be1a-554f-4bd9-bd0b-6523291b2004,A
2020-02-06 02:00:54,3199be1a-554f-4bd9-bd0b-6523291b2004,S
2020-02-06 02:02:51,3199be1a-554f-4bd9-bd0b-6523291b2004,A
2020-02-06 02:02:52,3199be1a-554f-4bd9-bd0b-6523291b2004,S
2020-02-06 02:04:13,3199be1a-554f-4bd9-bd0b-6523291b2004,A
2020-02-06 02:06:59,3199be1a-554f-4bd9-bd0b-6523291b2004,S
2020-02-06 02:14:25,3199be1a-554f-4bd9-bd0b-6523291b2004,A
2020-02-06 02:15:58,3199be1a-554f-4bd9-bd0b-6523291b2004,S
2020-02-06 02:16:34,3199be1a-554f-4bd9-bd0b-6523291b2004,A
2020-02-06 02:23:36,3199be1a-554f-4bd9-bd0b-6523291b2004,S
2020-02-06 02:27:05,3199be1a-554f-4bd9-bd0b-6523291b2004,A
2020-02-06 00:52:09,8368bd0c-87fe-4832-97f2-4ca5069cb9f6,A
2020-02-06 00:43:23,06262503-6d96-43c3-98b7-58b257c015de,A
2020-02-06 00:47:04,06262503-6d96-43c3-98b7-58b257c015de,S
2020-02-06 00:50:23,06262503-6d96-43c3-98b7-58b257c015de,A
2020-02-06 00:52:03,06262503-6d96-43c3-98b7-58b257c015de,S
2020-02-06 01:07:33,06262503-6d96-43c3-98b7-58b257c015de,A
2020-02-06 01:09:18,06262503-6d96-43c3-98b7-58b257c015de,S
2020-02-06 01:09:40,06262503-6d96-43c3-98b7-58b257c015de,A
2020-02-06 01:31:29,06262503-6d96-43c3-98b7-58b257c015de,S
2020-02-06 01:38:39,06262503-6d96-43c3-98b7-58b257c015de,A
2020-02-06 01:43:00,06262503-6d96-43c3-98b7-58b257c015de,S
2020-02-06 01:43:40,06262503-6d96-43c3-98b7-58b257c015de,A
2020-02-06 01:47:55,06262503-6d96-43c3-98b7-58b257c015de,S
2020-02-06 01:49:45,06262503-6d96-43c3-98b7-58b257c015de,A
2020-02-06 01:52:27,06262503-6d96-43c3-98b7-58b257c015de,S
2020-02-06 02:01:42,06262503-6d96-43c3-98b7-58b257c015de,A
2020-02-06 02:09:18,06262503-6d96-43c3-98b7-58b257c015de,S
2020-02-06 02:14:14,06262503-6d96-43c3-98b7-58b257c015de,A
2020-02-06 02:20:52,06262503-6d96-43c3-98b7-58b257c015de,S
2020-02-06 00:22:07,874b7bbd-11db-4b13-be1d-627594edbd94,A
2020-02-06 00:26:24,874b7bbd-11db-4b13-be1d-627594edbd94,S
2020-02-06 00:28:41,874b7bbd-11db-4b13-be1d-627594edbd94,A
2020-02-06 00:36:23,874b7bbd-11db-4b13-be1d-627594edbd94,S
2020-02-06 00:45:42,874b7bbd-11db-4b13-be1d-627594edbd94,A
2020-02-06 00:50:02,874b7bbd-11db-4b13-be1d-627594edbd94,S
2020-02-06 00:54:36,874b7bbd-11db-4b13-be1d-627594edbd94,A
2020-02-06 00:28:03,b449a1af-d303-4bd7-a34e-952243552cde,A
2020-02-06 00:31:30,b449a1af-d303-4bd7-a34e-952243552cde,S
2020-02-06 00:40:04,b449a1af-d303-4bd7-a34e-952243552cde,A
2020-02-06 00:43:07,b449a1af-d303-4bd7-a34e-952243552cde,S
2020-02-06 00:43:24,b449a1af-d303-4bd7-a34e-952243552cde,A
2020-02-06 00:45:52,b449a1af-d303-4bd7-a34e-952243552cde,S
2020-02-06 00:51:12,b449a1af-d303-4bd7-a34e-952243552cde,A
2020-02-06 00:55:07,b449a1af-d303-4bd7-a34e-952243552cde,S
2020-02-06 00:57:52,b449a1af-d303-4bd7-a34e-952243552cde,A
2020-02-06 01:08:39,b449a1af-d303-4bd7-a34e-952243552cde,S
2020-02-06 01:14:17,b449a1af-d303-4bd7-a34e-952243552cde,A
2020-02-06 01:36:51,b449a1af-d303-4bd7-a34e-952243552cde,S
2020-02-06 02:01:12,b449a1af-d303-4bd7-a34e-952243552cde,A
2020-02-06 02:07:46,b449a1af-d303-4bd7-a34e-952243552cde,S
2020-02-06 02:11:13,b449a1af-d303-4bd7-a34e-952243552cde,A
2020-02-06 02:14:07,b449a1af-d303-4bd7-a34e-952243552cde,S
2020-02-06 02:18:52,b449a1af-d303-4bd7-a34e-952243552cde,A
2020-02-06 00:44:23,1461eea5-3141-4053-ab89-4df624f91480,A
2020-02-06 00:52:12,1461eea5-3141-4053-ab89-4df624f91480,S
2020-02-06 00:53:43,1461eea5-3141-4053-ab89-4df624f91480,A
2020-02-06 00:56:20,1461eea5-3141-4053-ab89-4df624f91480,S
2020-02-06 01:01:02,1461eea5-3141-4053-ab89-4df624f91480,A
2020-02-06 01:15:43,1461eea5-3141-4053-ab89-4df624f91480,S
2020-02-06 01:16:18,1461eea5-3141-4053-ab89-4df624f91480,A
2020-02-06 01:21:49,1461eea5-3141-4053-ab89-4df624f91480,S
2020-02-06 01:29:01,1461eea5-3141-4053-ab89-4df624f91480,A
2020-02-06 01:29:37,1461eea5-3141-4053-ab89-4df624f91480,S
2020-02-06 01:41:27,1461eea5-3141-4053-ab89-4df624f91480,A
2020-02-06 01:44:35,1461eea5-3141-4053-ab89-4df624f91480,S
2020-02-06 01:56:25,1461eea5-3141-4053-ab89-4df624f91480,A
2020-02-06 02:08:22,1461eea5-3141-4053-ab89-4df624f91480,S
2020-02-06 02:13:15,1461eea5-3141-4053-ab89-4df624f91480,A
2020-02-06 02:13:47,1461eea5-3141-4053-ab89-4df624f91480,S
2020-02-06 02:14:05,1461eea5-3141-4053-ab89-4df624f91480,A
2020-02-06 02:14:16,1461eea5-3141-4053-ab89-4df624f91480,S
2020-02-06 02:15:26,1461eea5-3141-4053-ab89-4df624f91480,A
2020-02-06 02:19:08,1461eea5-3141-4053-ab89-4df624f91480,S
2020-02-06 00:34:27,d6b36054-c5c2-409c-9e5e-0a3310e7b26a,S
2020-02-06 00:50:34,d6b36054-c5c2-409c-9e5e-0a3310e7b26a,A
2020-02-06 00:51:47,d6b36054-c5c2-409c-9e5e-0a3310e7b26a,S
2020-02-06 00:56:36,d6b36054-c5c2-409c-9e5e-0a3310e7b26a,A
2020-02-06 00:57:41,d6b36054-c5c2-409c-9e5e-0a3310e7b26a,S
2020-02-06 01:00:29,d6b36054-c5c2-409c-9e5e-0a3310e7b26a,A
2020-02-06 01:05:41,d6b36054-c5c2-409c-9e5e-0a3310e7b26a,S
2020-02-06 01:07:51,d6b36054-c5c2-409c-9e5e-0a3310e7b26a,A
2020-02-06 01:11:20,d6b36054-c5c2-409c-9e5e-0a3310e7b26a,S
2020-02-06 01:16:55,d6b36054-c5c2-409c-9e5e-0a3310e7b26a,A
2020-02-06 01:27:26,d6b36054-c5c2-409c-9e5e-0a3310e7b26a,S
2020-02-06 01:33:06,d6b36054-c5c2-409c-9e5e-0a3310e7b26a,A
2020-02-06 01:35:04,d6b36054-c5c2-409c-9e5e-0a3310e7b26a,S
2020-02-06 01:37:06,d6b36054-c5c2-409c-9e5e-0a3310e7b26a,A
2020-02-06 01:45:23,d6b36054-c5c2-409c-9e5e-0a3310e7b26a,S
2020-02-06 01:47:32,d6b36054-c5c2-409c-9e5e-0a3310e7b26a,A
2020-02-06 01:52:27,d6b36054-c5c2-409c-9e5e-0a3310e7b26a,S
2020-02-06 01:55:26,d6b36054-c5c2-409c-9e5e-0a3310e7b26a,A
2020-02-06 01:56:33,d6b36054-c5c2-409c-9e5e-0a3310e7b26a,S
2020-02-06 02:01:29,d6b36054-c5c2-409c-9e5e-0a3310e7b26a,A
2020-02-06 02:04:21,d6b36054-c5c2-409c-9e5e-0a3310e7b26a,S
2020-02-06 02:08:10,d6b36054-c5c2-409c-9e5e-0a3310e7b26a,A
2020-02-06 02:10:30,d6b36054-c5c2-409c-9e5e-0a3310e7b26a,S
2020-02-06 02:14:17,d6b36054-c5c2-409c-9e5e-0a3310e7b26a,A
2020-02-06 02:19:42,d6b36054-c5c2-409c-9e5e-0a3310e7b26a,S
2020-02-06 02:20:49,d6b36054-c5c2-409c-9e5e-0a3310e7b26a,A
2020-02-06 02:26:34,d6b36054-c5c2-409c-9e5e-0a3310e7b26a,S
2020-02-06 02:27:31,d6b36054-c5c2-409c-9e5e-0a3310e7b26a,A
2020-02-06 01:05:11,23449923-5368-4fa5-a532-c054e724de4a,A
2020-02-06 01:14:07,23449923-5368-4fa5-a532-c054e724de4a,S
2020-02-06 01:24:50,23449923-5368-4fa5-a532-c054e724de4a,A
2020-02-06 01:30:22,23449923-5368-4fa5-a532-c054e724de4a,S
2020-02-06 01:33:00,23449923-5368-4fa5-a532-c054e724de4a,A
2020-02-06 01:33:44,23449923-5368-4fa5-a532-c054e724de4a,S
2020-02-06 01:38:24,23449923-5368-4fa5-a532-c054e724de4a,A
2020-02-06 01:40:15,23449923-5368-4fa5-a532-c054e724de4a,S
2020-02-06 01:53:30,23449923-5368-4fa5-a532-c054e724de4a,A
2020-02-06 01:55:22,23449923-5368-4fa5-a532-c054e724de4a,S
2020-02-06 02:01:34,23449923-5368-4fa5-a532-c054e724de4a,A
2020-02-06 02:04:22,23449923-5368-4fa5-a532-c054e724de4a,S
2020-02-06 02:06:10,23449923-5368-4fa5-a532-c054e724de4a,A
2020-02-06 02:06:33,23449923-5368-4fa5-a532-c054e724de4a,S
2020-02-06 02:07:12,23449923-5368-4fa5-a532-c054e724de4a,A
2020-02-06 02:19:43,23449923-5368-4fa5-a532-c054e724de4a,S
2020-02-06 02:19:44,23449923-5368-4fa5-a532-c054e724de4a,A
2020-02-06 02:20:21,23449923-5368-4fa5-a532-c054e724de4a,S
2020-02-06 02:20:49,23449923-5368-4fa5-a532-c054e724de4a,A
2020-02-06 01:04:21,8c8db384-020d-473b-a86d-9d1764646930,S
2020-02-06 01:05:04,8c8db384-020d-473b-a86d-9d1764646930,A
2020-02-06 01:08:35,8c8db384-020d-473b-a86d-9d1764646930,S
2020-02-06 01:12:37,8c8db384-020d-473b-a86d-9d1764646930,A
2020-02-06 01:20:26,8c8db384-020d-473b-a86d-9d1764646930,S
2020-02-06 01:26:55,8c8db384-020d-473b-a86d-9d1764646930,A
2020-02-06 01:31:06,8c8db384-020d-473b-a86d-9d1764646930,S
2020-02-06 01:32:31,8c8db384-020d-473b-a86d-9d1764646930,A
2020-02-06 01:42:56,8c8db384-020d-473b-a86d-9d1764646930,S
2020-02-06 01:43:11,8c8db384-020d-473b-a86d-9d1764646930,A
2020-02-06 01:43:27,8c8db384-020d-473b-a86d-9d1764646930,S
2020-02-06 01:44:57,8c8db384-020d-473b-a86d-9d1764646930,A
2020-02-06 01:52:47,8c8db384-020d-473b-a86d-9d1764646930,S
2020-02-06 01:56:44,8c8db384-020d-473b-a86d-9d1764646930,A
2020-02-06 01:59:22,8c8db384-020d-473b-a86d-9d1764646930,S
2020-02-06 02:01:50,8c8db384-020d-473b-a86d-9d1764646930,A
2020-02-06 02:03:56,8c8db384-020d-473b-a86d-9d1764646930,S
2020-02-06 02:08:37,8c8db384-020d-473b-a86d-9d1764646930,A
2020-02-06 02:14:59,8c8db384-020d-473b-a86d-9d1764646930,S
2020-02-06 02:15:09,8c8db384-020d-473b-a86d-9d1764646930,A
2020-02-06 02:15:48,8c8db384-020d-473b-a86d-9d1764646930,S
2020-02-06 02:18:06,8c8db384-020d-473b-a86d-9d1764646930,A
2020-02-06 00:33:57,438a23c4-14d6-443d-872b-aaa03781c10d,S
2020-02-06 00:38:54,438a23c4-14d6-443d-872b-aaa03781c10d,A
2020-02-06 00:39:16,438a23c4-14d6-443d-872b-aaa03781c10d,S
2020-02-06 00:44:01,438a23c4-14d6-443d-872b-aaa03781c10d,A
2020-02-06 00:48:58,438a23c4-14d6-443d-872b-aaa03781c10d,S
2020-02-06 00:51:00,438a23c4-14d6-443d-872b-aaa03781c10d,A
2020-02-06 01:01:05,438a23c4-14d6-443d-872b-aaa03781c10d,S
2020-02-06 01:03:46,438a23c4-14d6-443d-872b-aaa03781c10d,A
2020-02-06 01:04:41,438a23c4-14d6-443d-872b-aaa03781c10d,S
2020-02-06 01:12:42,438a23c4-14d6-443d-872b-aaa03781c10d,A
2020-02-06 01:21:31,438a23c4-14d6-443d-872b-aaa03781c10d,S
2020-02-06 01:23:41,438a23c4-14d6-443d-872b-aaa03781c10d,A
2020-02-06 01:23:50,438a23c4-14d6-443d-872b-aaa03781c10d,S
2020-02-06 01:43:07,438a23c4-14d6-443d-872b-aaa03781c10d,A
2020-02-06 01:45:21,438a23c4-14d6-443d-872b-aaa03781c10d,S
2020-02-06 02:02:55,438a23c4-14d6-443d-872b-aaa03781c10d,A
2020-02-06 02:13:06,438a23c4-14d6-443d-872b-aaa03781c10d,S
2020-02-06 01:09:47,baf04d46-28da-4326-8364-251f3fb1b361,S
2020-02-06 01:15:10,baf04d46-28da-4326-8364-251f3fb1b361,A
2020-02-06 01:16:35,baf04d46-28da-4326-8364-251f3fb1b361,S
2020-02-06 01:18:46,baf04d46-28da-4326-8364-251f3fb1b361,A
2020-02-06 01:25:48,baf04d46-28da-4326-8364-251f3fb1b361,S
2020-02-06 01:31:54,baf04d46-28da-4326-8364-251f3fb1b361,A
2020-02-06 01:35:49,baf04d46-28da-4326-8364-251f3fb1b361,S
2020-02-06 01:39:11,baf04d46-28da-4326-8364-251f3fb1b361,A
2020-02-06 01:40:45,baf04d46-28da-4326-8364-251f3fb1b361,S
2020-02-06 01:40:55,baf04d46-28da-4326-8364-251f3fb1b361,A
2020-02-06 01:43:16,baf04d46-28da-4326-8364-251f3fb1b361,S
2020-02-06 01:47:32,baf04d46-28da-4326-8364-251f3fb1b361,A
2020-02-06 01:50:26,baf04d46-28da-4326-8364-251f3fb1b361,S
2020-02-06 01:51:21,baf04d46-28da-4326-8364-251f3fb1b361,A
2020-02-06 02:01:45,baf04d46-28da-4326-8364-251f3fb1b361,S
2020-02-06 02:01:49,baf04d46-28da-4326-8364-251f3fb1b361,A
2020-02-06 02:02:20,baf04d46-28da-4326-8364-251f3fb1b361,S
2020-02-06 02:02:49,baf04d46-28da-4326-8364-251f3fb1b361,A
2020-02-06 02:03:03,baf04d46-28da-4326-8364-251f3fb1b361,S
2020-02-06 02:06:58,baf04d46-28da-4326-8364-251f3fb1b361,A
2020-02-06 02:14:46,baf04d46-28da-4326-8364-251f3fb1b361,S
2020-02-06 02:20:45,baf04d46-28da-4326-8364-251f3fb1b361,A
2020-02-06 02:23:38,baf04d46-28da-4326-8364-251f3fb1b361,S
2020-02-06 02:25:38,baf04d46-28da-4326-8364-251f3fb1b361,A
2020-02-06 00:58:46,77e88c8c-cc88-4bb8-8a64-6c11e9305800,A
2020-02-06 01:05:03,d9e3f142-ce49-4ab5-abc4-08a9d1ffb057,A
2020-02-06 01:19:46,d9e3f142-ce49-4ab5-abc4-08a9d1ffb057,S
2020-02-06 01:21:53,d9e3f142-ce49-4ab5-abc4-08a9d1ffb057,A
2020-02-06 01:30:58,d9e3f142-ce49-4ab5-abc4-08a9d1ffb057,S
2020-02-06 01:42:31,d9e3f142-ce49-4ab5-abc4-08a9d1ffb057,A
2020-02-06 01:48:43,d9e3f142-ce49-4ab5-abc4-08a9d1ffb057,S
2020-02-06 01:55:24,d9e3f142-ce49-4ab5-abc4-08a9d1ffb057,A
2020-02-06 01:55:47,d9e3f142-ce49-4ab5-abc4-08a9d1ffb057,S
2020-02-06 01:56:54,d9e3f142-ce49-4ab5-abc4-08a9d1ffb057,A
2020-02-06 02:01:13,d9e3f142-ce49-4ab5-abc4-08a9d1ffb057,S
2020-02-06 02:01:45,d9e3f142-ce49-4ab5-abc4-08a9d1ffb057,A
2020-02-06 02:08:25,d9e3f142-ce49-4ab5-abc4-08a9d1ffb057,S
2020-02-06 02:11:08,d9e3f142-ce49-4ab5-abc4-08a9d1ffb057,A
2020-02-06 02:12:55,d9e3f142-ce49-4ab5-abc4-08a9d1ffb057,S
2020-02-06 02:16:42,d9e3f142-ce49-4ab5-abc4-08a9d1ffb057,A
2020-02-06 02:22:57,d9e3f142-ce49-4ab5-abc4-08a9d1ffb057,S
2020-02-06 02:23:10,d9e3f142-ce49-4ab5-abc4-08a9d1ffb057,A
2020-02-06 02:25:46,d9e3f142-ce49-4ab5-abc4-08a9d1ffb057,S
2020-02-06 00:38:16,9d10d8f9-d5c4-4725-9e03-269e72597c00,S
2020-02-06 00:50:11,9d10d8f9-d5c4-4725-9e03-269e72597c00,A
2020-02-06 00:50:30,9d10d8f9-d5c4-4725-9e03-269e72597c00,S
2020-02-06 01:05:54,9d10d8f9-d5c4-4725-9e03-269e72597c00,A
2020-02-06 01:08:46,9d10d8f9-d5c4-4725-9e03-269e72597c00,S
2020-02-06 01:10:46,9d10d8f9-d5c4-4725-9e03-269e72597c00,A
2020-02-06 01:18:53,9d10d8f9-d5c4-4725-9e03-269e72597c00,S
2020-02-06 01:19:49,9d10d8f9-d5c4-4725-9e03-269e72597c00,A
2020-02-06 01:22:02,9d10d8f9-d5c4-4725-9e03-269e72597c00,S
2020-02-06 01:36:26,9d10d8f9-d5c4-4725-9e03-269e72597c00,A
2020-02-06 01:41:45,9d10d8f9-d5c4-4725-9e03-269e72597c00,S
2020-02-06 01:43:18,9d10d8f9-d5c4-4725-9e03-269e72597c00,A
2020-02-06 01:44:05,9d10d8f9-d5c4-4725-9e03-269e72597c00,S
2020-02-06 01:46:02,9d10d8f9-d5c4-4725-9e03-269e72597c00,A
2020-02-06 01:49:20,9d10d8f9-d5c4-4725-9e03-269e72597c00,S
2020-02-06 01:49:27,9d10d8f9-d5c4-4725-9e03-269e72597c00,A
2020-02-06 02:01:46,9d10d8f9-d5c4-4725-9e03-269e72597c00,S
2020-02-06 02:03:06,9d10d8f9-d5c4-4725-9e03-269e72597c00,A
2020-02-06 02:07:58,9d10d8f9-d5c4-4725-9e03-269e72597c00,S
2020-02-06 02:11:24,9d10d8f9-d5c4-4725-9e03-269e72597c00,A
2020-02-06 02:12:38,9d10d8f9-d5c4-4725-9e03-269e72597c00,S
2020-02-06 02:13:20,9d10d8f9-d5c4-4725-9e03-269e72597c00,A
2020-02-06 02:26:01,9d10d8f9-d5c4-4725-9e03-269e72597c00,S
2020-02-06 02:27:28,9d10d8f9-d5c4-4725-9e03-269e72597c00,A
2020-02-06 02:28:42,9d10d8f9-d5c4-4725-9e03-269e72597c00,S
2020-02-06 00:57:53,bcaddb7a-097d-4024-94ca-cc19d7d6be37,S
2020-02-06 01:00:11,bcaddb7a-097d-4024-94ca-cc19d7d6be37,A
2020-02-06 01:05:23,bcaddb7a-097d-4024-94ca-cc19d7d6be37,S
2020-02-06 01:13:28,bcaddb7a-097d-4024-94ca-cc19d7d6be37,A
2020-02-06 01:20:52,bcaddb7a-097d-4024-94ca-cc19d7d6be37,S
2020-02-06 01:21:14,bcaddb7a-097d-4024-94ca-cc19d7d6be37,A
2020-02-06 01:26:47,bcaddb7a-097d-4024-94ca-cc19d7d6be37,S
2020-02-06 01:37:51,bcaddb7a-097d-4024-94ca-cc19d7d6be37,A
2020-02-06 01:42:15,bcaddb7a-097d-4024-94ca-cc19d7d6be37,S
2020-02-06 01:45:02,bcaddb7a-097d-4024-94ca-cc19d7d6be37,A
2020-02-06 01:51:44,bcaddb7a-097d-4024-94ca-cc19d7d6be37,S
2020-02-06 01:52:35,bcaddb7a-097d-4024-94ca-cc19d7d6be37,A
2020-02-06 01:55:20,bcaddb7a-097d-4024-94ca-cc19d7d6be37,S
2020-02-06 01:59:11,bcaddb7a-097d-4024-94ca-cc19d7d6be37,A
2020-02-06 02:05:39,bcaddb7a-097d-4024-94ca-cc19d7d6be37,S
2020-02-06 02:08:43,bcaddb7a-097d-4024-94ca-cc19d7d6be37,A
2020-02-06 02:21:03,bcaddb7a-097d-4024-94ca-cc19d7d6be37,S
2020-02-06 02:25:50,bcaddb7a-097d-4024-94ca-cc19d7d6be37,A
2020-02-06 02:27:54,bcaddb7a-097d-4024-94ca-cc19d7d6be37,S
2020-02-06 01:03:18,92ffcebc-4bdc-421d-916b-5a950ead71ac,A
2020-02-06 01:10:32,92ffcebc-4bdc-421d-916b-5a950ead71ac,S
2020-02-06 01:12:26,92ffcebc-4bdc-421d-916b-5a950ead71ac,A
2020-02-06 01:17:16,92ffcebc-4bdc-421d-916b-5a950ead71ac,S
2020-02-06 01:24:31,92ffcebc-4bdc-421d-916b-5a950ead71ac,A
2020-02-06 01:31:28,92ffcebc-4bdc-421d-916b-5a950ead71ac,S
2020-02-06 01:32:01,92ffcebc-4bdc-421d-916b-5a950ead71ac,A
2020-02-06 01:32:27,92ffcebc-4bdc-421d-916b-5a950ead71ac,S
2020-02-06 01:33:50,92ffcebc-4bdc-421d-916b-5a950ead71ac,A
2020-02-06 01:34:28,92ffcebc-4bdc-421d-916b-5a950ead71ac,S
2020-02-06 01:36:45,92ffcebc-4bdc-421d-916b-5a950ead71ac,A
2020-02-06 01:43:06,92ffcebc-4bdc-421d-916b-5a950ead71ac,S
2020-02-06 01:44:30,92ffcebc-4bdc-421d-916b-5a950ead71ac,A
2020-02-06 01:47:11,92ffcebc-4bdc-421d-916b-5a950ead71ac,S
2020-02-06 01:47:46,92ffcebc-4bdc-421d-916b-5a950ead71ac,A
2020-02-06 01:49:06,92ffcebc-4bdc-421d-916b-5a950ead71ac,S
2020-02-06 02:08:27,92ffcebc-4bdc-421d-916b-5a950ead71ac,A
2020-02-06 02:26:27,92ffcebc-4bdc-421d-916b-5a950ead71ac,S
2020-02-06 02:27:31,92ffcebc-4bdc-421d-916b-5a950ead71ac,A
2020-02-06 01:11:30,31051223-975d-45a1-a617-1c3a9b08efe5,S
2020-02-06 01:25:05,31051223-975d-45a1-a617-1c3a9b08efe5,A
2020-02-06 01:29:58,31051223-975d-45a1-a617-1c3a9b08efe5,S
2020-02-06 01:30:31,31051223-975d-45a1-a617-1c3a9b08efe5,A
2020-02-06 01:34:23,31051223-975d-45a1-a617-1c3a9b08efe5,S
2020-02-06 01:35:04,31051223-975d-45a1-a617-1c3a9b08efe5,A
2020-02-06 01:43:43,31051223-975d-45a1-a617-1c3a9b08efe5,S
2020-02-06 01:44:46,31051223-975d-45a1-a617-1c3a9b08efe5,A
2020-02-06 01:47:02,31051223-975d-45a1-a617-1c3a9b08efe5,S
2020-02-06 01:49:11,31051223-975d-45a1-a617-1c3a9b08efe5,A
2020-02-06 01:51:33,31051223-975d-45a1-a617-1c3a9b08efe5,S
2020-02-06 01:55:25,31051223-975d-45a1-a617-1c3a9b08efe5,A
2020-02-06 01:56:36,31051223-975d-45a1-a617-1c3a9b08efe5,S
2020-02-06 01:57:27,31051223-975d-45a1-a617-1c3a9b08efe5,A
2020-02-06 01:59:36,31051223-975d-45a1-a617-1c3a9b08efe5,S
2020-02-06 01:59:59,31051223-975d-45a1-a617-1c3a9b08efe5,A
2020-02-06 02:00:15,31051223-975d-45a1-a617-1c3a9b08efe5,S
2020-02-06 02:04:47,31051223-975d-45a1-a617-1c3a9b08efe5,A
2020-02-06 02:05:37,31051223-975d-45a1-a617-1c3a9b08efe5,S
2020-02-06 02:15:09,31051223-975d-45a1-a617-1c3a9b08efe5,A
2020-02-06 02:21:12,31051223-975d-45a1-a617-1c3a9b08efe5,S
2020-02-06 02:29:10,31051223-975d-45a1-a617-1c3a9b08efe5,A
2020-02-06 00:38:50,af57f188-c1ae-43cd-ac90-f88eb0d36b34,A
2020-02-06 00:44:53,af57f188-c1ae-43cd-ac90-f88eb0d36b34,S
2020-02-06 00:47:41,af57f188-c1ae-43cd-ac90-f88eb0d36b34,A
2020-02-06 00:48:20,af57f188-c1ae-43cd-ac90-f88eb0d36b34,S
2020-02-06 00:49:05,af57f188-c1ae-43cd-ac90-f88eb0d36b34,A
2020-02-06 00:58:20,af57f188-c1ae-43cd-ac90-f88eb0d36b34,S
2020-02-06 00:58:46,af57f188-c1ae-43cd-ac90-f88eb0d36b34,A
2020-02-06 00:59:36,af57f188-c1ae-43cd-ac90-f88eb0d36b34,S
2020-02-06 01:04:30,af57f188-c1ae-43cd-ac90-f88eb0d36b34,A
2020-02-06 01:09:29,af57f188-c1ae-43cd-ac90-f88eb0d36b34,S
2020-02-06 01:09:41,af57f188-c1ae-43cd-ac90-f88eb0d36b34,A
2020-02-06 01:10:26,af57f188-c1ae-43cd-ac90-f88eb0d36b34,S
2020-02-06 01:12:46,af57f188-c1ae-43cd-ac90-f88eb0d36b34,A
2020-02-06 01:15:46,af57f188-c1ae-43cd-ac90-f88eb0d36b34,S
2020-02-06 01:17:02,af57f188-c1ae-43cd-ac90-f88eb0d36b34,A
2020-02-06 01:17:06,af57f188-c1ae-43cd-ac90-f88eb0d36b34,S
2020-02-06 01:25:12,af57f188-c1ae-43cd-ac90-f88eb0d36b34,A
2020-02-06 01:28:29,af57f188-c1ae-43cd-ac90-f88eb0d36b34,S
2020-02-06 01:30:22,af57f188-c1ae-43cd-ac90-f88eb0d36b34,A
2020-02-06 01:37:44,af57f188-c1ae-43cd-ac90-f88eb0d36b34,S
2020-02-06 01:47:58,af57f188-c1ae-43cd-ac90-f88eb0d36b34,A
2020-02-06 02:03:26,af57f188-c1ae-43cd-ac90-f88eb0d36b34,S
2020-02-06 02:05:48,af57f188-c1ae-43cd-ac90-f88eb0d36b34,A
2020-02-06 02:06:00,af57f188-c1ae-43cd-ac90-f88eb0d36b34,S
2020-02-06 02:14:05,af57f188-c1ae-43cd-ac90-f88eb0d36b34,A
2020-02-06 02:14:28,af57f188-c1ae-43cd-ac90-f88eb0d36b34,S
2020-02-06 02:22:48,af57f188-c1ae-43cd-ac90-f88eb0d36b34,A
2020-02-06 01:09:50,e0cecb59-67a5-4619-9b70-6ad463da61ca,S
2020-02-06 01:12:01,e0cecb59-67a5-4619-9b70-6ad463da61ca,A
2020-02-06 00:55:56,861c33b4-2d5f-4334-8a99-14220580d7a8,S
2020-02-06 00:56:37,861c33b4-2d5f-4334-8a99-14220580d7a8,A
2020-02-06 00:33:47,4d625014-8809-4cf1-9f2a-da142102db2c,S
2020-02-06 00:37:15,4d625014-8809-4cf1-9f2a-da142102db2c,A
2020-02-06 00:43:17,4d625014-8809-4cf1-9f2a-da142102db2c,S
2020-02-06 00:53:14,4d625014-8809-4cf1-9f2a-da142102db2c,A
2020-02-06 00:36:18,52e40401-8ed9-4a4d-a616-fb709f008f06,S
2020-02-06 00:42:31,52e40401-8ed9-4a4d-a616-fb709f008f06,A
2020-02-06 00:46:54,52e40401-8ed9-4a4d-a616-fb709f008f06,S
2020-02-06 00:57:26,52e40401-8ed9-4a4d-a616-fb709f008f06,A
2020-02-06 00:57:46,52e40401-8ed9-4a4d-a616-fb709f008f06,S
2020-02-06 01:03:15,52e40401-8ed9-4a4d-a616-fb709f008f06,A
2020-02-06 01:03:49,52e40401-8ed9-4a4d-a616-fb709f008f06,S
2020-02-06 01:04:26,52e40401-8ed9-4a4d-a616-fb709f008f06,A
2020-02-06 01:06:58,52e40401-8ed9-4a4d-a616-fb709f008f06,S
2020-02-06 01:07:18,52e40401-8ed9-4a4d-a616-fb709f008f06,A
2020-02-06 01:08:10,52e40401-8ed9-4a4d-a616-fb709f008f06,S
2020-02-06 01:23:42,52e40401-8ed9-4a4d-a616-fb709f008f06,A
2020-02-06 01:25:02,52e40401-8ed9-4a4d-a616-fb709f008f06,S
2020-02-06 01:28:10,52e40401-8ed9-4a4d-a616-fb709f008f06,A
2020-02-06 01:40:04,52e40401-8ed9-4a4d-a616-fb709f008f06,S
2020-02-06 01:41:30,52e40401-8ed9-4a4d-a616-fb709f008f06,A
2020-02-06 01:42:39,52e40401-8ed9-4a4d-a616-fb709f008f06,S
2020-02-06 01:43:30,52e40401-8ed9-4a4d-a616-fb709f008f06,A
2020-02-06 01:43:53,52e40401-8ed9-4a4d-a616-fb709f008f06,S
2020-02-06 01:50:23,52e40401-8ed9-4a4d-a616-fb709f008f06,A
2020-02-06 02:21:03,52e40401-8ed9-4a4d-a616-fb709f008f06,S
2020-02-06 02:24:48,52e40401-8ed9-4a4d-a616-fb709f008f06,A
2020-02-06 00:25:40,5620c8b2-2a53-4d6c-ad99-598ec6d855d7,A
2020-02-06 00:41:43,5620c8b2-2a53-4d6c-ad99-598ec6d855d7,S
2020-02-06 00:44:56,5620c8b2-2a53-4d6c-ad99-598ec6d855d7,A
2020-02-06 00:47:42,5620c8b2-2a53-4d6c-ad99-598ec6d855d7,S
2020-02-06 00:48:13,5620c8b2-2a53-4d6c-ad99-598ec6d855d7,A
2020-02-06 00:41:25,65a6d434-aa12-42a1-8915-92794c5c5d2a,S
2020-02-06 00:53:30,65a6d434-aa12-42a1-8915-92794c5c5d2a,A
2020-02-06 01:11:51,65a6d434-aa12-42a1-8915-92794c5c5d2a,S
2020-02-06 01:14:15,65a6d434-aa12-42a1-8915-92794c5c5d2a,A
2020-02-06 01:17:33,65a6d434-aa12-42a1-8915-92794c5c5d2a,S
2020-02-06 01:20:53,65a6d434-aa12-42a1-8915-92794c5c5d2a,A
2020-02-06 01:32:22,65a6d434-aa12-42a1-8915-92794c5c5d2a,S
2020-02-06 01:33:12,65a6d434-aa12-42a1-8915-92794c5c5d2a,A
2020-02-06 01:34:51,65a6d434-aa12-42a1-8915-92794c5c5d2a,S
2020-02-06 01:35:44,65a6d434-aa12-42a1-8915-92794c5c5d2a,A
2020-02-06 01:53:08,65a6d434-aa12-42a1-8915-92794c5c5d2a,S
2020-02-06 01:53:14,65a6d434-aa12-42a1-8915-92794c5c5d2a,A
2020-02-06 01:56:23,65a6d434-aa12-42a1-8915-92794c5c5d2a,S
2020-02-06 01:59:50,65a6d434-aa12-42a1-8915-92794c5c5d2a,A
2020-02-06 02:02:04,65a6d434-aa12-42a1-8915-92794c5c5d2a,S
2020-02-06 02:08:00,65a6d434-aa12-42a1-8915-92794c5c5d2a,A
2020-02-06 02:09:23,65a6d434-aa12-42a1-8915-92794c5c5d2a,S
2020-02-06 02:13:19,65a6d434-aa12-42a1-8915-92794c5c5d2a,A
2020-02-06 02:18:52,65a6d434-aa12-42a1-8915-92794c5c5d2a,S
2020-02-06 01:04:14,1178c7d6-fb4f-49e5-932f-2c41edf2e069,A
2020-02-06 01:06:05,1178c7d6-fb4f-49e5-932f-2c41edf2e069,S
2020-02-06 01:15:34,1178c7d6-fb4f-49e5-932f-2c41edf2e069,A
2020-02-06 01:29:41,1178c7d6-fb4f-49e5-932f-2c41edf2e069,S
2020-02-06 01:31:17,1178c7d6-fb4f-49e5-932f-2c41edf2e069,A
2020-02-06 01:32:51,1178c7d6-fb4f-49e5-932f-2c41edf2e069,S
2020-02-06 01:34:44,1178c7d6-fb4f-49e5-932f-2c41edf2e069,A
2020-02-06 01:41:12,1178c7d6-fb4f-49e5-932f-2c41edf2e069,S
2020-02-06 01:46:06,1178c7d6-fb4f-49e5-932f-2c41edf2e069,A
2020-02-06 01:53:37,1178c7d6-fb4f-49e5-932f-2c41edf2e069,S
2020-02-06 01:53:39,1178c7d6-fb4f-49e5-932f-2c41edf2e069,A
2020-02-06 01:53:59,1178c7d6-fb4f-49e5-932f-2c41edf2e069,S
2020-02-06 01:56:19,1178c7d6-fb4f-49e5-932f-2c41edf2e069,A
2020-02-06 01:59:31,1178c7d6-fb4f-49e5-932f-2c41edf2e069,S
2020-02-06 02:00:17,1178c7d6-fb4f-49e5-932f-2c41edf2e069,A
2020-02-06 02:11:17,1178c7d6-fb4f-49e5-932f-2c41edf2e069,S
2020-02-06 02:12:05,1178c7d6-fb4f-49e5-932f-2c41edf2e069,A
2020-02-06 02:12:31,1178c7d6-fb4f-49e5-932f-2c41edf2e069,S
2020-02-06 02:14:44,1178c7d6-fb4f-49e5-932f-2c41edf2e069,A
2020-02-06 02:16:58,1178c7d6-fb4f-49e5-932f-2c41edf2e069,S
2020-02-06 02:17:17,1178c7d6-fb4f-49e5-932f-2c41edf2e069,A
2020-02-06 02:26:42,1178c7d6-fb4f-49e5-932f-2c41edf2e069,S
2020-02-06 01:03:41,2ac6b9e0-e6b7-4e8e-bb9c-87d96e7b95cf,A
2020-02-06 01:07:10,2ac6b9e0-e6b7-4e8e-bb9c-87d96e7b95cf,S
2020-02-06 01:10:14,2ac6b9e0-e6b7-4e8e-bb9c-87d96e7b95cf,A
2020-02-06 01:19:10,2ac6b9e0-e6b7-4e8e-bb9c-87d96e7b95cf,S
2020-02-06 01:34:08,2ac6b9e0-e6b7-4e8e-bb9c-87d96e7b95cf,A
2020-02-06 01:35:10,2ac6b9e0-e6b7-4e8e-bb9c-87d96e7b95cf,S
2020-02-06 01:35:39,2ac6b9e0-e6b7-4e8e-bb9c-87d96e7b95cf,A
2020-02-06 01:36:18,2ac6b9e0-e6b7-4e8e-bb9c-87d96e7b95cf,S
2020-02-06 01:43:22,2ac6b9e0-e6b7-4e8e-bb9c-87d96e7b95cf,A
2020-02-06 01:48:32,2ac6b9e0-e6b7-4e8e-bb9c-87d96e7b95cf,S
2020-02-06 02:07:24,2ac6b9e0-e6b7-4e8e-bb9c-87d96e7b95cf,A
2020-02-06 02:09:31,2ac6b9e0-e6b7-4e8e-bb9c-87d96e7b95cf,S
2020-02-06 02:16:38,2ac6b9e0-e6b7-4e8e-bb9c-87d96e7b95cf,A
2020-02-06 02:20:08,2ac6b9e0-e6b7-4e8e-bb9c-87d96e7b95cf,S
2020-02-06 00:38:41,c900f263-de8b-4850-87c1-340216ae297d,A
2020-02-06 00:42:07,c900f263-de8b-4850-87c1-340216ae297d,S
2020-02-06 00:47:12,c900f263-de8b-4850-87c1-340216ae297d,A
2020-02-06 00:49:02,c900f263-de8b-4850-87c1-340216ae297d,S
2020-02-06 00:59:34,c900f263-de8b-4850-87c1-340216ae297d,A
2020-02-06 01:00:08,c900f263-de8b-4850-87c1-340216ae297d,S
2020-02-06 01:08:33,c900f263-de8b-4850-87c1-340216ae297d,A
2020-02-06 01:10:53,c900f263-de8b-4850-87c1-340216ae297d,S
2020-02-06 01:19:17,c900f263-de8b-4850-87c1-340216ae297d,A
2020-02-06 01:37:43,c900f263-de8b-4850-87c1-340216ae297d,S
2020-02-06 01:38:59,c900f263-de8b-4850-87c1-340216ae297d,A
2020-02-06 01:39:10,c900f263-de8b-4850-87c1-340216ae297d,S
2020-02-06 01:42:22,c900f263-de8b-4850-87c1-340216ae297d,A
2020-02-06 01:51:13,c900f263-de8b-4850-87c1-340216ae297d,S
2020-02-06 02:06:18,c900f263-de8b-4850-87c1-340216ae297d,A
2020-02-06 02:06:35,c900f263-de8b-4850-87c1-340216ae297d,S
2020-02-06 02:17:07,c900f263-de8b-4850-87c1-340216ae297d,A
2020-02-06 02:30:06,c900f263-de8b-4850-87c1-340216ae297d,S
2020-02-06 00:53:19,2831a8ff-e0fc-4fea-953a-d1841724e16e,S
2020-02-06 00:53:23,2831a8ff-e0fc-4fea-953a-d1841724e16e,A
2020-02-06 01:00:33,2831a8ff-e0fc-4fea-953a-d1841724e16e,S
2020-02-06 01:12:04,2831a8ff-e0fc-4fea-953a-d1841724e16e,A
2020-02-06 01:13:40,2831a8ff-e0fc-4fea-953a-d1841724e16e,S
2020-02-06 01:16:47,2831a8ff-e0fc-4fea-953a-d1841724e16e,A
2020-02-06 01:17:04,2831a8ff-e0fc-4fea-953a-d1841724e16e,S
2020-02-06 01:35:03,2831a8ff-e0fc-4fea-953a-d1841724e16e,A
2020-02-06 01:37:26,2831a8ff-e0fc-4fea-953a-d1841724e16e,S
2020-02-06 01:49:48,2831a8ff-e0fc-4fea-953a-d1841724e16e,A
2020-02-06 02:01:56,2831a8ff-e0fc-4fea-953a-d1841724e16e,S
2020-02-06 02:07:27,2831a8ff-e0fc-4fea-953a-d1841724e16e,A
2020-02-06 02:07:54,2831a8ff-e0fc-4fea-953a-d1841724e16e,S
2020-02-06 02:10:09,2831a8ff-e0fc-4fea-953a-d1841724e16e,A
2020-02-06 02:13:48,2831a8ff-e0fc-4fea-953a-d1841724e16e,S
2020-02-06 02:17:08,2831a8ff-e0fc-4fea-953a-d1841724e16e,A
2020-02-06 02:21:38,2831a8ff-e0fc-4fea-953a-d1841724e16e,S
2020-02-06 02:22:35,2831a8ff-e0fc-4fea-953a-d1841724e16e,A
2020-02-06 02:22:57,2831a8ff-e0fc-4fea-953a-d1841724e16e,S
2020-02-06 02:23:55,2831a8ff-e0fc-4fea-953a-d1841724e16e,A
2020-02-06 00:55:59,3aad682e-557b-4563-ad4c-48bbdc4c8418,A
2020-02-06 01:13:09,5e8acd2e-786c-4c88-80b6-9dc89285b7d1,S
2020-02-06 01:15:28,5e8acd2e-786c-4c88-80b6-9dc89285b7d1,A
2020-02-06 01:21:59,5e8acd2e-786c-4c88-80b6-9dc89285b7d1,S
2020-02-06 01:22:57,5e8acd2e-786c-4c88-80b6-9dc89285b7d1,A
2020-02-06 01:23:17,5e8acd2e-786c-4c88-80b6-9dc89285b7d1,S
2020-02-06 01:28:27,5e8acd2e-786c-4c88-80b6-9dc89285b7d1,A
2020-02-06 01:33:21,5e8acd2e-786c-4c88-80b6-9dc89285b7d1,S
2020-02-06 01:38:00,5e8acd2e-786c-4c88-80b6-9dc89285b7d1,A
2020-02-06 01:51:00,5e8acd2e-786c-4c88-80b6-9dc89285b7d1,S
2020-02-06 02:08:29,5e8acd2e-786c-4c88-80b6-9dc89285b7d1,A
2020-02-06 02:13:13,5e8acd2e-786c-4c88-80b6-9dc89285b7d1,S
2020-02-06 02:15:21,5e8acd2e-786c-4c88-80b6-9dc89285b7d1,A
2020-02-06 02:16:35,5e8acd2e-786c-4c88-80b6-9dc89285b7d1,S
2020-02-06 02:17:57,5e8acd2e-786c-4c88-80b6-9dc89285b7d1,A
2020-02-06 02:18:41,5e8acd2e-786c-4c88-80b6-9dc89285b7d1,S
2020-02-06 02:19:14,5e8acd2e-786c-4c88-80b6-9dc89285b7d1,A
2020-02-06 02:20:18,5e8acd2e-786c-4c88-80b6-9dc89285b7d1,S
2020-02-06 02:26:59,5e8acd2e-786c-4c88-80b6-9dc89285b7d1,A
2020-02-06 02:27:18,5e8acd2e-786c-4c88-80b6-9dc89285b7d1,S
2020-02-06 02:28:06,5e8acd2e-786c-4c88-80b6-9dc89285b7d1,A
2020-02-06 02:28:08,5e8acd2e-786c-4c88-80b6-9dc89285b7d1,S
2020-02-06 01:11:02,b7f0146f-b55b-476d-8c76-bf2578be20fe,S
2020-02-06 01:11:51,b7f0146f-b55b-476d-8c76-bf2578be20fe,A
2020-02-06 01:24:27,b7f0146f-b55b-476d-8c76-bf2578be20fe,S
2020-02-06 01:25:33,b7f0146f-b55b-476d-8c76-bf2578be20fe,A
2020-02-06 01:27:38,b7f0146f-b55b-476d-8c76-bf2578be20fe,S
2020-02-06 01:52:31,b7f0146f-b55b-476d-8c76-bf2578be20fe,A
2020-02-06 02:04:21,b7f0146f-b55b-476d-8c76-bf2578be20fe,S
2020-02-06 02:08:42,b7f0146f-b55b-476d-8c76-bf2578be20fe,A
2020-02-06 02:08:43,b7f0146f-b55b-476d-8c76-bf2578be20fe,S
2020-02-06 02:12:52,b7f0146f-b55b-476d-8c76-bf2578be20fe,A
2020-02-06 02:17:04,b7f0146f-b55b-476d-8c76-bf2578be20fe,S
2020-02-06 02:26:27,b7f0146f-b55b-476d-8c76-bf2578be20fe,A
2020-02-06 00:52:14,0819726e-289b-4773-8251-937e10f04e18,S
2020-02-06 00:56:32,0819726e-289b-4773-8251-937e10f04e18,A
2020-02-06 01:10:14,0819726e-289b-4773-8251-937e10f04e18,S
2020-02-06 01:10:38,0819726e-289b-4773-8251-937e10f04e18,A
2020-02-06 01:15:14,0819726e-289b-4773-8251-937e10f04e18,S
2020-02-06 01:18:33,0819726e-289b-4773-8251-937e10f04e18,A
2020-02-06 01:21:39,0819726e-289b-4773-8251-937e10f04e18,S
2020-02-06 01:26:12,0819726e-289b-4773-8251-937e10f04e18,A
2020-02-06 01:29:25,0819726e-289b-4773-8251-937e10f04e18,S
2020-02-06 01:33:02,0819726e-289b-4773-8251-937e10f04e18,A
2020-02-06 01:48:53,0819726e-289b-4773-8251-937e10f04e18,S
2020-02-06 01:53:10,0819726e-289b-4773-8251-937e10f04e18,A
2020-02-06 01:53:31,0819726e-289b-4773-8251-937e10f04e18,S
2020-02-06 01:58:37,0819726e-289b-4773-8251-937e10f04e18,A
2020-02-06 02:05:56,0819726e-289b-4773-8251-937e10f04e18,S
2020-02-06 02:19:03,0819726e-289b-4773-8251-937e10f04e18,A
2020-02-06 02:20:05,0819726e-289b-4773-8251-937e10f04e18,S
2020-02-06 00:47:14,aa0df74d-4836-4ce5-8d7b-c5629325fede,S
2020-02-06 00:56:16,aa0df74d-4836-4ce5-8d7b-c5629325fede,A
2020-02-06 00:54:20,1c8845b6-02da-4ca7-a3bd-15fd3c2a07eb,S
2020-02-06 00:58:29,1c8845b6-02da-4ca7-a3bd-15fd3c2a07eb,A
2020-02-06 01:05:57,1c8845b6-02da-4ca7-a3bd-15fd3c2a07eb,S
2020-02-06 01:10:09,1c8845b6-02da-4ca7-a3bd-15fd3c2a07eb,A
2020-02-06 01:10:23,1c8845b6-02da-4ca7-a3bd-15fd3c2a07eb,S
2020-02-06 01:19:52,1c8845b6-02da-4ca7-a3bd-15fd3c2a07eb,A
2020-02-06 01:22:53,1c8845b6-02da-4ca7-a3bd-15fd3c2a07eb,S
2020-02-06 01:24:20,1c8845b6-02da-4ca7-a3bd-15fd3c2a07eb,A
2020-02-06 01:26:04,1c8845b6-02da-4ca7-a3bd-15fd3c2a07eb,S
2020-02-06 01:35:44,1c8845b6-02da-4ca7-a3bd-15fd3c2a07eb,A
2020-02-06 01:40:34,1c8845b6-02da-4ca7-a3bd-15fd3c2a07eb,S
2020-02-06 01:42:17,1c8845b6-02da-4ca7-a3bd-15fd3c2a07eb,A
2020-02-06 01:43:14,1c8845b6-02da-4ca7-a3bd-15fd3c2a07eb,S
2020-02-06 01:48:41,1c8845b6-02da-4ca7-a3bd-15fd3c2a07eb,A
2020-02-06 01:53:16,1c8845b6-02da-4ca7-a3bd-15fd3c2a07eb,S
2020-02-06 01:57:57,1c8845b6-02da-4ca7-a3bd-15fd3c2a07eb,A
2020-02-06 02:05:58,1c8845b6-02da-4ca7-a3bd-15fd3c2a07eb,S
2020-02-06 02:11:09,1c8845b6-02da-4ca7-a3bd-15fd3c2a07eb,A
2020-02-06 02:14:29,1c8845b6-02da-4ca7-a3bd-15fd3c2a07eb,S
2020-02-06 02:27:15,1c8845b6-02da-4ca7-a3bd-15fd3c2a07eb,A
2020-02-06 00:38:15,472d630b-9942-41cc-93ed-ae5d81ff5021,A
2020-02-06 00:41:05,472d630b-9942-41cc-93ed-ae5d81ff5021,S
2020-02-06 00:46:12,472d630b-9942-41cc-93ed-ae5d81ff5021,A
2020-02-06 01:01:39,472d630b-9942-41cc-93ed-ae5d81ff5021,S
2020-02-06 01:10:42,472d630b-9942-41cc-93ed-ae5d81ff5021,A
2020-02-06 01:20:25,472d630b-9942-41cc-93ed-ae5d81ff5021,S
2020-02-06 01:28:56,472d630b-9942-41cc-93ed-ae5d81ff5021,A
2020-02-06 01:29:42,472d630b-9942-41cc-93ed-ae5d81ff5021,S
2020-02-06 01:30:00,472d630b-9942-41cc-93ed-ae5d81ff5021,A
2020-02-06 01:38:39,472d630b-9942-41cc-93ed-ae5d81ff5021,S
2020-02-06 01:41:38,472d630b-9942-41cc-93ed-ae5d81ff5021,A
2020-02-06 01:41:40,472d630b-9942-41cc-93ed-ae5d81ff5021,S
2020-02-06 01:42:52,472d630b-9942-41cc-93ed-ae5d81ff5021,A
2020-02-06 01:44:42,472d630b-9942-41cc-93ed-ae5d81ff5021,S
2020-02-06 01:46:32,472d630b-9942-41cc-93ed-ae5d81ff5021,A
2020-02-06 01:47:32,472d630b-9942-41cc-93ed-ae5d81ff5021,S
2020-02-06 01:49:15,472d630b-9942-41cc-93ed-ae5d81ff5021,A
2020-02-06 01:58:30,472d630b-9942-41cc-93ed-ae5d81ff5021,S
2020-02-06 02:00:37,472d630b-9942-41cc-93ed-ae5d81ff5021,A
2020-02-06 02:01:36,472d630b-9942-41cc-93ed-ae5d81ff5021,S
2020-02-06 02:04:03,472d630b-9942-41cc-93ed-ae5d81ff5021,A
2020-02-06 02:12:48,472d630b-9942-41cc-93ed-ae5d81ff5021,S
2020-02-06 02:15:05,472d630b-9942-41cc-93ed-ae5d81ff5021,A
2020-02-06 02:19:57,472d630b-9942-41cc-93ed-ae5d81ff5021,S
2020-02-06 02:20:05,472d630b-9942-41cc-93ed-ae5d81ff5021,A
2020-02-06 02:20:44,472d630b-9942-41cc-93ed-ae5d81ff5021,S
2020-02-06 02:24:13,472d630b-9942-41cc-93ed-ae5d81ff5021,A
2020-02-06 02:25:39,472d630b-9942-41cc-93ed-ae5d81ff5021,S
2020-02-06 00:48:19,ac772f0b-7138-497a-bbad-05386bc46ec3,A
2020-02-06 00:54:22,ac772f0b-7138-497a-bbad-05386bc46ec3,S
2020-02-06 00:56:52,ac772f0b-7138-497a-bbad-05386bc46ec3,A
2020-02-06 00:57:37,ac772f0b-7138-497a-bbad-05386bc46ec3,S
2020-02-06 00:57:40,ac772f0b-7138-497a-bbad-05386bc46ec3,A
2020-02-06 01:00:30,ac772f0b-7138-497a-bbad-05386bc46ec3,S
2020-02-06 01:08:46,ac772f0b-7138-497a-bbad-05386bc46ec3,A
2020-02-06 01:11:32,ac772f0b-7138-497a-bbad-05386bc46ec3,S
2020-02-06 01:11:35,ac772f0b-7138-497a-bbad-05386bc46ec3,A
2020-02-06 01:17:40,ac772f0b-7138-497a-bbad-05386bc46ec3,S
2020-02-06 01:22:03,ac772f0b-7138-497a-bbad-05386bc46ec3,A
2020-02-06 01:29:24,ac772f0b-7138-497a-bbad-05386bc46ec3,S
2020-02-06 01:30:33,ac772f0b-7138-497a-bbad-05386bc46ec3,A
2020-02-06 01:34:30,ac772f0b-7138-497a-bbad-05386bc46ec3,S
2020-02-06 01:35:17,ac772f0b-7138-497a-bbad-05386bc46ec3,A
2020-02-06 01:35:34,ac772f0b-7138-497a-bbad-05386bc46ec3,S
2020-02-06 01:46:08,ac772f0b-7138-497a-bbad-05386bc46ec3,A
2020-02-06 01:47:31,ac772f0b-7138-497a-bbad-05386bc46ec3,S
2020-02-06 01:53:15,ac772f0b-7138-497a-bbad-05386bc46ec3,A
2020-02-06 01:57:42,ac772f0b-7138-497a-bbad-05386bc46ec3,S
2020-02-06 01:59:01,ac772f0b-7138-497a-bbad-05386bc46ec3,A
2020-02-06 02:01:48,ac772f0b-7138-497a-bbad-05386bc46ec3,S
2020-02-06 02:03:12,ac772f0b-7138-497a-bbad-05386bc46ec3,A
2020-02-06 02:12:02,ac772f0b-7138-497a-bbad-05386bc46ec3,S
2020-02-06 02:13:31,ac772f0b-7138-497a-bbad-05386bc46ec3,A
2020-02-06 02:17:10,ac772f0b-7138-497a-bbad-05386bc46ec3,S
2020-02-06 02:17:27,ac772f0b-7138-497a-bbad-05386bc46ec3,A
2020-02-06 02:21:25,ac772f0b-7138-497a-bbad-05386bc46ec3,S
2020-02-06 01:09:04,11aeaaf3-e1c5-4de4-8f02-9dcbd5214a36,A
2020-02-06 01:14:10,11aeaaf3-e1c5-4de4-8f02-9dcbd5214a36,S
2020-02-06 01:15:13,11aeaaf3-e1c5-4de4-8f02-9dcbd5214a36,A
2020-02-06 01:17:09,11aeaaf3-e1c5-4de4-8f02-9dcbd5214a36,S
2020-02-06 01:24:44,11aeaaf3-e1c5-4de4-8f02-9dcbd5214a36,A
2020-02-06 01:26:09,11aeaaf3-e1c5-4de4-8f02-9dcbd5214a36,S
2020-02-06 01:36:02,11aeaaf3-e1c5-4de4-8f02-9dcbd5214a36,A
2020-02-06 01:37:50,11aeaaf3-e1c5-4de4-8f02-9dcbd5214a36,S
2020-02-06 01:42:44,11aeaaf3-e1c5-4de4-8f02-9dcbd5214a36,A
2020-02-06 01:47:08,11aeaaf3-e1c5-4de4-8f02-9dcbd5214a36,S
2020-02-06 01:55:52,11aeaaf3-e1c5-4de4-8f02-9dcbd5214a36,A
2020-02-06 01:57:23,11aeaaf3-e1c5-4de4-8f02-9dcbd5214a36,S
2020-02-06 01:59:17,11aeaaf3-e1c5-4de4-8f02-9dcbd5214a36,A
2020-02-06 02:01:44,11aeaaf3-e1c5-4de4-8f02-9dcbd5214a36,S
2020-02-06 02:05:58,11aeaaf3-e1c5-4de4-8f02-9dcbd5214a36,A
2020-02-06 02:11:48,11aeaaf3-e1c5-4de4-8f02-9dcbd5214a36,S
2020-02-06 02:17:17,11aeaaf3-e1c5-4de4-8f02-9dcbd5214a36,A
2020-02-06 02:26:30,11aeaaf3-e1c5-4de4-8f02-9dcbd5214a36,S
2020-02-06 01:10:54,4e56d00d-548d-4047-acb3-76550ef16673,A
2020-02-06 01:44:40,4e56d00d-548d-4047-acb3-76550ef16673,S
2020-02-06 01:45:07,4e56d00d-548d-4047-acb3-76550ef16673,A
2020-02-06 02:14:24,4e56d00d-548d-4047-acb3-76550ef16673,S
2020-02-06 02:17:27,4e56d00d-548d-4047-acb3-76550ef16673,A
2020-02-06 02:19:55,4e56d00d-548d-4047-acb3-76550ef16673,S
2020-02-06 02:21:27,4e56d00d-548d-4047-acb3-76550ef16673,A
2020-02-06 02:22:13,4e56d00d-548d-4047-acb3-76550ef16673,S
2020-02-06 02:25:28,4e56d00d-548d-4047-acb3-76550ef16673,A
2020-02-06 00:34:52,9edd7f8b-37d0-42fd-b356-2b32baa3263e,S
2020-02-06 00:38:59,9edd7f8b-37d0-42fd-b356-2b32baa3263e,A
2020-02-06 00:49:22,9edd7f8b-37d0-42fd-b356-2b32baa3263e,S
2020-02-06 00:50:56,9edd7f8b-37d0-42fd-b356-2b32baa3263e,A
2020-02-06 00:58:27,9edd7f8b-37d0-42fd-b356-2b32baa3263e,S
2020-02-06 00:58:42,9edd7f8b-37d0-42fd-b356-2b32baa3263e,A
2020-02-06 01:00:07,9edd7f8b-37d0-42fd-b356-2b32baa3263e,S
2020-02-06 01:17:24,9edd7f8b-37d0-42fd-b356-2b32baa3263e,A
2020-02-06 01:23:10,9edd7f8b-37d0-42fd-b356-2b32baa3263e,S
2020-02-06 01:26:44,9edd7f8b-37d0-42fd-b356-2b32baa3263e,A
2020-02-06 01:29:56,9edd7f8b-37d0-42fd-b356-2b32baa3263e,S
2020-02-06 01:30:13,9edd7f8b-37d0-42fd-b356-2b32baa3263e,A
2020-02-06 01:48:48,9edd7f8b-37d0-42fd-b356-2b32baa3263e,S
2020-02-06 01:49:14,9edd7f8b-37d0-42fd-b356-2b32baa3263e,A
2020-02-06 01:52:04,9edd7f8b-37d0-42fd-b356-2b32baa3263e,S
2020-02-06 02:05:37,9edd7f8b-37d0-42fd-b356-2b32baa3263e,A
2020-02-06 02:08:55,9edd7f8b-37d0-42fd-b356-2b32baa3263e,S
2020-02-06 02:11:23,9edd7f8b-37d0-42fd-b356-2b32baa3263e,A
2020-02-06 02:12:00,9edd7f8b-37d0-42fd-b356-2b32baa3263e,S
2020-02-06 02:17:14,9edd7f8b-37d0-42fd-b356-2b32baa3263e,A
2020-02-06 02:21:54,9edd7f8b-37d0-42fd-b356-2b32baa3263e,S
2020-02-06 02:25:51,9edd7f8b-37d0-42fd-b356-2b32baa3263e,A
2020-02-06 02:27:43,9edd7f8b-37d0-42fd-b356-2b32baa3263e,S
2020-02-06 02:28:41,9edd7f8b-37d0-42fd-b356-2b32baa3263e,A
2020-02-06 00:42:54,56cc4cdb-82a4-4537-8fe3-ff9805c90203,S
2020-02-06 00:50:32,56cc4cdb-82a4-4537-8fe3-ff9805c90203,A
2020-02-06 00:52:28,56cc4cdb-82a4-4537-8fe3-ff9805c90203,S
2020-02-06 01:03:46,56cc4cdb-82a4-4537-8fe3-ff9805c90203,A
2020-02-06 01:05:36,56cc4cdb-82a4-4537-8fe3-ff9805c90203,S
2020-02-06 01:06:17,56cc4cdb-82a4-4537-8fe3-ff9805c90203,A
2020-02-06 01:15:48,56cc4cdb-82a4-4537-8fe3-ff9805c90203,S
2020-02-06 01:19:03,56cc4cdb-82a4-4537-8fe3-ff9805c90203,A
2020-02-06 01:19:39,56cc4cdb-82a4-4537-8fe3-ff9805c90203,S
2020-02-06 01:20:10,56cc4cdb-82a4-4537-8fe3-ff9805c90203,A
2020-02-06 01:25:14,56cc4cdb-82a4-4537-8fe3-ff9805c90203,S
2020-02-06 01:25:39,56cc4cdb-82a4-4537-8fe3-ff9805c90203,A
2020-02-06 01:26:03,56cc4cdb-82a4-4537-8fe3-ff9805c90203,S
2020-02-06 01:26:47,56cc4cdb-82a4-4537-8fe3-ff9805c90203,A
2020-02-06 01:28:38,56cc4cdb-82a4-4537-8fe3-ff9805c90203,S
2020-02-06 01:29:31,56cc4cdb-82a4-4537-8fe3-ff9805c90203,A
2020-02-06 01:40:05,56cc4cdb-82a4-4537-8fe3-ff9805c90203,S
2020-02-06 01:41:17,56cc4cdb-82a4-4537-8fe3-ff9805c90203,A
2020-02-06 01:48:09,56cc4cdb-82a4-4537-8fe3-ff9805c90203,S
2020-02-06 01:56:49,56cc4cdb-82a4-4537-8fe3-ff9805c90203,A
2020-02-06 01:59:57,56cc4cdb-82a4-4537-8fe3-ff9805c90203,S
2020-02-06 02:03:32,56cc4cdb-82a4-4537-8fe3-ff9805c90203,A
2020-02-06 02:03:48,56cc4cdb-82a4-4537-8fe3-ff9805c90203,S
2020-02-06 02:10:53,56cc4cdb-82a4-4537-8fe3-ff9805c90203,A
2020-02-06 02:11:02,56cc4cdb-82a4-4537-8fe3-ff9805c90203,S
2020-02-06 02:11:27,56cc4cdb-82a4-4537-8fe3-ff9805c90203,A
2020-02-06 02:12:04,56cc4cdb-82a4-4537-8fe3-ff9805c90203,S
2020-02-06 02:14:09,56cc4cdb-82a4-4537-8fe3-ff9805c90203,A
2020-02-06 02:14:12,56cc4cdb-82a4-4537-8fe3-ff9805c90203,S
2020-02-06 02:25:58,56cc4cdb-82a4-4537-8fe3-ff9805c90203,A
2020-02-06 02:29:22,56cc4cdb-82a4-4537-8fe3-ff9805c90203,S
2020-02-06 02:31:14,56cc4cdb-82a4-4537-8fe3-ff9805c90203,A
2020-02-06 00:56:37,42c9b099-cec3-4e14-8446-f49784313732,S
2020-02-06 01:08:51,42c9b099-cec3-4e14-8446-f49784313732,A
2020-02-06 01:19:00,42c9b099-cec3-4e14-8446-f49784313732,S
2020-02-06 01:20:18,42c9b099-cec3-4e14-8446-f49784313732,A
2020-02-06 01:22:17,42c9b099-cec3-4e14-8446-f49784313732,S
2020-02-06 01:28:56,42c9b099-cec3-4e14-8446-f49784313732,A
2020-02-06 01:29:43,42c9b099-cec3-4e14-8446-f49784313732,S
2020-02-06 01:32:05,42c9b099-cec3-4e14-8446-f49784313732,A
2020-02-06 01:32:55,42c9b099-cec3-4e14-8446-f49784313732,S
2020-02-06 01:33:17,42c9b099-cec3-4e14-8446-f49784313732,A
2020-02-06 01:33:36,42c9b099-cec3-4e14-8446-f49784313732,S
2020-02-06 01:40:33,42c9b099-cec3-4e14-8446-f49784313732,A
2020-02-06 01:53:23,42c9b099-cec3-4e14-8446-f49784313732,S
2020-02-06 01:58:00,42c9b099-cec3-4e14-8446-f49784313732,A
2020-02-06 01:58:39,42c9b099-cec3-4e14-8446-f49784313732,S
2020-02-06 02:15:34,42c9b099-cec3-4e14-8446-f49784313732,A
2020-02-06 02:17:54,42c9b099-cec3-4e14-8446-f49784313732,S
2020-02-06 02:18:08,42c9b099-cec3-4e14-8446-f49784313732,A
2020-02-06 02:19:27,42c9b099-cec3-4e14-8446-f49784313732,S
2020-02-06 02:21:54,42c9b099-cec3-4e14-8446-f49784313732,A
2020-02-06 02:27:21,42c9b099-cec3-4e14-8446-f49784313732,S
2020-02-06 02:30:25,42c9b099-cec3-4e14-8446-f49784313732,A
2020-02-06 00:58:59,cc9e2ec9-ef8a-4b8c-88a5-e6f594e1cf80,A
2020-02-06 00:59:28,cc9e2ec9-ef8a-4b8c-88a5-e6f594e1cf80,S
2020-02-06 01:07:58,cc9e2ec9-ef8a-4b8c-88a5-e6f594e1cf80,A
2020-02-06 01:09:17,cc9e2ec9-ef8a-4b8c-88a5-e6f594e1cf80,S
2020-02-06 01:09:18,cc9e2ec9-ef8a-4b8c-88a5-e6f594e1cf80,A
2020-02-06 01:17:54,cc9e2ec9-ef8a-4b8c-88a5-e6f594e1cf80,S
2020-02-06 01:19:09,cc9e2ec9-ef8a-4b8c-88a5-e6f594e1cf80,A
2020-02-06 01:19:59,cc9e2ec9-ef8a-4b8c-88a5-e6f594e1cf80,S
2020-02-06 01:23:46,cc9e2ec9-ef8a-4b8c-88a5-e6f594e1cf80,A
2020-02-06 01:24:52,cc9e2ec9-ef8a-4b8c-88a5-e6f594e1cf80,S
2020-02-06 01:25:04,cc9e2ec9-ef8a-4b8c-88a5-e6f594e1cf80,A
2020-02-06 01:30:37,cc9e2ec9-ef8a-4b8c-88a5-e6f594e1cf80,S
2020-02-06 01:35:57,cc9e2ec9-ef8a-4b8c-88a5-e6f594e1cf80,A
2020-02-06 01:48:12,cc9e2ec9-ef8a-4b8c-88a5-e6f594e1cf80,S
2020-02-06 01:48:27,cc9e2ec9-ef8a-4b8c-88a5-e6f594e1cf80,A
2020-02-06 01:52:37,cc9e2ec9-ef8a-4b8c-88a5-e6f594e1cf80,S
2020-02-06 02:02:14,cc9e2ec9-ef8a-4b8c-88a5-e6f594e1cf80,A
2020-02-06 02:14:19,cc9e2ec9-ef8a-4b8c-88a5-e6f594e1cf80,S
2020-02-06 02:17:48,cc9e2ec9-ef8a-4b8c-88a5-e6f594e1cf80,A
2020-02-06 02:22:11,cc9e2ec9-ef8a-4b8c-88a5-e6f594e1cf80,S
2020-02-06 02:23:36,cc9e2ec9-ef8a-4b8c-88a5-e6f594e1cf80,A
2020-02-06 02:24:11,cc9e2ec9-ef8a-4b8c-88a5-e6f594e1cf80,S
2020-02-06 02:31:12,cc9e2ec9-ef8a-4b8c-88a5-e6f594e1cf80,A
2020-02-06 00:23:17,29edbd3a-9c2d-4d5a-b817-39424d38d0d6,S
2020-02-06 00:24:22,29edbd3a-9c2d-4d5a-b817-39424d38d0d6,A
2020-02-06 00:25:37,29edbd3a-9c2d-4d5a-b817-39424d38d0d6,S
2020-02-06 00:29:15,29edbd3a-9c2d-4d5a-b817-39424d38d0d6,A
2020-02-06 00:31:59,29edbd3a-9c2d-4d5a-b817-39424d38d0d6,S
2020-02-06 00:37:10,29edbd3a-9c2d-4d5a-b817-39424d38d0d6,A
2020-02-06 00:38:27,29edbd3a-9c2d-4d5a-b817-39424d38d0d6,S
2020-02-06 00:44:26,29edbd3a-9c2d-4d5a-b817-39424d38d0d6,A
2020-02-06 00:55:43,29edbd3a-9c2d-4d5a-b817-39424d38d0d6,S
2020-02-06 00:59:24,29edbd3a-9c2d-4d5a-b817-39424d38d0d6,A
2020-02-06 01:03:55,29edbd3a-9c2d-4d5a-b817-39424d38d0d6,S
2020-02-06 01:15:23,29edbd3a-9c2d-4d5a-b817-39424d38d0d6,A
2020-02-06 01:28:50,29edbd3a-9c2d-4d5a-b817-39424d38d0d6,S
2020-02-06 01:29:48,29edbd3a-9c2d-4d5a-b817-39424d38d0d6,A
2020-02-06 01:31:21,29edbd3a-9c2d-4d5a-b817-39424d38d0d6,S
2020-02-06 01:32:07,29edbd3a-9c2d-4d5a-b817-39424d38d0d6,A
2020-02-06 01:33:16,29edbd3a-9c2d-4d5a-b817-39424d38d0d6,S
2020-02-06 01:41:52,29edbd3a-9c2d-4d5a-b817-39424d38d0d6,A
2020-02-06 01:43:50,29edbd3a-9c2d-4d5a-b817-39424d38d0d6,S
2020-02-06 01:45:38,29edbd3a-9c2d-4d5a-b817-39424d38d0d6,A
2020-02-06 01:50:26,29edbd3a-9c2d-4d5a-b817-39424d38d0d6,S
2020-02-06 01:59:19,29edbd3a-9c2d-4d5a-b817-39424d38d0d6,A
2020-02-06 02:10:11,29edbd3a-9c2d-4d5a-b817-39424d38d0d6,S
2020-02-06 02:14:07,29edbd3a-9c2d-4d5a-b817-39424d38d0d6,A
2020-02-06 02:14:25,29edbd3a-9c2d-4d5a-b817-39424d38d0d6,S
2020-02-06 02:20:04,29edbd3a-9c2d-4d5a-b817-39424d38d0d6,A
2020-02-06 02:26:29,29edbd3a-9c2d-4d5a-b817-39424d38d0d6,S
2020-02-06 02:26:30,29edbd3a-9c2d-4d5a-b817-39424d38d0d6,A
2020-02-06 02:28:29,29edbd3a-9c2d-4d5a-b817-39424d38d0d6,S
2020-02-06 02:31:06,29edbd3a-9c2d-4d5a-b817-39424d38d0d6,A
2020-02-06 00:58:38,c842323b-2c01-4576-a2f0-e9c036a5e6bb,A
2020-02-06 00:59:17,c842323b-2c01-4576-a2f0-e9c036a5e6bb,S
2020-02-06 01:00:53,c842323b-2c01-4576-a2f0-e9c036a5e6bb,A
2020-02-06 01:15:06,c842323b-2c01-4576-a2f0-e9c036a5e6bb,S
2020-02-06 01:17:12,c842323b-2c01-4576-a2f0-e9c036a5e6bb,A
2020-02-06 01:19:39,c842323b-2c01-4576-a2f0-e9c036a5e6bb,S
2020-02-06 01:27:17,c842323b-2c01-4576-a2f0-e9c036a5e6bb,A
2020-02-06 01:30:57,c842323b-2c01-4576-a2f0-e9c036a5e6bb,S
2020-02-06 01:34:19,c842323b-2c01-4576-a2f0-e9c036a5e6bb,A
2020-02-06 01:45:09,c842323b-2c01-4576-a2f0-e9c036a5e6bb,S
2020-02-06 01:45:13,c842323b-2c01-4576-a2f0-e9c036a5e6bb,A
2020-02-06 01:54:43,c842323b-2c01-4576-a2f0-e9c036a5e6bb,S
2020-02-06 02:15:12,c842323b-2c01-4576-a2f0-e9c036a5e6bb,A
2020-02-06 02:22:27,c842323b-2c01-4576-a2f0-e9c036a5e6bb,S
2020-02-06 02:26:26,c842323b-2c01-4576-a2f0-e9c036a5e6bb,A
2020-02-06 01:01:32,244d68dd-c56c-4472-b1ad-5f9cf7d1bb28,S
2020-02-06 01:03:28,244d68dd-c56c-4472-b1ad-5f9cf7d1bb28,A
2020-02-06 01:06:36,244d68dd-c56c-4472-b1ad-5f9cf7d1bb28,S
2020-02-06 01:07:06,244d68dd-c56c-4472-b1ad-5f9cf7d1bb28,A
2020-02-06 01:10:14,244d68dd-c56c-4472-b1ad-5f9cf7d1bb28,S
2020-02-06 01:12:14,244d68dd-c56c-4472-b1ad-5f9cf7d1bb28,A
2020-02-06 01:16:31,244d68dd-c56c-4472-b1ad-5f9cf7d1bb28,S
2020-02-06 01:17:28,244d68dd-c56c-4472-b1ad-5f9cf7d1bb28,A
2020-02-06 01:18:17,244d68dd-c56c-4472-b1ad-5f9cf7d1bb28,S
2020-02-06 01:25:44,244d68dd-c56c-4472-b1ad-5f9cf7d1bb28,A
2020-02-06 01:27:57,244d68dd-c56c-4472-b1ad-5f9cf7d1bb28,S
2020-02-06 01:31:28,244d68dd-c56c-4472-b1ad-5f9cf7d1bb28,A
2020-02-06 01:39:45,244d68dd-c56c-4472-b1ad-5f9cf7d1bb28,S
2020-02-06 01:47:09,244d68dd-c56c-4472-b1ad-5f9cf7d1bb28,A
2020-02-06 01:49:12,244d68dd-c56c-4472-b1ad-5f9cf7d1bb28,S
2020-02-06 01:51:57,244d68dd-c56c-4472-b1ad-5f9cf7d1bb28,A
2020-02-06 01:53:01,244d68dd-c56c-4472-b1ad-5f9cf7d1bb28,S
2020-02-06 01:54:19,244d68dd-c56c-4472-b1ad-5f9cf7d1bb28,A
2020-02-06 01:55:51,244d68dd-c56c-4472-b1ad-5f9cf7d1bb28,S
2020-02-06 02:03:59,244d68dd-c56c-4472-b1ad-5f9cf7d1bb28,A
2020-02-06 02:04:09,244d68dd-c56c-4472-b1ad-5f9cf7d1bb28,S
2020-02-06 02:04:21,244d68dd-c56c-4472-b1ad-5f9cf7d1bb28,A
2020-02-06 02:08:11,244d68dd-c56c-4472-b1ad-5f9cf7d1bb28,S
2020-02-06 02:10:36,244d68dd-c56c-4472-b1ad-5f9cf7d1bb28,A
2020-02-06 02:11:20,244d68dd-c56c-4472-b1ad-5f9cf7d1bb28,S
2020-02-06 02:12:38,244d68dd-c56c-4472-b1ad-5f9cf7d1bb28,A
2020-02-06 02:13:31,244d68dd-c56c-4472-b1ad-5f9cf7d1bb28,S
2020-02-06 02:21:54,244d68dd-c56c-4472-b1ad-5f9cf7d1bb28,A
2020-02-06 02:23:07,244d68dd-c56c-4472-b1ad-5f9cf7d1bb28,S
2020-02-06 02:32:06,244d68dd-c56c-4472-b1ad-5f9cf7d1bb28,A
2020-02-06 00:51:55,e576a571-d0c3-4860-8db7-8da841ba8dfa,S
2020-02-06 00:57:10,e576a571-d0c3-4860-8db7-8da841ba8dfa,A
