app_number,app_id,trigger,burn,sink,deploy_date,token_interval
1,95399eba-d831-4b24-a84a-c08f136e1410,6ce7dae9-428d-43d1-a7e7-5824a7efa827,e9e9e358-676d-4b1c-bee0-e92f3a9f7ccb,06ae4247-3dbb-47a8-a4a7-1923a4163865,2020-02-28 03:58:37,2.000000
2,3fdb8a68-7a7f-4333-a36a-d8c33544a88e,6986c3f1-5cae-4ed7-b226-c867f10472cd,c2b94904-d414-4e79-9cb6-9ff99fc28afb,b0fc978b-84eb-44eb-b188-11e08b9b2afe,2020-02-28 03:59:40,2.000000
3,29033cac-3d36-43a9-85da-b785e089ddbf,a0e81e37-f6b3-48dc-8874-3fcb7dfe95d1,59b14a5e-eb56-4e21-a15d-978ab92481c5,076683cd-f74f-42fe-bffb-742e6e9261f8,2020-02-28 04:00:42,2.000000
4,6a3b47cf-621a-4a65-bc34-5cb609134da1,d7585d9a-015c-49ba-91a8-ca16d45f5706,90a42b17-ea45-4b3f-b4e1-4a5088d88efc,00750aeb-960d-45e9-bd12-fe183d63b072,2020-02-28 04:01:46,1.000000
5,60ac61ea-771a-4596-91ed-3068d7be9ab5,1c5a7ac2-e46b-4127-bc8c-8cde3f0094f2,db1c1509-6f12-42c1-8517-5fb0072bd75a,65a5ec53-7039-4d11-961d-d634b16ba82c,2020-02-28 04:02:48,1.000000
6,a818f3d0-a508-4caf-9e23-123f5c13698e,91ca180a-f78e-44f3-977f-7213b0a25219,7c9a7d54-b055-47c6-a330-966ba88f71f8,5516fad6-1d0f-41f4-a537-734feeb791e7,2020-02-28 04:03:51,1.000000
7,f4d08de7-bd2b-4d51-ad09-8e83ef8c04aa,7d294bce-2abf-48c3-8adc-f3b38cfb4ddb,2db4fd23-08f7-427f-8967-58ca0f7c6f2d,6aa99318-7d0a-4e29-b672-722508a33d70,2020-02-28 04:04:54,1.000000
8,ee34ebdb-3b4a-4630-81a4-4d6cb5b4693d,1ec89a99-c3ea-4993-b4fd-548bea04862d,547be1b8-dfc1-46c8-a364-a400149aa339,d0d9041d-1d17-462c-8aaa-50830a66632b,2020-02-28 04:05:57,2.000000
9,f7e92c41-50e8-4485-afbe-fbf088ba3757,41987311-9667-45e9-bda3-2759ed8fd4f8,bd2dd1a1-30dc-4459-a3f9-fecae2bf4d8b,f2f50363-4b3a-4ef2-b513-a9b230c61f6b,2020-02-28 04:07:00,1.000000
10,c823e01a-8349-4e70-bb77-b818fcaae772,52f28bf5-fd2d-40ef-bdca-7aa80bcf463a,c15ed7c4-a13b-4005-b071-207d5bf441db,5a10c598-9192-4d22-b546-956509f5a822,2020-02-28 04:08:03,1.000000
11,7db60d59-9ab0-4fd8-b94c-1a29ba681963,f5a1ece7-84bf-4c86-bf32-d4cb69999a13,11f50718-9342-4502-a0bc-604a64c5e1ff,faffd77e-8ba7-467d-ad92-82d015ad7d8e,2020-02-28 04:09:06,1.000000
12,9e035fb3-3fd6-48a2-9b15-f1ad75da13e3,900c3e47-dddb-411b-89d1-6ae38b57d0fa,ffeef465-78c5-45b4-86ad-be1087efc8ab,bd182747-51a2-4c3f-b6d5-b929c6121baf,2020-02-28 04:10:09,2.000000
13,342fb9b7-1779-436e-8fb4-be30733ac269,166b372c-63d4-4397-b20d-6d64c4c2c160,8b704330-fe36-43fa-97fa-d4b7399e37f1,67288954-47a0-4917-987c-dd6741238ade,2020-02-28 04:11:12,1.000000
14,82f025f4-a0a6-403a-8ad1-bdccfa0ec146,6af39338-33fb-45b7-8168-fc150fbb97e0,0c8c799f-1d6f-4e37-8b95-223c033acb7e,80c5ad45-8a73-4a1e-ad95-57d3d4f2c7b4,2020-02-28 04:12:15,1.000000
15,fd553d04-5c5a-42d9-a7ff-3573f978e009,04ec79d0-2757-4a7f-ad31-1787110e8329,c85cd417-f937-415a-a589-17e122b0e8e8,7e081ce2-89c7-4cbf-850e-c9cf957a6d5f,2020-02-28 04:13:17,2.000000
16,a0793317-c15e-4929-a070-9843c8053f00,a5ee43ea-237e-49e4-80b0-0ed79ea3764c,9582e3ba-e8c3-4847-8d53-a63c8822ece4,b58f3e0f-4823-40c8-8a2c-69e1735a4fbc,2020-02-28 04:14:20,2.000000
17,68c73c77-99d7-47b3-a6a6-83eaaf445238,f5d988e2-af27-4029-8dba-d7bcfa6b9b10,6edc1d6d-0e5a-4c35-9623-a8c49bfa57b4,79012a32-8298-4ed4-8937-8e7245d9f431,2020-02-28 04:15:23,1.000000
18,6dfedf98-0984-4abd-a474-61fd1608c894,10c28a9c-3ab3-4c94-a3f6-8b6be55d2240,27e2d06f-a03c-41c4-99c9-a8da67e5a79c,2677844a-fdad-45b9-a8f1-2918c8b520ce,2020-02-28 04:16:26,2.000000
19,cf61ceb6-48b2-4de9-b53a-b45275ac1ecc,a054b0d6-2ca4-48e0-b707-0e85b0a6c336,c452a8ca-1869-481f-a041-499804948638,f60a484b-8a11-4a71-bf41-4252d03c0bb2,2020-02-28 04:17:29,1.000000
20,35da0c27-4355-4b5c-91a5-b2c2278216fc,8d893ae5-e2a0-4db0-a128-adf9bdb47053,5c603f4b-00f4-4ce5-9fe2-9bd9b3141bd7,763180f5-447d-4c24-8a95-56056b189845,2020-02-28 04:18:32,2.000000
21,47b9679c-05f3-4513-b7ba-fa411ab5e5ee,2c5fa729-ff25-4851-81ef-59870c20ffcf,107f90b0-8f14-4e0a-828e-b33d5a6cad48,56c1f2c5-dded-4d22-9871-e17889311b9c,2020-02-28 04:19:34,1.000000
22,85a76614-2c2e-451a-b095-de640364c52c,9d4af71a-33e3-4530-b416-53f5f32654f7,4334f8bf-05c3-4ee7-ae17-ea0eb20c80a8,e17d097a-7c95-4d4e-a548-c3c9dd7df10b,2020-02-28 04:20:37,1.000000
23,614cf49a-58a5-4b87-b0e7-5c7a7ec82a31,edac0d22-cbe7-4d72-8a67-d33318d44b72,97de681b-e4e5-4e73-aed3-7234a8c241fe,4bb2e411-a603-4bac-8ce6-752459f25392,2020-02-28 04:21:40,1.000000
24,11997c07-7f9e-4312-9282-4fe94234872c,76e4578a-05fc-4e88-9d5e-b39fde285514,d0135aba-1ec9-47d2-b7c1-a9e5d3a7eb54,89e90538-cbf0-4a35-a81e-a56097eaf418,2020-02-28 04:22:43,2.000000
25,77352282-ce89-4da1-bda1-370350415887,072f698d-c220-451a-9057-594d0e388fac,47f39598-dce0-403b-917c-92c234ea12bd,e7d0cbdf-1136-44d9-9335-530cd004e2ea,2020-02-28 04:23:46,2.000000
26,25e5c1d5-2bfd-4a28-ad7a-a0f5e3b6ee0b,cebf1096-2a8a-4c71-b272-4e3afbb1d769,9f1a71b2-851a-4ff3-8b61-184bca1e665a,fac07049-57f7-4194-9164-456d9fd6bde5,2020-02-28 04:24:49,2.000000
27,605a8f13-b34c-4c41-9084-f854ecb9cdfc,36aee82e-baeb-43cc-8ac5-ec2a3a2afbce,cf434f52-17f3-4d5f-9a56-8c8b73553f98,7ccfe033-73e8-4a86-9452-2fab5cae4057,2020-02-28 04:25:51,1.000000
28,60d4fcd5-a673-4c0d-ac49-92bc0f033467,6dee0bd5-623a-41f6-abb7-2b61cf3d0627,511caeb9-1bd7-4d4e-af3c-8bb7c5dccbb6,3a777ea6-2b81-4912-84c6-35a77e14ab40,2020-02-28 04:26:54,2.000000
29,4cc90a1f-44ee-4b39-af84-3550d99f054e,be108dc7-9991-499e-9c7b-c47028fd6904,df861564-648b-408e-b08e-d073e467af2f,1c4fdc0b-cfdc-4c15-b623-962b27c05f1e,2020-02-28 04:27:57,2.000000
30,e8ae33b8-ba23-44fb-9e89-9f2795e7b7e4,7368e3c5-d594-4fa2-892d-34358ac3a575,555d1144-570e-4a9b-b4a5-07ee9658ab98,07fec90e-9577-4ebf-89a2-3009cb62dfd4,2020-02-28 04:29:00,2.000000
31,efb7d8c3-c650-465f-90ad-78daa2105a68,444a2348-b5f6-4536-8507-f48a6c887e37,07892f31-f972-4e69-a5cd-8cbab0d1101e,46bdd538-6bc3-4873-8e8e-9cd7eebfb504,2020-02-28 04:30:03,2.000000
32,8f705bbf-b7c0-4156-9034-fe89d9c4090e,c52162a7-3527-4273-a816-1a535137784f,80427984-34da-4ef5-8809-44380180cffe,b5c9ce17-fcac-46b9-9b11-5f7f6083dad2,2020-02-28 04:31:06,1.000000
33,8bc19646-3dfe-458d-9523-f7b18e048ab7,1e624b2f-bf63-4f7d-b0d9-9812f357ee4c,1ad4cd54-cc9a-4d5a-b155-29a074685bf6,52491f8f-ec35-4f4a-83f8-2dab0743d732,2020-02-28 04:32:08,2.000000
34,2a09329e-8d22-4623-98f2-2ec887526800,d2a65a73-ebc7-43b3-a99e-15d24b8c4783,91b8dd3b-05c4-4182-b1e8-6e96b3ea48a6,146f6b1c-e929-4c37-a2b1-7d7d6c5aa0f4,2020-02-28 04:33:11,1.000000
35,c75d05bb-cb21-40f6-a48b-1f3bbaacda16,db339742-6745-4c1e-9a37-111b2d1c907c,499bf17e-3e48-49b9-8614-f9b463843a84,95a53d95-2fe1-4438-8b0a-b062c5a57dbd,2020-02-28 04:34:14,2.000000
36,034c6030-c382-4805-a6bd-e59b3ca77156,937109e2-50c6-4a91-8196-afe0c75f9143,e9507a23-7e58-46ca-9cf9-af57b9c2c618,fe9b5e87-8a83-473e-aa1e-c742135f46c7,2020-02-28 04:35:17,1.000000
37,f55d7db4-b6c1-4dcd-b181-09f60a0514cc,50a7180c-800f-43bf-a994-63707d34265f,69825fe7-c4ba-43fa-a588-eb43bb6f1a33,03b8da87-26e0-4e8e-a9c7-880b4aa2dd98,2020-02-28 04:36:20,2.000000
38,f14e2b3a-d794-4b71-8812-010f6993d698,d16a3c98-4a7d-4305-a7ac-dc9a3a8eaf2f,abde3718-328e-4985-86ad-75e9c9e935c3,68d43e3a-71e7-45a6-8b1f-87ad892e0d2b,2020-02-28 04:37:22,2.000000
39,cea8420e-79ff-4cc9-bd51-57bd0127c7aa,b2362b2b-4c35-46a8-8306-afaddecf432a,f57d2960-860f-4f3a-90e4-68b04ec7c816,8dd517d1-2c54-4902-9f53-38d12de28677,2020-02-28 04:38:25,1.000000
40,f43a3719-0a78-4182-a957-6244c8db6229,860e6ce7-7547-4ff9-a724-6dfee6935fde,9b0cb75d-ea06-437a-9337-f8e1d5319763,9990a8ff-6ed4-4c09-b0fc-23638d4a32d1,2020-02-28 04:39:28,1.000000
41,0679ce83-3bb2-4779-bf84-97f6b1418472,f2c0e297-5396-4ecb-a5c9-f7d085e623cc,8ce0e976-cfc8-4ea0-8a89-71d4e44d62f3,76f62f7f-04f5-472d-becd-7d1d3e9d82a5,2020-02-28 04:40:30,2.000000
42,dcb43510-73f8-44da-85aa-5574dba1b733,3fda28ee-6fb8-4c06-84b2-7638fd6cb87e,5c9048c8-29c2-457f-936b-0d4476de19cb,79d4bdf8-e55e-4a82-a517-18affb2bcf0c,2020-02-28 04:41:33,1.000000
43,9ee5209b-2dd4-4589-895e-76d5ccaf3f2c,b2449a63-1b4b-4d72-b9dc-dae6fcbd2ab3,a7348a3d-d837-4fc2-830c-de457e7f9085,bc08103f-0c6a-4a90-ac85-1c8890f88aba,2020-02-28 04:42:36,1.000000
44,2d14e3a9-9fec-4c0a-b829-db38da276203,86522569-8f6d-4bb0-862b-31b647a3445e,f613df18-1a6d-4dc9-adac-2918ec767ce0,42386fc8-6e93-47b7-8708-f0755fe87f9d,2020-02-28 04:43:39,1.000000
45,bc267a41-8644-4e79-b64c-c60c648b4fd1,b1923cb0-754d-4540-98c6-7c0f5246caaa,0de0a93e-52fd-44b0-89e2-73fc8d05fb39,983c344f-3f17-4b66-8afb-e7a820b9e1f2,2020-02-28 04:44:41,2.000000
46,c22c0268-9e6c-4f27-b60b-9c5dec302cfb,ade2366a-675b-46fb-a177-e204cbced01d,3628d5dd-59de-41a2-812e-cf2cfe503bfd,a138a953-43e1-4788-a67e-8dc4b249eac3,2020-02-28 04:45:44,1.000000
47,82eaecfc-422a-47dd-b063-def19e65e248,371aba4d-2520-49dc-b607-8f564a2a89fd,c2912adf-d63f-4e8c-b9f9-7e546b083f38,a8bdf908-5159-4a31-b186-786a639c0adf,2020-02-28 04:46:47,1.000000
48,91b89e06-444f-44cc-8732-9302a7c329f4,4256e724-63f7-41dd-a674-57b8d4ea4e88,27e5ff14-c0a5-48bb-a021-9b921643a766,ea067cf0-34a4-4ae0-81f9-98b0c42838a8,2020-02-28 04:47:50,2.000000
49,d6107298-2240-4c36-b9cd-46620c6d6633,2a1d663a-840e-4764-b3d6-8a25fccbfc6f,1f4b755f-3b1a-455f-ae61-ea0abfa92565,2c1d7ef7-4abf-45d7-a4cb-8dbc52153f49,2020-02-28 04:48:53,1.000000
50,035bc5c9-229c-439d-8e96-7fda82022747,aa14b9cc-ca3a-4111-af83-84f6e15844b5,b728f40d-5486-4fd8-9024-bd381ce21e7f,93dc069b-4ecb-4ddd-841a-2593efd53950,2020-02-28 04:49:55,2.000000
