date,trigger,state
2019-07-16 04:01:48,e7457d2d-0937-4aa6-806d-3477b26e8f39,A
2019-07-16 04:10:43,e7457d2d-0937-4aa6-806d-3477b26e8f39,S
2019-07-16 04:21:26,e7457d2d-0937-4aa6-806d-3477b26e8f39,A
2019-07-16 04:26:58,e7457d2d-0937-4aa6-806d-3477b26e8f39,S
2019-07-16 04:29:36,e7457d2d-0937-4aa6-806d-3477b26e8f39,A
2019-07-16 04:30:21,e7457d2d-0937-4aa6-806d-3477b26e8f39,S
2019-07-16 04:35:00,e7457d2d-0937-4aa6-806d-3477b26e8f39,A
2019-07-16 04:36:51,e7457d2d-0937-4aa6-806d-3477b26e8f39,S
2019-07-16 04:50:06,e7457d2d-0937-4aa6-806d-3477b26e8f39,A
2019-07-16 04:51:59,e7457d2d-0937-4aa6-806d-3477b26e8f39,S
2019-07-16 04:58:11,e7457d2d-0937-4aa6-806d-3477b26e8f39,A
2019-07-16 05:00:58,e7457d2d-0937-4aa6-806d-3477b26e8f39,S
2019-07-16 05:02:46,e7457d2d-0937-4aa6-806d-3477b26e8f39,A
2019-07-16 05:03:09,e7457d2d-0937-4aa6-806d-3477b26e8f39,S
2019-07-16 05:03:49,e7457d2d-0937-4aa6-806d-3477b26e8f39,A
2019-07-16 05:16:19,e7457d2d-0937-4aa6-806d-3477b26e8f39,S
2019-07-16 05:16:21,e7457d2d-0937-4aa6-806d-3477b26e8f39,A
2019-07-16 05:16:57,e7457d2d-0937-4aa6-806d-3477b26e8f39,S
2019-07-16 05:17:25,e7457d2d-0937-4aa6-806d-3477b26e8f39,A
2019-07-16 03:36:53,382d4229-7401-4277-a2f7-d22df225a19c,A
2019-07-16 03:43:46,382d4229-7401-4277-a2f7-d22df225a19c,S
2019-07-16 03:48:32,382d4229-7401-4277-a2f7-d22df225a19c,A
2019-07-16 03:55:06,382d4229-7401-4277-a2f7-d22df225a19c,S
2019-07-16 04:01:01,382d4229-7401-4277-a2f7-d22df225a19c,A
2019-07-16 04:11:39,382d4229-7401-4277-a2f7-d22df225a19c,S
2019-07-16 04:18:54,382d4229-7401-4277-a2f7-d22df225a19c,A
2019-07-16 04:21:21,382d4229-7401-4277-a2f7-d22df225a19c,S
2019-07-16 04:23:02,382d4229-7401-4277-a2f7-d22df225a19c,A
2019-07-16 04:27:39,382d4229-7401-4277-a2f7-d22df225a19c,S
2019-07-16 04:32:39,382d4229-7401-4277-a2f7-d22df225a19c,A
2019-07-16 04:42:35,382d4229-7401-4277-a2f7-d22df225a19c,S
2019-07-16 04:42:39,382d4229-7401-4277-a2f7-d22df225a19c,A
2019-07-16 04:47:19,382d4229-7401-4277-a2f7-d22df225a19c,S
2019-07-16 04:49:03,382d4229-7401-4277-a2f7-d22df225a19c,A
2019-07-16 04:55:46,382d4229-7401-4277-a2f7-d22df225a19c,S
2019-07-16 04:55:52,382d4229-7401-4277-a2f7-d22df225a19c,A
2019-07-16 04:58:35,382d4229-7401-4277-a2f7-d22df225a19c,S
2019-07-16 05:05:28,382d4229-7401-4277-a2f7-d22df225a19c,A
2019-07-16 04:07:40,d9e82a20-63f0-4a64-9d9e-9e24cc550edb,S
2019-07-16 04:08:29,d9e82a20-63f0-4a64-9d9e-9e24cc550edb,A
2019-07-16 04:21:05,d9e82a20-63f0-4a64-9d9e-9e24cc550edb,S
2019-07-16 04:22:12,d9e82a20-63f0-4a64-9d9e-9e24cc550edb,A
2019-07-16 04:24:16,d9e82a20-63f0-4a64-9d9e-9e24cc550edb,S
2019-07-16 04:49:09,d9e82a20-63f0-4a64-9d9e-9e24cc550edb,A
2019-07-16 05:00:59,d9e82a20-63f0-4a64-9d9e-9e24cc550edb,S
2019-07-16 05:05:20,d9e82a20-63f0-4a64-9d9e-9e24cc550edb,A
2019-07-16 05:05:21,d9e82a20-63f0-4a64-9d9e-9e24cc550edb,S
2019-07-16 05:09:30,d9e82a20-63f0-4a64-9d9e-9e24cc550edb,A
2019-07-16 05:13:42,d9e82a20-63f0-4a64-9d9e-9e24cc550edb,S
2019-07-16 05:23:05,d9e82a20-63f0-4a64-9d9e-9e24cc550edb,A
2019-07-16 03:39:12,d0caad15-7216-43c4-8988-2f0b8a6247e6,S
2019-07-16 03:46:51,d0caad15-7216-43c4-8988-2f0b8a6247e6,A
2019-07-16 03:48:47,d0caad15-7216-43c4-8988-2f0b8a6247e6,S
2019-07-16 04:00:05,d0caad15-7216-43c4-8988-2f0b8a6247e6,A
2019-07-16 04:01:55,d0caad15-7216-43c4-8988-2f0b8a6247e6,S
2019-07-16 04:02:36,d0caad15-7216-43c4-8988-2f0b8a6247e6,A
2019-07-16 04:12:07,d0caad15-7216-43c4-8988-2f0b8a6247e6,S
2019-07-16 04:15:22,d0caad15-7216-43c4-8988-2f0b8a6247e6,A
2019-07-16 04:15:58,d0caad15-7216-43c4-8988-2f0b8a6247e6,S
2019-07-16 04:16:29,d0caad15-7216-43c4-8988-2f0b8a6247e6,A
2019-07-16 04:21:33,d0caad15-7216-43c4-8988-2f0b8a6247e6,S
2019-07-16 04:21:58,d0caad15-7216-43c4-8988-2f0b8a6247e6,A
2019-07-16 04:22:21,d0caad15-7216-43c4-8988-2f0b8a6247e6,S
2019-07-16 04:23:06,d0caad15-7216-43c4-8988-2f0b8a6247e6,A
2019-07-16 04:24:57,d0caad15-7216-43c4-8988-2f0b8a6247e6,S
2019-07-16 04:25:49,d0caad15-7216-43c4-8988-2f0b8a6247e6,A
2019-07-16 04:36:23,d0caad15-7216-43c4-8988-2f0b8a6247e6,S
2019-07-16 04:37:35,d0caad15-7216-43c4-8988-2f0b8a6247e6,A
2019-07-16 04:44:27,d0caad15-7216-43c4-8988-2f0b8a6247e6,S
2019-07-16 04:53:08,d0caad15-7216-43c4-8988-2f0b8a6247e6,A
2019-07-16 04:56:16,d0caad15-7216-43c4-8988-2f0b8a6247e6,S
2019-07-16 04:59:51,d0caad15-7216-43c4-8988-2f0b8a6247e6,A
2019-07-16 05:00:07,d0caad15-7216-43c4-8988-2f0b8a6247e6,S
2019-07-16 05:07:12,d0caad15-7216-43c4-8988-2f0b8a6247e6,A
2019-07-16 05:07:20,d0caad15-7216-43c4-8988-2f0b8a6247e6,S
2019-07-16 05:07:46,d0caad15-7216-43c4-8988-2f0b8a6247e6,A
2019-07-16 05:08:23,d0caad15-7216-43c4-8988-2f0b8a6247e6,S
2019-07-16 05:10:28,d0caad15-7216-43c4-8988-2f0b8a6247e6,A
2019-07-16 05:10:31,d0caad15-7216-43c4-8988-2f0b8a6247e6,S
2019-07-16 05:22:17,d0caad15-7216-43c4-8988-2f0b8a6247e6,A
2019-07-16 04:07:18,6ee60356-d683-436b-9b6e-2f263c37db34,A
2019-07-16 04:41:04,6ee60356-d683-436b-9b6e-2f263c37db34,S
2019-07-16 04:41:31,6ee60356-d683-436b-9b6e-2f263c37db34,A
2019-07-16 05:10:48,6ee60356-d683-436b-9b6e-2f263c37db34,S
2019-07-16 05:13:51,6ee60356-d683-436b-9b6e-2f263c37db34,A
2019-07-16 05:16:19,6ee60356-d683-436b-9b6e-2f263c37db34,S
2019-07-16 05:17:51,6ee60356-d683-436b-9b6e-2f263c37db34,A
2019-07-16 05:18:37,6ee60356-d683-436b-9b6e-2f263c37db34,S
2019-07-16 05:21:52,6ee60356-d683-436b-9b6e-2f263c37db34,A
2019-07-16 03:34:47,1ce41e72-12b6-4bfa-a625-58b6a5dbd6d4,A
2019-07-16 03:38:12,1ce41e72-12b6-4bfa-a625-58b6a5dbd6d4,S
2019-07-16 03:43:18,1ce41e72-12b6-4bfa-a625-58b6a5dbd6d4,A
2019-07-16 03:45:08,1ce41e72-12b6-4bfa-a625-58b6a5dbd6d4,S
2019-07-16 03:55:39,1ce41e72-12b6-4bfa-a625-58b6a5dbd6d4,A
2019-07-16 03:56:14,1ce41e72-12b6-4bfa-a625-58b6a5dbd6d4,S
2019-07-16 04:04:39,1ce41e72-12b6-4bfa-a625-58b6a5dbd6d4,A
2019-07-16 04:06:59,1ce41e72-12b6-4bfa-a625-58b6a5dbd6d4,S
2019-07-16 04:15:23,1ce41e72-12b6-4bfa-a625-58b6a5dbd6d4,A
2019-07-16 04:33:49,1ce41e72-12b6-4bfa-a625-58b6a5dbd6d4,S
2019-07-16 04:35:04,1ce41e72-12b6-4bfa-a625-58b6a5dbd6d4,A
2019-07-16 04:35:16,1ce41e72-12b6-4bfa-a625-58b6a5dbd6d4,S
2019-07-16 04:38:28,1ce41e72-12b6-4bfa-a625-58b6a5dbd6d4,A
2019-07-16 04:47:18,1ce41e72-12b6-4bfa-a625-58b6a5dbd6d4,S
2019-07-16 05:02:23,1ce41e72-12b6-4bfa-a625-58b6a5dbd6d4,A
2019-07-16 05:02:41,1ce41e72-12b6-4bfa-a625-58b6a5dbd6d4,S
2019-07-16 05:13:13,1ce41e72-12b6-4bfa-a625-58b6a5dbd6d4,A
2019-07-16 03:40:39,3c05c28b-8041-4e59-9d6e-a089712e4f8e,A
2019-07-16 03:48:28,3c05c28b-8041-4e59-9d6e-a089712e4f8e,S
2019-07-16 03:49:58,3c05c28b-8041-4e59-9d6e-a089712e4f8e,A
2019-07-16 03:52:36,3c05c28b-8041-4e59-9d6e-a089712e4f8e,S
2019-07-16 03:57:17,3c05c28b-8041-4e59-9d6e-a089712e4f8e,A
2019-07-16 04:11:59,3c05c28b-8041-4e59-9d6e-a089712e4f8e,S
2019-07-16 04:12:34,3c05c28b-8041-4e59-9d6e-a089712e4f8e,A
2019-07-16 04:18:04,3c05c28b-8041-4e59-9d6e-a089712e4f8e,S
2019-07-16 04:25:17,3c05c28b-8041-4e59-9d6e-a089712e4f8e,A
2019-07-16 04:25:52,3c05c28b-8041-4e59-9d6e-a089712e4f8e,S
2019-07-16 04:37:42,3c05c28b-8041-4e59-9d6e-a089712e4f8e,A
2019-07-16 04:40:50,3c05c28b-8041-4e59-9d6e-a089712e4f8e,S
2019-07-16 04:52:40,3c05c28b-8041-4e59-9d6e-a089712e4f8e,A
2019-07-16 05:04:37,3c05c28b-8041-4e59-9d6e-a089712e4f8e,S
2019-07-16 05:09:30,3c05c28b-8041-4e59-9d6e-a089712e4f8e,A
2019-07-16 05:10:02,3c05c28b-8041-4e59-9d6e-a089712e4f8e,S
2019-07-16 05:10:20,3c05c28b-8041-4e59-9d6e-a089712e4f8e,A
2019-07-16 05:10:31,3c05c28b-8041-4e59-9d6e-a089712e4f8e,S
2019-07-16 05:11:41,3c05c28b-8041-4e59-9d6e-a089712e4f8e,A
2019-07-16 05:15:23,3c05c28b-8041-4e59-9d6e-a089712e4f8e,S
2019-07-16 05:24:14,3c05c28b-8041-4e59-9d6e-a089712e4f8e,A
2019-07-16 03:43:35,f5ba43d7-1fe7-4522-9ab9-0102675258fc,S
2019-07-16 03:52:37,f5ba43d7-1fe7-4522-9ab9-0102675258fc,A
2019-07-16 03:57:49,f5ba43d7-1fe7-4522-9ab9-0102675258fc,S
2019-07-16 04:10:35,f5ba43d7-1fe7-4522-9ab9-0102675258fc,A
2019-07-16 04:11:34,f5ba43d7-1fe7-4522-9ab9-0102675258fc,S
2019-07-16 04:22:46,f5ba43d7-1fe7-4522-9ab9-0102675258fc,A
2019-07-16 04:23:00,f5ba43d7-1fe7-4522-9ab9-0102675258fc,S
2019-07-16 04:26:27,f5ba43d7-1fe7-4522-9ab9-0102675258fc,A
2019-07-16 04:37:30,f5ba43d7-1fe7-4522-9ab9-0102675258fc,S
2019-07-16 04:40:32,f5ba43d7-1fe7-4522-9ab9-0102675258fc,A
2019-07-16 04:47:07,f5ba43d7-1fe7-4522-9ab9-0102675258fc,S
2019-07-16 04:49:03,f5ba43d7-1fe7-4522-9ab9-0102675258fc,A
2019-07-16 04:56:29,f5ba43d7-1fe7-4522-9ab9-0102675258fc,S
2019-07-16 05:00:35,f5ba43d7-1fe7-4522-9ab9-0102675258fc,A
2019-07-16 05:01:16,f5ba43d7-1fe7-4522-9ab9-0102675258fc,S
2019-07-16 05:01:39,f5ba43d7-1fe7-4522-9ab9-0102675258fc,A
2019-07-16 05:05:02,f5ba43d7-1fe7-4522-9ab9-0102675258fc,S
2019-07-16 05:08:06,f5ba43d7-1fe7-4522-9ab9-0102675258fc,A
2019-07-16 05:21:17,f5ba43d7-1fe7-4522-9ab9-0102675258fc,S
2019-07-16 03:44:42,0649237c-4d64-4d41-886c-fa74da7e0ed4,A
2019-07-16 03:50:45,0649237c-4d64-4d41-886c-fa74da7e0ed4,S
2019-07-16 03:53:15,0649237c-4d64-4d41-886c-fa74da7e0ed4,A
2019-07-16 03:54:00,0649237c-4d64-4d41-886c-fa74da7e0ed4,S
2019-07-16 03:54:03,0649237c-4d64-4d41-886c-fa74da7e0ed4,A
2019-07-16 03:56:53,0649237c-4d64-4d41-886c-fa74da7e0ed4,S
2019-07-16 04:05:09,0649237c-4d64-4d41-886c-fa74da7e0ed4,A
2019-07-16 04:07:55,0649237c-4d64-4d41-886c-fa74da7e0ed4,S
2019-07-16 04:07:58,0649237c-4d64-4d41-886c-fa74da7e0ed4,A
2019-07-16 04:14:03,0649237c-4d64-4d41-886c-fa74da7e0ed4,S
2019-07-16 04:18:26,0649237c-4d64-4d41-886c-fa74da7e0ed4,A
2019-07-16 04:25:47,0649237c-4d64-4d41-886c-fa74da7e0ed4,S
2019-07-16 04:26:57,0649237c-4d64-4d41-886c-fa74da7e0ed4,A
2019-07-16 04:30:53,0649237c-4d64-4d41-886c-fa74da7e0ed4,S
2019-07-16 04:31:40,0649237c-4d64-4d41-886c-fa74da7e0ed4,A
2019-07-16 04:31:57,0649237c-4d64-4d41-886c-fa74da7e0ed4,S
2019-07-16 04:42:31,0649237c-4d64-4d41-886c-fa74da7e0ed4,A
2019-07-16 04:43:54,0649237c-4d64-4d41-886c-fa74da7e0ed4,S
2019-07-16 04:49:38,0649237c-4d64-4d41-886c-fa74da7e0ed4,A
2019-07-16 04:54:05,0649237c-4d64-4d41-886c-fa74da7e0ed4,S
2019-07-16 04:55:24,0649237c-4d64-4d41-886c-fa74da7e0ed4,A
2019-07-16 04:58:11,0649237c-4d64-4d41-886c-fa74da7e0ed4,S
2019-07-16 04:59:35,0649237c-4d64-4d41-886c-fa74da7e0ed4,A
2019-07-16 05:08:25,0649237c-4d64-4d41-886c-fa74da7e0ed4,S
2019-07-16 05:09:55,0649237c-4d64-4d41-886c-fa74da7e0ed4,A
2019-07-16 05:13:33,0649237c-4d64-4d41-886c-fa74da7e0ed4,S
2019-07-16 05:13:50,0649237c-4d64-4d41-886c-fa74da7e0ed4,A
2019-07-16 05:17:48,0649237c-4d64-4d41-886c-fa74da7e0ed4,S
2019-07-16 04:00:48,3e5de6ce-4613-4d1f-856d-5b6190502afc,A
2019-07-16 04:02:39,3e5de6ce-4613-4d1f-856d-5b6190502afc,S
2019-07-16 04:12:07,3e5de6ce-4613-4d1f-856d-5b6190502afc,A
2019-07-16 04:26:14,3e5de6ce-4613-4d1f-856d-5b6190502afc,S
2019-07-16 04:27:50,3e5de6ce-4613-4d1f-856d-5b6190502afc,A
2019-07-16 04:29:24,3e5de6ce-4613-4d1f-856d-5b6190502afc,S
2019-07-16 04:31:17,3e5de6ce-4613-4d1f-856d-5b6190502afc,A
2019-07-16 04:37:45,3e5de6ce-4613-4d1f-856d-5b6190502afc,S
2019-07-16 04:42:39,3e5de6ce-4613-4d1f-856d-5b6190502afc,A
2019-07-16 04:50:10,3e5de6ce-4613-4d1f-856d-5b6190502afc,S
2019-07-16 04:50:13,3e5de6ce-4613-4d1f-856d-5b6190502afc,A
2019-07-16 04:50:32,3e5de6ce-4613-4d1f-856d-5b6190502afc,S
2019-07-16 04:52:53,3e5de6ce-4613-4d1f-856d-5b6190502afc,A
2019-07-16 04:56:04,3e5de6ce-4613-4d1f-856d-5b6190502afc,S
2019-07-16 04:56:50,3e5de6ce-4613-4d1f-856d-5b6190502afc,A
2019-07-16 05:07:51,3e5de6ce-4613-4d1f-856d-5b6190502afc,S
2019-07-16 05:08:39,3e5de6ce-4613-4d1f-856d-5b6190502afc,A
2019-07-16 05:09:04,3e5de6ce-4613-4d1f-856d-5b6190502afc,S
2019-07-16 05:11:17,3e5de6ce-4613-4d1f-856d-5b6190502afc,A
2019-07-16 05:13:31,3e5de6ce-4613-4d1f-856d-5b6190502afc,S
2019-07-16 05:13:50,3e5de6ce-4613-4d1f-856d-5b6190502afc,A
2019-07-16 05:23:15,3e5de6ce-4613-4d1f-856d-5b6190502afc,S
2019-07-16 03:50:48,fbff2908-8d72-411e-b580-ce200a579393,S
2019-07-16 03:54:58,fbff2908-8d72-411e-b580-ce200a579393,A
2019-07-16 04:02:25,fbff2908-8d72-411e-b580-ce200a579393,S
2019-07-16 04:06:38,fbff2908-8d72-411e-b580-ce200a579393,A
2019-07-16 04:06:52,fbff2908-8d72-411e-b580-ce200a579393,S
2019-07-16 04:16:20,fbff2908-8d72-411e-b580-ce200a579393,A
2019-07-16 04:19:21,fbff2908-8d72-411e-b580-ce200a579393,S
2019-07-16 04:20:49,fbff2908-8d72-411e-b580-ce200a579393,A
2019-07-16 04:22:32,fbff2908-8d72-411e-b580-ce200a579393,S
2019-07-16 04:32:12,fbff2908-8d72-411e-b580-ce200a579393,A
2019-07-16 04:37:03,fbff2908-8d72-411e-b580-ce200a579393,S
2019-07-16 04:38:46,fbff2908-8d72-411e-b580-ce200a579393,A
2019-07-16 04:39:42,fbff2908-8d72-411e-b580-ce200a579393,S
2019-07-16 04:45:10,fbff2908-8d72-411e-b580-ce200a579393,A
2019-07-16 04:49:45,fbff2908-8d72-411e-b580-ce200a579393,S
2019-07-16 04:54:26,fbff2908-8d72-411e-b580-ce200a579393,A
2019-07-16 05:02:27,fbff2908-8d72-411e-b580-ce200a579393,S
2019-07-16 05:07:38,fbff2908-8d72-411e-b580-ce200a579393,A
2019-07-16 05:10:58,fbff2908-8d72-411e-b580-ce200a579393,S
2019-07-16 05:23:44,fbff2908-8d72-411e-b580-ce200a579393,A
2019-07-16 04:01:39,902e2559-57f7-4ea5-a43c-0aa7f5e27ab7,A
2019-07-16 04:16:22,902e2559-57f7-4ea5-a43c-0aa7f5e27ab7,S
2019-07-16 04:18:28,902e2559-57f7-4ea5-a43c-0aa7f5e27ab7,A
2019-07-16 04:27:33,902e2559-57f7-4ea5-a43c-0aa7f5e27ab7,S
2019-07-16 04:39:06,902e2559-57f7-4ea5-a43c-0aa7f5e27ab7,A
2019-07-16 04:45:18,902e2559-57f7-4ea5-a43c-0aa7f5e27ab7,S
2019-07-16 04:51:59,902e2559-57f7-4ea5-a43c-0aa7f5e27ab7,A
2019-07-16 04:52:22,902e2559-57f7-4ea5-a43c-0aa7f5e27ab7,S
2019-07-16 04:53:30,902e2559-57f7-4ea5-a43c-0aa7f5e27ab7,A
2019-07-16 04:57:49,902e2559-57f7-4ea5-a43c-0aa7f5e27ab7,S
2019-07-16 04:58:21,902e2559-57f7-4ea5-a43c-0aa7f5e27ab7,A
2019-07-16 05:05:00,902e2559-57f7-4ea5-a43c-0aa7f5e27ab7,S
2019-07-16 05:07:43,902e2559-57f7-4ea5-a43c-0aa7f5e27ab7,A
2019-07-16 05:09:30,902e2559-57f7-4ea5-a43c-0aa7f5e27ab7,S
2019-07-16 05:13:17,902e2559-57f7-4ea5-a43c-0aa7f5e27ab7,A
2019-07-16 05:19:33,902e2559-57f7-4ea5-a43c-0aa7f5e27ab7,S
2019-07-16 05:19:46,902e2559-57f7-4ea5-a43c-0aa7f5e27ab7,A
2019-07-16 05:22:21,902e2559-57f7-4ea5-a43c-0aa7f5e27ab7,S
2019-07-16 03:54:19,1dbd13fe-7a6d-4e0b-973e-b9f06c3a6979,S
2019-07-16 03:56:37,1dbd13fe-7a6d-4e0b-973e-b9f06c3a6979,A
2019-07-16 04:01:49,1dbd13fe-7a6d-4e0b-973e-b9f06c3a6979,S
2019-07-16 04:09:55,1dbd13fe-7a6d-4e0b-973e-b9f06c3a6979,A
2019-07-16 04:17:19,1dbd13fe-7a6d-4e0b-973e-b9f06c3a6979,S
2019-07-16 04:17:41,1dbd13fe-7a6d-4e0b-973e-b9f06c3a6979,A
2019-07-16 04:23:14,1dbd13fe-7a6d-4e0b-973e-b9f06c3a6979,S
2019-07-16 04:34:17,1dbd13fe-7a6d-4e0b-973e-b9f06c3a6979,A
2019-07-16 04:38:41,1dbd13fe-7a6d-4e0b-973e-b9f06c3a6979,S
2019-07-16 04:41:29,1dbd13fe-7a6d-4e0b-973e-b9f06c3a6979,A
2019-07-16 04:48:11,1dbd13fe-7a6d-4e0b-973e-b9f06c3a6979,S
2019-07-16 04:49:01,1dbd13fe-7a6d-4e0b-973e-b9f06c3a6979,A
2019-07-16 04:51:47,1dbd13fe-7a6d-4e0b-973e-b9f06c3a6979,S
2019-07-16 04:55:37,1dbd13fe-7a6d-4e0b-973e-b9f06c3a6979,A
2019-07-16 05:02:05,1dbd13fe-7a6d-4e0b-973e-b9f06c3a6979,S
2019-07-16 05:05:10,1dbd13fe-7a6d-4e0b-973e-b9f06c3a6979,A
2019-07-16 05:17:30,1dbd13fe-7a6d-4e0b-973e-b9f06c3a6979,S
2019-07-16 05:22:16,1dbd13fe-7a6d-4e0b-973e-b9f06c3a6979,A
2019-07-16 05:24:21,1dbd13fe-7a6d-4e0b-973e-b9f06c3a6979,S
2019-07-16 03:48:39,2243d620-e34c-4532-b9c0-abffd1018d18,S
2019-07-16 03:52:57,2243d620-e34c-4532-b9c0-abffd1018d18,A
2019-07-16 04:06:40,2243d620-e34c-4532-b9c0-abffd1018d18,S
2019-07-16 04:07:03,2243d620-e34c-4532-b9c0-abffd1018d18,A
2019-07-16 04:11:40,2243d620-e34c-4532-b9c0-abffd1018d18,S
2019-07-16 04:14:58,2243d620-e34c-4532-b9c0-abffd1018d18,A
2019-07-16 04:18:04,2243d620-e34c-4532-b9c0-abffd1018d18,S
2019-07-16 04:22:37,2243d620-e34c-4532-b9c0-abffd1018d18,A
2019-07-16 04:25:50,2243d620-e34c-4532-b9c0-abffd1018d18,S
2019-07-16 04:29:27,2243d620-e34c-4532-b9c0-abffd1018d18,A
2019-07-16 04:45:18,2243d620-e34c-4532-b9c0-abffd1018d18,S
2019-07-16 04:49:35,2243d620-e34c-4532-b9c0-abffd1018d18,A
2019-07-16 04:49:56,2243d620-e34c-4532-b9c0-abffd1018d18,S
2019-07-16 04:55:03,2243d620-e34c-4532-b9c0-abffd1018d18,A
2019-07-16 05:02:22,2243d620-e34c-4532-b9c0-abffd1018d18,S
2019-07-16 05:15:29,2243d620-e34c-4532-b9c0-abffd1018d18,A
2019-07-16 05:16:30,2243d620-e34c-4532-b9c0-abffd1018d18,S
2019-07-16 04:08:11,3dcd9b3a-a2a8-43f4-8741-4751c2ae5fa2,S
2019-07-16 04:21:46,3dcd9b3a-a2a8-43f4-8741-4751c2ae5fa2,A
2019-07-16 04:26:39,3dcd9b3a-a2a8-43f4-8741-4751c2ae5fa2,S
2019-07-16 04:27:12,3dcd9b3a-a2a8-43f4-8741-4751c2ae5fa2,A
2019-07-16 04:31:03,3dcd9b3a-a2a8-43f4-8741-4751c2ae5fa2,S
2019-07-16 04:31:45,3dcd9b3a-a2a8-43f4-8741-4751c2ae5fa2,A
2019-07-16 04:40:24,3dcd9b3a-a2a8-43f4-8741-4751c2ae5fa2,S
2019-07-16 04:41:27,3dcd9b3a-a2a8-43f4-8741-4751c2ae5fa2,A
2019-07-16 04:43:43,3dcd9b3a-a2a8-43f4-8741-4751c2ae5fa2,S
2019-07-16 04:45:52,3dcd9b3a-a2a8-43f4-8741-4751c2ae5fa2,A
2019-07-16 04:48:14,3dcd9b3a-a2a8-43f4-8741-4751c2ae5fa2,S
2019-07-16 04:52:06,3dcd9b3a-a2a8-43f4-8741-4751c2ae5fa2,A
2019-07-16 04:53:17,3dcd9b3a-a2a8-43f4-8741-4751c2ae5fa2,S
2019-07-16 04:54:08,3dcd9b3a-a2a8-43f4-8741-4751c2ae5fa2,A
2019-07-16 04:56:17,3dcd9b3a-a2a8-43f4-8741-4751c2ae5fa2,S
2019-07-16 04:56:40,3dcd9b3a-a2a8-43f4-8741-4751c2ae5fa2,A
2019-07-16 04:56:56,3dcd9b3a-a2a8-43f4-8741-4751c2ae5fa2,S
2019-07-16 05:01:27,3dcd9b3a-a2a8-43f4-8741-4751c2ae5fa2,A
2019-07-16 05:02:18,3dcd9b3a-a2a8-43f4-8741-4751c2ae5fa2,S
2019-07-16 05:11:50,3dcd9b3a-a2a8-43f4-8741-4751c2ae5fa2,A
2019-07-16 05:17:53,3dcd9b3a-a2a8-43f4-8741-4751c2ae5fa2,S
2019-07-16 05:25:51,3dcd9b3a-a2a8-43f4-8741-4751c2ae5fa2,A
2019-07-16 03:53:08,d7cea0c2-d503-4863-b051-a50d3325532d,S
2019-07-16 04:05:22,d7cea0c2-d503-4863-b051-a50d3325532d,A
2019-07-16 04:15:31,d7cea0c2-d503-4863-b051-a50d3325532d,S
2019-07-16 04:16:49,d7cea0c2-d503-4863-b051-a50d3325532d,A
2019-07-16 04:18:47,d7cea0c2-d503-4863-b051-a50d3325532d,S
2019-07-16 04:25:27,d7cea0c2-d503-4863-b051-a50d3325532d,A
2019-07-16 04:26:13,d7cea0c2-d503-4863-b051-a50d3325532d,S
2019-07-16 04:28:35,d7cea0c2-d503-4863-b051-a50d3325532d,A
2019-07-16 04:29:26,d7cea0c2-d503-4863-b051-a50d3325532d,S
2019-07-16 04:29:48,d7cea0c2-d503-4863-b051-a50d3325532d,A
2019-07-16 04:30:07,d7cea0c2-d503-4863-b051-a50d3325532d,S
2019-07-16 04:37:03,d7cea0c2-d503-4863-b051-a50d3325532d,A
2019-07-16 04:49:53,d7cea0c2-d503-4863-b051-a50d3325532d,S
2019-07-16 04:54:31,d7cea0c2-d503-4863-b051-a50d3325532d,A
2019-07-16 04:55:09,d7cea0c2-d503-4863-b051-a50d3325532d,S
2019-07-16 05:12:05,d7cea0c2-d503-4863-b051-a50d3325532d,A
2019-07-16 05:14:25,d7cea0c2-d503-4863-b051-a50d3325532d,S
2019-07-16 05:14:39,d7cea0c2-d503-4863-b051-a50d3325532d,A
2019-07-16 05:15:58,d7cea0c2-d503-4863-b051-a50d3325532d,S
2019-07-16 05:18:25,d7cea0c2-d503-4863-b051-a50d3325532d,A
2019-07-16 05:23:52,d7cea0c2-d503-4863-b051-a50d3325532d,S
2019-07-16 04:00:16,4ec6f679-b051-4054-bd1f-8aaead63d36f,A
2019-07-16 04:03:45,4ec6f679-b051-4054-bd1f-8aaead63d36f,S
2019-07-16 04:06:48,4ec6f679-b051-4054-bd1f-8aaead63d36f,A
2019-07-16 04:15:45,4ec6f679-b051-4054-bd1f-8aaead63d36f,S
2019-07-16 04:30:42,4ec6f679-b051-4054-bd1f-8aaead63d36f,A
2019-07-16 04:31:45,4ec6f679-b051-4054-bd1f-8aaead63d36f,S
2019-07-16 04:32:14,4ec6f679-b051-4054-bd1f-8aaead63d36f,A
2019-07-16 04:32:53,4ec6f679-b051-4054-bd1f-8aaead63d36f,S
2019-07-16 04:39:57,4ec6f679-b051-4054-bd1f-8aaead63d36f,A
2019-07-16 04:45:07,4ec6f679-b051-4054-bd1f-8aaead63d36f,S
2019-07-16 05:03:59,4ec6f679-b051-4054-bd1f-8aaead63d36f,A
2019-07-16 05:06:06,4ec6f679-b051-4054-bd1f-8aaead63d36f,S
2019-07-16 05:13:13,4ec6f679-b051-4054-bd1f-8aaead63d36f,A
2019-07-16 05:16:42,4ec6f679-b051-4054-bd1f-8aaead63d36f,S
2019-07-16 04:06:25,a10ed35c-a991-4841-bd75-ee0a90bb0ad5,S
2019-07-16 04:11:49,a10ed35c-a991-4841-bd75-ee0a90bb0ad5,A
2019-07-16 04:13:14,a10ed35c-a991-4841-bd75-ee0a90bb0ad5,S
2019-07-16 04:15:24,a10ed35c-a991-4841-bd75-ee0a90bb0ad5,A
2019-07-16 04:22:27,a10ed35c-a991-4841-bd75-ee0a90bb0ad5,S
2019-07-16 04:28:32,a10ed35c-a991-4841-bd75-ee0a90bb0ad5,A
2019-07-16 04:32:27,a10ed35c-a991-4841-bd75-ee0a90bb0ad5,S
2019-07-16 04:35:49,a10ed35c-a991-4841-bd75-ee0a90bb0ad5,A
2019-07-16 04:37:24,a10ed35c-a991-4841-bd75-ee0a90bb0ad5,S
2019-07-16 04:37:34,a10ed35c-a991-4841-bd75-ee0a90bb0ad5,A
2019-07-16 04:39:54,a10ed35c-a991-4841-bd75-ee0a90bb0ad5,S
2019-07-16 04:44:11,a10ed35c-a991-4841-bd75-ee0a90bb0ad5,A
2019-07-16 04:47:05,a10ed35c-a991-4841-bd75-ee0a90bb0ad5,S
2019-07-16 04:48:00,a10ed35c-a991-4841-bd75-ee0a90bb0ad5,A
2019-07-16 04:58:23,a10ed35c-a991-4841-bd75-ee0a90bb0ad5,S
2019-07-16 04:58:27,a10ed35c-a991-4841-bd75-ee0a90bb0ad5,A
2019-07-16 04:58:59,a10ed35c-a991-4841-bd75-ee0a90bb0ad5,S
2019-07-16 04:59:28,a10ed35c-a991-4841-bd75-ee0a90bb0ad5,A
2019-07-16 04:59:41,a10ed35c-a991-4841-bd75-ee0a90bb0ad5,S
2019-07-16 05:03:36,a10ed35c-a991-4841-bd75-ee0a90bb0ad5,A
2019-07-16 05:11:25,a10ed35c-a991-4841-bd75-ee0a90bb0ad5,S
2019-07-16 05:17:24,a10ed35c-a991-4841-bd75-ee0a90bb0ad5,A
2019-07-16 05:20:17,a10ed35c-a991-4841-bd75-ee0a90bb0ad5,S
2019-07-16 05:22:16,a10ed35c-a991-4841-bd75-ee0a90bb0ad5,A
2019-07-16 04:05:41,be00ca8c-54c4-4482-b1b3-eca386987282,A
2019-07-16 04:10:47,be00ca8c-54c4-4482-b1b3-eca386987282,S
2019-07-16 04:11:51,be00ca8c-54c4-4482-b1b3-eca386987282,A
2019-07-16 04:13:46,be00ca8c-54c4-4482-b1b3-eca386987282,S
2019-07-16 04:21:21,be00ca8c-54c4-4482-b1b3-eca386987282,A
2019-07-16 04:22:46,be00ca8c-54c4-4482-b1b3-eca386987282,S
2019-07-16 04:32:39,be00ca8c-54c4-4482-b1b3-eca386987282,A
2019-07-16 04:34:28,be00ca8c-54c4-4482-b1b3-eca386987282,S
2019-07-16 04:39:21,be00ca8c-54c4-4482-b1b3-eca386987282,A
2019-07-16 04:43:46,be00ca8c-54c4-4482-b1b3-eca386987282,S
2019-07-16 04:52:30,be00ca8c-54c4-4482-b1b3-eca386987282,A
2019-07-16 04:54:01,be00ca8c-54c4-4482-b1b3-eca386987282,S
2019-07-16 04:55:55,be00ca8c-54c4-4482-b1b3-eca386987282,A
2019-07-16 04:58:22,be00ca8c-54c4-4482-b1b3-eca386987282,S
2019-07-16 05:02:36,be00ca8c-54c4-4482-b1b3-eca386987282,A
2019-07-16 05:08:25,be00ca8c-54c4-4482-b1b3-eca386987282,S
2019-07-16 05:13:55,be00ca8c-54c4-4482-b1b3-eca386987282,A
2019-07-16 05:23:08,be00ca8c-54c4-4482-b1b3-eca386987282,S
2019-07-16 03:37:42,e10395ba-92fb-4a65-af8a-7ef02f684308,S
2019-07-16 03:49:47,e10395ba-92fb-4a65-af8a-7ef02f684308,A
2019-07-16 04:08:09,e10395ba-92fb-4a65-af8a-7ef02f684308,S
2019-07-16 04:10:32,e10395ba-92fb-4a65-af8a-7ef02f684308,A
2019-07-16 04:13:51,e10395ba-92fb-4a65-af8a-7ef02f684308,S
2019-07-16 04:17:10,e10395ba-92fb-4a65-af8a-7ef02f684308,A
2019-07-16 04:28:40,e10395ba-92fb-4a65-af8a-7ef02f684308,S
2019-07-16 04:29:29,e10395ba-92fb-4a65-af8a-7ef02f684308,A
2019-07-16 04:31:08,e10395ba-92fb-4a65-af8a-7ef02f684308,S
2019-07-16 04:32:01,e10395ba-92fb-4a65-af8a-7ef02f684308,A
2019-07-16 04:49:25,e10395ba-92fb-4a65-af8a-7ef02f684308,S
2019-07-16 04:49:31,e10395ba-92fb-4a65-af8a-7ef02f684308,A
2019-07-16 04:52:40,e10395ba-92fb-4a65-af8a-7ef02f684308,S
2019-07-16 04:56:07,e10395ba-92fb-4a65-af8a-7ef02f684308,A
2019-07-16 04:58:21,e10395ba-92fb-4a65-af8a-7ef02f684308,S
2019-07-16 05:04:18,e10395ba-92fb-4a65-af8a-7ef02f684308,A
2019-07-16 05:05:41,e10395ba-92fb-4a65-af8a-7ef02f684308,S
2019-07-16 05:09:36,e10395ba-92fb-4a65-af8a-7ef02f684308,A
2019-07-16 05:15:10,e10395ba-92fb-4a65-af8a-7ef02f684308,S
2019-07-16 05:26:41,e10395ba-92fb-4a65-af8a-7ef02f684308,A
2019-07-16 04:00:44,7310121e-cd5d-40eb-8d50-7596acf62c4f,S
2019-07-16 04:02:39,7310121e-cd5d-40eb-8d50-7596acf62c4f,A
2019-07-16 04:03:08,7310121e-cd5d-40eb-8d50-7596acf62c4f,S
2019-07-16 04:11:26,7310121e-cd5d-40eb-8d50-7596acf62c4f,A
2019-07-16 04:14:18,7310121e-cd5d-40eb-8d50-7596acf62c4f,S
2019-07-16 04:20:39,7310121e-cd5d-40eb-8d50-7596acf62c4f,A
2019-07-16 04:25:15,7310121e-cd5d-40eb-8d50-7596acf62c4f,S
2019-07-16 04:26:29,7310121e-cd5d-40eb-8d50-7596acf62c4f,A
2019-07-16 04:35:12,7310121e-cd5d-40eb-8d50-7596acf62c4f,S
2019-07-16 04:36:47,7310121e-cd5d-40eb-8d50-7596acf62c4f,A
2019-07-16 04:44:49,7310121e-cd5d-40eb-8d50-7596acf62c4f,S
2019-07-16 04:45:01,7310121e-cd5d-40eb-8d50-7596acf62c4f,A
2019-07-16 04:51:36,7310121e-cd5d-40eb-8d50-7596acf62c4f,S
2019-07-16 04:56:31,7310121e-cd5d-40eb-8d50-7596acf62c4f,A
2019-07-16 04:57:26,7310121e-cd5d-40eb-8d50-7596acf62c4f,S
2019-07-16 04:59:22,7310121e-cd5d-40eb-8d50-7596acf62c4f,A
2019-07-16 04:59:24,7310121e-cd5d-40eb-8d50-7596acf62c4f,S
2019-07-16 05:00:44,7310121e-cd5d-40eb-8d50-7596acf62c4f,A
2019-07-16 05:03:30,7310121e-cd5d-40eb-8d50-7596acf62c4f,S
2019-07-16 05:10:57,7310121e-cd5d-40eb-8d50-7596acf62c4f,A
2019-07-16 05:12:30,7310121e-cd5d-40eb-8d50-7596acf62c4f,S
2019-07-16 05:13:05,7310121e-cd5d-40eb-8d50-7596acf62c4f,A
2019-07-16 05:20:08,7310121e-cd5d-40eb-8d50-7596acf62c4f,S
2019-07-16 05:23:37,7310121e-cd5d-40eb-8d50-7596acf62c4f,A
2019-07-16 03:32:30,64113b73-e5ab-48db-94fe-8b135b64ff4b,S
2019-07-16 03:38:43,64113b73-e5ab-48db-94fe-8b135b64ff4b,A
2019-07-16 03:43:06,64113b73-e5ab-48db-94fe-8b135b64ff4b,S
2019-07-16 03:53:39,64113b73-e5ab-48db-94fe-8b135b64ff4b,A
2019-07-16 03:53:58,64113b73-e5ab-48db-94fe-8b135b64ff4b,S
2019-07-16 03:59:27,64113b73-e5ab-48db-94fe-8b135b64ff4b,A
2019-07-16 04:00:01,64113b73-e5ab-48db-94fe-8b135b64ff4b,S
2019-07-16 04:00:38,64113b73-e5ab-48db-94fe-8b135b64ff4b,A
2019-07-16 04:03:10,64113b73-e5ab-48db-94fe-8b135b64ff4b,S
2019-07-16 04:03:30,64113b73-e5ab-48db-94fe-8b135b64ff4b,A
2019-07-16 04:04:22,64113b73-e5ab-48db-94fe-8b135b64ff4b,S
2019-07-16 04:19:55,64113b73-e5ab-48db-94fe-8b135b64ff4b,A
2019-07-16 04:21:14,64113b73-e5ab-48db-94fe-8b135b64ff4b,S
2019-07-16 04:24:22,64113b73-e5ab-48db-94fe-8b135b64ff4b,A
2019-07-16 04:36:16,64113b73-e5ab-48db-94fe-8b135b64ff4b,S
2019-07-16 04:37:42,64113b73-e5ab-48db-94fe-8b135b64ff4b,A
2019-07-16 04:38:51,64113b73-e5ab-48db-94fe-8b135b64ff4b,S
2019-07-16 04:39:43,64113b73-e5ab-48db-94fe-8b135b64ff4b,A
2019-07-16 04:40:05,64113b73-e5ab-48db-94fe-8b135b64ff4b,S
2019-07-16 04:46:35,64113b73-e5ab-48db-94fe-8b135b64ff4b,A
2019-07-16 05:17:15,64113b73-e5ab-48db-94fe-8b135b64ff4b,S
2019-07-16 05:21:00,64113b73-e5ab-48db-94fe-8b135b64ff4b,A
2019-07-16 04:00:54,3cec11d5-bfa1-4eb8-a2cd-db5e7c27b1fa,S
2019-07-16 04:01:37,3cec11d5-bfa1-4eb8-a2cd-db5e7c27b1fa,A
2019-07-16 04:05:07,3cec11d5-bfa1-4eb8-a2cd-db5e7c27b1fa,S
2019-07-16 04:09:10,3cec11d5-bfa1-4eb8-a2cd-db5e7c27b1fa,A
2019-07-16 04:16:59,3cec11d5-bfa1-4eb8-a2cd-db5e7c27b1fa,S
2019-07-16 04:23:28,3cec11d5-bfa1-4eb8-a2cd-db5e7c27b1fa,A
2019-07-16 04:27:38,3cec11d5-bfa1-4eb8-a2cd-db5e7c27b1fa,S
2019-07-16 04:29:04,3cec11d5-bfa1-4eb8-a2cd-db5e7c27b1fa,A
2019-07-16 04:39:28,3cec11d5-bfa1-4eb8-a2cd-db5e7c27b1fa,S
2019-07-16 04:39:44,3cec11d5-bfa1-4eb8-a2cd-db5e7c27b1fa,A
2019-07-16 04:40:00,3cec11d5-bfa1-4eb8-a2cd-db5e7c27b1fa,S
2019-07-16 04:41:29,3cec11d5-bfa1-4eb8-a2cd-db5e7c27b1fa,A
2019-07-16 04:49:19,3cec11d5-bfa1-4eb8-a2cd-db5e7c27b1fa,S
2019-07-16 04:53:16,3cec11d5-bfa1-4eb8-a2cd-db5e7c27b1fa,A
2019-07-16 04:55:55,3cec11d5-bfa1-4eb8-a2cd-db5e7c27b1fa,S
2019-07-16 04:58:22,3cec11d5-bfa1-4eb8-a2cd-db5e7c27b1fa,A
2019-07-16 05:00:29,3cec11d5-bfa1-4eb8-a2cd-db5e7c27b1fa,S
2019-07-16 05:05:10,3cec11d5-bfa1-4eb8-a2cd-db5e7c27b1fa,A
2019-07-16 05:11:31,3cec11d5-bfa1-4eb8-a2cd-db5e7c27b1fa,S
2019-07-16 05:11:41,3cec11d5-bfa1-4eb8-a2cd-db5e7c27b1fa,A
2019-07-16 05:12:20,3cec11d5-bfa1-4eb8-a2cd-db5e7c27b1fa,S
2019-07-16 05:14:38,3cec11d5-bfa1-4eb8-a2cd-db5e7c27b1fa,A
2019-07-16 03:34:27,d819453c-66be-4eff-9d98-da62d46ffb65,S
2019-07-16 03:46:23,d819453c-66be-4eff-9d98-da62d46ffb65,A
2019-07-16 03:46:41,d819453c-66be-4eff-9d98-da62d46ffb65,S
2019-07-16 04:02:05,d819453c-66be-4eff-9d98-da62d46ffb65,A
2019-07-16 04:04:58,d819453c-66be-4eff-9d98-da62d46ffb65,S
2019-07-16 04:06:57,d819453c-66be-4eff-9d98-da62d46ffb65,A
2019-07-16 04:15:04,d819453c-66be-4eff-9d98-da62d46ffb65,S
2019-07-16 04:16:00,d819453c-66be-4eff-9d98-da62d46ffb65,A
2019-07-16 04:18:13,d819453c-66be-4eff-9d98-da62d46ffb65,S
2019-07-16 04:32:38,d819453c-66be-4eff-9d98-da62d46ffb65,A
2019-07-16 04:37:56,d819453c-66be-4eff-9d98-da62d46ffb65,S
2019-07-16 04:39:29,d819453c-66be-4eff-9d98-da62d46ffb65,A
2019-07-16 04:40:17,d819453c-66be-4eff-9d98-da62d46ffb65,S
2019-07-16 04:42:14,d819453c-66be-4eff-9d98-da62d46ffb65,A
2019-07-16 04:45:31,d819453c-66be-4eff-9d98-da62d46ffb65,S
2019-07-16 04:45:38,d819453c-66be-4eff-9d98-da62d46ffb65,A
2019-07-16 04:57:57,d819453c-66be-4eff-9d98-da62d46ffb65,S
2019-07-16 04:59:17,d819453c-66be-4eff-9d98-da62d46ffb65,A
2019-07-16 05:04:10,d819453c-66be-4eff-9d98-da62d46ffb65,S
2019-07-16 05:07:35,d819453c-66be-4eff-9d98-da62d46ffb65,A
2019-07-16 05:08:50,d819453c-66be-4eff-9d98-da62d46ffb65,S
2019-07-16 05:09:32,d819453c-66be-4eff-9d98-da62d46ffb65,A
2019-07-16 05:22:12,d819453c-66be-4eff-9d98-da62d46ffb65,S
2019-07-16 05:23:40,d819453c-66be-4eff-9d98-da62d46ffb65,A
2019-07-16 05:24:54,d819453c-66be-4eff-9d98-da62d46ffb65,S
2019-07-16 03:29:58,c60f0e89-4ce7-489f-b634-3e9c96132bc4,S
2019-07-16 03:33:25,c60f0e89-4ce7-489f-b634-3e9c96132bc4,A
2019-07-16 03:39:28,c60f0e89-4ce7-489f-b634-3e9c96132bc4,S
2019-07-16 03:49:24,c60f0e89-4ce7-489f-b634-3e9c96132bc4,A
2019-07-16 04:09:33,c60f0e89-4ce7-489f-b634-3e9c96132bc4,S
2019-07-16 04:15:28,c60f0e89-4ce7-489f-b634-3e9c96132bc4,A
2019-07-16 04:26:17,c60f0e89-4ce7-489f-b634-3e9c96132bc4,S
2019-07-16 04:31:43,c60f0e89-4ce7-489f-b634-3e9c96132bc4,A
2019-07-16 04:35:59,c60f0e89-4ce7-489f-b634-3e9c96132bc4,S
2019-07-16 04:41:33,c60f0e89-4ce7-489f-b634-3e9c96132bc4,A
2019-07-16 04:41:45,c60f0e89-4ce7-489f-b634-3e9c96132bc4,S
2019-07-16 04:43:29,c60f0e89-4ce7-489f-b634-3e9c96132bc4,A
2019-07-16 04:49:23,c60f0e89-4ce7-489f-b634-3e9c96132bc4,S
2019-07-16 04:51:06,c60f0e89-4ce7-489f-b634-3e9c96132bc4,A
2019-07-16 04:55:37,c60f0e89-4ce7-489f-b634-3e9c96132bc4,S
2019-07-16 04:59:11,c60f0e89-4ce7-489f-b634-3e9c96132bc4,A
2019-07-16 05:04:30,c60f0e89-4ce7-489f-b634-3e9c96132bc4,S
2019-07-16 05:12:14,c60f0e89-4ce7-489f-b634-3e9c96132bc4,A
2019-07-16 04:09:56,425470cd-dd3c-4eea-83d9-2414eda95373,S
2019-07-16 04:11:10,425470cd-dd3c-4eea-83d9-2414eda95373,A
2019-07-16 04:16:55,425470cd-dd3c-4eea-83d9-2414eda95373,S
2019-07-16 04:30:15,425470cd-dd3c-4eea-83d9-2414eda95373,A
2019-07-16 04:38:00,425470cd-dd3c-4eea-83d9-2414eda95373,S
2019-07-16 04:40:31,425470cd-dd3c-4eea-83d9-2414eda95373,A
2019-07-16 04:56:53,425470cd-dd3c-4eea-83d9-2414eda95373,S
2019-07-16 05:03:00,425470cd-dd3c-4eea-83d9-2414eda95373,A
2019-07-16 05:17:49,425470cd-dd3c-4eea-83d9-2414eda95373,S
2019-07-16 05:23:04,425470cd-dd3c-4eea-83d9-2414eda95373,A
2019-07-16 05:25:37,425470cd-dd3c-4eea-83d9-2414eda95373,S
2019-07-16 04:06:27,9f3b725b-e1f4-4732-88f2-b8c9673990a9,S
2019-07-16 04:08:38,9f3b725b-e1f4-4732-88f2-b8c9673990a9,A
2019-07-16 04:11:24,9f3b725b-e1f4-4732-88f2-b8c9673990a9,S
2019-07-16 04:28:20,9f3b725b-e1f4-4732-88f2-b8c9673990a9,A
2019-07-16 04:30:00,9f3b725b-e1f4-4732-88f2-b8c9673990a9,S
2019-07-16 04:31:07,9f3b725b-e1f4-4732-88f2-b8c9673990a9,A
2019-07-16 04:36:21,9f3b725b-e1f4-4732-88f2-b8c9673990a9,S
2019-07-16 04:45:00,9f3b725b-e1f4-4732-88f2-b8c9673990a9,A
2019-07-16 04:46:57,9f3b725b-e1f4-4732-88f2-b8c9673990a9,S
2019-07-16 04:54:32,9f3b725b-e1f4-4732-88f2-b8c9673990a9,A
2019-07-16 04:55:21,9f3b725b-e1f4-4732-88f2-b8c9673990a9,S
2019-07-16 05:07:08,9f3b725b-e1f4-4732-88f2-b8c9673990a9,A
2019-07-16 05:15:00,9f3b725b-e1f4-4732-88f2-b8c9673990a9,S
2019-07-16 05:16:39,9f3b725b-e1f4-4732-88f2-b8c9673990a9,A
2019-07-16 05:20:28,9f3b725b-e1f4-4732-88f2-b8c9673990a9,S
2019-07-16 05:22:46,9f3b725b-e1f4-4732-88f2-b8c9673990a9,A
2019-07-16 03:21:43,ac3f5120-04db-4312-a16b-c7c9e0bb7e20,A
2019-07-16 03:37:45,ac3f5120-04db-4312-a16b-c7c9e0bb7e20,S
2019-07-16 03:40:59,ac3f5120-04db-4312-a16b-c7c9e0bb7e20,A
2019-07-16 03:43:45,ac3f5120-04db-4312-a16b-c7c9e0bb7e20,S
2019-07-16 03:44:16,ac3f5120-04db-4312-a16b-c7c9e0bb7e20,A
2019-07-16 03:58:14,ac3f5120-04db-4312-a16b-c7c9e0bb7e20,S
2019-07-16 04:01:43,ac3f5120-04db-4312-a16b-c7c9e0bb7e20,A
2019-07-16 04:04:34,ac3f5120-04db-4312-a16b-c7c9e0bb7e20,S
2019-07-16 04:08:35,ac3f5120-04db-4312-a16b-c7c9e0bb7e20,A
2019-07-16 04:21:58,ac3f5120-04db-4312-a16b-c7c9e0bb7e20,S
2019-07-16 04:22:09,ac3f5120-04db-4312-a16b-c7c9e0bb7e20,A
2019-07-16 04:30:51,ac3f5120-04db-4312-a16b-c7c9e0bb7e20,S
2019-07-16 04:35:08,ac3f5120-04db-4312-a16b-c7c9e0bb7e20,A
2019-07-16 04:41:44,ac3f5120-04db-4312-a16b-c7c9e0bb7e20,S
2019-07-16 04:44:16,ac3f5120-04db-4312-a16b-c7c9e0bb7e20,A
2019-07-16 04:55:27,ac3f5120-04db-4312-a16b-c7c9e0bb7e20,S
2019-07-16 04:57:22,ac3f5120-04db-4312-a16b-c7c9e0bb7e20,A
2019-07-16 04:58:19,ac3f5120-04db-4312-a16b-c7c9e0bb7e20,S
2019-07-16 05:01:12,ac3f5120-04db-4312-a16b-c7c9e0bb7e20,A
2019-07-16 05:07:10,ac3f5120-04db-4312-a16b-c7c9e0bb7e20,S
2019-07-16 05:15:58,ac3f5120-04db-4312-a16b-c7c9e0bb7e20,A
2019-07-16 05:19:01,ac3f5120-04db-4312-a16b-c7c9e0bb7e20,S
2019-07-16 05:20:52,ac3f5120-04db-4312-a16b-c7c9e0bb7e20,A
2019-07-16 05:23:02,ac3f5120-04db-4312-a16b-c7c9e0bb7e20,S
2019-07-16 03:52:27,947ce7fc-332f-49d6-bb3e-dd75f214be14,A
2019-07-16 04:03:57,947ce7fc-332f-49d6-bb3e-dd75f214be14,S
2019-07-16 04:13:53,947ce7fc-332f-49d6-bb3e-dd75f214be14,A
2019-07-16 04:19:21,947ce7fc-332f-49d6-bb3e-dd75f214be14,S
2019-07-16 04:20:04,947ce7fc-332f-49d6-bb3e-dd75f214be14,A
2019-07-16 04:21:00,947ce7fc-332f-49d6-bb3e-dd75f214be14,S
2019-07-16 04:22:58,947ce7fc-332f-49d6-bb3e-dd75f214be14,A
2019-07-16 04:24:18,947ce7fc-332f-49d6-bb3e-dd75f214be14,S
2019-07-16 04:31:38,947ce7fc-332f-49d6-bb3e-dd75f214be14,A
2019-07-16 04:33:31,947ce7fc-332f-49d6-bb3e-dd75f214be14,S
2019-07-16 04:35:14,947ce7fc-332f-49d6-bb3e-dd75f214be14,A
2019-07-16 04:50:39,947ce7fc-332f-49d6-bb3e-dd75f214be14,S
2019-07-16 04:56:32,947ce7fc-332f-49d6-bb3e-dd75f214be14,A
2019-07-16 05:01:05,947ce7fc-332f-49d6-bb3e-dd75f214be14,S
2019-07-16 05:02:09,947ce7fc-332f-49d6-bb3e-dd75f214be14,A
2019-07-16 05:04:29,947ce7fc-332f-49d6-bb3e-dd75f214be14,S
2019-07-16 05:08:08,947ce7fc-332f-49d6-bb3e-dd75f214be14,A
2019-07-16 05:10:09,947ce7fc-332f-49d6-bb3e-dd75f214be14,S
2019-07-16 05:10:17,947ce7fc-332f-49d6-bb3e-dd75f214be14,A
2019-07-16 05:19:23,947ce7fc-332f-49d6-bb3e-dd75f214be14,S
2019-07-16 05:25:43,947ce7fc-332f-49d6-bb3e-dd75f214be14,A
2019-07-16 05:26:48,947ce7fc-332f-49d6-bb3e-dd75f214be14,S
2019-07-16 05:27:42,947ce7fc-332f-49d6-bb3e-dd75f214be14,A
2019-07-16 03:52:17,818889f1-85b2-4718-a8af-7136b3541830,S
2019-07-16 03:52:59,818889f1-85b2-4718-a8af-7136b3541830,A
2019-07-16 04:08:40,818889f1-85b2-4718-a8af-7136b3541830,S
2019-07-16 04:15:54,818889f1-85b2-4718-a8af-7136b3541830,A
2019-07-16 04:16:16,818889f1-85b2-4718-a8af-7136b3541830,S
2019-07-16 04:16:46,818889f1-85b2-4718-a8af-7136b3541830,A
2019-07-16 04:17:52,818889f1-85b2-4718-a8af-7136b3541830,S
2019-07-16 04:25:41,818889f1-85b2-4718-a8af-7136b3541830,A
2019-07-16 03:22:10,75d6d617-d76a-47b5-ab0f-745baba51e95,S
2019-07-16 03:26:13,75d6d617-d76a-47b5-ab0f-745baba51e95,A
2019-07-16 03:27:02,75d6d617-d76a-47b5-ab0f-745baba51e95,S
2019-07-16 03:32:15,75d6d617-d76a-47b5-ab0f-745baba51e95,A
2019-07-16 03:37:09,75d6d617-d76a-47b5-ab0f-745baba51e95,S
2019-07-16 03:42:07,75d6d617-d76a-47b5-ab0f-745baba51e95,A
2019-07-16 03:44:42,75d6d617-d76a-47b5-ab0f-745baba51e95,S
2019-07-16 03:45:28,75d6d617-d76a-47b5-ab0f-745baba51e95,A
2019-07-16 03:56:04,75d6d617-d76a-47b5-ab0f-745baba51e95,S
2019-07-16 03:56:28,75d6d617-d76a-47b5-ab0f-745baba51e95,A
2019-07-16 04:04:06,75d6d617-d76a-47b5-ab0f-745baba51e95,S
2019-07-16 04:09:26,75d6d617-d76a-47b5-ab0f-745baba51e95,A
2019-07-16 04:09:52,75d6d617-d76a-47b5-ab0f-745baba51e95,S
2019-07-16 04:16:17,75d6d617-d76a-47b5-ab0f-745baba51e95,A
2019-07-16 04:18:21,75d6d617-d76a-47b5-ab0f-745baba51e95,S
2019-07-16 04:18:35,75d6d617-d76a-47b5-ab0f-745baba51e95,A
2019-07-16 04:23:38,75d6d617-d76a-47b5-ab0f-745baba51e95,S
2019-07-16 04:24:19,75d6d617-d76a-47b5-ab0f-745baba51e95,A
2019-07-16 04:41:25,75d6d617-d76a-47b5-ab0f-745baba51e95,S
2019-07-16 04:43:42,75d6d617-d76a-47b5-ab0f-745baba51e95,A
2019-07-16 04:44:02,75d6d617-d76a-47b5-ab0f-745baba51e95,S
2019-07-16 04:47:27,75d6d617-d76a-47b5-ab0f-745baba51e95,A
2019-07-16 04:47:38,75d6d617-d76a-47b5-ab0f-745baba51e95,S
2019-07-16 04:54:39,75d6d617-d76a-47b5-ab0f-745baba51e95,A
2019-07-16 05:00:28,75d6d617-d76a-47b5-ab0f-745baba51e95,S
2019-07-16 05:21:10,75d6d617-d76a-47b5-ab0f-745baba51e95,A
2019-07-16 05:22:27,75d6d617-d76a-47b5-ab0f-745baba51e95,S
2019-07-16 03:39:42,06c7ab5f-7c34-409f-b58c-950f11c77454,A
2019-07-16 03:43:23,06c7ab5f-7c34-409f-b58c-950f11c77454,S
2019-07-16 03:46:43,06c7ab5f-7c34-409f-b58c-950f11c77454,A
2019-07-16 03:48:22,06c7ab5f-7c34-409f-b58c-950f11c77454,S
2019-07-16 04:03:52,06c7ab5f-7c34-409f-b58c-950f11c77454,A
2019-07-16 04:05:37,06c7ab5f-7c34-409f-b58c-950f11c77454,S
2019-07-16 04:05:59,06c7ab5f-7c34-409f-b58c-950f11c77454,A
2019-07-16 04:27:48,06c7ab5f-7c34-409f-b58c-950f11c77454,S
2019-07-16 04:34:58,06c7ab5f-7c34-409f-b58c-950f11c77454,A
2019-07-16 04:39:19,06c7ab5f-7c34-409f-b58c-950f11c77454,S
2019-07-16 04:39:59,06c7ab5f-7c34-409f-b58c-950f11c77454,A
2019-07-16 04:44:14,06c7ab5f-7c34-409f-b58c-950f11c77454,S
2019-07-16 04:46:04,06c7ab5f-7c34-409f-b58c-950f11c77454,A
2019-07-16 04:48:46,06c7ab5f-7c34-409f-b58c-950f11c77454,S
2019-07-16 04:58:01,06c7ab5f-7c34-409f-b58c-950f11c77454,A
2019-07-16 05:05:37,06c7ab5f-7c34-409f-b58c-950f11c77454,S
2019-07-16 05:10:33,06c7ab5f-7c34-409f-b58c-950f11c77454,A
2019-07-16 05:17:11,06c7ab5f-7c34-409f-b58c-950f11c77454,S
2019-07-16 03:24:10,2ccba043-f945-44cb-9caa-76d60029061a,A
2019-07-16 03:27:38,2ccba043-f945-44cb-9caa-76d60029061a,S
2019-07-16 03:36:11,2ccba043-f945-44cb-9caa-76d60029061a,A
2019-07-16 03:39:15,2ccba043-f945-44cb-9caa-76d60029061a,S
2019-07-16 03:39:31,2ccba043-f945-44cb-9caa-76d60029061a,A
2019-07-16 03:42:00,2ccba043-f945-44cb-9caa-76d60029061a,S
2019-07-16 03:47:20,2ccba043-f945-44cb-9caa-76d60029061a,A
2019-07-16 03:51:15,2ccba043-f945-44cb-9caa-76d60029061a,S
2019-07-16 03:53:59,2ccba043-f945-44cb-9caa-76d60029061a,A
2019-07-16 04:04:47,2ccba043-f945-44cb-9caa-76d60029061a,S
2019-07-16 04:10:25,2ccba043-f945-44cb-9caa-76d60029061a,A
2019-07-16 04:32:59,2ccba043-f945-44cb-9caa-76d60029061a,S
2019-07-16 04:57:20,2ccba043-f945-44cb-9caa-76d60029061a,A
2019-07-16 05:03:54,2ccba043-f945-44cb-9caa-76d60029061a,S
2019-07-16 05:07:21,2ccba043-f945-44cb-9caa-76d60029061a,A
2019-07-16 05:10:15,2ccba043-f945-44cb-9caa-76d60029061a,S
2019-07-16 05:15:00,2ccba043-f945-44cb-9caa-76d60029061a,A
2019-07-16 05:28:04,2ccba043-f945-44cb-9caa-76d60029061a,S
2019-07-16 03:58:02,86a98f68-25d2-4d1d-9665-2f067332d0b3,S
2019-07-16 03:59:57,86a98f68-25d2-4d1d-9665-2f067332d0b3,A
2019-07-16 04:03:06,86a98f68-25d2-4d1d-9665-2f067332d0b3,S
2019-07-16 04:03:35,86a98f68-25d2-4d1d-9665-2f067332d0b3,A
2019-07-16 04:06:44,86a98f68-25d2-4d1d-9665-2f067332d0b3,S
2019-07-16 04:08:44,86a98f68-25d2-4d1d-9665-2f067332d0b3,A
2019-07-16 04:13:00,86a98f68-25d2-4d1d-9665-2f067332d0b3,S
2019-07-16 04:13:57,86a98f68-25d2-4d1d-9665-2f067332d0b3,A
2019-07-16 04:14:46,86a98f68-25d2-4d1d-9665-2f067332d0b3,S
2019-07-16 04:22:13,86a98f68-25d2-4d1d-9665-2f067332d0b3,A
2019-07-16 04:24:26,86a98f68-25d2-4d1d-9665-2f067332d0b3,S
2019-07-16 04:27:58,86a98f68-25d2-4d1d-9665-2f067332d0b3,A
2019-07-16 04:36:14,86a98f68-25d2-4d1d-9665-2f067332d0b3,S
2019-07-16 04:43:39,86a98f68-25d2-4d1d-9665-2f067332d0b3,A
2019-07-16 04:45:41,86a98f68-25d2-4d1d-9665-2f067332d0b3,S
2019-07-16 04:48:26,86a98f68-25d2-4d1d-9665-2f067332d0b3,A
2019-07-16 04:49:30,86a98f68-25d2-4d1d-9665-2f067332d0b3,S
2019-07-16 04:50:48,86a98f68-25d2-4d1d-9665-2f067332d0b3,A
2019-07-16 04:52:21,86a98f68-25d2-4d1d-9665-2f067332d0b3,S
2019-07-16 05:00:28,86a98f68-25d2-4d1d-9665-2f067332d0b3,A
2019-07-16 05:00:38,86a98f68-25d2-4d1d-9665-2f067332d0b3,S
2019-07-16 05:00:50,86a98f68-25d2-4d1d-9665-2f067332d0b3,A
2019-07-16 05:04:41,86a98f68-25d2-4d1d-9665-2f067332d0b3,S
2019-07-16 05:07:05,86a98f68-25d2-4d1d-9665-2f067332d0b3,A
2019-07-16 05:07:49,86a98f68-25d2-4d1d-9665-2f067332d0b3,S
2019-07-16 05:09:07,86a98f68-25d2-4d1d-9665-2f067332d0b3,A
2019-07-16 05:10:01,86a98f68-25d2-4d1d-9665-2f067332d0b3,S
2019-07-16 05:18:23,86a98f68-25d2-4d1d-9665-2f067332d0b3,A
2019-07-16 05:19:36,86a98f68-25d2-4d1d-9665-2f067332d0b3,S
2019-07-16 05:28:35,86a98f68-25d2-4d1d-9665-2f067332d0b3,A
2019-07-16 03:18:11,bb2a97ae-7a9e-4ada-a180-155e8831d6c1,A
2019-07-16 03:22:28,bb2a97ae-7a9e-4ada-a180-155e8831d6c1,S
2019-07-16 03:24:44,bb2a97ae-7a9e-4ada-a180-155e8831d6c1,A
2019-07-16 03:32:27,bb2a97ae-7a9e-4ada-a180-155e8831d6c1,S
2019-07-16 03:41:45,bb2a97ae-7a9e-4ada-a180-155e8831d6c1,A
2019-07-16 03:46:06,bb2a97ae-7a9e-4ada-a180-155e8831d6c1,S
2019-07-16 03:50:40,bb2a97ae-7a9e-4ada-a180-155e8831d6c1,A
2019-07-16 04:05:57,bb2a97ae-7a9e-4ada-a180-155e8831d6c1,S
2019-07-16 04:10:50,bb2a97ae-7a9e-4ada-a180-155e8831d6c1,A
2019-07-16 04:23:39,bb2a97ae-7a9e-4ada-a180-155e8831d6c1,S
2019-07-16 04:24:08,bb2a97ae-7a9e-4ada-a180-155e8831d6c1,A
2019-07-16 04:31:21,bb2a97ae-7a9e-4ada-a180-155e8831d6c1,S
2019-07-16 04:39:15,bb2a97ae-7a9e-4ada-a180-155e8831d6c1,A
2019-07-16 04:40:25,bb2a97ae-7a9e-4ada-a180-155e8831d6c1,S
2019-07-16 04:41:58,bb2a97ae-7a9e-4ada-a180-155e8831d6c1,A
2019-07-16 04:42:35,bb2a97ae-7a9e-4ada-a180-155e8831d6c1,S
2019-07-16 04:44:07,bb2a97ae-7a9e-4ada-a180-155e8831d6c1,A
2019-07-16 04:44:43,bb2a97ae-7a9e-4ada-a180-155e8831d6c1,S
2019-07-16 04:44:50,bb2a97ae-7a9e-4ada-a180-155e8831d6c1,A
2019-07-16 04:45:11,bb2a97ae-7a9e-4ada-a180-155e8831d6c1,S
2019-07-16 04:46:08,bb2a97ae-7a9e-4ada-a180-155e8831d6c1,A
2019-07-16 04:53:33,bb2a97ae-7a9e-4ada-a180-155e8831d6c1,S
2019-07-16 05:05:51,bb2a97ae-7a9e-4ada-a180-155e8831d6c1,A
2019-07-16 05:06:29,bb2a97ae-7a9e-4ada-a180-155e8831d6c1,S
2019-07-16 05:24:59,bb2a97ae-7a9e-4ada-a180-155e8831d6c1,A
2019-07-16 03:48:37,dc77ea01-1ff2-4d0e-8952-ba8a0f37d95b,A
2019-07-16 04:07:30,dc77ea01-1ff2-4d0e-8952-ba8a0f37d95b,S
2019-07-16 04:07:51,dc77ea01-1ff2-4d0e-8952-ba8a0f37d95b,A
2019-07-16 04:10:35,dc77ea01-1ff2-4d0e-8952-ba8a0f37d95b,S
2019-07-16 04:14:35,dc77ea01-1ff2-4d0e-8952-ba8a0f37d95b,A
2019-07-16 04:15:05,dc77ea01-1ff2-4d0e-8952-ba8a0f37d95b,S
2019-07-16 04:18:06,dc77ea01-1ff2-4d0e-8952-ba8a0f37d95b,A
2019-07-16 04:19:45,dc77ea01-1ff2-4d0e-8952-ba8a0f37d95b,S
2019-07-16 04:34:14,dc77ea01-1ff2-4d0e-8952-ba8a0f37d95b,A
2019-07-16 04:35:51,dc77ea01-1ff2-4d0e-8952-ba8a0f37d95b,S
2019-07-16 04:35:56,dc77ea01-1ff2-4d0e-8952-ba8a0f37d95b,A
2019-07-16 04:38:17,dc77ea01-1ff2-4d0e-8952-ba8a0f37d95b,S
2019-07-16 04:38:24,dc77ea01-1ff2-4d0e-8952-ba8a0f37d95b,A
2019-07-16 04:40:27,dc77ea01-1ff2-4d0e-8952-ba8a0f37d95b,S
2019-07-16 04:44:27,dc77ea01-1ff2-4d0e-8952-ba8a0f37d95b,A
2019-07-16 04:55:10,dc77ea01-1ff2-4d0e-8952-ba8a0f37d95b,S
2019-07-16 05:00:54,dc77ea01-1ff2-4d0e-8952-ba8a0f37d95b,A
2019-07-16 05:03:09,dc77ea01-1ff2-4d0e-8952-ba8a0f37d95b,S
2019-07-16 05:06:34,dc77ea01-1ff2-4d0e-8952-ba8a0f37d95b,A
2019-07-16 05:10:07,dc77ea01-1ff2-4d0e-8952-ba8a0f37d95b,S
2019-07-16 05:27:52,dc77ea01-1ff2-4d0e-8952-ba8a0f37d95b,A
2019-07-16 03:59:52,ce41eb60-1564-4e8d-a45c-fe78fe80ad9d,A
2019-07-16 04:07:06,ce41eb60-1564-4e8d-a45c-fe78fe80ad9d,S
2019-07-16 04:09:00,ce41eb60-1564-4e8d-a45c-fe78fe80ad9d,A
2019-07-16 04:13:51,ce41eb60-1564-4e8d-a45c-fe78fe80ad9d,S
2019-07-16 04:21:06,ce41eb60-1564-4e8d-a45c-fe78fe80ad9d,A
2019-07-16 04:28:02,ce41eb60-1564-4e8d-a45c-fe78fe80ad9d,S
2019-07-16 04:28:36,ce41eb60-1564-4e8d-a45c-fe78fe80ad9d,A
2019-07-16 04:29:01,ce41eb60-1564-4e8d-a45c-fe78fe80ad9d,S
2019-07-16 04:30:24,ce41eb60-1564-4e8d-a45c-fe78fe80ad9d,A
2019-07-16 04:31:02,ce41eb60-1564-4e8d-a45c-fe78fe80ad9d,S
2019-07-16 04:33:19,ce41eb60-1564-4e8d-a45c-fe78fe80ad9d,A
2019-07-16 04:39:41,ce41eb60-1564-4e8d-a45c-fe78fe80ad9d,S
2019-07-16 04:41:04,ce41eb60-1564-4e8d-a45c-fe78fe80ad9d,A
2019-07-16 04:43:45,ce41eb60-1564-4e8d-a45c-fe78fe80ad9d,S
2019-07-16 04:44:20,ce41eb60-1564-4e8d-a45c-fe78fe80ad9d,A
2019-07-16 04:45:40,ce41eb60-1564-4e8d-a45c-fe78fe80ad9d,S
2019-07-16 05:05:01,ce41eb60-1564-4e8d-a45c-fe78fe80ad9d,A
2019-07-16 05:23:02,ce41eb60-1564-4e8d-a45c-fe78fe80ad9d,S
2019-07-16 05:24:05,ce41eb60-1564-4e8d-a45c-fe78fe80ad9d,A
2019-07-16 03:49:39,7cccb977-3d2b-4ebb-8df5-3398ac0c9e9d,S
2019-07-16 03:49:43,7cccb977-3d2b-4ebb-8df5-3398ac0c9e9d,A
2019-07-16 03:56:54,7cccb977-3d2b-4ebb-8df5-3398ac0c9e9d,S
2019-07-16 04:08:24,7cccb977-3d2b-4ebb-8df5-3398ac0c9e9d,A
2019-07-16 04:10:00,7cccb977-3d2b-4ebb-8df5-3398ac0c9e9d,S
2019-07-16 04:13:08,7cccb977-3d2b-4ebb-8df5-3398ac0c9e9d,A
2019-07-16 04:13:24,7cccb977-3d2b-4ebb-8df5-3398ac0c9e9d,S
2019-07-16 04:31:23,7cccb977-3d2b-4ebb-8df5-3398ac0c9e9d,A
2019-07-16 04:33:47,7cccb977-3d2b-4ebb-8df5-3398ac0c9e9d,S
2019-07-16 04:46:09,7cccb977-3d2b-4ebb-8df5-3398ac0c9e9d,A
2019-07-16 04:58:16,7cccb977-3d2b-4ebb-8df5-3398ac0c9e9d,S
2019-07-16 05:03:48,7cccb977-3d2b-4ebb-8df5-3398ac0c9e9d,A
2019-07-16 05:04:14,7cccb977-3d2b-4ebb-8df5-3398ac0c9e9d,S
2019-07-16 05:06:29,7cccb977-3d2b-4ebb-8df5-3398ac0c9e9d,A
2019-07-16 05:10:09,7cccb977-3d2b-4ebb-8df5-3398ac0c9e9d,S
2019-07-16 05:13:28,7cccb977-3d2b-4ebb-8df5-3398ac0c9e9d,A
2019-07-16 05:17:59,7cccb977-3d2b-4ebb-8df5-3398ac0c9e9d,S
2019-07-16 05:18:55,7cccb977-3d2b-4ebb-8df5-3398ac0c9e9d,A
2019-07-16 05:19:17,7cccb977-3d2b-4ebb-8df5-3398ac0c9e9d,S
2019-07-16 05:20:15,7cccb977-3d2b-4ebb-8df5-3398ac0c9e9d,A
2019-07-16 03:24:29,129ffd3d-9847-4a4f-8a6c-ad38738ef61d,S
2019-07-16 03:26:01,129ffd3d-9847-4a4f-8a6c-ad38738ef61d,A
2019-07-16 03:26:50,129ffd3d-9847-4a4f-8a6c-ad38738ef61d,S
2019-07-16 03:26:56,129ffd3d-9847-4a4f-8a6c-ad38738ef61d,A
2019-07-16 03:27:02,129ffd3d-9847-4a4f-8a6c-ad38738ef61d,S
2019-07-16 03:27:26,129ffd3d-9847-4a4f-8a6c-ad38738ef61d,A
2019-07-16 03:32:12,129ffd3d-9847-4a4f-8a6c-ad38738ef61d,S
2019-07-16 03:36:20,129ffd3d-9847-4a4f-8a6c-ad38738ef61d,A
2019-07-16 03:38:08,129ffd3d-9847-4a4f-8a6c-ad38738ef61d,S
2019-07-16 03:40:21,129ffd3d-9847-4a4f-8a6c-ad38738ef61d,A
2019-07-16 03:50:59,129ffd3d-9847-4a4f-8a6c-ad38738ef61d,S
2019-07-16 03:53:02,129ffd3d-9847-4a4f-8a6c-ad38738ef61d,A
2019-07-16 04:02:11,129ffd3d-9847-4a4f-8a6c-ad38738ef61d,S
2019-07-16 04:04:46,129ffd3d-9847-4a4f-8a6c-ad38738ef61d,A
2019-07-16 04:13:22,129ffd3d-9847-4a4f-8a6c-ad38738ef61d,S
2019-07-16 04:15:24,129ffd3d-9847-4a4f-8a6c-ad38738ef61d,A
2019-07-16 04:17:12,129ffd3d-9847-4a4f-8a6c-ad38738ef61d,S
2019-07-16 04:20:16,129ffd3d-9847-4a4f-8a6c-ad38738ef61d,A
2019-07-16 04:20:23,129ffd3d-9847-4a4f-8a6c-ad38738ef61d,S
2019-07-16 04:32:27,129ffd3d-9847-4a4f-8a6c-ad38738ef61d,A
2019-07-16 04:36:06,129ffd3d-9847-4a4f-8a6c-ad38738ef61d,S
2019-07-16 04:47:49,129ffd3d-9847-4a4f-8a6c-ad38738ef61d,A
2019-07-16 04:48:34,129ffd3d-9847-4a4f-8a6c-ad38738ef61d,S
2019-07-16 04:55:27,129ffd3d-9847-4a4f-8a6c-ad38738ef61d,A
2019-07-16 04:56:47,129ffd3d-9847-4a4f-8a6c-ad38738ef61d,S
2019-07-16 04:59:15,129ffd3d-9847-4a4f-8a6c-ad38738ef61d,A
2019-07-16 05:07:40,129ffd3d-9847-4a4f-8a6c-ad38738ef61d,S
2019-07-16 05:15:49,129ffd3d-9847-4a4f-8a6c-ad38738ef61d,A
2019-07-16 05:25:58,129ffd3d-9847-4a4f-8a6c-ad38738ef61d,S
2019-07-16 05:27:56,129ffd3d-9847-4a4f-8a6c-ad38738ef61d,A
2019-07-16 03:55:09,545806e6-aabf-4969-9820-fbe056b2e5f4,A
2019-07-16 03:55:48,545806e6-aabf-4969-9820-fbe056b2e5f4,S
2019-07-16 03:57:23,545806e6-aabf-4969-9820-fbe056b2e5f4,A
2019-07-16 04:11:37,545806e6-aabf-4969-9820-fbe056b2e5f4,S
2019-07-16 04:13:43,545806e6-aabf-4969-9820-fbe056b2e5f4,A
2019-07-16 04:16:10,545806e6-aabf-4969-9820-fbe056b2e5f4,S
2019-07-16 04:23:48,545806e6-aabf-4969-9820-fbe056b2e5f4,A
2019-07-16 04:27:28,545806e6-aabf-4969-9820-fbe056b2e5f4,S
2019-07-16 04:30:49,545806e6-aabf-4969-9820-fbe056b2e5f4,A
2019-07-16 04:41:40,545806e6-aabf-4969-9820-fbe056b2e5f4,S
2019-07-16 04:41:43,545806e6-aabf-4969-9820-fbe056b2e5f4,A
2019-07-16 04:51:14,545806e6-aabf-4969-9820-fbe056b2e5f4,S
2019-07-16 05:11:43,545806e6-aabf-4969-9820-fbe056b2e5f4,A
2019-07-16 05:18:58,545806e6-aabf-4969-9820-fbe056b2e5f4,S
2019-07-16 05:22:57,545806e6-aabf-4969-9820-fbe056b2e5f4,A
2019-07-16 03:55:31,128024f6-d505-4054-9c06-65d0696cd438,A
2019-07-16 03:56:00,128024f6-d505-4054-9c06-65d0696cd438,S
2019-07-16 04:04:30,128024f6-d505-4054-9c06-65d0696cd438,A
2019-07-16 04:05:49,128024f6-d505-4054-9c06-65d0696cd438,S
2019-07-16 04:14:26,128024f6-d505-4054-9c06-65d0696cd438,S
2019-07-16 04:15:40,128024f6-d505-4054-9c06-65d0696cd438,A
2019-07-16 04:16:30,128024f6-d505-4054-9c06-65d0696cd438,S
2019-07-16 04:20:18,128024f6-d505-4054-9c06-65d0696cd438,A
2019-07-16 04:21:24,128024f6-d505-4054-9c06-65d0696cd438,S
2019-07-16 04:21:36,128024f6-d505-4054-9c06-65d0696cd438,A
2019-07-16 04:27:09,128024f6-d505-4054-9c06-65d0696cd438,S
2019-07-16 04:32:28,128024f6-d505-4054-9c06-65d0696cd438,A
2019-07-16 04:44:43,128024f6-d505-4054-9c06-65d0696cd438,S
2019-07-16 04:44:59,128024f6-d505-4054-9c06-65d0696cd438,A
2019-07-16 04:49:09,128024f6-d505-4054-9c06-65d0696cd438,S
2019-07-16 04:58:45,128024f6-d505-4054-9c06-65d0696cd438,A
2019-07-16 05:10:51,128024f6-d505-4054-9c06-65d0696cd438,S
2019-07-16 05:14:20,128024f6-d505-4054-9c06-65d0696cd438,A
2019-07-16 05:18:43,128024f6-d505-4054-9c06-65d0696cd438,S
2019-07-16 05:20:07,128024f6-d505-4054-9c06-65d0696cd438,A
2019-07-16 05:20:43,128024f6-d505-4054-9c06-65d0696cd438,S
2019-07-16 05:27:43,128024f6-d505-4054-9c06-65d0696cd438,A
2019-07-16 05:29:12,128024f6-d505-4054-9c06-65d0696cd438,S
2019-07-16 05:29:43,128024f6-d505-4054-9c06-65d0696cd438,A
2019-07-16 03:30:04,6c917fe5-e470-4104-bb63-860441c1ed50,S
2019-07-16 03:35:02,6c917fe5-e470-4104-bb63-860441c1ed50,A
2019-07-16 03:35:23,6c917fe5-e470-4104-bb63-860441c1ed50,S
2019-07-16 03:40:08,6c917fe5-e470-4104-bb63-860441c1ed50,A
2019-07-16 03:45:05,6c917fe5-e470-4104-bb63-860441c1ed50,S
2019-07-16 03:47:07,6c917fe5-e470-4104-bb63-860441c1ed50,A
2019-07-16 03:57:12,6c917fe5-e470-4104-bb63-860441c1ed50,S
2019-07-16 03:59:53,6c917fe5-e470-4104-bb63-860441c1ed50,A
2019-07-16 04:00:48,6c917fe5-e470-4104-bb63-860441c1ed50,S
2019-07-16 04:08:50,6c917fe5-e470-4104-bb63-860441c1ed50,A
2019-07-16 04:17:38,6c917fe5-e470-4104-bb63-860441c1ed50,S
2019-07-16 04:19:48,6c917fe5-e470-4104-bb63-860441c1ed50,A
2019-07-16 04:19:57,6c917fe5-e470-4104-bb63-860441c1ed50,S
2019-07-16 04:39:14,6c917fe5-e470-4104-bb63-860441c1ed50,A
2019-07-16 04:41:28,6c917fe5-e470-4104-bb63-860441c1ed50,S
2019-07-16 04:59:02,6c917fe5-e470-4104-bb63-860441c1ed50,A
2019-07-16 05:09:13,6c917fe5-e470-4104-bb63-860441c1ed50,S
2019-07-16 05:25:04,6c917fe5-e470-4104-bb63-860441c1ed50,A
2019-07-16 05:26:17,6c917fe5-e470-4104-bb63-860441c1ed50,S
2019-07-16 03:19:21,97e0119a-f024-4e21-9070-d6b72b37518f,S
2019-07-16 03:20:27,97e0119a-f024-4e21-9070-d6b72b37518f,A
2019-07-16 03:21:41,97e0119a-f024-4e21-9070-d6b72b37518f,S
2019-07-16 03:25:20,97e0119a-f024-4e21-9070-d6b72b37518f,A
2019-07-16 03:28:04,97e0119a-f024-4e21-9070-d6b72b37518f,S
2019-07-16 03:33:14,97e0119a-f024-4e21-9070-d6b72b37518f,A
2019-07-16 03:34:32,97e0119a-f024-4e21-9070-d6b72b37518f,S
2019-07-16 03:40:31,97e0119a-f024-4e21-9070-d6b72b37518f,A
2019-07-16 03:51:48,97e0119a-f024-4e21-9070-d6b72b37518f,S
2019-07-16 03:55:28,97e0119a-f024-4e21-9070-d6b72b37518f,A
2019-07-16 04:00:00,97e0119a-f024-4e21-9070-d6b72b37518f,S
2019-07-16 04:11:27,97e0119a-f024-4e21-9070-d6b72b37518f,A
2019-07-16 04:24:54,97e0119a-f024-4e21-9070-d6b72b37518f,S
2019-07-16 04:25:52,97e0119a-f024-4e21-9070-d6b72b37518f,A
2019-07-16 04:27:25,97e0119a-f024-4e21-9070-d6b72b37518f,S
2019-07-16 04:28:11,97e0119a-f024-4e21-9070-d6b72b37518f,A
2019-07-16 04:29:20,97e0119a-f024-4e21-9070-d6b72b37518f,S
2019-07-16 04:37:56,97e0119a-f024-4e21-9070-d6b72b37518f,A
2019-07-16 04:39:54,97e0119a-f024-4e21-9070-d6b72b37518f,S
2019-07-16 04:41:42,97e0119a-f024-4e21-9070-d6b72b37518f,A
2019-07-16 04:46:30,97e0119a-f024-4e21-9070-d6b72b37518f,S
2019-07-16 04:55:23,97e0119a-f024-4e21-9070-d6b72b37518f,A
2019-07-16 05:06:16,97e0119a-f024-4e21-9070-d6b72b37518f,S
2019-07-16 05:10:12,97e0119a-f024-4e21-9070-d6b72b37518f,A
2019-07-16 05:10:29,97e0119a-f024-4e21-9070-d6b72b37518f,S
2019-07-16 05:16:08,97e0119a-f024-4e21-9070-d6b72b37518f,A
2019-07-16 05:22:34,97e0119a-f024-4e21-9070-d6b72b37518f,S
2019-07-16 05:22:34,97e0119a-f024-4e21-9070-d6b72b37518f,A
2019-07-16 05:24:33,97e0119a-f024-4e21-9070-d6b72b37518f,S
2019-07-16 05:27:11,97e0119a-f024-4e21-9070-d6b72b37518f,A
2019-07-16 05:29:00,97e0119a-f024-4e21-9070-d6b72b37518f,S
2019-07-16 03:30:37,deba1d74-39b7-4e76-81ee-45e8ed4e123a,S
2019-07-16 03:46:45,deba1d74-39b7-4e76-81ee-45e8ed4e123a,A
2019-07-16 03:47:57,deba1d74-39b7-4e76-81ee-45e8ed4e123a,S
2019-07-16 03:52:46,deba1d74-39b7-4e76-81ee-45e8ed4e123a,A
2019-07-16 03:53:51,deba1d74-39b7-4e76-81ee-45e8ed4e123a,S
2019-07-16 03:56:39,deba1d74-39b7-4e76-81ee-45e8ed4e123a,A
2019-07-16 04:01:51,deba1d74-39b7-4e76-81ee-45e8ed4e123a,S
2019-07-16 04:04:01,deba1d74-39b7-4e76-81ee-45e8ed4e123a,A
2019-07-16 04:07:30,deba1d74-39b7-4e76-81ee-45e8ed4e123a,S
2019-07-16 04:13:05,deba1d74-39b7-4e76-81ee-45e8ed4e123a,A
2019-07-16 04:23:36,deba1d74-39b7-4e76-81ee-45e8ed4e123a,S
2019-07-16 04:29:16,deba1d74-39b7-4e76-81ee-45e8ed4e123a,A
2019-07-16 04:31:14,deba1d74-39b7-4e76-81ee-45e8ed4e123a,S
2019-07-16 04:33:16,deba1d74-39b7-4e76-81ee-45e8ed4e123a,A
2019-07-16 04:41:33,deba1d74-39b7-4e76-81ee-45e8ed4e123a,S
2019-07-16 04:43:43,deba1d74-39b7-4e76-81ee-45e8ed4e123a,A
2019-07-16 04:48:38,deba1d74-39b7-4e76-81ee-45e8ed4e123a,S
2019-07-16 04:51:36,deba1d74-39b7-4e76-81ee-45e8ed4e123a,A
2019-07-16 04:52:43,deba1d74-39b7-4e76-81ee-45e8ed4e123a,S
2019-07-16 04:57:39,deba1d74-39b7-4e76-81ee-45e8ed4e123a,A
2019-07-16 05:00:31,deba1d74-39b7-4e76-81ee-45e8ed4e123a,S
2019-07-16 05:04:20,deba1d74-39b7-4e76-81ee-45e8ed4e123a,A
2019-07-16 05:06:41,deba1d74-39b7-4e76-81ee-45e8ed4e123a,S
2019-07-16 05:10:27,deba1d74-39b7-4e76-81ee-45e8ed4e123a,A
2019-07-16 04:09:50,c62ad9c7-955e-4fac-889d-8055e1c9ff91,S
2019-07-16 04:12:09,c62ad9c7-955e-4fac-889d-8055e1c9ff91,A
2019-07-16 04:18:40,c62ad9c7-955e-4fac-889d-8055e1c9ff91,S
2019-07-16 04:19:38,c62ad9c7-955e-4fac-889d-8055e1c9ff91,A
2019-07-16 04:19:59,c62ad9c7-955e-4fac-889d-8055e1c9ff91,S
2019-07-16 04:25:09,c62ad9c7-955e-4fac-889d-8055e1c9ff91,A
2019-07-16 04:30:02,c62ad9c7-955e-4fac-889d-8055e1c9ff91,S
2019-07-16 04:34:42,c62ad9c7-955e-4fac-889d-8055e1c9ff91,A
2019-07-16 04:47:42,c62ad9c7-955e-4fac-889d-8055e1c9ff91,S
2019-07-16 05:05:11,c62ad9c7-955e-4fac-889d-8055e1c9ff91,A
2019-07-16 05:09:54,c62ad9c7-955e-4fac-889d-8055e1c9ff91,S
2019-07-16 05:12:03,c62ad9c7-955e-4fac-889d-8055e1c9ff91,A
2019-07-16 05:13:17,c62ad9c7-955e-4fac-889d-8055e1c9ff91,S
2019-07-16 05:14:39,c62ad9c7-955e-4fac-889d-8055e1c9ff91,A
2019-07-16 05:15:22,c62ad9c7-955e-4fac-889d-8055e1c9ff91,S
2019-07-16 05:15:55,c62ad9c7-955e-4fac-889d-8055e1c9ff91,A
2019-07-16 05:17:00,c62ad9c7-955e-4fac-889d-8055e1c9ff91,S
2019-07-16 05:23:41,c62ad9c7-955e-4fac-889d-8055e1c9ff91,A
2019-07-16 05:24:00,c62ad9c7-955e-4fac-889d-8055e1c9ff91,S
2019-07-16 05:24:48,c62ad9c7-955e-4fac-889d-8055e1c9ff91,A
2019-07-16 05:24:49,c62ad9c7-955e-4fac-889d-8055e1c9ff91,S
2019-07-16 03:48:20,a7b0b622-e9a8-49c7-9474-cdd0de9e7933,S
2019-07-16 03:53:35,a7b0b622-e9a8-49c7-9474-cdd0de9e7933,A
2019-07-16 04:00:19,a7b0b622-e9a8-49c7-9474-cdd0de9e7933,S
2019-07-16 04:05:18,a7b0b622-e9a8-49c7-9474-cdd0de9e7933,A
2019-07-16 04:06:14,a7b0b622-e9a8-49c7-9474-cdd0de9e7933,S
2019-07-16 04:13:01,a7b0b622-e9a8-49c7-9474-cdd0de9e7933,A
2019-07-16 04:15:17,a7b0b622-e9a8-49c7-9474-cdd0de9e7933,S
2019-07-16 04:21:23,a7b0b622-e9a8-49c7-9474-cdd0de9e7933,A
2019-07-16 04:21:25,a7b0b622-e9a8-49c7-9474-cdd0de9e7933,S
2019-07-16 04:22:09,a7b0b622-e9a8-49c7-9474-cdd0de9e7933,A
2019-07-16 04:26:02,a7b0b622-e9a8-49c7-9474-cdd0de9e7933,S
2019-07-16 04:31:38,a7b0b622-e9a8-49c7-9474-cdd0de9e7933,A
2019-07-16 04:33:39,a7b0b622-e9a8-49c7-9474-cdd0de9e7933,S
2019-07-16 04:36:53,a7b0b622-e9a8-49c7-9474-cdd0de9e7933,A
2019-07-16 04:39:44,a7b0b622-e9a8-49c7-9474-cdd0de9e7933,S
2019-07-16 04:42:58,a7b0b622-e9a8-49c7-9474-cdd0de9e7933,A
2019-07-16 04:52:00,a7b0b622-e9a8-49c7-9474-cdd0de9e7933,S
2019-07-16 04:55:33,a7b0b622-e9a8-49c7-9474-cdd0de9e7933,A
2019-07-16 04:56:32,a7b0b622-e9a8-49c7-9474-cdd0de9e7933,S
2019-07-16 04:59:59,a7b0b622-e9a8-49c7-9474-cdd0de9e7933,A
2019-07-16 05:01:57,a7b0b622-e9a8-49c7-9474-cdd0de9e7933,S
2019-07-16 05:02:39,a7b0b622-e9a8-49c7-9474-cdd0de9e7933,A
2019-07-16 05:09:47,a7b0b622-e9a8-49c7-9474-cdd0de9e7933,S
2019-07-16 05:12:11,a7b0b622-e9a8-49c7-9474-cdd0de9e7933,A
2019-07-16 05:26:03,a7b0b622-e9a8-49c7-9474-cdd0de9e7933,S
2019-07-16 05:29:02,a7b0b622-e9a8-49c7-9474-cdd0de9e7933,A
2019-07-16 03:55:08,06f51519-6b57-4aef-9939-336c7031e737,A
2019-07-16 03:58:37,06f51519-6b57-4aef-9939-336c7031e737,S
2019-07-16 04:00:53,06f51519-6b57-4aef-9939-336c7031e737,A
2019-07-16 04:02:55,06f51519-6b57-4aef-9939-336c7031e737,S
2019-07-16 04:03:29,06f51519-6b57-4aef-9939-336c7031e737,A
2019-07-16 04:06:04,06f51519-6b57-4aef-9939-336c7031e737,S
2019-07-16 04:12:56,06f51519-6b57-4aef-9939-336c7031e737,A
2019-07-16 04:14:24,06f51519-6b57-4aef-9939-336c7031e737,S
2019-07-16 04:24:39,06f51519-6b57-4aef-9939-336c7031e737,A
2019-07-16 05:03:44,06f51519-6b57-4aef-9939-336c7031e737,S
2019-07-16 05:13:39,06f51519-6b57-4aef-9939-336c7031e737,A
2019-07-16 05:13:42,06f51519-6b57-4aef-9939-336c7031e737,S
2019-07-16 05:14:25,06f51519-6b57-4aef-9939-336c7031e737,A
2019-07-16 05:17:28,06f51519-6b57-4aef-9939-336c7031e737,S
2019-07-16 05:18:50,06f51519-6b57-4aef-9939-336c7031e737,A
2019-07-16 05:20:11,06f51519-6b57-4aef-9939-336c7031e737,S
2019-07-16 05:24:20,06f51519-6b57-4aef-9939-336c7031e737,A
2019-07-16 05:25:54,06f51519-6b57-4aef-9939-336c7031e737,S
2019-07-16 05:26:00,06f51519-6b57-4aef-9939-336c7031e737,A
2019-07-16 03:35:04,85f79add-16a8-4bef-a170-b21322f8ab53,A
2019-07-16 03:41:07,85f79add-16a8-4bef-a170-b21322f8ab53,S
2019-07-16 03:43:55,85f79add-16a8-4bef-a170-b21322f8ab53,A
2019-07-16 03:44:34,85f79add-16a8-4bef-a170-b21322f8ab53,S
2019-07-16 03:45:19,85f79add-16a8-4bef-a170-b21322f8ab53,A
2019-07-16 03:54:34,85f79add-16a8-4bef-a170-b21322f8ab53,S
2019-07-16 03:55:00,85f79add-16a8-4bef-a170-b21322f8ab53,A
2019-07-16 03:55:50,85f79add-16a8-4bef-a170-b21322f8ab53,S
2019-07-16 04:00:44,85f79add-16a8-4bef-a170-b21322f8ab53,A
2019-07-16 04:05:43,85f79add-16a8-4bef-a170-b21322f8ab53,S
2019-07-16 04:05:55,85f79add-16a8-4bef-a170-b21322f8ab53,A
2019-07-16 04:06:40,85f79add-16a8-4bef-a170-b21322f8ab53,S
2019-07-16 04:09:00,85f79add-16a8-4bef-a170-b21322f8ab53,A
2019-07-16 04:12:00,85f79add-16a8-4bef-a170-b21322f8ab53,S
2019-07-16 04:13:16,85f79add-16a8-4bef-a170-b21322f8ab53,A
2019-07-16 04:13:20,85f79add-16a8-4bef-a170-b21322f8ab53,S
2019-07-16 04:21:26,85f79add-16a8-4bef-a170-b21322f8ab53,A
2019-07-16 04:24:43,85f79add-16a8-4bef-a170-b21322f8ab53,S
2019-07-16 04:26:36,85f79add-16a8-4bef-a170-b21322f8ab53,A
2019-07-16 04:33:58,85f79add-16a8-4bef-a170-b21322f8ab53,S
2019-07-16 04:44:12,85f79add-16a8-4bef-a170-b21322f8ab53,A
2019-07-16 04:59:40,85f79add-16a8-4bef-a170-b21322f8ab53,S
2019-07-16 05:02:02,85f79add-16a8-4bef-a170-b21322f8ab53,A
2019-07-16 05:02:14,85f79add-16a8-4bef-a170-b21322f8ab53,S
2019-07-16 05:10:19,85f79add-16a8-4bef-a170-b21322f8ab53,A
2019-07-16 05:10:42,85f79add-16a8-4bef-a170-b21322f8ab53,S
2019-07-16 05:19:02,85f79add-16a8-4bef-a170-b21322f8ab53,A
2019-07-16 05:27:28,85f79add-16a8-4bef-a170-b21322f8ab53,S
2019-07-16 03:31:06,9ea8c810-5caa-4a04-8d6c-61ce10ba7ef6,S
2019-07-16 03:35:12,9ea8c810-5caa-4a04-8d6c-61ce10ba7ef6,A
2019-07-16 03:45:36,9ea8c810-5caa-4a04-8d6c-61ce10ba7ef6,S
2019-07-16 03:47:10,9ea8c810-5caa-4a04-8d6c-61ce10ba7ef6,A
2019-07-16 03:54:40,9ea8c810-5caa-4a04-8d6c-61ce10ba7ef6,S
2019-07-16 03:54:55,9ea8c810-5caa-4a04-8d6c-61ce10ba7ef6,A
2019-07-16 03:56:21,9ea8c810-5caa-4a04-8d6c-61ce10ba7ef6,S
2019-07-16 04:13:37,9ea8c810-5caa-4a04-8d6c-61ce10ba7ef6,A
2019-07-16 04:19:23,9ea8c810-5caa-4a04-8d6c-61ce10ba7ef6,S
2019-07-16 04:22:58,9ea8c810-5caa-4a04-8d6c-61ce10ba7ef6,A
2019-07-16 04:26:10,9ea8c810-5caa-4a04-8d6c-61ce10ba7ef6,S
2019-07-16 04:26:26,9ea8c810-5caa-4a04-8d6c-61ce10ba7ef6,A
2019-07-16 04:45:02,9ea8c810-5caa-4a04-8d6c-61ce10ba7ef6,S
2019-07-16 04:45:27,9ea8c810-5caa-4a04-8d6c-61ce10ba7ef6,A
2019-07-16 04:48:18,9ea8c810-5caa-4a04-8d6c-61ce10ba7ef6,S
2019-07-16 05:01:51,9ea8c810-5caa-4a04-8d6c-61ce10ba7ef6,A
2019-07-16 05:05:09,9ea8c810-5caa-4a04-8d6c-61ce10ba7ef6,S
2019-07-16 05:07:36,9ea8c810-5caa-4a04-8d6c-61ce10ba7ef6,A
2019-07-16 05:08:14,9ea8c810-5caa-4a04-8d6c-61ce10ba7ef6,S
2019-07-16 05:13:27,9ea8c810-5caa-4a04-8d6c-61ce10ba7ef6,A
2019-07-16 05:18:08,9ea8c810-5caa-4a04-8d6c-61ce10ba7ef6,S
2019-07-16 05:22:04,9ea8c810-5caa-4a04-8d6c-61ce10ba7ef6,A
2019-07-16 05:23:56,9ea8c810-5caa-4a04-8d6c-61ce10ba7ef6,S
2019-07-16 05:24:54,9ea8c810-5caa-4a04-8d6c-61ce10ba7ef6,A
2019-07-16 03:34:31,34366ef6-c7eb-4aaa-8a46-0cdf4d40d4c7,A
2019-07-16 03:37:22,34366ef6-c7eb-4aaa-8a46-0cdf4d40d4c7,S
2019-07-16 03:42:29,34366ef6-c7eb-4aaa-8a46-0cdf4d40d4c7,A
2019-07-16 03:57:56,34366ef6-c7eb-4aaa-8a46-0cdf4d40d4c7,S
2019-07-16 04:06:59,34366ef6-c7eb-4aaa-8a46-0cdf4d40d4c7,A
