date,trigger,state
2019-10-02 22:49:13,16437def-c398-43b5-a993-393653d20843,A
2019-10-02 22:46:27,3994d8d2-ff47-466e-ac27-b0367980a9c0,S
2019-10-02 22:47:19,3994d8d2-ff47-466e-ac27-b0367980a9c0,A
2019-10-02 22:50:23,3994d8d2-ff47-466e-ac27-b0367980a9c0,S
2019-10-02 23:00:20,3994d8d2-ff47-466e-ac27-b0367980a9c0,A
2019-10-02 23:02:57,3994d8d2-ff47-466e-ac27-b0367980a9c0,S
2019-10-02 23:09:20,3994d8d2-ff47-466e-ac27-b0367980a9c0,A
2019-10-02 23:14:23,3994d8d2-ff47-466e-ac27-b0367980a9c0,S
2019-10-02 23:15:15,3994d8d2-ff47-466e-ac27-b0367980a9c0,A
2019-10-02 23:25:51,3994d8d2-ff47-466e-ac27-b0367980a9c0,S
2019-10-02 23:29:21,3994d8d2-ff47-466e-ac27-b0367980a9c0,A
2019-10-02 23:29:40,3994d8d2-ff47-466e-ac27-b0367980a9c0,S
2019-10-02 23:29:55,3994d8d2-ff47-466e-ac27-b0367980a9c0,A
2019-10-02 23:35:35,3994d8d2-ff47-466e-ac27-b0367980a9c0,S
2019-10-02 23:43:21,3994d8d2-ff47-466e-ac27-b0367980a9c0,A
2019-10-02 23:48:28,3994d8d2-ff47-466e-ac27-b0367980a9c0,S
2019-10-03 00:04:35,3994d8d2-ff47-466e-ac27-b0367980a9c0,A
2019-10-03 00:05:48,3994d8d2-ff47-466e-ac27-b0367980a9c0,S
2019-10-03 00:10:36,3994d8d2-ff47-466e-ac27-b0367980a9c0,A
2019-10-02 22:37:02,208e9f53-cd39-4aa0-afa1-5a911860ecc8,A
2019-10-02 22:46:59,208e9f53-cd39-4aa0-afa1-5a911860ecc8,S
2019-10-02 22:48:20,208e9f53-cd39-4aa0-afa1-5a911860ecc8,A
2019-10-02 22:53:05,208e9f53-cd39-4aa0-afa1-5a911860ecc8,S
2019-10-02 23:05:35,208e9f53-cd39-4aa0-afa1-5a911860ecc8,A
2019-10-02 23:08:34,208e9f53-cd39-4aa0-afa1-5a911860ecc8,S
2019-10-02 23:14:48,208e9f53-cd39-4aa0-afa1-5a911860ecc8,A
2019-10-02 23:18:22,208e9f53-cd39-4aa0-afa1-5a911860ecc8,S
2019-10-02 23:23:57,208e9f53-cd39-4aa0-afa1-5a911860ecc8,A
2019-10-02 23:26:17,208e9f53-cd39-4aa0-afa1-5a911860ecc8,S
2019-10-02 23:32:29,208e9f53-cd39-4aa0-afa1-5a911860ecc8,A
2019-10-02 23:35:48,208e9f53-cd39-4aa0-afa1-5a911860ecc8,S
2019-10-02 23:36:34,208e9f53-cd39-4aa0-afa1-5a911860ecc8,A
2019-10-02 23:44:44,208e9f53-cd39-4aa0-afa1-5a911860ecc8,S
2019-10-02 23:44:46,208e9f53-cd39-4aa0-afa1-5a911860ecc8,A
2019-10-02 23:46:19,208e9f53-cd39-4aa0-afa1-5a911860ecc8,S
2019-10-02 23:47:08,208e9f53-cd39-4aa0-afa1-5a911860ecc8,A
2019-10-02 23:47:14,208e9f53-cd39-4aa0-afa1-5a911860ecc8,S
2019-10-02 23:47:20,208e9f53-cd39-4aa0-afa1-5a911860ecc8,A
2019-10-02 23:47:44,208e9f53-cd39-4aa0-afa1-5a911860ecc8,S
2019-10-02 23:52:29,208e9f53-cd39-4aa0-afa1-5a911860ecc8,A
2019-10-02 23:56:37,208e9f53-cd39-4aa0-afa1-5a911860ecc8,S
2019-10-02 23:58:25,208e9f53-cd39-4aa0-afa1-5a911860ecc8,A
2019-10-03 00:00:39,208e9f53-cd39-4aa0-afa1-5a911860ecc8,S
2019-10-02 22:53:30,b9752d04-3898-46e3-b677-5c269bce6f15,S
2019-10-02 23:01:54,b9752d04-3898-46e3-b677-5c269bce6f15,A
2019-10-02 23:02:03,b9752d04-3898-46e3-b677-5c269bce6f15,S
2019-10-02 23:05:02,b9752d04-3898-46e3-b677-5c269bce6f15,A
2019-10-02 23:06:52,b9752d04-3898-46e3-b677-5c269bce6f15,S
2019-10-02 23:07:21,b9752d04-3898-46e3-b677-5c269bce6f15,A
2019-10-02 23:18:43,b9752d04-3898-46e3-b677-5c269bce6f15,S
2019-10-02 23:25:30,b9752d04-3898-46e3-b677-5c269bce6f15,A
2019-10-02 23:48:55,b9752d04-3898-46e3-b677-5c269bce6f15,S
2019-10-02 23:59:09,b9752d04-3898-46e3-b677-5c269bce6f15,A
2019-10-03 00:07:17,b9752d04-3898-46e3-b677-5c269bce6f15,S
2019-10-03 00:08:11,b9752d04-3898-46e3-b677-5c269bce6f15,A
2019-10-02 22:34:46,e62cb2ac-7d37-4a37-a687-b1344e93d945,S
2019-10-02 22:42:37,e62cb2ac-7d37-4a37-a687-b1344e93d945,A
2019-10-02 22:59:03,e62cb2ac-7d37-4a37-a687-b1344e93d945,S
2019-10-02 23:24:47,e62cb2ac-7d37-4a37-a687-b1344e93d945,A
2019-10-02 23:34:23,e62cb2ac-7d37-4a37-a687-b1344e93d945,S
2019-10-02 23:34:30,e62cb2ac-7d37-4a37-a687-b1344e93d945,A
2019-10-02 23:47:03,e62cb2ac-7d37-4a37-a687-b1344e93d945,S
2019-10-02 23:50:06,e62cb2ac-7d37-4a37-a687-b1344e93d945,A
2019-10-02 23:57:11,e62cb2ac-7d37-4a37-a687-b1344e93d945,S
2019-10-03 00:02:09,e62cb2ac-7d37-4a37-a687-b1344e93d945,A
2019-10-03 00:02:40,e62cb2ac-7d37-4a37-a687-b1344e93d945,S
2019-10-03 00:10:06,e62cb2ac-7d37-4a37-a687-b1344e93d945,A
2019-10-03 00:11:03,e62cb2ac-7d37-4a37-a687-b1344e93d945,S
2019-10-02 22:47:14,87e7224a-d61b-4b86-a642-1771c2245463,A
2019-10-02 22:52:37,87e7224a-d61b-4b86-a642-1771c2245463,S
2019-10-02 23:02:06,87e7224a-d61b-4b86-a642-1771c2245463,A
2019-10-02 23:05:33,87e7224a-d61b-4b86-a642-1771c2245463,S
2019-10-02 23:09:06,87e7224a-d61b-4b86-a642-1771c2245463,A
2019-10-02 23:20:11,87e7224a-d61b-4b86-a642-1771c2245463,S
2019-10-02 23:26:38,87e7224a-d61b-4b86-a642-1771c2245463,A
2019-10-02 23:37:28,87e7224a-d61b-4b86-a642-1771c2245463,S
2019-10-02 23:39:21,87e7224a-d61b-4b86-a642-1771c2245463,A
2019-10-02 23:39:39,87e7224a-d61b-4b86-a642-1771c2245463,S
2019-10-02 23:54:58,87e7224a-d61b-4b86-a642-1771c2245463,A
2019-10-02 23:56:36,87e7224a-d61b-4b86-a642-1771c2245463,S
2019-10-03 00:00:40,87e7224a-d61b-4b86-a642-1771c2245463,A
2019-10-03 00:02:25,87e7224a-d61b-4b86-a642-1771c2245463,S
2019-10-03 00:07:25,87e7224a-d61b-4b86-a642-1771c2245463,A
2019-10-02 22:35:01,2b2cce9f-3ee5-4ef1-85ca-6f36c13ab011,A
2019-10-02 22:36:30,2b2cce9f-3ee5-4ef1-85ca-6f36c13ab011,S
2019-10-02 22:39:57,2b2cce9f-3ee5-4ef1-85ca-6f36c13ab011,A
2019-10-02 22:41:11,2b2cce9f-3ee5-4ef1-85ca-6f36c13ab011,S
2019-10-02 22:43:39,2b2cce9f-3ee5-4ef1-85ca-6f36c13ab011,A
2019-10-02 22:48:50,2b2cce9f-3ee5-4ef1-85ca-6f36c13ab011,S
2019-10-02 22:54:43,2b2cce9f-3ee5-4ef1-85ca-6f36c13ab011,A
2019-10-02 23:08:04,2b2cce9f-3ee5-4ef1-85ca-6f36c13ab011,S
2019-10-02 23:12:42,2b2cce9f-3ee5-4ef1-85ca-6f36c13ab011,A
2019-10-02 23:15:11,2b2cce9f-3ee5-4ef1-85ca-6f36c13ab011,S
2019-10-02 23:24:26,2b2cce9f-3ee5-4ef1-85ca-6f36c13ab011,A
2019-10-02 23:25:23,2b2cce9f-3ee5-4ef1-85ca-6f36c13ab011,S
2019-10-02 23:28:52,2b2cce9f-3ee5-4ef1-85ca-6f36c13ab011,A
2019-10-02 23:30:31,2b2cce9f-3ee5-4ef1-85ca-6f36c13ab011,S
2019-10-02 23:36:05,2b2cce9f-3ee5-4ef1-85ca-6f36c13ab011,A
2019-10-02 23:41:15,2b2cce9f-3ee5-4ef1-85ca-6f36c13ab011,S
2019-10-02 23:44:08,2b2cce9f-3ee5-4ef1-85ca-6f36c13ab011,A
2019-10-02 23:58:43,2b2cce9f-3ee5-4ef1-85ca-6f36c13ab011,S
2019-10-03 00:02:09,2b2cce9f-3ee5-4ef1-85ca-6f36c13ab011,A
2019-10-03 00:07:14,2b2cce9f-3ee5-4ef1-85ca-6f36c13ab011,S
2019-10-03 00:09:05,2b2cce9f-3ee5-4ef1-85ca-6f36c13ab011,A
2019-10-02 22:35:36,625e94e1-288a-438f-9917-d170505fd481,A
2019-10-02 22:42:16,625e94e1-288a-438f-9917-d170505fd481,S
2019-10-02 22:48:35,625e94e1-288a-438f-9917-d170505fd481,A
2019-10-02 22:51:15,625e94e1-288a-438f-9917-d170505fd481,S
2019-10-02 23:00:41,625e94e1-288a-438f-9917-d170505fd481,A
2019-10-02 23:06:43,625e94e1-288a-438f-9917-d170505fd481,S
2019-10-02 23:10:59,625e94e1-288a-438f-9917-d170505fd481,A
2019-10-02 23:16:44,625e94e1-288a-438f-9917-d170505fd481,S
2019-10-02 23:18:18,625e94e1-288a-438f-9917-d170505fd481,A
2019-10-02 23:19:55,625e94e1-288a-438f-9917-d170505fd481,S
2019-10-02 23:22:57,625e94e1-288a-438f-9917-d170505fd481,A
2019-10-02 23:27:45,625e94e1-288a-438f-9917-d170505fd481,S
2019-10-02 23:28:50,625e94e1-288a-438f-9917-d170505fd481,A
2019-10-02 23:32:07,625e94e1-288a-438f-9917-d170505fd481,S
2019-10-02 23:34:06,625e94e1-288a-438f-9917-d170505fd481,A
2019-10-02 23:35:10,625e94e1-288a-438f-9917-d170505fd481,S
2019-10-02 23:42:56,625e94e1-288a-438f-9917-d170505fd481,A
2019-10-02 23:50:59,625e94e1-288a-438f-9917-d170505fd481,S
2019-10-02 23:55:44,625e94e1-288a-438f-9917-d170505fd481,A
2019-10-03 00:00:41,625e94e1-288a-438f-9917-d170505fd481,S
2019-10-03 00:02:43,625e94e1-288a-438f-9917-d170505fd481,A
2019-10-02 23:08:15,bf8c574c-c74d-4077-a687-40c69affa6f6,A
2019-10-02 23:18:26,bf8c574c-c74d-4077-a687-40c69affa6f6,S
2019-10-02 23:23:36,bf8c574c-c74d-4077-a687-40c69affa6f6,A
2019-10-02 23:29:23,bf8c574c-c74d-4077-a687-40c69affa6f6,S
2019-10-02 23:38:16,bf8c574c-c74d-4077-a687-40c69affa6f6,A
2019-10-02 23:47:10,bf8c574c-c74d-4077-a687-40c69affa6f6,S
2019-10-03 00:04:28,bf8c574c-c74d-4077-a687-40c69affa6f6,A
2019-10-03 00:08:29,bf8c574c-c74d-4077-a687-40c69affa6f6,S
2019-10-03 00:10:12,bf8c574c-c74d-4077-a687-40c69affa6f6,A
2019-10-02 22:33:43,83bc1757-487a-4a4f-8037-dbe7e4edd4cb,A
2019-10-02 22:47:21,9bb2f9d9-a967-4e97-944a-950256c9ab68,S
2019-10-02 23:08:30,9bb2f9d9-a967-4e97-944a-950256c9ab68,A
2019-10-02 23:17:05,9bb2f9d9-a967-4e97-944a-950256c9ab68,S
2019-10-02 23:40:21,9bb2f9d9-a967-4e97-944a-950256c9ab68,A
2019-10-02 23:40:31,9bb2f9d9-a967-4e97-944a-950256c9ab68,S
2019-10-02 23:43:42,9bb2f9d9-a967-4e97-944a-950256c9ab68,A
2019-10-02 23:53:31,9bb2f9d9-a967-4e97-944a-950256c9ab68,S
2019-10-02 23:59:24,9bb2f9d9-a967-4e97-944a-950256c9ab68,A
2019-10-03 00:00:36,9bb2f9d9-a967-4e97-944a-950256c9ab68,S
2019-10-03 00:07:01,9bb2f9d9-a967-4e97-944a-950256c9ab68,A
2019-10-03 00:11:04,9bb2f9d9-a967-4e97-944a-950256c9ab68,S
2019-10-02 22:38:59,1fe1b8dc-5ce0-4b9a-a62f-b250a7cb21d4,A
2019-10-02 22:39:34,1fe1b8dc-5ce0-4b9a-a62f-b250a7cb21d4,S
2019-10-02 22:49:11,1fe1b8dc-5ce0-4b9a-a62f-b250a7cb21d4,A
2019-10-02 22:59:58,1fe1b8dc-5ce0-4b9a-a62f-b250a7cb21d4,S
2019-10-02 23:06:25,1fe1b8dc-5ce0-4b9a-a62f-b250a7cb21d4,A
2019-10-02 23:07:33,1fe1b8dc-5ce0-4b9a-a62f-b250a7cb21d4,S
2019-10-02 23:19:46,1fe1b8dc-5ce0-4b9a-a62f-b250a7cb21d4,A
2019-10-02 23:21:41,1fe1b8dc-5ce0-4b9a-a62f-b250a7cb21d4,S
2019-10-02 23:30:22,1fe1b8dc-5ce0-4b9a-a62f-b250a7cb21d4,A
2019-10-02 23:32:54,1fe1b8dc-5ce0-4b9a-a62f-b250a7cb21d4,S
2019-10-02 23:33:08,1fe1b8dc-5ce0-4b9a-a62f-b250a7cb21d4,A
2019-10-02 23:34:40,1fe1b8dc-5ce0-4b9a-a62f-b250a7cb21d4,S
2019-10-02 23:42:49,1fe1b8dc-5ce0-4b9a-a62f-b250a7cb21d4,A
2019-10-02 23:46:38,1fe1b8dc-5ce0-4b9a-a62f-b250a7cb21d4,S
2019-10-02 23:50:01,1fe1b8dc-5ce0-4b9a-a62f-b250a7cb21d4,A
2019-10-02 23:53:29,1fe1b8dc-5ce0-4b9a-a62f-b250a7cb21d4,S
2019-10-02 23:59:31,1fe1b8dc-5ce0-4b9a-a62f-b250a7cb21d4,A
2019-10-03 00:09:28,1fe1b8dc-5ce0-4b9a-a62f-b250a7cb21d4,S
2019-10-02 22:51:15,741ceeea-d7fe-40f3-a002-b4727721f1cf,S
2019-10-02 22:54:45,741ceeea-d7fe-40f3-a002-b4727721f1cf,A
2019-10-02 22:56:11,741ceeea-d7fe-40f3-a002-b4727721f1cf,S
2019-10-02 23:10:21,741ceeea-d7fe-40f3-a002-b4727721f1cf,A
2019-10-02 23:16:03,741ceeea-d7fe-40f3-a002-b4727721f1cf,S
2019-10-02 23:34:23,741ceeea-d7fe-40f3-a002-b4727721f1cf,A
2019-10-02 23:35:17,741ceeea-d7fe-40f3-a002-b4727721f1cf,S
2019-10-02 23:43:10,741ceeea-d7fe-40f3-a002-b4727721f1cf,A
2019-10-02 23:56:44,741ceeea-d7fe-40f3-a002-b4727721f1cf,S
2019-10-02 23:57:33,741ceeea-d7fe-40f3-a002-b4727721f1cf,A
2019-10-03 00:00:13,741ceeea-d7fe-40f3-a002-b4727721f1cf,S
2019-10-02 22:45:18,5c2e848b-4786-4b3d-bdfc-c6875a5bd75b,A
2019-10-02 22:46:33,5c2e848b-4786-4b3d-bdfc-c6875a5bd75b,S
2019-10-02 22:57:49,5c2e848b-4786-4b3d-bdfc-c6875a5bd75b,A
2019-10-02 23:08:06,5c2e848b-4786-4b3d-bdfc-c6875a5bd75b,S
2019-10-02 23:10:19,5c2e848b-4786-4b3d-bdfc-c6875a5bd75b,A
2019-10-02 23:14:51,5c2e848b-4786-4b3d-bdfc-c6875a5bd75b,S
2019-10-02 23:15:22,5c2e848b-4786-4b3d-bdfc-c6875a5bd75b,A
2019-10-02 23:22:34,5c2e848b-4786-4b3d-bdfc-c6875a5bd75b,S
2019-10-02 23:23:24,5c2e848b-4786-4b3d-bdfc-c6875a5bd75b,A
2019-10-02 23:28:46,5c2e848b-4786-4b3d-bdfc-c6875a5bd75b,S
2019-10-02 23:31:11,5c2e848b-4786-4b3d-bdfc-c6875a5bd75b,A
2019-10-02 23:31:55,5c2e848b-4786-4b3d-bdfc-c6875a5bd75b,S
2019-10-02 23:32:07,5c2e848b-4786-4b3d-bdfc-c6875a5bd75b,A
2019-10-02 23:34:01,5c2e848b-4786-4b3d-bdfc-c6875a5bd75b,S
2019-10-02 23:41:42,5c2e848b-4786-4b3d-bdfc-c6875a5bd75b,A
2019-10-02 23:49:31,5c2e848b-4786-4b3d-bdfc-c6875a5bd75b,S
2019-10-02 23:51:02,5c2e848b-4786-4b3d-bdfc-c6875a5bd75b,A
2019-10-02 23:53:40,5c2e848b-4786-4b3d-bdfc-c6875a5bd75b,S
2019-10-02 23:58:21,5c2e848b-4786-4b3d-bdfc-c6875a5bd75b,A
2019-10-03 00:13:02,5c2e848b-4786-4b3d-bdfc-c6875a5bd75b,S
2019-10-02 22:42:23,423f5f5e-47bb-4b9d-bd0f-8abd6fa22edf,S
2019-10-02 22:46:32,423f5f5e-47bb-4b9d-bd0f-8abd6fa22edf,A
2019-10-02 23:04:27,423f5f5e-47bb-4b9d-bd0f-8abd6fa22edf,S
2019-10-02 23:06:21,423f5f5e-47bb-4b9d-bd0f-8abd6fa22edf,A
2019-10-02 23:12:47,423f5f5e-47bb-4b9d-bd0f-8abd6fa22edf,S
2019-10-02 23:14:15,423f5f5e-47bb-4b9d-bd0f-8abd6fa22edf,A
2019-10-02 23:18:48,423f5f5e-47bb-4b9d-bd0f-8abd6fa22edf,S
2019-10-02 23:19:17,423f5f5e-47bb-4b9d-bd0f-8abd6fa22edf,A
2019-10-02 23:22:13,423f5f5e-47bb-4b9d-bd0f-8abd6fa22edf,S
2019-10-02 23:22:27,423f5f5e-47bb-4b9d-bd0f-8abd6fa22edf,A
2019-10-02 23:24:13,423f5f5e-47bb-4b9d-bd0f-8abd6fa22edf,S
2019-10-02 23:24:45,423f5f5e-47bb-4b9d-bd0f-8abd6fa22edf,A
2019-10-02 23:26:34,423f5f5e-47bb-4b9d-bd0f-8abd6fa22edf,S
2019-10-02 23:31:31,423f5f5e-47bb-4b9d-bd0f-8abd6fa22edf,A
2019-10-02 23:32:51,423f5f5e-47bb-4b9d-bd0f-8abd6fa22edf,S
2019-10-02 23:36:57,423f5f5e-47bb-4b9d-bd0f-8abd6fa22edf,A
2019-10-02 23:47:21,423f5f5e-47bb-4b9d-bd0f-8abd6fa22edf,S
2019-10-02 23:48:55,423f5f5e-47bb-4b9d-bd0f-8abd6fa22edf,A
2019-10-02 23:56:25,423f5f5e-47bb-4b9d-bd0f-8abd6fa22edf,S
2019-10-02 23:56:41,423f5f5e-47bb-4b9d-bd0f-8abd6fa22edf,A
2019-10-02 23:58:05,423f5f5e-47bb-4b9d-bd0f-8abd6fa22edf,S
2019-10-02 22:39:42,1155f9d7-f935-4e6d-ab03-733d181ae529,S
2019-10-02 22:49:26,1155f9d7-f935-4e6d-ab03-733d181ae529,A
2019-10-02 22:50:51,1155f9d7-f935-4e6d-ab03-733d181ae529,S
2019-10-02 22:59:05,1155f9d7-f935-4e6d-ab03-733d181ae529,A
2019-10-02 22:59:57,1155f9d7-f935-4e6d-ab03-733d181ae529,S
2019-10-02 23:00:38,1155f9d7-f935-4e6d-ab03-733d181ae529,A
2019-10-02 22:44:15,9e9c19ab-a1dd-4d17-b713-7bae18db5ef7,S
2019-10-02 22:44:51,9e9c19ab-a1dd-4d17-b713-7bae18db5ef7,A
2019-10-02 22:47:27,9e9c19ab-a1dd-4d17-b713-7bae18db5ef7,S
2019-10-02 22:52:36,9e9c19ab-a1dd-4d17-b713-7bae18db5ef7,A
2019-10-02 23:16:31,9e9c19ab-a1dd-4d17-b713-7bae18db5ef7,S
2019-10-02 23:20:32,9e9c19ab-a1dd-4d17-b713-7bae18db5ef7,A
2019-10-02 23:21:01,9e9c19ab-a1dd-4d17-b713-7bae18db5ef7,S
2019-10-02 23:28:40,9e9c19ab-a1dd-4d17-b713-7bae18db5ef7,A
2019-10-02 23:29:33,9e9c19ab-a1dd-4d17-b713-7bae18db5ef7,S
2019-10-02 23:32:53,9e9c19ab-a1dd-4d17-b713-7bae18db5ef7,A
2019-10-02 23:43:52,9e9c19ab-a1dd-4d17-b713-7bae18db5ef7,S
2019-10-02 23:44:18,9e9c19ab-a1dd-4d17-b713-7bae18db5ef7,A
2019-10-02 23:53:17,9e9c19ab-a1dd-4d17-b713-7bae18db5ef7,S
2019-10-02 23:55:12,9e9c19ab-a1dd-4d17-b713-7bae18db5ef7,A
2019-10-02 23:59:27,9e9c19ab-a1dd-4d17-b713-7bae18db5ef7,S
2019-10-03 00:05:30,9e9c19ab-a1dd-4d17-b713-7bae18db5ef7,A
2019-10-03 00:08:18,9e9c19ab-a1dd-4d17-b713-7bae18db5ef7,S
2019-10-03 00:08:56,9e9c19ab-a1dd-4d17-b713-7bae18db5ef7,A
2019-10-03 00:09:42,9e9c19ab-a1dd-4d17-b713-7bae18db5ef7,S
2019-10-02 22:57:00,b484198f-8ae0-4aba-b2e7-7b3595685632,A
2019-10-02 23:00:15,b484198f-8ae0-4aba-b2e7-7b3595685632,S
2019-10-02 23:05:19,b484198f-8ae0-4aba-b2e7-7b3595685632,A
2019-10-02 23:13:55,b484198f-8ae0-4aba-b2e7-7b3595685632,S
2019-10-02 23:18:23,b484198f-8ae0-4aba-b2e7-7b3595685632,A
2019-10-02 23:21:30,b484198f-8ae0-4aba-b2e7-7b3595685632,S
2019-10-02 23:22:21,b484198f-8ae0-4aba-b2e7-7b3595685632,A
2019-10-02 23:23:44,b484198f-8ae0-4aba-b2e7-7b3595685632,S
2019-10-02 23:28:58,b484198f-8ae0-4aba-b2e7-7b3595685632,A
2019-10-02 23:34:35,b484198f-8ae0-4aba-b2e7-7b3595685632,S
2019-10-02 23:45:57,b484198f-8ae0-4aba-b2e7-7b3595685632,A
2019-10-02 23:46:01,b484198f-8ae0-4aba-b2e7-7b3595685632,S
2019-10-02 23:53:11,b484198f-8ae0-4aba-b2e7-7b3595685632,A
2019-10-03 00:04:42,b484198f-8ae0-4aba-b2e7-7b3595685632,S
2019-10-03 00:06:18,b484198f-8ae0-4aba-b2e7-7b3595685632,A
2019-10-03 00:09:25,b484198f-8ae0-4aba-b2e7-7b3595685632,S
2019-10-03 00:09:42,b484198f-8ae0-4aba-b2e7-7b3595685632,A
2019-10-02 23:01:52,07c64080-03cb-488c-9450-4daa1377e1af,S
2019-10-02 23:01:53,07c64080-03cb-488c-9450-4daa1377e1af,A
2019-10-02 23:09:49,07c64080-03cb-488c-9450-4daa1377e1af,S
2019-10-02 23:18:19,07c64080-03cb-488c-9450-4daa1377e1af,A
2019-10-02 23:20:03,07c64080-03cb-488c-9450-4daa1377e1af,S
2019-10-02 23:21:28,07c64080-03cb-488c-9450-4daa1377e1af,A
2019-10-02 23:21:29,07c64080-03cb-488c-9450-4daa1377e1af,S
2019-10-02 23:21:38,07c64080-03cb-488c-9450-4daa1377e1af,A
2019-10-02 23:22:10,07c64080-03cb-488c-9450-4daa1377e1af,S
2019-10-02 23:34:18,07c64080-03cb-488c-9450-4daa1377e1af,A
2019-10-02 23:49:54,07c64080-03cb-488c-9450-4daa1377e1af,S
2019-10-02 23:52:29,07c64080-03cb-488c-9450-4daa1377e1af,A
2019-10-03 00:06:09,07c64080-03cb-488c-9450-4daa1377e1af,S
2019-10-03 00:09:37,07c64080-03cb-488c-9450-4daa1377e1af,A
2019-10-03 00:11:53,07c64080-03cb-488c-9450-4daa1377e1af,S
2019-10-03 00:13:55,07c64080-03cb-488c-9450-4daa1377e1af,A
2019-10-02 22:56:38,96890ed6-5122-418b-9e17-dd7a54688382,S
2019-10-02 23:01:02,96890ed6-5122-418b-9e17-dd7a54688382,A
2019-10-02 23:02:00,96890ed6-5122-418b-9e17-dd7a54688382,S
2019-10-02 23:05:16,96890ed6-5122-418b-9e17-dd7a54688382,A
2019-10-02 23:05:39,96890ed6-5122-418b-9e17-dd7a54688382,S
2019-10-02 23:08:37,96890ed6-5122-418b-9e17-dd7a54688382,A
2019-10-02 23:12:37,96890ed6-5122-418b-9e17-dd7a54688382,S
2019-10-02 23:14:51,96890ed6-5122-418b-9e17-dd7a54688382,A
2019-10-02 23:16:57,96890ed6-5122-418b-9e17-dd7a54688382,S
2019-10-02 23:21:08,96890ed6-5122-418b-9e17-dd7a54688382,A
2019-10-02 23:25:45,96890ed6-5122-418b-9e17-dd7a54688382,S
2019-10-02 23:28:50,96890ed6-5122-418b-9e17-dd7a54688382,A
2019-10-02 23:31:00,96890ed6-5122-418b-9e17-dd7a54688382,S
2019-10-02 23:37:02,96890ed6-5122-418b-9e17-dd7a54688382,A
2019-10-02 23:39:33,96890ed6-5122-418b-9e17-dd7a54688382,S
2019-10-02 23:40:17,96890ed6-5122-418b-9e17-dd7a54688382,A
2019-10-02 23:40:20,96890ed6-5122-418b-9e17-dd7a54688382,S
2019-10-02 23:43:11,96890ed6-5122-418b-9e17-dd7a54688382,A
2019-10-02 23:51:27,96890ed6-5122-418b-9e17-dd7a54688382,S
2019-10-02 23:54:12,96890ed6-5122-418b-9e17-dd7a54688382,A
2019-10-02 23:54:15,96890ed6-5122-418b-9e17-dd7a54688382,S
2019-10-03 00:00:21,96890ed6-5122-418b-9e17-dd7a54688382,A
2019-10-03 00:04:43,96890ed6-5122-418b-9e17-dd7a54688382,S
2019-10-03 00:12:04,96890ed6-5122-418b-9e17-dd7a54688382,A
2019-10-03 00:13:14,96890ed6-5122-418b-9e17-dd7a54688382,S
2019-10-02 22:47:54,0be24215-ac30-4478-a383-7c645268ae23,A
2019-10-02 22:49:06,0be24215-ac30-4478-a383-7c645268ae23,S
2019-10-02 22:50:29,0be24215-ac30-4478-a383-7c645268ae23,A
2019-10-02 22:56:57,0be24215-ac30-4478-a383-7c645268ae23,S
2019-10-02 23:00:21,0be24215-ac30-4478-a383-7c645268ae23,A
2019-10-02 23:03:15,0be24215-ac30-4478-a383-7c645268ae23,S
2019-10-02 23:04:22,0be24215-ac30-4478-a383-7c645268ae23,A
2019-10-02 23:06:54,0be24215-ac30-4478-a383-7c645268ae23,S
2019-10-02 23:07:53,0be24215-ac30-4478-a383-7c645268ae23,A
2019-10-02 23:09:58,0be24215-ac30-4478-a383-7c645268ae23,S
2019-10-02 23:11:20,0be24215-ac30-4478-a383-7c645268ae23,A
2019-10-02 23:17:53,0be24215-ac30-4478-a383-7c645268ae23,S
2019-10-02 23:19:20,0be24215-ac30-4478-a383-7c645268ae23,A
2019-10-02 23:20:09,0be24215-ac30-4478-a383-7c645268ae23,S
2019-10-02 23:20:38,0be24215-ac30-4478-a383-7c645268ae23,A
2019-10-02 23:23:29,0be24215-ac30-4478-a383-7c645268ae23,S
2019-10-02 23:28:36,0be24215-ac30-4478-a383-7c645268ae23,A
2019-10-02 23:44:03,0be24215-ac30-4478-a383-7c645268ae23,S
2019-10-02 23:53:06,0be24215-ac30-4478-a383-7c645268ae23,A
2019-10-03 00:02:49,0be24215-ac30-4478-a383-7c645268ae23,S
2019-10-03 00:11:20,0be24215-ac30-4478-a383-7c645268ae23,A
2019-10-03 00:12:06,0be24215-ac30-4478-a383-7c645268ae23,S
2019-10-03 00:12:24,0be24215-ac30-4478-a383-7c645268ae23,A
2019-10-02 22:40:51,214dc709-5fa7-4d59-824d-2cb9940ce3b5,A
2019-10-02 22:42:09,214dc709-5fa7-4d59-824d-2cb9940ce3b5,S
2019-10-02 22:51:12,214dc709-5fa7-4d59-824d-2cb9940ce3b5,A
2019-10-02 22:53:25,214dc709-5fa7-4d59-824d-2cb9940ce3b5,S
2019-10-02 22:54:05,214dc709-5fa7-4d59-824d-2cb9940ce3b5,A
2019-10-02 22:54:13,214dc709-5fa7-4d59-824d-2cb9940ce3b5,S
2019-10-02 22:59:13,214dc709-5fa7-4d59-824d-2cb9940ce3b5,A
2019-10-02 23:02:24,214dc709-5fa7-4d59-824d-2cb9940ce3b5,S
2019-10-02 23:03:51,214dc709-5fa7-4d59-824d-2cb9940ce3b5,A
2019-10-02 23:13:56,214dc709-5fa7-4d59-824d-2cb9940ce3b5,S
2019-10-02 23:15:37,214dc709-5fa7-4d59-824d-2cb9940ce3b5,A
2019-10-02 23:22:30,214dc709-5fa7-4d59-824d-2cb9940ce3b5,S
2019-10-02 23:25:33,214dc709-5fa7-4d59-824d-2cb9940ce3b5,A
2019-10-02 23:32:03,214dc709-5fa7-4d59-824d-2cb9940ce3b5,S
2019-10-02 23:38:52,214dc709-5fa7-4d59-824d-2cb9940ce3b5,A
2019-10-02 23:50:48,214dc709-5fa7-4d59-824d-2cb9940ce3b5,S
2019-10-02 23:51:06,214dc709-5fa7-4d59-824d-2cb9940ce3b5,A
2019-10-03 00:06:30,214dc709-5fa7-4d59-824d-2cb9940ce3b5,S
2019-10-03 00:09:23,214dc709-5fa7-4d59-824d-2cb9940ce3b5,A
2019-10-03 00:11:23,214dc709-5fa7-4d59-824d-2cb9940ce3b5,S
2019-10-02 23:10:54,8a2d48f7-a2b6-4d24-8249-65978f1184bb,A
2019-10-02 23:15:31,8a2d48f7-a2b6-4d24-8249-65978f1184bb,S
2019-10-02 23:35:03,8a2d48f7-a2b6-4d24-8249-65978f1184bb,A
2019-10-02 23:39:34,8a2d48f7-a2b6-4d24-8249-65978f1184bb,S
2019-10-02 23:41:17,8a2d48f7-a2b6-4d24-8249-65978f1184bb,A
2019-10-02 23:45:54,8a2d48f7-a2b6-4d24-8249-65978f1184bb,S
2019-10-02 23:45:59,8a2d48f7-a2b6-4d24-8249-65978f1184bb,A
2019-10-02 23:48:50,8a2d48f7-a2b6-4d24-8249-65978f1184bb,S
2019-10-02 23:50:12,8a2d48f7-a2b6-4d24-8249-65978f1184bb,A
2019-10-02 23:51:17,8a2d48f7-a2b6-4d24-8249-65978f1184bb,S
2019-10-02 23:51:31,8a2d48f7-a2b6-4d24-8249-65978f1184bb,A
2019-10-02 23:55:50,8a2d48f7-a2b6-4d24-8249-65978f1184bb,S
2019-10-03 00:07:42,8a2d48f7-a2b6-4d24-8249-65978f1184bb,A
2019-10-03 00:08:24,8a2d48f7-a2b6-4d24-8249-65978f1184bb,S
2019-10-02 22:35:59,e4aab5d9-2fee-4e28-805f-1520302b52f1,S
2019-10-02 22:36:45,e4aab5d9-2fee-4e28-805f-1520302b52f1,A
2019-10-02 22:40:54,b3396608-6943-4fa5-bd11-6de5f2311fdf,S
2019-10-02 22:42:35,b3396608-6943-4fa5-bd11-6de5f2311fdf,A
2019-10-02 23:04:17,b3396608-6943-4fa5-bd11-6de5f2311fdf,S
2019-10-02 23:05:33,b3396608-6943-4fa5-bd11-6de5f2311fdf,A
2019-10-02 23:06:14,b3396608-6943-4fa5-bd11-6de5f2311fdf,S
2019-10-02 23:06:17,b3396608-6943-4fa5-bd11-6de5f2311fdf,A
2019-10-02 23:11:48,b3396608-6943-4fa5-bd11-6de5f2311fdf,S
2019-10-02 23:15:53,b3396608-6943-4fa5-bd11-6de5f2311fdf,A
2019-10-02 23:26:17,b3396608-6943-4fa5-bd11-6de5f2311fdf,S
2019-10-02 23:29:58,b3396608-6943-4fa5-bd11-6de5f2311fdf,A
2019-10-02 23:32:41,b3396608-6943-4fa5-bd11-6de5f2311fdf,S
2019-10-02 23:34:38,b3396608-6943-4fa5-bd11-6de5f2311fdf,A
2019-10-02 23:37:01,b3396608-6943-4fa5-bd11-6de5f2311fdf,S
2019-10-02 23:43:34,b3396608-6943-4fa5-bd11-6de5f2311fdf,A
2019-10-02 23:47:22,b3396608-6943-4fa5-bd11-6de5f2311fdf,S
2019-10-02 23:53:35,b3396608-6943-4fa5-bd11-6de5f2311fdf,A
2019-10-02 23:57:58,b3396608-6943-4fa5-bd11-6de5f2311fdf,S
2019-10-03 00:08:30,b3396608-6943-4fa5-bd11-6de5f2311fdf,A
2019-10-03 00:08:50,b3396608-6943-4fa5-bd11-6de5f2311fdf,S
2019-10-03 00:14:19,b3396608-6943-4fa5-bd11-6de5f2311fdf,A
2019-10-03 00:14:53,b3396608-6943-4fa5-bd11-6de5f2311fdf,S
