date,trigger,state
2019-11-24 20:34:49,11ffc8b7-287e-4613-920d-4a79442e089e,A
2019-11-24 20:46:19,11ffc8b7-287e-4613-920d-4a79442e089e,S
2019-11-24 20:56:16,11ffc8b7-287e-4613-920d-4a79442e089e,A
2019-11-24 21:01:43,11ffc8b7-287e-4613-920d-4a79442e089e,S
2019-11-24 21:02:26,11ffc8b7-287e-4613-920d-4a79442e089e,A
2019-11-24 21:03:23,11ffc8b7-287e-4613-920d-4a79442e089e,S
2019-11-24 21:05:20,11ffc8b7-287e-4613-920d-4a79442e089e,A
2019-11-24 21:06:41,11ffc8b7-287e-4613-920d-4a79442e089e,S
2019-11-24 21:14:00,11ffc8b7-287e-4613-920d-4a79442e089e,A
2019-11-24 21:15:54,11ffc8b7-287e-4613-920d-4a79442e089e,S
2019-11-24 21:17:37,11ffc8b7-287e-4613-920d-4a79442e089e,A
2019-11-24 21:33:01,11ffc8b7-287e-4613-920d-4a79442e089e,S
2019-11-24 21:38:55,11ffc8b7-287e-4613-920d-4a79442e089e,A
2019-11-24 21:43:28,11ffc8b7-287e-4613-920d-4a79442e089e,S
2019-11-24 21:44:31,11ffc8b7-287e-4613-920d-4a79442e089e,A
2019-11-24 21:46:51,11ffc8b7-287e-4613-920d-4a79442e089e,S
2019-11-24 21:50:31,11ffc8b7-287e-4613-920d-4a79442e089e,A
2019-11-24 21:52:32,11ffc8b7-287e-4613-920d-4a79442e089e,S
2019-11-24 21:52:39,11ffc8b7-287e-4613-920d-4a79442e089e,A
2019-11-24 22:01:46,11ffc8b7-287e-4613-920d-4a79442e089e,S
2019-11-24 20:02:11,66dfadfe-507f-403a-b71b-9c9938b337ed,S
2019-11-24 20:03:17,66dfadfe-507f-403a-b71b-9c9938b337ed,A
2019-11-24 20:04:31,66dfadfe-507f-403a-b71b-9c9938b337ed,S
2019-11-24 20:08:10,66dfadfe-507f-403a-b71b-9c9938b337ed,A
2019-11-24 20:10:54,66dfadfe-507f-403a-b71b-9c9938b337ed,S
2019-11-24 20:16:04,66dfadfe-507f-403a-b71b-9c9938b337ed,A
2019-11-24 20:17:22,66dfadfe-507f-403a-b71b-9c9938b337ed,S
2019-11-24 20:23:21,66dfadfe-507f-403a-b71b-9c9938b337ed,A
2019-11-24 20:34:38,66dfadfe-507f-403a-b71b-9c9938b337ed,S
2019-11-24 20:38:18,66dfadfe-507f-403a-b71b-9c9938b337ed,A
2019-11-24 20:42:50,66dfadfe-507f-403a-b71b-9c9938b337ed,S
2019-11-24 20:54:18,66dfadfe-507f-403a-b71b-9c9938b337ed,A
2019-11-24 21:07:44,66dfadfe-507f-403a-b71b-9c9938b337ed,S
2019-11-24 21:08:42,66dfadfe-507f-403a-b71b-9c9938b337ed,A
2019-11-24 21:10:15,66dfadfe-507f-403a-b71b-9c9938b337ed,S
2019-11-24 21:11:01,66dfadfe-507f-403a-b71b-9c9938b337ed,A
2019-11-24 21:12:10,66dfadfe-507f-403a-b71b-9c9938b337ed,S
2019-11-24 21:20:46,66dfadfe-507f-403a-b71b-9c9938b337ed,A
2019-11-24 21:22:44,66dfadfe-507f-403a-b71b-9c9938b337ed,S
2019-11-24 21:24:33,66dfadfe-507f-403a-b71b-9c9938b337ed,A
2019-11-24 21:29:20,66dfadfe-507f-403a-b71b-9c9938b337ed,S
2019-11-24 21:38:13,66dfadfe-507f-403a-b71b-9c9938b337ed,A
2019-11-24 21:49:06,66dfadfe-507f-403a-b71b-9c9938b337ed,S
2019-11-24 21:53:02,66dfadfe-507f-403a-b71b-9c9938b337ed,A
2019-11-24 21:53:19,66dfadfe-507f-403a-b71b-9c9938b337ed,S
2019-11-24 21:58:58,66dfadfe-507f-403a-b71b-9c9938b337ed,A
2019-11-24 22:05:24,66dfadfe-507f-403a-b71b-9c9938b337ed,S
2019-11-24 22:05:24,66dfadfe-507f-403a-b71b-9c9938b337ed,A
2019-11-24 20:30:46,13bed9c1-46e7-4e0b-ae7e-ad5736f4acba,S
2019-11-24 20:36:02,13bed9c1-46e7-4e0b-ae7e-ad5736f4acba,A
2019-11-24 20:42:46,13bed9c1-46e7-4e0b-ae7e-ad5736f4acba,S
2019-11-24 20:47:45,13bed9c1-46e7-4e0b-ae7e-ad5736f4acba,A
2019-11-24 20:48:41,13bed9c1-46e7-4e0b-ae7e-ad5736f4acba,S
2019-11-24 20:55:28,13bed9c1-46e7-4e0b-ae7e-ad5736f4acba,A
2019-11-24 20:57:44,13bed9c1-46e7-4e0b-ae7e-ad5736f4acba,S
2019-11-24 21:03:50,13bed9c1-46e7-4e0b-ae7e-ad5736f4acba,A
2019-11-24 21:03:51,13bed9c1-46e7-4e0b-ae7e-ad5736f4acba,S
2019-11-24 21:04:36,13bed9c1-46e7-4e0b-ae7e-ad5736f4acba,A
2019-11-24 21:08:29,13bed9c1-46e7-4e0b-ae7e-ad5736f4acba,S
2019-11-24 21:14:05,13bed9c1-46e7-4e0b-ae7e-ad5736f4acba,A
2019-11-24 21:16:06,13bed9c1-46e7-4e0b-ae7e-ad5736f4acba,S
2019-11-24 21:19:19,13bed9c1-46e7-4e0b-ae7e-ad5736f4acba,A
2019-11-24 21:22:11,13bed9c1-46e7-4e0b-ae7e-ad5736f4acba,S
2019-11-24 21:25:25,13bed9c1-46e7-4e0b-ae7e-ad5736f4acba,A
2019-11-24 21:34:27,13bed9c1-46e7-4e0b-ae7e-ad5736f4acba,S
2019-11-24 21:38:00,13bed9c1-46e7-4e0b-ae7e-ad5736f4acba,A
2019-11-24 21:38:59,13bed9c1-46e7-4e0b-ae7e-ad5736f4acba,S
2019-11-24 21:42:26,13bed9c1-46e7-4e0b-ae7e-ad5736f4acba,A
2019-11-24 21:44:24,13bed9c1-46e7-4e0b-ae7e-ad5736f4acba,S
2019-11-24 21:45:05,13bed9c1-46e7-4e0b-ae7e-ad5736f4acba,A
2019-11-24 21:52:14,13bed9c1-46e7-4e0b-ae7e-ad5736f4acba,S
2019-11-24 21:54:38,13bed9c1-46e7-4e0b-ae7e-ad5736f4acba,A
2019-11-24 20:49:45,eb25a587-8a63-45b7-9d51-20e625a863df,A
2019-11-24 21:23:31,eb25a587-8a63-45b7-9d51-20e625a863df,S
2019-11-24 21:23:59,eb25a587-8a63-45b7-9d51-20e625a863df,A
2019-11-24 21:53:15,eb25a587-8a63-45b7-9d51-20e625a863df,S
2019-11-24 21:56:19,eb25a587-8a63-45b7-9d51-20e625a863df,A
2019-11-24 21:58:47,eb25a587-8a63-45b7-9d51-20e625a863df,S
2019-11-24 22:00:19,eb25a587-8a63-45b7-9d51-20e625a863df,A
2019-11-24 22:01:05,eb25a587-8a63-45b7-9d51-20e625a863df,S
2019-11-24 22:04:20,eb25a587-8a63-45b7-9d51-20e625a863df,A
2019-11-24 20:37:49,31b6b5e8-e971-4852-8d64-fbcf58562418,A
2019-11-24 20:38:18,31b6b5e8-e971-4852-8d64-fbcf58562418,S
2019-11-24 20:46:48,31b6b5e8-e971-4852-8d64-fbcf58562418,A
2019-11-24 20:48:07,31b6b5e8-e971-4852-8d64-fbcf58562418,S
2019-11-24 20:56:44,31b6b5e8-e971-4852-8d64-fbcf58562418,S
2019-11-24 20:57:58,31b6b5e8-e971-4852-8d64-fbcf58562418,A
2019-11-24 20:58:48,31b6b5e8-e971-4852-8d64-fbcf58562418,S
2019-11-24 21:02:36,31b6b5e8-e971-4852-8d64-fbcf58562418,A
2019-11-24 21:03:42,31b6b5e8-e971-4852-8d64-fbcf58562418,S
2019-11-24 21:03:54,31b6b5e8-e971-4852-8d64-fbcf58562418,A
2019-11-24 21:09:27,31b6b5e8-e971-4852-8d64-fbcf58562418,S
2019-11-24 21:14:46,31b6b5e8-e971-4852-8d64-fbcf58562418,A
2019-11-24 21:27:01,31b6b5e8-e971-4852-8d64-fbcf58562418,S
2019-11-24 21:27:17,31b6b5e8-e971-4852-8d64-fbcf58562418,A
2019-11-24 21:31:27,31b6b5e8-e971-4852-8d64-fbcf58562418,S
2019-11-24 21:41:03,31b6b5e8-e971-4852-8d64-fbcf58562418,A
2019-11-24 21:53:09,31b6b5e8-e971-4852-8d64-fbcf58562418,S
2019-11-24 21:56:38,31b6b5e8-e971-4852-8d64-fbcf58562418,A
2019-11-24 22:01:01,31b6b5e8-e971-4852-8d64-fbcf58562418,S
2019-11-24 22:02:25,31b6b5e8-e971-4852-8d64-fbcf58562418,A
2019-11-24 22:03:01,31b6b5e8-e971-4852-8d64-fbcf58562418,S
2019-11-24 20:04:58,8a7f809f-1047-4e74-940d-5cb9508c7a35,S
2019-11-24 20:09:01,8a7f809f-1047-4e74-940d-5cb9508c7a35,A
2019-11-24 20:09:50,8a7f809f-1047-4e74-940d-5cb9508c7a35,S
2019-11-24 20:15:03,8a7f809f-1047-4e74-940d-5cb9508c7a35,A
2019-11-24 20:19:56,8a7f809f-1047-4e74-940d-5cb9508c7a35,S
2019-11-24 20:24:55,8a7f809f-1047-4e74-940d-5cb9508c7a35,A
2019-11-24 20:27:30,8a7f809f-1047-4e74-940d-5cb9508c7a35,S
2019-11-24 20:28:16,8a7f809f-1047-4e74-940d-5cb9508c7a35,A
2019-11-24 20:38:52,8a7f809f-1047-4e74-940d-5cb9508c7a35,S
2019-11-24 20:39:15,8a7f809f-1047-4e74-940d-5cb9508c7a35,A
2019-11-24 20:46:53,8a7f809f-1047-4e74-940d-5cb9508c7a35,S
2019-11-24 20:52:13,8a7f809f-1047-4e74-940d-5cb9508c7a35,A
2019-11-24 20:52:40,8a7f809f-1047-4e74-940d-5cb9508c7a35,S
2019-11-24 20:59:05,8a7f809f-1047-4e74-940d-5cb9508c7a35,A
2019-11-24 21:01:09,8a7f809f-1047-4e74-940d-5cb9508c7a35,S
2019-11-24 21:01:22,8a7f809f-1047-4e74-940d-5cb9508c7a35,A
2019-11-24 21:06:26,8a7f809f-1047-4e74-940d-5cb9508c7a35,S
2019-11-24 21:07:07,8a7f809f-1047-4e74-940d-5cb9508c7a35,A
2019-11-24 21:24:13,8a7f809f-1047-4e74-940d-5cb9508c7a35,S
2019-11-24 21:26:30,8a7f809f-1047-4e74-940d-5cb9508c7a35,A
2019-11-24 21:26:50,8a7f809f-1047-4e74-940d-5cb9508c7a35,S
2019-11-24 21:30:15,8a7f809f-1047-4e74-940d-5cb9508c7a35,A
2019-11-24 21:30:26,8a7f809f-1047-4e74-940d-5cb9508c7a35,S
2019-11-24 21:37:27,8a7f809f-1047-4e74-940d-5cb9508c7a35,A
2019-11-24 21:43:16,8a7f809f-1047-4e74-940d-5cb9508c7a35,S
2019-11-24 22:03:58,8a7f809f-1047-4e74-940d-5cb9508c7a35,A
2019-11-24 22:05:15,8a7f809f-1047-4e74-940d-5cb9508c7a35,S
2019-11-24 20:50:19,80c39809-590b-4741-b975-29fbae22b640,S
2019-11-24 21:03:53,80c39809-590b-4741-b975-29fbae22b640,A
2019-11-24 21:08:47,80c39809-590b-4741-b975-29fbae22b640,S
2019-11-24 21:09:19,80c39809-590b-4741-b975-29fbae22b640,A
2019-11-24 21:13:11,80c39809-590b-4741-b975-29fbae22b640,S
2019-11-24 21:13:52,80c39809-590b-4741-b975-29fbae22b640,A
2019-11-24 21:22:31,80c39809-590b-4741-b975-29fbae22b640,S
2019-11-24 21:23:35,80c39809-590b-4741-b975-29fbae22b640,A
2019-11-24 21:25:50,80c39809-590b-4741-b975-29fbae22b640,S
2019-11-24 21:28:00,80c39809-590b-4741-b975-29fbae22b640,A
2019-11-24 21:30:22,80c39809-590b-4741-b975-29fbae22b640,S
2019-11-24 21:34:13,80c39809-590b-4741-b975-29fbae22b640,A
2019-11-24 21:35:25,80c39809-590b-4741-b975-29fbae22b640,S
2019-11-24 21:36:15,80c39809-590b-4741-b975-29fbae22b640,A
2019-11-24 21:38:25,80c39809-590b-4741-b975-29fbae22b640,S
2019-11-24 21:38:48,80c39809-590b-4741-b975-29fbae22b640,A
2019-11-24 21:39:04,80c39809-590b-4741-b975-29fbae22b640,S
2019-11-24 21:43:35,80c39809-590b-4741-b975-29fbae22b640,A
2019-11-24 21:44:25,80c39809-590b-4741-b975-29fbae22b640,S
2019-11-24 21:53:57,80c39809-590b-4741-b975-29fbae22b640,A
2019-11-24 22:00:00,80c39809-590b-4741-b975-29fbae22b640,S
2019-11-24 20:21:47,012f99ef-96ef-4cf6-899d-0f612810e302,S
2019-11-24 20:29:26,012f99ef-96ef-4cf6-899d-0f612810e302,A
2019-11-24 20:31:21,012f99ef-96ef-4cf6-899d-0f612810e302,S
2019-11-24 20:42:39,012f99ef-96ef-4cf6-899d-0f612810e302,A
2019-11-24 20:44:29,012f99ef-96ef-4cf6-899d-0f612810e302,S
2019-11-24 20:45:10,012f99ef-96ef-4cf6-899d-0f612810e302,A
2019-11-24 20:54:41,012f99ef-96ef-4cf6-899d-0f612810e302,S
2019-11-24 20:57:56,012f99ef-96ef-4cf6-899d-0f612810e302,A
2019-11-24 20:58:32,012f99ef-96ef-4cf6-899d-0f612810e302,S
2019-11-24 20:59:03,012f99ef-96ef-4cf6-899d-0f612810e302,A
2019-11-24 21:04:07,012f99ef-96ef-4cf6-899d-0f612810e302,S
2019-11-24 21:04:33,012f99ef-96ef-4cf6-899d-0f612810e302,A
2019-11-24 21:04:56,012f99ef-96ef-4cf6-899d-0f612810e302,S
2019-11-24 21:05:40,012f99ef-96ef-4cf6-899d-0f612810e302,A
2019-11-24 21:07:32,012f99ef-96ef-4cf6-899d-0f612810e302,S
2019-11-24 21:08:24,012f99ef-96ef-4cf6-899d-0f612810e302,A
2019-11-24 21:18:58,012f99ef-96ef-4cf6-899d-0f612810e302,S
2019-11-24 21:20:10,012f99ef-96ef-4cf6-899d-0f612810e302,A
2019-11-24 21:27:02,012f99ef-96ef-4cf6-899d-0f612810e302,S
2019-11-24 21:35:42,012f99ef-96ef-4cf6-899d-0f612810e302,A
2019-11-24 21:38:50,012f99ef-96ef-4cf6-899d-0f612810e302,S
2019-11-24 21:42:25,012f99ef-96ef-4cf6-899d-0f612810e302,A
2019-11-24 21:42:41,012f99ef-96ef-4cf6-899d-0f612810e302,S
2019-11-24 21:49:47,012f99ef-96ef-4cf6-899d-0f612810e302,A
2019-11-24 21:49:55,012f99ef-96ef-4cf6-899d-0f612810e302,S
2019-11-24 21:50:20,012f99ef-96ef-4cf6-899d-0f612810e302,A
2019-11-24 21:50:57,012f99ef-96ef-4cf6-899d-0f612810e302,S
2019-11-24 21:53:02,012f99ef-96ef-4cf6-899d-0f612810e302,A
2019-11-24 21:53:05,012f99ef-96ef-4cf6-899d-0f612810e302,S
2019-11-24 22:04:51,012f99ef-96ef-4cf6-899d-0f612810e302,A
2019-11-24 20:48:39,a307fc8b-4f65-4667-a833-a95aec922ff2,S
2019-11-24 20:50:50,a307fc8b-4f65-4667-a833-a95aec922ff2,A
2019-11-24 20:53:36,a307fc8b-4f65-4667-a833-a95aec922ff2,S
2019-11-24 21:10:32,a307fc8b-4f65-4667-a833-a95aec922ff2,A
2019-11-24 21:12:12,a307fc8b-4f65-4667-a833-a95aec922ff2,S
2019-11-24 21:13:19,a307fc8b-4f65-4667-a833-a95aec922ff2,A
2019-11-24 21:18:33,a307fc8b-4f65-4667-a833-a95aec922ff2,S
2019-11-24 21:27:11,a307fc8b-4f65-4667-a833-a95aec922ff2,A
2019-11-24 21:29:09,a307fc8b-4f65-4667-a833-a95aec922ff2,S
2019-11-24 21:36:44,a307fc8b-4f65-4667-a833-a95aec922ff2,A
2019-11-24 21:37:33,a307fc8b-4f65-4667-a833-a95aec922ff2,S
2019-11-24 21:49:20,a307fc8b-4f65-4667-a833-a95aec922ff2,A
2019-11-24 21:57:12,a307fc8b-4f65-4667-a833-a95aec922ff2,S
2019-11-24 21:58:50,a307fc8b-4f65-4667-a833-a95aec922ff2,A
2019-11-24 22:02:40,a307fc8b-4f65-4667-a833-a95aec922ff2,S
2019-11-24 22:04:58,a307fc8b-4f65-4667-a833-a95aec922ff2,A
2019-11-24 20:32:12,481edcbc-b542-4d81-b90b-4ffbd4ad170d,S
2019-11-24 20:32:16,481edcbc-b542-4d81-b90b-4ffbd4ad170d,A
2019-11-24 20:39:26,481edcbc-b542-4d81-b90b-4ffbd4ad170d,S
2019-11-24 20:50:56,481edcbc-b542-4d81-b90b-4ffbd4ad170d,A
2019-11-24 20:52:32,481edcbc-b542-4d81-b90b-4ffbd4ad170d,S
2019-11-24 20:55:40,481edcbc-b542-4d81-b90b-4ffbd4ad170d,A
2019-11-24 20:55:56,481edcbc-b542-4d81-b90b-4ffbd4ad170d,S
2019-11-24 21:13:55,481edcbc-b542-4d81-b90b-4ffbd4ad170d,A
2019-11-24 21:16:19,481edcbc-b542-4d81-b90b-4ffbd4ad170d,S
2019-11-24 21:28:41,481edcbc-b542-4d81-b90b-4ffbd4ad170d,A
2019-11-24 21:40:49,481edcbc-b542-4d81-b90b-4ffbd4ad170d,S
2019-11-24 21:46:20,481edcbc-b542-4d81-b90b-4ffbd4ad170d,A
2019-11-24 21:46:47,481edcbc-b542-4d81-b90b-4ffbd4ad170d,S
2019-11-24 21:49:01,481edcbc-b542-4d81-b90b-4ffbd4ad170d,A
2019-11-24 21:52:41,481edcbc-b542-4d81-b90b-4ffbd4ad170d,S
2019-11-24 21:56:00,481edcbc-b542-4d81-b90b-4ffbd4ad170d,A
2019-11-24 22:00:31,481edcbc-b542-4d81-b90b-4ffbd4ad170d,S
2019-11-24 22:01:28,481edcbc-b542-4d81-b90b-4ffbd4ad170d,A
2019-11-24 22:01:49,481edcbc-b542-4d81-b90b-4ffbd4ad170d,S
2019-11-24 22:02:47,481edcbc-b542-4d81-b90b-4ffbd4ad170d,A
2019-11-24 20:33:10,2b5f8f6c-3eff-43f5-9fb5-08c3bc9c52c4,S
2019-11-24 20:37:19,2b5f8f6c-3eff-43f5-9fb5-08c3bc9c52c4,A
2019-11-24 20:44:47,2b5f8f6c-3eff-43f5-9fb5-08c3bc9c52c4,S
2019-11-24 20:48:59,2b5f8f6c-3eff-43f5-9fb5-08c3bc9c52c4,A
2019-11-24 20:49:13,2b5f8f6c-3eff-43f5-9fb5-08c3bc9c52c4,S
2019-11-24 20:58:42,2b5f8f6c-3eff-43f5-9fb5-08c3bc9c52c4,A
2019-11-24 21:01:43,2b5f8f6c-3eff-43f5-9fb5-08c3bc9c52c4,S
2019-11-24 21:03:10,2b5f8f6c-3eff-43f5-9fb5-08c3bc9c52c4,A
2019-11-24 21:04:54,2b5f8f6c-3eff-43f5-9fb5-08c3bc9c52c4,S
2019-11-24 21:14:34,2b5f8f6c-3eff-43f5-9fb5-08c3bc9c52c4,A
2019-11-24 21:19:25,2b5f8f6c-3eff-43f5-9fb5-08c3bc9c52c4,S
2019-11-24 21:21:07,2b5f8f6c-3eff-43f5-9fb5-08c3bc9c52c4,A
2019-11-24 21:22:04,2b5f8f6c-3eff-43f5-9fb5-08c3bc9c52c4,S
2019-11-24 21:27:31,2b5f8f6c-3eff-43f5-9fb5-08c3bc9c52c4,A
2019-11-24 21:32:06,2b5f8f6c-3eff-43f5-9fb5-08c3bc9c52c4,S
2019-11-24 21:36:48,2b5f8f6c-3eff-43f5-9fb5-08c3bc9c52c4,A
2019-11-24 21:44:48,2b5f8f6c-3eff-43f5-9fb5-08c3bc9c52c4,S
2019-11-24 20:31:04,d44572ca-a802-4928-ba6e-c9b8b2533f8f,S
2019-11-24 20:35:22,d44572ca-a802-4928-ba6e-c9b8b2533f8f,A
2019-11-24 20:49:05,d44572ca-a802-4928-ba6e-c9b8b2533f8f,S
2019-11-24 20:49:29,d44572ca-a802-4928-ba6e-c9b8b2533f8f,A
2019-11-24 20:54:05,d44572ca-a802-4928-ba6e-c9b8b2533f8f,S
2019-11-24 20:57:24,d44572ca-a802-4928-ba6e-c9b8b2533f8f,A
2019-11-24 21:00:30,d44572ca-a802-4928-ba6e-c9b8b2533f8f,S
2019-11-24 21:05:03,d44572ca-a802-4928-ba6e-c9b8b2533f8f,A
2019-11-24 21:08:16,d44572ca-a802-4928-ba6e-c9b8b2533f8f,S
2019-11-24 21:11:52,d44572ca-a802-4928-ba6e-c9b8b2533f8f,A
2019-11-24 21:27:43,d44572ca-a802-4928-ba6e-c9b8b2533f8f,S
2019-11-24 21:32:00,d44572ca-a802-4928-ba6e-c9b8b2533f8f,A
2019-11-24 21:32:22,d44572ca-a802-4928-ba6e-c9b8b2533f8f,S
2019-11-24 21:37:28,d44572ca-a802-4928-ba6e-c9b8b2533f8f,A
2019-11-24 21:44:47,d44572ca-a802-4928-ba6e-c9b8b2533f8f,S
2019-11-24 21:58:02,d44572ca-a802-4928-ba6e-c9b8b2533f8f,A
2019-11-24 21:58:55,d44572ca-a802-4928-ba6e-c9b8b2533f8f,S
2019-11-24 20:37:38,dfd38ab1-3cdf-4117-9da8-bf4f8df2b37c,A
2019-11-24 20:41:07,dfd38ab1-3cdf-4117-9da8-bf4f8df2b37c,S
2019-11-24 20:43:23,dfd38ab1-3cdf-4117-9da8-bf4f8df2b37c,A
2019-11-24 20:45:24,dfd38ab1-3cdf-4117-9da8-bf4f8df2b37c,S
2019-11-24 20:45:59,dfd38ab1-3cdf-4117-9da8-bf4f8df2b37c,A
2019-11-24 20:48:34,dfd38ab1-3cdf-4117-9da8-bf4f8df2b37c,S
2019-11-24 20:55:25,dfd38ab1-3cdf-4117-9da8-bf4f8df2b37c,A
2019-11-24 20:56:53,dfd38ab1-3cdf-4117-9da8-bf4f8df2b37c,S
2019-11-24 21:07:09,dfd38ab1-3cdf-4117-9da8-bf4f8df2b37c,A
2019-11-24 21:46:14,dfd38ab1-3cdf-4117-9da8-bf4f8df2b37c,S
2019-11-24 21:56:08,dfd38ab1-3cdf-4117-9da8-bf4f8df2b37c,A
2019-11-24 21:56:12,dfd38ab1-3cdf-4117-9da8-bf4f8df2b37c,S
2019-11-24 21:56:54,dfd38ab1-3cdf-4117-9da8-bf4f8df2b37c,A
2019-11-24 21:59:58,dfd38ab1-3cdf-4117-9da8-bf4f8df2b37c,S
2019-11-24 22:01:22,dfd38ab1-3cdf-4117-9da8-bf4f8df2b37c,A
2019-11-24 22:02:40,dfd38ab1-3cdf-4117-9da8-bf4f8df2b37c,S
2019-11-24 22:06:50,dfd38ab1-3cdf-4117-9da8-bf4f8df2b37c,A
2019-11-24 20:26:06,0905023e-5eb0-4bda-ac8f-afa317ab79c9,S
2019-11-24 20:35:08,0905023e-5eb0-4bda-ac8f-afa317ab79c9,A
2019-11-24 20:40:20,0905023e-5eb0-4bda-ac8f-afa317ab79c9,S
2019-11-24 20:53:06,0905023e-5eb0-4bda-ac8f-afa317ab79c9,A
2019-11-24 20:54:05,0905023e-5eb0-4bda-ac8f-afa317ab79c9,S
2019-11-24 21:05:18,0905023e-5eb0-4bda-ac8f-afa317ab79c9,A
2019-11-24 21:05:31,0905023e-5eb0-4bda-ac8f-afa317ab79c9,S
2019-11-24 21:08:58,0905023e-5eb0-4bda-ac8f-afa317ab79c9,A
2019-11-24 21:20:02,0905023e-5eb0-4bda-ac8f-afa317ab79c9,S
2019-11-24 21:23:03,0905023e-5eb0-4bda-ac8f-afa317ab79c9,A
2019-11-24 21:29:39,0905023e-5eb0-4bda-ac8f-afa317ab79c9,S
2019-11-24 21:31:35,0905023e-5eb0-4bda-ac8f-afa317ab79c9,A
2019-11-24 21:39:00,0905023e-5eb0-4bda-ac8f-afa317ab79c9,S
2019-11-24 21:43:06,0905023e-5eb0-4bda-ac8f-afa317ab79c9,A
2019-11-24 21:43:48,0905023e-5eb0-4bda-ac8f-afa317ab79c9,S
2019-11-24 21:44:10,0905023e-5eb0-4bda-ac8f-afa317ab79c9,A
2019-11-24 21:47:33,0905023e-5eb0-4bda-ac8f-afa317ab79c9,S
2019-11-24 21:50:38,0905023e-5eb0-4bda-ac8f-afa317ab79c9,A
2019-11-24 22:03:48,0905023e-5eb0-4bda-ac8f-afa317ab79c9,S
2019-11-24 20:43:04,06b4d9d8-5e6b-4c1b-baaa-509e395a9209,A
2019-11-24 20:44:55,06b4d9d8-5e6b-4c1b-baaa-509e395a9209,S
2019-11-24 20:54:23,06b4d9d8-5e6b-4c1b-baaa-509e395a9209,A
2019-11-24 21:08:30,06b4d9d8-5e6b-4c1b-baaa-509e395a9209,S
2019-11-24 21:10:06,06b4d9d8-5e6b-4c1b-baaa-509e395a9209,A
2019-11-24 21:11:40,06b4d9d8-5e6b-4c1b-baaa-509e395a9209,S
2019-11-24 21:13:33,06b4d9d8-5e6b-4c1b-baaa-509e395a9209,A
2019-11-24 21:20:01,06b4d9d8-5e6b-4c1b-baaa-509e395a9209,S
2019-11-24 21:24:55,06b4d9d8-5e6b-4c1b-baaa-509e395a9209,A
2019-11-24 21:32:26,06b4d9d8-5e6b-4c1b-baaa-509e395a9209,S
2019-11-24 21:32:29,06b4d9d8-5e6b-4c1b-baaa-509e395a9209,A
2019-11-24 21:32:48,06b4d9d8-5e6b-4c1b-baaa-509e395a9209,S
2019-11-24 21:35:09,06b4d9d8-5e6b-4c1b-baaa-509e395a9209,A
2019-11-24 21:38:20,06b4d9d8-5e6b-4c1b-baaa-509e395a9209,S
2019-11-24 21:39:06,06b4d9d8-5e6b-4c1b-baaa-509e395a9209,A
2019-11-24 21:50:07,06b4d9d8-5e6b-4c1b-baaa-509e395a9209,S
2019-11-24 21:50:55,06b4d9d8-5e6b-4c1b-baaa-509e395a9209,A
2019-11-24 21:51:20,06b4d9d8-5e6b-4c1b-baaa-509e395a9209,S
2019-11-24 21:53:33,06b4d9d8-5e6b-4c1b-baaa-509e395a9209,A
2019-11-24 21:55:47,06b4d9d8-5e6b-4c1b-baaa-509e395a9209,S
2019-11-24 21:56:06,06b4d9d8-5e6b-4c1b-baaa-509e395a9209,A
2019-11-24 22:05:31,06b4d9d8-5e6b-4c1b-baaa-509e395a9209,S
2019-11-24 20:44:00,623f2ed7-d8ae-48c2-83cc-b14453c8ddce,A
2019-11-24 20:52:55,623f2ed7-d8ae-48c2-83cc-b14453c8ddce,S
2019-11-24 21:03:39,623f2ed7-d8ae-48c2-83cc-b14453c8ddce,A
2019-11-24 21:09:11,623f2ed7-d8ae-48c2-83cc-b14453c8ddce,S
2019-11-24 21:11:49,623f2ed7-d8ae-48c2-83cc-b14453c8ddce,A
2019-11-24 21:12:33,623f2ed7-d8ae-48c2-83cc-b14453c8ddce,S
2019-11-24 21:17:15,623f2ed7-d8ae-48c2-83cc-b14453c8ddce,A
2019-11-24 21:19:03,623f2ed7-d8ae-48c2-83cc-b14453c8ddce,S
2019-11-24 21:32:18,623f2ed7-d8ae-48c2-83cc-b14453c8ddce,A
2019-11-24 21:34:11,623f2ed7-d8ae-48c2-83cc-b14453c8ddce,S
2019-11-24 21:40:23,623f2ed7-d8ae-48c2-83cc-b14453c8ddce,A
2019-11-24 21:43:11,623f2ed7-d8ae-48c2-83cc-b14453c8ddce,S
2019-11-24 21:44:59,623f2ed7-d8ae-48c2-83cc-b14453c8ddce,A
2019-11-24 21:45:22,623f2ed7-d8ae-48c2-83cc-b14453c8ddce,S
2019-11-24 21:46:01,623f2ed7-d8ae-48c2-83cc-b14453c8ddce,A
2019-11-24 21:58:31,623f2ed7-d8ae-48c2-83cc-b14453c8ddce,S
2019-11-24 21:58:33,623f2ed7-d8ae-48c2-83cc-b14453c8ddce,A
2019-11-24 21:59:09,623f2ed7-d8ae-48c2-83cc-b14453c8ddce,S
2019-11-24 21:59:38,623f2ed7-d8ae-48c2-83cc-b14453c8ddce,A
2019-11-24 20:27:11,b430c4f2-0b31-417a-97ac-d1e16a3bfb64,A
2019-11-24 20:33:14,b430c4f2-0b31-417a-97ac-d1e16a3bfb64,S
2019-11-24 20:35:44,b430c4f2-0b31-417a-97ac-d1e16a3bfb64,A
2019-11-24 20:36:29,b430c4f2-0b31-417a-97ac-d1e16a3bfb64,S
2019-11-24 20:36:32,b430c4f2-0b31-417a-97ac-d1e16a3bfb64,A
2019-11-24 20:39:22,b430c4f2-0b31-417a-97ac-d1e16a3bfb64,S
2019-11-24 20:47:38,b430c4f2-0b31-417a-97ac-d1e16a3bfb64,A
2019-11-24 20:50:24,b430c4f2-0b31-417a-97ac-d1e16a3bfb64,S
2019-11-24 20:50:27,b430c4f2-0b31-417a-97ac-d1e16a3bfb64,A
2019-11-24 20:56:32,b430c4f2-0b31-417a-97ac-d1e16a3bfb64,S
2019-11-24 21:00:55,b430c4f2-0b31-417a-97ac-d1e16a3bfb64,A
2019-11-24 21:08:16,b430c4f2-0b31-417a-97ac-d1e16a3bfb64,S
2019-11-24 21:09:25,b430c4f2-0b31-417a-97ac-d1e16a3bfb64,A
2019-11-24 21:13:22,b430c4f2-0b31-417a-97ac-d1e16a3bfb64,S
2019-11-24 21:14:09,b430c4f2-0b31-417a-97ac-d1e16a3bfb64,A
2019-11-24 21:14:26,b430c4f2-0b31-417a-97ac-d1e16a3bfb64,S
2019-11-24 21:25:00,b430c4f2-0b31-417a-97ac-d1e16a3bfb64,A
2019-11-24 21:26:23,b430c4f2-0b31-417a-97ac-d1e16a3bfb64,S
2019-11-24 21:32:07,b430c4f2-0b31-417a-97ac-d1e16a3bfb64,A
2019-11-24 21:36:34,b430c4f2-0b31-417a-97ac-d1e16a3bfb64,S
2019-11-24 21:37:53,b430c4f2-0b31-417a-97ac-d1e16a3bfb64,A
2019-11-24 21:40:40,b430c4f2-0b31-417a-97ac-d1e16a3bfb64,S
2019-11-24 21:42:04,b430c4f2-0b31-417a-97ac-d1e16a3bfb64,A
2019-11-24 21:50:54,b430c4f2-0b31-417a-97ac-d1e16a3bfb64,S
2019-11-24 21:52:23,b430c4f2-0b31-417a-97ac-d1e16a3bfb64,A
2019-11-24 21:56:02,b430c4f2-0b31-417a-97ac-d1e16a3bfb64,S
2019-11-24 21:56:19,b430c4f2-0b31-417a-97ac-d1e16a3bfb64,A
2019-11-24 22:00:17,b430c4f2-0b31-417a-97ac-d1e16a3bfb64,S
2019-11-24 20:48:35,a59d17d5-002e-4ebc-9e85-f8f730bddf9a,S
2019-11-24 20:53:58,a59d17d5-002e-4ebc-9e85-f8f730bddf9a,A
2019-11-24 20:55:24,a59d17d5-002e-4ebc-9e85-f8f730bddf9a,S
2019-11-24 20:57:34,a59d17d5-002e-4ebc-9e85-f8f730bddf9a,A
2019-11-24 21:04:36,a59d17d5-002e-4ebc-9e85-f8f730bddf9a,S
2019-11-24 21:10:42,a59d17d5-002e-4ebc-9e85-f8f730bddf9a,A
2019-11-24 21:14:37,a59d17d5-002e-4ebc-9e85-f8f730bddf9a,S
2019-11-24 21:17:59,a59d17d5-002e-4ebc-9e85-f8f730bddf9a,A
2019-11-24 21:19:33,a59d17d5-002e-4ebc-9e85-f8f730bddf9a,S
2019-11-24 21:19:44,a59d17d5-002e-4ebc-9e85-f8f730bddf9a,A
2019-11-24 21:22:04,a59d17d5-002e-4ebc-9e85-f8f730bddf9a,S
2019-11-24 21:26:20,a59d17d5-002e-4ebc-9e85-f8f730bddf9a,A
2019-11-24 21:29:14,a59d17d5-002e-4ebc-9e85-f8f730bddf9a,S
2019-11-24 21:30:09,a59d17d5-002e-4ebc-9e85-f8f730bddf9a,A
2019-11-24 21:40:33,a59d17d5-002e-4ebc-9e85-f8f730bddf9a,S
2019-11-24 21:40:37,a59d17d5-002e-4ebc-9e85-f8f730bddf9a,A
2019-11-24 21:41:09,a59d17d5-002e-4ebc-9e85-f8f730bddf9a,S
2019-11-24 21:41:38,a59d17d5-002e-4ebc-9e85-f8f730bddf9a,A
2019-11-24 21:41:51,a59d17d5-002e-4ebc-9e85-f8f730bddf9a,S
2019-11-24 21:45:46,a59d17d5-002e-4ebc-9e85-f8f730bddf9a,A
2019-11-24 21:53:35,a59d17d5-002e-4ebc-9e85-f8f730bddf9a,S
2019-11-24 21:59:34,a59d17d5-002e-4ebc-9e85-f8f730bddf9a,A
2019-11-24 22:02:27,a59d17d5-002e-4ebc-9e85-f8f730bddf9a,S
2019-11-24 22:04:26,a59d17d5-002e-4ebc-9e85-f8f730bddf9a,A
2019-11-24 20:13:46,e146c6c6-cb5a-4715-9731-7278822cd600,S
2019-11-24 20:17:53,e146c6c6-cb5a-4715-9731-7278822cd600,A
2019-11-24 20:28:17,e146c6c6-cb5a-4715-9731-7278822cd600,S
2019-11-24 20:29:51,e146c6c6-cb5a-4715-9731-7278822cd600,A
2019-11-24 20:37:21,e146c6c6-cb5a-4715-9731-7278822cd600,S
2019-11-24 20:37:36,e146c6c6-cb5a-4715-9731-7278822cd600,A
2019-11-24 20:39:01,e146c6c6-cb5a-4715-9731-7278822cd600,S
2019-11-24 20:56:18,e146c6c6-cb5a-4715-9731-7278822cd600,A
2019-11-24 21:02:04,e146c6c6-cb5a-4715-9731-7278822cd600,S
2019-11-24 21:05:39,e146c6c6-cb5a-4715-9731-7278822cd600,A
2019-11-24 21:08:50,e146c6c6-cb5a-4715-9731-7278822cd600,S
2019-11-24 21:09:07,e146c6c6-cb5a-4715-9731-7278822cd600,A
2019-11-24 21:27:42,e146c6c6-cb5a-4715-9731-7278822cd600,S
2019-11-24 21:28:08,e146c6c6-cb5a-4715-9731-7278822cd600,A
2019-11-24 21:30:59,e146c6c6-cb5a-4715-9731-7278822cd600,S
2019-11-24 21:44:31,e146c6c6-cb5a-4715-9731-7278822cd600,A
2019-11-24 21:47:49,e146c6c6-cb5a-4715-9731-7278822cd600,S
2019-11-24 21:50:17,e146c6c6-cb5a-4715-9731-7278822cd600,A
2019-11-24 21:50:54,e146c6c6-cb5a-4715-9731-7278822cd600,S
2019-11-24 21:56:08,e146c6c6-cb5a-4715-9731-7278822cd600,A
2019-11-24 22:00:48,e146c6c6-cb5a-4715-9731-7278822cd600,S
2019-11-24 22:04:45,e146c6c6-cb5a-4715-9731-7278822cd600,A
2019-11-24 22:06:37,e146c6c6-cb5a-4715-9731-7278822cd600,S
2019-11-24 22:07:35,e146c6c6-cb5a-4715-9731-7278822cd600,A
2019-11-24 20:17:09,b6a7d3a6-4559-4659-bc1e-7bccf71442c7,S
2019-11-24 20:29:05,b6a7d3a6-4559-4659-bc1e-7bccf71442c7,A
2019-11-24 20:29:23,b6a7d3a6-4559-4659-bc1e-7bccf71442c7,S
2019-11-24 20:44:47,b6a7d3a6-4559-4659-bc1e-7bccf71442c7,A
2019-11-24 20:47:40,b6a7d3a6-4559-4659-bc1e-7bccf71442c7,S
2019-11-24 20:49:39,b6a7d3a6-4559-4659-bc1e-7bccf71442c7,A
2019-11-24 20:57:46,b6a7d3a6-4559-4659-bc1e-7bccf71442c7,S
2019-11-24 20:58:42,b6a7d3a6-4559-4659-bc1e-7bccf71442c7,A
2019-11-24 21:00:55,b6a7d3a6-4559-4659-bc1e-7bccf71442c7,S
2019-11-24 21:15:20,b6a7d3a6-4559-4659-bc1e-7bccf71442c7,A
2019-11-24 21:20:38,b6a7d3a6-4559-4659-bc1e-7bccf71442c7,S
2019-11-24 21:22:11,b6a7d3a6-4559-4659-bc1e-7bccf71442c7,A
2019-11-24 21:22:59,b6a7d3a6-4559-4659-bc1e-7bccf71442c7,S
2019-11-24 21:24:56,b6a7d3a6-4559-4659-bc1e-7bccf71442c7,A
2019-11-24 21:28:13,b6a7d3a6-4559-4659-bc1e-7bccf71442c7,S
2019-11-24 21:28:20,b6a7d3a6-4559-4659-bc1e-7bccf71442c7,A
2019-11-24 21:40:39,b6a7d3a6-4559-4659-bc1e-7bccf71442c7,S
2019-11-24 21:41:59,b6a7d3a6-4559-4659-bc1e-7bccf71442c7,A
2019-11-24 21:46:52,b6a7d3a6-4559-4659-bc1e-7bccf71442c7,S
2019-11-24 21:50:17,b6a7d3a6-4559-4659-bc1e-7bccf71442c7,A
2019-11-24 21:51:32,b6a7d3a6-4559-4659-bc1e-7bccf71442c7,S
2019-11-24 21:52:14,b6a7d3a6-4559-4659-bc1e-7bccf71442c7,A
2019-11-24 22:04:54,b6a7d3a6-4559-4659-bc1e-7bccf71442c7,S
2019-11-24 22:06:22,b6a7d3a6-4559-4659-bc1e-7bccf71442c7,A
2019-11-24 22:07:35,b6a7d3a6-4559-4659-bc1e-7bccf71442c7,S
2019-11-24 20:43:52,11f39ca7-6283-469b-a1d7-7d324c0f3094,A
2019-11-24 20:58:35,11f39ca7-6283-469b-a1d7-7d324c0f3094,S
2019-11-24 21:00:42,11f39ca7-6283-469b-a1d7-7d324c0f3094,A
2019-11-24 21:09:47,11f39ca7-6283-469b-a1d7-7d324c0f3094,S
2019-11-24 21:21:20,11f39ca7-6283-469b-a1d7-7d324c0f3094,A
2019-11-24 21:27:32,11f39ca7-6283-469b-a1d7-7d324c0f3094,S
2019-11-24 21:34:13,11f39ca7-6283-469b-a1d7-7d324c0f3094,A
2019-11-24 21:34:36,11f39ca7-6283-469b-a1d7-7d324c0f3094,S
2019-11-24 21:35:43,11f39ca7-6283-469b-a1d7-7d324c0f3094,A
2019-11-24 21:40:02,11f39ca7-6283-469b-a1d7-7d324c0f3094,S
2019-11-24 21:40:34,11f39ca7-6283-469b-a1d7-7d324c0f3094,A
2019-11-24 21:47:13,11f39ca7-6283-469b-a1d7-7d324c0f3094,S
2019-11-24 21:49:57,11f39ca7-6283-469b-a1d7-7d324c0f3094,A
2019-11-24 21:51:44,11f39ca7-6283-469b-a1d7-7d324c0f3094,S
2019-11-24 21:55:31,11f39ca7-6283-469b-a1d7-7d324c0f3094,A
2019-11-24 22:01:46,11f39ca7-6283-469b-a1d7-7d324c0f3094,S
2019-11-24 22:01:59,11f39ca7-6283-469b-a1d7-7d324c0f3094,A
2019-11-24 22:04:35,11f39ca7-6283-469b-a1d7-7d324c0f3094,S
2019-11-24 20:49:50,8ac41fc1-7d95-4d47-a4fa-417de9b30800,S
2019-11-24 20:50:40,8ac41fc1-7d95-4d47-a4fa-417de9b30800,A
2019-11-24 21:03:15,8ac41fc1-7d95-4d47-a4fa-417de9b30800,S
2019-11-24 21:04:22,8ac41fc1-7d95-4d47-a4fa-417de9b30800,A
2019-11-24 21:06:27,8ac41fc1-7d95-4d47-a4fa-417de9b30800,S
2019-11-24 21:31:19,8ac41fc1-7d95-4d47-a4fa-417de9b30800,A
2019-11-24 21:43:10,8ac41fc1-7d95-4d47-a4fa-417de9b30800,S
2019-11-24 21:47:31,8ac41fc1-7d95-4d47-a4fa-417de9b30800,A
2019-11-24 21:47:31,8ac41fc1-7d95-4d47-a4fa-417de9b30800,S
2019-11-24 21:51:41,8ac41fc1-7d95-4d47-a4fa-417de9b30800,A
2019-11-24 21:55:52,8ac41fc1-7d95-4d47-a4fa-417de9b30800,S
2019-11-24 22:05:15,8ac41fc1-7d95-4d47-a4fa-417de9b30800,A
2019-11-24 20:43:02,8baf77b5-8fe8-4199-afcb-993c52fbd294,S
2019-11-24 20:44:57,8baf77b5-8fe8-4199-afcb-993c52fbd294,A
2019-11-24 20:45:26,8baf77b5-8fe8-4199-afcb-993c52fbd294,S
2019-11-24 20:53:45,8baf77b5-8fe8-4199-afcb-993c52fbd294,A
2019-11-24 20:56:37,8baf77b5-8fe8-4199-afcb-993c52fbd294,S
2019-11-24 21:02:58,8baf77b5-8fe8-4199-afcb-993c52fbd294,A
2019-11-24 21:07:34,8baf77b5-8fe8-4199-afcb-993c52fbd294,S
2019-11-24 21:08:47,8baf77b5-8fe8-4199-afcb-993c52fbd294,A
2019-11-24 21:17:31,8baf77b5-8fe8-4199-afcb-993c52fbd294,S
2019-11-24 21:19:05,8baf77b5-8fe8-4199-afcb-993c52fbd294,A
2019-11-24 21:27:07,8baf77b5-8fe8-4199-afcb-993c52fbd294,S
2019-11-24 21:27:19,8baf77b5-8fe8-4199-afcb-993c52fbd294,A
2019-11-24 21:33:55,8baf77b5-8fe8-4199-afcb-993c52fbd294,S
2019-11-24 21:38:49,8baf77b5-8fe8-4199-afcb-993c52fbd294,A
2019-11-24 21:39:44,8baf77b5-8fe8-4199-afcb-993c52fbd294,S
2019-11-24 21:41:40,8baf77b5-8fe8-4199-afcb-993c52fbd294,A
2019-11-24 21:41:42,8baf77b5-8fe8-4199-afcb-993c52fbd294,S
2019-11-24 21:43:02,8baf77b5-8fe8-4199-afcb-993c52fbd294,A
2019-11-24 21:45:48,8baf77b5-8fe8-4199-afcb-993c52fbd294,S
2019-11-24 21:53:15,8baf77b5-8fe8-4199-afcb-993c52fbd294,A
2019-11-24 21:54:48,8baf77b5-8fe8-4199-afcb-993c52fbd294,S
2019-11-24 21:55:23,8baf77b5-8fe8-4199-afcb-993c52fbd294,A
2019-11-24 22:02:26,8baf77b5-8fe8-4199-afcb-993c52fbd294,S
2019-11-24 22:05:55,8baf77b5-8fe8-4199-afcb-993c52fbd294,A
2019-11-24 20:23:16,c6addea9-9b9c-48c7-978c-95e68535217e,A
2019-11-24 20:31:05,c6addea9-9b9c-48c7-978c-95e68535217e,S
2019-11-24 20:32:36,c6addea9-9b9c-48c7-978c-95e68535217e,A
2019-11-24 20:35:13,c6addea9-9b9c-48c7-978c-95e68535217e,S
2019-11-24 20:39:54,c6addea9-9b9c-48c7-978c-95e68535217e,A
2019-11-24 20:54:36,c6addea9-9b9c-48c7-978c-95e68535217e,S
2019-11-24 20:55:11,c6addea9-9b9c-48c7-978c-95e68535217e,A
2019-11-24 21:00:42,c6addea9-9b9c-48c7-978c-95e68535217e,S
2019-11-24 21:07:54,c6addea9-9b9c-48c7-978c-95e68535217e,A
2019-11-24 21:08:30,c6addea9-9b9c-48c7-978c-95e68535217e,S
2019-11-24 21:20:20,c6addea9-9b9c-48c7-978c-95e68535217e,A
2019-11-24 21:23:28,c6addea9-9b9c-48c7-978c-95e68535217e,S
2019-11-24 21:35:18,c6addea9-9b9c-48c7-978c-95e68535217e,A
2019-11-24 21:47:15,c6addea9-9b9c-48c7-978c-95e68535217e,S
2019-11-24 21:52:07,c6addea9-9b9c-48c7-978c-95e68535217e,A
2019-11-24 21:52:40,c6addea9-9b9c-48c7-978c-95e68535217e,S
2019-11-24 21:52:58,c6addea9-9b9c-48c7-978c-95e68535217e,A
2019-11-24 21:53:09,c6addea9-9b9c-48c7-978c-95e68535217e,S
2019-11-24 21:54:19,c6addea9-9b9c-48c7-978c-95e68535217e,A
2019-11-24 21:58:00,c6addea9-9b9c-48c7-978c-95e68535217e,S
2019-11-24 22:06:52,c6addea9-9b9c-48c7-978c-95e68535217e,A
2019-11-24 20:12:51,7dfa473b-8eaf-400d-aef2-e6b549b6637c,S
2019-11-24 20:17:49,7dfa473b-8eaf-400d-aef2-e6b549b6637c,A
2019-11-24 20:18:11,7dfa473b-8eaf-400d-aef2-e6b549b6637c,S
2019-11-24 20:22:55,7dfa473b-8eaf-400d-aef2-e6b549b6637c,A
2019-11-24 20:27:53,7dfa473b-8eaf-400d-aef2-e6b549b6637c,S
2019-11-24 20:29:54,7dfa473b-8eaf-400d-aef2-e6b549b6637c,A
2019-11-24 20:39:59,7dfa473b-8eaf-400d-aef2-e6b549b6637c,S
2019-11-24 20:42:40,7dfa473b-8eaf-400d-aef2-e6b549b6637c,A
2019-11-24 20:43:35,7dfa473b-8eaf-400d-aef2-e6b549b6637c,S
2019-11-24 20:51:37,7dfa473b-8eaf-400d-aef2-e6b549b6637c,A
2019-11-24 21:00:25,7dfa473b-8eaf-400d-aef2-e6b549b6637c,S
2019-11-24 21:02:35,7dfa473b-8eaf-400d-aef2-e6b549b6637c,A
2019-11-24 21:02:45,7dfa473b-8eaf-400d-aef2-e6b549b6637c,S
2019-11-24 21:22:01,7dfa473b-8eaf-400d-aef2-e6b549b6637c,A
2019-11-24 21:24:15,7dfa473b-8eaf-400d-aef2-e6b549b6637c,S
2019-11-24 21:41:49,7dfa473b-8eaf-400d-aef2-e6b549b6637c,A
2019-11-24 21:52:00,7dfa473b-8eaf-400d-aef2-e6b549b6637c,S
2019-11-24 22:07:51,7dfa473b-8eaf-400d-aef2-e6b549b6637c,A
2019-11-24 20:17:08,3231abda-3c5b-43ee-8d57-3dbe0a64ed46,A
2019-11-24 20:19:58,3231abda-3c5b-43ee-8d57-3dbe0a64ed46,S
2019-11-24 20:25:05,3231abda-3c5b-43ee-8d57-3dbe0a64ed46,A
2019-11-24 20:40:33,3231abda-3c5b-43ee-8d57-3dbe0a64ed46,S
2019-11-24 20:49:35,3231abda-3c5b-43ee-8d57-3dbe0a64ed46,A
2019-11-24 20:59:18,3231abda-3c5b-43ee-8d57-3dbe0a64ed46,S
2019-11-24 21:07:49,3231abda-3c5b-43ee-8d57-3dbe0a64ed46,A
2019-11-24 21:08:35,3231abda-3c5b-43ee-8d57-3dbe0a64ed46,S
2019-11-24 21:08:53,3231abda-3c5b-43ee-8d57-3dbe0a64ed46,A
2019-11-24 21:17:32,3231abda-3c5b-43ee-8d57-3dbe0a64ed46,S
2019-11-24 21:20:31,3231abda-3c5b-43ee-8d57-3dbe0a64ed46,A
2019-11-24 21:20:34,3231abda-3c5b-43ee-8d57-3dbe0a64ed46,S
2019-11-24 21:21:45,3231abda-3c5b-43ee-8d57-3dbe0a64ed46,A
2019-11-24 21:23:35,3231abda-3c5b-43ee-8d57-3dbe0a64ed46,S
2019-11-24 21:25:25,3231abda-3c5b-43ee-8d57-3dbe0a64ed46,A
2019-11-24 21:26:25,3231abda-3c5b-43ee-8d57-3dbe0a64ed46,S
2019-11-24 21:28:08,3231abda-3c5b-43ee-8d57-3dbe0a64ed46,A
2019-11-24 21:37:23,3231abda-3c5b-43ee-8d57-3dbe0a64ed46,S
2019-11-24 21:39:30,3231abda-3c5b-43ee-8d57-3dbe0a64ed46,A
2019-11-24 21:40:29,3231abda-3c5b-43ee-8d57-3dbe0a64ed46,S
2019-11-24 21:42:56,3231abda-3c5b-43ee-8d57-3dbe0a64ed46,A
2019-11-24 21:51:41,3231abda-3c5b-43ee-8d57-3dbe0a64ed46,S
2019-11-24 21:53:58,3231abda-3c5b-43ee-8d57-3dbe0a64ed46,A
2019-11-24 21:58:50,3231abda-3c5b-43ee-8d57-3dbe0a64ed46,S
2019-11-24 21:58:58,3231abda-3c5b-43ee-8d57-3dbe0a64ed46,A
2019-11-24 21:59:37,3231abda-3c5b-43ee-8d57-3dbe0a64ed46,S
2019-11-24 22:03:06,3231abda-3c5b-43ee-8d57-3dbe0a64ed46,A
2019-11-24 22:04:32,3231abda-3c5b-43ee-8d57-3dbe0a64ed46,S
2019-11-24 20:47:52,aded5a39-14d1-4c76-937b-fa1ca5584256,A
2019-11-24 20:52:58,aded5a39-14d1-4c76-937b-fa1ca5584256,S
2019-11-24 20:54:01,aded5a39-14d1-4c76-937b-fa1ca5584256,A
2019-11-24 20:55:57,aded5a39-14d1-4c76-937b-fa1ca5584256,S
2019-11-24 21:03:32,aded5a39-14d1-4c76-937b-fa1ca5584256,A
2019-11-24 21:04:57,aded5a39-14d1-4c76-937b-fa1ca5584256,S
2019-11-24 21:14:50,aded5a39-14d1-4c76-937b-fa1ca5584256,A
2019-11-24 21:16:39,aded5a39-14d1-4c76-937b-fa1ca5584256,S
2019-11-24 21:21:32,aded5a39-14d1-4c76-937b-fa1ca5584256,A
2019-11-24 21:25:56,aded5a39-14d1-4c76-937b-fa1ca5584256,S
2019-11-24 21:34:41,aded5a39-14d1-4c76-937b-fa1ca5584256,A
2019-11-24 21:36:12,aded5a39-14d1-4c76-937b-fa1ca5584256,S
2019-11-24 21:38:06,aded5a39-14d1-4c76-937b-fa1ca5584256,A
2019-11-24 21:40:33,aded5a39-14d1-4c76-937b-fa1ca5584256,S
2019-11-24 21:44:46,aded5a39-14d1-4c76-937b-fa1ca5584256,A
2019-11-24 21:50:36,aded5a39-14d1-4c76-937b-fa1ca5584256,S
2019-11-24 21:56:06,aded5a39-14d1-4c76-937b-fa1ca5584256,A
2019-11-24 22:05:19,aded5a39-14d1-4c76-937b-fa1ca5584256,S
2019-11-24 20:12:41,222f4b95-cace-40b7-b0e4-ef8849096f34,S
2019-11-24 20:16:08,222f4b95-cace-40b7-b0e4-ef8849096f34,A
2019-11-24 20:22:11,222f4b95-cace-40b7-b0e4-ef8849096f34,S
2019-11-24 20:32:07,222f4b95-cace-40b7-b0e4-ef8849096f34,A
2019-11-24 20:52:15,222f4b95-cace-40b7-b0e4-ef8849096f34,S
2019-11-24 20:58:11,222f4b95-cace-40b7-b0e4-ef8849096f34,A
2019-11-24 21:09:00,222f4b95-cace-40b7-b0e4-ef8849096f34,S
2019-11-24 21:14:26,222f4b95-cace-40b7-b0e4-ef8849096f34,A
2019-11-24 21:18:42,222f4b95-cace-40b7-b0e4-ef8849096f34,S
2019-11-24 21:24:16,222f4b95-cace-40b7-b0e4-ef8849096f34,A
2019-11-24 21:24:28,222f4b95-cace-40b7-b0e4-ef8849096f34,S
2019-11-24 21:26:11,222f4b95-cace-40b7-b0e4-ef8849096f34,A
2019-11-24 21:32:06,222f4b95-cace-40b7-b0e4-ef8849096f34,S
2019-11-24 21:33:49,222f4b95-cace-40b7-b0e4-ef8849096f34,A
2019-11-24 21:38:20,222f4b95-cace-40b7-b0e4-ef8849096f34,S
2019-11-24 21:41:54,222f4b95-cace-40b7-b0e4-ef8849096f34,A
2019-11-24 21:47:13,222f4b95-cace-40b7-b0e4-ef8849096f34,S
2019-11-24 21:54:57,222f4b95-cace-40b7-b0e4-ef8849096f34,A
2019-11-24 20:07:13,ac669c47-51d7-4a44-8723-35a3b8896d35,S
2019-11-24 20:08:46,ac669c47-51d7-4a44-8723-35a3b8896d35,A
2019-11-24 20:09:35,ac669c47-51d7-4a44-8723-35a3b8896d35,S
2019-11-24 20:09:41,ac669c47-51d7-4a44-8723-35a3b8896d35,A
2019-11-24 20:09:47,ac669c47-51d7-4a44-8723-35a3b8896d35,S
2019-11-24 20:10:11,ac669c47-51d7-4a44-8723-35a3b8896d35,A
2019-11-24 20:14:56,ac669c47-51d7-4a44-8723-35a3b8896d35,S
2019-11-24 20:19:04,ac669c47-51d7-4a44-8723-35a3b8896d35,A
2019-11-24 20:20:53,ac669c47-51d7-4a44-8723-35a3b8896d35,S
2019-11-24 20:23:06,ac669c47-51d7-4a44-8723-35a3b8896d35,A
2019-11-24 20:33:44,ac669c47-51d7-4a44-8723-35a3b8896d35,S
2019-11-24 20:35:47,ac669c47-51d7-4a44-8723-35a3b8896d35,A
2019-11-24 20:44:56,ac669c47-51d7-4a44-8723-35a3b8896d35,S
2019-11-24 20:47:31,ac669c47-51d7-4a44-8723-35a3b8896d35,A
2019-11-24 20:56:07,ac669c47-51d7-4a44-8723-35a3b8896d35,S
2019-11-24 20:58:09,ac669c47-51d7-4a44-8723-35a3b8896d35,A
2019-11-24 20:59:57,ac669c47-51d7-4a44-8723-35a3b8896d35,S
2019-11-24 21:03:01,ac669c47-51d7-4a44-8723-35a3b8896d35,A
2019-11-24 21:03:08,ac669c47-51d7-4a44-8723-35a3b8896d35,S
2019-11-24 21:15:17,ac669c47-51d7-4a44-8723-35a3b8896d35,A
2019-11-24 21:18:51,ac669c47-51d7-4a44-8723-35a3b8896d35,S
2019-11-24 21:30:34,ac669c47-51d7-4a44-8723-35a3b8896d35,A
2019-11-24 21:31:19,ac669c47-51d7-4a44-8723-35a3b8896d35,S
2019-11-24 21:38:12,ac669c47-51d7-4a44-8723-35a3b8896d35,A
2019-11-24 21:39:32,ac669c47-51d7-4a44-8723-35a3b8896d35,S
2019-11-24 21:42:00,ac669c47-51d7-4a44-8723-35a3b8896d35,A
2019-11-24 21:50:25,ac669c47-51d7-4a44-8723-35a3b8896d35,S
2019-11-24 21:58:34,ac669c47-51d7-4a44-8723-35a3b8896d35,A
2019-11-24 22:08:43,ac669c47-51d7-4a44-8723-35a3b8896d35,S
2019-11-24 20:51:58,13f9659b-8433-4275-9139-f34fee19f64e,S
2019-11-24 20:54:16,13f9659b-8433-4275-9139-f34fee19f64e,A
2019-11-24 21:00:47,13f9659b-8433-4275-9139-f34fee19f64e,S
2019-11-24 21:01:46,13f9659b-8433-4275-9139-f34fee19f64e,A
2019-11-24 21:02:06,13f9659b-8433-4275-9139-f34fee19f64e,S
2019-11-24 21:07:16,13f9659b-8433-4275-9139-f34fee19f64e,A
2019-11-24 21:12:09,13f9659b-8433-4275-9139-f34fee19f64e,S
2019-11-24 21:16:49,13f9659b-8433-4275-9139-f34fee19f64e,A
2019-11-24 21:29:49,13f9659b-8433-4275-9139-f34fee19f64e,S
2019-11-24 21:47:18,13f9659b-8433-4275-9139-f34fee19f64e,A
2019-11-24 21:52:01,13f9659b-8433-4275-9139-f34fee19f64e,S
2019-11-24 21:54:10,13f9659b-8433-4275-9139-f34fee19f64e,A
2019-11-24 21:55:24,13f9659b-8433-4275-9139-f34fee19f64e,S
2019-11-24 21:56:46,13f9659b-8433-4275-9139-f34fee19f64e,A
2019-11-24 21:57:29,13f9659b-8433-4275-9139-f34fee19f64e,S
2019-11-24 21:58:02,13f9659b-8433-4275-9139-f34fee19f64e,A
2019-11-24 21:59:07,13f9659b-8433-4275-9139-f34fee19f64e,S
2019-11-24 22:05:48,13f9659b-8433-4275-9139-f34fee19f64e,A
2019-11-24 22:06:07,13f9659b-8433-4275-9139-f34fee19f64e,S
2019-11-24 22:06:55,13f9659b-8433-4275-9139-f34fee19f64e,A
2019-11-24 22:06:56,13f9659b-8433-4275-9139-f34fee19f64e,S
2019-11-24 20:36:43,57024909-41da-4f73-8ebb-a4fc775f75f5,S
2019-11-24 20:39:02,57024909-41da-4f73-8ebb-a4fc775f75f5,A
2019-11-24 20:44:13,57024909-41da-4f73-8ebb-a4fc775f75f5,S
2019-11-24 20:52:19,57024909-41da-4f73-8ebb-a4fc775f75f5,A
2019-11-24 20:59:43,57024909-41da-4f73-8ebb-a4fc775f75f5,S
2019-11-24 21:00:05,57024909-41da-4f73-8ebb-a4fc775f75f5,A
2019-11-24 21:05:38,57024909-41da-4f73-8ebb-a4fc775f75f5,S
2019-11-24 21:16:41,57024909-41da-4f73-8ebb-a4fc775f75f5,A
2019-11-24 21:21:06,57024909-41da-4f73-8ebb-a4fc775f75f5,S
2019-11-24 21:23:53,57024909-41da-4f73-8ebb-a4fc775f75f5,A
2019-11-24 21:30:35,57024909-41da-4f73-8ebb-a4fc775f75f5,S
2019-11-24 21:31:25,57024909-41da-4f73-8ebb-a4fc775f75f5,A
2019-11-24 21:34:11,57024909-41da-4f73-8ebb-a4fc775f75f5,S
2019-11-24 21:38:01,57024909-41da-4f73-8ebb-a4fc775f75f5,A
2019-11-24 21:44:29,57024909-41da-4f73-8ebb-a4fc775f75f5,S
2019-11-24 21:47:34,57024909-41da-4f73-8ebb-a4fc775f75f5,A
2019-11-24 21:59:54,57024909-41da-4f73-8ebb-a4fc775f75f5,S
2019-11-24 22:04:41,57024909-41da-4f73-8ebb-a4fc775f75f5,A
2019-11-24 22:06:45,57024909-41da-4f73-8ebb-a4fc775f75f5,S
2019-11-24 20:13:21,66b14ce1-8fad-4f03-952f-ba265d672d3e,S
2019-11-24 20:29:28,66b14ce1-8fad-4f03-952f-ba265d672d3e,A
2019-11-24 20:30:41,66b14ce1-8fad-4f03-952f-ba265d672d3e,S
2019-11-24 20:35:30,66b14ce1-8fad-4f03-952f-ba265d672d3e,A
2019-11-24 20:36:35,66b14ce1-8fad-4f03-952f-ba265d672d3e,S
2019-11-24 20:39:23,66b14ce1-8fad-4f03-952f-ba265d672d3e,A
2019-11-24 20:44:35,66b14ce1-8fad-4f03-952f-ba265d672d3e,S
2019-11-24 20:46:45,66b14ce1-8fad-4f03-952f-ba265d672d3e,A
2019-11-24 20:50:14,66b14ce1-8fad-4f03-952f-ba265d672d3e,S
2019-11-24 20:55:49,66b14ce1-8fad-4f03-952f-ba265d672d3e,A
2019-11-24 21:06:20,66b14ce1-8fad-4f03-952f-ba265d672d3e,S
2019-11-24 21:12:00,66b14ce1-8fad-4f03-952f-ba265d672d3e,A
2019-11-24 21:13:58,66b14ce1-8fad-4f03-952f-ba265d672d3e,S
2019-11-24 21:16:00,66b14ce1-8fad-4f03-952f-ba265d672d3e,A
2019-11-24 21:24:17,66b14ce1-8fad-4f03-952f-ba265d672d3e,S
2019-11-24 21:26:26,66b14ce1-8fad-4f03-952f-ba265d672d3e,A
2019-11-24 21:31:21,66b14ce1-8fad-4f03-952f-ba265d672d3e,S
2019-11-24 21:34:20,66b14ce1-8fad-4f03-952f-ba265d672d3e,A
2019-11-24 21:35:27,66b14ce1-8fad-4f03-952f-ba265d672d3e,S
2019-11-24 21:40:22,66b14ce1-8fad-4f03-952f-ba265d672d3e,A
2019-11-24 21:43:15,66b14ce1-8fad-4f03-952f-ba265d672d3e,S
2019-11-24 21:47:04,66b14ce1-8fad-4f03-952f-ba265d672d3e,A
2019-11-24 21:49:24,66b14ce1-8fad-4f03-952f-ba265d672d3e,S
2019-11-24 21:53:11,66b14ce1-8fad-4f03-952f-ba265d672d3e,A
2019-11-24 21:58:36,66b14ce1-8fad-4f03-952f-ba265d672d3e,S
2019-11-24 21:59:42,66b14ce1-8fad-4f03-952f-ba265d672d3e,A
2019-11-24 22:05:27,66b14ce1-8fad-4f03-952f-ba265d672d3e,S
2019-11-24 22:06:24,66b14ce1-8fad-4f03-952f-ba265d672d3e,A
2019-11-24 22:07:54,66b14ce1-8fad-4f03-952f-ba265d672d3e,S
2019-11-24 22:08:26,66b14ce1-8fad-4f03-952f-ba265d672d3e,A
2019-11-24 20:01:01,8cd94b3b-0e1e-488f-9282-a8e2c9f27700,A
2019-11-24 20:05:17,8cd94b3b-0e1e-488f-9282-a8e2c9f27700,S
2019-11-24 20:07:34,8cd94b3b-0e1e-488f-9282-a8e2c9f27700,A
2019-11-24 20:15:17,8cd94b3b-0e1e-488f-9282-a8e2c9f27700,S
2019-11-24 20:24:35,8cd94b3b-0e1e-488f-9282-a8e2c9f27700,A
2019-11-24 20:28:56,8cd94b3b-0e1e-488f-9282-a8e2c9f27700,S
2019-11-24 20:33:30,8cd94b3b-0e1e-488f-9282-a8e2c9f27700,A
2019-11-24 20:48:47,8cd94b3b-0e1e-488f-9282-a8e2c9f27700,S
2019-11-24 20:53:39,8cd94b3b-0e1e-488f-9282-a8e2c9f27700,A
2019-11-24 21:06:29,8cd94b3b-0e1e-488f-9282-a8e2c9f27700,S
2019-11-24 21:06:57,8cd94b3b-0e1e-488f-9282-a8e2c9f27700,A
2019-11-24 21:14:10,8cd94b3b-0e1e-488f-9282-a8e2c9f27700,S
2019-11-24 21:22:05,8cd94b3b-0e1e-488f-9282-a8e2c9f27700,A
2019-11-24 21:23:14,8cd94b3b-0e1e-488f-9282-a8e2c9f27700,S
2019-11-24 21:24:48,8cd94b3b-0e1e-488f-9282-a8e2c9f27700,A
2019-11-24 21:25:25,8cd94b3b-0e1e-488f-9282-a8e2c9f27700,S
2019-11-24 21:26:57,8cd94b3b-0e1e-488f-9282-a8e2c9f27700,A
2019-11-24 21:27:33,8cd94b3b-0e1e-488f-9282-a8e2c9f27700,S
2019-11-24 21:27:39,8cd94b3b-0e1e-488f-9282-a8e2c9f27700,A
2019-11-24 21:28:01,8cd94b3b-0e1e-488f-9282-a8e2c9f27700,S
2019-11-24 21:28:58,8cd94b3b-0e1e-488f-9282-a8e2c9f27700,A
2019-11-24 21:36:22,8cd94b3b-0e1e-488f-9282-a8e2c9f27700,S
2019-11-24 21:48:40,8cd94b3b-0e1e-488f-9282-a8e2c9f27700,A
2019-11-24 21:49:19,8cd94b3b-0e1e-488f-9282-a8e2c9f27700,S
2019-11-24 22:07:48,8cd94b3b-0e1e-488f-9282-a8e2c9f27700,A
2019-11-24 20:17:35,74172f5d-433d-49a9-96c0-e300e0b6081b,A
2019-11-24 20:21:01,74172f5d-433d-49a9-96c0-e300e0b6081b,S
2019-11-24 20:26:06,74172f5d-433d-49a9-96c0-e300e0b6081b,A
2019-11-24 20:27:57,74172f5d-433d-49a9-96c0-e300e0b6081b,S
2019-11-24 20:38:28,74172f5d-433d-49a9-96c0-e300e0b6081b,A
2019-11-24 20:39:03,74172f5d-433d-49a9-96c0-e300e0b6081b,S
2019-11-24 20:47:27,74172f5d-433d-49a9-96c0-e300e0b6081b,A
2019-11-24 20:49:48,74172f5d-433d-49a9-96c0-e300e0b6081b,S
2019-11-24 20:58:11,74172f5d-433d-49a9-96c0-e300e0b6081b,A
2019-11-24 21:16:37,74172f5d-433d-49a9-96c0-e300e0b6081b,S
2019-11-24 21:17:53,74172f5d-433d-49a9-96c0-e300e0b6081b,A
2019-11-24 21:18:04,74172f5d-433d-49a9-96c0-e300e0b6081b,S
2019-11-24 21:21:17,74172f5d-433d-49a9-96c0-e300e0b6081b,A
2019-11-24 21:30:07,74172f5d-433d-49a9-96c0-e300e0b6081b,S
2019-11-24 21:45:12,74172f5d-433d-49a9-96c0-e300e0b6081b,A
2019-11-24 21:45:30,74172f5d-433d-49a9-96c0-e300e0b6081b,S
2019-11-24 21:56:02,74172f5d-433d-49a9-96c0-e300e0b6081b,A
2019-11-24 22:09:01,74172f5d-433d-49a9-96c0-e300e0b6081b,S
2019-11-24 20:15:12,24829f72-257c-4679-a833-1d8b560d5fcc,S
2019-11-24 20:21:25,24829f72-257c-4679-a833-1d8b560d5fcc,A
2019-11-24 20:25:48,24829f72-257c-4679-a833-1d8b560d5fcc,S
2019-11-24 20:36:20,24829f72-257c-4679-a833-1d8b560d5fcc,A
2019-11-24 20:36:40,24829f72-257c-4679-a833-1d8b560d5fcc,S
2019-11-24 20:42:08,24829f72-257c-4679-a833-1d8b560d5fcc,A
2019-11-24 20:42:43,24829f72-257c-4679-a833-1d8b560d5fcc,S
2019-11-24 20:43:20,24829f72-257c-4679-a833-1d8b560d5fcc,A
2019-11-24 20:45:52,24829f72-257c-4679-a833-1d8b560d5fcc,S
2019-11-24 20:46:12,24829f72-257c-4679-a833-1d8b560d5fcc,A
2019-11-24 20:47:03,24829f72-257c-4679-a833-1d8b560d5fcc,S
2019-11-24 21:02:36,24829f72-257c-4679-a833-1d8b560d5fcc,A
2019-11-24 21:03:55,24829f72-257c-4679-a833-1d8b560d5fcc,S
2019-11-24 21:07:04,24829f72-257c-4679-a833-1d8b560d5fcc,A
2019-11-24 21:18:57,24829f72-257c-4679-a833-1d8b560d5fcc,S
2019-11-24 21:20:24,24829f72-257c-4679-a833-1d8b560d5fcc,A
2019-11-24 21:21:33,24829f72-257c-4679-a833-1d8b560d5fcc,S
2019-11-24 21:22:24,24829f72-257c-4679-a833-1d8b560d5fcc,A
2019-11-24 21:22:47,24829f72-257c-4679-a833-1d8b560d5fcc,S
2019-11-24 21:29:17,24829f72-257c-4679-a833-1d8b560d5fcc,A
2019-11-24 21:59:56,24829f72-257c-4679-a833-1d8b560d5fcc,S
2019-11-24 22:03:42,24829f72-257c-4679-a833-1d8b560d5fcc,A
2019-11-24 20:40:23,88d671a0-4a8a-4bdb-9082-588f59b89e06,S
2019-11-24 20:42:18,88d671a0-4a8a-4bdb-9082-588f59b89e06,A
2019-11-24 20:45:26,88d671a0-4a8a-4bdb-9082-588f59b89e06,S
2019-11-24 20:45:56,88d671a0-4a8a-4bdb-9082-588f59b89e06,A
2019-11-24 20:49:04,88d671a0-4a8a-4bdb-9082-588f59b89e06,S
2019-11-24 20:51:05,88d671a0-4a8a-4bdb-9082-588f59b89e06,A
2019-11-24 20:55:21,88d671a0-4a8a-4bdb-9082-588f59b89e06,S
2019-11-24 20:56:18,88d671a0-4a8a-4bdb-9082-588f59b89e06,A
2019-11-24 20:57:07,88d671a0-4a8a-4bdb-9082-588f59b89e06,S
2019-11-24 21:04:34,88d671a0-4a8a-4bdb-9082-588f59b89e06,A
2019-11-24 21:06:47,88d671a0-4a8a-4bdb-9082-588f59b89e06,S
2019-11-24 21:10:19,88d671a0-4a8a-4bdb-9082-588f59b89e06,A
2019-11-24 21:18:35,88d671a0-4a8a-4bdb-9082-588f59b89e06,S
2019-11-24 21:25:59,88d671a0-4a8a-4bdb-9082-588f59b89e06,A
2019-11-24 21:28:02,88d671a0-4a8a-4bdb-9082-588f59b89e06,S
2019-11-24 21:30:47,88d671a0-4a8a-4bdb-9082-588f59b89e06,A
2019-11-24 21:31:51,88d671a0-4a8a-4bdb-9082-588f59b89e06,S
2019-11-24 21:33:09,88d671a0-4a8a-4bdb-9082-588f59b89e06,A
2019-11-24 21:34:41,88d671a0-4a8a-4bdb-9082-588f59b89e06,S
2019-11-24 21:42:49,88d671a0-4a8a-4bdb-9082-588f59b89e06,A
2019-11-24 21:42:59,88d671a0-4a8a-4bdb-9082-588f59b89e06,S
2019-11-24 21:43:11,88d671a0-4a8a-4bdb-9082-588f59b89e06,A
2019-11-24 21:47:01,88d671a0-4a8a-4bdb-9082-588f59b89e06,S
2019-11-24 21:49:26,88d671a0-4a8a-4bdb-9082-588f59b89e06,A
2019-11-24 21:50:10,88d671a0-4a8a-4bdb-9082-588f59b89e06,S
2019-11-24 21:51:28,88d671a0-4a8a-4bdb-9082-588f59b89e06,A
2019-11-24 21:52:21,88d671a0-4a8a-4bdb-9082-588f59b89e06,S
2019-11-24 22:00:44,88d671a0-4a8a-4bdb-9082-588f59b89e06,A
2019-11-24 22:01:57,88d671a0-4a8a-4bdb-9082-588f59b89e06,S
2019-11-24 20:35:27,1adf7c59-3578-41bc-bdac-1470138a3377,S
2019-11-24 20:47:41,1adf7c59-3578-41bc-bdac-1470138a3377,A
2019-11-24 20:57:50,1adf7c59-3578-41bc-bdac-1470138a3377,S
2019-11-24 20:59:08,1adf7c59-3578-41bc-bdac-1470138a3377,A
2019-11-24 21:01:07,1adf7c59-3578-41bc-bdac-1470138a3377,S
2019-11-24 21:07:46,1adf7c59-3578-41bc-bdac-1470138a3377,A
2019-11-24 21:08:33,1adf7c59-3578-41bc-bdac-1470138a3377,S
2019-11-24 21:10:55,1adf7c59-3578-41bc-bdac-1470138a3377,A
2019-11-24 21:11:46,1adf7c59-3578-41bc-bdac-1470138a3377,S
2019-11-24 21:12:08,1adf7c59-3578-41bc-bdac-1470138a3377,A
2019-11-24 21:12:26,1adf7c59-3578-41bc-bdac-1470138a3377,S
2019-11-24 21:19:23,1adf7c59-3578-41bc-bdac-1470138a3377,A
2019-11-24 21:32:13,1adf7c59-3578-41bc-bdac-1470138a3377,S
2019-11-24 21:36:50,1adf7c59-3578-41bc-bdac-1470138a3377,A
2019-11-24 21:37:29,1adf7c59-3578-41bc-bdac-1470138a3377,S
2019-11-24 21:54:24,1adf7c59-3578-41bc-bdac-1470138a3377,A
2019-11-24 21:56:44,1adf7c59-3578-41bc-bdac-1470138a3377,S
2019-11-24 21:56:58,1adf7c59-3578-41bc-bdac-1470138a3377,A
2019-11-24 21:58:17,1adf7c59-3578-41bc-bdac-1470138a3377,S
2019-11-24 22:00:44,1adf7c59-3578-41bc-bdac-1470138a3377,A
2019-11-24 22:06:12,1adf7c59-3578-41bc-bdac-1470138a3377,S
2019-11-24 22:09:15,1adf7c59-3578-41bc-bdac-1470138a3377,A
2019-11-24 20:19:32,10132277-91a3-4869-92a1-24420b8e0550,A
2019-11-24 20:26:25,10132277-91a3-4869-92a1-24420b8e0550,S
2019-11-24 20:31:11,10132277-91a3-4869-92a1-24420b8e0550,A
2019-11-24 20:37:45,10132277-91a3-4869-92a1-24420b8e0550,S
2019-11-24 20:43:40,10132277-91a3-4869-92a1-24420b8e0550,A
2019-11-24 20:54:17,10132277-91a3-4869-92a1-24420b8e0550,S
2019-11-24 21:01:33,10132277-91a3-4869-92a1-24420b8e0550,A
2019-11-24 21:03:59,10132277-91a3-4869-92a1-24420b8e0550,S
2019-11-24 21:05:40,10132277-91a3-4869-92a1-24420b8e0550,A
2019-11-24 21:10:18,10132277-91a3-4869-92a1-24420b8e0550,S
2019-11-24 21:15:18,10132277-91a3-4869-92a1-24420b8e0550,A
2019-11-24 21:25:14,10132277-91a3-4869-92a1-24420b8e0550,S
2019-11-24 21:25:17,10132277-91a3-4869-92a1-24420b8e0550,A
2019-11-24 21:29:57,10132277-91a3-4869-92a1-24420b8e0550,S
2019-11-24 21:31:42,10132277-91a3-4869-92a1-24420b8e0550,A
2019-11-24 21:38:25,10132277-91a3-4869-92a1-24420b8e0550,S
2019-11-24 21:38:31,10132277-91a3-4869-92a1-24420b8e0550,A
2019-11-24 21:41:14,10132277-91a3-4869-92a1-24420b8e0550,S
2019-11-24 21:48:06,10132277-91a3-4869-92a1-24420b8e0550,A
2019-11-24 22:09:01,10132277-91a3-4869-92a1-24420b8e0550,S
2019-11-24 20:52:05,36ee4eb4-4883-4752-acaf-81d342937254,S
2019-11-24 20:53:18,36ee4eb4-4883-4752-acaf-81d342937254,A
2019-11-24 20:59:04,36ee4eb4-4883-4752-acaf-81d342937254,S
2019-11-24 21:12:23,36ee4eb4-4883-4752-acaf-81d342937254,A
2019-11-24 21:20:09,36ee4eb4-4883-4752-acaf-81d342937254,S
2019-11-24 21:22:40,36ee4eb4-4883-4752-acaf-81d342937254,A
2019-11-24 21:39:02,36ee4eb4-4883-4752-acaf-81d342937254,S
2019-11-24 21:45:09,36ee4eb4-4883-4752-acaf-81d342937254,A
2019-11-24 21:59:58,36ee4eb4-4883-4752-acaf-81d342937254,S
2019-11-24 22:05:12,36ee4eb4-4883-4752-acaf-81d342937254,A
2019-11-24 22:07:46,36ee4eb4-4883-4752-acaf-81d342937254,S
2019-11-24 20:22:15,6386dfed-1bce-4846-abb3-e1077caf1ccb,A
2019-11-24 20:25:57,6386dfed-1bce-4846-abb3-e1077caf1ccb,S
2019-11-24 20:29:16,6386dfed-1bce-4846-abb3-e1077caf1ccb,A
2019-11-24 20:30:56,6386dfed-1bce-4846-abb3-e1077caf1ccb,S
2019-11-24 20:46:26,6386dfed-1bce-4846-abb3-e1077caf1ccb,A
2019-11-24 20:48:10,6386dfed-1bce-4846-abb3-e1077caf1ccb,S
2019-11-24 20:48:33,6386dfed-1bce-4846-abb3-e1077caf1ccb,A
2019-11-24 21:10:21,6386dfed-1bce-4846-abb3-e1077caf1ccb,S
2019-11-24 21:17:32,6386dfed-1bce-4846-abb3-e1077caf1ccb,A
2019-11-24 21:21:52,6386dfed-1bce-4846-abb3-e1077caf1ccb,S
2019-11-24 21:22:33,6386dfed-1bce-4846-abb3-e1077caf1ccb,A
2019-11-24 21:26:47,6386dfed-1bce-4846-abb3-e1077caf1ccb,S
2019-11-24 21:28:38,6386dfed-1bce-4846-abb3-e1077caf1ccb,A
2019-11-24 21:31:20,6386dfed-1bce-4846-abb3-e1077caf1ccb,S
2019-11-24 21:40:34,6386dfed-1bce-4846-abb3-e1077caf1ccb,A
2019-11-24 21:48:11,6386dfed-1bce-4846-abb3-e1077caf1ccb,S
2019-11-24 21:53:07,6386dfed-1bce-4846-abb3-e1077caf1ccb,A
2019-11-24 21:59:45,6386dfed-1bce-4846-abb3-e1077caf1ccb,S
2019-11-24 20:42:30,4852251f-dc95-472d-bc28-84ec096cba8e,A
2019-11-24 20:45:59,4852251f-dc95-472d-bc28-84ec096cba8e,S
2019-11-24 20:49:03,4852251f-dc95-472d-bc28-84ec096cba8e,A
2019-11-24 20:57:59,4852251f-dc95-472d-bc28-84ec096cba8e,S
2019-11-24 21:12:56,4852251f-dc95-472d-bc28-84ec096cba8e,A
2019-11-24 21:13:59,4852251f-dc95-472d-bc28-84ec096cba8e,S
2019-11-24 21:14:28,4852251f-dc95-472d-bc28-84ec096cba8e,A
2019-11-24 21:15:07,4852251f-dc95-472d-bc28-84ec096cba8e,S
2019-11-24 21:22:11,4852251f-dc95-472d-bc28-84ec096cba8e,A
2019-11-24 21:27:21,4852251f-dc95-472d-bc28-84ec096cba8e,S
2019-11-24 21:46:13,4852251f-dc95-472d-bc28-84ec096cba8e,A
2019-11-24 21:48:20,4852251f-dc95-472d-bc28-84ec096cba8e,S
2019-11-24 21:55:27,4852251f-dc95-472d-bc28-84ec096cba8e,A
2019-11-24 21:58:56,4852251f-dc95-472d-bc28-84ec096cba8e,S
2019-11-24 20:42:07,36421c31-7f98-4b5c-a055-f4344aa45f7e,A
2019-11-24 20:49:21,36421c31-7f98-4b5c-a055-f4344aa45f7e,S
2019-11-24 20:51:15,36421c31-7f98-4b5c-a055-f4344aa45f7e,A
2019-11-24 20:56:06,36421c31-7f98-4b5c-a055-f4344aa45f7e,S
2019-11-24 21:03:21,36421c31-7f98-4b5c-a055-f4344aa45f7e,A
2019-11-24 21:10:17,36421c31-7f98-4b5c-a055-f4344aa45f7e,S
2019-11-24 21:10:51,36421c31-7f98-4b5c-a055-f4344aa45f7e,A
2019-11-24 21:11:15,36421c31-7f98-4b5c-a055-f4344aa45f7e,S
2019-11-24 21:12:39,36421c31-7f98-4b5c-a055-f4344aa45f7e,A
2019-11-24 21:13:17,36421c31-7f98-4b5c-a055-f4344aa45f7e,S
2019-11-24 21:15:34,36421c31-7f98-4b5c-a055-f4344aa45f7e,A
2019-11-24 21:21:55,36421c31-7f98-4b5c-a055-f4344aa45f7e,S
2019-11-24 21:23:19,36421c31-7f98-4b5c-a055-f4344aa45f7e,A
2019-11-24 21:26:00,36421c31-7f98-4b5c-a055-f4344aa45f7e,S
2019-11-24 21:26:35,36421c31-7f98-4b5c-a055-f4344aa45f7e,A
2019-11-24 21:27:55,36421c31-7f98-4b5c-a055-f4344aa45f7e,S
2019-11-24 21:47:16,36421c31-7f98-4b5c-a055-f4344aa45f7e,A
2019-11-24 22:05:17,36421c31-7f98-4b5c-a055-f4344aa45f7e,S
2019-11-24 22:06:20,36421c31-7f98-4b5c-a055-f4344aa45f7e,A
2019-11-24 20:17:44,480b09a4-44da-4ee0-b7b2-bc7a0eebe570,A
2019-11-24 20:23:47,480b09a4-44da-4ee0-b7b2-bc7a0eebe570,S
2019-11-24 20:26:35,480b09a4-44da-4ee0-b7b2-bc7a0eebe570,A
2019-11-24 20:27:14,480b09a4-44da-4ee0-b7b2-bc7a0eebe570,S
2019-11-24 20:27:59,480b09a4-44da-4ee0-b7b2-bc7a0eebe570,A
2019-11-24 20:37:14,480b09a4-44da-4ee0-b7b2-bc7a0eebe570,S
2019-11-24 20:37:40,480b09a4-44da-4ee0-b7b2-bc7a0eebe570,A
2019-11-24 20:38:30,480b09a4-44da-4ee0-b7b2-bc7a0eebe570,S
2019-11-24 20:43:24,480b09a4-44da-4ee0-b7b2-bc7a0eebe570,A
2019-11-24 20:48:23,480b09a4-44da-4ee0-b7b2-bc7a0eebe570,S
2019-11-24 20:48:35,480b09a4-44da-4ee0-b7b2-bc7a0eebe570,A
2019-11-24 20:49:20,480b09a4-44da-4ee0-b7b2-bc7a0eebe570,S
2019-11-24 20:51:40,480b09a4-44da-4ee0-b7b2-bc7a0eebe570,A
2019-11-24 20:54:40,480b09a4-44da-4ee0-b7b2-bc7a0eebe570,S
2019-11-24 20:55:56,480b09a4-44da-4ee0-b7b2-bc7a0eebe570,A
2019-11-24 20:56:00,480b09a4-44da-4ee0-b7b2-bc7a0eebe570,S
2019-11-24 21:04:06,480b09a4-44da-4ee0-b7b2-bc7a0eebe570,A
2019-11-24 21:07:23,480b09a4-44da-4ee0-b7b2-bc7a0eebe570,S
2019-11-24 21:09:16,480b09a4-44da-4ee0-b7b2-bc7a0eebe570,A
2019-11-24 21:16:38,480b09a4-44da-4ee0-b7b2-bc7a0eebe570,S
2019-11-24 21:26:52,480b09a4-44da-4ee0-b7b2-bc7a0eebe570,A
2019-11-24 21:42:20,480b09a4-44da-4ee0-b7b2-bc7a0eebe570,S
2019-11-24 21:44:42,480b09a4-44da-4ee0-b7b2-bc7a0eebe570,A
2019-11-24 21:44:54,480b09a4-44da-4ee0-b7b2-bc7a0eebe570,S
2019-11-24 21:52:59,480b09a4-44da-4ee0-b7b2-bc7a0eebe570,A
2019-11-24 21:53:22,480b09a4-44da-4ee0-b7b2-bc7a0eebe570,S
2019-11-24 22:01:42,480b09a4-44da-4ee0-b7b2-bc7a0eebe570,A
2019-11-24 20:37:28,19a6b89e-5158-4ce0-a84f-ec15077ba801,A
2019-11-24 20:38:07,19a6b89e-5158-4ce0-a84f-ec15077ba801,S
2019-11-24 20:39:42,19a6b89e-5158-4ce0-a84f-ec15077ba801,A
2019-11-24 20:53:55,19a6b89e-5158-4ce0-a84f-ec15077ba801,S
2019-11-24 20:56:02,19a6b89e-5158-4ce0-a84f-ec15077ba801,A
2019-11-24 20:58:29,19a6b89e-5158-4ce0-a84f-ec15077ba801,S
2019-11-24 21:06:06,19a6b89e-5158-4ce0-a84f-ec15077ba801,A
2019-11-24 21:09:47,19a6b89e-5158-4ce0-a84f-ec15077ba801,S
2019-11-24 21:13:08,19a6b89e-5158-4ce0-a84f-ec15077ba801,A
2019-11-24 21:23:59,19a6b89e-5158-4ce0-a84f-ec15077ba801,S
2019-11-24 21:24:02,19a6b89e-5158-4ce0-a84f-ec15077ba801,A
2019-11-24 21:33:33,19a6b89e-5158-4ce0-a84f-ec15077ba801,S
2019-11-24 21:54:02,19a6b89e-5158-4ce0-a84f-ec15077ba801,A
2019-11-24 22:01:17,19a6b89e-5158-4ce0-a84f-ec15077ba801,S
2019-11-24 22:05:15,19a6b89e-5158-4ce0-a84f-ec15077ba801,A
2019-11-24 20:20:18,7288b778-1c3c-4d32-947a-658890f31ff0,S
2019-11-24 20:32:22,7288b778-1c3c-4d32-947a-658890f31ff0,A
2019-11-24 20:50:44,7288b778-1c3c-4d32-947a-658890f31ff0,S
2019-11-24 20:53:07,7288b778-1c3c-4d32-947a-658890f31ff0,A
2019-11-24 20:56:26,7288b778-1c3c-4d32-947a-658890f31ff0,S
2019-11-24 20:59:45,7288b778-1c3c-4d32-947a-658890f31ff0,A
2019-11-24 21:11:15,7288b778-1c3c-4d32-947a-658890f31ff0,S
2019-11-24 21:12:05,7288b778-1c3c-4d32-947a-658890f31ff0,A
2019-11-24 21:13:44,7288b778-1c3c-4d32-947a-658890f31ff0,S
2019-11-24 21:14:36,7288b778-1c3c-4d32-947a-658890f31ff0,A
2019-11-24 21:32:01,7288b778-1c3c-4d32-947a-658890f31ff0,S
2019-11-24 21:32:06,7288b778-1c3c-4d32-947a-658890f31ff0,A
2019-11-24 21:35:16,7288b778-1c3c-4d32-947a-658890f31ff0,S
2019-11-24 21:38:43,7288b778-1c3c-4d32-947a-658890f31ff0,A
2019-11-24 21:40:56,7288b778-1c3c-4d32-947a-658890f31ff0,S
2019-11-24 21:46:53,7288b778-1c3c-4d32-947a-658890f31ff0,A
2019-11-24 21:48:16,7288b778-1c3c-4d32-947a-658890f31ff0,S
2019-11-24 21:52:11,7288b778-1c3c-4d32-947a-658890f31ff0,A
2019-11-24 21:57:45,7288b778-1c3c-4d32-947a-658890f31ff0,S
2019-11-24 22:09:17,7288b778-1c3c-4d32-947a-658890f31ff0,A
2019-11-24 20:34:48,f9b4620b-a4b8-485f-ae95-9457b2bee66b,S
2019-11-24 20:35:30,f9b4620b-a4b8-485f-ae95-9457b2bee66b,A
2019-11-24 20:51:10,f9b4620b-a4b8-485f-ae95-9457b2bee66b,S
2019-11-24 20:58:25,f9b4620b-a4b8-485f-ae95-9457b2bee66b,A
2019-11-24 20:58:47,f9b4620b-a4b8-485f-ae95-9457b2bee66b,S
2019-11-24 20:59:16,f9b4620b-a4b8-485f-ae95-9457b2bee66b,A
2019-11-24 21:00:23,f9b4620b-a4b8-485f-ae95-9457b2bee66b,S
2019-11-24 21:08:11,f9b4620b-a4b8-485f-ae95-9457b2bee66b,A
2019-11-24 21:10:40,f9b4620b-a4b8-485f-ae95-9457b2bee66b,S
2019-11-24 21:11:39,f9b4620b-a4b8-485f-ae95-9457b2bee66b,A
2019-11-24 21:16:37,f9b4620b-a4b8-485f-ae95-9457b2bee66b,S
2019-11-24 21:20:04,f9b4620b-a4b8-485f-ae95-9457b2bee66b,A
2019-11-24 21:27:46,f9b4620b-a4b8-485f-ae95-9457b2bee66b,S
2019-11-24 21:31:18,f9b4620b-a4b8-485f-ae95-9457b2bee66b,A
2019-11-24 21:32:22,f9b4620b-a4b8-485f-ae95-9457b2bee66b,S
2019-11-24 21:33:40,f9b4620b-a4b8-485f-ae95-9457b2bee66b,A
2019-11-24 21:42:49,f9b4620b-a4b8-485f-ae95-9457b2bee66b,S
2019-11-24 21:43:56,f9b4620b-a4b8-485f-ae95-9457b2bee66b,A
2019-11-24 21:46:34,f9b4620b-a4b8-485f-ae95-9457b2bee66b,S
2019-11-24 21:48:40,f9b4620b-a4b8-485f-ae95-9457b2bee66b,A
2019-11-24 21:57:13,f9b4620b-a4b8-485f-ae95-9457b2bee66b,S
2019-11-24 21:59:26,f9b4620b-a4b8-485f-ae95-9457b2bee66b,A
2019-11-24 22:04:24,f9b4620b-a4b8-485f-ae95-9457b2bee66b,S
2019-11-24 22:07:51,f9b4620b-a4b8-485f-ae95-9457b2bee66b,A
2019-11-24 22:08:26,f9b4620b-a4b8-485f-ae95-9457b2bee66b,S
2019-11-24 22:09:58,f9b4620b-a4b8-485f-ae95-9457b2bee66b,A
2019-11-24 20:04:33,395603ae-8fe7-45e8-b131-5bda870e0d03,A
2019-11-24 20:20:36,395603ae-8fe7-45e8-b131-5bda870e0d03,S
2019-11-24 20:23:50,395603ae-8fe7-45e8-b131-5bda870e0d03,A
2019-11-24 20:26:36,395603ae-8fe7-45e8-b131-5bda870e0d03,S
2019-11-24 20:27:06,395603ae-8fe7-45e8-b131-5bda870e0d03,A
2019-11-24 20:41:04,395603ae-8fe7-45e8-b131-5bda870e0d03,S
2019-11-24 20:44:34,395603ae-8fe7-45e8-b131-5bda870e0d03,A
2019-11-24 20:47:25,395603ae-8fe7-45e8-b131-5bda870e0d03,S
2019-11-24 20:51:25,395603ae-8fe7-45e8-b131-5bda870e0d03,A
2019-11-24 21:04:49,395603ae-8fe7-45e8-b131-5bda870e0d03,S
2019-11-24 21:05:00,395603ae-8fe7-45e8-b131-5bda870e0d03,A
2019-11-24 21:13:42,395603ae-8fe7-45e8-b131-5bda870e0d03,S
2019-11-24 21:17:58,395603ae-8fe7-45e8-b131-5bda870e0d03,A
2019-11-24 21:24:35,395603ae-8fe7-45e8-b131-5bda870e0d03,S
2019-11-24 21:27:06,395603ae-8fe7-45e8-b131-5bda870e0d03,A
2019-11-24 21:38:18,395603ae-8fe7-45e8-b131-5bda870e0d03,S
2019-11-24 21:40:12,395603ae-8fe7-45e8-b131-5bda870e0d03,A
2019-11-24 21:41:10,395603ae-8fe7-45e8-b131-5bda870e0d03,S
2019-11-24 21:44:02,395603ae-8fe7-45e8-b131-5bda870e0d03,A
2019-11-24 21:50:01,395603ae-8fe7-45e8-b131-5bda870e0d03,S
2019-11-24 21:58:49,395603ae-8fe7-45e8-b131-5bda870e0d03,A
2019-11-24 22:01:52,395603ae-8fe7-45e8-b131-5bda870e0d03,S
2019-11-24 22:03:43,395603ae-8fe7-45e8-b131-5bda870e0d03,A
2019-11-24 22:05:53,395603ae-8fe7-45e8-b131-5bda870e0d03,S
2019-11-24 20:06:57,631ca7d0-6784-477b-98b2-41c1d4af15f1,A
2019-11-24 20:10:24,631ca7d0-6784-477b-98b2-41c1d4af15f1,S
2019-11-24 20:18:58,631ca7d0-6784-477b-98b2-41c1d4af15f1,A
2019-11-24 20:22:01,631ca7d0-6784-477b-98b2-41c1d4af15f1,S
2019-11-24 20:22:18,631ca7d0-6784-477b-98b2-41c1d4af15f1,A
2019-11-24 20:24:46,631ca7d0-6784-477b-98b2-41c1d4af15f1,S
2019-11-24 20:30:06,631ca7d0-6784-477b-98b2-41c1d4af15f1,A
2019-11-24 20:34:01,631ca7d0-6784-477b-98b2-41c1d4af15f1,S
2019-11-24 20:36:46,631ca7d0-6784-477b-98b2-41c1d4af15f1,A
2019-11-24 20:47:34,631ca7d0-6784-477b-98b2-41c1d4af15f1,S
2019-11-24 20:53:11,631ca7d0-6784-477b-98b2-41c1d4af15f1,A
2019-11-24 21:15:45,631ca7d0-6784-477b-98b2-41c1d4af15f1,S
2019-11-24 21:40:06,631ca7d0-6784-477b-98b2-41c1d4af15f1,A
2019-11-24 21:46:41,631ca7d0-6784-477b-98b2-41c1d4af15f1,S
2019-11-24 21:50:07,631ca7d0-6784-477b-98b2-41c1d4af15f1,A
2019-11-24 21:53:01,631ca7d0-6784-477b-98b2-41c1d4af15f1,S
2019-11-24 21:57:46,631ca7d0-6784-477b-98b2-41c1d4af15f1,A
2019-11-24 20:31:00,8fb3967f-de5f-4c47-9ea7-3a6d648e4462,A
2019-11-24 20:49:53,8fb3967f-de5f-4c47-9ea7-3a6d648e4462,S
2019-11-24 20:50:15,8fb3967f-de5f-4c47-9ea7-3a6d648e4462,A
2019-11-24 20:52:59,8fb3967f-de5f-4c47-9ea7-3a6d648e4462,S
2019-11-24 20:56:59,8fb3967f-de5f-4c47-9ea7-3a6d648e4462,A
2019-11-24 20:57:29,8fb3967f-de5f-4c47-9ea7-3a6d648e4462,S
2019-11-24 21:00:30,8fb3967f-de5f-4c47-9ea7-3a6d648e4462,A
2019-11-24 21:02:09,8fb3967f-de5f-4c47-9ea7-3a6d648e4462,S
2019-11-24 21:16:38,8fb3967f-de5f-4c47-9ea7-3a6d648e4462,A
2019-11-24 21:18:14,8fb3967f-de5f-4c47-9ea7-3a6d648e4462,S
2019-11-24 21:18:20,8fb3967f-de5f-4c47-9ea7-3a6d648e4462,A
2019-11-24 21:20:40,8fb3967f-de5f-4c47-9ea7-3a6d648e4462,S
2019-11-24 21:20:47,8fb3967f-de5f-4c47-9ea7-3a6d648e4462,A
2019-11-24 21:22:50,8fb3967f-de5f-4c47-9ea7-3a6d648e4462,S
2019-11-24 21:26:51,8fb3967f-de5f-4c47-9ea7-3a6d648e4462,A
2019-11-24 21:37:34,8fb3967f-de5f-4c47-9ea7-3a6d648e4462,S
2019-11-24 21:43:18,8fb3967f-de5f-4c47-9ea7-3a6d648e4462,A
2019-11-24 21:45:32,8fb3967f-de5f-4c47-9ea7-3a6d648e4462,S
2019-11-24 21:48:58,8fb3967f-de5f-4c47-9ea7-3a6d648e4462,A
2019-11-24 21:52:31,8fb3967f-de5f-4c47-9ea7-3a6d648e4462,S
2019-11-24 22:10:16,8fb3967f-de5f-4c47-9ea7-3a6d648e4462,A
2019-11-24 20:43:10,24293a3b-9a14-4dcd-9e62-3114796b9151,S
2019-11-24 20:43:53,24293a3b-9a14-4dcd-9e62-3114796b9151,A
2019-11-24 20:47:24,24293a3b-9a14-4dcd-9e62-3114796b9151,S
2019-11-24 20:51:27,24293a3b-9a14-4dcd-9e62-3114796b9151,A
2019-11-24 20:59:16,24293a3b-9a14-4dcd-9e62-3114796b9151,S
2019-11-24 21:05:45,24293a3b-9a14-4dcd-9e62-3114796b9151,A
2019-11-24 21:09:55,24293a3b-9a14-4dcd-9e62-3114796b9151,S
2019-11-24 21:11:21,24293a3b-9a14-4dcd-9e62-3114796b9151,A
2019-11-24 21:21:45,24293a3b-9a14-4dcd-9e62-3114796b9151,S
2019-11-24 21:22:01,24293a3b-9a14-4dcd-9e62-3114796b9151,A
2019-11-24 21:22:17,24293a3b-9a14-4dcd-9e62-3114796b9151,S
2019-11-24 21:23:46,24293a3b-9a14-4dcd-9e62-3114796b9151,A
2019-11-24 21:31:36,24293a3b-9a14-4dcd-9e62-3114796b9151,S
2019-11-24 21:35:33,24293a3b-9a14-4dcd-9e62-3114796b9151,A
2019-11-24 21:38:11,24293a3b-9a14-4dcd-9e62-3114796b9151,S
2019-11-24 21:40:39,24293a3b-9a14-4dcd-9e62-3114796b9151,A
2019-11-24 21:42:46,24293a3b-9a14-4dcd-9e62-3114796b9151,S
2019-11-24 21:47:26,24293a3b-9a14-4dcd-9e62-3114796b9151,A
2019-11-24 21:53:48,24293a3b-9a14-4dcd-9e62-3114796b9151,S
2019-11-24 21:53:58,24293a3b-9a14-4dcd-9e62-3114796b9151,A
2019-11-24 21:54:37,24293a3b-9a14-4dcd-9e62-3114796b9151,S
2019-11-24 21:56:55,24293a3b-9a14-4dcd-9e62-3114796b9151,A
