date,actor,success,from,to
2019-10-26 06:32:56,4dd943ee-6ef0-4b51-b2d6-f0c721654b7e,1,fff1decc-805e-4b27-a73f-a084a12ac5df,57b2957f-9dfc-44cd-b6c0-84299ec898a7
2019-10-26 07:04:46,9d9ec08a-da59-4091-9562-d947f515aa61,1,fff1decc-805e-4b27-a73f-a084a12ac5df,58a3a551-b123-4901-9063-a4b6cbeda735
2019-10-26 07:04:27,9b2b0af0-5506-48ef-9d0a-8403ae70b3b1,1,b7ddc5c6-b21f-40a7-a2b0-98b5e2fa3767,b7ddc5c6-b21f-40a7-a2b0-98b5e2fa3767
2019-10-26 06:29:55,d67e343c-60bd-4c04-b357-752cab27732d,1,213f2504-ff77-4ecc-96f5-1cd1e91f3d40,d23f36b7-ac5a-44c1-ab62-dfe11365769e
2019-10-26 06:44:26,642001e0-a860-4d30-9aaa-91aa9d970b67,1,58a3a551-b123-4901-9063-a4b6cbeda735,aaf302b3-2e98-47b5-9c2c-3abb53c2d0db
2019-10-26 06:51:08,add77d7d-eff1-4fd4-bb59-1d0b9e3938e4,1,58a3a551-b123-4901-9063-a4b6cbeda735,57b2957f-9dfc-44cd-b6c0-84299ec898a7
2019-10-26 06:35:16,ee2efc81-c0ba-489a-b5a8-cbbaf3e8866e,1,a65f3c1b-b018-4b0c-8a6b-64e152e34059,213f2504-ff77-4ecc-96f5-1cd1e91f3d40
2019-10-26 06:38:57,5d4b025e-ecdc-46b0-8bdb-efeca4b59397,1,a65f3c1b-b018-4b0c-8a6b-64e152e34059,3a63796a-cf77-45cd-bbb4-28068d92d656
2019-10-26 06:41:37,171438c8-a269-4aaf-9e2f-590472f4b4a7,1,a65f3c1b-b018-4b0c-8a6b-64e152e34059,ac9dc19b-86cd-44e0-b8d6-2bc8de912800
2019-10-26 06:45:38,caa59675-ead1-40b1-85ea-ddbdb22298e8,1,a65f3c1b-b018-4b0c-8a6b-64e152e34059,3a63796a-cf77-45cd-bbb4-28068d92d656
2019-10-26 06:50:58,e54a627f-fc06-428c-87e6-94f8d52b90b9,1,a65f3c1b-b018-4b0c-8a6b-64e152e34059,3a63796a-cf77-45cd-bbb4-28068d92d656
2019-10-26 06:45:06,642001e0-a860-4d30-9aaa-91aa9d970b67,1,aaf302b3-2e98-47b5-9c2c-3abb53c2d0db,3a63796a-cf77-45cd-bbb4-28068d92d656
2019-10-26 06:47:47,7d3ac490-218b-47da-9ebe-337880818a89,1,aaf302b3-2e98-47b5-9c2c-3abb53c2d0db,cd494ef8-ae9d-4ec8-aa06-14f8b35a5c1e
2019-10-26 06:41:06,90162e65-cfeb-4552-8ee4-d1156cfc483b,1,cd494ef8-ae9d-4ec8-aa06-14f8b35a5c1e,00edc77d-ab3e-4d9e-a0d6-52ae29e49afc
2019-10-26 06:53:19,37087bea-0d82-4139-9133-53b2e63416ad,1,cd494ef8-ae9d-4ec8-aa06-14f8b35a5c1e,ac9dc19b-86cd-44e0-b8d6-2bc8de912800
2019-10-26 06:31:16,ac33d0fa-7a94-4ae7-9692-dc3e589589ec,1,3a63796a-cf77-45cd-bbb4-28068d92d656,58a3a551-b123-4901-9063-a4b6cbeda735
2019-10-26 06:47:36,642001e0-a860-4d30-9aaa-91aa9d970b67,1,3a63796a-cf77-45cd-bbb4-28068d92d656,aaf302b3-2e98-47b5-9c2c-3abb53c2d0db
2019-10-26 06:47:36,1dd3a57a-55ed-49b9-971c-1ce69853f674,1,3a63796a-cf77-45cd-bbb4-28068d92d656,f942d3c1-e5a3-4832-8860-693adee77e38
2019-10-26 06:43:35,7ac0aac5-1948-4866-8a10-195a8ffcc0a2,1,ec82316d-696b-4e69-a612-8dfe36ef0259,57b2957f-9dfc-44cd-b6c0-84299ec898a7
2019-10-26 06:44:06,642001e0-a860-4d30-9aaa-91aa9d970b67,1,ec82316d-696b-4e69-a612-8dfe36ef0259,58a3a551-b123-4901-9063-a4b6cbeda735
2019-10-26 06:43:26,1bb2d56f-f0ec-4184-821f-34a2e4e9a3bd,1,00edc77d-ab3e-4d9e-a0d6-52ae29e49afc,213f2504-ff77-4ecc-96f5-1cd1e91f3d40
2019-10-26 06:56:47,7ac0aac5-1948-4866-8a10-195a8ffcc0a2,1,00edc77d-ab3e-4d9e-a0d6-52ae29e49afc,57b2957f-9dfc-44cd-b6c0-84299ec898a7
2019-10-26 06:57:31,90162e65-cfeb-4552-8ee4-d1156cfc483b,1,00edc77d-ab3e-4d9e-a0d6-52ae29e49afc,d23f36b7-ac5a-44c1-ab62-dfe11365769e
2019-10-26 07:07:05,aaa6244f-23cf-44ad-9877-1ca720aa5864,1,00edc77d-ab3e-4d9e-a0d6-52ae29e49afc,0e1f1277-f7a8-4c55-bcab-5411ae77d64d
2019-10-26 06:38:56,8a603ce3-9430-4480-8664-5c94cf826799,1,0e1f1277-f7a8-4c55-bcab-5411ae77d64d,f942d3c1-e5a3-4832-8860-693adee77e38
2019-10-26 06:42:46,7d3ac490-218b-47da-9ebe-337880818a89,1,0e1f1277-f7a8-4c55-bcab-5411ae77d64d,aaf302b3-2e98-47b5-9c2c-3abb53c2d0db
2019-10-26 06:37:06,1dd3a57a-55ed-49b9-971c-1ce69853f674,1,f942d3c1-e5a3-4832-8860-693adee77e38,3a63796a-cf77-45cd-bbb4-28068d92d656
2019-10-26 06:45:26,add77d7d-eff1-4fd4-bb59-1d0b9e3938e4,1,ac9dc19b-86cd-44e0-b8d6-2bc8de912800,58a3a551-b123-4901-9063-a4b6cbeda735
2019-10-26 06:57:21,09545164-c013-46cb-9075-206e40a465a9,1,ac9dc19b-86cd-44e0-b8d6-2bc8de912800,57b2957f-9dfc-44cd-b6c0-84299ec898a7
2019-10-26 06:58:10,01176e62-94ba-47b8-811c-dd2ec63923ee,1,ac9dc19b-86cd-44e0-b8d6-2bc8de912800,ec82316d-696b-4e69-a612-8dfe36ef0259
2019-10-26 06:58:12,53f4f38f-8cc7-41c5-a761-26baf7ffe73f,1,ac9dc19b-86cd-44e0-b8d6-2bc8de912800,58a3a551-b123-4901-9063-a4b6cbeda735
2019-10-26 06:25:12,d67e343c-60bd-4c04-b357-752cab27732d,1,8aa407ea-a609-4358-bf3a-0326b602428a,213f2504-ff77-4ecc-96f5-1cd1e91f3d40
2019-10-26 06:25:12,28523bf6-a182-4495-8e8c-22f5e07159fe,1,8aa407ea-a609-4358-bf3a-0326b602428a,f0cf8177-3684-4b37-acca-e96f425090a8
2019-10-26 06:25:12,f7004484-f7db-4167-902e-ff06a3fc1bb5,1,8aa407ea-a609-4358-bf3a-0326b602428a,213f2504-ff77-4ecc-96f5-1cd1e91f3d40
2019-10-26 06:26:16,406a7f21-bfe2-451b-8782-51d0c3da5af7,1,8aa407ea-a609-4358-bf3a-0326b602428a,ae767122-96da-41ba-b9fb-21ad4d4370c9
2019-10-26 06:26:16,155e642f-4411-420a-bcfc-38d38c59ea86,1,8aa407ea-a609-4358-bf3a-0326b602428a,a65f3c1b-b018-4b0c-8a6b-64e152e34059
2019-10-26 06:26:16,caa59675-ead1-40b1-85ea-ddbdb22298e8,1,8aa407ea-a609-4358-bf3a-0326b602428a,a65f3c1b-b018-4b0c-8a6b-64e152e34059
2019-10-26 06:27:20,347b2cc6-7b56-430f-9c01-01f641c0adc7,1,8aa407ea-a609-4358-bf3a-0326b602428a,c1456af5-1ee4-45b6-8fe6-5ec26c8bd2c2
2019-10-26 06:27:20,0e1b976b-d630-4a81-9cdf-ee18d0086c5f,1,8aa407ea-a609-4358-bf3a-0326b602428a,a65f3c1b-b018-4b0c-8a6b-64e152e34059
2019-10-26 06:27:20,5d4b025e-ecdc-46b0-8bdb-efeca4b59397,1,8aa407ea-a609-4358-bf3a-0326b602428a,a65f3c1b-b018-4b0c-8a6b-64e152e34059
2019-10-26 06:28:24,3621c57c-6d33-427f-8be8-2446e92f6286,1,8aa407ea-a609-4358-bf3a-0326b602428a,0961cff8-9979-4f6e-bc78-3cd578d75c96
2019-10-26 06:28:24,fd5c899d-2f48-446f-8253-772373027c69,1,8aa407ea-a609-4358-bf3a-0326b602428a,3a63796a-cf77-45cd-bbb4-28068d92d656
2019-10-26 06:28:24,ac33d0fa-7a94-4ae7-9692-dc3e589589ec,1,8aa407ea-a609-4358-bf3a-0326b602428a,3a63796a-cf77-45cd-bbb4-28068d92d656
2019-10-26 06:29:27,5956bac1-9bef-4e65-af46-7f4428b42e13,1,8aa407ea-a609-4358-bf3a-0326b602428a,213f2504-ff77-4ecc-96f5-1cd1e91f3d40
2019-10-26 06:29:27,6678f72a-5adf-44e2-ae3f-b4b7e02fdb5d,1,8aa407ea-a609-4358-bf3a-0326b602428a,cc489c49-e4d4-487a-b613-e532f8e7f23c
2019-10-26 06:29:27,4dd943ee-6ef0-4b51-b2d6-f0c721654b7e,1,8aa407ea-a609-4358-bf3a-0326b602428a,fff1decc-805e-4b27-a73f-a084a12ac5df
2019-10-26 06:30:31,71c4b05e-c870-4679-8451-6a9e9301ad46,1,8aa407ea-a609-4358-bf3a-0326b602428a,ffe5f3af-7752-42d9-92cd-c81ae3fdabc1
2019-10-26 06:30:31,25e1d695-dc93-448b-bb4d-afc33d21f5be,1,8aa407ea-a609-4358-bf3a-0326b602428a,fff1decc-805e-4b27-a73f-a084a12ac5df
2019-10-26 06:30:31,ada4470d-7bac-4344-a665-66f6bcf77f5b,1,8aa407ea-a609-4358-bf3a-0326b602428a,213f2504-ff77-4ecc-96f5-1cd1e91f3d40
2019-10-26 06:31:35,62ac0d56-bf9e-4bec-bc9a-6c741de314e2,1,8aa407ea-a609-4358-bf3a-0326b602428a,ac9dc19b-86cd-44e0-b8d6-2bc8de912800
2019-10-26 06:31:35,add77d7d-eff1-4fd4-bb59-1d0b9e3938e4,1,8aa407ea-a609-4358-bf3a-0326b602428a,ac9dc19b-86cd-44e0-b8d6-2bc8de912800
2019-10-26 06:31:35,3bd7f708-9d9a-47f6-9425-0672830964a0,1,8aa407ea-a609-4358-bf3a-0326b602428a,156135a5-6a96-48f1-960b-84ced09acb04
2019-10-26 06:32:39,580eeed6-9201-4645-be19-cc7f72c5780a,1,8aa407ea-a609-4358-bf3a-0326b602428a,57b2957f-9dfc-44cd-b6c0-84299ec898a7
2019-10-26 06:32:39,0b15b292-1b97-46f9-beea-229a94dd7947,1,8aa407ea-a609-4358-bf3a-0326b602428a,46639f87-0f89-4aa0-9154-5447353f163b
2019-10-26 06:32:39,261eeddb-af4d-4b29-889e-68938f835b02,1,8aa407ea-a609-4358-bf3a-0326b602428a,57b2957f-9dfc-44cd-b6c0-84299ec898a7
2019-10-26 06:33:42,1a181048-95a4-413d-a91e-db22b63ba3b3,1,8aa407ea-a609-4358-bf3a-0326b602428a,b10c1e49-4182-46f8-93b9-c1fd2e5b50a6
2019-10-26 06:33:42,7ac0aac5-1948-4866-8a10-195a8ffcc0a2,1,8aa407ea-a609-4358-bf3a-0326b602428a,ec82316d-696b-4e69-a612-8dfe36ef0259
2019-10-26 06:33:42,68492fb2-af75-48d6-86e9-e43e47add72a,1,8aa407ea-a609-4358-bf3a-0326b602428a,b7ddc5c6-b21f-40a7-a2b0-98b5e2fa3767
2019-10-26 06:34:46,ab604066-040c-47d6-9015-e43c0c0d4fcc,1,8aa407ea-a609-4358-bf3a-0326b602428a,e787a37e-9214-49f8-95a2-6e8ba6af50ce
2019-10-26 06:34:46,ee2efc81-c0ba-489a-b5a8-cbbaf3e8866e,1,8aa407ea-a609-4358-bf3a-0326b602428a,a65f3c1b-b018-4b0c-8a6b-64e152e34059
2019-10-26 06:34:46,2c194fb9-7258-4f3d-8550-afcd650a8c7f,1,8aa407ea-a609-4358-bf3a-0326b602428a,a65f3c1b-b018-4b0c-8a6b-64e152e34059
2019-10-26 06:35:50,55327509-e510-4f63-b4e5-48bfb7f0fee3,1,8aa407ea-a609-4358-bf3a-0326b602428a,0176cf6b-20c3-452b-b010-e3d98fa33525
2019-10-26 06:35:50,1dd3a57a-55ed-49b9-971c-1ce69853f674,1,8aa407ea-a609-4358-bf3a-0326b602428a,f942d3c1-e5a3-4832-8860-693adee77e38
2019-10-26 06:35:50,39c8ae49-e7f3-41e8-ad82-072a3ac52094,1,8aa407ea-a609-4358-bf3a-0326b602428a,f942d3c1-e5a3-4832-8860-693adee77e38
2019-10-26 06:36:53,2043706c-4ffd-48d4-811b-a01dadcb53c9,1,8aa407ea-a609-4358-bf3a-0326b602428a,0e1f1277-f7a8-4c55-bcab-5411ae77d64d
2019-10-26 06:36:53,a30ad2db-124c-4267-a6a7-ec97807fd18c,1,8aa407ea-a609-4358-bf3a-0326b602428a,6df63fed-3e0e-4776-b269-7b5059fe8e43
2019-10-26 06:36:53,8a603ce3-9430-4480-8664-5c94cf826799,1,8aa407ea-a609-4358-bf3a-0326b602428a,0e1f1277-f7a8-4c55-bcab-5411ae77d64d
2019-10-26 06:37:57,12d8c7fd-ec95-465a-9771-8805b374a7da,1,8aa407ea-a609-4358-bf3a-0326b602428a,8d8f0321-03ec-453a-b394-8b5848389615
2019-10-26 06:37:57,7d3ac490-218b-47da-9ebe-337880818a89,1,8aa407ea-a609-4358-bf3a-0326b602428a,0e1f1277-f7a8-4c55-bcab-5411ae77d64d
2019-10-26 06:37:57,f1be3923-a58a-4539-90e8-a06e2a9eac32,1,8aa407ea-a609-4358-bf3a-0326b602428a,0e1f1277-f7a8-4c55-bcab-5411ae77d64d
2019-10-26 06:39:01,90162e65-cfeb-4552-8ee4-d1156cfc483b,1,8aa407ea-a609-4358-bf3a-0326b602428a,cd494ef8-ae9d-4ec8-aa06-14f8b35a5c1e
2019-10-26 06:39:01,2bb9704c-d8cd-47a4-adad-6ce1676e1305,1,8aa407ea-a609-4358-bf3a-0326b602428a,cd494ef8-ae9d-4ec8-aa06-14f8b35a5c1e
2019-10-26 06:39:01,68075102-8199-4332-bf0b-35e0ca93574f,1,8aa407ea-a609-4358-bf3a-0326b602428a,60d76c62-6f0b-4f9e-bfb7-c52cb31d9eaf
2019-10-26 06:40:04,9e1a3ad4-5f20-41de-a9de-555f4eb74199,1,8aa407ea-a609-4358-bf3a-0326b602428a,00edc77d-ab3e-4d9e-a0d6-52ae29e49afc
2019-10-26 06:40:04,3201e7fa-557c-4e66-ab94-e4511d02e600,1,8aa407ea-a609-4358-bf3a-0326b602428a,3f500855-d50f-4391-b363-f3d813e6c8fd
2019-10-26 06:40:04,1bb2d56f-f0ec-4184-821f-34a2e4e9a3bd,1,8aa407ea-a609-4358-bf3a-0326b602428a,00edc77d-ab3e-4d9e-a0d6-52ae29e49afc
2019-10-26 06:41:08,97b2e6c5-85ec-4bf0-81bf-8127588d5487,1,8aa407ea-a609-4358-bf3a-0326b602428a,60e2fd9c-9240-42ef-8a70-16f77a3d7772
2019-10-26 06:41:08,33db57b8-983f-4177-8732-b278ef87ffc0,1,8aa407ea-a609-4358-bf3a-0326b602428a,a65f3c1b-b018-4b0c-8a6b-64e152e34059
2019-10-26 06:41:08,171438c8-a269-4aaf-9e2f-590472f4b4a7,1,8aa407ea-a609-4358-bf3a-0326b602428a,a65f3c1b-b018-4b0c-8a6b-64e152e34059
2019-10-26 06:42:11,bec4e228-e9b5-4918-b397-50b007973db8,1,8aa407ea-a609-4358-bf3a-0326b602428a,ec82316d-696b-4e69-a612-8dfe36ef0259
2019-10-26 06:42:11,40977cc7-d3a5-4264-8052-7e9afc43f70b,1,8aa407ea-a609-4358-bf3a-0326b602428a,8c719591-f451-4af7-8347-aaeafbab9fa2
2019-10-26 06:42:11,642001e0-a860-4d30-9aaa-91aa9d970b67,1,8aa407ea-a609-4358-bf3a-0326b602428a,ec82316d-696b-4e69-a612-8dfe36ef0259
2019-10-26 06:43:15,ecf6bd66-149d-438a-9303-72c108eb575b,1,8aa407ea-a609-4358-bf3a-0326b602428a,fff1decc-805e-4b27-a73f-a084a12ac5df
2019-10-26 06:43:15,9d9ec08a-da59-4091-9562-d947f515aa61,1,8aa407ea-a609-4358-bf3a-0326b602428a,fff1decc-805e-4b27-a73f-a084a12ac5df
2019-10-26 06:43:15,d9068aba-d424-403c-a8ac-df94c5f4bd95,1,8aa407ea-a609-4358-bf3a-0326b602428a,d08c6b39-f28d-48dd-a65b-605bf99423a0
2019-10-26 06:44:19,29480b9f-6c22-4ab8-9eb9-e0fa4b25cf1b,1,8aa407ea-a609-4358-bf3a-0326b602428a,67611144-deaf-43e6-b493-9c55357559b6
2019-10-26 06:44:19,1aa76771-502a-48f8-9a12-1104e712a4c3,1,8aa407ea-a609-4358-bf3a-0326b602428a,ac9dc19b-86cd-44e0-b8d6-2bc8de912800
2019-10-26 06:44:19,e54a627f-fc06-428c-87e6-94f8d52b90b9,1,8aa407ea-a609-4358-bf3a-0326b602428a,a65f3c1b-b018-4b0c-8a6b-64e152e34059
2019-10-26 06:45:23,0c7abfba-8f19-4c52-b18f-a91f15aab61a,1,8aa407ea-a609-4358-bf3a-0326b602428a,a2672112-b759-472e-83c5-b01dd8404c92
2019-10-26 06:45:23,01176e62-94ba-47b8-811c-dd2ec63923ee,1,8aa407ea-a609-4358-bf3a-0326b602428a,ac9dc19b-86cd-44e0-b8d6-2bc8de912800
2019-10-26 06:45:23,74d29d62-8c02-4b52-8de3-5f01beea0e87,1,8aa407ea-a609-4358-bf3a-0326b602428a,ac9dc19b-86cd-44e0-b8d6-2bc8de912800
2019-10-26 06:46:27,e1cffef3-18b1-4aa4-a344-dd53698b0c8e,1,8aa407ea-a609-4358-bf3a-0326b602428a,b3179f48-b3e0-40e4-9202-381ad0d282ab
2019-10-26 06:46:27,66d58ac7-32b8-46ef-a4e8-56996910b30f,1,8aa407ea-a609-4358-bf3a-0326b602428a,cd494ef8-ae9d-4ec8-aa06-14f8b35a5c1e
2019-10-26 06:46:27,37087bea-0d82-4139-9133-53b2e63416ad,1,8aa407ea-a609-4358-bf3a-0326b602428a,cd494ef8-ae9d-4ec8-aa06-14f8b35a5c1e
2019-10-26 06:47:30,7aac529e-0406-49f6-80aa-01fbec3ccd6c,1,8aa407ea-a609-4358-bf3a-0326b602428a,b7ddc5c6-b21f-40a7-a2b0-98b5e2fa3767
2019-10-26 06:47:30,1f915611-1eb9-4b9a-9571-5e174f7bb305,1,8aa407ea-a609-4358-bf3a-0326b602428a,e3e8f2a5-3496-4716-a2b2-e4406199c273
2019-10-26 06:47:30,9b2b0af0-5506-48ef-9d0a-8403ae70b3b1,1,8aa407ea-a609-4358-bf3a-0326b602428a,b7ddc5c6-b21f-40a7-a2b0-98b5e2fa3767
2019-10-26 06:48:34,aaa6244f-23cf-44ad-9877-1ca720aa5864,1,8aa407ea-a609-4358-bf3a-0326b602428a,00edc77d-ab3e-4d9e-a0d6-52ae29e49afc
2019-10-26 06:48:34,61224285-6da1-43e4-92fe-c24550dee568,1,8aa407ea-a609-4358-bf3a-0326b602428a,00edc77d-ab3e-4d9e-a0d6-52ae29e49afc
2019-10-26 06:48:34,83a245d2-deb1-4134-827e-fffde262835e,1,8aa407ea-a609-4358-bf3a-0326b602428a,60259afe-4f03-4118-abd2-a2411dfbcc07
2019-10-26 06:49:38,0d62beb8-9ec2-40b6-9749-39dcebbcb2e0,1,8aa407ea-a609-4358-bf3a-0326b602428a,58a3a551-b123-4901-9063-a4b6cbeda735
2019-10-26 06:49:38,53f4f38f-8cc7-41c5-a761-26baf7ffe73f,1,8aa407ea-a609-4358-bf3a-0326b602428a,ac9dc19b-86cd-44e0-b8d6-2bc8de912800
2019-10-26 06:49:38,1ce936a0-6f5b-4e10-899b-3656b61ed4b1,1,8aa407ea-a609-4358-bf3a-0326b602428a,9af803d2-d164-42bc-9164-7247329a444e
2019-10-26 06:50:41,8fd85bbf-0baa-4ba8-848b-cdc000c520be,1,8aa407ea-a609-4358-bf3a-0326b602428a,58a3a551-b123-4901-9063-a4b6cbeda735
2019-10-26 06:50:41,09545164-c013-46cb-9075-206e40a465a9,1,8aa407ea-a609-4358-bf3a-0326b602428a,ac9dc19b-86cd-44e0-b8d6-2bc8de912800
2019-10-26 06:50:41,e16e0008-56b3-4791-ad5d-6d847abfec73,1,8aa407ea-a609-4358-bf3a-0326b602428a,382e0682-d6b6-43fd-a831-373ade831998
2019-10-26 06:33:16,261eeddb-af4d-4b29-889e-68938f835b02,1,57b2957f-9dfc-44cd-b6c0-84299ec898a7,57b2957f-9dfc-44cd-b6c0-84299ec898a7
2019-10-26 06:44:15,7ac0aac5-1948-4866-8a10-195a8ffcc0a2,1,57b2957f-9dfc-44cd-b6c0-84299ec898a7,00edc77d-ab3e-4d9e-a0d6-52ae29e49afc
2019-10-26 06:51:28,add77d7d-eff1-4fd4-bb59-1d0b9e3938e4,1,57b2957f-9dfc-44cd-b6c0-84299ec898a7,ec82316d-696b-4e69-a612-8dfe36ef0259
2019-10-26 06:57:14,4dd943ee-6ef0-4b51-b2d6-f0c721654b7e,1,57b2957f-9dfc-44cd-b6c0-84299ec898a7,00edc77d-ab3e-4d9e-a0d6-52ae29e49afc
