date,actor,success,from,to
2019-05-03 22:59:49,a763c443-da06-4e48-a86c-1ce31eab6466,1,4c2ee94d-5ff4-4cc3-9368-04aed480372d,deb6a341-9af3-410f-bd8d-fc076c660688
2019-05-03 22:59:49,c9db6bbe-395e-416d-8f89-caa5e76efc19,1,4c2ee94d-5ff4-4cc3-9368-04aed480372d,deb6a341-9af3-410f-bd8d-fc076c660688
2019-05-03 23:15:12,493564cb-dd96-4c3e-ba10-63d78369e48a,1,4c2ee94d-5ff4-4cc3-9368-04aed480372d,98d85ab0-d9a6-4b94-b1c7-61de4b124eef
2019-05-03 23:15:12,8a9c5ed4-40f3-4642-9abc-8a70c37c5fd8,1,4c2ee94d-5ff4-4cc3-9368-04aed480372d,98d85ab0-d9a6-4b94-b1c7-61de4b124eef
2019-05-03 23:15:33,4905c7ec-1a02-4041-9fac-12ed9125729f,1,4c2ee94d-5ff4-4cc3-9368-04aed480372d,98d85ab0-d9a6-4b94-b1c7-61de4b124eef
2019-05-03 23:15:33,cc47c778-7c05-40dc-9bf4-cf7191cae49e,1,4c2ee94d-5ff4-4cc3-9368-04aed480372d,98d85ab0-d9a6-4b94-b1c7-61de4b124eef
2019-05-03 23:17:32,a763c443-da06-4e48-a86c-1ce31eab6466,1,4c2ee94d-5ff4-4cc3-9368-04aed480372d,a5e14a94-2e31-4b82-a111-fc1030f910f9
2019-05-03 23:17:32,c9db6bbe-395e-416d-8f89-caa5e76efc19,1,4c2ee94d-5ff4-4cc3-9368-04aed480372d,a5e14a94-2e31-4b82-a111-fc1030f910f9
2019-05-03 23:25:34,d72676bc-2e8e-4bc3-94a6-96170e680ace,1,4c2ee94d-5ff4-4cc3-9368-04aed480372d,c5dd2c19-21e6-4ca3-bc96-0c3c40bd788a
2019-05-03 23:25:34,476b6272-98c6-4920-a414-c43569572fe5,1,4c2ee94d-5ff4-4cc3-9368-04aed480372d,c5dd2c19-21e6-4ca3-bc96-0c3c40bd788a
2019-05-03 23:34:36,3846fbf9-84fe-4166-8a24-ac5abcbd3f4d,1,4c2ee94d-5ff4-4cc3-9368-04aed480372d,f837236b-9de7-452f-ba54-2f6aaeaf551e
2019-05-03 23:34:36,b2a92cef-1878-4b24-95c1-c54fde55f1df,1,4c2ee94d-5ff4-4cc3-9368-04aed480372d,f837236b-9de7-452f-ba54-2f6aaeaf551e
2019-05-03 23:55:21,26871038-2d84-4cc5-a2f0-ac66edd82ca6,1,4c2ee94d-5ff4-4cc3-9368-04aed480372d,deb6a341-9af3-410f-bd8d-fc076c660688
2019-05-03 23:55:21,47a1e9ae-3b05-4bb5-adb8-5af093984144,1,4c2ee94d-5ff4-4cc3-9368-04aed480372d,deb6a341-9af3-410f-bd8d-fc076c660688
2019-05-03 23:55:42,8c18bdb5-28d0-4e66-a2c0-32985401725d,1,4c2ee94d-5ff4-4cc3-9368-04aed480372d,deb6a341-9af3-410f-bd8d-fc076c660688
2019-05-03 23:55:42,6121d435-354a-471a-b360-2bece7fbfe07,1,4c2ee94d-5ff4-4cc3-9368-04aed480372d,deb6a341-9af3-410f-bd8d-fc076c660688
2019-05-04 00:06:24,0f568865-97fb-45b0-99e3-c92e0048f1af,1,4c2ee94d-5ff4-4cc3-9368-04aed480372d,ce8f201b-8a3f-4286-95ff-83d7c36e9b38
2019-05-04 00:06:24,0638bf2e-5bad-4755-a32f-671fe93ecb6d,1,4c2ee94d-5ff4-4cc3-9368-04aed480372d,ce8f201b-8a3f-4286-95ff-83d7c36e9b38
2019-05-03 22:59:30,eaf01fcb-1785-449b-925e-9d08d7b5d3b3,1,48defc65-d0f9-4edb-8e0a-4e40f323f254,deb6a341-9af3-410f-bd8d-fc076c660688
2019-05-03 22:59:30,cd6850bc-8fbc-4379-946b-bbbf07b7de94,1,48defc65-d0f9-4edb-8e0a-4e40f323f254,deb6a341-9af3-410f-bd8d-fc076c660688
2019-05-03 23:14:52,4905c7ec-1a02-4041-9fac-12ed9125729f,1,48defc65-d0f9-4edb-8e0a-4e40f323f254,4c2ee94d-5ff4-4cc3-9368-04aed480372d
2019-05-03 23:14:52,cc47c778-7c05-40dc-9bf4-cf7191cae49e,1,48defc65-d0f9-4edb-8e0a-4e40f323f254,4c2ee94d-5ff4-4cc3-9368-04aed480372d
2019-05-03 23:15:53,e2d277fd-1024-4afe-8986-4e90658a6f26,1,48defc65-d0f9-4edb-8e0a-4e40f323f254,426be895-7250-417c-8aee-3b8691e568f9
2019-05-03 23:15:53,95539fbe-e63b-4837-999c-ceebe9ee5d05,1,48defc65-d0f9-4edb-8e0a-4e40f323f254,426be895-7250-417c-8aee-3b8691e568f9
2019-05-03 23:38:15,d84b4e13-61cd-4008-8e23-cc2524b22c1d,1,48defc65-d0f9-4edb-8e0a-4e40f323f254,48defc65-d0f9-4edb-8e0a-4e40f323f254
2019-05-03 23:38:15,199141bb-c5a1-4aee-af61-b1e64d9d4e2b,1,48defc65-d0f9-4edb-8e0a-4e40f323f254,426be895-7250-417c-8aee-3b8691e568f9
2019-05-03 23:38:36,d84b4e13-61cd-4008-8e23-cc2524b22c1d,1,48defc65-d0f9-4edb-8e0a-4e40f323f254,48defc65-d0f9-4edb-8e0a-4e40f323f254
2019-05-03 23:38:37,d72676bc-2e8e-4bc3-94a6-96170e680ace,1,48defc65-d0f9-4edb-8e0a-4e40f323f254,48defc65-d0f9-4edb-8e0a-4e40f323f254
2019-05-03 23:38:37,476b6272-98c6-4920-a414-c43569572fe5,1,48defc65-d0f9-4edb-8e0a-4e40f323f254,426be895-7250-417c-8aee-3b8691e568f9
2019-05-03 23:38:56,d72676bc-2e8e-4bc3-94a6-96170e680ace,1,48defc65-d0f9-4edb-8e0a-4e40f323f254,7de296c5-4640-48aa-a17b-718c69b68eed
2019-05-03 23:38:57,d84b4e13-61cd-4008-8e23-cc2524b22c1d,1,48defc65-d0f9-4edb-8e0a-4e40f323f254,7de296c5-4640-48aa-a17b-718c69b68eed
2019-05-03 23:38:57,199141bb-c5a1-4aee-af61-b1e64d9d4e2b,1,48defc65-d0f9-4edb-8e0a-4e40f323f254,7de296c5-4640-48aa-a17b-718c69b68eed
2019-05-03 23:50:18,0f568865-97fb-45b0-99e3-c92e0048f1af,1,48defc65-d0f9-4edb-8e0a-4e40f323f254,c5dd2c19-21e6-4ca3-bc96-0c3c40bd788a
2019-05-03 23:50:18,0638bf2e-5bad-4755-a32f-671fe93ecb6d,1,48defc65-d0f9-4edb-8e0a-4e40f323f254,c5dd2c19-21e6-4ca3-bc96-0c3c40bd788a
2019-05-03 23:50:59,a763c443-da06-4e48-a86c-1ce31eab6466,1,48defc65-d0f9-4edb-8e0a-4e40f323f254,c5dd2c19-21e6-4ca3-bc96-0c3c40bd788a
2019-05-03 23:50:59,c9db6bbe-395e-416d-8f89-caa5e76efc19,1,48defc65-d0f9-4edb-8e0a-4e40f323f254,c5dd2c19-21e6-4ca3-bc96-0c3c40bd788a
2019-05-03 23:54:15,26871038-2d84-4cc5-a2f0-ac66edd82ca6,1,48defc65-d0f9-4edb-8e0a-4e40f323f254,4c2ee94d-5ff4-4cc3-9368-04aed480372d
2019-05-03 23:56:17,44d98a59-b71b-44c5-bf11-917ddcb1169b,1,48defc65-d0f9-4edb-8e0a-4e40f323f254,deb6a341-9af3-410f-bd8d-fc076c660688
2019-05-03 23:21:52,397c275f-d01a-4369-8d70-35a5a4581d0c,1,ce8f201b-8a3f-4286-95ff-83d7c36e9b38,98d85ab0-d9a6-4b94-b1c7-61de4b124eef
2019-05-03 23:21:52,ecd2635d-78f5-4172-b19c-d8f89ae8d193,1,ce8f201b-8a3f-4286-95ff-83d7c36e9b38,98d85ab0-d9a6-4b94-b1c7-61de4b124eef
2019-05-03 23:29:32,f3d3aa38-beaa-465c-a932-d4a3f88ec25d,1,ce8f201b-8a3f-4286-95ff-83d7c36e9b38,a5e14a94-2e31-4b82-a111-fc1030f910f9
2019-05-03 23:29:34,4905c7ec-1a02-4041-9fac-12ed9125729f,1,ce8f201b-8a3f-4286-95ff-83d7c36e9b38,a5e14a94-2e31-4b82-a111-fc1030f910f9
2019-05-03 23:29:34,cc47c778-7c05-40dc-9bf4-cf7191cae49e,1,ce8f201b-8a3f-4286-95ff-83d7c36e9b38,a5e14a94-2e31-4b82-a111-fc1030f910f9
2019-05-03 23:37:16,d84b4e13-61cd-4008-8e23-cc2524b22c1d,1,ce8f201b-8a3f-4286-95ff-83d7c36e9b38,a5e14a94-2e31-4b82-a111-fc1030f910f9
2019-05-03 23:37:16,199141bb-c5a1-4aee-af61-b1e64d9d4e2b,1,ce8f201b-8a3f-4286-95ff-83d7c36e9b38,a5e14a94-2e31-4b82-a111-fc1030f910f9
2019-05-03 23:37:36,a763c443-da06-4e48-a86c-1ce31eab6466,1,ce8f201b-8a3f-4286-95ff-83d7c36e9b38,a5e14a94-2e31-4b82-a111-fc1030f910f9
2019-05-03 23:37:36,c9db6bbe-395e-416d-8f89-caa5e76efc19,1,ce8f201b-8a3f-4286-95ff-83d7c36e9b38,a5e14a94-2e31-4b82-a111-fc1030f910f9
2019-05-03 23:38:18,d72676bc-2e8e-4bc3-94a6-96170e680ace,1,ce8f201b-8a3f-4286-95ff-83d7c36e9b38,48defc65-d0f9-4edb-8e0a-4e40f323f254
2019-05-03 23:38:18,476b6272-98c6-4920-a414-c43569572fe5,1,ce8f201b-8a3f-4286-95ff-83d7c36e9b38,48defc65-d0f9-4edb-8e0a-4e40f323f254
2019-05-03 23:41:17,b2a92cef-1878-4b24-95c1-c54fde55f1df,1,ce8f201b-8a3f-4286-95ff-83d7c36e9b38,c5dd2c19-21e6-4ca3-bc96-0c3c40bd788a
2019-05-03 23:41:17,3846fbf9-84fe-4166-8a24-ac5abcbd3f4d,1,ce8f201b-8a3f-4286-95ff-83d7c36e9b38,c5dd2c19-21e6-4ca3-bc96-0c3c40bd788a
2019-05-04 00:00:22,26871038-2d84-4cc5-a2f0-ac66edd82ca6,1,ce8f201b-8a3f-4286-95ff-83d7c36e9b38,deb6a341-9af3-410f-bd8d-fc076c660688
2019-05-04 00:00:22,47a1e9ae-3b05-4bb5-adb8-5af093984144,1,ce8f201b-8a3f-4286-95ff-83d7c36e9b38,deb6a341-9af3-410f-bd8d-fc076c660688
2019-05-04 00:13:03,44d98a59-b71b-44c5-bf11-917ddcb1169b,1,ce8f201b-8a3f-4286-95ff-83d7c36e9b38,7f61ff62-a077-410a-a0b4-e8311442e693
2019-05-04 00:13:03,6858d72e-29bb-43b2-8a2c-740824ae8c48,1,ce8f201b-8a3f-4286-95ff-83d7c36e9b38,7f61ff62-a077-410a-a0b4-e8311442e693
2019-05-04 00:17:25,275ce862-2b33-4a2a-8b06-72e8583924d4,1,ce8f201b-8a3f-4286-95ff-83d7c36e9b38,f837236b-9de7-452f-ba54-2f6aaeaf551e
2019-05-04 00:17:25,a846ca8e-d6bf-4a34-88ac-95065d17c88e,1,ce8f201b-8a3f-4286-95ff-83d7c36e9b38,f837236b-9de7-452f-ba54-2f6aaeaf551e
2019-05-04 00:17:44,a68e432b-42a5-4888-8c79-79d70adaa663,1,ce8f201b-8a3f-4286-95ff-83d7c36e9b38,f837236b-9de7-452f-ba54-2f6aaeaf551e
2019-05-04 00:17:44,e32aac07-4cd4-4a7c-9863-7c266c8973f8,1,ce8f201b-8a3f-4286-95ff-83d7c36e9b38,f837236b-9de7-452f-ba54-2f6aaeaf551e
2019-05-03 23:26:09,44d98a59-b71b-44c5-bf11-917ddcb1169b,1,c5dd2c19-21e6-4ca3-bc96-0c3c40bd788a,7de296c5-4640-48aa-a17b-718c69b68eed
2019-05-03 23:26:09,6858d72e-29bb-43b2-8a2c-740824ae8c48,1,c5dd2c19-21e6-4ca3-bc96-0c3c40bd788a,7de296c5-4640-48aa-a17b-718c69b68eed
2019-05-03 23:28:10,0f568865-97fb-45b0-99e3-c92e0048f1af,1,c5dd2c19-21e6-4ca3-bc96-0c3c40bd788a,20f189f4-2c4b-4dbc-88b8-5ca9af3d7925
2019-05-03 23:28:10,0638bf2e-5bad-4755-a32f-671fe93ecb6d,1,c5dd2c19-21e6-4ca3-bc96-0c3c40bd788a,20f189f4-2c4b-4dbc-88b8-5ca9af3d7925
2019-05-03 23:36:30,d72676bc-2e8e-4bc3-94a6-96170e680ace,1,c5dd2c19-21e6-4ca3-bc96-0c3c40bd788a,3a0f1021-9cec-414c-8cff-5393f4ac6fd0
2019-05-03 23:36:30,476b6272-98c6-4920-a414-c43569572fe5,1,c5dd2c19-21e6-4ca3-bc96-0c3c40bd788a,3a0f1021-9cec-414c-8cff-5393f4ac6fd0
2019-05-03 23:42:12,230f6ecb-0ab3-4616-8355-10e634124a57,1,c5dd2c19-21e6-4ca3-bc96-0c3c40bd788a,7de296c5-4640-48aa-a17b-718c69b68eed
2019-05-03 23:42:12,d23fcafd-5f0f-4e3d-83e9-b091fda516d1,1,c5dd2c19-21e6-4ca3-bc96-0c3c40bd788a,7de296c5-4640-48aa-a17b-718c69b68eed
2019-05-03 23:50:52,0f568865-97fb-45b0-99e3-c92e0048f1af,1,c5dd2c19-21e6-4ca3-bc96-0c3c40bd788a,4c2ee94d-5ff4-4cc3-9368-04aed480372d
2019-05-03 23:50:53,0638bf2e-5bad-4755-a32f-671fe93ecb6d,1,c5dd2c19-21e6-4ca3-bc96-0c3c40bd788a,4c2ee94d-5ff4-4cc3-9368-04aed480372d
2019-05-03 23:51:14,f3d3aa38-beaa-465c-a932-d4a3f88ec25d,1,c5dd2c19-21e6-4ca3-bc96-0c3c40bd788a,3a0f1021-9cec-414c-8cff-5393f4ac6fd0
2019-05-03 23:51:14,2a2d6043-44a3-4a91-ba44-62f0b80f0662,1,c5dd2c19-21e6-4ca3-bc96-0c3c40bd788a,3a0f1021-9cec-414c-8cff-5393f4ac6fd0
2019-05-04 00:09:16,44d98a59-b71b-44c5-bf11-917ddcb1169b,1,c5dd2c19-21e6-4ca3-bc96-0c3c40bd788a,20f189f4-2c4b-4dbc-88b8-5ca9af3d7925
2019-05-04 00:09:16,6858d72e-29bb-43b2-8a2c-740824ae8c48,1,c5dd2c19-21e6-4ca3-bc96-0c3c40bd788a,20f189f4-2c4b-4dbc-88b8-5ca9af3d7925
2019-05-04 00:10:56,a763c443-da06-4e48-a86c-1ce31eab6466,1,c5dd2c19-21e6-4ca3-bc96-0c3c40bd788a,98d85ab0-d9a6-4b94-b1c7-61de4b124eef
2019-05-04 00:10:56,c9db6bbe-395e-416d-8f89-caa5e76efc19,1,c5dd2c19-21e6-4ca3-bc96-0c3c40bd788a,98d85ab0-d9a6-4b94-b1c7-61de4b124eef
2019-05-04 00:27:00,230f6ecb-0ab3-4616-8355-10e634124a57,1,c5dd2c19-21e6-4ca3-bc96-0c3c40bd788a,426be895-7250-417c-8aee-3b8691e568f9
2019-05-04 00:27:00,d23fcafd-5f0f-4e3d-83e9-b091fda516d1,1,c5dd2c19-21e6-4ca3-bc96-0c3c40bd788a,426be895-7250-417c-8aee-3b8691e568f9
2019-05-03 22:51:28,174748f3-2d68-4fbc-bec4-0359601a3a3c,1,deb6a341-9af3-410f-bd8d-fc076c660688,f837236b-9de7-452f-ba54-2f6aaeaf551e
2019-05-03 22:51:28,8a85a5c6-5005-4a63-b6e0-f4d2c71f197b,1,deb6a341-9af3-410f-bd8d-fc076c660688,f837236b-9de7-452f-ba54-2f6aaeaf551e
2019-05-03 23:00:28,a763c443-da06-4e48-a86c-1ce31eab6466,1,deb6a341-9af3-410f-bd8d-fc076c660688,f837236b-9de7-452f-ba54-2f6aaeaf551e
2019-05-03 23:00:28,c9db6bbe-395e-416d-8f89-caa5e76efc19,1,deb6a341-9af3-410f-bd8d-fc076c660688,f837236b-9de7-452f-ba54-2f6aaeaf551e
2019-05-03 23:04:28,eaf01fcb-1785-449b-925e-9d08d7b5d3b3,1,deb6a341-9af3-410f-bd8d-fc076c660688,a5e14a94-2e31-4b82-a111-fc1030f910f9
2019-05-03 23:04:28,cd6850bc-8fbc-4379-946b-bbbf07b7de94,1,deb6a341-9af3-410f-bd8d-fc076c660688,a5e14a94-2e31-4b82-a111-fc1030f910f9
2019-05-03 23:27:33,230f6ecb-0ab3-4616-8355-10e634124a57,1,deb6a341-9af3-410f-bd8d-fc076c660688,c5dd2c19-21e6-4ca3-bc96-0c3c40bd788a
2019-05-03 23:27:33,d23fcafd-5f0f-4e3d-83e9-b091fda516d1,1,deb6a341-9af3-410f-bd8d-fc076c660688,c5dd2c19-21e6-4ca3-bc96-0c3c40bd788a
2019-05-03 23:27:51,0f568865-97fb-45b0-99e3-c92e0048f1af,1,deb6a341-9af3-410f-bd8d-fc076c660688,c5dd2c19-21e6-4ca3-bc96-0c3c40bd788a
2019-05-03 23:47:15,f3d3aa38-beaa-465c-a932-d4a3f88ec25d,1,deb6a341-9af3-410f-bd8d-fc076c660688,2da1fd53-ce04-440d-8988-b94143f31cf8
2019-05-03 23:47:15,2a2d6043-44a3-4a91-ba44-62f0b80f0662,1,deb6a341-9af3-410f-bd8d-fc076c660688,2da1fd53-ce04-440d-8988-b94143f31cf8
2019-05-03 23:49:15,eaf01fcb-1785-449b-925e-9d08d7b5d3b3,1,deb6a341-9af3-410f-bd8d-fc076c660688,426be895-7250-417c-8aee-3b8691e568f9
2019-05-03 23:49:15,cd6850bc-8fbc-4379-946b-bbbf07b7de94,1,deb6a341-9af3-410f-bd8d-fc076c660688,426be895-7250-417c-8aee-3b8691e568f9
2019-05-03 23:55:56,8c18bdb5-28d0-4e66-a2c0-32985401725d,1,deb6a341-9af3-410f-bd8d-fc076c660688,7de296c5-4640-48aa-a17b-718c69b68eed
2019-05-03 23:55:56,6121d435-354a-471a-b360-2bece7fbfe07,1,deb6a341-9af3-410f-bd8d-fc076c660688,7de296c5-4640-48aa-a17b-718c69b68eed
2019-05-03 23:56:35,44d98a59-b71b-44c5-bf11-917ddcb1169b,1,deb6a341-9af3-410f-bd8d-fc076c660688,7de296c5-4640-48aa-a17b-718c69b68eed
2019-05-03 23:56:35,6858d72e-29bb-43b2-8a2c-740824ae8c48,1,deb6a341-9af3-410f-bd8d-fc076c660688,7de296c5-4640-48aa-a17b-718c69b68eed
2019-05-03 23:58:57,26871038-2d84-4cc5-a2f0-ac66edd82ca6,1,deb6a341-9af3-410f-bd8d-fc076c660688,2da1fd53-ce04-440d-8988-b94143f31cf8
2019-05-03 23:58:57,47a1e9ae-3b05-4bb5-adb8-5af093984144,1,deb6a341-9af3-410f-bd8d-fc076c660688,2da1fd53-ce04-440d-8988-b94143f31cf8
2019-05-04 00:14:39,26871038-2d84-4cc5-a2f0-ac66edd82ca6,1,deb6a341-9af3-410f-bd8d-fc076c660688,a5e14a94-2e31-4b82-a111-fc1030f910f9
2019-05-04 00:14:39,47a1e9ae-3b05-4bb5-adb8-5af093984144,1,deb6a341-9af3-410f-bd8d-fc076c660688,a5e14a94-2e31-4b82-a111-fc1030f910f9
2019-05-03 23:06:34,b2a92cef-1878-4b24-95c1-c54fde55f1df,1,7de296c5-4640-48aa-a17b-718c69b68eed,2af7023a-38cf-47c2-97a6-4e32d749bf5f
2019-05-03 23:06:34,3846fbf9-84fe-4166-8a24-ac5abcbd3f4d,1,7de296c5-4640-48aa-a17b-718c69b68eed,2af7023a-38cf-47c2-97a6-4e32d749bf5f
2019-05-03 23:06:55,9b51a1ff-2bde-4e3e-a950-74bebe14603c,1,7de296c5-4640-48aa-a17b-718c69b68eed,a5e14a94-2e31-4b82-a111-fc1030f910f9
2019-05-03 23:06:55,0c1f5631-061d-4dc2-833d-e649bf5acbda,1,7de296c5-4640-48aa-a17b-718c69b68eed,a5e14a94-2e31-4b82-a111-fc1030f910f9
2019-05-03 23:13:35,a763c443-da06-4e48-a86c-1ce31eab6466,1,7de296c5-4640-48aa-a17b-718c69b68eed,7f61ff62-a077-410a-a0b4-e8311442e693
2019-05-03 23:13:35,c9db6bbe-395e-416d-8f89-caa5e76efc19,1,7de296c5-4640-48aa-a17b-718c69b68eed,7f61ff62-a077-410a-a0b4-e8311442e693
2019-05-03 23:18:14,0f568865-97fb-45b0-99e3-c92e0048f1af,1,7de296c5-4640-48aa-a17b-718c69b68eed,deb6a341-9af3-410f-bd8d-fc076c660688
2019-05-03 23:18:36,eaf01fcb-1785-449b-925e-9d08d7b5d3b3,1,7de296c5-4640-48aa-a17b-718c69b68eed,deb6a341-9af3-410f-bd8d-fc076c660688
2019-05-03 23:18:36,cd6850bc-8fbc-4379-946b-bbbf07b7de94,1,7de296c5-4640-48aa-a17b-718c69b68eed,deb6a341-9af3-410f-bd8d-fc076c660688
2019-05-03 23:27:53,0638bf2e-5bad-4755-a32f-671fe93ecb6d,1,7de296c5-4640-48aa-a17b-718c69b68eed,c5dd2c19-21e6-4ca3-bc96-0c3c40bd788a
2019-05-03 23:35:00,44d98a59-b71b-44c5-bf11-917ddcb1169b,1,7de296c5-4640-48aa-a17b-718c69b68eed,a5e14a94-2e31-4b82-a111-fc1030f910f9
2019-05-03 23:35:00,6858d72e-29bb-43b2-8a2c-740824ae8c48,1,7de296c5-4640-48aa-a17b-718c69b68eed,a5e14a94-2e31-4b82-a111-fc1030f910f9
2019-05-03 23:39:21,d84b4e13-61cd-4008-8e23-cc2524b22c1d,1,7de296c5-4640-48aa-a17b-718c69b68eed,deb6a341-9af3-410f-bd8d-fc076c660688
2019-05-03 23:39:21,199141bb-c5a1-4aee-af61-b1e64d9d4e2b,1,7de296c5-4640-48aa-a17b-718c69b68eed,deb6a341-9af3-410f-bd8d-fc076c660688
2019-05-03 23:42:21,230f6ecb-0ab3-4616-8355-10e634124a57,1,7de296c5-4640-48aa-a17b-718c69b68eed,2af7023a-38cf-47c2-97a6-4e32d749bf5f
2019-05-03 23:42:21,d23fcafd-5f0f-4e3d-83e9-b091fda516d1,1,7de296c5-4640-48aa-a17b-718c69b68eed,2af7023a-38cf-47c2-97a6-4e32d749bf5f
2019-05-03 23:44:21,4ef733e0-9891-4758-b248-7f6151fe9662,1,7de296c5-4640-48aa-a17b-718c69b68eed,deb6a341-9af3-410f-bd8d-fc076c660688
2019-05-03 23:44:21,a3f9064b-6389-44bc-9ace-fdf011d2a87e,1,7de296c5-4640-48aa-a17b-718c69b68eed,deb6a341-9af3-410f-bd8d-fc076c660688
2019-05-03 23:45:02,f3d3aa38-beaa-465c-a932-d4a3f88ec25d,1,7de296c5-4640-48aa-a17b-718c69b68eed,20f189f4-2c4b-4dbc-88b8-5ca9af3d7925
2019-05-03 23:45:02,2a2d6043-44a3-4a91-ba44-62f0b80f0662,1,7de296c5-4640-48aa-a17b-718c69b68eed,20f189f4-2c4b-4dbc-88b8-5ca9af3d7925
2019-05-03 23:53:47,26871038-2d84-4cc5-a2f0-ac66edd82ca6,1,7de296c5-4640-48aa-a17b-718c69b68eed,48defc65-d0f9-4edb-8e0a-4e40f323f254
2019-05-03 23:53:47,47a1e9ae-3b05-4bb5-adb8-5af093984144,1,7de296c5-4640-48aa-a17b-718c69b68eed,f837236b-9de7-452f-ba54-2f6aaeaf551e
2019-05-03 23:56:48,44d98a59-b71b-44c5-bf11-917ddcb1169b,1,7de296c5-4640-48aa-a17b-718c69b68eed,426be895-7250-417c-8aee-3b8691e568f9
2019-05-03 23:56:48,6858d72e-29bb-43b2-8a2c-740824ae8c48,1,7de296c5-4640-48aa-a17b-718c69b68eed,426be895-7250-417c-8aee-3b8691e568f9
2019-05-03 23:57:27,230f6ecb-0ab3-4616-8355-10e634124a57,1,7de296c5-4640-48aa-a17b-718c69b68eed,a5e14a94-2e31-4b82-a111-fc1030f910f9
2019-05-03 23:57:27,d23fcafd-5f0f-4e3d-83e9-b091fda516d1,1,7de296c5-4640-48aa-a17b-718c69b68eed,a5e14a94-2e31-4b82-a111-fc1030f910f9
2019-05-03 23:59:29,a68e432b-42a5-4888-8c79-79d70adaa663,1,7de296c5-4640-48aa-a17b-718c69b68eed,ce8f201b-8a3f-4286-95ff-83d7c36e9b38
2019-05-03 23:59:29,e32aac07-4cd4-4a7c-9863-7c266c8973f8,1,7de296c5-4640-48aa-a17b-718c69b68eed,ce8f201b-8a3f-4286-95ff-83d7c36e9b38
2019-05-04 00:08:11,44d98a59-b71b-44c5-bf11-917ddcb1169b,1,7de296c5-4640-48aa-a17b-718c69b68eed,c5dd2c19-21e6-4ca3-bc96-0c3c40bd788a
2019-05-04 00:08:11,6858d72e-29bb-43b2-8a2c-740824ae8c48,1,7de296c5-4640-48aa-a17b-718c69b68eed,c5dd2c19-21e6-4ca3-bc96-0c3c40bd788a
2019-05-03 22:46:27,898d25df-d8bd-4327-8206-f87e73a7bb17,1,a5e14a94-2e31-4b82-a111-fc1030f910f9,2da1fd53-ce04-440d-8988-b94143f31cf8
2019-05-03 23:07:31,0c1f5631-061d-4dc2-833d-e649bf5acbda,1,a5e14a94-2e31-4b82-a111-fc1030f910f9,20f189f4-2c4b-4dbc-88b8-5ca9af3d7925
2019-05-03 23:07:31,9b51a1ff-2bde-4e3e-a950-74bebe14603c,1,a5e14a94-2e31-4b82-a111-fc1030f910f9,20f189f4-2c4b-4dbc-88b8-5ca9af3d7925
2019-05-03 23:09:35,eaf01fcb-1785-449b-925e-9d08d7b5d3b3,1,a5e14a94-2e31-4b82-a111-fc1030f910f9,3a0f1021-9cec-414c-8cff-5393f4ac6fd0
2019-05-03 23:09:35,cd6850bc-8fbc-4379-946b-bbbf07b7de94,1,a5e14a94-2e31-4b82-a111-fc1030f910f9,3a0f1021-9cec-414c-8cff-5393f4ac6fd0
2019-05-03 23:09:55,4905c7ec-1a02-4041-9fac-12ed9125729f,1,a5e14a94-2e31-4b82-a111-fc1030f910f9,7f61ff62-a077-410a-a0b4-e8311442e693
2019-05-03 23:09:55,cc47c778-7c05-40dc-9bf4-cf7191cae49e,1,a5e14a94-2e31-4b82-a111-fc1030f910f9,7f61ff62-a077-410a-a0b4-e8311442e693
2019-05-03 23:14:17,3846fbf9-84fe-4166-8a24-ac5abcbd3f4d,1,a5e14a94-2e31-4b82-a111-fc1030f910f9,4c2ee94d-5ff4-4cc3-9368-04aed480372d
2019-05-03 23:14:17,b2a92cef-1878-4b24-95c1-c54fde55f1df,1,a5e14a94-2e31-4b82-a111-fc1030f910f9,4c2ee94d-5ff4-4cc3-9368-04aed480372d
2019-05-03 23:17:57,0f568865-97fb-45b0-99e3-c92e0048f1af,1,a5e14a94-2e31-4b82-a111-fc1030f910f9,7de296c5-4640-48aa-a17b-718c69b68eed
2019-05-03 23:18:15,0638bf2e-5bad-4755-a32f-671fe93ecb6d,1,a5e14a94-2e31-4b82-a111-fc1030f910f9,7de296c5-4640-48aa-a17b-718c69b68eed
2019-05-03 23:18:17,eaf01fcb-1785-449b-925e-9d08d7b5d3b3,1,a5e14a94-2e31-4b82-a111-fc1030f910f9,7de296c5-4640-48aa-a17b-718c69b68eed
2019-05-03 23:18:17,cd6850bc-8fbc-4379-946b-bbbf07b7de94,1,a5e14a94-2e31-4b82-a111-fc1030f910f9,7de296c5-4640-48aa-a17b-718c69b68eed
2019-05-03 23:30:43,4905c7ec-1a02-4041-9fac-12ed9125729f,1,a5e14a94-2e31-4b82-a111-fc1030f910f9,3a0f1021-9cec-414c-8cff-5393f4ac6fd0
2019-05-03 23:30:43,cc47c778-7c05-40dc-9bf4-cf7191cae49e,1,a5e14a94-2e31-4b82-a111-fc1030f910f9,3a0f1021-9cec-414c-8cff-5393f4ac6fd0
2019-05-03 23:31:03,397c275f-d01a-4369-8d70-35a5a4581d0c,1,a5e14a94-2e31-4b82-a111-fc1030f910f9,3a0f1021-9cec-414c-8cff-5393f4ac6fd0
2019-05-03 23:31:03,ecd2635d-78f5-4172-b19c-d8f89ae8d193,1,a5e14a94-2e31-4b82-a111-fc1030f910f9,3a0f1021-9cec-414c-8cff-5393f4ac6fd0
2019-05-03 23:33:04,f3d3aa38-beaa-465c-a932-d4a3f88ec25d,1,a5e14a94-2e31-4b82-a111-fc1030f910f9,2af7023a-38cf-47c2-97a6-4e32d749bf5f
2019-05-03 23:33:04,2a2d6043-44a3-4a91-ba44-62f0b80f0662,1,a5e14a94-2e31-4b82-a111-fc1030f910f9,2af7023a-38cf-47c2-97a6-4e32d749bf5f
2019-05-03 23:35:24,d84b4e13-61cd-4008-8e23-cc2524b22c1d,1,a5e14a94-2e31-4b82-a111-fc1030f910f9,f837236b-9de7-452f-ba54-2f6aaeaf551e
2019-05-03 23:35:24,199141bb-c5a1-4aee-af61-b1e64d9d4e2b,1,a5e14a94-2e31-4b82-a111-fc1030f910f9,f837236b-9de7-452f-ba54-2f6aaeaf551e
2019-05-03 23:36:04,a763c443-da06-4e48-a86c-1ce31eab6466,1,a5e14a94-2e31-4b82-a111-fc1030f910f9,3a0f1021-9cec-414c-8cff-5393f4ac6fd0
2019-05-03 23:36:04,c9db6bbe-395e-416d-8f89-caa5e76efc19,1,a5e14a94-2e31-4b82-a111-fc1030f910f9,3a0f1021-9cec-414c-8cff-5393f4ac6fd0
2019-05-03 23:38:05,d84b4e13-61cd-4008-8e23-cc2524b22c1d,1,a5e14a94-2e31-4b82-a111-fc1030f910f9,48defc65-d0f9-4edb-8e0a-4e40f323f254
2019-05-03 23:38:05,199141bb-c5a1-4aee-af61-b1e64d9d4e2b,1,a5e14a94-2e31-4b82-a111-fc1030f910f9,48defc65-d0f9-4edb-8e0a-4e40f323f254
2019-05-03 23:38:24,a763c443-da06-4e48-a86c-1ce31eab6466,1,a5e14a94-2e31-4b82-a111-fc1030f910f9,48defc65-d0f9-4edb-8e0a-4e40f323f254
2019-05-03 23:38:24,c9db6bbe-395e-416d-8f89-caa5e76efc19,1,a5e14a94-2e31-4b82-a111-fc1030f910f9,48defc65-d0f9-4edb-8e0a-4e40f323f254
2019-05-03 23:40:06,44d98a59-b71b-44c5-bf11-917ddcb1169b,1,a5e14a94-2e31-4b82-a111-fc1030f910f9,3a0f1021-9cec-414c-8cff-5393f4ac6fd0
2019-05-03 23:40:06,6858d72e-29bb-43b2-8a2c-740824ae8c48,1,a5e14a94-2e31-4b82-a111-fc1030f910f9,3a0f1021-9cec-414c-8cff-5393f4ac6fd0
2019-05-03 23:56:27,a68e432b-42a5-4888-8c79-79d70adaa663,1,a5e14a94-2e31-4b82-a111-fc1030f910f9,7de296c5-4640-48aa-a17b-718c69b68eed
2019-05-03 23:56:27,e32aac07-4cd4-4a7c-9863-7c266c8973f8,1,a5e14a94-2e31-4b82-a111-fc1030f910f9,7de296c5-4640-48aa-a17b-718c69b68eed
2019-05-04 00:02:08,44d98a59-b71b-44c5-bf11-917ddcb1169b,1,a5e14a94-2e31-4b82-a111-fc1030f910f9,98d85ab0-d9a6-4b94-b1c7-61de4b124eef
2019-05-04 00:02:08,6858d72e-29bb-43b2-8a2c-740824ae8c48,1,a5e14a94-2e31-4b82-a111-fc1030f910f9,98d85ab0-d9a6-4b94-b1c7-61de4b124eef
2019-05-04 00:02:48,44d98a59-b71b-44c5-bf11-917ddcb1169b,1,a5e14a94-2e31-4b82-a111-fc1030f910f9,426be895-7250-417c-8aee-3b8691e568f9
2019-05-04 00:02:48,6858d72e-29bb-43b2-8a2c-740824ae8c48,1,a5e14a94-2e31-4b82-a111-fc1030f910f9,426be895-7250-417c-8aee-3b8691e568f9
2019-05-04 00:04:09,230f6ecb-0ab3-4616-8355-10e634124a57,1,a5e14a94-2e31-4b82-a111-fc1030f910f9,2da1fd53-ce04-440d-8988-b94143f31cf8
2019-05-04 00:04:09,d23fcafd-5f0f-4e3d-83e9-b091fda516d1,1,a5e14a94-2e31-4b82-a111-fc1030f910f9,2da1fd53-ce04-440d-8988-b94143f31cf8
2019-05-04 00:09:10,f3d3aa38-beaa-465c-a932-d4a3f88ec25d,1,a5e14a94-2e31-4b82-a111-fc1030f910f9,20f189f4-2c4b-4dbc-88b8-5ca9af3d7925
2019-05-04 00:09:10,2a2d6043-44a3-4a91-ba44-62f0b80f0662,1,a5e14a94-2e31-4b82-a111-fc1030f910f9,20f189f4-2c4b-4dbc-88b8-5ca9af3d7925
2019-05-04 00:15:09,26871038-2d84-4cc5-a2f0-ac66edd82ca6,1,a5e14a94-2e31-4b82-a111-fc1030f910f9,2af7023a-38cf-47c2-97a6-4e32d749bf5f
2019-05-04 00:15:09,47a1e9ae-3b05-4bb5-adb8-5af093984144,1,a5e14a94-2e31-4b82-a111-fc1030f910f9,2af7023a-38cf-47c2-97a6-4e32d749bf5f
2019-05-03 22:46:27,e7d7d0c9-9fd1-450e-b805-d489f4802054,1,2af7023a-38cf-47c2-97a6-4e32d749bf5f,2da1fd53-ce04-440d-8988-b94143f31cf8
2019-05-03 22:54:50,a763c443-da06-4e48-a86c-1ce31eab6466,1,2af7023a-38cf-47c2-97a6-4e32d749bf5f,4c2ee94d-5ff4-4cc3-9368-04aed480372d
2019-05-03 22:54:50,c9db6bbe-395e-416d-8f89-caa5e76efc19,1,2af7023a-38cf-47c2-97a6-4e32d749bf5f,4c2ee94d-5ff4-4cc3-9368-04aed480372d
2019-05-03 23:06:54,4905c7ec-1a02-4041-9fac-12ed9125729f,1,2af7023a-38cf-47c2-97a6-4e32d749bf5f,a5e14a94-2e31-4b82-a111-fc1030f910f9
2019-05-03 23:06:54,cc47c778-7c05-40dc-9bf4-cf7191cae49e,1,2af7023a-38cf-47c2-97a6-4e32d749bf5f,a5e14a94-2e31-4b82-a111-fc1030f910f9
2019-05-03 23:07:14,b2a92cef-1878-4b24-95c1-c54fde55f1df,1,2af7023a-38cf-47c2-97a6-4e32d749bf5f,a5e14a94-2e31-4b82-a111-fc1030f910f9
2019-05-03 23:07:14,3846fbf9-84fe-4166-8a24-ac5abcbd3f4d,1,2af7023a-38cf-47c2-97a6-4e32d749bf5f,a5e14a94-2e31-4b82-a111-fc1030f910f9
2019-05-03 23:14:55,8c18bdb5-28d0-4e66-a2c0-32985401725d,1,2af7023a-38cf-47c2-97a6-4e32d749bf5f,98d85ab0-d9a6-4b94-b1c7-61de4b124eef
2019-05-03 23:14:55,6121d435-354a-471a-b360-2bece7fbfe07,1,2af7023a-38cf-47c2-97a6-4e32d749bf5f,98d85ab0-d9a6-4b94-b1c7-61de4b124eef
2019-05-03 23:33:39,397c275f-d01a-4369-8d70-35a5a4581d0c,1,2af7023a-38cf-47c2-97a6-4e32d749bf5f,4c2ee94d-5ff4-4cc3-9368-04aed480372d
2019-05-03 23:33:39,ecd2635d-78f5-4172-b19c-d8f89ae8d193,1,2af7023a-38cf-47c2-97a6-4e32d749bf5f,4c2ee94d-5ff4-4cc3-9368-04aed480372d
2019-05-03 23:36:19,f3d3aa38-beaa-465c-a932-d4a3f88ec25d,1,2af7023a-38cf-47c2-97a6-4e32d749bf5f,3a0f1021-9cec-414c-8cff-5393f4ac6fd0
2019-05-03 23:36:19,2a2d6043-44a3-4a91-ba44-62f0b80f0662,1,2af7023a-38cf-47c2-97a6-4e32d749bf5f,3a0f1021-9cec-414c-8cff-5393f4ac6fd0
2019-05-03 23:44:00,230f6ecb-0ab3-4616-8355-10e634124a57,1,2af7023a-38cf-47c2-97a6-4e32d749bf5f,7de296c5-4640-48aa-a17b-718c69b68eed
2019-05-03 23:44:00,d23fcafd-5f0f-4e3d-83e9-b091fda516d1,1,2af7023a-38cf-47c2-97a6-4e32d749bf5f,7de296c5-4640-48aa-a17b-718c69b68eed
2019-05-03 23:48:21,e73a26fc-b03c-494a-a23d-910b946257e2,1,2af7023a-38cf-47c2-97a6-4e32d749bf5f,3a0f1021-9cec-414c-8cff-5393f4ac6fd0
2019-05-03 23:48:21,74727aac-8f90-4693-b31e-4d23fc109977,1,2af7023a-38cf-47c2-97a6-4e32d749bf5f,3a0f1021-9cec-414c-8cff-5393f4ac6fd0
2019-05-04 00:01:43,44d98a59-b71b-44c5-bf11-917ddcb1169b,1,2af7023a-38cf-47c2-97a6-4e32d749bf5f,a5e14a94-2e31-4b82-a111-fc1030f910f9
2019-05-04 00:01:43,6858d72e-29bb-43b2-8a2c-740824ae8c48,1,2af7023a-38cf-47c2-97a6-4e32d749bf5f,a5e14a94-2e31-4b82-a111-fc1030f910f9
2019-05-04 00:02:03,f3d3aa38-beaa-465c-a932-d4a3f88ec25d,1,2af7023a-38cf-47c2-97a6-4e32d749bf5f,a5e14a94-2e31-4b82-a111-fc1030f910f9
2019-05-04 00:02:03,2a2d6043-44a3-4a91-ba44-62f0b80f0662,1,2af7023a-38cf-47c2-97a6-4e32d749bf5f,a5e14a94-2e31-4b82-a111-fc1030f910f9
2019-05-04 00:25:32,26871038-2d84-4cc5-a2f0-ac66edd82ca6,1,2af7023a-38cf-47c2-97a6-4e32d749bf5f,f837236b-9de7-452f-ba54-2f6aaeaf551e
2019-05-04 00:25:32,47a1e9ae-3b05-4bb5-adb8-5af093984144,1,2af7023a-38cf-47c2-97a6-4e32d749bf5f,f837236b-9de7-452f-ba54-2f6aaeaf551e
2019-05-03 23:01:07,a763c443-da06-4e48-a86c-1ce31eab6466,1,f837236b-9de7-452f-ba54-2f6aaeaf551e,7de296c5-4640-48aa-a17b-718c69b68eed
2019-05-03 23:01:07,c9db6bbe-395e-416d-8f89-caa5e76efc19,1,f837236b-9de7-452f-ba54-2f6aaeaf551e,7de296c5-4640-48aa-a17b-718c69b68eed
2019-05-03 23:05:09,174748f3-2d68-4fbc-bec4-0359601a3a3c,1,f837236b-9de7-452f-ba54-2f6aaeaf551e,20f189f4-2c4b-4dbc-88b8-5ca9af3d7925
2019-05-03 23:05:09,8a85a5c6-5005-4a63-b6e0-f4d2c71f197b,1,f837236b-9de7-452f-ba54-2f6aaeaf551e,20f189f4-2c4b-4dbc-88b8-5ca9af3d7925
2019-05-03 23:32:13,397c275f-d01a-4369-8d70-35a5a4581d0c,1,f837236b-9de7-452f-ba54-2f6aaeaf551e,2af7023a-38cf-47c2-97a6-4e32d749bf5f
2019-05-03 23:32:13,ecd2635d-78f5-4172-b19c-d8f89ae8d193,1,f837236b-9de7-452f-ba54-2f6aaeaf551e,2af7023a-38cf-47c2-97a6-4e32d749bf5f
2019-05-03 23:35:33,d84b4e13-61cd-4008-8e23-cc2524b22c1d,1,f837236b-9de7-452f-ba54-2f6aaeaf551e,3a0f1021-9cec-414c-8cff-5393f4ac6fd0
2019-05-03 23:35:33,199141bb-c5a1-4aee-af61-b1e64d9d4e2b,1,f837236b-9de7-452f-ba54-2f6aaeaf551e,3a0f1021-9cec-414c-8cff-5393f4ac6fd0
2019-05-03 23:37:34,3846fbf9-84fe-4166-8a24-ac5abcbd3f4d,1,f837236b-9de7-452f-ba54-2f6aaeaf551e,ce8f201b-8a3f-4286-95ff-83d7c36e9b38
2019-05-03 23:37:34,b2a92cef-1878-4b24-95c1-c54fde55f1df,1,f837236b-9de7-452f-ba54-2f6aaeaf551e,ce8f201b-8a3f-4286-95ff-83d7c36e9b38
2019-05-03 23:47:16,b976cec5-5195-49de-9cb9-cf901a571a62,1,f837236b-9de7-452f-ba54-2f6aaeaf551e,2da1fd53-ce04-440d-8988-b94143f31cf8
2019-05-03 23:47:16,c7ab623f-00ad-4c9c-b58e-3e88b7e10f28,1,f837236b-9de7-452f-ba54-2f6aaeaf551e,2da1fd53-ce04-440d-8988-b94143f31cf8
2019-05-03 23:54:15,47a1e9ae-3b05-4bb5-adb8-5af093984144,1,f837236b-9de7-452f-ba54-2f6aaeaf551e,4c2ee94d-5ff4-4cc3-9368-04aed480372d
2019-05-03 23:56:16,6858d72e-29bb-43b2-8a2c-740824ae8c48,1,f837236b-9de7-452f-ba54-2f6aaeaf551e,deb6a341-9af3-410f-bd8d-fc076c660688
2019-05-04 00:17:18,e2d277fd-1024-4afe-8986-4e90658a6f26,1,f837236b-9de7-452f-ba54-2f6aaeaf551e,3a0f1021-9cec-414c-8cff-5393f4ac6fd0
2019-05-04 00:17:38,95539fbe-e63b-4837-999c-ceebe9ee5d05,1,f837236b-9de7-452f-ba54-2f6aaeaf551e,f837236b-9de7-452f-ba54-2f6aaeaf551e
2019-05-04 00:18:01,a846ca8e-d6bf-4a34-88ac-95065d17c88e,1,f837236b-9de7-452f-ba54-2f6aaeaf551e,3a0f1021-9cec-414c-8cff-5393f4ac6fd0
2019-05-04 00:18:23,cc47c778-7c05-40dc-9bf4-cf7191cae49e,1,f837236b-9de7-452f-ba54-2f6aaeaf551e,3a0f1021-9cec-414c-8cff-5393f4ac6fd0
2019-05-04 00:25:43,26871038-2d84-4cc5-a2f0-ac66edd82ca6,1,f837236b-9de7-452f-ba54-2f6aaeaf551e,3a0f1021-9cec-414c-8cff-5393f4ac6fd0
2019-05-04 00:25:43,47a1e9ae-3b05-4bb5-adb8-5af093984144,1,f837236b-9de7-452f-ba54-2f6aaeaf551e,3a0f1021-9cec-414c-8cff-5393f4ac6fd0
2019-05-04 00:27:25,26871038-2d84-4cc5-a2f0-ac66edd82ca6,1,f837236b-9de7-452f-ba54-2f6aaeaf551e,20f189f4-2c4b-4dbc-88b8-5ca9af3d7925
2019-05-04 00:27:25,47a1e9ae-3b05-4bb5-adb8-5af093984144,1,f837236b-9de7-452f-ba54-2f6aaeaf551e,20f189f4-2c4b-4dbc-88b8-5ca9af3d7925
2019-05-03 23:16:52,44d98a59-b71b-44c5-bf11-917ddcb1169b,1,426be895-7250-417c-8aee-3b8691e568f9,2da1fd53-ce04-440d-8988-b94143f31cf8
2019-05-03 23:16:52,6858d72e-29bb-43b2-8a2c-740824ae8c48,1,426be895-7250-417c-8aee-3b8691e568f9,2da1fd53-ce04-440d-8988-b94143f31cf8
2019-05-03 23:24:53,e73a26fc-b03c-494a-a23d-910b946257e2,1,426be895-7250-417c-8aee-3b8691e568f9,2af7023a-38cf-47c2-97a6-4e32d749bf5f
2019-05-03 23:24:53,74727aac-8f90-4693-b31e-4d23fc109977,1,426be895-7250-417c-8aee-3b8691e568f9,2af7023a-38cf-47c2-97a6-4e32d749bf5f
2019-05-03 23:38:35,199141bb-c5a1-4aee-af61-b1e64d9d4e2b,1,426be895-7250-417c-8aee-3b8691e568f9,48defc65-d0f9-4edb-8e0a-4e40f323f254
2019-05-03 23:38:55,476b6272-98c6-4920-a414-c43569572fe5,1,426be895-7250-417c-8aee-3b8691e568f9,7de296c5-4640-48aa-a17b-718c69b68eed
2019-05-03 23:49:37,eaf01fcb-1785-449b-925e-9d08d7b5d3b3,1,426be895-7250-417c-8aee-3b8691e568f9,2da1fd53-ce04-440d-8988-b94143f31cf8
2019-05-03 23:49:37,cd6850bc-8fbc-4379-946b-bbbf07b7de94,1,426be895-7250-417c-8aee-3b8691e568f9,2da1fd53-ce04-440d-8988-b94143f31cf8
2019-05-03 23:50:58,f3d3aa38-beaa-465c-a932-d4a3f88ec25d,1,426be895-7250-417c-8aee-3b8691e568f9,c5dd2c19-21e6-4ca3-bc96-0c3c40bd788a
2019-05-03 23:50:58,2a2d6043-44a3-4a91-ba44-62f0b80f0662,1,426be895-7250-417c-8aee-3b8691e568f9,c5dd2c19-21e6-4ca3-bc96-0c3c40bd788a
2019-05-03 23:54:39,8c18bdb5-28d0-4e66-a2c0-32985401725d,1,426be895-7250-417c-8aee-3b8691e568f9,4c2ee94d-5ff4-4cc3-9368-04aed480372d
2019-05-03 23:54:39,6121d435-354a-471a-b360-2bece7fbfe07,1,426be895-7250-417c-8aee-3b8691e568f9,4c2ee94d-5ff4-4cc3-9368-04aed480372d
2019-05-04 00:01:00,44d98a59-b71b-44c5-bf11-917ddcb1169b,1,426be895-7250-417c-8aee-3b8691e568f9,2af7023a-38cf-47c2-97a6-4e32d749bf5f
2019-05-04 00:01:00,6858d72e-29bb-43b2-8a2c-740824ae8c48,1,426be895-7250-417c-8aee-3b8691e568f9,2af7023a-38cf-47c2-97a6-4e32d749bf5f
2019-05-04 00:02:59,44d98a59-b71b-44c5-bf11-917ddcb1169b,1,426be895-7250-417c-8aee-3b8691e568f9,2da1fd53-ce04-440d-8988-b94143f31cf8
2019-05-04 00:02:59,6858d72e-29bb-43b2-8a2c-740824ae8c48,1,426be895-7250-417c-8aee-3b8691e568f9,2da1fd53-ce04-440d-8988-b94143f31cf8
2019-05-04 00:16:02,e2d277fd-1024-4afe-8986-4e90658a6f26,1,426be895-7250-417c-8aee-3b8691e568f9,7f61ff62-a077-410a-a0b4-e8311442e693
2019-05-04 00:16:03,95539fbe-e63b-4837-999c-ceebe9ee5d05,1,426be895-7250-417c-8aee-3b8691e568f9,7f61ff62-a077-410a-a0b4-e8311442e693
2019-05-04 00:27:23,230f6ecb-0ab3-4616-8355-10e634124a57,1,426be895-7250-417c-8aee-3b8691e568f9,20f189f4-2c4b-4dbc-88b8-5ca9af3d7925
2019-05-04 00:27:23,d23fcafd-5f0f-4e3d-83e9-b091fda516d1,1,426be895-7250-417c-8aee-3b8691e568f9,20f189f4-2c4b-4dbc-88b8-5ca9af3d7925
2019-05-03 23:20:50,44d98a59-b71b-44c5-bf11-917ddcb1169b,1,2da1fd53-ce04-440d-8988-b94143f31cf8,7f61ff62-a077-410a-a0b4-e8311442e693
2019-05-03 23:20:50,6858d72e-29bb-43b2-8a2c-740824ae8c48,1,2da1fd53-ce04-440d-8988-b94143f31cf8,7f61ff62-a077-410a-a0b4-e8311442e693
2019-05-03 23:29:31,2a2d6043-44a3-4a91-ba44-62f0b80f0662,1,2da1fd53-ce04-440d-8988-b94143f31cf8,a5e14a94-2e31-4b82-a111-fc1030f910f9
2019-05-03 23:47:34,b976cec5-5195-49de-9cb9-cf901a571a62,1,2da1fd53-ce04-440d-8988-b94143f31cf8,2af7023a-38cf-47c2-97a6-4e32d749bf5f
2019-05-03 23:47:35,c7ab623f-00ad-4c9c-b58e-3e88b7e10f28,1,2da1fd53-ce04-440d-8988-b94143f31cf8,2af7023a-38cf-47c2-97a6-4e32d749bf5f
2019-05-03 23:49:55,f3d3aa38-beaa-465c-a932-d4a3f88ec25d,1,2da1fd53-ce04-440d-8988-b94143f31cf8,426be895-7250-417c-8aee-3b8691e568f9
2019-05-03 23:49:55,2a2d6043-44a3-4a91-ba44-62f0b80f0662,1,2da1fd53-ce04-440d-8988-b94143f31cf8,426be895-7250-417c-8aee-3b8691e568f9
2019-05-03 23:51:53,e7d7d0c9-9fd1-450e-b805-d489f4802054,1,2da1fd53-ce04-440d-8988-b94143f31cf8,3a0f1021-9cec-414c-8cff-5393f4ac6fd0
2019-05-03 23:51:53,898d25df-d8bd-4327-8206-f87e73a7bb17,1,2da1fd53-ce04-440d-8988-b94143f31cf8,3a0f1021-9cec-414c-8cff-5393f4ac6fd0
2019-05-03 23:59:56,26871038-2d84-4cc5-a2f0-ac66edd82ca6,1,2da1fd53-ce04-440d-8988-b94143f31cf8,ce8f201b-8a3f-4286-95ff-83d7c36e9b38
2019-05-03 23:59:56,47a1e9ae-3b05-4bb5-adb8-5af093984144,1,2da1fd53-ce04-440d-8988-b94143f31cf8,ce8f201b-8a3f-4286-95ff-83d7c36e9b38
2019-05-04 00:04:36,230f6ecb-0ab3-4616-8355-10e634124a57,1,2da1fd53-ce04-440d-8988-b94143f31cf8,c5dd2c19-21e6-4ca3-bc96-0c3c40bd788a
2019-05-04 00:04:36,d23fcafd-5f0f-4e3d-83e9-b091fda516d1,1,2da1fd53-ce04-440d-8988-b94143f31cf8,c5dd2c19-21e6-4ca3-bc96-0c3c40bd788a
2019-05-04 00:07:57,44d98a59-b71b-44c5-bf11-917ddcb1169b,1,2da1fd53-ce04-440d-8988-b94143f31cf8,7de296c5-4640-48aa-a17b-718c69b68eed
2019-05-04 00:07:57,6858d72e-29bb-43b2-8a2c-740824ae8c48,1,2da1fd53-ce04-440d-8988-b94143f31cf8,7de296c5-4640-48aa-a17b-718c69b68eed
2019-05-03 23:09:49,eaf01fcb-1785-449b-925e-9d08d7b5d3b3,1,3a0f1021-9cec-414c-8cff-5393f4ac6fd0,7f61ff62-a077-410a-a0b4-e8311442e693
2019-05-03 23:09:49,cd6850bc-8fbc-4379-946b-bbbf07b7de94,1,3a0f1021-9cec-414c-8cff-5393f4ac6fd0,7f61ff62-a077-410a-a0b4-e8311442e693
2019-05-03 23:17:30,a68e432b-42a5-4888-8c79-79d70adaa663,1,3a0f1021-9cec-414c-8cff-5393f4ac6fd0,a5e14a94-2e31-4b82-a111-fc1030f910f9
2019-05-03 23:17:30,e32aac07-4cd4-4a7c-9863-7c266c8973f8,1,3a0f1021-9cec-414c-8cff-5393f4ac6fd0,a5e14a94-2e31-4b82-a111-fc1030f910f9
2019-05-03 23:31:13,8c18bdb5-28d0-4e66-a2c0-32985401725d,1,3a0f1021-9cec-414c-8cff-5393f4ac6fd0,426be895-7250-417c-8aee-3b8691e568f9
2019-05-03 23:31:13,6121d435-354a-471a-b360-2bece7fbfe07,1,3a0f1021-9cec-414c-8cff-5393f4ac6fd0,426be895-7250-417c-8aee-3b8691e568f9
2019-05-03 23:31:32,397c275f-d01a-4369-8d70-35a5a4581d0c,1,3a0f1021-9cec-414c-8cff-5393f4ac6fd0,f837236b-9de7-452f-ba54-2f6aaeaf551e
2019-05-03 23:31:32,ecd2635d-78f5-4172-b19c-d8f89ae8d193,1,3a0f1021-9cec-414c-8cff-5393f4ac6fd0,f837236b-9de7-452f-ba54-2f6aaeaf551e
2019-05-03 23:31:51,4905c7ec-1a02-4041-9fac-12ed9125729f,1,3a0f1021-9cec-414c-8cff-5393f4ac6fd0,f837236b-9de7-452f-ba54-2f6aaeaf551e
2019-05-03 23:31:51,cc47c778-7c05-40dc-9bf4-cf7191cae49e,1,3a0f1021-9cec-414c-8cff-5393f4ac6fd0,f837236b-9de7-452f-ba54-2f6aaeaf551e
2019-05-03 23:36:33,a763c443-da06-4e48-a86c-1ce31eab6466,1,3a0f1021-9cec-414c-8cff-5393f4ac6fd0,ce8f201b-8a3f-4286-95ff-83d7c36e9b38
2019-05-03 23:36:33,c9db6bbe-395e-416d-8f89-caa5e76efc19,1,3a0f1021-9cec-414c-8cff-5393f4ac6fd0,ce8f201b-8a3f-4286-95ff-83d7c36e9b38
2019-05-03 23:36:54,d84b4e13-61cd-4008-8e23-cc2524b22c1d,1,3a0f1021-9cec-414c-8cff-5393f4ac6fd0,ce8f201b-8a3f-4286-95ff-83d7c36e9b38
2019-05-03 23:36:54,199141bb-c5a1-4aee-af61-b1e64d9d4e2b,1,3a0f1021-9cec-414c-8cff-5393f4ac6fd0,ce8f201b-8a3f-4286-95ff-83d7c36e9b38
2019-05-03 23:37:14,d72676bc-2e8e-4bc3-94a6-96170e680ace,1,3a0f1021-9cec-414c-8cff-5393f4ac6fd0,ce8f201b-8a3f-4286-95ff-83d7c36e9b38
2019-05-03 23:37:14,476b6272-98c6-4920-a414-c43569572fe5,1,3a0f1021-9cec-414c-8cff-5393f4ac6fd0,ce8f201b-8a3f-4286-95ff-83d7c36e9b38
2019-05-03 23:37:36,174748f3-2d68-4fbc-bec4-0359601a3a3c,1,3a0f1021-9cec-414c-8cff-5393f4ac6fd0,a5e14a94-2e31-4b82-a111-fc1030f910f9
2019-05-03 23:37:36,8a85a5c6-5005-4a63-b6e0-f4d2c71f197b,1,3a0f1021-9cec-414c-8cff-5393f4ac6fd0,a5e14a94-2e31-4b82-a111-fc1030f910f9
2019-05-03 23:43:36,f3d3aa38-beaa-465c-a932-d4a3f88ec25d,1,3a0f1021-9cec-414c-8cff-5393f4ac6fd0,20f189f4-2c4b-4dbc-88b8-5ca9af3d7925
2019-05-03 23:43:36,2a2d6043-44a3-4a91-ba44-62f0b80f0662,1,3a0f1021-9cec-414c-8cff-5393f4ac6fd0,20f189f4-2c4b-4dbc-88b8-5ca9af3d7925
2019-05-03 23:43:59,4ef733e0-9891-4758-b248-7f6151fe9662,1,3a0f1021-9cec-414c-8cff-5393f4ac6fd0,7de296c5-4640-48aa-a17b-718c69b68eed
2019-05-03 23:48:56,e73a26fc-b03c-494a-a23d-910b946257e2,1,3a0f1021-9cec-414c-8cff-5393f4ac6fd0,7f61ff62-a077-410a-a0b4-e8311442e693
2019-05-03 23:48:56,74727aac-8f90-4693-b31e-4d23fc109977,1,3a0f1021-9cec-414c-8cff-5393f4ac6fd0,7f61ff62-a077-410a-a0b4-e8311442e693
2019-05-03 23:52:18,44d98a59-b71b-44c5-bf11-917ddcb1169b,1,3a0f1021-9cec-414c-8cff-5393f4ac6fd0,98d85ab0-d9a6-4b94-b1c7-61de4b124eef
2019-05-03 23:52:18,6858d72e-29bb-43b2-8a2c-740824ae8c48,1,3a0f1021-9cec-414c-8cff-5393f4ac6fd0,98d85ab0-d9a6-4b94-b1c7-61de4b124eef
2019-05-04 00:01:20,f3d3aa38-beaa-465c-a932-d4a3f88ec25d,1,3a0f1021-9cec-414c-8cff-5393f4ac6fd0,2af7023a-38cf-47c2-97a6-4e32d749bf5f
2019-05-04 00:01:20,2a2d6043-44a3-4a91-ba44-62f0b80f0662,1,3a0f1021-9cec-414c-8cff-5393f4ac6fd0,2af7023a-38cf-47c2-97a6-4e32d749bf5f
2019-05-04 00:17:38,e2d277fd-1024-4afe-8986-4e90658a6f26,1,3a0f1021-9cec-414c-8cff-5393f4ac6fd0,f837236b-9de7-452f-ba54-2f6aaeaf551e
2019-05-04 00:18:38,cc47c778-7c05-40dc-9bf4-cf7191cae49e,1,3a0f1021-9cec-414c-8cff-5393f4ac6fd0,48defc65-d0f9-4edb-8e0a-4e40f323f254
2019-05-04 00:18:58,a846ca8e-d6bf-4a34-88ac-95065d17c88e,1,3a0f1021-9cec-414c-8cff-5393f4ac6fd0,48defc65-d0f9-4edb-8e0a-4e40f323f254
2019-05-04 00:26:01,26871038-2d84-4cc5-a2f0-ac66edd82ca6,1,3a0f1021-9cec-414c-8cff-5393f4ac6fd0,f837236b-9de7-452f-ba54-2f6aaeaf551e
2019-05-04 00:26:01,47a1e9ae-3b05-4bb5-adb8-5af093984144,1,3a0f1021-9cec-414c-8cff-5393f4ac6fd0,f837236b-9de7-452f-ba54-2f6aaeaf551e
2019-05-04 00:26:40,44d98a59-b71b-44c5-bf11-917ddcb1169b,1,3a0f1021-9cec-414c-8cff-5393f4ac6fd0,426be895-7250-417c-8aee-3b8691e568f9
2019-05-04 00:26:40,6858d72e-29bb-43b2-8a2c-740824ae8c48,1,3a0f1021-9cec-414c-8cff-5393f4ac6fd0,426be895-7250-417c-8aee-3b8691e568f9
2019-05-03 23:20:11,397c275f-d01a-4369-8d70-35a5a4581d0c,1,98d85ab0-d9a6-4b94-b1c7-61de4b124eef,7f61ff62-a077-410a-a0b4-e8311442e693
2019-05-03 23:20:11,ecd2635d-78f5-4172-b19c-d8f89ae8d193,1,98d85ab0-d9a6-4b94-b1c7-61de4b124eef,7f61ff62-a077-410a-a0b4-e8311442e693
2019-05-03 23:26:33,4905c7ec-1a02-4041-9fac-12ed9125729f,1,98d85ab0-d9a6-4b94-b1c7-61de4b124eef,ce8f201b-8a3f-4286-95ff-83d7c36e9b38
2019-05-03 23:26:33,cc47c778-7c05-40dc-9bf4-cf7191cae49e,1,98d85ab0-d9a6-4b94-b1c7-61de4b124eef,ce8f201b-8a3f-4286-95ff-83d7c36e9b38
2019-05-03 23:29:54,397c275f-d01a-4369-8d70-35a5a4581d0c,1,98d85ab0-d9a6-4b94-b1c7-61de4b124eef,a5e14a94-2e31-4b82-a111-fc1030f910f9
2019-05-03 23:29:54,ecd2635d-78f5-4172-b19c-d8f89ae8d193,1,98d85ab0-d9a6-4b94-b1c7-61de4b124eef,a5e14a94-2e31-4b82-a111-fc1030f910f9
2019-05-03 23:30:54,8c18bdb5-28d0-4e66-a2c0-32985401725d,1,98d85ab0-d9a6-4b94-b1c7-61de4b124eef,3a0f1021-9cec-414c-8cff-5393f4ac6fd0
2019-05-03 23:30:54,6121d435-354a-471a-b360-2bece7fbfe07,1,98d85ab0-d9a6-4b94-b1c7-61de4b124eef,3a0f1021-9cec-414c-8cff-5393f4ac6fd0
2019-05-03 23:53:17,44d98a59-b71b-44c5-bf11-917ddcb1169b,1,98d85ab0-d9a6-4b94-b1c7-61de4b124eef,48defc65-d0f9-4edb-8e0a-4e40f323f254
2019-05-03 23:53:17,6858d72e-29bb-43b2-8a2c-740824ae8c48,1,98d85ab0-d9a6-4b94-b1c7-61de4b124eef,f837236b-9de7-452f-ba54-2f6aaeaf551e
2019-05-04 00:02:18,44d98a59-b71b-44c5-bf11-917ddcb1169b,1,98d85ab0-d9a6-4b94-b1c7-61de4b124eef,a5e14a94-2e31-4b82-a111-fc1030f910f9
2019-05-04 00:02:18,6858d72e-29bb-43b2-8a2c-740824ae8c48,1,98d85ab0-d9a6-4b94-b1c7-61de4b124eef,a5e14a94-2e31-4b82-a111-fc1030f910f9
2019-05-04 00:12:40,a763c443-da06-4e48-a86c-1ce31eab6466,1,98d85ab0-d9a6-4b94-b1c7-61de4b124eef,ce8f201b-8a3f-4286-95ff-83d7c36e9b38
2019-05-04 00:12:40,c9db6bbe-395e-416d-8f89-caa5e76efc19,1,98d85ab0-d9a6-4b94-b1c7-61de4b124eef,ce8f201b-8a3f-4286-95ff-83d7c36e9b38
2019-05-03 22:58:08,eaf01fcb-1785-449b-925e-9d08d7b5d3b3,1,20f189f4-2c4b-4dbc-88b8-5ca9af3d7925,48defc65-d0f9-4edb-8e0a-4e40f323f254
2019-05-03 22:58:08,cd6850bc-8fbc-4379-946b-bbbf07b7de94,1,20f189f4-2c4b-4dbc-88b8-5ca9af3d7925,48defc65-d0f9-4edb-8e0a-4e40f323f254
2019-05-03 23:05:49,cc47c778-7c05-40dc-9bf4-cf7191cae49e,1,20f189f4-2c4b-4dbc-88b8-5ca9af3d7925,2af7023a-38cf-47c2-97a6-4e32d749bf5f
2019-05-03 23:05:49,4905c7ec-1a02-4041-9fac-12ed9125729f,1,20f189f4-2c4b-4dbc-88b8-5ca9af3d7925,2af7023a-38cf-47c2-97a6-4e32d749bf5f
2019-05-03 23:08:50,174748f3-2d68-4fbc-bec4-0359601a3a3c,1,20f189f4-2c4b-4dbc-88b8-5ca9af3d7925,3a0f1021-9cec-414c-8cff-5393f4ac6fd0
2019-05-03 23:08:50,8a85a5c6-5005-4a63-b6e0-f4d2c71f197b,1,20f189f4-2c4b-4dbc-88b8-5ca9af3d7925,3a0f1021-9cec-414c-8cff-5393f4ac6fd0
2019-05-03 23:13:31,275ce862-2b33-4a2a-8b06-72e8583924d4,1,20f189f4-2c4b-4dbc-88b8-5ca9af3d7925,7f61ff62-a077-410a-a0b4-e8311442e693
2019-05-03 23:13:31,a846ca8e-d6bf-4a34-88ac-95065d17c88e,1,20f189f4-2c4b-4dbc-88b8-5ca9af3d7925,7f61ff62-a077-410a-a0b4-e8311442e693
2019-05-03 23:14:53,493564cb-dd96-4c3e-ba10-63d78369e48a,1,20f189f4-2c4b-4dbc-88b8-5ca9af3d7925,4c2ee94d-5ff4-4cc3-9368-04aed480372d
2019-05-03 23:14:53,8a9c5ed4-40f3-4642-9abc-8a70c37c5fd8,1,20f189f4-2c4b-4dbc-88b8-5ca9af3d7925,4c2ee94d-5ff4-4cc3-9368-04aed480372d
2019-05-03 23:21:33,397c275f-d01a-4369-8d70-35a5a4581d0c,1,20f189f4-2c4b-4dbc-88b8-5ca9af3d7925,ce8f201b-8a3f-4286-95ff-83d7c36e9b38
2019-05-03 23:21:33,ecd2635d-78f5-4172-b19c-d8f89ae8d193,1,20f189f4-2c4b-4dbc-88b8-5ca9af3d7925,ce8f201b-8a3f-4286-95ff-83d7c36e9b38
2019-05-03 23:38:38,0f568865-97fb-45b0-99e3-c92e0048f1af,1,20f189f4-2c4b-4dbc-88b8-5ca9af3d7925,48defc65-d0f9-4edb-8e0a-4e40f323f254
2019-05-03 23:38:38,0638bf2e-5bad-4755-a32f-671fe93ecb6d,1,20f189f4-2c4b-4dbc-88b8-5ca9af3d7925,48defc65-d0f9-4edb-8e0a-4e40f323f254
2019-05-03 23:43:58,a3f9064b-6389-44bc-9ace-fdf011d2a87e,1,20f189f4-2c4b-4dbc-88b8-5ca9af3d7925,7de296c5-4640-48aa-a17b-718c69b68eed
2019-05-03 23:44:18,f3d3aa38-beaa-465c-a932-d4a3f88ec25d,1,20f189f4-2c4b-4dbc-88b8-5ca9af3d7925,7de296c5-4640-48aa-a17b-718c69b68eed
2019-05-03 23:44:18,2a2d6043-44a3-4a91-ba44-62f0b80f0662,1,20f189f4-2c4b-4dbc-88b8-5ca9af3d7925,7de296c5-4640-48aa-a17b-718c69b68eed
2019-05-03 23:45:17,f3d3aa38-beaa-465c-a932-d4a3f88ec25d,1,20f189f4-2c4b-4dbc-88b8-5ca9af3d7925,deb6a341-9af3-410f-bd8d-fc076c660688
2019-05-03 23:45:17,2a2d6043-44a3-4a91-ba44-62f0b80f0662,1,20f189f4-2c4b-4dbc-88b8-5ca9af3d7925,deb6a341-9af3-410f-bd8d-fc076c660688
2019-05-04 00:09:21,f3d3aa38-beaa-465c-a932-d4a3f88ec25d,1,20f189f4-2c4b-4dbc-88b8-5ca9af3d7925,426be895-7250-417c-8aee-3b8691e568f9
2019-05-04 00:09:21,2a2d6043-44a3-4a91-ba44-62f0b80f0662,1,20f189f4-2c4b-4dbc-88b8-5ca9af3d7925,426be895-7250-417c-8aee-3b8691e568f9
2019-05-04 00:12:03,44d98a59-b71b-44c5-bf11-917ddcb1169b,1,20f189f4-2c4b-4dbc-88b8-5ca9af3d7925,ce8f201b-8a3f-4286-95ff-83d7c36e9b38
2019-05-04 00:12:03,6858d72e-29bb-43b2-8a2c-740824ae8c48,1,20f189f4-2c4b-4dbc-88b8-5ca9af3d7925,ce8f201b-8a3f-4286-95ff-83d7c36e9b38
2019-05-03 22:21:10,e5696dcf-40d3-48a3-8b21-256d5e139060,1,37b711fd-b206-4c2e-8725-8434ed65f11d,0f85a59e-eb9b-4c89-b1ca-dfa230758f86
2019-05-03 22:21:10,81acbe4b-ec58-442c-99fd-b8f71edd5c24,1,37b711fd-b206-4c2e-8725-8434ed65f11d,4c2ee94d-5ff4-4cc3-9368-04aed480372d
2019-05-03 22:21:10,d609c46d-dfbb-483e-8b6f-6d1d576b48c6,1,37b711fd-b206-4c2e-8725-8434ed65f11d,c5dd2c19-21e6-4ca3-bc96-0c3c40bd788a
2019-05-03 22:22:14,b299ce66-85b9-44d5-a514-4c70f5df4b42,1,37b711fd-b206-4c2e-8725-8434ed65f11d,f9aecc0f-905b-4175-b54c-1ad61458e6bb
2019-05-03 22:22:14,d67ecada-f734-4277-9424-ef9bb9a65640,1,37b711fd-b206-4c2e-8725-8434ed65f11d,2da1fd53-ce04-440d-8988-b94143f31cf8
2019-05-03 22:22:14,fdddc30f-b475-44e2-9894-44a6bc53e944,1,37b711fd-b206-4c2e-8725-8434ed65f11d,ce8f201b-8a3f-4286-95ff-83d7c36e9b38
2019-05-03 22:23:17,cd2add21-cc77-4505-a3e3-a28d1d134ab0,1,37b711fd-b206-4c2e-8725-8434ed65f11d,4cd69269-d121-4f13-bb6e-43b8527930d4
2019-05-03 22:23:17,6a749ac9-cb66-40ef-b35d-7d4afbda03f4,1,37b711fd-b206-4c2e-8725-8434ed65f11d,98d85ab0-d9a6-4b94-b1c7-61de4b124eef
2019-05-03 22:23:17,5782d52c-2c75-47d0-815b-a2e15fa59ed2,1,37b711fd-b206-4c2e-8725-8434ed65f11d,98d85ab0-d9a6-4b94-b1c7-61de4b124eef
2019-05-03 22:24:21,d237daf7-2c74-4d7d-9985-448f95873047,1,37b711fd-b206-4c2e-8725-8434ed65f11d,8be78f10-cac7-4917-98b3-9fc3989df469
2019-05-03 22:24:21,7103327e-dee2-42cc-a8e3-f4c3d83b714d,1,37b711fd-b206-4c2e-8725-8434ed65f11d,4c2ee94d-5ff4-4cc3-9368-04aed480372d
2019-05-03 22:24:21,f8c8b829-77a1-4fd8-a5fe-39bf17a4cda9,1,37b711fd-b206-4c2e-8725-8434ed65f11d,c5dd2c19-21e6-4ca3-bc96-0c3c40bd788a
2019-05-03 22:25:25,e7d7d0c9-9fd1-450e-b805-d489f4802054,1,37b711fd-b206-4c2e-8725-8434ed65f11d,2af7023a-38cf-47c2-97a6-4e32d749bf5f
2019-05-03 22:25:25,e23ef13f-fd3f-4c15-89ad-e90b9c074407,1,37b711fd-b206-4c2e-8725-8434ed65f11d,b80634bb-32a8-4669-aee3-f2f9587582eb
2019-05-03 22:25:25,898d25df-d8bd-4327-8206-f87e73a7bb17,1,37b711fd-b206-4c2e-8725-8434ed65f11d,a5e14a94-2e31-4b82-a111-fc1030f910f9
2019-05-03 22:26:28,56a250d1-6df1-48f6-923f-d8688161d191,1,37b711fd-b206-4c2e-8725-8434ed65f11d,2af7023a-38cf-47c2-97a6-4e32d749bf5f
2019-05-03 22:26:28,06d54e8a-e184-4aca-9f4c-46902f4a8c03,1,37b711fd-b206-4c2e-8725-8434ed65f11d,2af7023a-38cf-47c2-97a6-4e32d749bf5f
2019-05-03 22:26:28,32dc00fb-b483-4e91-8718-345a8b247f2e,1,37b711fd-b206-4c2e-8725-8434ed65f11d,a85de695-08a0-40ec-a426-3c40ca833917
2019-05-03 22:27:31,066b10e8-0a6c-498f-9d35-ec60c4b43243,1,37b711fd-b206-4c2e-8725-8434ed65f11d,7a476670-4313-4aea-af45-766de64bc450
2019-05-03 22:27:31,19a34946-0216-48d2-bd00-dfe0eb6d907c,1,37b711fd-b206-4c2e-8725-8434ed65f11d,48defc65-d0f9-4edb-8e0a-4e40f323f254
2019-05-03 22:27:31,d9ca3101-b893-4444-a232-f30de8e26d69,1,37b711fd-b206-4c2e-8725-8434ed65f11d,48defc65-d0f9-4edb-8e0a-4e40f323f254
2019-05-03 22:28:35,4cc43ff4-714d-4c01-b7a2-fb5b6e1921da,1,37b711fd-b206-4c2e-8725-8434ed65f11d,109b389f-5346-4b74-812b-e46e94c59524
2019-05-03 22:28:35,99c3b101-a598-4fd0-8b57-cf6c97134eef,1,37b711fd-b206-4c2e-8725-8434ed65f11d,f837236b-9de7-452f-ba54-2f6aaeaf551e
2019-05-03 22:28:35,1f3edd7d-05f6-461e-b26e-f1600c01b29a,1,37b711fd-b206-4c2e-8725-8434ed65f11d,f837236b-9de7-452f-ba54-2f6aaeaf551e
2019-05-03 22:29:38,174748f3-2d68-4fbc-bec4-0359601a3a3c,1,37b711fd-b206-4c2e-8725-8434ed65f11d,deb6a341-9af3-410f-bd8d-fc076c660688
2019-05-03 22:29:38,6080f986-761d-4b9f-9fa5-8e512c23e9d5,1,37b711fd-b206-4c2e-8725-8434ed65f11d,520e75d9-86f6-41a0-a58f-fd35dda75098
2019-05-03 22:29:38,8a85a5c6-5005-4a63-b6e0-f4d2c71f197b,1,37b711fd-b206-4c2e-8725-8434ed65f11d,deb6a341-9af3-410f-bd8d-fc076c660688
2019-05-03 22:30:42,e73a26fc-b03c-494a-a23d-910b946257e2,1,37b711fd-b206-4c2e-8725-8434ed65f11d,426be895-7250-417c-8aee-3b8691e568f9
2019-05-03 22:30:42,4a565630-3f42-4aab-b549-393b792ec12b,1,37b711fd-b206-4c2e-8725-8434ed65f11d,9a4ff2b6-5f6e-42a4-80ac-e1106173d2fd
2019-05-03 22:30:42,74727aac-8f90-4693-b31e-4d23fc109977,1,37b711fd-b206-4c2e-8725-8434ed65f11d,426be895-7250-417c-8aee-3b8691e568f9
2019-05-03 22:31:45,66b132a3-53cd-4ab9-b3bc-c78dc8684b2e,1,37b711fd-b206-4c2e-8725-8434ed65f11d,2990662d-9c7c-4893-b185-67922e10f915
2019-05-03 22:31:45,9b51a1ff-2bde-4e3e-a950-74bebe14603c,1,37b711fd-b206-4c2e-8725-8434ed65f11d,7de296c5-4640-48aa-a17b-718c69b68eed
2019-05-03 22:31:45,0c1f5631-061d-4dc2-833d-e649bf5acbda,1,37b711fd-b206-4c2e-8725-8434ed65f11d,7de296c5-4640-48aa-a17b-718c69b68eed
2019-05-03 22:32:49,cac9db3d-9c56-4506-b945-4a9f00d7f379,1,37b711fd-b206-4c2e-8725-8434ed65f11d,98d85ab0-d9a6-4b94-b1c7-61de4b124eef
2019-05-03 22:32:49,441142eb-2887-4d3c-b2f1-6a3320d23632,1,37b711fd-b206-4c2e-8725-8434ed65f11d,2c784034-ba83-4164-85f3-2d0ae83bbc3b
2019-05-03 22:32:49,a7abbb5e-70f3-41af-81b8-ba4b05d93546,1,37b711fd-b206-4c2e-8725-8434ed65f11d,deb6a341-9af3-410f-bd8d-fc076c660688
2019-05-03 22:33:53,0f568865-97fb-45b0-99e3-c92e0048f1af,1,37b711fd-b206-4c2e-8725-8434ed65f11d,a5e14a94-2e31-4b82-a111-fc1030f910f9
2019-05-03 22:33:53,d13c6960-6aca-440d-91c2-e3781450a11b,1,37b711fd-b206-4c2e-8725-8434ed65f11d,a2918659-a8f8-4dfd-adc8-37d6e54b24bd
2019-05-03 22:33:53,0638bf2e-5bad-4755-a32f-671fe93ecb6d,1,37b711fd-b206-4c2e-8725-8434ed65f11d,7f61ff62-a077-410a-a0b4-e8311442e693
2019-05-03 22:34:56,9e5d762c-244b-4b79-917e-554bd8de011b,1,37b711fd-b206-4c2e-8725-8434ed65f11d,1932837b-cd23-457e-af01-a0139f3b1d8a
2019-05-03 22:34:56,26871038-2d84-4cc5-a2f0-ac66edd82ca6,1,37b711fd-b206-4c2e-8725-8434ed65f11d,7de296c5-4640-48aa-a17b-718c69b68eed
2019-05-03 22:34:56,47a1e9ae-3b05-4bb5-adb8-5af093984144,1,37b711fd-b206-4c2e-8725-8434ed65f11d,7de296c5-4640-48aa-a17b-718c69b68eed
2019-05-03 22:35:59,22ea02cc-2d1a-45bf-9315-afe626c22643,1,37b711fd-b206-4c2e-8725-8434ed65f11d,7f61ff62-a077-410a-a0b4-e8311442e693
2019-05-03 22:35:59,62d22b8f-07d8-47ec-b34e-9e9812f2f79b,1,37b711fd-b206-4c2e-8725-8434ed65f11d,fccd6c87-6365-4e9a-bb47-289ae2c662b9
2019-05-03 22:35:59,397f34bc-8c13-42d8-baa9-54a360df5929,1,37b711fd-b206-4c2e-8725-8434ed65f11d,a5e14a94-2e31-4b82-a111-fc1030f910f9
2019-05-03 22:37:03,3504306f-1ef4-4f2e-a17d-a4f4102c87ce,1,37b711fd-b206-4c2e-8725-8434ed65f11d,426be895-7250-417c-8aee-3b8691e568f9
2019-05-03 22:37:03,1609d3a1-633b-451d-9465-0c1340ef743d,1,37b711fd-b206-4c2e-8725-8434ed65f11d,426be895-7250-417c-8aee-3b8691e568f9
2019-05-03 22:37:03,70ec65ce-5c68-4080-8535-b8949c0cde9e,1,37b711fd-b206-4c2e-8725-8434ed65f11d,6d6eebbe-8964-4ade-9327-ae7028cfc9f6
2019-05-03 22:38:06,f3d3aa38-beaa-465c-a932-d4a3f88ec25d,1,37b711fd-b206-4c2e-8725-8434ed65f11d,ce8f201b-8a3f-4286-95ff-83d7c36e9b38
2019-05-03 22:38:06,2a2d6043-44a3-4a91-ba44-62f0b80f0662,1,37b711fd-b206-4c2e-8725-8434ed65f11d,2da1fd53-ce04-440d-8988-b94143f31cf8
2019-05-03 22:38:06,8e6b3076-fc80-48b7-bf2d-6b872043d34a,1,37b711fd-b206-4c2e-8725-8434ed65f11d,b9d2fc6b-517c-4041-9af1-896c6e259b87
2019-05-03 22:39:10,5c760764-9e68-486a-b1fd-b2750f04a1df,1,37b711fd-b206-4c2e-8725-8434ed65f11d,41824cfd-358b-4c46-ac0b-108c3764d728
2019-05-03 22:39:10,1ce6e4c5-fc3f-43ff-972e-e9ce984dfd56,1,37b711fd-b206-4c2e-8725-8434ed65f11d,3a0f1021-9cec-414c-8cff-5393f4ac6fd0
2019-05-03 22:39:10,c72fb70e-46dc-4eaa-8ba5-9b8a1c9c852f,1,37b711fd-b206-4c2e-8725-8434ed65f11d,3a0f1021-9cec-414c-8cff-5393f4ac6fd0
2019-05-03 22:40:13,e1445d04-7d51-4653-a05f-2b2bbc8739c7,1,37b711fd-b206-4c2e-8725-8434ed65f11d,98bd38fb-23f5-4fe7-8805-0551b1dcbe1b
2019-05-03 22:40:13,230f6ecb-0ab3-4616-8355-10e634124a57,1,37b711fd-b206-4c2e-8725-8434ed65f11d,deb6a341-9af3-410f-bd8d-fc076c660688
2019-05-03 22:40:13,d23fcafd-5f0f-4e3d-83e9-b091fda516d1,1,37b711fd-b206-4c2e-8725-8434ed65f11d,deb6a341-9af3-410f-bd8d-fc076c660688
2019-05-03 22:41:17,58795400-d0db-4588-9871-426ad03c4212,1,37b711fd-b206-4c2e-8725-8434ed65f11d,77431df2-70c6-4c47-8f41-0f4bdcf14797
2019-05-03 22:41:17,e8fa2757-e556-4d45-b77b-7cdd51ca803b,1,37b711fd-b206-4c2e-8725-8434ed65f11d,4c2ee94d-5ff4-4cc3-9368-04aed480372d
2019-05-03 22:41:17,51e5f87e-80fa-4ef6-81b9-efaa264c8b58,1,37b711fd-b206-4c2e-8725-8434ed65f11d,4c2ee94d-5ff4-4cc3-9368-04aed480372d
2019-05-03 22:42:20,a763c443-da06-4e48-a86c-1ce31eab6466,1,37b711fd-b206-4c2e-8725-8434ed65f11d,2af7023a-38cf-47c2-97a6-4e32d749bf5f
2019-05-03 22:42:20,27880929-190f-45be-8389-6704742383ae,1,37b711fd-b206-4c2e-8725-8434ed65f11d,ebb5775b-bd3a-4a16-b683-ab44f438debf
2019-05-03 22:42:20,c9db6bbe-395e-416d-8f89-caa5e76efc19,1,37b711fd-b206-4c2e-8725-8434ed65f11d,2af7023a-38cf-47c2-97a6-4e32d749bf5f
2019-05-03 22:43:23,493564cb-dd96-4c3e-ba10-63d78369e48a,1,37b711fd-b206-4c2e-8725-8434ed65f11d,20f189f4-2c4b-4dbc-88b8-5ca9af3d7925
2019-05-03 22:43:23,9ec13ef4-db1a-4164-ba30-3eb47e561986,1,37b711fd-b206-4c2e-8725-8434ed65f11d,59965c46-97ea-4d20-972a-ff114828e6cf
2019-05-03 22:43:23,8a9c5ed4-40f3-4642-9abc-8a70c37c5fd8,1,37b711fd-b206-4c2e-8725-8434ed65f11d,20f189f4-2c4b-4dbc-88b8-5ca9af3d7925
2019-05-03 22:44:27,397c275f-d01a-4369-8d70-35a5a4581d0c,1,37b711fd-b206-4c2e-8725-8434ed65f11d,98d85ab0-d9a6-4b94-b1c7-61de4b124eef
2019-05-03 22:44:27,b5b0d1c5-5c8d-42aa-be7b-de01d0a67b94,1,37b711fd-b206-4c2e-8725-8434ed65f11d,b2cec677-7123-4f7e-a2e2-44ba8d6d262a
2019-05-03 22:44:27,ecd2635d-78f5-4172-b19c-d8f89ae8d193,1,37b711fd-b206-4c2e-8725-8434ed65f11d,98d85ab0-d9a6-4b94-b1c7-61de4b124eef
2019-05-03 22:45:31,f0c59f07-c58e-4e05-887b-693537c18dd2,1,37b711fd-b206-4c2e-8725-8434ed65f11d,a4108050-1ae3-402b-9641-7564eb8a4e86
2019-05-03 22:45:31,34d6168a-ebb9-4461-8ac1-964f4706786a,1,37b711fd-b206-4c2e-8725-8434ed65f11d,ce8f201b-8a3f-4286-95ff-83d7c36e9b38
2019-05-03 22:45:31,64feaa42-68f5-4af9-86ea-8f34f73b1441,1,37b711fd-b206-4c2e-8725-8434ed65f11d,ce8f201b-8a3f-4286-95ff-83d7c36e9b38
2019-05-03 22:46:34,ff38bc09-bd56-4061-9acc-e26c5b90b3b6,1,37b711fd-b206-4c2e-8725-8434ed65f11d,ac8b62cd-ae35-4cf1-adc7-63f672da52d4
2019-05-03 22:46:34,f6d20f5b-4c63-42b0-8049-1e0a9215df53,1,37b711fd-b206-4c2e-8725-8434ed65f11d,2da1fd53-ce04-440d-8988-b94143f31cf8
2019-05-03 22:46:34,57a6f945-748a-4f01-8b4e-7c3c3b427a78,1,37b711fd-b206-4c2e-8725-8434ed65f11d,2da1fd53-ce04-440d-8988-b94143f31cf8
2019-05-03 22:47:38,f218f0e7-d83e-459d-84b1-66caf5967d58,1,37b711fd-b206-4c2e-8725-8434ed65f11d,ade7bb2e-6fe8-4e4f-aa40-350f8b3102f3
2019-05-03 22:47:38,4ef733e0-9891-4758-b248-7f6151fe9662,1,37b711fd-b206-4c2e-8725-8434ed65f11d,3a0f1021-9cec-414c-8cff-5393f4ac6fd0
2019-05-03 22:47:38,a3f9064b-6389-44bc-9ace-fdf011d2a87e,1,37b711fd-b206-4c2e-8725-8434ed65f11d,20f189f4-2c4b-4dbc-88b8-5ca9af3d7925
2019-05-03 22:48:41,ed4d3de6-2f61-498c-8477-1ac098d52aef,1,37b711fd-b206-4c2e-8725-8434ed65f11d,52362ed1-3f5d-4964-8e36-85f98b7e24a6
2019-05-03 22:48:41,eaf01fcb-1785-449b-925e-9d08d7b5d3b3,1,37b711fd-b206-4c2e-8725-8434ed65f11d,20f189f4-2c4b-4dbc-88b8-5ca9af3d7925
2019-05-03 22:48:41,cd6850bc-8fbc-4379-946b-bbbf07b7de94,1,37b711fd-b206-4c2e-8725-8434ed65f11d,20f189f4-2c4b-4dbc-88b8-5ca9af3d7925
2019-05-03 22:49:45,acd75225-ec91-46c2-871e-a004911cba94,1,37b711fd-b206-4c2e-8725-8434ed65f11d,98d85ab0-d9a6-4b94-b1c7-61de4b124eef
2019-05-03 22:49:45,b89288d4-5246-4bc3-be55-d6402c8db05a,1,37b711fd-b206-4c2e-8725-8434ed65f11d,25848613-4064-46ed-b1f0-db40759413df
2019-05-03 22:49:45,3eecc0d2-4e66-42e2-bc1e-089d22b629d8,1,37b711fd-b206-4c2e-8725-8434ed65f11d,98d85ab0-d9a6-4b94-b1c7-61de4b124eef
2019-05-03 22:50:48,d9a1b4d3-63fc-4faa-a98c-2a44489e1134,1,37b711fd-b206-4c2e-8725-8434ed65f11d,a82c85b4-8e65-4016-a50c-8b258f6b7a5b
2019-05-03 22:50:48,2cd2a811-573c-4644-8996-d8fbe5023873,1,37b711fd-b206-4c2e-8725-8434ed65f11d,48defc65-d0f9-4edb-8e0a-4e40f323f254
2019-05-03 22:50:48,3b697a8c-961a-409c-a95d-9bac49ccacbb,1,37b711fd-b206-4c2e-8725-8434ed65f11d,48defc65-d0f9-4edb-8e0a-4e40f323f254
2019-05-03 22:51:52,5cd1c81c-6e6b-444e-a296-cf3e41cba014,1,37b711fd-b206-4c2e-8725-8434ed65f11d,f837236b-9de7-452f-ba54-2f6aaeaf551e
2019-05-03 22:51:52,ea8cbe29-ff43-4eb0-a896-1a445ba55dde,1,37b711fd-b206-4c2e-8725-8434ed65f11d,e2d183c0-9bd1-4337-8cf7-76e4f0ef8333
2019-05-03 22:51:52,3b79f3af-5982-404f-a1dd-cc33f0d94c19,1,37b711fd-b206-4c2e-8725-8434ed65f11d,f837236b-9de7-452f-ba54-2f6aaeaf551e
2019-05-03 22:52:55,6ee44fce-a274-4f20-a01d-2d74459c3614,1,37b711fd-b206-4c2e-8725-8434ed65f11d,944341c1-8d98-4fbe-a60d-709201de8d48
2019-05-03 22:52:55,e921adc5-67ae-4334-bd50-1fcb09e6ebcb,1,37b711fd-b206-4c2e-8725-8434ed65f11d,3a0f1021-9cec-414c-8cff-5393f4ac6fd0
2019-05-03 22:52:55,44053776-77c5-4387-8481-8c7c6803d23a,1,37b711fd-b206-4c2e-8725-8434ed65f11d,3a0f1021-9cec-414c-8cff-5393f4ac6fd0
2019-05-03 22:53:58,d72676bc-2e8e-4bc3-94a6-96170e680ace,1,37b711fd-b206-4c2e-8725-8434ed65f11d,4c2ee94d-5ff4-4cc3-9368-04aed480372d
2019-05-03 22:53:58,7649531b-8829-4da1-8f37-114a5348fee4,1,37b711fd-b206-4c2e-8725-8434ed65f11d,e4f7dc84-09a7-4078-a565-4b048e8c9e60
2019-05-03 22:53:58,476b6272-98c6-4920-a414-c43569572fe5,1,37b711fd-b206-4c2e-8725-8434ed65f11d,4c2ee94d-5ff4-4cc3-9368-04aed480372d
2019-05-03 22:55:02,0e8e3f7b-2a95-4266-b21b-fb86b61de538,1,37b711fd-b206-4c2e-8725-8434ed65f11d,4c2ee94d-5ff4-4cc3-9368-04aed480372d
2019-05-03 22:55:02,8afe1259-e53a-4bd2-b7cf-eb110459a2ac,1,37b711fd-b206-4c2e-8725-8434ed65f11d,4c2ee94d-5ff4-4cc3-9368-04aed480372d
2019-05-03 22:55:02,66c27191-0081-4542-b1cf-1b7af342248c,1,37b711fd-b206-4c2e-8725-8434ed65f11d,1336ee61-08e2-4607-b374-e2e13e87a582
2019-05-03 22:56:05,275ce862-2b33-4a2a-8b06-72e8583924d4,1,37b711fd-b206-4c2e-8725-8434ed65f11d,20f189f4-2c4b-4dbc-88b8-5ca9af3d7925
2019-05-03 22:56:05,f4ba17c1-7670-4245-a84d-054c67d35e6e,1,37b711fd-b206-4c2e-8725-8434ed65f11d,dc7d7e51-8405-4677-be95-4513ce969f4c
2019-05-03 22:56:05,a846ca8e-d6bf-4a34-88ac-95065d17c88e,1,37b711fd-b206-4c2e-8725-8434ed65f11d,20f189f4-2c4b-4dbc-88b8-5ca9af3d7925
2019-05-03 22:57:09,f83f1075-c452-43f8-b65a-8308c0ee212a,1,37b711fd-b206-4c2e-8725-8434ed65f11d,856050d7-9f3c-42fa-b3a7-dc87d2aee468
2019-05-03 22:57:09,398e258a-906e-4069-86ef-2874e60611e8,1,37b711fd-b206-4c2e-8725-8434ed65f11d,98d85ab0-d9a6-4b94-b1c7-61de4b124eef
2019-05-03 22:57:09,8187ce1e-beba-42c1-a4cf-500723663069,1,37b711fd-b206-4c2e-8725-8434ed65f11d,98d85ab0-d9a6-4b94-b1c7-61de4b124eef
2019-05-03 22:58:12,732cc8ea-a542-42e9-8383-2450284a15bb,1,37b711fd-b206-4c2e-8725-8434ed65f11d,a5a7b061-8150-4f81-8e3c-8fd839c02d2d
2019-05-03 22:58:12,e2d277fd-1024-4afe-8986-4e90658a6f26,1,37b711fd-b206-4c2e-8725-8434ed65f11d,48defc65-d0f9-4edb-8e0a-4e40f323f254
2019-05-03 22:58:12,95539fbe-e63b-4837-999c-ceebe9ee5d05,1,37b711fd-b206-4c2e-8725-8434ed65f11d,48defc65-d0f9-4edb-8e0a-4e40f323f254
2019-05-03 22:59:16,8b676263-949b-4cd6-9faf-5bab0f897d54,1,37b711fd-b206-4c2e-8725-8434ed65f11d,87896c4d-95cb-47b6-82f9-9f205a165aa1
2019-05-03 22:59:16,112746a7-332e-46c0-9731-4e77c22cf64d,1,37b711fd-b206-4c2e-8725-8434ed65f11d,deb6a341-9af3-410f-bd8d-fc076c660688
2019-05-03 22:59:16,4d32d5d0-012c-4e10-87e4-ad76cfe89158,1,37b711fd-b206-4c2e-8725-8434ed65f11d,deb6a341-9af3-410f-bd8d-fc076c660688
2019-05-03 23:00:19,c2b41ede-91d6-48e8-b667-2bcc57a2765a,1,37b711fd-b206-4c2e-8725-8434ed65f11d,352fd918-6c7b-4ead-9daf-3459d9f73672
2019-05-03 23:00:19,e1ce0849-2bb2-4221-affa-521f27eaf784,1,37b711fd-b206-4c2e-8725-8434ed65f11d,deb6a341-9af3-410f-bd8d-fc076c660688
2019-05-03 23:00:19,1e1c2008-e96b-402e-bb1c-db641149f91c,1,37b711fd-b206-4c2e-8725-8434ed65f11d,deb6a341-9af3-410f-bd8d-fc076c660688
2019-05-03 23:01:22,666e1a0b-c30d-46a5-95dd-7ea659ff1a24,1,37b711fd-b206-4c2e-8725-8434ed65f11d,e3e5bb22-7a56-4406-a763-3e4ea3f411ee
2019-05-03 23:01:22,b976cec5-5195-49de-9cb9-cf901a571a62,1,37b711fd-b206-4c2e-8725-8434ed65f11d,f837236b-9de7-452f-ba54-2f6aaeaf551e
2019-05-03 23:01:22,c7ab623f-00ad-4c9c-b58e-3e88b7e10f28,1,37b711fd-b206-4c2e-8725-8434ed65f11d,f837236b-9de7-452f-ba54-2f6aaeaf551e
2019-05-03 23:02:26,2818f0e8-0b20-44b5-be0c-f093b8629859,1,37b711fd-b206-4c2e-8725-8434ed65f11d,16844fde-dbde-4386-9389-983fce36cc6a
2019-05-03 23:02:26,3846fbf9-84fe-4166-8a24-ac5abcbd3f4d,1,37b711fd-b206-4c2e-8725-8434ed65f11d,7de296c5-4640-48aa-a17b-718c69b68eed
2019-05-03 23:02:26,b2a92cef-1878-4b24-95c1-c54fde55f1df,1,37b711fd-b206-4c2e-8725-8434ed65f11d,7de296c5-4640-48aa-a17b-718c69b68eed
2019-05-03 23:03:29,135a7660-efeb-4f75-90c7-08acd59ada40,1,37b711fd-b206-4c2e-8725-8434ed65f11d,739009c2-f750-4d43-8dfd-501f8cfa6ff5
2019-05-03 23:03:29,e787fdaa-027d-4a92-bc93-babfe030e9d3,1,37b711fd-b206-4c2e-8725-8434ed65f11d,c5dd2c19-21e6-4ca3-bc96-0c3c40bd788a
2019-05-03 23:03:29,465581e1-40ad-4966-a79b-46a4a108387f,1,37b711fd-b206-4c2e-8725-8434ed65f11d,c5dd2c19-21e6-4ca3-bc96-0c3c40bd788a
2019-05-03 23:04:32,e57f3d57-d65d-4447-884e-a8352eba26ef,1,37b711fd-b206-4c2e-8725-8434ed65f11d,bfa38c34-1b6e-4681-b125-067e6640d041
2019-05-03 23:04:32,cc47c778-7c05-40dc-9bf4-cf7191cae49e,1,37b711fd-b206-4c2e-8725-8434ed65f11d,20f189f4-2c4b-4dbc-88b8-5ca9af3d7925
2019-05-03 23:04:32,4905c7ec-1a02-4041-9fac-12ed9125729f,1,37b711fd-b206-4c2e-8725-8434ed65f11d,20f189f4-2c4b-4dbc-88b8-5ca9af3d7925
2019-05-03 23:05:36,0feb8169-9cc5-442e-a739-ab77b921028b,1,37b711fd-b206-4c2e-8725-8434ed65f11d,8dd7e1e2-80a9-4ae0-afe5-7586d07acd0e
2019-05-03 23:05:36,8c18bdb5-28d0-4e66-a2c0-32985401725d,1,37b711fd-b206-4c2e-8725-8434ed65f11d,2af7023a-38cf-47c2-97a6-4e32d749bf5f
2019-05-03 23:05:36,6121d435-354a-471a-b360-2bece7fbfe07,1,37b711fd-b206-4c2e-8725-8434ed65f11d,2af7023a-38cf-47c2-97a6-4e32d749bf5f
2019-05-03 23:06:40,1d47f77f-52f0-49a1-84c6-0049c3b89bbc,1,37b711fd-b206-4c2e-8725-8434ed65f11d,717c27ea-3caf-4333-90f6-a95a4d333ab8
2019-05-03 23:06:40,d84b4e13-61cd-4008-8e23-cc2524b22c1d,1,37b711fd-b206-4c2e-8725-8434ed65f11d,a5e14a94-2e31-4b82-a111-fc1030f910f9
2019-05-03 23:06:40,199141bb-c5a1-4aee-af61-b1e64d9d4e2b,1,37b711fd-b206-4c2e-8725-8434ed65f11d,a5e14a94-2e31-4b82-a111-fc1030f910f9
2019-05-03 23:07:43,31d06bdb-1c09-4737-8583-642b47dcfd00,1,37b711fd-b206-4c2e-8725-8434ed65f11d,a6400c32-2643-4dea-9d3e-2d7f53b53b01
2019-05-03 23:07:43,4c64de70-039b-482b-92d8-3e42f5b0c2e0,1,37b711fd-b206-4c2e-8725-8434ed65f11d,f837236b-9de7-452f-ba54-2f6aaeaf551e
2019-05-03 23:07:43,c52169b2-b9ef-496e-b973-e8df1eaf4b1a,1,37b711fd-b206-4c2e-8725-8434ed65f11d,f837236b-9de7-452f-ba54-2f6aaeaf551e
2019-05-03 23:08:47,a68e432b-42a5-4888-8c79-79d70adaa663,1,37b711fd-b206-4c2e-8725-8434ed65f11d,3a0f1021-9cec-414c-8cff-5393f4ac6fd0
2019-05-03 23:08:47,849106c3-6234-4943-ab4a-fa57a571f448,1,37b711fd-b206-4c2e-8725-8434ed65f11d,1c0dc5d0-bd07-492e-9839-224b33862e3d
2019-05-03 23:08:47,e32aac07-4cd4-4a7c-9863-7c266c8973f8,1,37b711fd-b206-4c2e-8725-8434ed65f11d,3a0f1021-9cec-414c-8cff-5393f4ac6fd0
2019-05-03 23:09:50,9d3e3bc6-4e43-4a04-b05c-762b864fe0c0,1,37b711fd-b206-4c2e-8725-8434ed65f11d,f739a020-2ca8-4943-a928-42a67eadf8c1
2019-05-03 23:09:50,44d98a59-b71b-44c5-bf11-917ddcb1169b,1,37b711fd-b206-4c2e-8725-8434ed65f11d,7f61ff62-a077-410a-a0b4-e8311442e693
2019-05-03 23:09:50,6858d72e-29bb-43b2-8a2c-740824ae8c48,1,37b711fd-b206-4c2e-8725-8434ed65f11d,7f61ff62-a077-410a-a0b4-e8311442e693
2019-05-03 23:10:54,f0e79295-fc91-4b78-b7bb-cb3b4ebb4975,1,37b711fd-b206-4c2e-8725-8434ed65f11d,f837236b-9de7-452f-ba54-2f6aaeaf551e
2019-05-03 23:10:54,36ce0bf4-6d22-4c86-8909-eb9b8b18034c,1,37b711fd-b206-4c2e-8725-8434ed65f11d,f837236b-9de7-452f-ba54-2f6aaeaf551e
2019-05-03 23:10:54,c234170f-5671-4741-9684-b31ec937573c,1,37b711fd-b206-4c2e-8725-8434ed65f11d,bcf3e786-5a5b-4444-b400-03fbc37c2a22
2019-05-03 23:11:57,15c2ea3b-cdda-4abb-9080-bec76cef85a6,1,37b711fd-b206-4c2e-8725-8434ed65f11d,7f61ff62-a077-410a-a0b4-e8311442e693
2019-05-03 23:11:57,26729d0b-f20d-4acd-97cf-6bbbd28b89c2,1,37b711fd-b206-4c2e-8725-8434ed65f11d,7f61ff62-a077-410a-a0b4-e8311442e693
2019-05-03 23:11:57,2c575916-861c-44d4-a16a-6c5cccf0a4ee,1,37b711fd-b206-4c2e-8725-8434ed65f11d,43c8d341-25ae-4c12-ab6c-841f7f85cab6
2019-05-03 23:13:01,8c5ed184-7d93-4ca8-9bc7-d5b9f9ae3113,1,37b711fd-b206-4c2e-8725-8434ed65f11d,3711a272-4d04-44ef-a259-53e9e03d7e69
2019-05-03 23:13:01,5d41941f-38c8-4f4f-b3f6-bf357d8d05f5,1,37b711fd-b206-4c2e-8725-8434ed65f11d,7f61ff62-a077-410a-a0b4-e8311442e693
2019-05-03 23:13:01,5d7736ad-1ee9-4bca-a5a5-32241e02775a,1,37b711fd-b206-4c2e-8725-8434ed65f11d,7f61ff62-a077-410a-a0b4-e8311442e693
2019-05-03 23:10:11,4905c7ec-1a02-4041-9fac-12ed9125729f,1,7f61ff62-a077-410a-a0b4-e8311442e693,48defc65-d0f9-4edb-8e0a-4e40f323f254
2019-05-03 23:10:11,cc47c778-7c05-40dc-9bf4-cf7191cae49e,1,7f61ff62-a077-410a-a0b4-e8311442e693,48defc65-d0f9-4edb-8e0a-4e40f323f254
2019-05-03 23:13:51,a763c443-da06-4e48-a86c-1ce31eab6466,1,7f61ff62-a077-410a-a0b4-e8311442e693,4c2ee94d-5ff4-4cc3-9368-04aed480372d
2019-05-03 23:13:51,c9db6bbe-395e-416d-8f89-caa5e76efc19,1,7f61ff62-a077-410a-a0b4-e8311442e693,4c2ee94d-5ff4-4cc3-9368-04aed480372d
2019-05-03 23:16:13,44d98a59-b71b-44c5-bf11-917ddcb1169b,1,7f61ff62-a077-410a-a0b4-e8311442e693,426be895-7250-417c-8aee-3b8691e568f9
2019-05-03 23:16:13,6858d72e-29bb-43b2-8a2c-740824ae8c48,1,7f61ff62-a077-410a-a0b4-e8311442e693,426be895-7250-417c-8aee-3b8691e568f9
2019-05-03 23:17:34,eaf01fcb-1785-449b-925e-9d08d7b5d3b3,1,7f61ff62-a077-410a-a0b4-e8311442e693,a5e14a94-2e31-4b82-a111-fc1030f910f9
2019-05-03 23:17:34,cd6850bc-8fbc-4379-946b-bbbf07b7de94,1,7f61ff62-a077-410a-a0b4-e8311442e693,a5e14a94-2e31-4b82-a111-fc1030f910f9
2019-05-03 23:17:58,0638bf2e-5bad-4755-a32f-671fe93ecb6d,1,7f61ff62-a077-410a-a0b4-e8311442e693,a5e14a94-2e31-4b82-a111-fc1030f910f9
2019-05-03 23:20:33,397c275f-d01a-4369-8d70-35a5a4581d0c,1,7f61ff62-a077-410a-a0b4-e8311442e693,20f189f4-2c4b-4dbc-88b8-5ca9af3d7925
2019-05-03 23:20:33,ecd2635d-78f5-4172-b19c-d8f89ae8d193,1,7f61ff62-a077-410a-a0b4-e8311442e693,20f189f4-2c4b-4dbc-88b8-5ca9af3d7925
2019-05-03 23:21:15,275ce862-2b33-4a2a-8b06-72e8583924d4,1,7f61ff62-a077-410a-a0b4-e8311442e693,ce8f201b-8a3f-4286-95ff-83d7c36e9b38
2019-05-03 23:21:15,a846ca8e-d6bf-4a34-88ac-95065d17c88e,1,7f61ff62-a077-410a-a0b4-e8311442e693,ce8f201b-8a3f-4286-95ff-83d7c36e9b38
2019-05-03 23:25:56,44d98a59-b71b-44c5-bf11-917ddcb1169b,1,7f61ff62-a077-410a-a0b4-e8311442e693,c5dd2c19-21e6-4ca3-bc96-0c3c40bd788a
2019-05-03 23:25:56,6858d72e-29bb-43b2-8a2c-740824ae8c48,1,7f61ff62-a077-410a-a0b4-e8311442e693,c5dd2c19-21e6-4ca3-bc96-0c3c40bd788a
2019-05-03 23:49:59,15c2ea3b-cdda-4abb-9080-bec76cef85a6,1,7f61ff62-a077-410a-a0b4-e8311442e693,48defc65-d0f9-4edb-8e0a-4e40f323f254
2019-05-03 23:50:00,26729d0b-f20d-4acd-97cf-6bbbd28b89c2,1,7f61ff62-a077-410a-a0b4-e8311442e693,48defc65-d0f9-4edb-8e0a-4e40f323f254
2019-05-04 00:16:41,e2d277fd-1024-4afe-8986-4e90658a6f26,1,7f61ff62-a077-410a-a0b4-e8311442e693,f837236b-9de7-452f-ba54-2f6aaeaf551e
2019-05-04 00:16:41,95539fbe-e63b-4837-999c-ceebe9ee5d05,1,7f61ff62-a077-410a-a0b4-e8311442e693,7f61ff62-a077-410a-a0b4-e8311442e693
2019-05-04 00:17:19,95539fbe-e63b-4837-999c-ceebe9ee5d05,1,7f61ff62-a077-410a-a0b4-e8311442e693,f837236b-9de7-452f-ba54-2f6aaeaf551e
2019-05-04 00:21:43,44d98a59-b71b-44c5-bf11-917ddcb1169b,1,7f61ff62-a077-410a-a0b4-e8311442e693,3a0f1021-9cec-414c-8cff-5393f4ac6fd0
2019-05-04 00:21:43,6858d72e-29bb-43b2-8a2c-740824ae8c48,1,7f61ff62-a077-410a-a0b4-e8311442e693,3a0f1021-9cec-414c-8cff-5393f4ac6fd0
2019-05-03 23:29:33,8e6b3076-fc80-48b7-bf2d-6b872043d34a,1,b9d2fc6b-517c-4041-9af1-896c6e259b87,b9d2fc6b-517c-4041-9af1-896c6e259b87
2019-05-03 23:43:37,8e6b3076-fc80-48b7-bf2d-6b872043d34a,1,b9d2fc6b-517c-4041-9af1-896c6e259b87,b9d2fc6b-517c-4041-9af1-896c6e259b87
2019-05-03 23:47:15,8e6b3076-fc80-48b7-bf2d-6b872043d34a,1,b9d2fc6b-517c-4041-9af1-896c6e259b87,b9d2fc6b-517c-4041-9af1-896c6e259b87
2019-05-03 23:49:55,8e6b3076-fc80-48b7-bf2d-6b872043d34a,1,b9d2fc6b-517c-4041-9af1-896c6e259b87,b9d2fc6b-517c-4041-9af1-896c6e259b87
2019-05-03 23:50:59,8e6b3076-fc80-48b7-bf2d-6b872043d34a,1,b9d2fc6b-517c-4041-9af1-896c6e259b87,b9d2fc6b-517c-4041-9af1-896c6e259b87
2019-05-04 00:01:21,8e6b3076-fc80-48b7-bf2d-6b872043d34a,1,b9d2fc6b-517c-4041-9af1-896c6e259b87,b9d2fc6b-517c-4041-9af1-896c6e259b87
2019-05-04 00:02:04,8e6b3076-fc80-48b7-bf2d-6b872043d34a,1,b9d2fc6b-517c-4041-9af1-896c6e259b87,b9d2fc6b-517c-4041-9af1-896c6e259b87
2019-05-03 23:20:11,b5b0d1c5-5c8d-42aa-be7b-de01d0a67b94,1,b2cec677-7123-4f7e-a2e2-44ba8d6d262a,b2cec677-7123-4f7e-a2e2-44ba8d6d262a
2019-05-03 23:20:33,b5b0d1c5-5c8d-42aa-be7b-de01d0a67b94,1,b2cec677-7123-4f7e-a2e2-44ba8d6d262a,b2cec677-7123-4f7e-a2e2-44ba8d6d262a
2019-05-03 23:29:54,b5b0d1c5-5c8d-42aa-be7b-de01d0a67b94,1,b2cec677-7123-4f7e-a2e2-44ba8d6d262a,b2cec677-7123-4f7e-a2e2-44ba8d6d262a
2019-05-03 23:33:39,b5b0d1c5-5c8d-42aa-be7b-de01d0a67b94,1,b2cec677-7123-4f7e-a2e2-44ba8d6d262a,b2cec677-7123-4f7e-a2e2-44ba8d6d262a
2019-05-03 23:27:33,e1445d04-7d51-4653-a05f-2b2bbc8739c7,1,98bd38fb-23f5-4fe7-8805-0551b1dcbe1b,98bd38fb-23f5-4fe7-8805-0551b1dcbe1b
2019-05-03 23:42:12,e1445d04-7d51-4653-a05f-2b2bbc8739c7,1,98bd38fb-23f5-4fe7-8805-0551b1dcbe1b,98bd38fb-23f5-4fe7-8805-0551b1dcbe1b
2019-05-03 23:42:21,e1445d04-7d51-4653-a05f-2b2bbc8739c7,1,98bd38fb-23f5-4fe7-8805-0551b1dcbe1b,98bd38fb-23f5-4fe7-8805-0551b1dcbe1b
2019-05-03 23:57:28,e1445d04-7d51-4653-a05f-2b2bbc8739c7,1,98bd38fb-23f5-4fe7-8805-0551b1dcbe1b,98bd38fb-23f5-4fe7-8805-0551b1dcbe1b
2019-05-04 00:04:10,e1445d04-7d51-4653-a05f-2b2bbc8739c7,1,98bd38fb-23f5-4fe7-8805-0551b1dcbe1b,98bd38fb-23f5-4fe7-8805-0551b1dcbe1b
2019-05-04 00:04:36,e1445d04-7d51-4653-a05f-2b2bbc8739c7,1,98bd38fb-23f5-4fe7-8805-0551b1dcbe1b,98bd38fb-23f5-4fe7-8805-0551b1dcbe1b
2019-05-03 23:21:15,f4ba17c1-7670-4245-a84d-054c67d35e6e,1,dc7d7e51-8405-4677-be95-4513ce969f4c,dc7d7e51-8405-4677-be95-4513ce969f4c
2019-05-04 00:18:59,f4ba17c1-7670-4245-a84d-054c67d35e6e,1,dc7d7e51-8405-4677-be95-4513ce969f4c,dc7d7e51-8405-4677-be95-4513ce969f4c
2019-05-03 23:06:55,66b132a3-53cd-4ab9-b3bc-c78dc8684b2e,1,2990662d-9c7c-4893-b185-67922e10f915,2990662d-9c7c-4893-b185-67922e10f915
2019-05-03 23:25:34,7649531b-8829-4da1-8f37-114a5348fee4,1,e4f7dc84-09a7-4078-a565-4b048e8c9e60,e4f7dc84-09a7-4078-a565-4b048e8c9e60
2019-05-03 23:36:31,7649531b-8829-4da1-8f37-114a5348fee4,1,e4f7dc84-09a7-4078-a565-4b048e8c9e60,e4f7dc84-09a7-4078-a565-4b048e8c9e60
2019-05-03 23:37:15,7649531b-8829-4da1-8f37-114a5348fee4,1,e4f7dc84-09a7-4078-a565-4b048e8c9e60,e4f7dc84-09a7-4078-a565-4b048e8c9e60
2019-05-03 23:44:01,f218f0e7-d83e-459d-84b1-66caf5967d58,1,ade7bb2e-6fe8-4e4f-aa40-350f8b3102f3,ade7bb2e-6fe8-4e4f-aa40-350f8b3102f3
2019-05-03 23:44:22,f218f0e7-d83e-459d-84b1-66caf5967d58,1,ade7bb2e-6fe8-4e4f-aa40-350f8b3102f3,ade7bb2e-6fe8-4e4f-aa40-350f8b3102f3
2019-05-03 23:35:24,1d47f77f-52f0-49a1-84c6-0049c3b89bbc,1,717c27ea-3caf-4333-90f6-a95a4d333ab8,717c27ea-3caf-4333-90f6-a95a4d333ab8
2019-05-03 23:35:33,1d47f77f-52f0-49a1-84c6-0049c3b89bbc,1,717c27ea-3caf-4333-90f6-a95a4d333ab8,717c27ea-3caf-4333-90f6-a95a4d333ab8
2019-05-03 23:16:13,9d3e3bc6-4e43-4a04-b05c-762b864fe0c0,1,f739a020-2ca8-4943-a928-42a67eadf8c1,f739a020-2ca8-4943-a928-42a67eadf8c1
2019-05-03 23:40:06,9d3e3bc6-4e43-4a04-b05c-762b864fe0c0,1,f739a020-2ca8-4943-a928-42a67eadf8c1,f739a020-2ca8-4943-a928-42a67eadf8c1
2019-05-03 23:52:19,9d3e3bc6-4e43-4a04-b05c-762b864fe0c0,1,f739a020-2ca8-4943-a928-42a67eadf8c1,f739a020-2ca8-4943-a928-42a67eadf8c1
2019-05-04 00:07:58,9d3e3bc6-4e43-4a04-b05c-762b864fe0c0,1,f739a020-2ca8-4943-a928-42a67eadf8c1,f739a020-2ca8-4943-a928-42a67eadf8c1
2019-05-04 00:08:11,9d3e3bc6-4e43-4a04-b05c-762b864fe0c0,1,f739a020-2ca8-4943-a928-42a67eadf8c1,f739a020-2ca8-4943-a928-42a67eadf8c1
2019-05-04 00:21:44,9d3e3bc6-4e43-4a04-b05c-762b864fe0c0,1,f739a020-2ca8-4943-a928-42a67eadf8c1,f739a020-2ca8-4943-a928-42a67eadf8c1
2019-05-04 00:26:40,9d3e3bc6-4e43-4a04-b05c-762b864fe0c0,1,f739a020-2ca8-4943-a928-42a67eadf8c1,f739a020-2ca8-4943-a928-42a67eadf8c1
2019-05-03 23:15:53,732cc8ea-a542-42e9-8383-2450284a15bb,1,a5a7b061-8150-4f81-8e3c-8fd839c02d2d,a5a7b061-8150-4f81-8e3c-8fd839c02d2d
2019-05-03 23:14:54,9ec13ef4-db1a-4164-ba30-3eb47e561986,1,59965c46-97ea-4d20-972a-ff114828e6cf,59965c46-97ea-4d20-972a-ff114828e6cf
2019-05-03 23:15:13,9ec13ef4-db1a-4164-ba30-3eb47e561986,1,59965c46-97ea-4d20-972a-ff114828e6cf,59965c46-97ea-4d20-972a-ff114828e6cf
2019-05-03 23:05:49,e57f3d57-d65d-4447-884e-a8352eba26ef,1,bfa38c34-1b6e-4681-b125-067e6640d041,bfa38c34-1b6e-4681-b125-067e6640d041
2019-05-03 23:54:39,0feb8169-9cc5-442e-a739-ab77b921028b,1,8dd7e1e2-80a9-4ae0-afe5-7586d07acd0e,8dd7e1e2-80a9-4ae0-afe5-7586d07acd0e
2019-05-03 23:47:16,666e1a0b-c30d-46a5-95dd-7ea659ff1a24,1,e3e5bb22-7a56-4406-a763-3e4ea3f411ee,e3e5bb22-7a56-4406-a763-3e4ea3f411ee
2019-05-03 23:50:00,2c575916-861c-44d4-a16a-6c5cccf0a4ee,1,43c8d341-25ae-4c12-ab6c-841f7f85cab6,43c8d341-25ae-4c12-ab6c-841f7f85cab6
2019-05-03 23:48:22,4a565630-3f42-4aab-b549-393b792ec12b,1,9a4ff2b6-5f6e-42a4-80ac-e1106173d2fd,9a4ff2b6-5f6e-42a4-80ac-e1106173d2fd
2019-05-03 23:18:00,d13c6960-6aca-440d-91c2-e3781450a11b,1,a2918659-a8f8-4dfd-adc8-37d6e54b24bd,a2918659-a8f8-4dfd-adc8-37d6e54b24bd
2019-05-03 23:18:15,d13c6960-6aca-440d-91c2-e3781450a11b,1,a2918659-a8f8-4dfd-adc8-37d6e54b24bd,a2918659-a8f8-4dfd-adc8-37d6e54b24bd
2019-05-04 00:06:25,d13c6960-6aca-440d-91c2-e3781450a11b,1,a2918659-a8f8-4dfd-adc8-37d6e54b24bd,a2918659-a8f8-4dfd-adc8-37d6e54b24bd
2019-05-03 22:46:27,e23ef13f-fd3f-4c15-89ad-e90b9c074407,1,b80634bb-32a8-4669-aee3-f2f9587582eb,b80634bb-32a8-4669-aee3-f2f9587582eb
2019-05-03 23:51:54,e23ef13f-fd3f-4c15-89ad-e90b9c074407,1,b80634bb-32a8-4669-aee3-f2f9587582eb,b80634bb-32a8-4669-aee3-f2f9587582eb
2019-05-03 22:54:50,27880929-190f-45be-8389-6704742383ae,1,ebb5775b-bd3a-4a16-b683-ab44f438debf,ebb5775b-bd3a-4a16-b683-ab44f438debf
2019-05-03 23:17:33,27880929-190f-45be-8389-6704742383ae,1,ebb5775b-bd3a-4a16-b683-ab44f438debf,ebb5775b-bd3a-4a16-b683-ab44f438debf
2019-05-03 23:36:05,27880929-190f-45be-8389-6704742383ae,1,ebb5775b-bd3a-4a16-b683-ab44f438debf,ebb5775b-bd3a-4a16-b683-ab44f438debf
2019-05-03 23:51:00,27880929-190f-45be-8389-6704742383ae,1,ebb5775b-bd3a-4a16-b683-ab44f438debf,ebb5775b-bd3a-4a16-b683-ab44f438debf
2019-05-04 00:10:57,27880929-190f-45be-8389-6704742383ae,1,ebb5775b-bd3a-4a16-b683-ab44f438debf,ebb5775b-bd3a-4a16-b683-ab44f438debf
2019-05-03 22:51:28,6080f986-761d-4b9f-9fa5-8e512c23e9d5,1,520e75d9-86f6-41a0-a58f-fd35dda75098,520e75d9-86f6-41a0-a58f-fd35dda75098
2019-05-03 23:08:51,6080f986-761d-4b9f-9fa5-8e512c23e9d5,1,520e75d9-86f6-41a0-a58f-fd35dda75098,520e75d9-86f6-41a0-a58f-fd35dda75098
2019-05-03 23:37:36,6080f986-761d-4b9f-9fa5-8e512c23e9d5,1,520e75d9-86f6-41a0-a58f-fd35dda75098,520e75d9-86f6-41a0-a58f-fd35dda75098
2019-05-03 22:58:08,ed4d3de6-2f61-498c-8477-1ac098d52aef,1,52362ed1-3f5d-4964-8e36-85f98b7e24a6,52362ed1-3f5d-4964-8e36-85f98b7e24a6
2019-05-03 23:09:36,ed4d3de6-2f61-498c-8477-1ac098d52aef,1,52362ed1-3f5d-4964-8e36-85f98b7e24a6,52362ed1-3f5d-4964-8e36-85f98b7e24a6
2019-05-03 23:09:49,ed4d3de6-2f61-498c-8477-1ac098d52aef,1,52362ed1-3f5d-4964-8e36-85f98b7e24a6,52362ed1-3f5d-4964-8e36-85f98b7e24a6
2019-05-03 23:17:34,ed4d3de6-2f61-498c-8477-1ac098d52aef,1,52362ed1-3f5d-4964-8e36-85f98b7e24a6,52362ed1-3f5d-4964-8e36-85f98b7e24a6
2019-05-04 00:33:21,ed4d3de6-2f61-498c-8477-1ac098d52aef,1,52362ed1-3f5d-4964-8e36-85f98b7e24a6,52362ed1-3f5d-4964-8e36-85f98b7e24a6
2019-05-03 23:14:17,2818f0e8-0b20-44b5-be0c-f093b8629859,1,16844fde-dbde-4386-9389-983fce36cc6a,16844fde-dbde-4386-9389-983fce36cc6a
2019-05-03 23:34:36,2818f0e8-0b20-44b5-be0c-f093b8629859,1,16844fde-dbde-4386-9389-983fce36cc6a,16844fde-dbde-4386-9389-983fce36cc6a
2019-05-03 23:37:35,2818f0e8-0b20-44b5-be0c-f093b8629859,1,16844fde-dbde-4386-9389-983fce36cc6a,16844fde-dbde-4386-9389-983fce36cc6a
2019-05-04 00:14:41,9e5d762c-244b-4b79-917e-554bd8de011b,1,1932837b-cd23-457e-af01-a0139f3b1d8a,1932837b-cd23-457e-af01-a0139f3b1d8a
2019-05-04 00:15:11,9e5d762c-244b-4b79-917e-554bd8de011b,1,1932837b-cd23-457e-af01-a0139f3b1d8a,1932837b-cd23-457e-af01-a0139f3b1d8a
2019-05-04 00:28:06,849106c3-6234-4943-ab4a-fa57a571f448,1,1c0dc5d0-bd07-492e-9839-224b33862e3d,1c0dc5d0-bd07-492e-9839-224b33862e3d
2019-05-03 22:59:49,27880929-190f-45be-8389-6704742383ae,0,NA,NA
2019-05-03 23:15:33,e57f3d57-d65d-4447-884e-a8352eba26ef,0,NA,NA
2019-05-03 23:55:21,9e5d762c-244b-4b79-917e-554bd8de011b,0,NA,NA
2019-05-03 23:55:42,0feb8169-9cc5-442e-a739-ab77b921028b,0,NA,NA
2019-05-03 22:59:30,ed4d3de6-2f61-498c-8477-1ac098d52aef,0,NA,NA
2019-05-03 23:14:52,e57f3d57-d65d-4447-884e-a8352eba26ef,0,NA,NA
2019-05-03 23:38:15,1d47f77f-52f0-49a1-84c6-0049c3b89bbc,0,NA,NA
2019-05-03 23:38:37,7649531b-8829-4da1-8f37-114a5348fee4,0,NA,NA
2019-05-03 23:38:57,1d47f77f-52f0-49a1-84c6-0049c3b89bbc,0,NA,NA
2019-05-03 23:50:18,d13c6960-6aca-440d-91c2-e3781450a11b,0,NA,NA
2019-05-03 23:21:52,b5b0d1c5-5c8d-42aa-be7b-de01d0a67b94,0,NA,NA
2019-05-03 23:29:34,e57f3d57-d65d-4447-884e-a8352eba26ef,0,NA,NA
2019-05-03 23:37:16,1d47f77f-52f0-49a1-84c6-0049c3b89bbc,0,NA,NA
2019-05-03 23:37:36,27880929-190f-45be-8389-6704742383ae,0,NA,NA
2019-05-03 23:38:18,7649531b-8829-4da1-8f37-114a5348fee4,0,NA,NA
2019-05-03 23:41:17,2818f0e8-0b20-44b5-be0c-f093b8629859,0,NA,NA
2019-05-04 00:00:22,9e5d762c-244b-4b79-917e-554bd8de011b,0,NA,NA
2019-05-04 00:13:03,9d3e3bc6-4e43-4a04-b05c-762b864fe0c0,0,NA,NA
2019-05-04 00:17:25,f4ba17c1-7670-4245-a84d-054c67d35e6e,0,NA,NA
2019-05-04 00:17:44,849106c3-6234-4943-ab4a-fa57a571f448,0,NA,NA
2019-05-03 23:26:09,9d3e3bc6-4e43-4a04-b05c-762b864fe0c0,0,NA,NA
2019-05-03 23:28:10,d13c6960-6aca-440d-91c2-e3781450a11b,0,NA,NA
2019-05-03 23:50:52,d13c6960-6aca-440d-91c2-e3781450a11b,0,NA,NA
2019-05-03 23:51:14,8e6b3076-fc80-48b7-bf2d-6b872043d34a,0,NA,NA
2019-05-04 00:09:16,9d3e3bc6-4e43-4a04-b05c-762b864fe0c0,0,NA,NA
2019-05-04 00:27:00,e1445d04-7d51-4653-a05f-2b2bbc8739c7,0,NA,NA
2019-05-03 23:00:28,27880929-190f-45be-8389-6704742383ae,0,NA,NA
2019-05-03 23:04:28,ed4d3de6-2f61-498c-8477-1ac098d52aef,0,NA,NA
2019-05-03 23:27:51,d13c6960-6aca-440d-91c2-e3781450a11b,0,NA,NA
2019-05-03 23:49:15,ed4d3de6-2f61-498c-8477-1ac098d52aef,0,NA,NA
2019-05-03 23:55:56,0feb8169-9cc5-442e-a739-ab77b921028b,0,NA,NA
2019-05-03 23:56:35,9d3e3bc6-4e43-4a04-b05c-762b864fe0c0,0,NA,NA
2019-05-03 23:58:57,9e5d762c-244b-4b79-917e-554bd8de011b,0,NA,NA
2019-05-03 23:06:34,2818f0e8-0b20-44b5-be0c-f093b8629859,0,NA,NA
2019-05-03 23:13:35,27880929-190f-45be-8389-6704742383ae,0,NA,NA
2019-05-03 23:18:36,ed4d3de6-2f61-498c-8477-1ac098d52aef,0,NA,NA
2019-05-03 23:35:00,9d3e3bc6-4e43-4a04-b05c-762b864fe0c0,0,NA,NA
2019-05-03 23:39:21,1d47f77f-52f0-49a1-84c6-0049c3b89bbc,0,NA,NA
2019-05-03 23:45:02,8e6b3076-fc80-48b7-bf2d-6b872043d34a,0,NA,NA
2019-05-03 23:53:47,9e5d762c-244b-4b79-917e-554bd8de011b,0,NA,NA
2019-05-03 23:56:48,9d3e3bc6-4e43-4a04-b05c-762b864fe0c0,0,NA,NA
2019-05-03 23:59:29,849106c3-6234-4943-ab4a-fa57a571f448,0,NA,NA
2019-05-03 23:07:31,66b132a3-53cd-4ab9-b3bc-c78dc8684b2e,0,NA,NA
2019-05-03 23:09:55,e57f3d57-d65d-4447-884e-a8352eba26ef,0,NA,NA
2019-05-03 23:18:17,ed4d3de6-2f61-498c-8477-1ac098d52aef,0,NA,NA
2019-05-03 23:30:43,e57f3d57-d65d-4447-884e-a8352eba26ef,0,NA,NA
2019-05-03 23:31:03,b5b0d1c5-5c8d-42aa-be7b-de01d0a67b94,0,NA,NA
2019-05-03 23:33:04,8e6b3076-fc80-48b7-bf2d-6b872043d34a,0,NA,NA
2019-05-03 23:38:05,1d47f77f-52f0-49a1-84c6-0049c3b89bbc,0,NA,NA
2019-05-03 23:38:24,27880929-190f-45be-8389-6704742383ae,0,NA,NA
2019-05-03 23:56:27,849106c3-6234-4943-ab4a-fa57a571f448,0,NA,NA
2019-05-04 00:02:08,9d3e3bc6-4e43-4a04-b05c-762b864fe0c0,0,NA,NA
2019-05-04 00:02:48,9d3e3bc6-4e43-4a04-b05c-762b864fe0c0,0,NA,NA
2019-05-04 00:09:10,8e6b3076-fc80-48b7-bf2d-6b872043d34a,0,NA,NA
2019-05-03 23:06:54,e57f3d57-d65d-4447-884e-a8352eba26ef,0,NA,NA
2019-05-03 23:07:14,2818f0e8-0b20-44b5-be0c-f093b8629859,0,NA,NA
2019-05-03 23:14:55,0feb8169-9cc5-442e-a739-ab77b921028b,0,NA,NA
2019-05-03 23:36:19,8e6b3076-fc80-48b7-bf2d-6b872043d34a,0,NA,NA
2019-05-03 23:44:00,e1445d04-7d51-4653-a05f-2b2bbc8739c7,0,NA,NA
2019-05-04 00:01:43,9d3e3bc6-4e43-4a04-b05c-762b864fe0c0,0,NA,NA
2019-05-04 00:25:32,9e5d762c-244b-4b79-917e-554bd8de011b,0,NA,NA
2019-05-03 23:01:07,27880929-190f-45be-8389-6704742383ae,0,NA,NA
2019-05-03 23:05:09,6080f986-761d-4b9f-9fa5-8e512c23e9d5,0,NA,NA
2019-05-03 23:32:13,b5b0d1c5-5c8d-42aa-be7b-de01d0a67b94,0,NA,NA
2019-05-03 23:54:15,9e5d762c-244b-4b79-917e-554bd8de011b,0,NA,NA
2019-05-03 23:56:16,9d3e3bc6-4e43-4a04-b05c-762b864fe0c0,0,NA,NA
2019-05-04 00:17:18,732cc8ea-a542-42e9-8383-2450284a15bb,0,NA,NA
2019-05-04 00:18:01,275ce862-2b33-4a2a-8b06-72e8583924d4,0,NA,NA
2019-05-04 00:18:01,f4ba17c1-7670-4245-a84d-054c67d35e6e,0,NA,NA
2019-05-04 00:18:23,e57f3d57-d65d-4447-884e-a8352eba26ef,0,NA,NA
2019-05-04 00:18:23,4905c7ec-1a02-4041-9fac-12ed9125729f,0,NA,NA
2019-05-04 00:25:43,9e5d762c-244b-4b79-917e-554bd8de011b,0,NA,NA
2019-05-04 00:27:25,9e5d762c-244b-4b79-917e-554bd8de011b,0,NA,NA
2019-05-03 23:16:52,9d3e3bc6-4e43-4a04-b05c-762b864fe0c0,0,NA,NA
2019-05-03 23:24:53,4a565630-3f42-4aab-b549-393b792ec12b,0,NA,NA
2019-05-03 23:38:35,1d47f77f-52f0-49a1-84c6-0049c3b89bbc,0,NA,NA
2019-05-03 23:38:55,7649531b-8829-4da1-8f37-114a5348fee4,0,NA,NA
2019-05-03 23:49:37,ed4d3de6-2f61-498c-8477-1ac098d52aef,0,NA,NA
2019-05-04 00:01:00,9d3e3bc6-4e43-4a04-b05c-762b864fe0c0,0,NA,NA
2019-05-04 00:02:59,9d3e3bc6-4e43-4a04-b05c-762b864fe0c0,0,NA,NA
2019-05-04 00:16:02,732cc8ea-a542-42e9-8383-2450284a15bb,0,NA,NA
2019-05-04 00:27:23,e1445d04-7d51-4653-a05f-2b2bbc8739c7,0,NA,NA
2019-05-03 23:20:50,9d3e3bc6-4e43-4a04-b05c-762b864fe0c0,0,NA,NA
2019-05-03 23:47:34,666e1a0b-c30d-46a5-95dd-7ea659ff1a24,0,NA,NA
2019-05-03 23:59:56,9e5d762c-244b-4b79-917e-554bd8de011b,0,NA,NA
2019-05-03 23:17:30,849106c3-6234-4943-ab4a-fa57a571f448,0,NA,NA
2019-05-03 23:31:13,0feb8169-9cc5-442e-a739-ab77b921028b,0,NA,NA
2019-05-03 23:31:32,b5b0d1c5-5c8d-42aa-be7b-de01d0a67b94,0,NA,NA
2019-05-03 23:31:51,e57f3d57-d65d-4447-884e-a8352eba26ef,0,NA,NA
2019-05-03 23:36:33,27880929-190f-45be-8389-6704742383ae,0,NA,NA
2019-05-03 23:36:54,1d47f77f-52f0-49a1-84c6-0049c3b89bbc,0,NA,NA
2019-05-03 23:48:56,4a565630-3f42-4aab-b549-393b792ec12b,0,NA,NA
2019-05-04 00:17:38,732cc8ea-a542-42e9-8383-2450284a15bb,0,NA,NA
2019-05-04 00:18:38,e57f3d57-d65d-4447-884e-a8352eba26ef,0,NA,NA
2019-05-04 00:18:38,4905c7ec-1a02-4041-9fac-12ed9125729f,0,NA,NA
2019-05-04 00:18:58,275ce862-2b33-4a2a-8b06-72e8583924d4,0,NA,NA
2019-05-04 00:26:01,9e5d762c-244b-4b79-917e-554bd8de011b,0,NA,NA
2019-05-03 23:26:33,e57f3d57-d65d-4447-884e-a8352eba26ef,0,NA,NA
2019-05-03 23:30:54,0feb8169-9cc5-442e-a739-ab77b921028b,0,NA,NA
2019-05-03 23:53:17,9d3e3bc6-4e43-4a04-b05c-762b864fe0c0,0,NA,NA
2019-05-04 00:02:18,9d3e3bc6-4e43-4a04-b05c-762b864fe0c0,0,NA,NA
2019-05-04 00:12:40,27880929-190f-45be-8389-6704742383ae,0,NA,NA
2019-05-03 23:13:31,f4ba17c1-7670-4245-a84d-054c67d35e6e,0,NA,NA
2019-05-03 23:21:33,b5b0d1c5-5c8d-42aa-be7b-de01d0a67b94,0,NA,NA
2019-05-03 23:38:38,d13c6960-6aca-440d-91c2-e3781450a11b,0,NA,NA
2019-05-03 23:44:18,8e6b3076-fc80-48b7-bf2d-6b872043d34a,0,NA,NA
2019-05-03 23:45:17,8e6b3076-fc80-48b7-bf2d-6b872043d34a,0,NA,NA
2019-05-04 00:09:21,8e6b3076-fc80-48b7-bf2d-6b872043d34a,0,NA,NA
2019-05-04 00:12:03,9d3e3bc6-4e43-4a04-b05c-762b864fe0c0,0,NA,NA
2019-05-03 23:10:11,e57f3d57-d65d-4447-884e-a8352eba26ef,0,NA,NA
2019-05-03 23:13:51,27880929-190f-45be-8389-6704742383ae,0,NA,NA
2019-05-03 23:25:56,9d3e3bc6-4e43-4a04-b05c-762b864fe0c0,0,NA,NA
2019-05-04 00:16:41,732cc8ea-a542-42e9-8383-2450284a15bb,0,NA,NA
