date,trigger,state
2019-11-29 22:47:07,8edf56ca-e0b3-421a-a991-0a108193ea98,S
2019-11-29 22:52:22,8edf56ca-e0b3-421a-a991-0a108193ea98,A
2019-11-29 22:59:06,8edf56ca-e0b3-421a-a991-0a108193ea98,S
2019-11-29 23:04:06,8edf56ca-e0b3-421a-a991-0a108193ea98,A
2019-11-29 23:05:01,8edf56ca-e0b3-421a-a991-0a108193ea98,S
2019-11-29 23:11:48,8edf56ca-e0b3-421a-a991-0a108193ea98,A
2019-11-29 23:14:05,8edf56ca-e0b3-421a-a991-0a108193ea98,S
2019-11-29 23:20:10,8edf56ca-e0b3-421a-a991-0a108193ea98,A
2019-11-29 23:20:12,8edf56ca-e0b3-421a-a991-0a108193ea98,S
2019-11-29 23:20:56,8edf56ca-e0b3-421a-a991-0a108193ea98,A
2019-11-29 23:24:49,8edf56ca-e0b3-421a-a991-0a108193ea98,S
2019-11-29 23:30:25,8edf56ca-e0b3-421a-a991-0a108193ea98,A
2019-11-29 23:32:27,8edf56ca-e0b3-421a-a991-0a108193ea98,S
2019-11-29 23:35:40,8edf56ca-e0b3-421a-a991-0a108193ea98,A
2019-11-29 23:38:31,8edf56ca-e0b3-421a-a991-0a108193ea98,S
2019-11-29 23:41:46,8edf56ca-e0b3-421a-a991-0a108193ea98,A
2019-11-29 23:50:47,8edf56ca-e0b3-421a-a991-0a108193ea98,S
2019-11-29 23:54:21,8edf56ca-e0b3-421a-a991-0a108193ea98,A
2019-11-29 23:55:19,8edf56ca-e0b3-421a-a991-0a108193ea98,S
2019-11-29 23:58:46,8edf56ca-e0b3-421a-a991-0a108193ea98,A
2019-11-30 00:00:44,8edf56ca-e0b3-421a-a991-0a108193ea98,S
2019-11-30 00:01:26,8edf56ca-e0b3-421a-a991-0a108193ea98,A
2019-11-30 00:08:34,8edf56ca-e0b3-421a-a991-0a108193ea98,S
2019-11-30 00:10:58,8edf56ca-e0b3-421a-a991-0a108193ea98,A
2019-11-29 22:33:31,4bc66b35-ce8b-4033-adfc-d17ce04e9bd9,S
2019-11-29 22:45:26,4bc66b35-ce8b-4033-adfc-d17ce04e9bd9,A
2019-11-29 22:45:44,4bc66b35-ce8b-4033-adfc-d17ce04e9bd9,S
2019-11-29 23:01:09,4bc66b35-ce8b-4033-adfc-d17ce04e9bd9,A
2019-11-29 23:04:01,4bc66b35-ce8b-4033-adfc-d17ce04e9bd9,S
2019-11-29 23:06:01,4bc66b35-ce8b-4033-adfc-d17ce04e9bd9,A
2019-11-29 23:14:08,4bc66b35-ce8b-4033-adfc-d17ce04e9bd9,S
2019-11-29 23:15:04,4bc66b35-ce8b-4033-adfc-d17ce04e9bd9,A
2019-11-29 23:17:17,4bc66b35-ce8b-4033-adfc-d17ce04e9bd9,S
2019-11-29 23:31:41,4bc66b35-ce8b-4033-adfc-d17ce04e9bd9,A
2019-11-29 23:36:59,4bc66b35-ce8b-4033-adfc-d17ce04e9bd9,S
2019-11-29 23:38:33,4bc66b35-ce8b-4033-adfc-d17ce04e9bd9,A
2019-11-29 23:39:20,4bc66b35-ce8b-4033-adfc-d17ce04e9bd9,S
2019-11-29 23:41:17,4bc66b35-ce8b-4033-adfc-d17ce04e9bd9,A
2019-11-29 23:44:35,4bc66b35-ce8b-4033-adfc-d17ce04e9bd9,S
2019-11-29 23:44:41,4bc66b35-ce8b-4033-adfc-d17ce04e9bd9,A
2019-11-29 23:57:01,4bc66b35-ce8b-4033-adfc-d17ce04e9bd9,S
2019-11-29 23:58:21,4bc66b35-ce8b-4033-adfc-d17ce04e9bd9,A
2019-11-30 00:03:13,4bc66b35-ce8b-4033-adfc-d17ce04e9bd9,S
2019-11-30 00:06:39,4bc66b35-ce8b-4033-adfc-d17ce04e9bd9,A
2019-11-30 00:07:53,4bc66b35-ce8b-4033-adfc-d17ce04e9bd9,S
2019-11-30 00:08:35,4bc66b35-ce8b-4033-adfc-d17ce04e9bd9,A
2019-11-30 00:21:15,4bc66b35-ce8b-4033-adfc-d17ce04e9bd9,S
2019-11-30 00:22:43,4bc66b35-ce8b-4033-adfc-d17ce04e9bd9,A
2019-11-29 22:36:39,cfed42bb-be0f-4b35-910e-96d9ce6f3a1a,S
2019-11-29 22:48:44,cfed42bb-be0f-4b35-910e-96d9ce6f3a1a,A
2019-11-29 23:07:05,cfed42bb-be0f-4b35-910e-96d9ce6f3a1a,S
2019-11-29 23:09:29,cfed42bb-be0f-4b35-910e-96d9ce6f3a1a,A
2019-11-29 23:12:47,cfed42bb-be0f-4b35-910e-96d9ce6f3a1a,S
2019-11-29 23:16:06,cfed42bb-be0f-4b35-910e-96d9ce6f3a1a,A
2019-11-29 23:27:36,cfed42bb-be0f-4b35-910e-96d9ce6f3a1a,S
2019-11-29 23:28:26,cfed42bb-be0f-4b35-910e-96d9ce6f3a1a,A
2019-11-29 23:30:05,cfed42bb-be0f-4b35-910e-96d9ce6f3a1a,S
2019-11-29 23:30:57,cfed42bb-be0f-4b35-910e-96d9ce6f3a1a,A
2019-11-29 23:48:22,cfed42bb-be0f-4b35-910e-96d9ce6f3a1a,S
2019-11-29 23:48:27,cfed42bb-be0f-4b35-910e-96d9ce6f3a1a,A
2019-11-29 23:51:37,cfed42bb-be0f-4b35-910e-96d9ce6f3a1a,S
2019-11-29 23:55:04,cfed42bb-be0f-4b35-910e-96d9ce6f3a1a,A
2019-11-29 23:57:18,cfed42bb-be0f-4b35-910e-96d9ce6f3a1a,S
2019-11-30 00:03:14,cfed42bb-be0f-4b35-910e-96d9ce6f3a1a,A
2019-11-30 00:04:37,cfed42bb-be0f-4b35-910e-96d9ce6f3a1a,S
2019-11-30 00:08:32,cfed42bb-be0f-4b35-910e-96d9ce6f3a1a,A
2019-11-30 00:14:06,cfed42bb-be0f-4b35-910e-96d9ce6f3a1a,S
2019-11-29 23:08:16,9cf89d17-ed56-40ba-8d75-8e435b8946fb,S
2019-11-29 23:10:35,9cf89d17-ed56-40ba-8d75-8e435b8946fb,A
2019-11-29 23:17:06,9cf89d17-ed56-40ba-8d75-8e435b8946fb,S
2019-11-29 23:18:04,9cf89d17-ed56-40ba-8d75-8e435b8946fb,A
2019-11-29 23:18:25,9cf89d17-ed56-40ba-8d75-8e435b8946fb,S
2019-11-29 23:23:34,9cf89d17-ed56-40ba-8d75-8e435b8946fb,A
2019-11-29 23:28:28,9cf89d17-ed56-40ba-8d75-8e435b8946fb,S
2019-11-29 23:33:08,9cf89d17-ed56-40ba-8d75-8e435b8946fb,A
2019-11-29 23:46:08,9cf89d17-ed56-40ba-8d75-8e435b8946fb,S
2019-11-30 00:03:37,9cf89d17-ed56-40ba-8d75-8e435b8946fb,A
2019-11-30 00:08:20,9cf89d17-ed56-40ba-8d75-8e435b8946fb,S
2019-11-30 00:10:29,9cf89d17-ed56-40ba-8d75-8e435b8946fb,A
2019-11-30 00:11:42,9cf89d17-ed56-40ba-8d75-8e435b8946fb,S
2019-11-30 00:13:04,9cf89d17-ed56-40ba-8d75-8e435b8946fb,A
2019-11-30 00:13:48,9cf89d17-ed56-40ba-8d75-8e435b8946fb,S
2019-11-30 00:14:21,9cf89d17-ed56-40ba-8d75-8e435b8946fb,A
2019-11-30 00:15:26,9cf89d17-ed56-40ba-8d75-8e435b8946fb,S
2019-11-30 00:22:06,9cf89d17-ed56-40ba-8d75-8e435b8946fb,A
2019-11-30 00:22:26,9cf89d17-ed56-40ba-8d75-8e435b8946fb,S
2019-11-29 23:06:38,17bd740a-0357-4161-adee-2238f485216f,S
2019-11-29 23:20:12,17bd740a-0357-4161-adee-2238f485216f,A
2019-11-29 22:59:22,fb037745-6ce1-4cef-9e39-cba66b86218a,S
2019-11-29 23:01:17,fb037745-6ce1-4cef-9e39-cba66b86218a,A
2019-11-29 23:01:46,fb037745-6ce1-4cef-9e39-cba66b86218a,S
2019-11-29 23:10:05,fb037745-6ce1-4cef-9e39-cba66b86218a,A
2019-11-29 23:12:57,fb037745-6ce1-4cef-9e39-cba66b86218a,S
2019-11-29 23:19:18,fb037745-6ce1-4cef-9e39-cba66b86218a,A
2019-11-29 23:23:54,fb037745-6ce1-4cef-9e39-cba66b86218a,S
2019-11-29 23:25:07,fb037745-6ce1-4cef-9e39-cba66b86218a,A
2019-11-29 23:33:51,fb037745-6ce1-4cef-9e39-cba66b86218a,S
2019-11-29 23:35:25,fb037745-6ce1-4cef-9e39-cba66b86218a,A
2019-11-29 23:43:27,fb037745-6ce1-4cef-9e39-cba66b86218a,S
2019-11-29 23:43:40,fb037745-6ce1-4cef-9e39-cba66b86218a,A
2019-11-29 23:50:15,fb037745-6ce1-4cef-9e39-cba66b86218a,S
2019-11-29 23:55:09,fb037745-6ce1-4cef-9e39-cba66b86218a,A
2019-11-29 23:56:04,fb037745-6ce1-4cef-9e39-cba66b86218a,S
2019-11-29 23:58:01,fb037745-6ce1-4cef-9e39-cba66b86218a,A
2019-11-29 23:58:02,fb037745-6ce1-4cef-9e39-cba66b86218a,S
2019-11-29 23:59:22,fb037745-6ce1-4cef-9e39-cba66b86218a,A
2019-11-30 00:02:09,fb037745-6ce1-4cef-9e39-cba66b86218a,S
2019-11-30 00:09:35,fb037745-6ce1-4cef-9e39-cba66b86218a,A
2019-11-30 00:11:08,fb037745-6ce1-4cef-9e39-cba66b86218a,S
2019-11-30 00:11:43,fb037745-6ce1-4cef-9e39-cba66b86218a,A
2019-11-30 00:18:46,fb037745-6ce1-4cef-9e39-cba66b86218a,S
2019-11-30 00:22:15,fb037745-6ce1-4cef-9e39-cba66b86218a,A
2019-11-29 23:00:20,1b8b81c4-7298-4e51-a74e-e1dfd62ca533,A
2019-11-29 23:09:15,1b8b81c4-7298-4e51-a74e-e1dfd62ca533,S
2019-11-29 23:19:58,1b8b81c4-7298-4e51-a74e-e1dfd62ca533,A
2019-11-29 23:25:30,1b8b81c4-7298-4e51-a74e-e1dfd62ca533,S
2019-11-29 23:28:08,1b8b81c4-7298-4e51-a74e-e1dfd62ca533,A
2019-11-29 23:28:53,1b8b81c4-7298-4e51-a74e-e1dfd62ca533,S
2019-11-29 23:33:33,1b8b81c4-7298-4e51-a74e-e1dfd62ca533,A
2019-11-29 23:35:23,1b8b81c4-7298-4e51-a74e-e1dfd62ca533,S
2019-11-29 23:48:38,1b8b81c4-7298-4e51-a74e-e1dfd62ca533,A
2019-11-29 23:50:31,1b8b81c4-7298-4e51-a74e-e1dfd62ca533,S
2019-11-29 23:56:43,1b8b81c4-7298-4e51-a74e-e1dfd62ca533,A
2019-11-29 23:59:31,1b8b81c4-7298-4e51-a74e-e1dfd62ca533,S
2019-11-30 00:01:18,1b8b81c4-7298-4e51-a74e-e1dfd62ca533,A
2019-11-30 00:01:41,1b8b81c4-7298-4e51-a74e-e1dfd62ca533,S
2019-11-30 00:02:21,1b8b81c4-7298-4e51-a74e-e1dfd62ca533,A
2019-11-30 00:14:51,1b8b81c4-7298-4e51-a74e-e1dfd62ca533,S
2019-11-30 00:14:53,1b8b81c4-7298-4e51-a74e-e1dfd62ca533,A
2019-11-30 00:15:29,1b8b81c4-7298-4e51-a74e-e1dfd62ca533,S
2019-11-30 00:15:57,1b8b81c4-7298-4e51-a74e-e1dfd62ca533,A
2019-11-29 22:17:23,ebb72076-1eeb-4eb2-b5c3-7ef5acf77f55,A
2019-11-29 22:21:40,ebb72076-1eeb-4eb2-b5c3-7ef5acf77f55,S
2019-11-29 22:23:57,ebb72076-1eeb-4eb2-b5c3-7ef5acf77f55,A
2019-11-29 22:31:40,ebb72076-1eeb-4eb2-b5c3-7ef5acf77f55,S
2019-11-29 22:40:58,ebb72076-1eeb-4eb2-b5c3-7ef5acf77f55,A
2019-11-29 22:45:19,ebb72076-1eeb-4eb2-b5c3-7ef5acf77f55,S
2019-11-29 22:49:53,ebb72076-1eeb-4eb2-b5c3-7ef5acf77f55,A
2019-11-29 23:05:09,ebb72076-1eeb-4eb2-b5c3-7ef5acf77f55,S
2019-11-29 23:10:02,ebb72076-1eeb-4eb2-b5c3-7ef5acf77f55,A
2019-11-29 23:22:51,ebb72076-1eeb-4eb2-b5c3-7ef5acf77f55,S
2019-11-29 23:23:20,ebb72076-1eeb-4eb2-b5c3-7ef5acf77f55,A
2019-11-29 23:30:33,ebb72076-1eeb-4eb2-b5c3-7ef5acf77f55,S
2019-11-29 23:38:28,ebb72076-1eeb-4eb2-b5c3-7ef5acf77f55,A
2019-11-29 23:39:37,ebb72076-1eeb-4eb2-b5c3-7ef5acf77f55,S
2019-11-29 23:41:10,ebb72076-1eeb-4eb2-b5c3-7ef5acf77f55,A
2019-11-29 23:41:47,ebb72076-1eeb-4eb2-b5c3-7ef5acf77f55,S
2019-11-29 23:43:20,ebb72076-1eeb-4eb2-b5c3-7ef5acf77f55,A
2019-11-29 23:43:55,ebb72076-1eeb-4eb2-b5c3-7ef5acf77f55,S
2019-11-29 23:44:02,ebb72076-1eeb-4eb2-b5c3-7ef5acf77f55,A
2019-11-29 23:44:23,ebb72076-1eeb-4eb2-b5c3-7ef5acf77f55,S
2019-11-29 23:45:20,ebb72076-1eeb-4eb2-b5c3-7ef5acf77f55,A
2019-11-29 23:52:45,ebb72076-1eeb-4eb2-b5c3-7ef5acf77f55,S
2019-11-30 00:05:03,ebb72076-1eeb-4eb2-b5c3-7ef5acf77f55,A
2019-11-30 00:05:42,ebb72076-1eeb-4eb2-b5c3-7ef5acf77f55,S
2019-11-29 22:59:23,74c1ed7a-3e84-49b2-8823-a61744533c7a,A
2019-11-29 23:01:14,74c1ed7a-3e84-49b2-8823-a61744533c7a,S
2019-11-29 23:10:42,74c1ed7a-3e84-49b2-8823-a61744533c7a,A
2019-11-29 23:24:50,74c1ed7a-3e84-49b2-8823-a61744533c7a,S
2019-11-29 23:26:26,74c1ed7a-3e84-49b2-8823-a61744533c7a,A
2019-11-29 23:28:00,74c1ed7a-3e84-49b2-8823-a61744533c7a,S
2019-11-29 23:29:53,74c1ed7a-3e84-49b2-8823-a61744533c7a,A
2019-11-29 23:36:21,74c1ed7a-3e84-49b2-8823-a61744533c7a,S
2019-11-29 23:41:15,74c1ed7a-3e84-49b2-8823-a61744533c7a,A
2019-11-29 23:48:46,74c1ed7a-3e84-49b2-8823-a61744533c7a,S
2019-11-29 23:48:48,74c1ed7a-3e84-49b2-8823-a61744533c7a,A
2019-11-29 23:49:08,74c1ed7a-3e84-49b2-8823-a61744533c7a,S
2019-11-29 23:51:28,74c1ed7a-3e84-49b2-8823-a61744533c7a,A
2019-11-29 23:54:40,74c1ed7a-3e84-49b2-8823-a61744533c7a,S
2019-11-29 23:55:26,74c1ed7a-3e84-49b2-8823-a61744533c7a,A
2019-11-30 00:06:26,74c1ed7a-3e84-49b2-8823-a61744533c7a,S
2019-11-30 00:07:14,74c1ed7a-3e84-49b2-8823-a61744533c7a,A
2019-11-30 00:07:40,74c1ed7a-3e84-49b2-8823-a61744533c7a,S
2019-11-30 00:09:53,74c1ed7a-3e84-49b2-8823-a61744533c7a,A
2019-11-30 00:12:07,74c1ed7a-3e84-49b2-8823-a61744533c7a,S
2019-11-30 00:12:26,74c1ed7a-3e84-49b2-8823-a61744533c7a,A
2019-11-30 00:21:51,74c1ed7a-3e84-49b2-8823-a61744533c7a,S
2019-11-29 22:23:18,6c429251-7b54-473b-b1a0-a07049bde3b9,A
2019-11-29 22:26:46,6c429251-7b54-473b-b1a0-a07049bde3b9,S
2019-11-29 22:35:19,6c429251-7b54-473b-b1a0-a07049bde3b9,A
2019-11-29 22:38:22,6c429251-7b54-473b-b1a0-a07049bde3b9,S
2019-11-29 22:38:39,6c429251-7b54-473b-b1a0-a07049bde3b9,A
2019-11-29 22:41:08,6c429251-7b54-473b-b1a0-a07049bde3b9,S
2019-11-29 22:46:27,6c429251-7b54-473b-b1a0-a07049bde3b9,A
2019-11-29 22:50:23,6c429251-7b54-473b-b1a0-a07049bde3b9,S
2019-11-29 22:53:07,6c429251-7b54-473b-b1a0-a07049bde3b9,A
2019-11-29 23:03:55,6c429251-7b54-473b-b1a0-a07049bde3b9,S
2019-11-29 23:09:33,6c429251-7b54-473b-b1a0-a07049bde3b9,A
2019-11-29 23:32:07,6c429251-7b54-473b-b1a0-a07049bde3b9,S
2019-11-29 23:56:28,6c429251-7b54-473b-b1a0-a07049bde3b9,A
2019-11-30 00:03:02,6c429251-7b54-473b-b1a0-a07049bde3b9,S
2019-11-30 00:06:28,6c429251-7b54-473b-b1a0-a07049bde3b9,A
2019-11-30 00:09:23,6c429251-7b54-473b-b1a0-a07049bde3b9,S
2019-11-30 00:14:07,6c429251-7b54-473b-b1a0-a07049bde3b9,A
2019-11-29 22:51:47,8793bbfe-c941-482d-b1e6-664df3033e3f,S
2019-11-29 23:04:02,8793bbfe-c941-482d-b1e6-664df3033e3f,A
2019-11-29 23:14:10,8793bbfe-c941-482d-b1e6-664df3033e3f,S
2019-11-29 23:15:28,8793bbfe-c941-482d-b1e6-664df3033e3f,A
2019-11-29 23:17:27,8793bbfe-c941-482d-b1e6-664df3033e3f,S
2019-11-29 23:24:06,8793bbfe-c941-482d-b1e6-664df3033e3f,A
2019-11-29 23:24:53,8793bbfe-c941-482d-b1e6-664df3033e3f,S
2019-11-29 23:27:15,8793bbfe-c941-482d-b1e6-664df3033e3f,A
2019-11-29 23:28:06,8793bbfe-c941-482d-b1e6-664df3033e3f,S
2019-11-29 23:28:28,8793bbfe-c941-482d-b1e6-664df3033e3f,A
2019-11-29 23:28:46,8793bbfe-c941-482d-b1e6-664df3033e3f,S
2019-11-29 23:35:43,8793bbfe-c941-482d-b1e6-664df3033e3f,A
2019-11-29 23:48:33,8793bbfe-c941-482d-b1e6-664df3033e3f,S
2019-11-29 23:53:10,8793bbfe-c941-482d-b1e6-664df3033e3f,A
2019-11-29 23:53:49,8793bbfe-c941-482d-b1e6-664df3033e3f,S
2019-11-30 00:10:45,8793bbfe-c941-482d-b1e6-664df3033e3f,A
2019-11-30 00:13:05,8793bbfe-c941-482d-b1e6-664df3033e3f,S
2019-11-30 00:13:18,8793bbfe-c941-482d-b1e6-664df3033e3f,A
2019-11-30 00:14:38,8793bbfe-c941-482d-b1e6-664df3033e3f,S
2019-11-30 00:17:04,8793bbfe-c941-482d-b1e6-664df3033e3f,A
2019-11-30 00:22:32,8793bbfe-c941-482d-b1e6-664df3033e3f,S
2019-11-29 23:04:11,472f762d-8674-4f06-a7ff-c3f0c95e3771,A
2019-11-29 23:09:24,472f762d-8674-4f06-a7ff-c3f0c95e3771,S
2019-11-29 23:10:21,472f762d-8674-4f06-a7ff-c3f0c95e3771,A
2019-11-29 23:12:17,472f762d-8674-4f06-a7ff-c3f0c95e3771,S
2019-11-29 23:19:52,472f762d-8674-4f06-a7ff-c3f0c95e3771,A
2019-11-29 23:21:16,472f762d-8674-4f06-a7ff-c3f0c95e3771,S
2019-11-29 23:31:10,472f762d-8674-4f06-a7ff-c3f0c95e3771,A
2019-11-29 23:32:58,472f762d-8674-4f06-a7ff-c3f0c95e3771,S
2019-11-29 23:37:52,472f762d-8674-4f06-a7ff-c3f0c95e3771,A
2019-11-29 23:42:16,472f762d-8674-4f06-a7ff-c3f0c95e3771,S
2019-11-29 23:51:00,472f762d-8674-4f06-a7ff-c3f0c95e3771,A
2019-11-29 23:52:31,472f762d-8674-4f06-a7ff-c3f0c95e3771,S
2019-11-29 23:54:25,472f762d-8674-4f06-a7ff-c3f0c95e3771,A
2019-11-29 23:56:52,472f762d-8674-4f06-a7ff-c3f0c95e3771,S
2019-11-30 00:01:06,472f762d-8674-4f06-a7ff-c3f0c95e3771,A
2019-11-30 00:06:55,472f762d-8674-4f06-a7ff-c3f0c95e3771,S
2019-11-30 00:12:25,472f762d-8674-4f06-a7ff-c3f0c95e3771,A
2019-11-30 00:21:38,472f762d-8674-4f06-a7ff-c3f0c95e3771,S
2019-11-29 22:51:10,2a603b6d-5b46-422f-90a0-1520ea27235f,A
2019-11-29 23:02:40,2a603b6d-5b46-422f-90a0-1520ea27235f,S
2019-11-29 23:12:36,2a603b6d-5b46-422f-90a0-1520ea27235f,A
2019-11-29 23:18:04,2a603b6d-5b46-422f-90a0-1520ea27235f,S
2019-11-29 23:18:47,2a603b6d-5b46-422f-90a0-1520ea27235f,A
2019-11-29 23:19:43,2a603b6d-5b46-422f-90a0-1520ea27235f,S
2019-11-29 23:21:41,2a603b6d-5b46-422f-90a0-1520ea27235f,A
2019-11-29 23:23:01,2a603b6d-5b46-422f-90a0-1520ea27235f,S
2019-11-29 23:30:21,2a603b6d-5b46-422f-90a0-1520ea27235f,A
2019-11-29 23:32:14,2a603b6d-5b46-422f-90a0-1520ea27235f,S
2019-11-29 23:33:57,2a603b6d-5b46-422f-90a0-1520ea27235f,A
2019-11-29 23:49:22,2a603b6d-5b46-422f-90a0-1520ea27235f,S
2019-11-29 23:55:16,2a603b6d-5b46-422f-90a0-1520ea27235f,A
2019-11-29 23:59:48,2a603b6d-5b46-422f-90a0-1520ea27235f,S
2019-11-30 00:00:52,2a603b6d-5b46-422f-90a0-1520ea27235f,A
2019-11-30 00:03:12,2a603b6d-5b46-422f-90a0-1520ea27235f,S
2019-11-30 00:06:52,2a603b6d-5b46-422f-90a0-1520ea27235f,A
2019-11-30 00:08:52,2a603b6d-5b46-422f-90a0-1520ea27235f,S
2019-11-30 00:09:00,2a603b6d-5b46-422f-90a0-1520ea27235f,A
2019-11-30 00:18:07,2a603b6d-5b46-422f-90a0-1520ea27235f,S
2019-11-29 22:29:12,cd3d164a-8d68-4128-a83f-ad455ae76fa9,S
2019-11-29 22:34:10,cd3d164a-8d68-4128-a83f-ad455ae76fa9,A
2019-11-29 22:34:32,cd3d164a-8d68-4128-a83f-ad455ae76fa9,S
2019-11-29 22:39:16,cd3d164a-8d68-4128-a83f-ad455ae76fa9,A
2019-11-29 22:44:14,cd3d164a-8d68-4128-a83f-ad455ae76fa9,S
2019-11-29 22:46:16,cd3d164a-8d68-4128-a83f-ad455ae76fa9,A
2019-11-29 22:56:20,cd3d164a-8d68-4128-a83f-ad455ae76fa9,S
2019-11-29 22:59:01,cd3d164a-8d68-4128-a83f-ad455ae76fa9,A
2019-11-29 22:59:56,cd3d164a-8d68-4128-a83f-ad455ae76fa9,S
2019-11-29 23:07:58,cd3d164a-8d68-4128-a83f-ad455ae76fa9,A
2019-11-29 23:16:46,cd3d164a-8d68-4128-a83f-ad455ae76fa9,S
2019-11-29 23:18:56,cd3d164a-8d68-4128-a83f-ad455ae76fa9,A
2019-11-29 23:19:06,cd3d164a-8d68-4128-a83f-ad455ae76fa9,S
2019-11-29 23:38:23,cd3d164a-8d68-4128-a83f-ad455ae76fa9,A
2019-11-29 23:40:36,cd3d164a-8d68-4128-a83f-ad455ae76fa9,S
2019-11-29 23:58:11,cd3d164a-8d68-4128-a83f-ad455ae76fa9,A
2019-11-30 00:08:21,cd3d164a-8d68-4128-a83f-ad455ae76fa9,S
2019-11-29 22:20:56,ecf71eef-0efc-4d90-840a-6bea2addcd1e,A
2019-11-29 22:36:59,ecf71eef-0efc-4d90-840a-6bea2addcd1e,S
2019-11-29 22:40:13,ecf71eef-0efc-4d90-840a-6bea2addcd1e,A
2019-11-29 22:42:59,ecf71eef-0efc-4d90-840a-6bea2addcd1e,S
2019-11-29 22:43:30,ecf71eef-0efc-4d90-840a-6bea2addcd1e,A
2019-11-29 22:57:28,ecf71eef-0efc-4d90-840a-6bea2addcd1e,S
2019-11-29 23:00:57,ecf71eef-0efc-4d90-840a-6bea2addcd1e,A
2019-11-29 23:03:48,ecf71eef-0efc-4d90-840a-6bea2addcd1e,S
2019-11-29 23:07:48,ecf71eef-0efc-4d90-840a-6bea2addcd1e,A
2019-11-29 23:21:12,ecf71eef-0efc-4d90-840a-6bea2addcd1e,S
2019-11-29 23:21:23,ecf71eef-0efc-4d90-840a-6bea2addcd1e,A
2019-11-29 23:30:05,ecf71eef-0efc-4d90-840a-6bea2addcd1e,S
2019-11-29 23:34:21,ecf71eef-0efc-4d90-840a-6bea2addcd1e,A
2019-11-29 23:40:58,ecf71eef-0efc-4d90-840a-6bea2addcd1e,S
2019-11-29 23:43:30,ecf71eef-0efc-4d90-840a-6bea2addcd1e,A
2019-11-29 23:54:41,ecf71eef-0efc-4d90-840a-6bea2addcd1e,S
2019-11-29 23:56:35,ecf71eef-0efc-4d90-840a-6bea2addcd1e,A
2019-11-29 23:57:33,ecf71eef-0efc-4d90-840a-6bea2addcd1e,S
2019-11-30 00:00:26,ecf71eef-0efc-4d90-840a-6bea2addcd1e,A
2019-11-30 00:06:24,ecf71eef-0efc-4d90-840a-6bea2addcd1e,S
2019-11-30 00:15:12,ecf71eef-0efc-4d90-840a-6bea2addcd1e,A
2019-11-30 00:18:15,ecf71eef-0efc-4d90-840a-6bea2addcd1e,S
2019-11-30 00:20:06,ecf71eef-0efc-4d90-840a-6bea2addcd1e,A
2019-11-30 00:22:16,ecf71eef-0efc-4d90-840a-6bea2addcd1e,S
2019-11-29 22:31:33,78fdce58-6a06-4f9d-b851-94fd548da099,S
2019-11-29 22:37:45,78fdce58-6a06-4f9d-b851-94fd548da099,A
2019-11-29 22:42:09,78fdce58-6a06-4f9d-b851-94fd548da099,S
2019-11-29 22:52:41,78fdce58-6a06-4f9d-b851-94fd548da099,A
2019-11-29 22:53:00,78fdce58-6a06-4f9d-b851-94fd548da099,S
2019-11-29 22:58:29,78fdce58-6a06-4f9d-b851-94fd548da099,A
2019-11-29 22:59:04,78fdce58-6a06-4f9d-b851-94fd548da099,S
2019-11-29 22:59:41,78fdce58-6a06-4f9d-b851-94fd548da099,A
2019-11-29 23:02:13,78fdce58-6a06-4f9d-b851-94fd548da099,S
2019-11-29 23:02:33,78fdce58-6a06-4f9d-b851-94fd548da099,A
2019-11-29 23:03:24,78fdce58-6a06-4f9d-b851-94fd548da099,S
2019-11-29 23:18:57,78fdce58-6a06-4f9d-b851-94fd548da099,A
2019-11-29 23:20:16,78fdce58-6a06-4f9d-b851-94fd548da099,S
2019-11-29 23:23:24,78fdce58-6a06-4f9d-b851-94fd548da099,A
2019-11-29 23:35:18,78fdce58-6a06-4f9d-b851-94fd548da099,S
2019-11-29 23:36:45,78fdce58-6a06-4f9d-b851-94fd548da099,A
2019-11-29 23:37:54,78fdce58-6a06-4f9d-b851-94fd548da099,S
2019-11-29 23:38:45,78fdce58-6a06-4f9d-b851-94fd548da099,A
2019-11-29 23:39:08,78fdce58-6a06-4f9d-b851-94fd548da099,S
2019-11-29 23:45:38,78fdce58-6a06-4f9d-b851-94fd548da099,A
2019-11-30 00:16:17,78fdce58-6a06-4f9d-b851-94fd548da099,S
2019-11-30 00:20:03,78fdce58-6a06-4f9d-b851-94fd548da099,A
2019-11-29 22:18:33,4d208ee6-d3d7-4a6d-aa03-99180c03c393,S
2019-11-29 22:19:39,4d208ee6-d3d7-4a6d-aa03-99180c03c393,A
2019-11-29 22:20:53,4d208ee6-d3d7-4a6d-aa03-99180c03c393,S
2019-11-29 22:24:32,4d208ee6-d3d7-4a6d-aa03-99180c03c393,A
2019-11-29 22:27:16,4d208ee6-d3d7-4a6d-aa03-99180c03c393,S
2019-11-29 22:32:26,4d208ee6-d3d7-4a6d-aa03-99180c03c393,A
2019-11-29 22:33:44,4d208ee6-d3d7-4a6d-aa03-99180c03c393,S
2019-11-29 22:39:43,4d208ee6-d3d7-4a6d-aa03-99180c03c393,A
2019-11-29 22:51:00,4d208ee6-d3d7-4a6d-aa03-99180c03c393,S
2019-11-29 22:54:40,4d208ee6-d3d7-4a6d-aa03-99180c03c393,A
2019-11-29 22:59:12,4d208ee6-d3d7-4a6d-aa03-99180c03c393,S
2019-11-29 23:10:39,4d208ee6-d3d7-4a6d-aa03-99180c03c393,A
2019-11-29 23:24:06,4d208ee6-d3d7-4a6d-aa03-99180c03c393,S
2019-11-29 23:25:04,4d208ee6-d3d7-4a6d-aa03-99180c03c393,A
2019-11-29 23:26:37,4d208ee6-d3d7-4a6d-aa03-99180c03c393,S
2019-11-29 23:27:23,4d208ee6-d3d7-4a6d-aa03-99180c03c393,A
2019-11-29 23:28:32,4d208ee6-d3d7-4a6d-aa03-99180c03c393,S
2019-11-29 23:37:08,4d208ee6-d3d7-4a6d-aa03-99180c03c393,A
2019-11-29 23:39:06,4d208ee6-d3d7-4a6d-aa03-99180c03c393,S
2019-11-29 23:40:54,4d208ee6-d3d7-4a6d-aa03-99180c03c393,A
2019-11-29 23:45:42,4d208ee6-d3d7-4a6d-aa03-99180c03c393,S
2019-11-29 23:54:35,4d208ee6-d3d7-4a6d-aa03-99180c03c393,A
2019-11-30 00:05:27,4d208ee6-d3d7-4a6d-aa03-99180c03c393,S
2019-11-30 00:09:23,4d208ee6-d3d7-4a6d-aa03-99180c03c393,A
2019-11-30 00:09:41,4d208ee6-d3d7-4a6d-aa03-99180c03c393,S
2019-11-30 00:15:20,4d208ee6-d3d7-4a6d-aa03-99180c03c393,A
2019-11-30 00:21:45,4d208ee6-d3d7-4a6d-aa03-99180c03c393,S
2019-11-30 00:21:46,4d208ee6-d3d7-4a6d-aa03-99180c03c393,A
2019-11-30 00:23:45,4d208ee6-d3d7-4a6d-aa03-99180c03c393,S
2019-11-29 23:00:12,7c7a8f71-1e69-45ae-8b06-c94c3f4ea596,A
2019-11-29 23:14:55,7c7a8f71-1e69-45ae-8b06-c94c3f4ea596,S
2019-11-29 23:17:01,7c7a8f71-1e69-45ae-8b06-c94c3f4ea596,A
2019-11-29 23:26:07,7c7a8f71-1e69-45ae-8b06-c94c3f4ea596,S
2019-11-29 23:37:39,7c7a8f71-1e69-45ae-8b06-c94c3f4ea596,A
2019-11-29 23:43:51,7c7a8f71-1e69-45ae-8b06-c94c3f4ea596,S
2019-11-29 23:50:32,7c7a8f71-1e69-45ae-8b06-c94c3f4ea596,A
2019-11-29 23:50:55,7c7a8f71-1e69-45ae-8b06-c94c3f4ea596,S
2019-11-29 23:52:02,7c7a8f71-1e69-45ae-8b06-c94c3f4ea596,A
2019-11-29 23:56:22,7c7a8f71-1e69-45ae-8b06-c94c3f4ea596,S
2019-11-29 23:56:54,7c7a8f71-1e69-45ae-8b06-c94c3f4ea596,A
2019-11-30 00:03:33,7c7a8f71-1e69-45ae-8b06-c94c3f4ea596,S
2019-11-30 00:06:16,7c7a8f71-1e69-45ae-8b06-c94c3f4ea596,A
2019-11-30 00:08:03,7c7a8f71-1e69-45ae-8b06-c94c3f4ea596,S
2019-11-30 00:11:50,7c7a8f71-1e69-45ae-8b06-c94c3f4ea596,A
2019-11-30 00:18:06,7c7a8f71-1e69-45ae-8b06-c94c3f4ea596,S
2019-11-30 00:18:19,7c7a8f71-1e69-45ae-8b06-c94c3f4ea596,A
2019-11-30 00:20:54,7c7a8f71-1e69-45ae-8b06-c94c3f4ea596,S
2019-11-29 22:33:57,7ce3bd80-dd2d-4aca-81f0-3d8c9eb40497,A
2019-11-29 22:37:23,7ce3bd80-dd2d-4aca-81f0-3d8c9eb40497,S
2019-11-29 22:42:28,7ce3bd80-dd2d-4aca-81f0-3d8c9eb40497,A
2019-11-29 22:44:19,7ce3bd80-dd2d-4aca-81f0-3d8c9eb40497,S
2019-11-29 22:54:50,7ce3bd80-dd2d-4aca-81f0-3d8c9eb40497,A
2019-11-29 22:55:25,7ce3bd80-dd2d-4aca-81f0-3d8c9eb40497,S
2019-11-29 23:03:49,7ce3bd80-dd2d-4aca-81f0-3d8c9eb40497,A
2019-11-29 23:06:10,7ce3bd80-dd2d-4aca-81f0-3d8c9eb40497,S
2019-11-29 23:14:33,7ce3bd80-dd2d-4aca-81f0-3d8c9eb40497,A
2019-11-29 23:32:59,7ce3bd80-dd2d-4aca-81f0-3d8c9eb40497,S
2019-11-29 23:34:15,7ce3bd80-dd2d-4aca-81f0-3d8c9eb40497,A
2019-11-29 23:34:26,7ce3bd80-dd2d-4aca-81f0-3d8c9eb40497,S
2019-11-29 23:37:39,7ce3bd80-dd2d-4aca-81f0-3d8c9eb40497,A
2019-11-29 23:46:29,7ce3bd80-dd2d-4aca-81f0-3d8c9eb40497,S
2019-11-30 00:01:34,7ce3bd80-dd2d-4aca-81f0-3d8c9eb40497,A
2019-11-30 00:01:52,7ce3bd80-dd2d-4aca-81f0-3d8c9eb40497,S
2019-11-30 00:12:23,7ce3bd80-dd2d-4aca-81f0-3d8c9eb40497,A
2019-11-29 22:49:31,626950c8-8e45-407c-b289-a592c6ff6fd5,S
2019-11-29 22:53:40,626950c8-8e45-407c-b289-a592c6ff6fd5,A
2019-11-29 23:01:08,626950c8-8e45-407c-b289-a592c6ff6fd5,S
2019-11-29 23:05:20,626950c8-8e45-407c-b289-a592c6ff6fd5,A
2019-11-29 23:05:34,626950c8-8e45-407c-b289-a592c6ff6fd5,S
2019-11-29 23:15:03,626950c8-8e45-407c-b289-a592c6ff6fd5,A
2019-11-29 23:18:04,626950c8-8e45-407c-b289-a592c6ff6fd5,S
2019-11-29 23:19:31,626950c8-8e45-407c-b289-a592c6ff6fd5,A
2019-11-29 23:21:15,626950c8-8e45-407c-b289-a592c6ff6fd5,S
2019-11-29 23:30:55,626950c8-8e45-407c-b289-a592c6ff6fd5,A
2019-11-29 23:35:45,626950c8-8e45-407c-b289-a592c6ff6fd5,S
2019-11-29 23:37:28,626950c8-8e45-407c-b289-a592c6ff6fd5,A
2019-11-29 23:38:25,626950c8-8e45-407c-b289-a592c6ff6fd5,S
2019-11-29 23:43:52,626950c8-8e45-407c-b289-a592c6ff6fd5,A
2019-11-29 23:48:27,626950c8-8e45-407c-b289-a592c6ff6fd5,S
2019-11-29 23:53:08,626950c8-8e45-407c-b289-a592c6ff6fd5,A
2019-11-30 00:01:09,626950c8-8e45-407c-b289-a592c6ff6fd5,S
2019-11-30 00:06:21,626950c8-8e45-407c-b289-a592c6ff6fd5,A
2019-11-30 00:09:40,626950c8-8e45-407c-b289-a592c6ff6fd5,S
2019-11-30 00:22:26,626950c8-8e45-407c-b289-a592c6ff6fd5,A
2019-11-29 23:04:58,539252d8-14c5-401e-b7c4-c5518d08428e,S
2019-11-29 23:07:09,539252d8-14c5-401e-b7c4-c5518d08428e,A
2019-11-29 23:09:55,539252d8-14c5-401e-b7c4-c5518d08428e,S
2019-11-29 23:26:51,539252d8-14c5-401e-b7c4-c5518d08428e,A
2019-11-29 23:28:31,539252d8-14c5-401e-b7c4-c5518d08428e,S
2019-11-29 23:29:38,539252d8-14c5-401e-b7c4-c5518d08428e,A
2019-11-29 23:34:52,539252d8-14c5-401e-b7c4-c5518d08428e,S
2019-11-29 23:43:31,539252d8-14c5-401e-b7c4-c5518d08428e,A
2019-11-29 23:45:28,539252d8-14c5-401e-b7c4-c5518d08428e,S
2019-11-29 23:53:03,539252d8-14c5-401e-b7c4-c5518d08428e,A
2019-11-29 23:53:52,539252d8-14c5-401e-b7c4-c5518d08428e,S
2019-11-30 00:05:39,539252d8-14c5-401e-b7c4-c5518d08428e,A
2019-11-30 00:13:31,539252d8-14c5-401e-b7c4-c5518d08428e,S
2019-11-30 00:15:10,539252d8-14c5-401e-b7c4-c5518d08428e,A
2019-11-30 00:18:59,539252d8-14c5-401e-b7c4-c5518d08428e,S
2019-11-30 00:21:17,539252d8-14c5-401e-b7c4-c5518d08428e,A
2019-11-29 23:06:10,9fa3ce0e-ef58-4fa8-adc8-f05f97f88996,S
2019-11-29 23:06:59,9fa3ce0e-ef58-4fa8-adc8-f05f97f88996,A
2019-11-29 23:08:24,f98b1dbd-1bc9-42b7-9857-5a7706dc4c17,S
2019-11-29 23:09:38,f98b1dbd-1bc9-42b7-9857-5a7706dc4c17,A
2019-11-29 23:15:23,f98b1dbd-1bc9-42b7-9857-5a7706dc4c17,S
2019-11-29 23:28:43,f98b1dbd-1bc9-42b7-9857-5a7706dc4c17,A
2019-11-29 23:36:28,f98b1dbd-1bc9-42b7-9857-5a7706dc4c17,S
2019-11-29 23:38:59,f98b1dbd-1bc9-42b7-9857-5a7706dc4c17,A
2019-11-29 23:55:21,f98b1dbd-1bc9-42b7-9857-5a7706dc4c17,S
2019-11-30 00:01:28,f98b1dbd-1bc9-42b7-9857-5a7706dc4c17,A
2019-11-30 00:16:17,f98b1dbd-1bc9-42b7-9857-5a7706dc4c17,S
2019-11-30 00:21:32,f98b1dbd-1bc9-42b7-9857-5a7706dc4c17,A
2019-11-30 00:24:05,f98b1dbd-1bc9-42b7-9857-5a7706dc4c17,S
2019-11-29 22:35:53,865d5be9-43d8-47c6-96ca-8b9736ad17cf,A
2019-11-29 22:42:46,865d5be9-43d8-47c6-96ca-8b9736ad17cf,S
2019-11-29 22:47:32,865d5be9-43d8-47c6-96ca-8b9736ad17cf,A
2019-11-29 22:54:06,865d5be9-43d8-47c6-96ca-8b9736ad17cf,S
2019-11-29 23:00:00,865d5be9-43d8-47c6-96ca-8b9736ad17cf,A
2019-11-29 23:10:38,865d5be9-43d8-47c6-96ca-8b9736ad17cf,S
2019-11-29 23:17:54,865d5be9-43d8-47c6-96ca-8b9736ad17cf,A
2019-11-29 23:20:20,865d5be9-43d8-47c6-96ca-8b9736ad17cf,S
2019-11-29 23:22:01,865d5be9-43d8-47c6-96ca-8b9736ad17cf,A
2019-11-29 23:26:39,865d5be9-43d8-47c6-96ca-8b9736ad17cf,S
2019-11-29 23:31:39,865d5be9-43d8-47c6-96ca-8b9736ad17cf,A
2019-11-29 23:41:35,865d5be9-43d8-47c6-96ca-8b9736ad17cf,S
2019-11-29 23:41:38,865d5be9-43d8-47c6-96ca-8b9736ad17cf,A
2019-11-29 23:46:18,865d5be9-43d8-47c6-96ca-8b9736ad17cf,S
2019-11-29 23:48:03,865d5be9-43d8-47c6-96ca-8b9736ad17cf,A
2019-11-29 23:54:45,865d5be9-43d8-47c6-96ca-8b9736ad17cf,S
2019-11-29 23:54:52,865d5be9-43d8-47c6-96ca-8b9736ad17cf,A
2019-11-29 23:57:34,865d5be9-43d8-47c6-96ca-8b9736ad17cf,S
2019-11-30 00:04:27,865d5be9-43d8-47c6-96ca-8b9736ad17cf,A
2019-11-29 22:33:28,9a00491f-3d3f-4ec0-9a91-337c641f6f2f,A
2019-11-29 22:36:19,9a00491f-3d3f-4ec0-9a91-337c641f6f2f,S
2019-11-29 22:41:26,9a00491f-3d3f-4ec0-9a91-337c641f6f2f,A
2019-11-29 22:56:53,9a00491f-3d3f-4ec0-9a91-337c641f6f2f,S
2019-11-29 23:05:56,9a00491f-3d3f-4ec0-9a91-337c641f6f2f,A
2019-11-29 23:15:40,9a00491f-3d3f-4ec0-9a91-337c641f6f2f,S
2019-11-29 23:24:10,9a00491f-3d3f-4ec0-9a91-337c641f6f2f,A
2019-11-29 23:24:55,9a00491f-3d3f-4ec0-9a91-337c641f6f2f,S
2019-11-29 23:25:14,9a00491f-3d3f-4ec0-9a91-337c641f6f2f,A
2019-11-29 23:33:53,9a00491f-3d3f-4ec0-9a91-337c641f6f2f,S
2019-11-29 23:36:52,9a00491f-3d3f-4ec0-9a91-337c641f6f2f,A
2019-11-29 23:36:54,9a00491f-3d3f-4ec0-9a91-337c641f6f2f,S
2019-11-29 23:38:06,9a00491f-3d3f-4ec0-9a91-337c641f6f2f,A
2019-11-29 23:39:56,9a00491f-3d3f-4ec0-9a91-337c641f6f2f,S
2019-11-29 23:41:46,9a00491f-3d3f-4ec0-9a91-337c641f6f2f,A
2019-11-29 23:42:45,9a00491f-3d3f-4ec0-9a91-337c641f6f2f,S
2019-11-29 23:44:29,9a00491f-3d3f-4ec0-9a91-337c641f6f2f,A
2019-11-29 23:53:44,9a00491f-3d3f-4ec0-9a91-337c641f6f2f,S
2019-11-29 23:55:51,9a00491f-3d3f-4ec0-9a91-337c641f6f2f,A
2019-11-29 23:56:50,9a00491f-3d3f-4ec0-9a91-337c641f6f2f,S
2019-11-29 23:59:17,9a00491f-3d3f-4ec0-9a91-337c641f6f2f,A
2019-11-30 00:08:02,9a00491f-3d3f-4ec0-9a91-337c641f6f2f,S
2019-11-30 00:10:19,9a00491f-3d3f-4ec0-9a91-337c641f6f2f,A
2019-11-30 00:15:12,9a00491f-3d3f-4ec0-9a91-337c641f6f2f,S
2019-11-30 00:15:19,9a00491f-3d3f-4ec0-9a91-337c641f6f2f,A
2019-11-30 00:15:58,9a00491f-3d3f-4ec0-9a91-337c641f6f2f,S
2019-11-30 00:19:27,9a00491f-3d3f-4ec0-9a91-337c641f6f2f,A
2019-11-30 00:20:53,9a00491f-3d3f-4ec0-9a91-337c641f6f2f,S
2019-11-29 22:21:19,fe818535-3a25-4058-8908-84a5754bed6b,S
2019-11-29 22:25:22,fe818535-3a25-4058-8908-84a5754bed6b,A
2019-11-29 22:26:11,fe818535-3a25-4058-8908-84a5754bed6b,S
2019-11-29 22:31:25,fe818535-3a25-4058-8908-84a5754bed6b,A
2019-11-29 22:36:18,fe818535-3a25-4058-8908-84a5754bed6b,S
2019-11-29 22:41:16,fe818535-3a25-4058-8908-84a5754bed6b,A
2019-11-29 22:43:51,fe818535-3a25-4058-8908-84a5754bed6b,S
2019-11-29 22:44:37,fe818535-3a25-4058-8908-84a5754bed6b,A
2019-11-29 22:55:13,fe818535-3a25-4058-8908-84a5754bed6b,S
2019-11-29 22:55:37,fe818535-3a25-4058-8908-84a5754bed6b,A
2019-11-29 23:03:15,fe818535-3a25-4058-8908-84a5754bed6b,S
2019-11-29 23:08:35,fe818535-3a25-4058-8908-84a5754bed6b,A
2019-11-29 23:09:01,fe818535-3a25-4058-8908-84a5754bed6b,S
2019-11-29 23:15:27,fe818535-3a25-4058-8908-84a5754bed6b,A
2019-11-29 23:17:31,fe818535-3a25-4058-8908-84a5754bed6b,S
2019-11-29 23:17:44,fe818535-3a25-4058-8908-84a5754bed6b,A
2019-11-29 23:22:47,fe818535-3a25-4058-8908-84a5754bed6b,S
2019-11-29 23:23:28,fe818535-3a25-4058-8908-84a5754bed6b,A
2019-11-29 23:40:34,fe818535-3a25-4058-8908-84a5754bed6b,S
2019-11-29 23:42:51,fe818535-3a25-4058-8908-84a5754bed6b,A
2019-11-29 23:43:11,fe818535-3a25-4058-8908-84a5754bed6b,S
2019-11-29 23:46:37,fe818535-3a25-4058-8908-84a5754bed6b,A
2019-11-29 23:46:47,fe818535-3a25-4058-8908-84a5754bed6b,S
2019-11-29 23:53:49,fe818535-3a25-4058-8908-84a5754bed6b,A
2019-11-29 23:59:37,fe818535-3a25-4058-8908-84a5754bed6b,S
2019-11-30 00:20:20,fe818535-3a25-4058-8908-84a5754bed6b,A
2019-11-30 00:21:36,fe818535-3a25-4058-8908-84a5754bed6b,S
2019-11-29 22:51:09,31a5fe87-843b-4ca4-a465-6197ff43b8cd,S
2019-11-29 22:51:51,31a5fe87-843b-4ca4-a465-6197ff43b8cd,A
2019-11-29 23:07:32,31a5fe87-843b-4ca4-a465-6197ff43b8cd,S
2019-11-29 23:14:46,31a5fe87-843b-4ca4-a465-6197ff43b8cd,A
2019-11-29 23:15:08,31a5fe87-843b-4ca4-a465-6197ff43b8cd,S
2019-11-29 23:15:37,31a5fe87-843b-4ca4-a465-6197ff43b8cd,A
2019-11-29 23:16:44,31a5fe87-843b-4ca4-a465-6197ff43b8cd,S
2019-11-29 22:47:25,26043201-d2c3-4e84-9ffc-5def2d85bd57,S
2019-11-29 22:51:43,26043201-d2c3-4e84-9ffc-5def2d85bd57,A
2019-11-29 23:05:26,26043201-d2c3-4e84-9ffc-5def2d85bd57,S
2019-11-29 23:05:50,26043201-d2c3-4e84-9ffc-5def2d85bd57,A
2019-11-29 23:10:26,26043201-d2c3-4e84-9ffc-5def2d85bd57,S
2019-11-29 23:13:44,26043201-d2c3-4e84-9ffc-5def2d85bd57,A
2019-11-29 23:16:51,26043201-d2c3-4e84-9ffc-5def2d85bd57,S
2019-11-29 23:21:23,26043201-d2c3-4e84-9ffc-5def2d85bd57,A
2019-11-29 23:24:36,26043201-d2c3-4e84-9ffc-5def2d85bd57,S
2019-11-29 23:28:13,26043201-d2c3-4e84-9ffc-5def2d85bd57,A
2019-11-29 23:44:04,26043201-d2c3-4e84-9ffc-5def2d85bd57,S
2019-11-29 23:48:21,26043201-d2c3-4e84-9ffc-5def2d85bd57,A
2019-11-29 23:48:43,26043201-d2c3-4e84-9ffc-5def2d85bd57,S
2019-11-29 23:53:49,26043201-d2c3-4e84-9ffc-5def2d85bd57,A
2019-11-30 00:01:08,26043201-d2c3-4e84-9ffc-5def2d85bd57,S
2019-11-30 00:14:15,26043201-d2c3-4e84-9ffc-5def2d85bd57,A
2019-11-30 00:15:16,26043201-d2c3-4e84-9ffc-5def2d85bd57,S
2019-11-29 22:53:48,c5d31f74-9a0d-4e91-b512-52080c88967d,A
2019-11-29 22:54:28,c5d31f74-9a0d-4e91-b512-52080c88967d,S
2019-11-29 22:56:03,c5d31f74-9a0d-4e91-b512-52080c88967d,A
2019-11-29 23:10:16,c5d31f74-9a0d-4e91-b512-52080c88967d,S
2019-11-29 23:12:23,c5d31f74-9a0d-4e91-b512-52080c88967d,A
2019-11-29 23:14:49,c5d31f74-9a0d-4e91-b512-52080c88967d,S
2019-11-29 23:22:27,c5d31f74-9a0d-4e91-b512-52080c88967d,A
2019-11-29 23:26:07,c5d31f74-9a0d-4e91-b512-52080c88967d,S
2019-11-29 23:29:29,c5d31f74-9a0d-4e91-b512-52080c88967d,A
2019-11-29 23:40:19,c5d31f74-9a0d-4e91-b512-52080c88967d,S
2019-11-29 23:40:23,c5d31f74-9a0d-4e91-b512-52080c88967d,A
2019-11-29 23:49:54,c5d31f74-9a0d-4e91-b512-52080c88967d,S
2019-11-30 00:10:22,c5d31f74-9a0d-4e91-b512-52080c88967d,A
2019-11-30 00:17:37,c5d31f74-9a0d-4e91-b512-52080c88967d,S
2019-11-30 00:21:36,c5d31f74-9a0d-4e91-b512-52080c88967d,A
2019-11-29 22:43:31,50d7faeb-2fe2-4d81-8c7e-9e3b35834ea5,A
2019-11-29 22:49:34,50d7faeb-2fe2-4d81-8c7e-9e3b35834ea5,S
2019-11-29 22:52:05,50d7faeb-2fe2-4d81-8c7e-9e3b35834ea5,A
2019-11-29 22:52:49,50d7faeb-2fe2-4d81-8c7e-9e3b35834ea5,S
2019-11-29 22:52:52,50d7faeb-2fe2-4d81-8c7e-9e3b35834ea5,A
2019-11-29 22:55:42,50d7faeb-2fe2-4d81-8c7e-9e3b35834ea5,S
2019-11-29 23:03:59,50d7faeb-2fe2-4d81-8c7e-9e3b35834ea5,A
2019-11-29 23:06:44,50d7faeb-2fe2-4d81-8c7e-9e3b35834ea5,S
2019-11-29 23:06:47,50d7faeb-2fe2-4d81-8c7e-9e3b35834ea5,A
2019-11-29 23:12:53,50d7faeb-2fe2-4d81-8c7e-9e3b35834ea5,S
2019-11-29 23:17:15,50d7faeb-2fe2-4d81-8c7e-9e3b35834ea5,A
2019-11-29 23:24:36,50d7faeb-2fe2-4d81-8c7e-9e3b35834ea5,S
2019-11-29 23:25:46,50d7faeb-2fe2-4d81-8c7e-9e3b35834ea5,A
2019-11-29 23:29:42,50d7faeb-2fe2-4d81-8c7e-9e3b35834ea5,S
2019-11-29 23:30:29,50d7faeb-2fe2-4d81-8c7e-9e3b35834ea5,A
2019-11-29 23:30:47,50d7faeb-2fe2-4d81-8c7e-9e3b35834ea5,S
2019-11-29 23:41:20,50d7faeb-2fe2-4d81-8c7e-9e3b35834ea5,A
2019-11-29 23:42:43,50d7faeb-2fe2-4d81-8c7e-9e3b35834ea5,S
2019-11-29 23:48:28,50d7faeb-2fe2-4d81-8c7e-9e3b35834ea5,A
2019-11-29 23:52:54,50d7faeb-2fe2-4d81-8c7e-9e3b35834ea5,S
2019-11-29 23:54:13,50d7faeb-2fe2-4d81-8c7e-9e3b35834ea5,A
2019-11-29 23:57:01,50d7faeb-2fe2-4d81-8c7e-9e3b35834ea5,S
2019-11-29 23:58:25,50d7faeb-2fe2-4d81-8c7e-9e3b35834ea5,A
2019-11-30 00:07:14,50d7faeb-2fe2-4d81-8c7e-9e3b35834ea5,S
2019-11-30 00:08:44,50d7faeb-2fe2-4d81-8c7e-9e3b35834ea5,A
2019-11-30 00:12:23,50d7faeb-2fe2-4d81-8c7e-9e3b35834ea5,S
2019-11-30 00:12:40,50d7faeb-2fe2-4d81-8c7e-9e3b35834ea5,A
2019-11-30 00:16:38,50d7faeb-2fe2-4d81-8c7e-9e3b35834ea5,S
2019-11-29 22:54:09,57099cf2-9aa7-4971-8dbf-bb04540619eb,A
2019-11-29 22:54:38,57099cf2-9aa7-4971-8dbf-bb04540619eb,S
2019-11-29 23:03:08,57099cf2-9aa7-4971-8dbf-bb04540619eb,A
2019-11-29 23:04:27,57099cf2-9aa7-4971-8dbf-bb04540619eb,S
2019-11-29 23:04:27,57099cf2-9aa7-4971-8dbf-bb04540619eb,A
2019-11-29 23:13:04,57099cf2-9aa7-4971-8dbf-bb04540619eb,S
2019-11-29 23:14:18,57099cf2-9aa7-4971-8dbf-bb04540619eb,A
2019-11-29 23:15:08,57099cf2-9aa7-4971-8dbf-bb04540619eb,S
2019-11-29 23:18:55,57099cf2-9aa7-4971-8dbf-bb04540619eb,A
2019-11-29 23:20:02,57099cf2-9aa7-4971-8dbf-bb04540619eb,S
2019-11-29 23:20:14,57099cf2-9aa7-4971-8dbf-bb04540619eb,A
2019-11-29 23:25:47,57099cf2-9aa7-4971-8dbf-bb04540619eb,S
2019-11-29 23:31:06,57099cf2-9aa7-4971-8dbf-bb04540619eb,A
2019-11-29 23:43:21,57099cf2-9aa7-4971-8dbf-bb04540619eb,S
2019-11-29 23:43:36,57099cf2-9aa7-4971-8dbf-bb04540619eb,A
2019-11-29 23:47:47,57099cf2-9aa7-4971-8dbf-bb04540619eb,S
2019-11-29 23:57:23,57099cf2-9aa7-4971-8dbf-bb04540619eb,A
2019-11-30 00:09:28,57099cf2-9aa7-4971-8dbf-bb04540619eb,S
2019-11-30 00:12:58,57099cf2-9aa7-4971-8dbf-bb04540619eb,A
2019-11-30 00:17:21,57099cf2-9aa7-4971-8dbf-bb04540619eb,S
2019-11-30 00:18:45,57099cf2-9aa7-4971-8dbf-bb04540619eb,A
2019-11-30 00:19:21,57099cf2-9aa7-4971-8dbf-bb04540619eb,S
2019-11-29 23:04:55,fb896f16-7f84-43d3-b702-5a7a1aa432f6,S
2019-11-29 23:10:18,fb896f16-7f84-43d3-b702-5a7a1aa432f6,A
2019-11-29 23:11:43,fb896f16-7f84-43d3-b702-5a7a1aa432f6,S
2019-11-29 23:13:53,fb896f16-7f84-43d3-b702-5a7a1aa432f6,A
2019-11-29 23:20:55,fb896f16-7f84-43d3-b702-5a7a1aa432f6,S
2019-11-29 23:27:01,fb896f16-7f84-43d3-b702-5a7a1aa432f6,A
2019-11-29 23:30:56,fb896f16-7f84-43d3-b702-5a7a1aa432f6,S
2019-11-29 23:34:18,fb896f16-7f84-43d3-b702-5a7a1aa432f6,A
2019-11-29 23:35:53,fb896f16-7f84-43d3-b702-5a7a1aa432f6,S
2019-11-29 23:36:03,fb896f16-7f84-43d3-b702-5a7a1aa432f6,A
2019-11-29 23:38:23,fb896f16-7f84-43d3-b702-5a7a1aa432f6,S
2019-11-29 23:42:40,fb896f16-7f84-43d3-b702-5a7a1aa432f6,A
2019-11-29 23:45:34,fb896f16-7f84-43d3-b702-5a7a1aa432f6,S
2019-11-29 23:46:29,fb896f16-7f84-43d3-b702-5a7a1aa432f6,A
2019-11-29 23:56:52,fb896f16-7f84-43d3-b702-5a7a1aa432f6,S
2019-11-29 23:56:56,fb896f16-7f84-43d3-b702-5a7a1aa432f6,A
2019-11-29 23:57:28,fb896f16-7f84-43d3-b702-5a7a1aa432f6,S
2019-11-29 23:57:57,fb896f16-7f84-43d3-b702-5a7a1aa432f6,A
2019-11-29 23:58:10,fb896f16-7f84-43d3-b702-5a7a1aa432f6,S
2019-11-30 00:02:05,fb896f16-7f84-43d3-b702-5a7a1aa432f6,A
2019-11-30 00:09:54,fb896f16-7f84-43d3-b702-5a7a1aa432f6,S
2019-11-30 00:15:53,fb896f16-7f84-43d3-b702-5a7a1aa432f6,A
2019-11-30 00:18:46,fb896f16-7f84-43d3-b702-5a7a1aa432f6,S
2019-11-30 00:20:45,fb896f16-7f84-43d3-b702-5a7a1aa432f6,A
2019-11-29 22:56:43,2df5535c-d4aa-4aed-b6c5-9d451791c143,S
2019-11-29 22:58:38,2df5535c-d4aa-4aed-b6c5-9d451791c143,A
2019-11-29 23:01:47,2df5535c-d4aa-4aed-b6c5-9d451791c143,S
2019-11-29 23:02:16,2df5535c-d4aa-4aed-b6c5-9d451791c143,A
2019-11-29 23:05:25,2df5535c-d4aa-4aed-b6c5-9d451791c143,S
2019-11-29 23:07:25,2df5535c-d4aa-4aed-b6c5-9d451791c143,A
2019-11-29 23:11:41,2df5535c-d4aa-4aed-b6c5-9d451791c143,S
2019-11-29 23:12:38,2df5535c-d4aa-4aed-b6c5-9d451791c143,A
2019-11-29 23:13:28,2df5535c-d4aa-4aed-b6c5-9d451791c143,S
2019-11-29 23:20:55,2df5535c-d4aa-4aed-b6c5-9d451791c143,A
2019-11-29 23:23:10,2df5535c-d4aa-4aed-b6c5-9d451791c143,S
2019-11-29 23:26:39,2df5535c-d4aa-4aed-b6c5-9d451791c143,A
2019-11-29 23:34:56,2df5535c-d4aa-4aed-b6c5-9d451791c143,S
2019-11-29 23:42:20,2df5535c-d4aa-4aed-b6c5-9d451791c143,A
2019-11-29 23:44:22,2df5535c-d4aa-4aed-b6c5-9d451791c143,S
2019-11-29 23:47:07,2df5535c-d4aa-4aed-b6c5-9d451791c143,A
2019-11-29 23:48:12,2df5535c-d4aa-4aed-b6c5-9d451791c143,S
2019-11-29 23:49:30,2df5535c-d4aa-4aed-b6c5-9d451791c143,A
2019-11-29 23:51:02,2df5535c-d4aa-4aed-b6c5-9d451791c143,S
2019-11-29 23:59:09,2df5535c-d4aa-4aed-b6c5-9d451791c143,A
2019-11-29 23:59:20,2df5535c-d4aa-4aed-b6c5-9d451791c143,S
2019-11-29 23:59:31,2df5535c-d4aa-4aed-b6c5-9d451791c143,A
2019-11-30 00:03:22,2df5535c-d4aa-4aed-b6c5-9d451791c143,S
2019-11-30 00:05:46,2df5535c-d4aa-4aed-b6c5-9d451791c143,A
2019-11-30 00:06:31,2df5535c-d4aa-4aed-b6c5-9d451791c143,S
2019-11-30 00:07:48,2df5535c-d4aa-4aed-b6c5-9d451791c143,A
2019-11-30 00:08:42,2df5535c-d4aa-4aed-b6c5-9d451791c143,S
2019-11-30 00:17:05,2df5535c-d4aa-4aed-b6c5-9d451791c143,A
2019-11-30 00:18:18,2df5535c-d4aa-4aed-b6c5-9d451791c143,S
2019-11-29 22:53:04,5eed3cdc-a644-4f51-ad1e-8ae02edf05e9,S
2019-11-29 22:55:23,5eed3cdc-a644-4f51-ad1e-8ae02edf05e9,A
2019-11-29 23:00:34,5eed3cdc-a644-4f51-ad1e-8ae02edf05e9,S
2019-11-29 23:08:40,5eed3cdc-a644-4f51-ad1e-8ae02edf05e9,A
2019-11-29 23:16:04,5eed3cdc-a644-4f51-ad1e-8ae02edf05e9,S
2019-11-29 23:16:26,5eed3cdc-a644-4f51-ad1e-8ae02edf05e9,A
2019-11-29 23:21:59,5eed3cdc-a644-4f51-ad1e-8ae02edf05e9,S
2019-11-29 23:33:02,5eed3cdc-a644-4f51-ad1e-8ae02edf05e9,A
2019-11-29 23:37:27,5eed3cdc-a644-4f51-ad1e-8ae02edf05e9,S
2019-11-29 23:40:14,5eed3cdc-a644-4f51-ad1e-8ae02edf05e9,A
2019-11-29 23:46:56,5eed3cdc-a644-4f51-ad1e-8ae02edf05e9,S
2019-11-29 23:47:46,5eed3cdc-a644-4f51-ad1e-8ae02edf05e9,A
2019-11-29 23:50:32,5eed3cdc-a644-4f51-ad1e-8ae02edf05e9,S
2019-11-29 23:54:23,5eed3cdc-a644-4f51-ad1e-8ae02edf05e9,A
2019-11-30 00:00:50,5eed3cdc-a644-4f51-ad1e-8ae02edf05e9,S
2019-11-30 00:03:55,5eed3cdc-a644-4f51-ad1e-8ae02edf05e9,A
2019-11-30 00:16:15,5eed3cdc-a644-4f51-ad1e-8ae02edf05e9,S
2019-11-30 00:21:02,5eed3cdc-a644-4f51-ad1e-8ae02edf05e9,A
2019-11-30 00:23:06,5eed3cdc-a644-4f51-ad1e-8ae02edf05e9,S
2019-11-29 23:06:06,1d73e94d-343e-4179-8726-19ba8f24700b,A
2019-11-29 22:30:07,d3203c98-8dec-45f0-9cbd-d61425c0449c,S
2019-11-29 22:34:14,d3203c98-8dec-45f0-9cbd-d61425c0449c,A
2019-11-29 22:44:37,d3203c98-8dec-45f0-9cbd-d61425c0449c,S
2019-11-29 22:46:11,d3203c98-8dec-45f0-9cbd-d61425c0449c,A
2019-11-29 22:53:42,d3203c98-8dec-45f0-9cbd-d61425c0449c,S
2019-11-29 22:53:57,d3203c98-8dec-45f0-9cbd-d61425c0449c,A
2019-11-29 22:55:22,d3203c98-8dec-45f0-9cbd-d61425c0449c,S
2019-11-29 23:12:39,d3203c98-8dec-45f0-9cbd-d61425c0449c,A
2019-11-29 23:18:25,d3203c98-8dec-45f0-9cbd-d61425c0449c,S
2019-11-29 23:21:59,d3203c98-8dec-45f0-9cbd-d61425c0449c,A
2019-11-29 23:25:11,d3203c98-8dec-45f0-9cbd-d61425c0449c,S
2019-11-29 23:25:28,d3203c98-8dec-45f0-9cbd-d61425c0449c,A
2019-11-29 23:44:03,d3203c98-8dec-45f0-9cbd-d61425c0449c,S
2019-11-29 23:44:29,d3203c98-8dec-45f0-9cbd-d61425c0449c,A
2019-11-29 23:47:19,d3203c98-8dec-45f0-9cbd-d61425c0449c,S
2019-11-30 00:00:52,d3203c98-8dec-45f0-9cbd-d61425c0449c,A
2019-11-30 00:04:10,d3203c98-8dec-45f0-9cbd-d61425c0449c,S
2019-11-30 00:06:38,d3203c98-8dec-45f0-9cbd-d61425c0449c,A
2019-11-30 00:07:15,d3203c98-8dec-45f0-9cbd-d61425c0449c,S
2019-11-30 00:12:29,d3203c98-8dec-45f0-9cbd-d61425c0449c,A
2019-11-30 00:17:09,d3203c98-8dec-45f0-9cbd-d61425c0449c,S
2019-11-30 00:21:05,d3203c98-8dec-45f0-9cbd-d61425c0449c,A
2019-11-30 00:22:58,d3203c98-8dec-45f0-9cbd-d61425c0449c,S
2019-11-30 00:23:56,d3203c98-8dec-45f0-9cbd-d61425c0449c,A
2019-11-29 22:34:05,c303f650-82fb-4c8c-b692-de7c1d08ddc5,A
2019-11-29 22:40:08,c303f650-82fb-4c8c-b692-de7c1d08ddc5,S
2019-11-29 22:42:55,c303f650-82fb-4c8c-b692-de7c1d08ddc5,A
2019-11-29 22:43:34,c303f650-82fb-4c8c-b692-de7c1d08ddc5,S
2019-11-29 22:44:19,c303f650-82fb-4c8c-b692-de7c1d08ddc5,A
2019-11-29 22:53:35,c303f650-82fb-4c8c-b692-de7c1d08ddc5,S
2019-11-29 22:54:00,c303f650-82fb-4c8c-b692-de7c1d08ddc5,A
2019-11-29 22:54:50,c303f650-82fb-4c8c-b692-de7c1d08ddc5,S
2019-11-29 22:59:44,c303f650-82fb-4c8c-b692-de7c1d08ddc5,A
2019-11-29 23:04:44,c303f650-82fb-4c8c-b692-de7c1d08ddc5,S
2019-11-29 23:04:56,c303f650-82fb-4c8c-b692-de7c1d08ddc5,A
2019-11-29 23:05:40,c303f650-82fb-4c8c-b692-de7c1d08ddc5,S
2019-11-29 23:08:00,c303f650-82fb-4c8c-b692-de7c1d08ddc5,A
2019-11-29 23:11:00,c303f650-82fb-4c8c-b692-de7c1d08ddc5,S
2019-11-29 23:12:17,c303f650-82fb-4c8c-b692-de7c1d08ddc5,A
2019-11-29 23:12:21,c303f650-82fb-4c8c-b692-de7c1d08ddc5,S
2019-11-29 23:20:26,c303f650-82fb-4c8c-b692-de7c1d08ddc5,A
2019-11-29 23:23:43,c303f650-82fb-4c8c-b692-de7c1d08ddc5,S
2019-11-29 23:25:36,c303f650-82fb-4c8c-b692-de7c1d08ddc5,A
2019-11-29 23:32:58,c303f650-82fb-4c8c-b692-de7c1d08ddc5,S
2019-11-29 23:43:12,c303f650-82fb-4c8c-b692-de7c1d08ddc5,A
2019-11-29 23:58:40,c303f650-82fb-4c8c-b692-de7c1d08ddc5,S
2019-11-30 00:01:02,c303f650-82fb-4c8c-b692-de7c1d08ddc5,A
2019-11-30 00:01:14,c303f650-82fb-4c8c-b692-de7c1d08ddc5,S
2019-11-30 00:09:20,c303f650-82fb-4c8c-b692-de7c1d08ddc5,A
2019-11-30 00:09:43,c303f650-82fb-4c8c-b692-de7c1d08ddc5,S
2019-11-30 00:18:02,c303f650-82fb-4c8c-b692-de7c1d08ddc5,A
2019-11-29 22:29:42,9305c4b5-9ca6-4b97-a035-0272360ccf17,S
2019-11-29 22:45:50,9305c4b5-9ca6-4b97-a035-0272360ccf17,A
2019-11-29 22:47:02,9305c4b5-9ca6-4b97-a035-0272360ccf17,S
2019-11-29 22:51:51,9305c4b5-9ca6-4b97-a035-0272360ccf17,A
2019-11-29 22:52:57,9305c4b5-9ca6-4b97-a035-0272360ccf17,S
2019-11-29 22:55:44,9305c4b5-9ca6-4b97-a035-0272360ccf17,A
2019-11-29 23:00:56,9305c4b5-9ca6-4b97-a035-0272360ccf17,S
2019-11-29 23:03:06,9305c4b5-9ca6-4b97-a035-0272360ccf17,A
2019-11-29 23:06:35,9305c4b5-9ca6-4b97-a035-0272360ccf17,S
2019-11-29 23:12:10,9305c4b5-9ca6-4b97-a035-0272360ccf17,A
2019-11-29 23:22:41,9305c4b5-9ca6-4b97-a035-0272360ccf17,S
2019-11-29 23:28:21,9305c4b5-9ca6-4b97-a035-0272360ccf17,A
2019-11-29 23:30:19,9305c4b5-9ca6-4b97-a035-0272360ccf17,S
2019-11-29 23:32:21,9305c4b5-9ca6-4b97-a035-0272360ccf17,A
2019-11-29 23:40:38,9305c4b5-9ca6-4b97-a035-0272360ccf17,S
2019-11-29 23:42:48,9305c4b5-9ca6-4b97-a035-0272360ccf17,A
2019-11-29 23:47:42,9305c4b5-9ca6-4b97-a035-0272360ccf17,S
2019-11-29 23:50:41,9305c4b5-9ca6-4b97-a035-0272360ccf17,A
2019-11-29 23:51:49,9305c4b5-9ca6-4b97-a035-0272360ccf17,S
2019-11-29 23:56:44,9305c4b5-9ca6-4b97-a035-0272360ccf17,A
2019-11-29 23:59:36,9305c4b5-9ca6-4b97-a035-0272360ccf17,S
2019-11-30 00:03:26,9305c4b5-9ca6-4b97-a035-0272360ccf17,A
2019-11-30 00:05:46,9305c4b5-9ca6-4b97-a035-0272360ccf17,S
2019-11-30 00:09:32,9305c4b5-9ca6-4b97-a035-0272360ccf17,A
2019-11-30 00:14:57,9305c4b5-9ca6-4b97-a035-0272360ccf17,S
2019-11-30 00:16:04,9305c4b5-9ca6-4b97-a035-0272360ccf17,A
2019-11-30 00:21:49,9305c4b5-9ca6-4b97-a035-0272360ccf17,S
2019-11-30 00:22:46,9305c4b5-9ca6-4b97-a035-0272360ccf17,A
2019-11-30 00:24:16,9305c4b5-9ca6-4b97-a035-0272360ccf17,S
2019-11-30 00:24:48,9305c4b5-9ca6-4b97-a035-0272360ccf17,A
2019-11-29 22:58:26,c4b90440-ee8e-4fab-96f5-aaa8dbc1d456,A
2019-11-29 23:05:40,c4b90440-ee8e-4fab-96f5-aaa8dbc1d456,S
2019-11-29 23:07:35,c4b90440-ee8e-4fab-96f5-aaa8dbc1d456,A
2019-11-29 23:12:25,c4b90440-ee8e-4fab-96f5-aaa8dbc1d456,S
2019-11-29 23:19:40,c4b90440-ee8e-4fab-96f5-aaa8dbc1d456,A
2019-11-29 23:26:37,c4b90440-ee8e-4fab-96f5-aaa8dbc1d456,S
2019-11-29 23:27:10,c4b90440-ee8e-4fab-96f5-aaa8dbc1d456,A
2019-11-29 23:27:35,c4b90440-ee8e-4fab-96f5-aaa8dbc1d456,S
2019-11-29 23:28:59,c4b90440-ee8e-4fab-96f5-aaa8dbc1d456,A
2019-11-29 23:29:37,c4b90440-ee8e-4fab-96f5-aaa8dbc1d456,S
2019-11-29 23:31:53,c4b90440-ee8e-4fab-96f5-aaa8dbc1d456,A
2019-11-29 23:38:15,c4b90440-ee8e-4fab-96f5-aaa8dbc1d456,S
2019-11-29 23:39:38,c4b90440-ee8e-4fab-96f5-aaa8dbc1d456,A
2019-11-29 23:42:20,c4b90440-ee8e-4fab-96f5-aaa8dbc1d456,S
2019-11-29 23:42:55,c4b90440-ee8e-4fab-96f5-aaa8dbc1d456,A
2019-11-29 23:44:14,c4b90440-ee8e-4fab-96f5-aaa8dbc1d456,S
2019-11-30 00:03:36,c4b90440-ee8e-4fab-96f5-aaa8dbc1d456,A
2019-11-30 00:21:36,c4b90440-ee8e-4fab-96f5-aaa8dbc1d456,S
2019-11-30 00:22:40,c4b90440-ee8e-4fab-96f5-aaa8dbc1d456,A
2019-11-29 22:38:08,7693c1b8-66ef-4610-9174-92a782246d74,S
2019-11-29 22:45:46,7693c1b8-66ef-4610-9174-92a782246d74,A
2019-11-29 22:47:42,7693c1b8-66ef-4610-9174-92a782246d74,S
2019-11-29 22:59:00,7693c1b8-66ef-4610-9174-92a782246d74,A
2019-11-29 23:00:50,7693c1b8-66ef-4610-9174-92a782246d74,S
2019-11-29 23:01:31,7693c1b8-66ef-4610-9174-92a782246d74,A
2019-11-29 23:11:02,7693c1b8-66ef-4610-9174-92a782246d74,S
2019-11-29 23:14:17,7693c1b8-66ef-4610-9174-92a782246d74,A
2019-11-29 23:14:53,7693c1b8-66ef-4610-9174-92a782246d74,S
2019-11-29 23:15:24,7693c1b8-66ef-4610-9174-92a782246d74,A
2019-11-29 23:20:28,7693c1b8-66ef-4610-9174-92a782246d74,S
2019-11-29 23:20:53,7693c1b8-66ef-4610-9174-92a782246d74,A
2019-11-29 23:21:16,7693c1b8-66ef-4610-9174-92a782246d74,S
2019-11-29 23:22:01,7693c1b8-66ef-4610-9174-92a782246d74,A
2019-11-29 23:23:52,7693c1b8-66ef-4610-9174-92a782246d74,S
2019-11-29 23:24:44,7693c1b8-66ef-4610-9174-92a782246d74,A
2019-11-29 23:35:18,7693c1b8-66ef-4610-9174-92a782246d74,S
2019-11-29 23:36:30,7693c1b8-66ef-4610-9174-92a782246d74,A
2019-11-29 23:43:22,7693c1b8-66ef-4610-9174-92a782246d74,S
2019-11-29 23:52:03,7693c1b8-66ef-4610-9174-92a782246d74,A
2019-11-29 23:55:11,7693c1b8-66ef-4610-9174-92a782246d74,S
2019-11-29 23:58:46,7693c1b8-66ef-4610-9174-92a782246d74,A
2019-11-29 23:59:02,7693c1b8-66ef-4610-9174-92a782246d74,S
2019-11-30 00:06:07,7693c1b8-66ef-4610-9174-92a782246d74,A
2019-11-30 00:06:15,7693c1b8-66ef-4610-9174-92a782246d74,S
2019-11-30 00:06:41,7693c1b8-66ef-4610-9174-92a782246d74,A
2019-11-30 00:07:18,7693c1b8-66ef-4610-9174-92a782246d74,S
2019-11-30 00:09:23,7693c1b8-66ef-4610-9174-92a782246d74,A
2019-11-30 00:09:26,7693c1b8-66ef-4610-9174-92a782246d74,S
2019-11-30 00:21:12,7693c1b8-66ef-4610-9174-92a782246d74,A
2019-11-30 00:24:36,7693c1b8-66ef-4610-9174-92a782246d74,S
2019-11-29 22:29:02,a643b3af-b37e-4c6f-b16a-319b16478e50,S
2019-11-29 22:32:29,a643b3af-b37e-4c6f-b16a-319b16478e50,A
2019-11-29 22:38:32,a643b3af-b37e-4c6f-b16a-319b16478e50,S
2019-11-29 22:48:28,a643b3af-b37e-4c6f-b16a-319b16478e50,A
2019-11-29 23:08:37,a643b3af-b37e-4c6f-b16a-319b16478e50,S
2019-11-29 23:14:32,a643b3af-b37e-4c6f-b16a-319b16478e50,A
2019-11-29 23:25:22,a643b3af-b37e-4c6f-b16a-319b16478e50,S
2019-11-29 23:30:47,a643b3af-b37e-4c6f-b16a-319b16478e50,A
2019-11-29 23:35:04,a643b3af-b37e-4c6f-b16a-319b16478e50,S
2019-11-29 23:40:37,a643b3af-b37e-4c6f-b16a-319b16478e50,A
2019-11-29 23:40:49,a643b3af-b37e-4c6f-b16a-319b16478e50,S
2019-11-29 23:42:33,a643b3af-b37e-4c6f-b16a-319b16478e50,A
2019-11-29 23:48:27,a643b3af-b37e-4c6f-b16a-319b16478e50,S
2019-11-29 23:50:10,a643b3af-b37e-4c6f-b16a-319b16478e50,A
2019-11-29 23:54:41,a643b3af-b37e-4c6f-b16a-319b16478e50,S
2019-11-29 23:58:16,a643b3af-b37e-4c6f-b16a-319b16478e50,A
2019-11-30 00:03:34,a643b3af-b37e-4c6f-b16a-319b16478e50,S
2019-11-30 00:11:18,a643b3af-b37e-4c6f-b16a-319b16478e50,A
2019-11-29 22:23:35,f6b6f2cf-5ff1-488a-ab50-5776db5a07db,S
2019-11-29 22:25:08,f6b6f2cf-5ff1-488a-ab50-5776db5a07db,A
2019-11-29 22:25:56,f6b6f2cf-5ff1-488a-ab50-5776db5a07db,S
2019-11-29 22:26:02,f6b6f2cf-5ff1-488a-ab50-5776db5a07db,A
2019-11-29 22:26:08,f6b6f2cf-5ff1-488a-ab50-5776db5a07db,S
2019-11-29 22:26:33,f6b6f2cf-5ff1-488a-ab50-5776db5a07db,A
2019-11-29 22:31:18,f6b6f2cf-5ff1-488a-ab50-5776db5a07db,S
2019-11-29 22:35:26,f6b6f2cf-5ff1-488a-ab50-5776db5a07db,A
2019-11-29 22:37:14,f6b6f2cf-5ff1-488a-ab50-5776db5a07db,S
2019-11-29 22:39:27,f6b6f2cf-5ff1-488a-ab50-5776db5a07db,A
2019-11-29 22:50:05,f6b6f2cf-5ff1-488a-ab50-5776db5a07db,S
2019-11-29 22:52:08,f6b6f2cf-5ff1-488a-ab50-5776db5a07db,A
2019-11-29 23:01:17,f6b6f2cf-5ff1-488a-ab50-5776db5a07db,S
2019-11-29 23:03:53,f6b6f2cf-5ff1-488a-ab50-5776db5a07db,A
2019-11-29 23:12:28,f6b6f2cf-5ff1-488a-ab50-5776db5a07db,S
2019-11-29 23:14:30,f6b6f2cf-5ff1-488a-ab50-5776db5a07db,A
2019-11-29 23:16:18,f6b6f2cf-5ff1-488a-ab50-5776db5a07db,S
2019-11-29 23:19:22,f6b6f2cf-5ff1-488a-ab50-5776db5a07db,A
2019-11-29 23:19:29,f6b6f2cf-5ff1-488a-ab50-5776db5a07db,S
2019-11-29 23:31:33,f6b6f2cf-5ff1-488a-ab50-5776db5a07db,A
2019-11-29 23:35:12,f6b6f2cf-5ff1-488a-ab50-5776db5a07db,S
2019-11-29 23:46:56,f6b6f2cf-5ff1-488a-ab50-5776db5a07db,A
2019-11-29 23:47:40,f6b6f2cf-5ff1-488a-ab50-5776db5a07db,S
2019-11-29 23:54:33,f6b6f2cf-5ff1-488a-ab50-5776db5a07db,A
2019-11-29 23:55:54,f6b6f2cf-5ff1-488a-ab50-5776db5a07db,S
2019-11-29 23:58:21,f6b6f2cf-5ff1-488a-ab50-5776db5a07db,A
2019-11-30 00:06:46,f6b6f2cf-5ff1-488a-ab50-5776db5a07db,S
2019-11-30 00:14:55,f6b6f2cf-5ff1-488a-ab50-5776db5a07db,A
2019-11-30 00:25:05,f6b6f2cf-5ff1-488a-ab50-5776db5a07db,S
2019-11-29 22:38:36,933e617b-ad89-496b-921d-e07ca82ace2e,A
2019-11-29 22:42:18,933e617b-ad89-496b-921d-e07ca82ace2e,S
2019-11-29 22:45:37,933e617b-ad89-496b-921d-e07ca82ace2e,A
2019-11-29 22:47:17,933e617b-ad89-496b-921d-e07ca82ace2e,S
2019-11-29 23:02:47,933e617b-ad89-496b-921d-e07ca82ace2e,A
2019-11-29 23:04:31,933e617b-ad89-496b-921d-e07ca82ace2e,S
2019-11-29 23:04:54,933e617b-ad89-496b-921d-e07ca82ace2e,A
2019-11-29 23:26:42,933e617b-ad89-496b-921d-e07ca82ace2e,S
2019-11-29 23:33:53,933e617b-ad89-496b-921d-e07ca82ace2e,A
2019-11-29 23:38:13,933e617b-ad89-496b-921d-e07ca82ace2e,S
2019-11-29 23:38:54,933e617b-ad89-496b-921d-e07ca82ace2e,A
2019-11-29 23:43:08,933e617b-ad89-496b-921d-e07ca82ace2e,S
2019-11-29 23:44:59,933e617b-ad89-496b-921d-e07ca82ace2e,A
2019-11-29 23:47:41,933e617b-ad89-496b-921d-e07ca82ace2e,S
2019-11-29 23:56:55,933e617b-ad89-496b-921d-e07ca82ace2e,A
2019-11-30 00:04:32,933e617b-ad89-496b-921d-e07ca82ace2e,S
2019-11-30 00:09:28,933e617b-ad89-496b-921d-e07ca82ace2e,A
2019-11-30 00:16:06,933e617b-ad89-496b-921d-e07ca82ace2e,S
2019-11-29 22:47:21,f0184628-d60c-4859-a6f5-59f02a2f16d1,A
2019-11-29 23:06:14,f0184628-d60c-4859-a6f5-59f02a2f16d1,S
2019-11-29 23:06:35,f0184628-d60c-4859-a6f5-59f02a2f16d1,A
2019-11-29 23:09:19,f0184628-d60c-4859-a6f5-59f02a2f16d1,S
2019-11-29 23:13:19,f0184628-d60c-4859-a6f5-59f02a2f16d1,A
2019-11-29 23:13:49,f0184628-d60c-4859-a6f5-59f02a2f16d1,S
2019-11-29 23:16:51,f0184628-d60c-4859-a6f5-59f02a2f16d1,A
2019-11-29 23:18:29,f0184628-d60c-4859-a6f5-59f02a2f16d1,S
2019-11-29 23:32:58,f0184628-d60c-4859-a6f5-59f02a2f16d1,A
2019-11-29 23:34:35,f0184628-d60c-4859-a6f5-59f02a2f16d1,S
2019-11-29 23:34:40,f0184628-d60c-4859-a6f5-59f02a2f16d1,A
2019-11-29 23:37:01,f0184628-d60c-4859-a6f5-59f02a2f16d1,S
2019-11-29 23:37:08,f0184628-d60c-4859-a6f5-59f02a2f16d1,A
2019-11-29 23:39:10,f0184628-d60c-4859-a6f5-59f02a2f16d1,S
2019-11-29 23:43:11,f0184628-d60c-4859-a6f5-59f02a2f16d1,A
2019-11-29 23:53:54,f0184628-d60c-4859-a6f5-59f02a2f16d1,S
2019-11-29 23:59:38,f0184628-d60c-4859-a6f5-59f02a2f16d1,A
2019-11-30 00:01:53,f0184628-d60c-4859-a6f5-59f02a2f16d1,S
2019-11-30 00:05:18,f0184628-d60c-4859-a6f5-59f02a2f16d1,A
2019-11-30 00:08:51,f0184628-d60c-4859-a6f5-59f02a2f16d1,S
2019-11-29 22:39:37,9276e273-f08f-4737-8c43-2c2f235ab667,A
2019-11-29 22:47:26,9276e273-f08f-4737-8c43-2c2f235ab667,S
2019-11-29 22:48:57,9276e273-f08f-4737-8c43-2c2f235ab667,A
2019-11-29 22:51:34,9276e273-f08f-4737-8c43-2c2f235ab667,S
2019-11-29 22:56:15,9276e273-f08f-4737-8c43-2c2f235ab667,A
2019-11-29 23:10:57,9276e273-f08f-4737-8c43-2c2f235ab667,S
2019-11-29 23:11:32,9276e273-f08f-4737-8c43-2c2f235ab667,A
2019-11-29 23:17:03,9276e273-f08f-4737-8c43-2c2f235ab667,S
2019-11-29 23:24:15,9276e273-f08f-4737-8c43-2c2f235ab667,A
2019-11-29 23:24:50,9276e273-f08f-4737-8c43-2c2f235ab667,S
2019-11-29 23:36:41,9276e273-f08f-4737-8c43-2c2f235ab667,A
2019-11-29 23:39:50,9276e273-f08f-4737-8c43-2c2f235ab667,S
2019-11-29 23:51:39,9276e273-f08f-4737-8c43-2c2f235ab667,A
2019-11-30 00:03:36,9276e273-f08f-4737-8c43-2c2f235ab667,S
2019-11-30 00:08:28,9276e273-f08f-4737-8c43-2c2f235ab667,A
2019-11-30 00:09:01,9276e273-f08f-4737-8c43-2c2f235ab667,S
2019-11-30 00:09:19,9276e273-f08f-4737-8c43-2c2f235ab667,A
2019-11-30 00:09:29,9276e273-f08f-4737-8c43-2c2f235ab667,S
2019-11-30 00:10:40,9276e273-f08f-4737-8c43-2c2f235ab667,A
2019-11-30 00:14:21,9276e273-f08f-4737-8c43-2c2f235ab667,S
2019-11-30 00:23:13,9276e273-f08f-4737-8c43-2c2f235ab667,A
2019-11-29 22:58:50,d36ccc2c-1363-4748-8d5d-d25f8852280d,A
2019-11-29 23:02:19,d36ccc2c-1363-4748-8d5d-d25f8852280d,S
2019-11-29 23:05:22,d36ccc2c-1363-4748-8d5d-d25f8852280d,A
2019-11-29 23:14:19,d36ccc2c-1363-4748-8d5d-d25f8852280d,S
2019-11-29 23:29:16,d36ccc2c-1363-4748-8d5d-d25f8852280d,A
2019-11-29 23:30:19,d36ccc2c-1363-4748-8d5d-d25f8852280d,S
2019-11-29 23:30:48,d36ccc2c-1363-4748-8d5d-d25f8852280d,A
2019-11-29 23:31:27,d36ccc2c-1363-4748-8d5d-d25f8852280d,S
2019-11-29 23:38:31,d36ccc2c-1363-4748-8d5d-d25f8852280d,A
2019-11-29 23:43:41,d36ccc2c-1363-4748-8d5d-d25f8852280d,S
2019-11-30 00:02:33,d36ccc2c-1363-4748-8d5d-d25f8852280d,A
2019-11-30 00:04:40,d36ccc2c-1363-4748-8d5d-d25f8852280d,S
2019-11-30 00:11:47,d36ccc2c-1363-4748-8d5d-d25f8852280d,A
2019-11-30 00:15:16,d36ccc2c-1363-4748-8d5d-d25f8852280d,S
2019-11-29 22:59:30,2d9cfb31-d391-40fd-8490-f223d12520ae,S
2019-11-29 23:00:13,2d9cfb31-d391-40fd-8490-f223d12520ae,A
2019-11-29 23:03:44,2d9cfb31-d391-40fd-8490-f223d12520ae,S
2019-11-29 23:07:47,2d9cfb31-d391-40fd-8490-f223d12520ae,A
2019-11-29 23:15:35,2d9cfb31-d391-40fd-8490-f223d12520ae,S
2019-11-29 23:22:05,2d9cfb31-d391-40fd-8490-f223d12520ae,A
2019-11-29 23:26:15,2d9cfb31-d391-40fd-8490-f223d12520ae,S
2019-11-29 23:27:41,2d9cfb31-d391-40fd-8490-f223d12520ae,A
2019-11-29 23:38:05,2d9cfb31-d391-40fd-8490-f223d12520ae,S
2019-11-29 23:38:20,2d9cfb31-d391-40fd-8490-f223d12520ae,A
2019-11-29 23:38:37,2d9cfb31-d391-40fd-8490-f223d12520ae,S
2019-11-29 23:40:06,2d9cfb31-d391-40fd-8490-f223d12520ae,A
2019-11-29 23:47:56,2d9cfb31-d391-40fd-8490-f223d12520ae,S
2019-11-29 23:51:53,2d9cfb31-d391-40fd-8490-f223d12520ae,A
2019-11-29 23:54:31,2d9cfb31-d391-40fd-8490-f223d12520ae,S
2019-11-29 23:56:59,2d9cfb31-d391-40fd-8490-f223d12520ae,A
2019-11-29 23:59:06,2d9cfb31-d391-40fd-8490-f223d12520ae,S
2019-11-30 00:03:46,2d9cfb31-d391-40fd-8490-f223d12520ae,A
2019-11-30 00:10:08,2d9cfb31-d391-40fd-8490-f223d12520ae,S
2019-11-30 00:10:18,2d9cfb31-d391-40fd-8490-f223d12520ae,A
2019-11-30 00:10:57,2d9cfb31-d391-40fd-8490-f223d12520ae,S
2019-11-30 00:13:15,2d9cfb31-d391-40fd-8490-f223d12520ae,A
2019-11-29 22:42:27,b3968e18-97a2-4a0b-a54f-26e61540e0a1,S
2019-11-29 22:51:29,b3968e18-97a2-4a0b-a54f-26e61540e0a1,A
2019-11-29 22:56:41,b3968e18-97a2-4a0b-a54f-26e61540e0a1,S
2019-11-29 23:09:27,b3968e18-97a2-4a0b-a54f-26e61540e0a1,A
2019-11-29 23:10:26,b3968e18-97a2-4a0b-a54f-26e61540e0a1,S
2019-11-29 23:21:38,b3968e18-97a2-4a0b-a54f-26e61540e0a1,A
2019-11-29 23:21:52,b3968e18-97a2-4a0b-a54f-26e61540e0a1,S
2019-11-29 23:25:19,b3968e18-97a2-4a0b-a54f-26e61540e0a1,A
2019-11-29 23:36:22,b3968e18-97a2-4a0b-a54f-26e61540e0a1,S
2019-11-29 23:39:23,b3968e18-97a2-4a0b-a54f-26e61540e0a1,A
2019-11-29 23:45:59,b3968e18-97a2-4a0b-a54f-26e61540e0a1,S
2019-11-29 23:47:56,b3968e18-97a2-4a0b-a54f-26e61540e0a1,A
2019-11-29 23:55:21,b3968e18-97a2-4a0b-a54f-26e61540e0a1,S
2019-11-29 23:59:27,b3968e18-97a2-4a0b-a54f-26e61540e0a1,A
2019-11-30 00:00:08,b3968e18-97a2-4a0b-a54f-26e61540e0a1,S
2019-11-30 00:00:31,b3968e18-97a2-4a0b-a54f-26e61540e0a1,A
2019-11-30 00:03:54,b3968e18-97a2-4a0b-a54f-26e61540e0a1,S
2019-11-30 00:06:58,b3968e18-97a2-4a0b-a54f-26e61540e0a1,A
2019-11-30 00:20:09,b3968e18-97a2-4a0b-a54f-26e61540e0a1,S
2019-11-30 00:24:19,b3968e18-97a2-4a0b-a54f-26e61540e0a1,A
2019-11-30 00:24:26,b3968e18-97a2-4a0b-a54f-26e61540e0a1,S
2019-11-29 22:53:59,3a3166a8-931c-4573-88f3-572c8e7029f2,A
2019-11-29 22:57:27,3a3166a8-931c-4573-88f3-572c8e7029f2,S
2019-11-29 22:59:43,3a3166a8-931c-4573-88f3-572c8e7029f2,A
2019-11-29 23:01:45,3a3166a8-931c-4573-88f3-572c8e7029f2,S
2019-11-29 23:02:20,3a3166a8-931c-4573-88f3-572c8e7029f2,A
2019-11-29 23:04:55,3a3166a8-931c-4573-88f3-572c8e7029f2,S
2019-11-29 23:11:46,3a3166a8-931c-4573-88f3-572c8e7029f2,A
2019-11-29 23:13:14,3a3166a8-931c-4573-88f3-572c8e7029f2,S
2019-11-29 23:23:29,3a3166a8-931c-4573-88f3-572c8e7029f2,A
2019-11-30 00:02:35,3a3166a8-931c-4573-88f3-572c8e7029f2,S
2019-11-30 00:12:29,3a3166a8-931c-4573-88f3-572c8e7029f2,A
2019-11-30 00:12:33,3a3166a8-931c-4573-88f3-572c8e7029f2,S
2019-11-30 00:13:15,3a3166a8-931c-4573-88f3-572c8e7029f2,A
2019-11-30 00:16:19,3a3166a8-931c-4573-88f3-572c8e7029f2,S
2019-11-30 00:17:40,3a3166a8-931c-4573-88f3-572c8e7029f2,A
2019-11-30 00:19:01,3a3166a8-931c-4573-88f3-572c8e7029f2,S
2019-11-30 00:23:11,3a3166a8-931c-4573-88f3-572c8e7029f2,A
2019-11-30 00:24:45,3a3166a8-931c-4573-88f3-572c8e7029f2,S
2019-11-30 00:24:51,3a3166a8-931c-4573-88f3-572c8e7029f2,A
2019-11-29 22:48:33,7e14bf6a-590e-4681-a076-5f6979a946cb,S
2019-11-29 22:48:37,7e14bf6a-590e-4681-a076-5f6979a946cb,A
2019-11-29 22:55:47,7e14bf6a-590e-4681-a076-5f6979a946cb,S
2019-11-29 23:07:17,7e14bf6a-590e-4681-a076-5f6979a946cb,A
2019-11-29 23:08:54,7e14bf6a-590e-4681-a076-5f6979a946cb,S
2019-11-29 23:12:01,7e14bf6a-590e-4681-a076-5f6979a946cb,A
2019-11-29 23:12:17,7e14bf6a-590e-4681-a076-5f6979a946cb,S
2019-11-29 23:30:16,7e14bf6a-590e-4681-a076-5f6979a946cb,A
2019-11-29 23:32:40,7e14bf6a-590e-4681-a076-5f6979a946cb,S
2019-11-29 23:45:02,7e14bf6a-590e-4681-a076-5f6979a946cb,A
2019-11-29 23:57:10,7e14bf6a-590e-4681-a076-5f6979a946cb,S
2019-11-30 00:02:41,7e14bf6a-590e-4681-a076-5f6979a946cb,A
2019-11-30 00:03:08,7e14bf6a-590e-4681-a076-5f6979a946cb,S
2019-11-30 00:05:23,7e14bf6a-590e-4681-a076-5f6979a946cb,A
2019-11-30 00:09:02,7e14bf6a-590e-4681-a076-5f6979a946cb,S
2019-11-30 00:12:22,7e14bf6a-590e-4681-a076-5f6979a946cb,A
2019-11-30 00:16:52,7e14bf6a-590e-4681-a076-5f6979a946cb,S
2019-11-30 00:17:49,7e14bf6a-590e-4681-a076-5f6979a946cb,A
2019-11-30 00:18:10,7e14bf6a-590e-4681-a076-5f6979a946cb,S
2019-11-30 00:19:08,7e14bf6a-590e-4681-a076-5f6979a946cb,A
