actor,node
4d7d21b8-c131-4d52-9a3b-852179a6f46d,d31f43f1-1e34-4375-9328-661a5703ed53
58ad8be7-22d8-4811-8f11-ec74f25501f7,57e11e42-5cc3-4e3b-9998-963d65ca29c9
11b85747-21b8-45e5-bda0-5c606bce29c9,d31f43f1-1e34-4375-9328-661a5703ed53
f882b70b-869c-4741-84ad-b60bc6a23c91,c258a603-4d7d-40c8-a95b-4137710ff23a
3e612d47-e229-4b72-b693-6dd7a8c35bdc,363fe8dc-61ad-4fc6-ac66-b4e4dd17ecec
68af8da5-6625-4bfc-8612-ef473ef7a603,363fe8dc-61ad-4fc6-ac66-b4e4dd17ecec
1ab9732b-52da-4669-ab33-5bcdf73c13d4,ab63b421-73cd-4262-bee9-28d5c3c1a08d
9da414ec-a292-477a-9983-ddb8bbf31c9f,ab63b421-73cd-4262-bee9-28d5c3c1a08d
e6335dd0-b819-452f-8ab9-940a5687e7d1,52a91236-6f98-4e3b-87ec-ca5d752f82c4
c190d382-e255-40a6-baf7-9f43b307d35e,1bfca079-a5b8-486c-831a-2ff32751c847
a63a3cbe-9615-4fc8-bedc-c2d23f015c80,57d42a91-bc4e-4ba9-b3b2-516698b61288
06a49df7-79d6-4e17-a4a4-3c1f9f5dec4c,1bfca079-a5b8-486c-831a-2ff32751c847
36787ecf-c282-450c-a21d-d89f6985b266,84ef5ad1-8fa5-4558-8aad-9bbda6c72933
e3a2d4a0-06d2-4925-8015-c951a05a57a0,84ef5ad1-8fa5-4558-8aad-9bbda6c72933
6dc0528f-f12f-40b1-9457-e309e883dadb,6bffda54-afbd-402b-90cb-3df52e9c17dd
81db5949-a3e3-4842-935b-f1f6c98c93eb,53642ba1-30be-47bc-8b38-d4c2d93fe468
5d7f1b84-7ec3-4d52-9dfb-e870ba962c60,18709926-238a-49d2-9168-12897cac6ecb
13336a5b-9697-4500-802b-ef8c23f65432,18709926-238a-49d2-9168-12897cac6ecb
885f752b-21ff-4139-ac4f-1628300f7375,13f8291b-ad81-47ad-ac10-6db0f6dfcdb7
5357a8c9-1abe-40aa-bf6b-8cf8e1e2cd94,34bc8db7-d209-4525-a8be-da540cf102c6
0b925153-b8e9-463e-9522-d286989dc364,13f8291b-ad81-47ad-ac10-6db0f6dfcdb7
fbb0b2dd-4d92-416b-981d-d4562d1da5d8,def6285b-f317-465f-a5d0-52db7c5bce91
f1e1d47e-dbbe-468f-832c-0322c8b3f119,def6285b-f317-465f-a5d0-52db7c5bce91
8a7ce128-3b81-46ec-a438-cef38d70b207,cc555677-b576-4dc3-a766-d95443cd1b36
f959e5f2-edd4-4589-a447-5ce79e54810d,3fcf63d1-bd4c-4fc5-a1e8-fc13c753bf8b
f43bd85d-33b2-4527-94be-6e356971ad42,5a2b014a-f6e9-467b-8f44-1517ab8f8007
43b6822c-fe9f-47e9-bab8-e60370492bb5,5a2b014a-f6e9-467b-8f44-1517ab8f8007
10d32266-92b6-466e-b297-eccd19d1e1dc,73628a67-74df-4ab2-82a7-cea5c109d1d8
c3932e08-0500-4a83-a736-949cb607f9fc,73628a67-74df-4ab2-82a7-cea5c109d1d8
84e5857b-5a88-45d1-8ab9-61cef3e07630,6dc7eac3-9f49-40ec-bd64-90b58d707e9e
698adcd9-a8a2-42ca-9973-86f40868d37f,d2731726-725f-4f1e-a5c9-1fda45293951
428f218d-0afa-42e9-a38c-89506490a8e0,a3bef656-7122-43e7-9cc7-5accf6c41807
f73d2865-43ad-4d6d-8181-18b47d11b978,a3bef656-7122-43e7-9cc7-5accf6c41807
1a6727c0-6ea1-4ae5-83ad-5296b57715c7,d243b1b3-912f-4395-aa6a-c727dfcfb04a
f55f0038-abaf-4855-8ddf-d8d3cfea7133,d243b1b3-912f-4395-aa6a-c727dfcfb04a
fb67c476-3afe-481b-a582-da7aa023648b,f94562d7-00ae-45d8-94c9-6ccae2264130
0ffee530-026b-4a05-9e5d-e2e385cf9fdf,64c3f434-7b93-4a82-9e03-ea8f8d0e6850
cf48cbbc-9740-4e7e-885a-57e66913baa6,64c3f434-7b93-4a82-9e03-ea8f8d0e6850
e2fae30c-3c84-41fa-a09d-ea9257b6c440,7f7c6831-e21f-421a-afa9-28acc2161586
1932f3ed-fe0f-4a56-8ad4-3c7a841d198a,d7fdc711-f3df-4d9d-b031-80baa6dd828b
99e34dd6-5da6-4d86-8925-20b114051ad0,d7fdc711-f3df-4d9d-b031-80baa6dd828b
3e0c021e-2a1c-4347-831e-6171b61f941f,4dd4e235-2101-4ae2-9000-fa284b5b2cc3
1956d595-404d-4061-98df-597de98ac075,b51d80a8-6469-4fbd-91cd-fe4e89348d17
6fa46023-f8d6-4106-8662-ae919a5d0653,7ad3d58c-468a-4885-b331-1d46bf752044
43f1e6e5-785f-4b05-8700-46eb4d83448d,b51d80a8-6469-4fbd-91cd-fe4e89348d17
ba715123-3ce3-419e-b99c-39723b0a6414,d31f43f1-1e34-4375-9328-661a5703ed53
8e9d3809-54cb-41af-836c-215a53ee6f57,405a7d31-01aa-4a9f-9bba-72ebf870cefd
3ff7c449-c06c-4cad-9bb3-3e7d18e1eca5,d31f43f1-1e34-4375-9328-661a5703ed53
37a966ec-14a2-4732-86c6-4117b3823cb2,363fe8dc-61ad-4fc6-ac66-b4e4dd17ecec
923e4c08-1195-478a-ba31-7d458cc68974,363fe8dc-61ad-4fc6-ac66-b4e4dd17ecec
053a5aa0-d8ef-40e2-9fb4-c81abd6f1291,9d2ef02f-3fa6-4b9a-9d62-c7783f2750dc
be841287-c0e7-404e-b785-6189d1d2f8c8,ab63b421-73cd-4262-bee9-28d5c3c1a08d
321301da-7ae5-4038-ad3c-e377a7a05877,102484dc-5d4a-42b4-9374-112c69be74ae
e1244d2e-a1fe-4a47-90b7-755775d116e9,ab63b421-73cd-4262-bee9-28d5c3c1a08d
6ea1be59-f7b7-4c6d-a9ba-d7c1006a3379,09e5a589-6554-4783-aa95-499807a58afc
03dbbb58-a738-4803-9cc9-95491a65b7b1,1bfca079-a5b8-486c-831a-2ff32751c847
de72e8c3-8969-4e81-8713-5ece20566ccc,1bfca079-a5b8-486c-831a-2ff32751c847
8e5b8cb4-38da-457c-8a8e-1dd724784f65,ae014f6c-ebe8-4651-89a2-000e255c9c5e
365a267c-c6c3-44df-9055-d82380637b65,84ef5ad1-8fa5-4558-8aad-9bbda6c72933
569594a6-cc31-426d-bca7-6547a1a2f739,84ef5ad1-8fa5-4558-8aad-9bbda6c72933
18615904-c44e-470a-9d77-d0b7ba49c668,18709926-238a-49d2-9168-12897cac6ecb
70f9faf3-0de3-4406-a178-40361193f93b,18709926-238a-49d2-9168-12897cac6ecb
0d5a561e-f0d8-4ff5-93cb-5401aed21ee4,43703644-eb6e-4444-b82e-47eeb83506b7
19ba52ad-9464-4d73-b5fd-16d280483059,13f8291b-ad81-47ad-ac10-6db0f6dfcdb7
86eef5c1-af6f-4890-b21e-9ac51ec6f048,13f8291b-ad81-47ad-ac10-6db0f6dfcdb7
84155eef-e8d4-4370-9666-53b24acfc375,af57c6d3-ff0b-4f8a-be48-999e5d9d6c14
cfe01436-7781-4c15-9dda-b22b703aadc0,439134f1-a7ec-48bc-aeab-9113511a7371
641264be-553c-4edc-adbc-b9d44ca2d1c1,def6285b-f317-465f-a5d0-52db7c5bce91
b7335227-fa6a-4d74-b73a-76df3cf33138,def6285b-f317-465f-a5d0-52db7c5bce91
caa8fb22-b338-4444-b609-457c881a7a71,0bd39c5f-f999-423e-8d5b-0806e124df43
8b4bb511-98e0-44b9-a6ad-e7775c24f1df,5a2b014a-f6e9-467b-8f44-1517ab8f8007
fb2a6533-7c6c-4309-b00d-866dfd220237,5a2b014a-f6e9-467b-8f44-1517ab8f8007
e14f78cb-0387-450e-b047-2b626fee450a,f204856b-f9c6-4c8c-aaea-3a5ea1a2f929
cd072c96-02cd-444c-be42-9cb35cf61134,73628a67-74df-4ab2-82a7-cea5c109d1d8
8b9ce37e-0b55-4c66-9985-1707c1ad3b34,73628a67-74df-4ab2-82a7-cea5c109d1d8
5494e04e-711f-4f1c-8c7c-6e914a8a9715,a3bef656-7122-43e7-9cc7-5accf6c41807
901e397d-2f3b-46c2-b87d-614562ff058f,d0e1729b-e39c-4f5f-801b-4daaa09261f6
3e72cfe3-58ae-4356-ada1-2b8b7e04bd71,a3bef656-7122-43e7-9cc7-5accf6c41807
c2d3978c-804f-466e-9114-9efde3961ad5,5c751bab-8501-4694-98c2-ea6c066876bb
02b10ed2-53ad-434c-b083-2088ad42895e,d243b1b3-912f-4395-aa6a-c727dfcfb04a
8d51a11f-e2f2-4abf-91d4-0a5c23822439,d243b1b3-912f-4395-aa6a-c727dfcfb04a
3e59ec92-4bc0-43dc-a5ff-ca4d75eae206,64c3f434-7b93-4a82-9e03-ea8f8d0e6850
a818670c-60ca-4333-9a23-7317dcc174f6,64c3f434-7b93-4a82-9e03-ea8f8d0e6850
2c176f3d-1132-4842-8238-f0a7fa9b34f0,81117949-61ee-452b-a61c-1f4200946df2
c1c7b8b5-b0ea-45d7-9050-1c1bf99c6110,d7fdc711-f3df-4d9d-b031-80baa6dd828b
76168f57-3293-489d-85c1-35a13d5be572,78e0ef83-66aa-41d1-8bbb-0911028d79be
4edb527a-068e-4e62-8ec5-697e6a27c521,d7fdc711-f3df-4d9d-b031-80baa6dd828b
d688180f-6834-4ae5-b562-07b427f11351,c956c8bb-dc01-4ffa-af56-d9cde293b386
828e7ae9-07b8-48f7-b64d-c09ce07f4a2b,b51d80a8-6469-4fbd-91cd-fe4e89348d17
6aae93c3-e76b-4cda-8a23-5bbffb8f5385,b51d80a8-6469-4fbd-91cd-fe4e89348d17
de3f211d-3190-4e9d-96b0-a20de0c97fd5,d31f43f1-1e34-4375-9328-661a5703ed53
43174235-c51b-4e05-89eb-966563cbcfc7,43a1ce03-647c-4ce6-9500-cc9f31234dcd
cb8573a8-fc74-4e66-8c6b-82108190a6f8,d31f43f1-1e34-4375-9328-661a5703ed53
43a0fbb9-2a60-41c0-b13f-0dd0d5fa4996,363fe8dc-61ad-4fc6-ac66-b4e4dd17ecec
2d6d6a66-bd1c-4217-b7d8-99ef24fe03e7,363fe8dc-61ad-4fc6-ac66-b4e4dd17ecec
4b39e09e-d52b-4562-ae1a-c5fb6971d20e,5eab3972-4723-435d-87d6-65c83e56ad06
95b2330e-c5a6-41cc-a661-6c832445f59e,ab63b421-73cd-4262-bee9-28d5c3c1a08d
d60b0d6f-448e-4f89-8f9f-9a7169749671,b8909dde-589d-451c-8b6c-cec3af044ed4
4ca9abdb-79b0-4a0a-ab67-bbdde85a1abd,ab63b421-73cd-4262-bee9-28d5c3c1a08d
a2f82b5f-8931-4c56-9517-7be184a6a264,1bfca079-a5b8-486c-831a-2ff32751c847
99e643ea-07d1-48e9-ae13-b4ef895fb985,1bfca079-a5b8-486c-831a-2ff32751c847
729c2bfb-103e-463a-8c56-b24244cbb3f2,fecc0ee5-ba66-4787-9093-3a86f7228691
10c6985c-6989-4290-acbc-32c734abd623,84ef5ad1-8fa5-4558-8aad-9bbda6c72933
de92b099-02db-4a08-86e6-2532f2f9d7e6,84ef5ad1-8fa5-4558-8aad-9bbda6c72933
30ffe4f4-0d6a-445c-bfdf-3fd739e5fb22,6ba91f78-d534-4a7d-805e-a7dc8e512e49
a169d792-7413-40bb-9b84-ef2484964ee4,18709926-238a-49d2-9168-12897cac6ecb
9ce2c68c-7953-487d-9c75-fdbdcde936b2,ba04728e-55e3-44bf-b7da-6bb85afc610a
65c8a437-5260-4fd4-ba23-710ec51d06be,18709926-238a-49d2-9168-12897cac6ecb
ad11a338-5264-4fa0-851a-347b11d6e046,13f8291b-ad81-47ad-ac10-6db0f6dfcdb7
c2b29c45-b0d5-42af-a740-d20baa0f045d,13f8291b-ad81-47ad-ac10-6db0f6dfcdb7
68786776-d5c0-4f72-ba56-dba4e5425c17,f37dc812-ad08-46fe-a99f-b22431711d82
a76defc0-4cf3-42df-83a8-33226d87f5b6,def6285b-f317-465f-a5d0-52db7c5bce91
b46a6feb-d1e7-4053-9f7e-de50ff2611d4,def6285b-f317-465f-a5d0-52db7c5bce91
91c759a4-6458-4f72-befe-9d222c566373,fd4b081b-51ff-4163-b780-a6964a069aa7
aa1e5d2a-58db-403b-99b6-2b16bded5e35,5a2b014a-f6e9-467b-8f44-1517ab8f8007
2269680e-b9b0-473c-9e81-429a2e5248ec,5a2b014a-f6e9-467b-8f44-1517ab8f8007
e03e5f09-f2b3-4f49-863f-0bcc6a395edc,5a2b014a-f6e9-467b-8f44-1517ab8f8007
0ba513df-5161-4ee6-a169-d78b69a5bf52,73628a67-74df-4ab2-82a7-cea5c109d1d8
99d581c0-8ed2-4529-a262-d57fdcceb564,5ef22cce-0707-44ea-87f7-d223cb6f5d3c
ab7abd23-7e25-43bd-9f04-c43788169e6f,73628a67-74df-4ab2-82a7-cea5c109d1d8
0e742063-1a07-4787-ba2f-7fcdd5a619c8,a3bef656-7122-43e7-9cc7-5accf6c41807
292117b3-95aa-45d7-8879-9d14464670fc,6ad01076-c544-43ef-ac3f-4a967bc913d1
0d1c353c-cb72-4c0c-b04b-7c49a4457a1c,a3bef656-7122-43e7-9cc7-5accf6c41807
632b0045-b193-4f47-9f4c-d087b2cdacda,d243b1b3-912f-4395-aa6a-c727dfcfb04a
d270d43c-065b-4b0c-a93f-809ec4fa8460,d243b1b3-912f-4395-aa6a-c727dfcfb04a
9d27d8e5-7fef-4cad-9df2-9faf4e796199,d2888b02-7213-4b38-991e-b21f8fa2d842
39238e5e-5c60-4173-9340-9826d01d00cf,64c3f434-7b93-4a82-9e03-ea8f8d0e6850
6ee5199f-e7ea-4749-b1a9-52d261d663d7,64c3f434-7b93-4a82-9e03-ea8f8d0e6850
fe52acdb-55de-4199-9edc-b909742003ab,587c2a19-5e2e-4d20-8559-9b411e6560dd
7eecb03f-d60f-497e-a9a2-ed1a444751b1,d7fdc711-f3df-4d9d-b031-80baa6dd828b
cd518db6-5cee-4cf2-9601-563e5b99c2f6,fd9d3be1-3490-41c1-846e-8312150bbe32
08e80716-5248-433e-b950-ea66a1140ed1,d7fdc711-f3df-4d9d-b031-80baa6dd828b
29d2403a-08ac-43ca-8883-1006eb678a2e,a4ddb994-720a-4a4a-b923-cf49530c0a36
41f3c534-5892-4899-a94e-3c0956798da8,b51d80a8-6469-4fbd-91cd-fe4e89348d17
37049c93-3252-45b1-912f-62f0c838102d,b51d80a8-6469-4fbd-91cd-fe4e89348d17
f15ce0bc-2e1d-4b38-8b9b-5eab2e4699c8,d31f43f1-1e34-4375-9328-661a5703ed53
c2ba9b8d-0142-4aa8-8174-9580ff7e2aff,71962d86-a053-45fc-861f-aa488076845d
ce8da41b-91f5-47ad-b634-ec9f9097fb62,d31f43f1-1e34-4375-9328-661a5703ed53
a764098e-8cf3-4dc0-a232-b9cc6613f790,46742417-7276-48d8-8ab1-6dd2488dc93f
cef05e20-511b-4204-86e2-a8c77f6e3d00,363fe8dc-61ad-4fc6-ac66-b4e4dd17ecec
c62accc1-7906-4501-a193-cf0b810e236d,363fe8dc-61ad-4fc6-ac66-b4e4dd17ecec
27e8b962-3e45-41a7-8169-affe25b16f01,ab63b421-73cd-4262-bee9-28d5c3c1a08d
cd5f985b-6dfb-41cd-b13c-30e0e9d09741,ab63b421-73cd-4262-bee9-28d5c3c1a08d
bc488ce3-f957-4ec4-8908-5a02436d36ce,58e0fd07-9a80-4a40-a502-550d332b8bee
4ff87179-aae4-4237-a9eb-bc68a9d9b586,1bfca079-a5b8-486c-831a-2ff32751c847
bfbbf6c8-31cb-4be4-b0eb-01140e46741f,fd2ed904-531a-4adf-814b-b9e73cde866f
b4ba6b80-9d7c-4833-b79c-3c852dc7297d,1bfca079-a5b8-486c-831a-2ff32751c847
ef815fa1-5989-4f36-a4ce-bee10cb90792,84ef5ad1-8fa5-4558-8aad-9bbda6c72933
9cc46cb3-1529-4eb1-bb59-47e63b274927,e27f559d-1149-4a05-9158-7e29cc407df8
c052a785-b1cd-4a54-86ab-ec3622aea44e,84ef5ad1-8fa5-4558-8aad-9bbda6c72933
