date,trigger,state
2019-11-14 04:34:56,ed3a16ac-4a92-4e44-bac4-92e83725a875,A
2019-11-14 04:43:51,ed3a16ac-4a92-4e44-bac4-92e83725a875,S
2019-11-14 04:54:35,ed3a16ac-4a92-4e44-bac4-92e83725a875,A
2019-11-14 05:00:07,ed3a16ac-4a92-4e44-bac4-92e83725a875,S
2019-11-14 05:02:45,ed3a16ac-4a92-4e44-bac4-92e83725a875,A
2019-11-14 05:03:29,ed3a16ac-4a92-4e44-bac4-92e83725a875,S
2019-11-14 05:08:09,ed3a16ac-4a92-4e44-bac4-92e83725a875,A
2019-11-14 05:09:59,ed3a16ac-4a92-4e44-bac4-92e83725a875,S
2019-11-14 05:23:14,ed3a16ac-4a92-4e44-bac4-92e83725a875,A
2019-11-14 05:25:07,ed3a16ac-4a92-4e44-bac4-92e83725a875,S
2019-11-14 05:31:19,ed3a16ac-4a92-4e44-bac4-92e83725a875,A
2019-11-14 05:34:07,ed3a16ac-4a92-4e44-bac4-92e83725a875,S
2019-11-14 05:35:55,ed3a16ac-4a92-4e44-bac4-92e83725a875,A
2019-11-14 05:36:18,ed3a16ac-4a92-4e44-bac4-92e83725a875,S
2019-11-14 05:36:57,ed3a16ac-4a92-4e44-bac4-92e83725a875,A
2019-11-14 05:49:27,ed3a16ac-4a92-4e44-bac4-92e83725a875,S
2019-11-14 05:49:29,ed3a16ac-4a92-4e44-bac4-92e83725a875,A
2019-11-14 05:50:05,ed3a16ac-4a92-4e44-bac4-92e83725a875,S
2019-11-14 05:50:34,ed3a16ac-4a92-4e44-bac4-92e83725a875,A
2019-11-14 04:26:23,87800c1b-e4a6-454e-b8a1-6a7e287a0448,S
2019-11-14 04:38:38,87800c1b-e4a6-454e-b8a1-6a7e287a0448,A
2019-11-14 04:48:46,87800c1b-e4a6-454e-b8a1-6a7e287a0448,S
2019-11-14 04:50:04,87800c1b-e4a6-454e-b8a1-6a7e287a0448,A
2019-11-14 04:52:03,87800c1b-e4a6-454e-b8a1-6a7e287a0448,S
2019-11-14 04:58:42,87800c1b-e4a6-454e-b8a1-6a7e287a0448,A
2019-11-14 04:59:29,87800c1b-e4a6-454e-b8a1-6a7e287a0448,S
2019-11-14 05:01:51,87800c1b-e4a6-454e-b8a1-6a7e287a0448,A
2019-11-14 05:02:42,87800c1b-e4a6-454e-b8a1-6a7e287a0448,S
2019-11-14 05:03:04,87800c1b-e4a6-454e-b8a1-6a7e287a0448,A
2019-11-14 05:03:23,87800c1b-e4a6-454e-b8a1-6a7e287a0448,S
2019-11-14 05:10:19,87800c1b-e4a6-454e-b8a1-6a7e287a0448,A
2019-11-14 05:23:09,87800c1b-e4a6-454e-b8a1-6a7e287a0448,S
2019-11-14 05:27:46,87800c1b-e4a6-454e-b8a1-6a7e287a0448,A
2019-11-14 05:28:25,87800c1b-e4a6-454e-b8a1-6a7e287a0448,S
2019-11-14 05:45:20,87800c1b-e4a6-454e-b8a1-6a7e287a0448,A
2019-11-14 05:47:41,87800c1b-e4a6-454e-b8a1-6a7e287a0448,S
2019-11-14 05:47:54,87800c1b-e4a6-454e-b8a1-6a7e287a0448,A
2019-11-14 05:49:14,87800c1b-e4a6-454e-b8a1-6a7e287a0448,S
2019-11-14 05:51:40,87800c1b-e4a6-454e-b8a1-6a7e287a0448,A
2019-11-14 05:57:08,87800c1b-e4a6-454e-b8a1-6a7e287a0448,S
2019-11-14 04:39:35,c7003613-eb73-4dca-abc7-a5869812905a,S
2019-11-14 04:41:46,c7003613-eb73-4dca-abc7-a5869812905a,A
2019-11-14 04:44:32,c7003613-eb73-4dca-abc7-a5869812905a,S
2019-11-14 05:01:27,c7003613-eb73-4dca-abc7-a5869812905a,A
2019-11-14 05:03:08,c7003613-eb73-4dca-abc7-a5869812905a,S
2019-11-14 05:04:15,c7003613-eb73-4dca-abc7-a5869812905a,A
2019-11-14 05:09:29,c7003613-eb73-4dca-abc7-a5869812905a,S
2019-11-14 05:18:07,c7003613-eb73-4dca-abc7-a5869812905a,A
2019-11-14 05:20:05,c7003613-eb73-4dca-abc7-a5869812905a,S
2019-11-14 05:27:40,c7003613-eb73-4dca-abc7-a5869812905a,A
2019-11-14 05:28:28,c7003613-eb73-4dca-abc7-a5869812905a,S
2019-11-14 05:40:15,c7003613-eb73-4dca-abc7-a5869812905a,A
2019-11-14 05:48:08,c7003613-eb73-4dca-abc7-a5869812905a,S
2019-11-14 05:49:46,c7003613-eb73-4dca-abc7-a5869812905a,A
2019-11-14 05:53:35,c7003613-eb73-4dca-abc7-a5869812905a,S
2019-11-14 05:55:53,c7003613-eb73-4dca-abc7-a5869812905a,A
2019-11-14 03:53:09,c1c23ecb-cd8d-4717-a41d-e887a835acb1,S
2019-11-14 03:54:15,c1c23ecb-cd8d-4717-a41d-e887a835acb1,A
2019-11-14 03:55:29,c1c23ecb-cd8d-4717-a41d-e887a835acb1,S
2019-11-14 03:59:08,c1c23ecb-cd8d-4717-a41d-e887a835acb1,A
2019-11-14 04:01:52,c1c23ecb-cd8d-4717-a41d-e887a835acb1,S
2019-11-14 04:07:02,c1c23ecb-cd8d-4717-a41d-e887a835acb1,A
2019-11-14 04:08:20,c1c23ecb-cd8d-4717-a41d-e887a835acb1,S
2019-11-14 04:14:19,c1c23ecb-cd8d-4717-a41d-e887a835acb1,A
2019-11-14 04:25:36,c1c23ecb-cd8d-4717-a41d-e887a835acb1,S
2019-11-14 04:29:16,c1c23ecb-cd8d-4717-a41d-e887a835acb1,A
2019-11-14 04:33:48,c1c23ecb-cd8d-4717-a41d-e887a835acb1,S
2019-11-14 04:45:15,c1c23ecb-cd8d-4717-a41d-e887a835acb1,A
2019-11-14 04:58:42,c1c23ecb-cd8d-4717-a41d-e887a835acb1,S
2019-11-14 04:59:40,c1c23ecb-cd8d-4717-a41d-e887a835acb1,A
2019-11-14 05:01:13,c1c23ecb-cd8d-4717-a41d-e887a835acb1,S
2019-11-14 05:01:59,c1c23ecb-cd8d-4717-a41d-e887a835acb1,A
2019-11-14 05:03:08,c1c23ecb-cd8d-4717-a41d-e887a835acb1,S
2019-11-14 05:11:44,c1c23ecb-cd8d-4717-a41d-e887a835acb1,A
2019-11-14 05:13:42,c1c23ecb-cd8d-4717-a41d-e887a835acb1,S
2019-11-14 05:15:31,c1c23ecb-cd8d-4717-a41d-e887a835acb1,A
2019-11-14 05:20:18,c1c23ecb-cd8d-4717-a41d-e887a835acb1,S
2019-11-14 05:29:11,c1c23ecb-cd8d-4717-a41d-e887a835acb1,A
2019-11-14 05:40:03,c1c23ecb-cd8d-4717-a41d-e887a835acb1,S
2019-11-14 05:44:00,c1c23ecb-cd8d-4717-a41d-e887a835acb1,A
2019-11-14 05:44:17,c1c23ecb-cd8d-4717-a41d-e887a835acb1,S
2019-11-14 05:49:56,c1c23ecb-cd8d-4717-a41d-e887a835acb1,A
2019-11-14 05:56:22,c1c23ecb-cd8d-4717-a41d-e887a835acb1,S
2019-11-14 04:08:33,55baa559-6401-42a0-989e-2ae5d2b545bd,A
2019-11-14 04:11:59,55baa559-6401-42a0-989e-2ae5d2b545bd,S
2019-11-14 04:17:04,55baa559-6401-42a0-989e-2ae5d2b545bd,A
2019-11-14 04:18:55,55baa559-6401-42a0-989e-2ae5d2b545bd,S
2019-11-14 04:29:26,55baa559-6401-42a0-989e-2ae5d2b545bd,A
2019-11-14 04:30:00,55baa559-6401-42a0-989e-2ae5d2b545bd,S
2019-11-14 04:38:25,55baa559-6401-42a0-989e-2ae5d2b545bd,A
2019-11-14 04:40:46,55baa559-6401-42a0-989e-2ae5d2b545bd,S
2019-11-14 04:49:09,55baa559-6401-42a0-989e-2ae5d2b545bd,A
2019-11-14 05:07:35,55baa559-6401-42a0-989e-2ae5d2b545bd,S
2019-11-14 05:08:51,55baa559-6401-42a0-989e-2ae5d2b545bd,A
2019-11-14 05:09:02,55baa559-6401-42a0-989e-2ae5d2b545bd,S
2019-11-14 05:12:14,55baa559-6401-42a0-989e-2ae5d2b545bd,A
2019-11-14 05:21:05,55baa559-6401-42a0-989e-2ae5d2b545bd,S
2019-11-14 05:36:10,55baa559-6401-42a0-989e-2ae5d2b545bd,A
2019-11-14 05:36:28,55baa559-6401-42a0-989e-2ae5d2b545bd,S
2019-11-14 05:46:59,55baa559-6401-42a0-989e-2ae5d2b545bd,A
2019-11-14 04:33:59,088d5bb3-635c-4fa5-8ccb-3b2ae4248930,A
2019-11-14 04:35:50,088d5bb3-635c-4fa5-8ccb-3b2ae4248930,S
2019-11-14 04:45:18,088d5bb3-635c-4fa5-8ccb-3b2ae4248930,A
2019-11-14 04:59:26,088d5bb3-635c-4fa5-8ccb-3b2ae4248930,S
2019-11-14 05:01:02,088d5bb3-635c-4fa5-8ccb-3b2ae4248930,A
2019-11-14 05:02:36,088d5bb3-635c-4fa5-8ccb-3b2ae4248930,S
2019-11-14 05:04:29,088d5bb3-635c-4fa5-8ccb-3b2ae4248930,A
2019-11-14 05:10:57,088d5bb3-635c-4fa5-8ccb-3b2ae4248930,S
2019-11-14 05:15:51,088d5bb3-635c-4fa5-8ccb-3b2ae4248930,A
2019-11-14 05:23:22,088d5bb3-635c-4fa5-8ccb-3b2ae4248930,S
2019-11-14 05:23:24,088d5bb3-635c-4fa5-8ccb-3b2ae4248930,A
2019-11-14 05:23:44,088d5bb3-635c-4fa5-8ccb-3b2ae4248930,S
2019-11-14 05:26:04,088d5bb3-635c-4fa5-8ccb-3b2ae4248930,A
2019-11-14 05:29:16,088d5bb3-635c-4fa5-8ccb-3b2ae4248930,S
2019-11-14 05:30:02,088d5bb3-635c-4fa5-8ccb-3b2ae4248930,A
2019-11-14 05:41:02,088d5bb3-635c-4fa5-8ccb-3b2ae4248930,S
2019-11-14 05:41:50,088d5bb3-635c-4fa5-8ccb-3b2ae4248930,A
2019-11-14 05:42:16,088d5bb3-635c-4fa5-8ccb-3b2ae4248930,S
2019-11-14 05:44:29,088d5bb3-635c-4fa5-8ccb-3b2ae4248930,A
2019-11-14 05:46:43,088d5bb3-635c-4fa5-8ccb-3b2ae4248930,S
2019-11-14 05:47:02,088d5bb3-635c-4fa5-8ccb-3b2ae4248930,A
2019-11-14 05:56:27,088d5bb3-635c-4fa5-8ccb-3b2ae4248930,S
2019-11-14 04:08:06,dff8dfd0-0eed-4d74-b248-07ab4cef770f,A
2019-11-14 04:10:56,dff8dfd0-0eed-4d74-b248-07ab4cef770f,S
2019-11-14 04:16:03,dff8dfd0-0eed-4d74-b248-07ab4cef770f,A
2019-11-14 04:31:31,dff8dfd0-0eed-4d74-b248-07ab4cef770f,S
2019-11-14 04:40:34,dff8dfd0-0eed-4d74-b248-07ab4cef770f,A
2019-11-14 04:50:17,dff8dfd0-0eed-4d74-b248-07ab4cef770f,S
2019-11-14 04:58:47,dff8dfd0-0eed-4d74-b248-07ab4cef770f,A
2019-11-14 04:59:33,dff8dfd0-0eed-4d74-b248-07ab4cef770f,S
2019-11-14 04:59:52,dff8dfd0-0eed-4d74-b248-07ab4cef770f,A
2019-11-14 05:08:30,dff8dfd0-0eed-4d74-b248-07ab4cef770f,S
2019-11-14 05:11:29,dff8dfd0-0eed-4d74-b248-07ab4cef770f,A
2019-11-14 05:11:32,dff8dfd0-0eed-4d74-b248-07ab4cef770f,S
2019-11-14 05:12:43,dff8dfd0-0eed-4d74-b248-07ab4cef770f,A
2019-11-14 05:14:33,dff8dfd0-0eed-4d74-b248-07ab4cef770f,S
2019-11-14 05:16:24,dff8dfd0-0eed-4d74-b248-07ab4cef770f,A
2019-11-14 05:17:23,dff8dfd0-0eed-4d74-b248-07ab4cef770f,S
2019-11-14 05:19:06,dff8dfd0-0eed-4d74-b248-07ab4cef770f,A
2019-11-14 05:28:22,dff8dfd0-0eed-4d74-b248-07ab4cef770f,S
2019-11-14 05:30:29,dff8dfd0-0eed-4d74-b248-07ab4cef770f,A
2019-11-14 05:31:27,dff8dfd0-0eed-4d74-b248-07ab4cef770f,S
2019-11-14 05:33:54,dff8dfd0-0eed-4d74-b248-07ab4cef770f,A
2019-11-14 05:42:40,dff8dfd0-0eed-4d74-b248-07ab4cef770f,S
2019-11-14 05:44:57,dff8dfd0-0eed-4d74-b248-07ab4cef770f,A
2019-11-14 05:49:49,dff8dfd0-0eed-4d74-b248-07ab4cef770f,S
2019-11-14 05:49:56,dff8dfd0-0eed-4d74-b248-07ab4cef770f,A
2019-11-14 05:50:35,dff8dfd0-0eed-4d74-b248-07ab4cef770f,S
2019-11-14 05:54:04,dff8dfd0-0eed-4d74-b248-07ab4cef770f,A
2019-11-14 05:55:30,dff8dfd0-0eed-4d74-b248-07ab4cef770f,S
2019-11-14 04:34:07,6b09903e-84ea-4077-a392-1b7e1ac335cc,S
2019-11-14 04:34:49,6b09903e-84ea-4077-a392-1b7e1ac335cc,A
2019-11-14 04:38:20,6b09903e-84ea-4077-a392-1b7e1ac335cc,S
2019-11-14 04:42:23,6b09903e-84ea-4077-a392-1b7e1ac335cc,A
2019-11-14 04:50:12,6b09903e-84ea-4077-a392-1b7e1ac335cc,S
2019-11-14 04:56:41,6b09903e-84ea-4077-a392-1b7e1ac335cc,A
2019-11-14 05:00:51,6b09903e-84ea-4077-a392-1b7e1ac335cc,S
2019-11-14 05:02:17,6b09903e-84ea-4077-a392-1b7e1ac335cc,A
2019-11-14 05:12:41,6b09903e-84ea-4077-a392-1b7e1ac335cc,S
2019-11-14 05:12:57,6b09903e-84ea-4077-a392-1b7e1ac335cc,A
2019-11-14 05:13:13,6b09903e-84ea-4077-a392-1b7e1ac335cc,S
2019-11-14 05:14:42,6b09903e-84ea-4077-a392-1b7e1ac335cc,A
2019-11-14 05:22:32,6b09903e-84ea-4077-a392-1b7e1ac335cc,S
2019-11-14 05:26:29,6b09903e-84ea-4077-a392-1b7e1ac335cc,A
2019-11-14 05:29:08,6b09903e-84ea-4077-a392-1b7e1ac335cc,S
2019-11-14 05:31:35,6b09903e-84ea-4077-a392-1b7e1ac335cc,A
2019-11-14 05:33:42,6b09903e-84ea-4077-a392-1b7e1ac335cc,S
2019-11-14 05:38:23,6b09903e-84ea-4077-a392-1b7e1ac335cc,A
2019-11-14 05:44:44,6b09903e-84ea-4077-a392-1b7e1ac335cc,S
2019-11-14 05:44:54,6b09903e-84ea-4077-a392-1b7e1ac335cc,A
2019-11-14 05:45:33,6b09903e-84ea-4077-a392-1b7e1ac335cc,S
2019-11-14 05:47:51,6b09903e-84ea-4077-a392-1b7e1ac335cc,A
2019-11-14 04:42:53,eb24b697-8936-4365-81fd-9696ee4537f4,S
2019-11-14 04:45:12,eb24b697-8936-4365-81fd-9696ee4537f4,A
2019-11-14 04:51:43,eb24b697-8936-4365-81fd-9696ee4537f4,S
2019-11-14 04:52:41,eb24b697-8936-4365-81fd-9696ee4537f4,A
2019-11-14 04:53:02,eb24b697-8936-4365-81fd-9696ee4537f4,S
2019-11-14 04:58:11,eb24b697-8936-4365-81fd-9696ee4537f4,A
2019-11-14 05:03:05,eb24b697-8936-4365-81fd-9696ee4537f4,S
2019-11-14 05:07:45,eb24b697-8936-4365-81fd-9696ee4537f4,A
2019-11-14 05:20:44,eb24b697-8936-4365-81fd-9696ee4537f4,S
2019-11-14 05:38:14,eb24b697-8936-4365-81fd-9696ee4537f4,A
2019-11-14 05:42:57,eb24b697-8936-4365-81fd-9696ee4537f4,S
2019-11-14 05:45:05,eb24b697-8936-4365-81fd-9696ee4537f4,A
2019-11-14 05:46:19,eb24b697-8936-4365-81fd-9696ee4537f4,S
2019-11-14 05:47:42,eb24b697-8936-4365-81fd-9696ee4537f4,A
2019-11-14 05:48:25,eb24b697-8936-4365-81fd-9696ee4537f4,S
2019-11-14 05:48:58,eb24b697-8936-4365-81fd-9696ee4537f4,A
2019-11-14 05:50:02,eb24b697-8936-4365-81fd-9696ee4537f4,S
2019-11-14 05:56:43,eb24b697-8936-4365-81fd-9696ee4537f4,A
2019-11-14 05:57:03,eb24b697-8936-4365-81fd-9696ee4537f4,S
2019-11-14 05:57:51,eb24b697-8936-4365-81fd-9696ee4537f4,A
2019-11-14 05:57:52,eb24b697-8936-4365-81fd-9696ee4537f4,S
2019-11-14 04:27:41,f90408d2-59ab-4114-ae31-3191bc907b71,S
2019-11-14 04:29:59,f90408d2-59ab-4114-ae31-3191bc907b71,A
2019-11-14 04:35:11,f90408d2-59ab-4114-ae31-3191bc907b71,S
2019-11-14 04:43:16,f90408d2-59ab-4114-ae31-3191bc907b71,A
2019-11-14 04:50:40,f90408d2-59ab-4114-ae31-3191bc907b71,S
2019-11-14 04:51:02,f90408d2-59ab-4114-ae31-3191bc907b71,A
2019-11-14 04:56:35,f90408d2-59ab-4114-ae31-3191bc907b71,S
2019-11-14 05:07:39,f90408d2-59ab-4114-ae31-3191bc907b71,A
2019-11-14 05:12:03,f90408d2-59ab-4114-ae31-3191bc907b71,S
2019-11-14 05:14:50,f90408d2-59ab-4114-ae31-3191bc907b71,A
2019-11-14 05:21:32,f90408d2-59ab-4114-ae31-3191bc907b71,S
2019-11-14 05:22:23,f90408d2-59ab-4114-ae31-3191bc907b71,A
2019-11-14 05:25:08,f90408d2-59ab-4114-ae31-3191bc907b71,S
2019-11-14 05:28:59,f90408d2-59ab-4114-ae31-3191bc907b71,A
2019-11-14 05:35:27,f90408d2-59ab-4114-ae31-3191bc907b71,S
2019-11-14 05:38:31,f90408d2-59ab-4114-ae31-3191bc907b71,A
2019-11-14 05:50:51,f90408d2-59ab-4114-ae31-3191bc907b71,S
2019-11-14 05:55:38,f90408d2-59ab-4114-ae31-3191bc907b71,A
2019-11-14 05:57:42,f90408d2-59ab-4114-ae31-3191bc907b71,S
2019-11-14 04:11:16,8b1844f9-b3e8-4b8e-873c-197488e92b40,S
2019-11-14 04:23:20,8b1844f9-b3e8-4b8e-873c-197488e92b40,A
2019-11-14 04:41:42,8b1844f9-b3e8-4b8e-873c-197488e92b40,S
2019-11-14 04:44:05,8b1844f9-b3e8-4b8e-873c-197488e92b40,A
2019-11-14 04:47:24,8b1844f9-b3e8-4b8e-873c-197488e92b40,S
2019-11-14 04:50:43,8b1844f9-b3e8-4b8e-873c-197488e92b40,A
2019-11-14 05:02:13,8b1844f9-b3e8-4b8e-873c-197488e92b40,S
2019-11-14 05:03:02,8b1844f9-b3e8-4b8e-873c-197488e92b40,A
2019-11-14 05:04:42,8b1844f9-b3e8-4b8e-873c-197488e92b40,S
2019-11-14 05:05:34,8b1844f9-b3e8-4b8e-873c-197488e92b40,A
2019-11-14 05:22:58,8b1844f9-b3e8-4b8e-873c-197488e92b40,S
2019-11-14 05:23:04,8b1844f9-b3e8-4b8e-873c-197488e92b40,A
2019-11-14 05:26:14,8b1844f9-b3e8-4b8e-873c-197488e92b40,S
2019-11-14 05:29:40,8b1844f9-b3e8-4b8e-873c-197488e92b40,A
2019-11-14 05:31:55,8b1844f9-b3e8-4b8e-873c-197488e92b40,S
2019-11-14 05:37:51,8b1844f9-b3e8-4b8e-873c-197488e92b40,A
2019-11-14 05:39:14,8b1844f9-b3e8-4b8e-873c-197488e92b40,S
2019-11-14 05:43:09,8b1844f9-b3e8-4b8e-873c-197488e92b40,A
2019-11-14 05:48:43,8b1844f9-b3e8-4b8e-873c-197488e92b40,S
2019-11-14 04:08:42,d84ceeb3-a4ad-4705-9230-7ee81c39aaa9,A
2019-11-14 04:14:45,d84ceeb3-a4ad-4705-9230-7ee81c39aaa9,S
2019-11-14 04:17:33,d84ceeb3-a4ad-4705-9230-7ee81c39aaa9,A
2019-11-14 04:18:11,d84ceeb3-a4ad-4705-9230-7ee81c39aaa9,S
2019-11-14 04:18:57,d84ceeb3-a4ad-4705-9230-7ee81c39aaa9,A
2019-11-14 04:28:12,d84ceeb3-a4ad-4705-9230-7ee81c39aaa9,S
2019-11-14 04:28:37,d84ceeb3-a4ad-4705-9230-7ee81c39aaa9,A
2019-11-14 04:29:28,d84ceeb3-a4ad-4705-9230-7ee81c39aaa9,S
2019-11-14 04:34:21,d84ceeb3-a4ad-4705-9230-7ee81c39aaa9,A
2019-11-14 04:39:21,d84ceeb3-a4ad-4705-9230-7ee81c39aaa9,S
2019-11-14 04:39:33,d84ceeb3-a4ad-4705-9230-7ee81c39aaa9,A
2019-11-14 04:40:17,d84ceeb3-a4ad-4705-9230-7ee81c39aaa9,S
2019-11-14 04:42:38,d84ceeb3-a4ad-4705-9230-7ee81c39aaa9,A
2019-11-14 04:45:38,d84ceeb3-a4ad-4705-9230-7ee81c39aaa9,S
2019-11-14 04:46:54,d84ceeb3-a4ad-4705-9230-7ee81c39aaa9,A
2019-11-14 04:46:58,d84ceeb3-a4ad-4705-9230-7ee81c39aaa9,S
2019-11-14 04:55:04,d84ceeb3-a4ad-4705-9230-7ee81c39aaa9,A
2019-11-14 04:58:21,d84ceeb3-a4ad-4705-9230-7ee81c39aaa9,S
2019-11-14 05:00:13,d84ceeb3-a4ad-4705-9230-7ee81c39aaa9,A
2019-11-14 05:07:35,d84ceeb3-a4ad-4705-9230-7ee81c39aaa9,S
2019-11-14 05:17:50,d84ceeb3-a4ad-4705-9230-7ee81c39aaa9,A
2019-11-14 05:33:17,d84ceeb3-a4ad-4705-9230-7ee81c39aaa9,S
2019-11-14 05:35:40,d84ceeb3-a4ad-4705-9230-7ee81c39aaa9,A
2019-11-14 05:35:51,d84ceeb3-a4ad-4705-9230-7ee81c39aaa9,S
2019-11-14 05:43:57,d84ceeb3-a4ad-4705-9230-7ee81c39aaa9,A
2019-11-14 05:44:20,d84ceeb3-a4ad-4705-9230-7ee81c39aaa9,S
2019-11-14 05:52:39,d84ceeb3-a4ad-4705-9230-7ee81c39aaa9,A
2019-11-14 04:08:08,64a84c79-d526-476b-8ec1-98ae5c49ecb1,S
2019-11-14 04:20:03,64a84c79-d526-476b-8ec1-98ae5c49ecb1,A
2019-11-14 04:20:21,64a84c79-d526-476b-8ec1-98ae5c49ecb1,S
2019-11-14 04:35:45,64a84c79-d526-476b-8ec1-98ae5c49ecb1,A
2019-11-14 04:38:38,64a84c79-d526-476b-8ec1-98ae5c49ecb1,S
2019-11-14 04:40:38,64a84c79-d526-476b-8ec1-98ae5c49ecb1,A
2019-11-14 04:48:45,64a84c79-d526-476b-8ec1-98ae5c49ecb1,S
2019-11-14 04:49:41,64a84c79-d526-476b-8ec1-98ae5c49ecb1,A
2019-11-14 04:51:54,64a84c79-d526-476b-8ec1-98ae5c49ecb1,S
2019-11-14 05:06:18,64a84c79-d526-476b-8ec1-98ae5c49ecb1,A
2019-11-14 05:11:36,64a84c79-d526-476b-8ec1-98ae5c49ecb1,S
2019-11-14 05:13:09,64a84c79-d526-476b-8ec1-98ae5c49ecb1,A
2019-11-14 05:13:57,64a84c79-d526-476b-8ec1-98ae5c49ecb1,S
2019-11-14 05:15:54,64a84c79-d526-476b-8ec1-98ae5c49ecb1,A
2019-11-14 05:19:12,64a84c79-d526-476b-8ec1-98ae5c49ecb1,S
2019-11-14 05:19:18,64a84c79-d526-476b-8ec1-98ae5c49ecb1,A
2019-11-14 05:31:37,64a84c79-d526-476b-8ec1-98ae5c49ecb1,S
2019-11-14 05:32:58,64a84c79-d526-476b-8ec1-98ae5c49ecb1,A
2019-11-14 05:37:50,64a84c79-d526-476b-8ec1-98ae5c49ecb1,S
2019-11-14 05:41:16,64a84c79-d526-476b-8ec1-98ae5c49ecb1,A
2019-11-14 05:42:30,64a84c79-d526-476b-8ec1-98ae5c49ecb1,S
2019-11-14 05:43:12,64a84c79-d526-476b-8ec1-98ae5c49ecb1,A
2019-11-14 05:55:52,64a84c79-d526-476b-8ec1-98ae5c49ecb1,S
2019-11-14 05:57:20,64a84c79-d526-476b-8ec1-98ae5c49ecb1,A
2019-11-14 05:58:34,64a84c79-d526-476b-8ec1-98ae5c49ecb1,S
2019-11-14 03:55:56,cac0f5ce-707b-45c9-bbcc-d3c9667751f5,S
2019-11-14 03:59:59,cac0f5ce-707b-45c9-bbcc-d3c9667751f5,A
2019-11-14 04:00:48,cac0f5ce-707b-45c9-bbcc-d3c9667751f5,S
2019-11-14 04:06:01,cac0f5ce-707b-45c9-bbcc-d3c9667751f5,A
2019-11-14 04:10:55,cac0f5ce-707b-45c9-bbcc-d3c9667751f5,S
2019-11-14 04:15:53,cac0f5ce-707b-45c9-bbcc-d3c9667751f5,A
2019-11-14 04:18:28,cac0f5ce-707b-45c9-bbcc-d3c9667751f5,S
2019-11-14 04:19:14,cac0f5ce-707b-45c9-bbcc-d3c9667751f5,A
2019-11-14 04:29:50,cac0f5ce-707b-45c9-bbcc-d3c9667751f5,S
2019-11-14 04:30:14,cac0f5ce-707b-45c9-bbcc-d3c9667751f5,A
2019-11-14 04:37:52,cac0f5ce-707b-45c9-bbcc-d3c9667751f5,S
2019-11-14 04:43:12,cac0f5ce-707b-45c9-bbcc-d3c9667751f5,A
2019-11-14 04:43:38,cac0f5ce-707b-45c9-bbcc-d3c9667751f5,S
2019-11-14 04:50:03,cac0f5ce-707b-45c9-bbcc-d3c9667751f5,A
2019-11-14 04:52:07,cac0f5ce-707b-45c9-bbcc-d3c9667751f5,S
2019-11-14 04:52:21,cac0f5ce-707b-45c9-bbcc-d3c9667751f5,A
2019-11-14 04:57:24,cac0f5ce-707b-45c9-bbcc-d3c9667751f5,S
2019-11-14 04:58:05,cac0f5ce-707b-45c9-bbcc-d3c9667751f5,A
2019-11-14 05:15:11,cac0f5ce-707b-45c9-bbcc-d3c9667751f5,S
2019-11-14 05:17:28,cac0f5ce-707b-45c9-bbcc-d3c9667751f5,A
2019-11-14 05:17:48,cac0f5ce-707b-45c9-bbcc-d3c9667751f5,S
2019-11-14 05:21:13,cac0f5ce-707b-45c9-bbcc-d3c9667751f5,A
2019-11-14 05:21:24,cac0f5ce-707b-45c9-bbcc-d3c9667751f5,S
2019-11-14 05:28:25,cac0f5ce-707b-45c9-bbcc-d3c9667751f5,A
2019-11-14 05:34:14,cac0f5ce-707b-45c9-bbcc-d3c9667751f5,S
2019-11-14 05:54:57,cac0f5ce-707b-45c9-bbcc-d3c9667751f5,A
2019-11-14 05:56:13,cac0f5ce-707b-45c9-bbcc-d3c9667751f5,S
2019-11-14 04:38:48,026df90d-b531-47e3-949f-21ebce14fb15,A
2019-11-14 04:43:54,026df90d-b531-47e3-949f-21ebce14fb15,S
2019-11-14 04:44:58,026df90d-b531-47e3-949f-21ebce14fb15,A
2019-11-14 04:46:53,026df90d-b531-47e3-949f-21ebce14fb15,S
2019-11-14 04:54:28,026df90d-b531-47e3-949f-21ebce14fb15,A
2019-11-14 04:55:53,026df90d-b531-47e3-949f-21ebce14fb15,S
2019-11-14 05:05:46,026df90d-b531-47e3-949f-21ebce14fb15,A
2019-11-14 05:07:35,026df90d-b531-47e3-949f-21ebce14fb15,S
2019-11-14 05:12:28,026df90d-b531-47e3-949f-21ebce14fb15,A
2019-11-14 05:16:52,026df90d-b531-47e3-949f-21ebce14fb15,S
2019-11-14 05:25:37,026df90d-b531-47e3-949f-21ebce14fb15,A
2019-11-14 05:27:08,026df90d-b531-47e3-949f-21ebce14fb15,S
2019-11-14 05:29:02,026df90d-b531-47e3-949f-21ebce14fb15,A
2019-11-14 05:31:29,026df90d-b531-47e3-949f-21ebce14fb15,S
2019-11-14 05:35:43,026df90d-b531-47e3-949f-21ebce14fb15,A
2019-11-14 05:41:32,026df90d-b531-47e3-949f-21ebce14fb15,S
2019-11-14 05:47:02,026df90d-b531-47e3-949f-21ebce14fb15,A
2019-11-14 05:56:15,026df90d-b531-47e3-949f-21ebce14fb15,S
2019-11-14 03:51:59,e2b4773c-4442-4305-b0d7-b597c76fadb0,A
2019-11-14 03:56:15,e2b4773c-4442-4305-b0d7-b597c76fadb0,S
2019-11-14 03:58:32,e2b4773c-4442-4305-b0d7-b597c76fadb0,A
2019-11-14 04:06:15,e2b4773c-4442-4305-b0d7-b597c76fadb0,S
2019-11-14 04:15:33,e2b4773c-4442-4305-b0d7-b597c76fadb0,A
2019-11-14 04:19:54,e2b4773c-4442-4305-b0d7-b597c76fadb0,S
2019-11-14 04:24:28,e2b4773c-4442-4305-b0d7-b597c76fadb0,A
2019-11-14 04:39:45,e2b4773c-4442-4305-b0d7-b597c76fadb0,S
2019-11-14 04:44:37,e2b4773c-4442-4305-b0d7-b597c76fadb0,A
2019-11-14 04:57:27,e2b4773c-4442-4305-b0d7-b597c76fadb0,S
2019-11-14 04:57:55,e2b4773c-4442-4305-b0d7-b597c76fadb0,A
2019-11-14 05:05:08,e2b4773c-4442-4305-b0d7-b597c76fadb0,S
2019-11-14 05:13:03,e2b4773c-4442-4305-b0d7-b597c76fadb0,A
2019-11-14 05:14:13,e2b4773c-4442-4305-b0d7-b597c76fadb0,S
2019-11-14 05:15:46,e2b4773c-4442-4305-b0d7-b597c76fadb0,A
2019-11-14 05:16:22,e2b4773c-4442-4305-b0d7-b597c76fadb0,S
2019-11-14 05:17:55,e2b4773c-4442-4305-b0d7-b597c76fadb0,A
2019-11-14 05:18:31,e2b4773c-4442-4305-b0d7-b597c76fadb0,S
2019-11-14 05:18:37,e2b4773c-4442-4305-b0d7-b597c76fadb0,A
2019-11-14 05:18:59,e2b4773c-4442-4305-b0d7-b597c76fadb0,S
2019-11-14 05:19:56,e2b4773c-4442-4305-b0d7-b597c76fadb0,A
2019-11-14 05:27:20,e2b4773c-4442-4305-b0d7-b597c76fadb0,S
2019-11-14 05:39:39,e2b4773c-4442-4305-b0d7-b597c76fadb0,A
2019-11-14 05:40:17,e2b4773c-4442-4305-b0d7-b597c76fadb0,S
2019-11-14 05:58:46,e2b4773c-4442-4305-b0d7-b597c76fadb0,A
2019-11-14 04:04:44,c608bc41-e84b-4f5b-bfe2-2330ceba3e2c,S
2019-11-14 04:08:51,c608bc41-e84b-4f5b-bfe2-2330ceba3e2c,A
2019-11-14 04:19:14,c608bc41-e84b-4f5b-bfe2-2330ceba3e2c,S
2019-11-14 04:20:48,c608bc41-e84b-4f5b-bfe2-2330ceba3e2c,A
2019-11-14 04:28:19,c608bc41-e84b-4f5b-bfe2-2330ceba3e2c,S
2019-11-14 04:28:34,c608bc41-e84b-4f5b-bfe2-2330ceba3e2c,A
2019-11-14 04:29:59,c608bc41-e84b-4f5b-bfe2-2330ceba3e2c,S
2019-11-14 04:47:16,c608bc41-e84b-4f5b-bfe2-2330ceba3e2c,A
2019-11-14 04:53:02,c608bc41-e84b-4f5b-bfe2-2330ceba3e2c,S
2019-11-14 04:56:37,c608bc41-e84b-4f5b-bfe2-2330ceba3e2c,A
2019-11-14 04:59:48,c608bc41-e84b-4f5b-bfe2-2330ceba3e2c,S
2019-11-14 05:00:05,c608bc41-e84b-4f5b-bfe2-2330ceba3e2c,A
2019-11-14 05:18:40,c608bc41-e84b-4f5b-bfe2-2330ceba3e2c,S
2019-11-14 05:19:06,c608bc41-e84b-4f5b-bfe2-2330ceba3e2c,A
2019-11-14 05:21:56,c608bc41-e84b-4f5b-bfe2-2330ceba3e2c,S
2019-11-14 05:35:29,c608bc41-e84b-4f5b-bfe2-2330ceba3e2c,A
2019-11-14 05:38:47,c608bc41-e84b-4f5b-bfe2-2330ceba3e2c,S
2019-11-14 05:41:15,c608bc41-e84b-4f5b-bfe2-2330ceba3e2c,A
2019-11-14 05:41:52,c608bc41-e84b-4f5b-bfe2-2330ceba3e2c,S
2019-11-14 05:47:06,c608bc41-e84b-4f5b-bfe2-2330ceba3e2c,A
2019-11-14 05:51:46,c608bc41-e84b-4f5b-bfe2-2330ceba3e2c,S
2019-11-14 05:55:43,c608bc41-e84b-4f5b-bfe2-2330ceba3e2c,A
2019-11-14 05:57:35,c608bc41-e84b-4f5b-bfe2-2330ceba3e2c,S
2019-11-14 05:58:33,c608bc41-e84b-4f5b-bfe2-2330ceba3e2c,A
2019-11-14 04:28:45,b93ed5cc-7986-40d9-a3be-7a168291a58c,A
2019-11-14 04:29:14,b93ed5cc-7986-40d9-a3be-7a168291a58c,S
2019-11-14 04:37:44,b93ed5cc-7986-40d9-a3be-7a168291a58c,A
2019-11-14 04:39:03,b93ed5cc-7986-40d9-a3be-7a168291a58c,S
2019-11-14 04:39:03,b93ed5cc-7986-40d9-a3be-7a168291a58c,A
2019-11-14 04:47:40,b93ed5cc-7986-40d9-a3be-7a168291a58c,S
2019-11-14 04:48:54,b93ed5cc-7986-40d9-a3be-7a168291a58c,A
2019-11-14 04:49:44,b93ed5cc-7986-40d9-a3be-7a168291a58c,S
2019-11-14 04:53:32,b93ed5cc-7986-40d9-a3be-7a168291a58c,A
2019-11-14 04:54:38,b93ed5cc-7986-40d9-a3be-7a168291a58c,S
2019-11-14 04:54:50,b93ed5cc-7986-40d9-a3be-7a168291a58c,A
2019-11-14 05:00:23,b93ed5cc-7986-40d9-a3be-7a168291a58c,S
2019-11-14 05:05:42,b93ed5cc-7986-40d9-a3be-7a168291a58c,A
2019-11-14 05:17:57,b93ed5cc-7986-40d9-a3be-7a168291a58c,S
2019-11-14 05:18:13,b93ed5cc-7986-40d9-a3be-7a168291a58c,A
2019-11-14 05:22:23,b93ed5cc-7986-40d9-a3be-7a168291a58c,S
2019-11-14 05:31:59,b93ed5cc-7986-40d9-a3be-7a168291a58c,A
2019-11-14 05:44:05,b93ed5cc-7986-40d9-a3be-7a168291a58c,S
2019-11-14 05:47:34,b93ed5cc-7986-40d9-a3be-7a168291a58c,A
2019-11-14 05:51:57,b93ed5cc-7986-40d9-a3be-7a168291a58c,S
2019-11-14 05:53:21,b93ed5cc-7986-40d9-a3be-7a168291a58c,A
2019-11-14 05:53:57,b93ed5cc-7986-40d9-a3be-7a168291a58c,S
2019-11-14 04:43:00,2b26f77b-0e7b-4639-8191-c3997e2b89b1,S
2019-11-14 04:44:14,2b26f77b-0e7b-4639-8191-c3997e2b89b1,A
2019-11-14 04:49:59,2b26f77b-0e7b-4639-8191-c3997e2b89b1,S
2019-11-14 05:03:19,2b26f77b-0e7b-4639-8191-c3997e2b89b1,A
2019-11-14 05:11:04,2b26f77b-0e7b-4639-8191-c3997e2b89b1,S
2019-11-14 05:13:35,2b26f77b-0e7b-4639-8191-c3997e2b89b1,A
2019-11-14 05:29:58,2b26f77b-0e7b-4639-8191-c3997e2b89b1,S
2019-11-14 05:36:05,2b26f77b-0e7b-4639-8191-c3997e2b89b1,A
2019-11-14 05:50:54,2b26f77b-0e7b-4639-8191-c3997e2b89b1,S
2019-11-14 05:56:08,2b26f77b-0e7b-4639-8191-c3997e2b89b1,A
2019-11-14 05:58:42,2b26f77b-0e7b-4639-8191-c3997e2b89b1,S
2019-11-14 04:03:49,1ff13328-5ef5-4396-bdb4-3d6f295f7640,S
2019-11-14 04:08:47,1ff13328-5ef5-4396-bdb4-3d6f295f7640,A
2019-11-14 04:09:09,1ff13328-5ef5-4396-bdb4-3d6f295f7640,S
2019-11-14 04:13:53,1ff13328-5ef5-4396-bdb4-3d6f295f7640,A
2019-11-14 04:18:50,1ff13328-5ef5-4396-bdb4-3d6f295f7640,S
2019-11-14 04:20:52,1ff13328-5ef5-4396-bdb4-3d6f295f7640,A
2019-11-14 04:30:57,1ff13328-5ef5-4396-bdb4-3d6f295f7640,S
2019-11-14 04:33:38,1ff13328-5ef5-4396-bdb4-3d6f295f7640,A
2019-11-14 04:34:33,1ff13328-5ef5-4396-bdb4-3d6f295f7640,S
2019-11-14 04:42:35,1ff13328-5ef5-4396-bdb4-3d6f295f7640,A
2019-11-14 04:51:23,1ff13328-5ef5-4396-bdb4-3d6f295f7640,S
2019-11-14 04:53:33,1ff13328-5ef5-4396-bdb4-3d6f295f7640,A
2019-11-14 04:53:43,1ff13328-5ef5-4396-bdb4-3d6f295f7640,S
2019-11-14 05:13:00,1ff13328-5ef5-4396-bdb4-3d6f295f7640,A
2019-11-14 05:15:13,1ff13328-5ef5-4396-bdb4-3d6f295f7640,S
2019-11-14 05:32:47,1ff13328-5ef5-4396-bdb4-3d6f295f7640,A
2019-11-14 05:42:58,1ff13328-5ef5-4396-bdb4-3d6f295f7640,S
2019-11-14 05:58:49,1ff13328-5ef5-4396-bdb4-3d6f295f7640,A
2019-11-14 06:00:02,1ff13328-5ef5-4396-bdb4-3d6f295f7640,S
2019-11-14 04:40:43,7970058f-8396-46bb-be72-b66896bf4858,A
2019-11-14 05:14:29,7970058f-8396-46bb-be72-b66896bf4858,S
2019-11-14 05:14:57,7970058f-8396-46bb-be72-b66896bf4858,A
2019-11-14 05:44:14,7970058f-8396-46bb-be72-b66896bf4858,S
2019-11-14 05:47:17,7970058f-8396-46bb-be72-b66896bf4858,A
2019-11-14 05:49:45,7970058f-8396-46bb-be72-b66896bf4858,S
2019-11-14 05:51:17,7970058f-8396-46bb-be72-b66896bf4858,A
2019-11-14 05:52:03,7970058f-8396-46bb-be72-b66896bf4858,S
2019-11-14 05:55:18,7970058f-8396-46bb-be72-b66896bf4858,A
2019-11-14 04:12:45,ba2390b6-6a02-4b3d-a248-d4a878d424bf,S
2019-11-14 04:20:23,ba2390b6-6a02-4b3d-a248-d4a878d424bf,A
2019-11-14 04:22:19,ba2390b6-6a02-4b3d-a248-d4a878d424bf,S
2019-11-14 04:33:37,ba2390b6-6a02-4b3d-a248-d4a878d424bf,A
2019-11-14 04:35:27,ba2390b6-6a02-4b3d-a248-d4a878d424bf,S
2019-11-14 04:36:08,ba2390b6-6a02-4b3d-a248-d4a878d424bf,A
2019-11-14 04:45:39,ba2390b6-6a02-4b3d-a248-d4a878d424bf,S
2019-11-14 04:48:54,ba2390b6-6a02-4b3d-a248-d4a878d424bf,A
2019-11-14 04:49:30,ba2390b6-6a02-4b3d-a248-d4a878d424bf,S
2019-11-14 04:50:01,ba2390b6-6a02-4b3d-a248-d4a878d424bf,A
2019-11-14 04:55:05,ba2390b6-6a02-4b3d-a248-d4a878d424bf,S
2019-11-14 04:55:30,ba2390b6-6a02-4b3d-a248-d4a878d424bf,A
2019-11-14 04:55:53,ba2390b6-6a02-4b3d-a248-d4a878d424bf,S
2019-11-14 04:56:38,ba2390b6-6a02-4b3d-a248-d4a878d424bf,A
2019-11-14 04:58:29,ba2390b6-6a02-4b3d-a248-d4a878d424bf,S
2019-11-14 04:59:22,ba2390b6-6a02-4b3d-a248-d4a878d424bf,A
2019-11-14 05:09:56,ba2390b6-6a02-4b3d-a248-d4a878d424bf,S
2019-11-14 05:11:07,ba2390b6-6a02-4b3d-a248-d4a878d424bf,A
2019-11-14 05:18:00,ba2390b6-6a02-4b3d-a248-d4a878d424bf,S
2019-11-14 05:26:40,ba2390b6-6a02-4b3d-a248-d4a878d424bf,A
2019-11-14 05:29:48,ba2390b6-6a02-4b3d-a248-d4a878d424bf,S
2019-11-14 05:33:23,ba2390b6-6a02-4b3d-a248-d4a878d424bf,A
2019-11-14 05:33:39,ba2390b6-6a02-4b3d-a248-d4a878d424bf,S
2019-11-14 05:40:44,ba2390b6-6a02-4b3d-a248-d4a878d424bf,A
2019-11-14 05:40:52,ba2390b6-6a02-4b3d-a248-d4a878d424bf,S
2019-11-14 05:41:18,ba2390b6-6a02-4b3d-a248-d4a878d424bf,A
2019-11-14 05:41:55,ba2390b6-6a02-4b3d-a248-d4a878d424bf,S
2019-11-14 05:44:00,ba2390b6-6a02-4b3d-a248-d4a878d424bf,A
2019-11-14 05:44:03,ba2390b6-6a02-4b3d-a248-d4a878d424bf,S
2019-11-14 05:55:49,ba2390b6-6a02-4b3d-a248-d4a878d424bf,A
2019-11-14 05:59:13,ba2390b6-6a02-4b3d-a248-d4a878d424bf,S
2019-11-14 04:40:46,6b3ab3a2-f4f2-46cf-a146-53e591ef4942,S
2019-11-14 04:41:35,6b3ab3a2-f4f2-46cf-a146-53e591ef4942,A
2019-11-14 04:54:11,6b3ab3a2-f4f2-46cf-a146-53e591ef4942,S
2019-11-14 04:55:18,6b3ab3a2-f4f2-46cf-a146-53e591ef4942,A
2019-11-14 04:57:23,6b3ab3a2-f4f2-46cf-a146-53e591ef4942,S
2019-11-14 05:22:15,6b3ab3a2-f4f2-46cf-a146-53e591ef4942,A
2019-11-14 05:34:05,6b3ab3a2-f4f2-46cf-a146-53e591ef4942,S
2019-11-14 05:38:26,6b3ab3a2-f4f2-46cf-a146-53e591ef4942,A
2019-11-14 05:38:27,6b3ab3a2-f4f2-46cf-a146-53e591ef4942,S
2019-11-14 05:42:37,6b3ab3a2-f4f2-46cf-a146-53e591ef4942,A
2019-11-14 05:46:48,6b3ab3a2-f4f2-46cf-a146-53e591ef4942,S
2019-11-14 05:56:11,6b3ab3a2-f4f2-46cf-a146-53e591ef4942,A
2019-11-14 04:13:14,c8a0fcaf-4414-4f9c-bd02-9c0f07eb6dc9,A
2019-11-14 04:16:55,c8a0fcaf-4414-4f9c-bd02-9c0f07eb6dc9,S
2019-11-14 04:20:14,c8a0fcaf-4414-4f9c-bd02-9c0f07eb6dc9,A
2019-11-14 04:21:54,c8a0fcaf-4414-4f9c-bd02-9c0f07eb6dc9,S
2019-11-14 04:37:24,c8a0fcaf-4414-4f9c-bd02-9c0f07eb6dc9,A
2019-11-14 04:39:09,c8a0fcaf-4414-4f9c-bd02-9c0f07eb6dc9,S
2019-11-14 04:39:31,c8a0fcaf-4414-4f9c-bd02-9c0f07eb6dc9,A
2019-11-14 05:01:20,c8a0fcaf-4414-4f9c-bd02-9c0f07eb6dc9,S
2019-11-14 05:08:30,c8a0fcaf-4414-4f9c-bd02-9c0f07eb6dc9,A
2019-11-14 05:12:51,c8a0fcaf-4414-4f9c-bd02-9c0f07eb6dc9,S
2019-11-14 05:13:31,c8a0fcaf-4414-4f9c-bd02-9c0f07eb6dc9,A
2019-11-14 05:17:46,c8a0fcaf-4414-4f9c-bd02-9c0f07eb6dc9,S
2019-11-14 05:19:36,c8a0fcaf-4414-4f9c-bd02-9c0f07eb6dc9,A
2019-11-14 05:22:18,c8a0fcaf-4414-4f9c-bd02-9c0f07eb6dc9,S
2019-11-14 05:31:33,c8a0fcaf-4414-4f9c-bd02-9c0f07eb6dc9,A
2019-11-14 05:39:09,c8a0fcaf-4414-4f9c-bd02-9c0f07eb6dc9,S
2019-11-14 05:44:05,c8a0fcaf-4414-4f9c-bd02-9c0f07eb6dc9,A
2019-11-14 05:50:43,c8a0fcaf-4414-4f9c-bd02-9c0f07eb6dc9,S
2019-11-14 04:39:31,841c4fd7-ccff-435c-9ee6-13cc3af46a40,S
2019-11-14 04:44:55,841c4fd7-ccff-435c-9ee6-13cc3af46a40,A
2019-11-14 04:46:20,841c4fd7-ccff-435c-9ee6-13cc3af46a40,S
2019-11-14 04:48:30,841c4fd7-ccff-435c-9ee6-13cc3af46a40,A
2019-11-14 04:55:32,841c4fd7-ccff-435c-9ee6-13cc3af46a40,S
2019-11-14 05:01:38,841c4fd7-ccff-435c-9ee6-13cc3af46a40,A
2019-11-14 05:05:33,841c4fd7-ccff-435c-9ee6-13cc3af46a40,S
2019-11-14 05:08:55,841c4fd7-ccff-435c-9ee6-13cc3af46a40,A
2019-11-14 05:10:29,841c4fd7-ccff-435c-9ee6-13cc3af46a40,S
2019-11-14 05:10:40,841c4fd7-ccff-435c-9ee6-13cc3af46a40,A
2019-11-14 05:13:00,841c4fd7-ccff-435c-9ee6-13cc3af46a40,S
2019-11-14 05:17:16,841c4fd7-ccff-435c-9ee6-13cc3af46a40,A
2019-11-14 05:20:11,841c4fd7-ccff-435c-9ee6-13cc3af46a40,S
2019-11-14 05:21:06,841c4fd7-ccff-435c-9ee6-13cc3af46a40,A
2019-11-14 05:31:29,841c4fd7-ccff-435c-9ee6-13cc3af46a40,S
2019-11-14 05:31:33,841c4fd7-ccff-435c-9ee6-13cc3af46a40,A
2019-11-14 05:32:05,841c4fd7-ccff-435c-9ee6-13cc3af46a40,S
2019-11-14 05:32:34,841c4fd7-ccff-435c-9ee6-13cc3af46a40,A
2019-11-14 05:32:47,841c4fd7-ccff-435c-9ee6-13cc3af46a40,S
2019-11-14 05:36:42,841c4fd7-ccff-435c-9ee6-13cc3af46a40,A
2019-11-14 05:44:31,841c4fd7-ccff-435c-9ee6-13cc3af46a40,S
2019-11-14 05:50:30,841c4fd7-ccff-435c-9ee6-13cc3af46a40,A
2019-11-14 05:53:23,841c4fd7-ccff-435c-9ee6-13cc3af46a40,S
2019-11-14 05:55:22,841c4fd7-ccff-435c-9ee6-13cc3af46a40,A
2019-11-14 03:55:31,f4646b6a-c12d-4d9f-8675-d1277300729c,A
2019-11-14 04:11:34,f4646b6a-c12d-4d9f-8675-d1277300729c,S
2019-11-14 04:14:48,f4646b6a-c12d-4d9f-8675-d1277300729c,A
2019-11-14 04:17:34,f4646b6a-c12d-4d9f-8675-d1277300729c,S
2019-11-14 04:18:05,f4646b6a-c12d-4d9f-8675-d1277300729c,A
2019-11-14 04:32:03,f4646b6a-c12d-4d9f-8675-d1277300729c,S
2019-11-14 04:35:32,f4646b6a-c12d-4d9f-8675-d1277300729c,A
2019-11-14 04:38:23,f4646b6a-c12d-4d9f-8675-d1277300729c,S
2019-11-14 04:42:24,f4646b6a-c12d-4d9f-8675-d1277300729c,A
2019-11-14 04:55:47,f4646b6a-c12d-4d9f-8675-d1277300729c,S
2019-11-14 04:55:58,f4646b6a-c12d-4d9f-8675-d1277300729c,A
2019-11-14 05:04:40,f4646b6a-c12d-4d9f-8675-d1277300729c,S
2019-11-14 05:08:57,f4646b6a-c12d-4d9f-8675-d1277300729c,A
2019-11-14 05:15:33,f4646b6a-c12d-4d9f-8675-d1277300729c,S
2019-11-14 05:18:05,f4646b6a-c12d-4d9f-8675-d1277300729c,A
2019-11-14 05:29:16,f4646b6a-c12d-4d9f-8675-d1277300729c,S
2019-11-14 05:31:10,f4646b6a-c12d-4d9f-8675-d1277300729c,A
2019-11-14 05:32:08,f4646b6a-c12d-4d9f-8675-d1277300729c,S
2019-11-14 05:35:01,f4646b6a-c12d-4d9f-8675-d1277300729c,A
2019-11-14 05:40:59,f4646b6a-c12d-4d9f-8675-d1277300729c,S
2019-11-14 05:49:47,f4646b6a-c12d-4d9f-8675-d1277300729c,A
2019-11-14 05:52:50,f4646b6a-c12d-4d9f-8675-d1277300729c,S
2019-11-14 05:54:41,f4646b6a-c12d-4d9f-8675-d1277300729c,A
2019-11-14 05:56:51,f4646b6a-c12d-4d9f-8675-d1277300729c,S
2019-11-14 04:33:26,8ba0544a-abbf-4f10-ab45-485807e97f15,A
2019-11-14 04:36:55,8ba0544a-abbf-4f10-ab45-485807e97f15,S
2019-11-14 04:39:58,8ba0544a-abbf-4f10-ab45-485807e97f15,A
2019-11-14 04:48:55,8ba0544a-abbf-4f10-ab45-485807e97f15,S
2019-11-14 05:03:52,8ba0544a-abbf-4f10-ab45-485807e97f15,A
2019-11-14 05:04:54,8ba0544a-abbf-4f10-ab45-485807e97f15,S
2019-11-14 05:05:24,8ba0544a-abbf-4f10-ab45-485807e97f15,A
2019-11-14 05:06:03,8ba0544a-abbf-4f10-ab45-485807e97f15,S
2019-11-14 05:13:07,8ba0544a-abbf-4f10-ab45-485807e97f15,A
2019-11-14 05:18:17,8ba0544a-abbf-4f10-ab45-485807e97f15,S
2019-11-14 05:37:08,8ba0544a-abbf-4f10-ab45-485807e97f15,A
2019-11-14 05:39:15,8ba0544a-abbf-4f10-ab45-485807e97f15,S
2019-11-14 05:46:23,8ba0544a-abbf-4f10-ab45-485807e97f15,A
2019-11-14 05:49:52,8ba0544a-abbf-4f10-ab45-485807e97f15,S
2019-11-14 04:41:14,66798c2a-70b5-4825-92e9-30f283fae9b0,S
2019-11-14 04:54:49,66798c2a-70b5-4825-92e9-30f283fae9b0,A
2019-11-14 04:59:42,66798c2a-70b5-4825-92e9-30f283fae9b0,S
2019-11-14 05:00:15,66798c2a-70b5-4825-92e9-30f283fae9b0,A
2019-11-14 05:04:07,66798c2a-70b5-4825-92e9-30f283fae9b0,S
2019-11-14 05:04:48,66798c2a-70b5-4825-92e9-30f283fae9b0,A
2019-11-14 05:13:27,66798c2a-70b5-4825-92e9-30f283fae9b0,S
2019-11-14 05:14:30,66798c2a-70b5-4825-92e9-30f283fae9b0,A
2019-11-14 05:16:46,66798c2a-70b5-4825-92e9-30f283fae9b0,S
2019-11-14 05:18:56,66798c2a-70b5-4825-92e9-30f283fae9b0,A
2019-11-14 05:21:17,66798c2a-70b5-4825-92e9-30f283fae9b0,S
2019-11-14 05:25:09,66798c2a-70b5-4825-92e9-30f283fae9b0,A
2019-11-14 05:26:20,66798c2a-70b5-4825-92e9-30f283fae9b0,S
2019-11-14 05:27:11,66798c2a-70b5-4825-92e9-30f283fae9b0,A
2019-11-14 05:29:20,66798c2a-70b5-4825-92e9-30f283fae9b0,S
2019-11-14 05:29:43,66798c2a-70b5-4825-92e9-30f283fae9b0,A
2019-11-14 05:29:59,66798c2a-70b5-4825-92e9-30f283fae9b0,S
2019-11-14 05:34:31,66798c2a-70b5-4825-92e9-30f283fae9b0,A
2019-11-14 05:35:21,66798c2a-70b5-4825-92e9-30f283fae9b0,S
2019-11-14 05:44:53,66798c2a-70b5-4825-92e9-30f283fae9b0,A
2019-11-14 05:50:56,66798c2a-70b5-4825-92e9-30f283fae9b0,S
2019-11-14 05:58:54,66798c2a-70b5-4825-92e9-30f283fae9b0,A
2019-11-14 04:21:44,b5860732-c8ae-470d-ae68-f6d65b37b0a3,S
2019-11-14 04:26:59,b5860732-c8ae-470d-ae68-f6d65b37b0a3,A
2019-11-14 04:33:43,b5860732-c8ae-470d-ae68-f6d65b37b0a3,S
2019-11-14 04:38:43,b5860732-c8ae-470d-ae68-f6d65b37b0a3,A
2019-11-14 04:39:38,b5860732-c8ae-470d-ae68-f6d65b37b0a3,S
2019-11-14 04:46:25,b5860732-c8ae-470d-ae68-f6d65b37b0a3,A
2019-11-14 04:48:41,b5860732-c8ae-470d-ae68-f6d65b37b0a3,S
2019-11-14 04:54:47,b5860732-c8ae-470d-ae68-f6d65b37b0a3,A
2019-11-14 04:54:49,b5860732-c8ae-470d-ae68-f6d65b37b0a3,S
2019-11-14 04:55:33,b5860732-c8ae-470d-ae68-f6d65b37b0a3,A
2019-11-14 04:59:26,b5860732-c8ae-470d-ae68-f6d65b37b0a3,S
2019-11-14 05:05:03,b5860732-c8ae-470d-ae68-f6d65b37b0a3,A
2019-11-14 05:07:04,b5860732-c8ae-470d-ae68-f6d65b37b0a3,S
2019-11-14 05:10:17,b5860732-c8ae-470d-ae68-f6d65b37b0a3,A
2019-11-14 05:13:08,b5860732-c8ae-470d-ae68-f6d65b37b0a3,S
2019-11-14 05:16:23,b5860732-c8ae-470d-ae68-f6d65b37b0a3,A
2019-11-14 05:25:24,b5860732-c8ae-470d-ae68-f6d65b37b0a3,S
2019-11-14 05:28:58,b5860732-c8ae-470d-ae68-f6d65b37b0a3,A
2019-11-14 05:29:57,b5860732-c8ae-470d-ae68-f6d65b37b0a3,S
2019-11-14 05:33:23,b5860732-c8ae-470d-ae68-f6d65b37b0a3,A
2019-11-14 05:35:21,b5860732-c8ae-470d-ae68-f6d65b37b0a3,S
2019-11-14 05:36:03,b5860732-c8ae-470d-ae68-f6d65b37b0a3,A
2019-11-14 05:43:11,b5860732-c8ae-470d-ae68-f6d65b37b0a3,S
2019-11-14 05:45:35,b5860732-c8ae-470d-ae68-f6d65b37b0a3,A
2019-11-14 05:59:27,b5860732-c8ae-470d-ae68-f6d65b37b0a3,S
2019-11-14 04:24:07,ee6e9e47-b19c-4a11-b9c0-30ef3bde7b0b,S
2019-11-14 04:28:16,ee6e9e47-b19c-4a11-b9c0-30ef3bde7b0b,A
2019-11-14 04:35:44,ee6e9e47-b19c-4a11-b9c0-30ef3bde7b0b,S
2019-11-14 04:39:56,ee6e9e47-b19c-4a11-b9c0-30ef3bde7b0b,A
2019-11-14 04:40:10,ee6e9e47-b19c-4a11-b9c0-30ef3bde7b0b,S
2019-11-14 04:49:39,ee6e9e47-b19c-4a11-b9c0-30ef3bde7b0b,A
2019-11-14 04:52:40,ee6e9e47-b19c-4a11-b9c0-30ef3bde7b0b,S
2019-11-14 04:25:46,8c8b449f-62aa-4722-8419-fcdb7e8e583b,A
2019-11-14 04:37:16,8c8b449f-62aa-4722-8419-fcdb7e8e583b,S
2019-11-14 04:47:13,8c8b449f-62aa-4722-8419-fcdb7e8e583b,A
2019-11-14 04:52:40,8c8b449f-62aa-4722-8419-fcdb7e8e583b,S
2019-11-14 04:53:23,8c8b449f-62aa-4722-8419-fcdb7e8e583b,A
2019-11-14 04:54:20,8c8b449f-62aa-4722-8419-fcdb7e8e583b,S
2019-11-14 04:56:17,8c8b449f-62aa-4722-8419-fcdb7e8e583b,A
2019-11-14 04:57:38,8c8b449f-62aa-4722-8419-fcdb7e8e583b,S
2019-11-14 05:04:57,8c8b449f-62aa-4722-8419-fcdb7e8e583b,A
2019-11-14 05:06:51,8c8b449f-62aa-4722-8419-fcdb7e8e583b,S
2019-11-14 05:08:34,8c8b449f-62aa-4722-8419-fcdb7e8e583b,A
2019-11-14 05:23:58,8c8b449f-62aa-4722-8419-fcdb7e8e583b,S
2019-11-14 05:29:52,8c8b449f-62aa-4722-8419-fcdb7e8e583b,A
2019-11-14 05:34:25,8c8b449f-62aa-4722-8419-fcdb7e8e583b,S
2019-11-14 05:35:28,8c8b449f-62aa-4722-8419-fcdb7e8e583b,A
2019-11-14 05:37:48,8c8b449f-62aa-4722-8419-fcdb7e8e583b,S
2019-11-14 05:41:28,8c8b449f-62aa-4722-8419-fcdb7e8e583b,A
2019-11-14 05:43:29,8c8b449f-62aa-4722-8419-fcdb7e8e583b,S
2019-11-14 05:43:37,8c8b449f-62aa-4722-8419-fcdb7e8e583b,A
2019-11-14 05:52:43,8c8b449f-62aa-4722-8419-fcdb7e8e583b,S
2019-11-14 05:59:02,8c8b449f-62aa-4722-8419-fcdb7e8e583b,A
2019-11-14 06:00:08,8c8b449f-62aa-4722-8419-fcdb7e8e583b,S
2019-11-14 06:01:01,8c8b449f-62aa-4722-8419-fcdb7e8e583b,A
2019-11-14 04:10:30,f67fc95b-cb1d-487f-98a1-05c99d76be4c,A
2019-11-14 04:17:23,f67fc95b-cb1d-487f-98a1-05c99d76be4c,S
2019-11-14 04:22:10,f67fc95b-cb1d-487f-98a1-05c99d76be4c,A
2019-11-14 04:28:43,f67fc95b-cb1d-487f-98a1-05c99d76be4c,S
2019-11-14 04:34:38,f67fc95b-cb1d-487f-98a1-05c99d76be4c,A
2019-11-14 04:45:16,f67fc95b-cb1d-487f-98a1-05c99d76be4c,S
2019-11-14 04:52:31,f67fc95b-cb1d-487f-98a1-05c99d76be4c,A
2019-11-14 04:54:58,f67fc95b-cb1d-487f-98a1-05c99d76be4c,S
2019-11-14 04:56:39,f67fc95b-cb1d-487f-98a1-05c99d76be4c,A
2019-11-14 05:01:17,f67fc95b-cb1d-487f-98a1-05c99d76be4c,S
2019-11-14 05:06:16,f67fc95b-cb1d-487f-98a1-05c99d76be4c,A
2019-11-14 05:16:12,f67fc95b-cb1d-487f-98a1-05c99d76be4c,S
2019-11-14 05:16:16,f67fc95b-cb1d-487f-98a1-05c99d76be4c,A
2019-11-14 05:20:56,f67fc95b-cb1d-487f-98a1-05c99d76be4c,S
2019-11-14 05:22:40,f67fc95b-cb1d-487f-98a1-05c99d76be4c,A
2019-11-14 05:29:23,f67fc95b-cb1d-487f-98a1-05c99d76be4c,S
2019-11-14 05:29:29,f67fc95b-cb1d-487f-98a1-05c99d76be4c,A
2019-11-14 05:32:12,f67fc95b-cb1d-487f-98a1-05c99d76be4c,S
2019-11-14 05:39:05,f67fc95b-cb1d-487f-98a1-05c99d76be4c,A
2019-11-14 05:59:59,f67fc95b-cb1d-487f-98a1-05c99d76be4c,S
2019-11-14 04:18:09,1a7d1404-8c82-4a14-b2ff-48b90448a408,A
2019-11-14 04:24:12,1a7d1404-8c82-4a14-b2ff-48b90448a408,S
2019-11-14 04:26:42,1a7d1404-8c82-4a14-b2ff-48b90448a408,A
2019-11-14 04:27:27,1a7d1404-8c82-4a14-b2ff-48b90448a408,S
2019-11-14 04:27:30,1a7d1404-8c82-4a14-b2ff-48b90448a408,A
2019-11-14 04:30:20,1a7d1404-8c82-4a14-b2ff-48b90448a408,S
2019-11-14 04:38:36,1a7d1404-8c82-4a14-b2ff-48b90448a408,A
2019-11-14 04:41:22,1a7d1404-8c82-4a14-b2ff-48b90448a408,S
2019-11-14 04:41:25,1a7d1404-8c82-4a14-b2ff-48b90448a408,A
2019-11-14 04:47:30,1a7d1404-8c82-4a14-b2ff-48b90448a408,S
2019-11-14 04:51:53,1a7d1404-8c82-4a14-b2ff-48b90448a408,A
2019-11-14 04:59:14,1a7d1404-8c82-4a14-b2ff-48b90448a408,S
2019-11-14 05:00:23,1a7d1404-8c82-4a14-b2ff-48b90448a408,A
2019-11-14 05:04:20,1a7d1404-8c82-4a14-b2ff-48b90448a408,S
2019-11-14 05:05:07,1a7d1404-8c82-4a14-b2ff-48b90448a408,A
2019-11-14 05:05:24,1a7d1404-8c82-4a14-b2ff-48b90448a408,S
2019-11-14 05:15:58,1a7d1404-8c82-4a14-b2ff-48b90448a408,A
2019-11-14 05:17:21,1a7d1404-8c82-4a14-b2ff-48b90448a408,S
2019-11-14 05:23:05,1a7d1404-8c82-4a14-b2ff-48b90448a408,A
2019-11-14 05:27:32,1a7d1404-8c82-4a14-b2ff-48b90448a408,S
2019-11-14 05:28:51,1a7d1404-8c82-4a14-b2ff-48b90448a408,A
2019-11-14 05:31:38,1a7d1404-8c82-4a14-b2ff-48b90448a408,S
2019-11-14 05:33:02,1a7d1404-8c82-4a14-b2ff-48b90448a408,A
2019-11-14 05:41:52,1a7d1404-8c82-4a14-b2ff-48b90448a408,S
2019-11-14 05:43:21,1a7d1404-8c82-4a14-b2ff-48b90448a408,A
2019-11-14 05:47:00,1a7d1404-8c82-4a14-b2ff-48b90448a408,S
2019-11-14 05:47:17,1a7d1404-8c82-4a14-b2ff-48b90448a408,A
2019-11-14 05:51:15,1a7d1404-8c82-4a14-b2ff-48b90448a408,S
2019-11-14 04:34:48,756874a5-8d96-4e3e-8fe4-3675813d870e,A
2019-11-14 04:49:31,756874a5-8d96-4e3e-8fe4-3675813d870e,S
2019-11-14 04:51:37,756874a5-8d96-4e3e-8fe4-3675813d870e,A
2019-11-14 05:00:43,756874a5-8d96-4e3e-8fe4-3675813d870e,S
2019-11-14 05:12:15,756874a5-8d96-4e3e-8fe4-3675813d870e,A
2019-11-14 05:18:28,756874a5-8d96-4e3e-8fe4-3675813d870e,S
2019-11-14 05:25:09,756874a5-8d96-4e3e-8fe4-3675813d870e,A
2019-11-14 05:25:32,756874a5-8d96-4e3e-8fe4-3675813d870e,S
2019-11-14 05:26:39,756874a5-8d96-4e3e-8fe4-3675813d870e,A
2019-11-14 05:30:58,756874a5-8d96-4e3e-8fe4-3675813d870e,S
2019-11-14 05:31:30,756874a5-8d96-4e3e-8fe4-3675813d870e,A
2019-11-14 05:38:09,756874a5-8d96-4e3e-8fe4-3675813d870e,S
2019-11-14 05:40:53,756874a5-8d96-4e3e-8fe4-3675813d870e,A
2019-11-14 05:42:39,756874a5-8d96-4e3e-8fe4-3675813d870e,S
2019-11-14 05:46:26,756874a5-8d96-4e3e-8fe4-3675813d870e,A
2019-11-14 05:52:42,756874a5-8d96-4e3e-8fe4-3675813d870e,S
2019-11-14 05:52:55,756874a5-8d96-4e3e-8fe4-3675813d870e,A
2019-11-14 05:55:31,756874a5-8d96-4e3e-8fe4-3675813d870e,S
2019-11-14 04:33:58,f746154d-b696-4157-b9c7-9b4b3c78d457,S
2019-11-14 04:35:54,f746154d-b696-4157-b9c7-9b4b3c78d457,A
2019-11-14 04:36:23,f746154d-b696-4157-b9c7-9b4b3c78d457,S
2019-11-14 04:44:41,f746154d-b696-4157-b9c7-9b4b3c78d457,A
2019-11-14 04:47:33,f746154d-b696-4157-b9c7-9b4b3c78d457,S
2019-11-14 04:53:54,f746154d-b696-4157-b9c7-9b4b3c78d457,A
2019-11-14 04:58:30,f746154d-b696-4157-b9c7-9b4b3c78d457,S
2019-11-14 04:59:43,f746154d-b696-4157-b9c7-9b4b3c78d457,A
2019-11-14 05:08:27,f746154d-b696-4157-b9c7-9b4b3c78d457,S
2019-11-14 05:10:01,f746154d-b696-4157-b9c7-9b4b3c78d457,A
2019-11-14 05:18:03,f746154d-b696-4157-b9c7-9b4b3c78d457,S
2019-11-14 05:18:16,f746154d-b696-4157-b9c7-9b4b3c78d457,A
2019-11-14 05:24:51,f746154d-b696-4157-b9c7-9b4b3c78d457,S
2019-11-14 05:29:45,f746154d-b696-4157-b9c7-9b4b3c78d457,A
2019-11-14 05:30:40,f746154d-b696-4157-b9c7-9b4b3c78d457,S
2019-11-14 05:32:37,f746154d-b696-4157-b9c7-9b4b3c78d457,A
2019-11-14 05:32:38,f746154d-b696-4157-b9c7-9b4b3c78d457,S
2019-11-14 05:33:58,f746154d-b696-4157-b9c7-9b4b3c78d457,A
2019-11-14 05:36:45,f746154d-b696-4157-b9c7-9b4b3c78d457,S
2019-11-14 05:44:11,f746154d-b696-4157-b9c7-9b4b3c78d457,A
2019-11-14 05:45:44,f746154d-b696-4157-b9c7-9b4b3c78d457,S
2019-11-14 05:46:20,f746154d-b696-4157-b9c7-9b4b3c78d457,A
2019-11-14 05:53:22,f746154d-b696-4157-b9c7-9b4b3c78d457,S
2019-11-14 05:56:51,f746154d-b696-4157-b9c7-9b4b3c78d457,A
2019-11-14 04:23:09,987b7c70-c357-4505-a374-8ebe7ad90973,S
2019-11-14 04:23:14,987b7c70-c357-4505-a374-8ebe7ad90973,A
2019-11-14 04:30:24,987b7c70-c357-4505-a374-8ebe7ad90973,S
2019-11-14 04:41:54,987b7c70-c357-4505-a374-8ebe7ad90973,A
2019-11-14 04:43:30,987b7c70-c357-4505-a374-8ebe7ad90973,S
2019-11-14 04:46:38,987b7c70-c357-4505-a374-8ebe7ad90973,A
2019-11-14 04:46:54,987b7c70-c357-4505-a374-8ebe7ad90973,S
2019-11-14 05:04:53,987b7c70-c357-4505-a374-8ebe7ad90973,A
2019-11-14 05:07:17,987b7c70-c357-4505-a374-8ebe7ad90973,S
2019-11-14 05:19:39,987b7c70-c357-4505-a374-8ebe7ad90973,A
2019-11-14 05:31:46,987b7c70-c357-4505-a374-8ebe7ad90973,S
2019-11-14 05:37:18,987b7c70-c357-4505-a374-8ebe7ad90973,A
2019-11-14 05:37:44,987b7c70-c357-4505-a374-8ebe7ad90973,S
2019-11-14 05:39:59,987b7c70-c357-4505-a374-8ebe7ad90973,A
2019-11-14 05:43:39,987b7c70-c357-4505-a374-8ebe7ad90973,S
2019-11-14 05:46:58,987b7c70-c357-4505-a374-8ebe7ad90973,A
2019-11-14 05:51:29,987b7c70-c357-4505-a374-8ebe7ad90973,S
2019-11-14 05:52:25,987b7c70-c357-4505-a374-8ebe7ad90973,A
2019-11-14 05:52:47,987b7c70-c357-4505-a374-8ebe7ad90973,S
2019-11-14 05:53:45,987b7c70-c357-4505-a374-8ebe7ad90973,A
2019-11-14 03:58:12,5ec2a498-0294-4e45-bdd8-af771946487c,S
2019-11-14 03:59:45,5ec2a498-0294-4e45-bdd8-af771946487c,A
2019-11-14 04:00:33,5ec2a498-0294-4e45-bdd8-af771946487c,S
2019-11-14 04:00:39,5ec2a498-0294-4e45-bdd8-af771946487c,A
2019-11-14 04:00:45,5ec2a498-0294-4e45-bdd8-af771946487c,S
2019-11-14 04:01:10,5ec2a498-0294-4e45-bdd8-af771946487c,A
2019-11-14 04:05:55,5ec2a498-0294-4e45-bdd8-af771946487c,S
2019-11-14 04:10:03,5ec2a498-0294-4e45-bdd8-af771946487c,A
2019-11-14 04:11:51,5ec2a498-0294-4e45-bdd8-af771946487c,S
2019-11-14 04:14:04,5ec2a498-0294-4e45-bdd8-af771946487c,A
2019-11-14 04:24:43,5ec2a498-0294-4e45-bdd8-af771946487c,S
2019-11-14 04:26:45,5ec2a498-0294-4e45-bdd8-af771946487c,A
2019-11-14 04:35:54,5ec2a498-0294-4e45-bdd8-af771946487c,S
2019-11-14 04:38:30,5ec2a498-0294-4e45-bdd8-af771946487c,A
2019-11-14 04:47:05,5ec2a498-0294-4e45-bdd8-af771946487c,S
2019-11-14 04:49:07,5ec2a498-0294-4e45-bdd8-af771946487c,A
2019-11-14 04:50:55,5ec2a498-0294-4e45-bdd8-af771946487c,S
2019-11-14 04:53:59,5ec2a498-0294-4e45-bdd8-af771946487c,A
2019-11-14 04:54:07,5ec2a498-0294-4e45-bdd8-af771946487c,S
2019-11-14 05:06:10,5ec2a498-0294-4e45-bdd8-af771946487c,A
2019-11-14 05:09:49,5ec2a498-0294-4e45-bdd8-af771946487c,S
2019-11-14 05:21:32,5ec2a498-0294-4e45-bdd8-af771946487c,A
2019-11-14 05:22:17,5ec2a498-0294-4e45-bdd8-af771946487c,S
2019-11-14 05:29:11,5ec2a498-0294-4e45-bdd8-af771946487c,A
2019-11-14 05:30:31,5ec2a498-0294-4e45-bdd8-af771946487c,S
2019-11-14 05:32:58,5ec2a498-0294-4e45-bdd8-af771946487c,A
2019-11-14 05:41:23,5ec2a498-0294-4e45-bdd8-af771946487c,S
2019-11-14 05:49:32,5ec2a498-0294-4e45-bdd8-af771946487c,A
2019-11-14 05:59:42,5ec2a498-0294-4e45-bdd8-af771946487c,S
2019-11-14 06:01:40,5ec2a498-0294-4e45-bdd8-af771946487c,A
2019-11-14 04:33:02,b25bd54c-b601-46d4-a077-f15965f51d68,A
2019-11-14 04:40:16,b25bd54c-b601-46d4-a077-f15965f51d68,S
2019-11-14 04:42:11,b25bd54c-b601-46d4-a077-f15965f51d68,A
2019-11-14 04:47:01,b25bd54c-b601-46d4-a077-f15965f51d68,S
2019-11-14 04:54:16,b25bd54c-b601-46d4-a077-f15965f51d68,A
2019-11-14 05:01:13,b25bd54c-b601-46d4-a077-f15965f51d68,S
2019-11-14 05:01:46,b25bd54c-b601-46d4-a077-f15965f51d68,A
2019-11-14 05:02:11,b25bd54c-b601-46d4-a077-f15965f51d68,S
2019-11-14 05:03:34,b25bd54c-b601-46d4-a077-f15965f51d68,A
2019-11-14 05:04:13,b25bd54c-b601-46d4-a077-f15965f51d68,S
2019-11-14 05:06:29,b25bd54c-b601-46d4-a077-f15965f51d68,A
2019-11-14 05:12:51,b25bd54c-b601-46d4-a077-f15965f51d68,S
2019-11-14 05:14:14,b25bd54c-b601-46d4-a077-f15965f51d68,A
2019-11-14 05:16:56,b25bd54c-b601-46d4-a077-f15965f51d68,S
2019-11-14 05:17:31,b25bd54c-b601-46d4-a077-f15965f51d68,A
2019-11-14 05:18:50,b25bd54c-b601-46d4-a077-f15965f51d68,S
2019-11-14 05:38:12,b25bd54c-b601-46d4-a077-f15965f51d68,A
2019-11-14 05:56:12,b25bd54c-b601-46d4-a077-f15965f51d68,S
2019-11-14 05:57:16,b25bd54c-b601-46d4-a077-f15965f51d68,A
2019-11-14 04:22:02,65d057c4-e3a3-4d4f-b140-1c41f117ab14,S
2019-11-14 04:26:20,65d057c4-e3a3-4d4f-b140-1c41f117ab14,A
2019-11-14 04:40:03,65d057c4-e3a3-4d4f-b140-1c41f117ab14,S
2019-11-14 04:40:26,65d057c4-e3a3-4d4f-b140-1c41f117ab14,A
2019-11-14 04:45:03,65d057c4-e3a3-4d4f-b140-1c41f117ab14,S
2019-11-14 04:48:21,65d057c4-e3a3-4d4f-b140-1c41f117ab14,A
2019-11-14 04:51:27,65d057c4-e3a3-4d4f-b140-1c41f117ab14,S
2019-11-14 04:56:00,65d057c4-e3a3-4d4f-b140-1c41f117ab14,A
2019-11-14 04:59:13,65d057c4-e3a3-4d4f-b140-1c41f117ab14,S
2019-11-14 05:02:50,65d057c4-e3a3-4d4f-b140-1c41f117ab14,A
2019-11-14 05:18:41,65d057c4-e3a3-4d4f-b140-1c41f117ab14,S
2019-11-14 05:22:58,65d057c4-e3a3-4d4f-b140-1c41f117ab14,A
2019-11-14 05:23:19,65d057c4-e3a3-4d4f-b140-1c41f117ab14,S
2019-11-14 05:28:26,65d057c4-e3a3-4d4f-b140-1c41f117ab14,A
2019-11-14 05:35:45,65d057c4-e3a3-4d4f-b140-1c41f117ab14,S
2019-11-14 05:48:51,65d057c4-e3a3-4d4f-b140-1c41f117ab14,A
2019-11-14 05:49:53,65d057c4-e3a3-4d4f-b140-1c41f117ab14,S
2019-11-14 04:06:10,f56148c9-b04c-4bd9-8f34-506a194308ac,S
2019-11-14 04:12:22,f56148c9-b04c-4bd9-8f34-506a194308ac,A
2019-11-14 04:16:46,f56148c9-b04c-4bd9-8f34-506a194308ac,S
2019-11-14 04:27:18,f56148c9-b04c-4bd9-8f34-506a194308ac,A
2019-11-14 04:27:37,f56148c9-b04c-4bd9-8f34-506a194308ac,S
2019-11-14 04:33:06,f56148c9-b04c-4bd9-8f34-506a194308ac,A
2019-11-14 04:33:41,f56148c9-b04c-4bd9-8f34-506a194308ac,S
2019-11-14 04:34:18,f56148c9-b04c-4bd9-8f34-506a194308ac,A
2019-11-14 04:36:50,f56148c9-b04c-4bd9-8f34-506a194308ac,S
2019-11-14 04:37:10,f56148c9-b04c-4bd9-8f34-506a194308ac,A
2019-11-14 04:38:01,f56148c9-b04c-4bd9-8f34-506a194308ac,S
2019-11-14 04:53:34,f56148c9-b04c-4bd9-8f34-506a194308ac,A
2019-11-14 04:54:53,f56148c9-b04c-4bd9-8f34-506a194308ac,S
2019-11-14 04:58:01,f56148c9-b04c-4bd9-8f34-506a194308ac,A
2019-11-14 05:09:55,f56148c9-b04c-4bd9-8f34-506a194308ac,S
2019-11-14 05:11:22,f56148c9-b04c-4bd9-8f34-506a194308ac,A
2019-11-14 05:12:31,f56148c9-b04c-4bd9-8f34-506a194308ac,S
2019-11-14 05:13:22,f56148c9-b04c-4bd9-8f34-506a194308ac,A
2019-11-14 05:13:45,f56148c9-b04c-4bd9-8f34-506a194308ac,S
2019-11-14 05:20:15,f56148c9-b04c-4bd9-8f34-506a194308ac,A
2019-11-14 05:50:54,f56148c9-b04c-4bd9-8f34-506a194308ac,S
2019-11-14 05:54:40,f56148c9-b04c-4bd9-8f34-506a194308ac,A
2019-11-14 03:57:55,5d8b5f02-0acd-4c67-b570-6dbb5db43ff9,A
2019-11-14 04:01:23,5d8b5f02-0acd-4c67-b570-6dbb5db43ff9,S
2019-11-14 04:09:56,5d8b5f02-0acd-4c67-b570-6dbb5db43ff9,A
2019-11-14 04:12:59,5d8b5f02-0acd-4c67-b570-6dbb5db43ff9,S
2019-11-14 04:13:16,5d8b5f02-0acd-4c67-b570-6dbb5db43ff9,A
2019-11-14 04:15:44,5d8b5f02-0acd-4c67-b570-6dbb5db43ff9,S
2019-11-14 04:21:04,5d8b5f02-0acd-4c67-b570-6dbb5db43ff9,A
2019-11-14 04:24:59,5d8b5f02-0acd-4c67-b570-6dbb5db43ff9,S
2019-11-14 04:27:44,5d8b5f02-0acd-4c67-b570-6dbb5db43ff9,A
2019-11-14 04:38:32,5d8b5f02-0acd-4c67-b570-6dbb5db43ff9,S
2019-11-14 04:44:10,5d8b5f02-0acd-4c67-b570-6dbb5db43ff9,A
2019-11-14 05:06:44,5d8b5f02-0acd-4c67-b570-6dbb5db43ff9,S
2019-11-14 05:31:05,5d8b5f02-0acd-4c67-b570-6dbb5db43ff9,A
2019-11-14 05:37:39,5d8b5f02-0acd-4c67-b570-6dbb5db43ff9,S
2019-11-14 05:41:05,5d8b5f02-0acd-4c67-b570-6dbb5db43ff9,A
2019-11-14 05:44:00,5d8b5f02-0acd-4c67-b570-6dbb5db43ff9,S
2019-11-14 05:48:44,5d8b5f02-0acd-4c67-b570-6dbb5db43ff9,A
2019-11-14 06:01:48,5d8b5f02-0acd-4c67-b570-6dbb5db43ff9,S
2019-11-14 06:03:21,5d8b5f02-0acd-4c67-b570-6dbb5db43ff9,A
2019-11-14 04:03:39,c440a7cc-b70a-46db-9432-6d844d7ee67c,S
2019-11-14 04:07:06,c440a7cc-b70a-46db-9432-6d844d7ee67c,A
2019-11-14 04:13:09,c440a7cc-b70a-46db-9432-6d844d7ee67c,S
2019-11-14 04:23:05,c440a7cc-b70a-46db-9432-6d844d7ee67c,A
2019-11-14 04:43:14,c440a7cc-b70a-46db-9432-6d844d7ee67c,S
2019-11-14 04:49:09,c440a7cc-b70a-46db-9432-6d844d7ee67c,A
2019-11-14 04:59:58,c440a7cc-b70a-46db-9432-6d844d7ee67c,S
2019-11-14 05:05:24,c440a7cc-b70a-46db-9432-6d844d7ee67c,A
2019-11-14 05:09:40,c440a7cc-b70a-46db-9432-6d844d7ee67c,S
2019-11-14 05:15:14,c440a7cc-b70a-46db-9432-6d844d7ee67c,A
2019-11-14 05:15:26,c440a7cc-b70a-46db-9432-6d844d7ee67c,S
2019-11-14 05:17:09,c440a7cc-b70a-46db-9432-6d844d7ee67c,A
2019-11-14 05:23:04,c440a7cc-b70a-46db-9432-6d844d7ee67c,S
2019-11-14 05:24:47,c440a7cc-b70a-46db-9432-6d844d7ee67c,A
2019-11-14 05:29:18,c440a7cc-b70a-46db-9432-6d844d7ee67c,S
2019-11-14 05:32:52,c440a7cc-b70a-46db-9432-6d844d7ee67c,A
2019-11-14 05:38:11,c440a7cc-b70a-46db-9432-6d844d7ee67c,S
2019-11-14 05:45:55,c440a7cc-b70a-46db-9432-6d844d7ee67c,A
2019-11-14 04:31:19,a94a771b-3542-4e37-8899-bcf5247c3a54,S
2019-11-14 04:33:14,a94a771b-3542-4e37-8899-bcf5247c3a54,A
2019-11-14 04:36:23,a94a771b-3542-4e37-8899-bcf5247c3a54,S
2019-11-14 04:36:52,a94a771b-3542-4e37-8899-bcf5247c3a54,A
2019-11-14 04:40:01,a94a771b-3542-4e37-8899-bcf5247c3a54,S
2019-11-14 04:42:01,a94a771b-3542-4e37-8899-bcf5247c3a54,A
2019-11-14 04:46:17,a94a771b-3542-4e37-8899-bcf5247c3a54,S
2019-11-14 04:47:14,a94a771b-3542-4e37-8899-bcf5247c3a54,A
2019-11-14 04:48:04,a94a771b-3542-4e37-8899-bcf5247c3a54,S
2019-11-14 04:55:31,a94a771b-3542-4e37-8899-bcf5247c3a54,A
2019-11-14 04:57:44,a94a771b-3542-4e37-8899-bcf5247c3a54,S
2019-11-14 05:01:15,a94a771b-3542-4e37-8899-bcf5247c3a54,A
2019-11-14 05:09:32,a94a771b-3542-4e37-8899-bcf5247c3a54,S
2019-11-14 05:16:56,a94a771b-3542-4e37-8899-bcf5247c3a54,A
2019-11-14 05:18:58,a94a771b-3542-4e37-8899-bcf5247c3a54,S
2019-11-14 05:21:43,a94a771b-3542-4e37-8899-bcf5247c3a54,A
2019-11-14 05:22:48,a94a771b-3542-4e37-8899-bcf5247c3a54,S
2019-11-14 05:24:06,a94a771b-3542-4e37-8899-bcf5247c3a54,A
2019-11-14 05:25:38,a94a771b-3542-4e37-8899-bcf5247c3a54,S
2019-11-14 05:33:46,a94a771b-3542-4e37-8899-bcf5247c3a54,A
2019-11-14 05:33:56,a94a771b-3542-4e37-8899-bcf5247c3a54,S
2019-11-14 05:34:07,a94a771b-3542-4e37-8899-bcf5247c3a54,A
2019-11-14 05:37:58,a94a771b-3542-4e37-8899-bcf5247c3a54,S
2019-11-14 05:40:22,a94a771b-3542-4e37-8899-bcf5247c3a54,A
2019-11-14 05:41:06,a94a771b-3542-4e37-8899-bcf5247c3a54,S
2019-11-14 05:42:24,a94a771b-3542-4e37-8899-bcf5247c3a54,A
2019-11-14 05:43:18,a94a771b-3542-4e37-8899-bcf5247c3a54,S
2019-11-14 05:51:41,a94a771b-3542-4e37-8899-bcf5247c3a54,A
2019-11-14 05:52:54,a94a771b-3542-4e37-8899-bcf5247c3a54,S
2019-11-14 06:01:52,a94a771b-3542-4e37-8899-bcf5247c3a54,A
2019-11-14 04:21:57,aae30bfa-5834-4636-ba9b-b39ef532c2a2,A
2019-11-14 04:40:50,aae30bfa-5834-4636-ba9b-b39ef532c2a2,S
2019-11-14 04:41:12,aae30bfa-5834-4636-ba9b-b39ef532c2a2,A
2019-11-14 04:43:56,aae30bfa-5834-4636-ba9b-b39ef532c2a2,S
2019-11-14 04:47:56,aae30bfa-5834-4636-ba9b-b39ef532c2a2,A
2019-11-14 04:48:26,aae30bfa-5834-4636-ba9b-b39ef532c2a2,S
2019-11-14 04:51:27,aae30bfa-5834-4636-ba9b-b39ef532c2a2,A
2019-11-14 04:53:06,aae30bfa-5834-4636-ba9b-b39ef532c2a2,S
2019-11-14 05:07:35,aae30bfa-5834-4636-ba9b-b39ef532c2a2,A
2019-11-14 05:09:11,aae30bfa-5834-4636-ba9b-b39ef532c2a2,S
2019-11-14 05:09:17,aae30bfa-5834-4636-ba9b-b39ef532c2a2,A
2019-11-14 05:11:37,aae30bfa-5834-4636-ba9b-b39ef532c2a2,S
2019-11-14 05:11:45,aae30bfa-5834-4636-ba9b-b39ef532c2a2,A
2019-11-14 05:13:47,aae30bfa-5834-4636-ba9b-b39ef532c2a2,S
2019-11-14 05:17:48,aae30bfa-5834-4636-ba9b-b39ef532c2a2,A
2019-11-14 05:28:31,aae30bfa-5834-4636-ba9b-b39ef532c2a2,S
2019-11-14 05:34:15,aae30bfa-5834-4636-ba9b-b39ef532c2a2,A
2019-11-14 05:36:29,aae30bfa-5834-4636-ba9b-b39ef532c2a2,S
2019-11-14 05:39:55,aae30bfa-5834-4636-ba9b-b39ef532c2a2,A
2019-11-14 05:43:28,aae30bfa-5834-4636-ba9b-b39ef532c2a2,S
2019-11-14 06:01:13,aae30bfa-5834-4636-ba9b-b39ef532c2a2,A
2019-11-14 04:25:46,5e0d55e6-c4a5-4768-aa2a-e7b52a503872,S
2019-11-14 04:26:28,5e0d55e6-c4a5-4768-aa2a-e7b52a503872,A
2019-11-14 04:42:08,5e0d55e6-c4a5-4768-aa2a-e7b52a503872,S
2019-11-14 04:49:23,5e0d55e6-c4a5-4768-aa2a-e7b52a503872,A
2019-11-14 04:49:45,5e0d55e6-c4a5-4768-aa2a-e7b52a503872,S
2019-11-14 04:50:14,5e0d55e6-c4a5-4768-aa2a-e7b52a503872,A
2019-11-14 04:51:21,5e0d55e6-c4a5-4768-aa2a-e7b52a503872,S
2019-11-14 04:59:09,5e0d55e6-c4a5-4768-aa2a-e7b52a503872,A
2019-11-14 05:01:38,5e0d55e6-c4a5-4768-aa2a-e7b52a503872,S
2019-11-14 05:02:37,5e0d55e6-c4a5-4768-aa2a-e7b52a503872,A
2019-11-14 05:07:35,5e0d55e6-c4a5-4768-aa2a-e7b52a503872,S
2019-11-14 05:11:01,5e0d55e6-c4a5-4768-aa2a-e7b52a503872,A
2019-11-14 05:18:44,5e0d55e6-c4a5-4768-aa2a-e7b52a503872,S
2019-11-14 05:22:16,5e0d55e6-c4a5-4768-aa2a-e7b52a503872,A
2019-11-14 05:23:20,5e0d55e6-c4a5-4768-aa2a-e7b52a503872,S
2019-11-14 05:24:38,5e0d55e6-c4a5-4768-aa2a-e7b52a503872,A
2019-11-14 05:33:47,5e0d55e6-c4a5-4768-aa2a-e7b52a503872,S
2019-11-14 05:34:54,5e0d55e6-c4a5-4768-aa2a-e7b52a503872,A
2019-11-14 05:37:32,5e0d55e6-c4a5-4768-aa2a-e7b52a503872,S
2019-11-14 05:39:38,5e0d55e6-c4a5-4768-aa2a-e7b52a503872,A
2019-11-14 05:48:11,5e0d55e6-c4a5-4768-aa2a-e7b52a503872,S
2019-11-14 05:50:24,5e0d55e6-c4a5-4768-aa2a-e7b52a503872,A
2019-11-14 05:55:22,5e0d55e6-c4a5-4768-aa2a-e7b52a503872,S
2019-11-14 05:58:49,5e0d55e6-c4a5-4768-aa2a-e7b52a503872,A
2019-11-14 05:59:24,5e0d55e6-c4a5-4768-aa2a-e7b52a503872,S
2019-11-14 06:00:56,5e0d55e6-c4a5-4768-aa2a-e7b52a503872,A
2019-11-14 04:04:19,ca5cad77-b6ce-44e7-a249-aa80e5525c61,S
2019-11-14 04:20:27,ca5cad77-b6ce-44e7-a249-aa80e5525c61,A
2019-11-14 04:21:39,ca5cad77-b6ce-44e7-a249-aa80e5525c61,S
2019-11-14 04:26:28,ca5cad77-b6ce-44e7-a249-aa80e5525c61,A
2019-11-14 04:27:34,ca5cad77-b6ce-44e7-a249-aa80e5525c61,S
2019-11-14 04:30:21,ca5cad77-b6ce-44e7-a249-aa80e5525c61,A
2019-11-14 04:35:33,ca5cad77-b6ce-44e7-a249-aa80e5525c61,S
2019-11-14 04:37:43,ca5cad77-b6ce-44e7-a249-aa80e5525c61,A
2019-11-14 04:41:12,ca5cad77-b6ce-44e7-a249-aa80e5525c61,S
2019-11-14 04:46:47,ca5cad77-b6ce-44e7-a249-aa80e5525c61,A
2019-11-14 04:57:18,ca5cad77-b6ce-44e7-a249-aa80e5525c61,S
2019-11-14 05:02:59,ca5cad77-b6ce-44e7-a249-aa80e5525c61,A
2019-11-14 05:04:57,ca5cad77-b6ce-44e7-a249-aa80e5525c61,S
2019-11-14 05:06:58,ca5cad77-b6ce-44e7-a249-aa80e5525c61,A
2019-11-14 05:15:15,ca5cad77-b6ce-44e7-a249-aa80e5525c61,S
2019-11-14 05:17:25,ca5cad77-b6ce-44e7-a249-aa80e5525c61,A
2019-11-14 05:22:20,ca5cad77-b6ce-44e7-a249-aa80e5525c61,S
2019-11-14 05:25:18,ca5cad77-b6ce-44e7-a249-aa80e5525c61,A
2019-11-14 05:26:26,ca5cad77-b6ce-44e7-a249-aa80e5525c61,S
2019-11-14 05:31:21,ca5cad77-b6ce-44e7-a249-aa80e5525c61,A
2019-11-14 05:34:13,ca5cad77-b6ce-44e7-a249-aa80e5525c61,S
2019-11-14 05:38:03,ca5cad77-b6ce-44e7-a249-aa80e5525c61,A
2019-11-14 05:40:23,ca5cad77-b6ce-44e7-a249-aa80e5525c61,S
2019-11-14 05:44:09,ca5cad77-b6ce-44e7-a249-aa80e5525c61,A
2019-11-14 05:49:34,ca5cad77-b6ce-44e7-a249-aa80e5525c61,S
2019-11-14 05:50:41,ca5cad77-b6ce-44e7-a249-aa80e5525c61,A
2019-11-14 05:56:26,ca5cad77-b6ce-44e7-a249-aa80e5525c61,S
2019-11-14 05:57:23,ca5cad77-b6ce-44e7-a249-aa80e5525c61,A
2019-11-14 05:58:53,ca5cad77-b6ce-44e7-a249-aa80e5525c61,S
2019-11-14 05:59:25,ca5cad77-b6ce-44e7-a249-aa80e5525c61,A
2019-11-14 06:02:44,ca5cad77-b6ce-44e7-a249-aa80e5525c61,S
2019-11-14 06:04:13,ca5cad77-b6ce-44e7-a249-aa80e5525c61,A
2019-11-14 04:17:04,ecef0684-f735-4c22-94fb-b644f6bad69b,S
2019-11-14 04:26:06,ecef0684-f735-4c22-94fb-b644f6bad69b,A
2019-11-14 04:31:18,ecef0684-f735-4c22-94fb-b644f6bad69b,S
2019-11-14 04:44:04,ecef0684-f735-4c22-94fb-b644f6bad69b,A
2019-11-14 04:45:03,ecef0684-f735-4c22-94fb-b644f6bad69b,S
2019-11-14 04:56:16,ecef0684-f735-4c22-94fb-b644f6bad69b,A
2019-11-14 04:56:29,ecef0684-f735-4c22-94fb-b644f6bad69b,S
2019-11-14 04:59:56,ecef0684-f735-4c22-94fb-b644f6bad69b,A
2019-11-14 05:11:00,ecef0684-f735-4c22-94fb-b644f6bad69b,S
2019-11-14 05:14:01,ecef0684-f735-4c22-94fb-b644f6bad69b,A
2019-11-14 05:20:37,ecef0684-f735-4c22-94fb-b644f6bad69b,S
2019-11-14 05:22:33,ecef0684-f735-4c22-94fb-b644f6bad69b,A
2019-11-14 05:29:58,ecef0684-f735-4c22-94fb-b644f6bad69b,S
2019-11-14 05:34:04,ecef0684-f735-4c22-94fb-b644f6bad69b,A
2019-11-14 05:34:46,ecef0684-f735-4c22-94fb-b644f6bad69b,S
2019-11-14 05:35:08,ecef0684-f735-4c22-94fb-b644f6bad69b,A
2019-11-14 05:38:31,ecef0684-f735-4c22-94fb-b644f6bad69b,S
2019-11-14 05:41:36,ecef0684-f735-4c22-94fb-b644f6bad69b,A
2019-11-14 05:54:46,ecef0684-f735-4c22-94fb-b644f6bad69b,S
2019-11-14 05:58:56,ecef0684-f735-4c22-94fb-b644f6bad69b,A
2019-11-14 05:59:03,ecef0684-f735-4c22-94fb-b644f6bad69b,S
2019-11-14 04:28:35,3573aa53-fe35-4d40-a227-1762d85f0b67,A
2019-11-14 04:32:04,3573aa53-fe35-4d40-a227-1762d85f0b67,S
2019-11-14 04:34:20,3573aa53-fe35-4d40-a227-1762d85f0b67,A
2019-11-14 04:36:22,3573aa53-fe35-4d40-a227-1762d85f0b67,S
2019-11-14 04:36:56,3573aa53-fe35-4d40-a227-1762d85f0b67,A
2019-11-14 04:39:31,3573aa53-fe35-4d40-a227-1762d85f0b67,S
2019-11-14 04:46:23,3573aa53-fe35-4d40-a227-1762d85f0b67,A
2019-11-14 04:47:51,3573aa53-fe35-4d40-a227-1762d85f0b67,S
2019-11-14 04:58:06,3573aa53-fe35-4d40-a227-1762d85f0b67,A
2019-11-14 05:37:11,3573aa53-fe35-4d40-a227-1762d85f0b67,S
2019-11-14 05:47:06,3573aa53-fe35-4d40-a227-1762d85f0b67,A
2019-11-14 05:47:09,3573aa53-fe35-4d40-a227-1762d85f0b67,S
2019-11-14 05:47:52,3573aa53-fe35-4d40-a227-1762d85f0b67,A
2019-11-14 05:50:55,3573aa53-fe35-4d40-a227-1762d85f0b67,S
2019-11-14 05:52:17,3573aa53-fe35-4d40-a227-1762d85f0b67,A
2019-11-14 05:53:38,3573aa53-fe35-4d40-a227-1762d85f0b67,S
2019-11-14 05:57:48,3573aa53-fe35-4d40-a227-1762d85f0b67,A
2019-11-14 05:59:22,3573aa53-fe35-4d40-a227-1762d85f0b67,S
2019-11-14 05:59:27,3573aa53-fe35-4d40-a227-1762d85f0b67,A
2019-11-14 04:28:24,671dfd27-fd66-4ae2-808c-1e190a74e776,A
2019-11-14 04:29:03,671dfd27-fd66-4ae2-808c-1e190a74e776,S
2019-11-14 04:30:39,671dfd27-fd66-4ae2-808c-1e190a74e776,A
2019-11-14 04:44:52,671dfd27-fd66-4ae2-808c-1e190a74e776,S
2019-11-14 04:46:59,671dfd27-fd66-4ae2-808c-1e190a74e776,A
2019-11-14 04:49:25,671dfd27-fd66-4ae2-808c-1e190a74e776,S
2019-11-14 04:57:03,671dfd27-fd66-4ae2-808c-1e190a74e776,A
2019-11-14 05:00:43,671dfd27-fd66-4ae2-808c-1e190a74e776,S
2019-11-14 05:04:05,671dfd27-fd66-4ae2-808c-1e190a74e776,A
2019-11-14 05:14:55,671dfd27-fd66-4ae2-808c-1e190a74e776,S
2019-11-14 05:14:59,671dfd27-fd66-4ae2-808c-1e190a74e776,A
2019-11-14 05:24:30,671dfd27-fd66-4ae2-808c-1e190a74e776,S
2019-11-14 05:44:58,671dfd27-fd66-4ae2-808c-1e190a74e776,A
2019-11-14 05:52:13,671dfd27-fd66-4ae2-808c-1e190a74e776,S
2019-11-14 05:56:12,671dfd27-fd66-4ae2-808c-1e190a74e776,A
2019-11-14 04:14:14,f5f6e4b2-1a76-4d52-bf44-8c72cb6da3b7,A
2019-11-14 04:22:03,f5f6e4b2-1a76-4d52-bf44-8c72cb6da3b7,S
2019-11-14 04:23:34,f5f6e4b2-1a76-4d52-bf44-8c72cb6da3b7,A
2019-11-14 04:26:12,f5f6e4b2-1a76-4d52-bf44-8c72cb6da3b7,S
2019-11-14 04:30:52,f5f6e4b2-1a76-4d52-bf44-8c72cb6da3b7,A
2019-11-14 04:45:34,f5f6e4b2-1a76-4d52-bf44-8c72cb6da3b7,S
2019-11-14 04:46:09,f5f6e4b2-1a76-4d52-bf44-8c72cb6da3b7,A
2019-11-14 04:51:40,f5f6e4b2-1a76-4d52-bf44-8c72cb6da3b7,S
2019-11-14 04:58:52,f5f6e4b2-1a76-4d52-bf44-8c72cb6da3b7,A
2019-11-14 04:59:28,f5f6e4b2-1a76-4d52-bf44-8c72cb6da3b7,S
2019-11-14 05:11:18,f5f6e4b2-1a76-4d52-bf44-8c72cb6da3b7,A
2019-11-14 05:14:26,f5f6e4b2-1a76-4d52-bf44-8c72cb6da3b7,S
2019-11-14 05:26:16,f5f6e4b2-1a76-4d52-bf44-8c72cb6da3b7,A
2019-11-14 05:38:13,f5f6e4b2-1a76-4d52-bf44-8c72cb6da3b7,S
2019-11-14 05:43:05,f5f6e4b2-1a76-4d52-bf44-8c72cb6da3b7,A
2019-11-14 05:43:38,f5f6e4b2-1a76-4d52-bf44-8c72cb6da3b7,S
2019-11-14 05:43:56,f5f6e4b2-1a76-4d52-bf44-8c72cb6da3b7,A
2019-11-14 05:44:06,f5f6e4b2-1a76-4d52-bf44-8c72cb6da3b7,S
2019-11-14 05:45:17,f5f6e4b2-1a76-4d52-bf44-8c72cb6da3b7,A
2019-11-14 05:48:58,f5f6e4b2-1a76-4d52-bf44-8c72cb6da3b7,S
2019-11-14 05:57:50,f5f6e4b2-1a76-4d52-bf44-8c72cb6da3b7,A
2019-11-14 06:02:02,f5f6e4b2-1a76-4d52-bf44-8c72cb6da3b7,S
