app_number,app_id,trigger,burn,sink,deploy_date,token_interval
1,a2408e8e-37eb-4037-88d4-3c117022219f,470f38e9-8009-4573-8bd4-1719f1010acb,b3ed9481-90bd-4ae2-a46e-2e4072a11610,11454b3f-e1fe-4088-81e0-e25e061e97b2,2020-02-20 20:55:29,1.000000
2,5c75ab91-3371-4efd-a78d-03e873225c52,ebc82297-106b-4ba8-99db-02d7bb0cd5a6,36385c17-36d4-4e28-a38b-2565dc774acd,ca4ee905-a405-4dc0-9b01-cae097cc4eb1,2020-02-20 20:56:33,1.000000
3,5c25c826-0b3f-4675-b6d0-4555dc94fc59,437a8c77-d39c-4115-825b-e5efdf8c8aa2,cfdaa6ff-430b-41ba-85e3-c0819eee325f,ccda8bdc-61b0-43f7-ac6f-f800fb464b9c,2020-02-20 20:57:36,1.000000
4,a4b312ad-2e9b-4f48-9d5b-810d4f6a4ffe,0ba274ae-743f-4715-8d30-bfeda4d1aad8,23ef1c38-9cb9-491d-bbc8-ce115bb43fd7,c4c294a0-6ca3-4f8b-b1dd-1dda805029a0,2020-02-20 20:58:39,0.200000
5,3f8ad568-ec4d-48c7-bc54-15e133342493,cc5f7cf8-8be6-4000-b770-a3e38ea8ed18,8d4d3592-77be-40ef-bc7c-77430bb70d65,b934fabf-d797-4138-8ddd-88a4d660ab51,2020-02-20 20:59:42,0.200000
6,2ec797b4-81a1-40d3-af92-e52fefd7c230,9a300065-930a-4e91-82ae-3b86c9748175,5010d01e-6b70-4d56-b938-e19d37da6ecb,277e0f17-bbf6-423f-9c91-ebbff4c38ca0,2020-02-20 21:00:45,0.200000
7,e8d5395d-0e92-482d-9e3c-2beab9cee3f5,ad84698d-731c-47c2-9e83-9ca443b65185,4cac01f0-fa3f-420b-af79-9c5f7ebf0dd4,69dc79d0-e1e1-40ea-80ae-a8a87533d96b,2020-02-20 21:01:48,0.200000
8,af6d78c6-3317-45dd-9a37-c022b3427edb,6deb4fe1-dd69-4c3e-baf8-dda9cbc8ee8b,a93a68bb-a518-45cc-900c-f91b247fbecc,25499fa1-2fc1-47d3-9d7c-178d185553e8,2020-02-20 21:02:52,1.000000
9,851e5be5-0af4-4b52-b568-4edab10cce04,df7125ea-7f0c-455e-bfa6-22f89f5bde2d,a7e0259a-8a8e-42b6-9c78-2eb0eb4ef23e,6897bddc-1d7d-4cd2-abd6-db98d1a19d4d,2020-02-20 21:03:55,0.200000
10,b18c090c-7d2f-47cf-934f-2d6868e56a7d,4cac1817-228b-4ef3-aed6-345e45c360c1,84da80f1-0a03-4e8c-ba2d-59b5554cdc95,07165089-9459-4495-b1ae-12bf723d7dac,2020-02-20 21:04:58,0.200000
11,d006bd15-1a6a-4722-845e-82b9c1115d2b,cd6c9f92-fb2c-4f0b-bd5c-3430483a31b1,fadf778a-8470-4011-9f48-6e2654167b28,f313874f-5874-4229-a31a-84191b312676,2020-02-20 21:06:02,0.200000
12,0a1e462e-aa2e-4e09-bac7-5c75ac771de7,268b6af3-fc3b-4794-b99c-2de0da8eaad6,ab2b4da6-edba-4ad7-9f9d-b4a6753b15bb,77f49e04-9f92-41c3-a62e-08868107ecc5,2020-02-20 21:07:05,1.000000
13,415730ea-6984-4bce-87a4-c29f85ed976e,b4cfd5df-e936-4335-9a9c-6309eddc9685,637981c0-6ded-43a7-8f3b-953a0ea78ec4,1a755687-b611-4d09-9438-b3a73815ce68,2020-02-20 21:08:08,0.200000
14,f92576d0-bfe6-4d88-b022-21538a57397c,9453a5d3-e2cd-4cc6-be06-1719f72af695,0537ca74-de71-4553-a024-4bd81ce40a34,26da81bd-4134-422f-bcce-16e36689ea67,2020-02-20 21:09:11,0.200000
15,bee63971-3892-4195-ab12-36010983e731,fd1e10c2-962e-40a7-a01a-560b940ddbc1,96fe7c0e-63be-460a-ac2c-ec18658820da,6c41f5dc-5f4e-4817-b45c-910e7a1731a0,2020-02-20 21:10:14,1.000000
16,b8d250b3-ffe9-4fd0-8688-6c66080296bd,95c09387-3898-4e03-a0e1-4f0e424219be,17cab87a-effd-4617-a4e6-8ad8c1e0b980,ad22a1d0-5455-4a3d-8849-c88b87bac5ae,2020-02-20 21:11:17,1.000000
17,4617b384-320b-4a68-bbe6-07eb65ebb74a,921b271b-90a2-4ed5-94a3-bc04678a94eb,153acb0c-a57d-4dfc-918e-b76d8a28ef3a,32886399-0c4b-4690-b4bc-a51b261b5bb2,2020-02-20 21:12:20,0.200000
18,cff25fb5-ec03-473a-a4ce-45f0b026fe45,f81410e7-696d-47d1-a8c5-b259a8e847bd,aecc42a9-d5a1-4924-b66d-fc6acf9142c1,94d3763e-76b7-4d0d-9bca-b702bfa52b9a,2020-02-20 21:13:24,1.000000
19,bae8558c-30d4-4285-a435-16a46be4d253,bf217b15-62cb-417e-89d0-2f833f2767da,59e26a57-e2f3-4c36-8dd4-cc8528fe7f9a,b9d0393a-49a8-4913-bb96-1125c7723acd,2020-02-20 21:14:27,0.200000
20,3bbd6aa3-6b6d-4fb6-9efa-56c11b197b1f,208424fa-46bb-4d67-aec9-36cfaeab1c2a,f6b388ae-9e2f-40d7-a8f0-6692a3527c88,a3d1fcc4-0578-4e03-b18f-efd52d87e81a,2020-02-20 21:15:30,1.000000
21,e5075551-1447-4415-b5f0-3d53454d9e7e,dcbc16cd-0878-4e28-a655-0cb76833e5ba,e7097490-4e27-49fe-8a89-dc4e70505072,2af6c371-fb45-4b1f-8bf5-d91abbe83a24,2020-02-20 21:16:33,0.200000
22,911bc9f4-72ba-4126-9668-b5551bd6b0cc,f9796141-fbb1-4c21-93a5-bd11021d9468,882b9d16-7825-4874-b20b-9e5bb71a0352,c026bc16-283d-4dbf-8467-89d667c6fefb,2020-02-20 21:17:37,0.200000
23,08af27ae-3493-4ed2-8f2a-fe0a0143d472,aa85ed1c-0d0d-462d-aa40-585766aa6c13,e468e8ba-d44d-4ba0-967f-f0409101aad8,c79115ae-c4b5-4d62-ac8e-ebc80fcb1ef2,2020-02-20 21:18:39,0.200000
24,37916175-b918-47bc-add3-4e3e5f9eba85,ccd0a632-bcea-49df-b398-bab89297d25f,151bc59f-8e18-485a-90f9-6766452f872e,d1276c44-8977-481d-af5c-1bcbf6e2308a,2020-02-20 21:19:43,1.000000
25,230f8d9d-f9fd-4def-9d5b-96f756e20454,55126297-0720-4fe5-ac18-0c255a7802fa,03cb45b6-1fcc-4485-accb-1e5e7f8d6efa,14b794e4-bb5b-4e3f-970f-0f177d8eeb00,2020-02-20 21:20:46,1.000000
26,f700f74c-c4c1-480f-9777-28e3f76a9b19,11094049-fb5e-4a0b-aa3d-fae66579bfe7,9f0c78ee-b2f8-47c9-9266-2a018de2537f,cbea89a9-7e9a-474a-88e9-1874c895ca15,2020-02-20 21:21:50,1.000000
27,7a317788-4b58-47e6-a263-741919c47791,10bc6fe5-8a91-4cb5-af59-1daad33a6844,1f32f80e-0555-4a88-b4ed-06022581b529,b8707ba3-89f1-4163-9818-f0293b2bb0c6,2020-02-20 21:22:53,0.200000
28,aa50b68b-5836-4e1d-9c80-24b0d1cf7f52,70869f22-a054-4638-911b-46c7b084c0f8,6299fdbb-92ff-45f6-9bad-2eb45cd11a36,86f4236e-5d11-436c-98ff-09a70744c2b1,2020-02-20 21:23:57,1.000000
29,7a7d7169-07bf-4209-975f-a68ebfc7860f,95c6ce1d-bab3-429a-ab54-512ea6a14599,15125178-bafa-4bf4-896d-5735ae98b5ce,d33abc5b-5854-49e1-af42-0673e5be241b,2020-02-20 21:24:59,1.000000
30,9dfdc9e2-2a97-488d-8842-0cff397f2705,101b39de-91e4-492a-92b1-e83eacab8c08,32be0249-7298-4218-bfe1-af7ecce51395,3e12bce6-7203-43a1-bfce-ac5dafa361d7,2020-02-20 21:26:02,1.000000
31,040548a6-9bc8-457c-b66f-26e9acd5102b,8165f7fc-893a-4dff-b3e5-803dd79d728e,e3f32747-6fc0-4333-9c27-b5d141c96dc8,aa08b386-601d-4ba6-87f1-53d4bb93a487,2020-02-20 21:27:05,1.000000
32,3522aedc-ba53-4aa7-b324-cc3577dac333,07158318-30f8-43c7-aab1-1be21bd1aa1b,c6de7b0a-b8bd-4732-9957-30bc7a7d54eb,340f55a8-e36b-468c-b683-703c1401639f,2020-02-20 21:28:09,0.200000
33,000a1b77-0b03-473c-9fb5-96c661754ec1,3265ff7f-1895-4dd6-a452-20720c693c49,6d2f6840-bc14-432e-9e05-5be7f0fc8b9f,ee11a3fe-d3ae-4f57-97c7-8f55a3815798,2020-02-20 21:29:11,1.000000
34,9501029b-dc2f-4f2b-8e11-f68aa0788ebc,ac531de2-7dc7-4906-a888-8edad37b7a33,4d3b2a28-4a4c-4bba-bdf4-21bc6c965f39,d7e98e66-eaf2-449f-8323-e83bf205b504,2020-02-20 21:30:14,0.200000
35,57aa268a-1730-4ff2-8801-783c0615c563,b3a02473-404d-491e-b420-b949c4bf715f,2fe9f409-bced-4d3d-b672-292a856e9ad7,a7118894-c86f-4568-8855-544097952662,2020-02-20 21:31:17,1.000000
36,82e5ff00-b545-4468-8b9d-a525a4b3ee86,61e4bdd0-5a13-4fd8-a8fa-e0f635d58d2c,d183cb0a-c7f4-4770-893f-d225178c38a7,01d109b2-ba4e-4c20-93cc-495d833aa7df,2020-02-20 21:32:20,0.200000
37,c30f0c28-057c-476d-9f4e-c9dde3321497,39a740f2-fbad-450e-94ac-bd04cff26a90,2e22ce78-93b6-464d-86ed-4cc83a61094e,75caf435-fac4-44bc-8e2d-87ebba4e47d4,2020-02-20 21:33:23,1.000000
38,f373177c-e4db-43e1-9ab1-76f791d75ee4,8158bc2b-1886-4b25-9127-25c4476ac09c,82bd197c-c1f0-4d81-8648-5c535dde168d,154809aa-ca9b-42b0-92be-07ee6009100d,2020-02-20 21:34:26,1.000000
39,015a6d43-9b27-4d5b-89c1-8173a52b614c,10f20940-bf03-44ce-aabc-547eb9f7de91,e74edf72-a74c-4675-b86b-b631bd1b0f21,6148f570-87b9-42e6-baea-e5e67f493cb7,2020-02-20 21:35:30,0.200000
40,de1c2025-a4ac-4142-bbf6-efb29cf31bc4,11b7feac-866a-4da2-8248-5a36a774d84c,2c38b938-6aae-4a82-99ee-64c2641eea50,70a84ae3-70b5-483e-bdf2-8af48d426a3c,2020-02-20 21:36:33,0.200000
41,1f8767fa-a1ae-4001-ac23-db65ed562d4f,779964ef-e3c4-45e9-ab9b-855b2f81178b,bdacd5a7-2d54-4305-a3e7-f1176156ca80,b8ff5fa3-2c2b-4dff-b26f-9c1d0b6c2d12,2020-02-20 21:37:36,1.000000
42,362037b9-bed0-4dcf-a150-413cec0bb593,a786ecce-87a2-4670-92cd-09acebf691df,9dd96558-9202-4122-9958-d32905620ff9,e1a8513b-fbcd-4ec5-a8c9-330092533079,2020-02-20 21:38:39,0.200000
43,dfe1d4c1-ebe1-4dd4-9a53-c49ec30fe22d,5bca70d0-4a45-4919-859f-824e3a4b0638,69bdddaa-0eb0-457a-8754-0e55dbc0e5e8,97b0cbfd-26fe-4015-bbdb-e02cdf05d925,2020-02-20 21:39:42,0.200000
44,303a27d3-5d71-43e5-86c4-e4669ba80524,274a9ebe-8c49-44fb-8014-30023bcf2581,3eea2640-183d-4f48-9ee4-e76f07056f65,91fec2dc-8861-44ee-962e-71b10b596a73,2020-02-20 21:40:46,0.200000
45,397bd9a4-1d80-4018-ab0d-dbb92f286667,395f6886-cd48-44e8-a56b-9c90b344cd46,15b3bd15-c95c-42d8-82a8-67f2bf3b0d09,1ec5ed59-f7e2-4c04-a97d-ee76feaef62e,2020-02-20 21:41:49,1.000000
46,17791814-5dda-476b-bb45-820cb93cf2b7,e3abc277-9f2c-4213-91d6-2affc2db1802,2e5351a0-1ef3-4315-adbe-1dde292893d0,137bf794-5ed9-405c-82e4-db941f863d70,2020-02-20 21:42:52,0.200000
47,9c44d611-1aae-4f65-9df8-7af55902c6b7,2990dd77-7ede-4e74-a9a1-43786a5a25c1,b1830950-6888-43c1-b1fd-885db0b22a5e,2e1ab9d5-5953-40c5-a042-587c84194dbc,2020-02-20 21:43:55,0.200000
48,eb915ee9-d442-4590-a420-2a4890860b3c,581f2de1-89e8-43b9-acd4-8ebadb3f0a45,dfe76f0a-f909-4db7-aa0f-2dacba9abffb,4651c73d-0664-4b2b-a447-8d7232a125f2,2020-02-20 21:44:57,1.000000
49,a03d6ae2-60c1-4a2f-9cd1-cf6b6c0b64f3,833f9808-7f57-41d7-9ece-385c69cbae38,35b7e5b1-b270-4563-9725-ea17fe95cc1a,8dd596a9-b413-43d4-a984-42ec70d25441,2020-02-20 21:46:00,0.200000
50,9bd538dc-234f-43c0-8dc3-da2d52b3b3b9,af172513-31af-4b82-8b60-4ed8739e825d,418f5401-58f7-4fd5-97a6-95d18cb90793,716a3443-752a-4a36-8bc4-94a9d8bca043,2020-02-20 21:47:03,1.000000
