actor,node
e5e3fd9f-9d13-421c-88f4-fa8e5e76300b,43a77904-a707-43c3-acb1-d9abd9b9f242
ebaa2a67-bacf-47f8-a1f0-7a81fbbcd235,37db861b-9949-44a8-b1a1-0acb54983e46
c47ef522-e92c-4a8f-ac41-b0c4c51f72cc,c8f0d53e-d495-4041-a42a-617cb946cbf2
dbe37655-ea11-4ef3-92a0-d28cf2c95f44,0fa4acc5-943e-4041-bf22-500cac32d2f4
386d666c-a255-463c-81ce-f7265c9b1b25,43a77904-a707-43c3-acb1-d9abd9b9f242
cd4cbaf8-384c-419a-87fb-9d5572336f20,43a77904-a707-43c3-acb1-d9abd9b9f242
e7d8690f-b977-4fa4-bf7f-e2bd0d6f297f,d0ca949e-7e0e-4e03-865c-6227212e007d
ac8c723f-e2f4-4860-96ab-78af8194b062,d0ca949e-7e0e-4e03-865c-6227212e007d
1aa4e8b3-d536-484f-9cc4-2cf157218bec,db2946a6-b063-401e-b4cd-3fc77d03c40c
a81a94b9-ecd4-457e-9530-a116ce93a8e4,77514f43-4bad-4b81-b0ad-9c35d14e9912
358c07e4-6205-4314-9950-039f23c99b9c,12619b2a-f129-4bfd-b9e3-0bc72065298d
f7521f78-acf1-4cb2-8b9b-1eb48ae47363,77514f43-4bad-4b81-b0ad-9c35d14e9912
893e450d-cd24-486a-9924-b8618a091584,e7365d21-df35-4f50-a8e8-d7ce15eb3adf
0c19d034-90e7-4154-a485-2828730eb4b1,50cf2ec7-f661-46de-bbb8-cf591df51b39
cf5a5556-7a80-4f53-8972-4b88baa58bd8,e7365d21-df35-4f50-a8e8-d7ce15eb3adf
3651bc0a-cc3c-4cfb-8f9e-02b21b8a6bec,d520e2e1-9b8d-43bf-9c50-6ead2baada2d
ebbfa02b-be76-47f8-a1bd-be581f005a8a,d520e2e1-9b8d-43bf-9c50-6ead2baada2d
3678e5bf-8ada-4d4a-85b7-dc8d00787a92,54837874-fe75-4bed-8b1b-a618420bd26c
f8433d7d-a5be-4eb0-99b6-a5a6009c6b29,e7365d21-df35-4f50-a8e8-d7ce15eb3adf
6337a922-2f70-4d30-b652-93378382ffba,90c95e91-192b-4c4a-9982-75abdbe0010a
d1607d5f-7e6e-4d2e-9633-5eba29e3a055,e7365d21-df35-4f50-a8e8-d7ce15eb3adf
e8d6343f-5ddb-4a59-898c-fa2e09bf507f,d0ca949e-7e0e-4e03-865c-6227212e007d
604ebf49-4109-4db2-b800-eacd3a912eea,e26a3ed8-2c8d-4c3b-ab67-b169ef3b78a9
096cddfd-e1db-4e12-aaac-f0bd92efafed,d0ca949e-7e0e-4e03-865c-6227212e007d
15c71993-65e8-456a-8b1b-62a422c9818e,d520e2e1-9b8d-43bf-9c50-6ead2baada2d
27799a06-bee1-4e16-bd53-58b5a1b65a18,12d97b4b-298d-4489-9691-b08f5809d91d
20f2999f-1644-4e93-9fad-25728cb30eb6,d520e2e1-9b8d-43bf-9c50-6ead2baada2d
5af9bb4b-1596-4b4d-9e44-51971cf44c77,e3eb7910-19b4-405d-b477-538dd1082235
893136d9-98c9-4198-be86-97b839a03810,7a26376a-eee3-471c-bb2f-59b41ec179be
69ee4824-316e-4044-85e4-62669ccfd835,7a26376a-eee3-471c-bb2f-59b41ec179be
0c253cab-7597-4b00-a571-27d19ab3de7a,6a798b31-df44-4a12-b7fa-03416e1c9317
c77a1476-fe5e-4e77-aac9-4b6a83308273,37db861b-9949-44a8-b1a1-0acb54983e46
e13e13c1-c4f1-4f51-98ae-9fc01e0a9c5a,fa81f106-a6cc-4c87-97df-7c08a742ccde
970dc231-56a0-4163-82b3-54cca9c91bc2,fa81f106-a6cc-4c87-97df-7c08a742ccde
6d01688a-9a23-4c94-84f2-f91f5b120307,2517b125-f1cd-4a5e-8e09-27c4fb99eb3b
4f69e09c-23db-4248-9a53-6f38ab123b10,fa81f106-a6cc-4c87-97df-7c08a742ccde
a8352cdf-a745-490f-9a51-819da2426869,0130dc50-e16a-428b-818b-e095e96a7e8d
af561be6-0921-4599-9b2d-758b3a5a6fa7,7654553c-3f62-41f8-abb8-1234e16418ed
617236f0-3e81-43f9-9517-ddac305f58bd,7654553c-3f62-41f8-abb8-1234e16418ed
8817550c-f290-4636-9611-4aa9947704f0,ece53713-02bd-440a-9dd7-2c4daa647d08
59d69e0c-050e-449d-aa86-8ff48893e0b6,ece53713-02bd-440a-9dd7-2c4daa647d08
c612d9ca-76b6-42ad-8049-6f8a55f737a0,2c988e51-77a9-4ddf-bb44-c69c8a5492c1
f9901f1f-6cbb-40e2-8404-cfdff8a99c31,7654553c-3f62-41f8-abb8-1234e16418ed
df97caa6-a46b-44ca-9412-ca1fe0bac512,7654553c-3f62-41f8-abb8-1234e16418ed
f64691f2-8b03-47db-ae34-84f2e1b760ce,6bf97894-77ea-4886-884d-446d226a6197
74f80f82-1e2e-4b78-8ba3-50bd5e216263,ece53713-02bd-440a-9dd7-2c4daa647d08
d81d4320-2980-4798-879c-c7f9ecf30ac6,7433562c-db87-43fc-9686-7e96124fe7b6
0479a19c-0e2e-4c32-9fca-ccfdef1f95c9,ece53713-02bd-440a-9dd7-2c4daa647d08
96a59c05-8c39-4e66-8767-f70db1c56c32,5bfb0d8e-c7ce-45a8-b2ef-d87c4f2e6b37
5db6386e-43f0-48db-a121-c75c5b4a1f6d,3db203e2-0445-42ae-8241-3238ecc26c5e
177fa613-914a-4bab-9f5e-42b66aad8ab7,3db203e2-0445-42ae-8241-3238ecc26c5e
c45230b3-faf1-4788-ba85-7a3237f94141,2a1febac-1790-4183-9985-53cfc5f2ae62
2f7ca373-12d8-4296-a94e-83f6f6788750,1b1e72ed-2a0d-4920-be89-3b172649f339
c3d3a7bb-b73e-4073-86ae-3699c334ed9c,1b1e72ed-2a0d-4920-be89-3b172649f339
8dd9224a-58ca-4969-a37b-75cc365dbc04,e7365d21-df35-4f50-a8e8-d7ce15eb3adf
2c619e08-c840-4374-8991-665b8522e8a6,e7365d21-df35-4f50-a8e8-d7ce15eb3adf
2be6b0be-bd3d-489f-9072-6a4d1e59d989,30401940-578d-4717-841c-140c5a36370c
be02dc9b-ed74-4b85-8781-49440c66f863,e7365d21-df35-4f50-a8e8-d7ce15eb3adf
9e5bd80f-fa9a-4579-88f3-a5f8f99d247a,8c57625d-cf83-442e-98e8-0910855bbf21
1d74468a-7a3d-4fca-9e2c-fd76c77da037,e7365d21-df35-4f50-a8e8-d7ce15eb3adf
0ac5f601-e0ce-487d-9da1-742f5f73f9e5,07022ba4-fe53-4ce5-8e83-5df8239a96cb
7179cbe7-da0f-4789-a352-d41e05a01378,9645c790-4ed8-41d8-bed2-11cf6bc3f50f
c7d7f528-907d-44f8-9e5e-cebb0aa18936,07022ba4-fe53-4ce5-8e83-5df8239a96cb
4f11676d-0372-4c2d-87eb-12384af16350,77514f43-4bad-4b81-b0ad-9c35d14e9912
e6664f88-0c3e-49cf-b51a-daeff4bc6332,77514f43-4bad-4b81-b0ad-9c35d14e9912
c45f571e-4829-4373-a682-ffb5a849f3f3,cb22f03c-69f4-498b-ae62-d98211931af7
e99ebe78-13f7-40a2-8f2f-ba351c6a2f25,86c2e42b-cb24-41ec-a244-306104b306c3
119e64d9-41b0-435a-8164-8023c20d3461,3db203e2-0445-42ae-8241-3238ecc26c5e
2703c4f4-4908-4871-a34f-fab308b486b5,3db203e2-0445-42ae-8241-3238ecc26c5e
148ff489-515d-4836-ada8-d8442fbb57b8,d520e2e1-9b8d-43bf-9c50-6ead2baada2d
4a16df72-a8e6-4efb-927a-9eb23c602ec1,d520e2e1-9b8d-43bf-9c50-6ead2baada2d
aa178ae0-3b69-4370-912c-3d1a7977ebea,0a293b7e-2ac6-4911-83c3-c45ffd610e18
