node,ip,uuid
node-a8-199.grenoble.iot-lab.info,172.20.64.2,ad708a1a-a24d-4295-b922-dce34f8cd8c7
node-a8-200.grenoble.iot-lab.info,172.20.64.3,b384e4eb-7cb0-4f0e-973a-f25109fdb962
node-a8-201.grenoble.iot-lab.info,172.20.64.4,2ae5dae2-4bc4-4c73-94b2-bc3d7b038f64
node-a8-202.grenoble.iot-lab.info,172.20.64.5,6102f22a-7edb-4ad3-9263-aea6946c6244
node-a8-204.grenoble.iot-lab.info,172.20.64.6,cc896093-5e44-4aa6-879d-bc75897c0949
node-a8-205.grenoble.iot-lab.info,172.20.64.7,b5eb6272-9490-4211-a6c7-e0b7b9e3a3ce
node-a8-206.grenoble.iot-lab.info,172.20.64.8,1095c0fd-e42a-4053-a78e-cb6e2de17a51
node-a8-207.grenoble.iot-lab.info,172.20.64.9,e2ed4b56-2379-4f90-b2f2-93ab26c95099
node-a8-208.grenoble.iot-lab.info,172.20.64.10,508c1c88-2416-4831-aedc-0e93598c7734
node-a8-209.grenoble.iot-lab.info,172.20.64.11,aa631469-a6c3-41c5-bcb4-fb0f20e3a73a
node-a8-210.grenoble.iot-lab.info,172.20.64.12,0435ea0a-9149-45ea-8176-ee08f590c421
node-a8-211.grenoble.iot-lab.info,172.20.64.13,4f72f4d1-5204-4533-a99f-d68fcc6e54c0
node-a8-212.grenoble.iot-lab.info,172.20.64.14,fa58de90-cf9b-4d0d-a71c-e40cb7c70e3b
node-a8-214.grenoble.iot-lab.info,172.20.64.15,989aa2d5-5799-4c03-8414-585d36fea2e3
node-a8-216.grenoble.iot-lab.info,172.20.64.16,87eb5d8b-015d-4aa3-8f26-39a09dcd0208
node-a8-217.grenoble.iot-lab.info,172.20.64.17,f4caffb4-a399-4dc4-bd73-b6ca45938628
node-a8-218.grenoble.iot-lab.info,172.20.64.18,e73c7c3e-19ba-43fa-a2a6-3a5ae4562dce
node-a8-219.grenoble.iot-lab.info,172.20.64.19,4d7b8abd-1d9a-46ae-976e-7eff3fd0a77d
node-a8-220.grenoble.iot-lab.info,172.20.64.20,965a99fa-cddb-4c0a-87a9-f7c0d0d4fecd
node-a8-221.grenoble.iot-lab.info,172.20.64.21,3cec9975-c8fa-4103-ad85-5b4e51883b52
node-a8-165.grenoble.iot-lab.info,172.20.64.22,e0c1a348-4359-49d4-829d-a6ff7cc4c709
node-a8-166.grenoble.iot-lab.info,172.20.64.23,967a3f00-97ca-48e8-bc8a-0f65adfb9818
node-a8-167.grenoble.iot-lab.info,172.20.64.24,b218ee84-9d41-4807-8335-bd2290559824
node-a8-168.grenoble.iot-lab.info,172.20.64.25,6fcd861c-1be7-46c0-8ddd-1ec195bc05cb
node-a8-169.grenoble.iot-lab.info,172.20.64.26,73e9afcd-1d10-4618-bb91-16a7a18ce550
node-a8-170.grenoble.iot-lab.info,172.20.64.27,9402328c-dd56-4ae1-90d0-9a09904a6a81
node-a8-171.grenoble.iot-lab.info,172.20.64.28,c1a7209e-7725-4233-aef5-e6493d4b32cf
node-a8-173.grenoble.iot-lab.info,172.20.64.29,9f55509e-68c1-4370-89f6-67e1d9bb8828
node-a8-174.grenoble.iot-lab.info,172.20.64.30,790cedb8-c5c3-44b4-9192-77f5c01ced77
node-a8-175.grenoble.iot-lab.info,172.20.64.31,7ac20e88-7238-4ddc-a306-abe18b51104a
node-a8-176.grenoble.iot-lab.info,172.20.64.32,1fcdc8e4-19da-4a72-b063-642a98bdd50a
node-a8-177.grenoble.iot-lab.info,172.20.64.33,0cce8de3-2a0e-4c7d-a899-0652cd12e75d
node-a8-179.grenoble.iot-lab.info,172.20.64.34,95c7d791-b2f2-4ff1-965e-23c535305e4b
node-a8-180.grenoble.iot-lab.info,172.20.64.35,06f77281-a1d0-43b0-9cb8-226ec4064d2e
node-a8-181.grenoble.iot-lab.info,172.20.64.36,ace177df-e6e3-41b1-bf60-fe246c05861e
node-a8-182.grenoble.iot-lab.info,172.20.64.37,435e9e69-166a-48a3-b0c9-d15c925a8ab7
node-a8-183.grenoble.iot-lab.info,172.20.64.38,cb19026d-5cbc-43a8-bd88-f33e6eb5be93
node-a8-184.grenoble.iot-lab.info,172.20.64.39,39976293-e8ef-45a9-9d2f-ca70264eeff9
node-a8-185.grenoble.iot-lab.info,172.20.64.40,7131e195-29dd-4d9e-83d8-4c24c5180113
node-a8-187.grenoble.iot-lab.info,172.20.64.41,e5b35428-1fae-4d02-895f-9641c88fd44b
node-a8-188.grenoble.iot-lab.info,172.20.64.42,39d0e2ab-f044-4e92-abde-55f9c27c78b9
node-a8-189.grenoble.iot-lab.info,172.20.64.43,0e147794-35b7-4bb8-b05a-7fba283773ef
node-a8-190.grenoble.iot-lab.info,172.20.64.44,c0b4db37-ea81-4a77-9166-7bf063449368
node-a8-191.grenoble.iot-lab.info,172.20.64.45,ac62b8c3-f1d8-4bbf-85f1-8ca169ca4d91
node-a8-192.grenoble.iot-lab.info,172.20.64.46,f560a5ac-3b07-4d21-82f3-067be3066e30
node-a8-193.grenoble.iot-lab.info,172.20.64.47,39806c79-724c-40b5-8fe1-dd00622a825b
node-a8-194.grenoble.iot-lab.info,172.20.64.48,b6a95fcc-72e6-4a75-9c04-77e396135b55
node-a8-195.grenoble.iot-lab.info,172.20.64.49,ecebe901-20c8-43c6-b1da-6d6048276815
node-a8-197.grenoble.iot-lab.info,172.20.64.50,c285fa19-e5c8-40dc-ba8c-7aa448232456
node-a8-198.grenoble.iot-lab.info,172.20.64.51,1407c91d-9db8-4444-ae71-7090b52c442b
suno-11.sophia.grid5000.fr,172.16.130.11,37c10386-7211-4eaa-b29e-363140f5cf83
suno-14.sophia.grid5000.fr,172.16.130.14,1977fde8-e463-4336-8bb5-95091c307aae
suno-15.sophia.grid5000.fr,172.16.130.15,348e80a9-5fa4-4a72-95c9-178e20a0a8a3
suno-2.sophia.grid5000.fr,172.16.130.2,064cfe2f-dd4b-4a59-a1ff-f4e960a48ae7
suno-25.sophia.grid5000.fr,172.16.130.25,eb00d0e7-43ed-4d6d-91f8-0d55f72580f7
suno-27.sophia.grid5000.fr,172.16.130.27,3b0dd4ad-2a7e-4268-8bff-9b68f1ca69cd
suno-28.sophia.grid5000.fr,172.16.130.28,081ddaa4-ad3d-4f6a-a003-cd37d2047075
suno-30.sophia.grid5000.fr,172.16.130.30,09d40ffb-067c-43b6-a958-6e8efbbcbe9a
suno-32.sophia.grid5000.fr,172.16.130.32,6e082168-0dc0-4c3e-804f-2ba4e4081f35
suno-33.sophia.grid5000.fr,172.16.130.33,64419627-e6ee-47b5-b0bc-25e857f552c9
suno-34.sophia.grid5000.fr,172.16.130.34,b8a9a312-9ae6-44b2-9005-4439d6624034
suno-36.sophia.grid5000.fr,172.16.130.36,8099d0cb-e355-4acf-9871-dbc92b492f48
suno-37.sophia.grid5000.fr,172.16.130.37,37391ec9-3170-4fc5-8fa5-094782ba1be7
suno-43.sophia.grid5000.fr,172.16.130.43,c2f18df3-7ef8-403e-b91a-075ec6450378
suno-44.sophia.grid5000.fr,172.16.130.44,af03d32d-f6c3-4cd2-a534-c455aac7c8dc
suno-8.sophia.grid5000.fr,172.16.130.8,e6239e8f-e485-43b2-bc79-02c086e5cee4
