date,actor,success,from,to
2019-11-01 23:46:44,0cd4d7bb-be5d-4bc1-8d20-b61544edf2fc,1,1383dc2f-80bf-46d2-a294-b6adfeb4cbec,630e6c05-969c-45ee-b0ef-f1e75ee62fca
2019-11-01 23:46:44,cd005a06-4602-473c-8b69-5ef61b90e9f0,1,1383dc2f-80bf-46d2-a294-b6adfeb4cbec,b0c67b60-0cf9-44f5-9dd4-795d8cbd8dd9
2019-11-01 23:46:44,9a1e331e-684d-437d-9bb9-fd5543b2949f,1,1383dc2f-80bf-46d2-a294-b6adfeb4cbec,1e4f3c8f-bc19-4d3e-b20d-632bef90ec40
2019-11-01 23:47:48,b168b5bf-fd40-47c0-a468-efd9e762f287,1,1383dc2f-80bf-46d2-a294-b6adfeb4cbec,630e6c05-969c-45ee-b0ef-f1e75ee62fca
2019-11-01 23:47:48,48a393b2-cf98-41e6-b2e3-ca8043406a93,1,1383dc2f-80bf-46d2-a294-b6adfeb4cbec,d070c573-46e2-4760-9603-0124c1e9483d
2019-11-01 23:47:48,ef1d8f18-d6be-4b58-8475-3268255d7f7c,1,1383dc2f-80bf-46d2-a294-b6adfeb4cbec,9c791cab-eb49-4fb3-92bf-73fc5eacc225
2019-11-01 23:48:52,ca43aa0e-1909-4caf-82ac-21325fad77bd,1,1383dc2f-80bf-46d2-a294-b6adfeb4cbec,fe884641-c823-4b6e-9e7c-edd75e9c8bcb
2019-11-01 23:48:52,07c0ff59-cc23-47ed-8c69-df032e8313d8,1,1383dc2f-80bf-46d2-a294-b6adfeb4cbec,fe884641-c823-4b6e-9e7c-edd75e9c8bcb
2019-11-01 23:48:52,62eab0fc-8248-483c-8ca4-8ddaa730c6cb,1,1383dc2f-80bf-46d2-a294-b6adfeb4cbec,f58c8e16-cbee-47d3-b9f4-ffed825a7425
2019-11-01 23:49:56,79842650-21c7-4719-81fc-383698daaeeb,1,1383dc2f-80bf-46d2-a294-b6adfeb4cbec,fe884641-c823-4b6e-9e7c-edd75e9c8bcb
2019-11-01 23:49:56,9ce1eb3f-6d4b-4c08-983f-a3d2ab9934fb,1,1383dc2f-80bf-46d2-a294-b6adfeb4cbec,4de155eb-ddf8-4ec1-899e-9fb2348da887
2019-11-01 23:49:56,f873d12d-09a5-4fdc-b5f5-8cdae5900bbc,1,1383dc2f-80bf-46d2-a294-b6adfeb4cbec,5e68f4da-b45d-4111-9347-95b34964637f
2019-11-01 23:50:59,e20676b7-109a-4534-86f8-3c4645abebfe,1,1383dc2f-80bf-46d2-a294-b6adfeb4cbec,b5764d29-9e9f-4eff-96c1-880f28870d96
2019-11-01 23:50:59,43f01d16-9fbb-46ef-a9c8-8627538a3f96,1,1383dc2f-80bf-46d2-a294-b6adfeb4cbec,d8c55a1c-16dd-41cc-aa1f-41615e09d0b0
2019-11-01 23:50:59,58db3f47-1d47-4bd5-9b76-86d8f45d56a6,1,1383dc2f-80bf-46d2-a294-b6adfeb4cbec,b5764d29-9e9f-4eff-96c1-880f28870d96
2019-11-01 23:52:03,9e8f4021-e663-4a53-a3e0-36b8fc3d5f98,1,1383dc2f-80bf-46d2-a294-b6adfeb4cbec,73bbd45d-c12d-49a9-b42d-a20444881cc3
2019-11-01 23:52:03,c83cfb59-014e-42d6-8db0-dcba0566156b,1,1383dc2f-80bf-46d2-a294-b6adfeb4cbec,b0c67b60-0cf9-44f5-9dd4-795d8cbd8dd9
2019-11-01 23:52:03,804b4625-c7a9-49a6-adec-8b88ab09ec3c,1,1383dc2f-80bf-46d2-a294-b6adfeb4cbec,7a8d31a0-bbbd-4cae-9f43-d024dd2afac2
2019-11-01 23:53:07,02defa02-2dea-45f0-ad5f-bb23290e819b,1,1383dc2f-80bf-46d2-a294-b6adfeb4cbec,eb3df129-e910-4327-9c82-56066dcf9010
2019-11-01 23:53:07,465adaf2-38ca-4c70-b690-7620687ddcf2,1,1383dc2f-80bf-46d2-a294-b6adfeb4cbec,b1f20a35-7896-41f3-9540-43f9530df53a
2019-11-01 23:53:07,b3c06da2-6278-4897-a4cc-f4eabcec58d7,1,1383dc2f-80bf-46d2-a294-b6adfeb4cbec,eb3df129-e910-4327-9c82-56066dcf9010
2019-11-01 23:54:11,e0835170-3d72-44b8-903a-645baa7dd518,1,1383dc2f-80bf-46d2-a294-b6adfeb4cbec,41383d68-7d35-406b-9b31-549f61d00cb2
2019-11-01 23:54:11,d111685e-421e-473c-becb-b9de3be70369,1,1383dc2f-80bf-46d2-a294-b6adfeb4cbec,caea3749-662f-453a-9256-7cf85a3bff01
2019-11-01 23:54:11,d91fa7fe-427b-4696-a1cc-9765204faf52,1,1383dc2f-80bf-46d2-a294-b6adfeb4cbec,41383d68-7d35-406b-9b31-549f61d00cb2
2019-11-01 23:55:15,6e7a97f4-1184-4091-ac5c-466abc9184a8,1,1383dc2f-80bf-46d2-a294-b6adfeb4cbec,73bbd45d-c12d-49a9-b42d-a20444881cc3
2019-11-01 23:55:15,5f1f59b2-6f93-4696-ae4e-bf9aedfa9a61,1,1383dc2f-80bf-46d2-a294-b6adfeb4cbec,736dcc56-e801-4db8-b857-a17d32213ae6
2019-11-01 23:55:15,32002db3-6f18-4c31-86f0-6e89768fe70e,1,1383dc2f-80bf-46d2-a294-b6adfeb4cbec,73bbd45d-c12d-49a9-b42d-a20444881cc3
2019-11-01 23:56:18,68ca3844-0e31-4ba8-8937-4d598e18979e,1,1383dc2f-80bf-46d2-a294-b6adfeb4cbec,b9920d0a-1218-4ae7-81d0-040adc25a32e
2019-11-01 23:56:18,4d510d09-37d2-43c9-a82a-140ac80bd390,1,1383dc2f-80bf-46d2-a294-b6adfeb4cbec,b9920d0a-1218-4ae7-81d0-040adc25a32e
2019-11-01 23:56:18,ff99fb10-a0a1-46c6-a4ab-be090ab87411,1,1383dc2f-80bf-46d2-a294-b6adfeb4cbec,7279ed63-7ec6-4670-881a-94c1bf8cd499
2019-11-01 23:57:22,83e7ea1b-0049-49c1-b46a-9dfe3c8c7ec2,1,1383dc2f-80bf-46d2-a294-b6adfeb4cbec,805ba59a-7329-4488-b2f4-a93c337d376f
2019-11-01 23:57:22,d502ee40-2776-45f2-a88b-f13aeabb0fa8,1,1383dc2f-80bf-46d2-a294-b6adfeb4cbec,8ecacbb3-3d66-430e-82d0-8cfa34c55a78
2019-11-01 23:57:22,466bb880-4571-47ca-9d15-1f96692bb522,1,1383dc2f-80bf-46d2-a294-b6adfeb4cbec,805ba59a-7329-4488-b2f4-a93c337d376f
2019-11-01 23:58:26,7b312ec2-5abb-421f-be7a-ed20c3acfd33,1,1383dc2f-80bf-46d2-a294-b6adfeb4cbec,b5764d29-9e9f-4eff-96c1-880f28870d96
2019-11-01 23:58:26,f405e667-bc97-4df4-b439-f8f27513061b,1,1383dc2f-80bf-46d2-a294-b6adfeb4cbec,4308b8f5-25a7-48be-bfec-d04bd8dc190a
2019-11-01 23:58:26,88ad4dd4-4a52-434c-9373-a689cace0448,1,1383dc2f-80bf-46d2-a294-b6adfeb4cbec,b5764d29-9e9f-4eff-96c1-880f28870d96
2019-11-01 23:59:30,bb6452d2-e0c2-40d3-ac6c-148b7d54d80f,1,1383dc2f-80bf-46d2-a294-b6adfeb4cbec,a1bb7d23-bffe-4d02-b482-e536a8e3816f
2019-11-01 23:59:30,dbfcfab7-5469-447b-83d4-36faf76f5d88,1,1383dc2f-80bf-46d2-a294-b6adfeb4cbec,fe884641-c823-4b6e-9e7c-edd75e9c8bcb
2019-11-01 23:59:30,72b5d3d0-5d1f-446a-a610-5a72fb4c6622,1,1383dc2f-80bf-46d2-a294-b6adfeb4cbec,fe884641-c823-4b6e-9e7c-edd75e9c8bcb
2019-11-02 00:00:33,9e14799b-c5a0-47bf-8b59-ebb94de89d51,1,1383dc2f-80bf-46d2-a294-b6adfeb4cbec,b5764d29-9e9f-4eff-96c1-880f28870d96
2019-11-02 00:00:33,1b55d3d1-c896-4103-9644-91474ae9c6f1,1,1383dc2f-80bf-46d2-a294-b6adfeb4cbec,d32d0e2b-d757-4482-b7b3-86c1d4517347
2019-11-02 00:00:33,eadd1b62-5f36-4c7d-8c91-727c5d2c53b6,1,1383dc2f-80bf-46d2-a294-b6adfeb4cbec,b5764d29-9e9f-4eff-96c1-880f28870d96
2019-11-02 00:01:37,ce3acc28-54eb-4653-af56-75a61c22a9c6,1,1383dc2f-80bf-46d2-a294-b6adfeb4cbec,630e6c05-969c-45ee-b0ef-f1e75ee62fca
2019-11-02 00:01:37,1884ba75-8523-4652-8c50-acc94889740d,1,1383dc2f-80bf-46d2-a294-b6adfeb4cbec,630e6c05-969c-45ee-b0ef-f1e75ee62fca
2019-11-02 00:01:37,39843eb4-9697-4898-b2a2-1b53200fd1f6,1,1383dc2f-80bf-46d2-a294-b6adfeb4cbec,b71c114f-7612-4003-ad4a-c4c1809e23c7
2019-11-02 00:02:41,064857bc-f85d-44de-87dd-c1ecdcd19ad1,1,1383dc2f-80bf-46d2-a294-b6adfeb4cbec,dfc05638-7a28-4967-890e-297631252133
2019-11-02 00:02:41,98c26b28-7e4f-4d68-88ec-f94dbc64c44e,1,1383dc2f-80bf-46d2-a294-b6adfeb4cbec,95c349f2-c8f0-4c78-9699-4546752ff354
2019-11-02 00:02:41,ed61479a-7e53-4ebd-991f-cb2654f101fb,1,1383dc2f-80bf-46d2-a294-b6adfeb4cbec,7a9bdc48-9771-49d9-9903-cdfb2ef80c93
2019-11-02 00:03:45,e32843c7-2be1-4a3a-994e-dcc34a36c8b1,1,1383dc2f-80bf-46d2-a294-b6adfeb4cbec,7a9bdc48-9771-49d9-9903-cdfb2ef80c93
2019-11-02 00:03:45,494f61e0-dfe2-491d-9286-33947eb487e5,1,1383dc2f-80bf-46d2-a294-b6adfeb4cbec,7a9bdc48-9771-49d9-9903-cdfb2ef80c93
2019-11-02 00:03:45,6b93d648-8e5d-42e2-982e-140ee204dcf8,1,1383dc2f-80bf-46d2-a294-b6adfeb4cbec,009574ed-4e9a-41c0-b472-22f040b707d1
2019-11-02 00:04:49,e35516cc-c42e-49de-8c4a-50db2f815b4a,1,1383dc2f-80bf-46d2-a294-b6adfeb4cbec,1e9c0789-df87-4635-9b79-9e9230f34d5d
2019-11-02 00:04:49,3f9c4f0a-3f0d-48ae-a9b3-f1c5ad666c38,1,1383dc2f-80bf-46d2-a294-b6adfeb4cbec,1c3a4fb0-30f1-4162-8e3b-c5ae8ad2f650
2019-11-02 00:04:49,a6f621c5-8266-4da0-9e4f-dc8444133f44,1,1383dc2f-80bf-46d2-a294-b6adfeb4cbec,1c3a4fb0-30f1-4162-8e3b-c5ae8ad2f650
2019-11-02 00:05:52,e3a505c8-76c2-4da0-a120-89b32d555c39,1,1383dc2f-80bf-46d2-a294-b6adfeb4cbec,1c3a4fb0-30f1-4162-8e3b-c5ae8ad2f650
2019-11-02 00:05:52,77c2715a-ee14-4258-a2cc-64376ef4af39,1,1383dc2f-80bf-46d2-a294-b6adfeb4cbec,1c3a4fb0-30f1-4162-8e3b-c5ae8ad2f650
2019-11-02 00:05:52,1ab74ea2-6cbd-408b-8005-16b7dd5ac2b6,1,1383dc2f-80bf-46d2-a294-b6adfeb4cbec,51e85dec-3f68-4966-bf46-cd9e62ebd5a5
2019-11-02 00:06:56,060065cd-e581-4426-9740-8959d20162f0,1,1383dc2f-80bf-46d2-a294-b6adfeb4cbec,d070c573-46e2-4760-9603-0124c1e9483d
2019-11-02 00:06:56,8a9f10ef-0930-4f5d-89a0-9b724d47d99d,1,1383dc2f-80bf-46d2-a294-b6adfeb4cbec,8b0e2fb2-151c-4a2c-a161-19a72db63eb2
2019-11-02 00:06:56,6966ebd6-272c-4c15-8599-f8081b6b637d,1,1383dc2f-80bf-46d2-a294-b6adfeb4cbec,d070c573-46e2-4760-9603-0124c1e9483d
2019-11-02 00:08:00,74730857-e535-4f1d-b13a-c0304c02b8ad,1,1383dc2f-80bf-46d2-a294-b6adfeb4cbec,5e68f4da-b45d-4111-9347-95b34964637f
2019-11-02 00:08:00,70c0f0f5-5340-4c76-9805-36391dc54f8f,1,1383dc2f-80bf-46d2-a294-b6adfeb4cbec,1942bb38-ad62-45bf-b781-35a19753977b
2019-11-02 00:08:00,03d71c9f-4463-4aba-bf6f-4e6eda3081d0,1,1383dc2f-80bf-46d2-a294-b6adfeb4cbec,5e68f4da-b45d-4111-9347-95b34964637f
2019-11-02 00:09:04,28171f14-2c73-4a80-8a65-de03287ebeb3,1,1383dc2f-80bf-46d2-a294-b6adfeb4cbec,faddcbe9-13d1-42d3-a458-7247e4173b06
2019-11-02 00:09:04,4ebae2a3-dd01-481e-a288-8a8cfc02b692,1,1383dc2f-80bf-46d2-a294-b6adfeb4cbec,7a9bdc48-9771-49d9-9903-cdfb2ef80c93
2019-11-02 00:09:04,1ff9fe3b-0a3b-4cc2-a90b-f45ef906a77d,1,1383dc2f-80bf-46d2-a294-b6adfeb4cbec,7a9bdc48-9771-49d9-9903-cdfb2ef80c93
2019-11-02 00:10:08,a141389e-e804-4728-9afc-39e64856b459,1,1383dc2f-80bf-46d2-a294-b6adfeb4cbec,b0c67b60-0cf9-44f5-9dd4-795d8cbd8dd9
2019-11-02 00:10:08,4e9f8b9d-e8eb-44fb-bea7-f56d0262624b,1,1383dc2f-80bf-46d2-a294-b6adfeb4cbec,67bb5878-19d6-4e0d-9915-3d1d421b3c5d
2019-11-02 00:10:08,019131e5-49f0-4b5b-b23d-029589e4525e,1,1383dc2f-80bf-46d2-a294-b6adfeb4cbec,b0c67b60-0cf9-44f5-9dd4-795d8cbd8dd9
2019-11-02 00:11:12,f36f1c53-ebde-4577-b167-76f68cfed7cb,1,1383dc2f-80bf-46d2-a294-b6adfeb4cbec,4f519945-12ec-4f31-a2e1-8a9df460927b
2019-11-02 00:11:12,903db168-2b61-44c5-8a02-893622efe6c2,1,1383dc2f-80bf-46d2-a294-b6adfeb4cbec,5e68f4da-b45d-4111-9347-95b34964637f
2019-11-02 00:11:12,0f601f78-5ed5-454c-badd-b6b73f88055a,1,1383dc2f-80bf-46d2-a294-b6adfeb4cbec,5e68f4da-b45d-4111-9347-95b34964637f
2019-11-02 00:12:16,ad102ceb-bba8-455e-b0a1-14690989356e,1,1383dc2f-80bf-46d2-a294-b6adfeb4cbec,1c3a4fb0-30f1-4162-8e3b-c5ae8ad2f650
2019-11-02 00:12:16,f7f6c249-07d9-41e8-928e-80d8b82bd960,1,1383dc2f-80bf-46d2-a294-b6adfeb4cbec,a6804ffc-1a35-4b3e-9cd7-0006fb68365e
2019-11-02 00:12:16,d6523583-45cc-4f7b-bf14-fca43ef56b9b,1,1383dc2f-80bf-46d2-a294-b6adfeb4cbec,1c3a4fb0-30f1-4162-8e3b-c5ae8ad2f650
2019-11-02 00:13:19,8fc542fb-8c2b-476a-b33f-95f1c54cda63,1,1383dc2f-80bf-46d2-a294-b6adfeb4cbec,5e68f4da-b45d-4111-9347-95b34964637f
2019-11-02 00:13:19,4b86facf-6bb1-451d-90b6-4e1f81819459,1,1383dc2f-80bf-46d2-a294-b6adfeb4cbec,5e68f4da-b45d-4111-9347-95b34964637f
2019-11-02 00:13:19,576c3982-34c3-4363-adb0-825f9538f46f,1,1383dc2f-80bf-46d2-a294-b6adfeb4cbec,29ecd40d-b3c5-4944-8855-751cbcf1ec77
2019-11-02 00:14:23,a657fdb0-faf1-4442-9acc-995436e8c519,1,1383dc2f-80bf-46d2-a294-b6adfeb4cbec,9067bd5f-1e11-4984-aae3-9f49d055d311
2019-11-02 00:14:23,e4ac4a73-60d3-4c83-a2e2-d67b07e72a31,1,1383dc2f-80bf-46d2-a294-b6adfeb4cbec,eb3df129-e910-4327-9c82-56066dcf9010
2019-11-02 00:14:23,55d88fd6-5751-49a2-8e49-6e64860a0bdb,1,1383dc2f-80bf-46d2-a294-b6adfeb4cbec,eb3df129-e910-4327-9c82-56066dcf9010
2019-11-02 00:15:27,90c08282-8e57-421c-9e93-09e775c46369,1,1383dc2f-80bf-46d2-a294-b6adfeb4cbec,73bbd45d-c12d-49a9-b42d-a20444881cc3
2019-11-02 00:15:27,d2ea26ff-5159-476c-b76d-045f7ae833b1,1,1383dc2f-80bf-46d2-a294-b6adfeb4cbec,73bbd45d-c12d-49a9-b42d-a20444881cc3
2019-11-02 00:15:27,51f31c36-afc3-4077-8b7b-5dcca18270ee,1,1383dc2f-80bf-46d2-a294-b6adfeb4cbec,0c8838ab-f6d2-49b9-bab5-6881d4a879e0
2019-11-02 00:16:31,411571f9-c294-4d09-8934-be23927e5e34,1,1383dc2f-80bf-46d2-a294-b6adfeb4cbec,630e6c05-969c-45ee-b0ef-f1e75ee62fca
2019-11-02 00:16:31,242ee9a9-0443-4257-ab24-f75470e2250d,1,1383dc2f-80bf-46d2-a294-b6adfeb4cbec,59f918c1-2947-4f37-be35-cd39902d7520
2019-11-02 00:16:31,7545b0c9-ef29-4803-90ba-3938ea8dc036,1,1383dc2f-80bf-46d2-a294-b6adfeb4cbec,630e6c05-969c-45ee-b0ef-f1e75ee62fca
2019-11-02 00:17:34,b013f0a4-cafb-457d-a478-4b273135da78,1,1383dc2f-80bf-46d2-a294-b6adfeb4cbec,b9920d0a-1218-4ae7-81d0-040adc25a32e
2019-11-02 00:17:34,6eaeb1f3-7f95-49ed-877a-502db8868f2d,1,1383dc2f-80bf-46d2-a294-b6adfeb4cbec,a5056ce1-ee40-4199-b929-3d04e7f2680b
2019-11-02 00:17:34,a8e0592f-747a-4ad4-bce4-d9390eebe649,1,1383dc2f-80bf-46d2-a294-b6adfeb4cbec,b9920d0a-1218-4ae7-81d0-040adc25a32e
2019-11-02 00:18:38,fa2b46fe-e7f8-4d7e-b642-8a88f2d6e59e,1,1383dc2f-80bf-46d2-a294-b6adfeb4cbec,805ba59a-7329-4488-b2f4-a93c337d376f
2019-11-02 00:18:38,650c6358-c4c5-4c7a-96b4-be8fd428f4fb,1,1383dc2f-80bf-46d2-a294-b6adfeb4cbec,805ba59a-7329-4488-b2f4-a93c337d376f
2019-11-02 00:18:38,b7899983-fa5f-4827-a989-7ebf8e404fc6,1,1383dc2f-80bf-46d2-a294-b6adfeb4cbec,f6967006-d089-46e2-9c82-09841ea15397
2019-11-02 00:19:42,7aaf5b1a-9d09-405d-92a3-edc61cc943c9,1,1383dc2f-80bf-46d2-a294-b6adfeb4cbec,630e6c05-969c-45ee-b0ef-f1e75ee62fca
2019-11-02 00:19:42,0438f15a-8c8d-4105-9ff6-afff1fd501a5,1,1383dc2f-80bf-46d2-a294-b6adfeb4cbec,787ae118-2200-477a-9ef9-4ebbb6aec74c
2019-11-02 00:19:42,9dcbcab0-318d-4242-857c-223bdfebe735,1,1383dc2f-80bf-46d2-a294-b6adfeb4cbec,630e6c05-969c-45ee-b0ef-f1e75ee62fca
2019-11-02 00:20:46,c4924a87-9714-4f37-9855-c5e64ab08684,1,1383dc2f-80bf-46d2-a294-b6adfeb4cbec,b9920d0a-1218-4ae7-81d0-040adc25a32e
2019-11-02 00:20:46,b578fca1-13b7-4876-82c6-923cc3b58158,1,1383dc2f-80bf-46d2-a294-b6adfeb4cbec,b9920d0a-1218-4ae7-81d0-040adc25a32e
2019-11-02 00:20:46,18fd88c1-6e64-4920-b726-0b9f598dd810,1,1383dc2f-80bf-46d2-a294-b6adfeb4cbec,8d06b9e2-9e1d-4272-a5e1-930b7a36b529
2019-11-02 00:21:50,11bad0d2-0b59-45e0-b14c-d90e2cc86a7d,1,1383dc2f-80bf-46d2-a294-b6adfeb4cbec,7a9bdc48-9771-49d9-9903-cdfb2ef80c93
2019-11-02 00:21:50,f6dc771c-80a2-4856-aa25-50260b245e00,1,1383dc2f-80bf-46d2-a294-b6adfeb4cbec,d87c1594-6419-42b9-aac7-2695386c87bb
2019-11-02 00:21:50,eeae8f00-da2d-4625-8a72-3249c843fa22,1,1383dc2f-80bf-46d2-a294-b6adfeb4cbec,7a9bdc48-9771-49d9-9903-cdfb2ef80c93
2019-11-02 00:22:53,39b8a30b-272e-4e3a-9e94-3caced2bb24b,1,1383dc2f-80bf-46d2-a294-b6adfeb4cbec,5a2fc3c2-ae10-4038-8941-fe79af689cbc
2019-11-02 00:22:53,fb25dfaf-1f0f-4e3e-bff7-63126d75b069,1,1383dc2f-80bf-46d2-a294-b6adfeb4cbec,1c3a4fb0-30f1-4162-8e3b-c5ae8ad2f650
2019-11-02 00:22:53,9a31ba79-4cc5-4f0a-9552-46d46056c484,1,1383dc2f-80bf-46d2-a294-b6adfeb4cbec,1c3a4fb0-30f1-4162-8e3b-c5ae8ad2f650
2019-11-02 00:23:57,81accfe9-baf4-4c44-9e0b-f5cd4ebd124e,1,1383dc2f-80bf-46d2-a294-b6adfeb4cbec,eb3df129-e910-4327-9c82-56066dcf9010
2019-11-02 00:23:57,b82924e1-7980-4c30-943f-c8a82aa0635a,1,1383dc2f-80bf-46d2-a294-b6adfeb4cbec,869cfcb5-5e27-43e5-9658-ac1eb741612c
2019-11-02 00:23:57,2a32ee2a-c632-4a04-b048-b25575b7240f,1,1383dc2f-80bf-46d2-a294-b6adfeb4cbec,eb3df129-e910-4327-9c82-56066dcf9010
2019-11-02 00:25:01,f90d0fb3-6697-4f1f-907b-ebf200006d08,1,1383dc2f-80bf-46d2-a294-b6adfeb4cbec,f4408b52-f456-4832-ab36-3fde67f4e7fd
2019-11-02 00:25:01,32434d8a-e527-4f3a-8b24-fce0818c3378,1,1383dc2f-80bf-46d2-a294-b6adfeb4cbec,b9920d0a-1218-4ae7-81d0-040adc25a32e
2019-11-02 00:25:01,30ef7d80-2075-4091-8ea4-90904c9e6705,1,1383dc2f-80bf-46d2-a294-b6adfeb4cbec,b9920d0a-1218-4ae7-81d0-040adc25a32e
2019-11-02 00:26:05,d70d4cd9-76ef-4222-aaec-17211f9e2b5c,1,1383dc2f-80bf-46d2-a294-b6adfeb4cbec,b9920d0a-1218-4ae7-81d0-040adc25a32e
2019-11-02 00:26:05,450e5731-3c2c-4f44-a174-a814402b5dd8,1,1383dc2f-80bf-46d2-a294-b6adfeb4cbec,b9920d0a-1218-4ae7-81d0-040adc25a32e
2019-11-02 00:26:05,2f5f5731-2b99-4e23-b819-db55708fbbed,1,1383dc2f-80bf-46d2-a294-b6adfeb4cbec,228f5b27-ad1f-47ce-96b5-b4616302b319
2019-11-02 00:27:09,187d480f-94b5-491e-9b09-4d61f9640f65,1,1383dc2f-80bf-46d2-a294-b6adfeb4cbec,e9a20ef3-02de-4f9f-a21a-66092511ecb4
2019-11-02 00:27:09,d2013315-4f0b-4e2f-afdd-3792c377abb1,1,1383dc2f-80bf-46d2-a294-b6adfeb4cbec,73bbd45d-c12d-49a9-b42d-a20444881cc3
2019-11-02 00:27:09,83c70cc9-e43a-418c-be97-f1bceca3c12d,1,1383dc2f-80bf-46d2-a294-b6adfeb4cbec,73bbd45d-c12d-49a9-b42d-a20444881cc3
2019-11-02 00:28:13,a2e0947a-840c-4ce5-8ed2-bf35d67067c4,1,1383dc2f-80bf-46d2-a294-b6adfeb4cbec,7811e599-191b-4563-bafe-00266fa84a6c
2019-11-02 00:28:13,95fb2f99-7cf7-4da1-9671-c7110372bccd,1,1383dc2f-80bf-46d2-a294-b6adfeb4cbec,fe884641-c823-4b6e-9e7c-edd75e9c8bcb
2019-11-02 00:28:13,ee5e4c62-e459-43d4-869e-400e72022aaa,1,1383dc2f-80bf-46d2-a294-b6adfeb4cbec,fe884641-c823-4b6e-9e7c-edd75e9c8bcb
2019-11-02 00:29:18,bb6ba210-92d7-48d8-8bf9-e060c85c564d,1,1383dc2f-80bf-46d2-a294-b6adfeb4cbec,1cd7ac47-0e61-4d49-a5bb-3e1204139861
2019-11-02 00:29:18,8e93a20b-7953-47be-9335-34336f2ac9d6,1,1383dc2f-80bf-46d2-a294-b6adfeb4cbec,b9920d0a-1218-4ae7-81d0-040adc25a32e
2019-11-02 00:29:18,4cf29d03-838c-4722-870b-7337adf0db55,1,1383dc2f-80bf-46d2-a294-b6adfeb4cbec,b9920d0a-1218-4ae7-81d0-040adc25a32e
2019-11-02 00:30:14,4ebae2a3-dd01-481e-a288-8a8cfc02b692,1,1383dc2f-80bf-46d2-a294-b6adfeb4cbec,5e68f4da-b45d-4111-9347-95b34964637f
2019-11-02 00:30:23,82a60d67-f21b-421f-b69d-8d2312d3d4bc,1,1383dc2f-80bf-46d2-a294-b6adfeb4cbec,c1ac9bba-a24e-40a3-9459-60a8f1079796
2019-11-02 00:30:23,e6d51c24-453a-4c3e-86f9-780961ccd728,1,1383dc2f-80bf-46d2-a294-b6adfeb4cbec,ebf3e51c-a127-4969-a556-bd3d181d07d8
2019-11-02 00:30:23,f2cf0b2c-b245-40f9-9a63-ca917289dc23,1,1383dc2f-80bf-46d2-a294-b6adfeb4cbec,c1ac9bba-a24e-40a3-9459-60a8f1079796
2019-11-02 00:31:27,005d2de1-95dc-47ab-b11a-a819eb5e12f0,1,1383dc2f-80bf-46d2-a294-b6adfeb4cbec,7a9bdc48-9771-49d9-9903-cdfb2ef80c93
2019-11-02 00:31:27,dbf52938-bf3a-4e78-9f88-71760e66f839,1,1383dc2f-80bf-46d2-a294-b6adfeb4cbec,7a9bdc48-9771-49d9-9903-cdfb2ef80c93
2019-11-02 00:31:27,83de1bbb-69a6-4a2f-b1af-d457878817a0,1,1383dc2f-80bf-46d2-a294-b6adfeb4cbec,6ab71bbc-03f4-4d4c-86e7-8ad42bc709e3
2019-11-02 00:32:32,f0e54596-6ac5-4d3c-b814-67dc888f3a18,1,1383dc2f-80bf-46d2-a294-b6adfeb4cbec,b9b9a986-a70a-4452-bcce-eb9c2cc693dc
2019-11-02 00:32:32,77dc8cb0-7e7a-4d6c-95ee-0271cdacc28d,1,1383dc2f-80bf-46d2-a294-b6adfeb4cbec,95c349f2-c8f0-4c78-9699-4546752ff354
2019-11-02 00:32:32,48c1d67c-0273-4479-8e92-78c78cdab658,1,1383dc2f-80bf-46d2-a294-b6adfeb4cbec,95c349f2-c8f0-4c78-9699-4546752ff354
2019-11-02 00:32:34,e4ac4a73-60d3-4c83-a2e2-d67b07e72a31,1,1383dc2f-80bf-46d2-a294-b6adfeb4cbec,d070c573-46e2-4760-9603-0124c1e9483d
2019-11-02 00:33:35,7ebee809-a4a0-4b28-b723-10b7383be4c1,1,1383dc2f-80bf-46d2-a294-b6adfeb4cbec,d37a7795-e8ea-413d-80e8-88e65968bf7f
2019-11-02 00:33:35,5bf9091d-c98e-4445-8adf-1acde23f2387,1,1383dc2f-80bf-46d2-a294-b6adfeb4cbec,95c349f2-c8f0-4c78-9699-4546752ff354
2019-11-02 00:33:35,7a7cf0f8-dd0e-4a0e-90e0-a4b5e4aaae26,1,1383dc2f-80bf-46d2-a294-b6adfeb4cbec,95c349f2-c8f0-4c78-9699-4546752ff354
2019-11-02 00:33:57,a141389e-e804-4728-9afc-39e64856b459,1,1383dc2f-80bf-46d2-a294-b6adfeb4cbec,805ba59a-7329-4488-b2f4-a93c337d376f
2019-11-02 00:34:39,4145e9b3-513f-4cb7-a503-2af3b9e55409,1,1383dc2f-80bf-46d2-a294-b6adfeb4cbec,73bbd45d-c12d-49a9-b42d-a20444881cc3
2019-11-02 00:34:39,81d19391-c625-45be-8973-3e4744b1d440,1,1383dc2f-80bf-46d2-a294-b6adfeb4cbec,73bbd45d-c12d-49a9-b42d-a20444881cc3
2019-11-02 00:34:39,ed4b5a0c-6a6e-4158-8c8c-208d7b5bd39e,1,1383dc2f-80bf-46d2-a294-b6adfeb4cbec,7c7685c5-a4dd-4e57-bbd1-b45b4f567ee5
2019-11-02 00:35:43,8e73b580-b787-4e16-a86a-6833518d3587,1,1383dc2f-80bf-46d2-a294-b6adfeb4cbec,1c3a4fb0-30f1-4162-8e3b-c5ae8ad2f650
2019-11-02 00:35:43,ce87bb6e-6905-46c4-8ca3-a9c9fcbeaeba,1,1383dc2f-80bf-46d2-a294-b6adfeb4cbec,0168a794-f026-461f-a5e4-b6b9c7741f7a
2019-11-02 00:35:43,39e9109c-279f-42c4-8a98-fac4c5cce553,1,1383dc2f-80bf-46d2-a294-b6adfeb4cbec,1c3a4fb0-30f1-4162-8e3b-c5ae8ad2f650
2019-11-02 00:36:48,72b43105-87e1-484b-b398-587bf93e545d,1,1383dc2f-80bf-46d2-a294-b6adfeb4cbec,73bbd45d-c12d-49a9-b42d-a20444881cc3
2019-11-02 00:36:48,68210dc7-1b6d-4a4c-b2fb-b29da95c8c3e,1,1383dc2f-80bf-46d2-a294-b6adfeb4cbec,73bbd45d-c12d-49a9-b42d-a20444881cc3
2019-11-02 00:36:48,f5f20115-f806-4793-961a-352563b44b14,1,1383dc2f-80bf-46d2-a294-b6adfeb4cbec,28f2dbc8-3f68-4ede-8499-d910be2b886a
2019-11-02 00:37:52,e0acd03b-e03d-482d-8b62-1a3860a20f90,1,1383dc2f-80bf-46d2-a294-b6adfeb4cbec,af9c9105-c1b1-4413-9b45-fc1de8158842
2019-11-02 00:37:52,eb76d8ea-3e09-4d4b-a2f5-160a9994bc8f,1,1383dc2f-80bf-46d2-a294-b6adfeb4cbec,b0c67b60-0cf9-44f5-9dd4-795d8cbd8dd9
2019-11-02 00:37:52,9ef90145-3d77-4885-8e22-63df33d011ea,1,1383dc2f-80bf-46d2-a294-b6adfeb4cbec,b0c67b60-0cf9-44f5-9dd4-795d8cbd8dd9
2019-11-02 00:38:56,9576ce7b-f37f-4fb8-b32d-2f97ed7853ae,1,1383dc2f-80bf-46d2-a294-b6adfeb4cbec,d070c573-46e2-4760-9603-0124c1e9483d
2019-11-02 00:38:56,c5165597-d515-4ebf-a3c5-d682ca4a581d,1,1383dc2f-80bf-46d2-a294-b6adfeb4cbec,7b1306bf-bb83-433e-95a6-fddb5cdaaa39
2019-11-02 00:38:56,c3de0861-6b34-431f-a17f-847150f28c0a,1,1383dc2f-80bf-46d2-a294-b6adfeb4cbec,d070c573-46e2-4760-9603-0124c1e9483d
2019-11-02 00:41:54,a141389e-e804-4728-9afc-39e64856b459,1,1383dc2f-80bf-46d2-a294-b6adfeb4cbec,5e68f4da-b45d-4111-9347-95b34964637f
2019-11-02 00:44:05,005d2de1-95dc-47ab-b11a-a819eb5e12f0,1,1383dc2f-80bf-46d2-a294-b6adfeb4cbec,fe884641-c823-4b6e-9e7c-edd75e9c8bcb
2019-11-02 00:44:43,e3a505c8-76c2-4da0-a120-89b32d555c39,1,1383dc2f-80bf-46d2-a294-b6adfeb4cbec,5e68f4da-b45d-4111-9347-95b34964637f
2019-11-02 00:45:56,95fb2f99-7cf7-4da1-9671-c7110372bccd,1,1383dc2f-80bf-46d2-a294-b6adfeb4cbec,eb3df129-e910-4327-9c82-56066dcf9010
2019-11-02 00:48:31,81d19391-c625-45be-8973-3e4744b1d440,1,1383dc2f-80bf-46d2-a294-b6adfeb4cbec,d070c573-46e2-4760-9603-0124c1e9483d
2019-11-02 00:48:52,eeae8f00-da2d-4625-8a72-3249c843fa22,1,1383dc2f-80bf-46d2-a294-b6adfeb4cbec,805ba59a-7329-4488-b2f4-a93c337d376f
2019-11-02 00:52:01,f873d12d-09a5-4fdc-b5f5-8cdae5900bbc,1,1383dc2f-80bf-46d2-a294-b6adfeb4cbec,95c349f2-c8f0-4c78-9699-4546752ff354
2019-11-02 00:57:54,d2013315-4f0b-4e2f-afdd-3792c377abb1,1,1383dc2f-80bf-46d2-a294-b6adfeb4cbec,eb3df129-e910-4327-9c82-56066dcf9010
2019-11-02 00:58:20,e4ac4a73-60d3-4c83-a2e2-d67b07e72a31,1,1383dc2f-80bf-46d2-a294-b6adfeb4cbec,b0c67b60-0cf9-44f5-9dd4-795d8cbd8dd9
2019-11-02 00:58:25,f873d12d-09a5-4fdc-b5f5-8cdae5900bbc,1,1383dc2f-80bf-46d2-a294-b6adfeb4cbec,630e6c05-969c-45ee-b0ef-f1e75ee62fca
2019-11-02 00:58:42,e3a505c8-76c2-4da0-a120-89b32d555c39,1,1383dc2f-80bf-46d2-a294-b6adfeb4cbec,41383d68-7d35-406b-9b31-549f61d00cb2
2019-11-02 01:00:03,005d2de1-95dc-47ab-b11a-a819eb5e12f0,1,1383dc2f-80bf-46d2-a294-b6adfeb4cbec,73bbd45d-c12d-49a9-b42d-a20444881cc3
2019-11-02 01:00:28,eb76d8ea-3e09-4d4b-a2f5-160a9994bc8f,1,1383dc2f-80bf-46d2-a294-b6adfeb4cbec,630e6c05-969c-45ee-b0ef-f1e75ee62fca
2019-11-02 01:01:42,95fb2f99-7cf7-4da1-9671-c7110372bccd,1,1383dc2f-80bf-46d2-a294-b6adfeb4cbec,b9920d0a-1218-4ae7-81d0-040adc25a32e
2019-11-02 01:01:53,eadd1b62-5f36-4c7d-8c91-727c5d2c53b6,1,1383dc2f-80bf-46d2-a294-b6adfeb4cbec,d070c573-46e2-4760-9603-0124c1e9483d
2019-11-02 01:03:57,81accfe9-baf4-4c44-9e0b-f5cd4ebd124e,1,1383dc2f-80bf-46d2-a294-b6adfeb4cbec,630e6c05-969c-45ee-b0ef-f1e75ee62fca
2019-11-02 01:04:59,a141389e-e804-4728-9afc-39e64856b459,1,1383dc2f-80bf-46d2-a294-b6adfeb4cbec,5e68f4da-b45d-4111-9347-95b34964637f
2019-11-02 01:05:00,e3a505c8-76c2-4da0-a120-89b32d555c39,1,1383dc2f-80bf-46d2-a294-b6adfeb4cbec,805ba59a-7329-4488-b2f4-a93c337d376f
2019-11-02 01:06:53,77dc8cb0-7e7a-4d6c-95ee-0271cdacc28d,1,1383dc2f-80bf-46d2-a294-b6adfeb4cbec,73bbd45d-c12d-49a9-b42d-a20444881cc3
2019-11-02 01:06:55,dbfcfab7-5469-447b-83d4-36faf76f5d88,1,1383dc2f-80bf-46d2-a294-b6adfeb4cbec,95c349f2-c8f0-4c78-9699-4546752ff354
2019-11-02 01:07:40,d2013315-4f0b-4e2f-afdd-3792c377abb1,1,1383dc2f-80bf-46d2-a294-b6adfeb4cbec,95c349f2-c8f0-4c78-9699-4546752ff354
2019-11-02 01:08:06,f873d12d-09a5-4fdc-b5f5-8cdae5900bbc,1,1383dc2f-80bf-46d2-a294-b6adfeb4cbec,95c349f2-c8f0-4c78-9699-4546752ff354
2019-11-02 01:08:52,95fb2f99-7cf7-4da1-9671-c7110372bccd,1,1383dc2f-80bf-46d2-a294-b6adfeb4cbec,b5764d29-9e9f-4eff-96c1-880f28870d96
2019-11-02 01:09:17,6e7a97f4-1184-4091-ac5c-466abc9184a8,1,1383dc2f-80bf-46d2-a294-b6adfeb4cbec,b0c67b60-0cf9-44f5-9dd4-795d8cbd8dd9
2019-11-02 01:09:48,494f61e0-dfe2-491d-9286-33947eb487e5,1,1383dc2f-80bf-46d2-a294-b6adfeb4cbec,630e6c05-969c-45ee-b0ef-f1e75ee62fca
2019-11-02 01:13:01,dbfcfab7-5469-447b-83d4-36faf76f5d88,1,1383dc2f-80bf-46d2-a294-b6adfeb4cbec,7a9bdc48-9771-49d9-9903-cdfb2ef80c93
2019-11-02 01:16:00,eadd1b62-5f36-4c7d-8c91-727c5d2c53b6,1,1383dc2f-80bf-46d2-a294-b6adfeb4cbec,41383d68-7d35-406b-9b31-549f61d00cb2
2019-11-02 01:16:32,eb76d8ea-3e09-4d4b-a2f5-160a9994bc8f,1,1383dc2f-80bf-46d2-a294-b6adfeb4cbec,eb3df129-e910-4327-9c82-56066dcf9010
2019-11-02 01:16:48,eeae8f00-da2d-4625-8a72-3249c843fa22,1,1383dc2f-80bf-46d2-a294-b6adfeb4cbec,b5764d29-9e9f-4eff-96c1-880f28870d96
2019-11-02 01:18:16,4d510d09-37d2-43c9-a82a-140ac80bd390,1,1383dc2f-80bf-46d2-a294-b6adfeb4cbec,805ba59a-7329-4488-b2f4-a93c337d376f
2019-11-02 01:19:11,6e7a97f4-1184-4091-ac5c-466abc9184a8,1,1383dc2f-80bf-46d2-a294-b6adfeb4cbec,7a9bdc48-9771-49d9-9903-cdfb2ef80c93
2019-11-02 01:20:35,dbfcfab7-5469-447b-83d4-36faf76f5d88,1,1383dc2f-80bf-46d2-a294-b6adfeb4cbec,7a9bdc48-9771-49d9-9903-cdfb2ef80c93
2019-11-02 01:25:55,81accfe9-baf4-4c44-9e0b-f5cd4ebd124e,1,1383dc2f-80bf-46d2-a294-b6adfeb4cbec,eb3df129-e910-4327-9c82-56066dcf9010
2019-11-02 01:30:34,f2cf0b2c-b245-40f9-9a63-ca917289dc23,1,1383dc2f-80bf-46d2-a294-b6adfeb4cbec,fe884641-c823-4b6e-9e7c-edd75e9c8bcb
2019-11-02 01:31:27,eb76d8ea-3e09-4d4b-a2f5-160a9994bc8f,1,1383dc2f-80bf-46d2-a294-b6adfeb4cbec,eb3df129-e910-4327-9c82-56066dcf9010
2019-11-02 01:32:11,4d510d09-37d2-43c9-a82a-140ac80bd390,1,1383dc2f-80bf-46d2-a294-b6adfeb4cbec,805ba59a-7329-4488-b2f4-a93c337d376f
2019-11-02 01:32:29,d2013315-4f0b-4e2f-afdd-3792c377abb1,1,1383dc2f-80bf-46d2-a294-b6adfeb4cbec,eb3df129-e910-4327-9c82-56066dcf9010
2019-11-02 01:34:36,81d19391-c625-45be-8973-3e4744b1d440,1,1383dc2f-80bf-46d2-a294-b6adfeb4cbec,d070c573-46e2-4760-9603-0124c1e9483d
2019-11-02 01:37:28,83e7ea1b-0049-49c1-b46a-9dfe3c8c7ec2,1,1383dc2f-80bf-46d2-a294-b6adfeb4cbec,630e6c05-969c-45ee-b0ef-f1e75ee62fca
2019-11-02 01:41:11,03d71c9f-4463-4aba-bf6f-4e6eda3081d0,1,1383dc2f-80bf-46d2-a294-b6adfeb4cbec,fe884641-c823-4b6e-9e7c-edd75e9c8bcb
2019-11-02 01:47:56,e4ac4a73-60d3-4c83-a2e2-d67b07e72a31,1,1383dc2f-80bf-46d2-a294-b6adfeb4cbec,d070c573-46e2-4760-9603-0124c1e9483d
2019-11-02 01:48:07,eb76d8ea-3e09-4d4b-a2f5-160a9994bc8f,1,1383dc2f-80bf-46d2-a294-b6adfeb4cbec,630e6c05-969c-45ee-b0ef-f1e75ee62fca
2019-11-02 01:48:16,d2013315-4f0b-4e2f-afdd-3792c377abb1,1,1383dc2f-80bf-46d2-a294-b6adfeb4cbec,eb3df129-e910-4327-9c82-56066dcf9010
2019-11-02 01:48:20,6e7a97f4-1184-4091-ac5c-466abc9184a8,1,1383dc2f-80bf-46d2-a294-b6adfeb4cbec,b0c67b60-0cf9-44f5-9dd4-795d8cbd8dd9
2019-11-02 01:49:03,eeae8f00-da2d-4625-8a72-3249c843fa22,1,1383dc2f-80bf-46d2-a294-b6adfeb4cbec,b0c67b60-0cf9-44f5-9dd4-795d8cbd8dd9
2019-11-02 01:49:09,03d71c9f-4463-4aba-bf6f-4e6eda3081d0,1,1383dc2f-80bf-46d2-a294-b6adfeb4cbec,630e6c05-969c-45ee-b0ef-f1e75ee62fca
2019-11-02 01:50:04,005d2de1-95dc-47ab-b11a-a819eb5e12f0,1,1383dc2f-80bf-46d2-a294-b6adfeb4cbec,73bbd45d-c12d-49a9-b42d-a20444881cc3
2019-11-02 01:55:00,6e7a97f4-1184-4091-ac5c-466abc9184a8,1,1383dc2f-80bf-46d2-a294-b6adfeb4cbec,b0c67b60-0cf9-44f5-9dd4-795d8cbd8dd9
2019-11-02 01:55:19,eadd1b62-5f36-4c7d-8c91-727c5d2c53b6,1,1383dc2f-80bf-46d2-a294-b6adfeb4cbec,7a9bdc48-9771-49d9-9903-cdfb2ef80c93
2019-11-01 23:53:57,b3c06da2-6278-4897-a4cc-f4eabcec58d7,1,eb3df129-e910-4327-9c82-56066dcf9010,fe884641-c823-4b6e-9e7c-edd75e9c8bcb
2019-11-02 00:23:23,e4ac4a73-60d3-4c83-a2e2-d67b07e72a31,1,eb3df129-e910-4327-9c82-56066dcf9010,5e68f4da-b45d-4111-9347-95b34964637f
2019-11-02 00:29:50,9dcbcab0-318d-4242-857c-223bdfebe735,1,eb3df129-e910-4327-9c82-56066dcf9010,fe884641-c823-4b6e-9e7c-edd75e9c8bcb
2019-11-02 00:30:53,95fb2f99-7cf7-4da1-9671-c7110372bccd,1,eb3df129-e910-4327-9c82-56066dcf9010,b5764d29-9e9f-4eff-96c1-880f28870d96
2019-11-02 00:31:59,f2cf0b2c-b245-40f9-9a63-ca917289dc23,1,eb3df129-e910-4327-9c82-56066dcf9010,fe884641-c823-4b6e-9e7c-edd75e9c8bcb
2019-11-02 00:32:23,81accfe9-baf4-4c44-9e0b-f5cd4ebd124e,1,eb3df129-e910-4327-9c82-56066dcf9010,eb3df129-e910-4327-9c82-56066dcf9010
2019-11-02 00:39:02,f2cf0b2c-b245-40f9-9a63-ca917289dc23,1,eb3df129-e910-4327-9c82-56066dcf9010,fe884641-c823-4b6e-9e7c-edd75e9c8bcb
2019-11-02 00:41:20,81accfe9-baf4-4c44-9e0b-f5cd4ebd124e,1,eb3df129-e910-4327-9c82-56066dcf9010,630e6c05-969c-45ee-b0ef-f1e75ee62fca
2019-11-02 00:41:22,9e8f4021-e663-4a53-a3e0-36b8fc3d5f98,1,eb3df129-e910-4327-9c82-56066dcf9010,95c349f2-c8f0-4c78-9699-4546752ff354
2019-11-02 00:42:01,d2013315-4f0b-4e2f-afdd-3792c377abb1,1,eb3df129-e910-4327-9c82-56066dcf9010,b0c67b60-0cf9-44f5-9dd4-795d8cbd8dd9
2019-11-02 00:42:58,ce3acc28-54eb-4653-af56-75a61c22a9c6,1,eb3df129-e910-4327-9c82-56066dcf9010,fe884641-c823-4b6e-9e7c-edd75e9c8bcb
2019-11-02 00:43:21,d2013315-4f0b-4e2f-afdd-3792c377abb1,1,eb3df129-e910-4327-9c82-56066dcf9010,b5764d29-9e9f-4eff-96c1-880f28870d96
2019-11-02 00:46:29,6e7a97f4-1184-4091-ac5c-466abc9184a8,1,eb3df129-e910-4327-9c82-56066dcf9010,b0c67b60-0cf9-44f5-9dd4-795d8cbd8dd9
2019-11-02 00:50:46,81accfe9-baf4-4c44-9e0b-f5cd4ebd124e,1,eb3df129-e910-4327-9c82-56066dcf9010,b9920d0a-1218-4ae7-81d0-040adc25a32e
2019-11-02 00:51:00,95fb2f99-7cf7-4da1-9671-c7110372bccd,1,eb3df129-e910-4327-9c82-56066dcf9010,b5764d29-9e9f-4eff-96c1-880f28870d96
2019-11-02 00:51:23,9dcbcab0-318d-4242-857c-223bdfebe735,1,eb3df129-e910-4327-9c82-56066dcf9010,5e68f4da-b45d-4111-9347-95b34964637f
2019-11-02 00:52:06,d2013315-4f0b-4e2f-afdd-3792c377abb1,1,eb3df129-e910-4327-9c82-56066dcf9010,95c349f2-c8f0-4c78-9699-4546752ff354
2019-11-02 00:55:16,6e7a97f4-1184-4091-ac5c-466abc9184a8,1,eb3df129-e910-4327-9c82-56066dcf9010,7a9bdc48-9771-49d9-9903-cdfb2ef80c93
2019-11-02 00:56:38,95fb2f99-7cf7-4da1-9671-c7110372bccd,1,eb3df129-e910-4327-9c82-56066dcf9010,1383dc2f-80bf-46d2-a294-b6adfeb4cbec
2019-11-02 00:56:43,b3c06da2-6278-4897-a4cc-f4eabcec58d7,1,eb3df129-e910-4327-9c82-56066dcf9010,1c3a4fb0-30f1-4162-8e3b-c5ae8ad2f650
2019-11-02 00:56:43,81accfe9-baf4-4c44-9e0b-f5cd4ebd124e,1,eb3df129-e910-4327-9c82-56066dcf9010,b9920d0a-1218-4ae7-81d0-040adc25a32e
2019-11-02 00:58:10,32434d8a-e527-4f3a-8b24-fce0818c3378,1,eb3df129-e910-4327-9c82-56066dcf9010,fe884641-c823-4b6e-9e7c-edd75e9c8bcb
2019-11-02 01:01:44,eb76d8ea-3e09-4d4b-a2f5-160a9994bc8f,1,eb3df129-e910-4327-9c82-56066dcf9010,630e6c05-969c-45ee-b0ef-f1e75ee62fca
2019-11-02 01:02:11,d2013315-4f0b-4e2f-afdd-3792c377abb1,1,eb3df129-e910-4327-9c82-56066dcf9010,1383dc2f-80bf-46d2-a294-b6adfeb4cbec
2019-11-02 01:03:58,6e7a97f4-1184-4091-ac5c-466abc9184a8,1,eb3df129-e910-4327-9c82-56066dcf9010,7a9bdc48-9771-49d9-9903-cdfb2ef80c93
2019-11-02 01:08:40,9dcbcab0-318d-4242-857c-223bdfebe735,1,eb3df129-e910-4327-9c82-56066dcf9010,c1ac9bba-a24e-40a3-9459-60a8f1079796
2019-11-02 01:09:37,9e8f4021-e663-4a53-a3e0-36b8fc3d5f98,1,eb3df129-e910-4327-9c82-56066dcf9010,95c349f2-c8f0-4c78-9699-4546752ff354
2019-11-02 01:10:09,81accfe9-baf4-4c44-9e0b-f5cd4ebd124e,1,eb3df129-e910-4327-9c82-56066dcf9010,b9920d0a-1218-4ae7-81d0-040adc25a32e
2019-11-02 01:10:13,eb76d8ea-3e09-4d4b-a2f5-160a9994bc8f,1,eb3df129-e910-4327-9c82-56066dcf9010,630e6c05-969c-45ee-b0ef-f1e75ee62fca
2019-11-02 01:13:36,6e7a97f4-1184-4091-ac5c-466abc9184a8,1,eb3df129-e910-4327-9c82-56066dcf9010,d070c573-46e2-4760-9603-0124c1e9483d
2019-11-02 01:14:04,81accfe9-baf4-4c44-9e0b-f5cd4ebd124e,1,eb3df129-e910-4327-9c82-56066dcf9010,b9920d0a-1218-4ae7-81d0-040adc25a32e
2019-11-02 01:14:32,6e7a97f4-1184-4091-ac5c-466abc9184a8,1,eb3df129-e910-4327-9c82-56066dcf9010,1383dc2f-80bf-46d2-a294-b6adfeb4cbec
2019-11-02 01:14:35,81accfe9-baf4-4c44-9e0b-f5cd4ebd124e,1,eb3df129-e910-4327-9c82-56066dcf9010,1383dc2f-80bf-46d2-a294-b6adfeb4cbec
2019-11-02 01:16:45,d2013315-4f0b-4e2f-afdd-3792c377abb1,1,eb3df129-e910-4327-9c82-56066dcf9010,95c349f2-c8f0-4c78-9699-4546752ff354
2019-11-02 01:16:47,eb76d8ea-3e09-4d4b-a2f5-160a9994bc8f,1,eb3df129-e910-4327-9c82-56066dcf9010,5e68f4da-b45d-4111-9347-95b34964637f
2019-11-02 01:24:54,f2cf0b2c-b245-40f9-9a63-ca917289dc23,1,eb3df129-e910-4327-9c82-56066dcf9010,fe884641-c823-4b6e-9e7c-edd75e9c8bcb
2019-11-02 01:25:29,f2cf0b2c-b245-40f9-9a63-ca917289dc23,1,eb3df129-e910-4327-9c82-56066dcf9010,1383dc2f-80bf-46d2-a294-b6adfeb4cbec
2019-11-02 01:27:02,81accfe9-baf4-4c44-9e0b-f5cd4ebd124e,1,eb3df129-e910-4327-9c82-56066dcf9010,b9920d0a-1218-4ae7-81d0-040adc25a32e
2019-11-02 01:27:03,d2013315-4f0b-4e2f-afdd-3792c377abb1,1,eb3df129-e910-4327-9c82-56066dcf9010,1383dc2f-80bf-46d2-a294-b6adfeb4cbec
2019-11-02 01:31:12,9e8f4021-e663-4a53-a3e0-36b8fc3d5f98,1,eb3df129-e910-4327-9c82-56066dcf9010,95c349f2-c8f0-4c78-9699-4546752ff354
2019-11-02 01:31:41,81accfe9-baf4-4c44-9e0b-f5cd4ebd124e,1,eb3df129-e910-4327-9c82-56066dcf9010,b9920d0a-1218-4ae7-81d0-040adc25a32e
2019-11-02 01:31:42,eb76d8ea-3e09-4d4b-a2f5-160a9994bc8f,1,eb3df129-e910-4327-9c82-56066dcf9010,c1ac9bba-a24e-40a3-9459-60a8f1079796
2019-11-02 01:35:14,95fb2f99-7cf7-4da1-9671-c7110372bccd,1,eb3df129-e910-4327-9c82-56066dcf9010,b5764d29-9e9f-4eff-96c1-880f28870d96
2019-11-02 01:38:34,9dcbcab0-318d-4242-857c-223bdfebe735,1,eb3df129-e910-4327-9c82-56066dcf9010,c1ac9bba-a24e-40a3-9459-60a8f1079796
2019-11-02 01:42:23,d2013315-4f0b-4e2f-afdd-3792c377abb1,1,eb3df129-e910-4327-9c82-56066dcf9010,95c349f2-c8f0-4c78-9699-4546752ff354
2019-11-02 01:42:50,eb76d8ea-3e09-4d4b-a2f5-160a9994bc8f,1,eb3df129-e910-4327-9c82-56066dcf9010,c1ac9bba-a24e-40a3-9459-60a8f1079796
2019-11-02 01:43:56,d2013315-4f0b-4e2f-afdd-3792c377abb1,1,eb3df129-e910-4327-9c82-56066dcf9010,1383dc2f-80bf-46d2-a294-b6adfeb4cbec
2019-11-02 01:48:43,81accfe9-baf4-4c44-9e0b-f5cd4ebd124e,1,eb3df129-e910-4327-9c82-56066dcf9010,b9920d0a-1218-4ae7-81d0-040adc25a32e
2019-11-02 01:49:16,d2013315-4f0b-4e2f-afdd-3792c377abb1,1,eb3df129-e910-4327-9c82-56066dcf9010,1383dc2f-80bf-46d2-a294-b6adfeb4cbec
2019-11-02 01:50:06,32434d8a-e527-4f3a-8b24-fce0818c3378,1,eb3df129-e910-4327-9c82-56066dcf9010,d070c573-46e2-4760-9603-0124c1e9483d
2019-11-02 01:55:26,9dcbcab0-318d-4242-857c-223bdfebe735,1,eb3df129-e910-4327-9c82-56066dcf9010,95c349f2-c8f0-4c78-9699-4546752ff354
2019-11-02 01:55:56,9e8f4021-e663-4a53-a3e0-36b8fc3d5f98,1,eb3df129-e910-4327-9c82-56066dcf9010,95c349f2-c8f0-4c78-9699-4546752ff354
2019-11-01 23:55:48,d91fa7fe-427b-4696-a1cc-9765204faf52,1,41383d68-7d35-406b-9b31-549f61d00cb2,95c349f2-c8f0-4c78-9699-4546752ff354
2019-11-02 00:16:21,eadd1b62-5f36-4c7d-8c91-727c5d2c53b6,1,41383d68-7d35-406b-9b31-549f61d00cb2,d070c573-46e2-4760-9603-0124c1e9483d
2019-11-02 00:18:09,83e7ea1b-0049-49c1-b46a-9dfe3c8c7ec2,1,41383d68-7d35-406b-9b31-549f61d00cb2,5e68f4da-b45d-4111-9347-95b34964637f
2019-11-02 00:24:16,4ebae2a3-dd01-481e-a288-8a8cfc02b692,1,41383d68-7d35-406b-9b31-549f61d00cb2,d070c573-46e2-4760-9603-0124c1e9483d
2019-11-02 00:24:18,eadd1b62-5f36-4c7d-8c91-727c5d2c53b6,1,41383d68-7d35-406b-9b31-549f61d00cb2,d070c573-46e2-4760-9603-0124c1e9483d
2019-11-02 00:37:25,0f601f78-5ed5-454c-badd-b6b73f88055a,1,41383d68-7d35-406b-9b31-549f61d00cb2,1c3a4fb0-30f1-4162-8e3b-c5ae8ad2f650
2019-11-02 00:38:41,005d2de1-95dc-47ab-b11a-a819eb5e12f0,1,41383d68-7d35-406b-9b31-549f61d00cb2,fe884641-c823-4b6e-9e7c-edd75e9c8bcb
2019-11-02 00:38:45,77dc8cb0-7e7a-4d6c-95ee-0271cdacc28d,1,41383d68-7d35-406b-9b31-549f61d00cb2,5e68f4da-b45d-4111-9347-95b34964637f
2019-11-02 00:39:27,e3a505c8-76c2-4da0-a120-89b32d555c39,1,41383d68-7d35-406b-9b31-549f61d00cb2,5e68f4da-b45d-4111-9347-95b34964637f
2019-11-02 00:46:52,83e7ea1b-0049-49c1-b46a-9dfe3c8c7ec2,1,41383d68-7d35-406b-9b31-549f61d00cb2,630e6c05-969c-45ee-b0ef-f1e75ee62fca
2019-11-02 00:46:56,a141389e-e804-4728-9afc-39e64856b459,1,41383d68-7d35-406b-9b31-549f61d00cb2,b9920d0a-1218-4ae7-81d0-040adc25a32e
2019-11-02 00:46:57,e3a505c8-76c2-4da0-a120-89b32d555c39,1,41383d68-7d35-406b-9b31-549f61d00cb2,5e68f4da-b45d-4111-9347-95b34964637f
2019-11-02 00:53:22,005d2de1-95dc-47ab-b11a-a819eb5e12f0,1,41383d68-7d35-406b-9b31-549f61d00cb2,73bbd45d-c12d-49a9-b42d-a20444881cc3
2019-11-02 00:53:23,e3a505c8-76c2-4da0-a120-89b32d555c39,1,41383d68-7d35-406b-9b31-549f61d00cb2,5e68f4da-b45d-4111-9347-95b34964637f
2019-11-02 00:56:31,005d2de1-95dc-47ab-b11a-a819eb5e12f0,1,41383d68-7d35-406b-9b31-549f61d00cb2,1383dc2f-80bf-46d2-a294-b6adfeb4cbec
2019-11-02 00:56:32,eadd1b62-5f36-4c7d-8c91-727c5d2c53b6,1,41383d68-7d35-406b-9b31-549f61d00cb2,7a9bdc48-9771-49d9-9903-cdfb2ef80c93
2019-11-02 00:58:57,77dc8cb0-7e7a-4d6c-95ee-0271cdacc28d,1,41383d68-7d35-406b-9b31-549f61d00cb2,73bbd45d-c12d-49a9-b42d-a20444881cc3
2019-11-02 00:58:57,e3a505c8-76c2-4da0-a120-89b32d555c39,1,41383d68-7d35-406b-9b31-549f61d00cb2,5e68f4da-b45d-4111-9347-95b34964637f
2019-11-02 00:59:42,a141389e-e804-4728-9afc-39e64856b459,1,41383d68-7d35-406b-9b31-549f61d00cb2,b9920d0a-1218-4ae7-81d0-040adc25a32e
2019-11-02 00:59:43,e3a505c8-76c2-4da0-a120-89b32d555c39,1,41383d68-7d35-406b-9b31-549f61d00cb2,b5764d29-9e9f-4eff-96c1-880f28870d96
2019-11-02 01:00:31,07c0ff59-cc23-47ed-8c69-df032e8313d8,1,41383d68-7d35-406b-9b31-549f61d00cb2,805ba59a-7329-4488-b2f4-a93c337d376f
2019-11-02 01:16:14,eadd1b62-5f36-4c7d-8c91-727c5d2c53b6,1,41383d68-7d35-406b-9b31-549f61d00cb2,d070c573-46e2-4760-9603-0124c1e9483d
2019-11-02 01:24:56,4ebae2a3-dd01-481e-a288-8a8cfc02b692,1,41383d68-7d35-406b-9b31-549f61d00cb2,5e68f4da-b45d-4111-9347-95b34964637f
2019-11-02 01:26:21,a8e0592f-747a-4ad4-bce4-d9390eebe649,1,41383d68-7d35-406b-9b31-549f61d00cb2,b9920d0a-1218-4ae7-81d0-040adc25a32e
2019-11-02 01:30:48,4ebae2a3-dd01-481e-a288-8a8cfc02b692,1,41383d68-7d35-406b-9b31-549f61d00cb2,d070c573-46e2-4760-9603-0124c1e9483d
2019-11-02 01:32:14,83e7ea1b-0049-49c1-b46a-9dfe3c8c7ec2,1,41383d68-7d35-406b-9b31-549f61d00cb2,1383dc2f-80bf-46d2-a294-b6adfeb4cbec
2019-11-02 01:39:55,e3a505c8-76c2-4da0-a120-89b32d555c39,1,41383d68-7d35-406b-9b31-549f61d00cb2,5e68f4da-b45d-4111-9347-95b34964637f
2019-11-02 01:40:33,eadd1b62-5f36-4c7d-8c91-727c5d2c53b6,1,41383d68-7d35-406b-9b31-549f61d00cb2,7a9bdc48-9771-49d9-9903-cdfb2ef80c93
2019-11-02 01:42:03,eb76d8ea-3e09-4d4b-a2f5-160a9994bc8f,1,41383d68-7d35-406b-9b31-549f61d00cb2,eb3df129-e910-4327-9c82-56066dcf9010
2019-11-02 01:42:03,4ebae2a3-dd01-481e-a288-8a8cfc02b692,1,41383d68-7d35-406b-9b31-549f61d00cb2,d070c573-46e2-4760-9603-0124c1e9483d
2019-11-02 01:49:13,eadd1b62-5f36-4c7d-8c91-727c5d2c53b6,1,41383d68-7d35-406b-9b31-549f61d00cb2,b0c67b60-0cf9-44f5-9dd4-795d8cbd8dd9
2019-11-02 01:49:43,4ebae2a3-dd01-481e-a288-8a8cfc02b692,1,41383d68-7d35-406b-9b31-549f61d00cb2,5e68f4da-b45d-4111-9347-95b34964637f
2019-11-02 01:49:44,eadd1b62-5f36-4c7d-8c91-727c5d2c53b6,1,41383d68-7d35-406b-9b31-549f61d00cb2,b0c67b60-0cf9-44f5-9dd4-795d8cbd8dd9
2019-11-02 01:50:40,a141389e-e804-4728-9afc-39e64856b459,1,41383d68-7d35-406b-9b31-549f61d00cb2,5e68f4da-b45d-4111-9347-95b34964637f
2019-11-02 00:14:30,ad102ceb-bba8-455e-b0a1-14690989356e,1,1c3a4fb0-30f1-4162-8e3b-c5ae8ad2f650,7a9bdc48-9771-49d9-9903-cdfb2ef80c93
2019-11-02 00:16:36,e3a505c8-76c2-4da0-a120-89b32d555c39,1,1c3a4fb0-30f1-4162-8e3b-c5ae8ad2f650,5e68f4da-b45d-4111-9347-95b34964637f
2019-11-02 00:19:32,3f9c4f0a-3f0d-48ae-a9b3-f1c5ad666c38,1,1c3a4fb0-30f1-4162-8e3b-c5ae8ad2f650,d070c573-46e2-4760-9603-0124c1e9483d
2019-11-02 00:23:57,4ebae2a3-dd01-481e-a288-8a8cfc02b692,1,1c3a4fb0-30f1-4162-8e3b-c5ae8ad2f650,41383d68-7d35-406b-9b31-549f61d00cb2
2019-11-02 00:24:57,9a31ba79-4cc5-4f0a-9552-46d46056c484,1,1c3a4fb0-30f1-4162-8e3b-c5ae8ad2f650,7a9bdc48-9771-49d9-9903-cdfb2ef80c93
2019-11-02 00:25:11,4ebae2a3-dd01-481e-a288-8a8cfc02b692,1,1c3a4fb0-30f1-4162-8e3b-c5ae8ad2f650,1383dc2f-80bf-46d2-a294-b6adfeb4cbec
2019-11-02 00:26:51,e4ac4a73-60d3-4c83-a2e2-d67b07e72a31,1,1c3a4fb0-30f1-4162-8e3b-c5ae8ad2f650,5e68f4da-b45d-4111-9347-95b34964637f
2019-11-02 00:31:44,f2cf0b2c-b245-40f9-9a63-ca917289dc23,1,1c3a4fb0-30f1-4162-8e3b-c5ae8ad2f650,eb3df129-e910-4327-9c82-56066dcf9010
2019-11-02 00:36:41,83e7ea1b-0049-49c1-b46a-9dfe3c8c7ec2,1,1c3a4fb0-30f1-4162-8e3b-c5ae8ad2f650,630e6c05-969c-45ee-b0ef-f1e75ee62fca
2019-11-02 00:41:39,8e73b580-b787-4e16-a86a-6833518d3587,1,1c3a4fb0-30f1-4162-8e3b-c5ae8ad2f650,5e68f4da-b45d-4111-9347-95b34964637f
2019-11-02 00:46:57,0f601f78-5ed5-454c-badd-b6b73f88055a,1,1c3a4fb0-30f1-4162-8e3b-c5ae8ad2f650,73bbd45d-c12d-49a9-b42d-a20444881cc3
2019-11-02 00:55:57,95fb2f99-7cf7-4da1-9671-c7110372bccd,1,1c3a4fb0-30f1-4162-8e3b-c5ae8ad2f650,b5764d29-9e9f-4eff-96c1-880f28870d96
2019-11-02 00:55:58,b3c06da2-6278-4897-a4cc-f4eabcec58d7,1,1c3a4fb0-30f1-4162-8e3b-c5ae8ad2f650,b9920d0a-1218-4ae7-81d0-040adc25a32e
2019-11-02 01:19:07,9576ce7b-f37f-4fb8-b32d-2f97ed7853ae,1,1c3a4fb0-30f1-4162-8e3b-c5ae8ad2f650,b5764d29-9e9f-4eff-96c1-880f28870d96
2019-11-02 01:19:21,81d19391-c625-45be-8973-3e4744b1d440,1,1c3a4fb0-30f1-4162-8e3b-c5ae8ad2f650,d070c573-46e2-4760-9603-0124c1e9483d
2019-11-02 01:27:14,83e7ea1b-0049-49c1-b46a-9dfe3c8c7ec2,1,1c3a4fb0-30f1-4162-8e3b-c5ae8ad2f650,73bbd45d-c12d-49a9-b42d-a20444881cc3
2019-11-02 01:44:58,95fb2f99-7cf7-4da1-9671-c7110372bccd,1,1c3a4fb0-30f1-4162-8e3b-c5ae8ad2f650,b5764d29-9e9f-4eff-96c1-880f28870d96
2019-11-02 01:50:09,83e7ea1b-0049-49c1-b46a-9dfe3c8c7ec2,1,1c3a4fb0-30f1-4162-8e3b-c5ae8ad2f650,41383d68-7d35-406b-9b31-549f61d00cb2
2019-11-02 01:50:23,b578fca1-13b7-4876-82c6-923cc3b58158,1,1c3a4fb0-30f1-4162-8e3b-c5ae8ad2f650,5e68f4da-b45d-4111-9347-95b34964637f
2019-11-02 00:04:19,494f61e0-dfe2-491d-9286-33947eb487e5,1,7a9bdc48-9771-49d9-9903-cdfb2ef80c93,b5764d29-9e9f-4eff-96c1-880f28870d96
2019-11-02 00:10:24,ed61479a-7e53-4ebd-991f-cb2654f101fb,1,7a9bdc48-9771-49d9-9903-cdfb2ef80c93,c1ac9bba-a24e-40a3-9459-60a8f1079796
2019-11-02 00:22:19,4ebae2a3-dd01-481e-a288-8a8cfc02b692,1,7a9bdc48-9771-49d9-9903-cdfb2ef80c93,1c3a4fb0-30f1-4162-8e3b-c5ae8ad2f650
2019-11-02 00:23:13,a141389e-e804-4728-9afc-39e64856b459,1,7a9bdc48-9771-49d9-9903-cdfb2ef80c93,5e68f4da-b45d-4111-9347-95b34964637f
2019-11-02 00:23:13,6e7a97f4-1184-4091-ac5c-466abc9184a8,1,7a9bdc48-9771-49d9-9903-cdfb2ef80c93,b0c67b60-0cf9-44f5-9dd4-795d8cbd8dd9
2019-11-02 00:31:34,005d2de1-95dc-47ab-b11a-a819eb5e12f0,1,7a9bdc48-9771-49d9-9903-cdfb2ef80c93,73bbd45d-c12d-49a9-b42d-a20444881cc3
2019-11-02 00:35:05,6e7a97f4-1184-4091-ac5c-466abc9184a8,1,7a9bdc48-9771-49d9-9903-cdfb2ef80c93,c1ac9bba-a24e-40a3-9459-60a8f1079796
2019-11-02 00:35:09,eeae8f00-da2d-4625-8a72-3249c843fa22,1,7a9bdc48-9771-49d9-9903-cdfb2ef80c93,b9920d0a-1218-4ae7-81d0-040adc25a32e
2019-11-02 00:35:09,005d2de1-95dc-47ab-b11a-a819eb5e12f0,1,7a9bdc48-9771-49d9-9903-cdfb2ef80c93,b0c67b60-0cf9-44f5-9dd4-795d8cbd8dd9
2019-11-02 00:53:02,eadd1b62-5f36-4c7d-8c91-727c5d2c53b6,1,7a9bdc48-9771-49d9-9903-cdfb2ef80c93,b0c67b60-0cf9-44f5-9dd4-795d8cbd8dd9
2019-11-02 00:53:33,eadd1b62-5f36-4c7d-8c91-727c5d2c53b6,1,7a9bdc48-9771-49d9-9903-cdfb2ef80c93,b0c67b60-0cf9-44f5-9dd4-795d8cbd8dd9
2019-11-02 00:56:43,dbfcfab7-5469-447b-83d4-36faf76f5d88,1,7a9bdc48-9771-49d9-9903-cdfb2ef80c93,c1ac9bba-a24e-40a3-9459-60a8f1079796
2019-11-02 00:59:09,6966ebd6-272c-4c15-8599-f8081b6b637d,1,7a9bdc48-9771-49d9-9903-cdfb2ef80c93,fe884641-c823-4b6e-9e7c-edd75e9c8bcb
2019-11-02 00:59:10,eadd1b62-5f36-4c7d-8c91-727c5d2c53b6,1,7a9bdc48-9771-49d9-9903-cdfb2ef80c93,1383dc2f-80bf-46d2-a294-b6adfeb4cbec
2019-11-02 01:03:12,6e7a97f4-1184-4091-ac5c-466abc9184a8,1,7a9bdc48-9771-49d9-9903-cdfb2ef80c93,d070c573-46e2-4760-9603-0124c1e9483d
2019-11-02 01:03:13,dbfcfab7-5469-447b-83d4-36faf76f5d88,1,7a9bdc48-9771-49d9-9903-cdfb2ef80c93,1383dc2f-80bf-46d2-a294-b6adfeb4cbec
2019-11-02 01:07:40,6e7a97f4-1184-4091-ac5c-466abc9184a8,1,7a9bdc48-9771-49d9-9903-cdfb2ef80c93,1383dc2f-80bf-46d2-a294-b6adfeb4cbec
2019-11-02 01:07:45,a141389e-e804-4728-9afc-39e64856b459,1,7a9bdc48-9771-49d9-9903-cdfb2ef80c93,b9920d0a-1218-4ae7-81d0-040adc25a32e
2019-11-02 01:07:46,dbfcfab7-5469-447b-83d4-36faf76f5d88,1,7a9bdc48-9771-49d9-9903-cdfb2ef80c93,c1ac9bba-a24e-40a3-9459-60a8f1079796
2019-11-02 01:13:12,a141389e-e804-4728-9afc-39e64856b459,1,7a9bdc48-9771-49d9-9903-cdfb2ef80c93,b9920d0a-1218-4ae7-81d0-040adc25a32e
2019-11-02 01:13:21,dbfcfab7-5469-447b-83d4-36faf76f5d88,1,7a9bdc48-9771-49d9-9903-cdfb2ef80c93,c1ac9bba-a24e-40a3-9459-60a8f1079796
2019-11-02 01:14:53,ad102ceb-bba8-455e-b0a1-14690989356e,1,7a9bdc48-9771-49d9-9903-cdfb2ef80c93,630e6c05-969c-45ee-b0ef-f1e75ee62fca
2019-11-02 01:16:39,4d510d09-37d2-43c9-a82a-140ac80bd390,1,7a9bdc48-9771-49d9-9903-cdfb2ef80c93,1383dc2f-80bf-46d2-a294-b6adfeb4cbec
2019-11-02 01:21:34,eadd1b62-5f36-4c7d-8c91-727c5d2c53b6,1,7a9bdc48-9771-49d9-9903-cdfb2ef80c93,d070c573-46e2-4760-9603-0124c1e9483d
2019-11-02 01:27:35,6e7a97f4-1184-4091-ac5c-466abc9184a8,1,7a9bdc48-9771-49d9-9903-cdfb2ef80c93,d070c573-46e2-4760-9603-0124c1e9483d
2019-11-02 01:28:17,a141389e-e804-4728-9afc-39e64856b459,1,7a9bdc48-9771-49d9-9903-cdfb2ef80c93,b9920d0a-1218-4ae7-81d0-040adc25a32e
2019-11-02 01:28:19,eadd1b62-5f36-4c7d-8c91-727c5d2c53b6,1,7a9bdc48-9771-49d9-9903-cdfb2ef80c93,d070c573-46e2-4760-9603-0124c1e9483d
2019-11-02 01:32:05,dbfcfab7-5469-447b-83d4-36faf76f5d88,1,7a9bdc48-9771-49d9-9903-cdfb2ef80c93,c1ac9bba-a24e-40a3-9459-60a8f1079796
2019-11-02 01:36:03,6e7a97f4-1184-4091-ac5c-466abc9184a8,1,7a9bdc48-9771-49d9-9903-cdfb2ef80c93,b0c67b60-0cf9-44f5-9dd4-795d8cbd8dd9
2019-11-02 01:37:44,a141389e-e804-4728-9afc-39e64856b459,1,7a9bdc48-9771-49d9-9903-cdfb2ef80c93,805ba59a-7329-4488-b2f4-a93c337d376f
2019-11-02 01:37:46,dbfcfab7-5469-447b-83d4-36faf76f5d88,1,7a9bdc48-9771-49d9-9903-cdfb2ef80c93,c1ac9bba-a24e-40a3-9459-60a8f1079796
2019-11-02 01:48:55,4d510d09-37d2-43c9-a82a-140ac80bd390,1,7a9bdc48-9771-49d9-9903-cdfb2ef80c93,805ba59a-7329-4488-b2f4-a93c337d376f
2019-11-02 01:48:57,eadd1b62-5f36-4c7d-8c91-727c5d2c53b6,1,7a9bdc48-9771-49d9-9903-cdfb2ef80c93,41383d68-7d35-406b-9b31-549f61d00cb2
2019-11-02 01:50:10,a141389e-e804-4728-9afc-39e64856b459,1,7a9bdc48-9771-49d9-9903-cdfb2ef80c93,b9920d0a-1218-4ae7-81d0-040adc25a32e
2019-11-02 01:54:48,eadd1b62-5f36-4c7d-8c91-727c5d2c53b6,1,7a9bdc48-9771-49d9-9903-cdfb2ef80c93,1383dc2f-80bf-46d2-a294-b6adfeb4cbec
2019-11-02 01:54:49,dbfcfab7-5469-447b-83d4-36faf76f5d88,1,7a9bdc48-9771-49d9-9903-cdfb2ef80c93,c1ac9bba-a24e-40a3-9459-60a8f1079796
2019-11-01 23:50:13,07c0ff59-cc23-47ed-8c69-df032e8313d8,1,fe884641-c823-4b6e-9e7c-edd75e9c8bcb,41383d68-7d35-406b-9b31-549f61d00cb2
2019-11-02 00:05:00,dbfcfab7-5469-447b-83d4-36faf76f5d88,1,fe884641-c823-4b6e-9e7c-edd75e9c8bcb,c1ac9bba-a24e-40a3-9459-60a8f1079796
2019-11-02 00:19:42,b3c06da2-6278-4897-a4cc-f4eabcec58d7,1,fe884641-c823-4b6e-9e7c-edd75e9c8bcb,1c3a4fb0-30f1-4162-8e3b-c5ae8ad2f650
2019-11-02 00:29:36,95fb2f99-7cf7-4da1-9671-c7110372bccd,1,fe884641-c823-4b6e-9e7c-edd75e9c8bcb,eb3df129-e910-4327-9c82-56066dcf9010
2019-11-02 00:35:39,9dcbcab0-318d-4242-857c-223bdfebe735,1,fe884641-c823-4b6e-9e7c-edd75e9c8bcb,c1ac9bba-a24e-40a3-9459-60a8f1079796
2019-11-02 00:38:22,f2cf0b2c-b245-40f9-9a63-ca917289dc23,1,fe884641-c823-4b6e-9e7c-edd75e9c8bcb,eb3df129-e910-4327-9c82-56066dcf9010
2019-11-02 00:39:01,005d2de1-95dc-47ab-b11a-a819eb5e12f0,1,fe884641-c823-4b6e-9e7c-edd75e9c8bcb,1383dc2f-80bf-46d2-a294-b6adfeb4cbec
2019-11-02 00:39:02,03d71c9f-4463-4aba-bf6f-4e6eda3081d0,1,fe884641-c823-4b6e-9e7c-edd75e9c8bcb,630e6c05-969c-45ee-b0ef-f1e75ee62fca
2019-11-02 00:51:24,005d2de1-95dc-47ab-b11a-a819eb5e12f0,1,fe884641-c823-4b6e-9e7c-edd75e9c8bcb,73bbd45d-c12d-49a9-b42d-a20444881cc3
2019-11-02 01:10:43,6966ebd6-272c-4c15-8599-f8081b6b637d,1,fe884641-c823-4b6e-9e7c-edd75e9c8bcb,630e6c05-969c-45ee-b0ef-f1e75ee62fca
2019-11-02 01:10:51,32434d8a-e527-4f3a-8b24-fce0818c3378,1,fe884641-c823-4b6e-9e7c-edd75e9c8bcb,eb3df129-e910-4327-9c82-56066dcf9010
2019-11-02 01:11:35,ce3acc28-54eb-4653-af56-75a61c22a9c6,1,fe884641-c823-4b6e-9e7c-edd75e9c8bcb,95c349f2-c8f0-4c78-9699-4546752ff354
2019-11-02 01:22:06,f2cf0b2c-b245-40f9-9a63-ca917289dc23,1,fe884641-c823-4b6e-9e7c-edd75e9c8bcb,eb3df129-e910-4327-9c82-56066dcf9010
2019-11-02 01:25:14,f2cf0b2c-b245-40f9-9a63-ca917289dc23,1,fe884641-c823-4b6e-9e7c-edd75e9c8bcb,eb3df129-e910-4327-9c82-56066dcf9010
2019-11-02 01:25:14,03d71c9f-4463-4aba-bf6f-4e6eda3081d0,1,fe884641-c823-4b6e-9e7c-edd75e9c8bcb,805ba59a-7329-4488-b2f4-a93c337d376f
2019-11-02 01:31:00,81accfe9-baf4-4c44-9e0b-f5cd4ebd124e,1,fe884641-c823-4b6e-9e7c-edd75e9c8bcb,eb3df129-e910-4327-9c82-56066dcf9010
2019-11-02 01:34:21,03d71c9f-4463-4aba-bf6f-4e6eda3081d0,1,fe884641-c823-4b6e-9e7c-edd75e9c8bcb,1383dc2f-80bf-46d2-a294-b6adfeb4cbec
2019-11-02 01:43:23,03d71c9f-4463-4aba-bf6f-4e6eda3081d0,1,fe884641-c823-4b6e-9e7c-edd75e9c8bcb,805ba59a-7329-4488-b2f4-a93c337d376f
2019-11-02 01:44:09,03d71c9f-4463-4aba-bf6f-4e6eda3081d0,1,fe884641-c823-4b6e-9e7c-edd75e9c8bcb,1383dc2f-80bf-46d2-a294-b6adfeb4cbec
2019-11-02 01:50:22,f2cf0b2c-b245-40f9-9a63-ca917289dc23,1,fe884641-c823-4b6e-9e7c-edd75e9c8bcb,eb3df129-e910-4327-9c82-56066dcf9010
2019-11-02 00:22:42,a141389e-e804-4728-9afc-39e64856b459,1,b0c67b60-0cf9-44f5-9dd4-795d8cbd8dd9,805ba59a-7329-4488-b2f4-a93c337d376f
2019-11-02 00:26:35,e4ac4a73-60d3-4c83-a2e2-d67b07e72a31,1,b0c67b60-0cf9-44f5-9dd4-795d8cbd8dd9,1c3a4fb0-30f1-4162-8e3b-c5ae8ad2f650
2019-11-02 00:34:49,6e7a97f4-1184-4091-ac5c-466abc9184a8,1,b0c67b60-0cf9-44f5-9dd4-795d8cbd8dd9,7a9bdc48-9771-49d9-9903-cdfb2ef80c93
2019-11-02 00:35:22,f873d12d-09a5-4fdc-b5f5-8cdae5900bbc,1,b0c67b60-0cf9-44f5-9dd4-795d8cbd8dd9,630e6c05-969c-45ee-b0ef-f1e75ee62fca
2019-11-02 00:35:25,005d2de1-95dc-47ab-b11a-a819eb5e12f0,1,b0c67b60-0cf9-44f5-9dd4-795d8cbd8dd9,41383d68-7d35-406b-9b31-549f61d00cb2
2019-11-02 00:35:33,eadd1b62-5f36-4c7d-8c91-727c5d2c53b6,1,b0c67b60-0cf9-44f5-9dd4-795d8cbd8dd9,d070c573-46e2-4760-9603-0124c1e9483d
2019-11-02 00:41:48,eeae8f00-da2d-4625-8a72-3249c843fa22,1,b0c67b60-0cf9-44f5-9dd4-795d8cbd8dd9,b5764d29-9e9f-4eff-96c1-880f28870d96
2019-11-02 00:42:16,81d19391-c625-45be-8973-3e4744b1d440,1,b0c67b60-0cf9-44f5-9dd4-795d8cbd8dd9,d070c573-46e2-4760-9603-0124c1e9483d
2019-11-02 00:42:16,d2013315-4f0b-4e2f-afdd-3792c377abb1,1,b0c67b60-0cf9-44f5-9dd4-795d8cbd8dd9,b5764d29-9e9f-4eff-96c1-880f28870d96
2019-11-02 00:42:53,eeae8f00-da2d-4625-8a72-3249c843fa22,1,b0c67b60-0cf9-44f5-9dd4-795d8cbd8dd9,b5764d29-9e9f-4eff-96c1-880f28870d96
2019-11-02 00:42:58,e4ac4a73-60d3-4c83-a2e2-d67b07e72a31,1,b0c67b60-0cf9-44f5-9dd4-795d8cbd8dd9,d070c573-46e2-4760-9603-0124c1e9483d
2019-11-02 00:43:01,6e7a97f4-1184-4091-ac5c-466abc9184a8,1,b0c67b60-0cf9-44f5-9dd4-795d8cbd8dd9,c1ac9bba-a24e-40a3-9459-60a8f1079796
2019-11-02 00:43:41,81d19391-c625-45be-8973-3e4744b1d440,1,b0c67b60-0cf9-44f5-9dd4-795d8cbd8dd9,1383dc2f-80bf-46d2-a294-b6adfeb4cbec
2019-11-02 00:45:18,6e7a97f4-1184-4091-ac5c-466abc9184a8,1,b0c67b60-0cf9-44f5-9dd4-795d8cbd8dd9,eb3df129-e910-4327-9c82-56066dcf9010
2019-11-02 00:45:20,f873d12d-09a5-4fdc-b5f5-8cdae5900bbc,1,b0c67b60-0cf9-44f5-9dd4-795d8cbd8dd9,1383dc2f-80bf-46d2-a294-b6adfeb4cbec
2019-11-02 00:46:55,8e93a20b-7953-47be-9335-34336f2ac9d6,1,b0c67b60-0cf9-44f5-9dd4-795d8cbd8dd9,b5764d29-9e9f-4eff-96c1-880f28870d96
2019-11-02 00:51:36,eb76d8ea-3e09-4d4b-a2f5-160a9994bc8f,1,b0c67b60-0cf9-44f5-9dd4-795d8cbd8dd9,5e68f4da-b45d-4111-9347-95b34964637f
2019-11-02 00:53:13,6e7a97f4-1184-4091-ac5c-466abc9184a8,1,b0c67b60-0cf9-44f5-9dd4-795d8cbd8dd9,eb3df129-e910-4327-9c82-56066dcf9010
2019-11-02 00:53:17,eadd1b62-5f36-4c7d-8c91-727c5d2c53b6,1,b0c67b60-0cf9-44f5-9dd4-795d8cbd8dd9,7a9bdc48-9771-49d9-9903-cdfb2ef80c93
2019-11-02 00:53:49,f873d12d-09a5-4fdc-b5f5-8cdae5900bbc,1,b0c67b60-0cf9-44f5-9dd4-795d8cbd8dd9,1383dc2f-80bf-46d2-a294-b6adfeb4cbec
2019-11-02 00:53:49,eadd1b62-5f36-4c7d-8c91-727c5d2c53b6,1,b0c67b60-0cf9-44f5-9dd4-795d8cbd8dd9,41383d68-7d35-406b-9b31-549f61d00cb2
2019-11-02 01:02:47,f873d12d-09a5-4fdc-b5f5-8cdae5900bbc,1,b0c67b60-0cf9-44f5-9dd4-795d8cbd8dd9,630e6c05-969c-45ee-b0ef-f1e75ee62fca
2019-11-02 01:03:43,6e7a97f4-1184-4091-ac5c-466abc9184a8,1,b0c67b60-0cf9-44f5-9dd4-795d8cbd8dd9,eb3df129-e910-4327-9c82-56066dcf9010
2019-11-02 01:03:54,eadd1b62-5f36-4c7d-8c91-727c5d2c53b6,1,b0c67b60-0cf9-44f5-9dd4-795d8cbd8dd9,1383dc2f-80bf-46d2-a294-b6adfeb4cbec
2019-11-02 01:06:56,eeae8f00-da2d-4625-8a72-3249c843fa22,1,b0c67b60-0cf9-44f5-9dd4-795d8cbd8dd9,b9920d0a-1218-4ae7-81d0-040adc25a32e
2019-11-02 01:08:10,e4ac4a73-60d3-4c83-a2e2-d67b07e72a31,1,b0c67b60-0cf9-44f5-9dd4-795d8cbd8dd9,d070c573-46e2-4760-9603-0124c1e9483d
2019-11-02 01:08:11,eeae8f00-da2d-4625-8a72-3249c843fa22,1,b0c67b60-0cf9-44f5-9dd4-795d8cbd8dd9,b5764d29-9e9f-4eff-96c1-880f28870d96
2019-11-02 01:10:03,6e7a97f4-1184-4091-ac5c-466abc9184a8,1,b0c67b60-0cf9-44f5-9dd4-795d8cbd8dd9,eb3df129-e910-4327-9c82-56066dcf9010
2019-11-02 01:27:59,eadd1b62-5f36-4c7d-8c91-727c5d2c53b6,1,b0c67b60-0cf9-44f5-9dd4-795d8cbd8dd9,7a9bdc48-9771-49d9-9903-cdfb2ef80c93
2019-11-02 01:30:48,005d2de1-95dc-47ab-b11a-a819eb5e12f0,1,b0c67b60-0cf9-44f5-9dd4-795d8cbd8dd9,73bbd45d-c12d-49a9-b42d-a20444881cc3
2019-11-02 01:31:59,6e7a97f4-1184-4091-ac5c-466abc9184a8,1,b0c67b60-0cf9-44f5-9dd4-795d8cbd8dd9,7a9bdc48-9771-49d9-9903-cdfb2ef80c93
2019-11-02 01:36:16,e4ac4a73-60d3-4c83-a2e2-d67b07e72a31,1,b0c67b60-0cf9-44f5-9dd4-795d8cbd8dd9,d070c573-46e2-4760-9603-0124c1e9483d
2019-11-02 01:37:15,f873d12d-09a5-4fdc-b5f5-8cdae5900bbc,1,b0c67b60-0cf9-44f5-9dd4-795d8cbd8dd9,630e6c05-969c-45ee-b0ef-f1e75ee62fca
2019-11-02 01:40:18,005d2de1-95dc-47ab-b11a-a819eb5e12f0,1,b0c67b60-0cf9-44f5-9dd4-795d8cbd8dd9,73bbd45d-c12d-49a9-b42d-a20444881cc3
2019-11-02 01:40:18,eadd1b62-5f36-4c7d-8c91-727c5d2c53b6,1,b0c67b60-0cf9-44f5-9dd4-795d8cbd8dd9,41383d68-7d35-406b-9b31-549f61d00cb2
2019-11-02 01:40:53,005d2de1-95dc-47ab-b11a-a819eb5e12f0,1,b0c67b60-0cf9-44f5-9dd4-795d8cbd8dd9,73bbd45d-c12d-49a9-b42d-a20444881cc3
2019-11-02 01:42:12,e4ac4a73-60d3-4c83-a2e2-d67b07e72a31,1,b0c67b60-0cf9-44f5-9dd4-795d8cbd8dd9,d070c573-46e2-4760-9603-0124c1e9483d
2019-11-02 01:42:13,6e7a97f4-1184-4091-ac5c-466abc9184a8,1,b0c67b60-0cf9-44f5-9dd4-795d8cbd8dd9,c1ac9bba-a24e-40a3-9459-60a8f1079796
2019-11-02 01:43:20,eeae8f00-da2d-4625-8a72-3249c843fa22,1,b0c67b60-0cf9-44f5-9dd4-795d8cbd8dd9,805ba59a-7329-4488-b2f4-a93c337d376f
2019-11-02 01:43:20,6e7a97f4-1184-4091-ac5c-466abc9184a8,1,b0c67b60-0cf9-44f5-9dd4-795d8cbd8dd9,1383dc2f-80bf-46d2-a294-b6adfeb4cbec
2019-11-02 01:48:37,f873d12d-09a5-4fdc-b5f5-8cdae5900bbc,1,b0c67b60-0cf9-44f5-9dd4-795d8cbd8dd9,630e6c05-969c-45ee-b0ef-f1e75ee62fca
2019-11-02 01:49:22,eeae8f00-da2d-4625-8a72-3249c843fa22,1,b0c67b60-0cf9-44f5-9dd4-795d8cbd8dd9,b5764d29-9e9f-4eff-96c1-880f28870d96
2019-11-02 01:49:29,eadd1b62-5f36-4c7d-8c91-727c5d2c53b6,1,b0c67b60-0cf9-44f5-9dd4-795d8cbd8dd9,41383d68-7d35-406b-9b31-549f61d00cb2
2019-11-02 01:49:58,6e7a97f4-1184-4091-ac5c-466abc9184a8,1,b0c67b60-0cf9-44f5-9dd4-795d8cbd8dd9,1383dc2f-80bf-46d2-a294-b6adfeb4cbec
2019-11-02 01:49:59,eadd1b62-5f36-4c7d-8c91-727c5d2c53b6,1,b0c67b60-0cf9-44f5-9dd4-795d8cbd8dd9,7a9bdc48-9771-49d9-9903-cdfb2ef80c93
2019-11-02 01:55:40,005d2de1-95dc-47ab-b11a-a819eb5e12f0,1,b0c67b60-0cf9-44f5-9dd4-795d8cbd8dd9,1383dc2f-80bf-46d2-a294-b6adfeb4cbec
2019-11-02 01:56:47,6e7a97f4-1184-4091-ac5c-466abc9184a8,1,b0c67b60-0cf9-44f5-9dd4-795d8cbd8dd9,7a9bdc48-9771-49d9-9903-cdfb2ef80c93
2019-11-02 00:03:14,4d510d09-37d2-43c9-a82a-140ac80bd390,1,b9920d0a-1218-4ae7-81d0-040adc25a32e,805ba59a-7329-4488-b2f4-a93c337d376f
2019-11-02 00:18:21,a8e0592f-747a-4ad4-bce4-d9390eebe649,1,b9920d0a-1218-4ae7-81d0-040adc25a32e,41383d68-7d35-406b-9b31-549f61d00cb2
2019-11-02 00:25:19,32434d8a-e527-4f3a-8b24-fce0818c3378,1,b9920d0a-1218-4ae7-81d0-040adc25a32e,eb3df129-e910-4327-9c82-56066dcf9010
2019-11-02 00:29:42,b578fca1-13b7-4876-82c6-923cc3b58158,1,b9920d0a-1218-4ae7-81d0-040adc25a32e,5e68f4da-b45d-4111-9347-95b34964637f
2019-11-02 00:30:02,8e93a20b-7953-47be-9335-34336f2ac9d6,1,b9920d0a-1218-4ae7-81d0-040adc25a32e,b0c67b60-0cf9-44f5-9dd4-795d8cbd8dd9
2019-11-02 00:31:23,450e5731-3c2c-4f44-a174-a814402b5dd8,1,b9920d0a-1218-4ae7-81d0-040adc25a32e,c1ac9bba-a24e-40a3-9459-60a8f1079796
2019-11-02 00:35:21,a141389e-e804-4728-9afc-39e64856b459,1,b9920d0a-1218-4ae7-81d0-040adc25a32e,1383dc2f-80bf-46d2-a294-b6adfeb4cbec
2019-11-02 00:39:22,494f61e0-dfe2-491d-9286-33947eb487e5,1,b9920d0a-1218-4ae7-81d0-040adc25a32e,630e6c05-969c-45ee-b0ef-f1e75ee62fca
2019-11-02 00:39:22,eeae8f00-da2d-4625-8a72-3249c843fa22,1,b9920d0a-1218-4ae7-81d0-040adc25a32e,b0c67b60-0cf9-44f5-9dd4-795d8cbd8dd9
2019-11-02 00:54:30,e20676b7-109a-4534-86f8-3c4645abebfe,1,b9920d0a-1218-4ae7-81d0-040adc25a32e,73bbd45d-c12d-49a9-b42d-a20444881cc3
2019-11-02 00:55:39,a141389e-e804-4728-9afc-39e64856b459,1,b9920d0a-1218-4ae7-81d0-040adc25a32e,5e68f4da-b45d-4111-9347-95b34964637f
2019-11-02 00:55:40,494f61e0-dfe2-491d-9286-33947eb487e5,1,b9920d0a-1218-4ae7-81d0-040adc25a32e,b5764d29-9e9f-4eff-96c1-880f28870d96
2019-11-02 00:56:23,b3c06da2-6278-4897-a4cc-f4eabcec58d7,1,b9920d0a-1218-4ae7-81d0-040adc25a32e,eb3df129-e910-4327-9c82-56066dcf9010
2019-11-02 00:56:23,81accfe9-baf4-4c44-9e0b-f5cd4ebd124e,1,b9920d0a-1218-4ae7-81d0-040adc25a32e,eb3df129-e910-4327-9c82-56066dcf9010
2019-11-02 00:56:58,81accfe9-baf4-4c44-9e0b-f5cd4ebd124e,1,b9920d0a-1218-4ae7-81d0-040adc25a32e,630e6c05-969c-45ee-b0ef-f1e75ee62fca
2019-11-02 00:57:00,a141389e-e804-4728-9afc-39e64856b459,1,b9920d0a-1218-4ae7-81d0-040adc25a32e,5e68f4da-b45d-4111-9347-95b34964637f
2019-11-02 00:59:56,81accfe9-baf4-4c44-9e0b-f5cd4ebd124e,1,b9920d0a-1218-4ae7-81d0-040adc25a32e,1383dc2f-80bf-46d2-a294-b6adfeb4cbec
2019-11-02 00:59:57,a141389e-e804-4728-9afc-39e64856b459,1,b9920d0a-1218-4ae7-81d0-040adc25a32e,1383dc2f-80bf-46d2-a294-b6adfeb4cbec
2019-11-02 01:03:12,494f61e0-dfe2-491d-9286-33947eb487e5,1,b9920d0a-1218-4ae7-81d0-040adc25a32e,b5764d29-9e9f-4eff-96c1-880f28870d96
2019-11-02 01:03:13,95fb2f99-7cf7-4da1-9671-c7110372bccd,1,b9920d0a-1218-4ae7-81d0-040adc25a32e,b5764d29-9e9f-4eff-96c1-880f28870d96
2019-11-02 01:07:56,eeae8f00-da2d-4625-8a72-3249c843fa22,1,b9920d0a-1218-4ae7-81d0-040adc25a32e,b0c67b60-0cf9-44f5-9dd4-795d8cbd8dd9
2019-11-02 01:10:24,a141389e-e804-4728-9afc-39e64856b459,1,b9920d0a-1218-4ae7-81d0-040adc25a32e,7a9bdc48-9771-49d9-9903-cdfb2ef80c93
2019-11-02 01:10:25,81accfe9-baf4-4c44-9e0b-f5cd4ebd124e,1,b9920d0a-1218-4ae7-81d0-040adc25a32e,630e6c05-969c-45ee-b0ef-f1e75ee62fca
2019-11-02 01:11:58,ed61479a-7e53-4ebd-991f-cb2654f101fb,1,b9920d0a-1218-4ae7-81d0-040adc25a32e,7a9bdc48-9771-49d9-9903-cdfb2ef80c93
2019-11-02 01:12:40,494f61e0-dfe2-491d-9286-33947eb487e5,1,b9920d0a-1218-4ae7-81d0-040adc25a32e,630e6c05-969c-45ee-b0ef-f1e75ee62fca
2019-11-02 01:13:27,eeae8f00-da2d-4625-8a72-3249c843fa22,1,b9920d0a-1218-4ae7-81d0-040adc25a32e,1383dc2f-80bf-46d2-a294-b6adfeb4cbec
2019-11-02 01:14:20,81accfe9-baf4-4c44-9e0b-f5cd4ebd124e,1,b9920d0a-1218-4ae7-81d0-040adc25a32e,eb3df129-e910-4327-9c82-56066dcf9010
2019-11-02 01:24:43,a141389e-e804-4728-9afc-39e64856b459,1,b9920d0a-1218-4ae7-81d0-040adc25a32e,7a9bdc48-9771-49d9-9903-cdfb2ef80c93
2019-11-02 01:27:17,81accfe9-baf4-4c44-9e0b-f5cd4ebd124e,1,b9920d0a-1218-4ae7-81d0-040adc25a32e,fe884641-c823-4b6e-9e7c-edd75e9c8bcb
2019-11-02 01:28:13,d91fa7fe-427b-4696-a1cc-9765204faf52,1,b9920d0a-1218-4ae7-81d0-040adc25a32e,c1ac9bba-a24e-40a3-9459-60a8f1079796
2019-11-02 01:28:29,e20676b7-109a-4534-86f8-3c4645abebfe,1,b9920d0a-1218-4ae7-81d0-040adc25a32e,73bbd45d-c12d-49a9-b42d-a20444881cc3
2019-11-02 01:29:23,a141389e-e804-4728-9afc-39e64856b459,1,b9920d0a-1218-4ae7-81d0-040adc25a32e,5e68f4da-b45d-4111-9347-95b34964637f
2019-11-02 01:29:25,e20676b7-109a-4534-86f8-3c4645abebfe,1,b9920d0a-1218-4ae7-81d0-040adc25a32e,73bbd45d-c12d-49a9-b42d-a20444881cc3
2019-11-02 01:31:52,a141389e-e804-4728-9afc-39e64856b459,1,b9920d0a-1218-4ae7-81d0-040adc25a32e,7a9bdc48-9771-49d9-9903-cdfb2ef80c93
2019-11-02 01:42:59,81accfe9-baf4-4c44-9e0b-f5cd4ebd124e,1,b9920d0a-1218-4ae7-81d0-040adc25a32e,eb3df129-e910-4327-9c82-56066dcf9010
2019-11-02 01:48:59,81accfe9-baf4-4c44-9e0b-f5cd4ebd124e,1,b9920d0a-1218-4ae7-81d0-040adc25a32e,eb3df129-e910-4327-9c82-56066dcf9010
2019-11-02 01:49:50,a141389e-e804-4728-9afc-39e64856b459,1,b9920d0a-1218-4ae7-81d0-040adc25a32e,7a9bdc48-9771-49d9-9903-cdfb2ef80c93
2019-11-02 01:50:25,a141389e-e804-4728-9afc-39e64856b459,1,b9920d0a-1218-4ae7-81d0-040adc25a32e,41383d68-7d35-406b-9b31-549f61d00cb2
2019-11-01 23:55:58,e20676b7-109a-4534-86f8-3c4645abebfe,1,b5764d29-9e9f-4eff-96c1-880f28870d96,73bbd45d-c12d-49a9-b42d-a20444881cc3
2019-11-02 00:04:51,eadd1b62-5f36-4c7d-8c91-727c5d2c53b6,1,b5764d29-9e9f-4eff-96c1-880f28870d96,41383d68-7d35-406b-9b31-549f61d00cb2
2019-11-02 00:08:30,88ad4dd4-4a52-434c-9373-a689cace0448,1,b5764d29-9e9f-4eff-96c1-880f28870d96,5e68f4da-b45d-4111-9347-95b34964637f
2019-11-02 00:39:06,494f61e0-dfe2-491d-9286-33947eb487e5,1,b5764d29-9e9f-4eff-96c1-880f28870d96,b9920d0a-1218-4ae7-81d0-040adc25a32e
2019-11-02 00:39:08,95fb2f99-7cf7-4da1-9671-c7110372bccd,1,b5764d29-9e9f-4eff-96c1-880f28870d96,1383dc2f-80bf-46d2-a294-b6adfeb4cbec
2019-11-02 00:42:28,eeae8f00-da2d-4625-8a72-3249c843fa22,1,b5764d29-9e9f-4eff-96c1-880f28870d96,b0c67b60-0cf9-44f5-9dd4-795d8cbd8dd9
2019-11-02 00:43:06,d2013315-4f0b-4e2f-afdd-3792c377abb1,1,b5764d29-9e9f-4eff-96c1-880f28870d96,eb3df129-e910-4327-9c82-56066dcf9010
2019-11-02 00:43:34,eeae8f00-da2d-4625-8a72-3249c843fa22,1,b5764d29-9e9f-4eff-96c1-880f28870d96,5e68f4da-b45d-4111-9347-95b34964637f
2019-11-02 00:51:09,d2013315-4f0b-4e2f-afdd-3792c377abb1,1,b5764d29-9e9f-4eff-96c1-880f28870d96,eb3df129-e910-4327-9c82-56066dcf9010
2019-11-02 00:52:52,d2013315-4f0b-4e2f-afdd-3792c377abb1,1,b5764d29-9e9f-4eff-96c1-880f28870d96,1383dc2f-80bf-46d2-a294-b6adfeb4cbec
2019-11-02 00:55:40,eeae8f00-da2d-4625-8a72-3249c843fa22,1,b5764d29-9e9f-4eff-96c1-880f28870d96,b0c67b60-0cf9-44f5-9dd4-795d8cbd8dd9
2019-11-02 00:55:41,95fb2f99-7cf7-4da1-9671-c7110372bccd,1,b5764d29-9e9f-4eff-96c1-880f28870d96,1c3a4fb0-30f1-4162-8e3b-c5ae8ad2f650
2019-11-02 00:56:13,95fb2f99-7cf7-4da1-9671-c7110372bccd,1,b5764d29-9e9f-4eff-96c1-880f28870d96,eb3df129-e910-4327-9c82-56066dcf9010
2019-11-02 00:59:57,494f61e0-dfe2-491d-9286-33947eb487e5,1,b5764d29-9e9f-4eff-96c1-880f28870d96,b9920d0a-1218-4ae7-81d0-040adc25a32e
2019-11-02 00:59:58,e3a505c8-76c2-4da0-a120-89b32d555c39,1,b5764d29-9e9f-4eff-96c1-880f28870d96,1383dc2f-80bf-46d2-a294-b6adfeb4cbec
2019-11-02 01:03:46,494f61e0-dfe2-491d-9286-33947eb487e5,1,b5764d29-9e9f-4eff-96c1-880f28870d96,1383dc2f-80bf-46d2-a294-b6adfeb4cbec
2019-11-02 01:03:49,95fb2f99-7cf7-4da1-9671-c7110372bccd,1,b5764d29-9e9f-4eff-96c1-880f28870d96,1383dc2f-80bf-46d2-a294-b6adfeb4cbec
2019-11-02 01:09:02,eeae8f00-da2d-4625-8a72-3249c843fa22,1,b5764d29-9e9f-4eff-96c1-880f28870d96,805ba59a-7329-4488-b2f4-a93c337d376f
2019-11-02 01:24:25,d2013315-4f0b-4e2f-afdd-3792c377abb1,1,b5764d29-9e9f-4eff-96c1-880f28870d96,95c349f2-c8f0-4c78-9699-4546752ff354
2019-11-02 01:30:28,005d2de1-95dc-47ab-b11a-a819eb5e12f0,1,b5764d29-9e9f-4eff-96c1-880f28870d96,b0c67b60-0cf9-44f5-9dd4-795d8cbd8dd9
2019-11-02 01:34:58,95fb2f99-7cf7-4da1-9671-c7110372bccd,1,b5764d29-9e9f-4eff-96c1-880f28870d96,eb3df129-e910-4327-9c82-56066dcf9010
2019-11-02 01:35:33,494f61e0-dfe2-491d-9286-33947eb487e5,1,b5764d29-9e9f-4eff-96c1-880f28870d96,630e6c05-969c-45ee-b0ef-f1e75ee62fca
2019-11-02 01:36:30,8e93a20b-7953-47be-9335-34336f2ac9d6,1,b5764d29-9e9f-4eff-96c1-880f28870d96,805ba59a-7329-4488-b2f4-a93c337d376f
2019-11-02 01:41:04,9576ce7b-f37f-4fb8-b32d-2f97ed7853ae,1,b5764d29-9e9f-4eff-96c1-880f28870d96,d070c573-46e2-4760-9603-0124c1e9483d
2019-11-02 01:42:03,eeae8f00-da2d-4625-8a72-3249c843fa22,1,b5764d29-9e9f-4eff-96c1-880f28870d96,b0c67b60-0cf9-44f5-9dd4-795d8cbd8dd9
2019-11-02 01:43:26,f873d12d-09a5-4fdc-b5f5-8cdae5900bbc,1,b5764d29-9e9f-4eff-96c1-880f28870d96,630e6c05-969c-45ee-b0ef-f1e75ee62fca
2019-11-02 01:43:26,95fb2f99-7cf7-4da1-9671-c7110372bccd,1,b5764d29-9e9f-4eff-96c1-880f28870d96,1c3a4fb0-30f1-4162-8e3b-c5ae8ad2f650
2019-11-02 01:43:55,494f61e0-dfe2-491d-9286-33947eb487e5,1,b5764d29-9e9f-4eff-96c1-880f28870d96,630e6c05-969c-45ee-b0ef-f1e75ee62fca
2019-11-02 01:45:12,eeae8f00-da2d-4625-8a72-3249c843fa22,1,b5764d29-9e9f-4eff-96c1-880f28870d96,1383dc2f-80bf-46d2-a294-b6adfeb4cbec
2019-11-02 01:49:38,eeae8f00-da2d-4625-8a72-3249c843fa22,1,b5764d29-9e9f-4eff-96c1-880f28870d96,b9920d0a-1218-4ae7-81d0-040adc25a32e
2019-11-02 01:49:38,95fb2f99-7cf7-4da1-9671-c7110372bccd,1,b5764d29-9e9f-4eff-96c1-880f28870d96,805ba59a-7329-4488-b2f4-a93c337d376f
2019-11-02 00:31:29,f2cf0b2c-b245-40f9-9a63-ca917289dc23,1,c1ac9bba-a24e-40a3-9459-60a8f1079796,1c3a4fb0-30f1-4162-8e3b-c5ae8ad2f650
2019-11-02 00:36:31,6e7a97f4-1184-4091-ac5c-466abc9184a8,1,c1ac9bba-a24e-40a3-9459-60a8f1079796,b0c67b60-0cf9-44f5-9dd4-795d8cbd8dd9
2019-11-02 00:43:32,6e7a97f4-1184-4091-ac5c-466abc9184a8,1,c1ac9bba-a24e-40a3-9459-60a8f1079796,b0c67b60-0cf9-44f5-9dd4-795d8cbd8dd9
2019-11-02 00:46:12,9dcbcab0-318d-4242-857c-223bdfebe735,1,c1ac9bba-a24e-40a3-9459-60a8f1079796,eb3df129-e910-4327-9c82-56066dcf9010
2019-11-02 00:46:59,5bf9091d-c98e-4445-8adf-1acde23f2387,1,c1ac9bba-a24e-40a3-9459-60a8f1079796,95c349f2-c8f0-4c78-9699-4546752ff354
2019-11-02 00:52:52,dbfcfab7-5469-447b-83d4-36faf76f5d88,1,c1ac9bba-a24e-40a3-9459-60a8f1079796,7a9bdc48-9771-49d9-9903-cdfb2ef80c93
2019-11-02 00:52:52,eb76d8ea-3e09-4d4b-a2f5-160a9994bc8f,1,c1ac9bba-a24e-40a3-9459-60a8f1079796,630e6c05-969c-45ee-b0ef-f1e75ee62fca
2019-11-02 00:55:24,eb76d8ea-3e09-4d4b-a2f5-160a9994bc8f,1,c1ac9bba-a24e-40a3-9459-60a8f1079796,1383dc2f-80bf-46d2-a294-b6adfeb4cbec
2019-11-02 00:55:25,494f61e0-dfe2-491d-9286-33947eb487e5,1,c1ac9bba-a24e-40a3-9459-60a8f1079796,b9920d0a-1218-4ae7-81d0-040adc25a32e
2019-11-02 00:57:01,ed61479a-7e53-4ebd-991f-cb2654f101fb,1,c1ac9bba-a24e-40a3-9459-60a8f1079796,b9920d0a-1218-4ae7-81d0-040adc25a32e
2019-11-02 00:59:45,dbfcfab7-5469-447b-83d4-36faf76f5d88,1,c1ac9bba-a24e-40a3-9459-60a8f1079796,805ba59a-7329-4488-b2f4-a93c337d376f
2019-11-02 01:01:33,77dc8cb0-7e7a-4d6c-95ee-0271cdacc28d,1,c1ac9bba-a24e-40a3-9459-60a8f1079796,73bbd45d-c12d-49a9-b42d-a20444881cc3
2019-11-02 01:01:36,dbfcfab7-5469-447b-83d4-36faf76f5d88,1,c1ac9bba-a24e-40a3-9459-60a8f1079796,7a9bdc48-9771-49d9-9903-cdfb2ef80c93
2019-11-02 01:07:24,eb76d8ea-3e09-4d4b-a2f5-160a9994bc8f,1,c1ac9bba-a24e-40a3-9459-60a8f1079796,630e6c05-969c-45ee-b0ef-f1e75ee62fca
2019-11-02 01:07:25,dbfcfab7-5469-447b-83d4-36faf76f5d88,1,c1ac9bba-a24e-40a3-9459-60a8f1079796,7a9bdc48-9771-49d9-9903-cdfb2ef80c93
2019-11-02 01:08:51,dbfcfab7-5469-447b-83d4-36faf76f5d88,1,c1ac9bba-a24e-40a3-9459-60a8f1079796,1383dc2f-80bf-46d2-a294-b6adfeb4cbec
2019-11-02 01:15:29,9dcbcab0-318d-4242-857c-223bdfebe735,1,c1ac9bba-a24e-40a3-9459-60a8f1079796,95c349f2-c8f0-4c78-9699-4546752ff354
2019-11-02 01:15:55,dbfcfab7-5469-447b-83d4-36faf76f5d88,1,c1ac9bba-a24e-40a3-9459-60a8f1079796,1383dc2f-80bf-46d2-a294-b6adfeb4cbec
2019-11-02 01:24:28,eb76d8ea-3e09-4d4b-a2f5-160a9994bc8f,1,c1ac9bba-a24e-40a3-9459-60a8f1079796,5e68f4da-b45d-4111-9347-95b34964637f
2019-11-02 01:31:57,eb76d8ea-3e09-4d4b-a2f5-160a9994bc8f,1,c1ac9bba-a24e-40a3-9459-60a8f1079796,630e6c05-969c-45ee-b0ef-f1e75ee62fca
2019-11-02 01:37:31,dbfcfab7-5469-447b-83d4-36faf76f5d88,1,c1ac9bba-a24e-40a3-9459-60a8f1079796,7a9bdc48-9771-49d9-9903-cdfb2ef80c93
2019-11-02 01:37:33,9dcbcab0-318d-4242-857c-223bdfebe735,1,c1ac9bba-a24e-40a3-9459-60a8f1079796,eb3df129-e910-4327-9c82-56066dcf9010
2019-11-02 01:43:04,6e7a97f4-1184-4091-ac5c-466abc9184a8,1,c1ac9bba-a24e-40a3-9459-60a8f1079796,b0c67b60-0cf9-44f5-9dd4-795d8cbd8dd9
2019-11-02 01:43:06,eb76d8ea-3e09-4d4b-a2f5-160a9994bc8f,1,c1ac9bba-a24e-40a3-9459-60a8f1079796,1383dc2f-80bf-46d2-a294-b6adfeb4cbec
2019-11-02 01:53:48,dbfcfab7-5469-447b-83d4-36faf76f5d88,1,c1ac9bba-a24e-40a3-9459-60a8f1079796,7a9bdc48-9771-49d9-9903-cdfb2ef80c93
2019-11-02 01:55:06,9dcbcab0-318d-4242-857c-223bdfebe735,1,c1ac9bba-a24e-40a3-9459-60a8f1079796,eb3df129-e910-4327-9c82-56066dcf9010
2019-11-02 00:09:26,6966ebd6-272c-4c15-8599-f8081b6b637d,1,d070c573-46e2-4760-9603-0124c1e9483d,7a9bdc48-9771-49d9-9903-cdfb2ef80c93
2019-11-02 00:23:48,eadd1b62-5f36-4c7d-8c91-727c5d2c53b6,1,d070c573-46e2-4760-9603-0124c1e9483d,41383d68-7d35-406b-9b31-549f61d00cb2
2019-11-02 00:24:29,e4ac4a73-60d3-4c83-a2e2-d67b07e72a31,1,d070c573-46e2-4760-9603-0124c1e9483d,b0c67b60-0cf9-44f5-9dd4-795d8cbd8dd9
2019-11-02 00:24:56,4ebae2a3-dd01-481e-a288-8a8cfc02b692,1,d070c573-46e2-4760-9603-0124c1e9483d,1c3a4fb0-30f1-4162-8e3b-c5ae8ad2f650
2019-11-02 00:32:47,e3a505c8-76c2-4da0-a120-89b32d555c39,1,d070c573-46e2-4760-9603-0124c1e9483d,5e68f4da-b45d-4111-9347-95b34964637f
2019-11-02 00:35:12,eadd1b62-5f36-4c7d-8c91-727c5d2c53b6,1,d070c573-46e2-4760-9603-0124c1e9483d,b0c67b60-0cf9-44f5-9dd4-795d8cbd8dd9
2019-11-02 00:35:50,e4ac4a73-60d3-4c83-a2e2-d67b07e72a31,1,d070c573-46e2-4760-9603-0124c1e9483d,b0c67b60-0cf9-44f5-9dd4-795d8cbd8dd9
2019-11-02 00:42:00,9576ce7b-f37f-4fb8-b32d-2f97ed7853ae,1,d070c573-46e2-4760-9603-0124c1e9483d,1c3a4fb0-30f1-4162-8e3b-c5ae8ad2f650
2019-11-02 00:43:11,81d19391-c625-45be-8973-3e4744b1d440,1,d070c573-46e2-4760-9603-0124c1e9483d,b0c67b60-0cf9-44f5-9dd4-795d8cbd8dd9
2019-11-02 00:43:14,e4ac4a73-60d3-4c83-a2e2-d67b07e72a31,1,d070c573-46e2-4760-9603-0124c1e9483d,5e68f4da-b45d-4111-9347-95b34964637f
2019-11-02 00:43:16,eadd1b62-5f36-4c7d-8c91-727c5d2c53b6,1,d070c573-46e2-4760-9603-0124c1e9483d,7a9bdc48-9771-49d9-9903-cdfb2ef80c93
2019-11-02 00:52:26,81d19391-c625-45be-8973-3e4744b1d440,1,d070c573-46e2-4760-9603-0124c1e9483d,95c349f2-c8f0-4c78-9699-4546752ff354
2019-11-02 00:52:26,e4ac4a73-60d3-4c83-a2e2-d67b07e72a31,1,d070c573-46e2-4760-9603-0124c1e9483d,805ba59a-7329-4488-b2f4-a93c337d376f
2019-11-02 01:02:04,4ebae2a3-dd01-481e-a288-8a8cfc02b692,1,d070c573-46e2-4760-9603-0124c1e9483d,41383d68-7d35-406b-9b31-549f61d00cb2
2019-11-02 01:03:27,6e7a97f4-1184-4091-ac5c-466abc9184a8,1,d070c573-46e2-4760-9603-0124c1e9483d,b0c67b60-0cf9-44f5-9dd4-795d8cbd8dd9
2019-11-02 01:03:29,eadd1b62-5f36-4c7d-8c91-727c5d2c53b6,1,d070c573-46e2-4760-9603-0124c1e9483d,b0c67b60-0cf9-44f5-9dd4-795d8cbd8dd9
2019-11-02 01:13:50,e4ac4a73-60d3-4c83-a2e2-d67b07e72a31,1,d070c573-46e2-4760-9603-0124c1e9483d,5e68f4da-b45d-4111-9347-95b34964637f
2019-11-02 01:13:51,6e7a97f4-1184-4091-ac5c-466abc9184a8,1,d070c573-46e2-4760-9603-0124c1e9483d,eb3df129-e910-4327-9c82-56066dcf9010
2019-11-02 01:16:29,eadd1b62-5f36-4c7d-8c91-727c5d2c53b6,1,d070c573-46e2-4760-9603-0124c1e9483d,7a9bdc48-9771-49d9-9903-cdfb2ef80c93
2019-11-02 01:19:34,e4ac4a73-60d3-4c83-a2e2-d67b07e72a31,1,d070c573-46e2-4760-9603-0124c1e9483d,5e68f4da-b45d-4111-9347-95b34964637f
2019-11-02 01:21:48,81d19391-c625-45be-8973-3e4744b1d440,1,d070c573-46e2-4760-9603-0124c1e9483d,95c349f2-c8f0-4c78-9699-4546752ff354
2019-11-02 01:21:49,eadd1b62-5f36-4c7d-8c91-727c5d2c53b6,1,d070c573-46e2-4760-9603-0124c1e9483d,b0c67b60-0cf9-44f5-9dd4-795d8cbd8dd9
2019-11-02 01:27:49,81d19391-c625-45be-8973-3e4744b1d440,1,d070c573-46e2-4760-9603-0124c1e9483d,95c349f2-c8f0-4c78-9699-4546752ff354
2019-11-02 01:27:49,6e7a97f4-1184-4091-ac5c-466abc9184a8,1,d070c573-46e2-4760-9603-0124c1e9483d,b0c67b60-0cf9-44f5-9dd4-795d8cbd8dd9
2019-11-02 01:29:16,81d19391-c625-45be-8973-3e4744b1d440,1,d070c573-46e2-4760-9603-0124c1e9483d,95c349f2-c8f0-4c78-9699-4546752ff354
2019-11-02 01:29:26,3f9c4f0a-3f0d-48ae-a9b3-f1c5ad666c38,1,d070c573-46e2-4760-9603-0124c1e9483d,805ba59a-7329-4488-b2f4-a93c337d376f
2019-11-02 01:31:58,eadd1b62-5f36-4c7d-8c91-727c5d2c53b6,1,d070c573-46e2-4760-9603-0124c1e9483d,b0c67b60-0cf9-44f5-9dd4-795d8cbd8dd9
2019-11-02 01:31:59,4ebae2a3-dd01-481e-a288-8a8cfc02b692,1,d070c573-46e2-4760-9603-0124c1e9483d,41383d68-7d35-406b-9b31-549f61d00cb2
2019-11-02 01:39:28,81d19391-c625-45be-8973-3e4744b1d440,1,d070c573-46e2-4760-9603-0124c1e9483d,95c349f2-c8f0-4c78-9699-4546752ff354
2019-11-02 01:39:40,e4ac4a73-60d3-4c83-a2e2-d67b07e72a31,1,d070c573-46e2-4760-9603-0124c1e9483d,b0c67b60-0cf9-44f5-9dd4-795d8cbd8dd9
2019-11-02 01:42:28,e4ac4a73-60d3-4c83-a2e2-d67b07e72a31,1,d070c573-46e2-4760-9603-0124c1e9483d,1383dc2f-80bf-46d2-a294-b6adfeb4cbec
2019-11-02 01:42:29,4ebae2a3-dd01-481e-a288-8a8cfc02b692,1,d070c573-46e2-4760-9603-0124c1e9483d,41383d68-7d35-406b-9b31-549f61d00cb2
2019-11-02 01:54:02,32434d8a-e527-4f3a-8b24-fce0818c3378,1,d070c573-46e2-4760-9603-0124c1e9483d,b9920d0a-1218-4ae7-81d0-040adc25a32e
2019-11-02 01:55:16,e4ac4a73-60d3-4c83-a2e2-d67b07e72a31,1,d070c573-46e2-4760-9603-0124c1e9483d,5e68f4da-b45d-4111-9347-95b34964637f
2019-11-02 00:15:09,ce3acc28-54eb-4653-af56-75a61c22a9c6,1,95c349f2-c8f0-4c78-9699-4546752ff354,eb3df129-e910-4327-9c82-56066dcf9010
2019-11-02 00:24:57,9dcbcab0-318d-4242-857c-223bdfebe735,1,95c349f2-c8f0-4c78-9699-4546752ff354,5e68f4da-b45d-4111-9347-95b34964637f
2019-11-02 00:35:32,5bf9091d-c98e-4445-8adf-1acde23f2387,1,95c349f2-c8f0-4c78-9699-4546752ff354,c1ac9bba-a24e-40a3-9459-60a8f1079796
2019-11-02 00:38:28,77dc8cb0-7e7a-4d6c-95ee-0271cdacc28d,1,95c349f2-c8f0-4c78-9699-4546752ff354,41383d68-7d35-406b-9b31-549f61d00cb2
2019-11-02 00:38:48,9e8f4021-e663-4a53-a3e0-36b8fc3d5f98,1,95c349f2-c8f0-4c78-9699-4546752ff354,eb3df129-e910-4327-9c82-56066dcf9010
2019-11-02 00:41:36,81d19391-c625-45be-8973-3e4744b1d440,1,95c349f2-c8f0-4c78-9699-4546752ff354,b0c67b60-0cf9-44f5-9dd4-795d8cbd8dd9
2019-11-02 00:50:13,d91fa7fe-427b-4696-a1cc-9765204faf52,1,95c349f2-c8f0-4c78-9699-4546752ff354,b9920d0a-1218-4ae7-81d0-040adc25a32e
2019-11-02 00:52:22,f873d12d-09a5-4fdc-b5f5-8cdae5900bbc,1,95c349f2-c8f0-4c78-9699-4546752ff354,630e6c05-969c-45ee-b0ef-f1e75ee62fca
2019-11-02 00:52:36,d2013315-4f0b-4e2f-afdd-3792c377abb1,1,95c349f2-c8f0-4c78-9699-4546752ff354,b5764d29-9e9f-4eff-96c1-880f28870d96
2019-11-02 00:53:57,411571f9-c294-4d09-8934-be23927e5e34,1,95c349f2-c8f0-4c78-9699-4546752ff354,d070c573-46e2-4760-9603-0124c1e9483d
2019-11-02 01:07:10,dbfcfab7-5469-447b-83d4-36faf76f5d88,1,95c349f2-c8f0-4c78-9699-4546752ff354,c1ac9bba-a24e-40a3-9459-60a8f1079796
2019-11-02 01:07:11,e20676b7-109a-4534-86f8-3c4645abebfe,1,95c349f2-c8f0-4c78-9699-4546752ff354,73bbd45d-c12d-49a9-b42d-a20444881cc3
2019-11-02 01:09:12,9e8f4021-e663-4a53-a3e0-36b8fc3d5f98,1,95c349f2-c8f0-4c78-9699-4546752ff354,eb3df129-e910-4327-9c82-56066dcf9010
2019-11-02 01:09:53,f873d12d-09a5-4fdc-b5f5-8cdae5900bbc,1,95c349f2-c8f0-4c78-9699-4546752ff354,b0c67b60-0cf9-44f5-9dd4-795d8cbd8dd9
2019-11-02 01:15:43,d2013315-4f0b-4e2f-afdd-3792c377abb1,1,95c349f2-c8f0-4c78-9699-4546752ff354,eb3df129-e910-4327-9c82-56066dcf9010
2019-11-02 01:15:44,9dcbcab0-318d-4242-857c-223bdfebe735,1,95c349f2-c8f0-4c78-9699-4546752ff354,c1ac9bba-a24e-40a3-9459-60a8f1079796
2019-11-02 01:19:06,81d19391-c625-45be-8973-3e4744b1d440,1,95c349f2-c8f0-4c78-9699-4546752ff354,1c3a4fb0-30f1-4162-8e3b-c5ae8ad2f650
2019-11-02 01:22:48,d2013315-4f0b-4e2f-afdd-3792c377abb1,1,95c349f2-c8f0-4c78-9699-4546752ff354,b5764d29-9e9f-4eff-96c1-880f28870d96
2019-11-02 01:24:41,81d19391-c625-45be-8973-3e4744b1d440,1,95c349f2-c8f0-4c78-9699-4546752ff354,d070c573-46e2-4760-9603-0124c1e9483d
2019-11-02 01:24:41,d2013315-4f0b-4e2f-afdd-3792c377abb1,1,95c349f2-c8f0-4c78-9699-4546752ff354,eb3df129-e910-4327-9c82-56066dcf9010
2019-11-02 01:29:01,81d19391-c625-45be-8973-3e4744b1d440,1,95c349f2-c8f0-4c78-9699-4546752ff354,d070c573-46e2-4760-9603-0124c1e9483d
2019-11-02 01:29:37,81d19391-c625-45be-8973-3e4744b1d440,1,95c349f2-c8f0-4c78-9699-4546752ff354,1383dc2f-80bf-46d2-a294-b6adfeb4cbec
2019-11-02 01:29:39,9e8f4021-e663-4a53-a3e0-36b8fc3d5f98,1,95c349f2-c8f0-4c78-9699-4546752ff354,eb3df129-e910-4327-9c82-56066dcf9010
2019-11-02 01:42:39,81d19391-c625-45be-8973-3e4744b1d440,1,95c349f2-c8f0-4c78-9699-4546752ff354,5e68f4da-b45d-4111-9347-95b34964637f
2019-11-02 01:42:39,d2013315-4f0b-4e2f-afdd-3792c377abb1,1,95c349f2-c8f0-4c78-9699-4546752ff354,eb3df129-e910-4327-9c82-56066dcf9010
2019-11-02 01:43:54,03d71c9f-4463-4aba-bf6f-4e6eda3081d0,1,95c349f2-c8f0-4c78-9699-4546752ff354,fe884641-c823-4b6e-9e7c-edd75e9c8bcb
2019-11-02 01:43:57,f873d12d-09a5-4fdc-b5f5-8cdae5900bbc,1,95c349f2-c8f0-4c78-9699-4546752ff354,b0c67b60-0cf9-44f5-9dd4-795d8cbd8dd9
2019-11-02 01:51:36,f873d12d-09a5-4fdc-b5f5-8cdae5900bbc,1,95c349f2-c8f0-4c78-9699-4546752ff354,630e6c05-969c-45ee-b0ef-f1e75ee62fca
2019-11-02 01:51:36,e20676b7-109a-4534-86f8-3c4645abebfe,1,95c349f2-c8f0-4c78-9699-4546752ff354,73bbd45d-c12d-49a9-b42d-a20444881cc3
2019-11-02 01:55:05,81d19391-c625-45be-8973-3e4744b1d440,1,95c349f2-c8f0-4c78-9699-4546752ff354,d070c573-46e2-4760-9603-0124c1e9483d
2019-11-02 01:55:41,9e8f4021-e663-4a53-a3e0-36b8fc3d5f98,1,95c349f2-c8f0-4c78-9699-4546752ff354,eb3df129-e910-4327-9c82-56066dcf9010
2019-11-02 01:55:41,9dcbcab0-318d-4242-857c-223bdfebe735,1,95c349f2-c8f0-4c78-9699-4546752ff354,1383dc2f-80bf-46d2-a294-b6adfeb4cbec
2019-11-02 01:56:32,ce3acc28-54eb-4653-af56-75a61c22a9c6,1,95c349f2-c8f0-4c78-9699-4546752ff354,eb3df129-e910-4327-9c82-56066dcf9010
2019-11-02 00:04:35,f873d12d-09a5-4fdc-b5f5-8cdae5900bbc,1,5e68f4da-b45d-4111-9347-95b34964637f,630e6c05-969c-45ee-b0ef-f1e75ee62fca
2019-11-02 00:19:28,03d71c9f-4463-4aba-bf6f-4e6eda3081d0,1,5e68f4da-b45d-4111-9347-95b34964637f,fe884641-c823-4b6e-9e7c-edd75e9c8bcb
2019-11-02 00:23:38,e4ac4a73-60d3-4c83-a2e2-d67b07e72a31,1,5e68f4da-b45d-4111-9347-95b34964637f,d070c573-46e2-4760-9603-0124c1e9483d
2019-11-02 00:24:56,0f601f78-5ed5-454c-badd-b6b73f88055a,1,5e68f4da-b45d-4111-9347-95b34964637f,41383d68-7d35-406b-9b31-549f61d00cb2
2019-11-02 00:25:12,9dcbcab0-318d-4242-857c-223bdfebe735,1,5e68f4da-b45d-4111-9347-95b34964637f,eb3df129-e910-4327-9c82-56066dcf9010
2019-11-02 00:25:15,88ad4dd4-4a52-434c-9373-a689cace0448,1,5e68f4da-b45d-4111-9347-95b34964637f,73bbd45d-c12d-49a9-b42d-a20444881cc3
2019-11-02 00:27:11,e4ac4a73-60d3-4c83-a2e2-d67b07e72a31,1,5e68f4da-b45d-4111-9347-95b34964637f,1383dc2f-80bf-46d2-a294-b6adfeb4cbec
2019-11-02 00:27:12,a141389e-e804-4728-9afc-39e64856b459,1,5e68f4da-b45d-4111-9347-95b34964637f,1383dc2f-80bf-46d2-a294-b6adfeb4cbec
2019-11-02 00:32:32,83e7ea1b-0049-49c1-b46a-9dfe3c8c7ec2,1,5e68f4da-b45d-4111-9347-95b34964637f,630e6c05-969c-45ee-b0ef-f1e75ee62fca
2019-11-02 00:32:32,e3a505c8-76c2-4da0-a120-89b32d555c39,1,5e68f4da-b45d-4111-9347-95b34964637f,d070c573-46e2-4760-9603-0124c1e9483d
2019-11-02 00:34:33,a141389e-e804-4728-9afc-39e64856b459,1,5e68f4da-b45d-4111-9347-95b34964637f,805ba59a-7329-4488-b2f4-a93c337d376f
2019-11-02 00:37:04,4b86facf-6bb1-451d-90b6-4e1f81819459,1,5e68f4da-b45d-4111-9347-95b34964637f,5e68f4da-b45d-4111-9347-95b34964637f
2019-11-02 00:38:37,e3a505c8-76c2-4da0-a120-89b32d555c39,1,5e68f4da-b45d-4111-9347-95b34964637f,41383d68-7d35-406b-9b31-549f61d00cb2
2019-11-02 00:38:37,81d19391-c625-45be-8973-3e4744b1d440,1,5e68f4da-b45d-4111-9347-95b34964637f,95c349f2-c8f0-4c78-9699-4546752ff354
2019-11-02 00:39:41,77dc8cb0-7e7a-4d6c-95ee-0271cdacc28d,1,5e68f4da-b45d-4111-9347-95b34964637f,73bbd45d-c12d-49a9-b42d-a20444881cc3
2019-11-02 00:39:42,e3a505c8-76c2-4da0-a120-89b32d555c39,1,5e68f4da-b45d-4111-9347-95b34964637f,1383dc2f-80bf-46d2-a294-b6adfeb4cbec
2019-11-02 00:43:50,e4ac4a73-60d3-4c83-a2e2-d67b07e72a31,1,5e68f4da-b45d-4111-9347-95b34964637f,805ba59a-7329-4488-b2f4-a93c337d376f
2019-11-02 00:43:50,eeae8f00-da2d-4625-8a72-3249c843fa22,1,5e68f4da-b45d-4111-9347-95b34964637f,1383dc2f-80bf-46d2-a294-b6adfeb4cbec
2019-11-02 00:45:24,8e73b580-b787-4e16-a86a-6833518d3587,1,5e68f4da-b45d-4111-9347-95b34964637f,1c3a4fb0-30f1-4162-8e3b-c5ae8ad2f650
2019-11-02 00:46:41,a141389e-e804-4728-9afc-39e64856b459,1,5e68f4da-b45d-4111-9347-95b34964637f,41383d68-7d35-406b-9b31-549f61d00cb2
2019-11-02 00:46:41,e3a505c8-76c2-4da0-a120-89b32d555c39,1,5e68f4da-b45d-4111-9347-95b34964637f,41383d68-7d35-406b-9b31-549f61d00cb2
2019-11-02 00:51:49,9dcbcab0-318d-4242-857c-223bdfebe735,1,5e68f4da-b45d-4111-9347-95b34964637f,eb3df129-e910-4327-9c82-56066dcf9010
2019-11-02 00:51:56,eb76d8ea-3e09-4d4b-a2f5-160a9994bc8f,1,5e68f4da-b45d-4111-9347-95b34964637f,c1ac9bba-a24e-40a3-9459-60a8f1079796
2019-11-02 00:53:08,e3a505c8-76c2-4da0-a120-89b32d555c39,1,5e68f4da-b45d-4111-9347-95b34964637f,41383d68-7d35-406b-9b31-549f61d00cb2
2019-11-02 00:53:36,e4ac4a73-60d3-4c83-a2e2-d67b07e72a31,1,5e68f4da-b45d-4111-9347-95b34964637f,1383dc2f-80bf-46d2-a294-b6adfeb4cbec
2019-11-02 00:53:39,e3a505c8-76c2-4da0-a120-89b32d555c39,1,5e68f4da-b45d-4111-9347-95b34964637f,1383dc2f-80bf-46d2-a294-b6adfeb4cbec
2019-11-02 00:56:20,a141389e-e804-4728-9afc-39e64856b459,1,5e68f4da-b45d-4111-9347-95b34964637f,b9920d0a-1218-4ae7-81d0-040adc25a32e
2019-11-02 00:56:21,4ebae2a3-dd01-481e-a288-8a8cfc02b692,1,5e68f4da-b45d-4111-9347-95b34964637f,d070c573-46e2-4760-9603-0124c1e9483d
2019-11-02 00:59:06,a141389e-e804-4728-9afc-39e64856b459,1,5e68f4da-b45d-4111-9347-95b34964637f,41383d68-7d35-406b-9b31-549f61d00cb2
2019-11-02 00:59:27,77dc8cb0-7e7a-4d6c-95ee-0271cdacc28d,1,5e68f4da-b45d-4111-9347-95b34964637f,c1ac9bba-a24e-40a3-9459-60a8f1079796
2019-11-02 00:59:27,e3a505c8-76c2-4da0-a120-89b32d555c39,1,5e68f4da-b45d-4111-9347-95b34964637f,41383d68-7d35-406b-9b31-549f61d00cb2
2019-11-02 01:07:21,88ad4dd4-4a52-434c-9373-a689cace0448,1,5e68f4da-b45d-4111-9347-95b34964637f,b9920d0a-1218-4ae7-81d0-040adc25a32e
2019-11-02 01:07:30,a141389e-e804-4728-9afc-39e64856b459,1,5e68f4da-b45d-4111-9347-95b34964637f,7a9bdc48-9771-49d9-9903-cdfb2ef80c93
2019-11-02 01:14:06,e4ac4a73-60d3-4c83-a2e2-d67b07e72a31,1,5e68f4da-b45d-4111-9347-95b34964637f,d070c573-46e2-4760-9603-0124c1e9483d
2019-11-02 01:16:00,e3a505c8-76c2-4da0-a120-89b32d555c39,1,5e68f4da-b45d-4111-9347-95b34964637f,805ba59a-7329-4488-b2f4-a93c337d376f
2019-11-02 01:24:12,eb76d8ea-3e09-4d4b-a2f5-160a9994bc8f,1,5e68f4da-b45d-4111-9347-95b34964637f,c1ac9bba-a24e-40a3-9459-60a8f1079796
2019-11-02 01:24:44,e3a505c8-76c2-4da0-a120-89b32d555c39,1,5e68f4da-b45d-4111-9347-95b34964637f,41383d68-7d35-406b-9b31-549f61d00cb2
2019-11-02 01:25:08,eb76d8ea-3e09-4d4b-a2f5-160a9994bc8f,1,5e68f4da-b45d-4111-9347-95b34964637f,630e6c05-969c-45ee-b0ef-f1e75ee62fca
2019-11-02 01:25:26,4ebae2a3-dd01-481e-a288-8a8cfc02b692,1,5e68f4da-b45d-4111-9347-95b34964637f,73bbd45d-c12d-49a9-b42d-a20444881cc3
2019-11-02 01:29:54,e4ac4a73-60d3-4c83-a2e2-d67b07e72a31,1,5e68f4da-b45d-4111-9347-95b34964637f,805ba59a-7329-4488-b2f4-a93c337d376f
2019-11-02 01:29:54,a141389e-e804-4728-9afc-39e64856b459,1,5e68f4da-b45d-4111-9347-95b34964637f,b9920d0a-1218-4ae7-81d0-040adc25a32e
2019-11-02 01:41:25,b578fca1-13b7-4876-82c6-923cc3b58158,1,5e68f4da-b45d-4111-9347-95b34964637f,1c3a4fb0-30f1-4162-8e3b-c5ae8ad2f650
2019-11-02 01:42:54,81d19391-c625-45be-8973-3e4744b1d440,1,5e68f4da-b45d-4111-9347-95b34964637f,95c349f2-c8f0-4c78-9699-4546752ff354
2019-11-02 01:49:54,83e7ea1b-0049-49c1-b46a-9dfe3c8c7ec2,1,5e68f4da-b45d-4111-9347-95b34964637f,1c3a4fb0-30f1-4162-8e3b-c5ae8ad2f650
2019-11-02 01:50:55,4ebae2a3-dd01-481e-a288-8a8cfc02b692,1,5e68f4da-b45d-4111-9347-95b34964637f,73bbd45d-c12d-49a9-b42d-a20444881cc3
2019-11-02 01:50:56,a141389e-e804-4728-9afc-39e64856b459,1,5e68f4da-b45d-4111-9347-95b34964637f,1383dc2f-80bf-46d2-a294-b6adfeb4cbec
2019-11-02 01:55:22,e3a505c8-76c2-4da0-a120-89b32d555c39,1,5e68f4da-b45d-4111-9347-95b34964637f,d070c573-46e2-4760-9603-0124c1e9483d
2019-11-02 01:55:25,4ebae2a3-dd01-481e-a288-8a8cfc02b692,1,5e68f4da-b45d-4111-9347-95b34964637f,41383d68-7d35-406b-9b31-549f61d00cb2
2019-11-02 00:04:49,9e8f4021-e663-4a53-a3e0-36b8fc3d5f98,1,73bbd45d-c12d-49a9-b42d-a20444881cc3,95c349f2-c8f0-4c78-9699-4546752ff354
2019-11-02 00:16:31,6e7a97f4-1184-4091-ac5c-466abc9184a8,1,73bbd45d-c12d-49a9-b42d-a20444881cc3,7a9bdc48-9771-49d9-9903-cdfb2ef80c93
2019-11-02 00:22:42,d2ea26ff-5159-476c-b76d-045f7ae833b1,1,73bbd45d-c12d-49a9-b42d-a20444881cc3,73bbd45d-c12d-49a9-b42d-a20444881cc3
2019-11-02 00:30:35,d2013315-4f0b-4e2f-afdd-3792c377abb1,1,73bbd45d-c12d-49a9-b42d-a20444881cc3,eb3df129-e910-4327-9c82-56066dcf9010
2019-11-02 00:38:21,81d19391-c625-45be-8973-3e4744b1d440,1,73bbd45d-c12d-49a9-b42d-a20444881cc3,5e68f4da-b45d-4111-9347-95b34964637f
2019-11-02 00:40:59,68210dc7-1b6d-4a4c-b2fb-b29da95c8c3e,1,73bbd45d-c12d-49a9-b42d-a20444881cc3,d070c573-46e2-4760-9603-0124c1e9483d
2019-11-02 00:51:40,005d2de1-95dc-47ab-b11a-a819eb5e12f0,1,73bbd45d-c12d-49a9-b42d-a20444881cc3,41383d68-7d35-406b-9b31-549f61d00cb2
2019-11-02 00:54:14,e20676b7-109a-4534-86f8-3c4645abebfe,1,73bbd45d-c12d-49a9-b42d-a20444881cc3,b9920d0a-1218-4ae7-81d0-040adc25a32e
2019-11-02 00:54:44,005d2de1-95dc-47ab-b11a-a819eb5e12f0,1,73bbd45d-c12d-49a9-b42d-a20444881cc3,41383d68-7d35-406b-9b31-549f61d00cb2
2019-11-02 00:55:51,88ad4dd4-4a52-434c-9373-a689cace0448,1,73bbd45d-c12d-49a9-b42d-a20444881cc3,5e68f4da-b45d-4111-9347-95b34964637f
2019-11-02 00:57:03,d2ea26ff-5159-476c-b76d-045f7ae833b1,1,73bbd45d-c12d-49a9-b42d-a20444881cc3,5e68f4da-b45d-4111-9347-95b34964637f
2019-11-02 00:58:16,77dc8cb0-7e7a-4d6c-95ee-0271cdacc28d,1,73bbd45d-c12d-49a9-b42d-a20444881cc3,41383d68-7d35-406b-9b31-549f61d00cb2
2019-11-02 00:59:12,77dc8cb0-7e7a-4d6c-95ee-0271cdacc28d,1,73bbd45d-c12d-49a9-b42d-a20444881cc3,5e68f4da-b45d-4111-9347-95b34964637f
2019-11-02 01:00:18,005d2de1-95dc-47ab-b11a-a819eb5e12f0,1,73bbd45d-c12d-49a9-b42d-a20444881cc3,b5764d29-9e9f-4eff-96c1-880f28870d96
2019-11-02 01:01:48,77dc8cb0-7e7a-4d6c-95ee-0271cdacc28d,1,73bbd45d-c12d-49a9-b42d-a20444881cc3,1383dc2f-80bf-46d2-a294-b6adfeb4cbec
2019-11-02 01:01:48,e20676b7-109a-4534-86f8-3c4645abebfe,1,73bbd45d-c12d-49a9-b42d-a20444881cc3,95c349f2-c8f0-4c78-9699-4546752ff354
2019-11-02 01:24:32,e20676b7-109a-4534-86f8-3c4645abebfe,1,73bbd45d-c12d-49a9-b42d-a20444881cc3,b9920d0a-1218-4ae7-81d0-040adc25a32e
2019-11-02 01:29:10,e20676b7-109a-4534-86f8-3c4645abebfe,1,73bbd45d-c12d-49a9-b42d-a20444881cc3,b9920d0a-1218-4ae7-81d0-040adc25a32e
2019-11-02 01:29:11,83e7ea1b-0049-49c1-b46a-9dfe3c8c7ec2,1,73bbd45d-c12d-49a9-b42d-a20444881cc3,630e6c05-969c-45ee-b0ef-f1e75ee62fca
2019-11-02 01:30:27,83e7ea1b-0049-49c1-b46a-9dfe3c8c7ec2,1,73bbd45d-c12d-49a9-b42d-a20444881cc3,41383d68-7d35-406b-9b31-549f61d00cb2
2019-11-02 01:30:28,4ebae2a3-dd01-481e-a288-8a8cfc02b692,1,73bbd45d-c12d-49a9-b42d-a20444881cc3,41383d68-7d35-406b-9b31-549f61d00cb2
2019-11-02 01:37:05,005d2de1-95dc-47ab-b11a-a819eb5e12f0,1,73bbd45d-c12d-49a9-b42d-a20444881cc3,b0c67b60-0cf9-44f5-9dd4-795d8cbd8dd9
2019-11-02 01:40:38,005d2de1-95dc-47ab-b11a-a819eb5e12f0,1,73bbd45d-c12d-49a9-b42d-a20444881cc3,b0c67b60-0cf9-44f5-9dd4-795d8cbd8dd9
2019-11-02 01:41:08,005d2de1-95dc-47ab-b11a-a819eb5e12f0,1,73bbd45d-c12d-49a9-b42d-a20444881cc3,1383dc2f-80bf-46d2-a294-b6adfeb4cbec
2019-11-02 01:51:10,4ebae2a3-dd01-481e-a288-8a8cfc02b692,1,73bbd45d-c12d-49a9-b42d-a20444881cc3,5e68f4da-b45d-4111-9347-95b34964637f
2019-11-02 01:51:20,005d2de1-95dc-47ab-b11a-a819eb5e12f0,1,73bbd45d-c12d-49a9-b42d-a20444881cc3,b0c67b60-0cf9-44f5-9dd4-795d8cbd8dd9
2019-11-02 01:51:21,e20676b7-109a-4534-86f8-3c4645abebfe,1,73bbd45d-c12d-49a9-b42d-a20444881cc3,95c349f2-c8f0-4c78-9699-4546752ff354
2019-11-02 01:51:27,0f601f78-5ed5-454c-badd-b6b73f88055a,1,73bbd45d-c12d-49a9-b42d-a20444881cc3,1c3a4fb0-30f1-4162-8e3b-c5ae8ad2f650
2019-11-02 00:16:09,83e7ea1b-0049-49c1-b46a-9dfe3c8c7ec2,1,805ba59a-7329-4488-b2f4-a93c337d376f,41383d68-7d35-406b-9b31-549f61d00cb2
2019-11-02 00:22:12,fa2b46fe-e7f8-4d7e-b642-8a88f2d6e59e,1,805ba59a-7329-4488-b2f4-a93c337d376f,630e6c05-969c-45ee-b0ef-f1e75ee62fca
2019-11-02 00:22:57,a141389e-e804-4728-9afc-39e64856b459,1,805ba59a-7329-4488-b2f4-a93c337d376f,7a9bdc48-9771-49d9-9903-cdfb2ef80c93
2019-11-02 00:34:18,a141389e-e804-4728-9afc-39e64856b459,1,805ba59a-7329-4488-b2f4-a93c337d376f,5e68f4da-b45d-4111-9347-95b34964637f
2019-11-02 00:34:49,a141389e-e804-4728-9afc-39e64856b459,1,805ba59a-7329-4488-b2f4-a93c337d376f,b9920d0a-1218-4ae7-81d0-040adc25a32e
2019-11-02 00:52:11,e4ac4a73-60d3-4c83-a2e2-d67b07e72a31,1,805ba59a-7329-4488-b2f4-a93c337d376f,d070c573-46e2-4760-9603-0124c1e9483d
2019-11-02 00:52:51,e4ac4a73-60d3-4c83-a2e2-d67b07e72a31,1,805ba59a-7329-4488-b2f4-a93c337d376f,5e68f4da-b45d-4111-9347-95b34964637f
2019-11-02 00:55:25,eeae8f00-da2d-4625-8a72-3249c843fa22,1,805ba59a-7329-4488-b2f4-a93c337d376f,b5764d29-9e9f-4eff-96c1-880f28870d96
2019-11-02 01:01:19,03d71c9f-4463-4aba-bf6f-4e6eda3081d0,1,805ba59a-7329-4488-b2f4-a93c337d376f,fe884641-c823-4b6e-9e7c-edd75e9c8bcb
2019-11-02 01:01:21,dbfcfab7-5469-447b-83d4-36faf76f5d88,1,805ba59a-7329-4488-b2f4-a93c337d376f,c1ac9bba-a24e-40a3-9459-60a8f1079796
2019-11-02 01:05:19,e3a505c8-76c2-4da0-a120-89b32d555c39,1,805ba59a-7329-4488-b2f4-a93c337d376f,5e68f4da-b45d-4111-9347-95b34964637f
2019-11-02 01:11:29,eeae8f00-da2d-4625-8a72-3249c843fa22,1,805ba59a-7329-4488-b2f4-a93c337d376f,b9920d0a-1218-4ae7-81d0-040adc25a32e
2019-11-02 01:11:52,4d510d09-37d2-43c9-a82a-140ac80bd390,1,805ba59a-7329-4488-b2f4-a93c337d376f,7a9bdc48-9771-49d9-9903-cdfb2ef80c93
2019-11-02 01:23:13,e3a505c8-76c2-4da0-a120-89b32d555c39,1,805ba59a-7329-4488-b2f4-a93c337d376f,5e68f4da-b45d-4111-9347-95b34964637f
2019-11-02 01:30:08,4d510d09-37d2-43c9-a82a-140ac80bd390,1,805ba59a-7329-4488-b2f4-a93c337d376f,1383dc2f-80bf-46d2-a294-b6adfeb4cbec
2019-11-02 01:30:09,e4ac4a73-60d3-4c83-a2e2-d67b07e72a31,1,805ba59a-7329-4488-b2f4-a93c337d376f,b0c67b60-0cf9-44f5-9dd4-795d8cbd8dd9
2019-11-02 01:33:45,03d71c9f-4463-4aba-bf6f-4e6eda3081d0,1,805ba59a-7329-4488-b2f4-a93c337d376f,fe884641-c823-4b6e-9e7c-edd75e9c8bcb
2019-11-02 01:42:09,a141389e-e804-4728-9afc-39e64856b459,1,805ba59a-7329-4488-b2f4-a93c337d376f,b9920d0a-1218-4ae7-81d0-040adc25a32e
2019-11-02 01:43:34,4d510d09-37d2-43c9-a82a-140ac80bd390,1,805ba59a-7329-4488-b2f4-a93c337d376f,7a9bdc48-9771-49d9-9903-cdfb2ef80c93
2019-11-02 01:43:39,03d71c9f-4463-4aba-bf6f-4e6eda3081d0,1,805ba59a-7329-4488-b2f4-a93c337d376f,95c349f2-c8f0-4c78-9699-4546752ff354
2019-11-02 01:43:40,eeae8f00-da2d-4625-8a72-3249c843fa22,1,805ba59a-7329-4488-b2f4-a93c337d376f,b5764d29-9e9f-4eff-96c1-880f28870d96
2019-11-02 01:49:53,95fb2f99-7cf7-4da1-9671-c7110372bccd,1,805ba59a-7329-4488-b2f4-a93c337d376f,b5764d29-9e9f-4eff-96c1-880f28870d96
2019-11-02 01:55:50,07c0ff59-cc23-47ed-8c69-df032e8313d8,1,805ba59a-7329-4488-b2f4-a93c337d376f,eb3df129-e910-4327-9c82-56066dcf9010
2019-11-01 23:47:58,b168b5bf-fd40-47c0-a468-efd9e762f287,1,630e6c05-969c-45ee-b0ef-f1e75ee62fca,7a9bdc48-9771-49d9-9903-cdfb2ef80c93
2019-11-01 23:51:29,0cd4d7bb-be5d-4bc1-8d20-b61544edf2fc,1,630e6c05-969c-45ee-b0ef-f1e75ee62fca,b0c67b60-0cf9-44f5-9dd4-795d8cbd8dd9
2019-11-02 00:06:41,ce3acc28-54eb-4653-af56-75a61c22a9c6,1,630e6c05-969c-45ee-b0ef-f1e75ee62fca,95c349f2-c8f0-4c78-9699-4546752ff354
2019-11-02 00:24:42,9dcbcab0-318d-4242-857c-223bdfebe735,1,630e6c05-969c-45ee-b0ef-f1e75ee62fca,95c349f2-c8f0-4c78-9699-4546752ff354
2019-11-02 00:26:23,411571f9-c294-4d09-8934-be23927e5e34,1,630e6c05-969c-45ee-b0ef-f1e75ee62fca,95c349f2-c8f0-4c78-9699-4546752ff354
2019-11-02 00:34:36,f873d12d-09a5-4fdc-b5f5-8cdae5900bbc,1,630e6c05-969c-45ee-b0ef-f1e75ee62fca,b0c67b60-0cf9-44f5-9dd4-795d8cbd8dd9
2019-11-02 00:34:38,83e7ea1b-0049-49c1-b46a-9dfe3c8c7ec2,1,630e6c05-969c-45ee-b0ef-f1e75ee62fca,1c3a4fb0-30f1-4162-8e3b-c5ae8ad2f650
2019-11-02 00:37:21,b168b5bf-fd40-47c0-a468-efd9e762f287,1,630e6c05-969c-45ee-b0ef-f1e75ee62fca,5e68f4da-b45d-4111-9347-95b34964637f
2019-11-02 00:39:13,83e7ea1b-0049-49c1-b46a-9dfe3c8c7ec2,1,630e6c05-969c-45ee-b0ef-f1e75ee62fca,41383d68-7d35-406b-9b31-549f61d00cb2
2019-11-02 00:39:34,03d71c9f-4463-4aba-bf6f-4e6eda3081d0,1,630e6c05-969c-45ee-b0ef-f1e75ee62fca,805ba59a-7329-4488-b2f4-a93c337d376f
2019-11-02 00:40:20,f873d12d-09a5-4fdc-b5f5-8cdae5900bbc,1,630e6c05-969c-45ee-b0ef-f1e75ee62fca,b0c67b60-0cf9-44f5-9dd4-795d8cbd8dd9
2019-11-02 00:41:36,81accfe9-baf4-4c44-9e0b-f5cd4ebd124e,1,630e6c05-969c-45ee-b0ef-f1e75ee62fca,eb3df129-e910-4327-9c82-56066dcf9010
2019-11-02 00:53:02,f873d12d-09a5-4fdc-b5f5-8cdae5900bbc,1,630e6c05-969c-45ee-b0ef-f1e75ee62fca,b0c67b60-0cf9-44f5-9dd4-795d8cbd8dd9
2019-11-02 00:55:09,eb76d8ea-3e09-4d4b-a2f5-160a9994bc8f,1,630e6c05-969c-45ee-b0ef-f1e75ee62fca,c1ac9bba-a24e-40a3-9459-60a8f1079796
2019-11-02 00:55:10,494f61e0-dfe2-491d-9286-33947eb487e5,1,630e6c05-969c-45ee-b0ef-f1e75ee62fca,c1ac9bba-a24e-40a3-9459-60a8f1079796
2019-11-02 00:58:40,81accfe9-baf4-4c44-9e0b-f5cd4ebd124e,1,630e6c05-969c-45ee-b0ef-f1e75ee62fca,b9920d0a-1218-4ae7-81d0-040adc25a32e
2019-11-02 01:00:48,eb76d8ea-3e09-4d4b-a2f5-160a9994bc8f,1,630e6c05-969c-45ee-b0ef-f1e75ee62fca,eb3df129-e910-4327-9c82-56066dcf9010
2019-11-02 01:01:59,eb76d8ea-3e09-4d4b-a2f5-160a9994bc8f,1,630e6c05-969c-45ee-b0ef-f1e75ee62fca,c1ac9bba-a24e-40a3-9459-60a8f1079796
2019-11-02 01:02:33,f873d12d-09a5-4fdc-b5f5-8cdae5900bbc,1,630e6c05-969c-45ee-b0ef-f1e75ee62fca,b0c67b60-0cf9-44f5-9dd4-795d8cbd8dd9
2019-11-02 01:03:02,83e7ea1b-0049-49c1-b46a-9dfe3c8c7ec2,1,630e6c05-969c-45ee-b0ef-f1e75ee62fca,1c3a4fb0-30f1-4162-8e3b-c5ae8ad2f650
2019-11-02 01:03:03,f873d12d-09a5-4fdc-b5f5-8cdae5900bbc,1,630e6c05-969c-45ee-b0ef-f1e75ee62fca,1383dc2f-80bf-46d2-a294-b6adfeb4cbec
2019-11-02 01:07:39,81accfe9-baf4-4c44-9e0b-f5cd4ebd124e,1,630e6c05-969c-45ee-b0ef-f1e75ee62fca,eb3df129-e910-4327-9c82-56066dcf9010
2019-11-02 01:09:58,eb76d8ea-3e09-4d4b-a2f5-160a9994bc8f,1,630e6c05-969c-45ee-b0ef-f1e75ee62fca,eb3df129-e910-4327-9c82-56066dcf9010
2019-11-02 01:10:38,494f61e0-dfe2-491d-9286-33947eb487e5,1,630e6c05-969c-45ee-b0ef-f1e75ee62fca,b9920d0a-1218-4ae7-81d0-040adc25a32e
2019-11-02 01:11:26,81accfe9-baf4-4c44-9e0b-f5cd4ebd124e,1,630e6c05-969c-45ee-b0ef-f1e75ee62fca,eb3df129-e910-4327-9c82-56066dcf9010
2019-11-02 01:12:52,eb76d8ea-3e09-4d4b-a2f5-160a9994bc8f,1,630e6c05-969c-45ee-b0ef-f1e75ee62fca,1383dc2f-80bf-46d2-a294-b6adfeb4cbec
2019-11-02 01:26:45,eb76d8ea-3e09-4d4b-a2f5-160a9994bc8f,1,630e6c05-969c-45ee-b0ef-f1e75ee62fca,1383dc2f-80bf-46d2-a294-b6adfeb4cbec
2019-11-02 01:30:12,494f61e0-dfe2-491d-9286-33947eb487e5,1,630e6c05-969c-45ee-b0ef-f1e75ee62fca,b5764d29-9e9f-4eff-96c1-880f28870d96
2019-11-02 01:30:12,83e7ea1b-0049-49c1-b46a-9dfe3c8c7ec2,1,630e6c05-969c-45ee-b0ef-f1e75ee62fca,73bbd45d-c12d-49a9-b42d-a20444881cc3
2019-11-02 01:37:43,83e7ea1b-0049-49c1-b46a-9dfe3c8c7ec2,1,630e6c05-969c-45ee-b0ef-f1e75ee62fca,5e68f4da-b45d-4111-9347-95b34964637f
2019-11-02 01:39:19,ad102ceb-bba8-455e-b0a1-14690989356e,1,630e6c05-969c-45ee-b0ef-f1e75ee62fca,5e68f4da-b45d-4111-9347-95b34964637f
2019-11-02 01:41:47,eb76d8ea-3e09-4d4b-a2f5-160a9994bc8f,1,630e6c05-969c-45ee-b0ef-f1e75ee62fca,41383d68-7d35-406b-9b31-549f61d00cb2
2019-11-02 01:43:10,f873d12d-09a5-4fdc-b5f5-8cdae5900bbc,1,630e6c05-969c-45ee-b0ef-f1e75ee62fca,b5764d29-9e9f-4eff-96c1-880f28870d96
2019-11-02 01:43:40,494f61e0-dfe2-491d-9286-33947eb487e5,1,630e6c05-969c-45ee-b0ef-f1e75ee62fca,b5764d29-9e9f-4eff-96c1-880f28870d96
2019-11-02 01:43:41,f873d12d-09a5-4fdc-b5f5-8cdae5900bbc,1,630e6c05-969c-45ee-b0ef-f1e75ee62fca,95c349f2-c8f0-4c78-9699-4546752ff354
2019-11-02 01:50:11,03d71c9f-4463-4aba-bf6f-4e6eda3081d0,1,630e6c05-969c-45ee-b0ef-f1e75ee62fca,fe884641-c823-4b6e-9e7c-edd75e9c8bcb
2019-11-02 01:50:24,f873d12d-09a5-4fdc-b5f5-8cdae5900bbc,1,630e6c05-969c-45ee-b0ef-f1e75ee62fca,95c349f2-c8f0-4c78-9699-4546752ff354
2019-11-02 01:55:55,f873d12d-09a5-4fdc-b5f5-8cdae5900bbc,1,630e6c05-969c-45ee-b0ef-f1e75ee62fca,b0c67b60-0cf9-44f5-9dd4-795d8cbd8dd9
2019-11-02 01:55:56,eb76d8ea-3e09-4d4b-a2f5-160a9994bc8f,1,630e6c05-969c-45ee-b0ef-f1e75ee62fca,5e68f4da-b45d-4111-9347-95b34964637f
