app_number,app_id,trigger,burn,sink,deploy_date,token_interval
1,8ccfc8e5-550c-459d-b967-855893d5becf,9a1e331e-684d-437d-9bb9-fd5543b2949f,0cd4d7bb-be5d-4bc1-8d20-b61544edf2fc,cd005a06-4602-473c-8b69-5ef61b90e9f0,2019-11-01 23:46:40,1.000000
2,4cb868a0-afc8-4b6a-94b7-4e99fb1763f5,ef1d8f18-d6be-4b58-8475-3268255d7f7c,b168b5bf-fd40-47c0-a468-efd9e762f287,48a393b2-cf98-41e6-b2e3-ca8043406a93,2019-11-01 23:47:44,1.000000
3,363a86ba-d6d0-4a85-a527-5fe98fef3db5,62eab0fc-8248-483c-8ca4-8ddaa730c6cb,07c0ff59-cc23-47ed-8c69-df032e8313d8,ca43aa0e-1909-4caf-82ac-21325fad77bd,2019-11-01 23:48:48,1.000000
4,630767ac-6270-433a-89df-bd0131f86b2a,9ce1eb3f-6d4b-4c08-983f-a3d2ab9934fb,f873d12d-09a5-4fdc-b5f5-8cdae5900bbc,79842650-21c7-4719-81fc-383698daaeeb,2019-11-01 23:49:52,0.200000
5,ada055ce-55cf-41d1-8293-384fc51ab5fc,43f01d16-9fbb-46ef-a9c8-8627538a3f96,e20676b7-109a-4534-86f8-3c4645abebfe,58db3f47-1d47-4bd5-9b76-86d8f45d56a6,2019-11-01 23:50:56,0.200000
6,757fe430-f5bd-4d3f-8964-e878b7d547b8,804b4625-c7a9-49a6-adec-8b88ab09ec3c,9e8f4021-e663-4a53-a3e0-36b8fc3d5f98,c83cfb59-014e-42d6-8db0-dcba0566156b,2019-11-01 23:52:00,0.200000
7,e2250589-07c2-4778-b12f-3ad6d3b0e0af,465adaf2-38ca-4c70-b690-7620687ddcf2,b3c06da2-6278-4897-a4cc-f4eabcec58d7,02defa02-2dea-45f0-ad5f-bb23290e819b,2019-11-01 23:53:03,0.200000
8,da69b68b-a08c-485c-95f1-acb33a9cfebf,d111685e-421e-473c-becb-b9de3be70369,d91fa7fe-427b-4696-a1cc-9765204faf52,e0835170-3d72-44b8-903a-645baa7dd518,2019-11-01 23:54:07,1.000000
9,7218b68d-b190-4da2-8431-08469c9295a3,5f1f59b2-6f93-4696-ae4e-bf9aedfa9a61,6e7a97f4-1184-4091-ac5c-466abc9184a8,32002db3-6f18-4c31-86f0-6e89768fe70e,2019-11-01 23:55:11,0.200000
10,6a413cdd-ec2c-4734-a7d4-b5dc62270061,ff99fb10-a0a1-46c6-a4ab-be090ab87411,4d510d09-37d2-43c9-a82a-140ac80bd390,68ca3844-0e31-4ba8-8937-4d598e18979e,2019-11-01 23:56:15,0.200000
11,df55b9c0-b4e8-4193-9561-7d3d08f8a00a,d502ee40-2776-45f2-a88b-f13aeabb0fa8,83e7ea1b-0049-49c1-b46a-9dfe3c8c7ec2,466bb880-4571-47ca-9d15-1f96692bb522,2019-11-01 23:57:19,0.200000
12,fe0a11de-988e-43e4-8fd6-5361db10c753,f405e667-bc97-4df4-b439-f8f27513061b,88ad4dd4-4a52-434c-9373-a689cace0448,7b312ec2-5abb-421f-be7a-ed20c3acfd33,2019-11-01 23:58:22,1.000000
13,67ce5d81-4aec-45ca-a84b-57f19bc030a4,bb6452d2-e0c2-40d3-ac6c-148b7d54d80f,dbfcfab7-5469-447b-83d4-36faf76f5d88,72b5d3d0-5d1f-446a-a610-5a72fb4c6622,2019-11-01 23:59:26,0.200000
14,4e9099a6-47b6-4171-a07c-6b3e6e731ac6,1b55d3d1-c896-4103-9644-91474ae9c6f1,eadd1b62-5f36-4c7d-8c91-727c5d2c53b6,9e14799b-c5a0-47bf-8b59-ebb94de89d51,2019-11-02 00:00:30,0.200000
15,c2762547-71c8-4ccb-9d54-5d889c0b1516,39843eb4-9697-4898-b2a2-1b53200fd1f6,ce3acc28-54eb-4653-af56-75a61c22a9c6,1884ba75-8523-4652-8c50-acc94889740d,2019-11-02 00:01:34,1.000000
16,0ed6156a-8042-4308-a46c-49c7c4fc8cee,064857bc-f85d-44de-87dd-c1ecdcd19ad1,ed61479a-7e53-4ebd-991f-cb2654f101fb,98c26b28-7e4f-4d68-88ec-f94dbc64c44e,2019-11-02 00:02:37,1.000000
17,bbd08c19-5836-4bdb-9aa5-d58f7dc176e4,6b93d648-8e5d-42e2-982e-140ee204dcf8,494f61e0-dfe2-491d-9286-33947eb487e5,e32843c7-2be1-4a3a-994e-dcc34a36c8b1,2019-11-02 00:03:41,0.200000
18,d00b6831-096c-4b5e-b257-8d1390e3f75f,e35516cc-c42e-49de-8c4a-50db2f815b4a,3f9c4f0a-3f0d-48ae-a9b3-f1c5ad666c38,a6f621c5-8266-4da0-9e4f-dc8444133f44,2019-11-02 00:04:45,1.000000
19,b06d7f5a-454c-46ab-a150-406980f83583,1ab74ea2-6cbd-408b-8005-16b7dd5ac2b6,e3a505c8-76c2-4da0-a120-89b32d555c39,77c2715a-ee14-4258-a2cc-64376ef4af39,2019-11-02 00:05:49,0.200000
20,595a6f24-376f-4eb5-bf30-cf93d8647a97,8a9f10ef-0930-4f5d-89a0-9b724d47d99d,6966ebd6-272c-4c15-8599-f8081b6b637d,060065cd-e581-4426-9740-8959d20162f0,2019-11-02 00:06:53,1.000000
21,c676bc73-030f-4848-ac72-58005e010277,70c0f0f5-5340-4c76-9805-36391dc54f8f,03d71c9f-4463-4aba-bf6f-4e6eda3081d0,74730857-e535-4f1d-b13a-c0304c02b8ad,2019-11-02 00:07:57,0.200000
22,f0121f7d-5341-4ec7-a693-f9241167c520,28171f14-2c73-4a80-8a65-de03287ebeb3,4ebae2a3-dd01-481e-a288-8a8cfc02b692,1ff9fe3b-0a3b-4cc2-a90b-f45ef906a77d,2019-11-02 00:09:01,0.200000
23,e1b226da-be94-486c-a2b3-16fe6ab8509c,4e9f8b9d-e8eb-44fb-bea7-f56d0262624b,a141389e-e804-4728-9afc-39e64856b459,019131e5-49f0-4b5b-b23d-029589e4525e,2019-11-02 00:10:04,0.200000
24,d87535f4-9cde-4d0e-b32e-94f8ac5f3508,f36f1c53-ebde-4577-b167-76f68cfed7cb,0f601f78-5ed5-454c-badd-b6b73f88055a,903db168-2b61-44c5-8a02-893622efe6c2,2019-11-02 00:11:08,1.000000
25,fad8a1db-940d-40d4-b88d-0df4ce810d21,f7f6c249-07d9-41e8-928e-80d8b82bd960,ad102ceb-bba8-455e-b0a1-14690989356e,d6523583-45cc-4f7b-bf14-fca43ef56b9b,2019-11-02 00:12:12,1.000000
26,64ac3926-8832-4d35-b4ee-738d24fc72f9,576c3982-34c3-4363-adb0-825f9538f46f,4b86facf-6bb1-451d-90b6-4e1f81819459,8fc542fb-8c2b-476a-b33f-95f1c54cda63,2019-11-02 00:13:16,1.000000
27,6da4c52b-434a-473f-9b1d-8efdc1fec333,a657fdb0-faf1-4442-9acc-995436e8c519,e4ac4a73-60d3-4c83-a2e2-d67b07e72a31,55d88fd6-5751-49a2-8e49-6e64860a0bdb,2019-11-02 00:14:20,0.200000
28,884ca950-c958-4e11-a9fe-8aa5785f746a,51f31c36-afc3-4077-8b7b-5dcca18270ee,d2ea26ff-5159-476c-b76d-045f7ae833b1,90c08282-8e57-421c-9e93-09e775c46369,2019-11-02 00:15:23,1.000000
29,cb0fe9ce-69a1-4b50-be3a-5edef5ea0687,242ee9a9-0443-4257-ab24-f75470e2250d,411571f9-c294-4d09-8934-be23927e5e34,7545b0c9-ef29-4803-90ba-3938ea8dc036,2019-11-02 00:16:27,1.000000
30,c0b46cd4-0445-4af6-8eaf-331dd8f87b50,6eaeb1f3-7f95-49ed-877a-502db8868f2d,a8e0592f-747a-4ad4-bce4-d9390eebe649,b013f0a4-cafb-457d-a478-4b273135da78,2019-11-02 00:17:31,1.000000
31,cb421070-4f57-4e0c-937f-134a2b76432a,b7899983-fa5f-4827-a989-7ebf8e404fc6,fa2b46fe-e7f8-4d7e-b642-8a88f2d6e59e,650c6358-c4c5-4c7a-96b4-be8fd428f4fb,2019-11-02 00:18:35,1.000000
32,eb485e18-23a0-4847-bed2-112a712fd53c,0438f15a-8c8d-4105-9ff6-afff1fd501a5,9dcbcab0-318d-4242-857c-223bdfebe735,7aaf5b1a-9d09-405d-92a3-edc61cc943c9,2019-11-02 00:19:39,0.200000
33,4dbd007c-67d6-4343-be40-dac2adbaefc5,18fd88c1-6e64-4920-b726-0b9f598dd810,b578fca1-13b7-4876-82c6-923cc3b58158,c4924a87-9714-4f37-9855-c5e64ab08684,2019-11-02 00:20:42,1.000000
34,d47d2dc1-5d50-44ee-8ddd-c3341957ae48,f6dc771c-80a2-4856-aa25-50260b245e00,eeae8f00-da2d-4625-8a72-3249c843fa22,11bad0d2-0b59-45e0-b14c-d90e2cc86a7d,2019-11-02 00:21:46,0.200000
35,426c2e7e-128c-44b1-82ca-8075e1a73ce1,39b8a30b-272e-4e3a-9e94-3caced2bb24b,9a31ba79-4cc5-4f0a-9552-46d46056c484,fb25dfaf-1f0f-4e3e-bff7-63126d75b069,2019-11-02 00:22:50,1.000000
36,8204e53f-821c-492c-b56c-ea8470f9931b,b82924e1-7980-4c30-943f-c8a82aa0635a,81accfe9-baf4-4c44-9e0b-f5cd4ebd124e,2a32ee2a-c632-4a04-b048-b25575b7240f,2019-11-02 00:23:53,0.200000
37,5706d15c-54a1-49f2-a3a1-f1c2e6952d31,f90d0fb3-6697-4f1f-907b-ebf200006d08,32434d8a-e527-4f3a-8b24-fce0818c3378,30ef7d80-2075-4091-8ea4-90904c9e6705,2019-11-02 00:24:57,1.000000
38,ce755a4c-15f4-4b96-b3d2-fae574c41542,2f5f5731-2b99-4e23-b819-db55708fbbed,450e5731-3c2c-4f44-a174-a814402b5dd8,d70d4cd9-76ef-4222-aaec-17211f9e2b5c,2019-11-02 00:26:01,1.000000
39,8fa751e5-e32f-425d-8f4c-0659e709cea2,187d480f-94b5-491e-9b09-4d61f9640f65,d2013315-4f0b-4e2f-afdd-3792c377abb1,83c70cc9-e43a-418c-be97-f1bceca3c12d,2019-11-02 00:27:05,0.200000
40,af938952-30bf-4a43-988e-eb460c3664a4,a2e0947a-840c-4ce5-8ed2-bf35d67067c4,95fb2f99-7cf7-4da1-9671-c7110372bccd,ee5e4c62-e459-43d4-869e-400e72022aaa,2019-11-02 00:28:09,0.200000
41,3786415d-f248-4652-b897-65039eb62bc0,bb6ba210-92d7-48d8-8bf9-e060c85c564d,8e93a20b-7953-47be-9335-34336f2ac9d6,4cf29d03-838c-4722-870b-7337adf0db55,2019-11-02 00:29:14,1.000000
42,63dcd322-5a8b-44fd-bd64-b0c544ee8ad4,e6d51c24-453a-4c3e-86f9-780961ccd728,f2cf0b2c-b245-40f9-9a63-ca917289dc23,82a60d67-f21b-421f-b69d-8d2312d3d4bc,2019-11-02 00:30:19,0.200000
43,3717b73e-b3c6-4ef7-962e-640462cacbe2,83de1bbb-69a6-4a2f-b1af-d457878817a0,005d2de1-95dc-47ab-b11a-a819eb5e12f0,dbf52938-bf3a-4e78-9f88-71760e66f839,2019-11-02 00:31:24,0.200000
44,32771275-8459-48f7-909c-76e03f0878ea,f0e54596-6ac5-4d3c-b814-67dc888f3a18,77dc8cb0-7e7a-4d6c-95ee-0271cdacc28d,48c1d67c-0273-4479-8e92-78c78cdab658,2019-11-02 00:32:28,0.200000
45,e943a40f-4abb-4d5a-972a-788de1884ac5,7ebee809-a4a0-4b28-b723-10b7383be4c1,5bf9091d-c98e-4445-8adf-1acde23f2387,7a7cf0f8-dd0e-4a0e-90e0-a4b5e4aaae26,2019-11-02 00:33:32,1.000000
46,bdc193ef-3405-455a-be57-d43612d4cf3b,ed4b5a0c-6a6e-4158-8c8c-208d7b5bd39e,81d19391-c625-45be-8973-3e4744b1d440,4145e9b3-513f-4cb7-a503-2af3b9e55409,2019-11-02 00:34:36,0.200000
47,beb33e41-1a1b-4e02-b2a9-154495d83b62,ce87bb6e-6905-46c4-8ca3-a9c9fcbeaeba,8e73b580-b787-4e16-a86a-6833518d3587,39e9109c-279f-42c4-8a98-fac4c5cce553,2019-11-02 00:35:39,0.200000
48,a788e1be-7350-420f-8a8a-edfaf60e0daa,f5f20115-f806-4793-961a-352563b44b14,68210dc7-1b6d-4a4c-b2fb-b29da95c8c3e,72b43105-87e1-484b-b398-587bf93e545d,2019-11-02 00:36:43,1.000000
49,82552c9f-295e-49a7-814e-792d8bb49cd7,e0acd03b-e03d-482d-8b62-1a3860a20f90,eb76d8ea-3e09-4d4b-a2f5-160a9994bc8f,9ef90145-3d77-4885-8e22-63df33d011ea,2019-11-02 00:37:48,0.200000
50,b7b79d31-c727-44f0-8091-560c651306ab,c5165597-d515-4ebf-a3c5-d682ca4a581d,9576ce7b-f37f-4fb8-b32d-2f97ed7853ae,c3de0861-6b34-431f-a17f-847150f28c0a,2019-11-02 00:38:52,1.000000
