date,actor,success,from,to
2019-03-25 12:03:11,10dbb1cf-49d3-4819-b051-7233b6828b0a,1,287fa33b-802d-4e2f-b7b6-93fa2b8cfcae,3f4ec104-b629-4add-8738-ecb4c97bff6b
2019-03-25 12:03:17,63c3c6e8-0070-4893-8cf7-b65da3545afd,1,287fa33b-802d-4e2f-b7b6-93fa2b8cfcae,3f4ec104-b629-4add-8738-ecb4c97bff6b
2019-03-25 12:03:17,ae773b63-14cb-4503-aada-c5ce7ba883bb,1,287fa33b-802d-4e2f-b7b6-93fa2b8cfcae,3f4ec104-b629-4add-8738-ecb4c97bff6b
2019-03-25 12:10:06,ae773b63-14cb-4503-aada-c5ce7ba883bb,1,3f4ec104-b629-4add-8738-ecb4c97bff6b,571b5eda-faba-4ae7-8326-e086a709d3b9
2019-03-25 12:10:06,10dbb1cf-49d3-4819-b051-7233b6828b0a,1,3f4ec104-b629-4add-8738-ecb4c97bff6b,571b5eda-faba-4ae7-8326-e086a709d3b9
2019-03-25 12:03:17,500768b2-5950-4d98-9cb1-27cf5518242e,0,NA,NA
2019-03-25 12:03:22,500768b2-5950-4d98-9cb1-27cf5518242e,0,NA,NA
2019-03-25 12:03:49,500768b2-5950-4d98-9cb1-27cf5518242e,0,NA,NA
2019-03-25 12:07:16,1b70a2cb-4648-4213-9857-ea32a69b174f,0,NA,NA
2019-03-25 12:07:21,1b70a2cb-4648-4213-9857-ea32a69b174f,0,NA,NA
2019-03-25 12:07:26,1b70a2cb-4648-4213-9857-ea32a69b174f,0,NA,NA
2019-03-25 12:07:31,1b70a2cb-4648-4213-9857-ea32a69b174f,0,NA,NA
2019-03-25 12:07:37,1b70a2cb-4648-4213-9857-ea32a69b174f,0,NA,NA
2019-03-25 12:07:41,1b70a2cb-4648-4213-9857-ea32a69b174f,0,NA,NA
2019-03-25 12:07:46,1b70a2cb-4648-4213-9857-ea32a69b174f,0,NA,NA
2019-03-25 12:07:51,1b70a2cb-4648-4213-9857-ea32a69b174f,0,NA,NA
2019-03-25 12:07:56,1b70a2cb-4648-4213-9857-ea32a69b174f,0,NA,NA
2019-03-25 12:08:01,1b70a2cb-4648-4213-9857-ea32a69b174f,0,NA,NA
2019-03-25 12:08:06,1b70a2cb-4648-4213-9857-ea32a69b174f,0,NA,NA
2019-03-25 12:08:11,1b70a2cb-4648-4213-9857-ea32a69b174f,0,NA,NA
2019-03-25 12:08:16,1b70a2cb-4648-4213-9857-ea32a69b174f,0,NA,NA
2019-03-25 12:08:21,1b70a2cb-4648-4213-9857-ea32a69b174f,0,NA,NA
2019-03-25 12:13:39,1b70a2cb-4648-4213-9857-ea32a69b174f,0,NA,NA
2019-03-25 12:13:44,1b70a2cb-4648-4213-9857-ea32a69b174f,0,NA,NA
2019-03-25 12:13:49,1b70a2cb-4648-4213-9857-ea32a69b174f,0,NA,NA
2019-03-25 12:13:54,1b70a2cb-4648-4213-9857-ea32a69b174f,0,NA,NA
2019-03-25 12:14:00,1b70a2cb-4648-4213-9857-ea32a69b174f,0,NA,NA
2019-03-25 12:14:06,1b70a2cb-4648-4213-9857-ea32a69b174f,0,NA,NA
2019-03-25 12:14:11,1b70a2cb-4648-4213-9857-ea32a69b174f,0,NA,NA
2019-03-25 12:14:16,1b70a2cb-4648-4213-9857-ea32a69b174f,0,NA,NA
2019-03-25 12:14:22,1b70a2cb-4648-4213-9857-ea32a69b174f,0,NA,NA
2019-03-25 12:14:27,1b70a2cb-4648-4213-9857-ea32a69b174f,0,NA,NA
2019-03-25 12:14:33,1b70a2cb-4648-4213-9857-ea32a69b174f,0,NA,NA
2019-03-25 12:14:38,1b70a2cb-4648-4213-9857-ea32a69b174f,0,NA,NA
2019-03-25 12:14:42,1b70a2cb-4648-4213-9857-ea32a69b174f,0,NA,NA
2019-03-25 12:14:48,1b70a2cb-4648-4213-9857-ea32a69b174f,0,NA,NA
2019-03-25 12:14:53,1b70a2cb-4648-4213-9857-ea32a69b174f,0,NA,NA
2019-03-25 12:14:58,1b70a2cb-4648-4213-9857-ea32a69b174f,0,NA,NA
2019-03-25 12:15:03,1b70a2cb-4648-4213-9857-ea32a69b174f,0,NA,NA
2019-03-25 12:15:08,1b70a2cb-4648-4213-9857-ea32a69b174f,0,NA,NA
2019-03-25 12:15:13,1b70a2cb-4648-4213-9857-ea32a69b174f,0,NA,NA
2019-03-25 12:15:18,1b70a2cb-4648-4213-9857-ea32a69b174f,0,NA,NA
2019-03-25 12:15:23,1b70a2cb-4648-4213-9857-ea32a69b174f,0,NA,NA
2019-03-25 12:15:28,1b70a2cb-4648-4213-9857-ea32a69b174f,0,NA,NA
2019-03-25 12:15:33,1b70a2cb-4648-4213-9857-ea32a69b174f,0,NA,NA
2019-03-25 12:15:38,1b70a2cb-4648-4213-9857-ea32a69b174f,0,NA,NA
2019-03-25 12:15:43,1b70a2cb-4648-4213-9857-ea32a69b174f,0,NA,NA
2019-03-25 12:15:48,1b70a2cb-4648-4213-9857-ea32a69b174f,0,NA,NA
2019-03-25 12:15:53,1b70a2cb-4648-4213-9857-ea32a69b174f,0,NA,NA
2019-03-25 12:15:58,1b70a2cb-4648-4213-9857-ea32a69b174f,0,NA,NA
2019-03-25 12:16:03,1b70a2cb-4648-4213-9857-ea32a69b174f,0,NA,NA
2019-03-25 12:16:08,1b70a2cb-4648-4213-9857-ea32a69b174f,0,NA,NA
2019-03-25 12:16:13,1b70a2cb-4648-4213-9857-ea32a69b174f,0,NA,NA
2019-03-25 12:16:18,1b70a2cb-4648-4213-9857-ea32a69b174f,0,NA,NA
2019-03-25 12:16:23,1b70a2cb-4648-4213-9857-ea32a69b174f,0,NA,NA
2019-03-25 12:16:28,1b70a2cb-4648-4213-9857-ea32a69b174f,0,NA,NA
2019-03-25 12:16:33,1b70a2cb-4648-4213-9857-ea32a69b174f,0,NA,NA
2019-03-25 12:16:38,1b70a2cb-4648-4213-9857-ea32a69b174f,0,NA,NA
2019-03-25 12:17:43,1b70a2cb-4648-4213-9857-ea32a69b174f,0,NA,NA
2019-03-25 12:17:48,1b70a2cb-4648-4213-9857-ea32a69b174f,0,NA,NA
2019-03-25 12:17:53,1b70a2cb-4648-4213-9857-ea32a69b174f,0,NA,NA
2019-03-25 12:17:59,1b70a2cb-4648-4213-9857-ea32a69b174f,0,NA,NA
2019-03-25 12:18:03,1b70a2cb-4648-4213-9857-ea32a69b174f,0,NA,NA
2019-03-25 12:18:09,1b70a2cb-4648-4213-9857-ea32a69b174f,0,NA,NA
2019-03-25 12:18:14,1b70a2cb-4648-4213-9857-ea32a69b174f,0,NA,NA
2019-03-25 12:18:20,1b70a2cb-4648-4213-9857-ea32a69b174f,0,NA,NA
2019-03-25 12:18:25,1b70a2cb-4648-4213-9857-ea32a69b174f,0,NA,NA
2019-03-25 12:18:30,1b70a2cb-4648-4213-9857-ea32a69b174f,0,NA,NA
2019-03-25 12:18:36,1b70a2cb-4648-4213-9857-ea32a69b174f,0,NA,NA
2019-03-25 12:18:41,1b70a2cb-4648-4213-9857-ea32a69b174f,0,NA,NA
2019-03-25 12:04:59,ae773b63-14cb-4503-aada-c5ce7ba883bb,0,NA,NA
2019-03-25 12:04:59,10dbb1cf-49d3-4819-b051-7233b6828b0a,0,NA,NA
