date,node_id,cpu_mips
2019-03-25 12:03:17,571b5eda-faba-4ae7-8326-e086a709d3b9,2
2019-03-25 12:03:17,3f4ec104-b629-4add-8738-ecb4c97bff6b,11
2019-03-25 12:03:17,ed976756-9710-441f-b1f0-2275cff1a139,8
2019-03-25 12:03:17,287fa33b-802d-4e2f-b7b6-93fa2b8cfcae,52
2019-03-25 12:03:17,86a001c8-4d7d-4d94-bb46-45147af36627,6
2019-03-25 12:03:17,b629e703-94dc-48ba-a898-c2457f25bee3,0
2019-03-25 12:03:22,571b5eda-faba-4ae7-8326-e086a709d3b9,2
2019-03-25 12:03:22,3f4ec104-b629-4add-8738-ecb4c97bff6b,11
2019-03-25 12:03:22,ed976756-9710-441f-b1f0-2275cff1a139,8
2019-03-25 12:03:22,287fa33b-802d-4e2f-b7b6-93fa2b8cfcae,52
2019-03-25 12:03:22,86a001c8-4d7d-4d94-bb46-45147af36627,6
2019-03-25 12:03:22,b629e703-94dc-48ba-a898-c2457f25bee3,0
2019-03-25 12:03:49,571b5eda-faba-4ae7-8326-e086a709d3b9,3
2019-03-25 12:03:49,3f4ec104-b629-4add-8738-ecb4c97bff6b,7
2019-03-25 12:03:49,ed976756-9710-441f-b1f0-2275cff1a139,4
2019-03-25 12:03:49,287fa33b-802d-4e2f-b7b6-93fa2b8cfcae,52
2019-03-25 12:03:49,86a001c8-4d7d-4d94-bb46-45147af36627,7
2019-03-25 12:03:49,b629e703-94dc-48ba-a898-c2457f25bee3,0
2019-03-25 12:07:16,571b5eda-faba-4ae7-8326-e086a709d3b9,11
2019-03-25 12:07:16,3f4ec104-b629-4add-8738-ecb4c97bff6b,0
2019-03-25 12:07:16,ed976756-9710-441f-b1f0-2275cff1a139,0
2019-03-25 12:07:16,287fa33b-802d-4e2f-b7b6-93fa2b8cfcae,80
2019-03-25 12:07:16,86a001c8-4d7d-4d94-bb46-45147af36627,8
2019-03-25 12:07:16,b629e703-94dc-48ba-a898-c2457f25bee3,0
2019-03-25 12:07:21,571b5eda-faba-4ae7-8326-e086a709d3b9,11
2019-03-25 12:07:21,3f4ec104-b629-4add-8738-ecb4c97bff6b,0
2019-03-25 12:07:21,ed976756-9710-441f-b1f0-2275cff1a139,0
2019-03-25 12:07:21,287fa33b-802d-4e2f-b7b6-93fa2b8cfcae,123
2019-03-25 12:07:21,86a001c8-4d7d-4d94-bb46-45147af36627,8
2019-03-25 12:07:21,b629e703-94dc-48ba-a898-c2457f25bee3,0
2019-03-25 12:07:26,571b5eda-faba-4ae7-8326-e086a709d3b9,11
2019-03-25 12:07:26,3f4ec104-b629-4add-8738-ecb4c97bff6b,0
2019-03-25 12:07:26,ed976756-9710-441f-b1f0-2275cff1a139,0
2019-03-25 12:07:26,287fa33b-802d-4e2f-b7b6-93fa2b8cfcae,123
2019-03-25 12:07:26,86a001c8-4d7d-4d94-bb46-45147af36627,8
2019-03-25 12:07:26,b629e703-94dc-48ba-a898-c2457f25bee3,0
2019-03-25 12:07:31,571b5eda-faba-4ae7-8326-e086a709d3b9,11
2019-03-25 12:07:31,3f4ec104-b629-4add-8738-ecb4c97bff6b,0
2019-03-25 12:07:31,ed976756-9710-441f-b1f0-2275cff1a139,0
2019-03-25 12:07:31,287fa33b-802d-4e2f-b7b6-93fa2b8cfcae,123
2019-03-25 12:07:31,86a001c8-4d7d-4d94-bb46-45147af36627,8
2019-03-25 12:07:31,b629e703-94dc-48ba-a898-c2457f25bee3,0
2019-03-25 12:07:37,571b5eda-faba-4ae7-8326-e086a709d3b9,11
2019-03-25 12:07:37,3f4ec104-b629-4add-8738-ecb4c97bff6b,0
2019-03-25 12:07:37,ed976756-9710-441f-b1f0-2275cff1a139,0
2019-03-25 12:07:37,287fa33b-802d-4e2f-b7b6-93fa2b8cfcae,123
2019-03-25 12:07:37,86a001c8-4d7d-4d94-bb46-45147af36627,8
2019-03-25 12:07:37,b629e703-94dc-48ba-a898-c2457f25bee3,0
2019-03-25 12:07:41,571b5eda-faba-4ae7-8326-e086a709d3b9,11
2019-03-25 12:07:41,3f4ec104-b629-4add-8738-ecb4c97bff6b,0
2019-03-25 12:07:41,ed976756-9710-441f-b1f0-2275cff1a139,4
2019-03-25 12:07:41,287fa33b-802d-4e2f-b7b6-93fa2b8cfcae,123
2019-03-25 12:07:41,86a001c8-4d7d-4d94-bb46-45147af36627,8
2019-03-25 12:07:41,b629e703-94dc-48ba-a898-c2457f25bee3,0
2019-03-25 12:07:46,571b5eda-faba-4ae7-8326-e086a709d3b9,11
2019-03-25 12:07:46,3f4ec104-b629-4add-8738-ecb4c97bff6b,0
2019-03-25 12:07:46,ed976756-9710-441f-b1f0-2275cff1a139,4
2019-03-25 12:07:46,287fa33b-802d-4e2f-b7b6-93fa2b8cfcae,123
2019-03-25 12:07:46,86a001c8-4d7d-4d94-bb46-45147af36627,8
2019-03-25 12:07:46,b629e703-94dc-48ba-a898-c2457f25bee3,0
2019-03-25 12:07:51,571b5eda-faba-4ae7-8326-e086a709d3b9,11
2019-03-25 12:07:51,3f4ec104-b629-4add-8738-ecb4c97bff6b,0
2019-03-25 12:07:51,ed976756-9710-441f-b1f0-2275cff1a139,4
2019-03-25 12:07:51,287fa33b-802d-4e2f-b7b6-93fa2b8cfcae,123
2019-03-25 12:07:51,86a001c8-4d7d-4d94-bb46-45147af36627,8
2019-03-25 12:07:51,b629e703-94dc-48ba-a898-c2457f25bee3,0
2019-03-25 12:07:56,571b5eda-faba-4ae7-8326-e086a709d3b9,11
2019-03-25 12:07:56,3f4ec104-b629-4add-8738-ecb4c97bff6b,0
2019-03-25 12:07:56,ed976756-9710-441f-b1f0-2275cff1a139,4
2019-03-25 12:07:56,287fa33b-802d-4e2f-b7b6-93fa2b8cfcae,123
2019-03-25 12:07:56,86a001c8-4d7d-4d94-bb46-45147af36627,8
2019-03-25 12:07:56,b629e703-94dc-48ba-a898-c2457f25bee3,0
2019-03-25 12:08:01,571b5eda-faba-4ae7-8326-e086a709d3b9,11
2019-03-25 12:08:01,3f4ec104-b629-4add-8738-ecb4c97bff6b,0
2019-03-25 12:08:01,ed976756-9710-441f-b1f0-2275cff1a139,4
2019-03-25 12:08:01,287fa33b-802d-4e2f-b7b6-93fa2b8cfcae,123
2019-03-25 12:08:01,86a001c8-4d7d-4d94-bb46-45147af36627,8
2019-03-25 12:08:01,b629e703-94dc-48ba-a898-c2457f25bee3,0
2019-03-25 12:08:06,571b5eda-faba-4ae7-8326-e086a709d3b9,11
2019-03-25 12:08:06,3f4ec104-b629-4add-8738-ecb4c97bff6b,0
2019-03-25 12:08:06,ed976756-9710-441f-b1f0-2275cff1a139,4
2019-03-25 12:08:06,287fa33b-802d-4e2f-b7b6-93fa2b8cfcae,123
2019-03-25 12:08:06,86a001c8-4d7d-4d94-bb46-45147af36627,8
2019-03-25 12:08:06,b629e703-94dc-48ba-a898-c2457f25bee3,0
2019-03-25 12:08:11,571b5eda-faba-4ae7-8326-e086a709d3b9,11
2019-03-25 12:08:11,3f4ec104-b629-4add-8738-ecb4c97bff6b,0
2019-03-25 12:08:11,ed976756-9710-441f-b1f0-2275cff1a139,4
2019-03-25 12:08:11,287fa33b-802d-4e2f-b7b6-93fa2b8cfcae,123
2019-03-25 12:08:11,86a001c8-4d7d-4d94-bb46-45147af36627,8
2019-03-25 12:08:11,b629e703-94dc-48ba-a898-c2457f25bee3,0
2019-03-25 12:08:16,571b5eda-faba-4ae7-8326-e086a709d3b9,11
2019-03-25 12:08:16,3f4ec104-b629-4add-8738-ecb4c97bff6b,0
2019-03-25 12:08:16,ed976756-9710-441f-b1f0-2275cff1a139,4
2019-03-25 12:08:16,287fa33b-802d-4e2f-b7b6-93fa2b8cfcae,123
2019-03-25 12:08:16,86a001c8-4d7d-4d94-bb46-45147af36627,8
2019-03-25 12:08:16,b629e703-94dc-48ba-a898-c2457f25bee3,0
2019-03-25 12:08:21,571b5eda-faba-4ae7-8326-e086a709d3b9,11
2019-03-25 12:08:21,3f4ec104-b629-4add-8738-ecb4c97bff6b,0
2019-03-25 12:08:21,ed976756-9710-441f-b1f0-2275cff1a139,4
2019-03-25 12:08:21,287fa33b-802d-4e2f-b7b6-93fa2b8cfcae,123
2019-03-25 12:08:21,86a001c8-4d7d-4d94-bb46-45147af36627,8
2019-03-25 12:08:21,b629e703-94dc-48ba-a898-c2457f25bee3,0
2019-03-25 12:13:39,571b5eda-faba-4ae7-8326-e086a709d3b9,11
2019-03-25 12:13:39,3f4ec104-b629-4add-8738-ecb4c97bff6b,0
2019-03-25 12:13:39,ed976756-9710-441f-b1f0-2275cff1a139,6
2019-03-25 12:13:39,287fa33b-802d-4e2f-b7b6-93fa2b8cfcae,89
2019-03-25 12:13:39,86a001c8-4d7d-4d94-bb46-45147af36627,8
2019-03-25 12:13:39,b629e703-94dc-48ba-a898-c2457f25bee3,0
2019-03-25 12:13:44,571b5eda-faba-4ae7-8326-e086a709d3b9,9
2019-03-25 12:13:44,3f4ec104-b629-4add-8738-ecb4c97bff6b,0
2019-03-25 12:13:44,ed976756-9710-441f-b1f0-2275cff1a139,1
2019-03-25 12:13:44,287fa33b-802d-4e2f-b7b6-93fa2b8cfcae,89
2019-03-25 12:13:44,86a001c8-4d7d-4d94-bb46-45147af36627,7
2019-03-25 12:13:44,b629e703-94dc-48ba-a898-c2457f25bee3,0
2019-03-25 12:13:49,571b5eda-faba-4ae7-8326-e086a709d3b9,9
2019-03-25 12:13:49,3f4ec104-b629-4add-8738-ecb4c97bff6b,0
2019-03-25 12:13:49,ed976756-9710-441f-b1f0-2275cff1a139,1
2019-03-25 12:13:49,287fa33b-802d-4e2f-b7b6-93fa2b8cfcae,89
2019-03-25 12:13:49,86a001c8-4d7d-4d94-bb46-45147af36627,7
2019-03-25 12:13:49,b629e703-94dc-48ba-a898-c2457f25bee3,0
2019-03-25 12:13:54,571b5eda-faba-4ae7-8326-e086a709d3b9,9
2019-03-25 12:13:54,3f4ec104-b629-4add-8738-ecb4c97bff6b,0
2019-03-25 12:13:54,ed976756-9710-441f-b1f0-2275cff1a139,1
2019-03-25 12:13:54,287fa33b-802d-4e2f-b7b6-93fa2b8cfcae,89
2019-03-25 12:13:54,86a001c8-4d7d-4d94-bb46-45147af36627,7
2019-03-25 12:13:54,b629e703-94dc-48ba-a898-c2457f25bee3,0
2019-03-25 12:14:00,571b5eda-faba-4ae7-8326-e086a709d3b9,9
2019-03-25 12:14:00,3f4ec104-b629-4add-8738-ecb4c97bff6b,0
2019-03-25 12:14:00,ed976756-9710-441f-b1f0-2275cff1a139,1
2019-03-25 12:14:00,287fa33b-802d-4e2f-b7b6-93fa2b8cfcae,89
2019-03-25 12:14:00,86a001c8-4d7d-4d94-bb46-45147af36627,7
2019-03-25 12:14:00,b629e703-94dc-48ba-a898-c2457f25bee3,0
2019-03-25 12:14:06,571b5eda-faba-4ae7-8326-e086a709d3b9,9
2019-03-25 12:14:06,3f4ec104-b629-4add-8738-ecb4c97bff6b,0
2019-03-25 12:14:06,ed976756-9710-441f-b1f0-2275cff1a139,1
2019-03-25 12:14:06,287fa33b-802d-4e2f-b7b6-93fa2b8cfcae,89
2019-03-25 12:14:06,86a001c8-4d7d-4d94-bb46-45147af36627,7
2019-03-25 12:14:06,b629e703-94dc-48ba-a898-c2457f25bee3,0
2019-03-25 12:14:11,571b5eda-faba-4ae7-8326-e086a709d3b9,9
2019-03-25 12:14:11,3f4ec104-b629-4add-8738-ecb4c97bff6b,0
2019-03-25 12:14:11,ed976756-9710-441f-b1f0-2275cff1a139,1
2019-03-25 12:14:11,287fa33b-802d-4e2f-b7b6-93fa2b8cfcae,89
2019-03-25 12:14:11,86a001c8-4d7d-4d94-bb46-45147af36627,7
2019-03-25 12:14:11,b629e703-94dc-48ba-a898-c2457f25bee3,0
2019-03-25 12:14:16,571b5eda-faba-4ae7-8326-e086a709d3b9,9
2019-03-25 12:14:16,3f4ec104-b629-4add-8738-ecb4c97bff6b,0
2019-03-25 12:14:16,ed976756-9710-441f-b1f0-2275cff1a139,1
2019-03-25 12:14:16,287fa33b-802d-4e2f-b7b6-93fa2b8cfcae,89
2019-03-25 12:14:16,86a001c8-4d7d-4d94-bb46-45147af36627,7
2019-03-25 12:14:16,b629e703-94dc-48ba-a898-c2457f25bee3,0
2019-03-25 12:14:22,571b5eda-faba-4ae7-8326-e086a709d3b9,9
2019-03-25 12:14:22,3f4ec104-b629-4add-8738-ecb4c97bff6b,0
2019-03-25 12:14:22,ed976756-9710-441f-b1f0-2275cff1a139,1
2019-03-25 12:14:22,287fa33b-802d-4e2f-b7b6-93fa2b8cfcae,89
2019-03-25 12:14:22,86a001c8-4d7d-4d94-bb46-45147af36627,7
2019-03-25 12:14:22,b629e703-94dc-48ba-a898-c2457f25bee3,0
2019-03-25 12:14:27,571b5eda-faba-4ae7-8326-e086a709d3b9,9
2019-03-25 12:14:27,3f4ec104-b629-4add-8738-ecb4c97bff6b,1
2019-03-25 12:14:27,ed976756-9710-441f-b1f0-2275cff1a139,1
2019-03-25 12:14:27,287fa33b-802d-4e2f-b7b6-93fa2b8cfcae,89
2019-03-25 12:14:27,86a001c8-4d7d-4d94-bb46-45147af36627,7
2019-03-25 12:14:27,b629e703-94dc-48ba-a898-c2457f25bee3,0
2019-03-25 12:14:33,571b5eda-faba-4ae7-8326-e086a709d3b9,9
2019-03-25 12:14:33,3f4ec104-b629-4add-8738-ecb4c97bff6b,1
2019-03-25 12:14:33,ed976756-9710-441f-b1f0-2275cff1a139,1
2019-03-25 12:14:33,287fa33b-802d-4e2f-b7b6-93fa2b8cfcae,89
2019-03-25 12:14:33,86a001c8-4d7d-4d94-bb46-45147af36627,7
2019-03-25 12:14:33,b629e703-94dc-48ba-a898-c2457f25bee3,0
2019-03-25 12:14:38,571b5eda-faba-4ae7-8326-e086a709d3b9,9
2019-03-25 12:14:38,3f4ec104-b629-4add-8738-ecb4c97bff6b,1
2019-03-25 12:14:38,ed976756-9710-441f-b1f0-2275cff1a139,1
2019-03-25 12:14:38,287fa33b-802d-4e2f-b7b6-93fa2b8cfcae,0
2019-03-25 12:14:38,86a001c8-4d7d-4d94-bb46-45147af36627,7
2019-03-25 12:14:38,b629e703-94dc-48ba-a898-c2457f25bee3,0
2019-03-25 12:14:42,571b5eda-faba-4ae7-8326-e086a709d3b9,3
2019-03-25 12:14:42,3f4ec104-b629-4add-8738-ecb4c97bff6b,1
2019-03-25 12:14:42,ed976756-9710-441f-b1f0-2275cff1a139,1
2019-03-25 12:14:42,287fa33b-802d-4e2f-b7b6-93fa2b8cfcae,0
2019-03-25 12:14:42,86a001c8-4d7d-4d94-bb46-45147af36627,7
2019-03-25 12:14:42,b629e703-94dc-48ba-a898-c2457f25bee3,0
2019-03-25 12:14:48,571b5eda-faba-4ae7-8326-e086a709d3b9,3
2019-03-25 12:14:48,3f4ec104-b629-4add-8738-ecb4c97bff6b,1
2019-03-25 12:14:48,ed976756-9710-441f-b1f0-2275cff1a139,3
2019-03-25 12:14:48,287fa33b-802d-4e2f-b7b6-93fa2b8cfcae,0
2019-03-25 12:14:48,86a001c8-4d7d-4d94-bb46-45147af36627,8
2019-03-25 12:14:48,b629e703-94dc-48ba-a898-c2457f25bee3,0
2019-03-25 12:14:53,571b5eda-faba-4ae7-8326-e086a709d3b9,3
2019-03-25 12:14:53,3f4ec104-b629-4add-8738-ecb4c97bff6b,1
2019-03-25 12:14:53,ed976756-9710-441f-b1f0-2275cff1a139,3
2019-03-25 12:14:53,287fa33b-802d-4e2f-b7b6-93fa2b8cfcae,0
2019-03-25 12:14:53,86a001c8-4d7d-4d94-bb46-45147af36627,8
2019-03-25 12:14:53,b629e703-94dc-48ba-a898-c2457f25bee3,0
2019-03-25 12:14:58,571b5eda-faba-4ae7-8326-e086a709d3b9,3
2019-03-25 12:14:58,3f4ec104-b629-4add-8738-ecb4c97bff6b,1
2019-03-25 12:14:58,ed976756-9710-441f-b1f0-2275cff1a139,3
2019-03-25 12:14:58,287fa33b-802d-4e2f-b7b6-93fa2b8cfcae,0
2019-03-25 12:14:58,86a001c8-4d7d-4d94-bb46-45147af36627,8
2019-03-25 12:14:58,b629e703-94dc-48ba-a898-c2457f25bee3,0
2019-03-25 12:15:03,571b5eda-faba-4ae7-8326-e086a709d3b9,3
2019-03-25 12:15:03,3f4ec104-b629-4add-8738-ecb4c97bff6b,1
2019-03-25 12:15:03,ed976756-9710-441f-b1f0-2275cff1a139,3
2019-03-25 12:15:03,287fa33b-802d-4e2f-b7b6-93fa2b8cfcae,0
2019-03-25 12:15:03,86a001c8-4d7d-4d94-bb46-45147af36627,8
2019-03-25 12:15:03,b629e703-94dc-48ba-a898-c2457f25bee3,0
2019-03-25 12:15:08,571b5eda-faba-4ae7-8326-e086a709d3b9,3
2019-03-25 12:15:08,3f4ec104-b629-4add-8738-ecb4c97bff6b,1
2019-03-25 12:15:08,ed976756-9710-441f-b1f0-2275cff1a139,3
2019-03-25 12:15:08,287fa33b-802d-4e2f-b7b6-93fa2b8cfcae,0
2019-03-25 12:15:08,86a001c8-4d7d-4d94-bb46-45147af36627,8
2019-03-25 12:15:08,b629e703-94dc-48ba-a898-c2457f25bee3,0
2019-03-25 12:15:13,571b5eda-faba-4ae7-8326-e086a709d3b9,3
2019-03-25 12:15:13,3f4ec104-b629-4add-8738-ecb4c97bff6b,1
2019-03-25 12:15:13,ed976756-9710-441f-b1f0-2275cff1a139,3
2019-03-25 12:15:13,287fa33b-802d-4e2f-b7b6-93fa2b8cfcae,0
2019-03-25 12:15:13,86a001c8-4d7d-4d94-bb46-45147af36627,8
2019-03-25 12:15:13,b629e703-94dc-48ba-a898-c2457f25bee3,0
2019-03-25 12:15:18,571b5eda-faba-4ae7-8326-e086a709d3b9,3
2019-03-25 12:15:18,3f4ec104-b629-4add-8738-ecb4c97bff6b,1
2019-03-25 12:15:18,ed976756-9710-441f-b1f0-2275cff1a139,3
2019-03-25 12:15:18,287fa33b-802d-4e2f-b7b6-93fa2b8cfcae,0
2019-03-25 12:15:18,86a001c8-4d7d-4d94-bb46-45147af36627,8
2019-03-25 12:15:18,b629e703-94dc-48ba-a898-c2457f25bee3,0
2019-03-25 12:15:23,571b5eda-faba-4ae7-8326-e086a709d3b9,3
2019-03-25 12:15:23,3f4ec104-b629-4add-8738-ecb4c97bff6b,1
2019-03-25 12:15:23,ed976756-9710-441f-b1f0-2275cff1a139,3
2019-03-25 12:15:23,287fa33b-802d-4e2f-b7b6-93fa2b8cfcae,0
2019-03-25 12:15:23,86a001c8-4d7d-4d94-bb46-45147af36627,8
2019-03-25 12:15:23,b629e703-94dc-48ba-a898-c2457f25bee3,0
2019-03-25 12:15:28,571b5eda-faba-4ae7-8326-e086a709d3b9,3
2019-03-25 12:15:28,3f4ec104-b629-4add-8738-ecb4c97bff6b,0
2019-03-25 12:15:28,ed976756-9710-441f-b1f0-2275cff1a139,3
2019-03-25 12:15:28,287fa33b-802d-4e2f-b7b6-93fa2b8cfcae,0
2019-03-25 12:15:28,86a001c8-4d7d-4d94-bb46-45147af36627,8
2019-03-25 12:15:28,b629e703-94dc-48ba-a898-c2457f25bee3,0
2019-03-25 12:15:33,571b5eda-faba-4ae7-8326-e086a709d3b9,3
2019-03-25 12:15:33,3f4ec104-b629-4add-8738-ecb4c97bff6b,0
2019-03-25 12:15:33,ed976756-9710-441f-b1f0-2275cff1a139,3
2019-03-25 12:15:33,287fa33b-802d-4e2f-b7b6-93fa2b8cfcae,0
2019-03-25 12:15:33,86a001c8-4d7d-4d94-bb46-45147af36627,8
2019-03-25 12:15:33,b629e703-94dc-48ba-a898-c2457f25bee3,0
2019-03-25 12:15:38,571b5eda-faba-4ae7-8326-e086a709d3b9,3
2019-03-25 12:15:38,3f4ec104-b629-4add-8738-ecb4c97bff6b,0
2019-03-25 12:15:38,ed976756-9710-441f-b1f0-2275cff1a139,3
2019-03-25 12:15:38,287fa33b-802d-4e2f-b7b6-93fa2b8cfcae,43
2019-03-25 12:15:38,86a001c8-4d7d-4d94-bb46-45147af36627,8
2019-03-25 12:15:38,b629e703-94dc-48ba-a898-c2457f25bee3,0
2019-03-25 12:15:43,571b5eda-faba-4ae7-8326-e086a709d3b9,3
2019-03-25 12:15:43,3f4ec104-b629-4add-8738-ecb4c97bff6b,0
2019-03-25 12:15:43,ed976756-9710-441f-b1f0-2275cff1a139,3
2019-03-25 12:15:43,287fa33b-802d-4e2f-b7b6-93fa2b8cfcae,43
2019-03-25 12:15:43,86a001c8-4d7d-4d94-bb46-45147af36627,8
2019-03-25 12:15:43,b629e703-94dc-48ba-a898-c2457f25bee3,0
2019-03-25 12:15:48,571b5eda-faba-4ae7-8326-e086a709d3b9,3
2019-03-25 12:15:48,3f4ec104-b629-4add-8738-ecb4c97bff6b,0
2019-03-25 12:15:48,ed976756-9710-441f-b1f0-2275cff1a139,8
2019-03-25 12:15:48,287fa33b-802d-4e2f-b7b6-93fa2b8cfcae,43
2019-03-25 12:15:48,86a001c8-4d7d-4d94-bb46-45147af36627,7
2019-03-25 12:15:48,b629e703-94dc-48ba-a898-c2457f25bee3,0
2019-03-25 12:15:53,571b5eda-faba-4ae7-8326-e086a709d3b9,3
2019-03-25 12:15:53,3f4ec104-b629-4add-8738-ecb4c97bff6b,0
2019-03-25 12:15:53,ed976756-9710-441f-b1f0-2275cff1a139,8
2019-03-25 12:15:53,287fa33b-802d-4e2f-b7b6-93fa2b8cfcae,43
2019-03-25 12:15:53,86a001c8-4d7d-4d94-bb46-45147af36627,7
2019-03-25 12:15:53,b629e703-94dc-48ba-a898-c2457f25bee3,0
2019-03-25 12:15:58,571b5eda-faba-4ae7-8326-e086a709d3b9,3
2019-03-25 12:15:58,3f4ec104-b629-4add-8738-ecb4c97bff6b,0
2019-03-25 12:15:58,ed976756-9710-441f-b1f0-2275cff1a139,8
2019-03-25 12:15:58,287fa33b-802d-4e2f-b7b6-93fa2b8cfcae,43
2019-03-25 12:15:58,86a001c8-4d7d-4d94-bb46-45147af36627,7
2019-03-25 12:15:58,b629e703-94dc-48ba-a898-c2457f25bee3,0
2019-03-25 12:16:03,571b5eda-faba-4ae7-8326-e086a709d3b9,3
2019-03-25 12:16:03,3f4ec104-b629-4add-8738-ecb4c97bff6b,0
2019-03-25 12:16:03,ed976756-9710-441f-b1f0-2275cff1a139,8
2019-03-25 12:16:03,287fa33b-802d-4e2f-b7b6-93fa2b8cfcae,43
2019-03-25 12:16:03,86a001c8-4d7d-4d94-bb46-45147af36627,7
2019-03-25 12:16:03,b629e703-94dc-48ba-a898-c2457f25bee3,0
2019-03-25 12:16:08,571b5eda-faba-4ae7-8326-e086a709d3b9,3
2019-03-25 12:16:08,3f4ec104-b629-4add-8738-ecb4c97bff6b,0
2019-03-25 12:16:08,ed976756-9710-441f-b1f0-2275cff1a139,8
2019-03-25 12:16:08,287fa33b-802d-4e2f-b7b6-93fa2b8cfcae,43
2019-03-25 12:16:08,86a001c8-4d7d-4d94-bb46-45147af36627,7
2019-03-25 12:16:08,b629e703-94dc-48ba-a898-c2457f25bee3,0
2019-03-25 12:16:13,571b5eda-faba-4ae7-8326-e086a709d3b9,3
2019-03-25 12:16:13,3f4ec104-b629-4add-8738-ecb4c97bff6b,0
2019-03-25 12:16:13,ed976756-9710-441f-b1f0-2275cff1a139,8
2019-03-25 12:16:13,287fa33b-802d-4e2f-b7b6-93fa2b8cfcae,43
2019-03-25 12:16:13,86a001c8-4d7d-4d94-bb46-45147af36627,7
2019-03-25 12:16:13,b629e703-94dc-48ba-a898-c2457f25bee3,0
2019-03-25 12:16:18,571b5eda-faba-4ae7-8326-e086a709d3b9,3
2019-03-25 12:16:18,3f4ec104-b629-4add-8738-ecb4c97bff6b,0
2019-03-25 12:16:18,ed976756-9710-441f-b1f0-2275cff1a139,8
2019-03-25 12:16:18,287fa33b-802d-4e2f-b7b6-93fa2b8cfcae,43
2019-03-25 12:16:18,86a001c8-4d7d-4d94-bb46-45147af36627,7
2019-03-25 12:16:18,b629e703-94dc-48ba-a898-c2457f25bee3,0
2019-03-25 12:16:23,571b5eda-faba-4ae7-8326-e086a709d3b9,3
2019-03-25 12:16:23,3f4ec104-b629-4add-8738-ecb4c97bff6b,0
2019-03-25 12:16:23,ed976756-9710-441f-b1f0-2275cff1a139,8
2019-03-25 12:16:23,287fa33b-802d-4e2f-b7b6-93fa2b8cfcae,43
2019-03-25 12:16:23,86a001c8-4d7d-4d94-bb46-45147af36627,7
2019-03-25 12:16:23,b629e703-94dc-48ba-a898-c2457f25bee3,0
2019-03-25 12:16:28,571b5eda-faba-4ae7-8326-e086a709d3b9,3
2019-03-25 12:16:28,3f4ec104-b629-4add-8738-ecb4c97bff6b,0
2019-03-25 12:16:28,ed976756-9710-441f-b1f0-2275cff1a139,8
2019-03-25 12:16:28,287fa33b-802d-4e2f-b7b6-93fa2b8cfcae,43
2019-03-25 12:16:28,86a001c8-4d7d-4d94-bb46-45147af36627,7
2019-03-25 12:16:28,b629e703-94dc-48ba-a898-c2457f25bee3,0
2019-03-25 12:16:33,571b5eda-faba-4ae7-8326-e086a709d3b9,3
2019-03-25 12:16:33,3f4ec104-b629-4add-8738-ecb4c97bff6b,0
2019-03-25 12:16:33,ed976756-9710-441f-b1f0-2275cff1a139,8
2019-03-25 12:16:33,287fa33b-802d-4e2f-b7b6-93fa2b8cfcae,43
2019-03-25 12:16:33,86a001c8-4d7d-4d94-bb46-45147af36627,7
2019-03-25 12:16:33,b629e703-94dc-48ba-a898-c2457f25bee3,0
2019-03-25 12:16:38,571b5eda-faba-4ae7-8326-e086a709d3b9,3
2019-03-25 12:16:38,3f4ec104-b629-4add-8738-ecb4c97bff6b,0
2019-03-25 12:16:38,ed976756-9710-441f-b1f0-2275cff1a139,8
2019-03-25 12:16:38,287fa33b-802d-4e2f-b7b6-93fa2b8cfcae,43
2019-03-25 12:16:38,86a001c8-4d7d-4d94-bb46-45147af36627,7
2019-03-25 12:16:38,b629e703-94dc-48ba-a898-c2457f25bee3,0
2019-03-25 12:17:43,571b5eda-faba-4ae7-8326-e086a709d3b9,10
2019-03-25 12:17:43,3f4ec104-b629-4add-8738-ecb4c97bff6b,0
2019-03-25 12:17:43,ed976756-9710-441f-b1f0-2275cff1a139,10
2019-03-25 12:17:43,287fa33b-802d-4e2f-b7b6-93fa2b8cfcae,247
2019-03-25 12:17:43,86a001c8-4d7d-4d94-bb46-45147af36627,7
2019-03-25 12:17:43,b629e703-94dc-48ba-a898-c2457f25bee3,0
2019-03-25 12:17:48,571b5eda-faba-4ae7-8326-e086a709d3b9,11
2019-03-25 12:17:48,3f4ec104-b629-4add-8738-ecb4c97bff6b,0
2019-03-25 12:17:48,ed976756-9710-441f-b1f0-2275cff1a139,7
2019-03-25 12:17:48,287fa33b-802d-4e2f-b7b6-93fa2b8cfcae,247
2019-03-25 12:17:48,86a001c8-4d7d-4d94-bb46-45147af36627,8
2019-03-25 12:17:48,b629e703-94dc-48ba-a898-c2457f25bee3,0
2019-03-25 12:17:53,571b5eda-faba-4ae7-8326-e086a709d3b9,11
2019-03-25 12:17:53,3f4ec104-b629-4add-8738-ecb4c97bff6b,0
2019-03-25 12:17:53,ed976756-9710-441f-b1f0-2275cff1a139,7
2019-03-25 12:17:53,287fa33b-802d-4e2f-b7b6-93fa2b8cfcae,247
2019-03-25 12:17:53,86a001c8-4d7d-4d94-bb46-45147af36627,8
2019-03-25 12:17:53,b629e703-94dc-48ba-a898-c2457f25bee3,0
2019-03-25 12:17:59,571b5eda-faba-4ae7-8326-e086a709d3b9,11
2019-03-25 12:17:59,3f4ec104-b629-4add-8738-ecb4c97bff6b,0
2019-03-25 12:17:59,ed976756-9710-441f-b1f0-2275cff1a139,7
2019-03-25 12:17:59,287fa33b-802d-4e2f-b7b6-93fa2b8cfcae,247
2019-03-25 12:17:59,86a001c8-4d7d-4d94-bb46-45147af36627,8
2019-03-25 12:17:59,b629e703-94dc-48ba-a898-c2457f25bee3,0
2019-03-25 12:18:03,571b5eda-faba-4ae7-8326-e086a709d3b9,11
2019-03-25 12:18:03,3f4ec104-b629-4add-8738-ecb4c97bff6b,0
2019-03-25 12:18:03,ed976756-9710-441f-b1f0-2275cff1a139,7
2019-03-25 12:18:03,287fa33b-802d-4e2f-b7b6-93fa2b8cfcae,247
2019-03-25 12:18:03,86a001c8-4d7d-4d94-bb46-45147af36627,8
2019-03-25 12:18:03,b629e703-94dc-48ba-a898-c2457f25bee3,0
2019-03-25 12:18:09,571b5eda-faba-4ae7-8326-e086a709d3b9,11
2019-03-25 12:18:09,3f4ec104-b629-4add-8738-ecb4c97bff6b,0
2019-03-25 12:18:09,ed976756-9710-441f-b1f0-2275cff1a139,7
2019-03-25 12:18:09,287fa33b-802d-4e2f-b7b6-93fa2b8cfcae,247
2019-03-25 12:18:09,86a001c8-4d7d-4d94-bb46-45147af36627,8
2019-03-25 12:18:09,b629e703-94dc-48ba-a898-c2457f25bee3,0
2019-03-25 12:18:14,571b5eda-faba-4ae7-8326-e086a709d3b9,11
2019-03-25 12:18:14,3f4ec104-b629-4add-8738-ecb4c97bff6b,0
2019-03-25 12:18:14,ed976756-9710-441f-b1f0-2275cff1a139,7
2019-03-25 12:18:14,287fa33b-802d-4e2f-b7b6-93fa2b8cfcae,247
2019-03-25 12:18:14,86a001c8-4d7d-4d94-bb46-45147af36627,8
2019-03-25 12:18:14,b629e703-94dc-48ba-a898-c2457f25bee3,0
2019-03-25 12:18:20,571b5eda-faba-4ae7-8326-e086a709d3b9,11
2019-03-25 12:18:20,3f4ec104-b629-4add-8738-ecb4c97bff6b,0
2019-03-25 12:18:20,ed976756-9710-441f-b1f0-2275cff1a139,7
2019-03-25 12:18:20,287fa33b-802d-4e2f-b7b6-93fa2b8cfcae,247
2019-03-25 12:18:20,86a001c8-4d7d-4d94-bb46-45147af36627,8
2019-03-25 12:18:20,b629e703-94dc-48ba-a898-c2457f25bee3,0
2019-03-25 12:18:25,571b5eda-faba-4ae7-8326-e086a709d3b9,11
2019-03-25 12:18:25,3f4ec104-b629-4add-8738-ecb4c97bff6b,0
2019-03-25 12:18:25,ed976756-9710-441f-b1f0-2275cff1a139,7
2019-03-25 12:18:25,287fa33b-802d-4e2f-b7b6-93fa2b8cfcae,247
2019-03-25 12:18:25,86a001c8-4d7d-4d94-bb46-45147af36627,8
2019-03-25 12:18:25,b629e703-94dc-48ba-a898-c2457f25bee3,0
2019-03-25 12:18:30,571b5eda-faba-4ae7-8326-e086a709d3b9,11
2019-03-25 12:18:30,3f4ec104-b629-4add-8738-ecb4c97bff6b,0
2019-03-25 12:18:30,ed976756-9710-441f-b1f0-2275cff1a139,7
2019-03-25 12:18:30,287fa33b-802d-4e2f-b7b6-93fa2b8cfcae,247
2019-03-25 12:18:30,86a001c8-4d7d-4d94-bb46-45147af36627,8
2019-03-25 12:18:30,b629e703-94dc-48ba-a898-c2457f25bee3,0
2019-03-25 12:18:36,571b5eda-faba-4ae7-8326-e086a709d3b9,11
2019-03-25 12:18:36,3f4ec104-b629-4add-8738-ecb4c97bff6b,0
2019-03-25 12:18:36,ed976756-9710-441f-b1f0-2275cff1a139,7
2019-03-25 12:18:36,287fa33b-802d-4e2f-b7b6-93fa2b8cfcae,247
2019-03-25 12:18:36,86a001c8-4d7d-4d94-bb46-45147af36627,8
2019-03-25 12:18:36,b629e703-94dc-48ba-a898-c2457f25bee3,0
2019-03-25 12:18:41,571b5eda-faba-4ae7-8326-e086a709d3b9,11
2019-03-25 12:18:41,3f4ec104-b629-4add-8738-ecb4c97bff6b,0
2019-03-25 12:18:41,ed976756-9710-441f-b1f0-2275cff1a139,7
2019-03-25 12:18:41,287fa33b-802d-4e2f-b7b6-93fa2b8cfcae,247
2019-03-25 12:18:41,86a001c8-4d7d-4d94-bb46-45147af36627,8
2019-03-25 12:18:41,b629e703-94dc-48ba-a898-c2457f25bee3,0
2019-03-25 12:04:59,571b5eda-faba-4ae7-8326-e086a709d3b9,6
2019-03-25 12:04:59,3f4ec104-b629-4add-8738-ecb4c97bff6b,0
2019-03-25 12:04:59,ed976756-9710-441f-b1f0-2275cff1a139,2
2019-03-25 12:04:59,287fa33b-802d-4e2f-b7b6-93fa2b8cfcae,0
2019-03-25 12:04:59,86a001c8-4d7d-4d94-bb46-45147af36627,7
2019-03-25 12:04:59,b629e703-94dc-48ba-a898-c2457f25bee3,0
2019-03-25 12:04:59,571b5eda-faba-4ae7-8326-e086a709d3b9,6
2019-03-25 12:04:59,3f4ec104-b629-4add-8738-ecb4c97bff6b,0
2019-03-25 12:04:59,ed976756-9710-441f-b1f0-2275cff1a139,2
2019-03-25 12:04:59,287fa33b-802d-4e2f-b7b6-93fa2b8cfcae,0
2019-03-25 12:04:59,86a001c8-4d7d-4d94-bb46-45147af36627,7
2019-03-25 12:04:59,b629e703-94dc-48ba-a898-c2457f25bee3,0
