app_number,app_id,trigger,burn,sink,deploy_date,token_interval
1,ee2d718d-8082-498c-9d45-bab317d6dbf2,b4dadbb6-fb97-4c2a-8f9c-8721bb21b452,5c6720a3-cd78-4fd3-b774-32edac2c701c,7ade684f-ada8-41c1-b1c4-b2fd959b62f0,2019-10-11 02:45:05,1.000000
2,dcd88986-f4fe-4904-8409-a3ea89197513,544bd7bc-e63a-48b9-9beb-0260cd405a97,dcf59ec5-f54a-48f1-bea5-2d7c0e71f250,ec0906d8-3a80-42d8-b34c-03fa473a6186,2019-10-11 02:46:08,1.000000
3,43dcb94d-5918-4cc0-ae38-b420f4d1f351,24fe4501-d504-41bf-81e5-29e587674434,80f4180b-d3ee-4ed3-94d4-29e17e4c3c9b,62676548-be16-4e40-8f2c-3c9cd656ff95,2019-10-11 02:47:12,1.000000
4,067c97a8-9663-44f1-bde5-07015708e27f,60f9af8b-0d0f-4dc6-b3f3-1a0a94615158,5bd70395-da93-4e02-8fe6-9b276523f71d,410a7908-61a6-40f7-828a-4518de820b30,2019-10-11 02:48:16,0.200000
5,b0b295d5-6098-4048-a78d-56a479fe8d22,0ba55f21-b9d6-4960-8e41-24cc111cd59a,bc722886-742e-41b8-b4f6-344c9b1db753,5161e789-bbfd-4673-b4ac-58a14571994b,2019-10-11 02:49:20,0.200000
6,dd8fd06f-564b-48d0-86d3-5cde42e9dbd7,1f665dff-798a-4a8c-93b3-9742f06149e2,7ad3d0fe-1960-47e1-a6d7-39a118c0d5b1,7a139e34-109b-4c2e-ae27-2031704c04e1,2019-10-11 02:50:24,0.200000
7,2afb0b09-be0a-42ce-9117-eb7980fa5c73,e3a2f2f3-85a6-4eaa-9d3b-7a73730b7737,7ca72e55-85d8-48cf-854d-b37d31d23574,54ed1db3-6ea7-429c-83c9-fc27aab8a6f7,2019-10-11 02:51:28,0.200000
8,b6e648d7-98d4-4e22-af80-bc47b3510dd1,8f120858-b265-436a-971d-c51316a4d7c2,a9236c06-be6b-413a-9321-cb5c95c1d38b,3fccad98-3550-4394-b3db-9de2f95ec680,2019-10-11 02:52:32,1.000000
9,d76403f4-f736-497c-891b-9adc3a9e28d5,07f1e24f-06a7-4986-a553-b813ab278a62,d01a632e-0133-4ec8-a5da-2ed354576c33,76856333-7e11-405d-95e3-0d4eb9be5e76,2019-10-11 02:53:35,0.200000
10,841dfa15-9e04-4509-996f-108402e54945,38c5f50d-1839-4d8b-9276-7027e08d1d72,b8a95b1f-569b-4538-8876-642f73035e92,076d4643-e96b-4708-9b95-a3c078602080,2019-10-11 02:54:39,0.200000
11,c803862e-971a-43f7-8772-380ace6d16a4,d8e93a86-2eec-4c1c-9ae7-01522ba9d025,5afb57cc-adb0-4b8e-8ca3-8848f5bb1d2c,370a0d67-5b25-4d9a-9b43-fe7318d7811e,2019-10-11 02:55:43,0.200000
12,f632d521-1611-447e-bd27-f1be53986314,f5e096c4-12c0-4dab-a3f3-477511fc4605,cfeb3abe-4411-4240-9fbc-694c9f0fa0d6,afc62642-8d0c-4e9f-8f7c-22690002fdb0,2019-10-11 02:56:47,1.000000
13,d6a54609-7b68-42ac-add4-b5a8e72eabd8,8f28adea-42de-4772-ae0f-1e4c57b78fc5,bc5e4745-9734-47a9-836c-4541336cacb0,c50afb32-2369-499f-8201-b1eaca8192fb,2019-10-11 02:57:51,0.200000
14,0a980ded-15e9-48b5-8278-81eac95948ab,e374412f-4e5e-4371-a73c-0f350b094008,b8977565-e11e-43db-97e2-a1379848c866,434eb9c0-abd5-4216-ac36-4827ba473ac2,2019-10-11 02:58:54,0.200000
15,3b3380ec-5b7a-4429-b8ed-9f1befd330b0,ac01ab7f-1d4b-4e9d-94ed-c0c24c118d61,d55a300f-c7df-4833-88bf-236de4467ded,5970c94d-adff-403f-8ab0-c12083ae0f28,2019-10-11 02:59:58,1.000000
16,40a55cfa-dd49-444e-be2f-a173c555a070,d763b2be-5ee8-4e81-a0dd-ea566c7e9fd4,b955dfd9-7b40-4b53-9d8c-5a2e271b31d2,7e033229-b34c-4dd2-99ab-0d4f72c60937,2019-10-11 03:01:01,1.000000
17,a72edb1f-cce0-4cb4-8bd7-e7bccb035f54,cf725764-afe0-49a7-9ff7-9990affb5d9c,978cad53-54b4-4c0e-9350-c7ae92e9d1ad,454528a8-39e1-44ec-9b67-0ca6c0d9dda5,2019-10-11 03:02:05,0.200000
18,679f145f-36e9-4829-a9c6-feabbf83286c,9991db44-6d98-4a12-aa08-9470f12bac64,fac8fb15-9f43-44ed-833f-7722ef835521,074c6af9-0c8a-4358-a373-5b8f0ef02c9a,2019-10-11 03:03:09,1.000000
19,9d98caf7-ef0e-4ead-a12e-cdcb96143885,0961e36e-debb-46e4-85cf-e3a0d7d2d08f,36d3f0e9-d64e-4829-b365-cc5527a29a72,0ab0f035-1e8c-4e35-8c6a-af1ba34c01d4,2019-10-11 03:04:13,0.200000
20,a3185c42-f3a4-44cf-a19b-fd521d4fa3a4,47a280d8-c2dc-41c0-8dc1-aeead7f17748,115022d2-5df4-408e-9316-9bcf0595f1c8,4074040b-1ed1-4c5e-8566-45a5bc1d8553,2019-10-11 03:05:17,1.000000
21,66409e84-460a-4160-ae9f-c371c48362eb,c48fe251-7563-42a2-98b7-275628a07027,edde72e6-11da-4197-b0f3-6b074e63972b,207e0556-cdb6-4c73-8b62-6c92fa61f492,2019-10-11 03:06:20,0.200000
22,d2c1ac98-fefe-4e1f-af57-70bed01619f3,48d49ef1-158c-4d23-86e1-002bb5d71404,9b5f9565-f24c-4d19-bbe4-361e64864071,c998e6c6-c9c1-482f-8f8c-f81e5808edb8,2019-10-11 03:07:24,0.200000
23,709609be-1bc5-47b4-96a9-128c7611489d,5d720d1a-3703-402a-84eb-49fa93be661d,64b1ce00-309f-4f8a-adff-727b92b80aa7,d1846c1e-ab51-4f48-9c23-9b05c237d245,2019-10-11 03:08:28,0.200000
24,893a983e-1311-49a6-92fb-7d77a65bc317,b29c8cb4-ae81-4ccd-9e95-47e3a054917e,da74f7d8-696f-41b6-9cac-c479be24311b,20f565e5-3d1b-4c28-bdce-d197be828926,2019-10-11 03:09:31,1.000000
25,ae812f60-b39f-46ef-a677-a629d3e788eb,25e798f9-b873-47c0-afd6-1ec3e3e49f9f,d6b224ee-731c-4cb3-8d1b-8427a5129953,3c158071-29fb-4d0c-8395-ac7e8e6f6244,2019-10-11 03:10:35,1.000000
26,820f8690-1e4b-4c1b-87a0-2b9783542fdb,7070c173-785f-47b6-a502-e06ae6857e23,3f0789ec-969d-4e6a-b0f9-625724cd2e66,715a873c-bda2-4877-b4dc-fdb715ec4854,2019-10-11 03:11:39,1.000000
27,26cb87f7-1b16-4938-828f-fcadf541ccaa,5d992608-e049-4268-b95c-3f5681bad0fa,58a1dd63-4079-4aa5-89d2-a3e5d7d1313e,d0e08014-7dbc-4d41-87ad-b57750592b50,2019-10-11 03:12:43,0.200000
28,260a613d-a255-49b2-a6eb-a89c66ac59e7,ed5a4983-4828-479b-807d-193f86a7097c,2ab986d6-4e73-4989-aa05-ec6df90332ea,2a4d9e16-cf42-4288-9eb0-8f440bb5a659,2019-10-11 03:13:47,1.000000
29,44c4b653-d394-4522-bda3-76331be30b62,e004ace4-551b-40de-a9f0-2f5f6ba09bf2,d3bc366a-4e7c-4d0e-97f7-9270005c170b,990ad233-ea10-4b63-a634-74de8cf53324,2019-10-11 03:14:51,1.000000
30,faf476cd-1ac5-44c4-a49a-033707ced5f4,016acf08-466b-4c14-8541-9a42d901a427,61ef5581-9a1d-4ede-b9e3-3975ff24fc30,da902976-f5bb-455a-b25d-2d4a77de8d6a,2019-10-11 03:15:54,1.000000
31,e010a9d7-10ac-4bee-8c6f-faf3e27fb9bb,ed0db4ba-f1a0-4cfd-a240-4ac8345bd1d0,42a9b3e3-59ea-415e-b5ed-99da3ce7332a,762f5832-a7de-4027-9925-19bc743a4dc2,2019-10-11 03:16:57,1.000000
32,6d8009dc-0370-47fb-8088-d3bf6f30cc4c,d2d3b72e-b5ba-4f3b-929a-7e8a36bacc77,80f0fdb4-8feb-4969-a183-ad3103277187,7813b008-a73e-4171-8b2a-db9f6dc7ced2,2019-10-11 03:18:01,0.200000
33,8c523b5d-484a-4c63-bbd9-36b7caddd812,12019e88-57e3-4be1-9380-aacf7127bcc5,32f7c66f-f7c8-4a9d-a526-018e4b90a5c6,8775e065-8f9d-47b7-b834-cbc6cc42009a,2019-10-11 03:19:05,1.000000
34,1622e4fb-dcaa-48ab-9bee-22e4eefc57de,380988c3-8311-48d1-afcf-f46691afb1dc,37ef1fa8-5973-4f99-9eb3-094bb4260b9a,f7a6cec7-44a8-4237-a448-7c89b03c450f,2019-10-11 03:20:09,0.200000
35,b783fdcf-b0b2-4ac7-9a6c-b6c16152166f,edc6f03c-6cb0-4e57-80c2-25c823d3e66a,15d71d59-f0d4-400c-852e-a8a4e5cf64d0,b80dbc1f-8850-4607-a68f-5bd9a24d68f2,2019-10-11 03:21:13,1.000000
36,7fb031b1-d65a-4c7b-aafa-1c40cba01237,bb8339a9-9274-43d3-9e40-d62942b8686a,b88c5280-6a47-4899-9789-b55ea311c797,51a58be5-dd55-4cf4-b2ee-2157787c677c,2019-10-11 03:22:16,0.200000
37,c5835724-72d2-4c78-bd01-2044a9910892,a6e4a966-7d80-43e4-865d-c68b27432499,f2eec03d-9fd3-4135-8237-1a9cb9961dee,4fd99710-1c5d-47aa-ad69-1040dadccd61,2019-10-11 03:23:20,1.000000
38,c30b3e01-f88b-4782-acdf-00a8960d1ebd,502c867b-6a5c-4e63-9339-a1e669f9a414,2e7a3614-874e-4cb7-a513-fd89aced6795,a8c5ca21-496d-419f-932a-eeabe9c0094a,2019-10-11 03:24:24,1.000000
39,950cc849-111e-4837-966e-e44ac8c6b0da,9eae0f52-35dd-42e4-b2b3-83788a84cdd7,f6932189-1475-4970-958c-4739a6c13fac,e6ad278e-6c40-4435-b38a-a7f97c134fdd,2019-10-11 03:25:27,0.200000
40,adb4c456-73a5-4252-bae3-1fcd7c117cf2,a42ac675-9a8e-4dba-b4c8-5a8616366f9a,3bf1d723-0f2c-4970-99cd-de3ad872dffb,728e9d2e-e88a-49f5-b1bf-39db66dbe82e,2019-10-11 03:26:31,0.200000
41,a7b8f19c-f2d4-408f-914d-66cbcd378aa4,a8e20d99-39f7-40ed-a59f-690f51a318b5,93751fcc-8273-4b95-9e94-08d013abfee3,7992286e-9ceb-4475-a2ef-869779501e89,2019-10-11 03:27:35,1.000000
42,f9eaa96d-cc78-43dd-9e87-70b3d2420571,38a1cb20-befb-49db-8aa6-ee1f79c09e93,1198c32e-7127-4ee6-823c-c3c3b9d948e4,3678c312-0290-4744-a046-bdd9dd523b81,2019-10-11 03:28:39,0.200000
43,80ccb332-9ec6-47cf-9d63-10d0f99bf19b,82eae62b-86ca-458a-b749-b9634729178c,078682cd-7445-42e5-936d-3f50012f1a79,87d4b812-6826-48fe-a7c3-8238a67bb824,2019-10-11 03:29:43,0.200000
44,dcc081df-ccc9-41e0-9dd3-33608de458d6,bd5836db-bd3d-4236-8aeb-875052d3a678,8b9c2c07-8a77-46b5-84ee-2cb5d4788ea6,fecff4d8-7a55-4067-95cc-2128a39e5b3a,2019-10-11 03:30:46,0.200000
45,c28f6f95-b774-4c60-a1a0-1d63d8869070,2ea4cdd4-4e04-4ce0-b889-29f52d85e74f,8797e00b-76ed-4679-b21e-aa7a67b58a78,e63199a1-c214-46a0-9f64-e2ede31faa34,2019-10-11 03:31:50,1.000000
46,87dd2525-26a1-42f8-bb18-cf0933858a68,51e0135e-ccf9-4376-9b68-f8f177b46a0f,f3a2a4aa-b361-40e3-9b76-8dceb8920ce9,eb1b2763-be9b-484b-87b3-097fdd216eb8,2019-10-11 03:32:54,0.200000
47,a7b8f822-fdae-4bef-8140-be6faa34f133,78abe2a7-c97f-4a61-b517-ac80d1c72614,e242b80b-031d-4bdd-834f-bf30a6e73560,86836166-957f-47b4-92f5-ed27b9bd3046,2019-10-11 03:33:58,0.200000
48,61a7d3d6-faa9-41bb-8dc8-b9b3db22b22b,a2b73fe0-6048-4262-bb8a-26a34af83fba,9550f629-a85f-44e7-a010-aa93f815fd23,e1d81e29-61d2-4e5e-9d7b-7154b1acff54,2019-10-11 03:35:01,1.000000
49,0fd5cc93-7d85-41a8-ac63-c45eddfdc85d,72ad25c5-501b-4295-85be-69b69ab3c484,3255eae4-8602-4bf1-991b-dc227434a852,3e977d14-533c-46c2-9ae4-3e5ee9c286e3,2019-10-11 03:36:04,0.200000
50,cb31a1de-7755-419e-bc11-8f2d02dff676,5dcecaac-0140-41e7-9e85-cc67acd3ad88,50a2f149-5767-40ff-be16-e1d6f850a445,8d8445ac-d144-4679-bb1e-94c7992132c7,2019-10-11 03:37:08,1.000000
