node,ip,uuid
node-a8-199.grenoble.iot-lab.info,172.20.64.1,86579841-ab18-4aec-84fb-26910369f7b9
node-a8-200.grenoble.iot-lab.info,172.20.64.2,450e0b8f-a81b-4120-9700-854fbab6cdf6
node-a8-201.grenoble.iot-lab.info,172.20.64.3,3c523f45-321f-46cf-8570-4988045b3c0f
node-a8-202.grenoble.iot-lab.info,172.20.64.4,54284243-ca56-40ed-b3fe-44a0a7c37594
node-a8-204.grenoble.iot-lab.info,172.20.64.5,a8c21cc4-1198-4355-b225-f02833c4de06
node-a8-205.grenoble.iot-lab.info,172.20.64.6,510fec4c-9dc8-4ff8-8c98-b8d628d98014
node-a8-206.grenoble.iot-lab.info,172.20.64.7,58e796c9-cacb-47b5-b2a9-bc86413be757
node-a8-207.grenoble.iot-lab.info,172.20.64.8,9f8d9ebd-4384-4249-9398-2754a707272b
node-a8-208.grenoble.iot-lab.info,172.20.64.9,f32bb145-69eb-49ee-b751-22548bcb1b4c
node-a8-209.grenoble.iot-lab.info,172.20.64.10,e3953ea1-951a-4fa6-9b3f-c9935a907385
node-a8-210.grenoble.iot-lab.info,172.20.64.11,721d0b8d-b6d7-4ba4-a721-ffd2b395536f
node-a8-211.grenoble.iot-lab.info,172.20.64.12,b6ebd81f-8a31-4a68-9a8e-3927372138c2
node-a8-212.grenoble.iot-lab.info,172.20.64.13,8d204e1a-0490-4719-b8b2-41cc6b5b5b03
node-a8-214.grenoble.iot-lab.info,172.20.64.14,883744d6-2c98-42bd-bbe5-1070c1235505
node-a8-216.grenoble.iot-lab.info,172.20.64.15,53b7e7ae-e51c-4243-8af6-9efcf8dee78b
node-a8-217.grenoble.iot-lab.info,172.20.64.16,e2c866d6-1c4b-413a-8b25-163b5f04fdc1
node-a8-218.grenoble.iot-lab.info,172.20.64.17,5e87bfcd-fe2a-4977-9d73-2382e54ed886
node-a8-219.grenoble.iot-lab.info,172.20.64.18,528987da-b246-482d-a2ed-422c604d1bf5
node-a8-220.grenoble.iot-lab.info,172.20.64.19,3d754073-8d78-4b28-87b9-8b82b82ab734
node-a8-221.grenoble.iot-lab.info,172.20.64.20,63757125-90a4-4381-9b70-de7de56c1391
node-a8-165.grenoble.iot-lab.info,172.20.64.21,f6422317-93e8-4e52-a5ee-2b6a32cb297d
node-a8-166.grenoble.iot-lab.info,172.20.64.22,92f616c0-8668-43a6-b63b-3082e83abc49
node-a8-167.grenoble.iot-lab.info,172.20.64.23,55963054-f778-4446-b4e7-cd69ec0af5ae
node-a8-168.grenoble.iot-lab.info,172.20.64.24,9b69c295-1ed5-4cd5-8a6c-b8a23658746c
node-a8-169.grenoble.iot-lab.info,172.20.64.25,148bf62a-7d71-479b-8e15-c12440b88942
node-a8-170.grenoble.iot-lab.info,172.20.64.26,aa9fd744-2ecd-46c4-ae94-c3e60e037e24
node-a8-171.grenoble.iot-lab.info,172.20.64.27,9242d950-5986-435b-8fcf-8386cf9f61f0
node-a8-173.grenoble.iot-lab.info,172.20.64.28,227297fe-6101-4614-a641-a7dec84e4fd3
node-a8-174.grenoble.iot-lab.info,172.20.64.29,90b8be9d-9382-4598-a3de-4ec1123e8895
node-a8-175.grenoble.iot-lab.info,172.20.64.30,ff03c8bc-df03-42b3-8e49-57fe6046e5c0
node-a8-176.grenoble.iot-lab.info,172.20.64.31,c629c3bf-134e-466c-a6e2-6ea43ec13316
node-a8-177.grenoble.iot-lab.info,172.20.64.32,9d96dd59-39f5-4e60-8404-fa5d008148ab
node-a8-179.grenoble.iot-lab.info,172.20.64.33,ed75b9a2-8e81-4961-9a9c-4f6424ff1be5
node-a8-180.grenoble.iot-lab.info,172.20.64.34,f29787b5-34a7-4bb1-9ed3-ec5c8974cf39
node-a8-181.grenoble.iot-lab.info,172.20.64.35,f0c2897c-9c86-41b5-8ebd-147e6b3feabc
node-a8-182.grenoble.iot-lab.info,172.20.64.36,8aee2b5e-e897-41bf-963c-9511a0515cdb
node-a8-183.grenoble.iot-lab.info,172.20.64.37,a8044d0f-5741-4cd4-93ce-1e00a141a744
node-a8-184.grenoble.iot-lab.info,172.20.64.38,608ff3fc-d3eb-4802-8500-50faad3f4f97
node-a8-185.grenoble.iot-lab.info,172.20.64.39,3989a9b6-1d5c-4f72-9a67-3af1c24e10bb
node-a8-187.grenoble.iot-lab.info,172.20.64.40,696e181b-19c6-49fb-8c5a-cc99e49e067a
node-a8-188.grenoble.iot-lab.info,172.20.64.41,795be06b-6798-4700-93e2-86c71fae337a
node-a8-189.grenoble.iot-lab.info,172.20.64.42,809f6c82-7c83-4524-9eb1-b5298cf76f8c
node-a8-190.grenoble.iot-lab.info,172.20.64.43,8c6f4352-178d-4b50-a98b-da3d4ae2940a
node-a8-191.grenoble.iot-lab.info,172.20.64.44,676e7097-036b-40c2-9e20-1e0f9f4db079
node-a8-192.grenoble.iot-lab.info,172.20.64.45,4f6bb34f-aa14-49e5-89b2-536cb80604d8
node-a8-193.grenoble.iot-lab.info,172.20.64.46,2f750b33-0465-40dd-8c63-0fb9700da25b
node-a8-194.grenoble.iot-lab.info,172.20.64.47,6dbf2e72-b7bf-46ca-a516-e8a5425f098a
node-a8-195.grenoble.iot-lab.info,172.20.64.48,61b62350-c312-4ed0-8174-cc4ae4e80d4d
node-a8-197.grenoble.iot-lab.info,172.20.64.49,76a8d3bf-a051-4acb-8123-02d6730b4d2c
node-a8-198.grenoble.iot-lab.info,172.20.64.50,72f51146-d877-465f-984a-90944ed65272
uvb-29.sophia.grid5000.fr,172.16.132.29,34db56dc-8d1f-41db-aa98-a01cef538740
uvb-31.sophia.grid5000.fr,172.16.132.31,e9accdcd-a064-4c7f-a672-d08a4f8eb20a
uvb-33.sophia.grid5000.fr,172.16.132.33,c87f036e-fcb9-4041-b9ea-99e87743f206
uvb-34.sophia.grid5000.fr,172.16.132.34,b1f7e4ad-6af9-4cc5-87bd-01760173c408
uvb-35.sophia.grid5000.fr,172.16.132.35,9b09facc-15be-4cad-acc5-8924d7a1c2be
uvb-36.sophia.grid5000.fr,172.16.132.36,15b781b4-df8b-4be8-bc00-317de8ca4da3
uvb-37.sophia.grid5000.fr,172.16.132.37,8711e36b-ebb1-43cd-b81d-2e2508ce73a8
uvb-38.sophia.grid5000.fr,172.16.132.38,3dd3fe33-93ce-4e65-929f-cc337ba2fb4f
uvb-4.sophia.grid5000.fr,172.16.132.4,0037fd1a-6a1e-485a-97fd-f1e37089598e
uvb-41.sophia.grid5000.fr,172.16.132.41,37211b16-9a8d-4eff-b601-4b19add06a6b
uvb-42.sophia.grid5000.fr,172.16.132.42,a89fb154-3602-41b7-b837-63757293b734
uvb-43.sophia.grid5000.fr,172.16.132.43,9f393bfe-71e3-4f2d-bff8-a92687183456
uvb-44.sophia.grid5000.fr,172.16.132.44,8b800633-8828-405f-9b11-d70ebed63ea1
uvb-5.sophia.grid5000.fr,172.16.132.5,4f2f181b-fc04-4b8e-b58d-f65d79e68eb8
uvb-6.sophia.grid5000.fr,172.16.132.6,c900721e-77f4-4372-b8de-125b0c09d5a3
uvb-8.sophia.grid5000.fr,172.16.132.8,2fd1dea2-86cb-4fb0-837c-2eb22ba47cb0
