node,ip,uuid
node-a8-199.grenoble.iot-lab.info,172.20.64.1,03e63281-7fa1-41fd-bad5-fe4d2b34d9e8
node-a8-200.grenoble.iot-lab.info,172.20.64.2,92ddaff7-efa3-408a-9a78-e850531796a3
node-a8-201.grenoble.iot-lab.info,172.20.64.3,a954e059-0772-4d00-8978-b29911a78acf
node-a8-202.grenoble.iot-lab.info,172.20.64.4,460ca1c4-2c95-430b-8421-e6b9f3c2bb18
node-a8-204.grenoble.iot-lab.info,172.20.64.5,3dcd4711-2d27-415a-93fa-f776adff871d
node-a8-205.grenoble.iot-lab.info,172.20.64.6,3d2c4a9e-aada-40a3-8515-8d891a5ce78b
node-a8-206.grenoble.iot-lab.info,172.20.64.7,7dc81aca-f0a3-4ac1-bc7a-64528b4d7abe
node-a8-207.grenoble.iot-lab.info,172.20.64.8,997686c7-7de6-4f30-be32-21971967fd41
node-a8-208.grenoble.iot-lab.info,172.20.64.9,a61b93a3-c813-4c4d-96ea-cf5e8fb871d2
node-a8-209.grenoble.iot-lab.info,172.20.64.10,02f355fe-1b93-459d-bcb9-4204de0d8431
node-a8-210.grenoble.iot-lab.info,172.20.64.11,1349f5cb-373f-4074-9ccf-865dd8bb684c
node-a8-211.grenoble.iot-lab.info,172.20.64.12,0869265f-615f-4db8-a035-fa99839d4d83
node-a8-212.grenoble.iot-lab.info,172.20.64.13,8a048dc9-af75-4c64-b25c-bc2586fed047
node-a8-214.grenoble.iot-lab.info,172.20.64.14,7162d47d-0f14-494d-bb2e-53e73ce9faa0
node-a8-216.grenoble.iot-lab.info,172.20.64.15,806cc827-0d7a-4f58-9a1f-55f6dc0ecc61
node-a8-217.grenoble.iot-lab.info,172.20.64.16,ad09fc3a-5cbd-4620-80c7-1358b2ec3128
node-a8-218.grenoble.iot-lab.info,172.20.64.17,b97971f2-6130-456c-940e-69791d5d0b56
node-a8-219.grenoble.iot-lab.info,172.20.64.18,ea88faf1-dc12-44ec-8f42-5d1ab1ac9640
node-a8-220.grenoble.iot-lab.info,172.20.64.19,b38d0e52-5983-4753-a60c-72fae8e57d9e
node-a8-221.grenoble.iot-lab.info,172.20.64.20,df5c6b86-b000-4b3d-a0a8-e49c7d7bb989
node-a8-165.grenoble.iot-lab.info,172.20.64.21,d0b262a5-36f1-400b-abe7-6f1ec734760e
node-a8-166.grenoble.iot-lab.info,172.20.64.22,f60a7a39-0b84-4a08-8f83-2bf649ab0b8c
node-a8-167.grenoble.iot-lab.info,172.20.64.23,5ae99113-c39e-41c4-9e29-27a92b6719f5
node-a8-168.grenoble.iot-lab.info,172.20.64.24,7bad80d2-9a1e-4a44-844a-ce4ef47e4ae2
node-a8-169.grenoble.iot-lab.info,172.20.64.25,aa8ae1b2-0189-452a-a980-6a061a32fe35
node-a8-170.grenoble.iot-lab.info,172.20.64.26,13a31a4f-39e9-4301-a511-cbc37d5c82f5
node-a8-171.grenoble.iot-lab.info,172.20.64.27,54fe0e29-2d06-4c44-9908-15599b1e4843
node-a8-173.grenoble.iot-lab.info,172.20.64.28,fe31db92-a46f-46fe-a463-bf0fa43852a0
node-a8-174.grenoble.iot-lab.info,172.20.64.29,a521a352-e0cd-46e4-92c9-ad45c3b67857
node-a8-175.grenoble.iot-lab.info,172.20.64.30,083b65a7-5281-4ae5-8db0-0f97ea2c261f
node-a8-176.grenoble.iot-lab.info,172.20.64.31,ffa58b59-d737-48ce-8ff5-37c3da822072
node-a8-177.grenoble.iot-lab.info,172.20.64.32,a024a36a-4039-4c0d-acd9-c7fecce8d433
node-a8-179.grenoble.iot-lab.info,172.20.64.33,9ba5113a-7154-40da-bd23-c7b2e39b41b7
node-a8-180.grenoble.iot-lab.info,172.20.64.34,4eb97926-9615-4474-acef-2efc5e4b8931
node-a8-181.grenoble.iot-lab.info,172.20.64.35,3f513ccd-4355-4dd1-b284-5f6ea4c4a2ff
node-a8-182.grenoble.iot-lab.info,172.20.64.36,4366d641-85e4-4356-b6cf-88f6efe83ed1
node-a8-183.grenoble.iot-lab.info,172.20.64.37,0d6b2d74-5ccc-45d8-8dc5-75c3b49ae04c
node-a8-184.grenoble.iot-lab.info,172.20.64.38,af0fd00e-9c29-4279-93b1-29e2e825837a
node-a8-185.grenoble.iot-lab.info,172.20.64.39,a05f3076-f849-4f7e-b5a8-063b29cd526d
node-a8-187.grenoble.iot-lab.info,172.20.64.40,da483b89-0d05-4d62-ae65-4ab486750b05
node-a8-188.grenoble.iot-lab.info,172.20.64.41,6b1bdd49-8248-475b-964c-8889163b618a
node-a8-189.grenoble.iot-lab.info,172.20.64.42,0def6543-76e0-409f-873a-021c380ac9f3
node-a8-190.grenoble.iot-lab.info,172.20.64.43,03fe5a6f-b834-4432-9980-5ab635b69cc4
node-a8-191.grenoble.iot-lab.info,172.20.64.44,76fbdae2-7613-44e8-891d-97badad68227
node-a8-192.grenoble.iot-lab.info,172.20.64.45,91c85d28-5f57-476a-b859-b12185be5736
node-a8-193.grenoble.iot-lab.info,172.20.64.46,9a1c241a-5236-4f69-80d3-c71b370e8ff9
node-a8-194.grenoble.iot-lab.info,172.20.64.47,46c92d03-1a00-4784-913f-432b0d7e2088
node-a8-195.grenoble.iot-lab.info,172.20.64.48,f89c126c-6205-430c-923c-c18b3d89e22d
node-a8-197.grenoble.iot-lab.info,172.20.64.49,bebe82a5-424a-4138-8a5d-0dee51a43d81
node-a8-198.grenoble.iot-lab.info,172.20.64.50,8a689ce4-b382-46f8-8f9f-6ff389ee314b
uvb-29.sophia.grid5000.fr,172.16.132.29,a90724ac-7dd9-45f0-afc1-ca6a150f2f64
uvb-31.sophia.grid5000.fr,172.16.132.31,16092052-40bb-4a81-adec-69a65b847995
uvb-33.sophia.grid5000.fr,172.16.132.33,7eeb6b25-8549-417e-8380-055806c5c0a2
uvb-34.sophia.grid5000.fr,172.16.132.34,68559518-f7ae-4898-a892-f7ecefa6cb31
uvb-35.sophia.grid5000.fr,172.16.132.35,065af2b6-3861-46fb-8650-119c0c2ab16a
uvb-36.sophia.grid5000.fr,172.16.132.36,185af311-9479-4393-a231-a3a8d3570c83
uvb-37.sophia.grid5000.fr,172.16.132.37,51757c87-88a7-4a9a-bd57-5a5b226a62de
uvb-38.sophia.grid5000.fr,172.16.132.38,cdea315e-3966-4117-9ee1-9a7517f4fec9
uvb-4.sophia.grid5000.fr,172.16.132.4,9070fcac-ea9d-46da-aa60-81f85ab20070
uvb-41.sophia.grid5000.fr,172.16.132.41,e49137d1-34ba-415d-8e61-1d8bc2a1ed36
uvb-42.sophia.grid5000.fr,172.16.132.42,e716438f-3f15-47d6-a939-7a503472a48a
uvb-43.sophia.grid5000.fr,172.16.132.43,28b128c0-4449-4bdc-9628-9f74911a2743
uvb-44.sophia.grid5000.fr,172.16.132.44,18e326b3-0ea6-444b-973b-3b66f4a35f48
uvb-5.sophia.grid5000.fr,172.16.132.5,a7260e11-5854-40bc-8d1a-edd479f3029c
uvb-6.sophia.grid5000.fr,172.16.132.6,340b473e-f926-4f64-9e49-da909db4b0d8
uvb-8.sophia.grid5000.fr,172.16.132.8,2d84ad50-cd5f-478e-a520-013e74a25059
