actor,node
d6b7340d-3481-4306-8e26-ea750bbbc0ff,039e3fa4-dcbe-436f-bf8a-9e55c2deca89
72ffa031-4bdd-4b67-80b8-e932370bc3b9,30c7cb43-c5c6-403c-9dd1-36bfc76962da
80408f1c-17e3-41a9-a769-afafee74b778,5eb20175-e55c-424e-81cf-e14009c4454f
57ee3fd5-ceae-4dad-bf5d-5e457e87af53,37ac7565-9f87-4b21-8f46-2cd6fed70a67
d5ee66e5-d25e-42dc-bbe3-3a472c6b312b,37ac7565-9f87-4b21-8f46-2cd6fed70a67
ea922302-8bf6-4d05-ae93-ffa21a31084b,1ba37805-8a6b-4f12-a87d-36108b947e8d
c90e3df9-118b-46fc-9355-e42416723c98,37ac7565-9f87-4b21-8f46-2cd6fed70a67
d10350cc-43d7-48ec-b477-a2b8578762e5,2d57a4c1-6c11-4ee4-8d3c-c1c901ceb791
fde0bbe3-76ce-46bf-be6c-bb55eb7f6349,37ac7565-9f87-4b21-8f46-2cd6fed70a67
f3d3184d-a1d5-4cb0-bf19-444b9bd0bdf7,fb43157b-f516-43d4-8024-a2f388d8f5bf
aae164bb-4648-48dd-9c92-6ed16d301067,4ab66fee-9ee4-4021-8e46-dbdfb7e61930
1e93da76-aa71-4f57-adb1-6dbd6525b8ab,fb43157b-f516-43d4-8024-a2f388d8f5bf
7bff4064-acc9-4e33-be24-86214485efd3,00a8ab22-1bad-4578-ae1a-23df52287ade
a08d3f9e-d0db-46c3-b860-e9e5709bb616,039e3fa4-dcbe-436f-bf8a-9e55c2deca89
c2ddadc2-d9a8-4768-9ca2-edffc4a75718,039e3fa4-dcbe-436f-bf8a-9e55c2deca89
729783b6-b81f-49bc-9cab-25108ae9fcdd,0f814d98-b845-49b2-b89d-fe8af5b6b08c
3ad930bb-9f8b-4574-a852-ea1e76423387,0f814d98-b845-49b2-b89d-fe8af5b6b08c
8a16d293-6058-4937-8e3d-98ddefb20f46,934554f3-8912-441b-a037-1e438ae5bde7
5e7ea0c6-897c-443a-9e7c-97bf8cc80bc8,f93b2960-e5c4-4772-ac25-f3cc9e0882bf
9b71e66f-ad64-471b-9321-63cc8e5f7d99,7f074ce4-d8cb-4467-aaef-5e6c96ddbc6e
7fccf2f4-1704-4f10-b475-c2e1408afab2,f93b2960-e5c4-4772-ac25-f3cc9e0882bf
8bc6f40d-18ed-4865-a549-c736813dcf5a,72a769a7-a023-43bd-8de0-42b58887a2b8
bac22883-a7ea-4a02-97c4-2d9f20315009,6a3aa692-9474-4042-84fb-6b2ed5d0d441
c03206d4-327c-4a97-9541-9a1e9b3353d2,eb63ea67-7b5c-4d8e-8f2e-a2262837cde1
10bf1731-55d8-425e-96db-a457ab6d6d34,ba294a5f-b1a3-4472-b4a2-34ef5428dc4e
219dc77d-fc4b-4f90-b6c4-913486fd9ab7,ba294a5f-b1a3-4472-b4a2-34ef5428dc4e
6a864448-93b4-4d44-a483-0424c241a924,1153a7f7-c8a4-4fa8-b303-26551246cf89
346fb872-81f7-466e-87ad-b567b235b4e4,8c88a0c6-31f2-4699-b25b-318003263bb5
8e532730-29b2-455f-a09d-6232e17dc388,8c88a0c6-31f2-4699-b25b-318003263bb5
64b37720-4dcf-4d11-bc1b-d4cde1cf704f,b56591a2-b39e-4ae5-8aa0-c5cac287f74a
97e3f71b-a684-4637-b0a0-4e46d40f8fb7,30c7cb43-c5c6-403c-9dd1-36bfc76962da
966d9e10-9f23-4fe6-b6a5-103475cbdbee,30c7cb43-c5c6-403c-9dd1-36bfc76962da
a232b01b-4212-4335-b8b4-c2324275b302,f32e126f-805c-4918-a73b-489588c84780
7216345d-f4b8-4374-aec8-4f511e959772,3a76150d-e4b7-4891-b4ab-4c5efffb317d
3b21acfb-cd01-4b93-8c1d-f5d079a685c9,ebfe1d8c-cd72-44d6-83b7-a1468be2d06a
04b17e7b-0eda-4cbb-b452-68a08ce0c856,ebfe1d8c-cd72-44d6-83b7-a1468be2d06a
275e0360-5dab-43e0-ac49-8f0cea67c767,c96b96b3-d9f2-4479-bee8-06871360fab4
b1592317-7b59-4153-8707-6e4159f567fe,ebfe1d8c-cd72-44d6-83b7-a1468be2d06a
aeeee691-9973-4e59-9d24-c0a340a41925,ebfe1d8c-cd72-44d6-83b7-a1468be2d06a
560c9657-f7d0-4d58-8092-8c75e95c52c0,28dbca43-e567-4e9f-bbb9-201ffa7b07a5
44ceec52-187e-41ef-ac24-cef6132ccdd0,ba294a5f-b1a3-4472-b4a2-34ef5428dc4e
1d8bfbc0-1a0d-4f0c-87af-8b0a069eed94,ba294a5f-b1a3-4472-b4a2-34ef5428dc4e
31919882-cac2-46e8-8980-247dea6cb3da,b2fe9b53-9cc1-4e15-952b-5351f397b0d1
610dc589-04ea-4f45-aa44-9485fa17021d,72a769a7-a023-43bd-8de0-42b58887a2b8
6f88e37c-ddcf-4bf4-b450-eb3f2ec62b79,125af085-cb42-453a-9549-5b67fe44e496
d71515f4-efed-4107-9204-dbf09dcea619,2da3be0f-916f-40cb-b9ba-d5a71f5ad709
0b9d7b53-0624-4b55-8bca-7e7ff025b20b,2da3be0f-916f-40cb-b9ba-d5a71f5ad709
525e282e-b658-4264-b1f8-4fd03dbd8cdc,da9194ca-9dc1-4baa-b5c6-b71a9c6ba6a0
2bc1e02e-d570-4e1f-824b-e099505549c0,ef6f93f7-73ce-4246-ad0d-47e5e94ade07
16ad5e13-26ae-43f9-a8e8-09533abbb61f,80a4b2d3-372f-444a-92e9-6c404629c736
4ff5595c-894b-4a24-b5d2-b960b71106ab,ef6f93f7-73ce-4246-ad0d-47e5e94ade07
d7c3d0e2-fc43-4ec4-ae03-871c80ad9033,2da3be0f-916f-40cb-b9ba-d5a71f5ad709
8d21d378-9ebd-4a49-b74d-9b7840228c13,f2734731-aada-4d2f-8b67-605de2828684
2ff10737-c5a4-4969-85c0-6d6665beb38b,2da3be0f-916f-40cb-b9ba-d5a71f5ad709
3a7d5f58-67d0-4d66-a872-eb3fa6281688,a3cf34da-230f-45bf-8513-3a93acfa5d8e
dc18501c-7267-4256-9e60-066c64cdf0e0,471aff52-4526-4c6c-bdda-a37d130e048c
7dba7a6d-2191-43ff-96dc-df3797ea8bf3,72a769a7-a023-43bd-8de0-42b58887a2b8
800c74f1-74fb-4fb5-9b48-a167a9e450d4,5854e69a-27d9-4967-afa3-b4216c20f5a9
c216d7ca-3f98-4beb-b0e0-f6d5367fcd24,0f814d98-b845-49b2-b89d-fe8af5b6b08c
a592de3e-1297-45dc-ad58-af254d309d57,0f814d98-b845-49b2-b89d-fe8af5b6b08c
03dddb69-76b1-45b3-8828-1a9c604e1ae4,47ca5dfb-9d29-401f-9adf-2004e9348b2b
1d439d30-7f1a-400e-aa8f-d02e4037a38e,2da3be0f-916f-40cb-b9ba-d5a71f5ad709
b43ddfe1-1653-4ff8-9691-e4e53ecf4709,2da3be0f-916f-40cb-b9ba-d5a71f5ad709
23a83829-131a-44d8-9490-5c9dd045d026,6a3aa692-9474-4042-84fb-6b2ed5d0d441
42f808cf-5baa-43fa-b280-df18447b280d,6a3aa692-9474-4042-84fb-6b2ed5d0d441
7807a408-ba6a-49c8-8711-8f2dd2a8cdde,3a290ed3-23f0-4d18-8d3d-138f0a71b7e0
6a9c0a9e-37c8-436b-853d-6802a08e5238,2cac0e42-7b22-4e14-a5d1-6ed052d06c50
a7397489-caf2-4c57-87ee-ed2da60d9c45,6a3aa692-9474-4042-84fb-6b2ed5d0d441
3e9fc5f6-896e-4f6a-92cb-132e993ca3f2,6a3aa692-9474-4042-84fb-6b2ed5d0d441
61e19c8c-4cc4-464b-b45f-96dfcf24e8b6,61ce627f-726c-4170-8710-ef875556ba6b
89c13d35-cb22-4a4f-aa7a-6bad74da084d,471aff52-4526-4c6c-bdda-a37d130e048c
1beaab01-f86b-4aad-aefb-8ae0c8b48b73,471aff52-4526-4c6c-bdda-a37d130e048c
a894bcc4-53d2-41a4-8036-6957d78b508c,2da3be0f-916f-40cb-b9ba-d5a71f5ad709
ddde61b9-ec1a-4566-b8b5-28caf7edc885,2da3be0f-916f-40cb-b9ba-d5a71f5ad709
499cfa4c-de79-4d76-80a1-6d0dc8a2cc1c,00388825-e608-4a44-986a-c7f2e5708653
601f4f24-c857-4366-9a42-45f0300693dc,2da3be0f-916f-40cb-b9ba-d5a71f5ad709
d82133a7-00fe-4c7e-86b5-2a1bec6549b3,b2fe9b53-9cc1-4e15-952b-5351f397b0d1
20280d04-1c02-4fdc-b117-c53186de2422,5916a97c-f1a3-4f39-8d4f-9707dd8484f0
4d120fff-20ba-4e86-b6cc-f75fcde64f74,8c88a0c6-31f2-4699-b25b-318003263bb5
d8f0f4a4-36fa-42b0-b27c-231af815d828,8c88a0c6-31f2-4699-b25b-318003263bb5
7ad92f3d-c529-469a-8ded-b06143641ce1,15268ea1-b98c-4cf1-a0b7-0d63ccf7a085
4451bf6f-2c04-4103-9716-2f8e01751390,b2fe9b53-9cc1-4e15-952b-5351f397b0d1
1946f066-abc7-4eaa-a847-40804257dba0,2da3be0f-916f-40cb-b9ba-d5a71f5ad709
1b6a049b-77f2-46fb-993b-46c379c51ba8,1682b8d3-8752-4f14-ab5c-fec294f760d2
1b5af3de-c1bb-47f0-8108-262371b2c176,e6ac8c5f-daa6-4644-946d-54a0295694aa
d35e72a7-ead6-4afb-b1a2-61fb2eec6d35,471aff52-4526-4c6c-bdda-a37d130e048c
d99cc313-1768-4626-a5b0-7f35b5e15feb,72a769a7-a023-43bd-8de0-42b58887a2b8
33dcba48-0ddf-4f09-a5c1-ca9618ab2d23,8c88a0c6-31f2-4699-b25b-318003263bb5
f071353c-c8c6-492f-a10e-6982da5d4002,aff4ab60-73eb-400c-8214-399918f1bf94
dcdd2aa8-2955-4384-bce1-71876c82119f,8c88a0c6-31f2-4699-b25b-318003263bb5
a513060b-1135-45a1-855a-95e28f925585,83d03b0d-eaf9-4a23-bfe2-da48966b0bc9
c9a20dee-c89b-4b97-abd0-8e3a00c86b11,471aff52-4526-4c6c-bdda-a37d130e048c
38ecfe9c-e114-4ccf-9e2e-b95407bf9ec3,471aff52-4526-4c6c-bdda-a37d130e048c
baef6650-08db-49ef-a93a-37fcb6dc083d,6a3aa692-9474-4042-84fb-6b2ed5d0d441
b6dcd27b-c07e-46b1-8972-178cc895e4a3,ed00bee3-06d8-4c3d-8f89-ebd92c550296
d9796c3b-a99e-4a3d-8fd4-074a525f5b01,6a3aa692-9474-4042-84fb-6b2ed5d0d441
15b10370-0301-4773-bcda-268a04d6ef4f,8c6d8440-be11-4e49-bcc1-f1694dc4d5a8
47263978-7bd1-48dc-8903-df90f4497043,ebfe1d8c-cd72-44d6-83b7-a1468be2d06a
6cc6baa7-e5b7-472f-8ab7-447fc420b201,ebfe1d8c-cd72-44d6-83b7-a1468be2d06a
60191bf0-8b4f-4183-818c-aa1332851fbd,b2fe9b53-9cc1-4e15-952b-5351f397b0d1
c701e06c-336d-4885-9ffb-8c36e53f5f1a,fe0ce811-4f3f-4e42-bb34-7c1b7124390d
13c1eff9-fd00-4865-b917-c4e2cd42d7e5,b2fe9b53-9cc1-4e15-952b-5351f397b0d1
5444939b-80b2-4ca6-a9af-bf6d71736524,dbe607a9-4a27-47aa-98c9-582e0120dcf9
43f075a2-5444-47e0-8f57-c2e19df7d745,37ac7565-9f87-4b21-8f46-2cd6fed70a67
a3e050ec-886c-4be0-bb3f-52ec2af4c5d8,37ac7565-9f87-4b21-8f46-2cd6fed70a67
1be6e547-8ebb-40d7-aa90-84dfc9a06054,bca72e4b-11db-4961-a9eb-7f3b8db4e814
7f28a895-d5c6-44c7-93e5-81fecfaf82f2,471aff52-4526-4c6c-bdda-a37d130e048c
705a6c8a-8c47-464d-adbe-edc0387b8c29,471aff52-4526-4c6c-bdda-a37d130e048c
693f999e-f87f-4a8f-8224-0be4bc97d50e,471aff52-4526-4c6c-bdda-a37d130e048c
6c236664-aa92-48a3-9b04-2b5d317ebf8e,33de2d8a-664d-493c-844d-bbec3096e7eb
52071674-7582-4e9e-82ab-6cbc5614da04,471aff52-4526-4c6c-bdda-a37d130e048c
feb7258a-7e3f-4fad-a1ef-e32673aab33f,039e3fa4-dcbe-436f-bf8a-9e55c2deca89
224f8961-f113-48da-b2f5-712a451c05c0,039e3fa4-dcbe-436f-bf8a-9e55c2deca89
499457c4-929f-42ea-8541-1e30f3d4986e,e64482c1-55cb-4667-9310-f810e349ad6f
13f4da04-6e52-4d9e-9c45-c66f4cee4f31,b2fe9b53-9cc1-4e15-952b-5351f397b0d1
8ce79fbf-dc7e-42b5-9329-ff3554608e4e,0559c404-bfba-4ae8-b083-c2b07aab7d29
c72ef383-2c56-4eec-8603-87d54b2d2a72,b2fe9b53-9cc1-4e15-952b-5351f397b0d1
aea7b36c-d263-4309-8a8d-cdb1cd5bfe7d,30c7cb43-c5c6-403c-9dd1-36bfc76962da
9c417aa1-509f-44c9-9062-cc9f585f7f8f,30c7cb43-c5c6-403c-9dd1-36bfc76962da
97ee0cc8-27d9-4a93-8f39-17f444cca449,09296f79-02c4-4550-9c69-39c10002dea9
8d84b212-0b18-4d4c-ae4a-49ee64c39d49,7f3620b1-d485-4ee1-b2bf-5aaba58e36ba
6c738784-a6e0-4f6d-93f3-eb9b2c7c8d93,30c7cb43-c5c6-403c-9dd1-36bfc76962da
41f9d1db-c264-4038-99ab-0290ac1cd7d1,30c7cb43-c5c6-403c-9dd1-36bfc76962da
9a1151fa-640c-4d33-9616-55f62f2a7a17,47efc877-977c-4f8a-b7c6-1d781ad7831b
3b877f5f-c436-4e65-a98a-7c5a8a132e10,b2fe9b53-9cc1-4e15-952b-5351f397b0d1
d924a10c-4e01-48f7-8ebb-d7a05b47929c,b2fe9b53-9cc1-4e15-952b-5351f397b0d1
c5f89ff7-9a87-4005-bbc8-1b112264c50f,71af2163-1cae-4d83-8b42-2ba0ee237272
a12b7aab-2b72-49a7-ab43-c829add8cccb,0f814d98-b845-49b2-b89d-fe8af5b6b08c
4710aa9a-1e02-4ce2-97f2-fcde2edd88ef,0f814d98-b845-49b2-b89d-fe8af5b6b08c
c227b919-f0fc-4ae0-a88d-241677eaa54a,0cad466d-96ad-4ac5-9cc2-86271e383bf1
ee7e570a-202a-49e3-8109-5581f4799747,6a3aa692-9474-4042-84fb-6b2ed5d0d441
2a4925a8-8335-4fa9-9f63-763e0a49e28f,6a3aa692-9474-4042-84fb-6b2ed5d0d441
2e0fd38b-b885-4f15-b761-8d20c47eacbb,ba294a5f-b1a3-4472-b4a2-34ef5428dc4e
edfd735f-82f3-4707-9eae-7ab9ded94d24,dc667ec1-b608-417a-86a0-706ab225538d
a3849249-9698-41ea-bc7d-a34ad38161e8,ba294a5f-b1a3-4472-b4a2-34ef5428dc4e
03d9a89b-0a71-45b4-8cf7-1673b625cdcb,72a769a7-a023-43bd-8de0-42b58887a2b8
5432f1df-933b-4218-b9f9-f6e12203ae1a,384cbe49-6268-4471-ab5b-9d146d40d7cb
a412af35-0504-40d2-82e9-445678678fdc,72a769a7-a023-43bd-8de0-42b58887a2b8
df6fed60-055a-4199-aed1-d9500d4ca71d,72a769a7-a023-43bd-8de0-42b58887a2b8
b14fbd46-54a4-4d2e-9a42-f287164f0afe,43683dc3-d87a-4259-9006-a9929d3103f6
2aae6474-62d6-4c59-8914-ddba5a9979a9,72a769a7-a023-43bd-8de0-42b58887a2b8
c6ee087b-c37e-4058-a056-a880ded9ef6a,72a769a7-a023-43bd-8de0-42b58887a2b8
4a3bca88-5175-42bf-9bf4-4a09d6e1f2bd,72a769a7-a023-43bd-8de0-42b58887a2b8
f69dfb28-87b3-42b6-a5e1-cbab6721085d,dfa5de8a-4c49-44f9-ae68-5c6f08ac8be4
95a1bf70-a1e0-4dc1-8fa1-14ead430d0cc,30c7cb43-c5c6-403c-9dd1-36bfc76962da
c233ed18-39fb-43e0-934c-6b0078c6bae7,e3378f85-b428-45f2-9768-866c2313f62c
1d9054d7-7eb2-4faa-ad36-ba0a655ed288,30c7cb43-c5c6-403c-9dd1-36bfc76962da
47c76c53-51d6-4e0f-8ac9-9aa27ee3b41c,06546693-41b6-4dcf-97a0-4a815eb998fd
0721813d-da55-4a46-93cf-6ec2f78dd149,ebfe1d8c-cd72-44d6-83b7-a1468be2d06a
2a4e4b40-dc7b-4a0f-9686-09ce0c03f454,ebfe1d8c-cd72-44d6-83b7-a1468be2d06a
