actor,node
a1d2f584-cd92-4209-ad5e-b4a1bffe6158,5e660d88-0df3-4530-9f1b-df288fe18e78
e6cfdc81-efd8-4009-abd2-ee766ff45450,c8efdd7f-6a67-46f8-8134-8836ade5cd6c
adccc8d3-4c41-48b5-927a-0b80ed7615f2,c8efdd7f-6a67-46f8-8134-8836ade5cd6c
cddc69ab-870b-4be8-8008-145d76e3887b,31d886fc-6f68-4434-95dd-3fbf5517ba39
d408240a-e71c-45ea-9ba9-66e646a93ae9,248b0353-88f7-404f-8437-565843d5fb3b
f374dc0a-3794-4e29-9147-648b103f630c,248b0353-88f7-404f-8437-565843d5fb3b
92655e4f-b6ae-4247-88e7-39328a32c3e4,c8efdd7f-6a67-46f8-8134-8836ade5cd6c
60848f4d-1d91-4967-9de8-32db742cefef,f5e35ca7-a76e-4de5-9b79-967399715bca
73bd2517-82fa-4411-8122-035a6c994ddf,c8efdd7f-6a67-46f8-8134-8836ade5cd6c
c08e666a-2713-4ada-b70e-5ccf7f8a0799,477767fa-80b9-4a99-860c-cc79319d1056
783b99be-ebf8-4a35-b5c2-b380842bddcf,5de03d31-baf1-49ca-a06e-c6aaabd3af7d
30799535-a341-467d-9e34-a9e921d32455,5de03d31-baf1-49ca-a06e-c6aaabd3af7d
bf417243-d632-4575-a7e4-a1998f131991,d287b5c9-033a-4c52-9f14-f84854486809
6153f03c-bba6-44a5-a385-4f12f8bf1c7a,d287b5c9-033a-4c52-9f14-f84854486809
3366b00e-fdc9-4443-b6b9-4d60dc3c3cee,b3639091-4378-4de7-99b2-4338f25c63f0
3f7ccb0e-8bcb-4df6-9631-a225286277cd,1bc16a17-e835-4245-80fc-74bb6a0bc854
01f32289-ed6c-4684-99b6-877f1cd38c39,e178f127-2f41-4c5d-a273-a97004b7f7eb
c390fd75-d748-4a33-8e94-4f63e39f5307,e178f127-2f41-4c5d-a273-a97004b7f7eb
149561b2-6195-4460-a68a-f4b7f930ea04,c8efdd7f-6a67-46f8-8134-8836ade5cd6c
48a36ea0-7c91-42c5-8291-1c3ca866c6aa,c8efdd7f-6a67-46f8-8134-8836ade5cd6c
a5ee34bb-e2e7-4cb5-980b-50c9338f5ea1,40f28162-137e-407b-b4fb-1fe91a8f7510
e75165cd-98c1-4e54-bb04-19888aa45dac,e4f221bb-4134-43ef-bdcc-eb5eddb51aeb
09921812-8d13-4318-bad3-84e751f84b91,5de03d31-baf1-49ca-a06e-c6aaabd3af7d
d50dd6e9-83c4-4a74-8eca-9bb0d93aca8e,5de03d31-baf1-49ca-a06e-c6aaabd3af7d
e50088ef-6c4b-4dc9-bbc8-61c175a292a9,f4ad180e-36c3-48e5-8d3a-0aed8d1cfa9d
24fec448-0e4d-4d31-b81b-76b99818ce7a,5ceb6c3b-40f6-408b-8492-98d0c377a09e
64c627a4-2d4a-4a36-85c0-822da215d4c9,5ceb6c3b-40f6-408b-8492-98d0c377a09e
9e69d265-9ec9-4600-995d-18ba189ba34a,9b49338f-91f3-4334-9077-be69c4993a08
79f9c7e4-95dc-416f-bdf9-53a5cd4358f9,5ceb6c3b-40f6-408b-8492-98d0c377a09e
be4c4e97-51d4-468d-9bb9-3e6007dfb532,5ceb6c3b-40f6-408b-8492-98d0c377a09e
96898da6-1711-4aa6-87d7-e495097a2470,248b0353-88f7-404f-8437-565843d5fb3b
07810f51-1442-471d-9448-0c3d158e3914,248b0353-88f7-404f-8437-565843d5fb3b
95c25849-873c-4b05-ab56-b5f453a9987c,a3d4fdf1-30bf-49be-83aa-a646d8558bd9
c3fa0597-1c91-456f-b75d-dffa7b0677f4,59dba2b2-4bfc-498e-bfe7-8517d04bf783
02d45699-c4a6-4c53-bacd-dd4fb700f03e,87dc32fe-b68d-42f7-a50b-d207c0f14a8c
9e6462a7-5ba6-4e13-98c4-2df36922623e,87dc32fe-b68d-42f7-a50b-d207c0f14a8c
5e36e553-1c6a-459f-a080-bcaa64e48dc5,87dc32fe-b68d-42f7-a50b-d207c0f14a8c
14cfe71c-869c-4a6a-855c-0f2207fec1dc,0604fa95-b3da-4eb7-ac1e-83cb486f3261
25eb1724-6e6a-40e9-8e58-fccb9e0b2580,87dc32fe-b68d-42f7-a50b-d207c0f14a8c
9a3c9f00-7863-4d87-b1c8-c16b4910aa76,e178f127-2f41-4c5d-a273-a97004b7f7eb
4a2450ec-1728-4e21-bc0e-4d3852e6b74b,2fe6ea60-44a4-4e01-8a25-43dd94d9f18d
75dae10b-a8c5-4151-91ae-0cb1ba896c8c,e178f127-2f41-4c5d-a273-a97004b7f7eb
85b9f643-1165-4eb4-82f5-a3961df0e8ec,774e94a2-cc7e-4e73-8754-932ac84219fc
8b7c1422-c3f2-4572-999c-e5123f1715eb,774e94a2-cc7e-4e73-8754-932ac84219fc
3b14805a-0abe-47fc-a0e2-56d8a78eb8da,f674c6d6-bd5d-47e4-b37c-ca8d59d55988
c0c3e36c-dc5c-461a-9db4-327394e0da53,18a46418-ead4-42a0-91af-7c251a78f982
30685557-001f-4605-b9d8-43eb8f122836,4656de1b-cf0a-49d7-b7b3-8c00551c4d83
06217a81-843a-4bf3-9c6c-9505184e0ecd,4656de1b-cf0a-49d7-b7b3-8c00551c4d83
4601416d-5f80-4c00-988c-5b6158077e1a,294a9013-37bc-443c-b25d-5516f95c8ae3
e8b8eb66-e260-4cbb-b8e6-5cce40f7f9c1,88c6c453-45d0-49e9-942d-3c6bfdef97ec
a0ba3671-8ed7-415c-84ef-38cf386663d3,294a9013-37bc-443c-b25d-5516f95c8ae3
303fb5d9-0626-444e-9670-983cd5e2228b,8d65a982-08fa-4199-b499-8d2d9f534b88
aa1712e9-cca1-472e-be97-6c5137fde25f,5de03d31-baf1-49ca-a06e-c6aaabd3af7d
b5672ead-1fa2-4cd4-b79a-34f19aa8592e,5de03d31-baf1-49ca-a06e-c6aaabd3af7d
da0d0584-d871-48a0-8251-5242eeb68599,ede7d1bd-1315-431f-be81-3c5d63a5cdf4
7bd262da-d492-440a-83bd-363e8075bae2,db91f2ca-8753-4ed7-b43e-310bcf44af4c
95d441de-b02c-4e59-9300-35b6a9fad921,ede7d1bd-1315-431f-be81-3c5d63a5cdf4
ca170db4-956c-4929-969f-1447da934463,1e683528-61ed-4bdc-b2a6-98b770eb2149
67bf6f61-5087-45eb-ae16-b2060f72b39e,f34fdf29-563c-45fc-a6f0-76ab5886e9c1
5d9120ff-e66c-4d1f-81f0-87b5b7dd988f,1e683528-61ed-4bdc-b2a6-98b770eb2149
823950d7-350d-4666-b8dd-38b1e4d11144,1e683528-61ed-4bdc-b2a6-98b770eb2149
2ab0a3c1-7fc2-4364-826e-38b8a8c78240,1e683528-61ed-4bdc-b2a6-98b770eb2149
e396da7a-d7dd-41bf-a669-8c2bd42bdd09,5a9bd9c9-5e73-4229-9519-36ab7e5c2d61
1d6a14fd-ac69-42c7-af60-941b0209d6a5,ea4d0af8-0537-41e7-8af7-f70b6da03d90
25dbbec5-370d-4ec3-b2b1-3af8349ab616,774e94a2-cc7e-4e73-8754-932ac84219fc
ed191a2d-f813-45db-b4e9-83f40bbf7193,774e94a2-cc7e-4e73-8754-932ac84219fc
0327f5ea-e805-4f8a-8573-98a8705a06be,da0317ef-20e1-472f-80eb-076ed5930a06
ad13d9b7-9f75-4c4b-a551-dec6bd4bc560,248b0353-88f7-404f-8437-565843d5fb3b
640c18a7-5832-4a74-acd7-b122485cbab7,248b0353-88f7-404f-8437-565843d5fb3b
baea8a58-b00c-4b0f-904a-d62360fbcc11,248b0353-88f7-404f-8437-565843d5fb3b
dae8536a-353c-4613-92dd-ad8948d12899,248b0353-88f7-404f-8437-565843d5fb3b
4e33387c-e97e-4d70-a5d4-6c36cece4e7d,b0d5fdc8-bb33-4108-93f4-6ca4284f5a77
4e8dad37-1597-4dee-b256-e4924ee16f83,27febf5b-6d44-4df4-96ae-a1e09ec76c36
49f21ff7-742f-442d-8480-db4ff7ab98b3,5ceb6c3b-40f6-408b-8492-98d0c377a09e
771c185a-d992-4b79-a862-ae98ff0d65ed,5ceb6c3b-40f6-408b-8492-98d0c377a09e
9cfe9adf-08d9-4a86-8acc-d48a25b3b2f6,ede7d1bd-1315-431f-be81-3c5d63a5cdf4
ae8152f3-1e6f-489e-89e9-dbe4cf0e9ffe,ede7d1bd-1315-431f-be81-3c5d63a5cdf4
f2f11541-c9da-4b07-a7d1-3b94ab20ff1b,270ad1dd-a4b4-4cd6-916c-dbc71fadd250
15de0c64-effc-4d30-9949-a0a1c1902f28,8ed08589-167b-406e-b656-47d33874ab6e
d10eab9c-0767-4574-9984-753554ac6684,87dc32fe-b68d-42f7-a50b-d207c0f14a8c
05cb1478-89dc-4659-9fc7-95d53c3a9426,87dc32fe-b68d-42f7-a50b-d207c0f14a8c
ce6c36b8-5df1-4d82-aec5-a80a6905eefa,248b0353-88f7-404f-8437-565843d5fb3b
e964bc41-abe0-452e-8fa5-1f9c955474e9,248b0353-88f7-404f-8437-565843d5fb3b
a50e8464-1742-4480-bac5-c2e9fd05e725,b7b0d173-eacf-461a-8093-154745029275
704626c5-8fc9-4532-bf32-3de70bb1a28b,87dc32fe-b68d-42f7-a50b-d207c0f14a8c
303c37d8-e05d-4a87-ba79-6d32e0f88501,97b92d0b-0e72-489f-bc32-9887b2b95ca0
da85f1a5-b790-429d-aec1-7e4f2fa68bb0,87dc32fe-b68d-42f7-a50b-d207c0f14a8c
f8079a88-0353-403a-8ecb-c3b3892e3f71,1e683528-61ed-4bdc-b2a6-98b770eb2149
cf77aef0-8b09-42da-ba75-2084fb847b84,e80d2479-e060-4a08-bc4d-7d51ab691ad9
f5df759c-0741-410e-bd8a-999aac755701,1e683528-61ed-4bdc-b2a6-98b770eb2149
16d43af1-df74-4671-a64d-7c71f58f8e23,87a34cd7-96cb-41e2-9903-e0265b57a8aa
9bd91181-78ae-44ad-a6f4-5315ecab48ba,248b0353-88f7-404f-8437-565843d5fb3b
33a7b59b-0384-4c85-a1d0-fa65d56b7ff3,248b0353-88f7-404f-8437-565843d5fb3b
8300a5e2-54e1-472e-8087-9ad5eb7f3cc3,b22747e1-9a23-455f-a30e-0a0555eccd56
0303bfd1-e98e-4047-b2f0-17a9ad54a96f,a7396112-f1fa-4e9a-8428-917bb8461ced
b68a723b-126b-4042-912f-d3cab7849e5b,b22747e1-9a23-455f-a30e-0a0555eccd56
544d281d-5050-4538-a544-3e6bd497acf3,2e07f9bb-0d98-4334-b2af-ae85120a3e74
adc60c07-2ac1-4971-8a85-ab39ef96551a,1e683528-61ed-4bdc-b2a6-98b770eb2149
31061698-4420-4ce1-94b6-30ba80519d28,1e683528-61ed-4bdc-b2a6-98b770eb2149
9fb682fa-8d13-4bfa-a18f-1ac0d2ca42cf,248b0353-88f7-404f-8437-565843d5fb3b
dd655f6b-21b4-4413-a3ba-8c76bc6ceb6d,cccc0052-d2cf-4a5c-9999-c5acc31d7ae5
4c545b70-ecc1-4eed-9502-155f6309ac44,248b0353-88f7-404f-8437-565843d5fb3b
0236d37d-f5f7-4ef3-89f4-7bf10cd542d7,bbad91d5-3852-408a-a41a-3553e46c04d5
a10c20d8-7288-400a-bf29-6816d3ecb6d9,248b0353-88f7-404f-8437-565843d5fb3b
133c5a22-3c0f-451a-b46e-545783c5b4eb,248b0353-88f7-404f-8437-565843d5fb3b
56dc73fb-19ef-449f-822a-d66e2fa54d53,c8efdd7f-6a67-46f8-8134-8836ade5cd6c
2795baba-8fe2-491f-b25d-0e5966b0182b,c8efdd7f-6a67-46f8-8134-8836ade5cd6c
ee53d5a3-36ff-438d-a9a7-c03f5397b550,4b09fa50-dbe5-4b90-abcc-ac14d365f3e4
f68aab3d-0946-4d42-b4e3-4edcae399145,4656de1b-cf0a-49d7-b7b3-8c00551c4d83
4846a2d5-3aa8-4964-8062-dd4c1295943f,4656de1b-cf0a-49d7-b7b3-8c00551c4d83
59706cf4-557b-436f-85eb-c90e83192abd,9a553e29-98c4-441b-91d2-27e2fb4e4290
4bd95e65-3200-4336-868e-37060758edf2,8bef94ff-f5f9-4f17-b3bf-74f5f827b7c4
e6fea086-5406-40dc-972f-e183896bf1db,b22747e1-9a23-455f-a30e-0a0555eccd56
81c4e5ed-01e6-4dbd-94e7-7a6d48bf1785,b22747e1-9a23-455f-a30e-0a0555eccd56
55a15f1f-819a-4b38-b6f4-e3011f211abe,d287b5c9-033a-4c52-9f14-f84854486809
ef2be5db-48e9-4ed5-82b5-0325b7b4c8be,54980f18-ca6e-4d67-a4ae-8119c5e72587
ae927dc0-3753-463c-b675-f43a6ae7da24,d287b5c9-033a-4c52-9f14-f84854486809
122088a6-e717-4005-9ec5-993798820053,c8efdd7f-6a67-46f8-8134-8836ade5cd6c
e65e96ac-bd2c-46b2-8153-a26df8db503e,c8efdd7f-6a67-46f8-8134-8836ade5cd6c
24778a68-5258-4e7d-bdfc-610fed4d0d4d,777561f0-cdfb-4142-b988-1123c311432d
3da7930d-69d3-4ca5-a92a-eb8ada5e15ea,d287b5c9-033a-4c52-9f14-f84854486809
5d14a6bf-2d64-4ef5-a546-06f0596aaf6a,d287b5c9-033a-4c52-9f14-f84854486809
cc92cf07-c4ec-48ce-b373-ea32c1cfe6c1,0d651ef8-080c-4c8a-a457-192efa144dc0
0f33b99e-f8dc-4ead-8d52-b537a2895813,d287b5c9-033a-4c52-9f14-f84854486809
c4a49cd2-e8d8-4e67-bab9-96156412dd6d,dc357ff9-2b20-45e8-af58-87e333cf2bd8
d2d98a2a-18af-43ac-88d7-3aa7fdca5ccc,d287b5c9-033a-4c52-9f14-f84854486809
22873a37-6cbb-45d7-9b36-a76564ba474f,d287b5c9-033a-4c52-9f14-f84854486809
0fc9f896-ea16-4e6b-933c-935be5c9fcaf,b320c554-033f-498e-aae2-c110c5934c95
80a35fcd-f632-4704-bb25-ca9b6dac5dee,d287b5c9-033a-4c52-9f14-f84854486809
b5f9c4e8-6094-41ab-b43d-dcd099e8fb6b,4d615cee-7500-4760-9030-0898670b73b5
19706169-54b9-4110-afd3-1a4f61ba8f68,ede7d1bd-1315-431f-be81-3c5d63a5cdf4
f1aebeeb-595e-4686-870e-08378b791fa5,ede7d1bd-1315-431f-be81-3c5d63a5cdf4
510b3db8-a924-4a76-8228-9655d134af2c,4656de1b-cf0a-49d7-b7b3-8c00551c4d83
dcafdcde-171c-4efa-a6af-e68fac2f0bcf,1c6ce572-026d-42bc-8590-93aa6c06b13d
84eb16ea-6126-42a7-af50-cae58c3bb60c,4656de1b-cf0a-49d7-b7b3-8c00551c4d83
97845939-819c-4151-8980-016ff77befd9,e178f127-2f41-4c5d-a273-a97004b7f7eb
f6ca1398-c6f2-4b91-8de6-044b7f1efadf,fe8c8bf4-27a6-427e-b154-5352f55e9952
02862e0d-0749-402e-967f-2d264295c290,e178f127-2f41-4c5d-a273-a97004b7f7eb
3129a057-67fb-44de-afb5-f05487e15397,c8efdd7f-6a67-46f8-8134-8836ade5cd6c
da1df7b4-6086-4721-ad10-05318905b3e5,f732462c-64d3-4e70-9767-a52019fd28bf
a80917ac-0409-4495-a024-95e138b5b50e,c8efdd7f-6a67-46f8-8134-8836ade5cd6c
462c90fe-5760-4ce0-9487-eb589ca423ed,248b0353-88f7-404f-8437-565843d5fb3b
5a8c84b5-0f15-4301-850a-e10b0e64d81c,248b0353-88f7-404f-8437-565843d5fb3b
f31ad956-5675-46c4-a319-2b1e01501459,693fbbe8-a142-48b6-9bce-2b7611e26b55
ba1c5744-56c5-4052-a914-b9043d640ef8,908f5c3b-80a1-47b9-81ef-18f3f2b60d58
6dccd4fa-ad8a-4519-bb68-a1459c4fa6b0,4656de1b-cf0a-49d7-b7b3-8c00551c4d83
fb6c7e7a-6d14-43f0-be0e-a0feb8da76c0,4656de1b-cf0a-49d7-b7b3-8c00551c4d83
31ecae02-e6be-4a65-9c0a-498fa6d2e7c2,1e683528-61ed-4bdc-b2a6-98b770eb2149
d0eb5d2b-13d8-494f-a0e8-f05ec78f6023,be448eed-7373-4841-aafa-6a3d530d6b06
4bb260fa-5e89-42eb-a17e-f8525aa0b079,1e683528-61ed-4bdc-b2a6-98b770eb2149
