app_number,app_id,trigger,burn,sink,deploy_date,token_interval
1,aef21142-334e-4402-922a-0e2e027e6cbc,eaaf5b6a-3a26-40d8-bb85-4a610863164d,d584311f-dfef-4708-8f7a-e5da002aeb30,614f756f-f665-474c-a388-331cfa010eb1,2019-09-07 12:09:58,1.000000
2,58b71c27-0b08-4148-841a-a3bb5f1215df,7f12a679-8281-436a-9ce8-dc70b0e8bda5,2df3519e-5736-4a88-a8d4-e54786c07e31,f503a799-95c0-4634-a0b3-8e5cff130211,2019-09-07 12:11:02,1.000000
3,7ab16a01-591f-43fa-bd7e-429283c85d6a,a2d92317-d7dd-4955-99f1-a02a788afd1e,9dbc83c4-aac2-4266-811d-a53e5625618e,d2738ec7-4589-4e03-abd9-27cc1e2289fa,2019-09-07 12:12:06,1.000000
4,4051676a-5013-4848-8d16-42c3283ea51d,df80546e-4b54-45ea-ad3b-d0097c2af806,03f5bd35-d3d4-4bfe-b53e-80f1cc06ba2a,7220e1a1-67ba-44cd-b8b4-5ea133623a00,2019-09-07 12:13:10,0.200000
5,ba8a707c-d688-4f63-bd67-ce43fe1978ca,d5472ece-eb95-43e4-9968-3bfccf58f725,65b57247-1693-4e90-8a7f-4428f9da1216,56eada48-4de3-4124-a779-18dbfbb53a4d,2019-09-07 12:14:14,0.200000
6,929063cc-16c6-449b-946d-8566d08fb66c,195139a1-07ff-4d4c-bf58-ecc146865ae6,4a152bd3-4efb-44ec-ab9b-650c62290cbb,51f8f435-29de-497c-8eb4-7c652298f610,2019-09-07 12:15:17,0.200000
7,d3d8ac98-2904-4287-8035-fec31575a06c,b81ec4a1-5999-4c80-8317-984264a41f64,3d663e83-9aad-4dad-9667-565ae9a48aa9,17b28305-891f-4e18-a01d-debb7c1d8c40,2019-09-07 12:16:21,0.200000
8,c4f0d64a-c58d-4f14-8560-9fa12bd57f1e,fcad691d-befb-4ea2-adda-294cb386d38e,1df2ea54-e38b-4cf4-ae4f-f979f863ca81,321d375b-04ca-4ee7-9c64-76b9a44b3b09,2019-09-07 12:17:25,1.000000
9,6ccb7351-469e-428a-b78a-259d3029fe93,6ab4a3c1-ac15-4408-b9da-1eac54764ceb,3d98c821-d194-4177-889f-3bb20c830ee4,9e198cf0-92a3-4970-b516-c41cc79a5d83,2019-09-07 12:18:29,0.200000
10,6add0095-3333-41fc-b7ea-30f96fae46cf,a9af9848-aaa9-48a5-bbbc-5b40ae916cdc,60c1aac5-4b5a-40d4-9acd-a50bf1bf024f,20c4beb4-7791-48f5-ab1f-c235e6dbfe1d,2019-09-07 12:19:33,0.200000
11,3ef0c391-b511-449a-9640-732aa4565cc8,c50bb88f-5260-4b23-8d12-c59b443e73e4,039f8c38-439e-4622-99b1-69e6baa3dc87,8303d1b0-9627-4b4f-83cc-06553300ddaf,2019-09-07 12:20:37,0.200000
12,b42168ab-9f65-4af3-916e-60f34b86e269,3b638391-1fc9-4c5a-b0ef-d757141b59c7,48b50d3b-f507-4fcf-9562-429bda25556e,5c083752-d163-42fa-a919-d1c00d44ed91,2019-09-07 12:21:40,1.000000
13,f91c6a2e-5eae-4e2f-8e69-39b4b0bc178d,7e3c8f73-4e28-41e3-853e-636afdc92290,6b5e2c00-5aaa-433c-ae44-8590150b1d74,35feb22b-17fa-4a79-b340-262355cd8f5b,2019-09-07 12:22:44,0.200000
14,55aa90ba-b023-4f7d-9609-93ccc5cb1771,d8a135a5-942d-45f7-a3e5-4379eed7bca1,afc02ceb-b5dd-48b7-b8c2-9da614903d17,7a11f8c7-71d5-4286-a1df-5a3471264f42,2019-09-07 12:23:48,0.200000
15,3ccff087-8844-436e-99a8-218837968793,c5ebb95f-6ecc-428d-86b3-d05943a6abf6,195a9640-1b80-49c7-90a0-dae1d55dcd29,94655261-9c3b-4a25-b2f7-b48dda32d0fd,2019-09-07 12:24:51,1.000000
16,ac0a5309-bce6-40d3-8ccd-70f22887c681,2c71830c-a6ad-43d8-89ff-136811e866fa,9f3c86b7-3979-453d-977b-31eea871adcd,6e22e617-1ce8-4ea7-a212-74f633c3e10d,2019-09-07 12:25:55,1.000000
17,2d80261b-8b63-4a39-840a-c9a89785ab81,21be30d7-f7f9-498b-ba3d-916d417f2c92,a188c64a-51d7-494c-bcf4-1c7da1c4a69e,473fe2e8-c316-4861-a843-90f36ae5262b,2019-09-07 12:26:59,0.200000
18,8238dc9f-fb83-417a-a004-38978170d4e8,6781842e-4139-4006-a916-399ecf7402e7,2a5cf077-22ad-4c92-bff7-481b69ef2acc,c583f151-5d60-4474-b578-dca6e6a22067,2019-09-07 12:28:03,1.000000
19,15eb6035-2205-4a82-82d5-e196c4448222,bf4be30d-eb53-4748-8fd1-e4dff8d62ce1,900921ed-c4af-4019-99dd-54c07a14016f,635d7fc8-f28c-4a34-a45d-d1a01dbde90d,2019-09-07 12:29:07,0.200000
20,8bb503d9-b7ea-498e-8ab4-ece6815c7f5b,97d65352-3905-456a-b347-cc33a146a1b4,b78b86a5-b033-4fce-a2b5-86470aa4a978,1520ddb3-0151-4448-885c-4ad7d587619b,2019-09-07 12:30:10,1.000000
21,47975a1e-88b9-4ffb-b2c1-755b21b27f44,89b41046-c8c7-446f-aa19-bb8dedab72d5,fe6502f6-b95a-4c8d-99cf-4458c041fb3f,b90dc024-060f-4896-8c58-c062f75acfb4,2019-09-07 12:31:14,0.200000
22,900199c5-6820-4108-8795-780894e5a1ff,0cd054b0-a40d-4a36-8ffc-d8a7e9dd2e7f,b1bfb8dd-96f4-4d94-a2ac-ce9fa8664d83,dcc7663d-31de-4ea7-a6fe-ad9aacf1a728,2019-09-07 12:32:18,0.200000
23,729f8d8a-2d52-41ac-a742-259eb0795bd9,93a4cf53-a994-44d9-ae10-8dd9e6cae480,0ae341d4-ba61-4867-b6af-0568bc1f9fb6,28efeeba-b2f9-42fc-b971-65760feaf2f4,2019-09-07 12:33:21,0.200000
24,5222038a-086d-4548-a582-1d4020d357b9,f59a1c22-3548-40bf-af89-1e801a89d4bb,7cc2ce5f-010a-403d-9c1b-c9976e15f219,74001a15-223b-4392-86d2-c0e68a6fc0f3,2019-09-07 12:34:25,1.000000
25,09a03c36-3bf2-491c-b2d5-835bbd004b2c,8872931d-0e29-4b2e-b25e-864a3717495b,aff441c6-738e-4670-9f2c-ad3e596fe2fc,9edf8dc6-5e88-4e1f-8058-dc9c2788982c,2019-09-07 12:35:29,1.000000
