app_number,app_id,trigger,burn,sink,deploy_date,token_interval
1,0c49b2dc-0fc6-48c2-a9c9-89157155f543,007828df-4365-4309-88fb-50e4b1d6be03,0601ec4a-a2ee-4610-ba50-9fa10373d882,ee478890-4ace-419a-bcef-d0ec069f747b,2019-09-25 06:38:45,1.000000
2,b3172ee7-7e19-4381-8a38-d127b7cedb9c,f44d8f4b-661f-4049-9bef-e9eecd99f007,58fa2bff-5a9b-4158-ae15-888f1f49fcef,cdb427e2-1d5d-4846-b849-8632b693971d,2019-09-25 06:39:49,1.000000
3,f13256b6-aab8-4ff9-bc4b-e0cdf2a4526a,111ca1de-acf5-4dce-b49d-1505086697e2,1443fdc7-03fc-419a-a358-0979c929d376,11774670-46c9-4ea1-b864-b5f534345016,2019-09-25 06:40:52,1.000000
4,f3d06598-867c-42c1-bee3-8f6d5814ee7e,21a55709-9181-4600-90c8-e5959711cb02,a2bd1acc-83d2-4fa2-9eb5-59cdf1ef120e,341bfd13-2b0f-4ee7-8653-3f7a8c67aef7,2019-09-25 06:41:56,0.200000
5,173fd827-8c1b-408d-8939-70ea29831055,1bd1fc97-0abf-4a71-baec-ffcbc7ea18e2,625b2adb-2997-47a0-9385-9735539b5ff2,f90f787f-9d25-4137-9401-40bb41c1c7df,2019-09-25 06:43:00,0.200000
6,d2751ea1-be31-4803-b1ad-831e75355c07,0bbdbda8-1f32-4b91-ab5f-47375839fff6,d7d00f9e-fbb0-46be-b883-517ca9267236,81398437-d78e-48e3-930b-b9f8c4e1a6b1,2019-09-25 06:44:03,0.200000
7,c95e2b4d-7954-406c-a7c5-eaea32fe082e,0bf7e453-7abf-4a4e-8cfc-7ca576ff7b68,59c37c60-c971-4f3f-8d35-569b93d14830,06fe9f3f-fa1a-48dd-8894-71ba957618c1,2019-09-25 06:45:07,0.200000
8,afe1f646-a231-422a-8fc5-92c7f2031d69,4365a517-1f6a-493a-b513-800d26c05742,8edaa3b7-b872-4615-af7d-7b73c3cd24f5,cfe11c87-a4ca-4a2f-8718-bcb85b6344f8,2019-09-25 06:46:11,1.000000
9,ed779a05-be42-48e5-aac8-75aab04c3226,ece76188-b59b-416f-895c-f515d997abd9,089ef045-7ceb-480f-8d91-7ad66f921afe,e4266897-a4ea-43ed-9172-8e1f9bce8739,2019-09-25 06:47:14,0.200000
10,68bed44f-be58-411d-97af-4f2c68eb8ebe,02a2d674-2b8a-4a3f-ada6-e78aa128d90d,918e8440-59b8-46d1-8620-962dbb796c7e,cccea425-5b09-49f6-8478-94997d8cd78b,2019-09-25 06:48:18,0.200000
11,b11ec2b5-002e-4a62-a466-428545db2de9,dcecb944-4c89-4e61-9afc-ca72cd6e4d11,ba25adec-8d8b-48c4-b862-9c7077ce20a2,8176d09b-303c-4d8b-ace0-9d407af931f4,2019-09-25 06:49:22,0.200000
12,a71d346f-2295-46f9-b55e-1f2a887a8488,f380732a-e691-4f84-ab28-d5560a1ba950,0d66a0dd-5464-4f9a-90ed-a4a20af2f6eb,b68d5f90-cae1-4e99-8246-88142a74e280,2019-09-25 06:50:25,1.000000
13,a2b9c4ef-6926-49aa-92e9-7137c20508d6,8816f133-0e20-4c0a-a0c0-bdee3d02d990,81f4473b-3ef2-4f61-952c-2f4c059330b0,8a41bd82-b373-433c-8736-de3fa6445ae5,2019-09-25 06:51:29,0.200000
14,6d4c25ab-e8cc-4e90-9bea-b7d712e03a41,ec01980d-4efc-4017-96a6-14c3f0809e16,0b03557f-925c-40c0-95fd-a0ed81bd19e8,d442b60c-c52d-43cc-adb2-b891f7575e7e,2019-09-25 06:52:33,0.200000
15,c67423bc-312e-4706-9b4d-3219e65d7588,74f7de25-ccec-478c-ae28-cb72486a33b4,311414dd-065f-4864-af13-17dc7e413d61,bd9b5bef-ea4e-4aa6-82b4-b41d3b8bb077,2019-09-25 06:53:37,1.000000
16,4ba0970c-c0c4-4c64-87cc-e80ce94320cc,2df3dfdc-3084-4778-9628-d92dfa45f7c1,71c110db-7ae6-46e0-9abb-5f5136d29120,4de8fd2c-2c28-4764-a45e-7995c9406aff,2019-09-25 06:54:41,1.000000
17,ebdd8398-f217-4924-a93e-8f606efc63d5,90220230-1976-44e7-af14-d4aed7784b3e,61e31533-ff8d-4be6-80a0-443aeebad038,2fe02cf3-dd43-4e37-b3a2-eee07ec9a6a7,2019-09-25 06:55:44,0.200000
18,71374159-a7ce-40cb-8849-05517d5843c9,a06dc12a-1e4e-4771-a2c0-ac534f494d60,38e47099-b8c9-4840-b34b-18ad708c9e68,81864ba5-0e35-4b72-ac19-bbe49d4809fd,2019-09-25 06:56:47,1.000000
19,3b8844d0-bab9-4cf4-8266-d37f686302f0,89f34de9-9f5d-41bb-ba2b-f93fe09cd99a,0005e338-29f3-4790-8db0-0f9979794ce2,1c33c172-264f-4502-b86e-c37537615417,2019-09-25 06:57:51,0.200000
20,a8860d15-78d0-423e-8d8d-ec10a0e4100b,ade0fb19-6c60-42c3-8c17-38f5d924bcb2,ba9c9a60-13e2-4439-9ed2-7d2d3b8176fc,79e8fabb-48e1-4f6b-953f-756d396ec5b7,2019-09-25 06:58:55,1.000000
21,32cf9374-efad-4690-a837-1bcea9da8eb9,15a24b83-f606-45f5-a1cb-514e9badf7b1,893a7791-8849-4a63-851f-7414da9210b1,3b748005-52f6-4f17-a6e6-4f135d38371a,2019-09-25 06:59:59,0.200000
22,fe698786-7cc9-4951-81ad-fe4a53b815ff,3b86266a-0778-47a8-b166-7b5e325b544d,0d6367f0-5070-4c92-9625-d8890991573a,b5976b3a-0943-48fe-ba06-bb9f2a2254ba,2019-09-25 07:01:03,0.200000
23,fcc40ded-1473-4fa4-ba5c-7f1a9d0d0d9c,97b67d65-b198-4f4c-bd6d-1cc1c00485e7,cc59e4d4-4203-4262-8872-76eb0fdf8ead,ef3dd7fe-79b1-4741-9d91-00cb7d0144db,2019-09-25 07:02:06,0.200000
24,aa7242c6-32c0-47dd-821f-f7da5cba6b7a,0dc9f1ab-1b18-478e-a33b-103b4877f205,375f5ca5-e8c0-4450-886b-01eb5ba18a33,3a03dcce-09e6-44b3-8b9d-acabb2b71235,2019-09-25 07:03:10,1.000000
25,7538c748-06a3-49f7-b6aa-443fad747f07,a2ca4b9a-72ab-4ab2-9bba-72e2bf4d4594,395c590c-d6d6-47d1-a01f-2342cb1cace4,be66c388-d4cf-432a-aca0-803cd8445664,2019-09-25 07:04:13,1.000000
26,3301c7af-4745-4d77-8823-0d1265814998,9c3bf641-72ea-4f82-8fe5-633ef9fb9a77,9657cdfc-9b88-4be7-a9aa-700e88ca3312,b4ac6d13-aa30-44fc-a825-c905facec18c,2019-09-25 07:05:17,1.000000
27,1b7e641f-a96e-4414-bd4d-e83afa050692,352a5ec5-d709-4414-b00d-4b3448f30447,81714da9-b010-407f-a2fd-e9d095d6860f,51249204-ad48-4c78-8705-66d2a3ad9d66,2019-09-25 07:06:21,0.200000
28,a7ec625f-154a-4774-9cfc-0f7068b6d42e,2ef7f1df-234a-4232-8b93-7d1530a2d475,882adc49-4251-44fd-bce2-9dd8085fed88,f9f0d8fe-4c0a-4007-aa2b-e355281a0146,2019-09-25 07:07:25,1.000000
29,6a82ffc9-9608-4d79-a63d-2870bfe72a6b,e1906329-645c-44cc-8887-752350489305,e230a7a5-cbb1-4515-b605-c00c719b9c4a,c20ed961-e83d-417d-b8c1-b954d498c743,2019-09-25 07:08:29,1.000000
30,a7a61963-e718-4ce0-8153-4f6ea4bde4fe,4aac2635-e2d8-44be-82da-947c8ca0caa6,863a6b71-592d-4363-bcc2-ef9c37976dd3,010672ed-2f91-4e8b-be62-1383aa5ed006,2019-09-25 07:09:33,1.000000
31,4807afb5-c3eb-4f92-bf8c-1ece1cd2a3a1,aef34757-e6c2-4884-bd7f-b865a8366677,b954d8db-4d2f-4bd4-83ce-a6acb5e15d36,bb993814-687d-491c-bb8f-e6b6c31103ab,2019-09-25 07:10:36,1.000000
32,34eeee09-3fb0-4c55-ad55-e8dc14ffb48e,be23401b-ec9b-44bc-af9a-845c30f88c33,3e288620-8c0e-46ef-b897-ea82f12fb8a2,a7e83f58-b8b4-4bed-9237-718443bed5aa,2019-09-25 07:11:40,0.200000
33,4e64ad1e-af0d-48e3-b901-4a279741eae2,c8f877cc-a189-44dc-b4d5-f15217ffc71d,015a3471-e274-4bf5-921c-819ab1b5182e,5e8a8f43-e332-4e45-9eb3-b5759aec6a34,2019-09-25 07:12:44,1.000000
34,317c79b3-8c3e-40ce-aff3-8465df41cc2b,fbe4f232-f351-4673-85d0-b2f6a0cbd84e,c71ba779-e2e6-46ce-b25e-d0a8ce131a28,a7e03d25-9d16-441a-9d4e-fd453b33573a,2019-09-25 07:13:48,0.200000
35,16b2446f-6b1d-4d9a-b344-cb1f77bfbb1a,07fe13ec-d1d5-436a-97f3-908355c4ce36,083f4411-60d7-48af-91b3-c5505b8d524c,34861e6b-6c70-42cd-92e6-4e0a57df97be,2019-09-25 07:14:52,1.000000
36,73bee358-03fa-42de-92b0-c1d0ce91381c,191acfb4-2b4e-418d-b75f-79e2a0262259,34ad7046-8752-4dc5-a235-2e157dbf6012,c727797c-e3f5-4a67-a4e5-e6d0e3dc7e39,2019-09-25 07:15:55,0.200000
37,c54d2d2f-763d-420d-bf7e-fe63d46d1dee,b9baa76e-3ae7-4492-b1bb-bdad6258ddb2,42497bb2-3085-4197-bb77-ccbbb491f8eb,46a642bf-0b1b-435c-a091-0d0d26699147,2019-09-25 07:16:59,1.000000
38,7dc3018a-88e0-42dd-bf3d-b402c58abd82,1bb00b30-eefb-4464-b710-c4224affbbd6,45dae278-660e-4081-9a0c-5fb3a12d71cf,b2c51daf-9e59-45b5-a64f-7b227ebdf151,2019-09-25 07:18:02,1.000000
39,191dcbb7-c095-447e-b352-b95c31bf6a77,857292af-6a5f-44d5-9f25-96ce92394fb9,4c1532ae-975f-43d2-aab9-1ce9e51e90c4,dcfbe714-618a-4843-a421-f0b4007ff657,2019-09-25 07:19:06,0.200000
40,64b98773-2726-43a4-84d9-6d5aa239f650,91873014-7217-4490-810b-4770114c9654,61ef64db-9aa2-49d0-a4b0-3d2f53435699,01a3a63b-d1fb-4759-bf18-5b34175e3f77,2019-09-25 07:20:10,0.200000
41,f4802583-987c-41cf-a98c-4c4b18617a7d,5864be7d-6483-42c8-8788-4a402af0098c,8957dafc-3503-4499-af8f-d4a9a331a414,eeb1891d-9da8-4304-ad5c-d4aea935fa93,2019-09-25 07:21:14,1.000000
42,882e80a3-681e-401b-a1ec-20bfe6dbfda6,6780133b-16ba-4580-8923-8bbc22ac6671,f00dc0b1-0407-41e0-9a8d-db8984432b76,30310c94-441b-46a0-a897-521663e7d364,2019-09-25 07:22:18,0.200000
43,0fea755b-a520-4c9b-befb-daef6d851292,a221214d-7dea-460e-9064-b85f7a5cf943,ffb6a3d5-737d-449b-b1c8-f12fca5b42d7,04e14cfc-d71a-4fd9-8ad9-1bf10e98b8f0,2019-09-25 07:23:21,0.200000
44,f94d49ad-7f4f-43c0-b4f2-ee5cf8ff96d0,106dfc87-01d5-4888-842c-c05cc839e743,7191e15c-c60a-4b5b-b2aa-fecb4d3fee7e,f6aacb98-d37f-4ca5-82ed-4e295149cf6c,2019-09-25 07:24:25,0.200000
45,bd31a23e-6a34-4eaf-beb6-271e63543a5b,18004681-66bb-47e6-9953-3cd2b4591c12,1eb2120f-a583-4841-8911-df2130d2446e,50699e8b-6257-4663-9de8-c057f6ca4355,2019-09-25 07:25:28,1.000000
46,2d948a50-a2a3-47c8-aba7-9d8487c5f2dc,616b8f52-8dbd-4837-931d-d0eff59a0ef6,f884952d-e92c-4a5c-9e65-beb4cc498132,32904f3c-2d6e-4d18-9d1d-20c539845ca6,2019-09-25 07:26:32,0.200000
47,f6a9584b-1fa7-407a-9ce1-b096bd3d392f,085fb191-14c8-4345-b414-6753e69bc0d1,43b4b84e-0034-40ab-9ac6-4a6104447b98,5e93e10c-1708-45a0-90f1-f15e8345d6c5,2019-09-25 07:27:36,0.200000
48,79c18a83-55b8-4b0c-8b62-b655d5be37f2,70c67b06-e0e7-4788-b9de-2d6550f1e241,645ce4f4-f2f2-4f00-bb9f-2e26507f2f86,cc0f3616-88c3-4ed3-927d-5798189763ac,2019-09-25 07:28:40,1.000000
49,38b90db9-557d-4faa-9b22-b7439d73922e,9fb213b3-f1c2-43aa-a1d6-f3b1a0ba47d8,626ada7e-0408-453d-bd4e-47c1011c50d3,68959027-6b10-4034-89d3-ab8a53c240f5,2019-09-25 07:29:44,0.200000
50,a7fcbff9-5c41-485c-9276-e4cfe559f3a7,1d306987-739c-4f28-a328-5ec5ccd5baab,3b685d7b-90b8-435f-99b6-bcfc1dd056c8,d9f459ce-f476-404f-abf6-0010116ecd69,2019-09-25 07:30:47,1.000000
