app_number,app_id,trigger,burn,sink,deploy_date,token_interval
1,0c571b37-309a-4af9-85ba-e22facc9e2e6,0db8ffef-a480-4f13-b9e5-928e7433ca70,3a6fc7d0-f74a-4f53-ad7f-f2b993ff606f,3b37e852-d76a-48b4-b14f-3bd960e165f4,2019-12-03 02:59:42,2.000000
2,603fee37-2aae-4343-bcd1-30863c79a614,e318bcca-6fa2-4500-82bf-ce28d3b485bc,9943b237-6bce-4ff7-bc0f-68a32edd2798,3cd8cbf5-6ff8-4a36-b6ef-816a9b429d71,2019-12-03 03:00:45,2.000000
3,cb66499c-c90b-4eb0-b7ae-12f0d457a68c,7da244b6-60b0-4311-aa5d-4369f243e844,dc597e19-7dad-4977-ab9a-2b6b85859bbf,351d60cc-ed06-498f-b5c5-c5761f3d3990,2019-12-03 03:01:49,2.000000
4,5a383ab6-7c9c-4008-afd8-defc67ed15da,b9f6e679-6e5f-4c39-86f8-66c85b580459,2c3db247-02cf-43d1-961a-9aac9fe36acf,c6ce3cf4-2a5f-4f08-8ce3-60c2f507ef12,2019-12-03 03:02:52,1.000000
5,4d424bb7-86b9-4b56-a768-b962c1eadc8c,63af97cb-f449-4023-bb78-e0f704fbb9e3,397f7611-acc8-4fee-b646-0b7d96ee63af,0bc53b5b-87db-417f-a08a-8e29a0cfec62,2019-12-03 03:03:55,1.000000
6,2da5e71b-de96-48b6-a251-8752c0445b71,93c09afd-cca7-45ae-8333-cfc475867827,14d97308-1474-45f1-882a-3d2aba826ced,b4c6b61c-8150-4770-aad2-473887a1b1bb,2019-12-03 03:04:57,1.000000
7,212765cc-03b5-4886-988f-166e8fbc0f13,af68676e-77dc-4c0e-bd22-4e27537251a2,11631ddc-c901-46ca-aa13-a40f3fd4a78a,fae1df19-3f2c-448b-8a63-28d383e6aea7,2019-12-03 03:06:00,1.000000
8,063daade-3a2b-46f4-a658-df25695062b8,fc618d90-612a-4fea-9179-bcba58eeab0b,086fb53a-6e5e-4668-9b86-fb3c6b5fd784,870c7631-07d1-4ba9-bab7-0c90dbc9cf14,2019-12-03 03:07:03,2.000000
9,209940b8-34de-41bc-b585-dc078b33d63e,f74f0460-7992-47df-9532-23b8d661c557,9abd0764-847b-47fe-84ad-5dcd31a5f377,c8f03ae6-b7a5-4d7a-95e7-0d6388fe160a,2019-12-03 03:08:06,1.000000
10,0338a31e-7e18-4ad2-97d4-e0483faac43e,fc47a7c1-5b7d-4fc3-8b63-ea93eea04aea,f3213df1-bf2c-440a-8567-0937119ffe0b,a68107ad-c123-40ea-a58b-a7eb77344f70,2019-12-03 03:09:09,1.000000
11,19db6e7b-3670-4392-9338-c822e3932223,e5667e8d-049f-4ab9-a33b-f57b97e07810,86b17f89-4f75-4696-9b3a-196dd6e299b9,aa3a3777-5acb-4659-9198-33cbb1f8765d,2019-12-03 03:10:12,1.000000
12,b29754d6-dd29-401d-8ad3-d0019509edb8,004d6925-f7ed-47d4-a4be-12146968d549,975e4d92-7407-4445-8efc-caeb612b8cc5,b0db583d-1ad0-4a86-b946-f4e3d4f6d99c,2019-12-03 03:11:15,2.000000
13,e84cd189-d173-45f3-9528-a771469e71a0,f02febb8-b593-4e4e-a2a3-c7fe61ac286f,9d0d7499-003d-4da1-867d-83ed49e01c4f,b59f5cd8-2b8b-4ea4-9520-3f21ef84c024,2019-12-03 03:12:18,1.000000
14,10c5c9a6-67cb-4396-857c-975a5706fe98,8758cbb0-e166-48bd-8fd9-f1b9b481865f,9da1df8a-108d-482d-9c60-a6497f8f68a5,56101b31-45ec-446c-a277-5eddfc09a1d5,2019-12-03 03:13:20,1.000000
15,ca3c7f87-368b-4110-9772-b1b5a41f3a67,b18babe0-47c2-4b28-b299-964731ba08b8,43ebd75e-1f3c-4c97-a63f-b14cd43087b0,2a165d02-2a99-43c5-80d2-8b2a825ea5b0,2019-12-03 03:14:23,2.000000
16,db819326-b9c6-451a-ae04-4def350b8840,1bf0507b-405a-4658-b5b5-b633a1bf29d5,43e097f5-28d0-4981-9a67-463a5149c7e7,c7d65744-db95-4c49-b4e3-ee9221c45d7e,2019-12-03 03:15:26,2.000000
17,50f18b15-bdb5-4095-90e9-94ec5d16f458,78205d5d-f8b2-4ee5-961a-7e04e419d797,de1ad1ed-dbcb-4e8b-9462-b8bb4b529657,274ceb2f-321b-430f-86eb-b3ee88a33a5f,2019-12-03 03:16:29,1.000000
18,078bec17-ec39-4e00-b794-ab942d57fbe2,c819410f-f90e-4f8b-bd85-1d0e437707d0,bcacd099-b84f-4377-82e0-6d0937af70b4,68c8800e-8d87-475e-ad35-6d2c990c46f4,2019-12-03 03:17:32,2.000000
19,776011b7-d836-4533-84a3-59be2292a004,7a8b0cc5-52df-4087-9971-502982125f20,388076eb-35a2-4f89-b8ec-735a617a16f6,ae1e5b52-d38f-42b6-a75e-ed78eba0fc95,2019-12-03 03:18:35,1.000000
20,6182de99-c0d7-43b3-be8e-0edfbdc07e1c,78c684ac-47bd-41d6-8547-96b94e5f1a59,408f8177-2063-4f7d-8b8c-0d97c6cbb2ea,3d891a7b-8fa6-438d-a10d-e7ebfae1c7a9,2019-12-03 03:19:37,2.000000
21,863cdaa6-84a0-42a8-82ac-1b3b0f005ceb,b99daad8-cede-4561-9502-10626827afe3,efaf140c-20d4-4504-b63e-4b186aa59f80,610cd9b5-dfb0-4d7a-9c5f-8a70167c57e5,2019-12-03 03:20:40,1.000000
22,2ea0c17a-0911-409a-8a6d-403fa18c6815,75b16046-dea5-482e-8e16-5aed0068371a,e3f2fa80-d595-4809-97e5-5c5f133ae1dc,549a0904-8ead-49f0-a9bd-afd1773022e1,2019-12-03 03:21:43,1.000000
23,65db494d-0c50-47f4-9619-b2b718cb3791,e444fea7-6fa7-4360-8bf9-0ce912142972,b11fce95-c724-4d84-95b1-da6329db4664,4ecbb5c3-c692-4e77-a17d-1d781b42143c,2019-12-03 03:22:46,1.000000
24,2407de0a-2cf0-4c0f-b3ab-7d9833b6e984,b970da35-c3b8-4c97-b406-09e348aa21bf,1d504753-e1f0-4786-993b-9d99f837da91,b52ee6fb-eab7-4b04-9f13-143a3c600d6b,2019-12-03 03:23:49,2.000000
25,a66713a1-6ee1-413e-8f4d-0bac2c57789f,a06ac1c7-3a9d-4ea9-9cff-5f8f77f492b1,daa0c424-cad7-41d6-8f68-68751f57d2f3,3b2b9d17-9270-4805-ba23-e17f562d67e4,2019-12-03 03:24:52,2.000000
26,abdc87c3-4dde-4c2f-9d5c-3f1a6914fb4d,5240e7f3-e6ea-466f-b9c6-8cde9ae2ddbd,3874dafb-1a1e-47f3-a3ff-edd044acc148,229623cf-d29a-4ec4-b075-528bc73dfb39,2019-12-03 03:25:55,2.000000
27,533e90aa-dd57-40e9-a651-0f5c0477d866,fc89e33e-8782-4863-a198-2f68bc70c896,25573c4f-8137-414d-8bf9-84894c5ecc74,9b2ab2bf-45c2-4d5a-a421-1d87f9f5220f,2019-12-03 03:26:58,1.000000
28,ef94bd99-15cc-4ead-be2e-e046e46c29bb,ed76cc6d-4000-4580-be2f-64ff7cd078ec,dcc0ae86-e309-4d14-b5eb-1de34e398f0f,0d717892-faa3-44ec-8e53-c858d6dd2bcf,2019-12-03 03:28:00,2.000000
29,760f47c0-f7d5-448a-a30a-5b2fe9bb4cca,85a746d6-bc8f-4e3b-8d1c-d499bee80bd7,ad69164e-a6f6-448b-acf7-b39e5f37cc61,b47f8419-271f-4a18-adc8-d55c571bb746,2019-12-03 03:29:03,2.000000
30,11627103-0f6e-4247-b29d-0fdb49e4f5f1,855555bf-9f8b-42d1-aea0-42c399e31b18,d5505d08-e1fa-4043-8378-e6ef666f50f2,adf1cb54-e3e7-46ab-bb3c-c94570f8b3ed,2019-12-03 03:30:06,2.000000
31,6e28725a-1820-40a9-b86f-ce49d00ff16a,470e54db-77bb-4e47-84d1-51289872159e,d7da326e-8033-4393-859c-0b7ddf41531f,c03fa925-6cd4-421f-aa91-d02f09d44eeb,2019-12-03 03:31:09,2.000000
32,c87c0156-0159-485b-866c-6278605d50b8,99718076-a594-4320-b01b-0f89187058e4,b0b122f6-ec93-4328-9711-93fcfe8fe8b0,7952026a-7c59-44bb-a8bf-1b5db15c06ce,2019-12-03 03:32:12,1.000000
33,f527f7a9-5251-4dcd-a3a8-d6828b047e3a,e81514c6-b687-4222-ad0d-f12320963e32,7ba0d4e6-13dc-4931-b9a0-9cc97ad48b5e,b3bb66b9-a489-4c4e-960e-60ecef67fa82,2019-12-03 03:33:15,2.000000
34,22143bea-93bf-43d6-980c-c684f76b0d0f,e113085f-524d-42e5-966a-7f1eef52fd8e,d655b168-2f8c-486d-a5e8-dd39f019a6f3,1f21f9e7-a910-4209-9e55-6008b1ec05d5,2019-12-03 03:34:18,1.000000
35,05e7ba85-eef0-4736-ad3a-4473a7948ba6,238f8c2e-d505-400f-891b-43993cbab15a,bd474e4b-2722-4694-9e5f-4b4ea5662dc0,c3c70428-c7ef-481c-8a38-64c15733ecf2,2019-12-03 03:35:20,2.000000
36,9905e9ea-eefd-4c27-8e9f-2f4352b71fc5,7a95027a-84ad-4c7d-be5f-1e82e23845d1,9d59139a-807c-4e86-8c7e-18f673ce3fc9,c42f90e3-362a-4b6d-b895-2ef0130a6b2e,2019-12-03 03:36:23,1.000000
37,db139b7f-e8cb-4adb-b55e-517a35993bb0,c0db37d6-f823-4116-8e15-381efe334c78,619228fb-6e5e-4c23-b1ad-ffda1bea56db,b0b5cc40-a609-4172-a696-45180a926778,2019-12-03 03:37:26,2.000000
38,ae163fd4-dcd5-4975-8861-8f587d244f84,5690b740-59c2-4f9a-9d05-b6c361f829d4,28c89d7a-a1b4-4268-818e-d94c4e4bca9c,8a0f8c9d-f998-44b8-900d-544fa4327265,2019-12-03 03:38:29,2.000000
39,09223811-8991-43a6-a0cf-f743421620cd,cda3545a-9c5e-4abb-89c6-7a15dcb888cb,fdfe5461-2299-4e04-8dd7-c81bb2705c8c,5ee0a553-9839-4f64-a526-8cdd2479f438,2019-12-03 03:39:32,1.000000
40,212df1da-ce91-4587-aab3-24986d5a6db8,67bd564a-91c5-4305-b4b4-890172d62c4e,6e571bc0-7ba2-4e29-bf79-19180ec03498,fca84d27-2e15-4943-8272-17487d1bb8f0,2019-12-03 03:40:34,1.000000
41,5e2d22cd-711a-494f-b6a4-6e067581a2dc,e727249e-a333-42f9-a036-15a89ef9d1db,e85c621b-0b4f-417c-b706-a87b23b7c7e2,ac6884ed-bf19-40f8-bdbc-c92087d782a8,2019-12-03 03:41:37,2.000000
42,9af58ac5-ad07-4950-a739-cdaaf5922937,146d8d30-4fcc-4279-802f-1c13cc761775,8e8c87de-40d6-48b0-b920-578f64c232ec,5f714b79-ac1c-4ee9-b3e2-69a40bd2af62,2019-12-03 03:42:40,1.000000
43,0426ea2d-3e26-47f2-ae6b-62f604a910e1,f0f52aff-347b-4d3c-a186-f11af8a1ad65,3b0a2fb8-9635-4373-baba-867c26245e60,57a03d7a-1393-4b2e-b659-1a66b89c601c,2019-12-03 03:43:43,1.000000
44,5b641990-6f70-44ce-8c8a-0be3985c3a7b,5e164453-05f9-4d50-9f01-5e81e7210707,86875c72-8da9-4723-8d4b-c24bc2eed9e3,d90a6592-731b-40b4-98f0-43cbe0e16ea0,2019-12-03 03:44:46,1.000000
45,68fdec99-7c3e-4e59-a57e-4739e652d050,2824aba8-f626-4cd9-a36c-c1f379f614eb,45910bc2-c6f0-4001-8013-9c16a87be580,cca358eb-876a-42f8-b7f5-cd096c428073,2019-12-03 03:45:49,2.000000
46,0dea248f-4c52-4ca3-b13d-07f2962607ed,8e3821bc-ebfc-4f12-a611-76ee4f3c28ce,963aefd2-6907-4f8c-bda4-3ea478ccf141,6be7962d-6c03-4811-9510-b2cfb3036849,2019-12-03 03:46:52,1.000000
47,37832491-d5b2-4f67-893d-17dee9fccb23,3f6adcc2-ea94-4f75-a895-a497b14a3427,52348783-5663-405c-a3f5-ea0d5055c924,793029c9-9b3f-4fd8-9123-7cbe81f479ca,2019-12-03 03:47:55,1.000000
48,0b0af41a-bfec-44bc-922a-de1cecca5c0f,4dbf8b37-0c58-4916-ac1b-171702d0739d,16b1b8fc-c2af-4688-aa95-132ba070540b,9a61e8c2-d418-42e5-b7cf-022b802f828c,2019-12-03 03:48:57,2.000000
49,13a8bd4e-6c09-41bb-b5f3-0193828a6a5e,25afe5de-f89e-43df-9649-3bc806061f07,01912b18-dfd6-4021-af10-83493ff3ef5a,e34e2793-aae2-48ea-92ec-19b223dabd3a,2019-12-03 03:50:00,1.000000
50,651394b1-eaa6-4880-b2f4-d5d9bc2386eb,bd4645d4-9882-41b4-a8f7-e299cfc6e37f,7f43a1dc-42f2-4510-92eb-8cb85659ad26,cc240035-b342-44b4-aee6-e08a5a41d586,2019-12-03 03:51:03,2.000000
