actor,node
afb2408a-02d4-4edc-b41b-cea9dcaec2a4,60841d5e-26b8-4351-b09e-17c1c782a747
b829f4c2-b301-4d48-9af1-c15549b68635,60841d5e-26b8-4351-b09e-17c1c782a747
f33fd200-c3ae-4866-a0da-4878f1a3e8ff,45e099f9-23ae-4913-8fca-88fc0c93c275
3a6cbc90-b44f-491f-bc17-29977e97383f,573bf814-872b-4da2-8691-cd410d7a3633
0550d58e-a14f-4992-99d6-215b287e8156,8e360976-1f85-41a9-aa40-0c8f09e3c692
4b0ae482-758b-4337-906a-c2e4f17f0ebc,8e360976-1f85-41a9-aa40-0c8f09e3c692
f2a609a6-f7bd-4b98-88de-13595f41c8ec,8e360976-1f85-41a9-aa40-0c8f09e3c692
3c92c559-c5a6-42ac-9875-2b8e8258c81d,048be17a-0698-4351-af29-b39e717b3b65
d86f0ed0-d15c-427d-ade8-3b65e0ce843b,8e360976-1f85-41a9-aa40-0c8f09e3c692
71d30826-bbee-4685-a271-3375197df531,64413054-5c29-4eeb-9c32-8f990ffd4e1d
0bdf49ca-a1a1-4f59-9b8d-c57bcdc2bc0f,e9c8dd6d-1fdc-4085-8fab-8c2a98bf8c0e
a78bb965-7678-44db-8ed2-709120088721,e9c8dd6d-1fdc-4085-8fab-8c2a98bf8c0e
6fde4d05-9d8e-4587-874d-a2f053d63315,cff42e09-3c5e-42f7-80e6-a30e3ef792e5
8401096c-000f-4b16-814c-cb327d6fa9d0,41a8fbff-cb4d-46b1-a919-6df3e8988687
c389c17a-e242-4145-9d94-90d7e8e3da4f,41a8fbff-cb4d-46b1-a919-6df3e8988687
4d87c618-30a0-4c7c-998d-9481c28deb34,774d9bf2-463f-4f47-9c77-05b3a040d3f0
34dc93da-c9a3-4c9c-83a1-f6f00a2ea984,774d9bf2-463f-4f47-9c77-05b3a040d3f0
e1751360-bcd7-42df-9065-845d8d7ed2d4,a91a4464-839f-4c81-8bd3-ef46ecf4c776
6b8b7a45-8b80-481f-b031-e34b067a5c6f,7f3bd6dd-90e1-4e24-b002-450ba65bbcc7
59193557-81c4-4e4f-b5cb-2626f720d490,7f3bd6dd-90e1-4e24-b002-450ba65bbcc7
bade3955-ea45-4e71-8f03-30ba84f56f49,ebeed398-70ed-47a4-ba4a-9e7ff58d77ac
ffb6d976-e783-456f-9bd0-34680815d3d7,cb13eefc-a03b-4edc-b9b4-5ffe944f51bc
e084d7f4-b9c6-4706-9bfa-d4249414abd0,4a8a877d-ac57-42d8-b220-ccd124678db6
804caf02-c483-4372-9277-0e8e2d83071e,4a8a877d-ac57-42d8-b220-ccd124678db6
0334a9c9-5c94-402a-a47d-f186cb71ee42,774d9bf2-463f-4f47-9c77-05b3a040d3f0
099af886-519c-4c11-b615-9e743df45ad3,edacd436-1f1e-45ff-be75-fd8573ab2a7c
a7805ddf-8aa0-42d8-a0ee-3331389c4612,774d9bf2-463f-4f47-9c77-05b3a040d3f0
d729f263-d67c-4f11-a594-08e0849ab513,5a9fbc84-2ae7-4f30-87b1-3e2dc9353dc7
e654c982-1a6c-4519-b1eb-34657082a924,b5080dec-07de-4811-af86-48aebf481f30
98e6e9d1-9e59-4397-a512-494ba64c9031,5a9fbc84-2ae7-4f30-87b1-3e2dc9353dc7
d0abab16-535b-402a-b325-ff2be1a73b41,60841d5e-26b8-4351-b09e-17c1c782a747
f11aad99-0b43-4a5d-9b18-29def3a97d9e,60841d5e-26b8-4351-b09e-17c1c782a747
a7c0dd4e-ea96-4967-b41d-5c2c930f9423,620b615a-8a54-4ded-824f-b83f7eb05332
a7dde84d-479a-4dc0-976b-d6bcaf4c5403,0021fbd0-5e77-41d1-8808-a8d6de892a78
4bd903b7-aee4-433b-9386-a44c8c597f4f,0021fbd0-5e77-41d1-8808-a8d6de892a78
e7c14282-4984-44df-8415-1fb96fefb457,2cebeeb7-d3b5-4281-b4d4-fa5dc6d57ade
4b7cd18b-93b5-4a8c-8650-2f8062dda886,7f3bd6dd-90e1-4e24-b002-450ba65bbcc7
0a7d2fb8-44b3-4f83-8add-36538f07bf12,d2ce7638-777c-46d6-ba93-e7f1344ffd6a
70096628-a29c-4d55-bd0e-05d2d3a656d4,7f3bd6dd-90e1-4e24-b002-450ba65bbcc7
457b0e18-5c2a-4e8d-a024-1f282395e9d0,4a8a877d-ac57-42d8-b220-ccd124678db6
3f27f2a7-5267-4577-9058-f1c4d9fd52ee,4a8a877d-ac57-42d8-b220-ccd124678db6
17e407ae-ddcb-4c3c-928b-6351fb4ac072,839e3bde-80d5-49cd-9073-d4a7dbfd7b95
749b4b22-e708-419e-90f3-b491b4c026d2,0021fbd0-5e77-41d1-8808-a8d6de892a78
ca47c118-b08a-4363-a723-92c3db30cb71,02ef4df3-496b-4279-ac9d-1e96793fbcac
ebe58229-8439-4c1c-b248-3ed650bb7af5,0021fbd0-5e77-41d1-8808-a8d6de892a78
7c0bcabb-a8bc-4872-a168-520e28d81ecb,774d9bf2-463f-4f47-9c77-05b3a040d3f0
263dfb49-e411-4a61-a4d8-bc622de1b678,dadbeaae-a9c8-47a1-aacc-4f09e7723ad0
5d10a9b2-a836-4771-b995-31478b2e438e,774d9bf2-463f-4f47-9c77-05b3a040d3f0
af081abe-8aee-413f-a092-b1e2bddb768e,87092856-e0c3-439f-b482-658f809062c9
e9eba495-40f0-4439-aaf0-cdfb278ce720,e3dd75d7-4df4-4bec-93da-b7fe41cef9a2
8759b2b5-691f-4555-a863-1bfd99b5eb6e,e3dd75d7-4df4-4bec-93da-b7fe41cef9a2
9ae844e4-31a1-492c-a26f-8406186e057e,60841d5e-26b8-4351-b09e-17c1c782a747
381f589f-0440-44eb-8c27-2253724e63c9,017681ef-d2a7-4ebd-9612-02884d570f4c
98657f8c-b9b0-41e9-8157-a25329a5325e,60841d5e-26b8-4351-b09e-17c1c782a747
62482258-6fcd-402e-af8d-ee076888ed03,ee865b8f-d8c1-4d9d-9a41-0f61b955d066
e57333db-2980-4935-bdbf-9e6d787ff560,37f05d66-55a1-47e6-b032-c366fed497eb
b29f3ddd-36f1-421e-9a9a-84c2a122cbcb,ee865b8f-d8c1-4d9d-9a41-0f61b955d066
345777f2-b5b9-4ef7-b22f-1a3babfa06a4,a78a8170-5987-454c-8ad9-985a244cf679
70a5a2ee-299f-42b0-82dd-1bd58c239955,0021fbd0-5e77-41d1-8808-a8d6de892a78
77cd26c4-b374-433d-9f25-ba913955939e,0021fbd0-5e77-41d1-8808-a8d6de892a78
c656ebbb-19ef-449c-993b-1f064fc194ae,0021fbd0-5e77-41d1-8808-a8d6de892a78
de72c339-5bb4-4b42-b2dd-b07fd0c9769f,0021fbd0-5e77-41d1-8808-a8d6de892a78
2ea9706f-c0a0-4766-92fd-eb8d730b4cea,71bb27ee-0975-4099-92a9-c4bcc592e921
43ec72ce-1eca-4334-bb73-9cf1e2a4adc1,ee865b8f-d8c1-4d9d-9a41-0f61b955d066
d32c1758-1b72-410c-aaad-3a63aed8af1b,ee865b8f-d8c1-4d9d-9a41-0f61b955d066
bb513f2c-f750-4afb-b78d-ae89b7183f6b,6419075b-0280-4a07-8ee8-2072ce5e160a
4ce89b54-a0c6-4a52-8575-e7cf8574f6c4,e3dd75d7-4df4-4bec-93da-b7fe41cef9a2
9a5a24ee-45e2-4ac3-8f0e-b18c5095a987,55ff0f0f-137e-4380-ae4a-f2b5f539347b
78914877-f20e-450f-97c4-92e25048a913,e3dd75d7-4df4-4bec-93da-b7fe41cef9a2
a33d3a0d-77b1-444f-aed0-84b8ff6ba7bf,6a0cdb2c-7fe9-4479-a230-5456851ab7df
5f71ce27-4534-4e07-8b39-b79248473b35,60841d5e-26b8-4351-b09e-17c1c782a747
6e450572-7a2e-4128-893e-d00fac2f763c,60841d5e-26b8-4351-b09e-17c1c782a747
857438c2-e544-4466-b711-21dadd55fc97,e3dd75d7-4df4-4bec-93da-b7fe41cef9a2
30a12d47-a1b8-41c5-b0d6-60b4e8ac8919,1e73df5a-b837-42a1-ab3d-28621f1a61ee
b9b7a3dd-50cf-4c42-98a7-524cf987e9d7,e3dd75d7-4df4-4bec-93da-b7fe41cef9a2
30b5b7fc-2d58-44b7-9515-1891b7f82773,99f6c281-322c-4050-af20-ebebbcddef02
073585b9-f8d2-45cf-b255-9fb1a9b0c382,4a8a877d-ac57-42d8-b220-ccd124678db6
29fb6637-02b8-47ec-ba32-85cd9c193f4e,4a8a877d-ac57-42d8-b220-ccd124678db6
933a53e7-b2da-400e-89c3-f0f90fd20bc9,ee865b8f-d8c1-4d9d-9a41-0f61b955d066
829cc8b2-a3bd-43d2-8730-53c5a96d694d,ee865b8f-d8c1-4d9d-9a41-0f61b955d066
2fd109f5-edc3-4cd6-8ab8-2f02db00799c,8978c287-0acb-4130-bbbf-11738948f053
715a6112-3ffb-4c0d-b561-66553c16eb73,774d9bf2-463f-4f47-9c77-05b3a040d3f0
5589c156-b5c9-4709-849c-8cdaaf24db83,b929c8ac-2dd1-4dfa-af1a-89f2d387bee5
7e1552ff-3e4f-45b8-8e06-599a099a0c3f,774d9bf2-463f-4f47-9c77-05b3a040d3f0
a8dc9946-c7c9-4c12-95ee-1931ca35a2bb,5f633fcd-a915-4811-adc1-3536be8a276f
58e19f18-2131-45ec-8d66-7cfeb7dd8886,0021fbd0-5e77-41d1-8808-a8d6de892a78
e0d175c3-c26d-4ae6-bc7e-1fd12e143b2f,0021fbd0-5e77-41d1-8808-a8d6de892a78
15b0e120-e268-45f8-a345-837857d895a6,44a0dc61-afc6-46c9-8a84-ba8dc7a08400
cb283639-e7b1-450b-baa4-22927e80e383,0021fbd0-5e77-41d1-8808-a8d6de892a78
2fcd621d-7bac-4c45-b103-135e008f499d,0021fbd0-5e77-41d1-8808-a8d6de892a78
aabc659e-c1aa-436f-a9ff-583c9a972829,5a9fbc84-2ae7-4f30-87b1-3e2dc9353dc7
5b1360a8-7dcf-45f7-b103-037544318cbc,5a9fbc84-2ae7-4f30-87b1-3e2dc9353dc7
3eb950d5-b93c-4734-b9af-19895e155953,4acf8c4c-4eb0-4ded-891b-62ecc8a73465
43c8a7cb-3a0b-4bc5-8fed-58233ff6fa89,37648870-9bac-475f-a621-0ff4e0b4711e
57a18ab2-548c-45e7-809d-5a2e4a575ba7,084eaabf-ced3-40b1-bad9-7ca5dd06d755
ebb690c0-b37f-43a6-b6ce-2f6cce92f750,37648870-9bac-475f-a621-0ff4e0b4711e
2f3ecf8d-ebc8-415c-b4ff-0ba2ae19f1b6,1de7aada-2ab3-43b0-a258-8b62e0f1a98e
4909bc2a-193a-417b-bf26-5ad006872ee4,ac29ea91-5fc9-4dfc-944c-5e8559a6ee7a
2d23b21b-e1a7-423c-9615-899893271e3c,ac29ea91-5fc9-4dfc-944c-5e8559a6ee7a
c0140d07-1e0c-4c18-b236-f3aac6b0aa7b,d1e79533-c230-43c1-9111-d9c4e1cc69d4
c2971c21-69b1-4a74-a399-07ee847f0a67,37648870-9bac-475f-a621-0ff4e0b4711e
59a14f54-6ed5-40db-bac1-31faa78f35fb,37648870-9bac-475f-a621-0ff4e0b4711e
ebb72086-d676-46a0-b608-c9be097ed358,17736907-a9c1-461b-b230-532f61323c95
f5c269cd-7bd1-48ff-85ed-62f1bbd7c593,8e360976-1f85-41a9-aa40-0c8f09e3c692
ee3ff0bb-46d7-4293-8725-c9761ef61238,8e360976-1f85-41a9-aa40-0c8f09e3c692
b5a98e0c-3f50-4a35-890f-89bce13d49a4,37648870-9bac-475f-a621-0ff4e0b4711e
802bfe82-f471-4f3c-8211-da9eff71cb7f,37648870-9bac-475f-a621-0ff4e0b4711e
ca939b4a-f84d-40c5-9adc-49d9acb4bc7a,5179d348-7e47-4499-a385-1a28c4889378
8326bf3b-945e-4630-b0c6-94f757edd0c5,71ff85b4-cd67-4c66-9b7c-edf4b3f6d2fb
9030edea-c4e1-4291-b372-5ff54247a097,37648870-9bac-475f-a621-0ff4e0b4711e
a29b1f71-0ab8-4608-8cf6-7e42d7a18883,37648870-9bac-475f-a621-0ff4e0b4711e
79fd12a2-a548-4719-bdd1-095dd3202224,7f3bd6dd-90e1-4e24-b002-450ba65bbcc7
b5f42926-84eb-45a4-b62c-5711af79a2fb,b65d8bdf-fbef-4851-8b94-646ebab47146
01e274ba-9727-42f3-be03-ea928143820c,7f3bd6dd-90e1-4e24-b002-450ba65bbcc7
1e332666-df35-47fc-96d9-8c69d9538b2c,60841d5e-26b8-4351-b09e-17c1c782a747
f875dec0-bb9c-4a29-9600-c378ff902482,d204e3e0-6945-481b-8107-835f2b0a025a
676656d6-ae52-46a9-87c3-a99d238c363d,60841d5e-26b8-4351-b09e-17c1c782a747
dfc4fa7d-d0df-441b-914a-3ccc167ae804,252dda6e-e6fb-463d-b6f2-1f52d4b5117c
d4c2c817-09b1-44a5-be64-a0c6d29371a5,41a8fbff-cb4d-46b1-a919-6df3e8988687
5f712b3e-7858-447e-a4aa-8aff170dc3f3,41a8fbff-cb4d-46b1-a919-6df3e8988687
02d256b6-fcab-46bc-91ce-3f0781a41b88,7f3bd6dd-90e1-4e24-b002-450ba65bbcc7
c08ac164-474e-4059-9597-e0a1f1ec5412,7f3bd6dd-90e1-4e24-b002-450ba65bbcc7
b5ae5645-1e5a-406b-b492-197a242d25b5,572bb041-c730-48ec-a17a-aff7706873cc
7487ada8-ff52-4a6d-b3d9-8d01d0d47151,585dfafd-e0f1-4a04-a744-1654b4341ff2
9215030d-d8cd-40c4-a8ae-ba0e683a0c7d,4a8a877d-ac57-42d8-b220-ccd124678db6
53a43cf1-2374-4479-8d85-7ce9bd68f956,4a8a877d-ac57-42d8-b220-ccd124678db6
1117a85c-7c4f-46cf-ab1e-e02928a29123,e9c8dd6d-1fdc-4085-8fab-8c2a98bf8c0e
d5d40bea-5da2-43e2-83ea-be34ae50907d,e9c8dd6d-1fdc-4085-8fab-8c2a98bf8c0e
6525323a-db13-4163-9a2f-52b3a0c5f6ac,61b40d92-6266-45ff-bda8-a7383356f7e0
8f1f6a9d-2a62-4dd2-ae2e-14443d8b734b,8e360976-1f85-41a9-aa40-0c8f09e3c692
656caf72-79ba-4f41-8fd4-7f7d3ab576a4,45b8afe7-5d6b-43c5-8fa4-1a680e702387
e80501be-1120-42fd-836e-2d93f03a6a00,8e360976-1f85-41a9-aa40-0c8f09e3c692
f17eb977-9d3c-4db7-b4ac-a222b05ecfd8,6aa20ec2-48f1-45b1-aae6-f758aa515612
d86f03e2-fdcc-4302-99c5-4982757db856,aa2677cf-10f3-4a0a-944a-cfa157a56a43
fc11912d-0731-4b7f-97aa-8d735ac429ab,aa2677cf-10f3-4a0a-944a-cfa157a56a43
af196c9b-dfa0-420b-bc63-da4a0780f5c5,aa2677cf-10f3-4a0a-944a-cfa157a56a43
ae766766-4c49-4c95-adc0-8168016f8d7e,aa2677cf-10f3-4a0a-944a-cfa157a56a43
425f69e5-c43e-4657-b3f4-d1e4c6271a65,26275782-005b-42af-bf81-2690e1e72a88
348c4e4b-f1db-4608-9e10-573c6a82cc02,aa2677cf-10f3-4a0a-944a-cfa157a56a43
3dfe4256-357f-44ee-a7bb-0c5118e9c04a,2afde734-b5de-4593-98f6-5f2c12a2040e
3de172a0-c704-4d71-acd3-c2e1866a631f,aa2677cf-10f3-4a0a-944a-cfa157a56a43
054261bd-0ea7-470d-b8ed-e4487316168c,aa2677cf-10f3-4a0a-944a-cfa157a56a43
09cc48e0-887d-420b-8259-31ad69a05811,aa2677cf-10f3-4a0a-944a-cfa157a56a43
145e7fa6-64a5-44b0-9c86-ee018fed2d5c,bd93e5b2-f6fc-4cb0-8ad2-2904ec8152bd
9abeeb2a-69cd-4f73-8d2c-0ffb10126b33,28fee5d5-39c7-48ad-87fc-ad2e7e2374ad
161caf76-f201-432a-acae-d6624279b728,1fe068c7-07f6-4676-9124-7f3814cf4d1e
6ec23056-1d16-4c96-85f6-3a05f19fabc6,28fee5d5-39c7-48ad-87fc-ad2e7e2374ad
313f2502-d3f2-4ef5-8537-8ff2493f5907,be634ab1-efd5-4908-ae98-611365d96820
29f00fa8-53b6-4de5-ac77-f1ef645d569c,37648870-9bac-475f-a621-0ff4e0b4711e
2602739d-1a80-416a-8606-729530f666c3,37648870-9bac-475f-a621-0ff4e0b4711e
