node,ip,uuid
node-a8-199.grenoble.iot-lab.info,172.20.64.1,a73a3761-d122-4ce6-bcf4-70dfb022016e
node-a8-200.grenoble.iot-lab.info,172.20.64.2,2927f560-0a2f-4e77-aeb7-4f86651a5671
node-a8-201.grenoble.iot-lab.info,172.20.64.3,a2e79ece-7ace-4a08-a5cc-cd82303ef895
node-a8-202.grenoble.iot-lab.info,172.20.64.4,9b8f67a6-b059-45c1-9f89-ec768330067e
node-a8-204.grenoble.iot-lab.info,172.20.64.5,9d3e6b7e-8060-4587-89c1-2724d044034d
node-a8-205.grenoble.iot-lab.info,172.20.64.6,38dc6f23-60ce-49c5-8f15-979d24486ffb
node-a8-206.grenoble.iot-lab.info,172.20.64.7,4dfc7e89-3d4c-4601-a132-ddbe3ac4e908
node-a8-207.grenoble.iot-lab.info,172.20.64.8,20828fa9-bbf5-4499-b80e-733d3d52cf13
node-a8-208.grenoble.iot-lab.info,172.20.64.9,34bebe16-0284-4514-b830-b76571f2678e
node-a8-209.grenoble.iot-lab.info,172.20.64.10,9f6582ac-43ac-4447-8afa-500556b200fb
node-a8-210.grenoble.iot-lab.info,172.20.64.11,e699c90f-7db7-4ee5-9136-7386b8d8cabc
node-a8-211.grenoble.iot-lab.info,172.20.64.12,cf4ad9cd-5d44-4b32-9b1c-6a585fccde94
node-a8-212.grenoble.iot-lab.info,172.20.64.13,9a8ef5e5-9b4a-4b30-9bbe-c2de497b5757
node-a8-214.grenoble.iot-lab.info,172.20.64.14,ef58da4c-b07f-4d21-840b-664a60879621
node-a8-216.grenoble.iot-lab.info,172.20.64.15,c6dc2221-8a7e-454c-8b38-ae4a0764913b
node-a8-217.grenoble.iot-lab.info,172.20.64.16,9326cb92-50ee-4f73-8155-ba632aeab2e4
node-a8-218.grenoble.iot-lab.info,172.20.64.17,da9af266-0b29-42d4-939e-439f296cb43a
node-a8-219.grenoble.iot-lab.info,172.20.64.18,909c0107-31b9-446e-afd0-09be5707b9ea
node-a8-220.grenoble.iot-lab.info,172.20.64.19,42f5575c-3140-496b-9138-fe84342772f6
node-a8-221.grenoble.iot-lab.info,172.20.64.20,042da3d7-9d18-4845-9683-97d212f8b150
node-a8-165.grenoble.iot-lab.info,172.20.64.21,f32223f3-0dc0-419a-ad84-18573e074caf
node-a8-166.grenoble.iot-lab.info,172.20.64.22,52858934-0d51-499b-973e-55177da0bb95
node-a8-167.grenoble.iot-lab.info,172.20.64.23,89014010-ef59-4663-965e-62bc311e3487
node-a8-168.grenoble.iot-lab.info,172.20.64.24,8859ac0f-b50c-413c-82f8-3f59a28a0e85
node-a8-169.grenoble.iot-lab.info,172.20.64.25,16b167c2-958f-4ac7-b29f-2e05a22bf259
node-a8-170.grenoble.iot-lab.info,172.20.64.26,d6d93053-26d7-4f79-85a4-9a230d69b327
node-a8-171.grenoble.iot-lab.info,172.20.64.27,4f9d55b9-29e4-4ddd-adfa-36cfefa2f2a9
node-a8-173.grenoble.iot-lab.info,172.20.64.28,1863047a-af33-41a9-b2de-ead21ea44b6d
node-a8-174.grenoble.iot-lab.info,172.20.64.29,29a46fe5-1695-4be7-9e1d-5a5b615a0524
node-a8-175.grenoble.iot-lab.info,172.20.64.30,658b2882-e5cd-4546-a7b1-e5db724d4d05
node-a8-176.grenoble.iot-lab.info,172.20.64.31,6c7c2b73-4468-494c-ad2c-994a70699f7c
node-a8-177.grenoble.iot-lab.info,172.20.64.32,dd2c05b9-ff04-4177-bc23-1729b7c75ed4
node-a8-179.grenoble.iot-lab.info,172.20.64.33,e8dfd89e-4d11-4ad9-8bf0-1e0a567fe75a
node-a8-180.grenoble.iot-lab.info,172.20.64.34,d7a4efce-53b3-4eb2-a728-13553983f481
node-a8-181.grenoble.iot-lab.info,172.20.64.35,92b1ed29-2119-4990-ace4-b39b5345989a
node-a8-182.grenoble.iot-lab.info,172.20.64.36,4516b6e8-6717-4e77-92bb-160844ed29d1
node-a8-183.grenoble.iot-lab.info,172.20.64.37,03428724-eabc-405c-a832-60a18f0dbe56
node-a8-184.grenoble.iot-lab.info,172.20.64.38,51e50c54-b533-47cd-8caa-f6f91ab6a5dd
node-a8-185.grenoble.iot-lab.info,172.20.64.39,1c4b9241-e4c1-48c9-946b-2d430a6e7b71
node-a8-187.grenoble.iot-lab.info,172.20.64.40,61300df2-edc0-45a8-a599-e4d7bf13f2a6
node-a8-188.grenoble.iot-lab.info,172.20.64.41,a51c94f6-3361-4a77-bbf5-b51b02401778
node-a8-189.grenoble.iot-lab.info,172.20.64.42,02478ab7-b5f1-47ad-88c3-d52054fe896c
node-a8-190.grenoble.iot-lab.info,172.20.64.43,de2c14dd-b6b4-4ce1-ae73-96dca5990299
node-a8-191.grenoble.iot-lab.info,172.20.64.44,f1ecbd7e-cec2-4966-9341-525b0a61da50
node-a8-192.grenoble.iot-lab.info,172.20.64.45,dce2ac74-3cd6-466d-8344-ac4418a1c7a5
node-a8-193.grenoble.iot-lab.info,172.20.64.46,09adb9a8-fada-4511-a763-0047804f0635
node-a8-194.grenoble.iot-lab.info,172.20.64.47,79e4b81b-2253-416b-999e-70c3ca696e92
node-a8-195.grenoble.iot-lab.info,172.20.64.48,14f4e68d-8eb1-4c02-b78d-505b76dbf1fa
node-a8-197.grenoble.iot-lab.info,172.20.64.49,edce4f8b-b462-4e5f-8284-f62a1d8ff01d
node-a8-198.grenoble.iot-lab.info,172.20.64.50,bec1fa2e-ac27-41ec-a2b2-b38066d1dcbf
uvb-26.sophia.grid5000.fr,172.16.132.26,115ed240-1e0b-4836-b60b-f644eed1ae21
uvb-28.sophia.grid5000.fr,172.16.132.28,ea78c0eb-b5e4-4108-bb08-68ee965134b0
uvb-29.sophia.grid5000.fr,172.16.132.29,5b77d620-4f9c-4256-a105-c146ca1eaf00
uvb-31.sophia.grid5000.fr,172.16.132.31,0de44fac-0099-4e0d-8ac7-f93b394ae7d7
uvb-33.sophia.grid5000.fr,172.16.132.33,c66fb063-e597-4deb-8d1f-de28ff76d22f
uvb-34.sophia.grid5000.fr,172.16.132.34,fa7b1489-af4c-4c59-88af-023d45adf2c2
uvb-35.sophia.grid5000.fr,172.16.132.35,07d3ae9f-b327-4dec-9bb9-0f2e93d02f1d
uvb-36.sophia.grid5000.fr,172.16.132.36,769adc07-7646-4cac-add1-dd6919f4ba6b
uvb-37.sophia.grid5000.fr,172.16.132.37,80e2eee9-3da1-4e27-93c4-a89b5841fde9
uvb-38.sophia.grid5000.fr,172.16.132.38,f06114fd-0045-49e9-954b-1b53019345e2
uvb-4.sophia.grid5000.fr,172.16.132.4,23e826bb-5d01-44cb-9acd-841517ee8f2b
uvb-41.sophia.grid5000.fr,172.16.132.41,496392f5-9a8f-4674-ac24-16e9871325a6
uvb-42.sophia.grid5000.fr,172.16.132.42,15614c7f-8693-4e5b-ad09-4278e1a99b34
uvb-43.sophia.grid5000.fr,172.16.132.43,126254fb-de13-40cd-98e8-c91c2321b4ec
uvb-44.sophia.grid5000.fr,172.16.132.44,3f2e5fae-f976-46a1-b4c7-108463098973
uvb-5.sophia.grid5000.fr,172.16.132.5,132bee8e-dea2-440a-8850-e7ab5d098f51
