actor,node
1312e59e-e200-431b-84a8-e6235945cf81,ea67f23e-efed-4967-9220-7df1f5cb2e7c
d8caee2a-779c-434c-b18d-dd32733d4463,eb7293c6-600a-4ee6-ba2c-8a877e521cff
32d3490e-15b6-44ab-a2a0-b91be0600968,eb7293c6-600a-4ee6-ba2c-8a877e521cff
8e7e273f-6cf3-482c-8e4c-af041441722a,f92e496a-b98a-41e5-8459-325f3ffeed65
fb9e0b77-4c8b-4fe9-b768-f60c73ca064d,ca1f888e-358b-4950-9f36-f8e158822238
d0bb42f3-f272-4fcc-8957-71e3ee3bf6e2,ca1f888e-358b-4950-9f36-f8e158822238
3ad86045-ef40-45e3-9f23-2235670e508b,63569f61-894c-4ab4-a838-5d8e2e45be2c
58d7acd7-e011-4e02-b471-5e57519fb505,bcf4c6ed-2131-4de6-8cb7-4e8e25fed263
4d6f46e1-ea20-4f96-8ba4-ca02d4ed87bb,bcf4c6ed-2131-4de6-8cb7-4e8e25fed263
d2464101-117b-4533-9068-353fc3c6c2c7,70b8f99a-574b-43c3-bcc0-e64b8ea29880
310a6dc1-95e3-4bc9-ad28-9ca5030e7a3c,07448ca7-7b0f-4b15-8bdc-bad5c53c224a
e63f7fca-bb5c-41e6-a267-8b37e2195468,70b8f99a-574b-43c3-bcc0-e64b8ea29880
0663c659-3708-4f62-8d23-b55f167a3e27,3b329acd-edde-46d5-8121-f5d396df10af
74bcd273-8457-43f3-be87-6322694659e6,638a2ab6-9f87-44a2-88d4-a757427cc4af
bcc90138-33f5-480b-8b39-3f0257916aaf,638a2ab6-9f87-44a2-88d4-a757427cc4af
5e9a76cf-0f8a-462f-9685-68656eaee399,25062f2b-7a38-4373-8fd4-a2afc490f6d5
a6fa1a9f-1025-49eb-9be2-90d8c6f18908,25062f2b-7a38-4373-8fd4-a2afc490f6d5
5f504e1c-3a65-402f-9074-8e06717214ae,046b885b-6a96-4a08-b899-13e9c05f8f34
c74a4dc4-fb74-4281-b635-c591be14e3ad,cda48ecd-d3b7-48f2-af20-c4ed94172043
72c49e7e-65a9-4273-8c3d-6f9c8335d322,cda48ecd-d3b7-48f2-af20-c4ed94172043
248cb708-5028-4362-a643-602d34f19ba8,c05029ca-b8e0-41c3-9f12-0ed376eaa466
599054c2-63e9-4ae3-b5f7-2ddfce5e800a,47d66b27-039b-4af1-8f8a-6d59d16e8d5a
a1df435d-5956-4401-b5bf-c50455e04008,4863905c-f898-4c07-92dd-6c2417a411c9
cb8776f7-a43f-45de-9aea-18d191f40abf,47d66b27-039b-4af1-8f8a-6d59d16e8d5a
1f39d6e0-a0ed-4819-b786-f9db168a5e4e,0302b7c5-21f6-42e7-9809-039fec1aebe3
6027783a-4fff-4b8d-8025-1c05f070188d,a8d2fdc0-620e-45e8-8911-953da9b6e1cb
74f15bcb-9664-4dd4-878e-b37d0da55dc0,0302b7c5-21f6-42e7-9809-039fec1aebe3
299324dd-a315-4e47-9006-91d20135d77e,0a845652-e116-4729-8f18-e3766d790c26
fc08e2cc-48cd-49df-b7ef-5b58432357f2,95f53a40-24b4-4353-b85a-4ed772cca41f
412102a3-cfff-436e-9763-20117c904466,0a845652-e116-4729-8f18-e3766d790c26
30a7aa20-e38a-41ef-b2ce-d20a303ee7f4,c958b6f5-897c-4c02-94a3-4815cebbaa40
b2635500-6ab6-47ee-93eb-7c22cebb4464,3a24c7d3-de0e-4ad7-b22b-7204ff8ca85b
35c91fdb-eb49-4c82-bc28-561593f51425,c958b6f5-897c-4c02-94a3-4815cebbaa40
8f3c7e75-18ba-46ed-aac7-1cada9468907,873d9fea-cdf5-4eb2-8e42-faf1a55fec82
c181c558-7199-412b-84c4-a45d91dbac1e,873d9fea-cdf5-4eb2-8e42-faf1a55fec82
850b0961-b126-4480-bf86-a6217aafe442,1d20ad9e-5601-4915-bde7-5a14cad274e5
a5001bbc-9f11-4e94-ac99-a8744950a889,132751e7-40f5-4e97-9ea7-c28f928ccb65
da177f4e-a6d6-4973-aec0-9ed197b3161e,de12b7eb-0465-4dda-bf87-e24cbfdbd9bf
558c2a2a-b29d-43bb-9531-2cff4c3edc91,de12b7eb-0465-4dda-bf87-e24cbfdbd9bf
22784b98-668e-4ef6-8d40-6752a6c41d38,333b8a75-3c86-4dbe-b3b0-c2582bf6d1ed
ba6bfea2-932f-4e1a-b025-9e3f36fd9a28,69b35d5f-ab50-4a5c-a835-752aa0f324d3
1e4217cc-c438-40c6-8dc6-18c866b5d3f1,333b8a75-3c86-4dbe-b3b0-c2582bf6d1ed
e7f9fdc7-3653-46c8-8033-7296d521e7c6,eb7293c6-600a-4ee6-ba2c-8a877e521cff
6d6ca66f-39f9-4ce4-8454-5f0c615310d9,eb7293c6-600a-4ee6-ba2c-8a877e521cff
a75fb5bb-1d43-4457-9343-389b418afb85,a17a5718-000c-4bc5-a6f1-e64f6044221a
d1c42679-c990-4196-a82b-a8730e94d11f,ca1f888e-358b-4950-9f36-f8e158822238
bb6f9cba-cfe9-4b2d-9ce0-383ba4886e73,ca1f888e-358b-4950-9f36-f8e158822238
65a4e894-8182-475d-be2f-487a2d5b9380,6d9c8305-4582-400e-baf0-62bed4f395f8
32637dfa-0bdb-414d-a6e3-6fb95087774f,bcf4c6ed-2131-4de6-8cb7-4e8e25fed263
eb3708f6-930a-41d6-913b-ce880715cfd1,962a22de-1dd4-46be-bb5a-8a4320937fdb
b3cdd0ed-65b5-4493-b39a-fc6b2e368d93,bcf4c6ed-2131-4de6-8cb7-4e8e25fed263
ef402928-ac35-45ef-ba87-0cb1707b7335,52dee749-a5da-4a40-8a90-500d40912e77
6a345c9f-4dab-4aae-9dae-8a8ef558fa1c,70b8f99a-574b-43c3-bcc0-e64b8ea29880
ef34f4ca-705f-4c67-bb5a-3eb17ddf6755,70b8f99a-574b-43c3-bcc0-e64b8ea29880
bc82785d-e172-428f-b25b-49333095de78,638a2ab6-9f87-44a2-88d4-a757427cc4af
4b82192c-655b-48bf-9ad9-5c62a5290a4a,638a2ab6-9f87-44a2-88d4-a757427cc4af
576cae20-9119-4db7-a43a-e2047ee121ec,9e4dc76a-ee53-48fa-97de-51aa64c18c55
c2b352c1-c29b-4ee1-8836-cd0e0fbe51f2,25062f2b-7a38-4373-8fd4-a2afc490f6d5
e4aa18d2-4158-4a4a-bcfd-54b2e1f987dd,25062f2b-7a38-4373-8fd4-a2afc490f6d5
380b507f-8f0d-4f76-92fb-9f489e4e9c2d,fc040899-d37c-40d5-9b2c-c37a08e296e1
124ac28b-f31f-481a-9566-cde5ee6c147b,cda48ecd-d3b7-48f2-af20-c4ed94172043
661d9472-dd23-479f-a22e-aef1d231d01f,bdf7327d-4039-4fe7-b505-b3ef7b873179
c96218d4-68e7-4472-9700-929c2023f137,cda48ecd-d3b7-48f2-af20-c4ed94172043
99d7d009-2e3e-40ae-999e-0c020f4aba9a,47d66b27-039b-4af1-8f8a-6d59d16e8d5a
7cc82901-95df-4341-b08c-cdb7d781dfa7,47d66b27-039b-4af1-8f8a-6d59d16e8d5a
16e19dd5-056b-41d0-896b-dc928676abbe,9ce0303a-8f3f-42bb-b483-a7123ba96654
400ae9c4-5105-4a05-9d29-3def6b95f3fb,0302b7c5-21f6-42e7-9809-039fec1aebe3
84bc0dc3-75e9-4a37-9e1a-80635df2e371,0302b7c5-21f6-42e7-9809-039fec1aebe3
e44ba62d-8ea3-4711-b8c9-df35195ea3ed,48bf19bd-fbcb-46a0-99c8-f307a93a6dc4
cc768ec7-bad2-4b20-9dc6-24c8b5015281,0a845652-e116-4729-8f18-e3766d790c26
49a0e830-623d-4e31-af41-73de50bdaafc,0a845652-e116-4729-8f18-e3766d790c26
bc7a8b51-19c2-4aec-b7c7-29303ecec954,bc87174b-e37e-4657-90bd-a237d1db417a
29e1a179-bfde-4283-b90d-555caad571fb,c958b6f5-897c-4c02-94a3-4815cebbaa40
3043711a-85b6-4739-8379-3f2efaa74637,c51cc7c4-54ce-48d5-9655-e02be1cb646a
a3157af4-e257-4ea1-9e2c-8b2c4b46db2a,c958b6f5-897c-4c02-94a3-4815cebbaa40
ff1958e8-bf36-49e6-82d2-8dbf425559ab,873d9fea-cdf5-4eb2-8e42-faf1a55fec82
d3357c74-0000-4c6c-a391-562b682f865b,873d9fea-cdf5-4eb2-8e42-faf1a55fec82
7ba4ff56-7107-43ab-bcba-affc9ed7f84a,5d202b2a-21ae-4069-bdca-4271e5e7dc3b
b4523012-1413-454b-a672-493e5b8de835,de12b7eb-0465-4dda-bf87-e24cbfdbd9bf
5d12f1e2-fc44-43a8-b0be-b70741eb4de4,2f83e95d-d250-47ef-81e3-ec4a856bf574
9d865091-08d4-4a6a-a592-1678a0d929f2,de12b7eb-0465-4dda-bf87-e24cbfdbd9bf
cd3603d6-a647-4eb4-b046-a1ede14ff7bb,4e391985-c582-4301-a172-e74377924c9b
f058bf31-41d5-41cd-8869-fa27ba349c04,333b8a75-3c86-4dbe-b3b0-c2582bf6d1ed
5a6e5adc-6a5a-41f3-8c7d-297fd6733ec6,333b8a75-3c86-4dbe-b3b0-c2582bf6d1ed
24c4816f-f025-4d53-8afa-de45fabdf74c,eb7293c6-600a-4ee6-ba2c-8a877e521cff
94f6e7e9-30b2-4655-b8bb-1565680e0d54,eb7293c6-600a-4ee6-ba2c-8a877e521cff
9f543972-2501-4a7f-b891-a4151d0f5ce1,e7bcc48b-a80b-4108-821c-a8524477a234
246a5594-6267-4247-abf5-bc8342db18fb,ca1f888e-358b-4950-9f36-f8e158822238
ee63799f-571c-4c3c-b9c8-a502d3012c67,ca1f888e-358b-4950-9f36-f8e158822238
ad59c004-504e-4be8-9311-14776d6f6db3,e6ecb36a-ad0c-44a2-ac40-71b27bbec074
b9e05bcc-f7f6-4867-96ca-df0d02ae7157,bcf4c6ed-2131-4de6-8cb7-4e8e25fed263
a18ef13f-3597-4f91-882e-c251881a4dfa,41ac7f0b-7a75-4658-b2fd-945313195139
ecf282a8-69a6-4eeb-8d7e-436133ca83d7,bcf4c6ed-2131-4de6-8cb7-4e8e25fed263
ab648cbb-7260-4242-9a53-ebfb270771f9,c4d7b838-1f12-4709-b8c5-4b39d2fa0c16
b743e761-f644-42d6-aea3-96875249c31c,70b8f99a-574b-43c3-bcc0-e64b8ea29880
43072f15-c844-4ee2-9f28-d31d8535638b,70b8f99a-574b-43c3-bcc0-e64b8ea29880
5be8c89d-a487-4af6-90f9-c9211e032143,638a2ab6-9f87-44a2-88d4-a757427cc4af
ebe3a341-a2d0-4c5e-bb01-90416ce7ed5c,80532906-c941-46d4-8f0a-7e96bfd6dd1f
971a0972-c885-4270-886f-d723101fe0b1,638a2ab6-9f87-44a2-88d4-a757427cc4af
f330e8b2-4cfe-4804-80db-b2fa4ac3a08c,25062f2b-7a38-4373-8fd4-a2afc490f6d5
d83d00a5-7b1a-4090-b2da-2a1562a0fcf9,84078b86-dca8-4fba-aa6d-037667523f8b
d1edc3a1-981b-4041-ba63-3d4f155bcdf2,25062f2b-7a38-4373-8fd4-a2afc490f6d5
2865a13a-ea34-4dd5-b318-64769194888b,3dd8bc5b-e9dc-484c-9262-dd5815736de4
736df9bc-4502-4ce4-8b9b-9a97bb6c793c,cda48ecd-d3b7-48f2-af20-c4ed94172043
795a4cda-92a2-47ff-ac15-a54cd0a0056d,cda48ecd-d3b7-48f2-af20-c4ed94172043
8dfb5241-bf72-4d42-a5a6-ed7957112608,47d66b27-039b-4af1-8f8a-6d59d16e8d5a
deee52ea-ccbe-4f6e-9c16-f9e2e3f68820,50751171-35d4-4f97-ba8a-c8b3f15daec7
f9f37146-5612-4a00-8eea-9b65d49774ec,47d66b27-039b-4af1-8f8a-6d59d16e8d5a
35cb0e42-cb92-465f-b7b1-d83c5634ddb7,0302b7c5-21f6-42e7-9809-039fec1aebe3
a714da69-97a0-4c29-a226-e25f28ad301e,9c2384db-3163-406b-8b37-b7d559e26cbc
1248dbc0-b4d0-4cc2-8c62-11132139ba31,0302b7c5-21f6-42e7-9809-039fec1aebe3
376aa07c-00bf-4475-be68-8e8363047795,0a845652-e116-4729-8f18-e3766d790c26
c133435f-471f-4853-9482-f8dd93c1f2e9,88223a73-57da-46d8-81c5-f09951e52105
6dfae215-add7-41a0-b118-5c861823612c,0a845652-e116-4729-8f18-e3766d790c26
cc0de488-31e3-4ba7-a06e-8c9fffc21a8a,9735c4a2-cf95-4f98-a7d8-ee4ff82da04e
c7691615-cc38-4d70-9959-6ea59dc170ff,c958b6f5-897c-4c02-94a3-4815cebbaa40
25c848c8-7bed-4c8c-a784-1af41164fa4a,c958b6f5-897c-4c02-94a3-4815cebbaa40
6614fc4d-1f8e-4676-b58f-9f6745bf827a,873d9fea-cdf5-4eb2-8e42-faf1a55fec82
e378974d-0fe3-47e3-acbc-1f0ea8b530db,e403ae2b-fbe9-4e32-9b25-c33da6ccb9e7
955bf271-9561-4257-9667-ecedc2da276c,873d9fea-cdf5-4eb2-8e42-faf1a55fec82
0001c4b4-9ae5-475d-bcaf-233d6cc31e7e,de12b7eb-0465-4dda-bf87-e24cbfdbd9bf
46637ddc-bbe3-49c0-8e81-49802cbfd4e3,de12b7eb-0465-4dda-bf87-e24cbfdbd9bf
7cc8326d-42e8-4514-8c74-4d63a7b19964,603573ba-e778-40a6-bfb3-738a6693965e
deaee4de-d7ab-4011-9537-e973389cc2a4,cb224079-cf04-4890-bda3-ecef6bb48987
62cd1bb5-7775-4bd3-a1ea-928eda359464,333b8a75-3c86-4dbe-b3b0-c2582bf6d1ed
29834178-0044-4cc9-bf71-a03dd1dda9cd,333b8a75-3c86-4dbe-b3b0-c2582bf6d1ed
2238dda8-3548-4d33-93c5-807785a37864,eb7293c6-600a-4ee6-ba2c-8a877e521cff
5db8c889-f553-4e7e-a040-4925295b67d5,eb7293c6-600a-4ee6-ba2c-8a877e521cff
c24b3a2b-4cf3-4afc-a348-b5bbd255f9b0,a2413a32-1345-4b3f-ada3-35d14f87a47a
d68d8c45-603c-4ad2-8c2a-628dac4abf94,ca1f888e-358b-4950-9f36-f8e158822238
4f15c663-4d0e-4820-8938-37c2b333ca36,9ca1c49b-5979-422d-b0b9-6740759639b0
6f7c51c2-363f-4f68-aeed-5f0645cd3ff7,ca1f888e-358b-4950-9f36-f8e158822238
41c6f63d-928a-4ff2-97b1-97f0313af810,ead43783-77b7-4ac5-9309-63c8b93811eb
dd90fc2f-1f90-47d2-be75-daf602a13576,bcf4c6ed-2131-4de6-8cb7-4e8e25fed263
7564192d-2e6c-4666-9fa9-7bf59d17f17e,bcf4c6ed-2131-4de6-8cb7-4e8e25fed263
bc4da4ee-4a83-4ca4-a2a0-4f08a35f2b39,70b8f99a-574b-43c3-bcc0-e64b8ea29880
08032683-a233-4094-869d-4422296ebc4e,e34fdea1-0b94-44d6-877a-6ae72a6d7c8f
287db7b2-300f-4d9e-ba11-4f5f4f259b4b,70b8f99a-574b-43c3-bcc0-e64b8ea29880
be1ce8cc-9058-4dcc-84a9-bb671de4f715,638a2ab6-9f87-44a2-88d4-a757427cc4af
68ed46f5-7117-4f52-9022-334bdc2195f1,638a2ab6-9f87-44a2-88d4-a757427cc4af
74036334-1330-4726-bea6-769636bf6366,e8229233-dcce-4174-afb5-4adc8a213137
eea8578b-e361-4f4a-841f-b938a0ff1269,25062f2b-7a38-4373-8fd4-a2afc490f6d5
f67a483b-0b9e-4a25-a7f8-d78d2628447e,25062f2b-7a38-4373-8fd4-a2afc490f6d5
7d18ad09-53fc-41ad-a42b-f3dc81ba5661,445fde3b-96ca-4853-8b45-91ed9baa83fe
b011a43b-3c0e-4140-95a7-65242333ea32,cda48ecd-d3b7-48f2-af20-c4ed94172043
3e6eb6b0-20fb-4b3f-bb19-f6a33f443a88,0b975d9b-cac5-4841-9e7a-bff34ae2f13c
15808322-587c-4cd1-9125-d195220bfb55,cda48ecd-d3b7-48f2-af20-c4ed94172043
41840737-772a-40bb-b381-3f24315ab4e0,47d66b27-039b-4af1-8f8a-6d59d16e8d5a
f3384f68-0b53-48cd-aebf-af4809b08021,af6f7414-85e5-4c2c-a206-72c681c6f211
eb79ebdf-5044-4cec-a72a-f94b5cf1e0d2,47d66b27-039b-4af1-8f8a-6d59d16e8d5a
