app_number,app_id,trigger,burn,sink,deploy_date,token_interval
1,6aa0e2a3-f12d-4e43-9864-c816e45588c1,0fc2a572-f0ff-4ce9-aebc-8f6876bbb648,0b545c73-d71b-47f6-bbb4-565ed0811381,77147924-4570-4094-9ea9-fccaf8d60444,2019-07-16 00:41:38,1.000000
2,63a8bc38-1f71-4463-8d79-bd72915ee596,9459f2ce-edb4-4268-a98b-10ae2c176451,af4de344-8698-4a0c-be5f-bb09e85014a5,6c54071e-fbcc-409a-b276-b4ca0d735cb7,2019-07-16 00:42:42,1.000000
3,ba34c1e3-facf-404e-8f6c-2eacd3133b45,dc90b44c-2179-4b10-9c80-09b0c8bf4f8f,f6d6e954-004d-420b-b1b3-00dcc450225f,740fb0da-5441-4bec-98d0-db556cb0d47d,2019-07-16 00:43:46,1.000000
4,58297c8b-3989-4203-877d-825f40e24692,209a5343-875e-4757-99ef-e3b7332688ec,f9d153c3-d1e8-4fd9-8078-554834f0c12b,6218c8ab-47ac-476a-aaa6-68c515b88eec,2019-07-16 00:44:50,0.200000
5,ce6880fa-7b4e-466d-8409-448380fb90f4,09c25ed0-54fe-4028-821e-f17591a0f4cb,1ea9350a-eb3b-4a61-a2ee-9821cc8493b2,0be8e01d-ab34-411f-9288-47d305dcdbca,2019-07-16 00:45:54,0.200000
6,1f0ce100-12a5-47cd-814e-8383e94664c8,966b7aa7-4de9-4b4c-a04f-fa451635e54d,deb59e92-eb9f-4bd3-a56f-686052be1190,cf6ee459-cc47-4b20-95e3-b1240584fd05,2019-07-16 00:46:57,0.200000
7,f6bf9502-5f16-4f69-920f-017a83b1c2de,d3662872-c0b6-462b-beeb-ce73f84a4f5d,cf848a1e-24c1-4568-aa4f-e1b603b71f57,4c8a7f63-1922-4c25-9beb-0e4a479171d2,2019-07-16 00:48:01,0.200000
8,e461c9d9-7d34-4f6c-8d23-55cb2e692ee4,a377064d-2fa1-4585-92e8-629ae73360dd,a7257563-becf-46e2-8616-4ec51f330546,20e8344d-6e77-403e-84bd-78f4fcb9fdb3,2019-07-16 00:49:05,1.000000
9,8efad4f8-5c5b-44f7-b92d-a99693a5b72e,21ed1e22-75d4-4185-bace-91a963156009,8f891398-61c8-480f-8916-1f7a0affc773,d918eee7-ba7a-412b-9bb6-bce1435fdb67,2019-07-16 00:50:08,0.200000
10,0edcbfcf-5acb-4182-bd48-eab07b48be1b,73815037-dc15-4855-884c-46299a4bf985,35c262c7-784a-45d9-8524-e623f6487779,f8259af3-f5e5-4c70-880d-78fc42be5e3f,2019-07-16 00:51:12,0.200000
11,b630a4ff-c379-4515-98e0-c7fd6410759a,b0d8d07b-096c-4aee-b8b3-23de3ead57de,123925e7-7409-4c70-b0bc-aeecdbd8454b,37438184-12ca-4cea-9850-ceba4b6d0b45,2019-07-16 00:52:16,0.200000
12,c6a21713-314f-4d30-9e58-79a63cf2ebe5,5da0ec71-6d3e-45b3-8aa9-4f030483c21d,5196ec11-48f7-4458-ab1d-26bce5d4a8c7,c0a2c827-d64c-4b1f-8324-187fd7b6baf2,2019-07-16 00:53:20,1.000000
13,f52d51c8-e560-4367-8abc-316d78a524e2,291eddfa-56f8-4fc7-97da-a4b8e722163c,9b7b5546-565a-4c61-9274-4337559b58f6,74708cae-592e-4ee7-a4d6-0b192e58db4e,2019-07-16 00:54:24,0.200000
14,58b890f4-588b-4d6b-bdcd-990ebc3b9df4,90be9264-0947-4fc9-a8f1-3e3f98e9ca4c,043185ea-0cd6-45f4-afae-021811968e11,a963fab3-b1d0-456b-808a-71084a54a6f5,2019-07-16 00:55:28,0.200000
15,ddc760f6-b1df-4773-acd7-f91cfa8efe28,ef78258d-ffe4-442a-81b2-8702afc4c2b5,fbf4be37-caae-4a21-a762-6e0c9eacba97,0ab28af2-afee-44ee-a99e-b2b2c08c348c,2019-07-16 00:56:31,1.000000
16,aec089f9-772a-4a46-98a5-cbe06a2c0ab4,6459cbf2-0517-4628-8404-d589043ca01e,1248c1bd-d7e9-4d83-8924-0a6f7c5153a4,3f1c9458-5ba6-4947-b71b-c83efd5d9bca,2019-07-16 00:57:35,1.000000
17,59b55310-7677-4427-9413-d54c353db914,e461c602-da86-464b-b9b2-4d32e5592c24,f262909f-814e-4d16-b6f5-5c4f84de364b,dd626bbc-9232-4493-b714-62c8750837c1,2019-07-16 00:58:39,0.200000
18,c1273e2b-4539-43a2-b80f-205d2d3576dc,8a8e2a81-744b-49c8-ba3b-6f9a2eff83ce,85c05694-be07-4d78-a5ee-635f6eb4648f,f590ac37-b31f-4d2b-83b2-83eb149861e5,2019-07-16 00:59:42,1.000000
19,f4f5ed0b-d6e6-44d2-8401-fddbbf32a05c,8b3dcdd2-6067-4712-89f4-ab5361a4e0f5,9b65c9c8-dded-438b-977c-e5f4ebf516da,e340d3ad-8c15-4fe5-973d-fc1a73cc7fd2,2019-07-16 01:00:46,0.200000
20,727a8da2-f907-4a3c-965d-ce8f96450e52,3c6542ee-08eb-4656-a4fd-ca4451df2c4a,55b62b5a-69aa-44df-9d5d-49cdb447e0f9,aa5131e7-e786-4665-9f77-841424fa0179,2019-07-16 01:01:50,1.000000
21,284431a3-d2df-406f-9496-cf19e3b4ee32,15283545-ab22-461b-a943-60e12e009971,7442c246-2fb8-4564-8409-c07df9225a87,556b8300-7eeb-4601-b623-d17582b4e34b,2019-07-16 01:02:54,0.200000
22,434520bd-1943-41c3-826e-8a476d0443de,35a277c5-bb10-4007-9734-6de0058a92d1,bf9afdce-a377-4406-9aba-83f0d1390916,f2c97bc4-340c-45fe-b1db-71c925d34ba6,2019-07-16 01:03:58,0.200000
23,be722940-2e7d-4f2e-8c8e-2975cb05ed06,fd0933d4-359a-4b94-81e3-426c5d5a7001,15b7fd4a-24b5-4c17-a3b4-592c9ed72652,045101e1-372c-4a88-8264-f28bf50c5aa2,2019-07-16 01:05:01,0.200000
24,b851d144-7e25-4f58-92b4-abaca87a6812,77e409e4-b21f-425c-a5d0-6abdc02908e5,30b846ff-c98a-4bf3-848a-6d6e744bbc1a,0d99c48a-107f-4a28-9b81-36fd17986249,2019-07-16 01:06:05,1.000000
25,3dd088be-a6cf-44ab-bb06-7c9922cfdc6d,5485246a-d932-4194-8efc-67c0a3194de1,ecf60af8-90ca-4559-b3a0-97e7f058a0aa,0d86f1bc-9485-4ea7-b135-8d9253ea3432,2019-07-16 01:07:09,1.000000
26,eee913c1-d0e6-492d-ba45-8594178c6bd6,b09a407b-428d-48a5-b93a-157dd254b115,d99ada15-58fd-4eec-997b-0907fb3ba4d8,bbfc8512-e7a9-42f8-a982-b82d3c59fa00,2019-07-16 01:08:13,1.000000
27,d97f0d45-63fc-43a2-b778-a8ec8f139943,d54bdbd7-b304-49f9-9bbd-4a058dae0c8f,f06ebbca-92e3-4e8a-999a-0e11fa08ede7,b9161336-3bab-43c4-8396-d8ed87320fcb,2019-07-16 01:09:16,0.200000
28,0b5be738-8014-4905-a294-abfe24a9e281,74f0f6fe-076c-449c-bce5-84ad4deb52a3,1e93f6c1-1d1c-43b9-a950-7f252014f9ff,5cef6ed4-126a-47c3-b644-63661d820b0b,2019-07-16 01:10:20,1.000000
29,173ad644-9e75-49fc-aedc-6f0b92400428,f9a8cad4-850a-4796-850e-0fddff9f9b42,1b65b76c-c791-4d0b-98d8-3d801f062a63,c564ea56-2342-4f79-949b-b2f446bfc362,2019-07-16 01:11:24,1.000000
30,5f40e216-3fec-4006-9d78-fd04b16ba239,66c3de82-9b0b-4a83-8111-b24e85d347b5,31dd978a-ac1d-402b-9ac7-8f10d2d6431c,0a151c43-f332-4658-a639-d782b200f23a,2019-07-16 01:12:28,1.000000
31,0e5d0438-e496-400a-9a93-6a5ff1b95371,45b62591-f75b-4f8b-8dc6-e35fdb7ed391,29c84f37-6b2a-48e4-9c17-10b589e74a16,fd547975-e2ed-4f1e-92de-7f7baa45cb98,2019-07-16 01:13:31,1.000000
32,0f43c5a9-54a0-4c0f-8e54-6ba6f4d6e6ff,b202e71f-91cb-42a8-bfb0-a6f62bc91851,edef6d8a-ecf5-4afb-a95d-429a2b2086f8,8a39ff07-b0ed-4741-b5a0-b5d1add01281,2019-07-16 01:14:35,0.200000
33,4cf0f513-72e6-4e06-b0f3-6d9b555b5a43,62459144-109e-408f-8757-426f9133c971,f599aad8-4e6f-45a0-9d7d-40760c44c17b,110f4d66-92b8-496e-8788-714f1702a468,2019-07-16 01:15:39,1.000000
34,b503a932-b339-4cd7-8ee3-767665c5c219,fddb2a35-9e05-49cf-887a-4f9a9742b716,23a984b6-0332-4622-9024-c52e48c79414,a5b7cad9-89e6-4d16-ab26-72e0b0c9fba0,2019-07-16 01:16:43,0.200000
35,40f95468-2172-44f3-9a3c-87eff020a157,b1206553-8d2e-4a8b-9eb0-25e201ce73d8,98a36d73-727a-425d-ab7e-1fdaf3452733,3c42f274-5ba0-4fa5-8125-c4b5da9c74fe,2019-07-16 01:17:47,1.000000
36,84e14407-3e22-4ee6-9233-5ee53de8009a,85bd14be-ae2e-4cb4-a00b-813522f95f9f,3c5d2f00-e5cd-4591-90c7-e6917b97f313,12bbf6e5-2be4-4138-ae0a-46f56dd8b5fa,2019-07-16 01:18:51,0.200000
37,d1ecedd0-f453-4170-b53f-c425f8c90e8e,10a919bb-ebd3-4cf3-9be4-a508048bb030,137b2cef-58f5-4f07-874a-efc3a3b50168,279c26e6-d3e1-437c-86b8-3d70d682921f,2019-07-16 01:19:55,1.000000
38,540a5812-4d7a-488f-9783-291ea9fbc57f,069ed793-0aa4-425a-85b0-ddb254b07519,e3bad803-e99a-4489-8561-aead6b7341cd,a096c6e9-ebc5-4158-952d-600829fe6d1a,2019-07-16 01:20:59,1.000000
39,d883bfc3-2dcc-4326-8546-67458ede2744,3109df83-deac-46b7-bf61-a5dd039f8595,7e279e22-f753-4927-b7ee-755da4c3e14f,94a1f003-a101-4e59-b891-3aa295159e59,2019-07-16 01:22:03,0.200000
40,dfa3b48f-522d-459c-822f-64d05499dece,024970af-16f8-4729-9fd4-87e5f40509f8,fc4aaa9f-ad9e-4ef4-af16-f20c6f612ac9,3b8fa194-df84-4634-bd2e-208281aad069,2019-07-16 01:23:07,0.200000
41,d64b510a-c187-473f-83aa-6f17bce33c95,c51ba75b-4197-4865-86e9-de18dde0f0a4,a0f9a763-213b-4e63-8944-3eab3467d295,d2589fad-b3f5-4721-9e59-60382644f42f,2019-07-16 01:24:10,1.000000
42,b54f6be2-d8c5-42ed-a1e4-4a2c854d4983,d40dcd76-447b-42b5-860c-3b7c38ee72f7,68222a34-f8af-4c4a-bfbb-5cdeadd548e5,3d9a0f9f-d7d4-4634-afc7-0a04c503878b,2019-07-16 01:25:14,0.200000
43,0f77eefa-2b11-472c-9bf9-ffaa5c9da5e7,e27becb8-7f6b-4de2-8423-8c4f29a1f483,890b5df9-1365-43cd-8859-4b9c0dc43642,5ad892a1-5695-4c51-9c7e-8988c33dccc0,2019-07-16 01:26:18,0.200000
44,4bb5580f-5d72-4143-af7b-e938cdfad1a8,f73d7bcc-c2a8-4fce-b989-8a869db388f1,6b8ea665-3b76-41e2-ac34-ed7782d3c223,11ae9fc8-d2f7-4016-9693-dcf8a32c15d8,2019-07-16 01:27:21,0.200000
45,811111ff-58cc-4450-a473-e27838b34917,feebf396-d773-4053-821a-18015d626385,24b7755b-f5d3-4dae-9efe-96767c666e13,7f225d3b-0b59-4a62-a096-842ea885e993,2019-07-16 01:28:25,1.000000
46,bbd7b43b-1126-4d98-adca-e41f4af057c2,48033ccc-4992-4fd7-bdac-ce5d006f572b,710b5d5e-f76d-4e7e-bf2d-7ab88b7761d0,11b68ff3-f484-46a6-a006-1658d08a033d,2019-07-16 01:29:29,0.200000
47,4caae7d2-5633-4415-b550-adf78ef11264,04b14bc6-7e73-4585-845d-db3d9b379216,500c56fb-5de5-464c-adbd-94726bc6e847,f123a5eb-f482-496c-98c1-e4e1a92a1b1f,2019-07-16 01:30:33,0.200000
48,6dcc6088-744d-4a33-87a7-3acd580a52d8,1f0561c1-f6b0-430f-ae76-0ee90aa75aa1,25ff96c6-2557-473a-ad66-c10b75777ee2,e80258f6-4476-4ce0-a679-43832aa3bf8d,2019-07-16 01:31:36,1.000000
49,d60f5a7a-9eb8-42d1-8559-ade1d0f403cc,d85f5a60-2326-4471-9646-d3cc582efb22,981786a5-c950-47f9-843a-79d1823c2d33,dc7b7195-5148-43a8-a28a-b2005bf58cd4,2019-07-16 01:32:40,0.200000
50,15c13ca3-a637-4980-9084-b9dc1749d447,85d80ab4-e7c4-4ab7-9ace-a1afd88e9880,d69514b5-a3ed-4c7a-894e-dd5b459bac31,1a22068f-cc25-440e-b533-7a7a51b28c84,2019-07-16 01:33:44,1.000000
