actor,node
b21bd704-718c-47f1-81b1-ee9f757c1cfe,fbc115a8-5085-4f00-b51f-c6bc7616829c
f9979cf2-ef19-42fb-abbc-155b29ac9ef8,ca5cfc4a-150f-4889-87cc-758075c59dad
5d25877c-97d7-4632-b8c4-95cd7f346896,fbc115a8-5085-4f00-b51f-c6bc7616829c
afc5fc5a-3bcf-4b2a-aeb1-19351afac7d5,076b2cf5-e714-4f75-821c-65d9887dd838
b962e6d9-02d4-48bd-a127-8d8eae474ffd,6ddbbf18-3233-4bf3-add3-50d05ecafdd9
2e60ad5c-2723-4ea6-b829-cc37f6b4cd10,6ddbbf18-3233-4bf3-add3-50d05ecafdd9
fbd2f192-4aed-4110-b51c-43e5e733e6e9,9085cf7c-599e-4704-8192-d36e5197fb42
fdd3efbf-60b6-4a82-97b9-7e79305dfcce,6ddbbf18-3233-4bf3-add3-50d05ecafdd9
2a8a611f-0f61-4008-a375-abe1d43270d7,6ddbbf18-3233-4bf3-add3-50d05ecafdd9
e2401cb9-eab4-48e7-9a92-318ae7b7be8d,73cff2fe-bc83-451e-a01f-1b54e0dbcf28
10f1f023-87fe-4824-ab63-15732d654353,6ddbbf18-3233-4bf3-add3-50d05ecafdd9
bc598e11-f344-4346-a754-ae3ae675e11f,64311692-9334-4898-a7e0-6924bccb3f3d
ce4ff93e-4fd9-4e86-b944-771984ec3364,4a049def-5c55-4c6f-8e05-a9841f580c0f
14eacfbf-da64-4556-b777-e434bc930d8a,e25e0cf7-53ae-4d73-a88b-3cc6a0c16661
f213534a-81d0-440d-a973-8c052fd85d6c,4a049def-5c55-4c6f-8e05-a9841f580c0f
b6ca1c5b-3559-4066-89a8-edfe53813d39,e064ddec-746e-4ba3-b66c-21d91248ef85
40f1f69e-77a6-419a-a215-2b8d708db5d0,e064ddec-746e-4ba3-b66c-21d91248ef85
f28bcd93-7f21-4c36-89f4-afdfb3ff1b15,56d117ca-4207-4bb3-be7e-52c667cf3ed5
eddb8c20-329f-4ecf-8754-0c963a1ee71c,209f8be6-f803-47fe-a2e8-5cacaab4a3e8
75318fcb-729f-4661-8ef3-c6553f7f80ac,53983ee5-feeb-4605-913f-79ff05576a2c
eb0db63b-5f2c-437e-9809-70d9972cb3f0,24e953f4-978a-4883-ae06-35f9479edae0
3f286f06-d2f3-4d61-b49a-5b8d90094494,8c63c257-f9b2-4779-b2c1-9e97dd45a727
ab19d7a1-33f5-49d0-b207-4b5ddd0252b5,a05f94f0-4d77-4828-9c30-982096d12a5a
ec4595b2-47e6-44c3-bbe2-bce0987bab00,a05f94f0-4d77-4828-9c30-982096d12a5a
876660d2-14a7-4d9c-b38b-42da8bc8daed,209f8be6-f803-47fe-a2e8-5cacaab4a3e8
2e17893b-4e23-47cd-97be-b5f60a475806,209f8be6-f803-47fe-a2e8-5cacaab4a3e8
7c64773f-28c7-4f6e-b533-4bdd846e5cfc,797ef6fe-7e27-441c-9bce-a9ad14bb7d19
69e1c24a-d699-4680-9c4d-c594dc56a60c,feaf3391-f6b7-4599-8fa2-b88b4730ec2f
5c156d20-23a8-4ab9-85a3-903c829371fe,3b874a95-ee1e-42c6-9570-b347ac86e683
4bb92d7d-2460-4afe-a385-48c5d9c0cc43,3b874a95-ee1e-42c6-9570-b347ac86e683
829185cc-2754-489c-ba8b-94aede7fc0d0,6ea7f56e-8914-4941-af1d-6f2b9fc19415
9b806954-6663-4374-91db-e0cbd30be705,0c348785-2281-496f-8520-4357513ead70
a9c70f4c-7c8e-415b-bc8a-6792ba60e5fb,6ea7f56e-8914-4941-af1d-6f2b9fc19415
a1cb8e38-aa85-4d00-9625-de4a9b4fc228,0971bfd4-c0d7-4ff9-991f-5ce2ea1f5bc4
d9695f95-95ab-4ffa-bbb2-469143f3fe12,ca0df680-ec1b-454b-93bf-63e7a33b979f
8d2e86ab-178c-4e7a-a56d-94c0f926af5e,0971bfd4-c0d7-4ff9-991f-5ce2ea1f5bc4
445ac30e-f395-4fb0-aea5-51f5078dd8ab,50febb1f-9e68-45aa-9dee-1255ea314a58
7ef6341e-448c-4871-bff0-cbcdd08cfa82,3b874a95-ee1e-42c6-9570-b347ac86e683
16776bbc-3f59-4dd3-8bb6-5761c93c7f40,3b874a95-ee1e-42c6-9570-b347ac86e683
093cb395-1ebf-4a6d-a290-f73bca9d2400,0971bfd4-c0d7-4ff9-991f-5ce2ea1f5bc4
9864bcfe-438a-44c5-8336-1537af9e526c,0971bfd4-c0d7-4ff9-991f-5ce2ea1f5bc4
a48918c6-573c-4b91-9bbc-9d73c76e6531,e48459e8-edc7-48c9-a740-1a1beb43f5d1
af2dd9ad-20b6-447d-93f9-24da14a0d2b4,939d8dd5-8199-4e53-83f5-15e54b00b11d
9e22abb8-1a6b-443c-8c27-6930fc3bc0d7,6a4ef742-acd5-4c28-bcfc-11c550b2b91c
c2608ce8-5653-4198-8882-55d0b14185b0,939d8dd5-8199-4e53-83f5-15e54b00b11d
305e21d6-add0-40c0-8463-a74a00048fa0,31a77745-054f-4d9d-bf0a-9af5f03f9274
a987d07f-6614-4e0b-8367-9f4a2589fec7,31a77745-054f-4d9d-bf0a-9af5f03f9274
ce19c3f3-89b4-4b2b-8d14-9f94598141ec,04cfc5bc-0661-492a-85d3-a775520fe6f1
19e49e4b-2451-45a0-b00a-aae4b5bd79a8,b12674b0-1749-4c9e-aaca-fd5194aa1978
47ce69a0-0c26-4f5f-9233-de80bed5cbff,209f8be6-f803-47fe-a2e8-5cacaab4a3e8
b3fd610b-733d-41fb-b875-f51a173c63a6,209f8be6-f803-47fe-a2e8-5cacaab4a3e8
295c12ad-93a0-4aea-b7ee-73f58fb996d0,f1656eb0-54f4-4cb2-a432-872db5431f46
b7264796-e903-44ca-89ff-25eb725910fc,939d8dd5-8199-4e53-83f5-15e54b00b11d
356add35-a102-4e1e-be4d-18716544e135,939d8dd5-8199-4e53-83f5-15e54b00b11d
6e9c5773-67a9-4332-bfb0-c4c018b98c9f,31a77745-054f-4d9d-bf0a-9af5f03f9274
06e42c5f-7dee-42da-8162-03e5160fad53,31a77745-054f-4d9d-bf0a-9af5f03f9274
48da5ea3-de85-44c0-b3e4-88b17df20dcc,b7d1b6fe-5aff-40f8-84b7-fffba9c4a73b
8792292a-f3d3-47d4-bfdb-877481880e64,31a77745-054f-4d9d-bf0a-9af5f03f9274
a6505121-40e5-47ed-baef-dc74186bce15,e58d99ae-1194-4c4a-b613-8773a4024f7e
26e54993-0416-4637-b48c-eab2c0178b87,31a77745-054f-4d9d-bf0a-9af5f03f9274
81d860b2-a2f5-41b8-a39f-77dd39236060,87043a8a-3092-47e2-aa99-d5d8d4cce341
52ddd819-cf50-4a65-8da1-53c1e0c5531a,fbc115a8-5085-4f00-b51f-c6bc7616829c
a6f7e942-1b8c-4a78-a168-47d3d4c3eddd,fbc115a8-5085-4f00-b51f-c6bc7616829c
056bfc7b-e40a-49af-9f27-e34b00c63ba1,f928a3ab-1110-487e-b616-0c2784a9e8de
1bfba23a-e601-4d1e-bc95-d9093be21c25,fbc115a8-5085-4f00-b51f-c6bc7616829c
e0657d5b-1bf1-41be-8b6a-c2ac8540ef4b,64311692-9334-4898-a7e0-6924bccb3f3d
3f0ad5b6-22f3-4e04-96de-44bc19bc206b,0971bfd4-c0d7-4ff9-991f-5ce2ea1f5bc4
c54a4988-9b92-4179-ab78-1e02ac8e4f2c,51228c03-931f-4c0b-8a12-a5a7dbf32566
19412d2e-5550-45b8-83eb-4dd3977cf24d,0971bfd4-c0d7-4ff9-991f-5ce2ea1f5bc4
3b18d553-f8ef-4645-a33d-536d9c4202a8,22f5b57a-4adb-4611-b44e-ec0c384e9c68
54a7fb3f-beed-4acc-9f0d-278c5c2d48f8,22f5b57a-4adb-4611-b44e-ec0c384e9c68
b9c86de4-0151-4fa9-a2e0-fde60b751a2f,2558022f-bd1f-4bbc-9ab3-bd93f8e923b9
aedee62c-a6aa-4676-bbde-95dc9703b69b,64311692-9334-4898-a7e0-6924bccb3f3d
c82dd5fa-16d6-4813-88f4-e850cf3c3fc0,b8fa676e-77b9-4d4f-984c-03c62dd3c494
f0fa46bd-8d70-4fae-b0d1-146ef4107bf0,939d8dd5-8199-4e53-83f5-15e54b00b11d
