app_number,app_id,trigger,burn,sink,deploy_date,token_interval
1,04faaf18-429a-4b45-89b0-fb8bab6edcd4,ed234c14-72e8-473d-abdd-a9b3c93e7841,61a554f6-e84f-408e-a11f-3b77a26f5d23,f5cf6a29-2c6a-423a-b7a8-c5722b95da6e,2019-10-29 22:14:43,1.000000
2,407e08db-603b-4100-ac2d-6f1a86daa301,4072ed08-925a-41fa-8878-b99adb2ea2a0,4fbe7752-a6e1-40a1-9c24-c9e090e00606,1d94c604-ddbe-4672-839d-598aa034bb55,2019-10-29 22:15:47,1.000000
3,a5391807-29a2-4972-8d17-afd1a260edc1,1e248f8e-cc98-4200-a3ff-b6256ce6384c,873b6575-2242-45b7-9cd5-738b6f6b6986,d11ee5fb-794a-4504-b04b-474f06c1173f,2019-10-29 22:16:51,1.000000
4,f1c10d20-5c3a-4901-885a-ab3903389dd3,a9208a9c-766f-4089-815a-4f2d531ce0ef,3bcb7160-ae72-43de-8c43-c5e20fa02484,f71422d0-f89f-42d1-bee9-f1892f334c6b,2019-10-29 22:17:55,0.200000
5,4db84082-0f4e-4094-9076-371f44a116d3,a01ef681-16fa-401f-92e6-1a9a9cc26693,e84b47b6-0afb-4020-baa5-b0ad3916dd18,6a3991a7-dd0a-4117-8663-3706781a489b,2019-10-29 22:18:59,0.200000
6,5c836f27-1be1-4197-bab0-d7b99c9fb5d6,ac406ec5-1079-4376-b193-b614073e8d48,06e95f4f-69c8-434d-9fe5-2ef9d71f13a2,020ed914-da98-40f6-91d1-f47577f21465,2019-10-29 22:20:03,0.200000
7,482db58f-b097-44ba-8adc-ae8a0891826d,dd6a6589-39b0-4e7e-91fe-a0a004b2bc4e,ba9efaa4-8b2a-4bb5-af00-8764df97bdae,bd87435a-78f2-4d98-923d-ca38967c92b7,2019-10-29 22:21:06,0.200000
8,789a05f3-1bdd-46cd-a7f6-18ba85261fbc,97ee625d-ea3b-49d7-9737-5240444da0ff,c5751fb7-3f5b-4997-a46b-ce932b931fdc,6047a1be-2016-44ef-b531-448939e1b6e5,2019-10-29 22:22:10,1.000000
9,9a46df30-2045-415b-8587-1e10c5bacee2,7109504a-a542-4a48-934d-5abb5f07c31b,7d0e5cd5-9863-4b53-9fef-fc3a29f85547,57edc162-499e-4fed-8e70-283495c80416,2019-10-29 22:23:14,0.200000
10,34864255-78f4-4b7f-b71e-68dbd7415ffd,c077d0db-ec26-4db3-9fbd-2a48ac288482,b6889f8d-d407-4d60-b8b6-6e5f9ba19808,c6f4700c-5376-4fdf-b429-27c748cc99b0,2019-10-29 22:24:18,0.200000
11,519bb767-dc63-4f6f-91ec-50bad84e87ce,df0e7124-0709-44c4-b03b-219770513bc7,2979e076-cb17-49cd-aa4a-cfc7c35fe81a,994e34e5-c78d-4ee4-90da-db888603cc90,2019-10-29 22:25:21,0.200000
12,6e2a24aa-ed66-46f1-a4d1-f43b518cb1bc,6d4f5a1c-d208-4e00-a048-303e7f10f2e1,85645ca1-47dc-4afc-8ce5-bd2d54baf175,45588401-c349-4e99-b84e-1511781e8f3b,2019-10-29 22:26:25,1.000000
13,6abe1955-471e-420f-b43f-b87d037d0dca,f0665c41-5e40-4768-b2e2-3494663418b4,6a499ec3-d4b9-4384-930f-cb2bc80d3a7a,e796ad8c-4f6e-463b-8991-d96914345c84,2019-10-29 22:27:29,0.200000
14,81e88a8a-2789-41a9-91d2-138220d4bca3,b04e1ae9-a622-4734-84bd-13b973913796,d46808a9-8ea6-4d6e-a632-b9697a12c3a8,2ac6b410-ada1-49e6-8d39-833f0f758bfb,2019-10-29 22:28:32,0.200000
15,9111c19d-3b63-43bc-8474-a0498427da1d,86c89115-fb24-492f-a08d-5771b4414334,09f2be70-4cb8-4f8c-b620-62895ab9987e,ca91d410-44c1-4d1d-b77d-deae6c17ea1e,2019-10-29 22:29:36,1.000000
16,d816bf0d-d6a0-496d-95a6-c1c730e66173,1d36f5ba-801f-4100-88ed-a488e6d5b1f4,bd12fc0e-2e44-415d-9695-64370ea37971,836539aa-7730-4fd6-9b5e-41dda365cfb9,2019-10-29 22:30:40,1.000000
17,bc05c1d6-1acd-40c8-aa84-b90e88125f2d,91d5f519-ee69-479d-8cbc-5d7dcde63081,f5234dec-d463-44a2-a31a-2fda59b1341f,cea4e5de-d1d6-4881-9aa5-2eff19a1e853,2019-10-29 22:31:44,0.200000
18,96446df2-6fa1-4172-8fb8-7b7999aca815,29deb1f9-f428-475c-9991-a21127b942ad,eb86d1ea-5af6-4fca-97c2-337c31c4961e,ac6efb12-cd4c-4ed5-82b3-9c104808496d,2019-10-29 22:32:48,1.000000
19,57f46937-481f-44d7-b3c4-7885d0d7e94e,ddb37607-6bb6-4e0d-acd2-b57ed46c3467,59a976ab-fa38-4505-ae26-eb19ea0ce1ff,acd4382d-9266-49c3-8fae-83e900da4c53,2019-10-29 22:33:52,0.200000
20,8163523a-17a6-4ae1-9b97-bf43abdc86aa,eabb69cd-d7d5-450f-af33-7ddc1c137b3b,59d000d4-270d-49a6-9d12-6a9107e165ef,dcd7bd2f-0959-4800-b068-b45c8c780898,2019-10-29 22:34:55,1.000000
21,36ef537b-3b61-4a43-a43f-f0a53b0613b7,e2ae4013-5894-4d87-bb9b-339f086a3bf5,ac07a054-376e-4745-a8ad-6887bdbd18cc,ecf5bbea-6fd8-49a1-8ad5-98af6e1d51c8,2019-10-29 22:35:59,0.200000
22,d54d79d6-dc2b-4c6d-a0be-5a1e3aefd930,c34463be-e10e-4f14-839f-17982a03bf22,fd168893-53bf-4c67-a713-e936bd3fcf7b,e4638265-7cb8-4afa-8aa3-054f8a70e828,2019-10-29 22:37:03,0.200000
23,a0c3f55a-1313-458a-98f6-a158b816f471,e5250aec-fc62-458a-923c-d89983f0dd7f,ca46b89a-ef60-4791-87ae-9a97fd8277f6,85d60ddc-4aa7-40f4-8cc5-fb5699eb88f2,2019-10-29 22:38:07,0.200000
24,ec5066a2-2af8-4064-b518-116e9d407b69,a5a2f6a1-2028-447d-bd43-20064fa577d2,783cd2fb-6af8-4195-ad52-07efe627c490,acfbe971-9210-49ab-90e7-b56e69f4861d,2019-10-29 22:39:11,1.000000
25,4f285c67-52c0-40ca-a45c-ae132b22401e,ebed14f7-6700-47c6-8a81-e9122635f9a4,f1301845-10c2-4d67-a7cc-e51892402257,679fd68d-b8bf-4c11-a5b7-255eef72c5fc,2019-10-29 22:40:15,1.000000
26,4825bda6-6f4b-4aba-91c8-bdab42adb865,472ecb1a-0047-42c8-ab97-97bf77c65cf4,954444ef-218d-44f3-bf81-a716b8fdf808,8553f5a7-b483-4b25-83b7-bf4b97a0b2d2,2019-10-29 22:41:18,1.000000
27,5796ee83-8a22-4a77-bd15-fab6e6929232,6f89f95e-84d3-41bd-ac02-866d165b410d,2610b7fc-28a8-4a50-9078-54e9be26234b,03b6581b-9015-4a1f-b8a8-b43db2cae831,2019-10-29 22:42:22,0.200000
28,386e27ab-9f91-4dbf-8a2e-64aef065de98,a09ffb62-c98f-4f8c-84f1-d33c2949f2e7,ffc231b1-46bc-422c-8475-9e1691a4b5a8,91b656a8-6dcf-47cb-a6b7-8c841285498e,2019-10-29 22:43:26,1.000000
29,3e66b949-ff2e-44a4-a592-5f6e47e3f6c9,092a4562-61b1-4231-9f9b-a186061d179d,0ae7c43c-61a3-44bb-82ae-dbeaa624b67b,15082f22-c19f-43cb-ac61-485d7f4c60cc,2019-10-29 22:44:30,1.000000
30,e6f6b12e-212a-47b7-afd2-921014f96e36,a59044ad-20bd-462b-a366-dfa5e2f8c5b5,7dea2fc4-2247-4325-91d4-59ce05e89042,d97e38e8-1d61-4f92-bda2-71344aa6ae37,2019-10-29 22:45:34,1.000000
31,80d1255e-135d-4240-b781-ad42c01c8f49,c515a1c7-0301-4508-8bdd-b4811f99b500,fbb58ec1-0048-4ab8-8a32-6d4339e941a7,b0c27ed0-cfd6-4820-ab20-c25b03bd591f,2019-10-29 22:46:38,1.000000
32,b1cf04b9-569f-4568-acab-6ea4608e4f72,45318f05-f7f0-4a71-93a9-9c9550e80aba,6b02285f-933f-4285-9097-17ea08909b00,f62b5e31-6752-45dc-a21f-5e21b5adb7fe,2019-10-29 22:47:41,0.200000
33,9378cf5c-50be-4bb5-958a-7af6aaafcc93,1d8d3fa5-c8e7-41f9-a07d-3576923ec9e8,dbf30863-c545-41ff-8bfc-9696ec0e06a3,dc47401d-5e51-4041-895b-9e7bb34a6198,2019-10-29 22:48:45,1.000000
34,8ca92052-7bf5-4fcb-9a56-3e30ea50c310,28423dd7-bf72-471b-bfde-18bd4e92f7fc,525fbea0-cf0e-4847-bfc7-ea87d5a2019a,1ccaa007-2159-4302-800f-fd469eb4f297,2019-10-29 22:49:49,0.200000
35,0c8a9590-ed02-4d33-9d70-f1793acad38c,e6eb3222-a46f-4dd2-a13f-e471a0f185ec,423150c6-a263-420b-b439-672f0bc63100,01758ed0-9b1c-4837-a862-6bcb9bc9bd56,2019-10-29 22:50:52,1.000000
36,30a00cc1-62a7-4ef9-8ee0-1b6891252a0b,cc214f79-8e5b-4151-b801-1f0c32d3263f,589b0095-d3fb-4c48-9865-2c8a908dfd10,d7d71ae8-f34a-4b2d-be61-a184a2eb9f6b,2019-10-29 22:51:56,0.200000
37,8dd9c1d8-9bd2-412a-9365-aa63f284ecc8,32cbbbe5-3caa-4f81-a5e5-47d494b6aa6c,f522e7db-9e1a-40cd-b7fc-b4a94a9fb817,4a44c740-accf-46d6-983d-bd660ae12ac1,2019-10-29 22:53:00,1.000000
38,496bea28-b6f3-461d-8df6-95f997d1b32f,064dc3d5-17c2-4073-af81-1a5efcb61d8a,bb3da6db-1e64-46da-9e7d-606757ecd160,9abdf0e9-5483-449b-a8a4-484962316b97,2019-10-29 22:54:04,1.000000
39,59769fcc-387f-4cc5-9ee7-7842a08208d8,dbc239fd-d105-48fc-b9f9-99f7d2ea0b75,84fd8adf-29d7-4ce4-b0e6-2636ea6b6ddd,c85d3333-1028-465b-b55f-671940360734,2019-10-29 22:55:08,0.200000
40,56b825d1-dca5-4bfb-9b5e-6cc011977890,244dcabe-529e-4bc2-8fc1-0af1e60533ee,7a7fff59-e930-4a50-aa88-0ff6ce02e2c8,fb4100c1-6231-406e-a96d-02e39303b822,2019-10-29 22:56:11,0.200000
41,827df139-4b50-4477-80a4-bcc11c46b28d,e67f2bf3-b46d-4362-aab7-675cb2b0877c,3d84d4f3-9633-4771-a4bb-0afe3329769d,12fb021a-a22c-4968-8608-0862d15310c6,2019-10-29 22:57:15,1.000000
42,982482fe-5153-449d-8795-a31021457b6c,171af1ee-d3cb-4891-b7ba-3880ec652999,0839fff5-6e65-480e-a10c-9b9d5e00d2a7,03dbf92f-adcc-4c59-90e1-9c3d83b23e93,2019-10-29 22:58:19,0.200000
43,9f70b15e-275f-4683-8a4a-02e21880051e,c170acce-cbcc-40ca-bf97-6d884a2fcf67,6bad6b73-5c16-4b06-b612-b94fcc6f254d,209d4f57-1614-44b1-a2d7-b32dc42b6bf0,2019-10-29 22:59:23,0.200000
44,5418198f-f6b4-40a9-9e52-42e3f2a7824a,7e2b341a-7061-47ef-8af5-87cd4dfa5472,dedbdef1-2de2-4aea-94f0-309f566e3a1c,4559cc1e-2587-468a-a4b3-ad2308c1bb0a,2019-10-29 23:00:26,0.200000
45,2aaad53f-ca7f-4ac7-afc6-5ec8d86901e7,101476cd-711c-4b84-b6a0-f558d9c8bb56,e1899630-d942-4cb7-a457-48cbac091ba0,f301701f-7dc2-44eb-9e31-401b0cd3b2a7,2019-10-29 23:01:30,1.000000
46,d4c458d9-3163-4d14-a6ce-8b50960a373c,6dc2dcf3-d629-4b57-a3ee-eccbc3487f0f,268595e8-00c7-4ee4-a0aa-6e6ebce7265f,06f0c9a4-7eb0-4d7c-b4f1-209ab7e493b9,2019-10-29 23:02:34,0.200000
47,d5b751f2-54c4-463a-ae51-3aeccbf1f24c,16c772be-44c9-4f06-a334-2bda163cf3a6,dd6d770a-54eb-4971-aee6-a52c74c6a7ae,8d439d3e-f452-454b-b5d9-79b95ad030f9,2019-10-29 23:03:38,0.200000
48,4ed066c0-b97c-451e-9881-6a416bb53a58,af119f6f-ef46-41ba-96cb-94c7080a08ba,b14b2bbb-97ae-4e89-9dd9-70556c03f738,89a68dcb-03aa-4cac-810f-447f745b0866,2019-10-29 23:04:41,1.000000
49,179fa9e1-8ddd-4d07-9fa3-2bf07c9613b4,7914d1db-467d-413a-8a78-375a3c12d371,b5bf1537-c07c-42f3-997d-e56e9ac78a05,6066efd2-d897-40f4-9672-843513b2d7fe,2019-10-29 23:05:45,0.200000
50,cdaa1766-68f0-4a3d-ace4-3900a63b5f35,a0e34064-c7b2-4bb8-9b1d-be8148ddd34b,5d7d037b-ab44-4acc-b94c-4ee30bca0adb,2fd440b5-a6ca-45c7-bcbf-dc755c13dc8b,2019-10-29 23:06:49,1.000000
