app_number,app_id,trigger,burn,sink,deploy_date,token_interval
1,cb5d5dcc-c206-4148-9532-fae6fe6c3aec,6b49de23-5238-41bf-af13-e402d508c876,0aa1e170-260f-4d2d-9a96-84df08afc701,25461afb-6aae-4332-ac60-e3b690717b49,2020-02-29 11:45:14,2.000000
2,1881bc0f-dd1f-4ad7-8fce-e3507e3554eb,dd12d080-55a3-4409-8255-122c5f7b66bb,ca3d3de6-108d-41b9-bf65-cc4853cde2f1,f4255e67-a7df-44db-975e-5ec588912296,2020-02-29 11:46:17,2.000000
3,ae54dece-2ba0-4a2c-8866-b995ea408dcd,840b71c3-1e9c-41ff-8c2c-8cb1254e0e3e,1c80b4d5-088e-45af-88bd-43b96e64a02f,40e04110-7548-4a47-8bed-8312917b9734,2020-02-29 11:47:20,2.000000
4,f23c9c24-cf5e-4761-9b23-9bd7a81e53f9,e6e21d22-b9a4-4fc0-b179-9bb697305015,2cc573e3-56bd-41c5-83cc-84f300d294e0,cf51a1b9-aa99-44d0-b2cc-82e8932711e7,2020-02-29 11:48:23,1.000000
5,030bde31-05d1-4069-a280-ec267885f389,39592052-df90-485e-b05c-d08d4c15d20d,a59cea86-3bdb-4051-98b0-fd44f8b25112,846b497d-a29a-4c5a-b705-b47c97777854,2020-02-29 11:49:25,1.000000
6,5a9caf77-91b1-4afb-a3cd-0a9aa1281ec1,78e3dfc2-7d3c-48a1-a2e6-bfc0965dd062,e270f72e-33d5-4291-8cf0-b82bbdcc9dcc,312696d1-9551-4208-bdfb-5fd8db20c473,2020-02-29 11:50:28,1.000000
7,44499e07-6325-4dea-9206-556185354734,97b428b6-18c5-48a1-974e-c2c67d4acbda,6ba9bc8e-60c5-4430-a2c0-8ebb145917fe,55b92beb-b298-4ee6-8e07-8249d481d795,2020-02-29 11:51:31,1.000000
8,4f4d029c-671b-40cd-8a04-8239fc5488d3,9eb0c0f5-a0d2-4d3f-a462-7a049bee0580,979bf49c-b271-4ff7-8e8d-aa698808229c,70e0e54e-e0ec-49ff-a43b-3dd6212416f7,2020-02-29 11:52:34,2.000000
9,bfa1acfd-ee57-458c-91a0-768fb89a026b,ff1185f5-1162-44f4-9870-bddb94a4014e,11119c54-ab09-4157-8d25-50d8bbcf9c67,91919492-14f6-4fe3-88c1-8acce720b82f,2020-02-29 11:53:37,1.000000
10,96376d77-dcfa-4bc3-96a2-d9b96231a015,965f4ece-a33f-4e5a-85c1-342bf08a2426,d7c9c992-8a3f-4b5b-b78a-ca15d4f85cfc,6f4933ef-e956-4ed9-b347-1b8cdad631a9,2020-02-29 11:54:39,1.000000
11,8917d66c-d75a-470d-8226-aa3778f821bf,bd84c705-5afc-4928-bda8-7eb6d74a6a75,2ad72280-cf18-4b14-b57f-002d752656ee,a19719d0-5084-4fe6-a620-5fa12e715588,2020-02-29 11:55:42,1.000000
12,2adfcaa1-9054-4d8a-9d68-d2d4d9ad9aa8,aef1a4c4-154f-4118-8fa9-f5c62bd9a3e2,3770206d-faff-40b1-90cd-0fda863a0998,05ce7a37-8bcc-4cdf-9ee2-2b5491c361d1,2020-02-29 11:56:45,2.000000
13,b2178a82-bbef-4b33-9db2-6bb7d8a80a79,0d80dd2d-a643-486b-b68d-b0d301e91a06,efbd9d96-5efd-4e08-956d-c449ee947bb5,5c2b6d4a-c998-4569-a150-8b634f041135,2020-02-29 11:57:48,1.000000
14,40e26f65-1d22-49cc-89ae-728bcc65031d,18ad55ed-555e-45b8-af84-91a73d8010d2,a45e41b4-00e6-485a-9abd-e2e2eb48abd9,f9f4d1b4-e761-45db-8f54-3ff22d955816,2020-02-29 11:58:51,1.000000
15,fd127b81-77bf-4940-ba95-65dded184c58,386ee08a-161d-426d-8886-877eb03a401a,65d7df86-07d6-42aa-8609-05ef321a2174,175ace65-05e1-4dc7-a273-a91085750f77,2020-02-29 11:59:54,2.000000
16,ecaa16ba-1768-4a73-b9fd-b21ba8f5f121,a89e91cd-568e-492b-a811-347d554ad7b9,0af79d3d-ce5f-4a40-bd97-7578f2b4fab0,73ca8535-d2a2-4d54-88ca-ba210c7b936e,2020-02-29 12:00:57,2.000000
17,b8a0fffd-7190-45e7-bf9d-b81a1ef8d95a,a17ab3bd-233e-40f1-8ab2-1547b3a0e7f2,a43296f5-91bc-4916-ba24-635272d49fc5,09111617-f9e7-41b2-a30d-0e9352478032,2020-02-29 12:01:59,1.000000
18,34f6c2e7-b7b5-4144-b553-3c02eaa0e2f7,622f927d-54ed-4a87-8307-00442e90c3a7,a6ce9f2d-83b2-4d9d-9270-dc52e2ab8e18,55d8bc67-29a7-4bb6-a090-d97e347053d4,2020-02-29 12:03:02,2.000000
19,b82af8dc-35f4-4c36-b52f-d950985a9bac,7d2310c8-1e58-496c-9167-7b2e524995bd,9511067d-2f06-4d11-96a5-29bf9e1ce07d,6df40a31-4e2d-489d-abcc-c6fe0443f233,2020-02-29 12:04:05,1.000000
20,e017afd6-f79f-4d95-b902-586014ea2f96,38973696-bd2b-46c1-b5a3-b98a41bf31be,4a8339ef-a18b-45ab-95b5-18c20c3ff6c5,e50c5a65-100e-4f84-a11c-7f66af8630a1,2020-02-29 12:05:08,2.000000
21,e13a9375-363b-4459-90d3-d5e5cc0838e9,7d137bc5-9339-4088-983f-9e0dd3f4fa88,37d6fffd-ec84-4032-a339-c0f5489f135e,d1f228f0-6ea5-437d-9dca-5667286d717c,2020-02-29 12:06:11,1.000000
22,b326d9ed-a2b6-4bde-b602-48692c34f384,da1bd21f-6be7-4880-9a43-5b17d841f01e,f83901cb-886e-4e90-a42b-64724112f433,fcdb8bd9-4a60-4089-8d01-370582162919,2020-02-29 12:07:13,1.000000
23,42124158-197a-4ca6-9113-0077ba00ad2c,4f339b6b-9830-47ba-b6e9-00f774a9ead6,78a17f15-0e90-480d-9c2d-a916964b968c,53201be5-e858-408a-b036-cd634a7fee69,2020-02-29 12:08:16,1.000000
24,89ef27ea-7287-4d6b-a00e-d168be4e6833,f15bd207-aa88-4395-b831-4ec45f94d497,36127b39-c711-470a-892b-08a11c762706,90da8724-f9a3-4b9b-9ce9-8d5aeadda765,2020-02-29 12:09:19,2.000000
25,6b267349-a0e8-49d9-93fd-6fb6716a4882,f63fb9ac-2a5e-432a-8554-eda68481ccb9,39a8fea1-4c95-4355-b0f3-309d188c3829,0c543535-4d78-4ad3-8bab-a1cec7365afa,2020-02-29 12:10:22,2.000000
26,156675ae-c5cc-4fdc-a3e2-cc80752ce249,da949032-8b35-4018-98a7-655110cc808c,dda82d0d-c633-4b38-909b-1ad9f6a1cf76,9e4c253f-aa4e-4cc0-9011-959b8035bbf7,2020-02-29 12:11:25,2.000000
27,ad176c71-b349-497f-8949-3be95fa8187c,6157d75d-8b89-4172-a7c3-38e34a55f359,9018b796-1434-4256-8d24-5f0b3dac1267,f831a1b7-29d5-4840-9422-df26e0076bd0,2020-02-29 12:12:28,1.000000
28,68128fde-6a0f-4604-ab86-b4188868870b,5a66f918-7a63-4cd9-83d3-205a268847bc,cae3dc4f-c60a-468f-bb0c-e5695498f064,d76d0579-644e-4e75-a254-b24433099d71,2020-02-29 12:13:30,2.000000
29,a47f1dc2-0fa5-4a85-b80a-3958f966f6c6,31827d9e-8dff-4f48-833e-5194807d9985,dd35f103-22a6-4499-8212-217749d4ff17,f9a19338-a1f9-452a-881b-cb7ebf72529a,2020-02-29 12:14:33,2.000000
30,43c79ab6-6813-43c3-81fa-96f949141244,54f7638d-b7ea-44fe-9988-961b3de12610,46833f9e-e1f5-472a-a7d4-990c6835bf60,b1d62033-51ee-4234-a026-fe13c64d65e5,2020-02-29 12:15:36,2.000000
31,2fa3290c-9292-45de-af22-42978162d460,d3bb41ea-7a1a-4d78-8bfa-03f5cccec430,b53b8505-8e5b-4975-ad70-f0f4dd7154d0,fb13e706-040b-4bf5-a81c-abed20c3f7f3,2020-02-29 12:16:39,2.000000
32,2b00ad62-ac18-4f86-a759-84f6e4fbe636,b5923969-8d2b-41ce-8e24-fbc8b9eff90a,a17bc180-4ac4-4965-ab53-eb4d0594f43c,019ff4c2-8b1a-4ab4-9743-288bdb5150c6,2020-02-29 12:17:42,1.000000
33,686ec74b-8640-44fb-aba4-2778f1409e99,17dde43c-a0ce-43b1-a7d0-854628e8228d,def98c38-a580-4e34-aa5b-2fe726ec56a2,71d61027-c416-48a3-a171-6ba436774ce9,2020-02-29 12:18:44,2.000000
34,73068284-7ffe-4fd8-af5e-3e2feb8ddf7e,c2c223a3-76b0-4f42-af3b-0088bf118653,4d1d3f34-7e72-4ae6-8a24-255a6b02385b,10c54b60-b973-46a2-8460-927349b88bad,2020-02-29 12:19:47,1.000000
35,3b35a97c-12be-45f3-9fea-5ad05fb3bd90,b84ef088-bf55-4a81-a630-c0bb492a7968,10565d34-180a-4de7-96e8-f96773ea4be4,24a970c4-0b1e-4668-b435-1e81ccdc34bd,2020-02-29 12:20:50,2.000000
36,8a3e2bd9-de73-44aa-940b-df101d81d304,7ed96a3e-d8d8-488c-bfeb-3d2e48accf91,9407573f-921a-41ae-a9e6-344d86aaf03f,62872d21-4e27-4544-bae9-413416f2d3e1,2020-02-29 12:21:53,1.000000
37,27adab6a-ab6d-4507-b6dc-86cb159d0593,32dc860a-e01e-4c38-a161-07d762750ecb,81293d43-556b-49b0-89b1-a6b4744811f7,3a13f882-aacd-481e-8665-f9f059c805fa,2020-02-29 12:22:56,2.000000
38,80d9cd07-7458-431e-a611-7fbb1afabf3e,0f0af5c1-cee6-421b-a5e6-1eaa80301391,142f4aaa-7012-4e7c-8261-6c4a79628617,8e9c1dc5-62bd-496c-b454-6b9a32095ada,2020-02-29 12:23:58,2.000000
39,003d54f9-0dc1-47fa-9ea4-0f8e4fc0120c,eadd1eed-a144-4fcd-8e48-7c0f66b32932,a5498afd-5671-49b9-8773-5142af88e887,781f42cb-8dd4-4a32-bdca-b35372fc80ef,2020-02-29 12:25:01,1.000000
40,1231d49c-efe2-4196-bc9c-32e17eb7d6ef,d2cf4f66-49cb-4dce-9672-67d138ec6460,d046e83c-b0e8-40da-ab40-4fec227145b2,72d7dec7-3969-4eb3-bc8d-f06bb701869e,2020-02-29 12:26:04,1.000000
41,23a1dd4b-3cac-42fe-b203-ad6e11f42293,54346680-b5ff-4b07-a441-fafa4f80f0cd,7ff71918-fcfd-4eb2-9c10-3789ab830742,5f17f9c6-7841-40c0-ab4a-ec64e13a0c62,2020-02-29 12:27:06,2.000000
42,ef12e62c-cdb2-4975-9d8a-24371cff971d,7b0030a1-37a0-4aed-8370-403b3c5bb55a,6ad63c77-a442-4f92-9387-1dec08746be7,94ec6e95-2c68-455a-a092-3d0fcd907dc7,2020-02-29 12:28:09,1.000000
43,47834af1-ec6c-4573-96e5-793990ec7126,3a48372a-cdd0-4347-85cf-0f5b92c8b37e,fb1db412-7da1-41d5-873b-a1479f68b2a9,4fdde2a2-b60c-4430-bf00-8620071ceed6,2020-02-29 12:29:12,1.000000
44,ca98d96e-42ea-4fbb-9bfc-09c6715d4a8c,fc836ef2-f102-4dc6-9760-d54c6efed6db,86814f80-f749-477a-9ac0-466146628ecc,5db23e1a-4f39-4758-b49d-8dfea2a898d3,2020-02-29 12:30:15,1.000000
45,e68f58ac-0563-4ff5-a5f8-fcee5b541479,6c0d7cc7-753a-4581-be9d-03a9befaebdf,c462f128-041c-408f-baa4-3661b9de25db,5b7cdd2e-707a-41e6-bbc9-9cd792e5f930,2020-02-29 12:31:18,2.000000
46,e399a411-f1c3-4bca-9b22-cba9192096b2,94b5783e-9963-4540-b524-d89a887a04f0,8f412646-083c-463a-8b02-6efb7f28394b,3f9d6f24-7fb2-49e6-8837-d26d235421f4,2020-02-29 12:32:21,1.000000
47,1f83d5c3-268f-4ffa-a006-57738224012f,63846a52-f623-47cc-baad-bf97e7ce6234,9f1a5111-47eb-480c-97a3-901c7272cdfb,799cdb43-13dc-42ef-b330-9350aa580cd1,2020-02-29 12:33:24,1.000000
48,c1bd5dc5-0426-40cf-ab55-87d8bf4915ef,215d220a-ffdd-4ec8-a8f1-27993f28dd60,cee75eb0-f71f-4e16-80d2-e897ab9ceaa7,56a286fe-46ce-4573-a078-c3f95f800554,2020-02-29 12:34:26,2.000000
49,febff5a8-9d5f-4281-b534-a7f5e982e954,a16319b6-d6ee-40e0-8be1-4360bc82a21c,35109aa8-93c1-402c-b7db-f4323562aed1,9ebaa5f5-0b34-402a-b6d4-7f6e209ec943,2020-02-29 12:35:29,1.000000
50,bdf1ebcc-e4bb-4b1a-a7b1-f7fa0923a884,f9920654-506c-49d0-bd7c-88b2bd5c87b1,95de0a08-0152-4c96-8307-63be3d01f122,229b2ca5-48be-4f55-acb3-e50219481450,2020-02-29 12:36:32,2.000000
