date,actor,success,from,to
2020-03-01 05:58:34,fa774273-fad2-4d0e-959b-f57771dacd86,1,362a1a55-0197-405f-8dc6-198b4297d9ec,aba14390-e7f9-4e31-8f22-c32ed2a950e2
2020-03-01 05:58:34,02ae7090-0728-48a2-834e-19264f251ef7,1,362a1a55-0197-405f-8dc6-198b4297d9ec,aba14390-e7f9-4e31-8f22-c32ed2a950e2
2020-03-01 05:58:46,799d7c45-1d66-49bb-8905-fb7447f586e9,1,362a1a55-0197-405f-8dc6-198b4297d9ec,1a5f58f8-cb38-4fa1-a447-5fa729686021
2020-03-01 05:58:46,1af4efbf-108d-47cb-94fb-d01c73346754,1,362a1a55-0197-405f-8dc6-198b4297d9ec,1a5f58f8-cb38-4fa1-a447-5fa729686021
2020-03-01 06:14:23,d5a12e86-df4a-4c8c-b585-27e8a6801f84,1,362a1a55-0197-405f-8dc6-198b4297d9ec,1a5f58f8-cb38-4fa1-a447-5fa729686021
2020-03-01 06:14:23,de5dbb09-41d8-4a80-afac-82effc9cc65a,1,362a1a55-0197-405f-8dc6-198b4297d9ec,1a5f58f8-cb38-4fa1-a447-5fa729686021
2020-03-01 06:43:33,5fb0b15d-0216-49e8-b88b-a2b1c484de47,1,362a1a55-0197-405f-8dc6-198b4297d9ec,df40e777-9e31-4217-8a20-300251963757
2020-03-01 06:43:33,67b329ab-f659-4d3f-9cf8-ec96e728ec78,1,362a1a55-0197-405f-8dc6-198b4297d9ec,df40e777-9e31-4217-8a20-300251963757
2020-03-01 06:43:44,4894d199-0904-49ab-aa36-2e0fd15d4cf1,1,362a1a55-0197-405f-8dc6-198b4297d9ec,91f7a570-3f4d-46ea-97fb-3752ced92ba2
2020-03-01 06:43:44,fea9d4ee-b233-4c31-8f0e-318ba402e96a,1,362a1a55-0197-405f-8dc6-198b4297d9ec,91f7a570-3f4d-46ea-97fb-3752ced92ba2
2020-03-01 06:43:50,ee293e1a-bd40-47e8-9212-4c79791b0b2f,1,362a1a55-0197-405f-8dc6-198b4297d9ec,b417f3e2-2f49-42f1-8e69-b0ebb2d1b33b
2020-03-01 06:43:50,7a6ee100-f865-44a1-ab0b-ad2f0ca5bbc7,1,362a1a55-0197-405f-8dc6-198b4297d9ec,b417f3e2-2f49-42f1-8e69-b0ebb2d1b33b
2020-03-01 05:58:37,4c790bf0-fb44-4bc8-a5a4-39dabc3edb6c,1,df40e777-9e31-4217-8a20-300251963757,aba14390-e7f9-4e31-8f22-c32ed2a950e2
2020-03-01 05:58:37,73ac1f4c-99d8-4779-82f9-621c689d4ade,1,df40e777-9e31-4217-8a20-300251963757,aba14390-e7f9-4e31-8f22-c32ed2a950e2
2020-03-01 06:04:56,03024d8c-7cec-4695-b07a-a44d8eb36800,1,df40e777-9e31-4217-8a20-300251963757,7cd6c816-e40f-4824-a258-d0727dad4b1d
2020-03-01 06:04:56,3492acc0-65e9-42ff-8bb7-91003580e76d,1,df40e777-9e31-4217-8a20-300251963757,7cd6c816-e40f-4824-a258-d0727dad4b1d
2020-03-01 06:05:06,5a20e0a3-9cda-483f-998d-415f98d67a26,1,df40e777-9e31-4217-8a20-300251963757,09a80211-c309-432a-b012-bbef42bf0b16
2020-03-01 06:05:06,6625d2ea-c8ec-486a-8887-d6790b8df449,1,df40e777-9e31-4217-8a20-300251963757,09a80211-c309-432a-b012-bbef42bf0b16
2020-03-01 06:05:54,fc246520-3176-4842-84e8-c1b5eb6fd8a0,1,df40e777-9e31-4217-8a20-300251963757,bf2abf7e-6838-43c7-b03c-084581dd0589
2020-03-01 06:05:54,3149816f-909d-41d0-913f-9563e282ce63,1,df40e777-9e31-4217-8a20-300251963757,bf2abf7e-6838-43c7-b03c-084581dd0589
2020-03-01 06:43:49,5fb0b15d-0216-49e8-b88b-a2b1c484de47,1,df40e777-9e31-4217-8a20-300251963757,b417f3e2-2f49-42f1-8e69-b0ebb2d1b33b
2020-03-01 06:43:49,67b329ab-f659-4d3f-9cf8-ec96e728ec78,1,df40e777-9e31-4217-8a20-300251963757,b417f3e2-2f49-42f1-8e69-b0ebb2d1b33b
2020-03-01 06:46:09,8a8ff76e-8167-4326-8bb5-b0723dbb476f,1,df40e777-9e31-4217-8a20-300251963757,b9841286-7611-47d2-b2dd-d90681f74762
2020-03-01 06:46:17,ca91e527-08c5-4b84-80e0-ac08f30ad10c,1,df40e777-9e31-4217-8a20-300251963757,2d3c0cba-bc8d-4900-8137-90f62453f01f
2020-03-01 06:46:17,08aadb20-9b33-49b0-b24a-578ec18337d6,1,df40e777-9e31-4217-8a20-300251963757,2d3c0cba-bc8d-4900-8137-90f62453f01f
2020-03-01 05:58:50,259492c8-e309-4754-8d6b-4b403de155fa,1,4e6e35cf-5365-4eb1-bec8-10423102810f,1a5f58f8-cb38-4fa1-a447-5fa729686021
2020-03-01 05:58:50,74c541d5-2b77-4b75-87a0-b2b657113d4e,1,4e6e35cf-5365-4eb1-bec8-10423102810f,1a5f58f8-cb38-4fa1-a447-5fa729686021
2020-03-01 05:59:01,4baf1ba9-fd50-494e-8831-320ac07a6931,1,4e6e35cf-5365-4eb1-bec8-10423102810f,1a5f58f8-cb38-4fa1-a447-5fa729686021
2020-03-01 05:59:01,27e698d5-8ba2-4670-9111-1de7a6f39973,1,4e6e35cf-5365-4eb1-bec8-10423102810f,1a5f58f8-cb38-4fa1-a447-5fa729686021
2020-03-01 06:04:03,5a20e0a3-9cda-483f-998d-415f98d67a26,1,4e6e35cf-5365-4eb1-bec8-10423102810f,1a5f58f8-cb38-4fa1-a447-5fa729686021
2020-03-01 06:04:03,6625d2ea-c8ec-486a-8887-d6790b8df449,1,4e6e35cf-5365-4eb1-bec8-10423102810f,1a5f58f8-cb38-4fa1-a447-5fa729686021
2020-03-01 06:04:10,96e7360d-841e-4389-b8e8-c52a384d4a1e,1,4e6e35cf-5365-4eb1-bec8-10423102810f,7cd6c816-e40f-4824-a258-d0727dad4b1d
2020-03-01 06:04:10,8ca66a87-ba6d-4539-89d2-6a0ac42b050d,1,4e6e35cf-5365-4eb1-bec8-10423102810f,7cd6c816-e40f-4824-a258-d0727dad4b1d
2020-03-01 06:08:38,5a20e0a3-9cda-483f-998d-415f98d67a26,1,4e6e35cf-5365-4eb1-bec8-10423102810f,b417f3e2-2f49-42f1-8e69-b0ebb2d1b33b
2020-03-01 06:08:38,6625d2ea-c8ec-486a-8887-d6790b8df449,1,4e6e35cf-5365-4eb1-bec8-10423102810f,b417f3e2-2f49-42f1-8e69-b0ebb2d1b33b
2020-03-01 06:08:49,d4a69116-8db1-4df3-b941-e4b5ef1d51e0,1,4e6e35cf-5365-4eb1-bec8-10423102810f,2d3c0cba-bc8d-4900-8137-90f62453f01f
2020-03-01 06:08:49,7431448b-ed04-4235-adb4-f1807950f0e4,1,4e6e35cf-5365-4eb1-bec8-10423102810f,2d3c0cba-bc8d-4900-8137-90f62453f01f
2020-03-01 06:45:38,8a8ff76e-8167-4326-8bb5-b0723dbb476f,1,4e6e35cf-5365-4eb1-bec8-10423102810f,cdac51bb-7b90-491d-ac17-6e041017ae9a
2020-03-01 06:45:38,273c1eaa-be29-431f-9cf4-17c9ae857b1b,1,4e6e35cf-5365-4eb1-bec8-10423102810f,cdac51bb-7b90-491d-ac17-6e041017ae9a
2020-03-01 06:45:44,c799280e-62e7-4fd3-b403-cc942f9d9246,1,4e6e35cf-5365-4eb1-bec8-10423102810f,cdac51bb-7b90-491d-ac17-6e041017ae9a
2020-03-01 06:45:44,8c448f28-8c38-4bf8-98a1-a52eb0157b1b,1,4e6e35cf-5365-4eb1-bec8-10423102810f,cdac51bb-7b90-491d-ac17-6e041017ae9a
2020-03-01 06:45:57,1dc27d79-080c-4ac2-abce-efe1a130525b,1,4e6e35cf-5365-4eb1-bec8-10423102810f,362a1a55-0197-405f-8dc6-198b4297d9ec
2020-03-01 06:45:57,b157408d-f389-484e-bdeb-3dc02159203f,1,4e6e35cf-5365-4eb1-bec8-10423102810f,362a1a55-0197-405f-8dc6-198b4297d9ec
2020-03-01 06:46:06,d5a12e86-df4a-4c8c-b585-27e8a6801f84,1,4e6e35cf-5365-4eb1-bec8-10423102810f,b9841286-7611-47d2-b2dd-d90681f74762
2020-03-01 06:46:06,de5dbb09-41d8-4a80-afac-82effc9cc65a,1,4e6e35cf-5365-4eb1-bec8-10423102810f,b9841286-7611-47d2-b2dd-d90681f74762
2020-03-01 05:59:13,4baf1ba9-fd50-494e-8831-320ac07a6931,1,1a5f58f8-cb38-4fa1-a447-5fa729686021,91f7a570-3f4d-46ea-97fb-3752ced92ba2
2020-03-01 05:59:13,27e698d5-8ba2-4670-9111-1de7a6f39973,1,1a5f58f8-cb38-4fa1-a447-5fa729686021,91f7a570-3f4d-46ea-97fb-3752ced92ba2
2020-03-01 06:02:07,259492c8-e309-4754-8d6b-4b403de155fa,1,1a5f58f8-cb38-4fa1-a447-5fa729686021,09a80211-c309-432a-b012-bbef42bf0b16
2020-03-01 06:02:07,74c541d5-2b77-4b75-87a0-b2b657113d4e,1,1a5f58f8-cb38-4fa1-a447-5fa729686021,09a80211-c309-432a-b012-bbef42bf0b16
2020-03-01 06:04:29,5a20e0a3-9cda-483f-998d-415f98d67a26,1,1a5f58f8-cb38-4fa1-a447-5fa729686021,cdac51bb-7b90-491d-ac17-6e041017ae9a
2020-03-01 06:04:29,6625d2ea-c8ec-486a-8887-d6790b8df449,1,1a5f58f8-cb38-4fa1-a447-5fa729686021,cdac51bb-7b90-491d-ac17-6e041017ae9a
2020-03-01 06:04:40,03024d8c-7cec-4695-b07a-a44d8eb36800,1,1a5f58f8-cb38-4fa1-a447-5fa729686021,df40e777-9e31-4217-8a20-300251963757
2020-03-01 06:04:40,3492acc0-65e9-42ff-8bb7-91003580e76d,1,1a5f58f8-cb38-4fa1-a447-5fa729686021,df40e777-9e31-4217-8a20-300251963757
2020-03-01 06:04:49,0e7b17e2-7650-4801-a04e-f9b04ec90628,1,1a5f58f8-cb38-4fa1-a447-5fa729686021,df40e777-9e31-4217-8a20-300251963757
2020-03-01 06:04:49,c1a3060b-3f97-4abf-ba0e-bb8ca112f098,1,1a5f58f8-cb38-4fa1-a447-5fa729686021,df40e777-9e31-4217-8a20-300251963757
2020-03-01 06:04:57,bb825a90-2fe0-4f05-bd99-1597dddf8f5a,1,1a5f58f8-cb38-4fa1-a447-5fa729686021,7cd6c816-e40f-4824-a258-d0727dad4b1d
2020-03-01 06:04:57,ffc5a36c-7a1f-4bdc-8057-e4773eed3eb8,1,1a5f58f8-cb38-4fa1-a447-5fa729686021,7cd6c816-e40f-4824-a258-d0727dad4b1d
2020-03-01 06:05:07,3e762d12-26e8-4b8f-9609-dbf8f07f6a4b,1,1a5f58f8-cb38-4fa1-a447-5fa729686021,09a80211-c309-432a-b012-bbef42bf0b16
2020-03-01 06:05:07,bc2ca04e-1fda-4f45-9856-fefc164d7dd0,1,1a5f58f8-cb38-4fa1-a447-5fa729686021,09a80211-c309-432a-b012-bbef42bf0b16
2020-03-01 06:05:17,d4a69116-8db1-4df3-b941-e4b5ef1d51e0,1,1a5f58f8-cb38-4fa1-a447-5fa729686021,4e6e35cf-5365-4eb1-bec8-10423102810f
2020-03-01 06:05:17,7431448b-ed04-4235-adb4-f1807950f0e4,1,1a5f58f8-cb38-4fa1-a447-5fa729686021,4e6e35cf-5365-4eb1-bec8-10423102810f
2020-03-01 06:14:42,d5a12e86-df4a-4c8c-b585-27e8a6801f84,1,1a5f58f8-cb38-4fa1-a447-5fa729686021,cdac51bb-7b90-491d-ac17-6e041017ae9a
2020-03-01 06:14:42,de5dbb09-41d8-4a80-afac-82effc9cc65a,1,1a5f58f8-cb38-4fa1-a447-5fa729686021,cdac51bb-7b90-491d-ac17-6e041017ae9a
2020-03-01 06:20:58,c799280e-62e7-4fd3-b403-cc942f9d9246,1,1a5f58f8-cb38-4fa1-a447-5fa729686021,51d6f4bf-1a4d-4190-9f14-d3ee3e955450
2020-03-01 06:20:58,8c448f28-8c38-4bf8-98a1-a52eb0157b1b,1,1a5f58f8-cb38-4fa1-a447-5fa729686021,51d6f4bf-1a4d-4190-9f14-d3ee3e955450
2020-03-01 06:21:47,939aac13-128c-47b7-9d0f-177aa74a3193,1,1a5f58f8-cb38-4fa1-a447-5fa729686021,b417f3e2-2f49-42f1-8e69-b0ebb2d1b33b
2020-03-01 06:21:47,e2afe939-f541-4c40-b59f-760b99368dcf,1,1a5f58f8-cb38-4fa1-a447-5fa729686021,b417f3e2-2f49-42f1-8e69-b0ebb2d1b33b
2020-03-01 06:36:15,4894d199-0904-49ab-aa36-2e0fd15d4cf1,1,1a5f58f8-cb38-4fa1-a447-5fa729686021,362a1a55-0197-405f-8dc6-198b4297d9ec
2020-03-01 06:36:15,fea9d4ee-b233-4c31-8f0e-318ba402e96a,1,1a5f58f8-cb38-4fa1-a447-5fa729686021,362a1a55-0197-405f-8dc6-198b4297d9ec
2020-03-01 06:02:43,d4a69116-8db1-4df3-b941-e4b5ef1d51e0,1,09a80211-c309-432a-b012-bbef42bf0b16,7cd6c816-e40f-4824-a258-d0727dad4b1d
2020-03-01 06:02:43,7431448b-ed04-4235-adb4-f1807950f0e4,1,09a80211-c309-432a-b012-bbef42bf0b16,7cd6c816-e40f-4824-a258-d0727dad4b1d
2020-03-01 06:02:57,259492c8-e309-4754-8d6b-4b403de155fa,1,09a80211-c309-432a-b012-bbef42bf0b16,89f31a9f-0b03-43e5-91e9-67e26866802c
2020-03-01 06:02:57,74c541d5-2b77-4b75-87a0-b2b657113d4e,1,09a80211-c309-432a-b012-bbef42bf0b16,89f31a9f-0b03-43e5-91e9-67e26866802c
2020-03-01 06:03:03,4e85d153-7c11-4bf5-8e0f-f0a6980b7691,1,09a80211-c309-432a-b012-bbef42bf0b16,51d6f4bf-1a4d-4190-9f14-d3ee3e955450
2020-03-01 06:03:03,1f42bf23-44c4-44f2-b930-fb98aa5f815f,1,09a80211-c309-432a-b012-bbef42bf0b16,51d6f4bf-1a4d-4190-9f14-d3ee3e955450
2020-03-01 06:05:23,5a20e0a3-9cda-483f-998d-415f98d67a26,1,09a80211-c309-432a-b012-bbef42bf0b16,4e6e35cf-5365-4eb1-bec8-10423102810f
2020-03-01 06:05:23,6625d2ea-c8ec-486a-8887-d6790b8df449,1,09a80211-c309-432a-b012-bbef42bf0b16,4e6e35cf-5365-4eb1-bec8-10423102810f
2020-03-01 07:00:07,c799280e-62e7-4fd3-b403-cc942f9d9246,1,09a80211-c309-432a-b012-bbef42bf0b16,bf2abf7e-6838-43c7-b03c-084581dd0589
2020-03-01 07:00:07,8c448f28-8c38-4bf8-98a1-a52eb0157b1b,1,09a80211-c309-432a-b012-bbef42bf0b16,bf2abf7e-6838-43c7-b03c-084581dd0589
2020-03-01 06:02:58,5a20e0a3-9cda-483f-998d-415f98d67a26,1,bf2abf7e-6838-43c7-b03c-084581dd0589,89f31a9f-0b03-43e5-91e9-67e26866802c
2020-03-01 06:02:58,6625d2ea-c8ec-486a-8887-d6790b8df449,1,bf2abf7e-6838-43c7-b03c-084581dd0589,89f31a9f-0b03-43e5-91e9-67e26866802c
2020-03-01 06:03:09,03024d8c-7cec-4695-b07a-a44d8eb36800,1,bf2abf7e-6838-43c7-b03c-084581dd0589,cdac51bb-7b90-491d-ac17-6e041017ae9a
2020-03-01 06:03:09,3492acc0-65e9-42ff-8bb7-91003580e76d,1,bf2abf7e-6838-43c7-b03c-084581dd0589,cdac51bb-7b90-491d-ac17-6e041017ae9a
2020-03-01 06:26:00,4894d199-0904-49ab-aa36-2e0fd15d4cf1,1,bf2abf7e-6838-43c7-b03c-084581dd0589,91f7a570-3f4d-46ea-97fb-3752ced92ba2
2020-03-01 06:26:00,fea9d4ee-b233-4c31-8f0e-318ba402e96a,1,bf2abf7e-6838-43c7-b03c-084581dd0589,91f7a570-3f4d-46ea-97fb-3752ced92ba2
2020-03-01 06:26:45,5a20e0a3-9cda-483f-998d-415f98d67a26,1,bf2abf7e-6838-43c7-b03c-084581dd0589,aba14390-e7f9-4e31-8f22-c32ed2a950e2
2020-03-01 06:26:45,6625d2ea-c8ec-486a-8887-d6790b8df449,1,bf2abf7e-6838-43c7-b03c-084581dd0589,aba14390-e7f9-4e31-8f22-c32ed2a950e2
2020-03-01 06:38:18,fc246520-3176-4842-84e8-c1b5eb6fd8a0,1,bf2abf7e-6838-43c7-b03c-084581dd0589,cdac51bb-7b90-491d-ac17-6e041017ae9a
2020-03-01 06:38:18,3149816f-909d-41d0-913f-9563e282ce63,1,bf2abf7e-6838-43c7-b03c-084581dd0589,cdac51bb-7b90-491d-ac17-6e041017ae9a
2020-03-01 06:38:25,d5a12e86-df4a-4c8c-b585-27e8a6801f84,1,bf2abf7e-6838-43c7-b03c-084581dd0589,2d3c0cba-bc8d-4900-8137-90f62453f01f
2020-03-01 06:38:25,de5dbb09-41d8-4a80-afac-82effc9cc65a,1,bf2abf7e-6838-43c7-b03c-084581dd0589,2d3c0cba-bc8d-4900-8137-90f62453f01f
2020-03-01 06:38:36,c799280e-62e7-4fd3-b403-cc942f9d9246,1,bf2abf7e-6838-43c7-b03c-084581dd0589,4e6e35cf-5365-4eb1-bec8-10423102810f
2020-03-01 06:38:36,8c448f28-8c38-4bf8-98a1-a52eb0157b1b,1,bf2abf7e-6838-43c7-b03c-084581dd0589,4e6e35cf-5365-4eb1-bec8-10423102810f
2020-03-01 07:00:19,c799280e-62e7-4fd3-b403-cc942f9d9246,1,bf2abf7e-6838-43c7-b03c-084581dd0589,b417f3e2-2f49-42f1-8e69-b0ebb2d1b33b
2020-03-01 07:00:19,8c448f28-8c38-4bf8-98a1-a52eb0157b1b,1,bf2abf7e-6838-43c7-b03c-084581dd0589,b417f3e2-2f49-42f1-8e69-b0ebb2d1b33b
2020-03-01 06:03:27,d4a69116-8db1-4df3-b941-e4b5ef1d51e0,1,51d6f4bf-1a4d-4190-9f14-d3ee3e955450,b417f3e2-2f49-42f1-8e69-b0ebb2d1b33b
2020-03-01 06:03:27,7431448b-ed04-4235-adb4-f1807950f0e4,1,51d6f4bf-1a4d-4190-9f14-d3ee3e955450,b417f3e2-2f49-42f1-8e69-b0ebb2d1b33b
2020-03-01 06:03:37,5a20e0a3-9cda-483f-998d-415f98d67a26,1,51d6f4bf-1a4d-4190-9f14-d3ee3e955450,4e6e35cf-5365-4eb1-bec8-10423102810f
2020-03-01 06:03:37,6625d2ea-c8ec-486a-8887-d6790b8df449,1,51d6f4bf-1a4d-4190-9f14-d3ee3e955450,4e6e35cf-5365-4eb1-bec8-10423102810f
2020-03-01 06:03:46,fc246520-3176-4842-84e8-c1b5eb6fd8a0,1,51d6f4bf-1a4d-4190-9f14-d3ee3e955450,2d3c0cba-bc8d-4900-8137-90f62453f01f
2020-03-01 06:03:46,3149816f-909d-41d0-913f-9563e282ce63,1,51d6f4bf-1a4d-4190-9f14-d3ee3e955450,2d3c0cba-bc8d-4900-8137-90f62453f01f
2020-03-01 06:10:49,c799280e-62e7-4fd3-b403-cc942f9d9246,1,51d6f4bf-1a4d-4190-9f14-d3ee3e955450,b417f3e2-2f49-42f1-8e69-b0ebb2d1b33b
2020-03-01 06:10:49,8c448f28-8c38-4bf8-98a1-a52eb0157b1b,1,51d6f4bf-1a4d-4190-9f14-d3ee3e955450,b417f3e2-2f49-42f1-8e69-b0ebb2d1b33b
2020-03-01 06:21:16,939aac13-128c-47b7-9d0f-177aa74a3193,1,51d6f4bf-1a4d-4190-9f14-d3ee3e955450,91f7a570-3f4d-46ea-97fb-3752ced92ba2
2020-03-01 06:21:16,e2afe939-f541-4c40-b59f-760b99368dcf,1,51d6f4bf-1a4d-4190-9f14-d3ee3e955450,91f7a570-3f4d-46ea-97fb-3752ced92ba2
2020-03-01 06:21:24,c799280e-62e7-4fd3-b403-cc942f9d9246,1,51d6f4bf-1a4d-4190-9f14-d3ee3e955450,bf2abf7e-6838-43c7-b03c-084581dd0589
2020-03-01 06:21:24,8c448f28-8c38-4bf8-98a1-a52eb0157b1b,1,51d6f4bf-1a4d-4190-9f14-d3ee3e955450,bf2abf7e-6838-43c7-b03c-084581dd0589
2020-03-01 06:03:52,d4a69116-8db1-4df3-b941-e4b5ef1d51e0,1,b417f3e2-2f49-42f1-8e69-b0ebb2d1b33b,2d3c0cba-bc8d-4900-8137-90f62453f01f
2020-03-01 06:03:52,7431448b-ed04-4235-adb4-f1807950f0e4,1,b417f3e2-2f49-42f1-8e69-b0ebb2d1b33b,2d3c0cba-bc8d-4900-8137-90f62453f01f
2020-03-01 06:04:03,03024d8c-7cec-4695-b07a-a44d8eb36800,1,b417f3e2-2f49-42f1-8e69-b0ebb2d1b33b,1a5f58f8-cb38-4fa1-a447-5fa729686021
2020-03-01 06:04:03,3492acc0-65e9-42ff-8bb7-91003580e76d,1,b417f3e2-2f49-42f1-8e69-b0ebb2d1b33b,1a5f58f8-cb38-4fa1-a447-5fa729686021
2020-03-01 06:09:00,5a20e0a3-9cda-483f-998d-415f98d67a26,1,b417f3e2-2f49-42f1-8e69-b0ebb2d1b33b,2d3c0cba-bc8d-4900-8137-90f62453f01f
2020-03-01 06:09:00,6625d2ea-c8ec-486a-8887-d6790b8df449,1,b417f3e2-2f49-42f1-8e69-b0ebb2d1b33b,2d3c0cba-bc8d-4900-8137-90f62453f01f
2020-03-01 06:11:03,c799280e-62e7-4fd3-b403-cc942f9d9246,1,b417f3e2-2f49-42f1-8e69-b0ebb2d1b33b,aba14390-e7f9-4e31-8f22-c32ed2a950e2
2020-03-01 06:11:03,8c448f28-8c38-4bf8-98a1-a52eb0157b1b,1,b417f3e2-2f49-42f1-8e69-b0ebb2d1b33b,aba14390-e7f9-4e31-8f22-c32ed2a950e2
2020-03-01 06:21:53,939aac13-128c-47b7-9d0f-177aa74a3193,1,b417f3e2-2f49-42f1-8e69-b0ebb2d1b33b,1a5f58f8-cb38-4fa1-a447-5fa729686021
2020-03-01 06:21:53,e2afe939-f541-4c40-b59f-760b99368dcf,1,b417f3e2-2f49-42f1-8e69-b0ebb2d1b33b,1a5f58f8-cb38-4fa1-a447-5fa729686021
2020-03-01 06:35:29,4894d199-0904-49ab-aa36-2e0fd15d4cf1,1,b417f3e2-2f49-42f1-8e69-b0ebb2d1b33b,aba14390-e7f9-4e31-8f22-c32ed2a950e2
2020-03-01 06:35:29,fea9d4ee-b233-4c31-8f0e-318ba402e96a,1,b417f3e2-2f49-42f1-8e69-b0ebb2d1b33b,aba14390-e7f9-4e31-8f22-c32ed2a950e2
2020-03-01 06:35:41,ee293e1a-bd40-47e8-9212-4c79791b0b2f,1,b417f3e2-2f49-42f1-8e69-b0ebb2d1b33b,362a1a55-0197-405f-8dc6-198b4297d9ec
2020-03-01 06:35:41,7a6ee100-f865-44a1-ab0b-ad2f0ca5bbc7,1,b417f3e2-2f49-42f1-8e69-b0ebb2d1b33b,362a1a55-0197-405f-8dc6-198b4297d9ec
2020-03-01 06:44:17,5fb0b15d-0216-49e8-b88b-a2b1c484de47,1,b417f3e2-2f49-42f1-8e69-b0ebb2d1b33b,2d3c0cba-bc8d-4900-8137-90f62453f01f
2020-03-01 06:44:17,67b329ab-f659-4d3f-9cf8-ec96e728ec78,1,b417f3e2-2f49-42f1-8e69-b0ebb2d1b33b,2d3c0cba-bc8d-4900-8137-90f62453f01f
2020-03-01 06:44:27,ee293e1a-bd40-47e8-9212-4c79791b0b2f,1,b417f3e2-2f49-42f1-8e69-b0ebb2d1b33b,2d3c0cba-bc8d-4900-8137-90f62453f01f
2020-03-01 06:44:27,7a6ee100-f865-44a1-ab0b-ad2f0ca5bbc7,1,b417f3e2-2f49-42f1-8e69-b0ebb2d1b33b,2d3c0cba-bc8d-4900-8137-90f62453f01f
2020-03-01 06:44:35,1dc27d79-080c-4ac2-abce-efe1a130525b,1,b417f3e2-2f49-42f1-8e69-b0ebb2d1b33b,4e6e35cf-5365-4eb1-bec8-10423102810f
2020-03-01 06:44:35,b157408d-f389-484e-bdeb-3dc02159203f,1,b417f3e2-2f49-42f1-8e69-b0ebb2d1b33b,4e6e35cf-5365-4eb1-bec8-10423102810f
2020-03-01 06:03:06,5a20e0a3-9cda-483f-998d-415f98d67a26,1,89f31a9f-0b03-43e5-91e9-67e26866802c,51d6f4bf-1a4d-4190-9f14-d3ee3e955450
2020-03-01 06:03:06,6625d2ea-c8ec-486a-8887-d6790b8df449,1,89f31a9f-0b03-43e5-91e9-67e26866802c,51d6f4bf-1a4d-4190-9f14-d3ee3e955450
2020-03-01 06:46:30,8a8ff76e-8167-4326-8bb5-b0723dbb476f,1,89f31a9f-0b03-43e5-91e9-67e26866802c,bf2abf7e-6838-43c7-b03c-084581dd0589
2020-03-01 06:46:30,273c1eaa-be29-431f-9cf4-17c9ae857b1b,1,89f31a9f-0b03-43e5-91e9-67e26866802c,bf2abf7e-6838-43c7-b03c-084581dd0589
2020-03-01 05:07:08,ef6bf511-baa2-439b-911e-20a1cbe5ba59,1,1c03bad7-4d5a-4351-8dcd-2d00dc820dde,89f31a9f-0b03-43e5-91e9-67e26866802c
2020-03-01 05:07:08,d1b672a5-0fe0-4597-b93f-fa7c5fbe67d4,1,1c03bad7-4d5a-4351-8dcd-2d00dc820dde,c0aa499c-1ab2-491c-a907-c17eef29120c
2020-03-01 05:07:08,a58377c3-e421-4d00-a28c-c980e92c4bf5,1,1c03bad7-4d5a-4351-8dcd-2d00dc820dde,89f31a9f-0b03-43e5-91e9-67e26866802c
2020-03-01 05:08:11,89b28b41-06ae-431c-9228-05e42e85d865,1,1c03bad7-4d5a-4351-8dcd-2d00dc820dde,362a1a55-0197-405f-8dc6-198b4297d9ec
2020-03-01 05:08:11,89e389a7-dec1-4c9d-aa62-08b4f52e5cbd,1,1c03bad7-4d5a-4351-8dcd-2d00dc820dde,86f975de-e610-4907-9810-55b04f5760db
2020-03-01 05:08:11,5265f87e-7d8a-41d3-8b63-56aeea1bfce0,1,1c03bad7-4d5a-4351-8dcd-2d00dc820dde,362a1a55-0197-405f-8dc6-198b4297d9ec
2020-03-01 05:09:14,44d316c9-f4ff-4ecd-8065-ff9ba92b8b44,1,1c03bad7-4d5a-4351-8dcd-2d00dc820dde,a2cc495a-a4ae-4de6-91ba-e2463e23c02c
2020-03-01 05:09:14,3e762d12-26e8-4b8f-9609-dbf8f07f6a4b,1,1c03bad7-4d5a-4351-8dcd-2d00dc820dde,1a5f58f8-cb38-4fa1-a447-5fa729686021
2020-03-01 05:09:14,bc2ca04e-1fda-4f45-9856-fefc164d7dd0,1,1c03bad7-4d5a-4351-8dcd-2d00dc820dde,1a5f58f8-cb38-4fa1-a447-5fa729686021
2020-03-01 05:10:17,4baf1ba9-fd50-494e-8831-320ac07a6931,1,1c03bad7-4d5a-4351-8dcd-2d00dc820dde,4e6e35cf-5365-4eb1-bec8-10423102810f
2020-03-01 05:10:17,7804fd03-da6c-4473-864e-3f2320f249e8,1,1c03bad7-4d5a-4351-8dcd-2d00dc820dde,5fa4396c-da3e-4dcf-8ac9-87ea356133a9
2020-03-01 05:10:17,27e698d5-8ba2-4670-9111-1de7a6f39973,1,1c03bad7-4d5a-4351-8dcd-2d00dc820dde,4e6e35cf-5365-4eb1-bec8-10423102810f
2020-03-01 05:11:20,da6ce72e-7373-4db8-b752-1eec34056a16,1,1c03bad7-4d5a-4351-8dcd-2d00dc820dde,b417f3e2-2f49-42f1-8e69-b0ebb2d1b33b
2020-03-01 05:11:20,9d47cf5a-ef7f-4ba2-aeec-cbe6f55bfdda,1,1c03bad7-4d5a-4351-8dcd-2d00dc820dde,b417f3e2-2f49-42f1-8e69-b0ebb2d1b33b
2020-03-01 05:11:20,a58da36c-43e3-49d5-86d9-f704824bf125,1,1c03bad7-4d5a-4351-8dcd-2d00dc820dde,2d0dc557-9106-4dee-8f71-efa0b46f9c5d
2020-03-01 05:12:23,fc246520-3176-4842-84e8-c1b5eb6fd8a0,1,1c03bad7-4d5a-4351-8dcd-2d00dc820dde,51d6f4bf-1a4d-4190-9f14-d3ee3e955450
2020-03-01 05:12:23,3149816f-909d-41d0-913f-9563e282ce63,1,1c03bad7-4d5a-4351-8dcd-2d00dc820dde,51d6f4bf-1a4d-4190-9f14-d3ee3e955450
2020-03-01 05:12:23,bbb92dfa-8003-47ab-a1b9-1ab8444a32ea,1,1c03bad7-4d5a-4351-8dcd-2d00dc820dde,505bc132-5fd5-4ed2-a0c6-ba9392d0939c
2020-03-01 05:13:26,b9982de5-094f-4efc-88ed-ca4aeae9a41f,1,1c03bad7-4d5a-4351-8dcd-2d00dc820dde,2d3c0cba-bc8d-4900-8137-90f62453f01f
2020-03-01 05:13:26,c4f68305-9ea4-4b0a-9af0-bb1e51001343,1,1c03bad7-4d5a-4351-8dcd-2d00dc820dde,97ad4b2b-5e21-4365-a39e-f19011f39004
2020-03-01 05:13:26,0c86206d-61cc-4893-bdf3-6e21ebb64597,1,1c03bad7-4d5a-4351-8dcd-2d00dc820dde,2d3c0cba-bc8d-4900-8137-90f62453f01f
2020-03-01 05:14:29,b9387d13-ccb4-4b1e-9165-a1cab469ce6a,1,1c03bad7-4d5a-4351-8dcd-2d00dc820dde,b9841286-7611-47d2-b2dd-d90681f74762
2020-03-01 05:14:29,f00f6e1e-0041-4c4e-9310-2664a33c8660,1,1c03bad7-4d5a-4351-8dcd-2d00dc820dde,b9841286-7611-47d2-b2dd-d90681f74762
2020-03-01 05:14:29,23358fa6-4df7-437d-9726-2460a388cf2d,1,1c03bad7-4d5a-4351-8dcd-2d00dc820dde,b9841286-7611-47d2-b2dd-d90681f74762
2020-03-01 05:15:31,0b875733-d606-4e13-bc93-0a57c0a6f850,1,1c03bad7-4d5a-4351-8dcd-2d00dc820dde,3723d3fa-d837-45f8-8e37-9437a890ded8
2020-03-01 05:15:31,5a20e0a3-9cda-483f-998d-415f98d67a26,1,1c03bad7-4d5a-4351-8dcd-2d00dc820dde,bf2abf7e-6838-43c7-b03c-084581dd0589
2020-03-01 05:15:31,6625d2ea-c8ec-486a-8887-d6790b8df449,1,1c03bad7-4d5a-4351-8dcd-2d00dc820dde,bf2abf7e-6838-43c7-b03c-084581dd0589
2020-03-01 05:16:34,939aac13-128c-47b7-9d0f-177aa74a3193,1,1c03bad7-4d5a-4351-8dcd-2d00dc820dde,7cd6c816-e40f-4824-a258-d0727dad4b1d
2020-03-01 05:16:34,19b65ce9-c8c6-4c57-96b4-3ca4bfc06a36,1,1c03bad7-4d5a-4351-8dcd-2d00dc820dde,fcd85eb8-cb38-49dc-8ee2-2739e9921a47
2020-03-01 05:16:34,e2afe939-f541-4c40-b59f-760b99368dcf,1,1c03bad7-4d5a-4351-8dcd-2d00dc820dde,7cd6c816-e40f-4824-a258-d0727dad4b1d
2020-03-01 05:17:36,3f89712d-231a-48bc-9314-88f927ec84c0,1,1c03bad7-4d5a-4351-8dcd-2d00dc820dde,513d351a-7800-45d9-8720-856d344df92c
2020-03-01 05:17:36,4894d199-0904-49ab-aa36-2e0fd15d4cf1,1,1c03bad7-4d5a-4351-8dcd-2d00dc820dde,cdac51bb-7b90-491d-ac17-6e041017ae9a
2020-03-01 05:17:36,fea9d4ee-b233-4c31-8f0e-318ba402e96a,1,1c03bad7-4d5a-4351-8dcd-2d00dc820dde,cdac51bb-7b90-491d-ac17-6e041017ae9a
2020-03-01 05:18:39,f16925e4-b5d3-479e-a7d8-dab4c8c38922,1,1c03bad7-4d5a-4351-8dcd-2d00dc820dde,91f7a570-3f4d-46ea-97fb-3752ced92ba2
2020-03-01 05:18:39,22cedb8a-521c-42b4-a871-696c7d87f2a2,1,1c03bad7-4d5a-4351-8dcd-2d00dc820dde,e499643c-f8ae-44db-84db-218e97c9f242
2020-03-01 05:18:39,be871e17-b5d2-41eb-ab43-68349f4dc8ee,1,1c03bad7-4d5a-4351-8dcd-2d00dc820dde,91f7a570-3f4d-46ea-97fb-3752ced92ba2
2020-03-01 05:19:42,9e69ad40-3b5e-4048-9d71-e6b6668209c5,1,1c03bad7-4d5a-4351-8dcd-2d00dc820dde,cd8570a4-294e-4098-b297-f1ee7ceba73b
2020-03-01 05:19:42,d4a69116-8db1-4df3-b941-e4b5ef1d51e0,1,1c03bad7-4d5a-4351-8dcd-2d00dc820dde,09a80211-c309-432a-b012-bbef42bf0b16
2020-03-01 05:19:42,7431448b-ed04-4235-adb4-f1807950f0e4,1,1c03bad7-4d5a-4351-8dcd-2d00dc820dde,09a80211-c309-432a-b012-bbef42bf0b16
2020-03-01 05:20:45,126cf64c-ac55-40b0-9f48-e39adcd07de6,1,1c03bad7-4d5a-4351-8dcd-2d00dc820dde,96fe20a3-3813-48b8-a395-01c60ba30f1b
2020-03-01 05:20:45,ca91e527-08c5-4b84-80e0-ac08f30ad10c,1,1c03bad7-4d5a-4351-8dcd-2d00dc820dde,df40e777-9e31-4217-8a20-300251963757
2020-03-01 05:20:45,08aadb20-9b33-49b0-b24a-578ec18337d6,1,1c03bad7-4d5a-4351-8dcd-2d00dc820dde,df40e777-9e31-4217-8a20-300251963757
2020-03-01 05:21:48,6443b398-a78f-4d90-8840-6fdd407a51f1,1,1c03bad7-4d5a-4351-8dcd-2d00dc820dde,b4102a6e-bfe7-4acb-b19a-a3109065e49b
2020-03-01 05:21:48,9fb8a889-7cc4-4d36-9341-583f29517c55,1,1c03bad7-4d5a-4351-8dcd-2d00dc820dde,aba14390-e7f9-4e31-8f22-c32ed2a950e2
2020-03-01 05:21:48,ccc16058-9cc7-4d2a-8660-b61007c00130,1,1c03bad7-4d5a-4351-8dcd-2d00dc820dde,aba14390-e7f9-4e31-8f22-c32ed2a950e2
2020-03-01 05:22:50,fad7e77b-5447-4cdc-aa47-457e47e6a6fe,1,1c03bad7-4d5a-4351-8dcd-2d00dc820dde,2b6b6872-9f58-4caf-80b1-06b5f6365ad7
2020-03-01 05:22:50,1f71ff0f-d5da-4901-84f8-1aa9bd9865f6,1,1c03bad7-4d5a-4351-8dcd-2d00dc820dde,89f31a9f-0b03-43e5-91e9-67e26866802c
2020-03-01 05:22:50,7e728e19-6099-48a4-aa50-fec94fcf9dec,1,1c03bad7-4d5a-4351-8dcd-2d00dc820dde,89f31a9f-0b03-43e5-91e9-67e26866802c
2020-03-01 05:23:53,799d7c45-1d66-49bb-8905-fb7447f586e9,1,1c03bad7-4d5a-4351-8dcd-2d00dc820dde,362a1a55-0197-405f-8dc6-198b4297d9ec
2020-03-01 05:23:53,1af4efbf-108d-47cb-94fb-d01c73346754,1,1c03bad7-4d5a-4351-8dcd-2d00dc820dde,362a1a55-0197-405f-8dc6-198b4297d9ec
2020-03-01 05:23:53,b49af614-84c7-4ac3-8df1-6de0a807d1cd,1,1c03bad7-4d5a-4351-8dcd-2d00dc820dde,5f3fb00d-b4ac-4ae3-9501-5c203f256b0b
2020-03-01 05:24:56,bb825a90-2fe0-4f05-bd99-1597dddf8f5a,1,1c03bad7-4d5a-4351-8dcd-2d00dc820dde,1a5f58f8-cb38-4fa1-a447-5fa729686021
2020-03-01 05:24:56,59b0e6fa-42c6-477b-b96d-e2fa9f9f7fcb,1,1c03bad7-4d5a-4351-8dcd-2d00dc820dde,69b4ed17-0e09-47b0-bf09-ddb41ae8fcc6
2020-03-01 05:24:56,ffc5a36c-7a1f-4bdc-8057-e4773eed3eb8,1,1c03bad7-4d5a-4351-8dcd-2d00dc820dde,1a5f58f8-cb38-4fa1-a447-5fa729686021
2020-03-01 05:25:59,2ddb7a3c-7761-4d9d-ae01-b3d1c258d58a,1,1c03bad7-4d5a-4351-8dcd-2d00dc820dde,866869fa-8555-4908-badc-b0813d47ce7b
2020-03-01 05:25:59,96e7360d-841e-4389-b8e8-c52a384d4a1e,1,1c03bad7-4d5a-4351-8dcd-2d00dc820dde,4e6e35cf-5365-4eb1-bec8-10423102810f
2020-03-01 05:25:59,8ca66a87-ba6d-4539-89d2-6a0ac42b050d,1,1c03bad7-4d5a-4351-8dcd-2d00dc820dde,4e6e35cf-5365-4eb1-bec8-10423102810f
2020-03-01 05:27:02,2326c355-8016-4574-bb4c-d3392fc92cf2,1,1c03bad7-4d5a-4351-8dcd-2d00dc820dde,b417f3e2-2f49-42f1-8e69-b0ebb2d1b33b
2020-03-01 05:27:02,8e262fbc-f84b-469b-92b0-66a46aa80e08,1,1c03bad7-4d5a-4351-8dcd-2d00dc820dde,b417f3e2-2f49-42f1-8e69-b0ebb2d1b33b
2020-03-01 05:27:02,10d33ba7-4895-47de-912c-f6caf9ccef8d,1,1c03bad7-4d5a-4351-8dcd-2d00dc820dde,4592b4f4-4c97-41d2-b8fd-f0d3e82a13e2
2020-03-01 05:28:05,30a82e38-59af-49b9-b887-603cf0a32e53,1,1c03bad7-4d5a-4351-8dcd-2d00dc820dde,3d3ea4bc-9a07-42fb-9425-271f67412d75
2020-03-01 05:28:05,c799280e-62e7-4fd3-b403-cc942f9d9246,1,1c03bad7-4d5a-4351-8dcd-2d00dc820dde,51d6f4bf-1a4d-4190-9f14-d3ee3e955450
2020-03-01 05:28:05,8c448f28-8c38-4bf8-98a1-a52eb0157b1b,1,1c03bad7-4d5a-4351-8dcd-2d00dc820dde,51d6f4bf-1a4d-4190-9f14-d3ee3e955450
2020-03-01 05:29:08,2569c4e8-1771-4e04-8668-6c8ff9ce6a0f,1,1c03bad7-4d5a-4351-8dcd-2d00dc820dde,63b8aa7b-68ee-49ba-91b3-de8b0b0f21d5
2020-03-01 05:29:08,2ebd4bad-7e1e-49b4-8030-8e18fda79d4a,1,1c03bad7-4d5a-4351-8dcd-2d00dc820dde,2d3c0cba-bc8d-4900-8137-90f62453f01f
2020-03-01 05:29:08,34eeea07-ec8c-49bb-91c7-300d37eccad0,1,1c03bad7-4d5a-4351-8dcd-2d00dc820dde,2d3c0cba-bc8d-4900-8137-90f62453f01f
2020-03-01 05:30:11,c35a8fee-9997-4e1b-a907-91cf0efd5342,1,1c03bad7-4d5a-4351-8dcd-2d00dc820dde,6ab1a2b2-df40-4cd5-acf2-f74f1b118ed0
2020-03-01 05:30:11,ee293e1a-bd40-47e8-9212-4c79791b0b2f,1,1c03bad7-4d5a-4351-8dcd-2d00dc820dde,b9841286-7611-47d2-b2dd-d90681f74762
2020-03-01 05:30:11,7a6ee100-f865-44a1-ab0b-ad2f0ca5bbc7,1,1c03bad7-4d5a-4351-8dcd-2d00dc820dde,b9841286-7611-47d2-b2dd-d90681f74762
2020-03-01 05:31:14,0b7e9070-574d-4d66-ac4f-1979e2c3ebb1,1,1c03bad7-4d5a-4351-8dcd-2d00dc820dde,bf2abf7e-6838-43c7-b03c-084581dd0589
2020-03-01 05:31:14,2df759a6-f7fe-47fd-9c97-27a3c4108090,1,1c03bad7-4d5a-4351-8dcd-2d00dc820dde,60ab2924-65af-49f7-b295-ce5f13d5733c
2020-03-01 05:31:14,b6d67fed-64c0-4e04-8c37-4334dfbc8b90,1,1c03bad7-4d5a-4351-8dcd-2d00dc820dde,bf2abf7e-6838-43c7-b03c-084581dd0589
2020-03-01 05:32:17,2b76ff0c-6309-49a8-831c-9917addf0b4e,1,1c03bad7-4d5a-4351-8dcd-2d00dc820dde,7cd6c816-e40f-4824-a258-d0727dad4b1d
2020-03-01 05:32:17,94e96599-7bb3-464c-a81b-c14eec619a5f,1,1c03bad7-4d5a-4351-8dcd-2d00dc820dde,4733f052-31b9-4019-8858-7a58d3590a5d
2020-03-01 05:32:17,4492d0f8-58ec-45c3-8dfe-539661cb2576,1,1c03bad7-4d5a-4351-8dcd-2d00dc820dde,7cd6c816-e40f-4824-a258-d0727dad4b1d
2020-03-01 05:33:20,62be31b2-a3d1-470b-899b-b6a5713dc014,1,1c03bad7-4d5a-4351-8dcd-2d00dc820dde,cdac51bb-7b90-491d-ac17-6e041017ae9a
2020-03-01 05:33:20,21f9d06a-90b0-438f-994f-44bb902be7b5,1,1c03bad7-4d5a-4351-8dcd-2d00dc820dde,f428cf57-e88d-47c9-a558-7d07675bf950
2020-03-01 05:33:20,5fd02ddd-c31c-4694-b1db-89fdb5eee9de,1,1c03bad7-4d5a-4351-8dcd-2d00dc820dde,cdac51bb-7b90-491d-ac17-6e041017ae9a
2020-03-01 05:34:22,f50005f1-d6de-4446-8d3d-22473c7ac062,1,1c03bad7-4d5a-4351-8dcd-2d00dc820dde,91f7a570-3f4d-46ea-97fb-3752ced92ba2
2020-03-01 05:34:22,97971c0f-ed10-4e11-961e-3a1fa2684cad,1,1c03bad7-4d5a-4351-8dcd-2d00dc820dde,75f50d14-16a6-47b6-b4cb-d957144f78a9
2020-03-01 05:34:22,f3111e5e-0b5c-49a8-b7aa-a20265e96daf,1,1c03bad7-4d5a-4351-8dcd-2d00dc820dde,91f7a570-3f4d-46ea-97fb-3752ced92ba2
2020-03-01 05:35:25,4e85d153-7c11-4bf5-8e0f-f0a6980b7691,1,1c03bad7-4d5a-4351-8dcd-2d00dc820dde,09a80211-c309-432a-b012-bbef42bf0b16
2020-03-01 05:35:25,ed48b798-ec7a-4e99-abb2-2a93e182cabb,1,1c03bad7-4d5a-4351-8dcd-2d00dc820dde,1669c252-9bcd-46a9-b0e4-514101d2aa03
2020-03-01 05:35:25,1f42bf23-44c4-44f2-b930-fb98aa5f815f,1,1c03bad7-4d5a-4351-8dcd-2d00dc820dde,09a80211-c309-432a-b012-bbef42bf0b16
2020-03-01 05:36:28,d09e7a1c-5177-4f39-bb06-082536f5d2cb,1,1c03bad7-4d5a-4351-8dcd-2d00dc820dde,df40e777-9e31-4217-8a20-300251963757
2020-03-01 05:36:28,7771006d-8b8d-4ee4-a99c-83f09a6749fc,1,1c03bad7-4d5a-4351-8dcd-2d00dc820dde,b3b1c459-6312-4c1a-b782-29ff23ce37b4
2020-03-01 05:36:28,0296ad92-0f06-433b-b931-c7c689e01a4c,1,1c03bad7-4d5a-4351-8dcd-2d00dc820dde,df40e777-9e31-4217-8a20-300251963757
2020-03-01 05:37:31,8574c55b-bc05-4e25-b66b-a9221ff5df3d,1,1c03bad7-4d5a-4351-8dcd-2d00dc820dde,aba14390-e7f9-4e31-8f22-c32ed2a950e2
2020-03-01 05:37:31,531bd8aa-8dbe-4528-b5f0-5ee582996091,1,1c03bad7-4d5a-4351-8dcd-2d00dc820dde,aba14390-e7f9-4e31-8f22-c32ed2a950e2
2020-03-01 05:37:31,f89094d5-903a-4c21-89ad-85c1e3e56c75,1,1c03bad7-4d5a-4351-8dcd-2d00dc820dde,3fe901f3-65c4-4605-9bc9-dbedcaa05ab0
2020-03-01 05:38:34,60ff8238-8394-4f17-a493-6b30f9824746,1,1c03bad7-4d5a-4351-8dcd-2d00dc820dde,89f31a9f-0b03-43e5-91e9-67e26866802c
2020-03-01 05:38:34,6e0c1bee-a9cd-4dbe-a072-15aa23403c8d,1,1c03bad7-4d5a-4351-8dcd-2d00dc820dde,2f8d1f93-2a51-43a1-bded-dfd1ed4a520f
2020-03-01 05:38:34,81ce50fd-0619-4d3e-83d0-1b9ca02e57b8,1,1c03bad7-4d5a-4351-8dcd-2d00dc820dde,89f31a9f-0b03-43e5-91e9-67e26866802c
2020-03-01 05:39:37,fa774273-fad2-4d0e-959b-f57771dacd86,1,1c03bad7-4d5a-4351-8dcd-2d00dc820dde,362a1a55-0197-405f-8dc6-198b4297d9ec
2020-03-01 05:39:37,02ae7090-0728-48a2-834e-19264f251ef7,1,1c03bad7-4d5a-4351-8dcd-2d00dc820dde,362a1a55-0197-405f-8dc6-198b4297d9ec
2020-03-01 05:39:37,f09e3ff5-573a-4aea-96e6-7b44216f05ec,1,1c03bad7-4d5a-4351-8dcd-2d00dc820dde,7776cc7e-21b0-4611-b34d-b4112a6c5f5c
2020-03-01 05:40:39,e91099f0-fada-4df2-ab5f-565d945371fb,1,1c03bad7-4d5a-4351-8dcd-2d00dc820dde,1a5f58f8-cb38-4fa1-a447-5fa729686021
2020-03-01 05:40:39,cdb6e8c5-d87b-4229-9ca4-251638815baa,1,1c03bad7-4d5a-4351-8dcd-2d00dc820dde,1a5f58f8-cb38-4fa1-a447-5fa729686021
2020-03-01 05:40:39,4ceecfb7-42bf-41f9-8962-c1bd38edc99e,1,1c03bad7-4d5a-4351-8dcd-2d00dc820dde,c8ef00aa-3936-43a1-80fd-ba4b8d881aff
2020-03-01 05:41:42,982816b2-d721-4563-a1bd-a9ffe839deaf,1,1c03bad7-4d5a-4351-8dcd-2d00dc820dde,61d66d7d-d630-4746-af7b-f9af14a597ad
2020-03-01 05:41:42,259492c8-e309-4754-8d6b-4b403de155fa,1,1c03bad7-4d5a-4351-8dcd-2d00dc820dde,4e6e35cf-5365-4eb1-bec8-10423102810f
2020-03-01 05:41:42,74c541d5-2b77-4b75-87a0-b2b657113d4e,1,1c03bad7-4d5a-4351-8dcd-2d00dc820dde,4e6e35cf-5365-4eb1-bec8-10423102810f
2020-03-01 05:42:45,a822fbf7-00bc-4c45-ba51-df404b013f3c,1,1c03bad7-4d5a-4351-8dcd-2d00dc820dde,c1e57a45-d2b2-4749-9702-6eb15c782d0a
2020-03-01 05:42:45,99d49e67-bc9b-4df7-98cc-d4f9dba1a755,1,1c03bad7-4d5a-4351-8dcd-2d00dc820dde,b417f3e2-2f49-42f1-8e69-b0ebb2d1b33b
2020-03-01 05:42:45,3cb2b633-6784-4e15-8266-510efcfbb406,1,1c03bad7-4d5a-4351-8dcd-2d00dc820dde,b417f3e2-2f49-42f1-8e69-b0ebb2d1b33b
2020-03-01 05:43:47,e095a9c3-c944-4fd8-bad6-7b63b9f7c212,1,1c03bad7-4d5a-4351-8dcd-2d00dc820dde,61ca579f-44eb-43ca-ab4f-d7142b58c7df
2020-03-01 05:43:47,346c5f48-89e3-48a1-9c16-8a06433f7c91,1,1c03bad7-4d5a-4351-8dcd-2d00dc820dde,51d6f4bf-1a4d-4190-9f14-d3ee3e955450
2020-03-01 05:43:47,2fa98f37-89e0-4bf5-b4e3-d2fcc54fd3d6,1,1c03bad7-4d5a-4351-8dcd-2d00dc820dde,51d6f4bf-1a4d-4190-9f14-d3ee3e955450
2020-03-01 05:44:50,d15970cd-206b-4e36-9b07-03d781c5bc94,1,1c03bad7-4d5a-4351-8dcd-2d00dc820dde,9b990470-2ef8-4c66-9629-ce7a166cc2e9
2020-03-01 05:44:50,58266978-bc82-408d-b691-6a9a5714713a,1,1c03bad7-4d5a-4351-8dcd-2d00dc820dde,2d3c0cba-bc8d-4900-8137-90f62453f01f
2020-03-01 05:44:50,d433e068-1c4f-4061-8886-0e1fafcc1947,1,1c03bad7-4d5a-4351-8dcd-2d00dc820dde,2d3c0cba-bc8d-4900-8137-90f62453f01f
2020-03-01 05:45:53,8d4a21da-5554-40b4-910e-3d57db960d35,1,1c03bad7-4d5a-4351-8dcd-2d00dc820dde,b9841286-7611-47d2-b2dd-d90681f74762
2020-03-01 05:45:53,76177b6d-6f45-491b-b16c-6efd0d8b7d83,1,1c03bad7-4d5a-4351-8dcd-2d00dc820dde,ca9db945-5473-426a-9f47-5f5f18a190c4
2020-03-01 05:45:53,244a4597-0030-4acb-9092-75a9049e811f,1,1c03bad7-4d5a-4351-8dcd-2d00dc820dde,b9841286-7611-47d2-b2dd-d90681f74762
2020-03-01 05:46:56,04650697-0c17-4179-8852-220d122b4eda,1,1c03bad7-4d5a-4351-8dcd-2d00dc820dde,55a1c813-e0d0-4e56-bcb7-5308d1a827fc
2020-03-01 05:46:56,03024d8c-7cec-4695-b07a-a44d8eb36800,1,1c03bad7-4d5a-4351-8dcd-2d00dc820dde,bf2abf7e-6838-43c7-b03c-084581dd0589
2020-03-01 05:46:56,3492acc0-65e9-42ff-8bb7-91003580e76d,1,1c03bad7-4d5a-4351-8dcd-2d00dc820dde,bf2abf7e-6838-43c7-b03c-084581dd0589
2020-03-01 05:47:59,cf708404-9863-462d-ac11-127e14b6232a,1,1c03bad7-4d5a-4351-8dcd-2d00dc820dde,bae86749-2ca0-48c3-9706-0930d9150d8b
2020-03-01 05:47:59,d5a12e86-df4a-4c8c-b585-27e8a6801f84,1,1c03bad7-4d5a-4351-8dcd-2d00dc820dde,7cd6c816-e40f-4824-a258-d0727dad4b1d
2020-03-01 05:47:59,de5dbb09-41d8-4a80-afac-82effc9cc65a,1,1c03bad7-4d5a-4351-8dcd-2d00dc820dde,7cd6c816-e40f-4824-a258-d0727dad4b1d
2020-03-01 05:49:01,12df1903-533e-4977-895f-42f9727c7b99,1,1c03bad7-4d5a-4351-8dcd-2d00dc820dde,cdac51bb-7b90-491d-ac17-6e041017ae9a
2020-03-01 05:49:01,d8aad25a-3f9a-4fbd-86b3-d7a8e4d817c1,1,1c03bad7-4d5a-4351-8dcd-2d00dc820dde,2d6f9d3f-7002-47bb-8216-31db24f25566
2020-03-01 05:49:01,01d5bdb1-87c1-45f4-abbd-12f33a044706,1,1c03bad7-4d5a-4351-8dcd-2d00dc820dde,cdac51bb-7b90-491d-ac17-6e041017ae9a
2020-03-01 05:50:04,f01e7d77-4b21-4892-8056-93300d381606,1,1c03bad7-4d5a-4351-8dcd-2d00dc820dde,ec890dc1-41e7-43e4-8861-5e696e23a1a6
2020-03-01 05:50:04,50323d99-908c-4a1b-8743-0b099f51d768,1,1c03bad7-4d5a-4351-8dcd-2d00dc820dde,91f7a570-3f4d-46ea-97fb-3752ced92ba2
2020-03-01 05:50:04,fbd2a413-7a00-459e-8818-e14d85d0d65a,1,1c03bad7-4d5a-4351-8dcd-2d00dc820dde,91f7a570-3f4d-46ea-97fb-3752ced92ba2
2020-03-01 05:51:07,6d3fcd0c-00e6-487c-9877-f3224e8e3eab,1,1c03bad7-4d5a-4351-8dcd-2d00dc820dde,09a80211-c309-432a-b012-bbef42bf0b16
2020-03-01 05:51:07,a36f9d24-de57-4754-9212-c2ff3566f5ad,1,1c03bad7-4d5a-4351-8dcd-2d00dc820dde,c36fd8b8-192e-4cc1-879b-1019b12f191c
2020-03-01 05:51:07,a3c5aac3-f005-4e5c-9ae5-654699b3b4a2,1,1c03bad7-4d5a-4351-8dcd-2d00dc820dde,09a80211-c309-432a-b012-bbef42bf0b16
2020-03-01 05:52:10,4c790bf0-fb44-4bc8-a5a4-39dabc3edb6c,1,1c03bad7-4d5a-4351-8dcd-2d00dc820dde,df40e777-9e31-4217-8a20-300251963757
2020-03-01 05:52:10,5a53d168-c8d3-4f61-90af-2def4be853b8,1,1c03bad7-4d5a-4351-8dcd-2d00dc820dde,c9972d52-825e-4389-a53c-930936ee438d
2020-03-01 05:52:10,73ac1f4c-99d8-4779-82f9-621c689d4ade,1,1c03bad7-4d5a-4351-8dcd-2d00dc820dde,df40e777-9e31-4217-8a20-300251963757
2020-03-01 05:53:12,90dd76ff-2478-4c83-bebe-30d291ec8174,1,1c03bad7-4d5a-4351-8dcd-2d00dc820dde,aba14390-e7f9-4e31-8f22-c32ed2a950e2
2020-03-01 05:53:12,94345d78-f3a3-449b-80a5-1e7425cc497d,1,1c03bad7-4d5a-4351-8dcd-2d00dc820dde,a2c497a8-e6f0-4e99-971f-0beb3bafa1c7
2020-03-01 05:53:12,7c91deba-7216-45d9-9f17-cb02414996eb,1,1c03bad7-4d5a-4351-8dcd-2d00dc820dde,aba14390-e7f9-4e31-8f22-c32ed2a950e2
2020-03-01 05:54:15,c1183e9c-1a9c-4d26-9d7f-8f4f9d5c4f6e,1,1c03bad7-4d5a-4351-8dcd-2d00dc820dde,89f31a9f-0b03-43e5-91e9-67e26866802c
2020-03-01 05:54:15,34d4e3fc-6934-4287-b5c3-c780ec0454e3,1,1c03bad7-4d5a-4351-8dcd-2d00dc820dde,89f31a9f-0b03-43e5-91e9-67e26866802c
2020-03-01 05:54:15,a80940f2-50ef-421d-b46d-264c3cee7305,1,1c03bad7-4d5a-4351-8dcd-2d00dc820dde,4591abbb-7349-4a69-b666-39c62c7c848e
2020-03-01 05:55:18,39ef303c-df39-43cf-ad74-2ddecd2a01f8,1,1c03bad7-4d5a-4351-8dcd-2d00dc820dde,5c9e5cfe-f44f-45a2-9b6f-e772717a8427
2020-03-01 05:55:18,5fb0b15d-0216-49e8-b88b-a2b1c484de47,1,1c03bad7-4d5a-4351-8dcd-2d00dc820dde,362a1a55-0197-405f-8dc6-198b4297d9ec
2020-03-01 05:55:18,67b329ab-f659-4d3f-9cf8-ec96e728ec78,1,1c03bad7-4d5a-4351-8dcd-2d00dc820dde,362a1a55-0197-405f-8dc6-198b4297d9ec
2020-03-01 05:56:21,0e7b17e2-7650-4801-a04e-f9b04ec90628,1,1c03bad7-4d5a-4351-8dcd-2d00dc820dde,1a5f58f8-cb38-4fa1-a447-5fa729686021
2020-03-01 05:56:21,17c63a31-6d95-40bf-af20-53ec36ac153f,1,1c03bad7-4d5a-4351-8dcd-2d00dc820dde,b1f4f154-68ff-4e06-b6d3-1fbd45419032
2020-03-01 05:56:21,c1a3060b-3f97-4abf-ba0e-bb8ca112f098,1,1c03bad7-4d5a-4351-8dcd-2d00dc820dde,1a5f58f8-cb38-4fa1-a447-5fa729686021
2020-03-01 05:57:24,8a8ff76e-8167-4326-8bb5-b0723dbb476f,1,1c03bad7-4d5a-4351-8dcd-2d00dc820dde,4e6e35cf-5365-4eb1-bec8-10423102810f
2020-03-01 05:57:24,3704b9d7-e96e-41fa-89d8-bfa21b6556f6,1,1c03bad7-4d5a-4351-8dcd-2d00dc820dde,6327fca0-761e-4fa3-83d1-8a2a0d77bb3b
2020-03-01 05:57:24,273c1eaa-be29-431f-9cf4-17c9ae857b1b,1,1c03bad7-4d5a-4351-8dcd-2d00dc820dde,4e6e35cf-5365-4eb1-bec8-10423102810f
2020-03-01 05:58:27,1dc27d79-080c-4ac2-abce-efe1a130525b,1,1c03bad7-4d5a-4351-8dcd-2d00dc820dde,b417f3e2-2f49-42f1-8e69-b0ebb2d1b33b
2020-03-01 05:58:27,98b5614a-7a56-4e58-9863-95807265141d,1,1c03bad7-4d5a-4351-8dcd-2d00dc820dde,69224202-66c4-4849-a14e-65c036eefcfe
2020-03-01 05:58:27,b157408d-f389-484e-bdeb-3dc02159203f,1,1c03bad7-4d5a-4351-8dcd-2d00dc820dde,b417f3e2-2f49-42f1-8e69-b0ebb2d1b33b
2020-03-01 06:20:39,c799280e-62e7-4fd3-b403-cc942f9d9246,1,b9841286-7611-47d2-b2dd-d90681f74762,1a5f58f8-cb38-4fa1-a447-5fa729686021
2020-03-01 06:20:39,8c448f28-8c38-4bf8-98a1-a52eb0157b1b,1,b9841286-7611-47d2-b2dd-d90681f74762,1a5f58f8-cb38-4fa1-a447-5fa729686021
2020-03-01 06:20:54,939aac13-128c-47b7-9d0f-177aa74a3193,1,b9841286-7611-47d2-b2dd-d90681f74762,51d6f4bf-1a4d-4190-9f14-d3ee3e955450
2020-03-01 06:20:54,e2afe939-f541-4c40-b59f-760b99368dcf,1,b9841286-7611-47d2-b2dd-d90681f74762,51d6f4bf-1a4d-4190-9f14-d3ee3e955450
2020-03-01 06:21:09,8d4a21da-5554-40b4-910e-3d57db960d35,1,b9841286-7611-47d2-b2dd-d90681f74762,bf2abf7e-6838-43c7-b03c-084581dd0589
2020-03-01 06:21:09,244a4597-0030-4acb-9092-75a9049e811f,1,b9841286-7611-47d2-b2dd-d90681f74762,bf2abf7e-6838-43c7-b03c-084581dd0589
2020-03-01 06:21:17,ee293e1a-bd40-47e8-9212-4c79791b0b2f,1,b9841286-7611-47d2-b2dd-d90681f74762,91f7a570-3f4d-46ea-97fb-3752ced92ba2
2020-03-01 06:21:17,7a6ee100-f865-44a1-ab0b-ad2f0ca5bbc7,1,b9841286-7611-47d2-b2dd-d90681f74762,91f7a570-3f4d-46ea-97fb-3752ced92ba2
2020-03-01 06:46:16,8a8ff76e-8167-4326-8bb5-b0723dbb476f,1,b9841286-7611-47d2-b2dd-d90681f74762,2d3c0cba-bc8d-4900-8137-90f62453f01f
2020-03-01 06:46:25,8a8ff76e-8167-4326-8bb5-b0723dbb476f,1,b9841286-7611-47d2-b2dd-d90681f74762,89f31a9f-0b03-43e5-91e9-67e26866802c
2020-03-01 05:58:40,b9982de5-094f-4efc-88ed-ca4aeae9a41f,1,2d3c0cba-bc8d-4900-8137-90f62453f01f,aba14390-e7f9-4e31-8f22-c32ed2a950e2
2020-03-01 05:58:40,0c86206d-61cc-4893-bdf3-6e21ebb64597,1,2d3c0cba-bc8d-4900-8137-90f62453f01f,aba14390-e7f9-4e31-8f22-c32ed2a950e2
2020-03-01 06:04:06,d4a69116-8db1-4df3-b941-e4b5ef1d51e0,1,2d3c0cba-bc8d-4900-8137-90f62453f01f,1a5f58f8-cb38-4fa1-a447-5fa729686021
2020-03-01 06:04:06,7431448b-ed04-4235-adb4-f1807950f0e4,1,2d3c0cba-bc8d-4900-8137-90f62453f01f,1a5f58f8-cb38-4fa1-a447-5fa729686021
2020-03-01 06:05:45,fc246520-3176-4842-84e8-c1b5eb6fd8a0,1,2d3c0cba-bc8d-4900-8137-90f62453f01f,df40e777-9e31-4217-8a20-300251963757
2020-03-01 06:05:45,3149816f-909d-41d0-913f-9563e282ce63,1,2d3c0cba-bc8d-4900-8137-90f62453f01f,df40e777-9e31-4217-8a20-300251963757
2020-03-01 06:05:52,58266978-bc82-408d-b691-6a9a5714713a,1,2d3c0cba-bc8d-4900-8137-90f62453f01f,bf2abf7e-6838-43c7-b03c-084581dd0589
2020-03-01 06:05:52,d433e068-1c4f-4061-8886-0e1fafcc1947,1,2d3c0cba-bc8d-4900-8137-90f62453f01f,bf2abf7e-6838-43c7-b03c-084581dd0589
2020-03-01 06:06:01,2ebd4bad-7e1e-49b4-8030-8e18fda79d4a,1,2d3c0cba-bc8d-4900-8137-90f62453f01f,1a5f58f8-cb38-4fa1-a447-5fa729686021
2020-03-01 06:06:01,34eeea07-ec8c-49bb-91c7-300d37eccad0,1,2d3c0cba-bc8d-4900-8137-90f62453f01f,1a5f58f8-cb38-4fa1-a447-5fa729686021
2020-03-01 06:14:39,939aac13-128c-47b7-9d0f-177aa74a3193,1,2d3c0cba-bc8d-4900-8137-90f62453f01f,b9841286-7611-47d2-b2dd-d90681f74762
2020-03-01 06:14:39,e2afe939-f541-4c40-b59f-760b99368dcf,1,2d3c0cba-bc8d-4900-8137-90f62453f01f,b9841286-7611-47d2-b2dd-d90681f74762
2020-03-01 06:26:32,5a20e0a3-9cda-483f-998d-415f98d67a26,1,2d3c0cba-bc8d-4900-8137-90f62453f01f,bf2abf7e-6838-43c7-b03c-084581dd0589
2020-03-01 06:26:32,6625d2ea-c8ec-486a-8887-d6790b8df449,1,2d3c0cba-bc8d-4900-8137-90f62453f01f,bf2abf7e-6838-43c7-b03c-084581dd0589
2020-03-01 06:26:41,4c790bf0-fb44-4bc8-a5a4-39dabc3edb6c,1,2d3c0cba-bc8d-4900-8137-90f62453f01f,89f31a9f-0b03-43e5-91e9-67e26866802c
2020-03-01 06:26:41,73ac1f4c-99d8-4779-82f9-621c689d4ade,1,2d3c0cba-bc8d-4900-8137-90f62453f01f,89f31a9f-0b03-43e5-91e9-67e26866802c
2020-03-01 06:26:49,bb825a90-2fe0-4f05-bd99-1597dddf8f5a,1,2d3c0cba-bc8d-4900-8137-90f62453f01f,aba14390-e7f9-4e31-8f22-c32ed2a950e2
2020-03-01 06:26:49,ffc5a36c-7a1f-4bdc-8057-e4773eed3eb8,1,2d3c0cba-bc8d-4900-8137-90f62453f01f,aba14390-e7f9-4e31-8f22-c32ed2a950e2
2020-03-01 06:35:57,4894d199-0904-49ab-aa36-2e0fd15d4cf1,1,2d3c0cba-bc8d-4900-8137-90f62453f01f,1a5f58f8-cb38-4fa1-a447-5fa729686021
2020-03-01 06:35:57,fea9d4ee-b233-4c31-8f0e-318ba402e96a,1,2d3c0cba-bc8d-4900-8137-90f62453f01f,1a5f58f8-cb38-4fa1-a447-5fa729686021
2020-03-01 06:38:52,d5a12e86-df4a-4c8c-b585-27e8a6801f84,1,2d3c0cba-bc8d-4900-8137-90f62453f01f,4e6e35cf-5365-4eb1-bec8-10423102810f
2020-03-01 06:38:52,de5dbb09-41d8-4a80-afac-82effc9cc65a,1,2d3c0cba-bc8d-4900-8137-90f62453f01f,4e6e35cf-5365-4eb1-bec8-10423102810f
2020-03-01 06:44:29,5fb0b15d-0216-49e8-b88b-a2b1c484de47,1,2d3c0cba-bc8d-4900-8137-90f62453f01f,1a5f58f8-cb38-4fa1-a447-5fa729686021
2020-03-01 06:44:29,67b329ab-f659-4d3f-9cf8-ec96e728ec78,1,2d3c0cba-bc8d-4900-8137-90f62453f01f,1a5f58f8-cb38-4fa1-a447-5fa729686021
2020-03-01 06:46:23,273c1eaa-be29-431f-9cf4-17c9ae857b1b,1,2d3c0cba-bc8d-4900-8137-90f62453f01f,89f31a9f-0b03-43e5-91e9-67e26866802c
2020-03-01 07:00:10,5a20e0a3-9cda-483f-998d-415f98d67a26,1,2d3c0cba-bc8d-4900-8137-90f62453f01f,51d6f4bf-1a4d-4190-9f14-d3ee3e955450
2020-03-01 07:00:10,6625d2ea-c8ec-486a-8887-d6790b8df449,1,2d3c0cba-bc8d-4900-8137-90f62453f01f,51d6f4bf-1a4d-4190-9f14-d3ee3e955450
2020-03-01 06:04:21,b9982de5-094f-4efc-88ed-ca4aeae9a41f,1,aba14390-e7f9-4e31-8f22-c32ed2a950e2,09a80211-c309-432a-b012-bbef42bf0b16
2020-03-01 06:04:21,0c86206d-61cc-4893-bdf3-6e21ebb64597,1,aba14390-e7f9-4e31-8f22-c32ed2a950e2,09a80211-c309-432a-b012-bbef42bf0b16
2020-03-01 06:12:13,c799280e-62e7-4fd3-b403-cc942f9d9246,1,aba14390-e7f9-4e31-8f22-c32ed2a950e2,b9841286-7611-47d2-b2dd-d90681f74762
2020-03-01 06:12:13,8c448f28-8c38-4bf8-98a1-a52eb0157b1b,1,aba14390-e7f9-4e31-8f22-c32ed2a950e2,b9841286-7611-47d2-b2dd-d90681f74762
2020-03-01 06:12:18,4c790bf0-fb44-4bc8-a5a4-39dabc3edb6c,1,aba14390-e7f9-4e31-8f22-c32ed2a950e2,2d3c0cba-bc8d-4900-8137-90f62453f01f
2020-03-01 06:12:18,73ac1f4c-99d8-4779-82f9-621c689d4ade,1,aba14390-e7f9-4e31-8f22-c32ed2a950e2,2d3c0cba-bc8d-4900-8137-90f62453f01f
2020-03-01 06:26:59,5a20e0a3-9cda-483f-998d-415f98d67a26,1,aba14390-e7f9-4e31-8f22-c32ed2a950e2,cdac51bb-7b90-491d-ac17-6e041017ae9a
2020-03-01 06:26:59,6625d2ea-c8ec-486a-8887-d6790b8df449,1,aba14390-e7f9-4e31-8f22-c32ed2a950e2,cdac51bb-7b90-491d-ac17-6e041017ae9a
2020-03-01 06:35:44,4894d199-0904-49ab-aa36-2e0fd15d4cf1,1,aba14390-e7f9-4e31-8f22-c32ed2a950e2,2d3c0cba-bc8d-4900-8137-90f62453f01f
2020-03-01 06:35:45,fea9d4ee-b233-4c31-8f0e-318ba402e96a,1,aba14390-e7f9-4e31-8f22-c32ed2a950e2,2d3c0cba-bc8d-4900-8137-90f62453f01f
2020-03-01 06:21:37,939aac13-128c-47b7-9d0f-177aa74a3193,1,91f7a570-3f4d-46ea-97fb-3752ced92ba2,1a5f58f8-cb38-4fa1-a447-5fa729686021
2020-03-01 06:21:37,e2afe939-f541-4c40-b59f-760b99368dcf,1,91f7a570-3f4d-46ea-97fb-3752ced92ba2,1a5f58f8-cb38-4fa1-a447-5fa729686021
2020-03-01 06:21:47,ee293e1a-bd40-47e8-9212-4c79791b0b2f,1,91f7a570-3f4d-46ea-97fb-3752ced92ba2,b417f3e2-2f49-42f1-8e69-b0ebb2d1b33b
2020-03-01 06:21:47,7a6ee100-f865-44a1-ab0b-ad2f0ca5bbc7,1,91f7a570-3f4d-46ea-97fb-3752ced92ba2,b417f3e2-2f49-42f1-8e69-b0ebb2d1b33b
2020-03-01 06:26:12,4894d199-0904-49ab-aa36-2e0fd15d4cf1,1,91f7a570-3f4d-46ea-97fb-3752ced92ba2,b417f3e2-2f49-42f1-8e69-b0ebb2d1b33b
2020-03-01 06:26:12,fea9d4ee-b233-4c31-8f0e-318ba402e96a,1,91f7a570-3f4d-46ea-97fb-3752ced92ba2,b417f3e2-2f49-42f1-8e69-b0ebb2d1b33b
2020-03-01 06:43:57,4894d199-0904-49ab-aa36-2e0fd15d4cf1,1,91f7a570-3f4d-46ea-97fb-3752ced92ba2,7cd6c816-e40f-4824-a258-d0727dad4b1d
2020-03-01 06:43:57,fea9d4ee-b233-4c31-8f0e-318ba402e96a,1,91f7a570-3f4d-46ea-97fb-3752ced92ba2,7cd6c816-e40f-4824-a258-d0727dad4b1d
2020-03-01 06:03:01,d4a69116-8db1-4df3-b941-e4b5ef1d51e0,1,7cd6c816-e40f-4824-a258-d0727dad4b1d,51d6f4bf-1a4d-4190-9f14-d3ee3e955450
2020-03-01 06:03:01,7431448b-ed04-4235-adb4-f1807950f0e4,1,7cd6c816-e40f-4824-a258-d0727dad4b1d,51d6f4bf-1a4d-4190-9f14-d3ee3e955450
2020-03-01 06:14:00,939aac13-128c-47b7-9d0f-177aa74a3193,1,7cd6c816-e40f-4824-a258-d0727dad4b1d,cdac51bb-7b90-491d-ac17-6e041017ae9a
2020-03-01 06:14:00,e2afe939-f541-4c40-b59f-760b99368dcf,1,7cd6c816-e40f-4824-a258-d0727dad4b1d,cdac51bb-7b90-491d-ac17-6e041017ae9a
2020-03-01 06:14:08,d5a12e86-df4a-4c8c-b585-27e8a6801f84,1,7cd6c816-e40f-4824-a258-d0727dad4b1d,362a1a55-0197-405f-8dc6-198b4297d9ec
2020-03-01 06:14:08,de5dbb09-41d8-4a80-afac-82effc9cc65a,1,7cd6c816-e40f-4824-a258-d0727dad4b1d,362a1a55-0197-405f-8dc6-198b4297d9ec
2020-03-01 06:14:16,bb825a90-2fe0-4f05-bd99-1597dddf8f5a,1,7cd6c816-e40f-4824-a258-d0727dad4b1d,2d3c0cba-bc8d-4900-8137-90f62453f01f
2020-03-01 06:14:16,ffc5a36c-7a1f-4bdc-8057-e4773eed3eb8,1,7cd6c816-e40f-4824-a258-d0727dad4b1d,2d3c0cba-bc8d-4900-8137-90f62453f01f
2020-03-01 06:03:22,03024d8c-7cec-4695-b07a-a44d8eb36800,1,cdac51bb-7b90-491d-ac17-6e041017ae9a,b417f3e2-2f49-42f1-8e69-b0ebb2d1b33b
2020-03-01 06:03:22,3492acc0-65e9-42ff-8bb7-91003580e76d,1,cdac51bb-7b90-491d-ac17-6e041017ae9a,b417f3e2-2f49-42f1-8e69-b0ebb2d1b33b
2020-03-01 06:04:48,5a20e0a3-9cda-483f-998d-415f98d67a26,1,cdac51bb-7b90-491d-ac17-6e041017ae9a,df40e777-9e31-4217-8a20-300251963757
2020-03-01 06:04:48,6625d2ea-c8ec-486a-8887-d6790b8df449,1,cdac51bb-7b90-491d-ac17-6e041017ae9a,df40e777-9e31-4217-8a20-300251963757
2020-03-01 06:14:16,939aac13-128c-47b7-9d0f-177aa74a3193,1,cdac51bb-7b90-491d-ac17-6e041017ae9a,2d3c0cba-bc8d-4900-8137-90f62453f01f
2020-03-01 06:14:16,e2afe939-f541-4c40-b59f-760b99368dcf,1,cdac51bb-7b90-491d-ac17-6e041017ae9a,2d3c0cba-bc8d-4900-8137-90f62453f01f
2020-03-01 06:25:43,4894d199-0904-49ab-aa36-2e0fd15d4cf1,1,cdac51bb-7b90-491d-ac17-6e041017ae9a,bf2abf7e-6838-43c7-b03c-084581dd0589
2020-03-01 06:25:43,fea9d4ee-b233-4c31-8f0e-318ba402e96a,1,cdac51bb-7b90-491d-ac17-6e041017ae9a,bf2abf7e-6838-43c7-b03c-084581dd0589
2020-03-01 06:25:50,d5a12e86-df4a-4c8c-b585-27e8a6801f84,1,cdac51bb-7b90-491d-ac17-6e041017ae9a,bf2abf7e-6838-43c7-b03c-084581dd0589
2020-03-01 06:25:50,de5dbb09-41d8-4a80-afac-82effc9cc65a,1,cdac51bb-7b90-491d-ac17-6e041017ae9a,bf2abf7e-6838-43c7-b03c-084581dd0589
2020-03-01 06:38:33,fc246520-3176-4842-84e8-c1b5eb6fd8a0,1,cdac51bb-7b90-491d-ac17-6e041017ae9a,4e6e35cf-5365-4eb1-bec8-10423102810f
2020-03-01 06:38:33,3149816f-909d-41d0-913f-9563e282ce63,1,cdac51bb-7b90-491d-ac17-6e041017ae9a,4e6e35cf-5365-4eb1-bec8-10423102810f
2020-03-01 06:45:57,8a8ff76e-8167-4326-8bb5-b0723dbb476f,1,cdac51bb-7b90-491d-ac17-6e041017ae9a,df40e777-9e31-4217-8a20-300251963757
2020-03-01 06:45:57,273c1eaa-be29-431f-9cf4-17c9ae857b1b,1,cdac51bb-7b90-491d-ac17-6e041017ae9a,df40e777-9e31-4217-8a20-300251963757
2020-03-01 06:46:07,273c1eaa-be29-431f-9cf4-17c9ae857b1b,1,cdac51bb-7b90-491d-ac17-6e041017ae9a,b9841286-7611-47d2-b2dd-d90681f74762
2020-03-01 06:46:15,273c1eaa-be29-431f-9cf4-17c9ae857b1b,1,cdac51bb-7b90-491d-ac17-6e041017ae9a,2d3c0cba-bc8d-4900-8137-90f62453f01f
2020-03-01 06:59:47,c799280e-62e7-4fd3-b403-cc942f9d9246,1,cdac51bb-7b90-491d-ac17-6e041017ae9a,09a80211-c309-432a-b012-bbef42bf0b16
2020-03-01 06:59:47,8c448f28-8c38-4bf8-98a1-a52eb0157b1b,1,cdac51bb-7b90-491d-ac17-6e041017ae9a,09a80211-c309-432a-b012-bbef42bf0b16
2020-03-01 06:59:57,5a20e0a3-9cda-483f-998d-415f98d67a26,1,cdac51bb-7b90-491d-ac17-6e041017ae9a,2d3c0cba-bc8d-4900-8137-90f62453f01f
2020-03-01 06:59:58,6625d2ea-c8ec-486a-8887-d6790b8df449,1,cdac51bb-7b90-491d-ac17-6e041017ae9a,2d3c0cba-bc8d-4900-8137-90f62453f01f
2020-03-01 07:00:06,62be31b2-a3d1-470b-899b-b6a5713dc014,1,cdac51bb-7b90-491d-ac17-6e041017ae9a,bf2abf7e-6838-43c7-b03c-084581dd0589
2020-03-01 07:00:06,5fd02ddd-c31c-4694-b1db-89fdb5eee9de,1,cdac51bb-7b90-491d-ac17-6e041017ae9a,bf2abf7e-6838-43c7-b03c-084581dd0589
2020-03-01 06:06:01,2569c4e8-1771-4e04-8668-6c8ff9ce6a0f,1,63b8aa7b-68ee-49ba-91b3-de8b0b0f21d5,63b8aa7b-68ee-49ba-91b3-de8b0b0f21d5
2020-03-01 06:21:18,c35a8fee-9997-4e1b-a907-91cf0efd5342,1,6ab1a2b2-df40-4cd5-acf2-f74f1b118ed0,6ab1a2b2-df40-4cd5-acf2-f74f1b118ed0
2020-03-01 06:21:47,c35a8fee-9997-4e1b-a907-91cf0efd5342,1,6ab1a2b2-df40-4cd5-acf2-f74f1b118ed0,6ab1a2b2-df40-4cd5-acf2-f74f1b118ed0
2020-03-01 06:35:41,c35a8fee-9997-4e1b-a907-91cf0efd5342,1,6ab1a2b2-df40-4cd5-acf2-f74f1b118ed0,6ab1a2b2-df40-4cd5-acf2-f74f1b118ed0
2020-03-01 06:43:50,c35a8fee-9997-4e1b-a907-91cf0efd5342,1,6ab1a2b2-df40-4cd5-acf2-f74f1b118ed0,6ab1a2b2-df40-4cd5-acf2-f74f1b118ed0
2020-03-01 06:44:27,c35a8fee-9997-4e1b-a907-91cf0efd5342,1,6ab1a2b2-df40-4cd5-acf2-f74f1b118ed0,6ab1a2b2-df40-4cd5-acf2-f74f1b118ed0
2020-03-01 06:03:46,bbb92dfa-8003-47ab-a1b9-1ab8444a32ea,1,505bc132-5fd5-4ed2-a0c6-ba9392d0939c,505bc132-5fd5-4ed2-a0c6-ba9392d0939c
2020-03-01 06:05:46,bbb92dfa-8003-47ab-a1b9-1ab8444a32ea,1,505bc132-5fd5-4ed2-a0c6-ba9392d0939c,505bc132-5fd5-4ed2-a0c6-ba9392d0939c
2020-03-01 06:05:54,bbb92dfa-8003-47ab-a1b9-1ab8444a32ea,1,505bc132-5fd5-4ed2-a0c6-ba9392d0939c,505bc132-5fd5-4ed2-a0c6-ba9392d0939c
2020-03-01 06:38:19,bbb92dfa-8003-47ab-a1b9-1ab8444a32ea,1,505bc132-5fd5-4ed2-a0c6-ba9392d0939c,505bc132-5fd5-4ed2-a0c6-ba9392d0939c
2020-03-01 06:38:33,bbb92dfa-8003-47ab-a1b9-1ab8444a32ea,1,505bc132-5fd5-4ed2-a0c6-ba9392d0939c,505bc132-5fd5-4ed2-a0c6-ba9392d0939c
2020-03-01 06:02:44,9e69ad40-3b5e-4048-9d71-e6b6668209c5,1,cd8570a4-294e-4098-b297-f1ee7ceba73b,cd8570a4-294e-4098-b297-f1ee7ceba73b
2020-03-01 06:03:02,9e69ad40-3b5e-4048-9d71-e6b6668209c5,1,cd8570a4-294e-4098-b297-f1ee7ceba73b,cd8570a4-294e-4098-b297-f1ee7ceba73b
2020-03-01 06:03:28,9e69ad40-3b5e-4048-9d71-e6b6668209c5,1,cd8570a4-294e-4098-b297-f1ee7ceba73b,cd8570a4-294e-4098-b297-f1ee7ceba73b
2020-03-01 06:03:53,9e69ad40-3b5e-4048-9d71-e6b6668209c5,1,cd8570a4-294e-4098-b297-f1ee7ceba73b,cd8570a4-294e-4098-b297-f1ee7ceba73b
2020-03-01 06:04:07,9e69ad40-3b5e-4048-9d71-e6b6668209c5,1,cd8570a4-294e-4098-b297-f1ee7ceba73b,cd8570a4-294e-4098-b297-f1ee7ceba73b
2020-03-01 06:05:17,9e69ad40-3b5e-4048-9d71-e6b6668209c5,1,cd8570a4-294e-4098-b297-f1ee7ceba73b,cd8570a4-294e-4098-b297-f1ee7ceba73b
2020-03-01 06:08:49,9e69ad40-3b5e-4048-9d71-e6b6668209c5,1,cd8570a4-294e-4098-b297-f1ee7ceba73b,cd8570a4-294e-4098-b297-f1ee7ceba73b
2020-03-01 06:45:39,3704b9d7-e96e-41fa-89d8-bfa21b6556f6,1,6327fca0-761e-4fa3-83d1-8a2a0d77bb3b,6327fca0-761e-4fa3-83d1-8a2a0d77bb3b
2020-03-01 06:45:58,3704b9d7-e96e-41fa-89d8-bfa21b6556f6,1,6327fca0-761e-4fa3-83d1-8a2a0d77bb3b,6327fca0-761e-4fa3-83d1-8a2a0d77bb3b
2020-03-01 06:46:08,3704b9d7-e96e-41fa-89d8-bfa21b6556f6,1,6327fca0-761e-4fa3-83d1-8a2a0d77bb3b,6327fca0-761e-4fa3-83d1-8a2a0d77bb3b
2020-03-01 06:46:16,3704b9d7-e96e-41fa-89d8-bfa21b6556f6,1,6327fca0-761e-4fa3-83d1-8a2a0d77bb3b,6327fca0-761e-4fa3-83d1-8a2a0d77bb3b
2020-03-01 06:46:25,3704b9d7-e96e-41fa-89d8-bfa21b6556f6,1,6327fca0-761e-4fa3-83d1-8a2a0d77bb3b,6327fca0-761e-4fa3-83d1-8a2a0d77bb3b
2020-03-01 06:46:31,3704b9d7-e96e-41fa-89d8-bfa21b6556f6,1,6327fca0-761e-4fa3-83d1-8a2a0d77bb3b,6327fca0-761e-4fa3-83d1-8a2a0d77bb3b
2020-03-01 05:58:46,b49af614-84c7-4ac3-8df1-6de0a807d1cd,1,5f3fb00d-b4ac-4ae3-9501-5c203f256b0b,5f3fb00d-b4ac-4ae3-9501-5c203f256b0b
2020-03-01 05:58:51,982816b2-d721-4563-a1bd-a9ffe839deaf,1,61d66d7d-d630-4746-af7b-f9af14a597ad,61d66d7d-d630-4746-af7b-f9af14a597ad
2020-03-01 06:02:07,982816b2-d721-4563-a1bd-a9ffe839deaf,1,61d66d7d-d630-4746-af7b-f9af14a597ad,61d66d7d-d630-4746-af7b-f9af14a597ad
2020-03-01 06:02:57,982816b2-d721-4563-a1bd-a9ffe839deaf,1,61d66d7d-d630-4746-af7b-f9af14a597ad,61d66d7d-d630-4746-af7b-f9af14a597ad
2020-03-01 06:44:35,98b5614a-7a56-4e58-9863-95807265141d,1,69224202-66c4-4849-a14e-65c036eefcfe,69224202-66c4-4849-a14e-65c036eefcfe
2020-03-01 06:45:58,98b5614a-7a56-4e58-9863-95807265141d,1,69224202-66c4-4849-a14e-65c036eefcfe,69224202-66c4-4849-a14e-65c036eefcfe
2020-03-01 06:03:09,04650697-0c17-4179-8852-220d122b4eda,1,55a1c813-e0d0-4e56-bcb7-5308d1a827fc,55a1c813-e0d0-4e56-bcb7-5308d1a827fc
2020-03-01 06:03:22,04650697-0c17-4179-8852-220d122b4eda,1,55a1c813-e0d0-4e56-bcb7-5308d1a827fc,55a1c813-e0d0-4e56-bcb7-5308d1a827fc
2020-03-01 06:04:04,04650697-0c17-4179-8852-220d122b4eda,1,55a1c813-e0d0-4e56-bcb7-5308d1a827fc,55a1c813-e0d0-4e56-bcb7-5308d1a827fc
2020-03-01 06:04:41,04650697-0c17-4179-8852-220d122b4eda,1,55a1c813-e0d0-4e56-bcb7-5308d1a827fc,55a1c813-e0d0-4e56-bcb7-5308d1a827fc
2020-03-01 06:04:57,04650697-0c17-4179-8852-220d122b4eda,1,55a1c813-e0d0-4e56-bcb7-5308d1a827fc,55a1c813-e0d0-4e56-bcb7-5308d1a827fc
2020-03-01 06:46:18,126cf64c-ac55-40b0-9f48-e39adcd07de6,1,96fe20a3-3813-48b8-a395-01c60ba30f1b,96fe20a3-3813-48b8-a395-01c60ba30f1b
2020-03-01 05:58:42,c4f68305-9ea4-4b0a-9af0-bb1e51001343,1,97ad4b2b-5e21-4365-a39e-f19011f39004,97ad4b2b-5e21-4365-a39e-f19011f39004
2020-03-01 06:04:22,c4f68305-9ea4-4b0a-9af0-bb1e51001343,1,97ad4b2b-5e21-4365-a39e-f19011f39004,97ad4b2b-5e21-4365-a39e-f19011f39004
2020-03-01 06:03:03,ed48b798-ec7a-4e99-abb2-2a93e182cabb,1,1669c252-9bcd-46a9-b0e4-514101d2aa03,1669c252-9bcd-46a9-b0e4-514101d2aa03
2020-03-01 06:14:01,19b65ce9-c8c6-4c57-96b4-3ca4bfc06a36,1,fcd85eb8-cb38-49dc-8ee2-2739e9921a47,fcd85eb8-cb38-49dc-8ee2-2739e9921a47
2020-03-01 06:14:16,19b65ce9-c8c6-4c57-96b4-3ca4bfc06a36,1,fcd85eb8-cb38-49dc-8ee2-2739e9921a47,fcd85eb8-cb38-49dc-8ee2-2739e9921a47
2020-03-01 06:14:39,19b65ce9-c8c6-4c57-96b4-3ca4bfc06a36,1,fcd85eb8-cb38-49dc-8ee2-2739e9921a47,fcd85eb8-cb38-49dc-8ee2-2739e9921a47
2020-03-01 06:20:56,19b65ce9-c8c6-4c57-96b4-3ca4bfc06a36,1,fcd85eb8-cb38-49dc-8ee2-2739e9921a47,fcd85eb8-cb38-49dc-8ee2-2739e9921a47
2020-03-01 06:21:17,19b65ce9-c8c6-4c57-96b4-3ca4bfc06a36,1,fcd85eb8-cb38-49dc-8ee2-2739e9921a47,fcd85eb8-cb38-49dc-8ee2-2739e9921a47
2020-03-01 06:21:38,19b65ce9-c8c6-4c57-96b4-3ca4bfc06a36,1,fcd85eb8-cb38-49dc-8ee2-2739e9921a47,fcd85eb8-cb38-49dc-8ee2-2739e9921a47
2020-03-01 06:21:47,19b65ce9-c8c6-4c57-96b4-3ca4bfc06a36,1,fcd85eb8-cb38-49dc-8ee2-2739e9921a47,fcd85eb8-cb38-49dc-8ee2-2739e9921a47
2020-03-01 06:21:54,19b65ce9-c8c6-4c57-96b4-3ca4bfc06a36,1,fcd85eb8-cb38-49dc-8ee2-2739e9921a47,fcd85eb8-cb38-49dc-8ee2-2739e9921a47
2020-03-01 06:05:52,d15970cd-206b-4e36-9b07-03d781c5bc94,1,9b990470-2ef8-4c66-9629-ce7a166cc2e9,9b990470-2ef8-4c66-9629-ce7a166cc2e9
2020-03-01 06:02:59,0b875733-d606-4e13-bc93-0a57c0a6f850,1,3723d3fa-d837-45f8-8e37-9437a890ded8,3723d3fa-d837-45f8-8e37-9437a890ded8
2020-03-01 06:03:06,0b875733-d606-4e13-bc93-0a57c0a6f850,1,3723d3fa-d837-45f8-8e37-9437a890ded8,3723d3fa-d837-45f8-8e37-9437a890ded8
2020-03-01 06:03:38,0b875733-d606-4e13-bc93-0a57c0a6f850,1,3723d3fa-d837-45f8-8e37-9437a890ded8,3723d3fa-d837-45f8-8e37-9437a890ded8
2020-03-01 06:04:04,0b875733-d606-4e13-bc93-0a57c0a6f850,1,3723d3fa-d837-45f8-8e37-9437a890ded8,3723d3fa-d837-45f8-8e37-9437a890ded8
2020-03-01 06:04:31,0b875733-d606-4e13-bc93-0a57c0a6f850,1,3723d3fa-d837-45f8-8e37-9437a890ded8,3723d3fa-d837-45f8-8e37-9437a890ded8
2020-03-01 06:04:48,0b875733-d606-4e13-bc93-0a57c0a6f850,1,3723d3fa-d837-45f8-8e37-9437a890ded8,3723d3fa-d837-45f8-8e37-9437a890ded8
2020-03-01 06:05:07,0b875733-d606-4e13-bc93-0a57c0a6f850,1,3723d3fa-d837-45f8-8e37-9437a890ded8,3723d3fa-d837-45f8-8e37-9437a890ded8
2020-03-01 06:05:23,0b875733-d606-4e13-bc93-0a57c0a6f850,1,3723d3fa-d837-45f8-8e37-9437a890ded8,3723d3fa-d837-45f8-8e37-9437a890ded8
2020-03-01 06:08:39,0b875733-d606-4e13-bc93-0a57c0a6f850,1,3723d3fa-d837-45f8-8e37-9437a890ded8,3723d3fa-d837-45f8-8e37-9437a890ded8
2020-03-01 06:09:00,0b875733-d606-4e13-bc93-0a57c0a6f850,1,3723d3fa-d837-45f8-8e37-9437a890ded8,3723d3fa-d837-45f8-8e37-9437a890ded8
2020-03-01 06:26:32,0b875733-d606-4e13-bc93-0a57c0a6f850,1,3723d3fa-d837-45f8-8e37-9437a890ded8,3723d3fa-d837-45f8-8e37-9437a890ded8
2020-03-01 06:26:45,0b875733-d606-4e13-bc93-0a57c0a6f850,1,3723d3fa-d837-45f8-8e37-9437a890ded8,3723d3fa-d837-45f8-8e37-9437a890ded8
2020-03-01 06:26:59,0b875733-d606-4e13-bc93-0a57c0a6f850,1,3723d3fa-d837-45f8-8e37-9437a890ded8,3723d3fa-d837-45f8-8e37-9437a890ded8
2020-03-01 06:59:58,0b875733-d606-4e13-bc93-0a57c0a6f850,1,3723d3fa-d837-45f8-8e37-9437a890ded8,3723d3fa-d837-45f8-8e37-9437a890ded8
2020-03-01 07:00:10,0b875733-d606-4e13-bc93-0a57c0a6f850,1,3723d3fa-d837-45f8-8e37-9437a890ded8,3723d3fa-d837-45f8-8e37-9437a890ded8
2020-03-01 05:59:01,7804fd03-da6c-4473-864e-3f2320f249e8,1,5fa4396c-da3e-4dcf-8ac9-87ea356133a9,5fa4396c-da3e-4dcf-8ac9-87ea356133a9
2020-03-01 05:59:13,7804fd03-da6c-4473-864e-3f2320f249e8,1,5fa4396c-da3e-4dcf-8ac9-87ea356133a9,5fa4396c-da3e-4dcf-8ac9-87ea356133a9
2020-03-01 06:25:44,3f89712d-231a-48bc-9314-88f927ec84c0,1,513d351a-7800-45d9-8720-856d344df92c,513d351a-7800-45d9-8720-856d344df92c
2020-03-01 06:26:00,3f89712d-231a-48bc-9314-88f927ec84c0,1,513d351a-7800-45d9-8720-856d344df92c,513d351a-7800-45d9-8720-856d344df92c
2020-03-01 06:26:12,3f89712d-231a-48bc-9314-88f927ec84c0,1,513d351a-7800-45d9-8720-856d344df92c,513d351a-7800-45d9-8720-856d344df92c
2020-03-01 06:35:30,3f89712d-231a-48bc-9314-88f927ec84c0,1,513d351a-7800-45d9-8720-856d344df92c,513d351a-7800-45d9-8720-856d344df92c
2020-03-01 06:35:45,3f89712d-231a-48bc-9314-88f927ec84c0,1,513d351a-7800-45d9-8720-856d344df92c,513d351a-7800-45d9-8720-856d344df92c
2020-03-01 06:35:57,3f89712d-231a-48bc-9314-88f927ec84c0,1,513d351a-7800-45d9-8720-856d344df92c,513d351a-7800-45d9-8720-856d344df92c
2020-03-01 06:36:15,3f89712d-231a-48bc-9314-88f927ec84c0,1,513d351a-7800-45d9-8720-856d344df92c,513d351a-7800-45d9-8720-856d344df92c
2020-03-01 06:43:44,3f89712d-231a-48bc-9314-88f927ec84c0,1,513d351a-7800-45d9-8720-856d344df92c,513d351a-7800-45d9-8720-856d344df92c
2020-03-01 06:43:57,3f89712d-231a-48bc-9314-88f927ec84c0,1,513d351a-7800-45d9-8720-856d344df92c,513d351a-7800-45d9-8720-856d344df92c
2020-03-01 06:43:34,39ef303c-df39-43cf-ad74-2ddecd2a01f8,1,5c9e5cfe-f44f-45a2-9b6f-e772717a8427,5c9e5cfe-f44f-45a2-9b6f-e772717a8427
2020-03-01 06:43:49,39ef303c-df39-43cf-ad74-2ddecd2a01f8,1,5c9e5cfe-f44f-45a2-9b6f-e772717a8427,5c9e5cfe-f44f-45a2-9b6f-e772717a8427
2020-03-01 06:44:18,39ef303c-df39-43cf-ad74-2ddecd2a01f8,1,5c9e5cfe-f44f-45a2-9b6f-e772717a8427,5c9e5cfe-f44f-45a2-9b6f-e772717a8427
2020-03-01 06:44:29,39ef303c-df39-43cf-ad74-2ddecd2a01f8,1,5c9e5cfe-f44f-45a2-9b6f-e772717a8427,5c9e5cfe-f44f-45a2-9b6f-e772717a8427
2020-03-01 05:58:37,5a53d168-c8d3-4f61-90af-2def4be853b8,1,c9972d52-825e-4389-a53c-930936ee438d,c9972d52-825e-4389-a53c-930936ee438d
2020-03-01 06:12:18,5a53d168-c8d3-4f61-90af-2def4be853b8,1,c9972d52-825e-4389-a53c-930936ee438d,c9972d52-825e-4389-a53c-930936ee438d
2020-03-01 06:26:41,5a53d168-c8d3-4f61-90af-2def4be853b8,1,c9972d52-825e-4389-a53c-930936ee438d,c9972d52-825e-4389-a53c-930936ee438d
2020-03-01 07:00:06,21f9d06a-90b0-438f-994f-44bb902be7b5,1,f428cf57-e88d-47c9-a558-7d07675bf950,f428cf57-e88d-47c9-a558-7d07675bf950
2020-03-01 06:04:57,59b0e6fa-42c6-477b-b96d-e2fa9f9f7fcb,1,69b4ed17-0e09-47b0-bf09-ddb41ae8fcc6,69b4ed17-0e09-47b0-bf09-ddb41ae8fcc6
2020-03-01 06:14:16,59b0e6fa-42c6-477b-b96d-e2fa9f9f7fcb,1,69b4ed17-0e09-47b0-bf09-ddb41ae8fcc6,69b4ed17-0e09-47b0-bf09-ddb41ae8fcc6
2020-03-01 06:26:49,59b0e6fa-42c6-477b-b96d-e2fa9f9f7fcb,1,69b4ed17-0e09-47b0-bf09-ddb41ae8fcc6,69b4ed17-0e09-47b0-bf09-ddb41ae8fcc6
2020-03-01 06:10:49,30a82e38-59af-49b9-b887-603cf0a32e53,1,3d3ea4bc-9a07-42fb-9425-271f67412d75,3d3ea4bc-9a07-42fb-9425-271f67412d75
2020-03-01 06:11:03,30a82e38-59af-49b9-b887-603cf0a32e53,1,3d3ea4bc-9a07-42fb-9425-271f67412d75,3d3ea4bc-9a07-42fb-9425-271f67412d75
2020-03-01 06:12:13,30a82e38-59af-49b9-b887-603cf0a32e53,1,3d3ea4bc-9a07-42fb-9425-271f67412d75,3d3ea4bc-9a07-42fb-9425-271f67412d75
2020-03-01 06:20:41,30a82e38-59af-49b9-b887-603cf0a32e53,1,3d3ea4bc-9a07-42fb-9425-271f67412d75,3d3ea4bc-9a07-42fb-9425-271f67412d75
2020-03-01 06:20:58,30a82e38-59af-49b9-b887-603cf0a32e53,1,3d3ea4bc-9a07-42fb-9425-271f67412d75,3d3ea4bc-9a07-42fb-9425-271f67412d75
2020-03-01 06:21:24,30a82e38-59af-49b9-b887-603cf0a32e53,1,3d3ea4bc-9a07-42fb-9425-271f67412d75,3d3ea4bc-9a07-42fb-9425-271f67412d75
2020-03-01 06:38:36,30a82e38-59af-49b9-b887-603cf0a32e53,1,3d3ea4bc-9a07-42fb-9425-271f67412d75,3d3ea4bc-9a07-42fb-9425-271f67412d75
2020-03-01 06:45:45,30a82e38-59af-49b9-b887-603cf0a32e53,1,3d3ea4bc-9a07-42fb-9425-271f67412d75,3d3ea4bc-9a07-42fb-9425-271f67412d75
2020-03-01 06:59:48,30a82e38-59af-49b9-b887-603cf0a32e53,1,3d3ea4bc-9a07-42fb-9425-271f67412d75,3d3ea4bc-9a07-42fb-9425-271f67412d75
2020-03-01 07:00:07,30a82e38-59af-49b9-b887-603cf0a32e53,1,3d3ea4bc-9a07-42fb-9425-271f67412d75,3d3ea4bc-9a07-42fb-9425-271f67412d75
2020-03-01 07:00:20,30a82e38-59af-49b9-b887-603cf0a32e53,1,3d3ea4bc-9a07-42fb-9425-271f67412d75,3d3ea4bc-9a07-42fb-9425-271f67412d75
2020-03-01 06:05:07,44d316c9-f4ff-4ecd-8065-ff9ba92b8b44,1,a2cc495a-a4ae-4de6-91ba-e2463e23c02c,a2cc495a-a4ae-4de6-91ba-e2463e23c02c
2020-03-01 06:21:09,76177b6d-6f45-491b-b16c-6efd0d8b7d83,1,ca9db945-5473-426a-9f47-5f5f18a190c4,ca9db945-5473-426a-9f47-5f5f18a190c4
2020-03-01 06:04:49,17c63a31-6d95-40bf-af20-53ec36ac153f,1,b1f4f154-68ff-4e06-b6d3-1fbd45419032,b1f4f154-68ff-4e06-b6d3-1fbd45419032
2020-03-01 06:14:09,cf708404-9863-462d-ac11-127e14b6232a,1,bae86749-2ca0-48c3-9706-0930d9150d8b,bae86749-2ca0-48c3-9706-0930d9150d8b
2020-03-01 06:14:23,cf708404-9863-462d-ac11-127e14b6232a,1,bae86749-2ca0-48c3-9706-0930d9150d8b,bae86749-2ca0-48c3-9706-0930d9150d8b
2020-03-01 06:14:42,cf708404-9863-462d-ac11-127e14b6232a,1,bae86749-2ca0-48c3-9706-0930d9150d8b,bae86749-2ca0-48c3-9706-0930d9150d8b
2020-03-01 06:25:50,cf708404-9863-462d-ac11-127e14b6232a,1,bae86749-2ca0-48c3-9706-0930d9150d8b,bae86749-2ca0-48c3-9706-0930d9150d8b
2020-03-01 06:38:25,cf708404-9863-462d-ac11-127e14b6232a,1,bae86749-2ca0-48c3-9706-0930d9150d8b,bae86749-2ca0-48c3-9706-0930d9150d8b
2020-03-01 06:38:52,cf708404-9863-462d-ac11-127e14b6232a,1,bae86749-2ca0-48c3-9706-0930d9150d8b,bae86749-2ca0-48c3-9706-0930d9150d8b
2020-03-01 06:46:06,cf708404-9863-462d-ac11-127e14b6232a,1,bae86749-2ca0-48c3-9706-0930d9150d8b,bae86749-2ca0-48c3-9706-0930d9150d8b
2020-03-01 06:04:10,2ddb7a3c-7761-4d9d-ae01-b3d1c258d58a,1,866869fa-8555-4908-badc-b0813d47ce7b,866869fa-8555-4908-badc-b0813d47ce7b
2020-03-01 05:58:34,f09e3ff5-573a-4aea-96e6-7b44216f05ec,0,NA,NA
