node,ip,uuid
node-a8-199.grenoble.iot-lab.info,172.20.64.1,4b1fb257-6c75-444b-8aee-6340739decef
node-a8-200.grenoble.iot-lab.info,172.20.64.2,a26b3bf8-aed3-4e3c-a490-427e7e9f159e
node-a8-201.grenoble.iot-lab.info,172.20.64.3,15cc3c9e-3e76-4a68-a45d-d09a2280c503
node-a8-202.grenoble.iot-lab.info,172.20.64.4,ee662df0-6939-4ea9-90c6-324de7c2bb0b
node-a8-204.grenoble.iot-lab.info,172.20.64.5,6a8a8707-3378-4208-be44-1c8d521d4db6
node-a8-205.grenoble.iot-lab.info,172.20.64.6,58a804e9-04da-4792-a1d4-a4764640cba9
node-a8-206.grenoble.iot-lab.info,172.20.64.7,af9e9aae-143c-479c-a605-9ed5e610a26e
node-a8-207.grenoble.iot-lab.info,172.20.64.8,13f1bdcc-99c8-4225-8ce2-d4ce50ee4f8f
node-a8-208.grenoble.iot-lab.info,172.20.64.9,1029c126-efc8-4fd5-a7ce-29860d942fc7
node-a8-209.grenoble.iot-lab.info,172.20.64.10,90994019-cd97-4ba3-9b2e-c1c9326b6717
node-a8-210.grenoble.iot-lab.info,172.20.64.11,1bef91ee-3f39-4eaa-a4b4-d7c0b8f680f2
node-a8-211.grenoble.iot-lab.info,172.20.64.12,b217ff8a-a322-4cb5-a944-4fdb38e67daa
node-a8-212.grenoble.iot-lab.info,172.20.64.13,d37a469b-b516-4c92-9caa-a36cd1c52ae4
node-a8-214.grenoble.iot-lab.info,172.20.64.14,4f20e3e2-3511-42e6-8be1-82537a6c480d
node-a8-216.grenoble.iot-lab.info,172.20.64.15,16af3783-fd87-42b1-8c45-67f30891b724
node-a8-217.grenoble.iot-lab.info,172.20.64.16,c11e9d4e-60b4-4c1e-a774-cf4f13be541f
node-a8-218.grenoble.iot-lab.info,172.20.64.17,3a686372-84c6-4ab6-ad83-9125391c8cf6
node-a8-219.grenoble.iot-lab.info,172.20.64.18,89825732-d16e-4584-aee1-05b5914df4d3
node-a8-220.grenoble.iot-lab.info,172.20.64.19,c85051c1-493b-4a91-b128-8a51726b4ede
node-a8-221.grenoble.iot-lab.info,172.20.64.20,88630062-8cef-4296-b225-bbe772d048fe
node-a8-165.grenoble.iot-lab.info,172.20.64.21,7ae36558-6528-4cbd-ba86-7f7925055c92
node-a8-166.grenoble.iot-lab.info,172.20.64.22,a005b908-3dc4-4a7a-b713-1afa80cc1cd3
node-a8-167.grenoble.iot-lab.info,172.20.64.23,763032bf-749d-4583-aa89-7cba1d66779a
node-a8-168.grenoble.iot-lab.info,172.20.64.24,bef9377a-74c8-4a44-b4cb-d9622834a847
node-a8-169.grenoble.iot-lab.info,172.20.64.25,14da3e67-685b-4051-9d4c-72cae8a054cc
node-a8-170.grenoble.iot-lab.info,172.20.64.26,259b281c-e18f-4dbe-827d-687016aba98f
node-a8-171.grenoble.iot-lab.info,172.20.64.27,ec92c0d0-4899-4f1c-b162-81293b08e25e
node-a8-173.grenoble.iot-lab.info,172.20.64.28,f70d2450-5ebf-4282-88b3-6056ac8a000f
node-a8-174.grenoble.iot-lab.info,172.20.64.29,421bb5ae-7d7b-4dcd-8688-cb2a3088ec60
node-a8-175.grenoble.iot-lab.info,172.20.64.30,591b4c15-e8ef-47eb-a818-a4a52bce9774
node-a8-176.grenoble.iot-lab.info,172.20.64.31,1192ddc1-3998-4719-99ed-eb79e29a9358
node-a8-177.grenoble.iot-lab.info,172.20.64.32,96fc2576-7fc0-4a3e-8b5a-d44ffaabeea4
node-a8-179.grenoble.iot-lab.info,172.20.64.33,5f670af7-f18b-4021-ac88-166beade4aa2
node-a8-180.grenoble.iot-lab.info,172.20.64.34,7d3e3999-d058-4eb8-a007-dacf106dc9d8
node-a8-181.grenoble.iot-lab.info,172.20.64.35,58b6de79-f67a-4488-aef7-932124183785
node-a8-182.grenoble.iot-lab.info,172.20.64.36,e56a5d7f-5b97-4b6b-a25b-d836f9c71836
node-a8-183.grenoble.iot-lab.info,172.20.64.37,a33be7c1-272e-4264-bf6b-e7c07595c785
node-a8-184.grenoble.iot-lab.info,172.20.64.38,ea17534a-90bc-4513-9966-029714e0e0f9
node-a8-185.grenoble.iot-lab.info,172.20.64.39,7d04477f-6121-496e-8394-ffc4a52a7f7c
node-a8-187.grenoble.iot-lab.info,172.20.64.40,a5d8b973-2527-4bea-b759-08523f9be1ba
node-a8-188.grenoble.iot-lab.info,172.20.64.41,9ef500f4-78e3-4e24-9ce2-30e352a7bee8
node-a8-189.grenoble.iot-lab.info,172.20.64.42,a02f3785-24f9-4710-bcb6-8561d9d65b29
node-a8-190.grenoble.iot-lab.info,172.20.64.43,f7fa802c-2026-4485-9ad8-7431b6f2fd17
node-a8-191.grenoble.iot-lab.info,172.20.64.44,1eaafe9a-274f-4923-b521-9f1edea86c53
node-a8-192.grenoble.iot-lab.info,172.20.64.45,3fd8744e-7770-4199-9003-889cb16468b4
node-a8-193.grenoble.iot-lab.info,172.20.64.46,6d25225d-1ff4-4252-885d-c5148737725d
node-a8-194.grenoble.iot-lab.info,172.20.64.47,4b109b88-7dec-4765-b59d-011f30dae2ec
node-a8-195.grenoble.iot-lab.info,172.20.64.48,037f2010-7a24-4c9c-9c46-33a66172674c
node-a8-197.grenoble.iot-lab.info,172.20.64.49,b1c8b0fd-f109-4c7d-b4a5-d4ffbbaf93e1
node-a8-198.grenoble.iot-lab.info,172.20.64.50,42673ca7-d0c8-4756-8efa-b3a08f6858ce
paravance-4.rennes.grid5000.fr,172.16.96.4,812e69a2-bba3-4e7c-b47a-9c39977e1736
paravance-39.rennes.grid5000.fr,172.16.96.39,33027ccb-6e5d-4aa4-9bc2-7c65a9965655
paravance-38.rennes.grid5000.fr,172.16.96.38,a9801852-d708-4bd9-b80b-224a12434d3c
paravance-37.rennes.grid5000.fr,172.16.96.37,d408d785-d4d5-4f4b-a1c5-bc3e1e6be8b8
paravance-36.rennes.grid5000.fr,172.16.96.36,a4057da6-2ea9-447e-98fd-741739753a06
paravance-33.rennes.grid5000.fr,172.16.96.33,ab2d0fcc-eb72-46d6-9b48-283113f13180
paravance-30.rennes.grid5000.fr,172.16.96.30,219c7f41-d427-401c-8c39-5a987e32f9a9
paravance-29.rennes.grid5000.fr,172.16.96.29,b4a6e25b-1d9e-4dc1-8481-15232b1e45a7
paravance-27.rennes.grid5000.fr,172.16.96.27,07178e14-5f82-43f5-a185-0454ddbe97d8
paravance-24.rennes.grid5000.fr,172.16.96.24,dae9a1ab-1d3f-4bfa-b5ec-a2f22ff2227b
paravance-14.rennes.grid5000.fr,172.16.96.14,5ca164c0-3369-40f2-a6c2-367d8b6bf188
paravance-13.rennes.grid5000.fr,172.16.96.13,77b7b52f-f8cc-4753-82f4-fb3dce817ae2
paravance-12.rennes.grid5000.fr,172.16.96.12,29f78e27-5e32-42c4-a81a-b93e46952649
paravance-11.rennes.grid5000.fr,172.16.96.11,03eabc83-9b81-4e5d-8909-f45510a051cc
paravance-10.rennes.grid5000.fr,172.16.96.10,2b8277c7-d99f-492a-9ec0-7fc70bce5ab9
paravance-1.rennes.grid5000.fr,172.16.96.1,87dcb41f-1b5a-48dc-a14c-46c223f1da8c
