app_number,app_id,trigger,burn,sink,deploy_date,token_interval
1,d24c7aee-1c62-42e9-8ad1-c46eab641362,900ec436-4e1b-4b24-8be9-16d621b09d58,deacb82d-31ad-4da7-9690-a45f8bca8b29,f42cfc9c-a74a-4186-ba61-229ec3141cbf,2019-08-12 03:46:08,1.000000
2,32d180b0-bf5c-4c79-a834-ed3a53974c4d,26970ec5-f2f9-45e9-8f92-d92e0a589de2,3e8df322-2eb9-4a24-a1e6-b15085b95dca,66f6f461-6995-44ed-af81-90ccd67b6c60,2019-08-12 03:47:12,1.000000
3,f41a90ca-4f19-4c8a-ac26-3d06239a3605,47d96cf7-ce2c-478e-bebb-ec9847270e0c,566273a2-2888-4e2c-a13a-11110dd143b7,c62c0a15-9b33-4151-92f5-c574b3c83fd4,2019-08-12 03:48:15,1.000000
4,cf0517aa-ce21-4b04-a951-7eb37c9c7b93,bd3a6c9c-84c1-4580-bd6a-7352158f067b,e5117c46-ea21-44ee-b1e5-4531a2a60df3,8bd7fea9-e88c-401f-b83f-36afa855c9eb,2019-08-12 03:49:19,0.200000
5,047c1d53-e976-49ed-bd3c-5c62b317f460,aae34e58-3d44-4bfd-911c-00a3e32c0eba,0c2854c5-e5ee-4fa1-88fb-a426ba1080fc,20394a1d-2ab4-4753-845d-44b8e8ac1cd8,2019-08-12 03:50:23,0.200000
6,37ea58ac-e03b-4be0-80b6-e4bdb19ac99c,35e75c8f-2f03-424c-a574-b6b32361bd05,5e1875df-96dd-41f5-ad0a-674a37b81774,4e0a199d-c31c-4ba7-bf11-478acb4716a4,2019-08-12 03:51:27,0.200000
7,18831982-6cbd-4a67-82e0-bfe3a221d01a,cb442ab2-15c0-4c76-b080-97fda7895f5f,84449a04-c0d4-41c9-b478-f12ec9a7b122,fb7c4320-4efa-4bce-b3b6-ac4808ef3503,2019-08-12 03:52:31,0.200000
8,dc5d0803-40d0-45fd-9660-648d10c84b9e,8bb56f82-e422-465a-a7fe-a5511e14f9d0,1234060d-dc3d-478b-a264-429c82cec80a,feb3e405-1c34-4929-9bfa-1ffdb9bc074a,2019-08-12 03:53:34,1.000000
9,f3cdace6-c2ac-4594-a316-c0aaaf792a57,cc4e7aa1-db4f-4a2d-b9da-cc3f3cce006f,43151528-627d-45c2-ad71-c5290adb3991,4028a0e9-5e8c-4209-8372-da55adef574b,2019-08-12 03:54:38,0.200000
10,7e31d19c-6e00-4162-a89b-d0f91c462c0d,e3bdf792-fc06-4f97-ac0c-443b4d30e19b,99d10863-9c79-435f-9796-3e3cdc53a94e,d965c392-b904-4dcf-b3f5-57ef14f2eea4,2019-08-12 03:55:42,0.200000
11,bd1f17ba-8486-4f66-b9a4-1398861bb078,c84a1572-c01b-4b3a-961a-d79a20ba8646,ea2e713f-5b52-4647-89f9-7853e422e19d,236ccebb-855f-4e38-9ed8-9d2faa9fa749,2019-08-12 03:56:46,0.200000
12,02e3196b-5176-4e7c-ac79-8e930c2113c3,b7bd5bba-1a1e-40e2-900f-bafabf4d3181,dcd9976f-a492-4954-b0af-be9b67157ca2,80d9dd39-c9c1-4dee-ac36-a52c496be4bd,2019-08-12 03:57:50,1.000000
13,12da15b3-a7be-4a5e-8506-77afbc3da372,34a4298c-7dc1-4205-bb3b-fed2599ac1d0,abba32d1-9ae7-4d80-b110-bc649ff6de02,e2fc06c7-a12b-4395-a345-896b3c2aa686,2019-08-12 03:58:54,0.200000
14,27bf5730-0ad9-4395-810b-af082b45ff70,8253e105-a7f5-4aae-9143-80a70a5d7aa8,efe439de-d00f-4737-9d23-b84d41e77356,f5065273-f799-4bd5-96c5-35e6ba97e1d9,2019-08-12 03:59:57,0.200000
15,ac2d5318-0afc-411c-927b-0537baeed8f9,8958fa80-7ea9-4fcd-8f66-5703a6433370,cd67d553-f55f-4590-9e5f-621a49a1b380,bd8d1c58-6585-4e75-a6b3-d115504ce5e3,2019-08-12 04:01:01,1.000000
16,98c2e5f4-499d-42b5-a79c-9f9b64da242e,98498462-1ae8-4446-b90a-243a5e282113,79512e9d-ec4c-4adb-8443-37d7fafd598c,d20a2e51-1bfd-4b47-b632-3ac0e4911a9a,2019-08-12 04:02:05,1.000000
17,16f8b719-2887-4f2c-8b0c-9b2762e6fdc0,6bd97ddc-7a40-4a5b-bcea-b864aaba241d,e79c5ffe-bebb-4c6e-bdba-7cc86cac8ce2,3b329e45-43ad-4904-bcb5-37f77ce69372,2019-08-12 04:03:09,0.200000
18,73d3ad1b-0148-4be8-a1f5-883e3f72b912,1f9b531e-ab0a-4419-9e9e-8e6b11ebd1bb,cf93725b-948c-40f1-b102-f3b2b738ba3d,80524340-33c6-48f9-aedb-95fbfc576026,2019-08-12 04:04:13,1.000000
19,6420525f-fbe2-4701-868e-e8acd8cd8d28,94c97ac4-4969-47b2-af6a-491d5befc6c1,7598491d-486f-49a2-be4e-ec188f82a9e8,28115bef-c024-4bba-bca0-0f5f32b83e2a,2019-08-12 04:05:17,0.200000
20,1615b489-c25d-4211-bb8a-be01356f5d80,a2be87b2-d3cb-4d2a-af60-0b4fda66a7e7,6645af70-ef0d-47a8-97de-507591cf4a87,69cfc2f5-4235-4fdb-b180-73bdbe4518c3,2019-08-12 04:06:20,1.000000
21,4be80cc1-1dbe-4fd3-9cbf-ff1666749f04,355dd525-dcd3-4f1f-bfe4-9a24dae5348c,a803324f-8cd8-4eb7-9a04-f12a11190fa1,9ffc915a-8d27-432c-bcae-7f4078867f74,2019-08-12 04:07:24,0.200000
22,125740bb-36a1-4607-ae43-f85ac504a03b,db345dc3-f5a3-4947-9cdd-921955b7b033,e2dc8161-d90f-450a-bdb3-612cf26650a3,b9fa2b89-8b44-4780-9d9f-9df4dfcd1dd9,2019-08-12 04:08:28,0.200000
23,d803a7bf-6005-4167-85fe-901a6074501c,26c92ad6-8d8c-4fe4-bd95-5952b70205b3,142eee5d-2847-474f-ba3f-da459ac5113c,a9267764-9b60-4266-87f3-626ca08d55e7,2019-08-12 04:09:32,0.200000
24,dcbac2ae-9d65-4f9f-b34c-a430b2b32a44,f275b4e6-351a-4282-90fc-e40404acf925,7ab519fe-d618-4776-8e6f-976f9ceb849c,89b9867e-3ec5-46bb-ba22-da9050d4925a,2019-08-12 04:10:36,1.000000
25,e7972ce4-54dd-46f9-9d89-40baac54b17f,6a2680a2-6057-4adf-a651-9acd741c5447,dfa5f7b8-ab04-4780-8c14-204128a2bed5,8f9f0d45-8093-4243-8603-7f012e03cc67,2019-08-12 04:11:40,1.000000
26,db16c517-58f6-4547-8f32-9a0936178859,af81d220-ce79-4beb-885d-a4375dba15f1,7b1b8342-b1c8-4dd5-a5d1-ca3b42aaa1be,6dc6df99-70bd-4e36-8756-eb700f664475,2019-08-12 04:12:43,1.000000
27,ae5d710e-8122-4331-a441-59b32d7eb29d,487f7581-a3d5-459c-802f-4f24668adee8,b3f51523-e31c-4d0c-8b10-9d56dc123405,e35112f2-8b39-49e4-919d-36d6dbea4583,2019-08-12 04:13:47,0.200000
28,d4bbea22-55e0-439d-a3ca-db3295f3c56e,cfc37208-9414-4b19-85a7-6a6350a60f92,e3f230c1-cc03-4943-9326-9a43919fd96f,ec08cf1e-da7f-409e-b49a-74068586ac9d,2019-08-12 04:14:51,1.000000
29,e6bb8617-8221-4bb2-ae81-dec6d1f00e6e,9ec3793f-2055-48b9-8bdd-40a63554dc4d,8a5435d4-2983-4146-859d-adabff7fb5ea,cff0c46a-9c5c-4cac-8b87-9a385de28a31,2019-08-12 04:15:54,1.000000
30,1d672916-ba06-43f4-b6b5-a8d83c7857d1,97d3a766-bad9-4c2b-a739-252c268df9ae,65ccef8f-7a1a-4c51-abda-d2252161b02d,f9cc85f4-4aee-48d7-8b11-0db950f8333e,2019-08-12 04:16:58,1.000000
31,0ef00bf9-f706-45ff-9790-0a7ddf7a9513,4c6f80a4-154d-4378-be57-5cd98f6dc413,d4c00fea-bd88-462c-8c2d-7af86336e0dd,707b679c-18d9-463a-94b6-d8dfc79fc8af,2019-08-12 04:18:02,1.000000
32,8f868df8-9261-44f1-ab43-92ac44d29779,6828c269-3867-4d62-9f0c-af18f3d7fdf5,60aa30fe-8b25-455b-b744-8e87d53c068f,acdfd9e0-3225-4690-880f-73170f5aaff3,2019-08-12 04:19:06,0.200000
33,b4acc808-cd7e-415a-9009-bb84f9f9dc35,90450e90-5730-41a2-baae-4c418706acae,ffa4bbfb-8a2c-4207-b857-d9df33d0c8da,8eeeff71-1106-4f53-80e6-1a70cd6dd2b4,2019-08-12 04:20:10,1.000000
34,eb74b47b-8b72-433a-8803-244086195e10,11a7230a-4045-463d-930d-2933fec48591,1961fd5f-acf1-4e6f-9c09-ab73021c183a,7a1ec28b-10f5-4ff4-9844-5a593975ecb2,2019-08-12 04:21:14,0.200000
35,d2ea6205-6460-4771-8557-d952c0f869a7,a181105a-4f7e-4928-aead-5f7645073225,4a068fe0-e9e0-4b41-b97b-f24bfa6e74ae,090b5489-dd31-427c-b63e-e9a2e3a149af,2019-08-12 04:22:17,1.000000
36,c60cf3f0-feda-42e3-91de-dce8ac937f70,1697edb9-3d27-40a7-9a66-6b072d221f1d,0c8b157b-ba91-4c62-8aea-e2ca3201b60b,7bebc36d-f82d-45b4-b941-d292a3c90835,2019-08-12 04:23:21,0.200000
37,14cff63c-696c-4260-9e30-ce81a6a2815b,f896a335-22fc-488b-9303-0273d1649098,0377066a-f8fa-4e46-9f55-3484347ffc2f,19bed24b-5fd2-4e7a-b886-64fe3eec24e4,2019-08-12 04:24:24,1.000000
38,460b0e1d-ebd5-4c95-bc54-6055a52152c1,1b6a995b-29bd-4630-a475-3eeb161f3120,ef2d8feb-ba42-4569-867b-e7f78c1680a9,4ffe62d4-fec8-4506-85bd-aaad6ceee43b,2019-08-12 04:25:28,1.000000
39,fd360860-ab40-48ff-950b-36c8fdc4801c,74ea43d7-924f-4c97-8099-9327f0719cc1,8220dfb5-dff3-4f66-af11-5cb7d50b9ab7,307260e1-7758-44e7-9531-8597d289aedc,2019-08-12 04:26:32,0.200000
40,9bd261e0-fa4e-4a4a-8c92-694aa8ffb0e4,ccda1123-a5a6-4d48-8c00-028e2f629b31,c3dcc865-9408-4dc6-984a-b26d1159c4bf,5d8b4070-412a-4f36-b0db-ac9176a8cac2,2019-08-12 04:27:36,0.200000
41,daf4d5c7-5290-40b4-aeac-a6d119bdaa24,0049ffe1-3e11-40d4-b397-f309001a5a4c,e675076d-bde5-462d-a6dc-1601adaa6aab,9dc332c0-2346-4e0e-8007-53061cb7904e,2019-08-12 04:28:40,1.000000
42,59527857-d11f-4fdf-9a1e-c8c73ac93046,e44c773f-0288-4e1e-b185-f52535f90e63,8b810d09-371b-4570-bf48-43fd23d3efeb,836601c3-3019-4ae9-99f0-56c2dd59311e,2019-08-12 04:29:44,0.200000
43,a166c5de-204f-4fb6-b75b-a7b7f9becea5,76b66eeb-a64c-49d6-b977-aec562b28664,dc5b34f2-cb1e-448e-ab6b-8379e549707f,08fb0da8-cc4f-425c-9d89-5fd5da52fd58,2019-08-12 04:30:47,0.200000
44,d6983e47-b50f-418d-98cc-6246ece34975,7d19948c-ee73-4c6f-a36b-5051ded6ec72,ddcee7f1-58df-4d63-8407-1271b1d3c2a7,c9b23278-179a-4e32-9c85-31e54a573680,2019-08-12 04:31:51,0.200000
45,69d78a50-72fa-4892-8b0f-7f9220ef266e,b5138b5d-5392-4fd6-bd1a-dccd6dd7d9e9,99e705bb-d938-461d-9628-69781a96d326,858670cb-ba06-4dec-bbd5-9bc3ae1281ef,2019-08-12 04:32:54,1.000000
46,156ad11b-4a32-4696-b2b6-bd73316af0dc,0ce6e679-dda4-45f0-b2a5-b01edaf0c944,6b6d37f3-d1f4-4a51-9877-53e13ea3e1e2,fd48ac63-c281-4186-a538-454640bda160,2019-08-12 04:33:58,0.200000
47,6b3e77a0-93ab-49bd-9344-dd70708f84a4,dfe2c50a-6742-4693-ac7a-58895eccda22,e4091f19-ff67-4b6d-888e-2bd7b128e78c,16e30e2c-1183-4181-8534-0cf0dadb5c4f,2019-08-12 04:35:02,0.200000
48,ea783a70-8a64-4e0c-aaa4-5976b732499b,1733ce7f-5da1-4b89-9315-537add5c5eb4,a5989635-c4ac-47ff-ae49-8d96abb7f408,0894f5d0-ffb7-417f-8d71-9b312df407aa,2019-08-12 04:36:06,1.000000
49,a4707751-c0db-4dd9-8952-24f7e31c83cd,3a9d4099-b722-4767-823e-d6cfd1fa0e43,d58db55d-4923-46ce-8286-f6f9bcc6d942,bd7be84d-8873-4ec0-8e46-466c584b0ac5,2019-08-12 04:37:10,0.200000
50,98ee72ba-d5ff-4696-9e5a-0173347a47ae,7d971394-96af-40f9-aaa3-0ba286e72c7a,16993e58-bbf2-4367-8408-d627d88a405b,d6364073-5f37-4608-bf1d-e1292ce74412,2019-08-12 04:38:13,1.000000
