date,trigger,state
2019-08-12 04:04:14,8253e105-a7f5-4aae-9143-80a70a5d7aa8,A
2019-08-12 04:10:17,8253e105-a7f5-4aae-9143-80a70a5d7aa8,S
2019-08-12 04:13:05,8253e105-a7f5-4aae-9143-80a70a5d7aa8,A
2019-08-12 04:13:44,8253e105-a7f5-4aae-9143-80a70a5d7aa8,S
2019-08-12 04:14:29,8253e105-a7f5-4aae-9143-80a70a5d7aa8,A
2019-08-12 04:23:44,8253e105-a7f5-4aae-9143-80a70a5d7aa8,S
2019-08-12 04:24:10,8253e105-a7f5-4aae-9143-80a70a5d7aa8,A
2019-08-12 04:25:00,8253e105-a7f5-4aae-9143-80a70a5d7aa8,S
2019-08-12 04:29:54,8253e105-a7f5-4aae-9143-80a70a5d7aa8,A
2019-08-12 04:34:53,8253e105-a7f5-4aae-9143-80a70a5d7aa8,S
2019-08-12 04:35:05,8253e105-a7f5-4aae-9143-80a70a5d7aa8,A
2019-08-12 04:35:50,8253e105-a7f5-4aae-9143-80a70a5d7aa8,S
2019-08-12 04:38:10,8253e105-a7f5-4aae-9143-80a70a5d7aa8,A
2019-08-12 04:41:10,8253e105-a7f5-4aae-9143-80a70a5d7aa8,S
2019-08-12 04:42:26,8253e105-a7f5-4aae-9143-80a70a5d7aa8,A
2019-08-12 04:42:30,8253e105-a7f5-4aae-9143-80a70a5d7aa8,S
2019-08-12 04:50:36,8253e105-a7f5-4aae-9143-80a70a5d7aa8,A
2019-08-12 04:53:53,8253e105-a7f5-4aae-9143-80a70a5d7aa8,S
2019-08-12 04:55:46,8253e105-a7f5-4aae-9143-80a70a5d7aa8,A
2019-08-12 05:03:08,8253e105-a7f5-4aae-9143-80a70a5d7aa8,S
2019-08-12 05:13:22,8253e105-a7f5-4aae-9143-80a70a5d7aa8,A
2019-08-12 05:28:50,8253e105-a7f5-4aae-9143-80a70a5d7aa8,S
2019-08-12 05:31:12,8253e105-a7f5-4aae-9143-80a70a5d7aa8,A
2019-08-12 05:31:24,8253e105-a7f5-4aae-9143-80a70a5d7aa8,S
2019-08-12 05:39:29,8253e105-a7f5-4aae-9143-80a70a5d7aa8,A
2019-08-12 05:39:52,8253e105-a7f5-4aae-9143-80a70a5d7aa8,S
2019-08-12 05:48:12,8253e105-a7f5-4aae-9143-80a70a5d7aa8,A
2019-08-12 04:12:45,db345dc3-f5a3-4947-9cdd-921955b7b033,S
2019-08-12 04:21:47,db345dc3-f5a3-4947-9cdd-921955b7b033,A
2019-08-12 04:26:58,db345dc3-f5a3-4947-9cdd-921955b7b033,S
2019-08-12 04:39:45,db345dc3-f5a3-4947-9cdd-921955b7b033,A
2019-08-12 04:40:43,db345dc3-f5a3-4947-9cdd-921955b7b033,S
2019-08-12 04:51:56,db345dc3-f5a3-4947-9cdd-921955b7b033,A
2019-08-12 04:52:10,db345dc3-f5a3-4947-9cdd-921955b7b033,S
2019-08-12 04:55:37,db345dc3-f5a3-4947-9cdd-921955b7b033,A
2019-08-12 05:06:40,db345dc3-f5a3-4947-9cdd-921955b7b033,S
2019-08-12 05:09:41,db345dc3-f5a3-4947-9cdd-921955b7b033,A
2019-08-12 05:16:17,db345dc3-f5a3-4947-9cdd-921955b7b033,S
2019-08-12 05:18:13,db345dc3-f5a3-4947-9cdd-921955b7b033,A
2019-08-12 05:25:39,db345dc3-f5a3-4947-9cdd-921955b7b033,S
2019-08-12 05:29:45,db345dc3-f5a3-4947-9cdd-921955b7b033,A
2019-08-12 05:30:26,db345dc3-f5a3-4947-9cdd-921955b7b033,S
2019-08-12 05:30:49,db345dc3-f5a3-4947-9cdd-921955b7b033,A
2019-08-12 05:34:12,db345dc3-f5a3-4947-9cdd-921955b7b033,S
2019-08-12 05:37:16,db345dc3-f5a3-4947-9cdd-921955b7b033,A
2019-08-12 05:50:27,db345dc3-f5a3-4947-9cdd-921955b7b033,S
2019-08-12 04:29:57,74ea43d7-924f-4c97-8099-9327f0719cc1,A
2019-08-12 04:31:48,74ea43d7-924f-4c97-8099-9327f0719cc1,S
2019-08-12 04:41:16,74ea43d7-924f-4c97-8099-9327f0719cc1,A
2019-08-12 04:55:23,74ea43d7-924f-4c97-8099-9327f0719cc1,S
2019-08-12 04:56:59,74ea43d7-924f-4c97-8099-9327f0719cc1,A
2019-08-12 04:58:33,74ea43d7-924f-4c97-8099-9327f0719cc1,S
2019-08-12 05:00:26,74ea43d7-924f-4c97-8099-9327f0719cc1,A
2019-08-12 05:06:54,74ea43d7-924f-4c97-8099-9327f0719cc1,S
2019-08-12 05:11:48,74ea43d7-924f-4c97-8099-9327f0719cc1,A
2019-08-12 05:19:19,74ea43d7-924f-4c97-8099-9327f0719cc1,S
2019-08-12 05:19:22,74ea43d7-924f-4c97-8099-9327f0719cc1,A
2019-08-12 05:19:41,74ea43d7-924f-4c97-8099-9327f0719cc1,S
2019-08-12 05:22:02,74ea43d7-924f-4c97-8099-9327f0719cc1,A
2019-08-12 05:25:13,74ea43d7-924f-4c97-8099-9327f0719cc1,S
2019-08-12 05:25:59,74ea43d7-924f-4c97-8099-9327f0719cc1,A
2019-08-12 04:17:46,97d3a766-bad9-4c2b-a739-252c268df9ae,A
2019-08-12 04:36:39,97d3a766-bad9-4c2b-a739-252c268df9ae,S
2019-08-12 04:37:00,97d3a766-bad9-4c2b-a739-252c268df9ae,A
2019-08-12 04:39:44,97d3a766-bad9-4c2b-a739-252c268df9ae,S
2019-08-12 04:43:44,97d3a766-bad9-4c2b-a739-252c268df9ae,A
2019-08-12 04:44:14,97d3a766-bad9-4c2b-a739-252c268df9ae,S
2019-08-12 04:47:16,97d3a766-bad9-4c2b-a739-252c268df9ae,A
2019-08-12 04:48:54,97d3a766-bad9-4c2b-a739-252c268df9ae,S
2019-08-12 05:03:23,97d3a766-bad9-4c2b-a739-252c268df9ae,A
2019-08-12 05:05:00,97d3a766-bad9-4c2b-a739-252c268df9ae,S
2019-08-12 05:05:05,97d3a766-bad9-4c2b-a739-252c268df9ae,A
2019-08-12 05:07:25,97d3a766-bad9-4c2b-a739-252c268df9ae,S
2019-08-12 05:07:33,97d3a766-bad9-4c2b-a739-252c268df9ae,A
2019-08-12 05:09:35,97d3a766-bad9-4c2b-a739-252c268df9ae,S
2019-08-12 05:13:36,97d3a766-bad9-4c2b-a739-252c268df9ae,A
2019-08-12 05:24:19,97d3a766-bad9-4c2b-a739-252c268df9ae,S
2019-08-12 05:30:03,97d3a766-bad9-4c2b-a739-252c268df9ae,A
2019-08-12 05:32:17,97d3a766-bad9-4c2b-a739-252c268df9ae,S
2019-08-12 05:35:43,97d3a766-bad9-4c2b-a739-252c268df9ae,A
2019-08-12 05:39:16,97d3a766-bad9-4c2b-a739-252c268df9ae,S
2019-08-12 04:36:49,0ce6e679-dda4-45f0-b2a5-b01edaf0c944,S
2019-08-12 04:37:39,0ce6e679-dda4-45f0-b2a5-b01edaf0c944,A
2019-08-12 04:50:14,0ce6e679-dda4-45f0-b2a5-b01edaf0c944,S
2019-08-12 04:51:21,0ce6e679-dda4-45f0-b2a5-b01edaf0c944,A
2019-08-12 04:53:26,0ce6e679-dda4-45f0-b2a5-b01edaf0c944,S
2019-08-12 05:18:18,0ce6e679-dda4-45f0-b2a5-b01edaf0c944,A
2019-08-12 05:30:09,0ce6e679-dda4-45f0-b2a5-b01edaf0c944,S
2019-08-12 05:34:29,0ce6e679-dda4-45f0-b2a5-b01edaf0c944,A
2019-08-12 05:34:30,0ce6e679-dda4-45f0-b2a5-b01edaf0c944,S
2019-08-12 05:38:40,0ce6e679-dda4-45f0-b2a5-b01edaf0c944,A
2019-08-12 05:42:52,0ce6e679-dda4-45f0-b2a5-b01edaf0c944,S
2019-08-12 05:52:14,0ce6e679-dda4-45f0-b2a5-b01edaf0c944,A
2019-08-12 04:17:29,487f7581-a3d5-459c-802f-4f24668adee8,S
2019-08-12 04:22:45,487f7581-a3d5-459c-802f-4f24668adee8,A
2019-08-12 04:29:28,487f7581-a3d5-459c-802f-4f24668adee8,S
2019-08-12 04:34:28,487f7581-a3d5-459c-802f-4f24668adee8,A
2019-08-12 04:35:24,487f7581-a3d5-459c-802f-4f24668adee8,S
2019-08-12 04:42:11,487f7581-a3d5-459c-802f-4f24668adee8,A
2019-08-12 04:44:26,487f7581-a3d5-459c-802f-4f24668adee8,S
2019-08-12 04:50:32,487f7581-a3d5-459c-802f-4f24668adee8,A
2019-08-12 04:50:34,487f7581-a3d5-459c-802f-4f24668adee8,S
2019-08-12 04:51:18,487f7581-a3d5-459c-802f-4f24668adee8,A
2019-08-12 04:55:12,487f7581-a3d5-459c-802f-4f24668adee8,S
2019-08-12 05:00:48,487f7581-a3d5-459c-802f-4f24668adee8,A
2019-08-12 05:02:49,487f7581-a3d5-459c-802f-4f24668adee8,S
2019-08-12 05:06:02,487f7581-a3d5-459c-802f-4f24668adee8,A
2019-08-12 05:08:54,487f7581-a3d5-459c-802f-4f24668adee8,S
2019-08-12 05:12:08,487f7581-a3d5-459c-802f-4f24668adee8,A
2019-08-12 05:21:09,487f7581-a3d5-459c-802f-4f24668adee8,S
2019-08-12 05:24:43,487f7581-a3d5-459c-802f-4f24668adee8,A
2019-08-12 05:25:42,487f7581-a3d5-459c-802f-4f24668adee8,S
2019-08-12 05:29:09,487f7581-a3d5-459c-802f-4f24668adee8,A
2019-08-12 05:31:07,487f7581-a3d5-459c-802f-4f24668adee8,S
2019-08-12 05:31:48,487f7581-a3d5-459c-802f-4f24668adee8,A
2019-08-12 05:38:57,487f7581-a3d5-459c-802f-4f24668adee8,S
2019-08-12 05:41:21,487f7581-a3d5-459c-802f-4f24668adee8,A
2019-08-12 04:29:52,1697edb9-3d27-40a7-9a66-6b072d221f1d,S
2019-08-12 04:31:48,1697edb9-3d27-40a7-9a66-6b072d221f1d,A
2019-08-12 04:32:17,1697edb9-3d27-40a7-9a66-6b072d221f1d,S
2019-08-12 04:40:35,1697edb9-3d27-40a7-9a66-6b072d221f1d,A
2019-08-12 04:43:27,1697edb9-3d27-40a7-9a66-6b072d221f1d,S
2019-08-12 04:49:48,1697edb9-3d27-40a7-9a66-6b072d221f1d,A
2019-08-12 04:54:24,1697edb9-3d27-40a7-9a66-6b072d221f1d,S
2019-08-12 04:55:37,1697edb9-3d27-40a7-9a66-6b072d221f1d,A
2019-08-12 05:04:21,1697edb9-3d27-40a7-9a66-6b072d221f1d,S
2019-08-12 05:05:55,1697edb9-3d27-40a7-9a66-6b072d221f1d,A
2019-08-12 05:13:57,1697edb9-3d27-40a7-9a66-6b072d221f1d,S
2019-08-12 05:14:10,1697edb9-3d27-40a7-9a66-6b072d221f1d,A
2019-08-12 05:20:45,1697edb9-3d27-40a7-9a66-6b072d221f1d,S
2019-08-12 05:25:39,1697edb9-3d27-40a7-9a66-6b072d221f1d,A
2019-08-12 05:26:34,1697edb9-3d27-40a7-9a66-6b072d221f1d,S
2019-08-12 05:28:31,1697edb9-3d27-40a7-9a66-6b072d221f1d,A
2019-08-12 05:28:32,1697edb9-3d27-40a7-9a66-6b072d221f1d,S
2019-08-12 05:29:53,1697edb9-3d27-40a7-9a66-6b072d221f1d,A
2019-08-12 05:32:39,1697edb9-3d27-40a7-9a66-6b072d221f1d,S
2019-08-12 05:40:05,1697edb9-3d27-40a7-9a66-6b072d221f1d,A
2019-08-12 05:41:40,1697edb9-3d27-40a7-9a66-6b072d221f1d,S
2019-08-12 05:42:14,1697edb9-3d27-40a7-9a66-6b072d221f1d,A
2019-08-12 05:49:16,1697edb9-3d27-40a7-9a66-6b072d221f1d,S
2019-08-12 05:52:45,1697edb9-3d27-40a7-9a66-6b072d221f1d,A
2019-08-12 04:35:35,dfe2c50a-6742-4693-ac7a-58895eccda22,S
2019-08-12 04:40:59,dfe2c50a-6742-4693-ac7a-58895eccda22,A
2019-08-12 04:42:24,dfe2c50a-6742-4693-ac7a-58895eccda22,S
2019-08-12 04:44:34,dfe2c50a-6742-4693-ac7a-58895eccda22,A
2019-08-12 04:51:36,dfe2c50a-6742-4693-ac7a-58895eccda22,S
2019-08-12 04:57:42,dfe2c50a-6742-4693-ac7a-58895eccda22,A
2019-08-12 05:01:37,dfe2c50a-6742-4693-ac7a-58895eccda22,S
2019-08-12 05:04:59,dfe2c50a-6742-4693-ac7a-58895eccda22,A
2019-08-12 05:06:33,dfe2c50a-6742-4693-ac7a-58895eccda22,S
2019-08-12 05:06:44,dfe2c50a-6742-4693-ac7a-58895eccda22,A
2019-08-12 05:09:04,dfe2c50a-6742-4693-ac7a-58895eccda22,S
2019-08-12 05:13:21,dfe2c50a-6742-4693-ac7a-58895eccda22,A
2019-08-12 05:16:15,dfe2c50a-6742-4693-ac7a-58895eccda22,S
2019-08-12 05:17:10,dfe2c50a-6742-4693-ac7a-58895eccda22,A
2019-08-12 05:27:33,dfe2c50a-6742-4693-ac7a-58895eccda22,S
2019-08-12 05:27:37,dfe2c50a-6742-4693-ac7a-58895eccda22,A
2019-08-12 05:28:09,dfe2c50a-6742-4693-ac7a-58895eccda22,S
2019-08-12 05:28:38,dfe2c50a-6742-4693-ac7a-58895eccda22,A
2019-08-12 05:28:51,dfe2c50a-6742-4693-ac7a-58895eccda22,S
2019-08-12 05:32:46,dfe2c50a-6742-4693-ac7a-58895eccda22,A
2019-08-12 05:40:35,dfe2c50a-6742-4693-ac7a-58895eccda22,S
2019-08-12 05:46:34,dfe2c50a-6742-4693-ac7a-58895eccda22,A
2019-08-12 05:49:27,dfe2c50a-6742-4693-ac7a-58895eccda22,S
2019-08-12 05:51:26,dfe2c50a-6742-4693-ac7a-58895eccda22,A
2019-08-12 04:21:35,4c6f80a4-154d-4378-be57-5cd98f6dc413,A
2019-08-12 04:33:06,4c6f80a4-154d-4378-be57-5cd98f6dc413,S
2019-08-12 04:43:02,4c6f80a4-154d-4378-be57-5cd98f6dc413,A
2019-08-12 04:48:29,4c6f80a4-154d-4378-be57-5cd98f6dc413,S
2019-08-12 04:49:12,4c6f80a4-154d-4378-be57-5cd98f6dc413,A
2019-08-12 04:50:09,4c6f80a4-154d-4378-be57-5cd98f6dc413,S
2019-08-12 04:52:07,4c6f80a4-154d-4378-be57-5cd98f6dc413,A
2019-08-12 04:53:27,4c6f80a4-154d-4378-be57-5cd98f6dc413,S
2019-08-12 05:00:46,4c6f80a4-154d-4378-be57-5cd98f6dc413,A
2019-08-12 05:02:40,4c6f80a4-154d-4378-be57-5cd98f6dc413,S
2019-08-12 05:04:23,4c6f80a4-154d-4378-be57-5cd98f6dc413,A
2019-08-12 05:19:47,4c6f80a4-154d-4378-be57-5cd98f6dc413,S
2019-08-12 05:25:41,4c6f80a4-154d-4378-be57-5cd98f6dc413,A
2019-08-12 05:30:14,4c6f80a4-154d-4378-be57-5cd98f6dc413,S
2019-08-12 05:31:18,4c6f80a4-154d-4378-be57-5cd98f6dc413,A
2019-08-12 05:33:38,4c6f80a4-154d-4378-be57-5cd98f6dc413,S
2019-08-12 05:37:17,4c6f80a4-154d-4378-be57-5cd98f6dc413,A
2019-08-12 05:39:18,4c6f80a4-154d-4378-be57-5cd98f6dc413,S
2019-08-12 05:39:26,4c6f80a4-154d-4378-be57-5cd98f6dc413,A
2019-08-12 05:48:32,4c6f80a4-154d-4378-be57-5cd98f6dc413,S
2019-08-12 05:54:51,4c6f80a4-154d-4378-be57-5cd98f6dc413,A
2019-08-12 04:13:52,6a2680a2-6057-4adf-a651-9acd741c5447,A
2019-08-12 04:19:54,6a2680a2-6057-4adf-a651-9acd741c5447,S
2019-08-12 04:22:25,6a2680a2-6057-4adf-a651-9acd741c5447,A
2019-08-12 04:23:09,6a2680a2-6057-4adf-a651-9acd741c5447,S
2019-08-12 04:23:13,6a2680a2-6057-4adf-a651-9acd741c5447,A
2019-08-12 04:26:03,6a2680a2-6057-4adf-a651-9acd741c5447,S
2019-08-12 04:34:19,6a2680a2-6057-4adf-a651-9acd741c5447,A
2019-08-12 04:37:05,6a2680a2-6057-4adf-a651-9acd741c5447,S
2019-08-12 04:37:07,6a2680a2-6057-4adf-a651-9acd741c5447,A
2019-08-12 04:43:13,6a2680a2-6057-4adf-a651-9acd741c5447,S
2019-08-12 04:47:36,6a2680a2-6057-4adf-a651-9acd741c5447,A
2019-08-12 04:54:57,6a2680a2-6057-4adf-a651-9acd741c5447,S
2019-08-12 04:56:06,6a2680a2-6057-4adf-a651-9acd741c5447,A
2019-08-12 05:00:02,6a2680a2-6057-4adf-a651-9acd741c5447,S
2019-08-12 05:00:49,6a2680a2-6057-4adf-a651-9acd741c5447,A
2019-08-12 05:01:07,6a2680a2-6057-4adf-a651-9acd741c5447,S
2019-08-12 05:11:40,6a2680a2-6057-4adf-a651-9acd741c5447,A
2019-08-12 05:13:03,6a2680a2-6057-4adf-a651-9acd741c5447,S
2019-08-12 05:18:48,6a2680a2-6057-4adf-a651-9acd741c5447,A
2019-08-12 05:23:14,6a2680a2-6057-4adf-a651-9acd741c5447,S
2019-08-12 05:24:33,6a2680a2-6057-4adf-a651-9acd741c5447,A
2019-08-12 05:27:21,6a2680a2-6057-4adf-a651-9acd741c5447,S
2019-08-12 05:28:45,6a2680a2-6057-4adf-a651-9acd741c5447,A
2019-08-12 05:37:35,6a2680a2-6057-4adf-a651-9acd741c5447,S
2019-08-12 05:39:04,6a2680a2-6057-4adf-a651-9acd741c5447,A
2019-08-12 05:42:43,6a2680a2-6057-4adf-a651-9acd741c5447,S
2019-08-12 05:43:00,6a2680a2-6057-4adf-a651-9acd741c5447,A
2019-08-12 05:46:58,6a2680a2-6057-4adf-a651-9acd741c5447,S
2019-08-12 04:17:48,cfc37208-9414-4b19-85a7-6a6350a60f92,S
2019-08-12 04:22:06,cfc37208-9414-4b19-85a7-6a6350a60f92,A
2019-08-12 04:35:49,cfc37208-9414-4b19-85a7-6a6350a60f92,S
2019-08-12 04:36:13,cfc37208-9414-4b19-85a7-6a6350a60f92,A
2019-08-12 04:40:49,cfc37208-9414-4b19-85a7-6a6350a60f92,S
2019-08-12 04:44:07,cfc37208-9414-4b19-85a7-6a6350a60f92,A
2019-08-12 04:47:14,cfc37208-9414-4b19-85a7-6a6350a60f92,S
2019-08-12 04:51:46,cfc37208-9414-4b19-85a7-6a6350a60f92,A
2019-08-12 04:54:59,cfc37208-9414-4b19-85a7-6a6350a60f92,S
2019-08-12 04:58:36,cfc37208-9414-4b19-85a7-6a6350a60f92,A
2019-08-12 05:14:27,cfc37208-9414-4b19-85a7-6a6350a60f92,S
2019-08-12 05:18:44,cfc37208-9414-4b19-85a7-6a6350a60f92,A
2019-08-12 05:19:06,cfc37208-9414-4b19-85a7-6a6350a60f92,S
2019-08-12 05:24:12,cfc37208-9414-4b19-85a7-6a6350a60f92,A
2019-08-12 05:31:31,cfc37208-9414-4b19-85a7-6a6350a60f92,S
2019-08-12 05:44:38,cfc37208-9414-4b19-85a7-6a6350a60f92,A
2019-08-12 05:45:39,cfc37208-9414-4b19-85a7-6a6350a60f92,S
2019-08-12 04:08:52,a2be87b2-d3cb-4d2a-af60-0b4fda66a7e7,A
2019-08-12 04:12:33,a2be87b2-d3cb-4d2a-af60-0b4fda66a7e7,S
2019-08-12 04:15:53,a2be87b2-d3cb-4d2a-af60-0b4fda66a7e7,A
2019-08-12 04:17:32,a2be87b2-d3cb-4d2a-af60-0b4fda66a7e7,S
2019-08-12 04:33:03,a2be87b2-d3cb-4d2a-af60-0b4fda66a7e7,A
2019-08-12 04:34:47,a2be87b2-d3cb-4d2a-af60-0b4fda66a7e7,S
2019-08-12 04:35:10,a2be87b2-d3cb-4d2a-af60-0b4fda66a7e7,A
2019-08-12 04:56:58,a2be87b2-d3cb-4d2a-af60-0b4fda66a7e7,S
2019-08-12 05:04:08,a2be87b2-d3cb-4d2a-af60-0b4fda66a7e7,A
2019-08-12 05:08:29,a2be87b2-d3cb-4d2a-af60-0b4fda66a7e7,S
2019-08-12 05:09:09,a2be87b2-d3cb-4d2a-af60-0b4fda66a7e7,A
2019-08-12 05:13:24,a2be87b2-d3cb-4d2a-af60-0b4fda66a7e7,S
2019-08-12 05:15:14,a2be87b2-d3cb-4d2a-af60-0b4fda66a7e7,A
2019-08-12 05:17:57,a2be87b2-d3cb-4d2a-af60-0b4fda66a7e7,S
2019-08-12 05:27:11,a2be87b2-d3cb-4d2a-af60-0b4fda66a7e7,A
2019-08-12 05:34:47,a2be87b2-d3cb-4d2a-af60-0b4fda66a7e7,S
2019-08-12 05:39:44,a2be87b2-d3cb-4d2a-af60-0b4fda66a7e7,A
2019-08-12 05:46:21,a2be87b2-d3cb-4d2a-af60-0b4fda66a7e7,S
2019-08-12 04:22:16,11a7230a-4045-463d-930d-2933fec48591,S
2019-08-12 04:34:30,11a7230a-4045-463d-930d-2933fec48591,A
2019-08-12 04:44:39,11a7230a-4045-463d-930d-2933fec48591,S
2019-08-12 04:45:57,11a7230a-4045-463d-930d-2933fec48591,A
2019-08-12 04:47:56,11a7230a-4045-463d-930d-2933fec48591,S
2019-08-12 04:54:35,11a7230a-4045-463d-930d-2933fec48591,A
2019-08-12 04:55:22,11a7230a-4045-463d-930d-2933fec48591,S
2019-08-12 04:57:44,11a7230a-4045-463d-930d-2933fec48591,A
2019-08-12 04:58:34,11a7230a-4045-463d-930d-2933fec48591,S
2019-08-12 04:58:57,11a7230a-4045-463d-930d-2933fec48591,A
2019-08-12 04:59:15,11a7230a-4045-463d-930d-2933fec48591,S
2019-08-12 05:06:12,11a7230a-4045-463d-930d-2933fec48591,A
2019-08-12 05:19:02,11a7230a-4045-463d-930d-2933fec48591,S
2019-08-12 05:23:39,11a7230a-4045-463d-930d-2933fec48591,A
2019-08-12 05:24:18,11a7230a-4045-463d-930d-2933fec48591,S
2019-08-12 05:41:13,11a7230a-4045-463d-930d-2933fec48591,A
2019-08-12 05:43:33,11a7230a-4045-463d-930d-2933fec48591,S
2019-08-12 05:43:47,11a7230a-4045-463d-930d-2933fec48591,A
2019-08-12 05:45:06,11a7230a-4045-463d-930d-2933fec48591,S
2019-08-12 05:47:33,11a7230a-4045-463d-930d-2933fec48591,A
2019-08-12 05:53:01,11a7230a-4045-463d-930d-2933fec48591,S
2019-08-12 05:56:04,11a7230a-4045-463d-930d-2933fec48591,A
2019-08-12 04:30:57,76b66eeb-a64c-49d6-b977-aec562b28664,A
2019-08-12 04:39:52,76b66eeb-a64c-49d6-b977-aec562b28664,S
2019-08-12 04:50:36,76b66eeb-a64c-49d6-b977-aec562b28664,A
2019-08-12 04:56:07,76b66eeb-a64c-49d6-b977-aec562b28664,S
2019-08-12 04:58:46,76b66eeb-a64c-49d6-b977-aec562b28664,A
2019-08-12 04:59:30,76b66eeb-a64c-49d6-b977-aec562b28664,S
2019-08-12 05:04:10,76b66eeb-a64c-49d6-b977-aec562b28664,A
2019-08-12 05:06:00,76b66eeb-a64c-49d6-b977-aec562b28664,S
2019-08-12 05:19:15,76b66eeb-a64c-49d6-b977-aec562b28664,A
2019-08-12 05:21:08,76b66eeb-a64c-49d6-b977-aec562b28664,S
2019-08-12 05:27:20,76b66eeb-a64c-49d6-b977-aec562b28664,A
2019-08-12 05:30:07,76b66eeb-a64c-49d6-b977-aec562b28664,S
2019-08-12 05:31:55,76b66eeb-a64c-49d6-b977-aec562b28664,A
2019-08-12 05:32:18,76b66eeb-a64c-49d6-b977-aec562b28664,S
2019-08-12 05:32:58,76b66eeb-a64c-49d6-b977-aec562b28664,A
2019-08-12 05:45:28,76b66eeb-a64c-49d6-b977-aec562b28664,S
2019-08-12 05:45:30,76b66eeb-a64c-49d6-b977-aec562b28664,A
2019-08-12 05:46:06,76b66eeb-a64c-49d6-b977-aec562b28664,S
2019-08-12 05:46:35,76b66eeb-a64c-49d6-b977-aec562b28664,A
2019-08-12 04:21:27,26c92ad6-8d8c-4fe4-bd95-5952b70205b3,S
2019-08-12 04:22:09,26c92ad6-8d8c-4fe4-bd95-5952b70205b3,A
2019-08-12 04:37:49,26c92ad6-8d8c-4fe4-bd95-5952b70205b3,S
2019-08-12 04:45:04,26c92ad6-8d8c-4fe4-bd95-5952b70205b3,A
2019-08-12 04:45:26,26c92ad6-8d8c-4fe4-bd95-5952b70205b3,S
2019-08-12 04:45:55,26c92ad6-8d8c-4fe4-bd95-5952b70205b3,A
2019-08-12 04:47:02,26c92ad6-8d8c-4fe4-bd95-5952b70205b3,S
2019-08-12 04:54:50,26c92ad6-8d8c-4fe4-bd95-5952b70205b3,A
2019-08-12 04:57:19,26c92ad6-8d8c-4fe4-bd95-5952b70205b3,S
2019-08-12 04:58:17,26c92ad6-8d8c-4fe4-bd95-5952b70205b3,A
2019-08-12 05:03:16,26c92ad6-8d8c-4fe4-bd95-5952b70205b3,S
2019-08-12 05:06:42,26c92ad6-8d8c-4fe4-bd95-5952b70205b3,A
2019-08-12 05:14:25,26c92ad6-8d8c-4fe4-bd95-5952b70205b3,S
2019-08-12 05:17:57,26c92ad6-8d8c-4fe4-bd95-5952b70205b3,A
2019-08-12 05:19:01,26c92ad6-8d8c-4fe4-bd95-5952b70205b3,S
2019-08-12 05:20:19,26c92ad6-8d8c-4fe4-bd95-5952b70205b3,A
2019-08-12 05:29:28,26c92ad6-8d8c-4fe4-bd95-5952b70205b3,S
2019-08-12 05:30:35,26c92ad6-8d8c-4fe4-bd95-5952b70205b3,A
2019-08-12 05:33:12,26c92ad6-8d8c-4fe4-bd95-5952b70205b3,S
2019-08-12 05:35:19,26c92ad6-8d8c-4fe4-bd95-5952b70205b3,A
2019-08-12 05:43:51,26c92ad6-8d8c-4fe4-bd95-5952b70205b3,S
2019-08-12 05:46:05,26c92ad6-8d8c-4fe4-bd95-5952b70205b3,A
2019-08-12 05:51:03,26c92ad6-8d8c-4fe4-bd95-5952b70205b3,S
2019-08-12 05:54:30,26c92ad6-8d8c-4fe4-bd95-5952b70205b3,A
2019-08-12 05:55:05,26c92ad6-8d8c-4fe4-bd95-5952b70205b3,S
2019-08-12 04:01:40,b7bd5bba-1a1e-40e2-900f-bafabf4d3181,S
2019-08-12 04:07:53,b7bd5bba-1a1e-40e2-900f-bafabf4d3181,A
2019-08-12 04:12:16,b7bd5bba-1a1e-40e2-900f-bafabf4d3181,S
2019-08-12 04:22:49,b7bd5bba-1a1e-40e2-900f-bafabf4d3181,A
2019-08-12 04:23:08,b7bd5bba-1a1e-40e2-900f-bafabf4d3181,S
2019-08-12 04:28:37,b7bd5bba-1a1e-40e2-900f-bafabf4d3181,A
2019-08-12 04:29:11,b7bd5bba-1a1e-40e2-900f-bafabf4d3181,S
2019-08-12 04:29:49,b7bd5bba-1a1e-40e2-900f-bafabf4d3181,A
2019-08-12 04:32:20,b7bd5bba-1a1e-40e2-900f-bafabf4d3181,S
2019-08-12 04:32:40,b7bd5bba-1a1e-40e2-900f-bafabf4d3181,A
2019-08-12 04:33:32,b7bd5bba-1a1e-40e2-900f-bafabf4d3181,S
2019-08-12 04:49:05,b7bd5bba-1a1e-40e2-900f-bafabf4d3181,A
2019-08-12 04:50:24,b7bd5bba-1a1e-40e2-900f-bafabf4d3181,S
2019-08-12 04:53:32,b7bd5bba-1a1e-40e2-900f-bafabf4d3181,A
2019-08-12 05:05:26,b7bd5bba-1a1e-40e2-900f-bafabf4d3181,S
2019-08-12 05:06:52,b7bd5bba-1a1e-40e2-900f-bafabf4d3181,A
2019-08-12 05:08:01,b7bd5bba-1a1e-40e2-900f-bafabf4d3181,S
2019-08-12 05:08:53,b7bd5bba-1a1e-40e2-900f-bafabf4d3181,A
2019-08-12 05:09:15,b7bd5bba-1a1e-40e2-900f-bafabf4d3181,S
2019-08-12 05:15:45,b7bd5bba-1a1e-40e2-900f-bafabf4d3181,A
2019-08-12 05:46:25,b7bd5bba-1a1e-40e2-900f-bafabf4d3181,S
2019-08-12 05:50:11,b7bd5bba-1a1e-40e2-900f-bafabf4d3181,A
2019-08-12 04:29:26,0049ffe1-3e11-40d4-b397-f309001a5a4c,A
2019-08-12 04:32:54,0049ffe1-3e11-40d4-b397-f309001a5a4c,S
2019-08-12 04:35:58,0049ffe1-3e11-40d4-b397-f309001a5a4c,A
2019-08-12 04:44:54,0049ffe1-3e11-40d4-b397-f309001a5a4c,S
2019-08-12 04:59:51,0049ffe1-3e11-40d4-b397-f309001a5a4c,A
2019-08-12 05:00:54,0049ffe1-3e11-40d4-b397-f309001a5a4c,S
2019-08-12 05:01:23,0049ffe1-3e11-40d4-b397-f309001a5a4c,A
2019-08-12 05:02:02,0049ffe1-3e11-40d4-b397-f309001a5a4c,S
2019-08-12 05:09:06,0049ffe1-3e11-40d4-b397-f309001a5a4c,A
2019-08-12 05:14:16,0049ffe1-3e11-40d4-b397-f309001a5a4c,S
2019-08-12 05:33:08,0049ffe1-3e11-40d4-b397-f309001a5a4c,A
2019-08-12 05:35:15,0049ffe1-3e11-40d4-b397-f309001a5a4c,S
2019-08-12 05:42:22,0049ffe1-3e11-40d4-b397-f309001a5a4c,A
2019-08-12 05:45:52,0049ffe1-3e11-40d4-b397-f309001a5a4c,S
2019-08-12 04:37:20,3a9d4099-b722-4767-823e-d6cfd1fa0e43,S
2019-08-12 04:50:55,3a9d4099-b722-4767-823e-d6cfd1fa0e43,A
2019-08-12 04:55:48,3a9d4099-b722-4767-823e-d6cfd1fa0e43,S
2019-08-12 04:56:21,3a9d4099-b722-4767-823e-d6cfd1fa0e43,A
2019-08-12 05:00:13,3a9d4099-b722-4767-823e-d6cfd1fa0e43,S
2019-08-12 05:00:54,3a9d4099-b722-4767-823e-d6cfd1fa0e43,A
2019-08-12 05:09:33,3a9d4099-b722-4767-823e-d6cfd1fa0e43,S
2019-08-12 05:10:36,3a9d4099-b722-4767-823e-d6cfd1fa0e43,A
2019-08-12 05:12:52,3a9d4099-b722-4767-823e-d6cfd1fa0e43,S
2019-08-12 05:15:01,3a9d4099-b722-4767-823e-d6cfd1fa0e43,A
2019-08-12 05:17:23,3a9d4099-b722-4767-823e-d6cfd1fa0e43,S
2019-08-12 05:21:15,3a9d4099-b722-4767-823e-d6cfd1fa0e43,A
2019-08-12 05:22:26,3a9d4099-b722-4767-823e-d6cfd1fa0e43,S
2019-08-12 05:23:17,3a9d4099-b722-4767-823e-d6cfd1fa0e43,A
2019-08-12 05:25:26,3a9d4099-b722-4767-823e-d6cfd1fa0e43,S
2019-08-12 05:25:49,3a9d4099-b722-4767-823e-d6cfd1fa0e43,A
2019-08-12 05:26:05,3a9d4099-b722-4767-823e-d6cfd1fa0e43,S
2019-08-12 05:30:37,3a9d4099-b722-4767-823e-d6cfd1fa0e43,A
2019-08-12 05:31:31,3a9d4099-b722-4767-823e-d6cfd1fa0e43,S
2019-08-12 05:40:59,3a9d4099-b722-4767-823e-d6cfd1fa0e43,A
2019-08-12 05:47:02,3a9d4099-b722-4767-823e-d6cfd1fa0e43,S
2019-08-12 05:55:00,3a9d4099-b722-4767-823e-d6cfd1fa0e43,A
2019-08-12 04:24:18,f275b4e6-351a-4282-90fc-e40404acf925,A
2019-08-12 04:27:47,f275b4e6-351a-4282-90fc-e40404acf925,S
2019-08-12 04:30:03,f275b4e6-351a-4282-90fc-e40404acf925,A
2019-08-12 04:32:04,f275b4e6-351a-4282-90fc-e40404acf925,S
2019-08-12 04:32:39,f275b4e6-351a-4282-90fc-e40404acf925,A
2019-08-12 04:35:14,f275b4e6-351a-4282-90fc-e40404acf925,S
2019-08-12 04:42:05,f275b4e6-351a-4282-90fc-e40404acf925,A
2019-08-12 04:43:33,f275b4e6-351a-4282-90fc-e40404acf925,S
2019-08-12 04:53:49,f275b4e6-351a-4282-90fc-e40404acf925,A
2019-08-12 05:32:54,f275b4e6-351a-4282-90fc-e40404acf925,S
2019-08-12 05:42:48,f275b4e6-351a-4282-90fc-e40404acf925,A
2019-08-12 05:42:52,f275b4e6-351a-4282-90fc-e40404acf925,S
2019-08-12 05:43:34,f275b4e6-351a-4282-90fc-e40404acf925,A
2019-08-12 05:46:38,f275b4e6-351a-4282-90fc-e40404acf925,S
2019-08-12 05:48:00,f275b4e6-351a-4282-90fc-e40404acf925,A
2019-08-12 05:49:20,f275b4e6-351a-4282-90fc-e40404acf925,S
2019-08-12 05:53:30,f275b4e6-351a-4282-90fc-e40404acf925,A
2019-08-12 05:55:04,f275b4e6-351a-4282-90fc-e40404acf925,S
2019-08-12 05:55:10,f275b4e6-351a-4282-90fc-e40404acf925,A
2019-08-12 04:23:28,9ec3793f-2055-48b9-8bdd-40a63554dc4d,S
2019-08-12 04:25:46,9ec3793f-2055-48b9-8bdd-40a63554dc4d,A
2019-08-12 04:30:58,9ec3793f-2055-48b9-8bdd-40a63554dc4d,S
2019-08-12 04:39:04,9ec3793f-2055-48b9-8bdd-40a63554dc4d,A
2019-08-12 04:46:27,9ec3793f-2055-48b9-8bdd-40a63554dc4d,S
2019-08-12 04:46:50,9ec3793f-2055-48b9-8bdd-40a63554dc4d,A
2019-08-12 04:52:23,9ec3793f-2055-48b9-8bdd-40a63554dc4d,S
2019-08-12 05:03:26,9ec3793f-2055-48b9-8bdd-40a63554dc4d,A
2019-08-12 05:07:50,9ec3793f-2055-48b9-8bdd-40a63554dc4d,S
2019-08-12 05:10:38,9ec3793f-2055-48b9-8bdd-40a63554dc4d,A
2019-08-12 05:17:20,9ec3793f-2055-48b9-8bdd-40a63554dc4d,S
2019-08-12 05:18:10,9ec3793f-2055-48b9-8bdd-40a63554dc4d,A
2019-08-12 05:20:56,9ec3793f-2055-48b9-8bdd-40a63554dc4d,S
2019-08-12 05:24:46,9ec3793f-2055-48b9-8bdd-40a63554dc4d,A
2019-08-12 05:31:14,9ec3793f-2055-48b9-8bdd-40a63554dc4d,S
2019-08-12 05:34:19,9ec3793f-2055-48b9-8bdd-40a63554dc4d,A
2019-08-12 05:46:39,9ec3793f-2055-48b9-8bdd-40a63554dc4d,S
2019-08-12 05:51:26,9ec3793f-2055-48b9-8bdd-40a63554dc4d,A
2019-08-12 05:53:30,9ec3793f-2055-48b9-8bdd-40a63554dc4d,S
2019-08-12 03:59:47,cc4e7aa1-db4f-4a2d-b9da-cc3f3cce006f,S
2019-08-12 04:15:54,cc4e7aa1-db4f-4a2d-b9da-cc3f3cce006f,A
2019-08-12 04:17:07,cc4e7aa1-db4f-4a2d-b9da-cc3f3cce006f,S
2019-08-12 04:21:56,cc4e7aa1-db4f-4a2d-b9da-cc3f3cce006f,A
2019-08-12 04:23:01,cc4e7aa1-db4f-4a2d-b9da-cc3f3cce006f,S
2019-08-12 04:25:49,cc4e7aa1-db4f-4a2d-b9da-cc3f3cce006f,A
2019-08-12 04:31:00,cc4e7aa1-db4f-4a2d-b9da-cc3f3cce006f,S
2019-08-12 04:33:11,cc4e7aa1-db4f-4a2d-b9da-cc3f3cce006f,A
2019-08-12 04:36:40,cc4e7aa1-db4f-4a2d-b9da-cc3f3cce006f,S
2019-08-12 04:42:15,cc4e7aa1-db4f-4a2d-b9da-cc3f3cce006f,A
2019-08-12 04:52:46,cc4e7aa1-db4f-4a2d-b9da-cc3f3cce006f,S
2019-08-12 04:58:26,cc4e7aa1-db4f-4a2d-b9da-cc3f3cce006f,A
2019-08-12 05:00:24,cc4e7aa1-db4f-4a2d-b9da-cc3f3cce006f,S
2019-08-12 05:02:26,cc4e7aa1-db4f-4a2d-b9da-cc3f3cce006f,A
2019-08-12 05:10:43,cc4e7aa1-db4f-4a2d-b9da-cc3f3cce006f,S
2019-08-12 05:12:52,cc4e7aa1-db4f-4a2d-b9da-cc3f3cce006f,A
2019-08-12 05:17:47,cc4e7aa1-db4f-4a2d-b9da-cc3f3cce006f,S
2019-08-12 05:20:46,cc4e7aa1-db4f-4a2d-b9da-cc3f3cce006f,A
2019-08-12 05:21:53,cc4e7aa1-db4f-4a2d-b9da-cc3f3cce006f,S
2019-08-12 05:26:48,cc4e7aa1-db4f-4a2d-b9da-cc3f3cce006f,A
2019-08-12 05:29:41,cc4e7aa1-db4f-4a2d-b9da-cc3f3cce006f,S
2019-08-12 05:33:30,cc4e7aa1-db4f-4a2d-b9da-cc3f3cce006f,A
2019-08-12 05:35:50,cc4e7aa1-db4f-4a2d-b9da-cc3f3cce006f,S
2019-08-12 05:39:36,cc4e7aa1-db4f-4a2d-b9da-cc3f3cce006f,A
2019-08-12 05:45:02,cc4e7aa1-db4f-4a2d-b9da-cc3f3cce006f,S
2019-08-12 05:46:08,cc4e7aa1-db4f-4a2d-b9da-cc3f3cce006f,A
2019-08-12 05:51:53,cc4e7aa1-db4f-4a2d-b9da-cc3f3cce006f,S
2019-08-12 05:52:50,cc4e7aa1-db4f-4a2d-b9da-cc3f3cce006f,A
2019-08-12 05:54:21,cc4e7aa1-db4f-4a2d-b9da-cc3f3cce006f,S
2019-08-12 05:54:52,cc4e7aa1-db4f-4a2d-b9da-cc3f3cce006f,A
2019-08-12 04:24:17,a181105a-4f7e-4928-aead-5f7645073225,A
2019-08-12 04:24:57,a181105a-4f7e-4928-aead-5f7645073225,S
2019-08-12 04:26:32,a181105a-4f7e-4928-aead-5f7645073225,A
2019-08-12 04:40:45,a181105a-4f7e-4928-aead-5f7645073225,S
2019-08-12 04:42:52,a181105a-4f7e-4928-aead-5f7645073225,A
2019-08-12 04:45:19,a181105a-4f7e-4928-aead-5f7645073225,S
2019-08-12 04:52:56,a181105a-4f7e-4928-aead-5f7645073225,A
2019-08-12 04:56:36,a181105a-4f7e-4928-aead-5f7645073225,S
2019-08-12 04:59:58,a181105a-4f7e-4928-aead-5f7645073225,A
2019-08-12 05:10:48,a181105a-4f7e-4928-aead-5f7645073225,S
2019-08-12 05:10:52,a181105a-4f7e-4928-aead-5f7645073225,A
2019-08-12 05:20:23,a181105a-4f7e-4928-aead-5f7645073225,S
2019-08-12 05:40:52,a181105a-4f7e-4928-aead-5f7645073225,A
2019-08-12 05:48:07,a181105a-4f7e-4928-aead-5f7645073225,S
2019-08-12 05:52:05,a181105a-4f7e-4928-aead-5f7645073225,A
2019-08-12 04:19:57,6828c269-3867-4d62-9f0c-af18f3d7fdf5,S
2019-08-12 04:24:06,6828c269-3867-4d62-9f0c-af18f3d7fdf5,A
2019-08-12 04:31:34,6828c269-3867-4d62-9f0c-af18f3d7fdf5,S
2019-08-12 04:35:47,6828c269-3867-4d62-9f0c-af18f3d7fdf5,A
2019-08-12 04:36:01,6828c269-3867-4d62-9f0c-af18f3d7fdf5,S
2019-08-12 04:45:29,6828c269-3867-4d62-9f0c-af18f3d7fdf5,A
2019-08-12 04:48:30,6828c269-3867-4d62-9f0c-af18f3d7fdf5,S
2019-08-12 04:49:58,6828c269-3867-4d62-9f0c-af18f3d7fdf5,A
2019-08-12 04:51:41,6828c269-3867-4d62-9f0c-af18f3d7fdf5,S
2019-08-12 05:01:21,6828c269-3867-4d62-9f0c-af18f3d7fdf5,A
2019-08-12 05:06:12,6828c269-3867-4d62-9f0c-af18f3d7fdf5,S
2019-08-12 05:07:55,6828c269-3867-4d62-9f0c-af18f3d7fdf5,A
2019-08-12 05:08:51,6828c269-3867-4d62-9f0c-af18f3d7fdf5,S
2019-08-12 05:14:19,6828c269-3867-4d62-9f0c-af18f3d7fdf5,A
2019-08-12 05:18:54,6828c269-3867-4d62-9f0c-af18f3d7fdf5,S
2019-08-12 05:23:35,6828c269-3867-4d62-9f0c-af18f3d7fdf5,A
2019-08-12 05:31:35,6828c269-3867-4d62-9f0c-af18f3d7fdf5,S
2019-08-12 05:36:47,6828c269-3867-4d62-9f0c-af18f3d7fdf5,A
2019-08-12 05:40:06,6828c269-3867-4d62-9f0c-af18f3d7fdf5,S
2019-08-12 05:52:53,6828c269-3867-4d62-9f0c-af18f3d7fdf5,A
2019-08-12 04:08:22,94c97ac4-4969-47b2-af6a-491d5befc6c1,S
2019-08-12 04:16:01,94c97ac4-4969-47b2-af6a-491d5befc6c1,A
2019-08-12 04:17:56,94c97ac4-4969-47b2-af6a-491d5befc6c1,S
2019-08-12 04:29:14,94c97ac4-4969-47b2-af6a-491d5befc6c1,A
2019-08-12 04:31:04,94c97ac4-4969-47b2-af6a-491d5befc6c1,S
2019-08-12 04:31:45,94c97ac4-4969-47b2-af6a-491d5befc6c1,A
2019-08-12 04:41:16,94c97ac4-4969-47b2-af6a-491d5befc6c1,S
2019-08-12 04:44:31,94c97ac4-4969-47b2-af6a-491d5befc6c1,A
2019-08-12 04:45:07,94c97ac4-4969-47b2-af6a-491d5befc6c1,S
2019-08-12 04:45:38,94c97ac4-4969-47b2-af6a-491d5befc6c1,A
2019-08-12 04:50:42,94c97ac4-4969-47b2-af6a-491d5befc6c1,S
2019-08-12 04:51:08,94c97ac4-4969-47b2-af6a-491d5befc6c1,A
2019-08-12 04:51:31,94c97ac4-4969-47b2-af6a-491d5befc6c1,S
2019-08-12 04:52:15,94c97ac4-4969-47b2-af6a-491d5befc6c1,A
2019-08-12 04:54:07,94c97ac4-4969-47b2-af6a-491d5befc6c1,S
2019-08-12 04:54:59,94c97ac4-4969-47b2-af6a-491d5befc6c1,A
2019-08-12 03:53:21,cb442ab2-15c0-4c76-b080-97fda7895f5f,A
2019-08-12 03:56:49,cb442ab2-15c0-4c76-b080-97fda7895f5f,S
2019-08-12 04:05:22,cb442ab2-15c0-4c76-b080-97fda7895f5f,A
2019-08-12 04:08:25,cb442ab2-15c0-4c76-b080-97fda7895f5f,S
2019-08-12 04:08:42,cb442ab2-15c0-4c76-b080-97fda7895f5f,A
2019-08-12 04:11:10,cb442ab2-15c0-4c76-b080-97fda7895f5f,S
2019-08-12 04:16:30,cb442ab2-15c0-4c76-b080-97fda7895f5f,A
2019-08-12 04:20:25,cb442ab2-15c0-4c76-b080-97fda7895f5f,S
2019-08-12 04:23:10,cb442ab2-15c0-4c76-b080-97fda7895f5f,A
2019-08-12 04:33:58,cb442ab2-15c0-4c76-b080-97fda7895f5f,S
2019-08-12 04:39:36,cb442ab2-15c0-4c76-b080-97fda7895f5f,A
2019-08-12 05:02:10,cb442ab2-15c0-4c76-b080-97fda7895f5f,S
2019-08-12 05:26:31,cb442ab2-15c0-4c76-b080-97fda7895f5f,A
2019-08-12 05:33:05,cb442ab2-15c0-4c76-b080-97fda7895f5f,S
2019-08-12 05:36:31,cb442ab2-15c0-4c76-b080-97fda7895f5f,A
2019-08-12 05:39:26,cb442ab2-15c0-4c76-b080-97fda7895f5f,S
2019-08-12 05:44:10,cb442ab2-15c0-4c76-b080-97fda7895f5f,A
2019-08-12 05:57:14,cb442ab2-15c0-4c76-b080-97fda7895f5f,S
2019-08-12 03:59:08,e3bdf792-fc06-4f97-ac0c-443b4d30e19b,S
2019-08-12 04:02:36,e3bdf792-fc06-4f97-ac0c-443b4d30e19b,A
2019-08-12 04:08:38,e3bdf792-fc06-4f97-ac0c-443b4d30e19b,S
2019-08-12 04:18:34,e3bdf792-fc06-4f97-ac0c-443b4d30e19b,A
2019-08-12 04:38:43,e3bdf792-fc06-4f97-ac0c-443b4d30e19b,S
2019-08-12 04:44:38,e3bdf792-fc06-4f97-ac0c-443b4d30e19b,A
2019-08-12 04:55:28,e3bdf792-fc06-4f97-ac0c-443b4d30e19b,S
2019-08-12 05:00:53,e3bdf792-fc06-4f97-ac0c-443b4d30e19b,A
2019-08-12 05:05:10,e3bdf792-fc06-4f97-ac0c-443b4d30e19b,S
2019-08-12 05:10:43,e3bdf792-fc06-4f97-ac0c-443b4d30e19b,A
2019-08-12 05:10:55,e3bdf792-fc06-4f97-ac0c-443b4d30e19b,S
2019-08-12 05:12:39,e3bdf792-fc06-4f97-ac0c-443b4d30e19b,A
2019-08-12 05:18:33,e3bdf792-fc06-4f97-ac0c-443b4d30e19b,S
2019-08-12 05:20:16,e3bdf792-fc06-4f97-ac0c-443b4d30e19b,A
2019-08-12 05:24:47,e3bdf792-fc06-4f97-ac0c-443b4d30e19b,S
2019-08-12 05:28:22,e3bdf792-fc06-4f97-ac0c-443b4d30e19b,A
2019-08-12 05:33:40,e3bdf792-fc06-4f97-ac0c-443b4d30e19b,S
2019-08-12 05:41:24,e3bdf792-fc06-4f97-ac0c-443b4d30e19b,A
2019-08-12 04:24:40,f896a335-22fc-488b-9303-0273d1649098,A
2019-08-12 04:25:09,f896a335-22fc-488b-9303-0273d1649098,S
2019-08-12 04:33:39,f896a335-22fc-488b-9303-0273d1649098,A
2019-08-12 04:34:59,f896a335-22fc-488b-9303-0273d1649098,S
2019-08-12 04:43:36,f896a335-22fc-488b-9303-0273d1649098,S
2019-08-12 04:44:50,f896a335-22fc-488b-9303-0273d1649098,A
2019-08-12 04:45:40,f896a335-22fc-488b-9303-0273d1649098,S
2019-08-12 04:49:27,f896a335-22fc-488b-9303-0273d1649098,A
2019-08-12 04:50:33,f896a335-22fc-488b-9303-0273d1649098,S
2019-08-12 04:50:46,f896a335-22fc-488b-9303-0273d1649098,A
2019-08-12 04:56:19,f896a335-22fc-488b-9303-0273d1649098,S
2019-08-12 05:01:38,f896a335-22fc-488b-9303-0273d1649098,A
2019-08-12 05:13:53,f896a335-22fc-488b-9303-0273d1649098,S
2019-08-12 05:14:08,f896a335-22fc-488b-9303-0273d1649098,A
2019-08-12 05:18:19,f896a335-22fc-488b-9303-0273d1649098,S
2019-08-12 05:27:55,f896a335-22fc-488b-9303-0273d1649098,A
2019-08-12 05:40:00,f896a335-22fc-488b-9303-0273d1649098,S
2019-08-12 05:43:30,f896a335-22fc-488b-9303-0273d1649098,A
2019-08-12 05:47:52,f896a335-22fc-488b-9303-0273d1649098,S
2019-08-12 05:49:17,f896a335-22fc-488b-9303-0273d1649098,A
2019-08-12 05:49:53,f896a335-22fc-488b-9303-0273d1649098,S
2019-08-12 05:56:53,f896a335-22fc-488b-9303-0273d1649098,A
2019-08-12 05:58:21,f896a335-22fc-488b-9303-0273d1649098,S
2019-08-12 04:30:03,1b6a995b-29bd-4630-a475-3eeb161f3120,S
2019-08-12 04:30:46,1b6a995b-29bd-4630-a475-3eeb161f3120,A
2019-08-12 04:34:17,1b6a995b-29bd-4630-a475-3eeb161f3120,S
2019-08-12 04:38:19,1b6a995b-29bd-4630-a475-3eeb161f3120,A
2019-08-12 04:46:08,1b6a995b-29bd-4630-a475-3eeb161f3120,S
2019-08-12 04:52:37,1b6a995b-29bd-4630-a475-3eeb161f3120,A
2019-08-12 04:56:48,1b6a995b-29bd-4630-a475-3eeb161f3120,S
2019-08-12 04:58:13,1b6a995b-29bd-4630-a475-3eeb161f3120,A
2019-08-12 05:08:38,1b6a995b-29bd-4630-a475-3eeb161f3120,S
2019-08-12 05:08:53,1b6a995b-29bd-4630-a475-3eeb161f3120,A
2019-08-12 05:09:09,1b6a995b-29bd-4630-a475-3eeb161f3120,S
2019-08-12 05:10:39,1b6a995b-29bd-4630-a475-3eeb161f3120,A
2019-08-12 05:18:29,1b6a995b-29bd-4630-a475-3eeb161f3120,S
2019-08-12 05:22:26,1b6a995b-29bd-4630-a475-3eeb161f3120,A
2019-08-12 05:25:04,1b6a995b-29bd-4630-a475-3eeb161f3120,S
2019-08-12 05:27:32,1b6a995b-29bd-4630-a475-3eeb161f3120,A
2019-08-12 05:29:39,1b6a995b-29bd-4630-a475-3eeb161f3120,S
2019-08-12 05:34:19,1b6a995b-29bd-4630-a475-3eeb161f3120,A
2019-08-12 05:40:41,1b6a995b-29bd-4630-a475-3eeb161f3120,S
2019-08-12 05:40:51,1b6a995b-29bd-4630-a475-3eeb161f3120,A
2019-08-12 05:41:30,1b6a995b-29bd-4630-a475-3eeb161f3120,S
2019-08-12 05:43:48,1b6a995b-29bd-4630-a475-3eeb161f3120,A
2019-08-12 05:58:14,1b6a995b-29bd-4630-a475-3eeb161f3120,S
2019-08-12 04:06:04,8958fa80-7ea9-4fcd-8f66-5703a6433370,A
2019-08-12 04:12:57,8958fa80-7ea9-4fcd-8f66-5703a6433370,S
2019-08-12 04:17:43,8958fa80-7ea9-4fcd-8f66-5703a6433370,A
2019-08-12 04:24:17,8958fa80-7ea9-4fcd-8f66-5703a6433370,S
2019-08-12 04:30:11,8958fa80-7ea9-4fcd-8f66-5703a6433370,A
2019-08-12 04:40:49,8958fa80-7ea9-4fcd-8f66-5703a6433370,S
2019-08-12 04:48:05,8958fa80-7ea9-4fcd-8f66-5703a6433370,A
2019-08-12 04:50:31,8958fa80-7ea9-4fcd-8f66-5703a6433370,S
2019-08-12 04:52:12,8958fa80-7ea9-4fcd-8f66-5703a6433370,A
2019-08-12 04:56:50,8958fa80-7ea9-4fcd-8f66-5703a6433370,S
2019-08-12 05:01:50,8958fa80-7ea9-4fcd-8f66-5703a6433370,A
2019-08-12 05:11:46,8958fa80-7ea9-4fcd-8f66-5703a6433370,S
2019-08-12 05:11:49,8958fa80-7ea9-4fcd-8f66-5703a6433370,A
2019-08-12 05:16:29,8958fa80-7ea9-4fcd-8f66-5703a6433370,S
2019-08-12 05:18:14,8958fa80-7ea9-4fcd-8f66-5703a6433370,A
2019-08-12 05:24:57,8958fa80-7ea9-4fcd-8f66-5703a6433370,S
2019-08-12 05:25:03,8958fa80-7ea9-4fcd-8f66-5703a6433370,A
2019-08-12 05:27:45,8958fa80-7ea9-4fcd-8f66-5703a6433370,S
2019-08-12 05:34:38,8958fa80-7ea9-4fcd-8f66-5703a6433370,A
2019-08-12 05:55:32,8958fa80-7ea9-4fcd-8f66-5703a6433370,S
2019-08-12 04:39:05,1733ce7f-5da1-4b89-9315-537add5c5eb4,S
2019-08-12 04:40:19,1733ce7f-5da1-4b89-9315-537add5c5eb4,A
2019-08-12 04:46:04,1733ce7f-5da1-4b89-9315-537add5c5eb4,S
2019-08-12 04:59:24,1733ce7f-5da1-4b89-9315-537add5c5eb4,A
2019-08-12 05:07:09,1733ce7f-5da1-4b89-9315-537add5c5eb4,S
2019-08-12 05:09:40,1733ce7f-5da1-4b89-9315-537add5c5eb4,A
2019-08-12 05:26:03,1733ce7f-5da1-4b89-9315-537add5c5eb4,S
2019-08-12 05:32:10,1733ce7f-5da1-4b89-9315-537add5c5eb4,A
2019-08-12 05:46:59,1733ce7f-5da1-4b89-9315-537add5c5eb4,S
2019-08-12 05:52:13,1733ce7f-5da1-4b89-9315-537add5c5eb4,A
2019-08-12 05:54:47,1733ce7f-5da1-4b89-9315-537add5c5eb4,S
2019-08-12 05:58:11,1733ce7f-5da1-4b89-9315-537add5c5eb4,A
2019-08-12 04:06:52,1f9b531e-ab0a-4419-9e9e-8e6b11ebd1bb,S
2019-08-12 04:18:57,1f9b531e-ab0a-4419-9e9e-8e6b11ebd1bb,A
2019-08-12 04:37:18,1f9b531e-ab0a-4419-9e9e-8e6b11ebd1bb,S
2019-08-12 04:39:42,1f9b531e-ab0a-4419-9e9e-8e6b11ebd1bb,A
2019-08-12 04:43:00,1f9b531e-ab0a-4419-9e9e-8e6b11ebd1bb,S
2019-08-12 04:46:20,1f9b531e-ab0a-4419-9e9e-8e6b11ebd1bb,A
2019-08-12 04:57:49,1f9b531e-ab0a-4419-9e9e-8e6b11ebd1bb,S
2019-08-12 04:58:39,1f9b531e-ab0a-4419-9e9e-8e6b11ebd1bb,A
2019-08-12 05:00:18,1f9b531e-ab0a-4419-9e9e-8e6b11ebd1bb,S
2019-08-12 05:01:10,1f9b531e-ab0a-4419-9e9e-8e6b11ebd1bb,A
2019-08-12 05:18:35,1f9b531e-ab0a-4419-9e9e-8e6b11ebd1bb,S
2019-08-12 05:18:40,1f9b531e-ab0a-4419-9e9e-8e6b11ebd1bb,A
2019-08-12 05:21:50,1f9b531e-ab0a-4419-9e9e-8e6b11ebd1bb,S
2019-08-12 05:25:17,1f9b531e-ab0a-4419-9e9e-8e6b11ebd1bb,A
2019-08-12 05:27:31,1f9b531e-ab0a-4419-9e9e-8e6b11ebd1bb,S
2019-08-12 05:33:27,1f9b531e-ab0a-4419-9e9e-8e6b11ebd1bb,A
2019-08-12 05:34:50,1f9b531e-ab0a-4419-9e9e-8e6b11ebd1bb,S
2019-08-12 05:38:45,1f9b531e-ab0a-4419-9e9e-8e6b11ebd1bb,A
2019-08-12 05:44:19,1f9b531e-ab0a-4419-9e9e-8e6b11ebd1bb,S
2019-08-12 05:55:51,1f9b531e-ab0a-4419-9e9e-8e6b11ebd1bb,A
2019-08-12 04:29:01,ccda1123-a5a6-4d48-8c00-028e2f629b31,A
2019-08-12 04:36:15,ccda1123-a5a6-4d48-8c00-028e2f629b31,S
2019-08-12 04:38:09,ccda1123-a5a6-4d48-8c00-028e2f629b31,A
2019-08-12 04:43:00,ccda1123-a5a6-4d48-8c00-028e2f629b31,S
2019-08-12 04:50:15,ccda1123-a5a6-4d48-8c00-028e2f629b31,A
2019-08-12 04:57:11,ccda1123-a5a6-4d48-8c00-028e2f629b31,S
2019-08-12 04:57:45,ccda1123-a5a6-4d48-8c00-028e2f629b31,A
2019-08-12 04:58:09,ccda1123-a5a6-4d48-8c00-028e2f629b31,S
2019-08-12 04:59:33,ccda1123-a5a6-4d48-8c00-028e2f629b31,A
2019-08-12 05:00:11,ccda1123-a5a6-4d48-8c00-028e2f629b31,S
2019-08-12 05:02:27,ccda1123-a5a6-4d48-8c00-028e2f629b31,A
2019-08-12 05:08:49,ccda1123-a5a6-4d48-8c00-028e2f629b31,S
2019-08-12 05:10:12,ccda1123-a5a6-4d48-8c00-028e2f629b31,A
2019-08-12 05:12:54,ccda1123-a5a6-4d48-8c00-028e2f629b31,S
2019-08-12 05:13:29,ccda1123-a5a6-4d48-8c00-028e2f629b31,A
2019-08-12 05:14:49,ccda1123-a5a6-4d48-8c00-028e2f629b31,S
2019-08-12 05:34:10,ccda1123-a5a6-4d48-8c00-028e2f629b31,A
2019-08-12 05:52:10,ccda1123-a5a6-4d48-8c00-028e2f629b31,S
2019-08-12 05:53:14,ccda1123-a5a6-4d48-8c00-028e2f629b31,A
2019-08-12 04:03:37,c84a1572-c01b-4b3a-961a-d79a20ba8646,S
2019-08-12 04:15:33,c84a1572-c01b-4b3a-961a-d79a20ba8646,A
2019-08-12 04:15:51,c84a1572-c01b-4b3a-961a-d79a20ba8646,S
2019-08-12 04:31:15,c84a1572-c01b-4b3a-961a-d79a20ba8646,A
2019-08-12 04:34:08,c84a1572-c01b-4b3a-961a-d79a20ba8646,S
2019-08-12 04:36:07,c84a1572-c01b-4b3a-961a-d79a20ba8646,A
2019-08-12 04:44:14,c84a1572-c01b-4b3a-961a-d79a20ba8646,S
2019-08-12 04:45:10,c84a1572-c01b-4b3a-961a-d79a20ba8646,A
2019-08-12 04:47:23,c84a1572-c01b-4b3a-961a-d79a20ba8646,S
2019-08-12 05:01:48,c84a1572-c01b-4b3a-961a-d79a20ba8646,A
2019-08-12 05:07:06,c84a1572-c01b-4b3a-961a-d79a20ba8646,S
2019-08-12 05:08:39,c84a1572-c01b-4b3a-961a-d79a20ba8646,A
2019-08-12 05:09:27,c84a1572-c01b-4b3a-961a-d79a20ba8646,S
2019-08-12 05:11:24,c84a1572-c01b-4b3a-961a-d79a20ba8646,A
2019-08-12 05:14:41,c84a1572-c01b-4b3a-961a-d79a20ba8646,S
2019-08-12 05:14:48,c84a1572-c01b-4b3a-961a-d79a20ba8646,A
2019-08-12 05:27:07,c84a1572-c01b-4b3a-961a-d79a20ba8646,S
2019-08-12 05:28:28,c84a1572-c01b-4b3a-961a-d79a20ba8646,A
2019-08-12 05:33:20,c84a1572-c01b-4b3a-961a-d79a20ba8646,S
2019-08-12 05:36:45,c84a1572-c01b-4b3a-961a-d79a20ba8646,A
2019-08-12 05:38:00,c84a1572-c01b-4b3a-961a-d79a20ba8646,S
2019-08-12 05:38:42,c84a1572-c01b-4b3a-961a-d79a20ba8646,A
2019-08-12 05:51:22,c84a1572-c01b-4b3a-961a-d79a20ba8646,S
2019-08-12 05:52:50,c84a1572-c01b-4b3a-961a-d79a20ba8646,A
2019-08-12 05:54:04,c84a1572-c01b-4b3a-961a-d79a20ba8646,S
2019-08-12 05:56:41,c84a1572-c01b-4b3a-961a-d79a20ba8646,A
2019-08-12 03:47:21,26970ec5-f2f9-45e9-8f92-d92e0a589de2,A
2019-08-12 03:51:38,26970ec5-f2f9-45e9-8f92-d92e0a589de2,S
2019-08-12 03:53:55,26970ec5-f2f9-45e9-8f92-d92e0a589de2,A
2019-08-12 04:01:37,26970ec5-f2f9-45e9-8f92-d92e0a589de2,S
2019-08-12 04:10:56,26970ec5-f2f9-45e9-8f92-d92e0a589de2,A
2019-08-12 04:15:17,26970ec5-f2f9-45e9-8f92-d92e0a589de2,S
2019-08-12 04:19:50,26970ec5-f2f9-45e9-8f92-d92e0a589de2,A
2019-08-12 04:35:07,26970ec5-f2f9-45e9-8f92-d92e0a589de2,S
2019-08-12 04:40:00,26970ec5-f2f9-45e9-8f92-d92e0a589de2,A
2019-08-12 04:52:49,26970ec5-f2f9-45e9-8f92-d92e0a589de2,S
2019-08-12 04:53:18,26970ec5-f2f9-45e9-8f92-d92e0a589de2,A
2019-08-12 05:00:31,26970ec5-f2f9-45e9-8f92-d92e0a589de2,S
2019-08-12 05:08:25,26970ec5-f2f9-45e9-8f92-d92e0a589de2,A
2019-08-12 05:09:35,26970ec5-f2f9-45e9-8f92-d92e0a589de2,S
2019-08-12 05:11:08,26970ec5-f2f9-45e9-8f92-d92e0a589de2,A
2019-08-12 05:11:45,26970ec5-f2f9-45e9-8f92-d92e0a589de2,S
2019-08-12 05:13:17,26970ec5-f2f9-45e9-8f92-d92e0a589de2,A
2019-08-12 05:13:53,26970ec5-f2f9-45e9-8f92-d92e0a589de2,S
2019-08-12 05:14:00,26970ec5-f2f9-45e9-8f92-d92e0a589de2,A
2019-08-12 05:14:21,26970ec5-f2f9-45e9-8f92-d92e0a589de2,S
2019-08-12 05:15:18,26970ec5-f2f9-45e9-8f92-d92e0a589de2,A
2019-08-12 05:22:43,26970ec5-f2f9-45e9-8f92-d92e0a589de2,S
2019-08-12 05:35:01,26970ec5-f2f9-45e9-8f92-d92e0a589de2,A
2019-08-12 05:35:39,26970ec5-f2f9-45e9-8f92-d92e0a589de2,S
2019-08-12 05:54:09,26970ec5-f2f9-45e9-8f92-d92e0a589de2,A
2019-08-12 04:35:36,7d19948c-ee73-4c6f-a36b-5051ded6ec72,S
2019-08-12 04:37:47,7d19948c-ee73-4c6f-a36b-5051ded6ec72,A
2019-08-12 04:40:33,7d19948c-ee73-4c6f-a36b-5051ded6ec72,S
2019-08-12 04:57:29,7d19948c-ee73-4c6f-a36b-5051ded6ec72,A
2019-08-12 04:59:09,7d19948c-ee73-4c6f-a36b-5051ded6ec72,S
2019-08-12 05:00:16,7d19948c-ee73-4c6f-a36b-5051ded6ec72,A
2019-08-12 05:05:30,7d19948c-ee73-4c6f-a36b-5051ded6ec72,S
2019-08-12 05:14:08,7d19948c-ee73-4c6f-a36b-5051ded6ec72,A
2019-08-12 05:16:06,7d19948c-ee73-4c6f-a36b-5051ded6ec72,S
2019-08-12 05:23:41,7d19948c-ee73-4c6f-a36b-5051ded6ec72,A
2019-08-12 05:24:29,7d19948c-ee73-4c6f-a36b-5051ded6ec72,S
2019-08-12 05:36:17,7d19948c-ee73-4c6f-a36b-5051ded6ec72,A
2019-08-12 05:44:09,7d19948c-ee73-4c6f-a36b-5051ded6ec72,S
2019-08-12 05:45:47,7d19948c-ee73-4c6f-a36b-5051ded6ec72,A
2019-08-12 05:49:37,7d19948c-ee73-4c6f-a36b-5051ded6ec72,S
2019-08-12 05:51:55,7d19948c-ee73-4c6f-a36b-5051ded6ec72,A
2019-08-12 03:53:39,8bb56f82-e422-465a-a7fe-a5511e14f9d0,S
2019-08-12 03:55:11,8bb56f82-e422-465a-a7fe-a5511e14f9d0,A
2019-08-12 03:56:00,8bb56f82-e422-465a-a7fe-a5511e14f9d0,S
2019-08-12 03:56:06,8bb56f82-e422-465a-a7fe-a5511e14f9d0,A
2019-08-12 03:56:12,8bb56f82-e422-465a-a7fe-a5511e14f9d0,S
2019-08-12 03:56:36,8bb56f82-e422-465a-a7fe-a5511e14f9d0,A
2019-08-12 04:01:21,8bb56f82-e422-465a-a7fe-a5511e14f9d0,S
2019-08-12 04:05:29,8bb56f82-e422-465a-a7fe-a5511e14f9d0,A
2019-08-12 04:07:18,8bb56f82-e422-465a-a7fe-a5511e14f9d0,S
2019-08-12 04:09:31,8bb56f82-e422-465a-a7fe-a5511e14f9d0,A
2019-08-12 04:20:09,8bb56f82-e422-465a-a7fe-a5511e14f9d0,S
2019-08-12 04:22:11,8bb56f82-e422-465a-a7fe-a5511e14f9d0,A
2019-08-12 04:31:21,8bb56f82-e422-465a-a7fe-a5511e14f9d0,S
2019-08-12 04:33:56,8bb56f82-e422-465a-a7fe-a5511e14f9d0,A
2019-08-12 04:42:32,8bb56f82-e422-465a-a7fe-a5511e14f9d0,S
2019-08-12 04:44:33,8bb56f82-e422-465a-a7fe-a5511e14f9d0,A
2019-08-12 04:46:22,8bb56f82-e422-465a-a7fe-a5511e14f9d0,S
2019-08-12 04:49:26,8bb56f82-e422-465a-a7fe-a5511e14f9d0,A
2019-08-12 04:49:33,8bb56f82-e422-465a-a7fe-a5511e14f9d0,S
2019-08-12 05:01:37,8bb56f82-e422-465a-a7fe-a5511e14f9d0,A
2019-08-12 05:05:15,8bb56f82-e422-465a-a7fe-a5511e14f9d0,S
2019-08-12 05:16:59,8bb56f82-e422-465a-a7fe-a5511e14f9d0,A
2019-08-12 05:17:44,8bb56f82-e422-465a-a7fe-a5511e14f9d0,S
2019-08-12 05:24:37,8bb56f82-e422-465a-a7fe-a5511e14f9d0,A
2019-08-12 05:25:57,8bb56f82-e422-465a-a7fe-a5511e14f9d0,S
2019-08-12 05:28:25,8bb56f82-e422-465a-a7fe-a5511e14f9d0,A
2019-08-12 05:36:50,8bb56f82-e422-465a-a7fe-a5511e14f9d0,S
2019-08-12 05:44:59,8bb56f82-e422-465a-a7fe-a5511e14f9d0,A
2019-08-12 05:55:08,8bb56f82-e422-465a-a7fe-a5511e14f9d0,S
2019-08-12 05:57:06,8bb56f82-e422-465a-a7fe-a5511e14f9d0,A
2019-08-12 03:50:53,900ec436-4e1b-4b24-8be9-16d621b09d58,A
2019-08-12 04:06:56,900ec436-4e1b-4b24-8be9-16d621b09d58,S
2019-08-12 04:10:10,900ec436-4e1b-4b24-8be9-16d621b09d58,A
2019-08-12 04:12:56,900ec436-4e1b-4b24-8be9-16d621b09d58,S
2019-08-12 04:13:26,900ec436-4e1b-4b24-8be9-16d621b09d58,A
2019-08-12 04:27:24,900ec436-4e1b-4b24-8be9-16d621b09d58,S
2019-08-12 04:30:54,900ec436-4e1b-4b24-8be9-16d621b09d58,A
2019-08-12 04:33:45,900ec436-4e1b-4b24-8be9-16d621b09d58,S
2019-08-12 04:37:45,900ec436-4e1b-4b24-8be9-16d621b09d58,A
2019-08-12 04:51:09,900ec436-4e1b-4b24-8be9-16d621b09d58,S
2019-08-12 04:51:20,900ec436-4e1b-4b24-8be9-16d621b09d58,A
2019-08-12 05:00:02,900ec436-4e1b-4b24-8be9-16d621b09d58,S
2019-08-12 05:04:18,900ec436-4e1b-4b24-8be9-16d621b09d58,A
2019-08-12 05:10:55,900ec436-4e1b-4b24-8be9-16d621b09d58,S
2019-08-12 05:13:27,900ec436-4e1b-4b24-8be9-16d621b09d58,A
2019-08-12 05:24:38,900ec436-4e1b-4b24-8be9-16d621b09d58,S
2019-08-12 05:26:32,900ec436-4e1b-4b24-8be9-16d621b09d58,A
2019-08-12 05:27:30,900ec436-4e1b-4b24-8be9-16d621b09d58,S
2019-08-12 05:30:22,900ec436-4e1b-4b24-8be9-16d621b09d58,A
2019-08-12 05:36:21,900ec436-4e1b-4b24-8be9-16d621b09d58,S
2019-08-12 05:45:09,900ec436-4e1b-4b24-8be9-16d621b09d58,A
2019-08-12 05:48:12,900ec436-4e1b-4b24-8be9-16d621b09d58,S
2019-08-12 05:50:03,900ec436-4e1b-4b24-8be9-16d621b09d58,A
2019-08-12 05:52:13,900ec436-4e1b-4b24-8be9-16d621b09d58,S
2019-08-12 04:34:50,b5138b5d-5392-4fd6-bd1a-dccd6dd7d9e9,A
2019-08-12 04:39:56,b5138b5d-5392-4fd6-bd1a-dccd6dd7d9e9,S
2019-08-12 04:40:59,b5138b5d-5392-4fd6-bd1a-dccd6dd7d9e9,A
2019-08-12 04:42:55,b5138b5d-5392-4fd6-bd1a-dccd6dd7d9e9,S
2019-08-12 04:50:30,b5138b5d-5392-4fd6-bd1a-dccd6dd7d9e9,A
2019-08-12 04:51:55,b5138b5d-5392-4fd6-bd1a-dccd6dd7d9e9,S
2019-08-12 05:01:48,b5138b5d-5392-4fd6-bd1a-dccd6dd7d9e9,A
2019-08-12 05:03:36,b5138b5d-5392-4fd6-bd1a-dccd6dd7d9e9,S
2019-08-12 05:08:30,b5138b5d-5392-4fd6-bd1a-dccd6dd7d9e9,A
2019-08-12 05:12:54,b5138b5d-5392-4fd6-bd1a-dccd6dd7d9e9,S
2019-08-12 05:21:39,b5138b5d-5392-4fd6-bd1a-dccd6dd7d9e9,A
2019-08-12 05:23:10,b5138b5d-5392-4fd6-bd1a-dccd6dd7d9e9,S
2019-08-12 05:25:04,b5138b5d-5392-4fd6-bd1a-dccd6dd7d9e9,A
2019-08-12 05:27:31,b5138b5d-5392-4fd6-bd1a-dccd6dd7d9e9,S
2019-08-12 05:31:45,b5138b5d-5392-4fd6-bd1a-dccd6dd7d9e9,A
2019-08-12 05:37:34,b5138b5d-5392-4fd6-bd1a-dccd6dd7d9e9,S
2019-08-12 05:43:04,b5138b5d-5392-4fd6-bd1a-dccd6dd7d9e9,A
2019-08-12 05:52:17,b5138b5d-5392-4fd6-bd1a-dccd6dd7d9e9,S
2019-08-12 04:30:48,e44c773f-0288-4e1e-b185-f52535f90e63,A
2019-08-12 04:45:31,e44c773f-0288-4e1e-b185-f52535f90e63,S
2019-08-12 04:47:37,e44c773f-0288-4e1e-b185-f52535f90e63,A
2019-08-12 04:56:43,e44c773f-0288-4e1e-b185-f52535f90e63,S
2019-08-12 05:08:16,e44c773f-0288-4e1e-b185-f52535f90e63,A
2019-08-12 05:14:42,e44c773f-0288-4e1e-b185-f52535f90e63,S
2019-08-12 05:21:09,e44c773f-0288-4e1e-b185-f52535f90e63,A
2019-08-12 05:21:32,e44c773f-0288-4e1e-b185-f52535f90e63,S
2019-08-12 05:22:39,e44c773f-0288-4e1e-b185-f52535f90e63,A
2019-08-12 05:26:58,e44c773f-0288-4e1e-b185-f52535f90e63,S
2019-08-12 05:27:30,e44c773f-0288-4e1e-b185-f52535f90e63,A
2019-08-12 05:34:09,e44c773f-0288-4e1e-b185-f52535f90e63,S
2019-08-12 05:36:53,e44c773f-0288-4e1e-b185-f52535f90e63,A
2019-08-12 05:38:40,e44c773f-0288-4e1e-b185-f52535f90e63,S
2019-08-12 05:42:27,e44c773f-0288-4e1e-b185-f52535f90e63,A
2019-08-12 05:48:42,e44c773f-0288-4e1e-b185-f52535f90e63,S
2019-08-12 05:48:55,e44c773f-0288-4e1e-b185-f52535f90e63,A
2019-08-12 05:51:31,e44c773f-0288-4e1e-b185-f52535f90e63,S
2019-08-12 03:51:20,aae34e58-3d44-4bfd-911c-00a3e32c0eba,S
2019-08-12 03:55:23,aae34e58-3d44-4bfd-911c-00a3e32c0eba,A
2019-08-12 03:56:13,aae34e58-3d44-4bfd-911c-00a3e32c0eba,S
2019-08-12 04:01:26,aae34e58-3d44-4bfd-911c-00a3e32c0eba,A
2019-08-12 04:06:19,aae34e58-3d44-4bfd-911c-00a3e32c0eba,S
2019-08-12 04:11:18,aae34e58-3d44-4bfd-911c-00a3e32c0eba,A
2019-08-12 04:13:52,aae34e58-3d44-4bfd-911c-00a3e32c0eba,S
2019-08-12 04:14:38,aae34e58-3d44-4bfd-911c-00a3e32c0eba,A
2019-08-12 04:25:15,aae34e58-3d44-4bfd-911c-00a3e32c0eba,S
2019-08-12 04:25:38,aae34e58-3d44-4bfd-911c-00a3e32c0eba,A
2019-08-12 04:33:16,aae34e58-3d44-4bfd-911c-00a3e32c0eba,S
2019-08-12 04:38:36,aae34e58-3d44-4bfd-911c-00a3e32c0eba,A
2019-08-12 04:39:02,aae34e58-3d44-4bfd-911c-00a3e32c0eba,S
2019-08-12 04:45:28,aae34e58-3d44-4bfd-911c-00a3e32c0eba,A
2019-08-12 04:47:32,aae34e58-3d44-4bfd-911c-00a3e32c0eba,S
2019-08-12 04:47:45,aae34e58-3d44-4bfd-911c-00a3e32c0eba,A
2019-08-12 04:52:48,aae34e58-3d44-4bfd-911c-00a3e32c0eba,S
2019-08-12 04:53:29,aae34e58-3d44-4bfd-911c-00a3e32c0eba,A
2019-08-12 05:10:36,aae34e58-3d44-4bfd-911c-00a3e32c0eba,S
2019-08-12 05:12:52,aae34e58-3d44-4bfd-911c-00a3e32c0eba,A
2019-08-12 05:13:12,aae34e58-3d44-4bfd-911c-00a3e32c0eba,S
2019-08-12 05:16:38,aae34e58-3d44-4bfd-911c-00a3e32c0eba,A
2019-08-12 05:16:49,aae34e58-3d44-4bfd-911c-00a3e32c0eba,S
2019-08-12 05:23:50,aae34e58-3d44-4bfd-911c-00a3e32c0eba,A
2019-08-12 05:29:38,aae34e58-3d44-4bfd-911c-00a3e32c0eba,S
2019-08-12 05:50:21,aae34e58-3d44-4bfd-911c-00a3e32c0eba,A
2019-08-12 05:51:37,aae34e58-3d44-4bfd-911c-00a3e32c0eba,S
2019-08-12 04:27:11,90450e90-5730-41a2-baae-4c418706acae,S
2019-08-12 04:29:06,90450e90-5730-41a2-baae-4c418706acae,A
2019-08-12 04:32:14,90450e90-5730-41a2-baae-4c418706acae,S
2019-08-12 04:32:44,90450e90-5730-41a2-baae-4c418706acae,A
2019-08-12 04:35:52,90450e90-5730-41a2-baae-4c418706acae,S
2019-08-12 04:37:53,90450e90-5730-41a2-baae-4c418706acae,A
2019-08-12 04:42:09,90450e90-5730-41a2-baae-4c418706acae,S
2019-08-12 04:43:06,90450e90-5730-41a2-baae-4c418706acae,A
2019-08-12 04:43:55,90450e90-5730-41a2-baae-4c418706acae,S
2019-08-12 04:51:22,90450e90-5730-41a2-baae-4c418706acae,A
2019-08-12 04:53:35,90450e90-5730-41a2-baae-4c418706acae,S
2019-08-12 04:57:07,90450e90-5730-41a2-baae-4c418706acae,A
2019-08-12 05:05:23,90450e90-5730-41a2-baae-4c418706acae,S
2019-08-12 05:12:47,90450e90-5730-41a2-baae-4c418706acae,A
2019-08-12 05:14:50,90450e90-5730-41a2-baae-4c418706acae,S
2019-08-12 05:17:35,90450e90-5730-41a2-baae-4c418706acae,A
2019-08-12 05:18:39,90450e90-5730-41a2-baae-4c418706acae,S
2019-08-12 05:19:57,90450e90-5730-41a2-baae-4c418706acae,A
2019-08-12 05:21:29,90450e90-5730-41a2-baae-4c418706acae,S
2019-08-12 05:29:37,90450e90-5730-41a2-baae-4c418706acae,A
2019-08-12 05:29:47,90450e90-5730-41a2-baae-4c418706acae,S
2019-08-12 05:29:59,90450e90-5730-41a2-baae-4c418706acae,A
2019-08-12 05:33:49,90450e90-5730-41a2-baae-4c418706acae,S
2019-08-12 05:36:14,90450e90-5730-41a2-baae-4c418706acae,A
2019-08-12 05:36:58,90450e90-5730-41a2-baae-4c418706acae,S
2019-08-12 05:38:16,90450e90-5730-41a2-baae-4c418706acae,A
2019-08-12 05:39:09,90450e90-5730-41a2-baae-4c418706acae,S
2019-08-12 05:47:32,90450e90-5730-41a2-baae-4c418706acae,A
2019-08-12 05:48:45,90450e90-5730-41a2-baae-4c418706acae,S
2019-08-12 05:57:44,90450e90-5730-41a2-baae-4c418706acae,A
2019-08-12 04:39:00,7d971394-96af-40f9-aaa3-0ba286e72c7a,S
2019-08-12 04:41:19,7d971394-96af-40f9-aaa3-0ba286e72c7a,A
2019-08-12 04:47:50,7d971394-96af-40f9-aaa3-0ba286e72c7a,S
2019-08-12 04:48:48,7d971394-96af-40f9-aaa3-0ba286e72c7a,A
2019-08-12 04:49:08,7d971394-96af-40f9-aaa3-0ba286e72c7a,S
2019-08-12 04:54:18,7d971394-96af-40f9-aaa3-0ba286e72c7a,A
2019-08-12 04:59:11,7d971394-96af-40f9-aaa3-0ba286e72c7a,S
2019-08-12 05:03:51,7d971394-96af-40f9-aaa3-0ba286e72c7a,A
2019-08-12 05:16:51,7d971394-96af-40f9-aaa3-0ba286e72c7a,S
2019-08-12 05:34:20,7d971394-96af-40f9-aaa3-0ba286e72c7a,A
2019-08-12 05:39:03,7d971394-96af-40f9-aaa3-0ba286e72c7a,S
2019-08-12 05:41:12,7d971394-96af-40f9-aaa3-0ba286e72c7a,A
2019-08-12 05:42:26,7d971394-96af-40f9-aaa3-0ba286e72c7a,S
2019-08-12 05:43:48,7d971394-96af-40f9-aaa3-0ba286e72c7a,A
2019-08-12 05:44:32,7d971394-96af-40f9-aaa3-0ba286e72c7a,S
2019-08-12 05:45:05,7d971394-96af-40f9-aaa3-0ba286e72c7a,A
2019-08-12 05:46:09,7d971394-96af-40f9-aaa3-0ba286e72c7a,S
2019-08-12 05:52:50,7d971394-96af-40f9-aaa3-0ba286e72c7a,A
2019-08-12 05:53:09,7d971394-96af-40f9-aaa3-0ba286e72c7a,S
2019-08-12 05:53:57,7d971394-96af-40f9-aaa3-0ba286e72c7a,A
2019-08-12 05:53:58,7d971394-96af-40f9-aaa3-0ba286e72c7a,S
2019-08-12 04:18:49,355dd525-dcd3-4f1f-bfe4-9a24dae5348c,S
2019-08-12 04:18:53,355dd525-dcd3-4f1f-bfe4-9a24dae5348c,A
2019-08-12 04:26:03,355dd525-dcd3-4f1f-bfe4-9a24dae5348c,S
2019-08-12 04:37:34,355dd525-dcd3-4f1f-bfe4-9a24dae5348c,A
2019-08-12 04:39:10,355dd525-dcd3-4f1f-bfe4-9a24dae5348c,S
2019-08-12 04:42:17,355dd525-dcd3-4f1f-bfe4-9a24dae5348c,A
2019-08-12 04:42:34,355dd525-dcd3-4f1f-bfe4-9a24dae5348c,S
2019-08-12 05:00:33,355dd525-dcd3-4f1f-bfe4-9a24dae5348c,A
2019-08-12 05:02:57,355dd525-dcd3-4f1f-bfe4-9a24dae5348c,S
2019-08-12 05:15:18,355dd525-dcd3-4f1f-bfe4-9a24dae5348c,A
2019-08-12 05:27:26,355dd525-dcd3-4f1f-bfe4-9a24dae5348c,S
2019-08-12 05:32:57,355dd525-dcd3-4f1f-bfe4-9a24dae5348c,A
2019-08-12 05:33:24,355dd525-dcd3-4f1f-bfe4-9a24dae5348c,S
2019-08-12 05:35:39,355dd525-dcd3-4f1f-bfe4-9a24dae5348c,A
2019-08-12 05:39:18,355dd525-dcd3-4f1f-bfe4-9a24dae5348c,S
2019-08-12 05:42:38,355dd525-dcd3-4f1f-bfe4-9a24dae5348c,A
2019-08-12 05:47:08,355dd525-dcd3-4f1f-bfe4-9a24dae5348c,S
2019-08-12 05:48:05,355dd525-dcd3-4f1f-bfe4-9a24dae5348c,A
2019-08-12 05:48:27,355dd525-dcd3-4f1f-bfe4-9a24dae5348c,S
2019-08-12 05:49:25,355dd525-dcd3-4f1f-bfe4-9a24dae5348c,A
2019-08-12 03:59:14,35e75c8f-2f03-424c-a574-b6b32361bd05,S
2019-08-12 04:04:12,35e75c8f-2f03-424c-a574-b6b32361bd05,A
2019-08-12 04:04:34,35e75c8f-2f03-424c-a574-b6b32361bd05,S
2019-08-12 04:09:18,35e75c8f-2f03-424c-a574-b6b32361bd05,A
2019-08-12 04:14:15,35e75c8f-2f03-424c-a574-b6b32361bd05,S
2019-08-12 04:16:18,35e75c8f-2f03-424c-a574-b6b32361bd05,A
2019-08-12 04:26:22,35e75c8f-2f03-424c-a574-b6b32361bd05,S
2019-08-12 04:29:03,35e75c8f-2f03-424c-a574-b6b32361bd05,A
2019-08-12 04:29:58,35e75c8f-2f03-424c-a574-b6b32361bd05,S
2019-08-12 04:38:00,35e75c8f-2f03-424c-a574-b6b32361bd05,A
2019-08-12 04:46:48,35e75c8f-2f03-424c-a574-b6b32361bd05,S
2019-08-12 04:48:58,35e75c8f-2f03-424c-a574-b6b32361bd05,A
2019-08-12 04:49:08,35e75c8f-2f03-424c-a574-b6b32361bd05,S
2019-08-12 05:08:25,35e75c8f-2f03-424c-a574-b6b32361bd05,A
2019-08-12 05:10:38,35e75c8f-2f03-424c-a574-b6b32361bd05,S
2019-08-12 05:28:12,35e75c8f-2f03-424c-a574-b6b32361bd05,A
2019-08-12 05:38:23,35e75c8f-2f03-424c-a574-b6b32361bd05,S
2019-08-12 05:54:14,35e75c8f-2f03-424c-a574-b6b32361bd05,A
2019-08-12 05:55:27,35e75c8f-2f03-424c-a574-b6b32361bd05,S
2019-08-12 03:48:32,47d96cf7-ce2c-478e-bebb-ec9847270e0c,S
2019-08-12 03:49:38,47d96cf7-ce2c-478e-bebb-ec9847270e0c,A
2019-08-12 03:50:52,47d96cf7-ce2c-478e-bebb-ec9847270e0c,S
2019-08-12 03:54:30,47d96cf7-ce2c-478e-bebb-ec9847270e0c,A
2019-08-12 03:57:14,47d96cf7-ce2c-478e-bebb-ec9847270e0c,S
2019-08-12 04:02:25,47d96cf7-ce2c-478e-bebb-ec9847270e0c,A
2019-08-12 04:03:42,47d96cf7-ce2c-478e-bebb-ec9847270e0c,S
2019-08-12 04:09:41,47d96cf7-ce2c-478e-bebb-ec9847270e0c,A
2019-08-12 04:20:58,47d96cf7-ce2c-478e-bebb-ec9847270e0c,S
2019-08-12 04:24:38,47d96cf7-ce2c-478e-bebb-ec9847270e0c,A
2019-08-12 04:29:10,47d96cf7-ce2c-478e-bebb-ec9847270e0c,S
2019-08-12 04:40:38,47d96cf7-ce2c-478e-bebb-ec9847270e0c,A
2019-08-12 04:54:05,47d96cf7-ce2c-478e-bebb-ec9847270e0c,S
2019-08-12 04:55:03,47d96cf7-ce2c-478e-bebb-ec9847270e0c,A
2019-08-12 04:56:36,47d96cf7-ce2c-478e-bebb-ec9847270e0c,S
2019-08-12 04:57:22,47d96cf7-ce2c-478e-bebb-ec9847270e0c,A
2019-08-12 04:58:31,47d96cf7-ce2c-478e-bebb-ec9847270e0c,S
2019-08-12 05:07:07,47d96cf7-ce2c-478e-bebb-ec9847270e0c,A
2019-08-12 05:09:05,47d96cf7-ce2c-478e-bebb-ec9847270e0c,S
2019-08-12 05:10:53,47d96cf7-ce2c-478e-bebb-ec9847270e0c,A
2019-08-12 05:15:41,47d96cf7-ce2c-478e-bebb-ec9847270e0c,S
2019-08-12 05:24:34,47d96cf7-ce2c-478e-bebb-ec9847270e0c,A
2019-08-12 05:35:26,47d96cf7-ce2c-478e-bebb-ec9847270e0c,S
2019-08-12 05:39:22,47d96cf7-ce2c-478e-bebb-ec9847270e0c,A
2019-08-12 05:39:40,47d96cf7-ce2c-478e-bebb-ec9847270e0c,S
2019-08-12 05:45:19,47d96cf7-ce2c-478e-bebb-ec9847270e0c,A
2019-08-12 05:51:44,47d96cf7-ce2c-478e-bebb-ec9847270e0c,S
2019-08-12 05:51:45,47d96cf7-ce2c-478e-bebb-ec9847270e0c,A
2019-08-12 05:53:44,47d96cf7-ce2c-478e-bebb-ec9847270e0c,S
2019-08-12 05:56:21,47d96cf7-ce2c-478e-bebb-ec9847270e0c,A
2019-08-12 05:58:11,47d96cf7-ce2c-478e-bebb-ec9847270e0c,S
2019-08-12 04:03:41,6bd97ddc-7a40-4a5b-bcea-b864aaba241d,A
2019-08-12 04:06:32,6bd97ddc-7a40-4a5b-bcea-b864aaba241d,S
2019-08-12 04:11:38,6bd97ddc-7a40-4a5b-bcea-b864aaba241d,A
2019-08-12 04:27:06,6bd97ddc-7a40-4a5b-bcea-b864aaba241d,S
2019-08-12 04:36:09,6bd97ddc-7a40-4a5b-bcea-b864aaba241d,A
2019-08-12 04:45:52,6bd97ddc-7a40-4a5b-bcea-b864aaba241d,S
2019-08-12 04:54:22,6bd97ddc-7a40-4a5b-bcea-b864aaba241d,A
2019-08-12 04:55:08,6bd97ddc-7a40-4a5b-bcea-b864aaba241d,S
2019-08-12 04:55:27,6bd97ddc-7a40-4a5b-bcea-b864aaba241d,A
2019-08-12 05:04:05,6bd97ddc-7a40-4a5b-bcea-b864aaba241d,S
2019-08-12 05:07:04,6bd97ddc-7a40-4a5b-bcea-b864aaba241d,A
2019-08-12 05:07:07,6bd97ddc-7a40-4a5b-bcea-b864aaba241d,S
2019-08-12 05:08:18,6bd97ddc-7a40-4a5b-bcea-b864aaba241d,A
2019-08-12 05:10:08,6bd97ddc-7a40-4a5b-bcea-b864aaba241d,S
2019-08-12 05:11:59,6bd97ddc-7a40-4a5b-bcea-b864aaba241d,A
2019-08-12 05:12:58,6bd97ddc-7a40-4a5b-bcea-b864aaba241d,S
2019-08-12 05:14:41,6bd97ddc-7a40-4a5b-bcea-b864aaba241d,A
2019-08-12 05:23:57,6bd97ddc-7a40-4a5b-bcea-b864aaba241d,S
2019-08-12 05:26:04,6bd97ddc-7a40-4a5b-bcea-b864aaba241d,A
2019-08-12 05:27:02,6bd97ddc-7a40-4a5b-bcea-b864aaba241d,S
2019-08-12 05:29:29,6bd97ddc-7a40-4a5b-bcea-b864aaba241d,A
2019-08-12 05:38:15,6bd97ddc-7a40-4a5b-bcea-b864aaba241d,S
2019-08-12 05:40:32,6bd97ddc-7a40-4a5b-bcea-b864aaba241d,A
2019-08-12 05:45:24,6bd97ddc-7a40-4a5b-bcea-b864aaba241d,S
2019-08-12 05:45:31,6bd97ddc-7a40-4a5b-bcea-b864aaba241d,A
2019-08-12 05:46:10,6bd97ddc-7a40-4a5b-bcea-b864aaba241d,S
2019-08-12 05:49:39,6bd97ddc-7a40-4a5b-bcea-b864aaba241d,A
2019-08-12 05:51:06,6bd97ddc-7a40-4a5b-bcea-b864aaba241d,S
2019-08-12 05:56:45,6bd97ddc-7a40-4a5b-bcea-b864aaba241d,A
2019-08-12 05:57:36,6bd97ddc-7a40-4a5b-bcea-b864aaba241d,S
2019-08-12 04:03:57,bd3a6c9c-84c1-4580-bd6a-7352158f067b,A
2019-08-12 04:07:23,bd3a6c9c-84c1-4580-bd6a-7352158f067b,S
2019-08-12 04:12:28,bd3a6c9c-84c1-4580-bd6a-7352158f067b,A
2019-08-12 04:14:18,bd3a6c9c-84c1-4580-bd6a-7352158f067b,S
2019-08-12 04:24:50,bd3a6c9c-84c1-4580-bd6a-7352158f067b,A
2019-08-12 04:25:24,bd3a6c9c-84c1-4580-bd6a-7352158f067b,S
2019-08-12 04:33:49,bd3a6c9c-84c1-4580-bd6a-7352158f067b,A
2019-08-12 04:36:09,bd3a6c9c-84c1-4580-bd6a-7352158f067b,S
2019-08-12 04:44:33,bd3a6c9c-84c1-4580-bd6a-7352158f067b,A
2019-08-12 05:02:59,bd3a6c9c-84c1-4580-bd6a-7352158f067b,S
2019-08-12 05:04:15,bd3a6c9c-84c1-4580-bd6a-7352158f067b,A
2019-08-12 05:04:26,bd3a6c9c-84c1-4580-bd6a-7352158f067b,S
2019-08-12 05:07:38,bd3a6c9c-84c1-4580-bd6a-7352158f067b,A
2019-08-12 05:16:29,bd3a6c9c-84c1-4580-bd6a-7352158f067b,S
2019-08-12 05:31:34,bd3a6c9c-84c1-4580-bd6a-7352158f067b,A
2019-08-12 05:31:51,bd3a6c9c-84c1-4580-bd6a-7352158f067b,S
2019-08-12 05:42:23,bd3a6c9c-84c1-4580-bd6a-7352158f067b,A
2019-08-12 05:55:22,bd3a6c9c-84c1-4580-bd6a-7352158f067b,S
2019-08-12 05:56:22,bd3a6c9c-84c1-4580-bd6a-7352158f067b,A
2019-08-12 05:56:48,bd3a6c9c-84c1-4580-bd6a-7352158f067b,S
2019-08-12 04:00:15,34a4298c-7dc1-4205-bb3b-fed2599ac1d0,S
2019-08-12 04:04:22,34a4298c-7dc1-4205-bb3b-fed2599ac1d0,A
2019-08-12 04:14:46,34a4298c-7dc1-4205-bb3b-fed2599ac1d0,S
2019-08-12 04:16:20,34a4298c-7dc1-4205-bb3b-fed2599ac1d0,A
2019-08-12 04:23:50,34a4298c-7dc1-4205-bb3b-fed2599ac1d0,S
2019-08-12 04:24:05,34a4298c-7dc1-4205-bb3b-fed2599ac1d0,A
2019-08-12 04:25:30,34a4298c-7dc1-4205-bb3b-fed2599ac1d0,S
2019-08-12 04:42:47,34a4298c-7dc1-4205-bb3b-fed2599ac1d0,A
2019-08-12 04:48:33,34a4298c-7dc1-4205-bb3b-fed2599ac1d0,S
2019-08-12 04:52:08,34a4298c-7dc1-4205-bb3b-fed2599ac1d0,A
2019-08-12 04:55:20,34a4298c-7dc1-4205-bb3b-fed2599ac1d0,S
2019-08-12 04:55:36,34a4298c-7dc1-4205-bb3b-fed2599ac1d0,A
2019-08-12 05:14:11,34a4298c-7dc1-4205-bb3b-fed2599ac1d0,S
2019-08-12 05:14:37,34a4298c-7dc1-4205-bb3b-fed2599ac1d0,A
2019-08-12 05:17:28,34a4298c-7dc1-4205-bb3b-fed2599ac1d0,S
2019-08-12 05:31:01,34a4298c-7dc1-4205-bb3b-fed2599ac1d0,A
2019-08-12 05:34:19,34a4298c-7dc1-4205-bb3b-fed2599ac1d0,S
2019-08-12 05:36:46,34a4298c-7dc1-4205-bb3b-fed2599ac1d0,A
2019-08-12 05:37:23,34a4298c-7dc1-4205-bb3b-fed2599ac1d0,S
2019-08-12 05:42:37,34a4298c-7dc1-4205-bb3b-fed2599ac1d0,A
2019-08-12 05:47:17,34a4298c-7dc1-4205-bb3b-fed2599ac1d0,S
2019-08-12 05:51:14,34a4298c-7dc1-4205-bb3b-fed2599ac1d0,A
2019-08-12 05:53:06,34a4298c-7dc1-4205-bb3b-fed2599ac1d0,S
2019-08-12 05:54:04,34a4298c-7dc1-4205-bb3b-fed2599ac1d0,A
2019-08-12 06:00:42,34a4298c-7dc1-4205-bb3b-fed2599ac1d0,S
2019-08-12 04:09:49,98498462-1ae8-4446-b90a-243a5e282113,A
2019-08-12 04:17:38,98498462-1ae8-4446-b90a-243a5e282113,S
2019-08-12 04:19:08,98498462-1ae8-4446-b90a-243a5e282113,A
2019-08-12 04:21:46,98498462-1ae8-4446-b90a-243a5e282113,S
2019-08-12 04:26:27,98498462-1ae8-4446-b90a-243a5e282113,A
2019-08-12 04:41:09,98498462-1ae8-4446-b90a-243a5e282113,S
2019-08-12 04:41:44,98498462-1ae8-4446-b90a-243a5e282113,A
2019-08-12 04:47:14,98498462-1ae8-4446-b90a-243a5e282113,S
2019-08-12 04:54:27,98498462-1ae8-4446-b90a-243a5e282113,A
2019-08-12 04:55:02,98498462-1ae8-4446-b90a-243a5e282113,S
2019-08-12 05:06:52,98498462-1ae8-4446-b90a-243a5e282113,A
2019-08-12 05:10:00,98498462-1ae8-4446-b90a-243a5e282113,S
2019-08-12 05:21:50,98498462-1ae8-4446-b90a-243a5e282113,A
2019-08-12 05:33:47,98498462-1ae8-4446-b90a-243a5e282113,S
2019-08-12 05:38:40,98498462-1ae8-4446-b90a-243a5e282113,A
2019-08-12 05:39:12,98498462-1ae8-4446-b90a-243a5e282113,S
2019-08-12 05:39:31,98498462-1ae8-4446-b90a-243a5e282113,A
2019-08-12 05:39:41,98498462-1ae8-4446-b90a-243a5e282113,S
2019-08-12 05:40:52,98498462-1ae8-4446-b90a-243a5e282113,A
2019-08-12 05:44:33,98498462-1ae8-4446-b90a-243a5e282113,S
2019-08-12 05:53:24,98498462-1ae8-4446-b90a-243a5e282113,A
2019-08-12 05:57:37,98498462-1ae8-4446-b90a-243a5e282113,S
2019-08-12 04:36:27,af81d220-ce79-4beb-885d-a4375dba15f1,A
2019-08-12 05:10:13,af81d220-ce79-4beb-885d-a4375dba15f1,S
2019-08-12 05:10:40,af81d220-ce79-4beb-885d-a4375dba15f1,A
2019-08-12 05:39:57,af81d220-ce79-4beb-885d-a4375dba15f1,S
2019-08-12 05:43:00,af81d220-ce79-4beb-885d-a4375dba15f1,A
2019-08-12 05:45:28,af81d220-ce79-4beb-885d-a4375dba15f1,S
2019-08-12 05:47:00,af81d220-ce79-4beb-885d-a4375dba15f1,A
2019-08-12 05:47:47,af81d220-ce79-4beb-885d-a4375dba15f1,S
2019-08-12 05:51:01,af81d220-ce79-4beb-885d-a4375dba15f1,A
