actor,node
aac57e75-7fe8-4f49-906a-5f11aa742d3c,5ad6da54-5a72-42bb-b261-cefea65d678a
fc1048d8-074e-47f8-8ee2-49917214b2bb,5bd2da1a-b026-41be-843f-eddc25c6ec82
7197866c-10cf-44ea-bb7d-f502ccabb076,5bd2da1a-b026-41be-843f-eddc25c6ec82
37cca82b-e084-4def-9e3c-79f555864f7b,59e22715-0337-4174-b504-d72cf169d628
eee970f5-9009-40e9-b505-13ff111993e2,0a062320-9f1e-4c0b-b4f7-084ee38a0526
23f3eb0d-1549-4d45-922d-eb5e56eec873,0a062320-9f1e-4c0b-b4f7-084ee38a0526
90f71766-a6fd-4650-8c8d-0fe7ea6adc3f,a7cd43d7-2a69-43ad-a358-7b198165ab0a
4880e0f1-7cb0-4fbf-b9c1-936f2a2d1c61,5c8cc820-c758-42fc-90d2-cc6c10b53236
8e79f65c-72e5-44b4-b519-f55722087d3d,a7cd43d7-2a69-43ad-a358-7b198165ab0a
3ae5fadb-67e2-4665-90e9-1caf004535f5,7cc439c1-01c3-4bd9-ac2a-06fe560c3195
a5530ec5-1d53-47ba-a50e-ab9603558c44,0a9eb1f2-9f3f-456e-861d-113dd94f2ea6
a4e0a41d-0cda-4334-a9f2-951499fe0469,e24f9699-1a7e-415b-957c-78d974ad9b16
f07bda2b-8721-4e7d-a173-a55f238815c1,e24f9699-1a7e-415b-957c-78d974ad9b16
4b8a271f-a153-4a1f-b23a-171b05a266f1,cfb60f3a-8d3c-4a93-9d66-ce895b8bde53
7c69d0cc-12a3-4678-baf3-48aa77a2eef3,cdf0a67d-70c5-47f8-8a36-40b724943349
e151aab0-be8e-4aea-a3e0-6cfbfa1a7af4,7cc439c1-01c3-4bd9-ac2a-06fe560c3195
7dbda105-fbf7-4a25-980e-caba513c3d5c,7cc439c1-01c3-4bd9-ac2a-06fe560c3195
46c711e0-63a7-4ad2-8c03-878d5d5e7a96,c0209152-9065-4347-a165-f20f30130ca7
f24ca630-4c07-43e9-a7a8-b6800344080a,0a062320-9f1e-4c0b-b4f7-084ee38a0526
8bec2fde-8174-4607-94c8-c25586083f3f,5771d4a2-0f3c-4bbc-b091-1bbd241268eb
041d4388-db34-4f35-87f8-9f603933edd9,fb605e13-b6e8-4cfd-b92f-8f1798e1e604
bf5a2b89-037a-4737-a675-2ec3cedba9e5,901b1d30-d813-41f9-8ab1-1ddc13eeb2f1
62f14dfe-71f9-423a-803f-c9a799e9971a,cfb60f3a-8d3c-4a93-9d66-ce895b8bde53
41f1a4d7-9517-42b8-8118-df3d7cc60262,a7cd43d7-2a69-43ad-a358-7b198165ab0a
661f4079-b4d9-4950-bae1-d724ed3beb33,cfb60f3a-8d3c-4a93-9d66-ce895b8bde53
bb656fd9-1cc2-4a64-826f-519c9142c062,cfb60f3a-8d3c-4a93-9d66-ce895b8bde53
a61ed608-6ce1-4c02-99f5-7770fa0a3053,7f9c4619-e1f4-4e81-944e-b8dc5f04790b
6aaf9bf2-6032-457c-bb44-ba92ae478ad4,95dcb39f-fb85-424f-a121-e182125c9fc8
c14dfdda-68be-4a6e-b374-31a2bc0263fa,a7cd43d7-2a69-43ad-a358-7b198165ab0a
9ef51e6d-01a2-45c3-8efd-4e2113f0561f,af2cfaa5-f75d-4b37-aa45-b06b6f7e2c6f
cdfd53a3-5aff-4cc0-b8c5-a016ada1c331,95dcb39f-fb85-424f-a121-e182125c9fc8
02e798ea-147a-454a-81ea-0b636fd2a21f,95dcb39f-fb85-424f-a121-e182125c9fc8
3c02cefd-beea-4da1-9a81-c1d674b8724f,c1fa9c22-fe0b-49bf-939e-6b150576b5fb
e461ee19-083c-4b24-b105-2fa88b3ae0f7,000f3c4d-c60f-4515-acb9-2c88f18b7e96
fbb1350d-28c5-4f9e-b5ad-ddf2cb9b553c,fb605e13-b6e8-4cfd-b92f-8f1798e1e604
e5d62b20-42f9-4896-8651-c7e4b5c5f3f6,fb605e13-b6e8-4cfd-b92f-8f1798e1e604
705e916e-a7e9-41f2-8722-08c31a311773,4694e3f4-508e-4b44-b779-8d594694ee63
d7993815-81be-4898-874d-768c592fa192,cfb60f3a-8d3c-4a93-9d66-ce895b8bde53
34c9df2c-42f0-4e4d-b083-79e0d721c033,cfb60f3a-8d3c-4a93-9d66-ce895b8bde53
33523b20-74b5-47df-90a0-5c61ac474643,802bd3b1-78c9-4629-bd30-5a29977aad7e
bb6b6e65-0c1c-4fc5-b9fd-7b8e02e04bca,7cc439c1-01c3-4bd9-ac2a-06fe560c3195
536ee079-7a0d-4119-af78-315f66540533,7cc439c1-01c3-4bd9-ac2a-06fe560c3195
a079e75e-a9a3-437f-b278-67cce596787c,fc3794a4-cce8-43fa-bc5c-656064ee8945
4f168f9f-5fd9-404d-bf80-ae2eeea0e929,7cc439c1-01c3-4bd9-ac2a-06fe560c3195
fb35e43e-305b-4825-b464-d1a282eb2cb2,7cc439c1-01c3-4bd9-ac2a-06fe560c3195
207c582d-b33c-4e8e-a942-d106ace0b599,0633f749-3ff3-4d1b-be18-1cfccd433424
0d4f6326-eae6-497d-b482-5c69e2ec3960,0633f749-3ff3-4d1b-be18-1cfccd433424
1c8c43df-bb2a-4364-9c8a-8a3da724816d,31ee4de6-16c9-4068-b0ba-65ffb3995447
47b673bf-2379-4aed-922e-7683c5c548d2,dd05ea55-fdbd-4064-9ebc-686baf364b41
5a85b4d6-c844-4b36-88c3-6565fa020fc8,3272b92c-7aed-404f-95f4-deb52b2a1ba4
93275d36-7a99-4691-b9af-f9b2192d34c8,dd05ea55-fdbd-4064-9ebc-686baf364b41
0d5a3031-1a0b-4deb-9ace-1a331ffd9d3d,dc222148-80bc-45ea-86c5-b0b98d489ebf
95409250-d902-48af-9a65-b4e3db179cc4,dc222148-80bc-45ea-86c5-b0b98d489ebf
030b3c8b-e425-49f7-bd84-b7159c812635,f626d0ce-8324-4828-9baa-8ae8a3f0f2cb
637a54a1-e757-4a9e-9282-2e0e914efff5,a3e892fe-90c7-4599-baf4-7254ba28d9c4
4853b099-4917-4d28-8acc-032166aff526,16d5c5f4-65b9-45c2-a17b-513668591842
a24d9f44-d387-490b-966c-9e640ee847e7,a3e892fe-90c7-4599-baf4-7254ba28d9c4
c4b3c252-4d08-49ba-bc7d-7cea89c6c383,59f27c0c-9538-432d-98b5-34ed0423ba3a
b3e456a7-b7f5-41b7-b904-44f403c61ab3,a0978ea3-3bd2-45de-88d5-3ca2a24d8a94
8110a562-7dd0-4f55-8457-b20163f73417,59f27c0c-9538-432d-98b5-34ed0423ba3a
92fcb4a5-0599-4e6f-a249-de57fb4d494d,083c1662-ecf7-4d38-9757-b799c6708013
f036fd62-899f-4603-907b-83a7a091c8ca,dc222148-80bc-45ea-86c5-b0b98d489ebf
9005c156-200b-45b3-b5a8-5bae725d6732,dc222148-80bc-45ea-86c5-b0b98d489ebf
d7204b04-cccc-4be7-a42d-bafdf42c22d0,dd05ea55-fdbd-4064-9ebc-686baf364b41
777e9e9b-3200-4817-949a-70f76afde87e,269657c9-e810-47bd-a82c-a47eca70bfbd
f3c76d9b-5fb6-4b4e-9e9f-b983930f00b8,dd05ea55-fdbd-4064-9ebc-686baf364b41
920c54cb-0881-4a6f-9cb1-39fbca195f75,dc222148-80bc-45ea-86c5-b0b98d489ebf
3aef69c7-9511-4640-9a29-744eaf2e5634,dc222148-80bc-45ea-86c5-b0b98d489ebf
aebcea03-6b1b-443a-a1c9-508dd5f7029f,e4375c85-e872-4669-89cb-a6795269f337
5b9f5f21-97be-4157-bc60-44209f455d6b,5bd2da1a-b026-41be-843f-eddc25c6ec82
27eb1eca-0904-455c-951b-181b105138c9,5bd2da1a-b026-41be-843f-eddc25c6ec82
3c84b7be-1eab-4f47-93ad-7a6e2181b648,0e293c41-51a3-40b9-8479-8caab105d25b
03b50208-18b0-47a5-a19f-a4d037bdf9b3,a3e892fe-90c7-4599-baf4-7254ba28d9c4
58f8dca5-2bf5-44fa-8bf2-45f65fe8d823,24ff8865-944d-44ab-99a0-2472a5cb3eb8
364f5e24-12ab-4b7d-9d64-11751ec3d9f3,a3e892fe-90c7-4599-baf4-7254ba28d9c4
aa6f7b4b-9108-4c69-89a5-3bb030b5e152,762c3a6f-3cd7-46a1-bc4b-9cce932bd6d4
b0502945-0be1-453c-b7ef-36661c0e9127,dc222148-80bc-45ea-86c5-b0b98d489ebf
6d5163f5-64c1-44dc-b54f-77c038d1be3d,dc222148-80bc-45ea-86c5-b0b98d489ebf
d5839694-5b1f-4e10-ae9a-9b3d5ade4581,5d8fa5e3-4821-47ca-8696-ef2bd03cd3b8
5b612bd6-eb6a-42e3-a5f2-7614e466a1f3,5d8fa5e3-4821-47ca-8696-ef2bd03cd3b8
665ba0de-c559-40ce-86fc-db8e582a0a68,cfe7eaba-bbda-47df-ac5c-12a4d7d7b3dc
a2cade22-c7e2-48d0-abd3-d455b873767f,87e20c75-0d19-47fb-a630-a88c5700606a
43d12d46-3d82-4c2f-92b9-c4340ce67cbf,1ced4ed7-db3e-46f7-8c70-81bb1e2d4ba6
4a0c0116-d5b1-4794-bb0f-9876b3634865,59f27c0c-9538-432d-98b5-34ed0423ba3a
82abb423-a9cb-47a8-9104-d160d267facf,59f27c0c-9538-432d-98b5-34ed0423ba3a
29a94142-89b3-4b0c-a2d1-8090d5c58139,1701c593-f974-4e40-9a24-6d02dc6f5c39
fb9b5df8-e05a-4ca2-8859-4dc22146d4c6,59f27c0c-9538-432d-98b5-34ed0423ba3a
855e1acd-6e82-4b03-8f23-be142218716c,1ced4ed7-db3e-46f7-8c70-81bb1e2d4ba6
3b5c7ee7-7573-4912-9515-5040ebb5c034,dc222148-80bc-45ea-86c5-b0b98d489ebf
7be8f5c5-480d-4180-9139-8e05c85a24a1,9b701de3-23a4-48ba-a368-23b081972a6e
f24768c2-8bb0-496a-aed6-27c0579f98ca,0e2a2155-1a41-4e5d-aebf-f26c619fd3d3
566b583b-82c8-4f95-bb02-71822d90326b,a7cd43d7-2a69-43ad-a358-7b198165ab0a
fc72571d-6949-4c4b-a89d-09ec1ef58490,a7cd43d7-2a69-43ad-a358-7b198165ab0a
c95b6b7e-e038-42cd-beb7-9a0eb00dedd9,dc222148-80bc-45ea-86c5-b0b98d489ebf
1892d51d-f767-41fe-a398-8634bf0a036f,dab519df-97c4-45bd-9ffa-478b493cff90
3a1facd3-f924-4b53-9570-2d43153d4fc5,dc222148-80bc-45ea-86c5-b0b98d489ebf
784a9a4c-cfe4-469c-80cb-f1d93cb48884,5e802872-1907-4eb2-bd31-33577311d0ed
8a9a3d04-fb7d-4dbf-957a-52a5bcffb80b,59f27c0c-9538-432d-98b5-34ed0423ba3a
3123c913-9dde-4579-9e3e-a07cd611ec1c,59f27c0c-9538-432d-98b5-34ed0423ba3a
83bd236d-1566-4a91-bb91-6c0bb9497d72,5bd2da1a-b026-41be-843f-eddc25c6ec82
e350f844-5d7d-46e4-8134-e46d3de01148,faae1a7f-edc0-44e0-a84b-8beae3b99cad
5bde257f-fb04-4ae5-b006-5cee2909a77a,5bd2da1a-b026-41be-843f-eddc25c6ec82
512bd16b-2c77-406d-a12c-57eb0ad0fb81,292922de-76e2-4696-940e-ffd42a0ddb03
60b647e8-007a-4c37-8a34-259e2dad72b9,59f27c0c-9538-432d-98b5-34ed0423ba3a
e542d162-d990-4fad-ba12-b7c3ad129da6,59f27c0c-9538-432d-98b5-34ed0423ba3a
9dee1b55-c9b8-4937-a572-9a7c05b11ccd,5bd2da1a-b026-41be-843f-eddc25c6ec82
7b81cb95-b34a-40c1-af6e-490e7a3a5be7,5f2580dd-fd7a-4ac1-b8f0-b041fc3f820a
baa28643-a87c-4814-bbb9-33c023f8bd50,5bd2da1a-b026-41be-843f-eddc25c6ec82
023477bc-4cfd-4880-8b66-8bb453c280a8,5bd2da1a-b026-41be-843f-eddc25c6ec82
67cbc9de-b750-4bcc-a06e-d94d9c90688f,f9ff2330-33f3-48b8-9693-67ef3bcc4b1c
fab7c93c-c1c0-4581-91e0-f1d4c3426c81,5bd2da1a-b026-41be-843f-eddc25c6ec82
67635234-b172-46da-8960-e8530727dfc8,59f27c0c-9538-432d-98b5-34ed0423ba3a
16b0229b-8d7c-4a2b-abce-aa8c16271179,59f27c0c-9538-432d-98b5-34ed0423ba3a
08126e17-af50-44c9-bab0-07b767e80c19,a0bf5c59-0cc9-41da-ba2f-76197b8de548
40a2fbf7-98a1-41b2-9861-5dfabef75e58,ecd2210f-825f-4fa9-9c93-66fc2a4fcf1e
3398521e-2450-4416-b8b5-6f6cf05b3284,0a062320-9f1e-4c0b-b4f7-084ee38a0526
9bf0115f-8967-480f-9528-e34bbd272e36,0a062320-9f1e-4c0b-b4f7-084ee38a0526
a91ab4a6-db99-4bb0-8480-3c68fb931ed9,7cc439c1-01c3-4bd9-ac2a-06fe560c3195
08c15953-1865-453f-a214-b9c458021058,7cc439c1-01c3-4bd9-ac2a-06fe560c3195
343cdb5a-e443-45ec-a847-2ba1f8b4a8b7,f84fce9d-048f-4a9d-ab1d-5dffcfd5a18f
b0ee421c-0545-4fec-b6b4-e0fb1065cd6b,034e48f6-08fe-4f64-aba8-9c6c32441803
2359d9ac-5eb5-4a12-87b5-c84900a60937,5bd2da1a-b026-41be-843f-eddc25c6ec82
9f8617b6-1b5a-48f0-83cd-bf9151e7bcf2,5bd2da1a-b026-41be-843f-eddc25c6ec82
01c0c624-ec48-4f80-8485-7fbde895e2da,d49d8c40-2ae6-46ac-85c5-3aa64b500606
4a65974c-fedb-4bc3-96bb-abe66a420a2d,95dcb39f-fb85-424f-a121-e182125c9fc8
54cdbd53-8679-4d71-a71b-6139ba87e191,95dcb39f-fb85-424f-a121-e182125c9fc8
ad87bf74-f89e-40f4-83fb-f519436c21cd,0633f749-3ff3-4d1b-be18-1cfccd433424
3c141a9e-cc5a-42e4-a5a0-cd60c26a402b,e6085a97-dcf3-43ae-8f83-be9a3eb35c16
abb4ba23-513c-4eaf-b9a6-7ce191a5b246,0633f749-3ff3-4d1b-be18-1cfccd433424
df401530-7a4c-436d-84c6-37ba3b6a49e4,a3e892fe-90c7-4599-baf4-7254ba28d9c4
34b0e1c0-e1b6-4008-b6b6-7c8c86dc5b8b,a9ded4ff-937b-4a22-bf5b-e702cfa16f2e
6ed77232-f226-4c4a-bf98-677cf33dfe93,a3e892fe-90c7-4599-baf4-7254ba28d9c4
99b23c99-9445-41e1-ada5-e02fdcffc65d,6813651b-50ca-4c88-ae2f-4e21179442bd
0bf8b456-a75c-4a8b-b22d-597d56e43eb8,a7cd43d7-2a69-43ad-a358-7b198165ab0a
b89f0656-a36b-4f48-953d-ed5e6ecd9508,a7cd43d7-2a69-43ad-a358-7b198165ab0a
9475a9bf-14c2-4c57-9b13-9716b2b9826a,a3e892fe-90c7-4599-baf4-7254ba28d9c4
b2fc610a-8cb9-42ab-9dbd-3a10d088f9aa,02bc04df-7f85-49e5-8e51-eeacec33dc85
d9a27945-a196-482b-a674-546ed473bb62,a3e892fe-90c7-4599-baf4-7254ba28d9c4
0377f39e-70ff-42c0-8b0d-d6894c137cd2,a3e892fe-90c7-4599-baf4-7254ba28d9c4
2d22f962-1052-4896-ab4a-5b3c09d24171,deca600a-46d4-4f7c-947b-d4d065be248f
d620b4da-4df3-49c7-ba66-9fd08ddbc20d,a3e892fe-90c7-4599-baf4-7254ba28d9c4
da8f3446-4c45-4ecc-8e4b-7f15b5a580c4,dd05ea55-fdbd-4064-9ebc-686baf364b41
2c79b25f-6349-4779-81f7-cee8a0d0ee3f,c6077770-7f15-4aec-850a-b292340ebb85
18d26eae-5898-499c-9ea1-f222db378e69,dd05ea55-fdbd-4064-9ebc-686baf364b41
6798fad8-7419-4ec3-be29-110a20d5ee8e,fe74c2df-53ef-40e7-b6c6-f800b4b33fac
64010cb1-68a2-49bc-9ae1-b70998bcb281,a3e892fe-90c7-4599-baf4-7254ba28d9c4
efeeaed9-efec-4316-aac7-8f90b021856c,a3e892fe-90c7-4599-baf4-7254ba28d9c4
0c0459e5-c1c2-4b76-9aaa-91d29b0e32dc,dd05ea55-fdbd-4064-9ebc-686baf364b41
db195f9d-430b-4e4e-9a28-a732191e1712,dd05ea55-fdbd-4064-9ebc-686baf364b41
062601a4-cfac-47b9-beab-f886a4554590,28c921b8-56e2-4c7f-a529-1f7b664a8cf1
