app_number,app_id,trigger,burn,sink,deploy_date,token_interval
1,506e141c-101e-438d-821d-eeeb1484526b,4f812869-1523-434f-a5d2-0fca874eebd0,f629142b-46bc-4e91-8a21-47f97a46feb9,5d93e755-8ddc-41ab-96e1-7aad19edf7aa,2019-08-10 15:07:19,1.000000
2,02b4957e-d6c3-4f9c-9018-9e652bc96fb1,8058cc4e-ec4a-4402-aa1d-12171255e59d,e3caf6b8-f672-4dc0-9334-f6c7b46cb2d0,b9afe5ad-fcdf-42a9-a80b-8e044f13b32e,2019-08-10 15:08:23,1.000000
3,7edef72d-8a08-41ac-8855-3fdb32e92b28,af90b971-6e8f-4ea6-bbc9-7eed08062e54,8becbd0a-5fdb-48e2-abef-661e9db95367,f8639c58-a7df-4726-a082-494dc5a4fa33,2019-08-10 15:09:28,1.000000
4,1cb92d9d-de9e-4964-9df8-5f53a9e7657a,6bfe5e52-fb70-492f-9372-d469b4e460d6,b7da6e7e-102a-4cad-aed4-e91ed0d2d79c,561349cd-867c-4b40-8d1f-bbb77e7387f3,2019-08-10 15:10:32,0.200000
5,60637283-76b7-4eb5-b62f-07ee9e7e32b5,c9fea662-082f-4ace-8ecb-44d83b70b254,3bf0eb36-15d7-409d-83db-2bf102da13c2,673abf73-83f4-4244-a3d2-bb07a3c57c01,2019-08-10 15:11:36,0.200000
6,f065e9c3-e292-4b87-a765-e60d8aea0ae2,4a5152c6-cc6d-4f5d-a33d-8eba863121ef,0e1c9834-8d29-4eda-ab57-85998cbd6760,a25df592-fa8e-49c6-bdfe-c7f9d9abb4f9,2019-08-10 15:12:39,0.200000
7,c87d4b44-c5c4-4d8d-8988-cb63035906d3,05f61965-254e-4647-ba83-7b15cb57f6d7,c003d2b1-fc21-4ea6-863e-61b32ae73cde,36be992d-da3c-4686-a4be-967e497d24d7,2019-08-10 15:13:43,0.200000
8,169913f7-005a-47c8-960e-a11fe23a4064,7eaef761-46f4-4858-9ae4-124718e52d0a,960bfa2d-944c-4eb2-850f-a20a55609540,146e29d6-c830-48f7-8c9b-4601f5eb4c06,2019-08-10 15:14:47,1.000000
9,c51829fa-f5b2-40e9-8193-32746513e575,48519806-5174-4ef1-9bfd-6f1137a9f7c2,a95a070e-7565-4381-9444-b9e89569f01f,5c6007c8-82b5-4d5b-81f1-8a9aaf184802,2019-08-10 15:15:51,0.200000
10,051053bd-05fa-43d5-a497-a1b2d65ce5a9,51ba551e-ba3c-4378-bff7-79b6c50e57a4,676bbcdc-24e9-4307-85b2-9157b0f7c9a2,9f2467ae-30fc-4674-bf49-369a0bed82d7,2019-08-10 15:16:55,0.200000
11,361b0f63-681e-44e4-b0aa-6f4497096cee,753c45a6-fcd5-4220-9639-a33c954fd4a7,519f16d1-c781-404d-864a-275f9a8d1fce,7167891f-a9c3-4798-8b62-84d565e7d428,2019-08-10 15:17:59,0.200000
12,1c11409c-f2c1-48d3-9712-3a323b69bc49,3cc28ea2-9730-443a-a642-764d1f0b8f9c,15e7f935-3cf9-43a8-8673-8411cd05fb7e,d9027b7c-bfd3-4268-835d-ba46f797e3e9,2019-08-10 15:19:02,1.000000
13,31a167e3-e0ee-4b57-9cb1-2d0a622457fa,bad7daf0-60fd-460f-a889-87a80e1a6b86,09ab8eac-610d-4c56-8db4-dc64c9413c53,a5ddba94-753a-4e42-a003-08388e83e20d,2019-08-10 15:20:06,0.200000
14,589ff534-d1b3-413c-9aac-be69315f7a4a,7c268560-f176-4d70-a19d-a41529d485c7,85b3fce7-f83f-40a7-9089-c9f4dfbb94c6,cb8038a4-c153-4764-bb30-9be47b8cba6e,2019-08-10 15:21:10,0.200000
15,566f3fda-8b9f-44fe-8c52-5b0c5e38ecaa,4bea7fe9-f593-4dae-91cc-37256c8580ab,7db8d281-5271-4b1a-97d3-27f63b7ae74b,3bcfd8fb-6b35-43d2-9ea9-3ef8195c622c,2019-08-10 15:22:14,1.000000
16,2cecfef0-c842-4882-8ef0-f4348c0875ed,8b6386a7-830c-43bc-8e4b-50882603ba0d,d7654a05-0c7b-494e-877d-7ddc9e50223e,7189676e-0b28-4b8d-8ed3-3b321378cc3b,2019-08-10 15:23:18,1.000000
17,abdb404a-3e70-4256-ba76-93259d5be947,daef125f-305d-474a-9508-17935c3541d0,5a1c8f56-f70e-42cc-8380-c5ddb2bf0ff8,2a421e7f-da1a-42d7-9240-f420bb706fe0,2019-08-10 15:24:21,0.200000
18,ff19641a-a97c-4ccd-88f0-dcfb009573ef,0c2fb1fa-f990-4ed3-ab57-48582d55c3be,6f280279-a480-49a2-ad37-b32079270430,9ef5999b-7144-4202-bf0e-404e0f27e8d5,2019-08-10 15:25:25,1.000000
19,7beeaf3f-1a57-45c3-95ad-7f950f9fa6cf,1cf31851-ab6d-4035-b9b4-470ae30c6dd5,a7fa79fc-f77c-4004-9118-895a26567c4c,eabffae2-0ef2-42c6-a4b7-2b3d2f82f448,2019-08-10 15:26:29,0.200000
20,085afbb9-6049-4aa1-b2a2-21bd1c4bbf8f,f5f584aa-12aa-41b1-bd6e-ff83f4387a2c,8ae08022-df32-40b2-9798-092f5177035b,353806e2-e568-4a59-b2a0-f577f7c5358c,2019-08-10 15:27:33,1.000000
21,2f7047d1-0fe6-4232-b902-d1e67649a395,9dd2cd8e-0acc-4554-8da6-70442ce7d7ad,4b962f8c-01ec-498b-bc93-9a85e0eb41bf,8616cf7e-da7b-4c99-b0f0-fbef8409a1a9,2019-08-10 15:28:37,0.200000
22,461af529-984f-4a56-a5a8-a7805a73fa4b,dda2450f-c6e8-469f-84af-8dc55857a7e6,f0d7cd30-2edc-47ca-9e67-aa2595c00e2b,744e4c3e-6eeb-48e8-935e-27b7375fd984,2019-08-10 15:29:41,0.200000
23,f3ade5a0-bca6-48e9-ba14-4febafc0851a,137e5f84-8c7d-4ba3-9bb6-95215908e7a3,95bac0bf-ba26-4da5-910b-672cbcd21081,1be644c7-d1fd-4f07-a1db-0914b8b3e267,2019-08-10 15:30:44,0.200000
24,a617a0c6-1b7c-4a4e-86bd-336c706c9f16,a536f13e-5a3e-429c-9baf-48e56ecf4e26,94f22471-cc84-4b59-9357-55798efaa5e7,6caef0c7-d062-4e83-85e6-f82c8a99f8df,2019-08-10 15:31:48,1.000000
25,d183d54a-d0e2-4323-b335-42dbb00430e3,370480b1-a069-4d80-a9b6-c93cf177e5ec,079c9747-c002-4f4d-8f71-bdac93956f09,1f743e82-a308-4199-ac8e-d34fe42c7225,2019-08-10 15:32:52,1.000000
26,0770271a-193c-495e-a234-7cad63910785,be2e42d6-f7bc-4c91-b9a1-f5aa1e894c70,f5f074ed-d399-47be-aa5b-008688f455e6,efa417ba-6134-4f40-b1b0-82d44f14df18,2019-08-10 15:33:56,1.000000
27,a52f77b7-fda0-460c-a668-139ec6e7307d,1003a9ba-d7a6-411c-bfb6-07dde0a8cf6d,625eed7b-11dc-4626-98b8-ac5aa76c018b,47fe21d7-b983-4a06-b10a-3e47d3831d78,2019-08-10 15:34:59,0.200000
28,583d3fbd-d573-4cb3-bb67-65cc3496c956,3ec54bf6-fea1-4975-87ac-27003000f0f2,35775e97-a550-45a0-87f9-ee132d990289,91cb5c0c-3c2c-4575-8842-bc8336e2912b,2019-08-10 15:36:02,1.000000
29,e064b7d8-46e9-4f9a-a3da-f0b80f2b68a3,d29d6c8e-ddd7-49de-976f-bbe838516cf1,a4f7fe74-2eb5-40e1-9787-353caa514720,8c4ccb50-e17f-40be-956a-ee0766d9a880,2019-08-10 15:37:06,1.000000
30,28c5a932-1733-4617-9674-9e92fcb09a6e,8d8aa11a-c525-4239-9852-d1106ffae883,9f1c184f-15eb-4d39-993b-c2db940a8c41,e4a05ac1-68e7-4eb7-9d66-d0982417b62c,2019-08-10 15:38:10,1.000000
31,7e97c70b-5a4c-44ec-ac27-d29b833d405d,34b0eead-834b-4234-8e7b-d1c8069ea4b3,43643a72-0e20-452d-9d92-ebc55cf6a509,749cf143-a64b-4469-9682-464ace2cb8f1,2019-08-10 15:39:14,1.000000
32,d94d6b28-e0d0-411e-abd5-82331532dffb,49baecec-5e92-4eb9-a60c-53c93dbc9db9,62f2b11a-387d-4c25-91aa-8b2c4b2ae472,6e5fa8d2-c48f-4db5-bffa-187fb79ad326,2019-08-10 15:40:18,0.200000
33,63d75ffd-a584-47dc-bfbf-e7a5a2a24c27,507ff1f0-ce77-4f6f-9427-bae88daff889,34f1ef96-8a02-450d-a474-a1867597bee6,9bdb0c95-c379-483e-bfb0-3b82ab3cf12f,2019-08-10 15:41:22,1.000000
34,c579ed39-f7ba-4342-9658-45f97b5bd984,5be20b99-fa7b-4a6b-8c93-99739fc2c5a0,3756c861-fa78-4260-8727-70eafd5f10b8,6275de1f-0eeb-4150-9f35-57f497a12e08,2019-08-10 15:42:26,0.200000
35,adc7856d-cf42-4acd-b916-bdd430ef770f,e2f1ee6e-5c6e-4183-96bf-a886f676fcf2,db406b2b-2c58-4623-9b7c-5105a9050c97,fea4c06c-09cd-484b-b08a-b05a85f68a4f,2019-08-10 15:43:29,1.000000
36,95efefe6-dfdd-4562-bc02-621e216fb93a,c14e1811-632c-4225-babb-e4a165fe029d,5300ce9b-af9b-43fa-8fbf-f1a9208dc366,d649c856-3c2b-413a-a9d1-e3a3cbbac619,2019-08-10 15:44:33,0.200000
37,948c0e95-8c46-4f1b-9727-45a335d673b0,1798273a-71f6-4758-9db7-d68303c48b3e,58a65dbd-ce2c-49e1-8e42-4d815c556acc,1b964170-618a-49f6-bca4-257e7a7dee83,2019-08-10 15:45:37,1.000000
38,cf6526ec-d88f-4458-bef0-27d60e8ca4ab,d2f514af-1373-4fb8-8973-ed8fbec49ddc,92200810-64af-486a-a98d-e6ac36e83494,c4f48022-a728-464a-8cbd-8f577444a2f0,2019-08-10 15:46:40,1.000000
39,49e64318-1fa3-4522-90d2-81986517c3f9,60a1fb93-207f-47c7-8be7-3fbda51c24bd,60b64493-34d8-48cf-93e4-7abe10014d26,c246697c-5d3b-4a85-aab9-8b01c9b242c7,2019-08-10 15:47:44,0.200000
40,32496ecf-7893-40fe-b68e-1fa887072985,f9a017c2-4614-4321-aea8-0c5888a34bbe,e379ac4b-a91b-418a-a898-58f1a38f5dc7,e296c209-9764-484e-9711-ad47a953749e,2019-08-10 15:48:48,0.200000
41,a2aa41aa-0074-4d01-986e-5d654b3493b3,3b9c1719-4e36-4ca7-8cb8-70b1664ee0af,a76670f0-09f3-445e-8f39-6ba481da3d9a,3beb32e8-028b-44ce-ad64-747e56009de7,2019-08-10 15:49:52,1.000000
42,4ae2dc88-8376-4e1b-b194-f8139dd5d475,7eac1c76-42ba-4548-afed-ef5d8658b92e,294a6c87-2cc6-41cb-89cc-cf1c6709f3d6,fc91cfe9-ef49-451c-9137-9d1839ca9ebf,2019-08-10 15:50:56,0.200000
43,4a39d6c0-f6e2-493c-8950-cfe7195074a0,8f18a019-0b5e-4803-ba15-59b1aedea586,918b02a0-3b92-4a0b-abbc-c5a99385cddf,39f79e4c-23de-481f-8f1e-f6532b752021,2019-08-10 15:51:59,0.200000
44,9a62cc4e-57a8-4efe-aa91-916686d9e525,a32429ac-714e-451f-95fe-ebf98b4c0daf,61a8850b-2409-49de-9b3d-97a6d14a4bf0,e79e979a-732d-4331-84f7-0c0c72e76d4d,2019-08-10 15:53:03,0.200000
45,504254f4-11ff-4899-a656-ffaecbc4c6c3,204baf74-cfe2-4ce8-a734-57f774075935,b85b5274-1a5c-437e-af2d-cc49c9f2604b,d3eb8a48-d969-453a-8cec-30c9fa8dc6a3,2019-08-10 15:54:07,1.000000
46,07f6def3-fcc2-47d5-b2ab-9f165875a29f,ab6f7b80-db57-48e1-b610-5a532bc66c67,f4dfd9ee-a81a-4e8d-9a96-fa7fc407fbbb,5f62a2d7-181a-43bd-bef0-aca0d3ff2d04,2019-08-10 15:55:11,0.200000
47,808950e9-b10a-422c-a43a-3297e8bf183b,a2c4efc4-9226-45c7-a85f-5f13ce8e9ab8,612d3d1e-879f-42eb-a3d4-b2037e987464,e2a745af-4db2-4ddd-bcfe-d39a537b9943,2019-08-10 15:56:14,0.200000
48,18e037ec-f4e3-4d83-8401-7828991a5d4d,13ff59fa-81e7-48c7-84da-fd63c68ffa53,3127d1ba-76c1-4dd1-81d9-5ece7d97ab43,72805e76-6f42-4ccb-bfb9-42138c92c828,2019-08-10 15:57:18,1.000000
49,4be8a639-2770-4792-aff1-7f12c30e2208,abd50b62-6e90-46a8-895b-2409031f7c36,78998da5-ddc8-47c0-89ac-1f77edd26250,b13ba8e4-b280-4c02-9e95-690da5aab57e,2019-08-10 15:58:22,0.200000
50,2fc5137f-60a2-4f72-8e19-ca2b7c965fe2,19fd3c05-4898-439b-b54a-7304fdbe6316,0f375f3a-14b6-4376-9d69-53533e6ddb61,cc9219ad-ca35-4ec9-8165-49a19825b7ac,2019-08-10 15:59:25,1.000000
