node,ip,uuid
node-a8-199.grenoble.iot-lab.info,172.20.64.1,2c0be037-d8ea-4e83-9761-60116a6469ca
node-a8-200.grenoble.iot-lab.info,172.20.64.2,3de85b44-7cf1-4a6b-a119-f05b9943dc39
node-a8-201.grenoble.iot-lab.info,172.20.64.3,af5fafd0-332c-4cc4-b9d0-3998a35a49ea
node-a8-202.grenoble.iot-lab.info,172.20.64.4,b9610f08-b019-4a6c-9ab0-cd188619bf60
node-a8-204.grenoble.iot-lab.info,172.20.64.5,0f5c39ec-1279-4cfc-aedc-29c392cb4a2a
node-a8-205.grenoble.iot-lab.info,172.20.64.6,2f3fbd10-918f-4c6c-89db-4af9e4681ba2
node-a8-206.grenoble.iot-lab.info,172.20.64.7,bc97c63d-04ae-4223-bc18-51a42989e398
node-a8-207.grenoble.iot-lab.info,172.20.64.8,f0be51ed-eecb-424c-bab3-b7b94aea7751
node-a8-208.grenoble.iot-lab.info,172.20.64.9,9b933383-406c-4920-a074-a5ce2eed82b7
node-a8-209.grenoble.iot-lab.info,172.20.64.10,6f5d2c09-302a-4609-82c9-d662abbfe327
node-a8-210.grenoble.iot-lab.info,172.20.64.11,35122ad6-bc0b-496f-a87e-7fe63f344627
node-a8-211.grenoble.iot-lab.info,172.20.64.12,ae037402-f666-4a2f-b66c-96e8ba5dc222
node-a8-212.grenoble.iot-lab.info,172.20.64.13,9cf9f736-b41e-49fc-afd8-289c81cb986c
node-a8-214.grenoble.iot-lab.info,172.20.64.14,629a1f18-8107-47aa-9d4b-a8a6df78808d
node-a8-216.grenoble.iot-lab.info,172.20.64.15,041f01a0-3aea-4b3e-bd20-bd6460a857d0
node-a8-217.grenoble.iot-lab.info,172.20.64.16,3d372257-a029-4acc-9bed-faa9ee603a70
node-a8-218.grenoble.iot-lab.info,172.20.64.17,e8bfb7f4-18a9-460e-b77b-06044ff3df2a
node-a8-219.grenoble.iot-lab.info,172.20.64.18,d04438ce-7d3c-47d4-80b9-dcbeb1015f28
node-a8-220.grenoble.iot-lab.info,172.20.64.19,d45b04e0-3497-4338-acf2-35b633d485a8
node-a8-221.grenoble.iot-lab.info,172.20.64.20,5d928815-5a0d-4860-aaaa-016051166950
node-a8-165.grenoble.iot-lab.info,172.20.64.21,47e30190-7594-42dd-8ed4-2b528aca5ed8
node-a8-166.grenoble.iot-lab.info,172.20.64.22,345c2aa4-c8ed-4ecc-a335-ed2be76d1309
node-a8-167.grenoble.iot-lab.info,172.20.64.23,367acf7d-6315-4ce8-a46f-fff9db0928a4
node-a8-168.grenoble.iot-lab.info,172.20.64.24,ec4de115-e26b-4a54-822f-8cde677d6ce4
node-a8-169.grenoble.iot-lab.info,172.20.64.25,eecb19b8-0d77-46ee-8f9e-595624e71634
node-a8-170.grenoble.iot-lab.info,172.20.64.26,5c3ab2cc-a24f-4ebb-8d00-28c2889377f6
node-a8-171.grenoble.iot-lab.info,172.20.64.27,09b5ac1a-f384-4c6d-a594-4b42248cd45e
node-a8-173.grenoble.iot-lab.info,172.20.64.28,8f2e54e5-60e4-4df9-8c24-fa53b0d9c46b
node-a8-174.grenoble.iot-lab.info,172.20.64.29,388d03b9-c090-46fd-8a36-e2a8db2c76d4
node-a8-175.grenoble.iot-lab.info,172.20.64.30,725b716a-1603-46b3-891a-086a4a151075
node-a8-176.grenoble.iot-lab.info,172.20.64.31,fd79854b-2830-4104-a69a-c7e53f7ee383
node-a8-177.grenoble.iot-lab.info,172.20.64.32,c8c2fac0-e38c-4fc6-8a63-cec99a9bb083
node-a8-179.grenoble.iot-lab.info,172.20.64.33,0f46e261-b3e3-4741-a5f8-5ea52529d965
node-a8-180.grenoble.iot-lab.info,172.20.64.34,fd2da5a1-65de-4200-b392-52d7f5c87f18
node-a8-181.grenoble.iot-lab.info,172.20.64.35,37813ab2-b165-45e7-bc46-5025a39e84d6
node-a8-182.grenoble.iot-lab.info,172.20.64.36,1ce4478d-612a-4fc1-a727-84389aa735ad
node-a8-183.grenoble.iot-lab.info,172.20.64.37,fac026a8-bdc3-4c36-bd53-0c509fa644ad
node-a8-184.grenoble.iot-lab.info,172.20.64.38,2cc3204e-83db-401a-8128-fa20a27184c6
node-a8-185.grenoble.iot-lab.info,172.20.64.39,b0a30954-38c2-4239-819c-7a3a6d45fcd8
node-a8-187.grenoble.iot-lab.info,172.20.64.40,cec08839-245b-4f96-af8f-6d824c8f9691
node-a8-188.grenoble.iot-lab.info,172.20.64.41,0bf83288-1d96-4fe8-9dd6-814ad6104d26
node-a8-189.grenoble.iot-lab.info,172.20.64.42,0b085fe6-4bdb-47d4-8126-3c1bacd5231c
node-a8-190.grenoble.iot-lab.info,172.20.64.43,a0dd5fc9-7bca-4798-8215-55587cb6a2fe
node-a8-191.grenoble.iot-lab.info,172.20.64.44,c4e94edb-27b6-4985-b755-ed7fedd1c47f
node-a8-192.grenoble.iot-lab.info,172.20.64.45,eed06b80-e15d-492e-ae19-461b84db490b
node-a8-193.grenoble.iot-lab.info,172.20.64.46,91d7b3b6-f3a0-42bf-9f39-8726adabe533
node-a8-194.grenoble.iot-lab.info,172.20.64.47,bee3c735-6976-4a7f-898a-791cb3d9cc79
node-a8-195.grenoble.iot-lab.info,172.20.64.48,84f4ba70-0db5-4c92-8a52-f2bf4d40d4da
node-a8-197.grenoble.iot-lab.info,172.20.64.49,e1d11c68-fbb9-41ef-8668-63126e22aceb
node-a8-198.grenoble.iot-lab.info,172.20.64.50,6f7a1d72-c0f4-4a0f-ad56-51a904d68611
uvb-31.sophia.grid5000.fr,172.16.132.31,546a0453-e882-4710-b179-f985e5a7b547
uvb-33.sophia.grid5000.fr,172.16.132.33,e9a00914-72cb-4dfd-bae3-31eb2e7ba009
uvb-34.sophia.grid5000.fr,172.16.132.34,1b5d3994-a748-4d30-94ba-c7efdabee106
uvb-35.sophia.grid5000.fr,172.16.132.35,2c4d2438-f3a9-48f9-a672-9b1ecc04cf73
uvb-36.sophia.grid5000.fr,172.16.132.36,84601b41-33e7-485c-9872-3a2905e03598
uvb-37.sophia.grid5000.fr,172.16.132.37,a2b4fa91-dda2-44f6-b4de-14cfaf883ce3
uvb-38.sophia.grid5000.fr,172.16.132.38,fa8a2d2e-77d0-4807-9c7c-487af5d92c57
uvb-4.sophia.grid5000.fr,172.16.132.4,eb5975f2-45ab-47c6-871e-2062e1a6370d
uvb-41.sophia.grid5000.fr,172.16.132.41,6735e198-b725-4933-be09-4173f9c36101
uvb-42.sophia.grid5000.fr,172.16.132.42,65d60cfd-aeac-4d38-ab5f-cbff85cccf4e
uvb-43.sophia.grid5000.fr,172.16.132.43,db8bc913-5ca5-4ac0-8df0-6f8ee79081ee
uvb-44.sophia.grid5000.fr,172.16.132.44,63cf9fb3-be77-42ee-8157-1032cd6e9a00
uvb-5.sophia.grid5000.fr,172.16.132.5,ae079e4e-379f-4ef8-bb83-925ccb0b831d
uvb-6.sophia.grid5000.fr,172.16.132.6,ffcf8168-5bae-4cff-9a82-30ea31db80b8
uvb-8.sophia.grid5000.fr,172.16.132.8,8ef4d4b5-1391-45dc-bf81-fd0e595beac3
uvb-9.sophia.grid5000.fr,172.16.132.9,d19921c8-4d29-43d4-982c-c02444454809
