actor,node
b54141d5-b2a2-4bee-b546-c3b410a6881e,f80dafab-80e2-4c18-bc5e-753e5d8c8025
5af063f0-e08c-4fa9-a1bd-10653774888a,84ff74bf-9a3b-4482-985a-998a743c4eae
c89e376e-589c-4b4d-a131-362db3624672,f80dafab-80e2-4c18-bc5e-753e5d8c8025
fd17b950-6e28-453f-aea8-211200d4eec8,a2fd577c-179c-4095-ac36-dc2246bf256f
d61f03d1-c43e-465c-a993-da334b9f0260,a2fd577c-179c-4095-ac36-dc2246bf256f
9795f5b0-6c6f-42aa-a9b8-db3574d2475c,88eed549-4e32-42c2-b21a-a5e3e8834c76
3666bdf7-c966-481e-b559-7ae966b431a1,8d3508bc-bee6-40d4-9f0f-8b3308f073a9
10a56c4a-338e-45d2-baca-19c18eeb8107,7cb229a4-8620-449f-9446-5fdf6b08e0e3
c3b7bd46-7050-406c-a8f4-def4917a3ee2,7ba8d821-d025-49a9-961e-12c19e224fae
ccd8b044-ab85-4ffd-9001-6d7d551b42ab,e9423292-fc60-49e2-aede-f5bbd08d0bc9
b3b468d2-a2fb-42e0-bff5-a2535b2e8c23,0cadcdd9-92cf-43c6-806a-d4a5c7b36c5e
ca79c292-aa6a-4a1a-a5e9-7fc3da7e81d2,0cadcdd9-92cf-43c6-806a-d4a5c7b36c5e
a95066d1-5152-43fa-8647-9e6416324fcf,18dc8c92-96df-4cd2-887e-db376a926102
d9b95d9e-2efc-43e4-b859-9e7d0b3dd40f,8d3508bc-bee6-40d4-9f0f-8b3308f073a9
c32aa0fd-0c3b-419f-97c0-1f5323c8f24b,7d5e3037-a3ad-472e-95e7-ba2c84e3e399
2ca101f9-f135-4c90-a9f0-c0db12785686,f80dafab-80e2-4c18-bc5e-753e5d8c8025
4a0dc226-433d-4f9f-9bc3-7edb9b528c2d,f80dafab-80e2-4c18-bc5e-753e5d8c8025
4a4b1582-8abd-4ff2-b406-7ab66f9d3b15,a7f8621e-014e-4d9d-9b5d-e58ff4b6d54d
c671a3e5-c498-4789-bf05-39d719604a48,a3619b10-4e25-40a8-917f-77cfbd34d183
ad9fe23f-cc9e-479a-8513-f37136021fb6,a3619b10-4e25-40a8-917f-77cfbd34d183
5ff07142-401f-4ba0-ba0b-54d61b53fd9c,ede905c0-6763-4aaf-8d52-e22d78d3e7f5
8f0eb1a9-af45-4a25-884b-4b4aba46a68f,db3cbb6e-1018-4f04-a03a-93eee0c7e727
ecba29a9-aa89-4ec4-aa38-4f85552bbf03,415fad0b-1434-4987-ab17-363cafa18b9b
925867fb-eb32-4412-8500-95011d96e7da,415fad0b-1434-4987-ab17-363cafa18b9b
cc7ce611-19df-40d2-9120-3fc024476c02,415fad0b-1434-4987-ab17-363cafa18b9b
ea2f3a5e-a36d-4bee-ae82-8dd3bc5359d8,78729191-222c-47b6-97dd-4471927c88fa
492d457b-f072-4e77-96ef-592aeb435821,415fad0b-1434-4987-ab17-363cafa18b9b
158c883f-8b12-4d4e-a58d-806ae6a959f0,4d54590c-955d-4c55-995e-1e0afda3561d
4b9aeb85-dd12-4fde-a32e-03b9635631ae,4d54590c-955d-4c55-995e-1e0afda3561d
445b0cba-07ce-4e39-adb0-8a3df07e11b7,0e93e701-1865-46f4-a6f8-6e626f7a1d5c
286fadfb-1dc2-4ef5-a928-dc8698753452,ed250a4d-d847-41e6-be0b-902cf124b2cc
39693166-76fb-4837-84ff-73e8899ed8d2,a07d9dd6-6f8b-4f9e-b14d-a344f253406d
3ea05750-5744-4037-86b1-956453bca395,ed250a4d-d847-41e6-be0b-902cf124b2cc
e719a1e5-d900-48b3-ad69-856924dbef48,357cfbb9-1649-4d8d-b073-6ddff53ad3f4
e7d40b20-c5c3-4cd2-b67e-3a15170fea2b,8d3508bc-bee6-40d4-9f0f-8b3308f073a9
f61ce97c-64f2-4eb0-a01b-5a6e06d31e39,8d3508bc-bee6-40d4-9f0f-8b3308f073a9
b98d5316-4bbc-4b41-9bb7-3ae490d53268,ab46a96f-862f-4e4f-ade8-3edb62789bc8
97a56c35-5858-4db5-8759-40ebc58116f8,07af8de3-573d-4542-90b9-26f297e722e3
90786b65-0ea0-4788-8ceb-efe64c33b0a4,07af8de3-573d-4542-90b9-26f297e722e3
918f28ab-b82b-4840-a078-8dd50950476a,a3619b10-4e25-40a8-917f-77cfbd34d183
8aa7384a-4155-4b7e-9fb7-ff51f66b233b,a3619b10-4e25-40a8-917f-77cfbd34d183
49e9d860-e379-4ad8-add3-7fe5f86ca2f6,2da0cea7-c065-468f-b0ba-040dee92da43
09b3160f-a25a-468b-b788-b961456702bd,1f35bee2-030d-47a8-9a47-38875451e4f2
a9faba67-d6e3-483e-902b-4eebad063d5a,0e4a65a5-3f9d-4224-bbb3-eb2c63c15ac8
3a4c89a2-9659-4a6e-a731-ecba28a532ee,0e4a65a5-3f9d-4224-bbb3-eb2c63c15ac8
f412950d-c280-4bc1-9d2d-47e84fc60063,376df443-b9a8-43a8-a7e2-5e4e7c64a08d
76817a94-2afb-420b-88ed-8c90cdc435b1,64d93e80-b1b2-487e-a700-c491e534ad4d
181cd812-5563-4c8c-a236-a38f0f4beeaa,64d93e80-b1b2-487e-a700-c491e534ad4d
2b4649cc-35d4-4c08-a51c-1cb7bd138292,9f947380-55d6-4b09-8152-35f996dc5482
0160c991-cb34-40cb-9afc-98d3fff23277,9683d2c2-f6ed-4784-8009-ff01773ea900
924ff9a9-ffdb-4775-9953-fa3225e6f473,9683d2c2-f6ed-4784-8009-ff01773ea900
7eec71a9-0395-4ff7-938c-342fa9bc364a,2686207c-ce62-402e-9dfd-ac70f997be16
5ec2780a-cbbf-44db-988e-7c32ab5c7d48,0e4a65a5-3f9d-4224-bbb3-eb2c63c15ac8
15068d00-26e5-4bbf-9bec-da9e065dfe38,0e4a65a5-3f9d-4224-bbb3-eb2c63c15ac8
4943f217-3f1c-4df6-9876-847affd00f13,415fad0b-1434-4987-ab17-363cafa18b9b
4080dbea-f997-4552-b81b-83d7f0e49dfe,fee457b6-ef78-4493-b95d-5bb6683f1e86
9dc41fc7-fd2a-4fdc-81d9-e8499dd32f33,c991b1d4-ef3b-45f2-b224-78ef5d4d5dd2
3f9392a0-a16c-4f0e-afb0-31cfcebbcd2d,7cb229a4-8620-449f-9446-5fdf6b08e0e3
4f078e37-9275-486c-86c0-4f26508b687b,ed250a4d-d847-41e6-be0b-902cf124b2cc
95c1ca92-d89a-4459-80c4-18ae398250ec,0416e106-0e0e-45bc-a4f2-0c6826fb620c
4707e823-e509-484f-8597-657c7f9f9bce,e32e2f19-2499-482d-affd-e30f583ee7b7
c12f4468-8993-4d0a-afe7-2973bab03a6e,0e4a65a5-3f9d-4224-bbb3-eb2c63c15ac8
44504073-bd8d-49da-b788-13fee3abb560,7cb229a4-8620-449f-9446-5fdf6b08e0e3
1770cb73-c1b3-4713-9018-92833af2dc35,0e4a65a5-3f9d-4224-bbb3-eb2c63c15ac8
09173a88-4b00-4d45-a12d-ad45d7832085,18dc8c92-96df-4cd2-887e-db376a926102
e240860a-9f28-411f-b2e2-8d4f7100bf2d,b8d2c439-b623-4f93-b2fc-90ce22c7eb58
ce589624-2cfa-4439-bb67-6155069daeb9,18dc8c92-96df-4cd2-887e-db376a926102
6f5c9ced-ac45-4953-867d-0aa44ff8c643,03691524-ece0-4c91-a9d8-fc41e1c23c6a
84b5b112-add7-41ba-aed1-3acfdd6c2c9f,0cadcdd9-92cf-43c6-806a-d4a5c7b36c5e
597465ef-2fd5-49e6-a8b2-978e7ff2bed2,c12d3df2-0f7c-412e-b8e3-e2f9cbff17e0
77aac294-721d-4a28-bbb4-a0e6b3fe3cae,0e4a65a5-3f9d-4224-bbb3-eb2c63c15ac8
b799e648-c405-4762-8a88-0341c0dbe7f6,0e4a65a5-3f9d-4224-bbb3-eb2c63c15ac8
1607f302-239b-4073-9aa3-46577249270e,0cadcdd9-92cf-43c6-806a-d4a5c7b36c5e
656edf0d-7d2b-48f8-9f3d-433654f532eb,0cadcdd9-92cf-43c6-806a-d4a5c7b36c5e
3a033e77-4269-40b6-b27e-0f8163beb14b,b9a5da21-2eee-4a41-8691-2bd819ad111d
63305fd3-169c-4f72-8177-aef19b71a972,c991b1d4-ef3b-45f2-b224-78ef5d4d5dd2
446603f0-c90b-4f12-8cb9-649d1e2cec85,c991b1d4-ef3b-45f2-b224-78ef5d4d5dd2
a615c650-2f30-42b4-aad2-56f209bc784f,69f6f69c-632c-4fa7-ad82-f8a541cd8f89
5e27f186-785e-460b-84b6-d1c46cdabc8a,2164211b-49da-428f-b9e7-f88bc413261d
9aa2928c-2dd1-4c99-8014-b2d48ae2059e,8d3508bc-bee6-40d4-9f0f-8b3308f073a9
f20084d8-bf99-4325-8165-903c73300c30,8d3508bc-bee6-40d4-9f0f-8b3308f073a9
2392a22e-6334-4a4a-83d5-9665c00c15f7,64d93e80-b1b2-487e-a700-c491e534ad4d
512d9702-985b-4477-b344-500f1f7a6562,64d93e80-b1b2-487e-a700-c491e534ad4d
360994b1-6f21-4ff0-8a23-c0c86dd481e4,b8a8a261-140e-4638-8324-8e406db0fc04
47d8caba-0b4c-4c52-8161-64074eb96590,4d54590c-955d-4c55-995e-1e0afda3561d
0460b7eb-f589-41cc-81f2-cd3c051bba06,4d54590c-955d-4c55-995e-1e0afda3561d
cd450f8e-baad-4322-99c4-d883fbacaa46,e9ef71b3-b152-4b3e-a8ab-cf69ba66c92d
6282966d-3ec0-4ff4-803d-1511bd36881e,8d3508bc-bee6-40d4-9f0f-8b3308f073a9
b69d9992-2cb0-40e3-9953-c275582f36c0,8d3508bc-bee6-40d4-9f0f-8b3308f073a9
7aa36271-31dd-41a4-b388-a588a2db4914,71425ad6-6d84-4a3f-ad85-d8eeaeab5fbf
220b8014-2514-483f-a8d6-aa8f1a1e7c26,0e4a65a5-3f9d-4224-bbb3-eb2c63c15ac8
cfb70493-c5d9-47f6-88ae-36a3b09ac5a2,0e4a65a5-3f9d-4224-bbb3-eb2c63c15ac8
9ed9db2b-1110-4b1a-b212-362233bff6a4,53c74d9f-92c6-4773-ada1-a20e64f3030e
5f5d8399-b401-4633-803c-050ee49cffd1,0cadcdd9-92cf-43c6-806a-d4a5c7b36c5e
9a084673-9ad7-4a59-8013-7dd09d38bf2e,0cadcdd9-92cf-43c6-806a-d4a5c7b36c5e
3b2abe44-af99-46b5-8571-142ce14c4a34,09637dd8-459d-4419-9392-0259502ead00
f9994089-22a1-4de4-ba1a-aa17cee856f8,9e8c3c4b-4c86-437c-92af-7b54b823fe7f
d20a4304-8a80-4397-b211-859da60d3449,a2fd577c-179c-4095-ac36-dc2246bf256f
faeb6b0e-d38a-4237-aad7-4b879dad0303,a2fd577c-179c-4095-ac36-dc2246bf256f
d7800c4a-ce2c-4ecf-9ba3-ea262b565b6b,c991b1d4-ef3b-45f2-b224-78ef5d4d5dd2
035462fb-a1eb-4972-aebe-8447169d89fd,f9c7729a-1159-406a-92a1-bb5a4dc02e7a
51ac0a4d-f3f8-4809-a991-b1f99aa00085,0cadcdd9-92cf-43c6-806a-d4a5c7b36c5e
d0255a01-6948-4277-9a00-634337f29904,a2fd577c-179c-4095-ac36-dc2246bf256f
f78696c3-9902-447d-b017-ba38e18cc12d,e38eee7f-53ce-4583-8fed-5c2500758de7
69596232-c5c2-49fa-8f7c-2801a0abd007,64d93e80-b1b2-487e-a700-c491e534ad4d
89ff12e6-7888-4b6d-819c-25787ce00e8a,18dc8c92-96df-4cd2-887e-db376a926102
4bbd4e69-2003-454b-b2f8-32d9ab460f5f,a4051eeb-4089-4191-baa6-8c2a500921d7
f0ad68ec-ab91-4ec6-b594-4f4a829ede9c,18dc8c92-96df-4cd2-887e-db376a926102
a76af65c-b283-4fb0-8a90-2eae1d6d7a37,7eb7273d-999c-4d83-a63a-6c4f001c39eb
9d020f83-d584-4701-9765-2b0c8e707a41,07af8de3-573d-4542-90b9-26f297e722e3
1edcad0a-de15-4277-b0e6-b344b01f15e3,07af8de3-573d-4542-90b9-26f297e722e3
df051d52-c2ea-4d2b-ba75-a4cc87d0f642,9148924b-9590-41ae-af3c-0746f3a8c470
23923b54-f2db-475c-9a9a-5a0474d4b603,ed250a4d-d847-41e6-be0b-902cf124b2cc
9871eedc-edda-4989-b383-75774bff255a,ed250a4d-d847-41e6-be0b-902cf124b2cc
039f2245-69cb-40c9-8f2f-319b56312d0c,c991b1d4-ef3b-45f2-b224-78ef5d4d5dd2
03edfee5-7073-45d4-9621-51a232757c67,6a6ce273-31e4-4df6-b6b1-83ecc6811358
952ee374-ae12-4728-88eb-58dbd989483f,c991b1d4-ef3b-45f2-b224-78ef5d4d5dd2
2001481d-9254-45e9-a873-1e53369726fa,8d2a2f47-82e5-4cb7-be44-56d0331c9284
845f90ec-2d4f-4be0-8d6d-8f10d4287f05,c991b1d4-ef3b-45f2-b224-78ef5d4d5dd2
06bc5a65-dc88-4ede-8abf-88526c03b7da,ed250a4d-d847-41e6-be0b-902cf124b2cc
96ac34da-ae65-4cd7-b5ab-3e440819b1b6,cfbfaa3a-5851-4e12-9629-2f13eb1c0024
23b82ea8-b737-4a1b-b5f4-65c4c1c27c50,ed250a4d-d847-41e6-be0b-902cf124b2cc
dae10a3c-280f-4297-adf3-f86e2143800f,ed250a4d-d847-41e6-be0b-902cf124b2cc
64d50962-031c-4742-b3e2-8251cefe7ab3,3877e5b3-f3e0-4ff9-944e-12f87d588dac
1a0c1ff1-dc85-41a0-8001-cb664ed494c0,9683d2c2-f6ed-4784-8009-ff01773ea900
34db3961-6480-42c0-82f9-94b1eaa02ca4,18dc8c92-96df-4cd2-887e-db376a926102
30b3d5ca-21fe-4356-8fe6-ff5ce64a92fa,5c0d728c-ddc4-4c9d-967e-161d3f749121
1e07b5af-05cc-4738-870f-19570a1d3851,f80dafab-80e2-4c18-bc5e-753e5d8c8025
dc9630b1-1c70-40bf-b918-0dac99826371,f80dafab-80e2-4c18-bc5e-753e5d8c8025
c844773b-51ba-4edb-ad22-c6aa1f1a8451,dbde8d08-d6c7-4042-a9a0-50ce4a3f0963
f288dd04-0f03-4011-8b4d-967880a04e5b,07af8de3-573d-4542-90b9-26f297e722e3
8fbf5958-0b33-421f-a59b-2431a8ba6174,07af8de3-573d-4542-90b9-26f297e722e3
43865805-8202-4f74-83b9-e4e78ad95b1c,e9ae2f95-7d60-452e-916d-56991b17f87c
243b15c9-d467-4a6b-b3f0-34e62ff814da,c991b1d4-ef3b-45f2-b224-78ef5d4d5dd2
51cc0064-f94b-4a77-ab1f-cae8091cf2e4,c991b1d4-ef3b-45f2-b224-78ef5d4d5dd2
942a5bda-352c-4f5b-8751-654ce630c334,91c92a5a-4cac-45a7-b337-4a13ac312d11
36382d0d-2bc6-406d-9ef9-be3b6a037e8a,18dc8c92-96df-4cd2-887e-db376a926102
8f75727e-2b46-420c-9210-e12ce57b2810,18dc8c92-96df-4cd2-887e-db376a926102
6c02d972-ff24-4814-b59f-1c72912a781d,e822d84c-64df-4019-a718-142d3899482d
f5e36b37-f101-4536-b8b9-094ab1b36654,8d3508bc-bee6-40d4-9f0f-8b3308f073a9
755a258f-0185-40cb-befd-a4605dfcdba6,8d3508bc-bee6-40d4-9f0f-8b3308f073a9
f66f62bd-5608-4463-9572-0d2982877fe9,18dc8c92-96df-4cd2-887e-db376a926102
d1a2edc9-61f6-49e7-ae60-d10d96316dec,2946718c-b4fc-4ae1-a928-c2c713d908d4
a3ceb759-f542-4c72-98a2-db29d7366344,18dc8c92-96df-4cd2-887e-db376a926102
3133ec72-b4c0-475b-a856-1d8e81a04405,c991b1d4-ef3b-45f2-b224-78ef5d4d5dd2
79c154a4-68b2-4f47-947a-472fac2b54de,c991b1d4-ef3b-45f2-b224-78ef5d4d5dd2
2bb00b48-001e-4ebc-ab88-8f3c4fe0793a,a4edd2c5-9c89-4479-b097-2ed1c8e9731a
f3e72f83-a70b-4de6-adc2-551404c07d44,0cadcdd9-92cf-43c6-806a-d4a5c7b36c5e
b747d35e-dc1e-4360-88fb-933b11b3b4b0,21538bae-16aa-4c3a-aa39-fc198a387b3c
b7b98341-85ca-4a4f-aacd-8b65a9894ae8,0cadcdd9-92cf-43c6-806a-d4a5c7b36c5e
