date,trigger,state
2019-07-10 03:33:13,c3b7bd46-7050-406c-a8f4-def4917a3ee2,S
2019-07-10 03:34:19,c3b7bd46-7050-406c-a8f4-def4917a3ee2,A
2019-07-10 03:35:33,c3b7bd46-7050-406c-a8f4-def4917a3ee2,S
2019-07-10 03:39:12,c3b7bd46-7050-406c-a8f4-def4917a3ee2,A
2019-07-10 03:41:55,c3b7bd46-7050-406c-a8f4-def4917a3ee2,S
2019-07-10 03:47:06,c3b7bd46-7050-406c-a8f4-def4917a3ee2,A
2019-07-10 03:48:23,c3b7bd46-7050-406c-a8f4-def4917a3ee2,S
2019-07-10 03:54:23,c3b7bd46-7050-406c-a8f4-def4917a3ee2,A
2019-07-10 04:05:39,c3b7bd46-7050-406c-a8f4-def4917a3ee2,S
2019-07-10 04:09:20,c3b7bd46-7050-406c-a8f4-def4917a3ee2,A
2019-07-10 04:13:52,c3b7bd46-7050-406c-a8f4-def4917a3ee2,S
2019-07-10 04:25:19,c3b7bd46-7050-406c-a8f4-def4917a3ee2,A
2019-07-10 04:38:46,c3b7bd46-7050-406c-a8f4-def4917a3ee2,S
2019-07-10 04:39:44,c3b7bd46-7050-406c-a8f4-def4917a3ee2,A
2019-07-10 04:41:17,c3b7bd46-7050-406c-a8f4-def4917a3ee2,S
2019-07-10 04:42:03,c3b7bd46-7050-406c-a8f4-def4917a3ee2,A
2019-07-10 04:43:12,c3b7bd46-7050-406c-a8f4-def4917a3ee2,S
2019-07-10 04:51:48,c3b7bd46-7050-406c-a8f4-def4917a3ee2,A
2019-07-10 04:53:46,c3b7bd46-7050-406c-a8f4-def4917a3ee2,S
2019-07-10 04:55:34,c3b7bd46-7050-406c-a8f4-def4917a3ee2,A
2019-07-10 05:00:22,c3b7bd46-7050-406c-a8f4-def4917a3ee2,S
2019-07-10 05:09:15,c3b7bd46-7050-406c-a8f4-def4917a3ee2,A
2019-07-10 05:20:07,c3b7bd46-7050-406c-a8f4-def4917a3ee2,S
2019-07-10 05:24:03,c3b7bd46-7050-406c-a8f4-def4917a3ee2,A
2019-07-10 05:24:21,c3b7bd46-7050-406c-a8f4-def4917a3ee2,S
2019-07-10 05:30:00,c3b7bd46-7050-406c-a8f4-def4917a3ee2,A
2019-07-10 05:36:25,c3b7bd46-7050-406c-a8f4-def4917a3ee2,S
2019-07-10 05:36:26,c3b7bd46-7050-406c-a8f4-def4917a3ee2,A
2019-07-10 04:23:48,d1a2edc9-61f6-49e7-ae60-d10d96316dec,S
2019-07-10 04:25:02,d1a2edc9-61f6-49e7-ae60-d10d96316dec,A
2019-07-10 04:30:47,d1a2edc9-61f6-49e7-ae60-d10d96316dec,S
2019-07-10 04:44:07,d1a2edc9-61f6-49e7-ae60-d10d96316dec,A
2019-07-10 04:51:52,d1a2edc9-61f6-49e7-ae60-d10d96316dec,S
2019-07-10 04:54:23,d1a2edc9-61f6-49e7-ae60-d10d96316dec,A
2019-07-10 05:10:45,d1a2edc9-61f6-49e7-ae60-d10d96316dec,S
2019-07-10 05:16:53,d1a2edc9-61f6-49e7-ae60-d10d96316dec,A
2019-07-10 05:31:41,d1a2edc9-61f6-49e7-ae60-d10d96316dec,S
2019-07-10 05:36:56,d1a2edc9-61f6-49e7-ae60-d10d96316dec,A
2019-07-10 04:04:38,3b2abe44-af99-46b5-8571-142ce14c4a34,S
2019-07-10 04:08:48,3b2abe44-af99-46b5-8571-142ce14c4a34,A
2019-07-10 04:16:15,3b2abe44-af99-46b5-8571-142ce14c4a34,S
2019-07-10 04:20:28,3b2abe44-af99-46b5-8571-142ce14c4a34,A
2019-07-10 04:20:42,3b2abe44-af99-46b5-8571-142ce14c4a34,S
2019-07-10 04:30:10,3b2abe44-af99-46b5-8571-142ce14c4a34,A
2019-07-10 04:33:11,3b2abe44-af99-46b5-8571-142ce14c4a34,S
2019-07-10 04:34:39,3b2abe44-af99-46b5-8571-142ce14c4a34,A
2019-07-10 04:36:22,3b2abe44-af99-46b5-8571-142ce14c4a34,S
2019-07-10 04:46:02,3b2abe44-af99-46b5-8571-142ce14c4a34,A
2019-07-10 04:50:53,3b2abe44-af99-46b5-8571-142ce14c4a34,S
2019-07-10 04:52:36,3b2abe44-af99-46b5-8571-142ce14c4a34,A
2019-07-10 04:53:32,3b2abe44-af99-46b5-8571-142ce14c4a34,S
2019-07-10 04:59:00,3b2abe44-af99-46b5-8571-142ce14c4a34,A
2019-07-10 05:03:35,3b2abe44-af99-46b5-8571-142ce14c4a34,S
2019-07-10 05:08:16,3b2abe44-af99-46b5-8571-142ce14c4a34,A
2019-07-10 05:16:17,3b2abe44-af99-46b5-8571-142ce14c4a34,S
2019-07-10 05:21:28,3b2abe44-af99-46b5-8571-142ce14c4a34,A
2019-07-10 05:24:48,3b2abe44-af99-46b5-8571-142ce14c4a34,S
2019-07-10 05:37:34,3b2abe44-af99-46b5-8571-142ce14c4a34,A
2019-07-10 03:57:25,e240860a-9f28-411f-b2e2-8d4f7100bf2d,S
2019-07-10 04:06:27,e240860a-9f28-411f-b2e2-8d4f7100bf2d,A
2019-07-10 04:11:39,e240860a-9f28-411f-b2e2-8d4f7100bf2d,S
2019-07-10 04:24:25,e240860a-9f28-411f-b2e2-8d4f7100bf2d,A
2019-07-10 04:25:24,e240860a-9f28-411f-b2e2-8d4f7100bf2d,S
2019-07-10 04:36:37,e240860a-9f28-411f-b2e2-8d4f7100bf2d,A
2019-07-10 04:36:50,e240860a-9f28-411f-b2e2-8d4f7100bf2d,S
2019-07-10 04:40:17,e240860a-9f28-411f-b2e2-8d4f7100bf2d,A
2019-07-10 04:51:21,e240860a-9f28-411f-b2e2-8d4f7100bf2d,S
2019-07-10 04:54:22,e240860a-9f28-411f-b2e2-8d4f7100bf2d,A
2019-07-10 05:00:58,e240860a-9f28-411f-b2e2-8d4f7100bf2d,S
2019-07-10 05:02:54,e240860a-9f28-411f-b2e2-8d4f7100bf2d,A
2019-07-10 05:10:19,e240860a-9f28-411f-b2e2-8d4f7100bf2d,S
2019-07-10 05:14:25,e240860a-9f28-411f-b2e2-8d4f7100bf2d,A
2019-07-10 05:15:07,e240860a-9f28-411f-b2e2-8d4f7100bf2d,S
2019-07-10 05:15:29,e240860a-9f28-411f-b2e2-8d4f7100bf2d,A
2019-07-10 05:18:52,e240860a-9f28-411f-b2e2-8d4f7100bf2d,S
2019-07-10 05:21:57,e240860a-9f28-411f-b2e2-8d4f7100bf2d,A
2019-07-10 05:35:07,e240860a-9f28-411f-b2e2-8d4f7100bf2d,S
2019-07-10 04:03:30,4707e823-e509-484f-8597-657c7f9f9bce,S
2019-07-10 04:03:34,4707e823-e509-484f-8597-657c7f9f9bce,A
2019-07-10 04:10:45,4707e823-e509-484f-8597-657c7f9f9bce,S
2019-07-10 04:22:15,4707e823-e509-484f-8597-657c7f9f9bce,A
2019-07-10 04:23:51,4707e823-e509-484f-8597-657c7f9f9bce,S
2019-07-10 04:26:58,4707e823-e509-484f-8597-657c7f9f9bce,A
2019-07-10 04:27:15,4707e823-e509-484f-8597-657c7f9f9bce,S
2019-07-10 04:45:14,4707e823-e509-484f-8597-657c7f9f9bce,A
2019-07-10 04:47:38,4707e823-e509-484f-8597-657c7f9f9bce,S
2019-07-10 04:59:59,4707e823-e509-484f-8597-657c7f9f9bce,A
2019-07-10 05:12:07,4707e823-e509-484f-8597-657c7f9f9bce,S
2019-07-10 05:17:39,4707e823-e509-484f-8597-657c7f9f9bce,A
2019-07-10 05:18:05,4707e823-e509-484f-8597-657c7f9f9bce,S
2019-07-10 05:20:20,4707e823-e509-484f-8597-657c7f9f9bce,A
2019-07-10 05:23:59,4707e823-e509-484f-8597-657c7f9f9bce,S
2019-07-10 05:27:19,4707e823-e509-484f-8597-657c7f9f9bce,A
2019-07-10 05:31:49,4707e823-e509-484f-8597-657c7f9f9bce,S
2019-07-10 05:32:46,4707e823-e509-484f-8597-657c7f9f9bce,A
2019-07-10 05:33:08,4707e823-e509-484f-8597-657c7f9f9bce,S
2019-07-10 05:34:06,4707e823-e509-484f-8597-657c7f9f9bce,A
2019-07-10 04:09:22,a76af65c-b283-4fb0-8a90-2eae1d6d7a37,A
2019-07-10 04:09:51,a76af65c-b283-4fb0-8a90-2eae1d6d7a37,S
2019-07-10 04:18:21,a76af65c-b283-4fb0-8a90-2eae1d6d7a37,A
2019-07-10 04:19:40,a76af65c-b283-4fb0-8a90-2eae1d6d7a37,S
2019-07-10 04:28:17,a76af65c-b283-4fb0-8a90-2eae1d6d7a37,S
2019-07-10 04:29:31,a76af65c-b283-4fb0-8a90-2eae1d6d7a37,A
2019-07-10 04:30:21,a76af65c-b283-4fb0-8a90-2eae1d6d7a37,S
2019-07-10 04:34:08,a76af65c-b283-4fb0-8a90-2eae1d6d7a37,A
2019-07-10 04:35:15,a76af65c-b283-4fb0-8a90-2eae1d6d7a37,S
2019-07-10 04:35:27,a76af65c-b283-4fb0-8a90-2eae1d6d7a37,A
2019-07-10 04:41:00,a76af65c-b283-4fb0-8a90-2eae1d6d7a37,S
2019-07-10 04:46:19,a76af65c-b283-4fb0-8a90-2eae1d6d7a37,A
2019-07-10 04:58:34,a76af65c-b283-4fb0-8a90-2eae1d6d7a37,S
2019-07-10 04:58:49,a76af65c-b283-4fb0-8a90-2eae1d6d7a37,A
2019-07-10 05:03:00,a76af65c-b283-4fb0-8a90-2eae1d6d7a37,S
2019-07-10 05:12:36,a76af65c-b283-4fb0-8a90-2eae1d6d7a37,A
2019-07-10 05:24:41,a76af65c-b283-4fb0-8a90-2eae1d6d7a37,S
2019-07-10 05:28:11,a76af65c-b283-4fb0-8a90-2eae1d6d7a37,A
2019-07-10 05:32:34,a76af65c-b283-4fb0-8a90-2eae1d6d7a37,S
2019-07-10 05:33:58,a76af65c-b283-4fb0-8a90-2eae1d6d7a37,A
2019-07-10 05:34:34,a76af65c-b283-4fb0-8a90-2eae1d6d7a37,S
2019-07-10 04:21:08,a615c650-2f30-42b4-aad2-56f209bc784f,A
2019-07-10 04:54:54,a615c650-2f30-42b4-aad2-56f209bc784f,S
2019-07-10 04:55:21,a615c650-2f30-42b4-aad2-56f209bc784f,A
2019-07-10 05:24:38,a615c650-2f30-42b4-aad2-56f209bc784f,S
2019-07-10 05:27:42,a615c650-2f30-42b4-aad2-56f209bc784f,A
2019-07-10 05:30:10,a615c650-2f30-42b4-aad2-56f209bc784f,S
2019-07-10 05:31:42,a615c650-2f30-42b4-aad2-56f209bc784f,A
2019-07-10 05:32:28,a615c650-2f30-42b4-aad2-56f209bc784f,S
2019-07-10 05:35:43,a615c650-2f30-42b4-aad2-56f209bc784f,A
2019-07-10 03:43:56,4a4b1582-8abd-4ff2-b406-7ab66f9d3b15,S
2019-07-10 03:48:53,4a4b1582-8abd-4ff2-b406-7ab66f9d3b15,A
2019-07-10 03:49:15,4a4b1582-8abd-4ff2-b406-7ab66f9d3b15,S
2019-07-10 03:54:00,4a4b1582-8abd-4ff2-b406-7ab66f9d3b15,A
2019-07-10 03:58:57,4a4b1582-8abd-4ff2-b406-7ab66f9d3b15,S
2019-07-10 04:00:59,4a4b1582-8abd-4ff2-b406-7ab66f9d3b15,A
2019-07-10 04:11:03,4a4b1582-8abd-4ff2-b406-7ab66f9d3b15,S
2019-07-10 04:13:45,4a4b1582-8abd-4ff2-b406-7ab66f9d3b15,A
2019-07-10 04:14:40,4a4b1582-8abd-4ff2-b406-7ab66f9d3b15,S
2019-07-10 04:22:41,4a4b1582-8abd-4ff2-b406-7ab66f9d3b15,A
2019-07-10 04:31:30,4a4b1582-8abd-4ff2-b406-7ab66f9d3b15,S
2019-07-10 04:33:40,4a4b1582-8abd-4ff2-b406-7ab66f9d3b15,A
2019-07-10 04:33:49,4a4b1582-8abd-4ff2-b406-7ab66f9d3b15,S
2019-07-10 04:53:06,4a4b1582-8abd-4ff2-b406-7ab66f9d3b15,A
2019-07-10 04:55:19,4a4b1582-8abd-4ff2-b406-7ab66f9d3b15,S
2019-07-10 05:12:54,4a4b1582-8abd-4ff2-b406-7ab66f9d3b15,A
2019-07-10 05:23:05,4a4b1582-8abd-4ff2-b406-7ab66f9d3b15,S
2019-07-10 05:38:56,4a4b1582-8abd-4ff2-b406-7ab66f9d3b15,A
2019-07-10 04:20:18,6c02d972-ff24-4814-b59f-1c72912a781d,S
2019-07-10 04:25:41,6c02d972-ff24-4814-b59f-1c72912a781d,A
2019-07-10 04:27:06,6c02d972-ff24-4814-b59f-1c72912a781d,S
2019-07-10 04:29:16,6c02d972-ff24-4814-b59f-1c72912a781d,A
2019-07-10 04:36:18,6c02d972-ff24-4814-b59f-1c72912a781d,S
2019-07-10 04:42:24,6c02d972-ff24-4814-b59f-1c72912a781d,A
2019-07-10 04:46:19,6c02d972-ff24-4814-b59f-1c72912a781d,S
2019-07-10 04:49:41,6c02d972-ff24-4814-b59f-1c72912a781d,A
2019-07-10 04:51:16,6c02d972-ff24-4814-b59f-1c72912a781d,S
2019-07-10 04:51:26,6c02d972-ff24-4814-b59f-1c72912a781d,A
2019-07-10 04:53:46,6c02d972-ff24-4814-b59f-1c72912a781d,S
2019-07-10 04:58:03,6c02d972-ff24-4814-b59f-1c72912a781d,A
2019-07-10 05:00:57,6c02d972-ff24-4814-b59f-1c72912a781d,S
2019-07-10 05:01:52,6c02d972-ff24-4814-b59f-1c72912a781d,A
2019-07-10 05:12:15,6c02d972-ff24-4814-b59f-1c72912a781d,S
2019-07-10 05:12:19,6c02d972-ff24-4814-b59f-1c72912a781d,A
2019-07-10 05:12:51,6c02d972-ff24-4814-b59f-1c72912a781d,S
2019-07-10 05:13:20,6c02d972-ff24-4814-b59f-1c72912a781d,A
2019-07-10 05:13:33,6c02d972-ff24-4814-b59f-1c72912a781d,S
2019-07-10 05:17:28,6c02d972-ff24-4814-b59f-1c72912a781d,A
2019-07-10 05:25:17,6c02d972-ff24-4814-b59f-1c72912a781d,S
2019-07-10 05:31:16,6c02d972-ff24-4814-b59f-1c72912a781d,A
2019-07-10 05:34:09,6c02d972-ff24-4814-b59f-1c72912a781d,S
2019-07-10 05:36:09,6c02d972-ff24-4814-b59f-1c72912a781d,A
2019-07-10 04:15:30,64d50962-031c-4742-b3e2-8251cefe7ab3,A
2019-07-10 04:30:13,64d50962-031c-4742-b3e2-8251cefe7ab3,S
2019-07-10 04:32:19,64d50962-031c-4742-b3e2-8251cefe7ab3,A
2019-07-10 04:41:25,64d50962-031c-4742-b3e2-8251cefe7ab3,S
2019-07-10 04:52:58,64d50962-031c-4742-b3e2-8251cefe7ab3,A
2019-07-10 04:59:10,64d50962-031c-4742-b3e2-8251cefe7ab3,S
2019-07-10 05:05:51,64d50962-031c-4742-b3e2-8251cefe7ab3,A
2019-07-10 05:06:14,64d50962-031c-4742-b3e2-8251cefe7ab3,S
2019-07-10 05:07:21,64d50962-031c-4742-b3e2-8251cefe7ab3,A
2019-07-10 05:11:40,64d50962-031c-4742-b3e2-8251cefe7ab3,S
2019-07-10 05:12:12,64d50962-031c-4742-b3e2-8251cefe7ab3,A
2019-07-10 05:18:51,64d50962-031c-4742-b3e2-8251cefe7ab3,S
2019-07-10 05:21:34,64d50962-031c-4742-b3e2-8251cefe7ab3,A
2019-07-10 05:23:22,64d50962-031c-4742-b3e2-8251cefe7ab3,S
2019-07-10 05:27:08,64d50962-031c-4742-b3e2-8251cefe7ab3,A
2019-07-10 05:33:24,64d50962-031c-4742-b3e2-8251cefe7ab3,S
2019-07-10 05:33:37,64d50962-031c-4742-b3e2-8251cefe7ab3,A
2019-07-10 05:36:13,64d50962-031c-4742-b3e2-8251cefe7ab3,S
2019-07-10 04:21:32,942a5bda-352c-4f5b-8751-654ce630c334,S
2019-07-10 04:22:21,942a5bda-352c-4f5b-8751-654ce630c334,A
2019-07-10 04:34:57,942a5bda-352c-4f5b-8751-654ce630c334,S
2019-07-10 04:36:03,942a5bda-352c-4f5b-8751-654ce630c334,A
2019-07-10 04:38:08,942a5bda-352c-4f5b-8751-654ce630c334,S
2019-07-10 05:03:01,942a5bda-352c-4f5b-8751-654ce630c334,A
2019-07-10 05:14:51,942a5bda-352c-4f5b-8751-654ce630c334,S
2019-07-10 05:19:12,942a5bda-352c-4f5b-8751-654ce630c334,A
2019-07-10 05:19:13,942a5bda-352c-4f5b-8751-654ce630c334,S
2019-07-10 05:23:22,942a5bda-352c-4f5b-8751-654ce630c334,A
2019-07-10 05:27:34,942a5bda-352c-4f5b-8751-654ce630c334,S
2019-07-10 05:36:57,942a5bda-352c-4f5b-8751-654ce630c334,A
2019-07-10 04:14:07,96ac34da-ae65-4cd7-b5ab-3e440819b1b6,A
2019-07-10 04:17:36,96ac34da-ae65-4cd7-b5ab-3e440819b1b6,S
2019-07-10 04:20:39,96ac34da-ae65-4cd7-b5ab-3e440819b1b6,A
2019-07-10 04:29:36,96ac34da-ae65-4cd7-b5ab-3e440819b1b6,S
2019-07-10 04:44:33,96ac34da-ae65-4cd7-b5ab-3e440819b1b6,A
2019-07-10 04:45:36,96ac34da-ae65-4cd7-b5ab-3e440819b1b6,S
2019-07-10 04:46:05,96ac34da-ae65-4cd7-b5ab-3e440819b1b6,A
2019-07-10 04:46:44,96ac34da-ae65-4cd7-b5ab-3e440819b1b6,S
2019-07-10 04:53:48,96ac34da-ae65-4cd7-b5ab-3e440819b1b6,A
2019-07-10 04:58:58,96ac34da-ae65-4cd7-b5ab-3e440819b1b6,S
2019-07-10 05:17:50,96ac34da-ae65-4cd7-b5ab-3e440819b1b6,A
2019-07-10 05:19:57,96ac34da-ae65-4cd7-b5ab-3e440819b1b6,S
2019-07-10 05:27:04,96ac34da-ae65-4cd7-b5ab-3e440819b1b6,A
2019-07-10 05:30:33,96ac34da-ae65-4cd7-b5ab-3e440819b1b6,S
2019-07-10 04:22:03,2bb00b48-001e-4ebc-ab88-8f3c4fe0793a,S
2019-07-10 04:35:38,2bb00b48-001e-4ebc-ab88-8f3c4fe0793a,A
2019-07-10 04:40:31,2bb00b48-001e-4ebc-ab88-8f3c4fe0793a,S
2019-07-10 04:41:04,2bb00b48-001e-4ebc-ab88-8f3c4fe0793a,A
2019-07-10 04:44:56,2bb00b48-001e-4ebc-ab88-8f3c4fe0793a,S
2019-07-10 04:45:37,2bb00b48-001e-4ebc-ab88-8f3c4fe0793a,A
2019-07-10 04:54:16,2bb00b48-001e-4ebc-ab88-8f3c4fe0793a,S
2019-07-10 04:55:19,2bb00b48-001e-4ebc-ab88-8f3c4fe0793a,A
2019-07-10 04:57:35,2bb00b48-001e-4ebc-ab88-8f3c4fe0793a,S
2019-07-10 04:59:44,2bb00b48-001e-4ebc-ab88-8f3c4fe0793a,A
2019-07-10 05:02:06,2bb00b48-001e-4ebc-ab88-8f3c4fe0793a,S
2019-07-10 05:05:57,2bb00b48-001e-4ebc-ab88-8f3c4fe0793a,A
2019-07-10 05:07:09,2bb00b48-001e-4ebc-ab88-8f3c4fe0793a,S
2019-07-10 05:07:59,2bb00b48-001e-4ebc-ab88-8f3c4fe0793a,A
2019-07-10 05:10:09,2bb00b48-001e-4ebc-ab88-8f3c4fe0793a,S
2019-07-10 05:10:32,2bb00b48-001e-4ebc-ab88-8f3c4fe0793a,A
2019-07-10 05:10:48,2bb00b48-001e-4ebc-ab88-8f3c4fe0793a,S
2019-07-10 05:15:19,2bb00b48-001e-4ebc-ab88-8f3c4fe0793a,A
2019-07-10 05:16:10,2bb00b48-001e-4ebc-ab88-8f3c4fe0793a,S
2019-07-10 05:25:42,2bb00b48-001e-4ebc-ab88-8f3c4fe0793a,A
2019-07-10 05:31:44,2bb00b48-001e-4ebc-ab88-8f3c4fe0793a,S
2019-07-10 05:39:43,2bb00b48-001e-4ebc-ab88-8f3c4fe0793a,A
2019-07-10 04:19:32,43865805-8202-4f74-83b9-e4e78ad95b1c,A
2019-07-10 04:24:39,43865805-8202-4f74-83b9-e4e78ad95b1c,S
2019-07-10 04:25:42,43865805-8202-4f74-83b9-e4e78ad95b1c,A
2019-07-10 04:27:38,43865805-8202-4f74-83b9-e4e78ad95b1c,S
2019-07-10 04:35:13,43865805-8202-4f74-83b9-e4e78ad95b1c,A
2019-07-10 04:36:37,43865805-8202-4f74-83b9-e4e78ad95b1c,S
2019-07-10 04:46:31,43865805-8202-4f74-83b9-e4e78ad95b1c,A
2019-07-10 04:48:19,43865805-8202-4f74-83b9-e4e78ad95b1c,S
2019-07-10 04:53:13,43865805-8202-4f74-83b9-e4e78ad95b1c,A
2019-07-10 04:57:37,43865805-8202-4f74-83b9-e4e78ad95b1c,S
2019-07-10 05:06:21,43865805-8202-4f74-83b9-e4e78ad95b1c,A
2019-07-10 05:07:52,43865805-8202-4f74-83b9-e4e78ad95b1c,S
2019-07-10 05:09:46,43865805-8202-4f74-83b9-e4e78ad95b1c,A
2019-07-10 05:12:13,43865805-8202-4f74-83b9-e4e78ad95b1c,S
2019-07-10 05:16:27,43865805-8202-4f74-83b9-e4e78ad95b1c,A
2019-07-10 05:22:16,43865805-8202-4f74-83b9-e4e78ad95b1c,S
2019-07-10 05:27:46,43865805-8202-4f74-83b9-e4e78ad95b1c,A
2019-07-10 05:36:59,43865805-8202-4f74-83b9-e4e78ad95b1c,S
2019-07-10 03:35:34,5af063f0-e08c-4fa9-a1bd-10653774888a,A
2019-07-10 03:51:37,5af063f0-e08c-4fa9-a1bd-10653774888a,S
2019-07-10 03:54:51,5af063f0-e08c-4fa9-a1bd-10653774888a,A
2019-07-10 03:57:37,5af063f0-e08c-4fa9-a1bd-10653774888a,S
2019-07-10 03:58:08,5af063f0-e08c-4fa9-a1bd-10653774888a,A
2019-07-10 04:12:06,5af063f0-e08c-4fa9-a1bd-10653774888a,S
2019-07-10 04:15:35,5af063f0-e08c-4fa9-a1bd-10653774888a,A
2019-07-10 04:18:26,5af063f0-e08c-4fa9-a1bd-10653774888a,S
2019-07-10 04:22:26,5af063f0-e08c-4fa9-a1bd-10653774888a,A
2019-07-10 04:35:50,5af063f0-e08c-4fa9-a1bd-10653774888a,S
2019-07-10 04:36:01,5af063f0-e08c-4fa9-a1bd-10653774888a,A
2019-07-10 04:44:43,5af063f0-e08c-4fa9-a1bd-10653774888a,S
2019-07-10 04:48:59,5af063f0-e08c-4fa9-a1bd-10653774888a,A
2019-07-10 04:55:36,5af063f0-e08c-4fa9-a1bd-10653774888a,S
2019-07-10 04:58:08,5af063f0-e08c-4fa9-a1bd-10653774888a,A
2019-07-10 05:09:19,5af063f0-e08c-4fa9-a1bd-10653774888a,S
2019-07-10 05:11:13,5af063f0-e08c-4fa9-a1bd-10653774888a,A
2019-07-10 05:12:11,5af063f0-e08c-4fa9-a1bd-10653774888a,S
2019-07-10 05:15:04,5af063f0-e08c-4fa9-a1bd-10653774888a,A
2019-07-10 05:21:02,5af063f0-e08c-4fa9-a1bd-10653774888a,S
2019-07-10 05:29:50,5af063f0-e08c-4fa9-a1bd-10653774888a,A
2019-07-10 05:32:53,5af063f0-e08c-4fa9-a1bd-10653774888a,S
2019-07-10 05:34:44,5af063f0-e08c-4fa9-a1bd-10653774888a,A
2019-07-10 05:36:54,5af063f0-e08c-4fa9-a1bd-10653774888a,S
2019-07-10 04:14:34,4bbd4e69-2003-454b-b2f8-32d9ab460f5f,S
2019-07-10 04:16:29,4bbd4e69-2003-454b-b2f8-32d9ab460f5f,A
2019-07-10 04:16:58,4bbd4e69-2003-454b-b2f8-32d9ab460f5f,S
2019-07-10 04:25:17,4bbd4e69-2003-454b-b2f8-32d9ab460f5f,A
2019-07-10 04:28:09,4bbd4e69-2003-454b-b2f8-32d9ab460f5f,S
2019-07-10 04:34:30,4bbd4e69-2003-454b-b2f8-32d9ab460f5f,A
2019-07-10 04:39:06,4bbd4e69-2003-454b-b2f8-32d9ab460f5f,S
2019-07-10 04:40:19,4bbd4e69-2003-454b-b2f8-32d9ab460f5f,A
2019-07-10 04:49:03,4bbd4e69-2003-454b-b2f8-32d9ab460f5f,S
2019-07-10 04:50:37,4bbd4e69-2003-454b-b2f8-32d9ab460f5f,A
2019-07-10 04:58:39,4bbd4e69-2003-454b-b2f8-32d9ab460f5f,S
2019-07-10 04:58:52,4bbd4e69-2003-454b-b2f8-32d9ab460f5f,A
2019-07-10 05:05:27,4bbd4e69-2003-454b-b2f8-32d9ab460f5f,S
2019-07-10 05:10:21,4bbd4e69-2003-454b-b2f8-32d9ab460f5f,A
2019-07-10 05:11:16,4bbd4e69-2003-454b-b2f8-32d9ab460f5f,S
2019-07-10 05:13:13,4bbd4e69-2003-454b-b2f8-32d9ab460f5f,A
2019-07-10 05:13:14,4bbd4e69-2003-454b-b2f8-32d9ab460f5f,S
2019-07-10 05:14:34,4bbd4e69-2003-454b-b2f8-32d9ab460f5f,A
2019-07-10 05:17:20,4bbd4e69-2003-454b-b2f8-32d9ab460f5f,S
2019-07-10 05:24:47,4bbd4e69-2003-454b-b2f8-32d9ab460f5f,A
2019-07-10 05:26:20,4bbd4e69-2003-454b-b2f8-32d9ab460f5f,S
2019-07-10 05:26:55,4bbd4e69-2003-454b-b2f8-32d9ab460f5f,A
2019-07-10 05:33:58,4bbd4e69-2003-454b-b2f8-32d9ab460f5f,S
2019-07-10 05:37:27,4bbd4e69-2003-454b-b2f8-32d9ab460f5f,A
2019-07-10 03:44:29,ea2f3a5e-a36d-4bee-ae82-8dd3bc5359d8,S
2019-07-10 04:00:36,ea2f3a5e-a36d-4bee-ae82-8dd3bc5359d8,A
2019-07-10 04:01:48,ea2f3a5e-a36d-4bee-ae82-8dd3bc5359d8,S
2019-07-10 04:06:37,ea2f3a5e-a36d-4bee-ae82-8dd3bc5359d8,A
2019-07-10 04:07:43,ea2f3a5e-a36d-4bee-ae82-8dd3bc5359d8,S
2019-07-10 04:10:30,ea2f3a5e-a36d-4bee-ae82-8dd3bc5359d8,A
2019-07-10 04:15:42,ea2f3a5e-a36d-4bee-ae82-8dd3bc5359d8,S
2019-07-10 04:17:52,ea2f3a5e-a36d-4bee-ae82-8dd3bc5359d8,A
2019-07-10 04:21:21,ea2f3a5e-a36d-4bee-ae82-8dd3bc5359d8,S
2019-07-10 04:26:57,ea2f3a5e-a36d-4bee-ae82-8dd3bc5359d8,A
2019-07-10 04:37:27,ea2f3a5e-a36d-4bee-ae82-8dd3bc5359d8,S
2019-07-10 04:43:08,ea2f3a5e-a36d-4bee-ae82-8dd3bc5359d8,A
2019-07-10 04:45:06,ea2f3a5e-a36d-4bee-ae82-8dd3bc5359d8,S
2019-07-10 04:47:07,ea2f3a5e-a36d-4bee-ae82-8dd3bc5359d8,A
2019-07-10 04:55:24,ea2f3a5e-a36d-4bee-ae82-8dd3bc5359d8,S
2019-07-10 04:57:34,ea2f3a5e-a36d-4bee-ae82-8dd3bc5359d8,A
2019-07-10 05:02:34,ea2f3a5e-a36d-4bee-ae82-8dd3bc5359d8,S
2019-07-10 05:05:27,ea2f3a5e-a36d-4bee-ae82-8dd3bc5359d8,A
2019-07-10 05:06:35,ea2f3a5e-a36d-4bee-ae82-8dd3bc5359d8,S
2019-07-10 05:11:30,ea2f3a5e-a36d-4bee-ae82-8dd3bc5359d8,A
2019-07-10 05:14:22,ea2f3a5e-a36d-4bee-ae82-8dd3bc5359d8,S
2019-07-10 05:18:12,ea2f3a5e-a36d-4bee-ae82-8dd3bc5359d8,A
2019-07-10 05:20:32,ea2f3a5e-a36d-4bee-ae82-8dd3bc5359d8,S
2019-07-10 05:24:18,ea2f3a5e-a36d-4bee-ae82-8dd3bc5359d8,A
2019-07-10 05:29:43,ea2f3a5e-a36d-4bee-ae82-8dd3bc5359d8,S
2019-07-10 05:30:50,ea2f3a5e-a36d-4bee-ae82-8dd3bc5359d8,A
2019-07-10 05:36:35,ea2f3a5e-a36d-4bee-ae82-8dd3bc5359d8,S
2019-07-10 05:37:32,ea2f3a5e-a36d-4bee-ae82-8dd3bc5359d8,A
2019-07-10 05:39:02,ea2f3a5e-a36d-4bee-ae82-8dd3bc5359d8,S
2019-07-10 05:39:34,ea2f3a5e-a36d-4bee-ae82-8dd3bc5359d8,A
2019-07-10 03:44:57,b98d5316-4bbc-4b41-9bb7-3ae490d53268,S
2019-07-10 03:49:04,b98d5316-4bbc-4b41-9bb7-3ae490d53268,A
2019-07-10 03:59:27,b98d5316-4bbc-4b41-9bb7-3ae490d53268,S
2019-07-10 04:01:01,b98d5316-4bbc-4b41-9bb7-3ae490d53268,A
2019-07-10 04:08:32,b98d5316-4bbc-4b41-9bb7-3ae490d53268,S
2019-07-10 04:08:47,b98d5316-4bbc-4b41-9bb7-3ae490d53268,A
2019-07-10 04:10:12,b98d5316-4bbc-4b41-9bb7-3ae490d53268,S
2019-07-10 04:27:29,b98d5316-4bbc-4b41-9bb7-3ae490d53268,A
2019-07-10 04:33:15,b98d5316-4bbc-4b41-9bb7-3ae490d53268,S
2019-07-10 04:36:50,b98d5316-4bbc-4b41-9bb7-3ae490d53268,A
2019-07-10 04:40:02,b98d5316-4bbc-4b41-9bb7-3ae490d53268,S
2019-07-10 04:40:18,b98d5316-4bbc-4b41-9bb7-3ae490d53268,A
2019-07-10 04:58:53,b98d5316-4bbc-4b41-9bb7-3ae490d53268,S
2019-07-10 04:59:19,b98d5316-4bbc-4b41-9bb7-3ae490d53268,A
2019-07-10 05:02:10,b98d5316-4bbc-4b41-9bb7-3ae490d53268,S
2019-07-10 05:15:42,b98d5316-4bbc-4b41-9bb7-3ae490d53268,A
2019-07-10 05:19:00,b98d5316-4bbc-4b41-9bb7-3ae490d53268,S
2019-07-10 05:21:28,b98d5316-4bbc-4b41-9bb7-3ae490d53268,A
2019-07-10 05:22:05,b98d5316-4bbc-4b41-9bb7-3ae490d53268,S
2019-07-10 05:27:19,b98d5316-4bbc-4b41-9bb7-3ae490d53268,A
2019-07-10 05:31:59,b98d5316-4bbc-4b41-9bb7-3ae490d53268,S
2019-07-10 05:35:56,b98d5316-4bbc-4b41-9bb7-3ae490d53268,A
2019-07-10 05:37:48,b98d5316-4bbc-4b41-9bb7-3ae490d53268,S
2019-07-10 05:38:46,b98d5316-4bbc-4b41-9bb7-3ae490d53268,A
2019-07-10 03:51:33,7eec71a9-0395-4ff7-938c-342fa9bc364a,S
2019-07-10 04:03:38,7eec71a9-0395-4ff7-938c-342fa9bc364a,A
2019-07-10 04:21:59,7eec71a9-0395-4ff7-938c-342fa9bc364a,S
2019-07-10 04:24:23,7eec71a9-0395-4ff7-938c-342fa9bc364a,A
2019-07-10 04:27:41,7eec71a9-0395-4ff7-938c-342fa9bc364a,S
2019-07-10 04:31:01,7eec71a9-0395-4ff7-938c-342fa9bc364a,A
2019-07-10 04:42:31,7eec71a9-0395-4ff7-938c-342fa9bc364a,S
2019-07-10 04:43:20,7eec71a9-0395-4ff7-938c-342fa9bc364a,A
2019-07-10 04:44:59,7eec71a9-0395-4ff7-938c-342fa9bc364a,S
2019-07-10 04:45:52,7eec71a9-0395-4ff7-938c-342fa9bc364a,A
2019-07-10 05:03:16,7eec71a9-0395-4ff7-938c-342fa9bc364a,S
2019-07-10 05:03:22,7eec71a9-0395-4ff7-938c-342fa9bc364a,A
2019-07-10 05:06:31,7eec71a9-0395-4ff7-938c-342fa9bc364a,S
2019-07-10 05:09:58,7eec71a9-0395-4ff7-938c-342fa9bc364a,A
2019-07-10 05:12:12,7eec71a9-0395-4ff7-938c-342fa9bc364a,S
2019-07-10 05:18:09,7eec71a9-0395-4ff7-938c-342fa9bc364a,A
2019-07-10 05:19:31,7eec71a9-0395-4ff7-938c-342fa9bc364a,S
2019-07-10 05:23:27,7eec71a9-0395-4ff7-938c-342fa9bc364a,A
2019-07-10 05:29:00,7eec71a9-0395-4ff7-938c-342fa9bc364a,S
2019-07-10 05:40:32,7eec71a9-0395-4ff7-938c-342fa9bc364a,A
2019-07-10 03:48:22,2b4649cc-35d4-4c08-a51c-1cb7bd138292,A
2019-07-10 03:51:13,2b4649cc-35d4-4c08-a51c-1cb7bd138292,S
2019-07-10 03:56:20,2b4649cc-35d4-4c08-a51c-1cb7bd138292,A
2019-07-10 04:11:47,2b4649cc-35d4-4c08-a51c-1cb7bd138292,S
2019-07-10 04:20:50,2b4649cc-35d4-4c08-a51c-1cb7bd138292,A
2019-07-10 04:30:33,2b4649cc-35d4-4c08-a51c-1cb7bd138292,S
2019-07-10 04:39:04,2b4649cc-35d4-4c08-a51c-1cb7bd138292,A
2019-07-10 04:39:50,2b4649cc-35d4-4c08-a51c-1cb7bd138292,S
2019-07-10 04:40:08,2b4649cc-35d4-4c08-a51c-1cb7bd138292,A
2019-07-10 04:48:47,2b4649cc-35d4-4c08-a51c-1cb7bd138292,S
2019-07-10 04:51:46,2b4649cc-35d4-4c08-a51c-1cb7bd138292,A
2019-07-10 04:51:48,2b4649cc-35d4-4c08-a51c-1cb7bd138292,S
2019-07-10 04:53:00,2b4649cc-35d4-4c08-a51c-1cb7bd138292,A
2019-07-10 04:54:50,2b4649cc-35d4-4c08-a51c-1cb7bd138292,S
2019-07-10 04:56:40,2b4649cc-35d4-4c08-a51c-1cb7bd138292,A
2019-07-10 04:57:39,2b4649cc-35d4-4c08-a51c-1cb7bd138292,S
2019-07-10 04:59:23,2b4649cc-35d4-4c08-a51c-1cb7bd138292,A
2019-07-10 05:08:38,2b4649cc-35d4-4c08-a51c-1cb7bd138292,S
2019-07-10 05:10:45,2b4649cc-35d4-4c08-a51c-1cb7bd138292,A
2019-07-10 05:11:44,2b4649cc-35d4-4c08-a51c-1cb7bd138292,S
2019-07-10 05:14:11,2b4649cc-35d4-4c08-a51c-1cb7bd138292,A
2019-07-10 05:22:56,2b4649cc-35d4-4c08-a51c-1cb7bd138292,S
2019-07-10 05:25:13,2b4649cc-35d4-4c08-a51c-1cb7bd138292,A
2019-07-10 05:30:05,2b4649cc-35d4-4c08-a51c-1cb7bd138292,S
2019-07-10 05:30:18,2b4649cc-35d4-4c08-a51c-1cb7bd138292,A
2019-07-10 05:30:52,2b4649cc-35d4-4c08-a51c-1cb7bd138292,S
2019-07-10 05:34:21,2b4649cc-35d4-4c08-a51c-1cb7bd138292,A
2019-07-10 05:35:47,2b4649cc-35d4-4c08-a51c-1cb7bd138292,S
2019-07-10 04:06:57,035462fb-a1eb-4972-aebe-8447169d89fd,S
2019-07-10 04:19:12,035462fb-a1eb-4972-aebe-8447169d89fd,A
2019-07-10 04:29:20,035462fb-a1eb-4972-aebe-8447169d89fd,S
2019-07-10 04:30:38,035462fb-a1eb-4972-aebe-8447169d89fd,A
2019-07-10 04:32:37,035462fb-a1eb-4972-aebe-8447169d89fd,S
2019-07-10 04:39:16,035462fb-a1eb-4972-aebe-8447169d89fd,A
2019-07-10 04:40:03,035462fb-a1eb-4972-aebe-8447169d89fd,S
2019-07-10 04:42:25,035462fb-a1eb-4972-aebe-8447169d89fd,A
2019-07-10 04:43:16,035462fb-a1eb-4972-aebe-8447169d89fd,S
2019-07-10 04:43:38,035462fb-a1eb-4972-aebe-8447169d89fd,A
2019-07-10 04:43:56,035462fb-a1eb-4972-aebe-8447169d89fd,S
2019-07-10 04:50:53,035462fb-a1eb-4972-aebe-8447169d89fd,A
2019-07-10 05:03:43,035462fb-a1eb-4972-aebe-8447169d89fd,S
2019-07-10 05:08:20,035462fb-a1eb-4972-aebe-8447169d89fd,A
2019-07-10 05:08:59,035462fb-a1eb-4972-aebe-8447169d89fd,S
2019-07-10 05:25:54,035462fb-a1eb-4972-aebe-8447169d89fd,A
2019-07-10 05:28:15,035462fb-a1eb-4972-aebe-8447169d89fd,S
2019-07-10 05:28:28,035462fb-a1eb-4972-aebe-8447169d89fd,A
2019-07-10 05:29:48,035462fb-a1eb-4972-aebe-8447169d89fd,S
2019-07-10 05:32:14,035462fb-a1eb-4972-aebe-8447169d89fd,A
2019-07-10 05:37:42,035462fb-a1eb-4972-aebe-8447169d89fd,S
2019-07-10 05:40:45,035462fb-a1eb-4972-aebe-8447169d89fd,A
2019-07-10 04:08:59,597465ef-2fd5-49e6-a8b2-978e7ff2bed2,A
2019-07-10 04:12:28,597465ef-2fd5-49e6-a8b2-978e7ff2bed2,S
2019-07-10 04:14:43,597465ef-2fd5-49e6-a8b2-978e7ff2bed2,A
2019-07-10 04:16:45,597465ef-2fd5-49e6-a8b2-978e7ff2bed2,S
2019-07-10 04:17:20,597465ef-2fd5-49e6-a8b2-978e7ff2bed2,A
2019-07-10 04:19:55,597465ef-2fd5-49e6-a8b2-978e7ff2bed2,S
2019-07-10 04:26:46,597465ef-2fd5-49e6-a8b2-978e7ff2bed2,A
2019-07-10 04:28:14,597465ef-2fd5-49e6-a8b2-978e7ff2bed2,S
2019-07-10 04:38:30,597465ef-2fd5-49e6-a8b2-978e7ff2bed2,A
2019-07-10 05:17:35,597465ef-2fd5-49e6-a8b2-978e7ff2bed2,S
2019-07-10 05:27:29,597465ef-2fd5-49e6-a8b2-978e7ff2bed2,A
2019-07-10 05:27:33,597465ef-2fd5-49e6-a8b2-978e7ff2bed2,S
2019-07-10 05:28:15,597465ef-2fd5-49e6-a8b2-978e7ff2bed2,A
2019-07-10 05:31:19,597465ef-2fd5-49e6-a8b2-978e7ff2bed2,S
2019-07-10 05:32:40,597465ef-2fd5-49e6-a8b2-978e7ff2bed2,A
2019-07-10 05:34:01,597465ef-2fd5-49e6-a8b2-978e7ff2bed2,S
2019-07-10 05:38:11,597465ef-2fd5-49e6-a8b2-978e7ff2bed2,A
2019-07-10 05:39:45,597465ef-2fd5-49e6-a8b2-978e7ff2bed2,S
2019-07-10 05:39:51,597465ef-2fd5-49e6-a8b2-978e7ff2bed2,A
2019-07-10 03:48:56,49e9d860-e379-4ad8-add3-7fe5f86ca2f6,A
2019-07-10 03:54:59,49e9d860-e379-4ad8-add3-7fe5f86ca2f6,S
2019-07-10 03:57:47,49e9d860-e379-4ad8-add3-7fe5f86ca2f6,A
2019-07-10 03:58:25,49e9d860-e379-4ad8-add3-7fe5f86ca2f6,S
2019-07-10 03:59:11,49e9d860-e379-4ad8-add3-7fe5f86ca2f6,A
2019-07-10 03:53:32,95c1ca92-d89a-4459-80c4-18ae398250ec,A
2019-07-10 03:57:14,95c1ca92-d89a-4459-80c4-18ae398250ec,S
2019-07-10 04:00:33,95c1ca92-d89a-4459-80c4-18ae398250ec,A
2019-07-10 04:02:13,95c1ca92-d89a-4459-80c4-18ae398250ec,S
2019-07-10 04:17:43,95c1ca92-d89a-4459-80c4-18ae398250ec,A
2019-07-10 04:19:28,95c1ca92-d89a-4459-80c4-18ae398250ec,S
2019-07-10 04:19:50,95c1ca92-d89a-4459-80c4-18ae398250ec,A
2019-07-10 04:41:38,95c1ca92-d89a-4459-80c4-18ae398250ec,S
2019-07-10 04:48:49,95c1ca92-d89a-4459-80c4-18ae398250ec,A
2019-07-10 04:53:10,95c1ca92-d89a-4459-80c4-18ae398250ec,S
2019-07-10 04:53:50,95c1ca92-d89a-4459-80c4-18ae398250ec,A
2019-07-10 04:58:04,95c1ca92-d89a-4459-80c4-18ae398250ec,S
2019-07-10 04:59:55,95c1ca92-d89a-4459-80c4-18ae398250ec,A
2019-07-10 05:02:37,95c1ca92-d89a-4459-80c4-18ae398250ec,S
2019-07-10 05:11:51,95c1ca92-d89a-4459-80c4-18ae398250ec,A
2019-07-10 05:19:28,95c1ca92-d89a-4459-80c4-18ae398250ec,S
2019-07-10 05:24:24,95c1ca92-d89a-4459-80c4-18ae398250ec,A
2019-07-10 05:31:02,95c1ca92-d89a-4459-80c4-18ae398250ec,S
2019-07-10 04:23:42,b747d35e-dc1e-4360-88fb-933b11b3b4b0,S
2019-07-10 04:26:01,b747d35e-dc1e-4360-88fb-933b11b3b4b0,A
2019-07-10 04:32:32,b747d35e-dc1e-4360-88fb-933b11b3b4b0,S
2019-07-10 04:33:30,b747d35e-dc1e-4360-88fb-933b11b3b4b0,A
2019-07-10 04:33:51,b747d35e-dc1e-4360-88fb-933b11b3b4b0,S
2019-07-10 04:39:00,b747d35e-dc1e-4360-88fb-933b11b3b4b0,A
2019-07-10 04:43:54,b747d35e-dc1e-4360-88fb-933b11b3b4b0,S
2019-07-10 04:48:34,b747d35e-dc1e-4360-88fb-933b11b3b4b0,A
2019-07-10 05:01:33,b747d35e-dc1e-4360-88fb-933b11b3b4b0,S
2019-07-10 05:19:03,b747d35e-dc1e-4360-88fb-933b11b3b4b0,A
2019-07-10 05:23:46,b747d35e-dc1e-4360-88fb-933b11b3b4b0,S
2019-07-10 05:25:54,b747d35e-dc1e-4360-88fb-933b11b3b4b0,A
2019-07-10 05:27:08,b747d35e-dc1e-4360-88fb-933b11b3b4b0,S
2019-07-10 05:28:30,b747d35e-dc1e-4360-88fb-933b11b3b4b0,A
2019-07-10 05:29:14,b747d35e-dc1e-4360-88fb-933b11b3b4b0,S
2019-07-10 05:29:47,b747d35e-dc1e-4360-88fb-933b11b3b4b0,A
2019-07-10 05:30:52,b747d35e-dc1e-4360-88fb-933b11b3b4b0,S
2019-07-10 05:37:32,b747d35e-dc1e-4360-88fb-933b11b3b4b0,A
2019-07-10 05:37:52,b747d35e-dc1e-4360-88fb-933b11b3b4b0,S
2019-07-10 05:38:40,b747d35e-dc1e-4360-88fb-933b11b3b4b0,A
2019-07-10 05:38:41,b747d35e-dc1e-4360-88fb-933b11b3b4b0,S
2019-07-10 03:36:01,c32aa0fd-0c3b-419f-97c0-1f5323c8f24b,S
2019-07-10 03:40:04,c32aa0fd-0c3b-419f-97c0-1f5323c8f24b,A
2019-07-10 03:40:54,c32aa0fd-0c3b-419f-97c0-1f5323c8f24b,S
2019-07-10 03:46:07,c32aa0fd-0c3b-419f-97c0-1f5323c8f24b,A
2019-07-10 03:51:00,c32aa0fd-0c3b-419f-97c0-1f5323c8f24b,S
2019-07-10 03:55:59,c32aa0fd-0c3b-419f-97c0-1f5323c8f24b,A
2019-07-10 03:58:33,c32aa0fd-0c3b-419f-97c0-1f5323c8f24b,S
2019-07-10 03:59:20,c32aa0fd-0c3b-419f-97c0-1f5323c8f24b,A
2019-07-10 03:32:03,9795f5b0-6c6f-42aa-a9b8-db3574d2475c,A
2019-07-10 03:36:19,9795f5b0-6c6f-42aa-a9b8-db3574d2475c,S
2019-07-10 03:38:36,9795f5b0-6c6f-42aa-a9b8-db3574d2475c,A
2019-07-10 03:46:19,9795f5b0-6c6f-42aa-a9b8-db3574d2475c,S
2019-07-10 03:55:37,9795f5b0-6c6f-42aa-a9b8-db3574d2475c,A
2019-07-10 03:59:58,9795f5b0-6c6f-42aa-a9b8-db3574d2475c,S
2019-07-10 04:04:32,9795f5b0-6c6f-42aa-a9b8-db3574d2475c,A
2019-07-10 04:19:49,9795f5b0-6c6f-42aa-a9b8-db3574d2475c,S
2019-07-10 04:24:41,9795f5b0-6c6f-42aa-a9b8-db3574d2475c,A
2019-07-10 04:37:30,9795f5b0-6c6f-42aa-a9b8-db3574d2475c,S
2019-07-10 04:37:59,9795f5b0-6c6f-42aa-a9b8-db3574d2475c,A
2019-07-10 04:45:12,9795f5b0-6c6f-42aa-a9b8-db3574d2475c,S
2019-07-10 04:53:07,9795f5b0-6c6f-42aa-a9b8-db3574d2475c,A
2019-07-10 04:54:16,9795f5b0-6c6f-42aa-a9b8-db3574d2475c,S
2019-07-10 04:55:50,9795f5b0-6c6f-42aa-a9b8-db3574d2475c,A
2019-07-10 04:56:26,9795f5b0-6c6f-42aa-a9b8-db3574d2475c,S
2019-07-10 04:57:59,9795f5b0-6c6f-42aa-a9b8-db3574d2475c,A
2019-07-10 04:58:35,9795f5b0-6c6f-42aa-a9b8-db3574d2475c,S
2019-07-10 04:58:41,9795f5b0-6c6f-42aa-a9b8-db3574d2475c,A
2019-07-10 04:59:03,9795f5b0-6c6f-42aa-a9b8-db3574d2475c,S
2019-07-10 04:59:59,9795f5b0-6c6f-42aa-a9b8-db3574d2475c,A
2019-07-10 05:07:24,9795f5b0-6c6f-42aa-a9b8-db3574d2475c,S
2019-07-10 05:19:42,9795f5b0-6c6f-42aa-a9b8-db3574d2475c,A
2019-07-10 05:20:21,9795f5b0-6c6f-42aa-a9b8-db3574d2475c,S
2019-07-10 05:38:50,9795f5b0-6c6f-42aa-a9b8-db3574d2475c,A
2019-07-10 03:46:22,e719a1e5-d900-48b3-ad69-856924dbef48,S
2019-07-10 03:52:34,e719a1e5-d900-48b3-ad69-856924dbef48,A
2019-07-10 03:56:58,e719a1e5-d900-48b3-ad69-856924dbef48,S
2019-07-10 04:07:30,e719a1e5-d900-48b3-ad69-856924dbef48,A
2019-07-10 04:07:50,e719a1e5-d900-48b3-ad69-856924dbef48,S
2019-07-10 04:13:18,e719a1e5-d900-48b3-ad69-856924dbef48,A
2019-07-10 04:13:53,e719a1e5-d900-48b3-ad69-856924dbef48,S
2019-07-10 04:14:30,e719a1e5-d900-48b3-ad69-856924dbef48,A
2019-07-10 04:17:02,e719a1e5-d900-48b3-ad69-856924dbef48,S
2019-07-10 04:17:22,e719a1e5-d900-48b3-ad69-856924dbef48,A
2019-07-10 04:18:13,e719a1e5-d900-48b3-ad69-856924dbef48,S
2019-07-10 04:33:46,e719a1e5-d900-48b3-ad69-856924dbef48,A
2019-07-10 04:35:05,e719a1e5-d900-48b3-ad69-856924dbef48,S
2019-07-10 04:38:13,e719a1e5-d900-48b3-ad69-856924dbef48,A
2019-07-10 04:50:07,e719a1e5-d900-48b3-ad69-856924dbef48,S
2019-07-10 04:51:34,e719a1e5-d900-48b3-ad69-856924dbef48,A
2019-07-10 04:52:43,e719a1e5-d900-48b3-ad69-856924dbef48,S
2019-07-10 04:53:34,e719a1e5-d900-48b3-ad69-856924dbef48,A
2019-07-10 04:53:57,e719a1e5-d900-48b3-ad69-856924dbef48,S
2019-07-10 05:00:27,e719a1e5-d900-48b3-ad69-856924dbef48,A
2019-07-10 05:31:06,e719a1e5-d900-48b3-ad69-856924dbef48,S
2019-07-10 05:34:52,e719a1e5-d900-48b3-ad69-856924dbef48,A
2019-07-10 04:20:18,c844773b-51ba-4edb-ad22-c6aa1f1a8451,S
2019-07-10 04:22:29,c844773b-51ba-4edb-ad22-c6aa1f1a8451,A
2019-07-10 04:25:15,c844773b-51ba-4edb-ad22-c6aa1f1a8451,S
2019-07-10 04:42:11,c844773b-51ba-4edb-ad22-c6aa1f1a8451,A
2019-07-10 04:43:51,c844773b-51ba-4edb-ad22-c6aa1f1a8451,S
2019-07-10 04:44:58,c844773b-51ba-4edb-ad22-c6aa1f1a8451,A
2019-07-10 04:50:12,c844773b-51ba-4edb-ad22-c6aa1f1a8451,S
2019-07-10 04:58:51,c844773b-51ba-4edb-ad22-c6aa1f1a8451,A
2019-07-10 05:00:48,c844773b-51ba-4edb-ad22-c6aa1f1a8451,S
2019-07-10 05:08:23,c844773b-51ba-4edb-ad22-c6aa1f1a8451,A
2019-07-10 05:09:12,c844773b-51ba-4edb-ad22-c6aa1f1a8451,S
2019-07-10 05:20:59,c844773b-51ba-4edb-ad22-c6aa1f1a8451,A
2019-07-10 03:38:02,5ff07142-401f-4ba0-ba0b-54d61b53fd9c,A
2019-07-10 03:41:30,5ff07142-401f-4ba0-ba0b-54d61b53fd9c,S
2019-07-10 03:50:03,5ff07142-401f-4ba0-ba0b-54d61b53fd9c,A
2019-07-10 03:53:07,5ff07142-401f-4ba0-ba0b-54d61b53fd9c,S
2019-07-10 03:53:23,5ff07142-401f-4ba0-ba0b-54d61b53fd9c,A
2019-07-10 03:55:51,5ff07142-401f-4ba0-ba0b-54d61b53fd9c,S
2019-07-10 04:01:11,5ff07142-401f-4ba0-ba0b-54d61b53fd9c,A
2019-07-10 04:05:07,5ff07142-401f-4ba0-ba0b-54d61b53fd9c,S
2019-07-10 04:07:51,5ff07142-401f-4ba0-ba0b-54d61b53fd9c,A
2019-07-10 04:18:39,5ff07142-401f-4ba0-ba0b-54d61b53fd9c,S
2019-07-10 04:24:17,5ff07142-401f-4ba0-ba0b-54d61b53fd9c,A
2019-07-10 04:46:51,5ff07142-401f-4ba0-ba0b-54d61b53fd9c,S
2019-07-10 05:11:12,5ff07142-401f-4ba0-ba0b-54d61b53fd9c,A
2019-07-10 05:17:46,5ff07142-401f-4ba0-ba0b-54d61b53fd9c,S
2019-07-10 05:21:12,5ff07142-401f-4ba0-ba0b-54d61b53fd9c,A
2019-07-10 04:08:09,cd450f8e-baad-4322-99c4-d883fbacaa46,S
2019-07-10 04:10:27,cd450f8e-baad-4322-99c4-d883fbacaa46,A
2019-07-10 04:15:39,cd450f8e-baad-4322-99c4-d883fbacaa46,S
2019-07-10 04:23:45,cd450f8e-baad-4322-99c4-d883fbacaa46,A
2019-07-10 04:31:09,cd450f8e-baad-4322-99c4-d883fbacaa46,S
2019-07-10 04:31:31,cd450f8e-baad-4322-99c4-d883fbacaa46,A
2019-07-10 04:37:04,cd450f8e-baad-4322-99c4-d883fbacaa46,S
2019-07-10 04:48:07,cd450f8e-baad-4322-99c4-d883fbacaa46,A
2019-07-10 04:52:31,cd450f8e-baad-4322-99c4-d883fbacaa46,S
2019-07-10 04:55:19,cd450f8e-baad-4322-99c4-d883fbacaa46,A
2019-07-10 05:02:01,cd450f8e-baad-4322-99c4-d883fbacaa46,S
2019-07-10 05:02:51,cd450f8e-baad-4322-99c4-d883fbacaa46,A
2019-07-10 05:05:37,cd450f8e-baad-4322-99c4-d883fbacaa46,S
2019-07-10 05:09:27,cd450f8e-baad-4322-99c4-d883fbacaa46,A
2019-07-10 05:15:55,cd450f8e-baad-4322-99c4-d883fbacaa46,S
2019-07-10 05:19:00,cd450f8e-baad-4322-99c4-d883fbacaa46,A
2019-07-10 05:31:20,cd450f8e-baad-4322-99c4-d883fbacaa46,S
2019-07-10 05:36:07,cd450f8e-baad-4322-99c4-d883fbacaa46,A
2019-07-10 05:38:11,cd450f8e-baad-4322-99c4-d883fbacaa46,S
2019-07-10 05:41:59,cd450f8e-baad-4322-99c4-d883fbacaa46,A
2019-07-10 03:48:19,39693166-76fb-4837-84ff-73e8899ed8d2,S
2019-07-10 04:00:14,39693166-76fb-4837-84ff-73e8899ed8d2,A
2019-07-10 04:00:32,39693166-76fb-4837-84ff-73e8899ed8d2,S
2019-07-10 04:15:56,39693166-76fb-4837-84ff-73e8899ed8d2,A
2019-07-10 04:18:49,39693166-76fb-4837-84ff-73e8899ed8d2,S
2019-07-10 04:20:49,39693166-76fb-4837-84ff-73e8899ed8d2,A
2019-07-10 04:28:55,39693166-76fb-4837-84ff-73e8899ed8d2,S
2019-07-10 04:29:51,39693166-76fb-4837-84ff-73e8899ed8d2,A
2019-07-10 04:32:04,39693166-76fb-4837-84ff-73e8899ed8d2,S
2019-07-10 04:46:29,39693166-76fb-4837-84ff-73e8899ed8d2,A
2019-07-10 04:51:47,39693166-76fb-4837-84ff-73e8899ed8d2,S
2019-07-10 04:53:20,39693166-76fb-4837-84ff-73e8899ed8d2,A
2019-07-10 04:54:08,39693166-76fb-4837-84ff-73e8899ed8d2,S
2019-07-10 04:56:05,39693166-76fb-4837-84ff-73e8899ed8d2,A
2019-07-10 04:59:22,39693166-76fb-4837-84ff-73e8899ed8d2,S
2019-07-10 04:59:29,39693166-76fb-4837-84ff-73e8899ed8d2,A
2019-07-10 05:11:48,39693166-76fb-4837-84ff-73e8899ed8d2,S
2019-07-10 05:13:09,39693166-76fb-4837-84ff-73e8899ed8d2,A
2019-07-10 05:18:01,39693166-76fb-4837-84ff-73e8899ed8d2,S
2019-07-10 05:21:27,39693166-76fb-4837-84ff-73e8899ed8d2,A
2019-07-10 05:22:41,39693166-76fb-4837-84ff-73e8899ed8d2,S
2019-07-10 05:23:23,39693166-76fb-4837-84ff-73e8899ed8d2,A
2019-07-10 05:36:03,39693166-76fb-4837-84ff-73e8899ed8d2,S
2019-07-10 05:37:31,39693166-76fb-4837-84ff-73e8899ed8d2,A
2019-07-10 05:38:45,39693166-76fb-4837-84ff-73e8899ed8d2,S
2019-07-10 05:41:22,39693166-76fb-4837-84ff-73e8899ed8d2,A
2019-07-10 03:38:21,8f0eb1a9-af45-4a25-884b-4b4aba46a68f,S
2019-07-10 03:39:53,8f0eb1a9-af45-4a25-884b-4b4aba46a68f,A
2019-07-10 03:40:41,8f0eb1a9-af45-4a25-884b-4b4aba46a68f,S
2019-07-10 03:40:48,8f0eb1a9-af45-4a25-884b-4b4aba46a68f,A
2019-07-10 03:40:53,8f0eb1a9-af45-4a25-884b-4b4aba46a68f,S
2019-07-10 03:41:18,8f0eb1a9-af45-4a25-884b-4b4aba46a68f,A
2019-07-10 03:46:03,8f0eb1a9-af45-4a25-884b-4b4aba46a68f,S
2019-07-10 03:50:11,8f0eb1a9-af45-4a25-884b-4b4aba46a68f,A
2019-07-10 03:51:59,8f0eb1a9-af45-4a25-884b-4b4aba46a68f,S
2019-07-10 03:54:12,8f0eb1a9-af45-4a25-884b-4b4aba46a68f,A
2019-07-10 04:04:51,8f0eb1a9-af45-4a25-884b-4b4aba46a68f,S
2019-07-10 04:06:53,8f0eb1a9-af45-4a25-884b-4b4aba46a68f,A
2019-07-10 04:16:02,8f0eb1a9-af45-4a25-884b-4b4aba46a68f,S
2019-07-10 04:18:38,8f0eb1a9-af45-4a25-884b-4b4aba46a68f,A
2019-07-10 04:27:13,8f0eb1a9-af45-4a25-884b-4b4aba46a68f,S
2019-07-10 04:29:15,8f0eb1a9-af45-4a25-884b-4b4aba46a68f,A
2019-07-10 04:31:04,8f0eb1a9-af45-4a25-884b-4b4aba46a68f,S
2019-07-10 04:34:07,8f0eb1a9-af45-4a25-884b-4b4aba46a68f,A
2019-07-10 04:34:15,8f0eb1a9-af45-4a25-884b-4b4aba46a68f,S
2019-07-10 04:46:18,8f0eb1a9-af45-4a25-884b-4b4aba46a68f,A
2019-07-10 04:49:57,8f0eb1a9-af45-4a25-884b-4b4aba46a68f,S
2019-07-10 05:01:41,8f0eb1a9-af45-4a25-884b-4b4aba46a68f,A
2019-07-10 05:02:25,8f0eb1a9-af45-4a25-884b-4b4aba46a68f,S
2019-07-10 05:09:19,8f0eb1a9-af45-4a25-884b-4b4aba46a68f,A
2019-07-10 05:10:39,8f0eb1a9-af45-4a25-884b-4b4aba46a68f,S
2019-07-10 05:13:06,8f0eb1a9-af45-4a25-884b-4b4aba46a68f,A
2019-07-10 05:21:31,8f0eb1a9-af45-4a25-884b-4b4aba46a68f,S
2019-07-10 05:29:40,8f0eb1a9-af45-4a25-884b-4b4aba46a68f,A
2019-07-10 05:39:50,8f0eb1a9-af45-4a25-884b-4b4aba46a68f,S
2019-07-10 05:41:48,8f0eb1a9-af45-4a25-884b-4b4aba46a68f,A
2019-07-10 03:50:45,09b3160f-a25a-468b-b788-b961456702bd,A
2019-07-10 03:57:38,09b3160f-a25a-468b-b788-b961456702bd,S
2019-07-10 04:02:24,09b3160f-a25a-468b-b788-b961456702bd,A
2019-07-10 04:08:58,09b3160f-a25a-468b-b788-b961456702bd,S
2019-07-10 04:14:52,09b3160f-a25a-468b-b788-b961456702bd,A
2019-07-10 04:25:30,09b3160f-a25a-468b-b788-b961456702bd,S
2019-07-10 04:32:46,09b3160f-a25a-468b-b788-b961456702bd,A
2019-07-10 04:35:12,09b3160f-a25a-468b-b788-b961456702bd,S
2019-07-10 04:36:53,09b3160f-a25a-468b-b788-b961456702bd,A
2019-07-10 04:41:31,09b3160f-a25a-468b-b788-b961456702bd,S
2019-07-10 04:46:31,09b3160f-a25a-468b-b788-b961456702bd,A
2019-07-10 04:56:27,09b3160f-a25a-468b-b788-b961456702bd,S
2019-07-10 04:56:30,09b3160f-a25a-468b-b788-b961456702bd,A
2019-07-10 05:01:10,09b3160f-a25a-468b-b788-b961456702bd,S
2019-07-10 05:02:55,09b3160f-a25a-468b-b788-b961456702bd,A
2019-07-10 05:09:38,09b3160f-a25a-468b-b788-b961456702bd,S
2019-07-10 05:09:44,09b3160f-a25a-468b-b788-b961456702bd,A
2019-07-10 05:12:26,09b3160f-a25a-468b-b788-b961456702bd,S
2019-07-10 05:19:19,09b3160f-a25a-468b-b788-b961456702bd,A
2019-07-10 05:40:13,09b3160f-a25a-468b-b788-b961456702bd,S
2019-07-10 04:06:08,6f5c9ced-ac45-4953-867d-0aa44ff8c643,S
2019-07-10 04:06:50,6f5c9ced-ac45-4953-867d-0aa44ff8c643,A
2019-07-10 04:22:31,6f5c9ced-ac45-4953-867d-0aa44ff8c643,S
2019-07-10 04:29:45,6f5c9ced-ac45-4953-867d-0aa44ff8c643,A
2019-07-10 04:30:07,6f5c9ced-ac45-4953-867d-0aa44ff8c643,S
2019-07-10 04:30:37,6f5c9ced-ac45-4953-867d-0aa44ff8c643,A
2019-07-10 04:31:43,6f5c9ced-ac45-4953-867d-0aa44ff8c643,S
2019-07-10 04:39:32,6f5c9ced-ac45-4953-867d-0aa44ff8c643,A
2019-07-10 04:42:01,6f5c9ced-ac45-4953-867d-0aa44ff8c643,S
2019-07-10 04:42:59,6f5c9ced-ac45-4953-867d-0aa44ff8c643,A
2019-07-10 04:47:58,6f5c9ced-ac45-4953-867d-0aa44ff8c643,S
2019-07-10 04:51:24,6f5c9ced-ac45-4953-867d-0aa44ff8c643,A
2019-07-10 04:59:06,6f5c9ced-ac45-4953-867d-0aa44ff8c643,S
2019-07-10 05:02:38,6f5c9ced-ac45-4953-867d-0aa44ff8c643,A
2019-07-10 05:03:43,6f5c9ced-ac45-4953-867d-0aa44ff8c643,S
2019-07-10 05:05:01,6f5c9ced-ac45-4953-867d-0aa44ff8c643,A
2019-07-10 05:14:09,6f5c9ced-ac45-4953-867d-0aa44ff8c643,S
2019-07-10 05:15:16,6f5c9ced-ac45-4953-867d-0aa44ff8c643,A
2019-07-10 05:17:54,6f5c9ced-ac45-4953-867d-0aa44ff8c643,S
2019-07-10 05:20:01,6f5c9ced-ac45-4953-867d-0aa44ff8c643,A
2019-07-10 05:28:33,6f5c9ced-ac45-4953-867d-0aa44ff8c643,S
2019-07-10 05:30:47,6f5c9ced-ac45-4953-867d-0aa44ff8c643,A
2019-07-10 05:35:44,6f5c9ced-ac45-4953-867d-0aa44ff8c643,S
2019-07-10 05:39:12,6f5c9ced-ac45-4953-867d-0aa44ff8c643,A
2019-07-10 05:39:47,6f5c9ced-ac45-4953-867d-0aa44ff8c643,S
2019-07-10 05:41:19,6f5c9ced-ac45-4953-867d-0aa44ff8c643,A
2019-07-10 04:14:45,df051d52-c2ea-4d2b-ba75-a4cc87d0f642,S
2019-07-10 04:15:28,df051d52-c2ea-4d2b-ba75-a4cc87d0f642,A
2019-07-10 04:18:59,df051d52-c2ea-4d2b-ba75-a4cc87d0f642,S
2019-07-10 04:23:01,df051d52-c2ea-4d2b-ba75-a4cc87d0f642,A
2019-07-10 04:30:50,df051d52-c2ea-4d2b-ba75-a4cc87d0f642,S
2019-07-10 04:37:19,df051d52-c2ea-4d2b-ba75-a4cc87d0f642,A
2019-07-10 04:41:30,df051d52-c2ea-4d2b-ba75-a4cc87d0f642,S
2019-07-10 04:42:55,df051d52-c2ea-4d2b-ba75-a4cc87d0f642,A
2019-07-10 04:53:19,df051d52-c2ea-4d2b-ba75-a4cc87d0f642,S
2019-07-10 04:53:35,df051d52-c2ea-4d2b-ba75-a4cc87d0f642,A
2019-07-10 04:53:51,df051d52-c2ea-4d2b-ba75-a4cc87d0f642,S
2019-07-10 04:55:21,df051d52-c2ea-4d2b-ba75-a4cc87d0f642,A
2019-07-10 05:03:10,df051d52-c2ea-4d2b-ba75-a4cc87d0f642,S
2019-07-10 05:07:07,df051d52-c2ea-4d2b-ba75-a4cc87d0f642,A
2019-07-10 05:09:46,df051d52-c2ea-4d2b-ba75-a4cc87d0f642,S
2019-07-10 05:12:13,df051d52-c2ea-4d2b-ba75-a4cc87d0f642,A
2019-07-10 05:14:21,df051d52-c2ea-4d2b-ba75-a4cc87d0f642,S
2019-07-10 05:19:01,df051d52-c2ea-4d2b-ba75-a4cc87d0f642,A
2019-07-10 05:25:22,df051d52-c2ea-4d2b-ba75-a4cc87d0f642,S
2019-07-10 05:25:33,df051d52-c2ea-4d2b-ba75-a4cc87d0f642,A
2019-07-10 05:26:12,df051d52-c2ea-4d2b-ba75-a4cc87d0f642,S
2019-07-10 05:28:30,df051d52-c2ea-4d2b-ba75-a4cc87d0f642,A
2019-07-10 05:42:56,df051d52-c2ea-4d2b-ba75-a4cc87d0f642,S
2019-07-10 04:02:27,7aa36271-31dd-41a4-b388-a588a2db4914,A
2019-07-10 04:21:20,7aa36271-31dd-41a4-b388-a588a2db4914,S
2019-07-10 04:21:41,7aa36271-31dd-41a4-b388-a588a2db4914,A
2019-07-10 04:24:25,7aa36271-31dd-41a4-b388-a588a2db4914,S
2019-07-10 04:28:25,7aa36271-31dd-41a4-b388-a588a2db4914,A
2019-07-10 04:28:55,7aa36271-31dd-41a4-b388-a588a2db4914,S
2019-07-10 04:31:57,7aa36271-31dd-41a4-b388-a588a2db4914,A
2019-07-10 04:33:35,7aa36271-31dd-41a4-b388-a588a2db4914,S
2019-07-10 04:48:04,7aa36271-31dd-41a4-b388-a588a2db4914,A
2019-07-10 04:49:41,7aa36271-31dd-41a4-b388-a588a2db4914,S
2019-07-10 04:49:47,7aa36271-31dd-41a4-b388-a588a2db4914,A
2019-07-10 04:52:07,7aa36271-31dd-41a4-b388-a588a2db4914,S
2019-07-10 04:52:14,7aa36271-31dd-41a4-b388-a588a2db4914,A
2019-07-10 04:54:17,7aa36271-31dd-41a4-b388-a588a2db4914,S
2019-07-10 04:58:17,7aa36271-31dd-41a4-b388-a588a2db4914,A
2019-07-10 05:09:00,7aa36271-31dd-41a4-b388-a588a2db4914,S
2019-07-10 05:14:44,7aa36271-31dd-41a4-b388-a588a2db4914,A
2019-07-10 05:16:59,7aa36271-31dd-41a4-b388-a588a2db4914,S
2019-07-10 05:20:24,7aa36271-31dd-41a4-b388-a588a2db4914,A
2019-07-10 05:23:57,7aa36271-31dd-41a4-b388-a588a2db4914,S
2019-07-10 05:41:43,7aa36271-31dd-41a4-b388-a588a2db4914,A
2019-07-10 03:54:30,f412950d-c280-4bc1-9d2d-47e84fc60063,A
2019-07-10 04:02:19,f412950d-c280-4bc1-9d2d-47e84fc60063,S
2019-07-10 04:03:50,f412950d-c280-4bc1-9d2d-47e84fc60063,A
2019-07-10 04:06:27,f412950d-c280-4bc1-9d2d-47e84fc60063,S
2019-07-10 04:11:08,f412950d-c280-4bc1-9d2d-47e84fc60063,A
2019-07-10 04:25:50,f412950d-c280-4bc1-9d2d-47e84fc60063,S
2019-07-10 04:26:25,f412950d-c280-4bc1-9d2d-47e84fc60063,A
2019-07-10 04:31:55,f412950d-c280-4bc1-9d2d-47e84fc60063,S
2019-07-10 04:39:08,f412950d-c280-4bc1-9d2d-47e84fc60063,A
2019-07-10 04:39:43,f412950d-c280-4bc1-9d2d-47e84fc60063,S
2019-07-10 04:51:33,f412950d-c280-4bc1-9d2d-47e84fc60063,A
2019-07-10 04:54:42,f412950d-c280-4bc1-9d2d-47e84fc60063,S
2019-07-10 05:06:31,f412950d-c280-4bc1-9d2d-47e84fc60063,A
2019-07-10 05:18:28,f412950d-c280-4bc1-9d2d-47e84fc60063,S
2019-07-10 05:23:21,f412950d-c280-4bc1-9d2d-47e84fc60063,A
2019-07-10 05:23:53,f412950d-c280-4bc1-9d2d-47e84fc60063,S
2019-07-10 05:24:12,f412950d-c280-4bc1-9d2d-47e84fc60063,A
2019-07-10 05:24:22,f412950d-c280-4bc1-9d2d-47e84fc60063,S
2019-07-10 05:25:33,f412950d-c280-4bc1-9d2d-47e84fc60063,A
2019-07-10 05:29:14,f412950d-c280-4bc1-9d2d-47e84fc60063,S
2019-07-10 05:38:06,f412950d-c280-4bc1-9d2d-47e84fc60063,A
2019-07-10 05:42:18,f412950d-c280-4bc1-9d2d-47e84fc60063,S
2019-07-10 04:02:29,360994b1-6f21-4ff0-8a23-c0c86dd481e4,S
2019-07-10 04:06:47,360994b1-6f21-4ff0-8a23-c0c86dd481e4,A
2019-07-10 04:20:29,360994b1-6f21-4ff0-8a23-c0c86dd481e4,S
2019-07-10 04:20:53,360994b1-6f21-4ff0-8a23-c0c86dd481e4,A
2019-07-10 04:25:30,360994b1-6f21-4ff0-8a23-c0c86dd481e4,S
2019-07-10 04:28:48,360994b1-6f21-4ff0-8a23-c0c86dd481e4,A
2019-07-10 04:31:54,360994b1-6f21-4ff0-8a23-c0c86dd481e4,S
2019-07-10 04:36:27,360994b1-6f21-4ff0-8a23-c0c86dd481e4,A
2019-07-10 04:39:40,360994b1-6f21-4ff0-8a23-c0c86dd481e4,S
2019-07-10 04:43:17,360994b1-6f21-4ff0-8a23-c0c86dd481e4,A
2019-07-10 04:59:08,360994b1-6f21-4ff0-8a23-c0c86dd481e4,S
2019-07-10 05:03:25,360994b1-6f21-4ff0-8a23-c0c86dd481e4,A
2019-07-10 05:03:46,360994b1-6f21-4ff0-8a23-c0c86dd481e4,S
2019-07-10 05:08:53,360994b1-6f21-4ff0-8a23-c0c86dd481e4,A
2019-07-10 05:16:11,360994b1-6f21-4ff0-8a23-c0c86dd481e4,S
2019-07-10 05:29:18,360994b1-6f21-4ff0-8a23-c0c86dd481e4,A
2019-07-10 05:30:20,360994b1-6f21-4ff0-8a23-c0c86dd481e4,S
2019-07-10 04:08:59,f78696c3-9902-447d-b017-ba38e18cc12d,A
2019-07-10 04:09:38,f78696c3-9902-447d-b017-ba38e18cc12d,S
2019-07-10 04:11:13,f78696c3-9902-447d-b017-ba38e18cc12d,A
2019-07-10 04:25:26,f78696c3-9902-447d-b017-ba38e18cc12d,S
2019-07-10 04:27:33,f78696c3-9902-447d-b017-ba38e18cc12d,A
2019-07-10 04:30:00,f78696c3-9902-447d-b017-ba38e18cc12d,S
2019-07-10 04:37:38,f78696c3-9902-447d-b017-ba38e18cc12d,A
2019-07-10 04:41:18,f78696c3-9902-447d-b017-ba38e18cc12d,S
2019-07-10 04:44:39,f78696c3-9902-447d-b017-ba38e18cc12d,A
2019-07-10 04:55:30,f78696c3-9902-447d-b017-ba38e18cc12d,S
2019-07-10 04:55:33,f78696c3-9902-447d-b017-ba38e18cc12d,A
2019-07-10 04:06:16,9ed9db2b-1110-4b1a-b212-362233bff6a4,A
2019-07-10 04:17:47,9ed9db2b-1110-4b1a-b212-362233bff6a4,S
2019-07-10 04:27:43,9ed9db2b-1110-4b1a-b212-362233bff6a4,A
2019-07-10 04:33:11,9ed9db2b-1110-4b1a-b212-362233bff6a4,S
2019-07-10 04:33:53,9ed9db2b-1110-4b1a-b212-362233bff6a4,A
2019-07-10 04:34:50,9ed9db2b-1110-4b1a-b212-362233bff6a4,S
2019-07-10 04:36:48,9ed9db2b-1110-4b1a-b212-362233bff6a4,A
2019-07-10 04:38:08,9ed9db2b-1110-4b1a-b212-362233bff6a4,S
2019-07-10 04:45:27,9ed9db2b-1110-4b1a-b212-362233bff6a4,A
2019-07-10 04:47:21,9ed9db2b-1110-4b1a-b212-362233bff6a4,S
2019-07-10 04:49:04,9ed9db2b-1110-4b1a-b212-362233bff6a4,A
2019-07-10 05:04:28,9ed9db2b-1110-4b1a-b212-362233bff6a4,S
2019-07-10 05:10:22,9ed9db2b-1110-4b1a-b212-362233bff6a4,A
2019-07-10 05:14:55,9ed9db2b-1110-4b1a-b212-362233bff6a4,S
2019-07-10 05:15:59,9ed9db2b-1110-4b1a-b212-362233bff6a4,A
2019-07-10 05:18:19,9ed9db2b-1110-4b1a-b212-362233bff6a4,S
2019-07-10 05:21:58,9ed9db2b-1110-4b1a-b212-362233bff6a4,A
2019-07-10 05:23:59,9ed9db2b-1110-4b1a-b212-362233bff6a4,S
2019-07-10 05:24:07,9ed9db2b-1110-4b1a-b212-362233bff6a4,A
2019-07-10 05:33:13,9ed9db2b-1110-4b1a-b212-362233bff6a4,S
2019-07-10 05:39:32,9ed9db2b-1110-4b1a-b212-362233bff6a4,A
2019-07-10 05:40:38,9ed9db2b-1110-4b1a-b212-362233bff6a4,S
2019-07-10 05:41:31,9ed9db2b-1110-4b1a-b212-362233bff6a4,A
2019-07-10 03:43:50,445b0cba-07ce-4e39-adb0-8a3df07e11b7,S
2019-07-10 03:47:17,445b0cba-07ce-4e39-adb0-8a3df07e11b7,A
2019-07-10 03:53:20,445b0cba-07ce-4e39-adb0-8a3df07e11b7,S
2019-07-10 04:03:16,445b0cba-07ce-4e39-adb0-8a3df07e11b7,A
2019-07-10 04:23:24,445b0cba-07ce-4e39-adb0-8a3df07e11b7,S
2019-07-10 04:29:20,445b0cba-07ce-4e39-adb0-8a3df07e11b7,A
2019-07-10 04:40:09,445b0cba-07ce-4e39-adb0-8a3df07e11b7,S
2019-07-10 04:45:35,445b0cba-07ce-4e39-adb0-8a3df07e11b7,A
2019-07-10 04:49:51,445b0cba-07ce-4e39-adb0-8a3df07e11b7,S
2019-07-10 04:55:25,445b0cba-07ce-4e39-adb0-8a3df07e11b7,A
2019-07-10 04:55:36,445b0cba-07ce-4e39-adb0-8a3df07e11b7,S
2019-07-10 04:14:39,03edfee5-7073-45d4-9621-51a232757c67,A
2019-07-10 04:16:30,03edfee5-7073-45d4-9621-51a232757c67,S
2019-07-10 04:25:58,03edfee5-7073-45d4-9621-51a232757c67,A
2019-07-10 04:40:06,03edfee5-7073-45d4-9621-51a232757c67,S
2019-07-10 04:41:41,03edfee5-7073-45d4-9621-51a232757c67,A
2019-07-10 04:43:16,03edfee5-7073-45d4-9621-51a232757c67,S
2019-07-10 04:45:09,03edfee5-7073-45d4-9621-51a232757c67,A
2019-07-10 04:51:36,03edfee5-7073-45d4-9621-51a232757c67,S
2019-07-10 04:56:30,03edfee5-7073-45d4-9621-51a232757c67,A
2019-07-10 05:04:01,03edfee5-7073-45d4-9621-51a232757c67,S
2019-07-10 05:04:04,03edfee5-7073-45d4-9621-51a232757c67,A
2019-07-10 05:04:23,03edfee5-7073-45d4-9621-51a232757c67,S
2019-07-10 05:06:44,03edfee5-7073-45d4-9621-51a232757c67,A
2019-07-10 05:09:55,03edfee5-7073-45d4-9621-51a232757c67,S
2019-07-10 05:10:41,03edfee5-7073-45d4-9621-51a232757c67,A
2019-07-10 05:21:42,03edfee5-7073-45d4-9621-51a232757c67,S
2019-07-10 05:22:30,03edfee5-7073-45d4-9621-51a232757c67,A
2019-07-10 05:22:56,03edfee5-7073-45d4-9621-51a232757c67,S
2019-07-10 05:25:09,03edfee5-7073-45d4-9621-51a232757c67,A
2019-07-10 05:27:23,03edfee5-7073-45d4-9621-51a232757c67,S
2019-07-10 05:27:41,03edfee5-7073-45d4-9621-51a232757c67,A
2019-07-10 05:37:06,03edfee5-7073-45d4-9621-51a232757c67,S
2019-07-10 05:41:50,03edfee5-7073-45d4-9621-51a232757c67,A
2019-07-10 05:43:34,03edfee5-7073-45d4-9621-51a232757c67,S
2019-07-10 04:11:52,f9994089-22a1-4de4-ba1a-aa17cee856f8,S
2019-07-10 04:13:47,f9994089-22a1-4de4-ba1a-aa17cee856f8,A
2019-07-10 04:16:56,f9994089-22a1-4de4-ba1a-aa17cee856f8,S
2019-07-10 04:17:25,f9994089-22a1-4de4-ba1a-aa17cee856f8,A
2019-07-10 04:20:34,f9994089-22a1-4de4-ba1a-aa17cee856f8,S
2019-07-10 04:22:34,f9994089-22a1-4de4-ba1a-aa17cee856f8,A
2019-07-10 04:26:50,f9994089-22a1-4de4-ba1a-aa17cee856f8,S
2019-07-10 04:27:47,f9994089-22a1-4de4-ba1a-aa17cee856f8,A
2019-07-10 04:28:37,f9994089-22a1-4de4-ba1a-aa17cee856f8,S
2019-07-10 04:36:04,f9994089-22a1-4de4-ba1a-aa17cee856f8,A
2019-07-10 04:38:16,f9994089-22a1-4de4-ba1a-aa17cee856f8,S
2019-07-10 04:41:48,f9994089-22a1-4de4-ba1a-aa17cee856f8,A
2019-07-10 04:50:05,f9994089-22a1-4de4-ba1a-aa17cee856f8,S
2019-07-10 04:57:29,f9994089-22a1-4de4-ba1a-aa17cee856f8,A
2019-07-10 04:59:31,f9994089-22a1-4de4-ba1a-aa17cee856f8,S
2019-07-10 05:02:16,f9994089-22a1-4de4-ba1a-aa17cee856f8,A
2019-07-10 05:03:21,f9994089-22a1-4de4-ba1a-aa17cee856f8,S
2019-07-10 05:04:39,f9994089-22a1-4de4-ba1a-aa17cee856f8,A
2019-07-10 05:06:11,f9994089-22a1-4de4-ba1a-aa17cee856f8,S
2019-07-10 05:14:18,f9994089-22a1-4de4-ba1a-aa17cee856f8,A
2019-07-10 05:14:29,f9994089-22a1-4de4-ba1a-aa17cee856f8,S
2019-07-10 05:14:40,f9994089-22a1-4de4-ba1a-aa17cee856f8,A
2019-07-10 05:18:31,f9994089-22a1-4de4-ba1a-aa17cee856f8,S
2019-07-10 05:20:55,f9994089-22a1-4de4-ba1a-aa17cee856f8,A
2019-07-10 05:21:39,f9994089-22a1-4de4-ba1a-aa17cee856f8,S
2019-07-10 05:22:57,f9994089-22a1-4de4-ba1a-aa17cee856f8,A
2019-07-10 05:23:51,f9994089-22a1-4de4-ba1a-aa17cee856f8,S
2019-07-10 05:32:13,f9994089-22a1-4de4-ba1a-aa17cee856f8,A
2019-07-10 05:33:27,f9994089-22a1-4de4-ba1a-aa17cee856f8,S
2019-07-10 05:42:25,f9994089-22a1-4de4-ba1a-aa17cee856f8,A
2019-07-10 04:15:39,30b3d5ca-21fe-4356-8fe6-ff5ce64a92fa,A
2019-07-10 04:24:34,30b3d5ca-21fe-4356-8fe6-ff5ce64a92fa,S
2019-07-10 04:35:17,30b3d5ca-21fe-4356-8fe6-ff5ce64a92fa,A
2019-07-10 04:40:49,30b3d5ca-21fe-4356-8fe6-ff5ce64a92fa,S
2019-07-10 04:43:27,30b3d5ca-21fe-4356-8fe6-ff5ce64a92fa,A
2019-07-10 04:44:12,30b3d5ca-21fe-4356-8fe6-ff5ce64a92fa,S
2019-07-10 04:48:52,30b3d5ca-21fe-4356-8fe6-ff5ce64a92fa,A
2019-07-10 04:50:42,30b3d5ca-21fe-4356-8fe6-ff5ce64a92fa,S
2019-07-10 05:03:57,30b3d5ca-21fe-4356-8fe6-ff5ce64a92fa,A
2019-07-10 05:05:50,30b3d5ca-21fe-4356-8fe6-ff5ce64a92fa,S
2019-07-10 05:12:02,30b3d5ca-21fe-4356-8fe6-ff5ce64a92fa,A
2019-07-10 05:14:49,30b3d5ca-21fe-4356-8fe6-ff5ce64a92fa,S
2019-07-10 05:16:37,30b3d5ca-21fe-4356-8fe6-ff5ce64a92fa,A
2019-07-10 05:17:00,30b3d5ca-21fe-4356-8fe6-ff5ce64a92fa,S
2019-07-10 05:17:40,30b3d5ca-21fe-4356-8fe6-ff5ce64a92fa,A
2019-07-10 05:30:10,30b3d5ca-21fe-4356-8fe6-ff5ce64a92fa,S
2019-07-10 05:30:12,30b3d5ca-21fe-4356-8fe6-ff5ce64a92fa,A
2019-07-10 05:30:48,30b3d5ca-21fe-4356-8fe6-ff5ce64a92fa,S
2019-07-10 05:31:16,30b3d5ca-21fe-4356-8fe6-ff5ce64a92fa,A
2019-07-10 05:44:40,30b3d5ca-21fe-4356-8fe6-ff5ce64a92fa,S
2019-07-10 03:58:33,3a033e77-4269-40b6-b27e-0f8163beb14b,A
2019-07-10 04:04:36,3a033e77-4269-40b6-b27e-0f8163beb14b,S
2019-07-10 04:07:06,3a033e77-4269-40b6-b27e-0f8163beb14b,A
2019-07-10 04:07:51,3a033e77-4269-40b6-b27e-0f8163beb14b,S
2019-07-10 04:07:54,3a033e77-4269-40b6-b27e-0f8163beb14b,A
2019-07-10 04:10:44,3a033e77-4269-40b6-b27e-0f8163beb14b,S
2019-07-10 04:19:00,3a033e77-4269-40b6-b27e-0f8163beb14b,A
2019-07-10 04:21:46,3a033e77-4269-40b6-b27e-0f8163beb14b,S
2019-07-10 04:21:49,3a033e77-4269-40b6-b27e-0f8163beb14b,A
2019-07-10 04:27:54,3a033e77-4269-40b6-b27e-0f8163beb14b,S
2019-07-10 04:32:17,3a033e77-4269-40b6-b27e-0f8163beb14b,A
2019-07-10 04:39:38,3a033e77-4269-40b6-b27e-0f8163beb14b,S
2019-07-10 04:40:47,3a033e77-4269-40b6-b27e-0f8163beb14b,A
2019-07-10 04:44:44,3a033e77-4269-40b6-b27e-0f8163beb14b,S
2019-07-10 04:45:31,3a033e77-4269-40b6-b27e-0f8163beb14b,A
2019-07-10 04:45:48,3a033e77-4269-40b6-b27e-0f8163beb14b,S
2019-07-10 04:56:22,3a033e77-4269-40b6-b27e-0f8163beb14b,A
2019-07-10 04:57:45,3a033e77-4269-40b6-b27e-0f8163beb14b,S
2019-07-10 05:03:29,3a033e77-4269-40b6-b27e-0f8163beb14b,A
2019-07-10 05:07:56,3a033e77-4269-40b6-b27e-0f8163beb14b,S
2019-07-10 05:09:15,3a033e77-4269-40b6-b27e-0f8163beb14b,A
2019-07-10 05:12:02,3a033e77-4269-40b6-b27e-0f8163beb14b,S
2019-07-10 05:13:26,3a033e77-4269-40b6-b27e-0f8163beb14b,A
2019-07-10 05:22:16,3a033e77-4269-40b6-b27e-0f8163beb14b,S
2019-07-10 05:23:45,3a033e77-4269-40b6-b27e-0f8163beb14b,A
2019-07-10 05:27:24,3a033e77-4269-40b6-b27e-0f8163beb14b,S
2019-07-10 05:27:41,3a033e77-4269-40b6-b27e-0f8163beb14b,A
2019-07-10 05:31:39,3a033e77-4269-40b6-b27e-0f8163beb14b,S
2019-07-10 04:02:10,5e27f186-785e-460b-84b6-d1c46cdabc8a,S
2019-07-10 04:07:25,5e27f186-785e-460b-84b6-d1c46cdabc8a,A
2019-07-10 04:14:09,5e27f186-785e-460b-84b6-d1c46cdabc8a,S
2019-07-10 04:19:08,5e27f186-785e-460b-84b6-d1c46cdabc8a,A
2019-07-10 04:20:04,5e27f186-785e-460b-84b6-d1c46cdabc8a,S
2019-07-10 04:26:51,5e27f186-785e-460b-84b6-d1c46cdabc8a,A
2019-07-10 04:29:07,5e27f186-785e-460b-84b6-d1c46cdabc8a,S
2019-07-10 04:35:13,5e27f186-785e-460b-84b6-d1c46cdabc8a,A
2019-07-10 04:35:14,5e27f186-785e-460b-84b6-d1c46cdabc8a,S
2019-07-10 04:35:59,5e27f186-785e-460b-84b6-d1c46cdabc8a,A
2019-07-10 04:39:52,5e27f186-785e-460b-84b6-d1c46cdabc8a,S
2019-07-10 04:45:28,5e27f186-785e-460b-84b6-d1c46cdabc8a,A
2019-07-10 04:47:37,5e27f186-785e-460b-84b6-d1c46cdabc8a,S
2019-07-10 04:50:43,5e27f186-785e-460b-84b6-d1c46cdabc8a,A
2019-07-10 04:53:34,5e27f186-785e-460b-84b6-d1c46cdabc8a,S
2019-07-10 04:56:48,5e27f186-785e-460b-84b6-d1c46cdabc8a,A
2019-07-10 05:05:50,5e27f186-785e-460b-84b6-d1c46cdabc8a,S
2019-07-10 05:09:23,5e27f186-785e-460b-84b6-d1c46cdabc8a,A
2019-07-10 05:10:22,5e27f186-785e-460b-84b6-d1c46cdabc8a,S
2019-07-10 05:13:49,5e27f186-785e-460b-84b6-d1c46cdabc8a,A
2019-07-10 05:15:47,5e27f186-785e-460b-84b6-d1c46cdabc8a,S
2019-07-10 05:16:29,5e27f186-785e-460b-84b6-d1c46cdabc8a,A
2019-07-10 05:23:37,5e27f186-785e-460b-84b6-d1c46cdabc8a,S
2019-07-10 05:26:01,5e27f186-785e-460b-84b6-d1c46cdabc8a,A
2019-07-10 05:39:53,5e27f186-785e-460b-84b6-d1c46cdabc8a,S
2019-07-10 05:42:52,5e27f186-785e-460b-84b6-d1c46cdabc8a,A
2019-07-10 03:53:03,4080dbea-f997-4552-b81b-83d7f0e49dfe,S
2019-07-10 04:00:42,4080dbea-f997-4552-b81b-83d7f0e49dfe,A
2019-07-10 04:02:38,4080dbea-f997-4552-b81b-83d7f0e49dfe,S
2019-07-10 04:13:56,4080dbea-f997-4552-b81b-83d7f0e49dfe,A
2019-07-10 04:15:45,4080dbea-f997-4552-b81b-83d7f0e49dfe,S
2019-07-10 04:16:27,4080dbea-f997-4552-b81b-83d7f0e49dfe,A
2019-07-10 04:25:58,4080dbea-f997-4552-b81b-83d7f0e49dfe,S
2019-07-10 04:29:13,4080dbea-f997-4552-b81b-83d7f0e49dfe,A
2019-07-10 04:29:49,4080dbea-f997-4552-b81b-83d7f0e49dfe,S
2019-07-10 04:30:20,4080dbea-f997-4552-b81b-83d7f0e49dfe,A
2019-07-10 04:35:24,4080dbea-f997-4552-b81b-83d7f0e49dfe,S
2019-07-10 04:35:49,4080dbea-f997-4552-b81b-83d7f0e49dfe,A
2019-07-10 04:36:12,4080dbea-f997-4552-b81b-83d7f0e49dfe,S
2019-07-10 04:36:56,4080dbea-f997-4552-b81b-83d7f0e49dfe,A
2019-07-10 04:38:48,4080dbea-f997-4552-b81b-83d7f0e49dfe,S
2019-07-10 04:39:40,4080dbea-f997-4552-b81b-83d7f0e49dfe,A
2019-07-10 04:50:14,4080dbea-f997-4552-b81b-83d7f0e49dfe,S
2019-07-10 04:51:26,4080dbea-f997-4552-b81b-83d7f0e49dfe,A
2019-07-10 04:58:18,4080dbea-f997-4552-b81b-83d7f0e49dfe,S
2019-07-10 05:06:59,4080dbea-f997-4552-b81b-83d7f0e49dfe,A
2019-07-10 05:10:07,4080dbea-f997-4552-b81b-83d7f0e49dfe,S
2019-07-10 05:13:42,4080dbea-f997-4552-b81b-83d7f0e49dfe,A
2019-07-10 05:13:58,4080dbea-f997-4552-b81b-83d7f0e49dfe,S
2019-07-10 05:21:03,4080dbea-f997-4552-b81b-83d7f0e49dfe,A
2019-07-10 05:21:11,4080dbea-f997-4552-b81b-83d7f0e49dfe,S
2019-07-10 05:21:37,4080dbea-f997-4552-b81b-83d7f0e49dfe,A
2019-07-10 05:22:14,4080dbea-f997-4552-b81b-83d7f0e49dfe,S
2019-07-10 05:24:19,4080dbea-f997-4552-b81b-83d7f0e49dfe,A
2019-07-10 05:24:22,4080dbea-f997-4552-b81b-83d7f0e49dfe,S
2019-07-10 05:36:08,4080dbea-f997-4552-b81b-83d7f0e49dfe,A
2019-07-10 05:39:32,4080dbea-f997-4552-b81b-83d7f0e49dfe,S
2019-07-10 05:41:24,4080dbea-f997-4552-b81b-83d7f0e49dfe,A
2019-07-10 03:48:39,ccd8b044-ab85-4ffd-9001-6d7d551b42ab,A
2019-07-10 03:52:04,ccd8b044-ab85-4ffd-9001-6d7d551b42ab,S
2019-07-10 03:57:09,ccd8b044-ab85-4ffd-9001-6d7d551b42ab,A
2019-07-10 03:59:00,ccd8b044-ab85-4ffd-9001-6d7d551b42ab,S
2019-07-10 04:09:31,ccd8b044-ab85-4ffd-9001-6d7d551b42ab,A
2019-07-10 04:10:05,ccd8b044-ab85-4ffd-9001-6d7d551b42ab,S
2019-07-10 04:18:30,ccd8b044-ab85-4ffd-9001-6d7d551b42ab,A
2019-07-10 04:20:50,ccd8b044-ab85-4ffd-9001-6d7d551b42ab,S
2019-07-10 04:29:14,ccd8b044-ab85-4ffd-9001-6d7d551b42ab,A
2019-07-10 04:47:40,ccd8b044-ab85-4ffd-9001-6d7d551b42ab,S
2019-07-10 04:48:56,ccd8b044-ab85-4ffd-9001-6d7d551b42ab,A
2019-07-10 04:49:07,ccd8b044-ab85-4ffd-9001-6d7d551b42ab,S
2019-07-10 04:52:19,ccd8b044-ab85-4ffd-9001-6d7d551b42ab,A
2019-07-10 05:01:10,ccd8b044-ab85-4ffd-9001-6d7d551b42ab,S
2019-07-10 05:16:15,ccd8b044-ab85-4ffd-9001-6d7d551b42ab,A
2019-07-10 05:16:36,ccd8b044-ab85-4ffd-9001-6d7d551b42ab,S
2019-07-10 05:27:04,ccd8b044-ab85-4ffd-9001-6d7d551b42ab,A
2019-07-10 05:40:03,ccd8b044-ab85-4ffd-9001-6d7d551b42ab,S
2019-07-10 05:41:04,ccd8b044-ab85-4ffd-9001-6d7d551b42ab,A
2019-07-10 05:41:29,ccd8b044-ab85-4ffd-9001-6d7d551b42ab,S
2019-07-10 04:13:42,2001481d-9254-45e9-a873-1e53369726fa,A
2019-07-10 04:20:57,2001481d-9254-45e9-a873-1e53369726fa,S
2019-07-10 04:22:51,2001481d-9254-45e9-a873-1e53369726fa,A
2019-07-10 04:27:41,2001481d-9254-45e9-a873-1e53369726fa,S
2019-07-10 04:34:56,2001481d-9254-45e9-a873-1e53369726fa,A
2019-07-10 04:41:53,2001481d-9254-45e9-a873-1e53369726fa,S
2019-07-10 04:42:26,2001481d-9254-45e9-a873-1e53369726fa,A
2019-07-10 04:42:51,2001481d-9254-45e9-a873-1e53369726fa,S
2019-07-10 04:44:15,2001481d-9254-45e9-a873-1e53369726fa,A
2019-07-10 04:44:53,2001481d-9254-45e9-a873-1e53369726fa,S
2019-07-10 04:47:09,2001481d-9254-45e9-a873-1e53369726fa,A
2019-07-10 04:53:31,2001481d-9254-45e9-a873-1e53369726fa,S
2019-07-10 04:54:54,2001481d-9254-45e9-a873-1e53369726fa,A
2019-07-10 04:57:36,2001481d-9254-45e9-a873-1e53369726fa,S
2019-07-10 04:58:11,2001481d-9254-45e9-a873-1e53369726fa,A
2019-07-10 04:59:30,2001481d-9254-45e9-a873-1e53369726fa,S
2019-07-10 05:18:52,2001481d-9254-45e9-a873-1e53369726fa,A
2019-07-10 05:36:52,2001481d-9254-45e9-a873-1e53369726fa,S
2019-07-10 05:37:56,2001481d-9254-45e9-a873-1e53369726fa,A
