actor,node
49713391-c6e0-4494-bfac-edc745ce1571,4a8a877d-ac57-42d8-b220-ccd124678db6
08256993-d9e2-4a99-9627-f1c8affbcaee,45e099f9-23ae-4913-8fca-88fc0c93c275
53b95547-94f9-4a89-92f3-fee47f854bfd,4a8a877d-ac57-42d8-b220-ccd124678db6
8e1e1eea-c451-4cdc-8820-fa717a96351a,4a8a877d-ac57-42d8-b220-ccd124678db6
81b7ad94-9083-424e-8fc2-6e3a4418003a,4a8a877d-ac57-42d8-b220-ccd124678db6
0e942463-bfdd-43bd-bda5-c97104efdfae,573bf814-872b-4da2-8691-cd410d7a3633
05d0ffd1-b428-43c5-860e-a7358c956b47,048be17a-0698-4351-af29-b39e717b3b65
d2933a57-71ce-4c6f-9001-a56c579b613e,4a8a877d-ac57-42d8-b220-ccd124678db6
8cda34ad-d5c8-4bd1-876a-8a98d2179fef,4a8a877d-ac57-42d8-b220-ccd124678db6
c3434f46-9ea5-4819-b150-33f7778daf9f,64413054-5c29-4eeb-9c32-8f990ffd4e1d
c81f9c23-3fd8-4f83-b35b-718a6824562e,4a8a877d-ac57-42d8-b220-ccd124678db6
0f0b8a77-e71e-43fa-b112-45ad7cb5c9c3,4a8a877d-ac57-42d8-b220-ccd124678db6
1fffbca2-46fa-4211-be27-ee43fbd35b19,cff42e09-3c5e-42f7-80e6-a30e3ef792e5
e6125612-66d8-46a8-801a-ce45de8cb5c0,4a8a877d-ac57-42d8-b220-ccd124678db6
2cb27911-da56-44ce-97f3-6b97425ddcd6,4a8a877d-ac57-42d8-b220-ccd124678db6
f524f278-ab54-4711-aa3e-5422479b57d0,a91a4464-839f-4c81-8bd3-ef46ecf4c776
ff67b459-d156-462d-bf4c-7fea89670cc2,4a8a877d-ac57-42d8-b220-ccd124678db6
7c0578f8-dacf-4a8c-baf0-1dff37423eba,4a8a877d-ac57-42d8-b220-ccd124678db6
0eccefd1-8d83-4cd9-8a0b-fe9a71b66e0c,4a8a877d-ac57-42d8-b220-ccd124678db6
578614b7-d02c-416e-b446-8a272567436a,4a8a877d-ac57-42d8-b220-ccd124678db6
e7d30598-eba9-4ab4-98a1-3ba930daa7f4,ebeed398-70ed-47a4-ba4a-9e7ff58d77ac
d600ed8b-1d96-46fb-89c7-b0cb995d7b14,cb13eefc-a03b-4edc-b9b4-5ffe944f51bc
0b7f9ff4-a044-44fd-98be-901c68544759,4a8a877d-ac57-42d8-b220-ccd124678db6
f491d52e-b3e0-4110-be51-220c990f1fc0,4a8a877d-ac57-42d8-b220-ccd124678db6
4a81ae75-2350-4021-a584-a95751cd890f,4a8a877d-ac57-42d8-b220-ccd124678db6
f7bd981f-a656-44d0-a968-0e13a5889f32,edacd436-1f1e-45ff-be75-fd8573ab2a7c
c3297979-d741-4e88-bfdd-e3b4a9c47c61,4a8a877d-ac57-42d8-b220-ccd124678db6
4a38220f-b0ba-46f0-8c98-ec449859896d,b5080dec-07de-4811-af86-48aebf481f30
64c22c3e-987e-4435-901c-21e19c655511,4a8a877d-ac57-42d8-b220-ccd124678db6
8a76171b-d17c-4985-8146-163aa41e09ab,4a8a877d-ac57-42d8-b220-ccd124678db6
11e6ee4b-9f56-4c6b-8228-0b4df094287d,620b615a-8a54-4ded-824f-b83f7eb05332
01d1c8ea-da97-4b84-a9e6-8128e5b79732,4a8a877d-ac57-42d8-b220-ccd124678db6
792b69ee-7999-4c93-bbfb-f8ed7483ac4e,4a8a877d-ac57-42d8-b220-ccd124678db6
863f28e8-1c1d-440a-8475-19c56b251f38,2cebeeb7-d3b5-4281-b4d4-fa5dc6d57ade
bb1c125e-66f0-4867-b8c6-166b5cadf1f8,4a8a877d-ac57-42d8-b220-ccd124678db6
55f67865-463f-4150-9ce0-8719b3eb5486,4a8a877d-ac57-42d8-b220-ccd124678db6
38f1ea03-abae-4032-8036-0f0409770935,4a8a877d-ac57-42d8-b220-ccd124678db6
1f06ac0a-a97a-4464-bb37-12a6e28413d4,d2ce7638-777c-46d6-ba93-e7f1344ffd6a
73bd9d65-f08b-420c-a32e-a1cd3c725a06,4a8a877d-ac57-42d8-b220-ccd124678db6
c4ed7075-039a-4e1f-b04f-b02078a006b8,4a8a877d-ac57-42d8-b220-ccd124678db6
e6e4314c-642f-4898-93a9-03487f73699a,839e3bde-80d5-49cd-9073-d4a7dbfd7b95
30c50a2f-042b-4667-80f7-c14d04d6aa63,4a8a877d-ac57-42d8-b220-ccd124678db6
5bf7a40f-8208-4fb3-9b35-7fe979408d27,02ef4df3-496b-4279-ac9d-1e96793fbcac
bc3ed288-2634-47f7-9f17-2b009f7a626c,4a8a877d-ac57-42d8-b220-ccd124678db6
2c74e7f7-cc87-44f9-bf84-14d4a455a25b,4a8a877d-ac57-42d8-b220-ccd124678db6
ed08e6be-4595-4cd4-a3a4-ea51d4604062,4a8a877d-ac57-42d8-b220-ccd124678db6
f5fdc8c7-473e-46f9-b8a2-defa8eca374d,4a8a877d-ac57-42d8-b220-ccd124678db6
63c16465-7bc3-48c5-b112-89ad9e2e51ba,dadbeaae-a9c8-47a1-aacc-4f09e7723ad0
7c236bcc-1d6e-4afb-9659-2aba04c2bc4d,87092856-e0c3-439f-b482-658f809062c9
4b4617a4-a2e5-4d90-a94a-071f6a74d180,4a8a877d-ac57-42d8-b220-ccd124678db6
5d4c0d8a-1595-4dc1-9357-2dcad17fd6a6,4a8a877d-ac57-42d8-b220-ccd124678db6
f518e7e1-d2f9-47f0-9340-a2c7a2b81257,4a8a877d-ac57-42d8-b220-ccd124678db6
4c572dc5-6848-4584-9b7e-aa3ffff361a8,4a8a877d-ac57-42d8-b220-ccd124678db6
071d6772-f212-494a-b2a9-2b924a80a25b,017681ef-d2a7-4ebd-9612-02884d570f4c
2d4fe12e-5cd0-4fac-a427-bf1e3101d445,4a8a877d-ac57-42d8-b220-ccd124678db6
e70442e9-16bb-46bb-b0ab-937d59e03838,4a8a877d-ac57-42d8-b220-ccd124678db6
a6b2b976-0af3-4131-a8af-21ecd0e9fa34,37f05d66-55a1-47e6-b032-c366fed497eb
b5190b56-032b-42e7-82ea-56b833f3c16c,4a8a877d-ac57-42d8-b220-ccd124678db6
4b2b07eb-b94b-4ef9-a012-c0e0086a1fa3,4a8a877d-ac57-42d8-b220-ccd124678db6
c926c4e9-1513-4824-8e90-185e3e9c254e,a78a8170-5987-454c-8ad9-985a244cf679
9fbabfcc-f623-40e1-8982-a9170f348cdd,4a8a877d-ac57-42d8-b220-ccd124678db6
526850b8-93c4-491e-a097-baded61170b1,71bb27ee-0975-4099-92a9-c4bcc592e921
30b2aeb5-b8f1-41f8-a1e6-98233bdb3494,4a8a877d-ac57-42d8-b220-ccd124678db6
19896a8a-b748-46e3-918b-cbb4ef8c8151,6419075b-0280-4a07-8ee8-2072ce5e160a
f43ac03a-5b2c-4a1b-a4bd-9e2d4e3f6442,4a8a877d-ac57-42d8-b220-ccd124678db6
998a9f98-d280-421f-8b13-7e0d73e9ca8a,4a8a877d-ac57-42d8-b220-ccd124678db6
b87762c3-bbcd-44d3-9949-4c81c7ccda53,4a8a877d-ac57-42d8-b220-ccd124678db6
73cd4561-6fc0-4187-883e-7788ee2e0961,4a8a877d-ac57-42d8-b220-ccd124678db6
fd7f6b25-41b8-4e5f-92f5-96567591120e,55ff0f0f-137e-4380-ae4a-f2b5f539347b
55c504ed-da46-40a9-87e1-cae533b6bb7d,6a0cdb2c-7fe9-4479-a230-5456851ab7df
cf8dfa99-ed7a-4395-8339-6e44df661005,4a8a877d-ac57-42d8-b220-ccd124678db6
cd2f5e3d-ab34-422e-b539-423a7f0408f6,4a8a877d-ac57-42d8-b220-ccd124678db6
93b88287-6920-43ff-aa13-3a5a83ed0402,1e73df5a-b837-42a1-ab3d-28621f1a61ee
6f8731f7-40f6-4195-b7d8-5b4b14d29100,4a8a877d-ac57-42d8-b220-ccd124678db6
11f5f482-53aa-4107-b0e0-8891ff20da07,4a8a877d-ac57-42d8-b220-ccd124678db6
ce98fe78-14bb-410c-a2f9-0151480a1296,4a8a877d-ac57-42d8-b220-ccd124678db6
749f4d2e-0b4c-4a0d-989d-8278bf84fbb1,99f6c281-322c-4050-af20-ebebbcddef02
90a4d8ec-fd10-4767-bb41-68c808412dca,4a8a877d-ac57-42d8-b220-ccd124678db6
5376e0ba-019e-4f50-a656-b8ba5fe380a6,4a8a877d-ac57-42d8-b220-ccd124678db6
60383e3d-fe77-44de-bbe7-6113be80bdd3,8978c287-0acb-4130-bbbf-11738948f053
3d6af52e-6fe9-4016-a6b7-29a3a916f1b9,4a8a877d-ac57-42d8-b220-ccd124678db6
c28398f8-a4cd-4d46-8c2d-9ae05e197234,4a8a877d-ac57-42d8-b220-ccd124678db6
ea7acffe-966c-47b3-b569-e1943be69eb5,b929c8ac-2dd1-4dfa-af1a-89f2d387bee5
70b4cd0b-309e-46ba-9c08-5a74f8156bdb,4a8a877d-ac57-42d8-b220-ccd124678db6
22cc264e-774d-4291-92d4-69c19acf5ea6,4a8a877d-ac57-42d8-b220-ccd124678db6
5d1acfd4-66fa-4df8-8b77-9868d90ef418,4a8a877d-ac57-42d8-b220-ccd124678db6
870c32d7-c1ee-43a4-b18a-92de30524ba2,5f633fcd-a915-4811-adc1-3536be8a276f
5381e546-c5ea-4fae-b161-9c65df7a46a5,44a0dc61-afc6-46c9-8a84-ba8dc7a08400
089777ff-765c-4de6-9114-caf961a6f2fd,4a8a877d-ac57-42d8-b220-ccd124678db6
152836ec-d06b-4333-b459-bb896bc044a7,4a8a877d-ac57-42d8-b220-ccd124678db6
59b94f63-480a-4a22-a473-8d2e2ce6768b,4a8a877d-ac57-42d8-b220-ccd124678db6
5c28ed63-c1bb-4e0d-b022-bd91f1bd8624,4a8a877d-ac57-42d8-b220-ccd124678db6
5f012271-523d-4bd4-b63f-47aaa34d598c,4acf8c4c-4eb0-4ded-891b-62ecc8a73465
ae38c7f4-a8ff-4498-ad5f-b5ad9083a1f1,4a8a877d-ac57-42d8-b220-ccd124678db6
8c03457b-32be-47ea-8cc3-f7713c4815c8,084eaabf-ced3-40b1-bad9-7ca5dd06d755
c71e89ce-ba84-447f-944d-fed0e6378da6,4a8a877d-ac57-42d8-b220-ccd124678db6
13f16092-a14d-47a2-b823-75e6438349b1,4a8a877d-ac57-42d8-b220-ccd124678db6
f64039e6-472d-40c8-b237-b212d30ebb6c,1de7aada-2ab3-43b0-a258-8b62e0f1a98e
3ce56bcc-e5ba-432f-955c-236ccfebadab,4a8a877d-ac57-42d8-b220-ccd124678db6
a851b84c-d2f9-443b-a905-f25aeb4a8cca,4a8a877d-ac57-42d8-b220-ccd124678db6
2cbeebf2-f552-4908-bb11-d509af9ea831,d1e79533-c230-43c1-9111-d9c4e1cc69d4
1eb8cb2e-33b2-4008-a34f-b62a7f3a7f42,4a8a877d-ac57-42d8-b220-ccd124678db6
f1195d32-e454-4449-b8a5-b623921412b8,4a8a877d-ac57-42d8-b220-ccd124678db6
d80409f4-f182-473f-a1b5-bcdf965997a9,4a8a877d-ac57-42d8-b220-ccd124678db6
d7650b76-9ec8-40da-8444-01978885f5cd,17736907-a9c1-461b-b230-532f61323c95
259bdea8-0b42-4552-8674-c016617b1fbb,4a8a877d-ac57-42d8-b220-ccd124678db6
b6545218-2875-4214-8fbb-aef2a3efaf1b,5179d348-7e47-4499-a385-1a28c4889378
6c3687a8-4e75-430d-9c88-bb023394f42a,4a8a877d-ac57-42d8-b220-ccd124678db6
2a0d4c1f-b8ab-461e-bee1-941ec55f655d,71ff85b4-cd67-4c66-9b7c-edf4b3f6d2fb
c9f4e988-215a-44c0-8c67-bc3bbe3a5a32,4a8a877d-ac57-42d8-b220-ccd124678db6
c58921a3-f87f-435f-9a2f-b35a96e5d3f7,4a8a877d-ac57-42d8-b220-ccd124678db6
85b8d013-e3d6-47df-810b-7351aeca3147,b65d8bdf-fbef-4851-8b94-646ebab47146
05832d26-d643-4f7c-9772-ed54c5e02106,4a8a877d-ac57-42d8-b220-ccd124678db6
c4c46bfb-0f62-4514-b324-ea09f85a7a45,4a8a877d-ac57-42d8-b220-ccd124678db6
7c5ba79f-794a-4545-bc80-a0f3468f798a,4a8a877d-ac57-42d8-b220-ccd124678db6
2df3a1f2-3cc2-4fbe-92ec-f7c3f191ef79,4a8a877d-ac57-42d8-b220-ccd124678db6
30b00cd2-ef1c-483e-80cb-7ec68318df17,d204e3e0-6945-481b-8107-835f2b0a025a
92233652-1645-4bae-b3da-5bf885273fa7,252dda6e-e6fb-463d-b6f2-1f52d4b5117c
f6302cbf-beaa-4768-8d13-57e6b0bcc524,4a8a877d-ac57-42d8-b220-ccd124678db6
ed6cbc64-218b-481d-a859-67b43408859d,4a8a877d-ac57-42d8-b220-ccd124678db6
31a98034-a54e-4817-92fb-e9842ee37d52,572bb041-c730-48ec-a17a-aff7706873cc
c890f84f-9c25-4e2d-820e-731c80625bd2,4a8a877d-ac57-42d8-b220-ccd124678db6
fdeaad47-9cf8-40ec-87a9-346dfe1a74a6,4a8a877d-ac57-42d8-b220-ccd124678db6
c07354e9-6823-41e5-9aa6-3b91a1271076,4a8a877d-ac57-42d8-b220-ccd124678db6
50382dfe-70e4-433d-b65c-96f0cff6ee84,585dfafd-e0f1-4a04-a744-1654b4341ff2
6d9b294d-9526-4181-bcb1-14bb69a40855,4a8a877d-ac57-42d8-b220-ccd124678db6
9569cb16-204c-4a27-9144-3874e938e92d,4a8a877d-ac57-42d8-b220-ccd124678db6
38950072-210e-4196-8059-d83f56b1756c,61b40d92-6266-45ff-bda8-a7383356f7e0
fea472b2-7279-4dbe-85ed-4e147199242b,4a8a877d-ac57-42d8-b220-ccd124678db6
2dd6f458-14b4-4dbb-a46c-ed289ba10572,4a8a877d-ac57-42d8-b220-ccd124678db6
f2e26100-37b1-4219-868b-bb223c9f3258,45b8afe7-5d6b-43c5-8fa4-1a680e702387
d266c720-3a6a-4382-8d3d-4e74c639e46e,4a8a877d-ac57-42d8-b220-ccd124678db6
607e5100-34f0-47ed-b1cd-ffbf564d7d67,6aa20ec2-48f1-45b1-aae6-f758aa515612
06cbe9a0-b85d-4717-96d3-f0a587c2613c,4a8a877d-ac57-42d8-b220-ccd124678db6
0032135e-7d4d-4b19-9817-9cda150d0a1d,4a8a877d-ac57-42d8-b220-ccd124678db6
ac5399e9-67d6-4d62-a0be-883b47b58713,26275782-005b-42af-bf81-2690e1e72a88
1b1cfe7f-251a-4428-8c6f-1f04391ba5bc,4a8a877d-ac57-42d8-b220-ccd124678db6
da36e33e-2f2d-4316-9869-cb6c9b549aa8,4a8a877d-ac57-42d8-b220-ccd124678db6
b367e658-c2a1-463d-835d-a077df9586d0,4a8a877d-ac57-42d8-b220-ccd124678db6
3dd7efdb-e299-4a3b-8338-53cd6fb7399f,4a8a877d-ac57-42d8-b220-ccd124678db6
15387a4d-3efd-4f05-978e-24c88bfc17b5,2afde734-b5de-4593-98f6-5f2c12a2040e
5e515b90-a35a-482c-8291-dc2f619e0130,4a8a877d-ac57-42d8-b220-ccd124678db6
d1ac25cf-ec45-434f-8905-e1a9a3da8362,bd93e5b2-f6fc-4cb0-8ad2-2904ec8152bd
78defa65-4962-47fd-90bb-65e7c8b1ec34,4a8a877d-ac57-42d8-b220-ccd124678db6
17e62c3c-a6fc-495e-b868-3af7e7ad44d3,4a8a877d-ac57-42d8-b220-ccd124678db6
5bc1dc60-128c-47e1-bb1a-a23e7a30c5af,4a8a877d-ac57-42d8-b220-ccd124678db6
af25c042-ff95-4321-8451-098c0f18b33a,1fe068c7-07f6-4676-9124-7f3814cf4d1e
1c113459-2c59-4590-9869-bc2dfddf8b2e,be634ab1-efd5-4908-ae98-611365d96820
b9a3ed32-5a5d-497a-9d4a-fac96812aec9,4a8a877d-ac57-42d8-b220-ccd124678db6
d79d63ce-fb84-464b-8005-abab0c06b68e,4a8a877d-ac57-42d8-b220-ccd124678db6
