actor,node
b8f2092f-6000-48fe-afc0-6890af305d50,babc1bc4-ea3a-4fbf-ba7b-22860380b305
a5187682-e550-4f2c-be02-6faa015395e6,6bb4bb80-d33b-49bf-98ad-7e15e4a3988a
c80da344-61bc-4c05-b24c-2f39606333d2,babc1bc4-ea3a-4fbf-ba7b-22860380b305
46821a70-db69-4807-acdd-3782224b5838,d840282c-003d-4193-be5f-175e012cd6d1
32cc27f8-d9e8-452b-9828-b16f22bdb5e1,62791ea5-793c-4e0c-8d0d-ba8a3cd708a4
01d53c96-4af2-4871-90e6-97ea7dd00657,b997f916-30cf-4351-a90b-028c4fd04a32
6b4f9b6e-fd35-4d4c-98d6-c1e7e09d9fad,ce96ffef-901a-4384-921a-87012f85a9d5
0031cfc9-ea24-49b2-abc1-bfdf8a88e620,abf5e1b0-7e5b-4816-a37d-ce6ec1a52d62
962172bb-3707-4b1b-8a7f-767103e15443,6c08d55d-ddcb-401d-83ea-042652b1eb23
cd350599-fa84-4f78-a03c-3116b9910551,ce96ffef-901a-4384-921a-87012f85a9d5
272d6fd2-3348-4fb9-80d1-5f55a9145938,30f8548e-cf60-476a-a9b7-14a4ba2ae1c2
25598d71-eb36-4b86-8fd8-42da2952b493,a50a834b-4849-43a7-98b8-53f0bbbc3d81
681e5622-5685-4ef4-96b6-ce980a2366e3,afecf20b-5c1e-4f05-b46f-7adcc3c0ae9b
0c828140-5f1a-48b8-a541-93d847054ac6,bcabeb85-a736-447f-8eb3-6ca0588e10a8
ac136b76-fda0-4984-a15f-1af19c342c9d,23f2a238-02d4-44e5-a742-294750558ab4
eb47e60b-9557-4858-a12a-d4b31e9cf945,6c08d55d-ddcb-401d-83ea-042652b1eb23
c589fc81-1585-464a-a891-15fb822c199c,6c08d55d-ddcb-401d-83ea-042652b1eb23
3d24983b-c89a-48a3-bc4c-78a6bf0f8040,59587e11-3ed1-48ac-81b3-81c1825afdb3
7c188a15-1fad-4d58-85ee-aba62e0dcae2,ee4cc8a1-98a1-4684-bd8b-5d6344065945
3bc1f9f6-ddb3-43be-b025-6538a4569776,d840282c-003d-4193-be5f-175e012cd6d1
cd367206-b409-46f4-8555-76b4f62179af,b64e7026-20cc-46d6-9b9e-d18192656391
906f5313-818f-4c79-8ee0-77c93b49a628,30d2d5bc-1286-4d67-84bd-450b4457e5ee
38d3c523-a451-4f36-887b-c9120c27ed77,83e0268f-4f6c-4407-9beb-402c88577a69
6ab295a4-7754-45a6-abd9-1a04128d4cea,baca5b53-639c-4f64-91b5-c165fabe49c3
f5314f40-72b4-4f7e-8c84-d9e68f0a6eb4,18f2a74c-debe-4e4e-9f3b-c80502cd39b1
8ca395b1-9104-4432-bf5f-444962350a19,cf5e66a5-091c-462b-a5ac-c4fa85da0a30
331d6d54-2686-4cfc-81b0-17eb2f630a0c,cf5e66a5-091c-462b-a5ac-c4fa85da0a30
949bc259-14ab-4689-a0b2-089c15337929,afecf20b-5c1e-4f05-b46f-7adcc3c0ae9b
5493fbd6-3fc0-4636-aa78-eacbef8554da,a5f51636-28ee-4c09-8349-8b3259b6d0ba
622f3ea9-6353-4638-b07b-ae7bd2a7349f,afecf20b-5c1e-4f05-b46f-7adcc3c0ae9b
89a58320-9ea9-4820-bf36-0479c5a6d8d2,b4ed2950-41bb-4072-96be-41f3462eeb83
dc55f9fc-8f5b-4650-b10d-cba9fc140e67,afecf20b-5c1e-4f05-b46f-7adcc3c0ae9b
9b21e371-0756-44bb-b7e8-a4cf19b958b9,afecf20b-5c1e-4f05-b46f-7adcc3c0ae9b
2d8cb2ae-0c95-4217-8bef-5d7daef9faa1,38b7f7a2-0b10-48af-ada5-8a7afa675837
06780f9c-1296-488d-82d0-d6e0f7d0d571,30f8548e-cf60-476a-a9b7-14a4ba2ae1c2
dbcd2211-6bed-4edd-a900-73ccd13e02f1,30f8548e-cf60-476a-a9b7-14a4ba2ae1c2
b18963d7-f8a6-40bb-9eb9-7457a134c1c0,32d5f924-10c6-4198-ae0b-f76d6ef4a284
b4aa0c66-fd61-4e00-a967-8b0ed6684535,32d5f924-10c6-4198-ae0b-f76d6ef4a284
fab02dbd-6d2e-43ac-becb-8f51153a8f84,ff555b6f-ddec-4a20-863c-17fe853da037
b6222572-e4f6-4b68-8070-518456ec87e0,650df1d3-7edb-4fcc-a866-4d40cb23501f
afbad158-db53-4ffa-8bef-5f8ef815d6e0,baca5b53-639c-4f64-91b5-c165fabe49c3
9903a386-be91-4527-9196-e87d14bbc2c3,ce96ffef-901a-4384-921a-87012f85a9d5
b0a5844a-e473-4c35-a092-363041247017,82a889d3-22ac-40f4-8b2d-2a896537bad4
c93a7915-6d3d-4432-b505-fd43757a20d4,97e93ccf-b1d7-4a9d-9e6e-2397ebb8db81
4dba6583-1492-43ac-820b-eac0553b1c6a,82a889d3-22ac-40f4-8b2d-2a896537bad4
735fefab-e90f-4907-b40d-478b43a11853,7c72cb3d-f685-45fb-aedc-e013bab4f3b3
2382ec2d-0e74-43d0-b151-4f9e2b4c8515,6c08d55d-ddcb-401d-83ea-042652b1eb23
fcc8c18b-620f-4aea-aba4-1f57a60e55c1,30d2d5bc-1286-4d67-84bd-450b4457e5ee
8fa6528f-87d8-4352-aa80-c2f5f67d649e,96a02e4d-d2a4-4326-8354-598ef354a6da
69b24080-fcdd-46da-a845-a8e2939c9338,6c08d55d-ddcb-401d-83ea-042652b1eb23
0fff5a75-bd2e-4373-a92a-2cec581b7e05,a905fc78-3379-4906-b276-f0cd6da6f4e6
1d1ac01f-ea79-4a02-aeeb-e7778265fda7,5b4809fd-05c9-44a8-8e1d-e9a9477ac5ef
75de71fb-3f18-49fc-826d-dabce3395374,32d5f924-10c6-4198-ae0b-f76d6ef4a284
12d3a475-aba2-4ee6-810a-b031121c326b,32d5f924-10c6-4198-ae0b-f76d6ef4a284
c93fe9df-0813-4053-9e39-d83e7854701c,9ef96fac-67b2-4812-b434-6df56cf27701
a016cca0-aed0-4371-94da-6b68def6fa37,6c08d55d-ddcb-401d-83ea-042652b1eb23
cb728e2b-ce3e-4766-9efc-583e41654481,6c08d55d-ddcb-401d-83ea-042652b1eb23
ac8b1781-c5cb-491f-ab58-c8bf7a632c9c,62791ea5-793c-4e0c-8d0d-ba8a3cd708a4
ac0a8c24-24c2-4071-81f8-26e7576ec2a3,62791ea5-793c-4e0c-8d0d-ba8a3cd708a4
fad19847-4416-4390-9c76-793366a92faf,eaf2d11c-28c1-4dcd-8b4d-4e9c7dd81009
79ef1764-45f4-4047-b5ba-f001805137f5,cf5e66a5-091c-462b-a5ac-c4fa85da0a30
4ad705fd-f0fa-4072-8d9f-7765baa7b318,78459ac6-a50a-4666-929d-da713b766c33
d9da4eb8-8d14-48b3-a220-586a9ab0e7ff,cf5e66a5-091c-462b-a5ac-c4fa85da0a30
86ef5252-d530-4af7-b11b-39bd3ed1108a,e6b29ff3-a913-40b9-a006-a6af873b0ed9
ede90709-f42e-40e0-b2b2-e5999c821f31,96a02e4d-d2a4-4326-8354-598ef354a6da
c2f39621-7df4-4e22-9554-c2017417ba9f,96a02e4d-d2a4-4326-8354-598ef354a6da
bce62c63-4915-4676-977d-e3f30b57d785,babc1bc4-ea3a-4fbf-ba7b-22860380b305
ec9959e2-7ae9-4a02-96a2-5893f12fea48,69d20fd6-f1a4-4a0c-a07b-ccd6b78c1459
cc7c483e-edb0-4405-b810-c567a83bdb69,baca5b53-639c-4f64-91b5-c165fabe49c3
2aa2518e-6a3e-43ec-9f62-17010aca6698,46a1473b-c914-4d18-823e-95fc1e759daf
6e0c871e-f962-45d6-ba3d-8df0e6810a73,afecf20b-5c1e-4f05-b46f-7adcc3c0ae9b
7acdbd4b-6ef7-4331-bc30-df0439080018,afecf20b-5c1e-4f05-b46f-7adcc3c0ae9b
6ad92ac4-82a2-44ee-838d-fc9654c0c4e3,fc0fbc42-b9e6-4c49-b5d3-e08520451916
897f84ce-844a-49d8-b09a-8f6a452f4b6f,82a889d3-22ac-40f4-8b2d-2a896537bad4
592fd805-e89a-415d-b9cc-92c98353068f,82a889d3-22ac-40f4-8b2d-2a896537bad4
ff312b1c-66a3-4924-aff2-3e64879f04f5,f8d0f1bf-a335-4d99-b529-8a23a12977a1
6f42bf0e-78c2-4293-9fa1-8228f3572180,b64e7026-20cc-46d6-9b9e-d18192656391
1ab2b213-88f3-4ced-acb1-7141a613a67a,b64e7026-20cc-46d6-9b9e-d18192656391
4a14f619-0a06-4a53-acc9-36688f3e4350,babc1bc4-ea3a-4fbf-ba7b-22860380b305
08942516-68ab-47be-a921-2a1078d9b207,babc1bc4-ea3a-4fbf-ba7b-22860380b305
f9c10184-0807-4005-ab18-f1bd93b5bf97,b85059ef-bd08-47c7-ad44-b7e31a4e0f4e
e61088d1-2e7b-44ee-a093-c1c67b6974f8,59a1e202-985c-4ee7-aa2c-01e4845e1171
fdcac3a1-b729-47e0-8b50-1fa574f455e2,baca5b53-639c-4f64-91b5-c165fabe49c3
c8b1cd47-2a5e-471d-b689-3ef91ebc9805,baca5b53-639c-4f64-91b5-c165fabe49c3
c736e6ee-b648-4c2b-82e6-a50c2260c2cd,b8641801-9d0f-4f21-9e9b-97ea11f30115
bf2f41c9-fd50-4a65-9700-9af2313c7940,62791ea5-793c-4e0c-8d0d-ba8a3cd708a4
c848162f-e2f1-4f51-a576-8468fba2496e,baca5b53-639c-4f64-91b5-c165fabe49c3
afc9de84-975e-42ac-8389-c89ee218c883,346abda8-6aa2-4ddb-b878-edd65adc631d
2d7caa43-541e-43bf-a019-48736b0ad56c,30d2d5bc-1286-4d67-84bd-450b4457e5ee
e9ea5f5c-c903-456f-ba45-15376e72ec88,baca5b53-639c-4f64-91b5-c165fabe49c3
554ce7db-f149-4af0-b2ec-7b6e62d077a7,c4356b98-37db-4195-bd6a-a1424efe30a2
40030652-841f-4fca-a027-c802d4837c48,cf5e66a5-091c-462b-a5ac-c4fa85da0a30
fa469b62-fe1f-4016-a64c-539f59d9f848,cf5e66a5-091c-462b-a5ac-c4fa85da0a30
c849131e-6302-47f7-af80-074d48a17a8c,62791ea5-793c-4e0c-8d0d-ba8a3cd708a4
4755f36f-fdf0-46e8-b5c3-ae3659965c07,0c9af223-5da7-4346-a5e5-9b418f35e343
57d79ada-4bb1-409f-899a-2170c9b73a36,62791ea5-793c-4e0c-8d0d-ba8a3cd708a4
a5ba509c-0b7d-40a7-8a08-4f923cce5ed7,359d291b-5265-4d87-9ec2-0c981743bfa0
be8fb942-75d2-4b30-85e1-a7ecd4abb88e,30f8548e-cf60-476a-a9b7-14a4ba2ae1c2
9892810c-a2f9-462c-978a-36b270e3c194,30f8548e-cf60-476a-a9b7-14a4ba2ae1c2
31c0b04d-4998-4615-a8cf-57cd103f5920,30f8548e-cf60-476a-a9b7-14a4ba2ae1c2
606b07d9-ad6c-42b5-9a00-115975bc6b1c,a39809c5-3594-4e57-a5e7-efa4038f5f0b
dd49dcc5-eb10-43bb-a8d8-1cca027a9949,30f8548e-cf60-476a-a9b7-14a4ba2ae1c2
31e8585a-adaf-4c66-97f8-aba0bb818c0e,b64e7026-20cc-46d6-9b9e-d18192656391
6657603a-b94e-47b7-a0aa-cc48b5324a9c,b64e7026-20cc-46d6-9b9e-d18192656391
8ddf8376-11cd-439c-b144-9a81dabed322,22c2b2c8-153a-4232-9112-e76adebefaa1
63e5895a-a6ba-4496-90cc-26b708a19f43,d840282c-003d-4193-be5f-175e012cd6d1
4b22149a-c87f-4a58-beb9-985527a3bdd8,d840282c-003d-4193-be5f-175e012cd6d1
c76beb61-6c53-4463-9a6b-f30f75adcb2b,871c8334-4039-4465-b729-1119befdcb26
d815535e-44eb-4488-afac-5b51d6831816,62791ea5-793c-4e0c-8d0d-ba8a3cd708a4
92579d26-0b66-4163-b017-c83fcfa20f15,62791ea5-793c-4e0c-8d0d-ba8a3cd708a4
82970280-0710-4a08-8e23-ba978acc1122,5acfcf4e-0aac-4567-9ab1-a845522bb0bb
ad66b633-a4a7-4b89-a738-d1853827d12a,30f8548e-cf60-476a-a9b7-14a4ba2ae1c2
fcf59c65-2855-4fee-9ee0-a8ca7f94e731,3c7bc767-e1bf-4bb3-a5ee-cf57c9ffbe12
2b898a0a-aa90-41a3-9a2a-8f02cf2f7fee,30f8548e-cf60-476a-a9b7-14a4ba2ae1c2
7193dbd0-f992-4088-a995-cc9d134ef24a,32d5f924-10c6-4198-ae0b-f76d6ef4a284
6b0a81ef-3e4a-46cd-b7ce-bb91dfd5e847,3e7c86ae-87dc-4fdb-acfd-d7b6ef00c98f
c1d7e0b5-2a90-49b1-abd1-0cfa96342f24,32d5f924-10c6-4198-ae0b-f76d6ef4a284
0e8d1aac-3e0c-436e-aa34-847cd643bdd6,6c08d55d-ddcb-401d-83ea-042652b1eb23
09fcc750-5723-4a0e-bef6-da37f13e0e41,5c33b7ef-f3f4-4ab1-85fb-a634a4ac96d8
c0f1ccd8-a6fc-4e7b-b17b-b4d8176df472,6c08d55d-ddcb-401d-83ea-042652b1eb23
41a8d895-3415-48c3-bdcd-6357e60f1120,32d5f924-10c6-4198-ae0b-f76d6ef4a284
d0ec522d-f35d-465d-b4ef-b95e1173777b,bb1a229f-164d-4872-ab00-91de57264552
1fab07c5-bd71-4cad-8108-0a002c15fb5b,32d5f924-10c6-4198-ae0b-f76d6ef4a284
5e9a84ba-6f00-40e1-b549-36d2ac585658,6c08d55d-ddcb-401d-83ea-042652b1eb23
59e6c741-258f-422d-b499-cc449f00776c,6c08d55d-ddcb-401d-83ea-042652b1eb23
ed76130f-eaea-4342-ae02-9369f9cd0120,5edb7ee8-6544-4453-b00a-80ee1553c096
4bcb7e75-f7f1-4533-ace8-349e38ee3c2c,96a02e4d-d2a4-4326-8354-598ef354a6da
a43d0884-109c-41dd-9c6c-9bd3d2a4881f,736ca8b3-bbfb-44ef-9a3d-8cac56aada22
7f8fe2b0-4afa-4cbc-b707-1e852e0ac787,96a02e4d-d2a4-4326-8354-598ef354a6da
a8d8be4d-cd0d-45ac-a644-a3e3fdb25694,cf5e66a5-091c-462b-a5ac-c4fa85da0a30
ed16e157-5861-421e-a04c-e5ba82cea82d,cf5e66a5-091c-462b-a5ac-c4fa85da0a30
c694b373-8e1d-4e1c-bf4e-40eadfb5d784,0039d546-45ae-4847-9c8b-31507405dc27
82a35b11-e41c-4771-8d69-e99a942626b1,ce96ffef-901a-4384-921a-87012f85a9d5
bd64a395-d53d-4eab-8ace-c6db3910fe8f,ce96ffef-901a-4384-921a-87012f85a9d5
95b87454-f9a0-40b2-a709-b14f5363c5f0,3f2351ee-7512-4b3a-a400-8702fc1422f6
82f2ff00-8549-4a20-b745-9dd7966623e8,ce96ffef-901a-4384-921a-87012f85a9d5
ce128dd7-a637-49cb-8232-d6ba7cb124df,ce96ffef-901a-4384-921a-87012f85a9d5
eb794bc6-f238-44ea-a4e0-f3bac376ad25,1fdc52ea-026b-46c5-ac87-6085ac010972
81414a6c-83ca-494a-b3ee-4bfa621963ec,bcabeb85-a736-447f-8eb3-6ca0588e10a8
70345077-d45a-4aef-9cb3-cc63b9434d4e,bcabeb85-a736-447f-8eb3-6ca0588e10a8
5e3e030f-bf5d-402d-a820-939b84298bbf,c123bcbc-ba7c-4b0e-824e-d778e6a74a2f
9aa37dfc-d834-4db4-991c-e89a31c013f3,cf5e66a5-091c-462b-a5ac-c4fa85da0a30
675560ee-4804-48f1-85e1-2bd7ff032e64,cf5e66a5-091c-462b-a5ac-c4fa85da0a30
db0b54a8-4383-4f94-b78f-8dea40d0a208,89119f80-202d-475a-9a04-b42857157502
dc480808-867e-4723-aa0a-f688f3a43ee6,32d5f924-10c6-4198-ae0b-f76d6ef4a284
1c0917c5-5d43-4a97-b7ef-67d05786167e,5c4ac6e5-8651-4c21-b0fd-b6b24c11e451
e5acc86d-7c8c-4428-9424-c1f4b66a595b,32d5f924-10c6-4198-ae0b-f76d6ef4a284
84afd1fb-2480-4b75-bd1a-19fffb189e58,bcabeb85-a736-447f-8eb3-6ca0588e10a8
9c6d39fb-463b-401a-8ee6-bfa0c92db6c7,bcabeb85-a736-447f-8eb3-6ca0588e10a8
35c7ba1c-1182-41b0-bfcb-cafe71beac80,784b689e-dbcc-4372-9dac-fae818505db6
