node,ip,uuid
node-a8-199.grenoble.iot-lab.info,172.20.64.1,2cd7b289-5806-42bd-914d-c50d1d32b417
node-a8-200.grenoble.iot-lab.info,172.20.64.2,9b74ce0e-174f-474d-96df-ca00c0083e32
node-a8-201.grenoble.iot-lab.info,172.20.64.3,02ea0c2e-7f24-4389-8f4d-7e69174f0210
node-a8-202.grenoble.iot-lab.info,172.20.64.4,510c6988-1657-4ef3-a208-ca73408ab52a
node-a8-204.grenoble.iot-lab.info,172.20.64.5,f6a363e2-a206-420d-aa55-4ddf0935786c
node-a8-205.grenoble.iot-lab.info,172.20.64.6,e290b334-3b11-4250-a36a-85bfedca8d98
node-a8-206.grenoble.iot-lab.info,172.20.64.7,655a4954-f4cb-4175-a0a5-99cea2aeab0f
node-a8-207.grenoble.iot-lab.info,172.20.64.8,013e7a7f-f313-44dd-8b3b-5764a7e8940b
node-a8-208.grenoble.iot-lab.info,172.20.64.9,acdfc53c-e3f9-4ba3-98d8-316bdb3a6cfb
node-a8-209.grenoble.iot-lab.info,172.20.64.10,96fa6769-ec4f-42ba-907d-104471bb8912
node-a8-210.grenoble.iot-lab.info,172.20.64.11,78eea2c8-a56b-4cb4-8d80-c895c47381b4
node-a8-211.grenoble.iot-lab.info,172.20.64.12,2403ab62-edd5-4c97-ba06-2f469bc6fe22
node-a8-212.grenoble.iot-lab.info,172.20.64.13,e6fcc89c-4ea5-4232-a461-aebb20e7dd81
node-a8-214.grenoble.iot-lab.info,172.20.64.14,c7aa95fa-065b-45bc-ae85-c4571d568b76
node-a8-216.grenoble.iot-lab.info,172.20.64.15,ad8f18e8-5b06-4af8-8ef9-56552484d701
node-a8-217.grenoble.iot-lab.info,172.20.64.16,48986016-591f-4b07-b9ca-5fecbaa1ed27
node-a8-218.grenoble.iot-lab.info,172.20.64.17,89c8c82a-fac0-4e27-b761-80256d272841
node-a8-219.grenoble.iot-lab.info,172.20.64.18,926e0de0-730a-48fa-8fb5-f6f9658f3b89
node-a8-220.grenoble.iot-lab.info,172.20.64.19,edbbd21e-3f6b-46a0-b098-530b0b93c913
node-a8-221.grenoble.iot-lab.info,172.20.64.20,02882d00-733c-459a-9b3a-cb6d616b762a
node-a8-165.grenoble.iot-lab.info,172.20.64.21,17442b11-7166-4303-b7d8-60cc25013763
node-a8-166.grenoble.iot-lab.info,172.20.64.22,989de42e-63ba-4966-803d-5c9db603f0d2
node-a8-167.grenoble.iot-lab.info,172.20.64.23,52ba3713-f788-4206-976d-24bc2a5e0416
node-a8-168.grenoble.iot-lab.info,172.20.64.24,d6536d4e-e6ec-486d-ae30-075b10064705
node-a8-169.grenoble.iot-lab.info,172.20.64.25,79b486ca-5c72-4876-9bfc-381ab32ee8e1
node-a8-170.grenoble.iot-lab.info,172.20.64.26,0b23a531-3d05-4439-827e-0939fd5a053e
node-a8-171.grenoble.iot-lab.info,172.20.64.27,4e2b9e48-5d7a-42f3-a359-8e5f6b5ec832
node-a8-173.grenoble.iot-lab.info,172.20.64.28,dd2d9d8b-61b0-4e1f-bebf-5aa1d77524e4
node-a8-174.grenoble.iot-lab.info,172.20.64.29,ea9598f0-b475-4cf2-a08b-10c30211ec7c
node-a8-175.grenoble.iot-lab.info,172.20.64.30,2ab0cc7f-8148-4644-9242-9ac8b0e4c11f
node-a8-176.grenoble.iot-lab.info,172.20.64.31,10f2a79b-c70d-4b7e-959f-9267faa6b8e8
node-a8-177.grenoble.iot-lab.info,172.20.64.32,606dfdef-9ccc-44ed-964e-df15bd11fe50
node-a8-179.grenoble.iot-lab.info,172.20.64.33,92eff870-1129-490e-bbf4-c8675a1a9dd9
node-a8-180.grenoble.iot-lab.info,172.20.64.34,48d71008-a0ac-4d4a-a527-9e2b7cfe5b64
node-a8-181.grenoble.iot-lab.info,172.20.64.35,74ecf433-5cf8-4623-9d69-fdf2559433ec
node-a8-182.grenoble.iot-lab.info,172.20.64.36,ba64f7fb-d24f-4d58-b515-fae38bce257a
node-a8-183.grenoble.iot-lab.info,172.20.64.37,876fc3a8-502c-43bb-9a5a-de508e629238
node-a8-184.grenoble.iot-lab.info,172.20.64.38,ad4d9b96-7cef-49e2-8243-a637dc466c42
node-a8-185.grenoble.iot-lab.info,172.20.64.39,a2d4cd03-4289-4a1f-a766-1c0c6715b349
node-a8-187.grenoble.iot-lab.info,172.20.64.40,f4d70e4f-8659-4c21-b6e0-d0650ab80787
node-a8-188.grenoble.iot-lab.info,172.20.64.41,98421d53-504a-47e6-aca8-90ace14f20f6
node-a8-189.grenoble.iot-lab.info,172.20.64.42,2b72cdb3-8f52-4bb1-9216-68423bda8136
node-a8-190.grenoble.iot-lab.info,172.20.64.43,53523028-2d7a-47a4-a4da-36295661fbe2
node-a8-191.grenoble.iot-lab.info,172.20.64.44,45ff3dd3-c8fa-4115-be00-4f6f710b2095
node-a8-192.grenoble.iot-lab.info,172.20.64.45,80379de1-1a85-4e7a-99cc-a04c012c6325
node-a8-193.grenoble.iot-lab.info,172.20.64.46,ae9287aa-2480-4a70-8669-430d2e81e9cd
node-a8-194.grenoble.iot-lab.info,172.20.64.47,281fbf54-c3b9-4168-8508-931834698e18
node-a8-195.grenoble.iot-lab.info,172.20.64.48,d52231ff-d33f-4675-bd7f-9abd89a1ff00
node-a8-197.grenoble.iot-lab.info,172.20.64.49,aa8ff6c0-bf00-4e89-9f27-20080cbfdf5b
node-a8-198.grenoble.iot-lab.info,172.20.64.50,97b4e29a-a079-4b4c-8f40-87a9186faecc
uvb-31.sophia.grid5000.fr,172.16.132.31,36ac61d3-a050-4387-a9d2-d8ec7ad1e410
uvb-33.sophia.grid5000.fr,172.16.132.33,89e5843f-b9be-4885-841a-858b6e05e40d
uvb-34.sophia.grid5000.fr,172.16.132.34,4e592d21-c351-4bb2-86a0-95bbc627388c
uvb-35.sophia.grid5000.fr,172.16.132.35,974946f4-6502-451a-b93d-3556af9a4856
uvb-36.sophia.grid5000.fr,172.16.132.36,6d36d0ac-df6b-45da-a799-1de88cf4bafc
uvb-37.sophia.grid5000.fr,172.16.132.37,af0cc2e2-4c34-4911-b55e-a8425325a21e
uvb-38.sophia.grid5000.fr,172.16.132.38,80a7e659-b464-4845-869b-c1aee78ee58f
uvb-4.sophia.grid5000.fr,172.16.132.4,1e034b22-a026-40e7-aff7-d64a348aa439
uvb-41.sophia.grid5000.fr,172.16.132.41,7f998363-5cdb-4ae3-884a-db41e7d38738
uvb-42.sophia.grid5000.fr,172.16.132.42,7949d868-5e03-44fa-8f10-ff304db0195d
uvb-43.sophia.grid5000.fr,172.16.132.43,f82de679-24f9-47de-994f-29f0fdbae294
uvb-44.sophia.grid5000.fr,172.16.132.44,c5e4b977-459b-47e6-843e-d9c5d5d47d2e
uvb-5.sophia.grid5000.fr,172.16.132.5,2feb7152-1d18-493d-b237-626a2c4ff26a
uvb-6.sophia.grid5000.fr,172.16.132.6,ebcb614d-eea5-4f78-a405-5cb489e17468
uvb-8.sophia.grid5000.fr,172.16.132.8,371f31de-d2a2-4956-949c-d48db11df62d
uvb-9.sophia.grid5000.fr,172.16.132.9,80f94906-cbc8-4acc-8566-52d58490b4f3
