date,trigger,state
2019-10-24 03:55:02,e0024896-28ab-414d-82fb-03f5f8b39afb,A
2019-10-24 04:13:55,e0024896-28ab-414d-82fb-03f5f8b39afb,S
2019-10-24 04:14:17,e0024896-28ab-414d-82fb-03f5f8b39afb,A
2019-10-24 04:17:01,e0024896-28ab-414d-82fb-03f5f8b39afb,S
2019-10-24 04:21:01,e0024896-28ab-414d-82fb-03f5f8b39afb,A
2019-10-24 04:21:31,e0024896-28ab-414d-82fb-03f5f8b39afb,S
2019-10-24 04:24:32,e0024896-28ab-414d-82fb-03f5f8b39afb,A
2019-10-24 04:26:11,e0024896-28ab-414d-82fb-03f5f8b39afb,S
2019-10-24 04:40:40,e0024896-28ab-414d-82fb-03f5f8b39afb,A
2019-10-24 04:42:16,e0024896-28ab-414d-82fb-03f5f8b39afb,S
2019-10-24 04:42:22,e0024896-28ab-414d-82fb-03f5f8b39afb,A
2019-10-24 04:44:42,e0024896-28ab-414d-82fb-03f5f8b39afb,S
2019-10-24 04:44:50,e0024896-28ab-414d-82fb-03f5f8b39afb,A
2019-10-24 04:46:52,e0024896-28ab-414d-82fb-03f5f8b39afb,S
2019-10-24 04:50:53,e0024896-28ab-414d-82fb-03f5f8b39afb,A
2019-10-24 05:01:36,e0024896-28ab-414d-82fb-03f5f8b39afb,S
2019-10-24 05:07:20,e0024896-28ab-414d-82fb-03f5f8b39afb,A
2019-10-24 05:09:34,e0024896-28ab-414d-82fb-03f5f8b39afb,S
2019-10-24 05:13:00,e0024896-28ab-414d-82fb-03f5f8b39afb,A
2019-10-24 05:16:33,e0024896-28ab-414d-82fb-03f5f8b39afb,S
2019-10-24 03:56:06,3aaf6aec-3a2c-436c-9450-64c11ed42d25,S
2019-10-24 03:56:10,3aaf6aec-3a2c-436c-9450-64c11ed42d25,A
2019-10-24 04:03:20,3aaf6aec-3a2c-436c-9450-64c11ed42d25,S
2019-10-24 04:14:51,3aaf6aec-3a2c-436c-9450-64c11ed42d25,A
2019-10-24 04:16:27,3aaf6aec-3a2c-436c-9450-64c11ed42d25,S
2019-10-24 04:19:34,3aaf6aec-3a2c-436c-9450-64c11ed42d25,A
2019-10-24 04:19:51,3aaf6aec-3a2c-436c-9450-64c11ed42d25,S
2019-10-24 04:37:49,3aaf6aec-3a2c-436c-9450-64c11ed42d25,A
2019-10-24 04:40:13,3aaf6aec-3a2c-436c-9450-64c11ed42d25,S
2019-10-24 04:52:35,3aaf6aec-3a2c-436c-9450-64c11ed42d25,A
2019-10-24 05:04:43,3aaf6aec-3a2c-436c-9450-64c11ed42d25,S
2019-10-24 05:10:14,3aaf6aec-3a2c-436c-9450-64c11ed42d25,A
2019-10-24 05:10:41,3aaf6aec-3a2c-436c-9450-64c11ed42d25,S
2019-10-24 05:12:56,3aaf6aec-3a2c-436c-9450-64c11ed42d25,A
2019-10-24 05:16:35,3aaf6aec-3a2c-436c-9450-64c11ed42d25,S
2019-10-24 05:19:55,3aaf6aec-3a2c-436c-9450-64c11ed42d25,A
2019-10-24 05:24:25,3aaf6aec-3a2c-436c-9450-64c11ed42d25,S
2019-10-24 05:25:22,3aaf6aec-3a2c-436c-9450-64c11ed42d25,A
2019-10-24 05:25:43,3aaf6aec-3a2c-436c-9450-64c11ed42d25,S
2019-10-24 05:26:42,3aaf6aec-3a2c-436c-9450-64c11ed42d25,A
2019-10-24 03:46:09,a34c793b-3ed1-4831-9c69-4a2f755815c2,A
2019-10-24 03:49:50,a34c793b-3ed1-4831-9c69-4a2f755815c2,S
2019-10-24 03:53:09,a34c793b-3ed1-4831-9c69-4a2f755815c2,A
2019-10-24 03:54:49,a34c793b-3ed1-4831-9c69-4a2f755815c2,S
2019-10-24 04:10:20,a34c793b-3ed1-4831-9c69-4a2f755815c2,A
2019-10-24 04:12:04,a34c793b-3ed1-4831-9c69-4a2f755815c2,S
2019-10-24 04:12:27,a34c793b-3ed1-4831-9c69-4a2f755815c2,A
2019-10-24 04:34:15,a34c793b-3ed1-4831-9c69-4a2f755815c2,S
2019-10-24 04:41:25,a34c793b-3ed1-4831-9c69-4a2f755815c2,A
2019-10-24 04:45:46,a34c793b-3ed1-4831-9c69-4a2f755815c2,S
2019-10-24 04:46:26,a34c793b-3ed1-4831-9c69-4a2f755815c2,A
2019-10-24 04:50:41,a34c793b-3ed1-4831-9c69-4a2f755815c2,S
2019-10-24 04:52:31,a34c793b-3ed1-4831-9c69-4a2f755815c2,A
2019-10-24 04:55:13,a34c793b-3ed1-4831-9c69-4a2f755815c2,S
2019-10-24 05:04:28,a34c793b-3ed1-4831-9c69-4a2f755815c2,A
2019-10-24 05:12:04,a34c793b-3ed1-4831-9c69-4a2f755815c2,S
2019-10-24 05:17:01,a34c793b-3ed1-4831-9c69-4a2f755815c2,A
2019-10-24 05:23:38,a34c793b-3ed1-4831-9c69-4a2f755815c2,S
2019-10-24 04:06:18,92c11acf-3afa-41e7-af40-7d1c7ff46cc9,A
2019-10-24 04:13:32,92c11acf-3afa-41e7-af40-7d1c7ff46cc9,S
2019-10-24 04:15:26,92c11acf-3afa-41e7-af40-7d1c7ff46cc9,A
2019-10-24 04:20:17,92c11acf-3afa-41e7-af40-7d1c7ff46cc9,S
2019-10-24 04:27:31,92c11acf-3afa-41e7-af40-7d1c7ff46cc9,A
2019-10-24 04:34:28,92c11acf-3afa-41e7-af40-7d1c7ff46cc9,S
2019-10-24 04:35:02,92c11acf-3afa-41e7-af40-7d1c7ff46cc9,A
2019-10-24 04:35:26,92c11acf-3afa-41e7-af40-7d1c7ff46cc9,S
2019-10-24 04:36:50,92c11acf-3afa-41e7-af40-7d1c7ff46cc9,A
2019-10-24 04:37:28,92c11acf-3afa-41e7-af40-7d1c7ff46cc9,S
2019-10-24 04:39:44,92c11acf-3afa-41e7-af40-7d1c7ff46cc9,A
2019-10-24 04:46:06,92c11acf-3afa-41e7-af40-7d1c7ff46cc9,S
2019-10-24 04:47:29,92c11acf-3afa-41e7-af40-7d1c7ff46cc9,A
2019-10-24 04:50:11,92c11acf-3afa-41e7-af40-7d1c7ff46cc9,S
2019-10-24 04:50:46,92c11acf-3afa-41e7-af40-7d1c7ff46cc9,A
2019-10-24 04:52:06,92c11acf-3afa-41e7-af40-7d1c7ff46cc9,S
2019-10-24 05:11:27,92c11acf-3afa-41e7-af40-7d1c7ff46cc9,A
2019-10-24 05:29:27,92c11acf-3afa-41e7-af40-7d1c7ff46cc9,S
2019-10-24 05:30:31,92c11acf-3afa-41e7-af40-7d1c7ff46cc9,A
2019-10-24 04:08:05,4f9df644-bb70-4ff0-805c-fcef642989e8,A
2019-10-24 04:22:48,4f9df644-bb70-4ff0-805c-fcef642989e8,S
2019-10-24 04:24:54,4f9df644-bb70-4ff0-805c-fcef642989e8,A
2019-10-24 04:33:59,4f9df644-bb70-4ff0-805c-fcef642989e8,S
2019-10-24 04:45:32,4f9df644-bb70-4ff0-805c-fcef642989e8,A
2019-10-24 04:51:44,4f9df644-bb70-4ff0-805c-fcef642989e8,S
2019-10-24 04:58:25,4f9df644-bb70-4ff0-805c-fcef642989e8,A
2019-10-24 04:58:48,4f9df644-bb70-4ff0-805c-fcef642989e8,S
2019-10-24 04:59:56,4f9df644-bb70-4ff0-805c-fcef642989e8,A
2019-10-24 05:04:15,4f9df644-bb70-4ff0-805c-fcef642989e8,S
2019-10-24 05:04:47,4f9df644-bb70-4ff0-805c-fcef642989e8,A
2019-10-24 05:11:26,4f9df644-bb70-4ff0-805c-fcef642989e8,S
2019-10-24 05:14:09,4f9df644-bb70-4ff0-805c-fcef642989e8,A
2019-10-24 05:15:56,4f9df644-bb70-4ff0-805c-fcef642989e8,S
2019-10-24 05:19:43,4f9df644-bb70-4ff0-805c-fcef642989e8,A
2019-10-24 05:25:59,4f9df644-bb70-4ff0-805c-fcef642989e8,S
2019-10-24 05:26:11,4f9df644-bb70-4ff0-805c-fcef642989e8,A
2019-10-24 05:28:47,4f9df644-bb70-4ff0-805c-fcef642989e8,S
2019-10-24 03:45:40,b5053415-0680-4673-849c-2d141b0957c7,S
2019-10-24 03:53:18,b5053415-0680-4673-849c-2d141b0957c7,A
2019-10-24 03:55:14,b5053415-0680-4673-849c-2d141b0957c7,S
2019-10-24 04:06:32,b5053415-0680-4673-849c-2d141b0957c7,A
2019-10-24 04:08:22,b5053415-0680-4673-849c-2d141b0957c7,S
2019-10-24 04:09:03,b5053415-0680-4673-849c-2d141b0957c7,A
2019-10-24 04:18:34,b5053415-0680-4673-849c-2d141b0957c7,S
2019-10-24 04:21:49,b5053415-0680-4673-849c-2d141b0957c7,A
2019-10-24 04:22:25,b5053415-0680-4673-849c-2d141b0957c7,S
2019-10-24 04:22:56,b5053415-0680-4673-849c-2d141b0957c7,A
2019-10-24 04:28:00,b5053415-0680-4673-849c-2d141b0957c7,S
2019-10-24 04:28:25,b5053415-0680-4673-849c-2d141b0957c7,A
2019-10-24 04:28:49,b5053415-0680-4673-849c-2d141b0957c7,S
2019-10-24 04:29:33,b5053415-0680-4673-849c-2d141b0957c7,A
2019-10-24 04:31:24,b5053415-0680-4673-849c-2d141b0957c7,S
2019-10-24 04:32:17,b5053415-0680-4673-849c-2d141b0957c7,A
2019-10-24 04:42:51,b5053415-0680-4673-849c-2d141b0957c7,S
2019-10-24 04:44:02,b5053415-0680-4673-849c-2d141b0957c7,A
2019-10-24 04:50:55,b5053415-0680-4673-849c-2d141b0957c7,S
2019-10-24 04:59:35,b5053415-0680-4673-849c-2d141b0957c7,A
2019-10-24 05:02:43,b5053415-0680-4673-849c-2d141b0957c7,S
2019-10-24 05:06:18,b5053415-0680-4673-849c-2d141b0957c7,A
2019-10-24 05:06:34,b5053415-0680-4673-849c-2d141b0957c7,S
2019-10-24 05:13:39,b5053415-0680-4673-849c-2d141b0957c7,A
2019-10-24 05:13:47,b5053415-0680-4673-849c-2d141b0957c7,S
2019-10-24 05:14:13,b5053415-0680-4673-849c-2d141b0957c7,A
2019-10-24 05:14:50,b5053415-0680-4673-849c-2d141b0957c7,S
2019-10-24 05:16:55,b5053415-0680-4673-849c-2d141b0957c7,A
2019-10-24 05:16:58,b5053415-0680-4673-849c-2d141b0957c7,S
2019-10-24 05:28:44,b5053415-0680-4673-849c-2d141b0957c7,A
2019-10-24 05:32:08,b5053415-0680-4673-849c-2d141b0957c7,S
2019-10-24 03:59:33,2fbdcd2b-b9c1-420d-aedc-fb3d900d053e,S
2019-10-24 04:11:47,2fbdcd2b-b9c1-420d-aedc-fb3d900d053e,A
2019-10-24 04:21:56,2fbdcd2b-b9c1-420d-aedc-fb3d900d053e,S
2019-10-24 04:23:14,2fbdcd2b-b9c1-420d-aedc-fb3d900d053e,A
2019-10-24 04:25:13,2fbdcd2b-b9c1-420d-aedc-fb3d900d053e,S
2019-10-24 04:31:52,2fbdcd2b-b9c1-420d-aedc-fb3d900d053e,A
2019-10-24 04:32:39,2fbdcd2b-b9c1-420d-aedc-fb3d900d053e,S
2019-10-24 04:35:01,2fbdcd2b-b9c1-420d-aedc-fb3d900d053e,A
2019-10-24 04:35:51,2fbdcd2b-b9c1-420d-aedc-fb3d900d053e,S
2019-10-24 04:36:14,2fbdcd2b-b9c1-420d-aedc-fb3d900d053e,A
2019-10-24 04:36:32,2fbdcd2b-b9c1-420d-aedc-fb3d900d053e,S
2019-10-24 04:43:29,2fbdcd2b-b9c1-420d-aedc-fb3d900d053e,A
2019-10-24 04:56:19,2fbdcd2b-b9c1-420d-aedc-fb3d900d053e,S
2019-10-24 05:00:56,2fbdcd2b-b9c1-420d-aedc-fb3d900d053e,A
2019-10-24 05:01:35,2fbdcd2b-b9c1-420d-aedc-fb3d900d053e,S
2019-10-24 05:18:30,2fbdcd2b-b9c1-420d-aedc-fb3d900d053e,A
2019-10-24 05:20:51,2fbdcd2b-b9c1-420d-aedc-fb3d900d053e,S
2019-10-24 05:21:04,2fbdcd2b-b9c1-420d-aedc-fb3d900d053e,A
2019-10-24 05:22:23,2fbdcd2b-b9c1-420d-aedc-fb3d900d053e,S
2019-10-24 05:24:50,2fbdcd2b-b9c1-420d-aedc-fb3d900d053e,A
2019-10-24 05:30:18,2fbdcd2b-b9c1-420d-aedc-fb3d900d053e,S
2019-10-24 03:37:34,2e7be084-1659-4665-a6a5-eebba26232ac,S
2019-10-24 03:41:41,2e7be084-1659-4665-a6a5-eebba26232ac,A
2019-10-24 03:52:05,2e7be084-1659-4665-a6a5-eebba26232ac,S
2019-10-24 03:53:39,2e7be084-1659-4665-a6a5-eebba26232ac,A
2019-10-24 04:01:09,2e7be084-1659-4665-a6a5-eebba26232ac,S
2019-10-24 04:01:24,2e7be084-1659-4665-a6a5-eebba26232ac,A
2019-10-24 04:02:49,2e7be084-1659-4665-a6a5-eebba26232ac,S
2019-10-24 04:20:06,2e7be084-1659-4665-a6a5-eebba26232ac,A
2019-10-24 04:25:52,2e7be084-1659-4665-a6a5-eebba26232ac,S
2019-10-24 04:29:27,2e7be084-1659-4665-a6a5-eebba26232ac,A
2019-10-24 04:32:39,2e7be084-1659-4665-a6a5-eebba26232ac,S
2019-10-24 04:32:55,2e7be084-1659-4665-a6a5-eebba26232ac,A
2019-10-24 04:51:30,2e7be084-1659-4665-a6a5-eebba26232ac,S
2019-10-24 04:51:56,2e7be084-1659-4665-a6a5-eebba26232ac,A
2019-10-24 04:54:47,2e7be084-1659-4665-a6a5-eebba26232ac,S
2019-10-24 05:08:20,2e7be084-1659-4665-a6a5-eebba26232ac,A
2019-10-24 05:11:37,2e7be084-1659-4665-a6a5-eebba26232ac,S
2019-10-24 05:14:05,2e7be084-1659-4665-a6a5-eebba26232ac,A
2019-10-24 05:14:42,2e7be084-1659-4665-a6a5-eebba26232ac,S
2019-10-24 05:19:56,2e7be084-1659-4665-a6a5-eebba26232ac,A
2019-10-24 05:24:36,2e7be084-1659-4665-a6a5-eebba26232ac,S
2019-10-24 05:28:33,2e7be084-1659-4665-a6a5-eebba26232ac,A
2019-10-24 05:30:25,2e7be084-1659-4665-a6a5-eebba26232ac,S
2019-10-24 05:31:23,2e7be084-1659-4665-a6a5-eebba26232ac,A
2019-10-24 03:43:22,e15fdb3f-1093-4061-b24f-d6fae0c50db8,A
2019-10-24 03:50:15,e15fdb3f-1093-4061-b24f-d6fae0c50db8,S
2019-10-24 03:55:02,e15fdb3f-1093-4061-b24f-d6fae0c50db8,A
2019-10-24 04:01:35,e15fdb3f-1093-4061-b24f-d6fae0c50db8,S
2019-10-24 04:07:30,e15fdb3f-1093-4061-b24f-d6fae0c50db8,A
2019-10-24 04:18:08,e15fdb3f-1093-4061-b24f-d6fae0c50db8,S
2019-10-24 04:25:23,e15fdb3f-1093-4061-b24f-d6fae0c50db8,A
2019-10-24 04:27:50,e15fdb3f-1093-4061-b24f-d6fae0c50db8,S
2019-10-24 04:29:31,e15fdb3f-1093-4061-b24f-d6fae0c50db8,A
2019-10-24 04:34:09,e15fdb3f-1093-4061-b24f-d6fae0c50db8,S
2019-10-24 04:39:09,e15fdb3f-1093-4061-b24f-d6fae0c50db8,A
2019-10-24 04:49:04,e15fdb3f-1093-4061-b24f-d6fae0c50db8,S
2019-10-24 04:49:08,e15fdb3f-1093-4061-b24f-d6fae0c50db8,A
2019-10-24 04:53:48,e15fdb3f-1093-4061-b24f-d6fae0c50db8,S
2019-10-24 04:55:32,e15fdb3f-1093-4061-b24f-d6fae0c50db8,A
2019-10-24 05:02:15,e15fdb3f-1093-4061-b24f-d6fae0c50db8,S
2019-10-24 05:02:22,e15fdb3f-1093-4061-b24f-d6fae0c50db8,A
2019-10-24 05:05:04,e15fdb3f-1093-4061-b24f-d6fae0c50db8,S
2019-10-24 05:11:57,e15fdb3f-1093-4061-b24f-d6fae0c50db8,A
2019-10-24 05:32:51,e15fdb3f-1093-4061-b24f-d6fae0c50db8,S
2019-10-24 04:12:07,dded2983-8f20-44c1-8642-44a0bc39757a,A
2019-10-24 04:17:13,dded2983-8f20-44c1-8642-44a0bc39757a,S
2019-10-24 04:18:16,dded2983-8f20-44c1-8642-44a0bc39757a,A
2019-10-24 04:20:12,dded2983-8f20-44c1-8642-44a0bc39757a,S
2019-10-24 04:27:47,dded2983-8f20-44c1-8642-44a0bc39757a,A
2019-10-24 04:29:12,dded2983-8f20-44c1-8642-44a0bc39757a,S
2019-10-24 04:39:05,dded2983-8f20-44c1-8642-44a0bc39757a,A
2019-10-24 04:40:53,dded2983-8f20-44c1-8642-44a0bc39757a,S
2019-10-24 04:45:47,dded2983-8f20-44c1-8642-44a0bc39757a,A
2019-10-24 04:50:11,dded2983-8f20-44c1-8642-44a0bc39757a,S
2019-10-24 04:58:55,dded2983-8f20-44c1-8642-44a0bc39757a,A
2019-10-24 05:00:26,dded2983-8f20-44c1-8642-44a0bc39757a,S
2019-10-24 05:02:20,dded2983-8f20-44c1-8642-44a0bc39757a,A
2019-10-24 05:04:48,dded2983-8f20-44c1-8642-44a0bc39757a,S
2019-10-24 05:09:01,dded2983-8f20-44c1-8642-44a0bc39757a,A
2019-10-24 05:14:51,dded2983-8f20-44c1-8642-44a0bc39757a,S
2019-10-24 05:20:20,dded2983-8f20-44c1-8642-44a0bc39757a,A
2019-10-24 05:29:33,dded2983-8f20-44c1-8642-44a0bc39757a,S
2019-10-24 04:16:22,fd485955-e2ca-4f88-a2d6-98b08585cabf,S
2019-10-24 04:17:36,fd485955-e2ca-4f88-a2d6-98b08585cabf,A
2019-10-24 04:23:21,fd485955-e2ca-4f88-a2d6-98b08585cabf,S
2019-10-24 04:36:41,fd485955-e2ca-4f88-a2d6-98b08585cabf,A
2019-10-24 04:44:26,fd485955-e2ca-4f88-a2d6-98b08585cabf,S
2019-10-24 04:46:57,fd485955-e2ca-4f88-a2d6-98b08585cabf,A
2019-10-24 05:03:19,fd485955-e2ca-4f88-a2d6-98b08585cabf,S
2019-10-24 05:09:27,fd485955-e2ca-4f88-a2d6-98b08585cabf,A
2019-10-24 05:24:15,fd485955-e2ca-4f88-a2d6-98b08585cabf,S
2019-10-24 05:29:30,fd485955-e2ca-4f88-a2d6-98b08585cabf,A
2019-10-24 05:32:04,fd485955-e2ca-4f88-a2d6-98b08585cabf,S
2019-10-24 04:07:10,69475e1b-2c33-4954-905c-0b8f57cd0648,S
2019-10-24 04:09:05,69475e1b-2c33-4954-905c-0b8f57cd0648,A
2019-10-24 04:09:34,69475e1b-2c33-4954-905c-0b8f57cd0648,S
2019-10-24 04:17:53,69475e1b-2c33-4954-905c-0b8f57cd0648,A
2019-10-24 04:20:44,69475e1b-2c33-4954-905c-0b8f57cd0648,S
2019-10-24 04:27:06,69475e1b-2c33-4954-905c-0b8f57cd0648,A
2019-10-24 04:31:41,69475e1b-2c33-4954-905c-0b8f57cd0648,S
2019-10-24 04:32:55,69475e1b-2c33-4954-905c-0b8f57cd0648,A
2019-10-24 04:41:38,69475e1b-2c33-4954-905c-0b8f57cd0648,S
2019-10-24 04:43:13,69475e1b-2c33-4954-905c-0b8f57cd0648,A
2019-10-24 04:51:15,69475e1b-2c33-4954-905c-0b8f57cd0648,S
2019-10-24 04:51:27,69475e1b-2c33-4954-905c-0b8f57cd0648,A
2019-10-24 04:58:03,69475e1b-2c33-4954-905c-0b8f57cd0648,S
2019-10-24 05:02:57,69475e1b-2c33-4954-905c-0b8f57cd0648,A
2019-10-24 05:03:52,69475e1b-2c33-4954-905c-0b8f57cd0648,S
2019-10-24 05:05:49,69475e1b-2c33-4954-905c-0b8f57cd0648,A
2019-10-24 05:05:50,69475e1b-2c33-4954-905c-0b8f57cd0648,S
2019-10-24 05:07:10,69475e1b-2c33-4954-905c-0b8f57cd0648,A
2019-10-24 05:09:56,69475e1b-2c33-4954-905c-0b8f57cd0648,S
2019-10-24 05:17:23,69475e1b-2c33-4954-905c-0b8f57cd0648,A
2019-10-24 05:18:56,69475e1b-2c33-4954-905c-0b8f57cd0648,S
2019-10-24 05:19:31,69475e1b-2c33-4954-905c-0b8f57cd0648,A
2019-10-24 05:26:34,69475e1b-2c33-4954-905c-0b8f57cd0648,S
2019-10-24 05:30:03,69475e1b-2c33-4954-905c-0b8f57cd0648,A
2019-10-24 04:13:44,c901efcd-cdc1-4c64-8485-c9c02ced58fa,A
2019-10-24 04:47:30,c901efcd-cdc1-4c64-8485-c9c02ced58fa,S
2019-10-24 04:47:57,c901efcd-cdc1-4c64-8485-c9c02ced58fa,A
2019-10-24 05:17:14,c901efcd-cdc1-4c64-8485-c9c02ced58fa,S
2019-10-24 05:20:17,c901efcd-cdc1-4c64-8485-c9c02ced58fa,A
2019-10-24 05:22:45,c901efcd-cdc1-4c64-8485-c9c02ced58fa,S
2019-10-24 05:24:17,c901efcd-cdc1-4c64-8485-c9c02ced58fa,A
2019-10-24 05:25:03,c901efcd-cdc1-4c64-8485-c9c02ced58fa,S
2019-10-24 05:28:18,c901efcd-cdc1-4c64-8485-c9c02ced58fa,A
2019-10-24 03:41:33,c5ccf76f-9e9e-4de2-9bc4-cfeac5944abe,A
2019-10-24 03:47:36,c5ccf76f-9e9e-4de2-9bc4-cfeac5944abe,S
2019-10-24 03:50:24,c5ccf76f-9e9e-4de2-9bc4-cfeac5944abe,A
2019-10-24 03:51:03,c5ccf76f-9e9e-4de2-9bc4-cfeac5944abe,S
2019-10-24 03:51:48,c5ccf76f-9e9e-4de2-9bc4-cfeac5944abe,A
2019-10-24 04:01:03,c5ccf76f-9e9e-4de2-9bc4-cfeac5944abe,S
2019-10-24 04:01:29,c5ccf76f-9e9e-4de2-9bc4-cfeac5944abe,A
2019-10-24 04:02:19,c5ccf76f-9e9e-4de2-9bc4-cfeac5944abe,S
2019-10-24 04:07:13,c5ccf76f-9e9e-4de2-9bc4-cfeac5944abe,A
2019-10-24 04:12:12,c5ccf76f-9e9e-4de2-9bc4-cfeac5944abe,S
2019-10-24 04:12:24,c5ccf76f-9e9e-4de2-9bc4-cfeac5944abe,A
2019-10-24 04:13:09,c5ccf76f-9e9e-4de2-9bc4-cfeac5944abe,S
2019-10-24 04:15:29,c5ccf76f-9e9e-4de2-9bc4-cfeac5944abe,A
2019-10-24 04:18:29,c5ccf76f-9e9e-4de2-9bc4-cfeac5944abe,S
2019-10-24 04:19:45,c5ccf76f-9e9e-4de2-9bc4-cfeac5944abe,A
2019-10-24 04:19:49,c5ccf76f-9e9e-4de2-9bc4-cfeac5944abe,S
2019-10-24 04:27:55,c5ccf76f-9e9e-4de2-9bc4-cfeac5944abe,A
2019-10-24 04:31:12,c5ccf76f-9e9e-4de2-9bc4-cfeac5944abe,S
2019-10-24 04:33:05,c5ccf76f-9e9e-4de2-9bc4-cfeac5944abe,A
2019-10-24 04:40:27,c5ccf76f-9e9e-4de2-9bc4-cfeac5944abe,S
2019-10-24 04:50:41,c5ccf76f-9e9e-4de2-9bc4-cfeac5944abe,A
2019-10-24 05:06:09,c5ccf76f-9e9e-4de2-9bc4-cfeac5944abe,S
2019-10-24 05:08:31,c5ccf76f-9e9e-4de2-9bc4-cfeac5944abe,A
2019-10-24 05:08:43,c5ccf76f-9e9e-4de2-9bc4-cfeac5944abe,S
2019-10-24 05:16:48,c5ccf76f-9e9e-4de2-9bc4-cfeac5944abe,A
2019-10-24 05:17:12,c5ccf76f-9e9e-4de2-9bc4-cfeac5944abe,S
2019-10-24 05:25:31,c5ccf76f-9e9e-4de2-9bc4-cfeac5944abe,A
2019-10-24 03:47:07,208f0938-9c35-416b-b881-0518eeb8a871,A
2019-10-24 03:54:56,208f0938-9c35-416b-b881-0518eeb8a871,S
2019-10-24 03:56:27,208f0938-9c35-416b-b881-0518eeb8a871,A
2019-10-24 03:59:04,208f0938-9c35-416b-b881-0518eeb8a871,S
2019-10-24 04:03:45,208f0938-9c35-416b-b881-0518eeb8a871,A
2019-10-24 04:18:27,208f0938-9c35-416b-b881-0518eeb8a871,S
2019-10-24 04:19:02,208f0938-9c35-416b-b881-0518eeb8a871,A
2019-10-24 04:24:33,208f0938-9c35-416b-b881-0518eeb8a871,S
2019-10-24 04:31:45,208f0938-9c35-416b-b881-0518eeb8a871,A
2019-10-24 04:32:21,208f0938-9c35-416b-b881-0518eeb8a871,S
2019-10-24 04:44:11,208f0938-9c35-416b-b881-0518eeb8a871,A
2019-10-24 04:47:19,208f0938-9c35-416b-b881-0518eeb8a871,S
2019-10-24 04:59:09,208f0938-9c35-416b-b881-0518eeb8a871,A
2019-10-24 05:11:06,208f0938-9c35-416b-b881-0518eeb8a871,S
2019-10-24 05:15:58,208f0938-9c35-416b-b881-0518eeb8a871,A
2019-10-24 05:16:31,208f0938-9c35-416b-b881-0518eeb8a871,S
2019-10-24 05:16:49,208f0938-9c35-416b-b881-0518eeb8a871,A
2019-10-24 05:16:59,208f0938-9c35-416b-b881-0518eeb8a871,S
2019-10-24 05:18:10,208f0938-9c35-416b-b881-0518eeb8a871,A
2019-10-24 05:21:51,208f0938-9c35-416b-b881-0518eeb8a871,S
2019-10-24 05:30:43,208f0938-9c35-416b-b881-0518eeb8a871,A
2019-10-24 03:50:01,2965d113-24b1-462a-a0a3-fed8010419f9,S
2019-10-24 03:59:03,2965d113-24b1-462a-a0a3-fed8010419f9,A
2019-10-24 04:00:45,feb261e9-bfc3-4455-88a8-9a5c4a78be3b,S
2019-10-24 04:03:03,feb261e9-bfc3-4455-88a8-9a5c4a78be3b,A
2019-10-24 04:08:15,feb261e9-bfc3-4455-88a8-9a5c4a78be3b,S
2019-10-24 04:16:20,feb261e9-bfc3-4455-88a8-9a5c4a78be3b,A
2019-10-24 04:23:44,feb261e9-bfc3-4455-88a8-9a5c4a78be3b,S
2019-10-24 04:24:06,feb261e9-bfc3-4455-88a8-9a5c4a78be3b,A
2019-10-24 04:29:39,feb261e9-bfc3-4455-88a8-9a5c4a78be3b,S
2019-10-24 04:40:43,feb261e9-bfc3-4455-88a8-9a5c4a78be3b,A
2019-10-24 04:45:07,feb261e9-bfc3-4455-88a8-9a5c4a78be3b,S
2019-10-24 04:47:54,feb261e9-bfc3-4455-88a8-9a5c4a78be3b,A
2019-10-24 04:54:36,feb261e9-bfc3-4455-88a8-9a5c4a78be3b,S
2019-10-24 04:55:27,feb261e9-bfc3-4455-88a8-9a5c4a78be3b,A
2019-10-24 04:58:12,feb261e9-bfc3-4455-88a8-9a5c4a78be3b,S
2019-10-24 05:02:03,feb261e9-bfc3-4455-88a8-9a5c4a78be3b,A
2019-10-24 05:08:31,feb261e9-bfc3-4455-88a8-9a5c4a78be3b,S
2019-10-24 05:11:36,feb261e9-bfc3-4455-88a8-9a5c4a78be3b,A
2019-10-24 05:23:56,feb261e9-bfc3-4455-88a8-9a5c4a78be3b,S
2019-10-24 05:28:42,feb261e9-bfc3-4455-88a8-9a5c4a78be3b,A
2019-10-24 05:30:46,feb261e9-bfc3-4455-88a8-9a5c4a78be3b,S
2019-10-24 04:06:42,49b5fda1-edb7-4968-96f3-79c8799b02b1,A
2019-10-24 04:10:11,49b5fda1-edb7-4968-96f3-79c8799b02b1,S
2019-10-24 04:13:14,49b5fda1-edb7-4968-96f3-79c8799b02b1,A
2019-10-24 04:22:11,49b5fda1-edb7-4968-96f3-79c8799b02b1,S
2019-10-24 04:37:08,49b5fda1-edb7-4968-96f3-79c8799b02b1,A
2019-10-24 04:38:10,49b5fda1-edb7-4968-96f3-79c8799b02b1,S
2019-10-24 04:38:39,49b5fda1-edb7-4968-96f3-79c8799b02b1,A
2019-10-24 04:39:19,49b5fda1-edb7-4968-96f3-79c8799b02b1,S
2019-10-24 04:46:22,49b5fda1-edb7-4968-96f3-79c8799b02b1,A
2019-10-24 04:51:33,49b5fda1-edb7-4968-96f3-79c8799b02b1,S
2019-10-24 05:10:24,49b5fda1-edb7-4968-96f3-79c8799b02b1,A
2019-10-24 05:12:31,49b5fda1-edb7-4968-96f3-79c8799b02b1,S
2019-10-24 05:19:38,49b5fda1-edb7-4968-96f3-79c8799b02b1,A
2019-10-24 05:23:08,49b5fda1-edb7-4968-96f3-79c8799b02b1,S
2019-10-24 03:54:46,ae068813-ecf9-473c-a21d-b8a9bf83e8b8,S
2019-10-24 04:00:01,ae068813-ecf9-473c-a21d-b8a9bf83e8b8,A
2019-10-24 04:06:45,ae068813-ecf9-473c-a21d-b8a9bf83e8b8,S
2019-10-24 04:11:44,ae068813-ecf9-473c-a21d-b8a9bf83e8b8,A
2019-10-24 04:12:40,ae068813-ecf9-473c-a21d-b8a9bf83e8b8,S
2019-10-24 04:19:27,ae068813-ecf9-473c-a21d-b8a9bf83e8b8,A
2019-10-24 04:21:43,ae068813-ecf9-473c-a21d-b8a9bf83e8b8,S
2019-10-24 04:27:49,ae068813-ecf9-473c-a21d-b8a9bf83e8b8,A
2019-10-24 04:27:51,ae068813-ecf9-473c-a21d-b8a9bf83e8b8,S
2019-10-24 04:28:35,ae068813-ecf9-473c-a21d-b8a9bf83e8b8,A
2019-10-24 04:32:28,ae068813-ecf9-473c-a21d-b8a9bf83e8b8,S
2019-10-24 04:38:04,ae068813-ecf9-473c-a21d-b8a9bf83e8b8,A
2019-10-24 04:40:05,ae068813-ecf9-473c-a21d-b8a9bf83e8b8,S
2019-10-24 04:43:19,ae068813-ecf9-473c-a21d-b8a9bf83e8b8,A
2019-10-24 04:46:10,ae068813-ecf9-473c-a21d-b8a9bf83e8b8,S
2019-10-24 04:49:24,ae068813-ecf9-473c-a21d-b8a9bf83e8b8,A
2019-10-24 04:58:26,ae068813-ecf9-473c-a21d-b8a9bf83e8b8,S
2019-10-24 05:02:00,ae068813-ecf9-473c-a21d-b8a9bf83e8b8,A
2019-10-24 05:02:58,ae068813-ecf9-473c-a21d-b8a9bf83e8b8,S
2019-10-24 05:06:25,ae068813-ecf9-473c-a21d-b8a9bf83e8b8,A
2019-10-24 05:08:23,ae068813-ecf9-473c-a21d-b8a9bf83e8b8,S
2019-10-24 05:09:05,ae068813-ecf9-473c-a21d-b8a9bf83e8b8,A
2019-10-24 05:16:13,ae068813-ecf9-473c-a21d-b8a9bf83e8b8,S
2019-10-24 05:18:37,ae068813-ecf9-473c-a21d-b8a9bf83e8b8,A
2019-10-24 05:32:29,ae068813-ecf9-473c-a21d-b8a9bf83e8b8,S
2019-10-24 03:28:40,60b98e63-28ab-4403-9328-c39544a1b727,S
2019-10-24 03:32:43,60b98e63-28ab-4403-9328-c39544a1b727,A
2019-10-24 03:33:32,60b98e63-28ab-4403-9328-c39544a1b727,S
2019-10-24 03:38:46,60b98e63-28ab-4403-9328-c39544a1b727,A
2019-10-24 03:43:39,60b98e63-28ab-4403-9328-c39544a1b727,S
2019-10-24 03:48:37,60b98e63-28ab-4403-9328-c39544a1b727,A
2019-10-24 03:51:12,60b98e63-28ab-4403-9328-c39544a1b727,S
2019-10-24 03:51:58,60b98e63-28ab-4403-9328-c39544a1b727,A
2019-10-24 04:02:34,60b98e63-28ab-4403-9328-c39544a1b727,S
2019-10-24 04:02:58,60b98e63-28ab-4403-9328-c39544a1b727,A
2019-10-24 04:10:36,60b98e63-28ab-4403-9328-c39544a1b727,S
2019-10-24 04:15:56,60b98e63-28ab-4403-9328-c39544a1b727,A
2019-10-24 04:16:22,60b98e63-28ab-4403-9328-c39544a1b727,S
2019-10-24 04:22:47,60b98e63-28ab-4403-9328-c39544a1b727,A
2019-10-24 04:24:52,60b98e63-28ab-4403-9328-c39544a1b727,S
2019-10-24 04:25:05,60b98e63-28ab-4403-9328-c39544a1b727,A
2019-10-24 04:30:08,60b98e63-28ab-4403-9328-c39544a1b727,S
2019-10-24 04:30:49,60b98e63-28ab-4403-9328-c39544a1b727,A
2019-10-24 04:47:55,60b98e63-28ab-4403-9328-c39544a1b727,S
2019-10-24 04:50:12,60b98e63-28ab-4403-9328-c39544a1b727,A
2019-10-24 04:50:32,60b98e63-28ab-4403-9328-c39544a1b727,S
2019-10-24 04:53:57,60b98e63-28ab-4403-9328-c39544a1b727,A
2019-10-24 04:54:08,60b98e63-28ab-4403-9328-c39544a1b727,S
2019-10-24 05:01:10,60b98e63-28ab-4403-9328-c39544a1b727,A
2019-10-24 05:06:58,60b98e63-28ab-4403-9328-c39544a1b727,S
2019-10-24 05:27:41,60b98e63-28ab-4403-9328-c39544a1b727,A
2019-10-24 05:28:57,60b98e63-28ab-4403-9328-c39544a1b727,S
2019-10-24 04:14:06,6ee38407-2986-43b8-ad3d-0873c1865a74,S
2019-10-24 04:14:56,6ee38407-2986-43b8-ad3d-0873c1865a74,A
2019-10-24 04:27:31,6ee38407-2986-43b8-ad3d-0873c1865a74,S
2019-10-24 04:28:38,6ee38407-2986-43b8-ad3d-0873c1865a74,A
2019-10-24 04:30:43,6ee38407-2986-43b8-ad3d-0873c1865a74,S
2019-10-24 04:55:35,6ee38407-2986-43b8-ad3d-0873c1865a74,A
2019-10-24 05:07:25,6ee38407-2986-43b8-ad3d-0873c1865a74,S
2019-10-24 05:11:46,6ee38407-2986-43b8-ad3d-0873c1865a74,A
2019-10-24 05:11:47,6ee38407-2986-43b8-ad3d-0873c1865a74,S
2019-10-24 05:15:57,6ee38407-2986-43b8-ad3d-0873c1865a74,A
2019-10-24 05:20:08,6ee38407-2986-43b8-ad3d-0873c1865a74,S
2019-10-24 05:29:31,6ee38407-2986-43b8-ad3d-0873c1865a74,A
2019-10-24 04:16:17,2511a7b0-31b1-4e33-b71c-ffdb08b7bf33,S
2019-10-24 04:18:35,2511a7b0-31b1-4e33-b71c-ffdb08b7bf33,A
2019-10-24 04:25:06,2511a7b0-31b1-4e33-b71c-ffdb08b7bf33,S
2019-10-24 04:26:04,2511a7b0-31b1-4e33-b71c-ffdb08b7bf33,A
2019-10-24 04:26:25,2511a7b0-31b1-4e33-b71c-ffdb08b7bf33,S
2019-10-24 04:31:35,2511a7b0-31b1-4e33-b71c-ffdb08b7bf33,A
2019-10-24 04:36:28,2511a7b0-31b1-4e33-b71c-ffdb08b7bf33,S
2019-10-24 04:41:08,2511a7b0-31b1-4e33-b71c-ffdb08b7bf33,A
2019-10-24 04:54:08,2511a7b0-31b1-4e33-b71c-ffdb08b7bf33,S
2019-10-24 05:11:37,2511a7b0-31b1-4e33-b71c-ffdb08b7bf33,A
2019-10-24 05:16:20,2511a7b0-31b1-4e33-b71c-ffdb08b7bf33,S
2019-10-24 05:18:29,2511a7b0-31b1-4e33-b71c-ffdb08b7bf33,A
2019-10-24 05:19:43,2511a7b0-31b1-4e33-b71c-ffdb08b7bf33,S
2019-10-24 05:21:05,2511a7b0-31b1-4e33-b71c-ffdb08b7bf33,A
2019-10-24 05:21:48,2511a7b0-31b1-4e33-b71c-ffdb08b7bf33,S
2019-10-24 05:22:21,2511a7b0-31b1-4e33-b71c-ffdb08b7bf33,A
2019-10-24 05:23:26,2511a7b0-31b1-4e33-b71c-ffdb08b7bf33,S
2019-10-24 05:30:07,2511a7b0-31b1-4e33-b71c-ffdb08b7bf33,A
2019-10-24 05:30:26,2511a7b0-31b1-4e33-b71c-ffdb08b7bf33,S
2019-10-24 05:31:14,2511a7b0-31b1-4e33-b71c-ffdb08b7bf33,A
2019-10-24 05:31:15,2511a7b0-31b1-4e33-b71c-ffdb08b7bf33,S
2019-10-24 03:41:17,ec300d38-9a68-4acc-b620-633e69b38201,A
2019-10-24 03:44:43,ec300d38-9a68-4acc-b620-633e69b38201,S
2019-10-24 03:49:47,ec300d38-9a68-4acc-b620-633e69b38201,A
2019-10-24 03:51:38,ec300d38-9a68-4acc-b620-633e69b38201,S
2019-10-24 04:02:09,ec300d38-9a68-4acc-b620-633e69b38201,A
2019-10-24 04:02:45,ec300d38-9a68-4acc-b620-633e69b38201,S
2019-10-24 04:11:09,ec300d38-9a68-4acc-b620-633e69b38201,A
2019-10-24 04:13:29,ec300d38-9a68-4acc-b620-633e69b38201,S
2019-10-24 04:21:52,ec300d38-9a68-4acc-b620-633e69b38201,A
2019-10-24 04:40:19,ec300d38-9a68-4acc-b620-633e69b38201,S
2019-10-24 04:41:34,ec300d38-9a68-4acc-b620-633e69b38201,A
2019-10-24 04:41:45,ec300d38-9a68-4acc-b620-633e69b38201,S
2019-10-24 04:44:58,ec300d38-9a68-4acc-b620-633e69b38201,A
2019-10-24 04:53:48,ec300d38-9a68-4acc-b620-633e69b38201,S
2019-10-24 05:08:53,ec300d38-9a68-4acc-b620-633e69b38201,A
2019-10-24 05:09:11,ec300d38-9a68-4acc-b620-633e69b38201,S
2019-10-24 05:19:43,ec300d38-9a68-4acc-b620-633e69b38201,A
2019-10-24 05:32:42,ec300d38-9a68-4acc-b620-633e69b38201,S
2019-10-24 05:33:42,ec300d38-9a68-4acc-b620-633e69b38201,A
2019-10-24 05:34:07,ec300d38-9a68-4acc-b620-633e69b38201,S
2019-10-24 04:01:34,cf114af1-2f8c-4346-aad8-c42cd583da0d,A
2019-10-24 04:05:03,cf114af1-2f8c-4346-aad8-c42cd583da0d,S
2019-10-24 04:07:19,cf114af1-2f8c-4346-aad8-c42cd583da0d,A
2019-10-24 04:09:21,cf114af1-2f8c-4346-aad8-c42cd583da0d,S
2019-10-24 04:09:55,cf114af1-2f8c-4346-aad8-c42cd583da0d,A
2019-10-24 04:12:31,cf114af1-2f8c-4346-aad8-c42cd583da0d,S
2019-10-24 04:19:22,cf114af1-2f8c-4346-aad8-c42cd583da0d,A
2019-10-24 04:20:50,cf114af1-2f8c-4346-aad8-c42cd583da0d,S
2019-10-24 04:31:05,cf114af1-2f8c-4346-aad8-c42cd583da0d,A
2019-10-24 05:10:10,cf114af1-2f8c-4346-aad8-c42cd583da0d,S
2019-10-24 05:20:05,cf114af1-2f8c-4346-aad8-c42cd583da0d,A
2019-10-24 05:20:08,cf114af1-2f8c-4346-aad8-c42cd583da0d,S
2019-10-24 05:20:51,cf114af1-2f8c-4346-aad8-c42cd583da0d,A
2019-10-24 05:23:54,cf114af1-2f8c-4346-aad8-c42cd583da0d,S
2019-10-24 05:25:16,cf114af1-2f8c-4346-aad8-c42cd583da0d,A
2019-10-24 05:26:37,cf114af1-2f8c-4346-aad8-c42cd583da0d,S
2019-10-24 05:30:47,cf114af1-2f8c-4346-aad8-c42cd583da0d,A
2019-10-24 05:32:21,cf114af1-2f8c-4346-aad8-c42cd583da0d,S
2019-10-24 05:32:26,cf114af1-2f8c-4346-aad8-c42cd583da0d,A
2019-10-24 04:01:34,93b8432d-11d6-4916-978e-fab607cec89b,A
2019-10-24 04:02:14,93b8432d-11d6-4916-978e-fab607cec89b,S
2019-10-24 04:03:49,93b8432d-11d6-4916-978e-fab607cec89b,A
2019-10-24 04:18:02,93b8432d-11d6-4916-978e-fab607cec89b,S
2019-10-24 04:20:09,93b8432d-11d6-4916-978e-fab607cec89b,A
2019-10-24 04:22:36,93b8432d-11d6-4916-978e-fab607cec89b,S
2019-10-24 04:30:13,93b8432d-11d6-4916-978e-fab607cec89b,A
2019-10-24 04:33:53,93b8432d-11d6-4916-978e-fab607cec89b,S
2019-10-24 04:37:15,93b8432d-11d6-4916-978e-fab607cec89b,A
2019-10-24 04:48:05,93b8432d-11d6-4916-978e-fab607cec89b,S
2019-10-24 04:48:09,93b8432d-11d6-4916-978e-fab607cec89b,A
2019-10-24 04:57:40,93b8432d-11d6-4916-978e-fab607cec89b,S
2019-10-24 05:18:09,93b8432d-11d6-4916-978e-fab607cec89b,A
2019-10-24 05:25:24,93b8432d-11d6-4916-978e-fab607cec89b,S
2019-10-24 05:29:22,93b8432d-11d6-4916-978e-fab607cec89b,A
2019-10-24 03:44:10,8391a814-c40c-4dfb-aa4c-920fb8ee27a8,S
2019-10-24 03:56:15,8391a814-c40c-4dfb-aa4c-920fb8ee27a8,A
2019-10-24 04:14:36,8391a814-c40c-4dfb-aa4c-920fb8ee27a8,S
2019-10-24 04:17:00,8391a814-c40c-4dfb-aa4c-920fb8ee27a8,A
2019-10-24 04:20:18,8391a814-c40c-4dfb-aa4c-920fb8ee27a8,S
2019-10-24 04:23:38,8391a814-c40c-4dfb-aa4c-920fb8ee27a8,A
2019-10-24 04:35:07,8391a814-c40c-4dfb-aa4c-920fb8ee27a8,S
2019-10-24 04:35:57,8391a814-c40c-4dfb-aa4c-920fb8ee27a8,A
2019-10-24 04:37:37,8391a814-c40c-4dfb-aa4c-920fb8ee27a8,S
2019-10-24 04:38:29,8391a814-c40c-4dfb-aa4c-920fb8ee27a8,A
2019-10-24 04:55:53,8391a814-c40c-4dfb-aa4c-920fb8ee27a8,S
2019-10-24 04:55:59,8391a814-c40c-4dfb-aa4c-920fb8ee27a8,A
2019-10-24 04:59:08,8391a814-c40c-4dfb-aa4c-920fb8ee27a8,S
2019-10-24 05:02:35,8391a814-c40c-4dfb-aa4c-920fb8ee27a8,A
2019-10-24 05:04:49,8391a814-c40c-4dfb-aa4c-920fb8ee27a8,S
2019-10-24 05:10:45,8391a814-c40c-4dfb-aa4c-920fb8ee27a8,A
2019-10-24 05:12:08,8391a814-c40c-4dfb-aa4c-920fb8ee27a8,S
2019-10-24 05:16:04,8391a814-c40c-4dfb-aa4c-920fb8ee27a8,A
2019-10-24 05:21:37,8391a814-c40c-4dfb-aa4c-920fb8ee27a8,S
2019-10-24 05:33:09,8391a814-c40c-4dfb-aa4c-920fb8ee27a8,A
2019-10-24 04:01:57,8bd46d60-0649-405d-b1c5-a68c1badca78,A
2019-10-24 04:02:26,8bd46d60-0649-405d-b1c5-a68c1badca78,S
2019-10-24 04:10:56,8bd46d60-0649-405d-b1c5-a68c1badca78,A
2019-10-24 04:12:15,8bd46d60-0649-405d-b1c5-a68c1badca78,S
2019-10-24 04:12:15,8bd46d60-0649-405d-b1c5-a68c1badca78,A
2019-10-24 04:20:52,8bd46d60-0649-405d-b1c5-a68c1badca78,S
2019-10-24 04:22:07,8bd46d60-0649-405d-b1c5-a68c1badca78,A
2019-10-24 04:22:57,8bd46d60-0649-405d-b1c5-a68c1badca78,S
2019-10-24 04:26:44,8bd46d60-0649-405d-b1c5-a68c1badca78,A
2019-10-24 04:27:50,8bd46d60-0649-405d-b1c5-a68c1badca78,S
2019-10-24 04:28:02,8bd46d60-0649-405d-b1c5-a68c1badca78,A
2019-10-24 04:33:35,8bd46d60-0649-405d-b1c5-a68c1badca78,S
2019-10-24 04:38:54,8bd46d60-0649-405d-b1c5-a68c1badca78,A
2019-10-24 04:51:10,8bd46d60-0649-405d-b1c5-a68c1badca78,S
2019-10-24 04:51:25,8bd46d60-0649-405d-b1c5-a68c1badca78,A
2019-10-24 04:55:35,8bd46d60-0649-405d-b1c5-a68c1badca78,S
2019-10-24 05:05:12,8bd46d60-0649-405d-b1c5-a68c1badca78,A
2019-10-24 05:17:17,8bd46d60-0649-405d-b1c5-a68c1badca78,S
2019-10-24 05:20:46,8bd46d60-0649-405d-b1c5-a68c1badca78,A
2019-10-24 05:25:09,8bd46d60-0649-405d-b1c5-a68c1badca78,S
2019-10-24 05:26:34,8bd46d60-0649-405d-b1c5-a68c1badca78,A
2019-10-24 05:27:09,8bd46d60-0649-405d-b1c5-a68c1badca78,S
2019-10-24 05:34:10,8bd46d60-0649-405d-b1c5-a68c1badca78,A
2019-10-24 03:37:07,155cf475-931c-4f99-bcab-3106c6468f6b,S
2019-10-24 03:53:14,155cf475-931c-4f99-bcab-3106c6468f6b,A
2019-10-24 03:54:26,155cf475-931c-4f99-bcab-3106c6468f6b,S
2019-10-24 03:59:15,155cf475-931c-4f99-bcab-3106c6468f6b,A
2019-10-24 04:00:21,155cf475-931c-4f99-bcab-3106c6468f6b,S
2019-10-24 04:03:08,155cf475-931c-4f99-bcab-3106c6468f6b,A
2019-10-24 04:08:20,155cf475-931c-4f99-bcab-3106c6468f6b,S
2019-10-24 04:10:30,155cf475-931c-4f99-bcab-3106c6468f6b,A
2019-10-24 04:13:59,155cf475-931c-4f99-bcab-3106c6468f6b,S
2019-10-24 04:19:35,155cf475-931c-4f99-bcab-3106c6468f6b,A
2019-10-24 04:30:05,155cf475-931c-4f99-bcab-3106c6468f6b,S
2019-10-24 04:35:46,155cf475-931c-4f99-bcab-3106c6468f6b,A
2019-10-24 04:37:44,155cf475-931c-4f99-bcab-3106c6468f6b,S
2019-10-24 04:39:45,155cf475-931c-4f99-bcab-3106c6468f6b,A
2019-10-24 04:48:02,155cf475-931c-4f99-bcab-3106c6468f6b,S
2019-10-24 04:50:12,155cf475-931c-4f99-bcab-3106c6468f6b,A
2019-10-24 04:55:06,155cf475-931c-4f99-bcab-3106c6468f6b,S
2019-10-24 04:58:05,155cf475-931c-4f99-bcab-3106c6468f6b,A
2019-10-24 04:59:13,155cf475-931c-4f99-bcab-3106c6468f6b,S
2019-10-24 05:04:08,155cf475-931c-4f99-bcab-3106c6468f6b,A
2019-10-24 05:07:00,155cf475-931c-4f99-bcab-3106c6468f6b,S
2019-10-24 05:10:50,155cf475-931c-4f99-bcab-3106c6468f6b,A
2019-10-24 05:13:10,155cf475-931c-4f99-bcab-3106c6468f6b,S
2019-10-24 05:16:56,155cf475-931c-4f99-bcab-3106c6468f6b,A
2019-10-24 05:22:21,155cf475-931c-4f99-bcab-3106c6468f6b,S
2019-10-24 05:23:28,155cf475-931c-4f99-bcab-3106c6468f6b,A
2019-10-24 05:29:13,155cf475-931c-4f99-bcab-3106c6468f6b,S
2019-10-24 05:30:10,155cf475-931c-4f99-bcab-3106c6468f6b,A
2019-10-24 05:31:40,155cf475-931c-4f99-bcab-3106c6468f6b,S
2019-10-24 05:32:12,155cf475-931c-4f99-bcab-3106c6468f6b,A
2019-10-24 03:25:52,0d9190e4-31b4-47ec-8e57-47e563570259,S
2019-10-24 03:26:57,0d9190e4-31b4-47ec-8e57-47e563570259,A
2019-10-24 03:28:11,0d9190e4-31b4-47ec-8e57-47e563570259,S
2019-10-24 03:31:50,0d9190e4-31b4-47ec-8e57-47e563570259,A
2019-10-24 03:34:34,0d9190e4-31b4-47ec-8e57-47e563570259,S
2019-10-24 03:39:44,0d9190e4-31b4-47ec-8e57-47e563570259,A
2019-10-24 03:41:02,0d9190e4-31b4-47ec-8e57-47e563570259,S
2019-10-24 03:47:01,0d9190e4-31b4-47ec-8e57-47e563570259,A
2019-10-24 03:58:18,0d9190e4-31b4-47ec-8e57-47e563570259,S
2019-10-24 04:01:58,0d9190e4-31b4-47ec-8e57-47e563570259,A
2019-10-24 04:06:30,0d9190e4-31b4-47ec-8e57-47e563570259,S
2019-10-24 04:17:58,0d9190e4-31b4-47ec-8e57-47e563570259,A
2019-10-24 04:31:24,0d9190e4-31b4-47ec-8e57-47e563570259,S
2019-10-24 04:32:23,0d9190e4-31b4-47ec-8e57-47e563570259,A
2019-10-24 04:33:56,0d9190e4-31b4-47ec-8e57-47e563570259,S
2019-10-24 04:34:42,0d9190e4-31b4-47ec-8e57-47e563570259,A
2019-10-24 04:35:51,0d9190e4-31b4-47ec-8e57-47e563570259,S
2019-10-24 04:44:27,0d9190e4-31b4-47ec-8e57-47e563570259,A
2019-10-24 04:46:25,0d9190e4-31b4-47ec-8e57-47e563570259,S
2019-10-24 04:48:13,0d9190e4-31b4-47ec-8e57-47e563570259,A
2019-10-24 04:53:01,0d9190e4-31b4-47ec-8e57-47e563570259,S
2019-10-24 05:01:54,0d9190e4-31b4-47ec-8e57-47e563570259,A
2019-10-24 05:12:46,0d9190e4-31b4-47ec-8e57-47e563570259,S
2019-10-24 05:16:42,0d9190e4-31b4-47ec-8e57-47e563570259,A
2019-10-24 05:17:00,0d9190e4-31b4-47ec-8e57-47e563570259,S
2019-10-24 05:22:39,0d9190e4-31b4-47ec-8e57-47e563570259,A
2019-10-24 05:29:04,0d9190e4-31b4-47ec-8e57-47e563570259,S
2019-10-24 05:29:05,0d9190e4-31b4-47ec-8e57-47e563570259,A
2019-10-24 05:31:04,0d9190e4-31b4-47ec-8e57-47e563570259,S
2019-10-24 05:33:41,0d9190e4-31b4-47ec-8e57-47e563570259,A
2019-10-24 03:55:05,6a8cd900-8435-4c5c-9f56-dce9ac7c093c,S
2019-10-24 03:59:23,6a8cd900-8435-4c5c-9f56-dce9ac7c093c,A
2019-10-24 04:13:06,6a8cd900-8435-4c5c-9f56-dce9ac7c093c,S
2019-10-24 04:13:30,6a8cd900-8435-4c5c-9f56-dce9ac7c093c,A
2019-10-24 04:18:06,6a8cd900-8435-4c5c-9f56-dce9ac7c093c,S
2019-10-24 04:21:24,6a8cd900-8435-4c5c-9f56-dce9ac7c093c,A
2019-10-24 04:24:30,6a8cd900-8435-4c5c-9f56-dce9ac7c093c,S
2019-10-24 04:29:03,6a8cd900-8435-4c5c-9f56-dce9ac7c093c,A
2019-10-24 04:32:16,6a8cd900-8435-4c5c-9f56-dce9ac7c093c,S
2019-10-24 04:35:53,6a8cd900-8435-4c5c-9f56-dce9ac7c093c,A
2019-10-24 04:51:44,6a8cd900-8435-4c5c-9f56-dce9ac7c093c,S
2019-10-24 04:56:01,6a8cd900-8435-4c5c-9f56-dce9ac7c093c,A
2019-10-24 04:56:22,6a8cd900-8435-4c5c-9f56-dce9ac7c093c,S
2019-10-24 05:01:29,6a8cd900-8435-4c5c-9f56-dce9ac7c093c,A
2019-10-24 05:08:48,6a8cd900-8435-4c5c-9f56-dce9ac7c093c,S
2019-10-24 05:21:55,6a8cd900-8435-4c5c-9f56-dce9ac7c093c,A
2019-10-24 05:22:56,6a8cd900-8435-4c5c-9f56-dce9ac7c093c,S
2019-10-24 03:28:13,434aef6a-21a6-4049-9a55-934c559906e1,A
2019-10-24 03:44:16,434aef6a-21a6-4049-9a55-934c559906e1,S
2019-10-24 03:47:30,434aef6a-21a6-4049-9a55-934c559906e1,A
2019-10-24 03:50:16,434aef6a-21a6-4049-9a55-934c559906e1,S
2019-10-24 03:50:46,434aef6a-21a6-4049-9a55-934c559906e1,A
2019-10-24 04:04:44,434aef6a-21a6-4049-9a55-934c559906e1,S
2019-10-24 04:08:14,434aef6a-21a6-4049-9a55-934c559906e1,A
2019-10-24 04:11:05,434aef6a-21a6-4049-9a55-934c559906e1,S
2019-10-24 04:15:05,434aef6a-21a6-4049-9a55-934c559906e1,A
2019-10-24 04:28:29,434aef6a-21a6-4049-9a55-934c559906e1,S
2019-10-24 04:28:39,434aef6a-21a6-4049-9a55-934c559906e1,A
2019-10-24 04:37:22,434aef6a-21a6-4049-9a55-934c559906e1,S
2019-10-24 04:41:38,434aef6a-21a6-4049-9a55-934c559906e1,A
2019-10-24 04:48:15,434aef6a-21a6-4049-9a55-934c559906e1,S
2019-10-24 04:50:46,434aef6a-21a6-4049-9a55-934c559906e1,A
2019-10-24 05:01:58,434aef6a-21a6-4049-9a55-934c559906e1,S
2019-10-24 05:03:52,434aef6a-21a6-4049-9a55-934c559906e1,A
2019-10-24 05:04:50,434aef6a-21a6-4049-9a55-934c559906e1,S
2019-10-24 05:07:42,434aef6a-21a6-4049-9a55-934c559906e1,A
2019-10-24 05:13:41,434aef6a-21a6-4049-9a55-934c559906e1,S
2019-10-24 05:22:29,434aef6a-21a6-4049-9a55-934c559906e1,A
2019-10-24 05:25:32,434aef6a-21a6-4049-9a55-934c559906e1,S
2019-10-24 05:27:23,434aef6a-21a6-4049-9a55-934c559906e1,A
2019-10-24 05:29:32,434aef6a-21a6-4049-9a55-934c559906e1,S
2019-10-24 03:40:57,ed0cdd95-7110-4974-8963-e85947d63bdb,S
2019-10-24 03:52:52,ed0cdd95-7110-4974-8963-e85947d63bdb,A
2019-10-24 03:53:10,ed0cdd95-7110-4974-8963-e85947d63bdb,S
2019-10-24 04:08:34,ed0cdd95-7110-4974-8963-e85947d63bdb,A
2019-10-24 04:11:27,ed0cdd95-7110-4974-8963-e85947d63bdb,S
2019-10-24 04:13:27,ed0cdd95-7110-4974-8963-e85947d63bdb,A
2019-10-24 04:21:33,ed0cdd95-7110-4974-8963-e85947d63bdb,S
2019-10-24 04:22:29,ed0cdd95-7110-4974-8963-e85947d63bdb,A
2019-10-24 04:24:42,ed0cdd95-7110-4974-8963-e85947d63bdb,S
2019-10-24 04:39:07,ed0cdd95-7110-4974-8963-e85947d63bdb,A
2019-10-24 04:44:25,ed0cdd95-7110-4974-8963-e85947d63bdb,S
2019-10-24 04:45:58,ed0cdd95-7110-4974-8963-e85947d63bdb,A
2019-10-24 04:46:46,ed0cdd95-7110-4974-8963-e85947d63bdb,S
2019-10-24 04:48:43,ed0cdd95-7110-4974-8963-e85947d63bdb,A
2019-10-24 04:52:01,ed0cdd95-7110-4974-8963-e85947d63bdb,S
2019-10-24 04:52:07,ed0cdd95-7110-4974-8963-e85947d63bdb,A
2019-10-24 05:04:26,ed0cdd95-7110-4974-8963-e85947d63bdb,S
2019-10-24 05:05:47,ed0cdd95-7110-4974-8963-e85947d63bdb,A
2019-10-24 05:10:39,ed0cdd95-7110-4974-8963-e85947d63bdb,S
2019-10-24 05:14:05,ed0cdd95-7110-4974-8963-e85947d63bdb,A
2019-10-24 05:15:19,ed0cdd95-7110-4974-8963-e85947d63bdb,S
2019-10-24 05:16:01,ed0cdd95-7110-4974-8963-e85947d63bdb,A
2019-10-24 05:28:41,ed0cdd95-7110-4974-8963-e85947d63bdb,S
2019-10-24 05:30:09,ed0cdd95-7110-4974-8963-e85947d63bdb,A
2019-10-24 05:31:23,ed0cdd95-7110-4974-8963-e85947d63bdb,S
2019-10-24 05:34:00,ed0cdd95-7110-4974-8963-e85947d63bdb,A
2019-10-24 03:51:09,1ccdfb22-c2ea-4fb3-8a35-36c808221bef,A
2019-10-24 03:57:12,1ccdfb22-c2ea-4fb3-8a35-36c808221bef,S
2019-10-24 03:59:42,1ccdfb22-c2ea-4fb3-8a35-36c808221bef,A
2019-10-24 04:00:26,1ccdfb22-c2ea-4fb3-8a35-36c808221bef,S
2019-10-24 04:00:30,1ccdfb22-c2ea-4fb3-8a35-36c808221bef,A
2019-10-24 04:03:20,1ccdfb22-c2ea-4fb3-8a35-36c808221bef,S
2019-10-24 04:11:36,1ccdfb22-c2ea-4fb3-8a35-36c808221bef,A
2019-10-24 04:14:22,1ccdfb22-c2ea-4fb3-8a35-36c808221bef,S
2019-10-24 04:14:25,1ccdfb22-c2ea-4fb3-8a35-36c808221bef,A
2019-10-24 04:20:30,1ccdfb22-c2ea-4fb3-8a35-36c808221bef,S
2019-10-24 04:24:53,1ccdfb22-c2ea-4fb3-8a35-36c808221bef,A
2019-10-24 04:32:14,1ccdfb22-c2ea-4fb3-8a35-36c808221bef,S
2019-10-24 04:33:23,1ccdfb22-c2ea-4fb3-8a35-36c808221bef,A
2019-10-24 04:37:20,1ccdfb22-c2ea-4fb3-8a35-36c808221bef,S
2019-10-24 04:38:07,1ccdfb22-c2ea-4fb3-8a35-36c808221bef,A
2019-10-24 04:38:24,1ccdfb22-c2ea-4fb3-8a35-36c808221bef,S
2019-10-24 04:48:57,1ccdfb22-c2ea-4fb3-8a35-36c808221bef,A
2019-10-24 04:50:20,1ccdfb22-c2ea-4fb3-8a35-36c808221bef,S
2019-10-24 04:56:05,1ccdfb22-c2ea-4fb3-8a35-36c808221bef,A
2019-10-24 05:00:31,1ccdfb22-c2ea-4fb3-8a35-36c808221bef,S
2019-10-24 05:01:50,1ccdfb22-c2ea-4fb3-8a35-36c808221bef,A
2019-10-24 05:04:38,1ccdfb22-c2ea-4fb3-8a35-36c808221bef,S
2019-10-24 05:06:02,1ccdfb22-c2ea-4fb3-8a35-36c808221bef,A
2019-10-24 05:14:52,1ccdfb22-c2ea-4fb3-8a35-36c808221bef,S
2019-10-24 05:16:21,1ccdfb22-c2ea-4fb3-8a35-36c808221bef,A
2019-10-24 05:20:00,1ccdfb22-c2ea-4fb3-8a35-36c808221bef,S
2019-10-24 05:20:17,1ccdfb22-c2ea-4fb3-8a35-36c808221bef,A
2019-10-24 05:24:15,1ccdfb22-c2ea-4fb3-8a35-36c808221bef,S
2019-10-24 03:24:41,b9bb3d2a-71cf-46fe-bc59-e29481762a3e,A
2019-10-24 03:28:58,b9bb3d2a-71cf-46fe-bc59-e29481762a3e,S
2019-10-24 03:31:15,b9bb3d2a-71cf-46fe-bc59-e29481762a3e,A
2019-10-24 03:38:58,b9bb3d2a-71cf-46fe-bc59-e29481762a3e,S
2019-10-24 03:48:16,b9bb3d2a-71cf-46fe-bc59-e29481762a3e,A
2019-10-24 03:52:37,b9bb3d2a-71cf-46fe-bc59-e29481762a3e,S
2019-10-24 03:57:10,b9bb3d2a-71cf-46fe-bc59-e29481762a3e,A
2019-10-24 04:12:27,b9bb3d2a-71cf-46fe-bc59-e29481762a3e,S
2019-10-24 04:17:20,b9bb3d2a-71cf-46fe-bc59-e29481762a3e,A
2019-10-24 04:30:09,b9bb3d2a-71cf-46fe-bc59-e29481762a3e,S
2019-10-24 04:30:38,b9bb3d2a-71cf-46fe-bc59-e29481762a3e,A
2019-10-24 04:37:51,b9bb3d2a-71cf-46fe-bc59-e29481762a3e,S
2019-10-24 04:45:45,b9bb3d2a-71cf-46fe-bc59-e29481762a3e,A
2019-10-24 04:46:55,b9bb3d2a-71cf-46fe-bc59-e29481762a3e,S
2019-10-24 04:48:28,b9bb3d2a-71cf-46fe-bc59-e29481762a3e,A
2019-10-24 04:49:05,b9bb3d2a-71cf-46fe-bc59-e29481762a3e,S
2019-10-24 04:50:38,b9bb3d2a-71cf-46fe-bc59-e29481762a3e,A
2019-10-24 04:51:13,b9bb3d2a-71cf-46fe-bc59-e29481762a3e,S
2019-10-24 04:51:20,b9bb3d2a-71cf-46fe-bc59-e29481762a3e,A
2019-10-24 04:51:41,b9bb3d2a-71cf-46fe-bc59-e29481762a3e,S
2019-10-24 04:52:38,b9bb3d2a-71cf-46fe-bc59-e29481762a3e,A
2019-10-24 05:00:03,b9bb3d2a-71cf-46fe-bc59-e29481762a3e,S
2019-10-24 05:12:21,b9bb3d2a-71cf-46fe-bc59-e29481762a3e,A
2019-10-24 05:13:00,b9bb3d2a-71cf-46fe-bc59-e29481762a3e,S
2019-10-24 05:31:29,b9bb3d2a-71cf-46fe-bc59-e29481762a3e,A
2019-10-24 03:30:59,85f36961-c7ba-4b0a-b171-2fc4b79c08d7,S
2019-10-24 03:32:31,85f36961-c7ba-4b0a-b171-2fc4b79c08d7,A
2019-10-24 03:33:20,85f36961-c7ba-4b0a-b171-2fc4b79c08d7,S
2019-10-24 03:33:26,85f36961-c7ba-4b0a-b171-2fc4b79c08d7,A
2019-10-24 03:33:31,85f36961-c7ba-4b0a-b171-2fc4b79c08d7,S
2019-10-24 03:33:56,85f36961-c7ba-4b0a-b171-2fc4b79c08d7,A
2019-10-24 03:38:41,85f36961-c7ba-4b0a-b171-2fc4b79c08d7,S
2019-10-24 03:42:49,85f36961-c7ba-4b0a-b171-2fc4b79c08d7,A
2019-10-24 03:44:37,85f36961-c7ba-4b0a-b171-2fc4b79c08d7,S
2019-10-24 03:46:51,85f36961-c7ba-4b0a-b171-2fc4b79c08d7,A
2019-10-24 03:57:29,85f36961-c7ba-4b0a-b171-2fc4b79c08d7,S
2019-10-24 03:59:31,85f36961-c7ba-4b0a-b171-2fc4b79c08d7,A
2019-10-24 04:08:40,85f36961-c7ba-4b0a-b171-2fc4b79c08d7,S
2019-10-24 04:11:16,85f36961-c7ba-4b0a-b171-2fc4b79c08d7,A
2019-10-24 04:19:51,85f36961-c7ba-4b0a-b171-2fc4b79c08d7,S
2019-10-24 04:21:53,85f36961-c7ba-4b0a-b171-2fc4b79c08d7,A
2019-10-24 04:23:42,85f36961-c7ba-4b0a-b171-2fc4b79c08d7,S
2019-10-24 04:26:45,85f36961-c7ba-4b0a-b171-2fc4b79c08d7,A
2019-10-24 04:26:53,85f36961-c7ba-4b0a-b171-2fc4b79c08d7,S
2019-10-24 04:38:56,85f36961-c7ba-4b0a-b171-2fc4b79c08d7,A
2019-10-24 04:42:35,85f36961-c7ba-4b0a-b171-2fc4b79c08d7,S
2019-10-24 04:54:19,85f36961-c7ba-4b0a-b171-2fc4b79c08d7,A
2019-10-24 04:55:03,85f36961-c7ba-4b0a-b171-2fc4b79c08d7,S
2019-10-24 05:01:57,85f36961-c7ba-4b0a-b171-2fc4b79c08d7,A
2019-10-24 05:03:17,85f36961-c7ba-4b0a-b171-2fc4b79c08d7,S
2019-10-24 05:05:44,85f36961-c7ba-4b0a-b171-2fc4b79c08d7,A
2019-10-24 05:14:09,85f36961-c7ba-4b0a-b171-2fc4b79c08d7,S
2019-10-24 05:22:18,85f36961-c7ba-4b0a-b171-2fc4b79c08d7,A
2019-10-24 05:32:28,85f36961-c7ba-4b0a-b171-2fc4b79c08d7,S
2019-10-24 05:34:26,85f36961-c7ba-4b0a-b171-2fc4b79c08d7,A
2019-10-24 03:58:44,d9420ea1-2eed-42a0-b138-3e1efc89c241,S
2019-10-24 03:59:25,d9420ea1-2eed-42a0-b138-3e1efc89c241,A
2019-10-24 04:15:06,d9420ea1-2eed-42a0-b138-3e1efc89c241,S
2019-10-24 04:22:21,d9420ea1-2eed-42a0-b138-3e1efc89c241,A
2019-10-24 04:22:42,d9420ea1-2eed-42a0-b138-3e1efc89c241,S
2019-10-24 04:23:12,d9420ea1-2eed-42a0-b138-3e1efc89c241,A
2019-10-24 04:24:19,d9420ea1-2eed-42a0-b138-3e1efc89c241,S
2019-10-24 04:32:07,d9420ea1-2eed-42a0-b138-3e1efc89c241,A
2019-10-24 04:34:36,d9420ea1-2eed-42a0-b138-3e1efc89c241,S
2019-10-24 04:35:34,d9420ea1-2eed-42a0-b138-3e1efc89c241,A
2019-10-24 04:40:33,d9420ea1-2eed-42a0-b138-3e1efc89c241,S
2019-10-24 04:43:59,d9420ea1-2eed-42a0-b138-3e1efc89c241,A
2019-10-24 04:51:41,d9420ea1-2eed-42a0-b138-3e1efc89c241,S
2019-10-24 04:55:14,d9420ea1-2eed-42a0-b138-3e1efc89c241,A
2019-10-24 04:56:18,d9420ea1-2eed-42a0-b138-3e1efc89c241,S
2019-10-24 04:57:36,d9420ea1-2eed-42a0-b138-3e1efc89c241,A
2019-10-24 05:06:45,d9420ea1-2eed-42a0-b138-3e1efc89c241,S
2019-10-24 05:07:52,d9420ea1-2eed-42a0-b138-3e1efc89c241,A
2019-10-24 05:10:29,d9420ea1-2eed-42a0-b138-3e1efc89c241,S
2019-10-24 05:12:36,d9420ea1-2eed-42a0-b138-3e1efc89c241,A
2019-10-24 05:21:08,d9420ea1-2eed-42a0-b138-3e1efc89c241,S
2019-10-24 05:23:22,d9420ea1-2eed-42a0-b138-3e1efc89c241,A
2019-10-24 05:28:19,d9420ea1-2eed-42a0-b138-3e1efc89c241,S
2019-10-24 05:31:47,d9420ea1-2eed-42a0-b138-3e1efc89c241,A
2019-10-24 05:32:22,d9420ea1-2eed-42a0-b138-3e1efc89c241,S
2019-10-24 05:33:54,d9420ea1-2eed-42a0-b138-3e1efc89c241,A
2019-10-24 04:07:20,f8bc5d64-8dac-4b19-9563-bc34bc631a03,S
2019-10-24 04:08:03,f8bc5d64-8dac-4b19-9563-bc34bc631a03,A
2019-10-24 04:11:34,f8bc5d64-8dac-4b19-9563-bc34bc631a03,S
2019-10-24 04:15:36,f8bc5d64-8dac-4b19-9563-bc34bc631a03,A
2019-10-24 04:23:25,f8bc5d64-8dac-4b19-9563-bc34bc631a03,S
2019-10-24 04:29:54,f8bc5d64-8dac-4b19-9563-bc34bc631a03,A
2019-10-24 04:34:05,f8bc5d64-8dac-4b19-9563-bc34bc631a03,S
2019-10-24 04:35:30,f8bc5d64-8dac-4b19-9563-bc34bc631a03,A
2019-10-24 04:45:55,f8bc5d64-8dac-4b19-9563-bc34bc631a03,S
2019-10-24 04:46:10,f8bc5d64-8dac-4b19-9563-bc34bc631a03,A
2019-10-24 04:46:26,f8bc5d64-8dac-4b19-9563-bc34bc631a03,S
2019-10-24 04:47:55,f8bc5d64-8dac-4b19-9563-bc34bc631a03,A
2019-10-24 04:55:46,f8bc5d64-8dac-4b19-9563-bc34bc631a03,S
2019-10-24 04:59:42,f8bc5d64-8dac-4b19-9563-bc34bc631a03,A
2019-10-24 05:02:21,f8bc5d64-8dac-4b19-9563-bc34bc631a03,S
2019-10-24 05:04:48,f8bc5d64-8dac-4b19-9563-bc34bc631a03,A
2019-10-24 05:06:55,f8bc5d64-8dac-4b19-9563-bc34bc631a03,S
2019-10-24 05:11:36,f8bc5d64-8dac-4b19-9563-bc34bc631a03,A
2019-10-24 05:17:57,f8bc5d64-8dac-4b19-9563-bc34bc631a03,S
2019-10-24 05:18:07,f8bc5d64-8dac-4b19-9563-bc34bc631a03,A
2019-10-24 05:18:47,f8bc5d64-8dac-4b19-9563-bc34bc631a03,S
2019-10-24 05:21:05,f8bc5d64-8dac-4b19-9563-bc34bc631a03,A
2019-10-24 05:35:31,f8bc5d64-8dac-4b19-9563-bc34bc631a03,S
2019-10-24 04:04:27,fe032806-dd3a-44cc-9c0a-576408c712a1,S
2019-10-24 04:06:23,fe032806-dd3a-44cc-9c0a-576408c712a1,A
2019-10-24 04:09:31,fe032806-dd3a-44cc-9c0a-576408c712a1,S
2019-10-24 04:10:00,fe032806-dd3a-44cc-9c0a-576408c712a1,A
2019-10-24 04:13:09,fe032806-dd3a-44cc-9c0a-576408c712a1,S
2019-10-24 04:15:09,fe032806-dd3a-44cc-9c0a-576408c712a1,A
2019-10-24 04:19:26,fe032806-dd3a-44cc-9c0a-576408c712a1,S
2019-10-24 04:20:23,fe032806-dd3a-44cc-9c0a-576408c712a1,A
2019-10-24 04:21:12,fe032806-dd3a-44cc-9c0a-576408c712a1,S
2019-10-24 04:28:39,fe032806-dd3a-44cc-9c0a-576408c712a1,A
2019-10-24 04:30:52,fe032806-dd3a-44cc-9c0a-576408c712a1,S
2019-10-24 04:34:23,fe032806-dd3a-44cc-9c0a-576408c712a1,A
2019-10-24 04:42:40,fe032806-dd3a-44cc-9c0a-576408c712a1,S
2019-10-24 04:50:04,fe032806-dd3a-44cc-9c0a-576408c712a1,A
2019-10-24 04:52:07,fe032806-dd3a-44cc-9c0a-576408c712a1,S
2019-10-24 04:54:52,fe032806-dd3a-44cc-9c0a-576408c712a1,A
2019-10-24 04:55:56,fe032806-dd3a-44cc-9c0a-576408c712a1,S
2019-10-24 04:57:14,fe032806-dd3a-44cc-9c0a-576408c712a1,A
2019-10-24 04:58:46,fe032806-dd3a-44cc-9c0a-576408c712a1,S
2019-10-24 05:06:54,fe032806-dd3a-44cc-9c0a-576408c712a1,A
2019-10-24 05:07:04,fe032806-dd3a-44cc-9c0a-576408c712a1,S
2019-10-24 05:07:16,fe032806-dd3a-44cc-9c0a-576408c712a1,A
2019-10-24 05:11:06,fe032806-dd3a-44cc-9c0a-576408c712a1,S
2019-10-24 05:13:30,fe032806-dd3a-44cc-9c0a-576408c712a1,A
2019-10-24 05:14:15,fe032806-dd3a-44cc-9c0a-576408c712a1,S
2019-10-24 05:15:33,fe032806-dd3a-44cc-9c0a-576408c712a1,A
2019-10-24 05:16:27,fe032806-dd3a-44cc-9c0a-576408c712a1,S
2019-10-24 05:24:49,fe032806-dd3a-44cc-9c0a-576408c712a1,A
2019-10-24 05:26:02,fe032806-dd3a-44cc-9c0a-576408c712a1,S
2019-10-24 05:35:01,fe032806-dd3a-44cc-9c0a-576408c712a1,A
2019-10-24 04:08:13,7ea6e6e1-cab3-46d8-8bc2-8433a73dd5af,A
2019-10-24 04:17:09,7ea6e6e1-cab3-46d8-8bc2-8433a73dd5af,S
2019-10-24 04:27:52,7ea6e6e1-cab3-46d8-8bc2-8433a73dd5af,A
2019-10-24 04:33:24,7ea6e6e1-cab3-46d8-8bc2-8433a73dd5af,S
2019-10-24 04:36:02,7ea6e6e1-cab3-46d8-8bc2-8433a73dd5af,A
2019-10-24 04:36:46,7ea6e6e1-cab3-46d8-8bc2-8433a73dd5af,S
2019-10-24 04:41:26,7ea6e6e1-cab3-46d8-8bc2-8433a73dd5af,A
2019-10-24 04:43:17,7ea6e6e1-cab3-46d8-8bc2-8433a73dd5af,S
2019-10-24 04:56:32,7ea6e6e1-cab3-46d8-8bc2-8433a73dd5af,A
2019-10-24 04:58:25,7ea6e6e1-cab3-46d8-8bc2-8433a73dd5af,S
2019-10-24 05:04:37,7ea6e6e1-cab3-46d8-8bc2-8433a73dd5af,A
2019-10-24 05:07:24,7ea6e6e1-cab3-46d8-8bc2-8433a73dd5af,S
2019-10-24 05:09:12,7ea6e6e1-cab3-46d8-8bc2-8433a73dd5af,A
2019-10-24 05:09:35,7ea6e6e1-cab3-46d8-8bc2-8433a73dd5af,S
2019-10-24 05:10:14,7ea6e6e1-cab3-46d8-8bc2-8433a73dd5af,A
2019-10-24 05:22:45,7ea6e6e1-cab3-46d8-8bc2-8433a73dd5af,S
2019-10-24 05:22:47,7ea6e6e1-cab3-46d8-8bc2-8433a73dd5af,A
2019-10-24 05:23:23,7ea6e6e1-cab3-46d8-8bc2-8433a73dd5af,S
2019-10-24 05:23:51,7ea6e6e1-cab3-46d8-8bc2-8433a73dd5af,A
2019-10-24 04:14:37,3ebeefaa-f4a0-4be6-bc96-5d7c77cd7f50,S
2019-10-24 04:28:11,3ebeefaa-f4a0-4be6-bc96-5d7c77cd7f50,A
2019-10-24 04:33:05,3ebeefaa-f4a0-4be6-bc96-5d7c77cd7f50,S
2019-10-24 04:33:37,3ebeefaa-f4a0-4be6-bc96-5d7c77cd7f50,A
2019-10-24 04:37:29,3ebeefaa-f4a0-4be6-bc96-5d7c77cd7f50,S
2019-10-24 04:38:10,3ebeefaa-f4a0-4be6-bc96-5d7c77cd7f50,A
2019-10-24 04:46:49,3ebeefaa-f4a0-4be6-bc96-5d7c77cd7f50,S
2019-10-24 04:47:53,3ebeefaa-f4a0-4be6-bc96-5d7c77cd7f50,A
2019-10-24 04:50:08,3ebeefaa-f4a0-4be6-bc96-5d7c77cd7f50,S
2019-10-24 04:52:18,3ebeefaa-f4a0-4be6-bc96-5d7c77cd7f50,A
2019-10-24 04:54:40,3ebeefaa-f4a0-4be6-bc96-5d7c77cd7f50,S
2019-10-24 04:58:31,3ebeefaa-f4a0-4be6-bc96-5d7c77cd7f50,A
2019-10-24 04:59:43,3ebeefaa-f4a0-4be6-bc96-5d7c77cd7f50,S
2019-10-24 05:00:33,3ebeefaa-f4a0-4be6-bc96-5d7c77cd7f50,A
2019-10-24 05:02:43,3ebeefaa-f4a0-4be6-bc96-5d7c77cd7f50,S
2019-10-24 05:03:06,3ebeefaa-f4a0-4be6-bc96-5d7c77cd7f50,A
2019-10-24 05:03:22,3ebeefaa-f4a0-4be6-bc96-5d7c77cd7f50,S
2019-10-24 05:07:53,3ebeefaa-f4a0-4be6-bc96-5d7c77cd7f50,A
2019-10-24 05:08:43,3ebeefaa-f4a0-4be6-bc96-5d7c77cd7f50,S
2019-10-24 05:18:15,3ebeefaa-f4a0-4be6-bc96-5d7c77cd7f50,A
2019-10-24 05:24:18,3ebeefaa-f4a0-4be6-bc96-5d7c77cd7f50,S
2019-10-24 05:32:17,3ebeefaa-f4a0-4be6-bc96-5d7c77cd7f50,A
2019-10-24 05:35:46,3ebeefaa-f4a0-4be6-bc96-5d7c77cd7f50,S
2019-10-24 05:36:22,3ebeefaa-f4a0-4be6-bc96-5d7c77cd7f50,A
2019-10-24 04:12:53,a4b85d43-692a-4ab5-8491-58ee992a7ed9,S
2019-10-24 04:15:04,a4b85d43-692a-4ab5-8491-58ee992a7ed9,A
2019-10-24 04:17:49,a4b85d43-692a-4ab5-8491-58ee992a7ed9,S
2019-10-24 04:34:45,a4b85d43-692a-4ab5-8491-58ee992a7ed9,A
2019-10-24 04:36:26,a4b85d43-692a-4ab5-8491-58ee992a7ed9,S
2019-10-24 04:37:32,a4b85d43-692a-4ab5-8491-58ee992a7ed9,A
2019-10-24 04:42:47,a4b85d43-692a-4ab5-8491-58ee992a7ed9,S
2019-10-24 04:51:25,a4b85d43-692a-4ab5-8491-58ee992a7ed9,A
2019-10-24 04:53:22,a4b85d43-692a-4ab5-8491-58ee992a7ed9,S
2019-10-24 05:00:58,a4b85d43-692a-4ab5-8491-58ee992a7ed9,A
2019-10-24 05:01:46,a4b85d43-692a-4ab5-8491-58ee992a7ed9,S
2019-10-24 05:13:33,a4b85d43-692a-4ab5-8491-58ee992a7ed9,A
2019-10-24 05:21:25,a4b85d43-692a-4ab5-8491-58ee992a7ed9,S
2019-10-24 05:23:04,a4b85d43-692a-4ab5-8491-58ee992a7ed9,A
2019-10-24 05:26:53,a4b85d43-692a-4ab5-8491-58ee992a7ed9,S
2019-10-24 05:29:11,a4b85d43-692a-4ab5-8491-58ee992a7ed9,A
2019-10-24 03:39:00,11db2d2c-e37f-464e-ace4-dfe86e96c828,S
2019-10-24 03:45:12,11db2d2c-e37f-464e-ace4-dfe86e96c828,A
2019-10-24 03:49:36,11db2d2c-e37f-464e-ace4-dfe86e96c828,S
2019-10-24 04:00:08,11db2d2c-e37f-464e-ace4-dfe86e96c828,A
2019-10-24 04:00:28,11db2d2c-e37f-464e-ace4-dfe86e96c828,S
2019-10-24 04:05:56,11db2d2c-e37f-464e-ace4-dfe86e96c828,A
2019-10-24 04:06:31,11db2d2c-e37f-464e-ace4-dfe86e96c828,S
2019-10-24 04:07:08,11db2d2c-e37f-464e-ace4-dfe86e96c828,A
2019-10-24 04:09:40,11db2d2c-e37f-464e-ace4-dfe86e96c828,S
2019-10-24 04:10:00,11db2d2c-e37f-464e-ace4-dfe86e96c828,A
2019-10-24 04:10:51,11db2d2c-e37f-464e-ace4-dfe86e96c828,S
2019-10-24 04:26:24,11db2d2c-e37f-464e-ace4-dfe86e96c828,A
2019-10-24 04:27:43,11db2d2c-e37f-464e-ace4-dfe86e96c828,S
2019-10-24 04:30:51,11db2d2c-e37f-464e-ace4-dfe86e96c828,A
2019-10-24 04:42:45,11db2d2c-e37f-464e-ace4-dfe86e96c828,S
2019-10-24 04:44:12,11db2d2c-e37f-464e-ace4-dfe86e96c828,A
2019-10-24 04:45:21,11db2d2c-e37f-464e-ace4-dfe86e96c828,S
2019-10-24 04:46:12,11db2d2c-e37f-464e-ace4-dfe86e96c828,A
2019-10-24 04:46:35,11db2d2c-e37f-464e-ace4-dfe86e96c828,S
2019-10-24 04:53:05,11db2d2c-e37f-464e-ace4-dfe86e96c828,A
2019-10-24 05:23:44,11db2d2c-e37f-464e-ace4-dfe86e96c828,S
2019-10-24 05:27:30,11db2d2c-e37f-464e-ace4-dfe86e96c828,A
2019-10-24 05:36:12,11db2d2c-e37f-464e-ace4-dfe86e96c828,S
2019-10-24 03:57:14,816b8268-542e-4cb8-83a0-f5584b331a45,S
2019-10-24 04:01:24,816b8268-542e-4cb8-83a0-f5584b331a45,A
2019-10-24 04:08:51,816b8268-542e-4cb8-83a0-f5584b331a45,S
2019-10-24 04:13:04,816b8268-542e-4cb8-83a0-f5584b331a45,A
2019-10-24 04:13:18,816b8268-542e-4cb8-83a0-f5584b331a45,S
2019-10-24 04:22:46,816b8268-542e-4cb8-83a0-f5584b331a45,A
2019-10-24 04:25:47,816b8268-542e-4cb8-83a0-f5584b331a45,S
2019-10-24 04:27:15,816b8268-542e-4cb8-83a0-f5584b331a45,A
2019-10-24 04:28:58,816b8268-542e-4cb8-83a0-f5584b331a45,S
2019-10-24 04:38:38,816b8268-542e-4cb8-83a0-f5584b331a45,A
2019-10-24 04:43:29,816b8268-542e-4cb8-83a0-f5584b331a45,S
2019-10-24 04:45:12,816b8268-542e-4cb8-83a0-f5584b331a45,A
2019-10-24 04:46:09,816b8268-542e-4cb8-83a0-f5584b331a45,S
2019-10-24 04:51:36,816b8268-542e-4cb8-83a0-f5584b331a45,A
2019-10-24 04:56:11,816b8268-542e-4cb8-83a0-f5584b331a45,S
2019-10-24 05:00:52,816b8268-542e-4cb8-83a0-f5584b331a45,A
2019-10-24 05:08:53,816b8268-542e-4cb8-83a0-f5584b331a45,S
2019-10-24 05:14:04,816b8268-542e-4cb8-83a0-f5584b331a45,A
2019-10-24 05:17:24,816b8268-542e-4cb8-83a0-f5584b331a45,S
2019-10-24 05:30:10,816b8268-542e-4cb8-83a0-f5584b331a45,A
2019-10-24 04:07:13,8b15d605-9620-484b-9ce6-6f04968ca8f9,A
2019-10-24 04:09:05,8b15d605-9620-484b-9ce6-6f04968ca8f9,S
2019-10-24 04:18:33,8b15d605-9620-484b-9ce6-6f04968ca8f9,A
2019-10-24 04:32:40,8b15d605-9620-484b-9ce6-6f04968ca8f9,S
2019-10-24 04:34:16,8b15d605-9620-484b-9ce6-6f04968ca8f9,A
2019-10-24 04:35:50,8b15d605-9620-484b-9ce6-6f04968ca8f9,S
2019-10-24 04:37:43,8b15d605-9620-484b-9ce6-6f04968ca8f9,A
2019-10-24 04:44:11,8b15d605-9620-484b-9ce6-6f04968ca8f9,S
2019-10-24 04:49:05,8b15d605-9620-484b-9ce6-6f04968ca8f9,A
2019-10-24 04:56:36,8b15d605-9620-484b-9ce6-6f04968ca8f9,S
2019-10-24 04:56:38,8b15d605-9620-484b-9ce6-6f04968ca8f9,A
2019-10-24 04:56:58,8b15d605-9620-484b-9ce6-6f04968ca8f9,S
2019-10-24 04:59:18,8b15d605-9620-484b-9ce6-6f04968ca8f9,A
2019-10-24 05:02:30,8b15d605-9620-484b-9ce6-6f04968ca8f9,S
2019-10-24 05:03:16,8b15d605-9620-484b-9ce6-6f04968ca8f9,A
2019-10-24 05:14:16,8b15d605-9620-484b-9ce6-6f04968ca8f9,S
2019-10-24 05:15:04,8b15d605-9620-484b-9ce6-6f04968ca8f9,A
2019-10-24 05:15:30,8b15d605-9620-484b-9ce6-6f04968ca8f9,S
2019-10-24 05:17:43,8b15d605-9620-484b-9ce6-6f04968ca8f9,A
2019-10-24 05:19:57,8b15d605-9620-484b-9ce6-6f04968ca8f9,S
2019-10-24 05:20:16,8b15d605-9620-484b-9ce6-6f04968ca8f9,A
2019-10-24 05:29:41,8b15d605-9620-484b-9ce6-6f04968ca8f9,S
2019-10-24 05:34:25,8b15d605-9620-484b-9ce6-6f04968ca8f9,A
2019-10-24 05:36:09,8b15d605-9620-484b-9ce6-6f04968ca8f9,S
2019-10-24 05:37:19,8b15d605-9620-484b-9ce6-6f04968ca8f9,A
2019-10-24 04:12:52,775be744-884d-4131-b496-618f65389f21,S
2019-10-24 04:18:15,775be744-884d-4131-b496-618f65389f21,A
2019-10-24 04:19:40,775be744-884d-4131-b496-618f65389f21,S
2019-10-24 04:21:51,775be744-884d-4131-b496-618f65389f21,A
2019-10-24 04:28:53,775be744-884d-4131-b496-618f65389f21,S
2019-10-24 04:34:59,775be744-884d-4131-b496-618f65389f21,A
2019-10-24 04:38:54,775be744-884d-4131-b496-618f65389f21,S
2019-10-24 04:42:16,775be744-884d-4131-b496-618f65389f21,A
2019-10-24 04:43:50,775be744-884d-4131-b496-618f65389f21,S
2019-10-24 04:44:01,775be744-884d-4131-b496-618f65389f21,A
2019-10-24 04:46:21,775be744-884d-4131-b496-618f65389f21,S
2019-10-24 04:50:37,775be744-884d-4131-b496-618f65389f21,A
2019-10-24 04:53:31,775be744-884d-4131-b496-618f65389f21,S
2019-10-24 04:54:26,775be744-884d-4131-b496-618f65389f21,A
2019-10-24 05:04:50,775be744-884d-4131-b496-618f65389f21,S
2019-10-24 05:04:54,775be744-884d-4131-b496-618f65389f21,A
2019-10-24 05:05:26,775be744-884d-4131-b496-618f65389f21,S
2019-10-24 05:05:55,775be744-884d-4131-b496-618f65389f21,A
2019-10-24 05:06:08,775be744-884d-4131-b496-618f65389f21,S
2019-10-24 05:10:03,775be744-884d-4131-b496-618f65389f21,A
2019-10-24 05:17:52,775be744-884d-4131-b496-618f65389f21,S
2019-10-24 05:23:50,775be744-884d-4131-b496-618f65389f21,A
2019-10-24 05:26:43,775be744-884d-4131-b496-618f65389f21,S
2019-10-24 05:28:43,775be744-884d-4131-b496-618f65389f21,A
2019-10-24 05:35:13,775be744-884d-4131-b496-618f65389f21,S
2019-10-24 03:41:00,4ac179e2-1e46-428d-a761-5af7a7f02b69,A
2019-10-24 03:43:50,4ac179e2-1e46-428d-a761-5af7a7f02b69,S
2019-10-24 03:48:57,4ac179e2-1e46-428d-a761-5af7a7f02b69,A
2019-10-24 04:04:25,4ac179e2-1e46-428d-a761-5af7a7f02b69,S
2019-10-24 04:13:27,4ac179e2-1e46-428d-a761-5af7a7f02b69,A
2019-10-24 04:23:10,4ac179e2-1e46-428d-a761-5af7a7f02b69,S
2019-10-24 04:31:41,4ac179e2-1e46-428d-a761-5af7a7f02b69,A
2019-10-24 04:32:27,4ac179e2-1e46-428d-a761-5af7a7f02b69,S
2019-10-24 04:32:45,4ac179e2-1e46-428d-a761-5af7a7f02b69,A
2019-10-24 04:41:24,4ac179e2-1e46-428d-a761-5af7a7f02b69,S
2019-10-24 04:44:23,4ac179e2-1e46-428d-a761-5af7a7f02b69,A
2019-10-24 04:44:25,4ac179e2-1e46-428d-a761-5af7a7f02b69,S
2019-10-24 04:45:37,4ac179e2-1e46-428d-a761-5af7a7f02b69,A
2019-10-24 04:47:27,4ac179e2-1e46-428d-a761-5af7a7f02b69,S
2019-10-24 04:49:17,4ac179e2-1e46-428d-a761-5af7a7f02b69,A
2019-10-24 04:50:16,4ac179e2-1e46-428d-a761-5af7a7f02b69,S
2019-10-24 04:52:00,4ac179e2-1e46-428d-a761-5af7a7f02b69,A
2019-10-24 05:01:15,4ac179e2-1e46-428d-a761-5af7a7f02b69,S
2019-10-24 05:03:22,4ac179e2-1e46-428d-a761-5af7a7f02b69,A
2019-10-24 05:04:21,4ac179e2-1e46-428d-a761-5af7a7f02b69,S
2019-10-24 05:06:48,4ac179e2-1e46-428d-a761-5af7a7f02b69,A
2019-10-24 05:15:33,4ac179e2-1e46-428d-a761-5af7a7f02b69,S
2019-10-24 05:17:50,4ac179e2-1e46-428d-a761-5af7a7f02b69,A
2019-10-24 05:22:43,4ac179e2-1e46-428d-a761-5af7a7f02b69,S
2019-10-24 05:22:50,4ac179e2-1e46-428d-a761-5af7a7f02b69,A
2019-10-24 05:23:29,4ac179e2-1e46-428d-a761-5af7a7f02b69,S
2019-10-24 05:26:58,4ac179e2-1e46-428d-a761-5af7a7f02b69,A
2019-10-24 05:28:24,4ac179e2-1e46-428d-a761-5af7a7f02b69,S
2019-10-24 05:34:04,4ac179e2-1e46-428d-a761-5af7a7f02b69,A
2019-10-24 05:34:32,4ac179e2-1e46-428d-a761-5af7a7f02b69,S
2019-10-24 03:58:52,6b602034-7d98-4065-9b90-64a0fc79504b,A
2019-10-24 04:10:23,6b602034-7d98-4065-9b90-64a0fc79504b,S
2019-10-24 04:20:19,6b602034-7d98-4065-9b90-64a0fc79504b,A
2019-10-24 04:25:47,6b602034-7d98-4065-9b90-64a0fc79504b,S
2019-10-24 04:26:29,6b602034-7d98-4065-9b90-64a0fc79504b,A
2019-10-24 04:27:26,6b602034-7d98-4065-9b90-64a0fc79504b,S
2019-10-24 04:29:24,6b602034-7d98-4065-9b90-64a0fc79504b,A
2019-10-24 04:30:44,6b602034-7d98-4065-9b90-64a0fc79504b,S
2019-10-24 04:38:03,6b602034-7d98-4065-9b90-64a0fc79504b,A
2019-10-24 04:39:57,6b602034-7d98-4065-9b90-64a0fc79504b,S
2019-10-24 04:41:40,6b602034-7d98-4065-9b90-64a0fc79504b,A
2019-10-24 04:57:04,6b602034-7d98-4065-9b90-64a0fc79504b,S
2019-10-24 05:02:58,6b602034-7d98-4065-9b90-64a0fc79504b,A
2019-10-24 05:07:31,6b602034-7d98-4065-9b90-64a0fc79504b,S
2019-10-24 05:08:35,6b602034-7d98-4065-9b90-64a0fc79504b,A
2019-10-24 05:10:55,6b602034-7d98-4065-9b90-64a0fc79504b,S
2019-10-24 05:14:34,6b602034-7d98-4065-9b90-64a0fc79504b,A
2019-10-24 05:16:35,6b602034-7d98-4065-9b90-64a0fc79504b,S
2019-10-24 05:16:43,6b602034-7d98-4065-9b90-64a0fc79504b,A
2019-10-24 05:25:49,6b602034-7d98-4065-9b90-64a0fc79504b,S
2019-10-24 05:32:08,6b602034-7d98-4065-9b90-64a0fc79504b,A
2019-10-24 05:33:14,6b602034-7d98-4065-9b90-64a0fc79504b,S
2019-10-24 05:34:07,6b602034-7d98-4065-9b90-64a0fc79504b,A
2019-10-24 05:37:06,6b602034-7d98-4065-9b90-64a0fc79504b,S
2019-10-24 03:30:41,574e1634-786a-4630-91b3-823a5130ca52,A
2019-10-24 03:34:08,574e1634-786a-4630-91b3-823a5130ca52,S
2019-10-24 03:42:42,574e1634-786a-4630-91b3-823a5130ca52,A
2019-10-24 03:45:45,574e1634-786a-4630-91b3-823a5130ca52,S
2019-10-24 03:46:02,574e1634-786a-4630-91b3-823a5130ca52,A
2019-10-24 03:48:30,574e1634-786a-4630-91b3-823a5130ca52,S
2019-10-24 03:53:50,574e1634-786a-4630-91b3-823a5130ca52,A
2019-10-24 03:57:45,574e1634-786a-4630-91b3-823a5130ca52,S
2019-10-24 04:00:30,574e1634-786a-4630-91b3-823a5130ca52,A
2019-10-24 04:11:18,574e1634-786a-4630-91b3-823a5130ca52,S
2019-10-24 04:16:55,574e1634-786a-4630-91b3-823a5130ca52,A
2019-10-24 04:39:29,574e1634-786a-4630-91b3-823a5130ca52,S
2019-10-24 05:03:50,574e1634-786a-4630-91b3-823a5130ca52,A
2019-10-24 05:10:24,574e1634-786a-4630-91b3-823a5130ca52,S
2019-10-24 05:13:51,574e1634-786a-4630-91b3-823a5130ca52,A
2019-10-24 05:16:45,574e1634-786a-4630-91b3-823a5130ca52,S
2019-10-24 05:21:30,574e1634-786a-4630-91b3-823a5130ca52,A
2019-10-24 05:34:34,574e1634-786a-4630-91b3-823a5130ca52,S
2019-10-24 05:36:07,574e1634-786a-4630-91b3-823a5130ca52,A
2019-10-24 03:36:34,b3351a6c-940d-4515-b0e3-50477131944e,S
2019-10-24 03:41:32,b3351a6c-940d-4515-b0e3-50477131944e,A
2019-10-24 03:41:53,b3351a6c-940d-4515-b0e3-50477131944e,S
2019-10-24 03:46:38,b3351a6c-940d-4515-b0e3-50477131944e,A
2019-10-24 03:51:35,b3351a6c-940d-4515-b0e3-50477131944e,S
2019-10-24 03:53:37,b3351a6c-940d-4515-b0e3-50477131944e,A
2019-10-24 04:03:42,b3351a6c-940d-4515-b0e3-50477131944e,S
2019-10-24 04:06:23,b3351a6c-940d-4515-b0e3-50477131944e,A
2019-10-24 04:07:18,b3351a6c-940d-4515-b0e3-50477131944e,S
2019-10-24 04:15:19,b3351a6c-940d-4515-b0e3-50477131944e,A
2019-10-24 04:24:08,b3351a6c-940d-4515-b0e3-50477131944e,S
2019-10-24 04:26:18,b3351a6c-940d-4515-b0e3-50477131944e,A
2019-10-24 04:26:27,b3351a6c-940d-4515-b0e3-50477131944e,S
2019-10-24 04:45:44,b3351a6c-940d-4515-b0e3-50477131944e,A
2019-10-24 04:47:58,b3351a6c-940d-4515-b0e3-50477131944e,S
2019-10-24 05:05:32,b3351a6c-940d-4515-b0e3-50477131944e,A
2019-10-24 05:15:43,b3351a6c-940d-4515-b0e3-50477131944e,S
2019-10-24 05:31:34,b3351a6c-940d-4515-b0e3-50477131944e,A
2019-10-24 05:32:47,b3351a6c-940d-4515-b0e3-50477131944e,S
2019-10-24 03:36:27,e880b7b5-974d-42ba-b9f3-810286e2d35c,S
2019-10-24 03:39:55,e880b7b5-974d-42ba-b9f3-810286e2d35c,A
