node,ip,uuid
node-a8-199.grenoble.iot-lab.info,172.20.64.1,5a632667-023f-4ba4-9ac0-78033fc397d3
node-a8-200.grenoble.iot-lab.info,172.20.64.2,030ab3dd-82e4-4240-a8e2-a91275c09061
node-a8-201.grenoble.iot-lab.info,172.20.64.3,51d73429-8809-4029-8eb8-301114d311c8
node-a8-202.grenoble.iot-lab.info,172.20.64.4,88b3f050-26df-45f6-a605-41d0aabd0f9c
node-a8-204.grenoble.iot-lab.info,172.20.64.5,37f7c036-db53-4f04-ba9a-9a3562f5af45
node-a8-205.grenoble.iot-lab.info,172.20.64.6,bd01dd4e-601d-4eec-b795-92a95fa8e080
node-a8-206.grenoble.iot-lab.info,172.20.64.7,ba1dbca6-be3c-4e49-af5d-ce05528fdfda
node-a8-207.grenoble.iot-lab.info,172.20.64.8,2c2e7169-f385-4970-9d49-f36a02ef7abc
node-a8-208.grenoble.iot-lab.info,172.20.64.9,b99d8405-433d-4053-a28b-b4762f75dfad
node-a8-209.grenoble.iot-lab.info,172.20.64.10,551894c4-debd-45fc-b286-000e59393f3e
node-a8-210.grenoble.iot-lab.info,172.20.64.11,3adf684b-5e2e-4022-89dd-27193e3cca38
node-a8-211.grenoble.iot-lab.info,172.20.64.12,ff1330fc-4664-40b9-b4e9-23caf83b5559
node-a8-212.grenoble.iot-lab.info,172.20.64.13,92042c6c-5a57-4b38-be8d-07309fb2572d
node-a8-214.grenoble.iot-lab.info,172.20.64.14,f274f730-7118-4d61-8116-44ad9bf8597d
node-a8-216.grenoble.iot-lab.info,172.20.64.15,ed6c0494-e055-49ae-9ced-9d16fdb269ce
node-a8-217.grenoble.iot-lab.info,172.20.64.16,d8db692e-477d-4069-80c1-23b46bca451a
node-a8-218.grenoble.iot-lab.info,172.20.64.17,f5dc53b6-ff62-48ae-b1b4-eb5a28be5e7d
node-a8-219.grenoble.iot-lab.info,172.20.64.18,13b45ee1-5aa7-4045-b1be-098554e633cd
node-a8-220.grenoble.iot-lab.info,172.20.64.19,12785521-35ba-4ff0-9639-87c7775cb847
node-a8-221.grenoble.iot-lab.info,172.20.64.20,9f1bbedb-d6dd-4839-9ab4-8214bbd4ddfc
node-a8-165.grenoble.iot-lab.info,172.20.64.21,72251c3c-d814-4b8a-9edb-e261c6f04471
node-a8-166.grenoble.iot-lab.info,172.20.64.22,8bfa7eae-aa02-40df-999f-a3135465539e
node-a8-167.grenoble.iot-lab.info,172.20.64.23,6ae4091e-0f25-433a-8219-7fd025400146
node-a8-168.grenoble.iot-lab.info,172.20.64.24,9d126986-2463-412b-a785-fcd3e6c402bc
node-a8-169.grenoble.iot-lab.info,172.20.64.25,137698a0-001e-46ac-9953-9d6fbdc5231e
node-a8-170.grenoble.iot-lab.info,172.20.64.26,5ae6aeec-3f46-44fc-bb7f-0fb9669ff69c
node-a8-171.grenoble.iot-lab.info,172.20.64.27,aca65834-0002-471b-aa55-976669b4e7e1
node-a8-173.grenoble.iot-lab.info,172.20.64.28,c0c1de62-a458-4307-afeb-2fe8868e6f52
node-a8-174.grenoble.iot-lab.info,172.20.64.29,7e2e8852-716f-454c-8ab6-b2ab9a666de0
node-a8-175.grenoble.iot-lab.info,172.20.64.30,6ab5b390-6427-4ef6-bdad-c7cee4493756
node-a8-176.grenoble.iot-lab.info,172.20.64.31,4644aa2f-4d4d-430d-bb6f-94f16c5c49a3
node-a8-177.grenoble.iot-lab.info,172.20.64.32,ffc11533-0ec5-447d-a2e8-3f28338b0d05
node-a8-179.grenoble.iot-lab.info,172.20.64.33,888e5c8a-3df5-42d1-bc4e-80171adf81d9
node-a8-180.grenoble.iot-lab.info,172.20.64.34,da4ccdee-1ec9-4336-ab55-8001731c9645
node-a8-181.grenoble.iot-lab.info,172.20.64.35,20bf1a7e-84d6-4325-84be-520aad6ebc3f
node-a8-182.grenoble.iot-lab.info,172.20.64.36,8dacb8e1-0745-4c79-930f-02f5369194e5
node-a8-183.grenoble.iot-lab.info,172.20.64.37,c3354616-8fe2-44fb-af63-69992721cd79
node-a8-184.grenoble.iot-lab.info,172.20.64.38,a6e61268-b2f6-4d0f-ade5-248d0fe9434d
node-a8-185.grenoble.iot-lab.info,172.20.64.39,7db838ca-e3ac-4da7-8ce2-170304bd6817
node-a8-187.grenoble.iot-lab.info,172.20.64.40,1d5b9cbf-5094-4b2a-8ac3-eb5efc9b8e26
node-a8-188.grenoble.iot-lab.info,172.20.64.41,a6c7e8a2-8f93-43ce-8d95-e4023242a99e
node-a8-189.grenoble.iot-lab.info,172.20.64.42,b0e25fe6-867b-4dcf-bc2a-020fedfc707b
node-a8-190.grenoble.iot-lab.info,172.20.64.43,2dac2f70-3136-4043-829c-472bd4c3ed54
node-a8-191.grenoble.iot-lab.info,172.20.64.44,3bdc98f6-47fd-435c-b743-3668cef5cb9d
node-a8-192.grenoble.iot-lab.info,172.20.64.45,ad901ad1-a68b-4d4f-8193-46bc3806d9df
node-a8-193.grenoble.iot-lab.info,172.20.64.46,3ed20cd5-1f3f-4f7f-8116-08adeee45b97
node-a8-194.grenoble.iot-lab.info,172.20.64.47,441b8933-80b2-4570-a0e0-8a977ad78040
node-a8-195.grenoble.iot-lab.info,172.20.64.48,f2542beb-c1e6-4c39-a9f4-b0013bce5b2d
node-a8-197.grenoble.iot-lab.info,172.20.64.49,213500f1-41a7-4713-973b-b14048f31d71
node-a8-198.grenoble.iot-lab.info,172.20.64.50,29f86309-4cd0-4306-bf24-bb5a7306e416
uvb-28.sophia.grid5000.fr,172.16.132.28,b01d9eeb-1a42-4843-8488-ef378d4f55c2
uvb-29.sophia.grid5000.fr,172.16.132.29,15015031-53d5-4c71-a464-fe4329286b2c
uvb-31.sophia.grid5000.fr,172.16.132.31,3ea921e7-845c-4bf0-aa31-0e23e681ce3b
uvb-33.sophia.grid5000.fr,172.16.132.33,a8eff7bc-110c-40dc-b528-005baf0b2e45
uvb-34.sophia.grid5000.fr,172.16.132.34,9894448d-a1ca-49a1-b3c1-8e72a39b7be3
uvb-35.sophia.grid5000.fr,172.16.132.35,4c9c419f-e94f-433f-b491-2cf17717eee8
uvb-36.sophia.grid5000.fr,172.16.132.36,64ba4989-ae07-423b-8057-65717601a504
uvb-37.sophia.grid5000.fr,172.16.132.37,6158cc53-a2fd-4caa-accc-fbeab139d945
uvb-4.sophia.grid5000.fr,172.16.132.4,63f2532d-274d-4ebc-ba7a-2dccd093a3cb
uvb-42.sophia.grid5000.fr,172.16.132.42,36dce767-2f2a-4bdb-bc49-d2bbb9074ade
uvb-43.sophia.grid5000.fr,172.16.132.43,53590b8f-e702-401e-8b7a-10cba262858d
uvb-44.sophia.grid5000.fr,172.16.132.44,ad43aa94-f716-44a3-9037-6403e372fadd
uvb-5.sophia.grid5000.fr,172.16.132.5,50fbc8a1-9674-4df8-8c51-f29a094ce9df
uvb-6.sophia.grid5000.fr,172.16.132.6,c6c12243-f3cf-45e9-862e-93de3384b3ab
uvb-8.sophia.grid5000.fr,172.16.132.8,e697ddc4-13c4-442f-8da2-21ad5ed6446f
uvb-9.sophia.grid5000.fr,172.16.132.9,9ae1e65f-e872-4792-b947-f29ab931449f
