date,trigger,state
2019-08-03 01:54:16,c7db0a53-9265-41ae-8f44-ace05ef341b7,S
2019-08-03 01:59:31,c7db0a53-9265-41ae-8f44-ace05ef341b7,A
2019-08-03 02:06:15,c7db0a53-9265-41ae-8f44-ace05ef341b7,S
2019-08-03 02:11:14,c7db0a53-9265-41ae-8f44-ace05ef341b7,A
2019-08-03 02:12:10,c7db0a53-9265-41ae-8f44-ace05ef341b7,S
2019-08-03 02:18:57,c7db0a53-9265-41ae-8f44-ace05ef341b7,A
2019-08-03 02:21:13,c7db0a53-9265-41ae-8f44-ace05ef341b7,S
2019-08-03 02:27:19,c7db0a53-9265-41ae-8f44-ace05ef341b7,A
2019-08-03 02:27:20,c7db0a53-9265-41ae-8f44-ace05ef341b7,S
2019-08-03 02:28:05,c7db0a53-9265-41ae-8f44-ace05ef341b7,A
2019-08-03 02:31:58,c7db0a53-9265-41ae-8f44-ace05ef341b7,S
2019-08-03 02:37:34,c7db0a53-9265-41ae-8f44-ace05ef341b7,A
2019-08-03 02:39:35,c7db0a53-9265-41ae-8f44-ace05ef341b7,S
2019-08-03 02:42:48,c7db0a53-9265-41ae-8f44-ace05ef341b7,A
2019-08-03 02:45:40,c7db0a53-9265-41ae-8f44-ace05ef341b7,S
2019-08-03 02:48:54,c7db0a53-9265-41ae-8f44-ace05ef341b7,A
2019-08-03 02:57:56,c7db0a53-9265-41ae-8f44-ace05ef341b7,S
2019-08-03 03:01:29,c7db0a53-9265-41ae-8f44-ace05ef341b7,A
2019-08-03 03:02:28,c7db0a53-9265-41ae-8f44-ace05ef341b7,S
2019-08-03 03:05:55,c7db0a53-9265-41ae-8f44-ace05ef341b7,A
2019-08-03 03:07:53,c7db0a53-9265-41ae-8f44-ace05ef341b7,S
2019-08-03 03:08:34,c7db0a53-9265-41ae-8f44-ace05ef341b7,A
2019-08-03 03:15:43,c7db0a53-9265-41ae-8f44-ace05ef341b7,S
2019-08-03 03:18:07,c7db0a53-9265-41ae-8f44-ace05ef341b7,A
2019-08-03 02:12:24,fb9472f3-0671-4f09-adf1-27e7ba771d17,S
2019-08-03 02:14:35,fb9472f3-0671-4f09-adf1-27e7ba771d17,A
2019-08-03 02:17:20,fb9472f3-0671-4f09-adf1-27e7ba771d17,S
2019-08-03 02:34:17,fb9472f3-0671-4f09-adf1-27e7ba771d17,A
2019-08-03 02:35:57,fb9472f3-0671-4f09-adf1-27e7ba771d17,S
2019-08-03 02:37:04,fb9472f3-0671-4f09-adf1-27e7ba771d17,A
2019-08-03 02:42:18,fb9472f3-0671-4f09-adf1-27e7ba771d17,S
2019-08-03 02:50:56,fb9472f3-0671-4f09-adf1-27e7ba771d17,A
2019-08-03 02:52:54,fb9472f3-0671-4f09-adf1-27e7ba771d17,S
2019-08-03 03:00:29,fb9472f3-0671-4f09-adf1-27e7ba771d17,A
2019-08-03 03:01:17,fb9472f3-0671-4f09-adf1-27e7ba771d17,S
2019-08-03 03:13:05,fb9472f3-0671-4f09-adf1-27e7ba771d17,A
2019-08-03 03:20:57,fb9472f3-0671-4f09-adf1-27e7ba771d17,S
2019-08-03 03:22:35,fb9472f3-0671-4f09-adf1-27e7ba771d17,A
2019-08-03 03:26:25,fb9472f3-0671-4f09-adf1-27e7ba771d17,S
2019-08-03 03:28:43,fb9472f3-0671-4f09-adf1-27e7ba771d17,A
2019-08-03 01:38:27,e440335a-f6d9-4356-9d0b-b6d8d01c1129,S
2019-08-03 01:44:39,e440335a-f6d9-4356-9d0b-b6d8d01c1129,A
2019-08-03 01:49:03,e440335a-f6d9-4356-9d0b-b6d8d01c1129,S
2019-08-03 01:59:35,e440335a-f6d9-4356-9d0b-b6d8d01c1129,A
2019-08-03 01:59:54,e440335a-f6d9-4356-9d0b-b6d8d01c1129,S
2019-08-03 02:05:23,e440335a-f6d9-4356-9d0b-b6d8d01c1129,A
2019-08-03 02:05:58,e440335a-f6d9-4356-9d0b-b6d8d01c1129,S
2019-08-03 02:06:35,e440335a-f6d9-4356-9d0b-b6d8d01c1129,A
2019-08-03 02:09:07,e440335a-f6d9-4356-9d0b-b6d8d01c1129,S
2019-08-03 02:09:26,e440335a-f6d9-4356-9d0b-b6d8d01c1129,A
2019-08-03 02:10:18,e440335a-f6d9-4356-9d0b-b6d8d01c1129,S
2019-08-03 02:25:51,e440335a-f6d9-4356-9d0b-b6d8d01c1129,A
2019-08-03 02:27:10,e440335a-f6d9-4356-9d0b-b6d8d01c1129,S
2019-08-03 02:30:18,e440335a-f6d9-4356-9d0b-b6d8d01c1129,A
2019-08-03 02:42:12,e440335a-f6d9-4356-9d0b-b6d8d01c1129,S
2019-08-03 02:43:39,e440335a-f6d9-4356-9d0b-b6d8d01c1129,A
2019-08-03 02:44:48,e440335a-f6d9-4356-9d0b-b6d8d01c1129,S
2019-08-03 02:45:39,e440335a-f6d9-4356-9d0b-b6d8d01c1129,A
2019-08-03 02:46:02,e440335a-f6d9-4356-9d0b-b6d8d01c1129,S
2019-08-03 02:52:32,e440335a-f6d9-4356-9d0b-b6d8d01c1129,A
2019-08-03 03:23:11,e440335a-f6d9-4356-9d0b-b6d8d01c1129,S
2019-08-03 03:26:57,e440335a-f6d9-4356-9d0b-b6d8d01c1129,A
2019-08-03 01:30:26,8cde7dc2-5e22-46cc-8f13-9863f251755b,S
2019-08-03 01:31:59,8cde7dc2-5e22-46cc-8f13-9863f251755b,A
2019-08-03 01:32:47,8cde7dc2-5e22-46cc-8f13-9863f251755b,S
2019-08-03 01:32:53,8cde7dc2-5e22-46cc-8f13-9863f251755b,A
2019-08-03 01:32:59,8cde7dc2-5e22-46cc-8f13-9863f251755b,S
2019-08-03 01:33:24,8cde7dc2-5e22-46cc-8f13-9863f251755b,A
2019-08-03 01:38:09,8cde7dc2-5e22-46cc-8f13-9863f251755b,S
2019-08-03 01:42:17,8cde7dc2-5e22-46cc-8f13-9863f251755b,A
2019-08-03 01:44:05,8cde7dc2-5e22-46cc-8f13-9863f251755b,S
2019-08-03 01:46:18,8cde7dc2-5e22-46cc-8f13-9863f251755b,A
2019-08-03 01:56:56,8cde7dc2-5e22-46cc-8f13-9863f251755b,S
2019-08-03 01:58:59,8cde7dc2-5e22-46cc-8f13-9863f251755b,A
2019-08-03 02:08:08,8cde7dc2-5e22-46cc-8f13-9863f251755b,S
2019-08-03 02:10:44,8cde7dc2-5e22-46cc-8f13-9863f251755b,A
2019-08-03 02:19:19,8cde7dc2-5e22-46cc-8f13-9863f251755b,S
2019-08-03 02:21:21,8cde7dc2-5e22-46cc-8f13-9863f251755b,A
2019-08-03 02:23:09,8cde7dc2-5e22-46cc-8f13-9863f251755b,S
2019-08-03 02:26:13,8cde7dc2-5e22-46cc-8f13-9863f251755b,A
2019-08-03 02:26:20,8cde7dc2-5e22-46cc-8f13-9863f251755b,S
2019-08-03 02:38:24,8cde7dc2-5e22-46cc-8f13-9863f251755b,A
2019-08-03 02:42:03,8cde7dc2-5e22-46cc-8f13-9863f251755b,S
2019-08-03 02:53:46,8cde7dc2-5e22-46cc-8f13-9863f251755b,A
2019-08-03 02:54:31,8cde7dc2-5e22-46cc-8f13-9863f251755b,S
2019-08-03 03:01:24,8cde7dc2-5e22-46cc-8f13-9863f251755b,A
2019-08-03 03:02:44,8cde7dc2-5e22-46cc-8f13-9863f251755b,S
2019-08-03 03:05:12,8cde7dc2-5e22-46cc-8f13-9863f251755b,A
2019-08-03 03:13:37,8cde7dc2-5e22-46cc-8f13-9863f251755b,S
2019-08-03 03:21:46,8cde7dc2-5e22-46cc-8f13-9863f251755b,A
2019-08-03 02:11:38,18e243e7-347d-45df-aec1-c0241006a371,A
2019-08-03 02:16:45,18e243e7-347d-45df-aec1-c0241006a371,S
2019-08-03 02:17:48,18e243e7-347d-45df-aec1-c0241006a371,A
2019-08-03 02:19:44,18e243e7-347d-45df-aec1-c0241006a371,S
2019-08-03 02:27:18,18e243e7-347d-45df-aec1-c0241006a371,A
2019-08-03 02:28:43,18e243e7-347d-45df-aec1-c0241006a371,S
2019-08-03 02:38:36,18e243e7-347d-45df-aec1-c0241006a371,A
2019-08-03 02:40:25,18e243e7-347d-45df-aec1-c0241006a371,S
2019-08-03 02:45:19,18e243e7-347d-45df-aec1-c0241006a371,A
2019-08-03 02:49:43,18e243e7-347d-45df-aec1-c0241006a371,S
2019-08-03 02:58:27,18e243e7-347d-45df-aec1-c0241006a371,A
2019-08-03 02:59:58,18e243e7-347d-45df-aec1-c0241006a371,S
2019-08-03 03:01:52,18e243e7-347d-45df-aec1-c0241006a371,A
2019-08-03 03:04:19,18e243e7-347d-45df-aec1-c0241006a371,S
2019-08-03 03:08:33,18e243e7-347d-45df-aec1-c0241006a371,A
2019-08-03 03:14:22,18e243e7-347d-45df-aec1-c0241006a371,S
2019-08-03 03:19:52,18e243e7-347d-45df-aec1-c0241006a371,A
2019-08-03 03:29:05,18e243e7-347d-45df-aec1-c0241006a371,S
2019-08-03 01:24:06,0b7707be-e19c-4ff7-b5f2-0aac8f78a4dd,A
2019-08-03 01:28:23,0b7707be-e19c-4ff7-b5f2-0aac8f78a4dd,S
2019-08-03 01:30:40,0b7707be-e19c-4ff7-b5f2-0aac8f78a4dd,A
2019-08-03 01:38:23,0b7707be-e19c-4ff7-b5f2-0aac8f78a4dd,S
2019-08-03 01:47:41,0b7707be-e19c-4ff7-b5f2-0aac8f78a4dd,A
2019-08-03 01:52:02,0b7707be-e19c-4ff7-b5f2-0aac8f78a4dd,S
2019-08-03 01:56:36,0b7707be-e19c-4ff7-b5f2-0aac8f78a4dd,A
2019-08-03 02:11:52,0b7707be-e19c-4ff7-b5f2-0aac8f78a4dd,S
2019-08-03 02:16:45,0b7707be-e19c-4ff7-b5f2-0aac8f78a4dd,A
2019-08-03 02:29:34,0b7707be-e19c-4ff7-b5f2-0aac8f78a4dd,S
2019-08-03 02:30:03,0b7707be-e19c-4ff7-b5f2-0aac8f78a4dd,A
2019-08-03 02:37:16,0b7707be-e19c-4ff7-b5f2-0aac8f78a4dd,S
2019-08-03 02:45:11,0b7707be-e19c-4ff7-b5f2-0aac8f78a4dd,A
2019-08-03 02:46:20,0b7707be-e19c-4ff7-b5f2-0aac8f78a4dd,S
2019-08-03 02:47:53,0b7707be-e19c-4ff7-b5f2-0aac8f78a4dd,A
2019-08-03 02:48:30,0b7707be-e19c-4ff7-b5f2-0aac8f78a4dd,S
2019-08-03 02:50:03,0b7707be-e19c-4ff7-b5f2-0aac8f78a4dd,A
2019-08-03 02:50:38,0b7707be-e19c-4ff7-b5f2-0aac8f78a4dd,S
2019-08-03 02:50:45,0b7707be-e19c-4ff7-b5f2-0aac8f78a4dd,A
2019-08-03 02:51:06,0b7707be-e19c-4ff7-b5f2-0aac8f78a4dd,S
2019-08-03 02:52:03,0b7707be-e19c-4ff7-b5f2-0aac8f78a4dd,A
2019-08-03 02:59:28,0b7707be-e19c-4ff7-b5f2-0aac8f78a4dd,S
2019-08-03 03:11:46,0b7707be-e19c-4ff7-b5f2-0aac8f78a4dd,A
2019-08-03 03:12:25,0b7707be-e19c-4ff7-b5f2-0aac8f78a4dd,S
2019-08-03 03:30:54,0b7707be-e19c-4ff7-b5f2-0aac8f78a4dd,A
2019-08-03 02:07:43,ce709075-45a1-48b8-98be-b8a2373dbcb4,A
2019-08-03 02:16:39,ce709075-45a1-48b8-98be-b8a2373dbcb4,S
2019-08-03 02:27:22,ce709075-45a1-48b8-98be-b8a2373dbcb4,A
2019-08-03 02:32:54,ce709075-45a1-48b8-98be-b8a2373dbcb4,S
2019-08-03 02:35:32,ce709075-45a1-48b8-98be-b8a2373dbcb4,A
2019-08-03 02:36:16,ce709075-45a1-48b8-98be-b8a2373dbcb4,S
2019-08-03 02:06:44,33d83d41-27dc-4420-b32b-7c91431e2a11,A
2019-08-03 02:08:35,33d83d41-27dc-4420-b32b-7c91431e2a11,S
2019-08-03 02:18:04,33d83d41-27dc-4420-b32b-7c91431e2a11,A
2019-08-03 02:32:11,33d83d41-27dc-4420-b32b-7c91431e2a11,S
2019-08-03 02:33:47,33d83d41-27dc-4420-b32b-7c91431e2a11,A
2019-08-03 02:35:21,33d83d41-27dc-4420-b32b-7c91431e2a11,S
2019-08-03 02:37:14,33d83d41-27dc-4420-b32b-7c91431e2a11,A
2019-08-03 02:43:42,33d83d41-27dc-4420-b32b-7c91431e2a11,S
2019-08-03 02:48:36,33d83d41-27dc-4420-b32b-7c91431e2a11,A
2019-08-03 02:56:07,33d83d41-27dc-4420-b32b-7c91431e2a11,S
2019-08-03 02:56:10,33d83d41-27dc-4420-b32b-7c91431e2a11,A
2019-08-03 02:56:29,33d83d41-27dc-4420-b32b-7c91431e2a11,S
2019-08-03 02:58:49,33d83d41-27dc-4420-b32b-7c91431e2a11,A
2019-08-03 03:02:01,33d83d41-27dc-4420-b32b-7c91431e2a11,S
2019-08-03 03:02:47,33d83d41-27dc-4420-b32b-7c91431e2a11,A
2019-08-03 03:13:47,33d83d41-27dc-4420-b32b-7c91431e2a11,S
2019-08-03 03:14:35,33d83d41-27dc-4420-b32b-7c91431e2a11,A
2019-08-03 03:15:01,33d83d41-27dc-4420-b32b-7c91431e2a11,S
2019-08-03 03:17:14,33d83d41-27dc-4420-b32b-7c91431e2a11,A
2019-08-03 03:19:28,33d83d41-27dc-4420-b32b-7c91431e2a11,S
2019-08-03 03:19:47,33d83d41-27dc-4420-b32b-7c91431e2a11,A
2019-08-03 03:29:12,33d83d41-27dc-4420-b32b-7c91431e2a11,S
2019-08-03 02:05:48,bc729b88-fea0-436f-8424-c0b85241459f,A
2019-08-03 02:13:02,bc729b88-fea0-436f-8424-c0b85241459f,S
2019-08-03 02:14:57,bc729b88-fea0-436f-8424-c0b85241459f,A
2019-08-03 02:19:47,bc729b88-fea0-436f-8424-c0b85241459f,S
2019-08-03 02:27:02,bc729b88-fea0-436f-8424-c0b85241459f,A
2019-08-03 02:33:58,bc729b88-fea0-436f-8424-c0b85241459f,S
2019-08-03 02:34:32,bc729b88-fea0-436f-8424-c0b85241459f,A
2019-08-03 02:34:57,bc729b88-fea0-436f-8424-c0b85241459f,S
2019-08-03 02:36:20,bc729b88-fea0-436f-8424-c0b85241459f,A
2019-08-03 02:36:59,bc729b88-fea0-436f-8424-c0b85241459f,S
2019-08-03 02:39:15,bc729b88-fea0-436f-8424-c0b85241459f,A
2019-08-03 02:45:37,bc729b88-fea0-436f-8424-c0b85241459f,S
2019-08-03 02:47:00,bc729b88-fea0-436f-8424-c0b85241459f,A
2019-08-03 02:49:42,bc729b88-fea0-436f-8424-c0b85241459f,S
2019-08-03 02:50:17,bc729b88-fea0-436f-8424-c0b85241459f,A
2019-08-03 02:51:36,bc729b88-fea0-436f-8424-c0b85241459f,S
2019-08-03 03:10:58,bc729b88-fea0-436f-8424-c0b85241459f,A
2019-08-03 03:28:58,bc729b88-fea0-436f-8424-c0b85241459f,S
2019-08-03 03:30:01,bc729b88-fea0-436f-8424-c0b85241459f,A
2019-08-03 02:13:13,54b8eeb1-e1a1-429c-91f0-af89d02db4ba,A
2019-08-03 02:46:59,54b8eeb1-e1a1-429c-91f0-af89d02db4ba,S
2019-08-03 02:47:27,54b8eeb1-e1a1-429c-91f0-af89d02db4ba,A
2019-08-03 03:16:44,54b8eeb1-e1a1-429c-91f0-af89d02db4ba,S
2019-08-03 03:19:47,54b8eeb1-e1a1-429c-91f0-af89d02db4ba,A
2019-08-03 03:22:15,54b8eeb1-e1a1-429c-91f0-af89d02db4ba,S
2019-08-03 03:23:47,54b8eeb1-e1a1-429c-91f0-af89d02db4ba,A
2019-08-03 03:24:33,54b8eeb1-e1a1-429c-91f0-af89d02db4ba,S
2019-08-03 03:27:48,54b8eeb1-e1a1-429c-91f0-af89d02db4ba,A
2019-08-03 01:25:18,030af382-32bc-4671-a8f8-5e95afe351bc,S
2019-08-03 01:26:24,030af382-32bc-4671-a8f8-5e95afe351bc,A
2019-08-03 01:27:38,030af382-32bc-4671-a8f8-5e95afe351bc,S
2019-08-03 01:31:16,030af382-32bc-4671-a8f8-5e95afe351bc,A
2019-08-03 01:34:00,030af382-32bc-4671-a8f8-5e95afe351bc,S
2019-08-03 01:39:10,030af382-32bc-4671-a8f8-5e95afe351bc,A
2019-08-03 01:40:28,030af382-32bc-4671-a8f8-5e95afe351bc,S
2019-08-03 01:46:27,030af382-32bc-4671-a8f8-5e95afe351bc,A
2019-08-03 01:57:44,030af382-32bc-4671-a8f8-5e95afe351bc,S
2019-08-03 02:01:25,030af382-32bc-4671-a8f8-5e95afe351bc,A
2019-08-03 02:05:57,030af382-32bc-4671-a8f8-5e95afe351bc,S
2019-08-03 02:17:24,030af382-32bc-4671-a8f8-5e95afe351bc,A
2019-08-03 02:30:51,030af382-32bc-4671-a8f8-5e95afe351bc,S
2019-08-03 02:31:49,030af382-32bc-4671-a8f8-5e95afe351bc,A
2019-08-03 02:33:22,030af382-32bc-4671-a8f8-5e95afe351bc,S
2019-08-03 02:34:08,030af382-32bc-4671-a8f8-5e95afe351bc,A
2019-08-03 02:35:17,030af382-32bc-4671-a8f8-5e95afe351bc,S
2019-08-03 02:43:53,030af382-32bc-4671-a8f8-5e95afe351bc,A
2019-08-03 02:45:51,030af382-32bc-4671-a8f8-5e95afe351bc,S
2019-08-03 02:47:39,030af382-32bc-4671-a8f8-5e95afe351bc,A
2019-08-03 02:52:27,030af382-32bc-4671-a8f8-5e95afe351bc,S
2019-08-03 03:01:20,030af382-32bc-4671-a8f8-5e95afe351bc,A
2019-08-03 03:12:12,030af382-32bc-4671-a8f8-5e95afe351bc,S
2019-08-03 03:16:08,030af382-32bc-4671-a8f8-5e95afe351bc,A
2019-08-03 03:16:26,030af382-32bc-4671-a8f8-5e95afe351bc,S
2019-08-03 03:22:05,030af382-32bc-4671-a8f8-5e95afe351bc,A
2019-08-03 03:28:30,030af382-32bc-4671-a8f8-5e95afe351bc,S
2019-08-03 03:28:31,030af382-32bc-4671-a8f8-5e95afe351bc,A
2019-08-03 03:30:30,030af382-32bc-4671-a8f8-5e95afe351bc,S
2019-08-03 01:45:38,a985f413-3035-4621-bb1c-0251240eb207,A
2019-08-03 01:49:19,a985f413-3035-4621-bb1c-0251240eb207,S
2019-08-03 01:52:39,a985f413-3035-4621-bb1c-0251240eb207,A
2019-08-03 01:54:18,a985f413-3035-4621-bb1c-0251240eb207,S
2019-08-03 02:09:49,a985f413-3035-4621-bb1c-0251240eb207,A
2019-08-03 02:11:33,a985f413-3035-4621-bb1c-0251240eb207,S
2019-08-03 02:11:56,a985f413-3035-4621-bb1c-0251240eb207,A
2019-08-03 02:33:44,a985f413-3035-4621-bb1c-0251240eb207,S
2019-08-03 02:40:55,a985f413-3035-4621-bb1c-0251240eb207,A
2019-08-03 02:45:15,a985f413-3035-4621-bb1c-0251240eb207,S
2019-08-03 02:45:55,a985f413-3035-4621-bb1c-0251240eb207,A
2019-08-03 02:50:10,a985f413-3035-4621-bb1c-0251240eb207,S
2019-08-03 02:52:00,a985f413-3035-4621-bb1c-0251240eb207,A
2019-08-03 02:54:43,a985f413-3035-4621-bb1c-0251240eb207,S
2019-08-03 03:03:57,a985f413-3035-4621-bb1c-0251240eb207,A
2019-08-03 03:11:33,a985f413-3035-4621-bb1c-0251240eb207,S
2019-08-03 03:16:30,a985f413-3035-4621-bb1c-0251240eb207,A
2019-08-03 03:23:07,a985f413-3035-4621-bb1c-0251240eb207,S
2019-08-03 02:15:47,ea477870-a6da-44da-bf0f-b556813f218d,S
2019-08-03 02:18:06,ea477870-a6da-44da-bf0f-b556813f218d,A
2019-08-03 02:24:37,ea477870-a6da-44da-bf0f-b556813f218d,S
2019-08-03 02:25:35,ea477870-a6da-44da-bf0f-b556813f218d,A
2019-08-03 02:25:56,ea477870-a6da-44da-bf0f-b556813f218d,S
2019-08-03 02:31:06,ea477870-a6da-44da-bf0f-b556813f218d,A
2019-08-03 02:35:59,ea477870-a6da-44da-bf0f-b556813f218d,S
2019-08-03 02:40:39,ea477870-a6da-44da-bf0f-b556813f218d,A
2019-08-03 02:53:39,ea477870-a6da-44da-bf0f-b556813f218d,S
2019-08-03 03:11:08,ea477870-a6da-44da-bf0f-b556813f218d,A
2019-08-03 03:15:51,ea477870-a6da-44da-bf0f-b556813f218d,S
2019-08-03 03:18:00,ea477870-a6da-44da-bf0f-b556813f218d,A
2019-08-03 03:19:13,ea477870-a6da-44da-bf0f-b556813f218d,S
2019-08-03 03:20:36,ea477870-a6da-44da-bf0f-b556813f218d,A
2019-08-03 03:21:19,ea477870-a6da-44da-bf0f-b556813f218d,S
2019-08-03 03:21:52,ea477870-a6da-44da-bf0f-b556813f218d,A
2019-08-03 03:22:57,ea477870-a6da-44da-bf0f-b556813f218d,S
2019-08-03 03:29:38,ea477870-a6da-44da-bf0f-b556813f218d,A
2019-08-03 03:29:57,ea477870-a6da-44da-bf0f-b556813f218d,S
2019-08-03 03:30:45,ea477870-a6da-44da-bf0f-b556813f218d,A
2019-08-03 03:30:46,ea477870-a6da-44da-bf0f-b556813f218d,S
2019-08-03 01:27:38,a061b8af-9c2f-423a-9f33-f01927165cce,A
2019-08-03 01:43:41,a061b8af-9c2f-423a-9f33-f01927165cce,S
2019-08-03 01:46:55,a061b8af-9c2f-423a-9f33-f01927165cce,A
2019-08-03 01:49:41,a061b8af-9c2f-423a-9f33-f01927165cce,S
2019-08-03 01:50:11,a061b8af-9c2f-423a-9f33-f01927165cce,A
2019-08-03 02:04:09,a061b8af-9c2f-423a-9f33-f01927165cce,S
2019-08-03 02:07:39,a061b8af-9c2f-423a-9f33-f01927165cce,A
2019-08-03 02:10:30,a061b8af-9c2f-423a-9f33-f01927165cce,S
2019-08-03 02:14:30,a061b8af-9c2f-423a-9f33-f01927165cce,A
2019-08-03 02:27:54,a061b8af-9c2f-423a-9f33-f01927165cce,S
2019-08-03 02:28:05,a061b8af-9c2f-423a-9f33-f01927165cce,A
2019-08-03 02:36:47,a061b8af-9c2f-423a-9f33-f01927165cce,S
2019-08-03 02:41:03,a061b8af-9c2f-423a-9f33-f01927165cce,A
2019-08-03 02:47:40,a061b8af-9c2f-423a-9f33-f01927165cce,S
2019-08-03 02:50:11,a061b8af-9c2f-423a-9f33-f01927165cce,A
2019-08-03 03:01:23,a061b8af-9c2f-423a-9f33-f01927165cce,S
2019-08-03 03:03:17,a061b8af-9c2f-423a-9f33-f01927165cce,A
2019-08-03 03:04:15,a061b8af-9c2f-423a-9f33-f01927165cce,S
2019-08-03 03:07:07,a061b8af-9c2f-423a-9f33-f01927165cce,A
2019-08-03 03:13:06,a061b8af-9c2f-423a-9f33-f01927165cce,S
2019-08-03 03:21:54,a061b8af-9c2f-423a-9f33-f01927165cce,A
2019-08-03 03:24:57,a061b8af-9c2f-423a-9f33-f01927165cce,S
2019-08-03 03:26:48,a061b8af-9c2f-423a-9f33-f01927165cce,A
2019-08-03 03:28:58,a061b8af-9c2f-423a-9f33-f01927165cce,S
2019-08-03 02:01:04,9e1882ef-3425-49c3-9a07-22f8df27bcdf,A
2019-08-03 02:04:33,9e1882ef-3425-49c3-9a07-22f8df27bcdf,S
2019-08-03 02:06:49,9e1882ef-3425-49c3-9a07-22f8df27bcdf,A
2019-08-03 02:08:50,9e1882ef-3425-49c3-9a07-22f8df27bcdf,S
2019-08-03 02:09:25,9e1882ef-3425-49c3-9a07-22f8df27bcdf,A
2019-08-03 02:12:00,9e1882ef-3425-49c3-9a07-22f8df27bcdf,S
2019-08-03 02:18:51,9e1882ef-3425-49c3-9a07-22f8df27bcdf,A
2019-08-03 02:20:19,9e1882ef-3425-49c3-9a07-22f8df27bcdf,S
2019-08-03 02:30:35,9e1882ef-3425-49c3-9a07-22f8df27bcdf,A
2019-08-03 03:09:40,9e1882ef-3425-49c3-9a07-22f8df27bcdf,S
2019-08-03 03:19:34,9e1882ef-3425-49c3-9a07-22f8df27bcdf,A
2019-08-03 03:19:38,9e1882ef-3425-49c3-9a07-22f8df27bcdf,S
2019-08-03 03:20:20,9e1882ef-3425-49c3-9a07-22f8df27bcdf,A
2019-08-03 03:23:24,9e1882ef-3425-49c3-9a07-22f8df27bcdf,S
2019-08-03 03:24:45,9e1882ef-3425-49c3-9a07-22f8df27bcdf,A
2019-08-03 03:26:07,9e1882ef-3425-49c3-9a07-22f8df27bcdf,S
2019-08-03 03:30:16,9e1882ef-3425-49c3-9a07-22f8df27bcdf,A
2019-08-03 03:31:50,9e1882ef-3425-49c3-9a07-22f8df27bcdf,S
2019-08-03 03:31:56,9e1882ef-3425-49c3-9a07-22f8df27bcdf,A
2019-08-03 01:58:22,b2d444c8-27e9-4190-bed5-81092be39cf6,A
2019-08-03 02:09:53,b2d444c8-27e9-4190-bed5-81092be39cf6,S
2019-08-03 02:19:49,b2d444c8-27e9-4190-bed5-81092be39cf6,A
2019-08-03 02:25:17,b2d444c8-27e9-4190-bed5-81092be39cf6,S
2019-08-03 02:25:59,b2d444c8-27e9-4190-bed5-81092be39cf6,A
2019-08-03 02:26:56,b2d444c8-27e9-4190-bed5-81092be39cf6,S
2019-08-03 02:28:54,b2d444c8-27e9-4190-bed5-81092be39cf6,A
2019-08-03 02:30:14,b2d444c8-27e9-4190-bed5-81092be39cf6,S
2019-08-03 02:37:34,b2d444c8-27e9-4190-bed5-81092be39cf6,A
2019-08-03 02:39:27,b2d444c8-27e9-4190-bed5-81092be39cf6,S
2019-08-03 02:41:10,b2d444c8-27e9-4190-bed5-81092be39cf6,A
2019-08-03 02:56:35,b2d444c8-27e9-4190-bed5-81092be39cf6,S
2019-08-03 03:02:28,b2d444c8-27e9-4190-bed5-81092be39cf6,A
2019-08-03 03:07:01,b2d444c8-27e9-4190-bed5-81092be39cf6,S
2019-08-03 03:08:05,b2d444c8-27e9-4190-bed5-81092be39cf6,A
2019-08-03 03:10:25,b2d444c8-27e9-4190-bed5-81092be39cf6,S
2019-08-03 03:14:04,b2d444c8-27e9-4190-bed5-81092be39cf6,A
2019-08-03 03:16:05,b2d444c8-27e9-4190-bed5-81092be39cf6,S
2019-08-03 03:16:13,b2d444c8-27e9-4190-bed5-81092be39cf6,A
2019-08-03 03:25:19,b2d444c8-27e9-4190-bed5-81092be39cf6,S
2019-08-03 03:31:38,b2d444c8-27e9-4190-bed5-81092be39cf6,A
2019-08-03 01:58:13,f34ee7ed-5424-4d26-beec-3da2cc8c92bd,S
2019-08-03 01:58:55,f34ee7ed-5424-4d26-beec-3da2cc8c92bd,A
2019-08-03 02:14:35,f34ee7ed-5424-4d26-beec-3da2cc8c92bd,S
2019-08-03 02:21:50,f34ee7ed-5424-4d26-beec-3da2cc8c92bd,A
2019-08-03 02:22:12,f34ee7ed-5424-4d26-beec-3da2cc8c92bd,S
2019-08-03 02:22:41,f34ee7ed-5424-4d26-beec-3da2cc8c92bd,A
2019-08-03 02:23:48,f34ee7ed-5424-4d26-beec-3da2cc8c92bd,S
2019-08-03 02:31:36,f34ee7ed-5424-4d26-beec-3da2cc8c92bd,A
2019-08-03 02:34:05,f34ee7ed-5424-4d26-beec-3da2cc8c92bd,S
2019-08-03 02:35:04,f34ee7ed-5424-4d26-beec-3da2cc8c92bd,A
2019-08-03 02:40:02,f34ee7ed-5424-4d26-beec-3da2cc8c92bd,S
2019-08-03 02:43:28,f34ee7ed-5424-4d26-beec-3da2cc8c92bd,A
2019-08-03 02:51:11,f34ee7ed-5424-4d26-beec-3da2cc8c92bd,S
2019-08-03 02:54:43,f34ee7ed-5424-4d26-beec-3da2cc8c92bd,A
2019-08-03 02:55:47,f34ee7ed-5424-4d26-beec-3da2cc8c92bd,S
2019-08-03 02:57:05,f34ee7ed-5424-4d26-beec-3da2cc8c92bd,A
2019-08-03 03:06:14,f34ee7ed-5424-4d26-beec-3da2cc8c92bd,S
2019-08-03 03:07:21,f34ee7ed-5424-4d26-beec-3da2cc8c92bd,A
2019-08-03 03:09:58,f34ee7ed-5424-4d26-beec-3da2cc8c92bd,S
2019-08-03 03:12:05,f34ee7ed-5424-4d26-beec-3da2cc8c92bd,A
2019-08-03 03:20:38,f34ee7ed-5424-4d26-beec-3da2cc8c92bd,S
2019-08-03 03:22:51,f34ee7ed-5424-4d26-beec-3da2cc8c92bd,A
2019-08-03 03:27:49,f34ee7ed-5424-4d26-beec-3da2cc8c92bd,S
2019-08-03 03:31:16,f34ee7ed-5424-4d26-beec-3da2cc8c92bd,A
2019-08-03 03:31:51,f34ee7ed-5424-4d26-beec-3da2cc8c92bd,S
2019-08-03 01:41:01,0daaab8b-4e91-4304-919e-340cdd38004f,A
2019-08-03 01:47:04,0daaab8b-4e91-4304-919e-340cdd38004f,S
2019-08-03 01:49:52,0daaab8b-4e91-4304-919e-340cdd38004f,A
2019-08-03 01:50:31,0daaab8b-4e91-4304-919e-340cdd38004f,S
2019-08-03 01:51:16,0daaab8b-4e91-4304-919e-340cdd38004f,A
2019-08-03 02:00:31,0daaab8b-4e91-4304-919e-340cdd38004f,S
2019-08-03 02:00:57,0daaab8b-4e91-4304-919e-340cdd38004f,A
2019-08-03 02:01:47,0daaab8b-4e91-4304-919e-340cdd38004f,S
2019-08-03 02:06:41,0daaab8b-4e91-4304-919e-340cdd38004f,A
2019-08-03 02:11:40,0daaab8b-4e91-4304-919e-340cdd38004f,S
2019-08-03 02:11:52,0daaab8b-4e91-4304-919e-340cdd38004f,A
2019-08-03 02:12:37,0daaab8b-4e91-4304-919e-340cdd38004f,S
2019-08-03 02:14:57,0daaab8b-4e91-4304-919e-340cdd38004f,A
2019-08-03 02:17:57,0daaab8b-4e91-4304-919e-340cdd38004f,S
2019-08-03 02:19:13,0daaab8b-4e91-4304-919e-340cdd38004f,A
2019-08-03 02:19:17,0daaab8b-4e91-4304-919e-340cdd38004f,S
2019-08-03 02:27:23,0daaab8b-4e91-4304-919e-340cdd38004f,A
2019-08-03 02:30:40,0daaab8b-4e91-4304-919e-340cdd38004f,S
2019-08-03 02:32:33,0daaab8b-4e91-4304-919e-340cdd38004f,A
2019-08-03 02:39:55,0daaab8b-4e91-4304-919e-340cdd38004f,S
2019-08-03 02:50:09,0daaab8b-4e91-4304-919e-340cdd38004f,A
2019-08-03 03:05:36,0daaab8b-4e91-4304-919e-340cdd38004f,S
2019-08-03 03:07:59,0daaab8b-4e91-4304-919e-340cdd38004f,A
2019-08-03 03:08:11,0daaab8b-4e91-4304-919e-340cdd38004f,S
2019-08-03 03:16:16,0daaab8b-4e91-4304-919e-340cdd38004f,A
2019-08-03 03:16:39,0daaab8b-4e91-4304-919e-340cdd38004f,S
2019-08-03 03:25:14,0daaab8b-4e91-4304-919e-340cdd38004f,A
2019-08-03 02:06:50,cb7df7af-4348-44b4-b4dd-def86c02ca9c,S
2019-08-03 02:07:33,cb7df7af-4348-44b4-b4dd-def86c02ca9c,A
2019-08-03 02:11:04,cb7df7af-4348-44b4-b4dd-def86c02ca9c,S
2019-08-03 02:15:06,cb7df7af-4348-44b4-b4dd-def86c02ca9c,A
2019-08-03 02:22:55,cb7df7af-4348-44b4-b4dd-def86c02ca9c,S
2019-08-03 02:29:25,cb7df7af-4348-44b4-b4dd-def86c02ca9c,A
2019-08-03 02:33:35,cb7df7af-4348-44b4-b4dd-def86c02ca9c,S
2019-08-03 02:35:01,cb7df7af-4348-44b4-b4dd-def86c02ca9c,A
2019-08-03 02:45:25,cb7df7af-4348-44b4-b4dd-def86c02ca9c,S
2019-08-03 02:45:40,cb7df7af-4348-44b4-b4dd-def86c02ca9c,A
2019-08-03 02:45:57,cb7df7af-4348-44b4-b4dd-def86c02ca9c,S
2019-08-03 02:47:26,cb7df7af-4348-44b4-b4dd-def86c02ca9c,A
2019-08-03 02:55:16,cb7df7af-4348-44b4-b4dd-def86c02ca9c,S
2019-08-03 02:59:13,cb7df7af-4348-44b4-b4dd-def86c02ca9c,A
2019-08-03 03:01:51,cb7df7af-4348-44b4-b4dd-def86c02ca9c,S
2019-08-03 03:04:19,cb7df7af-4348-44b4-b4dd-def86c02ca9c,A
2019-08-03 03:06:26,cb7df7af-4348-44b4-b4dd-def86c02ca9c,S
2019-08-03 03:11:06,cb7df7af-4348-44b4-b4dd-def86c02ca9c,A
2019-08-03 03:17:28,cb7df7af-4348-44b4-b4dd-def86c02ca9c,S
2019-08-03 03:17:38,cb7df7af-4348-44b4-b4dd-def86c02ca9c,A
2019-08-03 03:18:17,cb7df7af-4348-44b4-b4dd-def86c02ca9c,S
2019-08-03 03:20:35,cb7df7af-4348-44b4-b4dd-def86c02ca9c,A
2019-08-03 01:54:33,0b0aa8d1-8464-4f86-9a52-17e4dc3e8184,A
2019-08-03 02:13:25,0b0aa8d1-8464-4f86-9a52-17e4dc3e8184,S
2019-08-03 02:13:47,0b0aa8d1-8464-4f86-9a52-17e4dc3e8184,A
2019-08-03 02:16:31,0b0aa8d1-8464-4f86-9a52-17e4dc3e8184,S
2019-08-03 02:20:31,0b0aa8d1-8464-4f86-9a52-17e4dc3e8184,A
2019-08-03 02:21:01,0b0aa8d1-8464-4f86-9a52-17e4dc3e8184,S
2019-08-03 02:24:02,0b0aa8d1-8464-4f86-9a52-17e4dc3e8184,A
2019-08-03 02:25:41,0b0aa8d1-8464-4f86-9a52-17e4dc3e8184,S
2019-08-03 02:40:10,0b0aa8d1-8464-4f86-9a52-17e4dc3e8184,A
2019-08-03 02:41:46,0b0aa8d1-8464-4f86-9a52-17e4dc3e8184,S
2019-08-03 02:41:52,0b0aa8d1-8464-4f86-9a52-17e4dc3e8184,A
2019-08-03 02:44:12,0b0aa8d1-8464-4f86-9a52-17e4dc3e8184,S
2019-08-03 02:44:20,0b0aa8d1-8464-4f86-9a52-17e4dc3e8184,A
2019-08-03 02:46:22,0b0aa8d1-8464-4f86-9a52-17e4dc3e8184,S
2019-08-03 02:50:23,0b0aa8d1-8464-4f86-9a52-17e4dc3e8184,A
2019-08-03 03:01:06,0b0aa8d1-8464-4f86-9a52-17e4dc3e8184,S
2019-08-03 03:06:50,0b0aa8d1-8464-4f86-9a52-17e4dc3e8184,A
2019-08-03 03:09:04,0b0aa8d1-8464-4f86-9a52-17e4dc3e8184,S
2019-08-03 03:12:30,0b0aa8d1-8464-4f86-9a52-17e4dc3e8184,A
2019-08-03 03:16:03,0b0aa8d1-8464-4f86-9a52-17e4dc3e8184,S
2019-08-03 01:40:43,4f2ecd85-8e7f-4f6f-86ce-4bedfab34c31,A
2019-08-03 01:44:09,4f2ecd85-8e7f-4f6f-86ce-4bedfab34c31,S
2019-08-03 01:49:14,4f2ecd85-8e7f-4f6f-86ce-4bedfab34c31,A
2019-08-03 01:51:05,4f2ecd85-8e7f-4f6f-86ce-4bedfab34c31,S
2019-08-03 02:01:36,4f2ecd85-8e7f-4f6f-86ce-4bedfab34c31,A
2019-08-03 02:02:10,4f2ecd85-8e7f-4f6f-86ce-4bedfab34c31,S
2019-08-03 02:10:35,4f2ecd85-8e7f-4f6f-86ce-4bedfab34c31,A
2019-08-03 02:12:55,4f2ecd85-8e7f-4f6f-86ce-4bedfab34c31,S
2019-08-03 02:21:19,4f2ecd85-8e7f-4f6f-86ce-4bedfab34c31,A
2019-08-03 02:39:45,4f2ecd85-8e7f-4f6f-86ce-4bedfab34c31,S
2019-08-03 02:41:01,4f2ecd85-8e7f-4f6f-86ce-4bedfab34c31,A
2019-08-03 02:41:12,4f2ecd85-8e7f-4f6f-86ce-4bedfab34c31,S
2019-08-03 02:44:24,4f2ecd85-8e7f-4f6f-86ce-4bedfab34c31,A
2019-08-03 02:53:15,4f2ecd85-8e7f-4f6f-86ce-4bedfab34c31,S
2019-08-03 03:08:20,4f2ecd85-8e7f-4f6f-86ce-4bedfab34c31,A
2019-08-03 03:08:38,4f2ecd85-8e7f-4f6f-86ce-4bedfab34c31,S
2019-08-03 03:19:09,4f2ecd85-8e7f-4f6f-86ce-4bedfab34c31,A
2019-08-03 03:32:08,4f2ecd85-8e7f-4f6f-86ce-4bedfab34c31,S
2019-08-03 01:35:54,77b0a4f1-7e3d-4da6-af27-ecf5790b70c5,S
2019-08-03 01:39:22,77b0a4f1-7e3d-4da6-af27-ecf5790b70c5,A
2019-08-03 01:45:24,77b0a4f1-7e3d-4da6-af27-ecf5790b70c5,S
2019-08-03 01:55:21,77b0a4f1-7e3d-4da6-af27-ecf5790b70c5,A
2019-08-03 02:15:29,77b0a4f1-7e3d-4da6-af27-ecf5790b70c5,S
2019-08-03 02:21:25,77b0a4f1-7e3d-4da6-af27-ecf5790b70c5,A
2019-08-03 02:32:14,77b0a4f1-7e3d-4da6-af27-ecf5790b70c5,S
2019-08-03 02:37:39,77b0a4f1-7e3d-4da6-af27-ecf5790b70c5,A
2019-08-03 02:41:56,77b0a4f1-7e3d-4da6-af27-ecf5790b70c5,S
2019-08-03 02:47:30,77b0a4f1-7e3d-4da6-af27-ecf5790b70c5,A
2019-08-03 02:47:41,77b0a4f1-7e3d-4da6-af27-ecf5790b70c5,S
2019-08-03 02:49:25,77b0a4f1-7e3d-4da6-af27-ecf5790b70c5,A
2019-08-03 02:55:20,77b0a4f1-7e3d-4da6-af27-ecf5790b70c5,S
2019-08-03 02:57:02,77b0a4f1-7e3d-4da6-af27-ecf5790b70c5,A
2019-08-03 03:01:34,77b0a4f1-7e3d-4da6-af27-ecf5790b70c5,S
2019-08-03 03:05:08,77b0a4f1-7e3d-4da6-af27-ecf5790b70c5,A
2019-08-03 03:10:26,77b0a4f1-7e3d-4da6-af27-ecf5790b70c5,S
2019-08-03 03:18:10,77b0a4f1-7e3d-4da6-af27-ecf5790b70c5,A
2019-08-03 01:55:35,2f7f4a27-f855-4bb8-aca2-c21ee07d1994,S
2019-08-03 01:55:39,2f7f4a27-f855-4bb8-aca2-c21ee07d1994,A
2019-08-03 02:02:50,2f7f4a27-f855-4bb8-aca2-c21ee07d1994,S
2019-08-03 02:14:20,2f7f4a27-f855-4bb8-aca2-c21ee07d1994,A
2019-08-03 02:15:56,2f7f4a27-f855-4bb8-aca2-c21ee07d1994,S
2019-08-03 02:19:03,2f7f4a27-f855-4bb8-aca2-c21ee07d1994,A
2019-08-03 02:19:20,2f7f4a27-f855-4bb8-aca2-c21ee07d1994,S
2019-08-03 02:37:18,2f7f4a27-f855-4bb8-aca2-c21ee07d1994,A
2019-08-03 02:39:42,2f7f4a27-f855-4bb8-aca2-c21ee07d1994,S
2019-08-03 02:52:04,2f7f4a27-f855-4bb8-aca2-c21ee07d1994,A
2019-08-03 03:04:12,2f7f4a27-f855-4bb8-aca2-c21ee07d1994,S
2019-08-03 03:09:44,2f7f4a27-f855-4bb8-aca2-c21ee07d1994,A
2019-08-03 03:10:10,2f7f4a27-f855-4bb8-aca2-c21ee07d1994,S
2019-08-03 03:12:25,2f7f4a27-f855-4bb8-aca2-c21ee07d1994,A
2019-08-03 03:16:04,2f7f4a27-f855-4bb8-aca2-c21ee07d1994,S
2019-08-03 03:19:24,2f7f4a27-f855-4bb8-aca2-c21ee07d1994,A
2019-08-03 03:23:54,2f7f4a27-f855-4bb8-aca2-c21ee07d1994,S
2019-08-03 03:24:51,2f7f4a27-f855-4bb8-aca2-c21ee07d1994,A
2019-08-03 03:25:13,2f7f4a27-f855-4bb8-aca2-c21ee07d1994,S
2019-08-03 03:26:11,2f7f4a27-f855-4bb8-aca2-c21ee07d1994,A
2019-08-03 02:12:23,fa9d7842-9cfd-41f0-a6e6-c42033f12cb4,S
2019-08-03 02:17:46,fa9d7842-9cfd-41f0-a6e6-c42033f12cb4,A
2019-08-03 02:19:11,fa9d7842-9cfd-41f0-a6e6-c42033f12cb4,S
2019-08-03 02:21:22,fa9d7842-9cfd-41f0-a6e6-c42033f12cb4,A
2019-08-03 02:28:24,fa9d7842-9cfd-41f0-a6e6-c42033f12cb4,S
2019-08-03 02:34:30,fa9d7842-9cfd-41f0-a6e6-c42033f12cb4,A
2019-08-03 02:38:25,fa9d7842-9cfd-41f0-a6e6-c42033f12cb4,S
2019-08-03 02:41:47,fa9d7842-9cfd-41f0-a6e6-c42033f12cb4,A
2019-08-03 02:43:21,fa9d7842-9cfd-41f0-a6e6-c42033f12cb4,S
2019-08-03 02:43:31,fa9d7842-9cfd-41f0-a6e6-c42033f12cb4,A
2019-08-03 02:45:52,fa9d7842-9cfd-41f0-a6e6-c42033f12cb4,S
2019-08-03 02:50:08,fa9d7842-9cfd-41f0-a6e6-c42033f12cb4,A
2019-08-03 02:53:02,fa9d7842-9cfd-41f0-a6e6-c42033f12cb4,S
2019-08-03 02:53:57,fa9d7842-9cfd-41f0-a6e6-c42033f12cb4,A
2019-08-03 03:04:21,fa9d7842-9cfd-41f0-a6e6-c42033f12cb4,S
2019-08-03 03:04:25,fa9d7842-9cfd-41f0-a6e6-c42033f12cb4,A
2019-08-03 03:04:57,fa9d7842-9cfd-41f0-a6e6-c42033f12cb4,S
2019-08-03 03:05:26,fa9d7842-9cfd-41f0-a6e6-c42033f12cb4,A
2019-08-03 03:05:39,fa9d7842-9cfd-41f0-a6e6-c42033f12cb4,S
2019-08-03 03:09:34,fa9d7842-9cfd-41f0-a6e6-c42033f12cb4,A
2019-08-03 03:17:23,fa9d7842-9cfd-41f0-a6e6-c42033f12cb4,S
2019-08-03 03:23:21,fa9d7842-9cfd-41f0-a6e6-c42033f12cb4,A
2019-08-03 03:26:14,fa9d7842-9cfd-41f0-a6e6-c42033f12cb4,S
2019-08-03 03:28:14,fa9d7842-9cfd-41f0-a6e6-c42033f12cb4,A
2019-08-03 01:36:34,d3b7be4e-a895-4cfd-8ae3-6ceaf76579a3,S
2019-08-03 01:52:41,d3b7be4e-a895-4cfd-8ae3-6ceaf76579a3,A
2019-08-03 01:53:54,d3b7be4e-a895-4cfd-8ae3-6ceaf76579a3,S
2019-08-03 01:58:43,d3b7be4e-a895-4cfd-8ae3-6ceaf76579a3,A
2019-08-03 01:59:48,d3b7be4e-a895-4cfd-8ae3-6ceaf76579a3,S
2019-08-03 02:02:36,d3b7be4e-a895-4cfd-8ae3-6ceaf76579a3,A
2019-08-03 02:07:47,d3b7be4e-a895-4cfd-8ae3-6ceaf76579a3,S
2019-08-03 02:09:58,d3b7be4e-a895-4cfd-8ae3-6ceaf76579a3,A
2019-08-03 02:13:27,d3b7be4e-a895-4cfd-8ae3-6ceaf76579a3,S
2019-08-03 02:19:02,d3b7be4e-a895-4cfd-8ae3-6ceaf76579a3,A
2019-08-03 02:29:33,d3b7be4e-a895-4cfd-8ae3-6ceaf76579a3,S
2019-08-03 02:35:13,d3b7be4e-a895-4cfd-8ae3-6ceaf76579a3,A
2019-08-03 02:37:11,d3b7be4e-a895-4cfd-8ae3-6ceaf76579a3,S
2019-08-03 02:39:13,d3b7be4e-a895-4cfd-8ae3-6ceaf76579a3,A
2019-08-03 02:47:30,d3b7be4e-a895-4cfd-8ae3-6ceaf76579a3,S
2019-08-03 02:49:39,d3b7be4e-a895-4cfd-8ae3-6ceaf76579a3,A
2019-08-03 02:54:34,d3b7be4e-a895-4cfd-8ae3-6ceaf76579a3,S
2019-08-03 02:57:33,d3b7be4e-a895-4cfd-8ae3-6ceaf76579a3,A
2019-08-03 02:58:40,d3b7be4e-a895-4cfd-8ae3-6ceaf76579a3,S
2019-08-03 03:03:35,d3b7be4e-a895-4cfd-8ae3-6ceaf76579a3,A
2019-08-03 03:06:28,d3b7be4e-a895-4cfd-8ae3-6ceaf76579a3,S
2019-08-03 03:10:17,d3b7be4e-a895-4cfd-8ae3-6ceaf76579a3,A
2019-08-03 03:12:37,d3b7be4e-a895-4cfd-8ae3-6ceaf76579a3,S
2019-08-03 03:16:23,d3b7be4e-a895-4cfd-8ae3-6ceaf76579a3,A
2019-08-03 03:21:49,d3b7be4e-a895-4cfd-8ae3-6ceaf76579a3,S
2019-08-03 03:22:56,d3b7be4e-a895-4cfd-8ae3-6ceaf76579a3,A
2019-08-03 03:28:40,d3b7be4e-a895-4cfd-8ae3-6ceaf76579a3,S
2019-08-03 03:29:37,d3b7be4e-a895-4cfd-8ae3-6ceaf76579a3,A
2019-08-03 03:31:08,d3b7be4e-a895-4cfd-8ae3-6ceaf76579a3,S
2019-08-03 03:31:39,d3b7be4e-a895-4cfd-8ae3-6ceaf76579a3,A
2019-08-03 02:13:37,507b0143-e567-4371-9626-383f075ba402,S
2019-08-03 02:14:27,507b0143-e567-4371-9626-383f075ba402,A
2019-08-03 02:27:02,507b0143-e567-4371-9626-383f075ba402,S
2019-08-03 02:28:09,507b0143-e567-4371-9626-383f075ba402,A
2019-08-03 02:30:14,507b0143-e567-4371-9626-383f075ba402,S
2019-08-03 02:55:06,507b0143-e567-4371-9626-383f075ba402,A
2019-08-03 03:06:57,507b0143-e567-4371-9626-383f075ba402,S
2019-08-03 03:11:17,507b0143-e567-4371-9626-383f075ba402,A
2019-08-03 03:11:19,507b0143-e567-4371-9626-383f075ba402,S
2019-08-03 03:15:28,507b0143-e567-4371-9626-383f075ba402,A
2019-08-03 03:19:39,507b0143-e567-4371-9626-383f075ba402,S
2019-08-03 03:29:02,507b0143-e567-4371-9626-383f075ba402,A
2019-08-03 01:28:06,da2bae67-4207-4d4d-8247-adabb6de5d83,S
2019-08-03 01:32:09,da2bae67-4207-4d4d-8247-adabb6de5d83,A
2019-08-03 01:32:59,da2bae67-4207-4d4d-8247-adabb6de5d83,S
2019-08-03 01:38:12,da2bae67-4207-4d4d-8247-adabb6de5d83,A
2019-08-03 01:43:05,da2bae67-4207-4d4d-8247-adabb6de5d83,S
2019-08-03 01:48:04,da2bae67-4207-4d4d-8247-adabb6de5d83,A
2019-08-03 01:50:39,da2bae67-4207-4d4d-8247-adabb6de5d83,S
2019-08-03 01:51:25,da2bae67-4207-4d4d-8247-adabb6de5d83,A
2019-08-03 02:02:01,da2bae67-4207-4d4d-8247-adabb6de5d83,S
2019-08-03 02:02:24,da2bae67-4207-4d4d-8247-adabb6de5d83,A
2019-08-03 02:10:02,da2bae67-4207-4d4d-8247-adabb6de5d83,S
2019-08-03 02:15:22,da2bae67-4207-4d4d-8247-adabb6de5d83,A
2019-08-03 02:15:48,da2bae67-4207-4d4d-8247-adabb6de5d83,S
2019-08-03 02:22:14,da2bae67-4207-4d4d-8247-adabb6de5d83,A
2019-08-03 02:24:18,da2bae67-4207-4d4d-8247-adabb6de5d83,S
2019-08-03 02:24:31,da2bae67-4207-4d4d-8247-adabb6de5d83,A
2019-08-03 02:29:34,da2bae67-4207-4d4d-8247-adabb6de5d83,S
2019-08-03 02:30:15,da2bae67-4207-4d4d-8247-adabb6de5d83,A
2019-08-03 02:47:22,da2bae67-4207-4d4d-8247-adabb6de5d83,S
2019-08-03 02:49:40,da2bae67-4207-4d4d-8247-adabb6de5d83,A
2019-08-03 02:49:58,da2bae67-4207-4d4d-8247-adabb6de5d83,S
2019-08-03 02:53:24,da2bae67-4207-4d4d-8247-adabb6de5d83,A
2019-08-03 02:53:35,da2bae67-4207-4d4d-8247-adabb6de5d83,S
2019-08-03 03:00:36,da2bae67-4207-4d4d-8247-adabb6de5d83,A
2019-08-03 03:06:24,da2bae67-4207-4d4d-8247-adabb6de5d83,S
2019-08-03 03:27:07,da2bae67-4207-4d4d-8247-adabb6de5d83,A
2019-08-03 03:28:23,da2bae67-4207-4d4d-8247-adabb6de5d83,S
2019-08-03 02:01:04,837943fa-7469-4ab4-a273-3da3d5a44f31,A
2019-08-03 02:01:44,837943fa-7469-4ab4-a273-3da3d5a44f31,S
2019-08-03 02:03:19,837943fa-7469-4ab4-a273-3da3d5a44f31,A
2019-08-03 02:17:32,837943fa-7469-4ab4-a273-3da3d5a44f31,S
2019-08-03 02:19:39,837943fa-7469-4ab4-a273-3da3d5a44f31,A
2019-08-03 02:22:06,837943fa-7469-4ab4-a273-3da3d5a44f31,S
2019-08-03 02:29:44,837943fa-7469-4ab4-a273-3da3d5a44f31,A
2019-08-03 02:33:24,837943fa-7469-4ab4-a273-3da3d5a44f31,S
2019-08-03 02:36:45,837943fa-7469-4ab4-a273-3da3d5a44f31,A
2019-08-03 02:47:36,837943fa-7469-4ab4-a273-3da3d5a44f31,S
2019-08-03 02:47:39,837943fa-7469-4ab4-a273-3da3d5a44f31,A
2019-08-03 02:57:10,837943fa-7469-4ab4-a273-3da3d5a44f31,S
2019-08-03 03:17:39,837943fa-7469-4ab4-a273-3da3d5a44f31,A
2019-08-03 03:24:54,837943fa-7469-4ab4-a273-3da3d5a44f31,S
2019-08-03 03:28:52,837943fa-7469-4ab4-a273-3da3d5a44f31,A
2019-08-03 02:15:53,d93b852c-d72a-448a-aeb1-d674fd46884b,S
2019-08-03 02:17:07,d93b852c-d72a-448a-aeb1-d674fd46884b,A
2019-08-03 02:22:52,d93b852c-d72a-448a-aeb1-d674fd46884b,S
2019-08-03 02:36:12,d93b852c-d72a-448a-aeb1-d674fd46884b,A
2019-08-03 02:43:57,d93b852c-d72a-448a-aeb1-d674fd46884b,S
2019-08-03 02:46:28,d93b852c-d72a-448a-aeb1-d674fd46884b,A
2019-08-03 03:02:50,d93b852c-d72a-448a-aeb1-d674fd46884b,S
2019-08-03 03:08:58,d93b852c-d72a-448a-aeb1-d674fd46884b,A
2019-08-03 03:23:46,d93b852c-d72a-448a-aeb1-d674fd46884b,S
2019-08-03 03:29:01,d93b852c-d72a-448a-aeb1-d674fd46884b,A
2019-08-03 03:31:34,d93b852c-d72a-448a-aeb1-d674fd46884b,S
2019-08-03 01:43:38,72ae28f3-5fd2-4428-ba4c-aa79296612c4,S
2019-08-03 01:55:43,72ae28f3-5fd2-4428-ba4c-aa79296612c4,A
2019-08-03 02:14:04,72ae28f3-5fd2-4428-ba4c-aa79296612c4,S
2019-08-03 02:16:28,72ae28f3-5fd2-4428-ba4c-aa79296612c4,A
2019-08-03 02:19:46,72ae28f3-5fd2-4428-ba4c-aa79296612c4,S
2019-08-03 02:23:06,72ae28f3-5fd2-4428-ba4c-aa79296612c4,A
2019-08-03 02:34:36,72ae28f3-5fd2-4428-ba4c-aa79296612c4,S
2019-08-03 02:35:25,72ae28f3-5fd2-4428-ba4c-aa79296612c4,A
2019-08-03 02:37:04,72ae28f3-5fd2-4428-ba4c-aa79296612c4,S
2019-08-03 02:37:57,72ae28f3-5fd2-4428-ba4c-aa79296612c4,A
2019-08-03 02:55:21,72ae28f3-5fd2-4428-ba4c-aa79296612c4,S
2019-08-03 02:55:27,72ae28f3-5fd2-4428-ba4c-aa79296612c4,A
2019-08-03 02:58:36,72ae28f3-5fd2-4428-ba4c-aa79296612c4,S
2019-08-03 03:02:03,72ae28f3-5fd2-4428-ba4c-aa79296612c4,A
2019-08-03 03:04:17,72ae28f3-5fd2-4428-ba4c-aa79296612c4,S
2019-08-03 03:10:13,72ae28f3-5fd2-4428-ba4c-aa79296612c4,A
2019-08-03 03:11:36,72ae28f3-5fd2-4428-ba4c-aa79296612c4,S
2019-08-03 03:15:32,72ae28f3-5fd2-4428-ba4c-aa79296612c4,A
2019-08-03 03:21:05,72ae28f3-5fd2-4428-ba4c-aa79296612c4,S
2019-08-03 03:32:37,72ae28f3-5fd2-4428-ba4c-aa79296612c4,A
2019-08-03 02:07:35,9d4e762a-5caf-449e-9122-6d61c8dbc7f8,A
2019-08-03 02:22:18,9d4e762a-5caf-449e-9122-6d61c8dbc7f8,S
2019-08-03 02:24:24,9d4e762a-5caf-449e-9122-6d61c8dbc7f8,A
2019-08-03 02:33:30,9d4e762a-5caf-449e-9122-6d61c8dbc7f8,S
2019-08-03 02:45:03,9d4e762a-5caf-449e-9122-6d61c8dbc7f8,A
2019-08-03 02:51:15,9d4e762a-5caf-449e-9122-6d61c8dbc7f8,S
2019-08-03 02:57:56,9d4e762a-5caf-449e-9122-6d61c8dbc7f8,A
2019-08-03 02:58:19,9d4e762a-5caf-449e-9122-6d61c8dbc7f8,S
2019-08-03 02:59:26,9d4e762a-5caf-449e-9122-6d61c8dbc7f8,A
2019-08-03 03:03:45,9d4e762a-5caf-449e-9122-6d61c8dbc7f8,S
2019-08-03 03:04:17,9d4e762a-5caf-449e-9122-6d61c8dbc7f8,A
2019-08-03 03:10:56,9d4e762a-5caf-449e-9122-6d61c8dbc7f8,S
2019-08-03 03:13:39,9d4e762a-5caf-449e-9122-6d61c8dbc7f8,A
2019-08-03 03:15:26,9d4e762a-5caf-449e-9122-6d61c8dbc7f8,S
2019-08-03 03:19:13,9d4e762a-5caf-449e-9122-6d61c8dbc7f8,A
2019-08-03 03:25:29,9d4e762a-5caf-449e-9122-6d61c8dbc7f8,S
2019-08-03 03:25:42,9d4e762a-5caf-449e-9122-6d61c8dbc7f8,A
2019-08-03 03:28:18,9d4e762a-5caf-449e-9122-6d61c8dbc7f8,S
2019-08-03 01:40:27,3a2fb53b-c8bd-4eff-ba34-56696cd5343b,A
2019-08-03 01:43:18,3a2fb53b-c8bd-4eff-ba34-56696cd5343b,S
2019-08-03 01:48:25,3a2fb53b-c8bd-4eff-ba34-56696cd5343b,A
2019-08-03 02:03:52,3a2fb53b-c8bd-4eff-ba34-56696cd5343b,S
2019-08-03 02:12:55,3a2fb53b-c8bd-4eff-ba34-56696cd5343b,A
2019-08-03 02:22:38,3a2fb53b-c8bd-4eff-ba34-56696cd5343b,S
2019-08-03 02:31:08,3a2fb53b-c8bd-4eff-ba34-56696cd5343b,A
2019-08-03 02:31:54,3a2fb53b-c8bd-4eff-ba34-56696cd5343b,S
2019-08-03 02:32:13,3a2fb53b-c8bd-4eff-ba34-56696cd5343b,A
2019-08-03 02:40:52,3a2fb53b-c8bd-4eff-ba34-56696cd5343b,S
2019-08-03 02:43:51,3a2fb53b-c8bd-4eff-ba34-56696cd5343b,A
2019-08-03 02:43:53,3a2fb53b-c8bd-4eff-ba34-56696cd5343b,S
2019-08-03 02:45:05,3a2fb53b-c8bd-4eff-ba34-56696cd5343b,A
2019-08-03 02:46:55,3a2fb53b-c8bd-4eff-ba34-56696cd5343b,S
2019-08-03 02:48:45,3a2fb53b-c8bd-4eff-ba34-56696cd5343b,A
2019-08-03 02:49:44,3a2fb53b-c8bd-4eff-ba34-56696cd5343b,S
2019-08-03 02:51:27,3a2fb53b-c8bd-4eff-ba34-56696cd5343b,A
2019-08-03 03:00:43,3a2fb53b-c8bd-4eff-ba34-56696cd5343b,S
2019-08-03 03:02:50,3a2fb53b-c8bd-4eff-ba34-56696cd5343b,A
2019-08-03 03:03:48,3a2fb53b-c8bd-4eff-ba34-56696cd5343b,S
2019-08-03 03:06:15,3a2fb53b-c8bd-4eff-ba34-56696cd5343b,A
2019-08-03 03:15:01,3a2fb53b-c8bd-4eff-ba34-56696cd5343b,S
2019-08-03 03:17:18,3a2fb53b-c8bd-4eff-ba34-56696cd5343b,A
2019-08-03 03:22:10,3a2fb53b-c8bd-4eff-ba34-56696cd5343b,S
2019-08-03 03:22:18,3a2fb53b-c8bd-4eff-ba34-56696cd5343b,A
2019-08-03 03:22:56,3a2fb53b-c8bd-4eff-ba34-56696cd5343b,S
2019-08-03 03:26:26,3a2fb53b-c8bd-4eff-ba34-56696cd5343b,A
2019-08-03 03:27:52,3a2fb53b-c8bd-4eff-ba34-56696cd5343b,S
2019-08-03 03:33:31,3a2fb53b-c8bd-4eff-ba34-56696cd5343b,A
2019-08-03 03:33:59,3a2fb53b-c8bd-4eff-ba34-56696cd5343b,S
2019-08-03 01:42:50,d4057259-f878-4288-a12c-6cf97245a329,A
2019-08-03 01:49:43,d4057259-f878-4288-a12c-6cf97245a329,S
2019-08-03 01:54:29,d4057259-f878-4288-a12c-6cf97245a329,A
2019-08-03 02:01:03,d4057259-f878-4288-a12c-6cf97245a329,S
2019-08-03 02:06:57,d4057259-f878-4288-a12c-6cf97245a329,A
2019-08-03 02:17:35,d4057259-f878-4288-a12c-6cf97245a329,S
2019-08-03 02:24:51,d4057259-f878-4288-a12c-6cf97245a329,A
2019-08-03 02:27:17,d4057259-f878-4288-a12c-6cf97245a329,S
2019-08-03 02:28:58,d4057259-f878-4288-a12c-6cf97245a329,A
2019-08-03 02:33:36,d4057259-f878-4288-a12c-6cf97245a329,S
2019-08-03 02:38:36,d4057259-f878-4288-a12c-6cf97245a329,A
2019-08-03 02:48:32,d4057259-f878-4288-a12c-6cf97245a329,S
2019-08-03 02:48:35,d4057259-f878-4288-a12c-6cf97245a329,A
2019-08-03 02:53:15,d4057259-f878-4288-a12c-6cf97245a329,S
2019-08-03 02:55:00,d4057259-f878-4288-a12c-6cf97245a329,A
2019-08-03 03:01:42,d4057259-f878-4288-a12c-6cf97245a329,S
2019-08-03 03:01:49,d4057259-f878-4288-a12c-6cf97245a329,A
2019-08-03 03:04:31,d4057259-f878-4288-a12c-6cf97245a329,S
2019-08-03 03:11:24,d4057259-f878-4288-a12c-6cf97245a329,A
2019-08-03 03:32:18,d4057259-f878-4288-a12c-6cf97245a329,S
2019-08-03 01:46:35,ff7ee50e-3a69-45f8-b05f-7a98038fc6d3,A
2019-08-03 01:54:24,ff7ee50e-3a69-45f8-b05f-7a98038fc6d3,S
2019-08-03 01:55:54,ff7ee50e-3a69-45f8-b05f-7a98038fc6d3,A
2019-08-03 01:58:32,ff7ee50e-3a69-45f8-b05f-7a98038fc6d3,S
2019-08-03 02:03:13,ff7ee50e-3a69-45f8-b05f-7a98038fc6d3,A
2019-08-03 02:17:55,ff7ee50e-3a69-45f8-b05f-7a98038fc6d3,S
2019-08-03 02:18:30,ff7ee50e-3a69-45f8-b05f-7a98038fc6d3,A
2019-08-03 02:24:00,ff7ee50e-3a69-45f8-b05f-7a98038fc6d3,S
2019-08-03 02:31:13,ff7ee50e-3a69-45f8-b05f-7a98038fc6d3,A
2019-08-03 02:31:48,ff7ee50e-3a69-45f8-b05f-7a98038fc6d3,S
2019-08-03 02:43:38,ff7ee50e-3a69-45f8-b05f-7a98038fc6d3,A
2019-08-03 02:46:46,ff7ee50e-3a69-45f8-b05f-7a98038fc6d3,S
2019-08-03 02:58:36,ff7ee50e-3a69-45f8-b05f-7a98038fc6d3,A
2019-08-03 03:10:34,ff7ee50e-3a69-45f8-b05f-7a98038fc6d3,S
2019-08-03 03:15:26,ff7ee50e-3a69-45f8-b05f-7a98038fc6d3,A
2019-08-03 03:15:59,ff7ee50e-3a69-45f8-b05f-7a98038fc6d3,S
2019-08-03 03:16:17,ff7ee50e-3a69-45f8-b05f-7a98038fc6d3,A
2019-08-03 03:16:27,ff7ee50e-3a69-45f8-b05f-7a98038fc6d3,S
2019-08-03 03:17:38,ff7ee50e-3a69-45f8-b05f-7a98038fc6d3,A
2019-08-03 03:21:19,ff7ee50e-3a69-45f8-b05f-7a98038fc6d3,S
2019-08-03 03:30:10,ff7ee50e-3a69-45f8-b05f-7a98038fc6d3,A
2019-08-03 03:34:23,ff7ee50e-3a69-45f8-b05f-7a98038fc6d3,S
2019-08-03 01:49:30,b6841e5b-95e2-47b0-9499-f4f0d4f35782,S
2019-08-03 01:58:32,b6841e5b-95e2-47b0-9499-f4f0d4f35782,A
2019-08-03 02:03:44,b6841e5b-95e2-47b0-9499-f4f0d4f35782,S
2019-08-03 02:16:30,b6841e5b-95e2-47b0-9499-f4f0d4f35782,A
2019-08-03 02:17:29,b6841e5b-95e2-47b0-9499-f4f0d4f35782,S
2019-08-03 02:28:41,b6841e5b-95e2-47b0-9499-f4f0d4f35782,A
2019-08-03 02:28:55,b6841e5b-95e2-47b0-9499-f4f0d4f35782,S
2019-08-03 02:32:22,b6841e5b-95e2-47b0-9499-f4f0d4f35782,A
2019-08-03 02:43:25,b6841e5b-95e2-47b0-9499-f4f0d4f35782,S
2019-08-03 02:46:27,b6841e5b-95e2-47b0-9499-f4f0d4f35782,A
2019-08-03 02:53:03,b6841e5b-95e2-47b0-9499-f4f0d4f35782,S
2019-08-03 02:54:59,b6841e5b-95e2-47b0-9499-f4f0d4f35782,A
2019-08-03 03:02:24,b6841e5b-95e2-47b0-9499-f4f0d4f35782,S
2019-08-03 03:06:30,b6841e5b-95e2-47b0-9499-f4f0d4f35782,A
2019-08-03 03:07:12,b6841e5b-95e2-47b0-9499-f4f0d4f35782,S
2019-08-03 03:07:34,b6841e5b-95e2-47b0-9499-f4f0d4f35782,A
2019-08-03 03:10:57,b6841e5b-95e2-47b0-9499-f4f0d4f35782,S
2019-08-03 03:14:01,b6841e5b-95e2-47b0-9499-f4f0d4f35782,A
2019-08-03 03:27:12,b6841e5b-95e2-47b0-9499-f4f0d4f35782,S
2019-08-03 03:31:22,b6841e5b-95e2-47b0-9499-f4f0d4f35782,A
2019-08-03 03:31:29,b6841e5b-95e2-47b0-9499-f4f0d4f35782,S
2019-08-03 01:40:23,0a54b7fc-036f-4fde-866f-0438bedb2ec5,S
2019-08-03 01:52:19,0a54b7fc-036f-4fde-866f-0438bedb2ec5,A
2019-08-03 01:52:37,0a54b7fc-036f-4fde-866f-0438bedb2ec5,S
2019-08-03 02:08:01,0a54b7fc-036f-4fde-866f-0438bedb2ec5,A
2019-08-03 02:10:54,0a54b7fc-036f-4fde-866f-0438bedb2ec5,S
2019-08-03 02:12:54,0a54b7fc-036f-4fde-866f-0438bedb2ec5,A
2019-08-03 02:21:00,0a54b7fc-036f-4fde-866f-0438bedb2ec5,S
2019-08-03 02:21:56,0a54b7fc-036f-4fde-866f-0438bedb2ec5,A
2019-08-03 02:24:09,0a54b7fc-036f-4fde-866f-0438bedb2ec5,S
2019-08-03 02:38:34,0a54b7fc-036f-4fde-866f-0438bedb2ec5,A
2019-08-03 02:43:52,0a54b7fc-036f-4fde-866f-0438bedb2ec5,S
2019-08-03 02:45:25,0a54b7fc-036f-4fde-866f-0438bedb2ec5,A
2019-08-03 02:46:13,0a54b7fc-036f-4fde-866f-0438bedb2ec5,S
2019-08-03 02:48:10,0a54b7fc-036f-4fde-866f-0438bedb2ec5,A
2019-08-03 02:51:27,0a54b7fc-036f-4fde-866f-0438bedb2ec5,S
2019-08-03 02:51:34,0a54b7fc-036f-4fde-866f-0438bedb2ec5,A
2019-08-03 03:03:53,0a54b7fc-036f-4fde-866f-0438bedb2ec5,S
2019-08-03 03:05:13,0a54b7fc-036f-4fde-866f-0438bedb2ec5,A
2019-08-03 03:10:06,0a54b7fc-036f-4fde-866f-0438bedb2ec5,S
2019-08-03 03:13:31,0a54b7fc-036f-4fde-866f-0438bedb2ec5,A
2019-08-03 03:14:46,0a54b7fc-036f-4fde-866f-0438bedb2ec5,S
2019-08-03 03:15:28,0a54b7fc-036f-4fde-866f-0438bedb2ec5,A
2019-08-03 03:28:08,0a54b7fc-036f-4fde-866f-0438bedb2ec5,S
2019-08-03 03:29:36,0a54b7fc-036f-4fde-866f-0438bedb2ec5,A
2019-08-03 03:30:50,0a54b7fc-036f-4fde-866f-0438bedb2ec5,S
2019-08-03 03:33:26,0a54b7fc-036f-4fde-866f-0438bedb2ec5,A
2019-08-03 02:06:12,b3e9575c-e8cd-4843-9775-ce6362c447a8,A
2019-08-03 02:09:41,b3e9575c-e8cd-4843-9775-ce6362c447a8,S
2019-08-03 02:12:45,b3e9575c-e8cd-4843-9775-ce6362c447a8,A
2019-08-03 02:21:42,b3e9575c-e8cd-4843-9775-ce6362c447a8,S
2019-08-03 02:36:38,b3e9575c-e8cd-4843-9775-ce6362c447a8,A
2019-08-03 02:37:41,b3e9575c-e8cd-4843-9775-ce6362c447a8,S
2019-08-03 02:38:10,b3e9575c-e8cd-4843-9775-ce6362c447a8,A
2019-08-03 02:38:49,b3e9575c-e8cd-4843-9775-ce6362c447a8,S
2019-08-03 02:45:53,b3e9575c-e8cd-4843-9775-ce6362c447a8,A
2019-08-03 02:51:03,b3e9575c-e8cd-4843-9775-ce6362c447a8,S
2019-08-03 03:09:55,b3e9575c-e8cd-4843-9775-ce6362c447a8,A
2019-08-03 03:12:02,b3e9575c-e8cd-4843-9775-ce6362c447a8,S
2019-08-03 03:19:09,b3e9575c-e8cd-4843-9775-ce6362c447a8,A
2019-08-03 03:22:39,b3e9575c-e8cd-4843-9775-ce6362c447a8,S
2019-08-03 03:35:28,b3e9575c-e8cd-4843-9775-ce6362c447a8,A
2019-08-03 01:30:07,83c03e32-7e76-4d00-bf76-68f74a55baae,A
2019-08-03 01:33:35,83c03e32-7e76-4d00-bf76-68f74a55baae,S
2019-08-03 01:42:09,83c03e32-7e76-4d00-bf76-68f74a55baae,A
2019-08-03 01:45:12,83c03e32-7e76-4d00-bf76-68f74a55baae,S
2019-08-03 01:45:29,83c03e32-7e76-4d00-bf76-68f74a55baae,A
2019-08-03 01:47:57,83c03e32-7e76-4d00-bf76-68f74a55baae,S
2019-08-03 01:53:17,83c03e32-7e76-4d00-bf76-68f74a55baae,A
2019-08-03 01:57:12,83c03e32-7e76-4d00-bf76-68f74a55baae,S
2019-08-03 01:59:57,83c03e32-7e76-4d00-bf76-68f74a55baae,A
2019-08-03 02:10:45,83c03e32-7e76-4d00-bf76-68f74a55baae,S
2019-08-03 02:16:22,83c03e32-7e76-4d00-bf76-68f74a55baae,A
2019-08-03 02:38:56,83c03e32-7e76-4d00-bf76-68f74a55baae,S
2019-08-03 03:03:17,83c03e32-7e76-4d00-bf76-68f74a55baae,A
2019-08-03 03:09:51,83c03e32-7e76-4d00-bf76-68f74a55baae,S
2019-08-03 03:13:18,83c03e32-7e76-4d00-bf76-68f74a55baae,A
2019-08-03 03:16:12,83c03e32-7e76-4d00-bf76-68f74a55baae,S
2019-08-03 03:20:57,83c03e32-7e76-4d00-bf76-68f74a55baae,A
2019-08-03 03:34:01,83c03e32-7e76-4d00-bf76-68f74a55baae,S
2019-08-03 03:35:34,83c03e32-7e76-4d00-bf76-68f74a55baae,A
2019-08-03 02:00:15,a89dc883-ea46-49ef-9cfe-fe60a0393c99,S
2019-08-03 02:02:33,a89dc883-ea46-49ef-9cfe-fe60a0393c99,A
2019-08-03 02:07:45,a89dc883-ea46-49ef-9cfe-fe60a0393c99,S
2019-08-03 02:15:51,a89dc883-ea46-49ef-9cfe-fe60a0393c99,A
2019-08-03 02:23:15,a89dc883-ea46-49ef-9cfe-fe60a0393c99,S
2019-08-03 02:23:37,a89dc883-ea46-49ef-9cfe-fe60a0393c99,A
2019-08-03 02:29:10,a89dc883-ea46-49ef-9cfe-fe60a0393c99,S
2019-08-03 02:40:13,a89dc883-ea46-49ef-9cfe-fe60a0393c99,A
2019-08-03 02:44:37,a89dc883-ea46-49ef-9cfe-fe60a0393c99,S
2019-08-03 02:47:25,a89dc883-ea46-49ef-9cfe-fe60a0393c99,A
2019-08-03 02:54:07,a89dc883-ea46-49ef-9cfe-fe60a0393c99,S
2019-08-03 02:54:57,a89dc883-ea46-49ef-9cfe-fe60a0393c99,A
2019-08-03 02:57:43,a89dc883-ea46-49ef-9cfe-fe60a0393c99,S
2019-08-03 03:01:33,a89dc883-ea46-49ef-9cfe-fe60a0393c99,A
2019-08-03 03:08:01,a89dc883-ea46-49ef-9cfe-fe60a0393c99,S
2019-08-03 03:11:06,a89dc883-ea46-49ef-9cfe-fe60a0393c99,A
2019-08-03 03:23:26,a89dc883-ea46-49ef-9cfe-fe60a0393c99,S
2019-08-03 03:28:13,a89dc883-ea46-49ef-9cfe-fe60a0393c99,A
2019-08-03 03:30:17,a89dc883-ea46-49ef-9cfe-fe60a0393c99,S
2019-08-03 03:34:05,a89dc883-ea46-49ef-9cfe-fe60a0393c99,A
2019-08-03 02:03:57,42c63617-2db9-47d0-ad5f-8da604434109,S
2019-08-03 02:05:53,42c63617-2db9-47d0-ad5f-8da604434109,A
2019-08-03 02:09:01,42c63617-2db9-47d0-ad5f-8da604434109,S
2019-08-03 02:09:31,42c63617-2db9-47d0-ad5f-8da604434109,A
2019-08-03 02:12:39,42c63617-2db9-47d0-ad5f-8da604434109,S
2019-08-03 02:14:39,42c63617-2db9-47d0-ad5f-8da604434109,A
2019-08-03 02:18:56,42c63617-2db9-47d0-ad5f-8da604434109,S
2019-08-03 02:19:53,42c63617-2db9-47d0-ad5f-8da604434109,A
2019-08-03 02:20:42,42c63617-2db9-47d0-ad5f-8da604434109,S
2019-08-03 02:28:09,42c63617-2db9-47d0-ad5f-8da604434109,A
2019-08-03 02:30:22,42c63617-2db9-47d0-ad5f-8da604434109,S
2019-08-03 02:33:54,42c63617-2db9-47d0-ad5f-8da604434109,A
2019-08-03 02:42:10,42c63617-2db9-47d0-ad5f-8da604434109,S
2019-08-03 02:49:34,42c63617-2db9-47d0-ad5f-8da604434109,A
2019-08-03 02:51:37,42c63617-2db9-47d0-ad5f-8da604434109,S
2019-08-03 02:54:22,42c63617-2db9-47d0-ad5f-8da604434109,A
2019-08-03 02:55:26,42c63617-2db9-47d0-ad5f-8da604434109,S
2019-08-03 02:56:44,42c63617-2db9-47d0-ad5f-8da604434109,A
2019-08-03 02:58:16,42c63617-2db9-47d0-ad5f-8da604434109,S
2019-08-03 03:06:24,42c63617-2db9-47d0-ad5f-8da604434109,A
2019-08-03 03:06:34,42c63617-2db9-47d0-ad5f-8da604434109,S
2019-08-03 03:06:46,42c63617-2db9-47d0-ad5f-8da604434109,A
2019-08-03 03:10:36,42c63617-2db9-47d0-ad5f-8da604434109,S
2019-08-03 03:13:01,42c63617-2db9-47d0-ad5f-8da604434109,A
2019-08-03 03:13:45,42c63617-2db9-47d0-ad5f-8da604434109,S
2019-08-03 03:15:03,42c63617-2db9-47d0-ad5f-8da604434109,A
2019-08-03 03:15:56,42c63617-2db9-47d0-ad5f-8da604434109,S
2019-08-03 03:24:19,42c63617-2db9-47d0-ad5f-8da604434109,A
2019-08-03 03:25:32,42c63617-2db9-47d0-ad5f-8da604434109,S
2019-08-03 03:34:31,42c63617-2db9-47d0-ad5f-8da604434109,A
2019-08-03 01:59:03,781b9263-7df4-45ab-9174-effd541f6e4e,S
2019-08-03 02:11:17,781b9263-7df4-45ab-9174-effd541f6e4e,A
2019-08-03 02:21:26,781b9263-7df4-45ab-9174-effd541f6e4e,S
2019-08-03 02:22:44,781b9263-7df4-45ab-9174-effd541f6e4e,A
2019-08-03 02:24:43,781b9263-7df4-45ab-9174-effd541f6e4e,S
2019-08-03 02:31:22,781b9263-7df4-45ab-9174-effd541f6e4e,A
2019-08-03 02:32:09,781b9263-7df4-45ab-9174-effd541f6e4e,S
2019-08-03 02:34:31,781b9263-7df4-45ab-9174-effd541f6e4e,A
2019-08-03 02:35:22,781b9263-7df4-45ab-9174-effd541f6e4e,S
2019-08-03 02:35:44,781b9263-7df4-45ab-9174-effd541f6e4e,A
2019-08-03 02:36:02,781b9263-7df4-45ab-9174-effd541f6e4e,S
2019-08-03 01:54:35,23c7a174-7968-482b-9368-f84cc01f9528,S
2019-08-03 01:58:52,23c7a174-7968-482b-9368-f84cc01f9528,A
2019-08-03 02:12:35,23c7a174-7968-482b-9368-f84cc01f9528,S
2019-08-03 02:12:59,23c7a174-7968-482b-9368-f84cc01f9528,A
2019-08-03 02:17:35,23c7a174-7968-482b-9368-f84cc01f9528,S
2019-08-03 02:20:54,23c7a174-7968-482b-9368-f84cc01f9528,A
2019-08-03 02:24:00,23c7a174-7968-482b-9368-f84cc01f9528,S
2019-08-03 02:28:33,23c7a174-7968-482b-9368-f84cc01f9528,A
2019-08-03 02:31:46,23c7a174-7968-482b-9368-f84cc01f9528,S
2019-08-03 02:35:23,23c7a174-7968-482b-9368-f84cc01f9528,A
2019-08-03 02:51:14,23c7a174-7968-482b-9368-f84cc01f9528,S
2019-08-03 02:55:31,23c7a174-7968-482b-9368-f84cc01f9528,A
2019-08-03 02:55:52,23c7a174-7968-482b-9368-f84cc01f9528,S
2019-08-03 03:00:59,23c7a174-7968-482b-9368-f84cc01f9528,A
2019-08-03 03:08:17,23c7a174-7968-482b-9368-f84cc01f9528,S
2019-08-03 03:21:24,23c7a174-7968-482b-9368-f84cc01f9528,A
2019-08-03 03:22:26,23c7a174-7968-482b-9368-f84cc01f9528,S
2019-08-03 01:45:08,dc7f0f0b-d4c7-497b-a5c0-65cf10251c19,S
2019-08-03 01:52:47,dc7f0f0b-d4c7-497b-a5c0-65cf10251c19,A
2019-08-03 01:54:42,dc7f0f0b-d4c7-497b-a5c0-65cf10251c19,S
2019-08-03 02:06:01,dc7f0f0b-d4c7-497b-a5c0-65cf10251c19,A
2019-08-03 02:07:50,dc7f0f0b-d4c7-497b-a5c0-65cf10251c19,S
2019-08-03 02:08:32,dc7f0f0b-d4c7-497b-a5c0-65cf10251c19,A
2019-08-03 02:18:03,dc7f0f0b-d4c7-497b-a5c0-65cf10251c19,S
2019-08-03 02:21:18,dc7f0f0b-d4c7-497b-a5c0-65cf10251c19,A
2019-08-03 02:21:54,dc7f0f0b-d4c7-497b-a5c0-65cf10251c19,S
2019-08-03 02:22:25,dc7f0f0b-d4c7-497b-a5c0-65cf10251c19,A
2019-08-03 02:27:29,dc7f0f0b-d4c7-497b-a5c0-65cf10251c19,S
2019-08-03 02:27:54,dc7f0f0b-d4c7-497b-a5c0-65cf10251c19,A
2019-08-03 02:28:17,dc7f0f0b-d4c7-497b-a5c0-65cf10251c19,S
2019-08-03 02:29:01,dc7f0f0b-d4c7-497b-a5c0-65cf10251c19,A
2019-08-03 02:30:53,dc7f0f0b-d4c7-497b-a5c0-65cf10251c19,S
2019-08-03 02:31:45,dc7f0f0b-d4c7-497b-a5c0-65cf10251c19,A
2019-08-03 02:42:19,dc7f0f0b-d4c7-497b-a5c0-65cf10251c19,S
2019-08-03 02:43:31,dc7f0f0b-d4c7-497b-a5c0-65cf10251c19,A
2019-08-03 02:50:23,dc7f0f0b-d4c7-497b-a5c0-65cf10251c19,S
2019-08-03 02:59:04,dc7f0f0b-d4c7-497b-a5c0-65cf10251c19,A
2019-08-03 03:02:11,dc7f0f0b-d4c7-497b-a5c0-65cf10251c19,S
2019-08-03 03:05:47,dc7f0f0b-d4c7-497b-a5c0-65cf10251c19,A
2019-08-03 03:06:03,dc7f0f0b-d4c7-497b-a5c0-65cf10251c19,S
2019-08-03 03:13:08,dc7f0f0b-d4c7-497b-a5c0-65cf10251c19,A
2019-08-03 03:13:16,dc7f0f0b-d4c7-497b-a5c0-65cf10251c19,S
2019-08-03 03:13:41,dc7f0f0b-d4c7-497b-a5c0-65cf10251c19,A
2019-08-03 03:14:19,dc7f0f0b-d4c7-497b-a5c0-65cf10251c19,S
2019-08-03 03:16:23,dc7f0f0b-d4c7-497b-a5c0-65cf10251c19,A
2019-08-03 03:16:27,dc7f0f0b-d4c7-497b-a5c0-65cf10251c19,S
2019-08-03 03:28:13,dc7f0f0b-d4c7-497b-a5c0-65cf10251c19,A
2019-08-03 03:31:37,dc7f0f0b-d4c7-497b-a5c0-65cf10251c19,S
2019-08-03 03:33:29,dc7f0f0b-d4c7-497b-a5c0-65cf10251c19,A
2019-08-03 01:50:38,ff70999f-085d-4e2c-bde7-0c9d9248b199,A
2019-08-03 01:56:41,ff70999f-085d-4e2c-bde7-0c9d9248b199,S
2019-08-03 01:59:11,ff70999f-085d-4e2c-bde7-0c9d9248b199,A
2019-08-03 01:59:55,ff70999f-085d-4e2c-bde7-0c9d9248b199,S
2019-08-03 01:59:59,ff70999f-085d-4e2c-bde7-0c9d9248b199,A
2019-08-03 02:02:49,ff70999f-085d-4e2c-bde7-0c9d9248b199,S
2019-08-03 02:11:05,ff70999f-085d-4e2c-bde7-0c9d9248b199,A
2019-08-03 02:13:51,ff70999f-085d-4e2c-bde7-0c9d9248b199,S
2019-08-03 02:13:53,ff70999f-085d-4e2c-bde7-0c9d9248b199,A
2019-08-03 02:19:59,ff70999f-085d-4e2c-bde7-0c9d9248b199,S
2019-08-03 02:24:22,ff70999f-085d-4e2c-bde7-0c9d9248b199,A
2019-08-03 02:31:43,ff70999f-085d-4e2c-bde7-0c9d9248b199,S
2019-08-03 02:32:52,ff70999f-085d-4e2c-bde7-0c9d9248b199,A
2019-08-03 02:36:49,ff70999f-085d-4e2c-bde7-0c9d9248b199,S
2019-08-03 02:37:36,ff70999f-085d-4e2c-bde7-0c9d9248b199,A
2019-08-03 02:37:53,ff70999f-085d-4e2c-bde7-0c9d9248b199,S
2019-08-03 02:48:26,ff70999f-085d-4e2c-bde7-0c9d9248b199,A
2019-08-03 02:49:49,ff70999f-085d-4e2c-bde7-0c9d9248b199,S
2019-08-03 02:55:34,ff70999f-085d-4e2c-bde7-0c9d9248b199,A
2019-08-03 03:00:00,ff70999f-085d-4e2c-bde7-0c9d9248b199,S
2019-08-03 03:01:19,ff70999f-085d-4e2c-bde7-0c9d9248b199,A
2019-08-03 03:04:07,ff70999f-085d-4e2c-bde7-0c9d9248b199,S
2019-08-03 03:05:31,ff70999f-085d-4e2c-bde7-0c9d9248b199,A
2019-08-03 03:14:21,ff70999f-085d-4e2c-bde7-0c9d9248b199,S
2019-08-03 03:15:50,ff70999f-085d-4e2c-bde7-0c9d9248b199,A
2019-08-03 03:19:29,ff70999f-085d-4e2c-bde7-0c9d9248b199,S
2019-08-03 03:19:47,ff70999f-085d-4e2c-bde7-0c9d9248b199,A
2019-08-03 03:23:44,ff70999f-085d-4e2c-bde7-0c9d9248b199,S
2019-08-03 01:37:02,cc591d20-dd15-42a5-9a64-0c512cada18d,S
2019-08-03 01:41:09,cc591d20-dd15-42a5-9a64-0c512cada18d,A
2019-08-03 01:51:32,cc591d20-dd15-42a5-9a64-0c512cada18d,S
2019-08-03 01:53:06,cc591d20-dd15-42a5-9a64-0c512cada18d,A
2019-08-03 02:00:37,cc591d20-dd15-42a5-9a64-0c512cada18d,S
2019-08-03 02:00:52,cc591d20-dd15-42a5-9a64-0c512cada18d,A
2019-08-03 02:02:17,cc591d20-dd15-42a5-9a64-0c512cada18d,S
2019-08-03 02:19:34,cc591d20-dd15-42a5-9a64-0c512cada18d,A
2019-08-03 02:25:20,cc591d20-dd15-42a5-9a64-0c512cada18d,S
2019-08-03 02:28:55,cc591d20-dd15-42a5-9a64-0c512cada18d,A
2019-08-03 02:32:06,cc591d20-dd15-42a5-9a64-0c512cada18d,S
2019-08-03 02:32:23,cc591d20-dd15-42a5-9a64-0c512cada18d,A
2019-08-03 02:50:58,cc591d20-dd15-42a5-9a64-0c512cada18d,S
2019-08-03 02:51:24,cc591d20-dd15-42a5-9a64-0c512cada18d,A
2019-08-03 02:54:14,cc591d20-dd15-42a5-9a64-0c512cada18d,S
2019-08-03 03:07:47,cc591d20-dd15-42a5-9a64-0c512cada18d,A
2019-08-03 03:11:05,cc591d20-dd15-42a5-9a64-0c512cada18d,S
2019-08-03 03:13:33,cc591d20-dd15-42a5-9a64-0c512cada18d,A
2019-08-03 03:14:10,cc591d20-dd15-42a5-9a64-0c512cada18d,S
2019-08-03 03:19:24,cc591d20-dd15-42a5-9a64-0c512cada18d,A
2019-08-03 03:24:04,cc591d20-dd15-42a5-9a64-0c512cada18d,S
2019-08-03 03:28:01,cc591d20-dd15-42a5-9a64-0c512cada18d,A
2019-08-03 03:29:53,cc591d20-dd15-42a5-9a64-0c512cada18d,S
2019-08-03 03:30:51,cc591d20-dd15-42a5-9a64-0c512cada18d,A
2019-08-03 01:36:01,7ec3a399-5d64-4b8e-a313-c700b17d4f91,S
2019-08-03 01:40:58,7ec3a399-5d64-4b8e-a313-c700b17d4f91,A
2019-08-03 01:41:20,7ec3a399-5d64-4b8e-a313-c700b17d4f91,S
2019-08-03 01:46:05,7ec3a399-5d64-4b8e-a313-c700b17d4f91,A
2019-08-03 01:51:02,7ec3a399-5d64-4b8e-a313-c700b17d4f91,S
2019-08-03 01:53:04,7ec3a399-5d64-4b8e-a313-c700b17d4f91,A
2019-08-03 02:03:09,7ec3a399-5d64-4b8e-a313-c700b17d4f91,S
2019-08-03 02:05:50,7ec3a399-5d64-4b8e-a313-c700b17d4f91,A
2019-08-03 02:06:45,7ec3a399-5d64-4b8e-a313-c700b17d4f91,S
2019-08-03 02:14:46,7ec3a399-5d64-4b8e-a313-c700b17d4f91,A
2019-08-03 02:23:34,7ec3a399-5d64-4b8e-a313-c700b17d4f91,S
2019-08-03 02:25:45,7ec3a399-5d64-4b8e-a313-c700b17d4f91,A
2019-08-03 02:25:54,7ec3a399-5d64-4b8e-a313-c700b17d4f91,S
2019-08-03 02:45:11,7ec3a399-5d64-4b8e-a313-c700b17d4f91,A
2019-08-03 02:47:24,7ec3a399-5d64-4b8e-a313-c700b17d4f91,S
2019-08-03 03:04:59,7ec3a399-5d64-4b8e-a313-c700b17d4f91,A
2019-08-03 03:15:10,7ec3a399-5d64-4b8e-a313-c700b17d4f91,S
2019-08-03 03:31:01,7ec3a399-5d64-4b8e-a313-c700b17d4f91,A
2019-08-03 03:32:14,7ec3a399-5d64-4b8e-a313-c700b17d4f91,S
2019-08-03 02:14:08,4418e106-63bb-4511-903c-0ccf0058cf88,S
2019-08-03 02:27:42,4418e106-63bb-4511-903c-0ccf0058cf88,A
2019-08-03 02:32:36,4418e106-63bb-4511-903c-0ccf0058cf88,S
2019-08-03 02:33:08,4418e106-63bb-4511-903c-0ccf0058cf88,A
2019-08-03 02:37:00,4418e106-63bb-4511-903c-0ccf0058cf88,S
2019-08-03 02:37:41,4418e106-63bb-4511-903c-0ccf0058cf88,A
2019-08-03 02:46:20,4418e106-63bb-4511-903c-0ccf0058cf88,S
2019-08-03 02:47:24,4418e106-63bb-4511-903c-0ccf0058cf88,A
2019-08-03 02:49:39,4418e106-63bb-4511-903c-0ccf0058cf88,S
2019-08-03 02:51:49,4418e106-63bb-4511-903c-0ccf0058cf88,A
2019-08-03 02:54:11,4418e106-63bb-4511-903c-0ccf0058cf88,S
2019-08-03 02:58:02,4418e106-63bb-4511-903c-0ccf0058cf88,A
2019-08-03 02:59:14,4418e106-63bb-4511-903c-0ccf0058cf88,S
2019-08-03 03:00:04,4418e106-63bb-4511-903c-0ccf0058cf88,A
2019-08-03 03:02:14,4418e106-63bb-4511-903c-0ccf0058cf88,S
2019-08-03 03:02:37,4418e106-63bb-4511-903c-0ccf0058cf88,A
2019-08-03 03:02:53,4418e106-63bb-4511-903c-0ccf0058cf88,S
2019-08-03 03:07:24,4418e106-63bb-4511-903c-0ccf0058cf88,A
2019-08-03 03:08:14,4418e106-63bb-4511-903c-0ccf0058cf88,S
2019-08-03 03:17:46,4418e106-63bb-4511-903c-0ccf0058cf88,A
2019-08-03 03:23:49,4418e106-63bb-4511-903c-0ccf0058cf88,S
2019-08-03 03:31:48,4418e106-63bb-4511-903c-0ccf0058cf88,A
2019-08-03 03:35:17,4418e106-63bb-4511-903c-0ccf0058cf88,S
2019-08-03 03:35:53,4418e106-63bb-4511-903c-0ccf0058cf88,A
2019-08-03 01:56:44,dca8d2ec-2b66-4aca-a15f-3416735e65c9,S
2019-08-03 02:00:53,dca8d2ec-2b66-4aca-a15f-3416735e65c9,A
2019-08-03 02:08:21,dca8d2ec-2b66-4aca-a15f-3416735e65c9,S
2019-08-03 02:12:33,dca8d2ec-2b66-4aca-a15f-3416735e65c9,A
2019-08-03 02:12:47,dca8d2ec-2b66-4aca-a15f-3416735e65c9,S
2019-08-03 02:22:16,dca8d2ec-2b66-4aca-a15f-3416735e65c9,A
2019-08-03 02:25:17,dca8d2ec-2b66-4aca-a15f-3416735e65c9,S
2019-08-03 02:26:44,dca8d2ec-2b66-4aca-a15f-3416735e65c9,A
2019-08-03 02:28:28,dca8d2ec-2b66-4aca-a15f-3416735e65c9,S
2019-08-03 02:38:08,dca8d2ec-2b66-4aca-a15f-3416735e65c9,A
2019-08-03 02:42:59,dca8d2ec-2b66-4aca-a15f-3416735e65c9,S
2019-08-03 02:44:42,dca8d2ec-2b66-4aca-a15f-3416735e65c9,A
2019-08-03 02:45:38,dca8d2ec-2b66-4aca-a15f-3416735e65c9,S
2019-08-03 02:51:05,dca8d2ec-2b66-4aca-a15f-3416735e65c9,A
2019-08-03 02:55:40,dca8d2ec-2b66-4aca-a15f-3416735e65c9,S
2019-08-03 03:00:22,dca8d2ec-2b66-4aca-a15f-3416735e65c9,A
2019-08-03 03:08:22,dca8d2ec-2b66-4aca-a15f-3416735e65c9,S
2019-08-03 03:13:34,dca8d2ec-2b66-4aca-a15f-3416735e65c9,A
2019-08-03 03:16:53,dca8d2ec-2b66-4aca-a15f-3416735e65c9,S
2019-08-03 03:29:40,dca8d2ec-2b66-4aca-a15f-3416735e65c9,A
2019-08-03 03:37:48,dca8d2ec-2b66-4aca-a15f-3416735e65c9,S
2019-08-03 02:06:41,b5888296-d37c-4b13-85e7-40561d21f0bc,S
2019-08-03 02:08:35,b5888296-d37c-4b13-85e7-40561d21f0bc,A
2019-08-03 02:09:04,b5888296-d37c-4b13-85e7-40561d21f0bc,S
2019-08-03 02:17:23,b5888296-d37c-4b13-85e7-40561d21f0bc,A
2019-08-03 02:20:14,b5888296-d37c-4b13-85e7-40561d21f0bc,S
2019-08-03 02:26:36,b5888296-d37c-4b13-85e7-40561d21f0bc,A
2019-08-03 02:31:12,b5888296-d37c-4b13-85e7-40561d21f0bc,S
2019-08-03 02:32:25,b5888296-d37c-4b13-85e7-40561d21f0bc,A
2019-08-03 02:41:08,b5888296-d37c-4b13-85e7-40561d21f0bc,S
2019-08-03 02:42:43,b5888296-d37c-4b13-85e7-40561d21f0bc,A
2019-08-03 02:50:45,b5888296-d37c-4b13-85e7-40561d21f0bc,S
2019-08-03 02:50:57,b5888296-d37c-4b13-85e7-40561d21f0bc,A
2019-08-03 02:57:33,b5888296-d37c-4b13-85e7-40561d21f0bc,S
2019-08-03 03:02:27,b5888296-d37c-4b13-85e7-40561d21f0bc,A
2019-08-03 03:03:22,b5888296-d37c-4b13-85e7-40561d21f0bc,S
2019-08-03 03:05:18,b5888296-d37c-4b13-85e7-40561d21f0bc,A
2019-08-03 03:05:20,b5888296-d37c-4b13-85e7-40561d21f0bc,S
2019-08-03 03:06:40,b5888296-d37c-4b13-85e7-40561d21f0bc,A
2019-08-03 03:09:26,b5888296-d37c-4b13-85e7-40561d21f0bc,S
2019-08-03 03:16:53,b5888296-d37c-4b13-85e7-40561d21f0bc,A
2019-08-03 03:18:26,b5888296-d37c-4b13-85e7-40561d21f0bc,S
2019-08-03 03:19:01,b5888296-d37c-4b13-85e7-40561d21f0bc,A
2019-08-03 03:26:04,b5888296-d37c-4b13-85e7-40561d21f0bc,S
2019-08-03 03:29:33,b5888296-d37c-4b13-85e7-40561d21f0bc,A
2019-08-03 03:37:40,b5888296-d37c-4b13-85e7-40561d21f0bc,S
2019-08-03 02:01:27,17404ee8-9d11-4e03-9679-084669005d6b,A
2019-08-03 02:01:57,17404ee8-9d11-4e03-9679-084669005d6b,S
2019-08-03 02:10:27,17404ee8-9d11-4e03-9679-084669005d6b,A
2019-08-03 02:11:46,17404ee8-9d11-4e03-9679-084669005d6b,S
2019-08-03 02:20:23,17404ee8-9d11-4e03-9679-084669005d6b,S
2019-08-03 02:21:37,17404ee8-9d11-4e03-9679-084669005d6b,A
2019-08-03 02:22:27,17404ee8-9d11-4e03-9679-084669005d6b,S
2019-08-03 02:26:14,17404ee8-9d11-4e03-9679-084669005d6b,A
2019-08-03 02:27:21,17404ee8-9d11-4e03-9679-084669005d6b,S
2019-08-03 02:27:33,17404ee8-9d11-4e03-9679-084669005d6b,A
2019-08-03 02:33:06,17404ee8-9d11-4e03-9679-084669005d6b,S
2019-08-03 02:38:25,17404ee8-9d11-4e03-9679-084669005d6b,A
2019-08-03 02:50:40,17404ee8-9d11-4e03-9679-084669005d6b,S
2019-08-03 02:50:55,17404ee8-9d11-4e03-9679-084669005d6b,A
2019-08-03 02:55:06,17404ee8-9d11-4e03-9679-084669005d6b,S
2019-08-03 03:04:42,17404ee8-9d11-4e03-9679-084669005d6b,A
2019-08-03 03:16:47,17404ee8-9d11-4e03-9679-084669005d6b,S
2019-08-03 03:20:17,17404ee8-9d11-4e03-9679-084669005d6b,A
2019-08-03 03:24:40,17404ee8-9d11-4e03-9679-084669005d6b,S
2019-08-03 03:26:04,17404ee8-9d11-4e03-9679-084669005d6b,A
2019-08-03 03:26:40,17404ee8-9d11-4e03-9679-084669005d6b,S
2019-08-03 03:33:40,17404ee8-9d11-4e03-9679-084669005d6b,A
2019-08-03 03:35:08,17404ee8-9d11-4e03-9679-084669005d6b,S
2019-08-03 03:35:40,17404ee8-9d11-4e03-9679-084669005d6b,A
