actor,node
40e9b814-a1fb-4e5a-a11d-908be76135e9,1056e598-bf22-4c43-8a74-039c3e6e0995
5494dd33-4f55-4caa-af0c-cbf66ae0c3ae,1056e598-bf22-4c43-8a74-039c3e6e0995
d64dec43-aec9-462b-a6b5-3f4aea7e4be6,2de6a460-345e-4b9b-8a32-12612e2ced6c
be5e623a-9b93-4572-b797-3ca27b06cdd6,4f4537c7-8bd8-4027-98b0-e24502d9bb52
4f601b18-fd5b-43bf-bbf8-a5ea621794aa,719daa32-410c-4876-af45-460e95278b22
f0d1504c-e59b-425a-b460-3bfe0f8fb005,719daa32-410c-4876-af45-460e95278b22
2224df16-e329-4433-b678-c3cfe85ea564,9dac9d9c-6074-442d-8e40-34db7901df4e
5e02862f-859d-4c70-9670-127f57f8e5b0,e994ef0b-3c26-4e02-905e-2d0f26e41b64
b51839ff-761a-44cf-9709-52db9f545f62,e994ef0b-3c26-4e02-905e-2d0f26e41b64
2f426e95-d052-4d76-8566-7354671d4feb,1056e598-bf22-4c43-8a74-039c3e6e0995
a507f017-3b85-4411-b2dd-a17dedb5cd04,ab7dd89a-722c-4d75-9264-e704135db957
2d9cce13-6932-498a-8d3b-0814c5a0a9db,1056e598-bf22-4c43-8a74-039c3e6e0995
10f6c376-fafb-416a-a69f-1d66bfb8714d,566c438d-dd83-49b9-8162-7188e88bd6b1
bfa82f5c-9694-44ed-a75d-494ad5a8c1f9,566c438d-dd83-49b9-8162-7188e88bd6b1
d1e9da95-e488-4c31-9b5e-597f78f72820,f0e4c375-c30a-4d10-b676-406352af64e1
62fb9d50-4441-4d74-83c4-72527dc12aa8,85a828b6-a309-4895-a2b7-ece7d8345c65
be104330-c63b-4bbd-a74a-1e5be8fb4e73,e1ba6814-d20f-4c13-a859-3bac488b6fd5
3d766ff0-7e4d-4f26-81ff-30c1f77da917,85a828b6-a309-4895-a2b7-ece7d8345c65
367ba221-20c8-4666-966c-27b8156849cd,c71a1fed-4dcf-4dd1-aa4f-e1f7a78f4cf5
1b8a401a-e05e-4333-a9b4-b85e51a01d6e,4e4626b2-e556-4377-a4ca-f8d1e4c1e5c5
f7cc9207-5e20-4ac8-b82b-1db7674512b7,566c438d-dd83-49b9-8162-7188e88bd6b1
4c62f3c1-2e99-48e2-9b32-062c81fbeb63,1d831a1a-6e08-487d-9f70-0ff65e366779
5a1a48b2-463d-4c82-9ab6-a8001d564786,f283ad90-b7b9-4138-81ab-babb81affda5
f7139ff8-17ba-4c6c-8a3c-27a64f4d5df5,f283ad90-b7b9-4138-81ab-babb81affda5
b08701cb-5463-4e0f-a1d1-05db48358218,e6c9e920-9c5b-4884-bd45-8aec54ffb47b
9ed4a6b7-8ca7-430e-857e-2c79ffc5552c,75fe45c0-1f2e-4354-bf9b-045c4cc4e2ac
02ea9518-4d62-4aee-b893-dd966045a5cf,638404e8-1419-4782-9e9a-56d7070a7166
e2de5084-7dd8-444c-bd1a-847baffa681b,24e56f6e-016f-4e82-bd30-d5db72f0423a
ce868715-005b-488b-9c9a-272cc9cc6cae,813db5ba-e302-4875-b244-19a7cd7e1147
cd92b41b-ac90-4eba-9e5e-b017661c0ac9,3b33227e-b990-4c0c-81d0-5fddd6f0fdeb
8eba8e42-4c45-4305-85e2-ae017b182cb3,372ea8a1-7fcd-4b61-b961-31634d8d2ff0
863269f4-2077-4de9-a913-479acc1f70dd,c9ef4a83-8c25-42e1-bfa8-0d49474af461
106adf10-237e-4a24-9c6b-b1002c75d012,c9ef4a83-8c25-42e1-bfa8-0d49474af461
5adc8889-4706-4457-bea0-276c2739ff2c,75fe45c0-1f2e-4354-bf9b-045c4cc4e2ac
4ef03227-b970-4115-a689-bfe076302510,75fe45c0-1f2e-4354-bf9b-045c4cc4e2ac
b86aac7f-42db-4334-9438-ecfec49f2d4d,6251fea9-c404-4e5c-8820-e8176bf7759d
d65ecb8d-563a-4d2e-8c7a-73007d951420,566c438d-dd83-49b9-8162-7188e88bd6b1
a98bbebb-49ec-4d61-8aa0-91be98c01103,c71a1fed-4dcf-4dd1-aa4f-e1f7a78f4cf5
513a32a1-4d37-4319-a6db-787163b330e0,4f56e9b2-4d49-4ef6-98d8-cdbacb9e9d04
329f744d-5f9d-44dd-a3db-61b77691a99e,719daa32-410c-4876-af45-460e95278b22
3a4f2d7a-6793-4058-a8d9-a31bf7f38411,627ac3b0-bba8-4b83-b1be-985c91096f86
c88b6250-b10f-460c-9a3e-9da796516153,719daa32-410c-4876-af45-460e95278b22
b3343f7d-ce2a-4c8c-9748-b80bba9325e9,f283ad90-b7b9-4138-81ab-babb81affda5
b2335e12-6fe8-4d6d-ab46-849ab0b6c564,f283ad90-b7b9-4138-81ab-babb81affda5
92573203-2463-4281-8908-98c1a15f12e9,1b2f8b13-2538-4f5d-afca-dd9af038bf7a
d4f55d6b-4246-458d-9a1a-256214d54e53,5bf2796d-a45f-498e-8f86-f0b2e98cfae5
20a888d8-70af-47be-b807-79865944886c,85a828b6-a309-4895-a2b7-ece7d8345c65
88956842-87fe-4275-8480-27fbbe0cea35,85a828b6-a309-4895-a2b7-ece7d8345c65
3a01a9be-0f50-4f48-a24d-b623decb646d,dbbf92fc-d9c6-4967-86bf-00fdba4f39ce
ef6b8d0a-8260-46ce-99d9-cf792c6455a5,e6c9e920-9c5b-4884-bd45-8aec54ffb47b
8e9afc6a-728e-40f5-a061-0664af4681eb,c9ef4a83-8c25-42e1-bfa8-0d49474af461
53a7e379-f3ee-44d4-b74d-12151402d6ed,5775873a-e576-47aa-8dfc-c8c8a38fffff
46ce2ff0-60be-401c-a215-0bd094d89172,350812d6-d8c4-4e54-8f2d-0e52c4de872a
015b786a-5bc7-40a1-afda-831c3f1a43d5,350812d6-d8c4-4e54-8f2d-0e52c4de872a
e40b241b-3cb6-4377-96a6-abab7bf20d55,f1b2beff-a0d2-4ece-98e9-45001a02e672
9bbc80e2-bfcd-4440-9a44-ef5bae908fba,75fe45c0-1f2e-4354-bf9b-045c4cc4e2ac
eac38e85-ed75-4793-b823-309c1fdda7c1,75fe45c0-1f2e-4354-bf9b-045c4cc4e2ac
7c4a27e4-ddd9-4436-8f27-477ef3a86bdf,f28d6752-b94f-4285-9fd7-997991aa9473
86fdb0eb-8389-407b-96ef-812914947c94,85a828b6-a309-4895-a2b7-ece7d8345c65
a0032576-3045-4122-ae5b-752c04959816,85a828b6-a309-4895-a2b7-ece7d8345c65
aa43eb55-b454-4df5-8e5c-cba3278a6264,ea28f3e5-2ec0-44b4-9969-3eadfcbd98e0
f8623d87-026d-4cef-92af-a0b8f43f7649,75fe45c0-1f2e-4354-bf9b-045c4cc4e2ac
0db98a06-80a6-4e46-b41a-7134414d47de,75fe45c0-1f2e-4354-bf9b-045c4cc4e2ac
54fe1fb5-902c-4eaa-8464-01d5dfa17996,2752f020-61d2-4eb6-9c12-17a35f094299
0f43fe86-16d3-4f56-9c7a-f02d943e4927,427e7e0d-a118-4eb1-9de2-95903bf6694e
6b68dcba-cb7f-44e9-8f37-c5b9c8158af5,2752f020-61d2-4eb6-9c12-17a35f094299
8692dfce-48ca-49f1-9ce7-7b1af6479a06,837fa560-0857-449a-a2b7-056090e19e0e
fee3a210-e025-4507-af65-87b345917c2d,85a828b6-a309-4895-a2b7-ece7d8345c65
e61f5c97-ddd8-4c50-8166-4f87f36b8b6b,24e56f6e-016f-4e82-bd30-d5db72f0423a
ee2cdec0-f724-427c-8b52-1ed67b8f6877,3678fced-1ac3-4c15-8e27-b9c7bdcee2a5
5537a12c-2a98-4d04-9ac0-b192deeaab03,e994ef0b-3c26-4e02-905e-2d0f26e41b64
fa0e6b39-22c2-4e42-9e16-5581dd32a55c,e994ef0b-3c26-4e02-905e-2d0f26e41b64
424aec09-2017-433f-9168-c7d2f737e16e,75fe45c0-1f2e-4354-bf9b-045c4cc4e2ac
fe020b16-e368-406d-ab18-fd5553404636,75fe45c0-1f2e-4354-bf9b-045c4cc4e2ac
3a374288-2363-42e4-a37c-05e1d09b8657,5df9deed-8580-4ab1-bc2b-e36160ae76ff
89d027d4-6b9e-4c69-a95b-e079a59e951a,e994ef0b-3c26-4e02-905e-2d0f26e41b64
8e98c604-8739-4f3f-a5b0-eabaa9e89a9f,e994ef0b-3c26-4e02-905e-2d0f26e41b64
e1dd6757-0bf0-4918-9c85-3b06cb3bff15,4c6a9425-4427-4a9c-9dfe-49cab9b5f94f
88e4f5c1-3c92-4c44-89a9-f7bbf0c2dbd4,75fe45c0-1f2e-4354-bf9b-045c4cc4e2ac
51479d02-45bf-4e61-bcb5-b97e740dc1da,a117d0b1-6ebb-4e70-9e6b-9026f5178997
efe781b9-b951-497c-bfd9-382168e10bfe,75fe45c0-1f2e-4354-bf9b-045c4cc4e2ac
d4531c7d-c8ee-48fe-810c-8faa6787ca73,85a828b6-a309-4895-a2b7-ece7d8345c65
560deece-7037-4142-afb4-671e180f15de,75eb3c24-d0cf-4dad-99f4-a1bc8ab45aab
43dd8d12-c3d4-4dbe-b1d3-ce24f7f42b03,85a828b6-a309-4895-a2b7-ece7d8345c65
d1b93d88-0771-4f72-b08b-1b7411084804,c71a1fed-4dcf-4dd1-aa4f-e1f7a78f4cf5
f7fa988c-20a1-4529-9766-7d79f98ddc7c,2bac3fef-e160-4dba-9d96-581954f613d8
d3e3aca3-a615-4ad1-80c2-460ba5e48cc3,813db5ba-e302-4875-b244-19a7cd7e1147
3296b037-7515-4b94-8e6e-4642fdf3cf20,c71a1fed-4dcf-4dd1-aa4f-e1f7a78f4cf5
713d3a8a-adb1-4d4d-b294-73a674bf3c32,0ff2e78b-2143-48c0-9512-deeb8d445dc2
8c6f7846-90a1-4fc2-a417-f6630a347e87,813db5ba-e302-4875-b244-19a7cd7e1147
ddeaf5b0-02a2-4f27-8c01-4632fb2e6442,e994ef0b-3c26-4e02-905e-2d0f26e41b64
9658441b-40d2-408c-b7df-d45d0865aad7,e994ef0b-3c26-4e02-905e-2d0f26e41b64
0622e20f-f17c-4a96-b135-60142f3c476e,8fc49457-03a4-401d-8270-0c3d8bab9866
53127e76-12bb-4e23-a99b-bac69971a592,138f4d70-f2de-4221-9ffc-fe37d3040e98
a1035001-0e4a-4c4d-acfe-e6ef8ee05c10,813db5ba-e302-4875-b244-19a7cd7e1147
d7a86ba3-d47c-4411-ab79-0e1b0db1a6ee,813db5ba-e302-4875-b244-19a7cd7e1147
120b6ec4-7a61-45f9-92f6-c313d3bfb22c,c9ef4a83-8c25-42e1-bfa8-0d49474af461
42c14a84-d8d8-48ee-9086-06846e28d35d,ff68188b-daad-490d-b4eb-a81213618586
9981fbec-341e-4b47-81b0-473afc47cfe8,c9ef4a83-8c25-42e1-bfa8-0d49474af461
3389e7d8-f265-4755-9645-0f5a631c6b29,166bccc2-7be5-47ee-94b3-decbd9facf22
5aa31a2f-8f63-4e5c-b7ab-73664d062401,c71a1fed-4dcf-4dd1-aa4f-e1f7a78f4cf5
8489bd4a-71e4-4802-a52f-b0f1c62dd93b,c71a1fed-4dcf-4dd1-aa4f-e1f7a78f4cf5
d1511630-c305-4fdd-b14c-1c0b997973a5,c71a1fed-4dcf-4dd1-aa4f-e1f7a78f4cf5
94e0a098-aaac-4c2f-88ad-b889b7cb72e1,1f1db2f7-bd47-4ed7-b5e3-1831f9ed302c
7b0620ae-21f7-4b48-b767-d4e8a0461f4e,c71a1fed-4dcf-4dd1-aa4f-e1f7a78f4cf5
de24ca69-260f-4d5a-8477-254f46c2eb5d,199cca35-05ee-4bdd-8997-bd176d763bc4
8f36c91b-7795-4a69-9948-f97f344e362f,e994ef0b-3c26-4e02-905e-2d0f26e41b64
0b3f8b7c-4015-4872-9910-affef4692da3,e994ef0b-3c26-4e02-905e-2d0f26e41b64
6b891e5e-e75f-48cd-8735-3449dc360e98,d8bb60f4-1bfb-40e1-afd1-799c18eed719
310763f7-bd8b-4329-bdb4-8504b3213928,24e56f6e-016f-4e82-bd30-d5db72f0423a
e9f4d035-a75c-4462-8abc-a1bfe57a7a29,24e56f6e-016f-4e82-bd30-d5db72f0423a
34fdb99c-e862-408e-9efb-8fd093a2cb36,24e56f6e-016f-4e82-bd30-d5db72f0423a
4cc11f9b-c39d-4354-8e49-c09cf09e73f1,24e56f6e-016f-4e82-bd30-d5db72f0423a
c12d065b-65fd-4421-bb78-dad9042eab9a,0f364efa-76f0-4096-a242-6934f0232966
b12b71de-b30b-4da9-bf9c-eaf475179dfb,6b1d53b1-df7c-49a0-8b0b-3b48ea240676
4f16b0bb-15e1-4e4b-8a71-1ee3eeaee81b,24e56f6e-016f-4e82-bd30-d5db72f0423a
69a884ea-3329-416d-b9b2-a33f6d374c27,24e56f6e-016f-4e82-bd30-d5db72f0423a
161d0fb7-905f-4aea-84f5-6b0ec5f717bd,21814d3c-2152-474e-aa3e-55e3afd24b0a
cb89dec1-d83c-419a-8e55-63348731da47,24e56f6e-016f-4e82-bd30-d5db72f0423a
5bae866b-6847-413e-9b56-e62bf27501ec,24e56f6e-016f-4e82-bd30-d5db72f0423a
ab976377-f7cc-4219-86fa-f1d187d2084b,e6c9e920-9c5b-4884-bd45-8aec54ffb47b
636a8756-99d4-4dc7-9753-bd3ef2a47389,e6c9e920-9c5b-4884-bd45-8aec54ffb47b
1587ec5f-0ff5-4963-ba6f-21a84289d34d,bb95c59a-d341-4305-9d9f-a899f2db849d
66c1dd36-d481-4162-8990-93e9a581a5c8,24e56f6e-016f-4e82-bd30-d5db72f0423a
72b80ed2-74b3-41e4-8875-ea009e994930,24e56f6e-016f-4e82-bd30-d5db72f0423a
02e2b618-f34c-49de-a529-7383ede5ffa2,e40cd45a-5dde-425e-a74c-723a8330a3a1
26cd0d57-91a5-407d-a76c-8d427238d961,216207bb-f37f-401b-b94f-e8b0cd5bc298
03d8e423-e0f7-4474-a8ac-80191686e732,e994ef0b-3c26-4e02-905e-2d0f26e41b64
b26b5390-575a-4770-97d4-6945dd3c2cda,e994ef0b-3c26-4e02-905e-2d0f26e41b64
f09a11bb-72ed-43c6-af9c-38263b72d8a6,1056e598-bf22-4c43-8a74-039c3e6e0995
3f4abed9-4d6f-43b8-9e7e-bab333f589e0,1056e598-bf22-4c43-8a74-039c3e6e0995
a1be1e3a-5486-416b-b7a0-0ce7d71f027b,10328f00-3e85-45d8-8713-eac84f2a7793
1885bf28-6c19-4282-906a-b69303112bbb,85a828b6-a309-4895-a2b7-ece7d8345c65
80639b6a-34a2-4c31-9bed-6038761c4989,85a828b6-a309-4895-a2b7-ece7d8345c65
fbad7435-c22e-491a-aba6-2ef5d115a497,d913ae42-dbf5-45eb-8d35-98120591053e
45245a3f-c945-401d-a0bc-a00d680ef9c7,85a828b6-a309-4895-a2b7-ece7d8345c65
f6471ffd-3e14-4c7e-af7a-0a9469ec3afe,c8f3dc51-a95f-471f-a63c-c812c072af06
bb276caa-1d35-4f5e-a3c6-4015bc5ad22d,85a828b6-a309-4895-a2b7-ece7d8345c65
3eded2fb-51b7-4228-81fe-90fe0355a674,b4016ab0-2e54-4e0a-8184-baac9cc0a23b
09abf4bf-bf9e-499c-9fee-b848c5b4589b,350812d6-d8c4-4e54-8f2d-0e52c4de872a
88fa045d-8281-4da4-b934-3dfcbdc412fe,350812d6-d8c4-4e54-8f2d-0e52c4de872a
6d17f72b-cc1f-45fa-91a6-a2789afc633b,cba79e1d-d0b3-4427-95f6-12389ee30ca6
e6d2ce1f-2848-4acf-8209-190621f8d221,b1faefaf-2c40-4653-88e7-a8de15199467
83755851-5dd6-4960-a516-fd5431a6a23f,b1faefaf-2c40-4653-88e7-a8de15199467
6efb6ed6-aa21-4d70-878f-8dea9e7363bc,6107f464-8d56-4e62-a07e-1ac1b2e2918a
93d984d0-ec05-4f12-b40e-26834006741a,b1faefaf-2c40-4653-88e7-a8de15199467
f6ab2851-1f3c-4cf2-9bbc-33a97d580d2f,b1faefaf-2c40-4653-88e7-a8de15199467
b8b7cf8c-5972-42a2-a47a-300a416a9094,b1faefaf-2c40-4653-88e7-a8de15199467
61de060f-6fa1-47c8-8e11-4b2759eaee94,651d6116-845b-4cd7-846c-f3fae75b7717
22fe4426-3d30-48b9-8101-0660100c7839,b1faefaf-2c40-4653-88e7-a8de15199467
