app_number,app_id,trigger,burn,sink,deploy_date,token_interval
1,0f34c8ca-d0b2-4aa4-8d2e-592608c78892,f397aa0a-28e0-4ae0-9563-7c537204024f,dfc966aa-4309-4741-855d-b752e35de8f1,a36e7989-c4c8-4e81-92e5-1fbaeaa906ed,2019-09-24 22:21:33,1.000000
2,9cbb0187-6adb-446a-8504-4b7e6ec2cb41,4ac90c3c-bde8-4894-b393-d1a9e9b5a6e7,b8dd3467-ead2-4e5c-9e85-44a0ba26aba2,af621733-8927-4dcd-9fc1-896ae4d2d7b9,2019-09-24 22:22:37,1.000000
3,dd83dd20-6062-49c1-b8ee-67febbef51f5,5c9bb521-dd1c-4088-bc6e-296f161d4634,2f284a37-b3d5-40f2-958b-773cf510cf33,7e23affb-d3fb-4ce7-8455-73148d0a1457,2019-09-24 22:23:40,1.000000
4,fce4365b-b6c1-4b1d-aba6-3d22c775a68b,7283d496-c538-400f-b4e1-fd502805ba77,40b3bd4d-8941-4b6a-8f6f-6672e21fbf95,ec215c3b-6383-4e60-a5d2-ed27a2d19dba,2019-09-24 22:24:44,0.200000
5,245957e7-3e8a-4c9a-ad6f-95d7db811cdc,c1859b15-2561-4813-b909-7b2b1a4a96cb,4337535b-1cf2-43ba-ba17-9c874d0dc2cf,73c93d6f-923c-49d4-9e1a-ad79b8cd6aec,2019-09-24 22:25:48,0.200000
6,a49c56bd-e551-415a-b7a1-8380e63f3be4,20d90632-2009-4ec0-bdc4-c3db55fe4d28,8a8ee157-8a35-4992-bc63-2b481e0382e9,01e40003-4a58-4033-9430-7639fc9422f3,2019-09-24 22:26:52,0.200000
7,219db20c-6c94-4b49-a8e1-214e574fa675,37479c7c-9220-4628-ab6d-ee7ab0ac6dba,55e0ba92-08aa-4a36-8bda-afbc3098659d,b193e771-dd37-4ee4-9a41-70e745dd5c4f,2019-09-24 22:27:55,0.200000
8,270fe0fc-6124-45b6-bf3b-a825c80d3dd4,db2b26f0-d94f-4e53-9027-f861ab792319,649ef177-813c-4967-bb41-52927c0142e5,62c3cf2b-d5bf-43b6-95bd-144f2f6eaf86,2019-09-24 22:28:59,1.000000
9,9536b294-a379-41ac-844a-9a890e4a8aa5,a69b9b25-9aca-43b7-8099-d6c009890437,ddbc2b1c-8c57-4a42-b4a5-75e2f1d241de,ec16bb33-6539-4fa5-afce-88b8fbf133b0,2019-09-24 22:30:03,0.200000
10,881f44e8-9ccb-4627-98da-4015ae32ea10,12012542-7b67-4579-9dd8-a5f586f75f2f,211d6fbd-f047-468b-99cf-559f6922c8d5,47607b1e-6cc7-476b-8725-1a715d6a34f2,2019-09-24 22:31:06,0.200000
11,f6fa4133-4ffd-4327-9b47-aaf4aba5032e,bfade76f-b1eb-4a53-9b85-3006a3e897f2,950f45c0-9fe6-46a4-97a9-9e189f958865,7c2fd684-0b4f-4a8e-961f-14e9c09833b7,2019-09-24 22:32:10,0.200000
12,98317584-231a-49ba-937f-5fe26c272188,f04d1c2c-4dbf-4ab8-9a1c-10baab8c30fc,2d2f5e94-ea1f-4865-90b4-4fb91357d7bf,06a8a8c6-e3c8-4d3a-973a-91318f55fa8c,2019-09-24 22:33:14,1.000000
13,77873b60-f090-45b6-99fe-924a351d4da3,655af4c0-452c-4d9c-acf5-f5994552a6e4,be698048-793e-49e5-8b15-f69f8fbdcef8,cf7dcae9-f19f-421d-bba9-cf986d3ff9d7,2019-09-24 22:34:17,0.200000
14,ccd83343-eede-4f07-b072-5c11a06021e0,18ae3d10-a87a-47c5-9194-cabecbf92d06,26103979-94ef-49c8-9789-de9a9a68e133,33a70ef5-824f-4df7-b5d9-db6fe69fce7b,2019-09-24 22:35:21,0.200000
15,b2119d91-fe87-4155-80c3-c465c5fa8184,73bd3497-e048-4ca9-80d3-c9b6d530219d,49514cc3-0baf-4eb0-9751-51d1b9981d0c,676e03dd-9864-4e19-bca7-a188b93a212d,2019-09-24 22:36:25,1.000000
16,02fe4120-fad2-4090-a855-d2da15006d01,c86fc552-9334-4544-b078-c1a66034f3b9,60eaffdd-7dfb-4b9f-9511-980f529d15c5,2de3655f-996f-4ca2-8cb5-be0fffd71c62,2019-09-24 22:37:29,1.000000
17,f97b11af-10a1-413e-856c-2142456eef26,38edf4ac-2c9b-443d-a7a6-ddd920b4638c,fbc8350f-a331-40c7-a3f4-a6bb3b149cfd,4bcac095-886a-4437-8b31-e18dfa194ad6,2019-09-24 22:38:33,0.200000
18,5c45acd5-6041-4673-93e5-96386d38f0f1,36d81133-a430-4e9b-8198-b24e88bd132b,7c52a010-c553-481e-b4d2-0ee17e096c30,cb3425ab-c07d-456d-a971-2b80941d0cd8,2019-09-24 22:39:36,1.000000
19,4a9e275a-8c5c-43cc-9cc3-3dde3fee9ffe,d90fab36-6ebc-4b92-be56-3e11752cd40f,b23dd8a3-3a54-4527-9452-0addcae053ab,c8413907-8422-4eaa-90f7-d6d15aa018b5,2019-09-24 22:40:39,0.200000
20,40986846-56c2-4c7f-974d-b9ea97ef2293,7e85da41-8267-47b9-bd34-71e0fa2d9151,e1c54197-3d9c-4d19-9c12-15de0c7c6299,103e9bc2-b3ae-4738-bb6e-cd61526d597b,2019-09-24 22:41:43,1.000000
21,3e9c1f93-566a-45dd-af31-8059fb909dee,cfdaac7a-157c-4388-94e6-cd27f2544587,f83e6279-877f-4e46-8a33-e35dcb7fe852,b0d27b51-2086-41cf-bdeb-1add70e71526,2019-09-24 22:42:47,0.200000
22,ec123932-e539-409d-bda4-e7b728ab1c8a,d5a33c62-6c15-44c9-8bd5-64da7c678e7a,7ca7a2fb-1aec-47a7-9474-db62eccf04ba,5da150ea-043c-401d-beaf-faead2d1dd3c,2019-09-24 22:43:51,0.200000
23,5f59bdf8-6c30-48e5-ab09-eccf67fa12f3,bd578a5f-afb8-4a12-8200-b23394504d30,6d827991-5551-4f23-bba5-eed4fceec3ce,fab9c8bb-df54-41b0-9733-1b450cde01bc,2019-09-24 22:44:55,0.200000
24,fcc60b0a-ecda-4efc-89d0-7fb2263a7472,f5b2f1e6-72eb-4570-9bb6-5775db21c36e,844eb422-1bf7-43f1-93b3-45d7794b5a3c,bd8350c3-bae0-4963-858f-06a1ab3fc051,2019-09-24 22:45:58,1.000000
25,793fe1ea-bf10-4a9a-85cd-0dbc4a2c8759,d4639584-4a2e-4286-ac6c-a6b1916a04cd,58095d14-c1c1-473c-a47a-7bafd3daa656,406debe9-18fb-4d24-a78b-795709e08d77,2019-09-24 22:47:02,1.000000
