actor,node
b3194397-aea4-4493-a751-9f5d85e7e83f,ea67f23e-efed-4967-9220-7df1f5cb2e7c
3a4beb7f-e350-43a6-bf34-77d4ad484be0,eb7293c6-600a-4ee6-ba2c-8a877e521cff
6c8a5f77-8833-4fe7-b4e7-bdd959e7504b,eb7293c6-600a-4ee6-ba2c-8a877e521cff
fb447f18-bf41-4925-8eea-8561a7db8473,ca1f888e-358b-4950-9f36-f8e158822238
3fd5b66a-d751-47eb-b815-b32e1832a2ce,f92e496a-b98a-41e5-8459-325f3ffeed65
d207957b-56e1-401f-9800-eb31152588c4,ca1f888e-358b-4950-9f36-f8e158822238
0dcca817-9cd4-499a-833e-f90c58d3a3eb,bcf4c6ed-2131-4de6-8cb7-4e8e25fed263
eb509b96-60aa-4780-8ed0-47432155b1ed,63569f61-894c-4ab4-a838-5d8e2e45be2c
69fbc773-9df7-4a95-9ac2-8cd410515b40,bcf4c6ed-2131-4de6-8cb7-4e8e25fed263
943f969d-6d87-4509-a8ad-cbe964d1b357,07448ca7-7b0f-4b15-8bdc-bad5c53c224a
0359cb55-7f79-4f78-94ea-992cb4fb57af,70b8f99a-574b-43c3-bcc0-e64b8ea29880
d51ae779-18fa-4530-933e-6c4085dcf50d,70b8f99a-574b-43c3-bcc0-e64b8ea29880
56257da3-7a07-4fa9-9c3e-d93e7b8c71be,638a2ab6-9f87-44a2-88d4-a757427cc4af
50c80196-a385-4961-9b3e-851c9523968f,3b329acd-edde-46d5-8121-f5d396df10af
12599822-669f-4cda-be4d-a8baf7438c3e,638a2ab6-9f87-44a2-88d4-a757427cc4af
6fc8b88a-8aff-42a6-b570-9117b582f081,25062f2b-7a38-4373-8fd4-a2afc490f6d5
6da14d13-3758-45af-a943-922b078653d2,046b885b-6a96-4a08-b899-13e9c05f8f34
92dde512-4079-4944-9fb7-85408ea521ea,25062f2b-7a38-4373-8fd4-a2afc490f6d5
e0a8c8a2-550f-4c63-b5f8-744712594637,c05029ca-b8e0-41c3-9f12-0ed376eaa466
be93dce9-ef02-4193-8523-e4cb4c7e0567,cda48ecd-d3b7-48f2-af20-c4ed94172043
45bb29b3-bb54-43bc-8a51-13ab32f0cffb,cda48ecd-d3b7-48f2-af20-c4ed94172043
5dfd22d6-6d89-41e1-990c-6194e569547b,47d66b27-039b-4af1-8f8a-6d59d16e8d5a
78bab786-a0e5-4b07-a952-c00763ad32a9,47d66b27-039b-4af1-8f8a-6d59d16e8d5a
43b3eec9-1b8b-48fb-a66a-1ab0590226c9,4863905c-f898-4c07-92dd-6c2417a411c9
b44522d4-8829-4240-9122-363e237ffe83,a8d2fdc0-620e-45e8-8911-953da9b6e1cb
46df8c5e-8ef9-43d5-93ce-fc895d33ddb2,0302b7c5-21f6-42e7-9809-039fec1aebe3
40b3fe2d-9e7b-4c94-8c31-6d149c0dac8b,0302b7c5-21f6-42e7-9809-039fec1aebe3
d3ae821b-1dc4-4fc9-9bf8-dc3eddbc261d,95f53a40-24b4-4353-b85a-4ed772cca41f
565de662-6d24-4471-8a77-63d99cac837a,0a845652-e116-4729-8f18-e3766d790c26
8bb06e95-9290-4992-b259-584d77e15d25,0a845652-e116-4729-8f18-e3766d790c26
42be242b-e427-402c-aefd-ef5a1072b879,3a24c7d3-de0e-4ad7-b22b-7204ff8ca85b
0fd286e7-08de-4647-9c29-90ed85445e4a,c958b6f5-897c-4c02-94a3-4815cebbaa40
f028516d-7809-4a80-9e8a-cb52a3483e85,c958b6f5-897c-4c02-94a3-4815cebbaa40
3f298f20-e69e-4135-8363-9c6074aebd79,873d9fea-cdf5-4eb2-8e42-faf1a55fec82
671c8892-3fd0-42ce-85bc-57f29872fab5,1d20ad9e-5601-4915-bde7-5a14cad274e5
177c1523-053d-48b6-9adb-6908a8cda4b0,873d9fea-cdf5-4eb2-8e42-faf1a55fec82
a52945dc-e427-476b-8696-4b7c001b0eff,132751e7-40f5-4e97-9ea7-c28f928ccb65
f9574f22-9e2a-4d85-ae25-a215b5fa247c,de12b7eb-0465-4dda-bf87-e24cbfdbd9bf
06f5c17b-d394-4ee5-a83c-a55797ab74d2,de12b7eb-0465-4dda-bf87-e24cbfdbd9bf
f90b2c5f-5e95-4f97-a70d-3c37d031c8a8,333b8a75-3c86-4dbe-b3b0-c2582bf6d1ed
219e7352-f572-426e-837d-faed7e5bfbef,333b8a75-3c86-4dbe-b3b0-c2582bf6d1ed
f9199216-55c0-4559-8963-8a224f8499f3,69b35d5f-ab50-4a5c-a835-752aa0f324d3
3c501663-8436-4f05-9216-968092a318ed,eb7293c6-600a-4ee6-ba2c-8a877e521cff
e5d8b745-c29c-4522-9a63-83b98e864e9e,eb7293c6-600a-4ee6-ba2c-8a877e521cff
2fef528a-b683-49a5-b6b8-b027a1c43a33,a17a5718-000c-4bc5-a6f1-e64f6044221a
a11d9fec-3190-4fe3-a57f-aae505a4eec7,ca1f888e-358b-4950-9f36-f8e158822238
bac3e3d5-0b14-471c-8b09-0e9fc0a9d9d8,ca1f888e-358b-4950-9f36-f8e158822238
1847348a-fa5a-4adb-b51a-db92696b6636,6d9c8305-4582-400e-baf0-62bed4f395f8
dfef54a1-d2d1-4613-a075-2bdd5f11cea1,bcf4c6ed-2131-4de6-8cb7-4e8e25fed263
46126471-64f7-475b-916b-b110c3b44e69,962a22de-1dd4-46be-bb5a-8a4320937fdb
cbabf2c2-5f55-4d45-aa0e-36ab6eac4e47,bcf4c6ed-2131-4de6-8cb7-4e8e25fed263
3f485758-7193-4462-97e2-f11d1d96bee6,70b8f99a-574b-43c3-bcc0-e64b8ea29880
9a0f67b4-cdf2-4dfc-9a8d-9955b093ce3a,70b8f99a-574b-43c3-bcc0-e64b8ea29880
cacba06b-3121-45bf-970b-de89048ed882,52dee749-a5da-4a40-8a90-500d40912e77
a2904345-30d4-4a49-b100-a933337ca038,9e4dc76a-ee53-48fa-97de-51aa64c18c55
a63e32e1-cbc3-42ef-bcd1-4755694d79ee,638a2ab6-9f87-44a2-88d4-a757427cc4af
1115926d-5a27-4319-8b48-a0a8a7225fa3,638a2ab6-9f87-44a2-88d4-a757427cc4af
1961c87c-484e-468c-9902-c7f47d019d16,25062f2b-7a38-4373-8fd4-a2afc490f6d5
db603011-5265-4ecd-b8f6-e7327f5db8a7,25062f2b-7a38-4373-8fd4-a2afc490f6d5
75feb2e4-1050-422a-afb2-e6b9026a2ffa,fc040899-d37c-40d5-9b2c-c37a08e296e1
14fd2b4f-1bc2-445a-bf33-5a2627fde4ab,bdf7327d-4039-4fe7-b505-b3ef7b873179
5dcf6f70-178a-43c0-910b-c86bdd5f87b0,cda48ecd-d3b7-48f2-af20-c4ed94172043
4e61d911-3f2b-47d0-96e4-068701b5a855,cda48ecd-d3b7-48f2-af20-c4ed94172043
76736f9e-bdcb-46cd-83b7-014bea295c69,9ce0303a-8f3f-42bb-b483-a7123ba96654
a23fcc65-4933-4378-a8d7-cc072ba302a8,47d66b27-039b-4af1-8f8a-6d59d16e8d5a
ec499e21-a42c-4d8a-8e6d-6deb998e58c3,47d66b27-039b-4af1-8f8a-6d59d16e8d5a
4500c91c-4c0d-4079-adc9-8f55f0a1e893,0302b7c5-21f6-42e7-9809-039fec1aebe3
3592694c-9b45-42e9-93f8-cc365db03b0c,48bf19bd-fbcb-46a0-99c8-f307a93a6dc4
c07bbb44-dcb1-422b-aac2-f340a9f28e10,0302b7c5-21f6-42e7-9809-039fec1aebe3
ecef034b-e1f5-4ce4-a794-530888c93f94,bc87174b-e37e-4657-90bd-a237d1db417a
8f96c7d8-7a2f-4d62-99c1-bb86685e7e06,0a845652-e116-4729-8f18-e3766d790c26
375e715e-a830-4eae-b459-42b917790c87,0a845652-e116-4729-8f18-e3766d790c26
43f8ce16-3353-4ba2-a477-f55012a0d519,c958b6f5-897c-4c02-94a3-4815cebbaa40
65541350-d153-40ac-9c70-468a7adf1c63,c51cc7c4-54ce-48d5-9655-e02be1cb646a
0cec1507-cb00-4d6f-ba1f-14daba10ed28,c958b6f5-897c-4c02-94a3-4815cebbaa40
d9171a50-a00e-4638-903a-821889c8743d,873d9fea-cdf5-4eb2-8e42-faf1a55fec82
bdecdde2-d782-45d1-b680-faba90306515,873d9fea-cdf5-4eb2-8e42-faf1a55fec82
92961afc-f4e6-4579-b491-493ebb2954be,5d202b2a-21ae-4069-bdca-4271e5e7dc3b
8b939acc-2b18-41c9-97a4-d219a0fdcc0a,de12b7eb-0465-4dda-bf87-e24cbfdbd9bf
4a94fc35-cbbb-4774-b065-31dcd2e60020,2f83e95d-d250-47ef-81e3-ec4a856bf574
a79f67fb-f229-4c1e-94ff-abcbafcf3340,de12b7eb-0465-4dda-bf87-e24cbfdbd9bf
dce94b17-d68c-484b-8a3b-deec340115e6,333b8a75-3c86-4dbe-b3b0-c2582bf6d1ed
103622d7-bbb8-4a64-8336-72a57996b261,4e391985-c582-4301-a172-e74377924c9b
ea86d79d-29bf-4b6f-9d68-e61f7dae9b36,333b8a75-3c86-4dbe-b3b0-c2582bf6d1ed
8dcb5db7-0b7b-4ac6-b728-2bbab086debe,e7bcc48b-a80b-4108-821c-a8524477a234
3c8e4166-0d9b-4fce-9ac4-461f5e95aa6c,eb7293c6-600a-4ee6-ba2c-8a877e521cff
3855476b-98e6-49e2-aa76-d85b2e2126cf,eb7293c6-600a-4ee6-ba2c-8a877e521cff
fd30ec54-97a2-4e90-9f35-c2cd5d157444,ca1f888e-358b-4950-9f36-f8e158822238
03b222d4-faf9-4675-b5e5-80452a7e2291,e6ecb36a-ad0c-44a2-ac40-71b27bbec074
0933442d-d578-4b83-8501-7e826ac2956a,ca1f888e-358b-4950-9f36-f8e158822238
ceb36e93-e8a5-47a1-a05a-79b72346eeff,bcf4c6ed-2131-4de6-8cb7-4e8e25fed263
62275e0a-c2d4-49a0-a952-e65b05d5aab9,bcf4c6ed-2131-4de6-8cb7-4e8e25fed263
b764fd63-1147-46aa-80c3-a8c13aeb5696,41ac7f0b-7a75-4658-b2fd-945313195139
a6d9dd65-da3c-489f-a3c6-226968f1a932,70b8f99a-574b-43c3-bcc0-e64b8ea29880
955b6aed-d058-4a78-aacb-f07c88f45f4e,70b8f99a-574b-43c3-bcc0-e64b8ea29880
1c9abb10-d62b-49cb-b2ef-f175da07ce88,c4d7b838-1f12-4709-b8c5-4b39d2fa0c16
108395ff-a749-48e9-9725-487a8ad0bcc8,638a2ab6-9f87-44a2-88d4-a757427cc4af
70db6b20-0ea8-4f58-9065-7a196eb53da3,638a2ab6-9f87-44a2-88d4-a757427cc4af
1282d610-c768-48ee-9e3f-19dac27a4808,80532906-c941-46d4-8f0a-7e96bfd6dd1f
a78d9ffe-cb8a-4764-b81e-0aec7b0cafe2,84078b86-dca8-4fba-aa6d-037667523f8b
d348b9ae-0c64-4787-a206-97c96d9d0439,25062f2b-7a38-4373-8fd4-a2afc490f6d5
f4c09f75-7191-4af7-bba1-b91204767eef,25062f2b-7a38-4373-8fd4-a2afc490f6d5
b0a0cd56-c8ff-4554-9255-4140794884bb,cda48ecd-d3b7-48f2-af20-c4ed94172043
4ff8eb51-ee56-455b-9ca3-02bedaebd69c,3dd8bc5b-e9dc-484c-9262-dd5815736de4
a724fe5c-65a1-4ebd-b177-d5bed49725db,cda48ecd-d3b7-48f2-af20-c4ed94172043
047fef96-fd03-41ab-ba1d-bc1955e6c331,47d66b27-039b-4af1-8f8a-6d59d16e8d5a
65f7ff33-ddea-416c-a098-52317468e86b,47d66b27-039b-4af1-8f8a-6d59d16e8d5a
c45e5f15-2975-4e7c-9bbe-5afaf4502871,50751171-35d4-4f97-ba8a-c8b3f15daec7
7370dfc8-eea6-49aa-be69-4e71c9b6015b,0302b7c5-21f6-42e7-9809-039fec1aebe3
3c14e78f-e203-49c5-9cc2-2fa60c24fb53,0302b7c5-21f6-42e7-9809-039fec1aebe3
e7b23f00-8c65-4c6b-9ca3-4dd112d197ac,9c2384db-3163-406b-8b37-b7d559e26cbc
80d41c5c-318e-434d-b922-f296b643df97,0a845652-e116-4729-8f18-e3766d790c26
9e377e1e-58f0-4d36-b00e-1ca7302eedc5,88223a73-57da-46d8-81c5-f09951e52105
c11de5ff-ea7d-49a3-bf92-5c5c396ee52f,0a845652-e116-4729-8f18-e3766d790c26
c66dc626-d421-4daa-a885-a7b78438fcea,c958b6f5-897c-4c02-94a3-4815cebbaa40
94491c95-8d37-441e-97c0-f50888446b1d,c958b6f5-897c-4c02-94a3-4815cebbaa40
73beae4d-591d-4481-89d8-3017d0061da0,9735c4a2-cf95-4f98-a7d8-ee4ff82da04e
aaf09a32-514a-49de-9b10-1d07a81ae088,e403ae2b-fbe9-4e32-9b25-c33da6ccb9e7
7109e92a-5285-4a60-b777-0b2383eaa50c,873d9fea-cdf5-4eb2-8e42-faf1a55fec82
ffdc81a0-c381-4704-9020-9ad660c986bd,873d9fea-cdf5-4eb2-8e42-faf1a55fec82
91049661-b120-49e2-b273-300c0b0c5dc8,603573ba-e778-40a6-bfb3-738a6693965e
917d40d5-3754-4e02-828a-7207b1d87a79,de12b7eb-0465-4dda-bf87-e24cbfdbd9bf
c7f364f6-bdce-4a42-9dd3-ba376d3402a8,de12b7eb-0465-4dda-bf87-e24cbfdbd9bf
c34d2c56-137c-484f-bb19-cbb6fc0b6d46,333b8a75-3c86-4dbe-b3b0-c2582bf6d1ed
346e64d5-5032-40e0-87f2-b5d3282ad6dd,cb224079-cf04-4890-bda3-ecef6bb48987
b6c096e1-ed4d-47c6-ae3c-21190a010926,333b8a75-3c86-4dbe-b3b0-c2582bf6d1ed
e2074db4-4a0e-4bf3-846d-dfe726e267c3,eb7293c6-600a-4ee6-ba2c-8a877e521cff
da8ec70c-e560-4e13-b47a-494252d653f9,a2413a32-1345-4b3f-ada3-35d14f87a47a
7a414139-5328-4f40-8cd9-83fcec5ca064,eb7293c6-600a-4ee6-ba2c-8a877e521cff
f5d3f8e1-7a57-4e84-8e92-0b5db440c902,ca1f888e-358b-4950-9f36-f8e158822238
e710ecf6-7691-47d6-b282-0875720f4c8d,9ca1c49b-5979-422d-b0b9-6740759639b0
fdebd82d-e6b9-4cc5-804c-838dcd05cce4,ca1f888e-358b-4950-9f36-f8e158822238
9b54a301-6787-4c06-8c88-461b09945e50,bcf4c6ed-2131-4de6-8cb7-4e8e25fed263
38bf1a59-98f7-4cc2-ba0b-2afb452084c4,ead43783-77b7-4ac5-9309-63c8b93811eb
63963989-2f06-4f79-a133-9bf1faad21c7,bcf4c6ed-2131-4de6-8cb7-4e8e25fed263
4f779a57-561d-46c0-a071-6d377ec272e7,70b8f99a-574b-43c3-bcc0-e64b8ea29880
ed93a8d9-3b11-4a23-9ff7-e72e7a264342,70b8f99a-574b-43c3-bcc0-e64b8ea29880
59897995-ffb1-436c-81cb-f0ef20e725ff,e34fdea1-0b94-44d6-877a-6ae72a6d7c8f
92e1c635-07f4-4ec3-b2be-77c29689d606,638a2ab6-9f87-44a2-88d4-a757427cc4af
7b8ce8db-11ec-4b72-88fa-22d6cf74e022,e8229233-dcce-4174-afb5-4adc8a213137
a1d62666-4e53-44b7-973c-52910373cb11,638a2ab6-9f87-44a2-88d4-a757427cc4af
a509a69b-2af6-4399-8e9d-773217ad716c,445fde3b-96ca-4853-8b45-91ed9baa83fe
42440d9e-91b1-4941-b68d-a33635bda2f2,25062f2b-7a38-4373-8fd4-a2afc490f6d5
12fe00f7-3175-41dc-bb56-b6456346f79e,25062f2b-7a38-4373-8fd4-a2afc490f6d5
8f557b68-3a78-4d65-81b5-773573cd092a,cda48ecd-d3b7-48f2-af20-c4ed94172043
3b669af9-c895-449c-aca6-7717c956ff82,cda48ecd-d3b7-48f2-af20-c4ed94172043
87204a3b-7ba9-4739-99de-95f94b6c085d,0b975d9b-cac5-4841-9e7a-bff34ae2f13c
83b0fed7-f51a-4451-8483-0aa724080f8d,af6f7414-85e5-4c2c-a206-72c681c6f211
8c66cc7c-d037-4778-b2e7-53e5ab4f189d,47d66b27-039b-4af1-8f8a-6d59d16e8d5a
65ef29ca-1d33-41be-a93e-962b23a6238a,47d66b27-039b-4af1-8f8a-6d59d16e8d5a
