app_number,app_id,trigger,burn,sink,deploy_date,token_interval
1,76c4a94e-4d26-4116-b0b5-9f93ccc21ab6,b4899454-f4a7-4818-8f71-ca42874c1849,4e5996ac-6aa7-4515-8e00-85a06f604a88,fc21dadb-fe5c-4a42-bc88-ac2d613db276,2020-02-24 23:33:44,1.000000
2,838b1f3e-a8dc-458a-8277-e8260754abe6,75f6762a-3852-475f-b4e5-b7a52052894c,d4df8ae9-e99f-492c-b85e-a322867b1397,432e78ba-5be2-4ad7-8a46-2bc92fa71e68,2020-02-24 23:34:48,1.000000
3,7f4d434d-81f7-4b79-bc84-56c12873dcc1,6b5bec0b-a36a-49dd-b43c-afde8587951e,52854bfe-edef-4eb7-858c-e952dbea5110,a057907f-0c98-4325-9704-3480de2e2a68,2020-02-24 23:35:51,1.000000
4,fcd71b15-748c-4f30-8899-150e6c4c1756,fe65cc39-4186-4274-b2db-3ed24641068c,5b4f51c5-5574-436d-9fab-194ad80841cf,27426301-33a5-450c-a86e-22a5a0f6ddab,2020-02-24 23:36:55,0.200000
5,73832ef5-794b-40c1-85f1-5304e1dbab4a,3b9afd99-84b3-42ed-a55a-d678f1e40943,4d2bbf4e-87d0-4de0-8e44-ad06e1abb4a7,257af960-2af7-4536-83b7-2a38872c7958,2020-02-24 23:37:58,0.200000
6,096ecd4c-ec4f-4f93-890e-f3328b6427e9,572c055e-fc98-447d-a45d-0ced38f77e3e,8a881800-428a-4c96-aa6f-c1d0775c3460,ef1f3163-946d-40a5-818f-2246fae30cde,2020-02-24 23:39:02,0.200000
7,06320926-bcf5-46c0-a464-4588e7a97786,4d8d85c2-5efb-43cf-844c-12aef42b46ac,1752a0c4-af58-42c6-a49a-aaa4c21312ff,03527972-1c27-4db5-8dfb-439173034986,2020-02-24 23:40:05,0.200000
8,30a3700e-c7bc-4af7-98ff-0d4110522257,b985399a-2525-43a9-8fe5-14c2bee86e05,971196cb-a82a-406b-9ac1-7b1f90f3b929,2e37a202-eb1f-4afe-904f-525aa0a7a713,2020-02-24 23:41:08,1.000000
9,de96df1a-e5e6-4eff-b938-21df0e8a2bd6,2b887fa8-7b71-4e1f-b4b9-0bbb1d20efee,659c2d61-0647-49e1-9b9a-825ed14bad94,d1062afd-7d6b-4e77-8799-1bdcd797e240,2020-02-24 23:42:11,0.200000
10,bfbae41f-3ff0-4fac-bf23-c66c87be8689,c1cffa05-3d64-4975-940c-771bfd39be31,19e1b6aa-6739-4244-9260-36a499dee41f,f1d62cfc-13ca-48e1-be0b-93f2bdd508f5,2020-02-24 23:43:15,0.200000
11,660024e2-4d5a-49d8-a325-a79acbd16b4a,fe2e0565-708e-4520-9056-5942c183616d,e85c4d3b-3aec-4beb-b7b1-f210b7be8ff6,65729537-13d8-4a60-a41b-ed0b62f9ae66,2020-02-24 23:44:18,0.200000
12,42f45114-7153-463c-b16a-4cab36f2bc3c,02033a9e-ef13-476a-be97-6e32f67a4c33,1109215e-14a3-4380-abc0-265709827937,156ebfe0-5168-4370-8495-da49846391e1,2020-02-24 23:45:20,1.000000
13,bdf6f8ac-8960-4035-9597-b37a7ded3ff5,1ca211a3-2aea-4205-bb4d-4a0eb742f377,1bc4d184-4095-4b36-be81-7d1383dfeae9,7a3e9b32-32bd-4c6d-95f1-c2b7c970824f,2020-02-24 23:46:23,0.200000
14,dbf2579b-ee6b-41d1-b3e2-a6e71dad6656,82b6385a-fc42-4efd-8376-405ea6051279,d6d56207-94e6-48d5-9260-d9ada117b427,9a09c6d5-b768-4892-8aae-ab9035c0abbb,2020-02-24 23:47:26,0.200000
15,5f8fa673-404d-4285-94f6-d56190643771,497d588e-f638-4d93-ac13-7a00e44ac110,1682a0ce-4fff-4c72-adaa-af87ef8f829c,cff671b1-285a-48eb-b3fa-7f89b42b740a,2020-02-24 23:48:29,1.000000
16,f957f290-a981-41a6-bc36-ce57a45bc7ea,dcefee89-3524-4924-beb3-53cf954df42c,e527b84c-b64f-4c4d-abcc-43f332bfd8bd,bc3b3ac4-6489-42bd-8b98-01e0255a5263,2020-02-24 23:49:33,1.000000
17,1b16962c-d246-4b30-a4cd-01b7fd66b7f6,28774956-9ac7-42b4-94d2-90b3101b4cab,c69a2373-df2a-4717-941f-b1bd0a9d1b4f,ac8dc34c-e626-4e18-bec3-2511cd4f6ecb,2020-02-24 23:50:36,0.200000
18,0b5486e6-1348-4a45-bdd9-5d7931c1a42e,76f943dd-30ba-4aa2-9290-0d3a6556680c,4393b92b-c39c-44c4-bf87-b6009b3478c3,13fcc95b-3d28-4403-b3e3-43cf5425fecd,2020-02-24 23:51:39,1.000000
19,67b654bd-2bf2-4426-be59-8654ebf58771,06641f67-6db6-4fe4-adaf-166dfcaeaf7a,1489dbd0-891d-4a65-9f3b-00e724f2b403,df75d824-0d8f-493f-af66-6814eddcede8,2020-02-24 23:52:43,0.200000
20,70682b42-f048-4857-bda0-39ef3735e185,4d49a6ec-191b-4a09-ac73-9d88ef650002,af69bb70-91b4-4cef-a83f-2e0d4c37c81e,5fda5d34-2441-4927-9fe8-266349818a7e,2020-02-24 23:53:47,1.000000
21,c5309323-b416-4c62-b50c-3f8883626f55,a45a0d3d-2826-4fe3-b02f-a5fe53d6dbf6,b1bda4c9-ae54-4483-92ba-780a2869d8c5,ffd11ce8-e7d9-4938-92bd-dfc5dc7974e0,2020-02-24 23:54:51,0.200000
22,95f8d638-594c-46b4-9191-feba0f9cab21,d2289c00-60fe-4fd0-a38f-d5f30d11930e,17d9a7fd-d8ac-4464-8929-048de66d1e63,ed07d907-2a0c-492c-a9fc-d2c9513370b0,2020-02-24 23:55:53,0.200000
23,58836d46-07da-446b-8df0-75e42ee14bb6,ef77af54-ef63-4ae3-afb2-1de7e9b47966,e8d0ebce-57a8-474b-97fb-d0b68bfee146,065807a4-c40c-4727-ab79-3b8a1feada8f,2020-02-24 23:56:57,0.200000
24,a76aa58f-0399-449e-9a2c-a6fb492c2784,cb53616a-0474-45af-8eda-1a211aaa91e9,ba1bdfd0-b2b8-4ba2-8d8e-f2b51dbcf004,2decc224-ff69-4db1-9682-5138463d40f4,2020-02-24 23:58:00,1.000000
25,9f802689-a9ee-4e15-852c-f1b7c599f129,145e3e33-808d-4e1c-8f58-1064d07380fb,dc435f69-1ad0-4abe-9a17-36cd6bdf5b2a,696adeea-3736-4f72-aedd-1ff5a930d313,2020-02-24 23:59:04,1.000000
26,c87e39e4-5099-47c9-8fc2-b6ec4e43cb20,365f880c-512f-408e-a895-68c1e4bd4a6d,408b0ebc-cabb-4793-8426-8a1eeb0a8243,6447ad44-020b-4321-af51-3e59288405b5,2020-02-25 00:00:07,1.000000
27,21eb0c8c-b08e-4e91-8d97-2d96e33a16ec,17858124-37e0-41e5-b378-f8afd154e2e0,c19f6697-2e2c-424d-9b2d-dbffd756e7ea,ae560b2a-c1b6-459b-a192-1836713b4a48,2020-02-25 00:01:11,0.200000
28,ec019841-056f-4839-964c-7f8a6202002b,ffb3532c-acad-44fe-a8fd-3ec10083590a,460a31a4-2c64-4421-a698-7fd7ba4cac4e,454b18ea-d32b-4571-9b49-70d9873b4ee4,2020-02-25 00:02:15,1.000000
29,f3a17965-3112-4781-8954-847c670833cb,2159a737-bfe7-4fe3-8497-6202807ff951,d0dbf3ea-9a7c-426b-9911-2b1e26de7281,f6e2c490-bcaf-4233-a41f-f5f9d1080d5a,2020-02-25 00:03:18,1.000000
30,de3f5aa7-7e72-46c2-b9d9-0fa2d7995b52,03f59436-e0e0-44a5-9617-268ed11e2b19,559a6b25-2ec8-444e-9797-e0ca8021d6b5,95ef1d96-5a5f-46bc-a340-d5278a902a20,2020-02-25 00:04:22,1.000000
31,0d41a5d2-2294-4f94-b0fd-7681391992de,91b68d67-b6c1-4e95-ba1a-e13d3df5b63a,0fb26715-d44d-436c-af3b-174c7e88b2fb,4b71e60e-51ab-4559-a001-5ff33b980933,2020-02-25 00:05:26,1.000000
32,59912775-07e0-4ad6-b264-0e30274ba3c9,5c57d1eb-4f72-4b06-a2c4-94910aad32af,99e1c917-d04b-497c-b842-920c98f943b2,edccc893-93f1-496d-beb0-c9efc6a0e8c2,2020-02-25 00:06:30,0.200000
33,b462fad5-1d91-4f96-a9ba-450093d1fa55,1a3457e5-b324-41e9-933d-eb9191cd8455,1258cc7c-f84a-4c04-b35f-f4cf27179043,0b86f0f6-089c-4b9b-b5c8-6f3e2a7bae1a,2020-02-25 00:07:33,1.000000
34,553bb236-f139-4214-b1b3-de40798130f4,f771cb28-abbe-4305-a2ab-e9dda120ae50,b63c3c26-8a3a-451a-b089-d8ead470a3c3,244ec1e4-bb04-4f3b-9e14-1d1d839ae2ee,2020-02-25 00:08:37,0.200000
35,10be7614-6b56-498f-8910-fc6e1a2c224b,539de57f-1a50-4a62-9622-1cc4a4125f51,97a83170-9998-485e-a16e-34f2af533f91,161cfc4e-ec37-47ce-8559-17a6e966be80,2020-02-25 00:09:40,1.000000
36,e28d9a70-647f-46ec-a2c3-26cf8f4754f9,29f067b2-af83-44d2-98ef-1074ef599cca,53620c15-6577-4787-8b29-036b33dbf498,91bda6a5-dd61-456f-9c83-eb539c2972db,2020-02-25 00:10:43,0.200000
37,99ca19fe-ca56-432c-b570-0b7657e0010a,d900e77c-9c90-448b-8d74-59c1fd238735,5c30d269-2348-41b3-9269-7896b5e130df,a727c579-25f5-4b11-bc8c-c0eb27bc5617,2020-02-25 00:11:48,1.000000
38,446da75e-8f2f-4c7e-9902-4b762d5efdf2,1b5f6a99-fe0c-4cfe-a48c-4f032bb24b8f,2ac2d3ce-cf16-4f4c-9d25-b1371c652d2b,669de5cb-eee4-4dcd-91af-282850baf96d,2020-02-25 00:12:53,1.000000
39,4d3c7248-c91a-4835-85c4-d562fc31748f,ab64a326-0da2-4c59-a2bd-5f2bc495a125,b45b3a3a-fd33-4ec3-a5ba-b0bb603b8c64,e05d2d0a-09e4-43e7-9c0e-15e4180f5357,2020-02-25 00:13:58,0.200000
40,d7cf12f4-a175-45f1-855b-e68c1f710364,ede711de-17a3-43ae-9966-d04d5ec6f476,1b078f5e-a540-4aad-8aaa-f28c8faee4f0,55f0f07c-876e-4895-9a7d-67f5536635fb,2020-02-25 00:15:02,0.200000
41,a99f72c4-994b-4d91-a924-5e73f084f603,da219299-9b0b-4e99-8a70-31e2f65820fc,9ef0c758-ba77-4cd1-9255-734658e6c16c,91b1d6fc-5088-4855-bd63-8719b3d7ce3d,2020-02-25 00:16:06,1.000000
42,4173ebaf-2cb8-4759-8ad4-afe58b3ebbfa,4cdf08cf-6309-4a49-80f2-77903acc29fd,03a6c230-61a6-4308-9435-e5cf1eab2dae,a9e31e71-d9bc-4938-8933-96c5bccf9bb7,2020-02-25 00:17:09,0.200000
43,175e89a1-3ff3-4a83-b55d-5bbe496d3eef,b953835c-d44c-42f7-872b-1d585f51876c,c39a2728-1c67-4493-96f3-7ccbce0c4b98,9947e9c1-3e40-4b3f-a42e-d8b77fce46f2,2020-02-25 00:18:12,0.200000
44,7eccd720-9829-45ee-ba1f-1b39c8b06dda,b8ec7fed-9a40-417e-aa5b-7fc83ccdf886,8314fee6-bf8f-44ca-b48f-8f5b4510ffba,ee682ee1-c7b2-42be-ba50-45516d504025,2020-02-25 00:19:16,0.200000
45,4f196c20-ce35-421c-bb8b-bd18833c728d,18a16ece-59eb-412c-ad19-fd057d37cc6a,ca115da2-24ab-4cb3-9183-2effbc3e1039,ba91eaeb-4112-4a0f-8564-450ee4e30927,2020-02-25 00:20:21,1.000000
46,9080fe04-a5b0-461d-84fe-5adbb058e559,64ba03ce-91e2-434c-bec8-e208af5c6b73,fa5cbbe6-810b-4daa-86bb-7eb8bf00856d,97c6ec77-9dd0-4158-b5a0-1c35d4795e30,2020-02-25 00:21:25,0.200000
47,1c13b8fb-499f-4d19-a4ab-a16072b12ebc,64907839-f895-4cdf-8ae5-9044819e6e59,5bb0cdf6-c597-4f07-af0d-9d4d372e52d9,0edba967-5532-4adb-8663-70e3c053b8e7,2020-02-25 00:22:30,0.200000
48,029341c3-5742-4e6c-9d88-6d97a9343733,47809e6f-113a-4f80-a255-62537a2f181f,ce4828d9-1af9-4519-b767-b3c6d184d1e5,eaf8afc2-dab0-482c-a951-6ddab0b079c3,2020-02-25 00:23:34,1.000000
49,c66abac1-1a18-4862-9c3e-859acab8927b,de6b4218-ccc1-4e29-9fff-a4697da534f6,bf774fc9-cd7c-4547-a473-a6623152217c,d68bedb3-0256-4f01-8dc4-24953fe6609e,2020-02-25 00:24:39,0.200000
50,e662ae05-f91d-4450-b54d-3ab84d7e71e4,8e8c3090-2ec0-49be-9346-832d595b46d4,e559537b-7cd4-4537-abbe-2aeaf92c8e71,9b9531b2-8737-40fd-8968-b6f0f1cc69aa,2020-02-25 00:25:44,1.000000
