node,ip,uuid
node-a8-199.grenoble.iot-lab.info,172.20.64.1,cccc0052-d2cf-4a5c-9999-c5acc31d7ae5
node-a8-200.grenoble.iot-lab.info,172.20.64.2,5e660d88-0df3-4530-9f1b-df288fe18e78
node-a8-201.grenoble.iot-lab.info,172.20.64.3,8d65a982-08fa-4199-b499-8d2d9f534b88
node-a8-202.grenoble.iot-lab.info,172.20.64.4,bbad91d5-3852-408a-a41a-3553e46c04d5
node-a8-204.grenoble.iot-lab.info,172.20.64.5,31d886fc-6f68-4434-95dd-3fbf5517ba39
node-a8-205.grenoble.iot-lab.info,172.20.64.6,db91f2ca-8753-4ed7-b43e-310bcf44af4c
node-a8-206.grenoble.iot-lab.info,172.20.64.7,4b09fa50-dbe5-4b90-abcc-ac14d365f3e4
node-a8-207.grenoble.iot-lab.info,172.20.64.8,f5e35ca7-a76e-4de5-9b79-967399715bca
node-a8-208.grenoble.iot-lab.info,172.20.64.9,f34fdf29-563c-45fc-a6f0-76ab5886e9c1
node-a8-209.grenoble.iot-lab.info,172.20.64.10,9a553e29-98c4-441b-91d2-27e2fb4e4290
node-a8-210.grenoble.iot-lab.info,172.20.64.11,477767fa-80b9-4a99-860c-cc79319d1056
node-a8-211.grenoble.iot-lab.info,172.20.64.12,5a9bd9c9-5e73-4229-9519-36ab7e5c2d61
node-a8-212.grenoble.iot-lab.info,172.20.64.13,8bef94ff-f5f9-4f17-b3bf-74f5f827b7c4
node-a8-214.grenoble.iot-lab.info,172.20.64.14,b3639091-4378-4de7-99b2-4338f25c63f0
node-a8-216.grenoble.iot-lab.info,172.20.64.15,ea4d0af8-0537-41e7-8af7-f70b6da03d90
node-a8-217.grenoble.iot-lab.info,172.20.64.16,54980f18-ca6e-4d67-a4ae-8119c5e72587
node-a8-218.grenoble.iot-lab.info,172.20.64.17,1bc16a17-e835-4245-80fc-74bb6a0bc854
node-a8-219.grenoble.iot-lab.info,172.20.64.18,da0317ef-20e1-472f-80eb-076ed5930a06
node-a8-220.grenoble.iot-lab.info,172.20.64.19,777561f0-cdfb-4142-b988-1123c311432d
node-a8-221.grenoble.iot-lab.info,172.20.64.20,40f28162-137e-407b-b4fb-1fe91a8f7510
node-a8-165.grenoble.iot-lab.info,172.20.64.21,b0d5fdc8-bb33-4108-93f4-6ca4284f5a77
node-a8-166.grenoble.iot-lab.info,172.20.64.22,0d651ef8-080c-4c8a-a457-192efa144dc0
node-a8-167.grenoble.iot-lab.info,172.20.64.23,e4f221bb-4134-43ef-bdcc-eb5eddb51aeb
node-a8-168.grenoble.iot-lab.info,172.20.64.24,27febf5b-6d44-4df4-96ae-a1e09ec76c36
node-a8-169.grenoble.iot-lab.info,172.20.64.25,dc357ff9-2b20-45e8-af58-87e333cf2bd8
node-a8-170.grenoble.iot-lab.info,172.20.64.26,f4ad180e-36c3-48e5-8d3a-0aed8d1cfa9d
node-a8-171.grenoble.iot-lab.info,172.20.64.27,270ad1dd-a4b4-4cd6-916c-dbc71fadd250
node-a8-173.grenoble.iot-lab.info,172.20.64.28,b320c554-033f-498e-aae2-c110c5934c95
node-a8-174.grenoble.iot-lab.info,172.20.64.29,9b49338f-91f3-4334-9077-be69c4993a08
node-a8-175.grenoble.iot-lab.info,172.20.64.30,8ed08589-167b-406e-b656-47d33874ab6e
node-a8-176.grenoble.iot-lab.info,172.20.64.31,4d615cee-7500-4760-9030-0898670b73b5
node-a8-177.grenoble.iot-lab.info,172.20.64.32,a3d4fdf1-30bf-49be-83aa-a646d8558bd9
node-a8-179.grenoble.iot-lab.info,172.20.64.33,b7b0d173-eacf-461a-8093-154745029275
node-a8-180.grenoble.iot-lab.info,172.20.64.34,1c6ce572-026d-42bc-8590-93aa6c06b13d
node-a8-181.grenoble.iot-lab.info,172.20.64.35,59dba2b2-4bfc-498e-bfe7-8517d04bf783
node-a8-182.grenoble.iot-lab.info,172.20.64.36,97b92d0b-0e72-489f-bc32-9887b2b95ca0
node-a8-183.grenoble.iot-lab.info,172.20.64.37,fe8c8bf4-27a6-427e-b154-5352f55e9952
node-a8-184.grenoble.iot-lab.info,172.20.64.38,0604fa95-b3da-4eb7-ac1e-83cb486f3261
node-a8-185.grenoble.iot-lab.info,172.20.64.39,e80d2479-e060-4a08-bc4d-7d51ab691ad9
node-a8-187.grenoble.iot-lab.info,172.20.64.40,f732462c-64d3-4e70-9767-a52019fd28bf
node-a8-188.grenoble.iot-lab.info,172.20.64.41,2fe6ea60-44a4-4e01-8a25-43dd94d9f18d
node-a8-189.grenoble.iot-lab.info,172.20.64.42,87a34cd7-96cb-41e2-9903-e0265b57a8aa
node-a8-190.grenoble.iot-lab.info,172.20.64.43,693fbbe8-a142-48b6-9bce-2b7611e26b55
node-a8-191.grenoble.iot-lab.info,172.20.64.44,f674c6d6-bd5d-47e4-b37c-ca8d59d55988
node-a8-192.grenoble.iot-lab.info,172.20.64.45,a7396112-f1fa-4e9a-8428-917bb8461ced
node-a8-193.grenoble.iot-lab.info,172.20.64.46,908f5c3b-80a1-47b9-81ef-18f3f2b60d58
node-a8-194.grenoble.iot-lab.info,172.20.64.47,18a46418-ead4-42a0-91af-7c251a78f982
node-a8-195.grenoble.iot-lab.info,172.20.64.48,2e07f9bb-0d98-4334-b2af-ae85120a3e74
node-a8-197.grenoble.iot-lab.info,172.20.64.49,be448eed-7373-4841-aafa-6a3d530d6b06
node-a8-198.grenoble.iot-lab.info,172.20.64.50,88c6c453-45d0-49e9-942d-3c6bfdef97ec
paravance-8.rennes.grid5000.fr,172.16.96.8,323399f9-e094-42ad-bf1e-44a85d556801
paravance-72.rennes.grid5000.fr,172.16.96.72,5ceb6c3b-40f6-408b-8492-98d0c377a09e
paravance-71.rennes.grid5000.fr,172.16.96.71,e178f127-2f41-4c5d-a273-a97004b7f7eb
paravance-70.rennes.grid5000.fr,172.16.96.70,caeaadc7-23ef-4546-b5a9-7936efe88997
paravance-7.rennes.grid5000.fr,172.16.96.7,4656de1b-cf0a-49d7-b7b3-8c00551c4d83
paravance-69.rennes.grid5000.fr,172.16.96.69,d287b5c9-033a-4c52-9f14-f84854486809
paravance-68.rennes.grid5000.fr,172.16.96.68,774e94a2-cc7e-4e73-8754-932ac84219fc
paravance-67.rennes.grid5000.fr,172.16.96.67,87dc32fe-b68d-42f7-a50b-d207c0f14a8c
paravance-66.rennes.grid5000.fr,172.16.96.66,5de03d31-baf1-49ca-a06e-c6aaabd3af7d
paravance-65.rennes.grid5000.fr,172.16.96.65,294a9013-37bc-443c-b25d-5516f95c8ae3
paravance-64.rennes.grid5000.fr,172.16.96.64,248b0353-88f7-404f-8437-565843d5fb3b
paravance-63.rennes.grid5000.fr,172.16.96.63,ede7d1bd-1315-431f-be81-3c5d63a5cdf4
paravance-62.rennes.grid5000.fr,172.16.96.62,c8efdd7f-6a67-46f8-8134-8836ade5cd6c
paravance-61.rennes.grid5000.fr,172.16.96.61,b22747e1-9a23-455f-a30e-0a0555eccd56
paravance-60.rennes.grid5000.fr,172.16.96.60,b477c871-a6a2-4e0d-b985-d923d60ef26b
paravance-6.rennes.grid5000.fr,172.16.96.6,1e683528-61ed-4bdc-b2a6-98b770eb2149
