app_number,app_id,trigger,burn,sink,deploy_date,token_interval
1,45e2ee9b-693a-4592-8099-805499bdbe7e,2b32553c-1c78-457a-a6dd-cce9c30b16fa,2ab01700-559d-4740-b1fe-fee9397da219,cab76b29-fa0b-4682-b676-873ae3dc4788,2020-02-05 05:12:27,1.000000
2,2cc35f9a-a682-44e6-b2c6-16ab945afd3a,0cb20ae9-1511-4562-8b59-e0d15d359c4f,d88924ba-3d88-42e7-8e00-ff3091e3ca10,b83940a4-3469-4ea9-97c3-661184a20fc2,2020-02-05 05:13:30,1.000000
3,7509a595-5c4d-4d67-bae1-b9983da2c342,f7b43658-8c95-4fc2-a733-c9bce9a1d0a4,7a950c33-4a5c-4bb1-b8d3-94acce4f0c99,f67d657b-8c72-47ed-9550-a34139bb95f3,2020-02-05 05:14:33,1.000000
4,d05c04ed-c53e-4793-b05f-9ba41d847534,a5633f94-be0b-4040-962f-b7192bc97b9d,0e8594f4-179e-4b16-853e-bcc396eead4e,cf7af7b9-f2dd-425b-ae62-5c68f5552f29,2020-02-05 05:15:36,0.200000
5,03b78b77-d478-4628-bef5-cd23251ac52e,04efd702-1f3b-44c3-941e-e91e8515b7d7,88932cb3-cf4b-466c-9503-f4ef4dc2b2a9,17010e1a-d4f9-44fe-841d-6bcd0e44854a,2020-02-05 05:16:39,0.200000
6,c652f963-6a0b-49b0-b252-95e82d2b1a7f,6c8e39f6-d15d-4db3-808c-124714f62872,3d29ffe3-ee8d-4059-9f64-a1c67cfd7a71,ccd7af96-bb18-4929-bab6-d57ce7d67547,2020-02-05 05:17:42,0.200000
7,113744e9-af31-4d59-b135-1730b54f866d,c1bdb691-23a4-4625-bc57-415fa90a5a62,3cc09e22-4abd-41d0-819b-549d6d606569,d9565881-e38a-48f2-b432-0fe30bfbf7e3,2020-02-05 05:18:45,0.200000
8,bb5319b1-bfaf-49e9-9cd1-5fe48acb10ee,490c963f-8814-4a3f-9b5d-4fb76f8a344e,b56190f8-0e56-4c64-94af-6906c897126a,c654e131-a32d-4d8c-b7a1-921f0299d936,2020-02-05 05:19:48,1.000000
9,cd9c0af9-fd3c-469f-bdc1-e527b673e41a,b8c8acfb-e44c-4a87-9be4-10656e6b6393,d9bb615b-c95e-4231-98f6-f94604bc241c,ad2a28d3-6ddf-4abc-b936-b1ca3bde4715,2020-02-05 05:20:51,0.200000
10,ee489488-9b7e-49f3-8324-24e1083e451b,06b1155e-6b52-4a62-8a1a-3c7c834936a8,5ccdc2e0-0202-4a6a-95a0-bb00e3abda38,10656073-5d58-4867-b19f-f1da2813c78f,2020-02-05 05:21:54,0.200000
11,1f77911b-6b60-473a-a256-877afaf9785f,e12e7999-ca74-463c-a63f-94ee582b930e,b36dc986-fc44-4cab-95bd-34ea221da546,0b3bbff5-db3f-4838-9381-9064c5d2eff1,2020-02-05 05:22:57,0.200000
12,01696d73-d1b4-46be-9e04-943578965027,5c9acc3c-2d46-4eed-9365-bb83ae0866e3,7d255420-7c79-4aff-9be4-b5da4b8db6a5,c898aeb2-9043-433e-8b5a-53a1ab2e94a8,2020-02-05 05:24:00,1.000000
13,71fe65aa-d1c5-424d-ae16-ba516eea10bd,1585b794-763a-4601-994c-1d6748432ff4,8f022830-0e26-4e06-a2d1-773cb46fad59,c26e96aa-9a4b-46f7-869b-b38f24dc19a7,2020-02-05 05:25:03,0.200000
14,e33adae1-a35e-44be-a5cf-6becc1391e77,1b16f795-64fe-49be-b92f-f44934f7ebdd,5dd061b5-51e2-4667-b40e-ad910ef0c575,14a23131-fa15-450c-bf9e-c47d3303e9ec,2020-02-05 05:26:05,0.200000
15,4c9d4547-5ac9-403b-9f38-e652f2c12ee4,a99d80e6-ff8e-4c03-8f2a-5ba73076d99f,e4c7be2f-56af-485c-8f11-4ebecb099ab9,8e31fd4c-1e07-4273-972c-b0a95c675445,2020-02-05 05:27:08,1.000000
16,0da9be48-d0f8-4871-abc9-ca2be404e993,56d14aa5-5578-4c5a-8308-b23651270203,e1a6f92c-5f7a-4447-a5b0-48dfca18b166,659d53b6-f788-40b7-b895-35e415f1fad5,2020-02-05 05:28:11,1.000000
17,dbfca74c-7953-4360-847c-0946df5e2622,0908a3fe-9035-4c71-8f20-3944bf3484f7,fcb9dc2d-0c42-46ad-90fa-b2d39420fea2,e1fd3fb1-7e82-4bcc-b1cc-401b4248d227,2020-02-05 05:29:14,0.200000
18,20160efb-9118-4c30-8a58-e38fb20dbe78,72d8019e-12f2-42f2-9e7c-3b15de08d142,74ee3274-83c7-4b4d-8311-304ff7d45505,52b4e10c-487b-4be0-a10f-72deb1e70b24,2020-02-05 05:30:18,1.000000
19,b3da7a06-0952-46d6-97bd-075d8fadd72b,c7f36c3a-0862-4740-916b-3619f9c24f63,adc10d7c-4231-4aff-b65d-e2a1781ff85b,bc40c742-b0a7-422f-8788-9966b91ae650,2020-02-05 05:31:20,0.200000
20,0574676f-939c-4f85-8e1e-c2340c02b2a2,cc0417bb-5cc9-4980-9edb-b9b7591a3192,a89866bf-abb8-4dca-bba0-8af5035acc76,dd99890c-3f94-4a85-81af-b1f3d515c51e,2020-02-05 05:32:23,1.000000
21,12f0417a-3c39-4efc-a341-98b3ce254700,a458b9a4-b6e0-4250-8ab5-4d96cd63e21f,1919e485-0070-485f-942d-dc280074db5e,3386fd3a-b1c0-43ee-b2da-f8208c56a4f7,2020-02-05 05:33:26,0.200000
22,83a09827-dd46-491b-a375-3b2e52d316c9,8576de32-9b56-45d5-b901-10a3df972450,635e8cb7-239d-45c8-bddb-f8bc9a81937c,43efa97e-10f0-4f08-8e62-c12ce1510661,2020-02-05 05:34:29,0.200000
23,58e67717-e7fe-4b2f-910a-4e02434af9d6,bf50376b-75c8-4af6-89b6-aa1cbf237aee,620e4673-e3ec-41f9-8504-75427a5c088e,9be19bc3-c305-42be-96a1-d2aad66bc728,2020-02-05 05:35:32,0.200000
24,2dfee89d-c398-4d5b-98bb-d17d2e071e89,f6dcd885-8877-46c1-b309-aed9bbac16f6,c8fe5472-5634-4840-b8ec-d8fbbf6eae1a,54c92108-b5b6-432f-947b-70a8d1756373,2020-02-05 05:36:35,1.000000
25,7c31be22-fda7-4e8f-b806-94c2ade3de70,1490b6d6-cd4f-4f93-93b9-f7ecc30bf5a3,532f0c1e-1426-4e29-a852-f84ab60b4167,5cc56d21-fb32-413d-aa37-b52da3b50bc8,2020-02-05 05:37:38,1.000000
26,5f5ce4f2-4d5b-42f7-a978-4259246dce85,f6ec64fa-7e22-4e29-905f-d5c042e7df38,198e80dc-2090-4296-a356-fd1e5d23738c,c3fa58d4-44f2-483e-8dab-1b170a079324,2020-02-05 05:38:41,1.000000
27,1b26a8f6-b8e9-4032-a02f-5696c481a91e,5d92cb97-0825-4565-91ca-cb760d366b71,130d46ed-7bbb-4449-b988-c3de2cf0a22f,e6a2f315-8243-4d27-b322-1a5ddc53b10b,2020-02-05 05:39:44,0.200000
28,cccd7b9c-2e7f-4c5c-8266-13ea65a85047,734c186b-3734-47b5-b0fb-8e41b2c89a7e,38b4d6b4-22b3-4775-ad56-102c9c37e403,a1622657-1cc0-4b89-b6d8-0122846cbce4,2020-02-05 05:40:47,1.000000
29,bbb1a573-8302-4ae7-bed5-998c6c86c719,25194478-0936-435a-a53d-b547ea615895,ecc693af-4a9f-401c-8fed-516797b436ae,d71c6efd-d77a-4f9e-b659-01b2000f1b8b,2020-02-05 05:41:50,1.000000
30,f8d9c773-96f8-4ea0-b915-c754180aa334,cb1e7c87-0af6-4c06-8cdb-a889074cd60c,e941895d-e27c-479c-9d23-e0e498a2664e,846ff95a-dacd-4557-acc1-b44bdb911934,2020-02-05 05:42:53,1.000000
31,7271b852-06a8-40d3-bb86-215131933c65,a9b208f2-5a15-46ca-bbee-01ef569391b0,be61d9b7-3192-4907-b2c0-bb8cf9382a27,f10228f0-28ed-4c06-a2b7-3b0c01f30e4c,2020-02-05 05:43:56,1.000000
32,ba4c7928-7309-496e-b9b6-c7fcd7fc147e,bef0a239-4ac8-4bd2-9d50-98dea2b7f4fe,7266c8dc-69b0-49dc-8ce8-658c394debf2,24f30755-6ca2-4dfd-995b-34a838f7f312,2020-02-05 05:44:59,0.200000
33,61ac3955-4740-467c-a519-491399eadfd2,c1fb8e1e-71d4-4540-9eda-8ad75e061857,f1c89961-c5dd-451d-b40d-5511860470e2,0f137d3d-48e6-4ec4-bc0c-707c5f14385c,2020-02-05 05:46:01,1.000000
34,b21717bf-e0ab-4a1a-8b46-a1b2914ebf40,e0c2bba4-83be-4315-85d5-232907213e45,a014e77c-4158-412e-bebb-e4ba6e144216,67bd3657-1daa-4e64-91e1-f831662e45dc,2020-02-05 05:47:05,0.200000
35,3fa341d4-ee97-4d5d-98fb-3b1896b51ba7,6ab1b243-4b4f-443f-b8f8-ff4ca5998687,74d1c5f8-2bcd-4d71-82db-4e7f193e9e19,98b64614-ba08-4a50-9791-f47f97b11da0,2020-02-05 05:48:08,1.000000
36,b8a079bf-0e8f-4334-a666-9a48400118f9,c69ccb51-cad6-4789-98c6-958479a77f47,6f381a5c-ebe2-4c6f-9def-e7a753ca783b,b4cc92f9-0261-460b-b856-88cf2ac3b40b,2020-02-05 05:49:11,0.200000
37,dd3d7356-56a4-4036-9ba4-0350b15d48e1,510e5eb0-cf26-4ab3-aef7-88bf5c61e704,643faf13-08cb-49ca-b444-bc13182d209a,5ed7a4ba-52e6-410b-891d-fd5f8614ad4a,2020-02-05 05:50:14,1.000000
38,8ff852e5-ef57-4773-ae8b-dcaa722235b5,06296ed9-ab10-40a2-94fa-b798b0b97954,8b389dd8-d823-4fe0-bf3a-2e5560b71310,8107fcbf-3141-4d25-97d3-4dc73bcb25ec,2020-02-05 05:51:17,1.000000
39,a2f94271-936f-434e-af0a-ddc062c27e13,87826ba8-b790-4df7-b73d-43a4d27c1aaf,c833e36c-efa2-4767-b96b-dfd59708dcf7,3d58eeee-0f8a-4ec3-baf8-4a670a6f2cc3,2020-02-05 05:52:20,0.200000
40,4c3f276d-17a2-4b47-bca6-fe1f233dd661,8d66224c-3cce-4d90-8616-0c0ce68a8d01,bc1f0d32-adbb-4f23-b320-d1ea33b2ca92,3fef3cc9-980a-4357-a818-4f3eda0d6f7c,2020-02-05 05:53:23,0.200000
41,2d11fd0b-a173-4294-a5a9-4c60d8e0273f,973763b6-0d59-43ee-9d96-81e247b39480,4cf22ded-ac2b-4cc2-a3b3-c5adfaeaf3da,570f0f95-17ec-4575-ab02-69f35f57b295,2020-02-05 05:54:26,1.000000
42,7996e383-d309-4fb3-a5a4-558e8d64538e,449d8c03-c6ce-462f-8b50-580356c6bfb4,26e2ef33-84c4-40f5-ad72-8d23a8493dbd,7bc44fcc-bf73-4aac-a979-53b9e0a354af,2020-02-05 05:55:29,0.200000
43,c075a6f0-4a2d-4078-aaf5-e7f39695f859,6787570c-a7fd-4ade-b84b-e3b445a7568e,1bb78530-c886-4fab-92e1-0d74c8a47333,bb337543-ee2f-46c7-b149-c9a1ba409c13,2020-02-05 05:56:32,0.200000
44,fe569a77-ea27-43df-a373-8b66deb46b64,6e495e6b-5aa3-42f5-a042-5004d391803e,7f41f067-b2c2-4f53-8a8e-63d309cd82de,c5108244-3c6c-4f19-a00d-4ba07cb230a6,2020-02-05 05:57:35,0.200000
45,db8ffeed-68ea-4f03-b6a3-2bc9d1409f53,1cf686cf-56ac-4a80-906d-5bebd9436277,b211e712-bd4b-4733-b3fe-b0423e45a3f8,0ed6a3d6-bec2-48b9-8b43-76fd0f2545eb,2020-02-05 05:58:38,1.000000
46,191f5f68-6a95-4f80-ae91-fb0d53b5f90b,2060bf20-b4b6-4b80-9745-75c0ba83839c,e2fc9cc0-e208-4e49-a2a2-90055b0f1662,a60208d8-cc3f-4b4f-a4cf-2bf5bf053bdc,2020-02-05 05:59:41,0.200000
47,0a106251-65db-4813-870b-7a1e6ca22f61,fbf490f9-2f5a-4539-8ea1-4675f47fe4ff,bcac527b-c12e-4323-83b0-4901601e09c7,85dfc389-1c8d-4836-b79c-0945cde4a38e,2020-02-05 06:00:44,0.200000
48,c5eb2078-c08f-4c30-acc1-493b4ead81a9,a13b4373-9b5b-4008-ba0d-3fb13ec84805,fc58bd44-953b-468e-882f-738d50d0ea72,ea7d655f-8e90-474a-b5cf-67251759e6a1,2020-02-05 06:01:47,1.000000
49,4687a7f1-9528-42b7-bac2-8e1cc8d52041,b7271ca5-29dc-4dfd-bdf0-347abfc52c4a,1767efed-5a27-42e1-9c36-d73552688063,a709ee46-20ed-4e62-a53d-ff08d8569861,2020-02-05 06:02:50,0.200000
50,bcf6788a-ac29-444d-a3e6-a4afa4282b0b,34b395a3-b787-47ad-8062-d4c8d5f9ee9f,d51e4f46-d218-4abf-967e-5f155627b740,664b4c73-6b50-4546-8eed-dfb28651e21b,2020-02-05 06:03:53,1.000000
