date,actor,success,from,to
2019-09-07 23:13:08,b665b1a2-7087-43d8-a104-efe09591e59a,1,fbc115a8-5085-4f00-b51f-c6bc7616829c,24e953f4-978a-4883-ae06-35f9479edae0
2019-09-07 23:13:08,65f6bfd6-6f36-4585-886a-8cea50287cf2,1,fbc115a8-5085-4f00-b51f-c6bc7616829c,24e953f4-978a-4883-ae06-35f9479edae0
2019-09-07 23:13:09,811a8265-d52a-4cc4-b0c4-8706bbe1505b,1,fbc115a8-5085-4f00-b51f-c6bc7616829c,24e953f4-978a-4883-ae06-35f9479edae0
2019-09-07 23:13:09,55c061ae-5f79-4faf-a3e7-e2e04528617b,1,fbc115a8-5085-4f00-b51f-c6bc7616829c,24e953f4-978a-4883-ae06-35f9479edae0
2019-09-07 23:13:09,ff219600-16de-4557-a7dd-c41393600164,1,fbc115a8-5085-4f00-b51f-c6bc7616829c,24e953f4-978a-4883-ae06-35f9479edae0
2019-09-07 23:13:09,b87fa9b5-c6ac-45eb-989d-6ca7adac052d,1,fbc115a8-5085-4f00-b51f-c6bc7616829c,24e953f4-978a-4883-ae06-35f9479edae0
2019-09-07 23:13:10,04024fd7-ed3c-4b95-8063-021196906947,1,fbc115a8-5085-4f00-b51f-c6bc7616829c,24e953f4-978a-4883-ae06-35f9479edae0
2019-09-07 23:13:10,c9e8643f-1413-49b6-b762-d5905242310c,1,fbc115a8-5085-4f00-b51f-c6bc7616829c,24e953f4-978a-4883-ae06-35f9479edae0
2019-09-07 23:13:12,2e5f1beb-92f7-4931-8124-cb33f3f4e64f,1,fbc115a8-5085-4f00-b51f-c6bc7616829c,24e953f4-978a-4883-ae06-35f9479edae0
2019-09-07 23:12:04,811a8265-d52a-4cc4-b0c4-8706bbe1505b,1,4a049def-5c55-4c6f-8e05-a9841f580c0f,22f5b57a-4adb-4611-b44e-ec0c384e9c68
2019-09-07 23:12:04,55c061ae-5f79-4faf-a3e7-e2e04528617b,1,4a049def-5c55-4c6f-8e05-a9841f580c0f,22f5b57a-4adb-4611-b44e-ec0c384e9c68
2019-09-07 23:12:04,b87fa9b5-c6ac-45eb-989d-6ca7adac052d,1,4a049def-5c55-4c6f-8e05-a9841f580c0f,22f5b57a-4adb-4611-b44e-ec0c384e9c68
2019-09-07 23:12:04,ff219600-16de-4557-a7dd-c41393600164,1,4a049def-5c55-4c6f-8e05-a9841f580c0f,22f5b57a-4adb-4611-b44e-ec0c384e9c68
2019-09-07 23:14:22,b665b1a2-7087-43d8-a104-efe09591e59a,1,4a049def-5c55-4c6f-8e05-a9841f580c0f,209f8be6-f803-47fe-a2e8-5cacaab4a3e8
2019-09-07 23:14:22,65f6bfd6-6f36-4585-886a-8cea50287cf2,1,4a049def-5c55-4c6f-8e05-a9841f580c0f,209f8be6-f803-47fe-a2e8-5cacaab4a3e8
2019-09-07 23:14:48,b665b1a2-7087-43d8-a104-efe09591e59a,1,4a049def-5c55-4c6f-8e05-a9841f580c0f,209f8be6-f803-47fe-a2e8-5cacaab4a3e8
2019-09-07 23:14:48,65f6bfd6-6f36-4585-886a-8cea50287cf2,1,4a049def-5c55-4c6f-8e05-a9841f580c0f,209f8be6-f803-47fe-a2e8-5cacaab4a3e8
2019-09-07 23:15:13,b665b1a2-7087-43d8-a104-efe09591e59a,1,4a049def-5c55-4c6f-8e05-a9841f580c0f,22f5b57a-4adb-4611-b44e-ec0c384e9c68
2019-09-07 23:15:14,65f6bfd6-6f36-4585-886a-8cea50287cf2,1,4a049def-5c55-4c6f-8e05-a9841f580c0f,22f5b57a-4adb-4611-b44e-ec0c384e9c68
2019-09-08 00:06:44,0572d111-a31f-4e23-83ab-c4352b0a8f32,1,4a049def-5c55-4c6f-8e05-a9841f580c0f,64311692-9334-4898-a7e0-6924bccb3f3d
2019-09-08 00:06:44,c755fd88-4210-4f31-9cb5-bf999fb82eed,1,4a049def-5c55-4c6f-8e05-a9841f580c0f,64311692-9334-4898-a7e0-6924bccb3f3d
2019-09-07 23:13:12,48189a0b-b695-4509-8eb2-a03a11491314,1,a05f94f0-4d77-4828-9c30-982096d12a5a,24e953f4-978a-4883-ae06-35f9479edae0
2019-09-07 23:51:47,0572d111-a31f-4e23-83ab-c4352b0a8f32,1,a05f94f0-4d77-4828-9c30-982096d12a5a,0971bfd4-c0d7-4ff9-991f-5ce2ea1f5bc4
2019-09-07 23:51:47,c755fd88-4210-4f31-9cb5-bf999fb82eed,1,a05f94f0-4d77-4828-9c30-982096d12a5a,0971bfd4-c0d7-4ff9-991f-5ce2ea1f5bc4
2019-09-07 23:17:02,ff219600-16de-4557-a7dd-c41393600164,1,e064ddec-746e-4ba3-b66c-21d91248ef85,209f8be6-f803-47fe-a2e8-5cacaab4a3e8
2019-09-07 23:17:02,b87fa9b5-c6ac-45eb-989d-6ca7adac052d,1,e064ddec-746e-4ba3-b66c-21d91248ef85,209f8be6-f803-47fe-a2e8-5cacaab4a3e8
2019-09-07 23:54:46,42435431-8d69-4205-bfc8-3ad7dd9ca78d,1,e064ddec-746e-4ba3-b66c-21d91248ef85,209f8be6-f803-47fe-a2e8-5cacaab4a3e8
2019-09-07 23:54:46,b9e64d30-752a-48db-9f9f-621bb14375eb,1,e064ddec-746e-4ba3-b66c-21d91248ef85,209f8be6-f803-47fe-a2e8-5cacaab4a3e8
2019-09-07 23:12:23,04024fd7-ed3c-4b95-8063-021196906947,1,64311692-9334-4898-a7e0-6924bccb3f3d,0971bfd4-c0d7-4ff9-991f-5ce2ea1f5bc4
2019-09-07 23:44:26,6e1686ce-6055-46d5-8ff1-aa54f95426e6,1,64311692-9334-4898-a7e0-6924bccb3f3d,939d8dd5-8199-4e53-83f5-15e54b00b11d
2019-09-07 23:44:26,8fc521f5-d6dd-4c94-823f-23eb3483a170,1,64311692-9334-4898-a7e0-6924bccb3f3d,939d8dd5-8199-4e53-83f5-15e54b00b11d
2019-09-07 23:44:26,0572d111-a31f-4e23-83ab-c4352b0a8f32,1,64311692-9334-4898-a7e0-6924bccb3f3d,939d8dd5-8199-4e53-83f5-15e54b00b11d
2019-09-07 23:44:26,c755fd88-4210-4f31-9cb5-bf999fb82eed,1,64311692-9334-4898-a7e0-6924bccb3f3d,939d8dd5-8199-4e53-83f5-15e54b00b11d
2019-09-07 23:46:24,0572d111-a31f-4e23-83ab-c4352b0a8f32,1,64311692-9334-4898-a7e0-6924bccb3f3d,31a77745-054f-4d9d-bf0a-9af5f03f9274
2019-09-07 23:46:24,c755fd88-4210-4f31-9cb5-bf999fb82eed,1,64311692-9334-4898-a7e0-6924bccb3f3d,31a77745-054f-4d9d-bf0a-9af5f03f9274
2019-09-07 23:46:25,ff219600-16de-4557-a7dd-c41393600164,1,64311692-9334-4898-a7e0-6924bccb3f3d,31a77745-054f-4d9d-bf0a-9af5f03f9274
2019-09-07 23:46:25,b87fa9b5-c6ac-45eb-989d-6ca7adac052d,1,64311692-9334-4898-a7e0-6924bccb3f3d,31a77745-054f-4d9d-bf0a-9af5f03f9274
2019-09-07 23:46:25,6e1686ce-6055-46d5-8ff1-aa54f95426e6,1,64311692-9334-4898-a7e0-6924bccb3f3d,31a77745-054f-4d9d-bf0a-9af5f03f9274
2019-09-07 23:46:25,8fc521f5-d6dd-4c94-823f-23eb3483a170,1,64311692-9334-4898-a7e0-6924bccb3f3d,31a77745-054f-4d9d-bf0a-9af5f03f9274
2019-09-07 23:46:53,0572d111-a31f-4e23-83ab-c4352b0a8f32,1,64311692-9334-4898-a7e0-6924bccb3f3d,31a77745-054f-4d9d-bf0a-9af5f03f9274
2019-09-07 23:46:54,c755fd88-4210-4f31-9cb5-bf999fb82eed,1,64311692-9334-4898-a7e0-6924bccb3f3d,31a77745-054f-4d9d-bf0a-9af5f03f9274
2019-09-07 23:46:54,ff219600-16de-4557-a7dd-c41393600164,1,64311692-9334-4898-a7e0-6924bccb3f3d,31a77745-054f-4d9d-bf0a-9af5f03f9274
2019-09-07 23:46:54,b87fa9b5-c6ac-45eb-989d-6ca7adac052d,1,64311692-9334-4898-a7e0-6924bccb3f3d,31a77745-054f-4d9d-bf0a-9af5f03f9274
2019-09-07 23:46:54,6e1686ce-6055-46d5-8ff1-aa54f95426e6,1,64311692-9334-4898-a7e0-6924bccb3f3d,31a77745-054f-4d9d-bf0a-9af5f03f9274
2019-09-07 23:46:55,8fc521f5-d6dd-4c94-823f-23eb3483a170,1,64311692-9334-4898-a7e0-6924bccb3f3d,31a77745-054f-4d9d-bf0a-9af5f03f9274
2019-09-07 23:47:22,0572d111-a31f-4e23-83ab-c4352b0a8f32,1,64311692-9334-4898-a7e0-6924bccb3f3d,939d8dd5-8199-4e53-83f5-15e54b00b11d
2019-09-07 23:47:22,c755fd88-4210-4f31-9cb5-bf999fb82eed,1,64311692-9334-4898-a7e0-6924bccb3f3d,939d8dd5-8199-4e53-83f5-15e54b00b11d
2019-09-07 23:47:22,6e1686ce-6055-46d5-8ff1-aa54f95426e6,1,64311692-9334-4898-a7e0-6924bccb3f3d,939d8dd5-8199-4e53-83f5-15e54b00b11d
2019-09-07 23:47:23,8fc521f5-d6dd-4c94-823f-23eb3483a170,1,64311692-9334-4898-a7e0-6924bccb3f3d,939d8dd5-8199-4e53-83f5-15e54b00b11d
2019-09-07 23:47:23,ff219600-16de-4557-a7dd-c41393600164,1,64311692-9334-4898-a7e0-6924bccb3f3d,939d8dd5-8199-4e53-83f5-15e54b00b11d
2019-09-07 23:47:23,b87fa9b5-c6ac-45eb-989d-6ca7adac052d,1,64311692-9334-4898-a7e0-6924bccb3f3d,939d8dd5-8199-4e53-83f5-15e54b00b11d
2019-09-07 23:47:51,ff219600-16de-4557-a7dd-c41393600164,1,64311692-9334-4898-a7e0-6924bccb3f3d,939d8dd5-8199-4e53-83f5-15e54b00b11d
2019-09-07 23:47:51,b87fa9b5-c6ac-45eb-989d-6ca7adac052d,1,64311692-9334-4898-a7e0-6924bccb3f3d,939d8dd5-8199-4e53-83f5-15e54b00b11d
2019-09-07 23:47:51,6e1686ce-6055-46d5-8ff1-aa54f95426e6,1,64311692-9334-4898-a7e0-6924bccb3f3d,939d8dd5-8199-4e53-83f5-15e54b00b11d
2019-09-07 23:47:52,8fc521f5-d6dd-4c94-823f-23eb3483a170,1,64311692-9334-4898-a7e0-6924bccb3f3d,939d8dd5-8199-4e53-83f5-15e54b00b11d
2019-09-07 23:47:52,0572d111-a31f-4e23-83ab-c4352b0a8f32,1,64311692-9334-4898-a7e0-6924bccb3f3d,939d8dd5-8199-4e53-83f5-15e54b00b11d
2019-09-07 23:47:52,c755fd88-4210-4f31-9cb5-bf999fb82eed,1,64311692-9334-4898-a7e0-6924bccb3f3d,939d8dd5-8199-4e53-83f5-15e54b00b11d
2019-09-07 23:48:16,ff219600-16de-4557-a7dd-c41393600164,1,64311692-9334-4898-a7e0-6924bccb3f3d,939d8dd5-8199-4e53-83f5-15e54b00b11d
2019-09-07 23:48:16,b87fa9b5-c6ac-45eb-989d-6ca7adac052d,1,64311692-9334-4898-a7e0-6924bccb3f3d,939d8dd5-8199-4e53-83f5-15e54b00b11d
2019-09-07 23:51:38,0572d111-a31f-4e23-83ab-c4352b0a8f32,1,64311692-9334-4898-a7e0-6924bccb3f3d,a05f94f0-4d77-4828-9c30-982096d12a5a
2019-09-07 23:51:38,c755fd88-4210-4f31-9cb5-bf999fb82eed,1,64311692-9334-4898-a7e0-6924bccb3f3d,a05f94f0-4d77-4828-9c30-982096d12a5a
2019-09-08 00:09:14,0572d111-a31f-4e23-83ab-c4352b0a8f32,1,64311692-9334-4898-a7e0-6924bccb3f3d,24e953f4-978a-4883-ae06-35f9479edae0
2019-09-08 00:09:14,c755fd88-4210-4f31-9cb5-bf999fb82eed,1,64311692-9334-4898-a7e0-6924bccb3f3d,24e953f4-978a-4883-ae06-35f9479edae0
2019-09-07 22:30:16,dd1c37db-003e-4f30-81ba-1c243bc59e6f,1,be4b4bfc-1b2e-4d61-a093-873e2bf4c9c1,3b874a95-ee1e-42c6-9570-b347ac86e683
2019-09-07 22:30:16,9a9a915a-1df2-436e-8627-bcce270eca55,1,be4b4bfc-1b2e-4d61-a093-873e2bf4c9c1,3b874a95-ee1e-42c6-9570-b347ac86e683
2019-09-07 22:30:16,b6e6fc49-f9be-4efe-ad09-5d2a438f3204,1,be4b4bfc-1b2e-4d61-a093-873e2bf4c9c1,ca5cfc4a-150f-4889-87cc-758075c59dad
2019-09-07 22:31:19,1019e4f8-e0be-4a1f-abbb-269908ce7e9b,1,be4b4bfc-1b2e-4d61-a093-873e2bf4c9c1,4a049def-5c55-4c6f-8e05-a9841f580c0f
2019-09-07 22:31:19,12353375-1461-4f59-918b-9901f7fa7bc4,1,be4b4bfc-1b2e-4d61-a093-873e2bf4c9c1,076b2cf5-e714-4f75-821c-65d9887dd838
2019-09-07 22:31:19,60ab0f46-24cc-4246-841f-585c42e8f591,1,be4b4bfc-1b2e-4d61-a093-873e2bf4c9c1,4a049def-5c55-4c6f-8e05-a9841f580c0f
2019-09-07 22:32:23,13e127ef-0481-4531-986e-68527db350e2,1,be4b4bfc-1b2e-4d61-a093-873e2bf4c9c1,4a049def-5c55-4c6f-8e05-a9841f580c0f
2019-09-07 22:32:23,733b9f20-3e13-497c-92a8-e91d6e1477fa,1,be4b4bfc-1b2e-4d61-a093-873e2bf4c9c1,4a049def-5c55-4c6f-8e05-a9841f580c0f
2019-09-07 22:32:23,18c35cd8-8096-4bce-bced-24c4d44a6ddd,1,be4b4bfc-1b2e-4d61-a093-873e2bf4c9c1,9085cf7c-599e-4704-8192-d36e5197fb42
2019-09-07 22:33:27,dbeac269-8d9d-4c3d-a1e9-f4397bba9789,1,be4b4bfc-1b2e-4d61-a093-873e2bf4c9c1,73cff2fe-bc83-451e-a01f-1b54e0dbcf28
2019-09-07 22:33:27,b71c1e7f-019a-4cd2-8d6e-e002dac7ed55,1,be4b4bfc-1b2e-4d61-a093-873e2bf4c9c1,fbc115a8-5085-4f00-b51f-c6bc7616829c
2019-09-07 22:33:27,b9da0628-5e9c-4263-9f56-eda17586b17e,1,be4b4bfc-1b2e-4d61-a093-873e2bf4c9c1,e064ddec-746e-4ba3-b66c-21d91248ef85
2019-09-07 22:34:31,b665b1a2-7087-43d8-a104-efe09591e59a,1,be4b4bfc-1b2e-4d61-a093-873e2bf4c9c1,6ddbbf18-3233-4bf3-add3-50d05ecafdd9
2019-09-07 22:34:31,65f6bfd6-6f36-4585-886a-8cea50287cf2,1,be4b4bfc-1b2e-4d61-a093-873e2bf4c9c1,6ddbbf18-3233-4bf3-add3-50d05ecafdd9
2019-09-07 22:34:31,9140d071-9a86-4b63-af1a-ad7f99f705c2,1,be4b4bfc-1b2e-4d61-a093-873e2bf4c9c1,e25e0cf7-53ae-4d73-a88b-3cc6a0c16661
2019-09-07 22:35:34,367f8a2f-5691-4df2-8aac-19685d714488,1,be4b4bfc-1b2e-4d61-a093-873e2bf4c9c1,6ddbbf18-3233-4bf3-add3-50d05ecafdd9
2019-09-07 22:35:34,12b43555-5f9f-4534-80dd-11428cc7b498,1,be4b4bfc-1b2e-4d61-a093-873e2bf4c9c1,56d117ca-4207-4bb3-be7e-52c667cf3ed5
2019-09-07 22:35:34,0d6c46a4-e2fb-4c0c-966e-5e5329a1db77,1,be4b4bfc-1b2e-4d61-a093-873e2bf4c9c1,6ddbbf18-3233-4bf3-add3-50d05ecafdd9
2019-09-07 22:36:38,2f767bce-ebf3-4e37-b23c-d28d00921cda,1,be4b4bfc-1b2e-4d61-a093-873e2bf4c9c1,6ea7f56e-8914-4941-af1d-6f2b9fc19415
2019-09-07 22:36:38,3938ada1-a8c3-443f-8cea-46ca2976ed2a,1,be4b4bfc-1b2e-4d61-a093-873e2bf4c9c1,53983ee5-feeb-4605-913f-79ff05576a2c
2019-09-07 22:36:38,4ee639e2-b1cd-488d-9e76-9a61bd1678c4,1,be4b4bfc-1b2e-4d61-a093-873e2bf4c9c1,a05f94f0-4d77-4828-9c30-982096d12a5a
2019-09-07 22:37:41,6a54fc00-739d-4dcc-b08e-9a70ae26af75,1,be4b4bfc-1b2e-4d61-a093-873e2bf4c9c1,24e953f4-978a-4883-ae06-35f9479edae0
2019-09-07 22:37:41,ca9b8e02-d5ca-4f02-816b-fbc23e88f45e,1,be4b4bfc-1b2e-4d61-a093-873e2bf4c9c1,24e953f4-978a-4883-ae06-35f9479edae0
2019-09-07 22:37:41,42f54eec-e38f-462e-a07a-d9e1d5b963af,1,be4b4bfc-1b2e-4d61-a093-873e2bf4c9c1,8c63c257-f9b2-4779-b2c1-9e97dd45a727
2019-09-07 22:38:45,856867ad-4c60-4393-8d01-c7acc67fcc04,1,be4b4bfc-1b2e-4d61-a093-873e2bf4c9c1,e064ddec-746e-4ba3-b66c-21d91248ef85
2019-09-07 22:38:45,c66d6c0f-ab51-46c5-9282-5b992dde23f8,1,be4b4bfc-1b2e-4d61-a093-873e2bf4c9c1,797ef6fe-7e27-441c-9bce-a9ad14bb7d19
2019-09-07 22:38:45,75f3a31a-1416-4314-95ba-e17ac4a26d41,1,be4b4bfc-1b2e-4d61-a093-873e2bf4c9c1,e064ddec-746e-4ba3-b66c-21d91248ef85
2019-09-07 22:39:49,0572d111-a31f-4e23-83ab-c4352b0a8f32,1,be4b4bfc-1b2e-4d61-a093-873e2bf4c9c1,3b874a95-ee1e-42c6-9570-b347ac86e683
2019-09-07 22:39:49,c755fd88-4210-4f31-9cb5-bf999fb82eed,1,be4b4bfc-1b2e-4d61-a093-873e2bf4c9c1,3b874a95-ee1e-42c6-9570-b347ac86e683
2019-09-07 22:39:49,fba0a2b1-290c-4a3e-8082-1587980bd18d,1,be4b4bfc-1b2e-4d61-a093-873e2bf4c9c1,feaf3391-f6b7-4599-8fa2-b88b4730ec2f
2019-09-07 22:40:53,811a8265-d52a-4cc4-b0c4-8706bbe1505b,1,be4b4bfc-1b2e-4d61-a093-873e2bf4c9c1,4a049def-5c55-4c6f-8e05-a9841f580c0f
2019-09-07 22:40:53,8c159bd9-59fe-4dea-99f1-47003efdaa2e,1,be4b4bfc-1b2e-4d61-a093-873e2bf4c9c1,0c348785-2281-496f-8520-4357513ead70
2019-09-07 22:40:53,55c061ae-5f79-4faf-a3e7-e2e04528617b,1,be4b4bfc-1b2e-4d61-a093-873e2bf4c9c1,4a049def-5c55-4c6f-8e05-a9841f580c0f
2019-09-07 22:41:56,2c30f83b-b7bd-4d27-8f12-32870d530835,1,be4b4bfc-1b2e-4d61-a093-873e2bf4c9c1,0971bfd4-c0d7-4ff9-991f-5ce2ea1f5bc4
2019-09-07 22:41:56,d5e70d38-b47d-46f8-b580-84b1b6820597,1,be4b4bfc-1b2e-4d61-a093-873e2bf4c9c1,0971bfd4-c0d7-4ff9-991f-5ce2ea1f5bc4
2019-09-07 22:41:56,78fc55b2-8c12-45af-88e2-f60ab2e14907,1,be4b4bfc-1b2e-4d61-a093-873e2bf4c9c1,ca0df680-ec1b-454b-93bf-63e7a33b979f
2019-09-07 22:43:00,dd6802c2-0bad-48e8-bdc3-10af6b704853,1,be4b4bfc-1b2e-4d61-a093-873e2bf4c9c1,209f8be6-f803-47fe-a2e8-5cacaab4a3e8
2019-09-07 22:43:00,018e5897-e2fb-400b-96e2-df93a0faf2e5,1,be4b4bfc-1b2e-4d61-a093-873e2bf4c9c1,50febb1f-9e68-45aa-9dee-1255ea314a58
2019-09-07 22:43:00,255f7f6b-ed55-4418-993b-03bbd4280c20,1,be4b4bfc-1b2e-4d61-a093-873e2bf4c9c1,209f8be6-f803-47fe-a2e8-5cacaab4a3e8
2019-09-07 22:44:04,5ef78484-27d3-44df-8061-b83b4f33fc0c,1,be4b4bfc-1b2e-4d61-a093-873e2bf4c9c1,e48459e8-edc7-48c9-a740-1a1beb43f5d1
2019-09-07 22:44:04,c9e8643f-1413-49b6-b762-d5905242310c,1,be4b4bfc-1b2e-4d61-a093-873e2bf4c9c1,6ea7f56e-8914-4941-af1d-6f2b9fc19415
2019-09-07 22:44:04,04024fd7-ed3c-4b95-8063-021196906947,1,be4b4bfc-1b2e-4d61-a093-873e2bf4c9c1,64311692-9334-4898-a7e0-6924bccb3f3d
2019-09-07 22:45:07,6bbe9002-a2ff-4489-8030-946703c2d995,1,be4b4bfc-1b2e-4d61-a093-873e2bf4c9c1,6ea7f56e-8914-4941-af1d-6f2b9fc19415
2019-09-07 22:45:07,0be9d439-62f9-4671-99a3-a24971e38816,1,be4b4bfc-1b2e-4d61-a093-873e2bf4c9c1,31a77745-054f-4d9d-bf0a-9af5f03f9274
2019-09-07 22:45:07,3e15e863-64d9-4848-b03e-cd352dd128df,1,be4b4bfc-1b2e-4d61-a093-873e2bf4c9c1,6a4ef742-acd5-4c28-bcfc-11c550b2b91c
2019-09-07 22:46:11,d4377285-251e-4296-b633-3d0f23c2cd7c,1,be4b4bfc-1b2e-4d61-a093-873e2bf4c9c1,209f8be6-f803-47fe-a2e8-5cacaab4a3e8
2019-09-07 22:46:11,752e6dec-f778-4a6d-8e30-566ece286661,1,be4b4bfc-1b2e-4d61-a093-873e2bf4c9c1,04cfc5bc-0661-492a-85d3-a775520fe6f1
2019-09-07 22:46:11,c8854f8a-c2e1-459d-9751-bb1c035531dc,1,be4b4bfc-1b2e-4d61-a093-873e2bf4c9c1,209f8be6-f803-47fe-a2e8-5cacaab4a3e8
2019-09-07 22:47:15,c12a4c7b-715e-43bc-a6ac-df1f1f507e5e,1,be4b4bfc-1b2e-4d61-a093-873e2bf4c9c1,31a77745-054f-4d9d-bf0a-9af5f03f9274
2019-09-07 22:47:15,c25de82f-1c3d-4c66-a245-038e4bf8d5d1,1,be4b4bfc-1b2e-4d61-a093-873e2bf4c9c1,31a77745-054f-4d9d-bf0a-9af5f03f9274
2019-09-07 22:47:15,6045fca0-255b-479f-abe2-5b054128a8f5,1,be4b4bfc-1b2e-4d61-a093-873e2bf4c9c1,b12674b0-1749-4c9e-aaca-fd5194aa1978
2019-09-07 22:48:19,df6172e2-7f7a-4dc2-bbaa-dee3336f1f3e,1,be4b4bfc-1b2e-4d61-a093-873e2bf4c9c1,f1656eb0-54f4-4cb2-a432-872db5431f46
2019-09-07 22:48:19,3815c556-09cb-4944-bd6e-e64533353497,1,be4b4bfc-1b2e-4d61-a093-873e2bf4c9c1,24e953f4-978a-4883-ae06-35f9479edae0
2019-09-07 22:48:19,7b6d67a7-eee4-4cfc-a3e6-6da73e0c4086,1,be4b4bfc-1b2e-4d61-a093-873e2bf4c9c1,24e953f4-978a-4883-ae06-35f9479edae0
2019-09-07 22:49:23,38499243-2cc6-41bd-a11b-9a536129f782,1,be4b4bfc-1b2e-4d61-a093-873e2bf4c9c1,b7d1b6fe-5aff-40f8-84b7-fffba9c4a73b
2019-09-07 22:49:23,b87fa9b5-c6ac-45eb-989d-6ca7adac052d,1,be4b4bfc-1b2e-4d61-a093-873e2bf4c9c1,4a049def-5c55-4c6f-8e05-a9841f580c0f
2019-09-07 22:49:23,ff219600-16de-4557-a7dd-c41393600164,1,be4b4bfc-1b2e-4d61-a093-873e2bf4c9c1,4a049def-5c55-4c6f-8e05-a9841f580c0f
2019-09-07 22:50:26,f5554e7e-af7a-4a17-8e9b-9ecdb403e7ed,1,be4b4bfc-1b2e-4d61-a093-873e2bf4c9c1,e58d99ae-1194-4c4a-b613-8773a4024f7e
2019-09-07 22:50:26,48189a0b-b695-4509-8eb2-a03a11491314,1,be4b4bfc-1b2e-4d61-a093-873e2bf4c9c1,a05f94f0-4d77-4828-9c30-982096d12a5a
2019-09-07 22:50:26,2e5f1beb-92f7-4931-8124-cb33f3f4e64f,1,be4b4bfc-1b2e-4d61-a093-873e2bf4c9c1,fbc115a8-5085-4f00-b51f-c6bc7616829c
2019-09-07 22:51:30,42435431-8d69-4205-bfc8-3ad7dd9ca78d,1,be4b4bfc-1b2e-4d61-a093-873e2bf4c9c1,939d8dd5-8199-4e53-83f5-15e54b00b11d
2019-09-07 22:51:30,e3b84bb4-6e8a-4bae-9770-9691557219a6,1,be4b4bfc-1b2e-4d61-a093-873e2bf4c9c1,87043a8a-3092-47e2-aa99-d5d8d4cce341
2019-09-07 22:51:30,b9e64d30-752a-48db-9f9f-621bb14375eb,1,be4b4bfc-1b2e-4d61-a093-873e2bf4c9c1,939d8dd5-8199-4e53-83f5-15e54b00b11d
2019-09-07 22:52:34,6f61668d-3edc-4ef6-a4fe-d9d83a564832,1,be4b4bfc-1b2e-4d61-a093-873e2bf4c9c1,f928a3ab-1110-487e-b616-0c2784a9e8de
2019-09-07 22:52:34,160bf0d9-d2fb-4b03-b7d9-10a08940e89f,1,be4b4bfc-1b2e-4d61-a093-873e2bf4c9c1,22f5b57a-4adb-4611-b44e-ec0c384e9c68
2019-09-07 22:52:34,d0e76011-6cf2-4505-94b5-418604f3815a,1,be4b4bfc-1b2e-4d61-a093-873e2bf4c9c1,22f5b57a-4adb-4611-b44e-ec0c384e9c68
2019-09-07 22:53:38,6e1686ce-6055-46d5-8ff1-aa54f95426e6,1,be4b4bfc-1b2e-4d61-a093-873e2bf4c9c1,64311692-9334-4898-a7e0-6924bccb3f3d
2019-09-07 22:53:38,641ed4b1-d55b-4643-9817-51e5d1628f04,1,be4b4bfc-1b2e-4d61-a093-873e2bf4c9c1,51228c03-931f-4c0b-8a12-a5a7dbf32566
2019-09-07 22:53:38,8fc521f5-d6dd-4c94-823f-23eb3483a170,1,be4b4bfc-1b2e-4d61-a093-873e2bf4c9c1,64311692-9334-4898-a7e0-6924bccb3f3d
2019-09-07 22:54:42,b3cb1159-94b3-4ebb-9a60-f8d778ee2ad9,1,be4b4bfc-1b2e-4d61-a093-873e2bf4c9c1,2558022f-bd1f-4bbc-9ab3-bd93f8e923b9
2019-09-07 22:54:42,fb9896b3-3800-4387-9d42-081485bc3cc5,1,be4b4bfc-1b2e-4d61-a093-873e2bf4c9c1,939d8dd5-8199-4e53-83f5-15e54b00b11d
2019-09-07 22:54:42,4083108c-ca33-4085-80ce-b076e62e08dd,1,be4b4bfc-1b2e-4d61-a093-873e2bf4c9c1,a05f94f0-4d77-4828-9c30-982096d12a5a
2019-09-07 22:55:46,37846da5-62b8-485d-8ace-3b13a3ea472d,1,be4b4bfc-1b2e-4d61-a093-873e2bf4c9c1,24e953f4-978a-4883-ae06-35f9479edae0
2019-09-07 22:55:46,cd32d02f-2d86-45b0-8881-8ee601976977,1,be4b4bfc-1b2e-4d61-a093-873e2bf4c9c1,b8fa676e-77b9-4d4f-984c-03c62dd3c494
2019-09-07 22:55:46,bdc959e8-5955-4ad5-b02c-cfeaa5c1ab95,1,be4b4bfc-1b2e-4d61-a093-873e2bf4c9c1,24e953f4-978a-4883-ae06-35f9479edae0
2019-09-07 23:44:40,6e1686ce-6055-46d5-8ff1-aa54f95426e6,1,939d8dd5-8199-4e53-83f5-15e54b00b11d,209f8be6-f803-47fe-a2e8-5cacaab4a3e8
2019-09-07 23:44:40,8fc521f5-d6dd-4c94-823f-23eb3483a170,1,939d8dd5-8199-4e53-83f5-15e54b00b11d,209f8be6-f803-47fe-a2e8-5cacaab4a3e8
2019-09-07 23:44:41,0572d111-a31f-4e23-83ab-c4352b0a8f32,1,939d8dd5-8199-4e53-83f5-15e54b00b11d,209f8be6-f803-47fe-a2e8-5cacaab4a3e8
2019-09-07 23:44:41,c755fd88-4210-4f31-9cb5-bf999fb82eed,1,939d8dd5-8199-4e53-83f5-15e54b00b11d,209f8be6-f803-47fe-a2e8-5cacaab4a3e8
2019-09-07 23:45:14,6e1686ce-6055-46d5-8ff1-aa54f95426e6,1,939d8dd5-8199-4e53-83f5-15e54b00b11d,6ea7f56e-8914-4941-af1d-6f2b9fc19415
2019-09-07 23:45:14,8fc521f5-d6dd-4c94-823f-23eb3483a170,1,939d8dd5-8199-4e53-83f5-15e54b00b11d,6ea7f56e-8914-4941-af1d-6f2b9fc19415
2019-09-07 23:45:14,ff219600-16de-4557-a7dd-c41393600164,1,939d8dd5-8199-4e53-83f5-15e54b00b11d,6ea7f56e-8914-4941-af1d-6f2b9fc19415
2019-09-07 23:45:14,b87fa9b5-c6ac-45eb-989d-6ca7adac052d,1,939d8dd5-8199-4e53-83f5-15e54b00b11d,6ea7f56e-8914-4941-af1d-6f2b9fc19415
2019-09-07 23:45:14,0572d111-a31f-4e23-83ab-c4352b0a8f32,1,939d8dd5-8199-4e53-83f5-15e54b00b11d,6ea7f56e-8914-4941-af1d-6f2b9fc19415
2019-09-07 23:45:14,c755fd88-4210-4f31-9cb5-bf999fb82eed,1,939d8dd5-8199-4e53-83f5-15e54b00b11d,6ea7f56e-8914-4941-af1d-6f2b9fc19415
2019-09-07 23:47:37,0572d111-a31f-4e23-83ab-c4352b0a8f32,1,939d8dd5-8199-4e53-83f5-15e54b00b11d,64311692-9334-4898-a7e0-6924bccb3f3d
2019-09-07 23:47:38,c755fd88-4210-4f31-9cb5-bf999fb82eed,1,939d8dd5-8199-4e53-83f5-15e54b00b11d,64311692-9334-4898-a7e0-6924bccb3f3d
2019-09-07 23:47:38,ff219600-16de-4557-a7dd-c41393600164,1,939d8dd5-8199-4e53-83f5-15e54b00b11d,64311692-9334-4898-a7e0-6924bccb3f3d
2019-09-07 23:47:38,b87fa9b5-c6ac-45eb-989d-6ca7adac052d,1,939d8dd5-8199-4e53-83f5-15e54b00b11d,64311692-9334-4898-a7e0-6924bccb3f3d
2019-09-07 23:47:38,6e1686ce-6055-46d5-8ff1-aa54f95426e6,1,939d8dd5-8199-4e53-83f5-15e54b00b11d,64311692-9334-4898-a7e0-6924bccb3f3d
2019-09-07 23:47:39,8fc521f5-d6dd-4c94-823f-23eb3483a170,1,939d8dd5-8199-4e53-83f5-15e54b00b11d,64311692-9334-4898-a7e0-6924bccb3f3d
2019-09-07 23:48:06,6e1686ce-6055-46d5-8ff1-aa54f95426e6,1,939d8dd5-8199-4e53-83f5-15e54b00b11d,64311692-9334-4898-a7e0-6924bccb3f3d
2019-09-07 23:48:06,8fc521f5-d6dd-4c94-823f-23eb3483a170,1,939d8dd5-8199-4e53-83f5-15e54b00b11d,64311692-9334-4898-a7e0-6924bccb3f3d
2019-09-07 23:48:06,0572d111-a31f-4e23-83ab-c4352b0a8f32,1,939d8dd5-8199-4e53-83f5-15e54b00b11d,64311692-9334-4898-a7e0-6924bccb3f3d
2019-09-07 23:48:07,c755fd88-4210-4f31-9cb5-bf999fb82eed,1,939d8dd5-8199-4e53-83f5-15e54b00b11d,64311692-9334-4898-a7e0-6924bccb3f3d
2019-09-07 23:48:07,ff219600-16de-4557-a7dd-c41393600164,1,939d8dd5-8199-4e53-83f5-15e54b00b11d,64311692-9334-4898-a7e0-6924bccb3f3d
2019-09-07 23:48:07,b87fa9b5-c6ac-45eb-989d-6ca7adac052d,1,939d8dd5-8199-4e53-83f5-15e54b00b11d,64311692-9334-4898-a7e0-6924bccb3f3d
2019-09-07 23:54:38,42435431-8d69-4205-bfc8-3ad7dd9ca78d,1,939d8dd5-8199-4e53-83f5-15e54b00b11d,e064ddec-746e-4ba3-b66c-21d91248ef85
2019-09-07 23:54:38,b9e64d30-752a-48db-9f9f-621bb14375eb,1,939d8dd5-8199-4e53-83f5-15e54b00b11d,e064ddec-746e-4ba3-b66c-21d91248ef85
2019-09-07 23:46:39,0572d111-a31f-4e23-83ab-c4352b0a8f32,1,31a77745-054f-4d9d-bf0a-9af5f03f9274,64311692-9334-4898-a7e0-6924bccb3f3d
2019-09-07 23:46:39,c755fd88-4210-4f31-9cb5-bf999fb82eed,1,31a77745-054f-4d9d-bf0a-9af5f03f9274,64311692-9334-4898-a7e0-6924bccb3f3d
2019-09-07 23:46:39,6e1686ce-6055-46d5-8ff1-aa54f95426e6,1,31a77745-054f-4d9d-bf0a-9af5f03f9274,64311692-9334-4898-a7e0-6924bccb3f3d
2019-09-07 23:46:39,8fc521f5-d6dd-4c94-823f-23eb3483a170,1,31a77745-054f-4d9d-bf0a-9af5f03f9274,64311692-9334-4898-a7e0-6924bccb3f3d
2019-09-07 23:46:40,ff219600-16de-4557-a7dd-c41393600164,1,31a77745-054f-4d9d-bf0a-9af5f03f9274,64311692-9334-4898-a7e0-6924bccb3f3d
2019-09-07 23:46:40,b87fa9b5-c6ac-45eb-989d-6ca7adac052d,1,31a77745-054f-4d9d-bf0a-9af5f03f9274,64311692-9334-4898-a7e0-6924bccb3f3d
2019-09-07 23:47:07,0572d111-a31f-4e23-83ab-c4352b0a8f32,1,31a77745-054f-4d9d-bf0a-9af5f03f9274,64311692-9334-4898-a7e0-6924bccb3f3d
2019-09-07 23:47:07,c755fd88-4210-4f31-9cb5-bf999fb82eed,1,31a77745-054f-4d9d-bf0a-9af5f03f9274,64311692-9334-4898-a7e0-6924bccb3f3d
2019-09-07 23:47:08,ff219600-16de-4557-a7dd-c41393600164,1,31a77745-054f-4d9d-bf0a-9af5f03f9274,64311692-9334-4898-a7e0-6924bccb3f3d
2019-09-07 23:47:08,b87fa9b5-c6ac-45eb-989d-6ca7adac052d,1,31a77745-054f-4d9d-bf0a-9af5f03f9274,64311692-9334-4898-a7e0-6924bccb3f3d
2019-09-07 23:47:08,6e1686ce-6055-46d5-8ff1-aa54f95426e6,1,31a77745-054f-4d9d-bf0a-9af5f03f9274,64311692-9334-4898-a7e0-6924bccb3f3d
2019-09-07 23:47:08,8fc521f5-d6dd-4c94-823f-23eb3483a170,1,31a77745-054f-4d9d-bf0a-9af5f03f9274,64311692-9334-4898-a7e0-6924bccb3f3d
2019-09-07 23:07:22,b665b1a2-7087-43d8-a104-efe09591e59a,1,6ddbbf18-3233-4bf3-add3-50d05ecafdd9,22f5b57a-4adb-4611-b44e-ec0c384e9c68
2019-09-07 23:07:22,65f6bfd6-6f36-4585-886a-8cea50287cf2,1,6ddbbf18-3233-4bf3-add3-50d05ecafdd9,22f5b57a-4adb-4611-b44e-ec0c384e9c68
2019-09-07 23:12:31,160bf0d9-d2fb-4b03-b7d9-10a08940e89f,1,6ddbbf18-3233-4bf3-add3-50d05ecafdd9,0971bfd4-c0d7-4ff9-991f-5ce2ea1f5bc4
2019-09-07 23:12:31,d0e76011-6cf2-4505-94b5-418604f3815a,1,6ddbbf18-3233-4bf3-add3-50d05ecafdd9,0971bfd4-c0d7-4ff9-991f-5ce2ea1f5bc4
2019-09-07 23:09:41,160bf0d9-d2fb-4b03-b7d9-10a08940e89f,1,22f5b57a-4adb-4611-b44e-ec0c384e9c68,6ddbbf18-3233-4bf3-add3-50d05ecafdd9
2019-09-07 23:09:41,d0e76011-6cf2-4505-94b5-418604f3815a,1,22f5b57a-4adb-4611-b44e-ec0c384e9c68,6ddbbf18-3233-4bf3-add3-50d05ecafdd9
2019-09-07 23:12:22,811a8265-d52a-4cc4-b0c4-8706bbe1505b,1,22f5b57a-4adb-4611-b44e-ec0c384e9c68,0971bfd4-c0d7-4ff9-991f-5ce2ea1f5bc4
2019-09-07 23:12:22,55c061ae-5f79-4faf-a3e7-e2e04528617b,1,22f5b57a-4adb-4611-b44e-ec0c384e9c68,0971bfd4-c0d7-4ff9-991f-5ce2ea1f5bc4
2019-09-07 23:12:22,b665b1a2-7087-43d8-a104-efe09591e59a,1,22f5b57a-4adb-4611-b44e-ec0c384e9c68,0971bfd4-c0d7-4ff9-991f-5ce2ea1f5bc4
2019-09-07 23:12:22,65f6bfd6-6f36-4585-886a-8cea50287cf2,1,22f5b57a-4adb-4611-b44e-ec0c384e9c68,0971bfd4-c0d7-4ff9-991f-5ce2ea1f5bc4
2019-09-07 23:12:23,b87fa9b5-c6ac-45eb-989d-6ca7adac052d,1,22f5b57a-4adb-4611-b44e-ec0c384e9c68,0971bfd4-c0d7-4ff9-991f-5ce2ea1f5bc4
2019-09-07 23:12:23,ff219600-16de-4557-a7dd-c41393600164,1,22f5b57a-4adb-4611-b44e-ec0c384e9c68,0971bfd4-c0d7-4ff9-991f-5ce2ea1f5bc4
2019-09-07 23:15:21,b665b1a2-7087-43d8-a104-efe09591e59a,1,22f5b57a-4adb-4611-b44e-ec0c384e9c68,3b874a95-ee1e-42c6-9570-b347ac86e683
2019-09-07 23:15:21,65f6bfd6-6f36-4585-886a-8cea50287cf2,1,22f5b57a-4adb-4611-b44e-ec0c384e9c68,3b874a95-ee1e-42c6-9570-b347ac86e683
2019-09-07 23:15:51,ff219600-16de-4557-a7dd-c41393600164,1,22f5b57a-4adb-4611-b44e-ec0c384e9c68,3b874a95-ee1e-42c6-9570-b347ac86e683
2019-09-07 23:15:51,b87fa9b5-c6ac-45eb-989d-6ca7adac052d,1,22f5b57a-4adb-4611-b44e-ec0c384e9c68,3b874a95-ee1e-42c6-9570-b347ac86e683
2019-09-07 23:16:12,ff219600-16de-4557-a7dd-c41393600164,1,22f5b57a-4adb-4611-b44e-ec0c384e9c68,e064ddec-746e-4ba3-b66c-21d91248ef85
2019-09-07 23:16:12,b87fa9b5-c6ac-45eb-989d-6ca7adac052d,1,22f5b57a-4adb-4611-b44e-ec0c384e9c68,e064ddec-746e-4ba3-b66c-21d91248ef85
2019-09-07 23:13:23,b665b1a2-7087-43d8-a104-efe09591e59a,1,24e953f4-978a-4883-ae06-35f9479edae0,6ea7f56e-8914-4941-af1d-6f2b9fc19415
2019-09-07 23:13:23,65f6bfd6-6f36-4585-886a-8cea50287cf2,1,24e953f4-978a-4883-ae06-35f9479edae0,6ea7f56e-8914-4941-af1d-6f2b9fc19415
2019-09-07 23:13:24,811a8265-d52a-4cc4-b0c4-8706bbe1505b,1,24e953f4-978a-4883-ae06-35f9479edae0,6ea7f56e-8914-4941-af1d-6f2b9fc19415
2019-09-07 23:13:24,55c061ae-5f79-4faf-a3e7-e2e04528617b,1,24e953f4-978a-4883-ae06-35f9479edae0,6ea7f56e-8914-4941-af1d-6f2b9fc19415
2019-09-07 23:13:24,ff219600-16de-4557-a7dd-c41393600164,1,24e953f4-978a-4883-ae06-35f9479edae0,6ea7f56e-8914-4941-af1d-6f2b9fc19415
2019-09-07 23:13:24,b87fa9b5-c6ac-45eb-989d-6ca7adac052d,1,24e953f4-978a-4883-ae06-35f9479edae0,6ea7f56e-8914-4941-af1d-6f2b9fc19415
2019-09-07 23:13:34,3815c556-09cb-4944-bd6e-e64533353497,1,24e953f4-978a-4883-ae06-35f9479edae0,6ea7f56e-8914-4941-af1d-6f2b9fc19415
2019-09-07 23:13:34,7b6d67a7-eee4-4cfc-a3e6-6da73e0c4086,1,24e953f4-978a-4883-ae06-35f9479edae0,6ea7f56e-8914-4941-af1d-6f2b9fc19415
2019-09-07 23:14:08,b665b1a2-7087-43d8-a104-efe09591e59a,1,24e953f4-978a-4883-ae06-35f9479edae0,4a049def-5c55-4c6f-8e05-a9841f580c0f
2019-09-07 23:14:08,65f6bfd6-6f36-4585-886a-8cea50287cf2,1,24e953f4-978a-4883-ae06-35f9479edae0,4a049def-5c55-4c6f-8e05-a9841f580c0f
2019-09-07 23:14:08,811a8265-d52a-4cc4-b0c4-8706bbe1505b,1,24e953f4-978a-4883-ae06-35f9479edae0,4a049def-5c55-4c6f-8e05-a9841f580c0f
2019-09-07 23:14:08,55c061ae-5f79-4faf-a3e7-e2e04528617b,1,24e953f4-978a-4883-ae06-35f9479edae0,4a049def-5c55-4c6f-8e05-a9841f580c0f
2019-09-07 23:14:08,b87fa9b5-c6ac-45eb-989d-6ca7adac052d,1,24e953f4-978a-4883-ae06-35f9479edae0,209f8be6-f803-47fe-a2e8-5cacaab4a3e8
2019-09-07 23:14:08,ff219600-16de-4557-a7dd-c41393600164,1,24e953f4-978a-4883-ae06-35f9479edae0,209f8be6-f803-47fe-a2e8-5cacaab4a3e8
2019-09-07 23:14:13,04024fd7-ed3c-4b95-8063-021196906947,1,24e953f4-978a-4883-ae06-35f9479edae0,4a049def-5c55-4c6f-8e05-a9841f580c0f
2019-09-07 23:14:14,c9e8643f-1413-49b6-b762-d5905242310c,1,24e953f4-978a-4883-ae06-35f9479edae0,4a049def-5c55-4c6f-8e05-a9841f580c0f
2019-09-07 23:12:23,c9e8643f-1413-49b6-b762-d5905242310c,1,6ea7f56e-8914-4941-af1d-6f2b9fc19415,0971bfd4-c0d7-4ff9-991f-5ce2ea1f5bc4
2019-09-07 23:13:47,b665b1a2-7087-43d8-a104-efe09591e59a,1,6ea7f56e-8914-4941-af1d-6f2b9fc19415,24e953f4-978a-4883-ae06-35f9479edae0
2019-09-07 23:13:48,65f6bfd6-6f36-4585-886a-8cea50287cf2,1,6ea7f56e-8914-4941-af1d-6f2b9fc19415,24e953f4-978a-4883-ae06-35f9479edae0
2019-09-07 23:13:48,b87fa9b5-c6ac-45eb-989d-6ca7adac052d,1,6ea7f56e-8914-4941-af1d-6f2b9fc19415,24e953f4-978a-4883-ae06-35f9479edae0
2019-09-07 23:13:48,ff219600-16de-4557-a7dd-c41393600164,1,6ea7f56e-8914-4941-af1d-6f2b9fc19415,24e953f4-978a-4883-ae06-35f9479edae0
2019-09-07 23:13:48,811a8265-d52a-4cc4-b0c4-8706bbe1505b,1,6ea7f56e-8914-4941-af1d-6f2b9fc19415,24e953f4-978a-4883-ae06-35f9479edae0
2019-09-07 23:13:48,55c061ae-5f79-4faf-a3e7-e2e04528617b,1,6ea7f56e-8914-4941-af1d-6f2b9fc19415,24e953f4-978a-4883-ae06-35f9479edae0
2019-09-07 23:45:26,6e1686ce-6055-46d5-8ff1-aa54f95426e6,1,6ea7f56e-8914-4941-af1d-6f2b9fc19415,209f8be6-f803-47fe-a2e8-5cacaab4a3e8
2019-09-07 23:45:26,8fc521f5-d6dd-4c94-823f-23eb3483a170,1,6ea7f56e-8914-4941-af1d-6f2b9fc19415,209f8be6-f803-47fe-a2e8-5cacaab4a3e8
2019-09-07 23:45:26,ff219600-16de-4557-a7dd-c41393600164,1,6ea7f56e-8914-4941-af1d-6f2b9fc19415,209f8be6-f803-47fe-a2e8-5cacaab4a3e8
2019-09-07 23:45:26,b87fa9b5-c6ac-45eb-989d-6ca7adac052d,1,6ea7f56e-8914-4941-af1d-6f2b9fc19415,209f8be6-f803-47fe-a2e8-5cacaab4a3e8
2019-09-07 23:45:27,0572d111-a31f-4e23-83ab-c4352b0a8f32,1,6ea7f56e-8914-4941-af1d-6f2b9fc19415,209f8be6-f803-47fe-a2e8-5cacaab4a3e8
2019-09-07 23:45:27,c755fd88-4210-4f31-9cb5-bf999fb82eed,1,6ea7f56e-8914-4941-af1d-6f2b9fc19415,209f8be6-f803-47fe-a2e8-5cacaab4a3e8
2019-09-07 23:45:56,ff219600-16de-4557-a7dd-c41393600164,1,6ea7f56e-8914-4941-af1d-6f2b9fc19415,209f8be6-f803-47fe-a2e8-5cacaab4a3e8
2019-09-07 23:45:56,b87fa9b5-c6ac-45eb-989d-6ca7adac052d,1,6ea7f56e-8914-4941-af1d-6f2b9fc19415,209f8be6-f803-47fe-a2e8-5cacaab4a3e8
2019-09-07 23:45:56,6e1686ce-6055-46d5-8ff1-aa54f95426e6,1,6ea7f56e-8914-4941-af1d-6f2b9fc19415,209f8be6-f803-47fe-a2e8-5cacaab4a3e8
2019-09-07 23:45:57,8fc521f5-d6dd-4c94-823f-23eb3483a170,1,6ea7f56e-8914-4941-af1d-6f2b9fc19415,209f8be6-f803-47fe-a2e8-5cacaab4a3e8
2019-09-07 23:45:57,0572d111-a31f-4e23-83ab-c4352b0a8f32,1,6ea7f56e-8914-4941-af1d-6f2b9fc19415,209f8be6-f803-47fe-a2e8-5cacaab4a3e8
2019-09-07 23:45:57,c755fd88-4210-4f31-9cb5-bf999fb82eed,1,6ea7f56e-8914-4941-af1d-6f2b9fc19415,209f8be6-f803-47fe-a2e8-5cacaab4a3e8
2019-09-07 23:12:43,b665b1a2-7087-43d8-a104-efe09591e59a,1,0971bfd4-c0d7-4ff9-991f-5ce2ea1f5bc4,fbc115a8-5085-4f00-b51f-c6bc7616829c
2019-09-07 23:12:43,65f6bfd6-6f36-4585-886a-8cea50287cf2,1,0971bfd4-c0d7-4ff9-991f-5ce2ea1f5bc4,fbc115a8-5085-4f00-b51f-c6bc7616829c
2019-09-07 23:12:43,04024fd7-ed3c-4b95-8063-021196906947,1,0971bfd4-c0d7-4ff9-991f-5ce2ea1f5bc4,fbc115a8-5085-4f00-b51f-c6bc7616829c
2019-09-07 23:12:43,c9e8643f-1413-49b6-b762-d5905242310c,1,0971bfd4-c0d7-4ff9-991f-5ce2ea1f5bc4,fbc115a8-5085-4f00-b51f-c6bc7616829c
2019-09-07 23:12:43,811a8265-d52a-4cc4-b0c4-8706bbe1505b,1,0971bfd4-c0d7-4ff9-991f-5ce2ea1f5bc4,fbc115a8-5085-4f00-b51f-c6bc7616829c
2019-09-07 23:12:43,55c061ae-5f79-4faf-a3e7-e2e04528617b,1,0971bfd4-c0d7-4ff9-991f-5ce2ea1f5bc4,fbc115a8-5085-4f00-b51f-c6bc7616829c
2019-09-07 23:12:44,ff219600-16de-4557-a7dd-c41393600164,1,0971bfd4-c0d7-4ff9-991f-5ce2ea1f5bc4,fbc115a8-5085-4f00-b51f-c6bc7616829c
2019-09-07 23:12:44,b87fa9b5-c6ac-45eb-989d-6ca7adac052d,1,0971bfd4-c0d7-4ff9-991f-5ce2ea1f5bc4,fbc115a8-5085-4f00-b51f-c6bc7616829c
2019-09-07 23:12:47,2c30f83b-b7bd-4d27-8f12-32870d530835,1,0971bfd4-c0d7-4ff9-991f-5ce2ea1f5bc4,fbc115a8-5085-4f00-b51f-c6bc7616829c
2019-09-07 23:12:47,d5e70d38-b47d-46f8-b580-84b1b6820597,1,0971bfd4-c0d7-4ff9-991f-5ce2ea1f5bc4,fbc115a8-5085-4f00-b51f-c6bc7616829c
2019-09-08 00:06:36,0572d111-a31f-4e23-83ab-c4352b0a8f32,1,0971bfd4-c0d7-4ff9-991f-5ce2ea1f5bc4,4a049def-5c55-4c6f-8e05-a9841f580c0f
2019-09-08 00:06:36,c755fd88-4210-4f31-9cb5-bf999fb82eed,1,0971bfd4-c0d7-4ff9-991f-5ce2ea1f5bc4,4a049def-5c55-4c6f-8e05-a9841f580c0f
2019-09-07 23:16:02,ff219600-16de-4557-a7dd-c41393600164,1,3b874a95-ee1e-42c6-9570-b347ac86e683,22f5b57a-4adb-4611-b44e-ec0c384e9c68
2019-09-07 23:16:02,b87fa9b5-c6ac-45eb-989d-6ca7adac052d,1,3b874a95-ee1e-42c6-9570-b347ac86e683,22f5b57a-4adb-4611-b44e-ec0c384e9c68
2019-09-07 23:32:01,0572d111-a31f-4e23-83ab-c4352b0a8f32,1,3b874a95-ee1e-42c6-9570-b347ac86e683,64311692-9334-4898-a7e0-6924bccb3f3d
2019-09-07 23:32:01,c755fd88-4210-4f31-9cb5-bf999fb82eed,1,3b874a95-ee1e-42c6-9570-b347ac86e683,64311692-9334-4898-a7e0-6924bccb3f3d
2019-09-07 23:14:35,b665b1a2-7087-43d8-a104-efe09591e59a,1,209f8be6-f803-47fe-a2e8-5cacaab4a3e8,4a049def-5c55-4c6f-8e05-a9841f580c0f
2019-09-07 23:14:35,65f6bfd6-6f36-4585-886a-8cea50287cf2,1,209f8be6-f803-47fe-a2e8-5cacaab4a3e8,4a049def-5c55-4c6f-8e05-a9841f580c0f
2019-09-07 23:15:01,b665b1a2-7087-43d8-a104-efe09591e59a,1,209f8be6-f803-47fe-a2e8-5cacaab4a3e8,4a049def-5c55-4c6f-8e05-a9841f580c0f
2019-09-07 23:15:02,65f6bfd6-6f36-4585-886a-8cea50287cf2,1,209f8be6-f803-47fe-a2e8-5cacaab4a3e8,4a049def-5c55-4c6f-8e05-a9841f580c0f
2019-09-07 23:15:43,ff219600-16de-4557-a7dd-c41393600164,1,209f8be6-f803-47fe-a2e8-5cacaab4a3e8,22f5b57a-4adb-4611-b44e-ec0c384e9c68
2019-09-07 23:15:43,b87fa9b5-c6ac-45eb-989d-6ca7adac052d,1,209f8be6-f803-47fe-a2e8-5cacaab4a3e8,22f5b57a-4adb-4611-b44e-ec0c384e9c68
2019-09-07 23:15:44,dd6802c2-0bad-48e8-bdc3-10af6b704853,1,209f8be6-f803-47fe-a2e8-5cacaab4a3e8,22f5b57a-4adb-4611-b44e-ec0c384e9c68
2019-09-07 23:15:44,255f7f6b-ed55-4418-993b-03bbd4280c20,1,209f8be6-f803-47fe-a2e8-5cacaab4a3e8,22f5b57a-4adb-4611-b44e-ec0c384e9c68
2019-09-07 23:45:00,0572d111-a31f-4e23-83ab-c4352b0a8f32,1,209f8be6-f803-47fe-a2e8-5cacaab4a3e8,939d8dd5-8199-4e53-83f5-15e54b00b11d
2019-09-07 23:45:01,c755fd88-4210-4f31-9cb5-bf999fb82eed,1,209f8be6-f803-47fe-a2e8-5cacaab4a3e8,939d8dd5-8199-4e53-83f5-15e54b00b11d
2019-09-07 23:45:01,6e1686ce-6055-46d5-8ff1-aa54f95426e6,1,209f8be6-f803-47fe-a2e8-5cacaab4a3e8,939d8dd5-8199-4e53-83f5-15e54b00b11d
2019-09-07 23:45:01,8fc521f5-d6dd-4c94-823f-23eb3483a170,1,209f8be6-f803-47fe-a2e8-5cacaab4a3e8,939d8dd5-8199-4e53-83f5-15e54b00b11d
2019-09-07 23:45:01,ff219600-16de-4557-a7dd-c41393600164,1,209f8be6-f803-47fe-a2e8-5cacaab4a3e8,939d8dd5-8199-4e53-83f5-15e54b00b11d
2019-09-07 23:45:02,b87fa9b5-c6ac-45eb-989d-6ca7adac052d,1,209f8be6-f803-47fe-a2e8-5cacaab4a3e8,939d8dd5-8199-4e53-83f5-15e54b00b11d
2019-09-07 23:45:39,0572d111-a31f-4e23-83ab-c4352b0a8f32,1,209f8be6-f803-47fe-a2e8-5cacaab4a3e8,6ea7f56e-8914-4941-af1d-6f2b9fc19415
2019-09-07 23:45:40,c755fd88-4210-4f31-9cb5-bf999fb82eed,1,209f8be6-f803-47fe-a2e8-5cacaab4a3e8,6ea7f56e-8914-4941-af1d-6f2b9fc19415
2019-09-07 23:45:40,6e1686ce-6055-46d5-8ff1-aa54f95426e6,1,209f8be6-f803-47fe-a2e8-5cacaab4a3e8,6ea7f56e-8914-4941-af1d-6f2b9fc19415
2019-09-07 23:45:40,8fc521f5-d6dd-4c94-823f-23eb3483a170,1,209f8be6-f803-47fe-a2e8-5cacaab4a3e8,6ea7f56e-8914-4941-af1d-6f2b9fc19415
2019-09-07 23:45:41,ff219600-16de-4557-a7dd-c41393600164,1,209f8be6-f803-47fe-a2e8-5cacaab4a3e8,6ea7f56e-8914-4941-af1d-6f2b9fc19415
2019-09-07 23:45:41,b87fa9b5-c6ac-45eb-989d-6ca7adac052d,1,209f8be6-f803-47fe-a2e8-5cacaab4a3e8,6ea7f56e-8914-4941-af1d-6f2b9fc19415
2019-09-07 23:46:08,0572d111-a31f-4e23-83ab-c4352b0a8f32,1,209f8be6-f803-47fe-a2e8-5cacaab4a3e8,64311692-9334-4898-a7e0-6924bccb3f3d
2019-09-07 23:46:08,c755fd88-4210-4f31-9cb5-bf999fb82eed,1,209f8be6-f803-47fe-a2e8-5cacaab4a3e8,64311692-9334-4898-a7e0-6924bccb3f3d
2019-09-07 23:46:09,ff219600-16de-4557-a7dd-c41393600164,1,209f8be6-f803-47fe-a2e8-5cacaab4a3e8,64311692-9334-4898-a7e0-6924bccb3f3d
2019-09-07 23:46:09,b87fa9b5-c6ac-45eb-989d-6ca7adac052d,1,209f8be6-f803-47fe-a2e8-5cacaab4a3e8,64311692-9334-4898-a7e0-6924bccb3f3d
2019-09-07 23:46:09,6e1686ce-6055-46d5-8ff1-aa54f95426e6,1,209f8be6-f803-47fe-a2e8-5cacaab4a3e8,64311692-9334-4898-a7e0-6924bccb3f3d
2019-09-07 23:46:09,8fc521f5-d6dd-4c94-823f-23eb3483a170,1,209f8be6-f803-47fe-a2e8-5cacaab4a3e8,64311692-9334-4898-a7e0-6924bccb3f3d
2019-09-07 23:09:41,6f61668d-3edc-4ef6-a4fe-d9d83a564832,1,f928a3ab-1110-487e-b616-0c2784a9e8de,f928a3ab-1110-487e-b616-0c2784a9e8de
2019-09-07 23:13:34,df6172e2-7f7a-4dc2-bbaa-dee3336f1f3e,1,f1656eb0-54f4-4cb2-a432-872db5431f46,f1656eb0-54f4-4cb2-a432-872db5431f46
2019-09-07 23:12:23,9140d071-9a86-4b63-af1a-ad7f99f705c2,1,e25e0cf7-53ae-4d73-a88b-3cc6a0c16661,e25e0cf7-53ae-4d73-a88b-3cc6a0c16661
2019-09-07 23:12:44,9140d071-9a86-4b63-af1a-ad7f99f705c2,1,e25e0cf7-53ae-4d73-a88b-3cc6a0c16661,e25e0cf7-53ae-4d73-a88b-3cc6a0c16661
2019-09-07 23:14:09,9140d071-9a86-4b63-af1a-ad7f99f705c2,1,e25e0cf7-53ae-4d73-a88b-3cc6a0c16661,e25e0cf7-53ae-4d73-a88b-3cc6a0c16661
2019-09-07 23:14:23,9140d071-9a86-4b63-af1a-ad7f99f705c2,1,e25e0cf7-53ae-4d73-a88b-3cc6a0c16661,e25e0cf7-53ae-4d73-a88b-3cc6a0c16661
2019-09-07 23:14:36,9140d071-9a86-4b63-af1a-ad7f99f705c2,1,e25e0cf7-53ae-4d73-a88b-3cc6a0c16661,e25e0cf7-53ae-4d73-a88b-3cc6a0c16661
2019-09-07 23:14:49,9140d071-9a86-4b63-af1a-ad7f99f705c2,1,e25e0cf7-53ae-4d73-a88b-3cc6a0c16661,e25e0cf7-53ae-4d73-a88b-3cc6a0c16661
2019-09-07 23:54:38,e3b84bb4-6e8a-4bae-9770-9691557219a6,1,87043a8a-3092-47e2-aa99-d5d8d4cce341,87043a8a-3092-47e2-aa99-d5d8d4cce341
2019-09-07 23:54:46,e3b84bb4-6e8a-4bae-9770-9691557219a6,1,87043a8a-3092-47e2-aa99-d5d8d4cce341,87043a8a-3092-47e2-aa99-d5d8d4cce341
2019-09-07 23:12:04,38499243-2cc6-41bd-a11b-9a536129f782,1,b7d1b6fe-5aff-40f8-84b7-fffba9c4a73b,b7d1b6fe-5aff-40f8-84b7-fffba9c4a73b
2019-09-07 23:12:23,38499243-2cc6-41bd-a11b-9a536129f782,1,b7d1b6fe-5aff-40f8-84b7-fffba9c4a73b,b7d1b6fe-5aff-40f8-84b7-fffba9c4a73b
2019-09-07 23:13:49,38499243-2cc6-41bd-a11b-9a536129f782,1,b7d1b6fe-5aff-40f8-84b7-fffba9c4a73b,b7d1b6fe-5aff-40f8-84b7-fffba9c4a73b
2019-09-07 23:14:09,38499243-2cc6-41bd-a11b-9a536129f782,1,b7d1b6fe-5aff-40f8-84b7-fffba9c4a73b,b7d1b6fe-5aff-40f8-84b7-fffba9c4a73b
2019-09-07 23:13:13,f5554e7e-af7a-4a17-8e9b-9ecdb403e7ed,1,e58d99ae-1194-4c4a-b613-8773a4024f7e,e58d99ae-1194-4c4a-b613-8773a4024f7e
2019-09-07 23:14:09,8c159bd9-59fe-4dea-99f1-47003efdaa2e,1,0c348785-2281-496f-8520-4357513ead70,0c348785-2281-496f-8520-4357513ead70
2019-09-07 23:32:01,fba0a2b1-290c-4a3e-8082-1587980bd18d,1,feaf3391-f6b7-4599-8fa2-b88b4730ec2f,feaf3391-f6b7-4599-8fa2-b88b4730ec2f
2019-09-07 23:44:26,fba0a2b1-290c-4a3e-8082-1587980bd18d,1,feaf3391-f6b7-4599-8fa2-b88b4730ec2f,feaf3391-f6b7-4599-8fa2-b88b4730ec2f
2019-09-07 23:44:41,fba0a2b1-290c-4a3e-8082-1587980bd18d,1,feaf3391-f6b7-4599-8fa2-b88b4730ec2f,feaf3391-f6b7-4599-8fa2-b88b4730ec2f
2019-09-07 23:45:02,fba0a2b1-290c-4a3e-8082-1587980bd18d,1,feaf3391-f6b7-4599-8fa2-b88b4730ec2f,feaf3391-f6b7-4599-8fa2-b88b4730ec2f
2019-09-07 23:45:15,fba0a2b1-290c-4a3e-8082-1587980bd18d,1,feaf3391-f6b7-4599-8fa2-b88b4730ec2f,feaf3391-f6b7-4599-8fa2-b88b4730ec2f
2019-09-07 23:45:27,fba0a2b1-290c-4a3e-8082-1587980bd18d,1,feaf3391-f6b7-4599-8fa2-b88b4730ec2f,feaf3391-f6b7-4599-8fa2-b88b4730ec2f
2019-09-07 23:51:38,fba0a2b1-290c-4a3e-8082-1587980bd18d,1,feaf3391-f6b7-4599-8fa2-b88b4730ec2f,feaf3391-f6b7-4599-8fa2-b88b4730ec2f
2019-09-07 23:51:48,fba0a2b1-290c-4a3e-8082-1587980bd18d,1,feaf3391-f6b7-4599-8fa2-b88b4730ec2f,feaf3391-f6b7-4599-8fa2-b88b4730ec2f
2019-09-07 23:15:44,018e5897-e2fb-400b-96e2-df93a0faf2e5,1,50febb1f-9e68-45aa-9dee-1255ea314a58,50febb1f-9e68-45aa-9dee-1255ea314a58
2019-09-07 23:12:48,78fc55b2-8c12-45af-88e2-f60ab2e14907,1,ca0df680-ec1b-454b-93bf-63e7a33b979f,ca0df680-ec1b-454b-93bf-63e7a33b979f
2019-09-07 23:13:08,9140d071-9a86-4b63-af1a-ad7f99f705c2,0,NA,NA
2019-09-07 23:13:09,8c159bd9-59fe-4dea-99f1-47003efdaa2e,0,NA,NA
2019-09-07 23:13:09,38499243-2cc6-41bd-a11b-9a536129f782,0,NA,NA
2019-09-07 23:13:10,5ef78484-27d3-44df-8061-b83b4f33fc0c,0,NA,NA
2019-09-07 23:12:04,8c159bd9-59fe-4dea-99f1-47003efdaa2e,0,NA,NA
2019-09-07 23:15:13,9140d071-9a86-4b63-af1a-ad7f99f705c2,0,NA,NA
2019-09-08 00:06:44,fba0a2b1-290c-4a3e-8082-1587980bd18d,0,NA,NA
2019-09-07 23:17:02,38499243-2cc6-41bd-a11b-9a536129f782,0,NA,NA
2019-09-07 23:44:26,641ed4b1-d55b-4643-9817-51e5d1628f04,0,NA,NA
2019-09-07 23:46:24,fba0a2b1-290c-4a3e-8082-1587980bd18d,0,NA,NA
2019-09-07 23:46:25,38499243-2cc6-41bd-a11b-9a536129f782,0,NA,NA
2019-09-07 23:46:25,641ed4b1-d55b-4643-9817-51e5d1628f04,0,NA,NA
2019-09-07 23:46:53,fba0a2b1-290c-4a3e-8082-1587980bd18d,0,NA,NA
2019-09-07 23:46:54,38499243-2cc6-41bd-a11b-9a536129f782,0,NA,NA
2019-09-07 23:46:54,641ed4b1-d55b-4643-9817-51e5d1628f04,0,NA,NA
2019-09-07 23:47:22,fba0a2b1-290c-4a3e-8082-1587980bd18d,0,NA,NA
2019-09-07 23:47:22,641ed4b1-d55b-4643-9817-51e5d1628f04,0,NA,NA
2019-09-07 23:47:23,38499243-2cc6-41bd-a11b-9a536129f782,0,NA,NA
2019-09-07 23:47:51,38499243-2cc6-41bd-a11b-9a536129f782,0,NA,NA
2019-09-07 23:47:51,641ed4b1-d55b-4643-9817-51e5d1628f04,0,NA,NA
2019-09-07 23:47:52,fba0a2b1-290c-4a3e-8082-1587980bd18d,0,NA,NA
2019-09-07 23:48:16,38499243-2cc6-41bd-a11b-9a536129f782,0,NA,NA
2019-09-08 00:09:14,fba0a2b1-290c-4a3e-8082-1587980bd18d,0,NA,NA
2019-09-07 23:44:40,641ed4b1-d55b-4643-9817-51e5d1628f04,0,NA,NA
2019-09-07 23:45:14,641ed4b1-d55b-4643-9817-51e5d1628f04,0,NA,NA
2019-09-07 23:45:14,38499243-2cc6-41bd-a11b-9a536129f782,0,NA,NA
2019-09-07 23:47:37,fba0a2b1-290c-4a3e-8082-1587980bd18d,0,NA,NA
2019-09-07 23:47:38,38499243-2cc6-41bd-a11b-9a536129f782,0,NA,NA
2019-09-07 23:47:38,641ed4b1-d55b-4643-9817-51e5d1628f04,0,NA,NA
2019-09-07 23:48:06,641ed4b1-d55b-4643-9817-51e5d1628f04,0,NA,NA
2019-09-07 23:48:06,fba0a2b1-290c-4a3e-8082-1587980bd18d,0,NA,NA
2019-09-07 23:48:07,38499243-2cc6-41bd-a11b-9a536129f782,0,NA,NA
2019-09-07 23:46:39,fba0a2b1-290c-4a3e-8082-1587980bd18d,0,NA,NA
2019-09-07 23:46:39,641ed4b1-d55b-4643-9817-51e5d1628f04,0,NA,NA
2019-09-07 23:46:40,38499243-2cc6-41bd-a11b-9a536129f782,0,NA,NA
2019-09-07 23:47:07,fba0a2b1-290c-4a3e-8082-1587980bd18d,0,NA,NA
2019-09-07 23:47:08,38499243-2cc6-41bd-a11b-9a536129f782,0,NA,NA
2019-09-07 23:47:08,641ed4b1-d55b-4643-9817-51e5d1628f04,0,NA,NA
2019-09-07 23:07:22,9140d071-9a86-4b63-af1a-ad7f99f705c2,0,NA,NA
2019-09-07 23:12:31,6f61668d-3edc-4ef6-a4fe-d9d83a564832,0,NA,NA
2019-09-07 23:12:22,8c159bd9-59fe-4dea-99f1-47003efdaa2e,0,NA,NA
2019-09-07 23:15:21,9140d071-9a86-4b63-af1a-ad7f99f705c2,0,NA,NA
2019-09-07 23:15:51,38499243-2cc6-41bd-a11b-9a536129f782,0,NA,NA
2019-09-07 23:16:12,38499243-2cc6-41bd-a11b-9a536129f782,0,NA,NA
2019-09-07 23:13:23,9140d071-9a86-4b63-af1a-ad7f99f705c2,0,NA,NA
2019-09-07 23:13:24,8c159bd9-59fe-4dea-99f1-47003efdaa2e,0,NA,NA
2019-09-07 23:13:24,38499243-2cc6-41bd-a11b-9a536129f782,0,NA,NA
2019-09-07 23:14:13,5ef78484-27d3-44df-8061-b83b4f33fc0c,0,NA,NA
2019-09-07 23:12:23,5ef78484-27d3-44df-8061-b83b4f33fc0c,0,NA,NA
2019-09-07 23:13:47,9140d071-9a86-4b63-af1a-ad7f99f705c2,0,NA,NA
2019-09-07 23:13:48,8c159bd9-59fe-4dea-99f1-47003efdaa2e,0,NA,NA
2019-09-07 23:45:26,641ed4b1-d55b-4643-9817-51e5d1628f04,0,NA,NA
2019-09-07 23:45:26,38499243-2cc6-41bd-a11b-9a536129f782,0,NA,NA
2019-09-07 23:45:56,38499243-2cc6-41bd-a11b-9a536129f782,0,NA,NA
2019-09-07 23:45:56,641ed4b1-d55b-4643-9817-51e5d1628f04,0,NA,NA
2019-09-07 23:45:57,fba0a2b1-290c-4a3e-8082-1587980bd18d,0,NA,NA
2019-09-07 23:12:43,5ef78484-27d3-44df-8061-b83b4f33fc0c,0,NA,NA
2019-09-07 23:12:43,8c159bd9-59fe-4dea-99f1-47003efdaa2e,0,NA,NA
2019-09-07 23:12:44,38499243-2cc6-41bd-a11b-9a536129f782,0,NA,NA
2019-09-08 00:06:36,fba0a2b1-290c-4a3e-8082-1587980bd18d,0,NA,NA
2019-09-07 23:16:02,38499243-2cc6-41bd-a11b-9a536129f782,0,NA,NA
2019-09-07 23:15:01,9140d071-9a86-4b63-af1a-ad7f99f705c2,0,NA,NA
2019-09-07 23:15:43,38499243-2cc6-41bd-a11b-9a536129f782,0,NA,NA
2019-09-07 23:45:01,641ed4b1-d55b-4643-9817-51e5d1628f04,0,NA,NA
2019-09-07 23:45:01,38499243-2cc6-41bd-a11b-9a536129f782,0,NA,NA
2019-09-07 23:45:39,fba0a2b1-290c-4a3e-8082-1587980bd18d,0,NA,NA
2019-09-07 23:45:40,641ed4b1-d55b-4643-9817-51e5d1628f04,0,NA,NA
2019-09-07 23:45:41,38499243-2cc6-41bd-a11b-9a536129f782,0,NA,NA
2019-09-07 23:46:08,fba0a2b1-290c-4a3e-8082-1587980bd18d,0,NA,NA
2019-09-07 23:46:09,38499243-2cc6-41bd-a11b-9a536129f782,0,NA,NA
2019-09-07 23:46:09,641ed4b1-d55b-4643-9817-51e5d1628f04,0,NA,NA
