date,actor,success,from,to
2019-09-08 19:43:38,9bc12e58-0544-4b37-8f68-1cd6754aee72,1,fbc115a8-5085-4f00-b51f-c6bc7616829c,a05f94f0-4d77-4828-9c30-982096d12a5a
2019-09-08 19:43:38,d5c0514c-5ed3-42ba-abcc-32ec55f13fb8,1,fbc115a8-5085-4f00-b51f-c6bc7616829c,a05f94f0-4d77-4828-9c30-982096d12a5a
2019-09-08 19:52:32,50969386-7f31-4c9e-b4d0-7c770fa08aea,1,fbc115a8-5085-4f00-b51f-c6bc7616829c,22f5b57a-4adb-4611-b44e-ec0c384e9c68
2019-09-08 19:32:15,eda55b8f-129f-47c2-b76b-2552c9dad32c,1,a05f94f0-4d77-4828-9c30-982096d12a5a,6ea7f56e-8914-4941-af1d-6f2b9fc19415
2019-09-08 19:32:15,a791ef51-c593-4113-9fab-1ccd4bd47787,1,a05f94f0-4d77-4828-9c30-982096d12a5a,6ea7f56e-8914-4941-af1d-6f2b9fc19415
2019-09-08 19:43:46,9bc12e58-0544-4b37-8f68-1cd6754aee72,1,a05f94f0-4d77-4828-9c30-982096d12a5a,939d8dd5-8199-4e53-83f5-15e54b00b11d
2019-09-08 19:43:46,d5c0514c-5ed3-42ba-abcc-32ec55f13fb8,1,a05f94f0-4d77-4828-9c30-982096d12a5a,939d8dd5-8199-4e53-83f5-15e54b00b11d
2019-09-08 19:44:52,030943b1-080f-4eaa-afaa-3dcabc43b544,1,a05f94f0-4d77-4828-9c30-982096d12a5a,e064ddec-746e-4ba3-b66c-21d91248ef85
2019-09-08 19:44:52,b68b8891-5667-42bc-8f49-43acb0175e15,1,a05f94f0-4d77-4828-9c30-982096d12a5a,e064ddec-746e-4ba3-b66c-21d91248ef85
2019-09-08 19:55:41,030943b1-080f-4eaa-afaa-3dcabc43b544,1,a05f94f0-4d77-4828-9c30-982096d12a5a,24e953f4-978a-4883-ae06-35f9479edae0
2019-09-08 19:55:51,030943b1-080f-4eaa-afaa-3dcabc43b544,1,a05f94f0-4d77-4828-9c30-982096d12a5a,24e953f4-978a-4883-ae06-35f9479edae0
2019-09-08 19:56:01,030943b1-080f-4eaa-afaa-3dcabc43b544,1,a05f94f0-4d77-4828-9c30-982096d12a5a,24e953f4-978a-4883-ae06-35f9479edae0
2019-09-08 19:56:16,030943b1-080f-4eaa-afaa-3dcabc43b544,1,a05f94f0-4d77-4828-9c30-982096d12a5a,24e953f4-978a-4883-ae06-35f9479edae0
2019-09-08 19:56:22,eda55b8f-129f-47c2-b76b-2552c9dad32c,1,a05f94f0-4d77-4828-9c30-982096d12a5a,24e953f4-978a-4883-ae06-35f9479edae0
2019-09-08 19:56:22,a791ef51-c593-4113-9fab-1ccd4bd47787,1,a05f94f0-4d77-4828-9c30-982096d12a5a,24e953f4-978a-4883-ae06-35f9479edae0
2019-09-08 20:49:03,33851819-da35-42da-96f0-d70a31a481ad,1,a05f94f0-4d77-4828-9c30-982096d12a5a,22f5b57a-4adb-4611-b44e-ec0c384e9c68
2019-09-08 20:49:03,b391e663-41b7-4d29-8dd5-5eb37492b60b,1,a05f94f0-4d77-4828-9c30-982096d12a5a,22f5b57a-4adb-4611-b44e-ec0c384e9c68
2019-09-08 20:50:48,33851819-da35-42da-96f0-d70a31a481ad,1,a05f94f0-4d77-4828-9c30-982096d12a5a,64311692-9334-4898-a7e0-6924bccb3f3d
2019-09-08 20:50:48,b391e663-41b7-4d29-8dd5-5eb37492b60b,1,a05f94f0-4d77-4828-9c30-982096d12a5a,64311692-9334-4898-a7e0-6924bccb3f3d
2019-09-08 20:52:12,33851819-da35-42da-96f0-d70a31a481ad,1,a05f94f0-4d77-4828-9c30-982096d12a5a,0971bfd4-c0d7-4ff9-991f-5ce2ea1f5bc4
2019-09-08 20:52:12,b391e663-41b7-4d29-8dd5-5eb37492b60b,1,a05f94f0-4d77-4828-9c30-982096d12a5a,0971bfd4-c0d7-4ff9-991f-5ce2ea1f5bc4
2019-09-08 19:45:03,030943b1-080f-4eaa-afaa-3dcabc43b544,1,e064ddec-746e-4ba3-b66c-21d91248ef85,22f5b57a-4adb-4611-b44e-ec0c384e9c68
2019-09-08 19:45:03,b68b8891-5667-42bc-8f49-43acb0175e15,1,e064ddec-746e-4ba3-b66c-21d91248ef85,22f5b57a-4adb-4611-b44e-ec0c384e9c68
2019-09-08 19:55:29,030943b1-080f-4eaa-afaa-3dcabc43b544,1,e064ddec-746e-4ba3-b66c-21d91248ef85,a05f94f0-4d77-4828-9c30-982096d12a5a
2019-09-08 19:55:29,b68b8891-5667-42bc-8f49-43acb0175e15,1,e064ddec-746e-4ba3-b66c-21d91248ef85,209f8be6-f803-47fe-a2e8-5cacaab4a3e8
2019-09-08 20:27:31,33851819-da35-42da-96f0-d70a31a481ad,1,e064ddec-746e-4ba3-b66c-21d91248ef85,6ea7f56e-8914-4941-af1d-6f2b9fc19415
2019-09-08 20:27:31,b391e663-41b7-4d29-8dd5-5eb37492b60b,1,e064ddec-746e-4ba3-b66c-21d91248ef85,6ea7f56e-8914-4941-af1d-6f2b9fc19415
2019-09-08 20:27:09,33851819-da35-42da-96f0-d70a31a481ad,1,64311692-9334-4898-a7e0-6924bccb3f3d,6ea7f56e-8914-4941-af1d-6f2b9fc19415
2019-09-08 20:27:09,b391e663-41b7-4d29-8dd5-5eb37492b60b,1,64311692-9334-4898-a7e0-6924bccb3f3d,6ea7f56e-8914-4941-af1d-6f2b9fc19415
2019-09-08 20:52:03,33851819-da35-42da-96f0-d70a31a481ad,1,64311692-9334-4898-a7e0-6924bccb3f3d,a05f94f0-4d77-4828-9c30-982096d12a5a
2019-09-08 20:52:03,b391e663-41b7-4d29-8dd5-5eb37492b60b,1,64311692-9334-4898-a7e0-6924bccb3f3d,a05f94f0-4d77-4828-9c30-982096d12a5a
2019-09-08 19:13:06,780a19fb-21a1-4f61-95cc-7cc6a98579b0,1,be4b4bfc-1b2e-4d61-a093-873e2bf4c9c1,64311692-9334-4898-a7e0-6924bccb3f3d
2019-09-08 19:13:06,a1244bf6-cf80-43a2-a9b6-8bd31558db8d,1,be4b4bfc-1b2e-4d61-a093-873e2bf4c9c1,ca5cfc4a-150f-4889-87cc-758075c59dad
2019-09-08 19:13:06,94b861f3-6419-4d72-a3e9-4df5ead45c2d,1,be4b4bfc-1b2e-4d61-a093-873e2bf4c9c1,0971bfd4-c0d7-4ff9-991f-5ce2ea1f5bc4
2019-09-08 19:14:10,ae647d27-cf8d-4cbf-9479-9e861e6771f5,1,be4b4bfc-1b2e-4d61-a093-873e2bf4c9c1,076b2cf5-e714-4f75-821c-65d9887dd838
2019-09-08 19:14:10,ab52bbea-a75d-40a3-8c38-b68693b13107,1,be4b4bfc-1b2e-4d61-a093-873e2bf4c9c1,e064ddec-746e-4ba3-b66c-21d91248ef85
2019-09-08 19:14:10,5a79d63f-9751-418d-b9d0-68e7298d94d5,1,be4b4bfc-1b2e-4d61-a093-873e2bf4c9c1,fbc115a8-5085-4f00-b51f-c6bc7616829c
2019-09-08 19:15:13,a707eddb-f1f3-407d-8670-383e8169617c,1,be4b4bfc-1b2e-4d61-a093-873e2bf4c9c1,31a77745-054f-4d9d-bf0a-9af5f03f9274
2019-09-08 19:15:13,cb48ccaa-4f4c-4959-b92f-f4d74d80b509,1,be4b4bfc-1b2e-4d61-a093-873e2bf4c9c1,939d8dd5-8199-4e53-83f5-15e54b00b11d
2019-09-08 19:15:13,b13f209f-c419-4812-8f24-330b56a64aa2,1,be4b4bfc-1b2e-4d61-a093-873e2bf4c9c1,9085cf7c-599e-4704-8192-d36e5197fb42
2019-09-08 19:16:17,350b6380-c368-4a24-8f1c-2cc85d256c66,1,be4b4bfc-1b2e-4d61-a093-873e2bf4c9c1,209f8be6-f803-47fe-a2e8-5cacaab4a3e8
2019-09-08 19:16:17,2d0961fe-4c5a-4b18-b0ec-06d3cde104fc,1,be4b4bfc-1b2e-4d61-a093-873e2bf4c9c1,209f8be6-f803-47fe-a2e8-5cacaab4a3e8
2019-09-08 19:16:17,b9722d0c-eb80-4f56-b9a3-151aed50067e,1,be4b4bfc-1b2e-4d61-a093-873e2bf4c9c1,73cff2fe-bc83-451e-a01f-1b54e0dbcf28
2019-09-08 19:17:21,101c9886-d3c8-4b2f-84c3-52cd21713697,1,be4b4bfc-1b2e-4d61-a093-873e2bf4c9c1,e25e0cf7-53ae-4d73-a88b-3cc6a0c16661
2019-09-08 19:17:21,b0af9f68-e077-455b-b6be-c50dff8d1b15,1,be4b4bfc-1b2e-4d61-a093-873e2bf4c9c1,6ddbbf18-3233-4bf3-add3-50d05ecafdd9
2019-09-08 19:17:21,2990aacf-5560-49ae-941b-9898104b3015,1,be4b4bfc-1b2e-4d61-a093-873e2bf4c9c1,6ddbbf18-3233-4bf3-add3-50d05ecafdd9
2019-09-08 19:18:25,e88f5ab5-b05f-4bf6-b580-6cacb910dfb3,1,be4b4bfc-1b2e-4d61-a093-873e2bf4c9c1,e064ddec-746e-4ba3-b66c-21d91248ef85
2019-09-08 19:18:25,8256a8c1-33bd-4ade-bd87-7a9f694d6375,1,be4b4bfc-1b2e-4d61-a093-873e2bf4c9c1,e064ddec-746e-4ba3-b66c-21d91248ef85
2019-09-08 19:18:25,dcf23ebd-a724-43bf-aac4-960599f4c26f,1,be4b4bfc-1b2e-4d61-a093-873e2bf4c9c1,56d117ca-4207-4bb3-be7e-52c667cf3ed5
2019-09-08 19:19:28,0b1ae638-82ad-48cb-a1e0-221c32bd47f1,1,be4b4bfc-1b2e-4d61-a093-873e2bf4c9c1,53983ee5-feeb-4605-913f-79ff05576a2c
2019-09-08 19:19:28,6d2b9197-2847-4c97-90d8-519d03eae689,1,be4b4bfc-1b2e-4d61-a093-873e2bf4c9c1,6ddbbf18-3233-4bf3-add3-50d05ecafdd9
2019-09-08 19:19:28,2cbe2198-a323-4839-892f-c4b8afd7ddc1,1,be4b4bfc-1b2e-4d61-a093-873e2bf4c9c1,31a77745-054f-4d9d-bf0a-9af5f03f9274
2019-09-08 19:20:32,058e6635-1f54-49a7-849e-a6772db73071,1,be4b4bfc-1b2e-4d61-a093-873e2bf4c9c1,939d8dd5-8199-4e53-83f5-15e54b00b11d
2019-09-08 19:20:32,ea6c05e2-e064-478a-8805-1e757095db90,1,be4b4bfc-1b2e-4d61-a093-873e2bf4c9c1,939d8dd5-8199-4e53-83f5-15e54b00b11d
2019-09-08 19:20:32,fc238b8d-8e41-4c5b-aad1-4121689cd78a,1,be4b4bfc-1b2e-4d61-a093-873e2bf4c9c1,8c63c257-f9b2-4779-b2c1-9e97dd45a727
2019-09-08 19:21:36,ced15084-1479-49dc-84fe-40d603df9904,1,be4b4bfc-1b2e-4d61-a093-873e2bf4c9c1,797ef6fe-7e27-441c-9bce-a9ad14bb7d19
2019-09-08 19:21:36,030943b1-080f-4eaa-afaa-3dcabc43b544,1,be4b4bfc-1b2e-4d61-a093-873e2bf4c9c1,a05f94f0-4d77-4828-9c30-982096d12a5a
2019-09-08 19:21:36,b68b8891-5667-42bc-8f49-43acb0175e15,1,be4b4bfc-1b2e-4d61-a093-873e2bf4c9c1,a05f94f0-4d77-4828-9c30-982096d12a5a
2019-09-08 19:22:40,33851819-da35-42da-96f0-d70a31a481ad,1,be4b4bfc-1b2e-4d61-a093-873e2bf4c9c1,24e953f4-978a-4883-ae06-35f9479edae0
2019-09-08 19:22:40,bdbfe0ac-e9b9-4ecb-a35b-619b4c890998,1,be4b4bfc-1b2e-4d61-a093-873e2bf4c9c1,feaf3391-f6b7-4599-8fa2-b88b4730ec2f
2019-09-08 19:22:40,b391e663-41b7-4d29-8dd5-5eb37492b60b,1,be4b4bfc-1b2e-4d61-a093-873e2bf4c9c1,939d8dd5-8199-4e53-83f5-15e54b00b11d
2019-09-08 19:23:43,9bc12e58-0544-4b37-8f68-1cd6754aee72,1,be4b4bfc-1b2e-4d61-a093-873e2bf4c9c1,fbc115a8-5085-4f00-b51f-c6bc7616829c
2019-09-08 19:23:43,d5c0514c-5ed3-42ba-abcc-32ec55f13fb8,1,be4b4bfc-1b2e-4d61-a093-873e2bf4c9c1,fbc115a8-5085-4f00-b51f-c6bc7616829c
2019-09-08 19:23:44,fd100837-d14f-4613-8634-a239392ab5dc,1,be4b4bfc-1b2e-4d61-a093-873e2bf4c9c1,0c348785-2281-496f-8520-4357513ead70
2019-09-08 19:24:47,e39814cc-6df6-4ad8-8c68-ccbe42e08a85,1,be4b4bfc-1b2e-4d61-a093-873e2bf4c9c1,22f5b57a-4adb-4611-b44e-ec0c384e9c68
2019-09-08 19:24:47,ff60d2e4-1a5f-462c-be07-b6965eb32e58,1,be4b4bfc-1b2e-4d61-a093-873e2bf4c9c1,22f5b57a-4adb-4611-b44e-ec0c384e9c68
2019-09-08 19:24:47,eba39b53-15e5-4924-9a47-be22be9ded53,1,be4b4bfc-1b2e-4d61-a093-873e2bf4c9c1,ca0df680-ec1b-454b-93bf-63e7a33b979f
2019-09-08 19:25:51,5c5f1e90-2346-41b9-bbd2-d02ef4f12188,1,be4b4bfc-1b2e-4d61-a093-873e2bf4c9c1,4a049def-5c55-4c6f-8e05-a9841f580c0f
2019-09-08 19:25:51,9936fca0-b6ce-4f99-8658-1461cc475b4f,1,be4b4bfc-1b2e-4d61-a093-873e2bf4c9c1,50febb1f-9e68-45aa-9dee-1255ea314a58
2019-09-08 19:25:51,1d35579d-1b48-46dc-98df-5d17899c6051,1,be4b4bfc-1b2e-4d61-a093-873e2bf4c9c1,4a049def-5c55-4c6f-8e05-a9841f580c0f
2019-09-08 19:26:55,2d70f4d2-e2bf-4bf2-82b3-ca9f14c003df,1,be4b4bfc-1b2e-4d61-a093-873e2bf4c9c1,3b874a95-ee1e-42c6-9570-b347ac86e683
2019-09-08 19:26:55,45422914-224d-48b5-82fb-1b29247795cf,1,be4b4bfc-1b2e-4d61-a093-873e2bf4c9c1,e48459e8-edc7-48c9-a740-1a1beb43f5d1
2019-09-08 19:26:55,113d3466-5294-4b95-a1a5-44af148e8be7,1,be4b4bfc-1b2e-4d61-a093-873e2bf4c9c1,3b874a95-ee1e-42c6-9570-b347ac86e683
2019-09-08 19:27:58,d4643ac7-0e43-4736-bc35-3b8ca092e635,1,be4b4bfc-1b2e-4d61-a093-873e2bf4c9c1,3b874a95-ee1e-42c6-9570-b347ac86e683
2019-09-08 19:27:58,32700bbd-abf5-4bb7-9cc4-5a1ff651a5b6,1,be4b4bfc-1b2e-4d61-a093-873e2bf4c9c1,3b874a95-ee1e-42c6-9570-b347ac86e683
2019-09-08 19:27:58,af67c8da-11bd-4335-a8ff-5499ddf55f26,1,be4b4bfc-1b2e-4d61-a093-873e2bf4c9c1,6a4ef742-acd5-4c28-bcfc-11c550b2b91c
2019-09-08 19:29:01,3a2f4f8c-188b-456d-9883-7a4e2e773003,1,be4b4bfc-1b2e-4d61-a093-873e2bf4c9c1,0971bfd4-c0d7-4ff9-991f-5ce2ea1f5bc4
2019-09-08 19:29:01,fe7c89fa-9ba7-486b-959e-6e0ed2f00f1b,1,be4b4bfc-1b2e-4d61-a093-873e2bf4c9c1,04cfc5bc-0661-492a-85d3-a775520fe6f1
2019-09-08 19:29:01,c9e1b136-4ad6-4341-a275-26aed5262d0f,1,be4b4bfc-1b2e-4d61-a093-873e2bf4c9c1,0971bfd4-c0d7-4ff9-991f-5ce2ea1f5bc4
2019-09-08 19:30:05,eda55b8f-129f-47c2-b76b-2552c9dad32c,1,be4b4bfc-1b2e-4d61-a093-873e2bf4c9c1,a05f94f0-4d77-4828-9c30-982096d12a5a
2019-09-08 19:30:05,a791ef51-c593-4113-9fab-1ccd4bd47787,1,be4b4bfc-1b2e-4d61-a093-873e2bf4c9c1,a05f94f0-4d77-4828-9c30-982096d12a5a
2019-09-08 19:30:05,889d2971-f3d6-4764-8d9a-e56ba71443c7,1,be4b4bfc-1b2e-4d61-a093-873e2bf4c9c1,b12674b0-1749-4c9e-aaca-fd5194aa1978
2019-09-08 19:31:09,41dbb828-1cd2-4017-ae4f-00664d4fef6c,1,be4b4bfc-1b2e-4d61-a093-873e2bf4c9c1,6ea7f56e-8914-4941-af1d-6f2b9fc19415
2019-09-08 19:31:09,485ef8ee-2c03-41b0-8dfe-3609b7b9136b,1,be4b4bfc-1b2e-4d61-a093-873e2bf4c9c1,6ea7f56e-8914-4941-af1d-6f2b9fc19415
2019-09-08 19:31:09,494e75d2-d74a-4cf7-96d2-28d2ce6434c6,1,be4b4bfc-1b2e-4d61-a093-873e2bf4c9c1,f1656eb0-54f4-4cb2-a432-872db5431f46
2019-09-08 19:32:13,ffb90013-73d0-4092-bbdf-520d40d40e2c,1,be4b4bfc-1b2e-4d61-a093-873e2bf4c9c1,6ea7f56e-8914-4941-af1d-6f2b9fc19415
2019-09-08 19:32:13,89e42296-0672-4bc0-8020-a9f9cb8cf2e4,1,be4b4bfc-1b2e-4d61-a093-873e2bf4c9c1,6ea7f56e-8914-4941-af1d-6f2b9fc19415
2019-09-08 19:32:13,d33f88df-bd6a-41f5-8d3b-9174cd91f968,1,be4b4bfc-1b2e-4d61-a093-873e2bf4c9c1,b7d1b6fe-5aff-40f8-84b7-fffba9c4a73b
2019-09-08 19:33:18,73c0f2f0-a505-45c9-895f-b4d3b5c7358d,1,be4b4bfc-1b2e-4d61-a093-873e2bf4c9c1,0971bfd4-c0d7-4ff9-991f-5ce2ea1f5bc4
2019-09-08 19:33:18,44665e48-cb75-4ab0-9908-a06e309127e2,1,be4b4bfc-1b2e-4d61-a093-873e2bf4c9c1,0971bfd4-c0d7-4ff9-991f-5ce2ea1f5bc4
2019-09-08 19:33:18,2b260667-aa33-43e0-8468-ecf1e42fc7b2,1,be4b4bfc-1b2e-4d61-a093-873e2bf4c9c1,e58d99ae-1194-4c4a-b613-8773a4024f7e
2019-09-08 19:34:22,d669fa2b-2380-4248-9cb1-ddb7ddb0de0d,1,be4b4bfc-1b2e-4d61-a093-873e2bf4c9c1,87043a8a-3092-47e2-aa99-d5d8d4cce341
2019-09-08 19:34:22,a3873591-99e9-475a-8fb8-25f53190a3ed,1,be4b4bfc-1b2e-4d61-a093-873e2bf4c9c1,3b874a95-ee1e-42c6-9570-b347ac86e683
2019-09-08 19:34:22,08c49ce6-9b63-4dd0-b898-cc2f8e1ec2fe,1,be4b4bfc-1b2e-4d61-a093-873e2bf4c9c1,3b874a95-ee1e-42c6-9570-b347ac86e683
2019-09-08 19:35:25,359adf0f-6ba2-4b44-bd8f-68e2d6a7a28f,1,be4b4bfc-1b2e-4d61-a093-873e2bf4c9c1,3b874a95-ee1e-42c6-9570-b347ac86e683
2019-09-08 19:35:25,50969386-7f31-4c9e-b4d0-7c770fa08aea,1,be4b4bfc-1b2e-4d61-a093-873e2bf4c9c1,fbc115a8-5085-4f00-b51f-c6bc7616829c
2019-09-08 19:35:25,76e2872b-24f0-45a2-b084-8fc3be2dd798,1,be4b4bfc-1b2e-4d61-a093-873e2bf4c9c1,f928a3ab-1110-487e-b616-0c2784a9e8de
2019-09-08 19:36:29,f9a75eb9-1f48-4169-80a4-404acc1084df,1,be4b4bfc-1b2e-4d61-a093-873e2bf4c9c1,64311692-9334-4898-a7e0-6924bccb3f3d
2019-09-08 19:36:29,b1ba2dfd-a9c6-4cb7-849e-5df89324ecd0,1,be4b4bfc-1b2e-4d61-a093-873e2bf4c9c1,51228c03-931f-4c0b-8a12-a5a7dbf32566
2019-09-08 19:36:29,4ac9c428-69cb-4b45-8c16-dfc1d4ce0d97,1,be4b4bfc-1b2e-4d61-a093-873e2bf4c9c1,64311692-9334-4898-a7e0-6924bccb3f3d
2019-09-08 19:37:33,937237f8-c850-4a6f-9be7-84f43f4b7038,1,be4b4bfc-1b2e-4d61-a093-873e2bf4c9c1,2558022f-bd1f-4bbc-9ab3-bd93f8e923b9
2019-09-08 19:37:33,8f2fc665-17c9-40cf-bb61-4fef0d5d4dce,1,be4b4bfc-1b2e-4d61-a093-873e2bf4c9c1,209f8be6-f803-47fe-a2e8-5cacaab4a3e8
2019-09-08 19:37:33,144cba0f-83e7-443f-b1a2-ff146ff33ee7,1,be4b4bfc-1b2e-4d61-a093-873e2bf4c9c1,209f8be6-f803-47fe-a2e8-5cacaab4a3e8
2019-09-08 19:38:37,f8f151d1-5e65-4f30-9fa3-cf17e64a2d9f,1,be4b4bfc-1b2e-4d61-a093-873e2bf4c9c1,0971bfd4-c0d7-4ff9-991f-5ce2ea1f5bc4
2019-09-08 19:38:37,3de64c70-8fce-43ac-acff-984f178df654,1,be4b4bfc-1b2e-4d61-a093-873e2bf4c9c1,b8fa676e-77b9-4d4f-984c-03c62dd3c494
2019-09-08 19:38:37,4d8f1725-7ec2-4757-ba41-4f9ea4f76387,1,be4b4bfc-1b2e-4d61-a093-873e2bf4c9c1,0971bfd4-c0d7-4ff9-991f-5ce2ea1f5bc4
2019-09-08 20:04:04,b391e663-41b7-4d29-8dd5-5eb37492b60b,1,939d8dd5-8199-4e53-83f5-15e54b00b11d,64311692-9334-4898-a7e0-6924bccb3f3d
2019-09-08 20:37:03,33851819-da35-42da-96f0-d70a31a481ad,1,6ddbbf18-3233-4bf3-add3-50d05ecafdd9,a05f94f0-4d77-4828-9c30-982096d12a5a
2019-09-08 20:37:03,b391e663-41b7-4d29-8dd5-5eb37492b60b,1,6ddbbf18-3233-4bf3-add3-50d05ecafdd9,a05f94f0-4d77-4828-9c30-982096d12a5a
2019-09-08 19:53:43,030943b1-080f-4eaa-afaa-3dcabc43b544,1,22f5b57a-4adb-4611-b44e-ec0c384e9c68,e064ddec-746e-4ba3-b66c-21d91248ef85
2019-09-08 19:53:43,b68b8891-5667-42bc-8f49-43acb0175e15,1,22f5b57a-4adb-4611-b44e-ec0c384e9c68,e064ddec-746e-4ba3-b66c-21d91248ef85
2019-09-08 20:49:16,33851819-da35-42da-96f0-d70a31a481ad,1,22f5b57a-4adb-4611-b44e-ec0c384e9c68,3b874a95-ee1e-42c6-9570-b347ac86e683
2019-09-08 20:49:16,b391e663-41b7-4d29-8dd5-5eb37492b60b,1,22f5b57a-4adb-4611-b44e-ec0c384e9c68,3b874a95-ee1e-42c6-9570-b347ac86e683
2019-09-08 19:55:51,b68b8891-5667-42bc-8f49-43acb0175e15,1,24e953f4-978a-4883-ae06-35f9479edae0,209f8be6-f803-47fe-a2e8-5cacaab4a3e8
2019-09-08 19:56:16,b68b8891-5667-42bc-8f49-43acb0175e15,1,24e953f4-978a-4883-ae06-35f9479edae0,209f8be6-f803-47fe-a2e8-5cacaab4a3e8
2019-09-08 20:04:05,33851819-da35-42da-96f0-d70a31a481ad,1,24e953f4-978a-4883-ae06-35f9479edae0,64311692-9334-4898-a7e0-6924bccb3f3d
2019-09-08 19:39:48,eda55b8f-129f-47c2-b76b-2552c9dad32c,1,6ea7f56e-8914-4941-af1d-6f2b9fc19415,a05f94f0-4d77-4828-9c30-982096d12a5a
2019-09-08 19:39:48,a791ef51-c593-4113-9fab-1ccd4bd47787,1,6ea7f56e-8914-4941-af1d-6f2b9fc19415,a05f94f0-4d77-4828-9c30-982096d12a5a
2019-09-08 20:27:20,33851819-da35-42da-96f0-d70a31a481ad,1,6ea7f56e-8914-4941-af1d-6f2b9fc19415,e064ddec-746e-4ba3-b66c-21d91248ef85
2019-09-08 20:27:20,b391e663-41b7-4d29-8dd5-5eb37492b60b,1,6ea7f56e-8914-4941-af1d-6f2b9fc19415,e064ddec-746e-4ba3-b66c-21d91248ef85
2019-09-08 20:27:44,33851819-da35-42da-96f0-d70a31a481ad,1,6ea7f56e-8914-4941-af1d-6f2b9fc19415,3b874a95-ee1e-42c6-9570-b347ac86e683
2019-09-08 20:27:44,b391e663-41b7-4d29-8dd5-5eb37492b60b,1,6ea7f56e-8914-4941-af1d-6f2b9fc19415,3b874a95-ee1e-42c6-9570-b347ac86e683
2019-09-08 19:41:17,2d70f4d2-e2bf-4bf2-82b3-ca9f14c003df,1,3b874a95-ee1e-42c6-9570-b347ac86e683,fbc115a8-5085-4f00-b51f-c6bc7616829c
2019-09-08 19:41:17,113d3466-5294-4b95-a1a5-44af148e8be7,1,3b874a95-ee1e-42c6-9570-b347ac86e683,fbc115a8-5085-4f00-b51f-c6bc7616829c
2019-09-08 19:52:31,359adf0f-6ba2-4b44-bd8f-68e2d6a7a28f,1,3b874a95-ee1e-42c6-9570-b347ac86e683,22f5b57a-4adb-4611-b44e-ec0c384e9c68
2019-09-08 20:27:53,33851819-da35-42da-96f0-d70a31a481ad,1,3b874a95-ee1e-42c6-9570-b347ac86e683,6ddbbf18-3233-4bf3-add3-50d05ecafdd9
2019-09-08 20:27:53,b391e663-41b7-4d29-8dd5-5eb37492b60b,1,3b874a95-ee1e-42c6-9570-b347ac86e683,6ddbbf18-3233-4bf3-add3-50d05ecafdd9
2019-09-08 20:50:39,33851819-da35-42da-96f0-d70a31a481ad,1,3b874a95-ee1e-42c6-9570-b347ac86e683,a05f94f0-4d77-4828-9c30-982096d12a5a
2019-09-08 20:50:39,b391e663-41b7-4d29-8dd5-5eb37492b60b,1,3b874a95-ee1e-42c6-9570-b347ac86e683,a05f94f0-4d77-4828-9c30-982096d12a5a
2019-09-08 19:55:41,b68b8891-5667-42bc-8f49-43acb0175e15,1,209f8be6-f803-47fe-a2e8-5cacaab4a3e8,24e953f4-978a-4883-ae06-35f9479edae0
2019-09-08 19:56:01,b68b8891-5667-42bc-8f49-43acb0175e15,1,209f8be6-f803-47fe-a2e8-5cacaab4a3e8,24e953f4-978a-4883-ae06-35f9479edae0
2019-09-08 19:52:32,76e2872b-24f0-45a2-b084-8fc3be2dd798,1,f928a3ab-1110-487e-b616-0c2784a9e8de,f928a3ab-1110-487e-b616-0c2784a9e8de
2019-09-08 19:32:15,889d2971-f3d6-4764-8d9a-e56ba71443c7,1,b12674b0-1749-4c9e-aaca-fd5194aa1978,b12674b0-1749-4c9e-aaca-fd5194aa1978
2019-09-08 19:56:22,889d2971-f3d6-4764-8d9a-e56ba71443c7,1,b12674b0-1749-4c9e-aaca-fd5194aa1978,b12674b0-1749-4c9e-aaca-fd5194aa1978
2019-09-08 19:43:39,fd100837-d14f-4613-8634-a239392ab5dc,1,0c348785-2281-496f-8520-4357513ead70,0c348785-2281-496f-8520-4357513ead70
2019-09-08 19:43:46,fd100837-d14f-4613-8634-a239392ab5dc,1,0c348785-2281-496f-8520-4357513ead70,0c348785-2281-496f-8520-4357513ead70
2019-09-08 20:04:05,bdbfe0ac-e9b9-4ecb-a35b-619b4c890998,1,feaf3391-f6b7-4599-8fa2-b88b4730ec2f,feaf3391-f6b7-4599-8fa2-b88b4730ec2f
2019-09-08 20:27:09,bdbfe0ac-e9b9-4ecb-a35b-619b4c890998,1,feaf3391-f6b7-4599-8fa2-b88b4730ec2f,feaf3391-f6b7-4599-8fa2-b88b4730ec2f
2019-09-08 20:27:20,bdbfe0ac-e9b9-4ecb-a35b-619b4c890998,1,feaf3391-f6b7-4599-8fa2-b88b4730ec2f,feaf3391-f6b7-4599-8fa2-b88b4730ec2f
2019-09-08 20:27:32,bdbfe0ac-e9b9-4ecb-a35b-619b4c890998,1,feaf3391-f6b7-4599-8fa2-b88b4730ec2f,feaf3391-f6b7-4599-8fa2-b88b4730ec2f
2019-09-08 20:27:44,bdbfe0ac-e9b9-4ecb-a35b-619b4c890998,1,feaf3391-f6b7-4599-8fa2-b88b4730ec2f,feaf3391-f6b7-4599-8fa2-b88b4730ec2f
2019-09-08 20:27:53,bdbfe0ac-e9b9-4ecb-a35b-619b4c890998,1,feaf3391-f6b7-4599-8fa2-b88b4730ec2f,feaf3391-f6b7-4599-8fa2-b88b4730ec2f
2019-09-08 19:44:53,ced15084-1479-49dc-84fe-40d603df9904,1,797ef6fe-7e27-441c-9bce-a9ad14bb7d19,797ef6fe-7e27-441c-9bce-a9ad14bb7d19
2019-09-08 19:45:03,ced15084-1479-49dc-84fe-40d603df9904,1,797ef6fe-7e27-441c-9bce-a9ad14bb7d19,797ef6fe-7e27-441c-9bce-a9ad14bb7d19
2019-09-08 19:53:43,ced15084-1479-49dc-84fe-40d603df9904,1,797ef6fe-7e27-441c-9bce-a9ad14bb7d19,797ef6fe-7e27-441c-9bce-a9ad14bb7d19
2019-09-08 20:49:03,bdbfe0ac-e9b9-4ecb-a35b-619b4c890998,0,NA,NA
2019-09-08 20:50:48,bdbfe0ac-e9b9-4ecb-a35b-619b4c890998,0,NA,NA
2019-09-08 20:52:12,bdbfe0ac-e9b9-4ecb-a35b-619b4c890998,0,NA,NA
2019-09-08 19:55:29,ced15084-1479-49dc-84fe-40d603df9904,0,NA,NA
2019-09-08 20:52:03,bdbfe0ac-e9b9-4ecb-a35b-619b4c890998,0,NA,NA
2019-09-08 20:37:03,bdbfe0ac-e9b9-4ecb-a35b-619b4c890998,0,NA,NA
2019-09-08 20:49:16,bdbfe0ac-e9b9-4ecb-a35b-619b4c890998,0,NA,NA
2019-09-08 19:55:51,ced15084-1479-49dc-84fe-40d603df9904,0,NA,NA
2019-09-08 19:56:16,ced15084-1479-49dc-84fe-40d603df9904,0,NA,NA
2019-09-08 19:39:48,889d2971-f3d6-4764-8d9a-e56ba71443c7,0,NA,NA
2019-09-08 19:41:17,45422914-224d-48b5-82fb-1b29247795cf,0,NA,NA
2019-09-08 20:50:39,bdbfe0ac-e9b9-4ecb-a35b-619b4c890998,0,NA,NA
2019-09-08 19:55:41,ced15084-1479-49dc-84fe-40d603df9904,0,NA,NA
2019-09-08 19:56:01,ced15084-1479-49dc-84fe-40d603df9904,0,NA,NA
