app_number,app_id,trigger,burn,sink,deploy_date,token_interval
1,f4f0cfd8-1c69-4ad6-acfc-888a04c12f8f,d976e72e-c2d8-4b81-a6cb-f5439ae122e5,f281fb6a-db11-4b95-97ed-88e5dd2b905b,3cc525ec-273b-4344-a773-beebd73f10dc,2019-08-01 22:19:45,1.000000
2,62816027-6634-4373-9896-e425fb46ac4c,5b67d6bf-1d88-4879-a2e8-f76b21218a5e,a280b1fe-98b3-4764-9bfe-25e418266049,e6f127c5-fbfc-48f0-b91d-c1bda5e2cfdd,2019-08-01 22:20:49,1.000000
3,0dbd01db-c3ca-426d-ba98-1069ce3d701d,83adbe5b-b55c-4c11-a8fb-d28b7e85b5cf,73148298-13f0-4841-93fe-5f0be825f0ee,8f396069-dce5-4c0f-90f6-4953020d8409,2019-08-01 22:21:53,1.000000
4,a59ae04f-78ef-40d7-b609-c58b652d5226,cd2f1df7-9adc-44da-a158-ebcc67de3d00,843c121a-d9dc-41d8-8256-e8a7c2bf30b4,3a533e4a-a6e3-4e3c-bac7-33577a4c5c87,2019-08-01 22:22:57,0.200000
5,b5c1a88f-154e-47c4-934b-c20dfe8c7e3a,f7cda20d-5963-40e2-a8f7-277490e556a9,7c8f05bf-203b-4b0b-b3b3-a2142192624f,e48ce1d0-b859-4a6a-9cbf-fcc3e8be4e70,2019-08-01 22:24:01,0.200000
6,54629b83-b926-489f-9f1e-afee4dc71bbc,9b52584f-bca1-490b-8fc1-5db15b9d8cdf,45127c8a-3664-476d-a636-690c44fb7992,283fcdc3-fac0-46e4-a276-4b022516625b,2019-08-01 22:25:05,0.200000
7,456d7d93-85cb-41a9-a5b3-54a328bbccbe,ab379327-974e-4fec-92c8-7cf28261c834,6136fa7c-ee82-452e-988c-ef0ca807f9d4,e1c9f2b4-4404-4569-85d1-bb5497501c5a,2019-08-01 22:26:09,0.200000
8,d20e8636-9854-4f7b-9511-e21695c1593e,dd122740-9710-4b08-b69d-2e8c8ae37b65,da08cab8-068d-44d9-8988-333ad4e52e63,e41d9d42-9e05-45a1-9d17-54c3e63b7b5c,2019-08-01 22:27:13,1.000000
9,217b1fe9-1bb2-413b-9899-3022579bb7c9,daa8c461-8f20-45ab-aed5-bab1bcfac852,aa0718da-4501-4f13-9c60-591df16dfd03,9ad25251-9031-424a-ab1c-7b06e1ac8cf4,2019-08-01 22:28:16,0.200000
10,d1028ff0-8212-423c-83b5-ca229fcb8f8a,18f3781d-9306-4d1e-811c-10abf22c129c,3518625e-bbf4-4e88-81b8-08453a5f5520,cf5a1d74-e12d-45da-abdf-060bb63a43d2,2019-08-01 22:29:20,0.200000
11,71af9ce9-24f8-4a3b-aaff-21da62621bfe,7c51a078-21cf-4604-9cc7-9e0a861aa71f,fda6b33a-105e-4f28-bb7a-29c8776abfe2,65e61e70-51c8-4004-b3e9-4d41d6a6a584,2019-08-01 22:30:24,0.200000
12,8a1790b9-2880-47a0-85a6-37afb9ae9195,3cae67a8-7d58-4ab6-b6b2-a2a5c7269016,b5945f22-04a9-47c7-8df6-93f4c61f9c28,99fafa6a-8af5-4393-b506-5ff1f1931633,2019-08-01 22:31:28,1.000000
13,94151ca9-9026-4008-92b1-2c1bb559d7ae,9505b9c0-fbcd-4b36-99ee-4fd709822f10,475ff462-4f91-4f5c-89e0-57a9d1698909,aa2fb3de-d47c-405b-9136-5a323f28101d,2019-08-01 22:32:32,0.200000
14,a2079587-ee4e-4617-9e7d-52b09979581c,e29f9af1-fc88-48ee-8556-f441056c6356,b848b828-c422-476b-955d-895387c8d77a,a0d10c94-a483-407c-af78-e2059f5de63f,2019-08-01 22:33:35,0.200000
15,12c49cd4-e02d-484b-a83a-65204fb12afb,916a7f6d-6d86-4936-b8a9-7200dac74bd4,25044927-a175-41a9-9f48-bf295f3bd0ad,fba0eac3-853d-4d5e-9919-f2a5eb62e06f,2019-08-01 22:34:39,1.000000
16,8d62e41b-3622-49db-bb68-5e625909375d,bf6a4f9e-97e9-452b-bd8b-aa3708855282,c566a5dd-55e7-4290-9a3b-89913edc1dae,85e655af-accf-4a62-978b-c8ac6548a2ce,2019-08-01 22:35:43,1.000000
17,79e47eac-b65d-4782-901c-550462ca6453,8aae2ce3-540b-4aa7-91dc-363ef00b0bbd,dd28764e-45bf-4e0d-a847-57fbe2ad9cdf,37e33a06-81fd-4ea5-ada7-fd95f19dbec0,2019-08-01 22:36:47,0.200000
18,3314c4b6-306e-4ea9-99eb-21591271ff4f,87201363-1266-44fb-98cc-52a60d572a0b,b993b738-95fd-44ca-a983-841cf7f06394,e582fa8e-6144-4c77-ac72-fd913d0751c0,2019-08-01 22:37:51,1.000000
19,1ed12fd7-1630-4b0e-8375-abe44324676f,59053b8d-fd72-4f4e-94a0-75897e937647,8c19d68f-483a-4ebf-b26b-cf37b50fae01,0e4311f8-384d-467f-8a93-210a267c37e6,2019-08-01 22:38:55,0.200000
20,10443743-e2e7-4c40-86bd-91e1a8f3089a,1d856095-0838-49c7-b663-2a3d3014c073,51e21531-dda7-48c8-9cdb-79dd6b418ab9,34c5c0c1-28b6-424f-90e3-68d2cf435e7d,2019-08-01 22:39:58,1.000000
21,e056383f-1205-44e5-83c6-2103019d6909,0b28e346-b679-44ae-9df9-1a891489ddb3,c08af5a4-eebb-445f-b148-1886d61412a9,7e775187-b6d0-4b2c-97cc-7adad3a6fd6c,2019-08-01 22:41:02,0.200000
22,60b435cc-1b15-4e63-94c2-48e98fe4419b,7f6fa135-d3e1-4138-91d3-2ebf5456bff2,ead9d68e-b9fe-4dfa-b4a8-71a6c1bf2048,aebcf003-5122-43bd-928c-5d89b5f67bd1,2019-08-01 22:42:06,0.200000
23,985f854a-9c6a-479a-a3ad-03f907cdb7aa,5b8fcee4-0bc5-4ad2-be6b-d7776970ee4e,f7f89123-90d3-4e44-bc06-f719c2177488,5a347a72-9267-4dd6-83d3-00c0febd165b,2019-08-01 22:43:10,0.200000
24,7e16ee6f-9504-4488-b671-b14e2eee8093,4ba1aa15-823c-40a7-9b86-c0682d897f38,da0e8c40-695e-4e1a-bdba-26cd5164887d,44c2008c-3186-469d-a77a-d678d3e0ade8,2019-08-01 22:44:13,1.000000
25,d252e586-ecb2-476e-8c20-7654e2c075ca,b0407938-bfcf-4532-a2a2-397d51f5e229,fadfc9f2-126c-4578-8f46-583b840b912d,dd2eb5d6-3b23-48f3-ae6b-66a7035aa57b,2019-08-01 22:45:17,1.000000
26,5a5daed5-3932-436e-af33-57d76ea116c3,5cde65df-efe9-426e-b7cb-5eccd1183ccd,2fd84bd6-31b9-4480-9462-b658f47aa73c,899f40c1-e41f-450b-9b0b-5b7e9d9c8ec3,2019-08-01 22:46:20,1.000000
27,8bea4356-c39e-47c7-a836-0ec86fae97c9,f5a8052a-4dad-4a77-be41-dd09e0e1c653,bc7aa40e-ef22-4b1a-97b9-7e0948ef0f4b,2564aa3d-9828-424c-a2d0-079d69c8896a,2019-08-01 22:47:24,0.200000
28,cbb9c730-562a-4f8f-93f0-e2bf9589afca,b0d4f63c-321d-4bf9-a3ed-e1c98728a362,2c8251de-de87-4d8b-bfdc-5b5026dcfe39,abcf8310-0e4f-4a98-9088-2e84314b3e4b,2019-08-01 22:48:28,1.000000
29,81ce2b02-4a1e-4315-bebb-6700fd33e419,8ba61e55-22de-412a-8a2c-6c904c1035f1,d59ef4e2-9e45-430d-bcb0-da8e150037a3,b080f938-3a08-4d3a-b5dc-ec54eaf9d78f,2019-08-01 22:49:32,1.000000
30,04b1590a-336d-4b9f-9c07-441f60dc8dec,d9feb905-a184-4006-8dd2-ce17559e0641,9567758d-868f-4970-8bc4-2711d4716ea7,8ca38b01-fe10-4313-858d-a5e9a9421493,2019-08-01 22:50:35,1.000000
31,29b1ef43-d837-4a73-a737-82447b758f8c,a4a9e37a-a484-46e4-8beb-736ebad581bb,1fdb44e2-6f1a-436a-97b5-ef9262188694,1ed12f6b-b28c-4a82-93a3-961daba90983,2019-08-01 22:51:39,1.000000
32,0c127285-b67f-4978-af5f-c54fbbddcc4e,2ccc9f19-a743-4640-91f8-911316069942,0e97ca62-8653-473a-aadf-71c7d4228034,e88d0484-c168-4d06-9d64-dcd9a9b258c0,2019-08-01 22:52:43,0.200000
33,4f48b7cc-9add-46a5-9776-b0d7f53670fc,2d944ff4-2be7-432f-8ba6-ca6ad3dc884b,2b1306bb-5a4a-4d2a-a2bc-cfe00a84276d,f8e9a9da-d2d8-48f2-9ca0-2416ca82ed53,2019-08-01 22:53:47,1.000000
34,46cc75e0-a93e-489a-96fb-3ef4de53a0a7,cdda4c5e-0e7f-4b7d-9c93-d45a0e84537a,b15e43f4-33b3-43cf-b3dc-246fd5de264f,69bb9414-3020-4b0a-ac3e-1ab0414d1989,2019-08-01 22:54:51,0.200000
35,4da65c06-8277-4f5f-a37d-8812e983916b,01dc3a1e-9d10-437e-af3e-bedc8c9aab83,5ec3d63a-bf18-4a17-b33e-0e447e4a8a78,0412e821-8c11-4076-bdaf-fd0200c86d5d,2019-08-01 22:55:54,1.000000
36,318f78cb-a2bb-45f5-bdc0-49b8f97b1c08,66f84673-e25b-4d22-88c7-12ddce393d24,36ec48a4-20be-4b52-a182-140110990043,7726c309-5c88-4448-97ce-2e6aef8744b3,2019-08-01 22:56:58,0.200000
37,0ec63c6f-a34f-4c40-9685-b9bdd6dae61e,cf38cd4d-474c-4623-8001-5da67421e3da,a37b1ce7-659c-415c-8f93-88fbd33124dc,9814968d-6e36-4281-8b6c-6cbb445925fa,2019-08-01 22:58:02,1.000000
38,615dd13f-6630-4d5e-9b25-2bba4fcb8b21,82a73f3c-0b5b-42ea-bdd6-70bd14d418d0,547e7b86-b0a0-4cb5-abd5-05f16b464c16,9ce5d74a-81b0-42c6-8464-2336b6d93377,2019-08-01 22:59:06,1.000000
39,8f127489-cb39-4ade-a1d1-6bad82d0f082,ba273fc2-e8bb-400c-aa52-97ec7b14d062,c14e5a9a-6017-4775-a9e1-93cdac702be5,2c9abdc8-b935-4012-957e-7a86974d3f15,2019-08-01 23:00:10,0.200000
40,6fe13f78-5be5-4908-94f6-2ded7d90b66f,9c71d55f-303c-43e6-8ee3-0521a42ac775,a0b354a9-07e1-4e83-a35c-bd4626eea0c6,28a08826-cff0-4d3c-9680-16d6f297a836,2019-08-01 23:01:13,0.200000
41,e164ac7d-c6a8-4f5e-b116-071a2af6c44b,a9787dd3-aa7d-47c0-a1fc-1d291c04b605,770ed212-6570-470f-b20a-d7ffc929645c,2187c003-4f80-4c6e-b310-27d91835c171,2019-08-01 23:02:17,1.000000
42,1a5ac54b-cbab-4f29-a2b1-d1201976c814,3f688f6a-3283-40c3-b01f-638e71ca12d4,49901947-6d27-4c13-b80f-87d5e8672593,2c3e769a-ebce-4c5a-a60d-cdb08501c4ca,2019-08-01 23:03:21,0.200000
43,c54acde8-f013-4392-b9b0-321241c90daf,3aeb960b-1792-4794-884b-e206256e730e,041dc5cd-0c2d-45fe-9a35-c35ecf6ded9c,d3533378-6d4c-4784-b8fb-e65f06a22c7a,2019-08-01 23:04:25,0.200000
44,4d62d395-ca85-4525-838d-87c5bcdba3e3,ed56ed30-cd5a-4081-abe1-7f87c06db6f1,8c8a9365-cdc1-470f-aab3-bedd9941f587,0275b370-d4af-47a9-b1d7-2cb05cca3367,2019-08-01 23:05:29,0.200000
45,bbf1913b-22f0-4b54-991b-df24a13368e0,4f8c327f-3fba-4944-b969-a86c7037d706,87f9f378-6f72-4388-9e6a-f080873e299b,da434069-26f1-4dbc-a611-5d7333e4da08,2019-08-01 23:06:33,1.000000
46,c2d9cd02-32d8-4059-8f4b-6aaa4440a043,959833a8-740e-4168-b475-c06934b2da3a,3b9418f7-76a8-48a4-a380-d71dd8eb2e5c,662ed67b-c5da-4ee1-ac60-4c20e9650df3,2019-08-01 23:07:37,0.200000
47,40fbba14-6e82-40cf-beb1-e9cdce5563f9,382e9ddb-7649-4d2b-83c4-ffc5acd7c682,4815f6c7-5e3c-4c5f-87a9-23a3a2355b0b,7f11670d-b132-4f18-8b80-86e1795bfcd5,2019-08-01 23:08:41,0.200000
48,d3f41eea-79c0-46ac-bc08-9362a1f42e18,6e5a46a5-454d-4eab-b4f5-eba20c0c4e04,d26e8f3b-a850-4f67-9e88-e1fd761171f0,1b29e907-e419-403e-a03d-c8c297a3c800,2019-08-01 23:09:44,1.000000
49,67030a78-2e71-439d-84cc-363f5b31049a,605a75e3-009b-4d89-b744-f522bff29985,39388c80-d1b9-443d-924f-8accd90707d3,defa15fb-0ad9-4293-882e-209923624ea9,2019-08-01 23:10:48,0.200000
50,95255869-668b-4019-9c18-0e5908714688,43b2cbfb-7555-490c-af26-f33b7a82e370,ea03660f-dc87-4d0c-9756-a7c612191fac,a0b46c59-6237-4133-a880-9cf6a356f298,2019-08-01 23:11:52,1.000000
