date,actor,success,from,to
2019-09-09 00:05:03,3cc112de-1e91-42c8-9ea3-e9a012fbb3bb,1,fbc115a8-5085-4f00-b51f-c6bc7616829c,24e953f4-978a-4883-ae06-35f9479edae0
2019-09-09 00:05:03,f524e5fc-5105-4765-8494-9eee38da9f02,1,fbc115a8-5085-4f00-b51f-c6bc7616829c,24e953f4-978a-4883-ae06-35f9479edae0
2019-09-09 00:56:51,23637b40-32a3-41f2-bd5a-5feebe337978,1,fbc115a8-5085-4f00-b51f-c6bc7616829c,4a049def-5c55-4c6f-8e05-a9841f580c0f
2019-09-09 00:56:51,111f46c4-6008-4b28-a1bf-d6b3115a295a,1,fbc115a8-5085-4f00-b51f-c6bc7616829c,4a049def-5c55-4c6f-8e05-a9841f580c0f
2019-09-09 00:56:57,5a9a6129-75ea-4dc2-9f01-52ee682fac4f,1,4a049def-5c55-4c6f-8e05-a9841f580c0f,0971bfd4-c0d7-4ff9-991f-5ce2ea1f5bc4
2019-09-09 00:56:57,7c46ee59-005c-4d54-9b3b-67395ddfef06,1,4a049def-5c55-4c6f-8e05-a9841f580c0f,0971bfd4-c0d7-4ff9-991f-5ce2ea1f5bc4
2019-09-09 00:00:36,111f46c4-6008-4b28-a1bf-d6b3115a295a,1,a05f94f0-4d77-4828-9c30-982096d12a5a,fbc115a8-5085-4f00-b51f-c6bc7616829c
2019-09-09 00:22:44,68057952-ac1f-4594-9675-bfbb2d09d56f,1,24e953f4-978a-4883-ae06-35f9479edae0,31a77745-054f-4d9d-bf0a-9af5f03f9274
2019-09-08 23:21:33,8996eb4f-ac75-40bb-a3bd-f651bce81b72,1,be4b4bfc-1b2e-4d61-a093-873e2bf4c9c1,3b874a95-ee1e-42c6-9570-b347ac86e683
2019-09-08 23:21:33,b927cfbc-f4a9-4804-ab15-e21ed0c3a4f0,1,be4b4bfc-1b2e-4d61-a093-873e2bf4c9c1,ca5cfc4a-150f-4889-87cc-758075c59dad
2019-09-08 23:21:33,9bbc4591-9e74-44b9-bb91-6a384d6cb1ae,1,be4b4bfc-1b2e-4d61-a093-873e2bf4c9c1,64311692-9334-4898-a7e0-6924bccb3f3d
2019-09-08 23:22:37,47023307-6540-4dcf-a7e2-e614f38b24d9,1,be4b4bfc-1b2e-4d61-a093-873e2bf4c9c1,31a77745-054f-4d9d-bf0a-9af5f03f9274
2019-09-08 23:22:37,336615af-18c3-4bf3-928d-b88005eb3cdb,1,be4b4bfc-1b2e-4d61-a093-873e2bf4c9c1,31a77745-054f-4d9d-bf0a-9af5f03f9274
2019-09-08 23:22:37,fb632946-af06-4fe6-b7d2-c97083d5c78a,1,be4b4bfc-1b2e-4d61-a093-873e2bf4c9c1,076b2cf5-e714-4f75-821c-65d9887dd838
2019-09-08 23:23:41,436244d8-3b08-4b3d-a43d-b4e00c0fe449,1,be4b4bfc-1b2e-4d61-a093-873e2bf4c9c1,fbc115a8-5085-4f00-b51f-c6bc7616829c
2019-09-08 23:23:41,604c65a7-e3a7-422a-a392-23a94e74e145,1,be4b4bfc-1b2e-4d61-a093-873e2bf4c9c1,fbc115a8-5085-4f00-b51f-c6bc7616829c
2019-09-08 23:23:41,c58bea91-1f5c-4b88-96c9-9ebc496d1333,1,be4b4bfc-1b2e-4d61-a093-873e2bf4c9c1,9085cf7c-599e-4704-8192-d36e5197fb42
2019-09-08 23:24:45,6465cb1c-314c-4eaa-8946-5ec6b54fa542,1,be4b4bfc-1b2e-4d61-a093-873e2bf4c9c1,73cff2fe-bc83-451e-a01f-1b54e0dbcf28
2019-09-08 23:24:45,3cc112de-1e91-42c8-9ea3-e9a012fbb3bb,1,be4b4bfc-1b2e-4d61-a093-873e2bf4c9c1,fbc115a8-5085-4f00-b51f-c6bc7616829c
2019-09-08 23:24:45,f524e5fc-5105-4765-8494-9eee38da9f02,1,be4b4bfc-1b2e-4d61-a093-873e2bf4c9c1,fbc115a8-5085-4f00-b51f-c6bc7616829c
2019-09-08 23:25:48,d364a53a-1d65-440f-b2de-ed1be62e1ba8,1,be4b4bfc-1b2e-4d61-a093-873e2bf4c9c1,e064ddec-746e-4ba3-b66c-21d91248ef85
2019-09-08 23:25:48,a784d267-7a53-48c5-a6c8-4b09cec204ee,1,be4b4bfc-1b2e-4d61-a093-873e2bf4c9c1,e064ddec-746e-4ba3-b66c-21d91248ef85
2019-09-08 23:25:48,6d54e3e1-abd6-4306-9895-e51a0587761e,1,be4b4bfc-1b2e-4d61-a093-873e2bf4c9c1,e25e0cf7-53ae-4d73-a88b-3cc6a0c16661
2019-09-08 23:26:52,a3b573c5-2da4-45e1-af8d-06dd96cc6067,1,be4b4bfc-1b2e-4d61-a093-873e2bf4c9c1,6ddbbf18-3233-4bf3-add3-50d05ecafdd9
2019-09-08 23:26:52,c330af8c-7c63-484d-aab2-217ff2be3d8f,1,be4b4bfc-1b2e-4d61-a093-873e2bf4c9c1,56d117ca-4207-4bb3-be7e-52c667cf3ed5
2019-09-08 23:26:52,e1002ffb-7026-4206-8a94-864b8f88e5ff,1,be4b4bfc-1b2e-4d61-a093-873e2bf4c9c1,64311692-9334-4898-a7e0-6924bccb3f3d
2019-09-08 23:27:56,2d6a7984-5a9f-4924-b55f-442fa7ac0760,1,be4b4bfc-1b2e-4d61-a093-873e2bf4c9c1,53983ee5-feeb-4605-913f-79ff05576a2c
2019-09-08 23:27:56,aeb5b899-f35d-421d-9a7f-1a7091f0f2f3,1,be4b4bfc-1b2e-4d61-a093-873e2bf4c9c1,6ddbbf18-3233-4bf3-add3-50d05ecafdd9
2019-09-08 23:27:56,4c234836-75a5-44cd-a5f8-f9187c995379,1,be4b4bfc-1b2e-4d61-a093-873e2bf4c9c1,6ddbbf18-3233-4bf3-add3-50d05ecafdd9
2019-09-08 23:28:59,f6e49e1b-dd66-45ba-89c1-634ec83ecd92,1,be4b4bfc-1b2e-4d61-a093-873e2bf4c9c1,8c63c257-f9b2-4779-b2c1-9e97dd45a727
2019-09-08 23:28:59,5c6a4a6b-7a1c-42b7-bfb5-998726bfb5c1,1,be4b4bfc-1b2e-4d61-a093-873e2bf4c9c1,4a049def-5c55-4c6f-8e05-a9841f580c0f
2019-09-08 23:28:59,f73694b1-adf8-4163-bb5e-7ef0c3e4e85b,1,be4b4bfc-1b2e-4d61-a093-873e2bf4c9c1,4a049def-5c55-4c6f-8e05-a9841f580c0f
2019-09-08 23:30:03,e0cff998-a165-4fdf-953c-9cac2f5fe99f,1,be4b4bfc-1b2e-4d61-a093-873e2bf4c9c1,797ef6fe-7e27-441c-9bce-a9ad14bb7d19
2019-09-08 23:30:03,5a9a6129-75ea-4dc2-9f01-52ee682fac4f,1,be4b4bfc-1b2e-4d61-a093-873e2bf4c9c1,4a049def-5c55-4c6f-8e05-a9841f580c0f
2019-09-08 23:30:03,7c46ee59-005c-4d54-9b3b-67395ddfef06,1,be4b4bfc-1b2e-4d61-a093-873e2bf4c9c1,4a049def-5c55-4c6f-8e05-a9841f580c0f
2019-09-08 23:31:07,29da21fc-7111-468e-9df9-b316047f9f6a,1,be4b4bfc-1b2e-4d61-a093-873e2bf4c9c1,feaf3391-f6b7-4599-8fa2-b88b4730ec2f
2019-09-08 23:31:07,d6736361-0b33-44bd-a0f4-283cd2f031aa,1,be4b4bfc-1b2e-4d61-a093-873e2bf4c9c1,939d8dd5-8199-4e53-83f5-15e54b00b11d
2019-09-08 23:31:07,68057952-ac1f-4594-9675-bfbb2d09d56f,1,be4b4bfc-1b2e-4d61-a093-873e2bf4c9c1,24e953f4-978a-4883-ae06-35f9479edae0
2019-09-08 23:32:11,786bdcfe-e516-4ae1-8b64-c6b5ee8bdd61,1,be4b4bfc-1b2e-4d61-a093-873e2bf4c9c1,0c348785-2281-496f-8520-4357513ead70
2019-09-08 23:32:11,65bacb01-c38f-4694-9910-4fd69570ee5d,1,be4b4bfc-1b2e-4d61-a093-873e2bf4c9c1,6ea7f56e-8914-4941-af1d-6f2b9fc19415
2019-09-08 23:32:11,bee9d44a-7f1e-4a82-b005-f1febfed7e92,1,be4b4bfc-1b2e-4d61-a093-873e2bf4c9c1,a05f94f0-4d77-4828-9c30-982096d12a5a
2019-09-08 23:33:15,12fa9ffc-1c9e-4831-9e43-a4a23212296f,1,be4b4bfc-1b2e-4d61-a093-873e2bf4c9c1,ca0df680-ec1b-454b-93bf-63e7a33b979f
2019-09-08 23:33:15,23548c8d-fc01-4aaa-9763-d8279fd1032d,1,be4b4bfc-1b2e-4d61-a093-873e2bf4c9c1,22f5b57a-4adb-4611-b44e-ec0c384e9c68
2019-09-08 23:33:15,2141cf41-f29f-469a-a8fb-d2f0bf0eb1aa,1,be4b4bfc-1b2e-4d61-a093-873e2bf4c9c1,209f8be6-f803-47fe-a2e8-5cacaab4a3e8
2019-09-08 23:34:18,cb69809b-b81c-45b1-8302-d8cc1c324062,1,be4b4bfc-1b2e-4d61-a093-873e2bf4c9c1,3b874a95-ee1e-42c6-9570-b347ac86e683
2019-09-08 23:34:18,4c665d68-c8bb-4838-a272-c61c85fa662c,1,be4b4bfc-1b2e-4d61-a093-873e2bf4c9c1,50febb1f-9e68-45aa-9dee-1255ea314a58
2019-09-08 23:34:18,986a900b-70fc-484f-97b4-ccb1efdabade,1,be4b4bfc-1b2e-4d61-a093-873e2bf4c9c1,3b874a95-ee1e-42c6-9570-b347ac86e683
2019-09-08 23:35:22,42f00c0e-f935-4006-bbb5-48342519f925,1,be4b4bfc-1b2e-4d61-a093-873e2bf4c9c1,6ea7f56e-8914-4941-af1d-6f2b9fc19415
2019-09-08 23:35:22,ae992c31-8ac7-48ec-b100-0cc573bafb5f,1,be4b4bfc-1b2e-4d61-a093-873e2bf4c9c1,e48459e8-edc7-48c9-a740-1a1beb43f5d1
2019-09-08 23:35:22,e8f02b79-43f9-4124-a01c-8ce37cbf73d5,1,be4b4bfc-1b2e-4d61-a093-873e2bf4c9c1,6ea7f56e-8914-4941-af1d-6f2b9fc19415
2019-09-08 23:36:26,b731642a-2728-48cf-8a8a-17cb4e6706ee,1,be4b4bfc-1b2e-4d61-a093-873e2bf4c9c1,209f8be6-f803-47fe-a2e8-5cacaab4a3e8
2019-09-08 23:36:26,0ffc116c-8b91-4fd3-8d85-0222be6ec58d,1,be4b4bfc-1b2e-4d61-a093-873e2bf4c9c1,6a4ef742-acd5-4c28-bcfc-11c550b2b91c
2019-09-08 23:36:26,ff51c684-b0bf-4643-9992-0c4367f9aa0e,1,be4b4bfc-1b2e-4d61-a093-873e2bf4c9c1,209f8be6-f803-47fe-a2e8-5cacaab4a3e8
2019-09-08 23:37:30,c139f64b-226b-4ba4-9158-d8cc43b6b395,1,be4b4bfc-1b2e-4d61-a093-873e2bf4c9c1,04cfc5bc-0661-492a-85d3-a775520fe6f1
2019-09-08 23:37:30,13c918e6-c50b-4e1c-ba29-7edb1ce89cc2,1,be4b4bfc-1b2e-4d61-a093-873e2bf4c9c1,31a77745-054f-4d9d-bf0a-9af5f03f9274
2019-09-08 23:37:30,918aad09-7755-48e5-b7a7-8e0db278e350,1,be4b4bfc-1b2e-4d61-a093-873e2bf4c9c1,31a77745-054f-4d9d-bf0a-9af5f03f9274
2019-09-08 23:38:33,fdd434d2-d499-4181-a2f5-e60cade3ebb9,1,be4b4bfc-1b2e-4d61-a093-873e2bf4c9c1,0971bfd4-c0d7-4ff9-991f-5ce2ea1f5bc4
2019-09-08 23:38:33,a6dfd6fa-e880-49bf-9a57-8665559c96c8,1,be4b4bfc-1b2e-4d61-a093-873e2bf4c9c1,b12674b0-1749-4c9e-aaca-fd5194aa1978
2019-09-08 23:38:33,9983a551-de0d-4cb1-bfb6-2a966988b023,1,be4b4bfc-1b2e-4d61-a093-873e2bf4c9c1,0971bfd4-c0d7-4ff9-991f-5ce2ea1f5bc4
2019-09-08 23:39:37,8fca019e-7b8f-437c-8e94-b201fa3877b6,1,be4b4bfc-1b2e-4d61-a093-873e2bf4c9c1,939d8dd5-8199-4e53-83f5-15e54b00b11d
2019-09-08 23:39:37,fe5c507a-30fd-402c-867d-0679a37ecdfb,1,be4b4bfc-1b2e-4d61-a093-873e2bf4c9c1,f1656eb0-54f4-4cb2-a432-872db5431f46
2019-09-08 23:39:37,5804a909-b1da-4c33-9178-960c2966e072,1,be4b4bfc-1b2e-4d61-a093-873e2bf4c9c1,939d8dd5-8199-4e53-83f5-15e54b00b11d
2019-09-08 23:40:41,8e6ff81e-46fe-4bc6-99d0-75242f367975,1,be4b4bfc-1b2e-4d61-a093-873e2bf4c9c1,b7d1b6fe-5aff-40f8-84b7-fffba9c4a73b
2019-09-08 23:40:41,0c4847fe-3c55-47ec-8ef7-8d3082649a72,1,be4b4bfc-1b2e-4d61-a093-873e2bf4c9c1,939d8dd5-8199-4e53-83f5-15e54b00b11d
2019-09-08 23:40:41,df6e8ea7-2dcd-481f-a005-da2a627b4e21,1,be4b4bfc-1b2e-4d61-a093-873e2bf4c9c1,939d8dd5-8199-4e53-83f5-15e54b00b11d
2019-09-08 23:41:45,8059ce13-2b45-45e3-8391-3caa913b8e5e,1,be4b4bfc-1b2e-4d61-a093-873e2bf4c9c1,e58d99ae-1194-4c4a-b613-8773a4024f7e
2019-09-08 23:41:45,9f653c72-867d-426e-91ea-51c422c713b6,1,be4b4bfc-1b2e-4d61-a093-873e2bf4c9c1,939d8dd5-8199-4e53-83f5-15e54b00b11d
2019-09-08 23:41:45,53b5789b-28ef-4c7d-878d-aafe21899527,1,be4b4bfc-1b2e-4d61-a093-873e2bf4c9c1,939d8dd5-8199-4e53-83f5-15e54b00b11d
2019-09-08 23:42:49,2cad50bb-1226-4783-bbd2-a1c6ccde5205,1,be4b4bfc-1b2e-4d61-a093-873e2bf4c9c1,87043a8a-3092-47e2-aa99-d5d8d4cce341
2019-09-08 23:42:49,c80e1139-f30f-42bd-a09f-38d2f39a2a76,1,be4b4bfc-1b2e-4d61-a093-873e2bf4c9c1,22f5b57a-4adb-4611-b44e-ec0c384e9c68
2019-09-08 23:42:49,2cec7222-d5cb-445f-8ad2-9d783ba14730,1,be4b4bfc-1b2e-4d61-a093-873e2bf4c9c1,22f5b57a-4adb-4611-b44e-ec0c384e9c68
2019-09-08 23:43:53,c8e94838-6d82-45ad-8411-d2dba1d5a1b0,1,be4b4bfc-1b2e-4d61-a093-873e2bf4c9c1,f928a3ab-1110-487e-b616-0c2784a9e8de
2019-09-08 23:43:53,23637b40-32a3-41f2-bd5a-5feebe337978,1,be4b4bfc-1b2e-4d61-a093-873e2bf4c9c1,6ea7f56e-8914-4941-af1d-6f2b9fc19415
2019-09-08 23:43:53,111f46c4-6008-4b28-a1bf-d6b3115a295a,1,be4b4bfc-1b2e-4d61-a093-873e2bf4c9c1,a05f94f0-4d77-4828-9c30-982096d12a5a
2019-09-08 23:44:56,5b9c7536-2917-4248-82cf-ebdda29c4daa,1,be4b4bfc-1b2e-4d61-a093-873e2bf4c9c1,31a77745-054f-4d9d-bf0a-9af5f03f9274
2019-09-08 23:44:56,aa955563-0e50-475e-892e-83a975456297,1,be4b4bfc-1b2e-4d61-a093-873e2bf4c9c1,51228c03-931f-4c0b-8a12-a5a7dbf32566
2019-09-08 23:44:56,6ef891f3-64eb-46f6-92db-a16d3d3be089,1,be4b4bfc-1b2e-4d61-a093-873e2bf4c9c1,31a77745-054f-4d9d-bf0a-9af5f03f9274
2019-09-08 23:46:00,57231fbf-a53f-45f6-981b-1ea1a4decb57,1,be4b4bfc-1b2e-4d61-a093-873e2bf4c9c1,31a77745-054f-4d9d-bf0a-9af5f03f9274
2019-09-08 23:46:00,63a97b2e-46a1-4b5a-a839-72edfe44ea3c,1,be4b4bfc-1b2e-4d61-a093-873e2bf4c9c1,31a77745-054f-4d9d-bf0a-9af5f03f9274
2019-09-08 23:46:00,4ac5f474-f1a4-4b6e-aab2-8033bc27cf83,1,be4b4bfc-1b2e-4d61-a093-873e2bf4c9c1,2558022f-bd1f-4bbc-9ab3-bd93f8e923b9
2019-09-08 23:47:04,f8f75a12-1056-45a2-a4c2-8dda03eb82a4,1,be4b4bfc-1b2e-4d61-a093-873e2bf4c9c1,209f8be6-f803-47fe-a2e8-5cacaab4a3e8
2019-09-08 23:47:04,53656de1-d77b-45a9-82e3-fd3ca37b89b0,1,be4b4bfc-1b2e-4d61-a093-873e2bf4c9c1,209f8be6-f803-47fe-a2e8-5cacaab4a3e8
2019-09-08 23:47:04,37ce5eb7-e5c1-4ba5-9175-5c4c89108c3a,1,be4b4bfc-1b2e-4d61-a093-873e2bf4c9c1,b8fa676e-77b9-4d4f-984c-03c62dd3c494
2019-09-09 00:22:44,d6736361-0b33-44bd-a0f4-283cd2f031aa,1,939d8dd5-8199-4e53-83f5-15e54b00b11d,3b874a95-ee1e-42c6-9570-b347ac86e683
2019-09-09 00:04:14,47023307-6540-4dcf-a7e2-e614f38b24d9,1,31a77745-054f-4d9d-bf0a-9af5f03f9274,24e953f4-978a-4883-ae06-35f9479edae0
2019-09-09 00:04:14,336615af-18c3-4bf3-928d-b88005eb3cdb,1,31a77745-054f-4d9d-bf0a-9af5f03f9274,24e953f4-978a-4883-ae06-35f9479edae0
2019-09-09 00:34:05,13c918e6-c50b-4e1c-ba29-7edb1ce89cc2,1,31a77745-054f-4d9d-bf0a-9af5f03f9274,e064ddec-746e-4ba3-b66c-21d91248ef85
2019-09-09 00:34:05,918aad09-7755-48e5-b7a7-8e0db278e350,1,31a77745-054f-4d9d-bf0a-9af5f03f9274,e064ddec-746e-4ba3-b66c-21d91248ef85
2019-09-09 00:35:11,68057952-ac1f-4594-9675-bfbb2d09d56f,1,31a77745-054f-4d9d-bf0a-9af5f03f9274,64311692-9334-4898-a7e0-6924bccb3f3d
2019-09-09 00:38:19,c80e1139-f30f-42bd-a09f-38d2f39a2a76,1,22f5b57a-4adb-4611-b44e-ec0c384e9c68,0971bfd4-c0d7-4ff9-991f-5ce2ea1f5bc4
2019-09-09 00:38:19,2cec7222-d5cb-445f-8ad2-9d783ba14730,1,22f5b57a-4adb-4611-b44e-ec0c384e9c68,0971bfd4-c0d7-4ff9-991f-5ce2ea1f5bc4
2019-09-09 00:48:05,e1002ffb-7026-4206-8a94-864b8f88e5ff,1,22f5b57a-4adb-4611-b44e-ec0c384e9c68,64311692-9334-4898-a7e0-6924bccb3f3d
2019-09-09 00:35:18,a3b573c5-2da4-45e1-af8d-06dd96cc6067,1,6ddbbf18-3233-4bf3-add3-50d05ecafdd9,209f8be6-f803-47fe-a2e8-5cacaab4a3e8
2019-09-09 00:51:54,d6736361-0b33-44bd-a0f4-283cd2f031aa,1,6ddbbf18-3233-4bf3-add3-50d05ecafdd9,3b874a95-ee1e-42c6-9570-b347ac86e683
2019-09-09 00:35:18,e1002ffb-7026-4206-8a94-864b8f88e5ff,1,64311692-9334-4898-a7e0-6924bccb3f3d,22f5b57a-4adb-4611-b44e-ec0c384e9c68
2019-09-09 00:51:53,68057952-ac1f-4594-9675-bfbb2d09d56f,1,64311692-9334-4898-a7e0-6924bccb3f3d,fbc115a8-5085-4f00-b51f-c6bc7616829c
2019-09-09 00:00:37,23637b40-32a3-41f2-bd5a-5feebe337978,1,6ea7f56e-8914-4941-af1d-6f2b9fc19415,fbc115a8-5085-4f00-b51f-c6bc7616829c
2019-09-09 00:45:34,c80e1139-f30f-42bd-a09f-38d2f39a2a76,1,0971bfd4-c0d7-4ff9-991f-5ce2ea1f5bc4,22f5b57a-4adb-4611-b44e-ec0c384e9c68
2019-09-09 00:45:34,2cec7222-d5cb-445f-8ad2-9d783ba14730,1,0971bfd4-c0d7-4ff9-991f-5ce2ea1f5bc4,209f8be6-f803-47fe-a2e8-5cacaab4a3e8
2019-09-09 00:35:11,d6736361-0b33-44bd-a0f4-283cd2f031aa,1,3b874a95-ee1e-42c6-9570-b347ac86e683,6ddbbf18-3233-4bf3-add3-50d05ecafdd9
2019-09-09 00:48:05,a3b573c5-2da4-45e1-af8d-06dd96cc6067,1,209f8be6-f803-47fe-a2e8-5cacaab4a3e8,64311692-9334-4898-a7e0-6924bccb3f3d
2019-09-09 00:35:18,c330af8c-7c63-484d-aab2-217ff2be3d8f,1,56d117ca-4207-4bb3-be7e-52c667cf3ed5,56d117ca-4207-4bb3-be7e-52c667cf3ed5
2019-09-09 00:48:05,c330af8c-7c63-484d-aab2-217ff2be3d8f,1,56d117ca-4207-4bb3-be7e-52c667cf3ed5,56d117ca-4207-4bb3-be7e-52c667cf3ed5
2019-09-09 00:00:36,c8e94838-6d82-45ad-8411-d2dba1d5a1b0,1,f928a3ab-1110-487e-b616-0c2784a9e8de,f928a3ab-1110-487e-b616-0c2784a9e8de
2019-09-09 00:56:51,c8e94838-6d82-45ad-8411-d2dba1d5a1b0,1,f928a3ab-1110-487e-b616-0c2784a9e8de,f928a3ab-1110-487e-b616-0c2784a9e8de
2019-09-09 00:34:05,c139f64b-226b-4ba4-9158-d8cc43b6b395,1,04cfc5bc-0661-492a-85d3-a775520fe6f1,04cfc5bc-0661-492a-85d3-a775520fe6f1
2019-09-09 00:04:14,fb632946-af06-4fe6-b7d2-c97083d5c78a,1,076b2cf5-e714-4f75-821c-65d9887dd838,076b2cf5-e714-4f75-821c-65d9887dd838
2019-09-09 00:38:19,2cad50bb-1226-4783-bbd2-a1c6ccde5205,1,87043a8a-3092-47e2-aa99-d5d8d4cce341,87043a8a-3092-47e2-aa99-d5d8d4cce341
2019-09-09 00:45:34,2cad50bb-1226-4783-bbd2-a1c6ccde5205,1,87043a8a-3092-47e2-aa99-d5d8d4cce341,87043a8a-3092-47e2-aa99-d5d8d4cce341
2019-09-09 00:05:03,6465cb1c-314c-4eaa-8946-5ec6b54fa542,1,73cff2fe-bc83-451e-a01f-1b54e0dbcf28,73cff2fe-bc83-451e-a01f-1b54e0dbcf28
2019-09-09 00:56:57,e0cff998-a165-4fdf-953c-9cac2f5fe99f,1,797ef6fe-7e27-441c-9bce-a9ad14bb7d19,797ef6fe-7e27-441c-9bce-a9ad14bb7d19
2019-09-09 00:22:44,29da21fc-7111-468e-9df9-b316047f9f6a,1,feaf3391-f6b7-4599-8fa2-b88b4730ec2f,feaf3391-f6b7-4599-8fa2-b88b4730ec2f
2019-09-09 00:35:11,29da21fc-7111-468e-9df9-b316047f9f6a,1,feaf3391-f6b7-4599-8fa2-b88b4730ec2f,feaf3391-f6b7-4599-8fa2-b88b4730ec2f
2019-09-09 00:51:53,29da21fc-7111-468e-9df9-b316047f9f6a,1,feaf3391-f6b7-4599-8fa2-b88b4730ec2f,feaf3391-f6b7-4599-8fa2-b88b4730ec2f
