actor,node
14f0d140-ca49-4677-a168-1f22ea0d36d9,1e4f3c8f-bc19-4d3e-b20d-632bef90ec40
2889fd55-c1f4-4602-a9c4-1855b6831156,eb3df129-e910-4327-9c82-56066dcf9010
125b5b4d-7865-4b21-9176-79b8374adc68,eb3df129-e910-4327-9c82-56066dcf9010
3b282e74-1275-4d5a-a81d-d4ccb0d11066,fe884641-c823-4b6e-9e7c-edd75e9c8bcb
4a1844e8-df66-40ff-a83c-0fb3dc76b47f,fe884641-c823-4b6e-9e7c-edd75e9c8bcb
fd33a7e6-c145-441a-a67a-40d7f2199647,9c791cab-eb49-4fb3-92bf-73fc5eacc225
7d0685cb-981c-4b86-8683-08d500e27503,b5764d29-9e9f-4eff-96c1-880f28870d96
e10bb0d3-e11a-4e25-be39-de1ff39352d5,5e68f4da-b45d-4111-9347-95b34964637f
28ba1157-44ad-44d7-8dfc-216f6b50e1b1,f58c8e16-cbee-47d3-b9f4-ffed825a7425
d2343d7f-b223-41c6-8a9f-170769afd35e,4de155eb-ddf8-4ec1-899e-9fb2348da887
b0d71082-6c78-4c8a-aeea-a3acf676f4b4,b5764d29-9e9f-4eff-96c1-880f28870d96
abd3a6c5-e645-44d4-a2e9-aa841157c809,5e68f4da-b45d-4111-9347-95b34964637f
45bee5dc-97f2-43e7-bbc7-93d59d045b47,d070c573-46e2-4760-9603-0124c1e9483d
e9f53031-d32c-4440-91a3-bf1f9be9e0e0,d8c55a1c-16dd-41cc-aa1f-41615e09d0b0
9967358d-b235-4893-906a-fa47e469d2e8,d070c573-46e2-4760-9603-0124c1e9483d
1614d520-681c-4d9e-9ae1-8b16373676e3,b5764d29-9e9f-4eff-96c1-880f28870d96
64ca2b6a-8a23-43ad-977f-755b0d935cf1,b5764d29-9e9f-4eff-96c1-880f28870d96
29f182c8-244e-41ea-9a8f-6067a2610c46,7a8d31a0-bbbd-4cae-9f43-d024dd2afac2
0b801a26-cea7-4506-8be7-d39cb05707b9,b0c67b60-0cf9-44f5-9dd4-795d8cbd8dd9
ab460dea-97b9-41c4-b7d3-655b61559aad,b0c67b60-0cf9-44f5-9dd4-795d8cbd8dd9
78e3da80-b4c0-45f7-acfd-846777b44435,b1f20a35-7896-41f3-9540-43f9530df53a
caa81fbe-4676-470d-9d26-da880e26ed24,caea3749-662f-453a-9256-7cf85a3bff01
2d4becbc-f317-47af-acdb-e7a365f54f39,eb3df129-e910-4327-9c82-56066dcf9010
0f2fe6a9-315c-404c-8930-2d3cc4f3f601,630e6c05-969c-45ee-b0ef-f1e75ee62fca
12855205-2fdd-4576-b9bc-e4ef8e5426e3,41383d68-7d35-406b-9b31-549f61d00cb2
8a02f4f9-c055-49b4-8001-8cf8fd3223fa,41383d68-7d35-406b-9b31-549f61d00cb2
a958a67f-e10b-4e80-a478-4606a74e8b85,736dcc56-e801-4db8-b857-a17d32213ae6
38e0786d-cd60-4c5c-8dfb-f197cb7e4b20,41383d68-7d35-406b-9b31-549f61d00cb2
d9804737-714e-44c6-828a-551818673db7,41383d68-7d35-406b-9b31-549f61d00cb2
b9511ecc-cc51-4a86-994f-90d93b213f3e,7279ed63-7ec6-4670-881a-94c1bf8cd499
1c2ef296-7b4e-4019-9cf0-392305d9961f,73bbd45d-c12d-49a9-b42d-a20444881cc3
fbb44e65-9243-48b3-a605-f3bddb0187e3,8ecacbb3-3d66-430e-82d0-8cfa34c55a78
51704108-b482-4980-9fdc-892b85be3c60,73bbd45d-c12d-49a9-b42d-a20444881cc3
ede0eda6-0833-4302-a9d5-64f9f6c7e7b1,4308b8f5-25a7-48be-bfec-d04bd8dc190a
5cbf0735-d8c5-4fc7-b4ab-4e1ac512a04c,73bbd45d-c12d-49a9-b42d-a20444881cc3
5fd7fd60-f0a0-43c4-84b9-4c4e7552bda4,73bbd45d-c12d-49a9-b42d-a20444881cc3
4b4f02a0-dfea-4966-bc27-b5ec23ebe337,7a9bdc48-9771-49d9-9903-cdfb2ef80c93
b2870e7f-5c74-4412-aa7b-f0f02889aabd,7a9bdc48-9771-49d9-9903-cdfb2ef80c93
c214115a-8a74-44c3-bd6b-1a4ff934f687,a1bb7d23-bffe-4d02-b482-e536a8e3816f
0dd90620-aa81-4540-a49a-595fdda8877b,805ba59a-7329-4488-b2f4-a93c337d376f
c599cac2-f87c-44b6-bb5a-59639ca89871,805ba59a-7329-4488-b2f4-a93c337d376f
5b3d7345-c95d-42ea-bb2c-d62371b412e0,d32d0e2b-d757-4482-b7b3-86c1d4517347
de031640-b176-43cc-b0ed-623458b5345f,b71c114f-7612-4003-ad4a-c4c1809e23c7
b5cc54d5-a6dd-48e9-9e9f-db01ddc606e0,fe884641-c823-4b6e-9e7c-edd75e9c8bcb
ebffc4ea-713f-4bab-8fb3-c46f04655ed6,fe884641-c823-4b6e-9e7c-edd75e9c8bcb
d94ceee7-f76a-4fe3-9e4c-0280e7a233ec,95c349f2-c8f0-4c78-9699-4546752ff354
df564240-3910-41b1-944e-115ad1ff7a65,dfc05638-7a28-4967-890e-297631252133
056a3d1b-f679-4299-9915-32a98e8ad60c,95c349f2-c8f0-4c78-9699-4546752ff354
8e31f7cf-2623-4c4d-b032-74283feb1a11,805ba59a-7329-4488-b2f4-a93c337d376f
de6fa8d5-ead8-4f8f-bd31-61b58ab4dee4,805ba59a-7329-4488-b2f4-a93c337d376f
2fa9bb82-3415-4168-9cfa-46c7d4dee4fd,009574ed-4e9a-41c0-b472-22f040b707d1
f6b68b15-21d4-4d01-83b9-b5b4eeac133b,1c3a4fb0-30f1-4162-8e3b-c5ae8ad2f650
63b53af0-fc2f-4fc6-b991-7873f8b5dd38,1e9c0789-df87-4635-9b79-9e9230f34d5d
92eeef4a-1002-4a9f-80ae-9b3b494a9243,1c3a4fb0-30f1-4162-8e3b-c5ae8ad2f650
562b825b-3811-40fe-b09d-c615931b8bac,51e85dec-3f68-4966-bf46-cd9e62ebd5a5
491c177f-bf1c-48d2-b447-72fb9f25ce96,1c3a4fb0-30f1-4162-8e3b-c5ae8ad2f650
4a2a3f13-1f6d-4431-bf86-5842fbc8971f,1c3a4fb0-30f1-4162-8e3b-c5ae8ad2f650
875008ba-85b2-4270-82b4-a6e3ee21061e,8b0e2fb2-151c-4a2c-a161-19a72db63eb2
b04a2c37-5459-4d5a-ac93-6c7120784921,fe884641-c823-4b6e-9e7c-edd75e9c8bcb
29af911c-0734-48d9-a011-6ef9bce8a1ee,fe884641-c823-4b6e-9e7c-edd75e9c8bcb
0d026096-3e11-4312-bd21-3df07980ff56,1942bb38-ad62-45bf-b781-35a19753977b
e5aa551c-8ce1-4105-abc8-e3bbbdb1d613,630e6c05-969c-45ee-b0ef-f1e75ee62fca
d26741b1-e895-4c2b-b68e-2d9a63b9727e,630e6c05-969c-45ee-b0ef-f1e75ee62fca
765d5eb6-4b48-41d7-bfa3-93f561800108,95c349f2-c8f0-4c78-9699-4546752ff354
029f67d0-fc59-45e9-8ad6-7958d551c6e9,95c349f2-c8f0-4c78-9699-4546752ff354
11b13f11-7299-4f30-9f9f-b662f2f3f7f0,faddcbe9-13d1-42d3-a458-7247e4173b06
25fe8580-e45a-4a1a-b197-1e890c6f27c4,67bb5878-19d6-4e0d-9915-3d1d421b3c5d
2a7e8c63-b646-4f2d-ad15-a5360251a4a6,b5764d29-9e9f-4eff-96c1-880f28870d96
f8b275e5-70ba-4092-8bb9-d60508969c49,eb3df129-e910-4327-9c82-56066dcf9010
324bb651-c30d-4f5f-8820-a57f18bc442a,95c349f2-c8f0-4c78-9699-4546752ff354
0349a7e6-07f0-4652-a410-732c8638dfdf,4f519945-12ec-4f31-a2e1-8a9df460927b
7b1d3447-09d4-43aa-859e-6fd03eaa89b3,95c349f2-c8f0-4c78-9699-4546752ff354
f5df7703-83e2-45f1-9461-1e2073f23a20,95c349f2-c8f0-4c78-9699-4546752ff354
8949a26c-4e2d-4ebe-b21d-3e873b22c935,95c349f2-c8f0-4c78-9699-4546752ff354
06baaeec-498c-48ee-b923-8ef397bf63d5,a6804ffc-1a35-4b3e-9cd7-0006fb68365e
111b685d-86a0-46c5-a019-2e8a3f9d2501,29ecd40d-b3c5-4944-8855-751cbcf1ec77
9e2ff6ad-3882-4e85-8944-e6cc4bb3af31,630e6c05-969c-45ee-b0ef-f1e75ee62fca
d0db8c83-672e-4188-894c-47ce09e94e77,630e6c05-969c-45ee-b0ef-f1e75ee62fca
f6f9164f-e62e-48b9-a4d2-a91c71fea47a,630e6c05-969c-45ee-b0ef-f1e75ee62fca
42bb01bc-37de-4ab3-846e-776b8d6c856c,630e6c05-969c-45ee-b0ef-f1e75ee62fca
e2a08249-3f7d-4704-9926-253a643a389f,9067bd5f-1e11-4984-aae3-9f49d055d311
c9a4956c-f5fa-4cdf-9069-e21796848166,5e68f4da-b45d-4111-9347-95b34964637f
0d0fc9ed-fe57-4257-b4e6-5debf4ce2695,0c8838ab-f6d2-49b9-bab5-6881d4a879e0
3dd10d31-935b-4310-8601-aab0d211e56d,5e68f4da-b45d-4111-9347-95b34964637f
4c8295d3-42b5-40a3-b718-646be421724b,73bbd45d-c12d-49a9-b42d-a20444881cc3
935cc717-fa7e-484d-a884-afe2c12f437f,73bbd45d-c12d-49a9-b42d-a20444881cc3
aedabe08-6b27-4ef5-b0cc-197fca432667,59f918c1-2947-4f37-be35-cd39902d7520
1aaa2a53-385e-4a9b-8c90-be1a5092fbcc,fe884641-c823-4b6e-9e7c-edd75e9c8bcb
c9ca0e3e-edc6-4f7c-90dc-636d116f7fda,fe884641-c823-4b6e-9e7c-edd75e9c8bcb
eb92df0b-32f6-4fdd-9fcd-4148d4510aee,a5056ce1-ee40-4199-b929-3d04e7f2680b
88fcd6f0-b04d-49e9-9d3e-18559f48f1ab,f6967006-d089-46e2-9c82-09841ea15397
33848f7a-3de0-4954-8d59-0eaefed248a1,73bbd45d-c12d-49a9-b42d-a20444881cc3
c3482777-831a-48c7-a64e-aac0325f161d,73bbd45d-c12d-49a9-b42d-a20444881cc3
a900309c-770e-4f6e-8bb8-3590da12907b,787ae118-2200-477a-9ef9-4ebbb6aec74c
dce99a6d-ac22-4a0c-bb2c-56cc6949ca66,73bbd45d-c12d-49a9-b42d-a20444881cc3
59429fa8-5e4f-4df7-8372-b76acddd809e,73bbd45d-c12d-49a9-b42d-a20444881cc3
fafea912-1359-4aac-a3c6-c7cbf4512a01,8d06b9e2-9e1d-4272-a5e1-930b7a36b529
f2781cc7-ecec-4e2a-84b7-8c767842c0bd,73bbd45d-c12d-49a9-b42d-a20444881cc3
15424ec6-f16b-4e8e-bd34-c974e5bbf67c,73bbd45d-c12d-49a9-b42d-a20444881cc3
e2853efb-a88d-4b99-80d3-b46ea2834384,95c349f2-c8f0-4c78-9699-4546752ff354
07608a85-5238-4ba7-815e-2775a3a8a93e,95c349f2-c8f0-4c78-9699-4546752ff354
d4a93d9f-eace-4266-8296-0bb114ae18fa,d87c1594-6419-42b9-aac7-2695386c87bb
247ed7c9-0be8-45fe-a68f-e177de44233c,1039f542-476a-4dd4-832c-bf9926003a63
4f216001-5cb2-4a90-9e3a-fc94e3606366,73bbd45d-c12d-49a9-b42d-a20444881cc3
b7043d9d-517a-4602-9fa7-497dcb873596,73bbd45d-c12d-49a9-b42d-a20444881cc3
32f9d98a-bfdc-471e-8d8e-d45b8f89f556,73bbd45d-c12d-49a9-b42d-a20444881cc3
f87711dc-7d15-4822-923e-9bf399fd74b7,73bbd45d-c12d-49a9-b42d-a20444881cc3
a62f6250-efb2-4a53-a3c7-6dc19685134a,869cfcb5-5e27-43e5-9658-ac1eb741612c
acedd42a-48dd-4666-aa9f-a74c50df6a14,f4408b52-f456-4832-ab36-3fde67f4e7fd
5f4e39c1-5df3-4760-af1b-7d5bab857ff8,73bbd45d-c12d-49a9-b42d-a20444881cc3
795bf0cb-8179-43ac-b6c9-3d5a302b21f5,73bbd45d-c12d-49a9-b42d-a20444881cc3
670d141f-8f6b-4e8d-b0af-7c2ba3c7efeb,228f5b27-ad1f-47ce-96b5-b4616302b319
016590f9-741d-4ce7-982b-46ed63e1f3be,41383d68-7d35-406b-9b31-549f61d00cb2
8e9535d4-45ac-449a-b42a-b20410c3cd15,41383d68-7d35-406b-9b31-549f61d00cb2
63acf6b0-b704-41e0-ab2d-14b95669aaf4,5e68f4da-b45d-4111-9347-95b34964637f
91271672-72aa-4e67-806e-a7f6b70cfe1b,e9a20ef3-02de-4f9f-a21a-66092511ecb4
db2201bf-5905-4724-a033-5cceed7e24e3,5e68f4da-b45d-4111-9347-95b34964637f
aeee96d7-eb9d-4e6c-baf3-8cff42db9086,b5764d29-9e9f-4eff-96c1-880f28870d96
48be46fb-0969-4ac6-a037-30c03a9c506f,7811e599-191b-4563-bafe-00266fa84a6c
9bde178d-b336-4230-9aec-dcee3672e910,b5764d29-9e9f-4eff-96c1-880f28870d96
89bc0dfd-53d3-4a93-9379-694f4c2cb730,eb3df129-e910-4327-9c82-56066dcf9010
45a3943f-fc9a-4c18-a495-8cea6ebc9fa8,eb3df129-e910-4327-9c82-56066dcf9010
4b6bda1d-b7b4-4448-8ca1-69ae1e427d75,1cd7ac47-0e61-4d49-a5bb-3e1204139861
0ba8c302-0e35-4761-9d15-3ff10effeeb4,eb3df129-e910-4327-9c82-56066dcf9010
59d2f6d1-4ade-4f64-bfbd-dba66d929dbb,ebf3e51c-a127-4969-a556-bd3d181d07d8
7971dc98-5685-48b5-929b-c68aa0e79fc3,eb3df129-e910-4327-9c82-56066dcf9010
6804a11a-3217-4834-8543-e9150f077a8a,d070c573-46e2-4760-9603-0124c1e9483d
24b2c9e4-fb4d-43b4-ae76-8f612fac6918,6ab71bbc-03f4-4d4c-86e7-8ad42bc709e3
15cb6475-53c1-4dc6-b865-fdec10c0bc7e,d070c573-46e2-4760-9603-0124c1e9483d
f7a6d32a-953e-40f1-832a-b42209a07cf2,73bbd45d-c12d-49a9-b42d-a20444881cc3
3b0309ee-c877-4763-abc1-4ac526c1077d,73bbd45d-c12d-49a9-b42d-a20444881cc3
5594303f-eb7a-4e1c-98f5-d295092dc126,b9b9a986-a70a-4452-bcce-eb9c2cc693dc
52d45c67-634e-4988-a16d-2bfd2586a88d,630e6c05-969c-45ee-b0ef-f1e75ee62fca
cf8740f2-39ea-4d17-80a7-6af051a39d8d,d37a7795-e8ea-413d-80e8-88e65968bf7f
10fdee38-0c12-4c91-821f-814a04e87d29,630e6c05-969c-45ee-b0ef-f1e75ee62fca
124b1737-6bbe-49f0-a4c4-6e332351c041,b9920d0a-1218-4ae7-81d0-040adc25a32e
cfdd929f-7a5c-4d06-9a1b-47bd9d22607a,b9920d0a-1218-4ae7-81d0-040adc25a32e
353c8c08-13c5-4df9-97c6-35e13be9ba37,7c7685c5-a4dd-4e57-bbd1-b45b4f567ee5
67169961-a2b0-43bc-864c-13b8a4cbdbf0,fe884641-c823-4b6e-9e7c-edd75e9c8bcb
3bf5ec5b-0ddb-47a9-9945-b986c095b314,0168a794-f026-461f-a5e4-b6b9c7741f7a
59072107-d649-46a1-9a51-44d81cf4ee9b,fe884641-c823-4b6e-9e7c-edd75e9c8bcb
f436f15f-07a3-4cd9-ab30-59afe9903ebf,28f2dbc8-3f68-4ede-8499-d910be2b886a
00e92091-05b9-4fe7-a381-76185e1e4254,95c349f2-c8f0-4c78-9699-4546752ff354
a40ec64d-dd5b-4898-88a7-24cd9bb214f5,95c349f2-c8f0-4c78-9699-4546752ff354
aaae64a7-d4cd-4e27-83f3-7587f153edfa,c1ac9bba-a24e-40a3-9459-60a8f1079796
db7a4fea-7588-4839-a1a3-6601f2334999,af9c9105-c1b1-4413-9b45-fc1de8158842
304441e2-4b86-49a4-b274-d4ac17cb61f9,c1ac9bba-a24e-40a3-9459-60a8f1079796
13c5758b-2a4c-4f76-8cd9-3d1d672e1c84,5e68f4da-b45d-4111-9347-95b34964637f
f8ba905c-5b20-4b4d-a9b2-9d2d5aaa7835,7b1306bf-bb83-433e-95a6-fddb5cdaaa39
ad2a7e21-2af1-4930-b0e4-21441a6ba327,5e68f4da-b45d-4111-9347-95b34964637f
