node,ip,uuid
node-a8-199.grenoble.iot-lab.info,172.20.64.1,d87c1594-6419-42b9-aac7-2695386c87bb
node-a8-200.grenoble.iot-lab.info,172.20.64.2,1e4f3c8f-bc19-4d3e-b20d-632bef90ec40
node-a8-201.grenoble.iot-lab.info,172.20.64.3,1e9c0789-df87-4635-9b79-9e9230f34d5d
node-a8-204.grenoble.iot-lab.info,172.20.64.5,9c791cab-eb49-4fb3-92bf-73fc5eacc225
node-a8-205.grenoble.iot-lab.info,172.20.64.6,51e85dec-3f68-4966-bf46-cd9e62ebd5a5
node-a8-206.grenoble.iot-lab.info,172.20.64.7,869cfcb5-5e27-43e5-9658-ac1eb741612c
node-a8-207.grenoble.iot-lab.info,172.20.64.8,f58c8e16-cbee-47d3-b9f4-ffed825a7425
node-a8-208.grenoble.iot-lab.info,172.20.64.9,8b0e2fb2-151c-4a2c-a161-19a72db63eb2
node-a8-209.grenoble.iot-lab.info,172.20.64.10,f4408b52-f456-4832-ab36-3fde67f4e7fd
node-a8-210.grenoble.iot-lab.info,172.20.64.11,4de155eb-ddf8-4ec1-899e-9fb2348da887
node-a8-211.grenoble.iot-lab.info,172.20.64.12,1942bb38-ad62-45bf-b781-35a19753977b
node-a8-212.grenoble.iot-lab.info,172.20.64.13,228f5b27-ad1f-47ce-96b5-b4616302b319
node-a8-214.grenoble.iot-lab.info,172.20.64.14,d8c55a1c-16dd-41cc-aa1f-41615e09d0b0
node-a8-216.grenoble.iot-lab.info,172.20.64.15,faddcbe9-13d1-42d3-a458-7247e4173b06
node-a8-217.grenoble.iot-lab.info,172.20.64.16,e9a20ef3-02de-4f9f-a21a-66092511ecb4
node-a8-218.grenoble.iot-lab.info,172.20.64.17,7a8d31a0-bbbd-4cae-9f43-d024dd2afac2
node-a8-219.grenoble.iot-lab.info,172.20.64.18,67bb5878-19d6-4e0d-9915-3d1d421b3c5d
node-a8-220.grenoble.iot-lab.info,172.20.64.19,7811e599-191b-4563-bafe-00266fa84a6c
node-a8-221.grenoble.iot-lab.info,172.20.64.20,b1f20a35-7896-41f3-9540-43f9530df53a
node-a8-165.grenoble.iot-lab.info,172.20.64.21,4f519945-12ec-4f31-a2e1-8a9df460927b
node-a8-166.grenoble.iot-lab.info,172.20.64.22,1cd7ac47-0e61-4d49-a5bb-3e1204139861
node-a8-167.grenoble.iot-lab.info,172.20.64.23,caea3749-662f-453a-9256-7cf85a3bff01
node-a8-168.grenoble.iot-lab.info,172.20.64.24,a6804ffc-1a35-4b3e-9cd7-0006fb68365e
node-a8-169.grenoble.iot-lab.info,172.20.64.25,ebf3e51c-a127-4969-a556-bd3d181d07d8
node-a8-170.grenoble.iot-lab.info,172.20.64.26,736dcc56-e801-4db8-b857-a17d32213ae6
node-a8-171.grenoble.iot-lab.info,172.20.64.27,29ecd40d-b3c5-4944-8855-751cbcf1ec77
node-a8-173.grenoble.iot-lab.info,172.20.64.28,6ab71bbc-03f4-4d4c-86e7-8ad42bc709e3
node-a8-174.grenoble.iot-lab.info,172.20.64.29,7279ed63-7ec6-4670-881a-94c1bf8cd499
node-a8-175.grenoble.iot-lab.info,172.20.64.30,9067bd5f-1e11-4984-aae3-9f49d055d311
node-a8-176.grenoble.iot-lab.info,172.20.64.31,b9b9a986-a70a-4452-bcce-eb9c2cc693dc
node-a8-177.grenoble.iot-lab.info,172.20.64.32,8ecacbb3-3d66-430e-82d0-8cfa34c55a78
node-a8-179.grenoble.iot-lab.info,172.20.64.33,0c8838ab-f6d2-49b9-bab5-6881d4a879e0
node-a8-180.grenoble.iot-lab.info,172.20.64.34,d37a7795-e8ea-413d-80e8-88e65968bf7f
node-a8-181.grenoble.iot-lab.info,172.20.64.35,4308b8f5-25a7-48be-bfec-d04bd8dc190a
node-a8-182.grenoble.iot-lab.info,172.20.64.36,59f918c1-2947-4f37-be35-cd39902d7520
node-a8-183.grenoble.iot-lab.info,172.20.64.37,7c7685c5-a4dd-4e57-bbd1-b45b4f567ee5
node-a8-184.grenoble.iot-lab.info,172.20.64.38,a1bb7d23-bffe-4d02-b482-e536a8e3816f
node-a8-185.grenoble.iot-lab.info,172.20.64.39,a5056ce1-ee40-4199-b929-3d04e7f2680b
node-a8-187.grenoble.iot-lab.info,172.20.64.40,0168a794-f026-461f-a5e4-b6b9c7741f7a
node-a8-188.grenoble.iot-lab.info,172.20.64.41,d32d0e2b-d757-4482-b7b3-86c1d4517347
node-a8-189.grenoble.iot-lab.info,172.20.64.42,f6967006-d089-46e2-9c82-09841ea15397
node-a8-190.grenoble.iot-lab.info,172.20.64.43,28f2dbc8-3f68-4ede-8499-d910be2b886a
node-a8-191.grenoble.iot-lab.info,172.20.64.44,b71c114f-7612-4003-ad4a-c4c1809e23c7
node-a8-192.grenoble.iot-lab.info,172.20.64.45,787ae118-2200-477a-9ef9-4ebbb6aec74c
node-a8-193.grenoble.iot-lab.info,172.20.64.46,af9c9105-c1b1-4413-9b45-fc1de8158842
node-a8-194.grenoble.iot-lab.info,172.20.64.47,dfc05638-7a28-4967-890e-297631252133
node-a8-195.grenoble.iot-lab.info,172.20.64.48,8d06b9e2-9e1d-4272-a5e1-930b7a36b529
node-a8-197.grenoble.iot-lab.info,172.20.64.49,7b1306bf-bb83-433e-95a6-fddb5cdaaa39
node-a8-198.grenoble.iot-lab.info,172.20.64.50,009574ed-4e9a-41c0-b472-22f040b707d1
suno-11.sophia.grid5000.fr,172.16.130.11,1383dc2f-80bf-46d2-a294-b6adfeb4cbec
suno-14.sophia.grid5000.fr,172.16.130.14,1c3a4fb0-30f1-4162-8e3b-c5ae8ad2f650
suno-15.sophia.grid5000.fr,172.16.130.15,eb3df129-e910-4327-9c82-56066dcf9010
suno-2.sophia.grid5000.fr,172.16.130.2,805ba59a-7329-4488-b2f4-a93c337d376f
suno-25.sophia.grid5000.fr,172.16.130.25,73bbd45d-c12d-49a9-b42d-a20444881cc3
suno-27.sophia.grid5000.fr,172.16.130.27,fe884641-c823-4b6e-9e7c-edd75e9c8bcb
suno-28.sophia.grid5000.fr,172.16.130.28,41383d68-7d35-406b-9b31-549f61d00cb2
suno-30.sophia.grid5000.fr,172.16.130.30,b5764d29-9e9f-4eff-96c1-880f28870d96
suno-32.sophia.grid5000.fr,172.16.130.32,95c349f2-c8f0-4c78-9699-4546752ff354
suno-33.sophia.grid5000.fr,172.16.130.33,b9920d0a-1218-4ae7-81d0-040adc25a32e
suno-34.sophia.grid5000.fr,172.16.130.34,d070c573-46e2-4760-9603-0124c1e9483d
suno-36.sophia.grid5000.fr,172.16.130.36,b0c67b60-0cf9-44f5-9dd4-795d8cbd8dd9
suno-37.sophia.grid5000.fr,172.16.130.37,7a9bdc48-9771-49d9-9903-cdfb2ef80c93
suno-43.sophia.grid5000.fr,172.16.130.43,5e68f4da-b45d-4111-9347-95b34964637f
suno-44.sophia.grid5000.fr,172.16.130.44,630e6c05-969c-45ee-b0ef-f1e75ee62fca
suno-8.sophia.grid5000.fr,172.16.130.8,c1ac9bba-a24e-40a3-9459-60a8f1079796
