actor,node
88b4e1c3-31e4-4aa8-a9e3-1d3d0375b755,1b5d3994-a748-4d30-94ba-c7efdabee106
4e409544-c35d-44ae-b965-da5eea42979d,3de85b44-7cf1-4a6b-a119-f05b9943dc39
4db77144-1676-4fdd-a064-413e9bf0f58a,1b5d3994-a748-4d30-94ba-c7efdabee106
bd50796d-65c8-49cc-99a8-e823549517f3,0f5c39ec-1279-4cfc-aedc-29c392cb4a2a
e3d1bd16-3424-425f-82b9-dcbba2330cb9,84601b41-33e7-485c-9872-3a2905e03598
21ec79bd-a60c-4970-8ff1-9f652dff72e0,84601b41-33e7-485c-9872-3a2905e03598
724e8c6f-37bf-475a-8f30-63d1b0eed3a5,63cf9fb3-be77-42ee-8157-1032cd6e9a00
a4d68137-7007-4165-888a-5465deb5f8e5,f0be51ed-eecb-424c-bab3-b7b94aea7751
09587194-cfdc-4ffe-b2c4-d80bcc9a67b3,63cf9fb3-be77-42ee-8157-1032cd6e9a00
7fdfa977-3229-42e4-9af0-c04e8e4a7ecf,35122ad6-bc0b-496f-a87e-7fe63f344627
22207068-113d-4db5-87cf-187038bcc1a6,1b5d3994-a748-4d30-94ba-c7efdabee106
5d03f8d9-85fc-499c-980d-3005b3e377aa,1b5d3994-a748-4d30-94ba-c7efdabee106
6a91257a-f091-4777-abab-2ecc7e65e163,a2b4fa91-dda2-44f6-b4de-14cfaf883ce3
6aca8425-2b0d-4014-8907-40e36cf9958b,629a1f18-8107-47aa-9d4b-a8a6df78808d
e19a0dc4-6fd3-47dd-8cd9-f328b498867f,a2b4fa91-dda2-44f6-b4de-14cfaf883ce3
32218b55-9214-4428-a010-da2bb975a0dc,e8bfb7f4-18a9-460e-b77b-06044ff3df2a
a38f7278-c4ea-47c4-8d88-a11a9c63dd8b,1b5d3994-a748-4d30-94ba-c7efdabee106
7fe6d058-79cd-4ca9-bf16-7bc9e131802e,1b5d3994-a748-4d30-94ba-c7efdabee106
b47cbc98-4207-4e9b-a267-5e8c1ac96f3b,db8bc913-5ca5-4ac0-8df0-6f8ee79081ee
c1cbd731-1377-4135-85d6-4491ba687707,5d928815-5a0d-4860-aaaa-016051166950
5c7dfbe1-8a53-4691-acf2-8a3ad7624dfb,db8bc913-5ca5-4ac0-8df0-6f8ee79081ee
069d69df-d7c8-4208-9832-5631f91b518d,eb5975f2-45ab-47c6-871e-2062e1a6370d
2f069883-690b-4e7f-a7b4-bf2340399539,367acf7d-6315-4ce8-a46f-fff9db0928a4
7742cf18-cb7c-4e95-8c1d-3537132e5b16,eb5975f2-45ab-47c6-871e-2062e1a6370d
a32aaf65-657e-4b9c-9c25-16e38d7e0a0c,5c3ab2cc-a24f-4ebb-8d00-28c2889377f6
0b8d73f5-4024-47ad-adad-f9254467a8a9,2c4d2438-f3a9-48f9-a672-9b1ecc04cf73
df535c4e-8192-431a-b942-ca691c592caa,2c4d2438-f3a9-48f9-a672-9b1ecc04cf73
c9a1bacd-d295-484f-95b7-2b66de273fd8,8ef4d4b5-1391-45dc-bf81-fd0e595beac3
42e7ced1-276f-4ca4-a748-9900bcd16cac,388d03b9-c090-46fd-8a36-e2a8db2c76d4
53da8459-5238-4e6b-b606-e6a3739d5df9,8ef4d4b5-1391-45dc-bf81-fd0e595beac3
1d723f71-4a48-4edc-a04c-e06e3b3862ce,63cf9fb3-be77-42ee-8157-1032cd6e9a00
01eb2c00-738b-45cf-8980-103dde443bb4,c8c2fac0-e38c-4fc6-8a63-cec99a9bb083
eb06b052-03b3-4207-af1c-1264f2b17cfd,63cf9fb3-be77-42ee-8157-1032cd6e9a00
15e1dde0-6ea4-46dc-9c27-d01909492a1e,6735e198-b725-4933-be09-4173f9c36101
db33a983-5325-4120-8d63-dadbc65ad0fa,6735e198-b725-4933-be09-4173f9c36101
d85b9d84-d446-4750-88cb-9fd33855a1bb,37813ab2-b165-45e7-bc46-5025a39e84d6
7765dbf8-ced5-4702-a40a-67c29b25d41f,2cc3204e-83db-401a-8128-fa20a27184c6
778149ab-49d9-4dab-a356-6f840b304483,65d60cfd-aeac-4d38-ab5f-cbff85cccf4e
82d912b2-8086-4f4f-bf69-09ec847bd286,65d60cfd-aeac-4d38-ab5f-cbff85cccf4e
60def2db-18e2-4207-bdd2-8e8c46be499b,d19921c8-4d29-43d4-982c-c02444454809
bb30211e-2932-4b15-8644-72b387b657b0,0bf83288-1d96-4fe8-9dd6-814ad6104d26
d76ec681-4431-4329-9984-6be4ad23c7a5,d19921c8-4d29-43d4-982c-c02444454809
5a83ff28-20d9-4600-a253-f94837d7f5aa,65d60cfd-aeac-4d38-ab5f-cbff85cccf4e
926b4710-3436-4a1b-93df-01e19a735ba1,c4e94edb-27b6-4985-b755-ed7fedd1c47f
1592024a-b87d-4159-afbc-3d3d5052d49e,65d60cfd-aeac-4d38-ab5f-cbff85cccf4e
f47c1d23-6a5f-46ce-84ad-7aafa8852b30,bee3c735-6976-4a7f-898a-791cb3d9cc79
d49b74e0-a8ce-4b0c-bbc6-603c9676c2c8,db8bc913-5ca5-4ac0-8df0-6f8ee79081ee
aa9d3ef0-fe13-4e25-a578-b87bf2f91ca3,db8bc913-5ca5-4ac0-8df0-6f8ee79081ee
976e14df-2d5c-40c6-9ff1-d89fcf5b6163,fa8a2d2e-77d0-4807-9c7c-487af5d92c57
8cec1313-728b-4e1a-af85-2e1ebfba9beb,6f7a1d72-c0f4-4a0f-ad56-51a904d68611
a50f2d74-624e-49a4-a757-5c197f732e1e,fa8a2d2e-77d0-4807-9c7c-487af5d92c57
254ca164-cbdc-4839-a0ab-9d5381ab64fb,63cf9fb3-be77-42ee-8157-1032cd6e9a00
2d06a139-0faf-4135-afdc-6fa1ae49b33b,63cf9fb3-be77-42ee-8157-1032cd6e9a00
28a135e0-96e5-4528-b957-835c0c37bf30,af5fafd0-332c-4cc4-b9d0-3998a35a49ea
891bb8a5-11d5-4a71-8a68-71fe1f0035c9,ae079e4e-379f-4ef8-bb83-925ccb0b831d
21f59b09-ea65-4333-b0ba-bcba56725900,ae079e4e-379f-4ef8-bb83-925ccb0b831d
2e8bc1cb-e443-4aba-9835-1d854f168a6d,2f3fbd10-918f-4c6c-89db-4af9e4681ba2
f2c49d89-4df7-424d-b91a-524d192f2b46,ae079e4e-379f-4ef8-bb83-925ccb0b831d
8ada9656-73cc-4dd0-be84-42e935a8aa43,ae079e4e-379f-4ef8-bb83-925ccb0b831d
0f2d48b3-0142-42fe-87f7-e360c6a72684,9b933383-406c-4920-a074-a5ce2eed82b7
9c43519c-f969-4458-b981-75144d1257a3,6735e198-b725-4933-be09-4173f9c36101
166e7464-7052-4395-9205-ea60982a5f20,6735e198-b725-4933-be09-4173f9c36101
13ec10d2-fbe1-4156-9c1d-a067e94321af,ae037402-f666-4a2f-b66c-96e8ba5dc222
bb1f7908-5205-44d2-a00a-491e7a2c47fd,6735e198-b725-4933-be09-4173f9c36101
b3c5d0c7-98a2-45d0-807e-5c7ac2aba932,041f01a0-3aea-4b3e-bd20-bd6460a857d0
156f7394-744d-43f3-8ae0-2ecf7789af6e,6735e198-b725-4933-be09-4173f9c36101
249a4d42-0614-4de2-8146-0906b2123ff4,8ef4d4b5-1391-45dc-bf81-fd0e595beac3
37dce080-40d5-41b6-ab33-76ccb93622ff,8ef4d4b5-1391-45dc-bf81-fd0e595beac3
fb8238bd-b860-4e8e-8952-dec38e029337,d04438ce-7d3c-47d4-80b9-dcbeb1015f28
d71d2e21-5b9a-4e87-ab84-d4a480218a92,47e30190-7594-42dd-8ed4-2b528aca5ed8
fc82e214-e3d6-4165-b62b-01ac59a077f9,a2b4fa91-dda2-44f6-b4de-14cfaf883ce3
69f3ac0e-52b8-4858-b5b4-4863ee6b2dd7,a2b4fa91-dda2-44f6-b4de-14cfaf883ce3
32ec7bc7-65cc-4e54-b73d-2e6e9ac94acc,ec4de115-e26b-4a54-822f-8cde677d6ce4
f03b5bd1-0a45-4c80-9a23-2080ad2075fd,84601b41-33e7-485c-9872-3a2905e03598
7459cee2-c179-4128-8784-ebb53d0ec901,84601b41-33e7-485c-9872-3a2905e03598
cf17ae3f-6a3b-42ea-956a-2da283388e54,09b5ac1a-f384-4c6d-a594-4b42248cd45e
35657002-5936-41d4-b8b1-cb81c5d03be4,a2b4fa91-dda2-44f6-b4de-14cfaf883ce3
9b1aecc2-c851-4a36-958e-16f74bb747c4,a2b4fa91-dda2-44f6-b4de-14cfaf883ce3
8e43ec4c-6b22-4279-af62-21a5584e36b5,84601b41-33e7-485c-9872-3a2905e03598
3956302d-493a-4b50-90f0-6f4702a57e51,84601b41-33e7-485c-9872-3a2905e03598
89978c20-4c10-418f-9823-ace28e4d160c,725b716a-1603-46b3-891a-086a4a151075
bcea2f64-89c8-4cd6-96a7-9482cf6f1acf,fa8a2d2e-77d0-4807-9c7c-487af5d92c57
db01262d-faae-41b3-912d-de556b8b73c5,fa8a2d2e-77d0-4807-9c7c-487af5d92c57
01cb03a7-4cab-4bc6-ae63-67cc4fe16c15,0f46e261-b3e3-4741-a5f8-5ea52529d965
25bd6806-b313-43f5-ad91-8787a17d3b6e,84601b41-33e7-485c-9872-3a2905e03598
32d9b2b6-4fa9-4b7e-ac2c-d15b3cfcb56f,84601b41-33e7-485c-9872-3a2905e03598
ada53a6c-df85-4ee2-926c-e2ce0742a410,1ce4478d-612a-4fc1-a727-84389aa735ad
4d61aced-da80-4200-a458-92ca65fb105e,b0a30954-38c2-4239-819c-7a3a6d45fcd8
41a01cf3-f959-4c80-b927-0d927e640953,84601b41-33e7-485c-9872-3a2905e03598
4ac9ba9b-9ecf-4def-8114-c544990f8267,84601b41-33e7-485c-9872-3a2905e03598
87791132-9ce4-430e-8d13-344e57295a9b,0b085fe6-4bdb-47d4-8126-3c1bacd5231c
c609fb69-4032-42be-a454-e2570b5dbe99,8ef4d4b5-1391-45dc-bf81-fd0e595beac3
ba463b11-a57c-4aa4-ab24-49c3cfacefb3,8ef4d4b5-1391-45dc-bf81-fd0e595beac3
81670ad4-c246-4cb9-bfde-a22dcb1a45e4,e9a00914-72cb-4dfd-bae3-31eb2e7ba009
3997f633-2778-432f-addc-53a2c64f2422,e9a00914-72cb-4dfd-bae3-31eb2e7ba009
b93978c1-678d-4c40-ba64-38c5364d3f03,eed06b80-e15d-492e-ae19-461b84db490b
3b0537c8-3978-48d8-8a53-c0dbdb4503f0,e9a00914-72cb-4dfd-bae3-31eb2e7ba009
b59a3f8a-c81e-4d15-a6a0-5dbf4337d335,e9a00914-72cb-4dfd-bae3-31eb2e7ba009
29ce282d-a5a9-4507-8a42-8143180dc1b7,84f4ba70-0db5-4c92-8a52-f2bf4d40d4da
afb8b181-a31f-4f97-863f-3a9e771a31ed,63cf9fb3-be77-42ee-8157-1032cd6e9a00
32f93772-d1b4-4253-af14-1a1b2cda905a,2c0be037-d8ea-4e83-9761-60116a6469ca
abb41c59-27eb-4ecd-9a35-3feb52d3915d,63cf9fb3-be77-42ee-8157-1032cd6e9a00
4e0a8e2c-3ab5-467a-a8d8-587899938a5a,63cf9fb3-be77-42ee-8157-1032cd6e9a00
2c9086f0-1c69-486c-ae9c-72adae9a6e41,63cf9fb3-be77-42ee-8157-1032cd6e9a00
3ed67e37-f7ac-412d-a23d-f3f92739a604,b9610f08-b019-4a6c-9ab0-cd188619bf60
84e79da7-a006-42d1-a866-dd05c186015b,eb5975f2-45ab-47c6-871e-2062e1a6370d
c5eb9876-2d40-44c1-afce-ce44e232d3a1,bc97c63d-04ae-4223-bc18-51a42989e398
c84d54ae-6ecd-4ce9-8a5c-d07d44b37b48,eb5975f2-45ab-47c6-871e-2062e1a6370d
379a3aa9-4a20-4ac6-8db9-54ef9c0dc8e0,1b5d3994-a748-4d30-94ba-c7efdabee106
8d085ffd-900d-4cc2-843d-46bbf3447405,6f5d2c09-302a-4609-82c9-d662abbfe327
654b694d-8cfd-47c6-8ac0-dedea837e84e,1b5d3994-a748-4d30-94ba-c7efdabee106
77c5ba4e-e518-4d11-9ee4-4e2dc6c186ab,6735e198-b725-4933-be09-4173f9c36101
5669d435-b0ba-4a6d-abe3-0bccabe41df4,6735e198-b725-4933-be09-4173f9c36101
7a52e1c0-d58f-48d3-bd05-5c0be89db7f7,9cf9f736-b41e-49fc-afd8-289c81cb986c
67793d18-da53-4e69-8a6f-477240517238,eb5975f2-45ab-47c6-871e-2062e1a6370d
d3b3828d-6b30-46df-bd96-435d831b9b9b,3d372257-a029-4acc-9bed-faa9ee603a70
979d44ae-40ec-42ab-8440-fd0608e89708,eb5975f2-45ab-47c6-871e-2062e1a6370d
373a9c4d-39e1-4b74-919a-c9054953489d,d45b04e0-3497-4338-acf2-35b633d485a8
40dc03d7-491c-4cae-998d-e72c298eddc1,84601b41-33e7-485c-9872-3a2905e03598
e9c0146a-48cc-43ec-9c81-e37121631222,84601b41-33e7-485c-9872-3a2905e03598
afb1defa-9462-4cdf-b6ac-0c0a7abc7244,345c2aa4-c8ed-4ecc-a335-ed2be76d1309
1ff905dc-7b94-4f56-84b3-132b1cb3532b,d19921c8-4d29-43d4-982c-c02444454809
b6720d96-591e-4417-adcb-e320effc2eca,d19921c8-4d29-43d4-982c-c02444454809
ac83dcf4-66d7-4cf9-ab88-2fa747d17a2a,eecb19b8-0d77-46ee-8f9e-595624e71634
1e702a5c-43f1-498e-a2b5-ade57e46e050,6735e198-b725-4933-be09-4173f9c36101
331bd331-7d8e-4c11-88c4-0b2a99b9d41b,6735e198-b725-4933-be09-4173f9c36101
e5b81dce-66b9-415a-883f-af6726cb258e,eb5975f2-45ab-47c6-871e-2062e1a6370d
0b507e94-183a-46ac-86f3-9a632166f709,8f2e54e5-60e4-4df9-8c24-fa53b0d9c46b
212d38e4-75d7-4c4e-af5b-f5c2124363d4,eb5975f2-45ab-47c6-871e-2062e1a6370d
e1162c3e-8112-4e74-bff1-06f43ef1e529,fd79854b-2830-4104-a69a-c7e53f7ee383
53f2592c-d39a-47eb-8c98-43fc1d0b7e22,6735e198-b725-4933-be09-4173f9c36101
4c8bf88c-94cf-4410-b9d9-b2809c9cecc5,6735e198-b725-4933-be09-4173f9c36101
ea11c491-f63f-402c-9c36-1243ff1c9418,ae079e4e-379f-4ef8-bb83-925ccb0b831d
531c7a7f-5dd8-4a67-9916-de721993f2ab,fd2da5a1-65de-4200-b392-52d7f5c87f18
25a40589-15bb-4a8a-bfdc-9af907968ecf,ae079e4e-379f-4ef8-bb83-925ccb0b831d
b3286aa3-1d83-469d-b660-99d4014fce06,63cf9fb3-be77-42ee-8157-1032cd6e9a00
a32d5a70-eec9-4a27-be8e-05111498640b,63cf9fb3-be77-42ee-8157-1032cd6e9a00
8d67180f-6c17-40ff-a05c-bebdb8fd2b7f,fac026a8-bdc3-4c36-bd53-0c509fa644ad
bc20220a-3c16-4939-89da-083ab5b505f1,cec08839-245b-4f96-af8f-6d824c8f9691
8b5782ff-43e1-46d8-a84f-a49a3d334b14,a2b4fa91-dda2-44f6-b4de-14cfaf883ce3
e7e5cc02-17d8-40d7-b1cf-51625efe1609,a2b4fa91-dda2-44f6-b4de-14cfaf883ce3
78f17f4c-ea48-4759-809d-da89d9ba4110,ffcf8168-5bae-4cff-9a82-30ea31db80b8
85d5a6fb-0c10-4ef5-ac71-0afdd442b7e3,a0dd5fc9-7bca-4798-8215-55587cb6a2fe
d7915077-27ab-435b-9a74-281a93d0cf44,ffcf8168-5bae-4cff-9a82-30ea31db80b8
866ed3c3-99f7-4af2-8892-094384e013b1,91d7b3b6-f3a0-42bf-9f39-8726adabe533
f17202c8-ffbf-43fd-8ead-f6f853f42422,ae079e4e-379f-4ef8-bb83-925ccb0b831d
0d455ea0-524c-416a-a1d5-6aaf97c5c79c,ae079e4e-379f-4ef8-bb83-925ccb0b831d
2961929f-692f-4af0-8ca6-10d914aee422,a2b4fa91-dda2-44f6-b4de-14cfaf883ce3
c7aa1e3f-81ed-4201-a195-527b0174fc2d,e1d11c68-fbb9-41ef-8668-63126e22aceb
cf09ace6-f866-4a9f-856f-8033aec34344,a2b4fa91-dda2-44f6-b4de-14cfaf883ce3
