actor,node
99f64b0f-c0d0-42a4-ae7a-a8be94ad01df,ca5cfc4a-150f-4889-87cc-758075c59dad
ec8989ad-a4c8-45a2-a397-07e7f8f4297f,0971bfd4-c0d7-4ff9-991f-5ce2ea1f5bc4
74ca7abe-9318-418c-96bc-97c9598293f6,fbc115a8-5085-4f00-b51f-c6bc7616829c
2aecd53f-1365-4bb9-b654-aa9afb2143e3,3b874a95-ee1e-42c6-9570-b347ac86e683
3536386b-f4b1-40d5-b097-aa986013258d,3b874a95-ee1e-42c6-9570-b347ac86e683
7a2d2f62-4316-482f-a38c-5d3427f2c350,076b2cf5-e714-4f75-821c-65d9887dd838
f3944290-3fcd-45d8-bfba-ea3b453e4083,9085cf7c-599e-4704-8192-d36e5197fb42
556b30c3-852c-43a2-9d33-6cd42023e683,22f5b57a-4adb-4611-b44e-ec0c384e9c68
50564bfa-b419-472a-9658-3d733c08dcab,22f5b57a-4adb-4611-b44e-ec0c384e9c68
b937c240-2153-452b-9e15-a51f288075dc,4a049def-5c55-4c6f-8e05-a9841f580c0f
b61311f3-98f7-4893-9da2-71bf56ead6b1,73cff2fe-bc83-451e-a01f-1b54e0dbcf28
5a904476-081b-4ee5-980d-a94b57db11cc,4a049def-5c55-4c6f-8e05-a9841f580c0f
c52ca678-c1c4-43ad-b72e-60620b19abd3,e25e0cf7-53ae-4d73-a88b-3cc6a0c16661
a076b3ee-edea-47e0-937f-9cb0c71fabe9,6ddbbf18-3233-4bf3-add3-50d05ecafdd9
a8853e37-d75f-458d-bbac-5b486901b7f6,6ddbbf18-3233-4bf3-add3-50d05ecafdd9
6bb6110b-88d8-4dc5-8237-37047367a19d,56d117ca-4207-4bb3-be7e-52c667cf3ed5
869d0556-70f8-4c7a-9b98-930c0bb4c903,6ddbbf18-3233-4bf3-add3-50d05ecafdd9
5e8420b4-706e-449a-99ce-86f5878960fd,6ddbbf18-3233-4bf3-add3-50d05ecafdd9
9fd6d499-54b6-4c45-8f89-af215e0124bd,53983ee5-feeb-4605-913f-79ff05576a2c
35e00676-b9ba-478a-be18-e1f09f96ec81,22f5b57a-4adb-4611-b44e-ec0c384e9c68
abf8aa51-6355-4ca3-aaaa-b6b626aacb7c,22f5b57a-4adb-4611-b44e-ec0c384e9c68
e3cbfa31-b690-4b36-9497-72aaccd0c45a,8c63c257-f9b2-4779-b2c1-9e97dd45a727
b83288eb-f516-41f4-8c21-3b68c137df19,e064ddec-746e-4ba3-b66c-21d91248ef85
f0b4047d-be7e-4526-bc91-2cf9957ab7b6,e064ddec-746e-4ba3-b66c-21d91248ef85
3aaf6945-0a16-40cd-9537-6481101c4638,a05f94f0-4d77-4828-9c30-982096d12a5a
588e8659-aa06-48e3-9fbd-be9a27732703,a05f94f0-4d77-4828-9c30-982096d12a5a
46e888d9-8b24-4e62-9d83-18d127157786,797ef6fe-7e27-441c-9bce-a9ad14bb7d19
32fd8dc2-7991-4c8e-8a11-341ada3bfd28,feaf3391-f6b7-4599-8fa2-b88b4730ec2f
59b09bed-9f19-4720-89a4-c7a75c0f43fa,3b874a95-ee1e-42c6-9570-b347ac86e683
54124d45-b12b-4cd7-8647-7b6f3e3fedac,3b874a95-ee1e-42c6-9570-b347ac86e683
0f5ef87b-506e-4714-92cd-ea5afe0dc335,0c348785-2281-496f-8520-4357513ead70
866af95b-c3f6-442a-bd5e-7fcbc86bf5fd,209f8be6-f803-47fe-a2e8-5cacaab4a3e8
8c0a9319-d4ab-4280-b54c-2c1f4f99c58e,209f8be6-f803-47fe-a2e8-5cacaab4a3e8
49e965d7-bd0c-4e7e-89a2-c86c3103fd65,64311692-9334-4898-a7e0-6924bccb3f3d
29decadc-0924-400c-b011-79f84a961521,64311692-9334-4898-a7e0-6924bccb3f3d
7f71ae66-992c-433c-9163-577c46b0f2b7,ca0df680-ec1b-454b-93bf-63e7a33b979f
5c1e7b68-8076-4a4f-b704-c9ce7e014d55,31a77745-054f-4d9d-bf0a-9af5f03f9274
5bc3293a-196f-42f3-b0f1-8cc40ff4cf3d,50febb1f-9e68-45aa-9dee-1255ea314a58
061c434d-c50a-4752-92b5-239bd8b0be0f,31a77745-054f-4d9d-bf0a-9af5f03f9274
53446d57-c8f8-4428-ae8a-843ab8917d51,a05f94f0-4d77-4828-9c30-982096d12a5a
071a90ea-6490-4a54-bbab-0e21d444944e,939d8dd5-8199-4e53-83f5-15e54b00b11d
f131ba36-c718-4cd8-9435-0f7b43ab53df,e48459e8-edc7-48c9-a740-1a1beb43f5d1
f5c6f8e5-3864-4382-975c-bb14b30c95f9,31a77745-054f-4d9d-bf0a-9af5f03f9274
98378cf2-f2ea-43f4-94ac-d24450c99b30,6a4ef742-acd5-4c28-bcfc-11c550b2b91c
dc612640-c409-41d1-a8cc-9de1c5af3154,209f8be6-f803-47fe-a2e8-5cacaab4a3e8
a8ace1f8-56f3-41d6-8c2f-06559c8f1df6,04cfc5bc-0661-492a-85d3-a775520fe6f1
7f3f49a3-361c-4af6-b98f-6b60a9e7f4d5,939d8dd5-8199-4e53-83f5-15e54b00b11d
31b1ffb6-bdb9-464a-b440-b4eb2da9e136,939d8dd5-8199-4e53-83f5-15e54b00b11d
72e61626-0224-4418-8fb3-0f855bbfe2a1,b12674b0-1749-4c9e-aaca-fd5194aa1978
e2f94465-0883-40d7-86dd-e3e385d3e6fe,6ea7f56e-8914-4941-af1d-6f2b9fc19415
0c306782-7fcb-4cdc-8bc6-c656f8341b7d,6ea7f56e-8914-4941-af1d-6f2b9fc19415
d349e8f1-27b9-4800-8d97-2cbb313a37e0,6ddbbf18-3233-4bf3-add3-50d05ecafdd9
2c3011e1-0a00-4676-b7c5-68be52763ca4,f1656eb0-54f4-4cb2-a432-872db5431f46
6fd188ed-a1a0-462a-93e1-2d658cf42d82,6ddbbf18-3233-4bf3-add3-50d05ecafdd9
8407ae67-4013-4350-b454-1896115a6c31,3b874a95-ee1e-42c6-9570-b347ac86e683
c492500d-9345-4a01-aae2-a7a40f15fbbe,3b874a95-ee1e-42c6-9570-b347ac86e683
febd626d-e674-4eb3-aa5d-d080fc492621,b7d1b6fe-5aff-40f8-84b7-fffba9c4a73b
06097b03-9a29-4ab7-8e89-1f4ca349b4e1,fbc115a8-5085-4f00-b51f-c6bc7616829c
6ea045a7-49ed-4d03-bbb6-f231e17a0adb,fbc115a8-5085-4f00-b51f-c6bc7616829c
ab1d9641-e6dd-4d5d-9d0e-7ba49a90710c,e58d99ae-1194-4c4a-b613-8773a4024f7e
6fe3893f-4ab1-478a-940c-7647d41e7d7e,24e953f4-978a-4883-ae06-35f9479edae0
95a18caa-b732-47b1-ba70-63a2f0577476,24e953f4-978a-4883-ae06-35f9479edae0
ae12becb-f003-41b5-8259-0ca27fcd60d2,87043a8a-3092-47e2-aa99-d5d8d4cce341
7c1daecc-565f-4c01-b134-09ba6e0627e5,939d8dd5-8199-4e53-83f5-15e54b00b11d
cfeb1332-f9ef-4fd0-a4b9-ac2e8c4fda9c,fbc115a8-5085-4f00-b51f-c6bc7616829c
c7be5070-c1ae-4a3b-8775-4889522e923d,f928a3ab-1110-487e-b616-0c2784a9e8de
7d62eec5-8caf-425e-8695-fd87471326ba,4a049def-5c55-4c6f-8e05-a9841f580c0f
c1cd6b2d-572f-42d6-a6c0-bdf7bc61ede3,51228c03-931f-4c0b-8a12-a5a7dbf32566
eb82ab6b-616f-4771-a4ea-feca48b9e8af,4a049def-5c55-4c6f-8e05-a9841f580c0f
ed4d3c34-135a-4ead-885f-3fb75c6570ef,2558022f-bd1f-4bbc-9ab3-bd93f8e923b9
377acbd2-53a9-4f9c-8f8b-d910e25d7bc8,939d8dd5-8199-4e53-83f5-15e54b00b11d
9ab4f657-94a6-483c-9230-ef9056d16aa1,939d8dd5-8199-4e53-83f5-15e54b00b11d
25fa3da5-e2ad-4477-a9e4-b612f22e1cae,a05f94f0-4d77-4828-9c30-982096d12a5a
19d86b1c-16cb-4ea5-9171-1dd0fb8a124a,a05f94f0-4d77-4828-9c30-982096d12a5a
324802f4-2566-4790-bda3-2b0aecfe0a6b,b8fa676e-77b9-4d4f-984c-03c62dd3c494
