app_number,app_id,trigger,burn,sink,deploy_date,token_interval
1,e2a411d7-20eb-4297-9bf7-ee42388fc0d3,99f64b0f-c0d0-42a4-ae7a-a8be94ad01df,74ca7abe-9318-418c-96bc-97c9598293f6,ec8989ad-a4c8-45a2-a397-07e7f8f4297f,2019-09-07 14:14:15,1.000000
2,5a962184-ecde-4f68-808a-82295fc8eaed,7a2d2f62-4316-482f-a38c-5d3427f2c350,3536386b-f4b1-40d5-b097-aa986013258d,2aecd53f-1365-4bb9-b654-aa9afb2143e3,2019-09-07 14:15:19,1.000000
3,6f163d4e-e86c-4f22-b2c9-cfc17d2bd383,f3944290-3fcd-45d8-bfba-ea3b453e4083,50564bfa-b419-472a-9658-3d733c08dcab,556b30c3-852c-43a2-9d33-6cd42023e683,2019-09-07 14:16:22,1.000000
4,240fa704-9289-437f-90d1-0d5fed9a418c,b61311f3-98f7-4893-9da2-71bf56ead6b1,b937c240-2153-452b-9e15-a51f288075dc,5a904476-081b-4ee5-980d-a94b57db11cc,2019-09-07 14:17:26,0.200000
5,42948996-ab46-49bf-be22-06349512f041,c52ca678-c1c4-43ad-b72e-60620b19abd3,a076b3ee-edea-47e0-937f-9cb0c71fabe9,a8853e37-d75f-458d-bbac-5b486901b7f6,2019-09-07 14:18:30,0.200000
6,1918a532-a725-480f-aa53-ec959e947dc0,6bb6110b-88d8-4dc5-8237-37047367a19d,869d0556-70f8-4c7a-9b98-930c0bb4c903,5e8420b4-706e-449a-99ce-86f5878960fd,2019-09-07 14:19:34,0.200000
7,cc59f657-eb59-4468-b22e-1d4f4dde72c2,9fd6d499-54b6-4c45-8f89-af215e0124bd,35e00676-b9ba-478a-be18-e1f09f96ec81,abf8aa51-6355-4ca3-aaaa-b6b626aacb7c,2019-09-07 14:20:38,0.200000
8,c57b7d0c-d3e3-49ae-8f76-2a6378cfdfc4,e3cbfa31-b690-4b36-9497-72aaccd0c45a,b83288eb-f516-41f4-8c21-3b68c137df19,f0b4047d-be7e-4526-bc91-2cf9957ab7b6,2019-09-07 14:21:42,1.000000
9,06ca1d71-ec3b-4597-b45b-5a7887542d07,46e888d9-8b24-4e62-9d83-18d127157786,3aaf6945-0a16-40cd-9537-6481101c4638,588e8659-aa06-48e3-9fbd-be9a27732703,2019-09-07 14:22:46,0.200000
10,547664da-d357-4d78-8f12-3074ef51d06f,32fd8dc2-7991-4c8e-8a11-341ada3bfd28,54124d45-b12b-4cd7-8647-7b6f3e3fedac,59b09bed-9f19-4720-89a4-c7a75c0f43fa,2019-09-07 14:23:49,0.200000
11,5f004c6e-0118-40f9-8e4a-1b83a29e41eb,0f5ef87b-506e-4714-92cd-ea5afe0dc335,866af95b-c3f6-442a-bd5e-7fcbc86bf5fd,8c0a9319-d4ab-4280-b54c-2c1f4f99c58e,2019-09-07 14:24:53,0.200000
12,eca0cf93-dfec-4234-b0d7-3da460755c0b,7f71ae66-992c-433c-9163-577c46b0f2b7,49e965d7-bd0c-4e7e-89a2-c86c3103fd65,29decadc-0924-400c-b011-79f84a961521,2019-09-07 14:25:57,1.000000
13,67d825bc-2319-4981-b481-0167f1200f05,5bc3293a-196f-42f3-b0f1-8cc40ff4cf3d,5c1e7b68-8076-4a4f-b704-c9ce7e014d55,061c434d-c50a-4752-92b5-239bd8b0be0f,2019-09-07 14:27:01,0.200000
14,6525c3af-afff-4598-b5a1-0132a684209d,f131ba36-c718-4cd8-9435-0f7b43ab53df,53446d57-c8f8-4428-ae8a-843ab8917d51,071a90ea-6490-4a54-bbab-0e21d444944e,2019-09-07 14:28:04,0.200000
15,0c4d8ecc-9461-49d7-af5f-f74ef8aa5cc2,98378cf2-f2ea-43f4-94ac-d24450c99b30,f5c6f8e5-3864-4382-975c-bb14b30c95f9,dc612640-c409-41d1-a8cc-9de1c5af3154,2019-09-07 14:29:08,1.000000
16,bedf37c6-3ef8-4168-bc89-866c0f92a7c9,a8ace1f8-56f3-41d6-8c2f-06559c8f1df6,7f3f49a3-361c-4af6-b98f-6b60a9e7f4d5,31b1ffb6-bdb9-464a-b440-b4eb2da9e136,2019-09-07 14:30:12,1.000000
17,29a45f5b-dd2b-4674-a09e-12f7444d74a8,72e61626-0224-4418-8fb3-0f855bbfe2a1,e2f94465-0883-40d7-86dd-e3e385d3e6fe,0c306782-7fcb-4cdc-8bc6-c656f8341b7d,2019-09-07 14:31:16,0.200000
18,f43c0d58-35e9-49b7-9292-9090dbcb295e,2c3011e1-0a00-4676-b7c5-68be52763ca4,d349e8f1-27b9-4800-8d97-2cbb313a37e0,6fd188ed-a1a0-462a-93e1-2d658cf42d82,2019-09-07 14:32:19,1.000000
19,2eca4c07-7d9a-46f6-895e-b4113cf48bd3,febd626d-e674-4eb3-aa5d-d080fc492621,8407ae67-4013-4350-b454-1896115a6c31,c492500d-9345-4a01-aae2-a7a40f15fbbe,2019-09-07 14:33:23,0.200000
20,23120bce-4e53-4b98-90d7-f88321734596,ab1d9641-e6dd-4d5d-9d0e-7ba49a90710c,06097b03-9a29-4ab7-8e89-1f4ca349b4e1,6ea045a7-49ed-4d03-bbb6-f231e17a0adb,2019-09-07 14:34:27,1.000000
21,6d4d5105-7043-40ca-840e-4f330a10fb1b,ae12becb-f003-41b5-8259-0ca27fcd60d2,6fe3893f-4ab1-478a-940c-7647d41e7d7e,95a18caa-b732-47b1-ba70-63a2f0577476,2019-09-07 14:35:31,0.200000
22,d2603399-4670-4338-b965-34ea4e522e86,c7be5070-c1ae-4a3b-8775-4889522e923d,cfeb1332-f9ef-4fd0-a4b9-ac2e8c4fda9c,7c1daecc-565f-4c01-b134-09ba6e0627e5,2019-09-07 14:36:35,0.200000
23,6c088913-d4a7-4ad2-9291-a1e442878074,c1cd6b2d-572f-42d6-a6c0-bdf7bc61ede3,7d62eec5-8caf-425e-8695-fd87471326ba,eb82ab6b-616f-4771-a4ea-feca48b9e8af,2019-09-07 14:37:39,0.200000
24,8c1ca4d3-ce65-4f3a-9091-344443426f3a,ed4d3c34-135a-4ead-885f-3fb75c6570ef,9ab4f657-94a6-483c-9230-ef9056d16aa1,377acbd2-53a9-4f9c-8f8b-d910e25d7bc8,2019-09-07 14:38:43,1.000000
25,05ce52f9-245a-44ea-a6ca-227239536b8e,324802f4-2566-4790-bda3-2b0aecfe0a6b,19d86b1c-16cb-4ea5-9171-1dd0fb8a124a,25fa3da5-e2ad-4477-a9e4-b612f22e1cae,2019-09-07 14:39:46,1.000000
