node,ip,uuid
node-a8-199.grenoble.iot-lab.info,172.20.64.2,bb01b492-9af2-47bd-b714-e2d6bfdf4a78
node-a8-200.grenoble.iot-lab.info,172.20.64.3,ca5cfc4a-150f-4889-87cc-758075c59dad
node-a8-201.grenoble.iot-lab.info,172.20.64.4,f1656eb0-54f4-4cb2-a432-872db5431f46
node-a8-202.grenoble.iot-lab.info,172.20.64.5,a6aedb86-9599-4ce9-8ac2-ef091f69b844
node-a8-204.grenoble.iot-lab.info,172.20.64.6,076b2cf5-e714-4f75-821c-65d9887dd838
node-a8-205.grenoble.iot-lab.info,172.20.64.7,b7d1b6fe-5aff-40f8-84b7-fffba9c4a73b
node-a8-206.grenoble.iot-lab.info,172.20.64.8,ad0e50a7-de43-47f0-95a4-5f92018d4e07
node-a8-207.grenoble.iot-lab.info,172.20.64.9,9085cf7c-599e-4704-8192-d36e5197fb42
node-a8-208.grenoble.iot-lab.info,172.20.64.10,e58d99ae-1194-4c4a-b613-8773a4024f7e
node-a8-209.grenoble.iot-lab.info,172.20.64.11,c6f68d87-379c-40b5-a952-e7c6993b8d32
node-a8-210.grenoble.iot-lab.info,172.20.64.12,73cff2fe-bc83-451e-a01f-1b54e0dbcf28
node-a8-211.grenoble.iot-lab.info,172.20.64.13,87043a8a-3092-47e2-aa99-d5d8d4cce341
node-a8-212.grenoble.iot-lab.info,172.20.64.14,d001144f-a34e-4504-aa5d-710f0805f123
node-a8-214.grenoble.iot-lab.info,172.20.64.15,e25e0cf7-53ae-4d73-a88b-3cc6a0c16661
node-a8-216.grenoble.iot-lab.info,172.20.64.16,f928a3ab-1110-487e-b616-0c2784a9e8de
node-a8-217.grenoble.iot-lab.info,172.20.64.17,292c4b54-b8f2-4fc1-9d7b-e08e9a062c9c
node-a8-218.grenoble.iot-lab.info,172.20.64.18,56d117ca-4207-4bb3-be7e-52c667cf3ed5
node-a8-219.grenoble.iot-lab.info,172.20.64.19,51228c03-931f-4c0b-8a12-a5a7dbf32566
node-a8-220.grenoble.iot-lab.info,172.20.64.20,bba75220-8db1-4beb-9ec3-432b5aef89b5
node-a8-221.grenoble.iot-lab.info,172.20.64.21,53983ee5-feeb-4605-913f-79ff05576a2c
node-a8-165.grenoble.iot-lab.info,172.20.64.22,2558022f-bd1f-4bbc-9ab3-bd93f8e923b9
node-a8-166.grenoble.iot-lab.info,172.20.64.23,79350a64-b499-4d78-87ea-b1175d4719f5
node-a8-167.grenoble.iot-lab.info,172.20.64.24,8c63c257-f9b2-4779-b2c1-9e97dd45a727
node-a8-168.grenoble.iot-lab.info,172.20.64.25,b8fa676e-77b9-4d4f-984c-03c62dd3c494
node-a8-169.grenoble.iot-lab.info,172.20.64.26,68124953-c2e7-4ce9-bd90-eac7a7badff1
node-a8-170.grenoble.iot-lab.info,172.20.64.27,797ef6fe-7e27-441c-9bce-a9ad14bb7d19
node-a8-171.grenoble.iot-lab.info,172.20.64.28,50f21ac9-31af-444b-b714-f0bd54bc34ab
node-a8-173.grenoble.iot-lab.info,172.20.64.29,359a2343-ee58-4397-bc53-3197815080d6
node-a8-174.grenoble.iot-lab.info,172.20.64.30,feaf3391-f6b7-4599-8fa2-b88b4730ec2f
node-a8-175.grenoble.iot-lab.info,172.20.64.31,68f8086f-90cd-444e-ad96-f068b383ca4c
node-a8-176.grenoble.iot-lab.info,172.20.64.32,24f7736e-a868-44e2-a2e8-cf02af1f8f2b
node-a8-177.grenoble.iot-lab.info,172.20.64.33,0c348785-2281-496f-8520-4357513ead70
node-a8-179.grenoble.iot-lab.info,172.20.64.34,2573d706-56d1-4395-895c-0779fb2651d1
node-a8-180.grenoble.iot-lab.info,172.20.64.35,8d33af0a-50b7-4a69-9f0d-64865669124d
node-a8-181.grenoble.iot-lab.info,172.20.64.36,ca0df680-ec1b-454b-93bf-63e7a33b979f
node-a8-182.grenoble.iot-lab.info,172.20.64.37,243cdca7-033e-4568-8cfe-334f2c57eef2
node-a8-183.grenoble.iot-lab.info,172.20.64.38,d163dc88-aa05-4d41-9be4-de918ddade6c
node-a8-184.grenoble.iot-lab.info,172.20.64.39,50febb1f-9e68-45aa-9dee-1255ea314a58
node-a8-185.grenoble.iot-lab.info,172.20.64.40,abbb283e-332a-4f70-a1a4-6ac6387719ec
node-a8-187.grenoble.iot-lab.info,172.20.64.41,cc4df3f8-fadb-4b79-8a23-7463ed56cfda
node-a8-188.grenoble.iot-lab.info,172.20.64.42,e48459e8-edc7-48c9-a740-1a1beb43f5d1
node-a8-189.grenoble.iot-lab.info,172.20.64.43,4f548d86-d30a-4de9-8beb-8d0e96a11947
node-a8-190.grenoble.iot-lab.info,172.20.64.44,c03a68bc-ea64-4943-b432-8f2ee7521aec
node-a8-191.grenoble.iot-lab.info,172.20.64.45,6a4ef742-acd5-4c28-bcfc-11c550b2b91c
node-a8-192.grenoble.iot-lab.info,172.20.64.46,a318fab8-ad3d-49de-8d81-24c570590cc3
node-a8-193.grenoble.iot-lab.info,172.20.64.47,ae2b23e0-e768-4fa7-bec1-26ed772d3e9a
node-a8-194.grenoble.iot-lab.info,172.20.64.48,04cfc5bc-0661-492a-85d3-a775520fe6f1
node-a8-195.grenoble.iot-lab.info,172.20.64.49,c2799076-3b50-4580-9957-c24774a3c321
node-a8-197.grenoble.iot-lab.info,172.20.64.50,088636a5-91bf-4d06-9d94-9a26b22a4bd8
node-a8-198.grenoble.iot-lab.info,172.20.64.51,b12674b0-1749-4c9e-aaca-fd5194aa1978
suno-14.sophia.grid5000.fr,172.16.130.14,be4b4bfc-1b2e-4d61-a093-873e2bf4c9c1
suno-15.sophia.grid5000.fr,172.16.130.15,3b874a95-ee1e-42c6-9570-b347ac86e683
suno-2.sophia.grid5000.fr,172.16.130.2,6ddbbf18-3233-4bf3-add3-50d05ecafdd9
suno-25.sophia.grid5000.fr,172.16.130.25,64311692-9334-4898-a7e0-6924bccb3f3d
suno-27.sophia.grid5000.fr,172.16.130.27,6ea7f56e-8914-4941-af1d-6f2b9fc19415
suno-28.sophia.grid5000.fr,172.16.130.28,209f8be6-f803-47fe-a2e8-5cacaab4a3e8
suno-30.sophia.grid5000.fr,172.16.130.30,939d8dd5-8199-4e53-83f5-15e54b00b11d
suno-32.sophia.grid5000.fr,172.16.130.32,a05f94f0-4d77-4828-9c30-982096d12a5a
suno-33.sophia.grid5000.fr,172.16.130.33,e064ddec-746e-4ba3-b66c-21d91248ef85
suno-34.sophia.grid5000.fr,172.16.130.34,24e953f4-978a-4883-ae06-35f9479edae0
suno-36.sophia.grid5000.fr,172.16.130.36,0971bfd4-c0d7-4ff9-991f-5ce2ea1f5bc4
suno-37.sophia.grid5000.fr,172.16.130.37,4a049def-5c55-4c6f-8e05-a9841f580c0f
suno-43.sophia.grid5000.fr,172.16.130.43,31a77745-054f-4d9d-bf0a-9af5f03f9274
suno-44.sophia.grid5000.fr,172.16.130.44,fbc115a8-5085-4f00-b51f-c6bc7616829c
suno-8.sophia.grid5000.fr,172.16.130.8,22f5b57a-4adb-4611-b44e-ec0c384e9c68
