date,trigger,state
2019-07-19 03:35:33,9f1a0532-40e9-451e-b8e4-e0a62909f0e7,A
2019-07-19 03:38:59,9f1a0532-40e9-451e-b8e4-e0a62909f0e7,S
2019-07-19 03:44:04,9f1a0532-40e9-451e-b8e4-e0a62909f0e7,A
2019-07-19 03:45:55,9f1a0532-40e9-451e-b8e4-e0a62909f0e7,S
2019-07-19 03:56:26,9f1a0532-40e9-451e-b8e4-e0a62909f0e7,A
2019-07-19 03:57:01,9f1a0532-40e9-451e-b8e4-e0a62909f0e7,S
2019-07-19 04:05:25,9f1a0532-40e9-451e-b8e4-e0a62909f0e7,A
2019-07-19 04:07:46,9f1a0532-40e9-451e-b8e4-e0a62909f0e7,S
2019-07-19 04:16:09,9f1a0532-40e9-451e-b8e4-e0a62909f0e7,A
2019-07-19 04:34:35,9f1a0532-40e9-451e-b8e4-e0a62909f0e7,S
2019-07-19 04:35:51,9f1a0532-40e9-451e-b8e4-e0a62909f0e7,A
2019-07-19 04:36:02,9f1a0532-40e9-451e-b8e4-e0a62909f0e7,S
2019-07-19 04:39:15,9f1a0532-40e9-451e-b8e4-e0a62909f0e7,A
2019-07-19 04:48:05,9f1a0532-40e9-451e-b8e4-e0a62909f0e7,S
2019-07-19 05:03:10,9f1a0532-40e9-451e-b8e4-e0a62909f0e7,A
2019-07-19 05:03:28,9f1a0532-40e9-451e-b8e4-e0a62909f0e7,S
2019-07-19 05:13:59,9f1a0532-40e9-451e-b8e4-e0a62909f0e7,A
2019-07-19 03:55:04,946d7eff-7e14-48b3-a6c8-65e8a8069e97,S
2019-07-19 03:57:22,946d7eff-7e14-48b3-a6c8-65e8a8069e97,A
2019-07-19 04:02:34,946d7eff-7e14-48b3-a6c8-65e8a8069e97,S
2019-07-19 04:10:40,946d7eff-7e14-48b3-a6c8-65e8a8069e97,A
2019-07-19 04:18:03,946d7eff-7e14-48b3-a6c8-65e8a8069e97,S
2019-07-19 04:18:26,946d7eff-7e14-48b3-a6c8-65e8a8069e97,A
2019-07-19 04:23:59,946d7eff-7e14-48b3-a6c8-65e8a8069e97,S
2019-07-19 04:35:02,946d7eff-7e14-48b3-a6c8-65e8a8069e97,A
2019-07-19 04:39:26,946d7eff-7e14-48b3-a6c8-65e8a8069e97,S
2019-07-19 04:42:14,946d7eff-7e14-48b3-a6c8-65e8a8069e97,A
2019-07-19 04:48:56,946d7eff-7e14-48b3-a6c8-65e8a8069e97,S
2019-07-19 04:49:46,946d7eff-7e14-48b3-a6c8-65e8a8069e97,A
2019-07-19 04:52:32,946d7eff-7e14-48b3-a6c8-65e8a8069e97,S
2019-07-19 04:56:22,946d7eff-7e14-48b3-a6c8-65e8a8069e97,A
2019-07-19 05:02:50,946d7eff-7e14-48b3-a6c8-65e8a8069e97,S
2019-07-19 05:05:55,946d7eff-7e14-48b3-a6c8-65e8a8069e97,A
2019-07-19 05:18:15,946d7eff-7e14-48b3-a6c8-65e8a8069e97,S
2019-07-19 05:23:02,946d7eff-7e14-48b3-a6c8-65e8a8069e97,A
2019-07-19 05:25:06,946d7eff-7e14-48b3-a6c8-65e8a8069e97,S
2019-07-19 03:45:28,8b7fff6e-531d-4ed3-b207-6a0b1ad5eb71,A
2019-07-19 03:51:31,8b7fff6e-531d-4ed3-b207-6a0b1ad5eb71,S
2019-07-19 03:54:01,8b7fff6e-531d-4ed3-b207-6a0b1ad5eb71,A
2019-07-19 03:54:46,8b7fff6e-531d-4ed3-b207-6a0b1ad5eb71,S
2019-07-19 03:54:49,8b7fff6e-531d-4ed3-b207-6a0b1ad5eb71,A
2019-07-19 03:57:39,8b7fff6e-531d-4ed3-b207-6a0b1ad5eb71,S
2019-07-19 04:05:55,8b7fff6e-531d-4ed3-b207-6a0b1ad5eb71,A
2019-07-19 04:08:41,8b7fff6e-531d-4ed3-b207-6a0b1ad5eb71,S
2019-07-19 04:08:43,8b7fff6e-531d-4ed3-b207-6a0b1ad5eb71,A
2019-07-19 04:14:49,8b7fff6e-531d-4ed3-b207-6a0b1ad5eb71,S
2019-07-19 04:19:12,8b7fff6e-531d-4ed3-b207-6a0b1ad5eb71,A
2019-07-19 04:26:33,8b7fff6e-531d-4ed3-b207-6a0b1ad5eb71,S
2019-07-19 04:27:42,8b7fff6e-531d-4ed3-b207-6a0b1ad5eb71,A
2019-07-19 04:31:39,8b7fff6e-531d-4ed3-b207-6a0b1ad5eb71,S
2019-07-19 04:32:26,8b7fff6e-531d-4ed3-b207-6a0b1ad5eb71,A
2019-07-19 04:32:43,8b7fff6e-531d-4ed3-b207-6a0b1ad5eb71,S
2019-07-19 04:43:17,8b7fff6e-531d-4ed3-b207-6a0b1ad5eb71,A
2019-07-19 04:44:39,8b7fff6e-531d-4ed3-b207-6a0b1ad5eb71,S
2019-07-19 04:50:24,8b7fff6e-531d-4ed3-b207-6a0b1ad5eb71,A
2019-07-19 04:54:50,8b7fff6e-531d-4ed3-b207-6a0b1ad5eb71,S
2019-07-19 04:56:09,8b7fff6e-531d-4ed3-b207-6a0b1ad5eb71,A
2019-07-19 04:58:57,8b7fff6e-531d-4ed3-b207-6a0b1ad5eb71,S
2019-07-19 05:00:21,8b7fff6e-531d-4ed3-b207-6a0b1ad5eb71,A
2019-07-19 05:09:11,8b7fff6e-531d-4ed3-b207-6a0b1ad5eb71,S
2019-07-19 05:10:40,8b7fff6e-531d-4ed3-b207-6a0b1ad5eb71,A
2019-07-19 05:14:19,8b7fff6e-531d-4ed3-b207-6a0b1ad5eb71,S
2019-07-19 05:14:36,8b7fff6e-531d-4ed3-b207-6a0b1ad5eb71,A
2019-07-19 05:18:34,8b7fff6e-531d-4ed3-b207-6a0b1ad5eb71,S
2019-07-19 03:35:13,47e1ad7d-ea1f-4148-b590-9bcdc6b4b2dd,S
2019-07-19 03:47:08,47e1ad7d-ea1f-4148-b590-9bcdc6b4b2dd,A
2019-07-19 03:47:27,47e1ad7d-ea1f-4148-b590-9bcdc6b4b2dd,S
2019-07-19 04:02:51,47e1ad7d-ea1f-4148-b590-9bcdc6b4b2dd,A
2019-07-19 04:05:44,47e1ad7d-ea1f-4148-b590-9bcdc6b4b2dd,S
2019-07-19 04:07:43,47e1ad7d-ea1f-4148-b590-9bcdc6b4b2dd,A
2019-07-19 04:15:50,47e1ad7d-ea1f-4148-b590-9bcdc6b4b2dd,S
2019-07-19 04:16:46,47e1ad7d-ea1f-4148-b590-9bcdc6b4b2dd,A
2019-07-19 04:18:59,47e1ad7d-ea1f-4148-b590-9bcdc6b4b2dd,S
2019-07-19 04:33:23,47e1ad7d-ea1f-4148-b590-9bcdc6b4b2dd,A
2019-07-19 04:38:42,47e1ad7d-ea1f-4148-b590-9bcdc6b4b2dd,S
2019-07-19 04:40:15,47e1ad7d-ea1f-4148-b590-9bcdc6b4b2dd,A
2019-07-19 04:41:03,47e1ad7d-ea1f-4148-b590-9bcdc6b4b2dd,S
2019-07-19 04:43:00,47e1ad7d-ea1f-4148-b590-9bcdc6b4b2dd,A
2019-07-19 04:46:17,47e1ad7d-ea1f-4148-b590-9bcdc6b4b2dd,S
2019-07-19 04:46:24,47e1ad7d-ea1f-4148-b590-9bcdc6b4b2dd,A
2019-07-19 04:58:43,47e1ad7d-ea1f-4148-b590-9bcdc6b4b2dd,S
2019-07-19 05:00:03,47e1ad7d-ea1f-4148-b590-9bcdc6b4b2dd,A
2019-07-19 05:04:56,47e1ad7d-ea1f-4148-b590-9bcdc6b4b2dd,S
2019-07-19 05:08:21,47e1ad7d-ea1f-4148-b590-9bcdc6b4b2dd,A
2019-07-19 05:09:35,47e1ad7d-ea1f-4148-b590-9bcdc6b4b2dd,S
2019-07-19 05:10:17,47e1ad7d-ea1f-4148-b590-9bcdc6b4b2dd,A
2019-07-19 05:22:58,47e1ad7d-ea1f-4148-b590-9bcdc6b4b2dd,S
2019-07-19 05:24:26,47e1ad7d-ea1f-4148-b590-9bcdc6b4b2dd,A
2019-07-19 03:30:50,02820b4c-cd61-4844-aec4-1fc5efec4a65,S
2019-07-19 03:35:48,02820b4c-cd61-4844-aec4-1fc5efec4a65,A
2019-07-19 03:36:10,02820b4c-cd61-4844-aec4-1fc5efec4a65,S
2019-07-19 03:40:54,02820b4c-cd61-4844-aec4-1fc5efec4a65,A
2019-07-19 03:45:51,02820b4c-cd61-4844-aec4-1fc5efec4a65,S
2019-07-19 03:47:53,02820b4c-cd61-4844-aec4-1fc5efec4a65,A
2019-07-19 03:57:58,02820b4c-cd61-4844-aec4-1fc5efec4a65,S
2019-07-19 04:00:39,02820b4c-cd61-4844-aec4-1fc5efec4a65,A
2019-07-19 04:01:34,02820b4c-cd61-4844-aec4-1fc5efec4a65,S
2019-07-19 04:09:36,02820b4c-cd61-4844-aec4-1fc5efec4a65,A
2019-07-19 04:18:24,02820b4c-cd61-4844-aec4-1fc5efec4a65,S
2019-07-19 04:20:34,02820b4c-cd61-4844-aec4-1fc5efec4a65,A
2019-07-19 04:20:44,02820b4c-cd61-4844-aec4-1fc5efec4a65,S
2019-07-19 04:40:00,02820b4c-cd61-4844-aec4-1fc5efec4a65,A
2019-07-19 04:42:14,02820b4c-cd61-4844-aec4-1fc5efec4a65,S
2019-07-19 04:59:48,02820b4c-cd61-4844-aec4-1fc5efec4a65,A
2019-07-19 05:09:59,02820b4c-cd61-4844-aec4-1fc5efec4a65,S
2019-07-19 03:55:53,fe5e1061-c3c9-455d-a130-dc3b2ee6f2a8,A
2019-07-19 03:59:22,fe5e1061-c3c9-455d-a130-dc3b2ee6f2a8,S
2019-07-19 04:01:38,fe5e1061-c3c9-455d-a130-dc3b2ee6f2a8,A
2019-07-19 04:03:39,fe5e1061-c3c9-455d-a130-dc3b2ee6f2a8,S
2019-07-19 04:04:14,fe5e1061-c3c9-455d-a130-dc3b2ee6f2a8,A
2019-07-19 04:06:49,fe5e1061-c3c9-455d-a130-dc3b2ee6f2a8,S
2019-07-19 04:13:41,fe5e1061-c3c9-455d-a130-dc3b2ee6f2a8,A
2019-07-19 04:15:09,fe5e1061-c3c9-455d-a130-dc3b2ee6f2a8,S
2019-07-19 04:25:24,fe5e1061-c3c9-455d-a130-dc3b2ee6f2a8,A
2019-07-19 05:04:29,fe5e1061-c3c9-455d-a130-dc3b2ee6f2a8,S
2019-07-19 05:14:24,fe5e1061-c3c9-455d-a130-dc3b2ee6f2a8,A
2019-07-19 05:14:27,fe5e1061-c3c9-455d-a130-dc3b2ee6f2a8,S
2019-07-19 05:15:09,fe5e1061-c3c9-455d-a130-dc3b2ee6f2a8,A
2019-07-19 05:18:13,fe5e1061-c3c9-455d-a130-dc3b2ee6f2a8,S
2019-07-19 05:19:35,fe5e1061-c3c9-455d-a130-dc3b2ee6f2a8,A
2019-07-19 05:20:56,fe5e1061-c3c9-455d-a130-dc3b2ee6f2a8,S
2019-07-19 05:25:05,fe5e1061-c3c9-455d-a130-dc3b2ee6f2a8,A
2019-07-19 03:22:56,72f452b7-2fb6-420b-8426-2e8a1859afb7,S
2019-07-19 03:26:59,72f452b7-2fb6-420b-8426-2e8a1859afb7,A
2019-07-19 03:27:48,72f452b7-2fb6-420b-8426-2e8a1859afb7,S
2019-07-19 03:33:02,72f452b7-2fb6-420b-8426-2e8a1859afb7,A
2019-07-19 03:37:55,72f452b7-2fb6-420b-8426-2e8a1859afb7,S
2019-07-19 03:42:53,72f452b7-2fb6-420b-8426-2e8a1859afb7,A
2019-07-19 03:45:28,72f452b7-2fb6-420b-8426-2e8a1859afb7,S
2019-07-19 03:46:14,72f452b7-2fb6-420b-8426-2e8a1859afb7,A
2019-07-19 03:56:50,72f452b7-2fb6-420b-8426-2e8a1859afb7,S
2019-07-19 03:57:14,72f452b7-2fb6-420b-8426-2e8a1859afb7,A
2019-07-19 04:04:52,72f452b7-2fb6-420b-8426-2e8a1859afb7,S
2019-07-19 04:10:12,72f452b7-2fb6-420b-8426-2e8a1859afb7,A
2019-07-19 04:10:38,72f452b7-2fb6-420b-8426-2e8a1859afb7,S
2019-07-19 04:17:04,72f452b7-2fb6-420b-8426-2e8a1859afb7,A
2019-07-19 04:19:08,72f452b7-2fb6-420b-8426-2e8a1859afb7,S
2019-07-19 04:19:21,72f452b7-2fb6-420b-8426-2e8a1859afb7,A
2019-07-19 04:24:24,72f452b7-2fb6-420b-8426-2e8a1859afb7,S
2019-07-19 04:25:05,72f452b7-2fb6-420b-8426-2e8a1859afb7,A
2019-07-19 04:42:12,72f452b7-2fb6-420b-8426-2e8a1859afb7,S
2019-07-19 04:44:28,72f452b7-2fb6-420b-8426-2e8a1859afb7,A
2019-07-19 04:44:48,72f452b7-2fb6-420b-8426-2e8a1859afb7,S
2019-07-19 04:48:14,72f452b7-2fb6-420b-8426-2e8a1859afb7,A
2019-07-19 04:48:25,72f452b7-2fb6-420b-8426-2e8a1859afb7,S
2019-07-19 04:55:26,72f452b7-2fb6-420b-8426-2e8a1859afb7,A
2019-07-19 05:01:14,72f452b7-2fb6-420b-8426-2e8a1859afb7,S
2019-07-19 05:21:57,72f452b7-2fb6-420b-8426-2e8a1859afb7,A
2019-07-19 05:23:13,72f452b7-2fb6-420b-8426-2e8a1859afb7,S
2019-07-19 03:40:27,f6074629-ff53-4f99-a631-892c2d952209,A
2019-07-19 03:44:09,f6074629-ff53-4f99-a631-892c2d952209,S
2019-07-19 03:47:29,f6074629-ff53-4f99-a631-892c2d952209,A
2019-07-19 03:49:08,f6074629-ff53-4f99-a631-892c2d952209,S
2019-07-19 04:04:38,f6074629-ff53-4f99-a631-892c2d952209,A
2019-07-19 04:06:23,f6074629-ff53-4f99-a631-892c2d952209,S
2019-07-19 04:06:45,f6074629-ff53-4f99-a631-892c2d952209,A
2019-07-19 04:28:33,f6074629-ff53-4f99-a631-892c2d952209,S
2019-07-19 04:35:44,f6074629-ff53-4f99-a631-892c2d952209,A
2019-07-19 04:40:05,f6074629-ff53-4f99-a631-892c2d952209,S
2019-07-19 04:40:45,f6074629-ff53-4f99-a631-892c2d952209,A
2019-07-19 04:44:59,f6074629-ff53-4f99-a631-892c2d952209,S
2019-07-19 04:46:50,f6074629-ff53-4f99-a631-892c2d952209,A
2019-07-19 04:49:32,f6074629-ff53-4f99-a631-892c2d952209,S
2019-07-19 04:58:47,f6074629-ff53-4f99-a631-892c2d952209,A
2019-07-19 05:06:23,f6074629-ff53-4f99-a631-892c2d952209,S
2019-07-19 05:11:19,f6074629-ff53-4f99-a631-892c2d952209,A
2019-07-19 05:17:57,f6074629-ff53-4f99-a631-892c2d952209,S
2019-07-19 04:00:36,f5e3a57e-48ca-4ec1-95d1-0178ec4f7a55,A
2019-07-19 04:07:50,f5e3a57e-48ca-4ec1-95d1-0178ec4f7a55,S
2019-07-19 04:09:45,f5e3a57e-48ca-4ec1-95d1-0178ec4f7a55,A
2019-07-19 04:14:35,f5e3a57e-48ca-4ec1-95d1-0178ec4f7a55,S
2019-07-19 04:21:50,f5e3a57e-48ca-4ec1-95d1-0178ec4f7a55,A
2019-07-19 04:28:46,f5e3a57e-48ca-4ec1-95d1-0178ec4f7a55,S
2019-07-19 04:29:20,f5e3a57e-48ca-4ec1-95d1-0178ec4f7a55,A
2019-07-19 04:29:45,f5e3a57e-48ca-4ec1-95d1-0178ec4f7a55,S
2019-07-19 04:31:08,f5e3a57e-48ca-4ec1-95d1-0178ec4f7a55,A
2019-07-19 04:31:47,f5e3a57e-48ca-4ec1-95d1-0178ec4f7a55,S
2019-07-19 04:34:03,f5e3a57e-48ca-4ec1-95d1-0178ec4f7a55,A
2019-07-19 04:40:25,f5e3a57e-48ca-4ec1-95d1-0178ec4f7a55,S
2019-07-19 04:41:48,f5e3a57e-48ca-4ec1-95d1-0178ec4f7a55,A
2019-07-19 04:44:29,f5e3a57e-48ca-4ec1-95d1-0178ec4f7a55,S
2019-07-19 04:45:05,f5e3a57e-48ca-4ec1-95d1-0178ec4f7a55,A
2019-07-19 04:46:24,f5e3a57e-48ca-4ec1-95d1-0178ec4f7a55,S
2019-07-19 05:05:45,f5e3a57e-48ca-4ec1-95d1-0178ec4f7a55,A
2019-07-19 05:23:46,f5e3a57e-48ca-4ec1-95d1-0178ec4f7a55,S
2019-07-19 05:24:49,f5e3a57e-48ca-4ec1-95d1-0178ec4f7a55,A
2019-07-19 04:01:00,5f21335e-cdcf-458e-99ce-b73ea712b1a8,A
2019-07-19 04:04:29,5f21335e-cdcf-458e-99ce-b73ea712b1a8,S
2019-07-19 04:07:32,5f21335e-cdcf-458e-99ce-b73ea712b1a8,A
2019-07-19 04:16:29,5f21335e-cdcf-458e-99ce-b73ea712b1a8,S
2019-07-19 04:31:26,5f21335e-cdcf-458e-99ce-b73ea712b1a8,A
2019-07-19 04:32:28,5f21335e-cdcf-458e-99ce-b73ea712b1a8,S
2019-07-19 04:32:57,5f21335e-cdcf-458e-99ce-b73ea712b1a8,A
2019-07-19 04:33:37,5f21335e-cdcf-458e-99ce-b73ea712b1a8,S
2019-07-19 04:40:40,5f21335e-cdcf-458e-99ce-b73ea712b1a8,A
2019-07-19 04:45:51,5f21335e-cdcf-458e-99ce-b73ea712b1a8,S
2019-07-19 05:04:42,5f21335e-cdcf-458e-99ce-b73ea712b1a8,A
2019-07-19 05:06:49,5f21335e-cdcf-458e-99ce-b73ea712b1a8,S
2019-07-19 05:13:57,5f21335e-cdcf-458e-99ce-b73ea712b1a8,A
2019-07-19 05:17:26,5f21335e-cdcf-458e-99ce-b73ea712b1a8,S
2019-07-19 03:53:03,3dfcbe53-85a2-4cd4-ac73-4e39cb6a9fec,S
2019-07-19 03:53:45,3dfcbe53-85a2-4cd4-ac73-4e39cb6a9fec,A
2019-07-19 04:09:26,3dfcbe53-85a2-4cd4-ac73-4e39cb6a9fec,S
2019-07-19 04:16:40,3dfcbe53-85a2-4cd4-ac73-4e39cb6a9fec,A
2019-07-19 04:17:02,3dfcbe53-85a2-4cd4-ac73-4e39cb6a9fec,S
2019-07-19 04:17:31,3dfcbe53-85a2-4cd4-ac73-4e39cb6a9fec,A
2019-07-19 04:18:38,3dfcbe53-85a2-4cd4-ac73-4e39cb6a9fec,S
2019-07-19 04:26:26,3dfcbe53-85a2-4cd4-ac73-4e39cb6a9fec,A
2019-07-19 04:28:55,3dfcbe53-85a2-4cd4-ac73-4e39cb6a9fec,S
2019-07-19 04:29:54,3dfcbe53-85a2-4cd4-ac73-4e39cb6a9fec,A
2019-07-19 04:34:52,3dfcbe53-85a2-4cd4-ac73-4e39cb6a9fec,S
2019-07-19 04:38:19,3dfcbe53-85a2-4cd4-ac73-4e39cb6a9fec,A
2019-07-19 04:46:01,3dfcbe53-85a2-4cd4-ac73-4e39cb6a9fec,S
2019-07-19 04:49:33,3dfcbe53-85a2-4cd4-ac73-4e39cb6a9fec,A
2019-07-19 04:50:37,3dfcbe53-85a2-4cd4-ac73-4e39cb6a9fec,S
2019-07-19 04:51:55,3dfcbe53-85a2-4cd4-ac73-4e39cb6a9fec,A
2019-07-19 05:01:04,3dfcbe53-85a2-4cd4-ac73-4e39cb6a9fec,S
2019-07-19 05:02:11,3dfcbe53-85a2-4cd4-ac73-4e39cb6a9fec,A
2019-07-19 05:04:49,3dfcbe53-85a2-4cd4-ac73-4e39cb6a9fec,S
2019-07-19 05:06:55,3dfcbe53-85a2-4cd4-ac73-4e39cb6a9fec,A
2019-07-19 05:15:28,3dfcbe53-85a2-4cd4-ac73-4e39cb6a9fec,S
2019-07-19 05:17:41,3dfcbe53-85a2-4cd4-ac73-4e39cb6a9fec,A
2019-07-19 05:22:39,3dfcbe53-85a2-4cd4-ac73-4e39cb6a9fec,S
2019-07-19 05:26:06,3dfcbe53-85a2-4cd4-ac73-4e39cb6a9fec,A
2019-07-19 05:26:41,3dfcbe53-85a2-4cd4-ac73-4e39cb6a9fec,S
2019-07-19 03:49:22,453d6229-a215-4d62-a2c4-e9c4e15ef26f,A
2019-07-19 04:08:15,453d6229-a215-4d62-a2c4-e9c4e15ef26f,S
2019-07-19 04:08:36,453d6229-a215-4d62-a2c4-e9c4e15ef26f,A
2019-07-19 04:11:20,453d6229-a215-4d62-a2c4-e9c4e15ef26f,S
2019-07-19 04:15:20,453d6229-a215-4d62-a2c4-e9c4e15ef26f,A
2019-07-19 04:15:50,453d6229-a215-4d62-a2c4-e9c4e15ef26f,S
2019-07-19 04:18:52,453d6229-a215-4d62-a2c4-e9c4e15ef26f,A
2019-07-19 04:20:30,453d6229-a215-4d62-a2c4-e9c4e15ef26f,S
2019-07-19 04:34:59,453d6229-a215-4d62-a2c4-e9c4e15ef26f,A
2019-07-19 04:36:36,453d6229-a215-4d62-a2c4-e9c4e15ef26f,S
2019-07-19 04:36:42,453d6229-a215-4d62-a2c4-e9c4e15ef26f,A
2019-07-19 04:39:02,453d6229-a215-4d62-a2c4-e9c4e15ef26f,S
2019-07-19 04:39:09,453d6229-a215-4d62-a2c4-e9c4e15ef26f,A
2019-07-19 04:41:12,453d6229-a215-4d62-a2c4-e9c4e15ef26f,S
2019-07-19 04:45:12,453d6229-a215-4d62-a2c4-e9c4e15ef26f,A
2019-07-19 04:55:56,453d6229-a215-4d62-a2c4-e9c4e15ef26f,S
2019-07-19 05:01:39,453d6229-a215-4d62-a2c4-e9c4e15ef26f,A
2019-07-19 05:03:54,453d6229-a215-4d62-a2c4-e9c4e15ef26f,S
2019-07-19 05:07:19,453d6229-a215-4d62-a2c4-e9c4e15ef26f,A
2019-07-19 05:10:52,453d6229-a215-4d62-a2c4-e9c4e15ef26f,S
2019-07-19 03:56:16,872a6e68-09fc-41f6-b51a-4a5e27e8dc3f,A
2019-07-19 03:56:45,872a6e68-09fc-41f6-b51a-4a5e27e8dc3f,S
2019-07-19 04:05:15,872a6e68-09fc-41f6-b51a-4a5e27e8dc3f,A
2019-07-19 04:06:34,872a6e68-09fc-41f6-b51a-4a5e27e8dc3f,S
2019-07-19 04:15:11,872a6e68-09fc-41f6-b51a-4a5e27e8dc3f,S
2019-07-19 04:16:26,872a6e68-09fc-41f6-b51a-4a5e27e8dc3f,A
2019-07-19 04:17:16,872a6e68-09fc-41f6-b51a-4a5e27e8dc3f,S
2019-07-19 04:21:03,872a6e68-09fc-41f6-b51a-4a5e27e8dc3f,A
2019-07-19 04:22:09,872a6e68-09fc-41f6-b51a-4a5e27e8dc3f,S
2019-07-19 04:22:21,872a6e68-09fc-41f6-b51a-4a5e27e8dc3f,A
2019-07-19 04:27:54,872a6e68-09fc-41f6-b51a-4a5e27e8dc3f,S
2019-07-19 04:33:13,872a6e68-09fc-41f6-b51a-4a5e27e8dc3f,A
2019-07-19 04:45:29,872a6e68-09fc-41f6-b51a-4a5e27e8dc3f,S
2019-07-19 04:45:44,872a6e68-09fc-41f6-b51a-4a5e27e8dc3f,A
2019-07-19 04:49:54,872a6e68-09fc-41f6-b51a-4a5e27e8dc3f,S
2019-07-19 04:59:31,872a6e68-09fc-41f6-b51a-4a5e27e8dc3f,A
2019-07-19 05:11:36,872a6e68-09fc-41f6-b51a-4a5e27e8dc3f,S
2019-07-19 05:15:05,872a6e68-09fc-41f6-b51a-4a5e27e8dc3f,A
2019-07-19 05:19:28,872a6e68-09fc-41f6-b51a-4a5e27e8dc3f,S
2019-07-19 05:20:53,872a6e68-09fc-41f6-b51a-4a5e27e8dc3f,A
2019-07-19 05:21:28,872a6e68-09fc-41f6-b51a-4a5e27e8dc3f,S
2019-07-19 04:07:12,3e9f750a-0f45-460d-9d87-efe57336285c,S
2019-07-19 04:09:23,3e9f750a-0f45-460d-9d87-efe57336285c,A
2019-07-19 04:12:09,3e9f750a-0f45-460d-9d87-efe57336285c,S
2019-07-19 04:29:04,3e9f750a-0f45-460d-9d87-efe57336285c,A
2019-07-19 04:30:45,3e9f750a-0f45-460d-9d87-efe57336285c,S
2019-07-19 04:31:51,3e9f750a-0f45-460d-9d87-efe57336285c,A
2019-07-19 04:37:06,3e9f750a-0f45-460d-9d87-efe57336285c,S
2019-07-19 04:45:44,3e9f750a-0f45-460d-9d87-efe57336285c,A
2019-07-19 04:47:42,3e9f750a-0f45-460d-9d87-efe57336285c,S
2019-07-19 04:55:17,3e9f750a-0f45-460d-9d87-efe57336285c,A
2019-07-19 04:56:05,3e9f750a-0f45-460d-9d87-efe57336285c,S
2019-07-19 05:07:52,3e9f750a-0f45-460d-9d87-efe57336285c,A
2019-07-19 05:15:45,3e9f750a-0f45-460d-9d87-efe57336285c,S
2019-07-19 05:17:23,3e9f750a-0f45-460d-9d87-efe57336285c,A
2019-07-19 05:21:12,3e9f750a-0f45-460d-9d87-efe57336285c,S
2019-07-19 05:23:30,3e9f750a-0f45-460d-9d87-efe57336285c,A
2019-07-19 03:49:25,f6b33959-1f50-4636-8e76-010fe4b4e1dc,S
2019-07-19 03:53:42,f6b33959-1f50-4636-8e76-010fe4b4e1dc,A
2019-07-19 04:07:25,f6b33959-1f50-4636-8e76-010fe4b4e1dc,S
2019-07-19 04:07:49,f6b33959-1f50-4636-8e76-010fe4b4e1dc,A
2019-07-19 04:12:25,f6b33959-1f50-4636-8e76-010fe4b4e1dc,S
2019-07-19 04:15:44,f6b33959-1f50-4636-8e76-010fe4b4e1dc,A
2019-07-19 04:18:50,f6b33959-1f50-4636-8e76-010fe4b4e1dc,S
2019-07-19 04:23:23,f6b33959-1f50-4636-8e76-010fe4b4e1dc,A
2019-07-19 04:26:36,f6b33959-1f50-4636-8e76-010fe4b4e1dc,S
2019-07-19 04:30:12,f6b33959-1f50-4636-8e76-010fe4b4e1dc,A
2019-07-19 04:46:03,f6b33959-1f50-4636-8e76-010fe4b4e1dc,S
2019-07-19 04:50:20,f6b33959-1f50-4636-8e76-010fe4b4e1dc,A
2019-07-19 04:50:42,f6b33959-1f50-4636-8e76-010fe4b4e1dc,S
2019-07-19 04:55:48,f6b33959-1f50-4636-8e76-010fe4b4e1dc,A
2019-07-19 05:03:07,f6b33959-1f50-4636-8e76-010fe4b4e1dc,S
2019-07-19 05:16:14,f6b33959-1f50-4636-8e76-010fe4b4e1dc,A
2019-07-19 05:17:15,f6b33959-1f50-4636-8e76-010fe4b4e1dc,S
2019-07-19 03:30:43,18996512-272c-49e2-8bcb-cc804c9278d3,S
2019-07-19 03:34:11,18996512-272c-49e2-8bcb-cc804c9278d3,A
2019-07-19 03:40:13,18996512-272c-49e2-8bcb-cc804c9278d3,S
2019-07-19 03:50:10,18996512-272c-49e2-8bcb-cc804c9278d3,A
2019-07-19 04:10:18,18996512-272c-49e2-8bcb-cc804c9278d3,S
2019-07-19 04:16:14,18996512-272c-49e2-8bcb-cc804c9278d3,A
2019-07-19 04:27:03,18996512-272c-49e2-8bcb-cc804c9278d3,S
2019-07-19 04:32:28,18996512-272c-49e2-8bcb-cc804c9278d3,A
2019-07-19 04:36:45,18996512-272c-49e2-8bcb-cc804c9278d3,S
2019-07-19 04:42:18,18996512-272c-49e2-8bcb-cc804c9278d3,A
2019-07-19 04:42:30,18996512-272c-49e2-8bcb-cc804c9278d3,S
2019-07-19 04:44:14,18996512-272c-49e2-8bcb-cc804c9278d3,A
2019-07-19 04:50:09,18996512-272c-49e2-8bcb-cc804c9278d3,S
2019-07-19 04:51:51,18996512-272c-49e2-8bcb-cc804c9278d3,A
2019-07-19 04:56:22,18996512-272c-49e2-8bcb-cc804c9278d3,S
2019-07-19 04:59:57,18996512-272c-49e2-8bcb-cc804c9278d3,A
2019-07-19 05:05:16,18996512-272c-49e2-8bcb-cc804c9278d3,S
2019-07-19 05:12:59,18996512-272c-49e2-8bcb-cc804c9278d3,A
2019-07-19 03:39:58,33af4aac-b6ee-4725-8c3a-27ae9f4b0bf8,S
2019-07-19 03:47:37,33af4aac-b6ee-4725-8c3a-27ae9f4b0bf8,A
2019-07-19 03:49:32,33af4aac-b6ee-4725-8c3a-27ae9f4b0bf8,S
2019-07-19 04:00:50,33af4aac-b6ee-4725-8c3a-27ae9f4b0bf8,A
2019-07-19 04:02:40,33af4aac-b6ee-4725-8c3a-27ae9f4b0bf8,S
2019-07-19 04:03:21,33af4aac-b6ee-4725-8c3a-27ae9f4b0bf8,A
2019-07-19 04:12:52,33af4aac-b6ee-4725-8c3a-27ae9f4b0bf8,S
2019-07-19 04:16:07,33af4aac-b6ee-4725-8c3a-27ae9f4b0bf8,A
2019-07-19 04:16:43,33af4aac-b6ee-4725-8c3a-27ae9f4b0bf8,S
2019-07-19 04:17:14,33af4aac-b6ee-4725-8c3a-27ae9f4b0bf8,A
2019-07-19 04:22:18,33af4aac-b6ee-4725-8c3a-27ae9f4b0bf8,S
2019-07-19 04:22:43,33af4aac-b6ee-4725-8c3a-27ae9f4b0bf8,A
2019-07-19 04:23:13,33af4aac-b6ee-4725-8c3a-27ae9f4b0bf8,S
2019-07-19 04:23:51,33af4aac-b6ee-4725-8c3a-27ae9f4b0bf8,A
2019-07-19 04:25:43,33af4aac-b6ee-4725-8c3a-27ae9f4b0bf8,S
2019-07-19 04:26:35,33af4aac-b6ee-4725-8c3a-27ae9f4b0bf8,A
2019-07-19 03:31:23,d0b0d313-414b-426c-9926-0d2247c6d2cf,S
2019-07-19 03:47:30,d0b0d313-414b-426c-9926-0d2247c6d2cf,A
2019-07-19 03:48:42,d0b0d313-414b-426c-9926-0d2247c6d2cf,S
2019-07-19 03:53:31,d0b0d313-414b-426c-9926-0d2247c6d2cf,A
2019-07-19 03:54:37,d0b0d313-414b-426c-9926-0d2247c6d2cf,S
2019-07-19 03:57:25,d0b0d313-414b-426c-9926-0d2247c6d2cf,A
2019-07-19 04:02:36,d0b0d313-414b-426c-9926-0d2247c6d2cf,S
2019-07-19 04:04:46,d0b0d313-414b-426c-9926-0d2247c6d2cf,A
2019-07-19 04:08:15,d0b0d313-414b-426c-9926-0d2247c6d2cf,S
2019-07-19 04:13:51,d0b0d313-414b-426c-9926-0d2247c6d2cf,A
2019-07-19 03:24:57,fc442819-950d-4ebe-8546-998410534494,A
2019-07-19 03:28:24,fc442819-950d-4ebe-8546-998410534494,S
2019-07-19 03:36:58,fc442819-950d-4ebe-8546-998410534494,A
2019-07-19 03:40:01,fc442819-950d-4ebe-8546-998410534494,S
2019-07-19 03:40:18,fc442819-950d-4ebe-8546-998410534494,A
2019-07-19 03:42:46,fc442819-950d-4ebe-8546-998410534494,S
2019-07-19 03:48:06,fc442819-950d-4ebe-8546-998410534494,A
2019-07-19 03:52:01,fc442819-950d-4ebe-8546-998410534494,S
2019-07-19 03:54:46,fc442819-950d-4ebe-8546-998410534494,A
2019-07-19 04:05:34,fc442819-950d-4ebe-8546-998410534494,S
2019-07-19 04:11:11,fc442819-950d-4ebe-8546-998410534494,A
2019-07-19 04:33:45,fc442819-950d-4ebe-8546-998410534494,S
2019-07-19 04:58:06,fc442819-950d-4ebe-8546-998410534494,A
2019-07-19 05:04:41,fc442819-950d-4ebe-8546-998410534494,S
2019-07-19 05:08:07,fc442819-950d-4ebe-8546-998410534494,A
2019-07-19 05:11:01,fc442819-950d-4ebe-8546-998410534494,S
2019-07-19 05:15:46,fc442819-950d-4ebe-8546-998410534494,A
2019-07-19 04:02:32,85e14fa9-e023-44a0-a81f-8f19b7b35c59,A
2019-07-19 04:11:27,85e14fa9-e023-44a0-a81f-8f19b7b35c59,S
2019-07-19 04:22:11,85e14fa9-e023-44a0-a81f-8f19b7b35c59,A
2019-07-19 04:27:43,85e14fa9-e023-44a0-a81f-8f19b7b35c59,S
2019-07-19 04:30:21,85e14fa9-e023-44a0-a81f-8f19b7b35c59,A
2019-07-19 04:31:05,85e14fa9-e023-44a0-a81f-8f19b7b35c59,S
2019-07-19 04:35:45,85e14fa9-e023-44a0-a81f-8f19b7b35c59,A
2019-07-19 04:37:35,85e14fa9-e023-44a0-a81f-8f19b7b35c59,S
2019-07-19 04:50:50,85e14fa9-e023-44a0-a81f-8f19b7b35c59,A
2019-07-19 04:52:43,85e14fa9-e023-44a0-a81f-8f19b7b35c59,S
2019-07-19 04:58:55,85e14fa9-e023-44a0-a81f-8f19b7b35c59,A
2019-07-19 05:01:43,85e14fa9-e023-44a0-a81f-8f19b7b35c59,S
2019-07-19 05:03:31,85e14fa9-e023-44a0-a81f-8f19b7b35c59,A
2019-07-19 05:03:54,85e14fa9-e023-44a0-a81f-8f19b7b35c59,S
2019-07-19 05:04:33,85e14fa9-e023-44a0-a81f-8f19b7b35c59,A
2019-07-19 05:17:04,85e14fa9-e023-44a0-a81f-8f19b7b35c59,S
2019-07-19 05:17:05,85e14fa9-e023-44a0-a81f-8f19b7b35c59,A
2019-07-19 05:17:41,85e14fa9-e023-44a0-a81f-8f19b7b35c59,S
2019-07-19 05:18:10,85e14fa9-e023-44a0-a81f-8f19b7b35c59,A
2019-07-19 03:20:08,ffd17b93-ca0d-4103-8820-af7d01c39e3a,S
2019-07-19 03:21:14,ffd17b93-ca0d-4103-8820-af7d01c39e3a,A
2019-07-19 03:22:28,ffd17b93-ca0d-4103-8820-af7d01c39e3a,S
2019-07-19 03:26:07,ffd17b93-ca0d-4103-8820-af7d01c39e3a,A
2019-07-19 03:28:51,ffd17b93-ca0d-4103-8820-af7d01c39e3a,S
2019-07-19 03:34:01,ffd17b93-ca0d-4103-8820-af7d01c39e3a,A
2019-07-19 03:35:19,ffd17b93-ca0d-4103-8820-af7d01c39e3a,S
2019-07-19 03:41:18,ffd17b93-ca0d-4103-8820-af7d01c39e3a,A
2019-07-19 03:52:35,ffd17b93-ca0d-4103-8820-af7d01c39e3a,S
2019-07-19 03:56:15,ffd17b93-ca0d-4103-8820-af7d01c39e3a,A
2019-07-19 04:00:47,ffd17b93-ca0d-4103-8820-af7d01c39e3a,S
2019-07-19 04:12:14,ffd17b93-ca0d-4103-8820-af7d01c39e3a,A
2019-07-19 04:25:41,ffd17b93-ca0d-4103-8820-af7d01c39e3a,S
2019-07-19 04:26:39,ffd17b93-ca0d-4103-8820-af7d01c39e3a,A
2019-07-19 04:28:12,ffd17b93-ca0d-4103-8820-af7d01c39e3a,S
2019-07-19 04:28:58,ffd17b93-ca0d-4103-8820-af7d01c39e3a,A
2019-07-19 04:30:07,ffd17b93-ca0d-4103-8820-af7d01c39e3a,S
2019-07-19 04:38:43,ffd17b93-ca0d-4103-8820-af7d01c39e3a,A
2019-07-19 04:40:41,ffd17b93-ca0d-4103-8820-af7d01c39e3a,S
2019-07-19 04:42:29,ffd17b93-ca0d-4103-8820-af7d01c39e3a,A
2019-07-19 04:47:17,ffd17b93-ca0d-4103-8820-af7d01c39e3a,S
2019-07-19 04:56:10,ffd17b93-ca0d-4103-8820-af7d01c39e3a,A
2019-07-19 05:07:02,ffd17b93-ca0d-4103-8820-af7d01c39e3a,S
2019-07-19 05:10:59,ffd17b93-ca0d-4103-8820-af7d01c39e3a,A
2019-07-19 05:11:16,ffd17b93-ca0d-4103-8820-af7d01c39e3a,S
2019-07-19 05:16:55,ffd17b93-ca0d-4103-8820-af7d01c39e3a,A
2019-07-19 05:23:21,ffd17b93-ca0d-4103-8820-af7d01c39e3a,S
2019-07-19 05:23:21,ffd17b93-ca0d-4103-8820-af7d01c39e3a,A
2019-07-19 05:25:20,ffd17b93-ca0d-4103-8820-af7d01c39e3a,S
2019-07-19 05:27:58,ffd17b93-ca0d-4103-8820-af7d01c39e3a,A
2019-07-19 04:07:11,f1967bba-03dd-4202-9d9c-d83cde82bd4c,S
2019-07-19 04:12:34,f1967bba-03dd-4202-9d9c-d83cde82bd4c,A
2019-07-19 04:13:59,f1967bba-03dd-4202-9d9c-d83cde82bd4c,S
2019-07-19 04:16:09,f1967bba-03dd-4202-9d9c-d83cde82bd4c,A
2019-07-19 04:23:11,f1967bba-03dd-4202-9d9c-d83cde82bd4c,S
2019-07-19 04:29:17,f1967bba-03dd-4202-9d9c-d83cde82bd4c,A
2019-07-19 04:33:12,f1967bba-03dd-4202-9d9c-d83cde82bd4c,S
2019-07-19 04:36:34,f1967bba-03dd-4202-9d9c-d83cde82bd4c,A
2019-07-19 04:38:09,f1967bba-03dd-4202-9d9c-d83cde82bd4c,S
2019-07-19 04:38:19,f1967bba-03dd-4202-9d9c-d83cde82bd4c,A
2019-07-19 04:40:39,f1967bba-03dd-4202-9d9c-d83cde82bd4c,S
2019-07-19 04:44:56,f1967bba-03dd-4202-9d9c-d83cde82bd4c,A
2019-07-19 04:47:50,f1967bba-03dd-4202-9d9c-d83cde82bd4c,S
2019-07-19 04:48:45,f1967bba-03dd-4202-9d9c-d83cde82bd4c,A
2019-07-19 04:59:08,f1967bba-03dd-4202-9d9c-d83cde82bd4c,S
2019-07-19 04:59:12,f1967bba-03dd-4202-9d9c-d83cde82bd4c,A
2019-07-19 04:59:44,f1967bba-03dd-4202-9d9c-d83cde82bd4c,S
2019-07-19 05:00:13,f1967bba-03dd-4202-9d9c-d83cde82bd4c,A
2019-07-19 05:00:26,f1967bba-03dd-4202-9d9c-d83cde82bd4c,S
2019-07-19 05:04:21,f1967bba-03dd-4202-9d9c-d83cde82bd4c,A
2019-07-19 05:12:10,f1967bba-03dd-4202-9d9c-d83cde82bd4c,S
2019-07-19 05:18:09,f1967bba-03dd-4202-9d9c-d83cde82bd4c,A
2019-07-19 05:21:02,f1967bba-03dd-4202-9d9c-d83cde82bd4c,S
2019-07-19 05:23:02,f1967bba-03dd-4202-9d9c-d83cde82bd4c,A
2019-07-19 03:35:50,7033143d-f44e-468b-b5c6-f297ccaf87ba,A
2019-07-19 03:41:53,7033143d-f44e-468b-b5c6-f297ccaf87ba,S
2019-07-19 03:44:41,7033143d-f44e-468b-b5c6-f297ccaf87ba,A
2019-07-19 03:45:20,7033143d-f44e-468b-b5c6-f297ccaf87ba,S
2019-07-19 03:46:05,7033143d-f44e-468b-b5c6-f297ccaf87ba,A
2019-07-19 03:55:20,7033143d-f44e-468b-b5c6-f297ccaf87ba,S
2019-07-19 03:55:46,7033143d-f44e-468b-b5c6-f297ccaf87ba,A
2019-07-19 03:56:36,7033143d-f44e-468b-b5c6-f297ccaf87ba,S
2019-07-19 04:01:30,7033143d-f44e-468b-b5c6-f297ccaf87ba,A
2019-07-19 04:06:29,7033143d-f44e-468b-b5c6-f297ccaf87ba,S
2019-07-19 04:06:41,7033143d-f44e-468b-b5c6-f297ccaf87ba,A
2019-07-19 04:07:25,7033143d-f44e-468b-b5c6-f297ccaf87ba,S
2019-07-19 04:09:46,7033143d-f44e-468b-b5c6-f297ccaf87ba,A
2019-07-19 04:12:46,7033143d-f44e-468b-b5c6-f297ccaf87ba,S
2019-07-19 04:14:02,7033143d-f44e-468b-b5c6-f297ccaf87ba,A
2019-07-19 04:14:06,7033143d-f44e-468b-b5c6-f297ccaf87ba,S
2019-07-19 04:22:12,7033143d-f44e-468b-b5c6-f297ccaf87ba,A
2019-07-19 04:25:29,7033143d-f44e-468b-b5c6-f297ccaf87ba,S
2019-07-19 04:27:21,7033143d-f44e-468b-b5c6-f297ccaf87ba,A
2019-07-19 04:34:44,7033143d-f44e-468b-b5c6-f297ccaf87ba,S
2019-07-19 04:44:58,7033143d-f44e-468b-b5c6-f297ccaf87ba,A
2019-07-19 05:00:25,7033143d-f44e-468b-b5c6-f297ccaf87ba,S
2019-07-19 05:02:48,7033143d-f44e-468b-b5c6-f297ccaf87ba,A
2019-07-19 05:02:59,7033143d-f44e-468b-b5c6-f297ccaf87ba,S
2019-07-19 05:11:05,7033143d-f44e-468b-b5c6-f297ccaf87ba,A
2019-07-19 05:11:28,7033143d-f44e-468b-b5c6-f297ccaf87ba,S
2019-07-19 05:19:47,7033143d-f44e-468b-b5c6-f297ccaf87ba,A
2019-07-19 03:53:12,fb57b2c3-0452-4c8f-b01c-f89798ec61d2,A
2019-07-19 04:04:42,fb57b2c3-0452-4c8f-b01c-f89798ec61d2,S
2019-07-19 04:14:38,fb57b2c3-0452-4c8f-b01c-f89798ec61d2,A
2019-07-19 04:20:06,fb57b2c3-0452-4c8f-b01c-f89798ec61d2,S
2019-07-19 04:20:49,fb57b2c3-0452-4c8f-b01c-f89798ec61d2,A
2019-07-19 04:21:46,fb57b2c3-0452-4c8f-b01c-f89798ec61d2,S
2019-07-19 04:23:43,fb57b2c3-0452-4c8f-b01c-f89798ec61d2,A
2019-07-19 04:25:03,fb57b2c3-0452-4c8f-b01c-f89798ec61d2,S
2019-07-19 04:32:23,fb57b2c3-0452-4c8f-b01c-f89798ec61d2,A
2019-07-19 04:34:16,fb57b2c3-0452-4c8f-b01c-f89798ec61d2,S
2019-07-19 04:36:00,fb57b2c3-0452-4c8f-b01c-f89798ec61d2,A
2019-07-19 04:51:24,fb57b2c3-0452-4c8f-b01c-f89798ec61d2,S
2019-07-19 04:57:18,fb57b2c3-0452-4c8f-b01c-f89798ec61d2,A
2019-07-19 05:01:50,fb57b2c3-0452-4c8f-b01c-f89798ec61d2,S
2019-07-19 05:02:54,fb57b2c3-0452-4c8f-b01c-f89798ec61d2,A
2019-07-19 05:05:14,fb57b2c3-0452-4c8f-b01c-f89798ec61d2,S
2019-07-19 05:08:54,fb57b2c3-0452-4c8f-b01c-f89798ec61d2,A
2019-07-19 05:10:54,fb57b2c3-0452-4c8f-b01c-f89798ec61d2,S
2019-07-19 05:11:02,fb57b2c3-0452-4c8f-b01c-f89798ec61d2,A
2019-07-19 05:20:08,fb57b2c3-0452-4c8f-b01c-f89798ec61d2,S
2019-07-19 05:26:28,fb57b2c3-0452-4c8f-b01c-f89798ec61d2,A
2019-07-19 05:27:33,fb57b2c3-0452-4c8f-b01c-f89798ec61d2,S
2019-07-19 05:28:27,fb57b2c3-0452-4c8f-b01c-f89798ec61d2,A
2019-07-19 03:41:24,a6894654-52e8-4d36-9bb4-7a5bb5d168a2,A
2019-07-19 03:49:13,a6894654-52e8-4d36-9bb4-7a5bb5d168a2,S
2019-07-19 03:50:44,a6894654-52e8-4d36-9bb4-7a5bb5d168a2,A
2019-07-19 03:53:22,a6894654-52e8-4d36-9bb4-7a5bb5d168a2,S
2019-07-19 03:58:03,a6894654-52e8-4d36-9bb4-7a5bb5d168a2,A
2019-07-19 04:12:45,a6894654-52e8-4d36-9bb4-7a5bb5d168a2,S
2019-07-19 04:13:20,a6894654-52e8-4d36-9bb4-7a5bb5d168a2,A
2019-07-19 04:18:50,a6894654-52e8-4d36-9bb4-7a5bb5d168a2,S
2019-07-19 04:26:03,a6894654-52e8-4d36-9bb4-7a5bb5d168a2,A
2019-07-19 04:26:38,a6894654-52e8-4d36-9bb4-7a5bb5d168a2,S
2019-07-19 04:38:28,a6894654-52e8-4d36-9bb4-7a5bb5d168a2,A
2019-07-19 04:41:36,a6894654-52e8-4d36-9bb4-7a5bb5d168a2,S
2019-07-19 04:53:26,a6894654-52e8-4d36-9bb4-7a5bb5d168a2,A
2019-07-19 05:05:23,a6894654-52e8-4d36-9bb4-7a5bb5d168a2,S
2019-07-19 05:10:16,a6894654-52e8-4d36-9bb4-7a5bb5d168a2,A
2019-07-19 05:10:48,a6894654-52e8-4d36-9bb4-7a5bb5d168a2,S
2019-07-19 05:11:06,a6894654-52e8-4d36-9bb4-7a5bb5d168a2,A
2019-07-19 05:11:17,a6894654-52e8-4d36-9bb4-7a5bb5d168a2,S
2019-07-19 05:12:27,a6894654-52e8-4d36-9bb4-7a5bb5d168a2,A
2019-07-19 05:16:09,a6894654-52e8-4d36-9bb4-7a5bb5d168a2,S
2019-07-19 05:25:00,a6894654-52e8-4d36-9bb4-7a5bb5d168a2,A
2019-07-19 04:06:26,68358071-316e-4c72-93d2-2f33b26c730f,A
2019-07-19 04:11:32,68358071-316e-4c72-93d2-2f33b26c730f,S
2019-07-19 04:12:35,68358071-316e-4c72-93d2-2f33b26c730f,A
2019-07-19 04:14:31,68358071-316e-4c72-93d2-2f33b26c730f,S
2019-07-19 04:22:06,68358071-316e-4c72-93d2-2f33b26c730f,A
2019-07-19 04:23:31,68358071-316e-4c72-93d2-2f33b26c730f,S
2019-07-19 04:33:24,68358071-316e-4c72-93d2-2f33b26c730f,A
2019-07-19 04:35:12,68358071-316e-4c72-93d2-2f33b26c730f,S
2019-07-19 04:40:06,68358071-316e-4c72-93d2-2f33b26c730f,A
2019-07-19 04:44:30,68358071-316e-4c72-93d2-2f33b26c730f,S
2019-07-19 04:53:15,68358071-316e-4c72-93d2-2f33b26c730f,A
2019-07-19 04:54:46,68358071-316e-4c72-93d2-2f33b26c730f,S
2019-07-19 04:56:40,68358071-316e-4c72-93d2-2f33b26c730f,A
2019-07-19 04:59:07,68358071-316e-4c72-93d2-2f33b26c730f,S
2019-07-19 05:03:21,68358071-316e-4c72-93d2-2f33b26c730f,A
2019-07-19 05:09:10,68358071-316e-4c72-93d2-2f33b26c730f,S
2019-07-19 05:14:39,68358071-316e-4c72-93d2-2f33b26c730f,A
2019-07-19 05:23:53,68358071-316e-4c72-93d2-2f33b26c730f,S
2019-07-19 03:55:53,c88706fb-7eb9-465f-8479-e2d24157892a,A
2019-07-19 03:56:32,c88706fb-7eb9-465f-8479-e2d24157892a,S
2019-07-19 03:58:08,c88706fb-7eb9-465f-8479-e2d24157892a,A
2019-07-19 04:12:21,c88706fb-7eb9-465f-8479-e2d24157892a,S
2019-07-19 04:14:27,c88706fb-7eb9-465f-8479-e2d24157892a,A
2019-07-19 04:16:55,c88706fb-7eb9-465f-8479-e2d24157892a,S
2019-07-19 04:24:32,c88706fb-7eb9-465f-8479-e2d24157892a,A
2019-07-19 04:28:12,c88706fb-7eb9-465f-8479-e2d24157892a,S
2019-07-19 04:31:34,c88706fb-7eb9-465f-8479-e2d24157892a,A
2019-07-19 04:42:24,c88706fb-7eb9-465f-8479-e2d24157892a,S
2019-07-19 04:42:27,c88706fb-7eb9-465f-8479-e2d24157892a,A
2019-07-19 04:51:58,c88706fb-7eb9-465f-8479-e2d24157892a,S
2019-07-19 05:12:27,c88706fb-7eb9-465f-8479-e2d24157892a,A
2019-07-19 05:19:42,c88706fb-7eb9-465f-8479-e2d24157892a,S
2019-07-19 05:23:41,c88706fb-7eb9-465f-8479-e2d24157892a,A
2019-07-19 03:25:15,91188177-4f27-4990-87db-10959521652b,S
2019-07-19 03:26:47,91188177-4f27-4990-87db-10959521652b,A
2019-07-19 03:27:36,91188177-4f27-4990-87db-10959521652b,S
2019-07-19 03:27:42,91188177-4f27-4990-87db-10959521652b,A
2019-07-19 03:27:48,91188177-4f27-4990-87db-10959521652b,S
2019-07-19 03:28:12,91188177-4f27-4990-87db-10959521652b,A
2019-07-19 03:32:57,91188177-4f27-4990-87db-10959521652b,S
2019-07-19 03:37:05,91188177-4f27-4990-87db-10959521652b,A
2019-07-19 03:38:53,91188177-4f27-4990-87db-10959521652b,S
2019-07-19 03:41:07,91188177-4f27-4990-87db-10959521652b,A
2019-07-19 03:51:45,91188177-4f27-4990-87db-10959521652b,S
2019-07-19 03:53:47,91188177-4f27-4990-87db-10959521652b,A
2019-07-19 04:02:56,91188177-4f27-4990-87db-10959521652b,S
2019-07-19 04:05:32,91188177-4f27-4990-87db-10959521652b,A
2019-07-19 04:14:07,91188177-4f27-4990-87db-10959521652b,S
2019-07-19 04:16:09,91188177-4f27-4990-87db-10959521652b,A
2019-07-19 04:17:58,91188177-4f27-4990-87db-10959521652b,S
2019-07-19 04:21:01,91188177-4f27-4990-87db-10959521652b,A
2019-07-19 04:21:09,91188177-4f27-4990-87db-10959521652b,S
2019-07-19 04:33:13,91188177-4f27-4990-87db-10959521652b,A
2019-07-19 04:36:51,91188177-4f27-4990-87db-10959521652b,S
2019-07-19 04:48:35,91188177-4f27-4990-87db-10959521652b,A
2019-07-19 04:49:20,91188177-4f27-4990-87db-10959521652b,S
2019-07-19 04:56:13,91188177-4f27-4990-87db-10959521652b,A
2019-07-19 04:57:33,91188177-4f27-4990-87db-10959521652b,S
2019-07-19 05:00:00,91188177-4f27-4990-87db-10959521652b,A
2019-07-19 05:08:25,91188177-4f27-4990-87db-10959521652b,S
2019-07-19 05:16:34,91188177-4f27-4990-87db-10959521652b,A
2019-07-19 05:26:44,91188177-4f27-4990-87db-10959521652b,S
2019-07-19 05:28:42,91188177-4f27-4990-87db-10959521652b,A
2019-07-19 03:37:39,8277e144-c997-4e04-a3f7-46d7b6fbb205,A
2019-07-19 03:44:32,8277e144-c997-4e04-a3f7-46d7b6fbb205,S
2019-07-19 03:49:18,8277e144-c997-4e04-a3f7-46d7b6fbb205,A
2019-07-19 03:55:52,8277e144-c997-4e04-a3f7-46d7b6fbb205,S
2019-07-19 04:01:47,8277e144-c997-4e04-a3f7-46d7b6fbb205,A
2019-07-19 04:12:24,8277e144-c997-4e04-a3f7-46d7b6fbb205,S
2019-07-19 04:19:40,8277e144-c997-4e04-a3f7-46d7b6fbb205,A
2019-07-19 04:22:07,8277e144-c997-4e04-a3f7-46d7b6fbb205,S
2019-07-19 04:23:47,8277e144-c997-4e04-a3f7-46d7b6fbb205,A
2019-07-19 04:28:25,8277e144-c997-4e04-a3f7-46d7b6fbb205,S
2019-07-19 04:33:25,8277e144-c997-4e04-a3f7-46d7b6fbb205,A
2019-07-19 04:43:21,8277e144-c997-4e04-a3f7-46d7b6fbb205,S
2019-07-19 04:43:24,8277e144-c997-4e04-a3f7-46d7b6fbb205,A
2019-07-19 04:48:05,8277e144-c997-4e04-a3f7-46d7b6fbb205,S
2019-07-19 04:49:49,8277e144-c997-4e04-a3f7-46d7b6fbb205,A
2019-07-19 04:56:32,8277e144-c997-4e04-a3f7-46d7b6fbb205,S
2019-07-19 04:56:38,8277e144-c997-4e04-a3f7-46d7b6fbb205,A
2019-07-19 04:59:21,8277e144-c997-4e04-a3f7-46d7b6fbb205,S
2019-07-19 05:06:13,8277e144-c997-4e04-a3f7-46d7b6fbb205,A
2019-07-19 05:27:08,8277e144-c997-4e04-a3f7-46d7b6fbb205,S
2019-07-19 03:33:16,62a1e02e-fcfb-4345-ad7f-9d33ddecf36f,S
2019-07-19 03:39:29,62a1e02e-fcfb-4345-ad7f-9d33ddecf36f,A
2019-07-19 03:43:52,62a1e02e-fcfb-4345-ad7f-9d33ddecf36f,S
2019-07-19 03:54:24,62a1e02e-fcfb-4345-ad7f-9d33ddecf36f,A
2019-07-19 03:54:44,62a1e02e-fcfb-4345-ad7f-9d33ddecf36f,S
2019-07-19 04:00:13,62a1e02e-fcfb-4345-ad7f-9d33ddecf36f,A
2019-07-19 04:00:47,62a1e02e-fcfb-4345-ad7f-9d33ddecf36f,S
2019-07-19 04:01:24,62a1e02e-fcfb-4345-ad7f-9d33ddecf36f,A
2019-07-19 04:03:56,62a1e02e-fcfb-4345-ad7f-9d33ddecf36f,S
2019-07-19 04:04:16,62a1e02e-fcfb-4345-ad7f-9d33ddecf36f,A
2019-07-19 04:05:08,62a1e02e-fcfb-4345-ad7f-9d33ddecf36f,S
2019-07-19 04:20:41,62a1e02e-fcfb-4345-ad7f-9d33ddecf36f,A
2019-07-19 04:22:00,62a1e02e-fcfb-4345-ad7f-9d33ddecf36f,S
2019-07-19 04:25:08,62a1e02e-fcfb-4345-ad7f-9d33ddecf36f,A
2019-07-19 04:37:02,62a1e02e-fcfb-4345-ad7f-9d33ddecf36f,S
2019-07-19 04:38:28,62a1e02e-fcfb-4345-ad7f-9d33ddecf36f,A
2019-07-19 04:39:37,62a1e02e-fcfb-4345-ad7f-9d33ddecf36f,S
2019-07-19 04:40:29,62a1e02e-fcfb-4345-ad7f-9d33ddecf36f,A
2019-07-19 04:40:51,62a1e02e-fcfb-4345-ad7f-9d33ddecf36f,S
2019-07-19 04:47:21,62a1e02e-fcfb-4345-ad7f-9d33ddecf36f,A
2019-07-19 05:18:01,62a1e02e-fcfb-4345-ad7f-9d33ddecf36f,S
2019-07-19 05:21:47,62a1e02e-fcfb-4345-ad7f-9d33ddecf36f,A
2019-07-19 04:10:35,ad4eec1c-51f9-4659-88be-95c92a90e3bd,S
2019-07-19 04:12:54,ad4eec1c-51f9-4659-88be-95c92a90e3bd,A
2019-07-19 04:19:25,ad4eec1c-51f9-4659-88be-95c92a90e3bd,S
2019-07-19 04:20:23,ad4eec1c-51f9-4659-88be-95c92a90e3bd,A
2019-07-19 04:20:44,ad4eec1c-51f9-4659-88be-95c92a90e3bd,S
2019-07-19 04:25:54,ad4eec1c-51f9-4659-88be-95c92a90e3bd,A
2019-07-19 04:30:47,ad4eec1c-51f9-4659-88be-95c92a90e3bd,S
2019-07-19 04:35:27,ad4eec1c-51f9-4659-88be-95c92a90e3bd,A
2019-07-19 04:48:27,ad4eec1c-51f9-4659-88be-95c92a90e3bd,S
2019-07-19 05:05:56,ad4eec1c-51f9-4659-88be-95c92a90e3bd,A
2019-07-19 05:10:39,ad4eec1c-51f9-4659-88be-95c92a90e3bd,S
2019-07-19 05:12:48,ad4eec1c-51f9-4659-88be-95c92a90e3bd,A
2019-07-19 05:14:02,ad4eec1c-51f9-4659-88be-95c92a90e3bd,S
2019-07-19 05:15:24,ad4eec1c-51f9-4659-88be-95c92a90e3bd,A
2019-07-19 05:16:07,ad4eec1c-51f9-4659-88be-95c92a90e3bd,S
2019-07-19 05:16:40,ad4eec1c-51f9-4659-88be-95c92a90e3bd,A
2019-07-19 05:17:45,ad4eec1c-51f9-4659-88be-95c92a90e3bd,S
2019-07-19 05:24:26,ad4eec1c-51f9-4659-88be-95c92a90e3bd,A
2019-07-19 05:24:45,ad4eec1c-51f9-4659-88be-95c92a90e3bd,S
2019-07-19 05:25:33,ad4eec1c-51f9-4659-88be-95c92a90e3bd,A
2019-07-19 05:25:34,ad4eec1c-51f9-4659-88be-95c92a90e3bd,S
2019-07-19 04:01:28,bb58b092-95c2-4717-a5f8-481e59d2e757,S
2019-07-19 04:03:24,bb58b092-95c2-4717-a5f8-481e59d2e757,A
2019-07-19 04:03:53,bb58b092-95c2-4717-a5f8-481e59d2e757,S
2019-07-19 04:12:11,bb58b092-95c2-4717-a5f8-481e59d2e757,A
2019-07-19 04:15:03,bb58b092-95c2-4717-a5f8-481e59d2e757,S
2019-07-19 04:21:24,bb58b092-95c2-4717-a5f8-481e59d2e757,A
2019-07-19 04:26:00,bb58b092-95c2-4717-a5f8-481e59d2e757,S
2019-07-19 04:27:13,bb58b092-95c2-4717-a5f8-481e59d2e757,A
2019-07-19 04:35:57,bb58b092-95c2-4717-a5f8-481e59d2e757,S
2019-07-19 04:37:31,bb58b092-95c2-4717-a5f8-481e59d2e757,A
2019-07-19 04:45:33,bb58b092-95c2-4717-a5f8-481e59d2e757,S
2019-07-19 04:45:46,bb58b092-95c2-4717-a5f8-481e59d2e757,A
2019-07-19 04:52:21,bb58b092-95c2-4717-a5f8-481e59d2e757,S
2019-07-19 04:57:15,bb58b092-95c2-4717-a5f8-481e59d2e757,A
2019-07-19 04:58:10,bb58b092-95c2-4717-a5f8-481e59d2e757,S
2019-07-19 05:00:07,bb58b092-95c2-4717-a5f8-481e59d2e757,A
2019-07-19 05:00:08,bb58b092-95c2-4717-a5f8-481e59d2e757,S
2019-07-19 05:01:28,bb58b092-95c2-4717-a5f8-481e59d2e757,A
2019-07-19 05:04:15,bb58b092-95c2-4717-a5f8-481e59d2e757,S
2019-07-19 05:11:41,bb58b092-95c2-4717-a5f8-481e59d2e757,A
2019-07-19 05:13:14,bb58b092-95c2-4717-a5f8-481e59d2e757,S
2019-07-19 05:13:50,bb58b092-95c2-4717-a5f8-481e59d2e757,A
2019-07-19 05:20:52,bb58b092-95c2-4717-a5f8-481e59d2e757,S
2019-07-19 05:24:21,bb58b092-95c2-4717-a5f8-481e59d2e757,A
2019-07-19 03:53:52,33ee263e-e350-4525-b38c-f2c2475ad70d,S
2019-07-19 04:06:06,33ee263e-e350-4525-b38c-f2c2475ad70d,A
2019-07-19 04:16:15,33ee263e-e350-4525-b38c-f2c2475ad70d,S
2019-07-19 04:17:33,33ee263e-e350-4525-b38c-f2c2475ad70d,A
2019-07-19 04:19:32,33ee263e-e350-4525-b38c-f2c2475ad70d,S
2019-07-19 04:26:11,33ee263e-e350-4525-b38c-f2c2475ad70d,A
2019-07-19 04:26:58,33ee263e-e350-4525-b38c-f2c2475ad70d,S
2019-07-19 04:29:20,33ee263e-e350-4525-b38c-f2c2475ad70d,A
2019-07-19 04:30:10,33ee263e-e350-4525-b38c-f2c2475ad70d,S
2019-07-19 04:30:32,33ee263e-e350-4525-b38c-f2c2475ad70d,A
2019-07-19 04:30:51,33ee263e-e350-4525-b38c-f2c2475ad70d,S
2019-07-19 04:37:48,33ee263e-e350-4525-b38c-f2c2475ad70d,A
2019-07-19 03:58:46,209f5f38-e4f1-472f-a1ee-86b7f931261b,S
2019-07-19 04:00:42,209f5f38-e4f1-472f-a1ee-86b7f931261b,A
2019-07-19 04:03:50,209f5f38-e4f1-472f-a1ee-86b7f931261b,S
2019-07-19 04:04:19,209f5f38-e4f1-472f-a1ee-86b7f931261b,A
2019-07-19 04:07:28,209f5f38-e4f1-472f-a1ee-86b7f931261b,S
2019-07-19 04:09:28,209f5f38-e4f1-472f-a1ee-86b7f931261b,A
2019-07-19 04:13:44,209f5f38-e4f1-472f-a1ee-86b7f931261b,S
2019-07-19 04:14:42,209f5f38-e4f1-472f-a1ee-86b7f931261b,A
2019-07-19 04:15:31,209f5f38-e4f1-472f-a1ee-86b7f931261b,S
2019-07-19 04:22:58,209f5f38-e4f1-472f-a1ee-86b7f931261b,A
2019-07-19 04:25:11,209f5f38-e4f1-472f-a1ee-86b7f931261b,S
2019-07-19 04:28:42,209f5f38-e4f1-472f-a1ee-86b7f931261b,A
2019-07-19 04:36:59,209f5f38-e4f1-472f-a1ee-86b7f931261b,S
2019-07-19 04:44:23,209f5f38-e4f1-472f-a1ee-86b7f931261b,A
2019-07-19 04:46:25,209f5f38-e4f1-472f-a1ee-86b7f931261b,S
2019-07-19 04:49:10,209f5f38-e4f1-472f-a1ee-86b7f931261b,A
2019-07-19 04:50:15,209f5f38-e4f1-472f-a1ee-86b7f931261b,S
2019-07-19 04:51:33,209f5f38-e4f1-472f-a1ee-86b7f931261b,A
2019-07-19 04:53:05,209f5f38-e4f1-472f-a1ee-86b7f931261b,S
2019-07-19 05:01:12,209f5f38-e4f1-472f-a1ee-86b7f931261b,A
2019-07-19 05:01:23,209f5f38-e4f1-472f-a1ee-86b7f931261b,S
2019-07-19 05:01:35,209f5f38-e4f1-472f-a1ee-86b7f931261b,A
2019-07-19 05:05:25,209f5f38-e4f1-472f-a1ee-86b7f931261b,S
2019-07-19 05:07:49,209f5f38-e4f1-472f-a1ee-86b7f931261b,A
2019-07-19 05:08:33,209f5f38-e4f1-472f-a1ee-86b7f931261b,S
2019-07-19 05:09:52,209f5f38-e4f1-472f-a1ee-86b7f931261b,A
2019-07-19 05:10:45,209f5f38-e4f1-472f-a1ee-86b7f931261b,S
2019-07-19 05:19:08,209f5f38-e4f1-472f-a1ee-86b7f931261b,A
2019-07-19 05:20:21,209f5f38-e4f1-472f-a1ee-86b7f931261b,S
2019-07-19 05:29:20,209f5f38-e4f1-472f-a1ee-86b7f931261b,A
2019-07-19 04:08:56,860e6363-aeab-489b-90be-de2706788b98,S
2019-07-19 04:22:30,860e6363-aeab-489b-90be-de2706788b98,A
2019-07-19 04:27:24,860e6363-aeab-489b-90be-de2706788b98,S
2019-07-19 04:27:56,860e6363-aeab-489b-90be-de2706788b98,A
2019-07-19 04:31:48,860e6363-aeab-489b-90be-de2706788b98,S
2019-07-19 04:32:30,860e6363-aeab-489b-90be-de2706788b98,A
2019-07-19 04:41:08,860e6363-aeab-489b-90be-de2706788b98,S
2019-07-19 04:42:12,860e6363-aeab-489b-90be-de2706788b98,A
2019-07-19 04:44:27,860e6363-aeab-489b-90be-de2706788b98,S
2019-07-19 04:46:37,860e6363-aeab-489b-90be-de2706788b98,A
2019-07-19 04:48:59,860e6363-aeab-489b-90be-de2706788b98,S
2019-07-19 04:52:50,860e6363-aeab-489b-90be-de2706788b98,A
2019-07-19 04:54:02,860e6363-aeab-489b-90be-de2706788b98,S
2019-07-19 04:54:52,860e6363-aeab-489b-90be-de2706788b98,A
2019-07-19 04:57:02,860e6363-aeab-489b-90be-de2706788b98,S
2019-07-19 04:57:25,860e6363-aeab-489b-90be-de2706788b98,A
2019-07-19 04:57:41,860e6363-aeab-489b-90be-de2706788b98,S
2019-07-19 05:02:12,860e6363-aeab-489b-90be-de2706788b98,A
2019-07-19 05:03:02,860e6363-aeab-489b-90be-de2706788b98,S
2019-07-19 05:12:34,860e6363-aeab-489b-90be-de2706788b98,A
2019-07-19 05:18:37,860e6363-aeab-489b-90be-de2706788b98,S
2019-07-19 05:26:36,860e6363-aeab-489b-90be-de2706788b98,A
2019-07-19 05:30:05,860e6363-aeab-489b-90be-de2706788b98,S
2019-07-19 03:50:25,62974e9c-05f1-44c0-8afe-fdef5f6caa3e,S
2019-07-19 03:50:29,62974e9c-05f1-44c0-8afe-fdef5f6caa3e,A
2019-07-19 03:57:40,62974e9c-05f1-44c0-8afe-fdef5f6caa3e,S
2019-07-19 04:09:10,62974e9c-05f1-44c0-8afe-fdef5f6caa3e,A
2019-07-19 04:10:46,62974e9c-05f1-44c0-8afe-fdef5f6caa3e,S
2019-07-19 04:13:53,62974e9c-05f1-44c0-8afe-fdef5f6caa3e,A
2019-07-19 04:14:10,62974e9c-05f1-44c0-8afe-fdef5f6caa3e,S
2019-07-19 04:32:09,62974e9c-05f1-44c0-8afe-fdef5f6caa3e,A
2019-07-19 04:34:32,62974e9c-05f1-44c0-8afe-fdef5f6caa3e,S
2019-07-19 04:46:54,62974e9c-05f1-44c0-8afe-fdef5f6caa3e,A
2019-07-19 04:59:02,62974e9c-05f1-44c0-8afe-fdef5f6caa3e,S
2019-07-19 05:04:34,62974e9c-05f1-44c0-8afe-fdef5f6caa3e,A
2019-07-19 05:05:00,62974e9c-05f1-44c0-8afe-fdef5f6caa3e,S
2019-07-19 05:07:15,62974e9c-05f1-44c0-8afe-fdef5f6caa3e,A
2019-07-19 05:10:54,62974e9c-05f1-44c0-8afe-fdef5f6caa3e,S
2019-07-19 05:14:14,62974e9c-05f1-44c0-8afe-fdef5f6caa3e,A
2019-07-19 05:18:45,62974e9c-05f1-44c0-8afe-fdef5f6caa3e,S
2019-07-19 05:19:41,62974e9c-05f1-44c0-8afe-fdef5f6caa3e,A
2019-07-19 05:20:03,62974e9c-05f1-44c0-8afe-fdef5f6caa3e,S
2019-07-19 05:21:01,62974e9c-05f1-44c0-8afe-fdef5f6caa3e,A
2019-07-19 03:31:51,df6ebe41-ea6f-4b2b-abf3-6c3aee0ad001,S
2019-07-19 03:35:58,df6ebe41-ea6f-4b2b-abf3-6c3aee0ad001,A
2019-07-19 03:46:22,df6ebe41-ea6f-4b2b-abf3-6c3aee0ad001,S
2019-07-19 03:47:56,df6ebe41-ea6f-4b2b-abf3-6c3aee0ad001,A
2019-07-19 03:55:26,df6ebe41-ea6f-4b2b-abf3-6c3aee0ad001,S
2019-07-19 03:55:41,df6ebe41-ea6f-4b2b-abf3-6c3aee0ad001,A
2019-07-19 03:57:06,df6ebe41-ea6f-4b2b-abf3-6c3aee0ad001,S
2019-07-19 04:14:23,df6ebe41-ea6f-4b2b-abf3-6c3aee0ad001,A
2019-07-19 04:20:09,df6ebe41-ea6f-4b2b-abf3-6c3aee0ad001,S
2019-07-19 04:23:44,df6ebe41-ea6f-4b2b-abf3-6c3aee0ad001,A
2019-07-19 04:26:56,df6ebe41-ea6f-4b2b-abf3-6c3aee0ad001,S
2019-07-19 04:27:12,df6ebe41-ea6f-4b2b-abf3-6c3aee0ad001,A
2019-07-19 04:45:47,df6ebe41-ea6f-4b2b-abf3-6c3aee0ad001,S
2019-07-19 04:46:13,df6ebe41-ea6f-4b2b-abf3-6c3aee0ad001,A
2019-07-19 04:49:04,df6ebe41-ea6f-4b2b-abf3-6c3aee0ad001,S
2019-07-19 05:02:37,df6ebe41-ea6f-4b2b-abf3-6c3aee0ad001,A
2019-07-19 05:05:55,df6ebe41-ea6f-4b2b-abf3-6c3aee0ad001,S
2019-07-19 05:08:22,df6ebe41-ea6f-4b2b-abf3-6c3aee0ad001,A
2019-07-19 05:08:59,df6ebe41-ea6f-4b2b-abf3-6c3aee0ad001,S
2019-07-19 05:14:13,df6ebe41-ea6f-4b2b-abf3-6c3aee0ad001,A
2019-07-19 05:18:53,df6ebe41-ea6f-4b2b-abf3-6c3aee0ad001,S
2019-07-19 05:22:50,df6ebe41-ea6f-4b2b-abf3-6c3aee0ad001,A
2019-07-19 05:24:42,df6ebe41-ea6f-4b2b-abf3-6c3aee0ad001,S
2019-07-19 05:25:40,df6ebe41-ea6f-4b2b-abf3-6c3aee0ad001,A
2019-07-19 03:51:33,294a7f62-e447-4bac-b1d7-85df92b5eab0,S
2019-07-19 03:55:43,294a7f62-e447-4bac-b1d7-85df92b5eab0,A
2019-07-19 04:03:11,294a7f62-e447-4bac-b1d7-85df92b5eab0,S
2019-07-19 04:07:23,294a7f62-e447-4bac-b1d7-85df92b5eab0,A
2019-07-19 04:07:37,294a7f62-e447-4bac-b1d7-85df92b5eab0,S
2019-07-19 04:17:06,294a7f62-e447-4bac-b1d7-85df92b5eab0,A
2019-07-19 04:20:06,294a7f62-e447-4bac-b1d7-85df92b5eab0,S
2019-07-19 04:21:34,294a7f62-e447-4bac-b1d7-85df92b5eab0,A
2019-07-19 04:23:17,294a7f62-e447-4bac-b1d7-85df92b5eab0,S
2019-07-19 04:32:57,294a7f62-e447-4bac-b1d7-85df92b5eab0,A
2019-07-19 04:37:48,294a7f62-e447-4bac-b1d7-85df92b5eab0,S
2019-07-19 04:39:31,294a7f62-e447-4bac-b1d7-85df92b5eab0,A
2019-07-19 04:40:27,294a7f62-e447-4bac-b1d7-85df92b5eab0,S
2019-07-19 04:45:55,294a7f62-e447-4bac-b1d7-85df92b5eab0,A
2019-07-19 04:50:30,294a7f62-e447-4bac-b1d7-85df92b5eab0,S
2019-07-19 04:55:11,294a7f62-e447-4bac-b1d7-85df92b5eab0,A
2019-07-19 05:03:12,294a7f62-e447-4bac-b1d7-85df92b5eab0,S
2019-07-19 05:08:23,294a7f62-e447-4bac-b1d7-85df92b5eab0,A
2019-07-19 05:11:43,294a7f62-e447-4bac-b1d7-85df92b5eab0,S
2019-07-19 05:24:29,294a7f62-e447-4bac-b1d7-85df92b5eab0,A
2019-07-19 04:01:38,d1645c68-9a99-4f6a-8732-b2ca5056b859,S
2019-07-19 04:02:21,d1645c68-9a99-4f6a-8732-b2ca5056b859,A
2019-07-19 04:05:52,d1645c68-9a99-4f6a-8732-b2ca5056b859,S
2019-07-19 04:09:55,d1645c68-9a99-4f6a-8732-b2ca5056b859,A
2019-07-19 04:17:43,d1645c68-9a99-4f6a-8732-b2ca5056b859,S
2019-07-19 04:24:13,d1645c68-9a99-4f6a-8732-b2ca5056b859,A
2019-07-19 04:28:23,d1645c68-9a99-4f6a-8732-b2ca5056b859,S
2019-07-19 04:29:49,d1645c68-9a99-4f6a-8732-b2ca5056b859,A
2019-07-19 04:40:13,d1645c68-9a99-4f6a-8732-b2ca5056b859,S
2019-07-19 04:40:28,d1645c68-9a99-4f6a-8732-b2ca5056b859,A
2019-07-19 04:40:45,d1645c68-9a99-4f6a-8732-b2ca5056b859,S
2019-07-19 04:42:14,d1645c68-9a99-4f6a-8732-b2ca5056b859,A
2019-07-19 04:50:04,d1645c68-9a99-4f6a-8732-b2ca5056b859,S
2019-07-19 04:54:01,d1645c68-9a99-4f6a-8732-b2ca5056b859,A
2019-07-19 04:56:39,d1645c68-9a99-4f6a-8732-b2ca5056b859,S
2019-07-19 04:59:07,d1645c68-9a99-4f6a-8732-b2ca5056b859,A
2019-07-19 05:01:14,d1645c68-9a99-4f6a-8732-b2ca5056b859,S
2019-07-19 05:05:54,d1645c68-9a99-4f6a-8732-b2ca5056b859,A
2019-07-19 05:12:16,d1645c68-9a99-4f6a-8732-b2ca5056b859,S
2019-07-19 05:12:26,d1645c68-9a99-4f6a-8732-b2ca5056b859,A
2019-07-19 05:13:05,d1645c68-9a99-4f6a-8732-b2ca5056b859,S
2019-07-19 05:15:23,d1645c68-9a99-4f6a-8732-b2ca5056b859,A
2019-07-19 05:29:50,d1645c68-9a99-4f6a-8732-b2ca5056b859,S
2019-07-19 04:08:03,6e221511-fa8d-4807-860f-968a3e40d6dc,A
2019-07-19 04:41:49,6e221511-fa8d-4807-860f-968a3e40d6dc,S
2019-07-19 04:42:16,6e221511-fa8d-4807-860f-968a3e40d6dc,A
2019-07-19 05:11:33,6e221511-fa8d-4807-860f-968a3e40d6dc,S
2019-07-19 05:14:37,6e221511-fa8d-4807-860f-968a3e40d6dc,A
2019-07-19 05:17:05,6e221511-fa8d-4807-860f-968a3e40d6dc,S
2019-07-19 05:18:36,6e221511-fa8d-4807-860f-968a3e40d6dc,A
2019-07-19 05:19:23,6e221511-fa8d-4807-860f-968a3e40d6dc,S
2019-07-19 05:22:37,6e221511-fa8d-4807-860f-968a3e40d6dc,A
2019-07-19 03:38:28,f65a0d47-9820-4d4d-9cd7-6de99db2278e,S
2019-07-19 03:50:33,f65a0d47-9820-4d4d-9cd7-6de99db2278e,A
2019-07-19 04:08:54,f65a0d47-9820-4d4d-9cd7-6de99db2278e,S
2019-07-19 04:11:18,f65a0d47-9820-4d4d-9cd7-6de99db2278e,A
2019-07-19 04:14:36,f65a0d47-9820-4d4d-9cd7-6de99db2278e,S
2019-07-19 04:17:56,f65a0d47-9820-4d4d-9cd7-6de99db2278e,A
2019-07-19 04:29:25,f65a0d47-9820-4d4d-9cd7-6de99db2278e,S
2019-07-19 04:30:15,f65a0d47-9820-4d4d-9cd7-6de99db2278e,A
2019-07-19 04:31:54,f65a0d47-9820-4d4d-9cd7-6de99db2278e,S
2019-07-19 04:32:47,f65a0d47-9820-4d4d-9cd7-6de99db2278e,A
2019-07-19 04:50:11,f65a0d47-9820-4d4d-9cd7-6de99db2278e,S
2019-07-19 04:50:17,f65a0d47-9820-4d4d-9cd7-6de99db2278e,A
2019-07-19 04:53:26,f65a0d47-9820-4d4d-9cd7-6de99db2278e,S
2019-07-19 04:56:53,f65a0d47-9820-4d4d-9cd7-6de99db2278e,A
2019-07-19 04:59:07,f65a0d47-9820-4d4d-9cd7-6de99db2278e,S
2019-07-19 05:05:03,f65a0d47-9820-4d4d-9cd7-6de99db2278e,A
2019-07-19 05:06:26,f65a0d47-9820-4d4d-9cd7-6de99db2278e,S
2019-07-19 05:10:22,f65a0d47-9820-4d4d-9cd7-6de99db2278e,A
2019-07-19 05:15:55,f65a0d47-9820-4d4d-9cd7-6de99db2278e,S
2019-07-19 05:27:27,f65a0d47-9820-4d4d-9cd7-6de99db2278e,A
2019-07-19 04:02:23,b8cc15fb-a4d3-4a6b-a7c1-f3e5b676472b,A
2019-07-19 04:17:06,b8cc15fb-a4d3-4a6b-a7c1-f3e5b676472b,S
2019-07-19 04:19:12,b8cc15fb-a4d3-4a6b-a7c1-f3e5b676472b,A
2019-07-19 04:28:18,b8cc15fb-a4d3-4a6b-a7c1-f3e5b676472b,S
2019-07-19 04:39:51,b8cc15fb-a4d3-4a6b-a7c1-f3e5b676472b,A
2019-07-19 04:46:03,b8cc15fb-a4d3-4a6b-a7c1-f3e5b676472b,S
2019-07-19 04:52:44,b8cc15fb-a4d3-4a6b-a7c1-f3e5b676472b,A
2019-07-19 04:53:07,b8cc15fb-a4d3-4a6b-a7c1-f3e5b676472b,S
2019-07-19 04:54:14,b8cc15fb-a4d3-4a6b-a7c1-f3e5b676472b,A
2019-07-19 04:58:33,b8cc15fb-a4d3-4a6b-a7c1-f3e5b676472b,S
2019-07-19 04:59:05,b8cc15fb-a4d3-4a6b-a7c1-f3e5b676472b,A
2019-07-19 05:05:44,b8cc15fb-a4d3-4a6b-a7c1-f3e5b676472b,S
2019-07-19 05:08:28,b8cc15fb-a4d3-4a6b-a7c1-f3e5b676472b,A
2019-07-19 05:10:15,b8cc15fb-a4d3-4a6b-a7c1-f3e5b676472b,S
2019-07-19 05:14:02,b8cc15fb-a4d3-4a6b-a7c1-f3e5b676472b,A
2019-07-19 05:20:17,b8cc15fb-a4d3-4a6b-a7c1-f3e5b676472b,S
2019-07-19 05:20:30,b8cc15fb-a4d3-4a6b-a7c1-f3e5b676472b,A
2019-07-19 05:23:06,b8cc15fb-a4d3-4a6b-a7c1-f3e5b676472b,S
2019-07-19 03:22:30,0b0d30f6-8b99-4036-93e1-4dbfe546e34d,A
2019-07-19 03:38:33,0b0d30f6-8b99-4036-93e1-4dbfe546e34d,S
2019-07-19 03:41:46,0b0d30f6-8b99-4036-93e1-4dbfe546e34d,A
2019-07-19 03:44:32,0b0d30f6-8b99-4036-93e1-4dbfe546e34d,S
2019-07-19 03:45:03,0b0d30f6-8b99-4036-93e1-4dbfe546e34d,A
2019-07-19 03:59:01,0b0d30f6-8b99-4036-93e1-4dbfe546e34d,S
2019-07-19 04:02:30,0b0d30f6-8b99-4036-93e1-4dbfe546e34d,A
2019-07-19 04:05:21,0b0d30f6-8b99-4036-93e1-4dbfe546e34d,S
2019-07-19 04:09:22,0b0d30f6-8b99-4036-93e1-4dbfe546e34d,A
2019-07-19 04:22:45,0b0d30f6-8b99-4036-93e1-4dbfe546e34d,S
2019-07-19 04:22:56,0b0d30f6-8b99-4036-93e1-4dbfe546e34d,A
2019-07-19 04:31:38,0b0d30f6-8b99-4036-93e1-4dbfe546e34d,S
2019-07-19 04:35:55,0b0d30f6-8b99-4036-93e1-4dbfe546e34d,A
2019-07-19 04:42:31,0b0d30f6-8b99-4036-93e1-4dbfe546e34d,S
2019-07-19 04:45:03,0b0d30f6-8b99-4036-93e1-4dbfe546e34d,A
2019-07-19 04:56:14,0b0d30f6-8b99-4036-93e1-4dbfe546e34d,S
2019-07-19 04:58:09,0b0d30f6-8b99-4036-93e1-4dbfe546e34d,A
2019-07-19 04:59:06,0b0d30f6-8b99-4036-93e1-4dbfe546e34d,S
2019-07-19 05:01:59,0b0d30f6-8b99-4036-93e1-4dbfe546e34d,A
2019-07-19 05:07:57,0b0d30f6-8b99-4036-93e1-4dbfe546e34d,S
2019-07-19 05:16:45,0b0d30f6-8b99-4036-93e1-4dbfe546e34d,A
2019-07-19 05:19:48,0b0d30f6-8b99-4036-93e1-4dbfe546e34d,S
2019-07-19 05:21:39,0b0d30f6-8b99-4036-93e1-4dbfe546e34d,A
2019-07-19 05:23:49,0b0d30f6-8b99-4036-93e1-4dbfe546e34d,S
2019-07-19 04:10:40,25033ef3-f599-4d87-97e0-580afbdaca74,S
2019-07-19 04:11:54,25033ef3-f599-4d87-97e0-580afbdaca74,A
2019-07-19 04:17:40,25033ef3-f599-4d87-97e0-580afbdaca74,S
2019-07-19 04:30:59,25033ef3-f599-4d87-97e0-580afbdaca74,A
2019-07-19 04:38:44,25033ef3-f599-4d87-97e0-580afbdaca74,S
2019-07-19 04:41:15,25033ef3-f599-4d87-97e0-580afbdaca74,A
2019-07-19 04:57:38,25033ef3-f599-4d87-97e0-580afbdaca74,S
2019-07-19 05:03:45,25033ef3-f599-4d87-97e0-580afbdaca74,A
2019-07-19 05:18:34,25033ef3-f599-4d87-97e0-580afbdaca74,S
2019-07-19 05:23:48,25033ef3-f599-4d87-97e0-580afbdaca74,A
2019-07-19 05:26:22,25033ef3-f599-4d87-97e0-580afbdaca74,S
2019-07-19 05:29:46,25033ef3-f599-4d87-97e0-580afbdaca74,A
2019-07-19 04:08:25,cf14b5ad-0ce2-4891-9a48-09a4af89a19d,S
2019-07-19 04:09:14,cf14b5ad-0ce2-4891-9a48-09a4af89a19d,A
2019-07-19 04:21:50,cf14b5ad-0ce2-4891-9a48-09a4af89a19d,S
2019-07-19 04:22:56,cf14b5ad-0ce2-4891-9a48-09a4af89a19d,A
2019-07-19 04:25:01,cf14b5ad-0ce2-4891-9a48-09a4af89a19d,S
2019-07-19 04:49:54,cf14b5ad-0ce2-4891-9a48-09a4af89a19d,A
2019-07-19 05:01:44,cf14b5ad-0ce2-4891-9a48-09a4af89a19d,S
2019-07-19 05:06:05,cf14b5ad-0ce2-4891-9a48-09a4af89a19d,A
2019-07-19 05:06:06,cf14b5ad-0ce2-4891-9a48-09a4af89a19d,S
2019-07-19 05:10:15,cf14b5ad-0ce2-4891-9a48-09a4af89a19d,A
2019-07-19 05:14:27,cf14b5ad-0ce2-4891-9a48-09a4af89a19d,S
2019-07-19 05:23:50,cf14b5ad-0ce2-4891-9a48-09a4af89a19d,A
2019-07-19 05:28:59,cf14b5ad-0ce2-4891-9a48-09a4af89a19d,S
2019-07-19 03:44:20,db63b310-08ee-4bcb-9acc-da533ac6d3a1,S
2019-07-19 03:53:22,db63b310-08ee-4bcb-9acc-da533ac6d3a1,A
2019-07-19 03:58:34,db63b310-08ee-4bcb-9acc-da533ac6d3a1,S
2019-07-19 04:11:20,db63b310-08ee-4bcb-9acc-da533ac6d3a1,A
2019-07-19 04:12:19,db63b310-08ee-4bcb-9acc-da533ac6d3a1,S
2019-07-19 04:23:32,db63b310-08ee-4bcb-9acc-da533ac6d3a1,A
2019-07-19 04:23:45,db63b310-08ee-4bcb-9acc-da533ac6d3a1,S
2019-07-19 04:27:12,db63b310-08ee-4bcb-9acc-da533ac6d3a1,A
2019-07-19 04:38:16,db63b310-08ee-4bcb-9acc-da533ac6d3a1,S
2019-07-19 04:41:17,db63b310-08ee-4bcb-9acc-da533ac6d3a1,A
2019-07-19 04:47:53,db63b310-08ee-4bcb-9acc-da533ac6d3a1,S
2019-07-19 04:49:49,db63b310-08ee-4bcb-9acc-da533ac6d3a1,A
2019-07-19 04:57:14,db63b310-08ee-4bcb-9acc-da533ac6d3a1,S
2019-07-19 05:01:20,db63b310-08ee-4bcb-9acc-da533ac6d3a1,A
2019-07-19 05:02:02,db63b310-08ee-4bcb-9acc-da533ac6d3a1,S
2019-07-19 05:02:24,db63b310-08ee-4bcb-9acc-da533ac6d3a1,A
2019-07-19 05:05:47,db63b310-08ee-4bcb-9acc-da533ac6d3a1,S
2019-07-19 05:08:52,db63b310-08ee-4bcb-9acc-da533ac6d3a1,A
2019-07-19 05:22:02,db63b310-08ee-4bcb-9acc-da533ac6d3a1,S
2019-07-19 05:26:12,db63b310-08ee-4bcb-9acc-da533ac6d3a1,A
2019-07-19 05:26:19,db63b310-08ee-4bcb-9acc-da533ac6d3a1,S
2019-07-19 03:49:05,771e4c26-4282-435d-8f2d-90304ca8d332,S
2019-07-19 03:54:21,771e4c26-4282-435d-8f2d-90304ca8d332,A
2019-07-19 04:01:04,771e4c26-4282-435d-8f2d-90304ca8d332,S
2019-07-19 04:06:04,771e4c26-4282-435d-8f2d-90304ca8d332,A
2019-07-19 04:07:00,771e4c26-4282-435d-8f2d-90304ca8d332,S
2019-07-19 04:13:47,771e4c26-4282-435d-8f2d-90304ca8d332,A
2019-07-19 04:16:02,771e4c26-4282-435d-8f2d-90304ca8d332,S
2019-07-19 04:22:08,771e4c26-4282-435d-8f2d-90304ca8d332,A
2019-07-19 04:22:10,771e4c26-4282-435d-8f2d-90304ca8d332,S
2019-07-19 04:22:55,771e4c26-4282-435d-8f2d-90304ca8d332,A
2019-07-19 04:26:48,771e4c26-4282-435d-8f2d-90304ca8d332,S
2019-07-19 04:32:24,771e4c26-4282-435d-8f2d-90304ca8d332,A
2019-07-19 04:34:25,771e4c26-4282-435d-8f2d-90304ca8d332,S
2019-07-19 04:37:38,771e4c26-4282-435d-8f2d-90304ca8d332,A
2019-07-19 04:40:30,771e4c26-4282-435d-8f2d-90304ca8d332,S
2019-07-19 04:43:44,771e4c26-4282-435d-8f2d-90304ca8d332,A
2019-07-19 04:52:45,771e4c26-4282-435d-8f2d-90304ca8d332,S
2019-07-19 04:56:19,771e4c26-4282-435d-8f2d-90304ca8d332,A
2019-07-19 04:57:18,771e4c26-4282-435d-8f2d-90304ca8d332,S
2019-07-19 05:00:45,771e4c26-4282-435d-8f2d-90304ca8d332,A
2019-07-19 05:02:43,771e4c26-4282-435d-8f2d-90304ca8d332,S
2019-07-19 05:03:24,771e4c26-4282-435d-8f2d-90304ca8d332,A
2019-07-19 05:10:33,771e4c26-4282-435d-8f2d-90304ca8d332,S
2019-07-19 05:12:57,771e4c26-4282-435d-8f2d-90304ca8d332,A
2019-07-19 05:26:48,771e4c26-4282-435d-8f2d-90304ca8d332,S
2019-07-19 05:29:48,771e4c26-4282-435d-8f2d-90304ca8d332,A
2019-07-19 03:35:17,1031006c-139c-4220-8726-337a08a4d8e0,A
2019-07-19 03:38:08,1031006c-139c-4220-8726-337a08a4d8e0,S
2019-07-19 03:43:15,1031006c-139c-4220-8726-337a08a4d8e0,A
2019-07-19 03:58:42,1031006c-139c-4220-8726-337a08a4d8e0,S
2019-07-19 04:07:45,1031006c-139c-4220-8726-337a08a4d8e0,A
2019-07-19 04:17:28,1031006c-139c-4220-8726-337a08a4d8e0,S
2019-07-19 04:25:58,1031006c-139c-4220-8726-337a08a4d8e0,A
2019-07-19 04:26:44,1031006c-139c-4220-8726-337a08a4d8e0,S
2019-07-19 04:27:03,1031006c-139c-4220-8726-337a08a4d8e0,A
2019-07-19 04:35:41,1031006c-139c-4220-8726-337a08a4d8e0,S
2019-07-19 04:38:40,1031006c-139c-4220-8726-337a08a4d8e0,A
2019-07-19 04:38:43,1031006c-139c-4220-8726-337a08a4d8e0,S
2019-07-19 04:39:54,1031006c-139c-4220-8726-337a08a4d8e0,A
2019-07-19 04:41:44,1031006c-139c-4220-8726-337a08a4d8e0,S
2019-07-19 04:43:35,1031006c-139c-4220-8726-337a08a4d8e0,A
2019-07-19 04:44:34,1031006c-139c-4220-8726-337a08a4d8e0,S
2019-07-19 04:46:17,1031006c-139c-4220-8726-337a08a4d8e0,A
2019-07-19 04:55:33,1031006c-139c-4220-8726-337a08a4d8e0,S
2019-07-19 04:57:40,1031006c-139c-4220-8726-337a08a4d8e0,A
2019-07-19 04:58:38,1031006c-139c-4220-8726-337a08a4d8e0,S
2019-07-19 05:01:05,1031006c-139c-4220-8726-337a08a4d8e0,A
2019-07-19 05:09:51,1031006c-139c-4220-8726-337a08a4d8e0,S
2019-07-19 05:12:08,1031006c-139c-4220-8726-337a08a4d8e0,A
2019-07-19 05:17:00,1031006c-139c-4220-8726-337a08a4d8e0,S
2019-07-19 05:17:07,1031006c-139c-4220-8726-337a08a4d8e0,A
2019-07-19 05:17:46,1031006c-139c-4220-8726-337a08a4d8e0,S
2019-07-19 05:21:15,1031006c-139c-4220-8726-337a08a4d8e0,A
2019-07-19 05:22:42,1031006c-139c-4220-8726-337a08a4d8e0,S
2019-07-19 05:28:21,1031006c-139c-4220-8726-337a08a4d8e0,A
2019-07-19 05:28:49,1031006c-139c-4220-8726-337a08a4d8e0,S
2019-07-19 04:01:32,8cd454f0-8485-46bb-8ff1-0ab609084cb6,A
2019-07-19 04:03:23,8cd454f0-8485-46bb-8ff1-0ab609084cb6,S
2019-07-19 04:12:51,8cd454f0-8485-46bb-8ff1-0ab609084cb6,A
2019-07-19 04:26:59,8cd454f0-8485-46bb-8ff1-0ab609084cb6,S
2019-07-19 04:28:34,8cd454f0-8485-46bb-8ff1-0ab609084cb6,A
2019-07-19 04:30:09,8cd454f0-8485-46bb-8ff1-0ab609084cb6,S
2019-07-19 04:32:02,8cd454f0-8485-46bb-8ff1-0ab609084cb6,A
2019-07-19 04:38:30,8cd454f0-8485-46bb-8ff1-0ab609084cb6,S
2019-07-19 04:43:23,8cd454f0-8485-46bb-8ff1-0ab609084cb6,A
2019-07-19 04:50:55,8cd454f0-8485-46bb-8ff1-0ab609084cb6,S
2019-07-19 04:50:57,8cd454f0-8485-46bb-8ff1-0ab609084cb6,A
2019-07-19 04:51:17,8cd454f0-8485-46bb-8ff1-0ab609084cb6,S
2019-07-19 04:53:37,8cd454f0-8485-46bb-8ff1-0ab609084cb6,A
2019-07-19 04:56:48,8cd454f0-8485-46bb-8ff1-0ab609084cb6,S
2019-07-19 04:57:34,8cd454f0-8485-46bb-8ff1-0ab609084cb6,A
2019-07-19 05:08:35,8cd454f0-8485-46bb-8ff1-0ab609084cb6,S
2019-07-19 05:09:23,8cd454f0-8485-46bb-8ff1-0ab609084cb6,A
2019-07-19 05:09:49,8cd454f0-8485-46bb-8ff1-0ab609084cb6,S
2019-07-19 05:12:02,8cd454f0-8485-46bb-8ff1-0ab609084cb6,A
2019-07-19 05:14:16,8cd454f0-8485-46bb-8ff1-0ab609084cb6,S
2019-07-19 05:14:34,8cd454f0-8485-46bb-8ff1-0ab609084cb6,A
2019-07-19 05:24:00,8cd454f0-8485-46bb-8ff1-0ab609084cb6,S
2019-07-19 05:28:43,8cd454f0-8485-46bb-8ff1-0ab609084cb6,A
2019-07-19 05:30:27,8cd454f0-8485-46bb-8ff1-0ab609084cb6,S
2019-07-19 05:31:37,8cd454f0-8485-46bb-8ff1-0ab609084cb6,A
2019-07-19 03:18:58,369f2f47-f36b-4cd5-82af-607ae4ea5618,A
2019-07-19 03:23:15,369f2f47-f36b-4cd5-82af-607ae4ea5618,S
2019-07-19 03:25:31,369f2f47-f36b-4cd5-82af-607ae4ea5618,A
2019-07-19 03:33:14,369f2f47-f36b-4cd5-82af-607ae4ea5618,S
2019-07-19 03:42:32,369f2f47-f36b-4cd5-82af-607ae4ea5618,A
2019-07-19 03:46:53,369f2f47-f36b-4cd5-82af-607ae4ea5618,S
2019-07-19 03:51:27,369f2f47-f36b-4cd5-82af-607ae4ea5618,A
2019-07-19 04:06:44,369f2f47-f36b-4cd5-82af-607ae4ea5618,S
2019-07-19 04:11:37,369f2f47-f36b-4cd5-82af-607ae4ea5618,A
2019-07-19 04:24:26,369f2f47-f36b-4cd5-82af-607ae4ea5618,S
2019-07-19 04:24:55,369f2f47-f36b-4cd5-82af-607ae4ea5618,A
2019-07-19 04:32:08,369f2f47-f36b-4cd5-82af-607ae4ea5618,S
2019-07-19 04:40:02,369f2f47-f36b-4cd5-82af-607ae4ea5618,A
2019-07-19 04:41:12,369f2f47-f36b-4cd5-82af-607ae4ea5618,S
2019-07-19 04:42:45,369f2f47-f36b-4cd5-82af-607ae4ea5618,A
2019-07-19 04:43:22,369f2f47-f36b-4cd5-82af-607ae4ea5618,S
2019-07-19 04:44:54,369f2f47-f36b-4cd5-82af-607ae4ea5618,A
2019-07-19 04:45:30,369f2f47-f36b-4cd5-82af-607ae4ea5618,S
2019-07-19 04:45:36,369f2f47-f36b-4cd5-82af-607ae4ea5618,A
2019-07-19 04:45:58,369f2f47-f36b-4cd5-82af-607ae4ea5618,S
2019-07-19 04:46:55,369f2f47-f36b-4cd5-82af-607ae4ea5618,A
2019-07-19 04:54:20,369f2f47-f36b-4cd5-82af-607ae4ea5618,S
2019-07-19 05:06:38,369f2f47-f36b-4cd5-82af-607ae4ea5618,A
2019-07-19 05:07:16,369f2f47-f36b-4cd5-82af-607ae4ea5618,S
2019-07-19 05:25:46,369f2f47-f36b-4cd5-82af-607ae4ea5618,A
