node,ip,uuid
node-a8-199.grenoble.iot-lab.info,172.20.64.1,d1e79533-c230-43c1-9111-d9c4e1cc69d4
node-a8-200.grenoble.iot-lab.info,172.20.64.2,45e099f9-23ae-4913-8fca-88fc0c93c275
node-a8-201.grenoble.iot-lab.info,172.20.64.3,017681ef-d2a7-4ebd-9612-02884d570f4c
node-a8-202.grenoble.iot-lab.info,172.20.64.4,17736907-a9c1-461b-b230-532f61323c95
node-a8-204.grenoble.iot-lab.info,172.20.64.5,573bf814-872b-4da2-8691-cd410d7a3633
node-a8-205.grenoble.iot-lab.info,172.20.64.6,37f05d66-55a1-47e6-b032-c366fed497eb
node-a8-206.grenoble.iot-lab.info,172.20.64.7,5179d348-7e47-4499-a385-1a28c4889378
node-a8-207.grenoble.iot-lab.info,172.20.64.8,048be17a-0698-4351-af29-b39e717b3b65
node-a8-208.grenoble.iot-lab.info,172.20.64.9,a78a8170-5987-454c-8ad9-985a244cf679
node-a8-209.grenoble.iot-lab.info,172.20.64.10,71ff85b4-cd67-4c66-9b7c-edf4b3f6d2fb
node-a8-210.grenoble.iot-lab.info,172.20.64.11,64413054-5c29-4eeb-9c32-8f990ffd4e1d
node-a8-211.grenoble.iot-lab.info,172.20.64.12,71bb27ee-0975-4099-92a9-c4bcc592e921
node-a8-212.grenoble.iot-lab.info,172.20.64.13,b65d8bdf-fbef-4851-8b94-646ebab47146
node-a8-214.grenoble.iot-lab.info,172.20.64.14,cff42e09-3c5e-42f7-80e6-a30e3ef792e5
node-a8-216.grenoble.iot-lab.info,172.20.64.15,6419075b-0280-4a07-8ee8-2072ce5e160a
node-a8-217.grenoble.iot-lab.info,172.20.64.16,d204e3e0-6945-481b-8107-835f2b0a025a
node-a8-218.grenoble.iot-lab.info,172.20.64.17,a91a4464-839f-4c81-8bd3-ef46ecf4c776
node-a8-219.grenoble.iot-lab.info,172.20.64.18,55ff0f0f-137e-4380-ae4a-f2b5f539347b
node-a8-220.grenoble.iot-lab.info,172.20.64.19,252dda6e-e6fb-463d-b6f2-1f52d4b5117c
node-a8-221.grenoble.iot-lab.info,172.20.64.20,ebeed398-70ed-47a4-ba4a-9e7ff58d77ac
node-a8-165.grenoble.iot-lab.info,172.20.64.21,6a0cdb2c-7fe9-4479-a230-5456851ab7df
node-a8-166.grenoble.iot-lab.info,172.20.64.22,572bb041-c730-48ec-a17a-aff7706873cc
node-a8-167.grenoble.iot-lab.info,172.20.64.23,cb13eefc-a03b-4edc-b9b4-5ffe944f51bc
node-a8-168.grenoble.iot-lab.info,172.20.64.24,1e73df5a-b837-42a1-ab3d-28621f1a61ee
node-a8-169.grenoble.iot-lab.info,172.20.64.25,585dfafd-e0f1-4a04-a744-1654b4341ff2
node-a8-170.grenoble.iot-lab.info,172.20.64.26,edacd436-1f1e-45ff-be75-fd8573ab2a7c
node-a8-171.grenoble.iot-lab.info,172.20.64.27,99f6c281-322c-4050-af20-ebebbcddef02
node-a8-173.grenoble.iot-lab.info,172.20.64.28,61b40d92-6266-45ff-bda8-a7383356f7e0
node-a8-174.grenoble.iot-lab.info,172.20.64.29,b5080dec-07de-4811-af86-48aebf481f30
node-a8-175.grenoble.iot-lab.info,172.20.64.30,8978c287-0acb-4130-bbbf-11738948f053
node-a8-176.grenoble.iot-lab.info,172.20.64.31,45b8afe7-5d6b-43c5-8fa4-1a680e702387
node-a8-177.grenoble.iot-lab.info,172.20.64.32,620b615a-8a54-4ded-824f-b83f7eb05332
node-a8-179.grenoble.iot-lab.info,172.20.64.33,b929c8ac-2dd1-4dfa-af1a-89f2d387bee5
node-a8-180.grenoble.iot-lab.info,172.20.64.34,6aa20ec2-48f1-45b1-aae6-f758aa515612
node-a8-181.grenoble.iot-lab.info,172.20.64.35,2cebeeb7-d3b5-4281-b4d4-fa5dc6d57ade
node-a8-182.grenoble.iot-lab.info,172.20.64.36,5f633fcd-a915-4811-adc1-3536be8a276f
node-a8-183.grenoble.iot-lab.info,172.20.64.37,26275782-005b-42af-bf81-2690e1e72a88
node-a8-184.grenoble.iot-lab.info,172.20.64.38,d2ce7638-777c-46d6-ba93-e7f1344ffd6a
node-a8-185.grenoble.iot-lab.info,172.20.64.39,44a0dc61-afc6-46c9-8a84-ba8dc7a08400
node-a8-187.grenoble.iot-lab.info,172.20.64.40,2afde734-b5de-4593-98f6-5f2c12a2040e
node-a8-188.grenoble.iot-lab.info,172.20.64.41,839e3bde-80d5-49cd-9073-d4a7dbfd7b95
node-a8-189.grenoble.iot-lab.info,172.20.64.42,4acf8c4c-4eb0-4ded-891b-62ecc8a73465
node-a8-190.grenoble.iot-lab.info,172.20.64.43,bd93e5b2-f6fc-4cb0-8ad2-2904ec8152bd
node-a8-191.grenoble.iot-lab.info,172.20.64.44,02ef4df3-496b-4279-ac9d-1e96793fbcac
node-a8-192.grenoble.iot-lab.info,172.20.64.45,084eaabf-ced3-40b1-bad9-7ca5dd06d755
node-a8-193.grenoble.iot-lab.info,172.20.64.46,1fe068c7-07f6-4676-9124-7f3814cf4d1e
node-a8-194.grenoble.iot-lab.info,172.20.64.47,dadbeaae-a9c8-47a1-aacc-4f09e7723ad0
node-a8-195.grenoble.iot-lab.info,172.20.64.48,1de7aada-2ab3-43b0-a258-8b62e0f1a98e
node-a8-197.grenoble.iot-lab.info,172.20.64.49,be634ab1-efd5-4908-ae98-611365d96820
node-a8-198.grenoble.iot-lab.info,172.20.64.50,87092856-e0c3-439f-b482-658f809062c9
paravance-71.rennes.grid5000.fr,172.16.96.71,ee34a26f-309f-42f1-87d8-ee782914721f
paravance-70.rennes.grid5000.fr,172.16.96.70,28fee5d5-39c7-48ad-87fc-ad2e7e2374ad
paravance-69.rennes.grid5000.fr,172.16.96.69,8e360976-1f85-41a9-aa40-0c8f09e3c692
paravance-68.rennes.grid5000.fr,172.16.96.68,0021fbd0-5e77-41d1-8808-a8d6de892a78
paravance-67.rennes.grid5000.fr,172.16.96.67,41a8fbff-cb4d-46b1-a919-6df3e8988687
paravance-66.rennes.grid5000.fr,172.16.96.66,e9c8dd6d-1fdc-4085-8fab-8c2a98bf8c0e
paravance-65.rennes.grid5000.fr,172.16.96.65,5a9fbc84-2ae7-4f30-87b1-3e2dc9353dc7
paravance-64.rennes.grid5000.fr,172.16.96.64,60841d5e-26b8-4351-b09e-17c1c782a747
paravance-63.rennes.grid5000.fr,172.16.96.63,774d9bf2-463f-4f47-9c77-05b3a040d3f0
paravance-62.rennes.grid5000.fr,172.16.96.62,ac29ea91-5fc9-4dfc-944c-5e8559a6ee7a
paravance-61.rennes.grid5000.fr,172.16.96.61,4a8a877d-ac57-42d8-b220-ccd124678db6
paravance-60.rennes.grid5000.fr,172.16.96.60,e3dd75d7-4df4-4bec-93da-b7fe41cef9a2
paravance-59.rennes.grid5000.fr,172.16.96.59,37648870-9bac-475f-a621-0ff4e0b4711e
paravance-58.rennes.grid5000.fr,172.16.96.58,ee865b8f-d8c1-4d9d-9a41-0f61b955d066
paravance-57.rennes.grid5000.fr,172.16.96.57,7f3bd6dd-90e1-4e24-b002-450ba65bbcc7
paravance-56.rennes.grid5000.fr,172.16.96.56,aa2677cf-10f3-4a0a-944a-cfa157a56a43
