app_number,app_id,trigger,burn,sink,deploy_date,token_interval
1,c58cdf6f-46b3-4cc6-9d0f-47fc038da01a,6bc1b3f0-42dc-43a1-a7a3-af6e7f6630bc,a1e38df1-24eb-41b4-bf73-272cb33811a7,44d6819f-c797-466a-97ff-df1c7686bd25,2019-07-21 18:19:09,1.000000
2,a72680a7-85f2-48bc-90c7-79e99144de63,8887286e-5a56-44e1-8a13-dc7d91fdc494,234cc5f1-4b3a-4f8e-86a5-683851f45b21,1479322b-5e34-4337-8dc6-4e934514d224,2019-07-21 18:20:13,1.000000
3,092f59ae-c3e4-4b5a-9765-473dec9afba9,bddeb058-6bde-455f-a114-b0521aeadbd4,99bc9d4e-66a2-4f3b-a462-3e049b310d55,42fcd109-f651-4115-b0d8-2a2dd78bbbda,2019-07-21 18:21:17,1.000000
4,bb01b7bb-9f77-4fe7-9285-a76071a9f9f4,ba4f917c-de67-45dd-9128-eea0336dcfab,84aa993e-cda5-49d5-a286-536a939346a9,0de56878-5d11-4311-8bd0-51fcc45ad095,2019-07-21 18:22:21,0.200000
5,2689a03b-3836-421e-8cb6-1bf9b1d5fd39,99e50f59-ad33-4517-b352-602e885adb3a,8916690e-f55f-47e0-8c48-b7d6e2ba8243,b7c94cc5-55be-40ca-be56-de7bda9b2d1e,2019-07-21 18:23:25,0.200000
6,c9069ff9-7b2a-49f4-bed7-aa53c9f7df1b,bd7b6acd-e875-4ba1-871e-2a8ef1e0222b,2acafeff-43a4-4cf2-b4e3-dbae6b7f55c3,3db968fa-f8e4-4f03-a73f-471a9c25a8a1,2019-07-21 18:24:28,0.200000
7,27dc4bb7-d6b4-4a8c-ba35-123e6845c45e,5ad1d26a-b906-4082-bf85-e08f3ed5427e,c164031f-fde8-429a-9aa8-7ce006df44cd,fc67ade1-2a0b-4d49-8ff9-e85491cf0555,2019-07-21 18:25:32,0.200000
8,94f4d401-35d7-4668-a608-90e15b5be752,343fd750-c948-4a77-8823-8e2553d9dd2b,1ced4a4f-4872-4131-bf9f-efff7f9e7955,dfa720f2-0b3f-4fa4-9db8-e43a41169e50,2019-07-21 18:26:36,1.000000
9,5660d543-e261-4097-9801-0265140f2a5b,58116564-fd32-47e9-aef2-016cfaa612ab,b2d98d59-e850-465b-86b2-b5c318d5c806,0d63800c-497c-4159-bd73-3c1f0f78441f,2019-07-21 18:27:40,0.200000
10,e6456e2d-3f2e-4fd0-9c67-dfe1bcc99f47,f41cb3b4-75c7-41b8-9dfd-5a20f3777b60,9c0d89f9-38e1-46c9-9270-0bb6440a18f3,819c8dc6-8a22-4b7d-befd-5facb3a0228d,2019-07-21 18:28:43,0.200000
11,bad95cf6-54b9-44ef-a5b8-3eca914a748a,fac6f5c3-4c03-4035-90c8-c55acb544a5c,b6379a5d-0b3f-4a03-93ad-5dd60113dbc9,2420c8c0-efb8-4e2e-b485-bb1251f496ae,2019-07-21 18:29:47,0.200000
12,462f3cee-4b0e-4028-8eda-557e04920f32,e2a71d04-7e64-4662-a190-583570f2b577,e11945ed-6a07-4217-a591-44304b61702b,abadc477-cd42-49d1-97f7-d461df17f1f2,2019-07-21 18:30:51,1.000000
13,317810c3-5973-4069-b1be-20ddf26d3b72,8bc5f6ab-ecb3-4a88-b910-a3cfca1dd0d9,e5426127-8b08-4a63-96b7-ba6049d619f4,c536789e-ac2b-44f7-bce9-2ff7c9d6c328,2019-07-21 18:31:54,0.200000
14,c35a9a5a-a856-427f-9661-92934a32a79d,fbcde7d0-9a52-461a-b91b-ebc58c439ca7,82f9fb21-0e62-40d6-9b3d-4673296bc951,586b9f4f-0c66-4b64-947f-c08cbbc32fe0,2019-07-21 18:32:58,0.200000
15,ba820bad-5bff-4fa4-a372-1b411695ccda,c31b671b-4702-44e2-bd19-4862b5c4d08c,1782244c-21fa-4455-b18e-bec5c6905e03,5317d8a4-bc7b-424d-bbd5-fc0c99fb589d,2019-07-21 18:34:02,1.000000
16,b5116dab-0508-4a45-ab13-19bd42bc0d51,47aa13b7-0f58-4057-b123-54d818ce9043,1ad95816-2d84-467d-ae4d-04b98142f414,ff5e5214-7bd1-46d1-9a5e-4dd255ac1925,2019-07-21 18:35:06,1.000000
17,4a793577-7c92-44d3-b5e0-680863355c92,ed31f7c1-b496-4d0d-b727-6d69e52430f7,353a4414-0ce5-46f6-98b1-9c5b9ce8b566,3aaf415b-f920-42b1-bf97-803038b8c9ee,2019-07-21 18:36:09,0.200000
18,3754dad7-d17f-46ca-a8c1-7d121e64f8e3,630b61c2-4ef8-411d-aa21-c89d1d145a21,12223c4e-cb86-482c-a5e9-f73b85eca5dd,f798ad63-6ec0-46d7-9377-7fd6a5c65d20,2019-07-21 18:37:13,1.000000
19,62237756-6e88-4788-9339-538f29a5c3b1,95a05d1e-a248-4af7-a713-ab00f2c25474,edade55e-d350-43c5-844a-e816c0b5b9ca,6526a2fa-618c-47e4-93e6-cca462dc3977,2019-07-21 18:38:17,0.200000
20,330cc0ca-8747-4082-a4dc-ceed520f3e66,6cc7716a-80d9-473e-aeb9-ae4656af80cc,fba21d78-0096-4767-b115-086111e31296,2624d752-8c4c-4223-95e4-0b6a415ef780,2019-07-21 18:39:21,1.000000
21,eecfadaa-a5eb-4ed6-889e-58b13aebb6e6,48f62068-4c15-45e9-bf71-7b20db6b067f,3e3c10e5-0188-4e47-8229-4741957ac147,baa2f6e7-57e2-4fb1-b667-5eca3f20588c,2019-07-21 18:40:25,0.200000
22,e8ea3896-3db4-40ff-ae7b-d22453c86729,39f9f265-c60e-4fd6-9ae1-c40d3121a2dc,61c0ed06-624e-4eae-a972-17ba89b821f3,7675b744-7559-420e-b293-b455d53d9fe3,2019-07-21 18:41:29,0.200000
23,51ce2d83-2a94-4fe2-97dd-4a060a67800e,176f7ba6-e15b-4ad7-82c7-c60c17ffeb5e,0051ff24-8e73-43eb-80bb-fd02b4ac03a1,f5689805-4d5e-412d-9e00-f0dffd6a60b5,2019-07-21 18:42:33,0.200000
24,b1143300-2926-4daf-b9f2-0e520ce04bee,30657dbc-8214-408a-a46b-2ff83bebc25c,000f3249-4f64-4907-83ff-7aacdf170652,7907eecb-af4f-40a1-ad14-07078e516678,2019-07-21 18:43:36,1.000000
25,5c5599bf-70e8-4bf0-a39b-5cdb129aee21,ec4ccb69-ce8e-49ce-9b86-1e6fdfb7c904,3c749ae4-f566-4409-83bb-6094fa92550f,ea3340f0-876e-46d7-bd1b-81f3747e0fda,2019-07-21 18:44:40,1.000000
26,da2dc38a-189a-44d6-bec9-5302db477122,493ca70b-e98b-4947-bc7f-8b51e1c3b27d,7c4b45cc-a4d8-43aa-a4f0-604fef8b641e,8f062366-f7c4-47e0-a4e3-7b6740e1dabb,2019-07-21 18:45:44,1.000000
27,b0200387-7c92-4d71-8733-9a78142d4687,796135e1-275e-4843-9bbf-21c5ea2b4e3c,09273d56-fc95-41d2-96d5-5cf0c172223e,a117a499-b7eb-4349-b604-8855ecb68ad6,2019-07-21 18:46:48,0.200000
28,30687b4f-1a76-483d-bfd9-8ae7fb2be3b8,6bfc27ea-c3f5-451f-8c56-4fa52eb8b7fd,2fdd4135-fb81-4ff4-86f3-67b886ebca10,c7062360-760b-45a8-9fe5-356f146ad182,2019-07-21 18:47:52,1.000000
29,dafb0e71-706d-4c65-be20-9ba8e6ba9c44,0e85f19f-cfda-4163-beb3-d202532e86fc,2bd5c5a3-aac9-452c-9726-dd1687af8eac,7c3b6b79-9665-43ca-8852-14de5a84e392,2019-07-21 18:48:56,1.000000
30,422a7e6c-6b24-4f14-a0df-44b495b2ca6e,5dc46445-9105-4ab0-9c73-7fa1aa5f179c,073b1385-81f2-464e-9bfa-3ab4ee0fffd5,a77f101d-7e2e-4a86-8aa7-3f84f0178565,2019-07-21 18:50:00,1.000000
31,9ab59d48-d4e9-481f-8f68-47350d545d78,57072382-8ea0-42b8-9467-9bc314d26078,44c0492a-ca5b-4468-92f5-1d6afbf965cf,0ffea858-68b6-4d51-9f19-0d195d6e4a43,2019-07-21 18:51:04,1.000000
32,936655c9-ab91-4a7d-9962-e941f96698af,ab8a31bb-2736-42ec-a24b-76fd88d75503,ffa645fe-f857-4e5e-8a94-4a3fef582b8e,950c1604-084a-480f-a3d5-9b04fea914d3,2019-07-21 18:52:08,0.200000
33,242986d3-20c5-43e4-917e-0aae7c39e8dc,ad614416-0acb-4708-a1ac-438988a04099,454e289d-08d3-4b87-aa10-d3d77307329b,c9b7f2be-cfa4-4268-9ce7-e8f3d618bf8a,2019-07-21 18:53:12,1.000000
34,7dbdb46f-3665-429c-84fa-02149c228e71,237dffd8-3490-433a-ab80-a31a0ff3aa79,58531b5b-e5b6-421b-ac4f-d19e78a72262,c9f581fe-5dd1-4a67-88bb-225a03c93793,2019-07-21 18:54:16,0.200000
35,b479a682-e216-45ab-ab20-71333d428ed7,f094fb7b-75e5-4c44-8c77-1ef3ab6c1788,b7f26c48-2327-4c0c-945b-34eb26bf0752,cc54388a-2946-46b1-9622-6a784635167c,2019-07-21 18:55:19,1.000000
36,47784c72-69ed-493e-ad6a-ed726d8c8691,5a24208d-28de-4cb0-ab4e-929557b22407,ecd3ab9c-2535-43f0-ba89-15a6ec2deb49,fef828c7-33e3-4734-9146-3b4d77b8ff03,2019-07-21 18:56:23,0.200000
37,d181285e-06fe-4ea5-bbc1-2c2702e1852d,33e0df10-a6c3-48b4-bd4e-2e6ed449b696,4bf959ad-53f6-4ffe-bae4-a85e1bcc4cd6,403e2ffa-4e69-4128-9919-6aa01358df69,2019-07-21 18:57:27,1.000000
38,fb3b86ac-e70b-443d-9114-2be01221507a,d5345343-a359-41e6-aac6-78156e8a1209,91fe6674-4289-4bc8-9595-e559be32ab14,2106b678-ab02-410e-bac9-64b58dac334f,2019-07-21 18:58:31,1.000000
39,7145cb1a-75a5-485e-8dd8-73514dedd2aa,851917fb-dc71-4f0f-bac0-f230f7770ca7,c16e6c26-bdd5-4cb6-b9d3-eb43810cd079,96e0d82b-7a82-4b6a-9714-0b5d1f24445d,2019-07-21 18:59:35,0.200000
40,4dc32d9a-2e6f-4390-8754-31b325536342,ce847f5a-5b4c-4965-a9b8-64350193850a,fc1c3f84-fb9c-4b70-b536-9d101d3a46c7,65a9a8d2-9fcb-4507-8336-5ee591df1c7b,2019-07-21 19:00:38,0.200000
41,0e0a1083-0a6b-458e-ac62-f7e0a1b164db,9163f150-8c75-4158-9928-725cf1e71e83,187ee615-74d9-41f2-b77f-b1e5209314f1,94e0f196-5416-44b4-9ae0-0f9d6e964ab8,2019-07-21 19:01:42,1.000000
42,2719065a-782a-42b0-a206-b1e3ba89369f,51102756-3c7d-4f27-a258-7a8e39344721,43baf6e8-fa82-4a14-ac0a-97dec4ce1340,23b823b9-a5cb-4d5c-8a11-64fd75d77c9d,2019-07-21 19:02:46,0.200000
43,d6486c7a-8836-4b7e-bf62-765b99fa60ac,9f460925-3f00-4712-8c99-6f5ff1e8f1b9,6ea9d939-5477-4b43-b581-506cc7cd81bf,befaa9b6-027c-4be0-8771-2e55ac8b8c85,2019-07-21 19:03:50,0.200000
44,12c10c2a-fcc5-4cc2-a371-de43c141187c,c8939800-15cc-42bb-a4ca-17a47387f698,6cb3bd2f-42b6-486b-be3e-0694385aa06d,f5a96ea8-cb6b-4121-98ff-58cda7227c8c,2019-07-21 19:04:53,0.200000
45,5d86bcd9-9687-4d2e-b2db-50a259e8c35e,91a9d27f-7648-42d3-b080-cd6e2dd4a3aa,1062ba48-8609-41e6-aa6a-cd59a66c4cb4,cebf24d4-7b02-4c8c-ac1d-83fad713b588,2019-07-21 19:05:57,1.000000
46,24e37d3c-95e5-42b1-be02-a7891d973ccb,090e1f35-92a5-4934-8913-81738b870aa5,215ceaeb-d884-43d2-98f5-b81f0fe4a98f,96c67e26-66be-4eff-82f0-f8a29193d0bd,2019-07-21 19:07:01,0.200000
47,aa92d8d8-f622-4b5a-b7a1-ea1bc83ad11f,9c6b09c7-d474-4a5c-b9b6-a97fa2d04fbf,36c7e54d-1ca0-412c-aab6-babf44d137e6,825e3534-885d-48d8-8fd9-cd36af4cf662,2019-07-21 19:08:05,0.200000
48,e22b949d-2873-49a1-a9f1-508bf4262c1b,0c4b9530-fbb9-4b48-9986-e9f8a2b48afa,dae405a2-22f8-4b64-b603-1fd4d3a6410e,facc2d80-aa03-4ae0-841f-a5a6bf3f6fa4,2019-07-21 19:09:09,1.000000
49,b9503797-3d23-4a22-9992-da90fd661d13,2de852c1-26da-4375-8e6a-78250b6269e4,0f90d5fe-4942-41c1-a6c9-07a65423c9fa,374d9e3d-a450-4f62-8f7f-6685d1bc6443,2019-07-21 19:10:13,0.200000
50,eaeb12a2-6077-472f-b9ad-2dbd091258d4,88e04330-0c16-4b45-83fe-875d20314311,c3beccb7-a96b-4cc3-8fc9-3b63875b75b7,bced139f-7744-48b0-ae7e-aa6c021af524,2019-07-21 19:11:16,1.000000
