node,ip,uuid
node-a8-199.grenoble.iot-lab.info,172.20.64.2,a39809c5-3594-4e57-a5e7-efa4038f5f0b
node-a8-200.grenoble.iot-lab.info,172.20.64.3,6bb4bb80-d33b-49bf-98ad-7e15e4a3988a
node-a8-201.grenoble.iot-lab.info,172.20.64.4,5b4809fd-05c9-44a8-8e1d-e9a9477ac5ef
node-a8-202.grenoble.iot-lab.info,172.20.64.5,22c2b2c8-153a-4232-9112-e76adebefaa1
node-a8-204.grenoble.iot-lab.info,172.20.64.6,b997f916-30cf-4351-a90b-028c4fd04a32
node-a8-205.grenoble.iot-lab.info,172.20.64.7,9ef96fac-67b2-4812-b434-6df56cf27701
node-a8-206.grenoble.iot-lab.info,172.20.64.8,871c8334-4039-4465-b729-1119befdcb26
node-a8-207.grenoble.iot-lab.info,172.20.64.9,abf5e1b0-7e5b-4816-a37d-ce6ec1a52d62
node-a8-208.grenoble.iot-lab.info,172.20.64.10,eaf2d11c-28c1-4dcd-8b4d-4e9c7dd81009
node-a8-209.grenoble.iot-lab.info,172.20.64.11,5acfcf4e-0aac-4567-9ab1-a845522bb0bb
node-a8-210.grenoble.iot-lab.info,172.20.64.12,a50a834b-4849-43a7-98b8-53f0bbbc3d81
node-a8-211.grenoble.iot-lab.info,172.20.64.13,78459ac6-a50a-4666-929d-da713b766c33
node-a8-212.grenoble.iot-lab.info,172.20.64.14,3c7bc767-e1bf-4bb3-a5ee-cf57c9ffbe12
node-a8-214.grenoble.iot-lab.info,172.20.64.15,23f2a238-02d4-44e5-a742-294750558ab4
node-a8-216.grenoble.iot-lab.info,172.20.64.16,e6b29ff3-a913-40b9-a006-a6af873b0ed9
node-a8-217.grenoble.iot-lab.info,172.20.64.17,3e7c86ae-87dc-4fdb-acfd-d7b6ef00c98f
node-a8-218.grenoble.iot-lab.info,172.20.64.18,59587e11-3ed1-48ac-81b3-81c1825afdb3
node-a8-219.grenoble.iot-lab.info,172.20.64.19,69d20fd6-f1a4-4a0c-a07b-ccd6b78c1459
node-a8-220.grenoble.iot-lab.info,172.20.64.20,5c33b7ef-f3f4-4ab1-85fb-a634a4ac96d8
node-a8-221.grenoble.iot-lab.info,172.20.64.21,ee4cc8a1-98a1-4684-bd8b-5d6344065945
node-a8-165.grenoble.iot-lab.info,172.20.64.22,46a1473b-c914-4d18-823e-95fc1e759daf
node-a8-166.grenoble.iot-lab.info,172.20.64.23,bb1a229f-164d-4872-ab00-91de57264552
node-a8-167.grenoble.iot-lab.info,172.20.64.24,83e0268f-4f6c-4407-9beb-402c88577a69
node-a8-168.grenoble.iot-lab.info,172.20.64.25,fc0fbc42-b9e6-4c49-b5d3-e08520451916
node-a8-169.grenoble.iot-lab.info,172.20.64.26,5edb7ee8-6544-4453-b00a-80ee1553c096
node-a8-170.grenoble.iot-lab.info,172.20.64.27,18f2a74c-debe-4e4e-9f3b-c80502cd39b1
node-a8-171.grenoble.iot-lab.info,172.20.64.28,f8d0f1bf-a335-4d99-b529-8a23a12977a1
node-a8-173.grenoble.iot-lab.info,172.20.64.29,736ca8b3-bbfb-44ef-9a3d-8cac56aada22
node-a8-174.grenoble.iot-lab.info,172.20.64.30,a5f51636-28ee-4c09-8349-8b3259b6d0ba
node-a8-175.grenoble.iot-lab.info,172.20.64.31,b85059ef-bd08-47c7-ad44-b7e31a4e0f4e
node-a8-176.grenoble.iot-lab.info,172.20.64.32,0039d546-45ae-4847-9c8b-31507405dc27
node-a8-177.grenoble.iot-lab.info,172.20.64.33,b4ed2950-41bb-4072-96be-41f3462eeb83
node-a8-179.grenoble.iot-lab.info,172.20.64.34,59a1e202-985c-4ee7-aa2c-01e4845e1171
node-a8-180.grenoble.iot-lab.info,172.20.64.35,3f2351ee-7512-4b3a-a400-8702fc1422f6
node-a8-181.grenoble.iot-lab.info,172.20.64.36,38b7f7a2-0b10-48af-ada5-8a7afa675837
node-a8-182.grenoble.iot-lab.info,172.20.64.37,b8641801-9d0f-4f21-9e9b-97ea11f30115
node-a8-183.grenoble.iot-lab.info,172.20.64.38,1fdc52ea-026b-46c5-ac87-6085ac010972
node-a8-184.grenoble.iot-lab.info,172.20.64.39,ff555b6f-ddec-4a20-863c-17fe853da037
node-a8-185.grenoble.iot-lab.info,172.20.64.40,346abda8-6aa2-4ddb-b878-edd65adc631d
node-a8-187.grenoble.iot-lab.info,172.20.64.41,c123bcbc-ba7c-4b0e-824e-d778e6a74a2f
node-a8-188.grenoble.iot-lab.info,172.20.64.42,650df1d3-7edb-4fcc-a866-4d40cb23501f
node-a8-189.grenoble.iot-lab.info,172.20.64.43,c4356b98-37db-4195-bd6a-a1424efe30a2
node-a8-190.grenoble.iot-lab.info,172.20.64.44,89119f80-202d-475a-9a04-b42857157502
node-a8-191.grenoble.iot-lab.info,172.20.64.45,97e93ccf-b1d7-4a9d-9e6e-2397ebb8db81
node-a8-192.grenoble.iot-lab.info,172.20.64.46,0c9af223-5da7-4346-a5e5-9b418f35e343
node-a8-193.grenoble.iot-lab.info,172.20.64.47,5c4ac6e5-8651-4c21-b0fd-b6b24c11e451
node-a8-194.grenoble.iot-lab.info,172.20.64.48,7c72cb3d-f685-45fb-aedc-e013bab4f3b3
node-a8-195.grenoble.iot-lab.info,172.20.64.49,359d291b-5265-4d87-9ec2-0c981743bfa0
node-a8-197.grenoble.iot-lab.info,172.20.64.50,784b689e-dbcc-4372-9dac-fae818505db6
node-a8-198.grenoble.iot-lab.info,172.20.64.51,a905fc78-3379-4906-b276-f0cd6da6f4e6
suno-11.sophia.grid5000.fr,172.16.130.11,63a82b02-fa1e-4329-8c64-0194370b5e21
suno-15.sophia.grid5000.fr,172.16.130.15,d840282c-003d-4193-be5f-175e012cd6d1
suno-2.sophia.grid5000.fr,172.16.130.2,bcabeb85-a736-447f-8eb3-6ca0588e10a8
suno-24.sophia.grid5000.fr,172.16.130.24,ce96ffef-901a-4384-921a-87012f85a9d5
suno-25.sophia.grid5000.fr,172.16.130.25,30f8548e-cf60-476a-a9b7-14a4ba2ae1c2
suno-27.sophia.grid5000.fr,172.16.130.27,6c08d55d-ddcb-401d-83ea-042652b1eb23
suno-28.sophia.grid5000.fr,172.16.130.28,afecf20b-5c1e-4f05-b46f-7adcc3c0ae9b
suno-30.sophia.grid5000.fr,172.16.130.30,32d5f924-10c6-4198-ae0b-f76d6ef4a284
suno-32.sophia.grid5000.fr,172.16.130.32,babc1bc4-ea3a-4fbf-ba7b-22860380b305
suno-33.sophia.grid5000.fr,172.16.130.33,82a889d3-22ac-40f4-8b2d-2a896537bad4
suno-34.sophia.grid5000.fr,172.16.130.34,b64e7026-20cc-46d6-9b9e-d18192656391
suno-36.sophia.grid5000.fr,172.16.130.36,30d2d5bc-1286-4d67-84bd-450b4457e5ee
suno-37.sophia.grid5000.fr,172.16.130.37,cf5e66a5-091c-462b-a5ac-c4fa85da0a30
suno-43.sophia.grid5000.fr,172.16.130.43,baca5b53-639c-4f64-91b5-c165fabe49c3
suno-44.sophia.grid5000.fr,172.16.130.44,62791ea5-793c-4e0c-8d0d-ba8a3cd708a4
suno-8.sophia.grid5000.fr,172.16.130.8,96a02e4d-d2a4-4326-8354-598ef354a6da
