actor,node
86b1759c-c746-4eae-aa8c-369c11d96af6,34bce75e-a02c-4a0b-9130-e43f3836a02a
0b7b8b7e-2173-4bd9-a448-c95f343fbebf,34bce75e-a02c-4a0b-9130-e43f3836a02a
48b94012-aa46-4e8c-821f-e4f93e7a1885,b6fe12c5-9bf9-480a-a5ad-a99e4b24dce8
1e40364c-0861-4290-a7d2-eb94eb37c079,b108b4a2-d341-4bb9-9d5f-1f18b7671885
46b63a86-c9e9-452b-8810-5b2525c2f202,b108b4a2-d341-4bb9-9d5f-1f18b7671885
fd7bd165-8764-442b-9ce9-8bda3cc0e033,26990ec5-2d7d-4668-8d82-82722033a5ac
5c92ca13-085b-4622-bd60-53fa6da82228,3b6ebdfb-dce3-48fd-aac3-fb2c283be8d4
535e1988-a085-4b94-8e4e-6b6c3110cb6f,58b43805-2c5a-4f5b-9af5-1b52eb73707d
0e692b82-1e46-4785-9e19-f80a9a724847,3b6ebdfb-dce3-48fd-aac3-fb2c283be8d4
fb91463c-4da1-4088-b843-9d490e4a59ab,832d4e47-e417-4bd9-bed7-1ab4e4f29077
dbfc291c-6cd5-4b7e-811b-4f2f28eaff4a,489f1ab1-7b7e-4381-ac21-f3c51f7bc7ba
5cdee3fb-fa66-41d1-9fa2-5a885b4e2d47,832d4e47-e417-4bd9-bed7-1ab4e4f29077
f829904d-b044-40e9-8402-0a5b57b1f8d4,eded97bb-e241-4e6d-ae1b-5471d5839e05
658ccf56-0552-4cfc-aeb8-ada6bbfe78e5,0b423b97-aeb9-4eb9-8b1a-1a090010bc0c
2a90fd9a-ddc0-447f-9500-67dae640258f,0b423b97-aeb9-4eb9-8b1a-1a090010bc0c
cbf5a811-be1f-46ff-96d5-47f0afd46b88,0adf23f0-694f-4359-b871-66785fba13ac
10d9a127-c8be-4411-aea6-0fb665085840,8fb5d4c5-2c11-48cd-8e51-bb5765bb8111
9e17b1b5-0b45-45d0-898d-c309c9fb81b8,0adf23f0-694f-4359-b871-66785fba13ac
aff76826-bd13-4b6e-b071-2081849a5d9a,892b52c6-9e79-428a-8275-a59740f927a1
4484074f-11e7-46b6-891b-e44f7a5aa751,e60c233c-bdac-40e4-99fb-f5dcd3a0c81a
425d373d-9c58-41fc-a7fe-0af1797c284c,e60c233c-bdac-40e4-99fb-f5dcd3a0c81a
0e1e3f0b-e3ae-4f68-a8ba-236bc55b6c70,9e6fb8c1-ff15-40cb-a57c-676ed13cc735
dac14f35-db48-47b4-8e3c-b84f73fb7436,9e6fb8c1-ff15-40cb-a57c-676ed13cc735
e38a273f-1e78-4075-bbca-30235a226d3e,14e83bec-db4e-4640-85d5-b445a5e50b9c
be1d1a30-45e6-4b38-ab29-c8639b00e706,9e472621-f36f-408b-9697-8675ed247277
b308e70f-9ce9-4a05-80f4-ac9bb77eccea,a5dbe1fd-0dfe-4680-842f-05faa19cef08
635d4f24-946d-45c9-841c-6f2a70cc638d,a5dbe1fd-0dfe-4680-842f-05faa19cef08
743e7397-240e-41d7-ab70-a3ae96297cf4,e0b0fd7a-df1f-4e7c-a567-ff2b3ea89452
cf6cc545-86fc-4481-94db-55503ffbfe6c,5b3f9692-80cc-474c-82e2-43f1a1671272
08d68dd8-8f83-4314-8d12-175007bb5522,5b3f9692-80cc-474c-82e2-43f1a1671272
01bcff4e-28f4-4c3a-8166-93e3733a28d9,1ab02509-908c-408c-babc-931d42e8d255
aa58ba10-838b-40ec-9e41-780c2d3a9500,660b016c-91d2-4c7c-853c-8cf4a01b32f8
e38d277a-8195-48e6-b791-ee32df7c3a46,660b016c-91d2-4c7c-853c-8cf4a01b32f8
b33d4bc8-17a5-4a3d-b083-425c1b94f1f7,064ba3dd-093b-470e-9702-5cc2f6954bec
a627f192-2846-4bc1-8685-29a8776f9f73,e1b6688e-8f20-4877-98fe-93d6ff841a99
b1f2e5f7-dd26-4636-b72b-d45436f8f586,064ba3dd-093b-470e-9702-5cc2f6954bec
ef0dab57-d570-453a-88ea-1e4f37e3a4df,a31bcf14-8783-42b7-89e2-95c0ad074f59
18390ff1-67af-421d-bff4-5e8b12461bbb,7b888feb-a5c2-4761-b50e-0f0844ec1770
3178afa6-4116-43a5-a4da-5aa45e0fd536,7b888feb-a5c2-4761-b50e-0f0844ec1770
28b2f3df-d7f3-4251-8965-49aaf394716d,9cbb7170-b929-4500-996d-4c19f6f41c67
1bbe457b-5934-4b90-9260-bee4c04571ee,9cbb7170-b929-4500-996d-4c19f6f41c67
79803978-cd96-4298-b05c-01ea202a72c2,7d85cb75-6abc-4c8b-8c12-64a49e7bd6b3
4ad8a398-d9a0-4fc4-9d8f-6a416b85d617,0135650c-cb02-42a1-9d14-8fb9ef8e33a5
f756df74-777e-43a2-a9d9-17de66105b59,3f993c59-cd62-4810-bc4c-cf083e076e6a
7ea27762-36b4-4d89-8a05-ddce6012b68e,0135650c-cb02-42a1-9d14-8fb9ef8e33a5
5a79a63a-c10c-484d-8654-8b38cc19208b,34bce75e-a02c-4a0b-9130-e43f3836a02a
40281119-a7be-4f18-889d-5625f90b550b,e8c7c7c9-1864-4d15-9743-6351f12c2411
2a363d24-2ca7-4b72-93a8-1ee9c25e5747,34bce75e-a02c-4a0b-9130-e43f3836a02a
6df11e2e-285c-4564-9f09-f2c90bc712a4,b108b4a2-d341-4bb9-9d5f-1f18b7671885
e962dd8e-0cb4-4444-9295-9855d9c64d25,b108b4a2-d341-4bb9-9d5f-1f18b7671885
5052f23f-5c4f-4659-aa2b-b75021646159,d689fe28-3634-4700-86ba-d4ab27b3cf08
7e80ff65-7225-4257-97dd-f2604293d6d2,3b6ebdfb-dce3-48fd-aac3-fb2c283be8d4
f714fc0c-5429-4cd9-aa28-969965be5165,0ebc39d4-af59-4075-bf2f-afd13eccdffe
dbec169a-46bf-43be-91a4-e795b48a49d7,3b6ebdfb-dce3-48fd-aac3-fb2c283be8d4
17c7be1f-b89c-4a05-98ab-e8b01eed6a9d,1c73f658-78f5-49f8-932f-8edad81fca59
8f807e4f-6d1e-4ccc-aa46-fc6212910dd2,832d4e47-e417-4bd9-bed7-1ab4e4f29077
1fe8ffea-44b2-44ec-9d9e-ea042d9cd71e,832d4e47-e417-4bd9-bed7-1ab4e4f29077
869367a2-09c4-463f-8add-d51c8d976b4d,0b423b97-aeb9-4eb9-8b1a-1a090010bc0c
6e2034df-efdc-423b-9421-c911a5910cf8,0b423b97-aeb9-4eb9-8b1a-1a090010bc0c
895318cc-4776-4716-8805-9bd230282b8f,afdc3103-cbe3-4cf7-8415-e7d81dfa12a7
69376934-aeb8-4253-940f-f12a8ef2b466,0adf23f0-694f-4359-b871-66785fba13ac
a9916318-d120-4632-89f1-1f2600bb644e,20610e78-8552-4e70-8ab0-5074b0aad6c1
8ac13d23-f57e-47c6-915e-8547f514a062,0adf23f0-694f-4359-b871-66785fba13ac
657cede2-c994-491b-979b-16d1bd91efcb,75832dd9-56f0-4897-9c8e-ed0fb1b9d901
e48951d9-2dde-4006-ac51-4874879de5b5,e60c233c-bdac-40e4-99fb-f5dcd3a0c81a
fff11ddf-f241-42ce-909d-15fefb66757f,e60c233c-bdac-40e4-99fb-f5dcd3a0c81a
e207c068-8a55-4f17-a3ac-ae47f978b172,9e6fb8c1-ff15-40cb-a57c-676ed13cc735
6ccb38e4-d1e0-43d3-871f-a8429bf1225d,bfa471e0-0963-45b3-bae7-96e65e460482
3d0363d0-9686-4177-bf0b-a02cac4dea0b,9e6fb8c1-ff15-40cb-a57c-676ed13cc735
3a56edac-09fe-4382-94e1-920a12e420f0,a5dbe1fd-0dfe-4680-842f-05faa19cef08
54831926-3535-4dbd-aadc-8c927439f1ef,bc8c9f1b-f265-48d1-abda-cc54ef4a1e64
c7d69e79-97e3-41f6-be1c-235093e18412,a5dbe1fd-0dfe-4680-842f-05faa19cef08
51523f08-ad4a-442b-97d2-17eef0699783,5b3f9692-80cc-474c-82e2-43f1a1671272
4fd07804-6088-41f3-a6e1-8553483a8a2d,5b3f9692-80cc-474c-82e2-43f1a1671272
9168af73-a740-46f4-952e-1192da2e075e,2822937d-03b1-4247-9e91-021ac1fd8cbe
7dac22ca-5895-4a69-965e-24fd629c7853,8253d204-9e11-4ff7-8c12-84d33bbc8175
fdaf6505-dfd2-4012-b69b-c88fe1b84949,660b016c-91d2-4c7c-853c-8cf4a01b32f8
39c9ea34-2216-4fcf-9872-903ebf7cb2ee,660b016c-91d2-4c7c-853c-8cf4a01b32f8
15bb147c-8f94-469f-b64c-a5511b36985b,efaab897-7bbe-4d7f-ab84-5081c6c6e4f0
ca0deb02-51d7-43d2-8102-1ffd7251ec5c,064ba3dd-093b-470e-9702-5cc2f6954bec
6ea4dc9b-fc9e-4b4a-bb70-a84db3260608,064ba3dd-093b-470e-9702-5cc2f6954bec
f990b29f-71de-41c2-b11f-adf5fc11657b,4ea796f9-4ff8-401b-8674-84191b5dfc0f
8ff48fdb-32b4-491f-8029-777b64f3e43f,7b888feb-a5c2-4761-b50e-0f0844ec1770
5a21d078-fc68-47d9-9782-8b55d8694c28,7b888feb-a5c2-4761-b50e-0f0844ec1770
cd49b0e6-86b1-4e69-9445-6fdc733aa0cc,9cbb7170-b929-4500-996d-4c19f6f41c67
ebb62b68-9824-44ef-9df6-6ad874d40f84,9cbb7170-b929-4500-996d-4c19f6f41c67
a2da7e56-0ba2-4324-8201-f9da606271a6,b935726b-08a6-4e76-a5e4-e9adc91d5a50
5366955b-2dcf-42e2-b333-fcbc6bc8a277,fb6b35fd-8004-4dd1-9be7-b1727f7a039e
2f6b10e8-8a34-4454-bc4c-7dd84e5fd8b8,0135650c-cb02-42a1-9d14-8fb9ef8e33a5
c870ed18-02f3-4ab0-9c1e-3ba72a0d1a81,0135650c-cb02-42a1-9d14-8fb9ef8e33a5
0f3ee821-6ae0-4b3b-94e7-475d49944d9e,ffa6f436-fd07-4966-83d6-42d192b24088
a5c57878-2f17-4368-bc88-a11607d2aa43,34bce75e-a02c-4a0b-9130-e43f3836a02a
46a44e8c-8aa9-4bed-ba0b-dca7babc2117,34bce75e-a02c-4a0b-9130-e43f3836a02a
e2c9a628-58e6-4dfb-a9e6-56be8d1cc65a,b108b4a2-d341-4bb9-9d5f-1f18b7671885
cd117ccf-691d-4424-bb28-8c4f780407df,b108b4a2-d341-4bb9-9d5f-1f18b7671885
d089f603-9c42-430d-81f5-be528a98fb7f,886208e3-4f57-4bdb-b330-819e430412f6
2dad106a-6bf0-44ec-a2b7-99e62eb65079,3b6ebdfb-dce3-48fd-aac3-fb2c283be8d4
577c741b-59fb-4075-b32b-3af71613722e,3b6ebdfb-dce3-48fd-aac3-fb2c283be8d4
9c82da51-6ac0-4b39-a6b1-a33d4db9f53c,06a70b33-8ba6-4fd2-ad4d-ae5c6eb5e891
178586ed-c3ec-4e67-842a-5b77361d2549,27a776da-e41b-433d-a138-71689c73e809
b8fc1988-1939-42a3-bb26-b3e65bbacee8,832d4e47-e417-4bd9-bed7-1ab4e4f29077
6df2ac30-a20b-4b74-a435-673b50459926,832d4e47-e417-4bd9-bed7-1ab4e4f29077
93c29ff1-9b06-474e-986c-38e36e4ac9d3,0b423b97-aeb9-4eb9-8b1a-1a090010bc0c
50d51536-0b54-4034-bf07-60544bc157ee,0b423b97-aeb9-4eb9-8b1a-1a090010bc0c
4c098573-0fb2-4a6e-9092-e761dab8a190,a24db2a7-422c-4836-a5e5-183e0623ff7e
bc6c187b-914c-4a0f-9387-db0090bef4de,688e8ccb-dcc4-4921-afe9-b370f518b60e
31ef7669-d1f4-4029-8d64-49bc1030ab4b,0adf23f0-694f-4359-b871-66785fba13ac
50f094ea-1d56-4c5b-9cfc-8310732c4935,0adf23f0-694f-4359-b871-66785fba13ac
3f838dc2-db36-478e-ae97-15a2759a6a68,37a9a965-1c4c-47e1-99b9-e3dda3d20586
873ba784-8d5d-41bc-99d7-8425fe42922e,e60c233c-bdac-40e4-99fb-f5dcd3a0c81a
4080d724-75e5-470d-9908-3b09b929b522,e60c233c-bdac-40e4-99fb-f5dcd3a0c81a
4ea8a74e-de69-4580-87d1-df92b8090df9,9e6fb8c1-ff15-40cb-a57c-676ed13cc735
a76c17db-5700-4687-8688-57539fa0734b,9e6fb8c1-ff15-40cb-a57c-676ed13cc735
6a645721-e9a8-45cf-b121-366ed17e10c6,fc4f654d-43c7-44ad-b887-5c42485114a7
db3cd244-3536-482e-94d4-02bd4060c194,a5dbe1fd-0dfe-4680-842f-05faa19cef08
d3708bb8-de55-4dee-af57-d1381187e34a,a5dbe1fd-0dfe-4680-842f-05faa19cef08
387028dc-ccd7-4b9f-b800-6459ef9e73a7,c30da44e-699e-4845-8138-4cb954a9609f
8428a1fd-9b67-466a-a31e-d8d4e7fa6bfe,3ff4f42e-c98b-40a4-9490-3ce76ea6f413
16092d5b-4ae7-45d7-94e6-299d0f71981f,5b3f9692-80cc-474c-82e2-43f1a1671272
4c9ac6cf-5a60-4efa-8ade-256817933c2b,5b3f9692-80cc-474c-82e2-43f1a1671272
96b6be4c-d323-434a-bce0-90d463e3778a,660b016c-91d2-4c7c-853c-8cf4a01b32f8
0fb659eb-ceb7-4106-a93e-7f1fa0407418,1ad27e26-b852-4669-a0ee-4a2093757aa5
52e2d30e-8e21-495e-82ae-40a990d0938e,660b016c-91d2-4c7c-853c-8cf4a01b32f8
92b6f5df-d7c1-4419-a586-6579941b3068,064ba3dd-093b-470e-9702-5cc2f6954bec
81b9885c-5a73-4141-8e7f-476d2edcb2f1,064ba3dd-093b-470e-9702-5cc2f6954bec
79fe20db-cd16-4fff-aa1e-61077b942580,ddfa1955-af16-4abc-a3ad-071e230dddc5
1f6e1032-6d20-46c8-919d-8533f2cb7fab,7b888feb-a5c2-4761-b50e-0f0844ec1770
8790585d-c8d2-46b1-8a8e-da7a99cc498e,6b59785a-5038-468c-9c92-f03c94dfac7a
15668231-e40f-4ba9-8682-46a4c31f2e0a,7b888feb-a5c2-4761-b50e-0f0844ec1770
c52aa3b7-9526-4670-8af6-d24499ad80dc,bb328e1f-4351-4a92-b572-78bcf24f2e13
9bbd9516-e566-4f62-96f8-870c06d9906c,9cbb7170-b929-4500-996d-4c19f6f41c67
b3655659-ba43-4106-ab69-a909fd851734,9cbb7170-b929-4500-996d-4c19f6f41c67
e5f187ce-08e7-4ce4-8c6a-aa7a7e1c0c3d,0135650c-cb02-42a1-9d14-8fb9ef8e33a5
fa90d3f6-eafb-463c-b941-fabc78be3c86,0135650c-cb02-42a1-9d14-8fb9ef8e33a5
a1c8cf3a-3b5e-4280-9df0-5853b4f20dac,bdcf5341-1f45-4d69-8c00-54875c7f6f98
b64dfee2-4508-4afd-a766-ddf5dc914ecd,34bce75e-a02c-4a0b-9130-e43f3836a02a
e977d18a-7577-4c5d-80d6-2432b7fa0e5e,34bce75e-a02c-4a0b-9130-e43f3836a02a
68827e12-3293-4489-b370-6d8cc80a2520,359b51c0-a000-4c40-96d6-5aff713f28c4
318fba45-7a27-4751-abe7-99c5c448dd82,b108b4a2-d341-4bb9-9d5f-1f18b7671885
a432434d-f392-44fc-9bd9-619c0a899c50,b108b4a2-d341-4bb9-9d5f-1f18b7671885
4b5ce4af-b007-41cd-afac-0cfacc1ecff6,4bf21adc-4e15-40b0-b44c-4b978c56304f
f6556671-bf34-49e2-a184-3e0f103b21ae,3b6ebdfb-dce3-48fd-aac3-fb2c283be8d4
91b74c8d-d69d-4ce8-a6a5-c37d374148ad,3b6ebdfb-dce3-48fd-aac3-fb2c283be8d4
7a779a59-2b73-4403-b0a1-6ade1fa5d771,7b7e57a1-2fa2-41c3-8048-973428e4b047
3e9aa5c7-bf79-4db0-992b-7c4729479d2f,436749cb-84e2-4190-aedc-bb8dd1286834
029136a6-6658-4502-96f1-99d3d4a181c3,832d4e47-e417-4bd9-bed7-1ab4e4f29077
37d4ea36-26ca-4f37-af7e-0e7e8348c55d,832d4e47-e417-4bd9-bed7-1ab4e4f29077
c4eeaa40-4b7f-4f1a-a97c-f6e736bf0aac,2a045276-d173-4f41-a329-b46fecc5a338
80ba89c7-2080-482e-8805-2f2a28d1db59,0b423b97-aeb9-4eb9-8b1a-1a090010bc0c
025c9064-2535-4403-b66a-9ba3a4c8c6af,0b423b97-aeb9-4eb9-8b1a-1a090010bc0c
