node,ip,uuid
node-a8-199.grenoble.iot-lab.info,172.20.64.1,27a776da-e41b-433d-a138-71689c73e809
node-a8-200.grenoble.iot-lab.info,172.20.64.2,b6fe12c5-9bf9-480a-a5ad-a99e4b24dce8
node-a8-201.grenoble.iot-lab.info,172.20.64.3,0ebc39d4-af59-4075-bf2f-afd13eccdffe
node-a8-202.grenoble.iot-lab.info,172.20.64.4,a24db2a7-422c-4836-a5e5-183e0623ff7e
node-a8-204.grenoble.iot-lab.info,172.20.64.5,26990ec5-2d7d-4668-8d82-82722033a5ac
node-a8-205.grenoble.iot-lab.info,172.20.64.6,1c73f658-78f5-49f8-932f-8edad81fca59
node-a8-206.grenoble.iot-lab.info,172.20.64.7,688e8ccb-dcc4-4921-afe9-b370f518b60e
node-a8-207.grenoble.iot-lab.info,172.20.64.8,58b43805-2c5a-4f5b-9af5-1b52eb73707d
node-a8-208.grenoble.iot-lab.info,172.20.64.9,afdc3103-cbe3-4cf7-8415-e7d81dfa12a7
node-a8-209.grenoble.iot-lab.info,172.20.64.10,37a9a965-1c4c-47e1-99b9-e3dda3d20586
node-a8-210.grenoble.iot-lab.info,172.20.64.11,489f1ab1-7b7e-4381-ac21-f3c51f7bc7ba
node-a8-211.grenoble.iot-lab.info,172.20.64.12,20610e78-8552-4e70-8ab0-5074b0aad6c1
node-a8-212.grenoble.iot-lab.info,172.20.64.13,fc4f654d-43c7-44ad-b887-5c42485114a7
node-a8-214.grenoble.iot-lab.info,172.20.64.14,eded97bb-e241-4e6d-ae1b-5471d5839e05
node-a8-216.grenoble.iot-lab.info,172.20.64.15,75832dd9-56f0-4897-9c8e-ed0fb1b9d901
node-a8-217.grenoble.iot-lab.info,172.20.64.16,c30da44e-699e-4845-8138-4cb954a9609f
node-a8-218.grenoble.iot-lab.info,172.20.64.17,8fb5d4c5-2c11-48cd-8e51-bb5765bb8111
node-a8-219.grenoble.iot-lab.info,172.20.64.18,bfa471e0-0963-45b3-bae7-96e65e460482
node-a8-220.grenoble.iot-lab.info,172.20.64.19,3ff4f42e-c98b-40a4-9490-3ce76ea6f413
node-a8-221.grenoble.iot-lab.info,172.20.64.20,892b52c6-9e79-428a-8275-a59740f927a1
node-a8-165.grenoble.iot-lab.info,172.20.64.21,bc8c9f1b-f265-48d1-abda-cc54ef4a1e64
node-a8-166.grenoble.iot-lab.info,172.20.64.22,1ad27e26-b852-4669-a0ee-4a2093757aa5
node-a8-167.grenoble.iot-lab.info,172.20.64.23,14e83bec-db4e-4640-85d5-b445a5e50b9c
node-a8-168.grenoble.iot-lab.info,172.20.64.24,2822937d-03b1-4247-9e91-021ac1fd8cbe
node-a8-169.grenoble.iot-lab.info,172.20.64.25,ddfa1955-af16-4abc-a3ad-071e230dddc5
node-a8-170.grenoble.iot-lab.info,172.20.64.26,9e472621-f36f-408b-9697-8675ed247277
node-a8-171.grenoble.iot-lab.info,172.20.64.27,8253d204-9e11-4ff7-8c12-84d33bbc8175
node-a8-173.grenoble.iot-lab.info,172.20.64.28,6b59785a-5038-468c-9c92-f03c94dfac7a
node-a8-174.grenoble.iot-lab.info,172.20.64.29,e0b0fd7a-df1f-4e7c-a567-ff2b3ea89452
node-a8-175.grenoble.iot-lab.info,172.20.64.30,efaab897-7bbe-4d7f-ab84-5081c6c6e4f0
node-a8-176.grenoble.iot-lab.info,172.20.64.31,bb328e1f-4351-4a92-b572-78bcf24f2e13
node-a8-177.grenoble.iot-lab.info,172.20.64.32,1ab02509-908c-408c-babc-931d42e8d255
node-a8-179.grenoble.iot-lab.info,172.20.64.33,4ea796f9-4ff8-401b-8674-84191b5dfc0f
node-a8-180.grenoble.iot-lab.info,172.20.64.34,bdcf5341-1f45-4d69-8c00-54875c7f6f98
node-a8-181.grenoble.iot-lab.info,172.20.64.35,e1b6688e-8f20-4877-98fe-93d6ff841a99
node-a8-182.grenoble.iot-lab.info,172.20.64.36,b935726b-08a6-4e76-a5e4-e9adc91d5a50
node-a8-183.grenoble.iot-lab.info,172.20.64.37,359b51c0-a000-4c40-96d6-5aff713f28c4
node-a8-184.grenoble.iot-lab.info,172.20.64.38,a31bcf14-8783-42b7-89e2-95c0ad074f59
node-a8-185.grenoble.iot-lab.info,172.20.64.39,fb6b35fd-8004-4dd1-9be7-b1727f7a039e
node-a8-187.grenoble.iot-lab.info,172.20.64.40,4bf21adc-4e15-40b0-b44c-4b978c56304f
node-a8-188.grenoble.iot-lab.info,172.20.64.41,7d85cb75-6abc-4c8b-8c12-64a49e7bd6b3
node-a8-189.grenoble.iot-lab.info,172.20.64.42,ffa6f436-fd07-4966-83d6-42d192b24088
node-a8-190.grenoble.iot-lab.info,172.20.64.43,7b7e57a1-2fa2-41c3-8048-973428e4b047
node-a8-191.grenoble.iot-lab.info,172.20.64.44,3f993c59-cd62-4810-bc4c-cf083e076e6a
node-a8-192.grenoble.iot-lab.info,172.20.64.45,886208e3-4f57-4bdb-b330-819e430412f6
node-a8-193.grenoble.iot-lab.info,172.20.64.46,436749cb-84e2-4190-aedc-bb8dd1286834
node-a8-194.grenoble.iot-lab.info,172.20.64.47,e8c7c7c9-1864-4d15-9743-6351f12c2411
node-a8-195.grenoble.iot-lab.info,172.20.64.48,06a70b33-8ba6-4fd2-ad4d-ae5c6eb5e891
node-a8-197.grenoble.iot-lab.info,172.20.64.49,2a045276-d173-4f41-a329-b46fecc5a338
node-a8-198.grenoble.iot-lab.info,172.20.64.50,d689fe28-3634-4700-86ba-d4ab27b3cf08
uvb-28.sophia.grid5000.fr,172.16.132.28,212d4e8f-f2e3-4654-b55e-af55bf46b80a
uvb-29.sophia.grid5000.fr,172.16.132.29,34bce75e-a02c-4a0b-9130-e43f3836a02a
uvb-31.sophia.grid5000.fr,172.16.132.31,b108b4a2-d341-4bb9-9d5f-1f18b7671885
uvb-33.sophia.grid5000.fr,172.16.132.33,3b6ebdfb-dce3-48fd-aac3-fb2c283be8d4
uvb-34.sophia.grid5000.fr,172.16.132.34,832d4e47-e417-4bd9-bed7-1ab4e4f29077
uvb-35.sophia.grid5000.fr,172.16.132.35,0b423b97-aeb9-4eb9-8b1a-1a090010bc0c
uvb-36.sophia.grid5000.fr,172.16.132.36,0adf23f0-694f-4359-b871-66785fba13ac
uvb-37.sophia.grid5000.fr,172.16.132.37,e60c233c-bdac-40e4-99fb-f5dcd3a0c81a
uvb-4.sophia.grid5000.fr,172.16.132.4,660b016c-91d2-4c7c-853c-8cf4a01b32f8
uvb-42.sophia.grid5000.fr,172.16.132.42,9e6fb8c1-ff15-40cb-a57c-676ed13cc735
uvb-43.sophia.grid5000.fr,172.16.132.43,a5dbe1fd-0dfe-4680-842f-05faa19cef08
uvb-44.sophia.grid5000.fr,172.16.132.44,5b3f9692-80cc-474c-82e2-43f1a1671272
uvb-5.sophia.grid5000.fr,172.16.132.5,064ba3dd-093b-470e-9702-5cc2f6954bec
uvb-6.sophia.grid5000.fr,172.16.132.6,7b888feb-a5c2-4761-b50e-0f0844ec1770
uvb-8.sophia.grid5000.fr,172.16.132.8,9cbb7170-b929-4500-996d-4c19f6f41c67
uvb-9.sophia.grid5000.fr,172.16.132.9,0135650c-cb02-42a1-9d14-8fb9ef8e33a5
