actor,node
75984801-3594-4743-b28d-5ecf50d54d3d,2441ec17-7f8f-435c-8d14-5b317fde7970
0ce1e9ab-7822-4335-9826-5585093a86e3,ae0449d5-19c2-4e97-9344-d252e89aa326
1fa6a71e-bf67-45e1-abf3-301f8f280fab,d4ead65c-96ad-4c5e-8549-0c74af352039
14812754-2a6d-403f-aca8-8743bbd45e1e,99b21f57-196e-4a73-8031-46e10cfd9c39
91ae326f-5c8c-4125-9b25-70ce515f4e37,4ef67ffe-6dad-465e-9918-8ebc5c93372e
72ab62a4-4144-4f46-958e-6162de37e82b,14b6028a-a9aa-458f-b123-57c28aa9c4cb
91ba5ace-9768-4995-bcbb-6006aa6e22aa,2441ec17-7f8f-435c-8d14-5b317fde7970
fc60b6c5-b51e-498b-984f-094851f378b7,ebde4ad3-82d7-44e0-bada-5905b9dead08
59869f7f-e3a9-418e-b553-579bf04973be,2441ec17-7f8f-435c-8d14-5b317fde7970
d9a32196-f983-4a5e-bab0-2491f53a7c6a,5b660390-db69-4d64-912c-3ee8729d351c
b99d9e6b-0b03-44b8-a064-eadfd9d03b45,d4c923a3-e238-4d72-b89b-3d750ee70794
d220764b-caff-4333-ba06-f4887b8e30cc,a6a53bfc-653d-4067-8b06-7ebdd180c142
31641956-0818-4f93-a25c-972bc7045b8f,a6a53bfc-653d-4067-8b06-7ebdd180c142
82ebc7ba-ff25-452c-9b4b-700d7bcf54fc,6b97cdd6-d92d-4bfb-b81a-3bf0c241ecce
d29d10da-0342-4672-9e5f-b8800ed31818,a6a53bfc-653d-4067-8b06-7ebdd180c142
d503afd0-65b5-4b40-bfb2-9a764c5ce4ea,b6ab7640-ce40-443b-9c2d-9f0a6ed892e6
6c808560-8fc4-4900-a9c3-df43d946f9be,f1cc536c-3875-4ce7-be24-e51f39b235e5
69d1320e-c145-45e1-b802-71acccd39754,f1cc536c-3875-4ce7-be24-e51f39b235e5
ae4e46f7-a001-4241-8a3f-d40ee1a16893,d9a71cf8-73c3-4841-855d-b88ccbcd65e3
753717f6-2374-4a0a-bce7-0a8798a3f8f1,fadaef46-08de-41c9-aaa2-cea18d598f0e
f81169c7-3969-4533-b727-ecf8530fb5d1,5b7c576a-1dc6-4556-ac8c-af971236e1c2
626c8b3f-5db9-4a1f-9e67-e1145164f7ef,4e4c4ab0-abec-48e3-8269-653726fb9241
78ca28c9-6705-4488-a9c1-9c9254219a5c,f2e35432-bd42-4d6f-a4a4-286b89c5d7b7
aa5a48c8-e592-42b9-a78e-aec3c4142c96,4e4c4ab0-abec-48e3-8269-653726fb9241
2b11171f-612e-4e9a-aaf9-52a243113fe7,44c69c38-b5ce-4396-8485-8f6a41541c1b
643dead5-9d19-4a3a-a791-1eeba9ac0825,3e059431-fa89-483a-aff0-493475752797
6adb4d5e-cb92-45d9-88f8-e0d815363b89,44c69c38-b5ce-4396-8485-8f6a41541c1b
e1c695be-6041-48ca-8d9c-f806d555e354,80f54195-bba5-463f-889e-3fcb94691e7c
6825ba85-98ab-4db8-b399-059957615f9c,80f54195-bba5-463f-889e-3fcb94691e7c
243beab6-8cf7-4320-acdc-272bec91c199,88284847-16aa-4c2f-892f-55872df76cc3
fc5c5bed-6133-4148-b7c6-e9dce7a900fc,14b6028a-a9aa-458f-b123-57c28aa9c4cb
ba94f798-8a06-41fc-8602-657bdd64e174,14b6028a-a9aa-458f-b123-57c28aa9c4cb
e712db59-5893-44dd-a4b4-3f589b600067,67ec11b5-fa78-4856-a64f-0c3c03215498
6ff8154c-db29-47f3-b6b9-009d9ba55d08,74a4d0c0-cc48-424b-8649-ef3d18cbe801
9232630f-ce8c-44d6-b4f8-68babc58717a,74a4d0c0-cc48-424b-8649-ef3d18cbe801
163122c3-51be-4684-9bf9-52f051df7a8e,37a9789c-68da-4d0f-9211-bf51819e665b
fba0ec95-2b34-47b8-b913-dfd8785c48e4,f6cc48a3-e371-4fd7-9527-4e697edf27ea
6ad8bf25-e9c6-4f6b-8fb3-949e11bc9766,2441ec17-7f8f-435c-8d14-5b317fde7970
92e737f4-e320-4f76-aa13-fb773e5aea6c,2441ec17-7f8f-435c-8d14-5b317fde7970
8bb69c0a-bbaf-4557-9937-9a32dc971b9a,4b25d53e-1032-43e6-9ff1-5503676ab448
1401951c-2ecc-4d51-8541-1bf148fb1100,f1cc536c-3875-4ce7-be24-e51f39b235e5
09c5a0ff-7975-448c-8ff8-e3be1ed18947,99b21f57-196e-4a73-8031-46e10cfd9c39
041de688-7012-4a6a-88c2-f318469ec20e,f1cc536c-3875-4ce7-be24-e51f39b235e5
b3c4afdb-031b-4f91-a666-3b60e58c9e02,f1cc536c-3875-4ce7-be24-e51f39b235e5
155a3977-5119-4045-ba71-524c42037819,256733f3-a3ea-4ca8-b047-6f65bbf8b29c
d53cb5a6-bbac-4cb4-a998-98ffc3eb6203,99b21f57-196e-4a73-8031-46e10cfd9c39
6667602d-f85c-4d2e-9370-dcc86819cebc,f1cc536c-3875-4ce7-be24-e51f39b235e5
fb2ca8d6-49ca-4963-9dc0-a5afde0c8e53,e8e0c2e8-d606-44f8-b4c7-b7d5eb0d21c0
513f9329-31ec-4703-91ba-b56fa2baf9b8,92cb56af-0dac-4cac-ad3e-d735e465488d
bac45f84-83be-4448-8b79-1171ef94568a,92cb56af-0dac-4cac-ad3e-d735e465488d
a9010ed2-3116-4350-bfe2-99d2f3d62f1f,2a529ed5-e059-4979-a991-d88f358e3814
0a16a938-e375-4994-9c65-2c4816beb2c7,f1cc536c-3875-4ce7-be24-e51f39b235e5
6e1bac5b-b85a-42da-b137-0f139b9e35c7,99b21f57-196e-4a73-8031-46e10cfd9c39
a57a0cd6-6cc9-4365-ab87-921c41dcd379,bad807f1-b61e-41ab-92e6-1550ef89ed7d
d669b6c6-e720-4223-9ec6-778a37fb3892,5b7c576a-1dc6-4556-ac8c-af971236e1c2
6ad27a1a-2800-4bf1-9a25-1350d44fcd13,0db28c0c-7cf4-406e-ac86-d16d9ad52eef
69ebff3b-1b74-481e-a7ac-f39821cc017b,14b6028a-a9aa-458f-b123-57c28aa9c4cb
03b2cb76-b282-4cc8-9a12-d9ebd94fb111,5916530e-9831-4d64-941a-53a60a11069d
9ed16da2-a3b2-4ea7-ab0a-2f3187d5a40e,44c69c38-b5ce-4396-8485-8f6a41541c1b
de80b6c7-6959-4731-894d-fc9d57c64948,44c69c38-b5ce-4396-8485-8f6a41541c1b
5999b20a-ab50-4868-b88d-84160a60a356,616dac4d-4061-4e42-9a78-2b147191736c
4bd4dcce-70dd-4dc5-9f56-5439d7e97bfa,44c69c38-b5ce-4396-8485-8f6a41541c1b
6649b082-1bf3-41bc-b2e4-336e89a2bd59,44c69c38-b5ce-4396-8485-8f6a41541c1b
bf5f1e38-8bce-4ef2-befd-fab33d9e038a,530dc56e-18d3-4830-b602-ca37483ed95b
0843ea84-7ed6-4d1c-9e6e-a4b81b35e082,44c69c38-b5ce-4396-8485-8f6a41541c1b
5fef80d9-a5b0-4901-8236-578574c76d50,44c69c38-b5ce-4396-8485-8f6a41541c1b
5b54e18e-c57e-4258-a516-feec337df61c,ae0449d5-19c2-4e97-9344-d252e89aa326
438488fc-5dd7-435e-add3-1c88ce89d8b6,865ef287-b9c0-48aa-9ac0-55e74bd86411
14e577f7-4c5f-47f0-8520-f4ff25a97584,ae0449d5-19c2-4e97-9344-d252e89aa326
78260f86-5907-4917-884d-1b1b17e068e8,ae0449d5-19c2-4e97-9344-d252e89aa326
d9992fd7-5faf-43ac-873a-c599ea5fe70e,67040d41-ef10-497c-9870-14babcee56ee
3c49c83d-fb34-425a-ae7d-8aa3a4676874,ae0449d5-19c2-4e97-9344-d252e89aa326
6eaf595d-89aa-4978-bccf-909ca879fd6e,d4c923a3-e238-4d72-b89b-3d750ee70794
481fe042-de24-4d58-88bc-24abc98a7d1d,1a8b7516-5eaa-4cd1-b184-86cd09d3d163
c4d5bb81-88d3-4cdf-b311-a3fb8f2d15a4,d4c923a3-e238-4d72-b89b-3d750ee70794
f8e44052-3995-4662-802d-7f40e81cec46,d4c923a3-e238-4d72-b89b-3d750ee70794
8510f5ef-b920-40c9-9d77-b2395c5a36eb,d9a71cf8-73c3-4841-855d-b88ccbcd65e3
30cbf68a-68fb-4677-a90e-77c0ae403b0b,07a94a4e-2aa8-4529-a0be-42fac62de7b3
5e9a2ec3-be70-4ae0-accc-d249bb229907,fc705e60-e838-4d15-b33f-b592489b931c
063ffa0b-3614-4944-8a8c-48add4ff43ce,a9499897-3a5f-4a50-8fea-938e48bfcf77
96d70b1c-e95c-4576-9881-37a704b68a0e,fc705e60-e838-4d15-b33f-b592489b931c
2d75fa01-4870-48ec-9e3d-79d4573831bd,8efb62ca-9710-4a2c-96bc-19153e2f79b1
cb8d9441-3219-4d0d-a04c-17d183167b34,14b6028a-a9aa-458f-b123-57c28aa9c4cb
e86e20b7-bf5e-4578-9852-49eb7fbb7e49,14b6028a-a9aa-458f-b123-57c28aa9c4cb
a0b12478-457b-4896-a22e-9edc843aa2ff,d9a71cf8-73c3-4841-855d-b88ccbcd65e3
466c66f0-5e8e-4aa7-ac6f-3ffaad1f662b,d9a71cf8-73c3-4841-855d-b88ccbcd65e3
0a348d75-6288-4b17-8530-c88a67e444fa,b4c2c23d-e44a-4199-8366-bf647b29e709
f450be31-8ca1-402c-aae8-26ea5f9d05fa,14b6028a-a9aa-458f-b123-57c28aa9c4cb
89098b69-8adb-44f7-a775-dc781529292b,bcedbeea-3af5-4a5f-b176-16a723e2c17b
438f23ae-68e1-4102-a96f-8861d9d7b6b7,14b6028a-a9aa-458f-b123-57c28aa9c4cb
e1dce53c-150f-4b4f-8eb3-1abfee38f389,74a4d0c0-cc48-424b-8649-ef3d18cbe801
a3359870-af0b-46eb-9bcc-112a615d611d,74a4d0c0-cc48-424b-8649-ef3d18cbe801
a084e5e5-0555-4166-9804-2489b47ab26f,95efdbe2-4733-4b19-864c-f77c1e61938e
f78f9474-7d59-4668-92de-dee823f71747,14b6028a-a9aa-458f-b123-57c28aa9c4cb
9824781b-944b-4274-9672-9e743239fe64,14b6028a-a9aa-458f-b123-57c28aa9c4cb
5f5e72ec-f53f-4980-b987-c8f66e3e023f,d26eb4e0-a7b6-428c-aa3e-ee2b9646c706
21ecfe9d-04d9-451e-bdbc-d9c14cb1232c,74a4d0c0-cc48-424b-8649-ef3d18cbe801
7a3ab4f9-6308-4ef0-8ed1-309f4d55d038,9395d131-d048-43b4-bf91-bb2c4756c624
76976e29-442c-40f1-9c80-b539dc3d4272,74a4d0c0-cc48-424b-8649-ef3d18cbe801
328c4243-8a40-43ca-a46d-85146a5cf445,e435462f-a090-4a26-b7ed-c80042ab6039
58254f4f-bdb9-42c3-80eb-ee7f0b71369b,fc705e60-e838-4d15-b33f-b592489b931c
ffdd2234-d79c-4062-9a59-e8b67a51ccbf,fc705e60-e838-4d15-b33f-b592489b931c
ceb1d580-3456-44aa-a307-0665a8227b27,4669b3f0-9ebe-4034-8c40-1b99e3a4ac79
7b035cbd-9e80-46d5-9daf-d427fa83305a,d4c923a3-e238-4d72-b89b-3d750ee70794
6b04891e-8a39-4273-844f-1d3eb38950dc,d4c923a3-e238-4d72-b89b-3d750ee70794
67fb0057-c3fe-41a6-8b58-08a4c9e24847,d9a71cf8-73c3-4841-855d-b88ccbcd65e3
1b5325a7-314d-443b-b5e3-7cfb194f4d07,67d20b14-b65c-43e0-9c21-28b6cf296d1d
c525949c-777c-4443-9c77-831aa3107d7e,d9a71cf8-73c3-4841-855d-b88ccbcd65e3
bee757da-f6eb-4eba-8de1-7f406f30df2a,83b81ad5-1dff-4e99-b544-5f550deda2a0
8288d337-94af-45a2-ac2d-dff295851b02,99b21f57-196e-4a73-8031-46e10cfd9c39
a0d40c83-fe81-403c-852d-aa69131ba7d1,99b21f57-196e-4a73-8031-46e10cfd9c39
1e617283-9809-4e4e-80ca-afbaf191f803,d9a71cf8-73c3-4841-855d-b88ccbcd65e3
9046e5c7-5015-45d4-a7e9-cac4e27273d4,785c5f88-bb52-453d-b652-7d9f934b69e2
df048cd9-d1ac-470d-b8e5-215b95b474bd,d9a71cf8-73c3-4841-855d-b88ccbcd65e3
e54838ef-0462-43ee-841b-15b2c5c12825,fc705e60-e838-4d15-b33f-b592489b931c
e779fb10-dd86-4389-ab37-d4ecfe42c965,dfb16c44-2b65-42bf-8345-349ab605efff
eaae4549-9b41-476e-8e27-b31b1add0180,fc705e60-e838-4d15-b33f-b592489b931c
acc20d7e-6df8-4bac-9450-bf9c113282ed,44c69c38-b5ce-4396-8485-8f6a41541c1b
27ee0587-2b1e-4d7c-bb13-0b3fe04c2d5a,44c69c38-b5ce-4396-8485-8f6a41541c1b
fb7e63f2-9cfd-4bf3-9279-c6f76e5e0744,1d6fe50c-94a7-4a9a-8c5c-f719048f9ef2
0eba0dce-698e-4120-a4a6-d93e630d774e,fc705e60-e838-4d15-b33f-b592489b931c
5970d84f-350f-4360-938e-bae159e9ac32,a5abced7-8fc6-446f-ba3b-22d157f33038
1d617cf8-32f4-4931-a260-f2d2225cbb5e,fc705e60-e838-4d15-b33f-b592489b931c
6a47b58b-38f0-498a-a4c5-99bebaeb4760,fc705e60-e838-4d15-b33f-b592489b931c
9bda8632-58fb-4144-b71a-f60ec1488a53,fc705e60-e838-4d15-b33f-b592489b931c
a91a28ab-4f85-4421-b375-d1acb30907b5,1d762d50-6130-4e1f-a8e6-876527c01ccd
65547c90-0c87-440f-854d-b80c31f82834,21cc39a0-b10c-4314-9141-b6c0ee6038f2
9b41062c-f445-4c04-8867-57862d8ec018,2441ec17-7f8f-435c-8d14-5b317fde7970
c7449ffb-f59f-4060-b9bf-5189515df938,2441ec17-7f8f-435c-8d14-5b317fde7970
b0a2d59a-a96c-43fb-8952-2a27d6bac520,b674aef4-70a9-4606-a5e5-69bc9fb9a81b
f2585d33-67e0-4374-9e2a-38be0ea9da39,f1cc536c-3875-4ce7-be24-e51f39b235e5
7a794202-2b80-4f4e-8932-20684ea14f72,f1cc536c-3875-4ce7-be24-e51f39b235e5
ca413f47-9f23-4494-9b86-9d8ff971735d,8736df10-aeb4-4fa8-ab46-a7f4b6c5d022
d8b64599-8339-42bb-824c-0f8923a0b1d1,74a4d0c0-cc48-424b-8649-ef3d18cbe801
3d00f43a-39e7-4228-9cc4-bd7c1074aa14,74a4d0c0-cc48-424b-8649-ef3d18cbe801
aaff490e-33df-4cfb-80ee-8d3a5e3057d9,92cb56af-0dac-4cac-ad3e-d735e465488d
b7471148-14ca-4f19-bebb-2b02ce8efe6f,0f214ffe-57c0-4bd4-8ce5-bfa61b0792db
59638a0c-6884-42e0-8c6e-da71c2129b6a,92cb56af-0dac-4cac-ad3e-d735e465488d
3e622f30-72f9-49e1-bd96-18f3ff9cc27f,9dffb339-0cea-4fc1-b336-883ee0963d04
d775c7f7-cacf-439d-9f89-1e4cb896fa61,d9a71cf8-73c3-4841-855d-b88ccbcd65e3
0b7367c0-a436-444c-8b74-4829e6cd1995,d9a71cf8-73c3-4841-855d-b88ccbcd65e3
39652829-b97d-41ed-b031-fc61759d1837,8607e17b-b6b9-4b5e-8eb0-358dfc9b4e33
7ad3c350-95f3-44da-81f6-f45be3183493,d9a71cf8-73c3-4841-855d-b88ccbcd65e3
64f292fc-9bf5-44d0-986f-8b0879f1cc73,d9a71cf8-73c3-4841-855d-b88ccbcd65e3
b78c6bb3-5f59-4475-b726-5ccffb8cb86d,a6a53bfc-653d-4067-8b06-7ebdd180c142
65a34323-8aa8-4bd1-808b-44853f788e7f,2ff799d7-dbdd-4d62-a748-8ef89d549446
f2c3833e-a844-4695-b8c5-8e7f169333d2,a6a53bfc-653d-4067-8b06-7ebdd180c142
18f4e74b-3e2b-4887-adcd-73ee6e0486a0,a6a53bfc-653d-4067-8b06-7ebdd180c142
1315eb5b-2398-441c-b464-8a596b059249,a7a82856-43fa-4459-874e-b54aa35b3dfa
1242527d-8da6-4f22-bdee-b40554a3f549,a6a53bfc-653d-4067-8b06-7ebdd180c142
