actor,node
4c797b4c-e379-49d0-9a45-36ab24d57495,ab2ff3e0-0fa8-4a1a-80d8-3091a2c09e2f
27a17a7b-e24e-4fca-b09f-8e22e15721ea,8f39de72-9197-4f4c-9317-1f9dabffdb0a
ed65e47c-c8cb-4633-bf62-576d6c165f21,ab2ff3e0-0fa8-4a1a-80d8-3091a2c09e2f
b1985acc-7d4f-4527-98f7-6fb091847734,51414706-6796-4c34-8e03-b68c138d7584
6e42972c-3449-4aca-bf7c-5c284386bdad,b505f5c6-8b5b-48c2-aadf-db0d57fc7428
8066c8f9-7699-4bbe-ad7e-ad6be0aa08b1,b505f5c6-8b5b-48c2-aadf-db0d57fc7428
331d0094-e00c-4d22-8370-80a4a5d3dc9f,7bda2f69-c1d5-46cc-abe2-35a59fc55ec2
86044de5-9486-4610-93b2-b0b4020b6e1d,d8be27e5-ea3a-4937-ba97-64869385ead4
8a7ce9f9-bff2-4fab-a1c6-5efd0df7d9e1,7bda2f69-c1d5-46cc-abe2-35a59fc55ec2
261a9058-4ef4-4806-9e23-ae59dee6dfa2,e95c64aa-728d-4068-9a87-60e48e053e48
2d876522-c147-4896-809d-0fd2ebd8728f,e95c64aa-728d-4068-9a87-60e48e053e48
73da9bbd-58ff-408f-8780-30e9cf664a66,75aa30b9-e15e-4d0c-b144-9b7dc5fa3cbc
38bc7241-7baf-486d-b1c4-72c9a022f432,4a149457-92ef-4c99-8b97-e027581653ed
44ef612e-0853-4772-a645-105de344e37b,4a149457-92ef-4c99-8b97-e027581653ed
40ea74fd-4fe3-4900-b750-e1e3d15fd882,6c3c2093-4d76-433b-b7a5-21eb52f2dcf9
1c088e13-8552-4ac5-b18b-4290307c07ff,243c1a81-57a7-4359-b0d8-f33714b25ec1
d9593181-d962-4031-b1fb-247c25ef7cc5,809d2e92-98f6-4c51-b43f-deb63fc716b4
3911824a-d431-42e7-aa71-69bb3d7f9a6f,809d2e92-98f6-4c51-b43f-deb63fc716b4
fa506969-8b45-4045-bf70-492540502315,ca4241eb-04ef-42a4-acbb-4a7f2e2556e5
f754f7e1-ac4f-4aa2-8448-f41c477e974b,b0c818c7-705c-4218-bb5f-be127e3c2722
4a8c9eab-8c19-4b91-936c-c62ffed247b7,ca4241eb-04ef-42a4-acbb-4a7f2e2556e5
41f73917-2cf1-4603-96f6-5adf91522d12,31335cfd-5b73-4916-ae9c-2eb8822fc6ca
d8c9792a-c312-4411-b7c4-767d2a9c06e2,8af68358-1abc-4814-801b-fa0abae4cab9
75e22917-3596-4488-a144-bf99ee1da6b7,31335cfd-5b73-4916-ae9c-2eb8822fc6ca
8650852b-7dd0-4423-b406-9a788d2ee39e,e80cfde4-b15c-4602-aeee-fcfdd534a3a3
18f12465-9d95-4417-94ed-282e92faacdd,789f50e7-e872-4af2-9217-31796f3dc9e9
2f07b87e-4902-41ab-9116-33fff3f49684,e80cfde4-b15c-4602-aeee-fcfdd534a3a3
9e4025be-23bf-458d-bbfd-f08999295b97,61a031cc-76e8-4ce4-8830-434404372cf4
b1f84987-4d61-49ad-bb4e-0dddfeb6ae20,0109e2e8-ec4c-44a4-8ca2-c2befa0e6bb8
23771227-543e-47ea-ae5b-5fef42052253,0109e2e8-ec4c-44a4-8ca2-c2befa0e6bb8
c397da39-0816-4dd3-86e6-481ca1c74065,ca25a230-105a-4898-a924-163242d7cd18
ad3257f6-41dd-44d0-ac81-e0fa62e671b8,667621ba-ee12-471a-9485-8f4930f4b010
be746545-1739-47e8-bd53-43674c5d6673,ca25a230-105a-4898-a924-163242d7cd18
eab61213-38ae-4a03-88b6-67c7115737df,c36d2a09-b7b3-44b3-9c9b-fee9e61a4817
dcab9954-d23a-41ee-a7ef-1d7fea2076bf,844218f7-ce8f-4230-81cb-1a7a7f0b277c
3f534081-7008-42d6-9fb8-7c2d0b2b0f9e,844218f7-ce8f-4230-81cb-1a7a7f0b277c
def9ec96-c9e1-4eb3-8182-c7a525657227,fa30cc66-1126-4ce3-8d02-682ce8cc6841
36b1aa72-eda7-433d-af7d-ecc44828808c,4acb66a6-43ea-42de-b9be-50b0ca55f46e
bf3d7d6a-d313-42e4-bba1-7bdee9f3b20c,4acb66a6-43ea-42de-b9be-50b0ca55f46e
54a21b4e-f7aa-4ef1-9881-d7cb1e44342b,7f4625e8-4a2d-4db4-8d42-d9181a16408c
9028ba0f-3406-45e3-96d4-baf516ec145a,62b3aaed-895b-4e9f-9463-a14f17d19a50
c62cad89-08a8-41ff-a82b-2e6f3634b235,7f4625e8-4a2d-4db4-8d42-d9181a16408c
c982f47f-55d7-4944-b020-f3ccdb6084df,0b2ea7c5-d326-4e55-846e-509e1e867b4f
c1dc317b-abbf-4c07-9ac0-7425f909b98d,0b2ea7c5-d326-4e55-846e-509e1e867b4f
1b9f83ed-64c9-49f9-aea2-36632554a55e,c2a731d1-81ea-43a5-b1ff-6e7075d709a7
8ec83b09-f6ee-4990-bef6-8cc6c97f4b19,ab2ff3e0-0fa8-4a1a-80d8-3091a2c09e2f
e3d057f3-1dcb-4430-a1ba-4b8594069292,ab2ff3e0-0fa8-4a1a-80d8-3091a2c09e2f
e2968640-025a-4884-8552-d6a0019faaa4,3f1327e2-7099-41df-871e-9aa188303e47
b27af1e8-45a1-41a0-b5c6-a085bbd08184,b505f5c6-8b5b-48c2-aadf-db0d57fc7428
fc826e75-0eaa-4dac-ae4f-c2e288da01fc,89794e98-a2d2-4a17-a69e-3a8834dcb663
0c7d82c9-1786-419a-9e86-89182620e721,b505f5c6-8b5b-48c2-aadf-db0d57fc7428
e7a0a129-674a-4ab0-9ddb-a9ab82efc1ce,7bda2f69-c1d5-46cc-abe2-35a59fc55ec2
5a413eb5-2a01-4a44-b0fd-f619fa928fb0,932e77a9-043f-4e62-81a2-2ec1b1cf055f
5a686b7b-3eff-48a4-9776-8a98ffa31c35,7bda2f69-c1d5-46cc-abe2-35a59fc55ec2
81f4ce7f-e8c6-4412-b92b-206c732a1c3f,e95c64aa-728d-4068-9a87-60e48e053e48
9e162bea-2eef-4df1-853a-5866c8807717,e95c64aa-728d-4068-9a87-60e48e053e48
2112d081-a153-4dfa-beaa-5fe43f678a30,1700896e-c32d-4dca-a907-2d0bad6262d3
6650a599-8ad0-4a71-8534-a79318f2f185,4a149457-92ef-4c99-8b97-e027581653ed
e6d31d69-0d77-4ef7-bddd-c9ea8dbefadc,4a149457-92ef-4c99-8b97-e027581653ed
f0c452f8-1a1e-44be-abbb-531182d7c53c,b8a1f417-b36a-4684-b2aa-b8fc54d6f896
d43d63ac-e548-4a8a-9e90-5e4293a802c8,809d2e92-98f6-4c51-b43f-deb63fc716b4
432cc133-caec-4804-bf9f-634ae25d257a,b012c8ab-da9d-458f-9c26-fdfa7d3dae96
bf158e10-687c-4b80-8b4a-7371b91a286a,809d2e92-98f6-4c51-b43f-deb63fc716b4
5ba28878-125e-4d32-98ff-a9361219776b,ca4241eb-04ef-42a4-acbb-4a7f2e2556e5
30cff98c-eab7-40b2-b034-aff2fd9c2998,ca4241eb-04ef-42a4-acbb-4a7f2e2556e5
98d95b5f-5271-4f8a-8ae2-5cef7347258c,36c1a5d2-c3ad-42ef-a3eb-4f0f45226965
3608cb8d-b1b7-4f4b-a128-b8ba8ed52cf4,4e21e77d-ab48-44a2-9281-95fcb97e307d
c24635be-101c-4fec-8a55-d47fc50a934c,31335cfd-5b73-4916-ae9c-2eb8822fc6ca
bbc66f38-6b1e-4192-8193-bbd306d67951,31335cfd-5b73-4916-ae9c-2eb8822fc6ca
c4e2d792-e110-490b-baae-1c96255a3ef6,e80cfde4-b15c-4602-aeee-fcfdd534a3a3
dbd7af13-ff80-48c6-90e2-51e3c1a74e0d,99bbd063-625a-4e0c-bf0f-8a33dbc6edb6
ff6d6fe9-86de-4197-955a-025dbe7a2d1c,e80cfde4-b15c-4602-aeee-fcfdd534a3a3
ab410aaf-6531-49ed-bd85-9c4964ae3543,0109e2e8-ec4c-44a4-8ca2-c2befa0e6bb8
6f1c9ff7-1511-48be-bcbe-5d127da8288f,e15b96b9-cd8e-4016-b492-a3e16681ea9d
72b0737f-ecee-49f6-b6c9-feea8dca281e,0109e2e8-ec4c-44a4-8ca2-c2befa0e6bb8
1d778f7f-f8a2-470b-9f98-de8e0d63d5f9,ca25a230-105a-4898-a924-163242d7cd18
0a66f033-f9b3-40e4-8818-e312578a413c,d3ed0725-ba5d-41a5-8027-cb3ee259fe0a
158990d7-3b1b-4c48-a8b1-b116cd34bcd3,ca25a230-105a-4898-a924-163242d7cd18
f503edfc-11aa-47de-95a8-71e858fc4b79,844218f7-ce8f-4230-81cb-1a7a7f0b277c
63b1df0d-d0b2-443c-be60-a7f57205a1f3,844218f7-ce8f-4230-81cb-1a7a7f0b277c
d2e53089-7d1e-4e65-9efd-a4fe2f2dd6c0,62ff5298-ceb4-4728-a584-b9b100899577
02c8f3ea-f781-4cc5-81ca-6b7567fbdd20,4acb66a6-43ea-42de-b9be-50b0ca55f46e
8a98263c-3780-4c1f-8771-a9de7d0b0b37,4acb66a6-43ea-42de-b9be-50b0ca55f46e
ff391637-981d-4b44-8f65-5d0b181fba93,881e388e-0faa-4e4c-8856-c00945a9bfd6
e932478a-f200-4331-8754-eb9f28b182c9,898fae29-2f21-495d-bb33-4b4315120152
65aebb44-cf4d-4635-8a82-61df8e28184b,7f4625e8-4a2d-4db4-8d42-d9181a16408c
488c6921-f0e1-4ce7-bfbc-069223084cc4,7f4625e8-4a2d-4db4-8d42-d9181a16408c
d91e91d8-2546-4564-a68d-c149ab675859,5c08509c-0edc-4d6f-8101-00a9515f0ac4
7825cc43-9cd4-4eb8-841d-2e8c440f4ea3,0b2ea7c5-d326-4e55-846e-509e1e867b4f
f806c8fd-0137-4750-aadd-3069417a3431,0b2ea7c5-d326-4e55-846e-509e1e867b4f
5936d4b5-9adb-4854-9a21-331f43a190c0,ab2ff3e0-0fa8-4a1a-80d8-3091a2c09e2f
199eec48-b2c4-4cb9-ad3d-27e3fa8f0774,72c4f5e0-3794-47b5-bbab-4787a6425684
77f3ddd8-fe70-417b-b65a-1e73dabbc2a8,ab2ff3e0-0fa8-4a1a-80d8-3091a2c09e2f
89e7dd40-fda8-444a-bb68-e492fcebfafc,c05901ad-b126-4ede-b786-d7d0a2e39547
af6a1bee-de44-4226-8d64-7f39632e75c3,b505f5c6-8b5b-48c2-aadf-db0d57fc7428
31ed1c54-ff07-4aae-8d50-d706c29de1dc,b505f5c6-8b5b-48c2-aadf-db0d57fc7428
c97d6a71-d48d-4253-8019-586e91ab4a92,7bda2f69-c1d5-46cc-abe2-35a59fc55ec2
f4ae2839-a4bd-44b4-87f8-281509eab9cb,b446b1ee-4c47-4445-a19f-9482124cd39c
77bb6cac-a4da-4c64-8909-b7158de2c92a,7bda2f69-c1d5-46cc-abe2-35a59fc55ec2
331657b2-e471-4d55-a949-caa9e6606cc2,e95c64aa-728d-4068-9a87-60e48e053e48
4a2d2aa6-ea2a-496d-b8c0-4922c78c031c,fd2cb31a-b504-403a-9da1-1b644155d4a1
53d7f9e8-f57d-43b2-845f-f6ec3d4d83b2,e95c64aa-728d-4068-9a87-60e48e053e48
d483b273-d2c1-45a2-afc8-336888f5f01d,4a149457-92ef-4c99-8b97-e027581653ed
255164e8-770b-42f1-a06e-36e9ce653d2e,4a149457-92ef-4c99-8b97-e027581653ed
540b9045-d5e8-4a41-ab81-04de5ffd8123,2e11652c-832a-4799-af6e-8c0c7f5363c7
57223242-7f51-4744-9fac-f129d359b0cf,809d2e92-98f6-4c51-b43f-deb63fc716b4
269b372c-5d86-46e8-aecf-80d71ce6c6f3,c865acd1-2fae-48cd-a134-800e94f69ae2
be4c25ae-8204-40d9-bd47-b3fb13ae5db5,809d2e92-98f6-4c51-b43f-deb63fc716b4
c8730745-8d84-4e1f-bfab-067185159850,ca4241eb-04ef-42a4-acbb-4a7f2e2556e5
c62453c3-5e9d-415e-8d12-f228462b2e0f,860e87bc-8440-4731-b194-3794af64a3a8
ac0f58ef-154e-463d-9b62-0932eec5012d,ca4241eb-04ef-42a4-acbb-4a7f2e2556e5
74a90eeb-4be8-4feb-9921-53394fd8ee88,bdf91fa5-ccaa-4ebd-aca5-81a4522cadb5
85e0575b-a7f5-4f64-acd3-4ee430055dd4,31335cfd-5b73-4916-ae9c-2eb8822fc6ca
75cb7ad5-97ad-4fc6-acc1-c08596abc6e1,31335cfd-5b73-4916-ae9c-2eb8822fc6ca
9ce8938c-3c09-4a1c-ac4d-8c826e345748,e80cfde4-b15c-4602-aeee-fcfdd534a3a3
f77c7cc5-d759-40cb-9efe-b646a4000f7e,e80cfde4-b15c-4602-aeee-fcfdd534a3a3
c713f2c4-2c4e-4e94-a2c5-d2e448311b34,c8f32872-9d87-4504-9abc-542b595e2fb8
ed2c9894-691c-46b5-9094-271d44852d96,0109e2e8-ec4c-44a4-8ca2-c2befa0e6bb8
6df496a9-3e92-4e3f-a560-1e92358d335e,fa4d3d71-6971-411d-944f-4d0170ab6039
c2da1d1e-7f7f-4280-bfc2-315f08f843af,0109e2e8-ec4c-44a4-8ca2-c2befa0e6bb8
4778913c-4fca-454e-84cc-4037b9685cda,ca25a230-105a-4898-a924-163242d7cd18
acdecac4-d0f2-4ef4-9e00-4979222e8376,dc3da010-0723-4fcc-9d30-0d5b96e06963
17c1f154-ed0a-496a-a989-b9b13da089ef,ca25a230-105a-4898-a924-163242d7cd18
4d5dc142-5825-4952-adeb-a4740383a495,87076fc5-ebdb-45ce-9767-4f67cd355b75
14ccecdb-5073-4db0-a878-c7c7b73b7590,844218f7-ce8f-4230-81cb-1a7a7f0b277c
61c301a0-8d1c-4008-a66a-702929f1ae9a,844218f7-ce8f-4230-81cb-1a7a7f0b277c
e615d961-cf4d-4386-8813-71f1ca36e0ff,dd42dbab-8f13-4d2d-aa98-f1e69a8ea8fd
d18405c7-dadd-4fb1-b6e4-0d111131685c,4acb66a6-43ea-42de-b9be-50b0ca55f46e
19cf1678-fa81-4fa2-ac84-6c6e2a051c34,4acb66a6-43ea-42de-b9be-50b0ca55f46e
628b5d4f-706d-4cd4-9c46-837fa5558bd1,7f4625e8-4a2d-4db4-8d42-d9181a16408c
d5dd8c56-0b52-4fb6-8985-67f995712493,9c4cd83f-22d5-4ae3-87bb-587cf37a05db
a56a7359-c0ec-4a2f-b2e3-a3f6151faee4,7f4625e8-4a2d-4db4-8d42-d9181a16408c
e161bb6f-dc68-4aae-afa6-f88e146449e6,0b2ea7c5-d326-4e55-846e-509e1e867b4f
52a4f91e-0ae6-49e5-9d15-f83f7117aaa4,0b2ea7c5-d326-4e55-846e-509e1e867b4f
78e9d8a3-1e76-41b1-82a6-55010bdf59de,98af51ed-127a-440b-a0d4-4cd5838a093c
105dfdfb-6bd1-4356-9dfe-081c0f0fe707,9a84d958-133f-4755-848e-5ed08dc550aa
34b84260-de85-4d67-99d4-4bfe8ef172ab,ab2ff3e0-0fa8-4a1a-80d8-3091a2c09e2f
e0046fbc-e452-4d6f-bfbe-513e1949c752,ab2ff3e0-0fa8-4a1a-80d8-3091a2c09e2f
80ad9ca6-dfcf-4298-9509-be090aab2a80,b505f5c6-8b5b-48c2-aadf-db0d57fc7428
e92efae5-6811-438c-b45b-1de2ca15aa54,0da92107-1b25-432c-a103-ce73e6ccee78
c25200b8-9a7e-4665-823b-e15a626ec8f1,b505f5c6-8b5b-48c2-aadf-db0d57fc7428
68c62608-831b-4673-8ae7-9d3af79484b1,7bda2f69-c1d5-46cc-abe2-35a59fc55ec2
14698445-2864-4be0-a662-de7b049c0a77,80052179-0cc1-469a-8d21-57350721b2bb
5fcb2ee5-e35a-4378-bfd5-fd7cdb21d499,7bda2f69-c1d5-46cc-abe2-35a59fc55ec2
3de81cf8-98aa-4b4c-9992-1a3fbc80bb1d,602ad71e-0a1f-4faa-a331-b6e126cada26
6c215028-60b0-4394-a6bb-217550131c35,e95c64aa-728d-4068-9a87-60e48e053e48
8dcc1eb5-2c55-4451-9398-4fb1640a6689,e95c64aa-728d-4068-9a87-60e48e053e48
dc7469d6-6042-4e73-9921-f286367715e1,4a149457-92ef-4c99-8b97-e027581653ed
86f2af8d-c751-4165-9645-8c17c410817d,076955a2-9b91-46b5-b853-9a22caab5175
4cea1e9e-5ba2-482f-a4e6-2480b08edff3,4a149457-92ef-4c99-8b97-e027581653ed
