app_number,app_id,trigger,burn,sink,deploy_date,token_interval
1,4e8d92ca-f1de-46f2-a708-60050899a08e,27a17a7b-e24e-4fca-b09f-8e22e15721ea,4c797b4c-e379-49d0-9a45-36ab24d57495,ed65e47c-c8cb-4633-bf62-576d6c165f21,2019-12-11 05:25:58,2.000000
2,1005ea51-a09a-44f2-8215-aa1a87fcae41,b1985acc-7d4f-4527-98f7-6fb091847734,6e42972c-3449-4aca-bf7c-5c284386bdad,8066c8f9-7699-4bbe-ad7e-ad6be0aa08b1,2019-12-11 05:27:00,2.000000
3,5de77f8c-0887-49ff-80de-1b798949c557,86044de5-9486-4610-93b2-b0b4020b6e1d,8a7ce9f9-bff2-4fab-a1c6-5efd0df7d9e1,331d0094-e00c-4d22-8370-80a4a5d3dc9f,2019-12-11 05:28:03,2.000000
4,b39d9466-34e0-47cd-b3c5-8e09a64a51a8,73da9bbd-58ff-408f-8780-30e9cf664a66,261a9058-4ef4-4806-9e23-ae59dee6dfa2,2d876522-c147-4896-809d-0fd2ebd8728f,2019-12-11 05:29:06,1.000000
5,74eec69c-2b87-4bb4-8660-50c35f1c6626,40ea74fd-4fe3-4900-b750-e1e3d15fd882,38bc7241-7baf-486d-b1c4-72c9a022f432,44ef612e-0853-4772-a645-105de344e37b,2019-12-11 05:30:09,1.000000
6,720fe128-400b-4d57-9eab-11d3009211b8,1c088e13-8552-4ac5-b18b-4290307c07ff,3911824a-d431-42e7-aa71-69bb3d7f9a6f,d9593181-d962-4031-b1fb-247c25ef7cc5,2019-12-11 05:31:12,1.000000
7,e47010c0-0fe4-47dc-a5c1-5e27356e0fc7,f754f7e1-ac4f-4aa2-8448-f41c477e974b,4a8c9eab-8c19-4b91-936c-c62ffed247b7,fa506969-8b45-4045-bf70-492540502315,2019-12-11 05:32:15,1.000000
8,e8e6f7c9-7740-4ec0-80df-9f41eaecc3c6,d8c9792a-c312-4411-b7c4-767d2a9c06e2,41f73917-2cf1-4603-96f6-5adf91522d12,75e22917-3596-4488-a144-bf99ee1da6b7,2019-12-11 05:33:18,2.000000
9,a09bd829-68ce-4482-8521-4fce582d8f6a,18f12465-9d95-4417-94ed-282e92faacdd,8650852b-7dd0-4423-b406-9a788d2ee39e,2f07b87e-4902-41ab-9116-33fff3f49684,2019-12-11 05:34:20,1.000000
10,0f2e9131-4f64-4cf6-9a13-565dc6b62e59,9e4025be-23bf-458d-bbfd-f08999295b97,b1f84987-4d61-49ad-bb4e-0dddfeb6ae20,23771227-543e-47ea-ae5b-5fef42052253,2019-12-11 05:35:23,1.000000
11,cb41e333-9015-4c99-87dc-afa8e400c3e8,ad3257f6-41dd-44d0-ac81-e0fa62e671b8,c397da39-0816-4dd3-86e6-481ca1c74065,be746545-1739-47e8-bd53-43674c5d6673,2019-12-11 05:36:26,1.000000
12,fe3ae868-e47d-461a-84ba-8065c3efdc48,eab61213-38ae-4a03-88b6-67c7115737df,3f534081-7008-42d6-9fb8-7c2d0b2b0f9e,dcab9954-d23a-41ee-a7ef-1d7fea2076bf,2019-12-11 05:37:29,2.000000
13,82504105-3095-489f-b1af-3d3bc8b0a6ba,def9ec96-c9e1-4eb3-8182-c7a525657227,bf3d7d6a-d313-42e4-bba1-7bdee9f3b20c,36b1aa72-eda7-433d-af7d-ecc44828808c,2019-12-11 05:38:31,1.000000
14,beb2a0fa-338e-4be6-99e7-9773d1f60740,9028ba0f-3406-45e3-96d4-baf516ec145a,54a21b4e-f7aa-4ef1-9881-d7cb1e44342b,c62cad89-08a8-41ff-a82b-2e6f3634b235,2019-12-11 05:39:34,1.000000
15,c3e1a78a-b0a6-4685-8875-e7fc7e4d739b,1b9f83ed-64c9-49f9-aea2-36632554a55e,c1dc317b-abbf-4c07-9ac0-7425f909b98d,c982f47f-55d7-4944-b020-f3ccdb6084df,2019-12-11 05:40:37,2.000000
16,364c4f7a-62c4-43d0-8048-3ef0328d75b0,e2968640-025a-4884-8552-d6a0019faaa4,e3d057f3-1dcb-4430-a1ba-4b8594069292,8ec83b09-f6ee-4990-bef6-8cc6c97f4b19,2019-12-11 05:41:40,2.000000
17,05c2649d-c20c-4834-95cf-9ddfcafcd434,fc826e75-0eaa-4dac-ae4f-c2e288da01fc,b27af1e8-45a1-41a0-b5c6-a085bbd08184,0c7d82c9-1786-419a-9e86-89182620e721,2019-12-11 05:42:43,1.000000
18,3bc2a569-3fc7-4307-8e5a-8d8ed82bdf11,5a413eb5-2a01-4a44-b0fd-f619fa928fb0,e7a0a129-674a-4ab0-9ddb-a9ab82efc1ce,5a686b7b-3eff-48a4-9776-8a98ffa31c35,2019-12-11 05:43:46,2.000000
19,61748005-2e53-40b8-8d78-d5a8c7f464b6,2112d081-a153-4dfa-beaa-5fe43f678a30,9e162bea-2eef-4df1-853a-5866c8807717,81f4ce7f-e8c6-4412-b92b-206c732a1c3f,2019-12-11 05:44:49,1.000000
20,57ec5991-56ef-4692-b9a9-b372924dfac0,f0c452f8-1a1e-44be-abbb-531182d7c53c,6650a599-8ad0-4a71-8534-a79318f2f185,e6d31d69-0d77-4ef7-bddd-c9ea8dbefadc,2019-12-11 05:45:52,2.000000
21,1e5a6b3a-52e0-49db-8c0b-d5838997b519,432cc133-caec-4804-bf9f-634ae25d257a,bf158e10-687c-4b80-8b4a-7371b91a286a,d43d63ac-e548-4a8a-9e90-5e4293a802c8,2019-12-11 05:46:54,1.000000
22,05fff67d-3ff7-436a-97b3-38bccc1c0945,98d95b5f-5271-4f8a-8ae2-5cef7347258c,5ba28878-125e-4d32-98ff-a9361219776b,30cff98c-eab7-40b2-b034-aff2fd9c2998,2019-12-11 05:47:57,1.000000
23,3a8fcacb-e3f1-4edd-85ca-ec41b2374582,3608cb8d-b1b7-4f4b-a128-b8ba8ed52cf4,c24635be-101c-4fec-8a55-d47fc50a934c,bbc66f38-6b1e-4192-8193-bbd306d67951,2019-12-11 05:49:00,1.000000
24,23a865d1-0640-4a31-825e-c83f41a2eb60,dbd7af13-ff80-48c6-90e2-51e3c1a74e0d,ff6d6fe9-86de-4197-955a-025dbe7a2d1c,c4e2d792-e110-490b-baae-1c96255a3ef6,2019-12-11 05:50:03,2.000000
25,079f76bf-7b92-4341-a77a-3db645027376,6f1c9ff7-1511-48be-bcbe-5d127da8288f,72b0737f-ecee-49f6-b6c9-feea8dca281e,ab410aaf-6531-49ed-bd85-9c4964ae3543,2019-12-11 05:51:06,2.000000
26,f0527a0a-63ae-4718-ab3b-e99b63ac6d39,0a66f033-f9b3-40e4-8818-e312578a413c,158990d7-3b1b-4c48-a8b1-b116cd34bcd3,1d778f7f-f8a2-470b-9f98-de8e0d63d5f9,2019-12-11 05:52:09,2.000000
27,9d17b66c-0b6b-4ac2-b25b-69349081229d,d2e53089-7d1e-4e65-9efd-a4fe2f2dd6c0,f503edfc-11aa-47de-95a8-71e858fc4b79,63b1df0d-d0b2-443c-be60-a7f57205a1f3,2019-12-11 05:53:12,1.000000
28,40c1aa3c-2016-4ed3-8955-1e8fa62cefcd,ff391637-981d-4b44-8f65-5d0b181fba93,8a98263c-3780-4c1f-8771-a9de7d0b0b37,02c8f3ea-f781-4cc5-81ca-6b7567fbdd20,2019-12-11 05:54:14,2.000000
29,765b026b-7786-40de-a744-7d272c2a4c04,e932478a-f200-4331-8754-eb9f28b182c9,488c6921-f0e1-4ce7-bfbc-069223084cc4,65aebb44-cf4d-4635-8a82-61df8e28184b,2019-12-11 05:55:17,2.000000
30,a9ff82b1-4362-4e62-b8cc-5011f52c8517,d91e91d8-2546-4564-a68d-c149ab675859,f806c8fd-0137-4750-aadd-3069417a3431,7825cc43-9cd4-4eb8-841d-2e8c440f4ea3,2019-12-11 05:56:20,2.000000
31,0c853f94-c83c-4c81-bf33-11c178e8b6bb,199eec48-b2c4-4cb9-ad3d-27e3fa8f0774,77f3ddd8-fe70-417b-b65a-1e73dabbc2a8,5936d4b5-9adb-4854-9a21-331f43a190c0,2019-12-11 05:57:23,2.000000
32,1f4cc2ea-7abb-4fdf-9521-1401a2f0993c,89e7dd40-fda8-444a-bb68-e492fcebfafc,af6a1bee-de44-4226-8d64-7f39632e75c3,31ed1c54-ff07-4aae-8d50-d706c29de1dc,2019-12-11 05:58:25,1.000000
33,b4b9c4ef-27d1-4cca-b640-54e47803e5f5,f4ae2839-a4bd-44b4-87f8-281509eab9cb,77bb6cac-a4da-4c64-8909-b7158de2c92a,c97d6a71-d48d-4253-8019-586e91ab4a92,2019-12-11 05:59:28,2.000000
34,54315b6d-3404-4c59-85c5-ba94a615fb6e,4a2d2aa6-ea2a-496d-b8c0-4922c78c031c,331657b2-e471-4d55-a949-caa9e6606cc2,53d7f9e8-f57d-43b2-845f-f6ec3d4d83b2,2019-12-11 06:00:31,1.000000
35,2b9716d1-255c-441a-8dfd-5cd2f8075372,540b9045-d5e8-4a41-ab81-04de5ffd8123,d483b273-d2c1-45a2-afc8-336888f5f01d,255164e8-770b-42f1-a06e-36e9ce653d2e,2019-12-11 06:01:34,2.000000
36,9efa2f64-4891-4c93-9488-7c102a1a7c85,269b372c-5d86-46e8-aecf-80d71ce6c6f3,57223242-7f51-4744-9fac-f129d359b0cf,be4c25ae-8204-40d9-bd47-b3fb13ae5db5,2019-12-11 06:02:37,1.000000
37,33dbd12c-cc2e-402a-a220-b025424908f3,c62453c3-5e9d-415e-8d12-f228462b2e0f,ac0f58ef-154e-463d-9b62-0932eec5012d,c8730745-8d84-4e1f-bfab-067185159850,2019-12-11 06:03:40,2.000000
38,ffb298a3-cfcb-4d46-8942-fd784d2b241e,74a90eeb-4be8-4feb-9921-53394fd8ee88,75cb7ad5-97ad-4fc6-acc1-c08596abc6e1,85e0575b-a7f5-4f64-acd3-4ee430055dd4,2019-12-11 06:04:43,2.000000
39,7e8f4f01-06f4-4bb1-94aa-5ca69100c3e8,c713f2c4-2c4e-4e94-a2c5-d2e448311b34,f77c7cc5-d759-40cb-9efe-b646a4000f7e,9ce8938c-3c09-4a1c-ac4d-8c826e345748,2019-12-11 06:05:45,1.000000
40,85097f3c-c839-4977-af03-15238d03b04c,6df496a9-3e92-4e3f-a560-1e92358d335e,ed2c9894-691c-46b5-9094-271d44852d96,c2da1d1e-7f7f-4280-bfc2-315f08f843af,2019-12-11 06:06:48,1.000000
41,9cb37096-af3e-44d3-9752-fcba9a46a5c4,acdecac4-d0f2-4ef4-9e00-4979222e8376,4778913c-4fca-454e-84cc-4037b9685cda,17c1f154-ed0a-496a-a989-b9b13da089ef,2019-12-11 06:07:51,2.000000
42,e778f99f-6e04-4451-b697-bfe9cb2dc907,4d5dc142-5825-4952-adeb-a4740383a495,61c301a0-8d1c-4008-a66a-702929f1ae9a,14ccecdb-5073-4db0-a878-c7c7b73b7590,2019-12-11 06:08:53,1.000000
43,bca00bc6-fff2-4249-81c3-89a026eeda84,e615d961-cf4d-4386-8813-71f1ca36e0ff,19cf1678-fa81-4fa2-ac84-6c6e2a051c34,d18405c7-dadd-4fb1-b6e4-0d111131685c,2019-12-11 06:09:56,1.000000
44,a51079c6-ecd7-4e1a-bec0-f9e64ffb17fb,d5dd8c56-0b52-4fb6-8985-67f995712493,628b5d4f-706d-4cd4-9c46-837fa5558bd1,a56a7359-c0ec-4a2f-b2e3-a3f6151faee4,2019-12-11 06:10:59,1.000000
45,96c0649d-bc1a-40e3-85c4-8c67b23da88d,78e9d8a3-1e76-41b1-82a6-55010bdf59de,e161bb6f-dc68-4aae-afa6-f88e146449e6,52a4f91e-0ae6-49e5-9d15-f83f7117aaa4,2019-12-11 06:12:02,2.000000
46,f34070b4-27f2-41a2-bd0b-e5abef191bde,105dfdfb-6bd1-4356-9dfe-081c0f0fe707,e0046fbc-e452-4d6f-bfbe-513e1949c752,34b84260-de85-4d67-99d4-4bfe8ef172ab,2019-12-11 06:13:05,1.000000
47,d9cc2d0d-b983-4c5b-ba4c-b1ecc45ab53c,e92efae5-6811-438c-b45b-1de2ca15aa54,80ad9ca6-dfcf-4298-9509-be090aab2a80,c25200b8-9a7e-4665-823b-e15a626ec8f1,2019-12-11 06:14:08,1.000000
48,dbfc4c80-3912-4c4d-8c4f-88498f38d98c,14698445-2864-4be0-a662-de7b049c0a77,5fcb2ee5-e35a-4378-bfd5-fd7cdb21d499,68c62608-831b-4673-8ae7-9d3af79484b1,2019-12-11 06:15:11,2.000000
49,449cb2cd-d61b-41b8-8e98-9ac1d813d5b6,3de81cf8-98aa-4b4c-9992-1a3fbc80bb1d,8dcc1eb5-2c55-4451-9398-4fb1640a6689,6c215028-60b0-4394-a6bb-217550131c35,2019-12-11 06:16:14,1.000000
50,fb238c1e-06ba-4d44-aec2-5f6d92841267,86f2af8d-c751-4165-9645-8c17c410817d,dc7469d6-6042-4e73-9921-f286367715e1,4cea1e9e-5ba2-482f-a4e6-2480b08edff3,2019-12-11 06:17:16,2.000000
