date,actor,success,from,to
2019-09-22 03:33:45,9cb7b3f3-042d-48b1-b215-d2130a688a34,1,1b1e72ed-2a0d-4920-be89-3b172649f339,77514f43-4bad-4b81-b0ad-9c35d14e9912
2019-09-22 03:35:30,c0840fb6-14af-494c-b5c1-4b8362454ee3,1,1b1e72ed-2a0d-4920-be89-3b172649f339,2a1febac-1790-4183-9985-53cfc5f2ae62
2019-09-22 03:38:15,6e67f739-13c4-4072-ad7a-ec5400457d4c,1,1b1e72ed-2a0d-4920-be89-3b172649f339,b6c30b7d-4b22-4f3c-bc4b-cfe6ba918e06
2019-09-22 03:40:26,6e67f739-13c4-4072-ad7a-ec5400457d4c,1,1b1e72ed-2a0d-4920-be89-3b172649f339,ece53713-02bd-440a-9dd7-2c4daa647d08
2019-09-22 03:40:45,60989907-cd9a-4653-a7a9-4d412e661cfd,1,1b1e72ed-2a0d-4920-be89-3b172649f339,c20896a4-c715-485d-8238-fb1d1c0933e7
2019-09-22 03:41:36,6e67f739-13c4-4072-ad7a-ec5400457d4c,1,1b1e72ed-2a0d-4920-be89-3b172649f339,1b1e72ed-2a0d-4920-be89-3b172649f339
2019-09-22 03:41:51,6e67f739-13c4-4072-ad7a-ec5400457d4c,1,1b1e72ed-2a0d-4920-be89-3b172649f339,b6c30b7d-4b22-4f3c-bc4b-cfe6ba918e06
2019-09-22 03:42:11,14a60999-280f-4d04-85ac-e186ca4626c6,1,1b1e72ed-2a0d-4920-be89-3b172649f339,3db203e2-0445-42ae-8241-3238ecc26c5e
2019-09-22 03:55:51,3ef45380-8ecc-485e-9594-ae9aa4c67f62,1,1b1e72ed-2a0d-4920-be89-3b172649f339,3f6026e0-b6fb-4400-82bb-5ff4e4162082
2019-09-22 03:56:22,3ef45380-8ecc-485e-9594-ae9aa4c67f62,1,1b1e72ed-2a0d-4920-be89-3b172649f339,0a293b7e-2ac6-4911-83c3-c45ffd610e18
2019-09-22 03:28:56,6bb691ec-cf64-4193-97cd-506fcf687d78,1,77514f43-4bad-4b81-b0ad-9c35d14e9912,43a77904-a707-43c3-acb1-d9abd9b9f242
2019-09-22 03:34:00,9cb7b3f3-042d-48b1-b215-d2130a688a34,1,77514f43-4bad-4b81-b0ad-9c35d14e9912,c20896a4-c715-485d-8238-fb1d1c0933e7
2019-09-22 03:37:55,81502b08-d552-4acf-a8c1-5d22ab960c61,1,7654553c-3f62-41f8-abb8-1234e16418ed,3db203e2-0445-42ae-8241-3238ecc26c5e
2019-09-22 03:40:10,acdbfb79-42b5-49d1-ac84-186001a445c4,1,7654553c-3f62-41f8-abb8-1234e16418ed,a620b607-e68f-4b9f-ab91-34154921ba23
2019-09-22 03:40:15,60989907-cd9a-4653-a7a9-4d412e661cfd,1,7654553c-3f62-41f8-abb8-1234e16418ed,d520e2e1-9b8d-43bf-9c50-6ead2baada2d
2019-09-22 03:40:50,4fba647c-514a-486b-a33d-93ea7a3b14dd,1,7654553c-3f62-41f8-abb8-1234e16418ed,77514f43-4bad-4b81-b0ad-9c35d14e9912
2019-09-22 03:26:39,ac260bf0-c31c-4090-a87e-a2c3aa23b811,1,37db861b-9949-44a8-b1a1-0acb54983e46,c20896a4-c715-485d-8238-fb1d1c0933e7
2019-09-22 03:28:34,c8586188-9a6b-4931-a565-57583b4255fb,1,37db861b-9949-44a8-b1a1-0acb54983e46,abab8f5a-954c-4a69-b255-9f78af62c33c
2019-09-22 03:39:46,a2f367c0-48e0-4df1-8a22-6ce4fdddb348,1,37db861b-9949-44a8-b1a1-0acb54983e46,ece53713-02bd-440a-9dd7-2c4daa647d08
2019-09-22 03:40:31,a2f367c0-48e0-4df1-8a22-6ce4fdddb348,1,37db861b-9949-44a8-b1a1-0acb54983e46,abab8f5a-954c-4a69-b255-9f78af62c33c
2019-09-22 03:42:25,97e2234d-052b-41b6-b9c2-a76ff81fcd5f,1,37db861b-9949-44a8-b1a1-0acb54983e46,8c57625d-cf83-442e-98e8-0910855bbf21
2019-09-22 03:21:56,3e790afe-d6bd-4d03-b1c9-6ac3fed08d59,1,5ddd9235-2518-4412-82ef-966be24660da,37db861b-9949-44a8-b1a1-0acb54983e46
2019-09-22 03:21:56,ac260bf0-c31c-4090-a87e-a2c3aa23b811,1,5ddd9235-2518-4412-82ef-966be24660da,37db861b-9949-44a8-b1a1-0acb54983e46
2019-09-22 03:21:56,4cfae4f4-7a29-4b09-a9cc-3de10a141444,1,5ddd9235-2518-4412-82ef-966be24660da,c8f0d53e-d495-4041-a42a-617cb946cbf2
2019-09-22 03:22:59,30123806-5daa-41c0-b0a4-004572d80ab6,1,5ddd9235-2518-4412-82ef-966be24660da,0fa4acc5-943e-4041-bf22-500cac32d2f4
2019-09-22 03:22:59,97e2234d-052b-41b6-b9c2-a76ff81fcd5f,1,5ddd9235-2518-4412-82ef-966be24660da,37db861b-9949-44a8-b1a1-0acb54983e46
2019-09-22 03:22:59,6ff60c88-c5a3-4798-b009-897c4f27ed24,1,5ddd9235-2518-4412-82ef-966be24660da,37db861b-9949-44a8-b1a1-0acb54983e46
2019-09-22 03:24:03,f520383b-4af0-46d4-9072-0b3addccc099,1,5ddd9235-2518-4412-82ef-966be24660da,db2946a6-b063-401e-b4cd-3fc77d03c40c
2019-09-22 03:24:03,7f4aec72-01b1-443c-8358-93f6c164acaf,1,5ddd9235-2518-4412-82ef-966be24660da,e7365d21-df35-4f50-a8e8-d7ce15eb3adf
2019-09-22 03:24:03,23bdf711-9a57-4b8b-bab6-227fdb66022a,1,5ddd9235-2518-4412-82ef-966be24660da,e7365d21-df35-4f50-a8e8-d7ce15eb3adf
2019-09-22 03:25:07,6bb691ec-cf64-4193-97cd-506fcf687d78,1,5ddd9235-2518-4412-82ef-966be24660da,e7365d21-df35-4f50-a8e8-d7ce15eb3adf
2019-09-22 03:25:07,42ee7adb-dc02-4084-9a57-b88c91ee9546,1,5ddd9235-2518-4412-82ef-966be24660da,77514f43-4bad-4b81-b0ad-9c35d14e9912
2019-09-22 03:25:07,1e109fa2-b38c-49bd-a24f-b7ad0e26f58f,1,5ddd9235-2518-4412-82ef-966be24660da,12619b2a-f129-4bfd-b9e3-0bc72065298d
2019-09-22 03:26:11,142a9b23-b0c5-4dfc-a3f9-0ce31bfd69ab,1,5ddd9235-2518-4412-82ef-966be24660da,d520e2e1-9b8d-43bf-9c50-6ead2baada2d
2019-09-22 03:26:11,ba0fa562-acdc-43ef-8ea3-79e77e3bc0fc,1,5ddd9235-2518-4412-82ef-966be24660da,50cf2ec7-f661-46de-bbb8-cf591df51b39
2019-09-22 03:26:11,ca5367a6-08db-4143-ad7a-d5b67724acb4,1,5ddd9235-2518-4412-82ef-966be24660da,d520e2e1-9b8d-43bf-9c50-6ead2baada2d
2019-09-22 03:27:15,8e86cbeb-0e05-4f56-a5ce-f3eb257cf977,1,5ddd9235-2518-4412-82ef-966be24660da,37db861b-9949-44a8-b1a1-0acb54983e46
2019-09-22 03:27:15,c8586188-9a6b-4931-a565-57583b4255fb,1,5ddd9235-2518-4412-82ef-966be24660da,37db861b-9949-44a8-b1a1-0acb54983e46
2019-09-22 03:27:15,728ed52d-6588-437a-8d4b-85a3ffc8375b,1,5ddd9235-2518-4412-82ef-966be24660da,54837874-fe75-4bed-8b1b-a618420bd26c
2019-09-22 03:28:18,ce0f802a-f766-4ea7-9cc5-3b82715ef88f,1,5ddd9235-2518-4412-82ef-966be24660da,90c95e91-192b-4c4a-9982-75abdbe0010a
2019-09-22 03:28:18,06ee009c-c9f6-4311-8bed-dcddfd344634,1,5ddd9235-2518-4412-82ef-966be24660da,d0ca949e-7e0e-4e03-865c-6227212e007d
2019-09-22 03:28:18,14a60999-280f-4d04-85ac-e186ca4626c6,1,5ddd9235-2518-4412-82ef-966be24660da,1b1e72ed-2a0d-4920-be89-3b172649f339
2019-09-22 03:29:22,45110d3e-a2c1-4a38-b797-a57fb6dff561,1,5ddd9235-2518-4412-82ef-966be24660da,e26a3ed8-2c8d-4c3b-ab67-b169ef3b78a9
2019-09-22 03:29:22,ccd50c11-1d04-46a5-b512-83eabd2e9048,1,5ddd9235-2518-4412-82ef-966be24660da,d0ca949e-7e0e-4e03-865c-6227212e007d
2019-09-22 03:29:22,26bc56f7-20b2-4564-be6b-0fd1ec111c79,1,5ddd9235-2518-4412-82ef-966be24660da,d0ca949e-7e0e-4e03-865c-6227212e007d
2019-09-22 03:30:26,60989907-cd9a-4653-a7a9-4d412e661cfd,1,5ddd9235-2518-4412-82ef-966be24660da,7654553c-3f62-41f8-abb8-1234e16418ed
2019-09-22 03:30:26,569c3722-537f-4015-91e2-bb2f50226098,1,5ddd9235-2518-4412-82ef-966be24660da,7654553c-3f62-41f8-abb8-1234e16418ed
2019-09-22 03:30:26,aeb00e11-0eb5-4d50-8181-0f7485831fd1,1,5ddd9235-2518-4412-82ef-966be24660da,12d97b4b-298d-4489-9691-b08f5809d91d
2019-09-22 03:31:29,8eca1ffb-030c-4c58-906b-e895f58fd6c4,1,5ddd9235-2518-4412-82ef-966be24660da,e3eb7910-19b4-405d-b477-538dd1082235
2019-09-22 03:31:29,3db2734a-f746-4f62-8a48-8992de3c267c,1,5ddd9235-2518-4412-82ef-966be24660da,07022ba4-fe53-4ce5-8e83-5df8239a96cb
2019-09-22 03:31:29,1d56d606-1049-4535-88bc-e8337f0f152a,1,5ddd9235-2518-4412-82ef-966be24660da,07022ba4-fe53-4ce5-8e83-5df8239a96cb
2019-09-22 03:32:33,512274ca-654e-45a3-8e23-55084946ec87,1,5ddd9235-2518-4412-82ef-966be24660da,1b1e72ed-2a0d-4920-be89-3b172649f339
2019-09-22 03:32:33,c42d8dbc-b63f-4867-8724-dcc66a78a3a6,1,5ddd9235-2518-4412-82ef-966be24660da,6a798b31-df44-4a12-b7fa-03416e1c9317
2019-09-22 03:32:33,9cb7b3f3-042d-48b1-b215-d2130a688a34,1,5ddd9235-2518-4412-82ef-966be24660da,1b1e72ed-2a0d-4920-be89-3b172649f339
2019-09-22 03:33:36,fe89740b-01cb-4d01-bbdf-ae0f41f74a17,1,5ddd9235-2518-4412-82ef-966be24660da,1b1e72ed-2a0d-4920-be89-3b172649f339
2019-09-22 03:33:36,c0840fb6-14af-494c-b5c1-4b8362454ee3,1,5ddd9235-2518-4412-82ef-966be24660da,1b1e72ed-2a0d-4920-be89-3b172649f339
2019-09-22 03:33:36,cc8cf95f-6b19-4ffe-8286-b157636853c9,1,5ddd9235-2518-4412-82ef-966be24660da,2517b125-f1cd-4a5e-8e09-27c4fb99eb3b
2019-09-22 03:34:40,71332af4-b136-40df-ab39-f50dc2e70e30,1,5ddd9235-2518-4412-82ef-966be24660da,0130dc50-e16a-428b-818b-e095e96a7e8d
2019-09-22 03:34:40,a2f367c0-48e0-4df1-8a22-6ce4fdddb348,1,5ddd9235-2518-4412-82ef-966be24660da,ece53713-02bd-440a-9dd7-2c4daa647d08
2019-09-22 03:34:40,0bf24eba-fd38-4b74-9f71-e570a4fe68fe,1,5ddd9235-2518-4412-82ef-966be24660da,ece53713-02bd-440a-9dd7-2c4daa647d08
2019-09-22 03:35:44,a050bf50-19ac-4e84-b25e-fb21cde5eb7b,1,5ddd9235-2518-4412-82ef-966be24660da,7654553c-3f62-41f8-abb8-1234e16418ed
2019-09-22 03:35:44,81502b08-d552-4acf-a8c1-5d22ab960c61,1,5ddd9235-2518-4412-82ef-966be24660da,7654553c-3f62-41f8-abb8-1234e16418ed
2019-09-22 03:35:44,aed0b010-8a6e-4c8a-9d90-745b4aba3964,1,5ddd9235-2518-4412-82ef-966be24660da,a620b607-e68f-4b9f-ab91-34154921ba23
2019-09-22 03:36:47,acdbfb79-42b5-49d1-ac84-186001a445c4,1,5ddd9235-2518-4412-82ef-966be24660da,7654553c-3f62-41f8-abb8-1234e16418ed
2019-09-22 03:36:47,27f9b11d-ece8-4d02-988e-7a4e6a3b45c8,1,5ddd9235-2518-4412-82ef-966be24660da,7654553c-3f62-41f8-abb8-1234e16418ed
2019-09-22 03:36:47,5402b7cd-0079-40f2-b286-ab620ff445dd,1,5ddd9235-2518-4412-82ef-966be24660da,2c988e51-77a9-4ddf-bb44-c69c8a5492c1
2019-09-22 03:37:51,cc87efbe-cb57-4a9f-9d8a-06cfea23bd2b,1,5ddd9235-2518-4412-82ef-966be24660da,6bf97894-77ea-4886-884d-446d226a6197
2019-09-22 03:37:51,5da2354c-c4cf-48a7-aec2-6b7294c93f4c,1,5ddd9235-2518-4412-82ef-966be24660da,ece53713-02bd-440a-9dd7-2c4daa647d08
2019-09-22 03:37:51,6e67f739-13c4-4072-ad7a-ec5400457d4c,1,5ddd9235-2518-4412-82ef-966be24660da,1b1e72ed-2a0d-4920-be89-3b172649f339
2019-09-22 03:38:55,4fba647c-514a-486b-a33d-93ea7a3b14dd,1,5ddd9235-2518-4412-82ef-966be24660da,7654553c-3f62-41f8-abb8-1234e16418ed
2019-09-22 03:38:55,23639c16-cbba-4d89-bf8b-70a6d5258bed,1,5ddd9235-2518-4412-82ef-966be24660da,7654553c-3f62-41f8-abb8-1234e16418ed
2019-09-22 03:38:55,beeb25e0-cd27-41c3-b158-0c8850bf60c8,1,5ddd9235-2518-4412-82ef-966be24660da,7433562c-db87-43fc-9686-7e96124fe7b6
2019-09-22 03:39:58,7a5abe2e-1fe7-4560-bf9f-3e031c102c6b,1,5ddd9235-2518-4412-82ef-966be24660da,5bfb0d8e-c7ce-45a8-b2ef-d87c4f2e6b37
2019-09-22 03:39:58,d811a7f1-5e27-4225-a7d1-2829bbf87e78,1,5ddd9235-2518-4412-82ef-966be24660da,c20896a4-c715-485d-8238-fb1d1c0933e7
2019-09-22 03:39:58,cbebdbc2-2d54-4f53-b45d-93c2b2f503c2,1,5ddd9235-2518-4412-82ef-966be24660da,c20896a4-c715-485d-8238-fb1d1c0933e7
2019-09-22 03:41:02,9c3d327a-198f-4656-a4c1-be5adaebc0ff,1,5ddd9235-2518-4412-82ef-966be24660da,e7365d21-df35-4f50-a8e8-d7ce15eb3adf
2019-09-22 03:41:02,f4b5d8df-3cde-4c3b-9c83-66c110f6bd7c,1,5ddd9235-2518-4412-82ef-966be24660da,e7365d21-df35-4f50-a8e8-d7ce15eb3adf
2019-09-22 03:41:02,ecac22e5-00d7-47a9-964e-546a55d426c7,1,5ddd9235-2518-4412-82ef-966be24660da,2a1febac-1790-4183-9985-53cfc5f2ae62
2019-09-22 03:42:06,3ef45380-8ecc-485e-9594-ae9aa4c67f62,1,5ddd9235-2518-4412-82ef-966be24660da,3db203e2-0445-42ae-8241-3238ecc26c5e
2019-09-22 03:42:06,3d376863-908e-4696-936a-2d680e0aa405,1,5ddd9235-2518-4412-82ef-966be24660da,30401940-578d-4717-841c-140c5a36370c
2019-09-22 03:42:06,7c81a800-b3a8-4b23-bb61-fc168d052dcc,1,5ddd9235-2518-4412-82ef-966be24660da,3db203e2-0445-42ae-8241-3238ecc26c5e
2019-09-22 03:43:09,854584f7-21c7-4c14-8d9c-430bd52d4d13,1,5ddd9235-2518-4412-82ef-966be24660da,e7365d21-df35-4f50-a8e8-d7ce15eb3adf
2019-09-22 03:43:10,58f7d0af-859a-4786-a34e-d50a73a719e6,1,5ddd9235-2518-4412-82ef-966be24660da,8c57625d-cf83-442e-98e8-0910855bbf21
2019-09-22 03:43:10,743213e1-8c07-4083-b7c3-6e3e973adadb,1,5ddd9235-2518-4412-82ef-966be24660da,e7365d21-df35-4f50-a8e8-d7ce15eb3adf
2019-09-22 03:46:20,de535859-5951-42e9-bbc0-2991391a4301,1,5ddd9235-2518-4412-82ef-966be24660da,e7365d21-df35-4f50-a8e8-d7ce15eb3adf
2019-09-22 03:46:20,db784ea0-0c18-4f47-b0fb-916a117a2afa,1,5ddd9235-2518-4412-82ef-966be24660da,e7365d21-df35-4f50-a8e8-d7ce15eb3adf
2019-09-22 03:46:20,681e7151-dd2e-4de2-89fc-d3722412cf66,1,5ddd9235-2518-4412-82ef-966be24660da,86c2e42b-cb24-41ec-a244-306104b306c3
2019-09-22 03:47:24,3bf027bd-d52a-47e6-807c-38cebbb3a26d,1,5ddd9235-2518-4412-82ef-966be24660da,e7365d21-df35-4f50-a8e8-d7ce15eb3adf
2019-09-22 03:47:24,952d73aa-27ae-4696-818e-336c849c04f3,1,5ddd9235-2518-4412-82ef-966be24660da,e7365d21-df35-4f50-a8e8-d7ce15eb3adf
2019-09-22 03:47:24,5a346214-56c7-4703-b323-894eac9c06f4,1,5ddd9235-2518-4412-82ef-966be24660da,0a293b7e-2ac6-4911-83c3-c45ffd610e18
2019-09-22 03:31:55,1d56d606-1049-4535-88bc-e8337f0f152a,1,07022ba4-fe53-4ce5-8e83-5df8239a96cb,d0ca949e-7e0e-4e03-865c-6227212e007d
2019-09-22 03:38:25,81502b08-d552-4acf-a8c1-5d22ab960c61,1,07022ba4-fe53-4ce5-8e83-5df8239a96cb,43a77904-a707-43c3-acb1-d9abd9b9f242
2019-09-22 03:41:15,60989907-cd9a-4653-a7a9-4d412e661cfd,1,07022ba4-fe53-4ce5-8e83-5df8239a96cb,d520e2e1-9b8d-43bf-9c50-6ead2baada2d
2019-09-22 03:38:45,6e67f739-13c4-4072-ad7a-ec5400457d4c,1,ece53713-02bd-440a-9dd7-2c4daa647d08,b6c30b7d-4b22-4f3c-bc4b-cfe6ba918e06
2019-09-22 03:39:31,a2f367c0-48e0-4df1-8a22-6ce4fdddb348,1,ece53713-02bd-440a-9dd7-2c4daa647d08,37db861b-9949-44a8-b1a1-0acb54983e46
2019-09-22 03:40:01,a2f367c0-48e0-4df1-8a22-6ce4fdddb348,1,ece53713-02bd-440a-9dd7-2c4daa647d08,d0ca949e-7e0e-4e03-865c-6227212e007d
2019-09-22 03:42:55,97e2234d-052b-41b6-b9c2-a76ff81fcd5f,1,ece53713-02bd-440a-9dd7-2c4daa647d08,8c57625d-cf83-442e-98e8-0910855bbf21
2019-09-22 03:28:11,6bb691ec-cf64-4193-97cd-506fcf687d78,1,43a77904-a707-43c3-acb1-d9abd9b9f242,7a26376a-eee3-471c-bb2f-59b41ec179be
2019-09-22 03:28:40,6bb691ec-cf64-4193-97cd-506fcf687d78,1,43a77904-a707-43c3-acb1-d9abd9b9f242,77514f43-4bad-4b81-b0ad-9c35d14e9912
2019-09-22 03:30:40,142a9b23-b0c5-4dfc-a3f9-0ce31bfd69ab,1,43a77904-a707-43c3-acb1-d9abd9b9f242,d0ca949e-7e0e-4e03-865c-6227212e007d
2019-09-22 03:38:40,81502b08-d552-4acf-a8c1-5d22ab960c61,1,43a77904-a707-43c3-acb1-d9abd9b9f242,7a26376a-eee3-471c-bb2f-59b41ec179be
2019-09-22 03:26:54,ac260bf0-c31c-4090-a87e-a2c3aa23b811,1,c20896a4-c715-485d-8238-fb1d1c0933e7,d0ca949e-7e0e-4e03-865c-6227212e007d
2019-09-22 03:27:24,ac260bf0-c31c-4090-a87e-a2c3aa23b811,1,c20896a4-c715-485d-8238-fb1d1c0933e7,b3598cd6-4eb5-486c-8132-0f5badc7e135
2019-09-22 03:34:15,9cb7b3f3-042d-48b1-b215-d2130a688a34,1,c20896a4-c715-485d-8238-fb1d1c0933e7,e7365d21-df35-4f50-a8e8-d7ce15eb3adf
2019-09-22 03:41:00,60989907-cd9a-4653-a7a9-4d412e661cfd,1,c20896a4-c715-485d-8238-fb1d1c0933e7,07022ba4-fe53-4ce5-8e83-5df8239a96cb
2019-09-22 04:01:26,d811a7f1-5e27-4225-a7d1-2829bbf87e78,1,c20896a4-c715-485d-8238-fb1d1c0933e7,ece53713-02bd-440a-9dd7-2c4daa647d08
2019-09-22 03:29:40,142a9b23-b0c5-4dfc-a3f9-0ce31bfd69ab,1,d520e2e1-9b8d-43bf-9c50-6ead2baada2d,3db203e2-0445-42ae-8241-3238ecc26c5e
2019-09-22 03:36:00,23bdf711-9a57-4b8b-bab6-227fdb66022a,1,d520e2e1-9b8d-43bf-9c50-6ead2baada2d,e7365d21-df35-4f50-a8e8-d7ce15eb3adf
2019-09-22 03:40:30,60989907-cd9a-4653-a7a9-4d412e661cfd,1,d520e2e1-9b8d-43bf-9c50-6ead2baada2d,1b1e72ed-2a0d-4920-be89-3b172649f339
2019-09-22 03:27:56,6bb691ec-cf64-4193-97cd-506fcf687d78,1,e7365d21-df35-4f50-a8e8-d7ce15eb3adf,43a77904-a707-43c3-acb1-d9abd9b9f242
2019-09-22 03:34:30,9cb7b3f3-042d-48b1-b215-d2130a688a34,1,e7365d21-df35-4f50-a8e8-d7ce15eb3adf,77514f43-4bad-4b81-b0ad-9c35d14e9912
2019-09-22 03:35:35,23bdf711-9a57-4b8b-bab6-227fdb66022a,1,e7365d21-df35-4f50-a8e8-d7ce15eb3adf,e7365d21-df35-4f50-a8e8-d7ce15eb3adf
2019-09-22 03:35:45,23bdf711-9a57-4b8b-bab6-227fdb66022a,1,e7365d21-df35-4f50-a8e8-d7ce15eb3adf,d520e2e1-9b8d-43bf-9c50-6ead2baada2d
2019-09-22 03:36:15,23bdf711-9a57-4b8b-bab6-227fdb66022a,1,e7365d21-df35-4f50-a8e8-d7ce15eb3adf,a110f903-a41b-4927-ad7c-a2737be2be94
2019-09-22 03:47:40,f4b5d8df-3cde-4c3b-9c83-66c110f6bd7c,1,e7365d21-df35-4f50-a8e8-d7ce15eb3adf,7a26376a-eee3-471c-bb2f-59b41ec179be
2019-09-22 03:49:05,f4b5d8df-3cde-4c3b-9c83-66c110f6bd7c,1,e7365d21-df35-4f50-a8e8-d7ce15eb3adf,37db861b-9949-44a8-b1a1-0acb54983e46
2019-09-22 03:27:09,ac260bf0-c31c-4090-a87e-a2c3aa23b811,1,d0ca949e-7e0e-4e03-865c-6227212e007d,c20896a4-c715-485d-8238-fb1d1c0933e7
2019-09-22 03:30:00,26bc56f7-20b2-4564-be6b-0fd1ec111c79,1,d0ca949e-7e0e-4e03-865c-6227212e007d,9645c790-4ed8-41d8-bed2-11cf6bc3f50f
2019-09-22 03:30:55,142a9b23-b0c5-4dfc-a3f9-0ce31bfd69ab,1,d0ca949e-7e0e-4e03-865c-6227212e007d,fa81f106-a6cc-4c87-97df-7c08a742ccde
2019-09-22 03:40:16,a2f367c0-48e0-4df1-8a22-6ce4fdddb348,1,d0ca949e-7e0e-4e03-865c-6227212e007d,37db861b-9949-44a8-b1a1-0acb54983e46
2019-09-22 03:29:55,142a9b23-b0c5-4dfc-a3f9-0ce31bfd69ab,1,3db203e2-0445-42ae-8241-3238ecc26c5e,fa81f106-a6cc-4c87-97df-7c08a742ccde
2019-09-22 03:38:10,81502b08-d552-4acf-a8c1-5d22ab960c61,1,3db203e2-0445-42ae-8241-3238ecc26c5e,07022ba4-fe53-4ce5-8e83-5df8239a96cb
2019-09-22 03:54:51,3ef45380-8ecc-485e-9594-ae9aa4c67f62,1,3db203e2-0445-42ae-8241-3238ecc26c5e,b3598cd6-4eb5-486c-8132-0f5badc7e135
2019-09-22 03:28:25,6bb691ec-cf64-4193-97cd-506fcf687d78,1,7a26376a-eee3-471c-bb2f-59b41ec179be,43a77904-a707-43c3-acb1-d9abd9b9f242
2019-09-22 03:30:26,142a9b23-b0c5-4dfc-a3f9-0ce31bfd69ab,1,7a26376a-eee3-471c-bb2f-59b41ec179be,43a77904-a707-43c3-acb1-d9abd9b9f242
2019-09-22 03:31:01,26bc56f7-20b2-4564-be6b-0fd1ec111c79,1,7a26376a-eee3-471c-bb2f-59b41ec179be,9645c790-4ed8-41d8-bed2-11cf6bc3f50f
2019-09-22 03:47:55,f4b5d8df-3cde-4c3b-9c83-66c110f6bd7c,1,7a26376a-eee3-471c-bb2f-59b41ec179be,e7365d21-df35-4f50-a8e8-d7ce15eb3adf
2019-09-22 03:30:10,142a9b23-b0c5-4dfc-a3f9-0ce31bfd69ab,1,fa81f106-a6cc-4c87-97df-7c08a742ccde,7a26376a-eee3-471c-bb2f-59b41ec179be
2019-09-22 03:55:21,3ef45380-8ecc-485e-9594-ae9aa4c67f62,1,0a293b7e-2ac6-4911-83c3-c45ffd610e18,3f6026e0-b6fb-4400-82bb-5ff4e4162082
2019-09-22 03:56:37,3ef45380-8ecc-485e-9594-ae9aa4c67f62,1,0a293b7e-2ac6-4911-83c3-c45ffd610e18,3ec233a5-0188-47e3-bccf-cb3d86091c50
2019-09-22 03:30:31,26bc56f7-20b2-4564-be6b-0fd1ec111c79,1,87389cae-b925-476e-90e3-ceb2eba15c52,9645c790-4ed8-41d8-bed2-11cf6bc3f50f
2019-09-22 03:39:16,6e67f739-13c4-4072-ad7a-ec5400457d4c,1,30401940-578d-4717-841c-140c5a36370c,1b1e72ed-2a0d-4920-be89-3b172649f339
2019-09-22 03:55:36,3ef45380-8ecc-485e-9594-ae9aa4c67f62,1,3f6026e0-b6fb-4400-82bb-5ff4e4162082,1b1e72ed-2a0d-4920-be89-3b172649f339
2019-09-22 03:56:07,3ef45380-8ecc-485e-9594-ae9aa4c67f62,1,3f6026e0-b6fb-4400-82bb-5ff4e4162082,1b1e72ed-2a0d-4920-be89-3b172649f339
2019-09-22 03:57:23,3ef45380-8ecc-485e-9594-ae9aa4c67f62,1,3f6026e0-b6fb-4400-82bb-5ff4e4162082,3ec233a5-0188-47e3-bccf-cb3d86091c50
2019-09-22 03:38:31,6e67f739-13c4-4072-ad7a-ec5400457d4c,1,b6c30b7d-4b22-4f3c-bc4b-cfe6ba918e06,ece53713-02bd-440a-9dd7-2c4daa647d08
2019-09-22 03:39:01,6e67f739-13c4-4072-ad7a-ec5400457d4c,1,b6c30b7d-4b22-4f3c-bc4b-cfe6ba918e06,30401940-578d-4717-841c-140c5a36370c
2019-09-22 03:27:40,ac260bf0-c31c-4090-a87e-a2c3aa23b811,1,b3598cd6-4eb5-486c-8132-0f5badc7e135,c20896a4-c715-485d-8238-fb1d1c0933e7
2019-09-22 03:55:06,3ef45380-8ecc-485e-9594-ae9aa4c67f62,1,b3598cd6-4eb5-486c-8132-0f5badc7e135,0a293b7e-2ac6-4911-83c3-c45ffd610e18
2019-09-22 03:57:08,3ef45380-8ecc-485e-9594-ae9aa4c67f62,1,b3598cd6-4eb5-486c-8132-0f5badc7e135,3f6026e0-b6fb-4400-82bb-5ff4e4162082
2019-09-22 03:36:30,23bdf711-9a57-4b8b-bab6-227fdb66022a,1,a110f903-a41b-4927-ad7c-a2737be2be94,cb22f03c-69f4-498b-ae62-d98211931af7
2019-09-22 03:36:00,c0840fb6-14af-494c-b5c1-4b8362454ee3,1,a620b607-e68f-4b9f-ab91-34154921ba23,2a1febac-1790-4183-9985-53cfc5f2ae62
2019-09-22 03:36:31,c0840fb6-14af-494c-b5c1-4b8362454ee3,1,a620b607-e68f-4b9f-ab91-34154921ba23,e3eb7910-19b4-405d-b477-538dd1082235
2019-09-22 03:37:51,c0840fb6-14af-494c-b5c1-4b8362454ee3,1,a620b607-e68f-4b9f-ab91-34154921ba23,2a1febac-1790-4183-9985-53cfc5f2ae62
2019-09-22 03:38:20,c0840fb6-14af-494c-b5c1-4b8362454ee3,1,a620b607-e68f-4b9f-ab91-34154921ba23,5bfb0d8e-c7ce-45a8-b2ef-d87c4f2e6b37
2019-09-22 03:40:26,acdbfb79-42b5-49d1-ac84-186001a445c4,1,a620b607-e68f-4b9f-ab91-34154921ba23,e7365d21-df35-4f50-a8e8-d7ce15eb3adf
2019-09-22 03:41:36,acdbfb79-42b5-49d1-ac84-186001a445c4,1,a620b607-e68f-4b9f-ab91-34154921ba23,6db69f5d-8817-44ea-8865-03f9b6bc485f
2019-09-22 03:41:51,acdbfb79-42b5-49d1-ac84-186001a445c4,1,a620b607-e68f-4b9f-ab91-34154921ba23,e7365d21-df35-4f50-a8e8-d7ce15eb3adf
2019-09-22 03:56:52,3ef45380-8ecc-485e-9594-ae9aa4c67f62,1,3ec233a5-0188-47e3-bccf-cb3d86091c50,b3598cd6-4eb5-486c-8132-0f5badc7e135
2019-09-22 03:57:38,3ef45380-8ecc-485e-9594-ae9aa4c67f62,1,3ec233a5-0188-47e3-bccf-cb3d86091c50,1b1e72ed-2a0d-4920-be89-3b172649f339
2019-09-22 03:30:16,26bc56f7-20b2-4564-be6b-0fd1ec111c79,1,9645c790-4ed8-41d8-bed2-11cf6bc3f50f,87389cae-b925-476e-90e3-ceb2eba15c52
2019-09-22 03:30:46,26bc56f7-20b2-4564-be6b-0fd1ec111c79,1,9645c790-4ed8-41d8-bed2-11cf6bc3f50f,7a26376a-eee3-471c-bb2f-59b41ec179be
2019-09-22 03:42:41,97e2234d-052b-41b6-b9c2-a76ff81fcd5f,1,8c57625d-cf83-442e-98e8-0910855bbf21,ece53713-02bd-440a-9dd7-2c4daa647d08
2019-09-22 03:35:46,c0840fb6-14af-494c-b5c1-4b8362454ee3,1,2a1febac-1790-4183-9985-53cfc5f2ae62,a620b607-e68f-4b9f-ab91-34154921ba23
2019-09-22 03:36:15,c0840fb6-14af-494c-b5c1-4b8362454ee3,1,2a1febac-1790-4183-9985-53cfc5f2ae62,a620b607-e68f-4b9f-ab91-34154921ba23
2019-09-22 03:37:21,c0840fb6-14af-494c-b5c1-4b8362454ee3,1,2a1febac-1790-4183-9985-53cfc5f2ae62,5bfb0d8e-c7ce-45a8-b2ef-d87c4f2e6b37
2019-09-22 03:38:06,c0840fb6-14af-494c-b5c1-4b8362454ee3,1,2a1febac-1790-4183-9985-53cfc5f2ae62,a620b607-e68f-4b9f-ab91-34154921ba23
2019-09-22 03:37:06,c0840fb6-14af-494c-b5c1-4b8362454ee3,1,5bfb0d8e-c7ce-45a8-b2ef-d87c4f2e6b37,2a1febac-1790-4183-9985-53cfc5f2ae62
2019-09-22 03:37:36,c0840fb6-14af-494c-b5c1-4b8362454ee3,1,5bfb0d8e-c7ce-45a8-b2ef-d87c4f2e6b37,a620b607-e68f-4b9f-ab91-34154921ba23
2019-09-22 03:38:36,c0840fb6-14af-494c-b5c1-4b8362454ee3,1,5bfb0d8e-c7ce-45a8-b2ef-d87c4f2e6b37,a620b607-e68f-4b9f-ab91-34154921ba23
2019-09-22 03:36:46,c0840fb6-14af-494c-b5c1-4b8362454ee3,1,e3eb7910-19b4-405d-b477-538dd1082235,5bfb0d8e-c7ce-45a8-b2ef-d87c4f2e6b37
