app_number,app_id,trigger,burn,sink,deploy_date,token_interval
1,3ded9a65-4395-4c01-adee-073477a93942,4cfae4f4-7a29-4b09-a9cc-3de10a141444,ac260bf0-c31c-4090-a87e-a2c3aa23b811,3e790afe-d6bd-4d03-b1c9-6ac3fed08d59,2019-09-22 03:21:52,1.000000
2,50e0d316-1029-4ea9-8513-0398ba6f2926,30123806-5daa-41c0-b0a4-004572d80ab6,97e2234d-052b-41b6-b9c2-a76ff81fcd5f,6ff60c88-c5a3-4798-b009-897c4f27ed24,2019-09-22 03:22:56,1.000000
3,bdbf75f5-7e1e-484a-b523-d37c064b5d3b,f520383b-4af0-46d4-9072-0b3addccc099,23bdf711-9a57-4b8b-bab6-227fdb66022a,7f4aec72-01b1-443c-8358-93f6c164acaf,2019-09-22 03:24:00,1.000000
4,a3e957a5-c0ba-401f-96e4-b7f42d8efc9d,1e109fa2-b38c-49bd-a24f-b7ad0e26f58f,6bb691ec-cf64-4193-97cd-506fcf687d78,42ee7adb-dc02-4084-9a57-b88c91ee9546,2019-09-22 03:25:03,0.200000
5,0bd2026e-875e-434d-b0c5-eabd517fb538,ba0fa562-acdc-43ef-8ea3-79e77e3bc0fc,142a9b23-b0c5-4dfc-a3f9-0ce31bfd69ab,ca5367a6-08db-4143-ad7a-d5b67724acb4,2019-09-22 03:26:07,0.200000
6,408f6e70-5e2d-4c68-b1f2-e49e67d30405,728ed52d-6588-437a-8d4b-85a3ffc8375b,c8586188-9a6b-4931-a565-57583b4255fb,8e86cbeb-0e05-4f56-a5ce-f3eb257cf977,2019-09-22 03:27:11,0.200000
7,2f95bc93-e4bc-47c2-848f-7def935b664c,ce0f802a-f766-4ea7-9cc5-3b82715ef88f,14a60999-280f-4d04-85ac-e186ca4626c6,06ee009c-c9f6-4311-8bed-dcddfd344634,2019-09-22 03:28:15,0.200000
8,ab7efee4-b045-49a2-89fe-c95f492c499c,45110d3e-a2c1-4a38-b797-a57fb6dff561,26bc56f7-20b2-4564-be6b-0fd1ec111c79,ccd50c11-1d04-46a5-b512-83eabd2e9048,2019-09-22 03:29:18,1.000000
9,543bf785-ce5b-4164-8fc3-58d6ba45c9e0,aeb00e11-0eb5-4d50-8181-0f7485831fd1,60989907-cd9a-4653-a7a9-4d412e661cfd,569c3722-537f-4015-91e2-bb2f50226098,2019-09-22 03:30:22,0.200000
10,f973f222-0d65-4339-9c6f-71460c4e7f8b,8eca1ffb-030c-4c58-906b-e895f58fd6c4,1d56d606-1049-4535-88bc-e8337f0f152a,3db2734a-f746-4f62-8a48-8992de3c267c,2019-09-22 03:31:26,0.200000
11,a201d76a-9c1d-42e6-8300-e7341414ccf3,c42d8dbc-b63f-4867-8724-dcc66a78a3a6,9cb7b3f3-042d-48b1-b215-d2130a688a34,512274ca-654e-45a3-8e23-55084946ec87,2019-09-22 03:32:30,0.200000
12,53e025f0-07c0-4cb0-816b-7ee816aa4683,cc8cf95f-6b19-4ffe-8286-b157636853c9,c0840fb6-14af-494c-b5c1-4b8362454ee3,fe89740b-01cb-4d01-bbdf-ae0f41f74a17,2019-09-22 03:33:33,1.000000
13,3e377936-4994-46b7-bffe-de6534dca792,71332af4-b136-40df-ab39-f50dc2e70e30,a2f367c0-48e0-4df1-8a22-6ce4fdddb348,0bf24eba-fd38-4b74-9f71-e570a4fe68fe,2019-09-22 03:34:37,0.200000
14,fd86c73e-a0cb-4091-b930-2c929c769819,aed0b010-8a6e-4c8a-9d90-745b4aba3964,81502b08-d552-4acf-a8c1-5d22ab960c61,a050bf50-19ac-4e84-b25e-fb21cde5eb7b,2019-09-22 03:35:40,0.200000
15,727c160b-bfa5-4699-a1d9-37092c6fb57c,5402b7cd-0079-40f2-b286-ab620ff445dd,acdbfb79-42b5-49d1-ac84-186001a445c4,27f9b11d-ece8-4d02-988e-7a4e6a3b45c8,2019-09-22 03:36:44,1.000000
16,1f7efe4f-3042-46e5-8e03-e4548021ca60,cc87efbe-cb57-4a9f-9d8a-06cfea23bd2b,6e67f739-13c4-4072-ad7a-ec5400457d4c,5da2354c-c4cf-48a7-aec2-6b7294c93f4c,2019-09-22 03:37:47,1.000000
17,6d123af6-3ee0-41f7-a72c-3b78d348d2df,beeb25e0-cd27-41c3-b158-0c8850bf60c8,4fba647c-514a-486b-a33d-93ea7a3b14dd,23639c16-cbba-4d89-bf8b-70a6d5258bed,2019-09-22 03:38:51,0.200000
18,d20116cb-a74b-44f3-9a44-0d29f32a2373,7a5abe2e-1fe7-4560-bf9f-3e031c102c6b,d811a7f1-5e27-4225-a7d1-2829bbf87e78,cbebdbc2-2d54-4f53-b45d-93c2b2f503c2,2019-09-22 03:39:55,1.000000
19,2c2650ab-76a1-4dff-a6c1-fcc54534b28e,ecac22e5-00d7-47a9-964e-546a55d426c7,f4b5d8df-3cde-4c3b-9c83-66c110f6bd7c,9c3d327a-198f-4656-a4c1-be5adaebc0ff,2019-09-22 03:40:59,0.200000
20,e1db57be-e537-4c43-acb7-caa99f8439aa,3d376863-908e-4696-936a-2d680e0aa405,3ef45380-8ecc-485e-9594-ae9aa4c67f62,7c81a800-b3a8-4b23-bb61-fc168d052dcc,2019-09-22 03:42:03,1.000000
21,433e1413-45a8-4f59-815e-54be0da90efe,58f7d0af-859a-4786-a34e-d50a73a719e6,854584f7-21c7-4c14-8d9c-430bd52d4d13,743213e1-8c07-4083-b7c3-6e3e973adadb,2019-09-22 03:43:06,0.200000
22,NA,NA,NA,NA,2019-09-22 03:44:10,NA
23,NA,NA,NA,NA,2019-09-22 03:45:14,NA
24,0e41b474-f5fd-404c-9732-9e88fc209e47,681e7151-dd2e-4de2-89fc-d3722412cf66,de535859-5951-42e9-bbc0-2991391a4301,db784ea0-0c18-4f47-b0fb-916a117a2afa,2019-09-22 03:46:17,1.000000
25,0fb986fe-72fe-4116-ba92-7a1ec010a70d,5a346214-56c7-4703-b323-894eac9c06f4,3bf027bd-d52a-47e6-807c-38cebbb3a26d,952d73aa-27ae-4696-818e-336c849c04f3,2019-09-22 03:47:21,1.000000
