date,trigger,state
2019-09-22 03:49:30,5a346214-56c7-4703-b323-894eac9c06f4,S
2019-09-22 03:53:54,5a346214-56c7-4703-b323-894eac9c06f4,A
2019-09-22 03:54:51,5a346214-56c7-4703-b323-894eac9c06f4,S
2019-09-22 03:58:08,5a346214-56c7-4703-b323-894eac9c06f4,A
2019-09-22 03:58:31,5a346214-56c7-4703-b323-894eac9c06f4,S
2019-09-22 04:01:29,5a346214-56c7-4703-b323-894eac9c06f4,A
2019-09-22 04:05:29,5a346214-56c7-4703-b323-894eac9c06f4,S
2019-09-22 04:07:43,5a346214-56c7-4703-b323-894eac9c06f4,A
2019-09-22 04:09:49,5a346214-56c7-4703-b323-894eac9c06f4,S
2019-09-22 04:13:59,5a346214-56c7-4703-b323-894eac9c06f4,A
2019-09-22 04:18:37,5a346214-56c7-4703-b323-894eac9c06f4,S
2019-09-22 04:21:41,5a346214-56c7-4703-b323-894eac9c06f4,A
2019-09-22 04:23:51,5a346214-56c7-4703-b323-894eac9c06f4,S
2019-09-22 04:29:54,5a346214-56c7-4703-b323-894eac9c06f4,A
2019-09-22 04:32:25,5a346214-56c7-4703-b323-894eac9c06f4,S
2019-09-22 04:33:09,5a346214-56c7-4703-b323-894eac9c06f4,A
2019-09-22 04:33:12,5a346214-56c7-4703-b323-894eac9c06f4,S
2019-09-22 04:36:02,5a346214-56c7-4703-b323-894eac9c06f4,A
2019-09-22 04:44:18,5a346214-56c7-4703-b323-894eac9c06f4,S
2019-09-22 04:47:04,5a346214-56c7-4703-b323-894eac9c06f4,A
2019-09-22 04:47:07,5a346214-56c7-4703-b323-894eac9c06f4,S
2019-09-22 04:53:12,5a346214-56c7-4703-b323-894eac9c06f4,A
2019-09-22 04:57:35,5a346214-56c7-4703-b323-894eac9c06f4,S
2019-09-22 03:46:22,3d376863-908e-4696-936a-2d680e0aa405,S
2019-09-22 03:54:46,3d376863-908e-4696-936a-2d680e0aa405,A
2019-09-22 03:54:55,3d376863-908e-4696-936a-2d680e0aa405,S
2019-09-22 03:57:54,3d376863-908e-4696-936a-2d680e0aa405,A
2019-09-22 03:59:44,3d376863-908e-4696-936a-2d680e0aa405,S
2019-09-22 04:00:13,3d376863-908e-4696-936a-2d680e0aa405,A
2019-09-22 04:11:35,3d376863-908e-4696-936a-2d680e0aa405,S
2019-09-22 04:18:22,3d376863-908e-4696-936a-2d680e0aa405,A
2019-09-22 04:41:47,3d376863-908e-4696-936a-2d680e0aa405,S
2019-09-22 04:52:01,3d376863-908e-4696-936a-2d680e0aa405,A
2019-09-22 05:00:09,3d376863-908e-4696-936a-2d680e0aa405,S
2019-09-22 05:01:03,3d376863-908e-4696-936a-2d680e0aa405,A
2019-09-22 03:33:44,c42d8dbc-b63f-4867-8724-dcc66a78a3a6,A
2019-09-22 03:35:02,c42d8dbc-b63f-4867-8724-dcc66a78a3a6,S
2019-09-22 03:44:05,c42d8dbc-b63f-4867-8724-dcc66a78a3a6,A
2019-09-22 03:46:18,c42d8dbc-b63f-4867-8724-dcc66a78a3a6,S
2019-09-22 03:46:58,c42d8dbc-b63f-4867-8724-dcc66a78a3a6,A
2019-09-22 03:47:06,c42d8dbc-b63f-4867-8724-dcc66a78a3a6,S
2019-09-22 03:52:06,c42d8dbc-b63f-4867-8724-dcc66a78a3a6,A
2019-09-22 03:55:17,c42d8dbc-b63f-4867-8724-dcc66a78a3a6,S
2019-09-22 03:56:44,c42d8dbc-b63f-4867-8724-dcc66a78a3a6,A
2019-09-22 04:06:49,c42d8dbc-b63f-4867-8724-dcc66a78a3a6,S
2019-09-22 04:08:30,c42d8dbc-b63f-4867-8724-dcc66a78a3a6,A
2019-09-22 04:15:23,c42d8dbc-b63f-4867-8724-dcc66a78a3a6,S
2019-09-22 04:18:26,c42d8dbc-b63f-4867-8724-dcc66a78a3a6,A
2019-09-22 04:24:56,c42d8dbc-b63f-4867-8724-dcc66a78a3a6,S
2019-09-22 04:31:45,c42d8dbc-b63f-4867-8724-dcc66a78a3a6,A
2019-09-22 04:43:41,c42d8dbc-b63f-4867-8724-dcc66a78a3a6,S
2019-09-22 04:43:59,c42d8dbc-b63f-4867-8724-dcc66a78a3a6,A
2019-09-22 04:59:23,c42d8dbc-b63f-4867-8724-dcc66a78a3a6,S
2019-09-22 03:27:54,1e109fa2-b38c-49bd-a24f-b7ad0e26f58f,A
2019-09-22 03:29:22,1e109fa2-b38c-49bd-a24f-b7ad0e26f58f,S
2019-09-22 03:32:50,1e109fa2-b38c-49bd-a24f-b7ad0e26f58f,A
2019-09-22 03:34:04,1e109fa2-b38c-49bd-a24f-b7ad0e26f58f,S
2019-09-22 03:36:31,1e109fa2-b38c-49bd-a24f-b7ad0e26f58f,A
2019-09-22 03:41:42,1e109fa2-b38c-49bd-a24f-b7ad0e26f58f,S
2019-09-22 03:47:36,1e109fa2-b38c-49bd-a24f-b7ad0e26f58f,A
2019-09-22 04:00:57,1e109fa2-b38c-49bd-a24f-b7ad0e26f58f,S
2019-09-22 04:05:35,1e109fa2-b38c-49bd-a24f-b7ad0e26f58f,A
2019-09-22 04:08:03,1e109fa2-b38c-49bd-a24f-b7ad0e26f58f,S
2019-09-22 04:17:18,1e109fa2-b38c-49bd-a24f-b7ad0e26f58f,A
2019-09-22 04:18:15,1e109fa2-b38c-49bd-a24f-b7ad0e26f58f,S
2019-09-22 04:21:45,1e109fa2-b38c-49bd-a24f-b7ad0e26f58f,A
2019-09-22 04:23:24,1e109fa2-b38c-49bd-a24f-b7ad0e26f58f,S
2019-09-22 04:28:58,1e109fa2-b38c-49bd-a24f-b7ad0e26f58f,A
2019-09-22 04:34:07,1e109fa2-b38c-49bd-a24f-b7ad0e26f58f,S
2019-09-22 04:37:00,1e109fa2-b38c-49bd-a24f-b7ad0e26f58f,A
2019-09-22 04:51:36,1e109fa2-b38c-49bd-a24f-b7ad0e26f58f,S
2019-09-22 04:55:02,1e109fa2-b38c-49bd-a24f-b7ad0e26f58f,A
2019-09-22 05:00:07,1e109fa2-b38c-49bd-a24f-b7ad0e26f58f,S
2019-09-22 05:01:57,1e109fa2-b38c-49bd-a24f-b7ad0e26f58f,A
2019-09-22 03:27:38,f520383b-4af0-46d4-9072-0b3addccc099,S
2019-09-22 03:35:29,f520383b-4af0-46d4-9072-0b3addccc099,A
2019-09-22 03:51:55,f520383b-4af0-46d4-9072-0b3addccc099,S
2019-09-22 04:17:39,f520383b-4af0-46d4-9072-0b3addccc099,A
2019-09-22 04:27:15,f520383b-4af0-46d4-9072-0b3addccc099,S
2019-09-22 04:27:23,f520383b-4af0-46d4-9072-0b3addccc099,A
2019-09-22 04:39:56,f520383b-4af0-46d4-9072-0b3addccc099,S
2019-09-22 04:42:59,f520383b-4af0-46d4-9072-0b3addccc099,A
2019-09-22 04:50:03,f520383b-4af0-46d4-9072-0b3addccc099,S
2019-09-22 04:55:01,f520383b-4af0-46d4-9072-0b3addccc099,A
2019-09-22 04:55:32,f520383b-4af0-46d4-9072-0b3addccc099,S
2019-09-22 03:39:20,aeb00e11-0eb5-4d50-8181-0f7485831fd1,S
2019-09-22 03:40:12,aeb00e11-0eb5-4d50-8181-0f7485831fd1,A
2019-09-22 03:43:17,aeb00e11-0eb5-4d50-8181-0f7485831fd1,S
2019-09-22 03:53:14,aeb00e11-0eb5-4d50-8181-0f7485831fd1,A
2019-09-22 03:55:51,aeb00e11-0eb5-4d50-8181-0f7485831fd1,S
2019-09-22 04:02:14,aeb00e11-0eb5-4d50-8181-0f7485831fd1,A
2019-09-22 04:07:17,aeb00e11-0eb5-4d50-8181-0f7485831fd1,S
2019-09-22 04:08:09,aeb00e11-0eb5-4d50-8181-0f7485831fd1,A
2019-09-22 04:18:44,aeb00e11-0eb5-4d50-8181-0f7485831fd1,S
2019-09-22 04:22:15,aeb00e11-0eb5-4d50-8181-0f7485831fd1,A
2019-09-22 04:22:33,aeb00e11-0eb5-4d50-8181-0f7485831fd1,S
2019-09-22 04:22:49,aeb00e11-0eb5-4d50-8181-0f7485831fd1,A
2019-09-22 04:28:29,aeb00e11-0eb5-4d50-8181-0f7485831fd1,S
2019-09-22 04:36:15,aeb00e11-0eb5-4d50-8181-0f7485831fd1,A
2019-09-22 04:41:21,aeb00e11-0eb5-4d50-8181-0f7485831fd1,S
2019-09-22 04:57:29,aeb00e11-0eb5-4d50-8181-0f7485831fd1,A
2019-09-22 04:58:41,aeb00e11-0eb5-4d50-8181-0f7485831fd1,S
2019-09-22 03:29:55,45110d3e-a2c1-4a38-b797-a57fb6dff561,A
2019-09-22 03:39:53,45110d3e-a2c1-4a38-b797-a57fb6dff561,S
2019-09-22 03:41:13,45110d3e-a2c1-4a38-b797-a57fb6dff561,A
2019-09-22 03:45:58,45110d3e-a2c1-4a38-b797-a57fb6dff561,S
2019-09-22 03:58:28,45110d3e-a2c1-4a38-b797-a57fb6dff561,A
2019-09-22 04:01:27,45110d3e-a2c1-4a38-b797-a57fb6dff561,S
2019-09-22 04:07:41,45110d3e-a2c1-4a38-b797-a57fb6dff561,A
2019-09-22 04:11:15,45110d3e-a2c1-4a38-b797-a57fb6dff561,S
2019-09-22 04:16:50,45110d3e-a2c1-4a38-b797-a57fb6dff561,A
2019-09-22 04:19:10,45110d3e-a2c1-4a38-b797-a57fb6dff561,S
2019-09-22 04:25:23,45110d3e-a2c1-4a38-b797-a57fb6dff561,A
2019-09-22 04:28:42,45110d3e-a2c1-4a38-b797-a57fb6dff561,S
2019-09-22 04:29:27,45110d3e-a2c1-4a38-b797-a57fb6dff561,A
2019-09-22 04:37:38,45110d3e-a2c1-4a38-b797-a57fb6dff561,S
2019-09-22 04:37:39,45110d3e-a2c1-4a38-b797-a57fb6dff561,A
2019-09-22 04:39:13,45110d3e-a2c1-4a38-b797-a57fb6dff561,S
2019-09-22 04:40:01,45110d3e-a2c1-4a38-b797-a57fb6dff561,A
2019-09-22 04:40:07,45110d3e-a2c1-4a38-b797-a57fb6dff561,S
2019-09-22 04:40:13,45110d3e-a2c1-4a38-b797-a57fb6dff561,A
2019-09-22 04:40:37,45110d3e-a2c1-4a38-b797-a57fb6dff561,S
2019-09-22 04:45:22,45110d3e-a2c1-4a38-b797-a57fb6dff561,A
2019-09-22 04:49:31,45110d3e-a2c1-4a38-b797-a57fb6dff561,S
2019-09-22 04:51:19,45110d3e-a2c1-4a38-b797-a57fb6dff561,A
2019-09-22 04:53:32,45110d3e-a2c1-4a38-b797-a57fb6dff561,S
2019-09-22 03:28:29,728ed52d-6588-437a-8d4b-85a3ffc8375b,A
2019-09-22 03:35:08,728ed52d-6588-437a-8d4b-85a3ffc8375b,S
2019-09-22 03:41:27,728ed52d-6588-437a-8d4b-85a3ffc8375b,A
2019-09-22 03:44:07,728ed52d-6588-437a-8d4b-85a3ffc8375b,S
2019-09-22 03:53:33,728ed52d-6588-437a-8d4b-85a3ffc8375b,A
2019-09-22 03:59:36,728ed52d-6588-437a-8d4b-85a3ffc8375b,S
2019-09-22 04:03:52,728ed52d-6588-437a-8d4b-85a3ffc8375b,A
2019-09-22 04:09:36,728ed52d-6588-437a-8d4b-85a3ffc8375b,S
2019-09-22 04:11:11,728ed52d-6588-437a-8d4b-85a3ffc8375b,A
2019-09-22 04:12:48,728ed52d-6588-437a-8d4b-85a3ffc8375b,S
2019-09-22 04:15:50,728ed52d-6588-437a-8d4b-85a3ffc8375b,A
2019-09-22 04:20:38,728ed52d-6588-437a-8d4b-85a3ffc8375b,S
2019-09-22 04:21:42,728ed52d-6588-437a-8d4b-85a3ffc8375b,A
2019-09-22 04:25:00,728ed52d-6588-437a-8d4b-85a3ffc8375b,S
2019-09-22 04:26:59,728ed52d-6588-437a-8d4b-85a3ffc8375b,A
2019-09-22 04:28:03,728ed52d-6588-437a-8d4b-85a3ffc8375b,S
2019-09-22 04:35:49,728ed52d-6588-437a-8d4b-85a3ffc8375b,A
2019-09-22 04:43:52,728ed52d-6588-437a-8d4b-85a3ffc8375b,S
2019-09-22 04:48:36,728ed52d-6588-437a-8d4b-85a3ffc8375b,A
2019-09-22 04:53:34,728ed52d-6588-437a-8d4b-85a3ffc8375b,S
2019-09-22 04:55:36,728ed52d-6588-437a-8d4b-85a3ffc8375b,A
2019-09-22 03:40:46,beeb25e0-cd27-41c3-b158-0c8850bf60c8,A
2019-09-22 03:41:58,beeb25e0-cd27-41c3-b158-0c8850bf60c8,S
2019-09-22 03:43:22,beeb25e0-cd27-41c3-b158-0c8850bf60c8,A
2019-09-22 03:49:49,beeb25e0-cd27-41c3-b158-0c8850bf60c8,S
2019-09-22 03:53:14,beeb25e0-cd27-41c3-b158-0c8850bf60c8,A
2019-09-22 03:56:08,beeb25e0-cd27-41c3-b158-0c8850bf60c8,S
2019-09-22 03:57:15,beeb25e0-cd27-41c3-b158-0c8850bf60c8,A
2019-09-22 03:59:47,beeb25e0-cd27-41c3-b158-0c8850bf60c8,S
2019-09-22 04:00:46,beeb25e0-cd27-41c3-b158-0c8850bf60c8,A
2019-09-22 04:02:51,beeb25e0-cd27-41c3-b158-0c8850bf60c8,S
2019-09-22 04:04:13,beeb25e0-cd27-41c3-b158-0c8850bf60c8,A
2019-09-22 04:10:46,beeb25e0-cd27-41c3-b158-0c8850bf60c8,S
2019-09-22 04:12:13,beeb25e0-cd27-41c3-b158-0c8850bf60c8,A
2019-09-22 04:13:02,beeb25e0-cd27-41c3-b158-0c8850bf60c8,S
2019-09-22 04:13:31,beeb25e0-cd27-41c3-b158-0c8850bf60c8,A
2019-09-22 04:16:22,beeb25e0-cd27-41c3-b158-0c8850bf60c8,S
2019-09-22 04:21:29,beeb25e0-cd27-41c3-b158-0c8850bf60c8,A
2019-09-22 04:36:56,beeb25e0-cd27-41c3-b158-0c8850bf60c8,S
2019-09-22 04:45:59,beeb25e0-cd27-41c3-b158-0c8850bf60c8,A
2019-09-22 04:55:42,beeb25e0-cd27-41c3-b158-0c8850bf60c8,S
2019-09-22 03:32:34,30123806-5daa-41c0-b0a4-004572d80ab6,S
2019-09-22 03:42:19,30123806-5daa-41c0-b0a4-004572d80ab6,A
2019-09-22 03:43:43,30123806-5daa-41c0-b0a4-004572d80ab6,S
2019-09-22 03:51:57,30123806-5daa-41c0-b0a4-004572d80ab6,A
2019-09-22 03:52:49,30123806-5daa-41c0-b0a4-004572d80ab6,S
2019-09-22 03:53:31,30123806-5daa-41c0-b0a4-004572d80ab6,A
2019-09-22 03:56:58,30123806-5daa-41c0-b0a4-004572d80ab6,S
2019-09-22 04:04:44,30123806-5daa-41c0-b0a4-004572d80ab6,A
2019-09-22 04:04:58,30123806-5daa-41c0-b0a4-004572d80ab6,S
2019-09-22 04:10:45,30123806-5daa-41c0-b0a4-004572d80ab6,A
2019-09-22 04:13:21,30123806-5daa-41c0-b0a4-004572d80ab6,S
2019-09-22 04:13:26,30123806-5daa-41c0-b0a4-004572d80ab6,A
2019-09-22 04:16:34,30123806-5daa-41c0-b0a4-004572d80ab6,S
2019-09-22 04:17:01,30123806-5daa-41c0-b0a4-004572d80ab6,A
2019-09-22 04:28:44,30123806-5daa-41c0-b0a4-004572d80ab6,S
2019-09-22 04:31:14,30123806-5daa-41c0-b0a4-004572d80ab6,A
2019-09-22 04:34:07,30123806-5daa-41c0-b0a4-004572d80ab6,S
2019-09-22 04:34:15,30123806-5daa-41c0-b0a4-004572d80ab6,A
2019-09-22 04:38:31,30123806-5daa-41c0-b0a4-004572d80ab6,S
2019-09-22 04:40:48,30123806-5daa-41c0-b0a4-004572d80ab6,A
2019-09-22 04:48:31,30123806-5daa-41c0-b0a4-004572d80ab6,S
2019-09-22 04:57:49,30123806-5daa-41c0-b0a4-004572d80ab6,A
2019-09-22 05:02:10,30123806-5daa-41c0-b0a4-004572d80ab6,S
2019-09-22 03:26:36,4cfae4f4-7a29-4b09-a9cc-3de10a141444,A
2019-09-22 03:28:32,4cfae4f4-7a29-4b09-a9cc-3de10a141444,S
2019-09-22 03:30:16,4cfae4f4-7a29-4b09-a9cc-3de10a141444,A
2019-09-22 03:32:51,4cfae4f4-7a29-4b09-a9cc-3de10a141444,S
2019-09-22 03:36:16,4cfae4f4-7a29-4b09-a9cc-3de10a141444,A
2019-09-22 03:43:26,4cfae4f4-7a29-4b09-a9cc-3de10a141444,S
2019-09-22 03:44:54,4cfae4f4-7a29-4b09-a9cc-3de10a141444,A
2019-09-22 03:58:28,4cfae4f4-7a29-4b09-a9cc-3de10a141444,S
2019-09-22 03:59:00,4cfae4f4-7a29-4b09-a9cc-3de10a141444,A
2019-09-22 04:03:37,4cfae4f4-7a29-4b09-a9cc-3de10a141444,S
2019-09-22 04:04:14,4cfae4f4-7a29-4b09-a9cc-3de10a141444,A
2019-09-22 04:10:48,4cfae4f4-7a29-4b09-a9cc-3de10a141444,S
2019-09-22 04:11:15,4cfae4f4-7a29-4b09-a9cc-3de10a141444,A
2019-09-22 04:11:20,4cfae4f4-7a29-4b09-a9cc-3de10a141444,S
2019-09-22 04:22:30,4cfae4f4-7a29-4b09-a9cc-3de10a141444,A
2019-09-22 04:23:15,4cfae4f4-7a29-4b09-a9cc-3de10a141444,S
2019-09-22 04:25:56,4cfae4f4-7a29-4b09-a9cc-3de10a141444,A
2019-09-22 04:30:39,4cfae4f4-7a29-4b09-a9cc-3de10a141444,S
2019-09-22 04:46:41,4cfae4f4-7a29-4b09-a9cc-3de10a141444,A
2019-09-22 04:49:55,4cfae4f4-7a29-4b09-a9cc-3de10a141444,S
2019-09-22 04:52:41,4cfae4f4-7a29-4b09-a9cc-3de10a141444,A
2019-09-22 04:53:12,4cfae4f4-7a29-4b09-a9cc-3de10a141444,S
2019-09-22 03:37:07,aed0b010-8a6e-4c8a-9d90-745b4aba3964,S
2019-09-22 03:37:47,aed0b010-8a6e-4c8a-9d90-745b4aba3964,A
2019-09-22 03:40:25,aed0b010-8a6e-4c8a-9d90-745b4aba3964,S
2019-09-22 03:45:32,aed0b010-8a6e-4c8a-9d90-745b4aba3964,A
2019-09-22 04:09:25,aed0b010-8a6e-4c8a-9d90-745b4aba3964,S
2019-09-22 04:13:26,aed0b010-8a6e-4c8a-9d90-745b4aba3964,A
2019-09-22 04:13:55,aed0b010-8a6e-4c8a-9d90-745b4aba3964,S
2019-09-22 04:21:33,aed0b010-8a6e-4c8a-9d90-745b4aba3964,A
2019-09-22 04:22:26,aed0b010-8a6e-4c8a-9d90-745b4aba3964,S
2019-09-22 04:25:46,aed0b010-8a6e-4c8a-9d90-745b4aba3964,A
2019-09-22 04:36:45,aed0b010-8a6e-4c8a-9d90-745b4aba3964,S
2019-09-22 04:37:11,aed0b010-8a6e-4c8a-9d90-745b4aba3964,A
2019-09-22 04:46:09,aed0b010-8a6e-4c8a-9d90-745b4aba3964,S
2019-09-22 04:48:07,aed0b010-8a6e-4c8a-9d90-745b4aba3964,A
2019-09-22 04:52:19,aed0b010-8a6e-4c8a-9d90-745b4aba3964,S
2019-09-22 04:58:22,aed0b010-8a6e-4c8a-9d90-745b4aba3964,A
2019-09-22 05:01:10,aed0b010-8a6e-4c8a-9d90-745b4aba3964,S
2019-09-22 05:01:49,aed0b010-8a6e-4c8a-9d90-745b4aba3964,A
2019-09-22 05:02:34,aed0b010-8a6e-4c8a-9d90-745b4aba3964,S
2019-09-22 03:40:06,5402b7cd-0079-40f2-b286-ab620ff445dd,A
2019-09-22 03:45:29,5402b7cd-0079-40f2-b286-ab620ff445dd,S
2019-09-22 03:54:58,5402b7cd-0079-40f2-b286-ab620ff445dd,A
2019-09-22 03:58:25,5402b7cd-0079-40f2-b286-ab620ff445dd,S
2019-09-22 04:01:58,5402b7cd-0079-40f2-b286-ab620ff445dd,A
2019-09-22 04:13:03,5402b7cd-0079-40f2-b286-ab620ff445dd,S
2019-09-22 04:19:30,5402b7cd-0079-40f2-b286-ab620ff445dd,A
2019-09-22 04:30:20,5402b7cd-0079-40f2-b286-ab620ff445dd,S
2019-09-22 04:32:13,5402b7cd-0079-40f2-b286-ab620ff445dd,A
2019-09-22 04:32:31,5402b7cd-0079-40f2-b286-ab620ff445dd,S
2019-09-22 04:47:50,5402b7cd-0079-40f2-b286-ab620ff445dd,A
2019-09-22 04:49:28,5402b7cd-0079-40f2-b286-ab620ff445dd,S
2019-09-22 04:53:32,5402b7cd-0079-40f2-b286-ab620ff445dd,A
2019-09-22 04:55:17,5402b7cd-0079-40f2-b286-ab620ff445dd,S
2019-09-22 05:00:17,5402b7cd-0079-40f2-b286-ab620ff445dd,A
2019-09-22 03:33:47,cc8cf95f-6b19-4ffe-8286-b157636853c9,S
2019-09-22 03:35:28,cc8cf95f-6b19-4ffe-8286-b157636853c9,A
2019-09-22 03:57:10,cc8cf95f-6b19-4ffe-8286-b157636853c9,S
2019-09-22 03:58:26,cc8cf95f-6b19-4ffe-8286-b157636853c9,A
2019-09-22 03:59:07,cc8cf95f-6b19-4ffe-8286-b157636853c9,S
2019-09-22 03:59:10,cc8cf95f-6b19-4ffe-8286-b157636853c9,A
2019-09-22 04:04:41,cc8cf95f-6b19-4ffe-8286-b157636853c9,S
2019-09-22 04:08:46,cc8cf95f-6b19-4ffe-8286-b157636853c9,A
2019-09-22 04:19:10,cc8cf95f-6b19-4ffe-8286-b157636853c9,S
2019-09-22 04:22:51,cc8cf95f-6b19-4ffe-8286-b157636853c9,A
2019-09-22 04:25:34,cc8cf95f-6b19-4ffe-8286-b157636853c9,S
2019-09-22 04:27:31,cc8cf95f-6b19-4ffe-8286-b157636853c9,A
2019-09-22 04:29:54,cc8cf95f-6b19-4ffe-8286-b157636853c9,S
2019-09-22 04:36:27,cc8cf95f-6b19-4ffe-8286-b157636853c9,A
2019-09-22 04:40:15,cc8cf95f-6b19-4ffe-8286-b157636853c9,S
2019-09-22 04:46:28,cc8cf95f-6b19-4ffe-8286-b157636853c9,A
2019-09-22 04:50:51,cc8cf95f-6b19-4ffe-8286-b157636853c9,S
2019-09-22 05:01:23,cc8cf95f-6b19-4ffe-8286-b157636853c9,A
2019-09-22 05:01:43,cc8cf95f-6b19-4ffe-8286-b157636853c9,S
2019-09-22 03:35:16,71332af4-b136-40df-ab39-f50dc2e70e30,S
2019-09-22 03:39:25,71332af4-b136-40df-ab39-f50dc2e70e30,A
2019-09-22 03:57:20,71332af4-b136-40df-ab39-f50dc2e70e30,S
2019-09-22 03:59:14,71332af4-b136-40df-ab39-f50dc2e70e30,A
2019-09-22 04:05:40,71332af4-b136-40df-ab39-f50dc2e70e30,S
2019-09-22 04:07:07,71332af4-b136-40df-ab39-f50dc2e70e30,A
2019-09-22 04:11:40,71332af4-b136-40df-ab39-f50dc2e70e30,S
2019-09-22 04:12:09,71332af4-b136-40df-ab39-f50dc2e70e30,A
2019-09-22 04:15:06,71332af4-b136-40df-ab39-f50dc2e70e30,S
2019-09-22 04:15:19,71332af4-b136-40df-ab39-f50dc2e70e30,A
2019-09-22 04:17:05,71332af4-b136-40df-ab39-f50dc2e70e30,S
2019-09-22 04:17:37,71332af4-b136-40df-ab39-f50dc2e70e30,A
2019-09-22 04:19:26,71332af4-b136-40df-ab39-f50dc2e70e30,S
2019-09-22 04:24:24,71332af4-b136-40df-ab39-f50dc2e70e30,A
2019-09-22 04:25:43,71332af4-b136-40df-ab39-f50dc2e70e30,S
2019-09-22 04:29:50,71332af4-b136-40df-ab39-f50dc2e70e30,A
2019-09-22 04:40:14,71332af4-b136-40df-ab39-f50dc2e70e30,S
2019-09-22 04:41:47,71332af4-b136-40df-ab39-f50dc2e70e30,A
2019-09-22 04:49:18,71332af4-b136-40df-ab39-f50dc2e70e30,S
2019-09-22 04:49:33,71332af4-b136-40df-ab39-f50dc2e70e30,A
2019-09-22 04:50:58,71332af4-b136-40df-ab39-f50dc2e70e30,S
2019-09-22 03:38:09,cc87efbe-cb57-4a9f-9d8a-06cfea23bd2b,A
2019-09-22 03:39:25,cc87efbe-cb57-4a9f-9d8a-06cfea23bd2b,S
2019-09-22 03:50:41,cc87efbe-cb57-4a9f-9d8a-06cfea23bd2b,A
2019-09-22 04:00:58,cc87efbe-cb57-4a9f-9d8a-06cfea23bd2b,S
2019-09-22 04:03:11,cc87efbe-cb57-4a9f-9d8a-06cfea23bd2b,A
2019-09-22 04:07:43,cc87efbe-cb57-4a9f-9d8a-06cfea23bd2b,S
2019-09-22 04:08:14,cc87efbe-cb57-4a9f-9d8a-06cfea23bd2b,A
2019-09-22 04:15:26,cc87efbe-cb57-4a9f-9d8a-06cfea23bd2b,S
2019-09-22 04:16:15,cc87efbe-cb57-4a9f-9d8a-06cfea23bd2b,A
2019-09-22 04:21:38,cc87efbe-cb57-4a9f-9d8a-06cfea23bd2b,S
2019-09-22 04:24:02,cc87efbe-cb57-4a9f-9d8a-06cfea23bd2b,A
2019-09-22 04:24:46,cc87efbe-cb57-4a9f-9d8a-06cfea23bd2b,S
2019-09-22 04:24:59,cc87efbe-cb57-4a9f-9d8a-06cfea23bd2b,A
2019-09-22 04:26:53,cc87efbe-cb57-4a9f-9d8a-06cfea23bd2b,S
2019-09-22 04:34:34,cc87efbe-cb57-4a9f-9d8a-06cfea23bd2b,A
2019-09-22 04:42:23,cc87efbe-cb57-4a9f-9d8a-06cfea23bd2b,S
2019-09-22 04:43:54,cc87efbe-cb57-4a9f-9d8a-06cfea23bd2b,A
2019-09-22 04:46:31,cc87efbe-cb57-4a9f-9d8a-06cfea23bd2b,S
2019-09-22 04:51:12,cc87efbe-cb57-4a9f-9d8a-06cfea23bd2b,A
2019-09-22 03:42:06,ce0f802a-f766-4ea7-9cc5-3b82715ef88f,A
2019-09-22 03:43:59,ce0f802a-f766-4ea7-9cc5-3b82715ef88f,S
2019-09-22 03:47:07,ce0f802a-f766-4ea7-9cc5-3b82715ef88f,A
2019-09-22 04:17:40,ce0f802a-f766-4ea7-9cc5-3b82715ef88f,S
2019-09-22 04:19:39,ce0f802a-f766-4ea7-9cc5-3b82715ef88f,A
2019-09-22 04:25:43,ce0f802a-f766-4ea7-9cc5-3b82715ef88f,S
2019-09-22 04:26:29,ce0f802a-f766-4ea7-9cc5-3b82715ef88f,A
2019-09-22 04:27:37,ce0f802a-f766-4ea7-9cc5-3b82715ef88f,S
2019-09-22 04:40:21,ce0f802a-f766-4ea7-9cc5-3b82715ef88f,A
2019-09-22 04:40:57,ce0f802a-f766-4ea7-9cc5-3b82715ef88f,S
2019-09-22 04:45:21,ce0f802a-f766-4ea7-9cc5-3b82715ef88f,A
2019-09-22 04:53:00,ce0f802a-f766-4ea7-9cc5-3b82715ef88f,S
2019-09-22 04:57:00,ce0f802a-f766-4ea7-9cc5-3b82715ef88f,A
2019-09-22 04:57:43,ce0f802a-f766-4ea7-9cc5-3b82715ef88f,S
2019-09-22 04:58:17,ce0f802a-f766-4ea7-9cc5-3b82715ef88f,A
2019-09-22 05:01:20,ce0f802a-f766-4ea7-9cc5-3b82715ef88f,S
2019-09-22 05:01:37,ce0f802a-f766-4ea7-9cc5-3b82715ef88f,A
2019-09-22 05:04:06,ce0f802a-f766-4ea7-9cc5-3b82715ef88f,S
2019-09-22 03:28:51,ba0fa562-acdc-43ef-8ea3-79e77e3bc0fc,S
2019-09-22 03:29:37,ba0fa562-acdc-43ef-8ea3-79e77e3bc0fc,A
2019-09-22 03:36:48,ba0fa562-acdc-43ef-8ea3-79e77e3bc0fc,S
2019-09-22 03:40:46,ba0fa562-acdc-43ef-8ea3-79e77e3bc0fc,A
2019-09-22 03:41:34,ba0fa562-acdc-43ef-8ea3-79e77e3bc0fc,S
2019-09-22 03:42:40,ba0fa562-acdc-43ef-8ea3-79e77e3bc0fc,A
2019-09-22 03:59:36,ba0fa562-acdc-43ef-8ea3-79e77e3bc0fc,S
2019-09-22 03:59:37,ba0fa562-acdc-43ef-8ea3-79e77e3bc0fc,A
2019-09-22 04:01:39,ba0fa562-acdc-43ef-8ea3-79e77e3bc0fc,S
2019-09-22 04:03:16,ba0fa562-acdc-43ef-8ea3-79e77e3bc0fc,A
2019-09-22 04:10:07,ba0fa562-acdc-43ef-8ea3-79e77e3bc0fc,S
2019-09-22 04:10:19,ba0fa562-acdc-43ef-8ea3-79e77e3bc0fc,A
2019-09-22 04:25:23,ba0fa562-acdc-43ef-8ea3-79e77e3bc0fc,S
2019-09-22 04:30:25,ba0fa562-acdc-43ef-8ea3-79e77e3bc0fc,A
2019-09-22 04:34:16,ba0fa562-acdc-43ef-8ea3-79e77e3bc0fc,S
2019-09-22 04:45:35,ba0fa562-acdc-43ef-8ea3-79e77e3bc0fc,A
2019-09-22 04:53:26,ba0fa562-acdc-43ef-8ea3-79e77e3bc0fc,S
2019-09-22 04:55:48,ba0fa562-acdc-43ef-8ea3-79e77e3bc0fc,A
2019-09-22 04:59:51,ba0fa562-acdc-43ef-8ea3-79e77e3bc0fc,S
2019-09-22 05:00:41,ba0fa562-acdc-43ef-8ea3-79e77e3bc0fc,A
2019-09-22 03:49:52,58f7d0af-859a-4786-a34e-d50a73a719e6,A
2019-09-22 03:53:07,58f7d0af-859a-4786-a34e-d50a73a719e6,S
2019-09-22 03:58:11,58f7d0af-859a-4786-a34e-d50a73a719e6,A
2019-09-22 04:06:47,58f7d0af-859a-4786-a34e-d50a73a719e6,S
2019-09-22 04:11:16,58f7d0af-859a-4786-a34e-d50a73a719e6,A
2019-09-22 04:14:23,58f7d0af-859a-4786-a34e-d50a73a719e6,S
2019-09-22 04:15:15,58f7d0af-859a-4786-a34e-d50a73a719e6,A
2019-09-22 04:16:36,58f7d0af-859a-4786-a34e-d50a73a719e6,S
2019-09-22 04:21:51,58f7d0af-859a-4786-a34e-d50a73a719e6,A
2019-09-22 04:27:28,58f7d0af-859a-4786-a34e-d50a73a719e6,S
2019-09-22 04:38:49,58f7d0af-859a-4786-a34e-d50a73a719e6,A
2019-09-22 04:38:53,58f7d0af-859a-4786-a34e-d50a73a719e6,S
2019-09-22 04:46:04,58f7d0af-859a-4786-a34e-d50a73a719e6,A
2019-09-22 04:57:34,58f7d0af-859a-4786-a34e-d50a73a719e6,S
2019-09-22 04:59:10,58f7d0af-859a-4786-a34e-d50a73a719e6,A
2019-09-22 05:02:17,58f7d0af-859a-4786-a34e-d50a73a719e6,S
2019-09-22 05:02:34,58f7d0af-859a-4786-a34e-d50a73a719e6,A
2019-09-22 03:44:08,ecac22e5-00d7-47a9-964e-546a55d426c7,S
2019-09-22 03:47:37,ecac22e5-00d7-47a9-964e-546a55d426c7,A
2019-09-22 03:40:13,7a5abe2e-1fe7-4560-bf9f-3e031c102c6b,S
2019-09-22 04:01:22,7a5abe2e-1fe7-4560-bf9f-3e031c102c6b,A
2019-09-22 04:09:58,7a5abe2e-1fe7-4560-bf9f-3e031c102c6b,S
2019-09-22 04:33:13,7a5abe2e-1fe7-4560-bf9f-3e031c102c6b,A
2019-09-22 04:33:23,7a5abe2e-1fe7-4560-bf9f-3e031c102c6b,S
2019-09-22 04:36:35,7a5abe2e-1fe7-4560-bf9f-3e031c102c6b,A
2019-09-22 04:46:24,7a5abe2e-1fe7-4560-bf9f-3e031c102c6b,S
2019-09-22 04:52:16,7a5abe2e-1fe7-4560-bf9f-3e031c102c6b,A
2019-09-22 04:53:28,7a5abe2e-1fe7-4560-bf9f-3e031c102c6b,S
2019-09-22 04:59:54,7a5abe2e-1fe7-4560-bf9f-3e031c102c6b,A
2019-09-22 05:03:56,7a5abe2e-1fe7-4560-bf9f-3e031c102c6b,S
2019-09-22 03:54:43,681e7151-dd2e-4de2-89fc-d3722412cf66,S
2019-09-22 03:54:45,681e7151-dd2e-4de2-89fc-d3722412cf66,A
2019-09-22 04:02:41,681e7151-dd2e-4de2-89fc-d3722412cf66,S
2019-09-22 04:11:11,681e7151-dd2e-4de2-89fc-d3722412cf66,A
2019-09-22 04:12:55,681e7151-dd2e-4de2-89fc-d3722412cf66,S
2019-09-22 04:14:20,681e7151-dd2e-4de2-89fc-d3722412cf66,A
2019-09-22 04:14:21,681e7151-dd2e-4de2-89fc-d3722412cf66,S
2019-09-22 04:14:30,681e7151-dd2e-4de2-89fc-d3722412cf66,A
2019-09-22 04:15:02,681e7151-dd2e-4de2-89fc-d3722412cf66,S
2019-09-22 04:27:10,681e7151-dd2e-4de2-89fc-d3722412cf66,A
2019-09-22 04:42:46,681e7151-dd2e-4de2-89fc-d3722412cf66,S
2019-09-22 04:45:21,681e7151-dd2e-4de2-89fc-d3722412cf66,A
2019-09-22 04:59:00,681e7151-dd2e-4de2-89fc-d3722412cf66,S
2019-09-22 05:02:29,681e7151-dd2e-4de2-89fc-d3722412cf66,A
2019-09-22 05:04:45,681e7151-dd2e-4de2-89fc-d3722412cf66,S
2019-09-22 03:31:52,8eca1ffb-030c-4c58-906b-e895f58fd6c4,A
2019-09-22 03:32:27,8eca1ffb-030c-4c58-906b-e895f58fd6c4,S
2019-09-22 03:42:04,8eca1ffb-030c-4c58-906b-e895f58fd6c4,A
2019-09-22 03:52:51,8eca1ffb-030c-4c58-906b-e895f58fd6c4,S
2019-09-22 03:59:18,8eca1ffb-030c-4c58-906b-e895f58fd6c4,A
2019-09-22 04:00:26,8eca1ffb-030c-4c58-906b-e895f58fd6c4,S
2019-09-22 04:12:39,8eca1ffb-030c-4c58-906b-e895f58fd6c4,A
2019-09-22 04:14:34,8eca1ffb-030c-4c58-906b-e895f58fd6c4,S
2019-09-22 04:23:15,8eca1ffb-030c-4c58-906b-e895f58fd6c4,A
2019-09-22 04:25:47,8eca1ffb-030c-4c58-906b-e895f58fd6c4,S
2019-09-22 04:26:01,8eca1ffb-030c-4c58-906b-e895f58fd6c4,A
2019-09-22 04:27:33,8eca1ffb-030c-4c58-906b-e895f58fd6c4,S
2019-09-22 04:35:42,8eca1ffb-030c-4c58-906b-e895f58fd6c4,A
2019-09-22 04:39:31,8eca1ffb-030c-4c58-906b-e895f58fd6c4,S
2019-09-22 04:42:54,8eca1ffb-030c-4c58-906b-e895f58fd6c4,A
2019-09-22 04:46:22,8eca1ffb-030c-4c58-906b-e895f58fd6c4,S
2019-09-22 04:52:24,8eca1ffb-030c-4c58-906b-e895f58fd6c4,A
2019-09-22 05:02:21,8eca1ffb-030c-4c58-906b-e895f58fd6c4,S
