date,actor,success,from,to
2019-04-06 23:52:37,c6a310d9-50f6-4d7c-85fc-5025372b073f,1,9cd67e8c-09b3-4607-814f-3def77bfe362,f4456fdf-ee58-4f92-aad8-7f64298f2bb3
2019-04-06 23:52:37,a495c44a-6633-4e45-9c4d-5d5709a016be,1,9cd67e8c-09b3-4607-814f-3def77bfe362,f4456fdf-ee58-4f92-aad8-7f64298f2bb3
2019-04-06 23:55:52,85c96b84-a347-4c35-b61c-798f7869f16b,1,f28eb647-378d-4f14-b9a4-870ec96b7bfb,e9e6f671-9a29-4148-8c0d-45cec3e91416
2019-04-06 23:55:52,9896c61f-1ad0-4e52-aa7f-38f5d337dd88,1,f28eb647-378d-4f14-b9a4-870ec96b7bfb,e9e6f671-9a29-4148-8c0d-45cec3e91416
2019-04-06 23:55:52,dcc8fbe6-193b-427b-9cbf-09c1b6d667bd,1,f28eb647-378d-4f14-b9a4-870ec96b7bfb,e9e6f671-9a29-4148-8c0d-45cec3e91416
2019-04-06 23:55:52,81bd5ca8-7b27-4ea8-b9f8-3b37e6ec8ebc,1,f28eb647-378d-4f14-b9a4-870ec96b7bfb,e9e6f671-9a29-4148-8c0d-45cec3e91416
2019-04-06 23:56:03,b604ede8-5768-4e6f-8a3f-ed598eed366f,1,f28eb647-378d-4f14-b9a4-870ec96b7bfb,e9e6f671-9a29-4148-8c0d-45cec3e91416
2019-04-06 23:56:03,382fe8dd-73a6-4206-bdf2-8497d24799c7,1,f28eb647-378d-4f14-b9a4-870ec96b7bfb,e9e6f671-9a29-4148-8c0d-45cec3e91416
2019-04-06 23:56:03,7ab7634f-6919-4e43-9e3a-e52c4211f17a,1,f28eb647-378d-4f14-b9a4-870ec96b7bfb,e9e6f671-9a29-4148-8c0d-45cec3e91416
2019-04-06 23:56:03,d3420521-fda0-463e-b478-f1afb6aac148,1,f28eb647-378d-4f14-b9a4-870ec96b7bfb,e9e6f671-9a29-4148-8c0d-45cec3e91416
2019-04-06 23:56:04,71343a7e-7565-4563-8fde-f2df6c79aa84,1,f28eb647-378d-4f14-b9a4-870ec96b7bfb,e9e6f671-9a29-4148-8c0d-45cec3e91416
2019-04-07 00:25:19,1d212772-2e11-4c9e-bce5-9c836e149efc,1,f28eb647-378d-4f14-b9a4-870ec96b7bfb,f28eb647-378d-4f14-b9a4-870ec96b7bfb
2019-04-07 00:25:19,948b4f94-7f0e-4095-90e5-fd3574df87f6,1,f28eb647-378d-4f14-b9a4-870ec96b7bfb,f28eb647-378d-4f14-b9a4-870ec96b7bfb
2019-04-06 23:44:15,71343a7e-7565-4563-8fde-f2df6c79aa84,1,0c42d3f7-e1d1-4f0e-9901-9e7097f7e393,f28eb647-378d-4f14-b9a4-870ec96b7bfb
2019-04-06 23:44:15,c7c00f4a-fb66-4a5b-84dc-fc28ea13caa0,1,0c42d3f7-e1d1-4f0e-9901-9e7097f7e393,7d5336c6-b2a3-4524-af22-7967495dd8c5
2019-04-07 00:41:32,c6a310d9-50f6-4d7c-85fc-5025372b073f,1,0c42d3f7-e1d1-4f0e-9901-9e7097f7e393,3a2333fd-4486-4e1e-8351-61e8fd929f75
2019-04-07 00:41:32,a495c44a-6633-4e45-9c4d-5d5709a016be,1,0c42d3f7-e1d1-4f0e-9901-9e7097f7e393,3a2333fd-4486-4e1e-8351-61e8fd929f75
2019-04-06 23:57:05,b604ede8-5768-4e6f-8a3f-ed598eed366f,1,8106c38f-295f-41ab-9374-ca38d01d0ae9,8106c38f-295f-41ab-9374-ca38d01d0ae9
2019-04-06 23:57:05,382fe8dd-73a6-4206-bdf2-8497d24799c7,1,8106c38f-295f-41ab-9374-ca38d01d0ae9,8106c38f-295f-41ab-9374-ca38d01d0ae9
2019-04-06 23:57:05,7ab7634f-6919-4e43-9e3a-e52c4211f17a,1,8106c38f-295f-41ab-9374-ca38d01d0ae9,8106c38f-295f-41ab-9374-ca38d01d0ae9
2019-04-06 23:57:05,d3420521-fda0-463e-b478-f1afb6aac148,1,8106c38f-295f-41ab-9374-ca38d01d0ae9,8106c38f-295f-41ab-9374-ca38d01d0ae9
2019-04-06 23:57:05,71343a7e-7565-4563-8fde-f2df6c79aa84,1,8106c38f-295f-41ab-9374-ca38d01d0ae9,8106c38f-295f-41ab-9374-ca38d01d0ae9
2019-04-06 23:57:05,c7c00f4a-fb66-4a5b-84dc-fc28ea13caa0,1,8106c38f-295f-41ab-9374-ca38d01d0ae9,8106c38f-295f-41ab-9374-ca38d01d0ae9
2019-04-06 23:57:20,51e516c7-1564-4244-814d-00facad24751,1,8106c38f-295f-41ab-9374-ca38d01d0ae9,8106c38f-295f-41ab-9374-ca38d01d0ae9
2019-04-06 23:57:20,e09fd161-59cb-456e-ba89-3de96d0f1c43,1,8106c38f-295f-41ab-9374-ca38d01d0ae9,8106c38f-295f-41ab-9374-ca38d01d0ae9
2019-04-06 23:57:21,b604ede8-5768-4e6f-8a3f-ed598eed366f,1,8106c38f-295f-41ab-9374-ca38d01d0ae9,8106c38f-295f-41ab-9374-ca38d01d0ae9
2019-04-06 23:57:21,382fe8dd-73a6-4206-bdf2-8497d24799c7,1,8106c38f-295f-41ab-9374-ca38d01d0ae9,8106c38f-295f-41ab-9374-ca38d01d0ae9
2019-04-06 23:57:21,81c9a35f-3340-441b-9dc9-0444c82fbae2,1,8106c38f-295f-41ab-9374-ca38d01d0ae9,8106c38f-295f-41ab-9374-ca38d01d0ae9
2019-04-06 23:57:21,d40db2dd-4162-42ca-96ca-a67cffb76c49,1,8106c38f-295f-41ab-9374-ca38d01d0ae9,8106c38f-295f-41ab-9374-ca38d01d0ae9
2019-04-06 23:57:24,7ab7634f-6919-4e43-9e3a-e52c4211f17a,1,8106c38f-295f-41ab-9374-ca38d01d0ae9,8106c38f-295f-41ab-9374-ca38d01d0ae9
2019-04-06 23:57:24,d3420521-fda0-463e-b478-f1afb6aac148,1,8106c38f-295f-41ab-9374-ca38d01d0ae9,8106c38f-295f-41ab-9374-ca38d01d0ae9
2019-04-06 23:57:24,85c96b84-a347-4c35-b61c-798f7869f16b,1,8106c38f-295f-41ab-9374-ca38d01d0ae9,8106c38f-295f-41ab-9374-ca38d01d0ae9
2019-04-06 23:57:24,9896c61f-1ad0-4e52-aa7f-38f5d337dd88,1,8106c38f-295f-41ab-9374-ca38d01d0ae9,8106c38f-295f-41ab-9374-ca38d01d0ae9
2019-04-06 23:57:25,dcc8fbe6-193b-427b-9cbf-09c1b6d667bd,1,8106c38f-295f-41ab-9374-ca38d01d0ae9,8106c38f-295f-41ab-9374-ca38d01d0ae9
2019-04-06 23:57:25,81bd5ca8-7b27-4ea8-b9f8-3b37e6ec8ebc,1,8106c38f-295f-41ab-9374-ca38d01d0ae9,8106c38f-295f-41ab-9374-ca38d01d0ae9
2019-04-06 23:57:25,71343a7e-7565-4563-8fde-f2df6c79aa84,1,8106c38f-295f-41ab-9374-ca38d01d0ae9,8106c38f-295f-41ab-9374-ca38d01d0ae9
2019-04-06 23:57:25,c7c00f4a-fb66-4a5b-84dc-fc28ea13caa0,1,8106c38f-295f-41ab-9374-ca38d01d0ae9,8106c38f-295f-41ab-9374-ca38d01d0ae9
2019-04-06 23:57:35,b604ede8-5768-4e6f-8a3f-ed598eed366f,1,8106c38f-295f-41ab-9374-ca38d01d0ae9,8106c38f-295f-41ab-9374-ca38d01d0ae9
2019-04-06 23:57:35,382fe8dd-73a6-4206-bdf2-8497d24799c7,1,8106c38f-295f-41ab-9374-ca38d01d0ae9,8106c38f-295f-41ab-9374-ca38d01d0ae9
2019-04-06 23:57:36,81c9a35f-3340-441b-9dc9-0444c82fbae2,1,8106c38f-295f-41ab-9374-ca38d01d0ae9,8106c38f-295f-41ab-9374-ca38d01d0ae9
2019-04-06 23:57:36,d40db2dd-4162-42ca-96ca-a67cffb76c49,1,8106c38f-295f-41ab-9374-ca38d01d0ae9,8106c38f-295f-41ab-9374-ca38d01d0ae9
2019-04-06 23:57:36,7ab7634f-6919-4e43-9e3a-e52c4211f17a,1,8106c38f-295f-41ab-9374-ca38d01d0ae9,8106c38f-295f-41ab-9374-ca38d01d0ae9
2019-04-06 23:57:36,d3420521-fda0-463e-b478-f1afb6aac148,1,8106c38f-295f-41ab-9374-ca38d01d0ae9,8106c38f-295f-41ab-9374-ca38d01d0ae9
2019-04-06 23:57:38,85c96b84-a347-4c35-b61c-798f7869f16b,1,8106c38f-295f-41ab-9374-ca38d01d0ae9,8106c38f-295f-41ab-9374-ca38d01d0ae9
2019-04-06 23:57:38,9896c61f-1ad0-4e52-aa7f-38f5d337dd88,1,8106c38f-295f-41ab-9374-ca38d01d0ae9,8106c38f-295f-41ab-9374-ca38d01d0ae9
2019-04-06 23:57:39,71343a7e-7565-4563-8fde-f2df6c79aa84,1,8106c38f-295f-41ab-9374-ca38d01d0ae9,8106c38f-295f-41ab-9374-ca38d01d0ae9
2019-04-06 23:57:39,c7c00f4a-fb66-4a5b-84dc-fc28ea13caa0,1,8106c38f-295f-41ab-9374-ca38d01d0ae9,8106c38f-295f-41ab-9374-ca38d01d0ae9
2019-04-06 23:57:53,b604ede8-5768-4e6f-8a3f-ed598eed366f,1,8106c38f-295f-41ab-9374-ca38d01d0ae9,94dee90a-92e7-4c95-bb38-e9aa088e54a8
2019-04-06 23:57:53,382fe8dd-73a6-4206-bdf2-8497d24799c7,1,8106c38f-295f-41ab-9374-ca38d01d0ae9,94dee90a-92e7-4c95-bb38-e9aa088e54a8
2019-04-06 23:57:53,81c9a35f-3340-441b-9dc9-0444c82fbae2,1,8106c38f-295f-41ab-9374-ca38d01d0ae9,94dee90a-92e7-4c95-bb38-e9aa088e54a8
2019-04-06 23:57:53,d40db2dd-4162-42ca-96ca-a67cffb76c49,1,8106c38f-295f-41ab-9374-ca38d01d0ae9,94dee90a-92e7-4c95-bb38-e9aa088e54a8
2019-04-06 23:57:54,7ab7634f-6919-4e43-9e3a-e52c4211f17a,1,8106c38f-295f-41ab-9374-ca38d01d0ae9,94dee90a-92e7-4c95-bb38-e9aa088e54a8
2019-04-06 23:57:54,d3420521-fda0-463e-b478-f1afb6aac148,1,8106c38f-295f-41ab-9374-ca38d01d0ae9,94dee90a-92e7-4c95-bb38-e9aa088e54a8
2019-04-06 23:57:54,85c96b84-a347-4c35-b61c-798f7869f16b,1,8106c38f-295f-41ab-9374-ca38d01d0ae9,94dee90a-92e7-4c95-bb38-e9aa088e54a8
2019-04-06 23:57:54,9896c61f-1ad0-4e52-aa7f-38f5d337dd88,1,8106c38f-295f-41ab-9374-ca38d01d0ae9,94dee90a-92e7-4c95-bb38-e9aa088e54a8
2019-04-06 23:57:55,71343a7e-7565-4563-8fde-f2df6c79aa84,1,8106c38f-295f-41ab-9374-ca38d01d0ae9,94dee90a-92e7-4c95-bb38-e9aa088e54a8
2019-04-06 23:57:55,c7c00f4a-fb66-4a5b-84dc-fc28ea13caa0,1,8106c38f-295f-41ab-9374-ca38d01d0ae9,94dee90a-92e7-4c95-bb38-e9aa088e54a8
2019-04-06 23:58:01,b604ede8-5768-4e6f-8a3f-ed598eed366f,1,94dee90a-92e7-4c95-bb38-e9aa088e54a8,94dee90a-92e7-4c95-bb38-e9aa088e54a8
2019-04-06 23:58:01,382fe8dd-73a6-4206-bdf2-8497d24799c7,1,94dee90a-92e7-4c95-bb38-e9aa088e54a8,94dee90a-92e7-4c95-bb38-e9aa088e54a8
2019-04-06 23:58:09,81c9a35f-3340-441b-9dc9-0444c82fbae2,1,94dee90a-92e7-4c95-bb38-e9aa088e54a8,94dee90a-92e7-4c95-bb38-e9aa088e54a8
2019-04-06 23:58:09,d40db2dd-4162-42ca-96ca-a67cffb76c49,1,94dee90a-92e7-4c95-bb38-e9aa088e54a8,94dee90a-92e7-4c95-bb38-e9aa088e54a8
2019-04-06 23:58:09,7ab7634f-6919-4e43-9e3a-e52c4211f17a,1,94dee90a-92e7-4c95-bb38-e9aa088e54a8,94dee90a-92e7-4c95-bb38-e9aa088e54a8
2019-04-06 23:58:09,d3420521-fda0-463e-b478-f1afb6aac148,1,94dee90a-92e7-4c95-bb38-e9aa088e54a8,94dee90a-92e7-4c95-bb38-e9aa088e54a8
2019-04-06 23:58:13,85c96b84-a347-4c35-b61c-798f7869f16b,1,94dee90a-92e7-4c95-bb38-e9aa088e54a8,94dee90a-92e7-4c95-bb38-e9aa088e54a8
2019-04-06 23:58:13,9896c61f-1ad0-4e52-aa7f-38f5d337dd88,1,94dee90a-92e7-4c95-bb38-e9aa088e54a8,94dee90a-92e7-4c95-bb38-e9aa088e54a8
2019-04-06 23:58:23,b604ede8-5768-4e6f-8a3f-ed598eed366f,1,94dee90a-92e7-4c95-bb38-e9aa088e54a8,94dee90a-92e7-4c95-bb38-e9aa088e54a8
2019-04-06 23:58:23,382fe8dd-73a6-4206-bdf2-8497d24799c7,1,94dee90a-92e7-4c95-bb38-e9aa088e54a8,94dee90a-92e7-4c95-bb38-e9aa088e54a8
2019-04-07 00:02:26,71343a7e-7565-4563-8fde-f2df6c79aa84,1,94dee90a-92e7-4c95-bb38-e9aa088e54a8,7d5336c6-b2a3-4524-af22-7967495dd8c5
2019-04-07 00:02:26,c7c00f4a-fb66-4a5b-84dc-fc28ea13caa0,1,94dee90a-92e7-4c95-bb38-e9aa088e54a8,7d5336c6-b2a3-4524-af22-7967495dd8c5
2019-04-07 00:04:47,b604ede8-5768-4e6f-8a3f-ed598eed366f,1,94dee90a-92e7-4c95-bb38-e9aa088e54a8,f4456fdf-ee58-4f92-aad8-7f64298f2bb3
2019-04-07 00:04:47,382fe8dd-73a6-4206-bdf2-8497d24799c7,1,94dee90a-92e7-4c95-bb38-e9aa088e54a8,f4456fdf-ee58-4f92-aad8-7f64298f2bb3
2019-04-07 00:04:47,85c96b84-a347-4c35-b61c-798f7869f16b,1,94dee90a-92e7-4c95-bb38-e9aa088e54a8,f4456fdf-ee58-4f92-aad8-7f64298f2bb3
2019-04-07 00:04:47,9896c61f-1ad0-4e52-aa7f-38f5d337dd88,1,94dee90a-92e7-4c95-bb38-e9aa088e54a8,f4456fdf-ee58-4f92-aad8-7f64298f2bb3
2019-04-06 23:39:03,5ee53ebf-59d6-4b5d-a6fe-8720c2a47caa,1,68b646c9-ba36-4a96-8523-e0b26184d79a,f4456fdf-ee58-4f92-aad8-7f64298f2bb3
2019-04-07 00:30:18,382fe8dd-73a6-4206-bdf2-8497d24799c7,1,68b646c9-ba36-4a96-8523-e0b26184d79a,6f76a934-8c22-4a85-b5d3-f028c4785582
2019-04-06 23:00:51,2212b0a2-29c3-40d7-b29c-e6d86f09791d,1,7fc2ed8d-b8e4-4731-8d19-c4a98d274b39,68b646c9-ba36-4a96-8523-e0b26184d79a
2019-04-06 23:00:51,8fba4ae2-76a6-46d0-956e-15d9cd429b8c,1,7fc2ed8d-b8e4-4731-8d19-c4a98d274b39,68b646c9-ba36-4a96-8523-e0b26184d79a
2019-04-06 23:00:51,36c71292-3b68-42da-9f8b-c59cd2ec78eb,1,7fc2ed8d-b8e4-4731-8d19-c4a98d274b39,bc202245-c5d0-4e53-826c-bafcdf9cfb78
2019-04-06 23:01:54,b6bdd712-0b41-4c5a-ad41-b23d7daf5b2d,1,7fc2ed8d-b8e4-4731-8d19-c4a98d274b39,1855637f-bca4-4742-8596-9dff2793eb3e
2019-04-06 23:01:54,5fe4662c-1f1c-44dd-ba10-db8ac7b7dcd8,1,7fc2ed8d-b8e4-4731-8d19-c4a98d274b39,0c42d3f7-e1d1-4f0e-9901-9e7097f7e393
2019-04-06 23:01:54,068b6b23-fb4d-4027-85fc-152415e53e94,1,7fc2ed8d-b8e4-4731-8d19-c4a98d274b39,0c42d3f7-e1d1-4f0e-9901-9e7097f7e393
2019-04-06 23:02:58,b604ede8-5768-4e6f-8a3f-ed598eed366f,1,7fc2ed8d-b8e4-4731-8d19-c4a98d274b39,f28eb647-378d-4f14-b9a4-870ec96b7bfb
2019-04-06 23:02:58,382fe8dd-73a6-4206-bdf2-8497d24799c7,1,7fc2ed8d-b8e4-4731-8d19-c4a98d274b39,f28eb647-378d-4f14-b9a4-870ec96b7bfb
2019-04-06 23:02:58,cb23250c-14d8-4444-943f-d9b11277d104,1,7fc2ed8d-b8e4-4731-8d19-c4a98d274b39,1b490e1f-1ddf-40ad-bc3b-e3247a3c5d52
2019-04-06 23:04:02,da531061-6ff1-40f5-8f39-1b0d1012c361,1,7fc2ed8d-b8e4-4731-8d19-c4a98d274b39,e9e6f671-9a29-4148-8c0d-45cec3e91416
2019-04-06 23:04:02,1501c0c8-6121-40bd-9976-e8eabb206caf,1,7fc2ed8d-b8e4-4731-8d19-c4a98d274b39,76b13401-2cf7-414f-acbc-15677aba989b
2019-04-06 23:04:02,49fb9399-53d2-4a8a-917e-6e4b19ed7c46,1,7fc2ed8d-b8e4-4731-8d19-c4a98d274b39,e9e6f671-9a29-4148-8c0d-45cec3e91416
2019-04-06 23:05:06,7db310e4-e5d4-4def-ae74-6bf9961ad270,1,7fc2ed8d-b8e4-4731-8d19-c4a98d274b39,56a5ff3f-8645-4d2e-a2fb-1cd26ab96435
2019-04-06 23:05:06,2f96ae4a-f584-44bd-a3ac-101fe588cf1a,1,7fc2ed8d-b8e4-4731-8d19-c4a98d274b39,e9e6f671-9a29-4148-8c0d-45cec3e91416
2019-04-06 23:05:06,847f9615-2f5c-4045-aa13-64bd0f56ed48,1,7fc2ed8d-b8e4-4731-8d19-c4a98d274b39,e9e6f671-9a29-4148-8c0d-45cec3e91416
2019-04-06 23:06:09,12b10d0f-3b68-44c9-986f-e82c7d737950,1,7fc2ed8d-b8e4-4731-8d19-c4a98d274b39,3a2333fd-4486-4e1e-8351-61e8fd929f75
2019-04-06 23:06:09,01699893-9a57-49d9-9851-3f6d735497d4,1,7fc2ed8d-b8e4-4731-8d19-c4a98d274b39,832f122a-d34d-4e77-af99-998d95e21a4b
2019-04-06 23:06:09,83c4faea-d4dc-401c-81f3-ed4b1ae011ce,1,7fc2ed8d-b8e4-4731-8d19-c4a98d274b39,3a2333fd-4486-4e1e-8351-61e8fd929f75
2019-04-06 23:07:13,87fe6d09-7183-4996-bbdf-d4e5a849eab6,1,7fc2ed8d-b8e4-4731-8d19-c4a98d274b39,4745ef26-da0d-4521-9371-f080acd1d5f9
2019-04-06 23:07:13,9bca7380-3ef9-42b6-94d4-7f667d03e237,1,7fc2ed8d-b8e4-4731-8d19-c4a98d274b39,0c42d3f7-e1d1-4f0e-9901-9e7097f7e393
2019-04-06 23:07:13,33a72933-699f-403d-b286-2b47c92232b3,1,7fc2ed8d-b8e4-4731-8d19-c4a98d274b39,0c42d3f7-e1d1-4f0e-9901-9e7097f7e393
2019-04-06 23:08:16,51e516c7-1564-4244-814d-00facad24751,1,7fc2ed8d-b8e4-4731-8d19-c4a98d274b39,8106c38f-295f-41ab-9374-ca38d01d0ae9
2019-04-06 23:08:16,e09fd161-59cb-456e-ba89-3de96d0f1c43,1,7fc2ed8d-b8e4-4731-8d19-c4a98d274b39,8106c38f-295f-41ab-9374-ca38d01d0ae9
2019-04-06 23:08:16,07a4aa63-1654-4458-b20f-1f0dbe2d1252,1,7fc2ed8d-b8e4-4731-8d19-c4a98d274b39,76b99f9b-85f2-401f-8579-28e691ec72ef
2019-04-06 23:09:20,96dd5e44-48fc-4c07-b11c-bf3bbc5f05e4,1,7fc2ed8d-b8e4-4731-8d19-c4a98d274b39,d740ab17-2eb6-453f-b327-285887bad951
2019-04-06 23:09:20,81c9a35f-3340-441b-9dc9-0444c82fbae2,1,7fc2ed8d-b8e4-4731-8d19-c4a98d274b39,8106c38f-295f-41ab-9374-ca38d01d0ae9
2019-04-06 23:09:20,d40db2dd-4162-42ca-96ca-a67cffb76c49,1,7fc2ed8d-b8e4-4731-8d19-c4a98d274b39,8106c38f-295f-41ab-9374-ca38d01d0ae9
2019-04-06 23:10:24,2294f962-c79a-4c59-a164-10cc37c7d1f3,1,7fc2ed8d-b8e4-4731-8d19-c4a98d274b39,e44af9dc-8480-4509-9916-a365a013494f
2019-04-06 23:10:24,e48482b3-4c8e-477d-a706-ac87aa4a66ad,1,7fc2ed8d-b8e4-4731-8d19-c4a98d274b39,fe4a56c4-089d-49d5-ac92-6b8ec05aae77
2019-04-06 23:10:24,c68bec77-71fe-4689-a9c4-ccae90e46bd3,1,7fc2ed8d-b8e4-4731-8d19-c4a98d274b39,fe4a56c4-089d-49d5-ac92-6b8ec05aae77
2019-04-06 23:11:27,b50648c0-8e1c-41a2-8890-ebf79850e2be,1,7fc2ed8d-b8e4-4731-8d19-c4a98d274b39,9cd67e8c-09b3-4607-814f-3def77bfe362
2019-04-06 23:11:27,c8640cda-b70e-4cbc-ac1b-3e4804010dd7,1,7fc2ed8d-b8e4-4731-8d19-c4a98d274b39,34e04c21-c697-4fb0-9263-230d0391008d
2019-04-06 23:11:27,aef4996b-b19e-4451-87be-e4b62ca7bb18,1,7fc2ed8d-b8e4-4731-8d19-c4a98d274b39,fe4a56c4-089d-49d5-ac92-6b8ec05aae77
2019-04-06 23:12:31,02cd8a18-865e-4133-9ad7-7115a8ad4d1e,1,7fc2ed8d-b8e4-4731-8d19-c4a98d274b39,6f76a934-8c22-4a85-b5d3-f028c4785582
2019-04-06 23:12:31,addec709-82d3-4b59-9419-003c26d7e9f6,1,7fc2ed8d-b8e4-4731-8d19-c4a98d274b39,6f76a934-8c22-4a85-b5d3-f028c4785582
2019-04-06 23:12:31,681286eb-b1ce-4f2a-a8c9-74efe0f426ed,1,7fc2ed8d-b8e4-4731-8d19-c4a98d274b39,54324c41-c1f1-4bb0-87d3-c59a131bf672
2019-04-06 23:13:35,dc4d0711-b22d-4b38-af67-b548114d083c,1,7fc2ed8d-b8e4-4731-8d19-c4a98d274b39,3a2333fd-4486-4e1e-8351-61e8fd929f75
2019-04-06 23:13:35,4cba00cd-bb0c-433d-9652-31ebcc37f93d,1,7fc2ed8d-b8e4-4731-8d19-c4a98d274b39,3a2333fd-4486-4e1e-8351-61e8fd929f75
2019-04-06 23:13:35,9f09e500-8ee9-4e9d-8b16-5a702f0a9e25,1,7fc2ed8d-b8e4-4731-8d19-c4a98d274b39,51ff886d-5e56-4cb8-be2e-b24616326f7f
2019-04-06 23:14:38,10b76ddf-4481-42e0-b72f-b923ab41fc95,1,7fc2ed8d-b8e4-4731-8d19-c4a98d274b39,94dee90a-92e7-4c95-bb38-e9aa088e54a8
2019-04-06 23:14:38,a3f3bdad-8a95-4e54-9ff0-259c8dc3f2f6,1,7fc2ed8d-b8e4-4731-8d19-c4a98d274b39,a0a073ed-131c-40e4-8f05-2ac2321854c3
2019-04-06 23:14:38,a72fa8fc-06d2-43f8-833d-ad9e80f75c1b,1,7fc2ed8d-b8e4-4731-8d19-c4a98d274b39,94dee90a-92e7-4c95-bb38-e9aa088e54a8
2019-04-06 23:15:42,ea9e65e2-e695-4ab5-9f3b-773cabeda683,1,7fc2ed8d-b8e4-4731-8d19-c4a98d274b39,561093d2-df98-44a1-a167-3d7b5ac2827c
2019-04-06 23:15:42,43459d98-2a26-4126-8561-c62caf335abd,1,7fc2ed8d-b8e4-4731-8d19-c4a98d274b39,7d5336c6-b2a3-4524-af22-7967495dd8c5
2019-04-06 23:15:42,46a3292a-a0fe-450a-8993-f63f0c7c7cd7,1,7fc2ed8d-b8e4-4731-8d19-c4a98d274b39,7d5336c6-b2a3-4524-af22-7967495dd8c5
2019-04-06 23:16:45,70f8b16b-7a69-47ee-8ee7-25bc2226abc9,1,7fc2ed8d-b8e4-4731-8d19-c4a98d274b39,336dea73-1861-4c94-bca2-1d613813cea4
2019-04-06 23:16:45,9a5af7f3-687d-4bd8-86b3-49f1e895701f,1,7fc2ed8d-b8e4-4731-8d19-c4a98d274b39,f4456fdf-ee58-4f92-aad8-7f64298f2bb3
2019-04-06 23:16:45,fc89af1d-b977-4985-bce2-606913eb37d1,1,7fc2ed8d-b8e4-4731-8d19-c4a98d274b39,f4456fdf-ee58-4f92-aad8-7f64298f2bb3
2019-04-06 23:17:49,7bed880b-6873-4705-bd1c-deb084955c58,1,7fc2ed8d-b8e4-4731-8d19-c4a98d274b39,8d31ef0f-c3f0-45c5-a107-a4ba206567c7
2019-04-06 23:17:49,c8c25e00-342c-4029-ba9f-1652039eeddb,1,7fc2ed8d-b8e4-4731-8d19-c4a98d274b39,510d4728-4315-41b3-bf4d-6cc9f000d8f2
2019-04-06 23:17:49,84e78664-5c16-4ae1-b320-6688d56ee955,1,7fc2ed8d-b8e4-4731-8d19-c4a98d274b39,510d4728-4315-41b3-bf4d-6cc9f000d8f2
2019-04-06 23:18:53,71343a7e-7565-4563-8fde-f2df6c79aa84,1,7fc2ed8d-b8e4-4731-8d19-c4a98d274b39,0c42d3f7-e1d1-4f0e-9901-9e7097f7e393
2019-04-06 23:18:53,18679213-0207-4ea2-a5bc-20ef080eb39c,1,7fc2ed8d-b8e4-4731-8d19-c4a98d274b39,be3102f8-0751-40ef-8ff8-f43a1f00d142
2019-04-06 23:18:53,c7c00f4a-fb66-4a5b-84dc-fc28ea13caa0,1,7fc2ed8d-b8e4-4731-8d19-c4a98d274b39,0c42d3f7-e1d1-4f0e-9901-9e7097f7e393
2019-04-06 23:19:56,d484ce46-f6a9-4a38-9709-69b2441dd760,1,7fc2ed8d-b8e4-4731-8d19-c4a98d274b39,92366b54-c2a1-4426-9c36-cb08b5640c9f
2019-04-06 23:19:56,48f7c4d8-8ace-47a8-99d6-ce13743074f4,1,7fc2ed8d-b8e4-4731-8d19-c4a98d274b39,0c42d3f7-e1d1-4f0e-9901-9e7097f7e393
2019-04-06 23:19:56,1139f054-1e89-4370-bf55-2c58c175e8d4,1,7fc2ed8d-b8e4-4731-8d19-c4a98d274b39,0c42d3f7-e1d1-4f0e-9901-9e7097f7e393
2019-04-06 23:21:00,0cb1262c-3758-4a62-a8b1-36befc266d6a,1,7fc2ed8d-b8e4-4731-8d19-c4a98d274b39,fb7e16dd-250d-4212-98e1-86ae80faae9b
2019-04-06 23:21:00,6d6e9495-7c20-43d1-a5dc-cda7b1ba86e0,1,7fc2ed8d-b8e4-4731-8d19-c4a98d274b39,fb7e16dd-250d-4212-98e1-86ae80faae9b
2019-04-06 23:21:00,2d93a826-ef25-492d-a2c8-0314ced3d549,1,7fc2ed8d-b8e4-4731-8d19-c4a98d274b39,9480e402-1e17-421d-af47-2482b69e276f
2019-04-06 23:22:04,33ecfeb0-953e-4203-bc41-9ab1ded552ec,1,7fc2ed8d-b8e4-4731-8d19-c4a98d274b39,9cd67e8c-09b3-4607-814f-3def77bfe362
2019-04-06 23:22:04,3e98ed22-5153-4ca7-ad8f-6c2744d09144,1,7fc2ed8d-b8e4-4731-8d19-c4a98d274b39,9cd67e8c-09b3-4607-814f-3def77bfe362
2019-04-06 23:22:04,65b59985-1a9f-4ad9-b46e-9ee8f93a866a,1,7fc2ed8d-b8e4-4731-8d19-c4a98d274b39,c66cb48c-0d84-4ac1-bb0d-bfa5a32ab61c
2019-04-06 23:23:07,3cd32472-3b57-4231-afb5-a8023ad07eb9,1,7fc2ed8d-b8e4-4731-8d19-c4a98d274b39,b02f9349-7cd4-49f7-a93c-9e1f8378543c
2019-04-06 23:23:07,0562f1f9-6700-47f0-b012-29fcaf5d4dce,1,7fc2ed8d-b8e4-4731-8d19-c4a98d274b39,b02f9349-7cd4-49f7-a93c-9e1f8378543c
2019-04-06 23:23:07,c12f7700-2359-4485-a3bb-562431034c5a,1,7fc2ed8d-b8e4-4731-8d19-c4a98d274b39,c5ebea7c-8f42-481e-b481-9b9767d7d9aa
2019-04-06 23:24:10,d636c064-838f-4af6-91dd-0746fa6c6443,1,7fc2ed8d-b8e4-4731-8d19-c4a98d274b39,c5751214-20ee-402f-8618-2c309ba80142
2019-04-06 23:24:10,e444b96d-5e45-49f6-9bb4-5721fae77c3a,1,7fc2ed8d-b8e4-4731-8d19-c4a98d274b39,b02f9349-7cd4-49f7-a93c-9e1f8378543c
2019-04-06 23:24:10,b7bf8a19-cfef-4f93-a8fb-785c19a5ae3b,1,7fc2ed8d-b8e4-4731-8d19-c4a98d274b39,b02f9349-7cd4-49f7-a93c-9e1f8378543c
2019-04-06 23:25:14,93566bd0-15fd-4aa6-9b40-1853b4ab7bf3,1,7fc2ed8d-b8e4-4731-8d19-c4a98d274b39,737b054e-6e10-42e9-8e1f-b01ac45d07c0
2019-04-06 23:25:14,1ba1d00e-30ba-405c-bb6d-d17aad1d55c8,1,7fc2ed8d-b8e4-4731-8d19-c4a98d274b39,6f76a934-8c22-4a85-b5d3-f028c4785582
2019-04-06 23:25:14,2012714a-8323-4cc8-98bf-d0a6d686ef05,1,7fc2ed8d-b8e4-4731-8d19-c4a98d274b39,6f76a934-8c22-4a85-b5d3-f028c4785582
2019-04-06 23:26:18,6b0e9d32-94ef-4918-b3f5-4a668159051f,1,7fc2ed8d-b8e4-4731-8d19-c4a98d274b39,24e0f1e2-0053-458c-8b6b-bb7d719c46bd
2019-04-06 23:26:18,c6a310d9-50f6-4d7c-85fc-5025372b073f,1,7fc2ed8d-b8e4-4731-8d19-c4a98d274b39,9cd67e8c-09b3-4607-814f-3def77bfe362
2019-04-06 23:26:18,a495c44a-6633-4e45-9c4d-5d5709a016be,1,7fc2ed8d-b8e4-4731-8d19-c4a98d274b39,9cd67e8c-09b3-4607-814f-3def77bfe362
2019-04-06 23:27:21,f615bac6-16a7-4790-959c-e5a082949961,1,7fc2ed8d-b8e4-4731-8d19-c4a98d274b39,d9a49f12-d58a-4a6e-8352-4fb38b4f911a
2019-04-06 23:27:21,1f57e37a-9e04-4020-b47b-3476859ef5ed,1,7fc2ed8d-b8e4-4731-8d19-c4a98d274b39,20040460-1887-4927-86d1-ec958c288203
2019-04-06 23:27:21,18144587-8bd9-4cd8-b681-f3ba96da19ad,1,7fc2ed8d-b8e4-4731-8d19-c4a98d274b39,d9a49f12-d58a-4a6e-8352-4fb38b4f911a
2019-04-06 23:28:24,fb4dfe4c-47fe-4e15-9826-6b5fa172f574,1,7fc2ed8d-b8e4-4731-8d19-c4a98d274b39,d9a49f12-d58a-4a6e-8352-4fb38b4f911a
2019-04-06 23:28:24,c9740807-f505-412c-8460-70a534b1880c,1,7fc2ed8d-b8e4-4731-8d19-c4a98d274b39,ff1d6e89-2bc6-406c-a62b-52f1f28af3ad
2019-04-06 23:28:24,4d8cc229-a4e0-42ed-9eca-5f380cb78627,1,7fc2ed8d-b8e4-4731-8d19-c4a98d274b39,d9a49f12-d58a-4a6e-8352-4fb38b4f911a
2019-04-06 23:29:28,720a5648-8fb4-41bd-8c0c-6ce6f087d0e3,1,7fc2ed8d-b8e4-4731-8d19-c4a98d274b39,d9a49f12-d58a-4a6e-8352-4fb38b4f911a
2019-04-06 23:29:28,37d46efa-9839-4691-8c47-d324044d77ea,1,7fc2ed8d-b8e4-4731-8d19-c4a98d274b39,d9a49f12-d58a-4a6e-8352-4fb38b4f911a
2019-04-06 23:29:28,26593e1b-a1a7-4240-bd1d-0e1053c11f84,1,7fc2ed8d-b8e4-4731-8d19-c4a98d274b39,d63f683c-eae6-49d3-8d19-25ca11ebbc3a
2019-04-06 23:30:31,21b8686a-1386-4da2-89d5-49bfe2632819,1,7fc2ed8d-b8e4-4731-8d19-c4a98d274b39,fbe25dd1-a9cf-45a4-8b30-f3c5f06b31fa
2019-04-06 23:30:31,87b198ae-4703-474f-8b45-025c72885e89,1,7fc2ed8d-b8e4-4731-8d19-c4a98d274b39,fbe25dd1-a9cf-45a4-8b30-f3c5f06b31fa
2019-04-06 23:30:31,7b1c7a21-bf1a-456a-9186-d828f9e5af3d,1,7fc2ed8d-b8e4-4731-8d19-c4a98d274b39,ec1e657d-ffbf-43e3-a337-0c8c22fd7c0f
2019-04-06 23:31:35,4e1aab6c-bb67-4b82-9dbb-4d72432eabfd,1,7fc2ed8d-b8e4-4731-8d19-c4a98d274b39,fe4a56c4-089d-49d5-ac92-6b8ec05aae77
2019-04-06 23:31:35,4d392fc4-7c74-4d98-8ae8-843c0abb15e1,1,7fc2ed8d-b8e4-4731-8d19-c4a98d274b39,fe4a56c4-089d-49d5-ac92-6b8ec05aae77
2019-04-06 23:31:35,f4152628-c5a0-453d-bc8d-3e22e178498a,1,7fc2ed8d-b8e4-4731-8d19-c4a98d274b39,ca7bb126-1004-4650-b03c-4427e13ad0b2
2019-04-06 23:32:39,db2a3820-db92-4db4-8faa-ba902874b07e,1,7fc2ed8d-b8e4-4731-8d19-c4a98d274b39,be5b25cb-42c9-48f6-8739-50e9503dd6da
2019-04-06 23:32:39,0eb9d55c-d56f-48b4-be1b-0fbdaf6ce4b0,1,7fc2ed8d-b8e4-4731-8d19-c4a98d274b39,6f76a934-8c22-4a85-b5d3-f028c4785582
2019-04-06 23:32:39,c6738606-c83d-44ee-8e23-ed8b5fe0410c,1,7fc2ed8d-b8e4-4731-8d19-c4a98d274b39,6f76a934-8c22-4a85-b5d3-f028c4785582
2019-04-06 23:33:42,ec29bb99-9eb4-4839-b0db-6945fd33a94a,1,7fc2ed8d-b8e4-4731-8d19-c4a98d274b39,b02f9349-7cd4-49f7-a93c-9e1f8378543c
2019-04-06 23:33:42,d84fb8d4-f328-4530-be5b-e4999df072e3,1,7fc2ed8d-b8e4-4731-8d19-c4a98d274b39,ec315221-483e-4500-b083-f34cff107780
2019-04-06 23:33:42,5ee53ebf-59d6-4b5d-a6fe-8720c2a47caa,1,7fc2ed8d-b8e4-4731-8d19-c4a98d274b39,68b646c9-ba36-4a96-8523-e0b26184d79a
2019-04-06 23:34:46,2d2becb4-9a79-44ff-99e9-32746cb35bb4,1,7fc2ed8d-b8e4-4731-8d19-c4a98d274b39,fbe25dd1-a9cf-45a4-8b30-f3c5f06b31fa
2019-04-06 23:34:46,c3392d23-dc6a-4525-be20-dce6c8dd3e8f,1,7fc2ed8d-b8e4-4731-8d19-c4a98d274b39,0c2a2d1a-539c-46ed-861b-3c6fd16050de
2019-04-06 23:34:46,71f0c750-0c6e-4736-aace-c822e92ac7a3,1,7fc2ed8d-b8e4-4731-8d19-c4a98d274b39,fbe25dd1-a9cf-45a4-8b30-f3c5f06b31fa
2019-04-06 23:35:50,1d212772-2e11-4c9e-bce5-9c836e149efc,1,7fc2ed8d-b8e4-4731-8d19-c4a98d274b39,b02f9349-7cd4-49f7-a93c-9e1f8378543c
2019-04-06 23:35:50,4be54ba2-2932-402b-8d68-0fa5f66866e0,1,7fc2ed8d-b8e4-4731-8d19-c4a98d274b39,bd735dd4-b9cd-469d-8247-de66c005a45e
2019-04-06 23:35:50,948b4f94-7f0e-4095-90e5-fd3574df87f6,1,7fc2ed8d-b8e4-4731-8d19-c4a98d274b39,b02f9349-7cd4-49f7-a93c-9e1f8378543c
2019-04-06 23:36:54,9e2253d0-25f0-4f13-976d-eb327c98e0ad,1,7fc2ed8d-b8e4-4731-8d19-c4a98d274b39,fbe25dd1-a9cf-45a4-8b30-f3c5f06b31fa
2019-04-06 23:36:54,3bd0fc53-7d83-4544-a878-1f8c8ba753c7,1,7fc2ed8d-b8e4-4731-8d19-c4a98d274b39,ea1b2817-8d32-4ecb-92d0-29a39603f9a6
2019-04-06 23:36:54,7025f305-3d9d-42bb-a379-e63baf8eef51,1,7fc2ed8d-b8e4-4731-8d19-c4a98d274b39,fbe25dd1-a9cf-45a4-8b30-f3c5f06b31fa
2019-04-06 23:37:57,7ab7634f-6919-4e43-9e3a-e52c4211f17a,1,7fc2ed8d-b8e4-4731-8d19-c4a98d274b39,f28eb647-378d-4f14-b9a4-870ec96b7bfb
2019-04-06 23:37:57,d3420521-fda0-463e-b478-f1afb6aac148,1,7fc2ed8d-b8e4-4731-8d19-c4a98d274b39,f28eb647-378d-4f14-b9a4-870ec96b7bfb
2019-04-06 23:37:57,ec601961-5249-42ec-ab35-b9672092b6c3,1,7fc2ed8d-b8e4-4731-8d19-c4a98d274b39,4af92ca6-293f-4425-844c-77d444cc7dd4
2019-04-06 23:39:01,222fd228-0e0c-4937-b087-2017337a6354,1,7fc2ed8d-b8e4-4731-8d19-c4a98d274b39,fb7e16dd-250d-4212-98e1-86ae80faae9b
2019-04-06 23:39:01,ffd3dc04-c05f-4895-b2d5-e4af1c67106b,1,7fc2ed8d-b8e4-4731-8d19-c4a98d274b39,26bd3cb4-0da8-4c58-a4f9-a71133dba66a
2019-04-06 23:39:01,5710e50b-21a9-4af8-9259-867cfde38d81,1,7fc2ed8d-b8e4-4731-8d19-c4a98d274b39,fb7e16dd-250d-4212-98e1-86ae80faae9b
2019-04-06 23:40:05,03fb3b29-5147-450a-94fc-b0704237bd1e,1,7fc2ed8d-b8e4-4731-8d19-c4a98d274b39,f4456fdf-ee58-4f92-aad8-7f64298f2bb3
2019-04-06 23:40:05,0adf4a8d-75e0-41ec-86f2-a7050dec834f,1,7fc2ed8d-b8e4-4731-8d19-c4a98d274b39,a474270e-f3db-4f0f-ad07-265e41c16826
2019-04-06 23:40:05,287894cc-2fc5-4ea5-9b3a-4d3000cc8a46,1,7fc2ed8d-b8e4-4731-8d19-c4a98d274b39,f4456fdf-ee58-4f92-aad8-7f64298f2bb3
2019-04-06 23:41:08,fac6e47d-b576-40fc-8015-a6aeef98aeb4,1,7fc2ed8d-b8e4-4731-8d19-c4a98d274b39,f28eb647-378d-4f14-b9a4-870ec96b7bfb
2019-04-06 23:41:08,a1ee64b3-1214-4392-8847-bc8a201a7bb8,1,7fc2ed8d-b8e4-4731-8d19-c4a98d274b39,91f49a4a-431c-47e2-abfe-d25e111463df
2019-04-06 23:41:08,b9d82532-6445-4f81-b592-e0698246757a,1,7fc2ed8d-b8e4-4731-8d19-c4a98d274b39,f28eb647-378d-4f14-b9a4-870ec96b7bfb
2019-04-06 23:42:12,f0ae1f53-c2a1-4d80-82f6-85eb537205b8,1,7fc2ed8d-b8e4-4731-8d19-c4a98d274b39,78fc708e-f3e6-4e3e-95e8-8c3c9b93a7f6
2019-04-06 23:42:12,4626c687-48e0-42ad-9eef-3a4823502726,1,7fc2ed8d-b8e4-4731-8d19-c4a98d274b39,fb7e16dd-250d-4212-98e1-86ae80faae9b
2019-04-06 23:42:12,2f11b454-0bae-44bd-83ce-360eb7684143,1,7fc2ed8d-b8e4-4731-8d19-c4a98d274b39,fb7e16dd-250d-4212-98e1-86ae80faae9b
2019-04-06 23:43:15,a4ac5848-5eb4-49bd-a682-b2880ca76ee5,1,7fc2ed8d-b8e4-4731-8d19-c4a98d274b39,99f50468-aafb-4d11-8ad0-f8a918753d95
2019-04-06 23:43:15,55d750e8-c5fc-4ca3-9242-75fbe2476d1f,1,7fc2ed8d-b8e4-4731-8d19-c4a98d274b39,6f76a934-8c22-4a85-b5d3-f028c4785582
2019-04-06 23:43:15,6e431495-4edf-4661-8307-f61de5374a86,1,7fc2ed8d-b8e4-4731-8d19-c4a98d274b39,6f76a934-8c22-4a85-b5d3-f028c4785582
2019-04-06 23:44:19,03b813de-126e-4143-9ebb-d7087ccb5498,1,7fc2ed8d-b8e4-4731-8d19-c4a98d274b39,7d5336c6-b2a3-4524-af22-7967495dd8c5
2019-04-06 23:44:19,05ccb73a-f1a2-4410-81a6-f42dad078d6e,1,7fc2ed8d-b8e4-4731-8d19-c4a98d274b39,8eb1c965-f536-4c92-be21-8905e8c10fd9
2019-04-06 23:44:19,45008cc2-afea-4a37-85d7-6321a6b12541,1,7fc2ed8d-b8e4-4731-8d19-c4a98d274b39,7d5336c6-b2a3-4524-af22-7967495dd8c5
2019-04-06 23:45:22,6ad45ef8-7728-4935-83cf-cf41bc65170a,1,7fc2ed8d-b8e4-4731-8d19-c4a98d274b39,510d4728-4315-41b3-bf4d-6cc9f000d8f2
2019-04-06 23:45:22,ce65cac2-6728-4c28-a487-33d59b1848d1,1,7fc2ed8d-b8e4-4731-8d19-c4a98d274b39,179afbac-dbca-43ca-861c-17a63e1e01d8
2019-04-06 23:45:22,0b2ba6c0-d15b-460a-97d5-0cd661ab2ccb,1,7fc2ed8d-b8e4-4731-8d19-c4a98d274b39,510d4728-4315-41b3-bf4d-6cc9f000d8f2
2019-04-06 23:46:26,c7fecdd1-d292-47ea-bbe5-73cf748168b9,1,7fc2ed8d-b8e4-4731-8d19-c4a98d274b39,317418d7-e859-4b6d-b9cf-2ab0a20b51d6
2019-04-06 23:46:26,5edf36d8-eeaa-4a50-9ea0-cff01ea50a9f,1,7fc2ed8d-b8e4-4731-8d19-c4a98d274b39,8106c38f-295f-41ab-9374-ca38d01d0ae9
2019-04-06 23:46:26,42f035e6-87a9-4406-8dd9-55a9a2efe69b,1,7fc2ed8d-b8e4-4731-8d19-c4a98d274b39,8106c38f-295f-41ab-9374-ca38d01d0ae9
2019-04-06 23:47:29,b71b4232-df71-492d-a638-15cbe82f6798,1,7fc2ed8d-b8e4-4731-8d19-c4a98d274b39,68b646c9-ba36-4a96-8523-e0b26184d79a
2019-04-06 23:47:29,ce7e9883-9f51-47e3-9304-d780cf217288,1,7fc2ed8d-b8e4-4731-8d19-c4a98d274b39,68b646c9-ba36-4a96-8523-e0b26184d79a
2019-04-06 23:47:29,8c6ffaca-e5ac-4f35-add7-870f64c283ec,1,7fc2ed8d-b8e4-4731-8d19-c4a98d274b39,e2c903a7-73fe-492a-9aee-63bf9b3a94ce
2019-04-06 23:48:32,85c96b84-a347-4c35-b61c-798f7869f16b,1,7fc2ed8d-b8e4-4731-8d19-c4a98d274b39,f28eb647-378d-4f14-b9a4-870ec96b7bfb
2019-04-06 23:48:32,1e0b0034-2779-4b9f-9a88-92d4cb9c8d4d,1,7fc2ed8d-b8e4-4731-8d19-c4a98d274b39,96a66b0a-8da8-4061-b2c5-7ca1e0fef4d2
2019-04-06 23:48:32,9896c61f-1ad0-4e52-aa7f-38f5d337dd88,1,7fc2ed8d-b8e4-4731-8d19-c4a98d274b39,f28eb647-378d-4f14-b9a4-870ec96b7bfb
2019-04-06 23:49:36,8b3cffe5-e6f9-4159-8676-f3c7be45d71b,1,7fc2ed8d-b8e4-4731-8d19-c4a98d274b39,64eaa6ab-59e4-4e6b-80ff-720f0443ee21
2019-04-06 23:49:36,dcc8fbe6-193b-427b-9cbf-09c1b6d667bd,1,7fc2ed8d-b8e4-4731-8d19-c4a98d274b39,f28eb647-378d-4f14-b9a4-870ec96b7bfb
2019-04-06 23:49:36,81bd5ca8-7b27-4ea8-b9f8-3b37e6ec8ebc,1,7fc2ed8d-b8e4-4731-8d19-c4a98d274b39,f28eb647-378d-4f14-b9a4-870ec96b7bfb
2019-04-06 23:50:40,59b46afd-9a43-46ac-b9c8-5d8152cb23e7,1,7fc2ed8d-b8e4-4731-8d19-c4a98d274b39,dc46a8a2-83e2-4906-a475-fd7cf692baea
2019-04-06 23:50:40,4c155fae-566a-44bc-80d0-e2959c44e691,1,7fc2ed8d-b8e4-4731-8d19-c4a98d274b39,68b646c9-ba36-4a96-8523-e0b26184d79a
2019-04-06 23:50:40,cc4f60cf-5458-46c0-9d48-2518c2b17131,1,7fc2ed8d-b8e4-4731-8d19-c4a98d274b39,68b646c9-ba36-4a96-8523-e0b26184d79a
2019-04-06 23:51:43,6d132886-83e5-4679-97f2-82bda5dd24fd,1,7fc2ed8d-b8e4-4731-8d19-c4a98d274b39,68b646c9-ba36-4a96-8523-e0b26184d79a
2019-04-06 23:51:43,8fd77f06-dcf7-4e39-ae6d-47355f6b2ee2,1,7fc2ed8d-b8e4-4731-8d19-c4a98d274b39,32da62ff-0edc-4695-91a5-a61eae2f3679
2019-04-06 23:51:43,25da525a-8095-40c0-8e98-fb6be8a026d3,1,7fc2ed8d-b8e4-4731-8d19-c4a98d274b39,68b646c9-ba36-4a96-8523-e0b26184d79a
2019-04-06 23:52:46,415fcf20-f5c3-4261-8cdf-a8572c20b815,1,7fc2ed8d-b8e4-4731-8d19-c4a98d274b39,f4456fdf-ee58-4f92-aad8-7f64298f2bb3
2019-04-06 23:52:46,f84528d9-fea2-4aa6-92b4-d1542f4ee0ae,1,7fc2ed8d-b8e4-4731-8d19-c4a98d274b39,017aaaee-8018-4908-9524-80168648fa38
2019-04-06 23:52:46,de28622e-8071-4b23-9460-47102c4c5499,1,7fc2ed8d-b8e4-4731-8d19-c4a98d274b39,f4456fdf-ee58-4f92-aad8-7f64298f2bb3
2019-04-06 23:56:07,dcc8fbe6-193b-427b-9cbf-09c1b6d667bd,1,e9e6f671-9a29-4148-8c0d-45cec3e91416,e9e6f671-9a29-4148-8c0d-45cec3e91416
2019-04-06 23:56:07,81bd5ca8-7b27-4ea8-b9f8-3b37e6ec8ebc,1,e9e6f671-9a29-4148-8c0d-45cec3e91416,e9e6f671-9a29-4148-8c0d-45cec3e91416
2019-04-06 23:56:08,85c96b84-a347-4c35-b61c-798f7869f16b,1,e9e6f671-9a29-4148-8c0d-45cec3e91416,e9e6f671-9a29-4148-8c0d-45cec3e91416
2019-04-06 23:56:08,9896c61f-1ad0-4e52-aa7f-38f5d337dd88,1,e9e6f671-9a29-4148-8c0d-45cec3e91416,e9e6f671-9a29-4148-8c0d-45cec3e91416
2019-04-06 23:56:21,7ab7634f-6919-4e43-9e3a-e52c4211f17a,1,e9e6f671-9a29-4148-8c0d-45cec3e91416,e9e6f671-9a29-4148-8c0d-45cec3e91416
2019-04-06 23:56:21,d3420521-fda0-463e-b478-f1afb6aac148,1,e9e6f671-9a29-4148-8c0d-45cec3e91416,e9e6f671-9a29-4148-8c0d-45cec3e91416
2019-04-06 23:56:31,b604ede8-5768-4e6f-8a3f-ed598eed366f,1,e9e6f671-9a29-4148-8c0d-45cec3e91416,e9e6f671-9a29-4148-8c0d-45cec3e91416
2019-04-06 23:56:31,382fe8dd-73a6-4206-bdf2-8497d24799c7,1,e9e6f671-9a29-4148-8c0d-45cec3e91416,e9e6f671-9a29-4148-8c0d-45cec3e91416
2019-04-06 23:56:32,71343a7e-7565-4563-8fde-f2df6c79aa84,1,e9e6f671-9a29-4148-8c0d-45cec3e91416,e9e6f671-9a29-4148-8c0d-45cec3e91416
2019-04-06 23:56:32,c7c00f4a-fb66-4a5b-84dc-fc28ea13caa0,1,e9e6f671-9a29-4148-8c0d-45cec3e91416,e9e6f671-9a29-4148-8c0d-45cec3e91416
2019-04-06 23:56:47,7ab7634f-6919-4e43-9e3a-e52c4211f17a,1,e9e6f671-9a29-4148-8c0d-45cec3e91416,8106c38f-295f-41ab-9374-ca38d01d0ae9
2019-04-06 23:56:47,d3420521-fda0-463e-b478-f1afb6aac148,1,e9e6f671-9a29-4148-8c0d-45cec3e91416,8106c38f-295f-41ab-9374-ca38d01d0ae9
2019-04-06 23:56:48,b604ede8-5768-4e6f-8a3f-ed598eed366f,1,e9e6f671-9a29-4148-8c0d-45cec3e91416,8106c38f-295f-41ab-9374-ca38d01d0ae9
2019-04-06 23:56:48,382fe8dd-73a6-4206-bdf2-8497d24799c7,1,e9e6f671-9a29-4148-8c0d-45cec3e91416,8106c38f-295f-41ab-9374-ca38d01d0ae9
2019-04-06 23:56:48,71343a7e-7565-4563-8fde-f2df6c79aa84,1,e9e6f671-9a29-4148-8c0d-45cec3e91416,8106c38f-295f-41ab-9374-ca38d01d0ae9
2019-04-06 23:56:48,c7c00f4a-fb66-4a5b-84dc-fc28ea13caa0,1,e9e6f671-9a29-4148-8c0d-45cec3e91416,8106c38f-295f-41ab-9374-ca38d01d0ae9
2019-04-06 23:56:50,dcc8fbe6-193b-427b-9cbf-09c1b6d667bd,1,e9e6f671-9a29-4148-8c0d-45cec3e91416,8106c38f-295f-41ab-9374-ca38d01d0ae9
2019-04-06 23:56:50,81bd5ca8-7b27-4ea8-b9f8-3b37e6ec8ebc,1,e9e6f671-9a29-4148-8c0d-45cec3e91416,8106c38f-295f-41ab-9374-ca38d01d0ae9
2019-04-06 23:56:50,85c96b84-a347-4c35-b61c-798f7869f16b,1,e9e6f671-9a29-4148-8c0d-45cec3e91416,8106c38f-295f-41ab-9374-ca38d01d0ae9
2019-04-06 23:56:50,9896c61f-1ad0-4e52-aa7f-38f5d337dd88,1,e9e6f671-9a29-4148-8c0d-45cec3e91416,8106c38f-295f-41ab-9374-ca38d01d0ae9
2019-04-07 00:46:30,c6a310d9-50f6-4d7c-85fc-5025372b073f,1,e9e6f671-9a29-4148-8c0d-45cec3e91416,d9a49f12-d58a-4a6e-8352-4fb38b4f911a
2019-04-07 00:46:30,a495c44a-6633-4e45-9c4d-5d5709a016be,1,e9e6f671-9a29-4148-8c0d-45cec3e91416,d9a49f12-d58a-4a6e-8352-4fb38b4f911a
2019-04-07 00:25:06,1d212772-2e11-4c9e-bce5-9c836e149efc,1,b02f9349-7cd4-49f7-a93c-9e1f8378543c,f28eb647-378d-4f14-b9a4-870ec96b7bfb
2019-04-07 00:25:06,948b4f94-7f0e-4095-90e5-fd3574df87f6,1,b02f9349-7cd4-49f7-a93c-9e1f8378543c,f28eb647-378d-4f14-b9a4-870ec96b7bfb
2019-04-07 00:46:01,c6a310d9-50f6-4d7c-85fc-5025372b073f,1,3a2333fd-4486-4e1e-8351-61e8fd929f75,e9e6f671-9a29-4148-8c0d-45cec3e91416
2019-04-07 00:46:01,a495c44a-6633-4e45-9c4d-5d5709a016be,1,3a2333fd-4486-4e1e-8351-61e8fd929f75,e9e6f671-9a29-4148-8c0d-45cec3e91416
2019-04-07 00:05:02,b604ede8-5768-4e6f-8a3f-ed598eed366f,1,f4456fdf-ee58-4f92-aad8-7f64298f2bb3,9cd67e8c-09b3-4607-814f-3def77bfe362
2019-04-07 00:05:02,382fe8dd-73a6-4206-bdf2-8497d24799c7,1,f4456fdf-ee58-4f92-aad8-7f64298f2bb3,68b646c9-ba36-4a96-8523-e0b26184d79a
2019-04-07 00:38:30,9a5af7f3-687d-4bd8-86b3-49f1e895701f,1,f4456fdf-ee58-4f92-aad8-7f64298f2bb3,fbe25dd1-a9cf-45a4-8b30-f3c5f06b31fa
2019-04-07 00:38:30,fc89af1d-b977-4985-bce2-606913eb37d1,1,f4456fdf-ee58-4f92-aad8-7f64298f2bb3,fbe25dd1-a9cf-45a4-8b30-f3c5f06b31fa
2019-04-07 00:38:36,03fb3b29-5147-450a-94fc-b0704237bd1e,1,f4456fdf-ee58-4f92-aad8-7f64298f2bb3,fbe25dd1-a9cf-45a4-8b30-f3c5f06b31fa
2019-04-07 00:38:36,287894cc-2fc5-4ea5-9b3a-4d3000cc8a46,1,f4456fdf-ee58-4f92-aad8-7f64298f2bb3,fbe25dd1-a9cf-45a4-8b30-f3c5f06b31fa
2019-04-07 00:41:07,c6a310d9-50f6-4d7c-85fc-5025372b073f,1,f4456fdf-ee58-4f92-aad8-7f64298f2bb3,0c42d3f7-e1d1-4f0e-9901-9e7097f7e393
2019-04-07 00:41:07,a495c44a-6633-4e45-9c4d-5d5709a016be,1,f4456fdf-ee58-4f92-aad8-7f64298f2bb3,0c42d3f7-e1d1-4f0e-9901-9e7097f7e393
2019-04-06 23:55:52,1e0b0034-2779-4b9f-9a88-92d4cb9c8d4d,0,NA,NA
2019-04-07 00:25:19,4be54ba2-2932-402b-8d68-0fa5f66866e0,0,NA,NA
2019-04-06 23:57:05,ec601961-5249-42ec-ab35-b9672092b6c3,0,NA,NA
2019-04-06 23:57:24,ec601961-5249-42ec-ab35-b9672092b6c3,0,NA,NA
2019-04-06 23:57:24,1e0b0034-2779-4b9f-9a88-92d4cb9c8d4d,0,NA,NA
2019-04-06 23:57:25,8b3cffe5-e6f9-4159-8676-f3c7be45d71b,0,NA,NA
2019-04-06 23:57:36,ec601961-5249-42ec-ab35-b9672092b6c3,0,NA,NA
2019-04-06 23:57:38,1e0b0034-2779-4b9f-9a88-92d4cb9c8d4d,0,NA,NA
2019-04-06 23:57:54,ec601961-5249-42ec-ab35-b9672092b6c3,0,NA,NA
2019-04-06 23:57:54,1e0b0034-2779-4b9f-9a88-92d4cb9c8d4d,0,NA,NA
2019-04-06 23:58:09,ec601961-5249-42ec-ab35-b9672092b6c3,0,NA,NA
2019-04-06 23:58:13,1e0b0034-2779-4b9f-9a88-92d4cb9c8d4d,0,NA,NA
2019-04-07 00:04:47,1e0b0034-2779-4b9f-9a88-92d4cb9c8d4d,0,NA,NA
2019-04-06 23:56:07,8b3cffe5-e6f9-4159-8676-f3c7be45d71b,0,NA,NA
2019-04-06 23:56:08,1e0b0034-2779-4b9f-9a88-92d4cb9c8d4d,0,NA,NA
2019-04-06 23:56:21,ec601961-5249-42ec-ab35-b9672092b6c3,0,NA,NA
2019-04-06 23:56:47,ec601961-5249-42ec-ab35-b9672092b6c3,0,NA,NA
2019-04-06 23:56:50,8b3cffe5-e6f9-4159-8676-f3c7be45d71b,0,NA,NA
2019-04-06 23:56:50,1e0b0034-2779-4b9f-9a88-92d4cb9c8d4d,0,NA,NA
2019-04-07 00:25:06,4be54ba2-2932-402b-8d68-0fa5f66866e0,0,NA,NA
