actor,node
cb27c3d6-70bf-45b7-b3a3-55ebf8d9b449,10f7d93d-7def-48b0-81ef-bea97df5d97c
c190b7dc-16a6-4702-90dc-6820803b61fd,ced82e3e-d8d0-4aa7-8617-8ceda31477f8
8a9eb23f-3051-4861-8497-772d18d67d01,ced82e3e-d8d0-4aa7-8617-8ceda31477f8
fe368cc6-7a86-4fd4-9342-4ae63b1f8407,ced82e3e-d8d0-4aa7-8617-8ceda31477f8
0226629b-ba50-40d9-9229-c5692be087f7,ced82e3e-d8d0-4aa7-8617-8ceda31477f8
7e50b80c-84d4-48fb-9298-c29f3629ff2b,3a9efe33-3eef-4912-a467-d6be7884fd9a
9afd59c6-f56a-4b2c-814d-5cb095b7e4c2,1e50431a-d6e7-4ad6-a506-24321ee9d527
60150fc1-52b9-48ce-8ed5-7ae91368b98e,c6fb3ba1-55eb-4ad2-8441-ee795a0a9b4a
73548e3e-c1ab-421b-b18e-bee0a9cf5edd,7bcfb4f4-ae22-4299-8684-362d2170f8ad
1124b061-360b-4acb-b8e2-d9f4efe4dce4,8027436c-79d7-4772-b956-eda24a5c2432
616a60ed-25e3-44e3-ac29-ed985905f515,66cc002c-c33d-4107-a910-e5cc15798a25
ba3f2656-42ed-46af-81a4-e9dab6032e09,8027436c-79d7-4772-b956-eda24a5c2432
17a4e18e-6f26-49d3-9cb9-432a077d7628,d066377d-cc02-4413-9145-0c22e8190a0e
98d81ad1-381d-49bc-8d7c-d3d3dddf2885,ced82e3e-d8d0-4aa7-8617-8ceda31477f8
0827ea26-bca2-44d6-bd72-a5b0fd259418,ced82e3e-d8d0-4aa7-8617-8ceda31477f8
77d9af53-6a60-42d6-a1f9-3ffc403ef42a,229f3d4d-4e06-44a3-8650-747309675ee2
28ded725-eff3-46ab-bb19-a73489214400,7bcfb4f4-ae22-4299-8684-362d2170f8ad
6f1b6b51-94a8-4bc9-b427-710e46cc9996,7bcfb4f4-ae22-4299-8684-362d2170f8ad
b3f1dff2-a645-4b8e-9792-6caa9e447af4,764de34c-3e6b-4a25-803d-0c45cd482bdd
eb4f3889-0347-49e3-8320-3080814c4e31,558d0f2a-28ee-4b6b-bb1b-d41acc8f16c9
9cffd6a8-eade-4d1d-9222-0657654e3d9a,558d0f2a-28ee-4b6b-bb1b-d41acc8f16c9
df82a5ea-9982-437c-b0a9-5b7bde4da575,68e7cf65-3c31-4c25-963e-a68d54e94785
78983ca0-d581-4c07-85f2-41f3f72a57a5,68e7cf65-3c31-4c25-963e-a68d54e94785
b862b8ac-b5c7-48a0-a9f9-2378d6602d20,9d0a4be2-2a58-48d1-a09b-15feff094126
dc30768e-7b5f-4e35-a804-6c7540946b40,99d7c424-4513-4083-8cbc-973ad9bb28d5
e39e7d13-75fa-436e-803b-4e124d844123,6214af60-9657-40b3-ac0b-247359a16aed
e84088f4-b202-40d3-8f87-7ef472168f09,6214af60-9657-40b3-ac0b-247359a16aed
ad4f313e-ba3f-4afb-b39a-fc20e0a95206,97be0a23-8be4-4390-805e-072a382406f9
f323a483-3e8d-47af-a845-035469439d17,8d4d39b9-9450-4238-b44d-f33cb43a4f67
dfa638b4-0fca-4dcd-851e-55827ff9a7d5,97be0a23-8be4-4390-805e-072a382406f9
27763b0c-ee7e-4ba2-947b-a1701ba62e2d,68e7cf65-3c31-4c25-963e-a68d54e94785
b4abfd84-489d-4474-a256-b3cfeae28f13,68e7cf65-3c31-4c25-963e-a68d54e94785
df885702-639e-4257-abac-70fedc4c3780,54349bf3-5545-4365-b45d-520a66569b14
f9c5e70e-dcc7-4989-baca-a47e1507fa6c,097d6cf6-589a-4db7-a766-f7e50a5983e2
5c35086f-1fcf-46f1-9e3a-2528dcb6fb7f,097d6cf6-589a-4db7-a766-f7e50a5983e2
4d0ec66f-8e4f-4ec9-b778-39b55dcee134,2d9a8073-45c7-4151-9cc8-22ebaf76900a
b5114ca7-c550-4d1a-9303-44ef00a2156e,f47435eb-0053-46ac-ab0b-aafa7e437a5d
dc3b9820-fd8d-4103-9d4a-caec824b7f33,c44fe56b-48d9-44f3-932c-ee9ded897bcb
42eadb2b-9b2f-40ac-8f65-ec68bf470ddf,c44fe56b-48d9-44f3-932c-ee9ded897bcb
91f89ecb-c208-41b4-b172-ded618e17f01,a0305333-254a-4001-b4fe-ae7302093696
c570253c-167c-41e1-a9ae-a73983401a7c,c301d7b7-89fe-431d-8901-e18995d791d4
550a5a1f-9229-45df-9984-7518f081aa15,a0305333-254a-4001-b4fe-ae7302093696
b02905db-0073-45cd-b0b1-26f848afbafd,7bcfb4f4-ae22-4299-8684-362d2170f8ad
a8bd8f19-c647-47ce-a88f-e482d851e1a7,22fdbb6a-f796-478c-b74f-45538868e96e
aebd6971-2a80-453a-a37c-b74b6a490621,7bcfb4f4-ae22-4299-8684-362d2170f8ad
6cb8532b-b313-4f16-b8e3-edc55e85478b,a0305333-254a-4001-b4fe-ae7302093696
0bc7411f-4e02-49f8-8ab9-6fb875ed445f,a0305333-254a-4001-b4fe-ae7302093696
3464bd35-bce5-42b6-9485-d9cd2842251b,e73ea32c-ddc0-4e9c-b694-7ce18c3eb9a4
ee4a07b6-523e-4621-a5be-5fd5c914b311,65f2857a-688b-4e3b-a96c-de65f09d7c37
914e8a2c-a212-42c6-a080-7703b331cf02,7ba11dac-7b92-4cc6-bed3-a5be5da2505f
96a17b22-8090-4804-a72c-4f1a7ce1d1ec,65f2857a-688b-4e3b-a96c-de65f09d7c37
80ab8d29-298d-4584-be11-a5a45b253e4d,6214af60-9657-40b3-ac0b-247359a16aed
ba154d86-5f7b-481c-8ad3-5d82a55695c5,1abd91d2-d86c-4340-b003-391ac32d3260
95f50ed7-8220-4791-bff7-e4e84a734c51,6214af60-9657-40b3-ac0b-247359a16aed
4ce23efb-2cf9-424b-b8bd-24d3deb5541e,95277d14-72a7-4b37-9d31-f3485ee019a0
db13b2ba-529b-4bc7-b2e5-82d7f2e4c56b,97be0a23-8be4-4390-805e-072a382406f9
b08a1db3-4822-4ea5-9ece-979062791812,097d6cf6-589a-4db7-a766-f7e50a5983e2
520a936e-7184-413b-8333-9fcb1c1035c2,433b61be-4f1a-4519-b60c-589a1a624016
28329f6d-cdb8-48e2-a572-8261e928aa0d,433b61be-4f1a-4519-b60c-589a1a624016
3264a3ca-f09c-4c8a-9bb7-8dbae32cb34a,9adda43f-36da-40c1-8463-4ea284a7c23e
163ed6cb-9f23-4f68-ae7c-2e6e51d0c6a6,097d6cf6-589a-4db7-a766-f7e50a5983e2
09042fb7-ea4a-4b90-8147-6afcd242c549,097d6cf6-589a-4db7-a766-f7e50a5983e2
fe976a6a-944d-47eb-ab94-682cc1aeb222,3946d69a-41dc-4af8-8994-96344e8f2dcf
824949f3-2dd3-4101-a230-340e723df3fe,75344156-4e14-4cc9-880e-b95803405a13
da40e92b-7432-4b25-a3a5-86890ff2669f,5bd60b9c-b929-446e-b65d-bed877062c7e
75369283-cb19-40b5-b46c-3d8dc3fb47ea,5bd60b9c-b929-446e-b65d-bed877062c7e
48d215f7-bffb-4e6d-81b6-e14f9073ca5d,1f70c13f-8a40-441b-81a2-19fc4e86cb5f
0a8d3a7d-c52b-4ecf-aaf6-aef03ba99078,a51a362e-1192-483c-bc9b-1726d60431a3
d86a71a5-8cfa-4d4c-93c1-f52d7b697e5c,a51a362e-1192-483c-bc9b-1726d60431a3
193e0347-a831-4610-bdcc-8dd10d887c4b,5aed2dde-5a28-437e-b38e-fa3e0a271384
173a852c-6280-4c0d-8cb5-b37d3705e2f5,68e7cf65-3c31-4c25-963e-a68d54e94785
cdff17e0-cf6c-4e6f-9775-d05a85ec4f58,68e7cf65-3c31-4c25-963e-a68d54e94785
4db59534-ebe2-4618-839f-0997e48e383d,a51a362e-1192-483c-bc9b-1726d60431a3
8aa37efb-4624-425c-bcf9-8d112ef215d0,a51a362e-1192-483c-bc9b-1726d60431a3
255c77d7-068d-4ab7-b6c0-842d2a73cbf9,e2dcf96d-3a32-4160-8911-2c306967f2ce
