app_number,app_id,trigger,burn,sink,deploy_date,token_interval
1,c90a4e35-a28a-417d-8fcd-2a54cc428988,8f8ec906-2f60-4041-9959-f8fa6659e4f0,78eb3f0e-3688-4d96-a6c3-4ffeaab9c658,32fe2a48-9bde-4267-b77a-f201c5b67a4a,2019-11-20 03:30:59,1.000000
2,eb466782-8087-47cc-8b59-2030cba25b18,c26d9992-1929-4897-82e5-3bd3756d285a,04a772fc-4222-474d-88bd-a1e5cb016bbb,2b5b30db-e0a9-43c2-909f-a80b9f93a06b,2019-11-20 03:32:02,1.000000
3,e781baff-5fae-4672-aa08-df32d379e142,101e9344-d22c-4859-8e16-5cefe6b0e6ba,3b3e59ba-9466-466a-9cd0-6dedd6f57dde,fe3081c5-ab5c-4139-8efb-25d0c5571a5f,2019-11-20 03:33:05,1.000000
4,41e1919d-8b91-4692-923c-cb90ce644740,939b8c42-c0c2-481c-9a23-0a1a967d2aca,a151596f-1ec8-4432-bf3f-21298b672610,e878d01e-63d2-4533-a46d-6f9a0e6b4859,2019-11-20 03:34:08,0.200000
5,1a4d631a-9ba3-4677-bcc6-5632ea7932f7,ffe7ef7f-924e-4171-b698-aebd0408a7b1,24412b38-bf15-4ab0-b98c-084ffc0b9eba,83933a40-fe1b-42ee-9a79-bd68e2080880,2019-11-20 03:35:10,0.200000
6,5d6d3127-ef96-4d58-974c-62899b579b32,b9074c1a-728f-4528-b13c-47966cfc4802,4858c4b2-b174-4921-845a-35b0dbaec269,f485dbde-e372-485e-8c52-6253d4573225,2019-11-20 03:36:13,0.200000
7,577f78f8-5695-430f-bc2d-fff4b9b70ec6,e884a27b-0a4c-4f97-bb58-ba55ce822c17,1b270b9c-a2ac-45fd-b484-d2790f4bfe5e,4335d3fa-ba59-48b7-9366-194f10d2ce6f,2019-11-20 03:37:16,0.200000
8,fd52686c-80f4-4c68-9fae-6f8da9743c3d,b2b34521-bd30-4e23-84f9-5efbb6ab2cdf,7f0b98b1-0cd5-45e1-928a-bd3cd4bf69bb,f96b34a5-50e7-474c-9e33-7cf3d19c6000,2019-11-20 03:38:19,1.000000
9,8ad1f784-27d8-49e6-8829-24c5c688ace9,ce2731ee-bec7-43b3-aa0c-69b6961237d3,64c96759-21dc-42d8-b222-efcef71fd79f,fc0b1b6c-f122-4d37-ad3c-f9e8fc694e53,2019-11-20 03:39:22,0.200000
10,5231b9a1-2c45-4712-90b1-c829eda1762e,65ad78ac-0c41-43fe-9a23-6d5a6adfee6e,0dbb1f6e-be2f-493e-aa94-880798ad8662,7cca1c02-b173-41e5-be27-d259a809523b,2019-11-20 03:40:25,0.200000
11,9c687467-c3ef-43d9-95c9-0961869fd0d4,99bb1c0c-6679-40a9-bcd9-cdbbeb268563,80dbe2b2-978f-4530-aff0-1fdaf05ba7a0,fb9786bd-7d39-41f8-be61-4f0b3ee35f80,2019-11-20 03:41:28,0.200000
12,e4b17119-da67-42e5-8388-8000c144ff97,df05599d-6db0-4dee-9386-33afddae3ebc,47341141-8118-44b8-a6d5-4d1aa27cf4b5,0bdb6b5e-e364-47db-8765-fa860a8b1050,2019-11-20 03:42:30,1.000000
13,7b332951-83d5-4651-bcc0-f56b6cd9b911,e8f9ab76-b05c-4f80-841d-9e722f0a0287,8bc5a8ac-7735-42cc-b2b1-1dc18c41ecaf,bd0df952-45b4-4617-85e7-994f98816241,2019-11-20 03:43:33,0.200000
14,d526b7bd-5226-4d52-8fe2-65fd4eed57ca,ea9a53e6-d332-4a38-b07e-44f5ef8f6809,ab32d271-7111-4327-8842-4ec6dfdc5bd0,5a991ce4-a234-4e4d-aa7d-6444308fd814,2019-11-20 03:44:36,0.200000
15,efeba0ab-126a-40ec-8ddb-3ea6718a55db,4398fcee-0503-435a-8796-084bd754b4bb,5ad3296c-a985-4b7c-9b00-e88db2e04e78,b112d0c2-ca9a-48f5-a559-3cb89f91fc8f,2019-11-20 03:45:39,1.000000
16,b5fb77e7-6699-420e-a735-ec1c4734a34c,93f8e63b-b7cf-4e8c-8cb5-265c3240991a,8fa0d053-8039-4b52-8f19-d39a324ac427,129f751e-84b1-41ab-a223-bfd4e44f4057,2019-11-20 03:46:42,1.000000
17,3f20869a-3c74-486d-9b10-ea45cbf3f085,3c5c8ff3-f2f8-49f7-b404-85c3911313a3,795e0475-e8ee-405f-944c-27af1d1f2b6e,04a56252-6aca-4bdd-8a84-b67c5f4fbf22,2019-11-20 03:47:45,0.200000
18,af4c4ccf-8a01-4b8c-8c0c-9ec13416f3fe,bdbaddbf-61ee-4cbd-ada2-888d9cb7ff78,c3dabbc0-c6bf-4e22-ada3-47ec43724c78,a4875129-cb82-46d0-beb2-95bd65e6fd74,2019-11-20 03:48:48,1.000000
19,90c9f209-4cf3-4ca6-b8e2-74bd21655f0d,6b155c42-f582-4724-89d3-d853734c4f45,b47df1bf-b450-4cf7-8769-42793b7c5f57,9612002a-7798-4df0-a521-03ec8d124521,2019-11-20 03:49:50,0.200000
20,ec70a372-0f38-42d6-9e68-57a644968695,49600c9b-c1bd-4d6f-bfaf-92640dfd5eca,d1b07a7c-92ac-46a9-9837-c010c2a77828,13c531a8-e148-4a6c-b5b1-e0e917ef6033,2019-11-20 03:50:53,1.000000
21,3742d663-f9f8-4d53-bec8-77ef3e03d994,e8301913-2074-42fc-b4ba-308dd400e6b1,15afe149-b4b8-4578-9b42-39f15f001fbe,767307c6-45d5-48c2-94f2-78fddf448f8d,2019-11-20 03:51:56,0.200000
22,02ddca47-d08d-4a94-a42c-3b607f3991cc,a7fc1e46-e119-4c21-80e5-beabec0bca4d,82d337b7-3444-4d94-9cb9-946168e2781e,02e4b783-0c20-4a82-a71c-724b269b8074,2019-11-20 03:52:59,0.200000
23,9c74986c-7084-4896-8922-b289d74beab5,4e568b55-3d33-4c47-81ea-c7727e903f1e,7b94b049-d3a9-4b49-a57d-5990bbb6258d,c3def643-491b-41ed-a8d4-4c07ba64d3bb,2019-11-20 03:54:01,0.200000
24,2ade670d-0a00-4060-8609-6dd753629706,6840b5fc-c92b-4e05-8cdb-81808be0082a,6947a23e-efa1-4928-8260-d3c904fd686d,5205d99c-d26b-4d59-8134-5a401cbc4be7,2019-11-20 03:55:04,1.000000
25,854744ae-6d0a-42a8-bc0f-82f62cf71167,2e47e3b3-6dc0-4032-8bb2-52286b40b77d,8531b8f9-b942-41f1-8134-96c8cfc7a0dc,059a39f0-25ca-4195-8223-cfb146ff1f8b,2019-11-20 03:56:07,1.000000
26,674093da-8443-4650-8716-9f2e7653890b,3cf1159b-6034-44b4-88d3-1a6b692f0078,3c64e73e-7ad5-48a9-b94a-348389808f81,24806c33-bcd3-4dd5-a21e-c6ad9e190de5,2019-11-20 03:57:10,1.000000
27,aec619de-05a5-4b5a-9488-b8f71f6fb942,88e89b19-955b-4e71-8899-0d123f25173d,5e01ee0d-3d9e-4b9b-b731-4e684f299cf3,e008b899-089b-47c7-a3af-a57385d61eaa,2019-11-20 03:58:13,0.200000
28,0c5df7bd-f832-45eb-b11a-8c51ebb78570,3761f8e4-69a2-45d9-928a-20a574316619,76061a67-6d8f-43da-92ff-e75d8c2a04ad,d61b12f0-7f19-44af-9dfc-52e77871de0d,2019-11-20 03:59:16,1.000000
29,8f9e6b9c-1ed3-4777-9ebb-13ddca05d371,df0d34a0-ef3b-4f37-a9e3-5a047ea6391c,5bc932dd-fd1c-4292-9a0b-dc960357a7fd,20ee4ed3-bf05-4645-984a-b0201819f885,2019-11-20 04:00:19,1.000000
30,c3c0be88-dd0c-4a64-abc5-57b226cf8c10,fad4101e-6f80-423e-85a3-21827604082c,4f981d6e-ab9f-41c0-b65d-3eb3195bf064,0984bef7-de34-4e8c-81ed-a07d6acc809d,2019-11-20 04:01:21,1.000000
31,37bacf7f-a8a2-4a37-bf63-37af4684000d,7202196f-d73a-4c6a-985a-c1635e29ef4b,2beb0c4e-ff4b-452a-9929-83cd2ab9f889,300d7175-ed17-41d5-8f33-a577e28b588a,2019-11-20 04:02:24,1.000000
32,b5caee1b-04e6-40c8-9d81-ab49917a12b8,49c77b5a-db95-45d7-9c1c-425c46a06231,754f2071-583d-4c19-99c6-90058fd5e345,483666af-2243-4940-ae1c-e140286232a5,2019-11-20 04:03:27,0.200000
33,aa2368f8-093b-460a-ab8a-79d575daf0fa,309826a2-3e98-4baa-b5a5-8c5307896415,882911ff-5a92-4c66-a66d-28237523c9d4,070db871-9cb4-440e-80e7-e7f4e324c153,2019-11-20 04:04:30,1.000000
34,7cdbc0f6-df21-4b31-9898-a8e187446be0,b1f546d2-90de-4ccb-94c1-076c92acb6f7,704e3aa1-742b-4205-b08c-3367c9973ae3,e4e7e44e-9ff4-4cfe-a514-9f1506f80b33,2019-11-20 04:05:32,0.200000
35,68a3ab9d-eaef-4a62-a72c-aba416e61583,1a3f8cfc-a1c3-4e50-a93c-642dec7dd677,c42af19d-5923-4f92-b1d6-68dd3ed1fe85,d6be2bd0-05a4-487c-9b66-f9ff6db83cec,2019-11-20 04:06:35,1.000000
36,3191e224-f228-4d1c-b546-0bc91e470051,ce951711-d76d-4e16-96a5-41e76558ff06,aa7ae59c-88e5-46d2-ac84-f95ac978ad42,0a64601c-cf0e-4f8b-b946-4a6600f7aa4a,2019-11-20 04:07:38,0.200000
37,f893474b-e727-4a81-9750-b719af3482f9,49a2b043-fc10-4083-9a78-446d146874e4,2f08928d-ce11-42f8-b169-207832534fe9,25340f01-2e65-467c-982c-f680dabef6a2,2019-11-20 04:08:41,1.000000
38,def17bee-b06a-4535-9c52-2cf9a464acf8,83e1e23d-190e-4da0-b064-80d415a500eb,46823a29-240f-41a3-82f5-acdd47966bf2,8878a82f-2894-44ad-a688-2594b5e5c20c,2019-11-20 04:09:44,1.000000
39,2fb5e911-7fa5-4d0e-a269-c1ff614e94d6,4d80f547-51d8-4830-b32e-9b8c701b67d4,f2e9b888-db9f-4d37-8447-f76679413a42,b3b50cef-64d8-44b8-801b-602f5c67051d,2019-11-20 04:10:47,0.200000
40,f5f111a2-c94a-4045-b9a4-20a9869b224d,339c7fe3-ef47-46af-b5a6-ba2644eb2432,ceeb00ad-f2bc-4452-823b-5a7311801d5b,643176c5-e540-4c81-bd8b-3f3515fd76ef,2019-11-20 04:11:50,0.200000
41,a6309319-cc42-4ba6-bfc3-98a6cf4dcc04,56b20f8e-f9d7-40bf-afe1-fd25af26e373,cc8c344e-4aca-4fb2-a5aa-d91f1a092900,3882ad48-2088-45a7-adf4-a6a358bde0e1,2019-11-20 04:12:53,1.000000
42,c539b854-2482-43f9-bab5-80d9a26e724a,9c010260-7b46-4c00-afef-266567db4530,f6a5a80c-c8e8-4445-ac52-9fe7b3147566,78aa14f3-c990-423a-8e73-612da7ae8d7d,2019-11-20 04:13:55,0.200000
43,6ee61111-0f04-4063-add8-36d8a3435929,485b4e5f-a914-4a02-a7c5-29a918000457,794d5bfc-f3bc-496c-bc45-81a857a078b8,23a34cf0-026a-4c1a-80f1-b56c046266c7,2019-11-20 04:14:58,0.200000
44,ff1d1a03-8e51-45fa-9a9c-60cbe8427559,49142f3d-c95b-4665-98e5-9ceb4da78a9a,111660c6-c542-4e3d-90b7-a17ec4811b36,7bb55c65-b64b-43a9-90e3-8e0e6d3f95b5,2019-11-20 04:16:01,0.200000
45,0e22769d-034a-4794-8482-7838543b071e,e04536a6-89f6-4a9f-944c-bf44aeb77c1c,5dcc042c-676e-4223-b0b7-0c5ab6b6bc92,1b34b83d-9ac1-47ab-8427-d0d006b7cb8b,2019-11-20 04:17:04,1.000000
46,6409dbf4-618c-45c3-a310-b8e9b9c50ee8,99a014a8-f67c-4aa6-8c60-5dfb2a65c97a,0c9a7a33-18a3-42c5-a2ea-bd9eda0f79b5,82d60efd-910f-4f21-9c27-5101dc516abf,2019-11-20 04:18:07,0.200000
47,36e4dbb7-150c-44e8-ab5c-9dacfe0beb35,1c89c2f5-285e-46aa-82f0-0bcbbf97131e,35917131-e063-4e95-80c7-33f787eadce1,35663efb-67dc-4870-b741-a9e5bf3eaca8,2019-11-20 04:19:10,0.200000
48,cf9e58e8-8df9-418e-972d-dff3efdd6ec1,502639d2-1605-4bf3-934a-f5b0dbde90fc,8b69e033-1c1d-4fdd-9adc-6d31cef94189,6671745d-87d6-472b-9b81-0a473a04e413,2019-11-20 04:20:13,1.000000
49,929a51e9-b1b7-420d-a685-cf425868b6dc,821f2e91-bccf-41f4-adf3-be62b4ef3846,759f831c-5081-4957-8834-00b65d5986a9,7f5eaabc-c283-4e8a-b69b-894541a5fd89,2019-11-20 04:21:15,0.200000
50,0cbccfef-2db9-4b8f-ab6c-d3663289a17c,fb893747-92d1-4e83-9c88-3531e278e1a1,07da2475-b49b-47f4-b79e-7fae456ce154,4f6b1063-6be3-47a2-8555-22a58b5a95d9,2019-11-20 04:22:18,1.000000
