node,ip,uuid
node-a8-199.grenoble.iot-lab.info,172.20.64.1,c1eb634b-c40e-4e82-8b2a-c401252fccdb
node-a8-200.grenoble.iot-lab.info,172.20.64.2,bd90f2da-d6c8-44d4-b3ff-1f5b72c90b0a
node-a8-201.grenoble.iot-lab.info,172.20.64.3,acfa60e3-24dc-43ac-a97c-2969faf6896b
node-a8-202.grenoble.iot-lab.info,172.20.64.4,2926247d-d137-4482-a8a0-3708484c81ea
node-a8-204.grenoble.iot-lab.info,172.20.64.5,0c95868d-e806-41fd-bb6f-4dd23318ac13
node-a8-205.grenoble.iot-lab.info,172.20.64.6,10261c53-57c7-49a8-b723-c8199f953387
node-a8-206.grenoble.iot-lab.info,172.20.64.7,b38ee0c2-6929-4b05-986c-ee65fde2cb6c
node-a8-207.grenoble.iot-lab.info,172.20.64.8,ac5f3d5d-fb45-407b-9c62-f1adc2f9aba7
node-a8-208.grenoble.iot-lab.info,172.20.64.9,277b7909-22b5-490f-9800-1b31863c900b
node-a8-209.grenoble.iot-lab.info,172.20.64.10,a5de98c9-01e0-44df-ab8e-bea39deaa5c6
node-a8-210.grenoble.iot-lab.info,172.20.64.11,4f7535ba-d9b5-4588-a92a-465a05412cdd
node-a8-211.grenoble.iot-lab.info,172.20.64.12,aaaa4ca7-8eb2-4895-92ff-4d89e5afef02
node-a8-212.grenoble.iot-lab.info,172.20.64.13,a986114b-c780-4acc-bbb2-b70cfe917aad
node-a8-214.grenoble.iot-lab.info,172.20.64.14,a3eef6f5-5bdd-400b-bf7c-9508e3ca296e
node-a8-216.grenoble.iot-lab.info,172.20.64.15,d8fe4fbe-a0f6-4a75-9b6a-7e45408c7191
node-a8-217.grenoble.iot-lab.info,172.20.64.16,24db030c-0483-4eb4-afcd-d262cbbf3917
node-a8-218.grenoble.iot-lab.info,172.20.64.17,bc4ed53c-5259-4257-85d6-33a59750042c
node-a8-219.grenoble.iot-lab.info,172.20.64.18,a08b9ed1-dab4-4227-8477-5fee3ef7bd43
node-a8-220.grenoble.iot-lab.info,172.20.64.19,3aa5a3a9-3e2f-4bef-8edd-8e09d0182858
node-a8-221.grenoble.iot-lab.info,172.20.64.20,e849e316-d612-4655-b45b-dacf9eb1de0a
node-a8-165.grenoble.iot-lab.info,172.20.64.21,bc999715-7e34-43f3-b33a-4dfda9597080
node-a8-166.grenoble.iot-lab.info,172.20.64.22,5dd18561-c2fc-48bd-a280-324a776e3fa1
node-a8-167.grenoble.iot-lab.info,172.20.64.23,c6b94743-c093-44d0-9241-24f62fb890ec
node-a8-168.grenoble.iot-lab.info,172.20.64.24,d692a8f9-1720-40ac-8421-76498744d9c6
node-a8-169.grenoble.iot-lab.info,172.20.64.25,190a1324-810a-4ccc-9191-1a7dc8445c74
node-a8-170.grenoble.iot-lab.info,172.20.64.26,5812975a-bc3e-4312-893c-f49282bd0d8e
node-a8-171.grenoble.iot-lab.info,172.20.64.27,37dfd1e6-9aae-447d-9452-90f7035f0af9
node-a8-173.grenoble.iot-lab.info,172.20.64.28,e63cc530-56ab-4014-a035-15ff9ae133e2
node-a8-174.grenoble.iot-lab.info,172.20.64.29,8872853b-cce8-45bb-ae4d-31115c7bcaee
node-a8-175.grenoble.iot-lab.info,172.20.64.30,a98b6b54-d249-4b2b-bb75-a1fd62e5bdd2
node-a8-176.grenoble.iot-lab.info,172.20.64.31,5bb3ceda-bf85-4661-99ed-7788f4a9b27c
node-a8-177.grenoble.iot-lab.info,172.20.64.32,3006c91d-03c3-49e9-a468-5edbb0cf0dff
node-a8-179.grenoble.iot-lab.info,172.20.64.33,7be9bbb7-ea0d-4d1c-879b-0a1efb6a5223
node-a8-180.grenoble.iot-lab.info,172.20.64.34,5dbc2f5d-2aea-4e18-b841-547268ad8b94
node-a8-181.grenoble.iot-lab.info,172.20.64.35,496da85a-cd9f-4497-9349-eb1cc1343674
node-a8-182.grenoble.iot-lab.info,172.20.64.36,2e3597e9-d2b6-4d29-b5f2-42dca2cc8d61
node-a8-183.grenoble.iot-lab.info,172.20.64.37,06a3a260-0a23-4dfc-aa30-3ba2adbbbffb
node-a8-184.grenoble.iot-lab.info,172.20.64.38,1038fc6b-f25c-4296-95ac-d6449e71d818
node-a8-185.grenoble.iot-lab.info,172.20.64.39,71d4c164-1501-4408-a008-0b2ae175b46f
node-a8-187.grenoble.iot-lab.info,172.20.64.40,1cffdca0-426f-4d53-8f45-95c3a105fe62
node-a8-188.grenoble.iot-lab.info,172.20.64.41,52983ca6-06bf-4d64-9145-8b0597c493cd
node-a8-189.grenoble.iot-lab.info,172.20.64.42,29886966-76c5-45df-a4a2-1e56099e6210
node-a8-190.grenoble.iot-lab.info,172.20.64.43,b6b12863-c55a-4623-8bd8-75209c811ec4
node-a8-191.grenoble.iot-lab.info,172.20.64.44,c0d98de4-924c-4a86-b531-ee34b72d2a61
node-a8-192.grenoble.iot-lab.info,172.20.64.45,4ca3c58e-2fbf-49d1-9099-253f0ac0d204
node-a8-193.grenoble.iot-lab.info,172.20.64.46,600651b9-1a71-40df-9f4e-3c83650853b6
node-a8-194.grenoble.iot-lab.info,172.20.64.47,70f9e44b-9898-406c-abde-1157d373bd1a
node-a8-195.grenoble.iot-lab.info,172.20.64.48,c58d6328-0598-481d-ae32-c4a291e690b4
node-a8-197.grenoble.iot-lab.info,172.20.64.49,a4b2cba9-dcea-4cbf-8f9a-dd097cb34109
node-a8-198.grenoble.iot-lab.info,172.20.64.50,3aa300c6-9fc7-479c-8d84-8a62868f02d5
uvb-26.sophia.grid5000.fr,172.16.132.26,695b8cdb-b13d-48c8-8961-df1eb537ae2a
uvb-31.sophia.grid5000.fr,172.16.132.31,5195380e-34a3-48d7-8bfc-1d122f0b322e
uvb-33.sophia.grid5000.fr,172.16.132.33,1119d373-4912-4a30-8ada-6ff42fd3a6b1
uvb-34.sophia.grid5000.fr,172.16.132.34,0b86feb1-f3ac-4f8f-932a-808a9961e8a9
uvb-35.sophia.grid5000.fr,172.16.132.35,975a6dc4-cdfe-4704-9f47-cf9a5b982982
uvb-36.sophia.grid5000.fr,172.16.132.36,e28794c9-868f-4332-a479-116cfd5f5d27
uvb-37.sophia.grid5000.fr,172.16.132.37,37f29d17-e267-4ec7-972e-0cd268e875d3
uvb-38.sophia.grid5000.fr,172.16.132.38,758e9cca-be32-480f-a962-4f61ebb7b3fc
uvb-4.sophia.grid5000.fr,172.16.132.4,df2bf7db-ac78-4572-867f-1e02458fb98e
uvb-41.sophia.grid5000.fr,172.16.132.41,de2df03e-bc82-4958-aaf5-d5c1a8a9d46b
uvb-42.sophia.grid5000.fr,172.16.132.42,532ddc09-7f5a-48e9-be81-fd67abb55d7c
uvb-43.sophia.grid5000.fr,172.16.132.43,a9cad92a-625e-4728-b785-e5ead52c4c36
uvb-44.sophia.grid5000.fr,172.16.132.44,0fa271dd-5e7d-4c1d-a3a2-ccd3ef8d44b2
uvb-5.sophia.grid5000.fr,172.16.132.5,1d08895d-3ca2-446f-9f16-8f70c01ca0d0
uvb-6.sophia.grid5000.fr,172.16.132.6,5ced0d72-447c-459b-922d-e0b03ff2b0bf
uvb-8.sophia.grid5000.fr,172.16.132.8,72580187-f241-4b7f-bc79-ecc0516718f5
