app_number,app_id,trigger,burn,sink,deploy_date,token_interval
1,3ae988b4-eabc-4fb6-833e-9daa5c19e19e,98197adb-e935-4842-9aba-cc002eb686c1,707dc5c7-a1db-404a-b079-e71fc6961be4,f5b91faf-1819-47fe-a334-7d9d5d3fba6b,2019-11-29 06:34:46,2.000000
2,eeca6aeb-d20e-4641-b6d7-74e6140d7c9c,b8d8d520-79c0-491a-8690-a90a9aecddca,2e43a17b-e15c-4afc-8869-a32e76db0641,44468f77-849b-49f0-bf56-515253a89db5,2019-11-29 06:35:49,2.000000
3,ad9b384f-deb0-4798-83d0-9d1ad9218068,206f8ebd-1e66-43b9-abda-170c7ab54310,028f82c8-eb69-4794-8d39-608fba69c585,e19f9942-2dba-4d29-b0bc-f351ffe3d8e0,2019-11-29 06:36:51,2.000000
4,3c2d1de8-ec01-44c3-ae1e-e9523d6da446,05eac9af-13b3-4dab-8875-93708698f53f,47f4ab03-c2af-4e6b-9f5f-082e0552c3ef,3943684a-527e-4586-aeb1-a864c33ea958,2019-11-29 06:37:54,1.000000
5,a4be0dc0-f5f8-4084-83aa-e1899dfe38db,76b24d9e-2ee9-445b-b1c0-9f6733af6a3e,55b03c3d-45eb-4498-b362-60296a1449e1,2ab79f02-13d2-42d4-92b1-18158bbd4990,2019-11-29 06:38:57,1.000000
6,3c446a55-8109-4278-9ba7-eb04c5ef5a85,4e27a133-0738-4e0e-9376-a52fe5fa979f,7c2de6d5-6c9a-414e-901f-854237a2f338,af2d8bc4-0674-4fa7-8506-ac77a2a952bf,2019-11-29 06:40:00,1.000000
7,7b2382bf-55c1-42bc-9253-a3af539004ec,ad555629-c2cc-47cb-a7d1-ab4e63a4e7c9,c46baba2-f9e6-4983-80d8-a13bd0174084,a6d319bc-a2c2-4e93-af22-e256c751874a,2019-11-29 06:41:03,1.000000
8,30b83cbe-bad0-4809-a25b-9e9a0495832d,c3ea5d55-6b62-40dc-9869-b8637f848b52,f87b3b20-f2bc-4319-81e8-6c28843542eb,cbfc6cef-d545-45a0-9336-8ca8ffecaaa8,2019-11-29 06:42:06,2.000000
9,0da12664-d877-4d85-a677-be50d3637d4c,e02fd9b4-b469-40ea-b90d-ea819c07f814,bfbe989b-69ce-4b7f-9fd8-a7886bfcaff1,ed4014a8-5a60-4032-bef9-7ccb5240050f,2019-11-29 06:43:08,1.000000
10,c638aa59-af63-4561-ac93-756e79127b59,b1769230-730c-4f15-8393-5eb9d3404157,6d6f1735-9bbe-4eae-9a9f-38c796b9c626,f0ccdac5-3e8a-403a-a168-35079b2fdaf2,2019-11-29 06:44:11,1.000000
11,96b90b57-6da7-4ebb-bbf8-7f1d3ed6bc27,76ddea5b-856d-4edb-a4f1-c8698af63f4f,76ade5c8-97d4-4576-9d7a-1cb82634103d,95c11f11-f99b-45a8-9162-98d39f86de04,2019-11-29 06:45:14,1.000000
12,6075581d-d30f-45e6-8060-21b83dcf2951,caef4f6e-9824-4606-87bb-17fcea7f5521,68c19530-8b7c-4bb6-b267-d9c68aae5473,90b7e9d1-5055-4c61-b1aa-26cb83d8c704,2019-11-29 06:46:17,2.000000
13,443d53a4-da7e-47ff-a8f4-1d42a067b951,60fd945b-0fd5-422d-b5b9-ab3e1f6cfe35,82902c55-8d4e-4278-aa6f-c3c05d218cc5,3130997d-f4c4-429c-9354-19d75586d11c,2019-11-29 06:47:20,1.000000
14,c5a57025-9a78-48b7-97e4-58e3cd82cb3a,9917bbd2-7551-4131-8e97-6e0d9883b814,db7be361-cce2-45eb-a9f3-961f6175d336,913666b8-e5ce-4de1-af6b-fad9ca53ac3a,2019-11-29 06:48:23,1.000000
15,9db5e416-158a-4013-b79c-b2fb39cf5de8,67a049ad-96da-413a-8e51-fa3b2ede321a,dff35122-09cc-43c8-8484-5544fd9321f3,7b5b02b7-d9ba-4a1b-8ee2-224cc58608fc,2019-11-29 06:49:26,2.000000
16,abad9850-db98-498d-a8ca-caa281695c05,f5c838cf-aa17-453f-a2dd-bf7074a3cc60,d2fd4504-e3a3-456d-8069-c1c3203d9e7d,06cabfdd-4366-4b9e-a892-adad6e70468a,2019-11-29 06:50:29,2.000000
17,bd24d9f3-5740-4832-b068-edc1a2bb95aa,880e217e-1d47-431a-9c5c-e314ee6c9730,41e3f830-227b-48de-9861-13cd9e2a84bc,79e86917-e838-421e-ab2e-c74709495d1f,2019-11-29 06:51:32,1.000000
18,0fc4fa77-e4d2-4e5f-8766-570f71b16b4a,7587b011-ae4b-492b-8e7c-88d09bf3c010,44820664-7e25-4bb3-96b5-9fa989433372,b893c0ab-0807-458e-8f2d-671fa316e3df,2019-11-29 06:52:34,2.000000
19,972ba426-79a3-47bf-ad09-f6a4b163ef21,4afb4fa6-d3b2-4b2d-8b75-bfe7001151ae,677b14c1-1742-4481-8aa7-f43cdcb308d2,5bf9b41b-fbd0-414e-b0ef-c6ad725de3a3,2019-11-29 06:53:37,1.000000
20,97074248-4d19-4f4e-9a6a-0f321f450017,2422d949-126d-4c40-98fa-bcdc364402ce,77868147-45fb-4c12-9eba-74fd4bb552be,043813ac-fe6d-48f2-bf7b-b1bd0ceb4c2e,2019-11-29 06:54:40,2.000000
21,d08fa10e-0147-44fe-a876-51cf972e570c,ba3c66cf-01d0-4e0d-b352-ada42595a401,bb2413a8-f68d-4dd1-858b-1577904b9068,af2350c2-9909-4d6d-8dd7-b5a57839c475,2019-11-29 06:55:42,1.000000
22,11b753af-0cc4-4595-9cce-d23759077d60,f69b615e-ba75-4602-9d7a-994196aa65fd,f37c5d5a-c57a-4b77-9a24-377299efbfc6,1e33a685-6d07-4426-86d5-716aaf99a173,2019-11-29 06:56:45,1.000000
23,ee183b04-bcc4-4823-a46f-3e9d335c5491,ad0d6c96-04c3-41df-8b1d-76e47d7c9cae,eb2406cc-35a7-40c8-aea6-bdb158b5ee81,20874705-b248-4cc5-bb05-cd8eb3f42585,2019-11-29 06:57:48,1.000000
24,b9d27744-81ff-412f-ab02-2004b5b459ee,83c25e33-e700-48e9-88a4-3577d5165b69,cc7f6944-d8f2-40f6-90de-0f81d0352165,a460330d-a11b-47be-be82-66d85f372cfc,2019-11-29 06:58:51,2.000000
25,91002fdd-4928-4efa-9c66-63db8fc72df9,56a6c200-5a56-47ae-81de-7ec98c5e4f7f,df562a22-da09-45b6-8ff1-d60ee5764f29,ab531261-4686-42b3-8818-9e0e6f816b1d,2019-11-29 06:59:54,2.000000
26,6278a2c7-5e24-4df2-9274-ec322d08c9e8,60a3d40b-91af-492f-9151-da03f12c46bb,31aa5b98-292e-42e1-b1d1-9720a694235f,48b59b91-d22a-4544-8f19-40cb953c0aaf,2019-11-29 07:00:57,2.000000
27,128e2ebe-4bd5-4e04-b621-02c96f4e4aab,f708928f-a157-4546-952d-6d9b7361efb2,3ad80763-97a9-44b2-87c8-34b1fcdd5e6e,59e9d6d0-af83-44c1-8559-fb7adef21df4,2019-11-29 07:01:59,1.000000
28,7e0c3974-4ab9-4941-a446-c6354660cd8b,88e87bc2-0c38-4d72-ad55-b036ada76ec7,77670b85-dac9-4f80-929a-3504ed13c704,e6c1daab-1487-41ba-93fc-bbd18eb0a4c7,2019-11-29 07:03:02,2.000000
29,8ca46c95-9374-486e-b876-7c2b15fc7e31,c084bd10-9164-4442-a040-70b5ee030531,82403dec-6550-4ec1-86ae-3e999c0c1e1e,ee27a966-5f3d-417e-af0e-aec875330c58,2019-11-29 07:04:05,2.000000
30,2f520d7f-4ee5-4cc8-81dc-b7cfbea69072,7fa5d505-7e18-4abc-82d1-a575a24252c0,39e5ac31-1c55-424b-bc21-87b6c2ead01a,f3bd28ca-664b-498d-aa1a-f4035c6614f3,2019-11-29 07:05:08,2.000000
31,038de5aa-1c84-4121-8b40-8d9e5fefc0f1,4d26770f-c049-4dc8-9f5c-ee5c299cea9c,6b3f8856-326f-43df-a278-6ea89446d233,2b141210-62e0-4ed2-9684-7d0a18ad801b,2019-11-29 07:06:11,2.000000
32,e1a8b016-9541-4da5-bb18-0f36a63dd381,0e952ae5-1180-44ef-ac72-26415a5f2546,1f3d8419-0df9-4623-9a2b-a9ac8ca7c8c1,5e504149-9775-4135-a9b3-15190c2b977e,2019-11-29 07:07:13,1.000000
33,d2641914-1ca3-4398-9423-58d2d54e6e07,9dd521cf-d09a-43d0-a56a-dda5ca9761fe,6915db7c-9bb8-4f0d-87d9-b6f96cf6caa5,7799a790-331f-469b-a725-67a4659f693d,2019-11-29 07:08:16,2.000000
34,b7a0a87e-3753-4746-82a3-05d698f12866,9af8b18e-97db-4852-af9d-04ecdce65e97,bb9afd53-ceec-415c-a806-a214bbc73af3,1b1bf256-a086-44a9-877f-db14cffc2e87,2019-11-29 07:09:19,1.000000
35,1af95b27-d532-4417-b617-d051ee95dd87,b78668ba-3508-46ef-aaad-8a790c75d13f,7ab6d4fb-3b02-450f-8bdf-3f2eca9d0947,65576c6d-b4e4-4f91-b1e7-7c2a0ea00c82,2019-11-29 07:10:22,2.000000
36,1c45b0e4-d910-48d3-9a48-6f94a0f6aad3,b1c73837-a36f-492d-abcc-80dc901ed236,bc98cca6-53cc-4693-8170-23743413b8a7,27e56e50-d84d-40b7-807e-e6fee4a3da22,2019-11-29 07:11:24,1.000000
37,6b14d10f-ed60-4c58-a7c3-f9b714f3fa1c,23ad29d0-df13-4566-b997-b6a58b6a61c1,7bc8c0a4-a523-41fb-a618-a7a97a7f20a6,ff4db614-210f-4f58-b7a8-6729347c8314,2019-11-29 07:12:27,2.000000
38,1e4a996a-3bb1-43e3-b071-57a67254a681,aabeb323-4058-45c6-9623-8fa3925e5560,2558b364-c2ee-49bf-b280-f45f834d021a,bf4b7f2e-519d-4c93-945e-8ed4ae01140b,2019-11-29 07:13:30,2.000000
39,1f40301b-b056-4200-9559-72e283a2fa4a,3d7a6267-9b6d-476d-b112-2effdf397d1d,56ed80bc-6746-4853-9e1c-6df83efff99d,eb4f1e70-6766-4f00-8df2-35ffea58b538,2019-11-29 07:14:33,1.000000
40,676368d0-8d90-455e-ad52-45f06e7f07a4,43732f3c-9074-4204-ab96-faecba0dd57b,4f87e0bb-d6ed-40de-9d84-6a3cbf4093c2,b83a2eb2-2789-4947-860b-779153e937a6,2019-11-29 07:15:36,1.000000
41,e4d190cd-1821-44c2-876e-82af081bbc3d,226ecd15-9b5f-4023-aeea-e18c06ed9318,ed42c700-09e2-48b9-823b-db8d219d45e6,b0486931-c551-4ab8-8155-413ac63e1420,2019-11-29 07:16:39,2.000000
42,c36b088b-fefb-42ee-95fa-29f00f20f6db,f96a1a20-6ec5-4288-b783-cbf24155928b,61ba8e3f-09fd-40d9-913c-4e1550bf1d53,7056ab41-c6ea-4455-8bd0-81f95516e127,2019-11-29 07:17:41,1.000000
43,c265bfd3-4094-4c39-9757-7e8e384512e6,af56cad4-1167-4c02-80ab-ddfd7a487476,d11f1ec3-b500-4bf7-a182-2fb274215beb,af2d381a-1e64-42fe-837c-d85de48cf2c7,2019-11-29 07:18:44,1.000000
44,46b39a15-5e4a-4b19-86b7-dd9078ed9a1a,bf14df5e-784f-4c3c-bc39-2e57f9d5208c,c2991a38-b659-4f55-8144-4ac91d81298b,e6b4d52d-8646-42ce-83c8-7bc3a4bfef80,2019-11-29 07:19:47,1.000000
45,0b003298-29eb-407f-ac97-757f83e0f496,535f0499-11b3-41aa-b273-75009e1c9f71,f4b869d7-4cac-4389-98d0-00a82fe4d9ff,9f836133-e1e9-4f48-a90c-49547323edb0,2019-11-29 07:20:50,2.000000
46,3181bc43-33a8-4970-b6f8-b0bba0f09cb0,d8eaab3a-d55e-4376-8482-b734a9ee9fae,14cc873a-4d55-481d-92de-b86027765efa,ad633cc3-bce2-40b8-8d2c-78786f23c6e8,2019-11-29 07:21:53,1.000000
47,6c8cbaa0-12a4-412e-96be-ce7a35571b95,2fa044a8-29fb-4c80-9f19-53b7715f413b,eebc7812-c3fd-4141-b90c-d18159497510,58ff64ac-d70a-483e-93ff-8a4fad903923,2019-11-29 07:22:55,1.000000
48,9033ae11-a09d-4016-ba74-a8fd5188889d,1957d4e5-98ed-48c5-b8da-bc541641dfe2,d20c141b-d518-418a-ab0b-c9cb010988bc,89e2dc89-fe07-4efa-b62c-2a02cb5689c7,2019-11-29 07:23:58,2.000000
49,9b8d82b6-2899-4fbd-bd4b-61b8388c2bae,2ee0d7af-a4c7-44fb-897d-ddf8015ce5c1,04f4ed64-c6b0-4d58-9e77-670ad9ebcd3c,b810116c-d7d2-42f5-a938-f14a22fd3ccc,2019-11-29 07:25:01,1.000000
50,f9d8c74b-eba1-45be-8374-695b6d9f0c6f,30607382-8d9c-4276-9ebb-1b3dd5cce846,ffd855a0-5fe5-4d55-96d3-feab38291938,e167f3cd-1339-4e96-a744-d7c71cd2add3,2019-11-29 07:26:04,2.000000
