actor,node
461db1b8-f96b-4d34-b7ba-fd251fda2fc3,0021fbd0-5e77-41d1-8808-a8d6de892a78
85757ea5-1092-4ab1-bbc4-19b50e86fd38,0021fbd0-5e77-41d1-8808-a8d6de892a78
23e5c168-9d3c-47f0-b91c-666217e6a5b8,45e099f9-23ae-4913-8fca-88fc0c93c275
f70468b2-78fd-4d6e-bcb6-1d3ac34eb827,0021fbd0-5e77-41d1-8808-a8d6de892a78
45604f64-31eb-4aed-a2ee-8a14694448b2,573bf814-872b-4da2-8691-cd410d7a3633
2df95703-5e9c-4c33-a3d7-e031eb8375b4,0021fbd0-5e77-41d1-8808-a8d6de892a78
18ed085c-c121-4bee-83c2-99ae6ef69eb2,048be17a-0698-4351-af29-b39e717b3b65
5c6c6894-ad68-435c-988f-a88760752957,0021fbd0-5e77-41d1-8808-a8d6de892a78
ab5e9f5b-3c5f-471e-8bdb-d8027983bfd5,0021fbd0-5e77-41d1-8808-a8d6de892a78
361637c4-cdd3-4aac-b55e-1373fcb772a7,0021fbd0-5e77-41d1-8808-a8d6de892a78
43413828-8dbc-4a91-98a0-0a81ba3cde35,28fee5d5-39c7-48ad-87fc-ad2e7e2374ad
5fe22645-fd26-44c6-875a-e076dffcb325,64413054-5c29-4eeb-9c32-8f990ffd4e1d
9fdde622-4613-450b-ac15-fd3a28a56e0f,cff42e09-3c5e-42f7-80e6-a30e3ef792e5
5b982799-769a-4851-b36d-fb99b72c11e7,0021fbd0-5e77-41d1-8808-a8d6de892a78
bc8e0085-aebf-4d9a-9fda-fc966f719dec,28fee5d5-39c7-48ad-87fc-ad2e7e2374ad
981f9ce0-dbe4-4b8c-b9ef-f083dd5584ea,a91a4464-839f-4c81-8bd3-ef46ecf4c776
d9ed1b82-2f02-4750-b19b-1537de014f01,28fee5d5-39c7-48ad-87fc-ad2e7e2374ad
328617bc-b9b0-4d30-9d91-2454db6ba7a9,0021fbd0-5e77-41d1-8808-a8d6de892a78
cfff28e7-cb36-4d0a-b828-ccabd2689c54,0021fbd0-5e77-41d1-8808-a8d6de892a78
98da2e40-84cf-4843-8923-982157e5d3b4,28fee5d5-39c7-48ad-87fc-ad2e7e2374ad
b24d26d2-cc9d-47a4-ad21-60cae10293de,ebeed398-70ed-47a4-ba4a-9e7ff58d77ac
4c90c57d-0f86-4869-95ad-7d7082dc927c,0021fbd0-5e77-41d1-8808-a8d6de892a78
2d9fc24f-909c-4d41-9bc4-df561ffe10dc,cb13eefc-a03b-4edc-b9b4-5ffe944f51bc
6df1fe51-01af-41fe-b2d8-14072d7cd326,0021fbd0-5e77-41d1-8808-a8d6de892a78
4216f17e-b7a4-4e87-ba41-aaf4df050602,28fee5d5-39c7-48ad-87fc-ad2e7e2374ad
74e79d72-0676-426d-abf2-0ee0e1cff438,edacd436-1f1e-45ff-be75-fd8573ab2a7c
c6a9eeaa-d2f9-4d9b-b55c-1e423cd9e375,0021fbd0-5e77-41d1-8808-a8d6de892a78
e7ccc8d2-36dd-4649-bafd-f7ca22025c58,b5080dec-07de-4811-af86-48aebf481f30
edaa1465-41c2-437d-b986-6121a5f33c86,28fee5d5-39c7-48ad-87fc-ad2e7e2374ad
6b93b0da-0dbb-4d41-8062-294d4b4869aa,0021fbd0-5e77-41d1-8808-a8d6de892a78
46da49e0-5015-487a-b2d7-7887269003a2,620b615a-8a54-4ded-824f-b83f7eb05332
2229c11a-29bf-4025-9a28-df2b5757b2b1,0021fbd0-5e77-41d1-8808-a8d6de892a78
4ade3c5f-8106-4395-8218-60d390bb5c44,28fee5d5-39c7-48ad-87fc-ad2e7e2374ad
a7896054-777d-482e-8f23-9bd6b3329527,0021fbd0-5e77-41d1-8808-a8d6de892a78
64b28fcf-6621-481f-85bb-d4af78d7ba3c,0021fbd0-5e77-41d1-8808-a8d6de892a78
651c7579-2857-44d3-b894-bc4db4525339,2cebeeb7-d3b5-4281-b4d4-fa5dc6d57ade
962ee246-8286-4233-b920-3b5ce17fdbf7,28fee5d5-39c7-48ad-87fc-ad2e7e2374ad
5668a1cc-e27e-4c51-b093-7ec9401d6621,d2ce7638-777c-46d6-ba93-e7f1344ffd6a
dc353d21-90f5-48d3-837d-4509d575f637,0021fbd0-5e77-41d1-8808-a8d6de892a78
8f251d03-57df-4659-8d53-47104876f4f5,839e3bde-80d5-49cd-9073-d4a7dbfd7b95
9db85e3f-d50e-48e6-bccd-5cadc89c974e,0021fbd0-5e77-41d1-8808-a8d6de892a78
0d440d23-cfb7-463a-9f67-3610ba00016d,28fee5d5-39c7-48ad-87fc-ad2e7e2374ad
7fecfa82-31a0-446e-8a64-5b5529398247,0021fbd0-5e77-41d1-8808-a8d6de892a78
7b49824c-7e7a-4deb-b60a-367acff68d18,0021fbd0-5e77-41d1-8808-a8d6de892a78
e3c68f1f-06f6-48fa-be7a-5ef509a36909,02ef4df3-496b-4279-ac9d-1e96793fbcac
7cf351c6-b2ea-48e7-8bce-1bc62cc0e72d,dadbeaae-a9c8-47a1-aacc-4f09e7723ad0
076e9c8f-a02a-4cd0-a6b7-2a7ed91bcb02,0021fbd0-5e77-41d1-8808-a8d6de892a78
6ebc6d25-f4a4-4ea5-ae2e-64e1aae64e62,0021fbd0-5e77-41d1-8808-a8d6de892a78
7f5b875f-617d-4728-85fc-fc5f6aa951a0,0021fbd0-5e77-41d1-8808-a8d6de892a78
ef43f771-f32a-4a04-bee8-92a7e6105846,28fee5d5-39c7-48ad-87fc-ad2e7e2374ad
b537e564-7e00-49c8-8730-04bbf6d71c15,87092856-e0c3-439f-b482-658f809062c9
dc9f8bfe-bda7-48c0-9b72-ed7497005be6,0021fbd0-5e77-41d1-8808-a8d6de892a78
2aeefe53-8dc1-4251-a7e8-690ed0923b05,017681ef-d2a7-4ebd-9612-02884d570f4c
53d89cd0-90c9-429f-843d-89ec2d020fef,0021fbd0-5e77-41d1-8808-a8d6de892a78
7f6db0a1-0c67-40a8-a539-d2d0714fc3f2,28fee5d5-39c7-48ad-87fc-ad2e7e2374ad
06bf2625-9538-4198-8b78-eee28c339b5c,0021fbd0-5e77-41d1-8808-a8d6de892a78
cc84f57a-e08a-492a-8064-09dcc4e5c13f,37f05d66-55a1-47e6-b032-c366fed497eb
2c442940-2df9-4952-943f-df3f25933024,0021fbd0-5e77-41d1-8808-a8d6de892a78
c1374902-00b1-4357-a171-49a4e06654e8,0021fbd0-5e77-41d1-8808-a8d6de892a78
7dd08447-6bf1-433c-8ea2-6f69ab3f9b22,a78a8170-5987-454c-8ad9-985a244cf679
42ef6c44-6286-492a-be5e-a0c70a8e7d7d,28fee5d5-39c7-48ad-87fc-ad2e7e2374ad
0174cca0-37b6-4a3e-903b-cae3752ea0d2,0021fbd0-5e77-41d1-8808-a8d6de892a78
b6c75f8d-d3ad-473c-863d-3437cdcc15e1,71bb27ee-0975-4099-92a9-c4bcc592e921
1b7b0452-47e7-4dc6-ac43-ac824c2adb59,6419075b-0280-4a07-8ee8-2072ce5e160a
d0d61d22-2ebf-406b-808d-9de5ad8a58a7,0021fbd0-5e77-41d1-8808-a8d6de892a78
f29b4910-d6b3-41d6-8682-83d4414f0a1a,28fee5d5-39c7-48ad-87fc-ad2e7e2374ad
3e028323-b657-405f-b7ad-65d1362374f0,28fee5d5-39c7-48ad-87fc-ad2e7e2374ad
33da5065-d0f6-4964-bf59-766255abf263,0021fbd0-5e77-41d1-8808-a8d6de892a78
a06f02a8-10c9-43c7-b158-435f5cc4a39f,55ff0f0f-137e-4380-ae4a-f2b5f539347b
4e684186-7049-4d61-86db-9a6ede481982,6a0cdb2c-7fe9-4479-a230-5456851ab7df
b7d5cdb4-c9e4-4859-929b-d7736130d154,0021fbd0-5e77-41d1-8808-a8d6de892a78
a490d9e3-d6dd-4fed-9953-2a4d2c672d71,0021fbd0-5e77-41d1-8808-a8d6de892a78
ccbce3ef-2448-411b-8283-4ae5951afa32,0021fbd0-5e77-41d1-8808-a8d6de892a78
a25b1221-a809-415b-8abd-76d5fc33b13e,0021fbd0-5e77-41d1-8808-a8d6de892a78
b4616057-6d64-4cd3-994f-8a40372aef90,1e73df5a-b837-42a1-ab3d-28621f1a61ee
263ff0fd-681f-4f83-b86e-0d2a98d15fcb,0021fbd0-5e77-41d1-8808-a8d6de892a78
6c047bf2-da61-48ab-9580-1485ffc6b620,99f6c281-322c-4050-af20-ebebbcddef02
85b9d894-3b7c-4e09-b544-c74032add3d5,0021fbd0-5e77-41d1-8808-a8d6de892a78
46ec2298-b9a3-4ae2-87a8-78786a58a867,28fee5d5-39c7-48ad-87fc-ad2e7e2374ad
f3957efc-dabd-462b-8486-8557826d0d33,0021fbd0-5e77-41d1-8808-a8d6de892a78
98983009-6a49-405d-89b2-c37eddcd91ee,8978c287-0acb-4130-bbbf-11738948f053
8e786b9d-3c71-43e5-9c22-6396950e9dd8,b929c8ac-2dd1-4dfa-af1a-89f2d387bee5
7a4de93c-153c-4f04-b00b-ee84dc222f38,0021fbd0-5e77-41d1-8808-a8d6de892a78
8f27be07-a469-4f07-aff2-47c1e830b485,0021fbd0-5e77-41d1-8808-a8d6de892a78
a365fb1e-2d8e-4653-a211-660798f73bda,0021fbd0-5e77-41d1-8808-a8d6de892a78
55d06208-30d2-4301-acbe-5e540af88eb4,5f633fcd-a915-4811-adc1-3536be8a276f
37118450-4dc1-4a93-b803-223e35ee0aec,0021fbd0-5e77-41d1-8808-a8d6de892a78
a3c1d4a9-a342-4a4e-9749-a23420e3ebf0,44a0dc61-afc6-46c9-8a84-ba8dc7a08400
1c3ce13d-55b5-4456-8c5b-37d7d451d423,0021fbd0-5e77-41d1-8808-a8d6de892a78
066b98f0-1710-4697-bc78-a424fdfd9734,0021fbd0-5e77-41d1-8808-a8d6de892a78
14e4087c-cb19-4a0f-b91a-fa9945a5b299,4acf8c4c-4eb0-4ded-891b-62ecc8a73465
53ec2f54-5e87-4fd8-b654-b21181c72895,0021fbd0-5e77-41d1-8808-a8d6de892a78
a740ea9a-f365-474e-b5d7-f855ac4fc74a,0021fbd0-5e77-41d1-8808-a8d6de892a78
579cbf50-a8cf-4d3b-bbe0-c8211adcce83,084eaabf-ced3-40b1-bad9-7ca5dd06d755
abf45859-ce79-4ad7-acc9-3284bf993231,28fee5d5-39c7-48ad-87fc-ad2e7e2374ad
7588cf31-fe3d-4a34-ab55-0f9aa259b5d2,0021fbd0-5e77-41d1-8808-a8d6de892a78
f9dc2d3e-96b7-4b20-90b1-b4a4714f8bf8,1de7aada-2ab3-43b0-a258-8b62e0f1a98e
65d66c44-a1f5-4c92-8a9c-f7255cba6ee0,0021fbd0-5e77-41d1-8808-a8d6de892a78
6e52c85b-06d8-4c98-b6dc-5b31bd538098,0021fbd0-5e77-41d1-8808-a8d6de892a78
45acc53f-c825-47b6-b764-9499e97d8cfc,28fee5d5-39c7-48ad-87fc-ad2e7e2374ad
924c3c45-ed15-4e2c-828e-c3ac8b5c7648,d1e79533-c230-43c1-9111-d9c4e1cc69d4
343f9c92-bc5b-4fee-a4bc-c533129237cf,0021fbd0-5e77-41d1-8808-a8d6de892a78
ddf68fbf-7be2-4b51-8aa7-de1792a858b5,17736907-a9c1-461b-b230-532f61323c95
bc2471c1-5c98-4a41-ba1f-7ff3e172f0d4,0021fbd0-5e77-41d1-8808-a8d6de892a78
0c3323d4-0a3d-4cf5-a548-9d0d665ee43e,0021fbd0-5e77-41d1-8808-a8d6de892a78
6b970d99-d2b5-4be2-b337-5dac08900b55,28fee5d5-39c7-48ad-87fc-ad2e7e2374ad
5316ebdd-dbaa-422c-83bf-c04fdbd87a7f,5179d348-7e47-4499-a385-1a28c4889378
1f54dcf9-1c11-4e36-908d-7e1ddff59575,0021fbd0-5e77-41d1-8808-a8d6de892a78
ea7c826f-6f74-4cfa-a5ce-f4b2d20f1cec,0021fbd0-5e77-41d1-8808-a8d6de892a78
8b3acaa4-059f-477e-a27a-5c2711caa187,0021fbd0-5e77-41d1-8808-a8d6de892a78
934f384e-2447-4b7c-b14f-61ec25d3532d,71ff85b4-cd67-4c66-9b7c-edf4b3f6d2fb
17582b67-f577-4e9d-8274-dbb11075cd05,0021fbd0-5e77-41d1-8808-a8d6de892a78
fe4d8eb4-dd47-4123-bd26-f4f887c61f8d,b65d8bdf-fbef-4851-8b94-646ebab47146
d10f1b85-cff9-4849-904a-250e0500a64f,0021fbd0-5e77-41d1-8808-a8d6de892a78
20526088-1189-4012-8d58-5e3edc954eb4,0021fbd0-5e77-41d1-8808-a8d6de892a78
e16ede93-8641-49f0-855b-8a755fcd65ae,28fee5d5-39c7-48ad-87fc-ad2e7e2374ad
2e857fce-41ff-4804-9041-5193d2944694,d204e3e0-6945-481b-8107-835f2b0a025a
7b8296ca-6d3f-4f2a-b932-441c77b4572d,0021fbd0-5e77-41d1-8808-a8d6de892a78
98f8cd72-f6d9-4dab-84c0-f39740837375,28fee5d5-39c7-48ad-87fc-ad2e7e2374ad
698861a2-44eb-489a-a239-fd9d5cbabae9,252dda6e-e6fb-463d-b6f2-1f52d4b5117c
8340453a-6f6f-4d75-aab8-3d28f1a5ed90,0021fbd0-5e77-41d1-8808-a8d6de892a78
97361d57-eebf-4bf5-834e-fb42b896a981,572bb041-c730-48ec-a17a-aff7706873cc
5750a8d2-8e56-4cc4-bd49-ae4bde76b052,0021fbd0-5e77-41d1-8808-a8d6de892a78
ea95d13e-b874-416e-bdef-d48a7566940a,585dfafd-e0f1-4a04-a744-1654b4341ff2
915db45b-5fe8-45ca-9e62-eb3740ffb779,28fee5d5-39c7-48ad-87fc-ad2e7e2374ad
7216719d-9093-48a9-9e27-b374bfb30a47,0021fbd0-5e77-41d1-8808-a8d6de892a78
a323688e-2e45-4f0d-88f8-7c2be89bad9c,0021fbd0-5e77-41d1-8808-a8d6de892a78
06d58f72-422e-4fb1-ab71-fc9ab5d89856,28fee5d5-39c7-48ad-87fc-ad2e7e2374ad
66e48cf3-951d-4dca-895e-e0cf2b105ec9,61b40d92-6266-45ff-bda8-a7383356f7e0
8afcb566-31d0-4136-8fb9-a002351a584e,45b8afe7-5d6b-43c5-8fa4-1a680e702387
673a4bd5-e5d3-48a6-8ff6-5349fe7a5aa4,0021fbd0-5e77-41d1-8808-a8d6de892a78
c32600bb-420b-46bc-98c6-e19d2fcf1c45,28fee5d5-39c7-48ad-87fc-ad2e7e2374ad
48a3b55f-0276-4d7f-a76a-cf5f23554c1d,0021fbd0-5e77-41d1-8808-a8d6de892a78
5ebb47d7-6c52-404b-8949-c009986dc05a,6aa20ec2-48f1-45b1-aae6-f758aa515612
3b83d897-2785-4140-b454-e3da7e03455d,0021fbd0-5e77-41d1-8808-a8d6de892a78
69d0f609-843c-44a0-9cac-778f4f99add3,28fee5d5-39c7-48ad-87fc-ad2e7e2374ad
e1d4e9c6-3177-4123-a4c9-da198ca3efc4,0021fbd0-5e77-41d1-8808-a8d6de892a78
09c1521c-52b9-4c36-bc32-f8d55a79c995,26275782-005b-42af-bf81-2690e1e72a88
8aba45b8-a9e1-4be0-a8ad-072be7b1d719,28fee5d5-39c7-48ad-87fc-ad2e7e2374ad
15edc276-a45d-4690-8dfa-300128a264a3,2afde734-b5de-4593-98f6-5f2c12a2040e
d89a40fb-9f98-4acb-9f37-6c75515321d1,0021fbd0-5e77-41d1-8808-a8d6de892a78
2d73b976-3215-41a1-b8aa-e3d4293c73b0,bd93e5b2-f6fc-4cb0-8ad2-2904ec8152bd
3ff50858-6cfe-4d63-9ba0-7dcca7c583cd,0021fbd0-5e77-41d1-8808-a8d6de892a78
c46fbb0d-5415-461f-b069-be2e2ef9ed41,0021fbd0-5e77-41d1-8808-a8d6de892a78
fdaa7603-bed8-4bea-80f8-8b9d75868b47,0021fbd0-5e77-41d1-8808-a8d6de892a78
456505dd-6313-427b-a42e-5f4472b37e76,1fe068c7-07f6-4676-9124-7f3814cf4d1e
a7cdf720-50c7-4c43-8dc1-916ad70415cb,28fee5d5-39c7-48ad-87fc-ad2e7e2374ad
48684878-6f8e-4ce9-845b-50dc8abc06c3,0021fbd0-5e77-41d1-8808-a8d6de892a78
f6c09a89-d2a7-41d1-a806-314a07ad6cdf,0021fbd0-5e77-41d1-8808-a8d6de892a78
093ef930-54c0-4ff3-a8cb-f78c42dbcbd9,be634ab1-efd5-4908-ae98-611365d96820
