app_number,app_id,trigger,burn,sink,deploy_date,token_interval
1,00d1328f-5f93-4218-b386-0c92dfebc320,adb29803-21d3-470d-9636-590c1321957b,cf863b54-3869-498f-8e7a-19253f50f3b7,cf1c295c-8db8-4088-acf6-b17c95942bc9,2019-07-21 15:44:07,1.000000
2,c4fdbd6a-8d1f-409a-bf6c-1893d58a5ef7,3b3b6f7d-59f5-4d57-883a-bff87246e6e7,5ed08b29-7d44-469a-aebf-2847649d75ab,d8463292-2552-4d11-b6b4-173e34a1bed8,2019-07-21 15:45:11,1.000000
3,9664a513-495b-43af-ac7b-d0698be7b7b2,0f5e97ed-d351-4866-9992-b4eeff38fd31,2b5f6ed5-b2b3-492e-921a-2c2b51c625c6,61165ae7-c511-4d8c-ba0b-3c5647048ae8,2019-07-21 15:46:14,1.000000
4,496c2ea6-b120-4dfe-ac31-471ca8543f9f,e48a93b1-94d1-4269-8212-ede38e765330,b1e7a953-f403-4536-9229-761223dfcc34,ebb87fc4-d22e-4a3b-9960-4b4344990ee9,2019-07-21 15:47:18,0.200000
5,5498499f-1308-4139-b103-7c00c6709159,801ebb0f-0ef7-4bcd-be96-7daada21240a,a82d23ae-8d82-47d2-86bd-89349c9d2a7d,abfce385-2128-4918-a1da-773d84f51f7c,2019-07-21 15:48:21,0.200000
6,c0ff3340-8411-4549-9ffb-739f236d19af,e1464ee8-ea82-4240-80e8-a6766bdd19de,86aa54ac-585d-4427-aaf5-151c9402a291,8da0fcb0-3f1d-493b-ac2f-96e78a757ddc,2019-07-21 15:49:25,0.200000
7,fee78920-71ba-415c-a2ee-e6c2f0837ace,c6ede8b3-56d2-4aa1-84c2-67d04114e809,6289655c-8671-428f-9395-74c72623ae65,ec0ba475-6274-4456-8d4d-d9f252622e2a,2019-07-21 15:50:29,0.200000
8,cabf6ce1-e160-49fd-99bf-3779703565d0,b4f890dd-7057-4395-a80a-8be758ca0e17,7df5bcac-d991-4e6d-b058-2b0f4f12e515,4863b0c0-7c62-4dd4-8997-e4b67d4291e0,2019-07-21 15:51:33,1.000000
9,4882d9ac-1e27-40e9-927a-49b5848c01b4,065da585-85dd-4a0b-b7b8-6ac3cb016ddd,670ff4fc-bf6f-4781-bddb-b817d33611f5,865bae97-6ddd-4c85-a48f-aa136727f52a,2019-07-21 15:52:37,0.200000
10,67e35cb6-bae5-4ebf-9a61-e7f7a0afa0c7,22be6e97-dcf2-4aad-a633-fed13c3af601,787a8db5-945f-48d5-b77a-cd155b6ceeba,176a9767-c352-4345-b894-a132fe286a7b,2019-07-21 15:53:41,0.200000
11,0c6956f9-3f01-4326-8152-9a5d88a0f322,c12a5655-43c1-4737-989b-999faad43b33,88223d01-3086-436d-8a93-016e5576f04c,18f2311e-4bcc-4a7f-a2ee-7d46f2030e80,2019-07-21 15:54:44,0.200000
12,6a412e34-24ee-482d-958c-dee8aaae1b6a,5e880ef9-e4d0-4542-a2be-3f60e0471938,d7d86e76-2ca1-4ce9-9bb2-cf25a3383ce5,b2d9be30-f15b-48b0-a16c-261486c9f433,2019-07-21 15:55:48,1.000000
13,7d50a94d-f2e7-4ac7-a2ea-650552aa9fcf,8cf4a514-fbfe-483b-b94a-49bd8280771b,433e6892-6b6a-4ff3-b3be-5a942d82537e,3d9b7ec0-9901-497e-87c3-cd5594c0616a,2019-07-21 15:56:52,0.200000
14,ccac2a42-89fc-434d-9153-31af9d32947f,68507ba2-bda0-47c5-84fd-3c6d7a7f546f,6bd16658-e181-46ce-959b-9c93201f3f9e,5b5464a7-b357-47d8-a892-fb943323ba4f,2019-07-21 15:57:56,0.200000
15,8bd255ec-1105-40ee-aa31-05b263f07e3e,fe5fd1bf-ec5a-4ad1-a1c2-deebcb0bddc4,d030e8c9-7f43-4fbc-af87-8484c6c075f3,4c13964c-e2cd-40cc-a32f-2910924291d6,2019-07-21 15:59:00,1.000000
16,5450296b-b34c-4d8a-a8b9-639cc924d954,e3105912-062a-45cf-99bf-664ec514d102,424ee77b-26b1-4988-80af-a73f93a1eacf,da487ca9-125c-4222-bb89-170ad34a509d,2019-07-21 16:00:04,1.000000
17,55c11965-e7b8-456c-9c72-f501c261215b,00431596-0743-4051-a528-600b0204591f,81d86e5d-d443-40db-9249-2815378c0161,be89e2f3-21b6-48d6-b6f9-841872cba5cc,2019-07-21 16:01:08,0.200000
18,06a3f219-3d9a-4eae-932b-02ca935351e4,f182cdd6-fe65-48e2-af9e-1849c17a8c3e,a8378c26-4393-46cb-82ce-ef0bc958a9e3,eb31537b-3ac6-456e-8386-d8552432935f,2019-07-21 16:02:11,1.000000
19,77b64909-97b1-4f66-bc3a-aaa2c262c126,e8c9b084-35ff-4502-912d-0b3e29b4af72,b6a0bfd5-6191-48dd-ba4e-751ba9ebc52c,dc48d2f5-a5fc-4ad2-aa2d-6fa4e682822a,2019-07-21 16:03:15,0.200000
20,d9c3c9f9-c59b-4714-939f-d8d058f55703,1202905b-4016-43d9-b03c-177b91bec91e,59b88925-1c64-4e22-b28a-1ef6464c0cf2,76729dee-cff2-4c16-ac46-0831affea161,2019-07-21 16:04:19,1.000000
21,a743c3b9-884b-4410-a5c8-1b60cd145ed1,74e8d05b-e654-4489-8b61-1b81b87e4a75,541f60be-a2da-464e-91b5-75e449da7b3b,d2206da8-d074-4591-bb11-76a7febbbb40,2019-07-21 16:05:23,0.200000
22,543fb891-139a-43b5-a548-873717999379,e926bd20-3d49-497c-8441-99be0017e59f,214766b2-2432-4183-804d-7ac6c2ec8f9f,c2430aab-1ebb-4cdd-98ff-36838d931de2,2019-07-21 16:06:26,0.200000
23,c53a10c3-aff1-49a9-a59c-bb833750baee,02dc12f9-fb01-45be-b49b-28f1748452ca,a49b789b-59eb-4c91-b732-26e0aee1f428,0d1a7ab8-f426-4067-966f-173c8e771ce3,2019-07-21 16:07:29,0.200000
24,74c72647-ad46-4ce5-b919-797d195cd3b4,fcf727e8-959d-437d-86a3-4257ab7ce565,91379f3f-c40d-4692-bf46-814895bb2494,cb5c8071-05b2-4927-9cc2-7e35dd7df834,2019-07-21 16:08:33,1.000000
25,9c1d5b44-42c9-4e2b-ad76-01f3de549a04,676f4d37-34e3-4d81-ac41-72d1ccb96a7c,fe9306a0-f12a-4d04-a593-ed4854c6760a,eaa298b3-b9c0-498c-a496-3d2b2d90c0bb,2019-07-21 16:09:37,1.000000
26,1b3b2d8a-e859-4e78-837c-ef8d18b47803,a8a5ec7e-c062-403a-9ae8-ebc77988dc08,eae4311a-9e6f-4891-8e64-718301974b76,239b2c72-0b2f-4253-afa3-19bd98bb78cf,2019-07-21 16:10:41,1.000000
27,f5cebd82-4094-4982-832a-967039b2e8cf,5adb7583-679f-496e-ac42-8995113efacc,5c3a54d1-8e43-48ce-a2a8-7232b4422c56,07e59e5d-7e83-4c45-9b94-5a8bb8bd59b8,2019-07-21 16:11:44,0.200000
28,2fd078a1-58af-49e2-a21c-ec9ca2619d71,0fd7a812-6712-41ec-a693-acd61b796156,6d14b4ce-0b02-4ee1-9874-9d33345f141c,5af77910-e12f-42c6-8b4d-efa176afe192,2019-07-21 16:12:48,1.000000
29,3593e211-0e05-48a6-b0c3-bfc12c67f951,18866844-3bfa-4507-a610-784ba8cb4194,e47daeee-9f8e-47b8-a395-1e335eb69efe,de5b4bf4-c40b-4317-a1b5-140bf1482f06,2019-07-21 16:13:52,1.000000
30,13224fa7-61e3-4c62-8846-930ea2075420,9cc6fa28-5f4b-4097-9fa7-cfe7f317de4c,83d7be3a-cd4f-4f32-9f42-62659ea70cb0,51c19037-54c8-4cd2-b2c9-19e630ba710e,2019-07-21 16:14:56,1.000000
31,bccb8a9a-f426-4ece-9ece-60db38f58ad5,f8eee900-8db9-4bd9-9275-0345a249ffcf,0e25da46-8bb4-4fda-bed3-b57906d170df,cb22a43e-5bb6-4d1f-8fca-6cfdf26a4923,2019-07-21 16:16:00,1.000000
32,6b200905-0729-4230-9cec-ebd9648f6bfe,42701ce5-8f45-48e4-aa14-f9bbc74ae636,a6641d63-d443-4e92-a60d-b5675a8f9cd6,ee6ec4c0-5664-48d8-a264-088d12a036be,2019-07-21 16:17:04,0.200000
33,e603f283-469b-4757-bc5a-5db1dcac3d68,06a9f1fe-7c4d-4429-b340-cdf6cf20452c,4de8c585-4f11-40d4-b095-017b09a40b5e,fcd30105-1387-4546-b649-f48712b6c4a9,2019-07-21 16:18:08,1.000000
34,b1768b48-ef19-47d4-b46b-31f262c32f77,7e722ac0-68ba-481d-a96b-f1e6ba3088fa,c23e0315-cdc5-489e-835b-95954d181d9a,96c2c3c8-ef9b-4bd9-b818-953483930801,2019-07-21 16:19:11,0.200000
35,88c8ba41-bb76-4edf-ba7b-1edd8b4d01a9,cfa8e651-a1e9-4f7f-8f81-bd9300c5dbec,a8f482bc-d6de-4f26-8984-1c1d54ce6b6c,aa0a9cbe-1c17-4cea-9b1a-36c36f759383,2019-07-21 16:20:15,1.000000
36,7bc79004-a296-45fa-9e44-4259e933a77c,a4a2ca2b-57bb-4318-abf6-13f5eecf0573,4315e03c-94a4-4497-86de-75b5ca05abd4,609459f5-2fda-494d-b375-44cab3ebd1bb,2019-07-21 16:21:20,0.200000
37,9f022fc6-44f8-48ed-a442-5a5c2e4713a8,46ca0b5a-ae13-45bd-9579-4f9a52ad72fd,1c060937-8dab-4c14-b52a-5a24021809a2,359dfd20-c2a7-4ecd-b48b-c8db1888608d,2019-07-21 16:22:24,1.000000
38,b9427186-0cb5-4311-ae0d-00f1e3df5011,5a4b724d-2e70-491b-8ff1-9fff0d64bd55,49c53c88-2f5e-4800-97b0-ad84e1bfa2f5,6d0c5881-7ddf-475e-aed6-18974e364fff,2019-07-21 16:23:28,1.000000
39,a2021ddd-ea14-4cb1-a0dd-2a3e21ae855c,25a410ec-4273-4c00-96e1-64df3a62311d,b2887b14-7422-4dba-937c-30f648786174,23d60abc-ac75-42c2-a106-cc1eb99789e3,2019-07-21 16:24:32,0.200000
40,651ffa0a-e8c7-48c9-b1ea-72c14d291106,ec8cbe77-427f-457a-9ddd-56d7a9aa765e,3de9ec85-112f-453e-8683-c3bbb75790d8,c94c4a4c-cf2f-4cb7-86a5-a547f07e6e96,2019-07-21 16:25:36,0.200000
41,c94c8ad7-282f-4334-adb6-82f41416bd74,7032eda9-5a56-4421-94c6-d2804caf310c,5fb4d420-f876-40af-b532-2f21cd2ffbe4,3fed4f3c-fc97-492d-8af4-939fa7e6f1ac,2019-07-21 16:26:39,1.000000
42,14495513-b541-4832-a5d9-b1efec750e11,a3cf5c15-d5cc-4a6f-93d8-266702fe0bfc,7572f317-30ed-447a-b7af-16d32c53d351,0dff2388-b901-476d-8601-f9eed4b4455a,2019-07-21 16:27:43,0.200000
43,8950cdc6-8205-4ad6-9815-6a8f7a625ddd,97aca3f8-82b1-4c78-8f0a-d4d7001acedf,38d2cf76-b767-48e0-aacb-1bc7664c71fc,e22e3ea1-0ca5-4ce4-95af-c8fed517e8f0,2019-07-21 16:28:47,0.200000
44,693405e3-30bd-483f-a61b-2189346db1a6,73c95801-95e2-4f57-a883-dcc66636dc0d,d1760271-706b-4c42-aab4-a6458dfea4a6,3945fd30-fc35-4998-98dd-3702eabb1116,2019-07-21 16:29:51,0.200000
45,d2449f4c-12ba-42b7-9185-45fb30d7842a,61a4d45c-d485-4028-a599-78413f6d13c8,3ed6850b-e3da-4913-b77d-147906cf6b66,d3bf609b-1e05-4c1e-acb9-4c5196eece1e,2019-07-21 16:30:55,1.000000
46,146be64b-9d9e-4fbf-a6cb-8605e43d5c3c,60761f2b-8b5f-4d77-8845-139211591647,b8a8562f-379c-4222-bce5-34e13277ff4a,81197e60-620c-4629-8e28-984166e94ec2,2019-07-21 16:31:58,0.200000
47,95da7676-34d1-41a8-aa30-9285c12bdf5e,9e594c7e-0621-4d83-b572-afb8d4fd7179,5579fb32-c031-43ae-b26f-67b27f527d10,afcc5ddc-bf6a-439a-bc58-2c7828f584c9,2019-07-21 16:33:01,0.200000
48,4f4aadf1-c596-493a-af39-aba70c8ee94d,d2e5125a-ed82-49c6-9146-cdca7488d90e,c7396227-5cbf-4e26-96ef-8e3fda31f10e,1224cd95-ab63-4337-9da2-bfa08d814f67,2019-07-21 16:34:05,1.000000
49,653af1a3-bfed-46ad-960c-71239923dd50,5ae55458-adba-4764-ac49-6cd05bc2d553,711bb181-80b9-4d89-823b-02e8a3cb8422,1f9c1142-f13a-4278-8df9-ba7949996481,2019-07-21 16:35:09,0.200000
50,a88a1e04-1bf2-4ba5-88cc-3ca4c98b3434,4448a483-6d75-4049-b208-ad09e79c1c6b,288545dc-65c9-4307-82df-833d6064ac31,3d06cf25-a826-4137-b1d1-0bc362dc0b38,2019-07-21 16:36:13,1.000000
