date,actor,success,from,to
2019-09-13 04:30:37,a0354447-299a-4947-acee-aae9d4ba3464,1,0c5180c4-2745-4cf5-a3df-a489d8ddfba6,821112f3-db66-49b2-9e5d-d7ca9ec96f47
2019-09-13 04:30:37,623f0246-6cc6-4307-99b8-b4307db1e155,1,5fd66512-beeb-4350-90e7-c4f695c2f01d,821112f3-db66-49b2-9e5d-d7ca9ec96f47
2019-09-13 04:22:38,84f8690f-dfe3-469f-8d5e-1a793dc1a75d,1,7919ef5c-f5ab-4d91-9d18-e5ff274ab0b7,5fd66512-beeb-4350-90e7-c4f695c2f01d
2019-09-13 04:22:38,9dc7d788-c560-405a-91af-b842ebc1db60,1,7919ef5c-f5ab-4d91-9d18-e5ff274ab0b7,5fd66512-beeb-4350-90e7-c4f695c2f01d
2019-09-13 04:22:38,4eafb240-32fc-41b3-9d30-dfd3df6cf56c,1,7919ef5c-f5ab-4d91-9d18-e5ff274ab0b7,64ef1c5e-909d-4c05-9e35-d2f959d703f1
2019-09-13 04:23:42,dba0c02a-13f3-4519-894b-95882bb8a1be,1,7919ef5c-f5ab-4d91-9d18-e5ff274ab0b7,85772858-9dbb-43d7-9159-48f85306fc8b
2019-09-13 04:23:42,1c83387b-a799-4424-955d-99ddea410b88,1,7919ef5c-f5ab-4d91-9d18-e5ff274ab0b7,93393921-1b6d-4684-80d3-bb937a8373df
2019-09-13 04:23:42,220d9509-15fc-4763-9d5e-1263ee3531a3,1,7919ef5c-f5ab-4d91-9d18-e5ff274ab0b7,85772858-9dbb-43d7-9159-48f85306fc8b
2019-09-13 04:24:46,fc0f8f0d-c0fe-4add-9a33-0812bced4342,1,7919ef5c-f5ab-4d91-9d18-e5ff274ab0b7,31b62932-235e-40e4-86ab-42f6db3270ab
2019-09-13 04:24:46,93e163c6-d4ac-4842-a2dc-325a35274880,1,7919ef5c-f5ab-4d91-9d18-e5ff274ab0b7,044a63b1-a40c-4e05-a5b7-085dd38484ef
2019-09-13 04:24:46,dff05d44-4819-4051-8be3-3f860dcadec3,1,7919ef5c-f5ab-4d91-9d18-e5ff274ab0b7,31b62932-235e-40e4-86ab-42f6db3270ab
2019-09-13 04:25:49,a2d17d0a-96fe-47e3-95f2-544a7140646f,1,7919ef5c-f5ab-4d91-9d18-e5ff274ab0b7,247f19e2-95dd-4d89-be04-0dfb38459923
2019-09-13 04:25:49,ab90dfc4-a20c-4ad2-84a5-bfca0b58546c,1,7919ef5c-f5ab-4d91-9d18-e5ff274ab0b7,247f19e2-95dd-4d89-be04-0dfb38459923
2019-09-13 04:25:49,fb7e361f-d7dc-49c8-b15d-692768698ee4,1,7919ef5c-f5ab-4d91-9d18-e5ff274ab0b7,3e31dd08-f80f-4647-92b7-1fe36ccb7d90
2019-09-13 04:26:53,859fe33d-f5be-40f9-b2a1-614aaa7d58bf,1,7919ef5c-f5ab-4d91-9d18-e5ff274ab0b7,bc66f1b7-8499-497a-8990-f28e290e50de
2019-09-13 04:26:53,930871ce-330b-47cc-9fac-b68ab36aef0e,1,7919ef5c-f5ab-4d91-9d18-e5ff274ab0b7,0c5180c4-2745-4cf5-a3df-a489d8ddfba6
2019-09-13 04:26:53,450ca5b2-fa39-4681-bd8f-2c9a3cf6009e,1,7919ef5c-f5ab-4d91-9d18-e5ff274ab0b7,0c5180c4-2745-4cf5-a3df-a489d8ddfba6
2019-09-13 04:27:57,9bf10b2f-d6ed-4695-87ab-5d311d92b590,1,7919ef5c-f5ab-4d91-9d18-e5ff274ab0b7,f178aebf-ff9b-49f7-bad9-9a85fc19625a
2019-09-13 04:27:57,623f0246-6cc6-4307-99b8-b4307db1e155,1,7919ef5c-f5ab-4d91-9d18-e5ff274ab0b7,5fd66512-beeb-4350-90e7-c4f695c2f01d
2019-09-13 04:27:57,a0354447-299a-4947-acee-aae9d4ba3464,1,7919ef5c-f5ab-4d91-9d18-e5ff274ab0b7,0c5180c4-2745-4cf5-a3df-a489d8ddfba6
2019-09-13 04:29:01,b8abe069-11cc-42a4-a715-070020f6c313,1,7919ef5c-f5ab-4d91-9d18-e5ff274ab0b7,38560db7-8e08-47cc-8c5f-0c162128272b
2019-09-13 04:29:01,3f2cb00f-2b83-42b5-9e4e-31b26f919995,1,7919ef5c-f5ab-4d91-9d18-e5ff274ab0b7,54f2af16-3d5c-44eb-9b9b-d1a7e439e4ac
2019-09-13 04:29:01,fd3d4bc5-1347-4c55-8797-b3fb2b7f518b,1,7919ef5c-f5ab-4d91-9d18-e5ff274ab0b7,54f2af16-3d5c-44eb-9b9b-d1a7e439e4ac
2019-09-13 04:30:04,7fe1555b-4a8c-4dc9-b18a-c433fd64090d,1,7919ef5c-f5ab-4d91-9d18-e5ff274ab0b7,22240d57-f463-461b-8b96-92f300731639
2019-09-13 04:30:04,21136bbb-bc82-44ed-8f79-e71f863c4a60,1,7919ef5c-f5ab-4d91-9d18-e5ff274ab0b7,31b62932-235e-40e4-86ab-42f6db3270ab
2019-09-13 04:30:04,e00b069a-8a2f-47cf-991f-28b54a02919f,1,7919ef5c-f5ab-4d91-9d18-e5ff274ab0b7,31b62932-235e-40e4-86ab-42f6db3270ab
2019-09-13 04:31:08,18d188e8-34a7-4205-a74b-6e60c7557a00,1,7919ef5c-f5ab-4d91-9d18-e5ff274ab0b7,eb6368a4-cb73-4419-8c63-5ff85b600eee
2019-09-13 04:31:08,fe9b547c-a64f-4757-97e3-c6b7ba82bc75,1,7919ef5c-f5ab-4d91-9d18-e5ff274ab0b7,178970cd-bc9d-4dd4-8d4e-28b48d775c08
2019-09-13 04:31:08,3c2e13b9-74f2-426f-bb32-2b677135dbf9,1,7919ef5c-f5ab-4d91-9d18-e5ff274ab0b7,76f2ae44-176e-4668-9d23-aea6a4582da7
2019-09-13 04:32:12,8a2c8d88-3861-4053-8816-b4015a1f939a,1,7919ef5c-f5ab-4d91-9d18-e5ff274ab0b7,eaae2630-6983-48e5-9e5c-878df4e94307
2019-09-13 04:32:12,dcd3b136-48aa-46e9-acca-1f8d9d5b0634,1,7919ef5c-f5ab-4d91-9d18-e5ff274ab0b7,b1cf7a02-d2c3-4ec0-83d6-dab1d3ff9d75
2019-09-13 04:32:12,44b49812-e992-43a3-9660-b979681b0fd7,1,7919ef5c-f5ab-4d91-9d18-e5ff274ab0b7,eaae2630-6983-48e5-9e5c-878df4e94307
2019-09-13 04:33:16,6bde6780-d15e-4476-af31-f1ddcbadb8b2,1,7919ef5c-f5ab-4d91-9d18-e5ff274ab0b7,cb3bde7c-0902-4d44-ae46-726f0a62275b
2019-09-13 04:33:16,38c2b790-d861-48ad-8787-4878f7a9b6d1,1,7919ef5c-f5ab-4d91-9d18-e5ff274ab0b7,dc911f1a-4a41-4f6c-9a95-57a310cca86d
2019-09-13 04:33:16,73a8a4a1-53b2-4293-b349-6eae5bd87398,1,7919ef5c-f5ab-4d91-9d18-e5ff274ab0b7,dc911f1a-4a41-4f6c-9a95-57a310cca86d
2019-09-13 04:34:20,40a6ff6a-0656-4315-9b45-38a47866ea11,1,7919ef5c-f5ab-4d91-9d18-e5ff274ab0b7,e0175c2d-47ed-47d7-88cf-5c17884483cf
2019-09-13 04:34:20,7f534af9-279e-431f-9edc-912d8e6569fb,1,7919ef5c-f5ab-4d91-9d18-e5ff274ab0b7,8d0e0a7c-7eac-4b38-9ae0-b264fd9da8f2
2019-09-13 04:34:20,9c0a7e92-6efc-46d0-a73b-179ba8d35e49,1,7919ef5c-f5ab-4d91-9d18-e5ff274ab0b7,8d0e0a7c-7eac-4b38-9ae0-b264fd9da8f2
2019-09-13 04:35:23,00edb5c0-efc9-4594-913d-911841a2d6aa,1,7919ef5c-f5ab-4d91-9d18-e5ff274ab0b7,eb6368a4-cb73-4419-8c63-5ff85b600eee
2019-09-13 04:35:23,9995bff2-c23a-443f-b2dc-35bb5bd1d443,1,7919ef5c-f5ab-4d91-9d18-e5ff274ab0b7,76f2ae44-176e-4668-9d23-aea6a4582da7
2019-09-13 04:35:24,9bd6d89f-030f-4713-9805-b6aebe3dc185,1,7919ef5c-f5ab-4d91-9d18-e5ff274ab0b7,7ae2b643-1394-4df8-b8dc-1ffddcc6a44f
2019-09-13 04:36:27,fd05a94c-69c1-49ad-a2da-2f1a85b4a592,1,7919ef5c-f5ab-4d91-9d18-e5ff274ab0b7,9c747b4d-f9c9-412f-b1c4-8a453a2cd6a0
2019-09-13 04:36:27,0de7c600-6547-437c-8284-95f7c2391f20,1,7919ef5c-f5ab-4d91-9d18-e5ff274ab0b7,9c747b4d-f9c9-412f-b1c4-8a453a2cd6a0
2019-09-13 04:36:27,c726bea2-d805-49d5-8194-071b6753901a,1,7919ef5c-f5ab-4d91-9d18-e5ff274ab0b7,29a2ea8e-228a-4498-8eb9-19df1da0b9da
2019-09-13 04:37:31,0c7447f7-a8bc-40e7-a5a4-b4d4df3a3e45,1,7919ef5c-f5ab-4d91-9d18-e5ff274ab0b7,997823af-72ae-40b5-b60b-b40b7954bd36
2019-09-13 04:37:31,ac104767-2fbe-4fba-8823-956a56354408,1,7919ef5c-f5ab-4d91-9d18-e5ff274ab0b7,5fd66512-beeb-4350-90e7-c4f695c2f01d
2019-09-13 04:37:31,12e849a2-0381-4947-ba0a-f2a4883779c7,1,7919ef5c-f5ab-4d91-9d18-e5ff274ab0b7,5fd66512-beeb-4350-90e7-c4f695c2f01d
2019-09-13 04:38:35,1171587e-27cf-4099-8622-8c463d90c08b,1,7919ef5c-f5ab-4d91-9d18-e5ff274ab0b7,0b4a0e50-7c72-4234-9180-31edfc084bd7
2019-09-13 04:38:35,82331df3-30d3-4880-96fc-171102d4fa8b,1,7919ef5c-f5ab-4d91-9d18-e5ff274ab0b7,54f2af16-3d5c-44eb-9b9b-d1a7e439e4ac
2019-09-13 04:38:35,6ff49f2f-7498-4479-b8b1-b2419497fd9f,1,7919ef5c-f5ab-4d91-9d18-e5ff274ab0b7,85772858-9dbb-43d7-9159-48f85306fc8b
2019-09-13 04:39:39,06e5030c-da68-486d-83c0-b58141048698,1,7919ef5c-f5ab-4d91-9d18-e5ff274ab0b7,f1768818-c235-42be-a478-24448950e7ba
2019-09-13 04:39:39,923ad394-0a1b-46ff-9416-5b416edb7fde,1,7919ef5c-f5ab-4d91-9d18-e5ff274ab0b7,76f2ae44-176e-4668-9d23-aea6a4582da7
2019-09-13 04:39:39,1a324c5f-01ea-45d1-8097-eb914843309f,1,7919ef5c-f5ab-4d91-9d18-e5ff274ab0b7,7e39a8e5-9988-465d-b892-376960f46a37
2019-09-13 04:40:43,0d0df8ac-ab93-4ae6-a9db-757539eaffcf,1,7919ef5c-f5ab-4d91-9d18-e5ff274ab0b7,ff274441-2de5-4268-addd-6b520dbcf968
2019-09-13 04:40:43,925b7968-2088-4a1c-9d31-ada8f6ab8d1c,1,7919ef5c-f5ab-4d91-9d18-e5ff274ab0b7,0c5180c4-2745-4cf5-a3df-a489d8ddfba6
2019-09-13 04:40:43,0c410206-1a0b-4009-930f-90913c7bc261,1,7919ef5c-f5ab-4d91-9d18-e5ff274ab0b7,0c5180c4-2745-4cf5-a3df-a489d8ddfba6
2019-09-13 04:41:47,1c5cb793-431c-406c-9c13-a713e4dc9b46,1,7919ef5c-f5ab-4d91-9d18-e5ff274ab0b7,dc911f1a-4a41-4f6c-9a95-57a310cca86d
2019-09-13 04:41:47,2a3c125f-3b87-4ce4-9f18-b9049ef7c8bc,1,7919ef5c-f5ab-4d91-9d18-e5ff274ab0b7,dc911f1a-4a41-4f6c-9a95-57a310cca86d
2019-09-13 04:41:47,b9642b59-c7a8-48ef-bb32-8725fb4af393,1,7919ef5c-f5ab-4d91-9d18-e5ff274ab0b7,f3fb9468-bb9f-40dd-b3bd-9b29fb7a6c52
2019-09-13 04:42:51,dfea9a40-a34b-4822-9eb4-e5d1a8d4d020,1,7919ef5c-f5ab-4d91-9d18-e5ff274ab0b7,eaae2630-6983-48e5-9e5c-878df4e94307
2019-09-13 04:42:51,c9c55e98-1e5e-4aa8-849c-a22c6d2daece,1,7919ef5c-f5ab-4d91-9d18-e5ff274ab0b7,96a4612e-577f-4a27-99cc-24a7d92f4a67
2019-09-13 04:42:51,302f9228-3c5e-4d11-9fdc-42a97a3eebbb,1,7919ef5c-f5ab-4d91-9d18-e5ff274ab0b7,eaae2630-6983-48e5-9e5c-878df4e94307
2019-09-13 04:43:55,7e7668de-b74b-4d5e-bf20-e93619a927c6,1,7919ef5c-f5ab-4d91-9d18-e5ff274ab0b7,f1768818-c235-42be-a478-24448950e7ba
2019-09-13 04:43:55,42a4746f-465b-4be0-9f96-f558bc37143c,1,7919ef5c-f5ab-4d91-9d18-e5ff274ab0b7,f1768818-c235-42be-a478-24448950e7ba
2019-09-13 04:43:55,c6d32de6-3fe0-4bcb-800f-fc3fde40ab26,1,7919ef5c-f5ab-4d91-9d18-e5ff274ab0b7,bf6e805c-625c-453e-b85e-6e6eecd110fc
2019-09-13 04:44:58,ba134822-b094-4167-91b0-34d4a61fdb68,1,7919ef5c-f5ab-4d91-9d18-e5ff274ab0b7,ec6d25b9-f2f6-470a-8b54-ab6e7f304c00
2019-09-13 04:44:58,110a6dc3-ba0f-4fce-89d8-b2d9729b3e57,1,7919ef5c-f5ab-4d91-9d18-e5ff274ab0b7,85772858-9dbb-43d7-9159-48f85306fc8b
2019-09-13 04:44:58,25c963e1-7dfc-4225-b2a7-6ec9889c25ce,1,7919ef5c-f5ab-4d91-9d18-e5ff274ab0b7,85772858-9dbb-43d7-9159-48f85306fc8b
2019-09-13 04:46:02,26fff81f-e0bc-4d6f-962e-79bdbb98e225,1,7919ef5c-f5ab-4d91-9d18-e5ff274ab0b7,9cda959a-be2a-4017-b17b-89fdc8d0a3db
2019-09-13 04:46:02,09f56ce5-7c8d-4fbe-ba52-d6fdd0fe0ecc,1,7919ef5c-f5ab-4d91-9d18-e5ff274ab0b7,eb6368a4-cb73-4419-8c63-5ff85b600eee
2019-09-13 04:46:02,ca6c4e1e-e15e-4cab-a0ad-d891210557fb,1,7919ef5c-f5ab-4d91-9d18-e5ff274ab0b7,eb6368a4-cb73-4419-8c63-5ff85b600eee
2019-09-13 04:47:06,576ebbd5-690c-4e92-ac3b-2f4b07ff338d,1,7919ef5c-f5ab-4d91-9d18-e5ff274ab0b7,528f7429-2f32-483b-8e7f-758c4bfead4f
2019-09-13 04:47:06,3114285c-0feb-4f23-ac08-0b191b435289,1,7919ef5c-f5ab-4d91-9d18-e5ff274ab0b7,eb6368a4-cb73-4419-8c63-5ff85b600eee
2019-09-13 04:47:06,a88cb1c0-1352-4d39-a7d6-bbf2c13ec361,1,7919ef5c-f5ab-4d91-9d18-e5ff274ab0b7,eb6368a4-cb73-4419-8c63-5ff85b600eee
2019-09-13 04:48:10,e890063f-0096-4d12-a426-1f653c291c8b,1,7919ef5c-f5ab-4d91-9d18-e5ff274ab0b7,32f86a9a-e0dc-476a-ae64-b4ccc241b339
2019-09-13 04:48:10,760769a1-0ed4-40ac-91e3-8469386350b6,1,7919ef5c-f5ab-4d91-9d18-e5ff274ab0b7,55c07e0c-0c06-4fb0-b755-194f550f6ef7
2019-09-13 04:48:10,f153da3e-6baf-4b63-8ce2-00a6ecf0aaa4,1,7919ef5c-f5ab-4d91-9d18-e5ff274ab0b7,32f86a9a-e0dc-476a-ae64-b4ccc241b339
2019-09-13 05:03:29,110a6dc3-ba0f-4fce-89d8-b2d9729b3e57,1,821112f3-db66-49b2-9e5d-d7ca9ec96f47,eb6368a4-cb73-4419-8c63-5ff85b600eee
2019-09-13 05:03:29,25c963e1-7dfc-4225-b2a7-6ec9889c25ce,1,821112f3-db66-49b2-9e5d-d7ca9ec96f47,eb6368a4-cb73-4419-8c63-5ff85b600eee
2019-09-13 05:06:55,623f0246-6cc6-4307-99b8-b4307db1e155,1,821112f3-db66-49b2-9e5d-d7ca9ec96f47,eaae2630-6983-48e5-9e5c-878df4e94307
2019-09-13 05:06:55,a0354447-299a-4947-acee-aae9d4ba3464,1,821112f3-db66-49b2-9e5d-d7ca9ec96f47,eaae2630-6983-48e5-9e5c-878df4e94307
2019-09-13 04:43:37,3f2cb00f-2b83-42b5-9e4e-31b26f919995,1,eaae2630-6983-48e5-9e5c-878df4e94307,dc911f1a-4a41-4f6c-9a95-57a310cca86d
2019-09-13 04:43:37,fd3d4bc5-1347-4c55-8797-b3fb2b7f518b,1,eaae2630-6983-48e5-9e5c-878df4e94307,dc911f1a-4a41-4f6c-9a95-57a310cca86d
2019-09-13 05:24:16,623f0246-6cc6-4307-99b8-b4307db1e155,1,eaae2630-6983-48e5-9e5c-878df4e94307,32f86a9a-e0dc-476a-ae64-b4ccc241b339
2019-09-13 05:24:16,a0354447-299a-4947-acee-aae9d4ba3464,1,eaae2630-6983-48e5-9e5c-878df4e94307,32f86a9a-e0dc-476a-ae64-b4ccc241b339
2019-09-13 04:43:06,3f2cb00f-2b83-42b5-9e4e-31b26f919995,1,54f2af16-3d5c-44eb-9b9b-d1a7e439e4ac,eaae2630-6983-48e5-9e5c-878df4e94307
2019-09-13 04:43:06,fd3d4bc5-1347-4c55-8797-b3fb2b7f518b,1,54f2af16-3d5c-44eb-9b9b-d1a7e439e4ac,eaae2630-6983-48e5-9e5c-878df4e94307
2019-09-13 04:59:14,06e5030c-da68-486d-83c0-b58141048698,1,f1768818-c235-42be-a478-24448950e7ba,85772858-9dbb-43d7-9159-48f85306fc8b
2019-09-13 04:41:18,9995bff2-c23a-443f-b2dc-35bb5bd1d443,1,76f2ae44-176e-4668-9d23-aea6a4582da7,0c5180c4-2745-4cf5-a3df-a489d8ddfba6
2019-09-13 04:59:14,923ad394-0a1b-46ff-9416-5b416edb7fde,1,76f2ae44-176e-4668-9d23-aea6a4582da7,85772858-9dbb-43d7-9159-48f85306fc8b
2019-09-13 05:03:14,3c2e13b9-74f2-426f-bb32-2b677135dbf9,1,76f2ae44-176e-4668-9d23-aea6a4582da7,821112f3-db66-49b2-9e5d-d7ca9ec96f47
2019-09-13 05:02:57,110a6dc3-ba0f-4fce-89d8-b2d9729b3e57,1,85772858-9dbb-43d7-9159-48f85306fc8b,eb6368a4-cb73-4419-8c63-5ff85b600eee
2019-09-13 05:02:57,25c963e1-7dfc-4225-b2a7-6ec9889c25ce,1,85772858-9dbb-43d7-9159-48f85306fc8b,eb6368a4-cb73-4419-8c63-5ff85b600eee
2019-09-13 04:41:18,00edb5c0-efc9-4594-913d-911841a2d6aa,1,eb6368a4-cb73-4419-8c63-5ff85b600eee,54f2af16-3d5c-44eb-9b9b-d1a7e439e4ac
2019-09-13 05:03:14,18d188e8-34a7-4205-a74b-6e60c7557a00,1,eb6368a4-cb73-4419-8c63-5ff85b600eee,821112f3-db66-49b2-9e5d-d7ca9ec96f47
2019-09-13 05:03:16,110a6dc3-ba0f-4fce-89d8-b2d9729b3e57,1,eb6368a4-cb73-4419-8c63-5ff85b600eee,821112f3-db66-49b2-9e5d-d7ca9ec96f47
2019-09-13 05:03:16,25c963e1-7dfc-4225-b2a7-6ec9889c25ce,1,eb6368a4-cb73-4419-8c63-5ff85b600eee,821112f3-db66-49b2-9e5d-d7ca9ec96f47
2019-09-13 05:05:19,110a6dc3-ba0f-4fce-89d8-b2d9729b3e57,1,eb6368a4-cb73-4419-8c63-5ff85b600eee,76f2ae44-176e-4668-9d23-aea6a4582da7
2019-09-13 05:05:19,25c963e1-7dfc-4225-b2a7-6ec9889c25ce,1,eb6368a4-cb73-4419-8c63-5ff85b600eee,76f2ae44-176e-4668-9d23-aea6a4582da7
2019-09-13 04:54:50,3f2cb00f-2b83-42b5-9e4e-31b26f919995,1,dc911f1a-4a41-4f6c-9a95-57a310cca86d,31b62932-235e-40e4-86ab-42f6db3270ab
2019-09-13 04:54:50,fd3d4bc5-1347-4c55-8797-b3fb2b7f518b,1,dc911f1a-4a41-4f6c-9a95-57a310cca86d,31b62932-235e-40e4-86ab-42f6db3270ab
2019-09-13 05:38:31,1c5cb793-431c-406c-9c13-a713e4dc9b46,1,dc911f1a-4a41-4f6c-9a95-57a310cca86d,8d0e0a7c-7eac-4b38-9ae0-b264fd9da8f2
2019-09-13 05:38:31,2a3c125f-3b87-4ce4-9f18-b9049ef7c8bc,1,dc911f1a-4a41-4f6c-9a95-57a310cca86d,8d0e0a7c-7eac-4b38-9ae0-b264fd9da8f2
2019-09-13 05:03:14,fe9b547c-a64f-4757-97e3-c6b7ba82bc75,1,178970cd-bc9d-4dd4-8d4e-28b48d775c08,178970cd-bc9d-4dd4-8d4e-28b48d775c08
2019-09-13 04:43:06,b8abe069-11cc-42a4-a715-070020f6c313,1,38560db7-8e08-47cc-8c5f-0c162128272b,38560db7-8e08-47cc-8c5f-0c162128272b
2019-09-13 04:43:37,b8abe069-11cc-42a4-a715-070020f6c313,1,38560db7-8e08-47cc-8c5f-0c162128272b,38560db7-8e08-47cc-8c5f-0c162128272b
2019-09-13 04:59:14,1a324c5f-01ea-45d1-8097-eb914843309f,1,7e39a8e5-9988-465d-b892-376960f46a37,7e39a8e5-9988-465d-b892-376960f46a37
2019-09-13 04:30:37,9bf10b2f-d6ed-4695-87ab-5d311d92b590,0,NA,NA
2019-09-13 05:03:29,ba134822-b094-4167-91b0-34d4a61fdb68,0,NA,NA
2019-09-13 05:06:55,9bf10b2f-d6ed-4695-87ab-5d311d92b590,0,NA,NA
2019-09-13 05:24:16,9bf10b2f-d6ed-4695-87ab-5d311d92b590,0,NA,NA
2019-09-13 04:41:18,9bd6d89f-030f-4713-9805-b6aebe3dc185,0,NA,NA
2019-09-13 05:02:57,ba134822-b094-4167-91b0-34d4a61fdb68,0,NA,NA
2019-09-13 05:03:16,ba134822-b094-4167-91b0-34d4a61fdb68,0,NA,NA
2019-09-13 05:05:19,ba134822-b094-4167-91b0-34d4a61fdb68,0,NA,NA
2019-09-13 04:54:50,b8abe069-11cc-42a4-a715-070020f6c313,0,NA,NA
2019-09-13 05:38:31,b9642b59-c7a8-48ef-bb32-8725fb4af393,0,NA,NA
