node,ip,uuid
node-a8-199.grenoble.iot-lab.info,172.20.64.2,6ca7bb6a-570e-4bf4-b17d-92215428e852
node-a8-200.grenoble.iot-lab.info,172.20.64.3,64ef1c5e-909d-4c05-9e35-d2f959d703f1
node-a8-201.grenoble.iot-lab.info,172.20.64.4,ff274441-2de5-4268-addd-6b520dbcf968
node-a8-202.grenoble.iot-lab.info,172.20.64.5,30876bc4-1d30-4322-906b-9a1acf4fcd72
node-a8-204.grenoble.iot-lab.info,172.20.64.6,93393921-1b6d-4684-80d3-bb937a8373df
node-a8-205.grenoble.iot-lab.info,172.20.64.7,f3fb9468-bb9f-40dd-b3bd-9b29fb7a6c52
node-a8-206.grenoble.iot-lab.info,172.20.64.8,9cd4d2f3-7511-4a3a-8ee7-cbff6dcc361a
node-a8-207.grenoble.iot-lab.info,172.20.64.9,044a63b1-a40c-4e05-a5b7-085dd38484ef
node-a8-208.grenoble.iot-lab.info,172.20.64.10,96a4612e-577f-4a27-99cc-24a7d92f4a67
node-a8-209.grenoble.iot-lab.info,172.20.64.11,12101c0c-45a7-4f7b-b8d4-0efe4292b3f2
node-a8-210.grenoble.iot-lab.info,172.20.64.12,3e31dd08-f80f-4647-92b7-1fe36ccb7d90
node-a8-211.grenoble.iot-lab.info,172.20.64.13,bf6e805c-625c-453e-b85e-6e6eecd110fc
node-a8-212.grenoble.iot-lab.info,172.20.64.14,dce296ef-c724-4a86-957a-dba72273f4d7
node-a8-214.grenoble.iot-lab.info,172.20.64.15,bc66f1b7-8499-497a-8990-f28e290e50de
node-a8-216.grenoble.iot-lab.info,172.20.64.16,ec6d25b9-f2f6-470a-8b54-ab6e7f304c00
node-a8-217.grenoble.iot-lab.info,172.20.64.17,7eea7387-93f0-48fd-b39b-e2d8dbaad511
node-a8-218.grenoble.iot-lab.info,172.20.64.18,f178aebf-ff9b-49f7-bad9-9a85fc19625a
node-a8-219.grenoble.iot-lab.info,172.20.64.19,9cda959a-be2a-4017-b17b-89fdc8d0a3db
node-a8-220.grenoble.iot-lab.info,172.20.64.20,3b4bc6e5-70a4-4ba7-8b5b-0191d63bf5e2
node-a8-221.grenoble.iot-lab.info,172.20.64.21,38560db7-8e08-47cc-8c5f-0c162128272b
node-a8-165.grenoble.iot-lab.info,172.20.64.22,528f7429-2f32-483b-8e7f-758c4bfead4f
node-a8-166.grenoble.iot-lab.info,172.20.64.23,07a16e43-fc9f-4dc5-b935-1fc31da63f47
node-a8-167.grenoble.iot-lab.info,172.20.64.24,22240d57-f463-461b-8b96-92f300731639
node-a8-168.grenoble.iot-lab.info,172.20.64.25,55c07e0c-0c06-4fb0-b755-194f550f6ef7
node-a8-169.grenoble.iot-lab.info,172.20.64.26,7ed88f6b-d5e8-4be3-9354-1ba1cbfdce6f
node-a8-170.grenoble.iot-lab.info,172.20.64.27,178970cd-bc9d-4dd4-8d4e-28b48d775c08
node-a8-171.grenoble.iot-lab.info,172.20.64.28,538142f2-41ee-413c-b3e7-700f0716a811
node-a8-173.grenoble.iot-lab.info,172.20.64.29,c3798300-d645-4c92-ae95-dc56bfee7e84
node-a8-174.grenoble.iot-lab.info,172.20.64.30,b1cf7a02-d2c3-4ec0-83d6-dab1d3ff9d75
node-a8-175.grenoble.iot-lab.info,172.20.64.31,c09ad68b-f6fc-4309-bc96-5665a186d86d
node-a8-176.grenoble.iot-lab.info,172.20.64.32,cd76cec4-3fc5-49eb-b124-325de19a455d
node-a8-177.grenoble.iot-lab.info,172.20.64.33,cb3bde7c-0902-4d44-ae46-726f0a62275b
node-a8-179.grenoble.iot-lab.info,172.20.64.34,22c03a6a-52b5-4aac-ac7b-ac2fb459b1f9
node-a8-180.grenoble.iot-lab.info,172.20.64.35,e441239a-4781-4aa4-9e88-83d00911cacb
node-a8-181.grenoble.iot-lab.info,172.20.64.36,e0175c2d-47ed-47d7-88cf-5c17884483cf
node-a8-182.grenoble.iot-lab.info,172.20.64.37,8b7592c6-d495-417e-9d14-fd1f81dd8c72
node-a8-183.grenoble.iot-lab.info,172.20.64.38,b8796ac3-50da-4796-827a-a5fb92da71dd
node-a8-184.grenoble.iot-lab.info,172.20.64.39,7ae2b643-1394-4df8-b8dc-1ffddcc6a44f
node-a8-185.grenoble.iot-lab.info,172.20.64.40,ed9e0f5f-a3fb-4717-b83d-35756f9245ae
node-a8-187.grenoble.iot-lab.info,172.20.64.41,4b088695-a84b-43c6-ad32-f2bd5101476a
node-a8-188.grenoble.iot-lab.info,172.20.64.42,29a2ea8e-228a-4498-8eb9-19df1da0b9da
node-a8-189.grenoble.iot-lab.info,172.20.64.43,1da8805c-a1c2-4d0f-875f-e4b1a5b46efb
node-a8-190.grenoble.iot-lab.info,172.20.64.44,3bbd8d3d-23fc-445e-85c6-9e9261cbe67c
node-a8-191.grenoble.iot-lab.info,172.20.64.45,997823af-72ae-40b5-b60b-b40b7954bd36
node-a8-192.grenoble.iot-lab.info,172.20.64.46,e56e3e15-ffda-4b84-9f45-0bbbe230ad07
node-a8-193.grenoble.iot-lab.info,172.20.64.47,99d223d9-f5c1-4bbc-b595-c5c05d0815f4
node-a8-194.grenoble.iot-lab.info,172.20.64.48,0b4a0e50-7c72-4234-9180-31edfc084bd7
node-a8-195.grenoble.iot-lab.info,172.20.64.49,ca75d878-ccf4-4976-b822-0204310be45d
node-a8-197.grenoble.iot-lab.info,172.20.64.50,a54e06c2-7b91-4e17-8a0c-817bfd77a473
node-a8-198.grenoble.iot-lab.info,172.20.64.51,7e39a8e5-9988-465d-b892-376960f46a37
suno-11.sophia.grid5000.fr,172.16.130.11,7919ef5c-f5ab-4d91-9d18-e5ff274ab0b7
suno-14.sophia.grid5000.fr,172.16.130.14,85772858-9dbb-43d7-9159-48f85306fc8b
suno-15.sophia.grid5000.fr,172.16.130.15,0c5180c4-2745-4cf5-a3df-a489d8ddfba6
suno-2.sophia.grid5000.fr,172.16.130.2,5fd66512-beeb-4350-90e7-c4f695c2f01d
suno-25.sophia.grid5000.fr,172.16.130.25,9c747b4d-f9c9-412f-b1c4-8a453a2cd6a0
suno-27.sophia.grid5000.fr,172.16.130.27,54f2af16-3d5c-44eb-9b9b-d1a7e439e4ac
suno-28.sophia.grid5000.fr,172.16.130.28,eb6368a4-cb73-4419-8c63-5ff85b600eee
suno-30.sophia.grid5000.fr,172.16.130.30,dc911f1a-4a41-4f6c-9a95-57a310cca86d
suno-32.sophia.grid5000.fr,172.16.130.32,f1768818-c235-42be-a478-24448950e7ba
suno-33.sophia.grid5000.fr,172.16.130.33,76f2ae44-176e-4668-9d23-aea6a4582da7
suno-34.sophia.grid5000.fr,172.16.130.34,8d0e0a7c-7eac-4b38-9ae0-b264fd9da8f2
suno-36.sophia.grid5000.fr,172.16.130.36,eaae2630-6983-48e5-9e5c-878df4e94307
suno-37.sophia.grid5000.fr,172.16.130.37,31b62932-235e-40e4-86ab-42f6db3270ab
suno-43.sophia.grid5000.fr,172.16.130.43,247f19e2-95dd-4d89-be04-0dfb38459923
suno-44.sophia.grid5000.fr,172.16.130.44,821112f3-db66-49b2-9e5d-d7ca9ec96f47
suno-8.sophia.grid5000.fr,172.16.130.8,32f86a9a-e0dc-476a-ae64-b4ccc241b339
