actor,node
31d1fd00-17e8-4b72-aba5-4b664409a882,155682bc-0461-4341-8ed7-4ee08e278ac5
aedca92d-c009-4a9d-ab86-6aeb97be7b7e,0b865867-0816-49db-b638-d23eba9a983b
dc581175-41c5-44b1-bcc3-ab27008c23e1,155682bc-0461-4341-8ed7-4ee08e278ac5
6336257e-14ba-4294-b862-c6b2b323b25d,46913401-4166-4163-9ba0-83f951defad0
12b36de4-331f-483b-a365-726e12562231,205ebe8c-0bd2-4a7b-9af8-9d3e7b8dbecf
16f73cea-3047-46f2-8cb8-7fc3f4ce9cad,205ebe8c-0bd2-4a7b-9af8-9d3e7b8dbecf
7f8fa0c1-fdea-4879-b38c-27c8f3b6a327,205ebe8c-0bd2-4a7b-9af8-9d3e7b8dbecf
3748227e-2771-4c7a-a719-11261e5d6c35,7fb216bf-d77c-46ef-8198-9ba5c163530b
42a6b8fe-d602-40ea-8d1c-723127559b94,05c3822d-6446-4e40-b35a-c102fc2be4a3
7a963f77-f066-43be-9626-98d06666acdb,abee8e16-7472-43ca-b7e0-bb7dad35110f
7fd96a63-c657-4577-a0ad-6d09d4f74b3b,a4b54599-2316-40bb-aa81-af306752c8af
3ade7bcc-e518-4cba-ad81-1880c3f3733e,a4b54599-2316-40bb-aa81-af306752c8af
7ee639c3-3dea-4541-b4b1-72f0f15cbe26,7fb216bf-d77c-46ef-8198-9ba5c163530b
5b230e93-ea9e-42d4-b937-061ee5a326cf,7fb216bf-d77c-46ef-8198-9ba5c163530b
5db4ea22-5506-4423-a9c5-87feffab5fcc,13a76735-fd20-453a-aa80-e2e84cc6b477
cbe3217c-9591-4cbf-98aa-d7a47c2b288c,ee4d1d6d-2ad6-41fe-aa57-0a8b105b2d81
4a82055d-135c-4054-8d8e-16abe068c62e,a25aa363-9973-4d59-be18-5100ae9b02ce
5b853d98-16e7-4585-948c-1c757d6de145,ee4d1d6d-2ad6-41fe-aa57-0a8b105b2d81
7329cc1d-ccda-4c2d-9c33-5a387499c3f5,f2f0aa2c-deff-443c-9e3e-0d52889b4f45
efa798bd-83d6-4323-8159-d6e561a14e9d,7990f103-9959-48df-8af3-19b3bd6c94e4
31f468c3-364d-4e69-8387-f34a1e02fe05,7990f103-9959-48df-8af3-19b3bd6c94e4
dc9dab8a-9c73-4a53-a243-afe01654a25f,e0f32f59-fc00-4501-8b06-a943e5e7f531
1af16dc5-d246-4f94-b0c3-50d66dd8552b,fb9c8625-c1df-4fe8-8684-ba6d2be3834a
217ec286-584f-4074-874a-756ab51b691c,e0f32f59-fc00-4501-8b06-a943e5e7f531
78177876-2302-465d-b765-28cd4957abbf,2f4e2d22-f919-4f28-ac4b-ce44b368c41c
1c9b949f-13f1-4580-bd4d-b87e6a1dee10,42f1d629-8805-49c9-892b-721066cfa8a8
3a414c92-fff8-40e1-b633-7663621fdb50,bd5cd794-458c-4e9e-834b-43cba72d5569
eaf66530-ab95-4e89-80ff-0639e25c7201,725323a5-82fc-4446-9984-8929f9ff80ca
9c91e4da-ba14-4e32-bbb0-69481262c4fd,a67b5ded-bfeb-4e84-9f60-d4bef13cb00a
e050590a-e0d7-412f-b041-0079f385b63d,725323a5-82fc-4446-9984-8929f9ff80ca
133870b0-fdba-4d67-a7c3-2955a0a571a3,205ebe8c-0bd2-4a7b-9af8-9d3e7b8dbecf
01994e5a-82f5-47b6-9b79-29ea419111ba,572d145f-a004-49a6-ac68-cb9da6eb4d2c
f8b6fa23-a0e4-4225-aeb7-5d3a69e0e73d,205ebe8c-0bd2-4a7b-9af8-9d3e7b8dbecf
95fcb09d-3599-49e8-a9fb-d21f62d73da2,f476caba-8b07-4a95-b912-944cb0f52ead
3dfc3b48-9f37-4f08-9df9-2eab71e4d34c,d0a1c3fb-d1ae-4eaa-86c9-371824ac9356
b158edf2-2209-4704-9e78-9ab6a8279d83,f476caba-8b07-4a95-b912-944cb0f52ead
301e96b8-70ca-4ba9-aeaa-0c47bda5196b,9fa2ab9c-ea7b-4a40-8c59-377f7fb62fee
c23041ce-9221-488c-b359-5df617a0ae70,2f4e2d22-f919-4f28-ac4b-ce44b368c41c
734c964a-33bf-4d7b-b146-60df65bf060e,2f4e2d22-f919-4f28-ac4b-ce44b368c41c
096e6c7e-8c18-4c69-a396-50b2c7fdf5b1,95e5c59c-fe8c-4816-b027-ead8bd35752a
ab069171-7228-4e67-8a1b-cd328ec50915,6a187953-7250-4f3d-bc41-bcb865a88745
6be3b3d8-ca38-4079-b1a9-20c7108ed314,6a187953-7250-4f3d-bc41-bcb865a88745
0103dc96-4094-41c8-af78-515c9d57a30a,c061d984-ebd2-4ceb-9ef2-7f08dc5dfaa7
aa29563a-ebad-4805-a466-e4876773208a,1f975da1-a445-4531-8a1e-89d3aaf90bbe
bffb32e5-ed47-4c2e-8092-41258334aae4,1f975da1-a445-4531-8a1e-89d3aaf90bbe
03794f56-78fd-4a2b-889a-33358a2f34f2,74f17f34-94d9-4f1b-aacf-2082d92155ee
3619580f-625c-4861-af11-4154ddcd231f,1f975da1-a445-4531-8a1e-89d3aaf90bbe
9632d6d5-71e1-4e4b-80f4-793acf220060,1f975da1-a445-4531-8a1e-89d3aaf90bbe
22fd6097-6e46-44b2-8aa7-e9a276cf9421,9c20d32a-3cf4-4646-8bdd-155335b5b76e
4ef092b3-9879-4b16-82ef-3440b9a73a4a,f03b6cb0-7871-4bc9-8729-51b9d7f3210b
5a771583-265d-416a-a6c0-1e89adde889c,9c20d32a-3cf4-4646-8bdd-155335b5b76e
cd433fb6-b037-4313-b177-4ca8a0a3b3d5,bd5cd794-458c-4e9e-834b-43cba72d5569
12f449dc-0d4e-4259-ab87-9aceff9cb229,33fc5847-52e2-4fc8-8833-a89b1b374d0e
bbffdbbe-14cb-4f3d-a070-b34c41f8326a,bd5cd794-458c-4e9e-834b-43cba72d5569
6988f8da-d5cc-4395-9d9c-9761014c83ee,fac75462-a2c0-483a-ad82-e175c47dfb8e
e2ad7190-b85b-4864-8f9c-315fc1c388f6,6ca5f995-49f7-4b47-b488-65bc78a08fe9
a70f22ca-19ae-47cd-ac0b-fd38d20bfc07,6ca5f995-49f7-4b47-b488-65bc78a08fe9
0d9c8ae9-ab73-402c-a3ea-09367dc6c3ad,6ca5f995-49f7-4b47-b488-65bc78a08fe9
1b544880-6e10-49f9-b688-90576b9f039b,6ca5f995-49f7-4b47-b488-65bc78a08fe9
e7acc17f-3e03-4f75-966d-807249f97e7d,9210fc43-b4e0-40b5-af5b-991b72d30134
c709dd43-3fc8-46eb-976d-111eed8127e0,9c20d32a-3cf4-4646-8bdd-155335b5b76e
4d6dcbd2-1b97-461a-be6c-366b9f516b90,a5623526-214f-4d77-939f-11e88c9e8bb7
934bf9ef-aeff-4755-90e4-3c56c2b4e687,9c20d32a-3cf4-4646-8bdd-155335b5b76e
d144e1ab-c023-475a-9204-3656fff648d6,6a187953-7250-4f3d-bc41-bcb865a88745
32e60484-5e24-4b23-a759-fb4677c3d75b,449d4bcf-eb73-4e69-8ba4-8befc92f161a
ce0f0047-4edf-4f65-89b3-9b6b2d044eda,6a187953-7250-4f3d-bc41-bcb865a88745
3c3b48bf-a3cc-414d-a33c-1b215b5cee1b,bd5cd794-458c-4e9e-834b-43cba72d5569
af081ef2-32ed-4e46-bb96-b5dbc4a805ce,de2d95ed-550a-4393-9517-0d39c7a92f09
f8962c23-7315-4132-aafb-610efb19b25b,bd5cd794-458c-4e9e-834b-43cba72d5569
1aa282fb-f1a6-4e70-b380-7fcb5a1ffeaf,7990f103-9959-48df-8af3-19b3bd6c94e4
c3b7c5fd-e291-4804-ba19-490e97d69ba9,7990f103-9959-48df-8af3-19b3bd6c94e4
7f48c150-cd93-456a-a34a-1c9c849eea12,32acf387-68eb-42cb-bd32-af9a6de363e0
9861a201-ce1e-4c93-bf34-7cb18e8de6cb,bd5cd794-458c-4e9e-834b-43cba72d5569
fde51a6f-1212-4509-aa2b-1f3700502073,4866f9f6-48aa-43b0-9641-1d5535781fb1
dd0804f8-6e50-44b2-9e0e-6ef3f4e5ab42,bd5cd794-458c-4e9e-834b-43cba72d5569
