app_number,app_id,trigger,burn,sink,deploy_date,token_interval
1,a48ccf67-8328-4a20-af30-92103d809c2a,974f9645-6a77-4458-8e7a-c60a84805fdd,31ef8001-cb12-48e7-b698-08c355e34a82,ea13a7c3-ffb7-4a84-8370-f1c807207ab9,2019-04-30 22:18:27,1.000000
2,05ebeb40-ae59-4c87-81d1-8173cf27adaa,62948198-76c0-4e9a-ae75-21e197f6ddf3,4a79bb84-adc3-4238-b513-34f51e0ef163,ace7506a-c366-430d-94ca-694cf3bada14,2019-04-30 22:19:30,1.000000
3,860d5779-077b-45af-b078-94f722d575c7,1ec5d465-f140-4479-9d88-18b7b53ee00f,edd9aad9-1f62-4c0a-a452-6309e518f6b8,9a27738b-04a7-4ece-a68d-86c860eceee0,2019-04-30 22:20:34,1.000000
4,8413d54a-8de9-43b4-a4ae-d4af4a982ab2,2c23e713-cb02-4653-93b1-a4be5fbc3188,34e59b2f-b852-4849-979d-43d2d3845103,b4decf89-985a-4937-b6fa-0425a71bf2f5,2019-04-30 22:21:37,0.200000
5,a07b24d2-df9f-460d-9869-e69a655bd2f7,ba0787d0-cd4e-4464-b483-4f8a1568abd2,5b5a6350-258a-4b34-aa3a-1ce6a73b5915,8f6567d7-5cf4-4f1b-ae83-af63336e5f35,2019-04-30 22:22:41,0.200000
6,68e0e9d2-fa0a-4705-aa5e-21abbf7a7d4d,96354e92-8d9e-42dc-802f-57cc387a4cb0,d69ca53c-567d-434c-9e4b-8d8f8156ca94,66a2b23b-0f86-454c-b9c1-cabf0ce5275e,2019-04-30 22:23:45,0.200000
7,f5b22df6-4eb5-4b2f-9774-b6be0be2145a,84752f6d-0318-4786-9806-8cf31b98bd08,46f0c116-15db-4275-8b64-99edd4037509,395669b2-bb51-4d71-8265-0068b7a14dad,2019-04-30 22:24:48,0.200000
8,99f2c673-d8d1-4912-93ac-213e5d6a0d14,2b1c5c09-c765-448c-a983-fdf62a1c564d,2b1dd75f-6ec4-4f34-9ab3-ae3b8d14d6f5,8ddab4da-bb3a-4d81-8b30-fd263bfd5166,2019-04-30 22:25:52,1.000000
9,c805bd93-247e-4aaa-8711-f241e51d13f3,06b56568-1789-4cbd-afc5-2f0b8fa13fa1,a364cc31-80dd-4546-b4fb-09f626e99c66,a2158f30-d66d-4fbd-a21d-9468ad77bbf3,2019-04-30 22:26:56,0.200000
10,64c2456e-65ed-450e-ac06-87700f172951,3c7e7bb2-c69a-4e7f-a02d-20b615d8fe99,158f8c2e-f578-4712-924e-7897009289fc,839ba355-2010-4821-aa4e-642d90a79458,2019-04-30 22:27:59,0.200000
11,34b9c30c-e907-473c-a02f-87da3bdc375f,93b55a1a-8394-44ad-980e-3eb2acdceea8,3ff8261a-559d-4da5-ac21-5ae2358ab401,aa2d9d27-b5f7-4dfa-be58-4e6446fcdd68,2019-04-30 22:29:03,0.200000
12,d73fe172-4ffd-43e3-be0c-abf767f78228,7f7b96e7-d6fb-4cb2-aad8-f337fb8a2789,4f7b09e7-ad25-44ce-9275-8a732643aeb4,b25bf2b8-c81e-430c-9ddc-f18c1cb49da8,2019-04-30 22:30:07,1.000000
13,42104d2d-d91c-4fca-81f6-1f1900986735,efa5e73f-1396-4f7a-8226-0460e77de0ff,39a19caf-6671-4432-83ab-78d761854a0f,04343e1f-32c8-4344-9ccf-93b3fe61c529,2019-04-30 22:31:10,0.200000
14,2ad1bfbc-f772-4225-9511-f294dcf4f2e3,ee3fdca5-e578-4afe-8a5b-8d3c9b2ef38f,fee827d5-211e-4699-aa51-beac15421d10,490e82ea-c590-439e-8ee4-4bd82cf2af84,2019-04-30 22:32:14,0.200000
15,f5f9f7e4-1636-4f8c-9777-6c5549b971b3,81ccbb13-6a10-48d6-9a64-a92f93ce91c7,1c899fb2-0243-4712-bd14-f47c731f10a9,34012867-c06a-4c30-aa80-52c42ba8c2f4,2019-04-30 22:33:18,1.000000
16,ca54b3d5-4f8f-4e09-abe2-b6d8704c6286,c5869ae8-e614-4ffa-a3a8-a0a5bc71d098,699ac7c1-85ba-42a7-b6c4-5bfe52435b63,979a56b3-f76f-4b25-a5fe-57efa37d8d9d,2019-04-30 22:34:21,1.000000
17,24a47778-e6e5-480d-ba96-50e3131e19c7,69f66363-f816-4ae5-b335-a5ff01004dd4,c20d5f9d-ae11-4943-b27a-b503735d52a0,7f0ba736-ad18-4ab8-ab80-b10160bda164,2019-04-30 22:35:24,0.200000
18,73071523-a8b1-4803-9070-6a54495306ed,183abf23-dcb1-403c-bbe3-73b360bf49e7,51491240-9ebc-4380-8921-949528686b1f,1989ace8-9791-421e-8ab8-5d443a8d9b46,2019-04-30 22:36:28,1.000000
19,288db894-3036-4728-abf7-355b2365a6f3,382c4017-bcba-4f93-9a4d-6dde03d669bf,d9061b31-2445-4a33-9cd5-24c4f641c5b6,3e099a59-1d6a-4269-8644-a99917359afc,2019-04-30 22:37:32,0.200000
20,7a4ccdd4-734f-4264-a91b-e844aac9d38c,0a68d1a4-0010-40e8-b0c0-ddb2908d5189,0daa89b9-9124-4e99-95af-3cd3bc48cc8f,e204f18b-a659-4a29-905d-bcd436cad3f0,2019-04-30 22:38:35,1.000000
21,3132dc0b-3c17-4b3a-bea3-cf840a638762,f5a5a352-eaa0-4679-9043-aabb8477cf9c,e8964470-71dc-44d1-af7a-4dc60c78ddf0,979a1316-0706-4697-b917-57a6e0a68bb5,2019-04-30 22:39:39,0.200000
22,48a0b824-f554-4632-b0a9-8b2ade452e5b,d41215ab-6d4b-4e11-bd67-d904e11a7ab3,4342647f-c833-4ce8-a3db-3511048ac7c8,8c22ada9-b3ab-4fc0-aa2c-68c450106450,2019-04-30 22:40:43,0.200000
23,c2b74b51-c185-4e72-a4ad-1d2e4b5f079b,04728606-8b8a-4d0e-a74f-1ca5fa2d9cbc,8d29375d-b6e9-49d5-8087-f8c78ce93aee,188e938e-28e4-45e8-ac9a-d58c17b29c1a,2019-04-30 22:41:46,0.200000
24,02a02fab-55b7-43ef-9090-a42cf4d61e92,1aa1df13-7bc4-4f51-a6d4-71f9aef12b5b,bc1b0b80-e0b8-4377-aef0-72444ef75679,8936a620-4264-4bb8-91f3-672772210420,2019-04-30 22:42:50,1.000000
25,65f8fc3f-5114-4b9f-8df0-f5709c212886,130ae17a-77d2-4d61-ae92-de11e2fb14ad,57e0b440-54f6-45b6-8f5c-6faa57fe9f60,ef704b00-f244-4abc-a359-c35783e12edf,2019-04-30 22:43:53,1.000000
26,6c5f1c27-705a-427d-8725-cac7609844bd,9bd0e52a-451e-466e-8cb3-91c1f736e4c2,9e22d56a-ebd5-45f2-98b4-f1a05088b39d,bce8e963-6809-4357-ace5-654ceec5781e,2019-04-30 22:44:57,1.000000
27,e8ab6795-dc00-47e8-82bf-dd81298042be,a635db1e-9a37-42be-a4f8-89c5af02c54f,99a62e59-7792-4607-b28d-f15f9232851c,9ae7cafc-7a4c-4025-8015-0399e70a8f1b,2019-04-30 22:46:00,0.200000
28,894bc02b-2327-4fe1-a14c-b656506dbffb,6e7a195a-f47c-41da-a7c8-2059516095f3,ea4cd826-12e9-413f-8214-502fc7872041,5591682b-4f26-4105-a8fa-3fa8c4bc28cd,2019-04-30 22:47:03,1.000000
29,09df06dd-6a61-40d1-b0d5-6c4f70cb8297,8f8c68fe-52bb-4d4c-a4cd-083db7f2ae26,a12f7fc8-9e63-4a7c-9b36-36dd17b1adf6,2699177a-6b20-4ebb-9943-4965f6f7841c,2019-04-30 22:48:07,1.000000
30,7384e7a3-e63f-4c83-9fca-5147547ea972,c1829cb5-e5cd-4a44-92ab-8e358cc13666,89f3aead-3e0e-43bd-b6bb-cda7069f821a,9b17e3f9-3445-48e0-aa43-4de01dbeba1e,2019-04-30 22:49:10,1.000000
31,f6c72b98-dc80-49ff-ae7e-d46be012f465,c4ff8aaa-4b09-4056-9ad9-78a9f6ff735f,e7eed51f-7361-4b7e-9159-80032cc6ab12,3323c7ba-aff8-46f1-91bf-f98b4376e981,2019-04-30 22:50:14,1.000000
32,065337cd-9d40-424a-bc5e-776839a736b6,c54e69cc-eef9-4cd1-998c-cb6b2e294c9d,1cf69137-8f59-43da-8b05-94de5f7740fa,0efc813e-71b4-4f90-85ad-0a8a2aba101b,2019-04-30 22:51:18,0.200000
33,55139cbf-9b0e-40c1-9944-8dd9466a687f,d07c4fca-b29a-4a66-bf03-32d9251b9d93,b587fab4-ff5e-4b6e-91a3-519ae12322f0,c08d70dc-3c0d-4151-8c36-70c83a1138d0,2019-04-30 22:52:21,1.000000
34,0bb2fb1d-38af-4712-af3b-fecc41faecb2,dc08be8a-62a5-4a23-91f0-ff1f7bc1edda,23490b15-48c7-4012-bb5d-4f38de7ae8fd,73fc9ced-2300-41b2-899a-1b325d453ba5,2019-04-30 22:53:25,0.200000
35,af90e4af-fc60-4399-a9de-e6e35e8ecbf4,dbde0eb5-8740-422f-b1e0-3169efcc1999,a7f3f9ff-3c0a-4698-87e9-93c514c43120,2bb4b35f-d18f-4220-a0ba-f286569dab60,2019-04-30 22:54:29,1.000000
36,f62e1a6c-906b-4910-aece-9bd952bdd08e,9295a6d8-2498-480f-b9b2-b30ac3e4e61e,075d574e-12dc-47b6-947a-f370ad1c300a,97c6648b-6976-4c26-891f-94ec62e09ac7,2019-04-30 22:55:32,0.200000
37,5dee9c86-8051-4f61-ad64-a0fca7ee06b9,48f03c7e-c7aa-49ce-ac7d-a43b447d14af,bb5712f5-f250-4d15-bfa6-914ca6ed2703,66c6f03f-6182-459d-92cc-79b52d307c4c,2019-04-30 22:56:36,1.000000
38,3b3749fc-f05d-4f36-b3ed-a31a561cdd38,c7270b49-a471-443e-acee-60c1f5ddb7a2,81f12d8c-b902-4c1e-b179-7b14130a6627,782cc4aa-7d95-49ad-840b-0e90263557a9,2019-04-30 22:57:40,1.000000
39,8ebf0039-1250-4f83-a94a-1982fde77656,8299647f-0b5a-4939-9aea-e404b84a9569,4e8dc6e0-3c06-4b0a-81c5-3810e394f6ed,8a0e303f-313c-49ea-9125-dca62ed05d58,2019-04-30 22:58:43,0.200000
40,a5195930-ba90-4f09-ae8c-28c2618a2101,44cc35e4-b741-4d4e-b5a4-02b0d93ccece,00c152f7-d28e-4f74-a409-a90aedee3cf8,7e03d808-b7b7-4238-bf12-b10c6cbbe7de,2019-04-30 22:59:47,0.200000
41,f428cd7a-3ac0-465f-86d5-e6109f97c2ee,d87a1091-dcb7-436d-a11f-d3f144bc1dc4,cf9f6009-8aa0-4b44-8775-d6c65f6ddcfc,b6179970-43cc-4172-9af1-00e9e53c66c8,2019-04-30 23:00:50,1.000000
42,e0ea1727-c370-4c31-8dcf-5f75371202f5,f082a5d5-1dd3-41cd-93d6-d1210f799b11,d3f5d15a-4238-424a-9c42-72014362549d,de10bfe8-666b-4dbe-a1cb-17f1120b6fa8,2019-04-30 23:01:54,0.200000
43,319a594a-5011-4fcb-82a1-5665f9250fab,50854388-0b9a-4228-b352-605cd48e2f01,30acc210-7005-4039-9d16-6bc68fe59307,83ef495d-f93b-4b5f-8c2b-1f2d3106286f,2019-04-30 23:02:57,0.200000
44,4b1dda7b-9021-4c66-b7dd-58a284bca650,24bce4cc-b20e-48c2-a335-6a54380a2e33,2b35a623-5936-44ee-8a9e-9334bfcbe418,46610804-770d-428b-a8e7-94f3fcb98503,2019-04-30 23:04:01,0.200000
45,5083e0ae-d6ad-4da0-b96e-87c4c12a8108,9d4da146-aca4-4d98-9971-0b26de1fc81b,ba8f5d1f-ac8e-445d-9499-2eca24c53a29,28178b74-fcb5-497d-9f78-643f5528f81d,2019-04-30 23:05:05,1.000000
46,89be3cc9-4f45-4d7c-bc4b-034b82a408bf,0664fbd1-8bde-46e6-b706-5f27b2bf05bc,e1490afd-f198-4030-a544-22037e2b6c18,67a16d99-dbf8-46ca-80ba-a2ce0fa40243,2019-04-30 23:06:09,0.200000
47,e58f33fa-204c-4792-ad85-7a9ea849e0ca,083932ea-90c3-4230-a618-48dc1d7d1187,4fec6fc7-61de-4e9a-b6b3-17484f11663e,963fe870-53f4-417c-8935-ee1a08790cc1,2019-04-30 23:07:12,0.200000
48,1d149ee8-0752-4b6f-a6b3-2be75438de3e,5539c117-2700-44e7-a8b9-5c5e7d84859f,d769cc5f-4050-4f2a-b8b8-5fecf9c42cca,5f591be3-a7dd-484c-8bfe-8af01f39db90,2019-04-30 23:08:16,1.000000
49,6b3ffba3-ffdc-40a5-9787-9a301220a83e,48103cea-d81a-4d4b-b1f0-66e818dd6e1b,8cd3ddca-9263-495d-997a-9768a56c13b7,c01f1672-928b-4512-8f21-63eaa54ee40d,2019-04-30 23:09:20,0.200000
50,2eb7cfe4-a664-4d76-9e12-bd08a70b0e88,c7720fc9-ee02-488f-b1fc-4a7f49c5db2f,41ee56e7-e1cb-4bcb-b806-5da7a24b4fd6,68b4476a-5dad-4a3f-a1ac-3e18634499b1,2019-04-30 23:10:23,1.000000
