actor,node
98d78ff1-de30-469c-b485-1039809a3a52,f00a9d5f-9c63-4ebb-bba9-61ce3ab66231
55d81400-42b0-4dcf-9d3c-36b6ece110c9,c62f330e-d4a6-47fe-8caa-c6b07e428ab0
585c2d17-4e7c-4e23-856e-b8f0100941f5,261d443f-3aff-4f20-b868-249363ad4473
933fb695-bf7f-422f-b77c-8cf63f488346,88c5b29b-1c5e-40b0-8855-da4454616d33
742c6b61-d84f-46d8-858d-fa442c7d9b8e,261d443f-3aff-4f20-b868-249363ad4473
7c8ec75a-7fc8-4efa-98f1-6d24e76e697b,c62f330e-d4a6-47fe-8caa-c6b07e428ab0
589da192-6fd2-4e27-bebe-0285bc0506ab,c62f330e-d4a6-47fe-8caa-c6b07e428ab0
9d174492-81a2-424c-b474-51e97c18619e,83be6dd2-2d6e-4ca6-a82c-75c583a5fb18
a84dd295-c35b-4af3-9bdd-b7aaa80d0e82,261d443f-3aff-4f20-b868-249363ad4473
7411fea7-3a55-45d8-b6da-325c246d25fe,edc19104-0207-485a-b10e-96ffc1c45a1b
2fc424e5-85e5-422c-bb4b-7a3357ca3179,c62f330e-d4a6-47fe-8caa-c6b07e428ab0
92a45660-e8e8-4dae-85f6-c5c8df5309c0,261d443f-3aff-4f20-b868-249363ad4473
e97bcfb4-c682-4d21-a5cc-00ae9c23fc72,261d443f-3aff-4f20-b868-249363ad4473
a88e51f2-13fc-42d4-833a-d5593de81038,802c0a4e-130d-4ae5-9566-e7a2a252ebbb
ab8d2c0c-4148-4756-9d27-96d72734597a,c62f330e-d4a6-47fe-8caa-c6b07e428ab0
c5a484e2-f0c9-4bdd-913b-925666684a29,06edd566-5fc7-49d9-a42d-3e3f863af068
c1ee9a06-d9b7-4945-a965-b3377a2fba79,c62f330e-d4a6-47fe-8caa-c6b07e428ab0
66809771-110a-4b17-9376-d31b254895cc,261d443f-3aff-4f20-b868-249363ad4473
b65138b9-a574-4f22-b127-6f51adef2554,c62f330e-d4a6-47fe-8caa-c6b07e428ab0
aa439a3e-303b-4315-b767-b6c1ac4e60ae,b27356f1-589b-4a4b-a7b8-26b564926ae5
f62e3e61-b578-4ab8-bd59-ef2c85f50dc8,261d443f-3aff-4f20-b868-249363ad4473
502f8dbf-285f-4e8b-b208-a6c91d619959,11c12931-3ecd-4de0-80cc-c49c74417f7c
57cfc64c-2a41-4a5a-acd3-2dc6f6cb495b,261d443f-3aff-4f20-b868-249363ad4473
31ee5954-5af8-4782-9c63-fb1071f9203b,c62f330e-d4a6-47fe-8caa-c6b07e428ab0
746b36e8-87ec-4e5c-99fc-b0ceb78d31e0,c62f330e-d4a6-47fe-8caa-c6b07e428ab0
30c31323-201e-44ba-a1b7-212b48b07cd3,77630820-ad80-4b8f-b226-6bd2cb806264
f218b5a6-21ed-4f8c-b8e5-32294811ddc5,261d443f-3aff-4f20-b868-249363ad4473
87ce01e1-fcb4-48be-8a29-1bd0d3a04f1c,bce886d1-7624-425a-8306-1a953a66dae8
027adca9-58f3-444b-b0ee-f9e1785a747a,261d443f-3aff-4f20-b868-249363ad4473
b4227ca4-653b-4a08-a81d-6ee0bdc5d2a8,c62f330e-d4a6-47fe-8caa-c6b07e428ab0
09a0af10-2ae9-411a-abf7-27913d631259,c62f330e-d4a6-47fe-8caa-c6b07e428ab0
d5fa57c5-7e28-42a7-aa59-3a49cfb0e416,261d443f-3aff-4f20-b868-249363ad4473
6eaecd6e-3b0d-442e-9038-27c75794a2e4,ca7e5ff4-f28d-4942-94a3-c243d7a2c5ec
41de6c71-1b7d-47a1-9398-c71e07e45a9d,c62f330e-d4a6-47fe-8caa-c6b07e428ab0
f6f52582-e699-4e48-9b37-edc40f9adbe3,4aac55c0-ecdd-4ad9-af80-d47c4e2cd24c
93f17ded-2bf4-4220-b6e9-5786a001d051,261d443f-3aff-4f20-b868-249363ad4473
b48f64d2-73e2-49a3-890a-f7a51c47acfd,261d443f-3aff-4f20-b868-249363ad4473
3349949e-156f-4969-880b-0b31f18b9d5c,c62f330e-d4a6-47fe-8caa-c6b07e428ab0
fa2050ad-b9b0-404f-afe7-dd303330454e,404f7698-a115-4275-b354-940d0f670558
2b390642-b420-4440-a1ea-a41829be76fd,fca268c9-9399-4884-a111-31ca99c61da3
b948d2e4-2099-47b4-bb02-cbf31dc60eb6,261d443f-3aff-4f20-b868-249363ad4473
1157b100-bf35-4b47-a663-34f0ea98f3a3,c62f330e-d4a6-47fe-8caa-c6b07e428ab0
60285d59-8fac-433e-a576-443d95794453,c62f330e-d4a6-47fe-8caa-c6b07e428ab0
8a19c531-6b94-4550-8292-cacb31fd1125,ec26f51f-369a-4635-b678-19c198eebf0a
75f84638-7d76-42e1-bd5e-abed15b59149,261d443f-3aff-4f20-b868-249363ad4473
e02fba5d-07bb-4323-8f30-254916662bfa,c62f330e-d4a6-47fe-8caa-c6b07e428ab0
e14012c4-f311-493d-a480-5a4aa809ed72,261d443f-3aff-4f20-b868-249363ad4473
20d9caf0-d041-4341-a547-86dabf5f3973,a7d3d07e-5c6c-4633-9a87-03a67053cad5
53613692-5e29-413c-97ec-39cccdfe6e0b,52ee4519-6633-42f5-ba88-1828b22df00a
e9051f38-bc2c-471e-9ff3-2b3c0e1ee943,c62f330e-d4a6-47fe-8caa-c6b07e428ab0
4f378779-dfa4-400c-b533-49cebf51547c,261d443f-3aff-4f20-b868-249363ad4473
edebf0e5-26fa-4354-ad2d-fff0da35d5ea,e578d41a-7e9d-421c-a24f-7a8ac5a1afea
3cbe2471-9a1d-4e46-9866-d7046b0b34b2,261d443f-3aff-4f20-b868-249363ad4473
18cf0455-20e5-412f-a17b-0b0b83741a8d,c62f330e-d4a6-47fe-8caa-c6b07e428ab0
961c50da-4a3f-43eb-81d5-af01615c5662,c62f330e-d4a6-47fe-8caa-c6b07e428ab0
45100ac6-6837-4b69-a21d-262d2834e5d0,9e6604f3-adc7-4d81-b05a-d4eb7c1d844e
79da8fbe-2565-457e-a657-d91bf7f22d88,261d443f-3aff-4f20-b868-249363ad4473
0ad7c7a9-bdfa-4164-a1f7-302019979cd7,c62f330e-d4a6-47fe-8caa-c6b07e428ab0
5b6a8cb1-1c7c-4287-b2d4-32af102b1daf,5bc08902-7f3c-4a32-9ae1-b7b53d6338f7
07d89d70-1862-49e7-81a0-fba08a0e80d9,261d443f-3aff-4f20-b868-249363ad4473
f3c458de-8d61-4f3d-85f3-f038b4bf7a66,c62f330e-d4a6-47fe-8caa-c6b07e428ab0
15a5f4b0-4467-419f-8b13-4e4abaf3e2b6,261d443f-3aff-4f20-b868-249363ad4473
71d50063-4862-4677-a402-5623eaef17f7,8f2143dd-8535-4045-806f-61ae2a8c4e0f
2d233c63-94b2-4a88-969f-07a3771281eb,c62f330e-d4a6-47fe-8caa-c6b07e428ab0
b45abf9e-d574-4e12-b00a-e5f048476a08,08e25e48-c467-4a24-840b-a6f6fc8cf3b8
a520f876-0012-4e75-a560-0f490524002b,261d443f-3aff-4f20-b868-249363ad4473
c2aa1a81-6404-46a8-919e-610e4a25a8b4,e18c3f07-25d9-4a59-a11a-6ada10b03c5a
3f0056df-cded-4bcf-a412-afd3781e50b6,c62f330e-d4a6-47fe-8caa-c6b07e428ab0
2c4bea17-9111-47c3-a1a2-b58eed9d9153,261d443f-3aff-4f20-b868-249363ad4473
9b45c2f9-ffc7-4590-830b-a581a066dffc,c62f330e-d4a6-47fe-8caa-c6b07e428ab0
a0ea21c0-5bc1-4b80-8ac2-daa69b14a361,d3417a1f-78ca-4084-973a-f1a9a8450301
fb3dd513-29fa-4cbc-b044-6a87ec438236,261d443f-3aff-4f20-b868-249363ad4473
88b8bf4f-882f-43a6-9b99-2fe4ed47cec8,f26aa7f2-4746-4159-8ad3-e42fe50185f6
1d47c788-471a-49e5-b7fd-b910d866bf4e,c62f330e-d4a6-47fe-8caa-c6b07e428ab0
3314b50d-1e60-4399-b177-4ed72eda5cdc,261d443f-3aff-4f20-b868-249363ad4473
b0443a8d-4788-41ee-b686-ad2cd8f2786a,c62f330e-d4a6-47fe-8caa-c6b07e428ab0
6a8cced5-7c2f-438e-96ed-d78eb35433b3,8dbaf363-40f8-4260-b481-7a2dbebf331c
76212383-a216-4e1d-bdd7-e97ad3319961,261d443f-3aff-4f20-b868-249363ad4473
0b964ca7-1898-4780-b3e9-976690ab4b65,37b439a5-6907-4c97-a58e-7be148e45760
174bafd2-879b-4274-8edb-70834d8750c3,c62f330e-d4a6-47fe-8caa-c6b07e428ab0
ce3c74c7-7e1f-45a1-9d1f-6d2b43d9761b,261d443f-3aff-4f20-b868-249363ad4473
bd558397-9a03-4ed1-97dd-ad00f44cd6fb,261d443f-3aff-4f20-b868-249363ad4473
80b5ae85-4827-4326-b753-f5b59f764551,2299fff4-c265-4ad5-8702-f4f25bc80fec
cca4c300-0117-4d01-b9a3-d13d31f55c84,c62f330e-d4a6-47fe-8caa-c6b07e428ab0
2b3b59d7-edbe-4569-8b7c-d131dda04d09,c62f330e-d4a6-47fe-8caa-c6b07e428ab0
5c48bc7d-b2c5-4d8f-bfdb-840c622596ea,261d443f-3aff-4f20-b868-249363ad4473
1d3378cf-e2ea-4571-9c52-f2093f506956,9665ea3e-0fef-463d-93c3-2d4ccc5cd6b6
9b7838bb-8365-4636-bfd7-8cc1540944a1,c62f330e-d4a6-47fe-8caa-c6b07e428ab0
141c7046-ce88-4a51-8fc6-00f7fa53fea5,f09528e5-8c8a-481f-804e-b8d51eeda364
68731454-2d2c-4f6d-8fec-ec8d12f72748,261d443f-3aff-4f20-b868-249363ad4473
7ef25c95-9be5-4205-af36-c631e68b1dca,261d443f-3aff-4f20-b868-249363ad4473
0dbf0483-e17f-4d35-b943-756cdf397291,e4448d26-f6bb-45d3-a0e1-d10f6405ea28
38ccc860-dfd8-4e74-a414-66bb564e9a19,c62f330e-d4a6-47fe-8caa-c6b07e428ab0
6f9b772d-7bc5-4037-85b5-34da1abff7e1,261d443f-3aff-4f20-b868-249363ad4473
74c111ba-1e2c-4446-a12b-5452f8c9ad7c,c62f330e-d4a6-47fe-8caa-c6b07e428ab0
01b28ae1-988b-4fe9-bcf2-f09cf4c9eb59,bc3eb276-eb50-4a74-b574-1946537c02c2
deb661b4-3ef2-4af7-9544-4d05a91b9765,261d443f-3aff-4f20-b868-249363ad4473
95b5a6e8-69e0-4af2-9ff1-7f3b1b5b67b3,dc748e0f-7147-4e7e-a3db-1cd0ee108e69
df26bd11-f3ce-4708-9d76-adb6c17ee656,c62f330e-d4a6-47fe-8caa-c6b07e428ab0
3af186de-9d13-4bb2-ba0d-65f864eada94,c62f330e-d4a6-47fe-8caa-c6b07e428ab0
378e7974-cd79-458e-a0e4-48425a9cbe89,261d443f-3aff-4f20-b868-249363ad4473
f434f925-3e3b-401e-b112-feecf826bb08,8b56b411-94b5-44a6-9205-3521aeb046c6
f7ac9057-f4e8-4327-8cb7-8448ddd0fcff,4573e883-6e6f-4eee-930d-a38a91a84566
5a114428-8d60-4fb2-b2fc-0e06916bf589,261d443f-3aff-4f20-b868-249363ad4473
9712f556-ea84-423e-9a1e-234ec69168e4,c62f330e-d4a6-47fe-8caa-c6b07e428ab0
ad32f7c8-4bb9-42f2-a73e-ae5a36759430,c62f330e-d4a6-47fe-8caa-c6b07e428ab0
3cce9fd6-ca5c-452b-a4c3-7b12cd512b61,261d443f-3aff-4f20-b868-249363ad4473
e8ad8f89-6bdf-4b2b-935e-3126b7f90293,5219f060-c579-4cb8-b7dd-5a7322a1b0de
3def2720-8303-4fa0-bffc-8705aa5a5194,d6f67d70-9d6a-40ef-bd0f-cb6c26d74b4c
15894e27-a84a-4c9e-970e-062979d6dbd5,c62f330e-d4a6-47fe-8caa-c6b07e428ab0
9fca509e-deb7-4b7b-a5de-87c086f22184,261d443f-3aff-4f20-b868-249363ad4473
5525b349-c8da-44a2-a6de-a6ca0baadc5d,3c4d29e6-b4cf-44b1-a67c-9ee42c5cbcac
1119131c-c9d7-4387-aaa0-39278906fba9,c62f330e-d4a6-47fe-8caa-c6b07e428ab0
5287e5a6-db48-4dd4-9889-53c64e17ca0e,261d443f-3aff-4f20-b868-249363ad4473
b0f77abf-b7aa-4b33-b679-57b8610c0fc4,325eca06-c796-4acf-8970-3f445659c72b
732305d5-d711-43b2-a5ea-727036f72dbb,261d443f-3aff-4f20-b868-249363ad4473
fb50e5c2-30ba-4a92-bd28-7f3a42659212,c62f330e-d4a6-47fe-8caa-c6b07e428ab0
be4999a3-b4cb-40f0-a28c-8c402dabd933,de45f022-5556-4369-8af9-dba4517b425e
9e709b30-c9da-4ad8-9695-ca4751037d87,261d443f-3aff-4f20-b868-249363ad4473
ee42608e-a634-47e9-a97c-d2dd9b5f86ca,c62f330e-d4a6-47fe-8caa-c6b07e428ab0
55477b92-010f-47f4-91ac-158844a8654c,261d443f-3aff-4f20-b868-249363ad4473
979b8d52-2528-41b7-b243-46435cb4adcf,6b33ebf1-f198-4ffa-b4c5-22d56d9948f8
a6db8db1-e6c9-4e5c-80e5-76ab09e05bb2,c62f330e-d4a6-47fe-8caa-c6b07e428ab0
1ee35a62-c359-4a99-9b3c-da7149153300,261d443f-3aff-4f20-b868-249363ad4473
43f2bcbc-4877-44ee-af16-8dbdbc74c55c,c228c751-a224-4219-8360-bd1466c037a9
c4f5395d-acb1-4677-909d-fb73984003af,c62f330e-d4a6-47fe-8caa-c6b07e428ab0
d9b41c73-3d26-4fff-8b61-27613356daf5,60ec3b38-0da9-4f2b-84ac-2cac5858df0c
aef4717b-cf4d-4613-b8f0-069ff48ea9cf,261d443f-3aff-4f20-b868-249363ad4473
b7f17ef9-d5e6-472a-a0f8-f2a98199db5a,c62f330e-d4a6-47fe-8caa-c6b07e428ab0
b23901bb-1074-4bee-a04d-8b5952debd9f,c6213327-c18d-4810-bfb2-323035adea4b
a13c54aa-0694-4eee-8db2-2a73c8a169a9,c62f330e-d4a6-47fe-8caa-c6b07e428ab0
447c046b-bb84-4d96-ac52-19aaea1f1f65,261d443f-3aff-4f20-b868-249363ad4473
fc51f8ba-b8ae-45b6-896f-5963fa1242c8,c3ac5aaa-0ecb-4ccc-9817-b8c731c5f124
aeb23e24-694e-47ac-863d-70aaf11c5f1e,261d443f-3aff-4f20-b868-249363ad4473
a4f3b74f-b6c8-4cc7-aaaa-32b27bdbf14a,c62f330e-d4a6-47fe-8caa-c6b07e428ab0
ae3fc43a-f005-4850-ba78-50525dae2ba6,b4d7cdeb-19e9-4be8-b5ab-a98efe3414eb
0d7240c4-30f0-4902-8f2e-9140cc817857,261d443f-3aff-4f20-b868-249363ad4473
a16873fa-5127-4bab-b6b3-3f09dfe9dc15,c62f330e-d4a6-47fe-8caa-c6b07e428ab0
9160f952-3b74-49c9-b4d0-22bdda4e11d3,2d443457-9f3d-490b-a214-092a90edf457
d34534ed-6206-479c-bbbb-4308e3e16933,c62f330e-d4a6-47fe-8caa-c6b07e428ab0
e07eac2f-378a-4a76-bf58-c7d03650291e,261d443f-3aff-4f20-b868-249363ad4473
822fd8b7-7f45-4706-be68-e713a15f779d,261d443f-3aff-4f20-b868-249363ad4473
70cf503b-d172-4d68-988b-7147085d00aa,c62f330e-d4a6-47fe-8caa-c6b07e428ab0
34f9de54-177c-4edb-bb07-200be797b9c1,701672ca-9b43-4715-94df-fa66c809e786
4b1069e9-3651-40da-9985-88af3d0d3eb1,261d443f-3aff-4f20-b868-249363ad4473
4463d60a-eb7b-487e-9cb1-612f4544faec,00391b7b-2baf-48ed-8c79-4af91f1d763c
73eaa010-58bb-4795-b3c2-60153a5f3803,c62f330e-d4a6-47fe-8caa-c6b07e428ab0
33b7b71c-cbbe-4850-8abc-352d7c0b73c0,c62f330e-d4a6-47fe-8caa-c6b07e428ab0
dd1bea8d-e408-43d0-86fb-b9505c717818,c0b932e2-ba01-4d14-8547-97a4bcffb448
47a3fc1a-c75e-417d-b9b7-f35f5a4f16a1,261d443f-3aff-4f20-b868-249363ad4473
