app_number,app_id,trigger,burn,sink,deploy_date,token_interval
1,7da12995-0ca8-401e-989a-65580e5f7582,98d78ff1-de30-469c-b485-1039809a3a52,55d81400-42b0-4dcf-9d3c-36b6ece110c9,585c2d17-4e7c-4e23-856e-b8f0100941f5,2020-02-18 04:38:45,1.000000
2,bc56d067-bb27-4b26-85bc-772db730bdd6,933fb695-bf7f-422f-b77c-8cf63f488346,7c8ec75a-7fc8-4efa-98f1-6d24e76e697b,742c6b61-d84f-46d8-858d-fa442c7d9b8e,2020-02-18 04:39:49,1.000000
3,ca1d48fb-700b-45dd-981c-9d6c1e501cba,9d174492-81a2-424c-b474-51e97c18619e,589da192-6fd2-4e27-bebe-0285bc0506ab,a84dd295-c35b-4af3-9bdd-b7aaa80d0e82,2020-02-18 04:40:52,1.000000
4,8746e899-32cc-4abd-8297-450de26051bf,7411fea7-3a55-45d8-b6da-325c246d25fe,2fc424e5-85e5-422c-bb4b-7a3357ca3179,92a45660-e8e8-4dae-85f6-c5c8df5309c0,2020-02-18 04:41:55,0.200000
5,bd82cbdc-9fab-4822-b9bf-f89cc0fd9797,a88e51f2-13fc-42d4-833a-d5593de81038,ab8d2c0c-4148-4756-9d27-96d72734597a,e97bcfb4-c682-4d21-a5cc-00ae9c23fc72,2020-02-18 04:42:58,0.200000
6,e84bfe6a-3ddc-4885-95d9-f21fe125d465,c5a484e2-f0c9-4bdd-913b-925666684a29,c1ee9a06-d9b7-4945-a965-b3377a2fba79,66809771-110a-4b17-9376-d31b254895cc,2020-02-18 04:44:02,0.200000
7,b82c65cb-0966-4ec8-aa99-8b90723c2313,aa439a3e-303b-4315-b767-b6c1ac4e60ae,b65138b9-a574-4f22-b127-6f51adef2554,f62e3e61-b578-4ab8-bd59-ef2c85f50dc8,2020-02-18 04:45:05,0.200000
8,91052b9b-d588-47e8-adac-1db73c93278f,502f8dbf-285f-4e8b-b208-a6c91d619959,31ee5954-5af8-4782-9c63-fb1071f9203b,57cfc64c-2a41-4a5a-acd3-2dc6f6cb495b,2020-02-18 04:46:08,1.000000
9,7143ce1a-0cf8-43a1-896c-ea3d0e3247e7,30c31323-201e-44ba-a1b7-212b48b07cd3,746b36e8-87ec-4e5c-99fc-b0ceb78d31e0,f218b5a6-21ed-4f8c-b8e5-32294811ddc5,2020-02-18 04:47:11,0.200000
10,672721c4-fdcc-4ef5-bbe7-eeb7be45b064,87ce01e1-fcb4-48be-8a29-1bd0d3a04f1c,b4227ca4-653b-4a08-a81d-6ee0bdc5d2a8,027adca9-58f3-444b-b0ee-f9e1785a747a,2020-02-18 04:48:14,0.200000
11,9375da7c-d4b6-4b9b-9d88-855151866a3a,6eaecd6e-3b0d-442e-9038-27c75794a2e4,09a0af10-2ae9-411a-abf7-27913d631259,d5fa57c5-7e28-42a7-aa59-3a49cfb0e416,2020-02-18 04:49:17,0.200000
12,c6843bc1-bdf1-4738-b17e-ab1a1ec2f61c,f6f52582-e699-4e48-9b37-edc40f9adbe3,41de6c71-1b7d-47a1-9398-c71e07e45a9d,93f17ded-2bf4-4220-b6e9-5786a001d051,2020-02-18 04:50:20,1.000000
13,57666cb8-7a8e-4a08-878e-2269bf357faf,fa2050ad-b9b0-404f-afe7-dd303330454e,3349949e-156f-4969-880b-0b31f18b9d5c,b48f64d2-73e2-49a3-890a-f7a51c47acfd,2020-02-18 04:51:24,0.200000
14,0054a415-89e9-4eac-8d5e-2e3664e8bd71,2b390642-b420-4440-a1ea-a41829be76fd,1157b100-bf35-4b47-a663-34f0ea98f3a3,b948d2e4-2099-47b4-bb02-cbf31dc60eb6,2020-02-18 04:52:26,0.200000
15,bbed5604-7486-499b-9c46-47ed4c12bc7e,8a19c531-6b94-4550-8292-cacb31fd1125,60285d59-8fac-433e-a576-443d95794453,75f84638-7d76-42e1-bd5e-abed15b59149,2020-02-18 04:53:29,1.000000
16,4a0db7eb-95d7-4609-8224-f990368c2860,20d9caf0-d041-4341-a547-86dabf5f3973,e02fba5d-07bb-4323-8f30-254916662bfa,e14012c4-f311-493d-a480-5a4aa809ed72,2020-02-18 04:54:32,1.000000
17,905937e4-3c7c-4e20-8c90-469a1dd1c13c,53613692-5e29-413c-97ec-39cccdfe6e0b,e9051f38-bc2c-471e-9ff3-2b3c0e1ee943,4f378779-dfa4-400c-b533-49cebf51547c,2020-02-18 04:55:36,0.200000
18,eb9f48ce-af87-4c6a-8f2b-d185eb1a13e1,edebf0e5-26fa-4354-ad2d-fff0da35d5ea,18cf0455-20e5-412f-a17b-0b0b83741a8d,3cbe2471-9a1d-4e46-9866-d7046b0b34b2,2020-02-18 04:56:39,1.000000
19,a2f2e537-0147-4422-8dcc-3bca14dcd6cd,45100ac6-6837-4b69-a21d-262d2834e5d0,961c50da-4a3f-43eb-81d5-af01615c5662,79da8fbe-2565-457e-a657-d91bf7f22d88,2020-02-18 04:57:42,0.200000
20,5a41614e-76c1-4731-8fe4-17946268af43,5b6a8cb1-1c7c-4287-b2d4-32af102b1daf,0ad7c7a9-bdfa-4164-a1f7-302019979cd7,07d89d70-1862-49e7-81a0-fba08a0e80d9,2020-02-18 04:58:46,1.000000
21,32e6ed03-ae04-4a8d-ba26-0f6b46c755eb,71d50063-4862-4677-a402-5623eaef17f7,f3c458de-8d61-4f3d-85f3-f038b4bf7a66,15a5f4b0-4467-419f-8b13-4e4abaf3e2b6,2020-02-18 04:59:49,0.200000
22,96e651b1-4662-4cc9-86b6-23d0b4c882ba,b45abf9e-d574-4e12-b00a-e5f048476a08,2d233c63-94b2-4a88-969f-07a3771281eb,a520f876-0012-4e75-a560-0f490524002b,2020-02-18 05:00:52,0.200000
23,d3c69635-e155-4d24-8807-940469e63c4e,c2aa1a81-6404-46a8-919e-610e4a25a8b4,3f0056df-cded-4bcf-a412-afd3781e50b6,2c4bea17-9111-47c3-a1a2-b58eed9d9153,2020-02-18 05:01:56,0.200000
24,a5248583-f032-4f54-a68a-393b6ef5b5a8,a0ea21c0-5bc1-4b80-8ac2-daa69b14a361,9b45c2f9-ffc7-4590-830b-a581a066dffc,fb3dd513-29fa-4cbc-b044-6a87ec438236,2020-02-18 05:02:58,1.000000
25,b12bddf4-5eb2-4243-8df0-244ea0111b51,88b8bf4f-882f-43a6-9b99-2fe4ed47cec8,1d47c788-471a-49e5-b7fd-b910d866bf4e,3314b50d-1e60-4399-b177-4ed72eda5cdc,2020-02-18 05:04:02,1.000000
26,d29582ed-892e-4ea7-af74-12e14723bcc9,6a8cced5-7c2f-438e-96ed-d78eb35433b3,b0443a8d-4788-41ee-b686-ad2cd8f2786a,76212383-a216-4e1d-bdd7-e97ad3319961,2020-02-18 05:05:05,1.000000
27,1c08fad8-c58e-4540-94f1-b0db5ecc98ae,0b964ca7-1898-4780-b3e9-976690ab4b65,174bafd2-879b-4274-8edb-70834d8750c3,ce3c74c7-7e1f-45a1-9d1f-6d2b43d9761b,2020-02-18 05:06:08,0.200000
28,189bc2e4-661a-4f31-9c71-de61a2855e5d,80b5ae85-4827-4326-b753-f5b59f764551,cca4c300-0117-4d01-b9a3-d13d31f55c84,bd558397-9a03-4ed1-97dd-ad00f44cd6fb,2020-02-18 05:07:11,1.000000
29,56e31d60-3c30-4e4d-ab64-6b8bf7a6cf46,1d3378cf-e2ea-4571-9c52-f2093f506956,2b3b59d7-edbe-4569-8b7c-d131dda04d09,5c48bc7d-b2c5-4d8f-bfdb-840c622596ea,2020-02-18 05:08:15,1.000000
30,88cf69fc-60c0-402a-ae6c-6c39100b95d5,141c7046-ce88-4a51-8fc6-00f7fa53fea5,9b7838bb-8365-4636-bfd7-8cc1540944a1,68731454-2d2c-4f6d-8fec-ec8d12f72748,2020-02-18 05:09:18,1.000000
31,6cd93093-1814-46f1-8191-b991c0c618a3,0dbf0483-e17f-4d35-b943-756cdf397291,38ccc860-dfd8-4e74-a414-66bb564e9a19,7ef25c95-9be5-4205-af36-c631e68b1dca,2020-02-18 05:10:21,1.000000
32,5425c4cd-f1e7-4934-9ca2-4446fde27428,01b28ae1-988b-4fe9-bcf2-f09cf4c9eb59,74c111ba-1e2c-4446-a12b-5452f8c9ad7c,6f9b772d-7bc5-4037-85b5-34da1abff7e1,2020-02-18 05:11:24,0.200000
33,218580e2-6cd0-41da-a306-732b612f43af,95b5a6e8-69e0-4af2-9ff1-7f3b1b5b67b3,df26bd11-f3ce-4708-9d76-adb6c17ee656,deb661b4-3ef2-4af7-9544-4d05a91b9765,2020-02-18 05:12:27,1.000000
34,f733a5cb-912c-4e18-a063-59835093f07c,f434f925-3e3b-401e-b112-feecf826bb08,3af186de-9d13-4bb2-ba0d-65f864eada94,378e7974-cd79-458e-a0e4-48425a9cbe89,2020-02-18 05:13:30,0.200000
35,e1587c7f-4bc6-429b-bc61-bca37ccefa04,f7ac9057-f4e8-4327-8cb7-8448ddd0fcff,9712f556-ea84-423e-9a1e-234ec69168e4,5a114428-8d60-4fb2-b2fc-0e06916bf589,2020-02-18 05:14:34,1.000000
36,7393face-049d-4baf-82db-bf6aab556a2e,e8ad8f89-6bdf-4b2b-935e-3126b7f90293,ad32f7c8-4bb9-42f2-a73e-ae5a36759430,3cce9fd6-ca5c-452b-a4c3-7b12cd512b61,2020-02-18 05:15:37,0.200000
37,ed3766a5-c01c-41de-872e-82f9663b819f,3def2720-8303-4fa0-bffc-8705aa5a5194,15894e27-a84a-4c9e-970e-062979d6dbd5,9fca509e-deb7-4b7b-a5de-87c086f22184,2020-02-18 05:16:40,1.000000
38,c51a5108-d087-4855-85ce-fb8d9882551f,5525b349-c8da-44a2-a6de-a6ca0baadc5d,1119131c-c9d7-4387-aaa0-39278906fba9,5287e5a6-db48-4dd4-9889-53c64e17ca0e,2020-02-18 05:17:43,1.000000
39,d2587257-5fd1-453d-a4a4-2884751b33b0,b0f77abf-b7aa-4b33-b679-57b8610c0fc4,fb50e5c2-30ba-4a92-bd28-7f3a42659212,732305d5-d711-43b2-a5ea-727036f72dbb,2020-02-18 05:18:46,0.200000
40,330595b5-e2fa-44b0-a0f4-668c81f25734,be4999a3-b4cb-40f0-a28c-8c402dabd933,ee42608e-a634-47e9-a97c-d2dd9b5f86ca,9e709b30-c9da-4ad8-9695-ca4751037d87,2020-02-18 05:19:50,0.200000
41,2c537de0-9e10-4081-aad8-bdf906e20822,979b8d52-2528-41b7-b243-46435cb4adcf,a6db8db1-e6c9-4e5c-80e5-76ab09e05bb2,55477b92-010f-47f4-91ac-158844a8654c,2020-02-18 05:20:53,1.000000
42,c9c0c3fd-bc26-4424-ad74-0b407a847e02,43f2bcbc-4877-44ee-af16-8dbdbc74c55c,c4f5395d-acb1-4677-909d-fb73984003af,1ee35a62-c359-4a99-9b3c-da7149153300,2020-02-18 05:21:56,0.200000
43,0008d24b-618a-47ee-a375-92e41372ec5a,d9b41c73-3d26-4fff-8b61-27613356daf5,b7f17ef9-d5e6-472a-a0f8-f2a98199db5a,aef4717b-cf4d-4613-b8f0-069ff48ea9cf,2020-02-18 05:23:00,0.200000
44,d666ddd6-839a-4263-aee4-7ba7697ae3ca,b23901bb-1074-4bee-a04d-8b5952debd9f,a13c54aa-0694-4eee-8db2-2a73c8a169a9,447c046b-bb84-4d96-ac52-19aaea1f1f65,2020-02-18 05:24:03,0.200000
45,cb3a2d51-55f4-4c3e-9dea-7e6125da1cda,fc51f8ba-b8ae-45b6-896f-5963fa1242c8,a4f3b74f-b6c8-4cc7-aaaa-32b27bdbf14a,aeb23e24-694e-47ac-863d-70aaf11c5f1e,2020-02-18 05:25:07,1.000000
46,9b88802e-5b90-4bc5-bbc0-b5019a3efb5c,ae3fc43a-f005-4850-ba78-50525dae2ba6,a16873fa-5127-4bab-b6b3-3f09dfe9dc15,0d7240c4-30f0-4902-8f2e-9140cc817857,2020-02-18 05:26:10,0.200000
47,d5ffc76e-cfc8-4f68-b809-6d2bbc34db6a,9160f952-3b74-49c9-b4d0-22bdda4e11d3,d34534ed-6206-479c-bbbb-4308e3e16933,e07eac2f-378a-4a76-bf58-c7d03650291e,2020-02-18 05:27:13,0.200000
48,c02d0768-f16b-471d-81a1-e6990e808014,34f9de54-177c-4edb-bb07-200be797b9c1,70cf503b-d172-4d68-988b-7147085d00aa,822fd8b7-7f45-4706-be68-e713a15f779d,2020-02-18 05:28:16,1.000000
49,a95dc692-9322-4015-8199-6f202c0326b5,4463d60a-eb7b-487e-9cb1-612f4544faec,73eaa010-58bb-4795-b3c2-60153a5f3803,4b1069e9-3651-40da-9985-88af3d0d3eb1,2020-02-18 05:29:20,0.200000
50,213d248e-3266-4698-b04d-ed6caef8a475,dd1bea8d-e408-43d0-86fb-b9505c717818,33b7b71c-cbbe-4850-8abc-352d7c0b73c0,47a3fc1a-c75e-417d-b9b7-f35f5a4f16a1,2020-02-18 05:30:24,1.000000
