app_number,app_id,trigger,burn,sink,deploy_date,token_interval
1,dac6a61a-ab2c-466a-8b20-dbc1f1d2589f,aa060780-5768-479c-804c-e60e0442662c,3dfa69fd-9d27-402e-8872-4c755fc73526,b48bacb0-fe2c-436b-a6e9-426dfe7cb5bf,2019-07-31 22:05:33,1.000000
2,d9e3a0d4-cec2-463f-991c-e31767096af1,d636b5e6-7603-49ef-b9bb-e473caf3d67a,e634d5e7-c8d4-4096-8db3-f0bbc5520c95,62442b03-a27c-4bba-b241-0dae1b9e6cba,2019-07-31 22:06:37,1.000000
3,e3c65296-3577-4983-9f88-1fe4b275f6fc,767ea579-aae8-4d94-91f1-72b9e45b5754,7c10589a-2fbe-4f8b-bf2d-2a1a45b4cd30,05fb71e7-2f75-4123-8501-0fa8baa3beb7,2019-07-31 22:07:42,1.000000
4,23057974-2a05-4229-ae21-038a4631dcf2,4209cac1-b00f-44a4-8961-33970cccbc9a,196f9b07-2fb2-430a-8b67-5df1a9554f6a,59cdbd92-b032-400f-b1fb-5d5c9f645fee,2019-07-31 22:08:46,0.200000
5,77dab744-3eae-4030-ac95-7644eb013674,54e5f94b-4b98-4aac-b843-85a010864a67,79e761ee-8f08-461b-9002-4e2ede074713,64b3447a-f59d-46da-98be-245fa485c7f8,2019-07-31 22:09:49,0.200000
6,38c62626-b602-4632-bdd3-8bca05134239,37b4563f-63a3-43b8-9568-069935b2b350,432765c6-98ac-4d82-a3fb-199a655784ea,9e048c7e-3917-4ebc-bac4-cdd617dbd3d7,2019-07-31 22:10:53,0.200000
7,8e9f566e-3749-4f66-8039-c6f23bf8c6cb,804b24d7-628d-4643-bb7c-216838fd5e97,4e78a18d-65b4-4157-83a3-98f355accefd,e99d7bbe-4f3a-4ed5-9306-ed2215eba8ab,2019-07-31 22:11:57,0.200000
8,7a0af6c5-96af-4dff-8ad9-b3b016d0395c,c3a685e4-b9cf-4753-a8e2-4b42c21ea6af,106a18a4-23a5-4d30-bf05-372fb2f80e01,f7577cea-1545-47fb-9d57-a8372aa5c934,2019-07-31 22:13:01,1.000000
9,5364ac16-9e29-4f10-9d22-46bbeffec851,594db657-8ed7-44b1-baea-38067d7ce749,d8b84239-3cf8-4123-9fa1-48f73a3c3fa9,edc43afb-ac6c-4fbf-bf87-26cd45f8cbbc,2019-07-31 22:14:05,0.200000
10,5e70c2a3-374d-46a1-a834-232d5d6179f8,b1cb8269-c9a8-4dc1-9f11-688bc8343923,5c907337-662f-4627-8164-8991b832ab79,f99f30e8-dda0-4542-9e8b-768044c2f033,2019-07-31 22:15:09,0.200000
11,43c317e8-0a76-4997-9964-d6c549f073fa,b36bc0ea-4e11-4938-850b-ec603851c624,8130a246-0939-4d4b-976e-61960d4315ac,f32ccd37-63dc-4475-901c-3cb9262e34ca,2019-07-31 22:16:13,0.200000
12,8cf5a5f1-da89-47dc-93b8-89d037361271,445c2d2f-1a50-4ae0-b113-7ce7405524c0,9ccd7c09-2e3d-4a84-8270-49057f4e1496,9e46b19b-e2d3-4e32-92d8-3001cfeb7494,2019-07-31 22:17:16,1.000000
13,c6e3e295-d827-4511-b58b-a5fb19590bb5,dd8589f1-34e8-4671-97b6-cf494eb812f6,4bbbe4bd-e810-4dd4-9246-bdfa510b7349,64c1e176-ce42-4a6c-a98d-48ac863147fd,2019-07-31 22:18:20,0.200000
14,ffcd1a5d-4c9f-43d4-8a84-bc10508d6f80,57a40793-6e22-427a-adf1-04d67cc27aab,fcc565de-605f-41e5-997a-a3d6c1d30f46,690fde50-76a4-4d4c-b689-0381c24b6240,2019-07-31 22:19:24,0.200000
15,b3f2bbec-480f-4715-b460-9b7d17404311,0c74121d-e503-44cf-afb0-b2cffe144e37,80dfbce8-506d-4b8c-aabe-4c8e1636b475,e84cf24e-1ea3-476b-9d78-853ead44a3b2,2019-07-31 22:20:28,1.000000
16,cdb45ff0-da35-4a3c-a023-74fa74a0341d,52f75786-1a0a-44f9-bfe9-e9711a2687e8,0b80486d-8686-4796-b423-a04ae66b9cb1,e667cc0a-0ee7-42eb-b397-8bba783a4a42,2019-07-31 22:21:32,1.000000
17,fdb2ea13-be48-4cb2-9210-706e89eb48f3,94770bbf-a7f5-4356-b44c-ef3dc766f5d9,7c0d24b9-4978-4077-bfe9-ff21146fb0c3,701dd68d-0417-461e-914a-6ecf29400167,2019-07-31 22:22:36,0.200000
18,0a47bff9-6368-48b9-8118-b46f745372d4,a8d862e9-dbd2-46ec-a74f-b9a52faaddce,e2bcd162-b083-4b70-965e-0a5315c65a6a,b0b7a560-5662-438a-8cbb-b4511e668ac9,2019-07-31 22:23:40,1.000000
19,c0c6255a-36af-49b6-8583-bf9f2604c8f2,4da4ef61-2c43-4936-93a9-ed3c3aa89b34,53e65780-e19f-439c-a387-254db6ff56e1,e1955204-6151-43ec-ad47-a0fc4e44ef70,2019-07-31 22:24:44,0.200000
20,ffb7c32e-03f5-42cd-a130-92d4af03eabf,306a7c80-af09-4f8f-b947-130b553faa23,ed8296ad-c9ea-4df9-908f-86e22b45f4fd,1fb704d8-dbf0-4ff0-9b99-7d92d03bbc8f,2019-07-31 22:25:48,1.000000
21,e6749474-9aa6-468d-b903-f64dae57db49,8e83bcd2-158f-4342-b3fb-ae1fb32e4509,d9fe30bf-ec16-45b1-b299-51632c1a6149,1f8743ef-0f2e-4e0c-acc8-327504f4b326,2019-07-31 22:26:51,0.200000
22,22e0079a-f0b7-40e8-9cc6-72113d9ac522,98652dba-1a0c-4f3f-bf5d-00c5d790f19f,c0eec718-f644-4b6f-81be-b2624d1ab2ca,c4797831-0719-41d1-bf31-7c5821250a39,2019-07-31 22:27:55,0.200000
23,06360a4b-0644-47e2-9f4d-a076cc1597bc,8c5e10cb-70cc-4a54-bfbe-b32cfb7c8d28,709cba0b-c365-4426-a71c-88e840234821,3be02ab2-90ed-422e-b50a-9f9c29e5fe15,2019-07-31 22:28:59,0.200000
24,7c9a9ee2-cc35-45c8-922b-362069bb2522,50b83b82-27cc-40d1-892c-f275672327c0,31484bcd-607f-45a3-9e07-7f7b38b5ca49,553403ba-ad27-4c43-a5dc-829006576f0d,2019-07-31 22:30:02,1.000000
25,84c32d0b-7781-434f-8812-c60742c112c7,30195b84-4813-479e-ad83-f0eb4e188e98,551a95a8-94ef-419e-ae6f-0c962f34356e,609c19ba-3cff-4ac9-90de-325572949bde,2019-07-31 22:31:06,1.000000
26,534a769c-c9e8-4145-997a-0631e3097139,2a46d5b0-61dc-482f-b6ad-c8161f156051,dca69ad7-26c1-4fcb-a2c2-4afd6ffd8bc9,15554837-3dae-4050-9f20-320d94d11c0d,2019-07-31 22:32:10,1.000000
27,f26173eb-8da6-4fcb-bef2-bfc4fa3d8b40,166d3b36-6baf-4f17-90eb-90cd940b1275,c9cd850e-9aa6-4812-8ac2-a0e4f93588cb,a88edbf6-bad6-411c-b269-b08f8db35a2e,2019-07-31 22:33:14,0.200000
28,df351e1f-ba28-42e2-9a3a-54c1eb97ff03,8d77d7ad-d744-489c-a00d-8bcae05ad1df,b12968ca-5b49-4c6c-8255-d96ca050d981,860135f3-22f7-4458-84f6-78c3da005611,2019-07-31 22:34:18,1.000000
29,950e8847-9e8f-4f13-b102-d29d245f2263,6bd729bc-65c9-4d55-a8d5-e4f8c28ed478,9299c4f8-676d-41e3-8a4f-52801fa4d517,c12e1a59-0d49-4e26-9ec3-e3549e8b863e,2019-07-31 22:35:22,1.000000
30,8770818d-4229-4312-b5e7-0bcbcc8a4cac,f72b48ba-d9e7-4021-9900-9b13df659c47,bc24ba75-97da-4168-9bf9-c86356c3b784,0d256c15-94f8-41e5-9dcc-d7ccc6790e1d,2019-07-31 22:36:26,1.000000
31,5ba9c642-4967-454e-8449-7d0900c09a1f,9313e229-4079-4eac-b1b3-36ddeb580977,55924610-04a3-42b2-a158-bbd940ebb4a9,86c53a3f-03b7-4c45-b3ba-53c79e14db64,2019-07-31 22:37:29,1.000000
32,c4f0a72f-1f63-4c33-85be-03b85246f3e2,dd77befa-3b5a-4562-b0b0-e51bd2197a62,4c6adcc0-5409-40e8-a1f6-a69943ee5f8b,c208dddc-c9e4-4448-b00e-b0a7d2134df0,2019-07-31 22:38:33,0.200000
33,58bfa7fb-59a7-4f29-a1f6-d1b98d6fbac1,7b76b082-eb9a-4574-b0b1-9e645affb28e,d189c506-759b-417a-aaf5-e5b109cf86de,a12e3865-1bbf-417b-bdf2-513d5371290d,2019-07-31 22:39:37,1.000000
34,59782d0c-da82-49d4-abe6-0d06218470fa,f57d4b5f-0591-49fd-b55a-cc3f42bf6e28,67fa8704-2d53-4bfd-a8b7-1f0b6661380b,acf22383-8d0a-4431-9b35-dd5bcc320c80,2019-07-31 22:40:41,0.200000
35,a8d50564-5fa7-4a7f-b67d-ae7b7f7ae14f,e8317cbc-3ed0-437d-b5b0-ce83e89d6b94,2e676f26-b95e-4d6b-bd40-b78ef176dcaf,5ad5299a-bfa2-42ca-b00a-33a4f3680412,2019-07-31 22:41:45,1.000000
36,c0affe5c-7b88-4b79-97bd-009d36de6e4c,1cdfd370-749c-4851-a77b-3aef401f4996,9199e871-ca9c-4ede-95e0-054c2e4f7e0c,623c531b-a019-486a-907a-c2713b0b915c,2019-07-31 22:42:49,0.200000
37,1ecf7e53-bbe3-41c3-b2ae-d74824fa62c1,496746a2-e7ad-41ad-9bd2-58dbe90a5d7c,a1993893-62c1-4b42-9243-aa00fcf0e087,193b606e-d8d2-4d07-acc0-579cfcdc1f16,2019-07-31 22:43:53,1.000000
38,5bb22919-bc53-4341-9d16-8045ac79bf90,30ca6095-51da-4b4b-bfcb-0fb301043755,ceb8e613-6628-4c64-8b31-6fc7e895c0db,1fdb43b8-4fad-4918-9b7c-b658ef97aee8,2019-07-31 22:44:56,1.000000
39,bbd00e68-1f24-44ab-9cdb-2424d25c3588,cacf6e79-96cd-4454-a1b4-5deba6ad40d4,1713d645-d210-404a-a671-cc43c95b56b6,2de1795e-d712-4f9f-90af-fc8b01f481fe,2019-07-31 22:46:00,0.200000
40,04af1775-b59b-49c4-bd3e-01020292f995,73d36e21-40d1-4c2d-95d5-c59a0479fe27,32be3a35-8fee-4fdb-9722-5cd4fa923a75,0a230726-305d-48bb-890e-34a40fd5dae3,2019-07-31 22:47:04,0.200000
41,25088f08-294e-4015-b1b2-1f92e02c4537,ca731795-042d-47d9-9fb2-ce967c3e117e,b142a143-a15b-4a8d-9200-d02207ef282b,9f17b052-e955-416a-b1d6-828cd57cf064,2019-07-31 22:48:08,1.000000
42,dccedd0b-d557-406d-985f-c8f684d999e6,a2e836dc-a548-441a-9957-68552187f08c,f6d30b73-3483-405a-ab37-9b2a88b2ebd3,e80742b7-5bee-40b3-9f83-5b273a8938b2,2019-07-31 22:49:11,0.200000
43,039cac5f-feb7-4394-8432-2662d12887d8,8c95cc5b-a93d-4e3b-a141-6daefe289e17,53591d1f-a10f-4ded-b5fb-627acbc932e0,518b1ad2-118d-49c0-811f-ad6c2c5066f0,2019-07-31 22:50:15,0.200000
44,80ebb498-9826-438d-aa76-02271fbf39bb,1c6bd2a8-a07e-462d-b67f-2da224541e0e,f0928c71-87cd-4b1b-b8b8-76144528748b,4e755116-f9c3-4462-981f-e0a3aecd7c3a,2019-07-31 22:51:19,0.200000
45,faf31a8b-d1a3-4507-b4de-15646b71b922,2ccefca7-9a50-431d-846f-763e682f6dad,03062b49-f281-480b-897a-fad44584a755,1e2d7e38-4a10-415f-b2b5-699362013b67,2019-07-31 22:52:23,1.000000
46,ffae85d7-132d-4d72-986f-3d8356f5a837,d1ce275c-1a06-4743-962f-2ce8bf2aa960,73eb3a72-3bdb-4034-8883-7726a5b61db4,d34e3ce6-d216-472f-9644-25d19d2afc55,2019-07-31 22:53:27,0.200000
47,63ebddc5-70ea-4b32-bd33-ab58f6372c5c,9a4487b1-0521-443f-b70a-4926f521bbed,c58df4b5-9d00-4c66-8a5f-af193017f15a,4c9f3115-bee7-4f5e-9e28-24a455abdd10,2019-07-31 22:54:31,0.200000
48,ebf26aed-cf9e-463f-a67c-c550503e5a5f,d14ea17c-6241-4583-8bd8-0b28a5773ce1,700ba6c5-1881-49f0-96b4-fca39654216d,777e8a2d-9e33-42c8-837d-5fc517434307,2019-07-31 22:55:35,1.000000
49,e4aabf53-35c7-45ff-884a-9cbc25028e33,18d2c80d-aefe-40dc-bb94-f9d8e925499a,8bee9767-90a9-46e2-9742-9044478f2ee6,dc1053f0-b298-4ca1-a9f6-908b51e280fc,2019-07-31 22:56:39,0.200000
50,84858d29-5036-4df4-8c6d-158036d59bc9,d5f150a8-2053-4d82-b6c7-8e782074bd7f,536147fa-bfab-4195-a8e8-ab4268525dd7,a8416188-899a-4370-9d1b-6fb52ca78327,2019-07-31 22:57:42,1.000000
