node,ip,uuid
node-a8-199.grenoble.iot-lab.info,172.20.64.2,06f4b7d5-5a11-422b-854e-2b7e618edd41
node-a8-200.grenoble.iot-lab.info,172.20.64.3,88e0d0a5-e0d9-4022-95a3-2aa269856c58
node-a8-201.grenoble.iot-lab.info,172.20.64.4,c710eca6-95be-4c63-8379-82fdcdcd8193
node-a8-202.grenoble.iot-lab.info,172.20.64.5,9fa11fd0-d187-4fa9-b36b-bc7e69feeb07
node-a8-204.grenoble.iot-lab.info,172.20.64.6,c12bfa9b-c513-4c26-9599-2d3bc539538a
node-a8-205.grenoble.iot-lab.info,172.20.64.7,3e4b25e8-110e-4e43-beb8-a13c8680557f
node-a8-206.grenoble.iot-lab.info,172.20.64.8,08b875b7-b124-405a-84ea-8510bed9f2a6
node-a8-207.grenoble.iot-lab.info,172.20.64.9,878b8f6c-81ca-4627-98f5-647d66bd03f7
node-a8-208.grenoble.iot-lab.info,172.20.64.10,8cfa763b-f98d-440c-ad67-ca1df2f62a4c
node-a8-209.grenoble.iot-lab.info,172.20.64.11,9defc955-ea7a-4dd8-8835-69a8acb1e498
node-a8-210.grenoble.iot-lab.info,172.20.64.12,9b1b9fa4-257a-44c0-aa28-be2d463c1caa
node-a8-211.grenoble.iot-lab.info,172.20.64.13,3b82b4ee-ee12-4d74-b588-6651e43dc514
node-a8-212.grenoble.iot-lab.info,172.20.64.14,0b859674-7ca3-43ba-b78d-9ff1094525eb
node-a8-214.grenoble.iot-lab.info,172.20.64.15,9231bbc5-fa4f-4096-b492-4d2dd5a980d7
node-a8-216.grenoble.iot-lab.info,172.20.64.16,808e5844-5f29-4e37-8680-e780cb4d32d7
node-a8-217.grenoble.iot-lab.info,172.20.64.17,90e04564-02a6-4eab-9b04-95b0b4dc02b8
node-a8-218.grenoble.iot-lab.info,172.20.64.18,aa8e0b9c-7e5a-41b6-8c10-ac819218e0d6
node-a8-219.grenoble.iot-lab.info,172.20.64.19,1aae4fb1-0414-4f04-bd29-04d7318fa156
node-a8-220.grenoble.iot-lab.info,172.20.64.20,8ac3a08d-b1aa-474c-8dd6-ee94cabdb6c7
node-a8-221.grenoble.iot-lab.info,172.20.64.21,01ce736e-e2a5-4562-879d-d18376985b57
node-a8-165.grenoble.iot-lab.info,172.20.64.22,1a6b0c8d-77c1-4e0a-ba06-d5f73a708bb6
node-a8-166.grenoble.iot-lab.info,172.20.64.23,3ca62bac-1614-4223-a0a0-4ffeaa229db9
node-a8-167.grenoble.iot-lab.info,172.20.64.24,b1e2e142-8ebe-4993-93f1-72c734f76c7f
node-a8-168.grenoble.iot-lab.info,172.20.64.25,a7508848-209a-4403-862f-a08f2b28b05f
node-a8-169.grenoble.iot-lab.info,172.20.64.26,43e78302-3fbd-435c-930c-080bebd9fa8f
node-a8-170.grenoble.iot-lab.info,172.20.64.27,79e4e015-d3a5-4ce7-a4be-b954968e4a81
node-a8-171.grenoble.iot-lab.info,172.20.64.28,e4d85dbc-a333-4f3e-b8c1-0552ac2c1217
node-a8-173.grenoble.iot-lab.info,172.20.64.29,63689961-dff3-4e63-8382-a2c3e2ffeaf8
node-a8-174.grenoble.iot-lab.info,172.20.64.30,3fb28736-3ad7-4037-9e03-8bdb03b38de0
node-a8-175.grenoble.iot-lab.info,172.20.64.31,80374883-fa75-468c-abda-5f6bb5a9ae8b
node-a8-176.grenoble.iot-lab.info,172.20.64.32,0bc814c4-45b3-433c-bd18-025e89791161
node-a8-177.grenoble.iot-lab.info,172.20.64.33,a1c40ff0-bd6f-45e6-89fe-255879b188b5
node-a8-179.grenoble.iot-lab.info,172.20.64.34,43f3b37f-7267-46d1-982e-78ece70d7f4e
node-a8-180.grenoble.iot-lab.info,172.20.64.35,ceffd162-50a8-4b7f-a3ff-21784b5811fc
node-a8-181.grenoble.iot-lab.info,172.20.64.36,2d0644ee-4d73-499b-9b62-13e84fd6061d
node-a8-182.grenoble.iot-lab.info,172.20.64.37,8c75d4eb-fa5c-461a-807d-e8d07955685d
node-a8-183.grenoble.iot-lab.info,172.20.64.38,7e910565-b1a3-49dd-8734-5f09ad5659b8
node-a8-184.grenoble.iot-lab.info,172.20.64.39,075867c1-c89c-469c-83da-55b2f82ce423
node-a8-185.grenoble.iot-lab.info,172.20.64.40,221af40f-dc44-4b11-b8ed-afe3f22934cb
node-a8-187.grenoble.iot-lab.info,172.20.64.41,352d6fc8-a210-4392-9f51-df66030517cd
node-a8-188.grenoble.iot-lab.info,172.20.64.42,41c4f658-1857-4dfc-a54b-6e7a4fadad0c
node-a8-189.grenoble.iot-lab.info,172.20.64.43,256fc859-fa06-4b76-8f05-99817d88be7c
node-a8-190.grenoble.iot-lab.info,172.20.64.44,debd6e91-71be-4a43-968c-634eb78c4746
node-a8-191.grenoble.iot-lab.info,172.20.64.45,197ecfbd-d87d-4219-bd8f-92e1425a8e81
node-a8-192.grenoble.iot-lab.info,172.20.64.46,5226d2a5-c31e-4f44-939b-221ea51d551c
node-a8-193.grenoble.iot-lab.info,172.20.64.47,1146a07f-f828-4755-a687-0ef328bd6325
node-a8-194.grenoble.iot-lab.info,172.20.64.48,96ba3afd-525c-44c5-8cfb-75cf0f96cef6
node-a8-195.grenoble.iot-lab.info,172.20.64.49,cc3b3203-48d8-4d3d-8df4-d9862621dc3b
node-a8-197.grenoble.iot-lab.info,172.20.64.50,ccb3dd9a-44a1-4805-8ca8-8617e52725ce
node-a8-198.grenoble.iot-lab.info,172.20.64.51,4ea7ce88-f7f9-40a6-ac5c-faca4fcfa932
suno-14.sophia.grid5000.fr,172.16.130.14,6add7207-5647-4d03-a747-bc1c67843297
suno-15.sophia.grid5000.fr,172.16.130.15,2ed4ac4c-da1c-4773-98cd-4474d5643a6b
suno-2.sophia.grid5000.fr,172.16.130.2,03e6e5b0-eb14-4377-9276-1b7650e2a4e7
suno-24.sophia.grid5000.fr,172.16.130.24,4eb87617-f657-4aca-831e-2e2951b84017
suno-25.sophia.grid5000.fr,172.16.130.25,c2403169-8e4f-40ab-9adc-50f0367aa79e
suno-27.sophia.grid5000.fr,172.16.130.27,aacce57c-c4e4-4001-87f5-2f5bca43810b
suno-28.sophia.grid5000.fr,172.16.130.28,23bedf99-5178-4b07-be15-64c9328821af
suno-30.sophia.grid5000.fr,172.16.130.30,5f823fcc-38e4-48c5-8216-9f1f8f004718
suno-32.sophia.grid5000.fr,172.16.130.32,ef2d44f4-c099-414e-a1a9-f245b15b45b0
suno-33.sophia.grid5000.fr,172.16.130.33,5413e030-6516-461e-9c1e-98f48e55e852
suno-34.sophia.grid5000.fr,172.16.130.34,034f4682-6fa2-4423-8b57-a455f863ed37
suno-36.sophia.grid5000.fr,172.16.130.36,3fa833ae-f4f7-45b1-8bff-8677a5144bc4
suno-37.sophia.grid5000.fr,172.16.130.37,3b14e8bf-628e-4969-a25b-8c3900342f10
suno-43.sophia.grid5000.fr,172.16.130.43,2d6ec05b-4b59-4650-a6e9-d484781fb19f
suno-44.sophia.grid5000.fr,172.16.130.44,869937fb-03ba-45a3-af5b-83ddcbe9604e
suno-8.sophia.grid5000.fr,172.16.130.8,0829c6cc-8ba1-43a2-9ce8-0a5e3fde45d7
