date,trigger,state
2019-11-27 02:53:34,756204c0-975a-4ec5-9b07-afc528031e3c,A
2019-11-27 03:00:26,756204c0-975a-4ec5-9b07-afc528031e3c,S
2019-11-27 03:05:13,756204c0-975a-4ec5-9b07-afc528031e3c,A
2019-11-27 03:11:47,756204c0-975a-4ec5-9b07-afc528031e3c,S
2019-11-27 03:17:41,756204c0-975a-4ec5-9b07-afc528031e3c,A
2019-11-27 03:28:19,756204c0-975a-4ec5-9b07-afc528031e3c,S
2019-11-27 03:35:34,756204c0-975a-4ec5-9b07-afc528031e3c,A
2019-11-27 03:38:01,756204c0-975a-4ec5-9b07-afc528031e3c,S
2019-11-27 03:39:42,756204c0-975a-4ec5-9b07-afc528031e3c,A
2019-11-27 03:44:20,756204c0-975a-4ec5-9b07-afc528031e3c,S
2019-11-27 03:49:20,756204c0-975a-4ec5-9b07-afc528031e3c,A
2019-11-27 03:59:15,756204c0-975a-4ec5-9b07-afc528031e3c,S
2019-11-27 03:59:19,756204c0-975a-4ec5-9b07-afc528031e3c,A
2019-11-27 04:03:59,756204c0-975a-4ec5-9b07-afc528031e3c,S
2019-11-27 04:05:43,756204c0-975a-4ec5-9b07-afc528031e3c,A
2019-11-27 04:12:26,756204c0-975a-4ec5-9b07-afc528031e3c,S
2019-11-27 04:12:33,756204c0-975a-4ec5-9b07-afc528031e3c,A
2019-11-27 04:15:15,756204c0-975a-4ec5-9b07-afc528031e3c,S
2019-11-27 04:22:08,756204c0-975a-4ec5-9b07-afc528031e3c,A
2019-11-27 03:26:05,196a192c-d846-4143-9bc7-6f1a876a2697,S
2019-11-27 03:27:19,196a192c-d846-4143-9bc7-6f1a876a2697,A
2019-11-27 03:33:04,196a192c-d846-4143-9bc7-6f1a876a2697,S
2019-11-27 03:46:24,196a192c-d846-4143-9bc7-6f1a876a2697,A
2019-11-27 03:54:09,196a192c-d846-4143-9bc7-6f1a876a2697,S
2019-11-27 03:56:40,196a192c-d846-4143-9bc7-6f1a876a2697,A
2019-11-27 04:13:03,196a192c-d846-4143-9bc7-6f1a876a2697,S
2019-11-27 04:19:10,196a192c-d846-4143-9bc7-6f1a876a2697,A
2019-11-27 04:33:58,196a192c-d846-4143-9bc7-6f1a876a2697,S
2019-11-27 04:39:13,196a192c-d846-4143-9bc7-6f1a876a2697,A
2019-11-27 02:47:47,0ee47b63-e29f-4436-9b23-05ef1c540a92,S
2019-11-27 02:51:54,0ee47b63-e29f-4436-9b23-05ef1c540a92,A
2019-11-27 03:02:18,0ee47b63-e29f-4436-9b23-05ef1c540a92,S
2019-11-27 03:03:52,0ee47b63-e29f-4436-9b23-05ef1c540a92,A
2019-11-27 03:11:22,0ee47b63-e29f-4436-9b23-05ef1c540a92,S
2019-11-27 03:11:37,0ee47b63-e29f-4436-9b23-05ef1c540a92,A
2019-11-27 03:13:02,0ee47b63-e29f-4436-9b23-05ef1c540a92,S
2019-11-27 03:30:19,0ee47b63-e29f-4436-9b23-05ef1c540a92,A
2019-11-27 03:36:05,0ee47b63-e29f-4436-9b23-05ef1c540a92,S
2019-11-27 03:39:40,0ee47b63-e29f-4436-9b23-05ef1c540a92,A
2019-11-27 03:42:52,0ee47b63-e29f-4436-9b23-05ef1c540a92,S
2019-11-27 03:43:08,0ee47b63-e29f-4436-9b23-05ef1c540a92,A
2019-11-27 04:01:43,0ee47b63-e29f-4436-9b23-05ef1c540a92,S
2019-11-27 04:02:09,0ee47b63-e29f-4436-9b23-05ef1c540a92,A
2019-11-27 04:05:00,0ee47b63-e29f-4436-9b23-05ef1c540a92,S
2019-11-27 04:18:33,0ee47b63-e29f-4436-9b23-05ef1c540a92,A
2019-11-27 04:21:51,0ee47b63-e29f-4436-9b23-05ef1c540a92,S
2019-11-27 04:24:18,0ee47b63-e29f-4436-9b23-05ef1c540a92,A
2019-11-27 04:24:56,0ee47b63-e29f-4436-9b23-05ef1c540a92,S
2019-11-27 04:30:09,0ee47b63-e29f-4436-9b23-05ef1c540a92,A
2019-11-27 04:34:49,0ee47b63-e29f-4436-9b23-05ef1c540a92,S
2019-11-27 04:38:46,0ee47b63-e29f-4436-9b23-05ef1c540a92,A
2019-11-27 03:11:39,ecf90939-c421-4698-8330-7232281cdce4,A
2019-11-27 03:15:08,ecf90939-c421-4698-8330-7232281cdce4,S
2019-11-27 03:17:24,ecf90939-c421-4698-8330-7232281cdce4,A
2019-11-27 03:19:26,ecf90939-c421-4698-8330-7232281cdce4,S
2019-11-27 03:20:00,ecf90939-c421-4698-8330-7232281cdce4,A
2019-11-27 03:22:35,ecf90939-c421-4698-8330-7232281cdce4,S
2019-11-27 03:29:27,ecf90939-c421-4698-8330-7232281cdce4,A
2019-11-27 03:30:55,ecf90939-c421-4698-8330-7232281cdce4,S
2019-11-27 03:41:10,ecf90939-c421-4698-8330-7232281cdce4,A
2019-11-27 04:20:15,ecf90939-c421-4698-8330-7232281cdce4,S
2019-11-27 04:30:10,ecf90939-c421-4698-8330-7232281cdce4,A
2019-11-27 04:30:13,ecf90939-c421-4698-8330-7232281cdce4,S
2019-11-27 04:30:56,ecf90939-c421-4698-8330-7232281cdce4,A
2019-11-27 04:33:59,ecf90939-c421-4698-8330-7232281cdce4,S
2019-11-27 04:35:21,ecf90939-c421-4698-8330-7232281cdce4,A
2019-11-27 04:36:42,ecf90939-c421-4698-8330-7232281cdce4,S
2019-11-27 02:39:00,79364f99-314f-4a23-b0b4-64a0d4c26fdb,S
2019-11-27 02:43:03,79364f99-314f-4a23-b0b4-64a0d4c26fdb,A
2019-11-27 02:43:52,79364f99-314f-4a23-b0b4-64a0d4c26fdb,S
2019-11-27 02:49:05,79364f99-314f-4a23-b0b4-64a0d4c26fdb,A
2019-11-27 02:53:58,79364f99-314f-4a23-b0b4-64a0d4c26fdb,S
2019-11-27 02:58:57,79364f99-314f-4a23-b0b4-64a0d4c26fdb,A
2019-11-27 03:01:32,79364f99-314f-4a23-b0b4-64a0d4c26fdb,S
2019-11-27 03:02:18,79364f99-314f-4a23-b0b4-64a0d4c26fdb,A
2019-11-27 03:12:54,79364f99-314f-4a23-b0b4-64a0d4c26fdb,S
2019-11-27 03:13:17,79364f99-314f-4a23-b0b4-64a0d4c26fdb,A
2019-11-27 03:20:56,79364f99-314f-4a23-b0b4-64a0d4c26fdb,S
2019-11-27 03:26:15,79364f99-314f-4a23-b0b4-64a0d4c26fdb,A
2019-11-27 03:26:45,79364f99-314f-4a23-b0b4-64a0d4c26fdb,S
2019-11-27 03:33:07,79364f99-314f-4a23-b0b4-64a0d4c26fdb,A
2019-11-27 03:35:11,79364f99-314f-4a23-b0b4-64a0d4c26fdb,S
2019-11-27 03:35:24,79364f99-314f-4a23-b0b4-64a0d4c26fdb,A
2019-11-27 03:40:28,79364f99-314f-4a23-b0b4-64a0d4c26fdb,S
2019-11-27 03:41:09,79364f99-314f-4a23-b0b4-64a0d4c26fdb,A
2019-11-27 03:58:15,79364f99-314f-4a23-b0b4-64a0d4c26fdb,S
2019-11-27 04:00:32,79364f99-314f-4a23-b0b4-64a0d4c26fdb,A
2019-11-27 04:00:51,79364f99-314f-4a23-b0b4-64a0d4c26fdb,S
2019-11-27 04:04:17,79364f99-314f-4a23-b0b4-64a0d4c26fdb,A
2019-11-27 04:04:28,79364f99-314f-4a23-b0b4-64a0d4c26fdb,S
2019-11-27 04:11:29,79364f99-314f-4a23-b0b4-64a0d4c26fdb,A
2019-11-27 04:17:18,79364f99-314f-4a23-b0b4-64a0d4c26fdb,S
2019-11-27 04:38:00,79364f99-314f-4a23-b0b4-64a0d4c26fdb,A
2019-11-27 04:39:17,79364f99-314f-4a23-b0b4-64a0d4c26fdb,S
2019-11-27 03:17:04,ab039493-5922-42ce-98b7-8ff78664dedb,A
2019-11-27 03:18:55,ab039493-5922-42ce-98b7-8ff78664dedb,S
2019-11-27 03:28:23,ab039493-5922-42ce-98b7-8ff78664dedb,A
2019-11-27 03:42:30,ab039493-5922-42ce-98b7-8ff78664dedb,S
2019-11-27 03:44:06,ab039493-5922-42ce-98b7-8ff78664dedb,A
2019-11-27 03:45:40,ab039493-5922-42ce-98b7-8ff78664dedb,S
2019-11-27 03:47:33,ab039493-5922-42ce-98b7-8ff78664dedb,A
2019-11-27 03:54:01,ab039493-5922-42ce-98b7-8ff78664dedb,S
2019-11-27 03:58:55,ab039493-5922-42ce-98b7-8ff78664dedb,A
2019-11-27 04:06:26,ab039493-5922-42ce-98b7-8ff78664dedb,S
2019-11-27 04:06:29,ab039493-5922-42ce-98b7-8ff78664dedb,A
2019-11-27 04:06:48,ab039493-5922-42ce-98b7-8ff78664dedb,S
2019-11-27 04:09:09,ab039493-5922-42ce-98b7-8ff78664dedb,A
2019-11-27 04:12:20,ab039493-5922-42ce-98b7-8ff78664dedb,S
2019-11-27 04:13:06,ab039493-5922-42ce-98b7-8ff78664dedb,A
2019-11-27 04:24:07,ab039493-5922-42ce-98b7-8ff78664dedb,S
2019-11-27 04:24:54,ab039493-5922-42ce-98b7-8ff78664dedb,A
2019-11-27 04:25:20,ab039493-5922-42ce-98b7-8ff78664dedb,S
2019-11-27 04:27:33,ab039493-5922-42ce-98b7-8ff78664dedb,A
2019-11-27 04:29:47,ab039493-5922-42ce-98b7-8ff78664dedb,S
2019-11-27 04:30:06,ab039493-5922-42ce-98b7-8ff78664dedb,A
2019-11-27 04:39:31,ab039493-5922-42ce-98b7-8ff78664dedb,S
2019-11-27 03:01:12,66ebab0d-6173-4003-9612-54073dfda7d1,A
2019-11-27 03:07:15,66ebab0d-6173-4003-9612-54073dfda7d1,S
2019-11-27 03:09:45,66ebab0d-6173-4003-9612-54073dfda7d1,A
2019-11-27 03:10:30,66ebab0d-6173-4003-9612-54073dfda7d1,S
2019-11-27 03:10:33,66ebab0d-6173-4003-9612-54073dfda7d1,A
2019-11-27 03:13:23,66ebab0d-6173-4003-9612-54073dfda7d1,S
2019-11-27 03:21:39,66ebab0d-6173-4003-9612-54073dfda7d1,A
2019-11-27 03:24:25,66ebab0d-6173-4003-9612-54073dfda7d1,S
2019-11-27 03:24:28,66ebab0d-6173-4003-9612-54073dfda7d1,A
2019-11-27 03:30:33,66ebab0d-6173-4003-9612-54073dfda7d1,S
2019-11-27 03:34:56,66ebab0d-6173-4003-9612-54073dfda7d1,A
2019-11-27 03:42:17,66ebab0d-6173-4003-9612-54073dfda7d1,S
2019-11-27 03:43:27,66ebab0d-6173-4003-9612-54073dfda7d1,A
2019-11-27 03:47:23,66ebab0d-6173-4003-9612-54073dfda7d1,S
2019-11-27 03:48:10,66ebab0d-6173-4003-9612-54073dfda7d1,A
2019-11-27 03:48:28,66ebab0d-6173-4003-9612-54073dfda7d1,S
2019-11-27 03:59:01,66ebab0d-6173-4003-9612-54073dfda7d1,A
2019-11-27 04:00:24,66ebab0d-6173-4003-9612-54073dfda7d1,S
2019-11-27 04:06:08,66ebab0d-6173-4003-9612-54073dfda7d1,A
2019-11-27 04:10:35,66ebab0d-6173-4003-9612-54073dfda7d1,S
2019-11-27 04:11:54,66ebab0d-6173-4003-9612-54073dfda7d1,A
2019-11-27 04:14:41,66ebab0d-6173-4003-9612-54073dfda7d1,S
2019-11-27 04:16:06,66ebab0d-6173-4003-9612-54073dfda7d1,A
2019-11-27 04:24:55,66ebab0d-6173-4003-9612-54073dfda7d1,S
2019-11-27 04:26:25,66ebab0d-6173-4003-9612-54073dfda7d1,A
2019-11-27 04:30:03,66ebab0d-6173-4003-9612-54073dfda7d1,S
2019-11-27 04:30:21,66ebab0d-6173-4003-9612-54073dfda7d1,A
2019-11-27 04:34:19,66ebab0d-6173-4003-9612-54073dfda7d1,S
2019-11-27 02:36:13,bb74ff0e-5ae9-4074-9adc-22eb2f0ab758,S
2019-11-27 02:37:18,bb74ff0e-5ae9-4074-9adc-22eb2f0ab758,A
2019-11-27 02:38:32,bb74ff0e-5ae9-4074-9adc-22eb2f0ab758,S
2019-11-27 02:42:11,bb74ff0e-5ae9-4074-9adc-22eb2f0ab758,A
2019-11-27 02:44:55,bb74ff0e-5ae9-4074-9adc-22eb2f0ab758,S
2019-11-27 02:50:05,bb74ff0e-5ae9-4074-9adc-22eb2f0ab758,A
2019-11-27 02:51:23,bb74ff0e-5ae9-4074-9adc-22eb2f0ab758,S
2019-11-27 02:57:22,bb74ff0e-5ae9-4074-9adc-22eb2f0ab758,A
2019-11-27 03:08:39,bb74ff0e-5ae9-4074-9adc-22eb2f0ab758,S
2019-11-27 03:12:19,bb74ff0e-5ae9-4074-9adc-22eb2f0ab758,A
2019-11-27 03:16:52,bb74ff0e-5ae9-4074-9adc-22eb2f0ab758,S
2019-11-27 03:28:19,bb74ff0e-5ae9-4074-9adc-22eb2f0ab758,A
2019-11-27 03:41:46,bb74ff0e-5ae9-4074-9adc-22eb2f0ab758,S
2019-11-27 03:42:44,bb74ff0e-5ae9-4074-9adc-22eb2f0ab758,A
2019-11-27 03:44:17,bb74ff0e-5ae9-4074-9adc-22eb2f0ab758,S
2019-11-27 03:45:03,bb74ff0e-5ae9-4074-9adc-22eb2f0ab758,A
2019-11-27 03:46:12,bb74ff0e-5ae9-4074-9adc-22eb2f0ab758,S
2019-11-27 03:54:48,bb74ff0e-5ae9-4074-9adc-22eb2f0ab758,A
2019-11-27 03:56:46,bb74ff0e-5ae9-4074-9adc-22eb2f0ab758,S
2019-11-27 03:58:34,bb74ff0e-5ae9-4074-9adc-22eb2f0ab758,A
2019-11-27 04:03:22,bb74ff0e-5ae9-4074-9adc-22eb2f0ab758,S
2019-11-27 04:12:15,bb74ff0e-5ae9-4074-9adc-22eb2f0ab758,A
2019-11-27 04:23:07,bb74ff0e-5ae9-4074-9adc-22eb2f0ab758,S
2019-11-27 04:27:03,bb74ff0e-5ae9-4074-9adc-22eb2f0ab758,A
2019-11-27 04:27:20,bb74ff0e-5ae9-4074-9adc-22eb2f0ab758,S
2019-11-27 04:33:00,bb74ff0e-5ae9-4074-9adc-22eb2f0ab758,A
2019-11-27 04:39:25,bb74ff0e-5ae9-4074-9adc-22eb2f0ab758,S
2019-11-27 04:39:26,bb74ff0e-5ae9-4074-9adc-22eb2f0ab758,A
2019-11-27 02:56:17,b88c148b-8b22-403a-ad34-602c4f358c14,A
2019-11-27 02:59:58,b88c148b-8b22-403a-ad34-602c4f358c14,S
2019-11-27 03:03:18,b88c148b-8b22-403a-ad34-602c4f358c14,A
2019-11-27 03:04:57,b88c148b-8b22-403a-ad34-602c4f358c14,S
2019-11-27 03:20:28,b88c148b-8b22-403a-ad34-602c4f358c14,A
2019-11-27 03:22:12,b88c148b-8b22-403a-ad34-602c4f358c14,S
2019-11-27 03:22:35,b88c148b-8b22-403a-ad34-602c4f358c14,A
2019-11-27 03:44:23,b88c148b-8b22-403a-ad34-602c4f358c14,S
2019-11-27 03:51:33,b88c148b-8b22-403a-ad34-602c4f358c14,A
2019-11-27 03:55:54,b88c148b-8b22-403a-ad34-602c4f358c14,S
2019-11-27 03:56:34,b88c148b-8b22-403a-ad34-602c4f358c14,A
2019-11-27 04:00:49,b88c148b-8b22-403a-ad34-602c4f358c14,S
2019-11-27 04:02:39,b88c148b-8b22-403a-ad34-602c4f358c14,A
2019-11-27 04:05:22,b88c148b-8b22-403a-ad34-602c4f358c14,S
2019-11-27 04:14:36,b88c148b-8b22-403a-ad34-602c4f358c14,A
2019-11-27 04:22:12,b88c148b-8b22-403a-ad34-602c4f358c14,S
2019-11-27 04:27:09,b88c148b-8b22-403a-ad34-602c4f358c14,A
2019-11-27 04:33:46,b88c148b-8b22-403a-ad34-602c4f358c14,S
2019-11-27 02:46:53,4f885d98-d730-4a70-8811-44b2b7083532,S
2019-11-27 02:51:51,4f885d98-d730-4a70-8811-44b2b7083532,A
2019-11-27 02:52:13,4f885d98-d730-4a70-8811-44b2b7083532,S
2019-11-27 02:56:57,4f885d98-d730-4a70-8811-44b2b7083532,A
2019-11-27 03:01:54,4f885d98-d730-4a70-8811-44b2b7083532,S
2019-11-27 03:03:56,4f885d98-d730-4a70-8811-44b2b7083532,A
2019-11-27 03:14:01,4f885d98-d730-4a70-8811-44b2b7083532,S
2019-11-27 03:16:42,4f885d98-d730-4a70-8811-44b2b7083532,A
2019-11-27 03:17:37,4f885d98-d730-4a70-8811-44b2b7083532,S
2019-11-27 03:25:39,4f885d98-d730-4a70-8811-44b2b7083532,A
2019-11-27 03:34:27,4f885d98-d730-4a70-8811-44b2b7083532,S
2019-11-27 03:36:37,4f885d98-d730-4a70-8811-44b2b7083532,A
2019-11-27 03:36:46,4f885d98-d730-4a70-8811-44b2b7083532,S
2019-11-27 03:56:03,4f885d98-d730-4a70-8811-44b2b7083532,A
2019-11-27 03:58:17,4f885d98-d730-4a70-8811-44b2b7083532,S
2019-11-27 04:15:51,4f885d98-d730-4a70-8811-44b2b7083532,A
2019-11-27 04:26:02,4f885d98-d730-4a70-8811-44b2b7083532,S
2019-11-27 03:05:06,24d22252-5723-4789-a2ad-763db2e4e3a6,S
2019-11-27 03:09:24,24d22252-5723-4789-a2ad-763db2e4e3a6,A
2019-11-27 03:23:07,24d22252-5723-4789-a2ad-763db2e4e3a6,S
2019-11-27 03:23:31,24d22252-5723-4789-a2ad-763db2e4e3a6,A
2019-11-27 03:28:07,24d22252-5723-4789-a2ad-763db2e4e3a6,S
2019-11-27 03:31:25,24d22252-5723-4789-a2ad-763db2e4e3a6,A
2019-11-27 03:34:31,24d22252-5723-4789-a2ad-763db2e4e3a6,S
2019-11-27 03:39:04,24d22252-5723-4789-a2ad-763db2e4e3a6,A
2019-11-27 03:42:17,24d22252-5723-4789-a2ad-763db2e4e3a6,S
2019-11-27 03:45:54,24d22252-5723-4789-a2ad-763db2e4e3a6,A
2019-11-27 04:01:45,24d22252-5723-4789-a2ad-763db2e4e3a6,S
2019-11-27 04:06:02,24d22252-5723-4789-a2ad-763db2e4e3a6,A
2019-11-27 04:06:23,24d22252-5723-4789-a2ad-763db2e4e3a6,S
2019-11-27 04:11:30,24d22252-5723-4789-a2ad-763db2e4e3a6,A
2019-11-27 04:18:49,24d22252-5723-4789-a2ad-763db2e4e3a6,S
2019-11-27 04:31:56,24d22252-5723-4789-a2ad-763db2e4e3a6,A
2019-11-27 04:32:57,24d22252-5723-4789-a2ad-763db2e4e3a6,S
2019-11-27 03:17:53,d19fa567-12ee-473d-8bb3-f7fab6d4168d,A
2019-11-27 03:32:36,d19fa567-12ee-473d-8bb3-f7fab6d4168d,S
2019-11-27 03:34:42,d19fa567-12ee-473d-8bb3-f7fab6d4168d,A
2019-11-27 03:43:47,d19fa567-12ee-473d-8bb3-f7fab6d4168d,S
2019-11-27 03:55:20,d19fa567-12ee-473d-8bb3-f7fab6d4168d,A
2019-11-27 04:01:32,d19fa567-12ee-473d-8bb3-f7fab6d4168d,S
2019-11-27 04:08:13,d19fa567-12ee-473d-8bb3-f7fab6d4168d,A
2019-11-27 04:08:36,d19fa567-12ee-473d-8bb3-f7fab6d4168d,S
2019-11-27 04:09:43,d19fa567-12ee-473d-8bb3-f7fab6d4168d,A
2019-11-27 04:14:03,d19fa567-12ee-473d-8bb3-f7fab6d4168d,S
2019-11-27 04:14:35,d19fa567-12ee-473d-8bb3-f7fab6d4168d,A
2019-11-27 04:21:14,d19fa567-12ee-473d-8bb3-f7fab6d4168d,S
2019-11-27 04:23:57,d19fa567-12ee-473d-8bb3-f7fab6d4168d,A
2019-11-27 04:25:44,d19fa567-12ee-473d-8bb3-f7fab6d4168d,S
2019-11-27 04:29:31,d19fa567-12ee-473d-8bb3-f7fab6d4168d,A
2019-11-27 04:35:47,d19fa567-12ee-473d-8bb3-f7fab6d4168d,S
2019-11-27 04:35:59,d19fa567-12ee-473d-8bb3-f7fab6d4168d,A
2019-11-27 04:38:35,d19fa567-12ee-473d-8bb3-f7fab6d4168d,S
2019-11-27 02:40:58,6ad8bc5d-8f94-4390-a9be-0edd52571b66,A
2019-11-27 02:44:26,6ad8bc5d-8f94-4390-a9be-0edd52571b66,S
2019-11-27 02:53:00,6ad8bc5d-8f94-4390-a9be-0edd52571b66,A
2019-11-27 02:56:03,6ad8bc5d-8f94-4390-a9be-0edd52571b66,S
2019-11-27 02:56:20,6ad8bc5d-8f94-4390-a9be-0edd52571b66,A
2019-11-27 02:58:48,6ad8bc5d-8f94-4390-a9be-0edd52571b66,S
2019-11-27 03:04:08,6ad8bc5d-8f94-4390-a9be-0edd52571b66,A
2019-11-27 03:08:03,6ad8bc5d-8f94-4390-a9be-0edd52571b66,S
2019-11-27 03:10:48,6ad8bc5d-8f94-4390-a9be-0edd52571b66,A
2019-11-27 03:21:36,6ad8bc5d-8f94-4390-a9be-0edd52571b66,S
2019-11-27 03:27:13,6ad8bc5d-8f94-4390-a9be-0edd52571b66,A
2019-11-27 03:49:47,6ad8bc5d-8f94-4390-a9be-0edd52571b66,S
2019-11-27 04:14:08,6ad8bc5d-8f94-4390-a9be-0edd52571b66,A
2019-11-27 04:20:42,6ad8bc5d-8f94-4390-a9be-0edd52571b66,S
2019-11-27 04:24:09,6ad8bc5d-8f94-4390-a9be-0edd52571b66,A
2019-11-27 04:27:03,6ad8bc5d-8f94-4390-a9be-0edd52571b66,S
2019-11-27 04:31:48,6ad8bc5d-8f94-4390-a9be-0edd52571b66,A
2019-11-27 03:21:53,2de33449-a7a9-478d-84a1-0e303dad510b,A
2019-11-27 03:26:59,2de33449-a7a9-478d-84a1-0e303dad510b,S
2019-11-27 03:28:02,2de33449-a7a9-478d-84a1-0e303dad510b,A
2019-11-27 03:29:58,2de33449-a7a9-478d-84a1-0e303dad510b,S
2019-11-27 03:37:33,2de33449-a7a9-478d-84a1-0e303dad510b,A
2019-11-27 03:38:57,2de33449-a7a9-478d-84a1-0e303dad510b,S
2019-11-27 03:48:51,2de33449-a7a9-478d-84a1-0e303dad510b,A
2019-11-27 03:50:39,2de33449-a7a9-478d-84a1-0e303dad510b,S
2019-11-27 03:55:33,2de33449-a7a9-478d-84a1-0e303dad510b,A
2019-11-27 03:59:57,2de33449-a7a9-478d-84a1-0e303dad510b,S
2019-11-27 04:08:41,2de33449-a7a9-478d-84a1-0e303dad510b,A
2019-11-27 04:10:13,2de33449-a7a9-478d-84a1-0e303dad510b,S
2019-11-27 04:12:06,2de33449-a7a9-478d-84a1-0e303dad510b,A
2019-11-27 04:14:34,2de33449-a7a9-478d-84a1-0e303dad510b,S
2019-11-27 04:18:47,2de33449-a7a9-478d-84a1-0e303dad510b,A
2019-11-27 04:24:36,2de33449-a7a9-478d-84a1-0e303dad510b,S
2019-11-27 04:30:06,2de33449-a7a9-478d-84a1-0e303dad510b,A
2019-11-27 04:39:19,2de33449-a7a9-478d-84a1-0e303dad510b,S
2019-11-27 03:08:50,03209bf4-834d-4c8c-926a-a05663f08fee,S
2019-11-27 03:09:32,03209bf4-834d-4c8c-926a-a05663f08fee,A
2019-11-27 03:25:12,03209bf4-834d-4c8c-926a-a05663f08fee,S
2019-11-27 03:32:27,03209bf4-834d-4c8c-926a-a05663f08fee,A
2019-11-27 03:32:49,03209bf4-834d-4c8c-926a-a05663f08fee,S
2019-11-27 03:33:18,03209bf4-834d-4c8c-926a-a05663f08fee,A
2019-11-27 03:34:25,03209bf4-834d-4c8c-926a-a05663f08fee,S
2019-11-27 03:42:13,03209bf4-834d-4c8c-926a-a05663f08fee,A
2019-11-27 03:44:42,03209bf4-834d-4c8c-926a-a05663f08fee,S
2019-11-27 03:45:41,03209bf4-834d-4c8c-926a-a05663f08fee,A
2019-11-27 03:50:39,03209bf4-834d-4c8c-926a-a05663f08fee,S
2019-11-27 03:54:05,03209bf4-834d-4c8c-926a-a05663f08fee,A
2019-11-27 04:01:48,03209bf4-834d-4c8c-926a-a05663f08fee,S
2019-11-27 04:05:20,03209bf4-834d-4c8c-926a-a05663f08fee,A
2019-11-27 04:06:24,03209bf4-834d-4c8c-926a-a05663f08fee,S
2019-11-27 04:07:42,03209bf4-834d-4c8c-926a-a05663f08fee,A
2019-11-27 04:16:51,03209bf4-834d-4c8c-926a-a05663f08fee,S
2019-11-27 04:17:58,03209bf4-834d-4c8c-926a-a05663f08fee,A
2019-11-27 04:20:35,03209bf4-834d-4c8c-926a-a05663f08fee,S
2019-11-27 04:22:42,03209bf4-834d-4c8c-926a-a05663f08fee,A
2019-11-27 04:31:14,03209bf4-834d-4c8c-926a-a05663f08fee,S
2019-11-27 04:33:28,03209bf4-834d-4c8c-926a-a05663f08fee,A
2019-11-27 04:38:26,03209bf4-834d-4c8c-926a-a05663f08fee,S
2019-11-27 02:55:48,12ac21d4-d5ce-48b9-98bf-cccdabd85e5a,S
2019-11-27 03:03:27,12ac21d4-d5ce-48b9-98bf-cccdabd85e5a,A
2019-11-27 03:05:22,12ac21d4-d5ce-48b9-98bf-cccdabd85e5a,S
2019-11-27 03:16:41,12ac21d4-d5ce-48b9-98bf-cccdabd85e5a,A
2019-11-27 03:18:30,12ac21d4-d5ce-48b9-98bf-cccdabd85e5a,S
2019-11-27 03:19:12,12ac21d4-d5ce-48b9-98bf-cccdabd85e5a,A
2019-11-27 03:28:43,12ac21d4-d5ce-48b9-98bf-cccdabd85e5a,S
2019-11-27 03:31:58,12ac21d4-d5ce-48b9-98bf-cccdabd85e5a,A
2019-11-27 03:25:58,e926f160-e8ad-408d-9870-ebffc0f9072a,S
2019-11-27 03:28:17,e926f160-e8ad-408d-9870-ebffc0f9072a,A
2019-11-27 03:34:48,e926f160-e8ad-408d-9870-ebffc0f9072a,S
2019-11-27 03:35:46,e926f160-e8ad-408d-9870-ebffc0f9072a,A
2019-11-27 03:36:06,e926f160-e8ad-408d-9870-ebffc0f9072a,S
2019-11-27 03:41:16,e926f160-e8ad-408d-9870-ebffc0f9072a,A
2019-11-27 03:46:09,e926f160-e8ad-408d-9870-ebffc0f9072a,S
2019-11-27 03:50:49,e926f160-e8ad-408d-9870-ebffc0f9072a,A
2019-11-27 04:03:49,e926f160-e8ad-408d-9870-ebffc0f9072a,S
2019-11-27 04:21:18,e926f160-e8ad-408d-9870-ebffc0f9072a,A
2019-11-27 04:26:01,e926f160-e8ad-408d-9870-ebffc0f9072a,S
2019-11-27 04:28:10,e926f160-e8ad-408d-9870-ebffc0f9072a,A
2019-11-27 04:29:24,e926f160-e8ad-408d-9870-ebffc0f9072a,S
2019-11-27 04:30:46,e926f160-e8ad-408d-9870-ebffc0f9072a,A
2019-11-27 04:31:30,e926f160-e8ad-408d-9870-ebffc0f9072a,S
2019-11-27 04:32:02,e926f160-e8ad-408d-9870-ebffc0f9072a,A
2019-11-27 04:33:07,e926f160-e8ad-408d-9870-ebffc0f9072a,S
2019-11-27 04:39:48,e926f160-e8ad-408d-9870-ebffc0f9072a,A
2019-11-27 04:40:07,e926f160-e8ad-408d-9870-ebffc0f9072a,S
2019-11-27 04:40:55,e926f160-e8ad-408d-9870-ebffc0f9072a,A
2019-11-27 04:40:56,e926f160-e8ad-408d-9870-ebffc0f9072a,S
2019-11-27 03:23:51,edc98a97-6797-49aa-b99e-d1fcdf9f1ab2,S
2019-11-27 03:24:40,edc98a97-6797-49aa-b99e-d1fcdf9f1ab2,A
2019-11-27 03:37:16,edc98a97-6797-49aa-b99e-d1fcdf9f1ab2,S
2019-11-27 03:38:22,edc98a97-6797-49aa-b99e-d1fcdf9f1ab2,A
2019-11-27 03:40:27,edc98a97-6797-49aa-b99e-d1fcdf9f1ab2,S
2019-11-27 04:05:20,edc98a97-6797-49aa-b99e-d1fcdf9f1ab2,A
2019-11-27 04:17:10,edc98a97-6797-49aa-b99e-d1fcdf9f1ab2,S
2019-11-27 04:21:31,edc98a97-6797-49aa-b99e-d1fcdf9f1ab2,A
2019-11-27 04:21:32,edc98a97-6797-49aa-b99e-d1fcdf9f1ab2,S
2019-11-27 04:25:41,edc98a97-6797-49aa-b99e-d1fcdf9f1ab2,A
2019-11-27 04:29:53,edc98a97-6797-49aa-b99e-d1fcdf9f1ab2,S
2019-11-27 04:39:15,edc98a97-6797-49aa-b99e-d1fcdf9f1ab2,A
2019-11-27 03:18:00,507d57d5-ffe9-4883-881d-2bb536741c49,A
2019-11-27 03:26:55,507d57d5-ffe9-4883-881d-2bb536741c49,S
2019-11-27 03:37:39,507d57d5-ffe9-4883-881d-2bb536741c49,A
2019-11-27 03:43:11,507d57d5-ffe9-4883-881d-2bb536741c49,S
2019-11-27 03:45:49,507d57d5-ffe9-4883-881d-2bb536741c49,A
2019-11-27 03:46:33,507d57d5-ffe9-4883-881d-2bb536741c49,S
2019-11-27 03:51:13,507d57d5-ffe9-4883-881d-2bb536741c49,A
2019-11-27 03:53:04,507d57d5-ffe9-4883-881d-2bb536741c49,S
2019-11-27 04:06:19,507d57d5-ffe9-4883-881d-2bb536741c49,A
2019-11-27 04:08:11,507d57d5-ffe9-4883-881d-2bb536741c49,S
2019-11-27 04:14:23,507d57d5-ffe9-4883-881d-2bb536741c49,A
2019-11-27 04:17:11,507d57d5-ffe9-4883-881d-2bb536741c49,S
2019-11-27 04:18:59,507d57d5-ffe9-4883-881d-2bb536741c49,A
2019-11-27 04:19:22,507d57d5-ffe9-4883-881d-2bb536741c49,S
2019-11-27 04:20:01,507d57d5-ffe9-4883-881d-2bb536741c49,A
2019-11-27 04:32:32,507d57d5-ffe9-4883-881d-2bb536741c49,S
2019-11-27 04:32:34,507d57d5-ffe9-4883-881d-2bb536741c49,A
2019-11-27 04:33:09,507d57d5-ffe9-4883-881d-2bb536741c49,S
2019-11-27 04:33:38,507d57d5-ffe9-4883-881d-2bb536741c49,A
2019-11-27 03:16:31,107a71b7-860a-4efe-876f-7bd2f4450fe7,A
2019-11-27 03:20:00,107a71b7-860a-4efe-876f-7bd2f4450fe7,S
2019-11-27 03:23:03,107a71b7-860a-4efe-876f-7bd2f4450fe7,A
2019-11-27 03:32:00,107a71b7-860a-4efe-876f-7bd2f4450fe7,S
2019-11-27 03:46:57,107a71b7-860a-4efe-876f-7bd2f4450fe7,A
2019-11-27 03:47:59,107a71b7-860a-4efe-876f-7bd2f4450fe7,S
2019-11-27 03:48:28,107a71b7-860a-4efe-876f-7bd2f4450fe7,A
2019-11-27 03:49:08,107a71b7-860a-4efe-876f-7bd2f4450fe7,S
2019-11-27 03:56:11,107a71b7-860a-4efe-876f-7bd2f4450fe7,A
2019-11-27 04:01:22,107a71b7-860a-4efe-876f-7bd2f4450fe7,S
2019-11-27 04:20:13,107a71b7-860a-4efe-876f-7bd2f4450fe7,A
2019-11-27 04:22:20,107a71b7-860a-4efe-876f-7bd2f4450fe7,S
2019-11-27 04:29:27,107a71b7-860a-4efe-876f-7bd2f4450fe7,A
2019-11-27 04:32:57,107a71b7-860a-4efe-876f-7bd2f4450fe7,S
2019-11-27 03:16:07,0624dcc6-b6ae-49e6-9e46-1802b38cbb72,A
2019-11-27 03:23:21,0624dcc6-b6ae-49e6-9e46-1802b38cbb72,S
2019-11-27 03:25:15,0624dcc6-b6ae-49e6-9e46-1802b38cbb72,A
2019-11-27 03:30:06,0624dcc6-b6ae-49e6-9e46-1802b38cbb72,S
2019-11-27 03:37:21,0624dcc6-b6ae-49e6-9e46-1802b38cbb72,A
2019-11-27 03:44:17,0624dcc6-b6ae-49e6-9e46-1802b38cbb72,S
2019-11-27 03:44:51,0624dcc6-b6ae-49e6-9e46-1802b38cbb72,A
2019-11-27 03:45:16,0624dcc6-b6ae-49e6-9e46-1802b38cbb72,S
2019-11-27 03:46:39,0624dcc6-b6ae-49e6-9e46-1802b38cbb72,A
2019-11-27 03:47:17,0624dcc6-b6ae-49e6-9e46-1802b38cbb72,S
2019-11-27 03:49:34,0624dcc6-b6ae-49e6-9e46-1802b38cbb72,A
2019-11-27 03:55:55,0624dcc6-b6ae-49e6-9e46-1802b38cbb72,S
2019-11-27 03:57:19,0624dcc6-b6ae-49e6-9e46-1802b38cbb72,A
2019-11-27 04:00:05,0624dcc6-b6ae-49e6-9e46-1802b38cbb72,S
2019-11-27 04:00:35,0624dcc6-b6ae-49e6-9e46-1802b38cbb72,A
2019-11-27 04:01:55,0624dcc6-b6ae-49e6-9e46-1802b38cbb72,S
2019-11-27 04:21:16,0624dcc6-b6ae-49e6-9e46-1802b38cbb72,A
2019-11-27 04:39:17,0624dcc6-b6ae-49e6-9e46-1802b38cbb72,S
2019-11-27 04:40:20,0624dcc6-b6ae-49e6-9e46-1802b38cbb72,A
2019-11-27 03:17:03,02cffccc-7b1d-47b3-a2f4-08751f2a5a5f,S
2019-11-27 03:18:58,02cffccc-7b1d-47b3-a2f4-08751f2a5a5f,A
2019-11-27 03:19:27,02cffccc-7b1d-47b3-a2f4-08751f2a5a5f,S
2019-11-27 03:27:45,02cffccc-7b1d-47b3-a2f4-08751f2a5a5f,A
2019-11-27 03:30:37,02cffccc-7b1d-47b3-a2f4-08751f2a5a5f,S
2019-11-27 03:36:59,02cffccc-7b1d-47b3-a2f4-08751f2a5a5f,A
2019-11-27 03:41:34,02cffccc-7b1d-47b3-a2f4-08751f2a5a5f,S
2019-11-27 03:42:48,02cffccc-7b1d-47b3-a2f4-08751f2a5a5f,A
2019-11-27 03:51:31,02cffccc-7b1d-47b3-a2f4-08751f2a5a5f,S
2019-11-27 03:53:06,02cffccc-7b1d-47b3-a2f4-08751f2a5a5f,A
2019-11-27 04:01:08,02cffccc-7b1d-47b3-a2f4-08751f2a5a5f,S
2019-11-27 04:01:20,02cffccc-7b1d-47b3-a2f4-08751f2a5a5f,A
2019-11-27 04:07:55,02cffccc-7b1d-47b3-a2f4-08751f2a5a5f,S
2019-11-27 04:12:50,02cffccc-7b1d-47b3-a2f4-08751f2a5a5f,A
2019-11-27 04:13:45,02cffccc-7b1d-47b3-a2f4-08751f2a5a5f,S
2019-11-27 04:15:41,02cffccc-7b1d-47b3-a2f4-08751f2a5a5f,A
2019-11-27 04:15:43,02cffccc-7b1d-47b3-a2f4-08751f2a5a5f,S
2019-11-27 04:17:03,02cffccc-7b1d-47b3-a2f4-08751f2a5a5f,A
2019-11-27 04:19:49,02cffccc-7b1d-47b3-a2f4-08751f2a5a5f,S
2019-11-27 04:27:16,02cffccc-7b1d-47b3-a2f4-08751f2a5a5f,A
2019-11-27 04:28:48,02cffccc-7b1d-47b3-a2f4-08751f2a5a5f,S
2019-11-27 04:29:24,02cffccc-7b1d-47b3-a2f4-08751f2a5a5f,A
2019-11-27 04:36:26,02cffccc-7b1d-47b3-a2f4-08751f2a5a5f,S
2019-11-27 04:39:56,02cffccc-7b1d-47b3-a2f4-08751f2a5a5f,A
2019-11-27 03:11:29,161b9357-e568-4b49-9d71-55e87532570c,A
2019-11-27 03:12:08,161b9357-e568-4b49-9d71-55e87532570c,S
2019-11-27 03:13:43,161b9357-e568-4b49-9d71-55e87532570c,A
2019-11-27 03:27:56,161b9357-e568-4b49-9d71-55e87532570c,S
2019-11-27 03:30:03,161b9357-e568-4b49-9d71-55e87532570c,A
2019-11-27 03:32:30,161b9357-e568-4b49-9d71-55e87532570c,S
2019-11-27 03:40:08,161b9357-e568-4b49-9d71-55e87532570c,A
2019-11-27 03:43:48,161b9357-e568-4b49-9d71-55e87532570c,S
2019-11-27 03:47:09,161b9357-e568-4b49-9d71-55e87532570c,A
2019-11-27 03:58:00,161b9357-e568-4b49-9d71-55e87532570c,S
2019-11-27 03:58:03,161b9357-e568-4b49-9d71-55e87532570c,A
2019-11-27 04:07:34,161b9357-e568-4b49-9d71-55e87532570c,S
2019-11-27 04:28:03,161b9357-e568-4b49-9d71-55e87532570c,A
2019-11-27 04:35:18,161b9357-e568-4b49-9d71-55e87532570c,S
2019-11-27 04:39:16,161b9357-e568-4b49-9d71-55e87532570c,A
2019-11-27 02:51:37,ad7145bb-4b8d-45fe-ba8f-efdf59170ca4,A
2019-11-27 02:55:03,ad7145bb-4b8d-45fe-ba8f-efdf59170ca4,S
2019-11-27 03:00:08,ad7145bb-4b8d-45fe-ba8f-efdf59170ca4,A
2019-11-27 03:01:58,ad7145bb-4b8d-45fe-ba8f-efdf59170ca4,S
2019-11-27 03:12:30,ad7145bb-4b8d-45fe-ba8f-efdf59170ca4,A
2019-11-27 03:13:04,ad7145bb-4b8d-45fe-ba8f-efdf59170ca4,S
2019-11-27 03:21:29,ad7145bb-4b8d-45fe-ba8f-efdf59170ca4,A
2019-11-27 03:23:49,ad7145bb-4b8d-45fe-ba8f-efdf59170ca4,S
2019-11-27 03:32:13,ad7145bb-4b8d-45fe-ba8f-efdf59170ca4,A
2019-11-27 03:50:39,ad7145bb-4b8d-45fe-ba8f-efdf59170ca4,S
2019-11-27 03:51:55,ad7145bb-4b8d-45fe-ba8f-efdf59170ca4,A
2019-11-27 03:52:06,ad7145bb-4b8d-45fe-ba8f-efdf59170ca4,S
2019-11-27 03:55:18,ad7145bb-4b8d-45fe-ba8f-efdf59170ca4,A
2019-11-27 04:04:09,ad7145bb-4b8d-45fe-ba8f-efdf59170ca4,S
2019-11-27 04:19:14,ad7145bb-4b8d-45fe-ba8f-efdf59170ca4,A
2019-11-27 04:19:31,ad7145bb-4b8d-45fe-ba8f-efdf59170ca4,S
2019-11-27 04:30:03,ad7145bb-4b8d-45fe-ba8f-efdf59170ca4,A
2019-11-27 02:51:45,cf793b4f-d292-4263-bfbf-3016fe10da58,A
2019-11-27 02:57:48,cf793b4f-d292-4263-bfbf-3016fe10da58,S
2019-11-27 03:00:36,cf793b4f-d292-4263-bfbf-3016fe10da58,A
2019-11-27 03:01:15,cf793b4f-d292-4263-bfbf-3016fe10da58,S
2019-11-27 03:02:00,cf793b4f-d292-4263-bfbf-3016fe10da58,A
2019-11-27 03:11:15,cf793b4f-d292-4263-bfbf-3016fe10da58,S
2019-11-27 03:11:41,cf793b4f-d292-4263-bfbf-3016fe10da58,A
2019-11-27 03:12:31,cf793b4f-d292-4263-bfbf-3016fe10da58,S
2019-11-27 03:17:25,cf793b4f-d292-4263-bfbf-3016fe10da58,A
2019-11-27 03:22:24,cf793b4f-d292-4263-bfbf-3016fe10da58,S
2019-11-27 03:22:36,cf793b4f-d292-4263-bfbf-3016fe10da58,A
2019-11-27 03:23:21,cf793b4f-d292-4263-bfbf-3016fe10da58,S
2019-11-27 03:25:41,cf793b4f-d292-4263-bfbf-3016fe10da58,A
2019-11-27 03:28:41,cf793b4f-d292-4263-bfbf-3016fe10da58,S
2019-11-27 03:29:57,cf793b4f-d292-4263-bfbf-3016fe10da58,A
2019-11-27 03:30:01,cf793b4f-d292-4263-bfbf-3016fe10da58,S
2019-11-27 03:38:07,cf793b4f-d292-4263-bfbf-3016fe10da58,A
2019-11-27 03:41:24,cf793b4f-d292-4263-bfbf-3016fe10da58,S
2019-11-27 03:43:17,cf793b4f-d292-4263-bfbf-3016fe10da58,A
2019-11-27 03:50:53,cf793b4f-d292-4263-bfbf-3016fe10da58,S
2019-11-27 04:00:53,cf793b4f-d292-4263-bfbf-3016fe10da58,A
2019-11-27 04:16:21,cf793b4f-d292-4263-bfbf-3016fe10da58,S
2019-11-27 04:18:43,cf793b4f-d292-4263-bfbf-3016fe10da58,A
2019-11-27 04:18:55,cf793b4f-d292-4263-bfbf-3016fe10da58,S
2019-11-27 04:27:00,cf793b4f-d292-4263-bfbf-3016fe10da58,A
2019-11-27 04:27:23,cf793b4f-d292-4263-bfbf-3016fe10da58,S
2019-11-27 04:35:43,cf793b4f-d292-4263-bfbf-3016fe10da58,A
2019-11-27 02:54:20,77af87a5-bd43-4c3e-bd90-af16f9093517,S
2019-11-27 03:06:24,77af87a5-bd43-4c3e-bd90-af16f9093517,A
2019-11-27 03:24:46,77af87a5-bd43-4c3e-bd90-af16f9093517,S
2019-11-27 03:27:09,77af87a5-bd43-4c3e-bd90-af16f9093517,A
2019-11-27 03:30:28,77af87a5-bd43-4c3e-bd90-af16f9093517,S
2019-11-27 03:33:47,77af87a5-bd43-4c3e-bd90-af16f9093517,A
2019-11-27 03:45:17,77af87a5-bd43-4c3e-bd90-af16f9093517,S
2019-11-27 03:46:06,77af87a5-bd43-4c3e-bd90-af16f9093517,A
2019-11-27 03:47:46,77af87a5-bd43-4c3e-bd90-af16f9093517,S
2019-11-27 03:48:38,77af87a5-bd43-4c3e-bd90-af16f9093517,A
2019-11-27 04:06:02,77af87a5-bd43-4c3e-bd90-af16f9093517,S
2019-11-27 04:06:08,77af87a5-bd43-4c3e-bd90-af16f9093517,A
2019-11-27 04:09:17,77af87a5-bd43-4c3e-bd90-af16f9093517,S
2019-11-27 04:12:44,77af87a5-bd43-4c3e-bd90-af16f9093517,A
2019-11-27 04:14:59,77af87a5-bd43-4c3e-bd90-af16f9093517,S
2019-11-27 04:20:55,77af87a5-bd43-4c3e-bd90-af16f9093517,A
2019-11-27 04:22:18,77af87a5-bd43-4c3e-bd90-af16f9093517,S
2019-11-27 04:26:13,77af87a5-bd43-4c3e-bd90-af16f9093517,A
2019-11-27 04:31:47,77af87a5-bd43-4c3e-bd90-af16f9093517,S
2019-11-27 02:47:23,99002461-815f-41a0-bfdf-2f42d29d9692,S
2019-11-27 03:03:30,99002461-815f-41a0-bfdf-2f42d29d9692,A
2019-11-27 03:04:43,99002461-815f-41a0-bfdf-2f42d29d9692,S
2019-11-27 03:09:32,99002461-815f-41a0-bfdf-2f42d29d9692,A
2019-11-27 03:10:37,99002461-815f-41a0-bfdf-2f42d29d9692,S
2019-11-27 03:13:25,99002461-815f-41a0-bfdf-2f42d29d9692,A
2019-11-27 03:18:37,99002461-815f-41a0-bfdf-2f42d29d9692,S
2019-11-27 03:20:47,99002461-815f-41a0-bfdf-2f42d29d9692,A
2019-11-27 03:24:16,99002461-815f-41a0-bfdf-2f42d29d9692,S
2019-11-27 03:29:51,99002461-815f-41a0-bfdf-2f42d29d9692,A
2019-11-27 03:40:22,99002461-815f-41a0-bfdf-2f42d29d9692,S
2019-11-27 03:46:02,99002461-815f-41a0-bfdf-2f42d29d9692,A
2019-11-27 03:48:00,99002461-815f-41a0-bfdf-2f42d29d9692,S
2019-11-27 03:50:02,99002461-815f-41a0-bfdf-2f42d29d9692,A
2019-11-27 03:58:19,99002461-815f-41a0-bfdf-2f42d29d9692,S
2019-11-27 04:00:29,99002461-815f-41a0-bfdf-2f42d29d9692,A
2019-11-27 04:05:23,99002461-815f-41a0-bfdf-2f42d29d9692,S
2019-11-27 04:08:22,99002461-815f-41a0-bfdf-2f42d29d9692,A
2019-11-27 04:09:30,99002461-815f-41a0-bfdf-2f42d29d9692,S
2019-11-27 04:14:24,99002461-815f-41a0-bfdf-2f42d29d9692,A
2019-11-27 04:17:17,99002461-815f-41a0-bfdf-2f42d29d9692,S
2019-11-27 04:21:06,99002461-815f-41a0-bfdf-2f42d29d9692,A
2019-11-27 04:23:26,99002461-815f-41a0-bfdf-2f42d29d9692,S
2019-11-27 04:27:12,99002461-815f-41a0-bfdf-2f42d29d9692,A
2019-11-27 04:32:38,99002461-815f-41a0-bfdf-2f42d29d9692,S
2019-11-27 04:33:45,99002461-815f-41a0-bfdf-2f42d29d9692,A
2019-11-27 04:39:29,99002461-815f-41a0-bfdf-2f42d29d9692,S
2019-11-27 04:40:26,99002461-815f-41a0-bfdf-2f42d29d9692,A
2019-11-27 04:41:56,99002461-815f-41a0-bfdf-2f42d29d9692,S
2019-11-27 04:42:28,99002461-815f-41a0-bfdf-2f42d29d9692,A
2019-11-27 02:51:11,54402766-788e-449d-95a7-9683ce934d4c,S
2019-11-27 03:03:07,54402766-788e-449d-95a7-9683ce934d4c,A
2019-11-27 03:03:25,54402766-788e-449d-95a7-9683ce934d4c,S
2019-11-27 03:18:49,54402766-788e-449d-95a7-9683ce934d4c,A
2019-11-27 03:21:42,54402766-788e-449d-95a7-9683ce934d4c,S
2019-11-27 03:23:41,54402766-788e-449d-95a7-9683ce934d4c,A
2019-11-27 03:31:48,54402766-788e-449d-95a7-9683ce934d4c,S
2019-11-27 03:32:44,54402766-788e-449d-95a7-9683ce934d4c,A
2019-11-27 03:34:57,54402766-788e-449d-95a7-9683ce934d4c,S
2019-11-27 03:49:21,54402766-788e-449d-95a7-9683ce934d4c,A
2019-11-27 03:54:40,54402766-788e-449d-95a7-9683ce934d4c,S
2019-11-27 03:56:13,54402766-788e-449d-95a7-9683ce934d4c,A
2019-11-27 03:57:01,54402766-788e-449d-95a7-9683ce934d4c,S
2019-11-27 03:58:58,54402766-788e-449d-95a7-9683ce934d4c,A
2019-11-27 04:02:15,54402766-788e-449d-95a7-9683ce934d4c,S
2019-11-27 04:02:22,54402766-788e-449d-95a7-9683ce934d4c,A
2019-11-27 04:14:41,54402766-788e-449d-95a7-9683ce934d4c,S
2019-11-27 04:16:01,54402766-788e-449d-95a7-9683ce934d4c,A
2019-11-27 04:20:54,54402766-788e-449d-95a7-9683ce934d4c,S
2019-11-27 04:24:19,54402766-788e-449d-95a7-9683ce934d4c,A
2019-11-27 04:25:34,54402766-788e-449d-95a7-9683ce934d4c,S
2019-11-27 04:26:16,54402766-788e-449d-95a7-9683ce934d4c,A
2019-11-27 04:38:56,54402766-788e-449d-95a7-9683ce934d4c,S
2019-11-27 04:40:24,54402766-788e-449d-95a7-9683ce934d4c,A
2019-11-27 04:41:37,54402766-788e-449d-95a7-9683ce934d4c,S
2019-11-27 02:35:04,472ac525-378e-42df-9398-6aaf2bc2d121,A
2019-11-27 02:39:20,472ac525-378e-42df-9398-6aaf2bc2d121,S
2019-11-27 02:41:37,472ac525-378e-42df-9398-6aaf2bc2d121,A
2019-11-27 02:49:20,472ac525-378e-42df-9398-6aaf2bc2d121,S
2019-11-27 02:58:38,472ac525-378e-42df-9398-6aaf2bc2d121,A
2019-11-27 03:02:59,472ac525-378e-42df-9398-6aaf2bc2d121,S
2019-11-27 03:07:33,472ac525-378e-42df-9398-6aaf2bc2d121,A
2019-11-27 03:22:50,472ac525-378e-42df-9398-6aaf2bc2d121,S
2019-11-27 03:27:42,472ac525-378e-42df-9398-6aaf2bc2d121,A
2019-11-27 03:40:31,472ac525-378e-42df-9398-6aaf2bc2d121,S
2019-11-27 03:41:00,472ac525-378e-42df-9398-6aaf2bc2d121,A
2019-11-27 03:48:13,472ac525-378e-42df-9398-6aaf2bc2d121,S
2019-11-27 03:56:08,472ac525-378e-42df-9398-6aaf2bc2d121,A
2019-11-27 03:57:17,472ac525-378e-42df-9398-6aaf2bc2d121,S
2019-11-27 03:58:50,472ac525-378e-42df-9398-6aaf2bc2d121,A
2019-11-27 03:59:27,472ac525-378e-42df-9398-6aaf2bc2d121,S
2019-11-27 04:01:00,472ac525-378e-42df-9398-6aaf2bc2d121,A
2019-11-27 04:01:35,472ac525-378e-42df-9398-6aaf2bc2d121,S
2019-11-27 04:01:42,472ac525-378e-42df-9398-6aaf2bc2d121,A
2019-11-27 04:02:03,472ac525-378e-42df-9398-6aaf2bc2d121,S
2019-11-27 04:03:00,472ac525-378e-42df-9398-6aaf2bc2d121,A
2019-11-27 04:10:25,472ac525-378e-42df-9398-6aaf2bc2d121,S
2019-11-27 04:22:43,472ac525-378e-42df-9398-6aaf2bc2d121,A
2019-11-27 04:23:22,472ac525-378e-42df-9398-6aaf2bc2d121,S
2019-11-27 04:41:51,472ac525-378e-42df-9398-6aaf2bc2d121,A
2019-11-27 03:07:11,8d390b56-f63e-4dbf-a32c-edfa97911c3f,S
2019-11-27 03:11:20,8d390b56-f63e-4dbf-a32c-edfa97911c3f,A
2019-11-27 03:18:48,8d390b56-f63e-4dbf-a32c-edfa97911c3f,S
2019-11-27 03:23:00,8d390b56-f63e-4dbf-a32c-edfa97911c3f,A
2019-11-27 03:23:14,8d390b56-f63e-4dbf-a32c-edfa97911c3f,S
2019-11-27 03:32:43,8d390b56-f63e-4dbf-a32c-edfa97911c3f,A
2019-11-27 03:35:44,8d390b56-f63e-4dbf-a32c-edfa97911c3f,S
2019-11-27 03:37:11,8d390b56-f63e-4dbf-a32c-edfa97911c3f,A
2019-11-27 03:38:55,8d390b56-f63e-4dbf-a32c-edfa97911c3f,S
2019-11-27 03:48:35,8d390b56-f63e-4dbf-a32c-edfa97911c3f,A
2019-11-27 03:53:26,8d390b56-f63e-4dbf-a32c-edfa97911c3f,S
2019-11-27 03:55:09,8d390b56-f63e-4dbf-a32c-edfa97911c3f,A
2019-11-27 03:56:05,8d390b56-f63e-4dbf-a32c-edfa97911c3f,S
2019-11-27 04:01:32,8d390b56-f63e-4dbf-a32c-edfa97911c3f,A
2019-11-27 04:06:07,8d390b56-f63e-4dbf-a32c-edfa97911c3f,S
2019-11-27 04:10:49,8d390b56-f63e-4dbf-a32c-edfa97911c3f,A
2019-11-27 04:18:49,8d390b56-f63e-4dbf-a32c-edfa97911c3f,S
2019-11-27 04:24:01,8d390b56-f63e-4dbf-a32c-edfa97911c3f,A
2019-11-27 04:27:20,8d390b56-f63e-4dbf-a32c-edfa97911c3f,S
2019-11-27 04:40:06,8d390b56-f63e-4dbf-a32c-edfa97911c3f,A
2019-11-27 03:04:48,5327994a-9e3c-43a5-9657-26131284ea21,S
2019-11-27 03:10:03,5327994a-9e3c-43a5-9657-26131284ea21,A
2019-11-27 03:16:47,5327994a-9e3c-43a5-9657-26131284ea21,S
2019-11-27 03:21:46,5327994a-9e3c-43a5-9657-26131284ea21,A
2019-11-27 03:22:42,5327994a-9e3c-43a5-9657-26131284ea21,S
2019-11-27 03:29:29,5327994a-9e3c-43a5-9657-26131284ea21,A
2019-11-27 03:31:45,5327994a-9e3c-43a5-9657-26131284ea21,S
2019-11-27 03:37:51,5327994a-9e3c-43a5-9657-26131284ea21,A
2019-11-27 03:37:53,5327994a-9e3c-43a5-9657-26131284ea21,S
2019-11-27 03:38:37,5327994a-9e3c-43a5-9657-26131284ea21,A
2019-11-27 03:42:30,5327994a-9e3c-43a5-9657-26131284ea21,S
2019-11-27 03:48:06,5327994a-9e3c-43a5-9657-26131284ea21,A
2019-11-27 03:50:08,5327994a-9e3c-43a5-9657-26131284ea21,S
2019-11-27 03:53:21,5327994a-9e3c-43a5-9657-26131284ea21,A
2019-11-27 03:56:12,5327994a-9e3c-43a5-9657-26131284ea21,S
2019-11-27 03:59:26,5327994a-9e3c-43a5-9657-26131284ea21,A
2019-11-27 04:08:28,5327994a-9e3c-43a5-9657-26131284ea21,S
2019-11-27 04:12:01,5327994a-9e3c-43a5-9657-26131284ea21,A
2019-11-27 04:13:00,5327994a-9e3c-43a5-9657-26131284ea21,S
2019-11-27 04:16:27,5327994a-9e3c-43a5-9657-26131284ea21,A
2019-11-27 04:18:25,5327994a-9e3c-43a5-9657-26131284ea21,S
2019-11-27 04:19:07,5327994a-9e3c-43a5-9657-26131284ea21,A
2019-11-27 04:26:15,5327994a-9e3c-43a5-9657-26131284ea21,S
2019-11-27 04:28:39,5327994a-9e3c-43a5-9657-26131284ea21,A
2019-11-27 04:42:31,5327994a-9e3c-43a5-9657-26131284ea21,S
2019-11-27 03:09:27,ec5ba46f-ef74-4762-a7ed-ad5616e459d7,S
2019-11-27 03:21:42,ec5ba46f-ef74-4762-a7ed-ad5616e459d7,A
2019-11-27 03:31:51,ec5ba46f-ef74-4762-a7ed-ad5616e459d7,S
2019-11-27 03:33:09,ec5ba46f-ef74-4762-a7ed-ad5616e459d7,A
2019-11-27 03:35:07,ec5ba46f-ef74-4762-a7ed-ad5616e459d7,S
2019-11-27 03:41:47,ec5ba46f-ef74-4762-a7ed-ad5616e459d7,A
2019-11-27 03:42:33,ec5ba46f-ef74-4762-a7ed-ad5616e459d7,S
2019-11-27 03:44:55,ec5ba46f-ef74-4762-a7ed-ad5616e459d7,A
2019-11-27 03:45:46,ec5ba46f-ef74-4762-a7ed-ad5616e459d7,S
2019-11-27 03:46:08,ec5ba46f-ef74-4762-a7ed-ad5616e459d7,A
2019-11-27 03:46:27,ec5ba46f-ef74-4762-a7ed-ad5616e459d7,S
2019-11-27 03:53:23,ec5ba46f-ef74-4762-a7ed-ad5616e459d7,A
2019-11-27 04:06:13,ec5ba46f-ef74-4762-a7ed-ad5616e459d7,S
2019-11-27 04:10:50,ec5ba46f-ef74-4762-a7ed-ad5616e459d7,A
2019-11-27 04:11:29,ec5ba46f-ef74-4762-a7ed-ad5616e459d7,S
2019-11-27 04:28:25,ec5ba46f-ef74-4762-a7ed-ad5616e459d7,A
2019-11-27 04:30:45,ec5ba46f-ef74-4762-a7ed-ad5616e459d7,S
2019-11-27 04:30:59,ec5ba46f-ef74-4762-a7ed-ad5616e459d7,A
2019-11-27 04:32:18,ec5ba46f-ef74-4762-a7ed-ad5616e459d7,S
2019-11-27 04:34:44,ec5ba46f-ef74-4762-a7ed-ad5616e459d7,A
2019-11-27 04:40:12,ec5ba46f-ef74-4762-a7ed-ad5616e459d7,S
2019-11-27 02:57:18,5ee94d40-3cbc-4a85-b1a2-d224fc6fe2d9,A
2019-11-27 03:05:07,5ee94d40-3cbc-4a85-b1a2-d224fc6fe2d9,S
2019-11-27 03:06:38,5ee94d40-3cbc-4a85-b1a2-d224fc6fe2d9,A
2019-11-27 03:09:15,5ee94d40-3cbc-4a85-b1a2-d224fc6fe2d9,S
2019-11-27 03:13:56,5ee94d40-3cbc-4a85-b1a2-d224fc6fe2d9,A
2019-11-27 03:28:38,5ee94d40-3cbc-4a85-b1a2-d224fc6fe2d9,S
2019-11-27 03:29:13,5ee94d40-3cbc-4a85-b1a2-d224fc6fe2d9,A
2019-11-27 03:34:43,5ee94d40-3cbc-4a85-b1a2-d224fc6fe2d9,S
2019-11-27 03:41:56,5ee94d40-3cbc-4a85-b1a2-d224fc6fe2d9,A
2019-11-27 03:42:31,5ee94d40-3cbc-4a85-b1a2-d224fc6fe2d9,S
2019-11-27 03:54:22,5ee94d40-3cbc-4a85-b1a2-d224fc6fe2d9,A
2019-11-27 03:57:30,5ee94d40-3cbc-4a85-b1a2-d224fc6fe2d9,S
2019-11-27 04:09:20,5ee94d40-3cbc-4a85-b1a2-d224fc6fe2d9,A
2019-11-27 04:21:17,5ee94d40-3cbc-4a85-b1a2-d224fc6fe2d9,S
2019-11-27 04:26:09,5ee94d40-3cbc-4a85-b1a2-d224fc6fe2d9,A
2019-11-27 04:26:42,5ee94d40-3cbc-4a85-b1a2-d224fc6fe2d9,S
2019-11-27 04:27:00,5ee94d40-3cbc-4a85-b1a2-d224fc6fe2d9,A
2019-11-27 04:27:10,5ee94d40-3cbc-4a85-b1a2-d224fc6fe2d9,S
2019-11-27 04:28:21,5ee94d40-3cbc-4a85-b1a2-d224fc6fe2d9,A
2019-11-27 04:32:02,5ee94d40-3cbc-4a85-b1a2-d224fc6fe2d9,S
2019-11-27 04:40:54,5ee94d40-3cbc-4a85-b1a2-d224fc6fe2d9,A
2019-11-27 03:10:45,f142555e-53ed-45bd-9768-3b0557211ca9,S
2019-11-27 03:13:03,f142555e-53ed-45bd-9768-3b0557211ca9,A
2019-11-27 03:18:15,f142555e-53ed-45bd-9768-3b0557211ca9,S
2019-11-27 03:26:20,f142555e-53ed-45bd-9768-3b0557211ca9,A
2019-11-27 03:33:44,f142555e-53ed-45bd-9768-3b0557211ca9,S
2019-11-27 03:34:06,f142555e-53ed-45bd-9768-3b0557211ca9,A
2019-11-27 03:39:39,f142555e-53ed-45bd-9768-3b0557211ca9,S
2019-11-27 03:50:43,f142555e-53ed-45bd-9768-3b0557211ca9,A
2019-11-27 03:55:07,f142555e-53ed-45bd-9768-3b0557211ca9,S
2019-11-27 03:57:54,f142555e-53ed-45bd-9768-3b0557211ca9,A
2019-11-27 04:04:36,f142555e-53ed-45bd-9768-3b0557211ca9,S
2019-11-27 04:05:27,f142555e-53ed-45bd-9768-3b0557211ca9,A
2019-11-27 04:08:12,f142555e-53ed-45bd-9768-3b0557211ca9,S
2019-11-27 04:12:03,f142555e-53ed-45bd-9768-3b0557211ca9,A
2019-11-27 04:18:31,f142555e-53ed-45bd-9768-3b0557211ca9,S
2019-11-27 04:21:36,f142555e-53ed-45bd-9768-3b0557211ca9,A
2019-11-27 04:33:56,f142555e-53ed-45bd-9768-3b0557211ca9,S
2019-11-27 04:38:42,f142555e-53ed-45bd-9768-3b0557211ca9,A
2019-11-27 04:40:46,f142555e-53ed-45bd-9768-3b0557211ca9,S
2019-11-27 03:22:39,571df3f9-901c-4271-95ef-220d05164e8e,S
2019-11-27 03:24:51,571df3f9-901c-4271-95ef-220d05164e8e,A
2019-11-27 03:27:36,571df3f9-901c-4271-95ef-220d05164e8e,S
2019-11-27 03:44:32,571df3f9-901c-4271-95ef-220d05164e8e,A
2019-11-27 03:46:12,571df3f9-901c-4271-95ef-220d05164e8e,S
2019-11-27 03:47:19,571df3f9-901c-4271-95ef-220d05164e8e,A
2019-11-27 03:52:34,571df3f9-901c-4271-95ef-220d05164e8e,S
2019-11-27 04:01:12,571df3f9-901c-4271-95ef-220d05164e8e,A
2019-11-27 04:03:09,571df3f9-901c-4271-95ef-220d05164e8e,S
2019-11-27 04:10:45,571df3f9-901c-4271-95ef-220d05164e8e,A
2019-11-27 04:11:33,571df3f9-901c-4271-95ef-220d05164e8e,S
2019-11-27 04:23:20,571df3f9-901c-4271-95ef-220d05164e8e,A
2019-11-27 04:31:12,571df3f9-901c-4271-95ef-220d05164e8e,S
2019-11-27 04:32:51,571df3f9-901c-4271-95ef-220d05164e8e,A
2019-11-27 04:36:40,571df3f9-901c-4271-95ef-220d05164e8e,S
2019-11-27 04:38:58,571df3f9-901c-4271-95ef-220d05164e8e,A
2019-11-27 03:00:08,18a540bd-abba-48d1-bea7-77acc67fd8e8,S
2019-11-27 03:09:10,18a540bd-abba-48d1-bea7-77acc67fd8e8,A
2019-11-27 03:14:22,18a540bd-abba-48d1-bea7-77acc67fd8e8,S
2019-11-27 03:27:08,18a540bd-abba-48d1-bea7-77acc67fd8e8,A
2019-11-27 03:28:07,18a540bd-abba-48d1-bea7-77acc67fd8e8,S
2019-11-27 03:39:20,18a540bd-abba-48d1-bea7-77acc67fd8e8,A
2019-11-27 03:39:33,18a540bd-abba-48d1-bea7-77acc67fd8e8,S
2019-11-27 03:43:00,18a540bd-abba-48d1-bea7-77acc67fd8e8,A
2019-11-27 03:54:04,18a540bd-abba-48d1-bea7-77acc67fd8e8,S
2019-11-27 03:57:05,18a540bd-abba-48d1-bea7-77acc67fd8e8,A
2019-11-27 04:03:41,18a540bd-abba-48d1-bea7-77acc67fd8e8,S
2019-11-27 04:05:37,18a540bd-abba-48d1-bea7-77acc67fd8e8,A
2019-11-27 04:13:02,18a540bd-abba-48d1-bea7-77acc67fd8e8,S
2019-11-27 04:17:08,18a540bd-abba-48d1-bea7-77acc67fd8e8,A
2019-11-27 04:17:50,18a540bd-abba-48d1-bea7-77acc67fd8e8,S
2019-11-27 04:18:12,18a540bd-abba-48d1-bea7-77acc67fd8e8,A
2019-11-27 04:21:35,18a540bd-abba-48d1-bea7-77acc67fd8e8,S
2019-11-27 04:24:39,18a540bd-abba-48d1-bea7-77acc67fd8e8,A
2019-11-27 04:37:50,18a540bd-abba-48d1-bea7-77acc67fd8e8,S
2019-11-27 04:42:00,18a540bd-abba-48d1-bea7-77acc67fd8e8,A
2019-11-27 04:42:07,18a540bd-abba-48d1-bea7-77acc67fd8e8,S
2019-11-27 02:49:13,a4689c62-26dd-4242-81bc-4897bd99732d,S
2019-11-27 02:55:26,a4689c62-26dd-4242-81bc-4897bd99732d,A
2019-11-27 02:59:49,a4689c62-26dd-4242-81bc-4897bd99732d,S
2019-11-27 03:10:22,a4689c62-26dd-4242-81bc-4897bd99732d,A
2019-11-27 03:10:41,a4689c62-26dd-4242-81bc-4897bd99732d,S
2019-11-27 03:16:10,a4689c62-26dd-4242-81bc-4897bd99732d,A
2019-11-27 03:16:45,a4689c62-26dd-4242-81bc-4897bd99732d,S
2019-11-27 03:17:22,a4689c62-26dd-4242-81bc-4897bd99732d,A
2019-11-27 03:19:54,a4689c62-26dd-4242-81bc-4897bd99732d,S
2019-11-27 03:20:13,a4689c62-26dd-4242-81bc-4897bd99732d,A
2019-11-27 03:21:05,a4689c62-26dd-4242-81bc-4897bd99732d,S
2019-11-27 03:36:38,a4689c62-26dd-4242-81bc-4897bd99732d,A
2019-11-27 03:37:57,a4689c62-26dd-4242-81bc-4897bd99732d,S
2019-11-27 03:41:05,a4689c62-26dd-4242-81bc-4897bd99732d,A
2019-11-27 03:52:59,a4689c62-26dd-4242-81bc-4897bd99732d,S
2019-11-27 03:54:25,a4689c62-26dd-4242-81bc-4897bd99732d,A
2019-11-27 03:55:35,a4689c62-26dd-4242-81bc-4897bd99732d,S
2019-11-27 03:56:26,a4689c62-26dd-4242-81bc-4897bd99732d,A
2019-11-27 03:56:49,a4689c62-26dd-4242-81bc-4897bd99732d,S
2019-11-27 04:03:18,a4689c62-26dd-4242-81bc-4897bd99732d,A
2019-11-27 04:33:58,a4689c62-26dd-4242-81bc-4897bd99732d,S
2019-11-27 04:37:44,a4689c62-26dd-4242-81bc-4897bd99732d,A
2019-11-27 02:46:43,5c0ea8a6-8845-462e-a8fc-b5f3f388b1b5,S
2019-11-27 02:50:11,5c0ea8a6-8845-462e-a8fc-b5f3f388b1b5,A
2019-11-27 02:56:13,5c0ea8a6-8845-462e-a8fc-b5f3f388b1b5,S
2019-11-27 03:06:09,5c0ea8a6-8845-462e-a8fc-b5f3f388b1b5,A
2019-11-27 03:26:18,5c0ea8a6-8845-462e-a8fc-b5f3f388b1b5,S
2019-11-27 03:32:13,5c0ea8a6-8845-462e-a8fc-b5f3f388b1b5,A
2019-11-27 03:43:02,5c0ea8a6-8845-462e-a8fc-b5f3f388b1b5,S
2019-11-27 03:48:28,5c0ea8a6-8845-462e-a8fc-b5f3f388b1b5,A
2019-11-27 03:52:44,5c0ea8a6-8845-462e-a8fc-b5f3f388b1b5,S
2019-11-27 03:58:18,5c0ea8a6-8845-462e-a8fc-b5f3f388b1b5,A
2019-11-27 03:58:30,5c0ea8a6-8845-462e-a8fc-b5f3f388b1b5,S
2019-11-27 04:00:14,5c0ea8a6-8845-462e-a8fc-b5f3f388b1b5,A
2019-11-27 04:06:08,5c0ea8a6-8845-462e-a8fc-b5f3f388b1b5,S
2019-11-27 04:07:51,5c0ea8a6-8845-462e-a8fc-b5f3f388b1b5,A
2019-11-27 04:12:22,5c0ea8a6-8845-462e-a8fc-b5f3f388b1b5,S
2019-11-27 04:15:57,5c0ea8a6-8845-462e-a8fc-b5f3f388b1b5,A
2019-11-27 04:21:15,5c0ea8a6-8845-462e-a8fc-b5f3f388b1b5,S
2019-11-27 04:28:59,5c0ea8a6-8845-462e-a8fc-b5f3f388b1b5,A
2019-11-27 03:24:19,e5938957-5cb1-44d8-b13a-496f345c2073,S
2019-11-27 03:37:54,e5938957-5cb1-44d8-b13a-496f345c2073,A
2019-11-27 03:42:47,e5938957-5cb1-44d8-b13a-496f345c2073,S
2019-11-27 03:43:20,e5938957-5cb1-44d8-b13a-496f345c2073,A
2019-11-27 03:47:11,e5938957-5cb1-44d8-b13a-496f345c2073,S
2019-11-27 03:47:53,e5938957-5cb1-44d8-b13a-496f345c2073,A
2019-11-27 03:56:32,e5938957-5cb1-44d8-b13a-496f345c2073,S
2019-11-27 03:57:35,e5938957-5cb1-44d8-b13a-496f345c2073,A
2019-11-27 03:59:51,e5938957-5cb1-44d8-b13a-496f345c2073,S
2019-11-27 04:02:00,e5938957-5cb1-44d8-b13a-496f345c2073,A
2019-11-27 04:04:22,e5938957-5cb1-44d8-b13a-496f345c2073,S
2019-11-27 04:08:13,e5938957-5cb1-44d8-b13a-496f345c2073,A
2019-11-27 04:09:25,e5938957-5cb1-44d8-b13a-496f345c2073,S
2019-11-27 04:10:16,e5938957-5cb1-44d8-b13a-496f345c2073,A
2019-11-27 04:12:25,e5938957-5cb1-44d8-b13a-496f345c2073,S
2019-11-27 04:12:48,e5938957-5cb1-44d8-b13a-496f345c2073,A
2019-11-27 04:13:04,e5938957-5cb1-44d8-b13a-496f345c2073,S
2019-11-27 04:17:35,e5938957-5cb1-44d8-b13a-496f345c2073,A
2019-11-27 04:18:26,e5938957-5cb1-44d8-b13a-496f345c2073,S
2019-11-27 04:27:58,e5938957-5cb1-44d8-b13a-496f345c2073,A
2019-11-27 04:34:01,e5938957-5cb1-44d8-b13a-496f345c2073,S
2019-11-27 04:41:59,e5938957-5cb1-44d8-b13a-496f345c2073,A
2019-11-27 02:41:16,002e2079-a60b-474f-9ed8-3d69c78fa5fe,S
2019-11-27 02:42:48,002e2079-a60b-474f-9ed8-3d69c78fa5fe,A
2019-11-27 02:43:37,002e2079-a60b-474f-9ed8-3d69c78fa5fe,S
2019-11-27 02:43:43,002e2079-a60b-474f-9ed8-3d69c78fa5fe,A
2019-11-27 02:43:49,002e2079-a60b-474f-9ed8-3d69c78fa5fe,S
2019-11-27 02:44:13,002e2079-a60b-474f-9ed8-3d69c78fa5fe,A
2019-11-27 02:48:59,002e2079-a60b-474f-9ed8-3d69c78fa5fe,S
2019-11-27 02:53:06,002e2079-a60b-474f-9ed8-3d69c78fa5fe,A
2019-11-27 02:54:55,002e2079-a60b-474f-9ed8-3d69c78fa5fe,S
2019-11-27 02:57:08,002e2079-a60b-474f-9ed8-3d69c78fa5fe,A
2019-11-27 03:07:46,002e2079-a60b-474f-9ed8-3d69c78fa5fe,S
2019-11-27 03:09:48,002e2079-a60b-474f-9ed8-3d69c78fa5fe,A
2019-11-27 03:18:57,002e2079-a60b-474f-9ed8-3d69c78fa5fe,S
2019-11-27 03:21:33,002e2079-a60b-474f-9ed8-3d69c78fa5fe,A
2019-11-27 03:30:09,002e2079-a60b-474f-9ed8-3d69c78fa5fe,S
2019-11-27 03:32:10,002e2079-a60b-474f-9ed8-3d69c78fa5fe,A
2019-11-27 03:33:59,002e2079-a60b-474f-9ed8-3d69c78fa5fe,S
2019-11-27 03:37:03,002e2079-a60b-474f-9ed8-3d69c78fa5fe,A
2019-11-27 03:37:10,002e2079-a60b-474f-9ed8-3d69c78fa5fe,S
2019-11-27 03:49:14,002e2079-a60b-474f-9ed8-3d69c78fa5fe,A
2019-11-27 03:52:53,002e2079-a60b-474f-9ed8-3d69c78fa5fe,S
2019-11-27 04:04:36,002e2079-a60b-474f-9ed8-3d69c78fa5fe,A
2019-11-27 04:05:21,002e2079-a60b-474f-9ed8-3d69c78fa5fe,S
2019-11-27 04:12:14,002e2079-a60b-474f-9ed8-3d69c78fa5fe,A
2019-11-27 04:13:34,002e2079-a60b-474f-9ed8-3d69c78fa5fe,S
2019-11-27 04:16:01,002e2079-a60b-474f-9ed8-3d69c78fa5fe,A
2019-11-27 04:24:26,002e2079-a60b-474f-9ed8-3d69c78fa5fe,S
2019-11-27 04:32:36,002e2079-a60b-474f-9ed8-3d69c78fa5fe,A
2019-11-27 04:42:45,002e2079-a60b-474f-9ed8-3d69c78fa5fe,S
2019-11-27 02:51:09,af2fbfbe-7052-4a05-9855-01e99cae5281,A
2019-11-27 02:54:00,af2fbfbe-7052-4a05-9855-01e99cae5281,S
2019-11-27 02:59:07,af2fbfbe-7052-4a05-9855-01e99cae5281,A
2019-11-27 03:14:34,af2fbfbe-7052-4a05-9855-01e99cae5281,S
2019-11-27 03:23:37,af2fbfbe-7052-4a05-9855-01e99cae5281,A
2019-11-27 03:33:20,af2fbfbe-7052-4a05-9855-01e99cae5281,S
2019-11-27 03:41:51,af2fbfbe-7052-4a05-9855-01e99cae5281,A
2019-11-27 03:42:36,af2fbfbe-7052-4a05-9855-01e99cae5281,S
2019-11-27 03:42:55,af2fbfbe-7052-4a05-9855-01e99cae5281,A
2019-11-27 03:14:23,13aacddd-f39b-40b2-a8ff-6aafb065cd2d,S
2019-11-27 03:16:19,13aacddd-f39b-40b2-a8ff-6aafb065cd2d,A
2019-11-27 03:19:27,13aacddd-f39b-40b2-a8ff-6aafb065cd2d,S
2019-11-27 03:19:56,13aacddd-f39b-40b2-a8ff-6aafb065cd2d,A
2019-11-27 03:23:05,13aacddd-f39b-40b2-a8ff-6aafb065cd2d,S
2019-11-27 03:25:05,13aacddd-f39b-40b2-a8ff-6aafb065cd2d,A
2019-11-27 03:29:22,13aacddd-f39b-40b2-a8ff-6aafb065cd2d,S
2019-11-27 03:30:19,13aacddd-f39b-40b2-a8ff-6aafb065cd2d,A
2019-11-27 03:31:08,13aacddd-f39b-40b2-a8ff-6aafb065cd2d,S
2019-11-27 03:38:35,13aacddd-f39b-40b2-a8ff-6aafb065cd2d,A
2019-11-27 03:40:48,13aacddd-f39b-40b2-a8ff-6aafb065cd2d,S
2019-11-27 03:44:19,13aacddd-f39b-40b2-a8ff-6aafb065cd2d,A
2019-11-27 03:52:36,13aacddd-f39b-40b2-a8ff-6aafb065cd2d,S
2019-11-27 04:00:00,13aacddd-f39b-40b2-a8ff-6aafb065cd2d,A
2019-11-27 04:02:03,13aacddd-f39b-40b2-a8ff-6aafb065cd2d,S
2019-11-27 04:04:48,13aacddd-f39b-40b2-a8ff-6aafb065cd2d,A
2019-11-27 04:05:52,13aacddd-f39b-40b2-a8ff-6aafb065cd2d,S
2019-11-27 04:07:10,13aacddd-f39b-40b2-a8ff-6aafb065cd2d,A
2019-11-27 04:08:42,13aacddd-f39b-40b2-a8ff-6aafb065cd2d,S
2019-11-27 04:16:50,13aacddd-f39b-40b2-a8ff-6aafb065cd2d,A
2019-11-27 04:17:00,13aacddd-f39b-40b2-a8ff-6aafb065cd2d,S
2019-11-27 04:17:12,13aacddd-f39b-40b2-a8ff-6aafb065cd2d,A
2019-11-27 04:21:02,13aacddd-f39b-40b2-a8ff-6aafb065cd2d,S
2019-11-27 04:23:26,13aacddd-f39b-40b2-a8ff-6aafb065cd2d,A
2019-11-27 04:24:11,13aacddd-f39b-40b2-a8ff-6aafb065cd2d,S
2019-11-27 04:25:29,13aacddd-f39b-40b2-a8ff-6aafb065cd2d,A
2019-11-27 04:26:22,13aacddd-f39b-40b2-a8ff-6aafb065cd2d,S
2019-11-27 04:34:45,13aacddd-f39b-40b2-a8ff-6aafb065cd2d,A
2019-11-27 04:35:58,13aacddd-f39b-40b2-a8ff-6aafb065cd2d,S
2019-11-27 03:08:50,6a09dd48-5e32-4ce4-8a9d-719f6f4614da,A
2019-11-27 03:20:21,6a09dd48-5e32-4ce4-8a9d-719f6f4614da,S
2019-11-27 03:30:17,6a09dd48-5e32-4ce4-8a9d-719f6f4614da,A
2019-11-27 03:35:45,6a09dd48-5e32-4ce4-8a9d-719f6f4614da,S
2019-11-27 03:36:27,6a09dd48-5e32-4ce4-8a9d-719f6f4614da,A
2019-11-27 03:37:24,6a09dd48-5e32-4ce4-8a9d-719f6f4614da,S
2019-11-27 03:39:22,6a09dd48-5e32-4ce4-8a9d-719f6f4614da,A
2019-11-27 03:40:42,6a09dd48-5e32-4ce4-8a9d-719f6f4614da,S
2019-11-27 03:48:01,6a09dd48-5e32-4ce4-8a9d-719f6f4614da,A
2019-11-27 03:49:55,6a09dd48-5e32-4ce4-8a9d-719f6f4614da,S
2019-11-27 03:51:38,6a09dd48-5e32-4ce4-8a9d-719f6f4614da,A
2019-11-27 04:07:02,6a09dd48-5e32-4ce4-8a9d-719f6f4614da,S
2019-11-27 04:12:56,6a09dd48-5e32-4ce4-8a9d-719f6f4614da,A
2019-11-27 04:17:29,6a09dd48-5e32-4ce4-8a9d-719f6f4614da,S
2019-11-27 04:18:33,6a09dd48-5e32-4ce4-8a9d-719f6f4614da,A
2019-11-27 04:20:53,6a09dd48-5e32-4ce4-8a9d-719f6f4614da,S
2019-11-27 04:24:32,6a09dd48-5e32-4ce4-8a9d-719f6f4614da,A
2019-11-27 04:26:33,6a09dd48-5e32-4ce4-8a9d-719f6f4614da,S
2019-11-27 04:26:41,6a09dd48-5e32-4ce4-8a9d-719f6f4614da,A
2019-11-27 04:35:47,6a09dd48-5e32-4ce4-8a9d-719f6f4614da,S
2019-11-27 04:42:06,6a09dd48-5e32-4ce4-8a9d-719f6f4614da,A
2019-11-27 04:43:12,6a09dd48-5e32-4ce4-8a9d-719f6f4614da,S
2019-11-27 02:38:36,8d8d7162-d4e3-44c0-a113-b601f0918493,A
2019-11-27 02:54:39,8d8d7162-d4e3-44c0-a113-b601f0918493,S
2019-11-27 02:57:53,8d8d7162-d4e3-44c0-a113-b601f0918493,A
2019-11-27 03:00:39,8d8d7162-d4e3-44c0-a113-b601f0918493,S
2019-11-27 03:01:09,8d8d7162-d4e3-44c0-a113-b601f0918493,A
2019-11-27 03:15:07,8d8d7162-d4e3-44c0-a113-b601f0918493,S
2019-11-27 03:18:37,8d8d7162-d4e3-44c0-a113-b601f0918493,A
2019-11-27 03:21:28,8d8d7162-d4e3-44c0-a113-b601f0918493,S
2019-11-27 03:25:28,8d8d7162-d4e3-44c0-a113-b601f0918493,A
2019-11-27 03:38:52,8d8d7162-d4e3-44c0-a113-b601f0918493,S
2019-11-27 03:39:03,8d8d7162-d4e3-44c0-a113-b601f0918493,A
2019-11-27 03:47:45,8d8d7162-d4e3-44c0-a113-b601f0918493,S
2019-11-27 03:52:01,8d8d7162-d4e3-44c0-a113-b601f0918493,A
2019-11-27 03:58:38,8d8d7162-d4e3-44c0-a113-b601f0918493,S
2019-11-27 04:01:10,8d8d7162-d4e3-44c0-a113-b601f0918493,A
2019-11-27 04:12:20,8d8d7162-d4e3-44c0-a113-b601f0918493,S
2019-11-27 04:14:15,8d8d7162-d4e3-44c0-a113-b601f0918493,A
2019-11-27 04:15:13,8d8d7162-d4e3-44c0-a113-b601f0918493,S
2019-11-27 04:18:05,8d8d7162-d4e3-44c0-a113-b601f0918493,A
2019-11-27 04:24:04,8d8d7162-d4e3-44c0-a113-b601f0918493,S
2019-11-27 04:32:52,8d8d7162-d4e3-44c0-a113-b601f0918493,A
2019-11-27 04:35:55,8d8d7162-d4e3-44c0-a113-b601f0918493,S
2019-11-27 04:37:46,8d8d7162-d4e3-44c0-a113-b601f0918493,A
2019-11-27 04:39:56,8d8d7162-d4e3-44c0-a113-b601f0918493,S
2019-11-27 03:11:49,3def7d87-9c81-46d9-80ee-85c1d2bb155b,A
2019-11-27 03:12:18,3def7d87-9c81-46d9-80ee-85c1d2bb155b,S
2019-11-27 03:20:48,3def7d87-9c81-46d9-80ee-85c1d2bb155b,A
2019-11-27 03:22:07,3def7d87-9c81-46d9-80ee-85c1d2bb155b,S
2019-11-27 03:30:44,3def7d87-9c81-46d9-80ee-85c1d2bb155b,S
2019-11-27 03:31:59,3def7d87-9c81-46d9-80ee-85c1d2bb155b,A
2019-11-27 03:32:49,3def7d87-9c81-46d9-80ee-85c1d2bb155b,S
2019-11-27 03:36:36,3def7d87-9c81-46d9-80ee-85c1d2bb155b,A
2019-11-27 03:37:42,3def7d87-9c81-46d9-80ee-85c1d2bb155b,S
2019-11-27 03:37:54,3def7d87-9c81-46d9-80ee-85c1d2bb155b,A
2019-11-27 03:43:27,3def7d87-9c81-46d9-80ee-85c1d2bb155b,S
2019-11-27 03:48:47,3def7d87-9c81-46d9-80ee-85c1d2bb155b,A
2019-11-27 04:01:02,3def7d87-9c81-46d9-80ee-85c1d2bb155b,S
2019-11-27 04:01:17,3def7d87-9c81-46d9-80ee-85c1d2bb155b,A
2019-11-27 04:05:27,3def7d87-9c81-46d9-80ee-85c1d2bb155b,S
2019-11-27 04:15:04,3def7d87-9c81-46d9-80ee-85c1d2bb155b,A
2019-11-27 04:27:09,3def7d87-9c81-46d9-80ee-85c1d2bb155b,S
2019-11-27 04:30:38,3def7d87-9c81-46d9-80ee-85c1d2bb155b,A
2019-11-27 04:35:01,3def7d87-9c81-46d9-80ee-85c1d2bb155b,S
2019-11-27 04:36:26,3def7d87-9c81-46d9-80ee-85c1d2bb155b,A
2019-11-27 04:37:01,3def7d87-9c81-46d9-80ee-85c1d2bb155b,S
2019-11-27 04:44:02,3def7d87-9c81-46d9-80ee-85c1d2bb155b,A
2019-11-27 03:06:13,f6ffd763-d6d5-47ac-9dfb-022470b46986,S
2019-11-27 03:06:17,f6ffd763-d6d5-47ac-9dfb-022470b46986,A
2019-11-27 03:13:28,f6ffd763-d6d5-47ac-9dfb-022470b46986,S
2019-11-27 03:24:58,f6ffd763-d6d5-47ac-9dfb-022470b46986,A
2019-11-27 03:26:34,f6ffd763-d6d5-47ac-9dfb-022470b46986,S
2019-11-27 03:29:41,f6ffd763-d6d5-47ac-9dfb-022470b46986,A
2019-11-27 03:29:58,f6ffd763-d6d5-47ac-9dfb-022470b46986,S
2019-11-27 03:47:57,f6ffd763-d6d5-47ac-9dfb-022470b46986,A
2019-11-27 03:50:21,f6ffd763-d6d5-47ac-9dfb-022470b46986,S
2019-11-27 04:02:43,f6ffd763-d6d5-47ac-9dfb-022470b46986,A
2019-11-27 04:14:50,f6ffd763-d6d5-47ac-9dfb-022470b46986,S
2019-11-27 04:20:22,f6ffd763-d6d5-47ac-9dfb-022470b46986,A
2019-11-27 04:20:48,f6ffd763-d6d5-47ac-9dfb-022470b46986,S
2019-11-27 04:23:03,f6ffd763-d6d5-47ac-9dfb-022470b46986,A
2019-11-27 04:26:42,f6ffd763-d6d5-47ac-9dfb-022470b46986,S
2019-11-27 04:30:02,f6ffd763-d6d5-47ac-9dfb-022470b46986,A
2019-11-27 04:34:32,f6ffd763-d6d5-47ac-9dfb-022470b46986,S
2019-11-27 04:35:29,f6ffd763-d6d5-47ac-9dfb-022470b46986,A
2019-11-27 04:35:51,f6ffd763-d6d5-47ac-9dfb-022470b46986,S
2019-11-27 04:36:49,f6ffd763-d6d5-47ac-9dfb-022470b46986,A
2019-11-27 03:23:47,3a4a02f9-1bf6-4f6d-bb41-27253965e01f,A
2019-11-27 03:57:33,3a4a02f9-1bf6-4f6d-bb41-27253965e01f,S
2019-11-27 03:58:00,3a4a02f9-1bf6-4f6d-bb41-27253965e01f,A
2019-11-27 04:27:17,3a4a02f9-1bf6-4f6d-bb41-27253965e01f,S
2019-11-27 04:30:20,3a4a02f9-1bf6-4f6d-bb41-27253965e01f,A
2019-11-27 04:32:48,3a4a02f9-1bf6-4f6d-bb41-27253965e01f,S
2019-11-27 04:34:20,3a4a02f9-1bf6-4f6d-bb41-27253965e01f,A
2019-11-27 04:35:06,3a4a02f9-1bf6-4f6d-bb41-27253965e01f,S
2019-11-27 04:38:21,3a4a02f9-1bf6-4f6d-bb41-27253965e01f,A
2019-11-27 03:17:11,107aa390-b6b3-466f-86fe-f4802d8594e9,S
2019-11-27 03:17:53,107aa390-b6b3-466f-86fe-f4802d8594e9,A
2019-11-27 03:21:24,107aa390-b6b3-466f-86fe-f4802d8594e9,S
2019-11-27 03:25:27,107aa390-b6b3-466f-86fe-f4802d8594e9,A
2019-11-27 03:33:15,107aa390-b6b3-466f-86fe-f4802d8594e9,S
2019-11-27 03:39:45,107aa390-b6b3-466f-86fe-f4802d8594e9,A
2019-11-27 03:43:55,107aa390-b6b3-466f-86fe-f4802d8594e9,S
2019-11-27 03:45:21,107aa390-b6b3-466f-86fe-f4802d8594e9,A
2019-11-27 03:55:45,107aa390-b6b3-466f-86fe-f4802d8594e9,S
2019-11-27 03:56:01,107aa390-b6b3-466f-86fe-f4802d8594e9,A
2019-11-27 03:56:17,107aa390-b6b3-466f-86fe-f4802d8594e9,S
2019-11-27 03:57:46,107aa390-b6b3-466f-86fe-f4802d8594e9,A
2019-11-27 04:05:36,107aa390-b6b3-466f-86fe-f4802d8594e9,S
2019-11-27 04:09:33,107aa390-b6b3-466f-86fe-f4802d8594e9,A
2019-11-27 04:12:12,107aa390-b6b3-466f-86fe-f4802d8594e9,S
2019-11-27 04:14:39,107aa390-b6b3-466f-86fe-f4802d8594e9,A
2019-11-27 04:16:46,107aa390-b6b3-466f-86fe-f4802d8594e9,S
2019-11-27 04:21:26,107aa390-b6b3-466f-86fe-f4802d8594e9,A
2019-11-27 04:27:48,107aa390-b6b3-466f-86fe-f4802d8594e9,S
2019-11-27 04:27:58,107aa390-b6b3-466f-86fe-f4802d8594e9,A
2019-11-27 04:28:37,107aa390-b6b3-466f-86fe-f4802d8594e9,S
2019-11-27 04:30:55,107aa390-b6b3-466f-86fe-f4802d8594e9,A
2019-11-27 03:22:36,97b44b2f-b8b2-4aeb-9840-271e8555e70c,S
2019-11-27 03:27:59,97b44b2f-b8b2-4aeb-9840-271e8555e70c,A
2019-11-27 03:29:24,97b44b2f-b8b2-4aeb-9840-271e8555e70c,S
2019-11-27 03:31:35,97b44b2f-b8b2-4aeb-9840-271e8555e70c,A
2019-11-27 03:38:37,97b44b2f-b8b2-4aeb-9840-271e8555e70c,S
2019-11-27 03:44:43,97b44b2f-b8b2-4aeb-9840-271e8555e70c,A
2019-11-27 03:48:38,97b44b2f-b8b2-4aeb-9840-271e8555e70c,S
2019-11-27 03:52:00,97b44b2f-b8b2-4aeb-9840-271e8555e70c,A
2019-11-27 03:53:34,97b44b2f-b8b2-4aeb-9840-271e8555e70c,S
2019-11-27 03:53:44,97b44b2f-b8b2-4aeb-9840-271e8555e70c,A
2019-11-27 03:56:05,97b44b2f-b8b2-4aeb-9840-271e8555e70c,S
2019-11-27 04:00:21,97b44b2f-b8b2-4aeb-9840-271e8555e70c,A
2019-11-27 04:03:16,97b44b2f-b8b2-4aeb-9840-271e8555e70c,S
2019-11-27 04:04:10,97b44b2f-b8b2-4aeb-9840-271e8555e70c,A
2019-11-27 04:14:34,97b44b2f-b8b2-4aeb-9840-271e8555e70c,S
2019-11-27 04:14:38,97b44b2f-b8b2-4aeb-9840-271e8555e70c,A
2019-11-27 04:15:09,97b44b2f-b8b2-4aeb-9840-271e8555e70c,S
2019-11-27 04:15:39,97b44b2f-b8b2-4aeb-9840-271e8555e70c,A
2019-11-27 04:15:52,97b44b2f-b8b2-4aeb-9840-271e8555e70c,S
2019-11-27 04:19:47,97b44b2f-b8b2-4aeb-9840-271e8555e70c,A
2019-11-27 04:27:36,97b44b2f-b8b2-4aeb-9840-271e8555e70c,S
2019-11-27 04:33:34,97b44b2f-b8b2-4aeb-9840-271e8555e70c,A
2019-11-27 04:36:27,97b44b2f-b8b2-4aeb-9840-271e8555e70c,S
2019-11-27 04:38:27,97b44b2f-b8b2-4aeb-9840-271e8555e70c,A
2019-11-27 03:05:01,63493174-a274-45f5-997c-699d78e92bef,A
2019-11-27 03:23:55,63493174-a274-45f5-997c-699d78e92bef,S
2019-11-27 03:24:16,63493174-a274-45f5-997c-699d78e92bef,A
2019-11-27 03:27:00,63493174-a274-45f5-997c-699d78e92bef,S
2019-11-27 03:31:00,63493174-a274-45f5-997c-699d78e92bef,A
2019-11-27 03:31:30,63493174-a274-45f5-997c-699d78e92bef,S
2019-11-27 03:34:31,63493174-a274-45f5-997c-699d78e92bef,A
2019-11-27 03:36:10,63493174-a274-45f5-997c-699d78e92bef,S
2019-11-27 03:50:39,63493174-a274-45f5-997c-699d78e92bef,A
2019-11-27 03:52:15,63493174-a274-45f5-997c-699d78e92bef,S
2019-11-27 03:52:21,63493174-a274-45f5-997c-699d78e92bef,A
2019-11-27 03:54:41,63493174-a274-45f5-997c-699d78e92bef,S
2019-11-27 03:54:49,63493174-a274-45f5-997c-699d78e92bef,A
2019-11-27 03:56:51,63493174-a274-45f5-997c-699d78e92bef,S
2019-11-27 04:00:52,63493174-a274-45f5-997c-699d78e92bef,A
2019-11-27 04:11:35,63493174-a274-45f5-997c-699d78e92bef,S
2019-11-27 04:17:19,63493174-a274-45f5-997c-699d78e92bef,A
2019-11-27 04:19:33,63493174-a274-45f5-997c-699d78e92bef,S
2019-11-27 04:22:59,63493174-a274-45f5-997c-699d78e92bef,A
2019-11-27 04:26:32,63493174-a274-45f5-997c-699d78e92bef,S
2019-11-27 04:44:17,63493174-a274-45f5-997c-699d78e92bef,A
