date,trigger,state
2020-02-25 05:01:50,5f6cdd7e-1be4-4314-a9b9-b2787c624285,A
2020-02-25 05:05:18,5f6cdd7e-1be4-4314-a9b9-b2787c624285,S
2020-02-25 05:13:51,5f6cdd7e-1be4-4314-a9b9-b2787c624285,A
2020-02-25 05:16:54,5f6cdd7e-1be4-4314-a9b9-b2787c624285,S
2020-02-25 05:17:11,5f6cdd7e-1be4-4314-a9b9-b2787c624285,A
2020-02-25 05:19:39,5f6cdd7e-1be4-4314-a9b9-b2787c624285,S
2020-02-25 05:24:59,5f6cdd7e-1be4-4314-a9b9-b2787c624285,A
2020-02-25 05:28:54,5f6cdd7e-1be4-4314-a9b9-b2787c624285,S
2020-02-25 05:31:39,5f6cdd7e-1be4-4314-a9b9-b2787c624285,A
2020-02-25 05:42:27,5f6cdd7e-1be4-4314-a9b9-b2787c624285,S
2020-02-25 05:48:05,5f6cdd7e-1be4-4314-a9b9-b2787c624285,A
2020-02-25 06:10:39,5f6cdd7e-1be4-4314-a9b9-b2787c624285,S
2020-02-25 06:35:00,5f6cdd7e-1be4-4314-a9b9-b2787c624285,A
2020-02-25 06:41:34,5f6cdd7e-1be4-4314-a9b9-b2787c624285,S
2020-02-25 06:45:00,5f6cdd7e-1be4-4314-a9b9-b2787c624285,A
2020-02-25 06:47:55,5f6cdd7e-1be4-4314-a9b9-b2787c624285,S
2020-02-25 06:52:39,5f6cdd7e-1be4-4314-a9b9-b2787c624285,A
2020-02-25 05:35:23,03e2f281-344b-40e7-a23e-4d619a108ea9,S
2020-02-25 05:37:18,03e2f281-344b-40e7-a23e-4d619a108ea9,A
2020-02-25 05:40:27,03e2f281-344b-40e7-a23e-4d619a108ea9,S
2020-02-25 05:40:56,03e2f281-344b-40e7-a23e-4d619a108ea9,A
2020-02-25 05:44:04,03e2f281-344b-40e7-a23e-4d619a108ea9,S
2020-02-25 05:46:05,03e2f281-344b-40e7-a23e-4d619a108ea9,A
2020-02-25 05:50:21,03e2f281-344b-40e7-a23e-4d619a108ea9,S
2020-02-25 05:51:18,03e2f281-344b-40e7-a23e-4d619a108ea9,A
2020-02-25 05:52:08,03e2f281-344b-40e7-a23e-4d619a108ea9,S
2020-02-25 05:59:34,03e2f281-344b-40e7-a23e-4d619a108ea9,A
2020-02-25 06:01:47,03e2f281-344b-40e7-a23e-4d619a108ea9,S
2020-02-25 06:05:19,03e2f281-344b-40e7-a23e-4d619a108ea9,A
2020-02-25 06:13:35,03e2f281-344b-40e7-a23e-4d619a108ea9,S
2020-02-25 06:21:00,03e2f281-344b-40e7-a23e-4d619a108ea9,A
2020-02-25 06:23:02,03e2f281-344b-40e7-a23e-4d619a108ea9,S
2020-02-25 06:25:47,03e2f281-344b-40e7-a23e-4d619a108ea9,A
2020-02-25 06:26:52,03e2f281-344b-40e7-a23e-4d619a108ea9,S
2020-02-25 06:28:09,03e2f281-344b-40e7-a23e-4d619a108ea9,A
2020-02-25 06:29:42,03e2f281-344b-40e7-a23e-4d619a108ea9,S
2020-02-25 06:37:49,03e2f281-344b-40e7-a23e-4d619a108ea9,A
2020-02-25 06:37:59,03e2f281-344b-40e7-a23e-4d619a108ea9,S
2020-02-25 06:38:11,03e2f281-344b-40e7-a23e-4d619a108ea9,A
2020-02-25 06:42:02,03e2f281-344b-40e7-a23e-4d619a108ea9,S
2020-02-25 06:44:26,03e2f281-344b-40e7-a23e-4d619a108ea9,A
2020-02-25 06:45:10,03e2f281-344b-40e7-a23e-4d619a108ea9,S
2020-02-25 06:46:28,03e2f281-344b-40e7-a23e-4d619a108ea9,A
2020-02-25 06:47:22,03e2f281-344b-40e7-a23e-4d619a108ea9,S
2020-02-25 06:55:44,03e2f281-344b-40e7-a23e-4d619a108ea9,A
2020-02-25 06:56:57,03e2f281-344b-40e7-a23e-4d619a108ea9,S
2020-02-25 05:16:44,caa23add-e153-4813-864b-f44f96ba1288,S
2020-02-25 05:24:23,caa23add-e153-4813-864b-f44f96ba1288,A
2020-02-25 05:26:18,caa23add-e153-4813-864b-f44f96ba1288,S
2020-02-25 05:37:36,caa23add-e153-4813-864b-f44f96ba1288,A
2020-02-25 05:39:26,caa23add-e153-4813-864b-f44f96ba1288,S
2020-02-25 05:40:07,caa23add-e153-4813-864b-f44f96ba1288,A
2020-02-25 05:49:38,caa23add-e153-4813-864b-f44f96ba1288,S
2020-02-25 05:52:53,caa23add-e153-4813-864b-f44f96ba1288,A
2020-02-25 05:53:29,caa23add-e153-4813-864b-f44f96ba1288,S
2020-02-25 05:54:00,caa23add-e153-4813-864b-f44f96ba1288,A
2020-02-25 05:59:04,caa23add-e153-4813-864b-f44f96ba1288,S
2020-02-25 05:59:29,caa23add-e153-4813-864b-f44f96ba1288,A
2020-02-25 05:59:53,caa23add-e153-4813-864b-f44f96ba1288,S
2020-02-25 06:00:37,caa23add-e153-4813-864b-f44f96ba1288,A
2020-02-25 06:02:29,caa23add-e153-4813-864b-f44f96ba1288,S
2020-02-25 06:03:21,caa23add-e153-4813-864b-f44f96ba1288,A
2020-02-25 06:13:55,caa23add-e153-4813-864b-f44f96ba1288,S
2020-02-25 06:15:07,caa23add-e153-4813-864b-f44f96ba1288,A
2020-02-25 06:21:59,caa23add-e153-4813-864b-f44f96ba1288,S
2020-02-25 06:30:39,caa23add-e153-4813-864b-f44f96ba1288,A
2020-02-25 06:33:47,caa23add-e153-4813-864b-f44f96ba1288,S
2020-02-25 06:37:22,caa23add-e153-4813-864b-f44f96ba1288,A
2020-02-25 06:37:39,caa23add-e153-4813-864b-f44f96ba1288,S
2020-02-25 06:44:44,caa23add-e153-4813-864b-f44f96ba1288,A
2020-02-25 06:44:52,caa23add-e153-4813-864b-f44f96ba1288,S
2020-02-25 06:45:17,caa23add-e153-4813-864b-f44f96ba1288,A
2020-02-25 06:45:54,caa23add-e153-4813-864b-f44f96ba1288,S
2020-02-25 06:47:59,caa23add-e153-4813-864b-f44f96ba1288,A
2020-02-25 06:48:02,caa23add-e153-4813-864b-f44f96ba1288,S
2020-02-25 06:59:48,caa23add-e153-4813-864b-f44f96ba1288,A
2020-02-25 05:17:12,5a7ef244-396d-4231-8077-b901dd234b6a,A
2020-02-25 05:20:53,5a7ef244-396d-4231-8077-b901dd234b6a,S
2020-02-25 05:24:13,5a7ef244-396d-4231-8077-b901dd234b6a,A
2020-02-25 05:25:52,5a7ef244-396d-4231-8077-b901dd234b6a,S
2020-02-25 05:41:23,5a7ef244-396d-4231-8077-b901dd234b6a,A
2020-02-25 05:43:07,5a7ef244-396d-4231-8077-b901dd234b6a,S
2020-02-25 05:43:30,5a7ef244-396d-4231-8077-b901dd234b6a,A
2020-02-25 06:05:18,5a7ef244-396d-4231-8077-b901dd234b6a,S
2020-02-25 06:12:29,5a7ef244-396d-4231-8077-b901dd234b6a,A
2020-02-25 06:16:49,5a7ef244-396d-4231-8077-b901dd234b6a,S
2020-02-25 06:17:29,5a7ef244-396d-4231-8077-b901dd234b6a,A
2020-02-25 06:21:44,5a7ef244-396d-4231-8077-b901dd234b6a,S
2020-02-25 06:23:34,5a7ef244-396d-4231-8077-b901dd234b6a,A
2020-02-25 06:26:17,5a7ef244-396d-4231-8077-b901dd234b6a,S
2020-02-25 06:35:31,5a7ef244-396d-4231-8077-b901dd234b6a,A
2020-02-25 06:43:07,5a7ef244-396d-4231-8077-b901dd234b6a,S
2020-02-25 06:48:04,5a7ef244-396d-4231-8077-b901dd234b6a,A
2020-02-25 06:54:41,5a7ef244-396d-4231-8077-b901dd234b6a,S
2020-02-25 05:32:27,9d9cd8a3-94aa-4fc8-8d8b-9d97b85ac071,A
2020-02-25 05:33:07,9d9cd8a3-94aa-4fc8-8d8b-9d97b85ac071,S
2020-02-25 05:34:42,9d9cd8a3-94aa-4fc8-8d8b-9d97b85ac071,A
2020-02-25 05:48:55,9d9cd8a3-94aa-4fc8-8d8b-9d97b85ac071,S
2020-02-25 05:51:02,9d9cd8a3-94aa-4fc8-8d8b-9d97b85ac071,A
2020-02-25 05:53:29,9d9cd8a3-94aa-4fc8-8d8b-9d97b85ac071,S
2020-02-25 06:01:07,9d9cd8a3-94aa-4fc8-8d8b-9d97b85ac071,A
2020-02-25 06:04:46,9d9cd8a3-94aa-4fc8-8d8b-9d97b85ac071,S
2020-02-25 06:08:08,9d9cd8a3-94aa-4fc8-8d8b-9d97b85ac071,A
2020-02-25 06:18:58,9d9cd8a3-94aa-4fc8-8d8b-9d97b85ac071,S
2020-02-25 06:19:02,9d9cd8a3-94aa-4fc8-8d8b-9d97b85ac071,A
2020-02-25 06:28:33,9d9cd8a3-94aa-4fc8-8d8b-9d97b85ac071,S
2020-02-25 06:49:02,9d9cd8a3-94aa-4fc8-8d8b-9d97b85ac071,A
2020-02-25 06:56:17,9d9cd8a3-94aa-4fc8-8d8b-9d97b85ac071,S
2020-02-25 07:00:15,9d9cd8a3-94aa-4fc8-8d8b-9d97b85ac071,A
2020-02-25 05:12:40,e3a4276f-75a4-4435-bda9-077add0cc998,A
2020-02-25 05:18:43,e3a4276f-75a4-4435-bda9-077add0cc998,S
2020-02-25 05:21:31,e3a4276f-75a4-4435-bda9-077add0cc998,A
2020-02-25 05:22:09,e3a4276f-75a4-4435-bda9-077add0cc998,S
2020-02-25 05:22:54,e3a4276f-75a4-4435-bda9-077add0cc998,A
2020-02-25 05:32:10,e3a4276f-75a4-4435-bda9-077add0cc998,S
2020-02-25 05:32:35,e3a4276f-75a4-4435-bda9-077add0cc998,A
2020-02-25 05:33:26,e3a4276f-75a4-4435-bda9-077add0cc998,S
2020-02-25 05:38:19,e3a4276f-75a4-4435-bda9-077add0cc998,A
2020-02-25 05:43:19,e3a4276f-75a4-4435-bda9-077add0cc998,S
2020-02-25 05:43:31,e3a4276f-75a4-4435-bda9-077add0cc998,A
2020-02-25 05:44:15,e3a4276f-75a4-4435-bda9-077add0cc998,S
2020-02-25 05:46:36,e3a4276f-75a4-4435-bda9-077add0cc998,A
2020-02-25 05:49:36,e3a4276f-75a4-4435-bda9-077add0cc998,S
2020-02-25 05:50:52,e3a4276f-75a4-4435-bda9-077add0cc998,A
2020-02-25 05:50:56,e3a4276f-75a4-4435-bda9-077add0cc998,S
2020-02-25 05:59:02,e3a4276f-75a4-4435-bda9-077add0cc998,A
2020-02-25 06:02:19,e3a4276f-75a4-4435-bda9-077add0cc998,S
2020-02-25 06:04:11,e3a4276f-75a4-4435-bda9-077add0cc998,A
2020-02-25 06:11:33,e3a4276f-75a4-4435-bda9-077add0cc998,S
2020-02-25 06:21:48,e3a4276f-75a4-4435-bda9-077add0cc998,A
2020-02-25 06:37:15,e3a4276f-75a4-4435-bda9-077add0cc998,S
2020-02-25 06:39:38,e3a4276f-75a4-4435-bda9-077add0cc998,A
2020-02-25 06:39:49,e3a4276f-75a4-4435-bda9-077add0cc998,S
2020-02-25 06:47:55,e3a4276f-75a4-4435-bda9-077add0cc998,A
2020-02-25 06:48:18,e3a4276f-75a4-4435-bda9-077add0cc998,S
2020-02-25 06:56:37,e3a4276f-75a4-4435-bda9-077add0cc998,A
2020-02-25 05:29:49,36aabe9d-0bf1-4d10-b83d-66f6537a6d9e,A
2020-02-25 05:41:20,36aabe9d-0bf1-4d10-b83d-66f6537a6d9e,S
2020-02-25 05:51:16,36aabe9d-0bf1-4d10-b83d-66f6537a6d9e,A
2020-02-25 05:56:44,36aabe9d-0bf1-4d10-b83d-66f6537a6d9e,S
2020-02-25 05:57:26,36aabe9d-0bf1-4d10-b83d-66f6537a6d9e,A
2020-02-25 05:58:23,36aabe9d-0bf1-4d10-b83d-66f6537a6d9e,S
2020-02-25 06:00:20,36aabe9d-0bf1-4d10-b83d-66f6537a6d9e,A
2020-02-25 06:01:41,36aabe9d-0bf1-4d10-b83d-66f6537a6d9e,S
2020-02-25 06:09:00,36aabe9d-0bf1-4d10-b83d-66f6537a6d9e,A
2020-02-25 06:10:54,36aabe9d-0bf1-4d10-b83d-66f6537a6d9e,S
2020-02-25 06:12:37,36aabe9d-0bf1-4d10-b83d-66f6537a6d9e,A
2020-02-25 06:28:01,36aabe9d-0bf1-4d10-b83d-66f6537a6d9e,S
2020-02-25 06:33:55,36aabe9d-0bf1-4d10-b83d-66f6537a6d9e,A
2020-02-25 06:38:28,36aabe9d-0bf1-4d10-b83d-66f6537a6d9e,S
2020-02-25 06:39:31,36aabe9d-0bf1-4d10-b83d-66f6537a6d9e,A
2020-02-25 06:41:52,36aabe9d-0bf1-4d10-b83d-66f6537a6d9e,S
2020-02-25 06:45:31,36aabe9d-0bf1-4d10-b83d-66f6537a6d9e,A
2020-02-25 06:47:32,36aabe9d-0bf1-4d10-b83d-66f6537a6d9e,S
2020-02-25 06:47:40,36aabe9d-0bf1-4d10-b83d-66f6537a6d9e,A
2020-02-25 06:56:46,36aabe9d-0bf1-4d10-b83d-66f6537a6d9e,S
2020-02-25 05:32:36,576a3839-6ac0-4f72-830b-d47ddbbb53ae,A
2020-02-25 05:36:05,576a3839-6ac0-4f72-830b-d47ddbbb53ae,S
2020-02-25 05:38:21,576a3839-6ac0-4f72-830b-d47ddbbb53ae,A
2020-02-25 05:40:22,576a3839-6ac0-4f72-830b-d47ddbbb53ae,S
2020-02-25 05:40:57,576a3839-6ac0-4f72-830b-d47ddbbb53ae,A
2020-02-25 05:43:33,576a3839-6ac0-4f72-830b-d47ddbbb53ae,S
2020-02-25 05:50:24,576a3839-6ac0-4f72-830b-d47ddbbb53ae,A
2020-02-25 05:51:51,576a3839-6ac0-4f72-830b-d47ddbbb53ae,S
2020-02-25 06:02:07,576a3839-6ac0-4f72-830b-d47ddbbb53ae,A
2020-02-25 06:41:12,576a3839-6ac0-4f72-830b-d47ddbbb53ae,S
2020-02-25 06:51:06,576a3839-6ac0-4f72-830b-d47ddbbb53ae,A
2020-02-25 06:51:10,576a3839-6ac0-4f72-830b-d47ddbbb53ae,S
2020-02-25 06:51:52,576a3839-6ac0-4f72-830b-d47ddbbb53ae,A
2020-02-25 06:54:56,576a3839-6ac0-4f72-830b-d47ddbbb53ae,S
2020-02-25 06:56:18,576a3839-6ac0-4f72-830b-d47ddbbb53ae,A
2020-02-25 06:57:39,576a3839-6ac0-4f72-830b-d47ddbbb53ae,S
2020-02-25 07:01:48,576a3839-6ac0-4f72-830b-d47ddbbb53ae,A
2020-02-25 05:37:32,181e2838-912e-4dd1-830c-3abe21d4fd6b,A
2020-02-25 05:41:01,181e2838-912e-4dd1-830c-3abe21d4fd6b,S
2020-02-25 05:44:04,181e2838-912e-4dd1-830c-3abe21d4fd6b,A
2020-02-25 05:53:01,181e2838-912e-4dd1-830c-3abe21d4fd6b,S
2020-02-25 06:07:58,181e2838-912e-4dd1-830c-3abe21d4fd6b,A
2020-02-25 06:09:00,181e2838-912e-4dd1-830c-3abe21d4fd6b,S
2020-02-25 06:09:29,181e2838-912e-4dd1-830c-3abe21d4fd6b,A
2020-02-25 06:10:09,181e2838-912e-4dd1-830c-3abe21d4fd6b,S
2020-02-25 06:17:12,181e2838-912e-4dd1-830c-3abe21d4fd6b,A
2020-02-25 06:22:23,181e2838-912e-4dd1-830c-3abe21d4fd6b,S
2020-02-25 06:41:14,181e2838-912e-4dd1-830c-3abe21d4fd6b,A
2020-02-25 06:43:21,181e2838-912e-4dd1-830c-3abe21d4fd6b,S
2020-02-25 06:50:28,181e2838-912e-4dd1-830c-3abe21d4fd6b,A
2020-02-25 06:53:58,181e2838-912e-4dd1-830c-3abe21d4fd6b,S
2020-02-25 05:27:09,0140aaa0-4af6-4388-bd6c-a3d91790c7c5,S
2020-02-25 05:27:13,0140aaa0-4af6-4388-bd6c-a3d91790c7c5,A
2020-02-25 05:34:23,0140aaa0-4af6-4388-bd6c-a3d91790c7c5,S
2020-02-25 05:45:53,0140aaa0-4af6-4388-bd6c-a3d91790c7c5,A
2020-02-25 05:47:30,0140aaa0-4af6-4388-bd6c-a3d91790c7c5,S
2020-02-25 05:50:37,0140aaa0-4af6-4388-bd6c-a3d91790c7c5,A
2020-02-25 05:50:54,0140aaa0-4af6-4388-bd6c-a3d91790c7c5,S
2020-02-25 06:08:52,0140aaa0-4af6-4388-bd6c-a3d91790c7c5,A
2020-02-25 06:11:16,0140aaa0-4af6-4388-bd6c-a3d91790c7c5,S
2020-02-25 06:23:38,0140aaa0-4af6-4388-bd6c-a3d91790c7c5,A
2020-02-25 06:35:46,0140aaa0-4af6-4388-bd6c-a3d91790c7c5,S
2020-02-25 06:41:17,0140aaa0-4af6-4388-bd6c-a3d91790c7c5,A
2020-02-25 06:41:44,0140aaa0-4af6-4388-bd6c-a3d91790c7c5,S
2020-02-25 06:43:59,0140aaa0-4af6-4388-bd6c-a3d91790c7c5,A
2020-02-25 06:47:38,0140aaa0-4af6-4388-bd6c-a3d91790c7c5,S
2020-02-25 06:50:58,0140aaa0-4af6-4388-bd6c-a3d91790c7c5,A
2020-02-25 06:55:28,0140aaa0-4af6-4388-bd6c-a3d91790c7c5,S
2020-02-25 06:56:25,0140aaa0-4af6-4388-bd6c-a3d91790c7c5,A
2020-02-25 06:56:46,0140aaa0-4af6-4388-bd6c-a3d91790c7c5,S
2020-02-25 06:57:45,0140aaa0-4af6-4388-bd6c-a3d91790c7c5,A
2020-02-25 05:28:11,4a3efecf-4d92-4e5b-89b5-b0f158df1202,S
2020-02-25 05:32:20,4a3efecf-4d92-4e5b-89b5-b0f158df1202,A
2020-02-25 05:39:48,4a3efecf-4d92-4e5b-89b5-b0f158df1202,S
2020-02-25 05:44:00,4a3efecf-4d92-4e5b-89b5-b0f158df1202,A
2020-02-25 05:44:14,4a3efecf-4d92-4e5b-89b5-b0f158df1202,S
2020-02-25 05:53:43,4a3efecf-4d92-4e5b-89b5-b0f158df1202,A
2020-02-25 05:56:44,4a3efecf-4d92-4e5b-89b5-b0f158df1202,S
2020-02-25 05:58:11,4a3efecf-4d92-4e5b-89b5-b0f158df1202,A
2020-02-25 05:59:55,4a3efecf-4d92-4e5b-89b5-b0f158df1202,S
2020-02-25 06:09:35,4a3efecf-4d92-4e5b-89b5-b0f158df1202,A
2020-02-25 06:14:25,4a3efecf-4d92-4e5b-89b5-b0f158df1202,S
2020-02-25 06:16:08,4a3efecf-4d92-4e5b-89b5-b0f158df1202,A
2020-02-25 06:17:05,4a3efecf-4d92-4e5b-89b5-b0f158df1202,S
2020-02-25 06:22:32,4a3efecf-4d92-4e5b-89b5-b0f158df1202,A
2020-02-25 06:27:07,4a3efecf-4d92-4e5b-89b5-b0f158df1202,S
2020-02-25 06:31:48,4a3efecf-4d92-4e5b-89b5-b0f158df1202,A
2020-02-25 06:39:49,4a3efecf-4d92-4e5b-89b5-b0f158df1202,S
2020-02-25 06:45:00,4a3efecf-4d92-4e5b-89b5-b0f158df1202,A
2020-02-25 06:48:20,4a3efecf-4d92-4e5b-89b5-b0f158df1202,S
2020-02-25 07:01:06,4a3efecf-4d92-4e5b-89b5-b0f158df1202,A
2020-02-25 05:47:09,6c39675f-1be8-4838-893f-27162b92bf1c,S
2020-02-25 05:48:23,6c39675f-1be8-4838-893f-27162b92bf1c,A
2020-02-25 05:54:08,6c39675f-1be8-4838-893f-27162b92bf1c,S
2020-02-25 06:07:28,6c39675f-1be8-4838-893f-27162b92bf1c,A
2020-02-25 06:15:13,6c39675f-1be8-4838-893f-27162b92bf1c,S
2020-02-25 06:17:44,6c39675f-1be8-4838-893f-27162b92bf1c,A
2020-02-25 06:34:06,6c39675f-1be8-4838-893f-27162b92bf1c,S
2020-02-25 06:40:13,6c39675f-1be8-4838-893f-27162b92bf1c,A
2020-02-25 06:55:02,6c39675f-1be8-4838-893f-27162b92bf1c,S
2020-02-25 07:00:16,6c39675f-1be8-4838-893f-27162b92bf1c,A
2020-02-25 07:02:50,6c39675f-1be8-4838-893f-27162b92bf1c,S
2020-02-25 05:44:44,6658ea11-ca40-460d-b792-ba7387ee90c6,A
2020-02-25 06:18:30,6658ea11-ca40-460d-b792-ba7387ee90c6,S
2020-02-25 06:18:57,6658ea11-ca40-460d-b792-ba7387ee90c6,A
2020-02-25 06:48:14,6658ea11-ca40-460d-b792-ba7387ee90c6,S
2020-02-25 06:51:17,6658ea11-ca40-460d-b792-ba7387ee90c6,A
2020-02-25 06:53:45,6658ea11-ca40-460d-b792-ba7387ee90c6,S
2020-02-25 06:55:17,6658ea11-ca40-460d-b792-ba7387ee90c6,A
2020-02-25 06:56:03,6658ea11-ca40-460d-b792-ba7387ee90c6,S
2020-02-25 06:59:18,6658ea11-ca40-460d-b792-ba7387ee90c6,A
2020-02-25 05:07:35,a0640699-36c1-44ac-ba96-b99d4d31ef54,S
2020-02-25 05:11:02,a0640699-36c1-44ac-ba96-b99d4d31ef54,A
2020-02-25 05:17:05,a0640699-36c1-44ac-ba96-b99d4d31ef54,S
2020-02-25 05:27:01,a0640699-36c1-44ac-ba96-b99d4d31ef54,A
2020-02-25 05:47:10,a0640699-36c1-44ac-ba96-b99d4d31ef54,S
2020-02-25 05:53:05,a0640699-36c1-44ac-ba96-b99d4d31ef54,A
2020-02-25 06:03:54,a0640699-36c1-44ac-ba96-b99d4d31ef54,S
2020-02-25 06:09:20,a0640699-36c1-44ac-ba96-b99d4d31ef54,A
2020-02-25 06:13:36,a0640699-36c1-44ac-ba96-b99d4d31ef54,S
2020-02-25 06:19:10,a0640699-36c1-44ac-ba96-b99d4d31ef54,A
2020-02-25 06:19:21,a0640699-36c1-44ac-ba96-b99d4d31ef54,S
2020-02-25 06:21:05,a0640699-36c1-44ac-ba96-b99d4d31ef54,A
2020-02-25 06:27:00,a0640699-36c1-44ac-ba96-b99d4d31ef54,S
2020-02-25 06:28:43,a0640699-36c1-44ac-ba96-b99d4d31ef54,A
2020-02-25 06:33:14,a0640699-36c1-44ac-ba96-b99d4d31ef54,S
2020-02-25 06:36:48,a0640699-36c1-44ac-ba96-b99d4d31ef54,A
2020-02-25 06:42:07,a0640699-36c1-44ac-ba96-b99d4d31ef54,S
2020-02-25 06:49:51,a0640699-36c1-44ac-ba96-b99d4d31ef54,A
2020-02-25 05:32:49,f016f5e9-0532-42ec-a980-77460a41688a,A
2020-02-25 05:33:19,f016f5e9-0532-42ec-a980-77460a41688a,S
2020-02-25 05:41:48,f016f5e9-0532-42ec-a980-77460a41688a,A
2020-02-25 05:43:08,f016f5e9-0532-42ec-a980-77460a41688a,S
2020-02-25 05:43:08,f016f5e9-0532-42ec-a980-77460a41688a,A
2020-02-25 05:51:45,f016f5e9-0532-42ec-a980-77460a41688a,S
2020-02-25 05:52:59,f016f5e9-0532-42ec-a980-77460a41688a,A
2020-02-25 05:53:49,f016f5e9-0532-42ec-a980-77460a41688a,S
2020-02-25 05:57:36,f016f5e9-0532-42ec-a980-77460a41688a,A
2020-02-25 05:58:42,f016f5e9-0532-42ec-a980-77460a41688a,S
2020-02-25 05:58:55,f016f5e9-0532-42ec-a980-77460a41688a,A
2020-02-25 06:04:28,f016f5e9-0532-42ec-a980-77460a41688a,S
2020-02-25 06:09:47,f016f5e9-0532-42ec-a980-77460a41688a,A
2020-02-25 06:22:02,f016f5e9-0532-42ec-a980-77460a41688a,S
2020-02-25 06:22:17,f016f5e9-0532-42ec-a980-77460a41688a,A
2020-02-25 06:26:28,f016f5e9-0532-42ec-a980-77460a41688a,S
2020-02-25 06:36:04,f016f5e9-0532-42ec-a980-77460a41688a,A
2020-02-25 06:48:09,f016f5e9-0532-42ec-a980-77460a41688a,S
2020-02-25 06:51:39,f016f5e9-0532-42ec-a980-77460a41688a,A
2020-02-25 06:56:02,f016f5e9-0532-42ec-a980-77460a41688a,S
2020-02-25 06:57:26,f016f5e9-0532-42ec-a980-77460a41688a,A
2020-02-25 06:58:02,f016f5e9-0532-42ec-a980-77460a41688a,S
2020-02-25 05:02:07,912ccc8c-9f3a-4a69-b067-658d1e2d3ac4,S
2020-02-25 05:03:40,912ccc8c-9f3a-4a69-b067-658d1e2d3ac4,A
2020-02-25 05:04:29,912ccc8c-9f3a-4a69-b067-658d1e2d3ac4,S
2020-02-25 05:04:35,912ccc8c-9f3a-4a69-b067-658d1e2d3ac4,A
2020-02-25 05:04:41,912ccc8c-9f3a-4a69-b067-658d1e2d3ac4,S
2020-02-25 05:05:05,912ccc8c-9f3a-4a69-b067-658d1e2d3ac4,A
2020-02-25 05:09:50,912ccc8c-9f3a-4a69-b067-658d1e2d3ac4,S
2020-02-25 05:13:58,912ccc8c-9f3a-4a69-b067-658d1e2d3ac4,A
2020-02-25 05:15:47,912ccc8c-9f3a-4a69-b067-658d1e2d3ac4,S
2020-02-25 05:18:00,912ccc8c-9f3a-4a69-b067-658d1e2d3ac4,A
2020-02-25 05:28:38,912ccc8c-9f3a-4a69-b067-658d1e2d3ac4,S
2020-02-25 05:30:40,912ccc8c-9f3a-4a69-b067-658d1e2d3ac4,A
2020-02-25 05:39:49,912ccc8c-9f3a-4a69-b067-658d1e2d3ac4,S
2020-02-25 05:42:25,912ccc8c-9f3a-4a69-b067-658d1e2d3ac4,A
2020-02-25 05:51:00,912ccc8c-9f3a-4a69-b067-658d1e2d3ac4,S
2020-02-25 05:53:02,912ccc8c-9f3a-4a69-b067-658d1e2d3ac4,A
2020-02-25 05:54:51,912ccc8c-9f3a-4a69-b067-658d1e2d3ac4,S
2020-02-25 05:57:55,912ccc8c-9f3a-4a69-b067-658d1e2d3ac4,A
2020-02-25 05:58:02,912ccc8c-9f3a-4a69-b067-658d1e2d3ac4,S
2020-02-25 06:10:06,912ccc8c-9f3a-4a69-b067-658d1e2d3ac4,A
2020-02-25 06:13:44,912ccc8c-9f3a-4a69-b067-658d1e2d3ac4,S
2020-02-25 06:25:28,912ccc8c-9f3a-4a69-b067-658d1e2d3ac4,A
2020-02-25 06:26:13,912ccc8c-9f3a-4a69-b067-658d1e2d3ac4,S
2020-02-25 06:33:06,912ccc8c-9f3a-4a69-b067-658d1e2d3ac4,A
2020-02-25 06:34:26,912ccc8c-9f3a-4a69-b067-658d1e2d3ac4,S
2020-02-25 06:36:53,912ccc8c-9f3a-4a69-b067-658d1e2d3ac4,A
2020-02-25 06:45:18,912ccc8c-9f3a-4a69-b067-658d1e2d3ac4,S
2020-02-25 06:53:28,912ccc8c-9f3a-4a69-b067-658d1e2d3ac4,A
2020-02-25 07:03:37,912ccc8c-9f3a-4a69-b067-658d1e2d3ac4,S
2020-02-25 05:25:59,b3492f4d-f4d1-41f8-a07c-17050a56a23f,A
2020-02-25 05:44:52,b3492f4d-f4d1-41f8-a07c-17050a56a23f,S
2020-02-25 05:45:13,b3492f4d-f4d1-41f8-a07c-17050a56a23f,A
2020-02-25 05:47:58,b3492f4d-f4d1-41f8-a07c-17050a56a23f,S
2020-02-25 05:51:58,b3492f4d-f4d1-41f8-a07c-17050a56a23f,A
2020-02-25 05:52:27,b3492f4d-f4d1-41f8-a07c-17050a56a23f,S
2020-02-25 05:55:29,b3492f4d-f4d1-41f8-a07c-17050a56a23f,A
2020-02-25 05:57:07,b3492f4d-f4d1-41f8-a07c-17050a56a23f,S
2020-02-25 06:11:37,b3492f4d-f4d1-41f8-a07c-17050a56a23f,A
2020-02-25 06:13:13,b3492f4d-f4d1-41f8-a07c-17050a56a23f,S
2020-02-25 06:13:19,b3492f4d-f4d1-41f8-a07c-17050a56a23f,A
2020-02-25 06:15:39,b3492f4d-f4d1-41f8-a07c-17050a56a23f,S
2020-02-25 06:15:46,b3492f4d-f4d1-41f8-a07c-17050a56a23f,A
2020-02-25 06:17:49,b3492f4d-f4d1-41f8-a07c-17050a56a23f,S
2020-02-25 06:21:50,b3492f4d-f4d1-41f8-a07c-17050a56a23f,A
2020-02-25 06:32:33,b3492f4d-f4d1-41f8-a07c-17050a56a23f,S
2020-02-25 06:38:16,b3492f4d-f4d1-41f8-a07c-17050a56a23f,A
2020-02-25 06:40:31,b3492f4d-f4d1-41f8-a07c-17050a56a23f,S
2020-02-25 06:43:56,b3492f4d-f4d1-41f8-a07c-17050a56a23f,A
2020-02-25 06:47:29,b3492f4d-f4d1-41f8-a07c-17050a56a23f,S
2020-02-25 05:45:23,722ce577-35f9-4765-853a-311a09b654f0,S
2020-02-25 05:58:57,722ce577-35f9-4765-853a-311a09b654f0,A
2020-02-25 06:03:51,722ce577-35f9-4765-853a-311a09b654f0,S
2020-02-25 06:04:23,722ce577-35f9-4765-853a-311a09b654f0,A
2020-02-25 06:08:15,722ce577-35f9-4765-853a-311a09b654f0,S
2020-02-25 06:08:57,722ce577-35f9-4765-853a-311a09b654f0,A
2020-02-25 06:17:36,722ce577-35f9-4765-853a-311a09b654f0,S
2020-02-25 06:18:39,722ce577-35f9-4765-853a-311a09b654f0,A
2020-02-25 06:20:54,722ce577-35f9-4765-853a-311a09b654f0,S
2020-02-25 06:23:04,722ce577-35f9-4765-853a-311a09b654f0,A
2020-02-25 06:25:26,722ce577-35f9-4765-853a-311a09b654f0,S
2020-02-25 06:29:17,722ce577-35f9-4765-853a-311a09b654f0,A
2020-02-25 06:30:29,722ce577-35f9-4765-853a-311a09b654f0,S
2020-02-25 06:31:19,722ce577-35f9-4765-853a-311a09b654f0,A
2020-02-25 06:33:29,722ce577-35f9-4765-853a-311a09b654f0,S
2020-02-25 06:33:52,722ce577-35f9-4765-853a-311a09b654f0,A
2020-02-25 06:34:08,722ce577-35f9-4765-853a-311a09b654f0,S
2020-02-25 06:38:39,722ce577-35f9-4765-853a-311a09b654f0,A
2020-02-25 06:39:30,722ce577-35f9-4765-853a-311a09b654f0,S
2020-02-25 06:49:01,722ce577-35f9-4765-853a-311a09b654f0,A
2020-02-25 06:55:04,722ce577-35f9-4765-853a-311a09b654f0,S
2020-02-25 07:03:03,722ce577-35f9-4765-853a-311a09b654f0,A
2020-02-25 05:12:28,43b22201-0e2c-45f1-941a-5d33920c212b,A
2020-02-25 05:15:54,43b22201-0e2c-45f1-941a-5d33920c212b,S
2020-02-25 05:20:59,43b22201-0e2c-45f1-941a-5d33920c212b,A
2020-02-25 05:22:49,43b22201-0e2c-45f1-941a-5d33920c212b,S
2020-02-25 05:33:20,43b22201-0e2c-45f1-941a-5d33920c212b,A
2020-02-25 05:33:55,43b22201-0e2c-45f1-941a-5d33920c212b,S
2020-02-25 05:42:20,43b22201-0e2c-45f1-941a-5d33920c212b,A
2020-02-25 05:44:40,43b22201-0e2c-45f1-941a-5d33920c212b,S
2020-02-25 05:53:04,43b22201-0e2c-45f1-941a-5d33920c212b,A
2020-02-25 06:11:30,43b22201-0e2c-45f1-941a-5d33920c212b,S
2020-02-25 06:12:46,43b22201-0e2c-45f1-941a-5d33920c212b,A
2020-02-25 06:12:57,43b22201-0e2c-45f1-941a-5d33920c212b,S
2020-02-25 06:16:09,43b22201-0e2c-45f1-941a-5d33920c212b,A
2020-02-25 06:25:00,43b22201-0e2c-45f1-941a-5d33920c212b,S
2020-02-25 06:40:05,43b22201-0e2c-45f1-941a-5d33920c212b,A
2020-02-25 06:40:22,43b22201-0e2c-45f1-941a-5d33920c212b,S
2020-02-25 06:50:54,43b22201-0e2c-45f1-941a-5d33920c212b,A
2020-02-25 07:03:53,43b22201-0e2c-45f1-941a-5d33920c212b,S
2020-02-25 05:12:04,0183e032-d91d-4d01-987a-bfe662f0864f,A
2020-02-25 05:14:55,0183e032-d91d-4d01-987a-bfe662f0864f,S
2020-02-25 05:20:01,0183e032-d91d-4d01-987a-bfe662f0864f,A
2020-02-25 05:35:29,0183e032-d91d-4d01-987a-bfe662f0864f,S
2020-02-25 05:44:32,0183e032-d91d-4d01-987a-bfe662f0864f,A
2020-02-25 05:54:15,0183e032-d91d-4d01-987a-bfe662f0864f,S
2020-02-25 06:02:45,0183e032-d91d-4d01-987a-bfe662f0864f,A
2020-02-25 06:03:31,0183e032-d91d-4d01-987a-bfe662f0864f,S
2020-02-25 06:03:50,0183e032-d91d-4d01-987a-bfe662f0864f,A
2020-02-25 06:12:28,0183e032-d91d-4d01-987a-bfe662f0864f,S
2020-02-25 06:15:27,0183e032-d91d-4d01-987a-bfe662f0864f,A
2020-02-25 06:15:30,0183e032-d91d-4d01-987a-bfe662f0864f,S
2020-02-25 06:16:41,0183e032-d91d-4d01-987a-bfe662f0864f,A
2020-02-25 06:18:31,0183e032-d91d-4d01-987a-bfe662f0864f,S
2020-02-25 06:20:22,0183e032-d91d-4d01-987a-bfe662f0864f,A
2020-02-25 06:21:21,0183e032-d91d-4d01-987a-bfe662f0864f,S
2020-02-25 06:23:04,0183e032-d91d-4d01-987a-bfe662f0864f,A
2020-02-25 06:32:19,0183e032-d91d-4d01-987a-bfe662f0864f,S
2020-02-25 06:34:26,0183e032-d91d-4d01-987a-bfe662f0864f,A
2020-02-25 06:35:25,0183e032-d91d-4d01-987a-bfe662f0864f,S
2020-02-25 06:37:52,0183e032-d91d-4d01-987a-bfe662f0864f,A
2020-02-25 06:46:37,0183e032-d91d-4d01-987a-bfe662f0864f,S
2020-02-25 06:48:54,0183e032-d91d-4d01-987a-bfe662f0864f,A
2020-02-25 06:53:47,0183e032-d91d-4d01-987a-bfe662f0864f,S
2020-02-25 06:53:54,0183e032-d91d-4d01-987a-bfe662f0864f,A
2020-02-25 06:54:33,0183e032-d91d-4d01-987a-bfe662f0864f,S
2020-02-25 06:58:02,0183e032-d91d-4d01-987a-bfe662f0864f,A
2020-02-25 06:59:29,0183e032-d91d-4d01-987a-bfe662f0864f,S
2020-02-25 04:59:27,1f65aa7b-bf94-417d-8f59-599134dfc349,A
2020-02-25 05:15:30,1f65aa7b-bf94-417d-8f59-599134dfc349,S
2020-02-25 05:18:43,1f65aa7b-bf94-417d-8f59-599134dfc349,A
2020-02-25 05:21:29,1f65aa7b-bf94-417d-8f59-599134dfc349,S
2020-02-25 05:22:00,1f65aa7b-bf94-417d-8f59-599134dfc349,A
2020-02-25 05:35:58,1f65aa7b-bf94-417d-8f59-599134dfc349,S
2020-02-25 05:39:27,1f65aa7b-bf94-417d-8f59-599134dfc349,A
2020-02-25 05:42:19,1f65aa7b-bf94-417d-8f59-599134dfc349,S
2020-02-25 05:46:19,1f65aa7b-bf94-417d-8f59-599134dfc349,A
2020-02-25 05:59:42,1f65aa7b-bf94-417d-8f59-599134dfc349,S
2020-02-25 05:59:53,1f65aa7b-bf94-417d-8f59-599134dfc349,A
2020-02-25 06:08:35,1f65aa7b-bf94-417d-8f59-599134dfc349,S
2020-02-25 06:12:52,1f65aa7b-bf94-417d-8f59-599134dfc349,A
2020-02-25 06:19:28,1f65aa7b-bf94-417d-8f59-599134dfc349,S
2020-02-25 06:22:00,1f65aa7b-bf94-417d-8f59-599134dfc349,A
2020-02-25 06:33:11,1f65aa7b-bf94-417d-8f59-599134dfc349,S
2020-02-25 06:35:06,1f65aa7b-bf94-417d-8f59-599134dfc349,A
2020-02-25 06:36:03,1f65aa7b-bf94-417d-8f59-599134dfc349,S
2020-02-25 06:38:56,1f65aa7b-bf94-417d-8f59-599134dfc349,A
2020-02-25 06:44:54,1f65aa7b-bf94-417d-8f59-599134dfc349,S
2020-02-25 06:53:42,1f65aa7b-bf94-417d-8f59-599134dfc349,A
2020-02-25 06:56:45,1f65aa7b-bf94-417d-8f59-599134dfc349,S
2020-02-25 06:58:36,1f65aa7b-bf94-417d-8f59-599134dfc349,A
2020-02-25 07:00:46,1f65aa7b-bf94-417d-8f59-599134dfc349,S
2020-02-25 05:29:46,e32acdd1-fb2a-4d53-b24e-cdd1d6d6f71d,S
2020-02-25 05:30:28,e32acdd1-fb2a-4d53-b24e-cdd1d6d6f71d,A
2020-02-25 05:46:08,e32acdd1-fb2a-4d53-b24e-cdd1d6d6f71d,S
2020-02-25 05:53:23,e32acdd1-fb2a-4d53-b24e-cdd1d6d6f71d,A
2020-02-25 05:53:45,e32acdd1-fb2a-4d53-b24e-cdd1d6d6f71d,S
2020-02-25 05:54:14,e32acdd1-fb2a-4d53-b24e-cdd1d6d6f71d,A
2020-02-25 05:55:21,e32acdd1-fb2a-4d53-b24e-cdd1d6d6f71d,S
2020-02-25 06:03:09,e32acdd1-fb2a-4d53-b24e-cdd1d6d6f71d,A
2020-02-25 06:05:38,e32acdd1-fb2a-4d53-b24e-cdd1d6d6f71d,S
2020-02-25 06:06:37,e32acdd1-fb2a-4d53-b24e-cdd1d6d6f71d,A
2020-02-25 06:11:35,e32acdd1-fb2a-4d53-b24e-cdd1d6d6f71d,S
2020-02-25 06:15:01,e32acdd1-fb2a-4d53-b24e-cdd1d6d6f71d,A
2020-02-25 06:22:44,e32acdd1-fb2a-4d53-b24e-cdd1d6d6f71d,S
2020-02-25 06:26:16,e32acdd1-fb2a-4d53-b24e-cdd1d6d6f71d,A
2020-02-25 06:27:20,e32acdd1-fb2a-4d53-b24e-cdd1d6d6f71d,S
2020-02-25 06:28:38,e32acdd1-fb2a-4d53-b24e-cdd1d6d6f71d,A
2020-02-25 06:37:47,e32acdd1-fb2a-4d53-b24e-cdd1d6d6f71d,S
2020-02-25 06:38:54,e32acdd1-fb2a-4d53-b24e-cdd1d6d6f71d,A
2020-02-25 06:41:32,e32acdd1-fb2a-4d53-b24e-cdd1d6d6f71d,S
2020-02-25 06:43:38,e32acdd1-fb2a-4d53-b24e-cdd1d6d6f71d,A
2020-02-25 06:52:11,e32acdd1-fb2a-4d53-b24e-cdd1d6d6f71d,S
2020-02-25 06:54:24,e32acdd1-fb2a-4d53-b24e-cdd1d6d6f71d,A
2020-02-25 06:59:22,e32acdd1-fb2a-4d53-b24e-cdd1d6d6f71d,S
2020-02-25 07:02:49,e32acdd1-fb2a-4d53-b24e-cdd1d6d6f71d,A
2020-02-25 07:03:24,e32acdd1-fb2a-4d53-b24e-cdd1d6d6f71d,S
2020-02-25 05:38:54,589fa943-2c8e-4bb8-a1bc-fe44439aa245,A
2020-02-25 05:53:37,589fa943-2c8e-4bb8-a1bc-fe44439aa245,S
2020-02-25 05:55:43,589fa943-2c8e-4bb8-a1bc-fe44439aa245,A
2020-02-25 06:04:49,589fa943-2c8e-4bb8-a1bc-fe44439aa245,S
2020-02-25 06:16:22,589fa943-2c8e-4bb8-a1bc-fe44439aa245,A
2020-02-25 06:22:34,589fa943-2c8e-4bb8-a1bc-fe44439aa245,S
2020-02-25 06:29:15,589fa943-2c8e-4bb8-a1bc-fe44439aa245,A
2020-02-25 06:29:38,589fa943-2c8e-4bb8-a1bc-fe44439aa245,S
2020-02-25 06:30:45,589fa943-2c8e-4bb8-a1bc-fe44439aa245,A
2020-02-25 06:35:05,589fa943-2c8e-4bb8-a1bc-fe44439aa245,S
2020-02-25 06:35:36,589fa943-2c8e-4bb8-a1bc-fe44439aa245,A
2020-02-25 06:42:15,589fa943-2c8e-4bb8-a1bc-fe44439aa245,S
2020-02-25 06:44:59,589fa943-2c8e-4bb8-a1bc-fe44439aa245,A
2020-02-25 06:46:46,589fa943-2c8e-4bb8-a1bc-fe44439aa245,S
2020-02-25 06:50:33,589fa943-2c8e-4bb8-a1bc-fe44439aa245,A
2020-02-25 06:56:48,589fa943-2c8e-4bb8-a1bc-fe44439aa245,S
2020-02-25 06:57:01,589fa943-2c8e-4bb8-a1bc-fe44439aa245,A
2020-02-25 06:59:37,589fa943-2c8e-4bb8-a1bc-fe44439aa245,S
2020-02-25 05:42:55,ac03ec71-1107-48ce-b33e-ab2cafadec0c,A
2020-02-25 05:48:01,ac03ec71-1107-48ce-b33e-ab2cafadec0c,S
2020-02-25 05:49:04,ac03ec71-1107-48ce-b33e-ab2cafadec0c,A
2020-02-25 05:51:00,ac03ec71-1107-48ce-b33e-ab2cafadec0c,S
2020-02-25 05:58:35,ac03ec71-1107-48ce-b33e-ab2cafadec0c,A
2020-02-25 06:00:00,ac03ec71-1107-48ce-b33e-ab2cafadec0c,S
2020-02-25 06:09:53,ac03ec71-1107-48ce-b33e-ab2cafadec0c,A
2020-02-25 06:11:41,ac03ec71-1107-48ce-b33e-ab2cafadec0c,S
2020-02-25 06:16:35,ac03ec71-1107-48ce-b33e-ab2cafadec0c,A
2020-02-25 06:20:59,ac03ec71-1107-48ce-b33e-ab2cafadec0c,S
2020-02-25 06:29:43,ac03ec71-1107-48ce-b33e-ab2cafadec0c,A
2020-02-25 06:31:14,ac03ec71-1107-48ce-b33e-ab2cafadec0c,S
2020-02-25 06:33:08,ac03ec71-1107-48ce-b33e-ab2cafadec0c,A
2020-02-25 06:35:35,ac03ec71-1107-48ce-b33e-ab2cafadec0c,S
2020-02-25 06:39:49,ac03ec71-1107-48ce-b33e-ab2cafadec0c,A
2020-02-25 06:45:39,ac03ec71-1107-48ce-b33e-ab2cafadec0c,S
2020-02-25 06:51:08,ac03ec71-1107-48ce-b33e-ab2cafadec0c,A
2020-02-25 07:00:21,ac03ec71-1107-48ce-b33e-ab2cafadec0c,S
2020-02-25 05:43:39,4c22daa1-35d1-466f-8080-9b4bb0caa0ec,S
2020-02-25 05:49:03,4c22daa1-35d1-466f-8080-9b4bb0caa0ec,A
2020-02-25 05:50:28,4c22daa1-35d1-466f-8080-9b4bb0caa0ec,S
2020-02-25 05:52:38,4c22daa1-35d1-466f-8080-9b4bb0caa0ec,A
2020-02-25 05:59:40,4c22daa1-35d1-466f-8080-9b4bb0caa0ec,S
2020-02-25 06:05:46,4c22daa1-35d1-466f-8080-9b4bb0caa0ec,A
2020-02-25 06:09:41,4c22daa1-35d1-466f-8080-9b4bb0caa0ec,S
2020-02-25 06:13:03,4c22daa1-35d1-466f-8080-9b4bb0caa0ec,A
2020-02-25 06:14:37,4c22daa1-35d1-466f-8080-9b4bb0caa0ec,S
2020-02-25 06:14:48,4c22daa1-35d1-466f-8080-9b4bb0caa0ec,A
2020-02-25 06:17:08,4c22daa1-35d1-466f-8080-9b4bb0caa0ec,S
2020-02-25 06:21:25,4c22daa1-35d1-466f-8080-9b4bb0caa0ec,A
2020-02-25 06:24:19,4c22daa1-35d1-466f-8080-9b4bb0caa0ec,S
2020-02-25 06:25:13,4c22daa1-35d1-466f-8080-9b4bb0caa0ec,A
2020-02-25 06:35:37,4c22daa1-35d1-466f-8080-9b4bb0caa0ec,S
2020-02-25 06:35:41,4c22daa1-35d1-466f-8080-9b4bb0caa0ec,A
2020-02-25 06:36:13,4c22daa1-35d1-466f-8080-9b4bb0caa0ec,S
2020-02-25 06:36:42,4c22daa1-35d1-466f-8080-9b4bb0caa0ec,A
2020-02-25 06:36:55,4c22daa1-35d1-466f-8080-9b4bb0caa0ec,S
2020-02-25 06:40:50,4c22daa1-35d1-466f-8080-9b4bb0caa0ec,A
2020-02-25 06:48:39,4c22daa1-35d1-466f-8080-9b4bb0caa0ec,S
2020-02-25 06:54:38,4c22daa1-35d1-466f-8080-9b4bb0caa0ec,A
2020-02-25 06:57:31,4c22daa1-35d1-466f-8080-9b4bb0caa0ec,S
2020-02-25 06:59:30,4c22daa1-35d1-466f-8080-9b4bb0caa0ec,A
2020-02-25 05:38:05,3c6b1f28-b1cf-4fe6-8c29-e81a33bf337d,A
2020-02-25 05:39:56,3c6b1f28-b1cf-4fe6-8c29-e81a33bf337d,S
2020-02-25 05:49:24,3c6b1f28-b1cf-4fe6-8c29-e81a33bf337d,A
2020-02-25 06:03:31,3c6b1f28-b1cf-4fe6-8c29-e81a33bf337d,S
2020-02-25 06:05:07,3c6b1f28-b1cf-4fe6-8c29-e81a33bf337d,A
2020-02-25 06:06:41,3c6b1f28-b1cf-4fe6-8c29-e81a33bf337d,S
2020-02-25 06:08:34,3c6b1f28-b1cf-4fe6-8c29-e81a33bf337d,A
2020-02-25 06:15:02,3c6b1f28-b1cf-4fe6-8c29-e81a33bf337d,S
2020-02-25 06:19:56,3c6b1f28-b1cf-4fe6-8c29-e81a33bf337d,A
2020-02-25 06:27:27,3c6b1f28-b1cf-4fe6-8c29-e81a33bf337d,S
2020-02-25 06:27:30,3c6b1f28-b1cf-4fe6-8c29-e81a33bf337d,A
2020-02-25 06:27:49,3c6b1f28-b1cf-4fe6-8c29-e81a33bf337d,S
2020-02-25 06:30:10,3c6b1f28-b1cf-4fe6-8c29-e81a33bf337d,A
2020-02-25 06:33:21,3c6b1f28-b1cf-4fe6-8c29-e81a33bf337d,S
2020-02-25 06:34:07,3c6b1f28-b1cf-4fe6-8c29-e81a33bf337d,A
2020-02-25 06:45:08,3c6b1f28-b1cf-4fe6-8c29-e81a33bf337d,S
2020-02-25 06:45:56,3c6b1f28-b1cf-4fe6-8c29-e81a33bf337d,A
2020-02-25 06:46:21,3c6b1f28-b1cf-4fe6-8c29-e81a33bf337d,S
2020-02-25 06:48:34,3c6b1f28-b1cf-4fe6-8c29-e81a33bf337d,A
2020-02-25 06:50:48,3c6b1f28-b1cf-4fe6-8c29-e81a33bf337d,S
2020-02-25 06:51:07,3c6b1f28-b1cf-4fe6-8c29-e81a33bf337d,A
2020-02-25 07:00:32,3c6b1f28-b1cf-4fe6-8c29-e81a33bf337d,S
2020-02-25 07:05:16,3c6b1f28-b1cf-4fe6-8c29-e81a33bf337d,A
2020-02-25 05:22:09,9bb94510-7267-42d1-ad81-0c345dcee8c3,A
2020-02-25 05:28:12,9bb94510-7267-42d1-ad81-0c345dcee8c3,S
2020-02-25 05:30:42,9bb94510-7267-42d1-ad81-0c345dcee8c3,A
2020-02-25 05:31:27,9bb94510-7267-42d1-ad81-0c345dcee8c3,S
2020-02-25 05:31:30,9bb94510-7267-42d1-ad81-0c345dcee8c3,A
2020-02-25 05:34:20,9bb94510-7267-42d1-ad81-0c345dcee8c3,S
2020-02-25 05:42:36,9bb94510-7267-42d1-ad81-0c345dcee8c3,A
2020-02-25 05:45:22,9bb94510-7267-42d1-ad81-0c345dcee8c3,S
2020-02-25 05:45:25,9bb94510-7267-42d1-ad81-0c345dcee8c3,A
2020-02-25 05:51:30,9bb94510-7267-42d1-ad81-0c345dcee8c3,S
2020-02-25 05:55:53,9bb94510-7267-42d1-ad81-0c345dcee8c3,A
2020-02-25 06:03:14,9bb94510-7267-42d1-ad81-0c345dcee8c3,S
2020-02-25 06:04:23,9bb94510-7267-42d1-ad81-0c345dcee8c3,A
2020-02-25 06:08:20,9bb94510-7267-42d1-ad81-0c345dcee8c3,S
2020-02-25 06:09:07,9bb94510-7267-42d1-ad81-0c345dcee8c3,A
2020-02-25 06:09:24,9bb94510-7267-42d1-ad81-0c345dcee8c3,S
2020-02-25 06:19:57,9bb94510-7267-42d1-ad81-0c345dcee8c3,A
2020-02-25 06:21:20,9bb94510-7267-42d1-ad81-0c345dcee8c3,S
2020-02-25 06:27:05,9bb94510-7267-42d1-ad81-0c345dcee8c3,A
2020-02-25 06:31:31,9bb94510-7267-42d1-ad81-0c345dcee8c3,S
2020-02-25 06:32:51,9bb94510-7267-42d1-ad81-0c345dcee8c3,A
2020-02-25 06:35:38,9bb94510-7267-42d1-ad81-0c345dcee8c3,S
2020-02-25 06:37:02,9bb94510-7267-42d1-ad81-0c345dcee8c3,A
2020-02-25 06:45:52,9bb94510-7267-42d1-ad81-0c345dcee8c3,S
2020-02-25 06:47:21,9bb94510-7267-42d1-ad81-0c345dcee8c3,A
2020-02-25 06:51:00,9bb94510-7267-42d1-ad81-0c345dcee8c3,S
2020-02-25 06:51:17,9bb94510-7267-42d1-ad81-0c345dcee8c3,A
2020-02-25 06:55:15,9bb94510-7267-42d1-ad81-0c345dcee8c3,S
2020-02-25 05:08:40,c84e66ea-8647-4d2b-9254-ad56eb632a2d,S
2020-02-25 05:12:47,c84e66ea-8647-4d2b-9254-ad56eb632a2d,A
2020-02-25 05:23:11,c84e66ea-8647-4d2b-9254-ad56eb632a2d,S
2020-02-25 05:24:45,c84e66ea-8647-4d2b-9254-ad56eb632a2d,A
2020-02-25 05:32:15,c84e66ea-8647-4d2b-9254-ad56eb632a2d,S
2020-02-25 05:32:30,c84e66ea-8647-4d2b-9254-ad56eb632a2d,A
2020-02-25 05:33:55,c84e66ea-8647-4d2b-9254-ad56eb632a2d,S
2020-02-25 05:51:12,c84e66ea-8647-4d2b-9254-ad56eb632a2d,A
2020-02-25 05:56:58,c84e66ea-8647-4d2b-9254-ad56eb632a2d,S
2020-02-25 06:00:33,c84e66ea-8647-4d2b-9254-ad56eb632a2d,A
2020-02-25 06:03:45,c84e66ea-8647-4d2b-9254-ad56eb632a2d,S
2020-02-25 06:04:01,c84e66ea-8647-4d2b-9254-ad56eb632a2d,A
2020-02-25 06:22:36,c84e66ea-8647-4d2b-9254-ad56eb632a2d,S
2020-02-25 06:23:02,c84e66ea-8647-4d2b-9254-ad56eb632a2d,A
2020-02-25 06:25:53,c84e66ea-8647-4d2b-9254-ad56eb632a2d,S
2020-02-25 06:39:26,c84e66ea-8647-4d2b-9254-ad56eb632a2d,A
2020-02-25 06:42:44,c84e66ea-8647-4d2b-9254-ad56eb632a2d,S
2020-02-25 06:45:11,c84e66ea-8647-4d2b-9254-ad56eb632a2d,A
2020-02-25 06:45:48,c84e66ea-8647-4d2b-9254-ad56eb632a2d,S
2020-02-25 06:51:02,c84e66ea-8647-4d2b-9254-ad56eb632a2d,A
2020-02-25 06:55:42,c84e66ea-8647-4d2b-9254-ad56eb632a2d,S
2020-02-25 06:59:39,c84e66ea-8647-4d2b-9254-ad56eb632a2d,A
2020-02-25 07:01:31,c84e66ea-8647-4d2b-9254-ad56eb632a2d,S
2020-02-25 07:02:29,c84e66ea-8647-4d2b-9254-ad56eb632a2d,A
2020-02-25 05:31:43,012a83bd-37dd-46ef-aeed-cf92a8cadaeb,S
2020-02-25 05:34:01,012a83bd-37dd-46ef-aeed-cf92a8cadaeb,A
2020-02-25 05:39:13,012a83bd-37dd-46ef-aeed-cf92a8cadaeb,S
2020-02-25 05:47:18,012a83bd-37dd-46ef-aeed-cf92a8cadaeb,A
2020-02-25 05:54:42,012a83bd-37dd-46ef-aeed-cf92a8cadaeb,S
2020-02-25 05:55:04,012a83bd-37dd-46ef-aeed-cf92a8cadaeb,A
2020-02-25 06:00:37,012a83bd-37dd-46ef-aeed-cf92a8cadaeb,S
2020-02-25 06:11:41,012a83bd-37dd-46ef-aeed-cf92a8cadaeb,A
2020-02-25 06:16:05,012a83bd-37dd-46ef-aeed-cf92a8cadaeb,S
2020-02-25 06:18:52,012a83bd-37dd-46ef-aeed-cf92a8cadaeb,A
2020-02-25 06:25:34,012a83bd-37dd-46ef-aeed-cf92a8cadaeb,S
2020-02-25 06:26:25,012a83bd-37dd-46ef-aeed-cf92a8cadaeb,A
2020-02-25 06:29:11,012a83bd-37dd-46ef-aeed-cf92a8cadaeb,S
2020-02-25 06:33:01,012a83bd-37dd-46ef-aeed-cf92a8cadaeb,A
2020-02-25 06:39:29,012a83bd-37dd-46ef-aeed-cf92a8cadaeb,S
2020-02-25 06:42:34,012a83bd-37dd-46ef-aeed-cf92a8cadaeb,A
2020-02-25 06:54:54,012a83bd-37dd-46ef-aeed-cf92a8cadaeb,S
2020-02-25 06:59:40,012a83bd-37dd-46ef-aeed-cf92a8cadaeb,A
2020-02-25 07:01:44,012a83bd-37dd-46ef-aeed-cf92a8cadaeb,S
2020-02-25 07:05:33,012a83bd-37dd-46ef-aeed-cf92a8cadaeb,A
2020-02-25 05:14:28,b2d4eece-95db-4849-959a-8134e74c06da,A
2020-02-25 05:21:20,b2d4eece-95db-4849-959a-8134e74c06da,S
2020-02-25 05:26:07,b2d4eece-95db-4849-959a-8134e74c06da,A
2020-02-25 05:32:41,b2d4eece-95db-4849-959a-8134e74c06da,S
2020-02-25 05:38:35,b2d4eece-95db-4849-959a-8134e74c06da,A
2020-02-25 05:49:13,b2d4eece-95db-4849-959a-8134e74c06da,S
2020-02-25 05:56:29,b2d4eece-95db-4849-959a-8134e74c06da,A
2020-02-25 05:58:55,b2d4eece-95db-4849-959a-8134e74c06da,S
2020-02-25 06:00:36,b2d4eece-95db-4849-959a-8134e74c06da,A
2020-02-25 06:05:14,b2d4eece-95db-4849-959a-8134e74c06da,S
2020-02-25 06:10:14,b2d4eece-95db-4849-959a-8134e74c06da,A
2020-02-25 06:20:10,b2d4eece-95db-4849-959a-8134e74c06da,S
2020-02-25 06:20:13,b2d4eece-95db-4849-959a-8134e74c06da,A
2020-02-25 06:24:53,b2d4eece-95db-4849-959a-8134e74c06da,S
2020-02-25 06:26:38,b2d4eece-95db-4849-959a-8134e74c06da,A
2020-02-25 06:33:20,b2d4eece-95db-4849-959a-8134e74c06da,S
2020-02-25 06:33:27,b2d4eece-95db-4849-959a-8134e74c06da,A
2020-02-25 06:36:09,b2d4eece-95db-4849-959a-8134e74c06da,S
2020-02-25 06:43:02,b2d4eece-95db-4849-959a-8134e74c06da,A
2020-02-25 07:03:56,b2d4eece-95db-4849-959a-8134e74c06da,S
2020-02-25 05:25:45,7d68377c-2900-4373-b46f-9f031161eb9d,S
2020-02-25 05:31:00,7d68377c-2900-4373-b46f-9f031161eb9d,A
2020-02-25 05:37:44,7d68377c-2900-4373-b46f-9f031161eb9d,S
2020-02-25 05:42:43,7d68377c-2900-4373-b46f-9f031161eb9d,A
2020-02-25 05:43:39,7d68377c-2900-4373-b46f-9f031161eb9d,S
2020-02-25 05:50:26,7d68377c-2900-4373-b46f-9f031161eb9d,A
2020-02-25 05:52:42,7d68377c-2900-4373-b46f-9f031161eb9d,S
2020-02-25 05:58:48,7d68377c-2900-4373-b46f-9f031161eb9d,A
2020-02-25 05:58:49,7d68377c-2900-4373-b46f-9f031161eb9d,S
2020-02-25 05:59:34,7d68377c-2900-4373-b46f-9f031161eb9d,A
2020-02-25 06:03:27,7d68377c-2900-4373-b46f-9f031161eb9d,S
2020-02-25 06:09:03,7d68377c-2900-4373-b46f-9f031161eb9d,A
2020-02-25 06:11:04,7d68377c-2900-4373-b46f-9f031161eb9d,S
2020-02-25 06:14:18,7d68377c-2900-4373-b46f-9f031161eb9d,A
2020-02-25 06:17:09,7d68377c-2900-4373-b46f-9f031161eb9d,S
2020-02-25 06:20:23,7d68377c-2900-4373-b46f-9f031161eb9d,A
2020-02-25 06:29:25,7d68377c-2900-4373-b46f-9f031161eb9d,S
2020-02-25 06:32:58,7d68377c-2900-4373-b46f-9f031161eb9d,A
2020-02-25 06:33:57,7d68377c-2900-4373-b46f-9f031161eb9d,S
2020-02-25 06:37:24,7d68377c-2900-4373-b46f-9f031161eb9d,A
2020-02-25 06:39:22,7d68377c-2900-4373-b46f-9f031161eb9d,S
2020-02-25 06:40:03,7d68377c-2900-4373-b46f-9f031161eb9d,A
2020-02-25 06:47:12,7d68377c-2900-4373-b46f-9f031161eb9d,S
2020-02-25 06:49:36,7d68377c-2900-4373-b46f-9f031161eb9d,A
2020-02-25 07:03:27,7d68377c-2900-4373-b46f-9f031161eb9d,S
2020-02-25 05:47:02,87193366-7a04-467d-b9f6-047b0cf2c855,S
2020-02-25 05:49:21,87193366-7a04-467d-b9f6-047b0cf2c855,A
2020-02-25 05:55:52,87193366-7a04-467d-b9f6-047b0cf2c855,S
2020-02-25 05:56:50,87193366-7a04-467d-b9f6-047b0cf2c855,A
2020-02-25 05:57:10,87193366-7a04-467d-b9f6-047b0cf2c855,S
2020-02-25 06:02:20,87193366-7a04-467d-b9f6-047b0cf2c855,A
2020-02-25 06:07:13,87193366-7a04-467d-b9f6-047b0cf2c855,S
2020-02-25 06:11:53,87193366-7a04-467d-b9f6-047b0cf2c855,A
2020-02-25 06:24:53,87193366-7a04-467d-b9f6-047b0cf2c855,S
2020-02-25 06:42:22,87193366-7a04-467d-b9f6-047b0cf2c855,A
2020-02-25 06:47:05,87193366-7a04-467d-b9f6-047b0cf2c855,S
2020-02-25 06:49:14,87193366-7a04-467d-b9f6-047b0cf2c855,A
2020-02-25 06:50:28,87193366-7a04-467d-b9f6-047b0cf2c855,S
2020-02-25 06:51:50,87193366-7a04-467d-b9f6-047b0cf2c855,A
2020-02-25 06:52:34,87193366-7a04-467d-b9f6-047b0cf2c855,S
2020-02-25 06:53:06,87193366-7a04-467d-b9f6-047b0cf2c855,A
2020-02-25 06:54:11,87193366-7a04-467d-b9f6-047b0cf2c855,S
2020-02-25 07:00:52,87193366-7a04-467d-b9f6-047b0cf2c855,A
2020-02-25 07:01:11,87193366-7a04-467d-b9f6-047b0cf2c855,S
2020-02-25 07:01:59,87193366-7a04-467d-b9f6-047b0cf2c855,A
2020-02-25 07:02:00,87193366-7a04-467d-b9f6-047b0cf2c855,S
2020-02-25 04:55:54,565741ac-8d6e-4446-b8aa-28372a773eed,A
2020-02-25 05:00:10,565741ac-8d6e-4446-b8aa-28372a773eed,S
2020-02-25 05:02:27,565741ac-8d6e-4446-b8aa-28372a773eed,A
2020-02-25 05:10:10,565741ac-8d6e-4446-b8aa-28372a773eed,S
2020-02-25 05:19:28,565741ac-8d6e-4446-b8aa-28372a773eed,A
2020-02-25 05:23:49,565741ac-8d6e-4446-b8aa-28372a773eed,S
2020-02-25 05:28:23,565741ac-8d6e-4446-b8aa-28372a773eed,A
2020-02-25 05:43:40,565741ac-8d6e-4446-b8aa-28372a773eed,S
2020-02-25 05:48:33,565741ac-8d6e-4446-b8aa-28372a773eed,A
2020-02-25 06:01:22,565741ac-8d6e-4446-b8aa-28372a773eed,S
2020-02-25 06:01:50,565741ac-8d6e-4446-b8aa-28372a773eed,A
2020-02-25 06:09:03,565741ac-8d6e-4446-b8aa-28372a773eed,S
2020-02-25 06:16:58,565741ac-8d6e-4446-b8aa-28372a773eed,A
2020-02-25 06:18:08,565741ac-8d6e-4446-b8aa-28372a773eed,S
2020-02-25 06:19:41,565741ac-8d6e-4446-b8aa-28372a773eed,A
2020-02-25 06:20:18,565741ac-8d6e-4446-b8aa-28372a773eed,S
2020-02-25 06:21:50,565741ac-8d6e-4446-b8aa-28372a773eed,A
2020-02-25 06:22:26,565741ac-8d6e-4446-b8aa-28372a773eed,S
2020-02-25 06:22:32,565741ac-8d6e-4446-b8aa-28372a773eed,A
2020-02-25 06:22:54,565741ac-8d6e-4446-b8aa-28372a773eed,S
2020-02-25 06:23:51,565741ac-8d6e-4446-b8aa-28372a773eed,A
2020-02-25 06:31:16,565741ac-8d6e-4446-b8aa-28372a773eed,S
2020-02-25 06:43:34,565741ac-8d6e-4446-b8aa-28372a773eed,A
2020-02-25 06:44:12,565741ac-8d6e-4446-b8aa-28372a773eed,S
2020-02-25 07:02:41,565741ac-8d6e-4446-b8aa-28372a773eed,A
2020-02-25 05:21:04,90a112b6-042d-4451-b90a-a38cbaed1b81,S
2020-02-25 05:30:06,90a112b6-042d-4451-b90a-a38cbaed1b81,A
2020-02-25 05:35:18,90a112b6-042d-4451-b90a-a38cbaed1b81,S
2020-02-25 05:48:04,90a112b6-042d-4451-b90a-a38cbaed1b81,A
2020-02-25 05:49:03,90a112b6-042d-4451-b90a-a38cbaed1b81,S
2020-02-25 06:00:15,90a112b6-042d-4451-b90a-a38cbaed1b81,A
2020-02-25 06:00:29,90a112b6-042d-4451-b90a-a38cbaed1b81,S
2020-02-25 06:03:56,90a112b6-042d-4451-b90a-a38cbaed1b81,A
2020-02-25 06:14:59,90a112b6-042d-4451-b90a-a38cbaed1b81,S
2020-02-25 06:18:00,90a112b6-042d-4451-b90a-a38cbaed1b81,A
2020-02-25 06:24:36,90a112b6-042d-4451-b90a-a38cbaed1b81,S
2020-02-25 06:26:32,90a112b6-042d-4451-b90a-a38cbaed1b81,A
2020-02-25 06:33:58,90a112b6-042d-4451-b90a-a38cbaed1b81,S
2020-02-25 06:38:04,90a112b6-042d-4451-b90a-a38cbaed1b81,A
2020-02-25 06:38:45,90a112b6-042d-4451-b90a-a38cbaed1b81,S
2020-02-25 06:39:08,90a112b6-042d-4451-b90a-a38cbaed1b81,A
2020-02-25 06:42:31,90a112b6-042d-4451-b90a-a38cbaed1b81,S
2020-02-25 06:45:35,90a112b6-042d-4451-b90a-a38cbaed1b81,A
2020-02-25 06:58:46,90a112b6-042d-4451-b90a-a38cbaed1b81,S
2020-02-25 07:02:56,90a112b6-042d-4451-b90a-a38cbaed1b81,A
2020-02-25 07:03:03,90a112b6-042d-4451-b90a-a38cbaed1b81,S
2020-02-25 04:57:04,112a4798-e130-4eb8-94d2-bb9dcf0da036,S
2020-02-25 04:58:10,112a4798-e130-4eb8-94d2-bb9dcf0da036,A
2020-02-25 04:59:24,112a4798-e130-4eb8-94d2-bb9dcf0da036,S
2020-02-25 05:03:02,112a4798-e130-4eb8-94d2-bb9dcf0da036,A
2020-02-25 05:05:46,112a4798-e130-4eb8-94d2-bb9dcf0da036,S
2020-02-25 05:10:57,112a4798-e130-4eb8-94d2-bb9dcf0da036,A
2020-02-25 05:12:14,112a4798-e130-4eb8-94d2-bb9dcf0da036,S
2020-02-25 05:18:14,112a4798-e130-4eb8-94d2-bb9dcf0da036,A
2020-02-25 05:29:30,112a4798-e130-4eb8-94d2-bb9dcf0da036,S
2020-02-25 05:33:11,112a4798-e130-4eb8-94d2-bb9dcf0da036,A
2020-02-25 05:37:43,112a4798-e130-4eb8-94d2-bb9dcf0da036,S
2020-02-25 05:49:10,112a4798-e130-4eb8-94d2-bb9dcf0da036,A
2020-02-25 06:02:37,112a4798-e130-4eb8-94d2-bb9dcf0da036,S
2020-02-25 06:03:35,112a4798-e130-4eb8-94d2-bb9dcf0da036,A
2020-02-25 06:05:08,112a4798-e130-4eb8-94d2-bb9dcf0da036,S
2020-02-25 06:05:54,112a4798-e130-4eb8-94d2-bb9dcf0da036,A
2020-02-25 06:07:03,112a4798-e130-4eb8-94d2-bb9dcf0da036,S
2020-02-25 06:15:39,112a4798-e130-4eb8-94d2-bb9dcf0da036,A
2020-02-25 06:17:37,112a4798-e130-4eb8-94d2-bb9dcf0da036,S
2020-02-25 06:19:25,112a4798-e130-4eb8-94d2-bb9dcf0da036,A
2020-02-25 06:24:13,112a4798-e130-4eb8-94d2-bb9dcf0da036,S
2020-02-25 06:33:06,112a4798-e130-4eb8-94d2-bb9dcf0da036,A
2020-02-25 06:43:58,112a4798-e130-4eb8-94d2-bb9dcf0da036,S
2020-02-25 06:47:54,112a4798-e130-4eb8-94d2-bb9dcf0da036,A
2020-02-25 06:48:12,112a4798-e130-4eb8-94d2-bb9dcf0da036,S
2020-02-25 06:53:51,112a4798-e130-4eb8-94d2-bb9dcf0da036,A
2020-02-25 07:00:16,112a4798-e130-4eb8-94d2-bb9dcf0da036,S
2020-02-25 07:00:17,112a4798-e130-4eb8-94d2-bb9dcf0da036,A
2020-02-25 07:02:16,112a4798-e130-4eb8-94d2-bb9dcf0da036,S
2020-02-25 07:04:53,112a4798-e130-4eb8-94d2-bb9dcf0da036,A
2020-02-25 07:06:43,112a4798-e130-4eb8-94d2-bb9dcf0da036,S
2020-02-25 05:10:06,d3b74150-039a-41f3-86d1-88036c0539e3,S
2020-02-25 05:16:19,d3b74150-039a-41f3-86d1-88036c0539e3,A
2020-02-25 05:20:42,d3b74150-039a-41f3-86d1-88036c0539e3,S
2020-02-25 05:31:14,d3b74150-039a-41f3-86d1-88036c0539e3,A
2020-02-25 05:31:34,d3b74150-039a-41f3-86d1-88036c0539e3,S
2020-02-25 05:37:03,d3b74150-039a-41f3-86d1-88036c0539e3,A
2020-02-25 05:37:37,d3b74150-039a-41f3-86d1-88036c0539e3,S
2020-02-25 05:38:14,d3b74150-039a-41f3-86d1-88036c0539e3,A
2020-02-25 05:40:46,d3b74150-039a-41f3-86d1-88036c0539e3,S
2020-02-25 05:41:06,d3b74150-039a-41f3-86d1-88036c0539e3,A
2020-02-25 05:41:57,d3b74150-039a-41f3-86d1-88036c0539e3,S
2020-02-25 05:57:30,d3b74150-039a-41f3-86d1-88036c0539e3,A
2020-02-25 05:58:49,d3b74150-039a-41f3-86d1-88036c0539e3,S
2020-02-25 06:01:58,d3b74150-039a-41f3-86d1-88036c0539e3,A
2020-02-25 06:13:51,d3b74150-039a-41f3-86d1-88036c0539e3,S
2020-02-25 06:15:18,d3b74150-039a-41f3-86d1-88036c0539e3,A
2020-02-25 06:16:27,d3b74150-039a-41f3-86d1-88036c0539e3,S
2020-02-25 06:17:18,d3b74150-039a-41f3-86d1-88036c0539e3,A
2020-02-25 06:17:41,d3b74150-039a-41f3-86d1-88036c0539e3,S
2020-02-25 06:24:11,d3b74150-039a-41f3-86d1-88036c0539e3,A
2020-02-25 06:54:50,d3b74150-039a-41f3-86d1-88036c0539e3,S
2020-02-25 06:58:36,d3b74150-039a-41f3-86d1-88036c0539e3,A
2020-02-25 05:38:12,8567bddb-ad57-4aaa-8e1e-50f64efcb627,S
2020-02-25 05:38:55,8567bddb-ad57-4aaa-8e1e-50f64efcb627,A
2020-02-25 05:42:25,8567bddb-ad57-4aaa-8e1e-50f64efcb627,S
2020-02-25 05:46:28,8567bddb-ad57-4aaa-8e1e-50f64efcb627,A
2020-02-25 05:54:17,8567bddb-ad57-4aaa-8e1e-50f64efcb627,S
2020-02-25 06:00:46,8567bddb-ad57-4aaa-8e1e-50f64efcb627,A
2020-02-25 06:04:56,8567bddb-ad57-4aaa-8e1e-50f64efcb627,S
2020-02-25 06:06:22,8567bddb-ad57-4aaa-8e1e-50f64efcb627,A
2020-02-25 06:16:46,8567bddb-ad57-4aaa-8e1e-50f64efcb627,S
2020-02-25 06:17:02,8567bddb-ad57-4aaa-8e1e-50f64efcb627,A
2020-02-25 06:17:18,8567bddb-ad57-4aaa-8e1e-50f64efcb627,S
2020-02-25 06:18:47,8567bddb-ad57-4aaa-8e1e-50f64efcb627,A
2020-02-25 06:26:37,8567bddb-ad57-4aaa-8e1e-50f64efcb627,S
2020-02-25 06:30:34,8567bddb-ad57-4aaa-8e1e-50f64efcb627,A
2020-02-25 06:33:13,8567bddb-ad57-4aaa-8e1e-50f64efcb627,S
2020-02-25 06:35:40,8567bddb-ad57-4aaa-8e1e-50f64efcb627,A
2020-02-25 06:37:47,8567bddb-ad57-4aaa-8e1e-50f64efcb627,S
2020-02-25 06:42:28,8567bddb-ad57-4aaa-8e1e-50f64efcb627,A
2020-02-25 06:48:49,8567bddb-ad57-4aaa-8e1e-50f64efcb627,S
2020-02-25 06:48:59,8567bddb-ad57-4aaa-8e1e-50f64efcb627,A
2020-02-25 06:49:39,8567bddb-ad57-4aaa-8e1e-50f64efcb627,S
2020-02-25 06:51:56,8567bddb-ad57-4aaa-8e1e-50f64efcb627,A
2020-02-25 07:06:23,8567bddb-ad57-4aaa-8e1e-50f64efcb627,S
2020-02-25 05:38:02,3c8bba49-ecad-4128-a788-f59a43b16a69,S
2020-02-25 05:39:58,3c8bba49-ecad-4128-a788-f59a43b16a69,A
2020-02-25 05:40:27,3c8bba49-ecad-4128-a788-f59a43b16a69,S
2020-02-25 05:48:45,3c8bba49-ecad-4128-a788-f59a43b16a69,A
2020-02-25 05:51:37,3c8bba49-ecad-4128-a788-f59a43b16a69,S
2020-02-25 05:57:58,3c8bba49-ecad-4128-a788-f59a43b16a69,A
2020-02-25 06:02:34,3c8bba49-ecad-4128-a788-f59a43b16a69,S
2020-02-25 06:03:47,3c8bba49-ecad-4128-a788-f59a43b16a69,A
2020-02-25 06:12:31,3c8bba49-ecad-4128-a788-f59a43b16a69,S
2020-02-25 06:14:05,3c8bba49-ecad-4128-a788-f59a43b16a69,A
2020-02-25 06:22:07,3c8bba49-ecad-4128-a788-f59a43b16a69,S
2020-02-25 06:22:20,3c8bba49-ecad-4128-a788-f59a43b16a69,A
2020-02-25 06:28:55,3c8bba49-ecad-4128-a788-f59a43b16a69,S
2020-02-25 06:33:49,3c8bba49-ecad-4128-a788-f59a43b16a69,A
2020-02-25 06:34:44,3c8bba49-ecad-4128-a788-f59a43b16a69,S
2020-02-25 06:36:41,3c8bba49-ecad-4128-a788-f59a43b16a69,A
2020-02-25 06:36:42,3c8bba49-ecad-4128-a788-f59a43b16a69,S
2020-02-25 06:38:03,3c8bba49-ecad-4128-a788-f59a43b16a69,A
2020-02-25 06:40:49,3c8bba49-ecad-4128-a788-f59a43b16a69,S
2020-02-25 06:48:15,3c8bba49-ecad-4128-a788-f59a43b16a69,A
2020-02-25 06:49:48,3c8bba49-ecad-4128-a788-f59a43b16a69,S
2020-02-25 06:50:24,3c8bba49-ecad-4128-a788-f59a43b16a69,A
2020-02-25 06:57:26,3c8bba49-ecad-4128-a788-f59a43b16a69,S
2020-02-25 07:00:55,3c8bba49-ecad-4128-a788-f59a43b16a69,A
2020-02-25 05:12:04,c71c0a63-0589-4f2b-a1f5-fa8e5e99a2a7,S
2020-02-25 05:23:59,c71c0a63-0589-4f2b-a1f5-fa8e5e99a2a7,A
2020-02-25 05:24:17,c71c0a63-0589-4f2b-a1f5-fa8e5e99a2a7,S
2020-02-25 05:39:42,c71c0a63-0589-4f2b-a1f5-fa8e5e99a2a7,A
2020-02-25 05:42:34,c71c0a63-0589-4f2b-a1f5-fa8e5e99a2a7,S
2020-02-25 05:44:34,c71c0a63-0589-4f2b-a1f5-fa8e5e99a2a7,A
2020-02-25 05:52:41,c71c0a63-0589-4f2b-a1f5-fa8e5e99a2a7,S
2020-02-25 05:53:37,c71c0a63-0589-4f2b-a1f5-fa8e5e99a2a7,A
2020-02-25 05:55:50,c71c0a63-0589-4f2b-a1f5-fa8e5e99a2a7,S
2020-02-25 06:10:14,c71c0a63-0589-4f2b-a1f5-fa8e5e99a2a7,A
2020-02-25 06:15:32,c71c0a63-0589-4f2b-a1f5-fa8e5e99a2a7,S
2020-02-25 06:17:06,c71c0a63-0589-4f2b-a1f5-fa8e5e99a2a7,A
2020-02-25 06:17:53,c71c0a63-0589-4f2b-a1f5-fa8e5e99a2a7,S
2020-02-25 06:19:50,c71c0a63-0589-4f2b-a1f5-fa8e5e99a2a7,A
2020-02-25 06:23:08,c71c0a63-0589-4f2b-a1f5-fa8e5e99a2a7,S
2020-02-25 06:23:14,c71c0a63-0589-4f2b-a1f5-fa8e5e99a2a7,A
2020-02-25 06:35:34,c71c0a63-0589-4f2b-a1f5-fa8e5e99a2a7,S
2020-02-25 06:36:54,c71c0a63-0589-4f2b-a1f5-fa8e5e99a2a7,A
2020-02-25 06:41:46,c71c0a63-0589-4f2b-a1f5-fa8e5e99a2a7,S
2020-02-25 06:45:12,c71c0a63-0589-4f2b-a1f5-fa8e5e99a2a7,A
2020-02-25 06:46:26,c71c0a63-0589-4f2b-a1f5-fa8e5e99a2a7,S
2020-02-25 06:47:08,c71c0a63-0589-4f2b-a1f5-fa8e5e99a2a7,A
2020-02-25 06:59:49,c71c0a63-0589-4f2b-a1f5-fa8e5e99a2a7,S
2020-02-25 07:01:16,c71c0a63-0589-4f2b-a1f5-fa8e5e99a2a7,A
2020-02-25 07:02:30,c71c0a63-0589-4f2b-a1f5-fa8e5e99a2a7,S
2020-02-25 07:05:07,c71c0a63-0589-4f2b-a1f5-fa8e5e99a2a7,A
2020-02-25 05:26:04,4c291996-de62-42e1-a6c1-dac744b156e5,S
2020-02-25 05:30:22,4c291996-de62-42e1-a6c1-dac744b156e5,A
2020-02-25 05:44:05,4c291996-de62-42e1-a6c1-dac744b156e5,S
2020-02-25 05:44:28,4c291996-de62-42e1-a6c1-dac744b156e5,A
2020-02-25 05:49:05,4c291996-de62-42e1-a6c1-dac744b156e5,S
2020-02-25 05:52:23,4c291996-de62-42e1-a6c1-dac744b156e5,A
2020-02-25 05:55:29,4c291996-de62-42e1-a6c1-dac744b156e5,S
2020-02-25 06:00:02,4c291996-de62-42e1-a6c1-dac744b156e5,A
2020-02-25 06:03:16,4c291996-de62-42e1-a6c1-dac744b156e5,S
2020-02-25 06:06:52,4c291996-de62-42e1-a6c1-dac744b156e5,A
2020-02-25 06:22:43,4c291996-de62-42e1-a6c1-dac744b156e5,S
2020-02-25 06:27:00,4c291996-de62-42e1-a6c1-dac744b156e5,A
2020-02-25 06:27:21,4c291996-de62-42e1-a6c1-dac744b156e5,S
2020-02-25 06:32:28,4c291996-de62-42e1-a6c1-dac744b156e5,A
2020-02-25 06:39:46,4c291996-de62-42e1-a6c1-dac744b156e5,S
2020-02-25 06:52:53,4c291996-de62-42e1-a6c1-dac744b156e5,A
2020-02-25 06:53:55,4c291996-de62-42e1-a6c1-dac744b156e5,S
2020-02-25 05:18:12,53034bc9-e032-45b7-9a49-ecced65b7c6b,A
2020-02-25 05:26:01,53034bc9-e032-45b7-9a49-ecced65b7c6b,S
2020-02-25 05:27:32,53034bc9-e032-45b7-9a49-ecced65b7c6b,A
2020-02-25 05:30:09,53034bc9-e032-45b7-9a49-ecced65b7c6b,S
2020-02-25 05:34:50,53034bc9-e032-45b7-9a49-ecced65b7c6b,A
2020-02-25 05:49:32,53034bc9-e032-45b7-9a49-ecced65b7c6b,S
2020-02-25 05:50:07,53034bc9-e032-45b7-9a49-ecced65b7c6b,A
2020-02-25 05:55:37,53034bc9-e032-45b7-9a49-ecced65b7c6b,S
2020-02-25 06:02:50,53034bc9-e032-45b7-9a49-ecced65b7c6b,A
2020-02-25 06:03:25,53034bc9-e032-45b7-9a49-ecced65b7c6b,S
2020-02-25 06:15:15,53034bc9-e032-45b7-9a49-ecced65b7c6b,A
2020-02-25 06:18:24,53034bc9-e032-45b7-9a49-ecced65b7c6b,S
2020-02-25 06:30:13,53034bc9-e032-45b7-9a49-ecced65b7c6b,A
2020-02-25 06:42:11,53034bc9-e032-45b7-9a49-ecced65b7c6b,S
2020-02-25 06:47:03,53034bc9-e032-45b7-9a49-ecced65b7c6b,A
2020-02-25 06:47:36,53034bc9-e032-45b7-9a49-ecced65b7c6b,S
2020-02-25 06:47:54,53034bc9-e032-45b7-9a49-ecced65b7c6b,A
2020-02-25 06:48:04,53034bc9-e032-45b7-9a49-ecced65b7c6b,S
2020-02-25 06:49:15,53034bc9-e032-45b7-9a49-ecced65b7c6b,A
2020-02-25 06:52:56,53034bc9-e032-45b7-9a49-ecced65b7c6b,S
2020-02-25 07:01:48,53034bc9-e032-45b7-9a49-ecced65b7c6b,A
2020-02-25 07:06:00,53034bc9-e032-45b7-9a49-ecced65b7c6b,S
2020-02-25 05:44:54,d6f86866-6e0d-4651-9fbb-e54f55b412d5,S
2020-02-25 05:45:43,d6f86866-6e0d-4651-9fbb-e54f55b412d5,A
2020-02-25 05:58:18,d6f86866-6e0d-4651-9fbb-e54f55b412d5,S
2020-02-25 05:59:25,d6f86866-6e0d-4651-9fbb-e54f55b412d5,A
2020-02-25 06:01:30,d6f86866-6e0d-4651-9fbb-e54f55b412d5,S
2020-02-25 06:26:22,d6f86866-6e0d-4651-9fbb-e54f55b412d5,A
2020-02-25 06:38:13,d6f86866-6e0d-4651-9fbb-e54f55b412d5,S
2020-02-25 06:42:34,d6f86866-6e0d-4651-9fbb-e54f55b412d5,A
2020-02-25 06:42:35,d6f86866-6e0d-4651-9fbb-e54f55b412d5,S
2020-02-25 06:46:44,d6f86866-6e0d-4651-9fbb-e54f55b412d5,A
2020-02-25 06:50:56,d6f86866-6e0d-4651-9fbb-e54f55b412d5,S
2020-02-25 07:00:18,d6f86866-6e0d-4651-9fbb-e54f55b412d5,A
2020-02-25 07:05:28,d6f86866-6e0d-4651-9fbb-e54f55b412d5,S
2020-02-25 05:30:27,801e6716-e6b1-4d35-b0ce-d8796fe3d4b3,S
2020-02-25 05:42:42,801e6716-e6b1-4d35-b0ce-d8796fe3d4b3,A
2020-02-25 05:52:50,801e6716-e6b1-4d35-b0ce-d8796fe3d4b3,S
2020-02-25 05:54:08,801e6716-e6b1-4d35-b0ce-d8796fe3d4b3,A
2020-02-25 05:56:07,801e6716-e6b1-4d35-b0ce-d8796fe3d4b3,S
2020-02-25 06:02:46,801e6716-e6b1-4d35-b0ce-d8796fe3d4b3,A
2020-02-25 06:03:33,801e6716-e6b1-4d35-b0ce-d8796fe3d4b3,S
2020-02-25 06:05:55,801e6716-e6b1-4d35-b0ce-d8796fe3d4b3,A
2020-02-25 06:06:46,801e6716-e6b1-4d35-b0ce-d8796fe3d4b3,S
2020-02-25 06:07:08,801e6716-e6b1-4d35-b0ce-d8796fe3d4b3,A
2020-02-25 06:07:26,801e6716-e6b1-4d35-b0ce-d8796fe3d4b3,S
2020-02-25 06:14:23,801e6716-e6b1-4d35-b0ce-d8796fe3d4b3,A
2020-02-25 06:27:13,801e6716-e6b1-4d35-b0ce-d8796fe3d4b3,S
2020-02-25 06:31:50,801e6716-e6b1-4d35-b0ce-d8796fe3d4b3,A
2020-02-25 06:32:29,801e6716-e6b1-4d35-b0ce-d8796fe3d4b3,S
2020-02-25 06:49:24,801e6716-e6b1-4d35-b0ce-d8796fe3d4b3,A
2020-02-25 06:51:44,801e6716-e6b1-4d35-b0ce-d8796fe3d4b3,S
2020-02-25 06:51:58,801e6716-e6b1-4d35-b0ce-d8796fe3d4b3,A
2020-02-25 06:53:18,801e6716-e6b1-4d35-b0ce-d8796fe3d4b3,S
2020-02-25 06:55:44,801e6716-e6b1-4d35-b0ce-d8796fe3d4b3,A
2020-02-25 07:01:12,801e6716-e6b1-4d35-b0ce-d8796fe3d4b3,S
2020-02-25 07:04:15,801e6716-e6b1-4d35-b0ce-d8796fe3d4b3,A
2020-02-25 05:08:15,2cefb634-8400-4ec3-b258-ed6805f14fea,S
2020-02-25 05:24:22,2cefb634-8400-4ec3-b258-ed6805f14fea,A
2020-02-25 05:25:34,2cefb634-8400-4ec3-b258-ed6805f14fea,S
2020-02-25 05:30:23,2cefb634-8400-4ec3-b258-ed6805f14fea,A
2020-02-25 05:31:29,2cefb634-8400-4ec3-b258-ed6805f14fea,S
2020-02-25 05:34:16,2cefb634-8400-4ec3-b258-ed6805f14fea,A
2020-02-25 05:39:28,2cefb634-8400-4ec3-b258-ed6805f14fea,S
2020-02-25 05:41:38,2cefb634-8400-4ec3-b258-ed6805f14fea,A
2020-02-25 05:45:07,2cefb634-8400-4ec3-b258-ed6805f14fea,S
2020-02-25 05:50:43,2cefb634-8400-4ec3-b258-ed6805f14fea,A
2020-02-25 06:01:13,2cefb634-8400-4ec3-b258-ed6805f14fea,S
2020-02-25 06:06:54,2cefb634-8400-4ec3-b258-ed6805f14fea,A
2020-02-25 06:08:52,2cefb634-8400-4ec3-b258-ed6805f14fea,S
2020-02-25 06:10:53,2cefb634-8400-4ec3-b258-ed6805f14fea,A
2020-02-25 06:19:10,2cefb634-8400-4ec3-b258-ed6805f14fea,S
2020-02-25 06:21:20,2cefb634-8400-4ec3-b258-ed6805f14fea,A
2020-02-25 06:26:14,2cefb634-8400-4ec3-b258-ed6805f14fea,S
2020-02-25 06:29:13,2cefb634-8400-4ec3-b258-ed6805f14fea,A
2020-02-25 06:30:21,2cefb634-8400-4ec3-b258-ed6805f14fea,S
2020-02-25 06:35:16,2cefb634-8400-4ec3-b258-ed6805f14fea,A
2020-02-25 06:38:08,2cefb634-8400-4ec3-b258-ed6805f14fea,S
2020-02-25 06:41:58,2cefb634-8400-4ec3-b258-ed6805f14fea,A
2020-02-25 06:44:18,2cefb634-8400-4ec3-b258-ed6805f14fea,S
2020-02-25 06:48:04,2cefb634-8400-4ec3-b258-ed6805f14fea,A
2020-02-25 06:53:29,2cefb634-8400-4ec3-b258-ed6805f14fea,S
2020-02-25 06:54:36,2cefb634-8400-4ec3-b258-ed6805f14fea,A
2020-02-25 07:00:21,2cefb634-8400-4ec3-b258-ed6805f14fea,S
2020-02-25 07:01:18,2cefb634-8400-4ec3-b258-ed6805f14fea,A
2020-02-25 07:02:48,2cefb634-8400-4ec3-b258-ed6805f14fea,S
2020-02-25 07:03:20,2cefb634-8400-4ec3-b258-ed6805f14fea,A
2020-02-25 07:06:40,2cefb634-8400-4ec3-b258-ed6805f14fea,S
2020-02-25 05:07:44,a2d6f7d1-2b18-479d-8350-8a9c92fb3063,S
2020-02-25 05:12:42,a2d6f7d1-2b18-479d-8350-8a9c92fb3063,A
2020-02-25 05:13:04,a2d6f7d1-2b18-479d-8350-8a9c92fb3063,S
2020-02-25 05:17:48,a2d6f7d1-2b18-479d-8350-8a9c92fb3063,A
2020-02-25 05:22:46,a2d6f7d1-2b18-479d-8350-8a9c92fb3063,S
2020-02-25 05:24:48,a2d6f7d1-2b18-479d-8350-8a9c92fb3063,A
2020-02-25 05:34:52,a2d6f7d1-2b18-479d-8350-8a9c92fb3063,S
2020-02-25 05:37:33,a2d6f7d1-2b18-479d-8350-8a9c92fb3063,A
2020-02-25 05:38:28,a2d6f7d1-2b18-479d-8350-8a9c92fb3063,S
2020-02-25 05:46:30,a2d6f7d1-2b18-479d-8350-8a9c92fb3063,A
2020-02-25 05:55:18,a2d6f7d1-2b18-479d-8350-8a9c92fb3063,S
2020-02-25 05:57:28,a2d6f7d1-2b18-479d-8350-8a9c92fb3063,A
2020-02-25 05:57:38,a2d6f7d1-2b18-479d-8350-8a9c92fb3063,S
2020-02-25 06:16:55,a2d6f7d1-2b18-479d-8350-8a9c92fb3063,A
2020-02-25 06:19:08,a2d6f7d1-2b18-479d-8350-8a9c92fb3063,S
2020-02-25 06:36:42,a2d6f7d1-2b18-479d-8350-8a9c92fb3063,A
2020-02-25 06:46:54,a2d6f7d1-2b18-479d-8350-8a9c92fb3063,S
2020-02-25 07:02:44,a2d6f7d1-2b18-479d-8350-8a9c92fb3063,A
2020-02-25 07:03:57,a2d6f7d1-2b18-479d-8350-8a9c92fb3063,S
2020-02-25 05:43:41,1f3bed95-489b-4889-ac06-880fb1b92682,S
2020-02-25 05:45:52,1f3bed95-489b-4889-ac06-880fb1b92682,A
2020-02-25 05:48:38,1f3bed95-489b-4889-ac06-880fb1b92682,S
2020-02-25 06:05:34,1f3bed95-489b-4889-ac06-880fb1b92682,A
2020-02-25 06:07:14,1f3bed95-489b-4889-ac06-880fb1b92682,S
2020-02-25 06:08:21,1f3bed95-489b-4889-ac06-880fb1b92682,A
2020-02-25 06:13:35,1f3bed95-489b-4889-ac06-880fb1b92682,S
2020-02-25 06:22:13,1f3bed95-489b-4889-ac06-880fb1b92682,A
2020-02-25 06:24:11,1f3bed95-489b-4889-ac06-880fb1b92682,S
2020-02-25 06:31:46,1f3bed95-489b-4889-ac06-880fb1b92682,A
2020-02-25 06:32:35,1f3bed95-489b-4889-ac06-880fb1b92682,S
2020-02-25 06:44:22,1f3bed95-489b-4889-ac06-880fb1b92682,A
2020-02-25 06:52:14,1f3bed95-489b-4889-ac06-880fb1b92682,S
2020-02-25 06:53:52,1f3bed95-489b-4889-ac06-880fb1b92682,A
2020-02-25 06:57:42,1f3bed95-489b-4889-ac06-880fb1b92682,S
2020-02-25 07:00:00,1f3bed95-489b-4889-ac06-880fb1b92682,A
2020-02-25 05:15:15,288b0b5b-c43b-4b57-9148-6e10b2077d69,S
2020-02-25 05:27:19,288b0b5b-c43b-4b57-9148-6e10b2077d69,A
2020-02-25 05:45:41,288b0b5b-c43b-4b57-9148-6e10b2077d69,S
2020-02-25 05:48:04,288b0b5b-c43b-4b57-9148-6e10b2077d69,A
2020-02-25 05:51:23,288b0b5b-c43b-4b57-9148-6e10b2077d69,S
2020-02-25 05:54:42,288b0b5b-c43b-4b57-9148-6e10b2077d69,A
2020-02-25 06:06:12,288b0b5b-c43b-4b57-9148-6e10b2077d69,S
2020-02-25 06:07:01,288b0b5b-c43b-4b57-9148-6e10b2077d69,A
2020-02-25 06:08:40,288b0b5b-c43b-4b57-9148-6e10b2077d69,S
2020-02-25 06:09:33,288b0b5b-c43b-4b57-9148-6e10b2077d69,A
2020-02-25 06:26:57,288b0b5b-c43b-4b57-9148-6e10b2077d69,S
2020-02-25 06:27:03,288b0b5b-c43b-4b57-9148-6e10b2077d69,A
2020-02-25 06:30:12,288b0b5b-c43b-4b57-9148-6e10b2077d69,S
2020-02-25 06:33:39,288b0b5b-c43b-4b57-9148-6e10b2077d69,A
2020-02-25 06:35:53,288b0b5b-c43b-4b57-9148-6e10b2077d69,S
2020-02-25 06:41:50,288b0b5b-c43b-4b57-9148-6e10b2077d69,A
2020-02-25 06:43:12,288b0b5b-c43b-4b57-9148-6e10b2077d69,S
2020-02-25 06:47:08,288b0b5b-c43b-4b57-9148-6e10b2077d69,A
2020-02-25 06:52:41,288b0b5b-c43b-4b57-9148-6e10b2077d69,S
2020-02-25 07:04:13,288b0b5b-c43b-4b57-9148-6e10b2077d69,A
2020-02-25 05:39:03,f4391ceb-a330-4e17-bcf7-5d3d06d628b7,A
2020-02-25 05:47:58,f4391ceb-a330-4e17-bcf7-5d3d06d628b7,S
2020-02-25 05:58:41,f4391ceb-a330-4e17-bcf7-5d3d06d628b7,A
2020-02-25 06:04:13,f4391ceb-a330-4e17-bcf7-5d3d06d628b7,S
2020-02-25 06:06:51,f4391ceb-a330-4e17-bcf7-5d3d06d628b7,A
2020-02-25 06:07:36,f4391ceb-a330-4e17-bcf7-5d3d06d628b7,S
2020-02-25 06:12:15,f4391ceb-a330-4e17-bcf7-5d3d06d628b7,A
2020-02-25 06:14:06,f4391ceb-a330-4e17-bcf7-5d3d06d628b7,S
2020-02-25 06:27:21,f4391ceb-a330-4e17-bcf7-5d3d06d628b7,A
2020-02-25 06:29:14,f4391ceb-a330-4e17-bcf7-5d3d06d628b7,S
2020-02-25 06:35:26,f4391ceb-a330-4e17-bcf7-5d3d06d628b7,A
2020-02-25 06:38:14,f4391ceb-a330-4e17-bcf7-5d3d06d628b7,S
2020-02-25 06:40:01,f4391ceb-a330-4e17-bcf7-5d3d06d628b7,A
2020-02-25 06:40:24,f4391ceb-a330-4e17-bcf7-5d3d06d628b7,S
2020-02-25 06:41:04,f4391ceb-a330-4e17-bcf7-5d3d06d628b7,A
2020-02-25 06:53:34,f4391ceb-a330-4e17-bcf7-5d3d06d628b7,S
2020-02-25 06:53:36,f4391ceb-a330-4e17-bcf7-5d3d06d628b7,A
2020-02-25 06:54:12,f4391ceb-a330-4e17-bcf7-5d3d06d628b7,S
2020-02-25 06:54:40,f4391ceb-a330-4e17-bcf7-5d3d06d628b7,A
2020-02-25 07:08:04,f4391ceb-a330-4e17-bcf7-5d3d06d628b7,S
2020-02-25 04:59:51,bac80c17-be0c-4380-ab6f-5fabea45941c,S
2020-02-25 05:03:53,bac80c17-be0c-4380-ab6f-5fabea45941c,A
2020-02-25 05:04:43,bac80c17-be0c-4380-ab6f-5fabea45941c,S
2020-02-25 05:09:56,bac80c17-be0c-4380-ab6f-5fabea45941c,A
2020-02-25 05:14:49,bac80c17-be0c-4380-ab6f-5fabea45941c,S
2020-02-25 05:19:48,bac80c17-be0c-4380-ab6f-5fabea45941c,A
2020-02-25 05:22:23,bac80c17-be0c-4380-ab6f-5fabea45941c,S
2020-02-25 05:23:09,bac80c17-be0c-4380-ab6f-5fabea45941c,A
2020-02-25 05:33:45,bac80c17-be0c-4380-ab6f-5fabea45941c,S
2020-02-25 05:34:08,bac80c17-be0c-4380-ab6f-5fabea45941c,A
2020-02-25 05:41:46,bac80c17-be0c-4380-ab6f-5fabea45941c,S
2020-02-25 05:47:06,bac80c17-be0c-4380-ab6f-5fabea45941c,A
2020-02-25 05:47:32,bac80c17-be0c-4380-ab6f-5fabea45941c,S
2020-02-25 05:53:58,bac80c17-be0c-4380-ab6f-5fabea45941c,A
2020-02-25 05:56:02,bac80c17-be0c-4380-ab6f-5fabea45941c,S
2020-02-25 05:56:15,bac80c17-be0c-4380-ab6f-5fabea45941c,A
2020-02-25 06:01:18,bac80c17-be0c-4380-ab6f-5fabea45941c,S
2020-02-25 06:02:00,bac80c17-be0c-4380-ab6f-5fabea45941c,A
2020-02-25 06:19:06,bac80c17-be0c-4380-ab6f-5fabea45941c,S
2020-02-25 06:21:23,bac80c17-be0c-4380-ab6f-5fabea45941c,A
2020-02-25 06:21:42,bac80c17-be0c-4380-ab6f-5fabea45941c,S
2020-02-25 06:25:08,bac80c17-be0c-4380-ab6f-5fabea45941c,A
2020-02-25 06:25:19,bac80c17-be0c-4380-ab6f-5fabea45941c,S
2020-02-25 06:32:20,bac80c17-be0c-4380-ab6f-5fabea45941c,A
2020-02-25 06:38:09,bac80c17-be0c-4380-ab6f-5fabea45941c,S
2020-02-25 06:58:51,bac80c17-be0c-4380-ab6f-5fabea45941c,A
2020-02-25 07:00:08,bac80c17-be0c-4380-ab6f-5fabea45941c,S
2020-02-25 05:37:08,fe7b2817-9769-482e-a44c-bb8819c60305,A
2020-02-25 05:44:22,fe7b2817-9769-482e-a44c-bb8819c60305,S
2020-02-25 05:46:17,fe7b2817-9769-482e-a44c-bb8819c60305,A
2020-02-25 05:51:07,fe7b2817-9769-482e-a44c-bb8819c60305,S
2020-02-25 05:58:22,fe7b2817-9769-482e-a44c-bb8819c60305,A
2020-02-25 06:05:18,fe7b2817-9769-482e-a44c-bb8819c60305,S
2020-02-25 06:05:52,fe7b2817-9769-482e-a44c-bb8819c60305,A
2020-02-25 06:06:17,fe7b2817-9769-482e-a44c-bb8819c60305,S
2020-02-25 06:07:40,fe7b2817-9769-482e-a44c-bb8819c60305,A
2020-02-25 06:08:19,fe7b2817-9769-482e-a44c-bb8819c60305,S
2020-02-25 06:10:35,fe7b2817-9769-482e-a44c-bb8819c60305,A
2020-02-25 06:16:57,fe7b2817-9769-482e-a44c-bb8819c60305,S
2020-02-25 06:18:20,fe7b2817-9769-482e-a44c-bb8819c60305,A
2020-02-25 06:21:02,fe7b2817-9769-482e-a44c-bb8819c60305,S
2020-02-25 06:21:37,fe7b2817-9769-482e-a44c-bb8819c60305,A
2020-02-25 06:22:56,fe7b2817-9769-482e-a44c-bb8819c60305,S
2020-02-25 06:42:17,fe7b2817-9769-482e-a44c-bb8819c60305,A
2020-02-25 07:00:18,fe7b2817-9769-482e-a44c-bb8819c60305,S
2020-02-25 07:01:21,fe7b2817-9769-482e-a44c-bb8819c60305,A
