actor,node
00ea3de8-8f3f-49b0-aadb-995d61851404,939d8dd5-8199-4e53-83f5-15e54b00b11d
5fdfbea3-5c92-4650-a1e5-3071dfdb0935,ca5cfc4a-150f-4889-87cc-758075c59dad
fd504838-ec5f-4d9f-aafa-9f294e145b98,939d8dd5-8199-4e53-83f5-15e54b00b11d
035e3eb2-23b2-403d-be4a-aca08fc17932,6ddbbf18-3233-4bf3-add3-50d05ecafdd9
636a6322-cbb9-468a-941a-16be8dc0112d,076b2cf5-e714-4f75-821c-65d9887dd838
0ed3fc46-6195-4377-ad75-b55dfbf188b6,fbc115a8-5085-4f00-b51f-c6bc7616829c
3d0e8112-88e8-444a-b782-aeb785c6e726,9085cf7c-599e-4704-8192-d36e5197fb42
acb7f488-6eed-40f6-8305-d3d5aa67e561,4a049def-5c55-4c6f-8e05-a9841f580c0f
76e955c1-0497-47d4-b84e-ef42c41e5b6d,4a049def-5c55-4c6f-8e05-a9841f580c0f
38e33d4b-689b-4c7d-af3e-33d661968361,6ddbbf18-3233-4bf3-add3-50d05ecafdd9
80be73df-3caa-4850-b833-2781dabfabd9,73cff2fe-bc83-451e-a01f-1b54e0dbcf28
989b3b93-436a-4dcd-8f05-a561bc6c154a,6ddbbf18-3233-4bf3-add3-50d05ecafdd9
35e55af6-1abc-433b-a116-5a7ad03b8f3f,64311692-9334-4898-a7e0-6924bccb3f3d
57ca53ba-9040-4dde-b2a5-29cc41ae08f3,e25e0cf7-53ae-4d73-a88b-3cc6a0c16661
54ca3fce-8bda-458f-a084-3ce8de4d0cc7,6ddbbf18-3233-4bf3-add3-50d05ecafdd9
c4afdfeb-8e9b-4eb5-89d0-d222568de3f3,4a049def-5c55-4c6f-8e05-a9841f580c0f
c2b0a92c-9f87-4d8c-be7d-a211f8045a32,56d117ca-4207-4bb3-be7e-52c667cf3ed5
096f0e0b-4de7-4716-961a-93d406311482,4a049def-5c55-4c6f-8e05-a9841f580c0f
3541c760-37d3-44d0-b15f-b031f43b333c,939d8dd5-8199-4e53-83f5-15e54b00b11d
8179ce6c-ef21-4cc2-953d-3418937aff4a,53983ee5-feeb-4605-913f-79ff05576a2c
83e0c1f3-9631-4acc-88e7-5eb7c0e97785,31a77745-054f-4d9d-bf0a-9af5f03f9274
9d0b0d46-7886-4130-957f-228da712754e,e064ddec-746e-4ba3-b66c-21d91248ef85
6151278e-89ee-4787-8588-e9aeecd4463f,e064ddec-746e-4ba3-b66c-21d91248ef85
8cb6da9e-2ad3-4212-8715-141a89e1f12d,8c63c257-f9b2-4779-b2c1-9e97dd45a727
ffb5eff1-442b-4994-8517-505b77e54afc,797ef6fe-7e27-441c-9bce-a9ad14bb7d19
621f55ba-2dd7-428f-9adf-daaf92057719,6ea7f56e-8914-4941-af1d-6f2b9fc19415
d72c9def-1b74-4dc3-a16c-8d79301d83a3,6ea7f56e-8914-4941-af1d-6f2b9fc19415
833f724a-ba21-4435-ab35-ad878023a0fb,feaf3391-f6b7-4599-8fa2-b88b4730ec2f
13e70662-40bb-4239-88b9-4a52b79630fc,6ea7f56e-8914-4941-af1d-6f2b9fc19415
82fa88ca-421e-4985-af71-0b9e3d935de5,6ea7f56e-8914-4941-af1d-6f2b9fc19415
859d4acd-bd6e-4551-8658-cf654210e3ce,939d8dd5-8199-4e53-83f5-15e54b00b11d
3823ead1-a314-4ffa-acfc-a8ac96597822,0c348785-2281-496f-8520-4357513ead70
b5b45b9a-f15a-4c26-8bdb-603904f25204,22f5b57a-4adb-4611-b44e-ec0c384e9c68
e95fc020-a74a-4352-8f66-6f812637fdcb,209f8be6-f803-47fe-a2e8-5cacaab4a3e8
ace83e6e-4e82-47b9-8ca7-5a775262e049,ca0df680-ec1b-454b-93bf-63e7a33b979f
a7b9998c-1dbc-4695-9e94-0a739f25f56f,209f8be6-f803-47fe-a2e8-5cacaab4a3e8
895f81fc-70e1-4924-844b-176b70836229,0971bfd4-c0d7-4ff9-991f-5ce2ea1f5bc4
835d65b0-2bcd-4455-9eb6-ea94ce71e177,0971bfd4-c0d7-4ff9-991f-5ce2ea1f5bc4
7f66e915-a945-4058-95a7-2a45d9e0b5a0,50febb1f-9e68-45aa-9dee-1255ea314a58
f2300cbb-f9e2-4d12-953d-014ac593797e,e48459e8-edc7-48c9-a740-1a1beb43f5d1
f246a0e1-9e53-43b7-a573-488187aa3915,209f8be6-f803-47fe-a2e8-5cacaab4a3e8
556fb2e2-f3a5-4ec9-bfd1-51e09f66e96d,209f8be6-f803-47fe-a2e8-5cacaab4a3e8
a404c225-6570-42e6-a12c-08a76a59c909,6a4ef742-acd5-4c28-bcfc-11c550b2b91c
063786d3-81b8-4a67-ae9c-f976e382499f,4a049def-5c55-4c6f-8e05-a9841f580c0f
16be3517-a88c-470c-b7e9-c93c170c74fc,4a049def-5c55-4c6f-8e05-a9841f580c0f
a7ca5a1a-9cab-45de-bcb0-82503681a509,24e953f4-978a-4883-ae06-35f9479edae0
ece0ccd6-e2c7-47ce-83b7-a6faecc1cee1,24e953f4-978a-4883-ae06-35f9479edae0
86ff917f-8c52-476b-9872-3cf142ea457b,04cfc5bc-0661-492a-85d3-a775520fe6f1
d2c8cf7c-7441-4845-babe-d3cf6cd9bcf5,b12674b0-1749-4c9e-aaca-fd5194aa1978
211fad84-7982-40b6-9e16-c0f87e3fa9ae,a05f94f0-4d77-4828-9c30-982096d12a5a
a25a6a0c-ac28-48e4-b6b0-c14ac476751b,a05f94f0-4d77-4828-9c30-982096d12a5a
3d24a3a6-a60e-4c3a-8c61-1d61ce65fefc,f1656eb0-54f4-4cb2-a432-872db5431f46
12022d55-eaac-47d5-a2ea-b0eeca86febd,e064ddec-746e-4ba3-b66c-21d91248ef85
ff49a55c-22ec-4401-88eb-b9e6178d89f2,e064ddec-746e-4ba3-b66c-21d91248ef85
f6687f1f-7aa8-4141-b44c-8e67a1c32a96,3b874a95-ee1e-42c6-9570-b347ac86e683
8cb7f79a-29d1-4239-9a7f-8bdb01b2375b,3b874a95-ee1e-42c6-9570-b347ac86e683
32bb75ef-c587-45c6-99ae-37249cd878b9,b7d1b6fe-5aff-40f8-84b7-fffba9c4a73b
20cc152c-0214-4b21-9acc-29076af82c8d,22f5b57a-4adb-4611-b44e-ec0c384e9c68
b1fc3ffd-c619-4344-9a09-6fd1c045ca89,22f5b57a-4adb-4611-b44e-ec0c384e9c68
22f428e8-84d2-4a6a-b5d5-aa9cf456763f,e58d99ae-1194-4c4a-b613-8773a4024f7e
d9338e31-8c9a-450d-9495-f22a1216e676,87043a8a-3092-47e2-aa99-d5d8d4cce341
f65d0a47-166b-4657-b8cb-473ca1725166,209f8be6-f803-47fe-a2e8-5cacaab4a3e8
a8d5604f-1583-468a-a096-ee07ad192698,24e953f4-978a-4883-ae06-35f9479edae0
4cb8d833-46fe-4cb2-8dbb-8e31aa02ae06,209f8be6-f803-47fe-a2e8-5cacaab4a3e8
eac4fa98-0c06-452e-a716-3a9b624a5b72,f928a3ab-1110-487e-b616-0c2784a9e8de
c4efce73-6538-450c-9a2c-8b2aac1c9c9d,209f8be6-f803-47fe-a2e8-5cacaab4a3e8
0ab7d8ad-9c9a-4693-8470-a396ed35b5cd,51228c03-931f-4c0b-8a12-a5a7dbf32566
1b7324a2-c7e5-4fbb-9efc-b6e61cc791ad,6ea7f56e-8914-4941-af1d-6f2b9fc19415
846b99c8-7e81-4937-b5ca-7b8eebf7c3ee,6ea7f56e-8914-4941-af1d-6f2b9fc19415
80c17e4d-d308-4595-8865-14ee8ebe303a,2558022f-bd1f-4bbc-9ab3-bd93f8e923b9
1c8bddaf-ef9b-4833-91f7-68630ba5962f,fbc115a8-5085-4f00-b51f-c6bc7616829c
af827e81-28f4-4c2d-9147-e2d0014fdae1,fbc115a8-5085-4f00-b51f-c6bc7616829c
8351e3a8-bc23-4fde-a459-41a0838bfd5c,b8fa676e-77b9-4d4f-984c-03c62dd3c494
b1ed9acd-7d71-48c6-bec3-8f385362455e,fbc115a8-5085-4f00-b51f-c6bc7616829c
234d267d-0528-4156-8a4f-009e6da6d8b4,fbc115a8-5085-4f00-b51f-c6bc7616829c
