app_number,app_id,trigger,burn,sink,deploy_date,token_interval
1,2d9583b1-29ea-48d4-a973-8c8887cfbb4c,6860ae02-4c24-4862-b70a-d1cad793dc07,be84a92f-e474-49fb-b92d-301b1037f0cc,69b288d4-faf1-4944-8447-2e5beaf5d270,2019-11-10 07:12:08,1.000000
2,e9f11538-7a9c-43de-81d2-609612f3d7e5,066d45dc-a9a0-4df4-8eaf-5b2084721394,f3dd43ed-d724-4376-99fd-93a1b8426fd3,72268fae-8a90-441f-8d9d-a4b98414acd5,2019-11-10 07:13:11,1.000000
3,99d4b2bb-e096-44e1-8cc6-71e07579ca80,09864274-cc99-4281-967b-8ea695390521,6bcf3b8b-3acf-4240-8a47-409a9eb81f10,c8a5feda-8919-4026-a0d3-9a25c0aa223e,2019-11-10 07:14:14,1.000000
4,5e8b0603-348a-4592-8801-3eff30955966,186a1d20-a5f0-473a-bcbc-dbd8f946165d,6fa8a5b0-5d45-4e0c-a858-15402f9c10ce,68591a82-39ad-4823-a9de-e5e1b93af074,2019-11-10 07:15:17,0.200000
5,c4339281-2309-48f8-8e4b-b556a4a274ce,db95062b-3e63-4314-8808-c8eecd7e9f6a,ddcb0be7-4b16-4d7f-9f68-188baf73e082,4df73ed7-d72b-4f56-9128-d4122ce40ee3,2019-11-10 07:16:20,0.200000
6,fdae7609-9e8f-436d-8336-e0eda236c512,912d399b-ea5e-42dd-a6fa-872eb6180f21,36394703-b101-41d3-9c7b-cd8fc9b08cce,3f212c3e-12a7-4cd0-b7ea-9b17856b0529,2019-11-10 07:17:23,0.200000
7,27025828-1c4b-4f3f-8110-636eba36549b,62eba817-e363-472d-af72-b03707a069cb,490ae040-7944-481b-a391-3823fc4a7203,a8d12845-c2ed-45e4-84ab-ad0d847dbc58,2019-11-10 07:18:26,0.200000
8,aa791006-7c18-4fbe-bd83-79a09572872c,47f034b5-d548-4b9c-a512-6594978118ed,d1479056-5644-417a-ad21-2f7b2df50884,9bdfabbf-8746-46a9-8fbf-1b03749b221b,2019-11-10 07:19:29,1.000000
9,c74234e3-d9dd-4dae-b360-284d718220bb,823a898a-df18-445c-a5ba-3d065548f75e,94498a8e-db67-440f-9549-854f1f43e6a8,07ed4992-fdc9-44e5-9b66-6b046fdf5f84,2019-11-10 07:20:31,0.200000
10,c0edeadd-6253-46cf-b064-a9a6e9882941,d744cbd0-da33-4507-a953-06c0f9e174b1,b1ffbff6-de4d-495d-bdcb-ad9d4263cc62,f6ad68df-0f05-436e-b86c-ade754dd2668,2019-11-10 07:21:34,0.200000
11,d324eb56-cd45-4ce6-b029-f9a6d0799d71,2aff9aed-c212-4064-8e49-3f4fca473b18,45024c82-80af-49cf-901e-12ff6c77490f,42bf0ad3-01a0-45d1-87b2-c583911b3273,2019-11-10 07:22:37,0.200000
12,2c3b3448-9d68-41c8-aec8-19c079f27d66,884da829-4f4c-4599-aa19-b417d8cb5e1b,3ef72b5b-3634-4336-94be-16db00edf087,2a6a495f-e275-4ceb-98a8-dd65884ca2d5,2019-11-10 07:23:40,1.000000
13,303e7bac-f5df-4d61-ae5f-e352f0450a49,2789ac7c-c97a-4beb-a5bc-d83ee301c605,5144ddc1-8765-401c-975c-7713c1cc13ba,0140fb0e-05ed-4e1f-8897-de83f4f02df4,2019-11-10 07:24:43,0.200000
14,e131d465-8ead-4218-853b-ae2168803506,872dfa18-f1ca-4e35-92f5-8684eccdda22,ef206cbc-d14c-457f-a46b-e5fb51cc140d,48cf0862-f18e-48a5-b4a6-d266418c1bf9,2019-11-10 07:25:45,0.200000
15,5bfc6646-f48b-4077-a4bd-499e8fa328eb,7e016043-379b-425d-92c7-6cefcdfd2627,b9e828fc-67ed-44de-bc23-5016148c18a1,b6876b3e-65c9-42d4-bab7-b3a7d2706764,2019-11-10 07:26:48,1.000000
16,f54e83e5-175f-4a1f-8ada-7515bfe11af1,f6621a14-62ed-4465-bde6-bc6aaae02652,1f80eb16-1218-4033-90bf-2647c9325540,0245be34-5f13-469f-ad0f-a732a6dc9286,2019-11-10 07:27:51,1.000000
17,1a3ebd13-a716-43dd-b995-2079722e7b0c,ad955747-f6b7-48bd-a301-f732058f36ce,f49a3514-7520-43d3-a4b4-6dae4c4788f1,6ebc1672-51b3-4666-adc4-85137f460461,2019-11-10 07:28:54,0.200000
18,c930ee45-7b74-4475-964d-b2a98e464696,54ff765d-c843-4362-a42c-e67e8b9f7d75,58513812-d058-4d0e-bf88-7e545775795e,dd29e891-7781-4fcb-8d3f-a91ac1bc8880,2019-11-10 07:29:57,1.000000
19,f67ccbb3-9f15-4154-8dc0-5b1d8ecfc515,58ee29ad-0a0c-43dd-afd9-75f84342e9d3,ff235ea3-901e-4f45-9576-559490b9fbc3,f07b9a6d-3973-44a8-a69f-3476a2f5acc5,2019-11-10 07:31:00,0.200000
20,0320757d-b6fc-4f5d-8b93-ff4e0261f9c9,6f2f903b-090a-4dba-8343-1319b868b80f,b0246a21-0f4f-407a-9ebc-79fb83c8c02f,a4cfa792-2894-4a30-8c0e-84315de7deb2,2019-11-10 07:32:02,1.000000
21,e753f28c-ed68-4ffd-b8ec-4021536e5a20,dae3136b-b887-4b43-b44d-59eff891df10,3c35822c-96e1-4c31-8f0d-8408484685c1,71034386-2f3a-4126-8fd0-d4801a54b12d,2019-11-10 07:33:05,0.200000
22,d461fb25-9523-4301-aaa3-4c95a481ccf3,12d24fbf-87ad-49a1-9426-b44f984c684c,9ff90899-5403-4027-8fa2-a0db1e1ffc6c,e0b24bee-7552-45b7-9c7f-5416290b76f8,2019-11-10 07:34:08,0.200000
23,d5c4bed3-b057-4dd5-bb1c-ab77279867ca,bd615d07-985f-4f71-b596-a93633ed970e,1bb3ef71-e4a7-4ce6-80bb-52783564ceb8,c41b3c06-e5d8-4e69-bcdf-7e5fa5799e94,2019-11-10 07:35:11,0.200000
24,07070e6f-fe43-4e2e-aa1f-ffd31f38f618,a1cc767e-4eaf-4ea1-9774-2a96a6190bba,335e7ef1-2538-4ee2-9811-a820925d2257,f07154aa-81fc-4dbf-86cf-d16ae0bcaeb3,2019-11-10 07:36:14,1.000000
25,4a5f5dfb-9960-4e7d-9061-4774a1db2c60,43f6d157-3e53-477b-82dd-52e4395041f0,2bc0b053-e9e0-407a-b99c-bc0dbdbca07d,1826fe5a-0d61-4ee0-87db-366852b7c8d4,2019-11-10 07:37:17,1.000000
26,b3045635-2482-45df-9e81-3d04e1a32a7b,a51a251c-213f-4437-bd96-85ef673b79cd,210cafee-be16-47ef-bdfc-eccbd18a37dc,6b449602-58f1-4446-83c2-ca9154d3acf6,2019-11-10 07:38:19,1.000000
27,be09d656-4ed0-4b64-b945-5b03f26691a9,fc027633-ac7c-4a84-a4ce-3b3336e504bd,4eaa15bd-6c18-4ea8-803e-ae99a248bf4e,55d3d5c9-e30a-485e-b9c4-8b1818a99c47,2019-11-10 07:39:22,0.200000
28,36b80cbd-4dd5-4d09-9c5e-62d5d908ef3d,7228100f-4a46-43aa-9216-27c8e7b2b181,9f98db81-4bd2-4dd6-a8b2-bf6d06c44b19,b036c777-d260-4123-9d7a-4f06996c5914,2019-11-10 07:40:25,1.000000
29,b8d934db-fa72-433c-ad14-6a9f8f0d23e1,9fb9f557-107e-4b4e-8b07-995a31293b71,770d2ae9-3694-4717-8ff9-fd34370a3d33,4be8bd37-015e-412c-b114-4c8b6b4c732b,2019-11-10 07:41:28,1.000000
30,8a1dc9a5-3633-412d-b35a-a68a8f517803,61bf136f-fe75-4043-ab89-e5220fafd462,ff6b9da4-6f31-4057-a183-f6479db73aef,41e4dea2-8e03-4dc1-a788-c1cc8b4da4aa,2019-11-10 07:42:31,1.000000
31,c163a13c-0954-4f4d-874f-b72f0724402c,e12001a5-b15f-4c5e-b61d-c59d25c22dd4,ed36393e-9edc-432f-be7d-925498cfe247,085dd69b-8a82-4cbb-aa0c-2cbf969ec73b,2019-11-10 07:43:34,1.000000
32,628b9797-30ce-43a7-8f88-d4adb9d875b4,a986c750-d310-4403-a645-b5d5dcf1056f,d7653881-e4a2-4195-adfc-05ebdb22788f,b9ae7eb3-96c9-4cdc-8b41-35c42f7bf993,2019-11-10 07:44:37,0.200000
33,0c547725-4993-41ca-914d-dcf23dde75ea,64b91855-f504-415f-8cfa-08caf4199b02,533dcae5-522b-4a1b-ab27-8933b4643bcf,1ce03396-c91e-4a8d-8593-1cee1fb25af2,2019-11-10 07:45:39,1.000000
34,f8e10b93-b600-4ce7-ba47-a6193836680d,a1e452ea-41e0-429b-802d-0eca0d6c659b,816d8bb7-83d3-40d7-bb58-57e10701e880,2253871e-387d-491c-97d3-dec84898e105,2019-11-10 07:46:42,0.200000
35,b7407d4e-390e-462e-a0a3-9cd9f65fa81b,e34be996-dfb2-456b-b493-c77f1565f744,ccb65897-bbf5-4b97-bdb1-7385d3db1bd8,ef1d387b-fe62-4129-b0d9-b49700ae1d35,2019-11-10 07:47:45,1.000000
36,40f05137-3886-4d7f-bb62-d1bb80f9574c,7d7a631b-d601-476f-a6c9-0a92fe324828,eadb024e-1132-49af-aa69-a67e4cba5b1f,da234d1c-4f36-4b14-9f3c-da7023293c80,2019-11-10 07:48:48,0.200000
37,a4af3fbb-0bb4-4098-b475-d13694609476,d96cf901-e031-40f6-8afb-639ba74f5256,9b9051c8-cdaa-483b-8cbe-7c1e11d7f7e4,5c188913-b39f-487d-a0ff-b890cd5083c3,2019-11-10 07:49:51,1.000000
38,44bd339c-a59b-4cc0-9e87-b75b0e84c40a,5e1f513a-f21e-42c2-a252-42181ab4d4af,80344b5d-9c97-49b7-9488-45cad222f588,b5e80e6a-c0f1-4ed7-9949-d12973ef6c98,2019-11-10 07:50:54,1.000000
39,86f9accf-7ed4-43fb-ab4e-85f22cea0973,36ec0306-30b4-44a6-95bc-a705653688ee,b2766b1b-b2a5-4cc6-9fb0-dcfedd3aa7c8,e4544e1a-317d-42c9-b927-d39e5d58ea4b,2019-11-10 07:51:56,0.200000
40,c9e31b5c-1652-405b-8932-e9037eca136e,097ed51a-c0d5-469a-b0d2-c7bff4652cd5,9f56f591-f79d-458a-b2af-7c77061309aa,9e240d8c-94ee-486f-b337-2b4a893534bf,2019-11-10 07:52:59,0.200000
41,3ae0c351-c50a-4728-8c40-46648157f76e,e912dcb6-0038-4d1d-bd62-eb30801b7e38,4e826f08-6f63-4711-a596-058e30bda0bf,ea4d198a-a2a6-4794-9560-3e07d9a6ddd2,2019-11-10 07:54:02,1.000000
42,f0662569-8bb2-4a50-892a-d1ce5bcf5289,a12b9b10-e665-4a6e-83dd-97c9833c9a98,de2fd853-070f-493a-8fc3-434ae6e9e4d5,e7ca919b-8c02-400c-bf9b-f757f51a0ed0,2019-11-10 07:55:05,0.200000
43,fc26ec4b-8eed-4edb-8c36-ed934bb07c78,e97fe470-570c-46a3-9bad-253a602c933d,34dc2dba-9b73-4ec2-a3e6-fc20740d1ea0,f4ecc337-37a9-4b8d-b78a-9c06aa412f8d,2019-11-10 07:56:08,0.200000
44,19cf78c8-8462-4c82-b24b-24b740f7aa4a,c332565c-223f-4fea-a903-558539de2461,9c868cc5-228e-464b-9422-de78b154689b,68b29186-7bb5-43de-aa9e-c692871534c1,2019-11-10 07:57:11,0.200000
45,06e2a4ea-c683-49df-89bb-3a0eaa097722,d68cb39f-0b3b-40c5-a2c8-eb6f8fcf47d3,97975f06-249c-4281-9313-fcf60f2d30ef,8965f6aa-a5ed-4414-baab-d072e0f1cb2f,2019-11-10 07:58:14,1.000000
46,f146f824-e07d-49f0-b70e-90947d30baa1,e091c51e-9b5f-4eb1-be5d-479a547f0ecb,438b5c3d-9738-4bbf-811c-31b2b4e04cf3,83773d30-431d-4026-9a35-d1c32097730d,2019-11-10 07:59:17,0.200000
47,db594ebe-6e5b-4351-874a-2effc27522f0,95b91141-6e39-49e3-915c-56f9b38df2bd,4e2b623e-efec-4eb6-9866-91b13918a86d,0ea5577b-e86d-45bb-b6bf-da0a4d90c0f4,2019-11-10 08:00:20,0.200000
48,b68590c5-1962-468c-845a-e4405303a0a1,cf034368-3492-4f24-adbc-d78cc5237a8a,ca4c339d-b6e9-47b3-b254-dc62b6b04e3f,1c08d8bc-1949-48b9-a764-3abeaa20c8ad,2019-11-10 08:01:23,1.000000
49,8fe07d9d-d183-423c-97f8-bc315bddd89d,42486527-b462-4031-b9f4-f2854c95558d,ac69724e-4f04-4e82-acfd-819c4705126d,0af8fe8b-4880-4717-9949-e4d35fc0c8bc,2019-11-10 08:02:26,0.200000
50,e8a5eaa2-ef38-4bb1-a7a6-cda128711d1b,b246a4ae-6d70-425b-a39e-05100f60eed9,5474346f-8324-494e-82bf-3ec59798be48,6f999cf8-340d-4744-883f-63280751034f,2019-11-10 08:03:28,1.000000
