date,trigger,state
2019-07-20 13:58:25,ded9dc9b-fcc4-4590-96b4-f49be0cb7c8a,S
2019-07-20 14:02:28,ded9dc9b-fcc4-4590-96b4-f49be0cb7c8a,A
2019-07-20 14:03:17,ded9dc9b-fcc4-4590-96b4-f49be0cb7c8a,S
2019-07-20 14:08:31,ded9dc9b-fcc4-4590-96b4-f49be0cb7c8a,A
2019-07-20 14:13:24,ded9dc9b-fcc4-4590-96b4-f49be0cb7c8a,S
2019-07-20 14:18:22,ded9dc9b-fcc4-4590-96b4-f49be0cb7c8a,A
2019-07-20 14:20:57,ded9dc9b-fcc4-4590-96b4-f49be0cb7c8a,S
2019-07-20 14:21:43,ded9dc9b-fcc4-4590-96b4-f49be0cb7c8a,A
2019-07-20 14:32:19,ded9dc9b-fcc4-4590-96b4-f49be0cb7c8a,S
2019-07-20 14:32:43,ded9dc9b-fcc4-4590-96b4-f49be0cb7c8a,A
2019-07-20 14:40:21,ded9dc9b-fcc4-4590-96b4-f49be0cb7c8a,S
2019-07-20 14:45:41,ded9dc9b-fcc4-4590-96b4-f49be0cb7c8a,A
2019-07-20 14:46:07,ded9dc9b-fcc4-4590-96b4-f49be0cb7c8a,S
2019-07-20 14:52:32,ded9dc9b-fcc4-4590-96b4-f49be0cb7c8a,A
2019-07-20 14:54:37,ded9dc9b-fcc4-4590-96b4-f49be0cb7c8a,S
2019-07-20 14:54:50,ded9dc9b-fcc4-4590-96b4-f49be0cb7c8a,A
2019-07-20 14:59:53,ded9dc9b-fcc4-4590-96b4-f49be0cb7c8a,S
2019-07-20 15:00:34,ded9dc9b-fcc4-4590-96b4-f49be0cb7c8a,A
2019-07-20 15:17:40,ded9dc9b-fcc4-4590-96b4-f49be0cb7c8a,S
2019-07-20 15:19:57,ded9dc9b-fcc4-4590-96b4-f49be0cb7c8a,A
2019-07-20 15:20:17,ded9dc9b-fcc4-4590-96b4-f49be0cb7c8a,S
2019-07-20 15:23:42,ded9dc9b-fcc4-4590-96b4-f49be0cb7c8a,A
2019-07-20 15:23:53,ded9dc9b-fcc4-4590-96b4-f49be0cb7c8a,S
2019-07-20 15:30:55,ded9dc9b-fcc4-4590-96b4-f49be0cb7c8a,A
2019-07-20 15:36:43,ded9dc9b-fcc4-4590-96b4-f49be0cb7c8a,S
2019-07-20 15:57:26,ded9dc9b-fcc4-4590-96b4-f49be0cb7c8a,A
2019-07-20 15:58:42,ded9dc9b-fcc4-4590-96b4-f49be0cb7c8a,S
2019-07-20 14:43:32,5de70324-fc93-4cf3-b0ad-f03aeb99dfbf,A
2019-07-20 15:17:18,5de70324-fc93-4cf3-b0ad-f03aeb99dfbf,S
2019-07-20 15:17:45,5de70324-fc93-4cf3-b0ad-f03aeb99dfbf,A
2019-07-20 15:47:02,5de70324-fc93-4cf3-b0ad-f03aeb99dfbf,S
2019-07-20 15:50:06,5de70324-fc93-4cf3-b0ad-f03aeb99dfbf,A
2019-07-20 15:52:34,5de70324-fc93-4cf3-b0ad-f03aeb99dfbf,S
2019-07-20 15:54:06,5de70324-fc93-4cf3-b0ad-f03aeb99dfbf,A
2019-07-20 15:54:52,5de70324-fc93-4cf3-b0ad-f03aeb99dfbf,S
2019-07-20 15:58:06,5de70324-fc93-4cf3-b0ad-f03aeb99dfbf,A
2019-07-20 13:54:26,29491dba-8677-462c-aa0f-7a0a06ce2f4a,A
2019-07-20 13:58:42,29491dba-8677-462c-aa0f-7a0a06ce2f4a,S
2019-07-20 14:00:59,29491dba-8677-462c-aa0f-7a0a06ce2f4a,A
2019-07-20 14:08:42,29491dba-8677-462c-aa0f-7a0a06ce2f4a,S
2019-07-20 14:18:00,29491dba-8677-462c-aa0f-7a0a06ce2f4a,A
2019-07-20 14:22:21,29491dba-8677-462c-aa0f-7a0a06ce2f4a,S
2019-07-20 14:26:55,29491dba-8677-462c-aa0f-7a0a06ce2f4a,A
2019-07-20 14:42:12,29491dba-8677-462c-aa0f-7a0a06ce2f4a,S
2019-07-20 14:47:05,29491dba-8677-462c-aa0f-7a0a06ce2f4a,A
2019-07-20 14:59:54,29491dba-8677-462c-aa0f-7a0a06ce2f4a,S
2019-07-20 15:00:22,29491dba-8677-462c-aa0f-7a0a06ce2f4a,A
2019-07-20 15:07:36,29491dba-8677-462c-aa0f-7a0a06ce2f4a,S
2019-07-20 15:15:30,29491dba-8677-462c-aa0f-7a0a06ce2f4a,A
2019-07-20 15:16:40,29491dba-8677-462c-aa0f-7a0a06ce2f4a,S
2019-07-20 15:18:13,29491dba-8677-462c-aa0f-7a0a06ce2f4a,A
2019-07-20 15:18:50,29491dba-8677-462c-aa0f-7a0a06ce2f4a,S
2019-07-20 15:20:22,29491dba-8677-462c-aa0f-7a0a06ce2f4a,A
2019-07-20 15:20:58,29491dba-8677-462c-aa0f-7a0a06ce2f4a,S
2019-07-20 15:21:04,29491dba-8677-462c-aa0f-7a0a06ce2f4a,A
2019-07-20 15:21:26,29491dba-8677-462c-aa0f-7a0a06ce2f4a,S
2019-07-20 15:22:23,29491dba-8677-462c-aa0f-7a0a06ce2f4a,A
2019-07-20 15:29:48,29491dba-8677-462c-aa0f-7a0a06ce2f4a,S
2019-07-20 15:42:06,29491dba-8677-462c-aa0f-7a0a06ce2f4a,A
2019-07-20 15:42:44,29491dba-8677-462c-aa0f-7a0a06ce2f4a,S
2019-07-20 14:13:09,e306335f-8be6-44cb-9c8e-2c756d21478c,A
2019-07-20 14:20:01,e306335f-8be6-44cb-9c8e-2c756d21478c,S
2019-07-20 14:24:48,e306335f-8be6-44cb-9c8e-2c756d21478c,A
2019-07-20 14:31:22,e306335f-8be6-44cb-9c8e-2c756d21478c,S
2019-07-20 14:37:16,e306335f-8be6-44cb-9c8e-2c756d21478c,A
2019-07-20 14:47:54,e306335f-8be6-44cb-9c8e-2c756d21478c,S
2019-07-20 14:55:09,e306335f-8be6-44cb-9c8e-2c756d21478c,A
2019-07-20 14:57:36,e306335f-8be6-44cb-9c8e-2c756d21478c,S
2019-07-20 14:59:17,e306335f-8be6-44cb-9c8e-2c756d21478c,A
2019-07-20 15:03:55,e306335f-8be6-44cb-9c8e-2c756d21478c,S
2019-07-20 15:08:55,e306335f-8be6-44cb-9c8e-2c756d21478c,A
2019-07-20 15:18:50,e306335f-8be6-44cb-9c8e-2c756d21478c,S
2019-07-20 15:18:54,e306335f-8be6-44cb-9c8e-2c756d21478c,A
2019-07-20 15:23:34,e306335f-8be6-44cb-9c8e-2c756d21478c,S
2019-07-20 15:25:19,e306335f-8be6-44cb-9c8e-2c756d21478c,A
2019-07-20 15:32:01,e306335f-8be6-44cb-9c8e-2c756d21478c,S
2019-07-20 15:32:08,e306335f-8be6-44cb-9c8e-2c756d21478c,A
2019-07-20 15:34:50,e306335f-8be6-44cb-9c8e-2c756d21478c,S
2019-07-20 15:41:43,e306335f-8be6-44cb-9c8e-2c756d21478c,A
2019-07-20 14:28:32,35dbd7e1-58bd-452e-a69f-873c96ebb61c,S
2019-07-20 14:29:14,35dbd7e1-58bd-452e-a69f-873c96ebb61c,A
2019-07-20 14:44:54,35dbd7e1-58bd-452e-a69f-873c96ebb61c,S
2019-07-20 14:52:09,35dbd7e1-58bd-452e-a69f-873c96ebb61c,A
2019-07-20 14:52:31,35dbd7e1-58bd-452e-a69f-873c96ebb61c,S
2019-07-20 14:53:00,35dbd7e1-58bd-452e-a69f-873c96ebb61c,A
2019-07-20 14:54:07,35dbd7e1-58bd-452e-a69f-873c96ebb61c,S
2019-07-20 15:01:55,35dbd7e1-58bd-452e-a69f-873c96ebb61c,A
2019-07-20 15:04:24,35dbd7e1-58bd-452e-a69f-873c96ebb61c,S
2019-07-20 15:05:23,35dbd7e1-58bd-452e-a69f-873c96ebb61c,A
2019-07-20 15:10:21,35dbd7e1-58bd-452e-a69f-873c96ebb61c,S
2019-07-20 15:13:48,35dbd7e1-58bd-452e-a69f-873c96ebb61c,A
2019-07-20 15:21:30,35dbd7e1-58bd-452e-a69f-873c96ebb61c,S
2019-07-20 15:25:02,35dbd7e1-58bd-452e-a69f-873c96ebb61c,A
2019-07-20 15:26:06,35dbd7e1-58bd-452e-a69f-873c96ebb61c,S
2019-07-20 15:27:24,35dbd7e1-58bd-452e-a69f-873c96ebb61c,A
2019-07-20 15:36:33,35dbd7e1-58bd-452e-a69f-873c96ebb61c,S
2019-07-20 15:37:40,35dbd7e1-58bd-452e-a69f-873c96ebb61c,A
2019-07-20 15:40:18,35dbd7e1-58bd-452e-a69f-873c96ebb61c,S
2019-07-20 15:42:24,35dbd7e1-58bd-452e-a69f-873c96ebb61c,A
2019-07-20 15:50:57,35dbd7e1-58bd-452e-a69f-873c96ebb61c,S
2019-07-20 15:53:10,35dbd7e1-58bd-452e-a69f-873c96ebb61c,A
2019-07-20 15:58:08,35dbd7e1-58bd-452e-a69f-873c96ebb61c,S
2019-07-20 14:31:23,7ee3b300-2b19-4a24-b8e7-ac51b0baee8a,A
2019-07-20 14:34:52,7ee3b300-2b19-4a24-b8e7-ac51b0baee8a,S
2019-07-20 14:37:08,7ee3b300-2b19-4a24-b8e7-ac51b0baee8a,A
2019-07-20 14:39:10,7ee3b300-2b19-4a24-b8e7-ac51b0baee8a,S
2019-07-20 14:39:44,7ee3b300-2b19-4a24-b8e7-ac51b0baee8a,A
2019-07-20 14:42:19,7ee3b300-2b19-4a24-b8e7-ac51b0baee8a,S
2019-07-20 14:49:11,7ee3b300-2b19-4a24-b8e7-ac51b0baee8a,A
2019-07-20 14:50:39,7ee3b300-2b19-4a24-b8e7-ac51b0baee8a,S
2019-07-20 15:00:54,7ee3b300-2b19-4a24-b8e7-ac51b0baee8a,A
2019-07-20 15:39:59,7ee3b300-2b19-4a24-b8e7-ac51b0baee8a,S
2019-07-20 15:49:54,7ee3b300-2b19-4a24-b8e7-ac51b0baee8a,A
2019-07-20 15:49:57,7ee3b300-2b19-4a24-b8e7-ac51b0baee8a,S
2019-07-20 15:50:40,7ee3b300-2b19-4a24-b8e7-ac51b0baee8a,A
2019-07-20 15:53:43,7ee3b300-2b19-4a24-b8e7-ac51b0baee8a,S
2019-07-20 15:55:05,7ee3b300-2b19-4a24-b8e7-ac51b0baee8a,A
2019-07-20 15:56:26,7ee3b300-2b19-4a24-b8e7-ac51b0baee8a,S
2019-07-20 16:00:35,7ee3b300-2b19-4a24-b8e7-ac51b0baee8a,A
2019-07-20 14:06:19,f29fbdaf-e193-4165-aee4-9e12cf54d2dd,S
2019-07-20 14:11:16,f29fbdaf-e193-4165-aee4-9e12cf54d2dd,A
2019-07-20 14:11:38,f29fbdaf-e193-4165-aee4-9e12cf54d2dd,S
2019-07-20 14:16:23,f29fbdaf-e193-4165-aee4-9e12cf54d2dd,A
2019-07-20 14:21:20,f29fbdaf-e193-4165-aee4-9e12cf54d2dd,S
2019-07-20 14:23:22,f29fbdaf-e193-4165-aee4-9e12cf54d2dd,A
2019-07-20 14:33:27,f29fbdaf-e193-4165-aee4-9e12cf54d2dd,S
2019-07-20 14:36:08,f29fbdaf-e193-4165-aee4-9e12cf54d2dd,A
2019-07-20 14:37:03,f29fbdaf-e193-4165-aee4-9e12cf54d2dd,S
2019-07-20 14:45:04,f29fbdaf-e193-4165-aee4-9e12cf54d2dd,A
2019-07-20 14:53:53,f29fbdaf-e193-4165-aee4-9e12cf54d2dd,S
2019-07-20 14:56:03,f29fbdaf-e193-4165-aee4-9e12cf54d2dd,A
2019-07-20 14:56:12,f29fbdaf-e193-4165-aee4-9e12cf54d2dd,S
2019-07-20 15:15:29,f29fbdaf-e193-4165-aee4-9e12cf54d2dd,A
2019-07-20 15:17:42,f29fbdaf-e193-4165-aee4-9e12cf54d2dd,S
2019-07-20 15:35:17,f29fbdaf-e193-4165-aee4-9e12cf54d2dd,A
2019-07-20 15:45:28,f29fbdaf-e193-4165-aee4-9e12cf54d2dd,S
2019-07-20 14:29:22,aeec1d35-6756-4c84-ab85-a8d28d7f4681,S
2019-07-20 14:41:36,aeec1d35-6756-4c84-ab85-a8d28d7f4681,A
2019-07-20 14:51:45,aeec1d35-6756-4c84-ab85-a8d28d7f4681,S
2019-07-20 14:53:03,aeec1d35-6756-4c84-ab85-a8d28d7f4681,A
2019-07-20 14:55:02,aeec1d35-6756-4c84-ab85-a8d28d7f4681,S
2019-07-20 15:01:41,aeec1d35-6756-4c84-ab85-a8d28d7f4681,A
2019-07-20 14:41:57,a0f1b72e-fe84-40f7-9348-7f418efcb22e,A
2019-07-20 14:47:03,a0f1b72e-fe84-40f7-9348-7f418efcb22e,S
2019-07-20 14:48:07,a0f1b72e-fe84-40f7-9348-7f418efcb22e,A
2019-07-20 14:50:02,a0f1b72e-fe84-40f7-9348-7f418efcb22e,S
2019-07-20 14:57:37,a0f1b72e-fe84-40f7-9348-7f418efcb22e,A
2019-07-20 14:59:02,a0f1b72e-fe84-40f7-9348-7f418efcb22e,S
2019-07-20 15:08:55,a0f1b72e-fe84-40f7-9348-7f418efcb22e,A
2019-07-20 15:10:44,a0f1b72e-fe84-40f7-9348-7f418efcb22e,S
2019-07-20 15:15:37,a0f1b72e-fe84-40f7-9348-7f418efcb22e,A
2019-07-20 15:20:01,a0f1b72e-fe84-40f7-9348-7f418efcb22e,S
2019-07-20 15:28:46,a0f1b72e-fe84-40f7-9348-7f418efcb22e,A
2019-07-20 15:30:17,a0f1b72e-fe84-40f7-9348-7f418efcb22e,S
2019-07-20 15:32:11,a0f1b72e-fe84-40f7-9348-7f418efcb22e,A
2019-07-20 15:34:38,a0f1b72e-fe84-40f7-9348-7f418efcb22e,S
2019-07-20 15:38:52,a0f1b72e-fe84-40f7-9348-7f418efcb22e,A
2019-07-20 15:44:41,a0f1b72e-fe84-40f7-9348-7f418efcb22e,S
2019-07-20 15:50:11,a0f1b72e-fe84-40f7-9348-7f418efcb22e,A
2019-07-20 15:59:24,a0f1b72e-fe84-40f7-9348-7f418efcb22e,S
2019-07-20 14:00:44,7a68159d-2472-4230-9d4e-d1bff3daf599,S
2019-07-20 14:02:16,7a68159d-2472-4230-9d4e-d1bff3daf599,A
2019-07-20 14:03:04,7a68159d-2472-4230-9d4e-d1bff3daf599,S
2019-07-20 14:03:11,7a68159d-2472-4230-9d4e-d1bff3daf599,A
2019-07-20 14:03:16,7a68159d-2472-4230-9d4e-d1bff3daf599,S
2019-07-20 14:03:41,7a68159d-2472-4230-9d4e-d1bff3daf599,A
2019-07-20 14:08:26,7a68159d-2472-4230-9d4e-d1bff3daf599,S
2019-07-20 14:12:34,7a68159d-2472-4230-9d4e-d1bff3daf599,A
2019-07-20 14:14:22,7a68159d-2472-4230-9d4e-d1bff3daf599,S
2019-07-20 14:16:36,7a68159d-2472-4230-9d4e-d1bff3daf599,A
2019-07-20 14:27:14,7a68159d-2472-4230-9d4e-d1bff3daf599,S
2019-07-20 14:29:16,7a68159d-2472-4230-9d4e-d1bff3daf599,A
2019-07-20 14:38:25,7a68159d-2472-4230-9d4e-d1bff3daf599,S
2019-07-20 14:41:01,7a68159d-2472-4230-9d4e-d1bff3daf599,A
2019-07-20 14:49:36,7a68159d-2472-4230-9d4e-d1bff3daf599,S
2019-07-20 14:51:38,7a68159d-2472-4230-9d4e-d1bff3daf599,A
2019-07-20 14:53:27,7a68159d-2472-4230-9d4e-d1bff3daf599,S
2019-07-20 14:56:30,7a68159d-2472-4230-9d4e-d1bff3daf599,A
2019-07-20 14:56:37,7a68159d-2472-4230-9d4e-d1bff3daf599,S
2019-07-20 15:08:41,7a68159d-2472-4230-9d4e-d1bff3daf599,A
2019-07-20 15:12:20,7a68159d-2472-4230-9d4e-d1bff3daf599,S
2019-07-20 15:24:04,7a68159d-2472-4230-9d4e-d1bff3daf599,A
2019-07-20 15:24:48,7a68159d-2472-4230-9d4e-d1bff3daf599,S
2019-07-20 15:31:41,7a68159d-2472-4230-9d4e-d1bff3daf599,A
2019-07-20 15:33:02,7a68159d-2472-4230-9d4e-d1bff3daf599,S
2019-07-20 15:35:29,7a68159d-2472-4230-9d4e-d1bff3daf599,A
2019-07-20 15:43:54,7a68159d-2472-4230-9d4e-d1bff3daf599,S
2019-07-20 15:52:03,7a68159d-2472-4230-9d4e-d1bff3daf599,A
2019-07-20 14:37:03,af36881c-5a07-43c0-9768-0cd7a13ae5c5,A
2019-07-20 14:38:54,af36881c-5a07-43c0-9768-0cd7a13ae5c5,S
2019-07-20 14:48:22,af36881c-5a07-43c0-9768-0cd7a13ae5c5,A
2019-07-20 15:02:29,af36881c-5a07-43c0-9768-0cd7a13ae5c5,S
2019-07-20 15:04:05,af36881c-5a07-43c0-9768-0cd7a13ae5c5,A
2019-07-20 15:05:39,af36881c-5a07-43c0-9768-0cd7a13ae5c5,S
2019-07-20 15:07:32,af36881c-5a07-43c0-9768-0cd7a13ae5c5,A
2019-07-20 15:14:00,af36881c-5a07-43c0-9768-0cd7a13ae5c5,S
2019-07-20 15:18:54,af36881c-5a07-43c0-9768-0cd7a13ae5c5,A
2019-07-20 15:26:25,af36881c-5a07-43c0-9768-0cd7a13ae5c5,S
2019-07-20 15:26:28,af36881c-5a07-43c0-9768-0cd7a13ae5c5,A
2019-07-20 15:26:47,af36881c-5a07-43c0-9768-0cd7a13ae5c5,S
2019-07-20 15:29:08,af36881c-5a07-43c0-9768-0cd7a13ae5c5,A
2019-07-20 15:32:19,af36881c-5a07-43c0-9768-0cd7a13ae5c5,S
2019-07-20 15:33:05,af36881c-5a07-43c0-9768-0cd7a13ae5c5,A
2019-07-20 15:44:06,af36881c-5a07-43c0-9768-0cd7a13ae5c5,S
2019-07-20 15:44:54,af36881c-5a07-43c0-9768-0cd7a13ae5c5,A
2019-07-20 15:45:19,af36881c-5a07-43c0-9768-0cd7a13ae5c5,S
2019-07-20 15:47:32,af36881c-5a07-43c0-9768-0cd7a13ae5c5,A
2019-07-20 15:49:46,af36881c-5a07-43c0-9768-0cd7a13ae5c5,S
2019-07-20 15:50:05,af36881c-5a07-43c0-9768-0cd7a13ae5c5,A
2019-07-20 15:59:30,af36881c-5a07-43c0-9768-0cd7a13ae5c5,S
2019-07-20 14:24:53,27e06341-f02b-4d8c-acc3-dcec4d8c8c9c,S
2019-07-20 14:29:11,27e06341-f02b-4d8c-acc3-dcec4d8c8c9c,A
2019-07-20 14:42:54,27e06341-f02b-4d8c-acc3-dcec4d8c8c9c,S
2019-07-20 14:43:18,27e06341-f02b-4d8c-acc3-dcec4d8c8c9c,A
2019-07-20 14:47:54,27e06341-f02b-4d8c-acc3-dcec4d8c8c9c,S
2019-07-20 14:51:13,27e06341-f02b-4d8c-acc3-dcec4d8c8c9c,A
2019-07-20 14:54:19,27e06341-f02b-4d8c-acc3-dcec4d8c8c9c,S
2019-07-20 14:58:52,27e06341-f02b-4d8c-acc3-dcec4d8c8c9c,A
2019-07-20 15:02:05,27e06341-f02b-4d8c-acc3-dcec4d8c8c9c,S
2019-07-20 15:05:41,27e06341-f02b-4d8c-acc3-dcec4d8c8c9c,A
2019-07-20 15:21:32,27e06341-f02b-4d8c-acc3-dcec4d8c8c9c,S
2019-07-20 15:25:49,27e06341-f02b-4d8c-acc3-dcec4d8c8c9c,A
2019-07-20 15:26:11,27e06341-f02b-4d8c-acc3-dcec4d8c8c9c,S
2019-07-20 15:31:17,27e06341-f02b-4d8c-acc3-dcec4d8c8c9c,A
2019-07-20 15:38:36,27e06341-f02b-4d8c-acc3-dcec4d8c8c9c,S
2019-07-20 15:51:43,27e06341-f02b-4d8c-acc3-dcec4d8c8c9c,A
2019-07-20 15:52:44,27e06341-f02b-4d8c-acc3-dcec4d8c8c9c,S
2019-07-20 14:36:07,50996561-cbd3-44ae-b421-c48c7ad82bc4,A
2019-07-20 14:43:21,50996561-cbd3-44ae-b421-c48c7ad82bc4,S
2019-07-20 14:45:15,50996561-cbd3-44ae-b421-c48c7ad82bc4,A
2019-07-20 14:50:06,50996561-cbd3-44ae-b421-c48c7ad82bc4,S
2019-07-20 14:57:20,50996561-cbd3-44ae-b421-c48c7ad82bc4,A
2019-07-20 15:04:17,50996561-cbd3-44ae-b421-c48c7ad82bc4,S
2019-07-20 15:04:51,50996561-cbd3-44ae-b421-c48c7ad82bc4,A
2019-07-20 15:05:15,50996561-cbd3-44ae-b421-c48c7ad82bc4,S
2019-07-20 15:06:39,50996561-cbd3-44ae-b421-c48c7ad82bc4,A
2019-07-20 14:00:26,73db760e-dbf0-4610-9d77-9a56f2ff5cc1,A
2019-07-20 14:03:53,73db760e-dbf0-4610-9d77-9a56f2ff5cc1,S
2019-07-20 14:12:27,73db760e-dbf0-4610-9d77-9a56f2ff5cc1,A
2019-07-20 14:15:30,73db760e-dbf0-4610-9d77-9a56f2ff5cc1,S
2019-07-20 14:15:47,73db760e-dbf0-4610-9d77-9a56f2ff5cc1,A
2019-07-20 14:18:15,73db760e-dbf0-4610-9d77-9a56f2ff5cc1,S
2019-07-20 14:23:35,73db760e-dbf0-4610-9d77-9a56f2ff5cc1,A
2019-07-20 14:27:30,73db760e-dbf0-4610-9d77-9a56f2ff5cc1,S
2019-07-20 14:30:15,73db760e-dbf0-4610-9d77-9a56f2ff5cc1,A
2019-07-20 14:41:03,73db760e-dbf0-4610-9d77-9a56f2ff5cc1,S
2019-07-20 14:46:40,73db760e-dbf0-4610-9d77-9a56f2ff5cc1,A
2019-07-20 15:09:14,73db760e-dbf0-4610-9d77-9a56f2ff5cc1,S
2019-07-20 15:33:35,73db760e-dbf0-4610-9d77-9a56f2ff5cc1,A
2019-07-20 15:40:10,73db760e-dbf0-4610-9d77-9a56f2ff5cc1,S
2019-07-20 15:43:36,73db760e-dbf0-4610-9d77-9a56f2ff5cc1,A
2019-07-20 15:46:30,73db760e-dbf0-4610-9d77-9a56f2ff5cc1,S
2019-07-20 15:51:15,73db760e-dbf0-4610-9d77-9a56f2ff5cc1,A
2019-07-20 14:13:57,4cebf66e-c878-413a-a544-91d4b10221eb,S
2019-07-20 14:26:02,4cebf66e-c878-413a-a544-91d4b10221eb,A
2019-07-20 14:44:24,4cebf66e-c878-413a-a544-91d4b10221eb,S
2019-07-20 14:46:47,4cebf66e-c878-413a-a544-91d4b10221eb,A
2019-07-20 14:50:06,4cebf66e-c878-413a-a544-91d4b10221eb,S
2019-07-20 14:53:25,4cebf66e-c878-413a-a544-91d4b10221eb,A
2019-07-20 15:04:55,4cebf66e-c878-413a-a544-91d4b10221eb,S
2019-07-20 15:05:44,4cebf66e-c878-413a-a544-91d4b10221eb,A
2019-07-20 15:07:24,4cebf66e-c878-413a-a544-91d4b10221eb,S
2019-07-20 15:08:16,4cebf66e-c878-413a-a544-91d4b10221eb,A
2019-07-20 15:25:40,4cebf66e-c878-413a-a544-91d4b10221eb,S
2019-07-20 15:25:46,4cebf66e-c878-413a-a544-91d4b10221eb,A
2019-07-20 15:28:55,4cebf66e-c878-413a-a544-91d4b10221eb,S
2019-07-20 15:32:22,4cebf66e-c878-413a-a544-91d4b10221eb,A
2019-07-20 15:34:36,4cebf66e-c878-413a-a544-91d4b10221eb,S
2019-07-20 15:40:33,4cebf66e-c878-413a-a544-91d4b10221eb,A
2019-07-20 15:41:55,4cebf66e-c878-413a-a544-91d4b10221eb,S
2019-07-20 15:45:51,4cebf66e-c878-413a-a544-91d4b10221eb,A
2019-07-20 15:51:24,4cebf66e-c878-413a-a544-91d4b10221eb,S
2019-07-20 14:37:54,76599a36-85f4-4de0-a2a6-3474be59cb35,A
2019-07-20 14:52:37,76599a36-85f4-4de0-a2a6-3474be59cb35,S
2019-07-20 14:54:43,76599a36-85f4-4de0-a2a6-3474be59cb35,A
2019-07-20 15:03:49,76599a36-85f4-4de0-a2a6-3474be59cb35,S
2019-07-20 15:15:22,76599a36-85f4-4de0-a2a6-3474be59cb35,A
2019-07-20 15:21:34,76599a36-85f4-4de0-a2a6-3474be59cb35,S
2019-07-20 15:28:15,76599a36-85f4-4de0-a2a6-3474be59cb35,A
2019-07-20 15:28:38,76599a36-85f4-4de0-a2a6-3474be59cb35,S
2019-07-20 15:29:45,76599a36-85f4-4de0-a2a6-3474be59cb35,A
2019-07-20 15:34:04,76599a36-85f4-4de0-a2a6-3474be59cb35,S
2019-07-20 15:34:36,76599a36-85f4-4de0-a2a6-3474be59cb35,A
2019-07-20 15:41:15,76599a36-85f4-4de0-a2a6-3474be59cb35,S
2019-07-20 15:43:58,76599a36-85f4-4de0-a2a6-3474be59cb35,A
2019-07-20 15:45:45,76599a36-85f4-4de0-a2a6-3474be59cb35,S
2019-07-20 15:49:32,76599a36-85f4-4de0-a2a6-3474be59cb35,A
2019-07-20 15:55:48,76599a36-85f4-4de0-a2a6-3474be59cb35,S
2019-07-20 15:56:01,76599a36-85f4-4de0-a2a6-3474be59cb35,A
2019-07-20 15:58:37,76599a36-85f4-4de0-a2a6-3474be59cb35,S
2019-07-20 14:46:07,78d9c260-35b5-4312-a5f6-4fbffcdf9e6f,S
2019-07-20 14:48:26,78d9c260-35b5-4312-a5f6-4fbffcdf9e6f,A
2019-07-20 14:54:57,78d9c260-35b5-4312-a5f6-4fbffcdf9e6f,S
2019-07-20 14:55:55,78d9c260-35b5-4312-a5f6-4fbffcdf9e6f,A
2019-07-20 14:56:15,78d9c260-35b5-4312-a5f6-4fbffcdf9e6f,S
2019-07-20 15:01:25,78d9c260-35b5-4312-a5f6-4fbffcdf9e6f,A
2019-07-20 15:06:18,78d9c260-35b5-4312-a5f6-4fbffcdf9e6f,S
2019-07-20 15:10:58,78d9c260-35b5-4312-a5f6-4fbffcdf9e6f,A
2019-07-20 15:23:58,78d9c260-35b5-4312-a5f6-4fbffcdf9e6f,S
2019-07-20 15:41:27,78d9c260-35b5-4312-a5f6-4fbffcdf9e6f,A
2019-07-20 15:46:10,78d9c260-35b5-4312-a5f6-4fbffcdf9e6f,S
2019-07-20 15:48:19,78d9c260-35b5-4312-a5f6-4fbffcdf9e6f,A
2019-07-20 15:49:33,78d9c260-35b5-4312-a5f6-4fbffcdf9e6f,S
2019-07-20 15:50:55,78d9c260-35b5-4312-a5f6-4fbffcdf9e6f,A
2019-07-20 15:51:38,78d9c260-35b5-4312-a5f6-4fbffcdf9e6f,S
2019-07-20 15:52:11,78d9c260-35b5-4312-a5f6-4fbffcdf9e6f,A
2019-07-20 15:53:16,78d9c260-35b5-4312-a5f6-4fbffcdf9e6f,S
2019-07-20 15:59:57,78d9c260-35b5-4312-a5f6-4fbffcdf9e6f,A
2019-07-20 16:00:16,78d9c260-35b5-4312-a5f6-4fbffcdf9e6f,S
2019-07-20 16:01:04,78d9c260-35b5-4312-a5f6-4fbffcdf9e6f,A
2019-07-20 16:01:05,78d9c260-35b5-4312-a5f6-4fbffcdf9e6f,S
2019-07-20 14:30:34,6b6c6e70-2fb4-4bce-95b8-0f028b864f4d,S
2019-07-20 14:32:52,6b6c6e70-2fb4-4bce-95b8-0f028b864f4d,A
2019-07-20 14:38:04,6b6c6e70-2fb4-4bce-95b8-0f028b864f4d,S
2019-07-20 14:46:09,6b6c6e70-2fb4-4bce-95b8-0f028b864f4d,A
2019-07-20 14:53:33,6b6c6e70-2fb4-4bce-95b8-0f028b864f4d,S
2019-07-20 14:53:55,6b6c6e70-2fb4-4bce-95b8-0f028b864f4d,A
2019-07-20 14:59:28,6b6c6e70-2fb4-4bce-95b8-0f028b864f4d,S
2019-07-20 15:10:32,6b6c6e70-2fb4-4bce-95b8-0f028b864f4d,A
2019-07-20 15:14:56,6b6c6e70-2fb4-4bce-95b8-0f028b864f4d,S
2019-07-20 15:17:43,6b6c6e70-2fb4-4bce-95b8-0f028b864f4d,A
2019-07-20 15:24:25,6b6c6e70-2fb4-4bce-95b8-0f028b864f4d,S
2019-07-20 15:25:16,6b6c6e70-2fb4-4bce-95b8-0f028b864f4d,A
2019-07-20 15:28:01,6b6c6e70-2fb4-4bce-95b8-0f028b864f4d,S
2019-07-20 15:31:52,6b6c6e70-2fb4-4bce-95b8-0f028b864f4d,A
2019-07-20 15:38:20,6b6c6e70-2fb4-4bce-95b8-0f028b864f4d,S
2019-07-20 15:41:24,6b6c6e70-2fb4-4bce-95b8-0f028b864f4d,A
2019-07-20 15:53:44,6b6c6e70-2fb4-4bce-95b8-0f028b864f4d,S
2019-07-20 15:58:31,6b6c6e70-2fb4-4bce-95b8-0f028b864f4d,A
2019-07-20 16:00:35,6b6c6e70-2fb4-4bce-95b8-0f028b864f4d,S
2019-07-20 14:15:27,df0e669a-ce6e-4682-bef0-035f49310daa,S
2019-07-20 14:23:06,df0e669a-ce6e-4682-bef0-035f49310daa,A
2019-07-20 14:25:01,df0e669a-ce6e-4682-bef0-035f49310daa,S
2019-07-20 14:36:19,df0e669a-ce6e-4682-bef0-035f49310daa,A
2019-07-20 14:38:09,df0e669a-ce6e-4682-bef0-035f49310daa,S
2019-07-20 14:38:50,df0e669a-ce6e-4682-bef0-035f49310daa,A
2019-07-20 14:48:21,df0e669a-ce6e-4682-bef0-035f49310daa,S
2019-07-20 14:51:36,df0e669a-ce6e-4682-bef0-035f49310daa,A
2019-07-20 14:52:12,df0e669a-ce6e-4682-bef0-035f49310daa,S
2019-07-20 14:52:43,df0e669a-ce6e-4682-bef0-035f49310daa,A
2019-07-20 14:57:47,df0e669a-ce6e-4682-bef0-035f49310daa,S
2019-07-20 14:58:12,df0e669a-ce6e-4682-bef0-035f49310daa,A
2019-07-20 14:58:36,df0e669a-ce6e-4682-bef0-035f49310daa,S
2019-07-20 14:59:20,df0e669a-ce6e-4682-bef0-035f49310daa,A
2019-07-20 15:01:12,df0e669a-ce6e-4682-bef0-035f49310daa,S
2019-07-20 15:02:04,df0e669a-ce6e-4682-bef0-035f49310daa,A
2019-07-20 15:12:38,df0e669a-ce6e-4682-bef0-035f49310daa,S
2019-07-20 15:13:50,df0e669a-ce6e-4682-bef0-035f49310daa,A
2019-07-20 15:20:42,df0e669a-ce6e-4682-bef0-035f49310daa,S
2019-07-20 15:29:22,df0e669a-ce6e-4682-bef0-035f49310daa,A
2019-07-20 15:32:30,df0e669a-ce6e-4682-bef0-035f49310daa,S
2019-07-20 15:36:05,df0e669a-ce6e-4682-bef0-035f49310daa,A
2019-07-20 15:36:21,df0e669a-ce6e-4682-bef0-035f49310daa,S
2019-07-20 15:43:26,df0e669a-ce6e-4682-bef0-035f49310daa,A
2019-07-20 15:43:35,df0e669a-ce6e-4682-bef0-035f49310daa,S
2019-07-20 15:44:00,df0e669a-ce6e-4682-bef0-035f49310daa,A
2019-07-20 15:44:37,df0e669a-ce6e-4682-bef0-035f49310daa,S
2019-07-20 15:46:42,df0e669a-ce6e-4682-bef0-035f49310daa,A
2019-07-20 15:46:45,df0e669a-ce6e-4682-bef0-035f49310daa,S
2019-07-20 15:58:31,df0e669a-ce6e-4682-bef0-035f49310daa,A
2019-07-20 16:01:55,df0e669a-ce6e-4682-bef0-035f49310daa,S
2019-07-20 14:11:02,64b4bf5b-5de8-4251-9343-dd128bbe4e15,A
2019-07-20 14:14:28,64b4bf5b-5de8-4251-9343-dd128bbe4e15,S
2019-07-20 14:19:33,64b4bf5b-5de8-4251-9343-dd128bbe4e15,A
2019-07-20 14:21:23,64b4bf5b-5de8-4251-9343-dd128bbe4e15,S
2019-07-20 14:31:54,64b4bf5b-5de8-4251-9343-dd128bbe4e15,A
2019-07-20 14:32:29,64b4bf5b-5de8-4251-9343-dd128bbe4e15,S
2019-07-20 14:40:54,64b4bf5b-5de8-4251-9343-dd128bbe4e15,A
2019-07-20 14:43:14,64b4bf5b-5de8-4251-9343-dd128bbe4e15,S
2019-07-20 14:51:38,64b4bf5b-5de8-4251-9343-dd128bbe4e15,A
2019-07-20 15:10:04,64b4bf5b-5de8-4251-9343-dd128bbe4e15,S
2019-07-20 15:11:19,64b4bf5b-5de8-4251-9343-dd128bbe4e15,A
2019-07-20 15:11:31,64b4bf5b-5de8-4251-9343-dd128bbe4e15,S
2019-07-20 15:14:43,64b4bf5b-5de8-4251-9343-dd128bbe4e15,A
2019-07-20 15:23:33,64b4bf5b-5de8-4251-9343-dd128bbe4e15,S
2019-07-20 15:38:38,64b4bf5b-5de8-4251-9343-dd128bbe4e15,A
2019-07-20 15:38:56,64b4bf5b-5de8-4251-9343-dd128bbe4e15,S
2019-07-20 15:49:28,64b4bf5b-5de8-4251-9343-dd128bbe4e15,A
2019-07-20 16:02:27,64b4bf5b-5de8-4251-9343-dd128bbe4e15,S
2019-07-20 14:36:58,0e5ad5b6-6910-45a4-bede-8ab3a3379c1b,S
2019-07-20 14:38:54,0e5ad5b6-6910-45a4-bede-8ab3a3379c1b,A
2019-07-20 14:39:23,0e5ad5b6-6910-45a4-bede-8ab3a3379c1b,S
2019-07-20 14:47:41,0e5ad5b6-6910-45a4-bede-8ab3a3379c1b,A
2019-07-20 14:50:33,0e5ad5b6-6910-45a4-bede-8ab3a3379c1b,S
2019-07-20 14:56:54,0e5ad5b6-6910-45a4-bede-8ab3a3379c1b,A
2019-07-20 15:01:30,0e5ad5b6-6910-45a4-bede-8ab3a3379c1b,S
2019-07-20 15:02:43,0e5ad5b6-6910-45a4-bede-8ab3a3379c1b,A
2019-07-20 15:11:27,0e5ad5b6-6910-45a4-bede-8ab3a3379c1b,S
2019-07-20 15:13:02,0e5ad5b6-6910-45a4-bede-8ab3a3379c1b,A
2019-07-20 15:21:03,0e5ad5b6-6910-45a4-bede-8ab3a3379c1b,S
2019-07-20 15:21:16,0e5ad5b6-6910-45a4-bede-8ab3a3379c1b,A
2019-07-20 15:27:51,0e5ad5b6-6910-45a4-bede-8ab3a3379c1b,S
2019-07-20 15:32:45,0e5ad5b6-6910-45a4-bede-8ab3a3379c1b,A
2019-07-20 15:33:40,0e5ad5b6-6910-45a4-bede-8ab3a3379c1b,S
2019-07-20 15:35:37,0e5ad5b6-6910-45a4-bede-8ab3a3379c1b,A
2019-07-20 15:35:38,0e5ad5b6-6910-45a4-bede-8ab3a3379c1b,S
2019-07-20 15:36:58,0e5ad5b6-6910-45a4-bede-8ab3a3379c1b,A
2019-07-20 15:39:45,0e5ad5b6-6910-45a4-bede-8ab3a3379c1b,S
2019-07-20 15:47:11,0e5ad5b6-6910-45a4-bede-8ab3a3379c1b,A
2019-07-20 15:48:44,0e5ad5b6-6910-45a4-bede-8ab3a3379c1b,S
2019-07-20 15:49:20,0e5ad5b6-6910-45a4-bede-8ab3a3379c1b,A
2019-07-20 15:56:22,0e5ad5b6-6910-45a4-bede-8ab3a3379c1b,S
2019-07-20 15:59:51,0e5ad5b6-6910-45a4-bede-8ab3a3379c1b,A
2019-07-20 14:43:57,4ad13c7a-e2f6-41fe-9344-ca089ba498ca,S
2019-07-20 14:44:46,4ad13c7a-e2f6-41fe-9344-ca089ba498ca,A
2019-07-20 14:57:21,4ad13c7a-e2f6-41fe-9344-ca089ba498ca,S
2019-07-20 14:58:28,4ad13c7a-e2f6-41fe-9344-ca089ba498ca,A
2019-07-20 15:00:33,4ad13c7a-e2f6-41fe-9344-ca089ba498ca,S
2019-07-20 15:25:25,4ad13c7a-e2f6-41fe-9344-ca089ba498ca,A
2019-07-20 15:37:16,4ad13c7a-e2f6-41fe-9344-ca089ba498ca,S
2019-07-20 15:41:36,4ad13c7a-e2f6-41fe-9344-ca089ba498ca,A
2019-07-20 15:41:38,4ad13c7a-e2f6-41fe-9344-ca089ba498ca,S
2019-07-20 15:45:47,4ad13c7a-e2f6-41fe-9344-ca089ba498ca,A
2019-07-20 15:49:59,4ad13c7a-e2f6-41fe-9344-ca089ba498ca,S
2019-07-20 15:59:21,4ad13c7a-e2f6-41fe-9344-ca089ba498ca,A
2019-07-20 14:24:52,c8cb3539-c043-4f9d-a0af-3c42640ac995,A
2019-07-20 14:43:45,c8cb3539-c043-4f9d-a0af-3c42640ac995,S
2019-07-20 14:44:06,c8cb3539-c043-4f9d-a0af-3c42640ac995,A
2019-07-20 14:46:50,c8cb3539-c043-4f9d-a0af-3c42640ac995,S
2019-07-20 14:50:50,c8cb3539-c043-4f9d-a0af-3c42640ac995,A
2019-07-20 14:51:20,c8cb3539-c043-4f9d-a0af-3c42640ac995,S
2019-07-20 14:54:21,c8cb3539-c043-4f9d-a0af-3c42640ac995,A
2019-07-20 14:56:00,c8cb3539-c043-4f9d-a0af-3c42640ac995,S
2019-07-20 15:10:29,c8cb3539-c043-4f9d-a0af-3c42640ac995,A
2019-07-20 15:12:06,c8cb3539-c043-4f9d-a0af-3c42640ac995,S
2019-07-20 15:12:11,c8cb3539-c043-4f9d-a0af-3c42640ac995,A
2019-07-20 15:14:32,c8cb3539-c043-4f9d-a0af-3c42640ac995,S
2019-07-20 15:14:39,c8cb3539-c043-4f9d-a0af-3c42640ac995,A
2019-07-20 15:16:41,c8cb3539-c043-4f9d-a0af-3c42640ac995,S
2019-07-20 15:20:42,c8cb3539-c043-4f9d-a0af-3c42640ac995,A
2019-07-20 15:31:25,c8cb3539-c043-4f9d-a0af-3c42640ac995,S
2019-07-20 15:37:09,c8cb3539-c043-4f9d-a0af-3c42640ac995,A
2019-07-20 15:39:23,c8cb3539-c043-4f9d-a0af-3c42640ac995,S
2019-07-20 15:42:49,c8cb3539-c043-4f9d-a0af-3c42640ac995,A
2019-07-20 15:46:22,c8cb3539-c043-4f9d-a0af-3c42640ac995,S
2019-07-20 14:46:12,783a6227-5693-4b33-8184-728e15ebd408,S
2019-07-20 14:47:26,783a6227-5693-4b33-8184-728e15ebd408,A
2019-07-20 14:53:11,783a6227-5693-4b33-8184-728e15ebd408,S
2019-07-20 15:06:31,783a6227-5693-4b33-8184-728e15ebd408,A
2019-07-20 15:14:16,783a6227-5693-4b33-8184-728e15ebd408,S
2019-07-20 15:16:47,783a6227-5693-4b33-8184-728e15ebd408,A
2019-07-20 15:33:09,783a6227-5693-4b33-8184-728e15ebd408,S
2019-07-20 15:39:17,783a6227-5693-4b33-8184-728e15ebd408,A
2019-07-20 15:54:05,783a6227-5693-4b33-8184-728e15ebd408,S
2019-07-20 15:59:20,783a6227-5693-4b33-8184-728e15ebd408,A
2019-07-20 16:01:53,783a6227-5693-4b33-8184-728e15ebd408,S
2019-07-20 14:34:16,50f2d1da-9fe9-45b0-b74e-6e171fc70003,S
2019-07-20 14:36:12,50f2d1da-9fe9-45b0-b74e-6e171fc70003,A
2019-07-20 14:39:20,50f2d1da-9fe9-45b0-b74e-6e171fc70003,S
2019-07-20 14:39:49,50f2d1da-9fe9-45b0-b74e-6e171fc70003,A
2019-07-20 14:42:58,50f2d1da-9fe9-45b0-b74e-6e171fc70003,S
2019-07-20 14:44:58,50f2d1da-9fe9-45b0-b74e-6e171fc70003,A
2019-07-20 14:49:14,50f2d1da-9fe9-45b0-b74e-6e171fc70003,S
2019-07-20 14:50:12,50f2d1da-9fe9-45b0-b74e-6e171fc70003,A
2019-07-20 14:51:01,50f2d1da-9fe9-45b0-b74e-6e171fc70003,S
2019-07-20 14:58:28,50f2d1da-9fe9-45b0-b74e-6e171fc70003,A
2019-07-20 15:00:41,50f2d1da-9fe9-45b0-b74e-6e171fc70003,S
2019-07-20 15:04:12,50f2d1da-9fe9-45b0-b74e-6e171fc70003,A
2019-07-20 15:12:29,50f2d1da-9fe9-45b0-b74e-6e171fc70003,S
2019-07-20 15:19:53,50f2d1da-9fe9-45b0-b74e-6e171fc70003,A
2019-07-20 15:21:56,50f2d1da-9fe9-45b0-b74e-6e171fc70003,S
2019-07-20 15:24:40,50f2d1da-9fe9-45b0-b74e-6e171fc70003,A
2019-07-20 15:25:45,50f2d1da-9fe9-45b0-b74e-6e171fc70003,S
2019-07-20 15:27:03,50f2d1da-9fe9-45b0-b74e-6e171fc70003,A
2019-07-20 15:28:35,50f2d1da-9fe9-45b0-b74e-6e171fc70003,S
2019-07-20 15:36:42,50f2d1da-9fe9-45b0-b74e-6e171fc70003,A
2019-07-20 15:36:53,50f2d1da-9fe9-45b0-b74e-6e171fc70003,S
2019-07-20 15:37:04,50f2d1da-9fe9-45b0-b74e-6e171fc70003,A
2019-07-20 15:40:55,50f2d1da-9fe9-45b0-b74e-6e171fc70003,S
2019-07-20 15:43:19,50f2d1da-9fe9-45b0-b74e-6e171fc70003,A
2019-07-20 15:44:03,50f2d1da-9fe9-45b0-b74e-6e171fc70003,S
2019-07-20 15:45:21,50f2d1da-9fe9-45b0-b74e-6e171fc70003,A
2019-07-20 15:46:15,50f2d1da-9fe9-45b0-b74e-6e171fc70003,S
2019-07-20 15:54:38,50f2d1da-9fe9-45b0-b74e-6e171fc70003,A
2019-07-20 15:55:51,50f2d1da-9fe9-45b0-b74e-6e171fc70003,S
2019-07-20 14:15:56,1b288b0f-2cec-494e-a61a-62cedc157cab,A
2019-07-20 14:19:38,1b288b0f-2cec-494e-a61a-62cedc157cab,S
2019-07-20 14:22:57,1b288b0f-2cec-494e-a61a-62cedc157cab,A
2019-07-20 14:24:37,1b288b0f-2cec-494e-a61a-62cedc157cab,S
2019-07-20 14:40:07,1b288b0f-2cec-494e-a61a-62cedc157cab,A
2019-07-20 14:41:51,1b288b0f-2cec-494e-a61a-62cedc157cab,S
2019-07-20 14:42:14,1b288b0f-2cec-494e-a61a-62cedc157cab,A
2019-07-20 15:04:02,1b288b0f-2cec-494e-a61a-62cedc157cab,S
2019-07-20 15:11:13,1b288b0f-2cec-494e-a61a-62cedc157cab,A
2019-07-20 15:15:33,1b288b0f-2cec-494e-a61a-62cedc157cab,S
2019-07-20 15:16:14,1b288b0f-2cec-494e-a61a-62cedc157cab,A
2019-07-20 15:20:28,1b288b0f-2cec-494e-a61a-62cedc157cab,S
2019-07-20 15:22:19,1b288b0f-2cec-494e-a61a-62cedc157cab,A
2019-07-20 15:25:01,1b288b0f-2cec-494e-a61a-62cedc157cab,S
2019-07-20 15:34:16,1b288b0f-2cec-494e-a61a-62cedc157cab,A
2019-07-20 15:41:52,1b288b0f-2cec-494e-a61a-62cedc157cab,S
2019-07-20 15:46:48,1b288b0f-2cec-494e-a61a-62cedc157cab,A
2019-07-20 15:53:26,1b288b0f-2cec-494e-a61a-62cedc157cab,S
2019-07-20 14:20:57,8fde09c7-0a98-4d3a-a58e-d94ff8ebf439,A
2019-07-20 14:27:00,8fde09c7-0a98-4d3a-a58e-d94ff8ebf439,S
2019-07-20 14:29:30,8fde09c7-0a98-4d3a-a58e-d94ff8ebf439,A
2019-07-20 14:30:15,8fde09c7-0a98-4d3a-a58e-d94ff8ebf439,S
2019-07-20 14:30:18,8fde09c7-0a98-4d3a-a58e-d94ff8ebf439,A
2019-07-20 14:33:08,8fde09c7-0a98-4d3a-a58e-d94ff8ebf439,S
2019-07-20 14:41:24,8fde09c7-0a98-4d3a-a58e-d94ff8ebf439,A
2019-07-20 14:44:10,8fde09c7-0a98-4d3a-a58e-d94ff8ebf439,S
2019-07-20 14:44:13,8fde09c7-0a98-4d3a-a58e-d94ff8ebf439,A
2019-07-20 14:50:18,8fde09c7-0a98-4d3a-a58e-d94ff8ebf439,S
2019-07-20 14:54:41,8fde09c7-0a98-4d3a-a58e-d94ff8ebf439,A
2019-07-20 15:02:02,8fde09c7-0a98-4d3a-a58e-d94ff8ebf439,S
2019-07-20 15:03:11,8fde09c7-0a98-4d3a-a58e-d94ff8ebf439,A
2019-07-20 15:07:08,8fde09c7-0a98-4d3a-a58e-d94ff8ebf439,S
2019-07-20 15:07:55,8fde09c7-0a98-4d3a-a58e-d94ff8ebf439,A
2019-07-20 15:08:12,8fde09c7-0a98-4d3a-a58e-d94ff8ebf439,S
2019-07-20 15:18:46,8fde09c7-0a98-4d3a-a58e-d94ff8ebf439,A
2019-07-20 15:20:09,8fde09c7-0a98-4d3a-a58e-d94ff8ebf439,S
2019-07-20 15:25:53,8fde09c7-0a98-4d3a-a58e-d94ff8ebf439,A
2019-07-20 15:30:20,8fde09c7-0a98-4d3a-a58e-d94ff8ebf439,S
2019-07-20 15:31:39,8fde09c7-0a98-4d3a-a58e-d94ff8ebf439,A
2019-07-20 15:34:26,8fde09c7-0a98-4d3a-a58e-d94ff8ebf439,S
2019-07-20 15:35:50,8fde09c7-0a98-4d3a-a58e-d94ff8ebf439,A
2019-07-20 15:44:40,8fde09c7-0a98-4d3a-a58e-d94ff8ebf439,S
2019-07-20 15:46:09,8fde09c7-0a98-4d3a-a58e-d94ff8ebf439,A
2019-07-20 15:49:48,8fde09c7-0a98-4d3a-a58e-d94ff8ebf439,S
2019-07-20 15:50:05,8fde09c7-0a98-4d3a-a58e-d94ff8ebf439,A
2019-07-20 15:54:03,8fde09c7-0a98-4d3a-a58e-d94ff8ebf439,S
2019-07-20 13:55:36,90310ce1-9faf-4a21-97a7-f9a7753b0d6b,S
2019-07-20 13:56:42,90310ce1-9faf-4a21-97a7-f9a7753b0d6b,A
2019-07-20 13:57:56,90310ce1-9faf-4a21-97a7-f9a7753b0d6b,S
2019-07-20 14:01:35,90310ce1-9faf-4a21-97a7-f9a7753b0d6b,A
2019-07-20 14:04:19,90310ce1-9faf-4a21-97a7-f9a7753b0d6b,S
2019-07-20 14:09:29,90310ce1-9faf-4a21-97a7-f9a7753b0d6b,A
2019-07-20 14:10:47,90310ce1-9faf-4a21-97a7-f9a7753b0d6b,S
2019-07-20 14:16:46,90310ce1-9faf-4a21-97a7-f9a7753b0d6b,A
2019-07-20 14:28:03,90310ce1-9faf-4a21-97a7-f9a7753b0d6b,S
2019-07-20 14:31:43,90310ce1-9faf-4a21-97a7-f9a7753b0d6b,A
2019-07-20 14:36:15,90310ce1-9faf-4a21-97a7-f9a7753b0d6b,S
2019-07-20 14:47:43,90310ce1-9faf-4a21-97a7-f9a7753b0d6b,A
2019-07-20 15:01:09,90310ce1-9faf-4a21-97a7-f9a7753b0d6b,S
2019-07-20 15:02:07,90310ce1-9faf-4a21-97a7-f9a7753b0d6b,A
2019-07-20 15:03:40,90310ce1-9faf-4a21-97a7-f9a7753b0d6b,S
2019-07-20 15:04:26,90310ce1-9faf-4a21-97a7-f9a7753b0d6b,A
2019-07-20 15:05:35,90310ce1-9faf-4a21-97a7-f9a7753b0d6b,S
2019-07-20 15:14:11,90310ce1-9faf-4a21-97a7-f9a7753b0d6b,A
2019-07-20 15:16:09,90310ce1-9faf-4a21-97a7-f9a7753b0d6b,S
2019-07-20 15:17:58,90310ce1-9faf-4a21-97a7-f9a7753b0d6b,A
2019-07-20 15:22:45,90310ce1-9faf-4a21-97a7-f9a7753b0d6b,S
2019-07-20 15:31:38,90310ce1-9faf-4a21-97a7-f9a7753b0d6b,A
2019-07-20 15:42:31,90310ce1-9faf-4a21-97a7-f9a7753b0d6b,S
2019-07-20 15:46:27,90310ce1-9faf-4a21-97a7-f9a7753b0d6b,A
2019-07-20 15:46:44,90310ce1-9faf-4a21-97a7-f9a7753b0d6b,S
2019-07-20 15:52:23,90310ce1-9faf-4a21-97a7-f9a7753b0d6b,A
2019-07-20 15:58:49,90310ce1-9faf-4a21-97a7-f9a7753b0d6b,S
2019-07-20 15:58:49,90310ce1-9faf-4a21-97a7-f9a7753b0d6b,A
2019-07-20 16:00:48,90310ce1-9faf-4a21-97a7-f9a7753b0d6b,S
2019-07-20 16:03:26,90310ce1-9faf-4a21-97a7-f9a7753b0d6b,A
2019-07-20 14:24:35,3f02581a-d75d-46f6-9bfd-75ec5d6e4971,S
2019-07-20 14:29:50,3f02581a-d75d-46f6-9bfd-75ec5d6e4971,A
2019-07-20 14:36:34,3f02581a-d75d-46f6-9bfd-75ec5d6e4971,S
2019-07-20 14:41:33,3f02581a-d75d-46f6-9bfd-75ec5d6e4971,A
2019-07-20 14:42:29,3f02581a-d75d-46f6-9bfd-75ec5d6e4971,S
2019-07-20 14:49:16,3f02581a-d75d-46f6-9bfd-75ec5d6e4971,A
2019-07-20 14:51:32,3f02581a-d75d-46f6-9bfd-75ec5d6e4971,S
2019-07-20 14:57:38,3f02581a-d75d-46f6-9bfd-75ec5d6e4971,A
2019-07-20 14:57:40,3f02581a-d75d-46f6-9bfd-75ec5d6e4971,S
2019-07-20 14:58:24,3f02581a-d75d-46f6-9bfd-75ec5d6e4971,A
2019-07-20 15:02:17,3f02581a-d75d-46f6-9bfd-75ec5d6e4971,S
2019-07-20 15:07:53,3f02581a-d75d-46f6-9bfd-75ec5d6e4971,A
2019-07-20 15:09:54,3f02581a-d75d-46f6-9bfd-75ec5d6e4971,S
2019-07-20 15:13:08,3f02581a-d75d-46f6-9bfd-75ec5d6e4971,A
2019-07-20 15:15:59,3f02581a-d75d-46f6-9bfd-75ec5d6e4971,S
2019-07-20 15:19:13,3f02581a-d75d-46f6-9bfd-75ec5d6e4971,A
2019-07-20 15:28:15,3f02581a-d75d-46f6-9bfd-75ec5d6e4971,S
2019-07-20 15:31:48,3f02581a-d75d-46f6-9bfd-75ec5d6e4971,A
2019-07-20 15:32:47,3f02581a-d75d-46f6-9bfd-75ec5d6e4971,S
2019-07-20 15:36:14,3f02581a-d75d-46f6-9bfd-75ec5d6e4971,A
2019-07-20 15:38:12,3f02581a-d75d-46f6-9bfd-75ec5d6e4971,S
2019-07-20 15:38:54,3f02581a-d75d-46f6-9bfd-75ec5d6e4971,A
2019-07-20 15:46:02,3f02581a-d75d-46f6-9bfd-75ec5d6e4971,S
2019-07-20 15:48:26,3f02581a-d75d-46f6-9bfd-75ec5d6e4971,A
2019-07-20 16:02:18,3f02581a-d75d-46f6-9bfd-75ec5d6e4971,S
2019-07-20 14:31:46,257e41c7-6cb0-4f07-9bc7-0f47db66c6d7,A
2019-07-20 14:32:15,257e41c7-6cb0-4f07-9bc7-0f47db66c6d7,S
2019-07-20 14:40:45,257e41c7-6cb0-4f07-9bc7-0f47db66c6d7,A
2019-07-20 14:42:04,257e41c7-6cb0-4f07-9bc7-0f47db66c6d7,S
2019-07-20 14:42:04,257e41c7-6cb0-4f07-9bc7-0f47db66c6d7,A
2019-07-20 14:50:41,257e41c7-6cb0-4f07-9bc7-0f47db66c6d7,S
2019-07-20 14:51:55,257e41c7-6cb0-4f07-9bc7-0f47db66c6d7,A
2019-07-20 14:52:45,257e41c7-6cb0-4f07-9bc7-0f47db66c6d7,S
2019-07-20 14:56:33,257e41c7-6cb0-4f07-9bc7-0f47db66c6d7,A
2019-07-20 14:57:39,257e41c7-6cb0-4f07-9bc7-0f47db66c6d7,S
2019-07-20 14:57:51,257e41c7-6cb0-4f07-9bc7-0f47db66c6d7,A
2019-07-20 15:03:24,257e41c7-6cb0-4f07-9bc7-0f47db66c6d7,S
2019-07-20 15:08:43,257e41c7-6cb0-4f07-9bc7-0f47db66c6d7,A
2019-07-20 15:20:58,257e41c7-6cb0-4f07-9bc7-0f47db66c6d7,S
2019-07-20 15:21:14,257e41c7-6cb0-4f07-9bc7-0f47db66c6d7,A
2019-07-20 15:25:24,257e41c7-6cb0-4f07-9bc7-0f47db66c6d7,S
2019-07-20 15:35:00,257e41c7-6cb0-4f07-9bc7-0f47db66c6d7,A
2019-07-20 15:47:06,257e41c7-6cb0-4f07-9bc7-0f47db66c6d7,S
2019-07-20 15:50:35,257e41c7-6cb0-4f07-9bc7-0f47db66c6d7,A
2019-07-20 15:54:58,257e41c7-6cb0-4f07-9bc7-0f47db66c6d7,S
2019-07-20 15:56:23,257e41c7-6cb0-4f07-9bc7-0f47db66c6d7,A
2019-07-20 15:56:58,257e41c7-6cb0-4f07-9bc7-0f47db66c6d7,S
2019-07-20 16:03:58,257e41c7-6cb0-4f07-9bc7-0f47db66c6d7,A
2019-07-20 14:06:12,ccd40220-bf7c-43aa-a17e-51be7653ba98,S
2019-07-20 14:09:40,ccd40220-bf7c-43aa-a17e-51be7653ba98,A
2019-07-20 14:15:42,ccd40220-bf7c-43aa-a17e-51be7653ba98,S
2019-07-20 14:25:39,ccd40220-bf7c-43aa-a17e-51be7653ba98,A
2019-07-20 14:45:47,ccd40220-bf7c-43aa-a17e-51be7653ba98,S
2019-07-20 14:51:43,ccd40220-bf7c-43aa-a17e-51be7653ba98,A
2019-07-20 15:02:32,ccd40220-bf7c-43aa-a17e-51be7653ba98,S
2019-07-20 15:07:57,ccd40220-bf7c-43aa-a17e-51be7653ba98,A
2019-07-20 15:12:14,ccd40220-bf7c-43aa-a17e-51be7653ba98,S
2019-07-20 15:17:47,ccd40220-bf7c-43aa-a17e-51be7653ba98,A
2019-07-20 15:17:59,ccd40220-bf7c-43aa-a17e-51be7653ba98,S
2019-07-20 15:19:43,ccd40220-bf7c-43aa-a17e-51be7653ba98,A
2019-07-20 15:25:38,ccd40220-bf7c-43aa-a17e-51be7653ba98,S
2019-07-20 15:27:20,ccd40220-bf7c-43aa-a17e-51be7653ba98,A
2019-07-20 15:31:51,ccd40220-bf7c-43aa-a17e-51be7653ba98,S
2019-07-20 15:35:26,ccd40220-bf7c-43aa-a17e-51be7653ba98,A
2019-07-20 15:40:44,ccd40220-bf7c-43aa-a17e-51be7653ba98,S
2019-07-20 15:48:28,ccd40220-bf7c-43aa-a17e-51be7653ba98,A
2019-07-20 14:44:28,5dc1d1fd-d858-4c16-9b88-15ac18d1a0a3,S
2019-07-20 14:58:02,5dc1d1fd-d858-4c16-9b88-15ac18d1a0a3,A
2019-07-20 15:02:55,5dc1d1fd-d858-4c16-9b88-15ac18d1a0a3,S
2019-07-20 15:03:28,5dc1d1fd-d858-4c16-9b88-15ac18d1a0a3,A
2019-07-20 15:07:20,5dc1d1fd-d858-4c16-9b88-15ac18d1a0a3,S
2019-07-20 15:08:01,5dc1d1fd-d858-4c16-9b88-15ac18d1a0a3,A
2019-07-20 15:16:40,5dc1d1fd-d858-4c16-9b88-15ac18d1a0a3,S
2019-07-20 15:17:44,5dc1d1fd-d858-4c16-9b88-15ac18d1a0a3,A
2019-07-20 15:19:59,5dc1d1fd-d858-4c16-9b88-15ac18d1a0a3,S
2019-07-20 15:22:09,5dc1d1fd-d858-4c16-9b88-15ac18d1a0a3,A
2019-07-20 15:24:31,5dc1d1fd-d858-4c16-9b88-15ac18d1a0a3,S
2019-07-20 15:28:22,5dc1d1fd-d858-4c16-9b88-15ac18d1a0a3,A
2019-07-20 15:29:33,5dc1d1fd-d858-4c16-9b88-15ac18d1a0a3,S
2019-07-20 15:30:24,5dc1d1fd-d858-4c16-9b88-15ac18d1a0a3,A
2019-07-20 15:32:34,5dc1d1fd-d858-4c16-9b88-15ac18d1a0a3,S
2019-07-20 15:32:56,5dc1d1fd-d858-4c16-9b88-15ac18d1a0a3,A
2019-07-20 15:33:12,5dc1d1fd-d858-4c16-9b88-15ac18d1a0a3,S
2019-07-20 15:37:44,5dc1d1fd-d858-4c16-9b88-15ac18d1a0a3,A
2019-07-20 15:38:34,5dc1d1fd-d858-4c16-9b88-15ac18d1a0a3,S
2019-07-20 15:48:06,5dc1d1fd-d858-4c16-9b88-15ac18d1a0a3,A
2019-07-20 15:54:09,5dc1d1fd-d858-4c16-9b88-15ac18d1a0a3,S
2019-07-20 16:02:07,5dc1d1fd-d858-4c16-9b88-15ac18d1a0a3,A
2019-07-20 14:19:49,add1b74d-e61c-477f-a54e-5b2a65a5ea77,S
2019-07-20 14:28:51,add1b74d-e61c-477f-a54e-5b2a65a5ea77,A
2019-07-20 14:34:03,add1b74d-e61c-477f-a54e-5b2a65a5ea77,S
2019-07-20 14:46:49,add1b74d-e61c-477f-a54e-5b2a65a5ea77,A
2019-07-20 14:47:48,add1b74d-e61c-477f-a54e-5b2a65a5ea77,S
2019-07-20 14:59:01,add1b74d-e61c-477f-a54e-5b2a65a5ea77,A
2019-07-20 14:59:14,add1b74d-e61c-477f-a54e-5b2a65a5ea77,S
2019-07-20 15:02:41,add1b74d-e61c-477f-a54e-5b2a65a5ea77,A
2019-07-20 15:13:45,add1b74d-e61c-477f-a54e-5b2a65a5ea77,S
2019-07-20 15:16:46,add1b74d-e61c-477f-a54e-5b2a65a5ea77,A
2019-07-20 15:23:22,add1b74d-e61c-477f-a54e-5b2a65a5ea77,S
2019-07-20 15:25:18,add1b74d-e61c-477f-a54e-5b2a65a5ea77,A
2019-07-20 15:32:43,add1b74d-e61c-477f-a54e-5b2a65a5ea77,S
2019-07-20 15:36:49,add1b74d-e61c-477f-a54e-5b2a65a5ea77,A
2019-07-20 15:37:31,add1b74d-e61c-477f-a54e-5b2a65a5ea77,S
2019-07-20 15:37:53,add1b74d-e61c-477f-a54e-5b2a65a5ea77,A
2019-07-20 15:41:16,add1b74d-e61c-477f-a54e-5b2a65a5ea77,S
2019-07-20 15:44:21,add1b74d-e61c-477f-a54e-5b2a65a5ea77,A
2019-07-20 15:57:31,add1b74d-e61c-477f-a54e-5b2a65a5ea77,S
2019-07-20 16:01:41,add1b74d-e61c-477f-a54e-5b2a65a5ea77,A
2019-07-20 16:01:48,add1b74d-e61c-477f-a54e-5b2a65a5ea77,S
2019-07-20 14:07:20,f693e918-83ff-404f-ab48-15dd8d911e0f,S
2019-07-20 14:11:27,f693e918-83ff-404f-ab48-15dd8d911e0f,A
2019-07-20 14:21:50,f693e918-83ff-404f-ab48-15dd8d911e0f,S
2019-07-20 14:23:24,f693e918-83ff-404f-ab48-15dd8d911e0f,A
2019-07-20 14:30:55,f693e918-83ff-404f-ab48-15dd8d911e0f,S
2019-07-20 14:31:10,f693e918-83ff-404f-ab48-15dd8d911e0f,A
2019-07-20 14:32:35,f693e918-83ff-404f-ab48-15dd8d911e0f,S
2019-07-20 14:49:52,f693e918-83ff-404f-ab48-15dd8d911e0f,A
2019-07-20 14:55:38,f693e918-83ff-404f-ab48-15dd8d911e0f,S
2019-07-20 14:59:13,f693e918-83ff-404f-ab48-15dd8d911e0f,A
2019-07-20 15:02:24,f693e918-83ff-404f-ab48-15dd8d911e0f,S
2019-07-20 15:02:41,f693e918-83ff-404f-ab48-15dd8d911e0f,A
2019-07-20 15:21:16,f693e918-83ff-404f-ab48-15dd8d911e0f,S
2019-07-20 15:21:42,f693e918-83ff-404f-ab48-15dd8d911e0f,A
2019-07-20 15:24:32,f693e918-83ff-404f-ab48-15dd8d911e0f,S
2019-07-20 15:38:05,f693e918-83ff-404f-ab48-15dd8d911e0f,A
2019-07-20 15:41:23,f693e918-83ff-404f-ab48-15dd8d911e0f,S
2019-07-20 15:43:51,f693e918-83ff-404f-ab48-15dd8d911e0f,A
2019-07-20 15:44:28,f693e918-83ff-404f-ab48-15dd8d911e0f,S
2019-07-20 15:49:42,f693e918-83ff-404f-ab48-15dd8d911e0f,A
2019-07-20 15:54:22,f693e918-83ff-404f-ab48-15dd8d911e0f,S
2019-07-20 15:58:19,f693e918-83ff-404f-ab48-15dd8d911e0f,A
2019-07-20 16:00:11,f693e918-83ff-404f-ab48-15dd8d911e0f,S
2019-07-20 16:01:09,f693e918-83ff-404f-ab48-15dd8d911e0f,A
2019-07-20 14:10:46,107564f0-89ed-40dd-8c3e-aa0dad39ec73,A
2019-07-20 14:13:36,107564f0-89ed-40dd-8c3e-aa0dad39ec73,S
2019-07-20 14:18:43,107564f0-89ed-40dd-8c3e-aa0dad39ec73,A
2019-07-20 14:34:11,107564f0-89ed-40dd-8c3e-aa0dad39ec73,S
2019-07-20 14:43:14,107564f0-89ed-40dd-8c3e-aa0dad39ec73,A
2019-07-20 14:52:57,107564f0-89ed-40dd-8c3e-aa0dad39ec73,S
2019-07-20 15:01:27,107564f0-89ed-40dd-8c3e-aa0dad39ec73,A
2019-07-20 15:02:13,107564f0-89ed-40dd-8c3e-aa0dad39ec73,S
2019-07-20 15:02:32,107564f0-89ed-40dd-8c3e-aa0dad39ec73,A
2019-07-20 15:11:10,107564f0-89ed-40dd-8c3e-aa0dad39ec73,S
2019-07-20 15:14:09,107564f0-89ed-40dd-8c3e-aa0dad39ec73,A
2019-07-20 15:14:12,107564f0-89ed-40dd-8c3e-aa0dad39ec73,S
2019-07-20 15:15:23,107564f0-89ed-40dd-8c3e-aa0dad39ec73,A
2019-07-20 15:17:13,107564f0-89ed-40dd-8c3e-aa0dad39ec73,S
2019-07-20 15:19:04,107564f0-89ed-40dd-8c3e-aa0dad39ec73,A
2019-07-20 15:20:03,107564f0-89ed-40dd-8c3e-aa0dad39ec73,S
2019-07-20 15:21:46,107564f0-89ed-40dd-8c3e-aa0dad39ec73,A
2019-07-20 15:31:01,107564f0-89ed-40dd-8c3e-aa0dad39ec73,S
2019-07-20 15:33:08,107564f0-89ed-40dd-8c3e-aa0dad39ec73,A
2019-07-20 15:34:07,107564f0-89ed-40dd-8c3e-aa0dad39ec73,S
2019-07-20 15:36:34,107564f0-89ed-40dd-8c3e-aa0dad39ec73,A
2019-07-20 15:45:20,107564f0-89ed-40dd-8c3e-aa0dad39ec73,S
2019-07-20 15:47:36,107564f0-89ed-40dd-8c3e-aa0dad39ec73,A
2019-07-20 15:52:29,107564f0-89ed-40dd-8c3e-aa0dad39ec73,S
2019-07-20 15:52:36,107564f0-89ed-40dd-8c3e-aa0dad39ec73,A
2019-07-20 15:53:15,107564f0-89ed-40dd-8c3e-aa0dad39ec73,S
2019-07-20 15:56:44,107564f0-89ed-40dd-8c3e-aa0dad39ec73,A
2019-07-20 15:58:10,107564f0-89ed-40dd-8c3e-aa0dad39ec73,S
2019-07-20 16:03:50,107564f0-89ed-40dd-8c3e-aa0dad39ec73,A
2019-07-20 16:04:30,107564f0-89ed-40dd-8c3e-aa0dad39ec73,S
2019-07-20 14:38:03,da8fe1aa-2f13-48c4-a352-65b7f75540e6,A
2019-07-20 14:46:58,da8fe1aa-2f13-48c4-a352-65b7f75540e6,S
2019-07-20 14:57:42,da8fe1aa-2f13-48c4-a352-65b7f75540e6,A
2019-07-20 15:03:13,da8fe1aa-2f13-48c4-a352-65b7f75540e6,S
2019-07-20 15:05:52,da8fe1aa-2f13-48c4-a352-65b7f75540e6,A
2019-07-20 15:06:36,da8fe1aa-2f13-48c4-a352-65b7f75540e6,S
2019-07-20 15:11:16,da8fe1aa-2f13-48c4-a352-65b7f75540e6,A
2019-07-20 15:13:06,da8fe1aa-2f13-48c4-a352-65b7f75540e6,S
2019-07-20 15:26:21,da8fe1aa-2f13-48c4-a352-65b7f75540e6,A
2019-07-20 15:28:14,da8fe1aa-2f13-48c4-a352-65b7f75540e6,S
2019-07-20 15:34:26,da8fe1aa-2f13-48c4-a352-65b7f75540e6,A
2019-07-20 15:37:14,da8fe1aa-2f13-48c4-a352-65b7f75540e6,S
2019-07-20 15:39:02,da8fe1aa-2f13-48c4-a352-65b7f75540e6,A
2019-07-20 15:39:25,da8fe1aa-2f13-48c4-a352-65b7f75540e6,S
2019-07-20 15:40:04,da8fe1aa-2f13-48c4-a352-65b7f75540e6,A
2019-07-20 15:52:34,da8fe1aa-2f13-48c4-a352-65b7f75540e6,S
2019-07-20 15:52:36,da8fe1aa-2f13-48c4-a352-65b7f75540e6,A
2019-07-20 15:53:12,da8fe1aa-2f13-48c4-a352-65b7f75540e6,S
2019-07-20 15:53:41,da8fe1aa-2f13-48c4-a352-65b7f75540e6,A
2019-07-20 14:27:03,2c524fdd-1f9b-4c5a-b053-8004d5bbc2de,S
2019-07-20 14:31:13,2c524fdd-1f9b-4c5a-b053-8004d5bbc2de,A
2019-07-20 14:38:40,2c524fdd-1f9b-4c5a-b053-8004d5bbc2de,S
2019-07-20 14:42:53,2c524fdd-1f9b-4c5a-b053-8004d5bbc2de,A
2019-07-20 14:43:07,2c524fdd-1f9b-4c5a-b053-8004d5bbc2de,S
2019-07-20 14:52:35,2c524fdd-1f9b-4c5a-b053-8004d5bbc2de,A
2019-07-20 14:55:36,2c524fdd-1f9b-4c5a-b053-8004d5bbc2de,S
2019-07-20 14:57:04,2c524fdd-1f9b-4c5a-b053-8004d5bbc2de,A
2019-07-20 14:58:47,2c524fdd-1f9b-4c5a-b053-8004d5bbc2de,S
2019-07-20 15:08:27,2c524fdd-1f9b-4c5a-b053-8004d5bbc2de,A
2019-07-20 15:13:18,2c524fdd-1f9b-4c5a-b053-8004d5bbc2de,S
2019-07-20 15:15:01,2c524fdd-1f9b-4c5a-b053-8004d5bbc2de,A
2019-07-20 15:15:57,2c524fdd-1f9b-4c5a-b053-8004d5bbc2de,S
2019-07-20 15:21:25,2c524fdd-1f9b-4c5a-b053-8004d5bbc2de,A
2019-07-20 15:26:00,2c524fdd-1f9b-4c5a-b053-8004d5bbc2de,S
2019-07-20 15:30:41,2c524fdd-1f9b-4c5a-b053-8004d5bbc2de,A
2019-07-20 15:38:42,2c524fdd-1f9b-4c5a-b053-8004d5bbc2de,S
2019-07-20 15:43:53,2c524fdd-1f9b-4c5a-b053-8004d5bbc2de,A
2019-07-20 15:47:13,2c524fdd-1f9b-4c5a-b053-8004d5bbc2de,S
2019-07-20 15:59:59,2c524fdd-1f9b-4c5a-b053-8004d5bbc2de,A
2019-07-20 14:06:52,3ebf3051-ba2a-457e-bf25-e6a8c2146f7f,S
2019-07-20 14:22:59,3ebf3051-ba2a-457e-bf25-e6a8c2146f7f,A
2019-07-20 14:24:11,3ebf3051-ba2a-457e-bf25-e6a8c2146f7f,S
2019-07-20 14:29:00,3ebf3051-ba2a-457e-bf25-e6a8c2146f7f,A
2019-07-20 14:30:06,3ebf3051-ba2a-457e-bf25-e6a8c2146f7f,S
2019-07-20 14:32:54,3ebf3051-ba2a-457e-bf25-e6a8c2146f7f,A
2019-07-20 14:38:05,3ebf3051-ba2a-457e-bf25-e6a8c2146f7f,S
2019-07-20 14:40:15,3ebf3051-ba2a-457e-bf25-e6a8c2146f7f,A
2019-07-20 14:43:44,3ebf3051-ba2a-457e-bf25-e6a8c2146f7f,S
2019-07-20 14:49:20,3ebf3051-ba2a-457e-bf25-e6a8c2146f7f,A
2019-07-20 14:59:50,3ebf3051-ba2a-457e-bf25-e6a8c2146f7f,S
2019-07-20 15:05:31,3ebf3051-ba2a-457e-bf25-e6a8c2146f7f,A
2019-07-20 15:07:29,3ebf3051-ba2a-457e-bf25-e6a8c2146f7f,S
2019-07-20 15:09:30,3ebf3051-ba2a-457e-bf25-e6a8c2146f7f,A
2019-07-20 15:17:48,3ebf3051-ba2a-457e-bf25-e6a8c2146f7f,S
2019-07-20 15:19:57,3ebf3051-ba2a-457e-bf25-e6a8c2146f7f,A
2019-07-20 15:24:52,3ebf3051-ba2a-457e-bf25-e6a8c2146f7f,S
2019-07-20 15:27:50,3ebf3051-ba2a-457e-bf25-e6a8c2146f7f,A
2019-07-20 15:28:58,3ebf3051-ba2a-457e-bf25-e6a8c2146f7f,S
2019-07-20 15:33:53,3ebf3051-ba2a-457e-bf25-e6a8c2146f7f,A
2019-07-20 15:36:45,3ebf3051-ba2a-457e-bf25-e6a8c2146f7f,S
2019-07-20 15:40:35,3ebf3051-ba2a-457e-bf25-e6a8c2146f7f,A
2019-07-20 15:42:55,3ebf3051-ba2a-457e-bf25-e6a8c2146f7f,S
2019-07-20 15:46:41,3ebf3051-ba2a-457e-bf25-e6a8c2146f7f,A
2019-07-20 15:52:06,3ebf3051-ba2a-457e-bf25-e6a8c2146f7f,S
2019-07-20 15:53:13,3ebf3051-ba2a-457e-bf25-e6a8c2146f7f,A
2019-07-20 15:58:58,3ebf3051-ba2a-457e-bf25-e6a8c2146f7f,S
2019-07-20 15:59:55,3ebf3051-ba2a-457e-bf25-e6a8c2146f7f,A
2019-07-20 16:01:25,3ebf3051-ba2a-457e-bf25-e6a8c2146f7f,S
2019-07-20 16:01:57,3ebf3051-ba2a-457e-bf25-e6a8c2146f7f,A
2019-07-20 16:05:16,3ebf3051-ba2a-457e-bf25-e6a8c2146f7f,S
2019-07-20 14:11:19,d67b7f8b-ff9b-4670-bf30-f2532a175081,A
2019-07-20 14:17:22,d67b7f8b-ff9b-4670-bf30-f2532a175081,S
2019-07-20 14:20:10,d67b7f8b-ff9b-4670-bf30-f2532a175081,A
2019-07-20 14:20:49,d67b7f8b-ff9b-4670-bf30-f2532a175081,S
2019-07-20 14:21:34,d67b7f8b-ff9b-4670-bf30-f2532a175081,A
2019-07-20 14:30:49,d67b7f8b-ff9b-4670-bf30-f2532a175081,S
2019-07-20 14:31:15,d67b7f8b-ff9b-4670-bf30-f2532a175081,A
2019-07-20 14:32:05,d67b7f8b-ff9b-4670-bf30-f2532a175081,S
2019-07-20 14:36:59,d67b7f8b-ff9b-4670-bf30-f2532a175081,A
2019-07-20 14:41:58,d67b7f8b-ff9b-4670-bf30-f2532a175081,S
2019-07-20 14:42:11,d67b7f8b-ff9b-4670-bf30-f2532a175081,A
2019-07-20 14:42:55,d67b7f8b-ff9b-4670-bf30-f2532a175081,S
2019-07-20 14:45:15,d67b7f8b-ff9b-4670-bf30-f2532a175081,A
2019-07-20 14:48:15,d67b7f8b-ff9b-4670-bf30-f2532a175081,S
2019-07-20 14:49:31,d67b7f8b-ff9b-4670-bf30-f2532a175081,A
2019-07-20 14:49:35,d67b7f8b-ff9b-4670-bf30-f2532a175081,S
2019-07-20 14:57:41,d67b7f8b-ff9b-4670-bf30-f2532a175081,A
2019-07-20 15:00:58,d67b7f8b-ff9b-4670-bf30-f2532a175081,S
2019-07-20 15:02:51,d67b7f8b-ff9b-4670-bf30-f2532a175081,A
2019-07-20 15:10:13,d67b7f8b-ff9b-4670-bf30-f2532a175081,S
2019-07-20 15:20:27,d67b7f8b-ff9b-4670-bf30-f2532a175081,A
2019-07-20 15:35:56,d67b7f8b-ff9b-4670-bf30-f2532a175081,S
2019-07-20 15:38:17,d67b7f8b-ff9b-4670-bf30-f2532a175081,A
2019-07-20 15:38:29,d67b7f8b-ff9b-4670-bf30-f2532a175081,S
2019-07-20 15:46:34,d67b7f8b-ff9b-4670-bf30-f2532a175081,A
2019-07-20 15:46:58,d67b7f8b-ff9b-4670-bf30-f2532a175081,S
2019-07-20 15:55:17,d67b7f8b-ff9b-4670-bf30-f2532a175081,A
2019-07-20 16:03:44,d67b7f8b-ff9b-4670-bf30-f2532a175081,S
2019-07-20 14:28:41,26b460a5-3d58-458c-8b7b-6674c9d8a61f,A
2019-07-20 14:40:12,26b460a5-3d58-458c-8b7b-6674c9d8a61f,S
2019-07-20 14:50:08,26b460a5-3d58-458c-8b7b-6674c9d8a61f,A
2019-07-20 14:55:35,26b460a5-3d58-458c-8b7b-6674c9d8a61f,S
2019-07-20 14:56:18,26b460a5-3d58-458c-8b7b-6674c9d8a61f,A
2019-07-20 14:57:15,26b460a5-3d58-458c-8b7b-6674c9d8a61f,S
2019-07-20 14:59:12,26b460a5-3d58-458c-8b7b-6674c9d8a61f,A
2019-07-20 15:00:33,26b460a5-3d58-458c-8b7b-6674c9d8a61f,S
2019-07-20 15:07:52,26b460a5-3d58-458c-8b7b-6674c9d8a61f,A
2019-07-20 15:09:46,26b460a5-3d58-458c-8b7b-6674c9d8a61f,S
2019-07-20 15:11:29,26b460a5-3d58-458c-8b7b-6674c9d8a61f,A
2019-07-20 15:26:53,26b460a5-3d58-458c-8b7b-6674c9d8a61f,S
2019-07-20 15:32:47,26b460a5-3d58-458c-8b7b-6674c9d8a61f,A
2019-07-20 15:37:20,26b460a5-3d58-458c-8b7b-6674c9d8a61f,S
2019-07-20 15:38:23,26b460a5-3d58-458c-8b7b-6674c9d8a61f,A
2019-07-20 15:40:44,26b460a5-3d58-458c-8b7b-6674c9d8a61f,S
2019-07-20 15:44:23,26b460a5-3d58-458c-8b7b-6674c9d8a61f,A
2019-07-20 15:46:24,26b460a5-3d58-458c-8b7b-6674c9d8a61f,S
2019-07-20 15:46:32,26b460a5-3d58-458c-8b7b-6674c9d8a61f,A
2019-07-20 15:55:38,26b460a5-3d58-458c-8b7b-6674c9d8a61f,S
2019-07-20 16:01:57,26b460a5-3d58-458c-8b7b-6674c9d8a61f,A
2019-07-20 16:03:03,26b460a5-3d58-458c-8b7b-6674c9d8a61f,S
2019-07-20 16:03:56,26b460a5-3d58-458c-8b7b-6674c9d8a61f,A
2019-07-20 14:36:32,51bb89c3-2b02-4cd6-9558-ac6dfba018c3,A
2019-07-20 14:40:00,51bb89c3-2b02-4cd6-9558-ac6dfba018c3,S
2019-07-20 14:43:04,51bb89c3-2b02-4cd6-9558-ac6dfba018c3,A
2019-07-20 14:52:01,51bb89c3-2b02-4cd6-9558-ac6dfba018c3,S
2019-07-20 15:06:58,51bb89c3-2b02-4cd6-9558-ac6dfba018c3,A
2019-07-20 15:08:00,51bb89c3-2b02-4cd6-9558-ac6dfba018c3,S
2019-07-20 15:08:29,51bb89c3-2b02-4cd6-9558-ac6dfba018c3,A
2019-07-20 15:09:08,51bb89c3-2b02-4cd6-9558-ac6dfba018c3,S
2019-07-20 15:16:12,51bb89c3-2b02-4cd6-9558-ac6dfba018c3,A
2019-07-20 15:21:22,51bb89c3-2b02-4cd6-9558-ac6dfba018c3,S
2019-07-20 15:40:14,51bb89c3-2b02-4cd6-9558-ac6dfba018c3,A
2019-07-20 15:42:21,51bb89c3-2b02-4cd6-9558-ac6dfba018c3,S
2019-07-20 15:49:28,51bb89c3-2b02-4cd6-9558-ac6dfba018c3,A
2019-07-20 15:52:58,51bb89c3-2b02-4cd6-9558-ac6dfba018c3,S
2019-07-20 16:05:47,51bb89c3-2b02-4cd6-9558-ac6dfba018c3,A
2019-07-20 14:42:42,9c47420d-c2cc-4f84-aa86-6505bf969d60,S
2019-07-20 14:48:05,9c47420d-c2cc-4f84-aa86-6505bf969d60,A
2019-07-20 14:49:30,9c47420d-c2cc-4f84-aa86-6505bf969d60,S
2019-07-20 14:51:41,9c47420d-c2cc-4f84-aa86-6505bf969d60,A
2019-07-20 14:58:43,9c47420d-c2cc-4f84-aa86-6505bf969d60,S
2019-07-20 15:04:49,9c47420d-c2cc-4f84-aa86-6505bf969d60,A
2019-07-20 15:08:44,9c47420d-c2cc-4f84-aa86-6505bf969d60,S
2019-07-20 15:12:06,9c47420d-c2cc-4f84-aa86-6505bf969d60,A
2019-07-20 15:13:40,9c47420d-c2cc-4f84-aa86-6505bf969d60,S
2019-07-20 15:13:50,9c47420d-c2cc-4f84-aa86-6505bf969d60,A
2019-07-20 15:16:11,9c47420d-c2cc-4f84-aa86-6505bf969d60,S
2019-07-20 15:20:27,9c47420d-c2cc-4f84-aa86-6505bf969d60,A
2019-07-20 15:23:21,9c47420d-c2cc-4f84-aa86-6505bf969d60,S
2019-07-20 15:24:16,9c47420d-c2cc-4f84-aa86-6505bf969d60,A
2019-07-20 15:34:40,9c47420d-c2cc-4f84-aa86-6505bf969d60,S
2019-07-20 15:34:44,9c47420d-c2cc-4f84-aa86-6505bf969d60,A
2019-07-20 15:35:15,9c47420d-c2cc-4f84-aa86-6505bf969d60,S
2019-07-20 15:35:44,9c47420d-c2cc-4f84-aa86-6505bf969d60,A
2019-07-20 15:35:58,9c47420d-c2cc-4f84-aa86-6505bf969d60,S
2019-07-20 15:39:53,9c47420d-c2cc-4f84-aa86-6505bf969d60,A
2019-07-20 15:47:42,9c47420d-c2cc-4f84-aa86-6505bf969d60,S
2019-07-20 15:53:40,9c47420d-c2cc-4f84-aa86-6505bf969d60,A
2019-07-20 15:56:33,9c47420d-c2cc-4f84-aa86-6505bf969d60,S
2019-07-20 15:58:33,9c47420d-c2cc-4f84-aa86-6505bf969d60,A
2019-07-20 16:05:03,9c47420d-c2cc-4f84-aa86-6505bf969d60,S
2019-07-20 13:57:58,617d1254-3e8f-487a-a1f6-49df861f7ff0,A
2019-07-20 14:14:01,617d1254-3e8f-487a-a1f6-49df861f7ff0,S
2019-07-20 14:17:15,617d1254-3e8f-487a-a1f6-49df861f7ff0,A
2019-07-20 14:20:01,617d1254-3e8f-487a-a1f6-49df861f7ff0,S
2019-07-20 14:20:31,617d1254-3e8f-487a-a1f6-49df861f7ff0,A
2019-07-20 14:34:29,617d1254-3e8f-487a-a1f6-49df861f7ff0,S
2019-07-20 14:37:59,617d1254-3e8f-487a-a1f6-49df861f7ff0,A
2019-07-20 14:40:50,617d1254-3e8f-487a-a1f6-49df861f7ff0,S
2019-07-20 14:44:50,617d1254-3e8f-487a-a1f6-49df861f7ff0,A
2019-07-20 14:58:14,617d1254-3e8f-487a-a1f6-49df861f7ff0,S
2019-07-20 14:58:25,617d1254-3e8f-487a-a1f6-49df861f7ff0,A
2019-07-20 15:07:07,617d1254-3e8f-487a-a1f6-49df861f7ff0,S
2019-07-20 15:11:23,617d1254-3e8f-487a-a1f6-49df861f7ff0,A
2019-07-20 15:18:00,617d1254-3e8f-487a-a1f6-49df861f7ff0,S
2019-07-20 15:20:31,617d1254-3e8f-487a-a1f6-49df861f7ff0,A
2019-07-20 15:31:43,617d1254-3e8f-487a-a1f6-49df861f7ff0,S
2019-07-20 15:33:37,617d1254-3e8f-487a-a1f6-49df861f7ff0,A
2019-07-20 15:34:35,617d1254-3e8f-487a-a1f6-49df861f7ff0,S
2019-07-20 15:37:27,617d1254-3e8f-487a-a1f6-49df861f7ff0,A
2019-07-20 15:43:26,617d1254-3e8f-487a-a1f6-49df861f7ff0,S
2019-07-20 15:52:14,617d1254-3e8f-487a-a1f6-49df861f7ff0,A
2019-07-20 15:55:17,617d1254-3e8f-487a-a1f6-49df861f7ff0,S
2019-07-20 15:57:08,617d1254-3e8f-487a-a1f6-49df861f7ff0,A
2019-07-20 15:59:18,617d1254-3e8f-487a-a1f6-49df861f7ff0,S
2019-07-20 14:25:54,b01657c5-bea9-4460-894c-2ce6c8943292,S
2019-07-20 14:25:58,b01657c5-bea9-4460-894c-2ce6c8943292,A
2019-07-20 14:33:08,b01657c5-bea9-4460-894c-2ce6c8943292,S
2019-07-20 14:44:39,b01657c5-bea9-4460-894c-2ce6c8943292,A
2019-07-20 14:46:15,b01657c5-bea9-4460-894c-2ce6c8943292,S
2019-07-20 14:49:22,b01657c5-bea9-4460-894c-2ce6c8943292,A
2019-07-20 14:49:39,b01657c5-bea9-4460-894c-2ce6c8943292,S
2019-07-20 15:07:37,b01657c5-bea9-4460-894c-2ce6c8943292,A
2019-07-20 15:10:02,b01657c5-bea9-4460-894c-2ce6c8943292,S
2019-07-20 15:22:23,b01657c5-bea9-4460-894c-2ce6c8943292,A
2019-07-20 15:34:31,b01657c5-bea9-4460-894c-2ce6c8943292,S
2019-07-20 15:40:03,b01657c5-bea9-4460-894c-2ce6c8943292,A
2019-07-20 15:40:29,b01657c5-bea9-4460-894c-2ce6c8943292,S
2019-07-20 15:42:44,b01657c5-bea9-4460-894c-2ce6c8943292,A
2019-07-20 15:46:23,b01657c5-bea9-4460-894c-2ce6c8943292,S
2019-07-20 15:49:43,b01657c5-bea9-4460-894c-2ce6c8943292,A
2019-07-20 15:54:13,b01657c5-bea9-4460-894c-2ce6c8943292,S
2019-07-20 15:55:10,b01657c5-bea9-4460-894c-2ce6c8943292,A
2019-07-20 15:55:32,b01657c5-bea9-4460-894c-2ce6c8943292,S
2019-07-20 15:56:30,b01657c5-bea9-4460-894c-2ce6c8943292,A
2019-07-20 14:08:45,719443bc-fb00-40d8-8b6b-c01421f34b97,S
2019-07-20 14:14:58,719443bc-fb00-40d8-8b6b-c01421f34b97,A
2019-07-20 14:19:21,719443bc-fb00-40d8-8b6b-c01421f34b97,S
2019-07-20 14:29:54,719443bc-fb00-40d8-8b6b-c01421f34b97,A
2019-07-20 14:30:13,719443bc-fb00-40d8-8b6b-c01421f34b97,S
2019-07-20 14:35:42,719443bc-fb00-40d8-8b6b-c01421f34b97,A
2019-07-20 14:36:16,719443bc-fb00-40d8-8b6b-c01421f34b97,S
2019-07-20 14:36:54,719443bc-fb00-40d8-8b6b-c01421f34b97,A
2019-07-20 14:39:26,719443bc-fb00-40d8-8b6b-c01421f34b97,S
2019-07-20 14:39:45,719443bc-fb00-40d8-8b6b-c01421f34b97,A
2019-07-20 14:40:37,719443bc-fb00-40d8-8b6b-c01421f34b97,S
2019-07-20 14:56:10,719443bc-fb00-40d8-8b6b-c01421f34b97,A
2019-07-20 14:57:29,719443bc-fb00-40d8-8b6b-c01421f34b97,S
2019-07-20 15:00:37,719443bc-fb00-40d8-8b6b-c01421f34b97,A
2019-07-20 15:12:31,719443bc-fb00-40d8-8b6b-c01421f34b97,S
2019-07-20 15:13:57,719443bc-fb00-40d8-8b6b-c01421f34b97,A
2019-07-20 15:15:07,719443bc-fb00-40d8-8b6b-c01421f34b97,S
2019-07-20 15:15:58,719443bc-fb00-40d8-8b6b-c01421f34b97,A
2019-07-20 15:16:20,719443bc-fb00-40d8-8b6b-c01421f34b97,S
2019-07-20 15:22:50,719443bc-fb00-40d8-8b6b-c01421f34b97,A
2019-07-20 15:53:30,719443bc-fb00-40d8-8b6b-c01421f34b97,S
2019-07-20 15:57:16,719443bc-fb00-40d8-8b6b-c01421f34b97,A
2019-07-20 16:05:57,719443bc-fb00-40d8-8b6b-c01421f34b97,S
2019-07-20 14:10:42,c24cfe8e-8cd9-4caf-84f3-5a4570a5ecf1,S
2019-07-20 14:22:37,c24cfe8e-8cd9-4caf-84f3-5a4570a5ecf1,A
2019-07-20 14:22:56,c24cfe8e-8cd9-4caf-84f3-5a4570a5ecf1,S
2019-07-20 14:38:20,c24cfe8e-8cd9-4caf-84f3-5a4570a5ecf1,A
2019-07-20 14:41:12,c24cfe8e-8cd9-4caf-84f3-5a4570a5ecf1,S
2019-07-20 14:43:12,c24cfe8e-8cd9-4caf-84f3-5a4570a5ecf1,A
2019-07-20 14:51:19,c24cfe8e-8cd9-4caf-84f3-5a4570a5ecf1,S
2019-07-20 14:52:15,c24cfe8e-8cd9-4caf-84f3-5a4570a5ecf1,A
2019-07-20 14:54:28,c24cfe8e-8cd9-4caf-84f3-5a4570a5ecf1,S
2019-07-20 15:08:52,c24cfe8e-8cd9-4caf-84f3-5a4570a5ecf1,A
2019-07-20 15:14:10,c24cfe8e-8cd9-4caf-84f3-5a4570a5ecf1,S
2019-07-20 15:15:44,c24cfe8e-8cd9-4caf-84f3-5a4570a5ecf1,A
2019-07-20 15:16:31,c24cfe8e-8cd9-4caf-84f3-5a4570a5ecf1,S
2019-07-20 15:18:28,c24cfe8e-8cd9-4caf-84f3-5a4570a5ecf1,A
2019-07-20 15:21:46,c24cfe8e-8cd9-4caf-84f3-5a4570a5ecf1,S
2019-07-20 15:21:52,c24cfe8e-8cd9-4caf-84f3-5a4570a5ecf1,A
2019-07-20 15:34:12,c24cfe8e-8cd9-4caf-84f3-5a4570a5ecf1,S
2019-07-20 15:35:32,c24cfe8e-8cd9-4caf-84f3-5a4570a5ecf1,A
2019-07-20 15:40:24,c24cfe8e-8cd9-4caf-84f3-5a4570a5ecf1,S
2019-07-20 15:43:50,c24cfe8e-8cd9-4caf-84f3-5a4570a5ecf1,A
2019-07-20 15:45:04,c24cfe8e-8cd9-4caf-84f3-5a4570a5ecf1,S
2019-07-20 15:45:46,c24cfe8e-8cd9-4caf-84f3-5a4570a5ecf1,A
2019-07-20 15:58:26,c24cfe8e-8cd9-4caf-84f3-5a4570a5ecf1,S
2019-07-20 15:59:54,c24cfe8e-8cd9-4caf-84f3-5a4570a5ecf1,A
2019-07-20 16:01:08,c24cfe8e-8cd9-4caf-84f3-5a4570a5ecf1,S
2019-07-20 16:03:45,c24cfe8e-8cd9-4caf-84f3-5a4570a5ecf1,A
2019-07-20 14:16:53,0ee5660a-9edb-4775-8ba4-29a1ba050d01,A
2019-07-20 14:24:42,0ee5660a-9edb-4775-8ba4-29a1ba050d01,S
2019-07-20 14:26:13,0ee5660a-9edb-4775-8ba4-29a1ba050d01,A
2019-07-20 14:28:51,0ee5660a-9edb-4775-8ba4-29a1ba050d01,S
2019-07-20 14:33:32,0ee5660a-9edb-4775-8ba4-29a1ba050d01,A
2019-07-20 14:48:14,0ee5660a-9edb-4775-8ba4-29a1ba050d01,S
2019-07-20 14:48:49,0ee5660a-9edb-4775-8ba4-29a1ba050d01,A
2019-07-20 14:54:19,0ee5660a-9edb-4775-8ba4-29a1ba050d01,S
2019-07-20 15:01:32,0ee5660a-9edb-4775-8ba4-29a1ba050d01,A
2019-07-20 15:02:07,0ee5660a-9edb-4775-8ba4-29a1ba050d01,S
2019-07-20 15:13:57,0ee5660a-9edb-4775-8ba4-29a1ba050d01,A
2019-07-20 15:17:05,0ee5660a-9edb-4775-8ba4-29a1ba050d01,S
2019-07-20 15:28:55,0ee5660a-9edb-4775-8ba4-29a1ba050d01,A
2019-07-20 15:40:52,0ee5660a-9edb-4775-8ba4-29a1ba050d01,S
2019-07-20 15:45:45,0ee5660a-9edb-4775-8ba4-29a1ba050d01,A
2019-07-20 15:46:17,0ee5660a-9edb-4775-8ba4-29a1ba050d01,S
2019-07-20 15:46:35,0ee5660a-9edb-4775-8ba4-29a1ba050d01,A
2019-07-20 15:46:46,0ee5660a-9edb-4775-8ba4-29a1ba050d01,S
2019-07-20 15:47:56,0ee5660a-9edb-4775-8ba4-29a1ba050d01,A
2019-07-20 15:51:38,0ee5660a-9edb-4775-8ba4-29a1ba050d01,S
2019-07-20 16:00:29,0ee5660a-9edb-4775-8ba4-29a1ba050d01,A
2019-07-20 16:04:42,0ee5660a-9edb-4775-8ba4-29a1ba050d01,S
2019-07-20 14:42:43,24fd9ab6-b1e2-4c14-9362-afaf8a4187e1,S
2019-07-20 14:44:54,24fd9ab6-b1e2-4c14-9362-afaf8a4187e1,A
2019-07-20 14:47:40,24fd9ab6-b1e2-4c14-9362-afaf8a4187e1,S
2019-07-20 15:04:36,24fd9ab6-b1e2-4c14-9362-afaf8a4187e1,A
2019-07-20 15:06:16,24fd9ab6-b1e2-4c14-9362-afaf8a4187e1,S
2019-07-20 15:07:23,24fd9ab6-b1e2-4c14-9362-afaf8a4187e1,A
2019-07-20 15:12:37,24fd9ab6-b1e2-4c14-9362-afaf8a4187e1,S
2019-07-20 15:21:15,24fd9ab6-b1e2-4c14-9362-afaf8a4187e1,A
2019-07-20 15:23:13,24fd9ab6-b1e2-4c14-9362-afaf8a4187e1,S
2019-07-20 15:30:48,24fd9ab6-b1e2-4c14-9362-afaf8a4187e1,A
2019-07-20 15:31:36,24fd9ab6-b1e2-4c14-9362-afaf8a4187e1,S
2019-07-20 15:43:24,24fd9ab6-b1e2-4c14-9362-afaf8a4187e1,A
2019-07-20 15:51:16,24fd9ab6-b1e2-4c14-9362-afaf8a4187e1,S
2019-07-20 15:52:54,24fd9ab6-b1e2-4c14-9362-afaf8a4187e1,A
2019-07-20 15:56:44,24fd9ab6-b1e2-4c14-9362-afaf8a4187e1,S
2019-07-20 15:59:02,24fd9ab6-b1e2-4c14-9362-afaf8a4187e1,A
2019-07-20 14:31:23,2105c79b-04a0-494d-a794-aaca83693a16,A
2019-07-20 14:32:02,2105c79b-04a0-494d-a794-aaca83693a16,S
2019-07-20 14:33:38,2105c79b-04a0-494d-a794-aaca83693a16,A
2019-07-20 14:47:51,2105c79b-04a0-494d-a794-aaca83693a16,S
2019-07-20 14:49:57,2105c79b-04a0-494d-a794-aaca83693a16,A
2019-07-20 14:52:24,2105c79b-04a0-494d-a794-aaca83693a16,S
2019-07-20 15:00:02,2105c79b-04a0-494d-a794-aaca83693a16,A
2019-07-20 15:03:42,2105c79b-04a0-494d-a794-aaca83693a16,S
2019-07-20 15:07:04,2105c79b-04a0-494d-a794-aaca83693a16,A
2019-07-20 15:17:54,2105c79b-04a0-494d-a794-aaca83693a16,S
2019-07-20 15:17:57,2105c79b-04a0-494d-a794-aaca83693a16,A
2019-07-20 15:27:29,2105c79b-04a0-494d-a794-aaca83693a16,S
2019-07-20 15:47:57,2105c79b-04a0-494d-a794-aaca83693a16,A
2019-07-20 15:55:12,2105c79b-04a0-494d-a794-aaca83693a16,S
2019-07-20 15:59:11,2105c79b-04a0-494d-a794-aaca83693a16,A
2019-07-20 14:37:09,657ab8df-6f3b-4dda-90c9-6b04795f1aa8,S
2019-07-20 14:37:51,657ab8df-6f3b-4dda-90c9-6b04795f1aa8,A
2019-07-20 14:41:22,657ab8df-6f3b-4dda-90c9-6b04795f1aa8,S
2019-07-20 14:45:25,657ab8df-6f3b-4dda-90c9-6b04795f1aa8,A
2019-07-20 14:53:14,657ab8df-6f3b-4dda-90c9-6b04795f1aa8,S
2019-07-20 14:59:43,657ab8df-6f3b-4dda-90c9-6b04795f1aa8,A
2019-07-20 15:03:53,657ab8df-6f3b-4dda-90c9-6b04795f1aa8,S
2019-07-20 15:05:19,657ab8df-6f3b-4dda-90c9-6b04795f1aa8,A
2019-07-20 15:15:44,657ab8df-6f3b-4dda-90c9-6b04795f1aa8,S
2019-07-20 15:15:59,657ab8df-6f3b-4dda-90c9-6b04795f1aa8,A
2019-07-20 15:16:15,657ab8df-6f3b-4dda-90c9-6b04795f1aa8,S
2019-07-20 15:17:44,657ab8df-6f3b-4dda-90c9-6b04795f1aa8,A
2019-07-20 15:25:34,657ab8df-6f3b-4dda-90c9-6b04795f1aa8,S
2019-07-20 15:29:31,657ab8df-6f3b-4dda-90c9-6b04795f1aa8,A
2019-07-20 15:32:09,657ab8df-6f3b-4dda-90c9-6b04795f1aa8,S
2019-07-20 15:34:37,657ab8df-6f3b-4dda-90c9-6b04795f1aa8,A
2019-07-20 15:36:44,657ab8df-6f3b-4dda-90c9-6b04795f1aa8,S
2019-07-20 15:41:24,657ab8df-6f3b-4dda-90c9-6b04795f1aa8,A
2019-07-20 15:47:46,657ab8df-6f3b-4dda-90c9-6b04795f1aa8,S
2019-07-20 15:47:56,657ab8df-6f3b-4dda-90c9-6b04795f1aa8,A
2019-07-20 15:48:35,657ab8df-6f3b-4dda-90c9-6b04795f1aa8,S
2019-07-20 15:50:53,657ab8df-6f3b-4dda-90c9-6b04795f1aa8,A
2019-07-20 16:05:20,657ab8df-6f3b-4dda-90c9-6b04795f1aa8,S
