app_number,app_id,trigger,burn,sink,deploy_date,token_interval
1,4e9d4864-801e-4fd1-a793-ffd15eaa4357,cae65055-83f1-4b1f-9404-a42f09d280a0,d612c335-a47b-4454-bf0b-724df7cb9103,64fff33e-f300-4847-b7bf-96a1c5382b91,2019-09-16 03:05:27,1.000000
2,a332bb29-c170-44c4-901b-e8c83ad31e73,5e762a03-bba1-4e6a-94f3-ee476db2095e,009c491c-e832-4da8-ade1-9121cb271ccc,4c3efa29-b22b-4966-b49b-b14e26540cf9,2019-09-16 03:06:31,1.000000
3,866021b3-c25f-457d-8d96-104df84d9a7c,fbf38031-798d-4dd6-98ea-4ca573b54459,1a8fcb3c-946d-41df-9352-929ea1a66926,f23337ec-b042-4e40-9727-07832d8755a2,2019-09-16 03:07:34,1.000000
4,f8049c8e-05a9-4ae1-9a3b-93acfdcd6887,bb4b71bb-6960-48ab-bad8-c08f80579cb2,a24164f6-124d-4be6-8091-9102046765ee,867dea4d-aa3d-481b-98f0-5b2633b608bf,2019-09-16 03:08:38,0.200000
5,cdb0f27c-906e-4e4c-bc76-3b7774e36398,1bb26064-97f1-46d2-a729-0c68492e4f0d,dea7392f-00af-4400-acd0-e1dbe588af20,3f71c74a-3180-457f-9859-34e80451dd1f,2019-09-16 03:09:42,0.200000
6,c39ca3d9-91b3-47e3-9552-61bb784f9984,e41c0dd9-1c42-4e2e-b250-955992fd753f,f090ce82-a468-418a-b208-c4e2f77a0ab6,4b77fbed-b898-4224-a510-752e3eb62d7a,2019-09-16 03:10:45,0.200000
7,87b7b0ac-b485-49a4-b2db-0dc61c544bd4,24d2dd1d-3db2-49da-9f8e-ed66ab23b9f9,7a342c5d-47fb-461d-ac55-ab9962e9d3ae,654cd111-8f01-4e98-8547-0284dc531a5a,2019-09-16 03:11:49,0.200000
8,6ea3f9fe-4c1f-49da-82d3-1ce002fd5e7a,1e23d167-f527-496a-9904-4526880073ec,005a3592-3a87-4677-ab4d-e3d3a2fbb17a,38074d13-7bba-46b1-9c77-2ad8b4e54627,2019-09-16 03:12:53,1.000000
9,01c2afb8-6cb0-4c00-9011-7c8804e750ee,7c129357-2936-4c9c-8b83-f879593991d7,7b135951-29c1-42ab-a2b6-c7afb95bf7f8,3701fd74-d0da-42a4-a816-6a1e1ef588c6,2019-09-16 03:13:57,0.200000
10,f582bd5a-c16b-4311-b288-d76283a7c1ee,d32d2e12-e1e3-456e-993d-dad3c85f17b2,60b77e87-1ee6-4773-975d-037ebb0a452e,15ec1e8d-8e24-49f6-a222-bbffb3911766,2019-09-16 03:15:00,0.200000
11,02e8bf24-2ec0-43de-924e-4869b97607c7,a4788b35-cbe7-40f9-91bd-0d68e7133bcb,ab3467f7-dd42-474d-8e8c-77f951aae27d,16d6d7a2-7bc5-48d6-9215-13efb5f1e7c3,2019-09-16 03:16:04,0.200000
12,4c3b16c4-b95a-4866-9a21-98c5164e85bc,e268014a-2819-4f20-9679-2f4a985ddaff,1f823c63-5c07-4b71-a5e5-7e53a9b5ead3,dfbc820c-0b30-4ef9-ae1f-ef9c2c54c57f,2019-09-16 03:17:08,1.000000
13,96788d4c-bcc4-4f34-8582-a18361119aec,9c681b63-76bd-47aa-8534-a7c3a5c5f2bb,8a14061b-14c1-4e70-a122-a3b984da1cfc,ff01907a-9f13-458e-8e2e-bb0d1e091c33,2019-09-16 03:18:11,0.200000
14,d50b1321-5289-4150-bdd8-f59385f9a3c9,c181134b-7a08-42f4-9353-7e86f1f86c33,69231790-3d91-495d-8b54-b6b608486fcf,c7911d51-b7e3-43cd-8b15-f69e86f26322,2019-09-16 03:19:15,0.200000
15,f65112a2-84a7-41e3-b9e3-321c190f5ff0,4e3739e2-50a8-404d-a0e1-5b596b369c2c,3ef37280-8a91-41a7-b223-e1c93e2a5c1a,4e5b63bd-d671-441c-9d86-26939c3a19d7,2019-09-16 03:20:19,1.000000
16,c496a036-2ea1-4262-b3b9-df42657fd714,a8bcc40b-9141-4daa-81ae-95a3507a9f12,11d8f443-fd05-45e5-bf33-cee1caf872d9,80344002-ff35-4917-97b4-14926580be3c,2019-09-16 03:21:23,1.000000
17,08757256-9cdf-48bb-970e-76e56f2c6117,c32b4138-6bce-425e-990a-55474836fb48,69d6655a-dcb7-4c65-807e-592ce6c902c9,66763909-9a0b-4c61-b4a0-26f979027f9b,2019-09-16 03:22:26,0.200000
18,f9fc317f-83a7-4f58-8bd8-de2fa41029a0,647c1b4f-1df6-4f69-b360-3d675b4353c3,4cc78957-ab11-4bec-846f-4a7ae547589e,b9abce23-0288-4935-925d-c8d0ba49cf24,2019-09-16 03:23:30,1.000000
19,2750707f-b643-4c1f-8176-b281ed454e60,85ddb535-c26c-4ec4-92bc-f4db9505b5e1,59f05d6f-60f6-4f6b-abaa-c1f8898ce20f,39a4ee7f-18d1-402d-a831-ec464b1c3e84,2019-09-16 03:24:34,0.200000
20,adf924e8-77ab-4bc6-b2d7-010daa88f9b5,4eba9ffb-6ce6-4cc7-90ae-c3563df5f29b,ca86427c-2b6f-42a0-9210-9e468d945b43,2fc9fa9e-c46a-4581-b1c7-4055bbe54d28,2019-09-16 03:25:37,1.000000
21,daa39f1f-6e9b-461b-a1b0-ebaa08a653ff,e56bac76-8599-4c80-be3b-f55455a5f41a,1c613fea-2409-4aaa-be13-966a765fa4bc,0a45e280-d0f3-46d8-ab2f-e0b98635e2d3,2019-09-16 03:26:41,0.200000
22,c6d0d1f1-9321-4911-9416-5a62d16935c7,969fbbb0-24c4-4a8c-8bc4-bfe107907370,a14aa8d2-c69f-4d36-8e54-e211455235fe,81528c44-2004-421f-bda2-1c2aa237dc60,2019-09-16 03:27:45,0.200000
23,f157c44e-ea9f-4ba4-b708-4963bdc9a8b4,e9ecfcb5-4a90-4624-a67e-4d66a2590723,9316b6ee-2aa1-4c0d-ae3d-e3e24485c326,d46c4eb9-2783-445e-ad5e-741de89aee0d,2019-09-16 03:28:48,0.200000
24,fa4353f6-9340-4d04-8242-99772942074f,702ba0c0-cf61-4dbf-ac31-047fc455f813,18b1e189-c19a-45cf-a39f-05794973fcb5,843b2378-0c29-4b91-94c7-1d176820450d,2019-09-16 03:29:52,1.000000
25,a3e45199-d2a5-4436-b85f-84a5b6d8020d,e527c0f9-5cd7-4c4a-92e6-458361fc0d50,4ecb1729-109c-4472-bf0c-e0eaf175f7db,f2fd4bfa-19f4-4a39-9e4c-60a58ebfe8bd,2019-09-16 03:30:56,1.000000
