app_number,app_id,trigger,burn,sink,deploy_date,token_interval
1,9a079543-2bb7-46dc-b49a-d7e33157327b,e778a1c0-16bf-45d5-b90c-6b38c5b87e32,f9f719f3-8289-4650-be59-c0070331411f,394d754b-ae0c-44df-bf1f-cbcc38085432,2019-08-03 14:23:07,1.000000
2,b9dadcf3-9b69-46b8-a98f-bfe3f39d3ade,3ed2b225-b13e-4598-b728-24cd4226d33b,ba201f1b-f3d8-4f9d-a4c1-3388291a8dec,342ec00e-9435-4d50-8ba5-345445dc47f2,2019-08-03 14:24:11,1.000000
3,e5c2d69c-fee6-46d3-94a6-bb3826c24ba9,4af5b957-8257-44cc-93f5-88c95005b442,a80ce5cc-9caa-4726-82cb-80eace1f8a55,e0d1d24b-60b4-4d37-835a-2445ede5b8e0,2019-08-03 14:25:15,1.000000
4,e6bba944-8ce3-4a79-bdee-af00613b60f0,bb5c22f8-2873-4b75-b6f2-7aaccd0d0c74,1b78c666-8eca-4cf4-8e38-a1d1d4663f8a,808e49cd-c9c9-4cc1-bb01-7ee718567b74,2019-08-03 14:26:19,0.200000
5,60a90807-fac9-48c0-9fb6-76fad7566513,6b7eb06d-c9be-4f20-8d45-1cafa762f2bb,6acbfefc-cae2-409c-b959-ebff97ded718,7cb184b5-3ffe-4e43-81be-25b0abbe882b,2019-08-03 14:27:23,0.200000
6,2cbc1371-0fa8-4917-9c88-a5096a41cb04,61d0d7a0-ad01-475e-b67a-f54d74e2e565,2adb7af1-cf19-4bf8-917f-6e9879b2dd29,7e00b22c-5fb3-4e0f-8c9c-a1a3bbc1b4d1,2019-08-03 14:28:27,0.200000
7,99abb0d0-8d23-42c3-ac7a-fdcbee7f8ce1,48912e04-ef42-464f-ac2e-0d71be91f0b2,d49dee5e-9c98-40e9-999c-f770fb0dbb95,a6df732f-ea66-40ae-baba-ab63cd813b59,2019-08-03 14:29:31,0.200000
8,faa999e6-b43e-4b2a-ab2c-60b34389203c,3d2b2c8c-46a6-4a84-b575-dfc30673edac,2b2418df-0fbd-47be-b528-ea0be2d190b9,bec1c16b-ac19-405e-b18d-c15e4d709956,2019-08-03 14:30:34,1.000000
9,8ab471f1-d807-4feb-b090-f1bd549c2ee2,57d2e472-485a-4661-9561-6aac98dcc4e6,301efb5a-2e5c-47ae-8823-d7be393271a8,90068149-3eaa-4fd8-bbfc-1f448f983b5e,2019-08-03 14:31:38,0.200000
10,13451d04-3db6-4eba-a5f7-bf8950f416e5,2300923a-33a5-426a-9d3e-d00404feb7f1,fec8d65e-6ff9-4e9d-ab4a-1c88b4a87fe6,00495162-05b9-490f-b881-2f4fbe62093c,2019-08-03 14:32:42,0.200000
11,c8d09fdc-b982-4776-aa3e-d42fb11d6f04,e896efce-e0d8-406d-8665-011c83fce209,a7c5fce2-ae78-41a0-9921-968fa733e11d,fde60674-8534-4c5b-80e9-7f903ed11ccd,2019-08-03 14:33:46,0.200000
12,87fc55e8-f371-4217-9079-fd63be415c93,01dc0a15-dc3e-4b66-b93a-9d0283ddfe6c,d39b75b8-b988-4d6a-b72c-870658360b51,43f9f759-1a5d-4599-928a-180412b5a558,2019-08-03 14:34:49,1.000000
13,dd00545a-d035-46ed-8d8c-53a84a664b62,fcf894fa-52c4-4fd2-80cb-917678c3eda7,e338d43d-0957-4150-9153-4fed50601e44,828bab03-d0a2-4e94-8cbd-051d4308b9fe,2019-08-03 14:35:53,0.200000
14,a2cea977-db20-4e74-9b04-a662d2a117d3,cb8f82c2-5014-4b1b-8611-7f7338b55cc5,ff199977-ef59-412f-aecf-3892ea2258d2,fc7b62a7-7050-47a7-9376-776a3150251d,2019-08-03 14:36:57,0.200000
15,9254a5e9-7fd9-4222-b0a3-66d242e90cd4,d730e3f4-2756-4eb3-874f-228a98aa1728,a4f1ec41-0960-4e01-b5a3-398cacd068f4,e9978e1f-6b89-415e-a723-514590818c04,2019-08-03 14:38:01,1.000000
16,027574ef-6a48-4061-abae-aa43897f629b,2ca249c4-09ad-4af7-aed0-153b98febd20,abe4bf62-989c-4c82-8109-f7506c161c4a,5da5e051-66fd-4a81-a595-7ffda5eae4b9,2019-08-03 14:39:05,1.000000
17,92444aeb-ed8b-41fb-835b-0c03a444890a,d362d685-28ee-4f37-a79d-58110e01f69f,56093154-c16b-4161-82e6-c87c94488a33,266266ef-c53d-4ee8-addd-99f160473ea9,2019-08-03 14:40:08,0.200000
18,ad0ab145-4cec-47bd-87f6-24e2869adaa8,37765da2-87a1-46aa-a064-7f7fa6c75120,db908845-09d0-4e59-b471-a1a5e1ea3249,64ff5eda-18eb-478d-a6e5-5e6f8aee3919,2019-08-03 14:41:12,1.000000
19,8f65fa6d-30ea-4fc9-8b51-168d0cc347f7,48163cc1-64c7-48e2-93dd-c4f8af1e73dd,1c219d31-dcb1-4a39-b30d-4e0256738679,0e793d28-1713-41a6-9601-b7b6369454ba,2019-08-03 14:42:16,0.200000
20,ba169338-dba8-4438-9a27-7e85e1d83a46,dc0024fc-fff1-49a6-aea7-d38442d0268d,2413a5d9-5284-4cc0-b57b-46ecaeacfd19,32b5ea88-c646-4cd6-b451-41391a8fdc3c,2019-08-03 14:43:19,1.000000
21,2fa95452-5fc8-4c34-b54b-680c1a675897,86d8477c-dcc6-4c54-a12c-bb9357d33769,f00cc414-23c3-4bd1-a311-32f8e145676a,5973cf8a-4951-4b44-ac96-2e960fee014d,2019-08-03 14:44:23,0.200000
22,1d6f5c6b-2a00-466f-95af-db1134a6999d,dc6c3258-b1e4-4d8c-b568-c1fa6fbbcff3,5a3ea3ce-b0a7-4015-9204-3f31375ab9f9,0f2a4557-7ce2-4fe9-a1bd-79c8030b229f,2019-08-03 14:45:27,0.200000
23,4fef145f-78eb-483c-b61a-4c008f4ad89a,5b70b590-a7b7-45d0-97ae-e80fe091a30a,5b6bb91d-68b3-4e95-9f30-0ba98cd71439,19a6a59c-7af1-429a-8eff-2860dcdded8d,2019-08-03 14:46:31,0.200000
24,e884d5db-5d89-4d5d-bb5f-cca8cddf9215,00b07b9b-af43-4f80-902a-53cff6b43069,f584ae19-9b69-492a-b105-6a65067ef7a4,8519599b-a1c7-4ffe-975a-5ff9a60e8e6c,2019-08-03 14:47:35,1.000000
25,e10da827-5e8e-47f6-b248-1e769ea6c308,1e15a661-81ae-42e0-b1a3-a3c001440430,0abf8a17-d79d-4a6c-8c55-73217a1a49cc,869598bf-5227-471b-bdfc-8634f49f4dc1,2019-08-03 14:48:39,1.000000
26,28ac553a-e1f4-4754-a1dd-8189dc77bf77,f87efa09-d891-4b6f-90d0-9d9cea0a7cf0,e87f8ff7-9537-4b8d-b5ba-71f02fa049ce,bd4784ac-ffeb-40f1-b78e-5ef64df15364,2019-08-03 14:49:43,1.000000
27,d32c324e-be58-4514-916f-29699f4718ca,040a6fec-d88a-4a5a-99b5-dfd05e51c4b8,29a560bd-8648-440e-91a3-b120c79378bb,335b6572-f78d-4e85-a52f-b2799a9e0895,2019-08-03 14:50:47,0.200000
28,80e0962d-cf0d-4bd9-b3ad-6187cccbd51a,d216ea87-b09b-4e9d-8656-1616919565fc,528d883a-5901-465b-a405-9ef31448ee56,dbb54be7-9533-4478-967c-178da6d37145,2019-08-03 14:51:50,1.000000
29,b144bbba-db75-4897-9c84-135763d92811,c376aa86-6d48-44a6-831c-9a699abdd10c,b7cb0251-cb1a-4891-8530-f65e22851661,3ca8ce35-2498-4b0a-ae6d-c6020a33fa79,2019-08-03 14:52:54,1.000000
30,da006f92-eb57-4ab7-9964-3adb569844c9,452744aa-ce54-4b5e-9614-6356c8849923,c6eea53c-6f35-43d9-81e3-7c2cca188c3e,42a5192c-a80a-4de7-9a5f-b2602e767d84,2019-08-03 14:53:58,1.000000
31,bcdbf701-edaa-45b2-af93-27d822a45b25,1a68a5fb-3d1f-4107-85cc-6a61a0a94a08,314fb090-6e0e-4396-87bc-f6cac14a31f2,1af74a1b-5e49-45db-a4e5-5c7bf84b8675,2019-08-03 14:55:02,1.000000
32,e30222e5-f3b1-4544-b8e8-2eeca21740a7,f2755f49-6c57-4a4c-a7fa-150be7f1e908,a3ee787f-2da7-4685-97d5-c7431f1ce449,08f6016e-4d2d-4858-b7c1-c477f70f8327,2019-08-03 14:56:06,0.200000
33,216a7e55-a52e-4cc7-99ae-71d1b1dd8d9c,bd9fa61c-f996-4cfe-827e-f0c15de0b5a2,ff0a2f1d-be00-4e6f-9961-20f7c80c0d42,d06e1625-2f3e-4c87-93b3-1b709cec2c74,2019-08-03 14:57:10,1.000000
34,44766c50-c234-4d80-9280-88e361e360fd,6b14f70f-fffd-47fc-ae31-baf17fe1de98,6007bc06-112b-4ea3-b01c-1ab95e89f9a1,98d76b9a-242f-4cdb-9c84-5a7dc4668aa4,2019-08-03 14:58:13,0.200000
35,67fb7888-8e06-4bb6-a056-78a3b513ded6,3102bd2d-c97f-48cb-bb23-b421348d9f55,248dc2fa-7503-4f93-9bc2-68c05dca5013,30f484e1-8e93-4179-af15-89eeb762abf9,2019-08-03 14:59:17,1.000000
36,4da7df7b-5fce-4515-8397-1784d5e48831,27b8776b-dfa6-453f-ba77-01f2313dcdf0,3a4e72cc-63b4-4310-a9cc-9c5114cee78a,21c8269c-9ac9-4082-8c75-6fbdae5f247b,2019-08-03 15:00:21,0.200000
37,238d8331-d406-491b-9b86-bafa5d25c2e1,926bca25-851f-471f-8b25-6543f83eb51f,4cf91efb-3aec-420a-953b-be1915daaf5b,803d6761-e652-4d99-8fbb-64ae48b66e72,2019-08-03 15:01:24,1.000000
38,ec0963e7-b134-42bf-8004-7f7ccb58693c,770033c2-8d59-483d-9be3-62b13f7da888,e717f3d3-fd19-49a0-97c4-e75a9e22cdf2,7774ba23-bcc2-4a32-9292-53d1b1f72f73,2019-08-03 15:02:28,1.000000
39,65c9a334-4dc3-44fb-92a2-e754b2f1f2c8,6b843a85-c6d5-43ae-84c9-9a5973fa9bd4,dc0860d3-8832-4aaa-a17f-154584ecef8b,6e83063a-3678-4f0e-a91f-b5fd29aad616,2019-08-03 15:03:32,0.200000
40,91901caa-5c95-4f86-8ba2-591f62c48354,64a62959-8dcb-4150-ae3b-71fb97cebe64,71b1ddd9-64fa-44b4-ba39-a27de3f80f07,29c6f234-e6af-42f8-9a5f-ec2211bd0e5b,2019-08-03 15:04:35,0.200000
41,86a46f62-b620-4988-a437-27c44be8ef97,50e476f7-cc21-4a75-a42d-a40bba7c6d42,b866dc2b-b161-4056-afcd-58a3e210ad59,246649d4-86db-4236-8065-1a620ba8c30c,2019-08-03 15:05:39,1.000000
42,b28936ab-1f9f-499e-9a57-03383299d79d,59585a74-1400-43bd-b13c-30597f65c277,34e09771-906f-4ffc-b591-02ef41c37548,9bf0861d-949f-43a8-88ea-d0460482f564,2019-08-03 15:06:43,0.200000
43,ef51c3e1-d297-4a0c-af7b-07e0b674a6c3,df1deb24-a1c7-4823-8021-50b0add2c127,70e8a741-96bc-458a-89a0-bec2ea405512,6f5b613c-a9f4-4599-96e4-e84de6c1d76f,2019-08-03 15:07:47,0.200000
44,08902ee5-1820-4eda-94d8-7d4d1d3fbb83,bde2c446-766c-488c-8564-623593f78c7b,1143beb1-2969-4725-8df0-f0ef73b6c5b7,1d9dfd18-9c5a-4c93-8e0b-8bbfcea6ca80,2019-08-03 15:08:51,0.200000
45,84857fc5-a79b-4139-b5d2-562309774c61,68fbc72b-bc88-4964-b9d2-75a0558e8b25,70a4d2d1-e41e-419a-bc3a-c3cc3b5d98a0,e31eea56-f5b6-498c-b5fd-d3e4f86fd10c,2019-08-03 15:09:55,1.000000
46,7061dd44-df8c-481d-88cd-af932840b688,7e69f640-fc8e-471d-8f18-247f38c5bd9a,c98cc236-bed5-4b2b-9dd5-99763a69a2b4,971ee95f-fe63-4101-92c9-f33bb9e71e93,2019-08-03 15:10:59,0.200000
47,375dfb41-0f12-4a06-9e6d-6baa75855801,47e04433-cf48-4ea3-bfba-f4a409c03de5,995627b6-d43b-40d0-b6bb-8703d108a1b6,633f5f0a-486a-4239-8192-80d510e2f280,2019-08-03 15:12:02,0.200000
48,5ca5ac98-f9ae-4e18-9eb3-070d6136b00a,1073f8a0-fca6-4b68-b7a3-25ccd565188a,a2f617f4-25f2-4d4a-965b-b830982bbfba,c41c7b72-f7b2-4519-ba82-3aa911b45811,2019-08-03 15:13:06,1.000000
49,c8479c9e-c19c-4d5b-81ec-7e020dea38a1,bb958e9d-9de8-4334-836f-ece7dc111bc9,a3662b47-5751-4d37-a65f-a8ca1855d8fb,b192bc5a-8888-4b14-9a21-82379fd33c9f,2019-08-03 15:14:10,0.200000
50,a1bfb407-3a93-49d1-a734-4308daaa5597,661311f3-68d6-4f96-baac-e5c3c7060632,e44e0617-5f0a-4994-9a7f-865351e40658,529a592f-52e3-4b78-8944-d034aa59cc71,2019-08-03 15:15:13,1.000000
