node,ip,uuid
node-a8-199.grenoble.iot-lab.info,172.20.64.2,6a03fec2-a799-4483-ab20-c142437d7701
node-a8-200.grenoble.iot-lab.info,172.20.64.3,169f4fd1-da15-4800-8de8-846db08f2ad5
node-a8-201.grenoble.iot-lab.info,172.20.64.4,b0c56457-fe86-48fb-a8cb-1a24b7291a38
node-a8-202.grenoble.iot-lab.info,172.20.64.5,27fc928c-5449-4843-870b-25d04fcd9e4e
node-a8-204.grenoble.iot-lab.info,172.20.64.6,595d6b57-38ea-4206-a5fd-91e609aa39c5
node-a8-205.grenoble.iot-lab.info,172.20.64.7,75ecb90f-edca-4c59-b702-adf7331b8243
node-a8-206.grenoble.iot-lab.info,172.20.64.8,09aa5ef2-02c0-419f-a406-fc440f5956cd
node-a8-207.grenoble.iot-lab.info,172.20.64.9,32c88230-ff5b-4f6c-9272-1ec92c17af46
node-a8-208.grenoble.iot-lab.info,172.20.64.10,8849fa87-7481-46b7-bccc-1355c6b72e59
node-a8-209.grenoble.iot-lab.info,172.20.64.11,2dd39d5b-7e02-4fe4-b6b8-a0c2e2e227a5
node-a8-210.grenoble.iot-lab.info,172.20.64.12,46d90cfa-2482-4b5c-a139-c1e90d71b755
node-a8-211.grenoble.iot-lab.info,172.20.64.13,19a4cecf-6c9b-40a7-a3a3-a722c892875e
node-a8-212.grenoble.iot-lab.info,172.20.64.14,ffa3b09e-59ef-4f9e-80dd-83636589d9c3
node-a8-214.grenoble.iot-lab.info,172.20.64.15,30f16121-fe4f-4f53-a5d4-ef9088682645
node-a8-216.grenoble.iot-lab.info,172.20.64.16,bab5e371-4b80-4a10-8510-27fac116b861
node-a8-217.grenoble.iot-lab.info,172.20.64.17,bd185d4b-2619-4666-94db-f8641198cad4
node-a8-218.grenoble.iot-lab.info,172.20.64.18,79e57b20-ec75-4dc5-9480-b0b7c08a3d9a
node-a8-219.grenoble.iot-lab.info,172.20.64.19,286cd9d5-e0f3-42d6-8099-3038de0cbc1a
node-a8-220.grenoble.iot-lab.info,172.20.64.20,7fb7b73a-59af-4d30-a70b-a7ec01e8a027
node-a8-221.grenoble.iot-lab.info,172.20.64.21,70197b33-2fa4-4bad-a088-f8ea5b93ca62
node-a8-165.grenoble.iot-lab.info,172.20.64.22,fd479666-7455-4dae-b41c-ea40f6686ed5
node-a8-166.grenoble.iot-lab.info,172.20.64.23,6dcdaba1-46cf-4688-abf7-d5922134f166
node-a8-167.grenoble.iot-lab.info,172.20.64.24,58a9bc32-5c7d-4ca6-95de-22a01c189826
node-a8-168.grenoble.iot-lab.info,172.20.64.25,202465dc-56fe-4973-8573-26dbc9d06124
node-a8-169.grenoble.iot-lab.info,172.20.64.26,8aa8facf-1315-41a7-9149-524d6b6e0727
node-a8-170.grenoble.iot-lab.info,172.20.64.27,19fc776d-8992-46f1-ad76-595f0cfab217
node-a8-171.grenoble.iot-lab.info,172.20.64.28,b4a4615d-534c-4fa0-a96f-866614abbaa5
node-a8-173.grenoble.iot-lab.info,172.20.64.29,2cd5b975-8da0-4f7f-ac8f-22b59df1d8c2
node-a8-174.grenoble.iot-lab.info,172.20.64.30,4a963627-e8ae-4b13-af2a-18f9fa49ad4c
node-a8-175.grenoble.iot-lab.info,172.20.64.31,4ffea6c3-6f6d-400a-8125-e71698990e9d
node-a8-176.grenoble.iot-lab.info,172.20.64.32,630f23a6-6326-4e8f-93dc-b3cc5a9c0297
node-a8-177.grenoble.iot-lab.info,172.20.64.33,afcdf4fb-7f00-4c1c-b640-c9ee8336146f
node-a8-179.grenoble.iot-lab.info,172.20.64.34,4700e756-5240-44f0-8ec3-8ec5b892d768
node-a8-180.grenoble.iot-lab.info,172.20.64.35,8d9dc780-61ed-47c0-92a8-777a1f7e6b9c
node-a8-181.grenoble.iot-lab.info,172.20.64.36,1592999f-bc05-49ff-bb51-ff3607344ee0
node-a8-182.grenoble.iot-lab.info,172.20.64.37,87c01d39-5b8e-4937-95cf-4cd89ce4f618
node-a8-183.grenoble.iot-lab.info,172.20.64.38,09cbbcbe-b1d6-46ee-8194-ddda0aa1612b
node-a8-184.grenoble.iot-lab.info,172.20.64.39,f9aa039b-d908-49b8-9b9f-dc5d8d7b5da5
node-a8-185.grenoble.iot-lab.info,172.20.64.40,f5dcc7bb-c3fc-4726-a40c-344c9c6bd263
node-a8-187.grenoble.iot-lab.info,172.20.64.41,199ad26f-4d54-42ba-83be-26424ab32bf2
node-a8-188.grenoble.iot-lab.info,172.20.64.42,5edcfcfa-de9f-43b5-b8bd-665af3c565d2
node-a8-189.grenoble.iot-lab.info,172.20.64.43,3e9f9525-18fc-45a4-b3b5-6cc265471555
node-a8-190.grenoble.iot-lab.info,172.20.64.44,fff39f3e-4785-40f2-9cd0-d04109088990
node-a8-191.grenoble.iot-lab.info,172.20.64.45,3d5a6cfd-7a07-43b9-9232-314af95c4da5
node-a8-192.grenoble.iot-lab.info,172.20.64.46,d1b408f8-8a0a-4050-8d10-b1ba31ca284e
node-a8-193.grenoble.iot-lab.info,172.20.64.47,af6645fa-3e12-4cc3-8260-13e55bba39f0
node-a8-194.grenoble.iot-lab.info,172.20.64.48,ad670ae3-ec96-49cd-a746-6f41b4481274
node-a8-195.grenoble.iot-lab.info,172.20.64.49,adcee7c2-23a6-4992-bab6-6b5dc000f04e
node-a8-197.grenoble.iot-lab.info,172.20.64.50,2a65e68f-3075-484d-bec2-7a231569a008
node-a8-198.grenoble.iot-lab.info,172.20.64.51,e399e471-a7d2-4f95-afd6-b9fceb741f76
suno-14.sophia.grid5000.fr,172.16.130.14,c8c187e5-f1cd-4beb-a94e-df669f2dfecb
suno-15.sophia.grid5000.fr,172.16.130.15,801285ab-b4e4-4eed-9e17-b7e3fdd804e1
suno-2.sophia.grid5000.fr,172.16.130.2,b58d355b-0226-47ad-b6a1-1619383ec727
suno-24.sophia.grid5000.fr,172.16.130.24,b7bd359d-e1c4-4fd0-b1d2-30d8c00bd1a6
suno-25.sophia.grid5000.fr,172.16.130.25,a4a69fc2-b35e-42c8-b7c4-26740a72ea77
suno-27.sophia.grid5000.fr,172.16.130.27,aecab711-ea86-4b56-804d-d85fd9ccd7db
suno-28.sophia.grid5000.fr,172.16.130.28,ee62f4b8-a573-4eb0-9376-51a2a9d1518b
suno-30.sophia.grid5000.fr,172.16.130.30,b356a3cc-8728-47c6-a979-f696d1550083
suno-32.sophia.grid5000.fr,172.16.130.32,c9bb7bd9-dc35-4c21-87f6-3677eb7a9e0e
suno-33.sophia.grid5000.fr,172.16.130.33,3b3f1ad1-7679-4e47-a170-89fec45e7c15
suno-34.sophia.grid5000.fr,172.16.130.34,b0d76f17-a16c-409e-86fd-25b535fdc7d1
suno-36.sophia.grid5000.fr,172.16.130.36,9d863b1f-3d51-4a91-9945-5bf6c16ee482
suno-37.sophia.grid5000.fr,172.16.130.37,a19ed612-8b1b-4248-96b7-d3ce40d82a58
suno-43.sophia.grid5000.fr,172.16.130.43,23bde562-dc5e-4c29-ab79-296d7947512f
suno-44.sophia.grid5000.fr,172.16.130.44,58fbcdcc-1fd9-4f27-b253-0a9349f21d42
suno-8.sophia.grid5000.fr,172.16.130.8,a45ef282-152b-408d-bc5a-990c00143fa1
