actor,node
cb4fb933-92e0-467f-93e1-7624d075ce25,471aff52-4526-4c6c-bdda-a37d130e048c
a04f257b-80c4-4bc3-a2f3-34e4799519d8,471aff52-4526-4c6c-bdda-a37d130e048c
55cad25f-f603-4087-9cf0-bdda6c3bb0d1,5eb20175-e55c-424e-81cf-e14009c4454f
779781ab-78c4-4648-8525-33dd89c3b149,1ba37805-8a6b-4f12-a87d-36108b947e8d
a3c39b1c-d12c-44db-bfb3-21d4a46b302c,f93b2960-e5c4-4772-ac25-f3cc9e0882bf
0041aafa-9089-477f-8326-53056482f8b3,f93b2960-e5c4-4772-ac25-f3cc9e0882bf
080d780b-850d-4ecf-9b0a-47e7440a1235,ebfe1d8c-cd72-44d6-83b7-a1468be2d06a
be790f0a-3a1b-47ac-9614-fb947c7302cf,2d57a4c1-6c11-4ee4-8d3c-c1c901ceb791
d822cdc7-74eb-4f80-84a8-368749c80803,ebfe1d8c-cd72-44d6-83b7-a1468be2d06a
55ef3e81-bda9-4050-ae0c-85e3b9680980,2da3be0f-916f-40cb-b9ba-d5a71f5ad709
ff62a8ee-1fb7-4b25-8afd-c519fedb1e1b,4ab66fee-9ee4-4021-8e46-dbdfb7e61930
ed532915-3bcf-412e-9ed2-cc184fad70e7,2da3be0f-916f-40cb-b9ba-d5a71f5ad709
c1fd61e0-4d5d-48d2-883c-d23619e8f17a,37ac7565-9f87-4b21-8f46-2cd6fed70a67
24fbf358-4861-4fd0-b5b2-9fd9865665f3,00a8ab22-1bad-4578-ae1a-23df52287ade
aa148491-9c6a-49d8-972f-9787e25ab0d6,37ac7565-9f87-4b21-8f46-2cd6fed70a67
41619e7b-5e46-43ba-a8e5-ee327530bd1b,934554f3-8912-441b-a037-1e438ae5bde7
82bf46e1-f494-463b-aecb-be3415f076fd,fb43157b-f516-43d4-8024-a2f388d8f5bf
6b6add1b-3d23-43d0-b8a3-9c4b21910b9c,fb43157b-f516-43d4-8024-a2f388d8f5bf
b04b23e7-8a5b-4999-b35d-ea64d8e2ca79,8c88a0c6-31f2-4699-b25b-318003263bb5
7d379c72-e5eb-4c0f-80c7-418c013dc2d5,7f074ce4-d8cb-4467-aaef-5e6c96ddbc6e
9d6c8246-95f9-4c36-bcab-d4c8e128b5f7,8c88a0c6-31f2-4699-b25b-318003263bb5
c2c03367-00d9-4d4f-935f-f622e9e15ed5,eb63ea67-7b5c-4d8e-8f2e-a2262837cde1
93a89b8c-e8e5-42b3-af77-6372c269d471,0f814d98-b845-49b2-b89d-fe8af5b6b08c
100e141c-7cf6-41c2-8ac5-aaf31d2d1bc1,0f814d98-b845-49b2-b89d-fe8af5b6b08c
02296269-4bb3-41d1-81b6-66a432bc5e90,b2fe9b53-9cc1-4e15-952b-5351f397b0d1
25573c25-e5ed-41cc-aed3-1a01a02af823,1153a7f7-c8a4-4fa8-b303-26551246cf89
20e836ed-ae97-416b-b547-69c252171520,b2fe9b53-9cc1-4e15-952b-5351f397b0d1
6fbbffb5-4cb3-4195-9f1e-5c5ffda1ae22,b56591a2-b39e-4ae5-8aa0-c5cac287f74a
684f4ec9-9c42-49ef-a620-f22d7fd11ffb,2da3be0f-916f-40cb-b9ba-d5a71f5ad709
17200efa-a870-47d8-b9b7-5b3972715d04,30c7cb43-c5c6-403c-9dd1-36bfc76962da
a06a01f4-8cb7-4d16-b6fd-5d52013fb8c0,6a3aa692-9474-4042-84fb-6b2ed5d0d441
6347aad8-ab52-49ce-975b-3fad894f5fc1,2da3be0f-916f-40cb-b9ba-d5a71f5ad709
5354bfc0-9fc7-4809-b8df-98a04b7bd1e6,f32e126f-805c-4918-a73b-489588c84780
f9625a94-63c6-4bee-adfd-689f20f7b8d8,3a76150d-e4b7-4891-b4ab-4c5efffb317d
16b951c4-5c2a-43d7-8f2d-70f8a77d80e6,6a3aa692-9474-4042-84fb-6b2ed5d0d441
70e9d232-c693-48c9-94ba-63976b2d8dde,6a3aa692-9474-4042-84fb-6b2ed5d0d441
cecbcef1-42f4-4a08-9c33-01e00ea4799d,c96b96b3-d9f2-4479-bee8-06871360fab4
40e1056e-7b3d-4c2e-8b75-0eb50cda59ca,72a769a7-a023-43bd-8de0-42b58887a2b8
58bc819e-f320-4461-9cc8-9e2ccedcdcdd,72a769a7-a023-43bd-8de0-42b58887a2b8
bc15dea9-38b2-4d86-8b62-f5381eacf577,72a769a7-a023-43bd-8de0-42b58887a2b8
4b3008ad-e81d-4f45-9401-ee4dea37f378,28dbca43-e567-4e9f-bbb9-201ffa7b07a5
5a15a38b-dbcc-4b2c-81ff-a2a10b740d6f,72a769a7-a023-43bd-8de0-42b58887a2b8
94b6ce2d-1dba-49cf-b207-69ca21839130,125af085-cb42-453a-9549-5b67fe44e496
fa944657-550d-4508-92a6-099e794cf547,6a3aa692-9474-4042-84fb-6b2ed5d0d441
83b78c9c-03b2-4c86-9ac5-debb06bd6a0d,6a3aa692-9474-4042-84fb-6b2ed5d0d441
9072026d-b33c-4e6b-aa9d-c331986d26dc,30c7cb43-c5c6-403c-9dd1-36bfc76962da
07f59b05-77e7-46af-b83e-8ef9ebf6ac50,da9194ca-9dc1-4baa-b5c6-b71a9c6ba6a0
7e0f66a2-291a-45ff-81a1-14d1f6ae9611,30c7cb43-c5c6-403c-9dd1-36bfc76962da
d2432715-c945-4ee9-8373-fd9ae6e55a48,80a4b2d3-372f-444a-92e9-6c404629c736
525fc794-ba8c-4ac9-af40-ceff88567cc8,ef6f93f7-73ce-4246-ad0d-47e5e94ade07
c8a31875-bc89-4c14-aba7-5da06a11f872,ef6f93f7-73ce-4246-ad0d-47e5e94ade07
36c9feb0-504f-404c-b40c-46c4d86ae744,fb43157b-f516-43d4-8024-a2f388d8f5bf
90b7675d-d662-4e4c-9f07-4a18fd4af4d3,fb43157b-f516-43d4-8024-a2f388d8f5bf
0fe9e331-addd-4855-ae89-969808bd2a04,f2734731-aada-4d2f-8b67-605de2828684
523ecb3d-09b3-4c59-9648-486a6d9987b7,f93b2960-e5c4-4772-ac25-f3cc9e0882bf
31fc59dd-91e8-49bf-b2ed-9e9f3e2e7c2c,a3cf34da-230f-45bf-8513-3a93acfa5d8e
c60f19cc-90d7-4b19-843a-016eb6a8bf64,f93b2960-e5c4-4772-ac25-f3cc9e0882bf
748f77c5-1c16-4315-81d6-e715ee3ea667,f93b2960-e5c4-4772-ac25-f3cc9e0882bf
e309561f-9740-43ce-81af-12690e28c34c,f93b2960-e5c4-4772-ac25-f3cc9e0882bf
db6300a8-1ed7-4855-a461-75d1b38608e6,5854e69a-27d9-4967-afa3-b4216c20f5a9
102ee80b-59a4-4eda-a641-6a2a5eb6c5fa,47ca5dfb-9d29-401f-9adf-2004e9348b2b
6db2a823-f87e-4fba-8698-a06afe1806cf,ebfe1d8c-cd72-44d6-83b7-a1468be2d06a
c8a32728-58f1-4850-8fb3-e54f3fd114b5,ebfe1d8c-cd72-44d6-83b7-a1468be2d06a
4ea187f4-4033-4946-a364-4d8d37b4624f,0f814d98-b845-49b2-b89d-fe8af5b6b08c
a0fa056f-1055-4495-9aa6-6f7341469c30,37ac7565-9f87-4b21-8f46-2cd6fed70a67
d4192143-5d7e-4a49-8093-a4e204293261,3a290ed3-23f0-4d18-8d3d-138f0a71b7e0
938158e8-68cf-42f8-a060-65e914d10f53,471aff52-4526-4c6c-bdda-a37d130e048c
cf6dad45-c49b-4b9e-abcc-8fb463575352,471aff52-4526-4c6c-bdda-a37d130e048c
210fe8e3-d841-405b-886d-9fc063a73254,2cac0e42-7b22-4e14-a5d1-6ed052d06c50
bfa88e31-cc3e-4fa8-a336-ba6edda22557,ef6f93f7-73ce-4246-ad0d-47e5e94ade07
b2f28d7e-8747-4849-bf8e-a5342cfa4b5e,61ce627f-726c-4170-8710-ef875556ba6b
fae2aa14-e4f5-49d0-8876-527095ff37b6,ef6f93f7-73ce-4246-ad0d-47e5e94ade07
ac452d54-a5aa-465c-9c76-6509e67dc0e6,039e3fa4-dcbe-436f-bf8a-9e55c2deca89
722270ec-cad5-42b0-87f5-c2de352fd5a7,00388825-e608-4a44-986a-c7f2e5708653
2edc292b-61fd-46bf-9f4f-f0616272974b,039e3fa4-dcbe-436f-bf8a-9e55c2deca89
c08e4176-8531-425d-9a32-b083aa944dd1,ebfe1d8c-cd72-44d6-83b7-a1468be2d06a
c6d3686c-b779-4bab-985f-221b752d9b40,5916a97c-f1a3-4f39-8d4f-9707dd8484f0
bdc86449-04cd-47fa-ba38-ccfbf2c72ab0,ebfe1d8c-cd72-44d6-83b7-a1468be2d06a
2613647a-0df2-4e00-a242-d0c8a7034a15,6a3aa692-9474-4042-84fb-6b2ed5d0d441
98696200-888c-4ebb-8db4-bc6c8f44ae58,15268ea1-b98c-4cf1-a0b7-0d63ccf7a085
697c715d-ec0e-4c54-bf9c-961d3f1f82f0,6a3aa692-9474-4042-84fb-6b2ed5d0d441
2cb2cb22-67f8-49f7-a3a5-cfc1346c11a5,039e3fa4-dcbe-436f-bf8a-9e55c2deca89
725c786f-0768-4efa-9487-4e8ec43df7fe,1682b8d3-8752-4f14-ab5c-fec294f760d2
e5ee55ac-d9b8-4a33-8bb4-9d7918f05769,039e3fa4-dcbe-436f-bf8a-9e55c2deca89
6a726880-777f-4579-b544-47e7d5fac13b,e6ac8c5f-daa6-4644-946d-54a0295694aa
4cff937c-024e-45f4-acb3-5a7bdba7954f,b2fe9b53-9cc1-4e15-952b-5351f397b0d1
0c4e8dca-c5f2-43ba-ae32-da5bb8bf96a6,0f814d98-b845-49b2-b89d-fe8af5b6b08c
cf3744be-84d9-4e5f-b2a3-61d84cdffadf,aff4ab60-73eb-400c-8214-399918f1bf94
fc05f992-b5af-492b-b61c-ff598f9b4aba,6a3aa692-9474-4042-84fb-6b2ed5d0d441
2ef9d323-7e7e-4204-a274-b6e19837d769,6a3aa692-9474-4042-84fb-6b2ed5d0d441
d014f4de-e5dc-4237-9494-a32f5731a275,30c7cb43-c5c6-403c-9dd1-36bfc76962da
7a986835-57c8-4040-a2f9-4a171ae53751,83d03b0d-eaf9-4a23-bfe2-da48966b0bc9
6b22ea8d-409e-43f6-8034-2ba8ded4d4a7,30c7cb43-c5c6-403c-9dd1-36bfc76962da
6e6aa494-6118-46c0-b878-8df7561e5eac,ed00bee3-06d8-4c3d-8f89-ebd92c550296
0047d7c1-d729-4cde-af3b-84071c42b323,039e3fa4-dcbe-436f-bf8a-9e55c2deca89
97e68410-e2d9-45b5-8110-78159f4ec37a,039e3fa4-dcbe-436f-bf8a-9e55c2deca89
83877304-7db9-4238-a30a-e37957d45102,ba294a5f-b1a3-4472-b4a2-34ef5428dc4e
1ed6c37d-974e-4345-8211-97a45216b2e1,ba294a5f-b1a3-4472-b4a2-34ef5428dc4e
3b8e8973-3db2-4c54-9d60-85c286aa4969,8c6d8440-be11-4e49-bcc1-f1694dc4d5a8
96e6503c-303b-4b54-8138-8f757d01c7a5,0f814d98-b845-49b2-b89d-fe8af5b6b08c
a447bcfb-a0c2-4e88-843c-faae66457114,fe0ce811-4f3f-4e42-bb34-7c1b7124390d
5bb4eb39-a43d-4290-aff3-174f473f244d,0f814d98-b845-49b2-b89d-fe8af5b6b08c
e0a0aad1-e015-4882-aec0-64fac9dd15fb,2da3be0f-916f-40cb-b9ba-d5a71f5ad709
f75b0e07-9f9e-457f-bfed-6b73e72daa53,dbe607a9-4a27-47aa-98c9-582e0120dcf9
74d88342-43e4-4dd4-9cce-19d24c39c9de,2da3be0f-916f-40cb-b9ba-d5a71f5ad709
18936a93-3388-456f-b939-344e71be4bb5,bca72e4b-11db-4961-a9eb-7f3b8db4e814
93e3bdfc-d145-4a49-8258-1c93c95cd947,8c88a0c6-31f2-4699-b25b-318003263bb5
ae37d976-e316-4057-8553-5556f68f704f,8c88a0c6-31f2-4699-b25b-318003263bb5
7c1ff02a-81a3-447c-b588-cb421fa61d16,33de2d8a-664d-493c-844d-bbec3096e7eb
1dba115e-a9b2-4115-b3a1-be1239ca8146,ba294a5f-b1a3-4472-b4a2-34ef5428dc4e
69014be1-2ef2-4a8a-9467-66d435052128,ba294a5f-b1a3-4472-b4a2-34ef5428dc4e
4f5ee167-b0cd-4bec-a44f-9abd1d36bfd9,e64482c1-55cb-4667-9310-f810e349ad6f
f3ba0cf6-3316-46ce-89fc-eaed77973086,b2fe9b53-9cc1-4e15-952b-5351f397b0d1
045856fb-31ce-4706-95f2-62b0e1e178e7,b2fe9b53-9cc1-4e15-952b-5351f397b0d1
84c77c61-7692-4226-b1cc-33c299eb4d2f,0559c404-bfba-4ae8-b083-c2b07aab7d29
0fa5b200-4386-4bea-ae8f-4462285f6cb9,72a769a7-a023-43bd-8de0-42b58887a2b8
0eaab3fc-1a79-43c2-a628-3b902ab93f27,72a769a7-a023-43bd-8de0-42b58887a2b8
91cf2a70-5e52-4d5f-965e-4246f5fdaec9,ba294a5f-b1a3-4472-b4a2-34ef5428dc4e
1b9cd224-3210-4378-b415-3ba27910c222,09296f79-02c4-4550-9c69-39c10002dea9
f44d02e7-1931-4143-a3e6-21943463e7cd,ba294a5f-b1a3-4472-b4a2-34ef5428dc4e
fd9d98d1-e48d-470c-bc4c-72e7bca97799,7f3620b1-d485-4ee1-b2bf-5aaba58e36ba
e2817e86-3951-4ff3-b00b-cc8ff6c2e14b,72a769a7-a023-43bd-8de0-42b58887a2b8
62a0dea7-54c2-4fc9-a879-1eb42c323094,72a769a7-a023-43bd-8de0-42b58887a2b8
0114f981-eff4-4051-8785-47ad80d4864c,47efc877-977c-4f8a-b7c6-1d781ad7831b
8d3b7c5f-5bbe-4543-8ebb-a36f84aea7e1,ebfe1d8c-cd72-44d6-83b7-a1468be2d06a
78ae01fc-200c-47bd-a9b9-fbc0fb0103a6,ebfe1d8c-cd72-44d6-83b7-a1468be2d06a
9403fa44-c596-4c8e-b8aa-c9726fc6e023,2da3be0f-916f-40cb-b9ba-d5a71f5ad709
ca48e142-d124-4994-bfeb-52a15c6a33e9,2da3be0f-916f-40cb-b9ba-d5a71f5ad709
63493894-fda7-4a4f-b6f1-bb3ca368d11a,71af2163-1cae-4d83-8b42-2ba0ee237272
b3e16ab0-77ce-4ba8-905f-cea77aaab605,0f814d98-b845-49b2-b89d-fe8af5b6b08c
b9878443-4669-4c9e-babd-ad889eee6a4f,0cad466d-96ad-4ac5-9cc2-86271e383bf1
b586c0af-ab2a-4768-8728-4f0ce63f81c7,0f814d98-b845-49b2-b89d-fe8af5b6b08c
5ae9cdaa-c19f-4e60-b8f7-8980b329467d,dc667ec1-b608-417a-86a0-706ab225538d
5ee664c7-e530-4cf5-9545-8e1d3512806e,72a769a7-a023-43bd-8de0-42b58887a2b8
3505b86e-d235-4fe8-8e10-8f2f78de399e,72a769a7-a023-43bd-8de0-42b58887a2b8
b76de7ac-07be-43bb-bb6a-5f4e7d9955e0,0f814d98-b845-49b2-b89d-fe8af5b6b08c
752fa00e-7e1a-4709-97a6-819c0ee37f94,384cbe49-6268-4471-ab5b-9d146d40d7cb
559b7c98-4718-4054-94ca-bdbdc2235fb7,0f814d98-b845-49b2-b89d-fe8af5b6b08c
20f240be-eefe-44bd-bba5-9a8d684e4282,43683dc3-d87a-4259-9006-a9929d3103f6
77a01811-3a52-464c-a693-bd56a7a8d594,8c88a0c6-31f2-4699-b25b-318003263bb5
96cc6507-5838-4964-a77e-31afb0071b26,8c88a0c6-31f2-4699-b25b-318003263bb5
0b9be6cc-9dd9-47cb-b579-e3becec2eb07,8c88a0c6-31f2-4699-b25b-318003263bb5
3920e688-dceb-4290-af6d-19dcf6dd137a,dfa5de8a-4c49-44f9-ae68-5c6f08ac8be4
0e51740e-3376-4c36-97be-4f35d31321a5,8c88a0c6-31f2-4699-b25b-318003263bb5
42d783cc-c85f-453f-9c2b-d8bead9a8c1e,e3378f85-b428-45f2-9768-866c2313f62c
34f0ea47-249d-4d31-84af-5d7aa3f571e3,b2fe9b53-9cc1-4e15-952b-5351f397b0d1
7c672d38-9999-49e6-8aa6-fe57d808edf9,b2fe9b53-9cc1-4e15-952b-5351f397b0d1
dc5667fd-bd71-4cb1-ba47-71b7c6927a5b,06546693-41b6-4dcf-97a0-4a815eb998fd
84eab09f-de11-419c-b61e-222ea6fca6e0,471aff52-4526-4c6c-bdda-a37d130e048c
14bdfa0f-79df-435d-b436-49d8c021a7de,471aff52-4526-4c6c-bdda-a37d130e048c
