node,ip,uuid
node-a8-199.grenoble.iot-lab.info,172.20.64.1,f927bfa9-c2f1-4182-881d-fccfe4fe4f2d
node-a8-200.grenoble.iot-lab.info,172.20.64.2,5e88a58c-0e04-4f37-884f-d2401e7a5334
node-a8-201.grenoble.iot-lab.info,172.20.64.3,72b4de86-cadf-4c24-a46b-ccd0be28f705
node-a8-202.grenoble.iot-lab.info,172.20.64.4,27cfb2d4-4146-4ba0-8f74-c782d4d6c1cb
node-a8-204.grenoble.iot-lab.info,172.20.64.5,ac064ae1-bf6e-4597-a8cf-b6d2dcc911c1
node-a8-205.grenoble.iot-lab.info,172.20.64.6,43db7a3b-77d8-42bf-ac7d-811e5ba77876
node-a8-206.grenoble.iot-lab.info,172.20.64.7,0e5d0451-9823-4c0b-a1a1-9a5d2f14502d
node-a8-207.grenoble.iot-lab.info,172.20.64.8,cf97052b-e681-4925-a38f-8c6aa5a5d776
node-a8-208.grenoble.iot-lab.info,172.20.64.9,53ee7842-c341-4674-b1ef-a20eebbe9cf6
node-a8-209.grenoble.iot-lab.info,172.20.64.10,09ea5884-be62-4753-bd4c-b8d172589086
node-a8-210.grenoble.iot-lab.info,172.20.64.11,a823c370-edce-4522-b4fc-078353e1133b
node-a8-211.grenoble.iot-lab.info,172.20.64.12,e5c0486b-372c-4cbf-9776-cdc8c9827eed
node-a8-212.grenoble.iot-lab.info,172.20.64.13,a3711588-1a14-4b78-998e-1ae2fe10e024
node-a8-214.grenoble.iot-lab.info,172.20.64.14,dd2c622d-8c5d-4c68-88a7-2f561d80e772
node-a8-216.grenoble.iot-lab.info,172.20.64.15,930c7957-9126-4676-bfab-1a5a1648de01
node-a8-217.grenoble.iot-lab.info,172.20.64.16,87e93b82-ebf8-4dc2-9692-36e43f486ef0
node-a8-218.grenoble.iot-lab.info,172.20.64.17,9b3d1857-ab92-4a2f-a714-f1c673fcfc4c
node-a8-219.grenoble.iot-lab.info,172.20.64.18,1948cbc1-6403-4079-b356-4b15d0c0d434
node-a8-220.grenoble.iot-lab.info,172.20.64.19,4e5704ae-897d-44ad-8cad-33d9fb114f02
node-a8-221.grenoble.iot-lab.info,172.20.64.20,e2c1b765-519a-4709-88b4-c81fd22d59f3
node-a8-165.grenoble.iot-lab.info,172.20.64.21,63572d5a-54e7-49f8-b51d-a0e25219cab0
node-a8-166.grenoble.iot-lab.info,172.20.64.22,a29583b0-d2ae-45f6-9805-af089a3a1da8
node-a8-167.grenoble.iot-lab.info,172.20.64.23,c4d59f3e-a105-411d-aa81-375c5d4968fc
node-a8-168.grenoble.iot-lab.info,172.20.64.24,4c8d6fff-414d-4efd-a2d8-10ffa4c0f4a0
node-a8-169.grenoble.iot-lab.info,172.20.64.25,4e6fa5b6-3b19-4131-8966-8ecb0e399452
node-a8-170.grenoble.iot-lab.info,172.20.64.26,acffd3f4-6cb1-480a-ba39-30c8a1a6aa72
node-a8-171.grenoble.iot-lab.info,172.20.64.27,4c3eb68d-d56b-4547-a354-ed008d0ee738
node-a8-173.grenoble.iot-lab.info,172.20.64.28,2d73ffc7-a09e-494b-8b05-c285a7670cce
node-a8-174.grenoble.iot-lab.info,172.20.64.29,f5dada4f-07ac-4eb0-8a28-fdc646d01ca5
node-a8-175.grenoble.iot-lab.info,172.20.64.30,e4e4bc20-637b-4a59-ab63-6407526b0407
node-a8-176.grenoble.iot-lab.info,172.20.64.31,3fba737f-54d6-47b1-9815-59a2f4678404
node-a8-177.grenoble.iot-lab.info,172.20.64.32,47077bc9-e6fc-4b57-ab5a-d3c7933fb777
node-a8-179.grenoble.iot-lab.info,172.20.64.33,b91fa63c-5ed2-45ff-bfbe-580070709eda
node-a8-180.grenoble.iot-lab.info,172.20.64.34,ac62629a-ec8d-4e1c-831f-acbd2c75655d
node-a8-181.grenoble.iot-lab.info,172.20.64.35,dacd3360-66dc-44ab-b338-754c43e6a778
node-a8-182.grenoble.iot-lab.info,172.20.64.36,45d9f2ad-c554-4415-9b83-d0bdcb4bb71e
node-a8-183.grenoble.iot-lab.info,172.20.64.37,598f90e6-a93d-46ed-b8f7-3bd7c2f14a47
node-a8-184.grenoble.iot-lab.info,172.20.64.38,9c63a39a-6b55-4fd8-a74e-cbcd9f3460c2
node-a8-185.grenoble.iot-lab.info,172.20.64.39,c30adf43-52c7-48ec-b900-a997ff66e173
node-a8-187.grenoble.iot-lab.info,172.20.64.40,7e1acda7-b02c-43f8-b1d8-25a84de32a9b
node-a8-188.grenoble.iot-lab.info,172.20.64.41,afbdd4e9-d65f-4bd4-bfba-50b28ede133b
node-a8-189.grenoble.iot-lab.info,172.20.64.42,31b60887-b29c-4f6e-9082-7793ca10b64f
node-a8-190.grenoble.iot-lab.info,172.20.64.43,8456f188-626d-4f43-9ea5-ded0427a4ed5
node-a8-191.grenoble.iot-lab.info,172.20.64.44,62fb33af-90c9-493c-b282-07ec36c1fe58
node-a8-192.grenoble.iot-lab.info,172.20.64.45,be7d83ae-1adf-4219-958e-c0bbbba1fafa
node-a8-193.grenoble.iot-lab.info,172.20.64.46,bd467ff3-ce85-48da-a90e-0df7431d2998
node-a8-194.grenoble.iot-lab.info,172.20.64.47,b3fa998a-0c66-4d43-a39c-92d62b2a90f4
node-a8-195.grenoble.iot-lab.info,172.20.64.48,6256ca70-e522-43a2-94bf-a33d357dbcb1
node-a8-197.grenoble.iot-lab.info,172.20.64.49,b39b2d6b-5e51-4d82-8dc5-5979dd034e09
node-a8-198.grenoble.iot-lab.info,172.20.64.50,64621bb3-d706-4f9e-af6b-aff8cd9bb667
uvb-26.sophia.grid5000.fr,172.16.132.26,5c82e86a-51e5-492e-94bb-871ea0a898d7
uvb-29.sophia.grid5000.fr,172.16.132.29,d6cd9643-8b79-4147-8c58-c7ec1d7a4f86
uvb-31.sophia.grid5000.fr,172.16.132.31,37aae94a-cca0-4ad5-ab52-ee904d5ea70b
uvb-33.sophia.grid5000.fr,172.16.132.33,6bd6af6a-e3ae-46fc-97ff-1dcf9a1d1478
uvb-34.sophia.grid5000.fr,172.16.132.34,34dbb8e9-a117-40ff-ad96-214e1f579699
uvb-35.sophia.grid5000.fr,172.16.132.35,f8a95090-f955-4654-942e-f5170ad4b9b0
uvb-36.sophia.grid5000.fr,172.16.132.36,cea8fdc5-9b2d-4633-a257-0df18be17146
uvb-37.sophia.grid5000.fr,172.16.132.37,bd05cad5-7fdd-4495-8198-fbb94114d650
uvb-38.sophia.grid5000.fr,172.16.132.38,8d75e0e6-8a55-420c-8450-3e0b561e299e
uvb-4.sophia.grid5000.fr,172.16.132.4,dd65a92e-e0d0-456b-9d33-73c9cf071210
uvb-41.sophia.grid5000.fr,172.16.132.41,a923059f-5d73-4359-8aa5-80dedeff9022
uvb-42.sophia.grid5000.fr,172.16.132.42,accce943-614a-4e0c-bb7b-5e7380298d54
uvb-43.sophia.grid5000.fr,172.16.132.43,32032bd2-edeb-4224-b557-0e2202906699
uvb-44.sophia.grid5000.fr,172.16.132.44,4bef3569-a346-4a5f-89d4-2cb4b17c5107
uvb-5.sophia.grid5000.fr,172.16.132.5,d0ea0de4-2693-4ec9-aed7-0bf7abb58529
uvb-8.sophia.grid5000.fr,172.16.132.8,28132d7a-a721-4622-a1c1-b1042dfd6198
