actor,node
6101ec88-9afd-4988-b413-70acb457cff8,66bc7aa6-937f-4f83-804f-7c3028696b49
665736be-274c-4aad-9d48-13cd163cd851,e227207b-15ba-4b94-bc1c-680b7a770c9d
15afe33d-c9e9-49ea-92c7-03d0876e3dcb,e227207b-15ba-4b94-bc1c-680b7a770c9d
9f7f5d64-6491-46b9-999b-97e5e5e01b7d,e30d5983-e984-4d1a-b302-d334f445039c
67cef8b7-a431-4cca-a55e-66ed964e2cfd,fcd6b4ec-5f0a-4d55-9fab-ac131d6f06b6
2fe0120a-46f2-4c58-bb9f-fbbc3a2b35b2,fcd6b4ec-5f0a-4d55-9fab-ac131d6f06b6
b5963565-5c5c-4669-a40f-165fe8512a9f,e227207b-15ba-4b94-bc1c-680b7a770c9d
65275faa-7eb8-4b15-9277-1b5c4fd84398,e227207b-15ba-4b94-bc1c-680b7a770c9d
8ac4d088-f484-4cf5-913c-78450b51d55c,9476ea45-404e-4ce6-a89e-6cc715f47175
2f743279-c966-4b05-b77c-2f172e9f5a26,fe80face-c632-46f0-b0c5-d6cbb08e0360
4c5edc93-5912-4548-ba6c-76ee04a1945e,b43f7be8-ce15-4af8-bc4a-3004d99a0604
3d56b620-be23-43bd-9309-4ec7d699b1fc,fe80face-c632-46f0-b0c5-d6cbb08e0360
83e0a0c9-26a5-4611-bd43-3d2836abc04f,a8f190c9-572a-4512-a3a0-0fe28cc0620f
03ead825-4c86-4d47-8853-6f8ba13b782b,a8f190c9-572a-4512-a3a0-0fe28cc0620f
bfb7b487-794b-4b7e-b7e9-092917e80489,c1a64423-90b4-4be3-8efc-3e1960773576
9fe50474-9a92-40f8-affd-2d17779ad7a8,508d2a04-2205-48cc-9bef-260577234ee9
b6ef3b45-8fc7-4c8e-9865-15198b9c741e,508d2a04-2205-48cc-9bef-260577234ee9
b410c55d-f6bc-4a2f-8619-cd98b354e95f,fdaba55f-1131-4072-b69b-44eeb3211b69
c13fddb2-8ed1-46fd-b375-95779731c5bd,30d82fb3-aa9b-4aa2-98aa-22b5b4e1823e
b635486f-0253-4787-ac99-5be55f6d065e,71927c99-8c58-4146-a056-e93e0dab1bca
3bf7c3c4-34f9-4d47-aac3-f63b48ca9c17,71927c99-8c58-4146-a056-e93e0dab1bca
153e34ee-ed93-478a-893b-e5129e159915,403d6fda-665a-4acb-86af-9374a3258008
c4e230eb-35be-4fa6-a3b6-4de157242de7,403d6fda-665a-4acb-86af-9374a3258008
f330299a-d229-4cfd-9b55-848d69a342c9,5da97c70-34ef-43ad-80fc-000e63cf0ea5
f1ab7b0f-991f-4d86-a67b-26932583ed2f,403d6fda-665a-4acb-86af-9374a3258008
711a95dc-edb4-4064-ab82-8c048dd882c0,fb2eb07e-0245-414e-8327-576811011919
22771b70-96b8-480c-8b58-7c4bb5b08ae2,403d6fda-665a-4acb-86af-9374a3258008
963d6eed-58a8-40f3-ad26-7d1e91dc1edb,508d2a04-2205-48cc-9bef-260577234ee9
fe7c35a9-d175-4068-85af-dcc5366f24d8,508d2a04-2205-48cc-9bef-260577234ee9
89d4845a-bb3e-491c-8405-3b42cbd53d9e,64a68000-c0af-4d1a-831b-e972dfa7e475
f6401fd2-b744-49a6-b925-500e2a8f2fc6,86a61667-9564-488d-b4f6-e7e67cfc5430
7385447b-a572-4e40-aa99-18a539375538,4d39dea8-668d-4232-adbf-29a75e8a609c
45572f69-9845-49ae-95f5-d3cf2b47bcd8,4d39dea8-668d-4232-adbf-29a75e8a609c
92685994-1a09-401b-be50-fb809c4e542d,17607db1-9aed-4900-841e-a6f9cd6388e8
dd8cb5d5-1978-43f8-9bfe-3d29ac1b7890,1865aa8f-4b47-45db-8c24-a8cac13faa18
08b4481c-cd2a-4ace-b04e-b86b2ab7e136,17607db1-9aed-4900-841e-a6f9cd6388e8
235536ac-d801-44ad-b42e-d75bb05db542,596f49b5-7470-41bf-9fb3-1aa0dd237146
e39dbcc0-dd71-47bb-9f4f-b104095775c8,17607db1-9aed-4900-841e-a6f9cd6388e8
f30916cd-5166-4b17-a4e3-ae8944489ec6,17607db1-9aed-4900-841e-a6f9cd6388e8
a5758016-f1b9-4f35-9754-b624cd8527e2,34f8584b-349f-4468-ba23-de8d9c7ca108
4fe2d8c7-a844-4787-8883-cbb7a74d8c1d,4d39dea8-668d-4232-adbf-29a75e8a609c
1943aab6-17ea-4759-b4de-462616d0391b,4d39dea8-668d-4232-adbf-29a75e8a609c
f60402bf-d2c2-4c48-b625-7646fc2b2479,a8f190c9-572a-4512-a3a0-0fe28cc0620f
d37af6ba-6aec-407f-af20-82c2da8da8a9,a8f190c9-572a-4512-a3a0-0fe28cc0620f
27282b6c-a739-49ef-8c1a-fbb7255cace5,3c7d014c-2f10-42a7-a041-ec6f40c752e9
220fd2ce-c380-4da7-a598-c35e7c4efd1a,71927c99-8c58-4146-a056-e93e0dab1bca
10c4ffd1-3110-4372-90ae-5628d36bc829,dbe5c47f-146d-46d9-8292-b7fd74ba87cf
1bbb5c9b-ca4a-4034-a8aa-6d71cc4b4b43,71927c99-8c58-4146-a056-e93e0dab1bca
ae53124c-5cc7-4853-96a5-f8b29a36fe0b,e7aff763-8cee-4e97-a001-a682e80134a8
8c1eca69-96ae-460b-974d-c9fd69c001a8,4d39dea8-668d-4232-adbf-29a75e8a609c
7c7ff476-b06d-4cf7-a8f1-058b61818495,4d39dea8-668d-4232-adbf-29a75e8a609c
bea0886f-c6b1-4f6e-b11c-0047a412a222,0266bcf3-5f9d-4643-99a9-9e1a17e7e392
ecb98fc1-8e72-45a8-9dab-74cbf7c9a6b7,5a607f75-cf70-4145-a034-e20efade9252
fd326098-f9aa-46ec-9075-4b9497cb56d1,0266bcf3-5f9d-4643-99a9-9e1a17e7e392
fa314f60-7bd2-499f-91c5-1ef0e5df97ea,25b3d807-23ee-46b4-a6d6-ebeebd40e842
0bab5897-dd8d-4a64-895e-12ae73bb7c4e,c3fcf5fe-c34d-4418-ad85-995fc14e315f
758dbe4d-4c25-4830-97ed-32814eb29698,c3fcf5fe-c34d-4418-ad85-995fc14e315f
25e928c3-9e7b-4e75-a7ba-1d07a821d4a8,ddcc12c4-58c6-47c0-a18d-244850841b26
d85f1cac-c472-43c5-bef7-a133497591cb,4459aff2-6f2b-4def-8518-443e6b8e07d3
b3f454c6-e972-486b-a834-fe31de28562f,4459aff2-6f2b-4def-8518-443e6b8e07d3
62429da0-1539-4776-9003-05a6aeb35ccb,e860e3f8-f6e1-4d34-9225-a7e5e116243f
c2a655cd-5363-4ba3-8081-9a5bccfaeffc,4459aff2-6f2b-4def-8518-443e6b8e07d3
5e34751b-9ea6-410a-bf22-c5b1ce1de1a0,4459aff2-6f2b-4def-8518-443e6b8e07d3
f7e6f20a-f756-4da4-934a-de734dfa385a,4459aff2-6f2b-4def-8518-443e6b8e07d3
68b2126c-e2bf-4452-bb86-ae2aa3ca2396,84393043-8ed0-4267-a8bf-d72df59ea8b6
077b824d-9480-4239-a1b0-62b6fd738ba8,c3fcf5fe-c34d-4418-ad85-995fc14e315f
0cc8834c-192f-44fb-bdd6-eea7ed6dc105,a659beca-0c1e-4e61-bbaf-f2ef72893249
e013aed7-049a-43a2-9488-0729d28032be,83946186-399f-4863-9668-1f5ea53bffcf
24b97edd-4590-4f23-a93e-722f5f6bca85,83946186-399f-4863-9668-1f5ea53bffcf
15baea64-ef13-4452-b040-9ed198fac36f,83946186-399f-4863-9668-1f5ea53bffcf
9f0ea151-1b8d-40b1-bee1-ab2c592d9304,5d647780-f586-41a3-8e1c-b77a5416b1c8
7a5c3a87-c62a-4d34-82fc-cfd8f9d20401,83946186-399f-4863-9668-1f5ea53bffcf
5bf763f6-6278-4481-98b2-7603e332558a,83946186-399f-4863-9668-1f5ea53bffcf
3b989da8-b76d-4097-98c1-2f42a22dc594,83946186-399f-4863-9668-1f5ea53bffcf
9b627c38-9814-492c-bdfb-5645ae8e513f,eb2721bf-5c78-4c87-b965-961a3d41ffb2
13a57177-3560-4cca-8eb9-9549dde1a2d8,c3fcf5fe-c34d-4418-ad85-995fc14e315f
174a1bec-5281-4a4d-a4e5-8134f26fe5d4,7100fa6e-4055-4df3-b240-e3ef8d90940d
dfbad84d-5c02-4993-a6bf-1acb01caa49c,fe80face-c632-46f0-b0c5-d6cbb08e0360
ed72ea09-2af8-4063-9265-bfb4b0bce7e4,9ec17f03-5679-4d56-bd5f-569a3dc8de7d
d2223c90-e9c6-402f-b8b3-ea364763ca80,4d39dea8-668d-4232-adbf-29a75e8a609c
3cf9df8a-bdec-4df8-a156-a467a479a95f,4d39dea8-668d-4232-adbf-29a75e8a609c
480b0429-962a-41e4-b656-5cc7e6e476d2,83946186-399f-4863-9668-1f5ea53bffcf
d51b35c4-c890-4e2d-a4a5-1868e7ff0ca9,35de30d0-6c07-4e04-a507-03d499b260cd
8f96f35f-ce17-4ee1-8fa2-130bf861502a,83946186-399f-4863-9668-1f5ea53bffcf
e8597073-649c-4224-9dfb-61b6a5205896,fe80face-c632-46f0-b0c5-d6cbb08e0360
570cc6c3-3646-4571-b720-7a04ad5fe81b,c3fcf5fe-c34d-4418-ad85-995fc14e315f
ee0cec72-d5c1-4dea-bc5e-aad836cf6067,62b174cb-22be-435e-bed4-6f8290a0c021
e4a71fa4-7908-4999-8e35-3266c3cc1183,fcd6b4ec-5f0a-4d55-9fab-ac131d6f06b6
73fdf3bc-2047-4f1b-9249-b36e9bce1fc9,fcd6b4ec-5f0a-4d55-9fab-ac131d6f06b6
11dfdc65-fb99-45b3-a7bc-845d1cbe9eff,7de4e357-fe95-4162-b98a-163b3b96fd32
4615bc54-209b-4de1-b598-fea3e69f5dc4,83946186-399f-4863-9668-1f5ea53bffcf
e6b9bc1d-39b9-4000-a958-543058859dd0,83946186-399f-4863-9668-1f5ea53bffcf
518d7e88-c4ef-42c9-b18a-47b65ac6cf4e,801a78af-9d59-427f-bb59-79a60e234db9
2500b913-7238-4301-96d0-00ab3baa545f,a1c83632-de6d-4383-9499-64f3ff1725b2
ed3c5f0f-9617-4819-a2f9-8147eb767b1e,0266bcf3-5f9d-4643-99a9-9e1a17e7e392
bcc1f038-02bb-4ff0-b3a3-7b170cdcd684,0266bcf3-5f9d-4643-99a9-9e1a17e7e392
d9c364d7-544d-4bdf-a957-2429b8e1f8a6,c3fcf5fe-c34d-4418-ad85-995fc14e315f
ad2d88d2-8245-4441-8c92-34b0156b1d46,c3fcf5fe-c34d-4418-ad85-995fc14e315f
0deb2117-c8f7-47e1-80db-6a60eb9d5f1a,8e11b087-ccac-414b-9bcc-814b75db95f9
dc068ddf-b610-4d7c-99f9-f58c27bb3ba3,7b90b732-3ba8-4c97-ba70-1738543bfd03
b8875be7-0046-458e-8691-4719b47467d1,a2816275-bb1f-41d7-acfb-cc89a98bbb35
1c7aaae4-a8b3-4b75-9089-cba938fdfb98,7b90b732-3ba8-4c97-ba70-1738543bfd03
e20b6a4a-c2cf-4031-8ec7-8c2b3b606812,7b90b732-3ba8-4c97-ba70-1738543bfd03
89c04f36-a47d-4757-873d-6a9d1a8a5bcd,d83e9a29-fcc3-4887-8dcf-4cf5a3ab051d
b03853b1-1659-4418-9dcc-301cd41fd4fa,7b90b732-3ba8-4c97-ba70-1738543bfd03
87ebc0b6-185c-4694-9c46-04818a536164,e7d33b46-4807-4eba-b381-e930c8db57ed
75cb2528-6561-44f3-a217-9922d4387d98,4459aff2-6f2b-4def-8518-443e6b8e07d3
a2721a67-81d2-4cb6-a4f5-6cec9527a977,4459aff2-6f2b-4def-8518-443e6b8e07d3
71a28f70-3ff3-41a5-bd12-4c4020bf7da5,ba06795a-5422-49f9-aa78-24358c43b0e2
22c00ec8-172e-4815-b406-a629983fae39,0266bcf3-5f9d-4643-99a9-9e1a17e7e392
839d211c-415c-4c76-a0f8-406afe724bec,0266bcf3-5f9d-4643-99a9-9e1a17e7e392
e0d4ff3c-04e9-41df-9fe0-30ac81915258,a8f190c9-572a-4512-a3a0-0fe28cc0620f
1c13a7c4-1da4-45cf-a6a7-6643f37f18fe,a8f190c9-572a-4512-a3a0-0fe28cc0620f
42efafd6-8baa-47a0-a42c-ab0eebfb1784,d6de7c5f-1ec0-4f1e-a4b0-4b5a1b298487
ca2329d3-9190-4245-b4df-904102ee9a7d,7b90b732-3ba8-4c97-ba70-1738543bfd03
a36a26d2-5338-4539-9753-d4ce85c8171a,b70f3a3c-682e-49f0-989e-0fe6fb20cafe
96bd7716-c6f8-4775-8e93-35a571cc59a3,7b90b732-3ba8-4c97-ba70-1738543bfd03
f89a7260-ad87-40c6-be83-be846f2692e1,7b90b732-3ba8-4c97-ba70-1738543bfd03
5922cc16-59e4-4e6d-885f-e125483b6306,7b90b732-3ba8-4c97-ba70-1738543bfd03
aa4afe0a-d1eb-42b2-b6a7-cfc94e70f2db,2425e86e-ba68-47e6-80b1-98c5c91eb660
7a881fea-b6cb-4716-ba32-7257d72d8f5b,872a7975-145e-40f2-8177-3e5e552badcc
5dcbaf13-581d-41f1-86ec-6d0d27bb9ca7,4459aff2-6f2b-4def-8518-443e6b8e07d3
c68169f9-55cd-4536-863a-f30db2b4bfbe,4459aff2-6f2b-4def-8518-443e6b8e07d3
0e0ccba7-afdc-4d04-8151-c48b29ff1353,a8f190c9-572a-4512-a3a0-0fe28cc0620f
4d5533cf-92cd-407c-a634-e8d16e1ad495,a8f190c9-572a-4512-a3a0-0fe28cc0620f
b94a7816-14a7-4c04-a5f3-e9e44f3f3836,2488c4f4-2036-4297-af8f-c4d08a13c7a5
40c5330c-633e-47a1-9b29-9a03258f3c9c,90757aff-6879-4698-ba14-bb010fd51067
c7a43f26-6221-4a82-83b4-195a2c5b6b98,4459aff2-6f2b-4def-8518-443e6b8e07d3
73417c88-1854-45a0-9e89-558b1870d391,4459aff2-6f2b-4def-8518-443e6b8e07d3
0154d3c6-829e-4192-afc6-67e00c02fc80,e227207b-15ba-4b94-bc1c-680b7a770c9d
d7e9e4ad-7063-4291-9725-2f9632dba843,869db48a-a799-4fd3-8520-e13bf5329120
f1f958f6-3245-4fb2-ba32-e3a70ae4a62e,e227207b-15ba-4b94-bc1c-680b7a770c9d
854b84a1-74ae-462b-8676-7c6f4ecdc85a,d77e1af9-2afc-4b17-922a-7aabaa2178d9
ad1fc5ef-40ed-470c-9b63-d1f665dba8c2,fcd6b4ec-5f0a-4d55-9fab-ac131d6f06b6
faaa46be-4d25-4789-9f6d-aa61238aa182,fcd6b4ec-5f0a-4d55-9fab-ac131d6f06b6
c8987aef-d331-43ec-b173-4e2c4a52ed9b,e227207b-15ba-4b94-bc1c-680b7a770c9d
e7ceae6e-1e9b-48db-86ac-fe887d875970,e227207b-15ba-4b94-bc1c-680b7a770c9d
067a8254-27c8-4d49-8f57-46be28cc3177,51503904-df1a-405f-8f19-1a66c5b9295b
850cf882-2aca-4bf5-998f-734d7dc5836e,cd55ff61-39d8-4ac7-bc8b-ddcc995c900b
6d1982a8-61e5-4456-a040-2b20c967e1d9,0266bcf3-5f9d-4643-99a9-9e1a17e7e392
dc52dd85-ced0-40fe-9ed5-56358fc0f5a8,0266bcf3-5f9d-4643-99a9-9e1a17e7e392
3e63dff0-1679-426b-885d-32b52952bbd6,a8f190c9-572a-4512-a3a0-0fe28cc0620f
947ea909-0f7d-413d-83ef-f59477234176,a8f190c9-572a-4512-a3a0-0fe28cc0620f
7056c793-bc5a-4ac0-91bb-4fe722faeb3c,02283279-951d-4255-83ec-27204b355e86
fb47f7df-4be9-4f12-945b-aea9f0fdebef,e227207b-15ba-4b94-bc1c-680b7a770c9d
af0b9549-687d-4695-9d21-d51dddf94320,3b4f4a81-4860-47f5-8b0e-404f4c2bd181
606003a4-2d0f-4405-b90e-4b095eae17ae,e227207b-15ba-4b94-bc1c-680b7a770c9d
1850c631-f7de-49e6-97ef-e56ffcbc5236,fcd6b4ec-5f0a-4d55-9fab-ac131d6f06b6
d33c782a-e924-436a-91dd-8259cab1aabc,fcd6b4ec-5f0a-4d55-9fab-ac131d6f06b6
ff69d3ff-7b10-4be9-981e-bfcac75c4249,7271c364-7311-4a75-a148-dd181efc43ec
