date,trigger,state
2019-10-11 01:05:48,2be7b345-09a8-4016-8eef-ea94b91f8dec,A
2019-10-11 01:09:03,2be7b345-09a8-4016-8eef-ea94b91f8dec,S
2019-10-11 01:14:07,2be7b345-09a8-4016-8eef-ea94b91f8dec,A
2019-10-11 01:22:43,2be7b345-09a8-4016-8eef-ea94b91f8dec,S
2019-10-11 01:27:11,2be7b345-09a8-4016-8eef-ea94b91f8dec,A
2019-10-11 01:30:18,2be7b345-09a8-4016-8eef-ea94b91f8dec,S
2019-10-11 01:31:09,2be7b345-09a8-4016-8eef-ea94b91f8dec,A
2019-10-11 01:32:32,2be7b345-09a8-4016-8eef-ea94b91f8dec,S
2019-10-11 01:37:46,2be7b345-09a8-4016-8eef-ea94b91f8dec,A
2019-10-11 01:43:23,2be7b345-09a8-4016-8eef-ea94b91f8dec,S
2019-10-11 01:54:45,2be7b345-09a8-4016-8eef-ea94b91f8dec,A
2019-10-11 01:54:49,2be7b345-09a8-4016-8eef-ea94b91f8dec,S
2019-10-11 02:02:00,2be7b345-09a8-4016-8eef-ea94b91f8dec,A
2019-10-11 02:13:30,2be7b345-09a8-4016-8eef-ea94b91f8dec,S
2019-10-11 02:15:06,2be7b345-09a8-4016-8eef-ea94b91f8dec,A
2019-10-11 02:18:13,2be7b345-09a8-4016-8eef-ea94b91f8dec,S
2019-10-11 02:18:30,2be7b345-09a8-4016-8eef-ea94b91f8dec,A
2019-10-11 00:45:50,8c61b139-36f9-4f4e-a2b8-c4a8b5bce4ab,A
2019-10-11 00:55:47,8c61b139-36f9-4f4e-a2b8-c4a8b5bce4ab,S
2019-10-11 00:57:08,8c61b139-36f9-4f4e-a2b8-c4a8b5bce4ab,A
2019-10-11 01:01:52,8c61b139-36f9-4f4e-a2b8-c4a8b5bce4ab,S
2019-10-11 01:14:23,8c61b139-36f9-4f4e-a2b8-c4a8b5bce4ab,A
2019-10-11 01:17:22,8c61b139-36f9-4f4e-a2b8-c4a8b5bce4ab,S
2019-10-11 01:23:36,8c61b139-36f9-4f4e-a2b8-c4a8b5bce4ab,A
2019-10-11 01:27:10,8c61b139-36f9-4f4e-a2b8-c4a8b5bce4ab,S
2019-10-11 01:32:45,8c61b139-36f9-4f4e-a2b8-c4a8b5bce4ab,A
2019-10-11 01:35:04,8c61b139-36f9-4f4e-a2b8-c4a8b5bce4ab,S
2019-10-11 01:41:17,8c61b139-36f9-4f4e-a2b8-c4a8b5bce4ab,A
2019-10-11 01:44:36,8c61b139-36f9-4f4e-a2b8-c4a8b5bce4ab,S
2019-10-11 01:45:22,8c61b139-36f9-4f4e-a2b8-c4a8b5bce4ab,A
2019-10-11 01:53:32,8c61b139-36f9-4f4e-a2b8-c4a8b5bce4ab,S
2019-10-11 01:53:34,8c61b139-36f9-4f4e-a2b8-c4a8b5bce4ab,A
2019-10-11 01:55:07,8c61b139-36f9-4f4e-a2b8-c4a8b5bce4ab,S
2019-10-11 01:55:55,8c61b139-36f9-4f4e-a2b8-c4a8b5bce4ab,A
2019-10-11 01:56:02,8c61b139-36f9-4f4e-a2b8-c4a8b5bce4ab,S
2019-10-11 01:56:07,8c61b139-36f9-4f4e-a2b8-c4a8b5bce4ab,A
2019-10-11 01:56:32,8c61b139-36f9-4f4e-a2b8-c4a8b5bce4ab,S
2019-10-11 02:01:17,8c61b139-36f9-4f4e-a2b8-c4a8b5bce4ab,A
2019-10-11 02:05:25,8c61b139-36f9-4f4e-a2b8-c4a8b5bce4ab,S
2019-10-11 02:07:13,8c61b139-36f9-4f4e-a2b8-c4a8b5bce4ab,A
2019-10-11 02:09:26,8c61b139-36f9-4f4e-a2b8-c4a8b5bce4ab,S
2019-10-11 00:55:14,2eb276cb-22e0-4334-9087-b9a8454fc25b,S
2019-10-11 00:56:06,2eb276cb-22e0-4334-9087-b9a8454fc25b,A
2019-10-11 00:59:11,2eb276cb-22e0-4334-9087-b9a8454fc25b,S
2019-10-11 01:09:08,2eb276cb-22e0-4334-9087-b9a8454fc25b,A
2019-10-11 01:11:45,2eb276cb-22e0-4334-9087-b9a8454fc25b,S
2019-10-11 01:18:08,2eb276cb-22e0-4334-9087-b9a8454fc25b,A
2019-10-11 01:23:11,2eb276cb-22e0-4334-9087-b9a8454fc25b,S
2019-10-11 01:24:03,2eb276cb-22e0-4334-9087-b9a8454fc25b,A
2019-10-11 01:34:39,2eb276cb-22e0-4334-9087-b9a8454fc25b,S
2019-10-11 01:38:09,2eb276cb-22e0-4334-9087-b9a8454fc25b,A
2019-10-11 01:38:28,2eb276cb-22e0-4334-9087-b9a8454fc25b,S
2019-10-11 01:38:43,2eb276cb-22e0-4334-9087-b9a8454fc25b,A
2019-10-11 01:44:23,2eb276cb-22e0-4334-9087-b9a8454fc25b,S
2019-10-11 01:52:09,2eb276cb-22e0-4334-9087-b9a8454fc25b,A
2019-10-11 01:57:16,2eb276cb-22e0-4334-9087-b9a8454fc25b,S
2019-10-11 02:13:23,2eb276cb-22e0-4334-9087-b9a8454fc25b,A
2019-10-11 02:14:35,2eb276cb-22e0-4334-9087-b9a8454fc25b,S
2019-10-11 02:19:24,2eb276cb-22e0-4334-9087-b9a8454fc25b,A
2019-10-11 00:43:48,a69e1682-1958-4e21-a21d-cec92f4bcd64,A
2019-10-11 00:45:16,a69e1682-1958-4e21-a21d-cec92f4bcd64,S
2019-10-11 00:48:44,a69e1682-1958-4e21-a21d-cec92f4bcd64,A
2019-10-11 00:49:58,a69e1682-1958-4e21-a21d-cec92f4bcd64,S
2019-10-11 00:52:25,a69e1682-1958-4e21-a21d-cec92f4bcd64,A
2019-10-11 00:57:37,a69e1682-1958-4e21-a21d-cec92f4bcd64,S
2019-10-11 01:03:30,a69e1682-1958-4e21-a21d-cec92f4bcd64,A
2019-10-11 01:16:51,a69e1682-1958-4e21-a21d-cec92f4bcd64,S
2019-10-11 01:21:29,a69e1682-1958-4e21-a21d-cec92f4bcd64,A
2019-10-11 01:23:58,a69e1682-1958-4e21-a21d-cec92f4bcd64,S
2019-10-11 01:33:12,a69e1682-1958-4e21-a21d-cec92f4bcd64,A
2019-10-11 01:34:09,a69e1682-1958-4e21-a21d-cec92f4bcd64,S
2019-10-11 01:37:39,a69e1682-1958-4e21-a21d-cec92f4bcd64,A
2019-10-11 01:39:18,a69e1682-1958-4e21-a21d-cec92f4bcd64,S
2019-10-11 01:44:52,a69e1682-1958-4e21-a21d-cec92f4bcd64,A
2019-10-11 01:50:01,a69e1682-1958-4e21-a21d-cec92f4bcd64,S
2019-10-11 01:52:55,a69e1682-1958-4e21-a21d-cec92f4bcd64,A
2019-10-11 02:07:30,a69e1682-1958-4e21-a21d-cec92f4bcd64,S
2019-10-11 02:10:56,a69e1682-1958-4e21-a21d-cec92f4bcd64,A
2019-10-11 02:16:01,a69e1682-1958-4e21-a21d-cec92f4bcd64,S
2019-10-11 02:17:51,a69e1682-1958-4e21-a21d-cec92f4bcd64,A
2019-10-11 00:48:29,4573a4b4-34cc-428d-96a5-4be467dfead8,S
2019-10-11 00:58:14,4573a4b4-34cc-428d-96a5-4be467dfead8,A
2019-10-11 00:59:38,4573a4b4-34cc-428d-96a5-4be467dfead8,S
2019-10-11 01:07:52,4573a4b4-34cc-428d-96a5-4be467dfead8,A
2019-10-11 01:08:44,4573a4b4-34cc-428d-96a5-4be467dfead8,S
2019-10-11 01:09:26,4573a4b4-34cc-428d-96a5-4be467dfead8,A
2019-10-11 01:12:53,4573a4b4-34cc-428d-96a5-4be467dfead8,S
2019-10-11 01:20:39,4573a4b4-34cc-428d-96a5-4be467dfead8,A
2019-10-11 01:20:53,4573a4b4-34cc-428d-96a5-4be467dfead8,S
2019-10-11 01:26:39,4573a4b4-34cc-428d-96a5-4be467dfead8,A
2019-10-11 01:29:16,4573a4b4-34cc-428d-96a5-4be467dfead8,S
2019-10-11 01:29:21,4573a4b4-34cc-428d-96a5-4be467dfead8,A
2019-10-11 01:32:29,4573a4b4-34cc-428d-96a5-4be467dfead8,S
2019-10-11 01:32:55,4573a4b4-34cc-428d-96a5-4be467dfead8,A
2019-10-11 01:44:38,4573a4b4-34cc-428d-96a5-4be467dfead8,S
2019-10-11 01:47:09,4573a4b4-34cc-428d-96a5-4be467dfead8,A
2019-10-11 01:50:02,4573a4b4-34cc-428d-96a5-4be467dfead8,S
2019-10-11 01:50:09,4573a4b4-34cc-428d-96a5-4be467dfead8,A
2019-10-11 01:54:26,4573a4b4-34cc-428d-96a5-4be467dfead8,S
2019-10-11 01:56:43,4573a4b4-34cc-428d-96a5-4be467dfead8,A
2019-10-11 02:04:26,4573a4b4-34cc-428d-96a5-4be467dfead8,S
2019-10-11 02:13:44,4573a4b4-34cc-428d-96a5-4be467dfead8,A
2019-10-11 02:18:05,4573a4b4-34cc-428d-96a5-4be467dfead8,S
2019-10-11 00:56:42,95d80948-9c0f-4e3d-b966-db3d0f889062,A
2019-10-11 00:57:54,95d80948-9c0f-4e3d-b966-db3d0f889062,S
2019-10-11 00:59:17,95d80948-9c0f-4e3d-b966-db3d0f889062,A
2019-10-11 01:05:45,95d80948-9c0f-4e3d-b966-db3d0f889062,S
2019-10-11 01:09:09,95d80948-9c0f-4e3d-b966-db3d0f889062,A
2019-10-11 01:12:03,95d80948-9c0f-4e3d-b966-db3d0f889062,S
2019-10-11 01:13:10,95d80948-9c0f-4e3d-b966-db3d0f889062,A
2019-10-11 01:15:42,95d80948-9c0f-4e3d-b966-db3d0f889062,S
2019-10-11 01:16:41,95d80948-9c0f-4e3d-b966-db3d0f889062,A
2019-10-11 01:18:46,95d80948-9c0f-4e3d-b966-db3d0f889062,S
2019-10-11 01:20:08,95d80948-9c0f-4e3d-b966-db3d0f889062,A
2019-10-11 01:26:41,95d80948-9c0f-4e3d-b966-db3d0f889062,S
2019-10-11 01:28:08,95d80948-9c0f-4e3d-b966-db3d0f889062,A
2019-10-11 01:28:57,95d80948-9c0f-4e3d-b966-db3d0f889062,S
2019-10-11 01:29:26,95d80948-9c0f-4e3d-b966-db3d0f889062,A
2019-10-11 01:32:17,95d80948-9c0f-4e3d-b966-db3d0f889062,S
2019-10-11 01:37:24,95d80948-9c0f-4e3d-b966-db3d0f889062,A
2019-10-11 01:52:51,95d80948-9c0f-4e3d-b966-db3d0f889062,S
2019-10-11 02:01:54,95d80948-9c0f-4e3d-b966-db3d0f889062,A
2019-10-11 02:11:37,95d80948-9c0f-4e3d-b966-db3d0f889062,S
2019-10-11 02:20:08,95d80948-9c0f-4e3d-b966-db3d0f889062,A
2019-10-11 00:44:45,fced802e-9a9b-403f-bdbc-054afa3a33c9,S
2019-10-11 00:45:32,fced802e-9a9b-403f-bdbc-054afa3a33c9,A
2019-10-11 00:52:43,fced802e-9a9b-403f-bdbc-054afa3a33c9,S
2019-10-11 00:56:41,fced802e-9a9b-403f-bdbc-054afa3a33c9,A
2019-10-11 00:57:28,fced802e-9a9b-403f-bdbc-054afa3a33c9,S
2019-10-11 00:58:34,fced802e-9a9b-403f-bdbc-054afa3a33c9,A
2019-10-11 01:15:31,fced802e-9a9b-403f-bdbc-054afa3a33c9,S
2019-10-11 01:15:32,fced802e-9a9b-403f-bdbc-054afa3a33c9,A
2019-10-11 01:17:33,fced802e-9a9b-403f-bdbc-054afa3a33c9,S
2019-10-11 01:19:11,fced802e-9a9b-403f-bdbc-054afa3a33c9,A
2019-10-11 01:26:02,fced802e-9a9b-403f-bdbc-054afa3a33c9,S
2019-10-11 01:26:14,fced802e-9a9b-403f-bdbc-054afa3a33c9,A
2019-10-11 01:41:17,fced802e-9a9b-403f-bdbc-054afa3a33c9,S
2019-10-11 01:46:19,fced802e-9a9b-403f-bdbc-054afa3a33c9,A
2019-10-11 01:50:11,fced802e-9a9b-403f-bdbc-054afa3a33c9,S
2019-10-11 02:01:30,fced802e-9a9b-403f-bdbc-054afa3a33c9,A
2019-10-11 02:09:21,fced802e-9a9b-403f-bdbc-054afa3a33c9,S
2019-10-11 02:11:43,fced802e-9a9b-403f-bdbc-054afa3a33c9,A
2019-10-11 02:15:46,fced802e-9a9b-403f-bdbc-054afa3a33c9,S
2019-10-11 02:16:35,fced802e-9a9b-403f-bdbc-054afa3a33c9,A
2019-10-11 01:17:03,9c8e3010-1c80-4828-a9d1-e086ec444d63,A
2019-10-11 01:27:14,9c8e3010-1c80-4828-a9d1-e086ec444d63,S
2019-10-11 01:32:24,9c8e3010-1c80-4828-a9d1-e086ec444d63,A
2019-10-11 01:38:11,9c8e3010-1c80-4828-a9d1-e086ec444d63,S
2019-10-11 01:47:04,9c8e3010-1c80-4828-a9d1-e086ec444d63,A
2019-10-11 01:55:58,9c8e3010-1c80-4828-a9d1-e086ec444d63,S
2019-10-11 02:13:17,9c8e3010-1c80-4828-a9d1-e086ec444d63,A
2019-10-11 02:17:17,9c8e3010-1c80-4828-a9d1-e086ec444d63,S
2019-10-11 02:19:00,9c8e3010-1c80-4828-a9d1-e086ec444d63,A
2019-10-11 00:43:33,2f0d6f5b-c45a-4852-a4e0-aaa5e9a9ed84,S
2019-10-11 00:51:24,2f0d6f5b-c45a-4852-a4e0-aaa5e9a9ed84,A
2019-10-11 01:07:49,2f0d6f5b-c45a-4852-a4e0-aaa5e9a9ed84,S
2019-10-11 01:33:33,2f0d6f5b-c45a-4852-a4e0-aaa5e9a9ed84,A
2019-10-11 01:43:09,2f0d6f5b-c45a-4852-a4e0-aaa5e9a9ed84,S
2019-10-11 01:43:17,2f0d6f5b-c45a-4852-a4e0-aaa5e9a9ed84,A
2019-10-11 01:55:50,2f0d6f5b-c45a-4852-a4e0-aaa5e9a9ed84,S
2019-10-11 01:58:53,2f0d6f5b-c45a-4852-a4e0-aaa5e9a9ed84,A
2019-10-11 02:05:57,2f0d6f5b-c45a-4852-a4e0-aaa5e9a9ed84,S
2019-10-11 02:10:56,2f0d6f5b-c45a-4852-a4e0-aaa5e9a9ed84,A
2019-10-11 02:11:27,2f0d6f5b-c45a-4852-a4e0-aaa5e9a9ed84,S
2019-10-11 02:18:53,2f0d6f5b-c45a-4852-a4e0-aaa5e9a9ed84,A
2019-10-11 02:19:50,2f0d6f5b-c45a-4852-a4e0-aaa5e9a9ed84,S
2019-10-11 00:42:30,9f9c0a30-6439-44d2-b8a7-6795b023a155,A
2019-10-11 00:44:26,9f9c0a30-6439-44d2-b8a7-6795b023a155,S
2019-10-11 00:46:11,9f9c0a30-6439-44d2-b8a7-6795b023a155,A
2019-10-11 00:48:46,9f9c0a30-6439-44d2-b8a7-6795b023a155,S
2019-10-11 00:52:11,9f9c0a30-6439-44d2-b8a7-6795b023a155,A
2019-10-11 00:59:21,9f9c0a30-6439-44d2-b8a7-6795b023a155,S
2019-10-11 01:00:49,9f9c0a30-6439-44d2-b8a7-6795b023a155,A
2019-10-11 01:14:23,9f9c0a30-6439-44d2-b8a7-6795b023a155,S
2019-10-11 01:14:54,9f9c0a30-6439-44d2-b8a7-6795b023a155,A
2019-10-11 01:19:31,9f9c0a30-6439-44d2-b8a7-6795b023a155,S
2019-10-11 01:20:08,9f9c0a30-6439-44d2-b8a7-6795b023a155,A
2019-10-11 01:26:42,9f9c0a30-6439-44d2-b8a7-6795b023a155,S
2019-10-11 01:27:10,9f9c0a30-6439-44d2-b8a7-6795b023a155,A
2019-10-11 01:27:15,9f9c0a30-6439-44d2-b8a7-6795b023a155,S
2019-10-11 01:38:25,9f9c0a30-6439-44d2-b8a7-6795b023a155,A
2019-10-11 01:39:10,9f9c0a30-6439-44d2-b8a7-6795b023a155,S
2019-10-11 01:41:51,9f9c0a30-6439-44d2-b8a7-6795b023a155,A
2019-10-11 01:46:33,9f9c0a30-6439-44d2-b8a7-6795b023a155,S
2019-10-11 02:02:36,9f9c0a30-6439-44d2-b8a7-6795b023a155,A
2019-10-11 02:05:50,9f9c0a30-6439-44d2-b8a7-6795b023a155,S
2019-10-11 02:08:36,9f9c0a30-6439-44d2-b8a7-6795b023a155,A
2019-10-11 02:09:07,9f9c0a30-6439-44d2-b8a7-6795b023a155,S
2019-10-11 00:54:05,63297d16-a229-409c-99df-e494217da815,A
2019-10-11 00:55:21,63297d16-a229-409c-99df-e494217da815,S
2019-10-11 01:06:37,63297d16-a229-409c-99df-e494217da815,A
2019-10-11 01:16:54,63297d16-a229-409c-99df-e494217da815,S
2019-10-11 01:19:07,63297d16-a229-409c-99df-e494217da815,A
2019-10-11 01:23:39,63297d16-a229-409c-99df-e494217da815,S
2019-10-11 01:24:09,63297d16-a229-409c-99df-e494217da815,A
2019-10-11 01:31:22,63297d16-a229-409c-99df-e494217da815,S
2019-10-11 01:32:11,63297d16-a229-409c-99df-e494217da815,A
2019-10-11 01:37:34,63297d16-a229-409c-99df-e494217da815,S
2019-10-11 01:39:58,63297d16-a229-409c-99df-e494217da815,A
2019-10-11 01:40:42,63297d16-a229-409c-99df-e494217da815,S
2019-10-11 01:40:55,63297d16-a229-409c-99df-e494217da815,A
2019-10-11 01:42:49,63297d16-a229-409c-99df-e494217da815,S
2019-10-11 01:50:30,63297d16-a229-409c-99df-e494217da815,A
2019-10-11 01:58:19,63297d16-a229-409c-99df-e494217da815,S
2019-10-11 01:59:50,63297d16-a229-409c-99df-e494217da815,A
2019-10-11 02:02:27,63297d16-a229-409c-99df-e494217da815,S
2019-10-11 02:07:08,63297d16-a229-409c-99df-e494217da815,A
2019-10-11 00:49:39,c675208d-1e76-4b2b-a8e1-191b85010dba,A
2019-10-11 00:50:57,c675208d-1e76-4b2b-a8e1-191b85010dba,S
2019-10-11 01:00:00,c675208d-1e76-4b2b-a8e1-191b85010dba,A
2019-10-11 01:02:13,c675208d-1e76-4b2b-a8e1-191b85010dba,S
2019-10-11 01:02:53,c675208d-1e76-4b2b-a8e1-191b85010dba,A
2019-10-11 01:03:01,c675208d-1e76-4b2b-a8e1-191b85010dba,S
2019-10-11 01:08:00,c675208d-1e76-4b2b-a8e1-191b85010dba,A
2019-10-11 01:11:12,c675208d-1e76-4b2b-a8e1-191b85010dba,S
2019-10-11 01:12:39,c675208d-1e76-4b2b-a8e1-191b85010dba,A
2019-10-11 01:22:44,c675208d-1e76-4b2b-a8e1-191b85010dba,S
2019-10-11 01:24:25,c675208d-1e76-4b2b-a8e1-191b85010dba,A
2019-10-11 01:31:18,c675208d-1e76-4b2b-a8e1-191b85010dba,S
2019-10-11 01:34:21,c675208d-1e76-4b2b-a8e1-191b85010dba,A
2019-10-11 01:40:51,c675208d-1e76-4b2b-a8e1-191b85010dba,S
2019-10-11 01:47:40,c675208d-1e76-4b2b-a8e1-191b85010dba,A
2019-10-11 01:59:35,c675208d-1e76-4b2b-a8e1-191b85010dba,S
2019-10-11 01:59:54,c675208d-1e76-4b2b-a8e1-191b85010dba,A
2019-10-11 02:15:18,c675208d-1e76-4b2b-a8e1-191b85010dba,S
2019-10-11 02:18:11,c675208d-1e76-4b2b-a8e1-191b85010dba,A
2019-10-11 02:20:10,c675208d-1e76-4b2b-a8e1-191b85010dba,S
2019-10-11 01:10:40,9dfcb188-15dc-4bc4-a90a-59c810ed1f1c,S
2019-10-11 01:10:41,9dfcb188-15dc-4bc4-a90a-59c810ed1f1c,A
2019-10-11 01:18:37,9dfcb188-15dc-4bc4-a90a-59c810ed1f1c,S
2019-10-11 01:27:08,9dfcb188-15dc-4bc4-a90a-59c810ed1f1c,A
2019-10-11 01:28:51,9dfcb188-15dc-4bc4-a90a-59c810ed1f1c,S
2019-10-11 01:30:16,9dfcb188-15dc-4bc4-a90a-59c810ed1f1c,A
2019-10-11 01:30:18,9dfcb188-15dc-4bc4-a90a-59c810ed1f1c,S
2019-10-11 01:30:26,9dfcb188-15dc-4bc4-a90a-59c810ed1f1c,A
2019-10-11 01:30:58,9dfcb188-15dc-4bc4-a90a-59c810ed1f1c,S
2019-10-11 01:43:06,9dfcb188-15dc-4bc4-a90a-59c810ed1f1c,A
2019-10-11 01:58:42,9dfcb188-15dc-4bc4-a90a-59c810ed1f1c,S
2019-10-11 02:01:17,9dfcb188-15dc-4bc4-a90a-59c810ed1f1c,A
2019-10-11 02:14:57,9dfcb188-15dc-4bc4-a90a-59c810ed1f1c,S
2019-10-11 02:18:26,9dfcb188-15dc-4bc4-a90a-59c810ed1f1c,A
2019-10-11 02:20:42,9dfcb188-15dc-4bc4-a90a-59c810ed1f1c,S
2019-10-11 00:56:02,ce1995a9-b9ea-4301-90a1-59d40b7ffdc5,A
2019-10-11 01:01:25,ce1995a9-b9ea-4301-90a1-59d40b7ffdc5,S
2019-10-11 01:10:54,ce1995a9-b9ea-4301-90a1-59d40b7ffdc5,A
2019-10-11 01:14:21,ce1995a9-b9ea-4301-90a1-59d40b7ffdc5,S
2019-10-11 01:17:54,ce1995a9-b9ea-4301-90a1-59d40b7ffdc5,A
2019-10-11 01:28:59,ce1995a9-b9ea-4301-90a1-59d40b7ffdc5,S
2019-10-11 01:35:26,ce1995a9-b9ea-4301-90a1-59d40b7ffdc5,A
2019-10-11 01:46:16,ce1995a9-b9ea-4301-90a1-59d40b7ffdc5,S
2019-10-11 01:48:09,ce1995a9-b9ea-4301-90a1-59d40b7ffdc5,A
2019-10-11 01:48:27,ce1995a9-b9ea-4301-90a1-59d40b7ffdc5,S
2019-10-11 02:03:46,ce1995a9-b9ea-4301-90a1-59d40b7ffdc5,A
2019-10-11 02:05:23,ce1995a9-b9ea-4301-90a1-59d40b7ffdc5,S
2019-10-11 02:09:28,ce1995a9-b9ea-4301-90a1-59d40b7ffdc5,A
2019-10-11 02:11:13,ce1995a9-b9ea-4301-90a1-59d40b7ffdc5,S
2019-10-11 02:16:13,ce1995a9-b9ea-4301-90a1-59d40b7ffdc5,A
2019-10-11 00:44:23,47220c6d-6aa1-49fd-95a4-6a99fb3fc764,A
2019-10-11 00:51:02,47220c6d-6aa1-49fd-95a4-6a99fb3fc764,S
2019-10-11 00:57:22,47220c6d-6aa1-49fd-95a4-6a99fb3fc764,A
2019-10-11 01:00:02,47220c6d-6aa1-49fd-95a4-6a99fb3fc764,S
2019-10-11 01:09:28,47220c6d-6aa1-49fd-95a4-6a99fb3fc764,A
2019-10-11 01:15:30,47220c6d-6aa1-49fd-95a4-6a99fb3fc764,S
2019-10-11 01:19:46,47220c6d-6aa1-49fd-95a4-6a99fb3fc764,A
2019-10-11 01:25:30,47220c6d-6aa1-49fd-95a4-6a99fb3fc764,S
2019-10-11 01:27:05,47220c6d-6aa1-49fd-95a4-6a99fb3fc764,A
2019-10-11 01:28:42,47220c6d-6aa1-49fd-95a4-6a99fb3fc764,S
2019-10-11 01:31:44,47220c6d-6aa1-49fd-95a4-6a99fb3fc764,A
2019-10-11 01:36:32,47220c6d-6aa1-49fd-95a4-6a99fb3fc764,S
2019-10-11 01:37:37,47220c6d-6aa1-49fd-95a4-6a99fb3fc764,A
2019-10-11 01:40:54,47220c6d-6aa1-49fd-95a4-6a99fb3fc764,S
2019-10-11 01:42:53,47220c6d-6aa1-49fd-95a4-6a99fb3fc764,A
2019-10-11 01:43:57,47220c6d-6aa1-49fd-95a4-6a99fb3fc764,S
2019-10-11 01:51:43,47220c6d-6aa1-49fd-95a4-6a99fb3fc764,A
2019-10-11 01:59:46,47220c6d-6aa1-49fd-95a4-6a99fb3fc764,S
2019-10-11 02:04:31,47220c6d-6aa1-49fd-95a4-6a99fb3fc764,A
2019-10-11 02:09:28,47220c6d-6aa1-49fd-95a4-6a99fb3fc764,S
2019-10-11 02:11:30,47220c6d-6aa1-49fd-95a4-6a99fb3fc764,A
2019-10-11 02:21:35,47220c6d-6aa1-49fd-95a4-6a99fb3fc764,S
2019-10-11 00:47:47,c5360bfc-d6be-40c4-aa4e-2fbbee296d56,A
2019-10-11 00:48:22,c5360bfc-d6be-40c4-aa4e-2fbbee296d56,S
2019-10-11 00:57:59,c5360bfc-d6be-40c4-aa4e-2fbbee296d56,A
2019-10-11 01:08:46,c5360bfc-d6be-40c4-aa4e-2fbbee296d56,S
2019-10-11 01:15:14,c5360bfc-d6be-40c4-aa4e-2fbbee296d56,A
2019-10-11 01:16:21,c5360bfc-d6be-40c4-aa4e-2fbbee296d56,S
2019-10-11 01:28:34,c5360bfc-d6be-40c4-aa4e-2fbbee296d56,A
2019-10-11 01:30:29,c5360bfc-d6be-40c4-aa4e-2fbbee296d56,S
2019-10-11 01:39:10,c5360bfc-d6be-40c4-aa4e-2fbbee296d56,A
2019-10-11 01:41:42,c5360bfc-d6be-40c4-aa4e-2fbbee296d56,S
2019-10-11 01:41:57,c5360bfc-d6be-40c4-aa4e-2fbbee296d56,A
2019-10-11 01:43:28,c5360bfc-d6be-40c4-aa4e-2fbbee296d56,S
2019-10-11 01:51:37,c5360bfc-d6be-40c4-aa4e-2fbbee296d56,A
2019-10-11 01:55:26,c5360bfc-d6be-40c4-aa4e-2fbbee296d56,S
2019-10-11 01:58:50,c5360bfc-d6be-40c4-aa4e-2fbbee296d56,A
2019-10-11 02:02:17,c5360bfc-d6be-40c4-aa4e-2fbbee296d56,S
2019-10-11 02:08:19,c5360bfc-d6be-40c4-aa4e-2fbbee296d56,A
2019-10-11 02:18:16,c5360bfc-d6be-40c4-aa4e-2fbbee296d56,S
2019-10-11 00:51:11,39d3c3e6-c7fe-490f-bd83-de5d27b1cd3f,S
2019-10-11 00:55:20,39d3c3e6-c7fe-490f-bd83-de5d27b1cd3f,A
2019-10-11 01:13:15,39d3c3e6-c7fe-490f-bd83-de5d27b1cd3f,S
2019-10-11 01:15:09,39d3c3e6-c7fe-490f-bd83-de5d27b1cd3f,A
2019-10-11 01:21:35,39d3c3e6-c7fe-490f-bd83-de5d27b1cd3f,S
2019-10-11 01:23:02,39d3c3e6-c7fe-490f-bd83-de5d27b1cd3f,A
2019-10-11 01:27:35,39d3c3e6-c7fe-490f-bd83-de5d27b1cd3f,S
2019-10-11 01:28:04,39d3c3e6-c7fe-490f-bd83-de5d27b1cd3f,A
2019-10-11 01:31:01,39d3c3e6-c7fe-490f-bd83-de5d27b1cd3f,S
2019-10-11 01:31:14,39d3c3e6-c7fe-490f-bd83-de5d27b1cd3f,A
2019-10-11 01:33:00,39d3c3e6-c7fe-490f-bd83-de5d27b1cd3f,S
2019-10-11 01:33:32,39d3c3e6-c7fe-490f-bd83-de5d27b1cd3f,A
2019-10-11 01:35:22,39d3c3e6-c7fe-490f-bd83-de5d27b1cd3f,S
2019-10-11 01:40:19,39d3c3e6-c7fe-490f-bd83-de5d27b1cd3f,A
2019-10-11 01:41:38,39d3c3e6-c7fe-490f-bd83-de5d27b1cd3f,S
2019-10-11 01:45:45,39d3c3e6-c7fe-490f-bd83-de5d27b1cd3f,A
2019-10-11 01:56:09,39d3c3e6-c7fe-490f-bd83-de5d27b1cd3f,S
2019-10-11 01:57:43,39d3c3e6-c7fe-490f-bd83-de5d27b1cd3f,A
2019-10-11 02:05:13,39d3c3e6-c7fe-490f-bd83-de5d27b1cd3f,S
2019-10-11 02:05:28,39d3c3e6-c7fe-490f-bd83-de5d27b1cd3f,A
2019-10-11 02:06:53,39d3c3e6-c7fe-490f-bd83-de5d27b1cd3f,S
2019-10-11 00:53:02,ba5acd66-9ccd-482c-b282-eca1856f7a25,S
2019-10-11 00:53:39,ba5acd66-9ccd-482c-b282-eca1856f7a25,A
2019-10-11 00:56:14,ba5acd66-9ccd-482c-b282-eca1856f7a25,S
2019-10-11 01:01:23,ba5acd66-9ccd-482c-b282-eca1856f7a25,A
2019-10-11 01:25:19,ba5acd66-9ccd-482c-b282-eca1856f7a25,S
2019-10-11 01:29:19,ba5acd66-9ccd-482c-b282-eca1856f7a25,A
2019-10-11 01:29:49,ba5acd66-9ccd-482c-b282-eca1856f7a25,S
2019-10-11 01:37:28,ba5acd66-9ccd-482c-b282-eca1856f7a25,A
2019-10-11 01:38:20,ba5acd66-9ccd-482c-b282-eca1856f7a25,S
2019-10-11 01:41:41,ba5acd66-9ccd-482c-b282-eca1856f7a25,A
2019-10-11 01:52:39,ba5acd66-9ccd-482c-b282-eca1856f7a25,S
2019-10-11 01:53:05,ba5acd66-9ccd-482c-b282-eca1856f7a25,A
2019-10-11 02:02:04,ba5acd66-9ccd-482c-b282-eca1856f7a25,S
2019-10-11 02:04:00,ba5acd66-9ccd-482c-b282-eca1856f7a25,A
2019-10-11 02:08:14,ba5acd66-9ccd-482c-b282-eca1856f7a25,S
2019-10-11 02:14:17,ba5acd66-9ccd-482c-b282-eca1856f7a25,A
2019-10-11 02:17:05,ba5acd66-9ccd-482c-b282-eca1856f7a25,S
2019-10-11 02:17:44,ba5acd66-9ccd-482c-b282-eca1856f7a25,A
2019-10-11 02:18:29,ba5acd66-9ccd-482c-b282-eca1856f7a25,S
2019-10-11 00:56:09,cacada1d-be61-4e49-8bc1-165e60d130c8,S
2019-10-11 01:17:18,cacada1d-be61-4e49-8bc1-165e60d130c8,A
2019-10-11 01:25:54,cacada1d-be61-4e49-8bc1-165e60d130c8,S
2019-10-11 01:49:09,cacada1d-be61-4e49-8bc1-165e60d130c8,A
2019-10-11 01:49:19,cacada1d-be61-4e49-8bc1-165e60d130c8,S
2019-10-11 01:52:31,cacada1d-be61-4e49-8bc1-165e60d130c8,A
2019-10-11 02:02:20,cacada1d-be61-4e49-8bc1-165e60d130c8,S
2019-10-11 02:08:12,cacada1d-be61-4e49-8bc1-165e60d130c8,A
2019-10-11 02:09:24,cacada1d-be61-4e49-8bc1-165e60d130c8,S
2019-10-11 02:15:50,cacada1d-be61-4e49-8bc1-165e60d130c8,A
2019-10-11 02:19:52,cacada1d-be61-4e49-8bc1-165e60d130c8,S
2019-10-11 02:22:33,cacada1d-be61-4e49-8bc1-165e60d130c8,A
2019-10-11 01:02:19,ad3be781-2109-44df-8734-332674961c13,S
2019-10-11 01:10:42,ad3be781-2109-44df-8734-332674961c13,A
2019-10-11 01:10:51,ad3be781-2109-44df-8734-332674961c13,S
2019-10-11 01:13:50,ad3be781-2109-44df-8734-332674961c13,A
2019-10-11 01:15:41,ad3be781-2109-44df-8734-332674961c13,S
2019-10-11 01:16:09,ad3be781-2109-44df-8734-332674961c13,A
2019-10-11 01:27:31,ad3be781-2109-44df-8734-332674961c13,S
2019-10-11 01:34:18,ad3be781-2109-44df-8734-332674961c13,A
2019-10-11 01:57:43,ad3be781-2109-44df-8734-332674961c13,S
2019-10-11 02:07:57,ad3be781-2109-44df-8734-332674961c13,A
2019-10-11 02:16:05,ad3be781-2109-44df-8734-332674961c13,S
2019-10-11 02:16:59,ad3be781-2109-44df-8734-332674961c13,A
2019-10-11 02:20:19,ad3be781-2109-44df-8734-332674961c13,S
2019-10-11 02:21:58,ad3be781-2109-44df-8734-332674961c13,A
2019-10-11 01:05:27,a766a1af-ed98-4299-a1eb-836f7c4c7bb0,S
2019-10-11 01:09:51,a766a1af-ed98-4299-a1eb-836f7c4c7bb0,A
2019-10-11 01:10:49,a766a1af-ed98-4299-a1eb-836f7c4c7bb0,S
2019-10-11 01:14:05,a766a1af-ed98-4299-a1eb-836f7c4c7bb0,A
2019-10-11 01:14:28,a766a1af-ed98-4299-a1eb-836f7c4c7bb0,S
2019-10-11 01:17:26,a766a1af-ed98-4299-a1eb-836f7c4c7bb0,A
2019-10-11 01:21:26,a766a1af-ed98-4299-a1eb-836f7c4c7bb0,S
2019-10-11 01:23:40,a766a1af-ed98-4299-a1eb-836f7c4c7bb0,A
2019-10-11 01:25:46,a766a1af-ed98-4299-a1eb-836f7c4c7bb0,S
2019-10-11 01:29:57,a766a1af-ed98-4299-a1eb-836f7c4c7bb0,A
2019-10-11 01:34:34,a766a1af-ed98-4299-a1eb-836f7c4c7bb0,S
2019-10-11 01:37:39,a766a1af-ed98-4299-a1eb-836f7c4c7bb0,A
2019-10-11 01:39:49,a766a1af-ed98-4299-a1eb-836f7c4c7bb0,S
2019-10-11 01:45:51,a766a1af-ed98-4299-a1eb-836f7c4c7bb0,A
2019-10-11 01:48:22,a766a1af-ed98-4299-a1eb-836f7c4c7bb0,S
2019-10-11 01:49:06,a766a1af-ed98-4299-a1eb-836f7c4c7bb0,A
2019-10-11 01:49:10,a766a1af-ed98-4299-a1eb-836f7c4c7bb0,S
2019-10-11 01:51:59,a766a1af-ed98-4299-a1eb-836f7c4c7bb0,A
2019-10-11 02:00:15,a766a1af-ed98-4299-a1eb-836f7c4c7bb0,S
2019-10-11 02:03:01,a766a1af-ed98-4299-a1eb-836f7c4c7bb0,A
2019-10-11 02:03:04,a766a1af-ed98-4299-a1eb-836f7c4c7bb0,S
2019-10-11 02:09:10,a766a1af-ed98-4299-a1eb-836f7c4c7bb0,A
2019-10-11 02:13:32,a766a1af-ed98-4299-a1eb-836f7c4c7bb0,S
2019-10-11 02:20:53,a766a1af-ed98-4299-a1eb-836f7c4c7bb0,A
2019-10-11 02:22:03,a766a1af-ed98-4299-a1eb-836f7c4c7bb0,S
2019-10-11 00:58:00,800e86b9-b5d9-42be-81e9-0ee46d62d17d,A
2019-10-11 00:59:53,800e86b9-b5d9-42be-81e9-0ee46d62d17d,S
2019-10-11 01:03:01,800e86b9-b5d9-42be-81e9-0ee46d62d17d,A
2019-10-11 01:33:35,800e86b9-b5d9-42be-81e9-0ee46d62d17d,S
2019-10-11 01:35:33,800e86b9-b5d9-42be-81e9-0ee46d62d17d,A
2019-10-11 01:41:37,800e86b9-b5d9-42be-81e9-0ee46d62d17d,S
2019-10-11 01:42:23,800e86b9-b5d9-42be-81e9-0ee46d62d17d,A
2019-10-11 01:43:31,800e86b9-b5d9-42be-81e9-0ee46d62d17d,S
2019-10-11 01:56:15,800e86b9-b5d9-42be-81e9-0ee46d62d17d,A
2019-10-11 01:56:51,800e86b9-b5d9-42be-81e9-0ee46d62d17d,S
2019-10-11 02:01:16,800e86b9-b5d9-42be-81e9-0ee46d62d17d,A
2019-10-11 02:08:55,800e86b9-b5d9-42be-81e9-0ee46d62d17d,S
2019-10-11 02:12:54,800e86b9-b5d9-42be-81e9-0ee46d62d17d,A
2019-10-11 02:13:37,800e86b9-b5d9-42be-81e9-0ee46d62d17d,S
2019-10-11 02:14:12,800e86b9-b5d9-42be-81e9-0ee46d62d17d,A
2019-10-11 02:17:15,800e86b9-b5d9-42be-81e9-0ee46d62d17d,S
2019-10-11 02:17:32,800e86b9-b5d9-42be-81e9-0ee46d62d17d,A
2019-10-11 02:20:00,800e86b9-b5d9-42be-81e9-0ee46d62d17d,S
2019-10-11 00:49:42,74de9d47-7103-451b-997d-d5be471117f0,S
2019-10-11 00:51:22,74de9d47-7103-451b-997d-d5be471117f0,A
2019-10-11 01:13:05,74de9d47-7103-451b-997d-d5be471117f0,S
2019-10-11 01:14:20,74de9d47-7103-451b-997d-d5be471117f0,A
2019-10-11 01:15:02,74de9d47-7103-451b-997d-d5be471117f0,S
2019-10-11 01:15:05,74de9d47-7103-451b-997d-d5be471117f0,A
2019-10-11 01:20:36,74de9d47-7103-451b-997d-d5be471117f0,S
2019-10-11 01:24:41,74de9d47-7103-451b-997d-d5be471117f0,A
2019-10-11 01:35:04,74de9d47-7103-451b-997d-d5be471117f0,S
2019-10-11 01:38:45,74de9d47-7103-451b-997d-d5be471117f0,A
2019-10-11 01:41:28,74de9d47-7103-451b-997d-d5be471117f0,S
2019-10-11 01:43:25,74de9d47-7103-451b-997d-d5be471117f0,A
2019-10-11 01:45:49,74de9d47-7103-451b-997d-d5be471117f0,S
2019-10-11 01:52:21,74de9d47-7103-451b-997d-d5be471117f0,A
2019-10-11 01:56:10,74de9d47-7103-451b-997d-d5be471117f0,S
2019-10-11 02:02:22,74de9d47-7103-451b-997d-d5be471117f0,A
2019-10-11 02:06:46,74de9d47-7103-451b-997d-d5be471117f0,S
2019-10-11 02:17:18,74de9d47-7103-451b-997d-d5be471117f0,A
2019-10-11 02:17:38,74de9d47-7103-451b-997d-d5be471117f0,S
2019-10-11 02:23:06,74de9d47-7103-451b-997d-d5be471117f0,A
2019-10-11 02:23:41,74de9d47-7103-451b-997d-d5be471117f0,S
2019-10-11 01:19:41,72bd0230-c3d5-48b1-8722-7ed393df5a4e,A
2019-10-11 01:24:19,72bd0230-c3d5-48b1-8722-7ed393df5a4e,S
2019-10-11 01:43:51,72bd0230-c3d5-48b1-8722-7ed393df5a4e,A
2019-10-11 01:48:22,72bd0230-c3d5-48b1-8722-7ed393df5a4e,S
2019-10-11 01:50:05,72bd0230-c3d5-48b1-8722-7ed393df5a4e,A
2019-10-11 01:54:42,72bd0230-c3d5-48b1-8722-7ed393df5a4e,S
2019-10-11 01:54:46,72bd0230-c3d5-48b1-8722-7ed393df5a4e,A
2019-10-11 01:57:38,72bd0230-c3d5-48b1-8722-7ed393df5a4e,S
2019-10-11 01:59:00,72bd0230-c3d5-48b1-8722-7ed393df5a4e,A
2019-10-11 02:00:05,72bd0230-c3d5-48b1-8722-7ed393df5a4e,S
2019-10-11 02:00:19,72bd0230-c3d5-48b1-8722-7ed393df5a4e,A
2019-10-11 02:04:37,72bd0230-c3d5-48b1-8722-7ed393df5a4e,S
2019-10-11 02:16:30,72bd0230-c3d5-48b1-8722-7ed393df5a4e,A
2019-10-11 02:17:12,72bd0230-c3d5-48b1-8722-7ed393df5a4e,S
2019-10-11 01:00:04,2f7409ee-f92c-4d1c-8c3d-b8a65dad6a41,S
2019-10-11 01:03:33,2f7409ee-f92c-4d1c-8c3d-b8a65dad6a41,A
2019-10-11 01:05:00,2f7409ee-f92c-4d1c-8c3d-b8a65dad6a41,S
2019-10-11 01:19:10,2f7409ee-f92c-4d1c-8c3d-b8a65dad6a41,A
2019-10-11 01:24:52,2f7409ee-f92c-4d1c-8c3d-b8a65dad6a41,S
2019-10-11 01:43:11,2f7409ee-f92c-4d1c-8c3d-b8a65dad6a41,A
2019-10-11 01:44:06,2f7409ee-f92c-4d1c-8c3d-b8a65dad6a41,S
2019-10-11 01:51:59,2f7409ee-f92c-4d1c-8c3d-b8a65dad6a41,A
2019-10-11 02:05:32,2f7409ee-f92c-4d1c-8c3d-b8a65dad6a41,S
2019-10-11 02:06:22,2f7409ee-f92c-4d1c-8c3d-b8a65dad6a41,A
2019-10-11 02:09:02,2f7409ee-f92c-4d1c-8c3d-b8a65dad6a41,S
2019-10-11 02:22:40,2f7409ee-f92c-4d1c-8c3d-b8a65dad6a41,A
