actor,node
25b4ed52-46a2-421d-bdc9-801abf990414,b1da3a1f-3ffd-4f2d-ac81-157eb4ef4eb4
36119c67-97b2-4634-9277-c0ebafd4bc5d,ebbcc431-faaa-4191-a339-09a30e2370f6
15f7486a-4c8f-4359-b71a-9512f68217ec,ebbcc431-faaa-4191-a339-09a30e2370f6
07803ede-a2c0-45cc-92d4-961f4a271764,02b2af87-efb8-429d-9d11-2f9d3144b006
183af39d-fc70-46f9-bc89-be4cd7bc1c52,ebbcc431-faaa-4191-a339-09a30e2370f6
dd6ba9cb-9324-4fc9-a9eb-d39f45f5cd45,ebbcc431-faaa-4191-a339-09a30e2370f6
a8922f8a-78c1-4a16-89c5-d2c542f87e38,f52a1ed1-af5f-4f53-9b76-94575c0542c4
8092164e-f30d-4cda-9d9e-0f1f331f755e,3e2494ab-d4e1-4da8-b4ff-9aef74403171
3a61721e-8744-4e92-beb1-6bd5a5bc3393,e0f00c1d-4353-4377-9bdd-b9e30a6bfcf7
d9271baa-3fe6-4e23-950e-5950c551da8a,2afe58a0-9cdf-4785-9400-7ffcb17ada93
0a3bfe15-e03c-4777-a92a-fd21ad23ad61,5280c97a-b903-40eb-91ce-c1aa1c254807
1377b7be-bbf9-4343-af37-a382431413e4,757b73ce-c4fe-4f6a-9792-50ca7c076fed
f8609b74-05c7-45e0-87df-a289320aeaf6,9cd530f2-a1ca-4da7-b1f4-3e361f71fbc7
6b921d06-5dac-434f-9b7a-fe9db4112be8,05ad3cc5-5bc3-4ddb-a68b-9cc6b282fd4f
316085f0-5e97-4658-97ee-fe2adce4b2ea,32af675b-3b65-40dd-9765-7826d3f02f50
14cf6453-d4b8-4609-a6ad-02a71db59758,46847f49-c520-4a3c-b363-6c630e963c3a
0bcb96da-5e40-4cff-b5ea-365694c787ab,17451750-55a5-4e5e-9e6f-c4f2f192b28d
716ef6f2-0d1e-4c2a-8806-18eb1a1ec4fb,d97d0cdb-886c-4d85-b187-20302411f8ed
509bd0dd-6f95-4862-8378-d9437014ffdf,3e2494ab-d4e1-4da8-b4ff-9aef74403171
6091ddc8-644a-4641-9a36-bab099fa9287,3e2494ab-d4e1-4da8-b4ff-9aef74403171
6b25ab57-dd2c-4023-9249-7361689d9d00,234bf61e-b10a-46b3-84c6-c9ac67724f28
25733823-afcf-4aa7-86d9-6423dfc9786d,bd98ccaf-a2b3-4862-bcb0-ae04d865fa0d
bbe379fe-82c9-47f7-9dbe-5f7cee01667f,703c772a-abff-4396-8fcd-fdf76431b0d8
1b1c8a82-6001-4f0a-9ac7-459a551519c5,703c772a-abff-4396-8fcd-fdf76431b0d8
ee3ce5b4-5838-447f-87e3-a45f024cdaf1,e0f00c1d-4353-4377-9bdd-b9e30a6bfcf7
c9d95436-30f0-427e-ba75-26635551aebb,9ef2c08c-476d-4c1a-8026-f7f8fdc5e84c
b229aa45-dde6-483e-8eee-44b2026f899c,d97d0cdb-886c-4d85-b187-20302411f8ed
867d1210-f459-4743-91f5-4d7b17c49a1e,e0f00c1d-4353-4377-9bdd-b9e30a6bfcf7
0b2a5f8b-f817-45e4-ad74-8b4576c538e6,757b73ce-c4fe-4f6a-9792-50ca7c076fed
1a86e5fc-5c93-4319-894c-c36a09a685e0,a7a41564-84de-4ef4-aaab-d02d38d3487b
00ae255f-e1bb-4cdf-9b7c-bb0e5a234971,3218a226-10db-4755-8742-e19e845f013b
a2dd715d-a124-4d0f-a322-5e0c5526cb82,de99e591-b2a7-41bd-94c9-ff14b32dd0da
738578b1-36ac-4b50-8972-487edd3cda60,de99e591-b2a7-41bd-94c9-ff14b32dd0da
3601bdfa-a8c4-42b2-a307-4d6c6fc2dfb7,757b73ce-c4fe-4f6a-9792-50ca7c076fed
1f94514b-953e-4903-bcb2-055efe4fecab,0135970a-da22-46fb-ac87-6c6b7c301ea6
6ec1f0c0-ca75-4b4c-a04b-0eb1545486c4,757b73ce-c4fe-4f6a-9792-50ca7c076fed
5e9eccd3-b2bc-4cf8-9489-c00f67845d23,757b73ce-c4fe-4f6a-9792-50ca7c076fed
d634d2bb-93eb-4417-b7d4-1900a875b386,757b73ce-c4fe-4f6a-9792-50ca7c076fed
b7279403-6370-4d25-bbba-f64393ebb48f,fa5ee38a-6894-4cc6-83d5-aac16e493aef
e31a776f-b915-415f-a033-f797b70972fd,9cd530f2-a1ca-4da7-b1f4-3e361f71fbc7
f29cd314-1605-4be8-b398-67b6bd56ea60,9cd530f2-a1ca-4da7-b1f4-3e361f71fbc7
100bbf0b-976f-49e4-b73e-244f4753f5e7,268a9bd3-afcb-4ef0-8bd2-925fd3164d1b
b35a9230-73b5-4f12-94eb-f1d007b4c176,70ec402b-ed30-4ce1-b412-6aeb9f92babd
77c5e484-f3bf-43eb-8785-29d37a1d7bfa,9cd530f2-a1ca-4da7-b1f4-3e361f71fbc7
0f965be0-90a4-4772-b0ec-7f2486c130b1,9cd530f2-a1ca-4da7-b1f4-3e361f71fbc7
2f738b2a-a034-444e-baf5-16a961edf401,1a5cc72d-17fb-4200-9088-b1e58c84a15c
ee41c5a3-1637-4ee5-a703-b38f2d7553d4,9cd530f2-a1ca-4da7-b1f4-3e361f71fbc7
a32d7bc8-d014-43a8-9f0a-bec79156eb13,9cd530f2-a1ca-4da7-b1f4-3e361f71fbc7
225e1159-5a44-4075-a6e0-65605231790f,81cdd5c9-7ab5-4669-9b89-bb8851228287
be6264d3-c44d-49fe-889e-1ba4c36fa4ed,277dda01-5ad9-459b-a3cb-6e2a3f7b944c
0cbbc008-23db-4e20-850a-37ab04cee00c,277dda01-5ad9-459b-a3cb-6e2a3f7b944c
dcd24dd1-35a0-4756-85c0-8bd37af10429,f40078a1-8cdc-490a-916a-e52889516ab6
558fc80c-f7b8-4a10-beb5-8bfeaa721784,a7b0b36b-28fb-4c0a-96fe-2514916478fc
cb28b42c-2976-41c1-9324-c0bae2b9ebe0,f40078a1-8cdc-490a-916a-e52889516ab6
c33dc063-9833-4692-b2cd-bf5bbb2295af,ebbcc431-faaa-4191-a339-09a30e2370f6
2919936e-ff9f-468a-8b5f-d1ba8e98c84a,ebbcc431-faaa-4191-a339-09a30e2370f6
0dc06a3f-2c9c-4a89-a51c-23113f21a3a5,9b128743-6d53-41bc-9131-819ec8e2fede
f45cecf4-996b-4005-aee7-49e219911451,c4381ce7-20be-45fd-9926-8608febec3b5
a852abd2-b4b2-4405-bc00-1797af1ad6a8,e0f00c1d-4353-4377-9bdd-b9e30a6bfcf7
21f07327-e346-45ef-9ece-3756c798a3a1,e0f00c1d-4353-4377-9bdd-b9e30a6bfcf7
bc6441ee-3c3a-48e2-87ba-3085deea0a27,a39eed1c-7b80-4a2b-b17a-364bd892136a
a47387f0-7146-44e3-9e6c-265c98f38024,5f8bac26-3ce6-442d-b9fc-b9a181420d02
9f08d26a-7359-4014-946d-d77a786cd56a,5f8bac26-3ce6-442d-b9fc-b9a181420d02
445b555a-c107-4adc-88fe-b64ab52d19a6,8c3304aa-d5e6-4801-acb0-83f261e2375f
9a45a2b4-13c9-43c8-ab16-e5b77c3a8d21,e0f00c1d-4353-4377-9bdd-b9e30a6bfcf7
fa90c708-756b-4ab7-bc58-251a5c724fbe,e0f00c1d-4353-4377-9bdd-b9e30a6bfcf7
c35284db-b2b6-44fa-8449-3325ca945970,703c772a-abff-4396-8fcd-fdf76431b0d8
151d936e-5952-4a6c-b86f-b47db87530fa,ef67198c-5cfa-467c-930d-936da483c32c
d2bd5ad2-956a-4e80-8c1a-c68100a5bc83,703c772a-abff-4396-8fcd-fdf76431b0d8
e558086e-25b4-49ee-a525-6bd7548a636f,05ad3cc5-5bc3-4ddb-a68b-9cc6b282fd4f
7e1adb4e-52c0-40e0-b68e-c5bcabf22885,48417eea-9c6e-4386-9342-e8e10f98e56a
abb4bd71-3a41-4eed-95a2-fb39825f1d59,05ad3cc5-5bc3-4ddb-a68b-9cc6b282fd4f
ac3f346b-188b-4c5b-b632-1bdded4e5d7e,703c772a-abff-4396-8fcd-fdf76431b0d8
692eff0b-a4dd-45f4-a20a-799229b7cdb8,dc032810-abd3-43e5-a490-835d8f0a4a0e
15c60b4a-2393-4acf-9255-e9077154196c,703c772a-abff-4396-8fcd-fdf76431b0d8
fcfe8ed6-82f9-4359-87b8-428b97a86b78,9cd530f2-a1ca-4da7-b1f4-3e361f71fbc7
4ca8d067-5970-40bd-a230-1b700369612d,9cd530f2-a1ca-4da7-b1f4-3e361f71fbc7
343e59f6-7341-4a0b-8994-450c98d9ba91,1fe2422b-09ab-4c5c-b9e4-2570d770f17f
abe6e302-3b8e-46d5-8f02-a14d5a07c923,ebbcc431-faaa-4191-a339-09a30e2370f6
3e237086-492b-44cb-a272-be8649564c93,ebbcc431-faaa-4191-a339-09a30e2370f6
839bcf94-a503-4935-952b-bb0361c2c240,bb521db7-f554-4a19-aaf2-2085ecf8551b
bb0f563b-e720-4056-88df-ffba9b7ad2c0,9cd530f2-a1ca-4da7-b1f4-3e361f71fbc7
63401c2a-7ff1-4e50-85b1-8eada425efb9,9cd530f2-a1ca-4da7-b1f4-3e361f71fbc7
fbc37f95-2427-4010-9bbf-2b6ca324eb0d,f5767a1b-7424-4276-b176-93112b89c8dd
253a1969-cc4e-4627-8ce9-809af0e5d667,d97d0cdb-886c-4d85-b187-20302411f8ed
7498cc45-e807-49e1-b2c5-59546af4a67e,136c4730-268d-4ed1-802e-73c7df67a95a
d51b68f1-4de8-49eb-a797-a9a7e98b432e,d97d0cdb-886c-4d85-b187-20302411f8ed
cf683af8-f92b-49ab-8c8e-e372e2e4d7b2,ebbcc431-faaa-4191-a339-09a30e2370f6
27c1d8e7-008b-4b98-971b-43074779c366,011c72e7-7579-4d74-a979-4d592f101f94
398b59ad-3d56-4eb2-b482-80f064be3182,ebbcc431-faaa-4191-a339-09a30e2370f6
d442a030-9f71-48f0-8a3f-ac7835466770,05ad3cc5-5bc3-4ddb-a68b-9cc6b282fd4f
878ed789-eeeb-4fcf-8af2-a63d68714e3a,05ad3cc5-5bc3-4ddb-a68b-9cc6b282fd4f
30d9c91e-8882-4eb8-b1f2-5e571790e4e4,da1f53c3-4113-4948-a062-07b65fc4465c
3c6c479d-b4dc-4ab1-9531-cefe2a01c330,5f8bac26-3ce6-442d-b9fc-b9a181420d02
8af06b2c-1bf6-409a-8258-3c30525658f9,95e5d7c7-f68b-45ad-aaf7-7a47befbe1f1
87b1911e-d6b4-46ea-8531-8253b9534cf5,5f8bac26-3ce6-442d-b9fc-b9a181420d02
29a7f2dc-ea21-454f-87bd-3a6bf5347af6,08fc21d5-a7a1-4328-bb50-646b73e13b5b
50ecf67e-2a0e-4f73-8403-759ab1f2c9c8,2afe58a0-9cdf-4785-9400-7ffcb17ada93
5bf3a9f2-5f68-44c9-a1f5-dc0b7ac3acb7,2afe58a0-9cdf-4785-9400-7ffcb17ada93
c92e800a-bf91-42d9-9390-2242bc0afe2f,5cba9058-7151-4eaf-a54b-b164dd9767e3
89558f0a-835c-4467-a502-5e9f519c8592,5cba9058-7151-4eaf-a54b-b164dd9767e3
4ac2e0a2-8e73-4ab4-a6ba-d556f66651d1,1b341b15-c91c-4631-bc8d-1809ee9e6c43
567b678f-c522-485a-ac48-edb9f3ab66b0,5cba9058-7151-4eaf-a54b-b164dd9767e3
dd4eae09-67f4-42a5-b6fb-62a04ee734ba,5cba9058-7151-4eaf-a54b-b164dd9767e3
92754e36-a63a-4e1d-be35-abc664cd1d8e,7a105b46-2cfa-47c5-8ef1-800641db40cc
0c79b30e-a25e-47e4-a964-35fb5e140bbd,3c086635-68a4-4fa5-a4cb-f3ff8a09932f
85f0e3f4-bcdb-4e20-b81a-43fe7a85f100,5f8bac26-3ce6-442d-b9fc-b9a181420d02
b5c089d1-fcb0-4139-ba8e-706e8bea2b14,5f8bac26-3ce6-442d-b9fc-b9a181420d02
adcabe73-09b3-4001-bb87-5771ca4162a0,de99e591-b2a7-41bd-94c9-ff14b32dd0da
03049f73-71cb-47bc-95c3-49d8abcc2263,de99e591-b2a7-41bd-94c9-ff14b32dd0da
4f2d85a8-fcb4-4381-86a5-924e90f53dbe,d897c199-3cbe-41c1-8082-4199ed57c12b
a0cbf2ff-ffde-4cba-b168-ba17e6ee0e23,de99e591-b2a7-41bd-94c9-ff14b32dd0da
3da63977-a307-4b1f-9626-be9f93cf056f,de99e591-b2a7-41bd-94c9-ff14b32dd0da
041b9568-d639-4659-8390-fa5905ec40fe,d7fd4367-9672-4406-85ea-ff6b61a55e43
a3463fba-a328-430a-8d1e-96dccb135bf0,de99e591-b2a7-41bd-94c9-ff14b32dd0da
11eb82fb-c68f-4df5-8b36-8117194ca203,bac75930-f57c-4730-a3cd-a9ba78046faf
e95c6d4b-ffe7-4331-bf5e-28b483724723,de99e591-b2a7-41bd-94c9-ff14b32dd0da
be3436f8-dba2-4654-89fa-e3b1962d3a27,c8cb42cb-878f-4afe-9f27-8c215cc40cd6
270cfeb5-b2b9-47b5-9dba-b060f58c3b51,f40078a1-8cdc-490a-916a-e52889516ab6
d464d472-f523-4ff2-9c16-85a638e5ae16,f40078a1-8cdc-490a-916a-e52889516ab6
ab5ce06c-4256-4eec-ae40-db7effff64d9,26efb53c-1dc7-400f-9f0c-184ceb106a09
2afc0c34-8700-46e8-a5a6-f40e3d8d6663,2afe58a0-9cdf-4785-9400-7ffcb17ada93
3a7d23e4-1c1a-425e-8eaa-c78d128a27ab,2afe58a0-9cdf-4785-9400-7ffcb17ada93
6310975b-b26d-46a6-94d4-4a0dc86f8a18,05ad3cc5-5bc3-4ddb-a68b-9cc6b282fd4f
5fb0f846-6750-43f6-b96c-c1b121eafc4c,7d4e3092-a4c7-4aa0-9b22-0e433174bdbf
4d4145a7-542d-45de-a942-f3af427425aa,05ad3cc5-5bc3-4ddb-a68b-9cc6b282fd4f
45f675bb-0ac6-4f0d-9212-2caf82879724,b4d0bfe0-452c-4320-9f78-23f5a9453e73
a0b7246d-3126-4af6-9767-86601f11906b,d97d0cdb-886c-4d85-b187-20302411f8ed
869552a8-7b3e-4c5a-9d0d-a7699fb87673,d97d0cdb-886c-4d85-b187-20302411f8ed
116acddc-b234-44e1-a7bc-7be6f8cc9bf3,e0f00c1d-4353-4377-9bdd-b9e30a6bfcf7
0356c498-e46b-498d-aac8-21b38a6b846e,6d2512fd-c115-4dee-a974-063deed0cea9
e6ca3349-db52-4af3-bc42-b7174b805375,e0f00c1d-4353-4377-9bdd-b9e30a6bfcf7
3da40dec-e43d-42f9-ae3b-8e8e0ff89a8b,05ad3cc5-5bc3-4ddb-a68b-9cc6b282fd4f
dc695257-c5e7-4a3a-a59d-bbf0b14579c4,05ad3cc5-5bc3-4ddb-a68b-9cc6b282fd4f
4f71c448-2ac8-422f-9593-7f9e4fcaae2a,27614d43-864c-4eb0-848e-b5237c10c93e
81d9d5a6-bfb2-4034-b96a-50b8190a43c1,e0f00c1d-4353-4377-9bdd-b9e30a6bfcf7
a393f73f-28b4-4408-a366-981fb2a68447,cddb6c8b-89a1-4c25-9122-2dfea0d0dde1
f7405e51-b581-4c96-8e70-1d182b5896aa,e0f00c1d-4353-4377-9bdd-b9e30a6bfcf7
e877068d-bfd3-41d9-8228-7a7a6c7f726d,5cba9058-7151-4eaf-a54b-b164dd9767e3
ebb61d53-7b6d-4059-9961-5e12a94611b6,2947533c-3210-42d3-9178-92e7cc980bb7
cded0b96-2f65-442c-afcc-f720b446bf3a,5cba9058-7151-4eaf-a54b-b164dd9767e3
12d74b69-f09e-4ede-8d31-d24326216c64,3e2494ab-d4e1-4da8-b4ff-9aef74403171
a1f4df72-f633-4281-ac5c-88ce485ab4d0,2f60cb4f-a7a4-467c-8883-a2d18e54b952
994e0201-f756-49ef-a8fd-c2dab50169ae,3e2494ab-d4e1-4da8-b4ff-9aef74403171
47c5ff55-36e7-4fc9-8847-90f58b47704c,5f8bac26-3ce6-442d-b9fc-b9a181420d02
6492cbd8-a0f7-4236-8323-e5b9f20c9a7c,5f8bac26-3ce6-442d-b9fc-b9a181420d02
fd584d64-f8e7-473b-9a5b-6596de51b735,35b08553-82bf-488b-93c4-3ac7463b5be5
c0f4a8d1-31fd-42e5-8d18-014fb25ee718,4bd5ff28-7098-41c3-949f-0f2ff43fdb0d
334fd210-c109-4ac7-89e4-61190ffc6222,3e2494ab-d4e1-4da8-b4ff-9aef74403171
7faf3360-c931-4e46-813b-4c9bf4657f41,3e2494ab-d4e1-4da8-b4ff-9aef74403171
