date,trigger,state
2020-02-29 18:49:14,6f6723b3-a51d-4fd5-bdf6-59d258b307cd,A
2020-02-29 18:52:05,6f6723b3-a51d-4fd5-bdf6-59d258b307cd,S
2020-02-29 18:53:25,6f6723b3-a51d-4fd5-bdf6-59d258b307cd,A
2020-02-29 19:03:39,6f6723b3-a51d-4fd5-bdf6-59d258b307cd,S
2020-02-29 19:03:53,6f6723b3-a51d-4fd5-bdf6-59d258b307cd,A
2020-02-29 19:04:59,6f6723b3-a51d-4fd5-bdf6-59d258b307cd,S
2020-02-29 19:06:13,6f6723b3-a51d-4fd5-bdf6-59d258b307cd,A
2020-02-29 19:09:52,6f6723b3-a51d-4fd5-bdf6-59d258b307cd,S
2020-02-29 19:12:35,6f6723b3-a51d-4fd5-bdf6-59d258b307cd,A
2020-02-29 19:17:46,6f6723b3-a51d-4fd5-bdf6-59d258b307cd,S
2020-02-29 19:19:07,6f6723b3-a51d-4fd5-bdf6-59d258b307cd,A
2020-02-29 19:25:03,6f6723b3-a51d-4fd5-bdf6-59d258b307cd,S
2020-02-29 19:36:19,6f6723b3-a51d-4fd5-bdf6-59d258b307cd,A
2020-02-29 19:40:00,6f6723b3-a51d-4fd5-bdf6-59d258b307cd,S
2020-02-29 19:44:32,6f6723b3-a51d-4fd5-bdf6-59d258b307cd,A
2020-02-29 19:55:59,6f6723b3-a51d-4fd5-bdf6-59d258b307cd,S
2020-02-29 20:09:26,6f6723b3-a51d-4fd5-bdf6-59d258b307cd,A
2020-02-29 20:10:24,6f6723b3-a51d-4fd5-bdf6-59d258b307cd,S
2020-02-29 20:11:57,6f6723b3-a51d-4fd5-bdf6-59d258b307cd,A
2020-02-29 20:12:43,6f6723b3-a51d-4fd5-bdf6-59d258b307cd,S
2020-02-29 20:13:53,6f6723b3-a51d-4fd5-bdf6-59d258b307cd,A
2020-02-29 20:22:28,6f6723b3-a51d-4fd5-bdf6-59d258b307cd,S
2020-02-29 20:24:26,6f6723b3-a51d-4fd5-bdf6-59d258b307cd,A
2020-02-29 20:26:14,6f6723b3-a51d-4fd5-bdf6-59d258b307cd,S
2020-02-29 20:31:02,6f6723b3-a51d-4fd5-bdf6-59d258b307cd,A
2020-02-29 20:39:55,6f6723b3-a51d-4fd5-bdf6-59d258b307cd,S
2020-02-29 20:50:47,6f6723b3-a51d-4fd5-bdf6-59d258b307cd,A
2020-02-29 20:54:44,6f6723b3-a51d-4fd5-bdf6-59d258b307cd,S
2020-02-29 20:55:01,6f6723b3-a51d-4fd5-bdf6-59d258b307cd,A
2020-02-29 21:00:41,6f6723b3-a51d-4fd5-bdf6-59d258b307cd,S
2020-02-29 21:07:05,6f6723b3-a51d-4fd5-bdf6-59d258b307cd,A
2020-02-29 21:07:06,6f6723b3-a51d-4fd5-bdf6-59d258b307cd,S
2020-02-29 21:09:05,6f6723b3-a51d-4fd5-bdf6-59d258b307cd,A
2020-02-29 21:11:43,6f6723b3-a51d-4fd5-bdf6-59d258b307cd,S
2020-02-29 21:13:33,6f6723b3-a51d-4fd5-bdf6-59d258b307cd,A
2020-02-29 21:16:33,6f6723b3-a51d-4fd5-bdf6-59d258b307cd,S
2020-02-29 21:19:21,6f6723b3-a51d-4fd5-bdf6-59d258b307cd,A
2020-02-29 21:20:49,6f6723b3-a51d-4fd5-bdf6-59d258b307cd,S
2020-02-29 21:24:17,6f6723b3-a51d-4fd5-bdf6-59d258b307cd,A
2020-02-29 21:25:31,6f6723b3-a51d-4fd5-bdf6-59d258b307cd,S
2020-02-29 21:27:58,6f6723b3-a51d-4fd5-bdf6-59d258b307cd,A
2020-02-29 21:33:09,6f6723b3-a51d-4fd5-bdf6-59d258b307cd,S
2020-02-29 21:39:03,6f6723b3-a51d-4fd5-bdf6-59d258b307cd,A
2020-02-29 19:19:30,41770a11-c8e7-4030-a647-9b1aad544dcc,A
2020-02-29 19:22:20,41770a11-c8e7-4030-a647-9b1aad544dcc,S
2020-02-29 19:32:06,41770a11-c8e7-4030-a647-9b1aad544dcc,A
2020-02-29 19:38:13,41770a11-c8e7-4030-a647-9b1aad544dcc,S
2020-02-29 19:16:54,172a3ba2-30f2-449f-b10a-c1b1312f0d0f,S
2020-02-29 19:18:40,172a3ba2-30f2-449f-b10a-c1b1312f0d0f,A
2020-02-29 19:20:38,172a3ba2-30f2-449f-b10a-c1b1312f0d0f,S
2020-02-29 19:22:57,172a3ba2-30f2-449f-b10a-c1b1312f0d0f,A
2020-02-29 19:26:19,172a3ba2-30f2-449f-b10a-c1b1312f0d0f,S
2020-02-29 19:37:55,172a3ba2-30f2-449f-b10a-c1b1312f0d0f,A
2020-02-29 19:39:26,172a3ba2-30f2-449f-b10a-c1b1312f0d0f,S
2020-02-29 19:52:35,172a3ba2-30f2-449f-b10a-c1b1312f0d0f,A
2020-02-29 19:58:18,172a3ba2-30f2-449f-b10a-c1b1312f0d0f,S
2020-02-29 20:04:40,172a3ba2-30f2-449f-b10a-c1b1312f0d0f,A
2020-02-29 20:07:33,172a3ba2-30f2-449f-b10a-c1b1312f0d0f,S
2020-02-29 20:15:33,172a3ba2-30f2-449f-b10a-c1b1312f0d0f,A
2020-02-29 20:21:42,172a3ba2-30f2-449f-b10a-c1b1312f0d0f,S
2020-02-29 20:25:06,172a3ba2-30f2-449f-b10a-c1b1312f0d0f,A
2020-02-29 20:25:59,172a3ba2-30f2-449f-b10a-c1b1312f0d0f,S
2020-02-29 20:35:02,172a3ba2-30f2-449f-b10a-c1b1312f0d0f,A
2020-02-29 20:37:04,172a3ba2-30f2-449f-b10a-c1b1312f0d0f,S
2020-02-29 20:38:11,172a3ba2-30f2-449f-b10a-c1b1312f0d0f,A
2020-02-29 20:41:31,172a3ba2-30f2-449f-b10a-c1b1312f0d0f,S
2020-02-29 20:42:43,172a3ba2-30f2-449f-b10a-c1b1312f0d0f,A
2020-02-29 20:45:27,172a3ba2-30f2-449f-b10a-c1b1312f0d0f,S
2020-02-29 20:48:41,172a3ba2-30f2-449f-b10a-c1b1312f0d0f,A
2020-02-29 20:52:17,172a3ba2-30f2-449f-b10a-c1b1312f0d0f,S
2020-02-29 20:52:41,172a3ba2-30f2-449f-b10a-c1b1312f0d0f,A
2020-02-29 21:05:46,172a3ba2-30f2-449f-b10a-c1b1312f0d0f,S
2020-02-29 21:07:35,172a3ba2-30f2-449f-b10a-c1b1312f0d0f,A
2020-02-29 21:11:25,172a3ba2-30f2-449f-b10a-c1b1312f0d0f,S
2020-02-29 21:26:54,172a3ba2-30f2-449f-b10a-c1b1312f0d0f,A
2020-02-29 21:33:31,172a3ba2-30f2-449f-b10a-c1b1312f0d0f,S
2020-02-29 21:38:44,172a3ba2-30f2-449f-b10a-c1b1312f0d0f,A
2020-02-29 21:39:49,172a3ba2-30f2-449f-b10a-c1b1312f0d0f,S
2020-02-29 18:59:38,03f50175-27cc-42ad-95d5-7c5518ac9277,S
2020-02-29 19:03:19,03f50175-27cc-42ad-95d5-7c5518ac9277,A
2020-02-29 19:05:48,03f50175-27cc-42ad-95d5-7c5518ac9277,S
2020-02-29 19:10:30,03f50175-27cc-42ad-95d5-7c5518ac9277,A
2020-02-29 19:19:09,03f50175-27cc-42ad-95d5-7c5518ac9277,S
2020-02-29 19:22:54,03f50175-27cc-42ad-95d5-7c5518ac9277,A
2020-02-29 19:24:32,03f50175-27cc-42ad-95d5-7c5518ac9277,S
2020-02-29 19:33:03,03f50175-27cc-42ad-95d5-7c5518ac9277,A
2020-02-29 19:41:28,03f50175-27cc-42ad-95d5-7c5518ac9277,S
2020-02-29 19:49:04,03f50175-27cc-42ad-95d5-7c5518ac9277,A
2020-02-29 19:50:49,03f50175-27cc-42ad-95d5-7c5518ac9277,S
2020-02-29 19:55:20,03f50175-27cc-42ad-95d5-7c5518ac9277,A
2020-02-29 19:56:24,03f50175-27cc-42ad-95d5-7c5518ac9277,S
2020-02-29 20:00:25,03f50175-27cc-42ad-95d5-7c5518ac9277,A
2020-02-29 20:07:56,03f50175-27cc-42ad-95d5-7c5518ac9277,S
2020-02-29 20:10:15,03f50175-27cc-42ad-95d5-7c5518ac9277,A
2020-02-29 20:15:26,03f50175-27cc-42ad-95d5-7c5518ac9277,S
2020-02-29 20:23:32,03f50175-27cc-42ad-95d5-7c5518ac9277,A
2020-02-29 20:30:56,03f50175-27cc-42ad-95d5-7c5518ac9277,S
2020-02-29 20:31:18,03f50175-27cc-42ad-95d5-7c5518ac9277,A
2020-02-29 20:36:51,03f50175-27cc-42ad-95d5-7c5518ac9277,S
2020-02-29 20:47:54,03f50175-27cc-42ad-95d5-7c5518ac9277,A
2020-02-29 20:52:18,03f50175-27cc-42ad-95d5-7c5518ac9277,S
2020-02-29 20:55:06,03f50175-27cc-42ad-95d5-7c5518ac9277,A
2020-02-29 21:01:48,03f50175-27cc-42ad-95d5-7c5518ac9277,S
2020-02-29 21:02:38,03f50175-27cc-42ad-95d5-7c5518ac9277,A
2020-02-29 21:05:24,03f50175-27cc-42ad-95d5-7c5518ac9277,S
2020-02-29 21:09:14,03f50175-27cc-42ad-95d5-7c5518ac9277,A
2020-02-29 21:15:42,03f50175-27cc-42ad-95d5-7c5518ac9277,S
2020-02-29 21:18:47,03f50175-27cc-42ad-95d5-7c5518ac9277,A
2020-02-29 21:31:07,03f50175-27cc-42ad-95d5-7c5518ac9277,S
2020-02-29 21:35:54,03f50175-27cc-42ad-95d5-7c5518ac9277,A
2020-02-29 21:37:58,03f50175-27cc-42ad-95d5-7c5518ac9277,S
2020-02-29 21:41:46,03f50175-27cc-42ad-95d5-7c5518ac9277,A
2020-02-29 21:44:30,03f50175-27cc-42ad-95d5-7c5518ac9277,S
2020-02-29 21:46:01,03f50175-27cc-42ad-95d5-7c5518ac9277,A
2020-02-29 19:04:48,2fa6a0ca-3b26-464d-aa8b-4f69693adeb7,A
2020-02-29 19:12:35,2fa6a0ca-3b26-464d-aa8b-4f69693adeb7,S
2020-02-29 19:14:28,2fa6a0ca-3b26-464d-aa8b-4f69693adeb7,A
2020-02-29 19:15:46,2fa6a0ca-3b26-464d-aa8b-4f69693adeb7,S
2020-02-29 19:20:34,2fa6a0ca-3b26-464d-aa8b-4f69693adeb7,A
2020-02-29 19:34:31,2fa6a0ca-3b26-464d-aa8b-4f69693adeb7,S
2020-02-29 19:35:13,2fa6a0ca-3b26-464d-aa8b-4f69693adeb7,A
2020-02-29 19:35:15,2fa6a0ca-3b26-464d-aa8b-4f69693adeb7,S
2020-02-29 19:38:31,2fa6a0ca-3b26-464d-aa8b-4f69693adeb7,A
2020-02-29 19:38:36,2fa6a0ca-3b26-464d-aa8b-4f69693adeb7,S
2020-02-29 19:40:39,2fa6a0ca-3b26-464d-aa8b-4f69693adeb7,A
2020-02-29 19:40:59,2fa6a0ca-3b26-464d-aa8b-4f69693adeb7,S
2020-02-29 19:41:59,2fa6a0ca-3b26-464d-aa8b-4f69693adeb7,A
2020-02-29 19:42:34,2fa6a0ca-3b26-464d-aa8b-4f69693adeb7,S
2020-02-29 19:45:21,2fa6a0ca-3b26-464d-aa8b-4f69693adeb7,A
2020-02-29 19:53:17,2fa6a0ca-3b26-464d-aa8b-4f69693adeb7,S
2020-02-29 20:01:23,2fa6a0ca-3b26-464d-aa8b-4f69693adeb7,A
2020-02-29 20:11:59,2fa6a0ca-3b26-464d-aa8b-4f69693adeb7,S
2020-02-29 20:12:46,2fa6a0ca-3b26-464d-aa8b-4f69693adeb7,A
2020-02-29 20:12:53,2fa6a0ca-3b26-464d-aa8b-4f69693adeb7,S
2020-02-29 20:21:48,2fa6a0ca-3b26-464d-aa8b-4f69693adeb7,A
2020-02-29 20:32:32,2fa6a0ca-3b26-464d-aa8b-4f69693adeb7,S
2020-02-29 20:38:04,2fa6a0ca-3b26-464d-aa8b-4f69693adeb7,A
2020-02-29 20:40:42,2fa6a0ca-3b26-464d-aa8b-4f69693adeb7,S
2020-02-29 20:41:26,2fa6a0ca-3b26-464d-aa8b-4f69693adeb7,A
2020-02-29 20:46:06,2fa6a0ca-3b26-464d-aa8b-4f69693adeb7,S
2020-02-29 20:47:56,2fa6a0ca-3b26-464d-aa8b-4f69693adeb7,A
2020-02-29 21:01:11,2fa6a0ca-3b26-464d-aa8b-4f69693adeb7,S
2020-02-29 21:03:04,2fa6a0ca-3b26-464d-aa8b-4f69693adeb7,A
2020-02-29 21:09:16,2fa6a0ca-3b26-464d-aa8b-4f69693adeb7,S
2020-02-29 21:12:04,2fa6a0ca-3b26-464d-aa8b-4f69693adeb7,A
2020-02-29 21:13:52,2fa6a0ca-3b26-464d-aa8b-4f69693adeb7,S
2020-02-29 21:14:15,2fa6a0ca-3b26-464d-aa8b-4f69693adeb7,A
2020-02-29 21:14:54,2fa6a0ca-3b26-464d-aa8b-4f69693adeb7,S
2020-02-29 21:27:25,2fa6a0ca-3b26-464d-aa8b-4f69693adeb7,A
2020-02-29 21:27:26,2fa6a0ca-3b26-464d-aa8b-4f69693adeb7,S
2020-02-29 21:28:02,2fa6a0ca-3b26-464d-aa8b-4f69693adeb7,A
2020-02-29 21:28:31,2fa6a0ca-3b26-464d-aa8b-4f69693adeb7,S
2020-02-29 21:41:54,2fa6a0ca-3b26-464d-aa8b-4f69693adeb7,A
2020-02-29 21:47:03,2fa6a0ca-3b26-464d-aa8b-4f69693adeb7,S
2020-02-29 19:12:11,a0c35a15-da6b-4742-80b4-a9eed0fa118c,S
2020-02-29 19:22:18,a0c35a15-da6b-4742-80b4-a9eed0fa118c,A
2020-02-29 19:29:06,a0c35a15-da6b-4742-80b4-a9eed0fa118c,S
2020-02-29 19:30:19,a0c35a15-da6b-4742-80b4-a9eed0fa118c,A
2020-02-29 19:31:14,a0c35a15-da6b-4742-80b4-a9eed0fa118c,S
2020-02-29 19:37:05,a0c35a15-da6b-4742-80b4-a9eed0fa118c,A
2020-02-29 19:46:28,a0c35a15-da6b-4742-80b4-a9eed0fa118c,S
2020-02-29 19:55:30,a0c35a15-da6b-4742-80b4-a9eed0fa118c,A
2020-02-29 19:58:00,a0c35a15-da6b-4742-80b4-a9eed0fa118c,S
2020-02-29 19:58:08,a0c35a15-da6b-4742-80b4-a9eed0fa118c,A
2020-02-29 20:00:50,a0c35a15-da6b-4742-80b4-a9eed0fa118c,S
2020-02-29 20:10:22,a0c35a15-da6b-4742-80b4-a9eed0fa118c,A
2020-02-29 20:11:03,a0c35a15-da6b-4742-80b4-a9eed0fa118c,S
2020-02-29 20:15:28,a0c35a15-da6b-4742-80b4-a9eed0fa118c,A
2020-02-29 20:23:29,a0c35a15-da6b-4742-80b4-a9eed0fa118c,S
2020-02-29 20:29:08,a0c35a15-da6b-4742-80b4-a9eed0fa118c,A
2020-02-29 20:29:51,a0c35a15-da6b-4742-80b4-a9eed0fa118c,S
2020-02-29 20:38:40,a0c35a15-da6b-4742-80b4-a9eed0fa118c,A
2020-02-29 20:43:55,a0c35a15-da6b-4742-80b4-a9eed0fa118c,S
2020-02-29 20:46:47,a0c35a15-da6b-4742-80b4-a9eed0fa118c,A
2020-02-29 20:47:14,a0c35a15-da6b-4742-80b4-a9eed0fa118c,S
2020-02-29 20:52:20,a0c35a15-da6b-4742-80b4-a9eed0fa118c,A
2020-02-29 20:53:23,a0c35a15-da6b-4742-80b4-a9eed0fa118c,S
2020-02-29 20:55:19,a0c35a15-da6b-4742-80b4-a9eed0fa118c,A
2020-02-29 21:02:54,a0c35a15-da6b-4742-80b4-a9eed0fa118c,S
2020-02-29 21:04:19,a0c35a15-da6b-4742-80b4-a9eed0fa118c,A
2020-02-29 21:14:12,a0c35a15-da6b-4742-80b4-a9eed0fa118c,S
2020-02-29 21:16:00,a0c35a15-da6b-4742-80b4-a9eed0fa118c,A
2020-02-29 21:20:54,a0c35a15-da6b-4742-80b4-a9eed0fa118c,S
2020-02-29 21:25:18,a0c35a15-da6b-4742-80b4-a9eed0fa118c,A
2020-02-29 21:34:02,a0c35a15-da6b-4742-80b4-a9eed0fa118c,S
2020-02-29 21:35:34,a0c35a15-da6b-4742-80b4-a9eed0fa118c,A
2020-02-29 21:37:28,a0c35a15-da6b-4742-80b4-a9eed0fa118c,S
2020-02-29 21:39:54,a0c35a15-da6b-4742-80b4-a9eed0fa118c,A
2020-02-29 21:44:08,a0c35a15-da6b-4742-80b4-a9eed0fa118c,S
2020-02-29 18:53:58,55e652d2-fe8f-40ab-976e-d933dc46b57c,A
2020-02-29 19:13:29,55e652d2-fe8f-40ab-976e-d933dc46b57c,S
2020-02-29 19:18:01,55e652d2-fe8f-40ab-976e-d933dc46b57c,A
2020-02-29 19:19:43,55e652d2-fe8f-40ab-976e-d933dc46b57c,S
2020-02-29 19:24:20,55e652d2-fe8f-40ab-976e-d933dc46b57c,A
2020-02-29 19:24:25,55e652d2-fe8f-40ab-976e-d933dc46b57c,S
2020-02-29 19:27:16,55e652d2-fe8f-40ab-976e-d933dc46b57c,A
2020-02-29 19:28:39,55e652d2-fe8f-40ab-976e-d933dc46b57c,S
2020-02-29 19:29:44,55e652d2-fe8f-40ab-976e-d933dc46b57c,A
2020-02-29 19:29:58,55e652d2-fe8f-40ab-976e-d933dc46b57c,S
2020-02-29 19:34:16,55e652d2-fe8f-40ab-976e-d933dc46b57c,A
2020-02-29 19:46:09,55e652d2-fe8f-40ab-976e-d933dc46b57c,S
2020-02-29 19:46:51,55e652d2-fe8f-40ab-976e-d933dc46b57c,A
2020-02-29 20:02:31,55e652d2-fe8f-40ab-976e-d933dc46b57c,S
2020-02-29 20:09:46,55e652d2-fe8f-40ab-976e-d933dc46b57c,A
2020-02-29 20:10:08,55e652d2-fe8f-40ab-976e-d933dc46b57c,S
2020-02-29 20:10:37,55e652d2-fe8f-40ab-976e-d933dc46b57c,A
2020-02-29 20:11:44,55e652d2-fe8f-40ab-976e-d933dc46b57c,S
2020-02-29 20:19:32,55e652d2-fe8f-40ab-976e-d933dc46b57c,A
2020-02-29 20:22:01,55e652d2-fe8f-40ab-976e-d933dc46b57c,S
2020-02-29 20:23:00,55e652d2-fe8f-40ab-976e-d933dc46b57c,A
2020-02-29 20:27:58,55e652d2-fe8f-40ab-976e-d933dc46b57c,S
2020-02-29 20:31:24,55e652d2-fe8f-40ab-976e-d933dc46b57c,A
2020-02-29 20:39:07,55e652d2-fe8f-40ab-976e-d933dc46b57c,S
2020-02-29 20:42:39,55e652d2-fe8f-40ab-976e-d933dc46b57c,A
2020-02-29 20:43:43,55e652d2-fe8f-40ab-976e-d933dc46b57c,S
2020-02-29 20:45:01,55e652d2-fe8f-40ab-976e-d933dc46b57c,A
2020-02-29 20:54:10,55e652d2-fe8f-40ab-976e-d933dc46b57c,S
2020-02-29 20:55:17,55e652d2-fe8f-40ab-976e-d933dc46b57c,A
2020-02-29 20:57:55,55e652d2-fe8f-40ab-976e-d933dc46b57c,S
2020-02-29 21:00:01,55e652d2-fe8f-40ab-976e-d933dc46b57c,A
2020-02-29 21:08:34,55e652d2-fe8f-40ab-976e-d933dc46b57c,S
2020-02-29 21:10:47,55e652d2-fe8f-40ab-976e-d933dc46b57c,A
2020-02-29 21:15:45,55e652d2-fe8f-40ab-976e-d933dc46b57c,S
2020-02-29 21:19:12,55e652d2-fe8f-40ab-976e-d933dc46b57c,A
2020-02-29 21:19:47,55e652d2-fe8f-40ab-976e-d933dc46b57c,S
2020-02-29 21:21:19,55e652d2-fe8f-40ab-976e-d933dc46b57c,A
2020-02-29 21:25:53,55e652d2-fe8f-40ab-976e-d933dc46b57c,S
2020-02-29 21:30:22,55e652d2-fe8f-40ab-976e-d933dc46b57c,A
2020-02-29 21:30:43,55e652d2-fe8f-40ab-976e-d933dc46b57c,S
2020-02-29 21:36:16,55e652d2-fe8f-40ab-976e-d933dc46b57c,A
2020-02-29 21:36:46,55e652d2-fe8f-40ab-976e-d933dc46b57c,S
2020-02-29 19:16:26,16ad909a-0afe-4b50-899f-7a3c15667f11,A
2020-02-29 19:21:26,16ad909a-0afe-4b50-899f-7a3c15667f11,S
2020-02-29 19:23:46,16ad909a-0afe-4b50-899f-7a3c15667f11,A
2020-02-29 19:34:04,16ad909a-0afe-4b50-899f-7a3c15667f11,S
2020-02-29 19:42:46,16ad909a-0afe-4b50-899f-7a3c15667f11,A
2020-02-29 19:44:45,16ad909a-0afe-4b50-899f-7a3c15667f11,S
2020-02-29 19:59:25,16ad909a-0afe-4b50-899f-7a3c15667f11,A
2020-02-29 19:59:38,16ad909a-0afe-4b50-899f-7a3c15667f11,S
2020-02-29 20:02:20,16ad909a-0afe-4b50-899f-7a3c15667f11,A
2020-02-29 20:05:41,16ad909a-0afe-4b50-899f-7a3c15667f11,S
2020-02-29 20:07:02,16ad909a-0afe-4b50-899f-7a3c15667f11,A
2020-02-29 20:07:24,16ad909a-0afe-4b50-899f-7a3c15667f11,S
2020-02-29 20:09:52,16ad909a-0afe-4b50-899f-7a3c15667f11,A
2020-02-29 20:11:38,16ad909a-0afe-4b50-899f-7a3c15667f11,S
2020-02-29 20:12:39,16ad909a-0afe-4b50-899f-7a3c15667f11,A
2020-02-29 20:14:56,16ad909a-0afe-4b50-899f-7a3c15667f11,S
2020-02-29 20:21:52,16ad909a-0afe-4b50-899f-7a3c15667f11,A
2020-02-29 20:24:04,16ad909a-0afe-4b50-899f-7a3c15667f11,S
2020-02-29 20:27:42,16ad909a-0afe-4b50-899f-7a3c15667f11,A
2020-02-29 20:30:59,16ad909a-0afe-4b50-899f-7a3c15667f11,S
2020-02-29 20:33:27,16ad909a-0afe-4b50-899f-7a3c15667f11,A
2020-02-29 20:34:10,16ad909a-0afe-4b50-899f-7a3c15667f11,S
2020-02-29 20:38:32,16ad909a-0afe-4b50-899f-7a3c15667f11,A
2020-02-29 20:46:02,16ad909a-0afe-4b50-899f-7a3c15667f11,S
2020-02-29 20:50:00,16ad909a-0afe-4b50-899f-7a3c15667f11,A
2020-02-29 20:52:46,16ad909a-0afe-4b50-899f-7a3c15667f11,S
2020-02-29 20:56:10,16ad909a-0afe-4b50-899f-7a3c15667f11,A
2020-02-29 21:01:12,16ad909a-0afe-4b50-899f-7a3c15667f11,S
2020-02-29 21:01:55,16ad909a-0afe-4b50-899f-7a3c15667f11,A
2020-02-29 21:05:54,16ad909a-0afe-4b50-899f-7a3c15667f11,S
2020-02-29 21:07:05,16ad909a-0afe-4b50-899f-7a3c15667f11,A
2020-02-29 21:13:48,16ad909a-0afe-4b50-899f-7a3c15667f11,S
2020-02-29 21:16:04,16ad909a-0afe-4b50-899f-7a3c15667f11,A
2020-02-29 21:17:58,16ad909a-0afe-4b50-899f-7a3c15667f11,S
2020-02-29 21:19:38,16ad909a-0afe-4b50-899f-7a3c15667f11,A
2020-02-29 21:29:33,16ad909a-0afe-4b50-899f-7a3c15667f11,S
2020-02-29 18:54:30,3c7756fc-c75f-4770-ae87-e7fe89793b1f,A
2020-02-29 18:57:32,3c7756fc-c75f-4770-ae87-e7fe89793b1f,S
2020-02-29 19:04:03,3c7756fc-c75f-4770-ae87-e7fe89793b1f,A
2020-02-29 19:10:52,3c7756fc-c75f-4770-ae87-e7fe89793b1f,S
2020-02-29 19:22:47,3c7756fc-c75f-4770-ae87-e7fe89793b1f,A
2020-02-29 19:23:06,3c7756fc-c75f-4770-ae87-e7fe89793b1f,S
2020-02-29 19:38:30,3c7756fc-c75f-4770-ae87-e7fe89793b1f,A
2020-02-29 19:41:22,3c7756fc-c75f-4770-ae87-e7fe89793b1f,S
2020-02-29 19:43:22,3c7756fc-c75f-4770-ae87-e7fe89793b1f,A
2020-02-29 19:51:29,3c7756fc-c75f-4770-ae87-e7fe89793b1f,S
2020-02-29 19:52:25,3c7756fc-c75f-4770-ae87-e7fe89793b1f,A
2020-02-29 19:54:38,3c7756fc-c75f-4770-ae87-e7fe89793b1f,S
2020-02-29 20:09:02,3c7756fc-c75f-4770-ae87-e7fe89793b1f,A
2020-02-29 20:14:21,3c7756fc-c75f-4770-ae87-e7fe89793b1f,S
2020-02-29 20:15:54,3c7756fc-c75f-4770-ae87-e7fe89793b1f,A
2020-02-29 20:16:41,3c7756fc-c75f-4770-ae87-e7fe89793b1f,S
2020-02-29 20:18:38,3c7756fc-c75f-4770-ae87-e7fe89793b1f,A
2020-02-29 20:21:56,3c7756fc-c75f-4770-ae87-e7fe89793b1f,S
2020-02-29 20:22:03,3c7756fc-c75f-4770-ae87-e7fe89793b1f,A
2020-02-29 20:34:22,3c7756fc-c75f-4770-ae87-e7fe89793b1f,S
2020-02-29 20:35:42,3c7756fc-c75f-4770-ae87-e7fe89793b1f,A
2020-02-29 20:40:34,3c7756fc-c75f-4770-ae87-e7fe89793b1f,S
2020-02-29 20:44:00,3c7756fc-c75f-4770-ae87-e7fe89793b1f,A
2020-02-29 20:45:14,3c7756fc-c75f-4770-ae87-e7fe89793b1f,S
2020-02-29 20:45:56,3c7756fc-c75f-4770-ae87-e7fe89793b1f,A
2020-02-29 20:58:37,3c7756fc-c75f-4770-ae87-e7fe89793b1f,S
2020-02-29 21:00:04,3c7756fc-c75f-4770-ae87-e7fe89793b1f,A
2020-02-29 21:01:18,3c7756fc-c75f-4770-ae87-e7fe89793b1f,S
2020-02-29 21:03:55,3c7756fc-c75f-4770-ae87-e7fe89793b1f,A
2020-02-29 21:10:29,3c7756fc-c75f-4770-ae87-e7fe89793b1f,S
2020-02-29 21:15:14,3c7756fc-c75f-4770-ae87-e7fe89793b1f,A
2020-02-29 21:16:53,3c7756fc-c75f-4770-ae87-e7fe89793b1f,S
2020-02-29 21:28:29,3c7756fc-c75f-4770-ae87-e7fe89793b1f,A
2020-02-29 21:32:33,3c7756fc-c75f-4770-ae87-e7fe89793b1f,S
2020-02-29 21:39:39,3c7756fc-c75f-4770-ae87-e7fe89793b1f,A
2020-02-29 21:39:41,3c7756fc-c75f-4770-ae87-e7fe89793b1f,S
2020-02-29 21:41:21,3c7756fc-c75f-4770-ae87-e7fe89793b1f,A
2020-02-29 18:57:03,f0825651-7acf-4733-a19e-518711f8dc6c,S
2020-02-29 19:01:27,f0825651-7acf-4733-a19e-518711f8dc6c,A
2020-02-29 19:02:25,f0825651-7acf-4733-a19e-518711f8dc6c,S
2020-02-29 19:05:41,f0825651-7acf-4733-a19e-518711f8dc6c,A
2020-02-29 19:06:04,f0825651-7acf-4733-a19e-518711f8dc6c,S
2020-02-29 19:09:02,f0825651-7acf-4733-a19e-518711f8dc6c,A
2020-02-29 19:13:02,f0825651-7acf-4733-a19e-518711f8dc6c,S
2020-02-29 19:15:16,f0825651-7acf-4733-a19e-518711f8dc6c,A
2020-02-29 19:17:22,f0825651-7acf-4733-a19e-518711f8dc6c,S
2020-02-29 19:21:33,f0825651-7acf-4733-a19e-518711f8dc6c,A
2020-02-29 19:26:10,f0825651-7acf-4733-a19e-518711f8dc6c,S
2020-02-29 19:29:15,f0825651-7acf-4733-a19e-518711f8dc6c,A
2020-02-29 19:31:25,f0825651-7acf-4733-a19e-518711f8dc6c,S
2020-02-29 19:37:27,f0825651-7acf-4733-a19e-518711f8dc6c,A
2020-02-29 19:39:58,f0825651-7acf-4733-a19e-518711f8dc6c,S
2020-02-29 19:40:42,f0825651-7acf-4733-a19e-518711f8dc6c,A
2020-02-29 19:40:46,f0825651-7acf-4733-a19e-518711f8dc6c,S
2020-02-29 19:43:36,f0825651-7acf-4733-a19e-518711f8dc6c,A
2020-02-29 19:51:52,f0825651-7acf-4733-a19e-518711f8dc6c,S
2020-02-29 19:54:38,f0825651-7acf-4733-a19e-518711f8dc6c,A
2020-02-29 19:54:40,f0825651-7acf-4733-a19e-518711f8dc6c,S
2020-02-29 20:00:46,f0825651-7acf-4733-a19e-518711f8dc6c,A
2020-02-29 20:05:09,f0825651-7acf-4733-a19e-518711f8dc6c,S
2020-02-29 20:12:29,f0825651-7acf-4733-a19e-518711f8dc6c,A
2020-02-29 20:13:39,f0825651-7acf-4733-a19e-518711f8dc6c,S
2020-02-29 20:17:36,f0825651-7acf-4733-a19e-518711f8dc6c,A
2020-02-29 20:18:22,f0825651-7acf-4733-a19e-518711f8dc6c,S
2020-02-29 20:18:40,f0825651-7acf-4733-a19e-518711f8dc6c,A
2020-02-29 20:29:13,f0825651-7acf-4733-a19e-518711f8dc6c,S
2020-02-29 20:30:36,f0825651-7acf-4733-a19e-518711f8dc6c,A
2020-02-29 20:36:21,f0825651-7acf-4733-a19e-518711f8dc6c,S
2020-02-29 20:40:47,f0825651-7acf-4733-a19e-518711f8dc6c,A
2020-02-29 20:42:06,f0825651-7acf-4733-a19e-518711f8dc6c,S
2020-02-29 20:44:54,f0825651-7acf-4733-a19e-518711f8dc6c,A
2020-02-29 20:46:18,f0825651-7acf-4733-a19e-518711f8dc6c,S
2020-02-29 20:55:07,f0825651-7acf-4733-a19e-518711f8dc6c,A
2020-02-29 20:56:37,f0825651-7acf-4733-a19e-518711f8dc6c,S
2020-02-29 21:00:16,f0825651-7acf-4733-a19e-518711f8dc6c,A
2020-02-29 21:00:33,f0825651-7acf-4733-a19e-518711f8dc6c,S
2020-02-29 21:04:31,f0825651-7acf-4733-a19e-518711f8dc6c,A
2020-02-29 19:20:26,b10fbad2-6ce0-47d8-adfc-3e8eb3068bb5,A
2020-02-29 19:21:38,b10fbad2-6ce0-47d8-adfc-3e8eb3068bb5,S
2020-02-29 19:26:09,b10fbad2-6ce0-47d8-adfc-3e8eb3068bb5,A
2020-02-29 19:26:49,b10fbad2-6ce0-47d8-adfc-3e8eb3068bb5,S
2020-02-29 19:36:52,b10fbad2-6ce0-47d8-adfc-3e8eb3068bb5,A
2020-02-29 19:40:29,b10fbad2-6ce0-47d8-adfc-3e8eb3068bb5,S
2020-02-29 19:51:44,b10fbad2-6ce0-47d8-adfc-3e8eb3068bb5,A
2020-02-29 20:24:06,b10fbad2-6ce0-47d8-adfc-3e8eb3068bb5,S
2020-02-29 20:25:48,b10fbad2-6ce0-47d8-adfc-3e8eb3068bb5,A
2020-02-29 20:26:36,b10fbad2-6ce0-47d8-adfc-3e8eb3068bb5,S
2020-02-29 20:30:00,b10fbad2-6ce0-47d8-adfc-3e8eb3068bb5,A
2020-02-29 20:41:26,b10fbad2-6ce0-47d8-adfc-3e8eb3068bb5,S
2020-02-29 20:46:09,b10fbad2-6ce0-47d8-adfc-3e8eb3068bb5,A
2020-02-29 20:49:29,b10fbad2-6ce0-47d8-adfc-3e8eb3068bb5,S
2020-02-29 20:55:47,b10fbad2-6ce0-47d8-adfc-3e8eb3068bb5,A
2020-02-29 20:56:31,b10fbad2-6ce0-47d8-adfc-3e8eb3068bb5,S
2020-02-29 21:00:11,b10fbad2-6ce0-47d8-adfc-3e8eb3068bb5,A
2020-02-29 21:02:47,b10fbad2-6ce0-47d8-adfc-3e8eb3068bb5,S
2020-02-29 21:11:22,b10fbad2-6ce0-47d8-adfc-3e8eb3068bb5,A
2020-02-29 21:16:00,b10fbad2-6ce0-47d8-adfc-3e8eb3068bb5,S
2020-02-29 21:17:12,b10fbad2-6ce0-47d8-adfc-3e8eb3068bb5,A
2020-02-29 21:22:01,b10fbad2-6ce0-47d8-adfc-3e8eb3068bb5,S
2020-02-29 21:25:26,b10fbad2-6ce0-47d8-adfc-3e8eb3068bb5,A
2020-02-29 21:30:37,b10fbad2-6ce0-47d8-adfc-3e8eb3068bb5,S
2020-02-29 21:32:05,b10fbad2-6ce0-47d8-adfc-3e8eb3068bb5,A
2020-02-29 21:32:29,b10fbad2-6ce0-47d8-adfc-3e8eb3068bb5,S
2020-02-29 21:36:56,b10fbad2-6ce0-47d8-adfc-3e8eb3068bb5,A
2020-02-29 19:42:21,84b4bb99-5a4c-4b4c-8198-115bc6eada32,S
2020-02-29 19:45:47,84b4bb99-5a4c-4b4c-8198-115bc6eada32,A
2020-02-29 19:45:56,84b4bb99-5a4c-4b4c-8198-115bc6eada32,S
2020-02-29 19:52:56,84b4bb99-5a4c-4b4c-8198-115bc6eada32,A
2020-02-29 19:54:22,84b4bb99-5a4c-4b4c-8198-115bc6eada32,S
2020-02-29 19:59:17,84b4bb99-5a4c-4b4c-8198-115bc6eada32,A
2020-02-29 20:00:51,84b4bb99-5a4c-4b4c-8198-115bc6eada32,S
2020-02-29 20:01:18,84b4bb99-5a4c-4b4c-8198-115bc6eada32,A
2020-02-29 20:06:53,84b4bb99-5a4c-4b4c-8198-115bc6eada32,S
2020-02-29 20:20:34,84b4bb99-5a4c-4b4c-8198-115bc6eada32,A
2020-02-29 20:24:24,84b4bb99-5a4c-4b4c-8198-115bc6eada32,S
2020-02-29 20:34:51,84b4bb99-5a4c-4b4c-8198-115bc6eada32,A
2020-02-29 20:35:40,84b4bb99-5a4c-4b4c-8198-115bc6eada32,S
2020-02-29 20:38:30,84b4bb99-5a4c-4b4c-8198-115bc6eada32,A
2020-02-29 20:39:04,84b4bb99-5a4c-4b4c-8198-115bc6eada32,S
2020-02-29 20:57:08,84b4bb99-5a4c-4b4c-8198-115bc6eada32,A
2020-02-29 21:02:24,84b4bb99-5a4c-4b4c-8198-115bc6eada32,S
2020-02-29 21:08:14,84b4bb99-5a4c-4b4c-8198-115bc6eada32,A
2020-02-29 21:15:58,84b4bb99-5a4c-4b4c-8198-115bc6eada32,S
2020-02-29 21:16:45,84b4bb99-5a4c-4b4c-8198-115bc6eada32,A
2020-02-29 21:19:16,84b4bb99-5a4c-4b4c-8198-115bc6eada32,S
2020-02-29 21:19:39,84b4bb99-5a4c-4b4c-8198-115bc6eada32,A
2020-02-29 21:28:42,84b4bb99-5a4c-4b4c-8198-115bc6eada32,S
2020-02-29 21:43:09,84b4bb99-5a4c-4b4c-8198-115bc6eada32,A
2020-02-29 21:45:38,84b4bb99-5a4c-4b4c-8198-115bc6eada32,S
2020-02-29 21:47:26,84b4bb99-5a4c-4b4c-8198-115bc6eada32,A
2020-02-29 19:38:53,2c5456dc-98b1-47a6-8178-5895c143ee67,S
2020-02-29 19:45:50,2c5456dc-98b1-47a6-8178-5895c143ee67,A
2020-02-29 20:03:25,2c5456dc-98b1-47a6-8178-5895c143ee67,S
2020-02-29 20:20:28,2c5456dc-98b1-47a6-8178-5895c143ee67,A
2020-02-29 20:21:21,2c5456dc-98b1-47a6-8178-5895c143ee67,S
2020-02-29 20:26:44,2c5456dc-98b1-47a6-8178-5895c143ee67,A
2020-02-29 20:27:33,2c5456dc-98b1-47a6-8178-5895c143ee67,S
2020-02-29 20:36:14,2c5456dc-98b1-47a6-8178-5895c143ee67,A
2020-02-29 20:36:27,2c5456dc-98b1-47a6-8178-5895c143ee67,S
2020-02-29 20:37:23,2c5456dc-98b1-47a6-8178-5895c143ee67,A
2020-02-29 20:39:40,2c5456dc-98b1-47a6-8178-5895c143ee67,S
2020-02-29 20:48:28,2c5456dc-98b1-47a6-8178-5895c143ee67,A
2020-02-29 20:50:56,2c5456dc-98b1-47a6-8178-5895c143ee67,S
2020-02-29 20:58:57,2c5456dc-98b1-47a6-8178-5895c143ee67,A
2020-02-29 21:05:29,2c5456dc-98b1-47a6-8178-5895c143ee67,S
2020-02-29 21:28:18,2c5456dc-98b1-47a6-8178-5895c143ee67,A
2020-02-29 21:31:11,2c5456dc-98b1-47a6-8178-5895c143ee67,S
2020-02-29 21:31:19,2c5456dc-98b1-47a6-8178-5895c143ee67,A
2020-02-29 21:33:42,2c5456dc-98b1-47a6-8178-5895c143ee67,S
2020-02-29 21:37:02,2c5456dc-98b1-47a6-8178-5895c143ee67,A
2020-02-29 21:39:55,2c5456dc-98b1-47a6-8178-5895c143ee67,S
2020-02-29 21:41:17,2c5456dc-98b1-47a6-8178-5895c143ee67,A
2020-02-29 21:42:17,2c5456dc-98b1-47a6-8178-5895c143ee67,S
2020-02-29 21:43:15,2c5456dc-98b1-47a6-8178-5895c143ee67,A
2020-02-29 21:44:22,2c5456dc-98b1-47a6-8178-5895c143ee67,S
2020-02-29 21:45:01,2c5456dc-98b1-47a6-8178-5895c143ee67,A
2020-02-29 19:12:09,b963964a-dec6-4622-b05d-cf540aa202e1,S
2020-02-29 19:17:07,b963964a-dec6-4622-b05d-cf540aa202e1,A
2020-02-29 19:20:22,b963964a-dec6-4622-b05d-cf540aa202e1,S
2020-02-29 19:25:20,b963964a-dec6-4622-b05d-cf540aa202e1,A
2020-02-29 19:33:57,b963964a-dec6-4622-b05d-cf540aa202e1,S
2020-02-29 19:52:28,b963964a-dec6-4622-b05d-cf540aa202e1,A
2020-02-29 19:58:08,b963964a-dec6-4622-b05d-cf540aa202e1,S
2020-02-29 20:00:41,b963964a-dec6-4622-b05d-cf540aa202e1,A
2020-02-29 19:00:48,932b55c5-5d32-4167-9649-f69c47861c00,S
2020-02-29 19:07:15,932b55c5-5d32-4167-9649-f69c47861c00,A
2020-02-29 19:18:05,932b55c5-5d32-4167-9649-f69c47861c00,S
2020-02-29 19:19:58,932b55c5-5d32-4167-9649-f69c47861c00,A
2020-02-29 19:20:15,932b55c5-5d32-4167-9649-f69c47861c00,S
2020-02-29 19:35:35,932b55c5-5d32-4167-9649-f69c47861c00,A
2020-02-29 19:37:12,932b55c5-5d32-4167-9649-f69c47861c00,S
2020-02-29 19:41:17,932b55c5-5d32-4167-9649-f69c47861c00,A
2020-02-29 19:43:02,932b55c5-5d32-4167-9649-f69c47861c00,S
2020-02-29 19:48:02,932b55c5-5d32-4167-9649-f69c47861c00,A
2020-02-29 19:54:54,932b55c5-5d32-4167-9649-f69c47861c00,S
2020-02-29 19:59:41,932b55c5-5d32-4167-9649-f69c47861c00,A
2020-02-29 20:06:15,932b55c5-5d32-4167-9649-f69c47861c00,S
2020-02-29 20:12:09,932b55c5-5d32-4167-9649-f69c47861c00,A
2020-02-29 20:22:47,932b55c5-5d32-4167-9649-f69c47861c00,S
2020-02-29 20:30:02,932b55c5-5d32-4167-9649-f69c47861c00,A
2020-02-29 20:32:29,932b55c5-5d32-4167-9649-f69c47861c00,S
2020-02-29 20:34:10,932b55c5-5d32-4167-9649-f69c47861c00,A
2020-02-29 20:38:48,932b55c5-5d32-4167-9649-f69c47861c00,S
2020-02-29 20:43:48,932b55c5-5d32-4167-9649-f69c47861c00,A
2020-02-29 20:53:43,932b55c5-5d32-4167-9649-f69c47861c00,S
2020-02-29 20:53:47,932b55c5-5d32-4167-9649-f69c47861c00,A
2020-02-29 20:58:27,932b55c5-5d32-4167-9649-f69c47861c00,S
2020-02-29 21:00:12,932b55c5-5d32-4167-9649-f69c47861c00,A
2020-02-29 21:06:54,932b55c5-5d32-4167-9649-f69c47861c00,S
2020-02-29 21:07:01,932b55c5-5d32-4167-9649-f69c47861c00,A
2020-02-29 21:09:43,932b55c5-5d32-4167-9649-f69c47861c00,S
2020-02-29 21:16:36,932b55c5-5d32-4167-9649-f69c47861c00,A
2020-02-29 21:37:30,932b55c5-5d32-4167-9649-f69c47861c00,S
2020-02-29 21:44:18,932b55c5-5d32-4167-9649-f69c47861c00,A
2020-02-29 19:31:05,4053625f-23bc-4805-9564-75c2e0d64014,A
2020-02-29 19:31:50,4053625f-23bc-4805-9564-75c2e0d64014,S
2020-02-29 19:32:12,4053625f-23bc-4805-9564-75c2e0d64014,A
2020-02-29 19:32:36,4053625f-23bc-4805-9564-75c2e0d64014,S
2020-02-29 19:41:09,4053625f-23bc-4805-9564-75c2e0d64014,A
2020-02-29 20:04:42,4053625f-23bc-4805-9564-75c2e0d64014,S
2020-02-29 20:40:43,4053625f-23bc-4805-9564-75c2e0d64014,A
2020-02-29 20:44:56,4053625f-23bc-4805-9564-75c2e0d64014,S
2020-02-29 20:46:41,4053625f-23bc-4805-9564-75c2e0d64014,A
2020-02-29 20:48:03,4053625f-23bc-4805-9564-75c2e0d64014,S
2020-02-29 20:49:12,4053625f-23bc-4805-9564-75c2e0d64014,A
2020-02-29 20:57:50,4053625f-23bc-4805-9564-75c2e0d64014,S
2020-02-29 21:04:05,4053625f-23bc-4805-9564-75c2e0d64014,A
2020-02-29 21:22:51,4053625f-23bc-4805-9564-75c2e0d64014,S
2020-02-29 21:24:52,4053625f-23bc-4805-9564-75c2e0d64014,A
2020-02-29 21:28:13,4053625f-23bc-4805-9564-75c2e0d64014,S
2020-02-29 21:40:56,4053625f-23bc-4805-9564-75c2e0d64014,A
2020-02-29 19:17:00,7a876f33-7c13-43c4-9693-b08c0b5492a2,A
2020-02-29 19:19:10,7a876f33-7c13-43c4-9693-b08c0b5492a2,S
2020-02-29 19:19:18,7a876f33-7c13-43c4-9693-b08c0b5492a2,A
2020-02-29 19:20:44,7a876f33-7c13-43c4-9693-b08c0b5492a2,S
2020-02-29 19:27:30,7a876f33-7c13-43c4-9693-b08c0b5492a2,A
2020-02-29 19:28:56,7a876f33-7c13-43c4-9693-b08c0b5492a2,S
2020-02-29 19:32:14,7a876f33-7c13-43c4-9693-b08c0b5492a2,A
2020-02-29 19:33:55,7a876f33-7c13-43c4-9693-b08c0b5492a2,S
2020-02-29 19:37:09,7a876f33-7c13-43c4-9693-b08c0b5492a2,A
2020-02-29 19:38:37,7a876f33-7c13-43c4-9693-b08c0b5492a2,S
2020-02-29 19:38:40,7a876f33-7c13-43c4-9693-b08c0b5492a2,A
2020-02-29 19:39:05,7a876f33-7c13-43c4-9693-b08c0b5492a2,S
2020-02-29 19:42:15,7a876f33-7c13-43c4-9693-b08c0b5492a2,A
2020-02-29 19:44:54,7a876f33-7c13-43c4-9693-b08c0b5492a2,S
2020-02-29 19:45:07,7a876f33-7c13-43c4-9693-b08c0b5492a2,A
2020-02-29 19:52:11,7a876f33-7c13-43c4-9693-b08c0b5492a2,S
2020-02-29 19:53:51,7a876f33-7c13-43c4-9693-b08c0b5492a2,A
2020-02-29 19:54:02,7a876f33-7c13-43c4-9693-b08c0b5492a2,S
2020-02-29 19:58:24,7a876f33-7c13-43c4-9693-b08c0b5492a2,A
2020-02-29 20:00:16,7a876f33-7c13-43c4-9693-b08c0b5492a2,S
2020-02-29 20:09:18,7a876f33-7c13-43c4-9693-b08c0b5492a2,A
2020-02-29 20:10:53,7a876f33-7c13-43c4-9693-b08c0b5492a2,S
2020-02-29 20:18:48,7a876f33-7c13-43c4-9693-b08c0b5492a2,A
2020-02-29 20:21:47,7a876f33-7c13-43c4-9693-b08c0b5492a2,S
2020-02-29 20:24:36,7a876f33-7c13-43c4-9693-b08c0b5492a2,A
2020-02-29 20:25:02,7a876f33-7c13-43c4-9693-b08c0b5492a2,S
2020-02-29 20:28:32,7a876f33-7c13-43c4-9693-b08c0b5492a2,A
2020-02-29 20:32:12,7a876f33-7c13-43c4-9693-b08c0b5492a2,S
2020-02-29 20:32:16,7a876f33-7c13-43c4-9693-b08c0b5492a2,A
2020-02-29 20:41:34,7a876f33-7c13-43c4-9693-b08c0b5492a2,S
2020-02-29 20:42:06,7a876f33-7c13-43c4-9693-b08c0b5492a2,A
2020-02-29 20:46:41,7a876f33-7c13-43c4-9693-b08c0b5492a2,S
2020-02-29 20:52:24,7a876f33-7c13-43c4-9693-b08c0b5492a2,A
2020-02-29 20:57:31,7a876f33-7c13-43c4-9693-b08c0b5492a2,S
2020-02-29 21:01:55,7a876f33-7c13-43c4-9693-b08c0b5492a2,A
2020-02-29 21:10:22,7a876f33-7c13-43c4-9693-b08c0b5492a2,S
2020-02-29 21:13:05,7a876f33-7c13-43c4-9693-b08c0b5492a2,A
2020-02-29 21:14:23,7a876f33-7c13-43c4-9693-b08c0b5492a2,S
2020-02-29 21:15:54,7a876f33-7c13-43c4-9693-b08c0b5492a2,A
2020-02-29 21:29:28,7a876f33-7c13-43c4-9693-b08c0b5492a2,S
2020-02-29 21:31:04,7a876f33-7c13-43c4-9693-b08c0b5492a2,A
2020-02-29 21:32:30,7a876f33-7c13-43c4-9693-b08c0b5492a2,S
2020-02-29 21:38:29,7a876f33-7c13-43c4-9693-b08c0b5492a2,A
2020-02-29 21:39:00,7a876f33-7c13-43c4-9693-b08c0b5492a2,S
2020-02-29 21:42:01,7a876f33-7c13-43c4-9693-b08c0b5492a2,A
2020-02-29 21:43:47,7a876f33-7c13-43c4-9693-b08c0b5492a2,S
2020-02-29 21:45:06,7a876f33-7c13-43c4-9693-b08c0b5492a2,A
2020-02-29 21:47:43,7a876f33-7c13-43c4-9693-b08c0b5492a2,S
2020-02-29 19:12:57,4a7024d7-a551-4497-b354-14bbb447a29d,A
2020-02-29 19:19:46,4a7024d7-a551-4497-b354-14bbb447a29d,S
2020-02-29 19:20:00,4a7024d7-a551-4497-b354-14bbb447a29d,A
2020-02-29 19:29:40,4a7024d7-a551-4497-b354-14bbb447a29d,S
2020-02-29 19:34:48,4a7024d7-a551-4497-b354-14bbb447a29d,A
2020-02-29 19:44:35,4a7024d7-a551-4497-b354-14bbb447a29d,S
2020-02-29 19:49:02,4a7024d7-a551-4497-b354-14bbb447a29d,A
2020-02-29 19:51:22,4a7024d7-a551-4497-b354-14bbb447a29d,S
2020-02-29 19:51:29,4a7024d7-a551-4497-b354-14bbb447a29d,A
2020-02-29 19:54:17,0262d0cd-e04d-45f9-abfe-76786e253360,S
2020-02-29 19:59:22,0262d0cd-e04d-45f9-abfe-76786e253360,A
2020-02-29 20:07:29,0262d0cd-e04d-45f9-abfe-76786e253360,S
2020-02-29 20:16:12,0262d0cd-e04d-45f9-abfe-76786e253360,A
2020-02-29 20:27:04,0262d0cd-e04d-45f9-abfe-76786e253360,S
2020-02-29 20:38:15,0262d0cd-e04d-45f9-abfe-76786e253360,A
2020-02-29 20:40:17,0262d0cd-e04d-45f9-abfe-76786e253360,S
2020-02-29 20:47:50,0262d0cd-e04d-45f9-abfe-76786e253360,A
2020-02-29 20:50:34,0262d0cd-e04d-45f9-abfe-76786e253360,S
2020-02-29 20:58:12,0262d0cd-e04d-45f9-abfe-76786e253360,A
2020-02-29 21:01:46,0262d0cd-e04d-45f9-abfe-76786e253360,S
2020-02-29 21:04:56,0262d0cd-e04d-45f9-abfe-76786e253360,A
2020-02-29 21:06:58,0262d0cd-e04d-45f9-abfe-76786e253360,S
2020-02-29 21:11:54,0262d0cd-e04d-45f9-abfe-76786e253360,A
2020-02-29 21:14:33,0262d0cd-e04d-45f9-abfe-76786e253360,S
2020-02-29 21:15:28,0262d0cd-e04d-45f9-abfe-76786e253360,A
2020-02-29 21:16:09,0262d0cd-e04d-45f9-abfe-76786e253360,S
2020-02-29 21:16:19,0262d0cd-e04d-45f9-abfe-76786e253360,A
2020-02-29 21:20:36,0262d0cd-e04d-45f9-abfe-76786e253360,S
2020-02-29 21:27:54,0262d0cd-e04d-45f9-abfe-76786e253360,A
2020-02-29 21:43:11,0262d0cd-e04d-45f9-abfe-76786e253360,S
2020-02-29 21:44:36,0262d0cd-e04d-45f9-abfe-76786e253360,A
2020-02-29 21:48:00,0262d0cd-e04d-45f9-abfe-76786e253360,S
2020-02-29 21:49:14,0262d0cd-e04d-45f9-abfe-76786e253360,A
2020-02-29 19:24:15,e03730e6-2aa6-4d0e-b559-90210563fffe,A
2020-02-29 19:29:58,e03730e6-2aa6-4d0e-b559-90210563fffe,S
2020-02-29 19:31:45,e03730e6-2aa6-4d0e-b559-90210563fffe,A
2020-02-29 19:33:56,e03730e6-2aa6-4d0e-b559-90210563fffe,S
2020-02-29 19:36:43,e03730e6-2aa6-4d0e-b559-90210563fffe,A
2020-02-29 19:41:35,e03730e6-2aa6-4d0e-b559-90210563fffe,S
2020-02-29 19:47:17,e03730e6-2aa6-4d0e-b559-90210563fffe,A
2020-02-29 19:48:56,e03730e6-2aa6-4d0e-b559-90210563fffe,S
2020-02-29 19:50:03,e03730e6-2aa6-4d0e-b559-90210563fffe,A
2020-02-29 19:53:52,e03730e6-2aa6-4d0e-b559-90210563fffe,S
2020-02-29 19:57:12,e03730e6-2aa6-4d0e-b559-90210563fffe,A
2020-02-29 20:05:16,e03730e6-2aa6-4d0e-b559-90210563fffe,S
2020-02-29 20:14:18,e03730e6-2aa6-4d0e-b559-90210563fffe,A
2020-02-29 20:15:02,e03730e6-2aa6-4d0e-b559-90210563fffe,S
2020-02-29 20:25:19,e03730e6-2aa6-4d0e-b559-90210563fffe,A
2020-02-29 20:25:25,e03730e6-2aa6-4d0e-b559-90210563fffe,S
2020-02-29 20:26:42,e03730e6-2aa6-4d0e-b559-90210563fffe,A
2020-02-29 20:31:20,e03730e6-2aa6-4d0e-b559-90210563fffe,S
2020-02-29 20:37:28,e03730e6-2aa6-4d0e-b559-90210563fffe,A
2020-02-29 20:47:01,e03730e6-2aa6-4d0e-b559-90210563fffe,S
2020-02-29 20:50:24,e03730e6-2aa6-4d0e-b559-90210563fffe,A
2020-02-29 20:51:51,e03730e6-2aa6-4d0e-b559-90210563fffe,S
2020-02-29 20:53:25,e03730e6-2aa6-4d0e-b559-90210563fffe,A
2020-02-29 21:02:10,e03730e6-2aa6-4d0e-b559-90210563fffe,S
2020-02-29 21:03:05,e03730e6-2aa6-4d0e-b559-90210563fffe,A
2020-02-29 21:07:13,e03730e6-2aa6-4d0e-b559-90210563fffe,S
2020-02-29 21:10:05,e03730e6-2aa6-4d0e-b559-90210563fffe,A
2020-02-29 21:13:44,e03730e6-2aa6-4d0e-b559-90210563fffe,S
2020-02-29 21:16:05,e03730e6-2aa6-4d0e-b559-90210563fffe,A
2020-02-29 21:16:27,e03730e6-2aa6-4d0e-b559-90210563fffe,S
2020-02-29 21:23:27,e03730e6-2aa6-4d0e-b559-90210563fffe,A
2020-02-29 21:23:34,e03730e6-2aa6-4d0e-b559-90210563fffe,S
2020-02-29 21:30:30,e03730e6-2aa6-4d0e-b559-90210563fffe,A
2020-02-29 21:39:39,e03730e6-2aa6-4d0e-b559-90210563fffe,S
2020-02-29 21:41:45,e03730e6-2aa6-4d0e-b559-90210563fffe,A
2020-02-29 21:42:28,e03730e6-2aa6-4d0e-b559-90210563fffe,S
2020-02-29 21:46:17,e03730e6-2aa6-4d0e-b559-90210563fffe,A
2020-02-29 19:00:49,60a01a82-00cc-428f-afa0-01b511b4b2a5,A
2020-02-29 19:05:39,60a01a82-00cc-428f-afa0-01b511b4b2a5,S
2020-02-29 19:11:27,60a01a82-00cc-428f-afa0-01b511b4b2a5,A
2020-02-29 19:12:03,60a01a82-00cc-428f-afa0-01b511b4b2a5,S
2020-02-29 19:31:15,60a01a82-00cc-428f-afa0-01b511b4b2a5,A
2020-02-29 19:31:29,60a01a82-00cc-428f-afa0-01b511b4b2a5,S
2020-02-29 19:49:05,60a01a82-00cc-428f-afa0-01b511b4b2a5,A
2020-02-29 19:49:12,60a01a82-00cc-428f-afa0-01b511b4b2a5,S
2020-02-29 19:56:56,60a01a82-00cc-428f-afa0-01b511b4b2a5,A
2020-02-29 19:59:38,60a01a82-00cc-428f-afa0-01b511b4b2a5,S
2020-02-29 20:04:50,60a01a82-00cc-428f-afa0-01b511b4b2a5,A
2020-02-29 20:07:20,60a01a82-00cc-428f-afa0-01b511b4b2a5,S
2020-02-29 20:07:57,60a01a82-00cc-428f-afa0-01b511b4b2a5,A
2020-02-29 20:08:11,60a01a82-00cc-428f-afa0-01b511b4b2a5,S
2020-02-29 20:10:47,60a01a82-00cc-428f-afa0-01b511b4b2a5,A
2020-02-29 20:14:18,60a01a82-00cc-428f-afa0-01b511b4b2a5,S
2020-02-29 20:25:48,60a01a82-00cc-428f-afa0-01b511b4b2a5,A
2020-02-29 20:35:45,60a01a82-00cc-428f-afa0-01b511b4b2a5,S
2020-02-29 20:41:12,60a01a82-00cc-428f-afa0-01b511b4b2a5,A
2020-02-29 20:41:55,60a01a82-00cc-428f-afa0-01b511b4b2a5,S
2020-02-29 20:42:52,60a01a82-00cc-428f-afa0-01b511b4b2a5,A
2020-02-29 20:44:49,60a01a82-00cc-428f-afa0-01b511b4b2a5,S
2020-02-29 20:46:10,60a01a82-00cc-428f-afa0-01b511b4b2a5,A
2020-02-29 20:53:29,60a01a82-00cc-428f-afa0-01b511b4b2a5,S
2020-02-29 20:55:23,60a01a82-00cc-428f-afa0-01b511b4b2a5,A
2020-02-29 20:57:06,60a01a82-00cc-428f-afa0-01b511b4b2a5,S
2020-02-29 21:12:30,60a01a82-00cc-428f-afa0-01b511b4b2a5,A
2020-02-29 21:18:24,60a01a82-00cc-428f-afa0-01b511b4b2a5,S
2020-02-29 21:22:57,60a01a82-00cc-428f-afa0-01b511b4b2a5,A
2020-02-29 21:24:00,60a01a82-00cc-428f-afa0-01b511b4b2a5,S
2020-02-29 21:26:20,60a01a82-00cc-428f-afa0-01b511b4b2a5,A
2020-02-29 21:30:00,60a01a82-00cc-428f-afa0-01b511b4b2a5,S
2020-02-29 21:32:01,60a01a82-00cc-428f-afa0-01b511b4b2a5,A
2020-02-29 21:32:08,60a01a82-00cc-428f-afa0-01b511b4b2a5,S
2020-02-29 21:41:15,60a01a82-00cc-428f-afa0-01b511b4b2a5,A
2020-02-29 21:47:34,60a01a82-00cc-428f-afa0-01b511b4b2a5,S
2020-02-29 21:48:40,60a01a82-00cc-428f-afa0-01b511b4b2a5,A
2020-02-29 18:59:18,e93ed3df-b4aa-4a24-8e1d-c8022f9d26dd,S
2020-02-29 19:01:34,e93ed3df-b4aa-4a24-8e1d-c8022f9d26dd,A
2020-02-29 19:03:13,e93ed3df-b4aa-4a24-8e1d-c8022f9d26dd,S
2020-02-29 19:03:45,e93ed3df-b4aa-4a24-8e1d-c8022f9d26dd,A
2020-02-29 19:07:48,e93ed3df-b4aa-4a24-8e1d-c8022f9d26dd,S
2020-02-29 19:10:37,e93ed3df-b4aa-4a24-8e1d-c8022f9d26dd,A
2020-02-29 19:18:09,e93ed3df-b4aa-4a24-8e1d-c8022f9d26dd,S
2020-02-29 19:18:43,e93ed3df-b4aa-4a24-8e1d-c8022f9d26dd,A
2020-02-29 19:19:10,e93ed3df-b4aa-4a24-8e1d-c8022f9d26dd,S
2020-02-29 19:25:16,e93ed3df-b4aa-4a24-8e1d-c8022f9d26dd,A
2020-02-29 19:26:41,e93ed3df-b4aa-4a24-8e1d-c8022f9d26dd,S
2020-02-29 19:39:50,e93ed3df-b4aa-4a24-8e1d-c8022f9d26dd,A
2020-02-29 19:47:26,e93ed3df-b4aa-4a24-8e1d-c8022f9d26dd,S
2020-02-29 19:50:32,e93ed3df-b4aa-4a24-8e1d-c8022f9d26dd,A
2020-02-29 20:06:03,e93ed3df-b4aa-4a24-8e1d-c8022f9d26dd,S
2020-02-29 20:12:49,e93ed3df-b4aa-4a24-8e1d-c8022f9d26dd,A
2020-02-29 20:19:48,e93ed3df-b4aa-4a24-8e1d-c8022f9d26dd,S
2020-02-29 20:21:43,e93ed3df-b4aa-4a24-8e1d-c8022f9d26dd,A
2020-02-29 20:24:51,e93ed3df-b4aa-4a24-8e1d-c8022f9d26dd,S
2020-02-29 20:25:21,e93ed3df-b4aa-4a24-8e1d-c8022f9d26dd,A
2020-02-29 20:28:29,e93ed3df-b4aa-4a24-8e1d-c8022f9d26dd,S
2020-02-29 20:30:30,e93ed3df-b4aa-4a24-8e1d-c8022f9d26dd,A
2020-02-29 20:34:46,e93ed3df-b4aa-4a24-8e1d-c8022f9d26dd,S
2020-02-29 20:35:43,e93ed3df-b4aa-4a24-8e1d-c8022f9d26dd,A
2020-02-29 20:36:32,e93ed3df-b4aa-4a24-8e1d-c8022f9d26dd,S
2020-02-29 20:43:59,e93ed3df-b4aa-4a24-8e1d-c8022f9d26dd,A
2020-02-29 20:46:12,e93ed3df-b4aa-4a24-8e1d-c8022f9d26dd,S
2020-02-29 20:49:44,e93ed3df-b4aa-4a24-8e1d-c8022f9d26dd,A
2020-02-29 20:58:00,e93ed3df-b4aa-4a24-8e1d-c8022f9d26dd,S
2020-02-29 21:05:25,e93ed3df-b4aa-4a24-8e1d-c8022f9d26dd,A
2020-02-29 21:07:27,e93ed3df-b4aa-4a24-8e1d-c8022f9d26dd,S
2020-02-29 21:10:12,e93ed3df-b4aa-4a24-8e1d-c8022f9d26dd,A
2020-02-29 21:11:16,e93ed3df-b4aa-4a24-8e1d-c8022f9d26dd,S
2020-02-29 21:12:34,e93ed3df-b4aa-4a24-8e1d-c8022f9d26dd,A
2020-02-29 21:14:06,e93ed3df-b4aa-4a24-8e1d-c8022f9d26dd,S
2020-02-29 21:22:14,e93ed3df-b4aa-4a24-8e1d-c8022f9d26dd,A
2020-02-29 21:22:24,e93ed3df-b4aa-4a24-8e1d-c8022f9d26dd,S
2020-02-29 21:22:36,e93ed3df-b4aa-4a24-8e1d-c8022f9d26dd,A
2020-02-29 21:26:27,e93ed3df-b4aa-4a24-8e1d-c8022f9d26dd,S
2020-02-29 21:28:51,e93ed3df-b4aa-4a24-8e1d-c8022f9d26dd,A
2020-02-29 21:29:35,e93ed3df-b4aa-4a24-8e1d-c8022f9d26dd,S
2020-02-29 21:30:53,e93ed3df-b4aa-4a24-8e1d-c8022f9d26dd,A
2020-02-29 21:31:47,e93ed3df-b4aa-4a24-8e1d-c8022f9d26dd,S
2020-02-29 21:40:09,e93ed3df-b4aa-4a24-8e1d-c8022f9d26dd,A
2020-02-29 21:41:22,e93ed3df-b4aa-4a24-8e1d-c8022f9d26dd,S
2020-02-29 18:52:14,97f56a63-7703-487d-8a70-626745020cf3,A
2020-02-29 19:00:00,97f56a63-7703-487d-8a70-626745020cf3,S
2020-02-29 19:05:06,97f56a63-7703-487d-8a70-626745020cf3,A
2020-02-29 19:21:14,97f56a63-7703-487d-8a70-626745020cf3,S
2020-02-29 19:22:26,97f56a63-7703-487d-8a70-626745020cf3,A
2020-02-29 19:27:15,97f56a63-7703-487d-8a70-626745020cf3,S
2020-02-29 19:28:21,97f56a63-7703-487d-8a70-626745020cf3,A
2020-02-29 19:31:08,97f56a63-7703-487d-8a70-626745020cf3,S
2020-02-29 19:36:20,97f56a63-7703-487d-8a70-626745020cf3,A
2020-02-29 19:38:30,97f56a63-7703-487d-8a70-626745020cf3,S
2020-02-29 19:41:59,97f56a63-7703-487d-8a70-626745020cf3,A
2020-02-29 19:47:34,97f56a63-7703-487d-8a70-626745020cf3,S
2020-02-29 19:58:05,97f56a63-7703-487d-8a70-626745020cf3,A
2020-02-29 20:03:45,97f56a63-7703-487d-8a70-626745020cf3,S
2020-02-29 20:05:43,97f56a63-7703-487d-8a70-626745020cf3,A
2020-02-29 20:07:45,97f56a63-7703-487d-8a70-626745020cf3,S
2020-02-29 20:16:02,97f56a63-7703-487d-8a70-626745020cf3,A
2020-02-29 20:18:12,97f56a63-7703-487d-8a70-626745020cf3,S
2020-02-29 20:23:06,97f56a63-7703-487d-8a70-626745020cf3,A
2020-02-29 20:26:05,97f56a63-7703-487d-8a70-626745020cf3,S
2020-02-29 20:27:13,97f56a63-7703-487d-8a70-626745020cf3,A
2020-02-29 20:32:08,97f56a63-7703-487d-8a70-626745020cf3,S
2020-02-29 20:35:00,97f56a63-7703-487d-8a70-626745020cf3,A
2020-02-29 20:38:50,97f56a63-7703-487d-8a70-626745020cf3,S
2020-02-29 20:41:10,97f56a63-7703-487d-8a70-626745020cf3,A
2020-02-29 20:44:56,97f56a63-7703-487d-8a70-626745020cf3,S
2020-02-29 20:50:21,97f56a63-7703-487d-8a70-626745020cf3,A
2020-02-29 20:51:28,97f56a63-7703-487d-8a70-626745020cf3,S
2020-02-29 20:57:13,97f56a63-7703-487d-8a70-626745020cf3,A
2020-02-29 20:58:10,97f56a63-7703-487d-8a70-626745020cf3,S
2020-02-29 20:59:40,97f56a63-7703-487d-8a70-626745020cf3,A
2020-02-29 21:00:12,97f56a63-7703-487d-8a70-626745020cf3,S
2020-02-29 21:03:31,97f56a63-7703-487d-8a70-626745020cf3,A
2020-02-29 21:05:00,97f56a63-7703-487d-8a70-626745020cf3,S
2020-02-29 21:18:13,97f56a63-7703-487d-8a70-626745020cf3,A
2020-02-29 21:27:42,97f56a63-7703-487d-8a70-626745020cf3,S
2020-02-29 21:29:12,97f56a63-7703-487d-8a70-626745020cf3,A
2020-02-29 21:29:36,97f56a63-7703-487d-8a70-626745020cf3,S
2020-02-29 21:30:11,97f56a63-7703-487d-8a70-626745020cf3,A
2020-02-29 21:39:49,97f56a63-7703-487d-8a70-626745020cf3,S
2020-02-29 18:52:43,70137e89-2916-4428-974b-0e0beb26cc0a,A
2020-02-29 18:54:32,70137e89-2916-4428-974b-0e0beb26cc0a,S
2020-02-29 19:05:05,70137e89-2916-4428-974b-0e0beb26cc0a,A
2020-02-29 19:05:18,70137e89-2916-4428-974b-0e0beb26cc0a,S
2020-02-29 19:07:04,70137e89-2916-4428-974b-0e0beb26cc0a,A
2020-02-29 19:07:36,70137e89-2916-4428-974b-0e0beb26cc0a,S
2020-02-29 19:09:26,70137e89-2916-4428-974b-0e0beb26cc0a,A
2020-02-29 19:14:23,70137e89-2916-4428-974b-0e0beb26cc0a,S
2020-02-29 19:15:42,70137e89-2916-4428-974b-0e0beb26cc0a,A
2020-02-29 19:19:49,70137e89-2916-4428-974b-0e0beb26cc0a,S
2020-02-29 19:30:13,70137e89-2916-4428-974b-0e0beb26cc0a,A
2020-02-29 19:31:47,70137e89-2916-4428-974b-0e0beb26cc0a,S
2020-02-29 19:39:17,70137e89-2916-4428-974b-0e0beb26cc0a,A
2020-02-29 19:39:32,70137e89-2916-4428-974b-0e0beb26cc0a,S
2020-02-29 19:40:57,70137e89-2916-4428-974b-0e0beb26cc0a,A
2020-02-29 19:58:14,70137e89-2916-4428-974b-0e0beb26cc0a,S
2020-02-29 20:04:00,70137e89-2916-4428-974b-0e0beb26cc0a,A
2020-02-29 20:07:35,70137e89-2916-4428-974b-0e0beb26cc0a,S
2020-02-29 20:10:47,70137e89-2916-4428-974b-0e0beb26cc0a,A
2020-02-29 20:11:03,70137e89-2916-4428-974b-0e0beb26cc0a,S
2020-02-29 20:29:38,70137e89-2916-4428-974b-0e0beb26cc0a,A
2020-02-29 20:30:04,70137e89-2916-4428-974b-0e0beb26cc0a,S
2020-02-29 20:32:55,70137e89-2916-4428-974b-0e0beb26cc0a,A
2020-02-29 20:46:28,70137e89-2916-4428-974b-0e0beb26cc0a,S
2020-02-29 20:49:46,70137e89-2916-4428-974b-0e0beb26cc0a,A
2020-02-29 20:52:13,70137e89-2916-4428-974b-0e0beb26cc0a,S
2020-02-29 20:52:50,70137e89-2916-4428-974b-0e0beb26cc0a,A
2020-02-29 20:58:04,70137e89-2916-4428-974b-0e0beb26cc0a,S
2020-02-29 21:02:44,70137e89-2916-4428-974b-0e0beb26cc0a,A
2020-02-29 21:06:41,70137e89-2916-4428-974b-0e0beb26cc0a,S
2020-02-29 21:08:33,70137e89-2916-4428-974b-0e0beb26cc0a,A
2020-02-29 21:09:31,70137e89-2916-4428-974b-0e0beb26cc0a,S
2020-02-29 21:16:09,70137e89-2916-4428-974b-0e0beb26cc0a,A
2020-02-29 21:17:01,70137e89-2916-4428-974b-0e0beb26cc0a,S
2020-02-29 21:31:42,70137e89-2916-4428-974b-0e0beb26cc0a,A
2020-02-29 21:33:54,70137e89-2916-4428-974b-0e0beb26cc0a,S
2020-02-29 21:37:16,70137e89-2916-4428-974b-0e0beb26cc0a,A
2020-02-29 21:38:38,70137e89-2916-4428-974b-0e0beb26cc0a,S
2020-02-29 21:45:33,70137e89-2916-4428-974b-0e0beb26cc0a,A
2020-02-29 21:48:17,70137e89-2916-4428-974b-0e0beb26cc0a,S
2020-02-29 19:12:14,dba8895c-671f-443b-9198-c02e134ed707,S
2020-02-29 19:30:00,dba8895c-671f-443b-9198-c02e134ed707,A
2020-02-29 19:34:25,dba8895c-671f-443b-9198-c02e134ed707,S
2020-02-29 19:34:31,dba8895c-671f-443b-9198-c02e134ed707,A
2020-02-29 19:35:57,dba8895c-671f-443b-9198-c02e134ed707,S
2020-02-29 19:37:05,dba8895c-671f-443b-9198-c02e134ed707,A
2020-02-29 19:39:18,dba8895c-671f-443b-9198-c02e134ed707,S
2020-02-29 19:46:59,dba8895c-671f-443b-9198-c02e134ed707,A
2020-02-29 20:00:55,dba8895c-671f-443b-9198-c02e134ed707,S
2020-02-29 20:07:26,dba8895c-671f-443b-9198-c02e134ed707,A
2020-02-29 20:13:11,dba8895c-671f-443b-9198-c02e134ed707,S
2020-02-29 20:15:24,dba8895c-671f-443b-9198-c02e134ed707,A
2020-02-29 20:21:08,dba8895c-671f-443b-9198-c02e134ed707,S
2020-02-29 20:32:57,dba8895c-671f-443b-9198-c02e134ed707,A
2020-02-29 20:52:38,dba8895c-671f-443b-9198-c02e134ed707,S
2020-02-29 20:56:31,dba8895c-671f-443b-9198-c02e134ed707,A
2020-02-29 20:57:44,dba8895c-671f-443b-9198-c02e134ed707,S
2020-02-29 20:59:59,dba8895c-671f-443b-9198-c02e134ed707,A
2020-02-29 21:08:00,dba8895c-671f-443b-9198-c02e134ed707,S
2020-02-29 21:11:12,dba8895c-671f-443b-9198-c02e134ed707,A
2020-02-29 21:11:41,dba8895c-671f-443b-9198-c02e134ed707,S
2020-02-29 21:21:13,dba8895c-671f-443b-9198-c02e134ed707,A
2020-02-29 21:27:51,dba8895c-671f-443b-9198-c02e134ed707,S
2020-02-29 21:47:49,dba8895c-671f-443b-9198-c02e134ed707,A
2020-02-29 21:49:30,dba8895c-671f-443b-9198-c02e134ed707,S
2020-02-29 21:49:45,dba8895c-671f-443b-9198-c02e134ed707,A
2020-02-29 18:58:33,60d5cb34-0f43-479e-828a-809327509011,A
2020-02-29 19:01:51,60d5cb34-0f43-479e-828a-809327509011,S
2020-02-29 19:16:02,60d5cb34-0f43-479e-828a-809327509011,A
2020-02-29 19:21:43,60d5cb34-0f43-479e-828a-809327509011,S
2020-02-29 19:40:03,60d5cb34-0f43-479e-828a-809327509011,A
2020-02-29 19:40:58,60d5cb34-0f43-479e-828a-809327509011,S
2020-02-29 19:48:50,60d5cb34-0f43-479e-828a-809327509011,A
2020-02-29 20:02:24,60d5cb34-0f43-479e-828a-809327509011,S
2020-02-29 20:03:14,60d5cb34-0f43-479e-828a-809327509011,A
2020-02-29 20:05:53,60d5cb34-0f43-479e-828a-809327509011,S
2020-02-29 20:19:32,60d5cb34-0f43-479e-828a-809327509011,A
2020-02-29 20:22:35,60d5cb34-0f43-479e-828a-809327509011,S
2020-02-29 20:30:14,60d5cb34-0f43-479e-828a-809327509011,A
2020-02-29 20:32:09,60d5cb34-0f43-479e-828a-809327509011,S
2020-02-29 20:43:27,60d5cb34-0f43-479e-828a-809327509011,A
2020-02-29 20:45:17,60d5cb34-0f43-479e-828a-809327509011,S
2020-02-29 20:45:58,60d5cb34-0f43-479e-828a-809327509011,A
2020-02-29 20:55:30,60d5cb34-0f43-479e-828a-809327509011,S
2020-02-29 20:58:44,60d5cb34-0f43-479e-828a-809327509011,A
2020-02-29 20:59:20,60d5cb34-0f43-479e-828a-809327509011,S
2020-02-29 20:59:51,60d5cb34-0f43-479e-828a-809327509011,A
2020-02-29 21:04:55,60d5cb34-0f43-479e-828a-809327509011,S
2020-02-29 21:05:21,60d5cb34-0f43-479e-828a-809327509011,A
2020-02-29 21:05:44,60d5cb34-0f43-479e-828a-809327509011,S
2020-02-29 21:06:28,60d5cb34-0f43-479e-828a-809327509011,A
2020-02-29 21:08:20,60d5cb34-0f43-479e-828a-809327509011,S
2020-02-29 21:09:12,60d5cb34-0f43-479e-828a-809327509011,A
2020-02-29 21:19:46,60d5cb34-0f43-479e-828a-809327509011,S
2020-02-29 21:20:58,60d5cb34-0f43-479e-828a-809327509011,A
2020-02-29 21:27:50,60d5cb34-0f43-479e-828a-809327509011,S
2020-02-29 21:36:30,60d5cb34-0f43-479e-828a-809327509011,A
2020-02-29 21:39:38,60d5cb34-0f43-479e-828a-809327509011,S
2020-02-29 21:43:13,60d5cb34-0f43-479e-828a-809327509011,A
2020-02-29 21:43:29,60d5cb34-0f43-479e-828a-809327509011,S
2020-02-29 19:37:03,d1eb1423-1976-42e5-ab2b-6a34b903c1fd,S
2020-02-29 19:47:36,d1eb1423-1976-42e5-ab2b-6a34b903c1fd,A
2020-02-29 19:59:12,d1eb1423-1976-42e5-ab2b-6a34b903c1fd,S
2020-02-29 19:59:25,d1eb1423-1976-42e5-ab2b-6a34b903c1fd,A
2020-02-29 20:03:12,d1eb1423-1976-42e5-ab2b-6a34b903c1fd,S
2020-02-29 20:07:25,d1eb1423-1976-42e5-ab2b-6a34b903c1fd,A
2020-02-29 20:11:14,d1eb1423-1976-42e5-ab2b-6a34b903c1fd,S
2020-02-29 20:12:29,d1eb1423-1976-42e5-ab2b-6a34b903c1fd,A
2020-02-29 20:22:55,d1eb1423-1976-42e5-ab2b-6a34b903c1fd,S
2020-02-29 20:25:42,d1eb1423-1976-42e5-ab2b-6a34b903c1fd,A
2020-02-29 20:26:49,d1eb1423-1976-42e5-ab2b-6a34b903c1fd,S
2020-02-29 20:29:58,d1eb1423-1976-42e5-ab2b-6a34b903c1fd,A
2020-02-29 20:33:40,d1eb1423-1976-42e5-ab2b-6a34b903c1fd,S
2020-02-29 20:44:40,d1eb1423-1976-42e5-ab2b-6a34b903c1fd,A
2020-02-29 20:47:45,d1eb1423-1976-42e5-ab2b-6a34b903c1fd,S
2020-02-29 20:48:13,d1eb1423-1976-42e5-ab2b-6a34b903c1fd,A
2020-02-29 20:50:27,d1eb1423-1976-42e5-ab2b-6a34b903c1fd,S
2020-02-29 20:52:26,d1eb1423-1976-42e5-ab2b-6a34b903c1fd,A
2020-02-29 20:56:49,d1eb1423-1976-42e5-ab2b-6a34b903c1fd,S
2020-02-29 21:04:49,d1eb1423-1976-42e5-ab2b-6a34b903c1fd,A
2020-02-29 21:07:58,d1eb1423-1976-42e5-ab2b-6a34b903c1fd,S
2020-02-29 21:10:51,d1eb1423-1976-42e5-ab2b-6a34b903c1fd,A
2020-02-29 21:13:23,d1eb1423-1976-42e5-ab2b-6a34b903c1fd,S
2020-02-29 21:18:08,d1eb1423-1976-42e5-ab2b-6a34b903c1fd,A
2020-02-29 21:20:24,d1eb1423-1976-42e5-ab2b-6a34b903c1fd,S
2020-02-29 21:27:25,d1eb1423-1976-42e5-ab2b-6a34b903c1fd,A
2020-02-29 21:35:09,d1eb1423-1976-42e5-ab2b-6a34b903c1fd,S
2020-02-29 21:40:59,d1eb1423-1976-42e5-ab2b-6a34b903c1fd,A
2020-02-29 19:26:42,04ed857a-aba4-4c61-ba6b-01a4eb0c165e,S
2020-02-29 19:27:20,04ed857a-aba4-4c61-ba6b-01a4eb0c165e,A
2020-02-29 19:37:50,04ed857a-aba4-4c61-ba6b-01a4eb0c165e,S
2020-02-29 19:38:04,04ed857a-aba4-4c61-ba6b-01a4eb0c165e,A
2020-02-29 19:38:41,04ed857a-aba4-4c61-ba6b-01a4eb0c165e,S
2020-02-29 19:45:21,04ed857a-aba4-4c61-ba6b-01a4eb0c165e,A
2020-02-29 19:50:15,04ed857a-aba4-4c61-ba6b-01a4eb0c165e,S
2020-02-29 19:58:08,04ed857a-aba4-4c61-ba6b-01a4eb0c165e,A
2020-02-29 20:02:56,04ed857a-aba4-4c61-ba6b-01a4eb0c165e,S
2020-02-29 20:34:08,04ed857a-aba4-4c61-ba6b-01a4eb0c165e,A
2020-02-29 20:39:12,04ed857a-aba4-4c61-ba6b-01a4eb0c165e,S
2020-02-29 20:39:57,04ed857a-aba4-4c61-ba6b-01a4eb0c165e,A
2020-02-29 21:00:23,04ed857a-aba4-4c61-ba6b-01a4eb0c165e,S
2020-02-29 21:02:51,04ed857a-aba4-4c61-ba6b-01a4eb0c165e,A
2020-02-29 21:08:04,04ed857a-aba4-4c61-ba6b-01a4eb0c165e,S
2020-02-29 21:16:43,04ed857a-aba4-4c61-ba6b-01a4eb0c165e,A
2020-02-29 21:28:15,04ed857a-aba4-4c61-ba6b-01a4eb0c165e,S
2020-02-29 21:29:37,04ed857a-aba4-4c61-ba6b-01a4eb0c165e,A
2020-02-29 21:31:26,04ed857a-aba4-4c61-ba6b-01a4eb0c165e,S
2020-02-29 21:37:22,04ed857a-aba4-4c61-ba6b-01a4eb0c165e,A
2020-02-29 19:23:10,c74859b0-76bd-4231-b7ad-8fb5114a672f,A
2020-02-29 19:34:33,c74859b0-76bd-4231-b7ad-8fb5114a672f,S
2020-02-29 19:34:39,c74859b0-76bd-4231-b7ad-8fb5114a672f,A
2020-02-29 19:41:24,c74859b0-76bd-4231-b7ad-8fb5114a672f,S
2020-02-29 19:42:26,c74859b0-76bd-4231-b7ad-8fb5114a672f,A
2020-02-29 19:42:36,c74859b0-76bd-4231-b7ad-8fb5114a672f,S
2020-02-29 19:44:41,c74859b0-76bd-4231-b7ad-8fb5114a672f,A
2020-02-29 19:45:22,c74859b0-76bd-4231-b7ad-8fb5114a672f,S
2020-02-29 19:48:44,c74859b0-76bd-4231-b7ad-8fb5114a672f,A
2020-02-29 19:57:17,c74859b0-76bd-4231-b7ad-8fb5114a672f,S
2020-02-29 20:06:36,c74859b0-76bd-4231-b7ad-8fb5114a672f,A
2020-02-29 20:07:54,c74859b0-76bd-4231-b7ad-8fb5114a672f,S
2020-02-29 20:15:10,c74859b0-76bd-4231-b7ad-8fb5114a672f,A
2020-02-29 20:17:31,c74859b0-76bd-4231-b7ad-8fb5114a672f,S
2020-02-29 20:20:23,c74859b0-76bd-4231-b7ad-8fb5114a672f,A
2020-02-29 20:21:12,c74859b0-76bd-4231-b7ad-8fb5114a672f,S
2020-02-29 20:21:24,c74859b0-76bd-4231-b7ad-8fb5114a672f,A
2020-02-29 20:23:21,c74859b0-76bd-4231-b7ad-8fb5114a672f,S
2020-02-29 20:26:31,c74859b0-76bd-4231-b7ad-8fb5114a672f,A
2020-02-29 20:33:15,c74859b0-76bd-4231-b7ad-8fb5114a672f,S
2020-02-29 20:35:13,c74859b0-76bd-4231-b7ad-8fb5114a672f,A
2020-02-29 20:47:00,c74859b0-76bd-4231-b7ad-8fb5114a672f,S
2020-02-29 20:55:00,c74859b0-76bd-4231-b7ad-8fb5114a672f,A
2020-02-29 20:57:51,c74859b0-76bd-4231-b7ad-8fb5114a672f,S
2020-02-29 21:00:24,c74859b0-76bd-4231-b7ad-8fb5114a672f,A
2020-02-29 21:02:36,c74859b0-76bd-4231-b7ad-8fb5114a672f,S
2020-02-29 21:03:44,c74859b0-76bd-4231-b7ad-8fb5114a672f,A
2020-02-29 21:18:28,c74859b0-76bd-4231-b7ad-8fb5114a672f,S
2020-02-29 21:21:09,c74859b0-76bd-4231-b7ad-8fb5114a672f,A
2020-02-29 21:21:47,c74859b0-76bd-4231-b7ad-8fb5114a672f,S
2020-02-29 21:24:43,c74859b0-76bd-4231-b7ad-8fb5114a672f,A
2020-02-29 21:27:30,c74859b0-76bd-4231-b7ad-8fb5114a672f,S
2020-02-29 21:27:59,c74859b0-76bd-4231-b7ad-8fb5114a672f,A
2020-02-29 21:39:26,c74859b0-76bd-4231-b7ad-8fb5114a672f,S
2020-02-29 21:43:35,c74859b0-76bd-4231-b7ad-8fb5114a672f,A
2020-02-29 21:44:31,c74859b0-76bd-4231-b7ad-8fb5114a672f,S
2020-02-29 21:45:25,c74859b0-76bd-4231-b7ad-8fb5114a672f,A
2020-02-29 21:47:35,c74859b0-76bd-4231-b7ad-8fb5114a672f,S
2020-02-29 21:49:08,c74859b0-76bd-4231-b7ad-8fb5114a672f,A
2020-02-29 19:14:24,b1ba2a75-134b-48bc-8db1-0b5f087c97c9,S
2020-02-29 19:23:52,b1ba2a75-134b-48bc-8db1-0b5f087c97c9,A
2020-02-29 19:26:17,b1ba2a75-134b-48bc-8db1-0b5f087c97c9,S
2020-02-29 19:31:30,b1ba2a75-134b-48bc-8db1-0b5f087c97c9,A
2020-02-29 19:35:58,b1ba2a75-134b-48bc-8db1-0b5f087c97c9,S
2020-02-29 19:39:08,b1ba2a75-134b-48bc-8db1-0b5f087c97c9,A
2020-02-29 19:39:44,b1ba2a75-134b-48bc-8db1-0b5f087c97c9,S
2020-02-29 19:54:29,b1ba2a75-134b-48bc-8db1-0b5f087c97c9,A
2020-02-29 20:03:32,b1ba2a75-134b-48bc-8db1-0b5f087c97c9,S
2020-02-29 20:05:40,b1ba2a75-134b-48bc-8db1-0b5f087c97c9,A
2020-02-29 20:08:38,b1ba2a75-134b-48bc-8db1-0b5f087c97c9,S
2020-02-29 20:10:19,b1ba2a75-134b-48bc-8db1-0b5f087c97c9,A
2020-02-29 20:13:34,b1ba2a75-134b-48bc-8db1-0b5f087c97c9,S
2020-02-29 20:28:53,b1ba2a75-134b-48bc-8db1-0b5f087c97c9,A
2020-02-29 20:30:21,b1ba2a75-134b-48bc-8db1-0b5f087c97c9,S
2020-02-29 20:43:49,b1ba2a75-134b-48bc-8db1-0b5f087c97c9,A
2020-02-29 20:48:03,b1ba2a75-134b-48bc-8db1-0b5f087c97c9,S
2020-02-29 20:49:05,b1ba2a75-134b-48bc-8db1-0b5f087c97c9,A
2020-02-29 20:50:25,b1ba2a75-134b-48bc-8db1-0b5f087c97c9,S
2020-02-29 20:55:39,b1ba2a75-134b-48bc-8db1-0b5f087c97c9,A
2020-02-29 20:56:33,b1ba2a75-134b-48bc-8db1-0b5f087c97c9,S
2020-02-29 21:05:45,b1ba2a75-134b-48bc-8db1-0b5f087c97c9,A
2020-02-29 21:10:07,b1ba2a75-134b-48bc-8db1-0b5f087c97c9,S
2020-02-29 21:12:32,b1ba2a75-134b-48bc-8db1-0b5f087c97c9,A
2020-02-29 21:26:58,b1ba2a75-134b-48bc-8db1-0b5f087c97c9,S
2020-02-29 21:30:59,b1ba2a75-134b-48bc-8db1-0b5f087c97c9,A
2020-02-29 21:37:25,b1ba2a75-134b-48bc-8db1-0b5f087c97c9,S
2020-02-29 21:38:44,b1ba2a75-134b-48bc-8db1-0b5f087c97c9,A
2020-02-29 21:49:58,b1ba2a75-134b-48bc-8db1-0b5f087c97c9,S
2020-02-29 18:54:10,3cea4162-a586-44bc-9877-23e0346d9f3c,S
2020-02-29 18:57:04,3cea4162-a586-44bc-9877-23e0346d9f3c,A
2020-02-29 18:58:11,3cea4162-a586-44bc-9877-23e0346d9f3c,S
2020-02-29 19:00:43,3cea4162-a586-44bc-9877-23e0346d9f3c,A
2020-02-29 19:01:42,3cea4162-a586-44bc-9877-23e0346d9f3c,S
2020-02-29 19:03:47,3cea4162-a586-44bc-9877-23e0346d9f3c,A
2020-02-29 19:05:09,3cea4162-a586-44bc-9877-23e0346d9f3c,S
2020-02-29 19:11:42,3cea4162-a586-44bc-9877-23e0346d9f3c,A
2020-02-29 19:13:09,3cea4162-a586-44bc-9877-23e0346d9f3c,S
2020-02-29 19:13:58,3cea4162-a586-44bc-9877-23e0346d9f3c,A
2020-02-29 19:14:27,3cea4162-a586-44bc-9877-23e0346d9f3c,S
2020-02-29 19:17:18,3cea4162-a586-44bc-9877-23e0346d9f3c,A
2020-02-29 19:22:25,3cea4162-a586-44bc-9877-23e0346d9f3c,S
2020-02-29 19:37:52,3cea4162-a586-44bc-9877-23e0346d9f3c,A
2020-02-29 19:46:55,3cea4162-a586-44bc-9877-23e0346d9f3c,S
2020-02-29 19:56:38,3cea4162-a586-44bc-9877-23e0346d9f3c,A
2020-02-29 20:05:08,3cea4162-a586-44bc-9877-23e0346d9f3c,S
2020-02-29 20:05:54,3cea4162-a586-44bc-9877-23e0346d9f3c,A
2020-02-29 20:06:13,3cea4162-a586-44bc-9877-23e0346d9f3c,S
2020-02-29 20:14:52,3cea4162-a586-44bc-9877-23e0346d9f3c,A
2020-02-29 20:17:51,3cea4162-a586-44bc-9877-23e0346d9f3c,S
2020-02-29 20:17:53,3cea4162-a586-44bc-9877-23e0346d9f3c,A
2020-02-29 20:19:05,3cea4162-a586-44bc-9877-23e0346d9f3c,S
2020-02-29 20:20:54,3cea4162-a586-44bc-9877-23e0346d9f3c,A
2020-02-29 20:22:45,3cea4162-a586-44bc-9877-23e0346d9f3c,S
2020-02-29 20:23:44,3cea4162-a586-44bc-9877-23e0346d9f3c,A
2020-02-29 20:25:27,3cea4162-a586-44bc-9877-23e0346d9f3c,S
2020-02-29 20:34:43,3cea4162-a586-44bc-9877-23e0346d9f3c,A
2020-02-29 20:36:50,3cea4162-a586-44bc-9877-23e0346d9f3c,S
2020-02-29 20:37:48,3cea4162-a586-44bc-9877-23e0346d9f3c,A
2020-02-29 20:40:15,3cea4162-a586-44bc-9877-23e0346d9f3c,S
2020-02-29 20:49:01,3cea4162-a586-44bc-9877-23e0346d9f3c,A
2020-02-29 20:51:18,3cea4162-a586-44bc-9877-23e0346d9f3c,S
2020-02-29 20:56:10,3cea4162-a586-44bc-9877-23e0346d9f3c,A
2020-02-29 20:56:18,3cea4162-a586-44bc-9877-23e0346d9f3c,S
2020-02-29 20:56:57,3cea4162-a586-44bc-9877-23e0346d9f3c,A
2020-02-29 21:00:26,3cea4162-a586-44bc-9877-23e0346d9f3c,S
2020-02-29 21:01:52,3cea4162-a586-44bc-9877-23e0346d9f3c,A
2020-02-29 21:07:32,3cea4162-a586-44bc-9877-23e0346d9f3c,S
2020-02-29 21:07:59,3cea4162-a586-44bc-9877-23e0346d9f3c,A
2020-02-29 21:23:39,3cea4162-a586-44bc-9877-23e0346d9f3c,S
2020-02-29 21:24:44,3cea4162-a586-44bc-9877-23e0346d9f3c,A
2020-02-29 21:26:48,3cea4162-a586-44bc-9877-23e0346d9f3c,S
2020-02-29 21:30:57,3cea4162-a586-44bc-9877-23e0346d9f3c,A
2020-02-29 21:37:30,3cea4162-a586-44bc-9877-23e0346d9f3c,S
2020-02-29 21:37:46,3cea4162-a586-44bc-9877-23e0346d9f3c,A
2020-02-29 18:53:11,34a2e8ee-7463-4a04-81d4-fd670781a3a5,S
2020-02-29 18:57:10,34a2e8ee-7463-4a04-81d4-fd670781a3a5,A
2020-02-29 18:57:53,34a2e8ee-7463-4a04-81d4-fd670781a3a5,S
2020-02-29 18:58:28,34a2e8ee-7463-4a04-81d4-fd670781a3a5,A
2020-02-29 19:01:31,34a2e8ee-7463-4a04-81d4-fd670781a3a5,S
2020-02-29 19:01:47,34a2e8ee-7463-4a04-81d4-fd670781a3a5,A
2020-02-29 19:04:16,34a2e8ee-7463-4a04-81d4-fd670781a3a5,S
2020-02-29 19:09:36,34a2e8ee-7463-4a04-81d4-fd670781a3a5,A
2020-02-29 19:13:31,34a2e8ee-7463-4a04-81d4-fd670781a3a5,S
2020-02-29 19:16:16,34a2e8ee-7463-4a04-81d4-fd670781a3a5,A
2020-02-29 19:27:03,34a2e8ee-7463-4a04-81d4-fd670781a3a5,S
2020-02-29 19:32:41,34a2e8ee-7463-4a04-81d4-fd670781a3a5,A
2020-02-29 19:55:15,34a2e8ee-7463-4a04-81d4-fd670781a3a5,S
2020-02-29 20:19:36,34a2e8ee-7463-4a04-81d4-fd670781a3a5,A
2020-02-29 20:26:10,34a2e8ee-7463-4a04-81d4-fd670781a3a5,S
2020-02-29 20:29:37,34a2e8ee-7463-4a04-81d4-fd670781a3a5,A
2020-02-29 20:32:31,34a2e8ee-7463-4a04-81d4-fd670781a3a5,S
2020-02-29 20:37:16,34a2e8ee-7463-4a04-81d4-fd670781a3a5,A
2020-02-29 20:50:20,34a2e8ee-7463-4a04-81d4-fd670781a3a5,S
2020-02-29 20:51:53,34a2e8ee-7463-4a04-81d4-fd670781a3a5,A
2020-02-29 21:04:29,34a2e8ee-7463-4a04-81d4-fd670781a3a5,S
2020-02-29 21:10:28,34a2e8ee-7463-4a04-81d4-fd670781a3a5,A
2020-02-29 21:12:51,34a2e8ee-7463-4a04-81d4-fd670781a3a5,S
2020-02-29 21:14:47,34a2e8ee-7463-4a04-81d4-fd670781a3a5,A
2020-02-29 21:16:13,34a2e8ee-7463-4a04-81d4-fd670781a3a5,S
2020-02-29 21:21:26,34a2e8ee-7463-4a04-81d4-fd670781a3a5,A
2020-02-29 21:28:59,34a2e8ee-7463-4a04-81d4-fd670781a3a5,S
2020-02-29 21:30:12,34a2e8ee-7463-4a04-81d4-fd670781a3a5,A
2020-02-29 21:33:02,34a2e8ee-7463-4a04-81d4-fd670781a3a5,S
2020-02-29 21:39:45,34a2e8ee-7463-4a04-81d4-fd670781a3a5,A
2020-02-29 21:46:15,34a2e8ee-7463-4a04-81d4-fd670781a3a5,S
2020-02-29 19:25:45,577cd320-a1a9-42a4-9059-f7d4066af664,S
2020-02-29 19:29:23,577cd320-a1a9-42a4-9059-f7d4066af664,A
2020-02-29 19:31:10,577cd320-a1a9-42a4-9059-f7d4066af664,S
2020-02-29 19:31:39,577cd320-a1a9-42a4-9059-f7d4066af664,A
2020-02-29 19:31:43,577cd320-a1a9-42a4-9059-f7d4066af664,S
2020-02-29 19:43:02,577cd320-a1a9-42a4-9059-f7d4066af664,A
2020-02-29 19:59:31,577cd320-a1a9-42a4-9059-f7d4066af664,S
2020-02-29 20:03:36,577cd320-a1a9-42a4-9059-f7d4066af664,A
2020-02-29 20:08:31,577cd320-a1a9-42a4-9059-f7d4066af664,S
2020-02-29 20:15:19,577cd320-a1a9-42a4-9059-f7d4066af664,A
2020-02-29 20:20:40,577cd320-a1a9-42a4-9059-f7d4066af664,S
2020-02-29 20:23:43,577cd320-a1a9-42a4-9059-f7d4066af664,A
2020-02-29 20:24:52,577cd320-a1a9-42a4-9059-f7d4066af664,S
2020-02-29 20:27:32,577cd320-a1a9-42a4-9059-f7d4066af664,A
2020-02-29 20:28:01,577cd320-a1a9-42a4-9059-f7d4066af664,S
2020-02-29 20:29:14,577cd320-a1a9-42a4-9059-f7d4066af664,A
2020-02-29 20:30:10,577cd320-a1a9-42a4-9059-f7d4066af664,S
2020-02-29 20:41:22,577cd320-a1a9-42a4-9059-f7d4066af664,A
2020-02-29 20:46:36,577cd320-a1a9-42a4-9059-f7d4066af664,S
2020-02-29 20:49:23,577cd320-a1a9-42a4-9059-f7d4066af664,A
2020-02-29 20:51:03,577cd320-a1a9-42a4-9059-f7d4066af664,S
2020-02-29 20:53:21,577cd320-a1a9-42a4-9059-f7d4066af664,A
2020-02-29 21:06:37,577cd320-a1a9-42a4-9059-f7d4066af664,S
2020-02-29 21:10:11,577cd320-a1a9-42a4-9059-f7d4066af664,A
2020-02-29 21:16:06,577cd320-a1a9-42a4-9059-f7d4066af664,S
2020-02-29 21:17:30,577cd320-a1a9-42a4-9059-f7d4066af664,A
2020-02-29 21:26:19,577cd320-a1a9-42a4-9059-f7d4066af664,S
2020-02-29 21:28:39,577cd320-a1a9-42a4-9059-f7d4066af664,A
2020-02-29 21:33:43,577cd320-a1a9-42a4-9059-f7d4066af664,S
2020-02-29 21:39:05,577cd320-a1a9-42a4-9059-f7d4066af664,A
2020-02-29 21:40:05,577cd320-a1a9-42a4-9059-f7d4066af664,S
2020-02-29 21:40:05,577cd320-a1a9-42a4-9059-f7d4066af664,A
2020-02-29 21:40:15,577cd320-a1a9-42a4-9059-f7d4066af664,S
2020-02-29 21:43:37,577cd320-a1a9-42a4-9059-f7d4066af664,A
2020-02-29 21:45:28,577cd320-a1a9-42a4-9059-f7d4066af664,S
2020-02-29 18:59:34,833a246d-04bb-45b5-9c4a-815394878e49,A
2020-02-29 19:02:49,833a246d-04bb-45b5-9c4a-815394878e49,S
2020-02-29 19:07:54,833a246d-04bb-45b5-9c4a-815394878e49,A
2020-02-29 19:16:29,833a246d-04bb-45b5-9c4a-815394878e49,S
2020-02-29 19:20:57,833a246d-04bb-45b5-9c4a-815394878e49,A
2020-02-29 19:24:05,833a246d-04bb-45b5-9c4a-815394878e49,S
2020-02-29 19:24:55,833a246d-04bb-45b5-9c4a-815394878e49,A
2020-02-29 19:26:18,833a246d-04bb-45b5-9c4a-815394878e49,S
2020-02-29 19:31:33,833a246d-04bb-45b5-9c4a-815394878e49,A
2020-02-29 19:37:09,833a246d-04bb-45b5-9c4a-815394878e49,S
2020-02-29 19:48:31,833a246d-04bb-45b5-9c4a-815394878e49,A
2020-02-29 19:48:35,833a246d-04bb-45b5-9c4a-815394878e49,S
2020-02-29 19:55:46,833a246d-04bb-45b5-9c4a-815394878e49,A
2020-02-29 20:07:16,833a246d-04bb-45b5-9c4a-815394878e49,S
2020-02-29 20:08:52,833a246d-04bb-45b5-9c4a-815394878e49,A
2020-02-29 20:11:59,833a246d-04bb-45b5-9c4a-815394878e49,S
2020-02-29 20:12:16,833a246d-04bb-45b5-9c4a-815394878e49,A
2020-02-29 20:30:15,833a246d-04bb-45b5-9c4a-815394878e49,S
2020-02-29 20:32:39,833a246d-04bb-45b5-9c4a-815394878e49,A
2020-02-29 20:45:01,833a246d-04bb-45b5-9c4a-815394878e49,S
2020-02-29 20:57:08,833a246d-04bb-45b5-9c4a-815394878e49,A
2020-02-29 21:02:40,833a246d-04bb-45b5-9c4a-815394878e49,S
2020-02-29 21:03:06,833a246d-04bb-45b5-9c4a-815394878e49,A
2020-02-29 21:05:21,833a246d-04bb-45b5-9c4a-815394878e49,S
2020-02-29 21:09:00,833a246d-04bb-45b5-9c4a-815394878e49,A
2020-02-29 21:12:20,833a246d-04bb-45b5-9c4a-815394878e49,S
2020-02-29 21:16:50,833a246d-04bb-45b5-9c4a-815394878e49,A
2020-02-29 21:17:47,833a246d-04bb-45b5-9c4a-815394878e49,S
2020-02-29 21:18:09,833a246d-04bb-45b5-9c4a-815394878e49,A
2020-02-29 21:19:07,833a246d-04bb-45b5-9c4a-815394878e49,S
2020-02-29 21:30:57,833a246d-04bb-45b5-9c4a-815394878e49,A
2020-02-29 21:35:47,833a246d-04bb-45b5-9c4a-815394878e49,S
2020-02-29 21:39:29,833a246d-04bb-45b5-9c4a-815394878e49,A
2020-02-29 21:45:27,833a246d-04bb-45b5-9c4a-815394878e49,S
2020-02-29 21:49:00,833a246d-04bb-45b5-9c4a-815394878e49,A
2020-02-29 21:49:17,833a246d-04bb-45b5-9c4a-815394878e49,S
2020-02-29 19:35:53,4ab7189c-93d5-4e01-b92b-15de83e994a0,S
2020-02-29 19:36:20,4ab7189c-93d5-4e01-b92b-15de83e994a0,A
2020-02-29 19:51:58,4ab7189c-93d5-4e01-b92b-15de83e994a0,S
2020-02-29 19:53:09,4ab7189c-93d5-4e01-b92b-15de83e994a0,A
2020-02-29 20:06:34,4ab7189c-93d5-4e01-b92b-15de83e994a0,S
2020-02-29 20:09:31,4ab7189c-93d5-4e01-b92b-15de83e994a0,A
2020-02-29 20:10:55,4ab7189c-93d5-4e01-b92b-15de83e994a0,S
2020-02-29 20:30:38,4ab7189c-93d5-4e01-b92b-15de83e994a0,A
2020-02-29 20:30:50,4ab7189c-93d5-4e01-b92b-15de83e994a0,S
2020-02-29 20:37:22,4ab7189c-93d5-4e01-b92b-15de83e994a0,A
2020-02-29 20:40:52,4ab7189c-93d5-4e01-b92b-15de83e994a0,S
2020-02-29 20:44:08,4ab7189c-93d5-4e01-b92b-15de83e994a0,A
2020-02-29 20:50:02,4ab7189c-93d5-4e01-b92b-15de83e994a0,S
2020-02-29 21:09:56,4ab7189c-93d5-4e01-b92b-15de83e994a0,A
2020-02-29 21:13:35,4ab7189c-93d5-4e01-b92b-15de83e994a0,S
2020-02-29 21:25:48,4ab7189c-93d5-4e01-b92b-15de83e994a0,A
2020-02-29 21:31:31,4ab7189c-93d5-4e01-b92b-15de83e994a0,S
2020-02-29 21:37:03,4ab7189c-93d5-4e01-b92b-15de83e994a0,A
2020-02-29 21:45:24,4ab7189c-93d5-4e01-b92b-15de83e994a0,S
2020-02-29 19:32:17,ebf121a3-44b7-4c46-bb19-3f7874767377,S
2020-02-29 19:33:56,ebf121a3-44b7-4c46-bb19-3f7874767377,A
2020-02-29 19:36:50,ebf121a3-44b7-4c46-bb19-3f7874767377,S
2020-02-29 19:37:44,ebf121a3-44b7-4c46-bb19-3f7874767377,A
2020-02-29 19:38:46,ebf121a3-44b7-4c46-bb19-3f7874767377,S
2020-02-29 19:57:14,ebf121a3-44b7-4c46-bb19-3f7874767377,A
2020-02-29 20:03:47,ebf121a3-44b7-4c46-bb19-3f7874767377,S
2020-02-29 20:05:02,ebf121a3-44b7-4c46-bb19-3f7874767377,A
2020-02-29 20:08:15,ebf121a3-44b7-4c46-bb19-3f7874767377,S
2020-02-29 20:18:27,ebf121a3-44b7-4c46-bb19-3f7874767377,A
2020-02-29 20:19:49,ebf121a3-44b7-4c46-bb19-3f7874767377,S
2020-02-29 20:24:30,ebf121a3-44b7-4c46-bb19-3f7874767377,A
2020-02-29 20:26:02,ebf121a3-44b7-4c46-bb19-3f7874767377,S
2020-02-29 20:46:36,ebf121a3-44b7-4c46-bb19-3f7874767377,A
2020-02-29 20:50:54,ebf121a3-44b7-4c46-bb19-3f7874767377,S
2020-02-29 20:51:11,ebf121a3-44b7-4c46-bb19-3f7874767377,A
2020-02-29 20:58:54,ebf121a3-44b7-4c46-bb19-3f7874767377,S
2020-02-29 21:01:55,ebf121a3-44b7-4c46-bb19-3f7874767377,A
2020-02-29 21:14:18,ebf121a3-44b7-4c46-bb19-3f7874767377,S
2020-02-29 21:49:37,ebf121a3-44b7-4c46-bb19-3f7874767377,A
2020-02-29 18:47:05,6e074cca-ca1c-4025-89b0-ee9e6f3ee91c,A
2020-02-29 19:03:08,6e074cca-ca1c-4025-89b0-ee9e6f3ee91c,S
2020-02-29 19:06:22,6e074cca-ca1c-4025-89b0-ee9e6f3ee91c,A
2020-02-29 19:09:08,6e074cca-ca1c-4025-89b0-ee9e6f3ee91c,S
2020-02-29 19:09:39,6e074cca-ca1c-4025-89b0-ee9e6f3ee91c,A
2020-02-29 19:23:37,6e074cca-ca1c-4025-89b0-ee9e6f3ee91c,S
2020-02-29 19:27:06,6e074cca-ca1c-4025-89b0-ee9e6f3ee91c,A
2020-02-29 19:29:58,6e074cca-ca1c-4025-89b0-ee9e6f3ee91c,S
2020-02-29 19:33:58,6e074cca-ca1c-4025-89b0-ee9e6f3ee91c,A
2020-02-29 19:47:21,6e074cca-ca1c-4025-89b0-ee9e6f3ee91c,S
2020-02-29 19:47:32,6e074cca-ca1c-4025-89b0-ee9e6f3ee91c,A
2020-02-29 19:56:14,6e074cca-ca1c-4025-89b0-ee9e6f3ee91c,S
2020-02-29 20:00:31,6e074cca-ca1c-4025-89b0-ee9e6f3ee91c,A
2020-02-29 20:07:07,6e074cca-ca1c-4025-89b0-ee9e6f3ee91c,S
2020-02-29 20:09:39,6e074cca-ca1c-4025-89b0-ee9e6f3ee91c,A
2020-02-29 20:20:50,6e074cca-ca1c-4025-89b0-ee9e6f3ee91c,S
2020-02-29 20:22:45,6e074cca-ca1c-4025-89b0-ee9e6f3ee91c,A
2020-02-29 20:23:42,6e074cca-ca1c-4025-89b0-ee9e6f3ee91c,S
2020-02-29 20:26:35,6e074cca-ca1c-4025-89b0-ee9e6f3ee91c,A
2020-02-29 20:32:33,6e074cca-ca1c-4025-89b0-ee9e6f3ee91c,S
2020-02-29 20:41:21,6e074cca-ca1c-4025-89b0-ee9e6f3ee91c,A
2020-02-29 20:44:24,6e074cca-ca1c-4025-89b0-ee9e6f3ee91c,S
2020-02-29 20:46:15,6e074cca-ca1c-4025-89b0-ee9e6f3ee91c,A
2020-02-29 20:48:25,6e074cca-ca1c-4025-89b0-ee9e6f3ee91c,S
2020-02-29 21:00:26,6e074cca-ca1c-4025-89b0-ee9e6f3ee91c,A
2020-02-29 21:01:55,6e074cca-ca1c-4025-89b0-ee9e6f3ee91c,S
2020-02-29 21:12:49,6e074cca-ca1c-4025-89b0-ee9e6f3ee91c,A
2020-02-29 21:15:52,6e074cca-ca1c-4025-89b0-ee9e6f3ee91c,S
2020-02-29 21:17:24,6e074cca-ca1c-4025-89b0-ee9e6f3ee91c,A
2020-02-29 21:18:50,6e074cca-ca1c-4025-89b0-ee9e6f3ee91c,S
2020-02-29 21:19:40,6e074cca-ca1c-4025-89b0-ee9e6f3ee91c,A
2020-02-29 21:25:23,6e074cca-ca1c-4025-89b0-ee9e6f3ee91c,S
2020-02-29 21:34:59,6e074cca-ca1c-4025-89b0-ee9e6f3ee91c,A
2020-02-29 21:44:44,6e074cca-ca1c-4025-89b0-ee9e6f3ee91c,S
2020-02-29 21:46:08,6e074cca-ca1c-4025-89b0-ee9e6f3ee91c,A
2020-02-29 19:30:48,2049c2b5-c670-4231-907a-5875b29b9017,A
2020-02-29 19:32:15,2049c2b5-c670-4231-907a-5875b29b9017,S
2020-02-29 19:40:48,2049c2b5-c670-4231-907a-5875b29b9017,A
2020-02-29 19:43:12,2049c2b5-c670-4231-907a-5875b29b9017,S
2020-02-29 19:44:06,2049c2b5-c670-4231-907a-5875b29b9017,A
2020-02-29 19:44:27,2049c2b5-c670-4231-907a-5875b29b9017,S
2020-02-29 19:47:07,2049c2b5-c670-4231-907a-5875b29b9017,A
2020-02-29 19:47:22,2049c2b5-c670-4231-907a-5875b29b9017,S
2020-02-29 19:51:34,2049c2b5-c670-4231-907a-5875b29b9017,A
2020-02-29 19:54:44,2049c2b5-c670-4231-907a-5875b29b9017,S
2020-02-29 20:01:30,2049c2b5-c670-4231-907a-5875b29b9017,A
2020-02-29 20:05:18,2049c2b5-c670-4231-907a-5875b29b9017,S
2020-02-29 20:08:30,2049c2b5-c670-4231-907a-5875b29b9017,A
2020-02-29 20:08:37,2049c2b5-c670-4231-907a-5875b29b9017,S
2020-02-29 20:12:07,2049c2b5-c670-4231-907a-5875b29b9017,A
2020-02-29 20:12:10,2049c2b5-c670-4231-907a-5875b29b9017,S
2020-02-29 20:19:57,2049c2b5-c670-4231-907a-5875b29b9017,A
2020-02-29 20:24:17,2049c2b5-c670-4231-907a-5875b29b9017,S
2020-02-29 20:34:25,2049c2b5-c670-4231-907a-5875b29b9017,A
2020-02-29 20:41:00,2049c2b5-c670-4231-907a-5875b29b9017,S
2020-02-29 20:45:10,2049c2b5-c670-4231-907a-5875b29b9017,A
2020-02-29 20:55:59,2049c2b5-c670-4231-907a-5875b29b9017,S
2020-02-29 20:58:50,2049c2b5-c670-4231-907a-5875b29b9017,A
2020-02-29 21:04:19,2049c2b5-c670-4231-907a-5875b29b9017,S
2020-02-29 21:15:26,2049c2b5-c670-4231-907a-5875b29b9017,A
2020-02-29 21:19:10,2049c2b5-c670-4231-907a-5875b29b9017,S
2020-02-29 21:33:26,2049c2b5-c670-4231-907a-5875b29b9017,A
2020-02-29 21:39:27,2049c2b5-c670-4231-907a-5875b29b9017,S
2020-02-29 21:44:27,2049c2b5-c670-4231-907a-5875b29b9017,A
2020-02-29 21:44:49,2049c2b5-c670-4231-907a-5875b29b9017,S
2020-02-29 21:46:48,2049c2b5-c670-4231-907a-5875b29b9017,A
2020-02-29 19:41:14,632848df-a7f0-4067-8f06-a9887b7a7476,S
2020-02-29 19:42:12,632848df-a7f0-4067-8f06-a9887b7a7476,A
2020-02-29 19:48:57,632848df-a7f0-4067-8f06-a9887b7a7476,S
2020-02-29 19:54:48,632848df-a7f0-4067-8f06-a9887b7a7476,A
2020-02-29 19:56:56,632848df-a7f0-4067-8f06-a9887b7a7476,S
2020-02-29 19:59:46,632848df-a7f0-4067-8f06-a9887b7a7476,A
2020-02-29 20:00:22,632848df-a7f0-4067-8f06-a9887b7a7476,S
2020-02-29 20:03:19,632848df-a7f0-4067-8f06-a9887b7a7476,A
2020-02-29 20:04:42,632848df-a7f0-4067-8f06-a9887b7a7476,S
2020-02-29 20:09:34,632848df-a7f0-4067-8f06-a9887b7a7476,A
2020-02-29 20:20:23,632848df-a7f0-4067-8f06-a9887b7a7476,S
2020-02-29 20:25:00,632848df-a7f0-4067-8f06-a9887b7a7476,A
2020-02-29 20:31:19,632848df-a7f0-4067-8f06-a9887b7a7476,S
2020-02-29 20:33:59,632848df-a7f0-4067-8f06-a9887b7a7476,A
2020-02-29 20:36:27,632848df-a7f0-4067-8f06-a9887b7a7476,S
2020-02-29 20:40:11,632848df-a7f0-4067-8f06-a9887b7a7476,A
2020-02-29 20:41:58,632848df-a7f0-4067-8f06-a9887b7a7476,S
2020-02-29 20:47:14,632848df-a7f0-4067-8f06-a9887b7a7476,A
2020-02-29 20:49:01,632848df-a7f0-4067-8f06-a9887b7a7476,S
2020-02-29 20:49:55,632848df-a7f0-4067-8f06-a9887b7a7476,A
2020-02-29 21:06:15,632848df-a7f0-4067-8f06-a9887b7a7476,S
2020-02-29 21:07:37,632848df-a7f0-4067-8f06-a9887b7a7476,A
2020-02-29 21:08:11,632848df-a7f0-4067-8f06-a9887b7a7476,S
2020-02-29 21:11:17,632848df-a7f0-4067-8f06-a9887b7a7476,A
2020-02-29 21:17:27,632848df-a7f0-4067-8f06-a9887b7a7476,S
2020-02-29 21:30:11,632848df-a7f0-4067-8f06-a9887b7a7476,A
2020-02-29 21:30:47,632848df-a7f0-4067-8f06-a9887b7a7476,S
2020-02-29 21:32:45,632848df-a7f0-4067-8f06-a9887b7a7476,A
2020-02-29 21:49:43,632848df-a7f0-4067-8f06-a9887b7a7476,S
2020-02-29 19:17:54,46936b35-58a5-469a-9a65-caefc7931a9c,A
2020-02-29 19:19:59,46936b35-58a5-469a-9a65-caefc7931a9c,S
2020-02-29 19:20:57,46936b35-58a5-469a-9a65-caefc7931a9c,A
2020-02-29 19:21:13,46936b35-58a5-469a-9a65-caefc7931a9c,S
2020-02-29 19:30:19,46936b35-58a5-469a-9a65-caefc7931a9c,A
2020-02-29 19:43:15,46936b35-58a5-469a-9a65-caefc7931a9c,S
2020-02-29 19:47:48,46936b35-58a5-469a-9a65-caefc7931a9c,A
2020-02-29 19:49:13,46936b35-58a5-469a-9a65-caefc7931a9c,S
2020-02-29 19:53:24,46936b35-58a5-469a-9a65-caefc7931a9c,A
2020-02-29 19:56:31,46936b35-58a5-469a-9a65-caefc7931a9c,S
2020-02-29 20:02:38,46936b35-58a5-469a-9a65-caefc7931a9c,A
2020-02-29 20:19:25,46936b35-58a5-469a-9a65-caefc7931a9c,S
2020-02-29 20:29:58,46936b35-58a5-469a-9a65-caefc7931a9c,A
2020-02-29 20:31:05,46936b35-58a5-469a-9a65-caefc7931a9c,S
2020-02-29 20:31:27,46936b35-58a5-469a-9a65-caefc7931a9c,A
2020-02-29 20:43:26,46936b35-58a5-469a-9a65-caefc7931a9c,S
2020-02-29 20:43:59,46936b35-58a5-469a-9a65-caefc7931a9c,A
2020-02-29 20:45:48,46936b35-58a5-469a-9a65-caefc7931a9c,S
2020-02-29 20:49:01,46936b35-58a5-469a-9a65-caefc7931a9c,A
2020-02-29 20:52:47,46936b35-58a5-469a-9a65-caefc7931a9c,S
2020-02-29 20:57:27,46936b35-58a5-469a-9a65-caefc7931a9c,A
2020-02-29 20:58:52,46936b35-58a5-469a-9a65-caefc7931a9c,S
2020-02-29 21:01:02,46936b35-58a5-469a-9a65-caefc7931a9c,A
2020-02-29 21:08:04,46936b35-58a5-469a-9a65-caefc7931a9c,S
2020-02-29 21:14:10,46936b35-58a5-469a-9a65-caefc7931a9c,A
2020-02-29 21:18:05,46936b35-58a5-469a-9a65-caefc7931a9c,S
2020-02-29 21:21:27,46936b35-58a5-469a-9a65-caefc7931a9c,A
2020-02-29 21:23:01,46936b35-58a5-469a-9a65-caefc7931a9c,S
2020-02-29 21:23:12,46936b35-58a5-469a-9a65-caefc7931a9c,A
2020-02-29 21:25:32,46936b35-58a5-469a-9a65-caefc7931a9c,S
2020-02-29 21:29:49,46936b35-58a5-469a-9a65-caefc7931a9c,A
2020-02-29 21:32:43,46936b35-58a5-469a-9a65-caefc7931a9c,S
2020-02-29 21:33:37,46936b35-58a5-469a-9a65-caefc7931a9c,A
2020-02-29 21:44:01,46936b35-58a5-469a-9a65-caefc7931a9c,S
2020-02-29 21:44:05,46936b35-58a5-469a-9a65-caefc7931a9c,A
2020-02-29 21:44:37,46936b35-58a5-469a-9a65-caefc7931a9c,S
2020-02-29 21:45:06,46936b35-58a5-469a-9a65-caefc7931a9c,A
2020-02-29 21:45:19,46936b35-58a5-469a-9a65-caefc7931a9c,S
2020-02-29 21:49:14,46936b35-58a5-469a-9a65-caefc7931a9c,A
2020-02-29 19:26:54,bacbe4e9-56e4-4527-9e51-e394d3457484,S
2020-02-29 19:27:39,bacbe4e9-56e4-4527-9e51-e394d3457484,A
2020-02-29 19:33:24,bacbe4e9-56e4-4527-9e51-e394d3457484,S
2020-02-29 19:37:38,bacbe4e9-56e4-4527-9e51-e394d3457484,A
2020-02-29 19:46:12,bacbe4e9-56e4-4527-9e51-e394d3457484,S
2020-02-29 19:47:06,bacbe4e9-56e4-4527-9e51-e394d3457484,A
2020-02-29 19:51:17,bacbe4e9-56e4-4527-9e51-e394d3457484,S
2020-02-29 19:52:26,bacbe4e9-56e4-4527-9e51-e394d3457484,A
2020-02-29 19:55:57,bacbe4e9-56e4-4527-9e51-e394d3457484,S
2020-02-29 20:05:50,bacbe4e9-56e4-4527-9e51-e394d3457484,A
2020-02-29 20:10:25,bacbe4e9-56e4-4527-9e51-e394d3457484,S
2020-02-29 20:12:49,bacbe4e9-56e4-4527-9e51-e394d3457484,A
2020-02-29 20:14:25,bacbe4e9-56e4-4527-9e51-e394d3457484,S
2020-02-29 20:21:17,bacbe4e9-56e4-4527-9e51-e394d3457484,A
2020-02-29 20:33:22,bacbe4e9-56e4-4527-9e51-e394d3457484,S
2020-02-29 20:34:41,bacbe4e9-56e4-4527-9e51-e394d3457484,A
2020-02-29 20:36:41,bacbe4e9-56e4-4527-9e51-e394d3457484,S
2020-02-29 20:38:39,bacbe4e9-56e4-4527-9e51-e394d3457484,A
2020-02-29 20:45:04,bacbe4e9-56e4-4527-9e51-e394d3457484,S
2020-02-29 21:06:34,bacbe4e9-56e4-4527-9e51-e394d3457484,A
2020-02-29 21:07:11,bacbe4e9-56e4-4527-9e51-e394d3457484,S
2020-02-29 21:08:26,bacbe4e9-56e4-4527-9e51-e394d3457484,A
2020-02-29 21:10:23,bacbe4e9-56e4-4527-9e51-e394d3457484,S
2020-02-29 21:13:55,bacbe4e9-56e4-4527-9e51-e394d3457484,A
2020-02-29 21:23:12,bacbe4e9-56e4-4527-9e51-e394d3457484,S
2020-02-29 21:31:18,bacbe4e9-56e4-4527-9e51-e394d3457484,A
2020-02-29 21:47:10,bacbe4e9-56e4-4527-9e51-e394d3457484,S
2020-02-29 19:12:53,e315d350-b1ca-4622-8378-b6df38d9a79e,A
2020-02-29 19:20:37,e315d350-b1ca-4622-8378-b6df38d9a79e,S
2020-02-29 19:24:28,e315d350-b1ca-4622-8378-b6df38d9a79e,A
2020-02-29 19:43:30,e315d350-b1ca-4622-8378-b6df38d9a79e,S
2020-02-29 19:50:12,e315d350-b1ca-4622-8378-b6df38d9a79e,A
2020-02-29 19:56:03,e315d350-b1ca-4622-8378-b6df38d9a79e,S
2020-02-29 20:03:06,e315d350-b1ca-4622-8378-b6df38d9a79e,A
2020-02-29 20:10:06,e315d350-b1ca-4622-8378-b6df38d9a79e,S
2020-02-29 20:10:21,e315d350-b1ca-4622-8378-b6df38d9a79e,A
2020-02-29 20:11:31,e315d350-b1ca-4622-8378-b6df38d9a79e,S
2020-02-29 20:14:03,e315d350-b1ca-4622-8378-b6df38d9a79e,A
2020-02-29 20:18:45,e315d350-b1ca-4622-8378-b6df38d9a79e,S
2020-02-29 20:18:45,e315d350-b1ca-4622-8378-b6df38d9a79e,A
2020-02-29 20:19:41,e315d350-b1ca-4622-8378-b6df38d9a79e,S
2020-02-29 20:22:02,e315d350-b1ca-4622-8378-b6df38d9a79e,A
2020-02-29 20:24:16,e315d350-b1ca-4622-8378-b6df38d9a79e,S
2020-02-29 20:31:41,e315d350-b1ca-4622-8378-b6df38d9a79e,A
2020-02-29 20:43:43,e315d350-b1ca-4622-8378-b6df38d9a79e,S
2020-02-29 21:09:33,e315d350-b1ca-4622-8378-b6df38d9a79e,A
2020-02-29 21:12:45,e315d350-b1ca-4622-8378-b6df38d9a79e,S
2020-02-29 21:17:56,e315d350-b1ca-4622-8378-b6df38d9a79e,A
2020-02-29 21:18:53,e315d350-b1ca-4622-8378-b6df38d9a79e,S
2020-02-29 21:21:12,e315d350-b1ca-4622-8378-b6df38d9a79e,A
2020-02-29 21:38:39,e315d350-b1ca-4622-8378-b6df38d9a79e,S
2020-02-29 21:43:32,e315d350-b1ca-4622-8378-b6df38d9a79e,A
2020-02-29 21:44:18,e315d350-b1ca-4622-8378-b6df38d9a79e,S
2020-02-29 21:45:09,e315d350-b1ca-4622-8378-b6df38d9a79e,A
2020-02-29 21:47:52,e315d350-b1ca-4622-8378-b6df38d9a79e,S
2020-02-29 21:48:44,e315d350-b1ca-4622-8378-b6df38d9a79e,A
2020-02-29 19:00:47,57317d03-f1dd-40cf-8b20-f40f05709067,S
2020-02-29 19:01:20,57317d03-f1dd-40cf-8b20-f40f05709067,A
2020-02-29 19:02:53,57317d03-f1dd-40cf-8b20-f40f05709067,S
2020-02-29 19:06:57,57317d03-f1dd-40cf-8b20-f40f05709067,A
2020-02-29 19:21:55,57317d03-f1dd-40cf-8b20-f40f05709067,S
2020-02-29 19:22:45,57317d03-f1dd-40cf-8b20-f40f05709067,A
2020-02-29 19:28:03,57317d03-f1dd-40cf-8b20-f40f05709067,S
2020-02-29 19:37:02,57317d03-f1dd-40cf-8b20-f40f05709067,A
2020-02-29 19:40:26,57317d03-f1dd-40cf-8b20-f40f05709067,S
2020-02-29 19:40:55,57317d03-f1dd-40cf-8b20-f40f05709067,A
2020-02-29 20:01:54,57317d03-f1dd-40cf-8b20-f40f05709067,S
2020-02-29 20:04:00,57317d03-f1dd-40cf-8b20-f40f05709067,A
2020-02-29 20:09:29,57317d03-f1dd-40cf-8b20-f40f05709067,S
2020-02-29 20:15:15,57317d03-f1dd-40cf-8b20-f40f05709067,A
2020-02-29 20:16:03,57317d03-f1dd-40cf-8b20-f40f05709067,S
2020-02-29 20:18:01,57317d03-f1dd-40cf-8b20-f40f05709067,A
2020-02-29 20:19:36,57317d03-f1dd-40cf-8b20-f40f05709067,S
2020-02-29 20:33:49,57317d03-f1dd-40cf-8b20-f40f05709067,A
2020-02-29 20:35:56,57317d03-f1dd-40cf-8b20-f40f05709067,S
2020-02-29 20:38:23,57317d03-f1dd-40cf-8b20-f40f05709067,A
2020-02-29 20:46:00,57317d03-f1dd-40cf-8b20-f40f05709067,S
2020-02-29 20:49:40,57317d03-f1dd-40cf-8b20-f40f05709067,A
2020-02-29 20:53:02,57317d03-f1dd-40cf-8b20-f40f05709067,S
2020-02-29 21:03:52,57317d03-f1dd-40cf-8b20-f40f05709067,A
2020-02-29 21:03:56,57317d03-f1dd-40cf-8b20-f40f05709067,S
2020-02-29 21:13:27,57317d03-f1dd-40cf-8b20-f40f05709067,A
2020-02-29 21:33:55,57317d03-f1dd-40cf-8b20-f40f05709067,S
2020-02-29 21:41:11,57317d03-f1dd-40cf-8b20-f40f05709067,A
2020-02-29 21:45:09,57317d03-f1dd-40cf-8b20-f40f05709067,S
2020-02-29 19:07:23,72eb18d0-b7d7-4ee5-84ec-26d8fd57c684,S
2020-02-29 19:15:50,72eb18d0-b7d7-4ee5-84ec-26d8fd57c684,A
2020-02-29 19:18:55,72eb18d0-b7d7-4ee5-84ec-26d8fd57c684,S
2020-02-29 19:27:43,72eb18d0-b7d7-4ee5-84ec-26d8fd57c684,A
2020-02-29 19:37:18,72eb18d0-b7d7-4ee5-84ec-26d8fd57c684,S
2020-02-29 19:40:43,72eb18d0-b7d7-4ee5-84ec-26d8fd57c684,A
2020-02-29 19:41:38,72eb18d0-b7d7-4ee5-84ec-26d8fd57c684,S
2020-02-29 19:43:51,72eb18d0-b7d7-4ee5-84ec-26d8fd57c684,A
2020-02-29 19:59:48,72eb18d0-b7d7-4ee5-84ec-26d8fd57c684,S
2020-02-29 20:01:54,72eb18d0-b7d7-4ee5-84ec-26d8fd57c684,A
2020-02-29 20:01:57,72eb18d0-b7d7-4ee5-84ec-26d8fd57c684,S
2020-02-29 20:13:13,72eb18d0-b7d7-4ee5-84ec-26d8fd57c684,A
2020-02-29 20:20:54,72eb18d0-b7d7-4ee5-84ec-26d8fd57c684,S
2020-02-29 20:30:13,72eb18d0-b7d7-4ee5-84ec-26d8fd57c684,A
2020-02-29 20:35:30,72eb18d0-b7d7-4ee5-84ec-26d8fd57c684,S
2020-02-29 20:38:18,72eb18d0-b7d7-4ee5-84ec-26d8fd57c684,A
2020-02-29 20:39:01,72eb18d0-b7d7-4ee5-84ec-26d8fd57c684,S
2020-02-29 20:42:30,72eb18d0-b7d7-4ee5-84ec-26d8fd57c684,A
2020-02-29 20:45:33,72eb18d0-b7d7-4ee5-84ec-26d8fd57c684,S
2020-02-29 20:54:30,72eb18d0-b7d7-4ee5-84ec-26d8fd57c684,A
2020-02-29 21:09:28,72eb18d0-b7d7-4ee5-84ec-26d8fd57c684,S
2020-02-29 21:10:30,72eb18d0-b7d7-4ee5-84ec-26d8fd57c684,A
2020-02-29 21:10:59,72eb18d0-b7d7-4ee5-84ec-26d8fd57c684,S
2020-02-29 21:11:38,72eb18d0-b7d7-4ee5-84ec-26d8fd57c684,A
2020-02-29 21:18:42,72eb18d0-b7d7-4ee5-84ec-26d8fd57c684,S
2020-02-29 21:23:52,72eb18d0-b7d7-4ee5-84ec-26d8fd57c684,A
2020-02-29 21:42:44,72eb18d0-b7d7-4ee5-84ec-26d8fd57c684,S
2020-02-29 21:44:51,72eb18d0-b7d7-4ee5-84ec-26d8fd57c684,A
2020-02-29 18:58:28,2c175c99-a1b1-43d1-9a64-4fe82453c79d,A
2020-02-29 19:03:30,2c175c99-a1b1-43d1-9a64-4fe82453c79d,S
2020-02-29 19:07:22,2c175c99-a1b1-43d1-9a64-4fe82453c79d,A
2020-02-29 19:18:41,2c175c99-a1b1-43d1-9a64-4fe82453c79d,S
2020-02-29 19:26:32,2c175c99-a1b1-43d1-9a64-4fe82453c79d,A
2020-02-29 19:28:54,2c175c99-a1b1-43d1-9a64-4fe82453c79d,S
2020-02-29 19:32:57,2c175c99-a1b1-43d1-9a64-4fe82453c79d,A
2020-02-29 19:33:47,2c175c99-a1b1-43d1-9a64-4fe82453c79d,S
2020-02-29 19:39:00,2c175c99-a1b1-43d1-9a64-4fe82453c79d,A
2020-02-29 19:43:53,2c175c99-a1b1-43d1-9a64-4fe82453c79d,S
2020-02-29 19:48:51,2c175c99-a1b1-43d1-9a64-4fe82453c79d,A
2020-02-29 19:51:26,2c175c99-a1b1-43d1-9a64-4fe82453c79d,S
2020-02-29 19:52:12,2c175c99-a1b1-43d1-9a64-4fe82453c79d,A
2020-02-29 20:02:48,2c175c99-a1b1-43d1-9a64-4fe82453c79d,S
2020-02-29 20:03:12,2c175c99-a1b1-43d1-9a64-4fe82453c79d,A
2020-02-29 20:10:50,2c175c99-a1b1-43d1-9a64-4fe82453c79d,S
2020-02-29 20:16:10,2c175c99-a1b1-43d1-9a64-4fe82453c79d,A
2020-02-29 20:16:36,2c175c99-a1b1-43d1-9a64-4fe82453c79d,S
2020-02-29 20:23:02,2c175c99-a1b1-43d1-9a64-4fe82453c79d,A
2020-02-29 20:25:06,2c175c99-a1b1-43d1-9a64-4fe82453c79d,S
2020-02-29 20:25:19,2c175c99-a1b1-43d1-9a64-4fe82453c79d,A
2020-02-29 20:30:22,2c175c99-a1b1-43d1-9a64-4fe82453c79d,S
2020-02-29 20:31:03,2c175c99-a1b1-43d1-9a64-4fe82453c79d,A
2020-02-29 20:48:10,2c175c99-a1b1-43d1-9a64-4fe82453c79d,S
2020-02-29 20:50:26,2c175c99-a1b1-43d1-9a64-4fe82453c79d,A
2020-02-29 20:50:46,2c175c99-a1b1-43d1-9a64-4fe82453c79d,S
2020-02-29 20:54:12,2c175c99-a1b1-43d1-9a64-4fe82453c79d,A
2020-02-29 20:54:23,2c175c99-a1b1-43d1-9a64-4fe82453c79d,S
2020-02-29 21:01:24,2c175c99-a1b1-43d1-9a64-4fe82453c79d,A
2020-02-29 21:07:12,2c175c99-a1b1-43d1-9a64-4fe82453c79d,S
2020-02-29 21:27:55,2c175c99-a1b1-43d1-9a64-4fe82453c79d,A
2020-02-29 21:29:11,2c175c99-a1b1-43d1-9a64-4fe82453c79d,S
2020-02-29 21:41:06,2c175c99-a1b1-43d1-9a64-4fe82453c79d,A
2020-02-29 21:47:08,2c175c99-a1b1-43d1-9a64-4fe82453c79d,S
2020-02-29 21:48:49,2c175c99-a1b1-43d1-9a64-4fe82453c79d,A
2020-02-29 19:13:57,f2e37526-b571-40d3-bada-6173bd3e24e1,S
2020-02-29 19:14:19,f2e37526-b571-40d3-bada-6173bd3e24e1,A
2020-02-29 19:14:58,f2e37526-b571-40d3-bada-6173bd3e24e1,S
2020-02-29 19:15:17,f2e37526-b571-40d3-bada-6173bd3e24e1,A
2020-02-29 19:21:08,f2e37526-b571-40d3-bada-6173bd3e24e1,S
2020-02-29 19:28:07,f2e37526-b571-40d3-bada-6173bd3e24e1,A
2020-02-29 19:37:05,f2e37526-b571-40d3-bada-6173bd3e24e1,S
2020-02-29 19:38:44,f2e37526-b571-40d3-bada-6173bd3e24e1,A
2020-02-29 19:48:19,f2e37526-b571-40d3-bada-6173bd3e24e1,S
2020-02-29 19:55:47,f2e37526-b571-40d3-bada-6173bd3e24e1,A
2020-02-29 19:56:14,f2e37526-b571-40d3-bada-6173bd3e24e1,S
2020-02-29 19:56:44,f2e37526-b571-40d3-bada-6173bd3e24e1,A
2020-02-29 19:57:52,f2e37526-b571-40d3-bada-6173bd3e24e1,S
2020-02-29 20:02:07,f2e37526-b571-40d3-bada-6173bd3e24e1,A
2020-02-29 20:04:44,f2e37526-b571-40d3-bada-6173bd3e24e1,S
2020-02-29 20:18:38,f2e37526-b571-40d3-bada-6173bd3e24e1,A
2020-02-29 20:24:10,f2e37526-b571-40d3-bada-6173bd3e24e1,S
2020-02-29 20:27:33,f2e37526-b571-40d3-bada-6173bd3e24e1,A
2020-02-29 20:48:13,f2e37526-b571-40d3-bada-6173bd3e24e1,S
2020-02-29 20:50:55,f2e37526-b571-40d3-bada-6173bd3e24e1,A
2020-02-29 20:53:04,f2e37526-b571-40d3-bada-6173bd3e24e1,S
2020-02-29 20:56:31,f2e37526-b571-40d3-bada-6173bd3e24e1,A
2020-02-29 20:56:34,f2e37526-b571-40d3-bada-6173bd3e24e1,S
2020-02-29 20:57:56,f2e37526-b571-40d3-bada-6173bd3e24e1,A
2020-02-29 21:00:41,f2e37526-b571-40d3-bada-6173bd3e24e1,S
2020-02-29 21:01:36,f2e37526-b571-40d3-bada-6173bd3e24e1,A
2020-02-29 21:02:10,f2e37526-b571-40d3-bada-6173bd3e24e1,S
2020-02-29 21:05:45,f2e37526-b571-40d3-bada-6173bd3e24e1,A
2020-02-29 21:09:18,f2e37526-b571-40d3-bada-6173bd3e24e1,S
2020-02-29 21:15:42,f2e37526-b571-40d3-bada-6173bd3e24e1,A
2020-02-29 21:18:53,f2e37526-b571-40d3-bada-6173bd3e24e1,S
2020-02-29 21:21:56,f2e37526-b571-40d3-bada-6173bd3e24e1,A
2020-02-29 21:23:13,f2e37526-b571-40d3-bada-6173bd3e24e1,S
2020-02-29 21:30:08,f2e37526-b571-40d3-bada-6173bd3e24e1,A
2020-02-29 21:30:34,f2e37526-b571-40d3-bada-6173bd3e24e1,S
2020-02-29 21:36:22,f2e37526-b571-40d3-bada-6173bd3e24e1,A
2020-02-29 21:38:15,f2e37526-b571-40d3-bada-6173bd3e24e1,S
2020-02-29 21:38:44,f2e37526-b571-40d3-bada-6173bd3e24e1,A
2020-02-29 21:43:22,f2e37526-b571-40d3-bada-6173bd3e24e1,S
2020-02-29 21:44:34,f2e37526-b571-40d3-bada-6173bd3e24e1,A
2020-02-29 21:50:14,f2e37526-b571-40d3-bada-6173bd3e24e1,S
2020-02-29 19:03:17,fe352351-5c81-4c07-9f1e-2693da6e42bf,A
2020-02-29 19:08:48,fe352351-5c81-4c07-9f1e-2693da6e42bf,S
2020-02-29 19:17:18,fe352351-5c81-4c07-9f1e-2693da6e42bf,A
2020-02-29 19:22:29,fe352351-5c81-4c07-9f1e-2693da6e42bf,S
2020-02-29 19:25:45,fe352351-5c81-4c07-9f1e-2693da6e42bf,A
2020-02-29 19:27:35,fe352351-5c81-4c07-9f1e-2693da6e42bf,S
2020-02-29 19:29:48,fe352351-5c81-4c07-9f1e-2693da6e42bf,A
2020-02-29 19:38:48,fe352351-5c81-4c07-9f1e-2693da6e42bf,S
2020-02-29 19:42:18,fe352351-5c81-4c07-9f1e-2693da6e42bf,A
2020-02-29 19:45:29,fe352351-5c81-4c07-9f1e-2693da6e42bf,S
2020-02-29 19:47:12,fe352351-5c81-4c07-9f1e-2693da6e42bf,A
2020-02-29 19:57:30,fe352351-5c81-4c07-9f1e-2693da6e42bf,S
2020-02-29 20:11:54,fe352351-5c81-4c07-9f1e-2693da6e42bf,A
2020-02-29 20:15:34,fe352351-5c81-4c07-9f1e-2693da6e42bf,S
2020-02-29 20:20:49,fe352351-5c81-4c07-9f1e-2693da6e42bf,A
2020-02-29 20:27:33,fe352351-5c81-4c07-9f1e-2693da6e42bf,S
2020-02-29 20:32:33,fe352351-5c81-4c07-9f1e-2693da6e42bf,A
2020-02-29 20:33:28,fe352351-5c81-4c07-9f1e-2693da6e42bf,S
2020-02-29 20:40:15,fe352351-5c81-4c07-9f1e-2693da6e42bf,A
2020-02-29 20:42:31,fe352351-5c81-4c07-9f1e-2693da6e42bf,S
2020-02-29 20:48:37,fe352351-5c81-4c07-9f1e-2693da6e42bf,A
2020-02-29 20:48:39,fe352351-5c81-4c07-9f1e-2693da6e42bf,S
2020-02-29 20:49:23,fe352351-5c81-4c07-9f1e-2693da6e42bf,A
2020-02-29 20:53:16,fe352351-5c81-4c07-9f1e-2693da6e42bf,S
2020-02-29 20:58:52,fe352351-5c81-4c07-9f1e-2693da6e42bf,A
2020-02-29 21:00:54,fe352351-5c81-4c07-9f1e-2693da6e42bf,S
2020-02-29 21:04:07,fe352351-5c81-4c07-9f1e-2693da6e42bf,A
2020-02-29 21:06:58,fe352351-5c81-4c07-9f1e-2693da6e42bf,S
2020-02-29 21:10:13,fe352351-5c81-4c07-9f1e-2693da6e42bf,A
2020-02-29 21:19:14,fe352351-5c81-4c07-9f1e-2693da6e42bf,S
2020-02-29 21:22:48,fe352351-5c81-4c07-9f1e-2693da6e42bf,A
2020-02-29 21:23:46,fe352351-5c81-4c07-9f1e-2693da6e42bf,S
2020-02-29 21:27:13,fe352351-5c81-4c07-9f1e-2693da6e42bf,A
2020-02-29 21:29:11,fe352351-5c81-4c07-9f1e-2693da6e42bf,S
2020-02-29 21:29:53,fe352351-5c81-4c07-9f1e-2693da6e42bf,A
2020-02-29 21:37:01,fe352351-5c81-4c07-9f1e-2693da6e42bf,S
2020-02-29 21:39:25,fe352351-5c81-4c07-9f1e-2693da6e42bf,A
2020-02-29 19:03:47,5a8e0d75-22b5-4d46-8018-c939c56b9af1,A
2020-02-29 19:03:50,5a8e0d75-22b5-4d46-8018-c939c56b9af1,S
2020-02-29 19:06:08,5a8e0d75-22b5-4d46-8018-c939c56b9af1,A
2020-02-29 19:08:35,5a8e0d75-22b5-4d46-8018-c939c56b9af1,S
2020-02-29 19:08:56,5a8e0d75-22b5-4d46-8018-c939c56b9af1,A
2020-02-29 19:14:32,5a8e0d75-22b5-4d46-8018-c939c56b9af1,S
2020-02-29 19:18:19,5a8e0d75-22b5-4d46-8018-c939c56b9af1,A
2020-02-29 19:22:15,5a8e0d75-22b5-4d46-8018-c939c56b9af1,S
2020-02-29 19:35:24,5a8e0d75-22b5-4d46-8018-c939c56b9af1,A
2020-02-29 19:35:46,5a8e0d75-22b5-4d46-8018-c939c56b9af1,S
2020-02-29 19:39:10,5a8e0d75-22b5-4d46-8018-c939c56b9af1,A
2020-02-29 19:39:23,5a8e0d75-22b5-4d46-8018-c939c56b9af1,S
2020-02-29 19:44:38,5a8e0d75-22b5-4d46-8018-c939c56b9af1,A
2020-02-29 19:55:46,5a8e0d75-22b5-4d46-8018-c939c56b9af1,S
2020-02-29 19:56:10,5a8e0d75-22b5-4d46-8018-c939c56b9af1,A
2020-02-29 19:59:32,5a8e0d75-22b5-4d46-8018-c939c56b9af1,S
2020-02-29 20:01:23,5a8e0d75-22b5-4d46-8018-c939c56b9af1,A
2020-02-29 20:10:51,5a8e0d75-22b5-4d46-8018-c939c56b9af1,S
2020-02-29 20:24:59,5a8e0d75-22b5-4d46-8018-c939c56b9af1,A
2020-02-29 20:26:35,5a8e0d75-22b5-4d46-8018-c939c56b9af1,S
2020-02-29 20:28:09,5a8e0d75-22b5-4d46-8018-c939c56b9af1,A
2020-02-29 20:30:02,5a8e0d75-22b5-4d46-8018-c939c56b9af1,S
2020-02-29 20:36:30,5a8e0d75-22b5-4d46-8018-c939c56b9af1,A
2020-02-29 20:41:23,5a8e0d75-22b5-4d46-8018-c939c56b9af1,S
2020-02-29 20:48:55,5a8e0d75-22b5-4d46-8018-c939c56b9af1,A
2020-02-29 20:48:57,5a8e0d75-22b5-4d46-8018-c939c56b9af1,S
2020-02-29 20:49:16,5a8e0d75-22b5-4d46-8018-c939c56b9af1,A
2020-02-29 20:51:37,5a8e0d75-22b5-4d46-8018-c939c56b9af1,S
2020-02-29 20:54:48,5a8e0d75-22b5-4d46-8018-c939c56b9af1,A
2020-02-29 20:55:34,5a8e0d75-22b5-4d46-8018-c939c56b9af1,S
2020-02-29 21:06:35,5a8e0d75-22b5-4d46-8018-c939c56b9af1,A
2020-02-29 21:07:23,5a8e0d75-22b5-4d46-8018-c939c56b9af1,S
2020-02-29 21:07:49,5a8e0d75-22b5-4d46-8018-c939c56b9af1,A
2020-02-29 21:10:02,5a8e0d75-22b5-4d46-8018-c939c56b9af1,S
2020-02-29 21:12:16,5a8e0d75-22b5-4d46-8018-c939c56b9af1,A
2020-02-29 21:12:34,5a8e0d75-22b5-4d46-8018-c939c56b9af1,S
2020-02-29 21:22:00,5a8e0d75-22b5-4d46-8018-c939c56b9af1,A
2020-02-29 21:26:43,5a8e0d75-22b5-4d46-8018-c939c56b9af1,S
2020-02-29 21:28:27,5a8e0d75-22b5-4d46-8018-c939c56b9af1,A
2020-02-29 21:29:37,5a8e0d75-22b5-4d46-8018-c939c56b9af1,S
2020-02-29 21:30:53,5a8e0d75-22b5-4d46-8018-c939c56b9af1,A
2020-02-29 21:33:12,5a8e0d75-22b5-4d46-8018-c939c56b9af1,S
2020-02-29 21:33:16,5a8e0d75-22b5-4d46-8018-c939c56b9af1,A
2020-02-29 21:43:34,5a8e0d75-22b5-4d46-8018-c939c56b9af1,S
2020-02-29 21:46:59,5a8e0d75-22b5-4d46-8018-c939c56b9af1,A
2020-02-29 21:50:12,5a8e0d75-22b5-4d46-8018-c939c56b9af1,S
2020-02-29 21:52:07,5a8e0d75-22b5-4d46-8018-c939c56b9af1,A
2020-02-29 19:25:35,631ec0e5-319c-4b77-b883-e7cc4481ed73,S
2020-02-29 19:27:54,631ec0e5-319c-4b77-b883-e7cc4481ed73,A
2020-02-29 19:35:46,631ec0e5-319c-4b77-b883-e7cc4481ed73,S
2020-02-29 19:47:59,631ec0e5-319c-4b77-b883-e7cc4481ed73,A
2020-02-29 19:51:43,631ec0e5-319c-4b77-b883-e7cc4481ed73,S
2020-02-29 20:00:36,631ec0e5-319c-4b77-b883-e7cc4481ed73,A
2020-02-29 20:02:55,631ec0e5-319c-4b77-b883-e7cc4481ed73,S
2020-02-29 20:08:09,631ec0e5-319c-4b77-b883-e7cc4481ed73,A
2020-02-29 20:15:18,631ec0e5-319c-4b77-b883-e7cc4481ed73,S
2020-02-29 20:20:31,631ec0e5-319c-4b77-b883-e7cc4481ed73,A
2020-02-29 20:22:24,631ec0e5-319c-4b77-b883-e7cc4481ed73,S
2020-02-29 20:33:55,631ec0e5-319c-4b77-b883-e7cc4481ed73,A
2020-02-29 20:39:26,631ec0e5-319c-4b77-b883-e7cc4481ed73,S
2020-02-29 20:39:49,631ec0e5-319c-4b77-b883-e7cc4481ed73,A
2020-02-29 20:47:38,631ec0e5-319c-4b77-b883-e7cc4481ed73,S
2020-02-29 20:54:05,631ec0e5-319c-4b77-b883-e7cc4481ed73,A
2020-02-29 21:05:51,631ec0e5-319c-4b77-b883-e7cc4481ed73,S
2020-02-29 21:08:44,631ec0e5-319c-4b77-b883-e7cc4481ed73,A
2020-02-29 21:13:06,631ec0e5-319c-4b77-b883-e7cc4481ed73,S
2020-02-29 21:17:04,631ec0e5-319c-4b77-b883-e7cc4481ed73,A
2020-02-29 21:22:36,631ec0e5-319c-4b77-b883-e7cc4481ed73,S
2020-02-29 21:30:45,631ec0e5-319c-4b77-b883-e7cc4481ed73,A
2020-02-29 21:31:00,631ec0e5-319c-4b77-b883-e7cc4481ed73,S
2020-02-29 21:31:50,631ec0e5-319c-4b77-b883-e7cc4481ed73,A
2020-02-29 21:35:07,631ec0e5-319c-4b77-b883-e7cc4481ed73,S
2020-02-29 21:38:25,631ec0e5-319c-4b77-b883-e7cc4481ed73,A
2020-02-29 21:39:12,631ec0e5-319c-4b77-b883-e7cc4481ed73,S
2020-02-29 21:43:03,631ec0e5-319c-4b77-b883-e7cc4481ed73,A
2020-02-29 21:49:11,631ec0e5-319c-4b77-b883-e7cc4481ed73,S
2020-02-29 21:50:20,631ec0e5-319c-4b77-b883-e7cc4481ed73,A
2020-02-29 19:08:25,1b222818-33f3-41ad-93ff-a64af297ecf4,S
2020-02-29 19:13:57,1b222818-33f3-41ad-93ff-a64af297ecf4,A
2020-02-29 19:15:19,1b222818-33f3-41ad-93ff-a64af297ecf4,S
2020-02-29 19:29:40,1b222818-33f3-41ad-93ff-a64af297ecf4,A
2020-02-29 19:31:53,1b222818-33f3-41ad-93ff-a64af297ecf4,S
2020-02-29 19:34:17,1b222818-33f3-41ad-93ff-a64af297ecf4,A
2020-02-29 19:35:09,1b222818-33f3-41ad-93ff-a64af297ecf4,S
2020-02-29 19:38:40,1b222818-33f3-41ad-93ff-a64af297ecf4,A
2020-02-29 19:40:02,1b222818-33f3-41ad-93ff-a64af297ecf4,S
2020-02-29 19:43:38,1b222818-33f3-41ad-93ff-a64af297ecf4,A
2020-02-29 19:46:14,1b222818-33f3-41ad-93ff-a64af297ecf4,S
2020-02-29 19:46:44,1b222818-33f3-41ad-93ff-a64af297ecf4,A
2020-02-29 20:07:03,1b222818-33f3-41ad-93ff-a64af297ecf4,S
2020-02-29 20:11:42,1b222818-33f3-41ad-93ff-a64af297ecf4,A
2020-02-29 20:12:55,1b222818-33f3-41ad-93ff-a64af297ecf4,S
2020-02-29 20:14:43,1b222818-33f3-41ad-93ff-a64af297ecf4,A
2020-02-29 20:23:13,1b222818-33f3-41ad-93ff-a64af297ecf4,S
2020-02-29 20:24:33,1b222818-33f3-41ad-93ff-a64af297ecf4,A
2020-02-29 20:33:10,1b222818-33f3-41ad-93ff-a64af297ecf4,A
2020-02-29 20:34:24,1b222818-33f3-41ad-93ff-a64af297ecf4,S
2020-02-29 20:35:14,1b222818-33f3-41ad-93ff-a64af297ecf4,A
2020-02-29 20:39:01,1b222818-33f3-41ad-93ff-a64af297ecf4,S
2020-02-29 20:40:07,1b222818-33f3-41ad-93ff-a64af297ecf4,A
2020-02-29 20:40:20,1b222818-33f3-41ad-93ff-a64af297ecf4,S
2020-02-29 20:45:53,1b222818-33f3-41ad-93ff-a64af297ecf4,A
2020-02-29 20:51:12,1b222818-33f3-41ad-93ff-a64af297ecf4,S
2020-02-29 21:03:27,1b222818-33f3-41ad-93ff-a64af297ecf4,A
2020-02-29 21:03:42,1b222818-33f3-41ad-93ff-a64af297ecf4,S
2020-02-29 21:07:53,1b222818-33f3-41ad-93ff-a64af297ecf4,A
2020-02-29 21:17:29,1b222818-33f3-41ad-93ff-a64af297ecf4,S
2020-02-29 21:29:34,1b222818-33f3-41ad-93ff-a64af297ecf4,A
2020-02-29 21:33:04,1b222818-33f3-41ad-93ff-a64af297ecf4,S
2020-02-29 21:37:26,1b222818-33f3-41ad-93ff-a64af297ecf4,A
2020-02-29 21:38:51,1b222818-33f3-41ad-93ff-a64af297ecf4,S
2020-02-29 21:39:27,1b222818-33f3-41ad-93ff-a64af297ecf4,A
2020-02-29 21:46:27,1b222818-33f3-41ad-93ff-a64af297ecf4,S
2020-02-29 21:47:55,1b222818-33f3-41ad-93ff-a64af297ecf4,A
2020-02-29 21:48:27,1b222818-33f3-41ad-93ff-a64af297ecf4,S
