actor,node
9fcb1047-85ce-4440-aa17-55207a526722,0835f7ed-52eb-44a1-acf3-9ae8e633bab1
fde00472-d9c1-4dcf-8ec4-60f11de0626d,75d9cdc3-aa34-4d84-b994-7fbff533c50a
a18c0db6-fe40-4532-9421-ba6a5a7f7cff,75d9cdc3-aa34-4d84-b994-7fbff533c50a
2587637f-c85b-4bba-b084-538ddd4982ea,11bed503-7fe2-46d2-a0f7-f542e5a4b586
0ffac783-7787-44fd-bdeb-b254e6a29928,11bed503-7fe2-46d2-a0f7-f542e5a4b586
915f003d-5579-492f-aa6f-7167a089b9fb,ed3709f9-4320-4bf5-910e-3f27dc85985f
b0ddb29b-8ce0-4f53-a3a6-4505ae4be75c,2337eb42-8a4c-49f3-9f2a-978c58aaaf29
3f2d49a9-a245-43b5-a87d-3a85e375fa04,2337eb42-8a4c-49f3-9f2a-978c58aaaf29
aa58e474-dda3-4f99-9afc-4b926218bc9e,75541d51-dc1a-467c-819f-bd0ae3f06d0a
17f4e439-f7bd-475d-b39d-722c2138bfbe,0365857f-8302-49b8-b4a1-01ca4b0ed146
60198b6a-38b1-4d14-9dc6-cfabd8739ec1,0365857f-8302-49b8-b4a1-01ca4b0ed146
f30eccaf-29d0-4037-b329-976816d9b55c,72d9d930-157d-4fdb-b249-0365060c24f5
7cef869b-1a5d-45fb-be88-048988be04bb,12aaa151-139c-479c-9cdd-782bcec24492
59ae9c98-38c6-4b42-ae8d-98ed3199ca0c,12aaa151-139c-479c-9cdd-782bcec24492
84b6b60d-c05e-4dfc-bcd4-ff5c6a2dbdaa,12e3453d-2c71-46a9-b9cf-ef5798fd8c67
42deba79-32a0-47ea-8c66-209b3521cbab,a14dd62b-7468-45a6-8977-8afe9c335d44
dde12b45-ed34-44ae-94bb-170c2ef72427,a14dd62b-7468-45a6-8977-8afe9c335d44
d78845c5-9851-4baa-99f9-c1c512ac3c6f,38dc98f7-a169-4e06-bb72-f564e40f3854
a7cde2f0-a790-4c68-9617-41daaf19b4eb,72e6c189-3e11-4f5d-8a54-a18f46b06bc6
b5cf0ae6-d2f7-4b36-a729-e6c1cd067610,57e21c8d-ad49-45f7-b7f7-12744fb3831c
37100cd8-980a-4cdc-90ab-155ed3cec3cb,57e21c8d-ad49-45f7-b7f7-12744fb3831c
3e4b0928-3af7-445c-8a5a-8e7cd567de05,27e3d83b-ab2f-48ed-bd31-280bc004eed1
af826aab-7f97-493d-8c26-cc04084a40c2,27e3d83b-ab2f-48ed-bd31-280bc004eed1
7da496d5-39e5-4005-a21c-4eb732382acd,4b365036-9f09-4602-9af9-9e5c4d33f5ea
5c940d94-6f41-4973-89ed-3dda5e6dd12a,172dff13-70b2-4906-862e-4cb599b7dcdb
c935a61c-e780-40e2-a36e-e24b2ecfeafd,1adf6dd0-4574-44b4-ab23-970e0afffa60
38e6e7f6-ffe5-4808-811a-49dd371bc080,172dff13-70b2-4906-862e-4cb599b7dcdb
c988642e-c012-47a2-9e23-29ed0f87b978,7e68b31b-459b-4075-bf9d-080e4b9ff120
b5d16561-54c5-4f98-b174-679dc4950be3,8a700c2e-f460-4c52-91fb-3ce2ce56c8ca
3119296c-f10b-4ae9-a50d-7261604977ed,7e68b31b-459b-4075-bf9d-080e4b9ff120
d5880339-d9a1-4ab9-a0b7-190d2c50d4f8,31cfdd63-988e-4b6f-98e5-df2afbfacae3
e6b25a33-3cb6-4a1f-9989-23a70df8a480,31cfdd63-988e-4b6f-98e5-df2afbfacae3
353977bf-50de-4902-83f0-bba4702627f7,45205b05-f944-4bf2-9720-3a00b383792f
975c90ff-ff86-4af2-912c-a7afd28ef6fe,9263585c-6ede-4fdf-abec-8c0dfa582bf8
49856e76-0ebd-4215-94ec-cb53435c5537,28eaa846-6c9b-4cf1-bc1d-9fd1bfc08e7c
2893247c-3bbf-4696-959b-3f2c5afe0921,28eaa846-6c9b-4cf1-bc1d-9fd1bfc08e7c
f0b612f3-adc8-45a7-97ac-7748c0848b5d,d640c3c5-0ef0-44e3-88c9-a924a1733d3f
6273d06d-defe-41c0-829f-36055bccf8ca,d640c3c5-0ef0-44e3-88c9-a924a1733d3f
13240f7e-8a3d-41e0-84fd-39f44d9491a6,7db175bf-ec67-4c97-bbe6-a7499e21f465
fa659cde-f0c5-4429-bde2-4fd449569a96,2d50ba02-cd55-419a-831a-d17e52be9a55
2c0eb28c-8b21-4969-a12c-265f1ad97841,2d50ba02-cd55-419a-831a-d17e52be9a55
34dd5eeb-9968-4f37-93b3-0944b1941469,758ee8d9-f01d-4a69-b7b6-650f88711428
db68046f-335d-4033-9395-13c669cc5095,9796b0a5-ab44-4b43-a435-0bbdb5e7956e
34518bf1-26e9-4c4b-ac8e-a551b44d4b75,2985f6de-9e6a-47c2-b80f-97ccdaf7788a
b5d076f9-fc83-48f2-9a5e-b5575b215cb1,9796b0a5-ab44-4b43-a435-0bbdb5e7956e
b828b3a0-eda0-4e36-b6b8-cdcf8b1ba5f3,75d9cdc3-aa34-4d84-b994-7fbff533c50a
1b612c62-012f-49eb-acde-a2c1cd6d8739,8e5cd7d0-7a74-40a6-bc68-39521277bc7e
72dc3f88-1cd4-4c2a-b9b4-ec46ea372142,75d9cdc3-aa34-4d84-b994-7fbff533c50a
25985a6c-8a2d-4fa4-b362-ac4fb98eb6a7,11bed503-7fe2-46d2-a0f7-f542e5a4b586
370352fd-a4f5-4b3b-a35c-6a3cf6b4f2bd,391436a7-cc35-4be4-a4f6-5c55ac1ffdc1
0062fd06-934a-4c27-bd95-61d8dc320c9a,11bed503-7fe2-46d2-a0f7-f542e5a4b586
0ab44583-f805-4e83-a3fd-60bb232fb417,2337eb42-8a4c-49f3-9f2a-978c58aaaf29
ca24aecd-558c-40df-a082-386c4321001a,2337eb42-8a4c-49f3-9f2a-978c58aaaf29
04354443-bce1-4ca3-9173-19db46a668a1,64acdf9d-fbd2-40d8-8686-23bcf6293a01
43a59433-89db-4d14-be45-72a8043814e9,0365857f-8302-49b8-b4a1-01ca4b0ed146
034d705e-4070-447e-827c-eab9b743afac,0365857f-8302-49b8-b4a1-01ca4b0ed146
271bdbdf-6158-4a6b-bffc-38ff3bbfea7b,367830f2-a08f-45aa-9f5e-0a16201b1375
1468e532-c0c4-4223-a6a6-dde69b758b88,12aaa151-139c-479c-9cdd-782bcec24492
c728ca7e-7750-47e1-8361-f0b9bdf842ef,12aaa151-139c-479c-9cdd-782bcec24492
f3692049-48ea-4fb4-a8a2-8f585694c282,4bbad25c-6bc9-4d93-8c03-8babc2723a8f
3bf3ec79-eb69-4ec2-9a93-645e1aeb40ea,a14dd62b-7468-45a6-8977-8afe9c335d44
ee78c328-337d-48db-8b9e-1e5afcb61a29,a14dd62b-7468-45a6-8977-8afe9c335d44
0c5d2df7-2f11-4f94-9eb3-c1d4be5e80de,fc801169-07d2-4721-be81-7a758bf583b8
efc8c6bb-9bf6-4fb5-b8c9-cebc6d9dedec,6618612c-d2e5-4165-8aeb-9da3bfb90f50
65dd5b63-62e0-494a-9f29-61977943624d,57e21c8d-ad49-45f7-b7f7-12744fb3831c
513bcc6e-a733-42c5-98ad-4896f48575d1,57e21c8d-ad49-45f7-b7f7-12744fb3831c
6624c426-7aaf-4d79-a0a2-5e203c7a9476,fd47a0b4-27b9-4e67-a133-18f8e959179c
d8578071-5ca1-4c33-af63-831c15ff63e7,27e3d83b-ab2f-48ed-bd31-280bc004eed1
eea2bd0a-5ee3-4c2a-8e9d-1c06df1c6193,27e3d83b-ab2f-48ed-bd31-280bc004eed1
86f0a994-0406-46ca-a92e-e00e3e4d50a3,172dff13-70b2-4906-862e-4cb599b7dcdb
d29681ec-5d63-4e24-a0aa-2677cf9d35fe,172dff13-70b2-4906-862e-4cb599b7dcdb
3080aead-cef9-4267-8832-387803985593,c1c63b56-a8da-4590-a67a-186c69b17725
426e5d47-dd72-4581-8a72-d3da233787a3,7e68b31b-459b-4075-bf9d-080e4b9ff120
f4d4fa7a-5f7c-4458-ae83-8af25bd915b3,a7dba74d-bfaa-4152-aaae-4b2c6033322c
12bc024d-9ff0-48df-8c07-4caebed59e9a,7e68b31b-459b-4075-bf9d-080e4b9ff120
6b99f763-2306-4332-a73e-4712fe63f645,31cfdd63-988e-4b6f-98e5-df2afbfacae3
21775c77-4b48-49e4-8601-53206fb4f3d0,31cfdd63-988e-4b6f-98e5-df2afbfacae3
9bf9863c-de57-44a9-9f0d-e597bfed62bd,edbae9aa-4ae0-4756-805b-5b8d40cdf6d4
10385b11-a282-4153-ad30-d246cbf0717c,28eaa846-6c9b-4cf1-bc1d-9fd1bfc08e7c
5d01779b-43a7-4b40-8ba3-e51f1431c7bb,28eaa846-6c9b-4cf1-bc1d-9fd1bfc08e7c
6c1e6d14-9bf8-490c-bc12-71a01352424b,d3e55ee1-4511-4f70-8f27-b754bd76a918
6c81a51e-81dc-454a-a7e1-65d57e08b581,849b9584-452f-438a-bbf1-99cd3977ace4
26ee6c80-0eab-4339-94a1-c0a34b1eab95,d640c3c5-0ef0-44e3-88c9-a924a1733d3f
ae36f7d8-930d-40ee-b6c0-897cac8c1831,d640c3c5-0ef0-44e3-88c9-a924a1733d3f
79ff5795-6ff8-4b8d-92e4-6a09f4b61d06,b1decfec-2829-4c44-8a4b-158137dbaab8
e572ad77-e13c-4354-a12f-4607c455a535,2d50ba02-cd55-419a-831a-d17e52be9a55
5c5b1c64-3635-42ae-b812-eb28368972c6,2d50ba02-cd55-419a-831a-d17e52be9a55
a2eb61bd-9aa2-4177-bab8-0ab821c5ff79,9796b0a5-ab44-4b43-a435-0bbdb5e7956e
efa143f5-7fb8-4f4b-a85e-4622a9813ab4,f544670f-20e6-4303-9b7b-2774f06ef04e
db96904f-1cca-4e0b-a664-7dba6a625dc6,9796b0a5-ab44-4b43-a435-0bbdb5e7956e
3ee928aa-0535-464e-9099-f5137c091a2b,f2da9a7c-5228-413f-ad40-69d3bb87e100
482de86a-36de-4478-bd84-cd49015fda25,75d9cdc3-aa34-4d84-b994-7fbff533c50a
65a7b2c2-150d-47a0-b2ce-155bdcfd1183,75d9cdc3-aa34-4d84-b994-7fbff533c50a
15b0149e-22ad-4dcf-aeb1-0f15b57bb459,11bed503-7fe2-46d2-a0f7-f542e5a4b586
1946700c-8aa6-4c98-97d2-095b83ad049c,11bed503-7fe2-46d2-a0f7-f542e5a4b586
7b43a807-ee37-4a24-9cc2-2b39e9475b57,17a205ac-02ad-4db9-ba64-78f8245b3256
40aecf20-b982-4bb3-9024-1c5241bb2f28,c519af7f-b540-40ea-bc67-dffd8eaacb7e
1cec7170-be65-4f23-a0e9-9bded630ce55,2337eb42-8a4c-49f3-9f2a-978c58aaaf29
4c62dd4e-e720-4e05-b513-c81f4c617ec3,2337eb42-8a4c-49f3-9f2a-978c58aaaf29
2d472160-fd24-4488-b889-1bfc43acbeb6,0365857f-8302-49b8-b4a1-01ca4b0ed146
ea08d762-7833-4811-87d6-c964ad52476a,2896a95c-6062-45f5-ab5c-42755b348500
aabf7333-d31f-4f8e-bcb3-87099632d9cd,0365857f-8302-49b8-b4a1-01ca4b0ed146
218b9866-4ba7-49e2-8347-52c39f6ff0d4,12aaa151-139c-479c-9cdd-782bcec24492
b75dd046-b549-4eb2-8bd9-27df7f6f873c,70c76fcd-9b13-4001-9655-5a3292c05721
15618759-c6fe-4277-a3f2-cea04cb0bbd1,12aaa151-139c-479c-9cdd-782bcec24492
f7c4b78a-33e9-4970-aed0-abc3d2a035d6,a14dd62b-7468-45a6-8977-8afe9c335d44
0c222d07-da0d-4e52-95fe-332149e17f50,a14dd62b-7468-45a6-8977-8afe9c335d44
4eac1a34-77c2-49b5-aa70-1dcdce16db4f,cdd1a6e7-c40e-4a12-9de4-30961776ecad
3d076e55-ce2b-4943-8f08-a936d583ef4d,57e21c8d-ad49-45f7-b7f7-12744fb3831c
201147b8-c383-4d30-acce-c4dd645f9aff,87e47cf2-d9d9-4847-bac5-44928a01a14f
7d3b1358-1f7a-4daf-a472-807d966e4e63,57e21c8d-ad49-45f7-b7f7-12744fb3831c
556bb6ac-671e-4992-a7dd-76ecb7cc1cf1,27e3d83b-ab2f-48ed-bd31-280bc004eed1
c28d8e90-931b-4928-bb58-774374ae7b79,27e3d83b-ab2f-48ed-bd31-280bc004eed1
3ae6ae72-0dc4-47b0-bf14-c4b2d321ccbf,b37e29a0-7b4b-4bf4-9762-1b9d48e9f5ea
37b2e6cb-60ed-4cf7-8826-866b59f440e0,172dff13-70b2-4906-862e-4cb599b7dcdb
0010dc78-7127-42f6-86b2-2e962649dccf,172dff13-70b2-4906-862e-4cb599b7dcdb
4b8f5a8a-861f-4f13-822c-371864ef977a,88ddec0d-a643-4ffe-b09c-f95c71ed71d6
d8e25edc-1424-4ca6-8f12-cb66f89451f3,7e68b31b-459b-4075-bf9d-080e4b9ff120
7818a34f-3280-47f8-b4b7-c7c55e41606f,7e68b31b-459b-4075-bf9d-080e4b9ff120
439430f9-82a2-4cd0-8b2d-4f9dd1de7d54,92ab7930-81ce-4e86-892c-95f47d55f28e
3f541862-dbfa-42aa-8172-c59f11614c54,31cfdd63-988e-4b6f-98e5-df2afbfacae3
48a1cccd-ca31-4e1a-bf77-dfe075f7ad6c,31cfdd63-988e-4b6f-98e5-df2afbfacae3
bc30889a-de4e-4c08-b4f6-264dd638b229,acdb36d1-bbf3-4d74-a394-29fb5f35b9bb
59ed6a37-1039-43b8-9dce-72675c79c606,ead443fc-366a-4036-be99-851eac8e6919
c53af45e-88a7-4d50-bf0b-f169dc870c9b,28eaa846-6c9b-4cf1-bc1d-9fd1bfc08e7c
84d9484d-ef2a-4da6-9cf7-1529fe6212fd,28eaa846-6c9b-4cf1-bc1d-9fd1bfc08e7c
1cce23f8-38d2-4a28-9564-7a6b4e9a0282,7c646cb1-a4e0-4877-a554-fdfa8ec08454
0c2d96bf-3535-4d7b-881c-b55227fcc2a3,d640c3c5-0ef0-44e3-88c9-a924a1733d3f
415df7f6-56f4-49b2-b518-19dbdbb87dc1,d640c3c5-0ef0-44e3-88c9-a924a1733d3f
c7972fb3-0e69-4e4a-8099-9bdfb19036e4,2d50ba02-cd55-419a-831a-d17e52be9a55
8f7a5011-8853-4c14-9ed0-7730fb73f064,99be1670-68a8-4798-a69f-bce0cbe432f3
772e1214-eff7-48b7-9db1-3efb3acb71b8,2d50ba02-cd55-419a-831a-d17e52be9a55
987c95d5-ab2a-4ed1-9194-ce2cb3dd2311,9796b0a5-ab44-4b43-a435-0bbdb5e7956e
6934cf79-111d-440e-a38c-7c0befd925ff,39ae96ed-381d-428b-a023-4de9f0813411
1e4ac5a8-8463-4cc1-9454-e672ca1f4b73,9796b0a5-ab44-4b43-a435-0bbdb5e7956e
92a6bbe9-b555-4725-bbd8-c1bc8f58d80c,75d9cdc3-aa34-4d84-b994-7fbff533c50a
91ce0459-bb08-4f03-9e18-1709d22480ad,75d9cdc3-aa34-4d84-b994-7fbff533c50a
f7f94cbe-1b12-4ab3-8846-b809101d8f4d,8d9b31b2-0b91-43e6-9420-fd85fdb7033b
d37cdcfa-9d68-4f33-8e66-9427ca250ae6,a8a04551-5f41-4773-accb-3f2cf2c172a7
96358f93-80ad-4d43-a049-e96e645d3a70,11bed503-7fe2-46d2-a0f7-f542e5a4b586
f54bb358-b926-4193-8734-1cfc0a0969d8,11bed503-7fe2-46d2-a0f7-f542e5a4b586
acbef848-2f7c-451a-8ee7-6ac33b2d3278,2337eb42-8a4c-49f3-9f2a-978c58aaaf29
3927795a-3c0d-40c9-840c-d32cf2bb9cce,2337eb42-8a4c-49f3-9f2a-978c58aaaf29
6f120cb3-6c2c-452e-9e47-964347dfd0ff,3528c0d3-e2bb-41de-8721-f5ec00cc7da3
2e3812e7-98a0-4a70-9783-4b96d81e5256,0365857f-8302-49b8-b4a1-01ca4b0ed146
51a51f30-2008-4d83-a41b-bd15fd5c87df,7fff123f-4ffb-413e-9341-0e8929bfdf55
5584fcc8-b0d2-47f1-bcd2-6970e29ddf1e,0365857f-8302-49b8-b4a1-01ca4b0ed146
850306ee-2dd8-449c-bdfd-01ffaa3b6207,6615fa29-c259-4d6b-a07c-61915093c0cc
5805874c-dd54-4f71-93c1-c4039056a66b,12aaa151-139c-479c-9cdd-782bcec24492
86fd7535-f268-4e22-ab31-7a4b6cc4892f,12aaa151-139c-479c-9cdd-782bcec24492
