date,actor,success,from,to
2020-02-28 01:21:42,0062fd06-934a-4c27-bd95-61d8dc320c9a,1,11bed503-7fe2-46d2-a0f7-f542e5a4b586,27e3d83b-ab2f-48ed-bd31-280bc004eed1
2020-02-28 01:21:42,0ffac783-7787-44fd-bdeb-b254e6a29928,1,11bed503-7fe2-46d2-a0f7-f542e5a4b586,2337eb42-8a4c-49f3-9f2a-978c58aaaf29
2020-02-28 01:21:42,15b0149e-22ad-4dcf-aeb1-0f15b57bb459,1,11bed503-7fe2-46d2-a0f7-f542e5a4b586,12aaa151-139c-479c-9cdd-782bcec24492
2020-02-28 01:21:52,96358f93-80ad-4d43-a049-e96e645d3a70,1,11bed503-7fe2-46d2-a0f7-f542e5a4b586,0365857f-8302-49b8-b4a1-01ca4b0ed146
2020-02-28 01:28:51,37b2e6cb-60ed-4cf7-8826-866b59f440e0,1,11bed503-7fe2-46d2-a0f7-f542e5a4b586,d640c3c5-0ef0-44e3-88c9-a924a1733d3f
2020-02-28 01:28:53,772e1214-eff7-48b7-9db1-3efb3acb71b8,1,11bed503-7fe2-46d2-a0f7-f542e5a4b586,0365857f-8302-49b8-b4a1-01ca4b0ed146
2020-02-28 01:29:21,37b2e6cb-60ed-4cf7-8826-866b59f440e0,1,11bed503-7fe2-46d2-a0f7-f542e5a4b586,d640c3c5-0ef0-44e3-88c9-a924a1733d3f
2020-02-28 01:36:04,fde00472-d9c1-4dcf-8ec4-60f11de0626d,1,11bed503-7fe2-46d2-a0f7-f542e5a4b586,0365857f-8302-49b8-b4a1-01ca4b0ed146
2020-02-28 01:36:04,92a6bbe9-b555-4725-bbd8-c1bc8f58d80c,1,11bed503-7fe2-46d2-a0f7-f542e5a4b586,172dff13-70b2-4906-862e-4cb599b7dcdb
2020-02-28 01:36:13,37b2e6cb-60ed-4cf7-8826-866b59f440e0,1,11bed503-7fe2-46d2-a0f7-f542e5a4b586,9796b0a5-ab44-4b43-a435-0bbdb5e7956e
2020-02-28 01:36:46,65dd5b63-62e0-494a-9f29-61977943624d,1,11bed503-7fe2-46d2-a0f7-f542e5a4b586,a14dd62b-7468-45a6-8977-8afe9c335d44
2020-02-28 01:37:07,65dd5b63-62e0-494a-9f29-61977943624d,1,11bed503-7fe2-46d2-a0f7-f542e5a4b586,172dff13-70b2-4906-862e-4cb599b7dcdb
2020-02-28 01:38:45,37b2e6cb-60ed-4cf7-8826-866b59f440e0,1,11bed503-7fe2-46d2-a0f7-f542e5a4b586,9796b0a5-ab44-4b43-a435-0bbdb5e7956e
2020-02-28 01:41:50,0c222d07-da0d-4e52-95fe-332149e17f50,1,11bed503-7fe2-46d2-a0f7-f542e5a4b586,28eaa846-6c9b-4cf1-bc1d-9fd1bfc08e7c
2020-02-28 01:49:24,7cef869b-1a5d-45fb-be88-048988be04bb,1,11bed503-7fe2-46d2-a0f7-f542e5a4b586,75d9cdc3-aa34-4d84-b994-7fbff533c50a
2020-02-28 01:50:02,0c222d07-da0d-4e52-95fe-332149e17f50,1,11bed503-7fe2-46d2-a0f7-f542e5a4b586,57e21c8d-ad49-45f7-b7f7-12744fb3831c
2020-02-28 01:50:04,7cef869b-1a5d-45fb-be88-048988be04bb,1,11bed503-7fe2-46d2-a0f7-f542e5a4b586,0365857f-8302-49b8-b4a1-01ca4b0ed146
2020-02-28 02:33:23,48a1cccd-ca31-4e1a-bf77-dfe075f7ad6c,1,11bed503-7fe2-46d2-a0f7-f542e5a4b586,27e3d83b-ab2f-48ed-bd31-280bc004eed1
2020-02-28 02:33:25,37b2e6cb-60ed-4cf7-8826-866b59f440e0,1,11bed503-7fe2-46d2-a0f7-f542e5a4b586,0365857f-8302-49b8-b4a1-01ca4b0ed146
2020-02-28 02:33:25,15b0149e-22ad-4dcf-aeb1-0f15b57bb459,1,11bed503-7fe2-46d2-a0f7-f542e5a4b586,75d9cdc3-aa34-4d84-b994-7fbff533c50a
2020-02-28 02:33:42,3d076e55-ce2b-4943-8f08-a936d583ef4d,1,11bed503-7fe2-46d2-a0f7-f542e5a4b586,9796b0a5-ab44-4b43-a435-0bbdb5e7956e
2020-02-28 02:43:01,37b2e6cb-60ed-4cf7-8826-866b59f440e0,1,11bed503-7fe2-46d2-a0f7-f542e5a4b586,9796b0a5-ab44-4b43-a435-0bbdb5e7956e
2020-02-28 02:46:08,37b2e6cb-60ed-4cf7-8826-866b59f440e0,1,11bed503-7fe2-46d2-a0f7-f542e5a4b586,75d9cdc3-aa34-4d84-b994-7fbff533c50a
2020-02-28 02:48:22,65dd5b63-62e0-494a-9f29-61977943624d,1,11bed503-7fe2-46d2-a0f7-f542e5a4b586,172dff13-70b2-4906-862e-4cb599b7dcdb
2020-02-28 03:15:52,15b0149e-22ad-4dcf-aeb1-0f15b57bb459,1,11bed503-7fe2-46d2-a0f7-f542e5a4b586,12aaa151-139c-479c-9cdd-782bcec24492
2020-02-28 01:21:41,26ee6c80-0eab-4339-94a1-c0a34b1eab95,1,d640c3c5-0ef0-44e3-88c9-a924a1733d3f,7e68b31b-459b-4075-bf9d-080e4b9ff120
2020-02-28 01:21:41,6273d06d-defe-41c0-829f-36055bccf8ca,1,d640c3c5-0ef0-44e3-88c9-a924a1733d3f,57e21c8d-ad49-45f7-b7f7-12744fb3831c
2020-02-28 01:22:23,d5880339-d9a1-4ab9-a0b7-190d2c50d4f8,1,d640c3c5-0ef0-44e3-88c9-a924a1733d3f,28eaa846-6c9b-4cf1-bc1d-9fd1bfc08e7c
2020-02-28 01:22:52,2c0eb28c-8b21-4969-a12c-265f1ad97841,1,d640c3c5-0ef0-44e3-88c9-a924a1733d3f,2337eb42-8a4c-49f3-9f2a-978c58aaaf29
2020-02-28 01:24:28,d5880339-d9a1-4ab9-a0b7-190d2c50d4f8,1,d640c3c5-0ef0-44e3-88c9-a924a1733d3f,12aaa151-139c-479c-9cdd-782bcec24492
2020-02-28 01:27:40,5c940d94-6f41-4973-89ed-3dda5e6dd12a,1,d640c3c5-0ef0-44e3-88c9-a924a1733d3f,172dff13-70b2-4906-862e-4cb599b7dcdb
2020-02-28 01:29:01,37b2e6cb-60ed-4cf7-8826-866b59f440e0,1,d640c3c5-0ef0-44e3-88c9-a924a1733d3f,11bed503-7fe2-46d2-a0f7-f542e5a4b586
2020-02-28 01:35:31,415df7f6-56f4-49b2-b518-19dbdbb87dc1,1,d640c3c5-0ef0-44e3-88c9-a924a1733d3f,d640c3c5-0ef0-44e3-88c9-a924a1733d3f
2020-02-28 01:35:39,37b2e6cb-60ed-4cf7-8826-866b59f440e0,1,d640c3c5-0ef0-44e3-88c9-a924a1733d3f,0365857f-8302-49b8-b4a1-01ca4b0ed146
2020-02-28 01:35:52,415df7f6-56f4-49b2-b518-19dbdbb87dc1,1,d640c3c5-0ef0-44e3-88c9-a924a1733d3f,12aaa151-139c-479c-9cdd-782bcec24492
2020-02-28 01:44:26,2c0eb28c-8b21-4969-a12c-265f1ad97841,1,d640c3c5-0ef0-44e3-88c9-a924a1733d3f,57e21c8d-ad49-45f7-b7f7-12744fb3831c
2020-02-28 01:44:35,d5880339-d9a1-4ab9-a0b7-190d2c50d4f8,1,d640c3c5-0ef0-44e3-88c9-a924a1733d3f,172dff13-70b2-4906-862e-4cb599b7dcdb
2020-02-28 01:44:43,b5cf0ae6-d2f7-4b36-a729-e6c1cd067610,1,d640c3c5-0ef0-44e3-88c9-a924a1733d3f,28eaa846-6c9b-4cf1-bc1d-9fd1bfc08e7c
2020-02-28 01:46:17,415df7f6-56f4-49b2-b518-19dbdbb87dc1,1,d640c3c5-0ef0-44e3-88c9-a924a1733d3f,2d50ba02-cd55-419a-831a-d17e52be9a55
2020-02-28 01:47:37,aabf7333-d31f-4f8e-bcb3-87099632d9cd,1,d640c3c5-0ef0-44e3-88c9-a924a1733d3f,27e3d83b-ab2f-48ed-bd31-280bc004eed1
2020-02-28 01:49:04,37b2e6cb-60ed-4cf7-8826-866b59f440e0,1,d640c3c5-0ef0-44e3-88c9-a924a1733d3f,75d9cdc3-aa34-4d84-b994-7fbff533c50a
2020-02-28 02:02:37,2c0eb28c-8b21-4969-a12c-265f1ad97841,1,d640c3c5-0ef0-44e3-88c9-a924a1733d3f,2337eb42-8a4c-49f3-9f2a-978c58aaaf29
2020-02-28 02:02:46,415df7f6-56f4-49b2-b518-19dbdbb87dc1,1,d640c3c5-0ef0-44e3-88c9-a924a1733d3f,7e68b31b-459b-4075-bf9d-080e4b9ff120
2020-02-28 02:37:12,415df7f6-56f4-49b2-b518-19dbdbb87dc1,1,d640c3c5-0ef0-44e3-88c9-a924a1733d3f,7e68b31b-459b-4075-bf9d-080e4b9ff120
2020-02-28 02:40:49,2c0eb28c-8b21-4969-a12c-265f1ad97841,1,d640c3c5-0ef0-44e3-88c9-a924a1733d3f,57e21c8d-ad49-45f7-b7f7-12744fb3831c
2020-02-28 02:48:35,2c0eb28c-8b21-4969-a12c-265f1ad97841,1,d640c3c5-0ef0-44e3-88c9-a924a1733d3f,57e21c8d-ad49-45f7-b7f7-12744fb3831c
2020-02-28 02:59:55,2c0eb28c-8b21-4969-a12c-265f1ad97841,1,d640c3c5-0ef0-44e3-88c9-a924a1733d3f,31cfdd63-988e-4b6f-98e5-df2afbfacae3
2020-02-28 03:33:17,aabf7333-d31f-4f8e-bcb3-87099632d9cd,1,d640c3c5-0ef0-44e3-88c9-a924a1733d3f,27e3d83b-ab2f-48ed-bd31-280bc004eed1
2020-02-28 03:33:31,10385b11-a282-4153-ad30-d246cbf0717c,1,d640c3c5-0ef0-44e3-88c9-a924a1733d3f,12aaa151-139c-479c-9cdd-782bcec24492
2020-02-28 03:33:40,2c0eb28c-8b21-4969-a12c-265f1ad97841,1,d640c3c5-0ef0-44e3-88c9-a924a1733d3f,31cfdd63-988e-4b6f-98e5-df2afbfacae3
2020-02-28 03:34:48,aabf7333-d31f-4f8e-bcb3-87099632d9cd,1,d640c3c5-0ef0-44e3-88c9-a924a1733d3f,75d9cdc3-aa34-4d84-b994-7fbff533c50a
2020-02-28 03:35:03,2c0eb28c-8b21-4969-a12c-265f1ad97841,1,d640c3c5-0ef0-44e3-88c9-a924a1733d3f,172dff13-70b2-4906-862e-4cb599b7dcdb
2020-02-28 00:55:27,2893247c-3bbf-4696-959b-3f2c5afe0921,1,28eaa846-6c9b-4cf1-bc1d-9fd1bfc08e7c,0365857f-8302-49b8-b4a1-01ca4b0ed146
2020-02-28 01:21:37,10385b11-a282-4153-ad30-d246cbf0717c,1,28eaa846-6c9b-4cf1-bc1d-9fd1bfc08e7c,57e21c8d-ad49-45f7-b7f7-12744fb3831c
2020-02-28 01:21:37,c53af45e-88a7-4d50-bf0b-f169dc870c9b,1,28eaa846-6c9b-4cf1-bc1d-9fd1bfc08e7c,9796b0a5-ab44-4b43-a435-0bbdb5e7956e
2020-02-28 01:22:30,3bf3ec79-eb69-4ec2-9a93-645e1aeb40ea,1,28eaa846-6c9b-4cf1-bc1d-9fd1bfc08e7c,31cfdd63-988e-4b6f-98e5-df2afbfacae3
2020-02-28 01:22:54,d5880339-d9a1-4ab9-a0b7-190d2c50d4f8,1,28eaa846-6c9b-4cf1-bc1d-9fd1bfc08e7c,12aaa151-139c-479c-9cdd-782bcec24492
2020-02-28 01:24:19,3bf3ec79-eb69-4ec2-9a93-645e1aeb40ea,1,28eaa846-6c9b-4cf1-bc1d-9fd1bfc08e7c,57e21c8d-ad49-45f7-b7f7-12744fb3831c
2020-02-28 01:24:19,d5880339-d9a1-4ab9-a0b7-190d2c50d4f8,1,28eaa846-6c9b-4cf1-bc1d-9fd1bfc08e7c,d640c3c5-0ef0-44e3-88c9-a924a1733d3f
2020-02-28 01:36:56,5584fcc8-b0d2-47f1-bcd2-6970e29ddf1e,1,28eaa846-6c9b-4cf1-bc1d-9fd1bfc08e7c,a14dd62b-7468-45a6-8977-8afe9c335d44
2020-02-28 01:37:14,c53af45e-88a7-4d50-bf0b-f169dc870c9b,1,28eaa846-6c9b-4cf1-bc1d-9fd1bfc08e7c,75d9cdc3-aa34-4d84-b994-7fbff533c50a
2020-02-28 01:38:13,5584fcc8-b0d2-47f1-bcd2-6970e29ddf1e,1,28eaa846-6c9b-4cf1-bc1d-9fd1bfc08e7c,0365857f-8302-49b8-b4a1-01ca4b0ed146
2020-02-28 01:40:59,b5cf0ae6-d2f7-4b36-a729-e6c1cd067610,1,28eaa846-6c9b-4cf1-bc1d-9fd1bfc08e7c,d640c3c5-0ef0-44e3-88c9-a924a1733d3f
2020-02-28 01:41:00,0c222d07-da0d-4e52-95fe-332149e17f50,1,28eaa846-6c9b-4cf1-bc1d-9fd1bfc08e7c,57e21c8d-ad49-45f7-b7f7-12744fb3831c
2020-02-28 01:41:04,5584fcc8-b0d2-47f1-bcd2-6970e29ddf1e,1,28eaa846-6c9b-4cf1-bc1d-9fd1bfc08e7c,a14dd62b-7468-45a6-8977-8afe9c335d44
2020-02-28 01:42:11,0c222d07-da0d-4e52-95fe-332149e17f50,1,28eaa846-6c9b-4cf1-bc1d-9fd1bfc08e7c,57e21c8d-ad49-45f7-b7f7-12744fb3831c
2020-02-28 01:43:45,d5880339-d9a1-4ab9-a0b7-190d2c50d4f8,1,28eaa846-6c9b-4cf1-bc1d-9fd1bfc08e7c,12aaa151-139c-479c-9cdd-782bcec24492
2020-02-28 01:43:48,92a6bbe9-b555-4725-bbd8-c1bc8f58d80c,1,28eaa846-6c9b-4cf1-bc1d-9fd1bfc08e7c,9796b0a5-ab44-4b43-a435-0bbdb5e7956e
2020-02-28 01:43:51,0062fd06-934a-4c27-bd95-61d8dc320c9a,1,28eaa846-6c9b-4cf1-bc1d-9fd1bfc08e7c,9796b0a5-ab44-4b43-a435-0bbdb5e7956e
2020-02-28 01:44:15,d5880339-d9a1-4ab9-a0b7-190d2c50d4f8,1,28eaa846-6c9b-4cf1-bc1d-9fd1bfc08e7c,d640c3c5-0ef0-44e3-88c9-a924a1733d3f
2020-02-28 01:47:51,0c222d07-da0d-4e52-95fe-332149e17f50,1,28eaa846-6c9b-4cf1-bc1d-9fd1bfc08e7c,12aaa151-139c-479c-9cdd-782bcec24492
2020-02-28 01:48:31,0c222d07-da0d-4e52-95fe-332149e17f50,1,28eaa846-6c9b-4cf1-bc1d-9fd1bfc08e7c,12aaa151-139c-479c-9cdd-782bcec24492
2020-02-28 01:48:57,d5880339-d9a1-4ab9-a0b7-190d2c50d4f8,1,28eaa846-6c9b-4cf1-bc1d-9fd1bfc08e7c,12aaa151-139c-479c-9cdd-782bcec24492
2020-02-28 01:49:38,d5880339-d9a1-4ab9-a0b7-190d2c50d4f8,1,28eaa846-6c9b-4cf1-bc1d-9fd1bfc08e7c,0365857f-8302-49b8-b4a1-01ca4b0ed146
2020-02-28 02:49:10,92a6bbe9-b555-4725-bbd8-c1bc8f58d80c,1,28eaa846-6c9b-4cf1-bc1d-9fd1bfc08e7c,9796b0a5-ab44-4b43-a435-0bbdb5e7956e
2020-02-28 02:49:13,0c222d07-da0d-4e52-95fe-332149e17f50,1,28eaa846-6c9b-4cf1-bc1d-9fd1bfc08e7c,9796b0a5-ab44-4b43-a435-0bbdb5e7956e
2020-02-28 02:49:22,dde12b45-ed34-44ae-94bb-170c2ef72427,1,28eaa846-6c9b-4cf1-bc1d-9fd1bfc08e7c,57e21c8d-ad49-45f7-b7f7-12744fb3831c
2020-02-28 02:49:50,92a6bbe9-b555-4725-bbd8-c1bc8f58d80c,1,28eaa846-6c9b-4cf1-bc1d-9fd1bfc08e7c,2d50ba02-cd55-419a-831a-d17e52be9a55
2020-02-28 02:49:53,0c222d07-da0d-4e52-95fe-332149e17f50,1,28eaa846-6c9b-4cf1-bc1d-9fd1bfc08e7c,57e21c8d-ad49-45f7-b7f7-12744fb3831c
2020-02-28 02:52:48,b5cf0ae6-d2f7-4b36-a729-e6c1cd067610,1,28eaa846-6c9b-4cf1-bc1d-9fd1bfc08e7c,27e3d83b-ab2f-48ed-bd31-280bc004eed1
2020-02-28 02:52:54,dde12b45-ed34-44ae-94bb-170c2ef72427,1,28eaa846-6c9b-4cf1-bc1d-9fd1bfc08e7c,a14dd62b-7468-45a6-8977-8afe9c335d44
2020-02-28 02:53:03,6273d06d-defe-41c0-829f-36055bccf8ca,1,28eaa846-6c9b-4cf1-bc1d-9fd1bfc08e7c,57e21c8d-ad49-45f7-b7f7-12744fb3831c
2020-02-28 02:53:14,dde12b45-ed34-44ae-94bb-170c2ef72427,1,28eaa846-6c9b-4cf1-bc1d-9fd1bfc08e7c,a14dd62b-7468-45a6-8977-8afe9c335d44
2020-02-28 01:21:45,60198b6a-38b1-4d14-9dc6-cfabd8739ec1,1,0365857f-8302-49b8-b4a1-01ca4b0ed146,2337eb42-8a4c-49f3-9f2a-978c58aaaf29
2020-02-28 01:21:45,034d705e-4070-447e-827c-eab9b743afac,1,0365857f-8302-49b8-b4a1-01ca4b0ed146,31cfdd63-988e-4b6f-98e5-df2afbfacae3
2020-02-28 01:21:45,aabf7333-d31f-4f8e-bcb3-87099632d9cd,1,0365857f-8302-49b8-b4a1-01ca4b0ed146,31cfdd63-988e-4b6f-98e5-df2afbfacae3
2020-02-28 01:22:50,c53af45e-88a7-4d50-bf0b-f169dc870c9b,1,0365857f-8302-49b8-b4a1-01ca4b0ed146,9796b0a5-ab44-4b43-a435-0bbdb5e7956e
2020-02-28 01:22:52,96358f93-80ad-4d43-a049-e96e645d3a70,1,0365857f-8302-49b8-b4a1-01ca4b0ed146,2337eb42-8a4c-49f3-9f2a-978c58aaaf29
2020-02-28 01:23:09,10385b11-a282-4153-ad30-d246cbf0717c,1,0365857f-8302-49b8-b4a1-01ca4b0ed146,d640c3c5-0ef0-44e3-88c9-a924a1733d3f
2020-02-28 01:23:09,2893247c-3bbf-4696-959b-3f2c5afe0921,1,0365857f-8302-49b8-b4a1-01ca4b0ed146,31cfdd63-988e-4b6f-98e5-df2afbfacae3
2020-02-28 01:26:04,7cef869b-1a5d-45fb-be88-048988be04bb,1,0365857f-8302-49b8-b4a1-01ca4b0ed146,7e68b31b-459b-4075-bf9d-080e4b9ff120
2020-02-28 01:32:05,772e1214-eff7-48b7-9db1-3efb3acb71b8,1,0365857f-8302-49b8-b4a1-01ca4b0ed146,75d9cdc3-aa34-4d84-b994-7fbff533c50a
2020-02-28 01:32:13,034d705e-4070-447e-827c-eab9b743afac,1,0365857f-8302-49b8-b4a1-01ca4b0ed146,31cfdd63-988e-4b6f-98e5-df2afbfacae3
2020-02-28 01:33:44,5584fcc8-b0d2-47f1-bcd2-6970e29ddf1e,1,0365857f-8302-49b8-b4a1-01ca4b0ed146,a14dd62b-7468-45a6-8977-8afe9c335d44
2020-02-28 01:35:48,37b2e6cb-60ed-4cf7-8826-866b59f440e0,1,0365857f-8302-49b8-b4a1-01ca4b0ed146,11bed503-7fe2-46d2-a0f7-f542e5a4b586
2020-02-28 01:37:05,c53af45e-88a7-4d50-bf0b-f169dc870c9b,1,0365857f-8302-49b8-b4a1-01ca4b0ed146,28eaa846-6c9b-4cf1-bc1d-9fd1bfc08e7c
2020-02-28 01:37:19,034d705e-4070-447e-827c-eab9b743afac,1,0365857f-8302-49b8-b4a1-01ca4b0ed146,9796b0a5-ab44-4b43-a435-0bbdb5e7956e
2020-02-28 01:37:21,1468e532-c0c4-4223-a6a6-dde69b758b88,1,0365857f-8302-49b8-b4a1-01ca4b0ed146,172dff13-70b2-4906-862e-4cb599b7dcdb
2020-02-28 01:37:26,2893247c-3bbf-4696-959b-3f2c5afe0921,1,0365857f-8302-49b8-b4a1-01ca4b0ed146,7e68b31b-459b-4075-bf9d-080e4b9ff120
2020-02-28 01:38:26,3e4b0928-3af7-445c-8a5a-8e7cd567de05,1,0365857f-8302-49b8-b4a1-01ca4b0ed146,31cfdd63-988e-4b6f-98e5-df2afbfacae3
2020-02-28 01:38:26,37b2e6cb-60ed-4cf7-8826-866b59f440e0,1,0365857f-8302-49b8-b4a1-01ca4b0ed146,9796b0a5-ab44-4b43-a435-0bbdb5e7956e
2020-02-28 01:38:27,fde00472-d9c1-4dcf-8ec4-60f11de0626d,1,0365857f-8302-49b8-b4a1-01ca4b0ed146,7e68b31b-459b-4075-bf9d-080e4b9ff120
2020-02-28 01:38:42,034d705e-4070-447e-827c-eab9b743afac,1,0365857f-8302-49b8-b4a1-01ca4b0ed146,31cfdd63-988e-4b6f-98e5-df2afbfacae3
2020-02-28 01:38:53,5584fcc8-b0d2-47f1-bcd2-6970e29ddf1e,1,0365857f-8302-49b8-b4a1-01ca4b0ed146,28eaa846-6c9b-4cf1-bc1d-9fd1bfc08e7c
2020-02-28 01:47:00,7cef869b-1a5d-45fb-be88-048988be04bb,1,0365857f-8302-49b8-b4a1-01ca4b0ed146,75d9cdc3-aa34-4d84-b994-7fbff533c50a
2020-02-28 01:48:45,37b2e6cb-60ed-4cf7-8826-866b59f440e0,1,0365857f-8302-49b8-b4a1-01ca4b0ed146,d640c3c5-0ef0-44e3-88c9-a924a1733d3f
2020-02-28 01:48:53,7cef869b-1a5d-45fb-be88-048988be04bb,1,0365857f-8302-49b8-b4a1-01ca4b0ed146,11bed503-7fe2-46d2-a0f7-f542e5a4b586
2020-02-28 01:50:14,7cef869b-1a5d-45fb-be88-048988be04bb,1,0365857f-8302-49b8-b4a1-01ca4b0ed146,57e21c8d-ad49-45f7-b7f7-12744fb3831c
2020-02-28 02:33:46,37b2e6cb-60ed-4cf7-8826-866b59f440e0,1,0365857f-8302-49b8-b4a1-01ca4b0ed146,9796b0a5-ab44-4b43-a435-0bbdb5e7956e
2020-02-28 02:45:47,37b2e6cb-60ed-4cf7-8826-866b59f440e0,1,0365857f-8302-49b8-b4a1-01ca4b0ed146,11bed503-7fe2-46d2-a0f7-f542e5a4b586
2020-02-28 01:21:39,fde00472-d9c1-4dcf-8ec4-60f11de0626d,1,75d9cdc3-aa34-4d84-b994-7fbff533c50a,11bed503-7fe2-46d2-a0f7-f542e5a4b586
2020-02-28 01:21:39,72dc3f88-1cd4-4c2a-b9b4-ec46ea372142,1,75d9cdc3-aa34-4d84-b994-7fbff533c50a,12aaa151-139c-479c-9cdd-782bcec24492
2020-02-28 01:21:39,482de86a-36de-4478-bd84-cd49015fda25,1,75d9cdc3-aa34-4d84-b994-7fbff533c50a,75d9cdc3-aa34-4d84-b994-7fbff533c50a
2020-02-28 01:24:21,c53af45e-88a7-4d50-bf0b-f169dc870c9b,1,75d9cdc3-aa34-4d84-b994-7fbff533c50a,9796b0a5-ab44-4b43-a435-0bbdb5e7956e
2020-02-28 01:30:02,92a6bbe9-b555-4725-bbd8-c1bc8f58d80c,1,75d9cdc3-aa34-4d84-b994-7fbff533c50a,11bed503-7fe2-46d2-a0f7-f542e5a4b586
2020-02-28 01:38:27,aabf7333-d31f-4f8e-bcb3-87099632d9cd,1,75d9cdc3-aa34-4d84-b994-7fbff533c50a,27e3d83b-ab2f-48ed-bd31-280bc004eed1
2020-02-28 01:38:43,60198b6a-38b1-4d14-9dc6-cfabd8739ec1,1,75d9cdc3-aa34-4d84-b994-7fbff533c50a,2337eb42-8a4c-49f3-9f2a-978c58aaaf29
2020-02-28 01:38:45,415df7f6-56f4-49b2-b518-19dbdbb87dc1,1,75d9cdc3-aa34-4d84-b994-7fbff533c50a,7e68b31b-459b-4075-bf9d-080e4b9ff120
2020-02-28 01:44:28,415df7f6-56f4-49b2-b518-19dbdbb87dc1,1,75d9cdc3-aa34-4d84-b994-7fbff533c50a,2d50ba02-cd55-419a-831a-d17e52be9a55
2020-02-28 01:46:08,415df7f6-56f4-49b2-b518-19dbdbb87dc1,1,75d9cdc3-aa34-4d84-b994-7fbff533c50a,d640c3c5-0ef0-44e3-88c9-a924a1733d3f
2020-02-28 01:46:08,c53af45e-88a7-4d50-bf0b-f169dc870c9b,1,75d9cdc3-aa34-4d84-b994-7fbff533c50a,31cfdd63-988e-4b6f-98e5-df2afbfacae3
2020-02-28 01:47:17,aabf7333-d31f-4f8e-bcb3-87099632d9cd,1,75d9cdc3-aa34-4d84-b994-7fbff533c50a,d640c3c5-0ef0-44e3-88c9-a924a1733d3f
2020-02-28 01:47:18,c53af45e-88a7-4d50-bf0b-f169dc870c9b,1,75d9cdc3-aa34-4d84-b994-7fbff533c50a,9796b0a5-ab44-4b43-a435-0bbdb5e7956e
2020-02-28 01:47:18,482de86a-36de-4478-bd84-cd49015fda25,1,75d9cdc3-aa34-4d84-b994-7fbff533c50a,2d50ba02-cd55-419a-831a-d17e52be9a55
2020-02-28 01:47:23,7cef869b-1a5d-45fb-be88-048988be04bb,1,75d9cdc3-aa34-4d84-b994-7fbff533c50a,57e21c8d-ad49-45f7-b7f7-12744fb3831c
2020-02-28 01:47:24,37b2e6cb-60ed-4cf7-8826-866b59f440e0,1,75d9cdc3-aa34-4d84-b994-7fbff533c50a,0365857f-8302-49b8-b4a1-01ca4b0ed146
2020-02-28 01:47:47,b0ddb29b-8ce0-4f53-a3a6-4505ae4be75c,1,75d9cdc3-aa34-4d84-b994-7fbff533c50a,9796b0a5-ab44-4b43-a435-0bbdb5e7956e
2020-02-28 01:47:53,7cef869b-1a5d-45fb-be88-048988be04bb,1,75d9cdc3-aa34-4d84-b994-7fbff533c50a,57e21c8d-ad49-45f7-b7f7-12744fb3831c
2020-02-28 01:48:33,7cef869b-1a5d-45fb-be88-048988be04bb,1,75d9cdc3-aa34-4d84-b994-7fbff533c50a,0365857f-8302-49b8-b4a1-01ca4b0ed146
2020-02-28 01:49:34,7cef869b-1a5d-45fb-be88-048988be04bb,1,75d9cdc3-aa34-4d84-b994-7fbff533c50a,7e68b31b-459b-4075-bf9d-080e4b9ff120
2020-02-28 02:09:00,415df7f6-56f4-49b2-b518-19dbdbb87dc1,1,75d9cdc3-aa34-4d84-b994-7fbff533c50a,2d50ba02-cd55-419a-831a-d17e52be9a55
2020-02-28 02:33:04,37b2e6cb-60ed-4cf7-8826-866b59f440e0,1,75d9cdc3-aa34-4d84-b994-7fbff533c50a,11bed503-7fe2-46d2-a0f7-f542e5a4b586
2020-02-28 02:36:42,415df7f6-56f4-49b2-b518-19dbdbb87dc1,1,75d9cdc3-aa34-4d84-b994-7fbff533c50a,2d50ba02-cd55-419a-831a-d17e52be9a55
2020-02-28 02:36:46,15b0149e-22ad-4dcf-aeb1-0f15b57bb459,1,75d9cdc3-aa34-4d84-b994-7fbff533c50a,31cfdd63-988e-4b6f-98e5-df2afbfacae3
2020-02-28 02:37:17,15b0149e-22ad-4dcf-aeb1-0f15b57bb459,1,75d9cdc3-aa34-4d84-b994-7fbff533c50a,31cfdd63-988e-4b6f-98e5-df2afbfacae3
2020-02-28 03:15:24,7cef869b-1a5d-45fb-be88-048988be04bb,1,75d9cdc3-aa34-4d84-b994-7fbff533c50a,0365857f-8302-49b8-b4a1-01ca4b0ed146
2020-02-28 03:15:32,15b0149e-22ad-4dcf-aeb1-0f15b57bb459,1,75d9cdc3-aa34-4d84-b994-7fbff533c50a,31cfdd63-988e-4b6f-98e5-df2afbfacae3
2020-02-28 03:15:33,60198b6a-38b1-4d14-9dc6-cfabd8739ec1,1,75d9cdc3-aa34-4d84-b994-7fbff533c50a,28eaa846-6c9b-4cf1-bc1d-9fd1bfc08e7c
2020-02-28 03:15:33,aabf7333-d31f-4f8e-bcb3-87099632d9cd,1,75d9cdc3-aa34-4d84-b994-7fbff533c50a,d640c3c5-0ef0-44e3-88c9-a924a1733d3f
2020-02-28 03:33:33,415df7f6-56f4-49b2-b518-19dbdbb87dc1,1,75d9cdc3-aa34-4d84-b994-7fbff533c50a,2d50ba02-cd55-419a-831a-d17e52be9a55
2020-02-28 01:21:39,d29681ec-5d63-4e24-a0aa-2677cf9d35fe,1,172dff13-70b2-4906-862e-4cb599b7dcdb,9796b0a5-ab44-4b43-a435-0bbdb5e7956e
2020-02-28 01:21:39,5c940d94-6f41-4973-89ed-3dda5e6dd12a,1,172dff13-70b2-4906-862e-4cb599b7dcdb,31cfdd63-988e-4b6f-98e5-df2afbfacae3
2020-02-28 01:21:39,37b2e6cb-60ed-4cf7-8826-866b59f440e0,1,172dff13-70b2-4906-862e-4cb599b7dcdb,11bed503-7fe2-46d2-a0f7-f542e5a4b586
2020-02-28 01:36:16,65dd5b63-62e0-494a-9f29-61977943624d,1,172dff13-70b2-4906-862e-4cb599b7dcdb,a14dd62b-7468-45a6-8977-8afe9c335d44
2020-02-28 01:36:21,4c62dd4e-e720-4e05-b513-c81f4c617ec3,1,172dff13-70b2-4906-862e-4cb599b7dcdb,12aaa151-139c-479c-9cdd-782bcec24492
2020-02-28 01:36:21,ca24aecd-558c-40df-a082-386c4321001a,1,172dff13-70b2-4906-862e-4cb599b7dcdb,12aaa151-139c-479c-9cdd-782bcec24492
2020-02-28 01:36:33,92a6bbe9-b555-4725-bbd8-c1bc8f58d80c,1,172dff13-70b2-4906-862e-4cb599b7dcdb,28eaa846-6c9b-4cf1-bc1d-9fd1bfc08e7c
2020-02-28 01:36:33,2893247c-3bbf-4696-959b-3f2c5afe0921,1,172dff13-70b2-4906-862e-4cb599b7dcdb,31cfdd63-988e-4b6f-98e5-df2afbfacae3
2020-02-28 01:37:27,65dd5b63-62e0-494a-9f29-61977943624d,1,172dff13-70b2-4906-862e-4cb599b7dcdb,a14dd62b-7468-45a6-8977-8afe9c335d44
2020-02-28 01:41:57,15b0149e-22ad-4dcf-aeb1-0f15b57bb459,1,172dff13-70b2-4906-862e-4cb599b7dcdb,11bed503-7fe2-46d2-a0f7-f542e5a4b586
2020-02-28 01:44:57,3d076e55-ce2b-4943-8f08-a936d583ef4d,1,172dff13-70b2-4906-862e-4cb599b7dcdb,11bed503-7fe2-46d2-a0f7-f542e5a4b586
2020-02-28 01:45:15,d5880339-d9a1-4ab9-a0b7-190d2c50d4f8,1,172dff13-70b2-4906-862e-4cb599b7dcdb,12aaa151-139c-479c-9cdd-782bcec24492
2020-02-28 02:47:26,65dd5b63-62e0-494a-9f29-61977943624d,1,172dff13-70b2-4906-862e-4cb599b7dcdb,11bed503-7fe2-46d2-a0f7-f542e5a4b586
2020-02-28 02:48:43,65dd5b63-62e0-494a-9f29-61977943624d,1,172dff13-70b2-4906-862e-4cb599b7dcdb,a14dd62b-7468-45a6-8977-8afe9c335d44
2020-02-28 02:48:55,15b0149e-22ad-4dcf-aeb1-0f15b57bb459,1,172dff13-70b2-4906-862e-4cb599b7dcdb,31cfdd63-988e-4b6f-98e5-df2afbfacae3
2020-02-28 02:52:10,65dd5b63-62e0-494a-9f29-61977943624d,1,172dff13-70b2-4906-862e-4cb599b7dcdb,2337eb42-8a4c-49f3-9f2a-978c58aaaf29
2020-02-28 03:15:45,2c0eb28c-8b21-4969-a12c-265f1ad97841,1,172dff13-70b2-4906-862e-4cb599b7dcdb,2337eb42-8a4c-49f3-9f2a-978c58aaaf29
2020-02-28 03:19:12,2c0eb28c-8b21-4969-a12c-265f1ad97841,1,172dff13-70b2-4906-862e-4cb599b7dcdb,31cfdd63-988e-4b6f-98e5-df2afbfacae3
2020-02-28 03:34:32,2c0eb28c-8b21-4969-a12c-265f1ad97841,1,172dff13-70b2-4906-862e-4cb599b7dcdb,31cfdd63-988e-4b6f-98e5-df2afbfacae3
2020-02-28 01:21:39,4c62dd4e-e720-4e05-b513-c81f4c617ec3,1,2337eb42-8a4c-49f3-9f2a-978c58aaaf29,12aaa151-139c-479c-9cdd-782bcec24492
2020-02-28 01:21:39,b0ddb29b-8ce0-4f53-a3a6-4505ae4be75c,1,2337eb42-8a4c-49f3-9f2a-978c58aaaf29,a14dd62b-7468-45a6-8977-8afe9c335d44
2020-02-28 01:21:39,ca24aecd-558c-40df-a082-386c4321001a,1,2337eb42-8a4c-49f3-9f2a-978c58aaaf29,172dff13-70b2-4906-862e-4cb599b7dcdb
2020-02-28 01:21:55,60198b6a-38b1-4d14-9dc6-cfabd8739ec1,1,2337eb42-8a4c-49f3-9f2a-978c58aaaf29,75d9cdc3-aa34-4d84-b994-7fbff533c50a
2020-02-28 01:22:32,2c0eb28c-8b21-4969-a12c-265f1ad97841,1,2337eb42-8a4c-49f3-9f2a-978c58aaaf29,d640c3c5-0ef0-44e3-88c9-a924a1733d3f
2020-02-28 01:22:40,034d705e-4070-447e-827c-eab9b743afac,1,2337eb42-8a4c-49f3-9f2a-978c58aaaf29,a14dd62b-7468-45a6-8977-8afe9c335d44
2020-02-28 01:24:16,3927795a-3c0d-40c9-840c-d32cf2bb9cce,1,2337eb42-8a4c-49f3-9f2a-978c58aaaf29,57e21c8d-ad49-45f7-b7f7-12744fb3831c
2020-02-28 01:37:46,2c0eb28c-8b21-4969-a12c-265f1ad97841,1,2337eb42-8a4c-49f3-9f2a-978c58aaaf29,57e21c8d-ad49-45f7-b7f7-12744fb3831c
2020-02-28 01:37:50,034d705e-4070-447e-827c-eab9b743afac,1,2337eb42-8a4c-49f3-9f2a-978c58aaaf29,31cfdd63-988e-4b6f-98e5-df2afbfacae3
2020-02-28 02:01:25,2c0eb28c-8b21-4969-a12c-265f1ad97841,1,2337eb42-8a4c-49f3-9f2a-978c58aaaf29,d640c3c5-0ef0-44e3-88c9-a924a1733d3f
2020-02-28 02:02:56,2c0eb28c-8b21-4969-a12c-265f1ad97841,1,2337eb42-8a4c-49f3-9f2a-978c58aaaf29,d640c3c5-0ef0-44e3-88c9-a924a1733d3f
2020-02-28 02:48:25,0ffac783-7787-44fd-bdeb-b254e6a29928,1,2337eb42-8a4c-49f3-9f2a-978c58aaaf29,0365857f-8302-49b8-b4a1-01ca4b0ed146
2020-02-28 02:48:27,60198b6a-38b1-4d14-9dc6-cfabd8739ec1,1,2337eb42-8a4c-49f3-9f2a-978c58aaaf29,75d9cdc3-aa34-4d84-b994-7fbff533c50a
2020-02-28 02:48:27,c988642e-c012-47a2-9e23-29ed0f87b978,1,2337eb42-8a4c-49f3-9f2a-978c58aaaf29,31cfdd63-988e-4b6f-98e5-df2afbfacae3
2020-02-28 03:18:51,2c0eb28c-8b21-4969-a12c-265f1ad97841,1,2337eb42-8a4c-49f3-9f2a-978c58aaaf29,172dff13-70b2-4906-862e-4cb599b7dcdb
2020-02-28 01:21:42,2c0eb28c-8b21-4969-a12c-265f1ad97841,1,2d50ba02-cd55-419a-831a-d17e52be9a55,31cfdd63-988e-4b6f-98e5-df2afbfacae3
2020-02-28 01:21:42,e572ad77-e13c-4354-a12f-4607c455a535,1,2d50ba02-cd55-419a-831a-d17e52be9a55,27e3d83b-ab2f-48ed-bd31-280bc004eed1
2020-02-28 01:21:42,772e1214-eff7-48b7-9db1-3efb3acb71b8,1,2d50ba02-cd55-419a-831a-d17e52be9a55,11bed503-7fe2-46d2-a0f7-f542e5a4b586
2020-02-28 01:44:48,415df7f6-56f4-49b2-b518-19dbdbb87dc1,1,2d50ba02-cd55-419a-831a-d17e52be9a55,75d9cdc3-aa34-4d84-b994-7fbff533c50a
2020-02-28 01:44:54,0062fd06-934a-4c27-bd95-61d8dc320c9a,1,2d50ba02-cd55-419a-831a-d17e52be9a55,28eaa846-6c9b-4cf1-bc1d-9fd1bfc08e7c
2020-02-28 01:46:38,415df7f6-56f4-49b2-b518-19dbdbb87dc1,1,2d50ba02-cd55-419a-831a-d17e52be9a55,7e68b31b-459b-4075-bf9d-080e4b9ff120
2020-02-28 02:02:26,415df7f6-56f4-49b2-b518-19dbdbb87dc1,1,2d50ba02-cd55-419a-831a-d17e52be9a55,d640c3c5-0ef0-44e3-88c9-a924a1733d3f
2020-02-28 02:10:01,415df7f6-56f4-49b2-b518-19dbdbb87dc1,1,2d50ba02-cd55-419a-831a-d17e52be9a55,75d9cdc3-aa34-4d84-b994-7fbff533c50a
2020-02-28 02:36:52,415df7f6-56f4-49b2-b518-19dbdbb87dc1,1,2d50ba02-cd55-419a-831a-d17e52be9a55,d640c3c5-0ef0-44e3-88c9-a924a1733d3f
2020-02-28 02:37:13,92a6bbe9-b555-4725-bbd8-c1bc8f58d80c,1,2d50ba02-cd55-419a-831a-d17e52be9a55,28eaa846-6c9b-4cf1-bc1d-9fd1bfc08e7c
2020-02-28 02:37:54,415df7f6-56f4-49b2-b518-19dbdbb87dc1,1,2d50ba02-cd55-419a-831a-d17e52be9a55,7e68b31b-459b-4075-bf9d-080e4b9ff120
2020-02-28 03:33:12,415df7f6-56f4-49b2-b518-19dbdbb87dc1,1,2d50ba02-cd55-419a-831a-d17e52be9a55,75d9cdc3-aa34-4d84-b994-7fbff533c50a
2020-02-28 01:21:40,c28d8e90-931b-4928-bb58-774374ae7b79,1,27e3d83b-ab2f-48ed-bd31-280bc004eed1,75d9cdc3-aa34-4d84-b994-7fbff533c50a
2020-02-28 01:21:40,eea2bd0a-5ee3-4c2a-8e9d-1c06df1c6193,1,27e3d83b-ab2f-48ed-bd31-280bc004eed1,11bed503-7fe2-46d2-a0f7-f542e5a4b586
2020-02-28 01:21:40,3e4b0928-3af7-445c-8a5a-8e7cd567de05,1,27e3d83b-ab2f-48ed-bd31-280bc004eed1,a14dd62b-7468-45a6-8977-8afe9c335d44
2020-02-28 01:28:52,0062fd06-934a-4c27-bd95-61d8dc320c9a,1,27e3d83b-ab2f-48ed-bd31-280bc004eed1,57e21c8d-ad49-45f7-b7f7-12744fb3831c
2020-02-28 01:29:03,b5cf0ae6-d2f7-4b36-a729-e6c1cd067610,1,27e3d83b-ab2f-48ed-bd31-280bc004eed1,28eaa846-6c9b-4cf1-bc1d-9fd1bfc08e7c
2020-02-28 01:38:44,aabf7333-d31f-4f8e-bcb3-87099632d9cd,1,27e3d83b-ab2f-48ed-bd31-280bc004eed1,75d9cdc3-aa34-4d84-b994-7fbff533c50a
2020-02-28 01:47:57,aabf7333-d31f-4f8e-bcb3-87099632d9cd,1,27e3d83b-ab2f-48ed-bd31-280bc004eed1,75d9cdc3-aa34-4d84-b994-7fbff533c50a
2020-02-28 03:33:34,b5cf0ae6-d2f7-4b36-a729-e6c1cd067610,1,27e3d83b-ab2f-48ed-bd31-280bc004eed1,28eaa846-6c9b-4cf1-bc1d-9fd1bfc08e7c
2020-02-28 03:33:40,e572ad77-e13c-4354-a12f-4607c455a535,1,27e3d83b-ab2f-48ed-bd31-280bc004eed1,28eaa846-6c9b-4cf1-bc1d-9fd1bfc08e7c
2020-02-28 03:33:47,aabf7333-d31f-4f8e-bcb3-87099632d9cd,1,27e3d83b-ab2f-48ed-bd31-280bc004eed1,12aaa151-139c-479c-9cdd-782bcec24492
2020-02-28 01:21:38,7cef869b-1a5d-45fb-be88-048988be04bb,1,12aaa151-139c-479c-9cdd-782bcec24492,57e21c8d-ad49-45f7-b7f7-12744fb3831c
2020-02-28 01:21:38,1468e532-c0c4-4223-a6a6-dde69b758b88,1,12aaa151-139c-479c-9cdd-782bcec24492,0365857f-8302-49b8-b4a1-01ca4b0ed146
2020-02-28 01:21:38,15618759-c6fe-4277-a3f2-cea04cb0bbd1,1,12aaa151-139c-479c-9cdd-782bcec24492,0365857f-8302-49b8-b4a1-01ca4b0ed146
2020-02-28 01:23:39,d5880339-d9a1-4ab9-a0b7-190d2c50d4f8,1,12aaa151-139c-479c-9cdd-782bcec24492,28eaa846-6c9b-4cf1-bc1d-9fd1bfc08e7c
2020-02-28 01:24:48,d5880339-d9a1-4ab9-a0b7-190d2c50d4f8,1,12aaa151-139c-479c-9cdd-782bcec24492,28eaa846-6c9b-4cf1-bc1d-9fd1bfc08e7c
2020-02-28 01:25:53,aabf7333-d31f-4f8e-bcb3-87099632d9cd,1,12aaa151-139c-479c-9cdd-782bcec24492,75d9cdc3-aa34-4d84-b994-7fbff533c50a
2020-02-28 01:26:01,4c62dd4e-e720-4e05-b513-c81f4c617ec3,1,12aaa151-139c-479c-9cdd-782bcec24492,172dff13-70b2-4906-862e-4cb599b7dcdb
2020-02-28 01:38:22,415df7f6-56f4-49b2-b518-19dbdbb87dc1,1,12aaa151-139c-479c-9cdd-782bcec24492,75d9cdc3-aa34-4d84-b994-7fbff533c50a
2020-02-28 01:41:37,15b0149e-22ad-4dcf-aeb1-0f15b57bb459,1,12aaa151-139c-479c-9cdd-782bcec24492,172dff13-70b2-4906-862e-4cb599b7dcdb
2020-02-28 01:41:41,c988642e-c012-47a2-9e23-29ed0f87b978,1,12aaa151-139c-479c-9cdd-782bcec24492,57e21c8d-ad49-45f7-b7f7-12744fb3831c
2020-02-28 01:41:41,0c222d07-da0d-4e52-95fe-332149e17f50,1,12aaa151-139c-479c-9cdd-782bcec24492,11bed503-7fe2-46d2-a0f7-f542e5a4b586
2020-02-28 01:41:45,4c62dd4e-e720-4e05-b513-c81f4c617ec3,1,12aaa151-139c-479c-9cdd-782bcec24492,11bed503-7fe2-46d2-a0f7-f542e5a4b586
2020-02-28 01:41:45,ca24aecd-558c-40df-a082-386c4321001a,1,12aaa151-139c-479c-9cdd-782bcec24492,2337eb42-8a4c-49f3-9f2a-978c58aaaf29
2020-02-28 01:44:04,d5880339-d9a1-4ab9-a0b7-190d2c50d4f8,1,12aaa151-139c-479c-9cdd-782bcec24492,28eaa846-6c9b-4cf1-bc1d-9fd1bfc08e7c
2020-02-28 01:44:07,415df7f6-56f4-49b2-b518-19dbdbb87dc1,1,12aaa151-139c-479c-9cdd-782bcec24492,75d9cdc3-aa34-4d84-b994-7fbff533c50a
2020-02-28 01:45:03,c988642e-c012-47a2-9e23-29ed0f87b978,1,12aaa151-139c-479c-9cdd-782bcec24492,57e21c8d-ad49-45f7-b7f7-12744fb3831c
2020-02-28 01:46:05,72dc3f88-1cd4-4c2a-b9b4-ec46ea372142,1,12aaa151-139c-479c-9cdd-782bcec24492,75d9cdc3-aa34-4d84-b994-7fbff533c50a
2020-02-28 01:47:21,86fd7535-f268-4e22-ab31-7a4b6cc4892f,1,12aaa151-139c-479c-9cdd-782bcec24492,12aaa151-139c-479c-9cdd-782bcec24492
2020-02-28 01:48:07,d5880339-d9a1-4ab9-a0b7-190d2c50d4f8,1,12aaa151-139c-479c-9cdd-782bcec24492,28eaa846-6c9b-4cf1-bc1d-9fd1bfc08e7c
2020-02-28 01:48:11,0c222d07-da0d-4e52-95fe-332149e17f50,1,12aaa151-139c-479c-9cdd-782bcec24492,57e21c8d-ad49-45f7-b7f7-12744fb3831c
2020-02-28 01:48:16,c988642e-c012-47a2-9e23-29ed0f87b978,1,12aaa151-139c-479c-9cdd-782bcec24492,31cfdd63-988e-4b6f-98e5-df2afbfacae3
2020-02-28 01:48:41,0c222d07-da0d-4e52-95fe-332149e17f50,1,12aaa151-139c-479c-9cdd-782bcec24492,11bed503-7fe2-46d2-a0f7-f542e5a4b586
2020-02-28 01:49:18,d5880339-d9a1-4ab9-a0b7-190d2c50d4f8,1,12aaa151-139c-479c-9cdd-782bcec24492,28eaa846-6c9b-4cf1-bc1d-9fd1bfc08e7c
2020-02-28 02:48:05,15b0149e-22ad-4dcf-aeb1-0f15b57bb459,1,12aaa151-139c-479c-9cdd-782bcec24492,31cfdd63-988e-4b6f-98e5-df2afbfacae3
2020-02-28 02:48:05,c988642e-c012-47a2-9e23-29ed0f87b978,1,12aaa151-139c-479c-9cdd-782bcec24492,2337eb42-8a4c-49f3-9f2a-978c58aaaf29
2020-02-28 02:48:09,0c222d07-da0d-4e52-95fe-332149e17f50,1,12aaa151-139c-479c-9cdd-782bcec24492,57e21c8d-ad49-45f7-b7f7-12744fb3831c
2020-02-28 02:48:25,86fd7535-f268-4e22-ab31-7a4b6cc4892f,1,12aaa151-139c-479c-9cdd-782bcec24492,7e68b31b-459b-4075-bf9d-080e4b9ff120
2020-02-28 02:57:20,0c222d07-da0d-4e52-95fe-332149e17f50,1,12aaa151-139c-479c-9cdd-782bcec24492,57e21c8d-ad49-45f7-b7f7-12744fb3831c
2020-02-28 03:34:02,10385b11-a282-4153-ad30-d246cbf0717c,1,12aaa151-139c-479c-9cdd-782bcec24492,d640c3c5-0ef0-44e3-88c9-a924a1733d3f
2020-02-28 03:34:07,aabf7333-d31f-4f8e-bcb3-87099632d9cd,1,12aaa151-139c-479c-9cdd-782bcec24492,31cfdd63-988e-4b6f-98e5-df2afbfacae3
2020-02-28 01:21:40,c988642e-c012-47a2-9e23-29ed0f87b978,1,7e68b31b-459b-4075-bf9d-080e4b9ff120,12aaa151-139c-479c-9cdd-782bcec24492
2020-02-28 01:21:40,426e5d47-dd72-4581-8a72-d3da233787a3,1,7e68b31b-459b-4075-bf9d-080e4b9ff120,7e68b31b-459b-4075-bf9d-080e4b9ff120
2020-02-28 01:21:40,7818a34f-3280-47f8-b4b7-c7c55e41606f,1,7e68b31b-459b-4075-bf9d-080e4b9ff120,a14dd62b-7468-45a6-8977-8afe9c335d44
2020-02-28 01:42:32,415df7f6-56f4-49b2-b518-19dbdbb87dc1,1,7e68b31b-459b-4075-bf9d-080e4b9ff120,12aaa151-139c-479c-9cdd-782bcec24492
2020-02-28 01:46:51,7cef869b-1a5d-45fb-be88-048988be04bb,1,7e68b31b-459b-4075-bf9d-080e4b9ff120,0365857f-8302-49b8-b4a1-01ca4b0ed146
2020-02-28 01:46:58,415df7f6-56f4-49b2-b518-19dbdbb87dc1,1,7e68b31b-459b-4075-bf9d-080e4b9ff120,2d50ba02-cd55-419a-831a-d17e52be9a55
2020-02-28 01:46:58,26ee6c80-0eab-4339-94a1-c0a34b1eab95,1,7e68b31b-459b-4075-bf9d-080e4b9ff120,0365857f-8302-49b8-b4a1-01ca4b0ed146
2020-02-28 01:46:58,2893247c-3bbf-4696-959b-3f2c5afe0921,1,7e68b31b-459b-4075-bf9d-080e4b9ff120,172dff13-70b2-4906-862e-4cb599b7dcdb
2020-02-28 01:49:44,7cef869b-1a5d-45fb-be88-048988be04bb,1,7e68b31b-459b-4075-bf9d-080e4b9ff120,11bed503-7fe2-46d2-a0f7-f542e5a4b586
2020-02-28 02:03:18,415df7f6-56f4-49b2-b518-19dbdbb87dc1,1,7e68b31b-459b-4075-bf9d-080e4b9ff120,75d9cdc3-aa34-4d84-b994-7fbff533c50a
2020-02-28 02:37:33,415df7f6-56f4-49b2-b518-19dbdbb87dc1,1,7e68b31b-459b-4075-bf9d-080e4b9ff120,2d50ba02-cd55-419a-831a-d17e52be9a55
2020-02-28 02:38:15,415df7f6-56f4-49b2-b518-19dbdbb87dc1,1,7e68b31b-459b-4075-bf9d-080e4b9ff120,2d50ba02-cd55-419a-831a-d17e52be9a55
2020-02-28 02:38:23,7cef869b-1a5d-45fb-be88-048988be04bb,1,7e68b31b-459b-4075-bf9d-080e4b9ff120,75d9cdc3-aa34-4d84-b994-7fbff533c50a
2020-02-28 00:30:08,9fcb1047-85ce-4440-aa17-55207a526722,1,6a678a6b-5347-45f6-8f68-42137d529f62,0835f7ed-52eb-44a1-acf3-9ae8e633bab1
2020-02-28 00:30:08,fde00472-d9c1-4dcf-8ec4-60f11de0626d,1,6a678a6b-5347-45f6-8f68-42137d529f62,75d9cdc3-aa34-4d84-b994-7fbff533c50a
2020-02-28 00:30:08,a18c0db6-fe40-4532-9421-ba6a5a7f7cff,1,6a678a6b-5347-45f6-8f68-42137d529f62,75d9cdc3-aa34-4d84-b994-7fbff533c50a
2020-02-28 00:31:11,2587637f-c85b-4bba-b084-538ddd4982ea,1,6a678a6b-5347-45f6-8f68-42137d529f62,11bed503-7fe2-46d2-a0f7-f542e5a4b586
2020-02-28 00:31:11,0ffac783-7787-44fd-bdeb-b254e6a29928,1,6a678a6b-5347-45f6-8f68-42137d529f62,11bed503-7fe2-46d2-a0f7-f542e5a4b586
2020-02-28 00:31:11,915f003d-5579-492f-aa6f-7167a089b9fb,1,6a678a6b-5347-45f6-8f68-42137d529f62,ed3709f9-4320-4bf5-910e-3f27dc85985f
2020-02-28 00:32:14,b0ddb29b-8ce0-4f53-a3a6-4505ae4be75c,1,6a678a6b-5347-45f6-8f68-42137d529f62,2337eb42-8a4c-49f3-9f2a-978c58aaaf29
2020-02-28 00:32:14,3f2d49a9-a245-43b5-a87d-3a85e375fa04,1,6a678a6b-5347-45f6-8f68-42137d529f62,2337eb42-8a4c-49f3-9f2a-978c58aaaf29
2020-02-28 00:32:14,aa58e474-dda3-4f99-9afc-4b926218bc9e,1,6a678a6b-5347-45f6-8f68-42137d529f62,75541d51-dc1a-467c-819f-bd0ae3f06d0a
2020-02-28 00:33:17,17f4e439-f7bd-475d-b39d-722c2138bfbe,1,6a678a6b-5347-45f6-8f68-42137d529f62,0365857f-8302-49b8-b4a1-01ca4b0ed146
2020-02-28 00:33:17,60198b6a-38b1-4d14-9dc6-cfabd8739ec1,1,6a678a6b-5347-45f6-8f68-42137d529f62,0365857f-8302-49b8-b4a1-01ca4b0ed146
2020-02-28 00:33:17,f30eccaf-29d0-4037-b329-976816d9b55c,1,6a678a6b-5347-45f6-8f68-42137d529f62,72d9d930-157d-4fdb-b249-0365060c24f5
2020-02-28 00:34:19,7cef869b-1a5d-45fb-be88-048988be04bb,1,6a678a6b-5347-45f6-8f68-42137d529f62,12aaa151-139c-479c-9cdd-782bcec24492
2020-02-28 00:34:19,59ae9c98-38c6-4b42-ae8d-98ed3199ca0c,1,6a678a6b-5347-45f6-8f68-42137d529f62,12aaa151-139c-479c-9cdd-782bcec24492
2020-02-28 00:34:19,84b6b60d-c05e-4dfc-bcd4-ff5c6a2dbdaa,1,6a678a6b-5347-45f6-8f68-42137d529f62,12e3453d-2c71-46a9-b9cf-ef5798fd8c67
2020-02-28 00:35:22,42deba79-32a0-47ea-8c66-209b3521cbab,1,6a678a6b-5347-45f6-8f68-42137d529f62,a14dd62b-7468-45a6-8977-8afe9c335d44
2020-02-28 00:35:22,dde12b45-ed34-44ae-94bb-170c2ef72427,1,6a678a6b-5347-45f6-8f68-42137d529f62,a14dd62b-7468-45a6-8977-8afe9c335d44
2020-02-28 00:35:22,d78845c5-9851-4baa-99f9-c1c512ac3c6f,1,6a678a6b-5347-45f6-8f68-42137d529f62,38dc98f7-a169-4e06-bb72-f564e40f3854
2020-02-28 00:36:25,a7cde2f0-a790-4c68-9617-41daaf19b4eb,1,6a678a6b-5347-45f6-8f68-42137d529f62,72e6c189-3e11-4f5d-8a54-a18f46b06bc6
2020-02-28 00:36:25,b5cf0ae6-d2f7-4b36-a729-e6c1cd067610,1,6a678a6b-5347-45f6-8f68-42137d529f62,57e21c8d-ad49-45f7-b7f7-12744fb3831c
2020-02-28 00:36:25,37100cd8-980a-4cdc-90ab-155ed3cec3cb,1,6a678a6b-5347-45f6-8f68-42137d529f62,57e21c8d-ad49-45f7-b7f7-12744fb3831c
2020-02-28 00:37:28,3e4b0928-3af7-445c-8a5a-8e7cd567de05,1,6a678a6b-5347-45f6-8f68-42137d529f62,27e3d83b-ab2f-48ed-bd31-280bc004eed1
2020-02-28 00:37:28,af826aab-7f97-493d-8c26-cc04084a40c2,1,6a678a6b-5347-45f6-8f68-42137d529f62,27e3d83b-ab2f-48ed-bd31-280bc004eed1
2020-02-28 00:37:28,7da496d5-39e5-4005-a21c-4eb732382acd,1,6a678a6b-5347-45f6-8f68-42137d529f62,4b365036-9f09-4602-9af9-9e5c4d33f5ea
2020-02-28 00:38:31,5c940d94-6f41-4973-89ed-3dda5e6dd12a,1,6a678a6b-5347-45f6-8f68-42137d529f62,172dff13-70b2-4906-862e-4cb599b7dcdb
2020-02-28 00:38:31,c935a61c-e780-40e2-a36e-e24b2ecfeafd,1,6a678a6b-5347-45f6-8f68-42137d529f62,1adf6dd0-4574-44b4-ab23-970e0afffa60
2020-02-28 00:38:31,38e6e7f6-ffe5-4808-811a-49dd371bc080,1,6a678a6b-5347-45f6-8f68-42137d529f62,172dff13-70b2-4906-862e-4cb599b7dcdb
2020-02-28 00:39:34,c988642e-c012-47a2-9e23-29ed0f87b978,1,6a678a6b-5347-45f6-8f68-42137d529f62,7e68b31b-459b-4075-bf9d-080e4b9ff120
2020-02-28 00:39:34,b5d16561-54c5-4f98-b174-679dc4950be3,1,6a678a6b-5347-45f6-8f68-42137d529f62,8a700c2e-f460-4c52-91fb-3ce2ce56c8ca
2020-02-28 00:39:34,3119296c-f10b-4ae9-a50d-7261604977ed,1,6a678a6b-5347-45f6-8f68-42137d529f62,7e68b31b-459b-4075-bf9d-080e4b9ff120
2020-02-28 00:40:36,d5880339-d9a1-4ab9-a0b7-190d2c50d4f8,1,6a678a6b-5347-45f6-8f68-42137d529f62,31cfdd63-988e-4b6f-98e5-df2afbfacae3
2020-02-28 00:40:36,e6b25a33-3cb6-4a1f-9989-23a70df8a480,1,6a678a6b-5347-45f6-8f68-42137d529f62,31cfdd63-988e-4b6f-98e5-df2afbfacae3
2020-02-28 00:40:36,353977bf-50de-4902-83f0-bba4702627f7,1,6a678a6b-5347-45f6-8f68-42137d529f62,45205b05-f944-4bf2-9720-3a00b383792f
2020-02-28 00:41:39,975c90ff-ff86-4af2-912c-a7afd28ef6fe,1,6a678a6b-5347-45f6-8f68-42137d529f62,9263585c-6ede-4fdf-abec-8c0dfa582bf8
2020-02-28 00:41:39,2893247c-3bbf-4696-959b-3f2c5afe0921,1,6a678a6b-5347-45f6-8f68-42137d529f62,28eaa846-6c9b-4cf1-bc1d-9fd1bfc08e7c
2020-02-28 00:41:39,49856e76-0ebd-4215-94ec-cb53435c5537,1,6a678a6b-5347-45f6-8f68-42137d529f62,28eaa846-6c9b-4cf1-bc1d-9fd1bfc08e7c
2020-02-28 00:42:42,f0b612f3-adc8-45a7-97ac-7748c0848b5d,1,6a678a6b-5347-45f6-8f68-42137d529f62,d640c3c5-0ef0-44e3-88c9-a924a1733d3f
2020-02-28 00:42:42,6273d06d-defe-41c0-829f-36055bccf8ca,1,6a678a6b-5347-45f6-8f68-42137d529f62,d640c3c5-0ef0-44e3-88c9-a924a1733d3f
2020-02-28 00:42:42,13240f7e-8a3d-41e0-84fd-39f44d9491a6,1,6a678a6b-5347-45f6-8f68-42137d529f62,7db175bf-ec67-4c97-bbe6-a7499e21f465
2020-02-28 00:43:45,fa659cde-f0c5-4429-bde2-4fd449569a96,1,6a678a6b-5347-45f6-8f68-42137d529f62,2d50ba02-cd55-419a-831a-d17e52be9a55
2020-02-28 00:43:45,2c0eb28c-8b21-4969-a12c-265f1ad97841,1,6a678a6b-5347-45f6-8f68-42137d529f62,2d50ba02-cd55-419a-831a-d17e52be9a55
2020-02-28 00:43:45,34dd5eeb-9968-4f37-93b3-0944b1941469,1,6a678a6b-5347-45f6-8f68-42137d529f62,758ee8d9-f01d-4a69-b7b6-650f88711428
2020-02-28 00:44:48,db68046f-335d-4033-9395-13c669cc5095,1,6a678a6b-5347-45f6-8f68-42137d529f62,9796b0a5-ab44-4b43-a435-0bbdb5e7956e
2020-02-28 00:44:48,34518bf1-26e9-4c4b-ac8e-a551b44d4b75,1,6a678a6b-5347-45f6-8f68-42137d529f62,2985f6de-9e6a-47c2-b80f-97ccdaf7788a
2020-02-28 00:44:48,b5d076f9-fc83-48f2-9a5e-b5575b215cb1,1,6a678a6b-5347-45f6-8f68-42137d529f62,9796b0a5-ab44-4b43-a435-0bbdb5e7956e
2020-02-28 00:45:51,b828b3a0-eda0-4e36-b6b8-cdcf8b1ba5f3,1,6a678a6b-5347-45f6-8f68-42137d529f62,75d9cdc3-aa34-4d84-b994-7fbff533c50a
2020-02-28 00:45:51,1b612c62-012f-49eb-acde-a2c1cd6d8739,1,6a678a6b-5347-45f6-8f68-42137d529f62,8e5cd7d0-7a74-40a6-bc68-39521277bc7e
2020-02-28 00:45:51,72dc3f88-1cd4-4c2a-b9b4-ec46ea372142,1,6a678a6b-5347-45f6-8f68-42137d529f62,75d9cdc3-aa34-4d84-b994-7fbff533c50a
2020-02-28 00:46:54,25985a6c-8a2d-4fa4-b362-ac4fb98eb6a7,1,6a678a6b-5347-45f6-8f68-42137d529f62,11bed503-7fe2-46d2-a0f7-f542e5a4b586
2020-02-28 00:46:54,370352fd-a4f5-4b3b-a35c-6a3cf6b4f2bd,1,6a678a6b-5347-45f6-8f68-42137d529f62,391436a7-cc35-4be4-a4f6-5c55ac1ffdc1
2020-02-28 00:46:54,0062fd06-934a-4c27-bd95-61d8dc320c9a,1,6a678a6b-5347-45f6-8f68-42137d529f62,11bed503-7fe2-46d2-a0f7-f542e5a4b586
2020-02-28 00:47:57,0ab44583-f805-4e83-a3fd-60bb232fb417,1,6a678a6b-5347-45f6-8f68-42137d529f62,2337eb42-8a4c-49f3-9f2a-978c58aaaf29
2020-02-28 00:47:57,ca24aecd-558c-40df-a082-386c4321001a,1,6a678a6b-5347-45f6-8f68-42137d529f62,2337eb42-8a4c-49f3-9f2a-978c58aaaf29
2020-02-28 00:47:57,04354443-bce1-4ca3-9173-19db46a668a1,1,6a678a6b-5347-45f6-8f68-42137d529f62,64acdf9d-fbd2-40d8-8686-23bcf6293a01
2020-02-28 00:48:59,43a59433-89db-4d14-be45-72a8043814e9,1,6a678a6b-5347-45f6-8f68-42137d529f62,0365857f-8302-49b8-b4a1-01ca4b0ed146
2020-02-28 00:48:59,034d705e-4070-447e-827c-eab9b743afac,1,6a678a6b-5347-45f6-8f68-42137d529f62,0365857f-8302-49b8-b4a1-01ca4b0ed146
2020-02-28 00:48:59,271bdbdf-6158-4a6b-bffc-38ff3bbfea7b,1,6a678a6b-5347-45f6-8f68-42137d529f62,367830f2-a08f-45aa-9f5e-0a16201b1375
2020-02-28 00:50:02,1468e532-c0c4-4223-a6a6-dde69b758b88,1,6a678a6b-5347-45f6-8f68-42137d529f62,12aaa151-139c-479c-9cdd-782bcec24492
2020-02-28 00:50:02,c728ca7e-7750-47e1-8361-f0b9bdf842ef,1,6a678a6b-5347-45f6-8f68-42137d529f62,12aaa151-139c-479c-9cdd-782bcec24492
2020-02-28 00:50:02,f3692049-48ea-4fb4-a8a2-8f585694c282,1,6a678a6b-5347-45f6-8f68-42137d529f62,4bbad25c-6bc9-4d93-8c03-8babc2723a8f
2020-02-28 00:51:05,3bf3ec79-eb69-4ec2-9a93-645e1aeb40ea,1,6a678a6b-5347-45f6-8f68-42137d529f62,a14dd62b-7468-45a6-8977-8afe9c335d44
2020-02-28 00:51:05,ee78c328-337d-48db-8b9e-1e5afcb61a29,1,6a678a6b-5347-45f6-8f68-42137d529f62,a14dd62b-7468-45a6-8977-8afe9c335d44
2020-02-28 00:51:05,0c5d2df7-2f11-4f94-9eb3-c1d4be5e80de,1,6a678a6b-5347-45f6-8f68-42137d529f62,fc801169-07d2-4721-be81-7a758bf583b8
2020-02-28 00:52:08,efc8c6bb-9bf6-4fb5-b8c9-cebc6d9dedec,1,6a678a6b-5347-45f6-8f68-42137d529f62,6618612c-d2e5-4165-8aeb-9da3bfb90f50
2020-02-28 00:52:08,65dd5b63-62e0-494a-9f29-61977943624d,1,6a678a6b-5347-45f6-8f68-42137d529f62,57e21c8d-ad49-45f7-b7f7-12744fb3831c
2020-02-28 00:52:08,513bcc6e-a733-42c5-98ad-4896f48575d1,1,6a678a6b-5347-45f6-8f68-42137d529f62,57e21c8d-ad49-45f7-b7f7-12744fb3831c
2020-02-28 00:53:11,6624c426-7aaf-4d79-a0a2-5e203c7a9476,1,6a678a6b-5347-45f6-8f68-42137d529f62,fd47a0b4-27b9-4e67-a133-18f8e959179c
2020-02-28 00:53:11,d8578071-5ca1-4c33-af63-831c15ff63e7,1,6a678a6b-5347-45f6-8f68-42137d529f62,27e3d83b-ab2f-48ed-bd31-280bc004eed1
2020-02-28 00:53:11,eea2bd0a-5ee3-4c2a-8e9d-1c06df1c6193,1,6a678a6b-5347-45f6-8f68-42137d529f62,27e3d83b-ab2f-48ed-bd31-280bc004eed1
2020-02-28 00:54:14,86f0a994-0406-46ca-a92e-e00e3e4d50a3,1,6a678a6b-5347-45f6-8f68-42137d529f62,172dff13-70b2-4906-862e-4cb599b7dcdb
2020-02-28 00:54:14,d29681ec-5d63-4e24-a0aa-2677cf9d35fe,1,6a678a6b-5347-45f6-8f68-42137d529f62,172dff13-70b2-4906-862e-4cb599b7dcdb
2020-02-28 00:54:14,3080aead-cef9-4267-8832-387803985593,1,6a678a6b-5347-45f6-8f68-42137d529f62,c1c63b56-a8da-4590-a67a-186c69b17725
2020-02-28 00:55:17,426e5d47-dd72-4581-8a72-d3da233787a3,1,6a678a6b-5347-45f6-8f68-42137d529f62,7e68b31b-459b-4075-bf9d-080e4b9ff120
2020-02-28 00:55:17,f4d4fa7a-5f7c-4458-ae83-8af25bd915b3,1,6a678a6b-5347-45f6-8f68-42137d529f62,a7dba74d-bfaa-4152-aaae-4b2c6033322c
2020-02-28 00:55:17,12bc024d-9ff0-48df-8c07-4caebed59e9a,1,6a678a6b-5347-45f6-8f68-42137d529f62,7e68b31b-459b-4075-bf9d-080e4b9ff120
2020-02-28 00:56:20,6b99f763-2306-4332-a73e-4712fe63f645,1,6a678a6b-5347-45f6-8f68-42137d529f62,31cfdd63-988e-4b6f-98e5-df2afbfacae3
2020-02-28 00:56:20,21775c77-4b48-49e4-8601-53206fb4f3d0,1,6a678a6b-5347-45f6-8f68-42137d529f62,31cfdd63-988e-4b6f-98e5-df2afbfacae3
2020-02-28 00:56:20,9bf9863c-de57-44a9-9f0d-e597bfed62bd,1,6a678a6b-5347-45f6-8f68-42137d529f62,edbae9aa-4ae0-4756-805b-5b8d40cdf6d4
2020-02-28 00:57:23,10385b11-a282-4153-ad30-d246cbf0717c,1,6a678a6b-5347-45f6-8f68-42137d529f62,28eaa846-6c9b-4cf1-bc1d-9fd1bfc08e7c
2020-02-28 00:57:23,5d01779b-43a7-4b40-8ba3-e51f1431c7bb,1,6a678a6b-5347-45f6-8f68-42137d529f62,28eaa846-6c9b-4cf1-bc1d-9fd1bfc08e7c
2020-02-28 00:57:23,6c1e6d14-9bf8-490c-bc12-71a01352424b,1,6a678a6b-5347-45f6-8f68-42137d529f62,d3e55ee1-4511-4f70-8f27-b754bd76a918
2020-02-28 00:58:25,6c81a51e-81dc-454a-a7e1-65d57e08b581,1,6a678a6b-5347-45f6-8f68-42137d529f62,849b9584-452f-438a-bbf1-99cd3977ace4
2020-02-28 00:58:25,26ee6c80-0eab-4339-94a1-c0a34b1eab95,1,6a678a6b-5347-45f6-8f68-42137d529f62,d640c3c5-0ef0-44e3-88c9-a924a1733d3f
2020-02-28 00:58:25,ae36f7d8-930d-40ee-b6c0-897cac8c1831,1,6a678a6b-5347-45f6-8f68-42137d529f62,d640c3c5-0ef0-44e3-88c9-a924a1733d3f
2020-02-28 00:59:28,79ff5795-6ff8-4b8d-92e4-6a09f4b61d06,1,6a678a6b-5347-45f6-8f68-42137d529f62,b1decfec-2829-4c44-8a4b-158137dbaab8
2020-02-28 00:59:28,e572ad77-e13c-4354-a12f-4607c455a535,1,6a678a6b-5347-45f6-8f68-42137d529f62,2d50ba02-cd55-419a-831a-d17e52be9a55
2020-02-28 00:59:28,5c5b1c64-3635-42ae-b812-eb28368972c6,1,6a678a6b-5347-45f6-8f68-42137d529f62,2d50ba02-cd55-419a-831a-d17e52be9a55
2020-02-28 01:00:31,efa143f5-7fb8-4f4b-a85e-4622a9813ab4,1,6a678a6b-5347-45f6-8f68-42137d529f62,f544670f-20e6-4303-9b7b-2774f06ef04e
2020-02-28 01:00:31,a2eb61bd-9aa2-4177-bab8-0ab821c5ff79,1,6a678a6b-5347-45f6-8f68-42137d529f62,9796b0a5-ab44-4b43-a435-0bbdb5e7956e
2020-02-28 01:00:31,db96904f-1cca-4e0b-a664-7dba6a625dc6,1,6a678a6b-5347-45f6-8f68-42137d529f62,9796b0a5-ab44-4b43-a435-0bbdb5e7956e
2020-02-28 01:01:34,482de86a-36de-4478-bd84-cd49015fda25,1,6a678a6b-5347-45f6-8f68-42137d529f62,75d9cdc3-aa34-4d84-b994-7fbff533c50a
2020-02-28 01:01:34,65a7b2c2-150d-47a0-b2ce-155bdcfd1183,1,6a678a6b-5347-45f6-8f68-42137d529f62,75d9cdc3-aa34-4d84-b994-7fbff533c50a
2020-02-28 01:01:34,3ee928aa-0535-464e-9099-f5137c091a2b,1,6a678a6b-5347-45f6-8f68-42137d529f62,f2da9a7c-5228-413f-ad40-69d3bb87e100
2020-02-28 01:02:36,15b0149e-22ad-4dcf-aeb1-0f15b57bb459,1,6a678a6b-5347-45f6-8f68-42137d529f62,11bed503-7fe2-46d2-a0f7-f542e5a4b586
2020-02-28 01:02:36,1946700c-8aa6-4c98-97d2-095b83ad049c,1,6a678a6b-5347-45f6-8f68-42137d529f62,11bed503-7fe2-46d2-a0f7-f542e5a4b586
2020-02-28 01:02:36,7b43a807-ee37-4a24-9cc2-2b39e9475b57,1,6a678a6b-5347-45f6-8f68-42137d529f62,17a205ac-02ad-4db9-ba64-78f8245b3256
2020-02-28 01:03:39,40aecf20-b982-4bb3-9024-1c5241bb2f28,1,6a678a6b-5347-45f6-8f68-42137d529f62,c519af7f-b540-40ea-bc67-dffd8eaacb7e
2020-02-28 01:03:39,1cec7170-be65-4f23-a0e9-9bded630ce55,1,6a678a6b-5347-45f6-8f68-42137d529f62,2337eb42-8a4c-49f3-9f2a-978c58aaaf29
2020-02-28 01:03:39,4c62dd4e-e720-4e05-b513-c81f4c617ec3,1,6a678a6b-5347-45f6-8f68-42137d529f62,2337eb42-8a4c-49f3-9f2a-978c58aaaf29
2020-02-28 01:04:42,aabf7333-d31f-4f8e-bcb3-87099632d9cd,1,6a678a6b-5347-45f6-8f68-42137d529f62,0365857f-8302-49b8-b4a1-01ca4b0ed146
2020-02-28 01:04:42,ea08d762-7833-4811-87d6-c964ad52476a,1,6a678a6b-5347-45f6-8f68-42137d529f62,2896a95c-6062-45f5-ab5c-42755b348500
2020-02-28 01:04:42,2d472160-fd24-4488-b889-1bfc43acbeb6,1,6a678a6b-5347-45f6-8f68-42137d529f62,0365857f-8302-49b8-b4a1-01ca4b0ed146
2020-02-28 01:05:45,218b9866-4ba7-49e2-8347-52c39f6ff0d4,1,6a678a6b-5347-45f6-8f68-42137d529f62,12aaa151-139c-479c-9cdd-782bcec24492
2020-02-28 01:05:45,b75dd046-b549-4eb2-8bd9-27df7f6f873c,1,6a678a6b-5347-45f6-8f68-42137d529f62,70c76fcd-9b13-4001-9655-5a3292c05721
2020-02-28 01:05:45,15618759-c6fe-4277-a3f2-cea04cb0bbd1,1,6a678a6b-5347-45f6-8f68-42137d529f62,12aaa151-139c-479c-9cdd-782bcec24492
2020-02-28 01:06:48,f7c4b78a-33e9-4970-aed0-abc3d2a035d6,1,6a678a6b-5347-45f6-8f68-42137d529f62,a14dd62b-7468-45a6-8977-8afe9c335d44
2020-02-28 01:06:48,0c222d07-da0d-4e52-95fe-332149e17f50,1,6a678a6b-5347-45f6-8f68-42137d529f62,a14dd62b-7468-45a6-8977-8afe9c335d44
2020-02-28 01:06:48,4eac1a34-77c2-49b5-aa70-1dcdce16db4f,1,6a678a6b-5347-45f6-8f68-42137d529f62,cdd1a6e7-c40e-4a12-9de4-30961776ecad
2020-02-28 01:07:50,3d076e55-ce2b-4943-8f08-a936d583ef4d,1,6a678a6b-5347-45f6-8f68-42137d529f62,57e21c8d-ad49-45f7-b7f7-12744fb3831c
2020-02-28 01:07:50,201147b8-c383-4d30-acce-c4dd645f9aff,1,6a678a6b-5347-45f6-8f68-42137d529f62,87e47cf2-d9d9-4847-bac5-44928a01a14f
2020-02-28 01:07:50,7d3b1358-1f7a-4daf-a472-807d966e4e63,1,6a678a6b-5347-45f6-8f68-42137d529f62,57e21c8d-ad49-45f7-b7f7-12744fb3831c
2020-02-28 01:08:53,556bb6ac-671e-4992-a7dd-76ecb7cc1cf1,1,6a678a6b-5347-45f6-8f68-42137d529f62,27e3d83b-ab2f-48ed-bd31-280bc004eed1
2020-02-28 01:08:53,c28d8e90-931b-4928-bb58-774374ae7b79,1,6a678a6b-5347-45f6-8f68-42137d529f62,27e3d83b-ab2f-48ed-bd31-280bc004eed1
2020-02-28 01:08:53,3ae6ae72-0dc4-47b0-bf14-c4b2d321ccbf,1,6a678a6b-5347-45f6-8f68-42137d529f62,b37e29a0-7b4b-4bf4-9762-1b9d48e9f5ea
2020-02-28 01:09:56,37b2e6cb-60ed-4cf7-8826-866b59f440e0,1,6a678a6b-5347-45f6-8f68-42137d529f62,172dff13-70b2-4906-862e-4cb599b7dcdb
2020-02-28 01:09:56,0010dc78-7127-42f6-86b2-2e962649dccf,1,6a678a6b-5347-45f6-8f68-42137d529f62,172dff13-70b2-4906-862e-4cb599b7dcdb
2020-02-28 01:09:56,4b8f5a8a-861f-4f13-822c-371864ef977a,1,6a678a6b-5347-45f6-8f68-42137d529f62,88ddec0d-a643-4ffe-b09c-f95c71ed71d6
2020-02-28 01:10:59,d8e25edc-1424-4ca6-8f12-cb66f89451f3,1,6a678a6b-5347-45f6-8f68-42137d529f62,7e68b31b-459b-4075-bf9d-080e4b9ff120
2020-02-28 01:10:59,7818a34f-3280-47f8-b4b7-c7c55e41606f,1,6a678a6b-5347-45f6-8f68-42137d529f62,7e68b31b-459b-4075-bf9d-080e4b9ff120
2020-02-28 01:10:59,439430f9-82a2-4cd0-8b2d-4f9dd1de7d54,1,6a678a6b-5347-45f6-8f68-42137d529f62,92ab7930-81ce-4e86-892c-95f47d55f28e
2020-02-28 01:12:02,48a1cccd-ca31-4e1a-bf77-dfe075f7ad6c,1,6a678a6b-5347-45f6-8f68-42137d529f62,31cfdd63-988e-4b6f-98e5-df2afbfacae3
2020-02-28 01:12:02,3f541862-dbfa-42aa-8172-c59f11614c54,1,6a678a6b-5347-45f6-8f68-42137d529f62,31cfdd63-988e-4b6f-98e5-df2afbfacae3
2020-02-28 01:12:02,bc30889a-de4e-4c08-b4f6-264dd638b229,1,6a678a6b-5347-45f6-8f68-42137d529f62,acdb36d1-bbf3-4d74-a394-29fb5f35b9bb
2020-02-28 01:13:04,59ed6a37-1039-43b8-9dce-72675c79c606,1,6a678a6b-5347-45f6-8f68-42137d529f62,ead443fc-366a-4036-be99-851eac8e6919
2020-02-28 01:13:04,c53af45e-88a7-4d50-bf0b-f169dc870c9b,1,6a678a6b-5347-45f6-8f68-42137d529f62,28eaa846-6c9b-4cf1-bc1d-9fd1bfc08e7c
2020-02-28 01:13:04,84d9484d-ef2a-4da6-9cf7-1529fe6212fd,1,6a678a6b-5347-45f6-8f68-42137d529f62,28eaa846-6c9b-4cf1-bc1d-9fd1bfc08e7c
2020-02-28 01:14:07,1cce23f8-38d2-4a28-9564-7a6b4e9a0282,1,6a678a6b-5347-45f6-8f68-42137d529f62,7c646cb1-a4e0-4877-a554-fdfa8ec08454
2020-02-28 01:14:07,0c2d96bf-3535-4d7b-881c-b55227fcc2a3,1,6a678a6b-5347-45f6-8f68-42137d529f62,d640c3c5-0ef0-44e3-88c9-a924a1733d3f
2020-02-28 01:14:07,415df7f6-56f4-49b2-b518-19dbdbb87dc1,1,6a678a6b-5347-45f6-8f68-42137d529f62,d640c3c5-0ef0-44e3-88c9-a924a1733d3f
2020-02-28 01:15:10,c7972fb3-0e69-4e4a-8099-9bdfb19036e4,1,6a678a6b-5347-45f6-8f68-42137d529f62,2d50ba02-cd55-419a-831a-d17e52be9a55
2020-02-28 01:15:10,8f7a5011-8853-4c14-9ed0-7730fb73f064,1,6a678a6b-5347-45f6-8f68-42137d529f62,99be1670-68a8-4798-a69f-bce0cbe432f3
2020-02-28 01:15:10,772e1214-eff7-48b7-9db1-3efb3acb71b8,1,6a678a6b-5347-45f6-8f68-42137d529f62,2d50ba02-cd55-419a-831a-d17e52be9a55
2020-02-28 01:16:12,987c95d5-ab2a-4ed1-9194-ce2cb3dd2311,1,6a678a6b-5347-45f6-8f68-42137d529f62,9796b0a5-ab44-4b43-a435-0bbdb5e7956e
2020-02-28 01:16:12,6934cf79-111d-440e-a38c-7c0befd925ff,1,6a678a6b-5347-45f6-8f68-42137d529f62,39ae96ed-381d-428b-a023-4de9f0813411
2020-02-28 01:16:12,1e4ac5a8-8463-4cc1-9454-e672ca1f4b73,1,6a678a6b-5347-45f6-8f68-42137d529f62,9796b0a5-ab44-4b43-a435-0bbdb5e7956e
2020-02-28 01:17:15,92a6bbe9-b555-4725-bbd8-c1bc8f58d80c,1,6a678a6b-5347-45f6-8f68-42137d529f62,75d9cdc3-aa34-4d84-b994-7fbff533c50a
2020-02-28 01:17:15,91ce0459-bb08-4f03-9e18-1709d22480ad,1,6a678a6b-5347-45f6-8f68-42137d529f62,75d9cdc3-aa34-4d84-b994-7fbff533c50a
2020-02-28 01:17:15,f7f94cbe-1b12-4ab3-8846-b809101d8f4d,1,6a678a6b-5347-45f6-8f68-42137d529f62,8d9b31b2-0b91-43e6-9420-fd85fdb7033b
2020-02-28 01:18:18,d37cdcfa-9d68-4f33-8e66-9427ca250ae6,1,6a678a6b-5347-45f6-8f68-42137d529f62,a8a04551-5f41-4773-accb-3f2cf2c172a7
2020-02-28 01:18:18,96358f93-80ad-4d43-a049-e96e645d3a70,1,6a678a6b-5347-45f6-8f68-42137d529f62,11bed503-7fe2-46d2-a0f7-f542e5a4b586
2020-02-28 01:18:18,f54bb358-b926-4193-8734-1cfc0a0969d8,1,6a678a6b-5347-45f6-8f68-42137d529f62,11bed503-7fe2-46d2-a0f7-f542e5a4b586
2020-02-28 01:19:21,acbef848-2f7c-451a-8ee7-6ac33b2d3278,1,6a678a6b-5347-45f6-8f68-42137d529f62,2337eb42-8a4c-49f3-9f2a-978c58aaaf29
2020-02-28 01:19:21,3927795a-3c0d-40c9-840c-d32cf2bb9cce,1,6a678a6b-5347-45f6-8f68-42137d529f62,2337eb42-8a4c-49f3-9f2a-978c58aaaf29
2020-02-28 01:19:21,6f120cb3-6c2c-452e-9e47-964347dfd0ff,1,6a678a6b-5347-45f6-8f68-42137d529f62,3528c0d3-e2bb-41de-8721-f5ec00cc7da3
2020-02-28 01:20:23,2e3812e7-98a0-4a70-9783-4b96d81e5256,1,6a678a6b-5347-45f6-8f68-42137d529f62,0365857f-8302-49b8-b4a1-01ca4b0ed146
2020-02-28 01:20:23,51a51f30-2008-4d83-a41b-bd15fd5c87df,1,6a678a6b-5347-45f6-8f68-42137d529f62,7fff123f-4ffb-413e-9341-0e8929bfdf55
2020-02-28 01:20:23,5584fcc8-b0d2-47f1-bcd2-6970e29ddf1e,1,6a678a6b-5347-45f6-8f68-42137d529f62,0365857f-8302-49b8-b4a1-01ca4b0ed146
2020-02-28 01:21:26,850306ee-2dd8-449c-bdfd-01ffaa3b6207,1,6a678a6b-5347-45f6-8f68-42137d529f62,6615fa29-c259-4d6b-a07c-61915093c0cc
2020-02-28 01:21:26,5805874c-dd54-4f71-93c1-c4039056a66b,1,6a678a6b-5347-45f6-8f68-42137d529f62,12aaa151-139c-479c-9cdd-782bcec24492
2020-02-28 01:21:26,86fd7535-f268-4e22-ab31-7a4b6cc4892f,1,6a678a6b-5347-45f6-8f68-42137d529f62,12aaa151-139c-479c-9cdd-782bcec24492
2020-02-28 01:21:45,3bf3ec79-eb69-4ec2-9a93-645e1aeb40ea,1,57e21c8d-ad49-45f7-b7f7-12744fb3831c,31cfdd63-988e-4b6f-98e5-df2afbfacae3
2020-02-28 01:22:07,10385b11-a282-4153-ad30-d246cbf0717c,1,57e21c8d-ad49-45f7-b7f7-12744fb3831c,a14dd62b-7468-45a6-8977-8afe9c335d44
2020-02-28 01:22:20,65dd5b63-62e0-494a-9f29-61977943624d,1,57e21c8d-ad49-45f7-b7f7-12744fb3831c,172dff13-70b2-4906-862e-4cb599b7dcdb
2020-02-28 01:22:20,b5cf0ae6-d2f7-4b36-a729-e6c1cd067610,1,57e21c8d-ad49-45f7-b7f7-12744fb3831c,31cfdd63-988e-4b6f-98e5-df2afbfacae3
2020-02-28 01:22:20,3d076e55-ce2b-4943-8f08-a936d583ef4d,1,57e21c8d-ad49-45f7-b7f7-12744fb3831c,172dff13-70b2-4906-862e-4cb599b7dcdb
2020-02-28 01:23:58,3bf3ec79-eb69-4ec2-9a93-645e1aeb40ea,1,57e21c8d-ad49-45f7-b7f7-12744fb3831c,28eaa846-6c9b-4cf1-bc1d-9fd1bfc08e7c
2020-02-28 01:24:29,3bf3ec79-eb69-4ec2-9a93-645e1aeb40ea,1,57e21c8d-ad49-45f7-b7f7-12744fb3831c,a14dd62b-7468-45a6-8977-8afe9c335d44
2020-02-28 01:24:42,7cef869b-1a5d-45fb-be88-048988be04bb,1,57e21c8d-ad49-45f7-b7f7-12744fb3831c,0365857f-8302-49b8-b4a1-01ca4b0ed146
2020-02-28 01:29:21,0062fd06-934a-4c27-bd95-61d8dc320c9a,1,57e21c8d-ad49-45f7-b7f7-12744fb3831c,28eaa846-6c9b-4cf1-bc1d-9fd1bfc08e7c
2020-02-28 01:37:55,dde12b45-ed34-44ae-94bb-170c2ef72427,1,57e21c8d-ad49-45f7-b7f7-12744fb3831c,a14dd62b-7468-45a6-8977-8afe9c335d44
2020-02-28 01:38:15,2c0eb28c-8b21-4969-a12c-265f1ad97841,1,57e21c8d-ad49-45f7-b7f7-12744fb3831c,d640c3c5-0ef0-44e3-88c9-a924a1733d3f
2020-02-28 01:41:19,0c222d07-da0d-4e52-95fe-332149e17f50,1,57e21c8d-ad49-45f7-b7f7-12744fb3831c,12aaa151-139c-479c-9cdd-782bcec24492
2020-02-28 01:44:34,0062fd06-934a-4c27-bd95-61d8dc320c9a,1,57e21c8d-ad49-45f7-b7f7-12744fb3831c,2d50ba02-cd55-419a-831a-d17e52be9a55
2020-02-28 01:44:53,c988642e-c012-47a2-9e23-29ed0f87b978,1,57e21c8d-ad49-45f7-b7f7-12744fb3831c,12aaa151-139c-479c-9cdd-782bcec24492
2020-02-28 01:44:57,3927795a-3c0d-40c9-840c-d32cf2bb9cce,1,57e21c8d-ad49-45f7-b7f7-12744fb3831c,d640c3c5-0ef0-44e3-88c9-a924a1733d3f
2020-02-28 01:44:58,2c0eb28c-8b21-4969-a12c-265f1ad97841,1,57e21c8d-ad49-45f7-b7f7-12744fb3831c,31cfdd63-988e-4b6f-98e5-df2afbfacae3
2020-02-28 01:46:49,c988642e-c012-47a2-9e23-29ed0f87b978,1,57e21c8d-ad49-45f7-b7f7-12744fb3831c,12aaa151-139c-479c-9cdd-782bcec24492
2020-02-28 01:47:42,0c222d07-da0d-4e52-95fe-332149e17f50,1,57e21c8d-ad49-45f7-b7f7-12744fb3831c,28eaa846-6c9b-4cf1-bc1d-9fd1bfc08e7c
2020-02-28 01:47:42,7cef869b-1a5d-45fb-be88-048988be04bb,1,57e21c8d-ad49-45f7-b7f7-12744fb3831c,75d9cdc3-aa34-4d84-b994-7fbff533c50a
2020-02-28 01:48:21,0c222d07-da0d-4e52-95fe-332149e17f50,1,57e21c8d-ad49-45f7-b7f7-12744fb3831c,28eaa846-6c9b-4cf1-bc1d-9fd1bfc08e7c
2020-02-28 01:48:22,7cef869b-1a5d-45fb-be88-048988be04bb,1,57e21c8d-ad49-45f7-b7f7-12744fb3831c,75d9cdc3-aa34-4d84-b994-7fbff533c50a
2020-02-28 01:50:11,0c222d07-da0d-4e52-95fe-332149e17f50,1,57e21c8d-ad49-45f7-b7f7-12744fb3831c,9796b0a5-ab44-4b43-a435-0bbdb5e7956e
2020-02-28 01:51:06,7cef869b-1a5d-45fb-be88-048988be04bb,1,57e21c8d-ad49-45f7-b7f7-12744fb3831c,7e68b31b-459b-4075-bf9d-080e4b9ff120
2020-02-28 02:48:25,2c0eb28c-8b21-4969-a12c-265f1ad97841,1,57e21c8d-ad49-45f7-b7f7-12744fb3831c,d640c3c5-0ef0-44e3-88c9-a924a1733d3f
2020-02-28 02:48:52,0c222d07-da0d-4e52-95fe-332149e17f50,1,57e21c8d-ad49-45f7-b7f7-12744fb3831c,28eaa846-6c9b-4cf1-bc1d-9fd1bfc08e7c
2020-02-28 02:49:33,0c222d07-da0d-4e52-95fe-332149e17f50,1,57e21c8d-ad49-45f7-b7f7-12744fb3831c,28eaa846-6c9b-4cf1-bc1d-9fd1bfc08e7c
2020-02-28 02:49:46,c988642e-c012-47a2-9e23-29ed0f87b978,1,57e21c8d-ad49-45f7-b7f7-12744fb3831c,2337eb42-8a4c-49f3-9f2a-978c58aaaf29
2020-02-28 02:50:03,0c222d07-da0d-4e52-95fe-332149e17f50,1,57e21c8d-ad49-45f7-b7f7-12744fb3831c,12aaa151-139c-479c-9cdd-782bcec24492
2020-02-28 02:52:14,dde12b45-ed34-44ae-94bb-170c2ef72427,1,57e21c8d-ad49-45f7-b7f7-12744fb3831c,a14dd62b-7468-45a6-8977-8afe9c335d44
2020-02-28 02:52:16,2c0eb28c-8b21-4969-a12c-265f1ad97841,1,57e21c8d-ad49-45f7-b7f7-12744fb3831c,d640c3c5-0ef0-44e3-88c9-a924a1733d3f
2020-02-28 02:52:22,6273d06d-defe-41c0-829f-36055bccf8ca,1,57e21c8d-ad49-45f7-b7f7-12744fb3831c,28eaa846-6c9b-4cf1-bc1d-9fd1bfc08e7c
2020-02-28 03:15:24,2c0eb28c-8b21-4969-a12c-265f1ad97841,1,57e21c8d-ad49-45f7-b7f7-12744fb3831c,31cfdd63-988e-4b6f-98e5-df2afbfacae3
2020-02-28 03:15:28,0c222d07-da0d-4e52-95fe-332149e17f50,1,57e21c8d-ad49-45f7-b7f7-12744fb3831c,9796b0a5-ab44-4b43-a435-0bbdb5e7956e
2020-02-28 01:21:39,a2eb61bd-9aa2-4177-bab8-0ab821c5ff79,1,9796b0a5-ab44-4b43-a435-0bbdb5e7956e,31cfdd63-988e-4b6f-98e5-df2afbfacae3
2020-02-28 01:21:39,987c95d5-ab2a-4ed1-9194-ce2cb3dd2311,1,9796b0a5-ab44-4b43-a435-0bbdb5e7956e,12aaa151-139c-479c-9cdd-782bcec24492
2020-02-28 01:21:39,b5d076f9-fc83-48f2-9a5e-b5575b215cb1,1,9796b0a5-ab44-4b43-a435-0bbdb5e7956e,7e68b31b-459b-4075-bf9d-080e4b9ff120
2020-02-28 01:22:30,c53af45e-88a7-4d50-bf0b-f169dc870c9b,1,9796b0a5-ab44-4b43-a435-0bbdb5e7956e,0365857f-8302-49b8-b4a1-01ca4b0ed146
2020-02-28 01:23:10,c53af45e-88a7-4d50-bf0b-f169dc870c9b,1,9796b0a5-ab44-4b43-a435-0bbdb5e7956e,31cfdd63-988e-4b6f-98e5-df2afbfacae3
2020-02-28 01:23:50,c53af45e-88a7-4d50-bf0b-f169dc870c9b,1,9796b0a5-ab44-4b43-a435-0bbdb5e7956e,75d9cdc3-aa34-4d84-b994-7fbff533c50a
2020-02-28 01:36:33,c53af45e-88a7-4d50-bf0b-f169dc870c9b,1,9796b0a5-ab44-4b43-a435-0bbdb5e7956e,31cfdd63-988e-4b6f-98e5-df2afbfacae3
2020-02-28 01:36:43,d29681ec-5d63-4e24-a0aa-2677cf9d35fe,1,9796b0a5-ab44-4b43-a435-0bbdb5e7956e,2337eb42-8a4c-49f3-9f2a-978c58aaaf29
2020-02-28 01:36:43,37b2e6cb-60ed-4cf7-8826-866b59f440e0,1,9796b0a5-ab44-4b43-a435-0bbdb5e7956e,0365857f-8302-49b8-b4a1-01ca4b0ed146
2020-02-28 01:37:30,034d705e-4070-447e-827c-eab9b743afac,1,9796b0a5-ab44-4b43-a435-0bbdb5e7956e,2337eb42-8a4c-49f3-9f2a-978c58aaaf29
2020-02-28 01:38:35,37b2e6cb-60ed-4cf7-8826-866b59f440e0,1,9796b0a5-ab44-4b43-a435-0bbdb5e7956e,11bed503-7fe2-46d2-a0f7-f542e5a4b586
2020-02-28 01:38:56,37b2e6cb-60ed-4cf7-8826-866b59f440e0,1,9796b0a5-ab44-4b43-a435-0bbdb5e7956e,75d9cdc3-aa34-4d84-b994-7fbff533c50a
2020-02-28 01:44:14,0062fd06-934a-4c27-bd95-61d8dc320c9a,1,9796b0a5-ab44-4b43-a435-0bbdb5e7956e,57e21c8d-ad49-45f7-b7f7-12744fb3831c
2020-02-28 01:44:19,92a6bbe9-b555-4725-bbd8-c1bc8f58d80c,1,9796b0a5-ab44-4b43-a435-0bbdb5e7956e,2d50ba02-cd55-419a-831a-d17e52be9a55
2020-02-28 01:47:28,c53af45e-88a7-4d50-bf0b-f169dc870c9b,1,9796b0a5-ab44-4b43-a435-0bbdb5e7956e,28eaa846-6c9b-4cf1-bc1d-9fd1bfc08e7c
2020-02-28 01:50:31,0c222d07-da0d-4e52-95fe-332149e17f50,1,9796b0a5-ab44-4b43-a435-0bbdb5e7956e,12aaa151-139c-479c-9cdd-782bcec24492
2020-02-28 02:41:38,37b2e6cb-60ed-4cf7-8826-866b59f440e0,1,9796b0a5-ab44-4b43-a435-0bbdb5e7956e,11bed503-7fe2-46d2-a0f7-f542e5a4b586
2020-02-28 02:45:27,37b2e6cb-60ed-4cf7-8826-866b59f440e0,1,9796b0a5-ab44-4b43-a435-0bbdb5e7956e,0365857f-8302-49b8-b4a1-01ca4b0ed146
2020-02-28 02:49:23,0c222d07-da0d-4e52-95fe-332149e17f50,1,9796b0a5-ab44-4b43-a435-0bbdb5e7956e,57e21c8d-ad49-45f7-b7f7-12744fb3831c
2020-02-28 02:49:30,92a6bbe9-b555-4725-bbd8-c1bc8f58d80c,1,9796b0a5-ab44-4b43-a435-0bbdb5e7956e,28eaa846-6c9b-4cf1-bc1d-9fd1bfc08e7c
2020-02-28 02:49:35,3d076e55-ce2b-4943-8f08-a936d583ef4d,1,9796b0a5-ab44-4b43-a435-0bbdb5e7956e,2337eb42-8a4c-49f3-9f2a-978c58aaaf29
2020-02-28 03:32:23,0c222d07-da0d-4e52-95fe-332149e17f50,1,9796b0a5-ab44-4b43-a435-0bbdb5e7956e,12aaa151-139c-479c-9cdd-782bcec24492
2020-02-28 00:49:09,d5880339-d9a1-4ab9-a0b7-190d2c50d4f8,1,31cfdd63-988e-4b6f-98e5-df2afbfacae3,d640c3c5-0ef0-44e3-88c9-a924a1733d3f
2020-02-28 01:21:40,6b99f763-2306-4332-a73e-4712fe63f645,1,31cfdd63-988e-4b6f-98e5-df2afbfacae3,2d50ba02-cd55-419a-831a-d17e52be9a55
2020-02-28 01:21:40,48a1cccd-ca31-4e1a-bf77-dfe075f7ad6c,1,31cfdd63-988e-4b6f-98e5-df2afbfacae3,31cfdd63-988e-4b6f-98e5-df2afbfacae3
2020-02-28 01:21:56,aabf7333-d31f-4f8e-bcb3-87099632d9cd,1,31cfdd63-988e-4b6f-98e5-df2afbfacae3,12aaa151-139c-479c-9cdd-782bcec24492
2020-02-28 01:22:06,3bf3ec79-eb69-4ec2-9a93-645e1aeb40ea,1,31cfdd63-988e-4b6f-98e5-df2afbfacae3,28eaa846-6c9b-4cf1-bc1d-9fd1bfc08e7c
2020-02-28 01:22:12,2c0eb28c-8b21-4969-a12c-265f1ad97841,1,31cfdd63-988e-4b6f-98e5-df2afbfacae3,2337eb42-8a4c-49f3-9f2a-978c58aaaf29
2020-02-28 01:22:17,034d705e-4070-447e-827c-eab9b743afac,1,31cfdd63-988e-4b6f-98e5-df2afbfacae3,2337eb42-8a4c-49f3-9f2a-978c58aaaf29
2020-02-28 01:23:31,c53af45e-88a7-4d50-bf0b-f169dc870c9b,1,31cfdd63-988e-4b6f-98e5-df2afbfacae3,9796b0a5-ab44-4b43-a435-0bbdb5e7956e
2020-02-28 01:23:38,3bf3ec79-eb69-4ec2-9a93-645e1aeb40ea,1,31cfdd63-988e-4b6f-98e5-df2afbfacae3,57e21c8d-ad49-45f7-b7f7-12744fb3831c
2020-02-28 01:23:50,2893247c-3bbf-4696-959b-3f2c5afe0921,1,31cfdd63-988e-4b6f-98e5-df2afbfacae3,172dff13-70b2-4906-862e-4cb599b7dcdb
2020-02-28 01:27:21,5c940d94-6f41-4973-89ed-3dda5e6dd12a,1,31cfdd63-988e-4b6f-98e5-df2afbfacae3,d640c3c5-0ef0-44e3-88c9-a924a1733d3f
2020-02-28 01:27:23,b5cf0ae6-d2f7-4b36-a729-e6c1cd067610,1,31cfdd63-988e-4b6f-98e5-df2afbfacae3,27e3d83b-ab2f-48ed-bd31-280bc004eed1
2020-02-28 01:36:55,c53af45e-88a7-4d50-bf0b-f169dc870c9b,1,31cfdd63-988e-4b6f-98e5-df2afbfacae3,0365857f-8302-49b8-b4a1-01ca4b0ed146
2020-02-28 01:36:55,2893247c-3bbf-4696-959b-3f2c5afe0921,1,31cfdd63-988e-4b6f-98e5-df2afbfacae3,0365857f-8302-49b8-b4a1-01ca4b0ed146
2020-02-28 01:36:56,034d705e-4070-447e-827c-eab9b743afac,1,31cfdd63-988e-4b6f-98e5-df2afbfacae3,0365857f-8302-49b8-b4a1-01ca4b0ed146
2020-02-28 01:37:02,48a1cccd-ca31-4e1a-bf77-dfe075f7ad6c,1,31cfdd63-988e-4b6f-98e5-df2afbfacae3,11bed503-7fe2-46d2-a0f7-f542e5a4b586
2020-02-28 01:38:00,034d705e-4070-447e-827c-eab9b743afac,1,31cfdd63-988e-4b6f-98e5-df2afbfacae3,0365857f-8302-49b8-b4a1-01ca4b0ed146
2020-02-28 01:38:54,034d705e-4070-447e-827c-eab9b743afac,1,31cfdd63-988e-4b6f-98e5-df2afbfacae3,a14dd62b-7468-45a6-8977-8afe9c335d44
2020-02-28 01:45:18,2c0eb28c-8b21-4969-a12c-265f1ad97841,1,31cfdd63-988e-4b6f-98e5-df2afbfacae3,2337eb42-8a4c-49f3-9f2a-978c58aaaf29
2020-02-28 01:46:18,c53af45e-88a7-4d50-bf0b-f169dc870c9b,1,31cfdd63-988e-4b6f-98e5-df2afbfacae3,75d9cdc3-aa34-4d84-b994-7fbff533c50a
2020-02-28 02:37:02,c988642e-c012-47a2-9e23-29ed0f87b978,1,31cfdd63-988e-4b6f-98e5-df2afbfacae3,12aaa151-139c-479c-9cdd-782bcec24492
2020-02-28 02:37:07,15b0149e-22ad-4dcf-aeb1-0f15b57bb459,1,31cfdd63-988e-4b6f-98e5-df2afbfacae3,75d9cdc3-aa34-4d84-b994-7fbff533c50a
2020-02-28 02:47:44,15b0149e-22ad-4dcf-aeb1-0f15b57bb459,1,31cfdd63-988e-4b6f-98e5-df2afbfacae3,12aaa151-139c-479c-9cdd-782bcec24492
2020-02-28 02:48:35,15b0149e-22ad-4dcf-aeb1-0f15b57bb459,1,31cfdd63-988e-4b6f-98e5-df2afbfacae3,172dff13-70b2-4906-862e-4cb599b7dcdb
2020-02-28 02:48:46,c988642e-c012-47a2-9e23-29ed0f87b978,1,31cfdd63-988e-4b6f-98e5-df2afbfacae3,57e21c8d-ad49-45f7-b7f7-12744fb3831c
2020-02-28 03:15:13,15b0149e-22ad-4dcf-aeb1-0f15b57bb459,1,31cfdd63-988e-4b6f-98e5-df2afbfacae3,75d9cdc3-aa34-4d84-b994-7fbff533c50a
2020-02-28 03:15:14,2c0eb28c-8b21-4969-a12c-265f1ad97841,1,31cfdd63-988e-4b6f-98e5-df2afbfacae3,57e21c8d-ad49-45f7-b7f7-12744fb3831c
2020-02-28 03:15:36,2c0eb28c-8b21-4969-a12c-265f1ad97841,1,31cfdd63-988e-4b6f-98e5-df2afbfacae3,172dff13-70b2-4906-862e-4cb599b7dcdb
2020-02-28 03:15:42,15b0149e-22ad-4dcf-aeb1-0f15b57bb459,1,31cfdd63-988e-4b6f-98e5-df2afbfacae3,11bed503-7fe2-46d2-a0f7-f542e5a4b586
2020-02-28 03:32:59,2c0eb28c-8b21-4969-a12c-265f1ad97841,1,31cfdd63-988e-4b6f-98e5-df2afbfacae3,d640c3c5-0ef0-44e3-88c9-a924a1733d3f
2020-02-28 03:34:23,2c0eb28c-8b21-4969-a12c-265f1ad97841,1,31cfdd63-988e-4b6f-98e5-df2afbfacae3,172dff13-70b2-4906-862e-4cb599b7dcdb
2020-02-28 03:34:27,aabf7333-d31f-4f8e-bcb3-87099632d9cd,1,31cfdd63-988e-4b6f-98e5-df2afbfacae3,d640c3c5-0ef0-44e3-88c9-a924a1733d3f
2020-02-28 03:34:41,2c0eb28c-8b21-4969-a12c-265f1ad97841,1,31cfdd63-988e-4b6f-98e5-df2afbfacae3,d640c3c5-0ef0-44e3-88c9-a924a1733d3f
2020-02-28 01:09:03,3bf3ec79-eb69-4ec2-9a93-645e1aeb40ea,1,a14dd62b-7468-45a6-8977-8afe9c335d44,57e21c8d-ad49-45f7-b7f7-12744fb3831c
2020-02-28 01:09:03,dde12b45-ed34-44ae-94bb-170c2ef72427,1,a14dd62b-7468-45a6-8977-8afe9c335d44,a14dd62b-7468-45a6-8977-8afe9c335d44
2020-02-28 01:22:21,7818a34f-3280-47f8-b4b7-c7c55e41606f,1,a14dd62b-7468-45a6-8977-8afe9c335d44,7e68b31b-459b-4075-bf9d-080e4b9ff120
2020-02-28 01:22:39,10385b11-a282-4153-ad30-d246cbf0717c,1,a14dd62b-7468-45a6-8977-8afe9c335d44,0365857f-8302-49b8-b4a1-01ca4b0ed146
2020-02-28 01:22:52,034d705e-4070-447e-827c-eab9b743afac,1,a14dd62b-7468-45a6-8977-8afe9c335d44,0365857f-8302-49b8-b4a1-01ca4b0ed146
2020-02-28 01:33:41,0c222d07-da0d-4e52-95fe-332149e17f50,1,a14dd62b-7468-45a6-8977-8afe9c335d44,28eaa846-6c9b-4cf1-bc1d-9fd1bfc08e7c
2020-02-28 01:36:37,65dd5b63-62e0-494a-9f29-61977943624d,1,a14dd62b-7468-45a6-8977-8afe9c335d44,11bed503-7fe2-46d2-a0f7-f542e5a4b586
2020-02-28 01:36:37,5584fcc8-b0d2-47f1-bcd2-6970e29ddf1e,1,a14dd62b-7468-45a6-8977-8afe9c335d44,28eaa846-6c9b-4cf1-bc1d-9fd1bfc08e7c
2020-02-28 01:36:45,3e4b0928-3af7-445c-8a5a-8e7cd567de05,1,a14dd62b-7468-45a6-8977-8afe9c335d44,0365857f-8302-49b8-b4a1-01ca4b0ed146
2020-02-28 01:36:56,65dd5b63-62e0-494a-9f29-61977943624d,1,a14dd62b-7468-45a6-8977-8afe9c335d44,11bed503-7fe2-46d2-a0f7-f542e5a4b586
2020-02-28 01:37:03,b0ddb29b-8ce0-4f53-a3a6-4505ae4be75c,1,a14dd62b-7468-45a6-8977-8afe9c335d44,75d9cdc3-aa34-4d84-b994-7fbff533c50a
2020-02-28 01:37:04,dde12b45-ed34-44ae-94bb-170c2ef72427,1,a14dd62b-7468-45a6-8977-8afe9c335d44,57e21c8d-ad49-45f7-b7f7-12744fb3831c
2020-02-28 01:37:10,5584fcc8-b0d2-47f1-bcd2-6970e29ddf1e,1,a14dd62b-7468-45a6-8977-8afe9c335d44,28eaa846-6c9b-4cf1-bc1d-9fd1bfc08e7c
2020-02-28 01:38:08,65dd5b63-62e0-494a-9f29-61977943624d,1,a14dd62b-7468-45a6-8977-8afe9c335d44,172dff13-70b2-4906-862e-4cb599b7dcdb
2020-02-28 02:49:02,dde12b45-ed34-44ae-94bb-170c2ef72427,1,a14dd62b-7468-45a6-8977-8afe9c335d44,28eaa846-6c9b-4cf1-bc1d-9fd1bfc08e7c
2020-02-28 02:49:13,65dd5b63-62e0-494a-9f29-61977943624d,1,a14dd62b-7468-45a6-8977-8afe9c335d44,172dff13-70b2-4906-862e-4cb599b7dcdb
2020-02-28 02:52:23,dde12b45-ed34-44ae-94bb-170c2ef72427,1,a14dd62b-7468-45a6-8977-8afe9c335d44,28eaa846-6c9b-4cf1-bc1d-9fd1bfc08e7c
2020-02-28 02:53:03,dde12b45-ed34-44ae-94bb-170c2ef72427,1,a14dd62b-7468-45a6-8977-8afe9c335d44,28eaa846-6c9b-4cf1-bc1d-9fd1bfc08e7c
