app_number,app_id,trigger,burn,sink,deploy_date,token_interval
1,a8408f2d-1efb-4a55-9479-8870ac46f238,9fcb1047-85ce-4440-aa17-55207a526722,fde00472-d9c1-4dcf-8ec4-60f11de0626d,a18c0db6-fe40-4532-9421-ba6a5a7f7cff,2020-02-28 00:30:05,2.000000
2,d1d3ad65-c0a9-4577-84ca-3e222679b7e9,915f003d-5579-492f-aa6f-7167a089b9fb,0ffac783-7787-44fd-bdeb-b254e6a29928,2587637f-c85b-4bba-b084-538ddd4982ea,2020-02-28 00:31:08,2.000000
3,6cd14bcd-0bcb-4d37-bb3f-b54b6ab13a20,aa58e474-dda3-4f99-9afc-4b926218bc9e,b0ddb29b-8ce0-4f53-a3a6-4505ae4be75c,3f2d49a9-a245-43b5-a87d-3a85e375fa04,2020-02-28 00:32:11,2.000000
4,0830d042-4c11-42ee-b63a-cdbe94290b8c,f30eccaf-29d0-4037-b329-976816d9b55c,60198b6a-38b1-4d14-9dc6-cfabd8739ec1,17f4e439-f7bd-475d-b39d-722c2138bfbe,2020-02-28 00:33:14,1.000000
5,23516eeb-bb8e-4456-bdca-72128727ea6e,84b6b60d-c05e-4dfc-bcd4-ff5c6a2dbdaa,7cef869b-1a5d-45fb-be88-048988be04bb,59ae9c98-38c6-4b42-ae8d-98ed3199ca0c,2020-02-28 00:34:17,1.000000
6,6d18a8de-451c-4b43-8212-db25305d2586,d78845c5-9851-4baa-99f9-c1c512ac3c6f,dde12b45-ed34-44ae-94bb-170c2ef72427,42deba79-32a0-47ea-8c66-209b3521cbab,2020-02-28 00:35:20,1.000000
7,4e40032c-4bd7-414b-bb4a-d7fb06bbe7f0,a7cde2f0-a790-4c68-9617-41daaf19b4eb,b5cf0ae6-d2f7-4b36-a729-e6c1cd067610,37100cd8-980a-4cdc-90ab-155ed3cec3cb,2020-02-28 00:36:23,1.000000
8,820a631b-fb37-4d2d-b97b-9bee5b0e489f,7da496d5-39e5-4005-a21c-4eb732382acd,3e4b0928-3af7-445c-8a5a-8e7cd567de05,af826aab-7f97-493d-8c26-cc04084a40c2,2020-02-28 00:37:26,2.000000
9,ae066a6c-3af9-491c-8b01-c85a21077cf9,c935a61c-e780-40e2-a36e-e24b2ecfeafd,5c940d94-6f41-4973-89ed-3dda5e6dd12a,38e6e7f6-ffe5-4808-811a-49dd371bc080,2020-02-28 00:38:28,1.000000
10,29b6304f-3d54-4282-a524-acad276c4cf4,b5d16561-54c5-4f98-b174-679dc4950be3,c988642e-c012-47a2-9e23-29ed0f87b978,3119296c-f10b-4ae9-a50d-7261604977ed,2020-02-28 00:39:31,1.000000
11,44a09444-1be7-43d4-b678-02e65e54c543,353977bf-50de-4902-83f0-bba4702627f7,d5880339-d9a1-4ab9-a0b7-190d2c50d4f8,e6b25a33-3cb6-4a1f-9989-23a70df8a480,2020-02-28 00:40:34,1.000000
12,102c4c8c-72a8-4a71-94c0-16ef38b4c844,975c90ff-ff86-4af2-912c-a7afd28ef6fe,2893247c-3bbf-4696-959b-3f2c5afe0921,49856e76-0ebd-4215-94ec-cb53435c5537,2020-02-28 00:41:37,2.000000
13,7449b3ac-008c-42dd-a53a-2c9d858481fb,13240f7e-8a3d-41e0-84fd-39f44d9491a6,6273d06d-defe-41c0-829f-36055bccf8ca,f0b612f3-adc8-45a7-97ac-7748c0848b5d,2020-02-28 00:42:40,1.000000
14,2fb6e0e5-1ecc-47e5-973b-df9cf8926217,34dd5eeb-9968-4f37-93b3-0944b1941469,2c0eb28c-8b21-4969-a12c-265f1ad97841,fa659cde-f0c5-4429-bde2-4fd449569a96,2020-02-28 00:43:43,1.000000
15,f87db1e7-8dad-4f6a-b2c3-872529436638,34518bf1-26e9-4c4b-ac8e-a551b44d4b75,b5d076f9-fc83-48f2-9a5e-b5575b215cb1,db68046f-335d-4033-9395-13c669cc5095,2020-02-28 00:44:46,2.000000
16,1d1af473-3b4a-4a9f-bd39-9ba1eb2ffa72,1b612c62-012f-49eb-acde-a2c1cd6d8739,72dc3f88-1cd4-4c2a-b9b4-ec46ea372142,b828b3a0-eda0-4e36-b6b8-cdcf8b1ba5f3,2020-02-28 00:45:48,2.000000
17,289a5622-08d2-4720-87be-bdc484195fed,370352fd-a4f5-4b3b-a35c-6a3cf6b4f2bd,0062fd06-934a-4c27-bd95-61d8dc320c9a,25985a6c-8a2d-4fa4-b362-ac4fb98eb6a7,2020-02-28 00:46:51,1.000000
18,2717cdbe-39e3-4361-a9e1-d56e0d336bf8,04354443-bce1-4ca3-9173-19db46a668a1,ca24aecd-558c-40df-a082-386c4321001a,0ab44583-f805-4e83-a3fd-60bb232fb417,2020-02-28 00:47:54,2.000000
19,ffcdfba0-eb4b-4dfe-8ba6-f62722105cf3,271bdbdf-6158-4a6b-bffc-38ff3bbfea7b,034d705e-4070-447e-827c-eab9b743afac,43a59433-89db-4d14-be45-72a8043814e9,2020-02-28 00:48:57,1.000000
20,cc5baf68-8479-4dc5-898c-832ca1821a93,f3692049-48ea-4fb4-a8a2-8f585694c282,1468e532-c0c4-4223-a6a6-dde69b758b88,c728ca7e-7750-47e1-8361-f0b9bdf842ef,2020-02-28 00:50:00,2.000000
21,bb40d606-53ac-4e08-9996-6e379208e225,0c5d2df7-2f11-4f94-9eb3-c1d4be5e80de,3bf3ec79-eb69-4ec2-9a93-645e1aeb40ea,ee78c328-337d-48db-8b9e-1e5afcb61a29,2020-02-28 00:51:02,1.000000
22,8993997f-9c90-4c0f-ab06-d2b4b4af75ef,efc8c6bb-9bf6-4fb5-b8c9-cebc6d9dedec,65dd5b63-62e0-494a-9f29-61977943624d,513bcc6e-a733-42c5-98ad-4896f48575d1,2020-02-28 00:52:05,1.000000
23,a8f5d774-c6f9-4b2e-a10b-5062a80ef8d4,6624c426-7aaf-4d79-a0a2-5e203c7a9476,eea2bd0a-5ee3-4c2a-8e9d-1c06df1c6193,d8578071-5ca1-4c33-af63-831c15ff63e7,2020-02-28 00:53:08,1.000000
24,137c824c-fdec-4387-8609-ef5594c98fb5,3080aead-cef9-4267-8832-387803985593,d29681ec-5d63-4e24-a0aa-2677cf9d35fe,86f0a994-0406-46ca-a92e-e00e3e4d50a3,2020-02-28 00:54:11,2.000000
25,1f5224db-c560-40c5-b1be-b48c37a6029f,f4d4fa7a-5f7c-4458-ae83-8af25bd915b3,426e5d47-dd72-4581-8a72-d3da233787a3,12bc024d-9ff0-48df-8c07-4caebed59e9a,2020-02-28 00:55:14,2.000000
26,e6846ccf-8229-4be1-a574-4919622f62ba,9bf9863c-de57-44a9-9f0d-e597bfed62bd,6b99f763-2306-4332-a73e-4712fe63f645,21775c77-4b48-49e4-8601-53206fb4f3d0,2020-02-28 00:56:17,2.000000
27,d2fb0bd5-cb23-4590-882f-496bbb14f5b6,6c1e6d14-9bf8-490c-bc12-71a01352424b,10385b11-a282-4153-ad30-d246cbf0717c,5d01779b-43a7-4b40-8ba3-e51f1431c7bb,2020-02-28 00:57:20,1.000000
28,70e950ac-dc12-4b88-97ae-c8fa461e0071,6c81a51e-81dc-454a-a7e1-65d57e08b581,26ee6c80-0eab-4339-94a1-c0a34b1eab95,ae36f7d8-930d-40ee-b6c0-897cac8c1831,2020-02-28 00:58:23,2.000000
29,6b4001b5-c1dd-4c36-b38b-bdd511d2d611,79ff5795-6ff8-4b8d-92e4-6a09f4b61d06,e572ad77-e13c-4354-a12f-4607c455a535,5c5b1c64-3635-42ae-b812-eb28368972c6,2020-02-28 00:59:25,2.000000
30,cdba780f-4d2f-455d-8129-820f76b0fcd0,efa143f5-7fb8-4f4b-a85e-4622a9813ab4,a2eb61bd-9aa2-4177-bab8-0ab821c5ff79,db96904f-1cca-4e0b-a664-7dba6a625dc6,2020-02-28 01:00:28,2.000000
31,b75ac014-4ce9-40f5-b76e-14f95d65d5a0,3ee928aa-0535-464e-9099-f5137c091a2b,482de86a-36de-4478-bd84-cd49015fda25,65a7b2c2-150d-47a0-b2ce-155bdcfd1183,2020-02-28 01:01:31,2.000000
32,7d97f2dc-0cdd-43c7-b4ab-a376bc3688b6,7b43a807-ee37-4a24-9cc2-2b39e9475b57,15b0149e-22ad-4dcf-aeb1-0f15b57bb459,1946700c-8aa6-4c98-97d2-095b83ad049c,2020-02-28 01:02:34,1.000000
33,2cb14a2a-cd2c-4135-b425-1d3a0a48ca0e,40aecf20-b982-4bb3-9024-1c5241bb2f28,4c62dd4e-e720-4e05-b513-c81f4c617ec3,1cec7170-be65-4f23-a0e9-9bded630ce55,2020-02-28 01:03:37,2.000000
34,c4d7c0be-dcde-40e5-a759-bda877bd7158,ea08d762-7833-4811-87d6-c964ad52476a,aabf7333-d31f-4f8e-bcb3-87099632d9cd,2d472160-fd24-4488-b889-1bfc43acbeb6,2020-02-28 01:04:40,1.000000
35,3e840d62-dd12-4a8e-8104-19a08c36e026,b75dd046-b549-4eb2-8bd9-27df7f6f873c,15618759-c6fe-4277-a3f2-cea04cb0bbd1,218b9866-4ba7-49e2-8347-52c39f6ff0d4,2020-02-28 01:05:42,2.000000
36,ffcfc116-86e5-4998-8fcf-325791bf1a7f,4eac1a34-77c2-49b5-aa70-1dcdce16db4f,0c222d07-da0d-4e52-95fe-332149e17f50,f7c4b78a-33e9-4970-aed0-abc3d2a035d6,2020-02-28 01:06:45,1.000000
37,4c846ad8-0270-4376-8e34-08c085adb598,201147b8-c383-4d30-acce-c4dd645f9aff,3d076e55-ce2b-4943-8f08-a936d583ef4d,7d3b1358-1f7a-4daf-a472-807d966e4e63,2020-02-28 01:07:48,2.000000
38,13d84263-5bb4-4ce2-91f7-9b01459b6a81,3ae6ae72-0dc4-47b0-bf14-c4b2d321ccbf,c28d8e90-931b-4928-bb58-774374ae7b79,556bb6ac-671e-4992-a7dd-76ecb7cc1cf1,2020-02-28 01:08:51,2.000000
39,a6d2b4c3-7e0b-42bb-8db8-56c9c5f85693,4b8f5a8a-861f-4f13-822c-371864ef977a,37b2e6cb-60ed-4cf7-8826-866b59f440e0,0010dc78-7127-42f6-86b2-2e962649dccf,2020-02-28 01:09:54,1.000000
40,06a4ab1b-348b-4bb7-84c6-a27527e344cf,439430f9-82a2-4cd0-8b2d-4f9dd1de7d54,7818a34f-3280-47f8-b4b7-c7c55e41606f,d8e25edc-1424-4ca6-8f12-cb66f89451f3,2020-02-28 01:10:56,1.000000
41,73ed367a-1f29-42bc-979d-c98d944daa80,bc30889a-de4e-4c08-b4f6-264dd638b229,48a1cccd-ca31-4e1a-bf77-dfe075f7ad6c,3f541862-dbfa-42aa-8172-c59f11614c54,2020-02-28 01:11:59,2.000000
42,b8d0734f-0694-49f7-a60c-52be9db52ebf,59ed6a37-1039-43b8-9dce-72675c79c606,c53af45e-88a7-4d50-bf0b-f169dc870c9b,84d9484d-ef2a-4da6-9cf7-1529fe6212fd,2020-02-28 01:13:02,1.000000
43,91b2f081-cb85-4c20-9250-406a2198e813,1cce23f8-38d2-4a28-9564-7a6b4e9a0282,415df7f6-56f4-49b2-b518-19dbdbb87dc1,0c2d96bf-3535-4d7b-881c-b55227fcc2a3,2020-02-28 01:14:05,1.000000
44,3ecb2920-615a-4a48-b466-25096559c66c,8f7a5011-8853-4c14-9ed0-7730fb73f064,772e1214-eff7-48b7-9db1-3efb3acb71b8,c7972fb3-0e69-4e4a-8099-9bdfb19036e4,2020-02-28 01:15:08,1.000000
45,c3366dcc-1c65-4d6b-ac73-91f72fc529d1,6934cf79-111d-440e-a38c-7c0befd925ff,987c95d5-ab2a-4ed1-9194-ce2cb3dd2311,1e4ac5a8-8463-4cc1-9454-e672ca1f4b73,2020-02-28 01:16:10,2.000000
46,08b26aa8-c0d9-49b8-95b8-d6d5b0e2c8e6,f7f94cbe-1b12-4ab3-8846-b809101d8f4d,92a6bbe9-b555-4725-bbd8-c1bc8f58d80c,91ce0459-bb08-4f03-9e18-1709d22480ad,2020-02-28 01:17:13,1.000000
47,7ced155e-f372-4975-a8c7-1bf12cd3c4e7,d37cdcfa-9d68-4f33-8e66-9427ca250ae6,96358f93-80ad-4d43-a049-e96e645d3a70,f54bb358-b926-4193-8734-1cfc0a0969d8,2020-02-28 01:18:16,1.000000
48,0a9b1288-1d73-4504-a692-bd490a6c6687,6f120cb3-6c2c-452e-9e47-964347dfd0ff,3927795a-3c0d-40c9-840c-d32cf2bb9cce,acbef848-2f7c-451a-8ee7-6ac33b2d3278,2020-02-28 01:19:19,2.000000
49,cdb79bb4-324b-43ce-9997-002985cbb260,51a51f30-2008-4d83-a41b-bd15fd5c87df,5584fcc8-b0d2-47f1-bcd2-6970e29ddf1e,2e3812e7-98a0-4a70-9783-4b96d81e5256,2020-02-28 01:20:21,1.000000
50,23df5876-7f46-4602-8754-568fd924b7d7,850306ee-2dd8-449c-bdfd-01ffaa3b6207,86fd7535-f268-4e22-ab31-7a4b6cc4892f,5805874c-dd54-4f71-93c1-c4039056a66b,2020-02-28 01:21:24,2.000000
