date,trigger,state
2019-12-01 20:57:09,10db6690-a8d3-4e8e-b9fb-944e0dfdd0d1,S
2019-12-01 21:02:25,10db6690-a8d3-4e8e-b9fb-944e0dfdd0d1,A
2019-12-01 21:09:08,10db6690-a8d3-4e8e-b9fb-944e0dfdd0d1,S
2019-12-01 21:14:08,10db6690-a8d3-4e8e-b9fb-944e0dfdd0d1,A
2019-12-01 21:15:04,10db6690-a8d3-4e8e-b9fb-944e0dfdd0d1,S
2019-12-01 21:21:51,10db6690-a8d3-4e8e-b9fb-944e0dfdd0d1,A
2019-12-01 21:24:06,10db6690-a8d3-4e8e-b9fb-944e0dfdd0d1,S
2019-12-01 21:30:12,10db6690-a8d3-4e8e-b9fb-944e0dfdd0d1,A
2019-12-01 21:30:14,10db6690-a8d3-4e8e-b9fb-944e0dfdd0d1,S
2019-12-01 21:30:59,10db6690-a8d3-4e8e-b9fb-944e0dfdd0d1,A
2019-12-01 21:34:52,10db6690-a8d3-4e8e-b9fb-944e0dfdd0d1,S
2019-12-01 21:40:28,10db6690-a8d3-4e8e-b9fb-944e0dfdd0d1,A
2019-12-01 21:42:29,10db6690-a8d3-4e8e-b9fb-944e0dfdd0d1,S
2019-12-01 21:45:42,10db6690-a8d3-4e8e-b9fb-944e0dfdd0d1,A
2019-12-01 21:48:34,10db6690-a8d3-4e8e-b9fb-944e0dfdd0d1,S
2019-12-01 21:51:48,10db6690-a8d3-4e8e-b9fb-944e0dfdd0d1,A
2019-12-01 22:00:49,10db6690-a8d3-4e8e-b9fb-944e0dfdd0d1,S
2019-12-01 22:04:23,10db6690-a8d3-4e8e-b9fb-944e0dfdd0d1,A
2019-12-01 22:05:22,10db6690-a8d3-4e8e-b9fb-944e0dfdd0d1,S
2019-12-01 22:08:49,10db6690-a8d3-4e8e-b9fb-944e0dfdd0d1,A
2019-12-01 22:10:47,10db6690-a8d3-4e8e-b9fb-944e0dfdd0d1,S
2019-12-01 22:11:28,10db6690-a8d3-4e8e-b9fb-944e0dfdd0d1,A
2019-12-01 22:18:37,10db6690-a8d3-4e8e-b9fb-944e0dfdd0d1,S
2019-12-01 22:21:01,10db6690-a8d3-4e8e-b9fb-944e0dfdd0d1,A
2019-12-01 20:43:34,cd301c1d-ced3-4710-94c5-01d2ae1713f6,S
2019-12-01 20:55:29,cd301c1d-ced3-4710-94c5-01d2ae1713f6,A
2019-12-01 20:55:48,cd301c1d-ced3-4710-94c5-01d2ae1713f6,S
2019-12-01 21:11:12,cd301c1d-ced3-4710-94c5-01d2ae1713f6,A
2019-12-01 21:14:05,cd301c1d-ced3-4710-94c5-01d2ae1713f6,S
2019-12-01 21:16:04,cd301c1d-ced3-4710-94c5-01d2ae1713f6,A
2019-12-01 21:24:11,cd301c1d-ced3-4710-94c5-01d2ae1713f6,S
2019-12-01 21:25:07,cd301c1d-ced3-4710-94c5-01d2ae1713f6,A
2019-12-01 21:27:20,cd301c1d-ced3-4710-94c5-01d2ae1713f6,S
2019-12-01 21:41:44,cd301c1d-ced3-4710-94c5-01d2ae1713f6,A
2019-12-01 21:47:03,cd301c1d-ced3-4710-94c5-01d2ae1713f6,S
2019-12-01 21:48:36,cd301c1d-ced3-4710-94c5-01d2ae1713f6,A
2019-12-01 21:49:24,cd301c1d-ced3-4710-94c5-01d2ae1713f6,S
2019-12-01 21:51:21,cd301c1d-ced3-4710-94c5-01d2ae1713f6,A
2019-12-01 21:54:38,cd301c1d-ced3-4710-94c5-01d2ae1713f6,S
2019-12-01 21:54:45,cd301c1d-ced3-4710-94c5-01d2ae1713f6,A
2019-12-01 22:07:04,cd301c1d-ced3-4710-94c5-01d2ae1713f6,S
2019-12-01 22:08:24,cd301c1d-ced3-4710-94c5-01d2ae1713f6,A
2019-12-01 22:13:17,cd301c1d-ced3-4710-94c5-01d2ae1713f6,S
2019-12-01 22:16:42,cd301c1d-ced3-4710-94c5-01d2ae1713f6,A
2019-12-01 22:17:56,cd301c1d-ced3-4710-94c5-01d2ae1713f6,S
2019-12-01 22:18:38,cd301c1d-ced3-4710-94c5-01d2ae1713f6,A
2019-12-01 22:31:19,cd301c1d-ced3-4710-94c5-01d2ae1713f6,S
2019-12-01 20:39:16,fde39446-e8ea-4207-bf0a-232753774bb7,S
2019-12-01 20:44:14,fde39446-e8ea-4207-bf0a-232753774bb7,A
2019-12-01 20:44:36,fde39446-e8ea-4207-bf0a-232753774bb7,S
2019-12-01 20:49:20,fde39446-e8ea-4207-bf0a-232753774bb7,A
2019-12-01 20:54:18,fde39446-e8ea-4207-bf0a-232753774bb7,S
2019-12-01 20:56:20,fde39446-e8ea-4207-bf0a-232753774bb7,A
2019-12-01 21:06:24,fde39446-e8ea-4207-bf0a-232753774bb7,S
2019-12-01 21:09:05,fde39446-e8ea-4207-bf0a-232753774bb7,A
2019-12-01 21:10:00,fde39446-e8ea-4207-bf0a-232753774bb7,S
2019-12-01 21:18:02,fde39446-e8ea-4207-bf0a-232753774bb7,A
2019-12-01 21:26:50,fde39446-e8ea-4207-bf0a-232753774bb7,S
2019-12-01 21:29:00,fde39446-e8ea-4207-bf0a-232753774bb7,A
2019-12-01 21:29:10,fde39446-e8ea-4207-bf0a-232753774bb7,S
2019-12-01 21:48:27,fde39446-e8ea-4207-bf0a-232753774bb7,A
2019-12-01 21:50:40,fde39446-e8ea-4207-bf0a-232753774bb7,S
2019-12-01 22:08:15,fde39446-e8ea-4207-bf0a-232753774bb7,A
2019-12-01 22:18:26,fde39446-e8ea-4207-bf0a-232753774bb7,S
2019-12-01 21:18:18,6a54adc8-4464-4f44-8b30-4ae91e9e4651,S
2019-12-01 21:20:37,6a54adc8-4464-4f44-8b30-4ae91e9e4651,A
2019-12-01 21:27:08,6a54adc8-4464-4f44-8b30-4ae91e9e4651,S
2019-12-01 21:28:06,6a54adc8-4464-4f44-8b30-4ae91e9e4651,A
2019-12-01 21:28:27,6a54adc8-4464-4f44-8b30-4ae91e9e4651,S
2019-12-01 21:33:36,6a54adc8-4464-4f44-8b30-4ae91e9e4651,A
2019-12-01 21:38:30,6a54adc8-4464-4f44-8b30-4ae91e9e4651,S
2019-12-01 21:43:10,6a54adc8-4464-4f44-8b30-4ae91e9e4651,A
2019-12-01 21:56:09,6a54adc8-4464-4f44-8b30-4ae91e9e4651,S
2019-12-01 22:13:39,6a54adc8-4464-4f44-8b30-4ae91e9e4651,A
2019-12-01 22:18:22,6a54adc8-4464-4f44-8b30-4ae91e9e4651,S
2019-12-01 22:20:30,6a54adc8-4464-4f44-8b30-4ae91e9e4651,A
2019-12-01 22:21:44,6a54adc8-4464-4f44-8b30-4ae91e9e4651,S
2019-12-01 22:23:06,6a54adc8-4464-4f44-8b30-4ae91e9e4651,A
2019-12-01 22:23:50,6a54adc8-4464-4f44-8b30-4ae91e9e4651,S
2019-12-01 22:24:23,6a54adc8-4464-4f44-8b30-4ae91e9e4651,A
2019-12-01 22:25:28,6a54adc8-4464-4f44-8b30-4ae91e9e4651,S
2019-12-01 22:32:08,6a54adc8-4464-4f44-8b30-4ae91e9e4651,A
2019-12-01 22:32:28,6a54adc8-4464-4f44-8b30-4ae91e9e4651,S
2019-12-01 21:09:24,f4f9a184-4409-4f5e-993f-a4b88ae1b233,S
2019-12-01 21:11:19,f4f9a184-4409-4f5e-993f-a4b88ae1b233,A
2019-12-01 21:11:48,f4f9a184-4409-4f5e-993f-a4b88ae1b233,S
2019-12-01 21:20:07,f4f9a184-4409-4f5e-993f-a4b88ae1b233,A
2019-12-01 21:22:58,f4f9a184-4409-4f5e-993f-a4b88ae1b233,S
2019-12-01 21:10:22,ece8b7db-9621-4c33-9f5d-bb39b431300b,A
2019-12-01 21:19:17,ece8b7db-9621-4c33-9f5d-bb39b431300b,S
2019-12-01 21:30:01,ece8b7db-9621-4c33-9f5d-bb39b431300b,A
2019-12-01 21:35:33,ece8b7db-9621-4c33-9f5d-bb39b431300b,S
2019-12-01 21:38:11,ece8b7db-9621-4c33-9f5d-bb39b431300b,A
2019-12-01 21:38:55,ece8b7db-9621-4c33-9f5d-bb39b431300b,S
2019-12-01 21:43:35,ece8b7db-9621-4c33-9f5d-bb39b431300b,A
2019-12-01 21:45:25,ece8b7db-9621-4c33-9f5d-bb39b431300b,S
2019-12-01 21:58:40,ece8b7db-9621-4c33-9f5d-bb39b431300b,A
2019-12-01 22:00:33,ece8b7db-9621-4c33-9f5d-bb39b431300b,S
2019-12-01 22:06:45,ece8b7db-9621-4c33-9f5d-bb39b431300b,A
2019-12-01 22:09:33,ece8b7db-9621-4c33-9f5d-bb39b431300b,S
2019-12-01 22:11:20,ece8b7db-9621-4c33-9f5d-bb39b431300b,A
2019-12-01 22:11:44,ece8b7db-9621-4c33-9f5d-bb39b431300b,S
2019-12-01 22:12:23,ece8b7db-9621-4c33-9f5d-bb39b431300b,A
2019-12-01 22:24:53,ece8b7db-9621-4c33-9f5d-bb39b431300b,S
2019-12-01 22:24:55,ece8b7db-9621-4c33-9f5d-bb39b431300b,A
2019-12-01 22:25:31,ece8b7db-9621-4c33-9f5d-bb39b431300b,S
2019-12-01 22:26:00,ece8b7db-9621-4c33-9f5d-bb39b431300b,A
2019-12-01 20:27:27,883c2f90-48df-4f97-8231-9372ce2f1a13,A
2019-12-01 20:31:43,883c2f90-48df-4f97-8231-9372ce2f1a13,S
2019-12-01 20:34:00,883c2f90-48df-4f97-8231-9372ce2f1a13,A
2019-12-01 20:41:43,883c2f90-48df-4f97-8231-9372ce2f1a13,S
2019-12-01 20:51:01,883c2f90-48df-4f97-8231-9372ce2f1a13,A
2019-12-01 20:55:23,883c2f90-48df-4f97-8231-9372ce2f1a13,S
2019-12-01 20:59:56,883c2f90-48df-4f97-8231-9372ce2f1a13,A
2019-12-01 21:15:13,883c2f90-48df-4f97-8231-9372ce2f1a13,S
2019-12-01 21:20:06,883c2f90-48df-4f97-8231-9372ce2f1a13,A
2019-12-01 21:32:55,883c2f90-48df-4f97-8231-9372ce2f1a13,S
2019-12-01 21:33:24,883c2f90-48df-4f97-8231-9372ce2f1a13,A
2019-12-01 21:40:37,883c2f90-48df-4f97-8231-9372ce2f1a13,S
2019-12-01 21:48:31,883c2f90-48df-4f97-8231-9372ce2f1a13,A
2019-12-01 21:49:41,883c2f90-48df-4f97-8231-9372ce2f1a13,S
2019-12-01 21:51:14,883c2f90-48df-4f97-8231-9372ce2f1a13,A
2019-12-01 21:51:51,883c2f90-48df-4f97-8231-9372ce2f1a13,S
2019-12-01 21:53:23,883c2f90-48df-4f97-8231-9372ce2f1a13,A
2019-12-01 21:53:59,883c2f90-48df-4f97-8231-9372ce2f1a13,S
2019-12-01 21:54:06,883c2f90-48df-4f97-8231-9372ce2f1a13,A
2019-12-01 21:54:27,883c2f90-48df-4f97-8231-9372ce2f1a13,S
2019-12-01 21:55:24,883c2f90-48df-4f97-8231-9372ce2f1a13,A
2019-12-01 22:02:49,883c2f90-48df-4f97-8231-9372ce2f1a13,S
2019-12-01 22:15:07,883c2f90-48df-4f97-8231-9372ce2f1a13,A
2019-12-01 22:15:45,883c2f90-48df-4f97-8231-9372ce2f1a13,S
2019-12-01 21:09:25,6eb9388d-a1a4-4c45-aae9-8c137776cc6a,A
2019-12-01 21:11:17,6eb9388d-a1a4-4c45-aae9-8c137776cc6a,S
2019-12-01 21:20:45,6eb9388d-a1a4-4c45-aae9-8c137776cc6a,A
2019-12-01 21:34:52,6eb9388d-a1a4-4c45-aae9-8c137776cc6a,S
2019-12-01 21:36:28,6eb9388d-a1a4-4c45-aae9-8c137776cc6a,A
2019-12-01 21:38:02,6eb9388d-a1a4-4c45-aae9-8c137776cc6a,S
2019-12-01 21:39:55,6eb9388d-a1a4-4c45-aae9-8c137776cc6a,A
2019-12-01 21:46:23,6eb9388d-a1a4-4c45-aae9-8c137776cc6a,S
2019-12-01 21:51:17,6eb9388d-a1a4-4c45-aae9-8c137776cc6a,A
2019-12-01 21:58:48,6eb9388d-a1a4-4c45-aae9-8c137776cc6a,S
2019-12-01 21:58:51,6eb9388d-a1a4-4c45-aae9-8c137776cc6a,A
2019-12-01 21:59:10,6eb9388d-a1a4-4c45-aae9-8c137776cc6a,S
2019-12-01 22:01:31,6eb9388d-a1a4-4c45-aae9-8c137776cc6a,A
2019-12-01 22:04:42,6eb9388d-a1a4-4c45-aae9-8c137776cc6a,S
2019-12-01 22:05:28,6eb9388d-a1a4-4c45-aae9-8c137776cc6a,A
2019-12-01 22:16:28,6eb9388d-a1a4-4c45-aae9-8c137776cc6a,S
2019-12-01 22:17:16,6eb9388d-a1a4-4c45-aae9-8c137776cc6a,A
2019-12-01 22:17:42,6eb9388d-a1a4-4c45-aae9-8c137776cc6a,S
2019-12-01 22:19:55,6eb9388d-a1a4-4c45-aae9-8c137776cc6a,A
2019-12-01 22:22:09,6eb9388d-a1a4-4c45-aae9-8c137776cc6a,S
2019-12-01 22:22:28,6eb9388d-a1a4-4c45-aae9-8c137776cc6a,A
2019-12-01 22:31:54,6eb9388d-a1a4-4c45-aae9-8c137776cc6a,S
2019-12-01 20:33:22,4c05fb45-111d-4c3c-9f7e-5abd3d174925,A
2019-12-01 20:36:49,4c05fb45-111d-4c3c-9f7e-5abd3d174925,S
2019-12-01 20:45:23,4c05fb45-111d-4c3c-9f7e-5abd3d174925,A
2019-12-01 20:48:26,4c05fb45-111d-4c3c-9f7e-5abd3d174925,S
2019-12-01 20:48:43,4c05fb45-111d-4c3c-9f7e-5abd3d174925,A
2019-12-01 20:51:11,4c05fb45-111d-4c3c-9f7e-5abd3d174925,S
2019-12-01 20:56:31,4c05fb45-111d-4c3c-9f7e-5abd3d174925,A
2019-12-01 21:00:26,4c05fb45-111d-4c3c-9f7e-5abd3d174925,S
2019-12-01 21:03:11,4c05fb45-111d-4c3c-9f7e-5abd3d174925,A
2019-12-01 21:13:59,4c05fb45-111d-4c3c-9f7e-5abd3d174925,S
2019-12-01 21:19:36,4c05fb45-111d-4c3c-9f7e-5abd3d174925,A
2019-12-01 21:01:49,0f3dc21a-629b-47b5-bf5a-8e6907047dfb,S
2019-12-01 21:14:04,0f3dc21a-629b-47b5-bf5a-8e6907047dfb,A
2019-12-01 21:24:12,0f3dc21a-629b-47b5-bf5a-8e6907047dfb,S
2019-12-01 21:25:30,0f3dc21a-629b-47b5-bf5a-8e6907047dfb,A
2019-12-01 21:27:29,0f3dc21a-629b-47b5-bf5a-8e6907047dfb,S
2019-12-01 21:34:08,0f3dc21a-629b-47b5-bf5a-8e6907047dfb,A
2019-12-01 21:34:55,0f3dc21a-629b-47b5-bf5a-8e6907047dfb,S
2019-12-01 21:37:17,0f3dc21a-629b-47b5-bf5a-8e6907047dfb,A
2019-12-01 21:38:08,0f3dc21a-629b-47b5-bf5a-8e6907047dfb,S
2019-12-01 21:38:30,0f3dc21a-629b-47b5-bf5a-8e6907047dfb,A
2019-12-01 21:38:48,0f3dc21a-629b-47b5-bf5a-8e6907047dfb,S
2019-12-01 21:45:45,0f3dc21a-629b-47b5-bf5a-8e6907047dfb,A
2019-12-01 21:58:35,0f3dc21a-629b-47b5-bf5a-8e6907047dfb,S
2019-12-01 22:03:12,0f3dc21a-629b-47b5-bf5a-8e6907047dfb,A
2019-12-01 22:03:51,0f3dc21a-629b-47b5-bf5a-8e6907047dfb,S
2019-12-01 22:20:46,0f3dc21a-629b-47b5-bf5a-8e6907047dfb,A
2019-12-01 22:23:07,0f3dc21a-629b-47b5-bf5a-8e6907047dfb,S
2019-12-01 22:23:20,0f3dc21a-629b-47b5-bf5a-8e6907047dfb,A
2019-12-01 22:24:40,0f3dc21a-629b-47b5-bf5a-8e6907047dfb,S
2019-12-01 22:27:06,0f3dc21a-629b-47b5-bf5a-8e6907047dfb,A
2019-12-01 22:32:34,0f3dc21a-629b-47b5-bf5a-8e6907047dfb,S
2019-12-01 21:14:13,1e767771-558f-4247-90b9-5d3e5f41da90,A
2019-12-01 21:19:20,1e767771-558f-4247-90b9-5d3e5f41da90,S
2019-12-01 21:20:23,1e767771-558f-4247-90b9-5d3e5f41da90,A
2019-12-01 21:22:19,1e767771-558f-4247-90b9-5d3e5f41da90,S
2019-12-01 21:29:54,1e767771-558f-4247-90b9-5d3e5f41da90,A
2019-12-01 21:31:18,1e767771-558f-4247-90b9-5d3e5f41da90,S
2019-12-01 21:41:12,1e767771-558f-4247-90b9-5d3e5f41da90,A
2019-12-01 21:43:00,1e767771-558f-4247-90b9-5d3e5f41da90,S
2019-12-01 21:47:54,1e767771-558f-4247-90b9-5d3e5f41da90,A
2019-12-01 21:52:18,1e767771-558f-4247-90b9-5d3e5f41da90,S
2019-12-01 22:01:02,1e767771-558f-4247-90b9-5d3e5f41da90,A
2019-12-01 22:02:34,1e767771-558f-4247-90b9-5d3e5f41da90,S
2019-12-01 22:04:27,1e767771-558f-4247-90b9-5d3e5f41da90,A
2019-12-01 22:06:54,1e767771-558f-4247-90b9-5d3e5f41da90,S
2019-12-01 22:11:08,1e767771-558f-4247-90b9-5d3e5f41da90,A
2019-12-01 22:16:57,1e767771-558f-4247-90b9-5d3e5f41da90,S
2019-12-01 22:22:27,1e767771-558f-4247-90b9-5d3e5f41da90,A
2019-12-01 22:31:40,1e767771-558f-4247-90b9-5d3e5f41da90,S
2019-12-01 21:01:11,d1ba724d-7e2c-4697-8241-486abe35f48e,A
2019-12-01 21:12:42,d1ba724d-7e2c-4697-8241-486abe35f48e,S
2019-12-01 21:22:38,d1ba724d-7e2c-4697-8241-486abe35f48e,A
2019-12-01 21:28:06,d1ba724d-7e2c-4697-8241-486abe35f48e,S
2019-12-01 21:28:49,d1ba724d-7e2c-4697-8241-486abe35f48e,A
2019-12-01 21:29:45,d1ba724d-7e2c-4697-8241-486abe35f48e,S
2019-12-01 21:31:43,d1ba724d-7e2c-4697-8241-486abe35f48e,A
2019-12-01 21:33:03,d1ba724d-7e2c-4697-8241-486abe35f48e,S
2019-12-01 21:40:23,d1ba724d-7e2c-4697-8241-486abe35f48e,A
2019-12-01 21:42:16,d1ba724d-7e2c-4697-8241-486abe35f48e,S
2019-12-01 21:43:59,d1ba724d-7e2c-4697-8241-486abe35f48e,A
2019-12-01 21:59:24,d1ba724d-7e2c-4697-8241-486abe35f48e,S
2019-12-01 22:05:17,d1ba724d-7e2c-4697-8241-486abe35f48e,A
2019-12-01 22:09:50,d1ba724d-7e2c-4697-8241-486abe35f48e,S
2019-12-01 22:10:54,d1ba724d-7e2c-4697-8241-486abe35f48e,A
2019-12-01 22:13:14,d1ba724d-7e2c-4697-8241-486abe35f48e,S
2019-12-01 22:16:53,d1ba724d-7e2c-4697-8241-486abe35f48e,A
2019-12-01 22:18:54,d1ba724d-7e2c-4697-8241-486abe35f48e,S
2019-12-01 22:19:02,d1ba724d-7e2c-4697-8241-486abe35f48e,A
2019-12-01 22:28:08,d1ba724d-7e2c-4697-8241-486abe35f48e,S
2019-12-01 20:46:41,b1708a74-059d-4563-973b-1ecd2e3149df,S
2019-12-01 20:58:46,b1708a74-059d-4563-973b-1ecd2e3149df,A
2019-12-01 21:17:08,b1708a74-059d-4563-973b-1ecd2e3149df,S
2019-12-01 21:19:31,b1708a74-059d-4563-973b-1ecd2e3149df,A
2019-12-01 21:22:50,b1708a74-059d-4563-973b-1ecd2e3149df,S
2019-12-01 21:26:09,b1708a74-059d-4563-973b-1ecd2e3149df,A
2019-12-01 21:37:39,b1708a74-059d-4563-973b-1ecd2e3149df,S
2019-12-01 21:38:28,b1708a74-059d-4563-973b-1ecd2e3149df,A
2019-12-01 21:40:07,b1708a74-059d-4563-973b-1ecd2e3149df,S
2019-12-01 21:41:00,b1708a74-059d-4563-973b-1ecd2e3149df,A
2019-12-01 21:58:24,b1708a74-059d-4563-973b-1ecd2e3149df,S
2019-12-01 21:58:30,b1708a74-059d-4563-973b-1ecd2e3149df,A
2019-12-01 22:01:39,b1708a74-059d-4563-973b-1ecd2e3149df,S
2019-12-01 22:05:06,b1708a74-059d-4563-973b-1ecd2e3149df,A
2019-12-01 22:07:20,b1708a74-059d-4563-973b-1ecd2e3149df,S
2019-12-01 22:13:17,b1708a74-059d-4563-973b-1ecd2e3149df,A
2019-12-01 22:14:39,b1708a74-059d-4563-973b-1ecd2e3149df,S
2019-12-01 22:18:35,b1708a74-059d-4563-973b-1ecd2e3149df,A
2019-12-01 22:24:08,b1708a74-059d-4563-973b-1ecd2e3149df,S
2019-12-01 20:31:00,6a35dcc8-5ab5-49ab-a487-90958f2df79e,A
2019-12-01 20:47:03,6a35dcc8-5ab5-49ab-a487-90958f2df79e,S
2019-12-01 20:50:17,6a35dcc8-5ab5-49ab-a487-90958f2df79e,A
2019-12-01 20:53:03,6a35dcc8-5ab5-49ab-a487-90958f2df79e,S
2019-12-01 20:53:33,6a35dcc8-5ab5-49ab-a487-90958f2df79e,A
2019-12-01 21:07:31,6a35dcc8-5ab5-49ab-a487-90958f2df79e,S
2019-12-01 21:11:01,6a35dcc8-5ab5-49ab-a487-90958f2df79e,A
2019-12-01 21:13:52,6a35dcc8-5ab5-49ab-a487-90958f2df79e,S
2019-12-01 21:17:52,6a35dcc8-5ab5-49ab-a487-90958f2df79e,A
2019-12-01 21:31:16,6a35dcc8-5ab5-49ab-a487-90958f2df79e,S
2019-12-01 21:31:27,6a35dcc8-5ab5-49ab-a487-90958f2df79e,A
2019-12-01 21:40:09,6a35dcc8-5ab5-49ab-a487-90958f2df79e,S
2019-12-01 21:44:25,6a35dcc8-5ab5-49ab-a487-90958f2df79e,A
2019-12-01 21:51:02,6a35dcc8-5ab5-49ab-a487-90958f2df79e,S
2019-12-01 21:53:33,6a35dcc8-5ab5-49ab-a487-90958f2df79e,A
2019-12-01 22:04:45,6a35dcc8-5ab5-49ab-a487-90958f2df79e,S
2019-12-01 22:06:39,6a35dcc8-5ab5-49ab-a487-90958f2df79e,A
2019-12-01 22:07:37,6a35dcc8-5ab5-49ab-a487-90958f2df79e,S
2019-12-01 22:10:29,6a35dcc8-5ab5-49ab-a487-90958f2df79e,A
2019-12-01 22:16:28,6a35dcc8-5ab5-49ab-a487-90958f2df79e,S
2019-12-01 22:25:16,6a35dcc8-5ab5-49ab-a487-90958f2df79e,A
2019-12-01 22:28:19,6a35dcc8-5ab5-49ab-a487-90958f2df79e,S
2019-12-01 22:30:10,6a35dcc8-5ab5-49ab-a487-90958f2df79e,A
2019-12-01 22:32:19,6a35dcc8-5ab5-49ab-a487-90958f2df79e,S
2019-12-01 20:39:05,a0fbe18d-02f3-46e5-ac1a-f70803cb6575,S
2019-12-01 20:42:33,a0fbe18d-02f3-46e5-ac1a-f70803cb6575,A
2019-12-01 20:48:35,a0fbe18d-02f3-46e5-ac1a-f70803cb6575,S
2019-12-01 20:58:32,a0fbe18d-02f3-46e5-ac1a-f70803cb6575,A
2019-12-01 21:18:40,a0fbe18d-02f3-46e5-ac1a-f70803cb6575,S
2019-12-01 21:24:36,a0fbe18d-02f3-46e5-ac1a-f70803cb6575,A
2019-12-01 21:35:25,a0fbe18d-02f3-46e5-ac1a-f70803cb6575,S
2019-12-01 21:40:50,a0fbe18d-02f3-46e5-ac1a-f70803cb6575,A
2019-12-01 21:45:07,a0fbe18d-02f3-46e5-ac1a-f70803cb6575,S
2019-12-01 21:50:40,a0fbe18d-02f3-46e5-ac1a-f70803cb6575,A
2019-12-01 21:50:52,a0fbe18d-02f3-46e5-ac1a-f70803cb6575,S
2019-12-01 21:52:36,a0fbe18d-02f3-46e5-ac1a-f70803cb6575,A
2019-12-01 21:58:31,a0fbe18d-02f3-46e5-ac1a-f70803cb6575,S
2019-12-01 22:00:13,a0fbe18d-02f3-46e5-ac1a-f70803cb6575,A
2019-12-01 22:04:45,a0fbe18d-02f3-46e5-ac1a-f70803cb6575,S
2019-12-01 22:08:19,a0fbe18d-02f3-46e5-ac1a-f70803cb6575,A
2019-12-01 22:13:37,a0fbe18d-02f3-46e5-ac1a-f70803cb6575,S
2019-12-01 22:21:21,a0fbe18d-02f3-46e5-ac1a-f70803cb6575,A
2019-12-01 20:41:36,2fe2ff45-a6a1-4dd6-a7a0-e2a7572c3c0e,S
2019-12-01 20:47:49,2fe2ff45-a6a1-4dd6-a7a0-e2a7572c3c0e,A
2019-12-01 20:52:12,2fe2ff45-a6a1-4dd6-a7a0-e2a7572c3c0e,S
2019-12-01 21:02:44,2fe2ff45-a6a1-4dd6-a7a0-e2a7572c3c0e,A
2019-12-01 21:03:04,2fe2ff45-a6a1-4dd6-a7a0-e2a7572c3c0e,S
2019-12-01 21:08:33,2fe2ff45-a6a1-4dd6-a7a0-e2a7572c3c0e,A
2019-12-01 21:09:07,2fe2ff45-a6a1-4dd6-a7a0-e2a7572c3c0e,S
2019-12-01 21:09:44,2fe2ff45-a6a1-4dd6-a7a0-e2a7572c3c0e,A
2019-12-01 21:12:16,2fe2ff45-a6a1-4dd6-a7a0-e2a7572c3c0e,S
2019-12-01 21:12:36,2fe2ff45-a6a1-4dd6-a7a0-e2a7572c3c0e,A
2019-12-01 21:13:27,2fe2ff45-a6a1-4dd6-a7a0-e2a7572c3c0e,S
2019-12-01 21:29:00,2fe2ff45-a6a1-4dd6-a7a0-e2a7572c3c0e,A
2019-12-01 20:28:37,443fda19-4e38-4430-b74d-98c801696e4e,S
2019-12-01 20:29:43,443fda19-4e38-4430-b74d-98c801696e4e,A
2019-12-01 20:30:57,443fda19-4e38-4430-b74d-98c801696e4e,S
2019-12-01 20:34:35,443fda19-4e38-4430-b74d-98c801696e4e,A
2019-12-01 20:37:19,443fda19-4e38-4430-b74d-98c801696e4e,S
2019-12-01 20:42:29,443fda19-4e38-4430-b74d-98c801696e4e,A
2019-12-01 20:43:47,443fda19-4e38-4430-b74d-98c801696e4e,S
2019-12-01 20:49:46,443fda19-4e38-4430-b74d-98c801696e4e,A
2019-12-01 21:01:03,443fda19-4e38-4430-b74d-98c801696e4e,S
2019-12-01 21:04:44,443fda19-4e38-4430-b74d-98c801696e4e,A
2019-12-01 21:09:16,443fda19-4e38-4430-b74d-98c801696e4e,S
2019-12-01 21:20:43,443fda19-4e38-4430-b74d-98c801696e4e,A
2019-12-01 21:34:10,443fda19-4e38-4430-b74d-98c801696e4e,S
2019-12-01 21:35:08,443fda19-4e38-4430-b74d-98c801696e4e,A
2019-12-01 21:36:41,443fda19-4e38-4430-b74d-98c801696e4e,S
2019-12-01 21:37:27,443fda19-4e38-4430-b74d-98c801696e4e,A
2019-12-01 21:38:36,443fda19-4e38-4430-b74d-98c801696e4e,S
2019-12-01 21:47:12,443fda19-4e38-4430-b74d-98c801696e4e,A
2019-12-01 21:49:10,443fda19-4e38-4430-b74d-98c801696e4e,S
2019-12-01 21:50:58,443fda19-4e38-4430-b74d-98c801696e4e,A
2019-12-01 21:55:46,443fda19-4e38-4430-b74d-98c801696e4e,S
2019-12-01 22:04:39,443fda19-4e38-4430-b74d-98c801696e4e,A
2019-12-01 22:15:31,443fda19-4e38-4430-b74d-98c801696e4e,S
2019-12-01 22:19:27,443fda19-4e38-4430-b74d-98c801696e4e,A
2019-12-01 22:19:45,443fda19-4e38-4430-b74d-98c801696e4e,S
2019-12-01 22:25:24,443fda19-4e38-4430-b74d-98c801696e4e,A
2019-12-01 22:31:49,443fda19-4e38-4430-b74d-98c801696e4e,S
2019-12-01 22:31:50,443fda19-4e38-4430-b74d-98c801696e4e,A
2019-12-01 21:10:14,c16a8443-26b7-4d6a-896f-029b0c6a8ae7,A
2019-12-01 21:24:57,c16a8443-26b7-4d6a-896f-029b0c6a8ae7,S
2019-12-01 21:27:03,c16a8443-26b7-4d6a-896f-029b0c6a8ae7,A
2019-12-01 21:36:09,c16a8443-26b7-4d6a-896f-029b0c6a8ae7,S
2019-12-01 21:47:41,c16a8443-26b7-4d6a-896f-029b0c6a8ae7,A
2019-12-01 21:53:53,c16a8443-26b7-4d6a-896f-029b0c6a8ae7,S
2019-12-01 22:00:34,c16a8443-26b7-4d6a-896f-029b0c6a8ae7,A
2019-12-01 22:00:58,c16a8443-26b7-4d6a-896f-029b0c6a8ae7,S
2019-12-01 22:02:05,c16a8443-26b7-4d6a-896f-029b0c6a8ae7,A
2019-12-01 22:06:25,c16a8443-26b7-4d6a-896f-029b0c6a8ae7,S
2019-12-01 22:06:56,c16a8443-26b7-4d6a-896f-029b0c6a8ae7,A
2019-12-01 22:13:35,c16a8443-26b7-4d6a-896f-029b0c6a8ae7,S
2019-12-01 22:16:18,c16a8443-26b7-4d6a-896f-029b0c6a8ae7,A
2019-12-01 22:18:05,c16a8443-26b7-4d6a-896f-029b0c6a8ae7,S
2019-12-01 22:21:52,c16a8443-26b7-4d6a-896f-029b0c6a8ae7,A
2019-12-01 22:28:08,c16a8443-26b7-4d6a-896f-029b0c6a8ae7,S
2019-12-01 22:28:21,c16a8443-26b7-4d6a-896f-029b0c6a8ae7,A
2019-12-01 22:30:56,c16a8443-26b7-4d6a-896f-029b0c6a8ae7,S
2019-12-01 20:31:23,1dee10fe-70f5-46db-9709-5dfd4579955a,S
2019-12-01 20:35:26,1dee10fe-70f5-46db-9709-5dfd4579955a,A
2019-12-01 20:36:16,1dee10fe-70f5-46db-9709-5dfd4579955a,S
2019-12-01 20:41:29,1dee10fe-70f5-46db-9709-5dfd4579955a,A
2019-12-01 20:46:22,1dee10fe-70f5-46db-9709-5dfd4579955a,S
2019-12-01 20:51:20,1dee10fe-70f5-46db-9709-5dfd4579955a,A
2019-12-01 20:53:55,1dee10fe-70f5-46db-9709-5dfd4579955a,S
2019-12-01 20:54:41,1dee10fe-70f5-46db-9709-5dfd4579955a,A
2019-12-01 21:05:17,1dee10fe-70f5-46db-9709-5dfd4579955a,S
2019-12-01 21:05:41,1dee10fe-70f5-46db-9709-5dfd4579955a,A
2019-12-01 21:13:19,1dee10fe-70f5-46db-9709-5dfd4579955a,S
2019-12-01 21:18:39,1dee10fe-70f5-46db-9709-5dfd4579955a,A
2019-12-01 21:19:08,1dee10fe-70f5-46db-9709-5dfd4579955a,S
2019-12-01 21:25:30,1dee10fe-70f5-46db-9709-5dfd4579955a,A
2019-12-01 21:27:35,1dee10fe-70f5-46db-9709-5dfd4579955a,S
2019-12-01 21:27:48,1dee10fe-70f5-46db-9709-5dfd4579955a,A
2019-12-01 21:32:51,1dee10fe-70f5-46db-9709-5dfd4579955a,S
2019-12-01 21:33:32,1dee10fe-70f5-46db-9709-5dfd4579955a,A
2019-12-01 21:50:39,1dee10fe-70f5-46db-9709-5dfd4579955a,S
2019-12-01 21:52:55,1dee10fe-70f5-46db-9709-5dfd4579955a,A
2019-12-01 21:53:15,1dee10fe-70f5-46db-9709-5dfd4579955a,S
2019-12-01 21:56:40,1dee10fe-70f5-46db-9709-5dfd4579955a,A
2019-12-01 21:56:51,1dee10fe-70f5-46db-9709-5dfd4579955a,S
2019-12-01 22:03:52,1dee10fe-70f5-46db-9709-5dfd4579955a,A
2019-12-01 22:09:41,1dee10fe-70f5-46db-9709-5dfd4579955a,S
2019-12-01 22:30:24,1dee10fe-70f5-46db-9709-5dfd4579955a,A
2019-12-01 22:31:40,1dee10fe-70f5-46db-9709-5dfd4579955a,S
2019-12-01 20:59:32,6c0c8c1d-867c-48fb-9b00-f5e3e1dc8949,S
2019-12-01 21:03:41,6c0c8c1d-867c-48fb-9b00-f5e3e1dc8949,A
2019-12-01 21:11:09,6c0c8c1d-867c-48fb-9b00-f5e3e1dc8949,S
2019-12-01 21:15:21,6c0c8c1d-867c-48fb-9b00-f5e3e1dc8949,A
2019-12-01 21:15:36,6c0c8c1d-867c-48fb-9b00-f5e3e1dc8949,S
2019-12-01 21:25:04,6c0c8c1d-867c-48fb-9b00-f5e3e1dc8949,A
2019-12-01 21:28:05,6c0c8c1d-867c-48fb-9b00-f5e3e1dc8949,S
2019-12-01 21:29:33,6c0c8c1d-867c-48fb-9b00-f5e3e1dc8949,A
2019-12-01 21:31:16,6c0c8c1d-867c-48fb-9b00-f5e3e1dc8949,S
2019-12-01 21:40:56,6c0c8c1d-867c-48fb-9b00-f5e3e1dc8949,A
2019-12-01 21:45:47,6c0c8c1d-867c-48fb-9b00-f5e3e1dc8949,S
2019-12-01 21:47:30,6c0c8c1d-867c-48fb-9b00-f5e3e1dc8949,A
2019-12-01 21:48:26,6c0c8c1d-867c-48fb-9b00-f5e3e1dc8949,S
2019-12-01 21:53:54,6c0c8c1d-867c-48fb-9b00-f5e3e1dc8949,A
2019-12-01 21:58:29,6c0c8c1d-867c-48fb-9b00-f5e3e1dc8949,S
2019-12-01 22:03:10,6c0c8c1d-867c-48fb-9b00-f5e3e1dc8949,A
2019-12-01 22:11:10,6c0c8c1d-867c-48fb-9b00-f5e3e1dc8949,S
2019-12-01 22:16:22,6c0c8c1d-867c-48fb-9b00-f5e3e1dc8949,A
2019-12-01 22:19:41,6c0c8c1d-867c-48fb-9b00-f5e3e1dc8949,S
2019-12-01 22:32:28,6c0c8c1d-867c-48fb-9b00-f5e3e1dc8949,A
2019-12-01 21:15:00,4c285c65-30c2-490f-9d99-85318bb359a4,S
2019-12-01 21:17:12,4c285c65-30c2-490f-9d99-85318bb359a4,A
2019-12-01 21:19:57,4c285c65-30c2-490f-9d99-85318bb359a4,S
2019-12-01 21:36:53,4c285c65-30c2-490f-9d99-85318bb359a4,A
2019-12-01 21:38:34,4c285c65-30c2-490f-9d99-85318bb359a4,S
2019-12-01 21:39:40,4c285c65-30c2-490f-9d99-85318bb359a4,A
2019-12-01 21:44:55,4c285c65-30c2-490f-9d99-85318bb359a4,S
2019-12-01 21:53:33,4c285c65-30c2-490f-9d99-85318bb359a4,A
2019-12-01 21:55:30,4c285c65-30c2-490f-9d99-85318bb359a4,S
2019-12-01 22:03:05,4c285c65-30c2-490f-9d99-85318bb359a4,A
2019-12-01 22:03:54,4c285c65-30c2-490f-9d99-85318bb359a4,S
2019-12-01 22:15:41,4c285c65-30c2-490f-9d99-85318bb359a4,A
2019-12-01 22:23:33,4c285c65-30c2-490f-9d99-85318bb359a4,S
2019-12-01 22:25:12,4c285c65-30c2-490f-9d99-85318bb359a4,A
2019-12-01 22:29:01,4c285c65-30c2-490f-9d99-85318bb359a4,S
2019-12-01 22:31:19,4c285c65-30c2-490f-9d99-85318bb359a4,A
2019-12-01 21:16:12,b037526c-f1f5-4376-b2eb-5c83e5d127d9,S
2019-12-01 21:17:01,b037526c-f1f5-4376-b2eb-5c83e5d127d9,A
2019-12-01 21:29:37,b037526c-f1f5-4376-b2eb-5c83e5d127d9,S
2019-12-01 21:30:43,b037526c-f1f5-4376-b2eb-5c83e5d127d9,A
2019-12-01 21:32:48,b037526c-f1f5-4376-b2eb-5c83e5d127d9,S
2019-12-01 21:57:41,b037526c-f1f5-4376-b2eb-5c83e5d127d9,A
2019-12-01 22:09:31,b037526c-f1f5-4376-b2eb-5c83e5d127d9,S
2019-12-01 22:13:52,b037526c-f1f5-4376-b2eb-5c83e5d127d9,A
2019-12-01 22:13:53,b037526c-f1f5-4376-b2eb-5c83e5d127d9,S
2019-12-01 22:18:02,b037526c-f1f5-4376-b2eb-5c83e5d127d9,A
2019-12-01 22:22:14,b037526c-f1f5-4376-b2eb-5c83e5d127d9,S
2019-12-01 22:31:36,b037526c-f1f5-4376-b2eb-5c83e5d127d9,A
2019-12-01 21:18:26,988c5067-b714-4f0e-beaa-e33740f4a41c,S
2019-12-01 21:19:40,988c5067-b714-4f0e-beaa-e33740f4a41c,A
2019-12-01 21:25:25,988c5067-b714-4f0e-beaa-e33740f4a41c,S
2019-12-01 21:38:45,988c5067-b714-4f0e-beaa-e33740f4a41c,A
2019-12-01 21:46:30,988c5067-b714-4f0e-beaa-e33740f4a41c,S
2019-12-01 21:49:01,988c5067-b714-4f0e-beaa-e33740f4a41c,A
2019-12-01 22:05:23,988c5067-b714-4f0e-beaa-e33740f4a41c,S
2019-12-01 22:11:31,988c5067-b714-4f0e-beaa-e33740f4a41c,A
2019-12-01 22:26:20,988c5067-b714-4f0e-beaa-e33740f4a41c,S
2019-12-01 22:31:34,988c5067-b714-4f0e-beaa-e33740f4a41c,A
2019-12-01 22:34:07,988c5067-b714-4f0e-beaa-e33740f4a41c,S
2019-12-01 20:45:56,03286cee-2f20-459a-a690-9e6c02a5daa6,A
2019-12-01 20:52:48,03286cee-2f20-459a-a690-9e6c02a5daa6,S
2019-12-01 20:57:35,03286cee-2f20-459a-a690-9e6c02a5daa6,A
2019-12-01 21:04:09,03286cee-2f20-459a-a690-9e6c02a5daa6,S
2019-12-01 21:10:03,03286cee-2f20-459a-a690-9e6c02a5daa6,A
2019-12-01 21:20:41,03286cee-2f20-459a-a690-9e6c02a5daa6,S
2019-12-01 21:27:57,03286cee-2f20-459a-a690-9e6c02a5daa6,A
2019-12-01 21:30:23,03286cee-2f20-459a-a690-9e6c02a5daa6,S
2019-12-01 21:32:04,03286cee-2f20-459a-a690-9e6c02a5daa6,A
2019-12-01 21:36:42,03286cee-2f20-459a-a690-9e6c02a5daa6,S
2019-12-01 21:41:42,03286cee-2f20-459a-a690-9e6c02a5daa6,A
2019-12-01 21:51:38,03286cee-2f20-459a-a690-9e6c02a5daa6,S
2019-12-01 21:51:41,03286cee-2f20-459a-a690-9e6c02a5daa6,A
2019-12-01 21:56:21,03286cee-2f20-459a-a690-9e6c02a5daa6,S
2019-12-01 21:58:06,03286cee-2f20-459a-a690-9e6c02a5daa6,A
2019-12-01 22:04:48,03286cee-2f20-459a-a690-9e6c02a5daa6,S
2019-12-01 22:04:55,03286cee-2f20-459a-a690-9e6c02a5daa6,A
2019-12-01 22:07:37,03286cee-2f20-459a-a690-9e6c02a5daa6,S
2019-12-01 22:14:30,03286cee-2f20-459a-a690-9e6c02a5daa6,A
2019-12-01 20:43:31,e1c1dac8-1e95-47f7-8d3e-3c7842452d65,A
2019-12-01 20:46:22,e1c1dac8-1e95-47f7-8d3e-3c7842452d65,S
2019-12-01 20:51:29,e1c1dac8-1e95-47f7-8d3e-3c7842452d65,A
2019-12-01 21:06:56,e1c1dac8-1e95-47f7-8d3e-3c7842452d65,S
2019-12-01 21:15:59,e1c1dac8-1e95-47f7-8d3e-3c7842452d65,A
2019-12-01 21:25:42,e1c1dac8-1e95-47f7-8d3e-3c7842452d65,S
2019-12-01 21:34:13,e1c1dac8-1e95-47f7-8d3e-3c7842452d65,A
2019-12-01 21:34:58,e1c1dac8-1e95-47f7-8d3e-3c7842452d65,S
2019-12-01 21:35:17,e1c1dac8-1e95-47f7-8d3e-3c7842452d65,A
2019-12-01 21:43:56,e1c1dac8-1e95-47f7-8d3e-3c7842452d65,S
2019-12-01 21:46:55,e1c1dac8-1e95-47f7-8d3e-3c7842452d65,A
2019-12-01 21:46:57,e1c1dac8-1e95-47f7-8d3e-3c7842452d65,S
2019-12-01 21:48:09,e1c1dac8-1e95-47f7-8d3e-3c7842452d65,A
2019-12-01 21:49:58,e1c1dac8-1e95-47f7-8d3e-3c7842452d65,S
2019-12-01 21:51:49,e1c1dac8-1e95-47f7-8d3e-3c7842452d65,A
2019-12-01 21:52:48,e1c1dac8-1e95-47f7-8d3e-3c7842452d65,S
2019-12-01 21:54:32,e1c1dac8-1e95-47f7-8d3e-3c7842452d65,A
2019-12-01 22:03:47,e1c1dac8-1e95-47f7-8d3e-3c7842452d65,S
2019-12-01 22:05:54,e1c1dac8-1e95-47f7-8d3e-3c7842452d65,A
2019-12-01 22:06:53,e1c1dac8-1e95-47f7-8d3e-3c7842452d65,S
2019-12-01 22:09:19,e1c1dac8-1e95-47f7-8d3e-3c7842452d65,A
2019-12-01 22:18:05,e1c1dac8-1e95-47f7-8d3e-3c7842452d65,S
2019-12-01 22:20:22,e1c1dac8-1e95-47f7-8d3e-3c7842452d65,A
2019-12-01 22:25:14,e1c1dac8-1e95-47f7-8d3e-3c7842452d65,S
2019-12-01 22:25:22,e1c1dac8-1e95-47f7-8d3e-3c7842452d65,A
2019-12-01 22:26:00,e1c1dac8-1e95-47f7-8d3e-3c7842452d65,S
2019-12-01 22:29:30,e1c1dac8-1e95-47f7-8d3e-3c7842452d65,A
2019-12-01 22:30:56,e1c1dac8-1e95-47f7-8d3e-3c7842452d65,S
2019-12-01 20:44:01,3ce9cb33-60e7-49aa-a8ad-7d44dce6e8ca,A
2019-12-01 20:47:27,3ce9cb33-60e7-49aa-a8ad-7d44dce6e8ca,S
2019-12-01 20:52:32,3ce9cb33-60e7-49aa-a8ad-7d44dce6e8ca,A
2019-12-01 20:54:22,3ce9cb33-60e7-49aa-a8ad-7d44dce6e8ca,S
2019-12-01 21:04:53,3ce9cb33-60e7-49aa-a8ad-7d44dce6e8ca,A
2019-12-01 21:05:28,3ce9cb33-60e7-49aa-a8ad-7d44dce6e8ca,S
2019-12-01 21:13:53,3ce9cb33-60e7-49aa-a8ad-7d44dce6e8ca,A
2019-12-01 21:16:13,3ce9cb33-60e7-49aa-a8ad-7d44dce6e8ca,S
2019-12-01 21:24:37,3ce9cb33-60e7-49aa-a8ad-7d44dce6e8ca,A
2019-12-01 21:43:03,3ce9cb33-60e7-49aa-a8ad-7d44dce6e8ca,S
2019-12-01 21:44:19,3ce9cb33-60e7-49aa-a8ad-7d44dce6e8ca,A
2019-12-01 21:44:30,3ce9cb33-60e7-49aa-a8ad-7d44dce6e8ca,S
2019-12-01 21:47:42,3ce9cb33-60e7-49aa-a8ad-7d44dce6e8ca,A
2019-12-01 21:56:32,3ce9cb33-60e7-49aa-a8ad-7d44dce6e8ca,S
2019-12-01 22:11:38,3ce9cb33-60e7-49aa-a8ad-7d44dce6e8ca,A
2019-12-01 22:11:55,3ce9cb33-60e7-49aa-a8ad-7d44dce6e8ca,S
2019-12-01 22:22:27,3ce9cb33-60e7-49aa-a8ad-7d44dce6e8ca,A
2019-12-01 21:01:11,ce6cc142-4b9a-4323-8cff-611d8abba640,S
2019-12-01 21:01:53,ce6cc142-4b9a-4323-8cff-611d8abba640,A
2019-12-01 21:17:34,ce6cc142-4b9a-4323-8cff-611d8abba640,S
2019-12-01 21:24:48,ce6cc142-4b9a-4323-8cff-611d8abba640,A
2019-12-01 21:25:10,ce6cc142-4b9a-4323-8cff-611d8abba640,S
2019-12-01 21:25:40,ce6cc142-4b9a-4323-8cff-611d8abba640,A
2019-12-01 21:26:46,ce6cc142-4b9a-4323-8cff-611d8abba640,S
2019-12-01 21:34:34,ce6cc142-4b9a-4323-8cff-611d8abba640,A
2019-12-01 21:37:04,ce6cc142-4b9a-4323-8cff-611d8abba640,S
2019-12-01 21:38:02,ce6cc142-4b9a-4323-8cff-611d8abba640,A
2019-12-01 21:43:01,ce6cc142-4b9a-4323-8cff-611d8abba640,S
2019-12-01 21:46:27,ce6cc142-4b9a-4323-8cff-611d8abba640,A
2019-12-01 21:54:09,ce6cc142-4b9a-4323-8cff-611d8abba640,S
2019-12-01 21:57:41,ce6cc142-4b9a-4323-8cff-611d8abba640,A
2019-12-01 21:58:45,ce6cc142-4b9a-4323-8cff-611d8abba640,S
2019-12-01 22:00:03,ce6cc142-4b9a-4323-8cff-611d8abba640,A
2019-12-01 22:09:12,ce6cc142-4b9a-4323-8cff-611d8abba640,S
2019-12-01 22:10:19,ce6cc142-4b9a-4323-8cff-611d8abba640,A
2019-12-01 22:12:57,ce6cc142-4b9a-4323-8cff-611d8abba640,S
2019-12-01 22:15:04,ce6cc142-4b9a-4323-8cff-611d8abba640,A
2019-12-01 22:23:36,ce6cc142-4b9a-4323-8cff-611d8abba640,S
2019-12-01 22:25:50,ce6cc142-4b9a-4323-8cff-611d8abba640,A
2019-12-01 22:30:47,ce6cc142-4b9a-4323-8cff-611d8abba640,S
2019-12-01 22:34:14,ce6cc142-4b9a-4323-8cff-611d8abba640,A
2019-12-01 20:57:28,83a6f418-f86c-45aa-9039-ae1763d52c47,S
2019-12-01 21:01:46,83a6f418-f86c-45aa-9039-ae1763d52c47,A
2019-12-01 21:15:29,83a6f418-f86c-45aa-9039-ae1763d52c47,S
2019-12-01 21:15:52,83a6f418-f86c-45aa-9039-ae1763d52c47,A
2019-12-01 21:03:49,42051b06-b8ff-45de-af17-aa65069f17f0,A
2019-12-01 21:04:29,42051b06-b8ff-45de-af17-aa65069f17f0,S
2019-12-01 21:06:04,42051b06-b8ff-45de-af17-aa65069f17f0,A
2019-12-01 21:20:17,42051b06-b8ff-45de-af17-aa65069f17f0,S
2019-12-01 21:22:24,42051b06-b8ff-45de-af17-aa65069f17f0,A
2019-12-01 21:24:51,42051b06-b8ff-45de-af17-aa65069f17f0,S
2019-12-01 21:32:29,42051b06-b8ff-45de-af17-aa65069f17f0,A
2019-12-01 21:36:09,42051b06-b8ff-45de-af17-aa65069f17f0,S
2019-12-01 21:39:30,42051b06-b8ff-45de-af17-aa65069f17f0,A
2019-12-01 21:50:21,42051b06-b8ff-45de-af17-aa65069f17f0,S
2019-12-01 21:50:24,42051b06-b8ff-45de-af17-aa65069f17f0,A
2019-12-01 21:59:55,42051b06-b8ff-45de-af17-aa65069f17f0,S
2019-12-01 22:20:24,42051b06-b8ff-45de-af17-aa65069f17f0,A
2019-12-01 22:27:39,42051b06-b8ff-45de-af17-aa65069f17f0,S
2019-12-01 22:31:37,42051b06-b8ff-45de-af17-aa65069f17f0,A
2019-12-01 20:53:34,065c7ffc-8a4a-481e-8f90-a866bd026332,A
2019-12-01 20:59:37,065c7ffc-8a4a-481e-8f90-a866bd026332,S
2019-12-01 21:02:07,065c7ffc-8a4a-481e-8f90-a866bd026332,A
2019-12-01 21:02:52,065c7ffc-8a4a-481e-8f90-a866bd026332,S
2019-12-01 21:02:55,065c7ffc-8a4a-481e-8f90-a866bd026332,A
2019-12-01 21:05:45,065c7ffc-8a4a-481e-8f90-a866bd026332,S
2019-12-01 21:14:01,065c7ffc-8a4a-481e-8f90-a866bd026332,A
2019-12-01 21:16:47,065c7ffc-8a4a-481e-8f90-a866bd026332,S
2019-12-01 21:16:50,065c7ffc-8a4a-481e-8f90-a866bd026332,A
2019-12-01 21:22:55,065c7ffc-8a4a-481e-8f90-a866bd026332,S
2019-12-01 21:27:18,065c7ffc-8a4a-481e-8f90-a866bd026332,A
2019-12-01 21:34:39,065c7ffc-8a4a-481e-8f90-a866bd026332,S
2019-12-01 21:35:48,065c7ffc-8a4a-481e-8f90-a866bd026332,A
2019-12-01 21:39:45,065c7ffc-8a4a-481e-8f90-a866bd026332,S
2019-12-01 21:40:32,065c7ffc-8a4a-481e-8f90-a866bd026332,A
2019-12-01 21:40:50,065c7ffc-8a4a-481e-8f90-a866bd026332,S
2019-12-01 21:51:22,065c7ffc-8a4a-481e-8f90-a866bd026332,A
2019-12-01 21:52:46,065c7ffc-8a4a-481e-8f90-a866bd026332,S
2019-12-01 21:58:30,065c7ffc-8a4a-481e-8f90-a866bd026332,A
2019-12-01 22:02:56,065c7ffc-8a4a-481e-8f90-a866bd026332,S
2019-12-01 22:04:16,065c7ffc-8a4a-481e-8f90-a866bd026332,A
2019-12-01 22:07:03,065c7ffc-8a4a-481e-8f90-a866bd026332,S
2019-12-01 22:08:27,065c7ffc-8a4a-481e-8f90-a866bd026332,A
2019-12-01 22:17:17,065c7ffc-8a4a-481e-8f90-a866bd026332,S
2019-12-01 22:18:46,065c7ffc-8a4a-481e-8f90-a866bd026332,A
2019-12-01 22:22:25,065c7ffc-8a4a-481e-8f90-a866bd026332,S
2019-12-01 22:22:42,065c7ffc-8a4a-481e-8f90-a866bd026332,A
2019-12-01 22:26:40,065c7ffc-8a4a-481e-8f90-a866bd026332,S
2019-12-01 21:04:10,6cb20f7e-99d3-4eb8-b3a2-7baaa3c31a07,A
2019-12-01 21:04:40,6cb20f7e-99d3-4eb8-b3a2-7baaa3c31a07,S
2019-12-01 21:13:09,6cb20f7e-99d3-4eb8-b3a2-7baaa3c31a07,A
2019-12-01 21:14:29,6cb20f7e-99d3-4eb8-b3a2-7baaa3c31a07,S
2019-12-01 21:14:29,6cb20f7e-99d3-4eb8-b3a2-7baaa3c31a07,A
2019-12-01 21:23:06,6cb20f7e-99d3-4eb8-b3a2-7baaa3c31a07,S
2019-12-01 21:24:20,6cb20f7e-99d3-4eb8-b3a2-7baaa3c31a07,A
2019-12-01 21:25:10,6cb20f7e-99d3-4eb8-b3a2-7baaa3c31a07,S
2019-12-01 21:28:57,6cb20f7e-99d3-4eb8-b3a2-7baaa3c31a07,A
2019-12-01 21:30:04,6cb20f7e-99d3-4eb8-b3a2-7baaa3c31a07,S
2019-12-01 21:30:16,6cb20f7e-99d3-4eb8-b3a2-7baaa3c31a07,A
2019-12-01 21:35:49,6cb20f7e-99d3-4eb8-b3a2-7baaa3c31a07,S
2019-12-01 21:41:08,6cb20f7e-99d3-4eb8-b3a2-7baaa3c31a07,A
2019-12-01 21:53:23,6cb20f7e-99d3-4eb8-b3a2-7baaa3c31a07,S
2019-12-01 21:53:38,6cb20f7e-99d3-4eb8-b3a2-7baaa3c31a07,A
2019-12-01 21:57:49,6cb20f7e-99d3-4eb8-b3a2-7baaa3c31a07,S
2019-12-01 22:07:25,6cb20f7e-99d3-4eb8-b3a2-7baaa3c31a07,A
2019-12-01 22:19:30,6cb20f7e-99d3-4eb8-b3a2-7baaa3c31a07,S
2019-12-01 22:23:00,6cb20f7e-99d3-4eb8-b3a2-7baaa3c31a07,A
2019-12-01 22:27:23,6cb20f7e-99d3-4eb8-b3a2-7baaa3c31a07,S
2019-12-01 22:28:47,6cb20f7e-99d3-4eb8-b3a2-7baaa3c31a07,A
2019-12-01 22:29:23,6cb20f7e-99d3-4eb8-b3a2-7baaa3c31a07,S
2019-12-01 21:14:57,2053336b-3363-4ce5-82c8-98d07e258886,S
2019-12-01 21:20:20,2053336b-3363-4ce5-82c8-98d07e258886,A
2019-12-01 21:21:45,2053336b-3363-4ce5-82c8-98d07e258886,S
2019-12-01 21:23:55,2053336b-3363-4ce5-82c8-98d07e258886,A
2019-12-01 21:30:57,2053336b-3363-4ce5-82c8-98d07e258886,S
2019-12-01 21:37:03,2053336b-3363-4ce5-82c8-98d07e258886,A
2019-12-01 21:40:58,2053336b-3363-4ce5-82c8-98d07e258886,S
2019-12-01 21:44:20,2053336b-3363-4ce5-82c8-98d07e258886,A
2019-12-01 21:45:55,2053336b-3363-4ce5-82c8-98d07e258886,S
2019-12-01 21:46:05,2053336b-3363-4ce5-82c8-98d07e258886,A
2019-12-01 21:48:25,2053336b-3363-4ce5-82c8-98d07e258886,S
2019-12-01 21:52:42,2053336b-3363-4ce5-82c8-98d07e258886,A
2019-12-01 21:55:36,2053336b-3363-4ce5-82c8-98d07e258886,S
2019-12-01 21:56:31,2053336b-3363-4ce5-82c8-98d07e258886,A
2019-12-01 22:06:55,2053336b-3363-4ce5-82c8-98d07e258886,S
2019-12-01 22:06:58,2053336b-3363-4ce5-82c8-98d07e258886,A
2019-12-01 22:07:30,2053336b-3363-4ce5-82c8-98d07e258886,S
2019-12-01 22:07:59,2053336b-3363-4ce5-82c8-98d07e258886,A
2019-12-01 22:08:12,2053336b-3363-4ce5-82c8-98d07e258886,S
2019-12-01 22:12:07,2053336b-3363-4ce5-82c8-98d07e258886,A
2019-12-01 22:19:56,2053336b-3363-4ce5-82c8-98d07e258886,S
2019-12-01 22:25:55,2053336b-3363-4ce5-82c8-98d07e258886,A
2019-12-01 22:28:48,2053336b-3363-4ce5-82c8-98d07e258886,S
2019-12-01 22:30:47,2053336b-3363-4ce5-82c8-98d07e258886,A
2019-12-01 21:06:45,43193959-87f3-4d59-a36d-033dcd7c04cd,S
2019-12-01 21:08:40,43193959-87f3-4d59-a36d-033dcd7c04cd,A
2019-12-01 21:11:48,43193959-87f3-4d59-a36d-033dcd7c04cd,S
2019-12-01 21:12:18,43193959-87f3-4d59-a36d-033dcd7c04cd,A
2019-12-01 21:15:26,43193959-87f3-4d59-a36d-033dcd7c04cd,S
2019-12-01 21:17:27,43193959-87f3-4d59-a36d-033dcd7c04cd,A
2019-12-01 21:21:43,43193959-87f3-4d59-a36d-033dcd7c04cd,S
2019-12-01 21:22:40,43193959-87f3-4d59-a36d-033dcd7c04cd,A
2019-12-01 21:23:29,43193959-87f3-4d59-a36d-033dcd7c04cd,S
2019-12-01 21:30:56,43193959-87f3-4d59-a36d-033dcd7c04cd,A
2019-12-01 21:33:09,43193959-87f3-4d59-a36d-033dcd7c04cd,S
2019-12-01 21:36:41,43193959-87f3-4d59-a36d-033dcd7c04cd,A
2019-12-01 21:44:57,43193959-87f3-4d59-a36d-033dcd7c04cd,S
2019-12-01 21:52:22,43193959-87f3-4d59-a36d-033dcd7c04cd,A
2019-12-01 21:54:24,43193959-87f3-4d59-a36d-033dcd7c04cd,S
2019-12-01 21:57:09,43193959-87f3-4d59-a36d-033dcd7c04cd,A
2019-12-01 21:58:14,43193959-87f3-4d59-a36d-033dcd7c04cd,S
2019-12-01 21:59:31,43193959-87f3-4d59-a36d-033dcd7c04cd,A
2019-12-01 22:01:03,43193959-87f3-4d59-a36d-033dcd7c04cd,S
2019-12-01 22:09:11,43193959-87f3-4d59-a36d-033dcd7c04cd,A
2019-12-01 22:09:21,43193959-87f3-4d59-a36d-033dcd7c04cd,S
2019-12-01 22:09:33,43193959-87f3-4d59-a36d-033dcd7c04cd,A
2019-12-01 22:13:24,43193959-87f3-4d59-a36d-033dcd7c04cd,S
2019-12-01 22:15:48,43193959-87f3-4d59-a36d-033dcd7c04cd,A
2019-12-01 22:16:32,43193959-87f3-4d59-a36d-033dcd7c04cd,S
2019-12-01 22:17:50,43193959-87f3-4d59-a36d-033dcd7c04cd,A
2019-12-01 22:18:44,43193959-87f3-4d59-a36d-033dcd7c04cd,S
2019-12-01 22:27:06,43193959-87f3-4d59-a36d-033dcd7c04cd,A
2019-12-01 22:28:20,43193959-87f3-4d59-a36d-033dcd7c04cd,S
2019-12-01 21:09:32,35dd50d9-ba5f-4ba4-81ce-c212d3b7ce6a,S
2019-12-01 21:10:15,35dd50d9-ba5f-4ba4-81ce-c212d3b7ce6a,A
2019-12-01 21:13:46,35dd50d9-ba5f-4ba4-81ce-c212d3b7ce6a,S
2019-12-01 21:17:48,35dd50d9-ba5f-4ba4-81ce-c212d3b7ce6a,A
2019-12-01 21:25:37,35dd50d9-ba5f-4ba4-81ce-c212d3b7ce6a,S
2019-12-01 21:32:07,35dd50d9-ba5f-4ba4-81ce-c212d3b7ce6a,A
2019-12-01 21:36:17,35dd50d9-ba5f-4ba4-81ce-c212d3b7ce6a,S
2019-12-01 21:37:43,35dd50d9-ba5f-4ba4-81ce-c212d3b7ce6a,A
2019-12-01 21:48:07,35dd50d9-ba5f-4ba4-81ce-c212d3b7ce6a,S
2019-12-01 21:48:22,35dd50d9-ba5f-4ba4-81ce-c212d3b7ce6a,A
2019-12-01 21:48:38,35dd50d9-ba5f-4ba4-81ce-c212d3b7ce6a,S
2019-12-01 21:50:08,35dd50d9-ba5f-4ba4-81ce-c212d3b7ce6a,A
2019-12-01 21:58:00,35dd50d9-ba5f-4ba4-81ce-c212d3b7ce6a,S
2019-12-01 22:01:55,35dd50d9-ba5f-4ba4-81ce-c212d3b7ce6a,A
2019-12-01 22:04:33,35dd50d9-ba5f-4ba4-81ce-c212d3b7ce6a,S
2019-12-01 22:07:01,35dd50d9-ba5f-4ba4-81ce-c212d3b7ce6a,A
2019-12-01 22:09:08,35dd50d9-ba5f-4ba4-81ce-c212d3b7ce6a,S
2019-12-01 22:13:48,35dd50d9-ba5f-4ba4-81ce-c212d3b7ce6a,A
2019-12-01 22:20:10,35dd50d9-ba5f-4ba4-81ce-c212d3b7ce6a,S
2019-12-01 22:20:20,35dd50d9-ba5f-4ba4-81ce-c212d3b7ce6a,A
2019-12-01 22:20:59,35dd50d9-ba5f-4ba4-81ce-c212d3b7ce6a,S
2019-12-01 22:23:17,35dd50d9-ba5f-4ba4-81ce-c212d3b7ce6a,A
2019-12-01 21:16:08,3b4f690f-0e6e-44b3-ab10-3c0c06945336,A
2019-12-01 20:40:10,dfb24485-618f-42d9-bd0f-a0654f467a0e,S
2019-12-01 20:44:16,dfb24485-618f-42d9-bd0f-a0654f467a0e,A
2019-12-01 20:54:40,dfb24485-618f-42d9-bd0f-a0654f467a0e,S
2019-12-01 20:56:14,dfb24485-618f-42d9-bd0f-a0654f467a0e,A
2019-12-01 21:03:44,dfb24485-618f-42d9-bd0f-a0654f467a0e,S
2019-12-01 21:03:59,dfb24485-618f-42d9-bd0f-a0654f467a0e,A
2019-12-01 21:05:25,dfb24485-618f-42d9-bd0f-a0654f467a0e,S
2019-12-01 21:22:41,dfb24485-618f-42d9-bd0f-a0654f467a0e,A
2019-12-01 21:28:27,dfb24485-618f-42d9-bd0f-a0654f467a0e,S
2019-12-01 21:32:02,dfb24485-618f-42d9-bd0f-a0654f467a0e,A
2019-12-01 21:35:14,dfb24485-618f-42d9-bd0f-a0654f467a0e,S
2019-12-01 21:35:30,dfb24485-618f-42d9-bd0f-a0654f467a0e,A
2019-12-01 21:54:05,dfb24485-618f-42d9-bd0f-a0654f467a0e,S
2019-12-01 21:54:31,dfb24485-618f-42d9-bd0f-a0654f467a0e,A
2019-12-01 21:57:22,dfb24485-618f-42d9-bd0f-a0654f467a0e,S
2019-12-01 22:10:55,dfb24485-618f-42d9-bd0f-a0654f467a0e,A
2019-12-01 22:14:13,dfb24485-618f-42d9-bd0f-a0654f467a0e,S
2019-12-01 22:16:40,dfb24485-618f-42d9-bd0f-a0654f467a0e,A
2019-12-01 22:17:18,dfb24485-618f-42d9-bd0f-a0654f467a0e,S
2019-12-01 22:22:31,dfb24485-618f-42d9-bd0f-a0654f467a0e,A
2019-12-01 22:27:12,dfb24485-618f-42d9-bd0f-a0654f467a0e,S
2019-12-01 22:31:08,dfb24485-618f-42d9-bd0f-a0654f467a0e,A
2019-12-01 22:33:00,dfb24485-618f-42d9-bd0f-a0654f467a0e,S
2019-12-01 22:33:58,dfb24485-618f-42d9-bd0f-a0654f467a0e,A
2019-12-01 20:44:08,90d36dc3-7536-45b7-b8d0-d645185d93a2,A
2019-12-01 20:50:11,90d36dc3-7536-45b7-b8d0-d645185d93a2,S
2019-12-01 20:52:59,90d36dc3-7536-45b7-b8d0-d645185d93a2,A
2019-12-01 20:53:37,90d36dc3-7536-45b7-b8d0-d645185d93a2,S
2019-12-01 20:54:23,90d36dc3-7536-45b7-b8d0-d645185d93a2,A
2019-12-01 21:03:38,90d36dc3-7536-45b7-b8d0-d645185d93a2,S
2019-12-01 21:04:03,90d36dc3-7536-45b7-b8d0-d645185d93a2,A
2019-12-01 21:04:53,90d36dc3-7536-45b7-b8d0-d645185d93a2,S
2019-12-01 21:09:47,90d36dc3-7536-45b7-b8d0-d645185d93a2,A
2019-12-01 21:14:47,90d36dc3-7536-45b7-b8d0-d645185d93a2,S
2019-12-01 21:14:59,90d36dc3-7536-45b7-b8d0-d645185d93a2,A
2019-12-01 21:15:43,90d36dc3-7536-45b7-b8d0-d645185d93a2,S
2019-12-01 21:18:04,90d36dc3-7536-45b7-b8d0-d645185d93a2,A
2019-12-01 21:21:04,90d36dc3-7536-45b7-b8d0-d645185d93a2,S
2019-12-01 21:22:20,90d36dc3-7536-45b7-b8d0-d645185d93a2,A
2019-12-01 21:22:24,90d36dc3-7536-45b7-b8d0-d645185d93a2,S
2019-12-01 21:30:29,90d36dc3-7536-45b7-b8d0-d645185d93a2,A
2019-12-01 21:33:47,90d36dc3-7536-45b7-b8d0-d645185d93a2,S
2019-12-01 21:35:39,90d36dc3-7536-45b7-b8d0-d645185d93a2,A
2019-12-01 21:43:01,90d36dc3-7536-45b7-b8d0-d645185d93a2,S
2019-12-01 21:53:16,90d36dc3-7536-45b7-b8d0-d645185d93a2,A
2019-12-01 22:08:43,90d36dc3-7536-45b7-b8d0-d645185d93a2,S
2019-12-01 22:11:06,90d36dc3-7536-45b7-b8d0-d645185d93a2,A
2019-12-01 22:11:17,90d36dc3-7536-45b7-b8d0-d645185d93a2,S
2019-12-01 22:19:23,90d36dc3-7536-45b7-b8d0-d645185d93a2,A
2019-12-01 22:19:46,90d36dc3-7536-45b7-b8d0-d645185d93a2,S
2019-12-01 22:28:05,90d36dc3-7536-45b7-b8d0-d645185d93a2,A
2019-12-01 20:39:46,b2c3ec56-96d7-45dd-b3f7-0a4f7d9eca37,S
2019-12-01 20:55:53,b2c3ec56-96d7-45dd-b3f7-0a4f7d9eca37,A
2019-12-01 20:57:05,b2c3ec56-96d7-45dd-b3f7-0a4f7d9eca37,S
2019-12-01 21:01:54,b2c3ec56-96d7-45dd-b3f7-0a4f7d9eca37,A
2019-12-01 21:03:00,b2c3ec56-96d7-45dd-b3f7-0a4f7d9eca37,S
2019-12-01 21:05:47,b2c3ec56-96d7-45dd-b3f7-0a4f7d9eca37,A
2019-12-01 21:10:59,b2c3ec56-96d7-45dd-b3f7-0a4f7d9eca37,S
2019-12-01 21:13:09,b2c3ec56-96d7-45dd-b3f7-0a4f7d9eca37,A
2019-12-01 21:16:38,b2c3ec56-96d7-45dd-b3f7-0a4f7d9eca37,S
2019-12-01 21:22:14,b2c3ec56-96d7-45dd-b3f7-0a4f7d9eca37,A
2019-12-01 21:32:44,b2c3ec56-96d7-45dd-b3f7-0a4f7d9eca37,S
2019-12-01 21:38:25,b2c3ec56-96d7-45dd-b3f7-0a4f7d9eca37,A
2019-12-01 21:40:23,b2c3ec56-96d7-45dd-b3f7-0a4f7d9eca37,S
2019-12-01 21:42:24,b2c3ec56-96d7-45dd-b3f7-0a4f7d9eca37,A
2019-12-01 21:50:41,b2c3ec56-96d7-45dd-b3f7-0a4f7d9eca37,S
2019-12-01 21:52:51,b2c3ec56-96d7-45dd-b3f7-0a4f7d9eca37,A
2019-12-01 21:57:46,b2c3ec56-96d7-45dd-b3f7-0a4f7d9eca37,S
2019-12-01 22:00:44,b2c3ec56-96d7-45dd-b3f7-0a4f7d9eca37,A
2019-12-01 22:01:52,b2c3ec56-96d7-45dd-b3f7-0a4f7d9eca37,S
2019-12-01 22:06:47,b2c3ec56-96d7-45dd-b3f7-0a4f7d9eca37,A
2019-12-01 22:09:39,b2c3ec56-96d7-45dd-b3f7-0a4f7d9eca37,S
2019-12-01 22:13:29,b2c3ec56-96d7-45dd-b3f7-0a4f7d9eca37,A
2019-12-01 22:15:49,b2c3ec56-96d7-45dd-b3f7-0a4f7d9eca37,S
2019-12-01 22:19:35,b2c3ec56-96d7-45dd-b3f7-0a4f7d9eca37,A
2019-12-01 22:25:00,b2c3ec56-96d7-45dd-b3f7-0a4f7d9eca37,S
2019-12-01 22:26:07,b2c3ec56-96d7-45dd-b3f7-0a4f7d9eca37,A
2019-12-01 22:31:52,b2c3ec56-96d7-45dd-b3f7-0a4f7d9eca37,S
2019-12-01 22:32:49,b2c3ec56-96d7-45dd-b3f7-0a4f7d9eca37,A
2019-12-01 22:34:19,b2c3ec56-96d7-45dd-b3f7-0a4f7d9eca37,S
2019-12-01 22:34:51,b2c3ec56-96d7-45dd-b3f7-0a4f7d9eca37,A
2019-12-01 21:08:28,fd574cc9-b476-4fb7-91a0-f962c6780c9b,A
2019-12-01 21:15:43,fd574cc9-b476-4fb7-91a0-f962c6780c9b,S
2019-12-01 21:17:37,fd574cc9-b476-4fb7-91a0-f962c6780c9b,A
2019-12-01 21:22:27,fd574cc9-b476-4fb7-91a0-f962c6780c9b,S
2019-12-01 21:29:42,fd574cc9-b476-4fb7-91a0-f962c6780c9b,A
2019-12-01 21:36:39,fd574cc9-b476-4fb7-91a0-f962c6780c9b,S
2019-12-01 21:37:12,fd574cc9-b476-4fb7-91a0-f962c6780c9b,A
2019-12-01 21:37:37,fd574cc9-b476-4fb7-91a0-f962c6780c9b,S
2019-12-01 21:39:01,fd574cc9-b476-4fb7-91a0-f962c6780c9b,A
2019-12-01 21:39:39,fd574cc9-b476-4fb7-91a0-f962c6780c9b,S
2019-12-01 21:41:55,fd574cc9-b476-4fb7-91a0-f962c6780c9b,A
2019-12-01 21:48:17,fd574cc9-b476-4fb7-91a0-f962c6780c9b,S
2019-12-01 21:49:40,fd574cc9-b476-4fb7-91a0-f962c6780c9b,A
2019-12-01 21:52:22,fd574cc9-b476-4fb7-91a0-f962c6780c9b,S
2019-12-01 21:52:57,fd574cc9-b476-4fb7-91a0-f962c6780c9b,A
2019-12-01 21:54:17,fd574cc9-b476-4fb7-91a0-f962c6780c9b,S
2019-12-01 22:13:38,fd574cc9-b476-4fb7-91a0-f962c6780c9b,A
2019-12-01 22:31:38,fd574cc9-b476-4fb7-91a0-f962c6780c9b,S
2019-12-01 22:32:42,fd574cc9-b476-4fb7-91a0-f962c6780c9b,A
2019-12-01 20:48:10,c3116e5f-bf4f-4e28-b1bf-e537edc7b98b,S
2019-12-01 20:55:49,c3116e5f-bf4f-4e28-b1bf-e537edc7b98b,A
2019-12-01 20:57:44,c3116e5f-bf4f-4e28-b1bf-e537edc7b98b,S
2019-12-01 21:09:03,c3116e5f-bf4f-4e28-b1bf-e537edc7b98b,A
2019-12-01 21:10:52,c3116e5f-bf4f-4e28-b1bf-e537edc7b98b,S
2019-12-01 21:11:34,c3116e5f-bf4f-4e28-b1bf-e537edc7b98b,A
2019-12-01 21:21:05,c3116e5f-bf4f-4e28-b1bf-e537edc7b98b,S
2019-12-01 21:24:20,c3116e5f-bf4f-4e28-b1bf-e537edc7b98b,A
2019-12-01 21:24:56,c3116e5f-bf4f-4e28-b1bf-e537edc7b98b,S
2019-12-01 21:25:27,c3116e5f-bf4f-4e28-b1bf-e537edc7b98b,A
2019-12-01 21:30:31,c3116e5f-bf4f-4e28-b1bf-e537edc7b98b,S
2019-12-01 21:30:56,c3116e5f-bf4f-4e28-b1bf-e537edc7b98b,A
2019-12-01 21:31:19,c3116e5f-bf4f-4e28-b1bf-e537edc7b98b,S
2019-12-01 21:32:03,c3116e5f-bf4f-4e28-b1bf-e537edc7b98b,A
2019-12-01 21:33:55,c3116e5f-bf4f-4e28-b1bf-e537edc7b98b,S
2019-12-01 21:34:47,c3116e5f-bf4f-4e28-b1bf-e537edc7b98b,A
2019-12-01 21:45:21,c3116e5f-bf4f-4e28-b1bf-e537edc7b98b,S
2019-12-01 21:46:33,c3116e5f-bf4f-4e28-b1bf-e537edc7b98b,A
2019-12-01 21:53:25,c3116e5f-bf4f-4e28-b1bf-e537edc7b98b,S
2019-12-01 22:02:06,c3116e5f-bf4f-4e28-b1bf-e537edc7b98b,A
2019-12-01 22:05:13,c3116e5f-bf4f-4e28-b1bf-e537edc7b98b,S
2019-12-01 22:08:49,c3116e5f-bf4f-4e28-b1bf-e537edc7b98b,A
2019-12-01 22:09:05,c3116e5f-bf4f-4e28-b1bf-e537edc7b98b,S
2019-12-01 22:16:10,c3116e5f-bf4f-4e28-b1bf-e537edc7b98b,A
2019-12-01 22:16:18,c3116e5f-bf4f-4e28-b1bf-e537edc7b98b,S
2019-12-01 22:16:43,c3116e5f-bf4f-4e28-b1bf-e537edc7b98b,A
2019-12-01 22:17:20,c3116e5f-bf4f-4e28-b1bf-e537edc7b98b,S
2019-12-01 22:19:25,c3116e5f-bf4f-4e28-b1bf-e537edc7b98b,A
2019-12-01 22:19:29,c3116e5f-bf4f-4e28-b1bf-e537edc7b98b,S
2019-12-01 22:31:15,c3116e5f-bf4f-4e28-b1bf-e537edc7b98b,A
2019-12-01 22:34:39,c3116e5f-bf4f-4e28-b1bf-e537edc7b98b,S
2019-12-01 21:16:40,37e1d938-f002-4c7c-aa0b-8913b9e9c58a,S
2019-12-01 21:30:14,37e1d938-f002-4c7c-aa0b-8913b9e9c58a,A
2019-12-01 21:35:08,37e1d938-f002-4c7c-aa0b-8913b9e9c58a,S
2019-12-01 21:35:40,37e1d938-f002-4c7c-aa0b-8913b9e9c58a,A
2019-12-01 21:39:32,37e1d938-f002-4c7c-aa0b-8913b9e9c58a,S
2019-12-01 21:40:13,37e1d938-f002-4c7c-aa0b-8913b9e9c58a,A
2019-12-01 21:48:53,37e1d938-f002-4c7c-aa0b-8913b9e9c58a,S
2019-12-01 21:49:56,37e1d938-f002-4c7c-aa0b-8913b9e9c58a,A
2019-12-01 21:52:11,37e1d938-f002-4c7c-aa0b-8913b9e9c58a,S
2019-12-01 21:54:21,37e1d938-f002-4c7c-aa0b-8913b9e9c58a,A
2019-12-01 21:56:43,37e1d938-f002-4c7c-aa0b-8913b9e9c58a,S
2019-12-01 22:00:34,37e1d938-f002-4c7c-aa0b-8913b9e9c58a,A
2019-12-01 22:01:46,37e1d938-f002-4c7c-aa0b-8913b9e9c58a,S
2019-12-01 22:02:36,37e1d938-f002-4c7c-aa0b-8913b9e9c58a,A
2019-12-01 22:04:46,37e1d938-f002-4c7c-aa0b-8913b9e9c58a,S
2019-12-01 22:05:09,37e1d938-f002-4c7c-aa0b-8913b9e9c58a,A
2019-12-01 22:05:25,37e1d938-f002-4c7c-aa0b-8913b9e9c58a,S
2019-12-01 22:09:56,37e1d938-f002-4c7c-aa0b-8913b9e9c58a,A
2019-12-01 22:10:46,37e1d938-f002-4c7c-aa0b-8913b9e9c58a,S
2019-12-01 22:20:18,37e1d938-f002-4c7c-aa0b-8913b9e9c58a,A
2019-12-01 22:26:21,37e1d938-f002-4c7c-aa0b-8913b9e9c58a,S
2019-12-01 22:34:20,37e1d938-f002-4c7c-aa0b-8913b9e9c58a,A
2019-12-01 20:33:38,1600e508-a576-43e3-93da-d8c5e809fff0,S
2019-12-01 20:35:11,1600e508-a576-43e3-93da-d8c5e809fff0,A
2019-12-01 20:36:00,1600e508-a576-43e3-93da-d8c5e809fff0,S
2019-12-01 20:36:06,1600e508-a576-43e3-93da-d8c5e809fff0,A
2019-12-01 20:36:12,1600e508-a576-43e3-93da-d8c5e809fff0,S
2019-12-01 20:36:36,1600e508-a576-43e3-93da-d8c5e809fff0,A
2019-12-01 20:41:21,1600e508-a576-43e3-93da-d8c5e809fff0,S
2019-12-01 20:45:30,1600e508-a576-43e3-93da-d8c5e809fff0,A
2019-12-01 20:47:18,1600e508-a576-43e3-93da-d8c5e809fff0,S
2019-12-01 20:49:31,1600e508-a576-43e3-93da-d8c5e809fff0,A
2019-12-01 21:00:09,1600e508-a576-43e3-93da-d8c5e809fff0,S
2019-12-01 21:02:12,1600e508-a576-43e3-93da-d8c5e809fff0,A
2019-12-01 21:11:21,1600e508-a576-43e3-93da-d8c5e809fff0,S
2019-12-01 21:13:56,1600e508-a576-43e3-93da-d8c5e809fff0,A
2019-12-01 21:22:32,1600e508-a576-43e3-93da-d8c5e809fff0,S
2019-12-01 21:24:34,1600e508-a576-43e3-93da-d8c5e809fff0,A
2019-12-01 21:26:22,1600e508-a576-43e3-93da-d8c5e809fff0,S
2019-12-01 21:29:26,1600e508-a576-43e3-93da-d8c5e809fff0,A
2019-12-01 21:29:33,1600e508-a576-43e3-93da-d8c5e809fff0,S
2019-12-01 21:41:37,1600e508-a576-43e3-93da-d8c5e809fff0,A
2019-12-01 21:45:16,1600e508-a576-43e3-93da-d8c5e809fff0,S
2019-12-01 21:56:59,1600e508-a576-43e3-93da-d8c5e809fff0,A
2019-12-01 21:57:44,1600e508-a576-43e3-93da-d8c5e809fff0,S
2019-12-01 22:04:37,1600e508-a576-43e3-93da-d8c5e809fff0,A
2019-12-01 22:05:57,1600e508-a576-43e3-93da-d8c5e809fff0,S
2019-12-01 22:08:25,1600e508-a576-43e3-93da-d8c5e809fff0,A
2019-12-01 22:16:50,1600e508-a576-43e3-93da-d8c5e809fff0,S
2019-12-01 22:24:59,1600e508-a576-43e3-93da-d8c5e809fff0,A
2019-12-01 22:35:08,1600e508-a576-43e3-93da-d8c5e809fff0,S
2019-12-01 20:48:38,8d5ce3b1-5f22-4ee6-95f2-0dad37f5c417,A
2019-12-01 20:52:20,8d5ce3b1-5f22-4ee6-95f2-0dad37f5c417,S
2019-12-01 20:55:39,8d5ce3b1-5f22-4ee6-95f2-0dad37f5c417,A
2019-12-01 20:57:19,8d5ce3b1-5f22-4ee6-95f2-0dad37f5c417,S
2019-12-01 21:12:49,8d5ce3b1-5f22-4ee6-95f2-0dad37f5c417,A
2019-12-01 21:14:34,8d5ce3b1-5f22-4ee6-95f2-0dad37f5c417,S
2019-12-01 21:14:56,8d5ce3b1-5f22-4ee6-95f2-0dad37f5c417,A
2019-12-01 21:36:44,8d5ce3b1-5f22-4ee6-95f2-0dad37f5c417,S
2019-12-01 21:43:55,8d5ce3b1-5f22-4ee6-95f2-0dad37f5c417,A
2019-12-01 21:48:16,8d5ce3b1-5f22-4ee6-95f2-0dad37f5c417,S
2019-12-01 21:48:56,8d5ce3b1-5f22-4ee6-95f2-0dad37f5c417,A
2019-12-01 21:53:10,8d5ce3b1-5f22-4ee6-95f2-0dad37f5c417,S
2019-12-01 21:55:01,8d5ce3b1-5f22-4ee6-95f2-0dad37f5c417,A
2019-12-01 21:57:43,8d5ce3b1-5f22-4ee6-95f2-0dad37f5c417,S
2019-12-01 22:06:58,8d5ce3b1-5f22-4ee6-95f2-0dad37f5c417,A
2019-12-01 22:14:34,8d5ce3b1-5f22-4ee6-95f2-0dad37f5c417,S
2019-12-01 22:19:30,8d5ce3b1-5f22-4ee6-95f2-0dad37f5c417,A
2019-12-01 22:26:08,8d5ce3b1-5f22-4ee6-95f2-0dad37f5c417,S
2019-12-01 20:57:23,94da5075-6e94-4d00-b929-42b835072f0d,A
2019-12-01 21:16:16,94da5075-6e94-4d00-b929-42b835072f0d,S
2019-12-01 21:16:37,94da5075-6e94-4d00-b929-42b835072f0d,A
2019-12-01 21:19:22,94da5075-6e94-4d00-b929-42b835072f0d,S
2019-12-01 21:23:22,94da5075-6e94-4d00-b929-42b835072f0d,A
2019-12-01 21:23:51,94da5075-6e94-4d00-b929-42b835072f0d,S
2019-12-01 21:26:53,94da5075-6e94-4d00-b929-42b835072f0d,A
2019-12-01 21:28:31,94da5075-6e94-4d00-b929-42b835072f0d,S
2019-12-01 21:43:01,94da5075-6e94-4d00-b929-42b835072f0d,A
2019-12-01 21:44:37,94da5075-6e94-4d00-b929-42b835072f0d,S
2019-12-01 21:44:43,94da5075-6e94-4d00-b929-42b835072f0d,A
2019-12-01 21:47:03,94da5075-6e94-4d00-b929-42b835072f0d,S
2019-12-01 21:47:10,94da5075-6e94-4d00-b929-42b835072f0d,A
2019-12-01 21:49:13,94da5075-6e94-4d00-b929-42b835072f0d,S
2019-12-01 21:53:14,94da5075-6e94-4d00-b929-42b835072f0d,A
2019-12-01 22:03:57,94da5075-6e94-4d00-b929-42b835072f0d,S
2019-12-01 22:09:41,94da5075-6e94-4d00-b929-42b835072f0d,A
2019-12-01 22:11:55,94da5075-6e94-4d00-b929-42b835072f0d,S
2019-12-01 22:15:21,94da5075-6e94-4d00-b929-42b835072f0d,A
2019-12-01 22:18:53,94da5075-6e94-4d00-b929-42b835072f0d,S
2019-12-01 20:49:40,f4af9ca5-4d0a-4462-8384-c625a72d129a,A
2019-12-01 20:57:29,f4af9ca5-4d0a-4462-8384-c625a72d129a,S
2019-12-01 20:58:59,f4af9ca5-4d0a-4462-8384-c625a72d129a,A
2019-12-01 21:01:37,f4af9ca5-4d0a-4462-8384-c625a72d129a,S
2019-12-01 21:06:18,f4af9ca5-4d0a-4462-8384-c625a72d129a,A
2019-12-01 21:21:00,f4af9ca5-4d0a-4462-8384-c625a72d129a,S
2019-12-01 21:21:35,f4af9ca5-4d0a-4462-8384-c625a72d129a,A
2019-12-01 21:27:05,f4af9ca5-4d0a-4462-8384-c625a72d129a,S
2019-12-01 21:34:18,f4af9ca5-4d0a-4462-8384-c625a72d129a,A
2019-12-01 21:34:53,f4af9ca5-4d0a-4462-8384-c625a72d129a,S
2019-12-01 21:46:43,f4af9ca5-4d0a-4462-8384-c625a72d129a,A
2019-12-01 21:49:51,f4af9ca5-4d0a-4462-8384-c625a72d129a,S
2019-12-01 22:01:41,f4af9ca5-4d0a-4462-8384-c625a72d129a,A
2019-12-01 22:13:38,f4af9ca5-4d0a-4462-8384-c625a72d129a,S
2019-12-01 22:18:31,f4af9ca5-4d0a-4462-8384-c625a72d129a,A
2019-12-01 22:19:03,f4af9ca5-4d0a-4462-8384-c625a72d129a,S
2019-12-01 22:19:22,f4af9ca5-4d0a-4462-8384-c625a72d129a,A
2019-12-01 22:19:32,f4af9ca5-4d0a-4462-8384-c625a72d129a,S
2019-12-01 22:20:43,f4af9ca5-4d0a-4462-8384-c625a72d129a,A
2019-12-01 22:24:24,f4af9ca5-4d0a-4462-8384-c625a72d129a,S
2019-12-01 22:33:15,f4af9ca5-4d0a-4462-8384-c625a72d129a,A
2019-12-01 21:08:52,86b57005-0167-4273-b0ee-254522c91f25,A
2019-12-01 21:12:21,86b57005-0167-4273-b0ee-254522c91f25,S
2019-12-01 21:15:24,86b57005-0167-4273-b0ee-254522c91f25,A
2019-12-01 21:24:21,86b57005-0167-4273-b0ee-254522c91f25,S
2019-12-01 21:39:18,86b57005-0167-4273-b0ee-254522c91f25,A
2019-12-01 21:40:20,86b57005-0167-4273-b0ee-254522c91f25,S
2019-12-01 21:40:50,86b57005-0167-4273-b0ee-254522c91f25,A
2019-12-01 21:41:29,86b57005-0167-4273-b0ee-254522c91f25,S
2019-12-01 21:48:32,86b57005-0167-4273-b0ee-254522c91f25,A
2019-12-01 21:53:43,86b57005-0167-4273-b0ee-254522c91f25,S
2019-12-01 22:12:34,86b57005-0167-4273-b0ee-254522c91f25,A
2019-12-01 22:14:41,86b57005-0167-4273-b0ee-254522c91f25,S
2019-12-01 22:21:49,86b57005-0167-4273-b0ee-254522c91f25,A
2019-12-01 22:25:18,86b57005-0167-4273-b0ee-254522c91f25,S
2019-12-01 21:03:06,4751b868-ea9d-46a9-b82d-45ace045995e,S
2019-12-01 21:05:25,4751b868-ea9d-46a9-b82d-45ace045995e,A
2019-12-01 21:10:36,4751b868-ea9d-46a9-b82d-45ace045995e,S
2019-12-01 21:18:42,4751b868-ea9d-46a9-b82d-45ace045995e,A
2019-12-01 21:26:06,4751b868-ea9d-46a9-b82d-45ace045995e,S
2019-12-01 21:26:28,4751b868-ea9d-46a9-b82d-45ace045995e,A
2019-12-01 20:52:29,8a7fbf4c-d208-46bd-86c7-66771f01e03e,S
2019-12-01 21:01:31,8a7fbf4c-d208-46bd-86c7-66771f01e03e,A
2019-12-01 21:06:43,8a7fbf4c-d208-46bd-86c7-66771f01e03e,S
2019-12-01 21:19:29,8a7fbf4c-d208-46bd-86c7-66771f01e03e,A
2019-12-01 21:20:28,8a7fbf4c-d208-46bd-86c7-66771f01e03e,S
2019-12-01 21:31:41,8a7fbf4c-d208-46bd-86c7-66771f01e03e,A
2019-12-01 21:31:55,8a7fbf4c-d208-46bd-86c7-66771f01e03e,S
2019-12-01 21:35:21,8a7fbf4c-d208-46bd-86c7-66771f01e03e,A
2019-12-01 21:46:25,8a7fbf4c-d208-46bd-86c7-66771f01e03e,S
2019-12-01 21:49:26,8a7fbf4c-d208-46bd-86c7-66771f01e03e,A
2019-12-01 21:56:02,8a7fbf4c-d208-46bd-86c7-66771f01e03e,S
2019-12-01 21:57:58,8a7fbf4c-d208-46bd-86c7-66771f01e03e,A
2019-12-01 22:05:23,8a7fbf4c-d208-46bd-86c7-66771f01e03e,S
2019-12-01 22:09:30,8a7fbf4c-d208-46bd-86c7-66771f01e03e,A
2019-12-01 22:10:12,8a7fbf4c-d208-46bd-86c7-66771f01e03e,S
2019-12-01 22:10:34,8a7fbf4c-d208-46bd-86c7-66771f01e03e,A
2019-12-01 22:13:57,8a7fbf4c-d208-46bd-86c7-66771f01e03e,S
2019-12-01 22:17:01,8a7fbf4c-d208-46bd-86c7-66771f01e03e,A
2019-12-01 22:30:12,8a7fbf4c-d208-46bd-86c7-66771f01e03e,S
2019-12-01 22:34:22,8a7fbf4c-d208-46bd-86c7-66771f01e03e,A
2019-12-01 22:34:28,8a7fbf4c-d208-46bd-86c7-66771f01e03e,S
2019-12-01 21:04:01,1caf519c-6fd8-484c-9da1-cda3f808187b,A
2019-12-01 21:07:29,1caf519c-6fd8-484c-9da1-cda3f808187b,S
2019-12-01 21:09:45,1caf519c-6fd8-484c-9da1-cda3f808187b,A
2019-12-01 21:11:47,1caf519c-6fd8-484c-9da1-cda3f808187b,S
2019-12-01 21:12:22,1caf519c-6fd8-484c-9da1-cda3f808187b,A
2019-12-01 21:14:57,1caf519c-6fd8-484c-9da1-cda3f808187b,S
2019-12-01 21:21:48,1caf519c-6fd8-484c-9da1-cda3f808187b,A
2019-12-01 21:23:16,1caf519c-6fd8-484c-9da1-cda3f808187b,S
2019-12-01 21:33:32,1caf519c-6fd8-484c-9da1-cda3f808187b,A
2019-12-01 22:12:37,1caf519c-6fd8-484c-9da1-cda3f808187b,S
2019-12-01 22:22:31,1caf519c-6fd8-484c-9da1-cda3f808187b,A
2019-12-01 22:22:35,1caf519c-6fd8-484c-9da1-cda3f808187b,S
2019-12-01 22:23:17,1caf519c-6fd8-484c-9da1-cda3f808187b,A
2019-12-01 22:26:21,1caf519c-6fd8-484c-9da1-cda3f808187b,S
2019-12-01 22:27:42,1caf519c-6fd8-484c-9da1-cda3f808187b,A
2019-12-01 22:29:03,1caf519c-6fd8-484c-9da1-cda3f808187b,S
2019-12-01 22:33:13,1caf519c-6fd8-484c-9da1-cda3f808187b,A
2019-12-01 22:34:47,1caf519c-6fd8-484c-9da1-cda3f808187b,S
2019-12-01 22:34:53,1caf519c-6fd8-484c-9da1-cda3f808187b,A
2019-12-01 20:58:35,269defab-c11b-45a3-ba4e-63d6c6cf097e,S
2019-12-01 20:58:39,269defab-c11b-45a3-ba4e-63d6c6cf097e,A
2019-12-01 21:05:49,269defab-c11b-45a3-ba4e-63d6c6cf097e,S
2019-12-01 21:17:20,269defab-c11b-45a3-ba4e-63d6c6cf097e,A
2019-12-01 21:18:56,269defab-c11b-45a3-ba4e-63d6c6cf097e,S
2019-12-01 21:22:03,269defab-c11b-45a3-ba4e-63d6c6cf097e,A
2019-12-01 21:22:20,269defab-c11b-45a3-ba4e-63d6c6cf097e,S
2019-12-01 21:40:18,269defab-c11b-45a3-ba4e-63d6c6cf097e,A
2019-12-01 21:42:42,269defab-c11b-45a3-ba4e-63d6c6cf097e,S
2019-12-01 21:55:04,269defab-c11b-45a3-ba4e-63d6c6cf097e,A
2019-12-01 22:07:12,269defab-c11b-45a3-ba4e-63d6c6cf097e,S
2019-12-01 22:12:43,269defab-c11b-45a3-ba4e-63d6c6cf097e,A
2019-12-01 22:13:10,269defab-c11b-45a3-ba4e-63d6c6cf097e,S
2019-12-01 22:15:25,269defab-c11b-45a3-ba4e-63d6c6cf097e,A
2019-12-01 22:19:04,269defab-c11b-45a3-ba4e-63d6c6cf097e,S
2019-12-01 22:22:24,269defab-c11b-45a3-ba4e-63d6c6cf097e,A
2019-12-01 22:26:54,269defab-c11b-45a3-ba4e-63d6c6cf097e,S
2019-12-01 22:27:51,269defab-c11b-45a3-ba4e-63d6c6cf097e,A
2019-12-01 22:28:13,269defab-c11b-45a3-ba4e-63d6c6cf097e,S
2019-12-01 22:29:11,269defab-c11b-45a3-ba4e-63d6c6cf097e,A
