date,actor,success,from,to
2019-09-07 02:11:37,7cce8cb4-1f17-432a-b633-63c7d1dfa6cb,1,4a049def-5c55-4c6f-8e05-a9841f580c0f,31a77745-054f-4d9d-bf0a-9af5f03f9274
2019-09-07 02:11:37,9d540263-a3df-4e56-afa1-8d4ef3cd37c8,1,4a049def-5c55-4c6f-8e05-a9841f580c0f,0971bfd4-c0d7-4ff9-991f-5ce2ea1f5bc4
2019-09-07 02:18:14,e64e5aa1-4f55-4cf6-bd7a-b1f673758e96,1,a05f94f0-4d77-4828-9c30-982096d12a5a,24e953f4-978a-4883-ae06-35f9479edae0
2019-09-07 02:03:52,7cce8cb4-1f17-432a-b633-63c7d1dfa6cb,1,64311692-9334-4898-a7e0-6924bccb3f3d,4a049def-5c55-4c6f-8e05-a9841f580c0f
2019-09-07 01:48:11,06d5ea93-01be-442d-9894-e2d7b1df4073,1,be4b4bfc-1b2e-4d61-a093-873e2bf4c9c1,ca5cfc4a-150f-4889-87cc-758075c59dad
2019-09-07 01:48:11,b7e689ae-8ef5-49d9-be2d-e8c2ba8abf20,1,be4b4bfc-1b2e-4d61-a093-873e2bf4c9c1,fbc115a8-5085-4f00-b51f-c6bc7616829c
2019-09-07 01:48:11,1c422b13-d4e8-43fc-a81f-7df68a26f6b7,1,be4b4bfc-1b2e-4d61-a093-873e2bf4c9c1,fbc115a8-5085-4f00-b51f-c6bc7616829c
2019-09-07 01:49:15,1a3e5416-0fe1-4124-85fc-30a075096d7a,1,be4b4bfc-1b2e-4d61-a093-873e2bf4c9c1,31a77745-054f-4d9d-bf0a-9af5f03f9274
2019-09-07 01:49:15,e019441e-546d-4f2e-8dbf-c66fc091d70a,1,be4b4bfc-1b2e-4d61-a093-873e2bf4c9c1,076b2cf5-e714-4f75-821c-65d9887dd838
2019-09-07 01:49:15,849e1159-c52c-4578-b5fd-b7681e00cab1,1,be4b4bfc-1b2e-4d61-a093-873e2bf4c9c1,31a77745-054f-4d9d-bf0a-9af5f03f9274
2019-09-07 01:50:19,0b7468ff-34bb-4f29-aeca-1b950b9bd481,1,be4b4bfc-1b2e-4d61-a093-873e2bf4c9c1,64311692-9334-4898-a7e0-6924bccb3f3d
2019-09-07 01:50:19,178d851f-68a8-4eff-890d-b54bbf50ef25,1,be4b4bfc-1b2e-4d61-a093-873e2bf4c9c1,209f8be6-f803-47fe-a2e8-5cacaab4a3e8
2019-09-07 01:50:19,4cf779e1-287d-48f3-b5bd-8506012497b2,1,be4b4bfc-1b2e-4d61-a093-873e2bf4c9c1,9085cf7c-599e-4704-8192-d36e5197fb42
2019-09-07 01:51:23,7b74af67-75b2-40e4-970d-4959f20b1dbf,1,be4b4bfc-1b2e-4d61-a093-873e2bf4c9c1,3b874a95-ee1e-42c6-9570-b347ac86e683
2019-09-07 01:51:23,d7f836e6-ae42-4b7a-8780-bbf1b19c18b3,1,be4b4bfc-1b2e-4d61-a093-873e2bf4c9c1,73cff2fe-bc83-451e-a01f-1b54e0dbcf28
2019-09-07 01:51:23,65ae65c9-0360-47b9-a6c8-198cd9b5cae7,1,be4b4bfc-1b2e-4d61-a093-873e2bf4c9c1,3b874a95-ee1e-42c6-9570-b347ac86e683
2019-09-07 01:52:26,e2cc3be4-b1c7-4845-b640-a618e0eb8264,1,be4b4bfc-1b2e-4d61-a093-873e2bf4c9c1,4a049def-5c55-4c6f-8e05-a9841f580c0f
2019-09-07 01:52:26,8a58bc85-bdf1-4aeb-92dc-f8704dcfe2ec,1,be4b4bfc-1b2e-4d61-a093-873e2bf4c9c1,e25e0cf7-53ae-4d73-a88b-3cc6a0c16661
2019-09-07 01:52:26,7b09a218-b905-4fb5-b982-2f0bf5c6c6d2,1,be4b4bfc-1b2e-4d61-a093-873e2bf4c9c1,4a049def-5c55-4c6f-8e05-a9841f580c0f
2019-09-07 01:53:30,5c4adba2-7ea0-441f-ba1e-b9f1bb418461,1,be4b4bfc-1b2e-4d61-a093-873e2bf4c9c1,fbc115a8-5085-4f00-b51f-c6bc7616829c
2019-09-07 01:53:30,8240940d-a818-4abc-b3f9-238712a52aad,1,be4b4bfc-1b2e-4d61-a093-873e2bf4c9c1,fbc115a8-5085-4f00-b51f-c6bc7616829c
2019-09-07 01:53:30,283c3f93-d48c-4a52-9590-44cc5d6deb26,1,be4b4bfc-1b2e-4d61-a093-873e2bf4c9c1,56d117ca-4207-4bb3-be7e-52c667cf3ed5
2019-09-07 01:54:34,f71adc55-9607-496a-ae38-033203ae79d6,1,be4b4bfc-1b2e-4d61-a093-873e2bf4c9c1,53983ee5-feeb-4605-913f-79ff05576a2c
2019-09-07 01:54:34,bac43b62-0713-4b5a-ab60-30d406c3930e,1,be4b4bfc-1b2e-4d61-a093-873e2bf4c9c1,31a77745-054f-4d9d-bf0a-9af5f03f9274
2019-09-07 01:54:34,a6965c35-6513-4079-93aa-633f02865011,1,be4b4bfc-1b2e-4d61-a093-873e2bf4c9c1,31a77745-054f-4d9d-bf0a-9af5f03f9274
2019-09-07 01:55:38,29f58f84-4a77-43e1-8009-b2a636908b6f,1,be4b4bfc-1b2e-4d61-a093-873e2bf4c9c1,8c63c257-f9b2-4779-b2c1-9e97dd45a727
2019-09-07 01:55:38,2e86bd5c-116b-406b-ac6f-41a2ff24fcec,1,be4b4bfc-1b2e-4d61-a093-873e2bf4c9c1,939d8dd5-8199-4e53-83f5-15e54b00b11d
2019-09-07 01:55:38,074f71b1-af56-407b-b727-b7e3b6be9e19,1,be4b4bfc-1b2e-4d61-a093-873e2bf4c9c1,939d8dd5-8199-4e53-83f5-15e54b00b11d
2019-09-07 01:56:42,c885ab77-1594-4436-94cc-b48ed4ef945c,1,be4b4bfc-1b2e-4d61-a093-873e2bf4c9c1,64311692-9334-4898-a7e0-6924bccb3f3d
2019-09-07 01:56:42,d79dfbc2-b62a-401b-ae32-674f7a6475f0,1,be4b4bfc-1b2e-4d61-a093-873e2bf4c9c1,64311692-9334-4898-a7e0-6924bccb3f3d
2019-09-07 01:56:42,47fdd99c-dafa-43fc-bb09-b8e641766511,1,be4b4bfc-1b2e-4d61-a093-873e2bf4c9c1,797ef6fe-7e27-441c-9bce-a9ad14bb7d19
2019-09-07 01:57:46,f694a9ce-ebd3-4a11-8916-be4d19821126,1,be4b4bfc-1b2e-4d61-a093-873e2bf4c9c1,6ddbbf18-3233-4bf3-add3-50d05ecafdd9
2019-09-07 01:57:46,61c91f36-56f3-4c8c-8f1b-06c357e1548d,1,be4b4bfc-1b2e-4d61-a093-873e2bf4c9c1,6ddbbf18-3233-4bf3-add3-50d05ecafdd9
2019-09-07 01:57:46,59078477-e2a8-4e5c-9f15-4613222bd646,1,be4b4bfc-1b2e-4d61-a093-873e2bf4c9c1,feaf3391-f6b7-4599-8fa2-b88b4730ec2f
2019-09-07 01:58:49,e64e5aa1-4f55-4cf6-bd7a-b1f673758e96,1,be4b4bfc-1b2e-4d61-a093-873e2bf4c9c1,a05f94f0-4d77-4828-9c30-982096d12a5a
2019-09-07 01:58:49,bd3f36ea-a54f-4ecf-b266-a0d61bb38558,1,be4b4bfc-1b2e-4d61-a093-873e2bf4c9c1,209f8be6-f803-47fe-a2e8-5cacaab4a3e8
2019-09-07 01:58:49,7e505d00-cf91-4c4c-b0a7-939c5502a83a,1,be4b4bfc-1b2e-4d61-a093-873e2bf4c9c1,0c348785-2281-496f-8520-4357513ead70
2019-09-07 01:59:54,919b6be9-b4dd-460a-80dc-8b0cc23a9bb1,1,be4b4bfc-1b2e-4d61-a093-873e2bf4c9c1,a05f94f0-4d77-4828-9c30-982096d12a5a
2019-09-07 01:59:54,c7e74c4c-77bb-4c7d-9e91-69853949f9bb,1,be4b4bfc-1b2e-4d61-a093-873e2bf4c9c1,22f5b57a-4adb-4611-b44e-ec0c384e9c68
2019-09-07 01:59:54,52d0a33c-6c63-4946-b966-f38c5dcf9fdf,1,be4b4bfc-1b2e-4d61-a093-873e2bf4c9c1,ca0df680-ec1b-454b-93bf-63e7a33b979f
2019-09-07 02:00:57,df698119-56dc-4858-bd4b-c4e54c978bd0,1,be4b4bfc-1b2e-4d61-a093-873e2bf4c9c1,6ea7f56e-8914-4941-af1d-6f2b9fc19415
2019-09-07 02:00:57,009aee78-ea88-4d37-b259-6b205ad6e597,1,be4b4bfc-1b2e-4d61-a093-873e2bf4c9c1,6ea7f56e-8914-4941-af1d-6f2b9fc19415
2019-09-07 02:00:57,e33e93aa-920e-4b17-b6bd-b954e00ea9d5,1,be4b4bfc-1b2e-4d61-a093-873e2bf4c9c1,50febb1f-9e68-45aa-9dee-1255ea314a58
2019-09-07 02:02:01,7cce8cb4-1f17-432a-b633-63c7d1dfa6cb,1,be4b4bfc-1b2e-4d61-a093-873e2bf4c9c1,64311692-9334-4898-a7e0-6924bccb3f3d
2019-09-07 02:02:01,2429ade5-ab97-471a-9489-bdf3a5b286d5,1,be4b4bfc-1b2e-4d61-a093-873e2bf4c9c1,e48459e8-edc7-48c9-a740-1a1beb43f5d1
2019-09-07 02:02:01,9d540263-a3df-4e56-afa1-8d4ef3cd37c8,1,be4b4bfc-1b2e-4d61-a093-873e2bf4c9c1,6ddbbf18-3233-4bf3-add3-50d05ecafdd9
2019-09-07 02:03:05,4f773df9-30a9-412a-84e6-0e9cc12b9e42,1,be4b4bfc-1b2e-4d61-a093-873e2bf4c9c1,6a4ef742-acd5-4c28-bcfc-11c550b2b91c
2019-09-07 02:03:05,15ca81ad-160a-4920-8a7e-9faba5b4594c,1,be4b4bfc-1b2e-4d61-a093-873e2bf4c9c1,e064ddec-746e-4ba3-b66c-21d91248ef85
2019-09-07 02:03:05,96bcc1b6-b64d-4ed4-97bb-f9a1b9e97102,1,be4b4bfc-1b2e-4d61-a093-873e2bf4c9c1,e064ddec-746e-4ba3-b66c-21d91248ef85
2019-09-07 02:04:09,9e4572d8-27f6-4025-886c-27ee826b782a,1,be4b4bfc-1b2e-4d61-a093-873e2bf4c9c1,0971bfd4-c0d7-4ff9-991f-5ce2ea1f5bc4
2019-09-07 02:04:09,af74a462-8056-4a37-b9e3-b12a3d5681f5,1,be4b4bfc-1b2e-4d61-a093-873e2bf4c9c1,04cfc5bc-0661-492a-85d3-a775520fe6f1
2019-09-07 02:04:09,0b5517dd-540d-493e-9335-f16aad01cc33,1,be4b4bfc-1b2e-4d61-a093-873e2bf4c9c1,0971bfd4-c0d7-4ff9-991f-5ce2ea1f5bc4
2019-09-07 02:05:12,dde04116-1f8f-48a6-95cf-9d59d82b3ce9,1,be4b4bfc-1b2e-4d61-a093-873e2bf4c9c1,31a77745-054f-4d9d-bf0a-9af5f03f9274
2019-09-07 02:05:12,e9903101-f15a-4fc7-9d70-cfddf9923429,1,be4b4bfc-1b2e-4d61-a093-873e2bf4c9c1,b12674b0-1749-4c9e-aaca-fd5194aa1978
2019-09-07 02:05:12,9632f230-83f7-423a-8f8b-843c5fb5ee48,1,be4b4bfc-1b2e-4d61-a093-873e2bf4c9c1,31a77745-054f-4d9d-bf0a-9af5f03f9274
2019-09-07 02:06:16,a29d7890-6da6-42f1-81ca-5c4edde31efe,1,be4b4bfc-1b2e-4d61-a093-873e2bf4c9c1,f1656eb0-54f4-4cb2-a432-872db5431f46
2019-09-07 02:06:16,2c36dc44-1069-4c74-b3b8-e24a61225305,1,be4b4bfc-1b2e-4d61-a093-873e2bf4c9c1,e064ddec-746e-4ba3-b66c-21d91248ef85
2019-09-07 02:06:16,7621014e-781b-42d1-8842-9d66a9f533b8,1,be4b4bfc-1b2e-4d61-a093-873e2bf4c9c1,e064ddec-746e-4ba3-b66c-21d91248ef85
2019-09-07 02:07:20,b5cbb415-5a81-48a5-b86f-c0640bda1711,1,be4b4bfc-1b2e-4d61-a093-873e2bf4c9c1,939d8dd5-8199-4e53-83f5-15e54b00b11d
2019-09-07 02:07:20,fafee583-4abd-4f23-a7f8-2e2839629caf,1,be4b4bfc-1b2e-4d61-a093-873e2bf4c9c1,b7d1b6fe-5aff-40f8-84b7-fffba9c4a73b
2019-09-07 02:07:20,5615497b-f85b-4d06-8f39-502f64b0fe36,1,be4b4bfc-1b2e-4d61-a093-873e2bf4c9c1,939d8dd5-8199-4e53-83f5-15e54b00b11d
2019-09-07 02:08:24,0fcea620-e40a-46b6-9b36-68a0c01be91d,1,be4b4bfc-1b2e-4d61-a093-873e2bf4c9c1,e58d99ae-1194-4c4a-b613-8773a4024f7e
2019-09-07 02:08:24,bbd28d35-9248-47c3-8eeb-c796d2e7e701,1,be4b4bfc-1b2e-4d61-a093-873e2bf4c9c1,24e953f4-978a-4883-ae06-35f9479edae0
2019-09-07 02:08:24,be03c579-3762-4219-88b5-ff6bcf4c204b,1,be4b4bfc-1b2e-4d61-a093-873e2bf4c9c1,24e953f4-978a-4883-ae06-35f9479edae0
2019-09-07 02:09:27,731b9401-cce3-4b16-bb4f-4d0a6b90806b,1,be4b4bfc-1b2e-4d61-a093-873e2bf4c9c1,a05f94f0-4d77-4828-9c30-982096d12a5a
2019-09-07 02:09:27,e1cf1405-e4f3-479b-ac91-bd950c7baa51,1,be4b4bfc-1b2e-4d61-a093-873e2bf4c9c1,a05f94f0-4d77-4828-9c30-982096d12a5a
2019-09-07 02:09:27,76f3b028-6965-43e2-97dd-a2e5f3943b01,1,be4b4bfc-1b2e-4d61-a093-873e2bf4c9c1,87043a8a-3092-47e2-aa99-d5d8d4cce341
2019-09-07 02:10:31,0337d598-9cad-4f9a-9ca7-6bd79376dffd,1,be4b4bfc-1b2e-4d61-a093-873e2bf4c9c1,f928a3ab-1110-487e-b616-0c2784a9e8de
2019-09-07 02:10:31,34dc04d1-2be6-4c70-9988-2139d3b7132d,1,be4b4bfc-1b2e-4d61-a093-873e2bf4c9c1,209f8be6-f803-47fe-a2e8-5cacaab4a3e8
2019-09-07 02:10:31,e567c3b8-12da-4145-be68-e21bf348d279,1,be4b4bfc-1b2e-4d61-a093-873e2bf4c9c1,209f8be6-f803-47fe-a2e8-5cacaab4a3e8
2019-09-07 02:11:35,1fb04009-d481-4a11-96c1-71c0e7c36024,1,be4b4bfc-1b2e-4d61-a093-873e2bf4c9c1,0971bfd4-c0d7-4ff9-991f-5ce2ea1f5bc4
2019-09-07 02:11:35,36d3de6f-ed51-4e78-baf9-0940e7c4bd50,1,be4b4bfc-1b2e-4d61-a093-873e2bf4c9c1,51228c03-931f-4c0b-8a12-a5a7dbf32566
2019-09-07 02:11:35,010f479b-cc9c-41e3-b0ac-a90dd39de9d7,1,be4b4bfc-1b2e-4d61-a093-873e2bf4c9c1,0971bfd4-c0d7-4ff9-991f-5ce2ea1f5bc4
2019-09-07 02:12:38,ed7bed4d-3767-405e-b9ef-23db9d02c810,1,be4b4bfc-1b2e-4d61-a093-873e2bf4c9c1,939d8dd5-8199-4e53-83f5-15e54b00b11d
2019-09-07 02:12:38,015629cb-7181-42d5-973a-802ed8f36f44,1,be4b4bfc-1b2e-4d61-a093-873e2bf4c9c1,939d8dd5-8199-4e53-83f5-15e54b00b11d
2019-09-07 02:12:38,76cfa622-2a20-4cbe-879c-4e8235d51bb8,1,be4b4bfc-1b2e-4d61-a093-873e2bf4c9c1,2558022f-bd1f-4bbc-9ab3-bd93f8e923b9
2019-09-07 02:13:42,a4330582-9242-49d1-80f1-341b649bf62f,1,be4b4bfc-1b2e-4d61-a093-873e2bf4c9c1,b8fa676e-77b9-4d4f-984c-03c62dd3c494
2019-09-07 02:13:42,19bbac82-6292-40e0-84c1-b3bccb4a4f2a,1,be4b4bfc-1b2e-4d61-a093-873e2bf4c9c1,24e953f4-978a-4883-ae06-35f9479edae0
2019-09-07 02:13:42,a8473052-56c8-4884-a9dd-9e180088c3dd,1,be4b4bfc-1b2e-4d61-a093-873e2bf4c9c1,24e953f4-978a-4883-ae06-35f9479edae0
2019-09-07 02:09:31,dde04116-1f8f-48a6-95cf-9d59d82b3ce9,1,31a77745-054f-4d9d-bf0a-9af5f03f9274,3b874a95-ee1e-42c6-9570-b347ac86e683
2019-09-07 02:09:31,9632f230-83f7-423a-8f8b-843c5fb5ee48,1,31a77745-054f-4d9d-bf0a-9af5f03f9274,3b874a95-ee1e-42c6-9570-b347ac86e683
2019-09-07 02:13:14,bac43b62-0713-4b5a-ab60-30d406c3930e,1,31a77745-054f-4d9d-bf0a-9af5f03f9274,e064ddec-746e-4ba3-b66c-21d91248ef85
2019-09-07 02:13:14,a6965c35-6513-4079-93aa-633f02865011,1,31a77745-054f-4d9d-bf0a-9af5f03f9274,e064ddec-746e-4ba3-b66c-21d91248ef85
2019-09-07 02:03:52,9d540263-a3df-4e56-afa1-8d4ef3cd37c8,1,6ddbbf18-3233-4bf3-add3-50d05ecafdd9,4a049def-5c55-4c6f-8e05-a9841f580c0f
2019-09-07 02:20:55,bbd28d35-9248-47c3-8eeb-c796d2e7e701,1,24e953f4-978a-4883-ae06-35f9479edae0,6ddbbf18-3233-4bf3-add3-50d05ecafdd9
2019-09-07 02:20:55,be03c579-3762-4219-88b5-ff6bcf4c204b,1,24e953f4-978a-4883-ae06-35f9479edae0,6ddbbf18-3233-4bf3-add3-50d05ecafdd9
2019-09-07 02:13:44,7b74af67-75b2-40e4-970d-4959f20b1dbf,1,3b874a95-ee1e-42c6-9570-b347ac86e683,209f8be6-f803-47fe-a2e8-5cacaab4a3e8
2019-09-07 02:13:44,65ae65c9-0360-47b9-a6c8-198cd9b5cae7,1,3b874a95-ee1e-42c6-9570-b347ac86e683,209f8be6-f803-47fe-a2e8-5cacaab4a3e8
2019-09-07 02:18:13,bd3f36ea-a54f-4ecf-b266-a0d61bb38558,1,209f8be6-f803-47fe-a2e8-5cacaab4a3e8,3b874a95-ee1e-42c6-9570-b347ac86e683
2019-09-07 02:31:42,7b74af67-75b2-40e4-970d-4959f20b1dbf,1,209f8be6-f803-47fe-a2e8-5cacaab4a3e8,22f5b57a-4adb-4611-b44e-ec0c384e9c68
2019-09-07 02:31:42,65ae65c9-0360-47b9-a6c8-198cd9b5cae7,1,209f8be6-f803-47fe-a2e8-5cacaab4a3e8,22f5b57a-4adb-4611-b44e-ec0c384e9c68
2019-09-07 02:09:31,e9903101-f15a-4fc7-9d70-cfddf9923429,1,b12674b0-1749-4c9e-aaca-fd5194aa1978,b12674b0-1749-4c9e-aaca-fd5194aa1978
2019-09-07 02:13:14,f71adc55-9607-496a-ae38-033203ae79d6,1,53983ee5-feeb-4605-913f-79ff05576a2c,53983ee5-feeb-4605-913f-79ff05576a2c
2019-09-07 02:13:44,d7f836e6-ae42-4b7a-8780-bbf1b19c18b3,1,73cff2fe-bc83-451e-a01f-1b54e0dbcf28,73cff2fe-bc83-451e-a01f-1b54e0dbcf28
2019-09-07 02:31:42,d7f836e6-ae42-4b7a-8780-bbf1b19c18b3,1,73cff2fe-bc83-451e-a01f-1b54e0dbcf28,73cff2fe-bc83-451e-a01f-1b54e0dbcf28
2019-09-07 02:20:55,0fcea620-e40a-46b6-9b36-68a0c01be91d,1,e58d99ae-1194-4c4a-b613-8773a4024f7e,e58d99ae-1194-4c4a-b613-8773a4024f7e
2019-09-07 02:18:14,7e505d00-cf91-4c4c-b0a7-939c5502a83a,1,0c348785-2281-496f-8520-4357513ead70,0c348785-2281-496f-8520-4357513ead70
2019-09-07 02:03:52,2429ade5-ab97-471a-9489-bdf3a5b286d5,1,e48459e8-edc7-48c9-a740-1a1beb43f5d1,e48459e8-edc7-48c9-a740-1a1beb43f5d1
2019-09-07 02:11:37,2429ade5-ab97-471a-9489-bdf3a5b286d5,1,e48459e8-edc7-48c9-a740-1a1beb43f5d1,e48459e8-edc7-48c9-a740-1a1beb43f5d1
