app_number,app_id,trigger,burn,sink,deploy_date,token_interval
1,fa067c97-e284-44d9-a202-34fdd3c63ce6,d6bfe453-7399-493c-b6b9-b232087e1f8e,4ddf9c89-c95e-4dcd-bdb0-bce577b7e482,b03183f1-025e-4dca-9035-05e8eac869d8,2020-02-23 04:50:59,1.000000
2,02c58e84-6e83-4247-adc6-662c76efe4b5,7448b12e-c2e4-43eb-b2dd-4a5fa9afa763,cb292641-485d-46f2-882b-4de84a222225,ca3e46e1-a9ee-4436-8896-65cb2b7ae16d,2020-02-23 04:52:02,1.000000
3,3513508f-14d5-4191-a872-649d9c4a5eb2,be6429e9-c650-41b6-bf60-11539d20725f,fca3de7d-0dea-4647-904e-cb5111a1f30b,c8efbdea-99c5-4568-9b8f-fa63cb9c5dba,2020-02-23 04:53:06,1.000000
4,91a5b5b2-89a4-40da-9110-23919267f764,97fe45e6-aa3c-44a5-ad1e-3be96293cf16,09b78558-0071-4a62-9510-2d307a712215,ba6701f4-a826-4c5b-9b93-06d8a3c3602f,2020-02-23 04:54:09,0.200000
5,81d9acd5-6c57-4271-a32c-0c605ad4d8b1,2a7e33a1-7acd-4e6c-8353-a33b61c6f12b,7621f856-4e20-420f-9e19-bace7f507abc,31995729-0153-4f4b-af3c-089079e5e1ec,2020-02-23 04:55:12,0.200000
6,cfb14b83-5908-4c58-91a5-ef439f5c5298,db50aea9-7eb5-4c56-82b2-158eb1f5604b,90fac63c-3e4b-4141-aeee-27c327a0f69d,a7c49bc9-60b3-432e-9298-47f84fc72c50,2020-02-23 04:56:16,0.200000
7,fcbd27db-104f-4227-ae35-c3572db1cbf2,8a857785-1bbf-45f7-b494-4fcb2ce221b0,a0c0e52a-1dfd-4eaf-9247-ddb3170a7411,f59cf734-517e-4071-a946-28c965fbce55,2020-02-23 04:57:19,0.200000
8,3f3af47c-c0e8-4164-831f-c242eb638c97,d84f44fb-4c70-4be1-bb82-4ae96864170d,567a6e83-35af-4de5-ae75-a915dab6ca33,9f7dedb4-9f8a-490b-86ff-a890de2432b4,2020-02-23 04:58:22,1.000000
9,1fa6853b-6df1-4af8-b1aa-767f2ba63830,7db02625-696d-4067-8b02-7beadfdc9f8d,0322fc14-3134-4ee4-927e-db9b4754c1c3,dcd622ba-9f33-4044-9409-049f07bb1b24,2020-02-23 04:59:25,0.200000
10,e001de90-2178-431c-8eac-05790e4f5c7f,0eb323e6-6473-4ea9-b1ba-c2daec55726e,964af168-2c72-4ef7-9d9d-3fdedcb85f16,50920ab3-0f3a-488b-b3c3-6b4823ecadcf,2020-02-23 05:00:28,0.200000
11,1b673b5e-0bc6-4725-ad81-f43cf6fadb76,8cde05f0-77da-482e-81b9-a3e99ef72566,ae35ceba-dfe5-4a9d-9882-bb1d77db5eac,543f84af-0497-4017-a83a-a809ee8c96fb,2020-02-23 05:01:32,0.200000
12,49547463-ac43-475d-b2af-8fc828b05dab,bb1421db-7136-4003-9376-4e8922837fc4,581a25f6-6ec1-4155-a2a4-838075bfb783,41a43afd-551a-49df-a242-ef694edf1d66,2020-02-23 05:02:35,1.000000
13,ef35c9b3-d48f-4f0c-abd7-57ec340f0d1c,550901ad-d674-4896-861d-b8a11eb74a2d,b64d7b7d-a653-4d99-aa26-2be30accf0ce,074cb5f7-9018-4d28-a10d-862db2c386b9,2020-02-23 05:03:38,0.200000
14,618f03e8-e0ac-4bf7-914c-d415d03d7d93,f819eb07-b08b-449a-89f1-dd10fada8504,8f3735c2-7f33-4c47-a7a3-84b04297593a,6ef53759-d107-418d-8388-c5e4e14f894b,2020-02-23 05:04:42,0.200000
15,8806164b-ca3c-4680-9130-f86c0eae2cb4,ec201e24-b33a-493a-84fe-80181223c4a8,266c8989-0233-4361-8da9-0c96cf0f36cb,03215ee3-ebfa-48a9-8bd2-ad8d64331299,2020-02-23 05:05:44,1.000000
16,f5d442d7-966c-485e-b9c6-7663a8071200,7ea1aed0-f5f2-4c8e-a741-d95921f130ba,1d407521-d239-4ee9-b7d8-bddcaf203ac3,1b364332-b7b7-4f20-9028-813749dd6f0c,2020-02-23 05:06:48,1.000000
17,9f3c9b0b-f811-4d28-8386-ff3b94ddb6f6,8cb7ff27-a4a2-4494-acd5-00ff4cea7f4b,813a0922-caf8-412d-9f1d-e53c98ab0fa1,5e4d193d-7bca-41be-a565-6d6df3ae1e31,2020-02-23 05:07:51,0.200000
18,ff6c2b7c-2904-4c6d-99b7-86756a7d2cba,1728d81c-929a-47df-b95d-06c5b8d17085,513a5b67-a39a-4cfa-b17b-f7662ce890d8,97a5b516-194f-4b18-a917-016eda7c54b4,2020-02-23 05:08:55,1.000000
19,6bbf8394-8a00-4652-a8b8-231da7e0ec65,65d3f641-dbe1-4f8e-bde7-65d0fb417e48,94d787df-dae1-435f-bc51-fae68c0ec300,df5abbf0-5118-46bc-83d3-06a187780942,2020-02-23 05:09:58,0.200000
20,3dbd5ec3-31d2-44a7-bff8-04fd208400be,ad8f45b3-dcb6-41c0-aa3d-bc40f77db351,3cfcad79-fc83-49e3-afbf-6890edf826c9,c3cd9048-af71-4995-856e-1f1142613ece,2020-02-23 05:11:01,1.000000
21,d52bdeba-7aff-4e14-a07c-4df94e52b951,f9e9944d-7c32-4606-be4c-f14d37916e13,47f7a2f4-4029-4816-a6f4-e05887078ac1,80a22769-213f-4c85-9c6c-64c6fb0271e5,2020-02-23 05:12:05,0.200000
22,b0e9f6b8-9638-469f-805d-1209f8d6eacb,4fa38918-0e50-429e-9be4-15fe75f572f6,00f99814-3796-44f0-af9d-828a740320c5,1b678e94-ffc4-4650-9c6f-05d4421dd697,2020-02-23 05:13:08,0.200000
23,19830196-3390-4bcb-86a9-30157760a729,47019603-08e5-45a3-bae9-5faf66a86b96,c662797b-ad25-494f-b569-46f36faa9d70,20fddd4a-0ae7-4508-a6c6-8371c5a8095c,2020-02-23 05:14:11,0.200000
24,bf8eb182-5379-4c04-a1c3-83e010a394a0,0300cbda-c91b-4024-a679-80ae1b11cb1f,822e6099-1be9-4cc9-8950-9a16848af691,c8a2dbed-bf57-4a66-94b0-25b457339961,2020-02-23 05:15:15,1.000000
25,302cb9a7-1ef0-4794-8477-f403983a819d,645fd19c-d16f-47f0-8762-9455a8cf60a0,5847c004-f217-45f6-96e9-637f28547ba2,aa6f19a2-dce9-43cf-9735-f36056c0c452,2020-02-23 05:16:18,1.000000
26,008b2c2b-dbd4-42ad-aa06-4e277b17a5d8,03c7c211-a2fc-428d-85a3-75959cc22333,d9303315-45d4-410c-a089-ea7c2150682e,9c92b4ed-59b6-4a74-9daf-654760af6dce,2020-02-23 05:17:22,1.000000
27,45fb547f-cef6-4ab6-a58f-0abc3afc412a,9db5fedb-05e2-4de4-85bb-094d694136aa,dea05151-e9f8-4cf4-ba09-22606a61af02,d15295dc-f9f8-43d6-80c2-12f3e99f3998,2020-02-23 05:18:25,0.200000
28,1ec080ec-2170-4465-8b48-b3f26b3ccba3,c59ed699-9725-4f33-8109-4d2113f6a169,02b6e01c-82f4-4a51-a158-c39a41a08e6b,23b60e92-9da8-4855-81da-12416e68f4ea,2020-02-23 05:19:28,1.000000
29,a6f60340-ffa7-4bf6-81d0-47e28825f2ee,fe88e7d2-99cd-40a4-8633-0e0d5508feac,81c182e9-95f0-4a9a-b78b-63ba8f891901,1c72a0ac-30ce-46a8-bcff-7398367300eb,2020-02-23 05:20:32,1.000000
30,bfbd35c4-118b-41a8-9aa1-6c458c5b6ea1,20c76516-154c-49be-b219-92b92fc4869c,266acd54-c29a-435e-b201-1f897b8425fa,375670d0-c284-46f2-a4ba-14a17d7d9d8d,2020-02-23 05:21:35,1.000000
31,e21a2b77-d3d3-4d98-a487-69b6c32bb663,5a305a87-c8b6-4771-b2af-7dee8a953c4c,db61f34d-e63f-4264-952c-70fecc6c950b,e60c8755-d024-44fd-9cd4-198509c2fa63,2020-02-23 05:22:38,1.000000
32,d3bf0257-4867-4cea-9352-b8d6a9af2165,54e56f98-9ddb-4103-9e4b-6005bffd85e7,8fca6465-769a-40a3-b5ed-fc51bfda1f12,55f12869-fbe8-4bf8-96ab-7f79c403bab4,2020-02-23 05:23:42,0.200000
33,57a3133c-f1bd-4a5e-90c4-a832de764f35,4b56bed2-c110-4775-86eb-9ba737647424,da8a7264-1442-43d8-bbb8-4aff6b357d10,628c6002-b173-4e2c-b539-684a1e3e679e,2020-02-23 05:24:45,1.000000
34,6a6156b2-8cc2-4a6a-a998-2a837a13bf18,68787b89-4dbe-4cfd-ac08-ca51f55abe91,41d1f994-89f7-4f9c-8b56-c836e037b287,ac021b6d-7116-440b-adbb-a576adbf57c2,2020-02-23 05:25:48,0.200000
35,d24471b2-f93e-4a77-8548-bf6af8e568ec,218d391c-4f0f-4f33-a9b4-957a3a79c465,acaa87a8-d60c-4017-b642-15af49909b3d,3b267caa-0512-418b-a118-924a72437a1e,2020-02-23 05:26:51,1.000000
36,157dce42-6f7c-4c79-ae61-7d5c8c24f583,950d3a96-6863-4a39-aa2a-a04d5db51ae4,cf2cb648-65a5-4e2d-a77b-5da8dff87f7e,7d06aab9-7f35-4118-8273-0d6e1ff425c3,2020-02-23 05:27:54,0.200000
37,30619ee9-d115-4dfc-81a6-b8035b539e1a,158a827a-6727-4970-9c71-e26ad47e9bff,00fc8fa3-426c-4ef3-9bc3-3f45bec48da2,382e5e6e-ba5c-4657-9180-4931ec27e062,2020-02-23 05:28:58,1.000000
38,e7739ea1-1d1c-4ac1-9537-25bbdac63bf8,17aa242a-635f-46d4-8d93-2b5110cd46b5,d380f978-9f5f-45c8-92cb-b42b2a23f583,c1967292-7050-41f0-8107-4eedf1f0ccc5,2020-02-23 05:30:01,1.000000
39,aaa71fb6-bc07-4505-86ac-724da53fdd5a,e0dc804a-8a35-4c60-9a54-8ac00f469a67,a1d4825b-ca0c-46a7-abb3-93a15543fd8d,f31c87a7-cea1-4e71-a41d-c8e38759f738,2020-02-23 05:31:04,0.200000
40,1dbb55fd-d5c7-4419-933e-8c85965a775b,1e46fc1d-ede1-4654-81aa-5befad387a3b,4a3a5b95-7591-4987-a09f-320e7765d19d,eead8224-00d3-4705-8a1c-f9580ee31c61,2020-02-23 05:32:08,0.200000
41,8fa67ce8-b57e-414c-adf1-1b67e779d5ac,21069580-58f6-44fc-89c6-959c984b9940,968d6264-6278-4493-aed4-2ede090e9f35,ccb081db-53b0-44ba-8897-35375c237980,2020-02-23 05:33:11,1.000000
42,0ebf628c-cc77-4468-a374-57140aa163ef,9a5571e3-899c-4ef9-bee9-01eb8674eb44,6fab77ec-8c85-4e45-a1fe-9ab1b6888069,b9e1ed0c-3c8f-4c50-8e47-fe8fc110f53e,2020-02-23 05:34:14,0.200000
43,9cbf7319-4e4f-4c33-b953-628e1023c8c5,6dbdc407-7289-4aa7-b5d0-f7fc5c9260c9,ffb2a86c-fa29-4e13-bd6b-0aae1abf6c73,290c07a5-17f4-44ad-8e34-e524af624717,2020-02-23 05:35:17,0.200000
44,84b522b2-fd04-41a3-9bc2-8030c9686290,b4894a99-3e59-4224-9d69-07e1a7c429ef,f1211ebc-2e55-4e3b-9c83-f05d98566dc8,eed6aed5-e487-4aaf-9e1a-c85aea9ab811,2020-02-23 05:36:20,0.200000
45,55b7d9c9-859e-4387-8c2f-006bec229b5d,b77c43e5-b851-414d-8518-f909cb5058e6,a304e785-6ccb-47e0-9a5a-80f688946b35,ee7d58b4-0b18-4718-a390-fee33bc22170,2020-02-23 05:37:24,1.000000
46,25fe9bca-d65b-4454-abe0-7a4b84e162d2,1e2b73b3-298d-4d66-80d3-79082acefb56,9f7af27e-9e7c-4f64-8b1d-bcbe765f4ea8,f7b0fe64-3609-4d53-a2a2-64f07f25dcda,2020-02-23 05:38:27,0.200000
47,51876160-fa75-4ad2-81f8-da1fd040f1f4,f9eb0936-8eb2-4935-8c5a-f479a3742d49,720185fa-ed68-485f-a640-9d594cf99083,42bb4c08-da4b-4b03-bff1-0419bf52dd36,2020-02-23 05:39:31,0.200000
48,6348d279-289c-424f-b1c4-824d4eb08234,78a1a370-9230-4bb8-a9fb-810beb672e71,1add93e8-2c05-446d-8c4a-30db2c1c0514,26e33dd9-daa5-43dc-9c54-fdaf052972f9,2020-02-23 05:40:34,1.000000
49,e7632b79-3958-4d7d-be72-6098b2421b82,d6023e41-079c-43eb-9bf0-71c9d8d01391,58815cb4-cd3f-4410-8f3b-01696beec26d,753aae3b-c256-46cf-a464-5e599cd9f9f1,2020-02-23 05:41:38,0.200000
50,e8d50d71-e309-44f3-97ac-f799aa9c75be,49df950b-bc1a-46e2-93bd-2b5bfa815907,d24b9d78-aa8b-4fa6-bd24-cc5c4a4fd8e7,a8c7d410-0008-4c8a-a037-2a04624fd3f0,2020-02-23 05:42:41,1.000000
