date,trigger,state
2020-02-16 22:20:07,7c4b3771-2ef0-4671-bd9b-944218a1f47c,A
2020-02-16 22:36:10,7c4b3771-2ef0-4671-bd9b-944218a1f47c,S
2020-02-16 22:39:24,7c4b3771-2ef0-4671-bd9b-944218a1f47c,A
2020-02-16 22:42:10,7c4b3771-2ef0-4671-bd9b-944218a1f47c,S
2020-02-16 22:42:40,7c4b3771-2ef0-4671-bd9b-944218a1f47c,A
2020-02-16 22:56:38,7c4b3771-2ef0-4671-bd9b-944218a1f47c,S
2020-02-16 23:00:08,7c4b3771-2ef0-4671-bd9b-944218a1f47c,A
2020-02-16 23:02:59,7c4b3771-2ef0-4671-bd9b-944218a1f47c,S
2020-02-16 23:06:59,7c4b3771-2ef0-4671-bd9b-944218a1f47c,A
2020-02-16 23:20:23,7c4b3771-2ef0-4671-bd9b-944218a1f47c,S
2020-02-16 23:20:33,7c4b3771-2ef0-4671-bd9b-944218a1f47c,A
2020-02-16 23:29:16,7c4b3771-2ef0-4671-bd9b-944218a1f47c,S
2020-02-16 23:33:32,7c4b3771-2ef0-4671-bd9b-944218a1f47c,A
2020-02-16 23:40:09,7c4b3771-2ef0-4671-bd9b-944218a1f47c,S
2020-02-16 23:42:40,7c4b3771-2ef0-4671-bd9b-944218a1f47c,A
2020-02-16 23:53:52,7c4b3771-2ef0-4671-bd9b-944218a1f47c,S
2020-02-16 23:55:46,7c4b3771-2ef0-4671-bd9b-944218a1f47c,A
2020-02-16 23:56:44,7c4b3771-2ef0-4671-bd9b-944218a1f47c,S
2020-02-16 23:59:36,7c4b3771-2ef0-4671-bd9b-944218a1f47c,A
2020-02-17 00:05:35,7c4b3771-2ef0-4671-bd9b-944218a1f47c,S
2020-02-17 00:14:23,7c4b3771-2ef0-4671-bd9b-944218a1f47c,A
2020-02-17 00:17:26,7c4b3771-2ef0-4671-bd9b-944218a1f47c,S
2020-02-17 00:19:17,7c4b3771-2ef0-4671-bd9b-944218a1f47c,A
2020-02-17 00:21:26,7c4b3771-2ef0-4671-bd9b-944218a1f47c,S
2020-02-16 23:05:27,17acd1ec-ea4d-4d44-b1d2-52cd3f3d4035,A
2020-02-16 23:39:12,17acd1ec-ea4d-4d44-b1d2-52cd3f3d4035,S
2020-02-16 23:39:40,17acd1ec-ea4d-4d44-b1d2-52cd3f3d4035,A
2020-02-17 00:08:57,17acd1ec-ea4d-4d44-b1d2-52cd3f3d4035,S
2020-02-17 00:12:00,17acd1ec-ea4d-4d44-b1d2-52cd3f3d4035,A
2020-02-17 00:14:28,17acd1ec-ea4d-4d44-b1d2-52cd3f3d4035,S
2020-02-17 00:16:00,17acd1ec-ea4d-4d44-b1d2-52cd3f3d4035,A
2020-02-17 00:16:46,17acd1ec-ea4d-4d44-b1d2-52cd3f3d4035,S
2020-02-17 00:20:01,17acd1ec-ea4d-4d44-b1d2-52cd3f3d4035,A
2020-02-16 22:42:52,1c639894-3f2a-4d4f-969e-b5b373913fb6,A
2020-02-16 22:48:54,1c639894-3f2a-4d4f-969e-b5b373913fb6,S
2020-02-16 22:51:25,1c639894-3f2a-4d4f-969e-b5b373913fb6,A
2020-02-16 22:52:09,1c639894-3f2a-4d4f-969e-b5b373913fb6,S
2020-02-16 22:52:13,1c639894-3f2a-4d4f-969e-b5b373913fb6,A
2020-02-16 22:55:03,1c639894-3f2a-4d4f-969e-b5b373913fb6,S
2020-02-16 23:03:19,1c639894-3f2a-4d4f-969e-b5b373913fb6,A
2020-02-16 23:06:05,1c639894-3f2a-4d4f-969e-b5b373913fb6,S
2020-02-16 23:06:08,1c639894-3f2a-4d4f-969e-b5b373913fb6,A
2020-02-16 23:12:13,1c639894-3f2a-4d4f-969e-b5b373913fb6,S
2020-02-16 23:16:36,1c639894-3f2a-4d4f-969e-b5b373913fb6,A
2020-02-16 22:52:26,3b503d70-cfb8-4fff-8ac2-d5fb83a5062e,S
2020-02-16 22:54:44,3b503d70-cfb8-4fff-8ac2-d5fb83a5062e,A
2020-02-16 22:59:56,3b503d70-cfb8-4fff-8ac2-d5fb83a5062e,S
2020-02-16 23:08:01,3b503d70-cfb8-4fff-8ac2-d5fb83a5062e,A
2020-02-16 23:15:25,3b503d70-cfb8-4fff-8ac2-d5fb83a5062e,S
2020-02-16 23:15:47,3b503d70-cfb8-4fff-8ac2-d5fb83a5062e,A
2020-02-16 23:21:20,3b503d70-cfb8-4fff-8ac2-d5fb83a5062e,S
2020-02-16 23:32:24,3b503d70-cfb8-4fff-8ac2-d5fb83a5062e,A
2020-02-16 23:36:48,3b503d70-cfb8-4fff-8ac2-d5fb83a5062e,S
2020-02-16 23:39:35,3b503d70-cfb8-4fff-8ac2-d5fb83a5062e,A
2020-02-16 23:46:18,3b503d70-cfb8-4fff-8ac2-d5fb83a5062e,S
2020-02-16 23:47:08,3b503d70-cfb8-4fff-8ac2-d5fb83a5062e,A
2020-02-16 23:49:54,3b503d70-cfb8-4fff-8ac2-d5fb83a5062e,S
2020-02-16 23:53:44,3b503d70-cfb8-4fff-8ac2-d5fb83a5062e,A
2020-02-17 00:00:12,3b503d70-cfb8-4fff-8ac2-d5fb83a5062e,S
2020-02-17 00:03:17,3b503d70-cfb8-4fff-8ac2-d5fb83a5062e,A
2020-02-17 00:15:37,3b503d70-cfb8-4fff-8ac2-d5fb83a5062e,S
2020-02-17 00:20:23,3b503d70-cfb8-4fff-8ac2-d5fb83a5062e,A
2020-02-17 00:22:28,3b503d70-cfb8-4fff-8ac2-d5fb83a5062e,S
2020-02-16 22:37:25,a651dd5f-cefc-4631-8aa3-58094f0b4f2c,S
2020-02-16 22:45:03,a651dd5f-cefc-4631-8aa3-58094f0b4f2c,A
2020-02-16 22:46:59,a651dd5f-cefc-4631-8aa3-58094f0b4f2c,S
2020-02-16 22:58:17,a651dd5f-cefc-4631-8aa3-58094f0b4f2c,A
2020-02-16 23:00:07,a651dd5f-cefc-4631-8aa3-58094f0b4f2c,S
2020-02-16 23:00:48,a651dd5f-cefc-4631-8aa3-58094f0b4f2c,A
2020-02-16 23:10:19,a651dd5f-cefc-4631-8aa3-58094f0b4f2c,S
2020-02-16 23:13:34,a651dd5f-cefc-4631-8aa3-58094f0b4f2c,A
2020-02-16 23:14:10,a651dd5f-cefc-4631-8aa3-58094f0b4f2c,S
2020-02-16 23:14:41,a651dd5f-cefc-4631-8aa3-58094f0b4f2c,A
2020-02-16 23:19:45,a651dd5f-cefc-4631-8aa3-58094f0b4f2c,S
2020-02-16 23:20:10,a651dd5f-cefc-4631-8aa3-58094f0b4f2c,A
2020-02-16 23:20:34,a651dd5f-cefc-4631-8aa3-58094f0b4f2c,S
2020-02-16 23:21:18,a651dd5f-cefc-4631-8aa3-58094f0b4f2c,A
2020-02-16 23:23:09,a651dd5f-cefc-4631-8aa3-58094f0b4f2c,S
2020-02-16 23:24:01,a651dd5f-cefc-4631-8aa3-58094f0b4f2c,A
2020-02-16 23:34:36,a651dd5f-cefc-4631-8aa3-58094f0b4f2c,S
2020-02-16 23:35:47,a651dd5f-cefc-4631-8aa3-58094f0b4f2c,A
2020-02-16 23:42:40,a651dd5f-cefc-4631-8aa3-58094f0b4f2c,S
2020-02-16 23:51:20,a651dd5f-cefc-4631-8aa3-58094f0b4f2c,A
2020-02-16 23:54:28,a651dd5f-cefc-4631-8aa3-58094f0b4f2c,S
2020-02-16 23:58:03,a651dd5f-cefc-4631-8aa3-58094f0b4f2c,A
2020-02-16 23:58:19,a651dd5f-cefc-4631-8aa3-58094f0b4f2c,S
2020-02-17 00:05:24,a651dd5f-cefc-4631-8aa3-58094f0b4f2c,A
2020-02-17 00:05:32,a651dd5f-cefc-4631-8aa3-58094f0b4f2c,S
2020-02-17 00:05:58,a651dd5f-cefc-4631-8aa3-58094f0b4f2c,A
2020-02-17 00:06:35,a651dd5f-cefc-4631-8aa3-58094f0b4f2c,S
2020-02-17 00:08:40,a651dd5f-cefc-4631-8aa3-58094f0b4f2c,A
2020-02-17 00:08:43,a651dd5f-cefc-4631-8aa3-58094f0b4f2c,S
2020-02-17 00:20:29,a651dd5f-cefc-4631-8aa3-58094f0b4f2c,A
2020-02-17 00:23:53,a651dd5f-cefc-4631-8aa3-58094f0b4f2c,S
2020-02-16 22:29:22,ff96469a-35e5-48cb-afc1-ae2b73db7198,S
2020-02-16 22:33:29,ff96469a-35e5-48cb-afc1-ae2b73db7198,A
2020-02-16 22:43:52,ff96469a-35e5-48cb-afc1-ae2b73db7198,S
2020-02-16 22:45:26,ff96469a-35e5-48cb-afc1-ae2b73db7198,A
2020-02-16 22:52:57,ff96469a-35e5-48cb-afc1-ae2b73db7198,S
2020-02-16 22:53:11,ff96469a-35e5-48cb-afc1-ae2b73db7198,A
2020-02-16 22:54:37,ff96469a-35e5-48cb-afc1-ae2b73db7198,S
2020-02-16 23:11:54,ff96469a-35e5-48cb-afc1-ae2b73db7198,A
2020-02-16 23:17:40,ff96469a-35e5-48cb-afc1-ae2b73db7198,S
2020-02-16 23:21:14,ff96469a-35e5-48cb-afc1-ae2b73db7198,A
2020-02-16 23:24:26,ff96469a-35e5-48cb-afc1-ae2b73db7198,S
2020-02-16 23:24:43,ff96469a-35e5-48cb-afc1-ae2b73db7198,A
2020-02-16 23:43:18,ff96469a-35e5-48cb-afc1-ae2b73db7198,S
2020-02-16 23:43:43,ff96469a-35e5-48cb-afc1-ae2b73db7198,A
2020-02-16 23:46:34,ff96469a-35e5-48cb-afc1-ae2b73db7198,S
2020-02-17 00:00:07,ff96469a-35e5-48cb-afc1-ae2b73db7198,A
2020-02-17 00:03:25,ff96469a-35e5-48cb-afc1-ae2b73db7198,S
2020-02-17 00:05:53,ff96469a-35e5-48cb-afc1-ae2b73db7198,A
2020-02-17 00:06:30,ff96469a-35e5-48cb-afc1-ae2b73db7198,S
2020-02-17 00:11:43,ff96469a-35e5-48cb-afc1-ae2b73db7198,A
2020-02-17 00:16:24,ff96469a-35e5-48cb-afc1-ae2b73db7198,S
2020-02-17 00:20:20,ff96469a-35e5-48cb-afc1-ae2b73db7198,A
2020-02-17 00:22:13,ff96469a-35e5-48cb-afc1-ae2b73db7198,S
2020-02-17 00:23:11,ff96469a-35e5-48cb-afc1-ae2b73db7198,A
2020-02-16 22:22:32,a40115f7-bddd-4b81-99e4-353db47c30d8,A
2020-02-16 22:26:00,a40115f7-bddd-4b81-99e4-353db47c30d8,S
2020-02-16 22:34:33,a40115f7-bddd-4b81-99e4-353db47c30d8,A
2020-02-16 22:37:36,a40115f7-bddd-4b81-99e4-353db47c30d8,S
2020-02-16 22:37:53,a40115f7-bddd-4b81-99e4-353db47c30d8,A
2020-02-16 22:40:21,a40115f7-bddd-4b81-99e4-353db47c30d8,S
2020-02-16 22:45:41,a40115f7-bddd-4b81-99e4-353db47c30d8,A
2020-02-16 22:49:36,a40115f7-bddd-4b81-99e4-353db47c30d8,S
2020-02-16 22:52:21,a40115f7-bddd-4b81-99e4-353db47c30d8,A
2020-02-16 23:03:09,a40115f7-bddd-4b81-99e4-353db47c30d8,S
2020-02-16 23:08:46,a40115f7-bddd-4b81-99e4-353db47c30d8,A
2020-02-16 23:31:20,a40115f7-bddd-4b81-99e4-353db47c30d8,S
2020-02-16 23:55:42,a40115f7-bddd-4b81-99e4-353db47c30d8,A
2020-02-17 00:02:16,a40115f7-bddd-4b81-99e4-353db47c30d8,S
2020-02-17 00:05:42,a40115f7-bddd-4b81-99e4-353db47c30d8,A
2020-02-17 00:08:36,a40115f7-bddd-4b81-99e4-353db47c30d8,S
2020-02-17 00:13:21,a40115f7-bddd-4b81-99e4-353db47c30d8,A
2020-02-16 22:58:51,405a3400-ee9a-4c32-bf5e-352bd91a8370,S
2020-02-16 23:00:46,405a3400-ee9a-4c32-bf5e-352bd91a8370,A
2020-02-16 23:01:15,405a3400-ee9a-4c32-bf5e-352bd91a8370,S
2020-02-16 23:09:34,405a3400-ee9a-4c32-bf5e-352bd91a8370,A
2020-02-16 23:12:25,405a3400-ee9a-4c32-bf5e-352bd91a8370,S
2020-02-16 23:18:47,405a3400-ee9a-4c32-bf5e-352bd91a8370,A
2020-02-16 23:23:23,405a3400-ee9a-4c32-bf5e-352bd91a8370,S
2020-02-16 23:24:36,405a3400-ee9a-4c32-bf5e-352bd91a8370,A
2020-02-16 23:33:19,405a3400-ee9a-4c32-bf5e-352bd91a8370,S
2020-02-16 23:34:54,405a3400-ee9a-4c32-bf5e-352bd91a8370,A
2020-02-16 23:42:56,405a3400-ee9a-4c32-bf5e-352bd91a8370,S
2020-02-16 23:43:09,405a3400-ee9a-4c32-bf5e-352bd91a8370,A
2020-02-16 23:49:44,405a3400-ee9a-4c32-bf5e-352bd91a8370,S
2020-02-16 23:54:38,405a3400-ee9a-4c32-bf5e-352bd91a8370,A
2020-02-16 23:55:33,405a3400-ee9a-4c32-bf5e-352bd91a8370,S
2020-02-16 23:57:30,405a3400-ee9a-4c32-bf5e-352bd91a8370,A
2020-02-16 23:57:31,405a3400-ee9a-4c32-bf5e-352bd91a8370,S
2020-02-16 23:58:51,405a3400-ee9a-4c32-bf5e-352bd91a8370,A
2020-02-17 00:01:37,405a3400-ee9a-4c32-bf5e-352bd91a8370,S
2020-02-17 00:09:04,405a3400-ee9a-4c32-bf5e-352bd91a8370,A
2020-02-17 00:10:37,405a3400-ee9a-4c32-bf5e-352bd91a8370,S
2020-02-17 00:11:12,405a3400-ee9a-4c32-bf5e-352bd91a8370,A
2020-02-17 00:18:15,405a3400-ee9a-4c32-bf5e-352bd91a8370,S
2020-02-17 00:21:44,405a3400-ee9a-4c32-bf5e-352bd91a8370,A
2020-02-16 23:08:04,5ce59c1b-db02-4c32-9e2d-2ecaad0469ad,S
2020-02-16 23:09:18,5ce59c1b-db02-4c32-9e2d-2ecaad0469ad,A
2020-02-16 23:15:04,5ce59c1b-db02-4c32-9e2d-2ecaad0469ad,S
2020-02-16 23:28:23,5ce59c1b-db02-4c32-9e2d-2ecaad0469ad,A
2020-02-16 23:36:08,5ce59c1b-db02-4c32-9e2d-2ecaad0469ad,S
2020-02-16 23:38:39,5ce59c1b-db02-4c32-9e2d-2ecaad0469ad,A
2020-02-16 23:55:02,5ce59c1b-db02-4c32-9e2d-2ecaad0469ad,S
2020-02-17 00:01:09,5ce59c1b-db02-4c32-9e2d-2ecaad0469ad,A
2020-02-17 00:15:58,5ce59c1b-db02-4c32-9e2d-2ecaad0469ad,S
2020-02-17 00:21:12,5ce59c1b-db02-4c32-9e2d-2ecaad0469ad,A
2020-02-17 00:23:46,5ce59c1b-db02-4c32-9e2d-2ecaad0469ad,S
2020-02-16 22:30:48,0ab6a470-4adc-4d6a-9cb8-0518e774d7bd,S
2020-02-16 22:37:01,0ab6a470-4adc-4d6a-9cb8-0518e774d7bd,A
2020-02-16 22:41:24,0ab6a470-4adc-4d6a-9cb8-0518e774d7bd,S
2020-02-16 22:51:56,0ab6a470-4adc-4d6a-9cb8-0518e774d7bd,A
2020-02-16 22:52:16,0ab6a470-4adc-4d6a-9cb8-0518e774d7bd,S
2020-02-16 22:57:44,0ab6a470-4adc-4d6a-9cb8-0518e774d7bd,A
2020-02-16 22:58:19,0ab6a470-4adc-4d6a-9cb8-0518e774d7bd,S
2020-02-16 22:58:56,0ab6a470-4adc-4d6a-9cb8-0518e774d7bd,A
2020-02-16 23:01:28,0ab6a470-4adc-4d6a-9cb8-0518e774d7bd,S
2020-02-16 23:01:48,0ab6a470-4adc-4d6a-9cb8-0518e774d7bd,A
2020-02-16 23:02:39,0ab6a470-4adc-4d6a-9cb8-0518e774d7bd,S
2020-02-16 23:18:12,0ab6a470-4adc-4d6a-9cb8-0518e774d7bd,A
2020-02-16 23:19:31,0ab6a470-4adc-4d6a-9cb8-0518e774d7bd,S
2020-02-16 23:22:39,0ab6a470-4adc-4d6a-9cb8-0518e774d7bd,A
2020-02-16 23:34:33,0ab6a470-4adc-4d6a-9cb8-0518e774d7bd,S
2020-02-16 23:36:00,0ab6a470-4adc-4d6a-9cb8-0518e774d7bd,A
2020-02-16 23:37:09,0ab6a470-4adc-4d6a-9cb8-0518e774d7bd,S
2020-02-16 23:38:00,0ab6a470-4adc-4d6a-9cb8-0518e774d7bd,A
2020-02-16 23:38:23,0ab6a470-4adc-4d6a-9cb8-0518e774d7bd,S
2020-02-16 23:44:53,0ab6a470-4adc-4d6a-9cb8-0518e774d7bd,A
2020-02-17 00:15:32,0ab6a470-4adc-4d6a-9cb8-0518e774d7bd,S
2020-02-17 00:19:18,0ab6a470-4adc-4d6a-9cb8-0518e774d7bd,A
2020-02-16 22:20:31,a088c000-641f-451a-a504-fc6046774749,S
2020-02-16 22:24:34,a088c000-641f-451a-a504-fc6046774749,A
2020-02-16 22:25:23,a088c000-641f-451a-a504-fc6046774749,S
2020-02-16 22:30:37,a088c000-641f-451a-a504-fc6046774749,A
2020-02-16 22:35:30,a088c000-641f-451a-a504-fc6046774749,S
2020-02-16 22:40:28,a088c000-641f-451a-a504-fc6046774749,A
2020-02-16 22:43:03,a088c000-641f-451a-a504-fc6046774749,S
2020-02-16 22:43:49,a088c000-641f-451a-a504-fc6046774749,A
2020-02-16 22:50:34,683aa257-a21e-4864-8271-39a8b436a4db,A
2020-02-16 23:02:04,683aa257-a21e-4864-8271-39a8b436a4db,S
2020-02-16 23:12:01,683aa257-a21e-4864-8271-39a8b436a4db,A
2020-02-16 23:17:28,683aa257-a21e-4864-8271-39a8b436a4db,S
2020-02-16 23:18:11,683aa257-a21e-4864-8271-39a8b436a4db,A
2020-02-16 23:19:07,683aa257-a21e-4864-8271-39a8b436a4db,S
2020-02-16 23:21:05,683aa257-a21e-4864-8271-39a8b436a4db,A
2020-02-16 23:22:25,683aa257-a21e-4864-8271-39a8b436a4db,S
2020-02-16 23:29:45,683aa257-a21e-4864-8271-39a8b436a4db,A
2020-02-16 23:31:38,683aa257-a21e-4864-8271-39a8b436a4db,S
2020-02-16 23:33:21,683aa257-a21e-4864-8271-39a8b436a4db,A
2020-02-16 23:48:46,683aa257-a21e-4864-8271-39a8b436a4db,S
2020-02-16 23:54:40,683aa257-a21e-4864-8271-39a8b436a4db,A
2020-02-16 23:59:12,683aa257-a21e-4864-8271-39a8b436a4db,S
2020-02-17 00:00:16,683aa257-a21e-4864-8271-39a8b436a4db,A
2020-02-17 00:02:36,683aa257-a21e-4864-8271-39a8b436a4db,S
2020-02-17 00:06:16,683aa257-a21e-4864-8271-39a8b436a4db,A
2020-02-17 00:08:17,683aa257-a21e-4864-8271-39a8b436a4db,S
2020-02-17 00:08:24,683aa257-a21e-4864-8271-39a8b436a4db,A
2020-02-17 00:17:30,683aa257-a21e-4864-8271-39a8b436a4db,S
2020-02-17 00:23:50,683aa257-a21e-4864-8271-39a8b436a4db,A
2020-02-17 00:24:55,683aa257-a21e-4864-8271-39a8b436a4db,S
2020-02-17 00:25:49,683aa257-a21e-4864-8271-39a8b436a4db,A
2020-02-16 22:51:14,d43fa1d4-ceff-4ea3-b7b3-aebb97435c2f,S
2020-02-16 23:03:28,d43fa1d4-ceff-4ea3-b7b3-aebb97435c2f,A
2020-02-16 23:13:37,d43fa1d4-ceff-4ea3-b7b3-aebb97435c2f,S
2020-02-16 23:14:55,d43fa1d4-ceff-4ea3-b7b3-aebb97435c2f,A
2020-02-16 23:16:54,d43fa1d4-ceff-4ea3-b7b3-aebb97435c2f,S
2020-02-16 23:23:33,d43fa1d4-ceff-4ea3-b7b3-aebb97435c2f,A
2020-02-16 23:24:20,d43fa1d4-ceff-4ea3-b7b3-aebb97435c2f,S
2020-02-16 23:26:42,d43fa1d4-ceff-4ea3-b7b3-aebb97435c2f,A
2020-02-16 23:27:33,d43fa1d4-ceff-4ea3-b7b3-aebb97435c2f,S
2020-02-16 23:27:55,d43fa1d4-ceff-4ea3-b7b3-aebb97435c2f,A
2020-02-16 23:28:13,d43fa1d4-ceff-4ea3-b7b3-aebb97435c2f,S
2020-02-16 23:35:10,d43fa1d4-ceff-4ea3-b7b3-aebb97435c2f,A
2020-02-16 23:48:00,d43fa1d4-ceff-4ea3-b7b3-aebb97435c2f,S
2020-02-16 23:52:37,d43fa1d4-ceff-4ea3-b7b3-aebb97435c2f,A
2020-02-16 23:53:16,d43fa1d4-ceff-4ea3-b7b3-aebb97435c2f,S
2020-02-17 00:10:11,d43fa1d4-ceff-4ea3-b7b3-aebb97435c2f,A
2020-02-17 00:12:31,d43fa1d4-ceff-4ea3-b7b3-aebb97435c2f,S
2020-02-17 00:12:45,d43fa1d4-ceff-4ea3-b7b3-aebb97435c2f,A
2020-02-17 00:14:04,d43fa1d4-ceff-4ea3-b7b3-aebb97435c2f,S
2020-02-17 00:16:31,d43fa1d4-ceff-4ea3-b7b3-aebb97435c2f,A
2020-02-17 00:21:59,d43fa1d4-ceff-4ea3-b7b3-aebb97435c2f,S
2020-02-17 00:25:02,d43fa1d4-ceff-4ea3-b7b3-aebb97435c2f,A
2020-02-16 22:17:44,98da9f88-2c19-4260-8644-b0bdb61cee80,S
2020-02-16 22:18:50,98da9f88-2c19-4260-8644-b0bdb61cee80,A
2020-02-16 22:20:04,98da9f88-2c19-4260-8644-b0bdb61cee80,S
2020-02-16 22:23:43,98da9f88-2c19-4260-8644-b0bdb61cee80,A
2020-02-16 22:26:27,98da9f88-2c19-4260-8644-b0bdb61cee80,S
2020-02-16 22:31:37,98da9f88-2c19-4260-8644-b0bdb61cee80,A
2020-02-16 22:32:55,98da9f88-2c19-4260-8644-b0bdb61cee80,S
2020-02-16 22:38:54,98da9f88-2c19-4260-8644-b0bdb61cee80,A
2020-02-16 22:50:11,98da9f88-2c19-4260-8644-b0bdb61cee80,S
2020-02-16 22:53:51,98da9f88-2c19-4260-8644-b0bdb61cee80,A
2020-02-16 22:58:23,98da9f88-2c19-4260-8644-b0bdb61cee80,S
2020-02-16 23:09:50,98da9f88-2c19-4260-8644-b0bdb61cee80,A
2020-02-16 23:23:17,98da9f88-2c19-4260-8644-b0bdb61cee80,S
2020-02-16 23:24:15,98da9f88-2c19-4260-8644-b0bdb61cee80,A
2020-02-16 23:25:48,98da9f88-2c19-4260-8644-b0bdb61cee80,S
2020-02-16 23:26:34,98da9f88-2c19-4260-8644-b0bdb61cee80,A
2020-02-16 23:27:43,98da9f88-2c19-4260-8644-b0bdb61cee80,S
2020-02-16 23:36:19,98da9f88-2c19-4260-8644-b0bdb61cee80,A
2020-02-16 23:38:17,98da9f88-2c19-4260-8644-b0bdb61cee80,S
2020-02-16 23:40:05,98da9f88-2c19-4260-8644-b0bdb61cee80,A
2020-02-16 23:44:53,98da9f88-2c19-4260-8644-b0bdb61cee80,S
2020-02-16 23:53:46,98da9f88-2c19-4260-8644-b0bdb61cee80,A
2020-02-17 00:04:39,98da9f88-2c19-4260-8644-b0bdb61cee80,S
2020-02-17 00:08:35,98da9f88-2c19-4260-8644-b0bdb61cee80,A
2020-02-17 00:08:52,98da9f88-2c19-4260-8644-b0bdb61cee80,S
2020-02-17 00:14:31,98da9f88-2c19-4260-8644-b0bdb61cee80,A
2020-02-17 00:20:56,98da9f88-2c19-4260-8644-b0bdb61cee80,S
2020-02-17 00:20:57,98da9f88-2c19-4260-8644-b0bdb61cee80,A
2020-02-17 00:22:56,98da9f88-2c19-4260-8644-b0bdb61cee80,S
2020-02-17 00:25:34,98da9f88-2c19-4260-8644-b0bdb61cee80,A
2020-02-16 22:53:16,81b957ca-146a-4cbd-ac2b-0cc3a509c4df,A
2020-02-16 22:53:55,81b957ca-146a-4cbd-ac2b-0cc3a509c4df,S
2020-02-16 22:55:31,81b957ca-146a-4cbd-ac2b-0cc3a509c4df,A
2020-02-16 23:09:43,81b957ca-146a-4cbd-ac2b-0cc3a509c4df,S
2020-02-16 23:11:50,81b957ca-146a-4cbd-ac2b-0cc3a509c4df,A
2020-02-16 23:14:17,81b957ca-146a-4cbd-ac2b-0cc3a509c4df,S
2020-02-16 23:21:55,81b957ca-146a-4cbd-ac2b-0cc3a509c4df,A
2020-02-16 23:25:35,81b957ca-146a-4cbd-ac2b-0cc3a509c4df,S
2020-02-16 23:28:57,81b957ca-146a-4cbd-ac2b-0cc3a509c4df,A
2020-02-16 23:39:47,81b957ca-146a-4cbd-ac2b-0cc3a509c4df,S
2020-02-16 23:39:50,81b957ca-146a-4cbd-ac2b-0cc3a509c4df,A
2020-02-16 23:49:22,81b957ca-146a-4cbd-ac2b-0cc3a509c4df,S
2020-02-17 00:09:50,81b957ca-146a-4cbd-ac2b-0cc3a509c4df,A
2020-02-17 00:17:05,81b957ca-146a-4cbd-ac2b-0cc3a509c4df,S
2020-02-17 00:21:04,81b957ca-146a-4cbd-ac2b-0cc3a509c4df,A
2020-02-16 23:04:34,c52045fd-b42c-4807-8bab-ac8583d3c23c,S
2020-02-16 23:09:57,c52045fd-b42c-4807-8bab-ac8583d3c23c,A
2020-02-16 23:11:23,c52045fd-b42c-4807-8bab-ac8583d3c23c,S
2020-02-16 23:13:33,c52045fd-b42c-4807-8bab-ac8583d3c23c,A
2020-02-16 23:20:35,c52045fd-b42c-4807-8bab-ac8583d3c23c,S
2020-02-16 23:26:41,c52045fd-b42c-4807-8bab-ac8583d3c23c,A
2020-02-16 23:30:36,c52045fd-b42c-4807-8bab-ac8583d3c23c,S
2020-02-16 23:33:58,c52045fd-b42c-4807-8bab-ac8583d3c23c,A
2020-02-16 23:35:32,c52045fd-b42c-4807-8bab-ac8583d3c23c,S
2020-02-16 23:35:43,c52045fd-b42c-4807-8bab-ac8583d3c23c,A
2020-02-16 23:38:03,c52045fd-b42c-4807-8bab-ac8583d3c23c,S
2020-02-16 23:42:19,c52045fd-b42c-4807-8bab-ac8583d3c23c,A
2020-02-16 23:45:13,c52045fd-b42c-4807-8bab-ac8583d3c23c,S
2020-02-16 23:46:08,c52045fd-b42c-4807-8bab-ac8583d3c23c,A
2020-02-16 23:56:32,c52045fd-b42c-4807-8bab-ac8583d3c23c,S
2020-02-16 23:56:36,c52045fd-b42c-4807-8bab-ac8583d3c23c,A
2020-02-16 23:57:08,c52045fd-b42c-4807-8bab-ac8583d3c23c,S
2020-02-16 23:57:37,c52045fd-b42c-4807-8bab-ac8583d3c23c,A
2020-02-16 23:57:50,c52045fd-b42c-4807-8bab-ac8583d3c23c,S
2020-02-17 00:01:45,c52045fd-b42c-4807-8bab-ac8583d3c23c,A
2020-02-17 00:09:34,c52045fd-b42c-4807-8bab-ac8583d3c23c,S
2020-02-17 00:15:33,c52045fd-b42c-4807-8bab-ac8583d3c23c,A
2020-02-17 00:18:26,c52045fd-b42c-4807-8bab-ac8583d3c23c,S
2020-02-17 00:20:25,c52045fd-b42c-4807-8bab-ac8583d3c23c,A
2020-02-16 22:37:53,a5ebe906-a96f-49e9-a092-bae75f36e350,A
2020-02-16 22:41:34,a5ebe906-a96f-49e9-a092-bae75f36e350,S
2020-02-16 22:44:54,a5ebe906-a96f-49e9-a092-bae75f36e350,A
2020-02-16 22:46:34,a5ebe906-a96f-49e9-a092-bae75f36e350,S
2020-02-16 23:02:04,a5ebe906-a96f-49e9-a092-bae75f36e350,A
2020-02-16 23:03:49,a5ebe906-a96f-49e9-a092-bae75f36e350,S
2020-02-16 23:04:11,a5ebe906-a96f-49e9-a092-bae75f36e350,A
2020-02-16 23:25:59,a5ebe906-a96f-49e9-a092-bae75f36e350,S
2020-02-16 23:33:10,a5ebe906-a96f-49e9-a092-bae75f36e350,A
2020-02-16 23:37:30,a5ebe906-a96f-49e9-a092-bae75f36e350,S
2020-02-16 23:38:11,a5ebe906-a96f-49e9-a092-bae75f36e350,A
2020-02-16 23:42:25,a5ebe906-a96f-49e9-a092-bae75f36e350,S
2020-02-16 23:44:15,a5ebe906-a96f-49e9-a092-bae75f36e350,A
2020-02-16 23:46:58,a5ebe906-a96f-49e9-a092-bae75f36e350,S
2020-02-16 23:56:12,a5ebe906-a96f-49e9-a092-bae75f36e350,A
2020-02-17 00:03:49,a5ebe906-a96f-49e9-a092-bae75f36e350,S
2020-02-17 00:08:45,a5ebe906-a96f-49e9-a092-bae75f36e350,A
2020-02-17 00:15:22,a5ebe906-a96f-49e9-a092-bae75f36e350,S
2020-02-16 22:38:52,45a64744-6046-408d-a681-9f47b7d45eee,A
2020-02-16 22:46:42,45a64744-6046-408d-a681-9f47b7d45eee,S
2020-02-16 22:48:12,45a64744-6046-408d-a681-9f47b7d45eee,A
2020-02-16 22:50:50,45a64744-6046-408d-a681-9f47b7d45eee,S
2020-02-16 22:55:31,45a64744-6046-408d-a681-9f47b7d45eee,A
2020-02-16 23:10:13,45a64744-6046-408d-a681-9f47b7d45eee,S
2020-02-16 23:10:48,45a64744-6046-408d-a681-9f47b7d45eee,A
2020-02-16 23:16:18,45a64744-6046-408d-a681-9f47b7d45eee,S
2020-02-16 23:23:31,45a64744-6046-408d-a681-9f47b7d45eee,A
2020-02-16 23:24:06,45a64744-6046-408d-a681-9f47b7d45eee,S
2020-02-16 23:35:56,45a64744-6046-408d-a681-9f47b7d45eee,A
2020-02-16 23:39:04,45a64744-6046-408d-a681-9f47b7d45eee,S
2020-02-16 23:50:54,45a64744-6046-408d-a681-9f47b7d45eee,A
2020-02-17 00:02:51,45a64744-6046-408d-a681-9f47b7d45eee,S
2020-02-17 00:07:44,45a64744-6046-408d-a681-9f47b7d45eee,A
2020-02-17 00:08:16,45a64744-6046-408d-a681-9f47b7d45eee,S
2020-02-17 00:08:34,45a64744-6046-408d-a681-9f47b7d45eee,A
2020-02-17 00:08:45,45a64744-6046-408d-a681-9f47b7d45eee,S
2020-02-17 00:09:55,45a64744-6046-408d-a681-9f47b7d45eee,A
2020-02-17 00:13:37,45a64744-6046-408d-a681-9f47b7d45eee,S
2020-02-17 00:22:28,45a64744-6046-408d-a681-9f47b7d45eee,A
2020-02-17 00:26:41,45a64744-6046-408d-a681-9f47b7d45eee,S
2020-02-16 22:46:28,4ccf00db-309a-49e2-9a45-33d9cce405e2,S
2020-02-16 22:51:43,4ccf00db-309a-49e2-9a45-33d9cce405e2,A
2020-02-16 22:58:27,4ccf00db-309a-49e2-9a45-33d9cce405e2,S
2020-02-16 23:03:27,4ccf00db-309a-49e2-9a45-33d9cce405e2,A
2020-02-16 23:04:22,4ccf00db-309a-49e2-9a45-33d9cce405e2,S
2020-02-16 23:11:09,4ccf00db-309a-49e2-9a45-33d9cce405e2,A
2020-02-16 23:13:25,4ccf00db-309a-49e2-9a45-33d9cce405e2,S
2020-02-16 23:19:31,4ccf00db-309a-49e2-9a45-33d9cce405e2,A
2020-02-16 23:19:33,4ccf00db-309a-49e2-9a45-33d9cce405e2,S
2020-02-16 23:20:17,4ccf00db-309a-49e2-9a45-33d9cce405e2,A
2020-02-16 23:24:10,4ccf00db-309a-49e2-9a45-33d9cce405e2,S
2020-02-16 23:29:47,4ccf00db-309a-49e2-9a45-33d9cce405e2,A
2020-02-16 23:31:48,4ccf00db-309a-49e2-9a45-33d9cce405e2,S
2020-02-16 23:35:01,4ccf00db-309a-49e2-9a45-33d9cce405e2,A
2020-02-16 23:37:52,4ccf00db-309a-49e2-9a45-33d9cce405e2,S
2020-02-16 23:41:07,4ccf00db-309a-49e2-9a45-33d9cce405e2,A
2020-02-16 23:50:08,4ccf00db-309a-49e2-9a45-33d9cce405e2,S
2020-02-16 23:53:42,4ccf00db-309a-49e2-9a45-33d9cce405e2,A
2020-02-16 23:54:41,4ccf00db-309a-49e2-9a45-33d9cce405e2,S
2020-02-16 23:58:07,4ccf00db-309a-49e2-9a45-33d9cce405e2,A
2020-02-17 00:00:05,4ccf00db-309a-49e2-9a45-33d9cce405e2,S
2020-02-17 00:00:47,4ccf00db-309a-49e2-9a45-33d9cce405e2,A
2020-02-17 00:07:55,4ccf00db-309a-49e2-9a45-33d9cce405e2,S
2020-02-17 00:10:19,4ccf00db-309a-49e2-9a45-33d9cce405e2,A
2020-02-17 00:24:11,4ccf00db-309a-49e2-9a45-33d9cce405e2,S
2020-02-17 00:27:10,4ccf00db-309a-49e2-9a45-33d9cce405e2,A
2020-02-16 22:28:16,0581385a-5558-4c50-9886-f96981919d1c,S
2020-02-16 22:31:44,0581385a-5558-4c50-9886-f96981919d1c,A
2020-02-16 22:37:46,0581385a-5558-4c50-9886-f96981919d1c,S
2020-02-16 22:47:43,0581385a-5558-4c50-9886-f96981919d1c,A
2020-02-16 23:07:51,0581385a-5558-4c50-9886-f96981919d1c,S
2020-02-16 23:13:46,0581385a-5558-4c50-9886-f96981919d1c,A
2020-02-16 23:24:36,0581385a-5558-4c50-9886-f96981919d1c,S
2020-02-16 23:30:01,0581385a-5558-4c50-9886-f96981919d1c,A
2020-02-16 23:34:18,0581385a-5558-4c50-9886-f96981919d1c,S
2020-02-16 23:39:51,0581385a-5558-4c50-9886-f96981919d1c,A
2020-02-16 23:40:03,0581385a-5558-4c50-9886-f96981919d1c,S
2020-02-16 23:41:47,0581385a-5558-4c50-9886-f96981919d1c,A
2020-02-16 23:47:41,0581385a-5558-4c50-9886-f96981919d1c,S
2020-02-16 23:49:24,0581385a-5558-4c50-9886-f96981919d1c,A
2020-02-16 23:53:55,0581385a-5558-4c50-9886-f96981919d1c,S
2020-02-16 23:57:30,0581385a-5558-4c50-9886-f96981919d1c,A
2020-02-17 00:02:48,0581385a-5558-4c50-9886-f96981919d1c,S
2020-02-17 00:10:32,0581385a-5558-4c50-9886-f96981919d1c,A
2020-02-16 22:32:45,c44ea72e-ad1c-40ef-8f41-3328eb68248e,S
2020-02-16 22:44:40,c44ea72e-ad1c-40ef-8f41-3328eb68248e,A
2020-02-16 22:44:58,c44ea72e-ad1c-40ef-8f41-3328eb68248e,S
2020-02-16 23:00:22,c44ea72e-ad1c-40ef-8f41-3328eb68248e,A
2020-02-16 23:03:15,c44ea72e-ad1c-40ef-8f41-3328eb68248e,S
2020-02-16 23:05:15,c44ea72e-ad1c-40ef-8f41-3328eb68248e,A
2020-02-16 23:13:21,c44ea72e-ad1c-40ef-8f41-3328eb68248e,S
2020-02-16 23:14:17,c44ea72e-ad1c-40ef-8f41-3328eb68248e,A
2020-02-16 23:16:30,c44ea72e-ad1c-40ef-8f41-3328eb68248e,S
2020-02-16 23:30:55,c44ea72e-ad1c-40ef-8f41-3328eb68248e,A
2020-02-16 23:36:13,c44ea72e-ad1c-40ef-8f41-3328eb68248e,S
2020-02-16 23:37:46,c44ea72e-ad1c-40ef-8f41-3328eb68248e,A
2020-02-16 23:38:34,c44ea72e-ad1c-40ef-8f41-3328eb68248e,S
2020-02-16 23:40:31,c44ea72e-ad1c-40ef-8f41-3328eb68248e,A
2020-02-16 23:43:49,c44ea72e-ad1c-40ef-8f41-3328eb68248e,S
2020-02-16 23:43:55,c44ea72e-ad1c-40ef-8f41-3328eb68248e,A
2020-02-16 23:56:14,c44ea72e-ad1c-40ef-8f41-3328eb68248e,S
2020-02-16 23:57:34,c44ea72e-ad1c-40ef-8f41-3328eb68248e,A
2020-02-17 00:02:27,c44ea72e-ad1c-40ef-8f41-3328eb68248e,S
2020-02-17 00:05:53,c44ea72e-ad1c-40ef-8f41-3328eb68248e,A
2020-02-17 00:07:07,c44ea72e-ad1c-40ef-8f41-3328eb68248e,S
2020-02-17 00:07:49,c44ea72e-ad1c-40ef-8f41-3328eb68248e,A
2020-02-17 00:20:29,c44ea72e-ad1c-40ef-8f41-3328eb68248e,S
2020-02-17 00:21:57,c44ea72e-ad1c-40ef-8f41-3328eb68248e,A
2020-02-17 00:23:11,c44ea72e-ad1c-40ef-8f41-3328eb68248e,S
2020-02-17 00:25:48,c44ea72e-ad1c-40ef-8f41-3328eb68248e,A
2020-02-16 23:05:49,0cd7e435-0235-4d1a-be8e-386ea4dfbd97,S
2020-02-16 23:06:38,0cd7e435-0235-4d1a-be8e-386ea4dfbd97,A
2020-02-16 23:19:14,0cd7e435-0235-4d1a-be8e-386ea4dfbd97,S
2020-02-16 23:20:20,0cd7e435-0235-4d1a-be8e-386ea4dfbd97,A
2020-02-16 23:22:25,0cd7e435-0235-4d1a-be8e-386ea4dfbd97,S
2020-02-16 23:47:17,0cd7e435-0235-4d1a-be8e-386ea4dfbd97,A
2020-02-16 23:59:08,0cd7e435-0235-4d1a-be8e-386ea4dfbd97,S
2020-02-17 00:03:29,0cd7e435-0235-4d1a-be8e-386ea4dfbd97,A
2020-02-17 00:03:30,0cd7e435-0235-4d1a-be8e-386ea4dfbd97,S
2020-02-17 00:07:39,0cd7e435-0235-4d1a-be8e-386ea4dfbd97,A
2020-02-17 00:11:51,0cd7e435-0235-4d1a-be8e-386ea4dfbd97,S
2020-02-17 00:21:13,0cd7e435-0235-4d1a-be8e-386ea4dfbd97,A
2020-02-17 00:26:23,0cd7e435-0235-4d1a-be8e-386ea4dfbd97,S
2020-02-16 22:46:46,e31e698b-f75a-45e2-a1ed-81d5b083d5e8,S
2020-02-16 22:51:04,e31e698b-f75a-45e2-a1ed-81d5b083d5e8,A
2020-02-16 23:04:47,e31e698b-f75a-45e2-a1ed-81d5b083d5e8,S
2020-02-16 23:05:11,e31e698b-f75a-45e2-a1ed-81d5b083d5e8,A
2020-02-16 23:09:47,e31e698b-f75a-45e2-a1ed-81d5b083d5e8,S
2020-02-16 23:13:05,e31e698b-f75a-45e2-a1ed-81d5b083d5e8,A
2020-02-16 23:16:11,e31e698b-f75a-45e2-a1ed-81d5b083d5e8,S
2020-02-16 23:20:44,e31e698b-f75a-45e2-a1ed-81d5b083d5e8,A
2020-02-16 23:23:57,e31e698b-f75a-45e2-a1ed-81d5b083d5e8,S
2020-02-16 23:27:34,e31e698b-f75a-45e2-a1ed-81d5b083d5e8,A
2020-02-16 23:43:25,e31e698b-f75a-45e2-a1ed-81d5b083d5e8,S
2020-02-16 23:47:42,e31e698b-f75a-45e2-a1ed-81d5b083d5e8,A
2020-02-16 23:48:03,e31e698b-f75a-45e2-a1ed-81d5b083d5e8,S
2020-02-16 23:53:10,e31e698b-f75a-45e2-a1ed-81d5b083d5e8,A
2020-02-17 00:00:29,e31e698b-f75a-45e2-a1ed-81d5b083d5e8,S
2020-02-16 23:08:00,f6d64198-e646-4994-900c-72f093c04340,S
2020-02-16 23:10:19,f6d64198-e646-4994-900c-72f093c04340,A
2020-02-16 23:16:50,f6d64198-e646-4994-900c-72f093c04340,S
2020-02-16 23:17:48,f6d64198-e646-4994-900c-72f093c04340,A
2020-02-16 23:18:08,f6d64198-e646-4994-900c-72f093c04340,S
2020-02-16 23:23:18,f6d64198-e646-4994-900c-72f093c04340,A
2020-02-16 23:28:12,f6d64198-e646-4994-900c-72f093c04340,S
2020-02-16 23:32:51,f6d64198-e646-4994-900c-72f093c04340,A
2020-02-16 23:45:51,f6d64198-e646-4994-900c-72f093c04340,S
2020-02-17 00:03:20,f6d64198-e646-4994-900c-72f093c04340,A
2020-02-17 00:08:04,f6d64198-e646-4994-900c-72f093c04340,S
2020-02-17 00:10:12,f6d64198-e646-4994-900c-72f093c04340,A
2020-02-17 00:11:26,f6d64198-e646-4994-900c-72f093c04340,S
2020-02-17 00:12:48,f6d64198-e646-4994-900c-72f093c04340,A
2020-02-17 00:13:32,f6d64198-e646-4994-900c-72f093c04340,S
2020-02-17 00:14:05,f6d64198-e646-4994-900c-72f093c04340,A
2020-02-17 00:15:09,f6d64198-e646-4994-900c-72f093c04340,S
2020-02-17 00:21:50,f6d64198-e646-4994-900c-72f093c04340,A
2020-02-17 00:22:10,f6d64198-e646-4994-900c-72f093c04340,S
2020-02-17 00:22:57,f6d64198-e646-4994-900c-72f093c04340,A
2020-02-17 00:22:58,f6d64198-e646-4994-900c-72f093c04340,S
2020-02-16 22:33:08,c26a9945-cd3f-4192-8450-5ed1584c0b68,A
2020-02-16 22:36:34,c26a9945-cd3f-4192-8450-5ed1584c0b68,S
2020-02-16 22:41:39,c26a9945-cd3f-4192-8450-5ed1584c0b68,A
2020-02-16 22:43:30,c26a9945-cd3f-4192-8450-5ed1584c0b68,S
2020-02-16 22:54:01,c26a9945-cd3f-4192-8450-5ed1584c0b68,A
2020-02-16 22:54:35,c26a9945-cd3f-4192-8450-5ed1584c0b68,S
2020-02-16 23:03:00,c26a9945-cd3f-4192-8450-5ed1584c0b68,A
2020-02-16 23:05:21,c26a9945-cd3f-4192-8450-5ed1584c0b68,S
2020-02-16 23:13:44,c26a9945-cd3f-4192-8450-5ed1584c0b68,A
2020-02-16 23:32:10,c26a9945-cd3f-4192-8450-5ed1584c0b68,S
2020-02-16 23:33:26,c26a9945-cd3f-4192-8450-5ed1584c0b68,A
2020-02-16 23:33:37,c26a9945-cd3f-4192-8450-5ed1584c0b68,S
2020-02-16 23:36:50,c26a9945-cd3f-4192-8450-5ed1584c0b68,A
2020-02-16 23:45:40,c26a9945-cd3f-4192-8450-5ed1584c0b68,S
2020-02-17 00:00:45,c26a9945-cd3f-4192-8450-5ed1584c0b68,A
2020-02-17 00:01:03,c26a9945-cd3f-4192-8450-5ed1584c0b68,S
2020-02-17 00:11:34,c26a9945-cd3f-4192-8450-5ed1584c0b68,A
2020-02-17 00:24:34,c26a9945-cd3f-4192-8450-5ed1584c0b68,S
2020-02-17 00:25:33,c26a9945-cd3f-4192-8450-5ed1584c0b68,A
2020-02-17 00:25:59,c26a9945-cd3f-4192-8450-5ed1584c0b68,S
2020-02-16 22:28:26,6d16482e-6181-42fb-9888-d482b3e3b5f8,S
2020-02-16 22:33:23,6d16482e-6181-42fb-9888-d482b3e3b5f8,A
2020-02-16 22:33:45,6d16482e-6181-42fb-9888-d482b3e3b5f8,S
2020-02-16 22:38:29,6d16482e-6181-42fb-9888-d482b3e3b5f8,A
2020-02-16 22:43:27,6d16482e-6181-42fb-9888-d482b3e3b5f8,S
2020-02-16 22:45:29,6d16482e-6181-42fb-9888-d482b3e3b5f8,A
2020-02-16 22:55:33,6d16482e-6181-42fb-9888-d482b3e3b5f8,S
2020-02-16 22:58:15,6d16482e-6181-42fb-9888-d482b3e3b5f8,A
2020-02-16 22:59:10,6d16482e-6181-42fb-9888-d482b3e3b5f8,S
2020-02-16 23:07:11,6d16482e-6181-42fb-9888-d482b3e3b5f8,A
2020-02-16 23:15:59,6d16482e-6181-42fb-9888-d482b3e3b5f8,S
2020-02-16 23:18:09,6d16482e-6181-42fb-9888-d482b3e3b5f8,A
2020-02-16 23:18:19,6d16482e-6181-42fb-9888-d482b3e3b5f8,S
2020-02-16 23:37:36,6d16482e-6181-42fb-9888-d482b3e3b5f8,A
2020-02-16 23:39:49,6d16482e-6181-42fb-9888-d482b3e3b5f8,S
2020-02-16 23:57:24,6d16482e-6181-42fb-9888-d482b3e3b5f8,A
2020-02-17 00:07:35,6d16482e-6181-42fb-9888-d482b3e3b5f8,S
2020-02-17 00:23:26,6d16482e-6181-42fb-9888-d482b3e3b5f8,A
2020-02-17 00:24:39,6d16482e-6181-42fb-9888-d482b3e3b5f8,S
2020-02-16 22:58:55,7f450fb6-076f-41f9-93c4-546018a60702,A
2020-02-16 23:00:47,7f450fb6-076f-41f9-93c4-546018a60702,S
2020-02-16 23:10:15,7f450fb6-076f-41f9-93c4-546018a60702,A
2020-02-16 23:24:22,7f450fb6-076f-41f9-93c4-546018a60702,S
2020-02-16 23:25:58,7f450fb6-076f-41f9-93c4-546018a60702,A
2020-02-16 23:27:32,7f450fb6-076f-41f9-93c4-546018a60702,S
2020-02-16 23:29:25,7f450fb6-076f-41f9-93c4-546018a60702,A
2020-02-16 23:35:53,7f450fb6-076f-41f9-93c4-546018a60702,S
2020-02-16 23:40:47,7f450fb6-076f-41f9-93c4-546018a60702,A
2020-02-16 23:48:18,7f450fb6-076f-41f9-93c4-546018a60702,S
2020-02-16 23:48:21,7f450fb6-076f-41f9-93c4-546018a60702,A
2020-02-16 23:48:40,7f450fb6-076f-41f9-93c4-546018a60702,S
2020-02-16 23:51:00,7f450fb6-076f-41f9-93c4-546018a60702,A
2020-02-16 23:54:12,7f450fb6-076f-41f9-93c4-546018a60702,S
2020-02-16 23:54:58,7f450fb6-076f-41f9-93c4-546018a60702,A
2020-02-17 00:05:58,7f450fb6-076f-41f9-93c4-546018a60702,S
2020-02-17 00:06:46,7f450fb6-076f-41f9-93c4-546018a60702,A
2020-02-17 00:07:12,7f450fb6-076f-41f9-93c4-546018a60702,S
2020-02-17 00:09:25,7f450fb6-076f-41f9-93c4-546018a60702,A
2020-02-17 00:11:39,7f450fb6-076f-41f9-93c4-546018a60702,S
2020-02-17 00:11:58,7f450fb6-076f-41f9-93c4-546018a60702,A
2020-02-17 00:21:23,7f450fb6-076f-41f9-93c4-546018a60702,S
2020-02-17 00:26:07,7f450fb6-076f-41f9-93c4-546018a60702,A
2020-02-17 00:27:51,7f450fb6-076f-41f9-93c4-546018a60702,S
2020-02-16 22:35:55,986aa0e0-5730-41f9-b92c-41174c7766ca,S
2020-02-16 22:48:00,986aa0e0-5730-41f9-b92c-41174c7766ca,A
2020-02-16 23:06:21,986aa0e0-5730-41f9-b92c-41174c7766ca,S
2020-02-16 23:08:45,986aa0e0-5730-41f9-b92c-41174c7766ca,A
2020-02-16 23:12:03,986aa0e0-5730-41f9-b92c-41174c7766ca,S
2020-02-16 23:15:23,986aa0e0-5730-41f9-b92c-41174c7766ca,A
2020-02-16 23:26:52,986aa0e0-5730-41f9-b92c-41174c7766ca,S
2020-02-16 23:27:42,986aa0e0-5730-41f9-b92c-41174c7766ca,A
2020-02-16 23:29:21,986aa0e0-5730-41f9-b92c-41174c7766ca,S
2020-02-16 23:30:14,986aa0e0-5730-41f9-b92c-41174c7766ca,A
2020-02-16 23:47:38,986aa0e0-5730-41f9-b92c-41174c7766ca,S
2020-02-16 23:47:43,986aa0e0-5730-41f9-b92c-41174c7766ca,A
2020-02-16 23:50:53,986aa0e0-5730-41f9-b92c-41174c7766ca,S
2020-02-16 23:54:20,986aa0e0-5730-41f9-b92c-41174c7766ca,A
2020-02-16 23:56:34,986aa0e0-5730-41f9-b92c-41174c7766ca,S
2020-02-17 00:02:30,986aa0e0-5730-41f9-b92c-41174c7766ca,A
2020-02-17 00:03:53,986aa0e0-5730-41f9-b92c-41174c7766ca,S
2020-02-17 00:07:48,986aa0e0-5730-41f9-b92c-41174c7766ca,A
2020-02-17 00:13:22,986aa0e0-5730-41f9-b92c-41174c7766ca,S
2020-02-17 00:24:54,986aa0e0-5730-41f9-b92c-41174c7766ca,A
2020-02-16 22:53:17,8e8bd581-8c95-44ef-824a-1dc5e672640f,A
2020-02-16 22:56:46,8e8bd581-8c95-44ef-824a-1dc5e672640f,S
2020-02-16 22:59:02,8e8bd581-8c95-44ef-824a-1dc5e672640f,A
2020-02-16 23:01:03,8e8bd581-8c95-44ef-824a-1dc5e672640f,S
2020-02-16 23:01:39,8e8bd581-8c95-44ef-824a-1dc5e672640f,A
2020-02-16 23:04:13,8e8bd581-8c95-44ef-824a-1dc5e672640f,S
2020-02-16 23:11:05,8e8bd581-8c95-44ef-824a-1dc5e672640f,A
2020-02-16 23:12:33,8e8bd581-8c95-44ef-824a-1dc5e672640f,S
2020-02-16 23:22:48,8e8bd581-8c95-44ef-824a-1dc5e672640f,A
2020-02-17 00:01:53,8e8bd581-8c95-44ef-824a-1dc5e672640f,S
2020-02-17 00:11:48,8e8bd581-8c95-44ef-824a-1dc5e672640f,A
2020-02-17 00:11:51,8e8bd581-8c95-44ef-824a-1dc5e672640f,S
2020-02-17 00:12:34,8e8bd581-8c95-44ef-824a-1dc5e672640f,A
2020-02-17 00:15:37,8e8bd581-8c95-44ef-824a-1dc5e672640f,S
2020-02-17 00:16:59,8e8bd581-8c95-44ef-824a-1dc5e672640f,A
2020-02-17 00:18:20,8e8bd581-8c95-44ef-824a-1dc5e672640f,S
2020-02-17 00:22:29,8e8bd581-8c95-44ef-824a-1dc5e672640f,A
2020-02-17 00:24:03,8e8bd581-8c95-44ef-824a-1dc5e672640f,S
2020-02-17 00:24:09,8e8bd581-8c95-44ef-824a-1dc5e672640f,A
2020-02-16 22:59:02,dcd7acc5-01d4-4f45-9fc0-c01b9dfcf4cd,S
2020-02-16 22:59:45,dcd7acc5-01d4-4f45-9fc0-c01b9dfcf4cd,A
2020-02-16 23:03:15,dcd7acc5-01d4-4f45-9fc0-c01b9dfcf4cd,S
2020-02-16 23:07:18,dcd7acc5-01d4-4f45-9fc0-c01b9dfcf4cd,A
2020-02-16 23:15:07,dcd7acc5-01d4-4f45-9fc0-c01b9dfcf4cd,S
2020-02-16 23:21:36,dcd7acc5-01d4-4f45-9fc0-c01b9dfcf4cd,A
2020-02-16 23:25:46,dcd7acc5-01d4-4f45-9fc0-c01b9dfcf4cd,S
2020-02-16 23:27:12,dcd7acc5-01d4-4f45-9fc0-c01b9dfcf4cd,A
2020-02-16 23:37:36,dcd7acc5-01d4-4f45-9fc0-c01b9dfcf4cd,S
2020-02-16 23:37:52,dcd7acc5-01d4-4f45-9fc0-c01b9dfcf4cd,A
2020-02-16 23:38:08,dcd7acc5-01d4-4f45-9fc0-c01b9dfcf4cd,S
2020-02-16 23:39:37,dcd7acc5-01d4-4f45-9fc0-c01b9dfcf4cd,A
2020-02-16 23:47:27,dcd7acc5-01d4-4f45-9fc0-c01b9dfcf4cd,S
2020-02-16 23:51:24,dcd7acc5-01d4-4f45-9fc0-c01b9dfcf4cd,A
2020-02-16 23:54:03,dcd7acc5-01d4-4f45-9fc0-c01b9dfcf4cd,S
2020-02-16 23:56:30,dcd7acc5-01d4-4f45-9fc0-c01b9dfcf4cd,A
2020-02-16 23:58:37,dcd7acc5-01d4-4f45-9fc0-c01b9dfcf4cd,S
2020-02-17 00:03:18,dcd7acc5-01d4-4f45-9fc0-c01b9dfcf4cd,A
2020-02-17 00:09:39,dcd7acc5-01d4-4f45-9fc0-c01b9dfcf4cd,S
2020-02-17 00:09:49,dcd7acc5-01d4-4f45-9fc0-c01b9dfcf4cd,A
2020-02-17 00:10:28,dcd7acc5-01d4-4f45-9fc0-c01b9dfcf4cd,S
2020-02-17 00:12:46,dcd7acc5-01d4-4f45-9fc0-c01b9dfcf4cd,A
2020-02-17 00:27:13,dcd7acc5-01d4-4f45-9fc0-c01b9dfcf4cd,S
2020-02-16 22:47:50,f25f24bd-4d44-4384-980a-21c4d0230c9f,S
2020-02-16 22:47:54,f25f24bd-4d44-4384-980a-21c4d0230c9f,A
2020-02-16 22:55:05,f25f24bd-4d44-4384-980a-21c4d0230c9f,S
2020-02-16 23:06:35,f25f24bd-4d44-4384-980a-21c4d0230c9f,A
2020-02-16 23:08:11,f25f24bd-4d44-4384-980a-21c4d0230c9f,S
2020-02-16 23:11:19,f25f24bd-4d44-4384-980a-21c4d0230c9f,A
2020-02-16 23:11:35,f25f24bd-4d44-4384-980a-21c4d0230c9f,S
2020-02-16 23:29:34,f25f24bd-4d44-4384-980a-21c4d0230c9f,A
2020-02-16 23:31:58,f25f24bd-4d44-4384-980a-21c4d0230c9f,S
2020-02-16 23:44:20,f25f24bd-4d44-4384-980a-21c4d0230c9f,A
2020-02-16 23:56:28,f25f24bd-4d44-4384-980a-21c4d0230c9f,S
2020-02-17 00:01:59,f25f24bd-4d44-4384-980a-21c4d0230c9f,A
2020-02-17 00:02:25,f25f24bd-4d44-4384-980a-21c4d0230c9f,S
2020-02-17 00:04:40,f25f24bd-4d44-4384-980a-21c4d0230c9f,A
2020-02-17 00:08:20,f25f24bd-4d44-4384-980a-21c4d0230c9f,S
2020-02-17 00:11:40,f25f24bd-4d44-4384-980a-21c4d0230c9f,A
2020-02-17 00:16:10,f25f24bd-4d44-4384-980a-21c4d0230c9f,S
2020-02-17 00:17:07,f25f24bd-4d44-4384-980a-21c4d0230c9f,A
2020-02-17 00:17:28,f25f24bd-4d44-4384-980a-21c4d0230c9f,S
2020-02-17 00:18:26,f25f24bd-4d44-4384-980a-21c4d0230c9f,A
2020-02-16 23:04:34,36179185-018d-4ae1-92ab-41127d768e50,S
2020-02-16 23:06:46,36179185-018d-4ae1-92ab-41127d768e50,A
2020-02-16 23:09:31,36179185-018d-4ae1-92ab-41127d768e50,S
2020-02-16 23:26:27,36179185-018d-4ae1-92ab-41127d768e50,A
2020-02-16 23:28:07,36179185-018d-4ae1-92ab-41127d768e50,S
2020-02-16 23:29:14,36179185-018d-4ae1-92ab-41127d768e50,A
2020-02-16 23:34:29,36179185-018d-4ae1-92ab-41127d768e50,S
2020-02-16 23:43:07,36179185-018d-4ae1-92ab-41127d768e50,A
2020-02-16 23:45:04,36179185-018d-4ae1-92ab-41127d768e50,S
2020-02-16 23:52:39,36179185-018d-4ae1-92ab-41127d768e50,A
2020-02-16 23:53:28,36179185-018d-4ae1-92ab-41127d768e50,S
2020-02-17 00:05:15,36179185-018d-4ae1-92ab-41127d768e50,A
2020-02-17 00:13:07,36179185-018d-4ae1-92ab-41127d768e50,S
2020-02-17 00:14:46,36179185-018d-4ae1-92ab-41127d768e50,A
2020-02-17 00:18:35,36179185-018d-4ae1-92ab-41127d768e50,S
2020-02-17 00:20:53,36179185-018d-4ae1-92ab-41127d768e50,A
2020-02-16 22:32:44,ce213207-ce17-45c7-a5fa-c78d81b065f2,A
2020-02-16 22:35:35,ce213207-ce17-45c7-a5fa-c78d81b065f2,S
2020-02-16 22:40:42,ce213207-ce17-45c7-a5fa-c78d81b065f2,A
2020-02-16 22:56:09,ce213207-ce17-45c7-a5fa-c78d81b065f2,S
2020-02-16 23:05:12,ce213207-ce17-45c7-a5fa-c78d81b065f2,A
2020-02-16 23:14:55,ce213207-ce17-45c7-a5fa-c78d81b065f2,S
2020-02-16 23:23:26,ce213207-ce17-45c7-a5fa-c78d81b065f2,A
2020-02-16 23:24:11,ce213207-ce17-45c7-a5fa-c78d81b065f2,S
2020-02-16 23:24:30,ce213207-ce17-45c7-a5fa-c78d81b065f2,A
2020-02-16 23:33:09,ce213207-ce17-45c7-a5fa-c78d81b065f2,S
2020-02-16 23:36:08,ce213207-ce17-45c7-a5fa-c78d81b065f2,A
2020-02-16 23:36:10,ce213207-ce17-45c7-a5fa-c78d81b065f2,S
2020-02-16 23:37:22,ce213207-ce17-45c7-a5fa-c78d81b065f2,A
2020-02-16 23:39:12,ce213207-ce17-45c7-a5fa-c78d81b065f2,S
2020-02-16 23:41:02,ce213207-ce17-45c7-a5fa-c78d81b065f2,A
2020-02-16 23:42:01,ce213207-ce17-45c7-a5fa-c78d81b065f2,S
2020-02-16 23:43:45,ce213207-ce17-45c7-a5fa-c78d81b065f2,A
2020-02-16 23:53:00,ce213207-ce17-45c7-a5fa-c78d81b065f2,S
2020-02-16 23:55:07,ce213207-ce17-45c7-a5fa-c78d81b065f2,A
2020-02-16 23:56:06,ce213207-ce17-45c7-a5fa-c78d81b065f2,S
2020-02-16 23:58:33,ce213207-ce17-45c7-a5fa-c78d81b065f2,A
2020-02-17 00:07:18,ce213207-ce17-45c7-a5fa-c78d81b065f2,S
2020-02-17 00:09:35,ce213207-ce17-45c7-a5fa-c78d81b065f2,A
2020-02-17 00:14:27,ce213207-ce17-45c7-a5fa-c78d81b065f2,S
2020-02-17 00:14:35,ce213207-ce17-45c7-a5fa-c78d81b065f2,A
2020-02-17 00:15:14,ce213207-ce17-45c7-a5fa-c78d81b065f2,S
2020-02-17 00:18:43,ce213207-ce17-45c7-a5fa-c78d81b065f2,A
2020-02-17 00:20:09,ce213207-ce17-45c7-a5fa-c78d81b065f2,S
2020-02-17 00:25:49,ce213207-ce17-45c7-a5fa-c78d81b065f2,A
2020-02-17 00:26:16,ce213207-ce17-45c7-a5fa-c78d81b065f2,S
2020-02-16 22:53:39,1b5d9ca2-23a0-4316-82d5-648046c48802,A
2020-02-16 22:54:08,1b5d9ca2-23a0-4316-82d5-648046c48802,S
2020-02-16 23:02:38,1b5d9ca2-23a0-4316-82d5-648046c48802,A
2020-02-16 23:03:57,1b5d9ca2-23a0-4316-82d5-648046c48802,S
2020-02-16 23:03:58,1b5d9ca2-23a0-4316-82d5-648046c48802,A
2020-02-16 23:12:35,1b5d9ca2-23a0-4316-82d5-648046c48802,S
2020-02-16 23:13:49,1b5d9ca2-23a0-4316-82d5-648046c48802,A
2020-02-16 23:14:39,1b5d9ca2-23a0-4316-82d5-648046c48802,S
2020-02-16 23:18:26,1b5d9ca2-23a0-4316-82d5-648046c48802,A
2020-02-16 23:19:32,1b5d9ca2-23a0-4316-82d5-648046c48802,S
2020-02-16 23:19:45,1b5d9ca2-23a0-4316-82d5-648046c48802,A
2020-02-16 23:25:18,1b5d9ca2-23a0-4316-82d5-648046c48802,S
2020-02-16 23:30:37,1b5d9ca2-23a0-4316-82d5-648046c48802,A
2020-02-16 23:42:52,1b5d9ca2-23a0-4316-82d5-648046c48802,S
2020-02-16 23:43:07,1b5d9ca2-23a0-4316-82d5-648046c48802,A
2020-02-16 23:47:18,1b5d9ca2-23a0-4316-82d5-648046c48802,S
2020-02-16 23:56:54,1b5d9ca2-23a0-4316-82d5-648046c48802,A
2020-02-17 00:08:59,1b5d9ca2-23a0-4316-82d5-648046c48802,S
2020-02-17 00:12:29,1b5d9ca2-23a0-4316-82d5-648046c48802,A
2020-02-17 00:16:52,1b5d9ca2-23a0-4316-82d5-648046c48802,S
2020-02-17 00:18:16,1b5d9ca2-23a0-4316-82d5-648046c48802,A
2020-02-17 00:18:52,1b5d9ca2-23a0-4316-82d5-648046c48802,S
2020-02-17 00:25:52,1b5d9ca2-23a0-4316-82d5-648046c48802,A
2020-02-17 00:27:20,1b5d9ca2-23a0-4316-82d5-648046c48802,S
2020-02-17 00:27:52,1b5d9ca2-23a0-4316-82d5-648046c48802,A
2020-02-16 22:33:20,ae3b1f89-4f77-41ad-95b7-ba083fdd1796,A
2020-02-16 22:39:23,ae3b1f89-4f77-41ad-95b7-ba083fdd1796,S
2020-02-16 22:42:10,ae3b1f89-4f77-41ad-95b7-ba083fdd1796,A
2020-02-16 22:42:49,ae3b1f89-4f77-41ad-95b7-ba083fdd1796,S
2020-02-16 22:43:34,ae3b1f89-4f77-41ad-95b7-ba083fdd1796,A
2020-02-16 22:52:50,ae3b1f89-4f77-41ad-95b7-ba083fdd1796,S
2020-02-16 22:53:15,ae3b1f89-4f77-41ad-95b7-ba083fdd1796,A
2020-02-16 22:54:05,ae3b1f89-4f77-41ad-95b7-ba083fdd1796,S
2020-02-16 22:58:59,ae3b1f89-4f77-41ad-95b7-ba083fdd1796,A
2020-02-16 23:03:59,ae3b1f89-4f77-41ad-95b7-ba083fdd1796,S
2020-02-16 23:04:11,ae3b1f89-4f77-41ad-95b7-ba083fdd1796,A
2020-02-16 23:04:55,ae3b1f89-4f77-41ad-95b7-ba083fdd1796,S
2020-02-16 23:07:15,ae3b1f89-4f77-41ad-95b7-ba083fdd1796,A
2020-02-16 23:10:16,ae3b1f89-4f77-41ad-95b7-ba083fdd1796,S
2020-02-16 23:11:32,ae3b1f89-4f77-41ad-95b7-ba083fdd1796,A
2020-02-16 23:11:36,ae3b1f89-4f77-41ad-95b7-ba083fdd1796,S
2020-02-16 23:19:41,ae3b1f89-4f77-41ad-95b7-ba083fdd1796,A
2020-02-16 23:22:59,ae3b1f89-4f77-41ad-95b7-ba083fdd1796,S
2020-02-16 23:24:51,ae3b1f89-4f77-41ad-95b7-ba083fdd1796,A
2020-02-16 23:32:13,ae3b1f89-4f77-41ad-95b7-ba083fdd1796,S
2020-02-16 23:42:28,ae3b1f89-4f77-41ad-95b7-ba083fdd1796,A
2020-02-16 23:57:55,ae3b1f89-4f77-41ad-95b7-ba083fdd1796,S
2020-02-17 00:00:18,ae3b1f89-4f77-41ad-95b7-ba083fdd1796,A
2020-02-17 00:00:29,ae3b1f89-4f77-41ad-95b7-ba083fdd1796,S
2020-02-17 00:08:35,ae3b1f89-4f77-41ad-95b7-ba083fdd1796,A
2020-02-17 00:08:58,ae3b1f89-4f77-41ad-95b7-ba083fdd1796,S
2020-02-17 00:17:17,ae3b1f89-4f77-41ad-95b7-ba083fdd1796,A
2020-02-17 00:25:44,ae3b1f89-4f77-41ad-95b7-ba083fdd1796,S
2020-02-16 22:48:55,cc4ac86b-0540-45da-baf0-4a02944b93bb,S
2020-02-16 22:53:05,cc4ac86b-0540-45da-baf0-4a02944b93bb,A
2020-02-16 23:00:33,cc4ac86b-0540-45da-baf0-4a02944b93bb,S
2020-02-16 23:04:45,cc4ac86b-0540-45da-baf0-4a02944b93bb,A
2020-02-16 23:04:59,cc4ac86b-0540-45da-baf0-4a02944b93bb,S
2020-02-16 23:14:28,cc4ac86b-0540-45da-baf0-4a02944b93bb,A
2020-02-16 23:17:29,cc4ac86b-0540-45da-baf0-4a02944b93bb,S
2020-02-16 23:18:56,cc4ac86b-0540-45da-baf0-4a02944b93bb,A
2020-02-16 23:20:40,cc4ac86b-0540-45da-baf0-4a02944b93bb,S
2020-02-16 23:30:20,cc4ac86b-0540-45da-baf0-4a02944b93bb,A
2020-02-16 23:35:10,cc4ac86b-0540-45da-baf0-4a02944b93bb,S
2020-02-16 23:36:53,cc4ac86b-0540-45da-baf0-4a02944b93bb,A
2020-02-16 23:37:49,cc4ac86b-0540-45da-baf0-4a02944b93bb,S
2020-02-16 23:43:17,cc4ac86b-0540-45da-baf0-4a02944b93bb,A
2020-02-16 23:47:52,cc4ac86b-0540-45da-baf0-4a02944b93bb,S
2020-02-16 23:52:33,cc4ac86b-0540-45da-baf0-4a02944b93bb,A
2020-02-17 00:00:34,cc4ac86b-0540-45da-baf0-4a02944b93bb,S
2020-02-17 00:05:45,cc4ac86b-0540-45da-baf0-4a02944b93bb,A
2020-02-17 00:09:05,cc4ac86b-0540-45da-baf0-4a02944b93bb,S
2020-02-17 00:21:51,cc4ac86b-0540-45da-baf0-4a02944b93bb,A
2020-02-17 00:30:00,cc4ac86b-0540-45da-baf0-4a02944b93bb,S
2020-02-16 22:57:59,fd88a82c-310e-4a36-b3a4-d697ec60eb52,A
2020-02-16 23:05:13,fd88a82c-310e-4a36-b3a4-d697ec60eb52,S
2020-02-16 23:07:07,fd88a82c-310e-4a36-b3a4-d697ec60eb52,A
2020-02-16 23:11:58,fd88a82c-310e-4a36-b3a4-d697ec60eb52,S
2020-02-16 23:19:13,fd88a82c-310e-4a36-b3a4-d697ec60eb52,A
2020-02-16 23:26:09,fd88a82c-310e-4a36-b3a4-d697ec60eb52,S
2020-02-16 23:26:43,fd88a82c-310e-4a36-b3a4-d697ec60eb52,A
2020-02-16 23:27:08,fd88a82c-310e-4a36-b3a4-d697ec60eb52,S
2020-02-16 23:28:31,fd88a82c-310e-4a36-b3a4-d697ec60eb52,A
2020-02-16 23:29:10,fd88a82c-310e-4a36-b3a4-d697ec60eb52,S
2020-02-16 23:31:26,fd88a82c-310e-4a36-b3a4-d697ec60eb52,A
2020-02-16 23:37:48,fd88a82c-310e-4a36-b3a4-d697ec60eb52,S
2020-02-16 23:39:11,fd88a82c-310e-4a36-b3a4-d697ec60eb52,A
2020-02-16 23:41:52,fd88a82c-310e-4a36-b3a4-d697ec60eb52,S
2020-02-16 23:42:27,fd88a82c-310e-4a36-b3a4-d697ec60eb52,A
2020-02-16 23:43:47,fd88a82c-310e-4a36-b3a4-d697ec60eb52,S
2020-02-17 00:03:08,fd88a82c-310e-4a36-b3a4-d697ec60eb52,A
2020-02-17 00:21:09,fd88a82c-310e-4a36-b3a4-d697ec60eb52,S
2020-02-17 00:22:12,fd88a82c-310e-4a36-b3a4-d697ec60eb52,A
2020-02-16 22:46:43,43be9e5c-96ab-47db-951e-74439f157465,A
2020-02-16 23:05:36,43be9e5c-96ab-47db-951e-74439f157465,S
2020-02-16 23:05:57,43be9e5c-96ab-47db-951e-74439f157465,A
2020-02-16 23:08:42,43be9e5c-96ab-47db-951e-74439f157465,S
2020-02-16 23:12:42,43be9e5c-96ab-47db-951e-74439f157465,A
2020-02-16 23:13:11,43be9e5c-96ab-47db-951e-74439f157465,S
2020-02-16 23:16:13,43be9e5c-96ab-47db-951e-74439f157465,A
2020-02-16 23:17:51,43be9e5c-96ab-47db-951e-74439f157465,S
2020-02-16 23:32:21,43be9e5c-96ab-47db-951e-74439f157465,A
2020-02-16 23:33:57,43be9e5c-96ab-47db-951e-74439f157465,S
2020-02-16 23:34:03,43be9e5c-96ab-47db-951e-74439f157465,A
2020-02-16 23:36:23,43be9e5c-96ab-47db-951e-74439f157465,S
2020-02-16 23:36:30,43be9e5c-96ab-47db-951e-74439f157465,A
2020-02-16 23:38:33,43be9e5c-96ab-47db-951e-74439f157465,S
2020-02-16 23:42:34,43be9e5c-96ab-47db-951e-74439f157465,A
2020-02-16 23:53:17,43be9e5c-96ab-47db-951e-74439f157465,S
2020-02-16 23:59:01,43be9e5c-96ab-47db-951e-74439f157465,A
2020-02-17 00:01:15,43be9e5c-96ab-47db-951e-74439f157465,S
2020-02-17 00:04:41,43be9e5c-96ab-47db-951e-74439f157465,A
2020-02-17 00:08:13,43be9e5c-96ab-47db-951e-74439f157465,S
2020-02-17 00:25:59,43be9e5c-96ab-47db-951e-74439f157465,A
2020-02-16 23:06:20,4d7f083b-f4c7-47df-bf4f-468d97e66de6,S
2020-02-16 23:19:54,4d7f083b-f4c7-47df-bf4f-468d97e66de6,A
2020-02-16 23:24:48,4d7f083b-f4c7-47df-bf4f-468d97e66de6,S
2020-02-16 23:25:20,4d7f083b-f4c7-47df-bf4f-468d97e66de6,A
2020-02-16 23:29:12,4d7f083b-f4c7-47df-bf4f-468d97e66de6,S
2020-02-16 23:29:53,4d7f083b-f4c7-47df-bf4f-468d97e66de6,A
2020-02-16 23:38:32,4d7f083b-f4c7-47df-bf4f-468d97e66de6,S
2020-02-16 23:39:36,4d7f083b-f4c7-47df-bf4f-468d97e66de6,A
2020-02-16 23:41:51,4d7f083b-f4c7-47df-bf4f-468d97e66de6,S
2020-02-16 23:44:01,4d7f083b-f4c7-47df-bf4f-468d97e66de6,A
2020-02-16 23:46:23,4d7f083b-f4c7-47df-bf4f-468d97e66de6,S
2020-02-16 23:50:14,4d7f083b-f4c7-47df-bf4f-468d97e66de6,A
2020-02-16 23:51:26,4d7f083b-f4c7-47df-bf4f-468d97e66de6,S
2020-02-16 23:52:16,4d7f083b-f4c7-47df-bf4f-468d97e66de6,A
2020-02-16 23:54:26,4d7f083b-f4c7-47df-bf4f-468d97e66de6,S
2020-02-16 23:54:49,4d7f083b-f4c7-47df-bf4f-468d97e66de6,A
2020-02-16 23:55:05,4d7f083b-f4c7-47df-bf4f-468d97e66de6,S
2020-02-16 23:59:36,4d7f083b-f4c7-47df-bf4f-468d97e66de6,A
2020-02-17 00:00:27,4d7f083b-f4c7-47df-bf4f-468d97e66de6,S
2020-02-17 00:09:58,4d7f083b-f4c7-47df-bf4f-468d97e66de6,A
2020-02-17 00:16:01,4d7f083b-f4c7-47df-bf4f-468d97e66de6,S
2020-02-17 00:24:00,4d7f083b-f4c7-47df-bf4f-468d97e66de6,A
2020-02-17 00:27:29,4d7f083b-f4c7-47df-bf4f-468d97e66de6,S
2020-02-17 00:28:05,4d7f083b-f4c7-47df-bf4f-468d97e66de6,A
2020-02-16 22:50:28,f5054f97-439f-49d6-bfc4-013dacb69d49,S
2020-02-16 22:51:10,f5054f97-439f-49d6-bfc4-013dacb69d49,A
2020-02-16 23:06:50,f5054f97-439f-49d6-bfc4-013dacb69d49,S
2020-02-16 23:14:05,f5054f97-439f-49d6-bfc4-013dacb69d49,A
2020-02-16 23:14:26,f5054f97-439f-49d6-bfc4-013dacb69d49,S
2020-02-16 23:14:56,f5054f97-439f-49d6-bfc4-013dacb69d49,A
2020-02-16 23:16:03,f5054f97-439f-49d6-bfc4-013dacb69d49,S
2020-02-16 23:23:51,f5054f97-439f-49d6-bfc4-013dacb69d49,A
2020-02-16 23:26:20,f5054f97-439f-49d6-bfc4-013dacb69d49,S
2020-02-16 23:27:18,f5054f97-439f-49d6-bfc4-013dacb69d49,A
2020-02-16 23:32:17,f5054f97-439f-49d6-bfc4-013dacb69d49,S
2020-02-16 23:35:43,f5054f97-439f-49d6-bfc4-013dacb69d49,A
2020-02-16 23:43:25,f5054f97-439f-49d6-bfc4-013dacb69d49,S
2020-02-16 23:46:58,f5054f97-439f-49d6-bfc4-013dacb69d49,A
2020-02-16 23:48:02,f5054f97-439f-49d6-bfc4-013dacb69d49,S
2020-02-16 23:49:20,f5054f97-439f-49d6-bfc4-013dacb69d49,A
2020-02-16 23:58:29,f5054f97-439f-49d6-bfc4-013dacb69d49,S
2020-02-16 23:59:36,f5054f97-439f-49d6-bfc4-013dacb69d49,A
2020-02-17 00:02:13,f5054f97-439f-49d6-bfc4-013dacb69d49,S
2020-02-17 00:04:20,f5054f97-439f-49d6-bfc4-013dacb69d49,A
2020-02-17 00:12:52,f5054f97-439f-49d6-bfc4-013dacb69d49,S
2020-02-17 00:15:06,f5054f97-439f-49d6-bfc4-013dacb69d49,A
2020-02-17 00:20:03,f5054f97-439f-49d6-bfc4-013dacb69d49,S
2020-02-17 00:23:31,f5054f97-439f-49d6-bfc4-013dacb69d49,A
2020-02-17 00:24:06,f5054f97-439f-49d6-bfc4-013dacb69d49,S
2020-02-17 00:25:38,f5054f97-439f-49d6-bfc4-013dacb69d49,A
2020-02-17 00:30:12,f5054f97-439f-49d6-bfc4-013dacb69d49,S
2020-02-16 22:35:08,4fc1a929-b088-4bf3-8656-e2b05f070a9f,A
2020-02-16 22:42:01,4fc1a929-b088-4bf3-8656-e2b05f070a9f,S
2020-02-16 22:46:47,4fc1a929-b088-4bf3-8656-e2b05f070a9f,A
2020-02-16 22:53:21,4fc1a929-b088-4bf3-8656-e2b05f070a9f,S
2020-02-16 22:59:15,4fc1a929-b088-4bf3-8656-e2b05f070a9f,A
2020-02-16 23:09:53,4fc1a929-b088-4bf3-8656-e2b05f070a9f,S
2020-02-16 23:17:08,4fc1a929-b088-4bf3-8656-e2b05f070a9f,A
2020-02-16 23:19:35,4fc1a929-b088-4bf3-8656-e2b05f070a9f,S
2020-02-16 23:21:16,4fc1a929-b088-4bf3-8656-e2b05f070a9f,A
2020-02-16 23:25:54,4fc1a929-b088-4bf3-8656-e2b05f070a9f,S
2020-02-16 23:30:54,4fc1a929-b088-4bf3-8656-e2b05f070a9f,A
2020-02-16 23:40:49,4fc1a929-b088-4bf3-8656-e2b05f070a9f,S
2020-02-16 23:40:53,4fc1a929-b088-4bf3-8656-e2b05f070a9f,A
2020-02-16 23:45:33,4fc1a929-b088-4bf3-8656-e2b05f070a9f,S
2020-02-16 23:47:18,4fc1a929-b088-4bf3-8656-e2b05f070a9f,A
2020-02-16 23:54:00,4fc1a929-b088-4bf3-8656-e2b05f070a9f,S
2020-02-16 23:54:07,4fc1a929-b088-4bf3-8656-e2b05f070a9f,A
2020-02-16 23:56:49,4fc1a929-b088-4bf3-8656-e2b05f070a9f,S
2020-02-17 00:03:42,4fc1a929-b088-4bf3-8656-e2b05f070a9f,A
2020-02-17 00:24:36,4fc1a929-b088-4bf3-8656-e2b05f070a9f,S
2020-02-17 00:31:24,4fc1a929-b088-4bf3-8656-e2b05f070a9f,A
2020-02-16 22:41:46,c55a1152-b868-467b-ba62-04f7e18dccea,S
2020-02-16 22:50:48,c55a1152-b868-467b-ba62-04f7e18dccea,A
2020-02-16 22:56:00,c55a1152-b868-467b-ba62-04f7e18dccea,S
2020-02-16 23:08:46,c55a1152-b868-467b-ba62-04f7e18dccea,A
2020-02-16 23:09:45,c55a1152-b868-467b-ba62-04f7e18dccea,S
2020-02-16 23:20:58,c55a1152-b868-467b-ba62-04f7e18dccea,A
2020-02-16 23:21:11,c55a1152-b868-467b-ba62-04f7e18dccea,S
2020-02-16 23:24:38,c55a1152-b868-467b-ba62-04f7e18dccea,A
2020-02-16 23:35:41,c55a1152-b868-467b-ba62-04f7e18dccea,S
2020-02-16 23:38:43,c55a1152-b868-467b-ba62-04f7e18dccea,A
2020-02-16 23:45:19,c55a1152-b868-467b-ba62-04f7e18dccea,S
2020-02-16 23:47:15,c55a1152-b868-467b-ba62-04f7e18dccea,A
2020-02-16 23:54:40,c55a1152-b868-467b-ba62-04f7e18dccea,S
2020-02-16 23:58:46,c55a1152-b868-467b-ba62-04f7e18dccea,A
2020-02-16 23:59:28,c55a1152-b868-467b-ba62-04f7e18dccea,S
2020-02-16 23:59:50,c55a1152-b868-467b-ba62-04f7e18dccea,A
2020-02-17 00:03:13,c55a1152-b868-467b-ba62-04f7e18dccea,S
2020-02-17 00:06:18,c55a1152-b868-467b-ba62-04f7e18dccea,A
2020-02-17 00:19:28,c55a1152-b868-467b-ba62-04f7e18dccea,S
2020-02-17 00:23:39,c55a1152-b868-467b-ba62-04f7e18dccea,A
2020-02-17 00:23:45,c55a1152-b868-467b-ba62-04f7e18dccea,S
2020-02-16 22:28:56,c0b3c71f-cdf2-438d-97fd-c1a7db472711,S
2020-02-16 22:45:03,c0b3c71f-cdf2-438d-97fd-c1a7db472711,A
2020-02-16 22:46:16,c0b3c71f-cdf2-438d-97fd-c1a7db472711,S
2020-02-16 22:51:04,c0b3c71f-cdf2-438d-97fd-c1a7db472711,A
2020-02-16 22:52:10,c0b3c71f-cdf2-438d-97fd-c1a7db472711,S
2020-02-16 22:54:58,c0b3c71f-cdf2-438d-97fd-c1a7db472711,A
2020-02-16 23:00:09,c0b3c71f-cdf2-438d-97fd-c1a7db472711,S
2020-02-16 23:02:20,c0b3c71f-cdf2-438d-97fd-c1a7db472711,A
2020-02-16 23:05:49,c0b3c71f-cdf2-438d-97fd-c1a7db472711,S
2020-02-16 23:11:24,c0b3c71f-cdf2-438d-97fd-c1a7db472711,A
2020-02-16 23:21:55,c0b3c71f-cdf2-438d-97fd-c1a7db472711,S
2020-02-16 23:27:35,c0b3c71f-cdf2-438d-97fd-c1a7db472711,A
2020-02-16 23:29:33,c0b3c71f-cdf2-438d-97fd-c1a7db472711,S
2020-02-16 23:31:34,c0b3c71f-cdf2-438d-97fd-c1a7db472711,A
2020-02-16 23:39:52,c0b3c71f-cdf2-438d-97fd-c1a7db472711,S
2020-02-16 23:42:01,c0b3c71f-cdf2-438d-97fd-c1a7db472711,A
2020-02-16 23:46:56,c0b3c71f-cdf2-438d-97fd-c1a7db472711,S
2020-02-16 23:49:54,c0b3c71f-cdf2-438d-97fd-c1a7db472711,A
2020-02-16 23:51:02,c0b3c71f-cdf2-438d-97fd-c1a7db472711,S
2020-02-16 23:55:57,c0b3c71f-cdf2-438d-97fd-c1a7db472711,A
2020-02-16 23:58:50,c0b3c71f-cdf2-438d-97fd-c1a7db472711,S
2020-02-17 00:02:39,c0b3c71f-cdf2-438d-97fd-c1a7db472711,A
2020-02-17 00:04:59,c0b3c71f-cdf2-438d-97fd-c1a7db472711,S
2020-02-17 00:08:45,c0b3c71f-cdf2-438d-97fd-c1a7db472711,A
2020-02-17 00:14:11,c0b3c71f-cdf2-438d-97fd-c1a7db472711,S
2020-02-17 00:15:17,c0b3c71f-cdf2-438d-97fd-c1a7db472711,A
2020-02-17 00:21:02,c0b3c71f-cdf2-438d-97fd-c1a7db472711,S
2020-02-17 00:21:59,c0b3c71f-cdf2-438d-97fd-c1a7db472711,A
2020-02-17 00:23:30,c0b3c71f-cdf2-438d-97fd-c1a7db472711,S
2020-02-17 00:24:01,c0b3c71f-cdf2-438d-97fd-c1a7db472711,A
2020-02-17 00:27:21,c0b3c71f-cdf2-438d-97fd-c1a7db472711,S
2020-02-17 00:28:50,c0b3c71f-cdf2-438d-97fd-c1a7db472711,A
2020-02-16 22:22:49,7841c324-ac35-4f5c-9f5f-3d8cfae6957d,S
2020-02-16 22:24:21,7841c324-ac35-4f5c-9f5f-3d8cfae6957d,A
2020-02-16 22:25:10,7841c324-ac35-4f5c-9f5f-3d8cfae6957d,S
2020-02-16 22:25:16,7841c324-ac35-4f5c-9f5f-3d8cfae6957d,A
2020-02-16 22:25:22,7841c324-ac35-4f5c-9f5f-3d8cfae6957d,S
2020-02-16 22:25:46,7841c324-ac35-4f5c-9f5f-3d8cfae6957d,A
2020-02-16 22:30:31,7841c324-ac35-4f5c-9f5f-3d8cfae6957d,S
2020-02-16 22:34:39,7841c324-ac35-4f5c-9f5f-3d8cfae6957d,A
2020-02-16 22:36:28,7841c324-ac35-4f5c-9f5f-3d8cfae6957d,S
2020-02-16 22:38:41,7841c324-ac35-4f5c-9f5f-3d8cfae6957d,A
2020-02-16 22:49:19,7841c324-ac35-4f5c-9f5f-3d8cfae6957d,S
2020-02-16 22:51:22,7841c324-ac35-4f5c-9f5f-3d8cfae6957d,A
2020-02-16 23:00:31,7841c324-ac35-4f5c-9f5f-3d8cfae6957d,S
2020-02-16 23:03:06,7841c324-ac35-4f5c-9f5f-3d8cfae6957d,A
2020-02-16 23:11:42,7841c324-ac35-4f5c-9f5f-3d8cfae6957d,S
2020-02-16 23:13:44,7841c324-ac35-4f5c-9f5f-3d8cfae6957d,A
2020-02-16 23:15:32,7841c324-ac35-4f5c-9f5f-3d8cfae6957d,S
2020-02-16 23:18:37,7841c324-ac35-4f5c-9f5f-3d8cfae6957d,A
2020-02-16 23:18:43,7841c324-ac35-4f5c-9f5f-3d8cfae6957d,S
2020-02-16 23:30:47,7841c324-ac35-4f5c-9f5f-3d8cfae6957d,A
2020-02-16 23:34:25,7841c324-ac35-4f5c-9f5f-3d8cfae6957d,S
2020-02-16 23:46:09,7841c324-ac35-4f5c-9f5f-3d8cfae6957d,A
2020-02-16 23:46:54,7841c324-ac35-4f5c-9f5f-3d8cfae6957d,S
2020-02-16 23:53:47,7841c324-ac35-4f5c-9f5f-3d8cfae6957d,A
2020-02-16 23:55:07,7841c324-ac35-4f5c-9f5f-3d8cfae6957d,S
2020-02-16 23:57:35,7841c324-ac35-4f5c-9f5f-3d8cfae6957d,A
2020-02-17 00:05:59,7841c324-ac35-4f5c-9f5f-3d8cfae6957d,S
2020-02-17 00:14:09,7841c324-ac35-4f5c-9f5f-3d8cfae6957d,A
2020-02-17 00:24:18,7841c324-ac35-4f5c-9f5f-3d8cfae6957d,S
2020-02-17 00:26:16,7841c324-ac35-4f5c-9f5f-3d8cfae6957d,A
2020-02-17 00:31:33,7841c324-ac35-4f5c-9f5f-3d8cfae6957d,S
2020-02-17 00:31:56,7841c324-ac35-4f5c-9f5f-3d8cfae6957d,A
2020-02-16 22:59:55,a37aa898-7b09-4a80-af2d-cc0fe8dc921d,A
2020-02-16 23:08:50,a37aa898-7b09-4a80-af2d-cc0fe8dc921d,S
2020-02-16 23:19:34,a37aa898-7b09-4a80-af2d-cc0fe8dc921d,A
2020-02-16 23:25:06,a37aa898-7b09-4a80-af2d-cc0fe8dc921d,S
2020-02-16 23:27:44,a37aa898-7b09-4a80-af2d-cc0fe8dc921d,A
2020-02-16 23:28:28,a37aa898-7b09-4a80-af2d-cc0fe8dc921d,S
2020-02-16 23:33:08,a37aa898-7b09-4a80-af2d-cc0fe8dc921d,A
2020-02-16 23:34:58,a37aa898-7b09-4a80-af2d-cc0fe8dc921d,S
2020-02-16 23:48:13,a37aa898-7b09-4a80-af2d-cc0fe8dc921d,A
2020-02-16 23:50:06,a37aa898-7b09-4a80-af2d-cc0fe8dc921d,S
2020-02-16 23:56:18,a37aa898-7b09-4a80-af2d-cc0fe8dc921d,A
2020-02-16 23:59:06,a37aa898-7b09-4a80-af2d-cc0fe8dc921d,S
2020-02-17 00:00:53,a37aa898-7b09-4a80-af2d-cc0fe8dc921d,A
2020-02-17 00:01:17,a37aa898-7b09-4a80-af2d-cc0fe8dc921d,S
2020-02-17 00:01:56,a37aa898-7b09-4a80-af2d-cc0fe8dc921d,A
2020-02-17 00:14:26,a37aa898-7b09-4a80-af2d-cc0fe8dc921d,S
2020-02-17 00:14:28,a37aa898-7b09-4a80-af2d-cc0fe8dc921d,A
2020-02-17 00:15:04,a37aa898-7b09-4a80-af2d-cc0fe8dc921d,S
2020-02-17 00:15:33,a37aa898-7b09-4a80-af2d-cc0fe8dc921d,A
2020-02-17 00:28:56,a37aa898-7b09-4a80-af2d-cc0fe8dc921d,S
2020-02-16 22:59:46,cd4f6234-981d-476a-a107-19583ee0d0de,A
2020-02-16 23:14:29,cd4f6234-981d-476a-a107-19583ee0d0de,S
2020-02-16 23:16:35,cd4f6234-981d-476a-a107-19583ee0d0de,A
2020-02-16 23:25:41,cd4f6234-981d-476a-a107-19583ee0d0de,S
2020-02-16 23:37:13,cd4f6234-981d-476a-a107-19583ee0d0de,A
2020-02-16 23:43:26,cd4f6234-981d-476a-a107-19583ee0d0de,S
2020-02-16 23:50:06,cd4f6234-981d-476a-a107-19583ee0d0de,A
2020-02-16 23:50:30,cd4f6234-981d-476a-a107-19583ee0d0de,S
2020-02-16 23:51:37,cd4f6234-981d-476a-a107-19583ee0d0de,A
2020-02-16 23:55:56,cd4f6234-981d-476a-a107-19583ee0d0de,S
2020-02-16 23:56:28,cd4f6234-981d-476a-a107-19583ee0d0de,A
2020-02-17 00:03:07,cd4f6234-981d-476a-a107-19583ee0d0de,S
2020-02-17 00:05:50,cd4f6234-981d-476a-a107-19583ee0d0de,A
2020-02-17 00:07:37,cd4f6234-981d-476a-a107-19583ee0d0de,S
2020-02-17 00:11:24,cd4f6234-981d-476a-a107-19583ee0d0de,A
2020-02-17 00:17:40,cd4f6234-981d-476a-a107-19583ee0d0de,S
2020-02-17 00:17:53,cd4f6234-981d-476a-a107-19583ee0d0de,A
2020-02-17 00:20:28,cd4f6234-981d-476a-a107-19583ee0d0de,S
2020-02-17 00:30:50,cd4f6234-981d-476a-a107-19583ee0d0de,A
2020-02-17 00:31:41,cd4f6234-981d-476a-a107-19583ee0d0de,S
2020-02-17 00:32:03,cd4f6234-981d-476a-a107-19583ee0d0de,A
2020-02-16 22:16:34,0b663169-e78b-48b4-b420-56e6a45689dc,A
2020-02-16 22:20:51,0b663169-e78b-48b4-b420-56e6a45689dc,S
2020-02-16 22:23:08,0b663169-e78b-48b4-b420-56e6a45689dc,A
2020-02-16 22:30:51,0b663169-e78b-48b4-b420-56e6a45689dc,S
2020-02-16 22:40:09,0b663169-e78b-48b4-b420-56e6a45689dc,A
2020-02-16 22:44:30,0b663169-e78b-48b4-b420-56e6a45689dc,S
2020-02-16 22:49:03,0b663169-e78b-48b4-b420-56e6a45689dc,A
2020-02-16 23:04:20,0b663169-e78b-48b4-b420-56e6a45689dc,S
2020-02-16 23:09:13,0b663169-e78b-48b4-b420-56e6a45689dc,A
2020-02-16 23:22:02,0b663169-e78b-48b4-b420-56e6a45689dc,S
2020-02-16 23:22:31,0b663169-e78b-48b4-b420-56e6a45689dc,A
2020-02-16 23:29:44,0b663169-e78b-48b4-b420-56e6a45689dc,S
2020-02-16 23:37:38,0b663169-e78b-48b4-b420-56e6a45689dc,A
2020-02-16 23:38:48,0b663169-e78b-48b4-b420-56e6a45689dc,S
2020-02-16 23:40:21,0b663169-e78b-48b4-b420-56e6a45689dc,A
2020-02-16 23:40:58,0b663169-e78b-48b4-b420-56e6a45689dc,S
2020-02-16 23:42:31,0b663169-e78b-48b4-b420-56e6a45689dc,A
2020-02-16 23:43:06,0b663169-e78b-48b4-b420-56e6a45689dc,S
2020-02-16 23:43:13,0b663169-e78b-48b4-b420-56e6a45689dc,A
2020-02-16 23:43:34,0b663169-e78b-48b4-b420-56e6a45689dc,S
2020-02-16 23:44:31,0b663169-e78b-48b4-b420-56e6a45689dc,A
2020-02-16 23:51:56,0b663169-e78b-48b4-b420-56e6a45689dc,S
2020-02-17 00:04:14,0b663169-e78b-48b4-b420-56e6a45689dc,A
2020-02-17 00:04:52,0b663169-e78b-48b4-b420-56e6a45689dc,S
2020-02-17 00:23:22,0b663169-e78b-48b4-b420-56e6a45689dc,A
2020-02-16 22:56:09,e07441d6-94b0-47a8-a384-16b136e6e556,S
2020-02-16 22:58:04,e07441d6-94b0-47a8-a384-16b136e6e556,A
2020-02-16 23:01:13,e07441d6-94b0-47a8-a384-16b136e6e556,S
2020-02-16 23:01:42,e07441d6-94b0-47a8-a384-16b136e6e556,A
2020-02-16 23:04:51,e07441d6-94b0-47a8-a384-16b136e6e556,S
2020-02-16 23:06:51,e07441d6-94b0-47a8-a384-16b136e6e556,A
2020-02-16 23:11:07,e07441d6-94b0-47a8-a384-16b136e6e556,S
2020-02-16 23:12:04,e07441d6-94b0-47a8-a384-16b136e6e556,A
2020-02-16 23:12:54,e07441d6-94b0-47a8-a384-16b136e6e556,S
2020-02-16 23:20:21,e07441d6-94b0-47a8-a384-16b136e6e556,A
2020-02-16 23:22:33,e07441d6-94b0-47a8-a384-16b136e6e556,S
2020-02-16 23:26:05,e07441d6-94b0-47a8-a384-16b136e6e556,A
2020-02-16 23:34:22,e07441d6-94b0-47a8-a384-16b136e6e556,S
2020-02-16 23:41:46,e07441d6-94b0-47a8-a384-16b136e6e556,A
2020-02-16 23:43:48,e07441d6-94b0-47a8-a384-16b136e6e556,S
2020-02-16 23:46:33,e07441d6-94b0-47a8-a384-16b136e6e556,A
2020-02-16 23:47:38,e07441d6-94b0-47a8-a384-16b136e6e556,S
2020-02-16 23:48:56,e07441d6-94b0-47a8-a384-16b136e6e556,A
2020-02-16 23:50:28,e07441d6-94b0-47a8-a384-16b136e6e556,S
2020-02-16 23:58:35,e07441d6-94b0-47a8-a384-16b136e6e556,A
2020-02-16 23:58:46,e07441d6-94b0-47a8-a384-16b136e6e556,S
2020-02-16 23:58:57,e07441d6-94b0-47a8-a384-16b136e6e556,A
2020-02-17 00:02:48,e07441d6-94b0-47a8-a384-16b136e6e556,S
2020-02-17 00:05:12,e07441d6-94b0-47a8-a384-16b136e6e556,A
2020-02-17 00:05:56,e07441d6-94b0-47a8-a384-16b136e6e556,S
2020-02-17 00:07:14,e07441d6-94b0-47a8-a384-16b136e6e556,A
2020-02-17 00:08:08,e07441d6-94b0-47a8-a384-16b136e6e556,S
2020-02-17 00:16:31,e07441d6-94b0-47a8-a384-16b136e6e556,A
2020-02-17 00:17:44,e07441d6-94b0-47a8-a384-16b136e6e556,S
2020-02-17 00:26:43,e07441d6-94b0-47a8-a384-16b136e6e556,A
2020-02-17 00:30:38,e07441d6-94b0-47a8-a384-16b136e6e556,S
2020-02-16 22:58:24,4d38abb1-e51e-450c-b8b5-61fa450799aa,A
2020-02-16 23:01:52,4d38abb1-e51e-450c-b8b5-61fa450799aa,S
2020-02-16 23:04:56,4d38abb1-e51e-450c-b8b5-61fa450799aa,A
2020-02-16 23:13:53,4d38abb1-e51e-450c-b8b5-61fa450799aa,S
2020-02-16 23:28:49,4d38abb1-e51e-450c-b8b5-61fa450799aa,A
2020-02-16 23:29:52,4d38abb1-e51e-450c-b8b5-61fa450799aa,S
2020-02-16 23:30:21,4d38abb1-e51e-450c-b8b5-61fa450799aa,A
2020-02-16 23:31:00,4d38abb1-e51e-450c-b8b5-61fa450799aa,S
2020-02-16 23:38:04,4d38abb1-e51e-450c-b8b5-61fa450799aa,A
2020-02-16 23:43:14,4d38abb1-e51e-450c-b8b5-61fa450799aa,S
2020-02-17 00:02:06,4d38abb1-e51e-450c-b8b5-61fa450799aa,A
2020-02-17 00:04:13,4d38abb1-e51e-450c-b8b5-61fa450799aa,S
2020-02-17 00:11:20,4d38abb1-e51e-450c-b8b5-61fa450799aa,A
2020-02-17 00:14:50,4d38abb1-e51e-450c-b8b5-61fa450799aa,S
2020-02-17 00:27:39,4d38abb1-e51e-450c-b8b5-61fa450799aa,A
2020-02-17 00:28:21,4d38abb1-e51e-450c-b8b5-61fa450799aa,S
2020-02-16 23:03:49,091f8c78-8f40-431f-9471-fb8226d96795,A
2020-02-16 23:08:56,091f8c78-8f40-431f-9471-fb8226d96795,S
2020-02-16 23:09:59,091f8c78-8f40-431f-9471-fb8226d96795,A
2020-02-16 23:11:55,091f8c78-8f40-431f-9471-fb8226d96795,S
2020-02-16 23:19:29,091f8c78-8f40-431f-9471-fb8226d96795,A
2020-02-16 23:20:54,091f8c78-8f40-431f-9471-fb8226d96795,S
2020-02-16 23:30:48,091f8c78-8f40-431f-9471-fb8226d96795,A
2020-02-16 23:32:36,091f8c78-8f40-431f-9471-fb8226d96795,S
2020-02-16 23:37:30,091f8c78-8f40-431f-9471-fb8226d96795,A
2020-02-16 23:41:54,091f8c78-8f40-431f-9471-fb8226d96795,S
2020-02-16 23:50:38,091f8c78-8f40-431f-9471-fb8226d96795,A
2020-02-16 23:52:09,091f8c78-8f40-431f-9471-fb8226d96795,S
2020-02-16 23:54:03,091f8c78-8f40-431f-9471-fb8226d96795,A
2020-02-16 23:56:30,091f8c78-8f40-431f-9471-fb8226d96795,S
2020-02-17 00:00:44,091f8c78-8f40-431f-9471-fb8226d96795,A
2020-02-17 00:06:33,091f8c78-8f40-431f-9471-fb8226d96795,S
2020-02-17 00:12:03,091f8c78-8f40-431f-9471-fb8226d96795,A
2020-02-17 00:21:16,091f8c78-8f40-431f-9471-fb8226d96795,S
2020-02-17 00:30:04,091f8c78-8f40-431f-9471-fb8226d96795,A
2020-02-17 00:31:47,091f8c78-8f40-431f-9471-fb8226d96795,S
