date,trigger,state
2019-11-09 11:26:08,70bc9a6e-e035-46ee-99d0-340f37c11c38,S
2019-11-09 11:38:23,70bc9a6e-e035-46ee-99d0-340f37c11c38,A
2019-11-09 11:48:31,70bc9a6e-e035-46ee-99d0-340f37c11c38,S
2019-11-09 11:49:49,70bc9a6e-e035-46ee-99d0-340f37c11c38,A
2019-11-09 11:51:48,70bc9a6e-e035-46ee-99d0-340f37c11c38,S
2019-11-09 11:58:28,70bc9a6e-e035-46ee-99d0-340f37c11c38,A
2019-11-09 11:59:15,70bc9a6e-e035-46ee-99d0-340f37c11c38,S
2019-11-09 12:01:36,70bc9a6e-e035-46ee-99d0-340f37c11c38,A
2019-11-09 12:02:27,70bc9a6e-e035-46ee-99d0-340f37c11c38,S
2019-11-09 12:02:49,70bc9a6e-e035-46ee-99d0-340f37c11c38,A
2019-11-09 12:03:08,70bc9a6e-e035-46ee-99d0-340f37c11c38,S
2019-11-09 12:10:04,70bc9a6e-e035-46ee-99d0-340f37c11c38,A
2019-11-09 12:22:54,70bc9a6e-e035-46ee-99d0-340f37c11c38,S
2019-11-09 12:27:31,70bc9a6e-e035-46ee-99d0-340f37c11c38,A
2019-11-09 12:28:10,70bc9a6e-e035-46ee-99d0-340f37c11c38,S
2019-11-09 12:45:05,70bc9a6e-e035-46ee-99d0-340f37c11c38,A
2019-11-09 12:47:26,70bc9a6e-e035-46ee-99d0-340f37c11c38,S
2019-11-09 12:47:40,70bc9a6e-e035-46ee-99d0-340f37c11c38,A
2019-11-09 12:48:59,70bc9a6e-e035-46ee-99d0-340f37c11c38,S
2019-11-09 12:51:25,70bc9a6e-e035-46ee-99d0-340f37c11c38,A
2019-11-09 11:33:52,f1aef534-eb92-456a-9c58-21c67a661c1d,S
2019-11-09 11:34:35,f1aef534-eb92-456a-9c58-21c67a661c1d,A
2019-11-09 11:38:06,f1aef534-eb92-456a-9c58-21c67a661c1d,S
2019-11-09 11:42:08,f1aef534-eb92-456a-9c58-21c67a661c1d,A
2019-11-09 11:49:57,f1aef534-eb92-456a-9c58-21c67a661c1d,S
2019-11-09 11:56:26,f1aef534-eb92-456a-9c58-21c67a661c1d,A
2019-11-09 12:00:37,f1aef534-eb92-456a-9c58-21c67a661c1d,S
2019-11-09 11:12:30,831ef338-bcd8-41e8-8cd1-bf14b7b70080,S
2019-11-09 11:20:09,831ef338-bcd8-41e8-8cd1-bf14b7b70080,A
2019-11-09 11:22:04,831ef338-bcd8-41e8-8cd1-bf14b7b70080,S
2019-11-09 11:33:22,831ef338-bcd8-41e8-8cd1-bf14b7b70080,A
2019-11-09 11:35:12,831ef338-bcd8-41e8-8cd1-bf14b7b70080,S
2019-11-09 11:35:54,831ef338-bcd8-41e8-8cd1-bf14b7b70080,A
2019-11-09 11:45:24,831ef338-bcd8-41e8-8cd1-bf14b7b70080,S
2019-11-09 11:48:39,831ef338-bcd8-41e8-8cd1-bf14b7b70080,A
2019-11-09 11:49:15,831ef338-bcd8-41e8-8cd1-bf14b7b70080,S
2019-11-09 11:49:46,831ef338-bcd8-41e8-8cd1-bf14b7b70080,A
2019-11-09 11:54:50,831ef338-bcd8-41e8-8cd1-bf14b7b70080,S
2019-11-09 11:55:16,831ef338-bcd8-41e8-8cd1-bf14b7b70080,A
2019-11-09 11:55:39,831ef338-bcd8-41e8-8cd1-bf14b7b70080,S
2019-11-09 11:56:23,831ef338-bcd8-41e8-8cd1-bf14b7b70080,A
2019-11-09 11:58:15,831ef338-bcd8-41e8-8cd1-bf14b7b70080,S
2019-11-09 11:59:07,831ef338-bcd8-41e8-8cd1-bf14b7b70080,A
2019-11-09 12:09:41,831ef338-bcd8-41e8-8cd1-bf14b7b70080,S
2019-11-09 12:10:53,831ef338-bcd8-41e8-8cd1-bf14b7b70080,A
2019-11-09 12:17:45,831ef338-bcd8-41e8-8cd1-bf14b7b70080,S
2019-11-09 12:26:25,831ef338-bcd8-41e8-8cd1-bf14b7b70080,A
2019-11-09 12:29:33,831ef338-bcd8-41e8-8cd1-bf14b7b70080,S
2019-11-09 12:33:09,831ef338-bcd8-41e8-8cd1-bf14b7b70080,A
2019-11-09 12:33:24,831ef338-bcd8-41e8-8cd1-bf14b7b70080,S
2019-11-09 12:40:30,831ef338-bcd8-41e8-8cd1-bf14b7b70080,A
2019-11-09 12:40:38,831ef338-bcd8-41e8-8cd1-bf14b7b70080,S
2019-11-09 12:41:03,831ef338-bcd8-41e8-8cd1-bf14b7b70080,A
2019-11-09 12:41:40,831ef338-bcd8-41e8-8cd1-bf14b7b70080,S
2019-11-09 12:43:45,831ef338-bcd8-41e8-8cd1-bf14b7b70080,A
2019-11-09 12:43:48,831ef338-bcd8-41e8-8cd1-bf14b7b70080,S
2019-11-09 12:55:34,831ef338-bcd8-41e8-8cd1-bf14b7b70080,A
2019-11-09 10:57:58,41076061-06c4-48b8-93e9-8699dadf0b0b,S
2019-11-09 10:59:31,41076061-06c4-48b8-93e9-8699dadf0b0b,A
2019-11-09 11:00:20,41076061-06c4-48b8-93e9-8699dadf0b0b,S
2019-11-09 11:00:26,41076061-06c4-48b8-93e9-8699dadf0b0b,A
2019-11-09 11:00:32,41076061-06c4-48b8-93e9-8699dadf0b0b,S
2019-11-09 11:00:56,41076061-06c4-48b8-93e9-8699dadf0b0b,A
2019-11-09 11:05:41,41076061-06c4-48b8-93e9-8699dadf0b0b,S
2019-11-09 11:09:49,41076061-06c4-48b8-93e9-8699dadf0b0b,A
2019-11-09 11:11:38,41076061-06c4-48b8-93e9-8699dadf0b0b,S
2019-11-09 11:13:51,41076061-06c4-48b8-93e9-8699dadf0b0b,A
2019-11-09 11:24:29,41076061-06c4-48b8-93e9-8699dadf0b0b,S
2019-11-09 11:26:32,41076061-06c4-48b8-93e9-8699dadf0b0b,A
2019-11-09 11:35:41,41076061-06c4-48b8-93e9-8699dadf0b0b,S
2019-11-09 11:38:16,41076061-06c4-48b8-93e9-8699dadf0b0b,A
2019-11-09 11:46:52,41076061-06c4-48b8-93e9-8699dadf0b0b,S
2019-11-09 11:48:54,41076061-06c4-48b8-93e9-8699dadf0b0b,A
2019-11-09 11:50:42,41076061-06c4-48b8-93e9-8699dadf0b0b,S
2019-11-09 11:53:46,41076061-06c4-48b8-93e9-8699dadf0b0b,A
2019-11-09 11:53:53,41076061-06c4-48b8-93e9-8699dadf0b0b,S
2019-11-09 12:05:57,41076061-06c4-48b8-93e9-8699dadf0b0b,A
2019-11-09 12:09:35,41076061-06c4-48b8-93e9-8699dadf0b0b,S
2019-11-09 12:21:19,41076061-06c4-48b8-93e9-8699dadf0b0b,A
2019-11-09 12:22:04,41076061-06c4-48b8-93e9-8699dadf0b0b,S
2019-11-09 12:28:57,41076061-06c4-48b8-93e9-8699dadf0b0b,A
2019-11-09 12:30:17,41076061-06c4-48b8-93e9-8699dadf0b0b,S
2019-11-09 12:32:45,41076061-06c4-48b8-93e9-8699dadf0b0b,A
2019-11-09 12:41:10,41076061-06c4-48b8-93e9-8699dadf0b0b,S
2019-11-09 12:49:19,41076061-06c4-48b8-93e9-8699dadf0b0b,A
2019-11-09 11:21:42,dcd65574-0f7e-4975-b72d-b132017e6c48,A
2019-11-09 11:40:35,dcd65574-0f7e-4975-b72d-b132017e6c48,S
2019-11-09 11:40:57,dcd65574-0f7e-4975-b72d-b132017e6c48,A
2019-11-09 11:43:41,dcd65574-0f7e-4975-b72d-b132017e6c48,S
2019-11-09 11:47:41,dcd65574-0f7e-4975-b72d-b132017e6c48,A
2019-11-09 11:48:11,dcd65574-0f7e-4975-b72d-b132017e6c48,S
2019-11-09 11:51:12,dcd65574-0f7e-4975-b72d-b132017e6c48,A
2019-11-09 11:52:51,dcd65574-0f7e-4975-b72d-b132017e6c48,S
2019-11-09 12:07:20,dcd65574-0f7e-4975-b72d-b132017e6c48,A
2019-11-09 12:08:56,dcd65574-0f7e-4975-b72d-b132017e6c48,S
2019-11-09 12:09:02,dcd65574-0f7e-4975-b72d-b132017e6c48,A
2019-11-09 12:11:22,dcd65574-0f7e-4975-b72d-b132017e6c48,S
2019-11-09 12:11:29,dcd65574-0f7e-4975-b72d-b132017e6c48,A
2019-11-09 12:13:32,dcd65574-0f7e-4975-b72d-b132017e6c48,S
2019-11-09 12:17:33,dcd65574-0f7e-4975-b72d-b132017e6c48,A
2019-11-09 12:28:16,dcd65574-0f7e-4975-b72d-b132017e6c48,S
2019-11-09 12:34:00,dcd65574-0f7e-4975-b72d-b132017e6c48,A
2019-11-09 12:36:14,dcd65574-0f7e-4975-b72d-b132017e6c48,S
2019-11-09 12:39:40,dcd65574-0f7e-4975-b72d-b132017e6c48,A
2019-11-09 11:04:30,a573e109-1e97-4de0-af11-0999cc11a0a1,S
2019-11-09 11:08:36,a573e109-1e97-4de0-af11-0999cc11a0a1,A
2019-11-09 11:19:00,a573e109-1e97-4de0-af11-0999cc11a0a1,S
2019-11-09 11:20:34,a573e109-1e97-4de0-af11-0999cc11a0a1,A
2019-11-09 11:28:04,a573e109-1e97-4de0-af11-0999cc11a0a1,S
2019-11-09 11:28:19,a573e109-1e97-4de0-af11-0999cc11a0a1,A
2019-11-09 11:29:44,a573e109-1e97-4de0-af11-0999cc11a0a1,S
2019-11-09 11:47:01,a573e109-1e97-4de0-af11-0999cc11a0a1,A
2019-11-09 11:52:47,a573e109-1e97-4de0-af11-0999cc11a0a1,S
2019-11-09 11:56:22,a573e109-1e97-4de0-af11-0999cc11a0a1,A
2019-11-09 11:59:34,a573e109-1e97-4de0-af11-0999cc11a0a1,S
2019-11-09 11:59:50,a573e109-1e97-4de0-af11-0999cc11a0a1,A
2019-11-09 12:18:25,a573e109-1e97-4de0-af11-0999cc11a0a1,S
2019-11-09 12:18:51,a573e109-1e97-4de0-af11-0999cc11a0a1,A
2019-11-09 12:21:42,a573e109-1e97-4de0-af11-0999cc11a0a1,S
2019-11-09 12:35:15,a573e109-1e97-4de0-af11-0999cc11a0a1,A
2019-11-09 12:38:33,a573e109-1e97-4de0-af11-0999cc11a0a1,S
2019-11-09 12:41:00,a573e109-1e97-4de0-af11-0999cc11a0a1,A
2019-11-09 12:41:37,a573e109-1e97-4de0-af11-0999cc11a0a1,S
2019-11-09 12:46:51,a573e109-1e97-4de0-af11-0999cc11a0a1,A
2019-11-09 12:51:32,a573e109-1e97-4de0-af11-0999cc11a0a1,S
2019-11-09 12:55:28,a573e109-1e97-4de0-af11-0999cc11a0a1,A
2019-11-09 10:51:47,a33e77d4-c2e8-4a38-83d8-8e06cc9777dc,A
2019-11-09 10:56:03,a33e77d4-c2e8-4a38-83d8-8e06cc9777dc,S
2019-11-09 10:58:20,a33e77d4-c2e8-4a38-83d8-8e06cc9777dc,A
2019-11-09 11:06:03,a33e77d4-c2e8-4a38-83d8-8e06cc9777dc,S
2019-11-09 11:15:21,a33e77d4-c2e8-4a38-83d8-8e06cc9777dc,A
2019-11-09 11:19:42,a33e77d4-c2e8-4a38-83d8-8e06cc9777dc,S
2019-11-09 11:24:16,a33e77d4-c2e8-4a38-83d8-8e06cc9777dc,A
2019-11-09 11:39:33,a33e77d4-c2e8-4a38-83d8-8e06cc9777dc,S
2019-11-09 11:44:26,a33e77d4-c2e8-4a38-83d8-8e06cc9777dc,A
2019-11-09 11:57:15,a33e77d4-c2e8-4a38-83d8-8e06cc9777dc,S
2019-11-09 11:57:43,a33e77d4-c2e8-4a38-83d8-8e06cc9777dc,A
2019-11-09 12:04:57,a33e77d4-c2e8-4a38-83d8-8e06cc9777dc,S
2019-11-09 12:12:51,a33e77d4-c2e8-4a38-83d8-8e06cc9777dc,A
2019-11-09 12:14:01,a33e77d4-c2e8-4a38-83d8-8e06cc9777dc,S
2019-11-09 12:15:34,a33e77d4-c2e8-4a38-83d8-8e06cc9777dc,A
2019-11-09 12:16:10,a33e77d4-c2e8-4a38-83d8-8e06cc9777dc,S
2019-11-09 12:17:43,a33e77d4-c2e8-4a38-83d8-8e06cc9777dc,A
2019-11-09 12:18:19,a33e77d4-c2e8-4a38-83d8-8e06cc9777dc,S
2019-11-09 12:18:25,a33e77d4-c2e8-4a38-83d8-8e06cc9777dc,A
2019-11-09 12:18:46,a33e77d4-c2e8-4a38-83d8-8e06cc9777dc,S
2019-11-09 12:19:44,a33e77d4-c2e8-4a38-83d8-8e06cc9777dc,A
2019-11-09 12:27:08,a33e77d4-c2e8-4a38-83d8-8e06cc9777dc,S
2019-11-09 12:39:27,a33e77d4-c2e8-4a38-83d8-8e06cc9777dc,A
2019-11-09 12:40:05,a33e77d4-c2e8-4a38-83d8-8e06cc9777dc,S
2019-11-09 10:57:42,e7efb314-8dc2-4db8-af4e-5e72ce085e91,A
2019-11-09 11:01:09,e7efb314-8dc2-4db8-af4e-5e72ce085e91,S
2019-11-09 11:09:43,e7efb314-8dc2-4db8-af4e-5e72ce085e91,A
2019-11-09 11:12:46,e7efb314-8dc2-4db8-af4e-5e72ce085e91,S
2019-11-09 11:13:03,e7efb314-8dc2-4db8-af4e-5e72ce085e91,A
2019-11-09 11:15:31,e7efb314-8dc2-4db8-af4e-5e72ce085e91,S
2019-11-09 11:20:51,e7efb314-8dc2-4db8-af4e-5e72ce085e91,A
2019-11-09 11:24:46,e7efb314-8dc2-4db8-af4e-5e72ce085e91,S
2019-11-09 11:27:31,e7efb314-8dc2-4db8-af4e-5e72ce085e91,A
2019-11-09 11:38:19,e7efb314-8dc2-4db8-af4e-5e72ce085e91,S
2019-11-09 11:43:56,e7efb314-8dc2-4db8-af4e-5e72ce085e91,A
2019-11-09 12:06:30,e7efb314-8dc2-4db8-af4e-5e72ce085e91,S
2019-11-09 12:30:51,e7efb314-8dc2-4db8-af4e-5e72ce085e91,A
2019-11-09 12:37:26,e7efb314-8dc2-4db8-af4e-5e72ce085e91,S
2019-11-09 12:40:52,e7efb314-8dc2-4db8-af4e-5e72ce085e91,A
2019-11-09 12:43:46,e7efb314-8dc2-4db8-af4e-5e72ce085e91,S
2019-11-09 12:48:31,e7efb314-8dc2-4db8-af4e-5e72ce085e91,A
2019-11-09 11:05:56,fa18ae7e-a4cc-4212-98e3-2a982497e32c,S
2019-11-09 11:12:08,fa18ae7e-a4cc-4212-98e3-2a982497e32c,A
2019-11-09 11:16:32,fa18ae7e-a4cc-4212-98e3-2a982497e32c,S
2019-11-09 11:27:04,fa18ae7e-a4cc-4212-98e3-2a982497e32c,A
2019-11-09 11:27:24,fa18ae7e-a4cc-4212-98e3-2a982497e32c,S
2019-11-09 11:32:52,fa18ae7e-a4cc-4212-98e3-2a982497e32c,A
2019-11-09 11:33:27,fa18ae7e-a4cc-4212-98e3-2a982497e32c,S
2019-11-09 11:34:04,fa18ae7e-a4cc-4212-98e3-2a982497e32c,A
2019-11-09 11:36:36,fa18ae7e-a4cc-4212-98e3-2a982497e32c,S
2019-11-09 11:36:56,fa18ae7e-a4cc-4212-98e3-2a982497e32c,A
2019-11-09 11:37:47,fa18ae7e-a4cc-4212-98e3-2a982497e32c,S
2019-11-09 11:53:20,fa18ae7e-a4cc-4212-98e3-2a982497e32c,A
2019-11-09 11:54:39,fa18ae7e-a4cc-4212-98e3-2a982497e32c,S
2019-11-09 11:57:47,fa18ae7e-a4cc-4212-98e3-2a982497e32c,A
2019-11-09 12:09:41,fa18ae7e-a4cc-4212-98e3-2a982497e32c,S
2019-11-09 12:11:08,fa18ae7e-a4cc-4212-98e3-2a982497e32c,A
2019-11-09 12:12:17,fa18ae7e-a4cc-4212-98e3-2a982497e32c,S
2019-11-09 12:13:08,fa18ae7e-a4cc-4212-98e3-2a982497e32c,A
2019-11-09 12:13:31,fa18ae7e-a4cc-4212-98e3-2a982497e32c,S
2019-11-09 12:20:01,fa18ae7e-a4cc-4212-98e3-2a982497e32c,A
2019-11-09 12:50:40,fa18ae7e-a4cc-4212-98e3-2a982497e32c,S
2019-11-09 12:54:26,fa18ae7e-a4cc-4212-98e3-2a982497e32c,A
2019-11-09 11:23:52,3e10dbe0-ea83-4d69-a54b-b44be3a8990b,S
2019-11-09 11:28:01,3e10dbe0-ea83-4d69-a54b-b44be3a8990b,A
2019-11-09 11:35:29,3e10dbe0-ea83-4d69-a54b-b44be3a8990b,S
2019-11-09 11:39:41,3e10dbe0-ea83-4d69-a54b-b44be3a8990b,A
2019-11-09 11:39:55,3e10dbe0-ea83-4d69-a54b-b44be3a8990b,S
2019-11-09 11:49:24,3e10dbe0-ea83-4d69-a54b-b44be3a8990b,A
2019-11-09 11:52:24,3e10dbe0-ea83-4d69-a54b-b44be3a8990b,S
2019-11-09 11:53:52,3e10dbe0-ea83-4d69-a54b-b44be3a8990b,A
2019-11-09 11:55:35,3e10dbe0-ea83-4d69-a54b-b44be3a8990b,S
2019-11-09 12:05:16,3e10dbe0-ea83-4d69-a54b-b44be3a8990b,A
2019-11-09 12:10:06,3e10dbe0-ea83-4d69-a54b-b44be3a8990b,S
2019-11-09 12:11:49,3e10dbe0-ea83-4d69-a54b-b44be3a8990b,A
2019-11-09 12:12:46,3e10dbe0-ea83-4d69-a54b-b44be3a8990b,S
2019-11-09 12:18:13,3e10dbe0-ea83-4d69-a54b-b44be3a8990b,A
2019-11-09 12:22:48,3e10dbe0-ea83-4d69-a54b-b44be3a8990b,S
2019-11-09 12:27:29,3e10dbe0-ea83-4d69-a54b-b44be3a8990b,A
2019-11-09 12:35:30,3e10dbe0-ea83-4d69-a54b-b44be3a8990b,S
2019-11-09 12:40:41,3e10dbe0-ea83-4d69-a54b-b44be3a8990b,A
2019-11-09 12:44:01,3e10dbe0-ea83-4d69-a54b-b44be3a8990b,S
2019-11-09 12:56:47,3e10dbe0-ea83-4d69-a54b-b44be3a8990b,A
2019-11-09 11:34:42,27c3dcd1-e945-4455-a385-792ab1939cc3,A
2019-11-09 11:43:37,27c3dcd1-e945-4455-a385-792ab1939cc3,S
2019-11-09 11:54:20,27c3dcd1-e945-4455-a385-792ab1939cc3,A
2019-11-09 11:59:52,27c3dcd1-e945-4455-a385-792ab1939cc3,S
2019-11-09 12:02:30,27c3dcd1-e945-4455-a385-792ab1939cc3,A
2019-11-09 12:03:15,27c3dcd1-e945-4455-a385-792ab1939cc3,S
2019-11-09 12:07:54,27c3dcd1-e945-4455-a385-792ab1939cc3,A
2019-11-09 12:09:45,27c3dcd1-e945-4455-a385-792ab1939cc3,S
2019-11-09 12:23:00,27c3dcd1-e945-4455-a385-792ab1939cc3,A
2019-11-09 12:24:53,27c3dcd1-e945-4455-a385-792ab1939cc3,S
2019-11-09 12:31:05,27c3dcd1-e945-4455-a385-792ab1939cc3,A
2019-11-09 12:33:52,27c3dcd1-e945-4455-a385-792ab1939cc3,S
2019-11-09 12:35:40,27c3dcd1-e945-4455-a385-792ab1939cc3,A
2019-11-09 12:36:03,27c3dcd1-e945-4455-a385-792ab1939cc3,S
2019-11-09 12:36:43,27c3dcd1-e945-4455-a385-792ab1939cc3,A
2019-11-09 12:49:13,27c3dcd1-e945-4455-a385-792ab1939cc3,S
2019-11-09 12:49:15,27c3dcd1-e945-4455-a385-792ab1939cc3,A
2019-11-09 12:49:51,27c3dcd1-e945-4455-a385-792ab1939cc3,S
2019-11-09 12:50:19,27c3dcd1-e945-4455-a385-792ab1939cc3,A
2019-11-09 11:27:26,e4b58a04-eef0-49ef-98ad-ad991210d8f6,S
2019-11-09 11:29:44,e4b58a04-eef0-49ef-98ad-ad991210d8f6,A
2019-11-09 11:34:56,e4b58a04-eef0-49ef-98ad-ad991210d8f6,S
2019-11-09 11:43:02,e4b58a04-eef0-49ef-98ad-ad991210d8f6,A
2019-11-09 11:50:25,e4b58a04-eef0-49ef-98ad-ad991210d8f6,S
2019-11-09 11:50:48,e4b58a04-eef0-49ef-98ad-ad991210d8f6,A
2019-11-09 11:56:21,e4b58a04-eef0-49ef-98ad-ad991210d8f6,S
2019-11-09 12:07:24,e4b58a04-eef0-49ef-98ad-ad991210d8f6,A
2019-11-09 12:11:48,e4b58a04-eef0-49ef-98ad-ad991210d8f6,S
2019-11-09 12:14:36,e4b58a04-eef0-49ef-98ad-ad991210d8f6,A
2019-11-09 12:21:18,e4b58a04-eef0-49ef-98ad-ad991210d8f6,S
2019-11-09 12:22:08,e4b58a04-eef0-49ef-98ad-ad991210d8f6,A
2019-11-09 12:24:54,e4b58a04-eef0-49ef-98ad-ad991210d8f6,S
2019-11-09 12:28:44,e4b58a04-eef0-49ef-98ad-ad991210d8f6,A
2019-11-09 12:35:12,e4b58a04-eef0-49ef-98ad-ad991210d8f6,S
2019-11-09 12:38:17,e4b58a04-eef0-49ef-98ad-ad991210d8f6,A
2019-11-09 12:50:37,e4b58a04-eef0-49ef-98ad-ad991210d8f6,S
2019-11-09 12:55:23,e4b58a04-eef0-49ef-98ad-ad991210d8f6,A
2019-11-09 12:57:28,e4b58a04-eef0-49ef-98ad-ad991210d8f6,S
2019-11-09 10:52:56,c308207d-df83-4ec6-963a-50784725ce43,S
2019-11-09 10:54:02,c308207d-df83-4ec6-963a-50784725ce43,A
2019-11-09 10:55:16,c308207d-df83-4ec6-963a-50784725ce43,S
2019-11-09 10:58:55,c308207d-df83-4ec6-963a-50784725ce43,A
2019-11-09 11:01:39,c308207d-df83-4ec6-963a-50784725ce43,S
2019-11-09 11:06:49,c308207d-df83-4ec6-963a-50784725ce43,A
2019-11-09 11:08:07,c308207d-df83-4ec6-963a-50784725ce43,S
2019-11-09 11:14:06,c308207d-df83-4ec6-963a-50784725ce43,A
2019-11-09 11:25:23,c308207d-df83-4ec6-963a-50784725ce43,S
2019-11-09 11:29:03,c308207d-df83-4ec6-963a-50784725ce43,A
2019-11-09 11:33:35,c308207d-df83-4ec6-963a-50784725ce43,S
2019-11-09 11:45:02,c308207d-df83-4ec6-963a-50784725ce43,A
2019-11-09 11:58:29,c308207d-df83-4ec6-963a-50784725ce43,S
2019-11-09 11:59:27,c308207d-df83-4ec6-963a-50784725ce43,A
2019-11-09 12:01:00,c308207d-df83-4ec6-963a-50784725ce43,S
2019-11-09 12:01:46,c308207d-df83-4ec6-963a-50784725ce43,A
2019-11-09 12:02:55,c308207d-df83-4ec6-963a-50784725ce43,S
2019-11-09 12:11:31,c308207d-df83-4ec6-963a-50784725ce43,A
2019-11-09 12:13:29,c308207d-df83-4ec6-963a-50784725ce43,S
2019-11-09 12:15:18,c308207d-df83-4ec6-963a-50784725ce43,A
2019-11-09 12:20:05,c308207d-df83-4ec6-963a-50784725ce43,S
2019-11-09 12:28:59,c308207d-df83-4ec6-963a-50784725ce43,A
2019-11-09 12:39:51,c308207d-df83-4ec6-963a-50784725ce43,S
2019-11-09 12:43:47,c308207d-df83-4ec6-963a-50784725ce43,A
2019-11-09 12:44:04,c308207d-df83-4ec6-963a-50784725ce43,S
2019-11-09 12:49:43,c308207d-df83-4ec6-963a-50784725ce43,A
2019-11-09 12:56:09,c308207d-df83-4ec6-963a-50784725ce43,S
2019-11-09 12:56:09,c308207d-df83-4ec6-963a-50784725ce43,A
2019-11-09 12:58:08,c308207d-df83-4ec6-963a-50784725ce43,S
2019-11-09 11:14:00,79491e8a-3128-4e0a-ba37-61d59dcb6fd4,A
2019-11-09 11:21:49,79491e8a-3128-4e0a-ba37-61d59dcb6fd4,S
2019-11-09 11:23:19,79491e8a-3128-4e0a-ba37-61d59dcb6fd4,A
2019-11-09 11:25:57,79491e8a-3128-4e0a-ba37-61d59dcb6fd4,S
2019-11-09 11:30:38,79491e8a-3128-4e0a-ba37-61d59dcb6fd4,A
2019-11-09 11:45:20,79491e8a-3128-4e0a-ba37-61d59dcb6fd4,S
2019-11-09 11:45:55,79491e8a-3128-4e0a-ba37-61d59dcb6fd4,A
2019-11-09 11:51:25,79491e8a-3128-4e0a-ba37-61d59dcb6fd4,S
2019-11-09 11:58:38,79491e8a-3128-4e0a-ba37-61d59dcb6fd4,A
2019-11-09 11:59:13,79491e8a-3128-4e0a-ba37-61d59dcb6fd4,S
2019-11-09 12:11:03,79491e8a-3128-4e0a-ba37-61d59dcb6fd4,A
2019-11-09 12:14:11,79491e8a-3128-4e0a-ba37-61d59dcb6fd4,S
2019-11-09 12:26:01,79491e8a-3128-4e0a-ba37-61d59dcb6fd4,A
2019-11-09 12:37:58,79491e8a-3128-4e0a-ba37-61d59dcb6fd4,S
2019-11-09 12:42:51,79491e8a-3128-4e0a-ba37-61d59dcb6fd4,A
2019-11-09 12:43:23,79491e8a-3128-4e0a-ba37-61d59dcb6fd4,S
2019-11-09 12:43:41,79491e8a-3128-4e0a-ba37-61d59dcb6fd4,A
2019-11-09 12:43:52,79491e8a-3128-4e0a-ba37-61d59dcb6fd4,S
2019-11-09 12:45:03,79491e8a-3128-4e0a-ba37-61d59dcb6fd4,A
2019-11-09 12:48:44,79491e8a-3128-4e0a-ba37-61d59dcb6fd4,S
2019-11-09 12:57:35,79491e8a-3128-4e0a-ba37-61d59dcb6fd4,A
2019-11-09 11:12:58,b51cf739-5318-4c87-9faa-1508406548d4,A
2019-11-09 11:16:39,b51cf739-5318-4c87-9faa-1508406548d4,S
2019-11-09 11:19:59,b51cf739-5318-4c87-9faa-1508406548d4,A
2019-11-09 11:21:39,b51cf739-5318-4c87-9faa-1508406548d4,S
2019-11-09 11:37:09,b51cf739-5318-4c87-9faa-1508406548d4,A
2019-11-09 11:38:53,b51cf739-5318-4c87-9faa-1508406548d4,S
2019-11-09 11:39:16,b51cf739-5318-4c87-9faa-1508406548d4,A
2019-11-09 12:01:04,b51cf739-5318-4c87-9faa-1508406548d4,S
2019-11-09 12:08:15,b51cf739-5318-4c87-9faa-1508406548d4,A
2019-11-09 12:12:35,b51cf739-5318-4c87-9faa-1508406548d4,S
2019-11-09 12:13:15,b51cf739-5318-4c87-9faa-1508406548d4,A
2019-11-09 12:17:30,b51cf739-5318-4c87-9faa-1508406548d4,S
2019-11-09 12:19:20,b51cf739-5318-4c87-9faa-1508406548d4,A
2019-11-09 12:22:03,b51cf739-5318-4c87-9faa-1508406548d4,S
2019-11-09 12:31:17,b51cf739-5318-4c87-9faa-1508406548d4,A
2019-11-09 12:38:53,b51cf739-5318-4c87-9faa-1508406548d4,S
2019-11-09 12:43:50,b51cf739-5318-4c87-9faa-1508406548d4,A
2019-11-09 12:50:28,b51cf739-5318-4c87-9faa-1508406548d4,S
2019-11-09 11:10:16,28bb316a-6bc4-4369-b241-f983382f17b7,A
2019-11-09 11:17:08,28bb316a-6bc4-4369-b241-f983382f17b7,S
2019-11-09 11:21:55,28bb316a-6bc4-4369-b241-f983382f17b7,A
2019-11-09 11:28:29,28bb316a-6bc4-4369-b241-f983382f17b7,S
2019-11-09 11:34:23,28bb316a-6bc4-4369-b241-f983382f17b7,A
2019-11-09 11:45:01,28bb316a-6bc4-4369-b241-f983382f17b7,S
2019-11-09 11:52:16,28bb316a-6bc4-4369-b241-f983382f17b7,A
2019-11-09 11:54:43,28bb316a-6bc4-4369-b241-f983382f17b7,S
2019-11-09 11:56:24,28bb316a-6bc4-4369-b241-f983382f17b7,A
2019-11-09 12:01:02,28bb316a-6bc4-4369-b241-f983382f17b7,S
2019-11-09 12:06:02,28bb316a-6bc4-4369-b241-f983382f17b7,A
2019-11-09 11:42:46,a24a2be1-1b56-457f-9d5c-55bf03c5925e,S
2019-11-09 11:44:00,a24a2be1-1b56-457f-9d5c-55bf03c5925e,A
2019-11-09 11:49:45,a24a2be1-1b56-457f-9d5c-55bf03c5925e,S
2019-11-09 12:03:05,a24a2be1-1b56-457f-9d5c-55bf03c5925e,A
2019-11-09 12:10:50,a24a2be1-1b56-457f-9d5c-55bf03c5925e,S
2019-11-09 12:13:21,a24a2be1-1b56-457f-9d5c-55bf03c5925e,A
2019-11-09 12:29:43,a24a2be1-1b56-457f-9d5c-55bf03c5925e,S
2019-11-09 12:35:50,a24a2be1-1b56-457f-9d5c-55bf03c5925e,A
2019-11-09 12:50:39,a24a2be1-1b56-457f-9d5c-55bf03c5925e,S
2019-11-09 12:55:54,a24a2be1-1b56-457f-9d5c-55bf03c5925e,A
2019-11-09 12:58:27,a24a2be1-1b56-457f-9d5c-55bf03c5925e,S
2019-11-09 11:11:01,d011598f-afa6-43b2-848e-0aca4a048dc0,S
2019-11-09 11:23:06,d011598f-afa6-43b2-848e-0aca4a048dc0,A
2019-11-09 11:41:28,d011598f-afa6-43b2-848e-0aca4a048dc0,S
2019-11-09 11:43:51,d011598f-afa6-43b2-848e-0aca4a048dc0,A
2019-11-09 11:47:10,d011598f-afa6-43b2-848e-0aca4a048dc0,S
2019-11-09 11:50:29,d011598f-afa6-43b2-848e-0aca4a048dc0,A
2019-11-09 12:01:59,d011598f-afa6-43b2-848e-0aca4a048dc0,S
2019-11-09 10:55:20,762bdc78-58a2-411c-a920-ee2f2fd392af,A
2019-11-09 11:11:23,762bdc78-58a2-411c-a920-ee2f2fd392af,S
2019-11-09 11:14:36,762bdc78-58a2-411c-a920-ee2f2fd392af,A
2019-11-09 11:17:23,762bdc78-58a2-411c-a920-ee2f2fd392af,S
2019-11-09 11:17:53,762bdc78-58a2-411c-a920-ee2f2fd392af,A
2019-11-09 11:31:51,762bdc78-58a2-411c-a920-ee2f2fd392af,S
2019-11-09 11:35:20,762bdc78-58a2-411c-a920-ee2f2fd392af,A
2019-11-09 11:38:12,762bdc78-58a2-411c-a920-ee2f2fd392af,S
2019-11-09 11:42:12,762bdc78-58a2-411c-a920-ee2f2fd392af,A
2019-11-09 11:40:32,5d220c79-330d-4282-a868-a17fdd0853d7,S
2019-11-09 11:41:21,5d220c79-330d-4282-a868-a17fdd0853d7,A
2019-11-09 11:53:57,5d220c79-330d-4282-a868-a17fdd0853d7,S
2019-11-09 11:55:03,5d220c79-330d-4282-a868-a17fdd0853d7,A
2019-11-09 11:57:08,5d220c79-330d-4282-a868-a17fdd0853d7,S
2019-11-09 12:22:01,5d220c79-330d-4282-a868-a17fdd0853d7,A
2019-11-09 12:33:51,5d220c79-330d-4282-a868-a17fdd0853d7,S
2019-11-09 12:38:12,5d220c79-330d-4282-a868-a17fdd0853d7,A
2019-11-09 12:38:13,5d220c79-330d-4282-a868-a17fdd0853d7,S
2019-11-09 12:42:22,5d220c79-330d-4282-a868-a17fdd0853d7,A
2019-11-09 12:46:34,5d220c79-330d-4282-a868-a17fdd0853d7,S
2019-11-09 12:55:57,5d220c79-330d-4282-a868-a17fdd0853d7,A
2019-11-09 11:38:34,7a0091d8-3840-47f2-9aca-4b3c9e343a70,A
2019-11-09 11:43:40,7a0091d8-3840-47f2-9aca-4b3c9e343a70,S
2019-11-09 11:44:43,7a0091d8-3840-47f2-9aca-4b3c9e343a70,A
2019-11-09 11:46:39,7a0091d8-3840-47f2-9aca-4b3c9e343a70,S
2019-11-09 11:54:14,7a0091d8-3840-47f2-9aca-4b3c9e343a70,A
2019-11-09 11:55:38,7a0091d8-3840-47f2-9aca-4b3c9e343a70,S
2019-11-09 12:05:32,7a0091d8-3840-47f2-9aca-4b3c9e343a70,A
2019-11-09 12:07:20,7a0091d8-3840-47f2-9aca-4b3c9e343a70,S
2019-11-09 12:12:14,7a0091d8-3840-47f2-9aca-4b3c9e343a70,A
2019-11-09 12:16:38,7a0091d8-3840-47f2-9aca-4b3c9e343a70,S
2019-11-09 12:25:22,7a0091d8-3840-47f2-9aca-4b3c9e343a70,A
2019-11-09 12:26:53,7a0091d8-3840-47f2-9aca-4b3c9e343a70,S
2019-11-09 12:28:47,7a0091d8-3840-47f2-9aca-4b3c9e343a70,A
2019-11-09 12:31:14,7a0091d8-3840-47f2-9aca-4b3c9e343a70,S
2019-11-09 12:35:28,7a0091d8-3840-47f2-9aca-4b3c9e343a70,A
2019-11-09 12:41:17,7a0091d8-3840-47f2-9aca-4b3c9e343a70,S
2019-11-09 12:46:47,7a0091d8-3840-47f2-9aca-4b3c9e343a70,A
2019-11-09 12:56:00,7a0091d8-3840-47f2-9aca-4b3c9e343a70,S
2019-11-09 11:39:20,dd54f160-1664-4d3d-903b-4a84a39c9846,S
2019-11-09 11:41:32,dd54f160-1664-4d3d-903b-4a84a39c9846,A
2019-11-09 11:44:17,dd54f160-1664-4d3d-903b-4a84a39c9846,S
2019-11-09 12:01:13,dd54f160-1664-4d3d-903b-4a84a39c9846,A
2019-11-09 12:02:53,dd54f160-1664-4d3d-903b-4a84a39c9846,S
2019-11-09 12:04:00,dd54f160-1664-4d3d-903b-4a84a39c9846,A
2019-11-09 12:09:15,dd54f160-1664-4d3d-903b-4a84a39c9846,S
2019-11-09 12:17:53,dd54f160-1664-4d3d-903b-4a84a39c9846,A
2019-11-09 12:19:50,dd54f160-1664-4d3d-903b-4a84a39c9846,S
2019-11-09 12:27:25,dd54f160-1664-4d3d-903b-4a84a39c9846,A
2019-11-09 12:28:14,dd54f160-1664-4d3d-903b-4a84a39c9846,S
2019-11-09 12:40:01,dd54f160-1664-4d3d-903b-4a84a39c9846,A
2019-11-09 12:47:53,dd54f160-1664-4d3d-903b-4a84a39c9846,S
2019-11-09 12:49:32,dd54f160-1664-4d3d-903b-4a84a39c9846,A
2019-11-09 12:53:21,dd54f160-1664-4d3d-903b-4a84a39c9846,S
2019-11-09 12:55:39,dd54f160-1664-4d3d-903b-4a84a39c9846,A
2019-11-09 11:34:34,05c3a199-7c02-4879-81fd-5fe9342b232c,A
2019-11-09 11:49:17,05c3a199-7c02-4879-81fd-5fe9342b232c,S
2019-11-09 11:51:23,05c3a199-7c02-4879-81fd-5fe9342b232c,A
2019-11-09 12:00:29,05c3a199-7c02-4879-81fd-5fe9342b232c,S
2019-11-09 12:12:02,05c3a199-7c02-4879-81fd-5fe9342b232c,A
2019-11-09 12:18:14,05c3a199-7c02-4879-81fd-5fe9342b232c,S
2019-11-09 12:24:55,05c3a199-7c02-4879-81fd-5fe9342b232c,A
2019-11-09 12:25:18,05c3a199-7c02-4879-81fd-5fe9342b232c,S
2019-11-09 12:26:25,05c3a199-7c02-4879-81fd-5fe9342b232c,A
2019-11-09 12:30:44,05c3a199-7c02-4879-81fd-5fe9342b232c,S
2019-11-09 12:31:16,05c3a199-7c02-4879-81fd-5fe9342b232c,A
2019-11-09 12:37:55,05c3a199-7c02-4879-81fd-5fe9342b232c,S
2019-11-09 12:40:38,05c3a199-7c02-4879-81fd-5fe9342b232c,A
2019-11-09 12:42:25,05c3a199-7c02-4879-81fd-5fe9342b232c,S
2019-11-09 12:46:12,05c3a199-7c02-4879-81fd-5fe9342b232c,A
2019-11-09 12:52:28,05c3a199-7c02-4879-81fd-5fe9342b232c,S
2019-11-09 12:52:41,05c3a199-7c02-4879-81fd-5fe9342b232c,A
2019-11-09 12:55:17,05c3a199-7c02-4879-81fd-5fe9342b232c,S
2019-11-09 11:16:49,c40164e5-154a-431c-8218-297590f953f5,S
2019-11-09 11:25:51,c40164e5-154a-431c-8218-297590f953f5,A
2019-11-09 11:31:03,c40164e5-154a-431c-8218-297590f953f5,S
2019-11-09 11:43:49,c40164e5-154a-431c-8218-297590f953f5,A
2019-11-09 11:44:48,c40164e5-154a-431c-8218-297590f953f5,S
2019-11-09 11:56:00,c40164e5-154a-431c-8218-297590f953f5,A
2019-11-09 11:56:14,c40164e5-154a-431c-8218-297590f953f5,S
2019-11-09 11:59:41,c40164e5-154a-431c-8218-297590f953f5,A
2019-11-09 12:10:44,c40164e5-154a-431c-8218-297590f953f5,S
2019-11-09 12:13:45,c40164e5-154a-431c-8218-297590f953f5,A
2019-11-09 12:20:21,c40164e5-154a-431c-8218-297590f953f5,S
2019-11-09 12:22:17,c40164e5-154a-431c-8218-297590f953f5,A
2019-11-09 12:29:43,c40164e5-154a-431c-8218-297590f953f5,S
2019-11-09 12:33:49,c40164e5-154a-431c-8218-297590f953f5,A
2019-11-09 12:34:30,c40164e5-154a-431c-8218-297590f953f5,S
2019-11-09 12:34:53,c40164e5-154a-431c-8218-297590f953f5,A
2019-11-09 12:38:16,c40164e5-154a-431c-8218-297590f953f5,S
2019-11-09 12:41:20,c40164e5-154a-431c-8218-297590f953f5,A
2019-11-09 12:54:31,c40164e5-154a-431c-8218-297590f953f5,S
2019-11-09 12:58:41,c40164e5-154a-431c-8218-297590f953f5,A
2019-11-09 12:58:48,c40164e5-154a-431c-8218-297590f953f5,S
2019-11-09 10:55:43,b4bc7e4b-5c80-43ef-934f-b8883b4fdbcc,S
2019-11-09 10:59:46,b4bc7e4b-5c80-43ef-934f-b8883b4fdbcc,A
2019-11-09 11:00:35,b4bc7e4b-5c80-43ef-934f-b8883b4fdbcc,S
2019-11-09 11:05:49,b4bc7e4b-5c80-43ef-934f-b8883b4fdbcc,A
2019-11-09 11:10:42,b4bc7e4b-5c80-43ef-934f-b8883b4fdbcc,S
2019-11-09 11:15:40,b4bc7e4b-5c80-43ef-934f-b8883b4fdbcc,A
2019-11-09 11:18:15,b4bc7e4b-5c80-43ef-934f-b8883b4fdbcc,S
2019-11-09 11:19:01,b4bc7e4b-5c80-43ef-934f-b8883b4fdbcc,A
2019-11-09 11:29:37,b4bc7e4b-5c80-43ef-934f-b8883b4fdbcc,S
2019-11-09 11:30:01,b4bc7e4b-5c80-43ef-934f-b8883b4fdbcc,A
2019-11-09 11:37:39,b4bc7e4b-5c80-43ef-934f-b8883b4fdbcc,S
2019-11-09 11:42:59,b4bc7e4b-5c80-43ef-934f-b8883b4fdbcc,A
2019-11-09 11:43:25,b4bc7e4b-5c80-43ef-934f-b8883b4fdbcc,S
2019-11-09 11:49:50,b4bc7e4b-5c80-43ef-934f-b8883b4fdbcc,A
2019-11-09 11:51:55,b4bc7e4b-5c80-43ef-934f-b8883b4fdbcc,S
2019-11-09 11:52:08,b4bc7e4b-5c80-43ef-934f-b8883b4fdbcc,A
2019-11-09 11:57:11,b4bc7e4b-5c80-43ef-934f-b8883b4fdbcc,S
2019-11-09 11:57:52,b4bc7e4b-5c80-43ef-934f-b8883b4fdbcc,A
2019-11-09 12:14:58,b4bc7e4b-5c80-43ef-934f-b8883b4fdbcc,S
2019-11-09 12:17:15,b4bc7e4b-5c80-43ef-934f-b8883b4fdbcc,A
2019-11-09 12:17:35,b4bc7e4b-5c80-43ef-934f-b8883b4fdbcc,S
2019-11-09 12:21:00,b4bc7e4b-5c80-43ef-934f-b8883b4fdbcc,A
2019-11-09 12:21:11,b4bc7e4b-5c80-43ef-934f-b8883b4fdbcc,S
2019-11-09 12:28:13,b4bc7e4b-5c80-43ef-934f-b8883b4fdbcc,A
2019-11-09 12:34:01,b4bc7e4b-5c80-43ef-934f-b8883b4fdbcc,S
2019-11-09 12:54:44,b4bc7e4b-5c80-43ef-934f-b8883b4fdbcc,A
2019-11-09 12:56:00,b4bc7e4b-5c80-43ef-934f-b8883b4fdbcc,S
2019-11-09 11:40:28,2d6b4e32-b869-4b2f-a616-f07eef9fc4aa,A
2019-11-09 11:41:00,c8a69595-76f4-407c-96bf-b1f1ef5f52ff,S
2019-11-09 11:54:34,c8a69595-76f4-407c-96bf-b1f1ef5f52ff,A
2019-11-09 11:59:28,c8a69595-76f4-407c-96bf-b1f1ef5f52ff,S
2019-11-09 12:00:00,c8a69595-76f4-407c-96bf-b1f1ef5f52ff,A
2019-11-09 12:03:52,c8a69595-76f4-407c-96bf-b1f1ef5f52ff,S
2019-11-09 12:04:33,c8a69595-76f4-407c-96bf-b1f1ef5f52ff,A
2019-11-09 12:13:12,c8a69595-76f4-407c-96bf-b1f1ef5f52ff,S
2019-11-09 12:14:16,c8a69595-76f4-407c-96bf-b1f1ef5f52ff,A
2019-11-09 12:16:31,c8a69595-76f4-407c-96bf-b1f1ef5f52ff,S
2019-11-09 12:18:41,c8a69595-76f4-407c-96bf-b1f1ef5f52ff,A
2019-11-09 12:21:03,c8a69595-76f4-407c-96bf-b1f1ef5f52ff,S
2019-11-09 12:24:54,c8a69595-76f4-407c-96bf-b1f1ef5f52ff,A
2019-11-09 12:26:06,c8a69595-76f4-407c-96bf-b1f1ef5f52ff,S
2019-11-09 12:26:56,c8a69595-76f4-407c-96bf-b1f1ef5f52ff,A
2019-11-09 12:29:06,c8a69595-76f4-407c-96bf-b1f1ef5f52ff,S
2019-11-09 12:29:29,c8a69595-76f4-407c-96bf-b1f1ef5f52ff,A
2019-11-09 12:29:45,c8a69595-76f4-407c-96bf-b1f1ef5f52ff,S
2019-11-09 12:34:16,c8a69595-76f4-407c-96bf-b1f1ef5f52ff,A
2019-11-09 12:35:06,c8a69595-76f4-407c-96bf-b1f1ef5f52ff,S
2019-11-09 12:44:38,c8a69595-76f4-407c-96bf-b1f1ef5f52ff,A
2019-11-09 12:50:41,c8a69595-76f4-407c-96bf-b1f1ef5f52ff,S
2019-11-09 12:58:40,c8a69595-76f4-407c-96bf-b1f1ef5f52ff,A
2019-11-09 11:03:36,479c37a5-a76d-4112-8e2d-b175b7ac9993,S
2019-11-09 11:08:33,479c37a5-a76d-4112-8e2d-b175b7ac9993,A
2019-11-09 11:08:55,479c37a5-a76d-4112-8e2d-b175b7ac9993,S
2019-11-09 11:13:40,479c37a5-a76d-4112-8e2d-b175b7ac9993,A
2019-11-09 11:18:37,479c37a5-a76d-4112-8e2d-b175b7ac9993,S
2019-11-09 11:20:39,479c37a5-a76d-4112-8e2d-b175b7ac9993,A
2019-11-09 11:30:44,479c37a5-a76d-4112-8e2d-b175b7ac9993,S
2019-11-09 11:33:25,479c37a5-a76d-4112-8e2d-b175b7ac9993,A
2019-11-09 11:34:20,479c37a5-a76d-4112-8e2d-b175b7ac9993,S
2019-11-09 11:42:21,479c37a5-a76d-4112-8e2d-b175b7ac9993,A
2019-11-09 11:51:10,479c37a5-a76d-4112-8e2d-b175b7ac9993,S
2019-11-09 11:53:20,479c37a5-a76d-4112-8e2d-b175b7ac9993,A
2019-11-09 11:53:29,479c37a5-a76d-4112-8e2d-b175b7ac9993,S
2019-11-09 12:12:46,479c37a5-a76d-4112-8e2d-b175b7ac9993,A
2019-11-09 12:15:00,479c37a5-a76d-4112-8e2d-b175b7ac9993,S
2019-11-09 12:32:34,479c37a5-a76d-4112-8e2d-b175b7ac9993,A
2019-11-09 12:42:45,479c37a5-a76d-4112-8e2d-b175b7ac9993,S
2019-11-09 12:58:36,479c37a5-a76d-4112-8e2d-b175b7ac9993,A
2019-11-09 12:59:49,479c37a5-a76d-4112-8e2d-b175b7ac9993,S
2019-11-09 11:28:30,8f2dd197-b0a7-44a7-b219-513b3c210b65,A
2019-11-09 11:28:59,8f2dd197-b0a7-44a7-b219-513b3c210b65,S
2019-11-09 11:37:29,8f2dd197-b0a7-44a7-b219-513b3c210b65,A
2019-11-09 11:38:48,8f2dd197-b0a7-44a7-b219-513b3c210b65,S
2019-11-09 11:38:49,8f2dd197-b0a7-44a7-b219-513b3c210b65,A
2019-11-09 11:47:26,8f2dd197-b0a7-44a7-b219-513b3c210b65,S
2019-11-09 11:48:40,8f2dd197-b0a7-44a7-b219-513b3c210b65,A
2019-11-09 11:49:30,8f2dd197-b0a7-44a7-b219-513b3c210b65,S
2019-11-09 11:53:17,8f2dd197-b0a7-44a7-b219-513b3c210b65,A
2019-11-09 11:54:23,8f2dd197-b0a7-44a7-b219-513b3c210b65,S
2019-11-09 11:54:36,8f2dd197-b0a7-44a7-b219-513b3c210b65,A
2019-11-09 12:00:09,8f2dd197-b0a7-44a7-b219-513b3c210b65,S
2019-11-09 12:05:28,8f2dd197-b0a7-44a7-b219-513b3c210b65,A
2019-11-09 12:17:43,8f2dd197-b0a7-44a7-b219-513b3c210b65,S
2019-11-09 12:17:58,8f2dd197-b0a7-44a7-b219-513b3c210b65,A
2019-11-09 12:22:09,8f2dd197-b0a7-44a7-b219-513b3c210b65,S
2019-11-09 12:31:45,8f2dd197-b0a7-44a7-b219-513b3c210b65,A
2019-11-09 12:43:50,8f2dd197-b0a7-44a7-b219-513b3c210b65,S
2019-11-09 12:47:20,8f2dd197-b0a7-44a7-b219-513b3c210b65,A
2019-11-09 12:51:42,8f2dd197-b0a7-44a7-b219-513b3c210b65,S
2019-11-09 12:53:07,8f2dd197-b0a7-44a7-b219-513b3c210b65,A
2019-11-09 12:53:42,8f2dd197-b0a7-44a7-b219-513b3c210b65,S
2019-11-09 11:33:45,6e1998e8-239e-4651-ae56-3d1aee2307c3,A
2019-11-09 11:35:36,6e1998e8-239e-4651-ae56-3d1aee2307c3,S
2019-11-09 11:45:05,6e1998e8-239e-4651-ae56-3d1aee2307c3,A
2019-11-09 11:59:12,6e1998e8-239e-4651-ae56-3d1aee2307c3,S
2019-11-09 12:00:48,6e1998e8-239e-4651-ae56-3d1aee2307c3,A
2019-11-09 12:02:22,6e1998e8-239e-4651-ae56-3d1aee2307c3,S
2019-11-09 12:04:15,6e1998e8-239e-4651-ae56-3d1aee2307c3,A
2019-11-09 12:10:43,6e1998e8-239e-4651-ae56-3d1aee2307c3,S
2019-11-09 12:15:37,6e1998e8-239e-4651-ae56-3d1aee2307c3,A
2019-11-09 12:23:08,6e1998e8-239e-4651-ae56-3d1aee2307c3,S
2019-11-09 12:23:10,6e1998e8-239e-4651-ae56-3d1aee2307c3,A
2019-11-09 12:23:30,6e1998e8-239e-4651-ae56-3d1aee2307c3,S
2019-11-09 12:25:50,6e1998e8-239e-4651-ae56-3d1aee2307c3,A
2019-11-09 12:29:02,6e1998e8-239e-4651-ae56-3d1aee2307c3,S
2019-11-09 12:29:48,6e1998e8-239e-4651-ae56-3d1aee2307c3,A
2019-11-09 12:40:48,6e1998e8-239e-4651-ae56-3d1aee2307c3,S
2019-11-09 12:41:36,6e1998e8-239e-4651-ae56-3d1aee2307c3,A
2019-11-09 12:42:02,6e1998e8-239e-4651-ae56-3d1aee2307c3,S
2019-11-09 12:44:15,6e1998e8-239e-4651-ae56-3d1aee2307c3,A
2019-11-09 12:46:29,6e1998e8-239e-4651-ae56-3d1aee2307c3,S
2019-11-09 12:46:48,6e1998e8-239e-4651-ae56-3d1aee2307c3,A
2019-11-09 12:56:13,6e1998e8-239e-4651-ae56-3d1aee2307c3,S
2019-11-09 11:08:21,9e126507-1ce7-4e17-a877-37c61b7f7cdc,A
2019-11-09 11:11:47,9e126507-1ce7-4e17-a877-37c61b7f7cdc,S
2019-11-09 11:16:52,9e126507-1ce7-4e17-a877-37c61b7f7cdc,A
2019-11-09 11:18:42,9e126507-1ce7-4e17-a877-37c61b7f7cdc,S
2019-11-09 11:29:13,9e126507-1ce7-4e17-a877-37c61b7f7cdc,A
2019-11-09 11:29:48,9e126507-1ce7-4e17-a877-37c61b7f7cdc,S
2019-11-09 11:38:13,9e126507-1ce7-4e17-a877-37c61b7f7cdc,A
2019-11-09 11:40:33,9e126507-1ce7-4e17-a877-37c61b7f7cdc,S
2019-11-09 11:48:57,9e126507-1ce7-4e17-a877-37c61b7f7cdc,A
2019-11-09 12:07:23,9e126507-1ce7-4e17-a877-37c61b7f7cdc,S
2019-11-09 12:08:38,9e126507-1ce7-4e17-a877-37c61b7f7cdc,A
2019-11-09 12:08:50,9e126507-1ce7-4e17-a877-37c61b7f7cdc,S
2019-11-09 12:12:02,9e126507-1ce7-4e17-a877-37c61b7f7cdc,A
2019-11-09 12:20:52,9e126507-1ce7-4e17-a877-37c61b7f7cdc,S
2019-11-09 12:35:57,9e126507-1ce7-4e17-a877-37c61b7f7cdc,A
2019-11-09 12:36:15,9e126507-1ce7-4e17-a877-37c61b7f7cdc,S
2019-11-09 12:46:47,9e126507-1ce7-4e17-a877-37c61b7f7cdc,A
2019-11-09 12:59:46,9e126507-1ce7-4e17-a877-37c61b7f7cdc,S
2019-11-09 13:00:46,9e126507-1ce7-4e17-a877-37c61b7f7cdc,A
2019-11-09 11:07:51,fb6f42db-91f4-42e5-a133-089eba88452d,A
2019-11-09 11:10:42,fb6f42db-91f4-42e5-a133-089eba88452d,S
2019-11-09 11:15:49,fb6f42db-91f4-42e5-a133-089eba88452d,A
2019-11-09 11:31:16,fb6f42db-91f4-42e5-a133-089eba88452d,S
2019-11-09 11:40:19,fb6f42db-91f4-42e5-a133-089eba88452d,A
2019-11-09 11:50:02,fb6f42db-91f4-42e5-a133-089eba88452d,S
2019-11-09 11:58:32,fb6f42db-91f4-42e5-a133-089eba88452d,A
2019-11-09 11:59:18,fb6f42db-91f4-42e5-a133-089eba88452d,S
2019-11-09 11:59:37,fb6f42db-91f4-42e5-a133-089eba88452d,A
2019-11-09 12:08:15,fb6f42db-91f4-42e5-a133-089eba88452d,S
2019-11-09 12:11:14,fb6f42db-91f4-42e5-a133-089eba88452d,A
2019-11-09 12:11:17,fb6f42db-91f4-42e5-a133-089eba88452d,S
2019-11-09 12:12:28,fb6f42db-91f4-42e5-a133-089eba88452d,A
2019-11-09 12:14:18,fb6f42db-91f4-42e5-a133-089eba88452d,S
2019-11-09 12:16:09,fb6f42db-91f4-42e5-a133-089eba88452d,A
2019-11-09 12:17:08,fb6f42db-91f4-42e5-a133-089eba88452d,S
2019-11-09 12:18:51,fb6f42db-91f4-42e5-a133-089eba88452d,A
2019-11-09 12:28:07,fb6f42db-91f4-42e5-a133-089eba88452d,S
2019-11-09 12:30:14,fb6f42db-91f4-42e5-a133-089eba88452d,A
2019-11-09 12:31:12,fb6f42db-91f4-42e5-a133-089eba88452d,S
2019-11-09 12:33:39,fb6f42db-91f4-42e5-a133-089eba88452d,A
2019-11-09 12:42:25,fb6f42db-91f4-42e5-a133-089eba88452d,S
2019-11-09 12:44:42,fb6f42db-91f4-42e5-a133-089eba88452d,A
2019-11-09 12:49:34,fb6f42db-91f4-42e5-a133-089eba88452d,S
2019-11-09 12:49:41,fb6f42db-91f4-42e5-a133-089eba88452d,A
2019-11-09 12:50:20,fb6f42db-91f4-42e5-a133-089eba88452d,S
2019-11-09 12:53:50,fb6f42db-91f4-42e5-a133-089eba88452d,A
2019-11-09 12:55:16,fb6f42db-91f4-42e5-a133-089eba88452d,S
2019-11-09 13:00:55,fb6f42db-91f4-42e5-a133-089eba88452d,A
2019-11-09 11:33:12,67d66f01-00e5-44ee-885e-a3228e00f918,A
2019-11-09 11:36:41,67d66f01-00e5-44ee-885e-a3228e00f918,S
2019-11-09 11:39:44,67d66f01-00e5-44ee-885e-a3228e00f918,A
2019-11-09 11:48:41,67d66f01-00e5-44ee-885e-a3228e00f918,S
2019-11-09 12:03:38,67d66f01-00e5-44ee-885e-a3228e00f918,A
2019-11-09 12:04:40,67d66f01-00e5-44ee-885e-a3228e00f918,S
2019-11-09 12:05:10,67d66f01-00e5-44ee-885e-a3228e00f918,A
2019-11-09 12:05:49,67d66f01-00e5-44ee-885e-a3228e00f918,S
2019-11-09 12:12:53,67d66f01-00e5-44ee-885e-a3228e00f918,A
2019-11-09 12:18:03,67d66f01-00e5-44ee-885e-a3228e00f918,S
2019-11-09 12:36:54,67d66f01-00e5-44ee-885e-a3228e00f918,A
2019-11-09 12:39:01,67d66f01-00e5-44ee-885e-a3228e00f918,S
2019-11-09 12:46:09,67d66f01-00e5-44ee-885e-a3228e00f918,A
2019-11-09 12:49:38,67d66f01-00e5-44ee-885e-a3228e00f918,S
2019-11-09 11:32:48,e39eb6c5-d5b9-40f7-8e47-33a676c8f856,A
2019-11-09 11:40:02,e39eb6c5-d5b9-40f7-8e47-33a676c8f856,S
2019-11-09 11:41:57,e39eb6c5-d5b9-40f7-8e47-33a676c8f856,A
2019-11-09 11:46:47,e39eb6c5-d5b9-40f7-8e47-33a676c8f856,S
2019-11-09 11:54:02,e39eb6c5-d5b9-40f7-8e47-33a676c8f856,A
2019-11-09 12:00:59,e39eb6c5-d5b9-40f7-8e47-33a676c8f856,S
2019-11-09 12:01:32,e39eb6c5-d5b9-40f7-8e47-33a676c8f856,A
2019-11-09 12:01:57,e39eb6c5-d5b9-40f7-8e47-33a676c8f856,S
2019-11-09 12:03:21,e39eb6c5-d5b9-40f7-8e47-33a676c8f856,A
2019-11-09 12:03:59,e39eb6c5-d5b9-40f7-8e47-33a676c8f856,S
2019-11-09 12:06:15,e39eb6c5-d5b9-40f7-8e47-33a676c8f856,A
2019-11-09 12:12:37,e39eb6c5-d5b9-40f7-8e47-33a676c8f856,S
2019-11-09 12:14:00,e39eb6c5-d5b9-40f7-8e47-33a676c8f856,A
2019-11-09 12:16:42,e39eb6c5-d5b9-40f7-8e47-33a676c8f856,S
2019-11-09 12:17:17,e39eb6c5-d5b9-40f7-8e47-33a676c8f856,A
2019-11-09 12:18:36,e39eb6c5-d5b9-40f7-8e47-33a676c8f856,S
2019-11-09 12:37:58,e39eb6c5-d5b9-40f7-8e47-33a676c8f856,A
2019-11-09 12:55:58,e39eb6c5-d5b9-40f7-8e47-33a676c8f856,S
2019-11-09 12:57:02,e39eb6c5-d5b9-40f7-8e47-33a676c8f856,A
2019-11-09 11:03:25,edd1df31-da9d-430e-90b8-6f7b26f8e65d,S
2019-11-09 11:06:53,edd1df31-da9d-430e-90b8-6f7b26f8e65d,A
2019-11-09 11:12:55,edd1df31-da9d-430e-90b8-6f7b26f8e65d,S
2019-11-09 11:22:52,edd1df31-da9d-430e-90b8-6f7b26f8e65d,A
2019-11-09 11:43:00,edd1df31-da9d-430e-90b8-6f7b26f8e65d,S
2019-11-09 11:48:56,edd1df31-da9d-430e-90b8-6f7b26f8e65d,A
2019-11-09 11:59:45,edd1df31-da9d-430e-90b8-6f7b26f8e65d,S
2019-11-09 12:05:10,edd1df31-da9d-430e-90b8-6f7b26f8e65d,A
2019-11-09 12:09:27,edd1df31-da9d-430e-90b8-6f7b26f8e65d,S
2019-11-09 12:15:00,edd1df31-da9d-430e-90b8-6f7b26f8e65d,A
2019-11-09 12:15:12,edd1df31-da9d-430e-90b8-6f7b26f8e65d,S
2019-11-09 12:16:56,edd1df31-da9d-430e-90b8-6f7b26f8e65d,A
2019-11-09 12:22:50,edd1df31-da9d-430e-90b8-6f7b26f8e65d,S
2019-11-09 12:24:33,edd1df31-da9d-430e-90b8-6f7b26f8e65d,A
2019-11-09 12:29:04,edd1df31-da9d-430e-90b8-6f7b26f8e65d,S
2019-11-09 12:32:39,edd1df31-da9d-430e-90b8-6f7b26f8e65d,A
2019-11-09 12:37:57,edd1df31-da9d-430e-90b8-6f7b26f8e65d,S
2019-11-09 12:45:41,edd1df31-da9d-430e-90b8-6f7b26f8e65d,A
2019-11-09 11:25:31,b8d17ba4-6e75-4638-bd11-21181dc35646,A
2019-11-09 11:37:01,b8d17ba4-6e75-4638-bd11-21181dc35646,S
2019-11-09 11:46:58,b8d17ba4-6e75-4638-bd11-21181dc35646,A
2019-11-09 11:52:25,b8d17ba4-6e75-4638-bd11-21181dc35646,S
2019-11-09 11:53:08,b8d17ba4-6e75-4638-bd11-21181dc35646,A
2019-11-09 11:54:05,b8d17ba4-6e75-4638-bd11-21181dc35646,S
2019-11-09 11:56:02,b8d17ba4-6e75-4638-bd11-21181dc35646,A
2019-11-09 11:57:23,b8d17ba4-6e75-4638-bd11-21181dc35646,S
2019-11-09 12:04:42,b8d17ba4-6e75-4638-bd11-21181dc35646,A
2019-11-09 12:06:36,b8d17ba4-6e75-4638-bd11-21181dc35646,S
2019-11-09 12:08:19,b8d17ba4-6e75-4638-bd11-21181dc35646,A
2019-11-09 12:23:43,b8d17ba4-6e75-4638-bd11-21181dc35646,S
2019-11-09 12:29:37,b8d17ba4-6e75-4638-bd11-21181dc35646,A
2019-11-09 12:34:09,b8d17ba4-6e75-4638-bd11-21181dc35646,S
2019-11-09 12:35:13,b8d17ba4-6e75-4638-bd11-21181dc35646,A
2019-11-09 12:37:33,b8d17ba4-6e75-4638-bd11-21181dc35646,S
2019-11-09 12:41:13,b8d17ba4-6e75-4638-bd11-21181dc35646,A
2019-11-09 12:43:14,b8d17ba4-6e75-4638-bd11-21181dc35646,S
2019-11-09 12:43:21,b8d17ba4-6e75-4638-bd11-21181dc35646,A
2019-11-09 12:52:28,b8d17ba4-6e75-4638-bd11-21181dc35646,S
2019-11-09 12:58:47,b8d17ba4-6e75-4638-bd11-21181dc35646,A
2019-11-09 12:59:53,b8d17ba4-6e75-4638-bd11-21181dc35646,S
2019-11-09 13:00:46,b8d17ba4-6e75-4638-bd11-21181dc35646,A
2019-11-09 11:08:27,3b710fbc-8ceb-4e22-99ac-38873206a243,A
2019-11-09 11:14:31,3b710fbc-8ceb-4e22-99ac-38873206a243,S
2019-11-09 11:17:18,3b710fbc-8ceb-4e22-99ac-38873206a243,A
2019-11-09 11:17:57,3b710fbc-8ceb-4e22-99ac-38873206a243,S
2019-11-09 11:18:42,3b710fbc-8ceb-4e22-99ac-38873206a243,A
2019-11-09 11:27:57,3b710fbc-8ceb-4e22-99ac-38873206a243,S
2019-11-09 11:28:23,3b710fbc-8ceb-4e22-99ac-38873206a243,A
2019-11-09 11:29:13,3b710fbc-8ceb-4e22-99ac-38873206a243,S
2019-11-09 11:34:07,3b710fbc-8ceb-4e22-99ac-38873206a243,A
2019-11-09 11:39:06,3b710fbc-8ceb-4e22-99ac-38873206a243,S
2019-11-09 11:39:19,3b710fbc-8ceb-4e22-99ac-38873206a243,A
2019-11-09 11:40:03,3b710fbc-8ceb-4e22-99ac-38873206a243,S
2019-11-09 11:42:23,3b710fbc-8ceb-4e22-99ac-38873206a243,A
2019-11-09 11:45:23,3b710fbc-8ceb-4e22-99ac-38873206a243,S
2019-11-09 11:46:40,3b710fbc-8ceb-4e22-99ac-38873206a243,A
2019-11-09 11:46:43,3b710fbc-8ceb-4e22-99ac-38873206a243,S
2019-11-09 11:54:49,3b710fbc-8ceb-4e22-99ac-38873206a243,A
2019-11-09 11:58:06,3b710fbc-8ceb-4e22-99ac-38873206a243,S
2019-11-09 11:59:59,3b710fbc-8ceb-4e22-99ac-38873206a243,A
2019-11-09 12:07:21,3b710fbc-8ceb-4e22-99ac-38873206a243,S
2019-11-09 12:17:35,3b710fbc-8ceb-4e22-99ac-38873206a243,A
2019-11-09 12:33:03,3b710fbc-8ceb-4e22-99ac-38873206a243,S
2019-11-09 12:35:25,3b710fbc-8ceb-4e22-99ac-38873206a243,A
2019-11-09 12:35:37,3b710fbc-8ceb-4e22-99ac-38873206a243,S
2019-11-09 12:43:43,3b710fbc-8ceb-4e22-99ac-38873206a243,A
2019-11-09 12:44:06,3b710fbc-8ceb-4e22-99ac-38873206a243,S
2019-11-09 12:52:25,3b710fbc-8ceb-4e22-99ac-38873206a243,A
2019-11-09 13:00:52,3b710fbc-8ceb-4e22-99ac-38873206a243,S
2019-11-09 11:04:06,fa7bd734-99cf-4db3-b448-378c24e1ec82,S
2019-11-09 11:20:13,fa7bd734-99cf-4db3-b448-378c24e1ec82,A
2019-11-09 11:21:26,fa7bd734-99cf-4db3-b448-378c24e1ec82,S
2019-11-09 11:26:14,fa7bd734-99cf-4db3-b448-378c24e1ec82,A
2019-11-09 11:27:20,fa7bd734-99cf-4db3-b448-378c24e1ec82,S
2019-11-09 11:30:08,fa7bd734-99cf-4db3-b448-378c24e1ec82,A
2019-11-09 11:35:19,fa7bd734-99cf-4db3-b448-378c24e1ec82,S
2019-11-09 11:37:29,fa7bd734-99cf-4db3-b448-378c24e1ec82,A
2019-11-09 11:40:58,fa7bd734-99cf-4db3-b448-378c24e1ec82,S
2019-11-09 11:46:34,fa7bd734-99cf-4db3-b448-378c24e1ec82,A
2019-11-09 11:57:05,fa7bd734-99cf-4db3-b448-378c24e1ec82,S
2019-11-09 12:02:45,fa7bd734-99cf-4db3-b448-378c24e1ec82,A
2019-11-09 12:04:43,fa7bd734-99cf-4db3-b448-378c24e1ec82,S
2019-11-09 12:06:44,fa7bd734-99cf-4db3-b448-378c24e1ec82,A
2019-11-09 12:15:02,fa7bd734-99cf-4db3-b448-378c24e1ec82,S
2019-11-09 12:17:11,fa7bd734-99cf-4db3-b448-378c24e1ec82,A
2019-11-09 12:22:06,fa7bd734-99cf-4db3-b448-378c24e1ec82,S
2019-11-09 12:25:04,fa7bd734-99cf-4db3-b448-378c24e1ec82,A
2019-11-09 12:26:12,fa7bd734-99cf-4db3-b448-378c24e1ec82,S
2019-11-09 12:31:07,fa7bd734-99cf-4db3-b448-378c24e1ec82,A
2019-11-09 12:34:00,fa7bd734-99cf-4db3-b448-378c24e1ec82,S
2019-11-09 12:37:49,fa7bd734-99cf-4db3-b448-378c24e1ec82,A
2019-11-09 12:40:09,fa7bd734-99cf-4db3-b448-378c24e1ec82,S
2019-11-09 12:43:55,fa7bd734-99cf-4db3-b448-378c24e1ec82,A
2019-11-09 12:49:21,fa7bd734-99cf-4db3-b448-378c24e1ec82,S
2019-11-09 12:50:27,fa7bd734-99cf-4db3-b448-378c24e1ec82,A
2019-11-09 12:56:12,fa7bd734-99cf-4db3-b448-378c24e1ec82,S
2019-11-09 12:57:09,fa7bd734-99cf-4db3-b448-378c24e1ec82,A
2019-11-09 12:58:39,fa7bd734-99cf-4db3-b448-378c24e1ec82,S
2019-11-09 12:59:11,fa7bd734-99cf-4db3-b448-378c24e1ec82,A
2019-11-09 13:02:31,fa7bd734-99cf-4db3-b448-378c24e1ec82,S
2019-11-09 11:28:09,92b847db-e99c-42dc-ae2d-94d37f7bfa6a,A
2019-11-09 11:28:49,92b847db-e99c-42dc-ae2d-94d37f7bfa6a,S
2019-11-09 11:30:24,92b847db-e99c-42dc-ae2d-94d37f7bfa6a,A
2019-11-09 11:44:37,92b847db-e99c-42dc-ae2d-94d37f7bfa6a,S
2019-11-09 11:46:44,92b847db-e99c-42dc-ae2d-94d37f7bfa6a,A
2019-11-09 11:49:11,92b847db-e99c-42dc-ae2d-94d37f7bfa6a,S
2019-11-09 11:56:48,92b847db-e99c-42dc-ae2d-94d37f7bfa6a,A
2019-11-09 12:00:28,92b847db-e99c-42dc-ae2d-94d37f7bfa6a,S
2019-11-09 12:03:50,92b847db-e99c-42dc-ae2d-94d37f7bfa6a,A
2019-11-09 12:14:40,92b847db-e99c-42dc-ae2d-94d37f7bfa6a,S
2019-11-09 12:14:44,92b847db-e99c-42dc-ae2d-94d37f7bfa6a,A
2019-11-09 12:24:15,92b847db-e99c-42dc-ae2d-94d37f7bfa6a,S
2019-11-09 12:44:44,92b847db-e99c-42dc-ae2d-94d37f7bfa6a,A
2019-11-09 12:51:59,92b847db-e99c-42dc-ae2d-94d37f7bfa6a,S
2019-11-09 12:55:57,92b847db-e99c-42dc-ae2d-94d37f7bfa6a,A
2019-11-09 11:21:29,cb045feb-8fe6-4e8d-a7b3-976e53c7bde9,S
2019-11-09 11:26:44,cb045feb-8fe6-4e8d-a7b3-976e53c7bde9,A
2019-11-09 11:33:28,cb045feb-8fe6-4e8d-a7b3-976e53c7bde9,S
2019-11-09 11:38:27,cb045feb-8fe6-4e8d-a7b3-976e53c7bde9,A
2019-11-09 11:39:23,cb045feb-8fe6-4e8d-a7b3-976e53c7bde9,S
2019-11-09 11:46:10,cb045feb-8fe6-4e8d-a7b3-976e53c7bde9,A
2019-11-09 11:48:26,cb045feb-8fe6-4e8d-a7b3-976e53c7bde9,S
2019-11-09 11:54:32,cb045feb-8fe6-4e8d-a7b3-976e53c7bde9,A
2019-11-09 11:54:34,cb045feb-8fe6-4e8d-a7b3-976e53c7bde9,S
2019-11-09 11:55:18,cb045feb-8fe6-4e8d-a7b3-976e53c7bde9,A
2019-11-09 11:59:11,cb045feb-8fe6-4e8d-a7b3-976e53c7bde9,S
2019-11-09 12:04:47,cb045feb-8fe6-4e8d-a7b3-976e53c7bde9,A
2019-11-09 12:06:48,cb045feb-8fe6-4e8d-a7b3-976e53c7bde9,S
2019-11-09 12:10:02,cb045feb-8fe6-4e8d-a7b3-976e53c7bde9,A
2019-11-09 12:12:53,cb045feb-8fe6-4e8d-a7b3-976e53c7bde9,S
2019-11-09 12:16:07,cb045feb-8fe6-4e8d-a7b3-976e53c7bde9,A
2019-11-09 12:25:09,cb045feb-8fe6-4e8d-a7b3-976e53c7bde9,S
2019-11-09 12:28:42,cb045feb-8fe6-4e8d-a7b3-976e53c7bde9,A
2019-11-09 12:29:41,cb045feb-8fe6-4e8d-a7b3-976e53c7bde9,S
2019-11-09 12:33:08,cb045feb-8fe6-4e8d-a7b3-976e53c7bde9,A
2019-11-09 12:35:06,cb045feb-8fe6-4e8d-a7b3-976e53c7bde9,S
2019-11-09 12:35:48,cb045feb-8fe6-4e8d-a7b3-976e53c7bde9,A
2019-11-09 12:42:56,cb045feb-8fe6-4e8d-a7b3-976e53c7bde9,S
2019-11-09 12:45:20,cb045feb-8fe6-4e8d-a7b3-976e53c7bde9,A
2019-11-09 12:59:12,cb045feb-8fe6-4e8d-a7b3-976e53c7bde9,S
2019-11-09 13:02:11,cb045feb-8fe6-4e8d-a7b3-976e53c7bde9,A
2019-11-09 11:42:39,16bf8676-3e8d-4527-8d2a-bbf5e15588c2,S
2019-11-09 11:44:57,16bf8676-3e8d-4527-8d2a-bbf5e15588c2,A
2019-11-09 11:51:28,16bf8676-3e8d-4527-8d2a-bbf5e15588c2,S
2019-11-09 11:52:26,16bf8676-3e8d-4527-8d2a-bbf5e15588c2,A
2019-11-09 11:52:47,16bf8676-3e8d-4527-8d2a-bbf5e15588c2,S
2019-11-09 11:57:57,16bf8676-3e8d-4527-8d2a-bbf5e15588c2,A
2019-11-09 12:02:50,16bf8676-3e8d-4527-8d2a-bbf5e15588c2,S
2019-11-09 12:07:30,16bf8676-3e8d-4527-8d2a-bbf5e15588c2,A
2019-11-09 12:20:30,16bf8676-3e8d-4527-8d2a-bbf5e15588c2,S
2019-11-09 12:37:59,16bf8676-3e8d-4527-8d2a-bbf5e15588c2,A
2019-11-09 12:42:42,16bf8676-3e8d-4527-8d2a-bbf5e15588c2,S
2019-11-09 12:44:51,16bf8676-3e8d-4527-8d2a-bbf5e15588c2,A
2019-11-09 12:46:05,16bf8676-3e8d-4527-8d2a-bbf5e15588c2,S
2019-11-09 12:47:27,16bf8676-3e8d-4527-8d2a-bbf5e15588c2,A
2019-11-09 12:48:10,16bf8676-3e8d-4527-8d2a-bbf5e15588c2,S
2019-11-09 12:48:43,16bf8676-3e8d-4527-8d2a-bbf5e15588c2,A
2019-11-09 12:49:48,16bf8676-3e8d-4527-8d2a-bbf5e15588c2,S
2019-11-09 12:56:29,16bf8676-3e8d-4527-8d2a-bbf5e15588c2,A
2019-11-09 12:56:48,16bf8676-3e8d-4527-8d2a-bbf5e15588c2,S
2019-11-09 12:57:36,16bf8676-3e8d-4527-8d2a-bbf5e15588c2,A
2019-11-09 12:57:37,16bf8676-3e8d-4527-8d2a-bbf5e15588c2,S
2019-11-09 11:33:44,834d3f52-9cc1-44c6-a9cf-9103c1f6c85e,S
2019-11-09 11:35:39,834d3f52-9cc1-44c6-a9cf-9103c1f6c85e,A
2019-11-09 11:36:08,834d3f52-9cc1-44c6-a9cf-9103c1f6c85e,S
2019-11-09 11:44:26,834d3f52-9cc1-44c6-a9cf-9103c1f6c85e,A
2019-11-09 11:47:18,834d3f52-9cc1-44c6-a9cf-9103c1f6c85e,S
2019-11-09 11:53:39,834d3f52-9cc1-44c6-a9cf-9103c1f6c85e,A
2019-11-09 11:58:15,834d3f52-9cc1-44c6-a9cf-9103c1f6c85e,S
2019-11-09 11:59:29,834d3f52-9cc1-44c6-a9cf-9103c1f6c85e,A
2019-11-09 12:08:12,834d3f52-9cc1-44c6-a9cf-9103c1f6c85e,S
2019-11-09 12:09:47,834d3f52-9cc1-44c6-a9cf-9103c1f6c85e,A
2019-11-09 12:17:49,834d3f52-9cc1-44c6-a9cf-9103c1f6c85e,S
2019-11-09 12:18:01,834d3f52-9cc1-44c6-a9cf-9103c1f6c85e,A
2019-11-09 12:24:36,834d3f52-9cc1-44c6-a9cf-9103c1f6c85e,S
2019-11-09 12:29:31,834d3f52-9cc1-44c6-a9cf-9103c1f6c85e,A
2019-11-09 12:30:25,834d3f52-9cc1-44c6-a9cf-9103c1f6c85e,S
2019-11-09 12:32:22,834d3f52-9cc1-44c6-a9cf-9103c1f6c85e,A
2019-11-09 12:32:23,834d3f52-9cc1-44c6-a9cf-9103c1f6c85e,S
2019-11-09 12:33:44,834d3f52-9cc1-44c6-a9cf-9103c1f6c85e,A
2019-11-09 12:36:30,834d3f52-9cc1-44c6-a9cf-9103c1f6c85e,S
2019-11-09 12:43:57,834d3f52-9cc1-44c6-a9cf-9103c1f6c85e,A
2019-11-09 12:45:29,834d3f52-9cc1-44c6-a9cf-9103c1f6c85e,S
2019-11-09 12:46:05,834d3f52-9cc1-44c6-a9cf-9103c1f6c85e,A
2019-11-09 12:53:07,834d3f52-9cc1-44c6-a9cf-9103c1f6c85e,S
2019-11-09 12:56:36,834d3f52-9cc1-44c6-a9cf-9103c1f6c85e,A
2019-11-09 11:39:17,6b0b34f0-4466-458a-bd08-aae7f1e88198,S
2019-11-09 11:44:40,6b0b34f0-4466-458a-bd08-aae7f1e88198,A
2019-11-09 11:46:05,6b0b34f0-4466-458a-bd08-aae7f1e88198,S
2019-11-09 11:48:16,6b0b34f0-4466-458a-bd08-aae7f1e88198,A
2019-11-09 11:55:18,6b0b34f0-4466-458a-bd08-aae7f1e88198,S
2019-11-09 12:01:24,6b0b34f0-4466-458a-bd08-aae7f1e88198,A
2019-11-09 11:28:20,da384efa-351b-49f1-91a9-ceb0dba9c912,A
2019-11-09 11:31:49,da384efa-351b-49f1-91a9-ceb0dba9c912,S
2019-11-09 11:34:05,da384efa-351b-49f1-91a9-ceb0dba9c912,A
2019-11-09 11:36:06,da384efa-351b-49f1-91a9-ceb0dba9c912,S
2019-11-09 11:36:41,da384efa-351b-49f1-91a9-ceb0dba9c912,A
2019-11-09 11:39:16,da384efa-351b-49f1-91a9-ceb0dba9c912,S
2019-11-09 11:46:08,da384efa-351b-49f1-91a9-ceb0dba9c912,A
2019-11-09 11:47:36,da384efa-351b-49f1-91a9-ceb0dba9c912,S
2019-11-09 11:57:51,da384efa-351b-49f1-91a9-ceb0dba9c912,A
2019-11-09 12:36:56,da384efa-351b-49f1-91a9-ceb0dba9c912,S
2019-11-09 12:46:51,da384efa-351b-49f1-91a9-ceb0dba9c912,A
2019-11-09 12:46:54,da384efa-351b-49f1-91a9-ceb0dba9c912,S
2019-11-09 12:47:37,da384efa-351b-49f1-91a9-ceb0dba9c912,A
2019-11-09 12:50:40,da384efa-351b-49f1-91a9-ceb0dba9c912,S
2019-11-09 12:52:02,da384efa-351b-49f1-91a9-ceb0dba9c912,A
2019-11-09 12:53:23,da384efa-351b-49f1-91a9-ceb0dba9c912,S
2019-11-09 12:57:32,da384efa-351b-49f1-91a9-ceb0dba9c912,A
2019-11-09 12:59:07,da384efa-351b-49f1-91a9-ceb0dba9c912,S
2019-11-09 12:59:12,da384efa-351b-49f1-91a9-ceb0dba9c912,A
2019-11-09 11:21:47,1d341a7a-0840-4856-a4a3-334a1e26402a,S
2019-11-09 11:26:05,1d341a7a-0840-4856-a4a3-334a1e26402a,A
2019-11-09 11:39:47,1d341a7a-0840-4856-a4a3-334a1e26402a,S
2019-11-09 11:40:11,1d341a7a-0840-4856-a4a3-334a1e26402a,A
2019-11-09 11:44:47,1d341a7a-0840-4856-a4a3-334a1e26402a,S
2019-11-09 11:48:06,1d341a7a-0840-4856-a4a3-334a1e26402a,A
2019-11-09 11:51:12,1d341a7a-0840-4856-a4a3-334a1e26402a,S
2019-11-09 11:55:45,1d341a7a-0840-4856-a4a3-334a1e26402a,A
2019-11-09 11:58:58,1d341a7a-0840-4856-a4a3-334a1e26402a,S
2019-11-09 12:02:34,1d341a7a-0840-4856-a4a3-334a1e26402a,A
2019-11-09 12:18:26,1d341a7a-0840-4856-a4a3-334a1e26402a,S
2019-11-09 12:22:43,1d341a7a-0840-4856-a4a3-334a1e26402a,A
2019-11-09 12:23:04,1d341a7a-0840-4856-a4a3-334a1e26402a,S
2019-11-09 12:28:10,1d341a7a-0840-4856-a4a3-334a1e26402a,A
2019-11-09 12:35:29,1d341a7a-0840-4856-a4a3-334a1e26402a,S
2019-11-09 12:48:36,1d341a7a-0840-4856-a4a3-334a1e26402a,A
2019-11-09 12:49:37,1d341a7a-0840-4856-a4a3-334a1e26402a,S
2019-11-09 11:22:54,582c1b59-c7aa-4e92-be22-2b4270273600,S
2019-11-09 11:22:58,582c1b59-c7aa-4e92-be22-2b4270273600,A
2019-11-09 11:30:08,582c1b59-c7aa-4e92-be22-2b4270273600,S
2019-11-09 11:41:39,582c1b59-c7aa-4e92-be22-2b4270273600,A
2019-11-09 11:43:15,582c1b59-c7aa-4e92-be22-2b4270273600,S
2019-11-09 11:46:22,582c1b59-c7aa-4e92-be22-2b4270273600,A
2019-11-09 11:46:39,582c1b59-c7aa-4e92-be22-2b4270273600,S
2019-11-09 12:04:38,582c1b59-c7aa-4e92-be22-2b4270273600,A
2019-11-09 11:25:30,77d97ce9-8cf7-41f5-9cd9-342c66e12310,S
2019-11-09 11:26:12,77d97ce9-8cf7-41f5-9cd9-342c66e12310,A
2019-11-09 11:41:53,77d97ce9-8cf7-41f5-9cd9-342c66e12310,S
2019-11-09 11:49:08,77d97ce9-8cf7-41f5-9cd9-342c66e12310,A
2019-11-09 11:49:29,77d97ce9-8cf7-41f5-9cd9-342c66e12310,S
2019-11-09 11:49:59,77d97ce9-8cf7-41f5-9cd9-342c66e12310,A
2019-11-09 11:51:05,77d97ce9-8cf7-41f5-9cd9-342c66e12310,S
2019-11-09 11:58:54,77d97ce9-8cf7-41f5-9cd9-342c66e12310,A
2019-11-09 12:01:23,77d97ce9-8cf7-41f5-9cd9-342c66e12310,S
2019-11-09 12:02:21,77d97ce9-8cf7-41f5-9cd9-342c66e12310,A
2019-11-09 12:07:20,77d97ce9-8cf7-41f5-9cd9-342c66e12310,S
2019-11-09 12:10:46,77d97ce9-8cf7-41f5-9cd9-342c66e12310,A
2019-11-09 12:18:28,77d97ce9-8cf7-41f5-9cd9-342c66e12310,S
2019-11-09 12:22:00,77d97ce9-8cf7-41f5-9cd9-342c66e12310,A
2019-11-09 12:23:05,77d97ce9-8cf7-41f5-9cd9-342c66e12310,S
2019-11-09 12:24:23,77d97ce9-8cf7-41f5-9cd9-342c66e12310,A
2019-11-09 12:33:31,77d97ce9-8cf7-41f5-9cd9-342c66e12310,S
2019-11-09 12:34:39,77d97ce9-8cf7-41f5-9cd9-342c66e12310,A
2019-11-09 12:37:16,77d97ce9-8cf7-41f5-9cd9-342c66e12310,S
2019-11-09 12:39:23,77d97ce9-8cf7-41f5-9cd9-342c66e12310,A
2019-11-09 12:47:55,77d97ce9-8cf7-41f5-9cd9-342c66e12310,S
2019-11-09 12:50:09,77d97ce9-8cf7-41f5-9cd9-342c66e12310,A
2019-11-09 12:55:06,77d97ce9-8cf7-41f5-9cd9-342c66e12310,S
2019-11-09 12:58:34,77d97ce9-8cf7-41f5-9cd9-342c66e12310,A
2019-11-09 12:59:09,77d97ce9-8cf7-41f5-9cd9-342c66e12310,S
2019-11-09 13:00:41,77d97ce9-8cf7-41f5-9cd9-342c66e12310,A
2019-11-09 11:17:54,0b128d84-0bbd-4060-ab6b-80ff4e686588,A
2019-11-09 11:23:57,0b128d84-0bbd-4060-ab6b-80ff4e686588,S
2019-11-09 11:26:27,0b128d84-0bbd-4060-ab6b-80ff4e686588,A
2019-11-09 11:27:11,0b128d84-0bbd-4060-ab6b-80ff4e686588,S
2019-11-09 11:27:15,0b128d84-0bbd-4060-ab6b-80ff4e686588,A
2019-11-09 11:30:05,0b128d84-0bbd-4060-ab6b-80ff4e686588,S
2019-11-09 11:38:21,0b128d84-0bbd-4060-ab6b-80ff4e686588,A
2019-11-09 11:41:07,0b128d84-0bbd-4060-ab6b-80ff4e686588,S
2019-11-09 11:41:10,0b128d84-0bbd-4060-ab6b-80ff4e686588,A
2019-11-09 11:47:15,0b128d84-0bbd-4060-ab6b-80ff4e686588,S
2019-11-09 11:51:38,0b128d84-0bbd-4060-ab6b-80ff4e686588,A
2019-11-09 11:58:59,0b128d84-0bbd-4060-ab6b-80ff4e686588,S
2019-11-09 12:00:08,0b128d84-0bbd-4060-ab6b-80ff4e686588,A
2019-11-09 12:04:04,0b128d84-0bbd-4060-ab6b-80ff4e686588,S
2019-11-09 12:04:52,0b128d84-0bbd-4060-ab6b-80ff4e686588,A
2019-11-09 12:05:09,0b128d84-0bbd-4060-ab6b-80ff4e686588,S
2019-11-09 12:15:42,0b128d84-0bbd-4060-ab6b-80ff4e686588,A
2019-11-09 11:07:54,6f9bb9e3-7f14-4412-8d62-09112bf6c9d5,S
2019-11-09 11:19:49,6f9bb9e3-7f14-4412-8d62-09112bf6c9d5,A
2019-11-09 11:20:07,6f9bb9e3-7f14-4412-8d62-09112bf6c9d5,S
2019-11-09 11:35:31,6f9bb9e3-7f14-4412-8d62-09112bf6c9d5,A
2019-11-09 11:38:24,6f9bb9e3-7f14-4412-8d62-09112bf6c9d5,S
2019-11-09 11:40:24,6f9bb9e3-7f14-4412-8d62-09112bf6c9d5,A
2019-11-09 11:48:31,6f9bb9e3-7f14-4412-8d62-09112bf6c9d5,S
2019-11-09 11:49:27,6f9bb9e3-7f14-4412-8d62-09112bf6c9d5,A
2019-11-09 11:51:40,6f9bb9e3-7f14-4412-8d62-09112bf6c9d5,S
2019-11-09 12:06:04,6f9bb9e3-7f14-4412-8d62-09112bf6c9d5,A
2019-11-09 12:11:22,6f9bb9e3-7f14-4412-8d62-09112bf6c9d5,S
2019-11-09 12:12:55,6f9bb9e3-7f14-4412-8d62-09112bf6c9d5,A
2019-11-09 12:13:43,6f9bb9e3-7f14-4412-8d62-09112bf6c9d5,S
2019-11-09 12:15:40,6f9bb9e3-7f14-4412-8d62-09112bf6c9d5,A
2019-11-09 12:18:58,6f9bb9e3-7f14-4412-8d62-09112bf6c9d5,S
2019-11-09 12:19:04,6f9bb9e3-7f14-4412-8d62-09112bf6c9d5,A
2019-11-09 12:31:23,6f9bb9e3-7f14-4412-8d62-09112bf6c9d5,S
2019-11-09 12:32:44,6f9bb9e3-7f14-4412-8d62-09112bf6c9d5,A
2019-11-09 12:37:36,6f9bb9e3-7f14-4412-8d62-09112bf6c9d5,S
2019-11-09 12:41:02,6f9bb9e3-7f14-4412-8d62-09112bf6c9d5,A
2019-11-09 12:42:16,6f9bb9e3-7f14-4412-8d62-09112bf6c9d5,S
2019-11-09 12:42:58,6f9bb9e3-7f14-4412-8d62-09112bf6c9d5,A
2019-11-09 12:55:38,6f9bb9e3-7f14-4412-8d62-09112bf6c9d5,S
2019-11-09 12:57:06,6f9bb9e3-7f14-4412-8d62-09112bf6c9d5,A
2019-11-09 12:58:20,6f9bb9e3-7f14-4412-8d62-09112bf6c9d5,S
2019-11-09 13:00:57,6f9bb9e3-7f14-4412-8d62-09112bf6c9d5,A
2019-11-09 11:31:04,127d28d7-b234-4c1b-8488-02660a10fd5a,S
2019-11-09 11:33:00,127d28d7-b234-4c1b-8488-02660a10fd5a,A
2019-11-09 11:36:08,127d28d7-b234-4c1b-8488-02660a10fd5a,S
2019-11-09 11:36:38,127d28d7-b234-4c1b-8488-02660a10fd5a,A
2019-11-09 11:39:46,127d28d7-b234-4c1b-8488-02660a10fd5a,S
2019-11-09 11:41:46,127d28d7-b234-4c1b-8488-02660a10fd5a,A
2019-11-09 11:46:02,127d28d7-b234-4c1b-8488-02660a10fd5a,S
2019-11-09 11:47:00,127d28d7-b234-4c1b-8488-02660a10fd5a,A
2019-11-09 11:47:49,127d28d7-b234-4c1b-8488-02660a10fd5a,S
2019-11-09 11:55:16,127d28d7-b234-4c1b-8488-02660a10fd5a,A
2019-11-09 11:57:29,127d28d7-b234-4c1b-8488-02660a10fd5a,S
2019-11-09 12:01:00,127d28d7-b234-4c1b-8488-02660a10fd5a,A
2019-11-09 12:09:17,127d28d7-b234-4c1b-8488-02660a10fd5a,S
2019-11-09 12:16:41,127d28d7-b234-4c1b-8488-02660a10fd5a,A
2019-11-09 12:18:44,127d28d7-b234-4c1b-8488-02660a10fd5a,S
2019-11-09 12:21:29,127d28d7-b234-4c1b-8488-02660a10fd5a,A
2019-11-09 12:22:33,127d28d7-b234-4c1b-8488-02660a10fd5a,S
2019-11-09 12:23:51,127d28d7-b234-4c1b-8488-02660a10fd5a,A
2019-11-09 12:25:23,127d28d7-b234-4c1b-8488-02660a10fd5a,S
2019-11-09 12:33:31,127d28d7-b234-4c1b-8488-02660a10fd5a,A
2019-11-09 12:33:41,127d28d7-b234-4c1b-8488-02660a10fd5a,S
2019-11-09 12:33:52,127d28d7-b234-4c1b-8488-02660a10fd5a,A
2019-11-09 12:37:43,127d28d7-b234-4c1b-8488-02660a10fd5a,S
2019-11-09 12:40:07,127d28d7-b234-4c1b-8488-02660a10fd5a,A
2019-11-09 12:40:52,127d28d7-b234-4c1b-8488-02660a10fd5a,S
2019-11-09 12:42:10,127d28d7-b234-4c1b-8488-02660a10fd5a,A
2019-11-09 12:43:03,127d28d7-b234-4c1b-8488-02660a10fd5a,S
2019-11-09 12:51:26,127d28d7-b234-4c1b-8488-02660a10fd5a,A
2019-11-09 12:52:39,127d28d7-b234-4c1b-8488-02660a10fd5a,S
2019-11-09 13:01:38,127d28d7-b234-4c1b-8488-02660a10fd5a,A
