date,actor,success,from,to
2019-11-10 01:17:39,99e07fb1-d36a-4d25-adf7-aaeca1e626d0,1,7b888feb-a5c2-4761-b50e-0f0844ec1770,832d4e47-e417-4bd9-bed7-1ab4e4f29077
2019-11-10 01:17:39,b473ea2b-fcc4-4753-a213-059205d889e3,1,7b888feb-a5c2-4761-b50e-0f0844ec1770,832d4e47-e417-4bd9-bed7-1ab4e4f29077
2019-11-10 00:28:23,99e07fb1-d36a-4d25-adf7-aaeca1e626d0,1,0adf23f0-694f-4359-b871-66785fba13ac,7b888feb-a5c2-4761-b50e-0f0844ec1770
2019-11-10 00:28:23,b473ea2b-fcc4-4753-a213-059205d889e3,1,0adf23f0-694f-4359-b871-66785fba13ac,7b888feb-a5c2-4761-b50e-0f0844ec1770
2019-11-10 00:31:17,c5db86a7-819f-4701-83cc-bf64e3bd0b57,1,b108b4a2-d341-4bb9-9d5f-1f18b7671885,0adf23f0-694f-4359-b871-66785fba13ac
2019-11-10 00:31:17,2846f80d-2604-44eb-bc84-a32270df3c5f,1,b108b4a2-d341-4bb9-9d5f-1f18b7671885,0adf23f0-694f-4359-b871-66785fba13ac
2019-11-09 23:32:16,9780c3ea-f239-4a1e-ab6e-cb6be5e97443,1,212d4e8f-f2e3-4654-b55e-af55bf46b80a,34bce75e-a02c-4a0b-9130-e43f3836a02a
2019-11-09 23:32:16,9da38095-444f-411b-aa36-9ec74fff1262,1,212d4e8f-f2e3-4654-b55e-af55bf46b80a,b6fe12c5-9bf9-480a-a5ad-a99e4b24dce8
2019-11-09 23:32:16,eb77a4e1-c181-4c3f-9c3d-e08d322caa91,1,212d4e8f-f2e3-4654-b55e-af55bf46b80a,34bce75e-a02c-4a0b-9130-e43f3836a02a
2019-11-09 23:33:19,941fdcef-3929-4839-ae39-3f6301f03460,1,212d4e8f-f2e3-4654-b55e-af55bf46b80a,26990ec5-2d7d-4668-8d82-82722033a5ac
2019-11-09 23:33:19,b010e2d5-3ebc-40f7-9d1d-e09aacf22e00,1,212d4e8f-f2e3-4654-b55e-af55bf46b80a,b108b4a2-d341-4bb9-9d5f-1f18b7671885
2019-11-09 23:33:19,6b4b42b3-3384-408c-a409-d17cdea24aaf,1,212d4e8f-f2e3-4654-b55e-af55bf46b80a,b108b4a2-d341-4bb9-9d5f-1f18b7671885
2019-11-09 23:34:22,12aceed6-e40f-47f4-acda-9d99fd4fc97f,1,212d4e8f-f2e3-4654-b55e-af55bf46b80a,58b43805-2c5a-4f5b-9af5-1b52eb73707d
2019-11-09 23:34:22,465fca5a-8d5b-4bee-bb47-5c59568c8878,1,212d4e8f-f2e3-4654-b55e-af55bf46b80a,3b6ebdfb-dce3-48fd-aac3-fb2c283be8d4
2019-11-09 23:34:22,c570122f-013b-43a6-a637-39ab5ca2bd35,1,212d4e8f-f2e3-4654-b55e-af55bf46b80a,3b6ebdfb-dce3-48fd-aac3-fb2c283be8d4
2019-11-09 23:35:25,9e5c93e6-f8e3-492b-9292-117b295a4195,1,212d4e8f-f2e3-4654-b55e-af55bf46b80a,832d4e47-e417-4bd9-bed7-1ab4e4f29077
2019-11-09 23:35:25,fb931122-0f44-4347-b076-c28ea10793d5,1,212d4e8f-f2e3-4654-b55e-af55bf46b80a,832d4e47-e417-4bd9-bed7-1ab4e4f29077
2019-11-09 23:35:25,4ebd0d14-6034-4d6b-b751-d5c4af4f7376,1,212d4e8f-f2e3-4654-b55e-af55bf46b80a,832d4e47-e417-4bd9-bed7-1ab4e4f29077
2019-11-09 23:36:28,d0ec93e7-6933-4001-830e-87979326ab59,1,212d4e8f-f2e3-4654-b55e-af55bf46b80a,eded97bb-e241-4e6d-ae1b-5471d5839e05
2019-11-09 23:36:28,d2ce37ad-98b1-4828-b84b-c86950debad7,1,212d4e8f-f2e3-4654-b55e-af55bf46b80a,0b423b97-aeb9-4eb9-8b1a-1a090010bc0c
2019-11-09 23:36:28,8f50a9cf-23df-4b81-bfb5-6eb020baa209,1,212d4e8f-f2e3-4654-b55e-af55bf46b80a,0b423b97-aeb9-4eb9-8b1a-1a090010bc0c
2019-11-09 23:37:30,99e07fb1-d36a-4d25-adf7-aaeca1e626d0,1,212d4e8f-f2e3-4654-b55e-af55bf46b80a,0adf23f0-694f-4359-b871-66785fba13ac
2019-11-09 23:37:30,b473ea2b-fcc4-4753-a213-059205d889e3,1,212d4e8f-f2e3-4654-b55e-af55bf46b80a,0adf23f0-694f-4359-b871-66785fba13ac
2019-11-09 23:37:30,5ad69393-126a-4635-a88c-fdd096e2c643,1,212d4e8f-f2e3-4654-b55e-af55bf46b80a,8fb5d4c5-2c11-48cd-8e51-bb5765bb8111
2019-11-09 23:38:33,aa278838-efc8-4852-be8d-922ce2d4af9e,1,212d4e8f-f2e3-4654-b55e-af55bf46b80a,e60c233c-bdac-40e4-99fb-f5dcd3a0c81a
2019-11-09 23:38:33,288d7ba3-4561-4773-8090-57ac55d10822,1,212d4e8f-f2e3-4654-b55e-af55bf46b80a,892b52c6-9e79-428a-8275-a59740f927a1
2019-11-09 23:38:33,2722b36a-5ee1-4238-b115-4e9d440ace25,1,212d4e8f-f2e3-4654-b55e-af55bf46b80a,e60c233c-bdac-40e4-99fb-f5dcd3a0c81a
2019-11-09 23:39:36,6d929dfb-c822-471c-8a4d-056ea6426880,1,212d4e8f-f2e3-4654-b55e-af55bf46b80a,9e6fb8c1-ff15-40cb-a57c-676ed13cc735
2019-11-09 23:39:36,a4f3aa49-2ca4-4950-9aac-5c8e6b417297,1,212d4e8f-f2e3-4654-b55e-af55bf46b80a,9e6fb8c1-ff15-40cb-a57c-676ed13cc735
2019-11-09 23:39:36,6619d306-63c3-49c6-8ea6-d4852eb1f573,1,212d4e8f-f2e3-4654-b55e-af55bf46b80a,14e83bec-db4e-4640-85d5-b445a5e50b9c
2019-11-09 23:40:39,1a72789b-465c-4936-960a-00d7940ff4e3,1,212d4e8f-f2e3-4654-b55e-af55bf46b80a,a5dbe1fd-0dfe-4680-842f-05faa19cef08
2019-11-09 23:40:39,a641027f-66ce-4db0-97b8-7d0507a33759,1,212d4e8f-f2e3-4654-b55e-af55bf46b80a,a5dbe1fd-0dfe-4680-842f-05faa19cef08
2019-11-09 23:40:39,67f6c2db-5998-4f25-8fee-1089bffbd0ab,1,212d4e8f-f2e3-4654-b55e-af55bf46b80a,9e472621-f36f-408b-9697-8675ed247277
2019-11-09 23:41:42,23021ffb-241e-43a5-a4a5-ce6882e145d7,1,212d4e8f-f2e3-4654-b55e-af55bf46b80a,e0b0fd7a-df1f-4e7c-a567-ff2b3ea89452
2019-11-09 23:41:42,6981390b-d101-4bb5-913b-e338a531361c,1,212d4e8f-f2e3-4654-b55e-af55bf46b80a,5b3f9692-80cc-474c-82e2-43f1a1671272
2019-11-09 23:41:42,20172beb-154c-445f-b3ec-9b91fedc4666,1,212d4e8f-f2e3-4654-b55e-af55bf46b80a,5b3f9692-80cc-474c-82e2-43f1a1671272
2019-11-09 23:42:44,e81d20fd-7ca2-4bf9-82ae-f32cd1296e6c,1,212d4e8f-f2e3-4654-b55e-af55bf46b80a,660b016c-91d2-4c7c-853c-8cf4a01b32f8
2019-11-09 23:42:44,e797768d-f332-42e7-b2a7-bb78982a51d5,1,212d4e8f-f2e3-4654-b55e-af55bf46b80a,1ab02509-908c-408c-babc-931d42e8d255
2019-11-09 23:42:44,cd5838f4-5f8d-4179-8593-42544c8383d4,1,212d4e8f-f2e3-4654-b55e-af55bf46b80a,660b016c-91d2-4c7c-853c-8cf4a01b32f8
2019-11-09 23:43:47,720618f9-2884-4e6b-a6a0-78bf1141a0cd,1,212d4e8f-f2e3-4654-b55e-af55bf46b80a,064ba3dd-093b-470e-9702-5cc2f6954bec
2019-11-09 23:43:47,9764d2db-2781-4a7a-bd0d-17f28d0dbb50,1,212d4e8f-f2e3-4654-b55e-af55bf46b80a,064ba3dd-093b-470e-9702-5cc2f6954bec
2019-11-09 23:43:47,699ef5ac-5f92-4595-ba30-d1d2f7a214c4,1,212d4e8f-f2e3-4654-b55e-af55bf46b80a,e1b6688e-8f20-4877-98fe-93d6ff841a99
2019-11-09 23:44:50,afaa9bfb-e314-431c-8195-109853331dcb,1,212d4e8f-f2e3-4654-b55e-af55bf46b80a,a31bcf14-8783-42b7-89e2-95c0ad074f59
2019-11-09 23:44:50,879fd0cb-15d9-4cca-8537-874b51c67544,1,212d4e8f-f2e3-4654-b55e-af55bf46b80a,7b888feb-a5c2-4761-b50e-0f0844ec1770
2019-11-09 23:44:50,c132fab9-1fac-42e3-9332-b99b2a8bf2a8,1,212d4e8f-f2e3-4654-b55e-af55bf46b80a,7b888feb-a5c2-4761-b50e-0f0844ec1770
2019-11-09 23:45:53,bce90cea-44e6-4058-870a-f802a0487107,1,212d4e8f-f2e3-4654-b55e-af55bf46b80a,7d85cb75-6abc-4c8b-8c12-64a49e7bd6b3
2019-11-09 23:45:53,e8f9a934-1ba2-4326-adfc-de28560bfa3d,1,212d4e8f-f2e3-4654-b55e-af55bf46b80a,9cbb7170-b929-4500-996d-4c19f6f41c67
2019-11-09 23:45:53,68988136-b1cd-46b5-b6c7-a05306b4a0a2,1,212d4e8f-f2e3-4654-b55e-af55bf46b80a,9cbb7170-b929-4500-996d-4c19f6f41c67
2019-11-09 23:46:56,57b453a6-ec38-4ddd-a746-1f2263101b8d,1,212d4e8f-f2e3-4654-b55e-af55bf46b80a,0135650c-cb02-42a1-9d14-8fb9ef8e33a5
2019-11-09 23:46:56,449bdf0c-193e-4437-8b26-8007117c9e97,1,212d4e8f-f2e3-4654-b55e-af55bf46b80a,3f993c59-cd62-4810-bc4c-cf083e076e6a
2019-11-09 23:46:56,7e63e06d-73cc-47a0-807a-a0202b075d51,1,212d4e8f-f2e3-4654-b55e-af55bf46b80a,0135650c-cb02-42a1-9d14-8fb9ef8e33a5
2019-11-09 23:47:59,74a7aec4-69e5-438e-9dc9-ad36cb337636,1,212d4e8f-f2e3-4654-b55e-af55bf46b80a,34bce75e-a02c-4a0b-9130-e43f3836a02a
2019-11-09 23:47:59,42f872a6-d9ef-4052-b8af-b44fa9adf084,1,212d4e8f-f2e3-4654-b55e-af55bf46b80a,34bce75e-a02c-4a0b-9130-e43f3836a02a
2019-11-09 23:47:59,1ea2d1f6-7428-4a81-b314-3f72bd85d835,1,212d4e8f-f2e3-4654-b55e-af55bf46b80a,e8c7c7c9-1864-4d15-9743-6351f12c2411
2019-11-09 23:49:01,c4925236-a1e0-43af-bd89-4ce10b58ac86,1,212d4e8f-f2e3-4654-b55e-af55bf46b80a,b108b4a2-d341-4bb9-9d5f-1f18b7671885
2019-11-09 23:49:01,5d75733b-93d3-48c2-a0c2-8ae3a7d537be,1,212d4e8f-f2e3-4654-b55e-af55bf46b80a,b108b4a2-d341-4bb9-9d5f-1f18b7671885
2019-11-09 23:49:01,0e535d82-e6be-40eb-9f78-715f795049fd,1,212d4e8f-f2e3-4654-b55e-af55bf46b80a,d689fe28-3634-4700-86ba-d4ab27b3cf08
2019-11-09 23:50:04,1cca2c3e-dede-4547-a3be-a6dd85264059,1,212d4e8f-f2e3-4654-b55e-af55bf46b80a,3b6ebdfb-dce3-48fd-aac3-fb2c283be8d4
2019-11-09 23:50:04,104d025f-bba7-44ea-99fd-d8e8a6fc13ca,1,212d4e8f-f2e3-4654-b55e-af55bf46b80a,3b6ebdfb-dce3-48fd-aac3-fb2c283be8d4
2019-11-09 23:50:04,e4414476-cbfd-4b2d-a777-fe94fa02af25,1,212d4e8f-f2e3-4654-b55e-af55bf46b80a,0ebc39d4-af59-4075-bf2f-afd13eccdffe
2019-11-09 23:51:07,fa37fa4f-7f59-4ac8-bdef-9e1b03d144e5,1,212d4e8f-f2e3-4654-b55e-af55bf46b80a,832d4e47-e417-4bd9-bed7-1ab4e4f29077
2019-11-09 23:51:07,26bc33e5-bcf1-42c2-9591-715f78755e15,1,212d4e8f-f2e3-4654-b55e-af55bf46b80a,832d4e47-e417-4bd9-bed7-1ab4e4f29077
2019-11-09 23:51:07,c5f94e49-c082-460e-840a-50b3148d870e,1,212d4e8f-f2e3-4654-b55e-af55bf46b80a,832d4e47-e417-4bd9-bed7-1ab4e4f29077
2019-11-09 23:52:10,3559ddbd-e527-4591-9b15-77cd9e31e618,1,212d4e8f-f2e3-4654-b55e-af55bf46b80a,0b423b97-aeb9-4eb9-8b1a-1a090010bc0c
2019-11-09 23:52:10,6e8e36e9-0748-4876-ba5d-2390d2be4c35,1,212d4e8f-f2e3-4654-b55e-af55bf46b80a,0b423b97-aeb9-4eb9-8b1a-1a090010bc0c
2019-11-09 23:52:10,d2246eb5-2441-4ecc-bf2d-2d10b351a199,1,212d4e8f-f2e3-4654-b55e-af55bf46b80a,afdc3103-cbe3-4cf7-8415-e7d81dfa12a7
2019-11-09 23:53:13,a0904d9e-7af3-4a72-8da8-7cec641ebe34,1,212d4e8f-f2e3-4654-b55e-af55bf46b80a,0adf23f0-694f-4359-b871-66785fba13ac
2019-11-09 23:53:13,160c3de2-a399-472c-a2b8-b3b7bf9985de,1,212d4e8f-f2e3-4654-b55e-af55bf46b80a,0adf23f0-694f-4359-b871-66785fba13ac
2019-11-09 23:53:13,2dd8499a-3d9a-4e17-afc2-c58945e70a05,1,212d4e8f-f2e3-4654-b55e-af55bf46b80a,0adf23f0-694f-4359-b871-66785fba13ac
2019-11-09 23:54:16,521b0ebc-c3ec-4fa6-b52d-080cf48cf097,1,212d4e8f-f2e3-4654-b55e-af55bf46b80a,75832dd9-56f0-4897-9c8e-ed0fb1b9d901
2019-11-09 23:54:16,d5ad9c89-0455-4d42-ac53-054ef9367564,1,212d4e8f-f2e3-4654-b55e-af55bf46b80a,e60c233c-bdac-40e4-99fb-f5dcd3a0c81a
2019-11-09 23:54:16,7e16f35d-7ea3-4aa4-b1c2-0de4524a38bc,1,212d4e8f-f2e3-4654-b55e-af55bf46b80a,e60c233c-bdac-40e4-99fb-f5dcd3a0c81a
2019-11-09 23:55:19,a8ba1985-87f4-4194-ab1b-b2418bf041f3,1,212d4e8f-f2e3-4654-b55e-af55bf46b80a,9e6fb8c1-ff15-40cb-a57c-676ed13cc735
2019-11-09 23:55:19,c549627e-5329-49d7-8c11-bce46d2b9ae9,1,212d4e8f-f2e3-4654-b55e-af55bf46b80a,9e6fb8c1-ff15-40cb-a57c-676ed13cc735
2019-11-09 23:55:19,5bc05a94-0366-49e8-929b-f562f1e197ea,1,212d4e8f-f2e3-4654-b55e-af55bf46b80a,bfa471e0-0963-45b3-bae7-96e65e460482
2019-11-09 23:56:22,3db21bef-c3d9-418b-8b56-05a11343eef1,1,212d4e8f-f2e3-4654-b55e-af55bf46b80a,a5dbe1fd-0dfe-4680-842f-05faa19cef08
2019-11-09 23:56:22,27d10a6f-926e-4e02-83b2-de5b6940e4eb,1,212d4e8f-f2e3-4654-b55e-af55bf46b80a,bc8c9f1b-f265-48d1-abda-cc54ef4a1e64
2019-11-09 23:56:22,dd6597fc-9a5b-448a-8a25-18d72e12d874,1,212d4e8f-f2e3-4654-b55e-af55bf46b80a,a5dbe1fd-0dfe-4680-842f-05faa19cef08
2019-11-09 23:57:25,25490cd5-7d0f-4b7f-988a-202d654d2447,1,212d4e8f-f2e3-4654-b55e-af55bf46b80a,2822937d-03b1-4247-9e91-021ac1fd8cbe
2019-11-09 23:57:25,40be5c0e-207f-4619-8596-3fadbe735efb,1,212d4e8f-f2e3-4654-b55e-af55bf46b80a,5b3f9692-80cc-474c-82e2-43f1a1671272
2019-11-09 23:57:25,f3f9cf15-241e-4913-af63-61d1bd6e529c,1,212d4e8f-f2e3-4654-b55e-af55bf46b80a,5b3f9692-80cc-474c-82e2-43f1a1671272
2019-11-09 23:58:28,e497be86-2d47-4b9c-ab28-9f1d8186c3c4,1,212d4e8f-f2e3-4654-b55e-af55bf46b80a,660b016c-91d2-4c7c-853c-8cf4a01b32f8
2019-11-09 23:58:28,5126621c-063f-4943-a146-04c662f3f848,1,212d4e8f-f2e3-4654-b55e-af55bf46b80a,8253d204-9e11-4ff7-8c12-84d33bbc8175
2019-11-09 23:58:28,3b28815a-b730-46d0-af66-17b8721ef581,1,212d4e8f-f2e3-4654-b55e-af55bf46b80a,660b016c-91d2-4c7c-853c-8cf4a01b32f8
2019-11-09 23:59:31,13d685cf-6b22-4eb2-a8ed-e1a4deebe716,1,212d4e8f-f2e3-4654-b55e-af55bf46b80a,064ba3dd-093b-470e-9702-5cc2f6954bec
2019-11-09 23:59:31,e094a812-a942-4d1e-8759-62f2b2cc463d,1,212d4e8f-f2e3-4654-b55e-af55bf46b80a,efaab897-7bbe-4d7f-ab84-5081c6c6e4f0
2019-11-09 23:59:31,63e628a6-ba79-446d-8a92-7a86c3f6681f,1,212d4e8f-f2e3-4654-b55e-af55bf46b80a,064ba3dd-093b-470e-9702-5cc2f6954bec
2019-11-10 00:00:33,c227bce6-dbb6-413d-883a-28c7a8785712,1,212d4e8f-f2e3-4654-b55e-af55bf46b80a,7b888feb-a5c2-4761-b50e-0f0844ec1770
2019-11-10 00:00:33,6c3c0e98-9760-49b0-8e92-afd61278db04,1,212d4e8f-f2e3-4654-b55e-af55bf46b80a,7b888feb-a5c2-4761-b50e-0f0844ec1770
2019-11-10 00:00:33,cf921649-6dbe-4086-a779-bf734d1a3018,1,212d4e8f-f2e3-4654-b55e-af55bf46b80a,4ea796f9-4ff8-401b-8674-84191b5dfc0f
2019-11-10 00:01:36,aa71cc80-c8dc-480e-8761-c1f8d876fef6,1,212d4e8f-f2e3-4654-b55e-af55bf46b80a,9cbb7170-b929-4500-996d-4c19f6f41c67
2019-11-10 00:01:36,704ad06e-5693-4616-89d9-ba19d7f126ee,1,212d4e8f-f2e3-4654-b55e-af55bf46b80a,9cbb7170-b929-4500-996d-4c19f6f41c67
2019-11-10 00:01:36,10c4dee4-0563-4612-872e-210c804ac764,1,212d4e8f-f2e3-4654-b55e-af55bf46b80a,b935726b-08a6-4e76-a5e4-e9adc91d5a50
2019-11-10 00:02:39,e13ee83c-7b65-4f62-9cb6-4787435c541b,1,212d4e8f-f2e3-4654-b55e-af55bf46b80a,0135650c-cb02-42a1-9d14-8fb9ef8e33a5
2019-11-10 00:02:39,59d9a575-17c4-4347-a0b0-7c920cdf8356,1,212d4e8f-f2e3-4654-b55e-af55bf46b80a,0135650c-cb02-42a1-9d14-8fb9ef8e33a5
2019-11-10 00:02:39,621597ea-5047-42a8-906f-7bf7eaa0f676,1,212d4e8f-f2e3-4654-b55e-af55bf46b80a,fb6b35fd-8004-4dd1-9be7-b1727f7a039e
2019-11-10 00:03:41,ee3a5eff-9929-4760-b99d-f4de193d25fc,1,212d4e8f-f2e3-4654-b55e-af55bf46b80a,ffa6f436-fd07-4966-83d6-42d192b24088
2019-11-10 00:03:41,a504dcda-de6c-4327-99d3-716aee6ff304,1,212d4e8f-f2e3-4654-b55e-af55bf46b80a,34bce75e-a02c-4a0b-9130-e43f3836a02a
2019-11-10 00:03:41,3e9dbed8-0ea2-484e-852e-1785ac899baf,1,212d4e8f-f2e3-4654-b55e-af55bf46b80a,34bce75e-a02c-4a0b-9130-e43f3836a02a
2019-11-10 00:04:44,92f19974-a821-433e-b4fa-d77bc465ab65,1,212d4e8f-f2e3-4654-b55e-af55bf46b80a,886208e3-4f57-4bdb-b330-819e430412f6
2019-11-10 00:04:44,4e6a5123-03fb-4d0c-b6fa-8743da5421ac,1,212d4e8f-f2e3-4654-b55e-af55bf46b80a,b108b4a2-d341-4bb9-9d5f-1f18b7671885
2019-11-10 00:04:44,7ee9ed19-9ad9-4462-9338-054e3991b65e,1,212d4e8f-f2e3-4654-b55e-af55bf46b80a,b108b4a2-d341-4bb9-9d5f-1f18b7671885
2019-11-10 00:05:47,5f730a57-2339-493d-954d-eef76cb04657,1,212d4e8f-f2e3-4654-b55e-af55bf46b80a,06a70b33-8ba6-4fd2-ad4d-ae5c6eb5e891
2019-11-10 00:05:47,32525d98-4c96-4195-a98e-24b054d040e4,1,212d4e8f-f2e3-4654-b55e-af55bf46b80a,3b6ebdfb-dce3-48fd-aac3-fb2c283be8d4
2019-11-10 00:05:47,408905c3-46f3-4d03-8320-122b64ff3e96,1,212d4e8f-f2e3-4654-b55e-af55bf46b80a,3b6ebdfb-dce3-48fd-aac3-fb2c283be8d4
2019-11-10 00:06:50,13025857-cc80-427f-87ef-9a5b1f5b7760,1,212d4e8f-f2e3-4654-b55e-af55bf46b80a,832d4e47-e417-4bd9-bed7-1ab4e4f29077
2019-11-10 00:06:50,dde1c47c-446b-42f6-85dc-07b377fbf9ab,1,212d4e8f-f2e3-4654-b55e-af55bf46b80a,27a776da-e41b-433d-a138-71689c73e809
2019-11-10 00:06:50,dee111cd-726b-4203-a27e-7400fe2e1477,1,212d4e8f-f2e3-4654-b55e-af55bf46b80a,832d4e47-e417-4bd9-bed7-1ab4e4f29077
2019-11-10 00:07:53,8a434ced-0eda-4a42-8fc6-4463cca3b953,1,212d4e8f-f2e3-4654-b55e-af55bf46b80a,0b423b97-aeb9-4eb9-8b1a-1a090010bc0c
2019-11-10 00:07:53,2aadb9ff-051a-4690-9bd9-017936fcdd1d,1,212d4e8f-f2e3-4654-b55e-af55bf46b80a,a24db2a7-422c-4836-a5e5-183e0623ff7e
2019-11-10 00:07:53,f29dcd78-d5a7-48ea-b577-c91a5813c339,1,212d4e8f-f2e3-4654-b55e-af55bf46b80a,0b423b97-aeb9-4eb9-8b1a-1a090010bc0c
2019-11-10 00:08:56,1b397de8-fbd3-442a-9e98-afdb69395240,1,212d4e8f-f2e3-4654-b55e-af55bf46b80a,688e8ccb-dcc4-4921-afe9-b370f518b60e
2019-11-10 00:08:56,0a37d995-4831-43b9-a003-dc793ceb820d,1,212d4e8f-f2e3-4654-b55e-af55bf46b80a,0adf23f0-694f-4359-b871-66785fba13ac
2019-11-10 00:08:56,04e40526-e40d-4910-b344-912ddea692c1,1,212d4e8f-f2e3-4654-b55e-af55bf46b80a,0adf23f0-694f-4359-b871-66785fba13ac
2019-11-10 00:09:59,fe75b724-5171-4c2d-806e-045e6a4a5d85,1,212d4e8f-f2e3-4654-b55e-af55bf46b80a,37a9a965-1c4c-47e1-99b9-e3dda3d20586
2019-11-10 00:09:59,9158fb1a-7cc6-42fc-9305-bcb1e02366d4,1,212d4e8f-f2e3-4654-b55e-af55bf46b80a,e60c233c-bdac-40e4-99fb-f5dcd3a0c81a
2019-11-10 00:09:59,a74717b6-da0f-4d52-9b82-d605c426162c,1,212d4e8f-f2e3-4654-b55e-af55bf46b80a,e60c233c-bdac-40e4-99fb-f5dcd3a0c81a
2019-11-10 00:11:01,33335682-c544-45d2-99a5-9abb726e19ae,1,212d4e8f-f2e3-4654-b55e-af55bf46b80a,9e6fb8c1-ff15-40cb-a57c-676ed13cc735
2019-11-10 00:11:01,6dadc77f-42a5-4bef-ad96-129efa6ebdb6,1,212d4e8f-f2e3-4654-b55e-af55bf46b80a,9e6fb8c1-ff15-40cb-a57c-676ed13cc735
2019-11-10 00:11:01,4b0a6bf7-c22b-4023-b89f-215e010090c3,1,212d4e8f-f2e3-4654-b55e-af55bf46b80a,fc4f654d-43c7-44ad-b887-5c42485114a7
2019-11-10 00:12:04,4ff79d31-624c-4a2f-ab66-1ab91c3adf04,1,212d4e8f-f2e3-4654-b55e-af55bf46b80a,a5dbe1fd-0dfe-4680-842f-05faa19cef08
2019-11-10 00:12:04,af0a1d28-9ef4-43c8-9dc7-a7c811fbcdd2,1,212d4e8f-f2e3-4654-b55e-af55bf46b80a,c30da44e-699e-4845-8138-4cb954a9609f
2019-11-10 00:12:04,3c257a28-e49c-4572-ac96-da1bae1eb624,1,212d4e8f-f2e3-4654-b55e-af55bf46b80a,a5dbe1fd-0dfe-4680-842f-05faa19cef08
2019-11-10 00:13:07,ea811107-42ec-4067-a8bc-70f759846e57,1,212d4e8f-f2e3-4654-b55e-af55bf46b80a,5b3f9692-80cc-474c-82e2-43f1a1671272
2019-11-10 00:13:07,c90ccd9a-2311-486b-a8c4-821203a342a5,1,212d4e8f-f2e3-4654-b55e-af55bf46b80a,5b3f9692-80cc-474c-82e2-43f1a1671272
2019-11-10 00:13:07,51003123-fcea-4121-9bfc-c2be0e43eb5c,1,212d4e8f-f2e3-4654-b55e-af55bf46b80a,3ff4f42e-c98b-40a4-9490-3ce76ea6f413
2019-11-10 00:14:10,9450dbb1-4c84-4a51-aabc-48892e1fedbb,1,212d4e8f-f2e3-4654-b55e-af55bf46b80a,660b016c-91d2-4c7c-853c-8cf4a01b32f8
2019-11-10 00:14:10,2533c584-5b24-443e-aa01-ac0fcd053459,1,212d4e8f-f2e3-4654-b55e-af55bf46b80a,1ad27e26-b852-4669-a0ee-4a2093757aa5
2019-11-10 00:14:10,e86fae20-29f2-41aa-9fa9-5a2aaf231fa6,1,212d4e8f-f2e3-4654-b55e-af55bf46b80a,660b016c-91d2-4c7c-853c-8cf4a01b32f8
2019-11-10 00:15:13,de0c43f7-a721-4017-ae38-b89d95303892,1,212d4e8f-f2e3-4654-b55e-af55bf46b80a,064ba3dd-093b-470e-9702-5cc2f6954bec
2019-11-10 00:15:13,41f2cc8f-519a-4074-89f8-9435de7e8cd3,1,212d4e8f-f2e3-4654-b55e-af55bf46b80a,064ba3dd-093b-470e-9702-5cc2f6954bec
2019-11-10 00:15:13,df146196-7d87-4671-83e6-625f10486d15,1,212d4e8f-f2e3-4654-b55e-af55bf46b80a,064ba3dd-093b-470e-9702-5cc2f6954bec
2019-11-10 00:16:15,32b775d9-444e-4f16-a5d4-b07c314044ad,1,212d4e8f-f2e3-4654-b55e-af55bf46b80a,7b888feb-a5c2-4761-b50e-0f0844ec1770
2019-11-10 00:16:15,ffff653a-15b6-44af-b717-e7897d987e04,1,212d4e8f-f2e3-4654-b55e-af55bf46b80a,6b59785a-5038-468c-9c92-f03c94dfac7a
2019-11-10 00:16:15,75648874-db49-4704-89f6-d20e2ba980a6,1,212d4e8f-f2e3-4654-b55e-af55bf46b80a,7b888feb-a5c2-4761-b50e-0f0844ec1770
2019-11-10 00:17:18,41b3763a-6699-4912-a328-f13572f06748,1,212d4e8f-f2e3-4654-b55e-af55bf46b80a,bb328e1f-4351-4a92-b572-78bcf24f2e13
2019-11-10 00:17:18,b793bbec-f3fb-4672-9327-75378ddc341a,1,212d4e8f-f2e3-4654-b55e-af55bf46b80a,9cbb7170-b929-4500-996d-4c19f6f41c67
2019-11-10 00:17:18,4c1c8222-6524-496a-abb6-82a4efc2c4b2,1,212d4e8f-f2e3-4654-b55e-af55bf46b80a,9cbb7170-b929-4500-996d-4c19f6f41c67
2019-11-10 00:18:21,3037c390-ec1f-4335-8120-47778ece326e,1,212d4e8f-f2e3-4654-b55e-af55bf46b80a,0135650c-cb02-42a1-9d14-8fb9ef8e33a5
2019-11-10 00:18:21,9a60cbf7-ff76-4ac3-a4ee-82c86232214e,1,212d4e8f-f2e3-4654-b55e-af55bf46b80a,0135650c-cb02-42a1-9d14-8fb9ef8e33a5
2019-11-10 00:18:21,3ece81b3-1935-4832-99e9-bff75c1b2cf9,1,212d4e8f-f2e3-4654-b55e-af55bf46b80a,bdcf5341-1f45-4d69-8c00-54875c7f6f98
2019-11-10 00:19:24,290a2006-24ba-40a8-9b41-0d071007d294,1,212d4e8f-f2e3-4654-b55e-af55bf46b80a,359b51c0-a000-4c40-96d6-5aff713f28c4
2019-11-10 00:19:24,b603a66f-48f3-4a4a-8f48-14c40fadd94c,1,212d4e8f-f2e3-4654-b55e-af55bf46b80a,34bce75e-a02c-4a0b-9130-e43f3836a02a
2019-11-10 00:19:24,86d7ccf4-7d80-48ad-a4ab-6c4cb01ea96f,1,212d4e8f-f2e3-4654-b55e-af55bf46b80a,34bce75e-a02c-4a0b-9130-e43f3836a02a
2019-11-10 00:20:27,2846f80d-2604-44eb-bc84-a32270df3c5f,1,212d4e8f-f2e3-4654-b55e-af55bf46b80a,b108b4a2-d341-4bb9-9d5f-1f18b7671885
2019-11-10 00:20:27,c5db86a7-819f-4701-83cc-bf64e3bd0b57,1,212d4e8f-f2e3-4654-b55e-af55bf46b80a,b108b4a2-d341-4bb9-9d5f-1f18b7671885
2019-11-10 00:20:27,f5e0886f-a871-4050-b7fd-4179cd4d7222,1,212d4e8f-f2e3-4654-b55e-af55bf46b80a,4bf21adc-4e15-40b0-b44c-4b978c56304f
2019-11-10 00:21:30,0b42bab8-d440-4986-8434-665fe3b24b9c,1,212d4e8f-f2e3-4654-b55e-af55bf46b80a,3b6ebdfb-dce3-48fd-aac3-fb2c283be8d4
2019-11-10 00:21:30,c767df3b-c54d-41f8-ad2e-a08f04c8dccc,1,212d4e8f-f2e3-4654-b55e-af55bf46b80a,3b6ebdfb-dce3-48fd-aac3-fb2c283be8d4
2019-11-10 00:21:30,1a7f059f-74df-405e-a127-301bfbbfe8f3,1,212d4e8f-f2e3-4654-b55e-af55bf46b80a,7b7e57a1-2fa2-41c3-8048-973428e4b047
2019-11-10 00:22:33,c7d82955-8344-4228-9c61-acbf7c32edec,1,212d4e8f-f2e3-4654-b55e-af55bf46b80a,832d4e47-e417-4bd9-bed7-1ab4e4f29077
2019-11-10 00:22:33,41968bd8-1585-436e-88a5-739407f13201,1,212d4e8f-f2e3-4654-b55e-af55bf46b80a,436749cb-84e2-4190-aedc-bb8dd1286834
2019-11-10 00:22:33,7705792d-0a3a-4c9f-b57c-60d7daf48f23,1,212d4e8f-f2e3-4654-b55e-af55bf46b80a,832d4e47-e417-4bd9-bed7-1ab4e4f29077
2019-11-10 00:23:35,8f7dc987-1fa6-4a0d-94e2-f0f2db76e924,1,212d4e8f-f2e3-4654-b55e-af55bf46b80a,0b423b97-aeb9-4eb9-8b1a-1a090010bc0c
2019-11-10 00:23:35,8c270a6c-c35b-4eec-a649-8798dba64b2b,1,212d4e8f-f2e3-4654-b55e-af55bf46b80a,0b423b97-aeb9-4eb9-8b1a-1a090010bc0c
2019-11-10 00:23:35,651f2ead-7f0a-432b-996f-52e7103775bd,1,212d4e8f-f2e3-4654-b55e-af55bf46b80a,2a045276-d173-4f41-a329-b46fecc5a338
2019-11-10 00:40:25,c7d82955-8344-4228-9c61-acbf7c32edec,1,832d4e47-e417-4bd9-bed7-1ab4e4f29077,0135650c-cb02-42a1-9d14-8fb9ef8e33a5
2019-11-10 00:40:25,7705792d-0a3a-4c9f-b57c-60d7daf48f23,1,832d4e47-e417-4bd9-bed7-1ab4e4f29077,0135650c-cb02-42a1-9d14-8fb9ef8e33a5
2019-11-10 01:17:54,99e07fb1-d36a-4d25-adf7-aaeca1e626d0,1,832d4e47-e417-4bd9-bed7-1ab4e4f29077,0b423b97-aeb9-4eb9-8b1a-1a090010bc0c
2019-11-10 01:17:54,b473ea2b-fcc4-4753-a213-059205d889e3,1,832d4e47-e417-4bd9-bed7-1ab4e4f29077,0b423b97-aeb9-4eb9-8b1a-1a090010bc0c
2019-11-10 01:17:39,5ad69393-126a-4635-a88c-fdd096e2c643,0,NA,NA
2019-11-10 00:28:23,5ad69393-126a-4635-a88c-fdd096e2c643,0,NA,NA
2019-11-10 00:31:17,f5e0886f-a871-4050-b7fd-4179cd4d7222,0,NA,NA
2019-11-10 00:40:25,41968bd8-1585-436e-88a5-739407f13201,0,NA,NA
2019-11-10 01:17:54,5ad69393-126a-4635-a88c-fdd096e2c643,0,NA,NA
