app_number,app_id,trigger,burn,sink,deploy_date,token_interval
1,360ba0b5-62ad-485d-8623-bfb44b04ecb6,9da38095-444f-411b-aa36-9ec74fff1262,eb77a4e1-c181-4c3f-9c3d-e08d322caa91,9780c3ea-f239-4a1e-ab6e-cb6be5e97443,2019-11-09 23:32:14,1.000000
2,f10f6a5c-f783-413c-99e8-872fad9b4d1e,941fdcef-3929-4839-ae39-3f6301f03460,b010e2d5-3ebc-40f7-9d1d-e09aacf22e00,6b4b42b3-3384-408c-a409-d17cdea24aaf,2019-11-09 23:33:17,1.000000
3,886adb49-6357-41ba-a0d9-95ffd60e2a0b,12aceed6-e40f-47f4-acda-9d99fd4fc97f,465fca5a-8d5b-4bee-bb47-5c59568c8878,c570122f-013b-43a6-a637-39ab5ca2bd35,2019-11-09 23:34:19,1.000000
4,df583051-caed-4e8e-b6b4-fda46d08aad2,fb931122-0f44-4347-b076-c28ea10793d5,4ebd0d14-6034-4d6b-b751-d5c4af4f7376,9e5c93e6-f8e3-492b-9292-117b295a4195,2019-11-09 23:35:22,0.200000
5,3b978617-4c3e-4f34-b21b-d3083c0a0f5e,d0ec93e7-6933-4001-830e-87979326ab59,d2ce37ad-98b1-4828-b84b-c86950debad7,8f50a9cf-23df-4b81-bfb5-6eb020baa209,2019-11-09 23:36:25,0.200000
6,178e9c00-0635-4da3-bd4b-a56e3fc7f290,5ad69393-126a-4635-a88c-fdd096e2c643,99e07fb1-d36a-4d25-adf7-aaeca1e626d0,b473ea2b-fcc4-4753-a213-059205d889e3,2019-11-09 23:37:28,0.200000
7,69a8f5ef-8b2f-408f-95b4-07e6bff80873,288d7ba3-4561-4773-8090-57ac55d10822,aa278838-efc8-4852-be8d-922ce2d4af9e,2722b36a-5ee1-4238-b115-4e9d440ace25,2019-11-09 23:38:31,0.200000
8,d2209427-f6d9-47b9-871b-0cd9b40afef0,6619d306-63c3-49c6-8ea6-d4852eb1f573,a4f3aa49-2ca4-4950-9aac-5c8e6b417297,6d929dfb-c822-471c-8a4d-056ea6426880,2019-11-09 23:39:33,1.000000
9,011cadb9-3e4e-4b64-b95f-6a7b14b0b8d3,67f6c2db-5998-4f25-8fee-1089bffbd0ab,1a72789b-465c-4936-960a-00d7940ff4e3,a641027f-66ce-4db0-97b8-7d0507a33759,2019-11-09 23:40:36,0.200000
10,eb74a2dc-eca7-494f-854f-0818bb8df3a8,23021ffb-241e-43a5-a4a5-ce6882e145d7,6981390b-d101-4bb5-913b-e338a531361c,20172beb-154c-445f-b3ec-9b91fedc4666,2019-11-09 23:41:39,0.200000
11,8dd4b32e-48b2-49db-ac3d-01d161ef2938,e797768d-f332-42e7-b2a7-bb78982a51d5,cd5838f4-5f8d-4179-8593-42544c8383d4,e81d20fd-7ca2-4bf9-82ae-f32cd1296e6c,2019-11-09 23:42:42,0.200000
12,8b1a7f97-858b-40f2-bcbc-456b9bb987f7,699ef5ac-5f92-4595-ba30-d1d2f7a214c4,720618f9-2884-4e6b-a6a0-78bf1141a0cd,9764d2db-2781-4a7a-bd0d-17f28d0dbb50,2019-11-09 23:43:45,1.000000
13,9993e8a1-37c3-418a-9179-7093491a5d92,afaa9bfb-e314-431c-8195-109853331dcb,879fd0cb-15d9-4cca-8537-874b51c67544,c132fab9-1fac-42e3-9332-b99b2a8bf2a8,2019-11-09 23:44:48,0.200000
14,e6529dd1-c05b-4f0e-9cbb-86daedde8fba,bce90cea-44e6-4058-870a-f802a0487107,68988136-b1cd-46b5-b6c7-a05306b4a0a2,e8f9a934-1ba2-4326-adfc-de28560bfa3d,2019-11-09 23:45:51,0.200000
15,4a204829-a567-4121-9f6b-bd08eb0ca2d8,449bdf0c-193e-4437-8b26-8007117c9e97,7e63e06d-73cc-47a0-807a-a0202b075d51,57b453a6-ec38-4ddd-a746-1f2263101b8d,2019-11-09 23:46:53,1.000000
16,214e8da8-ce57-455b-a38d-48095a53f430,1ea2d1f6-7428-4a81-b314-3f72bd85d835,42f872a6-d9ef-4052-b8af-b44fa9adf084,74a7aec4-69e5-438e-9dc9-ad36cb337636,2019-11-09 23:47:56,1.000000
17,f420f6a6-4dea-432e-8670-29248cddb82d,0e535d82-e6be-40eb-9f78-715f795049fd,5d75733b-93d3-48c2-a0c2-8ae3a7d537be,c4925236-a1e0-43af-bd89-4ce10b58ac86,2019-11-09 23:48:59,0.200000
18,ed00d989-f5c0-45ac-9307-19da0cf9de75,e4414476-cbfd-4b2d-a777-fe94fa02af25,104d025f-bba7-44ea-99fd-d8e8a6fc13ca,1cca2c3e-dede-4547-a3be-a6dd85264059,2019-11-09 23:50:02,1.000000
19,e12ea69f-a64b-4ffa-b7be-75bf2b217b3d,c5f94e49-c082-460e-840a-50b3148d870e,fa37fa4f-7f59-4ac8-bdef-9e1b03d144e5,26bc33e5-bcf1-42c2-9591-715f78755e15,2019-11-09 23:51:05,0.200000
20,7f53e053-eb3d-422f-8e26-6a5bb8680943,d2246eb5-2441-4ecc-bf2d-2d10b351a199,3559ddbd-e527-4591-9b15-77cd9e31e618,6e8e36e9-0748-4876-ba5d-2390d2be4c35,2019-11-09 23:52:08,1.000000
21,b2a72ba4-118d-4e12-a60b-e8e609d2a352,2dd8499a-3d9a-4e17-afc2-c58945e70a05,160c3de2-a399-472c-a2b8-b3b7bf9985de,a0904d9e-7af3-4a72-8da8-7cec641ebe34,2019-11-09 23:53:10,0.200000
22,3b4e8b7d-0cec-49fa-a526-248f6a4bbce1,521b0ebc-c3ec-4fa6-b52d-080cf48cf097,7e16f35d-7ea3-4aa4-b1c2-0de4524a38bc,d5ad9c89-0455-4d42-ac53-054ef9367564,2019-11-09 23:54:13,0.200000
23,fb2230aa-5be9-4a1d-b486-89e701dd5995,5bc05a94-0366-49e8-929b-f562f1e197ea,c549627e-5329-49d7-8c11-bce46d2b9ae9,a8ba1985-87f4-4194-ab1b-b2418bf041f3,2019-11-09 23:55:16,0.200000
24,f3532761-d43c-4d8d-8a80-ad0df91d4d18,27d10a6f-926e-4e02-83b2-de5b6940e4eb,3db21bef-c3d9-418b-8b56-05a11343eef1,dd6597fc-9a5b-448a-8a25-18d72e12d874,2019-11-09 23:56:19,1.000000
25,37a93ae5-e08e-417d-b4e3-5bc884fe6fd0,25490cd5-7d0f-4b7f-988a-202d654d2447,40be5c0e-207f-4619-8596-3fadbe735efb,f3f9cf15-241e-4913-af63-61d1bd6e529c,2019-11-09 23:57:22,1.000000
26,05a0dc50-c8f5-462e-a87b-5a9de6411495,5126621c-063f-4943-a146-04c662f3f848,3b28815a-b730-46d0-af66-17b8721ef581,e497be86-2d47-4b9c-ab28-9f1d8186c3c4,2019-11-09 23:58:25,1.000000
27,9a998618-8e56-49b2-91d3-b333302f21dd,e094a812-a942-4d1e-8759-62f2b2cc463d,13d685cf-6b22-4eb2-a8ed-e1a4deebe716,63e628a6-ba79-446d-8a92-7a86c3f6681f,2019-11-09 23:59:28,0.200000
28,2f7b4d72-67ca-4e6a-a35c-08c8e94eec0e,cf921649-6dbe-4086-a779-bf734d1a3018,c227bce6-dbb6-413d-883a-28c7a8785712,6c3c0e98-9760-49b0-8e92-afd61278db04,2019-11-10 00:00:31,1.000000
29,e3fbf704-5a69-47c9-8553-142c05a9b45d,10c4dee4-0563-4612-872e-210c804ac764,704ad06e-5693-4616-89d9-ba19d7f126ee,aa71cc80-c8dc-480e-8761-c1f8d876fef6,2019-11-10 00:01:34,1.000000
30,901c223c-0abc-47ed-8c85-c39eb0e39562,621597ea-5047-42a8-906f-7bf7eaa0f676,59d9a575-17c4-4347-a0b0-7c920cdf8356,e13ee83c-7b65-4f62-9cb6-4787435c541b,2019-11-10 00:02:36,1.000000
31,00a0b6f2-fa11-40d2-bb4e-75da94e1a941,ee3a5eff-9929-4760-b99d-f4de193d25fc,3e9dbed8-0ea2-484e-852e-1785ac899baf,a504dcda-de6c-4327-99d3-716aee6ff304,2019-11-10 00:03:39,1.000000
32,817ca769-dbb9-455d-b7d7-a2a321e9aa86,92f19974-a821-433e-b4fa-d77bc465ab65,4e6a5123-03fb-4d0c-b6fa-8743da5421ac,7ee9ed19-9ad9-4462-9338-054e3991b65e,2019-11-10 00:04:42,0.200000
33,a6f51e3d-c593-418d-8d95-eded1133ed89,5f730a57-2339-493d-954d-eef76cb04657,408905c3-46f3-4d03-8320-122b64ff3e96,32525d98-4c96-4195-a98e-24b054d040e4,2019-11-10 00:05:44,1.000000
34,0e204f92-a8f0-442b-8633-10b135cb2829,dde1c47c-446b-42f6-85dc-07b377fbf9ab,13025857-cc80-427f-87ef-9a5b1f5b7760,dee111cd-726b-4203-a27e-7400fe2e1477,2019-11-10 00:06:47,0.200000
35,61968f7a-63ce-4842-aa57-240853b1e68c,2aadb9ff-051a-4690-9bd9-017936fcdd1d,8a434ced-0eda-4a42-8fc6-4463cca3b953,f29dcd78-d5a7-48ea-b577-c91a5813c339,2019-11-10 00:07:50,1.000000
36,735c3592-2fcc-40ca-a0e0-4ce4e05b7d7c,1b397de8-fbd3-442a-9e98-afdb69395240,0a37d995-4831-43b9-a003-dc793ceb820d,04e40526-e40d-4910-b344-912ddea692c1,2019-11-10 00:08:53,0.200000
37,1fe83218-f71f-408f-9de4-6c4f7001fbc3,fe75b724-5171-4c2d-806e-045e6a4a5d85,9158fb1a-7cc6-42fc-9305-bcb1e02366d4,a74717b6-da0f-4d52-9b82-d605c426162c,2019-11-10 00:09:56,1.000000
38,8ef99849-a6ec-40c7-aa59-834468477741,4b0a6bf7-c22b-4023-b89f-215e010090c3,6dadc77f-42a5-4bef-ad96-129efa6ebdb6,33335682-c544-45d2-99a5-9abb726e19ae,2019-11-10 00:10:59,1.000000
39,5c18a8ec-99a0-42ee-8500-e4923b162b28,af0a1d28-9ef4-43c8-9dc7-a7c811fbcdd2,4ff79d31-624c-4a2f-ab66-1ab91c3adf04,3c257a28-e49c-4572-ac96-da1bae1eb624,2019-11-10 00:12:02,0.200000
40,86791050-026a-4f01-bcb9-83b76d7bf65c,51003123-fcea-4121-9bfc-c2be0e43eb5c,ea811107-42ec-4067-a8bc-70f759846e57,c90ccd9a-2311-486b-a8c4-821203a342a5,2019-11-10 00:13:05,0.200000
41,9dc41553-832b-44a7-b9d1-b11af84dfed3,2533c584-5b24-443e-aa01-ac0fcd053459,9450dbb1-4c84-4a51-aabc-48892e1fedbb,e86fae20-29f2-41aa-9fa9-5a2aaf231fa6,2019-11-10 00:14:08,1.000000
42,204ae7dc-e880-4a54-ba6a-5d1e06314d01,df146196-7d87-4671-83e6-625f10486d15,41f2cc8f-519a-4074-89f8-9435de7e8cd3,de0c43f7-a721-4017-ae38-b89d95303892,2019-11-10 00:15:10,0.200000
43,8d264b5c-1ef1-4fe5-8552-c115e6795372,ffff653a-15b6-44af-b717-e7897d987e04,75648874-db49-4704-89f6-d20e2ba980a6,32b775d9-444e-4f16-a5d4-b07c314044ad,2019-11-10 00:16:13,0.200000
44,05d72992-a470-4b37-afa9-695938b4a982,41b3763a-6699-4912-a328-f13572f06748,b793bbec-f3fb-4672-9327-75378ddc341a,4c1c8222-6524-496a-abb6-82a4efc2c4b2,2019-11-10 00:17:16,0.200000
45,34231623-7d2f-45a9-b68a-b90f2e94fc49,3ece81b3-1935-4832-99e9-bff75c1b2cf9,3037c390-ec1f-4335-8120-47778ece326e,9a60cbf7-ff76-4ac3-a4ee-82c86232214e,2019-11-10 00:18:19,1.000000
46,39d7f713-d1b5-4f08-9446-533f1380221c,290a2006-24ba-40a8-9b41-0d071007d294,b603a66f-48f3-4a4a-8f48-14c40fadd94c,86d7ccf4-7d80-48ad-a4ab-6c4cb01ea96f,2019-11-10 00:19:21,0.200000
47,5083f41c-7c91-4592-a0d0-16c968b887c6,f5e0886f-a871-4050-b7fd-4179cd4d7222,2846f80d-2604-44eb-bc84-a32270df3c5f,c5db86a7-819f-4701-83cc-bf64e3bd0b57,2019-11-10 00:20:24,0.200000
48,01b17f26-6fa6-46b7-85b2-d486f0b71d34,1a7f059f-74df-405e-a127-301bfbbfe8f3,c767df3b-c54d-41f8-ad2e-a08f04c8dccc,0b42bab8-d440-4986-8434-665fe3b24b9c,2019-11-10 00:21:27,1.000000
49,032e0212-dde0-4211-aed1-8bcdf73e6f7b,41968bd8-1585-436e-88a5-739407f13201,7705792d-0a3a-4c9f-b57c-60d7daf48f23,c7d82955-8344-4228-9c61-acbf7c32edec,2019-11-10 00:22:30,0.200000
50,36d8de89-6628-485c-9963-da3397ddc832,651f2ead-7f0a-432b-996f-52e7103775bd,8c270a6c-c35b-4eec-a649-8798dba64b2b,8f7dc987-1fa6-4a0d-94e2-f0f2db76e924,2019-11-10 00:23:33,1.000000
