app_number,app_id,trigger,burn,sink,deploy_date,token_interval
1,ff134ef0-6b3e-4b69-8079-022d2507eadd,50b0f9a8-c3ea-4054-9a83-ef044c889a44,e7f127e3-e914-49df-b57b-b786c62476cd,c347e21f-310a-4e42-afcc-7abaa2236e0a,2020-03-04 03:58:10,2.000000
2,1e6c2093-6cfd-4ee5-b96e-6806aeaff628,d845ac0d-b2d0-496d-8e36-a784bd10d894,84192118-e062-45ba-8c55-ce75e8977148,5091675d-3711-4194-aeda-a5e300e92119,2020-03-04 03:59:13,2.000000
3,be7a149f-a083-4ab1-8df0-52501a1f1e0f,a632a865-7fbb-420e-aaf2-6ae9ef26e526,b407b028-ee58-47a2-8487-5060b281c001,633fccc8-a662-4108-ab21-e7ecb75a080c,2020-03-04 04:00:16,2.000000
4,737e51b2-dc89-4920-b79d-70af5800ab16,fa3dd612-700a-402b-ab1f-3794b99bf74b,0b94838e-cddc-4bc0-b8e4-53650f2c8df4,b5de832d-a70c-4375-9239-5e5bfa84b844,2020-03-04 04:01:19,1.000000
5,13bc144a-4c1d-4b9a-99b7-dca3fe304918,b3045226-851d-41bb-a117-02bd3c975f33,22d49398-d19e-49ff-8cf2-dcf4e7f93c40,5d8a55cb-bce2-47bb-af1d-99a686092bcb,2020-03-04 04:02:22,1.000000
6,a4961180-82d2-4337-a30a-f641289b718d,22690530-6545-4f08-bddc-02e77e029f17,002d9c6f-2ac3-4ea6-8b79-3522ba2a3a93,f7b47006-0468-473b-8c78-66e5f3cab2d5,2020-03-04 04:03:25,1.000000
7,860dd81d-f7f0-4d3a-81d0-3ad38044722a,326b228a-3a94-47c3-844b-a320ba1833de,6d484a83-f6db-45ea-ac8e-2761a265fa16,ae60cec1-e14a-4ad6-a4e9-706add337986,2020-03-04 04:04:27,1.000000
8,39a3cd9e-522d-4269-bbe0-566cfada1ebd,d73c023d-ef43-46b1-8e13-2f3361424074,cdb6f2b9-17a7-4269-9491-e03b0e5f1146,d16b7fa7-2786-4806-a0d5-03126ddc8f49,2020-03-04 04:05:30,2.000000
9,b3eea1bb-1e90-42a8-a095-fff24e72b5ca,2f7006c8-27d1-414d-bf58-926314894db3,2df3cf66-930e-4e88-bd04-bf75bcde380e,8eaabd8b-11be-4769-a1d6-8e83c1155db2,2020-03-04 04:06:33,1.000000
10,8526fc8a-480e-4022-a4d0-98eea821176e,063b388b-bc9a-4823-9ac6-c969b8b43aa8,e9086449-0b9b-47f8-b039-66c245421781,c67246bc-64fb-41da-9953-e6bcce9baeb6,2020-03-04 04:07:36,1.000000
11,34a7885c-38e9-4fb8-898a-479b7155a74c,05656040-692c-40c7-b252-fea560f4c569,f090e882-0aed-4c05-882c-d122a0309bdf,7b2c28ff-b874-4916-96c4-2ab00b068ccc,2020-03-04 04:08:39,1.000000
12,5e2606d4-0c1a-4fbe-a8e0-c6abbe4985a8,ee4553d8-37a3-4fb1-b930-35c55924f22e,d2561cfa-2803-47ec-8f59-c5965e263e34,13a0139b-99fb-42e9-ba93-79464c9f6961,2020-03-04 04:09:42,2.000000
13,372186d1-2aba-4a1b-bf8a-5a725503175a,d315e6d3-086c-4958-9487-81c2255471ed,6a10c03a-a53f-4a81-b6bd-1c6d2b1086e0,391029a0-d306-41e6-9187-126cac42fdbf,2020-03-04 04:10:45,1.000000
14,b96557ec-3c22-457b-a8fd-5d7360d2409c,4aeae236-ad7f-4b67-9827-9cdd707361e2,942fa73c-9371-41c6-80e1-f88f17c0a608,14d7cfb2-9429-4648-a2aa-abcfd7046378,2020-03-04 04:11:47,1.000000
15,591dcdf5-3795-42f9-a882-7641d7a6ec26,8949cec6-5f16-42a1-86de-004ef40325f0,27b5d7ca-bba2-4d79-bb96-9608ff1a1411,edfe1708-2d29-4bf3-994a-78b5c0e20324,2020-03-04 04:12:50,2.000000
16,3924cf8b-e697-4b9a-89f6-011f31ed64ac,9185f911-037f-4478-932f-7234e1031b65,6d219d3e-b75f-4666-a85d-5ad1879cda8c,e7d86bfc-65b5-4704-9208-6dd73f3c7476,2020-03-04 04:13:53,2.000000
17,259df868-c9ab-416b-ae20-9103751f1035,d1e26107-0952-472a-826c-5ef6965a0588,0142c631-9808-48ce-b838-3790fc9b1043,1d0b5984-1abd-4e51-8a0c-048402ebfd09,2020-03-04 04:14:55,1.000000
18,e8153278-834d-4e83-ab86-fb4504bb429b,f60b4c5c-7374-418c-9a1d-ca67f0bb97ee,96b61f26-e054-4155-adb7-6874d4d8345e,3954ccc0-676d-4e22-abcc-bda4ec1a421a,2020-03-04 04:15:58,2.000000
19,4eb59167-0b9a-416f-bfef-cdcb9760e375,3515f076-3917-4066-b51a-16901bd99356,4f4f4555-9876-4823-8994-dc5615dacfac,fd5cc670-8a39-48de-94e6-1d4ea64ea6d0,2020-03-04 04:17:01,1.000000
20,73744f46-6b78-4f8a-af88-01f87f4db7a4,de1fd9b0-a7a7-4855-9238-0305685f56cc,c1b696e1-1c01-4b9e-a11b-51fbd17c4574,ccc690f0-8023-42ff-80ff-9d4e453e8798,2020-03-04 04:18:04,2.000000
21,62b45f28-2816-4480-acd7-bc645c86be5d,9e3ebcda-14a5-4685-9671-7349a824c8f8,e56c5c37-85f1-452e-8ae4-2781b36d6153,9c338330-c6f5-4b42-a7f5-a5caeab71fea,2020-03-04 04:19:07,1.000000
22,75828267-50bd-4638-9d20-b00e26e33cd0,48671b23-1dad-446b-a453-b7a56f1d99a4,efcd8f4a-2bc3-4757-883d-41e8aaf29777,08b8bc46-35d9-4e4b-8389-0f2e5b3c4b5e,2020-03-04 04:20:10,1.000000
23,941d791a-d3d4-4ceb-a0c9-b67ee59b1a98,fba2b613-74b7-405a-af3b-95b23ebc5de3,166489b8-5772-41ea-ae40-cdf379ad61e7,0c51b571-b01c-4a96-ad09-45667e643f10,2020-03-04 04:21:12,1.000000
24,9195d8fc-b4e5-4b37-8a73-6c6a95e93952,e3df7f71-9a4b-4ff6-8f56-087ae17b5096,e90857f2-875b-482b-bddd-6aa549a0f6f1,26b16e7c-a12d-4f2c-ac79-0aed7c6478d9,2020-03-04 04:22:15,2.000000
25,0c5c9382-d147-4131-b84b-94f4859742dd,5d9031d1-0719-4e93-b7ef-6a0bb993d97e,5bc33668-2fa6-4341-bbaa-c0349016324d,2505f599-05de-42d5-90d6-837b25a71914,2020-03-04 04:23:18,2.000000
26,fe522d26-2dfc-4728-8eee-b593b42bed4e,e5c58547-82ee-4201-82a5-f446ae6e4f58,f12bc9f2-f76f-444b-91de-1c8778914a7c,a24fca74-0a62-473a-8edc-50729ab6c9da,2020-03-04 04:24:21,2.000000
27,b8941b2f-f527-4144-8a9e-f036baa8eee2,276c0d06-ec0d-4f87-8e09-695f35b7efca,03d71461-6a6f-48eb-9c81-d71fa1accbe3,8a52878d-81bd-41b7-b80d-2d929cdaa285,2020-03-04 04:25:24,1.000000
28,96015a56-142d-45f5-9db8-3868aef60244,9671702c-3c5d-4e80-b7a6-c4df6f126781,1e67cd48-c41c-4f51-877a-7bee27490739,e144f69e-5f1a-4e52-9ad2-1be15af28cf4,2020-03-04 04:26:27,2.000000
29,45115fac-392f-47a0-a67e-b194b1026a49,60db2928-d58a-4f8b-b9c8-18d59331168d,5a8cdce3-474b-4926-a5d4-b4700e6a1da2,be4015ae-d663-4058-95ea-11b0232ecf58,2020-03-04 04:27:30,2.000000
30,7318aead-a29e-4dea-96bf-385985fec93d,70a9d7cb-99d8-4c38-ab2c-785b4efc1086,966e25c5-17f0-4d1e-8dbc-74bd75d2347b,b006211b-70e2-4ba3-90d1-15a36c88d814,2020-03-04 04:28:32,2.000000
31,8d1dc649-ad54-4aee-9d36-2b3a474fff45,9d438dad-1a69-441c-9707-ceba9703f5ab,3c7d490e-fcd3-47ae-b701-abe1d606e2da,47c3f589-0db4-4ca4-a84d-05a70ee91378,2020-03-04 04:29:35,2.000000
32,f16624aa-6b21-4d0f-8ec8-2b1ceac69f7d,efdeff4c-d3ce-4510-a91b-6430c92e9065,2549f33f-1d7d-449b-8c48-e1de6f524634,f5124dcb-7194-4b3b-b122-79995fb0887c,2020-03-04 04:30:38,1.000000
33,e157646c-e6db-472f-8a1f-5d697537c99d,02ef985f-6952-4c1d-a86c-136753ebd7c0,b5286799-c00c-46ca-a8fc-2bd1398b0710,b1c7ffd3-a7d2-4852-a917-89d3e2ff001c,2020-03-04 04:31:41,2.000000
34,5dc6ff3e-79c8-4468-8294-9be3326d0170,4a2b28c8-6144-414c-94c4-44fee7f663c3,ed001d68-e970-468b-ab97-56bae3161035,79fe5ffb-e3a9-4aee-ba15-7e62a9fec5da,2020-03-04 04:32:44,1.000000
35,0873996b-b25d-4680-8b00-52c6091b1d05,613969c0-1319-4df5-ac03-6cc105dbea46,3ecccfb4-014f-4cf6-84ab-07ed729d8706,13e132a4-e747-4907-af40-d11734962d5b,2020-03-04 04:33:46,2.000000
36,6a613a67-c2d1-4c30-ac13-6dacb5a4eda7,860ce1b1-8389-40cb-9c94-447a2abb9393,d47b9490-95b4-4598-a5c4-c609fbb85c8c,7406c782-fbf6-4408-9a69-33fa568f1c5d,2020-03-04 04:34:49,1.000000
37,7859c351-f5f8-4689-b9b8-28b1e7e1dd54,7a776def-db9b-46e5-80f8-97d9f1e9320f,7363003e-f3fe-4583-b256-babb2809af0a,06ef5a7d-c0c7-4d29-90e8-1caa241b3ac6,2020-03-04 04:35:52,2.000000
38,1d314833-403c-4a16-83d4-0e015c072d4f,6a6a823b-0e6c-4fc5-a01f-563049456788,7350042a-0077-439d-98d0-f1b06db83be4,7faf4eb7-ccaa-4c80-a72e-9329ffee1b34,2020-03-04 04:36:55,2.000000
39,f86d6f7e-bb3c-408e-a0a5-3a6a45dedc41,5a1c2594-b234-477f-aad9-a3d6957647e8,bad3d936-5496-4716-ada9-e3da888436c1,0a2010d5-f855-491d-a9eb-071cf6e3e918,2020-03-04 04:37:58,1.000000
40,d0b5dcab-2dcb-4817-a0ee-d20d6a984e1c,9b001cf5-bd5b-4a78-8c87-602c96ac3b0d,894dbcb2-5da9-47ae-a3fd-c5b97a632c8f,e79971f4-db33-431f-9e0f-3b7e23c07f0d,2020-03-04 04:39:00,1.000000
41,9ea9ce14-7112-43f8-ad54-f3c58f45ce6f,dcc155c8-3dc6-46f6-8278-21caabaaf711,5644094c-7ac6-414c-b91e-471948ddcee1,3d2314ec-e6d6-441c-b7a6-75cf432144da,2020-03-04 04:40:03,2.000000
42,e76a3acf-75e1-472c-bef9-bf120b6dc18e,ce97b3a3-ca2a-4e57-a0b7-37780cfb66c6,8586f881-00ba-4b1a-9c7b-d2257be0b7d9,9ac4fb41-399f-43ce-9c1f-2a0699d460e8,2020-03-04 04:41:06,1.000000
43,b5389fb3-e41f-4e34-bbc3-7abd343001d5,a0653870-d735-4e94-aa4c-12da753e4a39,5406c165-df03-4449-9b23-00fcbfbf470f,75bbc29f-8388-45ae-b1fd-48454ca55fa1,2020-03-04 04:42:09,1.000000
44,b55080aa-8f76-4ae7-92ef-918f678c0c5f,a91beade-a8ab-4999-9a7a-5f90f19ae50a,b1f6b4a0-347f-4730-a4fd-35b8d84f6c53,2c9823f9-e0b3-492b-9d3e-9ec04b86ed62,2020-03-04 04:43:12,1.000000
45,c7d63933-0608-4277-9668-c944dd509d91,379c4d6a-0c1c-4a38-93e0-ebfde220552f,068d410c-7b80-4a58-87be-db28bfb59108,19f66ec7-3523-46b0-939c-84a0e9d1d4cc,2020-03-04 04:44:14,2.000000
46,3bf41944-db12-4544-a182-4018b74f7271,0a98c165-ac9f-47dc-bff6-5d3dd58fe61a,bd885dde-6da8-49f4-afdb-10f10afea1d4,f3d0892e-c13a-40d1-8358-f0100f8a4a78,2020-03-04 04:45:17,1.000000
47,1335c628-17fe-4948-a23c-7651389e9645,480a06e7-d149-4f93-b54c-2da846313f95,f9c7147b-6f72-4e51-83fb-2df41d32271b,a54abd06-fb5e-4bb8-b201-51c0786507ee,2020-03-04 04:46:19,1.000000
48,ea01d543-670e-4430-b0ab-c87f3dd42a78,aebfadaf-bb6a-43d3-acf9-4b8ca48cb546,ed62fe96-86c0-4d02-9a1c-7944b1d63c5c,5431b8a6-ffae-43dc-bfd9-6333e7e3ffaf,2020-03-04 04:47:22,2.000000
49,c8113c5a-e012-4690-852f-9033e00b3e63,3a7ae333-9ad6-47cf-803f-0cabc9de2ffe,4555732b-0a41-478e-8ebb-9c6c94f27d59,346dd570-e317-41d6-8570-a933ee3f8ade,2020-03-04 04:48:25,1.000000
50,7db81859-5c0f-47b4-bf71-68a359c03d9e,3b5da675-ceb1-4738-bf65-4023b6b778e8,10e8c5d1-b1c1-4d6b-97b8-c011db225356,fd3d6ddb-0f60-431b-b259-82533bf5ac4a,2020-03-04 04:49:28,2.000000
