actor,node
9c6dfe41-b541-44d1-8fbb-471c2c76bf3a,80b36a5d-11ca-40bc-9062-de133ef3a3b5
add1f459-5ca4-4c45-9aaf-c61ef6c9be83,9556a522-4dc4-4cf2-8418-4f2162dd9d71
05c32d94-1d8b-44de-880f-b8d0ff41b769,80b36a5d-11ca-40bc-9062-de133ef3a3b5
95791cbb-09e1-4bda-ad87-8159c34b8f2e,832e4b14-d858-4c6b-ab9f-abeff3464ea4
e7ca0e19-af31-4c0c-9d46-a44f93f40296,08a815a6-489e-4cad-a665-9e3f3356a23e
7a9310fe-e80e-458a-bc03-6d1fe6703c1e,832e4b14-d858-4c6b-ab9f-abeff3464ea4
829d4de3-5656-464e-9584-8313e006a9d9,75dda66a-e60f-44c3-a550-e4c97722cc0f
d0e22c07-8df7-4a3b-93d4-f35268b0b158,b4fb2f8d-39db-4ed1-b82d-f222aee77e21
fd463053-ebdf-4d4a-9f4d-188868537768,b4fb2f8d-39db-4ed1-b82d-f222aee77e21
3e5a63a6-fcfe-4c28-8d0d-30d62eeb3729,ded46837-0c88-4380-a94f-1912a03759aa
65c99fc3-db26-470c-9887-195159bc8c0e,cfd5154b-5d21-4a2a-97d9-f08ab0d949ea
e3753013-b924-468a-bde3-6d4ac28aba4b,cfd5154b-5d21-4a2a-97d9-f08ab0d949ea
6b1c2099-4cd3-4f85-a1b9-77eda662ddf7,d4307c34-1419-4c0e-97d1-032f523d4c44
81cd7678-c85f-42e9-997d-ff80b049df09,d4307c34-1419-4c0e-97d1-032f523d4c44
1f2e786f-e8dd-410f-84ae-47daa52f17cb,c19ddb69-3504-41de-9830-e7e77f1c8842
d6461333-04bf-4022-bd5e-ff109a4f8138,9e14d203-d223-407a-b64a-cd4e0798970f
99be75d0-47b8-45c6-b70e-edf6c34db803,9e14d203-d223-407a-b64a-cd4e0798970f
e640771a-bc41-4dac-88c1-92b7700c7902,7d08e54d-c291-4441-82a9-24b2c8e5b5a3
88752f2b-5d51-4c6a-afc8-5d205f6aa33d,85b79a0a-e88f-4fc0-94df-726fa094aadf
0aa51fba-b1a9-4897-831c-059ba49580f6,75faf598-81cf-4456-a7c2-5688e258577e
b2ec0eba-c04f-4b11-9ff9-6db263cb6982,75faf598-81cf-4456-a7c2-5688e258577e
673edd08-2176-4219-afaa-8aff537a3253,9ef53302-88ef-47ff-9b1a-bf894f6e31cb
a91d2c5c-a450-4e01-afc4-e65f72a5a497,9ef53302-88ef-47ff-9b1a-bf894f6e31cb
c2efac86-0c17-4b92-9baf-6bdcfdd7524b,d5de2062-197d-43fa-934a-e4159c4ddbf9
093d8c0b-6345-4031-a9d1-24c9e53ea436,3d9dab9b-6c7e-4f27-ae30-27a67202ba9b
89b89a14-6da6-44d5-8432-f1ec7a893d03,231d94e1-3764-45a8-b931-18a3e25fbf8e
494b0b39-b3dc-4e37-9bb0-f8634499939d,3d9dab9b-6c7e-4f27-ae30-27a67202ba9b
04847049-8e5b-49be-aa5b-c02636730399,0b2c21ad-4a5a-401c-9133-eea9e175f70a
c407a20b-5921-43dd-95a4-1ff26f6d02ab,0b2c21ad-4a5a-401c-9133-eea9e175f70a
3c0c2160-c7d3-4207-ba69-83c5c2e86012,3920fd71-7f52-4a31-92eb-78a9bcdb099a
d95a4430-be1e-4158-bc00-223836d3b83e,ff804f44-4418-4829-b448-e5814cb43779
25788005-61ef-4d65-94a6-f7cf76f98f4a,c430595f-8464-475c-8f37-8bfef57f9124
0876fff3-2399-4e61-a2c3-8537572ca23d,c430595f-8464-475c-8f37-8bfef57f9124
54e8e63d-ec5c-4136-8f44-3f4c4ca43f53,52c2c5d1-2dea-44a8-b197-e3a1007cb9f1
3cd50431-8031-4b9f-9f67-d32cc807228c,723286f2-a9f1-4bd3-8e6b-43c41c718f31
f7d33e33-0e57-4483-8bba-68ad3107291b,723286f2-a9f1-4bd3-8e6b-43c41c718f31
519b65ca-fda7-4d2f-8718-82b356cb522c,3934131b-0907-49c5-a15e-84e131da419c
437398e8-d2ef-46a6-9410-7fbec2418027,f519a51a-9034-4b8f-9aac-abf312b19ae1
606973cc-9376-4d88-8a3c-0dc0a69de95d,3934131b-0907-49c5-a15e-84e131da419c
3adb4135-7966-44a3-990a-13bf544ddf39,2deb7878-c38f-4bb0-8482-20ad9736e171
84ae5811-91f2-4429-a337-dd8ca39ae3f6,19542827-b907-4a59-a21d-506e6adab01b
eff0cd9d-59c2-4fb2-bea6-de24378ea1da,2deb7878-c38f-4bb0-8482-20ad9736e171
0a9685c4-a4a0-4b6b-b840-513d056f95cb,77609ce7-b7d0-4226-8b3e-a1b6765dd084
acd31974-e1e5-4ae2-b3df-5821cf80dae9,80b36a5d-11ca-40bc-9062-de133ef3a3b5
caef3064-f41b-42f4-a3ea-7a01ccef74de,80b36a5d-11ca-40bc-9062-de133ef3a3b5
2a129acb-99ac-4cb3-be74-8cd56bf7992b,832e4b14-d858-4c6b-ab9f-abeff3464ea4
941aac81-27b5-4a3a-8766-964b2045a9f8,aaf4945a-6a6d-4a92-b7f6-250444f5bd4c
9c9e2ed3-3fa5-4c34-9de8-61360e491e28,832e4b14-d858-4c6b-ab9f-abeff3464ea4
9a044d09-428d-4edc-9f94-333078aa19b7,b4fb2f8d-39db-4ed1-b82d-f222aee77e21
1f2b69b5-c09c-4b9a-9795-068d6d2b7718,b4fb2f8d-39db-4ed1-b82d-f222aee77e21
29a2ae6b-8daf-48bd-903a-5ea2bfe210a1,8fc5c60d-26be-45df-a3c5-e5a16aa287ef
c752c4f9-a7f4-4675-9991-fc47a237e3ff,cfd5154b-5d21-4a2a-97d9-f08ab0d949ea
561e1930-a813-4e18-bed9-37cbd24364cc,f1cb77fd-891e-4d7a-8e3f-95e7bd5f758e
bdd07b3d-30b2-420b-914e-adc4e885c273,cfd5154b-5d21-4a2a-97d9-f08ab0d949ea
bb7aa363-f16f-494a-be57-3a4452673618,80dd88b9-2d14-460a-ac12-945fd4d18e84
1ab14c9d-2b04-4f6d-b0bb-f686fd793c5e,d4307c34-1419-4c0e-97d1-032f523d4c44
bf6e53bf-0ac2-4099-b01a-d7ae6f4ca220,d4307c34-1419-4c0e-97d1-032f523d4c44
08564817-8cab-4716-b27a-f36f419ba81f,9e14d203-d223-407a-b64a-cd4e0798970f
07b9a729-60ec-41b9-b879-2ba0d4b32d3e,3485476a-c448-44ec-8c94-c7b73269d5b2
242545af-298f-4192-a89e-c73620640fa7,9e14d203-d223-407a-b64a-cd4e0798970f
830e79da-7054-4369-a9d4-0e66506bbc66,75faf598-81cf-4456-a7c2-5688e258577e
6c995487-b0fc-4754-951b-57587a123f9f,75faf598-81cf-4456-a7c2-5688e258577e
b20d51ba-3106-4bfc-af9f-44805c968289,c46d986a-f3a8-4602-8cdb-19e7d67b9900
17837adf-d1a0-45bd-804e-97d1c2ceebe1,9ef53302-88ef-47ff-9b1a-bf894f6e31cb
fc2edb6e-1543-43fd-a8fb-ae073b583558,9ef53302-88ef-47ff-9b1a-bf894f6e31cb
14fc6a25-fc92-4210-8401-387082bc0413,17f643e1-001c-483b-b70a-8c758eec02de
d7a52cfa-b7ea-4206-bf8c-cc0bce9f510a,3d9dab9b-6c7e-4f27-ae30-27a67202ba9b
2e01e1f4-cab0-4b35-8235-99edc4cae4cc,20d07d41-02e5-4eee-8b00-716de2edd3f0
ccf71eec-54a2-4e02-af87-e9ebddc29899,3d9dab9b-6c7e-4f27-ae30-27a67202ba9b
0941c528-b74b-439f-afe1-c14808581212,0b2c21ad-4a5a-401c-9133-eea9e175f70a
08036a97-b761-4e79-9469-056917de5a4d,19ee0567-0cab-4c4f-980b-359ecbfa9c76
f6bb1945-3b4f-4cf2-8363-b618f96150a4,0b2c21ad-4a5a-401c-9133-eea9e175f70a
d065f4dc-1b01-482b-963f-b0610a265634,c430595f-8464-475c-8f37-8bfef57f9124
2e7bbfe4-03ad-45dd-b148-ba597e6facf3,4b4b324b-a558-4439-b780-0251b542835a
6f373b57-9766-48b7-bde8-79e810270e34,c430595f-8464-475c-8f37-8bfef57f9124
2c36f1bf-9a07-46de-bdee-c141b5b4178e,de818176-9198-4d11-a06a-7c67dfd24a27
7f3eb9b4-e58d-4277-9c62-3cb8457476a8,723286f2-a9f1-4bd3-8e6b-43c41c718f31
a03c8b1f-d93b-4697-acc9-5d05ad434279,723286f2-a9f1-4bd3-8e6b-43c41c718f31
99042703-b151-4f06-8e89-0510391c6984,1ebbb750-6ee1-407a-9a57-48a5845a8d38
874571a3-0fa4-4fd1-956e-c499061255cd,3934131b-0907-49c5-a15e-84e131da419c
dd12de20-c39c-4b2b-a28b-182c4d89239d,3934131b-0907-49c5-a15e-84e131da419c
a119978c-2a36-4a3a-bf4a-e8f1389c2455,6df0dbcf-470a-4b23-9ac2-f7538a6c8aaa
37c7b220-4d6f-49dd-8950-e5a5c4ea6517,2deb7878-c38f-4bb0-8482-20ad9736e171
f8354cf7-cbac-4477-80f9-cfb9b5f44f38,2deb7878-c38f-4bb0-8482-20ad9736e171
21057eb3-8b01-4ba9-9287-a0e54d0c78c3,80b36a5d-11ca-40bc-9062-de133ef3a3b5
96771c4a-337a-416b-ac62-688967163a97,80b36a5d-11ca-40bc-9062-de133ef3a3b5
e5b9e54e-d11d-4269-97fa-faebd6d98f61,1fba978e-4048-4ad3-a933-a7f9758a12b1
574e5ed5-614c-4229-bf14-366152b08a55,832e4b14-d858-4c6b-ab9f-abeff3464ea4
5fe4edc0-3171-43fd-81da-b8a8838e2511,832e4b14-d858-4c6b-ab9f-abeff3464ea4
8c9097d5-d7b1-4de3-a2f9-8455a1dea511,e9e8f2da-02bb-494a-9743-d06e9cce753a
d8a46a28-b4b5-4759-ac70-344bb295acae,b4fb2f8d-39db-4ed1-b82d-f222aee77e21
d5ea72c0-60a6-4e53-943b-67f17f1754d6,b4fb2f8d-39db-4ed1-b82d-f222aee77e21
293c6587-4522-4692-8a56-d57256857d3e,ff115bd9-784f-4f15-b1f8-b7c840b6599a
07e64808-605c-4540-a2b3-445413123607,57f81524-eb5c-49dd-afa0-c594142a704f
38113458-1aae-4eb3-a7c6-6a105d544e41,cfd5154b-5d21-4a2a-97d9-f08ab0d949ea
c280703e-96ab-41c9-98a0-271ec66692c0,cfd5154b-5d21-4a2a-97d9-f08ab0d949ea
7b230943-5e80-4c94-86a6-3d8d0a05b76a,158e5217-466d-4ad6-bf0c-c62f996bcd4e
b0f593de-a29e-460e-9b9c-75ac831fe355,d4307c34-1419-4c0e-97d1-032f523d4c44
65df3753-2063-44d7-a90c-eec3ca73b50a,d4307c34-1419-4c0e-97d1-032f523d4c44
678a84fb-8f00-4fee-9e52-4c3edb45d3a2,9e14d203-d223-407a-b64a-cd4e0798970f
019bd76c-5700-4de0-9ecb-0bda8e0e5b0f,9e14d203-d223-407a-b64a-cd4e0798970f
9b1a6326-e897-4696-81f8-d7dbd39ed59b,2ea845b1-8a39-4eae-8103-8188eb752176
d3dbb6af-9fb4-4cd1-9d49-b9ec0fdd1d33,75faf598-81cf-4456-a7c2-5688e258577e
cead90cc-54b3-4a93-b9e6-1be6e19f29b3,2b13df64-37d2-47a8-8ec4-a49e0884cc0a
0d3a1086-e011-4ff3-a6a9-7c223a42bb81,75faf598-81cf-4456-a7c2-5688e258577e
877c86fb-bdd3-45bf-a791-64f2d5cb5f31,9ef53302-88ef-47ff-9b1a-bf894f6e31cb
00725f6c-6d7b-4247-828d-146b81e639fe,9ef53302-88ef-47ff-9b1a-bf894f6e31cb
3f9d0ff2-4e68-411b-9ee2-619c7bdb8362,a7293b52-dd8e-4ab3-8385-d3a0ff177fef
e5019f2b-4471-46ab-9ea0-4f57f0e489ab,3d9dab9b-6c7e-4f27-ae30-27a67202ba9b
f57b0e9d-bb44-4004-96de-8b5bd44d230a,3d9dab9b-6c7e-4f27-ae30-27a67202ba9b
50d72185-c9af-42f9-9fbe-927e06101662,0ba67d39-a697-49b8-b326-c2fb56865a4f
fd503385-d8ad-4dda-8fcb-0a77667e4653,0b2c21ad-4a5a-401c-9133-eea9e175f70a
2fdc4c12-fe86-4288-8673-54cd4e457539,0b2c21ad-4a5a-401c-9133-eea9e175f70a
3782204d-e765-4c65-8701-4598d32c5100,efcff6c1-db3a-4143-ae81-44e17e2522bb
3c7a9100-9a02-40e3-8df2-96dbb86d49df,c430595f-8464-475c-8f37-8bfef57f9124
6df26556-fd4b-46e8-9a7c-f2ef77686506,1c0a0d75-50a9-443c-b76b-f7b577dff2b7
7155cdf4-ec58-453a-b2d2-cb7326444d3d,c430595f-8464-475c-8f37-8bfef57f9124
95e2ae87-de61-40ea-8b11-26d0a6150a02,723286f2-a9f1-4bd3-8e6b-43c41c718f31
034d0c8f-f3f8-4d0b-8873-6cdcac2ea77d,3965dba9-ac85-4354-8c42-c29bbe67d95e
ebe9406e-e63c-42de-97b9-39e9bb9c31bd,723286f2-a9f1-4bd3-8e6b-43c41c718f31
5c2f8524-476e-479d-aef2-1f759b43dfba,bb4c8ee9-8f04-4ae4-b643-f34b58be1c9d
898ed783-baf9-4b3a-bbb1-5ab7a0e31507,3934131b-0907-49c5-a15e-84e131da419c
972f3657-7f1c-4a0b-a950-7ece1e9bfefb,3934131b-0907-49c5-a15e-84e131da419c
f8b27851-2ca4-46d0-8009-f1946295669f,69c80b64-8404-41ac-9107-e373c8365e94
5ddd9d8e-ee52-483b-9127-8f026fc81e8f,2deb7878-c38f-4bb0-8482-20ad9736e171
29aeafb2-89f5-4272-8144-7eb6715b4587,2deb7878-c38f-4bb0-8482-20ad9736e171
a166e617-9950-4504-ad21-eb5c7de8a33f,80b36a5d-11ca-40bc-9062-de133ef3a3b5
363c133b-9dd8-4757-a156-b277f3218e42,80b36a5d-11ca-40bc-9062-de133ef3a3b5
4ec905c4-92e5-43b2-b840-cb66ea9b9c0b,830e48cc-40b5-416c-a524-c1b4516ffc8a
e16db375-6525-4d19-b6e2-601d6d41b999,5ac7c2a0-e155-4224-acd2-079f6105da1f
6614db61-960c-4efe-a22a-c007f4c260d1,832e4b14-d858-4c6b-ab9f-abeff3464ea4
22949c60-0322-4766-834e-a2a95e92fcb4,832e4b14-d858-4c6b-ab9f-abeff3464ea4
79dd7c36-c995-46db-b2fe-3e95db3f4165,092999ba-e2bd-4857-89db-4a787d784f3e
da0f40f7-bdee-4756-a344-5f9578bbf9d5,b4fb2f8d-39db-4ed1-b82d-f222aee77e21
fcf753e8-9227-4593-bc45-51d5128890f4,b4fb2f8d-39db-4ed1-b82d-f222aee77e21
db9b72ee-ee11-4575-847d-6c2ff2ca47b2,cfd5154b-5d21-4a2a-97d9-f08ab0d949ea
3168b8ae-41db-4105-a636-565d6ce0f18d,cfd5154b-5d21-4a2a-97d9-f08ab0d949ea
bfcfc10b-a102-4195-8bf9-dea46536ebca,a39736b7-5cc0-4e68-9a78-3d80e5c2c0a3
477f02a8-ab3c-42a6-b2e5-bd82b5a8b793,d4307c34-1419-4c0e-97d1-032f523d4c44
9716e20f-7f25-4330-b650-ba9fb352d1f5,d5fe121c-746d-426c-b10c-f292a0451ab4
c7e5a845-9a3f-45ab-8a5f-300fd9ac9293,d4307c34-1419-4c0e-97d1-032f523d4c44
14e88938-a4c4-4e76-b146-d85141bf6a71,4624a324-7782-4de4-ba92-54c945078fbe
771eda48-5eed-493b-8a56-ab65a2efebc8,9e14d203-d223-407a-b64a-cd4e0798970f
a7b29ad7-25da-4e59-aef5-a5e6d08572af,9e14d203-d223-407a-b64a-cd4e0798970f
b9f2facd-839d-4b40-82f3-c2dc84b18a1c,75faf598-81cf-4456-a7c2-5688e258577e
545e5628-7fb6-4e05-9329-3c09e88f4a96,9006c278-3db7-4745-a935-7ffd78a34ebe
c64e3d28-eb56-4b5d-9d24-a2035481a1dd,75faf598-81cf-4456-a7c2-5688e258577e
818a8d33-e21f-4fd0-8591-c047502f09bf,9ef53302-88ef-47ff-9b1a-bf894f6e31cb
410b9f4b-cd94-45ec-8120-f85006cf6e15,9ef53302-88ef-47ff-9b1a-bf894f6e31cb
3c404712-cde6-478e-b107-9178c544dd5e,ed7f6aac-3b41-4115-99c0-fafdcbd9f7ed
