date,actor,success,from,to
2019-11-09 06:54:10,91f834f9-2c1e-488e-a360-dda641ce1a25,1,064ba3dd-093b-470e-9702-5cc2f6954bec,660b016c-91d2-4c7c-853c-8cf4a01b32f8
2019-11-09 06:54:10,fa46ab93-53ac-419e-bce0-fc15c4339cae,1,064ba3dd-093b-470e-9702-5cc2f6954bec,660b016c-91d2-4c7c-853c-8cf4a01b32f8
2019-11-09 07:07:40,0c944e8c-cfa7-435e-a45b-a0fe2ffbaf5e,1,064ba3dd-093b-470e-9702-5cc2f6954bec,9cbb7170-b929-4500-996d-4c19f6f41c67
2019-11-09 07:07:40,575beca2-f477-4b7c-99a9-07456b67281c,1,064ba3dd-093b-470e-9702-5cc2f6954bec,9cbb7170-b929-4500-996d-4c19f6f41c67
2019-11-09 06:57:30,3903eecf-5c61-4a20-8fbb-0256edf329b6,1,34bce75e-a02c-4a0b-9130-e43f3836a02a,064ba3dd-093b-470e-9702-5cc2f6954bec
2019-11-09 06:57:30,b91b1611-9e13-4c35-9349-9581bb3a1d3b,1,34bce75e-a02c-4a0b-9130-e43f3836a02a,064ba3dd-093b-470e-9702-5cc2f6954bec
2019-11-09 07:13:56,1548c136-159d-4b25-863b-211b096e75e4,1,34bce75e-a02c-4a0b-9130-e43f3836a02a,0135650c-cb02-42a1-9d14-8fb9ef8e33a5
2019-11-09 07:13:56,7822d8e8-e885-4f0e-8744-ca0b7779a0dc,1,34bce75e-a02c-4a0b-9130-e43f3836a02a,0135650c-cb02-42a1-9d14-8fb9ef8e33a5
2019-11-09 07:12:35,a58b81ec-e350-4674-848b-7b989570333c,1,3b6ebdfb-dce3-48fd-aac3-fb2c283be8d4,832d4e47-e417-4bd9-bed7-1ab4e4f29077
2019-11-09 07:12:35,14aa4e7b-0949-4995-9d7b-8313df0ca2bf,1,3b6ebdfb-dce3-48fd-aac3-fb2c283be8d4,832d4e47-e417-4bd9-bed7-1ab4e4f29077
2019-11-09 06:42:04,81b91d3c-f5d7-42ba-a4c0-5d365e36d306,1,0adf23f0-694f-4359-b871-66785fba13ac,0b423b97-aeb9-4eb9-8b1a-1a090010bc0c
2019-11-09 06:42:04,d31103da-c5c2-4469-92d1-85e6fedb9e1d,1,0adf23f0-694f-4359-b871-66785fba13ac,0b423b97-aeb9-4eb9-8b1a-1a090010bc0c
2019-11-09 06:42:19,17e24601-d702-41da-95a9-6afa498bda76,1,0adf23f0-694f-4359-b871-66785fba13ac,0b423b97-aeb9-4eb9-8b1a-1a090010bc0c
2019-11-09 06:42:19,52635de6-fc67-41b7-9816-71bdfa79cf9f,1,0adf23f0-694f-4359-b871-66785fba13ac,0b423b97-aeb9-4eb9-8b1a-1a090010bc0c
2019-11-09 06:45:19,91f834f9-2c1e-488e-a360-dda641ce1a25,1,0adf23f0-694f-4359-b871-66785fba13ac,064ba3dd-093b-470e-9702-5cc2f6954bec
2019-11-09 06:45:19,fa46ab93-53ac-419e-bce0-fc15c4339cae,1,0adf23f0-694f-4359-b871-66785fba13ac,064ba3dd-093b-470e-9702-5cc2f6954bec
2019-11-09 07:07:45,a58b81ec-e350-4674-848b-7b989570333c,1,9cbb7170-b929-4500-996d-4c19f6f41c67,3b6ebdfb-dce3-48fd-aac3-fb2c283be8d4
2019-11-09 07:07:45,14aa4e7b-0949-4995-9d7b-8313df0ca2bf,1,9cbb7170-b929-4500-996d-4c19f6f41c67,3b6ebdfb-dce3-48fd-aac3-fb2c283be8d4
2019-11-09 07:13:31,1548c136-159d-4b25-863b-211b096e75e4,1,9cbb7170-b929-4500-996d-4c19f6f41c67,34bce75e-a02c-4a0b-9130-e43f3836a02a
2019-11-09 07:13:31,7822d8e8-e885-4f0e-8744-ca0b7779a0dc,1,9cbb7170-b929-4500-996d-4c19f6f41c67,34bce75e-a02c-4a0b-9130-e43f3836a02a
2019-11-09 07:31:06,81b91d3c-f5d7-42ba-a4c0-5d365e36d306,1,0135650c-cb02-42a1-9d14-8fb9ef8e33a5,832d4e47-e417-4bd9-bed7-1ab4e4f29077
2019-11-09 07:31:06,d31103da-c5c2-4469-92d1-85e6fedb9e1d,1,0135650c-cb02-42a1-9d14-8fb9ef8e33a5,832d4e47-e417-4bd9-bed7-1ab4e4f29077
2019-11-09 07:31:22,1548c136-159d-4b25-863b-211b096e75e4,1,0135650c-cb02-42a1-9d14-8fb9ef8e33a5,3b6ebdfb-dce3-48fd-aac3-fb2c283be8d4
2019-11-09 07:31:22,7822d8e8-e885-4f0e-8744-ca0b7779a0dc,1,0135650c-cb02-42a1-9d14-8fb9ef8e33a5,3b6ebdfb-dce3-48fd-aac3-fb2c283be8d4
2019-11-09 06:54:25,91f834f9-2c1e-488e-a360-dda641ce1a25,1,660b016c-91d2-4c7c-853c-8cf4a01b32f8,0135650c-cb02-42a1-9d14-8fb9ef8e33a5
2019-11-09 06:54:25,fa46ab93-53ac-419e-bce0-fc15c4339cae,1,660b016c-91d2-4c7c-853c-8cf4a01b32f8,0135650c-cb02-42a1-9d14-8fb9ef8e33a5
2019-11-09 06:45:04,91f834f9-2c1e-488e-a360-dda641ce1a25,1,b108b4a2-d341-4bb9-9d5f-1f18b7671885,0adf23f0-694f-4359-b871-66785fba13ac
2019-11-09 06:45:04,fa46ab93-53ac-419e-bce0-fc15c4339cae,1,b108b4a2-d341-4bb9-9d5f-1f18b7671885,0adf23f0-694f-4359-b871-66785fba13ac
2019-11-09 06:57:15,3903eecf-5c61-4a20-8fbb-0256edf329b6,1,b108b4a2-d341-4bb9-9d5f-1f18b7671885,34bce75e-a02c-4a0b-9130-e43f3836a02a
2019-11-09 06:57:15,b91b1611-9e13-4c35-9349-9581bb3a1d3b,1,b108b4a2-d341-4bb9-9d5f-1f18b7671885,34bce75e-a02c-4a0b-9130-e43f3836a02a
2019-11-09 07:07:36,a58b81ec-e350-4674-848b-7b989570333c,1,b108b4a2-d341-4bb9-9d5f-1f18b7671885,9cbb7170-b929-4500-996d-4c19f6f41c67
2019-11-09 07:07:36,14aa4e7b-0949-4995-9d7b-8313df0ca2bf,1,b108b4a2-d341-4bb9-9d5f-1f18b7671885,9cbb7170-b929-4500-996d-4c19f6f41c67
2019-11-09 05:46:03,695a5d7b-6555-42fb-be09-c272d7b2412e,1,212d4e8f-f2e3-4654-b55e-af55bf46b80a,b6fe12c5-9bf9-480a-a5ad-a99e4b24dce8
2019-11-09 05:46:03,21e73fcf-4ce3-4aba-97cd-0755269908a3,1,212d4e8f-f2e3-4654-b55e-af55bf46b80a,34bce75e-a02c-4a0b-9130-e43f3836a02a
2019-11-09 05:46:03,a25b024f-e1a3-43b4-b119-9303cd0d4100,1,212d4e8f-f2e3-4654-b55e-af55bf46b80a,34bce75e-a02c-4a0b-9130-e43f3836a02a
2019-11-09 05:47:06,3ad3399c-afb9-435d-b3ee-1e406f18bb75,1,212d4e8f-f2e3-4654-b55e-af55bf46b80a,b108b4a2-d341-4bb9-9d5f-1f18b7671885
2019-11-09 05:47:06,484d8928-263f-42cc-ba37-7f615d25a797,1,212d4e8f-f2e3-4654-b55e-af55bf46b80a,b108b4a2-d341-4bb9-9d5f-1f18b7671885
2019-11-09 05:47:06,f67c02ba-437a-4b95-8dcf-c4e51585e5a9,1,212d4e8f-f2e3-4654-b55e-af55bf46b80a,b108b4a2-d341-4bb9-9d5f-1f18b7671885
2019-11-09 05:48:08,e805d0d7-1cf7-4e2a-9c9f-cf6cf38d9ebd,1,212d4e8f-f2e3-4654-b55e-af55bf46b80a,3b6ebdfb-dce3-48fd-aac3-fb2c283be8d4
2019-11-09 05:48:08,13fdb88c-ae9f-4f70-aee9-d744b39caeaa,1,212d4e8f-f2e3-4654-b55e-af55bf46b80a,58b43805-2c5a-4f5b-9af5-1b52eb73707d
2019-11-09 05:48:08,7db77c72-5a17-4426-b207-2eb57e94f24a,1,212d4e8f-f2e3-4654-b55e-af55bf46b80a,3b6ebdfb-dce3-48fd-aac3-fb2c283be8d4
2019-11-09 05:49:11,263dfd83-7e35-40ae-8631-6ad64a1c2542,1,212d4e8f-f2e3-4654-b55e-af55bf46b80a,832d4e47-e417-4bd9-bed7-1ab4e4f29077
2019-11-09 05:49:11,472e2c8b-94d0-4836-8154-7e6b82ac86c4,1,212d4e8f-f2e3-4654-b55e-af55bf46b80a,832d4e47-e417-4bd9-bed7-1ab4e4f29077
2019-11-09 05:49:11,812e5c43-1ecb-4a86-a12d-41e87df95a7d,1,212d4e8f-f2e3-4654-b55e-af55bf46b80a,489f1ab1-7b7e-4381-ac21-f3c51f7bc7ba
2019-11-09 05:50:14,9c8620ef-d23c-4758-87e2-fcc2f2eb13c3,1,212d4e8f-f2e3-4654-b55e-af55bf46b80a,0b423b97-aeb9-4eb9-8b1a-1a090010bc0c
2019-11-09 05:50:14,450c04b8-f952-450e-a857-03599e8a3fc1,1,212d4e8f-f2e3-4654-b55e-af55bf46b80a,eded97bb-e241-4e6d-ae1b-5471d5839e05
2019-11-09 05:50:14,613d8db5-2686-4d3a-baa8-a1c13c6c9f80,1,212d4e8f-f2e3-4654-b55e-af55bf46b80a,0b423b97-aeb9-4eb9-8b1a-1a090010bc0c
2019-11-09 05:51:17,81b91d3c-f5d7-42ba-a4c0-5d365e36d306,1,212d4e8f-f2e3-4654-b55e-af55bf46b80a,0adf23f0-694f-4359-b871-66785fba13ac
2019-11-09 05:51:17,d31103da-c5c2-4469-92d1-85e6fedb9e1d,1,212d4e8f-f2e3-4654-b55e-af55bf46b80a,0adf23f0-694f-4359-b871-66785fba13ac
2019-11-09 05:51:17,58b6ad0d-73ec-4b0a-a7c1-12385a533769,1,212d4e8f-f2e3-4654-b55e-af55bf46b80a,8fb5d4c5-2c11-48cd-8e51-bb5765bb8111
2019-11-09 05:52:20,f32fef79-0a53-4964-b364-bbe585503ea6,1,212d4e8f-f2e3-4654-b55e-af55bf46b80a,e60c233c-bdac-40e4-99fb-f5dcd3a0c81a
2019-11-09 05:52:20,8dc26c4d-927e-438d-a20d-3e3aae3b386e,1,212d4e8f-f2e3-4654-b55e-af55bf46b80a,e60c233c-bdac-40e4-99fb-f5dcd3a0c81a
2019-11-09 05:52:20,f69ed7f2-61dc-4e42-b046-8f468f4a3418,1,212d4e8f-f2e3-4654-b55e-af55bf46b80a,e60c233c-bdac-40e4-99fb-f5dcd3a0c81a
2019-11-09 05:53:23,d0d625aa-7f79-4b88-9884-dba8dc74f9a2,1,212d4e8f-f2e3-4654-b55e-af55bf46b80a,9e6fb8c1-ff15-40cb-a57c-676ed13cc735
2019-11-09 05:53:23,bea3d1b2-18f4-4cf0-81ac-3b45ffa29276,1,212d4e8f-f2e3-4654-b55e-af55bf46b80a,14e83bec-db4e-4640-85d5-b445a5e50b9c
2019-11-09 05:53:23,a6fd6d0b-8b5e-41dc-baf2-bedea8aa60c6,1,212d4e8f-f2e3-4654-b55e-af55bf46b80a,9e6fb8c1-ff15-40cb-a57c-676ed13cc735
2019-11-09 05:54:26,5906a48b-ca26-4208-8308-4971b2034efd,1,212d4e8f-f2e3-4654-b55e-af55bf46b80a,a5dbe1fd-0dfe-4680-842f-05faa19cef08
2019-11-09 05:54:26,d7e4964d-cb88-4496-8045-d152ee194e95,1,212d4e8f-f2e3-4654-b55e-af55bf46b80a,9e472621-f36f-408b-9697-8675ed247277
2019-11-09 05:54:26,5f17cf84-9c6a-4067-992c-38e3aeda44d2,1,212d4e8f-f2e3-4654-b55e-af55bf46b80a,a5dbe1fd-0dfe-4680-842f-05faa19cef08
2019-11-09 05:55:29,06240729-7865-43ca-9884-0c83986e8826,1,212d4e8f-f2e3-4654-b55e-af55bf46b80a,5b3f9692-80cc-474c-82e2-43f1a1671272
2019-11-09 05:55:29,001b3002-0a1d-45bf-9c7b-4589f050cdbb,1,212d4e8f-f2e3-4654-b55e-af55bf46b80a,e0b0fd7a-df1f-4e7c-a567-ff2b3ea89452
2019-11-09 05:55:29,f74355ce-ddb3-4b03-ba18-9192265eab4d,1,212d4e8f-f2e3-4654-b55e-af55bf46b80a,5b3f9692-80cc-474c-82e2-43f1a1671272
2019-11-09 05:56:31,f45cf3b9-f7e5-44ed-89b5-17f07836d498,1,212d4e8f-f2e3-4654-b55e-af55bf46b80a,660b016c-91d2-4c7c-853c-8cf4a01b32f8
2019-11-09 05:56:31,c2d68123-ba44-4925-9da0-e55b55bf7a63,1,212d4e8f-f2e3-4654-b55e-af55bf46b80a,1ab02509-908c-408c-babc-931d42e8d255
2019-11-09 05:56:31,e6816408-346f-402f-8466-20e227e14b41,1,212d4e8f-f2e3-4654-b55e-af55bf46b80a,660b016c-91d2-4c7c-853c-8cf4a01b32f8
2019-11-09 05:57:34,db25b87d-ef0f-493e-a289-0e90bb4dc2f6,1,212d4e8f-f2e3-4654-b55e-af55bf46b80a,064ba3dd-093b-470e-9702-5cc2f6954bec
2019-11-09 05:57:34,d9062600-8438-4299-96b6-4253c47dfdf7,1,212d4e8f-f2e3-4654-b55e-af55bf46b80a,064ba3dd-093b-470e-9702-5cc2f6954bec
2019-11-09 05:57:34,041cfa5c-cdc8-4741-983b-47c10f31ce2e,1,212d4e8f-f2e3-4654-b55e-af55bf46b80a,e1b6688e-8f20-4877-98fe-93d6ff841a99
2019-11-09 05:58:37,ac44e2e0-0b31-4269-be79-4d00e1338075,1,212d4e8f-f2e3-4654-b55e-af55bf46b80a,7b888feb-a5c2-4761-b50e-0f0844ec1770
2019-11-09 05:58:37,2f0e0918-2f05-494f-88c8-f90ba1827ef5,1,212d4e8f-f2e3-4654-b55e-af55bf46b80a,7b888feb-a5c2-4761-b50e-0f0844ec1770
2019-11-09 05:58:37,e469e0ea-400d-438d-9c64-30eab7235fe7,1,212d4e8f-f2e3-4654-b55e-af55bf46b80a,a31bcf14-8783-42b7-89e2-95c0ad074f59
2019-11-09 05:59:40,1548c136-159d-4b25-863b-211b096e75e4,1,212d4e8f-f2e3-4654-b55e-af55bf46b80a,9cbb7170-b929-4500-996d-4c19f6f41c67
2019-11-09 05:59:40,7822d8e8-e885-4f0e-8744-ca0b7779a0dc,1,212d4e8f-f2e3-4654-b55e-af55bf46b80a,9cbb7170-b929-4500-996d-4c19f6f41c67
2019-11-09 05:59:40,dd753625-f047-4f0a-9dad-f5ba5ca40a66,1,212d4e8f-f2e3-4654-b55e-af55bf46b80a,7d85cb75-6abc-4c8b-8c12-64a49e7bd6b3
2019-11-09 06:00:43,bfa4a59e-d529-48f1-bab8-478e6b3783b1,1,212d4e8f-f2e3-4654-b55e-af55bf46b80a,0135650c-cb02-42a1-9d14-8fb9ef8e33a5
2019-11-09 06:00:43,e91de2dd-8cc8-40da-b432-0ec46525e496,1,212d4e8f-f2e3-4654-b55e-af55bf46b80a,3f993c59-cd62-4810-bc4c-cf083e076e6a
2019-11-09 06:00:43,7b59d535-5996-4db2-98cf-0892b48be0c4,1,212d4e8f-f2e3-4654-b55e-af55bf46b80a,0135650c-cb02-42a1-9d14-8fb9ef8e33a5
2019-11-09 06:01:45,3b7c8453-90aa-4c6b-894e-53bda70b0b03,1,212d4e8f-f2e3-4654-b55e-af55bf46b80a,e8c7c7c9-1864-4d15-9743-6351f12c2411
2019-11-09 06:01:45,5693da2b-355a-4f27-9a3c-9784f7ae48e5,1,212d4e8f-f2e3-4654-b55e-af55bf46b80a,34bce75e-a02c-4a0b-9130-e43f3836a02a
2019-11-09 06:01:45,043c980d-137a-4ea9-80f6-0a31ea218fb2,1,212d4e8f-f2e3-4654-b55e-af55bf46b80a,34bce75e-a02c-4a0b-9130-e43f3836a02a
2019-11-09 06:02:48,a3b52ae2-ea1f-4225-b1b2-2dd74905045c,1,212d4e8f-f2e3-4654-b55e-af55bf46b80a,d689fe28-3634-4700-86ba-d4ab27b3cf08
2019-11-09 06:02:48,91f834f9-2c1e-488e-a360-dda641ce1a25,1,212d4e8f-f2e3-4654-b55e-af55bf46b80a,b108b4a2-d341-4bb9-9d5f-1f18b7671885
2019-11-09 06:02:48,fa46ab93-53ac-419e-bce0-fc15c4339cae,1,212d4e8f-f2e3-4654-b55e-af55bf46b80a,b108b4a2-d341-4bb9-9d5f-1f18b7671885
2019-11-09 06:03:51,0a62881f-6ef1-43f9-824d-69c2648b038a,1,212d4e8f-f2e3-4654-b55e-af55bf46b80a,3b6ebdfb-dce3-48fd-aac3-fb2c283be8d4
2019-11-09 06:03:51,87a4879e-1dde-475a-a758-e9a549feed14,1,212d4e8f-f2e3-4654-b55e-af55bf46b80a,3b6ebdfb-dce3-48fd-aac3-fb2c283be8d4
2019-11-09 06:03:51,7d040ea8-19c0-4dd1-bed0-e3abd2698858,1,212d4e8f-f2e3-4654-b55e-af55bf46b80a,0ebc39d4-af59-4075-bf2f-afd13eccdffe
2019-11-09 06:04:54,3903eecf-5c61-4a20-8fbb-0256edf329b6,1,212d4e8f-f2e3-4654-b55e-af55bf46b80a,832d4e47-e417-4bd9-bed7-1ab4e4f29077
2019-11-09 06:04:54,b91b1611-9e13-4c35-9349-9581bb3a1d3b,1,212d4e8f-f2e3-4654-b55e-af55bf46b80a,832d4e47-e417-4bd9-bed7-1ab4e4f29077
2019-11-09 06:04:54,8126c47c-bd04-4502-80b4-dc7854ea7536,1,212d4e8f-f2e3-4654-b55e-af55bf46b80a,1c73f658-78f5-49f8-932f-8edad81fca59
2019-11-09 06:05:56,ad6a35e3-47ef-421d-b24f-7d6a7b35e75b,1,212d4e8f-f2e3-4654-b55e-af55bf46b80a,0b423b97-aeb9-4eb9-8b1a-1a090010bc0c
2019-11-09 06:05:56,28300792-1a46-4f78-8d08-cc4ddaca58d2,1,212d4e8f-f2e3-4654-b55e-af55bf46b80a,0b423b97-aeb9-4eb9-8b1a-1a090010bc0c
2019-11-09 06:05:56,b7f7c3b8-6893-4ef9-a4df-856e0ee67067,1,212d4e8f-f2e3-4654-b55e-af55bf46b80a,afdc3103-cbe3-4cf7-8415-e7d81dfa12a7
2019-11-09 06:06:59,a60afdbd-3427-4d9d-b0c9-f26dd8731f36,1,212d4e8f-f2e3-4654-b55e-af55bf46b80a,20610e78-8552-4e70-8ab0-5074b0aad6c1
2019-11-09 06:06:59,52635de6-fc67-41b7-9816-71bdfa79cf9f,1,212d4e8f-f2e3-4654-b55e-af55bf46b80a,0adf23f0-694f-4359-b871-66785fba13ac
2019-11-09 06:06:59,17e24601-d702-41da-95a9-6afa498bda76,1,212d4e8f-f2e3-4654-b55e-af55bf46b80a,0adf23f0-694f-4359-b871-66785fba13ac
2019-11-09 06:08:02,4fe02e92-efb3-4daf-bdf8-7a6297f022ee,1,212d4e8f-f2e3-4654-b55e-af55bf46b80a,e60c233c-bdac-40e4-99fb-f5dcd3a0c81a
2019-11-09 06:08:02,e13423bf-7d82-43a0-aea4-93a7b5628a7d,1,212d4e8f-f2e3-4654-b55e-af55bf46b80a,e60c233c-bdac-40e4-99fb-f5dcd3a0c81a
2019-11-09 06:08:02,898ceead-234f-4615-b6c9-5178344730a7,1,212d4e8f-f2e3-4654-b55e-af55bf46b80a,75832dd9-56f0-4897-9c8e-ed0fb1b9d901
2019-11-09 06:09:05,5e6641c5-135b-4c17-ae8e-3ba4f32830b0,1,212d4e8f-f2e3-4654-b55e-af55bf46b80a,9e6fb8c1-ff15-40cb-a57c-676ed13cc735
2019-11-09 06:09:05,be6cbfbb-2678-4efc-b2f2-51802a927b34,1,212d4e8f-f2e3-4654-b55e-af55bf46b80a,bfa471e0-0963-45b3-bae7-96e65e460482
2019-11-09 06:09:05,2de999f8-67fa-402c-bae8-c6635729e99d,1,212d4e8f-f2e3-4654-b55e-af55bf46b80a,9e6fb8c1-ff15-40cb-a57c-676ed13cc735
2019-11-09 06:10:08,501f2da4-d5be-4650-83d3-c98b3fa31fad,1,212d4e8f-f2e3-4654-b55e-af55bf46b80a,a5dbe1fd-0dfe-4680-842f-05faa19cef08
2019-11-09 06:10:08,62cd28a5-7a36-4d0b-8062-9786f1d45502,1,212d4e8f-f2e3-4654-b55e-af55bf46b80a,a5dbe1fd-0dfe-4680-842f-05faa19cef08
2019-11-09 06:10:08,47e7589b-1558-40fa-98b8-67dd3a641ba8,1,212d4e8f-f2e3-4654-b55e-af55bf46b80a,bc8c9f1b-f265-48d1-abda-cc54ef4a1e64
2019-11-09 06:11:10,e9c87dd3-7cde-46a6-9a55-d39fd0e7f9e4,1,212d4e8f-f2e3-4654-b55e-af55bf46b80a,5b3f9692-80cc-474c-82e2-43f1a1671272
2019-11-09 06:11:10,357406a0-54dd-41af-b64c-3d05439d0f5b,1,212d4e8f-f2e3-4654-b55e-af55bf46b80a,5b3f9692-80cc-474c-82e2-43f1a1671272
2019-11-09 06:11:10,743d0dd8-4bc0-4482-b517-bf9672df05a4,1,212d4e8f-f2e3-4654-b55e-af55bf46b80a,2822937d-03b1-4247-9e91-021ac1fd8cbe
2019-11-09 06:12:13,ef8d4d59-8a57-4d8d-a370-cc9359d16ef4,1,212d4e8f-f2e3-4654-b55e-af55bf46b80a,660b016c-91d2-4c7c-853c-8cf4a01b32f8
2019-11-09 06:12:13,f3c809f4-7862-465a-b379-4e91bb378181,1,212d4e8f-f2e3-4654-b55e-af55bf46b80a,8253d204-9e11-4ff7-8c12-84d33bbc8175
2019-11-09 06:12:13,625eb208-a1b2-4c49-ae14-e0a1ce9d1b3d,1,212d4e8f-f2e3-4654-b55e-af55bf46b80a,660b016c-91d2-4c7c-853c-8cf4a01b32f8
2019-11-09 06:13:16,0c944e8c-cfa7-435e-a45b-a0fe2ffbaf5e,1,212d4e8f-f2e3-4654-b55e-af55bf46b80a,064ba3dd-093b-470e-9702-5cc2f6954bec
2019-11-09 06:13:16,575beca2-f477-4b7c-99a9-07456b67281c,1,212d4e8f-f2e3-4654-b55e-af55bf46b80a,064ba3dd-093b-470e-9702-5cc2f6954bec
2019-11-09 06:13:16,1cea20a9-2258-437a-adf1-d8bc0d01919f,1,212d4e8f-f2e3-4654-b55e-af55bf46b80a,efaab897-7bbe-4d7f-ab84-5081c6c6e4f0
2019-11-09 06:14:19,1583a896-c390-4921-8c10-229ab85cc856,1,212d4e8f-f2e3-4654-b55e-af55bf46b80a,7b888feb-a5c2-4761-b50e-0f0844ec1770
2019-11-09 06:14:19,77042ad6-0447-4691-a58b-15825dd9b791,1,212d4e8f-f2e3-4654-b55e-af55bf46b80a,4ea796f9-4ff8-401b-8674-84191b5dfc0f
2019-11-09 06:14:19,302a57ee-d06f-4ad1-a848-9cad9de1f408,1,212d4e8f-f2e3-4654-b55e-af55bf46b80a,7b888feb-a5c2-4761-b50e-0f0844ec1770
2019-11-09 06:15:22,1f2b3386-4bf8-47e8-97d5-aa9f0c330bbc,1,212d4e8f-f2e3-4654-b55e-af55bf46b80a,9cbb7170-b929-4500-996d-4c19f6f41c67
2019-11-09 06:15:22,1b6f2b64-1b0c-4557-91e3-eccbc6c79f4d,1,212d4e8f-f2e3-4654-b55e-af55bf46b80a,9cbb7170-b929-4500-996d-4c19f6f41c67
2019-11-09 06:15:22,821435fc-8f37-485d-8cdc-ec586c119c80,1,212d4e8f-f2e3-4654-b55e-af55bf46b80a,b935726b-08a6-4e76-a5e4-e9adc91d5a50
2019-11-09 06:16:25,dadb4f55-2065-4dfc-9349-cae7e14944f5,1,212d4e8f-f2e3-4654-b55e-af55bf46b80a,0135650c-cb02-42a1-9d14-8fb9ef8e33a5
2019-11-09 06:16:25,39f9fe27-3558-4f3e-ba39-fca1d8bbbb58,1,212d4e8f-f2e3-4654-b55e-af55bf46b80a,fb6b35fd-8004-4dd1-9be7-b1727f7a039e
2019-11-09 06:16:25,cfe6ccf5-b8cb-4b54-a45c-b3125b00ade5,1,212d4e8f-f2e3-4654-b55e-af55bf46b80a,0135650c-cb02-42a1-9d14-8fb9ef8e33a5
2019-11-09 06:17:28,50ce1727-25fd-4a5d-848c-fee025c66073,1,212d4e8f-f2e3-4654-b55e-af55bf46b80a,ffa6f436-fd07-4966-83d6-42d192b24088
2019-11-09 06:17:28,4067f26c-0e2e-4ef4-a709-9cf06273b96d,1,212d4e8f-f2e3-4654-b55e-af55bf46b80a,34bce75e-a02c-4a0b-9130-e43f3836a02a
2019-11-09 06:17:28,95a09f5d-36fd-4719-8010-c1150733d1dc,1,212d4e8f-f2e3-4654-b55e-af55bf46b80a,34bce75e-a02c-4a0b-9130-e43f3836a02a
2019-11-09 06:18:30,c4e42e8f-a162-4351-a2f4-f9ba68b7aaf2,1,212d4e8f-f2e3-4654-b55e-af55bf46b80a,b108b4a2-d341-4bb9-9d5f-1f18b7671885
2019-11-09 06:18:30,e4d2a870-3e8a-4c16-ba1d-e4e473d6ab76,1,212d4e8f-f2e3-4654-b55e-af55bf46b80a,b108b4a2-d341-4bb9-9d5f-1f18b7671885
2019-11-09 06:18:30,1fef727e-ce4f-45d8-8ec0-9b5936f66c93,1,212d4e8f-f2e3-4654-b55e-af55bf46b80a,886208e3-4f57-4bdb-b330-819e430412f6
2019-11-09 06:19:33,f98745a4-9b34-4a82-9db5-59a9e29ffde4,1,212d4e8f-f2e3-4654-b55e-af55bf46b80a,3b6ebdfb-dce3-48fd-aac3-fb2c283be8d4
2019-11-09 06:19:33,cc102a77-7a36-497a-a4d4-84fb72b11e02,1,212d4e8f-f2e3-4654-b55e-af55bf46b80a,06a70b33-8ba6-4fd2-ad4d-ae5c6eb5e891
2019-11-09 06:19:33,364d4fd5-40cb-490c-ae09-a2c4dffa6c81,1,212d4e8f-f2e3-4654-b55e-af55bf46b80a,3b6ebdfb-dce3-48fd-aac3-fb2c283be8d4
2019-11-09 06:20:36,41a0b8cd-347b-4313-be80-8a46a240a69d,1,212d4e8f-f2e3-4654-b55e-af55bf46b80a,27a776da-e41b-433d-a138-71689c73e809
2019-11-09 06:20:36,a58b81ec-e350-4674-848b-7b989570333c,1,212d4e8f-f2e3-4654-b55e-af55bf46b80a,832d4e47-e417-4bd9-bed7-1ab4e4f29077
2019-11-09 06:20:36,14aa4e7b-0949-4995-9d7b-8313df0ca2bf,1,212d4e8f-f2e3-4654-b55e-af55bf46b80a,832d4e47-e417-4bd9-bed7-1ab4e4f29077
2019-11-09 06:21:38,399f758e-7efc-45fb-ac5e-ab4f99aef9cd,1,212d4e8f-f2e3-4654-b55e-af55bf46b80a,a24db2a7-422c-4836-a5e5-183e0623ff7e
2019-11-09 06:21:38,c386185c-5c40-4834-8be8-2a967e79d6f8,1,212d4e8f-f2e3-4654-b55e-af55bf46b80a,0b423b97-aeb9-4eb9-8b1a-1a090010bc0c
2019-11-09 06:21:38,21aa2053-151b-43b6-99b1-52f83499a821,1,212d4e8f-f2e3-4654-b55e-af55bf46b80a,0b423b97-aeb9-4eb9-8b1a-1a090010bc0c
2019-11-09 06:22:41,b95644ad-97eb-4c71-a633-78f5be8d189c,1,212d4e8f-f2e3-4654-b55e-af55bf46b80a,688e8ccb-dcc4-4921-afe9-b370f518b60e
2019-11-09 06:22:41,e5b5bf65-370c-4034-94c3-40cfb22d1ad5,1,212d4e8f-f2e3-4654-b55e-af55bf46b80a,0adf23f0-694f-4359-b871-66785fba13ac
2019-11-09 06:22:41,4542e9d2-1def-4a33-b6b0-4fc0e2a9e989,1,212d4e8f-f2e3-4654-b55e-af55bf46b80a,0adf23f0-694f-4359-b871-66785fba13ac
2019-11-09 06:23:44,5175889c-d832-4ce2-a181-8be82f96d72d,1,212d4e8f-f2e3-4654-b55e-af55bf46b80a,e60c233c-bdac-40e4-99fb-f5dcd3a0c81a
2019-11-09 06:23:44,8a45be62-57d6-4df6-924b-a3b1474b7a6b,1,212d4e8f-f2e3-4654-b55e-af55bf46b80a,e60c233c-bdac-40e4-99fb-f5dcd3a0c81a
2019-11-09 06:23:44,133cf722-c6a6-481e-bddf-babfe50ee1fb,1,212d4e8f-f2e3-4654-b55e-af55bf46b80a,37a9a965-1c4c-47e1-99b9-e3dda3d20586
2019-11-09 06:24:47,30917e6b-3c66-453c-904b-66839c27c630,1,212d4e8f-f2e3-4654-b55e-af55bf46b80a,9e6fb8c1-ff15-40cb-a57c-676ed13cc735
2019-11-09 06:24:47,663f346f-e942-4b4d-b5f9-b98eea5ad56b,1,212d4e8f-f2e3-4654-b55e-af55bf46b80a,fc4f654d-43c7-44ad-b887-5c42485114a7
2019-11-09 06:24:47,b0ce16e0-bec3-4af3-8c26-07b989633774,1,212d4e8f-f2e3-4654-b55e-af55bf46b80a,9e6fb8c1-ff15-40cb-a57c-676ed13cc735
2019-11-09 06:25:50,4df5a9dc-b1f7-477e-b02a-6b8cf256fb59,1,212d4e8f-f2e3-4654-b55e-af55bf46b80a,c30da44e-699e-4845-8138-4cb954a9609f
2019-11-09 06:25:50,ffd3de64-af13-4ccf-b7ca-d11ca34bb066,1,212d4e8f-f2e3-4654-b55e-af55bf46b80a,a5dbe1fd-0dfe-4680-842f-05faa19cef08
2019-11-09 06:25:50,72829944-44cd-4fcf-835d-9ef6aa20dc9e,1,212d4e8f-f2e3-4654-b55e-af55bf46b80a,a5dbe1fd-0dfe-4680-842f-05faa19cef08
2019-11-09 06:26:52,480d705c-36c8-42fa-a42e-6d31694965bf,1,212d4e8f-f2e3-4654-b55e-af55bf46b80a,5b3f9692-80cc-474c-82e2-43f1a1671272
2019-11-09 06:26:52,bca6550d-34c5-4335-81d1-49e863683b83,1,212d4e8f-f2e3-4654-b55e-af55bf46b80a,5b3f9692-80cc-474c-82e2-43f1a1671272
2019-11-09 06:26:52,ca5c39a2-73bd-4430-90f2-8fcb4cbf13ed,1,212d4e8f-f2e3-4654-b55e-af55bf46b80a,3ff4f42e-c98b-40a4-9490-3ce76ea6f413
2019-11-09 06:27:55,0376e716-60c5-4213-9bde-7251523108bf,1,212d4e8f-f2e3-4654-b55e-af55bf46b80a,1ad27e26-b852-4669-a0ee-4a2093757aa5
2019-11-09 06:27:55,5dad52ac-8db7-4193-aaa4-90907e5dce96,1,212d4e8f-f2e3-4654-b55e-af55bf46b80a,660b016c-91d2-4c7c-853c-8cf4a01b32f8
2019-11-09 06:27:55,d09bef53-4940-4211-9c27-2b5c9c3c4255,1,212d4e8f-f2e3-4654-b55e-af55bf46b80a,660b016c-91d2-4c7c-853c-8cf4a01b32f8
2019-11-09 06:28:58,67aa548b-f32b-450d-b0d0-96325bd1b046,1,212d4e8f-f2e3-4654-b55e-af55bf46b80a,064ba3dd-093b-470e-9702-5cc2f6954bec
2019-11-09 06:28:58,17bc5cb9-9feb-49f4-aeac-24bb34ae6cb0,1,212d4e8f-f2e3-4654-b55e-af55bf46b80a,064ba3dd-093b-470e-9702-5cc2f6954bec
2019-11-09 06:28:58,1a48233e-0b18-4160-91a2-edd4c1b1f23b,1,212d4e8f-f2e3-4654-b55e-af55bf46b80a,064ba3dd-093b-470e-9702-5cc2f6954bec
2019-11-09 06:30:01,609ff7cc-de9c-4671-b954-5d4109141fbf,1,212d4e8f-f2e3-4654-b55e-af55bf46b80a,7b888feb-a5c2-4761-b50e-0f0844ec1770
2019-11-09 06:30:01,f20bfb5e-032f-472e-accf-980d76748bcb,1,212d4e8f-f2e3-4654-b55e-af55bf46b80a,6b59785a-5038-468c-9c92-f03c94dfac7a
2019-11-09 06:30:01,5a66a112-4f8f-4f63-b9e6-7509d0537fb7,1,212d4e8f-f2e3-4654-b55e-af55bf46b80a,7b888feb-a5c2-4761-b50e-0f0844ec1770
2019-11-09 06:31:04,8e89d414-6cab-406d-a80c-21ae862f3fd5,1,212d4e8f-f2e3-4654-b55e-af55bf46b80a,9cbb7170-b929-4500-996d-4c19f6f41c67
2019-11-09 06:31:04,585031a7-08e4-4244-a3a3-2e596b28b8e5,1,212d4e8f-f2e3-4654-b55e-af55bf46b80a,9cbb7170-b929-4500-996d-4c19f6f41c67
2019-11-09 06:31:04,ae38ead1-9591-4fc8-b618-c57f210647af,1,212d4e8f-f2e3-4654-b55e-af55bf46b80a,bb328e1f-4351-4a92-b572-78bcf24f2e13
2019-11-09 06:32:06,3f6c413e-1a75-4ff8-9663-0b7a05567ab5,1,212d4e8f-f2e3-4654-b55e-af55bf46b80a,0135650c-cb02-42a1-9d14-8fb9ef8e33a5
2019-11-09 06:32:07,bd710259-f3eb-41d6-ad8f-cf315bbfedca,1,212d4e8f-f2e3-4654-b55e-af55bf46b80a,bdcf5341-1f45-4d69-8c00-54875c7f6f98
2019-11-09 06:32:07,de2ed21e-c32c-43b6-bae9-fc23f41467bc,1,212d4e8f-f2e3-4654-b55e-af55bf46b80a,0135650c-cb02-42a1-9d14-8fb9ef8e33a5
2019-11-09 06:33:09,f7786939-5f4a-4b46-a994-5d74908d160e,1,212d4e8f-f2e3-4654-b55e-af55bf46b80a,359b51c0-a000-4c40-96d6-5aff713f28c4
2019-11-09 06:33:09,23337ef3-1ac2-461a-94ae-e2aa992b5acb,1,212d4e8f-f2e3-4654-b55e-af55bf46b80a,34bce75e-a02c-4a0b-9130-e43f3836a02a
2019-11-09 06:33:09,7996e578-3ec9-4821-829f-abe99cb04b66,1,212d4e8f-f2e3-4654-b55e-af55bf46b80a,34bce75e-a02c-4a0b-9130-e43f3836a02a
2019-11-09 06:34:12,fde4c5c4-1907-44d0-a031-ad4febc65516,1,212d4e8f-f2e3-4654-b55e-af55bf46b80a,b108b4a2-d341-4bb9-9d5f-1f18b7671885
2019-11-09 06:34:12,7113b92b-51cd-41c4-82bd-fa877184ecf2,1,212d4e8f-f2e3-4654-b55e-af55bf46b80a,4bf21adc-4e15-40b0-b44c-4b978c56304f
2019-11-09 06:34:12,cba9f4f0-79d1-4b4b-85e6-1ab8b0ccc884,1,212d4e8f-f2e3-4654-b55e-af55bf46b80a,b108b4a2-d341-4bb9-9d5f-1f18b7671885
2019-11-09 06:35:15,aa3cb351-f4e0-46d8-9ed5-5546b29c28bc,1,212d4e8f-f2e3-4654-b55e-af55bf46b80a,3b6ebdfb-dce3-48fd-aac3-fb2c283be8d4
2019-11-09 06:35:15,cadd6aa1-137d-40e5-9b97-3ab2a0e87b01,1,212d4e8f-f2e3-4654-b55e-af55bf46b80a,3b6ebdfb-dce3-48fd-aac3-fb2c283be8d4
2019-11-09 06:35:15,7eb751bc-47da-4288-a348-80153c053eef,1,212d4e8f-f2e3-4654-b55e-af55bf46b80a,7b7e57a1-2fa2-41c3-8048-973428e4b047
2019-11-09 06:36:18,7680a4bc-2239-44ba-b41d-976b03953ad6,1,212d4e8f-f2e3-4654-b55e-af55bf46b80a,832d4e47-e417-4bd9-bed7-1ab4e4f29077
2019-11-09 06:36:18,7657110b-2c44-4664-8292-b8001292d93f,1,212d4e8f-f2e3-4654-b55e-af55bf46b80a,436749cb-84e2-4190-aedc-bb8dd1286834
2019-11-09 06:36:18,cbb63501-9c56-4b1c-80ca-c6802e465ff0,1,212d4e8f-f2e3-4654-b55e-af55bf46b80a,832d4e47-e417-4bd9-bed7-1ab4e4f29077
2019-11-09 06:37:20,ea15730e-171e-4f27-bfe8-39f1bfc0d14a,1,212d4e8f-f2e3-4654-b55e-af55bf46b80a,2a045276-d173-4f41-a329-b46fecc5a338
2019-11-09 06:37:20,4cd37384-e902-4f4f-96c5-df3f4000f7cb,1,212d4e8f-f2e3-4654-b55e-af55bf46b80a,0b423b97-aeb9-4eb9-8b1a-1a090010bc0c
2019-11-09 06:37:20,4d01539c-fae8-4795-8302-16e6c00ef052,1,212d4e8f-f2e3-4654-b55e-af55bf46b80a,0b423b97-aeb9-4eb9-8b1a-1a090010bc0c
2019-11-09 06:42:14,81b91d3c-f5d7-42ba-a4c0-5d365e36d306,1,0b423b97-aeb9-4eb9-8b1a-1a090010bc0c,0135650c-cb02-42a1-9d14-8fb9ef8e33a5
2019-11-09 06:42:14,d31103da-c5c2-4469-92d1-85e6fedb9e1d,1,0b423b97-aeb9-4eb9-8b1a-1a090010bc0c,0135650c-cb02-42a1-9d14-8fb9ef8e33a5
2019-11-09 06:37:29,263dfd83-7e35-40ae-8631-6ad64a1c2542,1,832d4e47-e417-4bd9-bed7-1ab4e4f29077,3b6ebdfb-dce3-48fd-aac3-fb2c283be8d4
2019-11-09 06:37:29,472e2c8b-94d0-4836-8154-7e6b82ac86c4,1,832d4e47-e417-4bd9-bed7-1ab4e4f29077,3b6ebdfb-dce3-48fd-aac3-fb2c283be8d4
2019-11-09 06:54:50,3903eecf-5c61-4a20-8fbb-0256edf329b6,1,832d4e47-e417-4bd9-bed7-1ab4e4f29077,b108b4a2-d341-4bb9-9d5f-1f18b7671885
2019-11-09 06:54:50,b91b1611-9e13-4c35-9349-9581bb3a1d3b,1,832d4e47-e417-4bd9-bed7-1ab4e4f29077,b108b4a2-d341-4bb9-9d5f-1f18b7671885
2019-11-09 06:55:04,a58b81ec-e350-4674-848b-7b989570333c,1,832d4e47-e417-4bd9-bed7-1ab4e4f29077,b108b4a2-d341-4bb9-9d5f-1f18b7671885
2019-11-09 06:55:04,14aa4e7b-0949-4995-9d7b-8313df0ca2bf,1,832d4e47-e417-4bd9-bed7-1ab4e4f29077,b108b4a2-d341-4bb9-9d5f-1f18b7671885
2019-11-09 06:54:50,8126c47c-bd04-4502-80b4-dc7854ea7536,1,1c73f658-78f5-49f8-932f-8edad81fca59,1c73f658-78f5-49f8-932f-8edad81fca59
2019-11-09 06:54:10,a3b52ae2-ea1f-4225-b1b2-2dd74905045c,1,d689fe28-3634-4700-86ba-d4ab27b3cf08,d689fe28-3634-4700-86ba-d4ab27b3cf08
2019-11-09 06:54:25,a3b52ae2-ea1f-4225-b1b2-2dd74905045c,1,d689fe28-3634-4700-86ba-d4ab27b3cf08,d689fe28-3634-4700-86ba-d4ab27b3cf08
2019-11-09 07:13:31,dd753625-f047-4f0a-9dad-f5ba5ca40a66,1,7d85cb75-6abc-4c8b-8c12-64a49e7bd6b3,7d85cb75-6abc-4c8b-8c12-64a49e7bd6b3
2019-11-09 07:13:56,dd753625-f047-4f0a-9dad-f5ba5ca40a66,1,7d85cb75-6abc-4c8b-8c12-64a49e7bd6b3,7d85cb75-6abc-4c8b-8c12-64a49e7bd6b3
2019-11-09 07:31:22,dd753625-f047-4f0a-9dad-f5ba5ca40a66,1,7d85cb75-6abc-4c8b-8c12-64a49e7bd6b3,7d85cb75-6abc-4c8b-8c12-64a49e7bd6b3
2019-11-09 06:42:19,a60afdbd-3427-4d9d-b0c9-f26dd8731f36,1,20610e78-8552-4e70-8ab0-5074b0aad6c1,20610e78-8552-4e70-8ab0-5074b0aad6c1
2019-11-09 06:37:28,812e5c43-1ecb-4a86-a12d-41e87df95a7d,0,NA,NA
2019-11-09 06:42:04,58b6ad0d-73ec-4b0a-a7c1-12385a533769,0,NA,NA
2019-11-09 06:42:14,58b6ad0d-73ec-4b0a-a7c1-12385a533769,0,NA,NA
2019-11-09 06:45:04,a3b52ae2-ea1f-4225-b1b2-2dd74905045c,0,NA,NA
2019-11-09 06:45:19,a3b52ae2-ea1f-4225-b1b2-2dd74905045c,0,NA,NA
2019-11-09 06:55:04,41a0b8cd-347b-4313-be80-8a46a240a69d,0,NA,NA
2019-11-09 06:57:15,8126c47c-bd04-4502-80b4-dc7854ea7536,0,NA,NA
2019-11-09 06:57:30,8126c47c-bd04-4502-80b4-dc7854ea7536,0,NA,NA
2019-11-09 07:07:35,41a0b8cd-347b-4313-be80-8a46a240a69d,0,NA,NA
2019-11-09 07:07:40,1cea20a9-2258-437a-adf1-d8bc0d01919f,0,NA,NA
2019-11-09 07:07:45,41a0b8cd-347b-4313-be80-8a46a240a69d,0,NA,NA
2019-11-09 07:12:35,41a0b8cd-347b-4313-be80-8a46a240a69d,0,NA,NA
2019-11-09 07:31:06,58b6ad0d-73ec-4b0a-a7c1-12385a533769,0,NA,NA
