date,trigger,state
2019-09-06 04:37:54,2bfcdce8-eb25-485d-accd-9f2412781d3f,A
2019-09-06 04:45:43,2bfcdce8-eb25-485d-accd-9f2412781d3f,S
2019-09-06 04:47:13,2bfcdce8-eb25-485d-accd-9f2412781d3f,A
2019-09-06 04:49:51,2bfcdce8-eb25-485d-accd-9f2412781d3f,S
2019-09-06 04:54:32,2bfcdce8-eb25-485d-accd-9f2412781d3f,A
2019-09-06 05:09:14,2bfcdce8-eb25-485d-accd-9f2412781d3f,S
2019-09-06 05:09:49,2bfcdce8-eb25-485d-accd-9f2412781d3f,A
2019-09-06 05:15:19,2bfcdce8-eb25-485d-accd-9f2412781d3f,S
2019-09-06 05:22:32,2bfcdce8-eb25-485d-accd-9f2412781d3f,A
2019-09-06 05:23:07,2bfcdce8-eb25-485d-accd-9f2412781d3f,S
2019-09-06 05:34:57,2bfcdce8-eb25-485d-accd-9f2412781d3f,A
2019-09-06 05:38:05,2bfcdce8-eb25-485d-accd-9f2412781d3f,S
2019-09-06 05:49:56,2bfcdce8-eb25-485d-accd-9f2412781d3f,A
2019-09-06 06:01:52,2bfcdce8-eb25-485d-accd-9f2412781d3f,S
2019-09-06 06:06:45,2bfcdce8-eb25-485d-accd-9f2412781d3f,A
2019-09-06 06:07:17,2bfcdce8-eb25-485d-accd-9f2412781d3f,S
2019-09-06 06:07:36,2bfcdce8-eb25-485d-accd-9f2412781d3f,A
2019-09-06 06:07:46,2bfcdce8-eb25-485d-accd-9f2412781d3f,S
2019-09-06 06:08:57,2bfcdce8-eb25-485d-accd-9f2412781d3f,A
2019-09-06 06:12:38,2bfcdce8-eb25-485d-accd-9f2412781d3f,S
2019-09-06 06:21:29,2bfcdce8-eb25-485d-accd-9f2412781d3f,A
2019-09-06 04:21:44,533cfe79-3b06-487f-b1c6-dc6dc7d11945,S
2019-09-06 04:23:15,533cfe79-3b06-487f-b1c6-dc6dc7d11945,A
2019-09-06 04:24:04,533cfe79-3b06-487f-b1c6-dc6dc7d11945,S
2019-09-06 04:24:10,533cfe79-3b06-487f-b1c6-dc6dc7d11945,A
2019-09-06 04:24:16,533cfe79-3b06-487f-b1c6-dc6dc7d11945,S
2019-09-06 04:24:40,533cfe79-3b06-487f-b1c6-dc6dc7d11945,A
2019-09-06 04:29:25,533cfe79-3b06-487f-b1c6-dc6dc7d11945,S
2019-09-06 04:33:34,533cfe79-3b06-487f-b1c6-dc6dc7d11945,A
2019-09-06 04:35:22,533cfe79-3b06-487f-b1c6-dc6dc7d11945,S
2019-09-06 04:37:35,533cfe79-3b06-487f-b1c6-dc6dc7d11945,A
2019-09-06 04:48:13,533cfe79-3b06-487f-b1c6-dc6dc7d11945,S
2019-09-06 04:50:16,533cfe79-3b06-487f-b1c6-dc6dc7d11945,A
2019-09-06 04:59:25,533cfe79-3b06-487f-b1c6-dc6dc7d11945,S
2019-09-06 05:02:00,533cfe79-3b06-487f-b1c6-dc6dc7d11945,A
2019-09-06 05:10:36,533cfe79-3b06-487f-b1c6-dc6dc7d11945,S
2019-09-06 05:12:38,533cfe79-3b06-487f-b1c6-dc6dc7d11945,A
2019-09-06 05:14:26,533cfe79-3b06-487f-b1c6-dc6dc7d11945,S
2019-09-06 05:17:30,533cfe79-3b06-487f-b1c6-dc6dc7d11945,A
2019-09-06 05:17:37,533cfe79-3b06-487f-b1c6-dc6dc7d11945,S
2019-09-06 05:29:41,533cfe79-3b06-487f-b1c6-dc6dc7d11945,A
2019-09-06 05:33:20,533cfe79-3b06-487f-b1c6-dc6dc7d11945,S
2019-09-06 05:45:03,533cfe79-3b06-487f-b1c6-dc6dc7d11945,A
2019-09-06 05:45:48,533cfe79-3b06-487f-b1c6-dc6dc7d11945,S
2019-09-06 05:52:41,533cfe79-3b06-487f-b1c6-dc6dc7d11945,A
2019-09-06 05:54:01,533cfe79-3b06-487f-b1c6-dc6dc7d11945,S
2019-09-06 05:56:29,533cfe79-3b06-487f-b1c6-dc6dc7d11945,A
2019-09-06 06:04:54,533cfe79-3b06-487f-b1c6-dc6dc7d11945,S
2019-09-06 06:13:03,533cfe79-3b06-487f-b1c6-dc6dc7d11945,A
2019-09-06 04:58:03,19531777-ded0-43ba-9734-92050f028764,A
2019-09-06 04:59:54,19531777-ded0-43ba-9734-92050f028764,S
2019-09-06 05:09:23,19531777-ded0-43ba-9734-92050f028764,A
2019-09-06 05:23:30,19531777-ded0-43ba-9734-92050f028764,S
2019-09-06 05:25:06,19531777-ded0-43ba-9734-92050f028764,A
2019-09-06 05:26:40,19531777-ded0-43ba-9734-92050f028764,S
2019-09-06 05:28:33,19531777-ded0-43ba-9734-92050f028764,A
2019-09-06 05:35:01,19531777-ded0-43ba-9734-92050f028764,S
2019-09-06 05:39:55,19531777-ded0-43ba-9734-92050f028764,A
2019-09-06 05:47:26,19531777-ded0-43ba-9734-92050f028764,S
2019-09-06 05:47:28,19531777-ded0-43ba-9734-92050f028764,A
2019-09-06 05:47:48,19531777-ded0-43ba-9734-92050f028764,S
2019-09-06 05:50:08,19531777-ded0-43ba-9734-92050f028764,A
2019-09-06 05:53:20,19531777-ded0-43ba-9734-92050f028764,S
2019-09-06 05:54:06,19531777-ded0-43ba-9734-92050f028764,A
2019-09-06 06:05:06,19531777-ded0-43ba-9734-92050f028764,S
2019-09-06 06:05:54,19531777-ded0-43ba-9734-92050f028764,A
2019-09-06 06:06:20,19531777-ded0-43ba-9734-92050f028764,S
2019-09-06 06:08:33,19531777-ded0-43ba-9734-92050f028764,A
2019-09-06 06:10:47,19531777-ded0-43ba-9734-92050f028764,S
2019-09-06 06:11:06,19531777-ded0-43ba-9734-92050f028764,A
2019-09-06 06:20:31,19531777-ded0-43ba-9734-92050f028764,S
2019-09-06 04:34:08,db98204e-1d9b-47c0-9cb6-9bfccc6e8603,A
2019-09-06 04:41:01,db98204e-1d9b-47c0-9cb6-9bfccc6e8603,S
2019-09-06 04:45:47,db98204e-1d9b-47c0-9cb6-9bfccc6e8603,A
2019-09-06 04:52:21,db98204e-1d9b-47c0-9cb6-9bfccc6e8603,S
2019-09-06 04:58:16,db98204e-1d9b-47c0-9cb6-9bfccc6e8603,A
2019-09-06 05:08:54,db98204e-1d9b-47c0-9cb6-9bfccc6e8603,S
2019-09-06 05:16:09,db98204e-1d9b-47c0-9cb6-9bfccc6e8603,A
2019-09-06 05:18:36,db98204e-1d9b-47c0-9cb6-9bfccc6e8603,S
2019-09-06 05:20:17,db98204e-1d9b-47c0-9cb6-9bfccc6e8603,A
2019-09-06 05:24:54,db98204e-1d9b-47c0-9cb6-9bfccc6e8603,S
2019-09-06 05:29:55,db98204e-1d9b-47c0-9cb6-9bfccc6e8603,A
2019-09-06 05:39:50,db98204e-1d9b-47c0-9cb6-9bfccc6e8603,S
2019-09-06 05:39:54,db98204e-1d9b-47c0-9cb6-9bfccc6e8603,A
2019-09-06 05:44:34,db98204e-1d9b-47c0-9cb6-9bfccc6e8603,S
2019-09-06 05:46:18,db98204e-1d9b-47c0-9cb6-9bfccc6e8603,A
2019-09-06 05:53:01,db98204e-1d9b-47c0-9cb6-9bfccc6e8603,S
2019-09-06 05:53:07,db98204e-1d9b-47c0-9cb6-9bfccc6e8603,A
2019-09-06 05:55:50,db98204e-1d9b-47c0-9cb6-9bfccc6e8603,S
2019-09-06 06:02:43,db98204e-1d9b-47c0-9cb6-9bfccc6e8603,A
2019-09-06 04:27:12,7ae0d48f-cdcc-457a-8da3-6a2f83e0dd5f,S
2019-09-06 04:30:40,7ae0d48f-cdcc-457a-8da3-6a2f83e0dd5f,A
2019-09-06 04:36:42,7ae0d48f-cdcc-457a-8da3-6a2f83e0dd5f,S
2019-09-06 04:46:39,7ae0d48f-cdcc-457a-8da3-6a2f83e0dd5f,A
2019-09-06 05:06:47,7ae0d48f-cdcc-457a-8da3-6a2f83e0dd5f,S
2019-09-06 05:12:43,7ae0d48f-cdcc-457a-8da3-6a2f83e0dd5f,A
2019-09-06 05:23:32,7ae0d48f-cdcc-457a-8da3-6a2f83e0dd5f,S
2019-09-06 05:28:57,7ae0d48f-cdcc-457a-8da3-6a2f83e0dd5f,A
2019-09-06 05:33:14,7ae0d48f-cdcc-457a-8da3-6a2f83e0dd5f,S
2019-09-06 05:38:47,7ae0d48f-cdcc-457a-8da3-6a2f83e0dd5f,A
2019-09-06 05:38:59,7ae0d48f-cdcc-457a-8da3-6a2f83e0dd5f,S
2019-09-06 05:40:43,7ae0d48f-cdcc-457a-8da3-6a2f83e0dd5f,A
2019-09-06 05:46:38,7ae0d48f-cdcc-457a-8da3-6a2f83e0dd5f,S
2019-09-06 05:48:20,7ae0d48f-cdcc-457a-8da3-6a2f83e0dd5f,A
2019-09-06 05:52:51,7ae0d48f-cdcc-457a-8da3-6a2f83e0dd5f,S
2019-09-06 05:56:26,7ae0d48f-cdcc-457a-8da3-6a2f83e0dd5f,A
2019-09-06 06:01:44,7ae0d48f-cdcc-457a-8da3-6a2f83e0dd5f,S
2019-09-06 06:09:28,7ae0d48f-cdcc-457a-8da3-6a2f83e0dd5f,A
2019-09-06 04:59:03,2f725f11-fc94-4797-8f1e-9b60f82d155b,A
2019-09-06 05:07:58,2f725f11-fc94-4797-8f1e-9b60f82d155b,S
2019-09-06 05:18:41,2f725f11-fc94-4797-8f1e-9b60f82d155b,A
2019-09-06 05:24:13,2f725f11-fc94-4797-8f1e-9b60f82d155b,S
2019-09-06 05:26:51,2f725f11-fc94-4797-8f1e-9b60f82d155b,A
2019-09-06 05:27:36,2f725f11-fc94-4797-8f1e-9b60f82d155b,S
2019-09-06 05:32:16,2f725f11-fc94-4797-8f1e-9b60f82d155b,A
2019-09-06 05:34:06,2f725f11-fc94-4797-8f1e-9b60f82d155b,S
2019-09-06 05:47:21,2f725f11-fc94-4797-8f1e-9b60f82d155b,A
2019-09-06 05:49:14,2f725f11-fc94-4797-8f1e-9b60f82d155b,S
2019-09-06 05:55:26,2f725f11-fc94-4797-8f1e-9b60f82d155b,A
2019-09-06 05:58:14,2f725f11-fc94-4797-8f1e-9b60f82d155b,S
2019-09-06 06:00:01,2f725f11-fc94-4797-8f1e-9b60f82d155b,A
2019-09-06 06:00:25,2f725f11-fc94-4797-8f1e-9b60f82d155b,S
2019-09-06 06:01:04,2f725f11-fc94-4797-8f1e-9b60f82d155b,A
2019-09-06 06:13:34,2f725f11-fc94-4797-8f1e-9b60f82d155b,S
2019-09-06 06:13:36,2f725f11-fc94-4797-8f1e-9b60f82d155b,A
2019-09-06 06:14:12,2f725f11-fc94-4797-8f1e-9b60f82d155b,S
2019-09-06 06:14:41,2f725f11-fc94-4797-8f1e-9b60f82d155b,A
2019-09-06 04:52:46,b61c2afc-af96-4d30-9c7e-55a6bc342cc5,A
2019-09-06 04:53:15,b61c2afc-af96-4d30-9c7e-55a6bc342cc5,S
2019-09-06 05:01:45,b61c2afc-af96-4d30-9c7e-55a6bc342cc5,A
2019-09-06 05:03:04,b61c2afc-af96-4d30-9c7e-55a6bc342cc5,S
2019-09-06 05:03:05,b61c2afc-af96-4d30-9c7e-55a6bc342cc5,A
2019-09-06 05:11:42,b61c2afc-af96-4d30-9c7e-55a6bc342cc5,S
2019-09-06 05:12:56,b61c2afc-af96-4d30-9c7e-55a6bc342cc5,A
2019-09-06 05:13:46,b61c2afc-af96-4d30-9c7e-55a6bc342cc5,S
2019-09-06 05:17:33,b61c2afc-af96-4d30-9c7e-55a6bc342cc5,A
2019-09-06 05:18:39,b61c2afc-af96-4d30-9c7e-55a6bc342cc5,S
2019-09-06 05:18:51,b61c2afc-af96-4d30-9c7e-55a6bc342cc5,A
2019-09-06 05:24:25,b61c2afc-af96-4d30-9c7e-55a6bc342cc5,S
2019-09-06 05:29:44,b61c2afc-af96-4d30-9c7e-55a6bc342cc5,A
2019-09-06 05:41:59,b61c2afc-af96-4d30-9c7e-55a6bc342cc5,S
2019-09-06 05:42:14,b61c2afc-af96-4d30-9c7e-55a6bc342cc5,A
2019-09-06 05:46:25,b61c2afc-af96-4d30-9c7e-55a6bc342cc5,S
2019-09-06 05:56:01,b61c2afc-af96-4d30-9c7e-55a6bc342cc5,A
2019-09-06 06:08:06,b61c2afc-af96-4d30-9c7e-55a6bc342cc5,S
2019-09-06 06:11:36,b61c2afc-af96-4d30-9c7e-55a6bc342cc5,A
2019-09-06 06:15:59,b61c2afc-af96-4d30-9c7e-55a6bc342cc5,S
2019-09-06 06:17:23,b61c2afc-af96-4d30-9c7e-55a6bc342cc5,A
2019-09-06 06:17:58,b61c2afc-af96-4d30-9c7e-55a6bc342cc5,S
2019-09-06 05:07:07,7480052c-b12d-4b0c-b8a7-8c4b1b526810,S
2019-09-06 05:09:26,7480052c-b12d-4b0c-b8a7-8c4b1b526810,A
2019-09-06 05:15:57,7480052c-b12d-4b0c-b8a7-8c4b1b526810,S
2019-09-06 05:16:55,7480052c-b12d-4b0c-b8a7-8c4b1b526810,A
2019-09-06 05:17:15,7480052c-b12d-4b0c-b8a7-8c4b1b526810,S
2019-09-06 05:22:25,7480052c-b12d-4b0c-b8a7-8c4b1b526810,A
2019-09-06 05:27:19,7480052c-b12d-4b0c-b8a7-8c4b1b526810,S
2019-09-06 05:31:58,7480052c-b12d-4b0c-b8a7-8c4b1b526810,A
2019-09-06 05:44:58,7480052c-b12d-4b0c-b8a7-8c4b1b526810,S
2019-09-06 06:02:27,7480052c-b12d-4b0c-b8a7-8c4b1b526810,A
2019-09-06 06:07:11,7480052c-b12d-4b0c-b8a7-8c4b1b526810,S
2019-09-06 06:09:19,7480052c-b12d-4b0c-b8a7-8c4b1b526810,A
2019-09-06 06:10:33,7480052c-b12d-4b0c-b8a7-8c4b1b526810,S
2019-09-06 06:11:55,7480052c-b12d-4b0c-b8a7-8c4b1b526810,A
2019-09-06 06:12:39,7480052c-b12d-4b0c-b8a7-8c4b1b526810,S
2019-09-06 06:13:12,7480052c-b12d-4b0c-b8a7-8c4b1b526810,A
2019-09-06 06:14:16,7480052c-b12d-4b0c-b8a7-8c4b1b526810,S
2019-09-06 06:20:57,7480052c-b12d-4b0c-b8a7-8c4b1b526810,A
2019-09-06 06:21:16,7480052c-b12d-4b0c-b8a7-8c4b1b526810,S
2019-09-06 06:22:04,7480052c-b12d-4b0c-b8a7-8c4b1b526810,A
2019-09-06 06:22:05,7480052c-b12d-4b0c-b8a7-8c4b1b526810,S
2019-09-06 04:40:50,e5c1d9ee-f6d6-4ee5-9214-ecc2bd0873d4,S
2019-09-06 04:49:52,e5c1d9ee-f6d6-4ee5-9214-ecc2bd0873d4,A
2019-09-06 04:55:03,e5c1d9ee-f6d6-4ee5-9214-ecc2bd0873d4,S
2019-09-06 05:07:50,e5c1d9ee-f6d6-4ee5-9214-ecc2bd0873d4,A
2019-09-06 05:08:48,e5c1d9ee-f6d6-4ee5-9214-ecc2bd0873d4,S
2019-09-06 05:20:01,e5c1d9ee-f6d6-4ee5-9214-ecc2bd0873d4,A
2019-09-06 05:20:15,e5c1d9ee-f6d6-4ee5-9214-ecc2bd0873d4,S
2019-09-06 05:23:42,e5c1d9ee-f6d6-4ee5-9214-ecc2bd0873d4,A
2019-09-06 05:34:45,e5c1d9ee-f6d6-4ee5-9214-ecc2bd0873d4,S
2019-09-06 05:37:46,e5c1d9ee-f6d6-4ee5-9214-ecc2bd0873d4,A
2019-09-06 05:44:22,e5c1d9ee-f6d6-4ee5-9214-ecc2bd0873d4,S
2019-09-06 05:46:18,e5c1d9ee-f6d6-4ee5-9214-ecc2bd0873d4,A
2019-09-06 05:53:43,e5c1d9ee-f6d6-4ee5-9214-ecc2bd0873d4,S
2019-09-06 05:57:50,e5c1d9ee-f6d6-4ee5-9214-ecc2bd0873d4,A
2019-09-06 05:58:31,e5c1d9ee-f6d6-4ee5-9214-ecc2bd0873d4,S
2019-09-06 05:58:54,e5c1d9ee-f6d6-4ee5-9214-ecc2bd0873d4,A
2019-09-06 06:02:17,e5c1d9ee-f6d6-4ee5-9214-ecc2bd0873d4,S
2019-09-06 06:05:21,e5c1d9ee-f6d6-4ee5-9214-ecc2bd0873d4,A
2019-09-06 06:18:32,e5c1d9ee-f6d6-4ee5-9214-ecc2bd0873d4,S
2019-09-06 06:22:42,e5c1d9ee-f6d6-4ee5-9214-ecc2bd0873d4,A
2019-09-06 06:22:49,e5c1d9ee-f6d6-4ee5-9214-ecc2bd0873d4,S
2019-09-06 04:32:19,49dc7f43-2d0a-44e6-8e2d-402596fe9d2f,A
2019-09-06 04:38:22,49dc7f43-2d0a-44e6-8e2d-402596fe9d2f,S
2019-09-06 04:41:10,49dc7f43-2d0a-44e6-8e2d-402596fe9d2f,A
2019-09-06 04:41:49,49dc7f43-2d0a-44e6-8e2d-402596fe9d2f,S
2019-09-06 04:42:34,49dc7f43-2d0a-44e6-8e2d-402596fe9d2f,A
2019-09-06 04:51:49,49dc7f43-2d0a-44e6-8e2d-402596fe9d2f,S
2019-09-06 04:52:15,49dc7f43-2d0a-44e6-8e2d-402596fe9d2f,A
2019-09-06 04:53:05,49dc7f43-2d0a-44e6-8e2d-402596fe9d2f,S
2019-09-06 04:57:59,49dc7f43-2d0a-44e6-8e2d-402596fe9d2f,A
2019-09-06 05:02:58,49dc7f43-2d0a-44e6-8e2d-402596fe9d2f,S
2019-09-06 05:03:10,49dc7f43-2d0a-44e6-8e2d-402596fe9d2f,A
2019-09-06 05:03:55,49dc7f43-2d0a-44e6-8e2d-402596fe9d2f,S
2019-09-06 05:06:15,49dc7f43-2d0a-44e6-8e2d-402596fe9d2f,A
2019-09-06 05:09:15,49dc7f43-2d0a-44e6-8e2d-402596fe9d2f,S
2019-09-06 05:10:31,49dc7f43-2d0a-44e6-8e2d-402596fe9d2f,A
2019-09-06 05:10:35,49dc7f43-2d0a-44e6-8e2d-402596fe9d2f,S
2019-09-06 05:18:41,49dc7f43-2d0a-44e6-8e2d-402596fe9d2f,A
2019-09-06 05:21:58,49dc7f43-2d0a-44e6-8e2d-402596fe9d2f,S
2019-09-06 05:23:51,49dc7f43-2d0a-44e6-8e2d-402596fe9d2f,A
2019-09-06 05:31:13,49dc7f43-2d0a-44e6-8e2d-402596fe9d2f,S
2019-09-06 05:41:27,49dc7f43-2d0a-44e6-8e2d-402596fe9d2f,A
2019-09-06 05:56:54,49dc7f43-2d0a-44e6-8e2d-402596fe9d2f,S
2019-09-06 05:59:17,49dc7f43-2d0a-44e6-8e2d-402596fe9d2f,A
2019-09-06 05:59:29,49dc7f43-2d0a-44e6-8e2d-402596fe9d2f,S
2019-09-06 06:07:34,49dc7f43-2d0a-44e6-8e2d-402596fe9d2f,A
2019-09-06 06:07:57,49dc7f43-2d0a-44e6-8e2d-402596fe9d2f,S
2019-09-06 06:16:16,49dc7f43-2d0a-44e6-8e2d-402596fe9d2f,A
2019-09-06 04:15:25,7eb2ad60-94b4-465f-a874-c4904412b8e9,A
2019-09-06 04:19:42,7eb2ad60-94b4-465f-a874-c4904412b8e9,S
2019-09-06 04:21:58,7eb2ad60-94b4-465f-a874-c4904412b8e9,A
2019-09-06 04:29:41,7eb2ad60-94b4-465f-a874-c4904412b8e9,S
2019-09-06 04:38:59,7eb2ad60-94b4-465f-a874-c4904412b8e9,A
2019-09-06 04:43:20,7eb2ad60-94b4-465f-a874-c4904412b8e9,S
2019-09-06 04:47:54,7eb2ad60-94b4-465f-a874-c4904412b8e9,A
2019-09-06 05:03:11,7eb2ad60-94b4-465f-a874-c4904412b8e9,S
2019-09-06 05:08:04,7eb2ad60-94b4-465f-a874-c4904412b8e9,A
2019-09-06 05:20:53,7eb2ad60-94b4-465f-a874-c4904412b8e9,S
2019-09-06 05:21:22,7eb2ad60-94b4-465f-a874-c4904412b8e9,A
2019-09-06 05:28:35,7eb2ad60-94b4-465f-a874-c4904412b8e9,S
2019-09-06 05:36:29,7eb2ad60-94b4-465f-a874-c4904412b8e9,A
2019-09-06 05:37:39,7eb2ad60-94b4-465f-a874-c4904412b8e9,S
2019-09-06 05:39:12,7eb2ad60-94b4-465f-a874-c4904412b8e9,A
2019-09-06 05:39:49,7eb2ad60-94b4-465f-a874-c4904412b8e9,S
2019-09-06 05:41:21,7eb2ad60-94b4-465f-a874-c4904412b8e9,A
2019-09-06 05:41:57,7eb2ad60-94b4-465f-a874-c4904412b8e9,S
2019-09-06 05:42:03,7eb2ad60-94b4-465f-a874-c4904412b8e9,A
2019-09-06 05:42:25,7eb2ad60-94b4-465f-a874-c4904412b8e9,S
2019-09-06 05:43:22,7eb2ad60-94b4-465f-a874-c4904412b8e9,A
2019-09-06 05:50:47,7eb2ad60-94b4-465f-a874-c4904412b8e9,S
2019-09-06 06:03:05,7eb2ad60-94b4-465f-a874-c4904412b8e9,A
2019-09-06 06:03:43,7eb2ad60-94b4-465f-a874-c4904412b8e9,S
2019-09-06 06:22:12,7eb2ad60-94b4-465f-a874-c4904412b8e9,A
2019-09-06 04:57:07,b4215c9e-5e3e-4235-a132-b24c344ad53a,A
2019-09-06 05:04:21,b4215c9e-5e3e-4235-a132-b24c344ad53a,S
2019-09-06 05:06:15,b4215c9e-5e3e-4235-a132-b24c344ad53a,A
2019-09-06 05:11:06,b4215c9e-5e3e-4235-a132-b24c344ad53a,S
2019-09-06 05:18:21,b4215c9e-5e3e-4235-a132-b24c344ad53a,A
2019-09-06 05:25:17,b4215c9e-5e3e-4235-a132-b24c344ad53a,S
2019-09-06 05:25:51,b4215c9e-5e3e-4235-a132-b24c344ad53a,A
2019-09-06 05:26:15,b4215c9e-5e3e-4235-a132-b24c344ad53a,S
2019-09-06 05:27:39,b4215c9e-5e3e-4235-a132-b24c344ad53a,A
2019-09-06 05:28:17,b4215c9e-5e3e-4235-a132-b24c344ad53a,S
2019-09-06 05:30:34,b4215c9e-5e3e-4235-a132-b24c344ad53a,A
2019-09-06 05:36:55,b4215c9e-5e3e-4235-a132-b24c344ad53a,S
2019-09-06 05:38:19,b4215c9e-5e3e-4235-a132-b24c344ad53a,A
2019-09-06 05:41:00,b4215c9e-5e3e-4235-a132-b24c344ad53a,S
2019-09-06 05:41:35,b4215c9e-5e3e-4235-a132-b24c344ad53a,A
2019-09-06 05:42:55,b4215c9e-5e3e-4235-a132-b24c344ad53a,S
2019-09-06 06:02:16,b4215c9e-5e3e-4235-a132-b24c344ad53a,A
2019-09-06 06:20:17,b4215c9e-5e3e-4235-a132-b24c344ad53a,S
2019-09-06 06:21:20,b4215c9e-5e3e-4235-a132-b24c344ad53a,A
2019-09-06 05:02:56,d1cbbee4-955f-4476-abc1-33ca45336e6b,A
2019-09-06 05:08:02,d1cbbee4-955f-4476-abc1-33ca45336e6b,S
2019-09-06 05:09:06,d1cbbee4-955f-4476-abc1-33ca45336e6b,A
2019-09-06 05:11:01,d1cbbee4-955f-4476-abc1-33ca45336e6b,S
2019-09-06 05:18:36,d1cbbee4-955f-4476-abc1-33ca45336e6b,A
2019-09-06 05:20:01,d1cbbee4-955f-4476-abc1-33ca45336e6b,S
2019-09-06 05:29:54,d1cbbee4-955f-4476-abc1-33ca45336e6b,A
2019-09-06 05:31:43,d1cbbee4-955f-4476-abc1-33ca45336e6b,S
2019-09-06 05:36:37,d1cbbee4-955f-4476-abc1-33ca45336e6b,A
2019-09-06 05:41:00,d1cbbee4-955f-4476-abc1-33ca45336e6b,S
2019-09-06 05:49:45,d1cbbee4-955f-4476-abc1-33ca45336e6b,A
2019-09-06 05:51:16,d1cbbee4-955f-4476-abc1-33ca45336e6b,S
2019-09-06 05:53:10,d1cbbee4-955f-4476-abc1-33ca45336e6b,A
2019-09-06 05:55:37,d1cbbee4-955f-4476-abc1-33ca45336e6b,S
2019-09-06 05:59:51,d1cbbee4-955f-4476-abc1-33ca45336e6b,A
2019-09-06 06:05:40,d1cbbee4-955f-4476-abc1-33ca45336e6b,S
2019-09-06 06:11:10,d1cbbee4-955f-4476-abc1-33ca45336e6b,A
2019-09-06 06:20:23,d1cbbee4-955f-4476-abc1-33ca45336e6b,S
2019-09-06 04:27:18,6426edaf-ceb1-4711-88e2-c3aaff651875,S
2019-09-06 04:32:16,6426edaf-ceb1-4711-88e2-c3aaff651875,A
2019-09-06 04:32:38,6426edaf-ceb1-4711-88e2-c3aaff651875,S
2019-09-06 04:37:22,6426edaf-ceb1-4711-88e2-c3aaff651875,A
2019-09-06 04:42:20,6426edaf-ceb1-4711-88e2-c3aaff651875,S
2019-09-06 04:44:22,6426edaf-ceb1-4711-88e2-c3aaff651875,A
2019-09-06 04:54:26,6426edaf-ceb1-4711-88e2-c3aaff651875,S
2019-09-06 04:57:07,6426edaf-ceb1-4711-88e2-c3aaff651875,A
2019-09-06 04:58:02,6426edaf-ceb1-4711-88e2-c3aaff651875,S
2019-09-06 05:06:04,6426edaf-ceb1-4711-88e2-c3aaff651875,A
2019-09-06 05:14:52,6426edaf-ceb1-4711-88e2-c3aaff651875,S
2019-09-06 05:17:02,6426edaf-ceb1-4711-88e2-c3aaff651875,A
2019-09-06 05:17:12,6426edaf-ceb1-4711-88e2-c3aaff651875,S
2019-09-06 05:36:29,6426edaf-ceb1-4711-88e2-c3aaff651875,A
2019-09-06 05:38:42,6426edaf-ceb1-4711-88e2-c3aaff651875,S
2019-09-06 05:56:17,6426edaf-ceb1-4711-88e2-c3aaff651875,A
2019-09-06 06:06:27,6426edaf-ceb1-4711-88e2-c3aaff651875,S
2019-09-06 06:22:19,6426edaf-ceb1-4711-88e2-c3aaff651875,A
2019-09-06 06:23:31,6426edaf-ceb1-4711-88e2-c3aaff651875,S
2019-09-06 04:49:32,c7b697f7-3d39-4c25-b9c4-f9f7abbbc1a1,S
2019-09-06 04:50:14,c7b697f7-3d39-4c25-b9c4-f9f7abbbc1a1,A
2019-09-06 05:05:54,c7b697f7-3d39-4c25-b9c4-f9f7abbbc1a1,S
2019-09-06 05:13:09,c7b697f7-3d39-4c25-b9c4-f9f7abbbc1a1,A
2019-09-06 05:13:31,c7b697f7-3d39-4c25-b9c4-f9f7abbbc1a1,S
2019-09-06 05:14:00,c7b697f7-3d39-4c25-b9c4-f9f7abbbc1a1,A
2019-09-06 05:15:07,c7b697f7-3d39-4c25-b9c4-f9f7abbbc1a1,S
2019-09-06 05:22:55,c7b697f7-3d39-4c25-b9c4-f9f7abbbc1a1,A
2019-09-06 05:25:24,c7b697f7-3d39-4c25-b9c4-f9f7abbbc1a1,S
2019-09-06 05:26:23,c7b697f7-3d39-4c25-b9c4-f9f7abbbc1a1,A
2019-09-06 05:31:21,c7b697f7-3d39-4c25-b9c4-f9f7abbbc1a1,S
2019-09-06 05:34:47,c7b697f7-3d39-4c25-b9c4-f9f7abbbc1a1,A
2019-09-06 05:42:30,c7b697f7-3d39-4c25-b9c4-f9f7abbbc1a1,S
2019-09-06 05:46:02,c7b697f7-3d39-4c25-b9c4-f9f7abbbc1a1,A
2019-09-06 05:47:06,c7b697f7-3d39-4c25-b9c4-f9f7abbbc1a1,S
2019-09-06 05:48:24,c7b697f7-3d39-4c25-b9c4-f9f7abbbc1a1,A
2019-09-06 05:57:33,c7b697f7-3d39-4c25-b9c4-f9f7abbbc1a1,S
2019-09-06 05:58:40,c7b697f7-3d39-4c25-b9c4-f9f7abbbc1a1,A
2019-09-06 06:01:18,c7b697f7-3d39-4c25-b9c4-f9f7abbbc1a1,S
2019-09-06 06:03:24,c7b697f7-3d39-4c25-b9c4-f9f7abbbc1a1,A
2019-09-06 06:11:57,c7b697f7-3d39-4c25-b9c4-f9f7abbbc1a1,S
2019-09-06 06:14:10,c7b697f7-3d39-4c25-b9c4-f9f7abbbc1a1,A
2019-09-06 06:19:08,c7b697f7-3d39-4c25-b9c4-f9f7abbbc1a1,S
2019-09-06 06:22:35,c7b697f7-3d39-4c25-b9c4-f9f7abbbc1a1,A
2019-09-06 06:23:10,c7b697f7-3d39-4c25-b9c4-f9f7abbbc1a1,S
2019-09-06 04:28:20,5d7b6f36-5705-4d5c-9bcd-acf76aa54f16,S
2019-09-06 04:32:27,5d7b6f36-5705-4d5c-9bcd-acf76aa54f16,A
2019-09-06 04:42:51,5d7b6f36-5705-4d5c-9bcd-acf76aa54f16,S
2019-09-06 04:44:25,5d7b6f36-5705-4d5c-9bcd-acf76aa54f16,A
2019-09-06 04:51:55,5d7b6f36-5705-4d5c-9bcd-acf76aa54f16,S
2019-09-06 04:52:10,5d7b6f36-5705-4d5c-9bcd-acf76aa54f16,A
2019-09-06 04:53:35,5d7b6f36-5705-4d5c-9bcd-acf76aa54f16,S
2019-09-06 05:10:52,5d7b6f36-5705-4d5c-9bcd-acf76aa54f16,A
2019-09-06 05:16:38,5d7b6f36-5705-4d5c-9bcd-acf76aa54f16,S
2019-09-06 05:20:13,5d7b6f36-5705-4d5c-9bcd-acf76aa54f16,A
2019-09-06 05:23:25,5d7b6f36-5705-4d5c-9bcd-acf76aa54f16,S
2019-09-06 05:23:41,5d7b6f36-5705-4d5c-9bcd-acf76aa54f16,A
2019-09-06 05:42:16,5d7b6f36-5705-4d5c-9bcd-acf76aa54f16,S
2019-09-06 05:42:42,5d7b6f36-5705-4d5c-9bcd-acf76aa54f16,A
2019-09-06 05:45:33,5d7b6f36-5705-4d5c-9bcd-acf76aa54f16,S
2019-09-06 05:59:06,5d7b6f36-5705-4d5c-9bcd-acf76aa54f16,A
2019-09-06 06:02:24,5d7b6f36-5705-4d5c-9bcd-acf76aa54f16,S
2019-09-06 06:04:51,5d7b6f36-5705-4d5c-9bcd-acf76aa54f16,A
2019-09-06 06:05:28,5d7b6f36-5705-4d5c-9bcd-acf76aa54f16,S
2019-09-06 06:10:42,5d7b6f36-5705-4d5c-9bcd-acf76aa54f16,A
2019-09-06 06:15:23,5d7b6f36-5705-4d5c-9bcd-acf76aa54f16,S
2019-09-06 06:19:19,5d7b6f36-5705-4d5c-9bcd-acf76aa54f16,A
2019-09-06 06:21:11,5d7b6f36-5705-4d5c-9bcd-acf76aa54f16,S
2019-09-06 06:22:09,5d7b6f36-5705-4d5c-9bcd-acf76aa54f16,A
2019-09-06 04:45:51,f55c1e9c-8b18-4f64-b1e1-68aed61d688c,A
2019-09-06 05:04:44,f55c1e9c-8b18-4f64-b1e1-68aed61d688c,S
2019-09-06 05:05:05,f55c1e9c-8b18-4f64-b1e1-68aed61d688c,A
2019-09-06 05:07:50,f55c1e9c-8b18-4f64-b1e1-68aed61d688c,S
2019-09-06 05:11:50,f55c1e9c-8b18-4f64-b1e1-68aed61d688c,A
2019-09-06 05:12:19,f55c1e9c-8b18-4f64-b1e1-68aed61d688c,S
2019-09-06 05:15:21,f55c1e9c-8b18-4f64-b1e1-68aed61d688c,A
2019-09-06 05:16:59,f55c1e9c-8b18-4f64-b1e1-68aed61d688c,S
2019-09-06 05:31:29,f55c1e9c-8b18-4f64-b1e1-68aed61d688c,A
2019-09-06 05:33:05,f55c1e9c-8b18-4f64-b1e1-68aed61d688c,S
2019-09-06 05:33:11,f55c1e9c-8b18-4f64-b1e1-68aed61d688c,A
2019-09-06 05:35:31,f55c1e9c-8b18-4f64-b1e1-68aed61d688c,S
2019-09-06 05:35:38,f55c1e9c-8b18-4f64-b1e1-68aed61d688c,A
2019-09-06 05:37:41,f55c1e9c-8b18-4f64-b1e1-68aed61d688c,S
2019-09-06 05:41:42,f55c1e9c-8b18-4f64-b1e1-68aed61d688c,A
2019-09-06 05:52:25,f55c1e9c-8b18-4f64-b1e1-68aed61d688c,S
2019-09-06 05:58:09,f55c1e9c-8b18-4f64-b1e1-68aed61d688c,A
2019-09-06 06:00:23,f55c1e9c-8b18-4f64-b1e1-68aed61d688c,S
2019-09-06 06:03:48,f55c1e9c-8b18-4f64-b1e1-68aed61d688c,A
2019-09-06 06:07:21,f55c1e9c-8b18-4f64-b1e1-68aed61d688c,S
2019-09-06 05:03:42,38921bc5-4e40-448e-ab26-931d7c918e89,S
2019-09-06 05:09:06,38921bc5-4e40-448e-ab26-931d7c918e89,A
2019-09-06 05:10:31,38921bc5-4e40-448e-ab26-931d7c918e89,S
2019-09-06 05:12:41,38921bc5-4e40-448e-ab26-931d7c918e89,A
2019-09-06 05:19:43,38921bc5-4e40-448e-ab26-931d7c918e89,S
2019-09-06 05:25:49,38921bc5-4e40-448e-ab26-931d7c918e89,A
2019-09-06 05:29:44,38921bc5-4e40-448e-ab26-931d7c918e89,S
2019-09-06 05:33:06,38921bc5-4e40-448e-ab26-931d7c918e89,A
2019-09-06 05:34:40,38921bc5-4e40-448e-ab26-931d7c918e89,S
2019-09-06 05:34:51,38921bc5-4e40-448e-ab26-931d7c918e89,A
2019-09-06 05:37:11,38921bc5-4e40-448e-ab26-931d7c918e89,S
2019-09-06 05:41:28,38921bc5-4e40-448e-ab26-931d7c918e89,A
2019-09-06 05:44:22,38921bc5-4e40-448e-ab26-931d7c918e89,S
2019-09-06 05:45:17,38921bc5-4e40-448e-ab26-931d7c918e89,A
2019-09-06 05:55:40,38921bc5-4e40-448e-ab26-931d7c918e89,S
2019-09-06 05:55:44,38921bc5-4e40-448e-ab26-931d7c918e89,A
2019-09-06 05:56:16,38921bc5-4e40-448e-ab26-931d7c918e89,S
2019-09-06 05:56:45,38921bc5-4e40-448e-ab26-931d7c918e89,A
2019-09-06 05:56:58,38921bc5-4e40-448e-ab26-931d7c918e89,S
2019-09-06 06:00:53,38921bc5-4e40-448e-ab26-931d7c918e89,A
2019-09-06 06:08:42,38921bc5-4e40-448e-ab26-931d7c918e89,S
2019-09-06 06:14:41,38921bc5-4e40-448e-ab26-931d7c918e89,A
2019-09-06 06:17:34,38921bc5-4e40-448e-ab26-931d7c918e89,S
2019-09-06 06:19:33,38921bc5-4e40-448e-ab26-931d7c918e89,A
2019-09-06 04:36:57,115f4412-7dfa-4a9b-a19c-28b419c2e6d7,A
2019-09-06 04:40:38,115f4412-7dfa-4a9b-a19c-28b419c2e6d7,S
2019-09-06 04:43:57,115f4412-7dfa-4a9b-a19c-28b419c2e6d7,A
2019-09-06 04:45:37,115f4412-7dfa-4a9b-a19c-28b419c2e6d7,S
2019-09-06 05:01:07,115f4412-7dfa-4a9b-a19c-28b419c2e6d7,A
2019-09-06 05:02:52,115f4412-7dfa-4a9b-a19c-28b419c2e6d7,S
2019-09-06 05:03:14,115f4412-7dfa-4a9b-a19c-28b419c2e6d7,A
2019-09-06 05:25:03,115f4412-7dfa-4a9b-a19c-28b419c2e6d7,S
2019-09-06 05:32:13,115f4412-7dfa-4a9b-a19c-28b419c2e6d7,A
2019-09-06 05:36:34,115f4412-7dfa-4a9b-a19c-28b419c2e6d7,S
2019-09-06 05:37:14,115f4412-7dfa-4a9b-a19c-28b419c2e6d7,A
2019-09-06 05:41:28,115f4412-7dfa-4a9b-a19c-28b419c2e6d7,S
2019-09-06 05:43:19,115f4412-7dfa-4a9b-a19c-28b419c2e6d7,A
2019-09-06 05:46:01,115f4412-7dfa-4a9b-a19c-28b419c2e6d7,S
2019-09-06 05:55:16,115f4412-7dfa-4a9b-a19c-28b419c2e6d7,A
2019-09-06 06:02:52,115f4412-7dfa-4a9b-a19c-28b419c2e6d7,S
2019-09-06 06:07:48,115f4412-7dfa-4a9b-a19c-28b419c2e6d7,A
2019-09-06 06:14:26,115f4412-7dfa-4a9b-a19c-28b419c2e6d7,S
2019-09-06 04:41:57,494eda08-68a4-4df5-babd-240a4cf0ad39,A
2019-09-06 04:48:00,494eda08-68a4-4df5-babd-240a4cf0ad39,S
2019-09-06 04:50:30,494eda08-68a4-4df5-babd-240a4cf0ad39,A
2019-09-06 04:51:15,494eda08-68a4-4df5-babd-240a4cf0ad39,S
2019-09-06 04:51:18,494eda08-68a4-4df5-babd-240a4cf0ad39,A
2019-09-06 04:54:08,494eda08-68a4-4df5-babd-240a4cf0ad39,S
2019-09-06 05:02:24,494eda08-68a4-4df5-babd-240a4cf0ad39,A
2019-09-06 05:05:10,494eda08-68a4-4df5-babd-240a4cf0ad39,S
2019-09-06 05:05:13,494eda08-68a4-4df5-babd-240a4cf0ad39,A
2019-09-06 05:11:18,494eda08-68a4-4df5-babd-240a4cf0ad39,S
2019-09-06 05:15:41,494eda08-68a4-4df5-babd-240a4cf0ad39,A
2019-09-06 05:23:02,494eda08-68a4-4df5-babd-240a4cf0ad39,S
2019-09-06 05:24:11,494eda08-68a4-4df5-babd-240a4cf0ad39,A
2019-09-06 05:28:08,494eda08-68a4-4df5-babd-240a4cf0ad39,S
2019-09-06 05:28:55,494eda08-68a4-4df5-babd-240a4cf0ad39,A
2019-09-06 05:29:12,494eda08-68a4-4df5-babd-240a4cf0ad39,S
2019-09-06 05:39:46,494eda08-68a4-4df5-babd-240a4cf0ad39,A
2019-09-06 05:41:09,494eda08-68a4-4df5-babd-240a4cf0ad39,S
2019-09-06 05:46:53,494eda08-68a4-4df5-babd-240a4cf0ad39,A
2019-09-06 05:51:20,494eda08-68a4-4df5-babd-240a4cf0ad39,S
2019-09-06 05:52:39,494eda08-68a4-4df5-babd-240a4cf0ad39,A
2019-09-06 05:55:26,494eda08-68a4-4df5-babd-240a4cf0ad39,S
2019-09-06 05:56:51,494eda08-68a4-4df5-babd-240a4cf0ad39,A
2019-09-06 06:05:40,494eda08-68a4-4df5-babd-240a4cf0ad39,S
2019-09-06 06:07:10,494eda08-68a4-4df5-babd-240a4cf0ad39,A
2019-09-06 06:10:48,494eda08-68a4-4df5-babd-240a4cf0ad39,S
2019-09-06 06:11:05,494eda08-68a4-4df5-babd-240a4cf0ad39,A
2019-09-06 06:15:03,494eda08-68a4-4df5-babd-240a4cf0ad39,S
2019-09-06 04:58:54,0fa68065-9b49-4543-b0f0-62253d0347f1,A
2019-09-06 05:13:37,0fa68065-9b49-4543-b0f0-62253d0347f1,S
2019-09-06 05:15:43,0fa68065-9b49-4543-b0f0-62253d0347f1,A
2019-09-06 05:24:48,0fa68065-9b49-4543-b0f0-62253d0347f1,S
2019-09-06 05:36:21,0fa68065-9b49-4543-b0f0-62253d0347f1,A
2019-09-06 05:42:33,0fa68065-9b49-4543-b0f0-62253d0347f1,S
2019-09-06 05:49:14,0fa68065-9b49-4543-b0f0-62253d0347f1,A
2019-09-06 05:49:38,0fa68065-9b49-4543-b0f0-62253d0347f1,S
2019-09-06 05:50:45,0fa68065-9b49-4543-b0f0-62253d0347f1,A
2019-09-06 05:55:04,0fa68065-9b49-4543-b0f0-62253d0347f1,S
2019-09-06 05:55:36,0fa68065-9b49-4543-b0f0-62253d0347f1,A
2019-09-06 06:02:15,0fa68065-9b49-4543-b0f0-62253d0347f1,S
2019-09-06 06:04:58,0fa68065-9b49-4543-b0f0-62253d0347f1,A
2019-09-06 06:06:45,0fa68065-9b49-4543-b0f0-62253d0347f1,S
2019-09-06 06:10:32,0fa68065-9b49-4543-b0f0-62253d0347f1,A
2019-09-06 06:16:48,0fa68065-9b49-4543-b0f0-62253d0347f1,S
2019-09-06 06:17:01,0fa68065-9b49-4543-b0f0-62253d0347f1,A
2019-09-06 06:19:36,0fa68065-9b49-4543-b0f0-62253d0347f1,S
2019-09-06 04:49:41,18c44180-7133-4394-9810-4738ebc19670,A
2019-09-06 05:01:11,18c44180-7133-4394-9810-4738ebc19670,S
2019-09-06 05:11:08,18c44180-7133-4394-9810-4738ebc19670,A
2019-09-06 05:16:35,18c44180-7133-4394-9810-4738ebc19670,S
2019-09-06 05:17:18,18c44180-7133-4394-9810-4738ebc19670,A
2019-09-06 05:18:15,18c44180-7133-4394-9810-4738ebc19670,S
2019-09-06 05:20:12,18c44180-7133-4394-9810-4738ebc19670,A
2019-09-06 05:21:33,18c44180-7133-4394-9810-4738ebc19670,S
2019-09-06 05:28:52,18c44180-7133-4394-9810-4738ebc19670,A
2019-09-06 05:30:46,18c44180-7133-4394-9810-4738ebc19670,S
2019-09-06 05:32:29,18c44180-7133-4394-9810-4738ebc19670,A
2019-09-06 05:47:53,18c44180-7133-4394-9810-4738ebc19670,S
2019-09-06 05:53:47,18c44180-7133-4394-9810-4738ebc19670,A
2019-09-06 05:58:20,18c44180-7133-4394-9810-4738ebc19670,S
2019-09-06 05:59:23,18c44180-7133-4394-9810-4738ebc19670,A
2019-09-06 06:01:43,18c44180-7133-4394-9810-4738ebc19670,S
2019-09-06 06:05:23,18c44180-7133-4394-9810-4738ebc19670,A
2019-09-06 06:07:24,18c44180-7133-4394-9810-4738ebc19670,S
2019-09-06 06:07:32,18c44180-7133-4394-9810-4738ebc19670,A
2019-09-06 06:16:38,18c44180-7133-4394-9810-4738ebc19670,S
2019-09-06 06:22:57,18c44180-7133-4394-9810-4738ebc19670,A
2019-09-06 06:24:03,18c44180-7133-4394-9810-4738ebc19670,S
2019-09-06 06:24:56,18c44180-7133-4394-9810-4738ebc19670,A
2019-09-06 05:07:13,c2318149-a289-4faf-8aae-aa01cd902983,S
2019-09-06 05:08:26,c2318149-a289-4faf-8aae-aa01cd902983,A
2019-09-06 05:14:12,c2318149-a289-4faf-8aae-aa01cd902983,S
2019-09-06 05:27:32,c2318149-a289-4faf-8aae-aa01cd902983,A
2019-09-06 05:35:17,c2318149-a289-4faf-8aae-aa01cd902983,S
2019-09-06 05:37:47,c2318149-a289-4faf-8aae-aa01cd902983,A
2019-09-06 05:54:10,c2318149-a289-4faf-8aae-aa01cd902983,S
2019-09-06 06:00:17,c2318149-a289-4faf-8aae-aa01cd902983,A
2019-09-06 06:15:06,c2318149-a289-4faf-8aae-aa01cd902983,S
2019-09-06 06:20:20,c2318149-a289-4faf-8aae-aa01cd902983,A
2019-09-06 06:22:54,c2318149-a289-4faf-8aae-aa01cd902983,S
2019-09-06 04:18:56,f3a4bd8b-7407-4810-8a98-ce367c4baaa8,A
2019-09-06 04:34:59,f3a4bd8b-7407-4810-8a98-ce367c4baaa8,S
2019-09-06 04:38:13,f3a4bd8b-7407-4810-8a98-ce367c4baaa8,A
2019-09-06 04:40:59,f3a4bd8b-7407-4810-8a98-ce367c4baaa8,S
2019-09-06 04:41:30,f3a4bd8b-7407-4810-8a98-ce367c4baaa8,A
2019-09-06 04:55:28,f3a4bd8b-7407-4810-8a98-ce367c4baaa8,S
2019-09-06 04:58:57,f3a4bd8b-7407-4810-8a98-ce367c4baaa8,A
2019-09-06 05:01:49,f3a4bd8b-7407-4810-8a98-ce367c4baaa8,S
2019-09-06 05:05:49,f3a4bd8b-7407-4810-8a98-ce367c4baaa8,A
2019-09-06 05:19:12,f3a4bd8b-7407-4810-8a98-ce367c4baaa8,S
2019-09-06 05:19:23,f3a4bd8b-7407-4810-8a98-ce367c4baaa8,A
2019-09-06 05:28:05,f3a4bd8b-7407-4810-8a98-ce367c4baaa8,S
2019-09-06 05:32:22,f3a4bd8b-7407-4810-8a98-ce367c4baaa8,A
2019-09-06 05:38:58,f3a4bd8b-7407-4810-8a98-ce367c4baaa8,S
2019-09-06 05:41:30,f3a4bd8b-7407-4810-8a98-ce367c4baaa8,A
2019-09-06 05:52:41,f3a4bd8b-7407-4810-8a98-ce367c4baaa8,S
2019-09-06 05:54:36,f3a4bd8b-7407-4810-8a98-ce367c4baaa8,A
2019-09-06 05:55:33,f3a4bd8b-7407-4810-8a98-ce367c4baaa8,S
2019-09-06 05:58:26,f3a4bd8b-7407-4810-8a98-ce367c4baaa8,A
2019-09-06 06:04:24,f3a4bd8b-7407-4810-8a98-ce367c4baaa8,S
2019-09-06 06:13:12,f3a4bd8b-7407-4810-8a98-ce367c4baaa8,A
2019-09-06 06:16:15,f3a4bd8b-7407-4810-8a98-ce367c4baaa8,S
2019-09-06 06:18:06,f3a4bd8b-7407-4810-8a98-ce367c4baaa8,A
2019-09-06 06:20:16,f3a4bd8b-7407-4810-8a98-ce367c4baaa8,S
2019-09-06 05:05:28,35de0786-89c7-4a0e-a1b9-4c4595ccd8dd,S
2019-09-06 05:19:02,35de0786-89c7-4a0e-a1b9-4c4595ccd8dd,A
2019-09-06 05:23:56,35de0786-89c7-4a0e-a1b9-4c4595ccd8dd,S
2019-09-06 05:24:28,35de0786-89c7-4a0e-a1b9-4c4595ccd8dd,A
2019-09-06 04:36:27,1cb9160a-1d79-4174-9dc3-cdcae4bf9d89,S
2019-09-06 04:44:06,1cb9160a-1d79-4174-9dc3-cdcae4bf9d89,A
2019-09-06 04:46:02,1cb9160a-1d79-4174-9dc3-cdcae4bf9d89,S
2019-09-06 04:57:20,1cb9160a-1d79-4174-9dc3-cdcae4bf9d89,A
2019-09-06 04:59:10,1cb9160a-1d79-4174-9dc3-cdcae4bf9d89,S
2019-09-06 04:59:51,1cb9160a-1d79-4174-9dc3-cdcae4bf9d89,A
2019-09-06 05:09:22,1cb9160a-1d79-4174-9dc3-cdcae4bf9d89,S
2019-09-06 05:12:37,1cb9160a-1d79-4174-9dc3-cdcae4bf9d89,A
2019-09-06 05:13:13,1cb9160a-1d79-4174-9dc3-cdcae4bf9d89,S
2019-09-06 05:13:44,1cb9160a-1d79-4174-9dc3-cdcae4bf9d89,A
2019-09-06 05:18:48,1cb9160a-1d79-4174-9dc3-cdcae4bf9d89,S
2019-09-06 05:19:13,1cb9160a-1d79-4174-9dc3-cdcae4bf9d89,A
2019-09-06 05:19:36,1cb9160a-1d79-4174-9dc3-cdcae4bf9d89,S
2019-09-06 05:20:20,1cb9160a-1d79-4174-9dc3-cdcae4bf9d89,A
2019-09-06 05:22:12,1cb9160a-1d79-4174-9dc3-cdcae4bf9d89,S
2019-09-06 05:23:04,1cb9160a-1d79-4174-9dc3-cdcae4bf9d89,A
2019-09-06 05:33:38,1cb9160a-1d79-4174-9dc3-cdcae4bf9d89,S
2019-09-06 05:34:50,1cb9160a-1d79-4174-9dc3-cdcae4bf9d89,A
2019-09-06 05:41:42,1cb9160a-1d79-4174-9dc3-cdcae4bf9d89,S
2019-09-06 05:50:23,1cb9160a-1d79-4174-9dc3-cdcae4bf9d89,A
2019-09-06 05:53:30,1cb9160a-1d79-4174-9dc3-cdcae4bf9d89,S
2019-09-06 05:57:06,1cb9160a-1d79-4174-9dc3-cdcae4bf9d89,A
2019-09-06 05:57:22,1cb9160a-1d79-4174-9dc3-cdcae4bf9d89,S
2019-09-06 06:04:27,1cb9160a-1d79-4174-9dc3-cdcae4bf9d89,A
2019-09-06 06:04:35,1cb9160a-1d79-4174-9dc3-cdcae4bf9d89,S
2019-09-06 06:05:01,1cb9160a-1d79-4174-9dc3-cdcae4bf9d89,A
2019-09-06 06:05:38,1cb9160a-1d79-4174-9dc3-cdcae4bf9d89,S
2019-09-06 06:07:43,1cb9160a-1d79-4174-9dc3-cdcae4bf9d89,A
2019-09-06 06:07:46,1cb9160a-1d79-4174-9dc3-cdcae4bf9d89,S
2019-09-06 06:19:32,1cb9160a-1d79-4174-9dc3-cdcae4bf9d89,A
2019-09-06 06:22:56,1cb9160a-1d79-4174-9dc3-cdcae4bf9d89,S
2019-09-06 06:24:48,1cb9160a-1d79-4174-9dc3-cdcae4bf9d89,A
2019-09-06 04:32:01,6c2858e9-2ba1-421b-8875-007ec4fd72cd,A
2019-09-06 04:35:27,6c2858e9-2ba1-421b-8875-007ec4fd72cd,S
2019-09-06 04:40:32,6c2858e9-2ba1-421b-8875-007ec4fd72cd,A
2019-09-06 04:42:22,6c2858e9-2ba1-421b-8875-007ec4fd72cd,S
2019-09-06 04:52:53,6c2858e9-2ba1-421b-8875-007ec4fd72cd,A
2019-09-06 04:53:28,6c2858e9-2ba1-421b-8875-007ec4fd72cd,S
2019-09-06 05:01:53,6c2858e9-2ba1-421b-8875-007ec4fd72cd,A
2019-09-06 05:04:13,6c2858e9-2ba1-421b-8875-007ec4fd72cd,S
2019-09-06 05:12:37,6c2858e9-2ba1-421b-8875-007ec4fd72cd,A
2019-09-06 05:31:03,6c2858e9-2ba1-421b-8875-007ec4fd72cd,S
2019-09-06 05:32:18,6c2858e9-2ba1-421b-8875-007ec4fd72cd,A
2019-09-06 05:32:30,6c2858e9-2ba1-421b-8875-007ec4fd72cd,S
2019-09-06 05:35:42,6c2858e9-2ba1-421b-8875-007ec4fd72cd,A
2019-09-06 05:44:33,6c2858e9-2ba1-421b-8875-007ec4fd72cd,S
2019-09-06 05:59:38,6c2858e9-2ba1-421b-8875-007ec4fd72cd,A
2019-09-06 05:59:55,6c2858e9-2ba1-421b-8875-007ec4fd72cd,S
2019-09-06 06:10:27,6c2858e9-2ba1-421b-8875-007ec4fd72cd,A
2019-09-06 06:23:26,6c2858e9-2ba1-421b-8875-007ec4fd72cd,S
2019-09-06 06:24:26,6c2858e9-2ba1-421b-8875-007ec4fd72cd,A
2019-09-06 06:24:51,6c2858e9-2ba1-421b-8875-007ec4fd72cd,S
2019-09-06 04:58:10,0ccfb2d6-bd31-42d3-9f08-b0825e845744,S
2019-09-06 04:58:53,0ccfb2d6-bd31-42d3-9f08-b0825e845744,A
2019-09-06 05:02:23,0ccfb2d6-bd31-42d3-9f08-b0825e845744,S
2019-09-06 05:06:26,0ccfb2d6-bd31-42d3-9f08-b0825e845744,A
2019-09-06 05:14:15,0ccfb2d6-bd31-42d3-9f08-b0825e845744,S
2019-09-06 05:20:44,0ccfb2d6-bd31-42d3-9f08-b0825e845744,A
2019-09-06 05:24:54,0ccfb2d6-bd31-42d3-9f08-b0825e845744,S
2019-09-06 05:26:20,0ccfb2d6-bd31-42d3-9f08-b0825e845744,A
2019-09-06 05:36:44,0ccfb2d6-bd31-42d3-9f08-b0825e845744,S
2019-09-06 05:37:00,0ccfb2d6-bd31-42d3-9f08-b0825e845744,A
2019-09-06 05:37:16,0ccfb2d6-bd31-42d3-9f08-b0825e845744,S
2019-09-06 05:38:45,0ccfb2d6-bd31-42d3-9f08-b0825e845744,A
2019-09-06 05:46:35,0ccfb2d6-bd31-42d3-9f08-b0825e845744,S
2019-09-06 05:50:32,0ccfb2d6-bd31-42d3-9f08-b0825e845744,A
2019-09-06 05:53:10,0ccfb2d6-bd31-42d3-9f08-b0825e845744,S
2019-09-06 05:55:38,0ccfb2d6-bd31-42d3-9f08-b0825e845744,A
2019-09-06 05:57:45,0ccfb2d6-bd31-42d3-9f08-b0825e845744,S
2019-09-06 06:02:26,0ccfb2d6-bd31-42d3-9f08-b0825e845744,A
2019-09-06 06:08:47,0ccfb2d6-bd31-42d3-9f08-b0825e845744,S
2019-09-06 06:08:57,0ccfb2d6-bd31-42d3-9f08-b0825e845744,A
2019-09-06 06:09:36,0ccfb2d6-bd31-42d3-9f08-b0825e845744,S
2019-09-06 06:11:54,0ccfb2d6-bd31-42d3-9f08-b0825e845744,A
2019-09-06 04:34:57,06c58052-8607-41e6-87c0-4e0bfd83a4bd,S
2019-09-06 04:47:02,06c58052-8607-41e6-87c0-4e0bfd83a4bd,A
2019-09-06 05:05:24,06c58052-8607-41e6-87c0-4e0bfd83a4bd,S
2019-09-06 05:07:47,06c58052-8607-41e6-87c0-4e0bfd83a4bd,A
2019-09-06 05:11:06,06c58052-8607-41e6-87c0-4e0bfd83a4bd,S
2019-09-06 05:14:25,06c58052-8607-41e6-87c0-4e0bfd83a4bd,A
2019-09-06 05:25:55,06c58052-8607-41e6-87c0-4e0bfd83a4bd,S
2019-09-06 05:26:44,06c58052-8607-41e6-87c0-4e0bfd83a4bd,A
2019-09-06 05:28:24,06c58052-8607-41e6-87c0-4e0bfd83a4bd,S
2019-09-06 05:29:16,06c58052-8607-41e6-87c0-4e0bfd83a4bd,A
2019-09-06 05:46:40,06c58052-8607-41e6-87c0-4e0bfd83a4bd,S
2019-09-06 05:46:46,06c58052-8607-41e6-87c0-4e0bfd83a4bd,A
2019-09-06 05:49:55,06c58052-8607-41e6-87c0-4e0bfd83a4bd,S
2019-09-06 05:53:22,06c58052-8607-41e6-87c0-4e0bfd83a4bd,A
2019-09-06 05:55:36,06c58052-8607-41e6-87c0-4e0bfd83a4bd,S
2019-09-06 06:01:33,06c58052-8607-41e6-87c0-4e0bfd83a4bd,A
2019-09-06 06:02:55,06c58052-8607-41e6-87c0-4e0bfd83a4bd,S
2019-09-06 06:06:51,06c58052-8607-41e6-87c0-4e0bfd83a4bd,A
2019-09-06 06:12:25,06c58052-8607-41e6-87c0-4e0bfd83a4bd,S
2019-09-06 06:23:56,06c58052-8607-41e6-87c0-4e0bfd83a4bd,A
2019-09-06 04:45:34,31cf4cbf-fc8c-4d0e-9a11-fcfe1a94142c,S
2019-09-06 04:50:50,31cf4cbf-fc8c-4d0e-9a11-fcfe1a94142c,A
2019-09-06 04:57:33,31cf4cbf-fc8c-4d0e-9a11-fcfe1a94142c,S
2019-09-06 05:02:33,31cf4cbf-fc8c-4d0e-9a11-fcfe1a94142c,A
2019-09-06 05:03:29,31cf4cbf-fc8c-4d0e-9a11-fcfe1a94142c,S
2019-09-06 05:10:16,31cf4cbf-fc8c-4d0e-9a11-fcfe1a94142c,A
2019-09-06 05:12:31,31cf4cbf-fc8c-4d0e-9a11-fcfe1a94142c,S
2019-09-06 05:18:37,31cf4cbf-fc8c-4d0e-9a11-fcfe1a94142c,A
2019-09-06 05:18:39,31cf4cbf-fc8c-4d0e-9a11-fcfe1a94142c,S
2019-09-06 05:19:23,31cf4cbf-fc8c-4d0e-9a11-fcfe1a94142c,A
2019-09-06 05:23:16,31cf4cbf-fc8c-4d0e-9a11-fcfe1a94142c,S
2019-09-06 05:28:53,31cf4cbf-fc8c-4d0e-9a11-fcfe1a94142c,A
2019-09-06 05:30:54,31cf4cbf-fc8c-4d0e-9a11-fcfe1a94142c,S
2019-09-06 05:34:07,31cf4cbf-fc8c-4d0e-9a11-fcfe1a94142c,A
2019-09-06 05:36:58,31cf4cbf-fc8c-4d0e-9a11-fcfe1a94142c,S
2019-09-06 05:40:13,31cf4cbf-fc8c-4d0e-9a11-fcfe1a94142c,A
2019-09-06 05:49:14,31cf4cbf-fc8c-4d0e-9a11-fcfe1a94142c,S
2019-09-06 05:52:48,31cf4cbf-fc8c-4d0e-9a11-fcfe1a94142c,A
2019-09-06 05:53:47,31cf4cbf-fc8c-4d0e-9a11-fcfe1a94142c,S
2019-09-06 05:57:14,31cf4cbf-fc8c-4d0e-9a11-fcfe1a94142c,A
2019-09-06 05:59:12,31cf4cbf-fc8c-4d0e-9a11-fcfe1a94142c,S
2019-09-06 05:59:53,31cf4cbf-fc8c-4d0e-9a11-fcfe1a94142c,A
2019-09-06 06:07:02,31cf4cbf-fc8c-4d0e-9a11-fcfe1a94142c,S
2019-09-06 06:09:26,31cf4cbf-fc8c-4d0e-9a11-fcfe1a94142c,A
2019-09-06 06:23:17,31cf4cbf-fc8c-4d0e-9a11-fcfe1a94142c,S
2019-09-06 04:46:54,e94df825-5112-4010-9021-b4f3318285dd,S
2019-09-06 04:46:58,e94df825-5112-4010-9021-b4f3318285dd,A
2019-09-06 04:54:09,e94df825-5112-4010-9021-b4f3318285dd,S
2019-09-06 05:05:39,e94df825-5112-4010-9021-b4f3318285dd,A
2019-09-06 05:07:15,e94df825-5112-4010-9021-b4f3318285dd,S
2019-09-06 05:10:23,e94df825-5112-4010-9021-b4f3318285dd,A
2019-09-06 05:10:39,e94df825-5112-4010-9021-b4f3318285dd,S
2019-09-06 05:28:38,e94df825-5112-4010-9021-b4f3318285dd,A
2019-09-06 05:31:02,e94df825-5112-4010-9021-b4f3318285dd,S
2019-09-06 05:43:24,e94df825-5112-4010-9021-b4f3318285dd,A
2019-09-06 05:55:31,e94df825-5112-4010-9021-b4f3318285dd,S
2019-09-06 06:01:03,e94df825-5112-4010-9021-b4f3318285dd,A
2019-09-06 06:01:29,e94df825-5112-4010-9021-b4f3318285dd,S
2019-09-06 06:03:44,e94df825-5112-4010-9021-b4f3318285dd,A
2019-09-06 06:07:24,e94df825-5112-4010-9021-b4f3318285dd,S
2019-09-06 06:10:43,e94df825-5112-4010-9021-b4f3318285dd,A
2019-09-06 06:15:14,e94df825-5112-4010-9021-b4f3318285dd,S
2019-09-06 06:16:10,e94df825-5112-4010-9021-b4f3318285dd,A
2019-09-06 06:16:32,e94df825-5112-4010-9021-b4f3318285dd,S
2019-09-06 06:17:30,e94df825-5112-4010-9021-b4f3318285dd,A
2019-09-06 04:50:22,b31c578b-7423-4572-9e78-b1c70d7680f5,S
2019-09-06 05:02:36,b31c578b-7423-4572-9e78-b1c70d7680f5,A
2019-09-06 05:12:45,b31c578b-7423-4572-9e78-b1c70d7680f5,S
2019-09-06 05:14:03,b31c578b-7423-4572-9e78-b1c70d7680f5,A
2019-09-06 05:16:02,b31c578b-7423-4572-9e78-b1c70d7680f5,S
2019-09-06 05:22:41,b31c578b-7423-4572-9e78-b1c70d7680f5,A
2019-09-06 05:23:27,b31c578b-7423-4572-9e78-b1c70d7680f5,S
2019-09-06 05:25:50,b31c578b-7423-4572-9e78-b1c70d7680f5,A
2019-09-06 05:26:40,b31c578b-7423-4572-9e78-b1c70d7680f5,S
2019-09-06 05:27:02,b31c578b-7423-4572-9e78-b1c70d7680f5,A
2019-09-06 05:27:21,b31c578b-7423-4572-9e78-b1c70d7680f5,S
2019-09-06 05:34:18,b31c578b-7423-4572-9e78-b1c70d7680f5,A
2019-09-06 05:47:07,b31c578b-7423-4572-9e78-b1c70d7680f5,S
2019-09-06 05:51:45,b31c578b-7423-4572-9e78-b1c70d7680f5,A
2019-09-06 05:52:23,b31c578b-7423-4572-9e78-b1c70d7680f5,S
2019-09-06 06:09:19,b31c578b-7423-4572-9e78-b1c70d7680f5,A
2019-09-06 06:11:39,b31c578b-7423-4572-9e78-b1c70d7680f5,S
2019-09-06 06:11:53,b31c578b-7423-4572-9e78-b1c70d7680f5,A
2019-09-06 06:13:12,b31c578b-7423-4572-9e78-b1c70d7680f5,S
2019-09-06 06:15:39,b31c578b-7423-4572-9e78-b1c70d7680f5,A
2019-09-06 06:21:06,b31c578b-7423-4572-9e78-b1c70d7680f5,S
2019-09-06 06:24:10,b31c578b-7423-4572-9e78-b1c70d7680f5,A
2019-09-06 04:31:42,7cd55d4d-f87a-46af-9a4d-6a209dcfde80,S
2019-09-06 04:43:37,7cd55d4d-f87a-46af-9a4d-6a209dcfde80,A
2019-09-06 04:43:55,7cd55d4d-f87a-46af-9a4d-6a209dcfde80,S
2019-09-06 04:59:20,7cd55d4d-f87a-46af-9a4d-6a209dcfde80,A
2019-09-06 05:02:12,7cd55d4d-f87a-46af-9a4d-6a209dcfde80,S
2019-09-06 05:04:12,7cd55d4d-f87a-46af-9a4d-6a209dcfde80,A
2019-09-06 05:12:19,7cd55d4d-f87a-46af-9a4d-6a209dcfde80,S
2019-09-06 05:13:15,7cd55d4d-f87a-46af-9a4d-6a209dcfde80,A
2019-09-06 05:15:28,7cd55d4d-f87a-46af-9a4d-6a209dcfde80,S
2019-09-06 05:29:52,7cd55d4d-f87a-46af-9a4d-6a209dcfde80,A
2019-09-06 05:35:10,7cd55d4d-f87a-46af-9a4d-6a209dcfde80,S
2019-09-06 05:36:44,7cd55d4d-f87a-46af-9a4d-6a209dcfde80,A
2019-09-06 05:37:31,7cd55d4d-f87a-46af-9a4d-6a209dcfde80,S
2019-09-06 05:39:28,7cd55d4d-f87a-46af-9a4d-6a209dcfde80,A
2019-09-06 05:42:46,7cd55d4d-f87a-46af-9a4d-6a209dcfde80,S
2019-09-06 05:42:53,7cd55d4d-f87a-46af-9a4d-6a209dcfde80,A
2019-09-06 05:55:12,7cd55d4d-f87a-46af-9a4d-6a209dcfde80,S
2019-09-06 05:56:32,7cd55d4d-f87a-46af-9a4d-6a209dcfde80,A
2019-09-06 06:01:24,7cd55d4d-f87a-46af-9a4d-6a209dcfde80,S
2019-09-06 06:04:50,7cd55d4d-f87a-46af-9a4d-6a209dcfde80,A
2019-09-06 06:06:04,7cd55d4d-f87a-46af-9a4d-6a209dcfde80,S
2019-09-06 06:06:46,7cd55d4d-f87a-46af-9a4d-6a209dcfde80,A
2019-09-06 06:19:27,7cd55d4d-f87a-46af-9a4d-6a209dcfde80,S
2019-09-06 06:20:54,7cd55d4d-f87a-46af-9a4d-6a209dcfde80,A
2019-09-06 06:22:08,7cd55d4d-f87a-46af-9a4d-6a209dcfde80,S
2019-09-06 06:24:45,7cd55d4d-f87a-46af-9a4d-6a209dcfde80,A
2019-09-06 05:04:56,b925249b-92da-409f-9f8c-2fcf0a97efa5,S
2019-09-06 05:05:45,b925249b-92da-409f-9f8c-2fcf0a97efa5,A
2019-09-06 05:18:21,b925249b-92da-409f-9f8c-2fcf0a97efa5,S
2019-09-06 05:19:27,b925249b-92da-409f-9f8c-2fcf0a97efa5,A
2019-09-06 05:21:32,b925249b-92da-409f-9f8c-2fcf0a97efa5,S
2019-09-06 05:46:24,b925249b-92da-409f-9f8c-2fcf0a97efa5,A
2019-09-06 05:58:15,b925249b-92da-409f-9f8c-2fcf0a97efa5,S
2019-09-06 06:02:36,b925249b-92da-409f-9f8c-2fcf0a97efa5,A
2019-09-06 06:02:37,b925249b-92da-409f-9f8c-2fcf0a97efa5,S
2019-09-06 06:06:46,b925249b-92da-409f-9f8c-2fcf0a97efa5,A
2019-09-06 06:10:58,b925249b-92da-409f-9f8c-2fcf0a97efa5,S
2019-09-06 06:20:20,b925249b-92da-409f-9f8c-2fcf0a97efa5,A
2019-09-06 06:25:30,b925249b-92da-409f-9f8c-2fcf0a97efa5,S
2019-09-06 04:29:45,0c902e54-55ed-4345-88f2-735bf914a7b4,S
2019-09-06 04:35:58,0c902e54-55ed-4345-88f2-735bf914a7b4,A
2019-09-06 04:40:21,0c902e54-55ed-4345-88f2-735bf914a7b4,S
2019-09-06 04:50:53,0c902e54-55ed-4345-88f2-735bf914a7b4,A
2019-09-06 04:51:13,0c902e54-55ed-4345-88f2-735bf914a7b4,S
2019-09-06 04:56:42,0c902e54-55ed-4345-88f2-735bf914a7b4,A
2019-09-06 04:57:16,0c902e54-55ed-4345-88f2-735bf914a7b4,S
2019-09-06 04:57:54,0c902e54-55ed-4345-88f2-735bf914a7b4,A
2019-09-06 05:00:25,0c902e54-55ed-4345-88f2-735bf914a7b4,S
2019-09-06 05:00:45,0c902e54-55ed-4345-88f2-735bf914a7b4,A
2019-09-06 05:01:37,0c902e54-55ed-4345-88f2-735bf914a7b4,S
2019-09-06 05:17:10,0c902e54-55ed-4345-88f2-735bf914a7b4,A
2019-09-06 05:18:29,0c902e54-55ed-4345-88f2-735bf914a7b4,S
2019-09-06 05:21:37,0c902e54-55ed-4345-88f2-735bf914a7b4,A
2019-09-06 05:33:31,0c902e54-55ed-4345-88f2-735bf914a7b4,S
2019-09-06 05:34:57,0c902e54-55ed-4345-88f2-735bf914a7b4,A
2019-09-06 05:36:06,0c902e54-55ed-4345-88f2-735bf914a7b4,S
2019-09-06 05:36:58,0c902e54-55ed-4345-88f2-735bf914a7b4,A
2019-09-06 05:37:20,0c902e54-55ed-4345-88f2-735bf914a7b4,S
2019-09-06 05:43:50,0c902e54-55ed-4345-88f2-735bf914a7b4,A
2019-09-06 06:14:30,0c902e54-55ed-4345-88f2-735bf914a7b4,S
2019-09-06 06:18:16,0c902e54-55ed-4345-88f2-735bf914a7b4,A
2019-09-06 06:26:57,0c902e54-55ed-4345-88f2-735bf914a7b4,S
2019-09-06 04:51:34,810b809e-4ce2-4b13-adb5-0bc22c8e36a5,S
2019-09-06 04:53:52,810b809e-4ce2-4b13-adb5-0bc22c8e36a5,A
2019-09-06 04:59:04,810b809e-4ce2-4b13-adb5-0bc22c8e36a5,S
2019-09-06 05:07:09,810b809e-4ce2-4b13-adb5-0bc22c8e36a5,A
2019-09-06 05:14:33,810b809e-4ce2-4b13-adb5-0bc22c8e36a5,S
2019-09-06 05:14:55,810b809e-4ce2-4b13-adb5-0bc22c8e36a5,A
2019-09-06 05:20:28,810b809e-4ce2-4b13-adb5-0bc22c8e36a5,S
2019-09-06 05:31:32,810b809e-4ce2-4b13-adb5-0bc22c8e36a5,A
2019-09-06 05:35:56,810b809e-4ce2-4b13-adb5-0bc22c8e36a5,S
2019-09-06 05:38:43,810b809e-4ce2-4b13-adb5-0bc22c8e36a5,A
2019-09-06 05:45:25,810b809e-4ce2-4b13-adb5-0bc22c8e36a5,S
2019-09-06 05:46:16,810b809e-4ce2-4b13-adb5-0bc22c8e36a5,A
2019-09-06 05:49:01,810b809e-4ce2-4b13-adb5-0bc22c8e36a5,S
2019-09-06 05:52:52,810b809e-4ce2-4b13-adb5-0bc22c8e36a5,A
2019-09-06 05:59:20,810b809e-4ce2-4b13-adb5-0bc22c8e36a5,S
2019-09-06 06:02:24,810b809e-4ce2-4b13-adb5-0bc22c8e36a5,A
2019-09-06 06:14:44,810b809e-4ce2-4b13-adb5-0bc22c8e36a5,S
2019-09-06 06:19:31,810b809e-4ce2-4b13-adb5-0bc22c8e36a5,A
2019-09-06 06:21:35,810b809e-4ce2-4b13-adb5-0bc22c8e36a5,S
2019-09-06 06:25:24,810b809e-4ce2-4b13-adb5-0bc22c8e36a5,A
2019-09-06 04:48:03,03be3030-c6eb-4ab5-9bda-b8903279725b,S
2019-09-06 04:52:13,03be3030-c6eb-4ab5-9bda-b8903279725b,A
2019-09-06 04:59:40,03be3030-c6eb-4ab5-9bda-b8903279725b,S
2019-09-06 05:03:53,03be3030-c6eb-4ab5-9bda-b8903279725b,A
2019-09-06 05:04:07,03be3030-c6eb-4ab5-9bda-b8903279725b,S
2019-09-06 05:13:35,03be3030-c6eb-4ab5-9bda-b8903279725b,A
2019-09-06 05:16:36,03be3030-c6eb-4ab5-9bda-b8903279725b,S
2019-09-06 05:18:04,03be3030-c6eb-4ab5-9bda-b8903279725b,A
2019-09-06 05:19:47,03be3030-c6eb-4ab5-9bda-b8903279725b,S
2019-09-06 05:29:27,03be3030-c6eb-4ab5-9bda-b8903279725b,A
2019-09-06 05:34:18,03be3030-c6eb-4ab5-9bda-b8903279725b,S
2019-09-06 05:36:01,03be3030-c6eb-4ab5-9bda-b8903279725b,A
2019-09-06 05:36:57,03be3030-c6eb-4ab5-9bda-b8903279725b,S
2019-09-06 05:42:25,03be3030-c6eb-4ab5-9bda-b8903279725b,A
2019-09-06 05:47:00,03be3030-c6eb-4ab5-9bda-b8903279725b,S
2019-09-06 05:51:41,03be3030-c6eb-4ab5-9bda-b8903279725b,A
2019-09-06 05:59:41,03be3030-c6eb-4ab5-9bda-b8903279725b,S
2019-09-06 06:04:53,03be3030-c6eb-4ab5-9bda-b8903279725b,A
2019-09-06 06:08:13,03be3030-c6eb-4ab5-9bda-b8903279725b,S
2019-09-06 06:20:59,03be3030-c6eb-4ab5-9bda-b8903279725b,A
2019-09-06 04:21:25,65ac4d0c-ad6f-4233-ab7c-9b49ae7bda66,A
2019-09-06 04:24:53,65ac4d0c-ad6f-4233-ab7c-9b49ae7bda66,S
2019-09-06 04:33:26,65ac4d0c-ad6f-4233-ab7c-9b49ae7bda66,A
2019-09-06 04:36:29,65ac4d0c-ad6f-4233-ab7c-9b49ae7bda66,S
2019-09-06 04:36:46,65ac4d0c-ad6f-4233-ab7c-9b49ae7bda66,A
2019-09-06 04:39:15,65ac4d0c-ad6f-4233-ab7c-9b49ae7bda66,S
2019-09-06 04:44:34,65ac4d0c-ad6f-4233-ab7c-9b49ae7bda66,A
2019-09-06 04:48:30,65ac4d0c-ad6f-4233-ab7c-9b49ae7bda66,S
2019-09-06 04:51:14,65ac4d0c-ad6f-4233-ab7c-9b49ae7bda66,A
2019-09-06 05:02:02,65ac4d0c-ad6f-4233-ab7c-9b49ae7bda66,S
2019-09-06 05:07:40,65ac4d0c-ad6f-4233-ab7c-9b49ae7bda66,A
2019-09-06 05:30:14,65ac4d0c-ad6f-4233-ab7c-9b49ae7bda66,S
2019-09-06 05:54:35,65ac4d0c-ad6f-4233-ab7c-9b49ae7bda66,A
2019-09-06 06:01:09,65ac4d0c-ad6f-4233-ab7c-9b49ae7bda66,S
2019-09-06 06:04:35,65ac4d0c-ad6f-4233-ab7c-9b49ae7bda66,A
2019-09-06 06:07:30,65ac4d0c-ad6f-4233-ab7c-9b49ae7bda66,S
2019-09-06 06:12:15,65ac4d0c-ad6f-4233-ab7c-9b49ae7bda66,A
2019-09-06 06:25:19,65ac4d0c-ad6f-4233-ab7c-9b49ae7bda66,S
2019-09-06 06:26:51,65ac4d0c-ad6f-4233-ab7c-9b49ae7bda66,A
2019-09-06 05:04:32,bed50de3-4f95-4992-a64d-e54cc2ac50c1,A
2019-09-06 05:38:18,bed50de3-4f95-4992-a64d-e54cc2ac50c1,S
2019-09-06 05:38:45,bed50de3-4f95-4992-a64d-e54cc2ac50c1,A
2019-09-06 06:08:02,bed50de3-4f95-4992-a64d-e54cc2ac50c1,S
2019-09-06 06:11:06,bed50de3-4f95-4992-a64d-e54cc2ac50c1,A
2019-09-06 06:13:34,bed50de3-4f95-4992-a64d-e54cc2ac50c1,S
2019-09-06 06:15:06,bed50de3-4f95-4992-a64d-e54cc2ac50c1,A
2019-09-06 06:15:52,bed50de3-4f95-4992-a64d-e54cc2ac50c1,S
2019-09-06 06:19:07,bed50de3-4f95-4992-a64d-e54cc2ac50c1,A
2019-09-06 04:31:46,04329c63-c379-4bb9-a516-f40ce8e97527,A
2019-09-06 04:34:36,04329c63-c379-4bb9-a516-f40ce8e97527,S
2019-09-06 04:39:43,04329c63-c379-4bb9-a516-f40ce8e97527,A
2019-09-06 04:55:11,04329c63-c379-4bb9-a516-f40ce8e97527,S
2019-09-06 05:04:13,04329c63-c379-4bb9-a516-f40ce8e97527,A
2019-09-06 05:13:57,04329c63-c379-4bb9-a516-f40ce8e97527,S
2019-09-06 05:22:27,04329c63-c379-4bb9-a516-f40ce8e97527,A
2019-09-06 05:23:13,04329c63-c379-4bb9-a516-f40ce8e97527,S
2019-09-06 05:23:31,04329c63-c379-4bb9-a516-f40ce8e97527,A
2019-09-06 05:32:10,04329c63-c379-4bb9-a516-f40ce8e97527,S
2019-09-06 05:35:09,04329c63-c379-4bb9-a516-f40ce8e97527,A
2019-09-06 05:35:12,04329c63-c379-4bb9-a516-f40ce8e97527,S
2019-09-06 05:36:23,04329c63-c379-4bb9-a516-f40ce8e97527,A
2019-09-06 05:38:13,04329c63-c379-4bb9-a516-f40ce8e97527,S
2019-09-06 05:40:04,04329c63-c379-4bb9-a516-f40ce8e97527,A
2019-09-06 05:41:03,04329c63-c379-4bb9-a516-f40ce8e97527,S
2019-09-06 05:42:46,04329c63-c379-4bb9-a516-f40ce8e97527,A
2019-09-06 05:52:01,04329c63-c379-4bb9-a516-f40ce8e97527,S
2019-09-06 05:54:08,04329c63-c379-4bb9-a516-f40ce8e97527,A
2019-09-06 05:55:07,04329c63-c379-4bb9-a516-f40ce8e97527,S
2019-09-06 05:57:34,04329c63-c379-4bb9-a516-f40ce8e97527,A
2019-09-06 06:06:19,04329c63-c379-4bb9-a516-f40ce8e97527,S
2019-09-06 06:08:36,04329c63-c379-4bb9-a516-f40ce8e97527,A
2019-09-06 06:13:29,04329c63-c379-4bb9-a516-f40ce8e97527,S
2019-09-06 06:13:36,04329c63-c379-4bb9-a516-f40ce8e97527,A
2019-09-06 06:14:15,04329c63-c379-4bb9-a516-f40ce8e97527,S
2019-09-06 06:17:44,04329c63-c379-4bb9-a516-f40ce8e97527,A
2019-09-06 06:19:10,04329c63-c379-4bb9-a516-f40ce8e97527,S
2019-09-06 06:24:50,04329c63-c379-4bb9-a516-f40ce8e97527,A
2019-09-06 06:25:18,04329c63-c379-4bb9-a516-f40ce8e97527,S
2019-09-06 04:45:53,efc48d50-e9ef-4c13-90c1-c11128b7f316,S
2019-09-06 04:50:11,efc48d50-e9ef-4c13-90c1-c11128b7f316,A
2019-09-06 05:03:54,efc48d50-e9ef-4c13-90c1-c11128b7f316,S
2019-09-06 05:04:18,efc48d50-e9ef-4c13-90c1-c11128b7f316,A
2019-09-06 05:08:54,efc48d50-e9ef-4c13-90c1-c11128b7f316,S
2019-09-06 05:12:13,efc48d50-e9ef-4c13-90c1-c11128b7f316,A
2019-09-06 05:15:19,efc48d50-e9ef-4c13-90c1-c11128b7f316,S
2019-09-06 05:19:52,efc48d50-e9ef-4c13-90c1-c11128b7f316,A
2019-09-06 05:23:05,efc48d50-e9ef-4c13-90c1-c11128b7f316,S
2019-09-06 05:26:41,efc48d50-e9ef-4c13-90c1-c11128b7f316,A
2019-09-06 05:42:32,efc48d50-e9ef-4c13-90c1-c11128b7f316,S
2019-09-06 05:46:49,efc48d50-e9ef-4c13-90c1-c11128b7f316,A
2019-09-06 05:47:11,efc48d50-e9ef-4c13-90c1-c11128b7f316,S
2019-09-06 05:52:17,efc48d50-e9ef-4c13-90c1-c11128b7f316,A
2019-09-06 05:59:36,efc48d50-e9ef-4c13-90c1-c11128b7f316,S
2019-09-06 06:12:43,efc48d50-e9ef-4c13-90c1-c11128b7f316,A
2019-09-06 06:13:44,efc48d50-e9ef-4c13-90c1-c11128b7f316,S
2019-09-06 04:57:31,a714feed-1dd5-48b8-aa90-d995926249bc,A
2019-09-06 05:01:00,a714feed-1dd5-48b8-aa90-d995926249bc,S
2019-09-06 05:04:03,a714feed-1dd5-48b8-aa90-d995926249bc,A
2019-09-06 05:13:00,a714feed-1dd5-48b8-aa90-d995926249bc,S
2019-09-06 05:27:57,a714feed-1dd5-48b8-aa90-d995926249bc,A
2019-09-06 05:28:59,a714feed-1dd5-48b8-aa90-d995926249bc,S
2019-09-06 05:29:28,a714feed-1dd5-48b8-aa90-d995926249bc,A
2019-09-06 05:30:08,a714feed-1dd5-48b8-aa90-d995926249bc,S
2019-09-06 05:37:11,a714feed-1dd5-48b8-aa90-d995926249bc,A
2019-09-06 05:42:21,a714feed-1dd5-48b8-aa90-d995926249bc,S
2019-09-06 06:01:13,a714feed-1dd5-48b8-aa90-d995926249bc,A
2019-09-06 06:03:20,a714feed-1dd5-48b8-aa90-d995926249bc,S
2019-09-06 06:10:27,a714feed-1dd5-48b8-aa90-d995926249bc,A
2019-09-06 06:13:57,a714feed-1dd5-48b8-aa90-d995926249bc,S
2019-09-06 06:26:46,a714feed-1dd5-48b8-aa90-d995926249bc,A
2019-09-06 06:27:28,a714feed-1dd5-48b8-aa90-d995926249bc,S
2019-09-06 04:19:24,23e0bf89-b8c9-4b22-a418-ec84a49c6f8c,S
2019-09-06 04:23:27,23e0bf89-b8c9-4b22-a418-ec84a49c6f8c,A
2019-09-06 04:24:17,23e0bf89-b8c9-4b22-a418-ec84a49c6f8c,S
2019-09-06 04:29:30,23e0bf89-b8c9-4b22-a418-ec84a49c6f8c,A
2019-09-06 04:34:23,23e0bf89-b8c9-4b22-a418-ec84a49c6f8c,S
2019-09-06 04:39:21,23e0bf89-b8c9-4b22-a418-ec84a49c6f8c,A
2019-09-06 04:41:56,23e0bf89-b8c9-4b22-a418-ec84a49c6f8c,S
2019-09-06 04:42:42,23e0bf89-b8c9-4b22-a418-ec84a49c6f8c,A
2019-09-06 04:53:18,23e0bf89-b8c9-4b22-a418-ec84a49c6f8c,S
2019-09-06 04:53:42,23e0bf89-b8c9-4b22-a418-ec84a49c6f8c,A
2019-09-06 05:01:20,23e0bf89-b8c9-4b22-a418-ec84a49c6f8c,S
2019-09-06 05:06:40,23e0bf89-b8c9-4b22-a418-ec84a49c6f8c,A
2019-09-06 05:07:06,23e0bf89-b8c9-4b22-a418-ec84a49c6f8c,S
2019-09-06 05:13:32,23e0bf89-b8c9-4b22-a418-ec84a49c6f8c,A
2019-09-06 05:15:36,23e0bf89-b8c9-4b22-a418-ec84a49c6f8c,S
2019-09-06 05:15:49,23e0bf89-b8c9-4b22-a418-ec84a49c6f8c,A
2019-09-06 05:20:52,23e0bf89-b8c9-4b22-a418-ec84a49c6f8c,S
2019-09-06 05:21:33,23e0bf89-b8c9-4b22-a418-ec84a49c6f8c,A
2019-09-06 05:38:40,23e0bf89-b8c9-4b22-a418-ec84a49c6f8c,S
2019-09-06 05:40:56,23e0bf89-b8c9-4b22-a418-ec84a49c6f8c,A
2019-09-06 05:41:16,23e0bf89-b8c9-4b22-a418-ec84a49c6f8c,S
2019-09-06 05:44:42,23e0bf89-b8c9-4b22-a418-ec84a49c6f8c,A
2019-09-06 05:44:53,23e0bf89-b8c9-4b22-a418-ec84a49c6f8c,S
2019-09-06 05:51:54,23e0bf89-b8c9-4b22-a418-ec84a49c6f8c,A
2019-09-06 05:57:42,23e0bf89-b8c9-4b22-a418-ec84a49c6f8c,S
2019-09-06 06:18:25,23e0bf89-b8c9-4b22-a418-ec84a49c6f8c,A
2019-09-06 06:19:41,23e0bf89-b8c9-4b22-a418-ec84a49c6f8c,S
2019-09-06 04:52:23,ff11f24f-a69f-43a1-acce-7da1f8be3be0,A
2019-09-06 04:53:02,ff11f24f-a69f-43a1-acce-7da1f8be3be0,S
2019-09-06 04:54:38,ff11f24f-a69f-43a1-acce-7da1f8be3be0,A
2019-09-06 05:08:51,ff11f24f-a69f-43a1-acce-7da1f8be3be0,S
2019-09-06 05:10:57,ff11f24f-a69f-43a1-acce-7da1f8be3be0,A
2019-09-06 05:13:24,ff11f24f-a69f-43a1-acce-7da1f8be3be0,S
2019-09-06 05:21:02,ff11f24f-a69f-43a1-acce-7da1f8be3be0,A
2019-09-06 05:24:42,ff11f24f-a69f-43a1-acce-7da1f8be3be0,S
2019-09-06 05:28:04,ff11f24f-a69f-43a1-acce-7da1f8be3be0,A
2019-09-06 05:38:54,ff11f24f-a69f-43a1-acce-7da1f8be3be0,S
2019-09-06 05:38:57,ff11f24f-a69f-43a1-acce-7da1f8be3be0,A
2019-09-06 05:48:29,ff11f24f-a69f-43a1-acce-7da1f8be3be0,S
2019-09-06 06:08:57,ff11f24f-a69f-43a1-acce-7da1f8be3be0,A
2019-09-06 06:16:12,ff11f24f-a69f-43a1-acce-7da1f8be3be0,S
2019-09-06 06:20:11,ff11f24f-a69f-43a1-acce-7da1f8be3be0,A
2019-09-06 04:52:23,959126cb-59bd-4b54-aed1-fde70cb9ee74,A
2019-09-06 04:55:52,959126cb-59bd-4b54-aed1-fde70cb9ee74,S
2019-09-06 04:58:08,959126cb-59bd-4b54-aed1-fde70cb9ee74,A
2019-09-06 05:00:09,959126cb-59bd-4b54-aed1-fde70cb9ee74,S
2019-09-06 05:00:44,959126cb-59bd-4b54-aed1-fde70cb9ee74,A
2019-09-06 05:03:19,959126cb-59bd-4b54-aed1-fde70cb9ee74,S
2019-09-06 05:10:11,959126cb-59bd-4b54-aed1-fde70cb9ee74,A
2019-09-06 05:11:39,959126cb-59bd-4b54-aed1-fde70cb9ee74,S
2019-09-06 05:21:54,959126cb-59bd-4b54-aed1-fde70cb9ee74,A
2019-09-06 06:00:59,959126cb-59bd-4b54-aed1-fde70cb9ee74,S
2019-09-06 06:10:54,959126cb-59bd-4b54-aed1-fde70cb9ee74,A
2019-09-06 06:10:57,959126cb-59bd-4b54-aed1-fde70cb9ee74,S
2019-09-06 06:11:39,959126cb-59bd-4b54-aed1-fde70cb9ee74,A
2019-09-06 06:14:43,959126cb-59bd-4b54-aed1-fde70cb9ee74,S
2019-09-06 06:16:05,959126cb-59bd-4b54-aed1-fde70cb9ee74,A
2019-09-06 06:17:26,959126cb-59bd-4b54-aed1-fde70cb9ee74,S
2019-09-06 06:21:35,959126cb-59bd-4b54-aed1-fde70cb9ee74,A
2019-09-06 06:23:09,959126cb-59bd-4b54-aed1-fde70cb9ee74,S
2019-09-06 06:23:15,959126cb-59bd-4b54-aed1-fde70cb9ee74,A
2019-09-06 05:03:42,a993d41f-bbb8-449d-8478-133587f79ae4,S
2019-09-06 05:05:54,a993d41f-bbb8-449d-8478-133587f79ae4,A
2019-09-06 05:08:39,a993d41f-bbb8-449d-8478-133587f79ae4,S
2019-09-06 05:25:35,a993d41f-bbb8-449d-8478-133587f79ae4,A
2019-09-06 05:27:15,a993d41f-bbb8-449d-8478-133587f79ae4,S
2019-09-06 05:28:22,a993d41f-bbb8-449d-8478-133587f79ae4,A
2019-09-06 05:33:37,a993d41f-bbb8-449d-8478-133587f79ae4,S
2019-09-06 05:42:15,a993d41f-bbb8-449d-8478-133587f79ae4,A
2019-09-06 05:44:12,a993d41f-bbb8-449d-8478-133587f79ae4,S
2019-09-06 05:51:47,a993d41f-bbb8-449d-8478-133587f79ae4,A
2019-09-06 05:52:36,a993d41f-bbb8-449d-8478-133587f79ae4,S
2019-09-06 06:04:23,a993d41f-bbb8-449d-8478-133587f79ae4,A
2019-09-06 06:12:15,a993d41f-bbb8-449d-8478-133587f79ae4,S
2019-09-06 06:13:54,a993d41f-bbb8-449d-8478-133587f79ae4,A
2019-09-06 06:17:43,a993d41f-bbb8-449d-8478-133587f79ae4,S
2019-09-06 06:20:01,a993d41f-bbb8-449d-8478-133587f79ae4,A
2019-09-06 04:57:58,89d9503f-c43c-4caf-9211-27605a2a92a5,S
2019-09-06 04:59:54,89d9503f-c43c-4caf-9211-27605a2a92a5,A
2019-09-06 05:00:23,89d9503f-c43c-4caf-9211-27605a2a92a5,S
2019-09-06 05:08:41,89d9503f-c43c-4caf-9211-27605a2a92a5,A
2019-09-06 05:11:33,89d9503f-c43c-4caf-9211-27605a2a92a5,S
2019-09-06 05:17:54,89d9503f-c43c-4caf-9211-27605a2a92a5,A
2019-09-06 05:22:30,89d9503f-c43c-4caf-9211-27605a2a92a5,S
2019-09-06 05:23:43,89d9503f-c43c-4caf-9211-27605a2a92a5,A
2019-09-06 05:32:27,89d9503f-c43c-4caf-9211-27605a2a92a5,S
2019-09-06 05:34:02,89d9503f-c43c-4caf-9211-27605a2a92a5,A
2019-09-06 05:42:03,89d9503f-c43c-4caf-9211-27605a2a92a5,S
2019-09-06 05:42:16,89d9503f-c43c-4caf-9211-27605a2a92a5,A
2019-09-06 05:48:51,89d9503f-c43c-4caf-9211-27605a2a92a5,S
2019-09-06 05:53:45,89d9503f-c43c-4caf-9211-27605a2a92a5,A
2019-09-06 05:54:40,89d9503f-c43c-4caf-9211-27605a2a92a5,S
2019-09-06 05:56:37,89d9503f-c43c-4caf-9211-27605a2a92a5,A
2019-09-06 05:56:38,89d9503f-c43c-4caf-9211-27605a2a92a5,S
2019-09-06 05:57:59,89d9503f-c43c-4caf-9211-27605a2a92a5,A
2019-09-06 06:00:45,89d9503f-c43c-4caf-9211-27605a2a92a5,S
2019-09-06 06:08:11,89d9503f-c43c-4caf-9211-27605a2a92a5,A
2019-09-06 06:09:44,89d9503f-c43c-4caf-9211-27605a2a92a5,S
2019-09-06 06:10:20,89d9503f-c43c-4caf-9211-27605a2a92a5,A
2019-09-06 06:17:22,89d9503f-c43c-4caf-9211-27605a2a92a5,S
2019-09-06 06:20:51,89d9503f-c43c-4caf-9211-27605a2a92a5,A
2019-09-06 06:28:58,89d9503f-c43c-4caf-9211-27605a2a92a5,S
2019-09-06 04:55:17,8281ec33-c08f-467a-bff0-4c9873d5ac27,S
2019-09-06 04:57:12,8281ec33-c08f-467a-bff0-4c9873d5ac27,A
2019-09-06 05:00:20,8281ec33-c08f-467a-bff0-4c9873d5ac27,S
2019-09-06 05:00:50,8281ec33-c08f-467a-bff0-4c9873d5ac27,A
2019-09-06 05:03:58,8281ec33-c08f-467a-bff0-4c9873d5ac27,S
2019-09-06 05:05:59,8281ec33-c08f-467a-bff0-4c9873d5ac27,A
2019-09-06 05:10:15,8281ec33-c08f-467a-bff0-4c9873d5ac27,S
2019-09-06 05:11:12,8281ec33-c08f-467a-bff0-4c9873d5ac27,A
2019-09-06 05:12:01,8281ec33-c08f-467a-bff0-4c9873d5ac27,S
2019-09-06 05:19:28,8281ec33-c08f-467a-bff0-4c9873d5ac27,A
2019-09-06 05:21:41,8281ec33-c08f-467a-bff0-4c9873d5ac27,S
2019-09-06 05:25:13,8281ec33-c08f-467a-bff0-4c9873d5ac27,A
2019-09-06 05:33:29,8281ec33-c08f-467a-bff0-4c9873d5ac27,S
2019-09-06 05:40:54,8281ec33-c08f-467a-bff0-4c9873d5ac27,A
2019-09-06 05:42:56,8281ec33-c08f-467a-bff0-4c9873d5ac27,S
2019-09-06 05:45:41,8281ec33-c08f-467a-bff0-4c9873d5ac27,A
2019-09-06 05:46:45,8281ec33-c08f-467a-bff0-4c9873d5ac27,S
2019-09-06 05:48:03,8281ec33-c08f-467a-bff0-4c9873d5ac27,A
2019-09-06 05:49:35,8281ec33-c08f-467a-bff0-4c9873d5ac27,S
2019-09-06 05:57:43,8281ec33-c08f-467a-bff0-4c9873d5ac27,A
2019-09-06 05:57:53,8281ec33-c08f-467a-bff0-4c9873d5ac27,S
2019-09-06 05:58:05,8281ec33-c08f-467a-bff0-4c9873d5ac27,A
2019-09-06 06:01:56,8281ec33-c08f-467a-bff0-4c9873d5ac27,S
2019-09-06 06:04:20,8281ec33-c08f-467a-bff0-4c9873d5ac27,A
2019-09-06 06:05:04,8281ec33-c08f-467a-bff0-4c9873d5ac27,S
2019-09-06 06:06:22,8281ec33-c08f-467a-bff0-4c9873d5ac27,A
2019-09-06 06:07:16,8281ec33-c08f-467a-bff0-4c9873d5ac27,S
2019-09-06 06:15:38,8281ec33-c08f-467a-bff0-4c9873d5ac27,A
2019-09-06 06:16:51,8281ec33-c08f-467a-bff0-4c9873d5ac27,S
2019-09-06 06:25:50,8281ec33-c08f-467a-bff0-4c9873d5ac27,A
2019-09-06 04:27:51,ca696eed-2147-48fe-9c6a-87c6d0d675a4,S
2019-09-06 04:43:59,ca696eed-2147-48fe-9c6a-87c6d0d675a4,A
2019-09-06 04:45:11,ca696eed-2147-48fe-9c6a-87c6d0d675a4,S
2019-09-06 04:50:00,ca696eed-2147-48fe-9c6a-87c6d0d675a4,A
2019-09-06 04:51:05,ca696eed-2147-48fe-9c6a-87c6d0d675a4,S
2019-09-06 04:53:53,ca696eed-2147-48fe-9c6a-87c6d0d675a4,A
2019-09-06 04:59:05,ca696eed-2147-48fe-9c6a-87c6d0d675a4,S
2019-09-06 05:01:15,ca696eed-2147-48fe-9c6a-87c6d0d675a4,A
2019-09-06 05:04:44,ca696eed-2147-48fe-9c6a-87c6d0d675a4,S
2019-09-06 05:10:19,ca696eed-2147-48fe-9c6a-87c6d0d675a4,A
2019-09-06 05:20:50,ca696eed-2147-48fe-9c6a-87c6d0d675a4,S
2019-09-06 05:26:30,ca696eed-2147-48fe-9c6a-87c6d0d675a4,A
2019-09-06 05:28:28,ca696eed-2147-48fe-9c6a-87c6d0d675a4,S
2019-09-06 05:30:30,ca696eed-2147-48fe-9c6a-87c6d0d675a4,A
2019-09-06 05:38:47,ca696eed-2147-48fe-9c6a-87c6d0d675a4,S
2019-09-06 05:40:57,ca696eed-2147-48fe-9c6a-87c6d0d675a4,A
2019-09-06 05:45:51,ca696eed-2147-48fe-9c6a-87c6d0d675a4,S
2019-09-06 05:48:50,ca696eed-2147-48fe-9c6a-87c6d0d675a4,A
2019-09-06 05:49:57,ca696eed-2147-48fe-9c6a-87c6d0d675a4,S
2019-09-06 05:54:53,ca696eed-2147-48fe-9c6a-87c6d0d675a4,A
2019-09-06 05:57:45,ca696eed-2147-48fe-9c6a-87c6d0d675a4,S
2019-09-06 06:01:34,ca696eed-2147-48fe-9c6a-87c6d0d675a4,A
2019-09-06 06:03:55,ca696eed-2147-48fe-9c6a-87c6d0d675a4,S
2019-09-06 06:07:41,ca696eed-2147-48fe-9c6a-87c6d0d675a4,A
2019-09-06 06:13:06,ca696eed-2147-48fe-9c6a-87c6d0d675a4,S
2019-09-06 06:14:13,ca696eed-2147-48fe-9c6a-87c6d0d675a4,A
2019-09-06 06:19:57,ca696eed-2147-48fe-9c6a-87c6d0d675a4,S
2019-09-06 06:20:55,ca696eed-2147-48fe-9c6a-87c6d0d675a4,A
2019-09-06 06:22:25,ca696eed-2147-48fe-9c6a-87c6d0d675a4,S
2019-09-06 06:22:56,ca696eed-2147-48fe-9c6a-87c6d0d675a4,A
2019-09-06 06:26:16,ca696eed-2147-48fe-9c6a-87c6d0d675a4,S
2019-09-06 06:27:45,ca696eed-2147-48fe-9c6a-87c6d0d675a4,A
2019-09-06 04:16:35,8e63a455-4a98-475e-8320-47b6553111d5,S
2019-09-06 04:17:41,8e63a455-4a98-475e-8320-47b6553111d5,A
2019-09-06 04:18:55,8e63a455-4a98-475e-8320-47b6553111d5,S
2019-09-06 04:22:34,8e63a455-4a98-475e-8320-47b6553111d5,A
2019-09-06 04:25:18,8e63a455-4a98-475e-8320-47b6553111d5,S
2019-09-06 04:30:28,8e63a455-4a98-475e-8320-47b6553111d5,A
2019-09-06 04:31:46,8e63a455-4a98-475e-8320-47b6553111d5,S
2019-09-06 04:37:45,8e63a455-4a98-475e-8320-47b6553111d5,A
2019-09-06 04:49:01,8e63a455-4a98-475e-8320-47b6553111d5,S
2019-09-06 04:52:42,8e63a455-4a98-475e-8320-47b6553111d5,A
2019-09-06 04:57:14,8e63a455-4a98-475e-8320-47b6553111d5,S
2019-09-06 05:08:41,8e63a455-4a98-475e-8320-47b6553111d5,A
2019-09-06 05:22:08,8e63a455-4a98-475e-8320-47b6553111d5,S
2019-09-06 05:23:06,8e63a455-4a98-475e-8320-47b6553111d5,A
2019-09-06 05:24:39,8e63a455-4a98-475e-8320-47b6553111d5,S
2019-09-06 05:25:25,8e63a455-4a98-475e-8320-47b6553111d5,A
2019-09-06 05:26:34,8e63a455-4a98-475e-8320-47b6553111d5,S
2019-09-06 05:35:10,8e63a455-4a98-475e-8320-47b6553111d5,A
2019-09-06 05:37:08,8e63a455-4a98-475e-8320-47b6553111d5,S
2019-09-06 05:38:56,8e63a455-4a98-475e-8320-47b6553111d5,A
2019-09-06 05:43:44,8e63a455-4a98-475e-8320-47b6553111d5,S
2019-09-06 05:52:37,8e63a455-4a98-475e-8320-47b6553111d5,A
2019-09-06 06:03:29,8e63a455-4a98-475e-8320-47b6553111d5,S
2019-09-06 06:07:25,8e63a455-4a98-475e-8320-47b6553111d5,A
2019-09-06 06:07:43,8e63a455-4a98-475e-8320-47b6553111d5,S
2019-09-06 06:13:22,8e63a455-4a98-475e-8320-47b6553111d5,A
2019-09-06 06:19:47,8e63a455-4a98-475e-8320-47b6553111d5,S
2019-09-06 06:19:48,8e63a455-4a98-475e-8320-47b6553111d5,A
2019-09-06 06:21:47,8e63a455-4a98-475e-8320-47b6553111d5,S
2019-09-06 06:24:25,8e63a455-4a98-475e-8320-47b6553111d5,A
2019-09-06 06:26:14,8e63a455-4a98-475e-8320-47b6553111d5,S
2019-09-06 06:29:15,8e63a455-4a98-475e-8320-47b6553111d5,A
