app_number,app_id,trigger,burn,sink,deploy_date,token_interval
1,b344a21b-b0ea-47a7-b1a1-44436967c5e3,b696e72f-bd49-4f74-ac87-23b01d576f04,98abe19f-0459-4824-b83d-8f8d1d40da37,aff20b4d-9038-4724-8c8f-81663dc9b667,2019-10-27 21:05:07,1.000000
2,826d341e-dfef-46bd-93c7-6181be11e5a2,d916337e-9355-4206-bcc7-66ee81fb4221,b1fb9714-2c12-46a3-8933-f4e265908bb8,9ea7c9eb-c71b-4f60-bca7-1f11217da08b,2019-10-27 21:06:11,1.000000
3,9cad0ae3-464d-4d88-9ea3-68b4b85c4e57,57b389ca-9059-49d5-b277-9ddb66b9e184,347f6d27-8985-44d7-8451-1231f3d0ab79,7c754929-beea-4a7b-83e1-a7a5302f0358,2019-10-27 21:07:14,1.000000
4,81fd643f-2383-4653-8e06-fe88c640a6b5,91fd0545-63f2-462a-95b0-711d09acf3fe,776507e7-516a-4d63-a611-befe86092330,b32ebfd7-2cdf-442b-95d6-178e9f759ae0,2019-10-27 21:08:18,0.200000
5,84756e01-3682-4800-bf35-38f89680ac8d,51896bad-87e4-4d12-9bb2-8594627c6fa2,0d72293b-9872-4958-95ef-1695e5a1fb7d,7335c530-54c8-4b49-8b1c-50da9c57bf58,2019-10-27 21:09:22,0.200000
6,62aaff9a-559d-4ab0-91a0-418fcd2e8f21,49c8908c-5f0d-4a1f-83e9-69b5d50284cc,7094e07b-be5b-4151-a331-4601cdb19f31,64bcf959-9dfb-45d3-bfeb-c7e648c8fa86,2019-10-27 21:10:26,0.200000
7,3fbd39c7-a56a-4d04-8fb0-0ad5da2b384d,bea8102d-c6af-472e-8c4d-178d5a3fa7f5,7caa9924-be98-4f65-8a71-058e97671b15,393c520c-4db1-4c01-a5a5-1a3058ecad0f,2019-10-27 21:11:30,0.200000
8,2e106902-0edb-4462-86be-485dc28e25e9,226417fd-16e3-4303-9301-50762757798b,9d966836-159e-4917-8cf5-9e9cd25b88ff,d4311335-5465-4de3-bd39-76395dd2c837,2019-10-27 21:12:33,1.000000
9,167979aa-9628-4d93-921c-9b9ef71a16e8,44ca3eab-2085-4026-bdf8-eac65079c609,5706466f-dcc6-42ab-85fa-9a1fdba1c1b5,73be6c50-0417-4774-9264-f7b3b390af01,2019-10-27 21:13:37,0.200000
10,a5bc6fa5-7827-4a46-a2f0-6539479a7fd4,75e9e450-eab5-4e5b-a6c3-8c0eb03fec6e,e8e7398a-3c48-4848-a29a-cc7918bbcf50,e671a919-508a-480a-b52e-66bd8bc85423,2019-10-27 21:14:41,0.200000
11,6934060f-9b10-42f9-bdcd-c7ecf68fd833,65a1f408-a80d-4d41-8c9f-b7746de2450e,70b3907f-9672-4455-8992-9465bbf34e52,c15ce488-4e17-4a70-ae98-ada39dc8ec17,2019-10-27 21:15:45,0.200000
12,855985b0-a742-40d6-852d-04fbec3bfe52,1531fdda-ae8a-4d24-b824-a39e2b63c6d6,be90afda-e732-4e6c-846f-6097d6b0c767,d04442a6-2c4e-4de5-8a07-5ac220702eb6,2019-10-27 21:16:48,1.000000
13,b659d74d-0f13-4a3d-942d-b7709ab52c7e,62c6d776-4b37-4622-ae26-fe728b0b81df,e6fce4c9-47ca-4614-aea2-d329e9ad5134,deb5e6d8-bc25-4134-9a4f-e11677c708dc,2019-10-27 21:17:52,0.200000
14,db77fdbb-1863-4611-aedf-e69bfba9db2b,a1c397c6-d252-4b8a-a1d7-d0300c489ccd,65ffc090-e5fd-4f56-8454-935b16998341,f766a6ba-ec9c-4429-8c2e-2852032208aa,2019-10-27 21:18:56,0.200000
15,59bc7794-e761-4fab-b793-1cbf9f9deeed,edafaa94-08d7-427c-92f4-bef0c6f2c4b5,f2561d9a-be9e-4e3d-bccc-4c345f682108,3a124c48-2151-4996-b886-542b9732c649,2019-10-27 21:20:00,1.000000
16,be58a6a5-5bf6-443c-b314-90ad93877132,9ffb616f-f797-4849-965a-a37820149472,96ab5026-59d8-456f-b4f8-dde54e3e0dfb,78102486-90c9-473f-959b-e4d3824d0005,2019-10-27 21:21:03,1.000000
17,32469aff-c079-4a14-ba57-f32a42b7eb65,4a77f9ce-3dd9-4978-a187-af3ab4f1e608,42cf20a1-2035-4f7a-a381-d19399f61f1e,03851cc1-7f61-4413-93fb-117dbf2f8a4a,2019-10-27 21:22:07,0.200000
18,9911415e-6748-40aa-bfde-255c1f9a42d2,13c24d4a-9640-403a-a2e6-bd0aafb9aa6e,c96e1008-a1bc-49d7-9219-ed803ba4cadb,ee96123b-fbdc-496a-974f-e0bd5638e8b0,2019-10-27 21:23:10,1.000000
19,452d5ba8-cac5-41d8-90c9-0f956e34f42f,65e4ec29-c942-471e-9498-cd3f61515d43,d12588a7-6d5e-4f9f-bda2-444cee925117,b76e9e82-84da-4759-9303-ae01ba2e5e11,2019-10-27 21:24:14,0.200000
20,3efb9859-c42e-4914-b934-18d4a5262764,4ec10aba-9a19-40e4-a09f-20f4fbc326b4,6856bf71-6cc3-49cf-ae8a-20d3d33523eb,60c30b67-fb28-4305-a8e9-8b74e93b664d,2019-10-27 21:25:18,1.000000
21,84c835f4-a990-4d27-9a79-5aaee8f1d0fe,15d0525f-28e8-41f0-9195-e98133cacd8e,1dcae747-c1e5-4f30-9c97-c9d4ff9c3646,40e88c6e-39d9-480f-ac6f-3c7b4e99163f,2019-10-27 21:26:22,0.200000
22,2f1ae386-7f29-4bfd-91a2-08e4ab507784,a84d766a-29de-4716-8147-32cf4a0cd7f2,56862a89-3a35-474e-8003-c099fb920c60,487b4c4a-80b9-477e-bdd7-0547fcc381c0,2019-10-27 21:27:26,0.200000
23,642bc025-cb0c-421c-964f-ecf4e813ab0c,2cd1e8c7-bbc8-4086-b842-c19d6649775e,0e6aca4b-f731-4cf5-b218-3d25e589a4ea,ba0ec1e8-308b-4fc2-b879-49578975428b,2019-10-27 21:28:29,0.200000
24,735d603c-729c-4b80-a471-c9d3de6897a4,30172929-9e71-42f4-a33a-dd19b08f1d70,4ff5b47b-5524-49f0-9495-5756b1c2d6b1,0cbe963d-8cea-4919-9ff7-647deaa04e71,2019-10-27 21:29:33,1.000000
25,ea469f98-0b7d-45b7-a952-d2888814b84b,0772a7ad-6ad7-44dd-a5d1-6c94aa4f3b50,587d107d-0f0a-45bf-ada7-8f218fab93c8,805f6d40-594c-4e56-b042-0f18fd52a024,2019-10-27 21:30:37,1.000000
26,7aaaee11-6871-4e12-aa4f-0b7ed66115ba,f2d01fa2-c2dd-4f37-8f6e-bfc987ed475a,59c0cdab-8a3a-42c9-aa13-944d15f9e726,0b98610c-89ac-484c-ac67-853493a2de40,2019-10-27 21:31:41,1.000000
27,6a9439f6-0ba0-4f42-8736-a3d600ca36a1,ef552c41-9a0d-4455-bb95-71b51b178e3e,f8510f1f-0714-4d10-b2a1-e32c92edbb1f,5ffe533d-b72c-4318-a5ce-91f40f52193a,2019-10-27 21:32:45,0.200000
28,ff79dd89-3744-4ea3-a5bd-df2f4145772f,34e64af0-a1f4-45d1-80e4-fc00ed51e603,44ac43da-f082-4d83-8b57-71d3c946445d,cec9ba17-b4ec-4a9f-8364-951921f06fd3,2019-10-27 21:33:48,1.000000
29,6c316221-8fec-48c6-83db-cd494fa02806,d90e716d-1ec0-49a9-b7ed-c07db45e6f8e,ee67dd7a-6d23-4af0-bd7d-c1c2c38baf81,674b5fdc-ecd4-4ab5-abf8-cac84fa2c0df,2019-10-27 21:34:52,1.000000
30,4006f637-1f85-45dc-8306-15d8f707c0c0,d18f0700-9738-49ce-a15e-5e98e65f1db6,c6c72bde-1ca1-4d36-bb8c-8245eff4dae4,eaaaece3-2a86-464d-beeb-c13b54a33342,2019-10-27 21:35:56,1.000000
31,07650a0b-9580-4647-b9b6-c63b14d0a2c4,5ae9cb40-c909-4428-bdb6-58d8a19122d5,853b2116-665c-4213-8bc6-d5344edadc72,06c4eaae-ae28-41fa-8bc6-f9bed4d13dd8,2019-10-27 21:36:59,1.000000
32,a62ec600-43fd-4f47-b4bd-47e588fe5b2d,e9779e5a-6c53-4f06-a2db-f68364125560,4ff7da86-a0b0-4db6-98a9-497d10c38e36,0d107cd9-58e7-4bb7-8a12-65d7133b8345,2019-10-27 21:38:03,0.200000
33,94e04662-0313-4017-97f8-1f1cefa0e8b4,607885b6-47fc-433b-aa84-0f621c4ed3b6,25c1e0dd-9310-4f1a-9e74-77321567ab94,7e2e463c-d5f7-4000-9a52-85d59e22f8b8,2019-10-27 21:39:07,1.000000
34,4cae9784-32b4-4cf7-b45e-995e71f3b481,7c2e8338-a48a-475f-a525-25da8fe424d5,f01479c6-077a-4b85-8bfb-a33919853f41,21f4ed44-cc04-45dd-b43f-529f56e157d6,2019-10-27 21:40:11,0.200000
35,84e9e5f0-6035-414e-8a66-b628c9adc28f,4d27b60c-5a99-476b-b576-ff22e714a9be,d6bf9c75-24c5-4f11-8da9-6ac66635a6a6,348c6776-6d08-4e82-ac4a-68bb85c2d864,2019-10-27 21:41:14,1.000000
36,9cbf1bf6-304e-4be5-b611-501840d2aa8e,456c9d05-6497-459e-8f1b-e7429eaee8fc,1f1774c4-b167-409c-ae2c-5ac40d683f31,46e1264b-6a6e-44f6-8fce-cb55bd990ccd,2019-10-27 21:42:18,0.200000
37,adf92e9f-b39c-4eff-ae3f-2a7860357d82,50e6bc98-b068-4a33-b826-48587f034890,08db6912-df5b-4eda-88d3-506674094aea,bb65a872-af77-4241-ab05-352e3e3b28d1,2019-10-27 21:43:22,1.000000
38,71c1ddb7-e974-40ad-97b5-9614d4f11730,9da62754-59fb-43ef-88fb-912f3f5a7749,f711f152-8bfa-41fd-963f-e6d43fea329f,16ccab97-a8ce-47e7-b2c7-0d42b6e25202,2019-10-27 21:44:26,1.000000
39,6bd1c227-3796-4ca9-8662-7392c9fc1471,3a77d3d4-6c5e-412d-a9d0-10c3e61b1d29,6445f839-4349-42f6-95e0-136701050ae9,c1b8094d-622b-4e17-ad61-8e98c7a41f2a,2019-10-27 21:45:30,0.200000
40,edac5090-d9a5-4e93-8b3e-ed102b54ba06,70944335-b7da-4eeb-b998-e9458ab869dc,6e9c0c58-229f-4a9b-8298-ed8c4d8c8856,bd9b1b92-8ba6-4c7f-ba81-664143be406e,2019-10-27 21:46:33,0.200000
41,5ef74022-cbf8-4adb-bf56-64d64aae0770,b78b2956-5dee-471e-9b93-93540f8e9483,358064fe-e49a-441c-954d-eb2859fe5ad5,cd29de43-935f-41b4-962c-4c0048485d20,2019-10-27 21:47:37,1.000000
42,0964cc7d-689c-4c32-8ecb-1e77b8a53310,9d52376a-a58d-433c-9180-9f346c006d2f,03cb9c80-1b50-430e-b639-ec16817fda3b,d1312133-d3f6-48f7-bb67-baf301974600,2019-10-27 21:48:41,0.200000
43,cad99aac-01c6-4949-8890-222daf726b58,eeefeaa7-2d23-41bf-8b28-b3e3350d70c8,5510953c-785c-452d-9247-ac09fef23b82,57377b4b-cbcb-462b-9099-70a73acb0e2c,2019-10-27 21:49:44,0.200000
44,81ede223-46bc-4885-8043-e14753f3fa78,871b7f3d-3ca4-4c55-ba34-240f596f3ae1,5ea923eb-cb9b-4c0b-bbda-ba06378ba090,261398ae-b005-48fa-88be-a920e9fc8a39,2019-10-27 21:50:48,0.200000
45,310bea3f-25f5-4ea5-89d9-7596fe50251d,19aa5056-77ee-4e45-843b-2d9fc297c4a3,b8d2976c-49b8-42db-8083-7fb4bd9ceca7,ec0b70a8-58e6-4872-a8e9-7dee0f452c5f,2019-10-27 21:51:52,1.000000
46,b9a28ba3-d721-4e01-bb80-593f1904f928,216d81bd-f161-47c5-b8e9-e8968436a6f2,f9b7666d-b5d7-4f5f-931a-d355bb24d3c4,399a9545-15b0-4af2-be90-0af0dc77ad87,2019-10-27 21:52:56,0.200000
47,81ee1ace-bce1-4235-8f56-6018476271cc,5865560f-39e6-4a3b-8a04-863963eddd1f,dc597196-a468-466c-9599-6106edbf0bb2,23378c17-f9ce-40a6-9650-91905d4a42a9,2019-10-27 21:53:59,0.200000
48,32c12dca-17f8-4ea2-a03a-d2516eb93d8f,d2d71987-0e45-4690-ab35-789f965cc72e,73e32bfc-3ccf-42a8-a42b-f4d77696ee02,4ec0adc8-6bde-45ff-8a49-eaefbf0cb31a,2019-10-27 21:55:03,1.000000
49,92cc098e-7b59-4528-94e9-ef28f3e6e4a0,c0c980af-e7b1-4f4b-95ec-3faf9e8588ae,78a54de5-9d5a-4bd0-a5d8-163f2c06f7be,0229fa46-2564-4dd3-b332-9801274c30d9,2019-10-27 21:56:07,0.200000
50,84b523a9-1b0b-4514-945a-853e5249b6f4,c8b1739b-dce0-4dfd-a2e2-355f22d74184,cac6747b-ccce-4c98-9863-60263c60ba04,d84f4a7b-72e6-4549-ae13-9f5eecbc6d38,2019-10-27 21:57:10,1.000000
