date,trigger,state
2020-03-08 04:36:59,af6b3b17-7486-44c5-9d38-d050faa84253,A
2020-03-08 04:44:43,af6b3b17-7486-44c5-9d38-d050faa84253,S
2020-03-08 04:48:34,af6b3b17-7486-44c5-9d38-d050faa84253,A
2020-03-08 05:07:34,af6b3b17-7486-44c5-9d38-d050faa84253,S
2020-03-08 05:14:18,af6b3b17-7486-44c5-9d38-d050faa84253,A
2020-03-08 05:20:09,af6b3b17-7486-44c5-9d38-d050faa84253,S
2020-03-08 05:27:11,af6b3b17-7486-44c5-9d38-d050faa84253,A
2020-03-08 05:34:12,af6b3b17-7486-44c5-9d38-d050faa84253,S
2020-03-08 05:34:28,af6b3b17-7486-44c5-9d38-d050faa84253,A
2020-03-08 05:35:37,af6b3b17-7486-44c5-9d38-d050faa84253,S
2020-03-08 05:38:09,af6b3b17-7486-44c5-9d38-d050faa84253,A
2020-03-08 05:42:51,af6b3b17-7486-44c5-9d38-d050faa84253,S
2020-03-08 05:42:51,af6b3b17-7486-44c5-9d38-d050faa84253,A
2020-03-08 05:43:47,af6b3b17-7486-44c5-9d38-d050faa84253,S
2020-03-08 05:46:08,af6b3b17-7486-44c5-9d38-d050faa84253,A
2020-03-08 05:48:22,af6b3b17-7486-44c5-9d38-d050faa84253,S
2020-03-08 05:55:46,af6b3b17-7486-44c5-9d38-d050faa84253,A
2020-03-08 06:07:49,af6b3b17-7486-44c5-9d38-d050faa84253,S
2020-03-08 06:33:39,af6b3b17-7486-44c5-9d38-d050faa84253,A
2020-03-08 06:36:51,af6b3b17-7486-44c5-9d38-d050faa84253,S
2020-03-08 06:42:02,af6b3b17-7486-44c5-9d38-d050faa84253,A
2020-03-08 06:42:59,af6b3b17-7486-44c5-9d38-d050faa84253,S
2020-03-08 06:45:18,af6b3b17-7486-44c5-9d38-d050faa84253,A
2020-03-08 07:02:45,af6b3b17-7486-44c5-9d38-d050faa84253,S
2020-03-08 07:07:38,af6b3b17-7486-44c5-9d38-d050faa84253,A
2020-03-08 07:08:24,af6b3b17-7486-44c5-9d38-d050faa84253,S
2020-03-08 07:09:15,af6b3b17-7486-44c5-9d38-d050faa84253,A
2020-03-08 04:31:29,e253e7ed-6598-4c1b-b5eb-9e9e0a278ef3,S
2020-03-08 04:39:56,e253e7ed-6598-4c1b-b5eb-9e9e0a278ef3,A
2020-03-08 04:43:01,e253e7ed-6598-4c1b-b5eb-9e9e0a278ef3,S
2020-03-08 04:51:49,e253e7ed-6598-4c1b-b5eb-9e9e0a278ef3,A
2020-03-08 05:01:23,e253e7ed-6598-4c1b-b5eb-9e9e0a278ef3,S
2020-03-08 05:04:49,e253e7ed-6598-4c1b-b5eb-9e9e0a278ef3,A
2020-03-08 05:05:44,e253e7ed-6598-4c1b-b5eb-9e9e0a278ef3,S
2020-03-08 05:07:57,e253e7ed-6598-4c1b-b5eb-9e9e0a278ef3,A
2020-03-08 05:23:54,e253e7ed-6598-4c1b-b5eb-9e9e0a278ef3,S
2020-03-08 05:26:00,e253e7ed-6598-4c1b-b5eb-9e9e0a278ef3,A
2020-03-08 05:26:03,e253e7ed-6598-4c1b-b5eb-9e9e0a278ef3,S
2020-03-08 05:37:19,e253e7ed-6598-4c1b-b5eb-9e9e0a278ef3,A
2020-03-08 05:45:00,e253e7ed-6598-4c1b-b5eb-9e9e0a278ef3,S
2020-03-08 05:54:19,e253e7ed-6598-4c1b-b5eb-9e9e0a278ef3,A
2020-03-08 05:59:36,e253e7ed-6598-4c1b-b5eb-9e9e0a278ef3,S
2020-03-08 06:02:24,e253e7ed-6598-4c1b-b5eb-9e9e0a278ef3,A
2020-03-08 06:03:07,e253e7ed-6598-4c1b-b5eb-9e9e0a278ef3,S
2020-03-08 06:06:36,e253e7ed-6598-4c1b-b5eb-9e9e0a278ef3,A
2020-03-08 06:09:39,e253e7ed-6598-4c1b-b5eb-9e9e0a278ef3,S
2020-03-08 06:18:37,e253e7ed-6598-4c1b-b5eb-9e9e0a278ef3,A
2020-03-08 06:33:33,e253e7ed-6598-4c1b-b5eb-9e9e0a278ef3,S
2020-03-08 06:34:36,e253e7ed-6598-4c1b-b5eb-9e9e0a278ef3,A
2020-03-08 06:35:05,e253e7ed-6598-4c1b-b5eb-9e9e0a278ef3,S
2020-03-08 06:35:44,e253e7ed-6598-4c1b-b5eb-9e9e0a278ef3,A
2020-03-08 06:42:48,e253e7ed-6598-4c1b-b5eb-9e9e0a278ef3,S
2020-03-08 06:47:58,e253e7ed-6598-4c1b-b5eb-9e9e0a278ef3,A
2020-03-08 07:06:50,e253e7ed-6598-4c1b-b5eb-9e9e0a278ef3,S
2020-03-08 07:08:57,e253e7ed-6598-4c1b-b5eb-9e9e0a278ef3,A
2020-03-08 04:27:24,0dc065a1-242d-4c68-9c54-8e26e9627056,A
2020-03-08 04:32:54,0dc065a1-242d-4c68-9c54-8e26e9627056,S
2020-03-08 04:41:24,0dc065a1-242d-4c68-9c54-8e26e9627056,A
2020-03-08 04:46:35,0dc065a1-242d-4c68-9c54-8e26e9627056,S
2020-03-08 04:49:52,0dc065a1-242d-4c68-9c54-8e26e9627056,A
2020-03-08 04:51:41,0dc065a1-242d-4c68-9c54-8e26e9627056,S
2020-03-08 04:53:54,0dc065a1-242d-4c68-9c54-8e26e9627056,A
2020-03-08 05:02:54,0dc065a1-242d-4c68-9c54-8e26e9627056,S
2020-03-08 05:06:24,0dc065a1-242d-4c68-9c54-8e26e9627056,A
2020-03-08 05:09:35,0dc065a1-242d-4c68-9c54-8e26e9627056,S
2020-03-08 05:11:18,0dc065a1-242d-4c68-9c54-8e26e9627056,A
2020-03-08 05:21:36,0dc065a1-242d-4c68-9c54-8e26e9627056,S
2020-03-08 05:36:01,0dc065a1-242d-4c68-9c54-8e26e9627056,A
2020-03-08 05:39:40,0dc065a1-242d-4c68-9c54-8e26e9627056,S
2020-03-08 05:44:56,0dc065a1-242d-4c68-9c54-8e26e9627056,A
2020-03-08 05:51:39,0dc065a1-242d-4c68-9c54-8e26e9627056,S
2020-03-08 05:56:39,0dc065a1-242d-4c68-9c54-8e26e9627056,A
2020-03-08 05:57:35,0dc065a1-242d-4c68-9c54-8e26e9627056,S
2020-03-08 06:04:22,0dc065a1-242d-4c68-9c54-8e26e9627056,A
2020-03-08 06:06:37,0dc065a1-242d-4c68-9c54-8e26e9627056,S
2020-03-08 06:12:43,0dc065a1-242d-4c68-9c54-8e26e9627056,A
2020-03-08 06:12:45,0dc065a1-242d-4c68-9c54-8e26e9627056,S
2020-03-08 06:13:29,0dc065a1-242d-4c68-9c54-8e26e9627056,A
2020-03-08 06:17:22,0dc065a1-242d-4c68-9c54-8e26e9627056,S
2020-03-08 06:22:59,0dc065a1-242d-4c68-9c54-8e26e9627056,A
2020-03-08 06:25:00,0dc065a1-242d-4c68-9c54-8e26e9627056,S
2020-03-08 06:28:13,0dc065a1-242d-4c68-9c54-8e26e9627056,A
2020-03-08 06:31:04,0dc065a1-242d-4c68-9c54-8e26e9627056,S
2020-03-08 06:34:19,0dc065a1-242d-4c68-9c54-8e26e9627056,A
2020-03-08 06:43:21,0dc065a1-242d-4c68-9c54-8e26e9627056,S
2020-03-08 06:46:54,0dc065a1-242d-4c68-9c54-8e26e9627056,A
2020-03-08 06:47:53,0dc065a1-242d-4c68-9c54-8e26e9627056,S
2020-03-08 06:51:20,0dc065a1-242d-4c68-9c54-8e26e9627056,A
2020-03-08 06:53:17,0dc065a1-242d-4c68-9c54-8e26e9627056,S
2020-03-08 06:53:59,0dc065a1-242d-4c68-9c54-8e26e9627056,A
2020-03-08 07:01:07,0dc065a1-242d-4c68-9c54-8e26e9627056,S
2020-03-08 07:03:32,0dc065a1-242d-4c68-9c54-8e26e9627056,A
2020-03-08 04:16:50,2b4c49ca-c94c-431f-a54f-5f1adb5d019a,A
2020-03-08 04:18:38,2b4c49ca-c94c-431f-a54f-5f1adb5d019a,S
2020-03-08 04:29:11,2b4c49ca-c94c-431f-a54f-5f1adb5d019a,A
2020-03-08 04:29:25,2b4c49ca-c94c-431f-a54f-5f1adb5d019a,S
2020-03-08 04:31:11,2b4c49ca-c94c-431f-a54f-5f1adb5d019a,A
2020-03-08 04:31:43,2b4c49ca-c94c-431f-a54f-5f1adb5d019a,S
2020-03-08 04:33:32,2b4c49ca-c94c-431f-a54f-5f1adb5d019a,A
2020-03-08 04:38:29,2b4c49ca-c94c-431f-a54f-5f1adb5d019a,S
2020-03-08 04:39:49,2b4c49ca-c94c-431f-a54f-5f1adb5d019a,A
2020-03-08 04:43:56,2b4c49ca-c94c-431f-a54f-5f1adb5d019a,S
2020-03-08 04:54:19,2b4c49ca-c94c-431f-a54f-5f1adb5d019a,A
2020-03-08 04:55:53,2b4c49ca-c94c-431f-a54f-5f1adb5d019a,S
2020-03-08 05:03:24,2b4c49ca-c94c-431f-a54f-5f1adb5d019a,A
2020-03-08 05:03:38,2b4c49ca-c94c-431f-a54f-5f1adb5d019a,S
2020-03-08 05:05:04,2b4c49ca-c94c-431f-a54f-5f1adb5d019a,A
2020-03-08 05:22:21,2b4c49ca-c94c-431f-a54f-5f1adb5d019a,S
2020-03-08 05:28:07,2b4c49ca-c94c-431f-a54f-5f1adb5d019a,A
2020-03-08 05:31:41,2b4c49ca-c94c-431f-a54f-5f1adb5d019a,S
2020-03-08 05:34:53,2b4c49ca-c94c-431f-a54f-5f1adb5d019a,A
2020-03-08 05:35:10,2b4c49ca-c94c-431f-a54f-5f1adb5d019a,S
2020-03-08 05:53:45,2b4c49ca-c94c-431f-a54f-5f1adb5d019a,A
2020-03-08 05:54:11,2b4c49ca-c94c-431f-a54f-5f1adb5d019a,S
2020-03-08 05:57:01,2b4c49ca-c94c-431f-a54f-5f1adb5d019a,A
2020-03-08 06:10:34,2b4c49ca-c94c-431f-a54f-5f1adb5d019a,S
2020-03-08 06:13:52,2b4c49ca-c94c-431f-a54f-5f1adb5d019a,A
2020-03-08 06:16:20,2b4c49ca-c94c-431f-a54f-5f1adb5d019a,S
2020-03-08 06:16:57,2b4c49ca-c94c-431f-a54f-5f1adb5d019a,A
2020-03-08 06:22:11,2b4c49ca-c94c-431f-a54f-5f1adb5d019a,S
2020-03-08 06:26:51,2b4c49ca-c94c-431f-a54f-5f1adb5d019a,A
2020-03-08 06:30:47,2b4c49ca-c94c-431f-a54f-5f1adb5d019a,S
2020-03-08 06:32:40,2b4c49ca-c94c-431f-a54f-5f1adb5d019a,A
2020-03-08 06:33:38,2b4c49ca-c94c-431f-a54f-5f1adb5d019a,S
2020-03-08 06:40:16,2b4c49ca-c94c-431f-a54f-5f1adb5d019a,A
2020-03-08 06:41:08,2b4c49ca-c94c-431f-a54f-5f1adb5d019a,S
2020-03-08 06:55:49,2b4c49ca-c94c-431f-a54f-5f1adb5d019a,A
2020-03-08 06:58:01,2b4c49ca-c94c-431f-a54f-5f1adb5d019a,S
2020-03-08 07:01:22,2b4c49ca-c94c-431f-a54f-5f1adb5d019a,A
2020-03-08 07:02:45,2b4c49ca-c94c-431f-a54f-5f1adb5d019a,S
2020-03-08 07:09:39,2b4c49ca-c94c-431f-a54f-5f1adb5d019a,A
2020-03-08 04:18:16,84b46c46-2dda-435f-bc4b-bc2870cd1226,S
2020-03-08 04:21:11,84b46c46-2dda-435f-bc4b-bc2870cd1226,A
2020-03-08 04:22:17,84b46c46-2dda-435f-bc4b-bc2870cd1226,S
2020-03-08 04:24:49,84b46c46-2dda-435f-bc4b-bc2870cd1226,A
2020-03-08 04:25:48,84b46c46-2dda-435f-bc4b-bc2870cd1226,S
2020-03-08 04:27:53,84b46c46-2dda-435f-bc4b-bc2870cd1226,A
2020-03-08 04:29:15,84b46c46-2dda-435f-bc4b-bc2870cd1226,S
2020-03-08 04:35:48,84b46c46-2dda-435f-bc4b-bc2870cd1226,A
2020-03-08 04:37:16,84b46c46-2dda-435f-bc4b-bc2870cd1226,S
2020-03-08 04:38:04,84b46c46-2dda-435f-bc4b-bc2870cd1226,A
2020-03-08 04:38:34,84b46c46-2dda-435f-bc4b-bc2870cd1226,S
2020-03-08 04:41:24,84b46c46-2dda-435f-bc4b-bc2870cd1226,A
2020-03-08 04:46:31,84b46c46-2dda-435f-bc4b-bc2870cd1226,S
2020-03-08 05:01:59,84b46c46-2dda-435f-bc4b-bc2870cd1226,A
2020-03-08 04:51:01,13b87e51-20f4-4874-9d38-816409c25b8b,S
2020-03-08 04:51:46,13b87e51-20f4-4874-9d38-816409c25b8b,A
2020-03-08 04:57:30,13b87e51-20f4-4874-9d38-816409c25b8b,S
2020-03-08 05:01:44,13b87e51-20f4-4874-9d38-816409c25b8b,A
2020-03-08 05:10:19,13b87e51-20f4-4874-9d38-816409c25b8b,S
2020-03-08 05:11:13,13b87e51-20f4-4874-9d38-816409c25b8b,A
2020-03-08 05:15:24,13b87e51-20f4-4874-9d38-816409c25b8b,S
2020-03-08 05:16:33,13b87e51-20f4-4874-9d38-816409c25b8b,A
2020-03-08 05:20:04,13b87e51-20f4-4874-9d38-816409c25b8b,S
2020-03-08 05:29:57,13b87e51-20f4-4874-9d38-816409c25b8b,A
2020-03-08 05:34:32,13b87e51-20f4-4874-9d38-816409c25b8b,S
2020-03-08 05:36:56,13b87e51-20f4-4874-9d38-816409c25b8b,A
2020-03-08 05:38:31,13b87e51-20f4-4874-9d38-816409c25b8b,S
2020-03-08 05:45:24,13b87e51-20f4-4874-9d38-816409c25b8b,A
2020-03-08 05:57:29,13b87e51-20f4-4874-9d38-816409c25b8b,S
2020-03-08 05:58:48,13b87e51-20f4-4874-9d38-816409c25b8b,A
2020-03-08 06:00:47,13b87e51-20f4-4874-9d38-816409c25b8b,S
2020-03-08 06:02:46,13b87e51-20f4-4874-9d38-816409c25b8b,A
2020-03-08 06:09:11,13b87e51-20f4-4874-9d38-816409c25b8b,S
2020-03-08 06:30:41,13b87e51-20f4-4874-9d38-816409c25b8b,A
2020-03-08 06:31:18,13b87e51-20f4-4874-9d38-816409c25b8b,S
2020-03-08 06:32:33,13b87e51-20f4-4874-9d38-816409c25b8b,A
2020-03-08 06:34:29,13b87e51-20f4-4874-9d38-816409c25b8b,S
2020-03-08 06:38:02,13b87e51-20f4-4874-9d38-816409c25b8b,A
2020-03-08 06:47:19,13b87e51-20f4-4874-9d38-816409c25b8b,S
2020-03-08 06:55:25,13b87e51-20f4-4874-9d38-816409c25b8b,A
2020-03-08 07:11:17,13b87e51-20f4-4874-9d38-816409c25b8b,S
2020-03-08 05:00:00,36cdef2e-63ef-4ede-ab2c-c6577f647af5,S
2020-03-08 05:00:27,36cdef2e-63ef-4ede-ab2c-c6577f647af5,A
2020-03-08 05:16:05,36cdef2e-63ef-4ede-ab2c-c6577f647af5,S
2020-03-08 05:17:16,36cdef2e-63ef-4ede-ab2c-c6577f647af5,A
2020-03-08 05:30:41,36cdef2e-63ef-4ede-ab2c-c6577f647af5,S
2020-03-08 05:33:38,36cdef2e-63ef-4ede-ab2c-c6577f647af5,A
2020-03-08 05:35:02,36cdef2e-63ef-4ede-ab2c-c6577f647af5,S
2020-03-08 05:54:44,36cdef2e-63ef-4ede-ab2c-c6577f647af5,A
2020-03-08 05:54:58,36cdef2e-63ef-4ede-ab2c-c6577f647af5,S
2020-03-08 06:01:29,36cdef2e-63ef-4ede-ab2c-c6577f647af5,A
2020-03-08 06:04:59,36cdef2e-63ef-4ede-ab2c-c6577f647af5,S
2020-03-08 06:08:15,36cdef2e-63ef-4ede-ab2c-c6577f647af5,A
2020-03-08 06:14:09,36cdef2e-63ef-4ede-ab2c-c6577f647af5,S
2020-03-08 06:34:03,36cdef2e-63ef-4ede-ab2c-c6577f647af5,A
2020-03-08 06:37:42,36cdef2e-63ef-4ede-ab2c-c6577f647af5,S
2020-03-08 06:49:55,36cdef2e-63ef-4ede-ab2c-c6577f647af5,A
2020-03-08 06:55:38,36cdef2e-63ef-4ede-ab2c-c6577f647af5,S
2020-03-08 07:01:10,36cdef2e-63ef-4ede-ab2c-c6577f647af5,A
2020-03-08 07:09:31,36cdef2e-63ef-4ede-ab2c-c6577f647af5,S
2020-03-08 04:43:36,3658f867-2da4-4193-8758-4a3cf2b2cb9d,A
2020-03-08 04:46:26,3658f867-2da4-4193-8758-4a3cf2b2cb9d,S
2020-03-08 04:56:13,3658f867-2da4-4193-8758-4a3cf2b2cb9d,A
2020-03-08 05:02:19,3658f867-2da4-4193-8758-4a3cf2b2cb9d,S
2020-03-08 05:11:30,3658f867-2da4-4193-8758-4a3cf2b2cb9d,A
2020-03-08 05:20:37,3658f867-2da4-4193-8758-4a3cf2b2cb9d,S
2020-03-08 05:39:06,3658f867-2da4-4193-8758-4a3cf2b2cb9d,A
2020-03-08 05:40:34,3658f867-2da4-4193-8758-4a3cf2b2cb9d,S
2020-03-08 05:44:06,3658f867-2da4-4193-8758-4a3cf2b2cb9d,A
2020-03-08 05:53:10,3658f867-2da4-4193-8758-4a3cf2b2cb9d,S
2020-03-08 05:57:23,3658f867-2da4-4193-8758-4a3cf2b2cb9d,A
2020-03-08 06:00:01,3658f867-2da4-4193-8758-4a3cf2b2cb9d,S
2020-03-08 06:09:31,3658f867-2da4-4193-8758-4a3cf2b2cb9d,A
2020-03-08 06:14:30,3658f867-2da4-4193-8758-4a3cf2b2cb9d,S
2020-03-08 06:16:42,3658f867-2da4-4193-8758-4a3cf2b2cb9d,A
2020-03-08 06:17:29,3658f867-2da4-4193-8758-4a3cf2b2cb9d,S
2020-03-08 06:20:35,3658f867-2da4-4193-8758-4a3cf2b2cb9d,A
2020-03-08 06:24:51,3658f867-2da4-4193-8758-4a3cf2b2cb9d,S
2020-03-08 06:34:44,3658f867-2da4-4193-8758-4a3cf2b2cb9d,A
2020-03-08 06:52:44,3658f867-2da4-4193-8758-4a3cf2b2cb9d,S
2020-03-08 06:53:16,3658f867-2da4-4193-8758-4a3cf2b2cb9d,A
2020-03-08 06:56:41,3658f867-2da4-4193-8758-4a3cf2b2cb9d,S
2020-03-08 06:59:27,3658f867-2da4-4193-8758-4a3cf2b2cb9d,A
2020-03-08 07:10:34,3658f867-2da4-4193-8758-4a3cf2b2cb9d,S
2020-03-08 04:23:44,9c28502c-2c8d-4b09-8b16-954b33502aad,S
2020-03-08 04:27:25,9c28502c-2c8d-4b09-8b16-954b33502aad,A
2020-03-08 04:29:54,9c28502c-2c8d-4b09-8b16-954b33502aad,S
2020-03-08 04:34:36,9c28502c-2c8d-4b09-8b16-954b33502aad,A
2020-03-08 04:43:15,9c28502c-2c8d-4b09-8b16-954b33502aad,S
2020-03-08 04:47:00,9c28502c-2c8d-4b09-8b16-954b33502aad,A
2020-03-08 04:48:38,9c28502c-2c8d-4b09-8b16-954b33502aad,S
2020-03-08 04:57:09,9c28502c-2c8d-4b09-8b16-954b33502aad,A
2020-03-08 05:05:34,9c28502c-2c8d-4b09-8b16-954b33502aad,S
2020-03-08 05:13:10,9c28502c-2c8d-4b09-8b16-954b33502aad,A
2020-03-08 05:14:55,9c28502c-2c8d-4b09-8b16-954b33502aad,S
2020-03-08 05:19:26,9c28502c-2c8d-4b09-8b16-954b33502aad,A
2020-03-08 05:20:30,9c28502c-2c8d-4b09-8b16-954b33502aad,S
2020-03-08 05:24:31,9c28502c-2c8d-4b09-8b16-954b33502aad,A
2020-03-08 05:32:03,9c28502c-2c8d-4b09-8b16-954b33502aad,S
2020-03-08 05:34:20,9c28502c-2c8d-4b09-8b16-954b33502aad,A
2020-03-08 05:39:32,9c28502c-2c8d-4b09-8b16-954b33502aad,S
2020-03-08 05:47:38,9c28502c-2c8d-4b09-8b16-954b33502aad,A
2020-03-08 05:55:02,9c28502c-2c8d-4b09-8b16-954b33502aad,S
2020-03-08 05:55:24,9c28502c-2c8d-4b09-8b16-954b33502aad,A
2020-03-08 06:00:57,9c28502c-2c8d-4b09-8b16-954b33502aad,S
2020-03-08 06:12:00,9c28502c-2c8d-4b09-8b16-954b33502aad,A
2020-03-08 06:16:25,9c28502c-2c8d-4b09-8b16-954b33502aad,S
2020-03-08 06:19:12,9c28502c-2c8d-4b09-8b16-954b33502aad,A
2020-03-08 06:25:54,9c28502c-2c8d-4b09-8b16-954b33502aad,S
2020-03-08 06:26:44,9c28502c-2c8d-4b09-8b16-954b33502aad,A
2020-03-08 06:29:30,9c28502c-2c8d-4b09-8b16-954b33502aad,S
2020-03-08 06:33:20,9c28502c-2c8d-4b09-8b16-954b33502aad,A
2020-03-08 06:39:48,9c28502c-2c8d-4b09-8b16-954b33502aad,S
2020-03-08 06:42:53,9c28502c-2c8d-4b09-8b16-954b33502aad,A
2020-03-08 06:55:13,9c28502c-2c8d-4b09-8b16-954b33502aad,S
2020-03-08 07:00:00,9c28502c-2c8d-4b09-8b16-954b33502aad,A
2020-03-08 07:02:04,9c28502c-2c8d-4b09-8b16-954b33502aad,S
2020-03-08 07:05:52,9c28502c-2c8d-4b09-8b16-954b33502aad,A
2020-03-08 07:08:36,9c28502c-2c8d-4b09-8b16-954b33502aad,S
2020-03-08 07:10:07,9c28502c-2c8d-4b09-8b16-954b33502aad,A
2020-03-08 04:55:11,8b2813fc-ea43-4561-bd98-20c7863fbc8e,A
2020-03-08 04:55:57,8b2813fc-ea43-4561-bd98-20c7863fbc8e,S
2020-03-08 04:56:18,8b2813fc-ea43-4561-bd98-20c7863fbc8e,A
2020-03-08 04:56:42,8b2813fc-ea43-4561-bd98-20c7863fbc8e,S
2020-03-08 05:05:15,8b2813fc-ea43-4561-bd98-20c7863fbc8e,A
2020-03-08 05:28:48,8b2813fc-ea43-4561-bd98-20c7863fbc8e,S
2020-03-08 06:04:49,8b2813fc-ea43-4561-bd98-20c7863fbc8e,A
2020-03-08 06:09:03,8b2813fc-ea43-4561-bd98-20c7863fbc8e,S
2020-03-08 06:10:47,8b2813fc-ea43-4561-bd98-20c7863fbc8e,A
2020-03-08 06:12:09,8b2813fc-ea43-4561-bd98-20c7863fbc8e,S
2020-03-08 06:13:18,8b2813fc-ea43-4561-bd98-20c7863fbc8e,A
2020-03-08 06:21:57,8b2813fc-ea43-4561-bd98-20c7863fbc8e,S
2020-03-08 06:28:12,8b2813fc-ea43-4561-bd98-20c7863fbc8e,A
2020-03-08 06:46:57,8b2813fc-ea43-4561-bd98-20c7863fbc8e,S
2020-03-08 06:48:58,8b2813fc-ea43-4561-bd98-20c7863fbc8e,A
2020-03-08 06:52:20,8b2813fc-ea43-4561-bd98-20c7863fbc8e,S
2020-03-08 07:05:02,8b2813fc-ea43-4561-bd98-20c7863fbc8e,A
2020-03-08 04:44:33,de9289e5-f103-476b-8514-41d510282ab8,A
2020-03-08 04:45:44,de9289e5-f103-476b-8514-41d510282ab8,S
2020-03-08 04:50:16,de9289e5-f103-476b-8514-41d510282ab8,A
2020-03-08 04:50:56,de9289e5-f103-476b-8514-41d510282ab8,S
2020-03-08 05:00:59,de9289e5-f103-476b-8514-41d510282ab8,A
2020-03-08 05:04:35,de9289e5-f103-476b-8514-41d510282ab8,S
2020-03-08 05:15:51,de9289e5-f103-476b-8514-41d510282ab8,A
2020-03-08 05:48:12,de9289e5-f103-476b-8514-41d510282ab8,S
2020-03-08 05:49:54,de9289e5-f103-476b-8514-41d510282ab8,A
2020-03-08 05:50:43,de9289e5-f103-476b-8514-41d510282ab8,S
2020-03-08 05:54:07,de9289e5-f103-476b-8514-41d510282ab8,A
2020-03-08 06:05:33,de9289e5-f103-476b-8514-41d510282ab8,S
2020-03-08 06:10:15,de9289e5-f103-476b-8514-41d510282ab8,A
2020-03-08 06:13:36,de9289e5-f103-476b-8514-41d510282ab8,S
2020-03-08 06:19:53,de9289e5-f103-476b-8514-41d510282ab8,A
2020-03-08 06:20:38,de9289e5-f103-476b-8514-41d510282ab8,S
2020-03-08 06:24:18,de9289e5-f103-476b-8514-41d510282ab8,A
2020-03-08 06:26:54,de9289e5-f103-476b-8514-41d510282ab8,S
2020-03-08 06:35:29,de9289e5-f103-476b-8514-41d510282ab8,A
2020-03-08 06:40:07,de9289e5-f103-476b-8514-41d510282ab8,S
2020-03-08 06:41:18,de9289e5-f103-476b-8514-41d510282ab8,A
2020-03-08 06:46:08,de9289e5-f103-476b-8514-41d510282ab8,S
2020-03-08 06:49:32,de9289e5-f103-476b-8514-41d510282ab8,A
2020-03-08 06:54:43,de9289e5-f103-476b-8514-41d510282ab8,S
2020-03-08 06:56:12,de9289e5-f103-476b-8514-41d510282ab8,A
2020-03-08 06:56:35,de9289e5-f103-476b-8514-41d510282ab8,S
2020-03-08 07:01:03,de9289e5-f103-476b-8514-41d510282ab8,A
2020-03-08 04:22:34,5acba602-deff-4855-9f73-58da2ac3878f,A
2020-03-08 04:27:36,5acba602-deff-4855-9f73-58da2ac3878f,S
2020-03-08 04:31:27,5acba602-deff-4855-9f73-58da2ac3878f,A
2020-03-08 04:42:47,5acba602-deff-4855-9f73-58da2ac3878f,S
2020-03-08 04:50:37,5acba602-deff-4855-9f73-58da2ac3878f,A
2020-03-08 04:53:00,5acba602-deff-4855-9f73-58da2ac3878f,S
2020-03-08 04:57:03,5acba602-deff-4855-9f73-58da2ac3878f,A
2020-03-08 04:57:53,5acba602-deff-4855-9f73-58da2ac3878f,S
2020-03-08 05:03:06,5acba602-deff-4855-9f73-58da2ac3878f,A
2020-03-08 05:07:59,5acba602-deff-4855-9f73-58da2ac3878f,S
2020-03-08 05:12:57,5acba602-deff-4855-9f73-58da2ac3878f,A
2020-03-08 05:15:32,5acba602-deff-4855-9f73-58da2ac3878f,S
2020-03-08 05:16:18,5acba602-deff-4855-9f73-58da2ac3878f,A
2020-03-08 05:26:54,5acba602-deff-4855-9f73-58da2ac3878f,S
2020-03-08 05:27:18,5acba602-deff-4855-9f73-58da2ac3878f,A
2020-03-08 05:34:56,5acba602-deff-4855-9f73-58da2ac3878f,S
2020-03-08 05:40:16,5acba602-deff-4855-9f73-58da2ac3878f,A
2020-03-08 05:40:42,5acba602-deff-4855-9f73-58da2ac3878f,S
2020-03-08 05:47:07,5acba602-deff-4855-9f73-58da2ac3878f,A
2020-03-08 05:49:11,5acba602-deff-4855-9f73-58da2ac3878f,S
2020-03-08 05:49:25,5acba602-deff-4855-9f73-58da2ac3878f,A
2020-03-08 05:54:28,5acba602-deff-4855-9f73-58da2ac3878f,S
2020-03-08 05:55:09,5acba602-deff-4855-9f73-58da2ac3878f,A
2020-03-08 06:12:15,5acba602-deff-4855-9f73-58da2ac3878f,S
2020-03-08 06:14:32,5acba602-deff-4855-9f73-58da2ac3878f,A
2020-03-08 06:14:52,5acba602-deff-4855-9f73-58da2ac3878f,S
2020-03-08 06:18:17,5acba602-deff-4855-9f73-58da2ac3878f,A
2020-03-08 06:18:28,5acba602-deff-4855-9f73-58da2ac3878f,S
2020-03-08 06:25:29,5acba602-deff-4855-9f73-58da2ac3878f,A
2020-03-08 06:31:18,5acba602-deff-4855-9f73-58da2ac3878f,S
2020-03-08 06:52:01,5acba602-deff-4855-9f73-58da2ac3878f,A
2020-03-08 06:53:17,5acba602-deff-4855-9f73-58da2ac3878f,S
2020-03-08 07:05:12,5acba602-deff-4855-9f73-58da2ac3878f,A
2020-03-08 07:11:14,5acba602-deff-4855-9f73-58da2ac3878f,S
2020-03-08 04:38:29,2077e4b7-0768-4c23-a9ed-d2e5676ae516,S
2020-03-08 04:47:58,2077e4b7-0768-4c23-a9ed-d2e5676ae516,A
2020-03-08 04:50:22,2077e4b7-0768-4c23-a9ed-d2e5676ae516,S
2020-03-08 04:55:36,2077e4b7-0768-4c23-a9ed-d2e5676ae516,A
2020-03-08 05:00:04,2077e4b7-0768-4c23-a9ed-d2e5676ae516,S
2020-03-08 05:03:14,2077e4b7-0768-4c23-a9ed-d2e5676ae516,A
2020-03-08 05:03:50,2077e4b7-0768-4c23-a9ed-d2e5676ae516,S
2020-03-08 05:18:35,2077e4b7-0768-4c23-a9ed-d2e5676ae516,A
2020-03-08 05:27:37,2077e4b7-0768-4c23-a9ed-d2e5676ae516,S
2020-03-08 05:29:45,2077e4b7-0768-4c23-a9ed-d2e5676ae516,A
2020-03-08 05:32:43,2077e4b7-0768-4c23-a9ed-d2e5676ae516,S
2020-03-08 05:34:24,2077e4b7-0768-4c23-a9ed-d2e5676ae516,A
2020-03-08 05:37:39,2077e4b7-0768-4c23-a9ed-d2e5676ae516,S
2020-03-08 05:52:58,2077e4b7-0768-4c23-a9ed-d2e5676ae516,A
2020-03-08 05:54:27,2077e4b7-0768-4c23-a9ed-d2e5676ae516,S
2020-03-08 06:07:55,2077e4b7-0768-4c23-a9ed-d2e5676ae516,A
2020-03-08 06:12:08,2077e4b7-0768-4c23-a9ed-d2e5676ae516,S
2020-03-08 06:13:11,2077e4b7-0768-4c23-a9ed-d2e5676ae516,A
2020-03-08 06:14:31,2077e4b7-0768-4c23-a9ed-d2e5676ae516,S
2020-03-08 06:19:45,2077e4b7-0768-4c23-a9ed-d2e5676ae516,A
2020-03-08 06:20:38,2077e4b7-0768-4c23-a9ed-d2e5676ae516,S
2020-03-08 06:29:50,2077e4b7-0768-4c23-a9ed-d2e5676ae516,A
2020-03-08 06:34:12,2077e4b7-0768-4c23-a9ed-d2e5676ae516,S
2020-03-08 06:36:38,2077e4b7-0768-4c23-a9ed-d2e5676ae516,A
2020-03-08 06:51:03,2077e4b7-0768-4c23-a9ed-d2e5676ae516,S
2020-03-08 06:55:04,2077e4b7-0768-4c23-a9ed-d2e5676ae516,A
2020-03-08 07:01:31,2077e4b7-0768-4c23-a9ed-d2e5676ae516,S
2020-03-08 07:02:49,2077e4b7-0768-4c23-a9ed-d2e5676ae516,A
2020-03-08 04:40:59,d4a86956-b2b6-471c-a5cb-65dd302105e6,S
2020-03-08 04:42:46,d4a86956-b2b6-471c-a5cb-65dd302105e6,A
2020-03-08 04:44:43,d4a86956-b2b6-471c-a5cb-65dd302105e6,S
2020-03-08 04:47:03,d4a86956-b2b6-471c-a5cb-65dd302105e6,A
2020-03-08 04:50:25,d4a86956-b2b6-471c-a5cb-65dd302105e6,S
2020-03-08 05:02:01,d4a86956-b2b6-471c-a5cb-65dd302105e6,A
2020-03-08 05:03:32,d4a86956-b2b6-471c-a5cb-65dd302105e6,S
2020-03-08 05:16:41,d4a86956-b2b6-471c-a5cb-65dd302105e6,A
2020-03-08 05:22:24,d4a86956-b2b6-471c-a5cb-65dd302105e6,S
2020-03-08 05:28:46,d4a86956-b2b6-471c-a5cb-65dd302105e6,A
2020-03-08 05:31:39,d4a86956-b2b6-471c-a5cb-65dd302105e6,S
2020-03-08 05:39:38,d4a86956-b2b6-471c-a5cb-65dd302105e6,A
2020-03-08 05:45:48,d4a86956-b2b6-471c-a5cb-65dd302105e6,S
2020-03-08 05:49:11,d4a86956-b2b6-471c-a5cb-65dd302105e6,A
2020-03-08 05:50:04,d4a86956-b2b6-471c-a5cb-65dd302105e6,S
2020-03-08 05:59:08,d4a86956-b2b6-471c-a5cb-65dd302105e6,A
2020-03-08 06:01:10,d4a86956-b2b6-471c-a5cb-65dd302105e6,S
2020-03-08 06:02:17,d4a86956-b2b6-471c-a5cb-65dd302105e6,A
2020-03-08 06:05:37,d4a86956-b2b6-471c-a5cb-65dd302105e6,S
2020-03-08 06:06:49,d4a86956-b2b6-471c-a5cb-65dd302105e6,A
2020-03-08 06:09:33,d4a86956-b2b6-471c-a5cb-65dd302105e6,S
2020-03-08 06:12:47,d4a86956-b2b6-471c-a5cb-65dd302105e6,A
2020-03-08 06:16:23,d4a86956-b2b6-471c-a5cb-65dd302105e6,S
2020-03-08 06:16:46,d4a86956-b2b6-471c-a5cb-65dd302105e6,A
2020-03-08 06:29:52,d4a86956-b2b6-471c-a5cb-65dd302105e6,S
2020-03-08 06:31:41,d4a86956-b2b6-471c-a5cb-65dd302105e6,A
2020-03-08 06:35:30,d4a86956-b2b6-471c-a5cb-65dd302105e6,S
2020-03-08 06:51:00,d4a86956-b2b6-471c-a5cb-65dd302105e6,A
2020-03-08 06:57:36,d4a86956-b2b6-471c-a5cb-65dd302105e6,S
2020-03-08 07:02:50,d4a86956-b2b6-471c-a5cb-65dd302105e6,A
2020-03-08 07:03:55,d4a86956-b2b6-471c-a5cb-65dd302105e6,S
2020-03-08 04:38:03,926f0815-c8f3-468c-a863-0563938bc09a,S
2020-03-08 04:38:25,926f0815-c8f3-468c-a863-0563938bc09a,A
2020-03-08 04:39:04,926f0815-c8f3-468c-a863-0563938bc09a,S
2020-03-08 04:39:23,926f0815-c8f3-468c-a863-0563938bc09a,A
2020-03-08 04:45:14,926f0815-c8f3-468c-a863-0563938bc09a,S
2020-03-08 04:52:13,926f0815-c8f3-468c-a863-0563938bc09a,A
2020-03-08 05:01:11,926f0815-c8f3-468c-a863-0563938bc09a,S
2020-03-08 05:02:51,926f0815-c8f3-468c-a863-0563938bc09a,A
2020-03-08 05:12:25,926f0815-c8f3-468c-a863-0563938bc09a,S
2020-03-08 05:19:53,926f0815-c8f3-468c-a863-0563938bc09a,A
2020-03-08 05:20:20,926f0815-c8f3-468c-a863-0563938bc09a,S
2020-03-08 05:20:50,926f0815-c8f3-468c-a863-0563938bc09a,A
2020-03-08 05:21:58,926f0815-c8f3-468c-a863-0563938bc09a,S
2020-03-08 05:26:13,926f0815-c8f3-468c-a863-0563938bc09a,A
2020-03-08 05:28:50,926f0815-c8f3-468c-a863-0563938bc09a,S
2020-03-08 05:42:44,926f0815-c8f3-468c-a863-0563938bc09a,A
2020-03-08 05:48:16,926f0815-c8f3-468c-a863-0563938bc09a,S
2020-03-08 05:51:39,926f0815-c8f3-468c-a863-0563938bc09a,A
2020-03-08 06:12:20,926f0815-c8f3-468c-a863-0563938bc09a,S
2020-03-08 06:15:01,926f0815-c8f3-468c-a863-0563938bc09a,A
2020-03-08 06:17:10,926f0815-c8f3-468c-a863-0563938bc09a,S
2020-03-08 06:20:37,926f0815-c8f3-468c-a863-0563938bc09a,A
2020-03-08 06:20:40,926f0815-c8f3-468c-a863-0563938bc09a,S
2020-03-08 06:22:02,926f0815-c8f3-468c-a863-0563938bc09a,A
2020-03-08 06:24:47,926f0815-c8f3-468c-a863-0563938bc09a,S
2020-03-08 06:25:42,926f0815-c8f3-468c-a863-0563938bc09a,A
2020-03-08 06:26:16,926f0815-c8f3-468c-a863-0563938bc09a,S
2020-03-08 06:29:51,926f0815-c8f3-468c-a863-0563938bc09a,A
2020-03-08 06:33:24,926f0815-c8f3-468c-a863-0563938bc09a,S
2020-03-08 06:39:48,926f0815-c8f3-468c-a863-0563938bc09a,A
2020-03-08 06:42:59,926f0815-c8f3-468c-a863-0563938bc09a,S
2020-03-08 06:46:02,926f0815-c8f3-468c-a863-0563938bc09a,A
2020-03-08 06:47:19,926f0815-c8f3-468c-a863-0563938bc09a,S
2020-03-08 06:54:14,926f0815-c8f3-468c-a863-0563938bc09a,A
2020-03-08 06:54:40,926f0815-c8f3-468c-a863-0563938bc09a,S
2020-03-08 07:00:28,926f0815-c8f3-468c-a863-0563938bc09a,A
2020-03-08 07:02:21,926f0815-c8f3-468c-a863-0563938bc09a,S
2020-03-08 07:02:50,926f0815-c8f3-468c-a863-0563938bc09a,A
2020-03-08 07:07:28,926f0815-c8f3-468c-a863-0563938bc09a,S
2020-03-08 07:08:40,926f0815-c8f3-468c-a863-0563938bc09a,A
2020-03-08 04:36:20,22c3bdfe-191d-456f-9f12-5bafa3c2afdd,S
2020-03-08 04:54:06,22c3bdfe-191d-456f-9f12-5bafa3c2afdd,A
2020-03-08 04:58:31,22c3bdfe-191d-456f-9f12-5bafa3c2afdd,S
2020-03-08 04:58:37,22c3bdfe-191d-456f-9f12-5bafa3c2afdd,A
2020-03-08 05:00:03,22c3bdfe-191d-456f-9f12-5bafa3c2afdd,S
2020-03-08 05:01:12,22c3bdfe-191d-456f-9f12-5bafa3c2afdd,A
2020-03-08 05:03:25,22c3bdfe-191d-456f-9f12-5bafa3c2afdd,S
2020-03-08 05:11:05,22c3bdfe-191d-456f-9f12-5bafa3c2afdd,A
2020-03-08 05:25:01,22c3bdfe-191d-456f-9f12-5bafa3c2afdd,S
2020-03-08 05:31:33,22c3bdfe-191d-456f-9f12-5bafa3c2afdd,A
2020-03-08 05:37:17,22c3bdfe-191d-456f-9f12-5bafa3c2afdd,S
2020-03-08 05:39:30,22c3bdfe-191d-456f-9f12-5bafa3c2afdd,A
2020-03-08 05:45:14,22c3bdfe-191d-456f-9f12-5bafa3c2afdd,S
2020-03-08 05:57:04,22c3bdfe-191d-456f-9f12-5bafa3c2afdd,A
2020-03-08 06:16:44,22c3bdfe-191d-456f-9f12-5bafa3c2afdd,S
2020-03-08 06:20:37,22c3bdfe-191d-456f-9f12-5bafa3c2afdd,A
2020-03-08 06:21:50,22c3bdfe-191d-456f-9f12-5bafa3c2afdd,S
2020-03-08 06:24:05,22c3bdfe-191d-456f-9f12-5bafa3c2afdd,A
2020-03-08 06:32:06,22c3bdfe-191d-456f-9f12-5bafa3c2afdd,S
2020-03-08 06:35:18,22c3bdfe-191d-456f-9f12-5bafa3c2afdd,A
2020-03-08 06:35:47,22c3bdfe-191d-456f-9f12-5bafa3c2afdd,S
2020-03-08 06:45:19,22c3bdfe-191d-456f-9f12-5bafa3c2afdd,A
2020-03-08 06:51:57,22c3bdfe-191d-456f-9f12-5bafa3c2afdd,S
2020-03-08 07:11:55,22c3bdfe-191d-456f-9f12-5bafa3c2afdd,A
2020-03-08 04:56:24,3df2eb23-69b1-4929-a25e-65a6cd205d6a,S
2020-03-08 04:58:03,3df2eb23-69b1-4929-a25e-65a6cd205d6a,A
2020-03-08 05:00:57,3df2eb23-69b1-4929-a25e-65a6cd205d6a,S
2020-03-08 05:01:52,3df2eb23-69b1-4929-a25e-65a6cd205d6a,A
2020-03-08 05:02:53,3df2eb23-69b1-4929-a25e-65a6cd205d6a,S
2020-03-08 05:21:22,3df2eb23-69b1-4929-a25e-65a6cd205d6a,A
2020-03-08 05:27:54,3df2eb23-69b1-4929-a25e-65a6cd205d6a,S
2020-03-08 05:29:09,3df2eb23-69b1-4929-a25e-65a6cd205d6a,A
2020-03-08 05:32:22,3df2eb23-69b1-4929-a25e-65a6cd205d6a,S
2020-03-08 05:42:34,3df2eb23-69b1-4929-a25e-65a6cd205d6a,A
2020-03-08 05:43:56,3df2eb23-69b1-4929-a25e-65a6cd205d6a,S
2020-03-08 05:48:37,3df2eb23-69b1-4929-a25e-65a6cd205d6a,A
2020-03-08 05:50:10,3df2eb23-69b1-4929-a25e-65a6cd205d6a,S
2020-03-08 06:10:43,3df2eb23-69b1-4929-a25e-65a6cd205d6a,A
2020-03-08 06:15:01,3df2eb23-69b1-4929-a25e-65a6cd205d6a,S
2020-03-08 06:15:18,3df2eb23-69b1-4929-a25e-65a6cd205d6a,A
2020-03-08 06:23:01,3df2eb23-69b1-4929-a25e-65a6cd205d6a,S
2020-03-08 06:26:02,3df2eb23-69b1-4929-a25e-65a6cd205d6a,A
2020-03-08 06:38:25,3df2eb23-69b1-4929-a25e-65a6cd205d6a,S
2020-03-08 04:47:17,87f7323f-184a-413c-a917-7301cf504be5,A
2020-03-08 04:58:40,87f7323f-184a-413c-a917-7301cf504be5,S
2020-03-08 04:58:46,87f7323f-184a-413c-a917-7301cf504be5,A
2020-03-08 05:05:31,87f7323f-184a-413c-a917-7301cf504be5,S
2020-03-08 05:06:33,87f7323f-184a-413c-a917-7301cf504be5,A
2020-03-08 05:06:43,87f7323f-184a-413c-a917-7301cf504be5,S
2020-03-08 05:08:47,87f7323f-184a-413c-a917-7301cf504be5,A
2020-03-08 05:09:29,87f7323f-184a-413c-a917-7301cf504be5,S
2020-03-08 05:12:51,87f7323f-184a-413c-a917-7301cf504be5,A
2020-03-08 05:21:24,87f7323f-184a-413c-a917-7301cf504be5,S
2020-03-08 05:30:43,87f7323f-184a-413c-a917-7301cf504be5,A
2020-03-08 05:32:01,87f7323f-184a-413c-a917-7301cf504be5,S
2020-03-08 05:39:17,87f7323f-184a-413c-a917-7301cf504be5,A
2020-03-08 05:41:38,87f7323f-184a-413c-a917-7301cf504be5,S
2020-03-08 05:44:30,87f7323f-184a-413c-a917-7301cf504be5,A
2020-03-08 05:45:19,87f7323f-184a-413c-a917-7301cf504be5,S
2020-03-08 05:45:31,87f7323f-184a-413c-a917-7301cf504be5,A
2020-03-08 05:47:28,87f7323f-184a-413c-a917-7301cf504be5,S
2020-03-08 05:50:38,87f7323f-184a-413c-a917-7301cf504be5,A
2020-03-08 05:57:22,87f7323f-184a-413c-a917-7301cf504be5,S
2020-03-08 05:59:20,87f7323f-184a-413c-a917-7301cf504be5,A
2020-03-08 06:11:07,87f7323f-184a-413c-a917-7301cf504be5,S
2020-03-08 06:19:07,87f7323f-184a-413c-a917-7301cf504be5,A
2020-03-08 06:21:58,87f7323f-184a-413c-a917-7301cf504be5,S
2020-03-08 06:24:30,87f7323f-184a-413c-a917-7301cf504be5,A
2020-03-08 06:26:43,87f7323f-184a-413c-a917-7301cf504be5,S
2020-03-08 06:27:51,87f7323f-184a-413c-a917-7301cf504be5,A
2020-03-08 06:42:35,87f7323f-184a-413c-a917-7301cf504be5,S
2020-03-08 06:45:16,87f7323f-184a-413c-a917-7301cf504be5,A
2020-03-08 06:45:54,87f7323f-184a-413c-a917-7301cf504be5,S
2020-03-08 06:48:50,87f7323f-184a-413c-a917-7301cf504be5,A
2020-03-08 06:51:36,87f7323f-184a-413c-a917-7301cf504be5,S
2020-03-08 06:52:05,87f7323f-184a-413c-a917-7301cf504be5,A
2020-03-08 07:03:33,87f7323f-184a-413c-a917-7301cf504be5,S
2020-03-08 07:07:41,87f7323f-184a-413c-a917-7301cf504be5,A
2020-03-08 07:08:38,87f7323f-184a-413c-a917-7301cf504be5,S
2020-03-08 07:09:32,87f7323f-184a-413c-a917-7301cf504be5,A
2020-03-08 07:11:42,87f7323f-184a-413c-a917-7301cf504be5,S
2020-03-08 07:13:15,87f7323f-184a-413c-a917-7301cf504be5,A
2020-03-08 04:23:40,fb6b9332-dd4e-43fc-bf0f-57c14c71f5b0,A
2020-03-08 04:26:55,fb6b9332-dd4e-43fc-bf0f-57c14c71f5b0,S
2020-03-08 04:32:00,fb6b9332-dd4e-43fc-bf0f-57c14c71f5b0,A
2020-03-08 04:40:35,fb6b9332-dd4e-43fc-bf0f-57c14c71f5b0,S
2020-03-08 04:45:03,fb6b9332-dd4e-43fc-bf0f-57c14c71f5b0,A
2020-03-08 04:48:11,fb6b9332-dd4e-43fc-bf0f-57c14c71f5b0,S
2020-03-08 04:49:02,fb6b9332-dd4e-43fc-bf0f-57c14c71f5b0,A
2020-03-08 04:50:24,fb6b9332-dd4e-43fc-bf0f-57c14c71f5b0,S
2020-03-08 04:55:39,fb6b9332-dd4e-43fc-bf0f-57c14c71f5b0,A
2020-03-08 05:01:15,fb6b9332-dd4e-43fc-bf0f-57c14c71f5b0,S
2020-03-08 05:12:37,fb6b9332-dd4e-43fc-bf0f-57c14c71f5b0,A
2020-03-08 05:12:41,fb6b9332-dd4e-43fc-bf0f-57c14c71f5b0,S
2020-03-08 05:19:52,fb6b9332-dd4e-43fc-bf0f-57c14c71f5b0,A
2020-03-08 05:31:22,fb6b9332-dd4e-43fc-bf0f-57c14c71f5b0,S
2020-03-08 05:32:58,fb6b9332-dd4e-43fc-bf0f-57c14c71f5b0,A
2020-03-08 05:36:06,fb6b9332-dd4e-43fc-bf0f-57c14c71f5b0,S
2020-03-08 05:36:22,fb6b9332-dd4e-43fc-bf0f-57c14c71f5b0,A
2020-03-08 05:54:21,fb6b9332-dd4e-43fc-bf0f-57c14c71f5b0,S
2020-03-08 05:56:45,fb6b9332-dd4e-43fc-bf0f-57c14c71f5b0,A
2020-03-08 06:09:07,fb6b9332-dd4e-43fc-bf0f-57c14c71f5b0,S
2020-03-08 06:21:14,fb6b9332-dd4e-43fc-bf0f-57c14c71f5b0,A
2020-03-08 06:26:46,fb6b9332-dd4e-43fc-bf0f-57c14c71f5b0,S
2020-03-08 06:27:12,fb6b9332-dd4e-43fc-bf0f-57c14c71f5b0,A
2020-03-08 06:29:28,fb6b9332-dd4e-43fc-bf0f-57c14c71f5b0,S
2020-03-08 06:33:07,fb6b9332-dd4e-43fc-bf0f-57c14c71f5b0,A
2020-03-08 06:36:26,fb6b9332-dd4e-43fc-bf0f-57c14c71f5b0,S
2020-03-08 06:40:57,fb6b9332-dd4e-43fc-bf0f-57c14c71f5b0,A
2020-03-08 06:41:53,fb6b9332-dd4e-43fc-bf0f-57c14c71f5b0,S
2020-03-08 06:42:15,fb6b9332-dd4e-43fc-bf0f-57c14c71f5b0,A
2020-03-08 06:43:13,fb6b9332-dd4e-43fc-bf0f-57c14c71f5b0,S
2020-03-08 06:55:04,fb6b9332-dd4e-43fc-bf0f-57c14c71f5b0,A
2020-03-08 06:59:53,fb6b9332-dd4e-43fc-bf0f-57c14c71f5b0,S
2020-03-08 07:03:36,fb6b9332-dd4e-43fc-bf0f-57c14c71f5b0,A
2020-03-08 07:09:34,fb6b9332-dd4e-43fc-bf0f-57c14c71f5b0,S
2020-03-08 07:13:06,fb6b9332-dd4e-43fc-bf0f-57c14c71f5b0,A
2020-03-08 07:13:23,fb6b9332-dd4e-43fc-bf0f-57c14c71f5b0,S
2020-03-08 04:18:36,89422eaf-302b-4e69-a435-a715dcabe44b,A
2020-03-08 04:21:39,89422eaf-302b-4e69-a435-a715dcabe44b,S
2020-03-08 04:28:09,89422eaf-302b-4e69-a435-a715dcabe44b,A
2020-03-08 04:34:58,89422eaf-302b-4e69-a435-a715dcabe44b,S
2020-03-08 04:46:54,89422eaf-302b-4e69-a435-a715dcabe44b,A
2020-03-08 04:47:12,89422eaf-302b-4e69-a435-a715dcabe44b,S
2020-03-08 05:02:36,89422eaf-302b-4e69-a435-a715dcabe44b,A
2020-03-08 05:05:29,89422eaf-302b-4e69-a435-a715dcabe44b,S
2020-03-08 05:07:28,89422eaf-302b-4e69-a435-a715dcabe44b,A
2020-03-08 05:15:35,89422eaf-302b-4e69-a435-a715dcabe44b,S
2020-03-08 05:16:31,89422eaf-302b-4e69-a435-a715dcabe44b,A
2020-03-08 05:18:44,89422eaf-302b-4e69-a435-a715dcabe44b,S
2020-03-08 05:33:09,89422eaf-302b-4e69-a435-a715dcabe44b,A
2020-03-08 05:38:27,89422eaf-302b-4e69-a435-a715dcabe44b,S
2020-03-08 05:40:00,89422eaf-302b-4e69-a435-a715dcabe44b,A
2020-03-08 05:40:48,89422eaf-302b-4e69-a435-a715dcabe44b,S
2020-03-08 05:42:45,89422eaf-302b-4e69-a435-a715dcabe44b,A
2020-03-08 05:46:02,89422eaf-302b-4e69-a435-a715dcabe44b,S
2020-03-08 05:46:09,89422eaf-302b-4e69-a435-a715dcabe44b,A
2020-03-08 05:58:28,89422eaf-302b-4e69-a435-a715dcabe44b,S
2020-03-08 05:59:49,89422eaf-302b-4e69-a435-a715dcabe44b,A
2020-03-08 06:04:41,89422eaf-302b-4e69-a435-a715dcabe44b,S
2020-03-08 06:08:06,89422eaf-302b-4e69-a435-a715dcabe44b,A
2020-03-08 06:09:21,89422eaf-302b-4e69-a435-a715dcabe44b,S
2020-03-08 06:10:03,89422eaf-302b-4e69-a435-a715dcabe44b,A
2020-03-08 06:22:43,89422eaf-302b-4e69-a435-a715dcabe44b,S
2020-03-08 06:24:11,89422eaf-302b-4e69-a435-a715dcabe44b,A
2020-03-08 06:25:25,89422eaf-302b-4e69-a435-a715dcabe44b,S
2020-03-08 06:28:02,89422eaf-302b-4e69-a435-a715dcabe44b,A
2020-03-08 06:34:35,89422eaf-302b-4e69-a435-a715dcabe44b,S
2020-03-08 06:39:21,89422eaf-302b-4e69-a435-a715dcabe44b,A
2020-03-08 06:40:59,89422eaf-302b-4e69-a435-a715dcabe44b,S
2020-03-08 06:52:36,89422eaf-302b-4e69-a435-a715dcabe44b,A
2020-03-08 06:56:39,89422eaf-302b-4e69-a435-a715dcabe44b,S
2020-03-08 07:03:45,89422eaf-302b-4e69-a435-a715dcabe44b,A
2020-03-08 07:03:48,89422eaf-302b-4e69-a435-a715dcabe44b,S
2020-03-08 07:05:28,89422eaf-302b-4e69-a435-a715dcabe44b,A
2020-03-08 04:49:51,233da8c6-a083-46ad-abaa-34e1f0317df4,S
2020-03-08 04:53:30,233da8c6-a083-46ad-abaa-34e1f0317df4,A
2020-03-08 04:55:17,233da8c6-a083-46ad-abaa-34e1f0317df4,S
2020-03-08 04:55:46,233da8c6-a083-46ad-abaa-34e1f0317df4,A
2020-03-08 04:55:50,233da8c6-a083-46ad-abaa-34e1f0317df4,S
2020-03-08 05:07:09,233da8c6-a083-46ad-abaa-34e1f0317df4,A
2020-03-08 05:23:38,233da8c6-a083-46ad-abaa-34e1f0317df4,S
2020-03-08 05:27:43,233da8c6-a083-46ad-abaa-34e1f0317df4,A
2020-03-08 05:32:38,233da8c6-a083-46ad-abaa-34e1f0317df4,S
2020-03-08 05:39:26,233da8c6-a083-46ad-abaa-34e1f0317df4,A
2020-03-08 05:44:47,233da8c6-a083-46ad-abaa-34e1f0317df4,S
2020-03-08 05:47:50,233da8c6-a083-46ad-abaa-34e1f0317df4,A
2020-03-08 05:48:59,233da8c6-a083-46ad-abaa-34e1f0317df4,S
2020-03-08 05:51:38,233da8c6-a083-46ad-abaa-34e1f0317df4,A
2020-03-08 05:52:07,233da8c6-a083-46ad-abaa-34e1f0317df4,S
2020-03-08 05:53:21,233da8c6-a083-46ad-abaa-34e1f0317df4,A
2020-03-08 05:54:17,233da8c6-a083-46ad-abaa-34e1f0317df4,S
2020-03-08 06:05:29,233da8c6-a083-46ad-abaa-34e1f0317df4,A
2020-03-08 06:10:43,233da8c6-a083-46ad-abaa-34e1f0317df4,S
2020-03-08 06:13:30,233da8c6-a083-46ad-abaa-34e1f0317df4,A
2020-03-08 06:15:10,233da8c6-a083-46ad-abaa-34e1f0317df4,S
2020-03-08 06:17:28,233da8c6-a083-46ad-abaa-34e1f0317df4,A
2020-03-08 06:30:44,233da8c6-a083-46ad-abaa-34e1f0317df4,S
2020-03-08 06:34:18,233da8c6-a083-46ad-abaa-34e1f0317df4,A
2020-03-08 06:40:13,233da8c6-a083-46ad-abaa-34e1f0317df4,S
2020-03-08 06:41:36,233da8c6-a083-46ad-abaa-34e1f0317df4,A
2020-03-08 06:50:26,233da8c6-a083-46ad-abaa-34e1f0317df4,S
2020-03-08 06:52:45,233da8c6-a083-46ad-abaa-34e1f0317df4,A
2020-03-08 06:57:50,233da8c6-a083-46ad-abaa-34e1f0317df4,S
2020-03-08 07:03:12,233da8c6-a083-46ad-abaa-34e1f0317df4,A
2020-03-08 07:04:11,233da8c6-a083-46ad-abaa-34e1f0317df4,S
2020-03-08 07:04:12,233da8c6-a083-46ad-abaa-34e1f0317df4,A
2020-03-08 07:04:21,233da8c6-a083-46ad-abaa-34e1f0317df4,S
2020-03-08 07:07:44,233da8c6-a083-46ad-abaa-34e1f0317df4,A
2020-03-08 07:09:35,233da8c6-a083-46ad-abaa-34e1f0317df4,S
2020-03-08 04:11:11,d9762578-d175-4a46-8c39-169f50997f6b,A
2020-03-08 04:27:14,d9762578-d175-4a46-8c39-169f50997f6b,S
2020-03-08 04:30:28,d9762578-d175-4a46-8c39-169f50997f6b,A
2020-03-08 04:33:14,d9762578-d175-4a46-8c39-169f50997f6b,S
2020-03-08 04:33:45,d9762578-d175-4a46-8c39-169f50997f6b,A
2020-03-08 04:47:43,d9762578-d175-4a46-8c39-169f50997f6b,S
2020-03-08 04:51:12,d9762578-d175-4a46-8c39-169f50997f6b,A
2020-03-08 04:54:03,d9762578-d175-4a46-8c39-169f50997f6b,S
2020-03-08 04:58:04,d9762578-d175-4a46-8c39-169f50997f6b,A
2020-03-08 05:11:27,d9762578-d175-4a46-8c39-169f50997f6b,S
2020-03-08 05:11:38,d9762578-d175-4a46-8c39-169f50997f6b,A
2020-03-08 05:20:20,d9762578-d175-4a46-8c39-169f50997f6b,S
2020-03-08 05:24:36,d9762578-d175-4a46-8c39-169f50997f6b,A
2020-03-08 05:31:13,d9762578-d175-4a46-8c39-169f50997f6b,S
2020-03-08 05:33:45,d9762578-d175-4a46-8c39-169f50997f6b,A
2020-03-08 05:44:56,d9762578-d175-4a46-8c39-169f50997f6b,S
2020-03-08 05:46:50,d9762578-d175-4a46-8c39-169f50997f6b,A
2020-03-08 05:47:48,d9762578-d175-4a46-8c39-169f50997f6b,S
2020-03-08 05:50:41,d9762578-d175-4a46-8c39-169f50997f6b,A
2020-03-08 05:56:39,d9762578-d175-4a46-8c39-169f50997f6b,S
2020-03-08 06:05:27,d9762578-d175-4a46-8c39-169f50997f6b,A
2020-03-08 06:08:30,d9762578-d175-4a46-8c39-169f50997f6b,S
2020-03-08 06:10:21,d9762578-d175-4a46-8c39-169f50997f6b,A
2020-03-08 06:12:31,d9762578-d175-4a46-8c39-169f50997f6b,S
2020-03-08 06:24:32,d9762578-d175-4a46-8c39-169f50997f6b,A
2020-03-08 06:26:01,d9762578-d175-4a46-8c39-169f50997f6b,S
2020-03-08 06:36:55,d9762578-d175-4a46-8c39-169f50997f6b,A
2020-03-08 06:39:57,d9762578-d175-4a46-8c39-169f50997f6b,S
2020-03-08 06:41:30,d9762578-d175-4a46-8c39-169f50997f6b,A
2020-03-08 06:42:56,d9762578-d175-4a46-8c39-169f50997f6b,S
2020-03-08 06:43:46,d9762578-d175-4a46-8c39-169f50997f6b,A
2020-03-08 06:49:29,d9762578-d175-4a46-8c39-169f50997f6b,S
2020-03-08 06:59:05,d9762578-d175-4a46-8c39-169f50997f6b,A
2020-03-08 07:08:50,d9762578-d175-4a46-8c39-169f50997f6b,S
2020-03-08 07:10:14,d9762578-d175-4a46-8c39-169f50997f6b,A
2020-03-08 04:54:54,a95f69b2-6626-4438-9e38-0d84de7cf241,A
2020-03-08 04:56:21,a95f69b2-6626-4438-9e38-0d84de7cf241,S
2020-03-08 05:04:54,a95f69b2-6626-4438-9e38-0d84de7cf241,A
2020-03-08 05:07:19,a95f69b2-6626-4438-9e38-0d84de7cf241,S
2020-03-08 05:08:12,a95f69b2-6626-4438-9e38-0d84de7cf241,A
2020-03-08 05:08:34,a95f69b2-6626-4438-9e38-0d84de7cf241,S
2020-03-08 05:11:13,a95f69b2-6626-4438-9e38-0d84de7cf241,A
2020-03-08 05:11:28,a95f69b2-6626-4438-9e38-0d84de7cf241,S
2020-03-08 05:15:41,a95f69b2-6626-4438-9e38-0d84de7cf241,A
2020-03-08 05:18:51,a95f69b2-6626-4438-9e38-0d84de7cf241,S
2020-03-08 05:25:37,a95f69b2-6626-4438-9e38-0d84de7cf241,A
2020-03-08 05:29:24,a95f69b2-6626-4438-9e38-0d84de7cf241,S
2020-03-08 05:32:36,a95f69b2-6626-4438-9e38-0d84de7cf241,A
2020-03-08 05:32:44,a95f69b2-6626-4438-9e38-0d84de7cf241,S
2020-03-08 05:36:14,a95f69b2-6626-4438-9e38-0d84de7cf241,A
2020-03-08 05:36:16,a95f69b2-6626-4438-9e38-0d84de7cf241,S
2020-03-08 05:44:04,a95f69b2-6626-4438-9e38-0d84de7cf241,A
2020-03-08 05:48:24,a95f69b2-6626-4438-9e38-0d84de7cf241,S
2020-03-08 05:58:31,a95f69b2-6626-4438-9e38-0d84de7cf241,A
2020-03-08 05:05:20,f52c1a4c-9b2e-46c3-a6bd-da62657f87c4,S
2020-03-08 05:06:18,f52c1a4c-9b2e-46c3-a6bd-da62657f87c4,A
2020-03-08 05:13:03,f52c1a4c-9b2e-46c3-a6bd-da62657f87c4,S
2020-03-08 05:18:54,f52c1a4c-9b2e-46c3-a6bd-da62657f87c4,A
2020-03-08 05:21:02,f52c1a4c-9b2e-46c3-a6bd-da62657f87c4,S
2020-03-08 05:23:53,f52c1a4c-9b2e-46c3-a6bd-da62657f87c4,A
2020-03-08 05:24:28,f52c1a4c-9b2e-46c3-a6bd-da62657f87c4,S
2020-03-08 05:27:26,f52c1a4c-9b2e-46c3-a6bd-da62657f87c4,A
2020-03-08 05:28:48,f52c1a4c-9b2e-46c3-a6bd-da62657f87c4,S
2020-03-08 05:33:41,f52c1a4c-9b2e-46c3-a6bd-da62657f87c4,A
2020-03-08 05:44:29,f52c1a4c-9b2e-46c3-a6bd-da62657f87c4,S
2020-03-08 05:49:06,f52c1a4c-9b2e-46c3-a6bd-da62657f87c4,A
2020-03-08 05:55:25,f52c1a4c-9b2e-46c3-a6bd-da62657f87c4,S
2020-03-08 05:58:05,f52c1a4c-9b2e-46c3-a6bd-da62657f87c4,A
2020-03-08 06:00:33,f52c1a4c-9b2e-46c3-a6bd-da62657f87c4,S
2020-03-08 06:04:17,f52c1a4c-9b2e-46c3-a6bd-da62657f87c4,A
2020-03-08 06:06:04,f52c1a4c-9b2e-46c3-a6bd-da62657f87c4,S
2020-03-08 06:11:20,f52c1a4c-9b2e-46c3-a6bd-da62657f87c4,A
2020-03-08 06:13:08,f52c1a4c-9b2e-46c3-a6bd-da62657f87c4,S
2020-03-08 06:14:02,f52c1a4c-9b2e-46c3-a6bd-da62657f87c4,A
2020-03-08 06:30:22,f52c1a4c-9b2e-46c3-a6bd-da62657f87c4,S
2020-03-08 06:31:43,f52c1a4c-9b2e-46c3-a6bd-da62657f87c4,A
2020-03-08 06:32:17,f52c1a4c-9b2e-46c3-a6bd-da62657f87c4,S
2020-03-08 06:35:23,f52c1a4c-9b2e-46c3-a6bd-da62657f87c4,A
2020-03-08 06:41:34,f52c1a4c-9b2e-46c3-a6bd-da62657f87c4,S
2020-03-08 06:54:17,f52c1a4c-9b2e-46c3-a6bd-da62657f87c4,A
2020-03-08 06:54:54,f52c1a4c-9b2e-46c3-a6bd-da62657f87c4,S
2020-03-08 06:56:51,f52c1a4c-9b2e-46c3-a6bd-da62657f87c4,A
2020-03-08 07:13:49,f52c1a4c-9b2e-46c3-a6bd-da62657f87c4,S
2020-03-08 04:23:24,275a3f4a-2015-46c5-bf58-97c590ea6c59,S
2020-03-08 04:25:40,275a3f4a-2015-46c5-bf58-97c590ea6c59,A
2020-03-08 04:27:19,275a3f4a-2015-46c5-bf58-97c590ea6c59,S
2020-03-08 04:27:51,275a3f4a-2015-46c5-bf58-97c590ea6c59,A
2020-03-08 04:31:54,275a3f4a-2015-46c5-bf58-97c590ea6c59,S
2020-03-08 04:34:43,275a3f4a-2015-46c5-bf58-97c590ea6c59,A
2020-03-08 04:42:15,275a3f4a-2015-46c5-bf58-97c590ea6c59,S
2020-03-08 04:42:49,275a3f4a-2015-46c5-bf58-97c590ea6c59,A
2020-03-08 04:43:15,275a3f4a-2015-46c5-bf58-97c590ea6c59,S
2020-03-08 04:49:22,275a3f4a-2015-46c5-bf58-97c590ea6c59,A
2020-03-08 04:50:46,275a3f4a-2015-46c5-bf58-97c590ea6c59,S
2020-03-08 05:03:57,275a3f4a-2015-46c5-bf58-97c590ea6c59,A
2020-03-08 05:11:32,275a3f4a-2015-46c5-bf58-97c590ea6c59,S
2020-03-08 05:14:39,275a3f4a-2015-46c5-bf58-97c590ea6c59,A
2020-03-08 05:30:09,275a3f4a-2015-46c5-bf58-97c590ea6c59,S
2020-03-08 05:36:55,275a3f4a-2015-46c5-bf58-97c590ea6c59,A
2020-03-08 05:43:54,275a3f4a-2015-46c5-bf58-97c590ea6c59,S
2020-03-08 05:45:49,275a3f4a-2015-46c5-bf58-97c590ea6c59,A
2020-03-08 05:48:57,275a3f4a-2015-46c5-bf58-97c590ea6c59,S
2020-03-08 05:49:27,275a3f4a-2015-46c5-bf58-97c590ea6c59,A
2020-03-08 05:52:35,275a3f4a-2015-46c5-bf58-97c590ea6c59,S
2020-03-08 05:54:36,275a3f4a-2015-46c5-bf58-97c590ea6c59,A
2020-03-08 05:58:52,275a3f4a-2015-46c5-bf58-97c590ea6c59,S
2020-03-08 05:59:49,275a3f4a-2015-46c5-bf58-97c590ea6c59,A
2020-03-08 06:00:38,275a3f4a-2015-46c5-bf58-97c590ea6c59,S
2020-03-08 06:08:05,275a3f4a-2015-46c5-bf58-97c590ea6c59,A
2020-03-08 06:10:18,275a3f4a-2015-46c5-bf58-97c590ea6c59,S
2020-03-08 06:13:50,275a3f4a-2015-46c5-bf58-97c590ea6c59,A
2020-03-08 06:22:06,275a3f4a-2015-46c5-bf58-97c590ea6c59,S
2020-03-08 06:29:31,275a3f4a-2015-46c5-bf58-97c590ea6c59,A
2020-03-08 06:31:33,275a3f4a-2015-46c5-bf58-97c590ea6c59,S
2020-03-08 06:34:18,275a3f4a-2015-46c5-bf58-97c590ea6c59,A
2020-03-08 06:35:22,275a3f4a-2015-46c5-bf58-97c590ea6c59,S
2020-03-08 06:36:40,275a3f4a-2015-46c5-bf58-97c590ea6c59,A
2020-03-08 06:38:12,275a3f4a-2015-46c5-bf58-97c590ea6c59,S
2020-03-08 06:46:20,275a3f4a-2015-46c5-bf58-97c590ea6c59,A
2020-03-08 06:46:30,275a3f4a-2015-46c5-bf58-97c590ea6c59,S
2020-03-08 06:46:42,275a3f4a-2015-46c5-bf58-97c590ea6c59,A
2020-03-08 06:50:33,275a3f4a-2015-46c5-bf58-97c590ea6c59,S
2020-03-08 06:52:57,275a3f4a-2015-46c5-bf58-97c590ea6c59,A
2020-03-08 06:53:41,275a3f4a-2015-46c5-bf58-97c590ea6c59,S
2020-03-08 06:54:59,275a3f4a-2015-46c5-bf58-97c590ea6c59,A
2020-03-08 06:55:53,275a3f4a-2015-46c5-bf58-97c590ea6c59,S
2020-03-08 07:04:15,275a3f4a-2015-46c5-bf58-97c590ea6c59,A
2020-03-08 07:05:28,275a3f4a-2015-46c5-bf58-97c590ea6c59,S
2020-03-08 04:48:21,b25686ed-1ac6-4e66-bbe1-97a0551bb0f0,A
2020-03-08 04:54:05,b25686ed-1ac6-4e66-bbe1-97a0551bb0f0,S
2020-03-08 04:55:52,b25686ed-1ac6-4e66-bbe1-97a0551bb0f0,A
2020-03-08 04:58:03,b25686ed-1ac6-4e66-bbe1-97a0551bb0f0,S
2020-03-08 05:00:49,b25686ed-1ac6-4e66-bbe1-97a0551bb0f0,A
2020-03-08 05:05:41,b25686ed-1ac6-4e66-bbe1-97a0551bb0f0,S
2020-03-08 05:11:24,b25686ed-1ac6-4e66-bbe1-97a0551bb0f0,A
2020-03-08 05:13:03,b25686ed-1ac6-4e66-bbe1-97a0551bb0f0,S
2020-03-08 05:14:09,b25686ed-1ac6-4e66-bbe1-97a0551bb0f0,A
2020-03-08 05:18:00,b25686ed-1ac6-4e66-bbe1-97a0551bb0f0,S
2020-03-08 05:21:19,b25686ed-1ac6-4e66-bbe1-97a0551bb0f0,A
2020-03-08 05:29:23,b25686ed-1ac6-4e66-bbe1-97a0551bb0f0,S
2020-03-08 05:38:24,b25686ed-1ac6-4e66-bbe1-97a0551bb0f0,A
2020-03-08 05:39:08,b25686ed-1ac6-4e66-bbe1-97a0551bb0f0,S
2020-03-08 05:49:25,b25686ed-1ac6-4e66-bbe1-97a0551bb0f0,A
2020-03-08 05:49:31,b25686ed-1ac6-4e66-bbe1-97a0551bb0f0,S
2020-03-08 05:50:49,b25686ed-1ac6-4e66-bbe1-97a0551bb0f0,A
2020-03-08 05:55:27,b25686ed-1ac6-4e66-bbe1-97a0551bb0f0,S
2020-03-08 06:01:35,b25686ed-1ac6-4e66-bbe1-97a0551bb0f0,A
2020-03-08 06:11:08,b25686ed-1ac6-4e66-bbe1-97a0551bb0f0,S
2020-03-08 06:14:30,b25686ed-1ac6-4e66-bbe1-97a0551bb0f0,A
2020-03-08 06:15:58,b25686ed-1ac6-4e66-bbe1-97a0551bb0f0,S
2020-03-08 06:17:31,b25686ed-1ac6-4e66-bbe1-97a0551bb0f0,A
2020-03-08 06:26:17,b25686ed-1ac6-4e66-bbe1-97a0551bb0f0,S
2020-03-08 06:27:12,b25686ed-1ac6-4e66-bbe1-97a0551bb0f0,A
2020-03-08 06:31:20,b25686ed-1ac6-4e66-bbe1-97a0551bb0f0,S
2020-03-08 06:34:11,b25686ed-1ac6-4e66-bbe1-97a0551bb0f0,A
2020-03-08 06:37:50,b25686ed-1ac6-4e66-bbe1-97a0551bb0f0,S
2020-03-08 06:40:12,b25686ed-1ac6-4e66-bbe1-97a0551bb0f0,A
2020-03-08 06:40:34,b25686ed-1ac6-4e66-bbe1-97a0551bb0f0,S
2020-03-08 06:47:33,b25686ed-1ac6-4e66-bbe1-97a0551bb0f0,A
2020-03-08 06:47:41,b25686ed-1ac6-4e66-bbe1-97a0551bb0f0,S
2020-03-08 06:54:37,b25686ed-1ac6-4e66-bbe1-97a0551bb0f0,A
2020-03-08 07:03:45,b25686ed-1ac6-4e66-bbe1-97a0551bb0f0,S
2020-03-08 07:05:52,b25686ed-1ac6-4e66-bbe1-97a0551bb0f0,A
2020-03-08 07:06:35,b25686ed-1ac6-4e66-bbe1-97a0551bb0f0,S
2020-03-08 07:10:23,b25686ed-1ac6-4e66-bbe1-97a0551bb0f0,A
2020-03-08 04:37:02,6d6423dd-4cd8-4260-b53c-32da2864f57b,A
2020-03-08 04:43:51,6d6423dd-4cd8-4260-b53c-32da2864f57b,S
2020-03-08 04:44:06,6d6423dd-4cd8-4260-b53c-32da2864f57b,A
2020-03-08 04:53:45,6d6423dd-4cd8-4260-b53c-32da2864f57b,S
2020-03-08 04:58:54,6d6423dd-4cd8-4260-b53c-32da2864f57b,A
2020-03-08 05:08:40,6d6423dd-4cd8-4260-b53c-32da2864f57b,S
2020-03-08 05:13:08,6d6423dd-4cd8-4260-b53c-32da2864f57b,A
2020-03-08 05:15:28,6d6423dd-4cd8-4260-b53c-32da2864f57b,S
2020-03-08 05:15:35,6d6423dd-4cd8-4260-b53c-32da2864f57b,A
2020-03-08 05:22:51,6d6423dd-4cd8-4260-b53c-32da2864f57b,S
2020-03-08 05:24:50,6d6423dd-4cd8-4260-b53c-32da2864f57b,A
2020-03-08 05:26:40,6d6423dd-4cd8-4260-b53c-32da2864f57b,S
2020-03-08 05:34:30,6d6423dd-4cd8-4260-b53c-32da2864f57b,A
2020-03-08 05:35:09,6d6423dd-4cd8-4260-b53c-32da2864f57b,S
2020-03-08 05:37:16,6d6423dd-4cd8-4260-b53c-32da2864f57b,A
2020-03-08 05:49:21,6d6423dd-4cd8-4260-b53c-32da2864f57b,S
2020-03-08 06:04:09,6d6423dd-4cd8-4260-b53c-32da2864f57b,A
2020-03-08 06:04:17,6d6423dd-4cd8-4260-b53c-32da2864f57b,S
2020-03-08 06:17:52,6d6423dd-4cd8-4260-b53c-32da2864f57b,A
2020-03-08 06:22:45,6d6423dd-4cd8-4260-b53c-32da2864f57b,S
2020-03-08 06:23:18,6d6423dd-4cd8-4260-b53c-32da2864f57b,A
2020-03-08 06:27:09,6d6423dd-4cd8-4260-b53c-32da2864f57b,S
2020-03-08 06:27:51,6d6423dd-4cd8-4260-b53c-32da2864f57b,A
2020-03-08 06:36:30,6d6423dd-4cd8-4260-b53c-32da2864f57b,S
2020-03-08 06:37:33,6d6423dd-4cd8-4260-b53c-32da2864f57b,A
2020-03-08 06:39:49,6d6423dd-4cd8-4260-b53c-32da2864f57b,S
2020-03-08 06:41:58,6d6423dd-4cd8-4260-b53c-32da2864f57b,A
2020-03-08 06:44:20,6d6423dd-4cd8-4260-b53c-32da2864f57b,S
2020-03-08 06:48:11,6d6423dd-4cd8-4260-b53c-32da2864f57b,A
2020-03-08 06:49:23,6d6423dd-4cd8-4260-b53c-32da2864f57b,S
2020-03-08 06:50:14,6d6423dd-4cd8-4260-b53c-32da2864f57b,A
2020-03-08 06:52:23,6d6423dd-4cd8-4260-b53c-32da2864f57b,S
2020-03-08 06:52:46,6d6423dd-4cd8-4260-b53c-32da2864f57b,A
2020-03-08 06:53:02,6d6423dd-4cd8-4260-b53c-32da2864f57b,S
2020-03-08 06:57:33,6d6423dd-4cd8-4260-b53c-32da2864f57b,A
2020-03-08 06:58:24,6d6423dd-4cd8-4260-b53c-32da2864f57b,S
2020-03-08 07:07:56,6d6423dd-4cd8-4260-b53c-32da2864f57b,A
2020-03-08 07:13:58,6d6423dd-4cd8-4260-b53c-32da2864f57b,S
2020-03-08 04:13:20,2ef87173-bd46-4d97-98e0-79a887759eee,A
2020-03-08 04:16:12,2ef87173-bd46-4d97-98e0-79a887759eee,S
2020-03-08 04:17:32,2ef87173-bd46-4d97-98e0-79a887759eee,A
2020-03-08 04:27:45,2ef87173-bd46-4d97-98e0-79a887759eee,S
2020-03-08 04:27:59,2ef87173-bd46-4d97-98e0-79a887759eee,A
2020-03-08 04:29:05,2ef87173-bd46-4d97-98e0-79a887759eee,S
2020-03-08 04:30:19,2ef87173-bd46-4d97-98e0-79a887759eee,A
2020-03-08 04:33:58,2ef87173-bd46-4d97-98e0-79a887759eee,S
2020-03-08 04:36:42,2ef87173-bd46-4d97-98e0-79a887759eee,A
2020-03-08 04:41:52,2ef87173-bd46-4d97-98e0-79a887759eee,S
2020-03-08 04:43:10,2ef87173-bd46-4d97-98e0-79a887759eee,A
2020-03-08 04:49:09,2ef87173-bd46-4d97-98e0-79a887759eee,S
2020-03-08 05:00:26,2ef87173-bd46-4d97-98e0-79a887759eee,A
2020-03-08 05:06:28,df80d58c-bb98-4cb0-89bc-19d877acbb83,S
2020-03-08 05:09:54,df80d58c-bb98-4cb0-89bc-19d877acbb83,A
2020-03-08 05:10:03,df80d58c-bb98-4cb0-89bc-19d877acbb83,S
2020-03-08 05:17:03,df80d58c-bb98-4cb0-89bc-19d877acbb83,A
2020-03-08 05:18:31,df80d58c-bb98-4cb0-89bc-19d877acbb83,S
2020-03-08 05:23:24,df80d58c-bb98-4cb0-89bc-19d877acbb83,A
2020-03-08 05:24:58,df80d58c-bb98-4cb0-89bc-19d877acbb83,S
2020-03-08 05:25:25,df80d58c-bb98-4cb0-89bc-19d877acbb83,A
2020-03-08 05:30:59,df80d58c-bb98-4cb0-89bc-19d877acbb83,S
2020-03-08 05:44:41,df80d58c-bb98-4cb0-89bc-19d877acbb83,A
2020-03-08 05:48:31,df80d58c-bb98-4cb0-89bc-19d877acbb83,S
2020-03-08 05:58:58,df80d58c-bb98-4cb0-89bc-19d877acbb83,A
2020-03-08 05:59:47,df80d58c-bb98-4cb0-89bc-19d877acbb83,S
2020-03-08 06:02:37,df80d58c-bb98-4cb0-89bc-19d877acbb83,A
2020-03-08 06:03:10,df80d58c-bb98-4cb0-89bc-19d877acbb83,S
2020-03-08 06:21:15,df80d58c-bb98-4cb0-89bc-19d877acbb83,A
2020-03-08 06:26:31,df80d58c-bb98-4cb0-89bc-19d877acbb83,S
2020-03-08 06:32:21,df80d58c-bb98-4cb0-89bc-19d877acbb83,A
2020-03-08 06:40:05,df80d58c-bb98-4cb0-89bc-19d877acbb83,S
2020-03-08 06:40:52,df80d58c-bb98-4cb0-89bc-19d877acbb83,A
2020-03-08 06:43:25,df80d58c-bb98-4cb0-89bc-19d877acbb83,S
2020-03-08 06:43:46,df80d58c-bb98-4cb0-89bc-19d877acbb83,A
2020-03-08 06:52:49,df80d58c-bb98-4cb0-89bc-19d877acbb83,S
2020-03-08 07:07:16,df80d58c-bb98-4cb0-89bc-19d877acbb83,A
2020-03-08 07:09:45,df80d58c-bb98-4cb0-89bc-19d877acbb83,S
2020-03-08 07:11:33,df80d58c-bb98-4cb0-89bc-19d877acbb83,A
2020-03-08 05:03:00,1b9648c9-4486-4c61-baf8-05bb023a7305,S
2020-03-08 05:09:57,1b9648c9-4486-4c61-baf8-05bb023a7305,A
2020-03-08 05:27:32,1b9648c9-4486-4c61-baf8-05bb023a7305,S
2020-03-08 05:44:35,1b9648c9-4486-4c61-baf8-05bb023a7305,A
2020-03-08 05:45:28,1b9648c9-4486-4c61-baf8-05bb023a7305,S
2020-03-08 05:50:51,1b9648c9-4486-4c61-baf8-05bb023a7305,A
2020-03-08 05:51:39,1b9648c9-4486-4c61-baf8-05bb023a7305,S
2020-03-08 06:00:21,1b9648c9-4486-4c61-baf8-05bb023a7305,A
2020-03-08 06:00:34,1b9648c9-4486-4c61-baf8-05bb023a7305,S
2020-03-08 06:01:30,1b9648c9-4486-4c61-baf8-05bb023a7305,A
2020-03-08 06:03:46,1b9648c9-4486-4c61-baf8-05bb023a7305,S
2020-03-08 06:12:34,1b9648c9-4486-4c61-baf8-05bb023a7305,A
2020-03-08 06:15:03,1b9648c9-4486-4c61-baf8-05bb023a7305,S
2020-03-08 06:23:04,1b9648c9-4486-4c61-baf8-05bb023a7305,A
2020-03-08 06:29:36,1b9648c9-4486-4c61-baf8-05bb023a7305,S
2020-03-08 06:52:25,1b9648c9-4486-4c61-baf8-05bb023a7305,A
2020-03-08 06:55:18,1b9648c9-4486-4c61-baf8-05bb023a7305,S
2020-03-08 06:55:26,1b9648c9-4486-4c61-baf8-05bb023a7305,A
2020-03-08 06:57:49,1b9648c9-4486-4c61-baf8-05bb023a7305,S
2020-03-08 07:01:09,1b9648c9-4486-4c61-baf8-05bb023a7305,A
2020-03-08 07:04:02,1b9648c9-4486-4c61-baf8-05bb023a7305,S
2020-03-08 07:05:24,1b9648c9-4486-4c61-baf8-05bb023a7305,A
2020-03-08 07:06:23,1b9648c9-4486-4c61-baf8-05bb023a7305,S
2020-03-08 07:07:22,1b9648c9-4486-4c61-baf8-05bb023a7305,A
2020-03-08 07:08:29,1b9648c9-4486-4c61-baf8-05bb023a7305,S
2020-03-08 07:09:07,1b9648c9-4486-4c61-baf8-05bb023a7305,A
2020-03-08 05:18:25,56f01423-255c-4346-b5b2-91e744764ddc,S
2020-03-08 05:23:29,56f01423-255c-4346-b5b2-91e744764ddc,A
2020-03-08 05:31:36,56f01423-255c-4346-b5b2-91e744764ddc,S
2020-03-08 05:40:19,56f01423-255c-4346-b5b2-91e744764ddc,A
2020-03-08 05:51:12,56f01423-255c-4346-b5b2-91e744764ddc,S
2020-03-08 06:02:22,56f01423-255c-4346-b5b2-91e744764ddc,A
2020-03-08 06:04:24,56f01423-255c-4346-b5b2-91e744764ddc,S
2020-03-08 06:11:57,56f01423-255c-4346-b5b2-91e744764ddc,A
2020-03-08 06:14:41,56f01423-255c-4346-b5b2-91e744764ddc,S
2020-03-08 06:22:19,56f01423-255c-4346-b5b2-91e744764ddc,A
2020-03-08 06:25:54,56f01423-255c-4346-b5b2-91e744764ddc,S
2020-03-08 06:29:03,56f01423-255c-4346-b5b2-91e744764ddc,A
2020-03-08 06:31:06,56f01423-255c-4346-b5b2-91e744764ddc,S
2020-03-08 06:36:01,56f01423-255c-4346-b5b2-91e744764ddc,A
2020-03-08 06:38:40,56f01423-255c-4346-b5b2-91e744764ddc,S
2020-03-08 06:39:36,56f01423-255c-4346-b5b2-91e744764ddc,A
2020-03-08 06:40:16,56f01423-255c-4346-b5b2-91e744764ddc,S
2020-03-08 06:40:26,56f01423-255c-4346-b5b2-91e744764ddc,A
2020-03-08 06:44:44,56f01423-255c-4346-b5b2-91e744764ddc,S
2020-03-08 06:52:01,56f01423-255c-4346-b5b2-91e744764ddc,A
2020-03-08 07:07:19,56f01423-255c-4346-b5b2-91e744764ddc,S
2020-03-08 07:08:43,56f01423-255c-4346-b5b2-91e744764ddc,A
2020-03-08 07:12:07,56f01423-255c-4346-b5b2-91e744764ddc,S
2020-03-08 07:13:21,56f01423-255c-4346-b5b2-91e744764ddc,A
2020-03-08 04:49:41,835576a9-495e-464a-a1b7-45c44f9dd584,S
2020-03-08 04:52:00,835576a9-495e-464a-a1b7-45c44f9dd584,A
2020-03-08 04:59:52,835576a9-495e-464a-a1b7-45c44f9dd584,S
2020-03-08 05:12:05,835576a9-495e-464a-a1b7-45c44f9dd584,A
2020-03-08 05:15:49,835576a9-495e-464a-a1b7-45c44f9dd584,S
2020-03-08 05:24:42,835576a9-495e-464a-a1b7-45c44f9dd584,A
2020-03-08 05:27:01,835576a9-495e-464a-a1b7-45c44f9dd584,S
2020-03-08 05:32:16,835576a9-495e-464a-a1b7-45c44f9dd584,A
2020-03-08 05:39:24,835576a9-495e-464a-a1b7-45c44f9dd584,S
2020-03-08 05:44:37,835576a9-495e-464a-a1b7-45c44f9dd584,A
2020-03-08 05:46:31,835576a9-495e-464a-a1b7-45c44f9dd584,S
2020-03-08 05:58:02,835576a9-495e-464a-a1b7-45c44f9dd584,A
2020-03-08 06:03:33,835576a9-495e-464a-a1b7-45c44f9dd584,S
2020-03-08 06:03:55,835576a9-495e-464a-a1b7-45c44f9dd584,A
2020-03-08 06:11:45,835576a9-495e-464a-a1b7-45c44f9dd584,S
2020-03-08 06:18:12,835576a9-495e-464a-a1b7-45c44f9dd584,A
2020-03-08 06:29:57,835576a9-495e-464a-a1b7-45c44f9dd584,S
2020-03-08 06:32:50,835576a9-495e-464a-a1b7-45c44f9dd584,A
2020-03-08 06:37:13,835576a9-495e-464a-a1b7-45c44f9dd584,S
2020-03-08 06:41:10,835576a9-495e-464a-a1b7-45c44f9dd584,A
2020-03-08 06:46:42,835576a9-495e-464a-a1b7-45c44f9dd584,S
2020-03-08 06:54:51,835576a9-495e-464a-a1b7-45c44f9dd584,A
2020-03-08 06:55:07,835576a9-495e-464a-a1b7-45c44f9dd584,S
2020-03-08 06:55:57,835576a9-495e-464a-a1b7-45c44f9dd584,A
2020-03-08 06:59:14,835576a9-495e-464a-a1b7-45c44f9dd584,S
2020-03-08 07:02:32,835576a9-495e-464a-a1b7-45c44f9dd584,A
2020-03-08 07:03:19,835576a9-495e-464a-a1b7-45c44f9dd584,S
2020-03-08 07:07:09,835576a9-495e-464a-a1b7-45c44f9dd584,A
2020-03-08 07:13:17,835576a9-495e-464a-a1b7-45c44f9dd584,S
2020-03-08 07:14:27,835576a9-495e-464a-a1b7-45c44f9dd584,A
2020-03-08 04:40:32,f1c2844c-365e-4535-97f7-175de3c4222d,A
2020-03-08 04:45:32,f1c2844c-365e-4535-97f7-175de3c4222d,S
2020-03-08 04:47:52,f1c2844c-365e-4535-97f7-175de3c4222d,A
2020-03-08 04:58:09,f1c2844c-365e-4535-97f7-175de3c4222d,S
2020-03-08 05:06:52,f1c2844c-365e-4535-97f7-175de3c4222d,A
2020-03-08 05:08:51,f1c2844c-365e-4535-97f7-175de3c4222d,S
2020-03-08 05:23:31,f1c2844c-365e-4535-97f7-175de3c4222d,A
2020-03-08 05:23:44,f1c2844c-365e-4535-97f7-175de3c4222d,S
2020-03-08 05:26:26,f1c2844c-365e-4535-97f7-175de3c4222d,A
2020-03-08 05:29:47,f1c2844c-365e-4535-97f7-175de3c4222d,S
2020-03-08 05:31:08,f1c2844c-365e-4535-97f7-175de3c4222d,A
2020-03-08 05:31:30,f1c2844c-365e-4535-97f7-175de3c4222d,S
2020-03-08 05:33:58,f1c2844c-365e-4535-97f7-175de3c4222d,A
2020-03-08 05:35:44,f1c2844c-365e-4535-97f7-175de3c4222d,S
2020-03-08 05:36:45,f1c2844c-365e-4535-97f7-175de3c4222d,A
2020-03-08 05:39:02,f1c2844c-365e-4535-97f7-175de3c4222d,S
2020-03-08 05:45:58,f1c2844c-365e-4535-97f7-175de3c4222d,A
2020-03-08 05:48:10,f1c2844c-365e-4535-97f7-175de3c4222d,S
2020-03-08 05:51:48,f1c2844c-365e-4535-97f7-175de3c4222d,A
2020-03-08 05:55:04,f1c2844c-365e-4535-97f7-175de3c4222d,S
2020-03-08 05:57:33,f1c2844c-365e-4535-97f7-175de3c4222d,A
2020-03-08 05:58:16,f1c2844c-365e-4535-97f7-175de3c4222d,S
2020-03-08 06:02:37,f1c2844c-365e-4535-97f7-175de3c4222d,A
2020-03-08 06:10:08,f1c2844c-365e-4535-97f7-175de3c4222d,S
2020-03-08 06:14:06,f1c2844c-365e-4535-97f7-175de3c4222d,A
2020-03-08 06:16:52,f1c2844c-365e-4535-97f7-175de3c4222d,S
2020-03-08 06:20:16,f1c2844c-365e-4535-97f7-175de3c4222d,A
2020-03-08 06:25:18,f1c2844c-365e-4535-97f7-175de3c4222d,S
2020-03-08 06:26:01,f1c2844c-365e-4535-97f7-175de3c4222d,A
2020-03-08 06:30:00,f1c2844c-365e-4535-97f7-175de3c4222d,S
2020-03-08 06:31:11,f1c2844c-365e-4535-97f7-175de3c4222d,A
2020-03-08 06:37:53,f1c2844c-365e-4535-97f7-175de3c4222d,S
2020-03-08 06:40:09,f1c2844c-365e-4535-97f7-175de3c4222d,A
2020-03-08 06:42:04,f1c2844c-365e-4535-97f7-175de3c4222d,S
2020-03-08 06:43:44,f1c2844c-365e-4535-97f7-175de3c4222d,A
2020-03-08 06:53:39,f1c2844c-365e-4535-97f7-175de3c4222d,S
2020-03-08 04:21:10,0bc447dd-0078-4aed-ada3-c42a21422244,S
2020-03-08 04:25:33,0bc447dd-0078-4aed-ada3-c42a21422244,A
2020-03-08 04:26:31,0bc447dd-0078-4aed-ada3-c42a21422244,S
2020-03-08 04:29:47,0bc447dd-0078-4aed-ada3-c42a21422244,A
2020-03-08 04:30:11,0bc447dd-0078-4aed-ada3-c42a21422244,S
2020-03-08 04:33:09,0bc447dd-0078-4aed-ada3-c42a21422244,A
2020-03-08 04:37:09,0bc447dd-0078-4aed-ada3-c42a21422244,S
2020-03-08 04:39:23,0bc447dd-0078-4aed-ada3-c42a21422244,A
2020-03-08 04:41:29,0bc447dd-0078-4aed-ada3-c42a21422244,S
2020-03-08 04:45:39,0bc447dd-0078-4aed-ada3-c42a21422244,A
2020-03-08 04:50:17,0bc447dd-0078-4aed-ada3-c42a21422244,S
2020-03-08 04:53:21,0bc447dd-0078-4aed-ada3-c42a21422244,A
2020-03-08 04:55:31,0bc447dd-0078-4aed-ada3-c42a21422244,S
2020-03-08 05:01:34,0bc447dd-0078-4aed-ada3-c42a21422244,A
2020-03-08 05:04:04,0bc447dd-0078-4aed-ada3-c42a21422244,S
2020-03-08 05:04:49,0bc447dd-0078-4aed-ada3-c42a21422244,A
2020-03-08 05:04:52,0bc447dd-0078-4aed-ada3-c42a21422244,S
2020-03-08 05:07:42,0bc447dd-0078-4aed-ada3-c42a21422244,A
2020-03-08 05:15:58,0bc447dd-0078-4aed-ada3-c42a21422244,S
2020-03-08 05:18:44,0bc447dd-0078-4aed-ada3-c42a21422244,A
2020-03-08 05:18:47,0bc447dd-0078-4aed-ada3-c42a21422244,S
2020-03-08 05:24:52,0bc447dd-0078-4aed-ada3-c42a21422244,A
2020-03-08 05:29:15,0bc447dd-0078-4aed-ada3-c42a21422244,S
2020-03-08 05:36:36,0bc447dd-0078-4aed-ada3-c42a21422244,A
2020-03-08 05:37:45,0bc447dd-0078-4aed-ada3-c42a21422244,S
2020-03-08 05:41:42,0bc447dd-0078-4aed-ada3-c42a21422244,A
2020-03-08 05:42:29,0bc447dd-0078-4aed-ada3-c42a21422244,S
2020-03-08 05:42:46,0bc447dd-0078-4aed-ada3-c42a21422244,A
2020-03-08 05:53:20,0bc447dd-0078-4aed-ada3-c42a21422244,S
2020-03-08 05:54:43,0bc447dd-0078-4aed-ada3-c42a21422244,A
2020-03-08 06:00:27,0bc447dd-0078-4aed-ada3-c42a21422244,S
2020-03-08 06:04:54,0bc447dd-0078-4aed-ada3-c42a21422244,A
2020-03-08 06:06:13,0bc447dd-0078-4aed-ada3-c42a21422244,S
2020-03-08 06:09:00,0bc447dd-0078-4aed-ada3-c42a21422244,A
2020-03-08 06:10:25,0bc447dd-0078-4aed-ada3-c42a21422244,S
2020-03-08 06:19:14,0bc447dd-0078-4aed-ada3-c42a21422244,A
2020-03-08 06:20:43,0bc447dd-0078-4aed-ada3-c42a21422244,S
2020-03-08 06:24:22,0bc447dd-0078-4aed-ada3-c42a21422244,A
2020-03-08 06:24:39,0bc447dd-0078-4aed-ada3-c42a21422244,S
2020-03-08 06:28:38,0bc447dd-0078-4aed-ada3-c42a21422244,A
2020-03-08 07:12:49,0bc447dd-0078-4aed-ada3-c42a21422244,S
2020-03-08 04:16:20,fa602079-cd27-4ebd-8521-444af3f37d69,A
2020-03-08 04:24:06,fa602079-cd27-4ebd-8521-444af3f37d69,S
2020-03-08 04:29:12,fa602079-cd27-4ebd-8521-444af3f37d69,A
2020-03-08 04:45:20,fa602079-cd27-4ebd-8521-444af3f37d69,S
2020-03-08 04:46:32,fa602079-cd27-4ebd-8521-444af3f37d69,A
2020-03-08 04:51:21,fa602079-cd27-4ebd-8521-444af3f37d69,S
2020-03-08 04:52:27,fa602079-cd27-4ebd-8521-444af3f37d69,A
2020-03-08 04:55:14,fa602079-cd27-4ebd-8521-444af3f37d69,S
2020-03-08 05:00:26,fa602079-cd27-4ebd-8521-444af3f37d69,A
2020-03-08 05:02:36,fa602079-cd27-4ebd-8521-444af3f37d69,S
2020-03-08 05:06:05,fa602079-cd27-4ebd-8521-444af3f37d69,A
2020-03-08 05:11:42,fa602079-cd27-4ebd-8521-444af3f37d69,S
2020-03-08 05:22:11,fa602079-cd27-4ebd-8521-444af3f37d69,A
2020-03-08 05:27:51,fa602079-cd27-4ebd-8521-444af3f37d69,S
2020-03-08 05:29:49,fa602079-cd27-4ebd-8521-444af3f37d69,A
2020-03-08 05:31:51,fa602079-cd27-4ebd-8521-444af3f37d69,S
2020-03-08 05:40:08,fa602079-cd27-4ebd-8521-444af3f37d69,A
2020-03-08 05:42:18,fa602079-cd27-4ebd-8521-444af3f37d69,S
2020-03-08 05:47:12,fa602079-cd27-4ebd-8521-444af3f37d69,A
2020-03-08 05:50:11,fa602079-cd27-4ebd-8521-444af3f37d69,S
2020-03-08 05:51:19,fa602079-cd27-4ebd-8521-444af3f37d69,A
2020-03-08 05:56:14,fa602079-cd27-4ebd-8521-444af3f37d69,S
2020-03-08 05:59:06,fa602079-cd27-4ebd-8521-444af3f37d69,A
2020-03-08 06:02:56,fa602079-cd27-4ebd-8521-444af3f37d69,S
2020-03-08 06:05:16,fa602079-cd27-4ebd-8521-444af3f37d69,A
2020-03-08 06:09:02,fa602079-cd27-4ebd-8521-444af3f37d69,S
2020-03-08 06:14:27,fa602079-cd27-4ebd-8521-444af3f37d69,A
2020-03-08 06:15:34,fa602079-cd27-4ebd-8521-444af3f37d69,S
2020-03-08 06:21:19,fa602079-cd27-4ebd-8521-444af3f37d69,A
2020-03-08 06:22:16,fa602079-cd27-4ebd-8521-444af3f37d69,S
2020-03-08 06:23:46,fa602079-cd27-4ebd-8521-444af3f37d69,A
2020-03-08 06:24:18,fa602079-cd27-4ebd-8521-444af3f37d69,S
2020-03-08 06:27:37,fa602079-cd27-4ebd-8521-444af3f37d69,A
2020-03-08 06:29:06,fa602079-cd27-4ebd-8521-444af3f37d69,S
2020-03-08 06:42:19,fa602079-cd27-4ebd-8521-444af3f37d69,A
2020-03-08 06:51:48,fa602079-cd27-4ebd-8521-444af3f37d69,S
2020-03-08 06:53:18,fa602079-cd27-4ebd-8521-444af3f37d69,A
2020-03-08 06:53:42,fa602079-cd27-4ebd-8521-444af3f37d69,S
2020-03-08 06:54:17,fa602079-cd27-4ebd-8521-444af3f37d69,A
2020-03-08 07:03:55,fa602079-cd27-4ebd-8521-444af3f37d69,S
2020-03-08 07:14:41,fa602079-cd27-4ebd-8521-444af3f37d69,A
2020-03-08 04:18:04,2c4cd5f3-da5c-40f3-85ed-e8df0ee60d48,A
2020-03-08 04:37:36,2c4cd5f3-da5c-40f3-85ed-e8df0ee60d48,S
2020-03-08 04:42:07,2c4cd5f3-da5c-40f3-85ed-e8df0ee60d48,A
2020-03-08 04:43:50,2c4cd5f3-da5c-40f3-85ed-e8df0ee60d48,S
2020-03-08 04:48:27,2c4cd5f3-da5c-40f3-85ed-e8df0ee60d48,A
2020-03-08 04:48:32,2c4cd5f3-da5c-40f3-85ed-e8df0ee60d48,S
2020-03-08 04:51:23,2c4cd5f3-da5c-40f3-85ed-e8df0ee60d48,A
2020-03-08 04:52:45,2c4cd5f3-da5c-40f3-85ed-e8df0ee60d48,S
2020-03-08 04:53:50,2c4cd5f3-da5c-40f3-85ed-e8df0ee60d48,A
2020-03-08 04:54:04,2c4cd5f3-da5c-40f3-85ed-e8df0ee60d48,S
2020-03-08 04:58:23,2c4cd5f3-da5c-40f3-85ed-e8df0ee60d48,A
2020-03-08 05:10:15,2c4cd5f3-da5c-40f3-85ed-e8df0ee60d48,S
2020-03-08 05:10:57,2c4cd5f3-da5c-40f3-85ed-e8df0ee60d48,A
2020-03-08 05:26:38,2c4cd5f3-da5c-40f3-85ed-e8df0ee60d48,S
2020-03-08 05:33:52,2c4cd5f3-da5c-40f3-85ed-e8df0ee60d48,A
2020-03-08 05:34:14,2c4cd5f3-da5c-40f3-85ed-e8df0ee60d48,S
2020-03-08 05:34:44,2c4cd5f3-da5c-40f3-85ed-e8df0ee60d48,A
2020-03-08 05:35:50,2c4cd5f3-da5c-40f3-85ed-e8df0ee60d48,S
2020-03-08 05:43:39,2c4cd5f3-da5c-40f3-85ed-e8df0ee60d48,A
2020-03-08 05:46:08,2c4cd5f3-da5c-40f3-85ed-e8df0ee60d48,S
2020-03-08 05:47:06,2c4cd5f3-da5c-40f3-85ed-e8df0ee60d48,A
2020-03-08 05:52:05,2c4cd5f3-da5c-40f3-85ed-e8df0ee60d48,S
2020-03-08 05:55:31,2c4cd5f3-da5c-40f3-85ed-e8df0ee60d48,A
2020-03-08 06:03:13,2c4cd5f3-da5c-40f3-85ed-e8df0ee60d48,S
2020-03-08 06:06:45,2c4cd5f3-da5c-40f3-85ed-e8df0ee60d48,A
2020-03-08 06:07:49,2c4cd5f3-da5c-40f3-85ed-e8df0ee60d48,S
2020-03-08 06:09:07,2c4cd5f3-da5c-40f3-85ed-e8df0ee60d48,A
2020-03-08 06:18:16,2c4cd5f3-da5c-40f3-85ed-e8df0ee60d48,S
2020-03-08 06:19:23,2c4cd5f3-da5c-40f3-85ed-e8df0ee60d48,A
2020-03-08 06:22:01,2c4cd5f3-da5c-40f3-85ed-e8df0ee60d48,S
2020-03-08 06:24:07,2c4cd5f3-da5c-40f3-85ed-e8df0ee60d48,A
2020-03-08 06:32:40,2c4cd5f3-da5c-40f3-85ed-e8df0ee60d48,S
2020-03-08 06:34:54,2c4cd5f3-da5c-40f3-85ed-e8df0ee60d48,A
2020-03-08 06:39:51,2c4cd5f3-da5c-40f3-85ed-e8df0ee60d48,S
2020-03-08 06:43:18,2c4cd5f3-da5c-40f3-85ed-e8df0ee60d48,A
2020-03-08 06:43:53,2c4cd5f3-da5c-40f3-85ed-e8df0ee60d48,S
2020-03-08 06:45:26,2c4cd5f3-da5c-40f3-85ed-e8df0ee60d48,A
2020-03-08 06:50:00,2c4cd5f3-da5c-40f3-85ed-e8df0ee60d48,S
2020-03-08 06:54:29,2c4cd5f3-da5c-40f3-85ed-e8df0ee60d48,A
2020-03-08 06:54:50,2c4cd5f3-da5c-40f3-85ed-e8df0ee60d48,S
2020-03-08 07:00:22,2c4cd5f3-da5c-40f3-85ed-e8df0ee60d48,A
2020-03-08 07:00:52,2c4cd5f3-da5c-40f3-85ed-e8df0ee60d48,S
2020-03-08 07:13:23,2c4cd5f3-da5c-40f3-85ed-e8df0ee60d48,A
2020-03-08 07:13:37,2c4cd5f3-da5c-40f3-85ed-e8df0ee60d48,S
2020-03-08 04:36:15,560ef007-e64f-4cf4-a494-2adbcb62d150,S
2020-03-08 04:41:12,560ef007-e64f-4cf4-a494-2adbcb62d150,A
2020-03-08 04:44:28,560ef007-e64f-4cf4-a494-2adbcb62d150,S
2020-03-08 04:49:26,560ef007-e64f-4cf4-a494-2adbcb62d150,A
2020-03-08 04:58:02,560ef007-e64f-4cf4-a494-2adbcb62d150,S
2020-03-08 05:16:34,560ef007-e64f-4cf4-a494-2adbcb62d150,A
2020-03-08 05:22:13,560ef007-e64f-4cf4-a494-2adbcb62d150,S
2020-03-08 05:24:46,560ef007-e64f-4cf4-a494-2adbcb62d150,A
2020-03-08 05:35:30,560ef007-e64f-4cf4-a494-2adbcb62d150,S
2020-03-08 05:44:12,560ef007-e64f-4cf4-a494-2adbcb62d150,A
2020-03-08 05:47:55,560ef007-e64f-4cf4-a494-2adbcb62d150,S
2020-03-08 05:53:11,560ef007-e64f-4cf4-a494-2adbcb62d150,A
2020-03-08 06:10:14,560ef007-e64f-4cf4-a494-2adbcb62d150,S
2020-03-08 06:18:16,560ef007-e64f-4cf4-a494-2adbcb62d150,A
2020-03-08 06:21:24,560ef007-e64f-4cf4-a494-2adbcb62d150,S
2020-03-08 06:23:48,560ef007-e64f-4cf4-a494-2adbcb62d150,A
2020-03-08 06:43:11,560ef007-e64f-4cf4-a494-2adbcb62d150,S
2020-03-08 06:46:12,560ef007-e64f-4cf4-a494-2adbcb62d150,A
2020-03-08 06:50:59,560ef007-e64f-4cf4-a494-2adbcb62d150,S
2020-03-08 06:54:45,560ef007-e64f-4cf4-a494-2adbcb62d150,A
2020-03-08 06:56:22,560ef007-e64f-4cf4-a494-2adbcb62d150,S
2020-03-08 07:08:27,560ef007-e64f-4cf4-a494-2adbcb62d150,A
2020-03-08 07:14:30,560ef007-e64f-4cf4-a494-2adbcb62d150,S
2020-03-08 04:22:40,75bae69d-c82d-4cb3-9afe-23c300ec8a79,A
2020-03-08 04:25:58,75bae69d-c82d-4cb3-9afe-23c300ec8a79,S
2020-03-08 04:40:08,75bae69d-c82d-4cb3-9afe-23c300ec8a79,A
2020-03-08 04:45:50,75bae69d-c82d-4cb3-9afe-23c300ec8a79,S
2020-03-08 05:04:09,75bae69d-c82d-4cb3-9afe-23c300ec8a79,A
2020-03-08 05:05:04,75bae69d-c82d-4cb3-9afe-23c300ec8a79,S
2020-03-08 05:12:57,75bae69d-c82d-4cb3-9afe-23c300ec8a79,A
2020-03-08 05:26:31,75bae69d-c82d-4cb3-9afe-23c300ec8a79,S
2020-03-08 05:27:20,75bae69d-c82d-4cb3-9afe-23c300ec8a79,A
2020-03-08 05:30:00,75bae69d-c82d-4cb3-9afe-23c300ec8a79,S
2020-03-08 05:43:39,75bae69d-c82d-4cb3-9afe-23c300ec8a79,A
2020-03-08 05:46:42,75bae69d-c82d-4cb3-9afe-23c300ec8a79,S
2020-03-08 05:54:21,75bae69d-c82d-4cb3-9afe-23c300ec8a79,A
2020-03-08 05:56:16,75bae69d-c82d-4cb3-9afe-23c300ec8a79,S
2020-03-08 06:07:34,75bae69d-c82d-4cb3-9afe-23c300ec8a79,A
2020-03-08 06:09:24,75bae69d-c82d-4cb3-9afe-23c300ec8a79,S
2020-03-08 06:10:05,75bae69d-c82d-4cb3-9afe-23c300ec8a79,A
2020-03-08 06:19:36,75bae69d-c82d-4cb3-9afe-23c300ec8a79,S
2020-03-08 06:22:51,75bae69d-c82d-4cb3-9afe-23c300ec8a79,A
2020-03-08 06:23:27,75bae69d-c82d-4cb3-9afe-23c300ec8a79,S
2020-03-08 06:23:58,75bae69d-c82d-4cb3-9afe-23c300ec8a79,A
2020-03-08 06:29:02,75bae69d-c82d-4cb3-9afe-23c300ec8a79,S
2020-03-08 06:29:27,75bae69d-c82d-4cb3-9afe-23c300ec8a79,A
2020-03-08 06:29:50,75bae69d-c82d-4cb3-9afe-23c300ec8a79,S
2020-03-08 06:30:35,75bae69d-c82d-4cb3-9afe-23c300ec8a79,A
2020-03-08 06:32:26,75bae69d-c82d-4cb3-9afe-23c300ec8a79,S
2020-03-08 06:33:19,75bae69d-c82d-4cb3-9afe-23c300ec8a79,A
2020-03-08 06:43:53,75bae69d-c82d-4cb3-9afe-23c300ec8a79,S
2020-03-08 06:45:04,75bae69d-c82d-4cb3-9afe-23c300ec8a79,A
2020-03-08 06:51:57,75bae69d-c82d-4cb3-9afe-23c300ec8a79,S
2020-03-08 07:00:37,75bae69d-c82d-4cb3-9afe-23c300ec8a79,A
2020-03-08 07:03:45,75bae69d-c82d-4cb3-9afe-23c300ec8a79,S
2020-03-08 07:07:20,75bae69d-c82d-4cb3-9afe-23c300ec8a79,A
2020-03-08 07:07:36,75bae69d-c82d-4cb3-9afe-23c300ec8a79,S
2020-03-08 07:14:41,75bae69d-c82d-4cb3-9afe-23c300ec8a79,A
2020-03-08 07:14:49,75bae69d-c82d-4cb3-9afe-23c300ec8a79,S
2020-03-08 04:32:31,3238bb1d-9781-4871-8531-2773cefa853e,S
2020-03-08 04:38:03,3238bb1d-9781-4871-8531-2773cefa853e,A
2020-03-08 04:39:25,3238bb1d-9781-4871-8531-2773cefa853e,S
2020-03-08 04:53:46,3238bb1d-9781-4871-8531-2773cefa853e,A
2020-03-08 04:55:59,3238bb1d-9781-4871-8531-2773cefa853e,S
2020-03-08 04:58:22,3238bb1d-9781-4871-8531-2773cefa853e,A
2020-03-08 04:59:15,3238bb1d-9781-4871-8531-2773cefa853e,S
2020-03-08 05:02:46,3238bb1d-9781-4871-8531-2773cefa853e,A
2020-03-08 05:04:08,3238bb1d-9781-4871-8531-2773cefa853e,S
2020-03-08 05:07:44,3238bb1d-9781-4871-8531-2773cefa853e,A
2020-03-08 05:10:20,3238bb1d-9781-4871-8531-2773cefa853e,S
2020-03-08 05:10:50,3238bb1d-9781-4871-8531-2773cefa853e,A
2020-03-08 05:31:09,3238bb1d-9781-4871-8531-2773cefa853e,S
2020-03-08 05:35:48,3238bb1d-9781-4871-8531-2773cefa853e,A
2020-03-08 05:37:01,3238bb1d-9781-4871-8531-2773cefa853e,S
2020-03-08 05:38:49,3238bb1d-9781-4871-8531-2773cefa853e,A
2020-03-08 05:47:19,3238bb1d-9781-4871-8531-2773cefa853e,S
2020-03-08 05:48:38,3238bb1d-9781-4871-8531-2773cefa853e,A
2020-03-08 05:48:39,3238bb1d-9781-4871-8531-2773cefa853e,S
2020-03-08 05:57:15,3238bb1d-9781-4871-8531-2773cefa853e,A
2020-03-08 05:58:30,3238bb1d-9781-4871-8531-2773cefa853e,S
2020-03-08 05:59:20,3238bb1d-9781-4871-8531-2773cefa853e,A
2020-03-08 06:03:07,3238bb1d-9781-4871-8531-2773cefa853e,S
2020-03-08 06:04:13,3238bb1d-9781-4871-8531-2773cefa853e,A
2020-03-08 06:04:25,3238bb1d-9781-4871-8531-2773cefa853e,S
2020-03-08 06:09:58,3238bb1d-9781-4871-8531-2773cefa853e,A
2020-03-08 06:15:17,3238bb1d-9781-4871-8531-2773cefa853e,S
2020-03-08 06:27:33,3238bb1d-9781-4871-8531-2773cefa853e,A
2020-03-08 06:27:48,3238bb1d-9781-4871-8531-2773cefa853e,S
2020-03-08 06:31:58,3238bb1d-9781-4871-8531-2773cefa853e,A
2020-03-08 06:41:35,3238bb1d-9781-4871-8531-2773cefa853e,S
2020-03-08 06:53:40,3238bb1d-9781-4871-8531-2773cefa853e,A
2020-03-08 06:57:09,3238bb1d-9781-4871-8531-2773cefa853e,S
2020-03-08 07:01:32,3238bb1d-9781-4871-8531-2773cefa853e,A
2020-03-08 07:02:57,3238bb1d-9781-4871-8531-2773cefa853e,S
2020-03-08 07:03:32,3238bb1d-9781-4871-8531-2773cefa853e,A
2020-03-08 07:10:33,3238bb1d-9781-4871-8531-2773cefa853e,S
2020-03-08 07:12:01,3238bb1d-9781-4871-8531-2773cefa853e,A
2020-03-08 07:12:33,3238bb1d-9781-4871-8531-2773cefa853e,S
2020-03-08 04:24:54,836481fd-1992-492d-8320-22510d161153,S
2020-03-08 04:31:21,836481fd-1992-492d-8320-22510d161153,A
2020-03-08 04:42:12,836481fd-1992-492d-8320-22510d161153,S
2020-03-08 04:44:04,836481fd-1992-492d-8320-22510d161153,A
2020-03-08 04:44:22,836481fd-1992-492d-8320-22510d161153,S
2020-03-08 04:59:41,836481fd-1992-492d-8320-22510d161153,A
2020-03-08 05:01:19,836481fd-1992-492d-8320-22510d161153,S
2020-03-08 05:05:23,836481fd-1992-492d-8320-22510d161153,A
2020-03-08 05:07:08,836481fd-1992-492d-8320-22510d161153,S
2020-03-08 05:12:08,836481fd-1992-492d-8320-22510d161153,A
2020-03-08 05:19:01,836481fd-1992-492d-8320-22510d161153,S
2020-03-08 05:23:47,836481fd-1992-492d-8320-22510d161153,A
2020-03-08 05:30:21,836481fd-1992-492d-8320-22510d161153,S
2020-03-08 05:36:16,836481fd-1992-492d-8320-22510d161153,A
2020-03-08 05:46:53,836481fd-1992-492d-8320-22510d161153,S
2020-03-08 05:54:09,836481fd-1992-492d-8320-22510d161153,A
2020-03-08 05:56:35,836481fd-1992-492d-8320-22510d161153,S
2020-03-08 05:58:16,836481fd-1992-492d-8320-22510d161153,A
2020-03-08 06:02:54,836481fd-1992-492d-8320-22510d161153,S
2020-03-08 06:07:54,836481fd-1992-492d-8320-22510d161153,A
2020-03-08 06:17:50,836481fd-1992-492d-8320-22510d161153,S
2020-03-08 06:17:53,836481fd-1992-492d-8320-22510d161153,A
2020-03-08 06:22:33,836481fd-1992-492d-8320-22510d161153,S
2020-03-08 06:24:18,836481fd-1992-492d-8320-22510d161153,A
2020-03-08 06:31:01,836481fd-1992-492d-8320-22510d161153,S
2020-03-08 06:31:07,836481fd-1992-492d-8320-22510d161153,A
2020-03-08 06:33:50,836481fd-1992-492d-8320-22510d161153,S
2020-03-08 06:40:42,836481fd-1992-492d-8320-22510d161153,A
2020-03-08 07:01:36,836481fd-1992-492d-8320-22510d161153,S
2020-03-08 07:08:24,836481fd-1992-492d-8320-22510d161153,A
2020-03-08 04:17:17,56c7ef37-b80e-4270-8d75-2cacdae00a5c,S
2020-03-08 04:21:16,56c7ef37-b80e-4270-8d75-2cacdae00a5c,A
2020-03-08 04:21:59,56c7ef37-b80e-4270-8d75-2cacdae00a5c,S
2020-03-08 04:22:34,56c7ef37-b80e-4270-8d75-2cacdae00a5c,A
2020-03-08 04:25:37,56c7ef37-b80e-4270-8d75-2cacdae00a5c,S
2020-03-08 04:25:53,56c7ef37-b80e-4270-8d75-2cacdae00a5c,A
2020-03-08 04:28:22,56c7ef37-b80e-4270-8d75-2cacdae00a5c,S
2020-03-08 04:33:42,56c7ef37-b80e-4270-8d75-2cacdae00a5c,A
2020-03-08 04:37:37,56c7ef37-b80e-4270-8d75-2cacdae00a5c,S
2020-03-08 04:40:22,56c7ef37-b80e-4270-8d75-2cacdae00a5c,A
2020-03-08 04:51:09,56c7ef37-b80e-4270-8d75-2cacdae00a5c,S
2020-03-08 04:56:47,56c7ef37-b80e-4270-8d75-2cacdae00a5c,A
2020-03-08 05:19:21,56c7ef37-b80e-4270-8d75-2cacdae00a5c,S
2020-03-08 05:43:42,56c7ef37-b80e-4270-8d75-2cacdae00a5c,A
2020-03-08 05:50:16,56c7ef37-b80e-4270-8d75-2cacdae00a5c,S
2020-03-08 05:53:43,56c7ef37-b80e-4270-8d75-2cacdae00a5c,A
2020-03-08 05:56:37,56c7ef37-b80e-4270-8d75-2cacdae00a5c,S
2020-03-08 06:01:22,56c7ef37-b80e-4270-8d75-2cacdae00a5c,A
2020-03-08 06:14:26,56c7ef37-b80e-4270-8d75-2cacdae00a5c,S
2020-03-08 06:15:59,56c7ef37-b80e-4270-8d75-2cacdae00a5c,A
2020-03-08 06:28:35,56c7ef37-b80e-4270-8d75-2cacdae00a5c,S
2020-03-08 06:34:34,56c7ef37-b80e-4270-8d75-2cacdae00a5c,A
2020-03-08 06:36:57,56c7ef37-b80e-4270-8d75-2cacdae00a5c,S
2020-03-08 06:38:53,56c7ef37-b80e-4270-8d75-2cacdae00a5c,A
2020-03-08 06:40:18,56c7ef37-b80e-4270-8d75-2cacdae00a5c,S
2020-03-08 06:45:32,56c7ef37-b80e-4270-8d75-2cacdae00a5c,A
2020-03-08 06:53:05,56c7ef37-b80e-4270-8d75-2cacdae00a5c,S
2020-03-08 06:54:18,56c7ef37-b80e-4270-8d75-2cacdae00a5c,A
2020-03-08 06:57:08,56c7ef37-b80e-4270-8d75-2cacdae00a5c,S
2020-03-08 07:03:51,56c7ef37-b80e-4270-8d75-2cacdae00a5c,A
2020-03-08 07:10:21,56c7ef37-b80e-4270-8d75-2cacdae00a5c,S
2020-03-08 04:28:53,f528d9a2-8b57-43be-9eff-8a13732af5c3,A
2020-03-08 04:36:40,f528d9a2-8b57-43be-9eff-8a13732af5c3,S
2020-03-08 04:38:33,f528d9a2-8b57-43be-9eff-8a13732af5c3,A
2020-03-08 04:39:51,f528d9a2-8b57-43be-9eff-8a13732af5c3,S
2020-03-08 04:44:40,f528d9a2-8b57-43be-9eff-8a13732af5c3,A
2020-03-08 04:58:36,f528d9a2-8b57-43be-9eff-8a13732af5c3,S
2020-03-08 04:59:18,f528d9a2-8b57-43be-9eff-8a13732af5c3,A
2020-03-08 04:59:21,f528d9a2-8b57-43be-9eff-8a13732af5c3,S
2020-03-08 05:02:36,f528d9a2-8b57-43be-9eff-8a13732af5c3,A
2020-03-08 05:02:41,f528d9a2-8b57-43be-9eff-8a13732af5c3,S
2020-03-08 05:04:45,f528d9a2-8b57-43be-9eff-8a13732af5c3,A
2020-03-08 05:05:05,f528d9a2-8b57-43be-9eff-8a13732af5c3,S
2020-03-08 05:06:05,f528d9a2-8b57-43be-9eff-8a13732af5c3,A
2020-03-08 05:06:40,f528d9a2-8b57-43be-9eff-8a13732af5c3,S
2020-03-08 05:09:26,f528d9a2-8b57-43be-9eff-8a13732af5c3,A
2020-03-08 05:17:23,f528d9a2-8b57-43be-9eff-8a13732af5c3,S
2020-03-08 05:25:28,f528d9a2-8b57-43be-9eff-8a13732af5c3,A
2020-03-08 05:36:05,f528d9a2-8b57-43be-9eff-8a13732af5c3,S
2020-03-08 05:36:51,f528d9a2-8b57-43be-9eff-8a13732af5c3,A
2020-03-08 05:36:59,f528d9a2-8b57-43be-9eff-8a13732af5c3,S
2020-03-08 05:45:54,f528d9a2-8b57-43be-9eff-8a13732af5c3,A
2020-03-08 05:56:37,f528d9a2-8b57-43be-9eff-8a13732af5c3,S
2020-03-08 06:02:09,f528d9a2-8b57-43be-9eff-8a13732af5c3,A
2020-03-08 06:04:47,f528d9a2-8b57-43be-9eff-8a13732af5c3,S
2020-03-08 06:05:32,f528d9a2-8b57-43be-9eff-8a13732af5c3,A
2020-03-08 06:10:11,f528d9a2-8b57-43be-9eff-8a13732af5c3,S
2020-03-08 06:12:02,f528d9a2-8b57-43be-9eff-8a13732af5c3,A
2020-03-08 06:25:17,f528d9a2-8b57-43be-9eff-8a13732af5c3,S
2020-03-08 06:27:10,f528d9a2-8b57-43be-9eff-8a13732af5c3,A
2020-03-08 06:33:22,f528d9a2-8b57-43be-9eff-8a13732af5c3,S
2020-03-08 06:36:09,f528d9a2-8b57-43be-9eff-8a13732af5c3,A
2020-03-08 06:37:57,f528d9a2-8b57-43be-9eff-8a13732af5c3,S
2020-03-08 06:38:20,f528d9a2-8b57-43be-9eff-8a13732af5c3,A
2020-03-08 06:38:59,f528d9a2-8b57-43be-9eff-8a13732af5c3,S
2020-03-08 06:51:30,f528d9a2-8b57-43be-9eff-8a13732af5c3,A
2020-03-08 06:51:32,f528d9a2-8b57-43be-9eff-8a13732af5c3,S
2020-03-08 06:52:08,f528d9a2-8b57-43be-9eff-8a13732af5c3,A
2020-03-08 06:52:36,f528d9a2-8b57-43be-9eff-8a13732af5c3,S
2020-03-08 07:06:00,f528d9a2-8b57-43be-9eff-8a13732af5c3,A
2020-03-08 07:11:08,f528d9a2-8b57-43be-9eff-8a13732af5c3,S
2020-03-08 04:50:49,22074139-f648-4609-b678-f21ededd1b81,S
2020-03-08 04:51:27,22074139-f648-4609-b678-f21ededd1b81,A
2020-03-08 05:01:56,22074139-f648-4609-b678-f21ededd1b81,S
2020-03-08 05:02:11,22074139-f648-4609-b678-f21ededd1b81,A
2020-03-08 05:02:47,22074139-f648-4609-b678-f21ededd1b81,S
2020-03-08 05:09:27,22074139-f648-4609-b678-f21ededd1b81,A
2020-03-08 05:14:22,22074139-f648-4609-b678-f21ededd1b81,S
2020-03-08 05:22:15,22074139-f648-4609-b678-f21ededd1b81,A
2020-03-08 05:27:03,22074139-f648-4609-b678-f21ededd1b81,S
2020-03-08 05:58:14,22074139-f648-4609-b678-f21ededd1b81,A
2020-03-08 06:03:18,22074139-f648-4609-b678-f21ededd1b81,S
2020-03-08 06:04:04,22074139-f648-4609-b678-f21ededd1b81,A
2020-03-08 06:24:30,22074139-f648-4609-b678-f21ededd1b81,S
2020-03-08 06:26:58,22074139-f648-4609-b678-f21ededd1b81,A
2020-03-08 06:32:11,22074139-f648-4609-b678-f21ededd1b81,S
2020-03-08 06:40:50,22074139-f648-4609-b678-f21ededd1b81,A
2020-03-08 06:52:22,22074139-f648-4609-b678-f21ededd1b81,S
2020-03-08 06:53:44,22074139-f648-4609-b678-f21ededd1b81,A
2020-03-08 06:55:33,22074139-f648-4609-b678-f21ededd1b81,S
2020-03-08 07:01:29,22074139-f648-4609-b678-f21ededd1b81,A
2020-03-08 04:24:53,928c40e1-fe52-4e11-87ee-615ec523c0e9,S
2020-03-08 04:25:26,928c40e1-fe52-4e11-87ee-615ec523c0e9,A
2020-03-08 04:26:59,928c40e1-fe52-4e11-87ee-615ec523c0e9,S
2020-03-08 04:31:03,928c40e1-fe52-4e11-87ee-615ec523c0e9,A
2020-03-08 04:46:01,928c40e1-fe52-4e11-87ee-615ec523c0e9,S
2020-03-08 04:46:51,928c40e1-fe52-4e11-87ee-615ec523c0e9,A
2020-03-08 04:52:10,928c40e1-fe52-4e11-87ee-615ec523c0e9,S
2020-03-08 05:01:08,928c40e1-fe52-4e11-87ee-615ec523c0e9,A
2020-03-08 05:04:32,928c40e1-fe52-4e11-87ee-615ec523c0e9,S
2020-03-08 05:05:01,928c40e1-fe52-4e11-87ee-615ec523c0e9,A
2020-03-08 05:26:00,928c40e1-fe52-4e11-87ee-615ec523c0e9,S
2020-03-08 05:28:06,928c40e1-fe52-4e11-87ee-615ec523c0e9,A
2020-03-08 05:33:35,928c40e1-fe52-4e11-87ee-615ec523c0e9,S
2020-03-08 05:39:21,928c40e1-fe52-4e11-87ee-615ec523c0e9,A
2020-03-08 05:40:09,928c40e1-fe52-4e11-87ee-615ec523c0e9,S
2020-03-08 05:42:07,928c40e1-fe52-4e11-87ee-615ec523c0e9,A
2020-03-08 05:43:42,928c40e1-fe52-4e11-87ee-615ec523c0e9,S
2020-03-08 05:57:55,928c40e1-fe52-4e11-87ee-615ec523c0e9,A
2020-03-08 06:00:02,928c40e1-fe52-4e11-87ee-615ec523c0e9,S
2020-03-08 06:02:29,928c40e1-fe52-4e11-87ee-615ec523c0e9,A
2020-03-08 06:10:06,928c40e1-fe52-4e11-87ee-615ec523c0e9,S
2020-03-08 06:13:46,928c40e1-fe52-4e11-87ee-615ec523c0e9,A
2020-03-08 06:17:08,928c40e1-fe52-4e11-87ee-615ec523c0e9,S
2020-03-08 06:27:58,928c40e1-fe52-4e11-87ee-615ec523c0e9,A
2020-03-08 06:28:02,928c40e1-fe52-4e11-87ee-615ec523c0e9,S
2020-03-08 06:37:33,928c40e1-fe52-4e11-87ee-615ec523c0e9,A
2020-03-08 06:58:02,928c40e1-fe52-4e11-87ee-615ec523c0e9,S
2020-03-08 07:05:17,928c40e1-fe52-4e11-87ee-615ec523c0e9,A
2020-03-08 07:09:15,928c40e1-fe52-4e11-87ee-615ec523c0e9,S
2020-03-08 05:01:09,c0e4ddb3-63a7-4ceb-8716-6fec7981e162,S
2020-03-08 05:11:43,c0e4ddb3-63a7-4ceb-8716-6fec7981e162,A
2020-03-08 05:23:19,c0e4ddb3-63a7-4ceb-8716-6fec7981e162,S
2020-03-08 05:23:32,c0e4ddb3-63a7-4ceb-8716-6fec7981e162,A
2020-03-08 05:27:18,c0e4ddb3-63a7-4ceb-8716-6fec7981e162,S
2020-03-08 05:31:32,c0e4ddb3-63a7-4ceb-8716-6fec7981e162,A
2020-03-08 05:35:21,c0e4ddb3-63a7-4ceb-8716-6fec7981e162,S
2020-03-08 05:36:35,c0e4ddb3-63a7-4ceb-8716-6fec7981e162,A
2020-03-08 05:47:02,c0e4ddb3-63a7-4ceb-8716-6fec7981e162,S
2020-03-08 05:49:48,c0e4ddb3-63a7-4ceb-8716-6fec7981e162,A
2020-03-08 05:50:56,c0e4ddb3-63a7-4ceb-8716-6fec7981e162,S
2020-03-08 05:54:05,c0e4ddb3-63a7-4ceb-8716-6fec7981e162,A
2020-03-08 05:57:47,c0e4ddb3-63a7-4ceb-8716-6fec7981e162,S
2020-03-08 06:08:47,c0e4ddb3-63a7-4ceb-8716-6fec7981e162,A
2020-03-08 06:11:52,c0e4ddb3-63a7-4ceb-8716-6fec7981e162,S
2020-03-08 06:12:19,c0e4ddb3-63a7-4ceb-8716-6fec7981e162,A
2020-03-08 06:14:34,c0e4ddb3-63a7-4ceb-8716-6fec7981e162,S
2020-03-08 06:16:33,c0e4ddb3-63a7-4ceb-8716-6fec7981e162,A
2020-03-08 06:20:56,c0e4ddb3-63a7-4ceb-8716-6fec7981e162,S
2020-03-08 06:28:56,c0e4ddb3-63a7-4ceb-8716-6fec7981e162,A
2020-03-08 06:32:05,c0e4ddb3-63a7-4ceb-8716-6fec7981e162,S
2020-03-08 06:34:58,c0e4ddb3-63a7-4ceb-8716-6fec7981e162,A
2020-03-08 06:37:30,c0e4ddb3-63a7-4ceb-8716-6fec7981e162,S
2020-03-08 06:42:14,c0e4ddb3-63a7-4ceb-8716-6fec7981e162,A
2020-03-08 06:44:31,c0e4ddb3-63a7-4ceb-8716-6fec7981e162,S
2020-03-08 06:51:31,c0e4ddb3-63a7-4ceb-8716-6fec7981e162,A
2020-03-08 06:59:16,c0e4ddb3-63a7-4ceb-8716-6fec7981e162,S
2020-03-08 07:05:05,c0e4ddb3-63a7-4ceb-8716-6fec7981e162,A
2020-03-08 07:15:03,c0e4ddb3-63a7-4ceb-8716-6fec7981e162,S
2020-03-08 07:15:42,c0e4ddb3-63a7-4ceb-8716-6fec7981e162,A
2020-03-08 04:42:00,cbc1fbb7-819f-4825-881c-c478e7b02d87,A
2020-03-08 04:44:05,cbc1fbb7-819f-4825-881c-c478e7b02d87,S
2020-03-08 04:45:03,cbc1fbb7-819f-4825-881c-c478e7b02d87,A
2020-03-08 04:45:19,cbc1fbb7-819f-4825-881c-c478e7b02d87,S
2020-03-08 04:54:25,cbc1fbb7-819f-4825-881c-c478e7b02d87,A
2020-03-08 05:07:21,cbc1fbb7-819f-4825-881c-c478e7b02d87,S
2020-03-08 05:11:54,cbc1fbb7-819f-4825-881c-c478e7b02d87,A
2020-03-08 05:13:20,cbc1fbb7-819f-4825-881c-c478e7b02d87,S
2020-03-08 05:17:31,cbc1fbb7-819f-4825-881c-c478e7b02d87,A
2020-03-08 05:20:37,cbc1fbb7-819f-4825-881c-c478e7b02d87,S
2020-03-08 05:26:44,cbc1fbb7-819f-4825-881c-c478e7b02d87,A
2020-03-08 05:43:31,cbc1fbb7-819f-4825-881c-c478e7b02d87,S
2020-03-08 05:54:04,cbc1fbb7-819f-4825-881c-c478e7b02d87,A
2020-03-08 05:55:12,cbc1fbb7-819f-4825-881c-c478e7b02d87,S
2020-03-08 05:55:33,cbc1fbb7-819f-4825-881c-c478e7b02d87,A
2020-03-08 06:07:32,cbc1fbb7-819f-4825-881c-c478e7b02d87,S
2020-03-08 06:08:05,cbc1fbb7-819f-4825-881c-c478e7b02d87,A
2020-03-08 06:09:54,cbc1fbb7-819f-4825-881c-c478e7b02d87,S
2020-03-08 06:13:07,cbc1fbb7-819f-4825-881c-c478e7b02d87,A
2020-03-08 06:16:53,cbc1fbb7-819f-4825-881c-c478e7b02d87,S
2020-03-08 06:21:33,cbc1fbb7-819f-4825-881c-c478e7b02d87,A
2020-03-08 06:22:58,cbc1fbb7-819f-4825-881c-c478e7b02d87,S
2020-03-08 06:25:08,cbc1fbb7-819f-4825-881c-c478e7b02d87,A
2020-03-08 06:32:10,cbc1fbb7-819f-4825-881c-c478e7b02d87,S
2020-03-08 06:38:16,cbc1fbb7-819f-4825-881c-c478e7b02d87,A
2020-03-08 04:41:07,2cd7bc57-2eda-4272-80c1-4fb0564ec7fc,A
2020-03-08 04:43:17,2cd7bc57-2eda-4272-80c1-4fb0564ec7fc,S
2020-03-08 04:43:25,2cd7bc57-2eda-4272-80c1-4fb0564ec7fc,A
2020-03-08 04:44:51,2cd7bc57-2eda-4272-80c1-4fb0564ec7fc,S
2020-03-08 04:51:37,2cd7bc57-2eda-4272-80c1-4fb0564ec7fc,A
2020-03-08 04:53:03,2cd7bc57-2eda-4272-80c1-4fb0564ec7fc,S
2020-03-08 04:56:21,2cd7bc57-2eda-4272-80c1-4fb0564ec7fc,A
2020-03-08 04:58:02,2cd7bc57-2eda-4272-80c1-4fb0564ec7fc,S
2020-03-08 05:01:16,2cd7bc57-2eda-4272-80c1-4fb0564ec7fc,A
2020-03-08 05:02:44,2cd7bc57-2eda-4272-80c1-4fb0564ec7fc,S
2020-03-08 05:02:47,2cd7bc57-2eda-4272-80c1-4fb0564ec7fc,A
2020-03-08 05:03:12,2cd7bc57-2eda-4272-80c1-4fb0564ec7fc,S
2020-03-08 05:06:22,2cd7bc57-2eda-4272-80c1-4fb0564ec7fc,A
2020-03-08 05:09:01,2cd7bc57-2eda-4272-80c1-4fb0564ec7fc,S
2020-03-08 05:09:14,2cd7bc57-2eda-4272-80c1-4fb0564ec7fc,A
2020-03-08 05:16:18,2cd7bc57-2eda-4272-80c1-4fb0564ec7fc,S
2020-03-08 05:17:58,2cd7bc57-2eda-4272-80c1-4fb0564ec7fc,A
2020-03-08 05:18:09,2cd7bc57-2eda-4272-80c1-4fb0564ec7fc,S
2020-03-08 05:22:31,2cd7bc57-2eda-4272-80c1-4fb0564ec7fc,A
2020-03-08 05:24:23,2cd7bc57-2eda-4272-80c1-4fb0564ec7fc,S
2020-03-08 05:33:25,2cd7bc57-2eda-4272-80c1-4fb0564ec7fc,A
2020-03-08 05:34:59,2cd7bc57-2eda-4272-80c1-4fb0564ec7fc,S
2020-03-08 05:42:54,2cd7bc57-2eda-4272-80c1-4fb0564ec7fc,A
2020-03-08 05:45:54,2cd7bc57-2eda-4272-80c1-4fb0564ec7fc,S
2020-03-08 05:48:43,2cd7bc57-2eda-4272-80c1-4fb0564ec7fc,A
2020-03-08 05:49:09,2cd7bc57-2eda-4272-80c1-4fb0564ec7fc,S
2020-03-08 05:52:38,2cd7bc57-2eda-4272-80c1-4fb0564ec7fc,A
2020-03-08 05:56:19,2cd7bc57-2eda-4272-80c1-4fb0564ec7fc,S
2020-03-08 05:56:22,2cd7bc57-2eda-4272-80c1-4fb0564ec7fc,A
2020-03-08 06:05:41,2cd7bc57-2eda-4272-80c1-4fb0564ec7fc,S
2020-03-08 06:06:13,2cd7bc57-2eda-4272-80c1-4fb0564ec7fc,A
2020-03-08 06:10:47,2cd7bc57-2eda-4272-80c1-4fb0564ec7fc,S
2020-03-08 06:16:31,2cd7bc57-2eda-4272-80c1-4fb0564ec7fc,A
2020-03-08 06:21:38,2cd7bc57-2eda-4272-80c1-4fb0564ec7fc,S
2020-03-08 06:26:02,2cd7bc57-2eda-4272-80c1-4fb0564ec7fc,A
2020-03-08 06:34:29,2cd7bc57-2eda-4272-80c1-4fb0564ec7fc,S
2020-03-08 06:37:12,2cd7bc57-2eda-4272-80c1-4fb0564ec7fc,A
2020-03-08 06:38:30,2cd7bc57-2eda-4272-80c1-4fb0564ec7fc,S
2020-03-08 06:40:01,2cd7bc57-2eda-4272-80c1-4fb0564ec7fc,A
2020-03-08 06:53:35,2cd7bc57-2eda-4272-80c1-4fb0564ec7fc,S
2020-03-08 06:55:11,2cd7bc57-2eda-4272-80c1-4fb0564ec7fc,A
2020-03-08 06:56:36,2cd7bc57-2eda-4272-80c1-4fb0564ec7fc,S
2020-03-08 07:02:36,2cd7bc57-2eda-4272-80c1-4fb0564ec7fc,A
2020-03-08 07:03:07,2cd7bc57-2eda-4272-80c1-4fb0564ec7fc,S
2020-03-08 07:06:08,2cd7bc57-2eda-4272-80c1-4fb0564ec7fc,A
2020-03-08 07:07:53,2cd7bc57-2eda-4272-80c1-4fb0564ec7fc,S
2020-03-08 07:09:13,2cd7bc57-2eda-4272-80c1-4fb0564ec7fc,A
2020-03-08 07:11:50,2cd7bc57-2eda-4272-80c1-4fb0564ec7fc,S
2020-03-08 07:14:55,2cd7bc57-2eda-4272-80c1-4fb0564ec7fc,A
2020-03-08 04:36:17,6cfdc6fb-d16b-4fe8-95c5-c412b1cb6b4b,S
2020-03-08 04:46:24,6cfdc6fb-d16b-4fe8-95c5-c412b1cb6b4b,A
2020-03-08 04:53:11,6cfdc6fb-d16b-4fe8-95c5-c412b1cb6b4b,S
2020-03-08 04:54:25,6cfdc6fb-d16b-4fe8-95c5-c412b1cb6b4b,A
2020-03-08 04:55:20,6cfdc6fb-d16b-4fe8-95c5-c412b1cb6b4b,S
2020-03-08 05:01:11,6cfdc6fb-d16b-4fe8-95c5-c412b1cb6b4b,A
2020-03-08 05:10:34,6cfdc6fb-d16b-4fe8-95c5-c412b1cb6b4b,S
2020-03-08 05:19:36,6cfdc6fb-d16b-4fe8-95c5-c412b1cb6b4b,A
2020-03-08 05:22:06,6cfdc6fb-d16b-4fe8-95c5-c412b1cb6b4b,S
2020-03-08 05:22:13,6cfdc6fb-d16b-4fe8-95c5-c412b1cb6b4b,A
2020-03-08 05:24:56,6cfdc6fb-d16b-4fe8-95c5-c412b1cb6b4b,S
2020-03-08 05:34:28,6cfdc6fb-d16b-4fe8-95c5-c412b1cb6b4b,A
2020-03-08 05:35:08,6cfdc6fb-d16b-4fe8-95c5-c412b1cb6b4b,S
2020-03-08 05:39:34,6cfdc6fb-d16b-4fe8-95c5-c412b1cb6b4b,A
2020-03-08 05:47:35,6cfdc6fb-d16b-4fe8-95c5-c412b1cb6b4b,S
2020-03-08 05:53:13,6cfdc6fb-d16b-4fe8-95c5-c412b1cb6b4b,A
2020-03-08 05:53:56,6cfdc6fb-d16b-4fe8-95c5-c412b1cb6b4b,S
2020-03-08 06:02:46,6cfdc6fb-d16b-4fe8-95c5-c412b1cb6b4b,A
2020-03-08 06:08:01,6cfdc6fb-d16b-4fe8-95c5-c412b1cb6b4b,S
2020-03-08 06:10:53,6cfdc6fb-d16b-4fe8-95c5-c412b1cb6b4b,A
2020-03-08 06:11:20,6cfdc6fb-d16b-4fe8-95c5-c412b1cb6b4b,S
2020-03-08 06:16:26,6cfdc6fb-d16b-4fe8-95c5-c412b1cb6b4b,A
2020-03-08 06:17:29,6cfdc6fb-d16b-4fe8-95c5-c412b1cb6b4b,S
2020-03-08 06:19:25,6cfdc6fb-d16b-4fe8-95c5-c412b1cb6b4b,A
2020-03-08 06:27:00,6cfdc6fb-d16b-4fe8-95c5-c412b1cb6b4b,S
2020-03-08 06:28:24,6cfdc6fb-d16b-4fe8-95c5-c412b1cb6b4b,A
2020-03-08 06:38:18,6cfdc6fb-d16b-4fe8-95c5-c412b1cb6b4b,S
2020-03-08 06:40:06,6cfdc6fb-d16b-4fe8-95c5-c412b1cb6b4b,A
2020-03-08 06:45:00,6cfdc6fb-d16b-4fe8-95c5-c412b1cb6b4b,S
2020-03-08 06:49:24,6cfdc6fb-d16b-4fe8-95c5-c412b1cb6b4b,A
2020-03-08 06:58:08,6cfdc6fb-d16b-4fe8-95c5-c412b1cb6b4b,S
2020-03-08 06:59:39,6cfdc6fb-d16b-4fe8-95c5-c412b1cb6b4b,A
2020-03-08 07:01:33,6cfdc6fb-d16b-4fe8-95c5-c412b1cb6b4b,S
2020-03-08 07:04:00,6cfdc6fb-d16b-4fe8-95c5-c412b1cb6b4b,A
2020-03-08 07:08:14,6cfdc6fb-d16b-4fe8-95c5-c412b1cb6b4b,S
2020-03-08 07:14:03,6cfdc6fb-d16b-4fe8-95c5-c412b1cb6b4b,A
2020-03-08 04:24:55,bbebd5ef-8ee4-4bdd-848b-f4823845d1a4,A
2020-03-08 04:29:46,bbebd5ef-8ee4-4bdd-848b-f4823845d1a4,S
2020-03-08 04:35:33,bbebd5ef-8ee4-4bdd-848b-f4823845d1a4,A
2020-03-08 04:36:09,bbebd5ef-8ee4-4bdd-848b-f4823845d1a4,S
2020-03-08 04:55:22,bbebd5ef-8ee4-4bdd-848b-f4823845d1a4,A
2020-03-08 04:55:35,bbebd5ef-8ee4-4bdd-848b-f4823845d1a4,S
2020-03-08 05:13:11,bbebd5ef-8ee4-4bdd-848b-f4823845d1a4,A
2020-03-08 05:13:18,bbebd5ef-8ee4-4bdd-848b-f4823845d1a4,S
2020-03-08 05:21:02,bbebd5ef-8ee4-4bdd-848b-f4823845d1a4,A
2020-03-08 05:23:44,bbebd5ef-8ee4-4bdd-848b-f4823845d1a4,S
2020-03-08 05:28:57,bbebd5ef-8ee4-4bdd-848b-f4823845d1a4,A
2020-03-08 05:31:26,bbebd5ef-8ee4-4bdd-848b-f4823845d1a4,S
2020-03-08 05:32:03,bbebd5ef-8ee4-4bdd-848b-f4823845d1a4,A
2020-03-08 05:32:18,bbebd5ef-8ee4-4bdd-848b-f4823845d1a4,S
2020-03-08 05:34:53,bbebd5ef-8ee4-4bdd-848b-f4823845d1a4,A
2020-03-08 05:38:24,bbebd5ef-8ee4-4bdd-848b-f4823845d1a4,S
2020-03-08 05:49:55,bbebd5ef-8ee4-4bdd-848b-f4823845d1a4,A
2020-03-08 05:59:51,bbebd5ef-8ee4-4bdd-848b-f4823845d1a4,S
2020-03-08 06:05:19,bbebd5ef-8ee4-4bdd-848b-f4823845d1a4,A
2020-03-08 06:06:01,bbebd5ef-8ee4-4bdd-848b-f4823845d1a4,S
2020-03-08 06:06:58,bbebd5ef-8ee4-4bdd-848b-f4823845d1a4,A
2020-03-08 06:08:56,bbebd5ef-8ee4-4bdd-848b-f4823845d1a4,S
2020-03-08 06:10:16,bbebd5ef-8ee4-4bdd-848b-f4823845d1a4,A
2020-03-08 06:17:36,bbebd5ef-8ee4-4bdd-848b-f4823845d1a4,S
2020-03-08 06:19:29,bbebd5ef-8ee4-4bdd-848b-f4823845d1a4,A
2020-03-08 06:21:12,bbebd5ef-8ee4-4bdd-848b-f4823845d1a4,S
2020-03-08 06:36:36,bbebd5ef-8ee4-4bdd-848b-f4823845d1a4,A
2020-03-08 06:42:30,bbebd5ef-8ee4-4bdd-848b-f4823845d1a4,S
2020-03-08 06:47:03,bbebd5ef-8ee4-4bdd-848b-f4823845d1a4,A
2020-03-08 06:48:07,bbebd5ef-8ee4-4bdd-848b-f4823845d1a4,S
2020-03-08 06:50:27,bbebd5ef-8ee4-4bdd-848b-f4823845d1a4,A
2020-03-08 06:54:06,bbebd5ef-8ee4-4bdd-848b-f4823845d1a4,S
2020-03-08 06:56:07,bbebd5ef-8ee4-4bdd-848b-f4823845d1a4,A
2020-03-08 06:56:15,bbebd5ef-8ee4-4bdd-848b-f4823845d1a4,S
2020-03-08 07:05:21,bbebd5ef-8ee4-4bdd-848b-f4823845d1a4,A
2020-03-08 07:11:40,bbebd5ef-8ee4-4bdd-848b-f4823845d1a4,S
2020-03-08 07:12:46,bbebd5ef-8ee4-4bdd-848b-f4823845d1a4,A
2020-03-08 07:13:39,bbebd5ef-8ee4-4bdd-848b-f4823845d1a4,S
2020-03-08 04:27:53,2b2663c9-dc54-42e4-96b1-60ad398fa0f7,A
2020-03-08 04:27:56,2b2663c9-dc54-42e4-96b1-60ad398fa0f7,S
2020-03-08 04:30:14,2b2663c9-dc54-42e4-96b1-60ad398fa0f7,A
2020-03-08 04:32:41,2b2663c9-dc54-42e4-96b1-60ad398fa0f7,S
2020-03-08 04:33:01,2b2663c9-dc54-42e4-96b1-60ad398fa0f7,A
2020-03-08 04:38:38,2b2663c9-dc54-42e4-96b1-60ad398fa0f7,S
2020-03-08 04:42:25,2b2663c9-dc54-42e4-96b1-60ad398fa0f7,A
2020-03-08 04:46:20,2b2663c9-dc54-42e4-96b1-60ad398fa0f7,S
2020-03-08 04:59:30,2b2663c9-dc54-42e4-96b1-60ad398fa0f7,A
2020-03-08 04:59:52,2b2663c9-dc54-42e4-96b1-60ad398fa0f7,S
2020-03-08 05:03:16,2b2663c9-dc54-42e4-96b1-60ad398fa0f7,A
2020-03-08 05:03:29,2b2663c9-dc54-42e4-96b1-60ad398fa0f7,S
2020-03-08 05:08:44,2b2663c9-dc54-42e4-96b1-60ad398fa0f7,A
2020-03-08 05:19:52,2b2663c9-dc54-42e4-96b1-60ad398fa0f7,S
2020-03-08 05:20:16,2b2663c9-dc54-42e4-96b1-60ad398fa0f7,A
2020-03-08 05:23:38,2b2663c9-dc54-42e4-96b1-60ad398fa0f7,S
2020-03-08 05:25:29,2b2663c9-dc54-42e4-96b1-60ad398fa0f7,A
2020-03-08 05:34:57,2b2663c9-dc54-42e4-96b1-60ad398fa0f7,S
2020-03-08 05:49:05,2b2663c9-dc54-42e4-96b1-60ad398fa0f7,A
2020-03-08 05:50:40,2b2663c9-dc54-42e4-96b1-60ad398fa0f7,S
2020-03-08 05:52:15,2b2663c9-dc54-42e4-96b1-60ad398fa0f7,A
2020-03-08 05:54:08,2b2663c9-dc54-42e4-96b1-60ad398fa0f7,S
2020-03-08 06:00:36,2b2663c9-dc54-42e4-96b1-60ad398fa0f7,A
2020-03-08 06:05:29,2b2663c9-dc54-42e4-96b1-60ad398fa0f7,S
2020-03-08 06:13:00,2b2663c9-dc54-42e4-96b1-60ad398fa0f7,A
2020-03-08 06:13:03,2b2663c9-dc54-42e4-96b1-60ad398fa0f7,S
2020-03-08 06:13:22,2b2663c9-dc54-42e4-96b1-60ad398fa0f7,A
2020-03-08 06:15:43,2b2663c9-dc54-42e4-96b1-60ad398fa0f7,S
2020-03-08 06:18:54,2b2663c9-dc54-42e4-96b1-60ad398fa0f7,A
2020-03-08 06:19:40,2b2663c9-dc54-42e4-96b1-60ad398fa0f7,S
2020-03-08 06:30:41,2b2663c9-dc54-42e4-96b1-60ad398fa0f7,A
2020-03-08 06:31:29,2b2663c9-dc54-42e4-96b1-60ad398fa0f7,S
2020-03-08 06:31:55,2b2663c9-dc54-42e4-96b1-60ad398fa0f7,A
2020-03-08 06:34:08,2b2663c9-dc54-42e4-96b1-60ad398fa0f7,S
2020-03-08 06:36:22,2b2663c9-dc54-42e4-96b1-60ad398fa0f7,A
2020-03-08 06:36:40,2b2663c9-dc54-42e4-96b1-60ad398fa0f7,S
2020-03-08 06:46:06,2b2663c9-dc54-42e4-96b1-60ad398fa0f7,A
2020-03-08 06:50:49,2b2663c9-dc54-42e4-96b1-60ad398fa0f7,S
2020-03-08 06:52:33,2b2663c9-dc54-42e4-96b1-60ad398fa0f7,A
2020-03-08 06:53:43,2b2663c9-dc54-42e4-96b1-60ad398fa0f7,S
2020-03-08 06:54:59,2b2663c9-dc54-42e4-96b1-60ad398fa0f7,A
2020-03-08 06:57:18,2b2663c9-dc54-42e4-96b1-60ad398fa0f7,S
2020-03-08 06:57:22,2b2663c9-dc54-42e4-96b1-60ad398fa0f7,A
2020-03-08 07:07:40,2b2663c9-dc54-42e4-96b1-60ad398fa0f7,S
2020-03-08 07:11:05,2b2663c9-dc54-42e4-96b1-60ad398fa0f7,A
2020-03-08 07:14:17,2b2663c9-dc54-42e4-96b1-60ad398fa0f7,S
2020-03-08 07:16:13,2b2663c9-dc54-42e4-96b1-60ad398fa0f7,A
