app_number,app_id,trigger,burn,sink,deploy_date,token_interval
1,aadf6f26-fa7f-4af2-a06c-6b1a763c3ec4,1b52b8d9-89e6-4220-af42-73c0e5bf0b61,d8db69b3-19d9-4299-8734-1ff84d8e67d8,58d357db-e293-4764-986d-f3cb25159e47,2019-10-12 15:15:38,1.000000
2,0ab8f015-5315-4cf8-af95-494bc6a9b1ed,bb6a5b5f-e068-4aa2-aab3-817e70bfecb4,2a497522-6cbd-4aee-9039-e1cb575ca1ca,5a3e11c8-ff7c-42c1-9ea3-5fd15d2f0d1b,2019-10-12 15:16:42,1.000000
3,6f3e24a3-78d1-43ba-bb18-97fad4b7fe53,5fdca8ed-6b7b-428b-9c25-e4b463d0b859,2941bbb8-fee4-40d5-b551-6a0880e28979,059d9a1f-ae56-413d-aeee-e3350202d36f,2019-10-12 15:17:45,1.000000
4,6229689b-9c7d-4661-9784-24879956db15,77eb3595-a1e9-4e0f-958b-f509f387b550,4b861acd-1adf-4fa4-b5ad-2ef80dac0c42,3083462d-c663-4502-97ed-c68fce1c8a88,2019-10-12 15:18:49,0.200000
5,d91eaee1-60f6-4098-acef-75e661959637,63db2c95-b84a-4a34-8429-4a2728ffb3b3,1e7c270c-26de-4ea2-976a-8b4ef2516682,627fa4c3-b85d-4470-abad-7159cd0930e6,2019-10-12 15:19:53,0.200000
6,b192411c-d036-4952-9463-25958cf95482,12e00821-1eaf-4987-99d4-8e1ef9232ce9,5bdba91f-b721-4def-a7a6-9c86f09918ef,6c0dc0fb-fc70-4c89-a290-527a7479b5dd,2019-10-12 15:20:57,0.200000
7,3eddd59e-e20b-462c-8422-c02bdf0f48be,a1295ab6-7a0c-46f5-9fdb-08f5684a927a,dab1a55c-8df0-4c57-a567-60cb4bd898bc,ac2be551-5276-4d3e-9f67-5fc08baf81fb,2019-10-12 15:22:01,0.200000
8,daeeb36c-ae07-4b49-a840-143764f8f34b,db1b013c-93a6-4856-8ded-d88444b7a234,b5284600-28d6-4221-b7a8-ab6a367ed383,ef73f37e-4369-411e-a102-4765a7b34d5b,2019-10-12 15:23:05,1.000000
9,67e9fa65-ad47-4795-ac6a-052b6c4db7be,1356fabe-3071-4432-95eb-97e76385719a,99930ab2-c8ab-4fd2-b73a-4a5bea35fc2a,4ef14e77-f30c-44e6-b6a9-b8e6f333bea6,2019-10-12 15:24:09,0.200000
10,0289056a-1ab3-41aa-a0b8-2ec9837ddb7d,50494a5e-c84f-4bad-9cbd-87b2c1a6379a,c0fcc433-8597-48e5-8f4c-4bb9a90a4e1d,abf420bd-6021-4b76-8c92-27396c53b5ef,2019-10-12 15:25:13,0.200000
11,22668dda-3b55-41a0-87e1-7537857b9712,02769a88-2746-4b27-9e05-d3249e47d70f,15680b31-333a-426e-b415-d701d1261b3d,c05f2157-e091-4f6f-8716-242d09068506,2019-10-12 15:26:16,0.200000
12,cb353504-059a-43db-b383-77be3a3db9ae,a377f05b-6c25-46d6-af32-6dd0e87631c8,0a67f137-f3ac-444f-8e95-eb67bb5668ce,315267af-5f89-4596-91d9-3dee40622049,2019-10-12 15:27:20,1.000000
13,f7d6def4-252a-47ab-8f09-c494ec4558ce,deebd486-14b5-4d18-a605-956c70e90d75,e19bca72-d00c-4017-9dcf-13b3ca328ebc,1b8d3122-7a80-4c1c-9f51-e44fe79137e5,2019-10-12 15:28:24,0.200000
14,b139847f-4420-4da4-9c9f-3bf988c80e3c,694a42a0-19c3-47a4-8ec9-2cf0b9adba68,10c3a673-d7ed-45bc-a0b2-4ff2aa1fbb65,04b7b5a1-4963-429a-849b-b6fd3bcaa028,2019-10-12 15:29:27,0.200000
15,b1affd96-7b67-4498-a5b6-a0013fbcd675,1c94c355-a9d9-4356-909c-8799cafc87ee,9bda4588-6b4e-4944-9d30-e88448004367,a377e227-43df-4c47-bb0b-b8a1f27945fc,2019-10-12 15:30:31,1.000000
16,4680c291-280e-48aa-8283-637d0bf3e4b8,24424875-9fd7-49c3-ace0-afb13c389a9c,f4e398d8-6ab0-4aef-b957-7708086e0841,d38370f8-b5a0-454f-af09-be8dfc4493af,2019-10-12 15:31:35,1.000000
17,eabb4bf6-ea66-4f38-b355-98d2f0103e59,2f39cdfc-ee6f-4a06-9662-2a19e7baa434,8dce83f0-a91a-4dc6-9920-d9c2f4537cf5,c30bc913-a041-49ed-b512-eb6be642c524,2019-10-12 15:32:38,0.200000
18,847f6dd3-7cdb-4575-b625-a68b79ce493e,6d525d9b-34ec-486f-8ce2-d62847faaf00,ef959f75-8c5d-45cd-958c-0b0f3396899b,d7992374-51cd-40be-b4d2-8924ac828ef3,2019-10-12 15:33:42,1.000000
19,eb0adda2-2baf-4fb8-807c-f6f6664c1941,5f0fce53-1c58-4b1f-9369-d4a4e7342bff,e1e8d256-621f-4d1e-83e1-f96b20a94a40,25f4186f-fe54-4e17-90c7-cb5231878431,2019-10-12 15:34:46,0.200000
20,c99e5186-d6d7-4e77-bf73-02600b9f16fd,db3b0394-0fa6-48a0-a0fe-732527f14faf,5ac0d538-714a-4bb8-9eb1-ae43a54723b6,5f5a3970-5575-4417-b677-3881ea848844,2019-10-12 15:35:50,1.000000
21,4f25a350-e29f-4a46-8ce1-52d58db7f139,4bb2b921-9d6e-45e1-9df5-4324b3bf7e5d,2f438b0d-aded-4798-9945-a112be705cf6,5743396f-f1e0-4907-88d3-31d7ccea4ae7,2019-10-12 15:36:54,0.200000
22,ee169b17-0ae1-4f1d-a5f0-aae05e87b53a,579b1a96-ea3a-493f-8552-fef3c47c4e59,1571c493-33cc-43fe-b968-452a38775b69,a8db78d1-34c0-4c5a-8070-c1ca03fdf9c0,2019-10-12 15:37:57,0.200000
23,92e3e44e-d9d4-47fa-83e2-a2e5713b5264,dcebee45-2fdc-4cfd-b06e-ee2157a61a4f,0bb36564-b2d1-44c6-99c9-8f8e29342ea4,29212996-4463-425e-af2d-0a88b5f0b633,2019-10-12 15:39:01,0.200000
24,188c586f-0bfd-4810-ae59-8b69f98ab91b,fce772d3-b646-45af-ac66-50a436d775cb,49e55373-157c-434f-9d54-db92265ae946,62468f20-6722-41b1-9823-7591464a3c9c,2019-10-12 15:40:04,1.000000
25,03f0806b-c952-4eca-94a3-d1986b946369,baaa6aba-b681-4a69-9381-dd03a9a65cfe,15bcb97b-45ab-4717-99fe-2307ae25f29e,e34ade2c-3148-415d-9591-f7984e491e4e,2019-10-12 15:41:08,1.000000
26,4651b399-c46a-4603-8281-464e5770349f,d8819b50-e5aa-44d7-b473-4c7fb821237e,9f7781cd-99f7-415a-a5c5-3c3f7431b945,4644db93-e6c2-4999-bb6f-32d319c74b7f,2019-10-12 15:42:11,1.000000
27,be464632-f5af-4582-9e10-6ad713296cf6,13cde3b8-2be5-4ef4-8d82-16b18defa15a,f29fad85-4428-42a5-90b5-70cf957cfb36,f9da46a7-51a3-443b-b045-07730145096f,2019-10-12 15:43:15,0.200000
28,2d8e46b4-fd1b-4ac2-858a-fe4320a99f94,e9665184-94d1-4f2e-9423-dc51176d92f8,92772eed-fd23-47a4-b8c7-54037ea0a2a4,5d07a36e-4add-4cf9-bc84-cfd04e652cb9,2019-10-12 15:44:19,1.000000
29,d19e2c3f-80ca-45a1-a75a-a0978dff398f,ad25fe83-f9fa-4360-8c91-5daa98a40fad,6806c882-54b2-40fc-8a9a-3a3f8ff74320,10f15b40-e80a-40ca-b7fb-0dbb09239fbc,2019-10-12 15:45:23,1.000000
30,dfcd8c6d-776a-4225-abbd-1efd48091024,b6458511-6791-4189-8cad-90a8a8fc60bf,85d1de47-4096-494c-be2d-adc28d2e44b3,604a33f6-adcd-43e4-9f68-5acc053530a6,2019-10-12 15:46:26,1.000000
31,48ab9f97-4378-4d2a-b0b2-2c7ae142fe27,67d7e88f-9ca0-45c7-b062-b7ddbb332dcd,d878f7ca-2192-4026-b446-6d6a3a4ba3df,ab664185-db6c-4343-8cff-e43fc32111fd,2019-10-12 15:47:30,1.000000
32,fc8add2c-6f8d-40ea-9433-a41fc86a707a,6dcd4f12-2d1f-4af8-904a-53aa52540134,61601d80-3393-4c24-a036-c5e1da8a96df,dc159f80-83f7-4f50-9bc7-cdfffd84b592,2019-10-12 15:48:34,0.200000
33,babf308c-80f7-4400-bea2-c9a783976241,0d8ebacc-715f-4912-bfd0-dce3781bebbf,5f959fa0-b725-4224-ae87-5b756e113d0c,c5eb3497-2830-45f7-951b-7f3d2dee819f,2019-10-12 15:49:38,1.000000
34,8d4faecd-6dd3-4053-b7a5-8f36fa2e9571,0af8dbe7-adf2-430b-81ab-c992b3cf1a87,1fcf131b-85de-4fbe-ad78-eaacfac197da,970c85da-462f-4dee-99f4-f6bfc56c1d65,2019-10-12 15:50:42,0.200000
35,3c7258c6-6603-404c-9ed8-881b0c71708d,c82dee6d-2956-4469-8438-33e711cab693,9f79842f-40a1-4456-9f36-352e0d0350b5,9e4e45fb-7907-4274-8612-3bd9f4f63864,2019-10-12 15:51:46,1.000000
36,596e3857-b56d-44b8-a099-3fb46ce82467,b603dad7-65c8-41bb-859c-e63a8303f522,84b400d4-55d3-4c4c-9163-bbd013d30602,b0430a35-8171-4560-85fd-dcd94dc9533c,2019-10-12 15:52:49,0.200000
37,a5964f7c-c846-4207-96c2-07da7ce7543e,f62d129c-9521-4e0f-9ab2-2e63a166d301,6a8a8d15-b64a-4cb6-bb53-58651c3b1fb4,cfa43f1c-733b-44e0-81db-31a6ea0adedc,2019-10-12 15:53:53,1.000000
38,5e0ff14c-73fe-4afd-934b-3e97a4976994,a3f47ac3-c042-4be0-9694-d81733d72913,d280f46c-ad1f-4402-862c-0e5c1991f212,9caa7983-5c92-4aaa-b075-8b5ffd07dc2f,2019-10-12 15:54:57,1.000000
39,0258db5a-ab3e-4eb1-a94d-c9c09046f2ab,f9408287-d1a2-460c-99ab-2785f249398f,6ec43b48-c022-4b17-b570-b1448ee93468,7bf1c43b-ad7e-413f-a31a-f1025e27d580,2019-10-12 15:56:00,0.200000
40,bdf6720f-2352-45f3-917f-37c5d5b3a134,3f570c1a-805c-4246-835e-228fa9bed20c,fd862422-a4ef-4bcf-9202-e8e8feb03121,d25fd5f7-e34b-47c6-9a04-15a73311f084,2019-10-12 15:57:04,0.200000
41,aa62301c-43b5-438c-88e3-17348a1a6acc,f2db010c-547c-49ce-b6d4-d02f22798631,026f70f3-b984-41c4-9857-0c33b37bd866,315b09e0-cc52-4229-b199-27f743b4f99b,2019-10-12 15:58:08,1.000000
42,6c83a33b-baa2-4792-8046-a245da952733,37310ea5-e9ca-4648-92e1-0ef65d30ddb4,1225c0a4-ba6e-411e-bc18-d2390494f6ba,b64b6f5c-13a3-4042-abd9-4981ffbfdf49,2019-10-12 15:59:12,0.200000
43,a1214de4-288f-4b99-bbfa-51c9615b14f6,00ca07b4-5b39-4fae-a496-abdcdb6439ec,c2e990f4-d69a-427e-a34d-5ec1fd254c70,5b0f8c23-bb1a-4897-9ec4-0258a0d2e5c7,2019-10-12 16:00:15,0.200000
44,b065e68d-bd84-4a06-b3d4-301a725cf7fe,f0dcf418-4df2-467d-97d8-0b89b7bc941f,ef6bf172-619b-4faa-97ea-6da86afd7544,766679ae-68bb-46ce-bc66-b2a5b6fa8a32,2019-10-12 16:01:19,0.200000
45,a0339fa6-0c08-4c81-9736-893e7acfbaaa,7f1533f7-239d-400d-95f1-cff2989c452f,40984ea7-8710-453e-bb62-7362c71d49ea,92bd41d2-0a78-45ac-a83e-c5aadb004d28,2019-10-12 16:02:23,1.000000
46,bd1febd8-cffa-4dfd-9270-3cbdefcf927c,4c942bd4-80e5-43c1-9f05-e462f086a4e6,f030c0b0-79ca-494c-abef-8a4b1be72766,37a6b014-6300-4715-8843-0d545d7cb6e2,2019-10-12 16:03:27,0.200000
47,c2e7e49f-6e78-459d-b606-36c6c6b635df,79f25be6-8a8e-458f-ab09-cc976801c019,282c05d2-8ac9-483c-a94e-f27ed5a733cd,fcb64832-d809-492b-a86e-cf5a09afffd2,2019-10-12 16:04:30,0.200000
48,a809e941-546f-4b43-8642-11b3706ae68c,48033650-12c2-40ec-b800-9f31e31e31e3,d9e8d4f1-06a2-40e6-8a07-15a468bbdb42,ffb3566e-b990-42bf-9da8-b52e308b01ae,2019-10-12 16:05:34,1.000000
49,76da6f00-d6c7-4185-882e-776ed810bb97,360a1202-e49a-4f89-8026-f1994f9cde37,7338f63a-e7d1-4744-b6c0-30dbf4553c7c,f9ac76f6-7a63-4ca3-b246-6579a65a08f7,2019-10-12 16:06:38,0.200000
50,19839549-0ffe-4467-aa60-7c31264dab68,1aaa8acc-79d7-4934-af4e-0716b3074200,991c6814-5803-4b46-8add-9baccf24e599,5f6501a8-d4b7-4342-b792-f513d27f3252,2019-10-12 16:07:41,1.000000
