node,ip,uuid
node-a8-199.grenoble.iot-lab.info,172.20.64.1,99c76ca5-e819-46f8-a3d7-d5372762e38b
node-a8-200.grenoble.iot-lab.info,172.20.64.3,e20646ff-5a1a-4af7-93a3-13fa30181454
node-a8-201.grenoble.iot-lab.info,172.20.64.4,f3c50b5b-5900-493d-ab71-fbf57b0996d4
node-a8-202.grenoble.iot-lab.info,172.20.64.5,61d44aa3-89a6-45f1-8a56-1b2b60114a6f
node-a8-203.grenoble.iot-lab.info,172.20.64.6,54ce6cbc-b927-47d3-83b3-38fa9f1d1927
node-a8-208.grenoble.iot-lab.info,172.20.64.7,3bf82728-aff3-4c47-a845-bbc034110070
node-a8-209.grenoble.iot-lab.info,172.20.64.8,d87cec08-ca10-4024-8e1b-bd615920f637
node-a8-210.grenoble.iot-lab.info,172.20.64.9,1bcf7654-4c2e-4652-bb90-bb81643f2d8d
node-a8-211.grenoble.iot-lab.info,172.20.64.10,01b2ad76-86e8-4c11-b43b-ef6442d84f89
node-a8-212.grenoble.iot-lab.info,172.20.64.11,e3f713e6-da17-4bc9-8cff-c2409584cde8
node-a8-213.grenoble.iot-lab.info,172.20.64.12,bec1e5aa-deb4-42d3-b547-f15ff50ecccd
node-a8-216.grenoble.iot-lab.info,172.20.64.13,b9135d00-cc75-4be1-bda9-6c6eefa624cd
node-a8-217.grenoble.iot-lab.info,172.20.64.14,3bcb4938-10e6-4d1a-9335-439ca7e349f8
node-a8-218.grenoble.iot-lab.info,172.20.64.15,890e29d8-a51d-4972-8fb0-0041d1060d8e
node-a8-222.grenoble.iot-lab.info,172.20.64.16,66286135-bdae-4bad-b560-cf29d5197a18
node-a8-224.grenoble.iot-lab.info,172.20.64.17,5e009de1-60fe-4172-a0cf-0125c47ccfdc
node-a8-225.grenoble.iot-lab.info,172.20.64.18,b376a75d-ab86-413a-94b4-8493c2cd5fcf
node-a8-226.grenoble.iot-lab.info,172.20.64.19,33ddce64-f43a-4cbf-a260-83206a8f2f07
node-a8-145.grenoble.iot-lab.info,172.20.64.20,e7ae99b6-8c96-448b-ace5-d7284d0caf9f
node-a8-146.grenoble.iot-lab.info,172.20.64.21,4ecab3d9-406f-4423-8db4-b41993a78115
node-a8-147.grenoble.iot-lab.info,172.20.64.22,2bce8bdc-3c09-41eb-9c51-7b540f3702eb
node-a8-151.grenoble.iot-lab.info,172.20.64.23,39cdd3da-3cb1-43a3-b7bd-3f31ada97d41
node-a8-152.grenoble.iot-lab.info,172.20.64.24,6a435fe8-49ce-49ce-9243-39cbabce5fb2
node-a8-153.grenoble.iot-lab.info,172.20.64.25,c35d6af4-7152-45f7-8e40-6bd87c3b541a
node-a8-154.grenoble.iot-lab.info,172.20.64.26,c3356db4-ad57-4395-b5e5-c624e5f24366
node-a8-155.grenoble.iot-lab.info,172.20.64.27,a8afc21e-0134-49a3-8609-703fd27180e9
node-a8-156.grenoble.iot-lab.info,172.20.64.28,2855e242-0b64-4ba7-ae5c-b73cf8254248
node-a8-157.grenoble.iot-lab.info,172.20.64.29,00138130-2a0f-44f8-9f2f-7c7905e334dd
node-a8-163.grenoble.iot-lab.info,172.20.64.30,25009c58-3f1c-4d5e-a9ee-b19802db52de
node-a8-165.grenoble.iot-lab.info,172.20.64.31,fb2fcc29-dd11-4bd8-983c-8f233e84ffd0
node-a8-166.grenoble.iot-lab.info,172.20.64.32,0cc95bac-b9e1-42d8-a240-028774b1ed64
node-a8-167.grenoble.iot-lab.info,172.20.64.33,a2a86c10-3808-4b02-8afb-e17de0ad1712
node-a8-170.grenoble.iot-lab.info,172.20.64.34,7dd4b642-5431-4d8b-bd02-4bd30506d879
node-a8-171.grenoble.iot-lab.info,172.20.64.35,eb84a9a6-9889-45ec-952c-e77a507a431a
node-a8-173.grenoble.iot-lab.info,172.20.64.36,c8d28766-9fe0-4cb9-8754-cab7e751d27b
node-a8-174.grenoble.iot-lab.info,172.20.64.37,41d57c7c-98ff-47d8-9d2e-fcf634537e70
node-a8-177.grenoble.iot-lab.info,172.20.64.38,8239fbe2-4bcd-43fa-abe7-008f5cc458c5
node-a8-178.grenoble.iot-lab.info,172.20.64.39,5262c85f-7693-4afd-bcd6-a02697d6c83f
node-a8-179.grenoble.iot-lab.info,172.20.64.40,f2a570c2-b90d-4ec3-84e5-9435019b5ba0
node-a8-180.grenoble.iot-lab.info,172.20.64.41,81aaae59-b64a-4a3c-ab01-6a6d321d2f1d
node-a8-181.grenoble.iot-lab.info,172.20.64.42,7c30fcd9-fd0b-4e89-a2e1-914a85f767c8
node-a8-182.grenoble.iot-lab.info,172.20.64.43,d46dd997-4ee3-4661-9638-b59201037179
node-a8-187.grenoble.iot-lab.info,172.20.64.44,cd9e1a30-c82c-4940-8371-711199498b6b
node-a8-188.grenoble.iot-lab.info,172.20.64.45,320a58a0-67c9-453e-ac2b-92ddc5b777e4
node-a8-189.grenoble.iot-lab.info,172.20.64.46,e4d2f575-aaca-4bad-9e00-3860234662b6
node-a8-190.grenoble.iot-lab.info,172.20.64.47,c96e14b4-837f-46d3-8f6f-e59747c13ba5
node-a8-191.grenoble.iot-lab.info,172.20.64.48,cf1d48d3-81e2-4e67-940d-a0418ee4989b
node-a8-192.grenoble.iot-lab.info,172.20.64.49,86aef5e5-f0bc-4d3c-b5db-a837c9df29c1
node-a8-193.grenoble.iot-lab.info,172.20.64.50,45f8c9c7-4ec8-4283-96df-e8e1a919ba07
node-a8-198.grenoble.iot-lab.info,172.20.64.51,ff9d92a8-a420-4a83-bc7a-abdad150964c
suno-11.sophia.grid5000.fr,172.16.130.11,26434b60-3d43-44a2-94e5-cd8a53b39d24
suno-14.sophia.grid5000.fr,172.16.130.14,9d583976-0b47-49b6-afbb-c4f3b58af476
suno-15.sophia.grid5000.fr,172.16.130.15,acce609d-5328-4520-89e7-1f3a95e53ec3
suno-2.sophia.grid5000.fr,172.16.130.2,09958e83-077b-443b-bdc6-7f10155ac574
suno-25.sophia.grid5000.fr,172.16.130.25,0d06ee61-5021-4511-97e8-eaa0ecc2f486
suno-27.sophia.grid5000.fr,172.16.130.27,dbf2dd71-b3cc-4850-a80b-8821b3cde7b1
suno-28.sophia.grid5000.fr,172.16.130.28,fc9b7643-ad9c-4c24-89aa-306d3e5e0e41
suno-30.sophia.grid5000.fr,172.16.130.30,d7acaba6-df2e-4f08-867a-4837dd51d176
suno-32.sophia.grid5000.fr,172.16.130.32,de8e9313-ba3e-47ff-ae37-77861faabba8
suno-33.sophia.grid5000.fr,172.16.130.33,cb087fab-1de8-4911-87b9-574028536797
suno-34.sophia.grid5000.fr,172.16.130.34,1f747a6e-be54-445a-9874-86e5cf3c8507
suno-36.sophia.grid5000.fr,172.16.130.36,647caf67-2180-4dfc-8b35-8bf39c9efb3a
suno-37.sophia.grid5000.fr,172.16.130.37,5542b47b-c703-41a8-931f-e6e2d98904a2
suno-43.sophia.grid5000.fr,172.16.130.43,0753380e-d4dd-4384-914e-088b7f51d9c3
suno-44.sophia.grid5000.fr,172.16.130.44,9593bd3d-bba3-4497-aef3-b20416169632
suno-8.sophia.grid5000.fr,172.16.130.8,f615ec08-13d5-420a-bc74-fbd128e6afaf
