node,ip,uuid
node-a8-199.grenoble.iot-lab.info,172.20.64.1,059ebe6a-2477-43f0-93a8-841db447fed9
node-a8-200.grenoble.iot-lab.info,172.20.64.2,e599c1ef-4330-4343-a102-fd5083de0b61
node-a8-201.grenoble.iot-lab.info,172.20.64.50,ea6df969-9577-4b4e-a67c-c9ca12642cc1
node-a8-202.grenoble.iot-lab.info,172.20.64.3,cd76f063-d9e4-46bd-a948-605df3450e98
node-a8-204.grenoble.iot-lab.info,172.20.64.4,0f0fb276-778b-42c4-830b-cd47514e0c00
node-a8-205.grenoble.iot-lab.info,172.20.64.5,23e09246-d66c-491d-8d99-51de3e337219
node-a8-206.grenoble.iot-lab.info,172.20.64.6,b5ce11e0-46c7-43fd-acfe-9a3fe65f7be8
node-a8-207.grenoble.iot-lab.info,172.20.64.7,0545bc2c-4cd9-43df-a29a-4b7512988fda
node-a8-208.grenoble.iot-lab.info,172.20.64.8,469e4636-845b-4c84-a215-d3117e896e75
node-a8-209.grenoble.iot-lab.info,172.20.64.9,db53968e-af7b-479a-8ca5-008754960f0e
node-a8-210.grenoble.iot-lab.info,172.20.64.10,3e83c5c2-ba5e-41bb-8bb7-ec03c6ecee75
node-a8-211.grenoble.iot-lab.info,172.20.64.11,276e5184-7b51-4e35-8b67-2c271859b9c9
node-a8-212.grenoble.iot-lab.info,172.20.64.12,38889dd7-916e-4b48-aaa2-6f543384d93e
node-a8-214.grenoble.iot-lab.info,172.20.64.13,6add1d85-fc21-4732-9f87-e48a7265e249
node-a8-216.grenoble.iot-lab.info,172.20.64.14,2096d34f-194f-4732-bf19-3ccada9dea0f
node-a8-217.grenoble.iot-lab.info,172.20.64.15,723389f7-f441-4ae5-af35-2a0b7fbd0916
node-a8-218.grenoble.iot-lab.info,172.20.64.16,cbe7129d-5843-41f4-bc57-6c036edf1dce
node-a8-219.grenoble.iot-lab.info,172.20.64.17,8e8e8116-366e-40c0-95c8-13ab0abcf891
node-a8-220.grenoble.iot-lab.info,172.20.64.18,78769ce3-64f4-4be2-9e1a-c4179a49de4e
node-a8-221.grenoble.iot-lab.info,172.20.64.19,35d01fa0-f9f0-4440-9adf-d48e954a38a7
node-a8-165.grenoble.iot-lab.info,172.20.64.20,0a304cd4-1741-4760-ac16-031eb2a3643c
node-a8-166.grenoble.iot-lab.info,172.20.64.21,0e7d5595-537d-48b8-977e-c7d7acd06427
node-a8-167.grenoble.iot-lab.info,172.20.64.22,014d097a-81b6-4816-b24e-c7f8f0720a97
node-a8-168.grenoble.iot-lab.info,172.20.64.23,f3352d4d-a4f7-4c30-b6c3-0940cd0bd31f
node-a8-169.grenoble.iot-lab.info,172.20.64.24,8335bc41-4ae7-4c39-9259-15b239e9d853
node-a8-170.grenoble.iot-lab.info,172.20.64.25,e70f4361-cee8-41ae-b2d3-3b52b9d91bac
node-a8-171.grenoble.iot-lab.info,172.20.64.26,f03eed76-616e-4fa0-86d9-8de7cd445ccc
node-a8-173.grenoble.iot-lab.info,172.20.64.27,7a0730f9-a205-4e39-8d5b-e37b4abe4b09
node-a8-174.grenoble.iot-lab.info,172.20.64.28,94f86915-f2db-4fe2-b984-6d21ff4ee514
node-a8-175.grenoble.iot-lab.info,172.20.64.29,1e50c59f-4a01-45ae-955b-2d2080ab884c
node-a8-176.grenoble.iot-lab.info,172.20.64.30,48ac7e5c-824f-4844-bb3b-51a127ae855e
node-a8-177.grenoble.iot-lab.info,172.20.64.31,5ca9b5e7-beb4-4e08-aed2-957beeb00fd4
node-a8-179.grenoble.iot-lab.info,172.20.64.32,d1791290-3ec6-4a5e-a5bf-ee1146d874a7
node-a8-180.grenoble.iot-lab.info,172.20.64.33,1216e0db-a0cd-4cb6-9f22-ae2b5fad158c
node-a8-181.grenoble.iot-lab.info,172.20.64.34,7df950e5-54bb-457b-baed-a08e269aef70
node-a8-182.grenoble.iot-lab.info,172.20.64.35,3200aa65-c5fd-4525-a666-81cd156ffa36
node-a8-183.grenoble.iot-lab.info,172.20.64.36,622eecf7-4505-4f30-9f92-36ad8e7cb01d
node-a8-184.grenoble.iot-lab.info,172.20.64.37,9bc1a74c-217e-499b-a86c-8e2e342ac318
node-a8-185.grenoble.iot-lab.info,172.20.64.38,ae62a036-f4b4-41e0-81f1-6a7d9460da96
node-a8-187.grenoble.iot-lab.info,172.20.64.39,52581393-4afc-43b0-a769-b59bd1822d94
node-a8-188.grenoble.iot-lab.info,172.20.64.40,0cfc5208-1682-4a40-9779-22fa4fd71051
node-a8-189.grenoble.iot-lab.info,172.20.64.41,3922001a-d9f3-4bcb-9474-5effd4c666ea
node-a8-190.grenoble.iot-lab.info,172.20.64.42,ad4cb43b-47d5-41a6-8ed0-57ecbfe64739
node-a8-191.grenoble.iot-lab.info,172.20.64.43,3e1a1602-2aff-4936-8ae4-6b703d990682
node-a8-192.grenoble.iot-lab.info,172.20.64.44,d0e7bac1-1e5e-4ad6-86ba-224954618c43
node-a8-193.grenoble.iot-lab.info,172.20.64.45,0a1839a1-7531-4c80-86ad-2dab30328b73
node-a8-194.grenoble.iot-lab.info,172.20.64.46,66ec4e2c-a9b8-481b-9a11-08ad240a83b7
node-a8-195.grenoble.iot-lab.info,172.20.64.47,e9ccb64a-8184-4d36-bb1d-007cc4534838
node-a8-197.grenoble.iot-lab.info,172.20.64.48,4c049f73-6b8b-4f21-a037-007c7597586e
node-a8-198.grenoble.iot-lab.info,172.20.64.49,417aafdc-6ebe-49ea-bcd7-3cc18bd9bcc4
uvb-10.sophia.grid5000.fr,172.16.132.10,670a3d2b-39ae-4d73-84ea-48cf868fe117
uvb-11.sophia.grid5000.fr,172.16.132.11,ece3cc2d-b723-416a-b20e-01257fab0478
uvb-12.sophia.grid5000.fr,172.16.132.12,708b82cb-c17a-4143-8ae8-5084aa58ce45
uvb-16.sophia.grid5000.fr,172.16.132.16,4ad43985-b1ad-48bd-9bca-2689e2ff5fe0
uvb-17.sophia.grid5000.fr,172.16.132.17,eb6ac127-16ac-4963-acf2-45822972f7f9
uvb-18.sophia.grid5000.fr,172.16.132.18,71de85da-68aa-435e-a19f-755d52cfa399
uvb-2.sophia.grid5000.fr,172.16.132.2,3ee1b37c-83af-4c3b-8aec-770c59a61d60
uvb-20.sophia.grid5000.fr,172.16.132.20,0145e63b-b2c1-4d1e-82c2-9c6a62d46eab
uvb-21.sophia.grid5000.fr,172.16.132.21,ed2b41c3-fb22-4934-8a55-9a045f8dad97
uvb-22.sophia.grid5000.fr,172.16.132.22,f5fbe9cd-8d8c-4fef-950f-88c08feb4ed4
uvb-26.sophia.grid5000.fr,172.16.132.26,c0c10ede-ad8b-4013-b03a-9c1b52257afb
uvb-27.sophia.grid5000.fr,172.16.132.27,45a3ad0b-c4a7-4545-8924-f5902774d0b8
uvb-5.sophia.grid5000.fr,172.16.132.5,324360d0-0340-4c77-be72-04d56d09932c
uvb-6.sophia.grid5000.fr,172.16.132.6,4305c66e-9f9a-4439-9a38-e22ac33e9951
uvb-8.sophia.grid5000.fr,172.16.132.8,c02b8a6e-944d-4b88-b7de-abb5826a5005
uvb-9.sophia.grid5000.fr,172.16.132.9,72e70739-387b-4df3-86b8-083d398c0195
