app_number,app_id,trigger,burn,sink,deploy_date,token_interval
1,bd607a88-8870-4476-946a-2a121ef4d852,7546f3a1-9361-4d7e-927a-9f43468a743e,77e31620-fe21-4510-98ab-c7779c24a3d1,22e097cd-984f-4945-9d71-e8503518ffad,2019-10-27 23:42:09,1.000000
2,50baaaf0-d382-434f-902d-75e318b00acb,1f0789db-3933-42fe-bdff-b5bdbaf13e58,c2c6feb5-c023-4240-b255-2ec562fe9c2e,646809bf-0997-4a6a-8a0e-95f148360592,2019-10-27 23:43:13,1.000000
3,01c8e88e-b119-4b71-adb7-97d0acb2c0f3,cb0f4894-d67e-48b9-beb4-87d843f3d86c,d5f0efe6-0f43-4aae-b01a-a088554d2814,0dcfdef1-281f-42bc-920a-b958f019f75f,2019-10-27 23:44:17,1.000000
4,b98d3f5b-1986-4858-8fc4-e742a7e98918,2ac5c3d2-2118-48ea-a1a5-14559d5e8461,b82efa67-3297-443a-9009-c6a1845834b4,c070edfa-ee82-4030-90fa-a63941d592aa,2019-10-27 23:45:21,0.200000
5,1d2c90fd-e02d-4611-afdc-e202634f82c6,8c94d4ab-ec28-4fca-8b0d-4e1fb69a206d,2dd43170-37fb-46c5-adbb-8fa240b9d72e,64f34538-8cc1-436b-9d1c-f3b26fc491e6,2019-10-27 23:46:25,0.200000
6,131d18ec-8965-49a3-828c-bf1fce0c109e,ac798d93-e886-4a3b-878f-217667e756a4,0f96aad8-e435-48cd-b42d-90946f5dd1ab,88f8c408-5997-4462-99a3-202c45ba9d8c,2019-10-27 23:47:28,0.200000
7,a5e6546e-e65f-4b84-bbc0-543cdf1008c9,b446cba9-7fa6-4c3f-8468-90770fb4b86b,a69ba662-80c2-4978-8030-1a2063a0e5f6,707de08a-96a3-4b74-b0d7-193f73d674a4,2019-10-27 23:48:32,0.200000
8,0ad1c5d3-1e00-4060-906b-a632c320ac73,5ab4c99b-e22f-44ce-a076-eafc02205115,cd2112d3-db8f-4fd9-b206-e0bd2dec9eb1,8d53a64b-7e8c-4a1d-9e74-e4041e8741a8,2019-10-27 23:49:36,1.000000
9,fb0e8f44-287d-4dfe-941c-5e42e1c7f87a,3b35c954-5768-4944-848d-486a972ba400,831184cd-a7c1-46c1-9b49-e2753b894369,236af05a-5e02-4676-b053-5f6bfdc97637,2019-10-27 23:50:40,0.200000
10,b3104435-9442-4c2b-84ec-4ab52ab94b10,858e43b6-4aa3-4875-b2dc-e3095c7f21cc,49ae6f21-d0c1-415f-b668-14d8f90654fb,abf41410-6d08-43d9-b095-10f45d267e30,2019-10-27 23:51:44,0.200000
11,48ff6158-fb89-4ea5-88a7-1d86c1ecb372,596f7f78-75e9-4fe3-8626-5ef3d0a819ad,9a96bc56-cca1-4a76-b2fe-3201d4c99a9e,c4bbbea9-8163-4575-b03a-ef8295c32d8f,2019-10-27 23:52:47,0.200000
12,7948a5c9-6a73-463d-ad28-a0072b17fcb5,e6a477da-b2a6-4e8a-b06e-57a594a228aa,b9aee0cc-57cb-449b-ae86-d73c597959b1,06b63d37-b8e1-4a9f-996a-00a3d2adf007,2019-10-27 23:53:51,1.000000
13,94f597c6-c11c-46ef-9897-e6e3efed6b76,927c1b07-baf5-4e76-82ca-45a2f3f81875,bfd1d890-8d19-4de2-8530-43bee8791f82,26c28f97-b6bf-4749-b222-d51808f6b70c,2019-10-27 23:54:55,0.200000
14,ce2d6fb2-d6b8-4ab7-9f73-53bb4796322b,1d988aef-29b9-401b-b821-ade5a8cd9e9b,ea014e4a-1796-4f87-9250-6d651c3a174a,0febbf05-2d63-44b7-8f3d-78ae9c85250d,2019-10-27 23:55:59,0.200000
15,4faaa8a8-206e-4c69-a2bd-33082e4e3911,d723beb4-41ea-415a-b0bd-0a657c6b40cc,e6b5e7c9-103d-4e36-ba55-4dc2ed374fd1,9f3dd3a9-88fb-4ec9-9e07-94633c79d607,2019-10-27 23:57:02,1.000000
16,63b5d7b3-ca5e-4e3a-a38d-7517e8fc4751,192630f1-241c-4abe-80d4-f0a4a9b002c5,ed48edb5-7ace-4505-8d2d-727f13cd430a,8ca6484b-825c-4e4f-911a-c17e398867d3,2019-10-27 23:58:06,1.000000
17,d9ee05be-3375-48ea-8db6-23d2d76e8c7e,70a970c9-0be6-4fc0-b462-f49785eeb707,e26ce0b7-5188-4c77-8989-0e6bf8896268,1f80154c-a60a-40ea-a851-55566a1cd067,2019-10-27 23:59:09,0.200000
18,917e4c05-4c68-4401-b538-7f7618fab5f4,2f5e9115-746c-4549-ad3f-ea5a8323c030,de133ca3-c270-4ae7-ae42-c320d1f2575d,3010ae44-a91e-47bf-81a7-929de7118cc6,2019-10-28 00:00:13,1.000000
19,b3b5b738-b84c-4dae-83a0-0a6efb77765c,f1c7a0cc-287f-46e7-a31c-1cdf6dc820d2,24e62d6e-da8e-4199-8073-e9af045950de,c111a14e-0589-4107-912b-8619c23315b7,2019-10-28 00:01:17,0.200000
20,11625d04-de53-43db-9121-1f899eecd0ee,905237c7-0f94-4f58-b28e-912f267630f8,fb13f70d-16f7-4e6c-b6f7-e219a46cee8e,91cac9ad-e4b6-41c2-8043-4dc3fc378c90,2019-10-28 00:02:21,1.000000
21,8a857d6c-c471-4727-bb59-75449876d915,4931e588-85e6-4055-bd3d-4fa502ee5735,ea2c1c0b-3ff0-42be-883a-f4584abee23b,782d333a-6ee9-4574-84f3-ccd6d52759c4,2019-10-28 00:03:24,0.200000
22,2849778f-69cd-4f40-88b9-677cd758fcc0,46170944-6854-41d7-aea5-83c4ff4777b5,473d2e59-8239-41eb-b79a-f44d41961ef1,be61aedc-6f8c-4646-ad41-afea3d126049,2019-10-28 00:04:28,0.200000
23,2c1ed050-f94b-4ce0-81cb-41a3afc73cc3,ef356120-524c-4a55-8e58-175e8486c8e4,d9252ab2-919e-4f89-819a-79463651a9f3,fdd7946c-2508-4896-9f0e-836f1b0a9ca0,2019-10-28 00:05:32,0.200000
24,72176f08-cbdd-4c44-a177-f3bce492ac7f,dc64a7e9-8053-46d4-812a-d4d0612522a6,e0b0279c-e768-4a57-a8e0-7dc9f75ecf27,9edae589-7314-446a-b5e9-c335b9fb0b80,2019-10-28 00:06:35,1.000000
25,4dc42909-4835-4ec1-ab24-92baecb1316a,72990587-99df-4b22-8bb5-90048edc12fc,5b6bb1c1-33e9-416d-8b27-792299934295,030fe473-0689-4cb6-9b91-4c34f1298a94,2019-10-28 00:07:39,1.000000
26,2438e199-063a-4cfc-ae3d-5ae28be9f646,bf6d3bfc-b09d-4565-a5ae-e089b52c5855,32517725-e527-45b3-9882-714fd8819144,db394c3d-3a21-416f-b16c-7ec5169d1f39,2019-10-28 00:08:43,1.000000
27,9b132c48-8dab-4a22-b65e-6735f5a6358d,68633d0c-ca83-4f5c-82c4-c730b1f90a6d,215db0e4-39ea-4034-86db-bf3f1a7538f8,91b30431-d529-4de9-bea2-08183f6f0a68,2019-10-28 00:09:47,0.200000
28,5f2be36e-48b6-4c90-a976-9bc680058424,d4ddb968-71ee-4f39-849f-00abc8691d25,7db5f279-e10c-4ea7-a491-f36a6bc1e1de,9a73d6c0-9553-4e3e-8907-8035f35018f1,2019-10-28 00:10:50,1.000000
29,657ed7f4-e2d8-4c15-8e69-11178749d121,01eac669-4b48-4853-92fc-8a92fb5581f3,92c6d476-5328-487e-82c3-37e7ec833b9d,48dcc989-50d7-4fb1-838b-9832daa623c5,2019-10-28 00:11:54,1.000000
30,ff327187-84e3-4dad-875f-2c05fdcaaa28,422e21a2-7482-4195-8b8d-60410ee87fb8,60d897f8-e052-4438-9470-8a8a48bac1e7,dfe7e76d-159a-438b-9a4f-f8ec2e9b8868,2019-10-28 00:12:58,1.000000
31,71d88dd2-3930-4de5-8248-e50e6d06248b,7d5bccff-ae90-4625-b03d-9c1b695de885,4c3c56ab-3b8e-4b76-abc8-ebc4d9535a18,0bbf93f2-fbd4-429d-aa06-80f4e7961bab,2019-10-28 00:14:02,1.000000
32,a884a19e-2bf2-4209-9aa4-9139437366b6,9af2419e-77c6-4b0c-b40c-d4942bc2a12f,7aac79c0-d5cf-4119-a05c-a7eee20e267d,2270689f-9f5c-4082-b989-dd4b0101734a,2019-10-28 00:15:06,0.200000
33,fecbefdf-c4ca-4d47-afc2-c71cea2e13ff,669b66d7-0780-4133-83f5-afdfd88e509e,71088415-52da-434a-abf3-727849515825,1f3cd795-f637-4f08-8a3e-cc0870c0c454,2019-10-28 00:16:09,1.000000
34,e10b36e0-9868-4560-b37a-064ce2862200,23154c49-b400-48db-a196-cb657f1aa746,f8bb11d4-0592-4bfc-be85-ae28f058b2c1,ddf1c4b5-ead9-4043-82ac-6214bed306e3,2019-10-28 00:17:13,0.200000
35,257e6c4c-8294-467e-b99d-59ab1a266666,88d15d71-c342-41ed-9112-9757b233fa0d,cfaf0105-33f1-4e15-ad8a-6fd0fba2c0ea,aa87f496-392c-4932-826b-fa2ccc0f16e9,2019-10-28 00:18:17,1.000000
36,f5e5de4d-a917-4ad1-b9e3-27c64c17f440,defd6588-ba71-48e8-87f0-9c3d84be6233,36829cf0-3334-416e-9183-2c6582738079,93c4429e-c60f-4fca-834e-d381a8ec0e7d,2019-10-28 00:19:21,0.200000
37,2f8d714a-d2ba-4d07-9af3-df533b8ed18b,671ad0cf-02e6-431f-bf93-6d7c02058f1b,21af063a-3b97-463a-ae0f-937956d6a3f1,c06fb6a6-f311-4109-b03d-c0eb873cb046,2019-10-28 00:20:25,1.000000
38,0156cf86-5a28-4044-b82f-6d2e1e8fd334,8f06147b-94f8-4c0e-ab62-18b202fde6af,ec0a24dd-cc64-4079-bbd7-dedb0bc45399,3afc8977-7f43-4043-8357-c14b7a0d68dc,2019-10-28 00:21:29,1.000000
39,988e701f-6b71-4b36-a812-d3506e2860a1,48841379-feb7-4d72-acb9-806f4827c097,09c9a999-71de-48ae-b7b0-a9a18272b76a,a3b44bd6-61f9-4e2c-b7f1-b8a6d2989a79,2019-10-28 00:22:32,0.200000
40,97588206-d0a0-4d0c-a81d-8af33cec9d46,2e7aa0e1-c847-4c13-9ad6-4c08fdb3873f,bc3faa3c-005b-43c4-ab9d-ceabce58dfcd,904bf5c7-ed90-470b-963d-d476bcb40c31,2019-10-28 00:23:36,0.200000
41,2430cc59-6d8d-4687-8c18-65d01474ce2d,b04beb5e-d63b-4bf7-9a7b-b8db640c3b68,075c1420-af30-49e2-9d15-dc038d341bf9,560ca52d-a806-4b13-9de3-b9a1fe57ce2d,2019-10-28 00:24:40,1.000000
42,e001693c-956d-4dd8-af60-febc61eb992e,e9c38982-3d66-4edf-adbb-dcbedf01c745,deb30ba8-f34a-4106-9b83-ab0f15872408,91df4fa1-1b12-48d3-8c98-1d99f9cde05b,2019-10-28 00:25:44,0.200000
43,8fcb39f5-2de0-4ddb-a2f7-bdeccfdd9ed6,a78fd2a1-ba61-4832-98bf-1b4fdba9aa89,caf1ab0d-df01-4a14-b0cf-ed58024034ad,7e74dfba-ccd2-4568-b5e9-7bae7c79e5c2,2019-10-28 00:26:48,0.200000
44,7f3fa9ce-d9e1-4c50-8719-c199ae1b792b,25d49f04-0290-4046-9364-e2b1924c3b2d,5d9e7212-8cff-48ad-9c1a-5dffa0e97344,36f46ec7-8975-4be0-8764-eeaf04b0221e,2019-10-28 00:27:51,0.200000
45,dcd9c55f-378b-4a34-961e-47c9047838d4,7328507d-010d-40f8-8a16-fe81e2702df2,36488f51-2c90-4754-85be-577337364d86,7bd6faf0-204a-44f4-81d9-7d279aa7f58d,2019-10-28 00:28:55,1.000000
46,bbfcc3c7-18cf-40bf-8d53-594e2661389c,3931f44a-4bed-4e56-af47-a21571b5c403,b91c1076-4162-4170-8fdf-86e893cffb50,5e05fac4-868c-4fb1-a1b2-faad0dd7b260,2019-10-28 00:29:59,0.200000
47,12a31873-94ae-4dff-95cf-b5f9367db3e8,b4f1dc9d-221a-4a36-a4e4-fc1978a0b609,965756dc-acb6-4e22-a8da-bcdcf8cf2745,ee32e42c-cfad-4cfb-ab4c-e0492c6aea4f,2019-10-28 00:31:02,0.200000
48,933604ac-54d1-4044-b88b-f9bd72f86bbc,3dfab841-f38b-4593-b4e4-d4278e9ddf80,f0736c10-b762-4362-8d56-ba3cc158dee5,7cef8e3c-f190-4b3c-8993-a5c2ce43211d,2019-10-28 00:32:06,1.000000
49,2151ab90-cfff-4288-b826-87290e7cf22a,f29a9e32-9e6b-430a-b018-1a56cb6d4a72,ed6ed458-75ee-4ae7-8f23-9b04657a0fed,090c4807-4786-496a-a44c-3121b4bd1159,2019-10-28 00:33:10,0.200000
50,8ce0d121-fced-438d-af2c-cda02df13008,399d2d90-66aa-4d5c-85bf-1c1da3007668,92dec17c-3748-4de7-88c9-bcc80466895d,cce7782c-1b18-44a7-9069-f3c1de20766e,2019-10-28 00:34:13,1.000000
