date,trigger,state
2019-10-28 00:25:25,b04beb5e-d63b-4bf7-9a7b-b8db640c3b68,A
2019-10-28 00:28:54,b04beb5e-d63b-4bf7-9a7b-b8db640c3b68,S
2019-10-28 00:31:57,b04beb5e-d63b-4bf7-9a7b-b8db640c3b68,A
2019-10-28 00:40:54,b04beb5e-d63b-4bf7-9a7b-b8db640c3b68,S
2019-10-28 00:55:51,b04beb5e-d63b-4bf7-9a7b-b8db640c3b68,A
2019-10-28 00:56:54,b04beb5e-d63b-4bf7-9a7b-b8db640c3b68,S
2019-10-28 00:57:23,b04beb5e-d63b-4bf7-9a7b-b8db640c3b68,A
2019-10-28 00:58:02,b04beb5e-d63b-4bf7-9a7b-b8db640c3b68,S
2019-10-28 01:05:06,b04beb5e-d63b-4bf7-9a7b-b8db640c3b68,A
2019-10-28 01:10:16,b04beb5e-d63b-4bf7-9a7b-b8db640c3b68,S
2019-10-28 01:29:07,b04beb5e-d63b-4bf7-9a7b-b8db640c3b68,A
2019-10-28 01:31:14,b04beb5e-d63b-4bf7-9a7b-b8db640c3b68,S
2019-10-28 01:38:22,b04beb5e-d63b-4bf7-9a7b-b8db640c3b68,A
2019-10-28 01:41:51,b04beb5e-d63b-4bf7-9a7b-b8db640c3b68,S
2019-10-27 23:43:22,1f0789db-3933-42fe-bdff-b5bdbaf13e58,A
2019-10-27 23:47:39,1f0789db-3933-42fe-bdff-b5bdbaf13e58,S
2019-10-27 23:49:56,1f0789db-3933-42fe-bdff-b5bdbaf13e58,A
2019-10-27 23:57:39,1f0789db-3933-42fe-bdff-b5bdbaf13e58,S
2019-10-28 00:06:57,1f0789db-3933-42fe-bdff-b5bdbaf13e58,A
2019-10-28 00:11:18,1f0789db-3933-42fe-bdff-b5bdbaf13e58,S
2019-10-28 00:15:51,1f0789db-3933-42fe-bdff-b5bdbaf13e58,A
2019-10-28 00:31:08,1f0789db-3933-42fe-bdff-b5bdbaf13e58,S
2019-10-28 00:36:01,1f0789db-3933-42fe-bdff-b5bdbaf13e58,A
2019-10-28 00:48:50,1f0789db-3933-42fe-bdff-b5bdbaf13e58,S
2019-10-28 00:49:19,1f0789db-3933-42fe-bdff-b5bdbaf13e58,A
2019-10-28 00:56:32,1f0789db-3933-42fe-bdff-b5bdbaf13e58,S
2019-10-28 01:04:26,1f0789db-3933-42fe-bdff-b5bdbaf13e58,A
2019-10-28 01:05:36,1f0789db-3933-42fe-bdff-b5bdbaf13e58,S
2019-10-28 01:07:09,1f0789db-3933-42fe-bdff-b5bdbaf13e58,A
2019-10-28 01:07:46,1f0789db-3933-42fe-bdff-b5bdbaf13e58,S
2019-10-28 01:09:19,1f0789db-3933-42fe-bdff-b5bdbaf13e58,A
2019-10-28 01:09:54,1f0789db-3933-42fe-bdff-b5bdbaf13e58,S
2019-10-28 01:10:01,1f0789db-3933-42fe-bdff-b5bdbaf13e58,A
2019-10-28 01:10:22,1f0789db-3933-42fe-bdff-b5bdbaf13e58,S
2019-10-28 01:11:19,1f0789db-3933-42fe-bdff-b5bdbaf13e58,A
2019-10-28 01:18:44,1f0789db-3933-42fe-bdff-b5bdbaf13e58,S
2019-10-28 01:31:02,1f0789db-3933-42fe-bdff-b5bdbaf13e58,A
2019-10-28 01:31:41,1f0789db-3933-42fe-bdff-b5bdbaf13e58,S
2019-10-28 01:50:10,1f0789db-3933-42fe-bdff-b5bdbaf13e58,A
2019-10-27 23:44:33,cb0f4894-d67e-48b9-beb4-87d843f3d86c,S
2019-10-27 23:45:39,cb0f4894-d67e-48b9-beb4-87d843f3d86c,A
2019-10-27 23:46:53,cb0f4894-d67e-48b9-beb4-87d843f3d86c,S
2019-10-27 23:50:32,cb0f4894-d67e-48b9-beb4-87d843f3d86c,A
2019-10-27 23:53:15,cb0f4894-d67e-48b9-beb4-87d843f3d86c,S
2019-10-27 23:58:26,cb0f4894-d67e-48b9-beb4-87d843f3d86c,A
2019-10-27 23:59:44,cb0f4894-d67e-48b9-beb4-87d843f3d86c,S
2019-10-28 00:05:43,cb0f4894-d67e-48b9-beb4-87d843f3d86c,A
2019-10-28 00:16:59,cb0f4894-d67e-48b9-beb4-87d843f3d86c,S
2019-10-28 00:20:40,cb0f4894-d67e-48b9-beb4-87d843f3d86c,A
2019-10-28 00:25:12,cb0f4894-d67e-48b9-beb4-87d843f3d86c,S
2019-10-28 00:36:39,cb0f4894-d67e-48b9-beb4-87d843f3d86c,A
2019-10-28 00:50:06,cb0f4894-d67e-48b9-beb4-87d843f3d86c,S
2019-10-28 00:51:04,cb0f4894-d67e-48b9-beb4-87d843f3d86c,A
2019-10-28 00:52:37,cb0f4894-d67e-48b9-beb4-87d843f3d86c,S
2019-10-28 00:53:23,cb0f4894-d67e-48b9-beb4-87d843f3d86c,A
2019-10-28 00:54:32,cb0f4894-d67e-48b9-beb4-87d843f3d86c,S
2019-10-28 01:03:08,cb0f4894-d67e-48b9-beb4-87d843f3d86c,A
2019-10-28 01:05:06,cb0f4894-d67e-48b9-beb4-87d843f3d86c,S
2019-10-28 01:06:54,cb0f4894-d67e-48b9-beb4-87d843f3d86c,A
2019-10-28 01:11:42,cb0f4894-d67e-48b9-beb4-87d843f3d86c,S
2019-10-28 01:20:35,cb0f4894-d67e-48b9-beb4-87d843f3d86c,A
2019-10-28 01:31:27,cb0f4894-d67e-48b9-beb4-87d843f3d86c,S
2019-10-28 01:35:24,cb0f4894-d67e-48b9-beb4-87d843f3d86c,A
2019-10-28 01:35:41,cb0f4894-d67e-48b9-beb4-87d843f3d86c,S
2019-10-28 01:41:20,cb0f4894-d67e-48b9-beb4-87d843f3d86c,A
2019-10-28 01:47:45,cb0f4894-d67e-48b9-beb4-87d843f3d86c,S
2019-10-28 01:47:46,cb0f4894-d67e-48b9-beb4-87d843f3d86c,A
2019-10-28 01:49:45,cb0f4894-d67e-48b9-beb4-87d843f3d86c,S
2019-10-28 00:05:49,192630f1-241c-4abe-80d4-f0a4a9b002c5,A
2019-10-28 00:13:38,192630f1-241c-4abe-80d4-f0a4a9b002c5,S
2019-10-28 00:15:09,192630f1-241c-4abe-80d4-f0a4a9b002c5,A
2019-10-28 00:17:47,192630f1-241c-4abe-80d4-f0a4a9b002c5,S
2019-10-28 00:22:28,192630f1-241c-4abe-80d4-f0a4a9b002c5,A
2019-10-28 00:37:09,192630f1-241c-4abe-80d4-f0a4a9b002c5,S
2019-10-28 00:37:45,192630f1-241c-4abe-80d4-f0a4a9b002c5,A
2019-10-28 00:43:15,192630f1-241c-4abe-80d4-f0a4a9b002c5,S
2019-10-28 00:50:27,192630f1-241c-4abe-80d4-f0a4a9b002c5,A
2019-10-28 00:51:03,192630f1-241c-4abe-80d4-f0a4a9b002c5,S
2019-10-28 01:02:53,192630f1-241c-4abe-80d4-f0a4a9b002c5,A
2019-10-28 01:06:01,192630f1-241c-4abe-80d4-f0a4a9b002c5,S
2019-10-28 01:17:51,192630f1-241c-4abe-80d4-f0a4a9b002c5,A
2019-10-28 01:29:48,192630f1-241c-4abe-80d4-f0a4a9b002c5,S
2019-10-28 01:34:41,192630f1-241c-4abe-80d4-f0a4a9b002c5,A
2019-10-28 01:35:13,192630f1-241c-4abe-80d4-f0a4a9b002c5,S
2019-10-28 01:35:31,192630f1-241c-4abe-80d4-f0a4a9b002c5,A
2019-10-28 01:35:42,192630f1-241c-4abe-80d4-f0a4a9b002c5,S
2019-10-28 01:36:52,192630f1-241c-4abe-80d4-f0a4a9b002c5,A
2019-10-28 01:40:34,192630f1-241c-4abe-80d4-f0a4a9b002c5,S
2019-10-28 01:49:25,192630f1-241c-4abe-80d4-f0a4a9b002c5,A
2019-10-28 00:35:00,399d2d90-66aa-4d5c-85bf-1c1da3007668,S
2019-10-28 00:37:19,399d2d90-66aa-4d5c-85bf-1c1da3007668,A
2019-10-28 00:43:50,399d2d90-66aa-4d5c-85bf-1c1da3007668,S
2019-10-28 00:44:48,399d2d90-66aa-4d5c-85bf-1c1da3007668,A
2019-10-28 00:45:08,399d2d90-66aa-4d5c-85bf-1c1da3007668,S
2019-10-28 00:50:18,399d2d90-66aa-4d5c-85bf-1c1da3007668,A
2019-10-28 00:55:11,399d2d90-66aa-4d5c-85bf-1c1da3007668,S
2019-10-28 00:59:51,399d2d90-66aa-4d5c-85bf-1c1da3007668,A
2019-10-28 01:12:51,399d2d90-66aa-4d5c-85bf-1c1da3007668,S
2019-10-28 01:30:20,399d2d90-66aa-4d5c-85bf-1c1da3007668,A
2019-10-28 01:35:03,399d2d90-66aa-4d5c-85bf-1c1da3007668,S
2019-10-28 01:37:12,399d2d90-66aa-4d5c-85bf-1c1da3007668,A
2019-10-28 01:38:26,399d2d90-66aa-4d5c-85bf-1c1da3007668,S
2019-10-28 01:39:48,399d2d90-66aa-4d5c-85bf-1c1da3007668,A
2019-10-28 01:40:32,399d2d90-66aa-4d5c-85bf-1c1da3007668,S
2019-10-28 01:41:05,399d2d90-66aa-4d5c-85bf-1c1da3007668,A
2019-10-28 01:42:09,399d2d90-66aa-4d5c-85bf-1c1da3007668,S
2019-10-28 01:48:50,399d2d90-66aa-4d5c-85bf-1c1da3007668,A
2019-10-28 01:49:09,399d2d90-66aa-4d5c-85bf-1c1da3007668,S
2019-10-28 01:49:57,399d2d90-66aa-4d5c-85bf-1c1da3007668,A
2019-10-28 01:49:58,399d2d90-66aa-4d5c-85bf-1c1da3007668,S
2019-10-27 23:59:58,2ac5c3d2-2118-48ea-a1a5-14559d5e8461,A
2019-10-28 00:03:24,2ac5c3d2-2118-48ea-a1a5-14559d5e8461,S
2019-10-28 00:08:29,2ac5c3d2-2118-48ea-a1a5-14559d5e8461,A
2019-10-28 00:10:20,2ac5c3d2-2118-48ea-a1a5-14559d5e8461,S
2019-10-28 00:20:51,2ac5c3d2-2118-48ea-a1a5-14559d5e8461,A
2019-10-28 00:21:26,2ac5c3d2-2118-48ea-a1a5-14559d5e8461,S
2019-10-28 00:29:50,2ac5c3d2-2118-48ea-a1a5-14559d5e8461,A
2019-10-28 00:32:11,2ac5c3d2-2118-48ea-a1a5-14559d5e8461,S
2019-10-28 00:40:34,2ac5c3d2-2118-48ea-a1a5-14559d5e8461,A
2019-10-28 00:59:00,2ac5c3d2-2118-48ea-a1a5-14559d5e8461,S
2019-10-28 01:00:16,2ac5c3d2-2118-48ea-a1a5-14559d5e8461,A
2019-10-28 01:00:27,2ac5c3d2-2118-48ea-a1a5-14559d5e8461,S
2019-10-28 01:03:40,2ac5c3d2-2118-48ea-a1a5-14559d5e8461,A
2019-10-28 01:12:30,2ac5c3d2-2118-48ea-a1a5-14559d5e8461,S
2019-10-28 01:27:35,2ac5c3d2-2118-48ea-a1a5-14559d5e8461,A
2019-10-28 01:27:53,2ac5c3d2-2118-48ea-a1a5-14559d5e8461,S
2019-10-28 01:38:24,2ac5c3d2-2118-48ea-a1a5-14559d5e8461,A
2019-10-28 00:20:17,dc64a7e9-8053-46d4-812a-d4d0612522a6,A
2019-10-28 00:23:46,dc64a7e9-8053-46d4-812a-d4d0612522a6,S
2019-10-28 00:26:02,dc64a7e9-8053-46d4-812a-d4d0612522a6,A
2019-10-28 00:28:03,dc64a7e9-8053-46d4-812a-d4d0612522a6,S
2019-10-28 00:28:38,dc64a7e9-8053-46d4-812a-d4d0612522a6,A
2019-10-28 00:31:13,dc64a7e9-8053-46d4-812a-d4d0612522a6,S
2019-10-28 00:38:05,dc64a7e9-8053-46d4-812a-d4d0612522a6,A
2019-10-28 00:39:33,dc64a7e9-8053-46d4-812a-d4d0612522a6,S
2019-10-28 00:49:48,dc64a7e9-8053-46d4-812a-d4d0612522a6,A
2019-10-28 01:28:53,dc64a7e9-8053-46d4-812a-d4d0612522a6,S
2019-10-28 01:38:48,dc64a7e9-8053-46d4-812a-d4d0612522a6,A
2019-10-28 01:38:51,dc64a7e9-8053-46d4-812a-d4d0612522a6,S
2019-10-28 01:39:34,dc64a7e9-8053-46d4-812a-d4d0612522a6,A
2019-10-28 01:42:37,dc64a7e9-8053-46d4-812a-d4d0612522a6,S
2019-10-28 01:43:59,dc64a7e9-8053-46d4-812a-d4d0612522a6,A
2019-10-28 01:45:20,dc64a7e9-8053-46d4-812a-d4d0612522a6,S
2019-10-28 01:49:29,dc64a7e9-8053-46d4-812a-d4d0612522a6,A
2019-10-28 01:51:04,dc64a7e9-8053-46d4-812a-d4d0612522a6,S
2019-10-28 00:20:40,671ad0cf-02e6-431f-bf93-6d7c02058f1b,A
2019-10-28 00:21:09,671ad0cf-02e6-431f-bf93-6d7c02058f1b,S
2019-10-28 00:29:39,671ad0cf-02e6-431f-bf93-6d7c02058f1b,A
2019-10-28 00:30:58,671ad0cf-02e6-431f-bf93-6d7c02058f1b,S
2019-10-28 00:39:35,671ad0cf-02e6-431f-bf93-6d7c02058f1b,S
2019-10-28 00:40:50,671ad0cf-02e6-431f-bf93-6d7c02058f1b,A
2019-10-28 00:41:40,671ad0cf-02e6-431f-bf93-6d7c02058f1b,S
2019-10-28 00:45:27,671ad0cf-02e6-431f-bf93-6d7c02058f1b,A
2019-10-28 00:46:33,671ad0cf-02e6-431f-bf93-6d7c02058f1b,S
2019-10-28 00:46:45,671ad0cf-02e6-431f-bf93-6d7c02058f1b,A
2019-10-28 00:52:18,671ad0cf-02e6-431f-bf93-6d7c02058f1b,S
2019-10-28 00:57:38,671ad0cf-02e6-431f-bf93-6d7c02058f1b,A
2019-10-28 01:09:53,671ad0cf-02e6-431f-bf93-6d7c02058f1b,S
2019-10-28 01:10:08,671ad0cf-02e6-431f-bf93-6d7c02058f1b,A
2019-10-28 01:14:18,671ad0cf-02e6-431f-bf93-6d7c02058f1b,S
2019-10-28 01:23:55,671ad0cf-02e6-431f-bf93-6d7c02058f1b,A
2019-10-28 01:36:00,671ad0cf-02e6-431f-bf93-6d7c02058f1b,S
2019-10-28 01:39:30,671ad0cf-02e6-431f-bf93-6d7c02058f1b,A
2019-10-28 01:43:52,671ad0cf-02e6-431f-bf93-6d7c02058f1b,S
2019-10-28 01:45:17,671ad0cf-02e6-431f-bf93-6d7c02058f1b,A
2019-10-28 01:45:52,671ad0cf-02e6-431f-bf93-6d7c02058f1b,S
2019-10-28 00:25:01,2e7aa0e1-c847-4c13-9ad6-4c08fdb3873f,A
2019-10-28 00:32:15,2e7aa0e1-c847-4c13-9ad6-4c08fdb3873f,S
2019-10-28 00:34:09,2e7aa0e1-c847-4c13-9ad6-4c08fdb3873f,A
2019-10-28 00:39:00,2e7aa0e1-c847-4c13-9ad6-4c08fdb3873f,S
2019-10-28 00:46:15,2e7aa0e1-c847-4c13-9ad6-4c08fdb3873f,A
2019-10-28 00:53:11,2e7aa0e1-c847-4c13-9ad6-4c08fdb3873f,S
2019-10-28 00:53:45,2e7aa0e1-c847-4c13-9ad6-4c08fdb3873f,A
2019-10-28 00:54:09,2e7aa0e1-c847-4c13-9ad6-4c08fdb3873f,S
2019-10-28 00:55:33,2e7aa0e1-c847-4c13-9ad6-4c08fdb3873f,A
2019-10-28 00:56:11,2e7aa0e1-c847-4c13-9ad6-4c08fdb3873f,S
2019-10-28 00:58:28,2e7aa0e1-c847-4c13-9ad6-4c08fdb3873f,A
2019-10-28 01:04:49,2e7aa0e1-c847-4c13-9ad6-4c08fdb3873f,S
2019-10-28 01:06:12,2e7aa0e1-c847-4c13-9ad6-4c08fdb3873f,A
2019-10-28 01:08:54,2e7aa0e1-c847-4c13-9ad6-4c08fdb3873f,S
2019-10-28 01:09:29,2e7aa0e1-c847-4c13-9ad6-4c08fdb3873f,A
2019-10-28 01:10:49,2e7aa0e1-c847-4c13-9ad6-4c08fdb3873f,S
2019-10-28 01:30:10,2e7aa0e1-c847-4c13-9ad6-4c08fdb3873f,A
2019-10-27 23:57:42,e6a477da-b2a6-4e8a-b06e-57a594a228aa,S
2019-10-28 00:03:55,e6a477da-b2a6-4e8a-b06e-57a594a228aa,A
2019-10-28 00:08:18,e6a477da-b2a6-4e8a-b06e-57a594a228aa,S
2019-10-28 00:18:50,e6a477da-b2a6-4e8a-b06e-57a594a228aa,A
2019-10-28 00:19:10,e6a477da-b2a6-4e8a-b06e-57a594a228aa,S
2019-10-28 00:24:39,e6a477da-b2a6-4e8a-b06e-57a594a228aa,A
2019-10-28 00:25:13,e6a477da-b2a6-4e8a-b06e-57a594a228aa,S
2019-10-28 00:25:50,e6a477da-b2a6-4e8a-b06e-57a594a228aa,A
2019-10-28 00:28:22,e6a477da-b2a6-4e8a-b06e-57a594a228aa,S
2019-10-28 00:28:42,e6a477da-b2a6-4e8a-b06e-57a594a228aa,A
2019-10-28 00:29:33,e6a477da-b2a6-4e8a-b06e-57a594a228aa,S
2019-10-28 00:45:06,e6a477da-b2a6-4e8a-b06e-57a594a228aa,A
2019-10-28 00:46:25,e6a477da-b2a6-4e8a-b06e-57a594a228aa,S
2019-10-28 00:49:33,e6a477da-b2a6-4e8a-b06e-57a594a228aa,A
2019-10-28 01:01:27,e6a477da-b2a6-4e8a-b06e-57a594a228aa,S
2019-10-28 01:02:54,e6a477da-b2a6-4e8a-b06e-57a594a228aa,A
2019-10-28 01:04:03,e6a477da-b2a6-4e8a-b06e-57a594a228aa,S
2019-10-28 01:04:54,e6a477da-b2a6-4e8a-b06e-57a594a228aa,A
2019-10-28 01:05:17,e6a477da-b2a6-4e8a-b06e-57a594a228aa,S
2019-10-28 01:11:47,e6a477da-b2a6-4e8a-b06e-57a594a228aa,A
2019-10-28 01:42:26,e6a477da-b2a6-4e8a-b06e-57a594a228aa,S
2019-10-28 01:46:12,e6a477da-b2a6-4e8a-b06e-57a594a228aa,A
2019-10-28 00:25:57,48841379-feb7-4d72-acb9-806f4827c097,A
2019-10-28 00:27:48,48841379-feb7-4d72-acb9-806f4827c097,S
2019-10-28 00:37:16,48841379-feb7-4d72-acb9-806f4827c097,A
2019-10-28 00:51:24,48841379-feb7-4d72-acb9-806f4827c097,S
2019-10-28 00:52:59,48841379-feb7-4d72-acb9-806f4827c097,A
2019-10-28 00:54:34,48841379-feb7-4d72-acb9-806f4827c097,S
2019-10-28 00:56:27,48841379-feb7-4d72-acb9-806f4827c097,A
2019-10-28 01:02:54,48841379-feb7-4d72-acb9-806f4827c097,S
2019-10-28 01:07:48,48841379-feb7-4d72-acb9-806f4827c097,A
2019-10-28 01:15:19,48841379-feb7-4d72-acb9-806f4827c097,S
2019-10-28 01:15:22,48841379-feb7-4d72-acb9-806f4827c097,A
2019-10-28 01:15:42,48841379-feb7-4d72-acb9-806f4827c097,S
2019-10-28 01:18:02,48841379-feb7-4d72-acb9-806f4827c097,A
2019-10-28 01:21:13,48841379-feb7-4d72-acb9-806f4827c097,S
2019-10-28 01:21:59,48841379-feb7-4d72-acb9-806f4827c097,A
2019-10-28 01:33:00,48841379-feb7-4d72-acb9-806f4827c097,S
2019-10-28 01:33:48,48841379-feb7-4d72-acb9-806f4827c097,A
2019-10-28 01:34:14,48841379-feb7-4d72-acb9-806f4827c097,S
2019-10-28 01:36:27,48841379-feb7-4d72-acb9-806f4827c097,A
2019-10-28 01:38:41,48841379-feb7-4d72-acb9-806f4827c097,S
2019-10-28 01:38:59,48841379-feb7-4d72-acb9-806f4827c097,A
2019-10-28 01:48:24,48841379-feb7-4d72-acb9-806f4827c097,S
2019-10-28 00:32:50,3931f44a-4bed-4e56-af47-a21571b5c403,S
2019-10-28 00:33:39,3931f44a-4bed-4e56-af47-a21571b5c403,A
2019-10-28 00:46:15,3931f44a-4bed-4e56-af47-a21571b5c403,S
2019-10-28 00:47:22,3931f44a-4bed-4e56-af47-a21571b5c403,A
2019-10-28 00:49:26,3931f44a-4bed-4e56-af47-a21571b5c403,S
2019-10-28 01:14:19,3931f44a-4bed-4e56-af47-a21571b5c403,A
2019-10-28 01:26:09,3931f44a-4bed-4e56-af47-a21571b5c403,S
2019-10-28 01:30:30,3931f44a-4bed-4e56-af47-a21571b5c403,A
2019-10-28 01:30:31,3931f44a-4bed-4e56-af47-a21571b5c403,S
2019-10-28 01:34:40,3931f44a-4bed-4e56-af47-a21571b5c403,A
2019-10-28 01:38:52,3931f44a-4bed-4e56-af47-a21571b5c403,S
2019-10-28 01:48:15,3931f44a-4bed-4e56-af47-a21571b5c403,A
2019-10-28 00:00:15,1d988aef-29b9-401b-b821-ade5a8cd9e9b,A
2019-10-28 00:06:18,1d988aef-29b9-401b-b821-ade5a8cd9e9b,S
2019-10-28 00:09:06,1d988aef-29b9-401b-b821-ade5a8cd9e9b,A
2019-10-28 00:09:45,1d988aef-29b9-401b-b821-ade5a8cd9e9b,S
2019-10-28 00:10:30,1d988aef-29b9-401b-b821-ade5a8cd9e9b,A
2019-10-28 00:19:45,1d988aef-29b9-401b-b821-ade5a8cd9e9b,S
2019-10-28 00:20:11,1d988aef-29b9-401b-b821-ade5a8cd9e9b,A
2019-10-28 00:21:01,1d988aef-29b9-401b-b821-ade5a8cd9e9b,S
2019-10-28 00:25:55,1d988aef-29b9-401b-b821-ade5a8cd9e9b,A
2019-10-28 00:30:54,1d988aef-29b9-401b-b821-ade5a8cd9e9b,S
2019-10-28 00:31:07,1d988aef-29b9-401b-b821-ade5a8cd9e9b,A
2019-10-28 00:31:51,1d988aef-29b9-401b-b821-ade5a8cd9e9b,S
2019-10-28 00:34:11,1d988aef-29b9-401b-b821-ade5a8cd9e9b,A
2019-10-28 00:37:11,1d988aef-29b9-401b-b821-ade5a8cd9e9b,S
2019-10-28 00:38:27,1d988aef-29b9-401b-b821-ade5a8cd9e9b,A
2019-10-28 00:38:31,1d988aef-29b9-401b-b821-ade5a8cd9e9b,S
2019-10-28 00:46:37,1d988aef-29b9-401b-b821-ade5a8cd9e9b,A
2019-10-28 00:49:54,1d988aef-29b9-401b-b821-ade5a8cd9e9b,S
2019-10-28 00:51:47,1d988aef-29b9-401b-b821-ade5a8cd9e9b,A
2019-10-28 00:59:09,1d988aef-29b9-401b-b821-ade5a8cd9e9b,S
2019-10-28 01:09:23,1d988aef-29b9-401b-b821-ade5a8cd9e9b,A
2019-10-28 01:24:51,1d988aef-29b9-401b-b821-ade5a8cd9e9b,S
2019-10-28 01:27:13,1d988aef-29b9-401b-b821-ade5a8cd9e9b,A
2019-10-28 01:27:25,1d988aef-29b9-401b-b821-ade5a8cd9e9b,S
2019-10-28 01:35:31,1d988aef-29b9-401b-b821-ade5a8cd9e9b,A
2019-10-28 01:35:54,1d988aef-29b9-401b-b821-ade5a8cd9e9b,S
2019-10-28 01:44:13,1d988aef-29b9-401b-b821-ade5a8cd9e9b,A
2019-10-27 23:59:39,596f7f78-75e9-4fe3-8626-5ef3d0a819ad,S
2019-10-28 00:11:34,596f7f78-75e9-4fe3-8626-5ef3d0a819ad,A
2019-10-28 00:11:53,596f7f78-75e9-4fe3-8626-5ef3d0a819ad,S
2019-10-28 00:27:17,596f7f78-75e9-4fe3-8626-5ef3d0a819ad,A
2019-10-28 00:30:10,596f7f78-75e9-4fe3-8626-5ef3d0a819ad,S
2019-10-28 00:32:09,596f7f78-75e9-4fe3-8626-5ef3d0a819ad,A
2019-10-28 00:40:16,596f7f78-75e9-4fe3-8626-5ef3d0a819ad,S
2019-10-28 00:41:12,596f7f78-75e9-4fe3-8626-5ef3d0a819ad,A
2019-10-28 00:43:25,596f7f78-75e9-4fe3-8626-5ef3d0a819ad,S
2019-10-28 00:57:49,596f7f78-75e9-4fe3-8626-5ef3d0a819ad,A
2019-10-28 01:03:08,596f7f78-75e9-4fe3-8626-5ef3d0a819ad,S
2019-10-28 01:04:41,596f7f78-75e9-4fe3-8626-5ef3d0a819ad,A
2019-10-28 01:05:29,596f7f78-75e9-4fe3-8626-5ef3d0a819ad,S
2019-10-28 01:07:26,596f7f78-75e9-4fe3-8626-5ef3d0a819ad,A
2019-10-28 01:10:43,596f7f78-75e9-4fe3-8626-5ef3d0a819ad,S
2019-10-28 01:10:50,596f7f78-75e9-4fe3-8626-5ef3d0a819ad,A
2019-10-28 01:23:09,596f7f78-75e9-4fe3-8626-5ef3d0a819ad,S
2019-10-28 01:24:29,596f7f78-75e9-4fe3-8626-5ef3d0a819ad,A
2019-10-28 01:29:22,596f7f78-75e9-4fe3-8626-5ef3d0a819ad,S
2019-10-28 01:32:47,596f7f78-75e9-4fe3-8626-5ef3d0a819ad,A
2019-10-28 01:34:01,596f7f78-75e9-4fe3-8626-5ef3d0a819ad,S
2019-10-28 01:34:44,596f7f78-75e9-4fe3-8626-5ef3d0a819ad,A
2019-10-28 01:47:24,596f7f78-75e9-4fe3-8626-5ef3d0a819ad,S
2019-10-28 01:48:52,596f7f78-75e9-4fe3-8626-5ef3d0a819ad,A
2019-10-28 01:50:05,596f7f78-75e9-4fe3-8626-5ef3d0a819ad,S
2019-10-28 00:31:36,b4f1dc9d-221a-4a36-a4e4-fc1978a0b609,S
2019-10-28 00:36:59,b4f1dc9d-221a-4a36-a4e4-fc1978a0b609,A
2019-10-28 00:38:24,b4f1dc9d-221a-4a36-a4e4-fc1978a0b609,S
2019-10-28 00:40:34,b4f1dc9d-221a-4a36-a4e4-fc1978a0b609,A
2019-10-28 00:47:36,b4f1dc9d-221a-4a36-a4e4-fc1978a0b609,S
2019-10-28 00:53:42,b4f1dc9d-221a-4a36-a4e4-fc1978a0b609,A
2019-10-28 00:57:37,b4f1dc9d-221a-4a36-a4e4-fc1978a0b609,S
2019-10-28 01:00:59,b4f1dc9d-221a-4a36-a4e4-fc1978a0b609,A
2019-10-28 01:02:33,b4f1dc9d-221a-4a36-a4e4-fc1978a0b609,S
2019-10-28 01:02:44,b4f1dc9d-221a-4a36-a4e4-fc1978a0b609,A
2019-10-28 01:05:04,b4f1dc9d-221a-4a36-a4e4-fc1978a0b609,S
2019-10-28 01:09:21,b4f1dc9d-221a-4a36-a4e4-fc1978a0b609,A
2019-10-28 01:12:15,b4f1dc9d-221a-4a36-a4e4-fc1978a0b609,S
2019-10-28 01:13:09,b4f1dc9d-221a-4a36-a4e4-fc1978a0b609,A
2019-10-28 01:23:33,b4f1dc9d-221a-4a36-a4e4-fc1978a0b609,S
2019-10-28 01:23:37,b4f1dc9d-221a-4a36-a4e4-fc1978a0b609,A
2019-10-28 01:24:09,b4f1dc9d-221a-4a36-a4e4-fc1978a0b609,S
2019-10-28 01:24:38,b4f1dc9d-221a-4a36-a4e4-fc1978a0b609,A
2019-10-28 01:24:51,b4f1dc9d-221a-4a36-a4e4-fc1978a0b609,S
2019-10-28 01:28:46,b4f1dc9d-221a-4a36-a4e4-fc1978a0b609,A
2019-10-28 01:36:35,b4f1dc9d-221a-4a36-a4e4-fc1978a0b609,S
2019-10-28 01:42:34,b4f1dc9d-221a-4a36-a4e4-fc1978a0b609,A
2019-10-28 01:45:27,b4f1dc9d-221a-4a36-a4e4-fc1978a0b609,S
2019-10-28 01:47:26,b4f1dc9d-221a-4a36-a4e4-fc1978a0b609,A
2019-10-28 00:26:03,8f06147b-94f8-4c0e-ab62-18b202fde6af,S
2019-10-28 00:26:46,8f06147b-94f8-4c0e-ab62-18b202fde6af,A
2019-10-28 00:30:17,8f06147b-94f8-4c0e-ab62-18b202fde6af,S
2019-10-28 00:34:19,8f06147b-94f8-4c0e-ab62-18b202fde6af,A
2019-10-28 00:42:08,8f06147b-94f8-4c0e-ab62-18b202fde6af,S
2019-10-28 00:48:37,8f06147b-94f8-4c0e-ab62-18b202fde6af,A
2019-10-28 00:52:48,8f06147b-94f8-4c0e-ab62-18b202fde6af,S
2019-10-28 00:54:13,8f06147b-94f8-4c0e-ab62-18b202fde6af,A
2019-10-28 01:04:38,8f06147b-94f8-4c0e-ab62-18b202fde6af,S
2019-10-28 01:04:53,8f06147b-94f8-4c0e-ab62-18b202fde6af,A
2019-10-28 01:05:09,8f06147b-94f8-4c0e-ab62-18b202fde6af,S
2019-10-28 01:06:38,8f06147b-94f8-4c0e-ab62-18b202fde6af,A
2019-10-28 01:14:28,8f06147b-94f8-4c0e-ab62-18b202fde6af,S
2019-10-28 01:18:26,8f06147b-94f8-4c0e-ab62-18b202fde6af,A
2019-10-28 01:21:04,8f06147b-94f8-4c0e-ab62-18b202fde6af,S
2019-10-28 01:23:31,8f06147b-94f8-4c0e-ab62-18b202fde6af,A
2019-10-28 01:25:38,8f06147b-94f8-4c0e-ab62-18b202fde6af,S
2019-10-28 01:30:19,8f06147b-94f8-4c0e-ab62-18b202fde6af,A
2019-10-28 01:36:40,8f06147b-94f8-4c0e-ab62-18b202fde6af,S
2019-10-28 01:36:50,8f06147b-94f8-4c0e-ab62-18b202fde6af,A
2019-10-28 01:37:30,8f06147b-94f8-4c0e-ab62-18b202fde6af,S
2019-10-28 01:39:48,8f06147b-94f8-4c0e-ab62-18b202fde6af,A
2019-10-28 00:20:18,88d15d71-c342-41ed-9112-9757b233fa0d,A
2019-10-28 00:20:57,88d15d71-c342-41ed-9112-9757b233fa0d,S
2019-10-28 00:22:32,88d15d71-c342-41ed-9112-9757b233fa0d,A
2019-10-28 00:36:45,88d15d71-c342-41ed-9112-9757b233fa0d,S
2019-10-28 00:38:52,88d15d71-c342-41ed-9112-9757b233fa0d,A
2019-10-28 00:41:19,88d15d71-c342-41ed-9112-9757b233fa0d,S
2019-10-28 00:48:57,88d15d71-c342-41ed-9112-9757b233fa0d,A
2019-10-28 00:52:37,88d15d71-c342-41ed-9112-9757b233fa0d,S
2019-10-28 00:55:58,88d15d71-c342-41ed-9112-9757b233fa0d,A
2019-10-28 01:06:49,88d15d71-c342-41ed-9112-9757b233fa0d,S
2019-10-28 01:06:52,88d15d71-c342-41ed-9112-9757b233fa0d,A
2019-10-28 01:16:23,88d15d71-c342-41ed-9112-9757b233fa0d,S
2019-10-28 01:36:52,88d15d71-c342-41ed-9112-9757b233fa0d,A
2019-10-28 01:44:07,88d15d71-c342-41ed-9112-9757b233fa0d,S
2019-10-28 01:48:06,88d15d71-c342-41ed-9112-9757b233fa0d,A
2019-10-28 00:31:37,25d49f04-0290-4046-9364-e2b1924c3b2d,S
2019-10-28 00:33:48,25d49f04-0290-4046-9364-e2b1924c3b2d,A
2019-10-28 00:36:33,25d49f04-0290-4046-9364-e2b1924c3b2d,S
2019-10-28 00:53:29,25d49f04-0290-4046-9364-e2b1924c3b2d,A
2019-10-28 00:55:10,25d49f04-0290-4046-9364-e2b1924c3b2d,S
2019-10-28 00:56:16,25d49f04-0290-4046-9364-e2b1924c3b2d,A
2019-10-28 01:01:31,25d49f04-0290-4046-9364-e2b1924c3b2d,S
2019-10-28 01:10:09,25d49f04-0290-4046-9364-e2b1924c3b2d,A
2019-10-28 01:12:06,25d49f04-0290-4046-9364-e2b1924c3b2d,S
2019-10-28 01:19:41,25d49f04-0290-4046-9364-e2b1924c3b2d,A
2019-10-28 01:20:30,25d49f04-0290-4046-9364-e2b1924c3b2d,S
2019-10-28 01:32:17,25d49f04-0290-4046-9364-e2b1924c3b2d,A
2019-10-28 01:40:09,25d49f04-0290-4046-9364-e2b1924c3b2d,S
2019-10-28 01:41:48,25d49f04-0290-4046-9364-e2b1924c3b2d,A
2019-10-28 01:45:37,25d49f04-0290-4046-9364-e2b1924c3b2d,S
2019-10-28 01:47:55,25d49f04-0290-4046-9364-e2b1924c3b2d,A
2019-10-28 00:09:51,72990587-99df-4b22-8bb5-90048edc12fc,A
2019-10-28 00:15:54,72990587-99df-4b22-8bb5-90048edc12fc,S
2019-10-28 00:18:24,72990587-99df-4b22-8bb5-90048edc12fc,A
2019-10-28 00:19:09,72990587-99df-4b22-8bb5-90048edc12fc,S
2019-10-28 00:19:12,72990587-99df-4b22-8bb5-90048edc12fc,A
2019-10-28 00:22:02,72990587-99df-4b22-8bb5-90048edc12fc,S
2019-10-28 00:30:18,72990587-99df-4b22-8bb5-90048edc12fc,A
2019-10-28 00:33:04,72990587-99df-4b22-8bb5-90048edc12fc,S
2019-10-28 00:33:07,72990587-99df-4b22-8bb5-90048edc12fc,A
2019-10-28 00:39:12,72990587-99df-4b22-8bb5-90048edc12fc,S
2019-10-28 00:43:35,72990587-99df-4b22-8bb5-90048edc12fc,A
2019-10-28 00:50:56,72990587-99df-4b22-8bb5-90048edc12fc,S
2019-10-28 00:52:06,72990587-99df-4b22-8bb5-90048edc12fc,A
2019-10-28 00:56:02,72990587-99df-4b22-8bb5-90048edc12fc,S
2019-10-28 00:56:49,72990587-99df-4b22-8bb5-90048edc12fc,A
2019-10-28 00:57:06,72990587-99df-4b22-8bb5-90048edc12fc,S
2019-10-28 01:07:40,72990587-99df-4b22-8bb5-90048edc12fc,A
2019-10-28 01:09:03,72990587-99df-4b22-8bb5-90048edc12fc,S
2019-10-28 01:14:47,72990587-99df-4b22-8bb5-90048edc12fc,A
2019-10-28 01:19:14,72990587-99df-4b22-8bb5-90048edc12fc,S
2019-10-28 01:20:33,72990587-99df-4b22-8bb5-90048edc12fc,A
2019-10-28 01:23:20,72990587-99df-4b22-8bb5-90048edc12fc,S
2019-10-28 01:24:44,72990587-99df-4b22-8bb5-90048edc12fc,A
2019-10-28 01:33:34,72990587-99df-4b22-8bb5-90048edc12fc,S
2019-10-28 01:35:03,72990587-99df-4b22-8bb5-90048edc12fc,A
2019-10-28 01:38:42,72990587-99df-4b22-8bb5-90048edc12fc,S
2019-10-28 01:39:00,72990587-99df-4b22-8bb5-90048edc12fc,A
2019-10-28 01:42:58,72990587-99df-4b22-8bb5-90048edc12fc,S
2019-10-27 23:49:41,5ab4c99b-e22f-44ce-a076-eafc02205115,S
2019-10-27 23:51:13,5ab4c99b-e22f-44ce-a076-eafc02205115,A
2019-10-27 23:52:02,5ab4c99b-e22f-44ce-a076-eafc02205115,S
2019-10-27 23:52:08,5ab4c99b-e22f-44ce-a076-eafc02205115,A
2019-10-27 23:52:14,5ab4c99b-e22f-44ce-a076-eafc02205115,S
2019-10-27 23:52:38,5ab4c99b-e22f-44ce-a076-eafc02205115,A
2019-10-27 23:57:23,5ab4c99b-e22f-44ce-a076-eafc02205115,S
2019-10-28 00:01:31,5ab4c99b-e22f-44ce-a076-eafc02205115,A
2019-10-28 00:03:20,5ab4c99b-e22f-44ce-a076-eafc02205115,S
2019-10-28 00:05:33,5ab4c99b-e22f-44ce-a076-eafc02205115,A
2019-10-28 00:16:11,5ab4c99b-e22f-44ce-a076-eafc02205115,S
2019-10-28 00:18:13,5ab4c99b-e22f-44ce-a076-eafc02205115,A
2019-10-28 00:27:22,5ab4c99b-e22f-44ce-a076-eafc02205115,S
2019-10-28 00:29:58,5ab4c99b-e22f-44ce-a076-eafc02205115,A
2019-10-28 00:38:33,5ab4c99b-e22f-44ce-a076-eafc02205115,S
2019-10-28 00:40:35,5ab4c99b-e22f-44ce-a076-eafc02205115,A
2019-10-28 00:42:24,5ab4c99b-e22f-44ce-a076-eafc02205115,S
2019-10-28 00:45:28,5ab4c99b-e22f-44ce-a076-eafc02205115,A
2019-10-28 00:45:35,5ab4c99b-e22f-44ce-a076-eafc02205115,S
2019-10-28 00:57:39,5ab4c99b-e22f-44ce-a076-eafc02205115,A
2019-10-28 01:01:17,5ab4c99b-e22f-44ce-a076-eafc02205115,S
2019-10-28 01:13:01,5ab4c99b-e22f-44ce-a076-eafc02205115,A
2019-10-28 01:13:46,5ab4c99b-e22f-44ce-a076-eafc02205115,S
2019-10-28 01:20:39,5ab4c99b-e22f-44ce-a076-eafc02205115,A
2019-10-28 01:21:59,5ab4c99b-e22f-44ce-a076-eafc02205115,S
2019-10-28 01:24:26,5ab4c99b-e22f-44ce-a076-eafc02205115,A
2019-10-28 01:32:51,5ab4c99b-e22f-44ce-a076-eafc02205115,S
2019-10-28 01:41:00,5ab4c99b-e22f-44ce-a076-eafc02205115,A
2019-10-28 01:51:10,5ab4c99b-e22f-44ce-a076-eafc02205115,S
2019-10-28 01:53:08,5ab4c99b-e22f-44ce-a076-eafc02205115,A
2019-10-28 00:19:27,01eac669-4b48-4853-92fc-8a92fb5581f3,S
2019-10-28 00:21:45,01eac669-4b48-4853-92fc-8a92fb5581f3,A
2019-10-28 00:26:57,01eac669-4b48-4853-92fc-8a92fb5581f3,S
2019-10-28 00:35:03,01eac669-4b48-4853-92fc-8a92fb5581f3,A
2019-10-28 00:42:27,01eac669-4b48-4853-92fc-8a92fb5581f3,S
2019-10-28 00:42:49,01eac669-4b48-4853-92fc-8a92fb5581f3,A
2019-10-28 00:48:22,01eac669-4b48-4853-92fc-8a92fb5581f3,S
2019-10-28 00:59:25,01eac669-4b48-4853-92fc-8a92fb5581f3,A
2019-10-28 01:03:49,01eac669-4b48-4853-92fc-8a92fb5581f3,S
2019-10-28 01:06:37,01eac669-4b48-4853-92fc-8a92fb5581f3,A
2019-10-28 01:13:19,01eac669-4b48-4853-92fc-8a92fb5581f3,S
2019-10-28 01:14:09,01eac669-4b48-4853-92fc-8a92fb5581f3,A
2019-10-28 01:16:55,01eac669-4b48-4853-92fc-8a92fb5581f3,S
2019-10-28 01:20:45,01eac669-4b48-4853-92fc-8a92fb5581f3,A
2019-10-28 01:27:13,01eac669-4b48-4853-92fc-8a92fb5581f3,S
2019-10-28 01:30:18,01eac669-4b48-4853-92fc-8a92fb5581f3,A
2019-10-28 01:42:38,01eac669-4b48-4853-92fc-8a92fb5581f3,S
2019-10-28 01:47:25,01eac669-4b48-4853-92fc-8a92fb5581f3,A
2019-10-28 01:49:29,01eac669-4b48-4853-92fc-8a92fb5581f3,S
2019-10-27 23:47:22,8c94d4ab-ec28-4fca-8b0d-4e1fb69a206d,S
2019-10-27 23:51:25,8c94d4ab-ec28-4fca-8b0d-4e1fb69a206d,A
2019-10-27 23:52:14,8c94d4ab-ec28-4fca-8b0d-4e1fb69a206d,S
2019-10-27 23:57:28,8c94d4ab-ec28-4fca-8b0d-4e1fb69a206d,A
2019-10-28 00:02:21,8c94d4ab-ec28-4fca-8b0d-4e1fb69a206d,S
2019-10-28 00:07:19,8c94d4ab-ec28-4fca-8b0d-4e1fb69a206d,A
2019-10-28 00:09:54,8c94d4ab-ec28-4fca-8b0d-4e1fb69a206d,S
2019-10-28 00:10:40,8c94d4ab-ec28-4fca-8b0d-4e1fb69a206d,A
2019-10-28 00:21:16,8c94d4ab-ec28-4fca-8b0d-4e1fb69a206d,S
2019-10-28 00:21:40,8c94d4ab-ec28-4fca-8b0d-4e1fb69a206d,A
2019-10-28 00:29:18,8c94d4ab-ec28-4fca-8b0d-4e1fb69a206d,S
2019-10-28 00:34:38,8c94d4ab-ec28-4fca-8b0d-4e1fb69a206d,A
2019-10-28 00:35:04,8c94d4ab-ec28-4fca-8b0d-4e1fb69a206d,S
2019-10-28 00:41:29,8c94d4ab-ec28-4fca-8b0d-4e1fb69a206d,A
2019-10-28 00:43:33,8c94d4ab-ec28-4fca-8b0d-4e1fb69a206d,S
2019-10-28 00:43:47,8c94d4ab-ec28-4fca-8b0d-4e1fb69a206d,A
2019-10-28 00:48:50,8c94d4ab-ec28-4fca-8b0d-4e1fb69a206d,S
2019-10-28 00:49:31,8c94d4ab-ec28-4fca-8b0d-4e1fb69a206d,A
2019-10-28 01:06:37,8c94d4ab-ec28-4fca-8b0d-4e1fb69a206d,S
2019-10-28 01:08:54,8c94d4ab-ec28-4fca-8b0d-4e1fb69a206d,A
2019-10-28 01:09:14,8c94d4ab-ec28-4fca-8b0d-4e1fb69a206d,S
2019-10-28 01:12:39,8c94d4ab-ec28-4fca-8b0d-4e1fb69a206d,A
2019-10-28 01:12:50,8c94d4ab-ec28-4fca-8b0d-4e1fb69a206d,S
2019-10-28 01:19:51,8c94d4ab-ec28-4fca-8b0d-4e1fb69a206d,A
2019-10-28 01:25:40,8c94d4ab-ec28-4fca-8b0d-4e1fb69a206d,S
2019-10-28 01:46:23,8c94d4ab-ec28-4fca-8b0d-4e1fb69a206d,A
2019-10-28 01:47:39,8c94d4ab-ec28-4fca-8b0d-4e1fb69a206d,S
2019-10-28 00:02:52,2f5e9115-746c-4549-ad3f-ea5a8323c030,S
2019-10-28 00:14:57,2f5e9115-746c-4549-ad3f-ea5a8323c030,A
2019-10-28 00:33:19,2f5e9115-746c-4549-ad3f-ea5a8323c030,S
2019-10-28 00:35:42,2f5e9115-746c-4549-ad3f-ea5a8323c030,A
2019-10-28 00:39:01,2f5e9115-746c-4549-ad3f-ea5a8323c030,S
2019-10-28 00:42:20,2f5e9115-746c-4549-ad3f-ea5a8323c030,A
2019-10-28 00:53:49,2f5e9115-746c-4549-ad3f-ea5a8323c030,S
2019-10-28 00:54:39,2f5e9115-746c-4549-ad3f-ea5a8323c030,A
2019-10-28 00:56:18,2f5e9115-746c-4549-ad3f-ea5a8323c030,S
2019-10-28 00:57:11,2f5e9115-746c-4549-ad3f-ea5a8323c030,A
2019-10-28 01:14:35,2f5e9115-746c-4549-ad3f-ea5a8323c030,S
2019-10-28 01:14:41,2f5e9115-746c-4549-ad3f-ea5a8323c030,A
2019-10-28 01:17:50,2f5e9115-746c-4549-ad3f-ea5a8323c030,S
2019-10-28 01:21:17,2f5e9115-746c-4549-ad3f-ea5a8323c030,A
2019-10-28 01:23:31,2f5e9115-746c-4549-ad3f-ea5a8323c030,S
2019-10-28 01:29:28,2f5e9115-746c-4549-ad3f-ea5a8323c030,A
2019-10-28 01:30:50,2f5e9115-746c-4549-ad3f-ea5a8323c030,S
2019-10-28 01:34:46,2f5e9115-746c-4549-ad3f-ea5a8323c030,A
2019-10-28 01:40:20,2f5e9115-746c-4549-ad3f-ea5a8323c030,S
2019-10-28 01:51:51,2f5e9115-746c-4549-ad3f-ea5a8323c030,A
2019-10-28 00:02:04,d723beb4-41ea-415a-b0bd-0a657c6b40cc,A
2019-10-28 00:08:57,d723beb4-41ea-415a-b0bd-0a657c6b40cc,S
2019-10-28 00:13:44,d723beb4-41ea-415a-b0bd-0a657c6b40cc,A
2019-10-28 00:20:18,d723beb4-41ea-415a-b0bd-0a657c6b40cc,S
2019-10-28 00:26:12,d723beb4-41ea-415a-b0bd-0a657c6b40cc,A
2019-10-28 00:36:50,d723beb4-41ea-415a-b0bd-0a657c6b40cc,S
2019-10-28 00:44:05,d723beb4-41ea-415a-b0bd-0a657c6b40cc,A
2019-10-28 00:46:32,d723beb4-41ea-415a-b0bd-0a657c6b40cc,S
2019-10-28 00:48:13,d723beb4-41ea-415a-b0bd-0a657c6b40cc,A
2019-10-28 00:52:51,d723beb4-41ea-415a-b0bd-0a657c6b40cc,S
2019-10-28 00:57:51,d723beb4-41ea-415a-b0bd-0a657c6b40cc,A
2019-10-28 01:07:46,d723beb4-41ea-415a-b0bd-0a657c6b40cc,S
2019-10-28 01:07:50,d723beb4-41ea-415a-b0bd-0a657c6b40cc,A
2019-10-28 01:12:30,d723beb4-41ea-415a-b0bd-0a657c6b40cc,S
2019-10-28 01:14:14,d723beb4-41ea-415a-b0bd-0a657c6b40cc,A
2019-10-28 01:20:57,d723beb4-41ea-415a-b0bd-0a657c6b40cc,S
2019-10-28 01:21:03,d723beb4-41ea-415a-b0bd-0a657c6b40cc,A
2019-10-28 01:23:46,d723beb4-41ea-415a-b0bd-0a657c6b40cc,S
2019-10-28 01:30:39,d723beb4-41ea-415a-b0bd-0a657c6b40cc,A
2019-10-28 01:51:33,d723beb4-41ea-415a-b0bd-0a657c6b40cc,S
2019-10-28 00:08:44,46170944-6854-41d7-aea5-83c4ff4777b5,S
2019-10-28 00:17:46,46170944-6854-41d7-aea5-83c4ff4777b5,A
2019-10-28 00:22:58,46170944-6854-41d7-aea5-83c4ff4777b5,S
2019-10-28 00:35:44,46170944-6854-41d7-aea5-83c4ff4777b5,A
2019-10-28 00:36:43,46170944-6854-41d7-aea5-83c4ff4777b5,S
2019-10-28 00:47:55,46170944-6854-41d7-aea5-83c4ff4777b5,A
2019-10-28 00:48:09,46170944-6854-41d7-aea5-83c4ff4777b5,S
2019-10-28 00:51:36,46170944-6854-41d7-aea5-83c4ff4777b5,A
2019-10-28 01:02:39,46170944-6854-41d7-aea5-83c4ff4777b5,S
2019-10-28 01:05:41,46170944-6854-41d7-aea5-83c4ff4777b5,A
2019-10-28 01:12:17,46170944-6854-41d7-aea5-83c4ff4777b5,S
2019-10-28 01:14:13,46170944-6854-41d7-aea5-83c4ff4777b5,A
2019-10-28 01:21:38,46170944-6854-41d7-aea5-83c4ff4777b5,S
2019-10-28 01:25:44,46170944-6854-41d7-aea5-83c4ff4777b5,A
2019-10-28 01:26:26,46170944-6854-41d7-aea5-83c4ff4777b5,S
2019-10-28 01:26:48,46170944-6854-41d7-aea5-83c4ff4777b5,A
2019-10-28 01:30:11,46170944-6854-41d7-aea5-83c4ff4777b5,S
2019-10-28 01:33:15,46170944-6854-41d7-aea5-83c4ff4777b5,A
2019-10-28 01:46:26,46170944-6854-41d7-aea5-83c4ff4777b5,S
2019-10-28 01:50:36,46170944-6854-41d7-aea5-83c4ff4777b5,A
2019-10-28 01:50:43,46170944-6854-41d7-aea5-83c4ff4777b5,S
2019-10-28 00:18:16,23154c49-b400-48db-a196-cb657f1aa746,S
2019-10-28 00:30:31,23154c49-b400-48db-a196-cb657f1aa746,A
2019-10-28 00:40:39,23154c49-b400-48db-a196-cb657f1aa746,S
2019-10-28 00:41:57,23154c49-b400-48db-a196-cb657f1aa746,A
2019-10-28 00:43:56,23154c49-b400-48db-a196-cb657f1aa746,S
2019-10-28 00:50:35,23154c49-b400-48db-a196-cb657f1aa746,A
2019-10-28 00:51:22,23154c49-b400-48db-a196-cb657f1aa746,S
2019-10-28 00:53:44,23154c49-b400-48db-a196-cb657f1aa746,A
2019-10-28 00:54:35,23154c49-b400-48db-a196-cb657f1aa746,S
2019-10-28 00:54:57,23154c49-b400-48db-a196-cb657f1aa746,A
2019-10-28 00:55:15,23154c49-b400-48db-a196-cb657f1aa746,S
2019-10-28 01:02:12,23154c49-b400-48db-a196-cb657f1aa746,A
2019-10-28 01:15:02,23154c49-b400-48db-a196-cb657f1aa746,S
2019-10-28 01:19:39,23154c49-b400-48db-a196-cb657f1aa746,A
2019-10-28 01:20:18,23154c49-b400-48db-a196-cb657f1aa746,S
2019-10-28 01:37:13,23154c49-b400-48db-a196-cb657f1aa746,A
2019-10-28 01:39:34,23154c49-b400-48db-a196-cb657f1aa746,S
2019-10-28 01:39:47,23154c49-b400-48db-a196-cb657f1aa746,A
2019-10-28 01:41:07,23154c49-b400-48db-a196-cb657f1aa746,S
2019-10-28 01:43:33,23154c49-b400-48db-a196-cb657f1aa746,A
2019-10-28 01:49:01,23154c49-b400-48db-a196-cb657f1aa746,S
2019-10-28 01:52:05,23154c49-b400-48db-a196-cb657f1aa746,A
2019-10-28 00:26:57,a78fd2a1-ba61-4832-98bf-1b4fdba9aa89,A
2019-10-28 00:35:53,a78fd2a1-ba61-4832-98bf-1b4fdba9aa89,S
2019-10-28 00:46:36,a78fd2a1-ba61-4832-98bf-1b4fdba9aa89,A
2019-10-28 00:52:08,a78fd2a1-ba61-4832-98bf-1b4fdba9aa89,S
2019-10-28 00:54:46,a78fd2a1-ba61-4832-98bf-1b4fdba9aa89,A
2019-10-28 00:55:30,a78fd2a1-ba61-4832-98bf-1b4fdba9aa89,S
2019-10-28 01:00:10,a78fd2a1-ba61-4832-98bf-1b4fdba9aa89,A
2019-10-28 01:02:01,a78fd2a1-ba61-4832-98bf-1b4fdba9aa89,S
2019-10-28 01:15:16,a78fd2a1-ba61-4832-98bf-1b4fdba9aa89,A
2019-10-28 01:17:08,a78fd2a1-ba61-4832-98bf-1b4fdba9aa89,S
2019-10-28 01:23:20,a78fd2a1-ba61-4832-98bf-1b4fdba9aa89,A
2019-10-28 01:26:08,a78fd2a1-ba61-4832-98bf-1b4fdba9aa89,S
2019-10-28 01:27:56,a78fd2a1-ba61-4832-98bf-1b4fdba9aa89,A
2019-10-28 01:28:19,a78fd2a1-ba61-4832-98bf-1b4fdba9aa89,S
2019-10-28 01:28:59,a78fd2a1-ba61-4832-98bf-1b4fdba9aa89,A
2019-10-28 01:41:29,a78fd2a1-ba61-4832-98bf-1b4fdba9aa89,S
2019-10-28 01:41:30,a78fd2a1-ba61-4832-98bf-1b4fdba9aa89,A
2019-10-28 01:42:06,a78fd2a1-ba61-4832-98bf-1b4fdba9aa89,S
2019-10-28 01:42:35,a78fd2a1-ba61-4832-98bf-1b4fdba9aa89,A
2019-10-28 00:32:27,bf6d3bfc-b09d-4565-a5ae-e089b52c5855,A
2019-10-28 01:06:13,bf6d3bfc-b09d-4565-a5ae-e089b52c5855,S
2019-10-28 01:06:40,bf6d3bfc-b09d-4565-a5ae-e089b52c5855,A
2019-10-28 01:35:57,bf6d3bfc-b09d-4565-a5ae-e089b52c5855,S
2019-10-28 01:39:01,bf6d3bfc-b09d-4565-a5ae-e089b52c5855,A
2019-10-28 01:41:29,bf6d3bfc-b09d-4565-a5ae-e089b52c5855,S
2019-10-28 01:43:01,bf6d3bfc-b09d-4565-a5ae-e089b52c5855,A
2019-10-28 01:43:47,bf6d3bfc-b09d-4565-a5ae-e089b52c5855,S
2019-10-28 01:47:01,bf6d3bfc-b09d-4565-a5ae-e089b52c5855,A
2019-10-28 00:14:48,4931e588-85e6-4055-bd3d-4fa502ee5735,S
2019-10-28 00:14:53,4931e588-85e6-4055-bd3d-4fa502ee5735,A
2019-10-28 00:22:03,4931e588-85e6-4055-bd3d-4fa502ee5735,S
2019-10-28 00:33:33,4931e588-85e6-4055-bd3d-4fa502ee5735,A
2019-10-28 00:35:09,4931e588-85e6-4055-bd3d-4fa502ee5735,S
2019-10-28 00:38:17,4931e588-85e6-4055-bd3d-4fa502ee5735,A
2019-10-28 00:38:33,4931e588-85e6-4055-bd3d-4fa502ee5735,S
2019-10-28 00:56:32,4931e588-85e6-4055-bd3d-4fa502ee5735,A
2019-10-28 00:58:56,4931e588-85e6-4055-bd3d-4fa502ee5735,S
2019-10-28 01:11:18,4931e588-85e6-4055-bd3d-4fa502ee5735,A
2019-10-28 01:23:26,4931e588-85e6-4055-bd3d-4fa502ee5735,S
2019-10-28 01:28:57,4931e588-85e6-4055-bd3d-4fa502ee5735,A
2019-10-28 01:29:24,4931e588-85e6-4055-bd3d-4fa502ee5735,S
2019-10-28 01:31:39,4931e588-85e6-4055-bd3d-4fa502ee5735,A
2019-10-28 01:35:18,4931e588-85e6-4055-bd3d-4fa502ee5735,S
2019-10-28 01:38:37,4931e588-85e6-4055-bd3d-4fa502ee5735,A
2019-10-28 01:43:08,4931e588-85e6-4055-bd3d-4fa502ee5735,S
2019-10-28 01:44:05,4931e588-85e6-4055-bd3d-4fa502ee5735,A
2019-10-28 01:44:26,4931e588-85e6-4055-bd3d-4fa502ee5735,S
2019-10-28 01:45:24,4931e588-85e6-4055-bd3d-4fa502ee5735,A
2019-10-28 00:13:29,68633d0c-ca83-4f5c-82c4-c730b1f90a6d,S
2019-10-28 00:18:44,68633d0c-ca83-4f5c-82c4-c730b1f90a6d,A
2019-10-28 00:25:28,68633d0c-ca83-4f5c-82c4-c730b1f90a6d,S
2019-10-28 00:30:27,68633d0c-ca83-4f5c-82c4-c730b1f90a6d,A
2019-10-28 00:31:23,68633d0c-ca83-4f5c-82c4-c730b1f90a6d,S
2019-10-28 00:38:10,68633d0c-ca83-4f5c-82c4-c730b1f90a6d,A
2019-10-28 00:40:26,68633d0c-ca83-4f5c-82c4-c730b1f90a6d,S
2019-10-28 00:46:32,68633d0c-ca83-4f5c-82c4-c730b1f90a6d,A
2019-10-28 00:46:34,68633d0c-ca83-4f5c-82c4-c730b1f90a6d,S
2019-10-28 00:47:18,68633d0c-ca83-4f5c-82c4-c730b1f90a6d,A
2019-10-28 00:51:11,68633d0c-ca83-4f5c-82c4-c730b1f90a6d,S
2019-10-28 00:56:47,68633d0c-ca83-4f5c-82c4-c730b1f90a6d,A
2019-10-28 00:58:48,68633d0c-ca83-4f5c-82c4-c730b1f90a6d,S
2019-10-28 01:02:02,68633d0c-ca83-4f5c-82c4-c730b1f90a6d,A
2019-10-28 01:04:53,68633d0c-ca83-4f5c-82c4-c730b1f90a6d,S
2019-10-28 01:08:07,68633d0c-ca83-4f5c-82c4-c730b1f90a6d,A
2019-10-28 01:17:09,68633d0c-ca83-4f5c-82c4-c730b1f90a6d,S
2019-10-28 01:20:42,68633d0c-ca83-4f5c-82c4-c730b1f90a6d,A
2019-10-28 01:21:41,68633d0c-ca83-4f5c-82c4-c730b1f90a6d,S
2019-10-28 01:25:08,68633d0c-ca83-4f5c-82c4-c730b1f90a6d,A
2019-10-28 01:27:06,68633d0c-ca83-4f5c-82c4-c730b1f90a6d,S
2019-10-28 01:27:48,68633d0c-ca83-4f5c-82c4-c730b1f90a6d,A
2019-10-28 01:34:56,68633d0c-ca83-4f5c-82c4-c730b1f90a6d,S
2019-10-28 01:37:20,68633d0c-ca83-4f5c-82c4-c730b1f90a6d,A
2019-10-28 01:51:11,68633d0c-ca83-4f5c-82c4-c730b1f90a6d,S
2019-10-28 01:54:11,68633d0c-ca83-4f5c-82c4-c730b1f90a6d,A
2019-10-28 00:04:22,f1c7a0cc-287f-46e7-a31c-1cdf6dc820d2,S
2019-10-28 00:12:01,f1c7a0cc-287f-46e7-a31c-1cdf6dc820d2,A
2019-10-28 00:13:57,f1c7a0cc-287f-46e7-a31c-1cdf6dc820d2,S
2019-10-28 00:25:15,f1c7a0cc-287f-46e7-a31c-1cdf6dc820d2,A
2019-10-28 00:27:04,f1c7a0cc-287f-46e7-a31c-1cdf6dc820d2,S
2019-10-28 00:27:46,f1c7a0cc-287f-46e7-a31c-1cdf6dc820d2,A
2019-10-28 00:37:17,f1c7a0cc-287f-46e7-a31c-1cdf6dc820d2,S
2019-10-28 00:40:32,f1c7a0cc-287f-46e7-a31c-1cdf6dc820d2,A
2019-10-28 00:41:08,f1c7a0cc-287f-46e7-a31c-1cdf6dc820d2,S
2019-10-28 00:41:39,f1c7a0cc-287f-46e7-a31c-1cdf6dc820d2,A
2019-10-28 00:46:43,f1c7a0cc-287f-46e7-a31c-1cdf6dc820d2,S
2019-10-28 00:47:08,f1c7a0cc-287f-46e7-a31c-1cdf6dc820d2,A
2019-10-28 00:47:31,f1c7a0cc-287f-46e7-a31c-1cdf6dc820d2,S
2019-10-28 00:48:15,f1c7a0cc-287f-46e7-a31c-1cdf6dc820d2,A
2019-10-28 00:50:07,f1c7a0cc-287f-46e7-a31c-1cdf6dc820d2,S
2019-10-28 00:50:59,f1c7a0cc-287f-46e7-a31c-1cdf6dc820d2,A
2019-10-28 01:01:33,f1c7a0cc-287f-46e7-a31c-1cdf6dc820d2,S
2019-10-28 01:02:45,f1c7a0cc-287f-46e7-a31c-1cdf6dc820d2,A
2019-10-28 01:09:37,f1c7a0cc-287f-46e7-a31c-1cdf6dc820d2,S
2019-10-28 01:18:18,f1c7a0cc-287f-46e7-a31c-1cdf6dc820d2,A
2019-10-28 01:21:25,f1c7a0cc-287f-46e7-a31c-1cdf6dc820d2,S
2019-10-28 01:25:01,f1c7a0cc-287f-46e7-a31c-1cdf6dc820d2,A
2019-10-28 01:25:17,f1c7a0cc-287f-46e7-a31c-1cdf6dc820d2,S
2019-10-28 01:32:22,f1c7a0cc-287f-46e7-a31c-1cdf6dc820d2,A
2019-10-28 01:32:30,f1c7a0cc-287f-46e7-a31c-1cdf6dc820d2,S
2019-10-28 01:32:55,f1c7a0cc-287f-46e7-a31c-1cdf6dc820d2,A
2019-10-28 01:33:33,f1c7a0cc-287f-46e7-a31c-1cdf6dc820d2,S
2019-10-28 01:35:38,f1c7a0cc-287f-46e7-a31c-1cdf6dc820d2,A
2019-10-28 01:35:41,f1c7a0cc-287f-46e7-a31c-1cdf6dc820d2,S
2019-10-28 01:47:27,f1c7a0cc-287f-46e7-a31c-1cdf6dc820d2,A
2019-10-28 01:50:51,f1c7a0cc-287f-46e7-a31c-1cdf6dc820d2,S
2019-10-28 01:52:43,f1c7a0cc-287f-46e7-a31c-1cdf6dc820d2,A
2019-10-28 00:33:21,f29a9e32-9e6b-430a-b018-1a56cb6d4a72,S
2019-10-28 00:46:55,f29a9e32-9e6b-430a-b018-1a56cb6d4a72,A
2019-10-28 00:23:11,669b66d7-0780-4133-83f5-afdfd88e509e,S
2019-10-28 00:25:06,669b66d7-0780-4133-83f5-afdfd88e509e,A
2019-10-28 00:28:15,669b66d7-0780-4133-83f5-afdfd88e509e,S
2019-10-28 00:28:44,669b66d7-0780-4133-83f5-afdfd88e509e,A
2019-10-28 00:31:52,669b66d7-0780-4133-83f5-afdfd88e509e,S
2019-10-28 00:33:53,669b66d7-0780-4133-83f5-afdfd88e509e,A
2019-10-28 00:38:09,669b66d7-0780-4133-83f5-afdfd88e509e,S
2019-10-28 00:39:06,669b66d7-0780-4133-83f5-afdfd88e509e,A
2019-10-28 00:39:55,669b66d7-0780-4133-83f5-afdfd88e509e,S
2019-10-28 00:47:22,669b66d7-0780-4133-83f5-afdfd88e509e,A
2019-10-28 00:49:35,669b66d7-0780-4133-83f5-afdfd88e509e,S
2019-10-28 00:53:07,669b66d7-0780-4133-83f5-afdfd88e509e,A
2019-10-28 01:01:23,669b66d7-0780-4133-83f5-afdfd88e509e,S
2019-10-28 01:08:48,669b66d7-0780-4133-83f5-afdfd88e509e,A
2019-10-28 01:10:50,669b66d7-0780-4133-83f5-afdfd88e509e,S
2019-10-28 01:13:35,669b66d7-0780-4133-83f5-afdfd88e509e,A
2019-10-28 01:14:39,669b66d7-0780-4133-83f5-afdfd88e509e,S
2019-10-28 01:15:58,669b66d7-0780-4133-83f5-afdfd88e509e,A
2019-10-28 01:17:30,669b66d7-0780-4133-83f5-afdfd88e509e,S
2019-10-28 01:25:37,669b66d7-0780-4133-83f5-afdfd88e509e,A
2019-10-28 01:25:47,669b66d7-0780-4133-83f5-afdfd88e509e,S
2019-10-28 01:25:59,669b66d7-0780-4133-83f5-afdfd88e509e,A
2019-10-28 01:29:50,669b66d7-0780-4133-83f5-afdfd88e509e,S
2019-10-28 01:32:14,669b66d7-0780-4133-83f5-afdfd88e509e,A
2019-10-28 01:32:58,669b66d7-0780-4133-83f5-afdfd88e509e,S
2019-10-28 01:34:16,669b66d7-0780-4133-83f5-afdfd88e509e,A
2019-10-28 01:35:10,669b66d7-0780-4133-83f5-afdfd88e509e,S
2019-10-28 01:43:32,669b66d7-0780-4133-83f5-afdfd88e509e,A
2019-10-28 01:44:45,669b66d7-0780-4133-83f5-afdfd88e509e,S
2019-10-28 01:53:44,669b66d7-0780-4133-83f5-afdfd88e509e,A
2019-10-27 23:46:54,7546f3a1-9361-4d7e-927a-9f43468a743e,A
2019-10-28 00:02:57,7546f3a1-9361-4d7e-927a-9f43468a743e,S
2019-10-28 00:06:11,7546f3a1-9361-4d7e-927a-9f43468a743e,A
2019-10-28 00:08:57,7546f3a1-9361-4d7e-927a-9f43468a743e,S
2019-10-28 00:09:27,7546f3a1-9361-4d7e-927a-9f43468a743e,A
2019-10-28 00:23:25,7546f3a1-9361-4d7e-927a-9f43468a743e,S
2019-10-28 00:26:54,7546f3a1-9361-4d7e-927a-9f43468a743e,A
2019-10-28 00:29:46,7546f3a1-9361-4d7e-927a-9f43468a743e,S
2019-10-28 00:33:46,7546f3a1-9361-4d7e-927a-9f43468a743e,A
2019-10-28 00:47:10,7546f3a1-9361-4d7e-927a-9f43468a743e,S
2019-10-28 00:47:20,7546f3a1-9361-4d7e-927a-9f43468a743e,A
2019-10-28 00:56:02,7546f3a1-9361-4d7e-927a-9f43468a743e,S
2019-10-28 01:00:19,7546f3a1-9361-4d7e-927a-9f43468a743e,A
2019-10-28 01:06:55,7546f3a1-9361-4d7e-927a-9f43468a743e,S
2019-10-28 01:09:27,7546f3a1-9361-4d7e-927a-9f43468a743e,A
2019-10-28 01:20:38,7546f3a1-9361-4d7e-927a-9f43468a743e,S
2019-10-28 01:22:33,7546f3a1-9361-4d7e-927a-9f43468a743e,A
2019-10-28 01:23:30,7546f3a1-9361-4d7e-927a-9f43468a743e,S
2019-10-28 01:26:23,7546f3a1-9361-4d7e-927a-9f43468a743e,A
2019-10-28 01:32:22,7546f3a1-9361-4d7e-927a-9f43468a743e,S
2019-10-28 01:41:10,7546f3a1-9361-4d7e-927a-9f43468a743e,A
2019-10-28 01:44:13,7546f3a1-9361-4d7e-927a-9f43468a743e,S
2019-10-28 01:46:04,7546f3a1-9361-4d7e-927a-9f43468a743e,A
2019-10-28 01:48:13,7546f3a1-9361-4d7e-927a-9f43468a743e,S
2019-10-28 00:04:52,905237c7-0f94-4f58-b28e-912f267630f8,A
2019-10-28 00:08:33,905237c7-0f94-4f58-b28e-912f267630f8,S
2019-10-28 00:11:53,905237c7-0f94-4f58-b28e-912f267630f8,A
2019-10-28 00:13:32,905237c7-0f94-4f58-b28e-912f267630f8,S
2019-10-28 00:29:03,905237c7-0f94-4f58-b28e-912f267630f8,A
2019-10-28 00:30:47,905237c7-0f94-4f58-b28e-912f267630f8,S
2019-10-28 00:31:10,905237c7-0f94-4f58-b28e-912f267630f8,A
2019-10-28 00:52:58,905237c7-0f94-4f58-b28e-912f267630f8,S
2019-10-28 01:00:08,905237c7-0f94-4f58-b28e-912f267630f8,A
2019-10-28 01:04:29,905237c7-0f94-4f58-b28e-912f267630f8,S
2019-10-28 01:05:09,905237c7-0f94-4f58-b28e-912f267630f8,A
2019-10-28 01:09:24,905237c7-0f94-4f58-b28e-912f267630f8,S
2019-10-28 01:11:14,905237c7-0f94-4f58-b28e-912f267630f8,A
2019-10-28 01:13:56,905237c7-0f94-4f58-b28e-912f267630f8,S
2019-10-28 01:23:11,905237c7-0f94-4f58-b28e-912f267630f8,A
2019-10-28 01:30:47,905237c7-0f94-4f58-b28e-912f267630f8,S
2019-10-28 01:35:44,905237c7-0f94-4f58-b28e-912f267630f8,A
2019-10-28 01:42:21,905237c7-0f94-4f58-b28e-912f267630f8,S
2019-10-28 00:30:50,7328507d-010d-40f8-8a16-fe81e2702df2,A
2019-10-28 00:35:56,7328507d-010d-40f8-8a16-fe81e2702df2,S
2019-10-28 00:37:00,7328507d-010d-40f8-8a16-fe81e2702df2,A
2019-10-28 00:38:55,7328507d-010d-40f8-8a16-fe81e2702df2,S
2019-10-28 00:46:30,7328507d-010d-40f8-8a16-fe81e2702df2,A
2019-10-28 00:47:55,7328507d-010d-40f8-8a16-fe81e2702df2,S
2019-10-28 00:57:48,7328507d-010d-40f8-8a16-fe81e2702df2,A
2019-10-28 00:59:37,7328507d-010d-40f8-8a16-fe81e2702df2,S
2019-10-28 01:04:30,7328507d-010d-40f8-8a16-fe81e2702df2,A
2019-10-28 01:08:55,7328507d-010d-40f8-8a16-fe81e2702df2,S
2019-10-28 01:17:39,7328507d-010d-40f8-8a16-fe81e2702df2,A
2019-10-28 01:19:10,7328507d-010d-40f8-8a16-fe81e2702df2,S
2019-10-28 01:21:04,7328507d-010d-40f8-8a16-fe81e2702df2,A
2019-10-28 01:23:31,7328507d-010d-40f8-8a16-fe81e2702df2,S
2019-10-28 01:27:45,7328507d-010d-40f8-8a16-fe81e2702df2,A
2019-10-28 01:33:34,7328507d-010d-40f8-8a16-fe81e2702df2,S
2019-10-28 01:39:04,7328507d-010d-40f8-8a16-fe81e2702df2,A
2019-10-28 01:48:17,7328507d-010d-40f8-8a16-fe81e2702df2,S
2019-10-27 23:49:22,b446cba9-7fa6-4c3f-8468-90770fb4b86b,A
2019-10-27 23:52:50,b446cba9-7fa6-4c3f-8468-90770fb4b86b,S
2019-10-28 00:01:24,b446cba9-7fa6-4c3f-8468-90770fb4b86b,A
2019-10-28 00:04:27,b446cba9-7fa6-4c3f-8468-90770fb4b86b,S
2019-10-28 00:04:43,b446cba9-7fa6-4c3f-8468-90770fb4b86b,A
2019-10-28 00:07:12,b446cba9-7fa6-4c3f-8468-90770fb4b86b,S
2019-10-28 00:12:32,b446cba9-7fa6-4c3f-8468-90770fb4b86b,A
2019-10-28 00:16:27,b446cba9-7fa6-4c3f-8468-90770fb4b86b,S
2019-10-28 00:19:11,b446cba9-7fa6-4c3f-8468-90770fb4b86b,A
2019-10-28 00:29:59,b446cba9-7fa6-4c3f-8468-90770fb4b86b,S
2019-10-28 00:35:37,b446cba9-7fa6-4c3f-8468-90770fb4b86b,A
2019-10-28 00:58:11,b446cba9-7fa6-4c3f-8468-90770fb4b86b,S
2019-10-28 01:22:32,b446cba9-7fa6-4c3f-8468-90770fb4b86b,A
2019-10-28 01:29:06,b446cba9-7fa6-4c3f-8468-90770fb4b86b,S
2019-10-28 01:32:33,b446cba9-7fa6-4c3f-8468-90770fb4b86b,A
2019-10-28 01:35:27,b446cba9-7fa6-4c3f-8468-90770fb4b86b,S
2019-10-28 01:40:12,b446cba9-7fa6-4c3f-8468-90770fb4b86b,A
2019-10-28 01:53:16,b446cba9-7fa6-4c3f-8468-90770fb4b86b,S
2019-10-28 01:54:49,b446cba9-7fa6-4c3f-8468-90770fb4b86b,A
2019-10-28 00:35:06,3dfab841-f38b-4593-b4e4-d4278e9ddf80,S
2019-10-28 00:36:20,3dfab841-f38b-4593-b4e4-d4278e9ddf80,A
2019-10-28 00:42:05,3dfab841-f38b-4593-b4e4-d4278e9ddf80,S
2019-10-28 00:55:25,3dfab841-f38b-4593-b4e4-d4278e9ddf80,A
2019-10-28 01:03:10,3dfab841-f38b-4593-b4e4-d4278e9ddf80,S
2019-10-28 01:05:41,3dfab841-f38b-4593-b4e4-d4278e9ddf80,A
2019-10-28 01:22:03,3dfab841-f38b-4593-b4e4-d4278e9ddf80,S
2019-10-28 01:28:10,3dfab841-f38b-4593-b4e4-d4278e9ddf80,A
2019-10-28 01:42:59,3dfab841-f38b-4593-b4e4-d4278e9ddf80,S
2019-10-28 01:48:13,3dfab841-f38b-4593-b4e4-d4278e9ddf80,A
2019-10-28 01:50:47,3dfab841-f38b-4593-b4e4-d4278e9ddf80,S
2019-10-28 01:54:12,3dfab841-f38b-4593-b4e4-d4278e9ddf80,A
2019-10-27 23:56:17,927c1b07-baf5-4e76-82ca-45a2f3f81875,S
2019-10-28 00:00:23,927c1b07-baf5-4e76-82ca-45a2f3f81875,A
2019-10-28 00:10:47,927c1b07-baf5-4e76-82ca-45a2f3f81875,S
2019-10-28 00:12:21,927c1b07-baf5-4e76-82ca-45a2f3f81875,A
2019-10-28 00:19:51,927c1b07-baf5-4e76-82ca-45a2f3f81875,S
2019-10-28 00:20:06,927c1b07-baf5-4e76-82ca-45a2f3f81875,A
2019-10-28 00:21:31,927c1b07-baf5-4e76-82ca-45a2f3f81875,S
2019-10-28 00:38:48,927c1b07-baf5-4e76-82ca-45a2f3f81875,A
2019-10-28 00:44:34,927c1b07-baf5-4e76-82ca-45a2f3f81875,S
2019-10-28 00:48:09,927c1b07-baf5-4e76-82ca-45a2f3f81875,A
2019-10-28 00:51:21,927c1b07-baf5-4e76-82ca-45a2f3f81875,S
2019-10-28 00:51:37,927c1b07-baf5-4e76-82ca-45a2f3f81875,A
2019-10-28 01:10:12,927c1b07-baf5-4e76-82ca-45a2f3f81875,S
2019-10-28 01:10:38,927c1b07-baf5-4e76-82ca-45a2f3f81875,A
2019-10-28 01:13:29,927c1b07-baf5-4e76-82ca-45a2f3f81875,S
2019-10-28 01:27:02,927c1b07-baf5-4e76-82ca-45a2f3f81875,A
2019-10-28 01:30:20,927c1b07-baf5-4e76-82ca-45a2f3f81875,S
2019-10-28 01:32:47,927c1b07-baf5-4e76-82ca-45a2f3f81875,A
2019-10-28 01:33:25,927c1b07-baf5-4e76-82ca-45a2f3f81875,S
2019-10-28 01:38:38,927c1b07-baf5-4e76-82ca-45a2f3f81875,A
2019-10-28 01:43:18,927c1b07-baf5-4e76-82ca-45a2f3f81875,S
2019-10-28 01:47:15,927c1b07-baf5-4e76-82ca-45a2f3f81875,A
2019-10-28 01:49:07,927c1b07-baf5-4e76-82ca-45a2f3f81875,S
2019-10-28 01:50:05,927c1b07-baf5-4e76-82ca-45a2f3f81875,A
2019-10-28 00:15:57,9af2419e-77c6-4b0c-b40c-d4942bc2a12f,S
2019-10-28 00:20:07,9af2419e-77c6-4b0c-b40c-d4942bc2a12f,A
2019-10-28 00:27:34,9af2419e-77c6-4b0c-b40c-d4942bc2a12f,S
2019-10-28 00:31:47,9af2419e-77c6-4b0c-b40c-d4942bc2a12f,A
2019-10-28 00:32:01,9af2419e-77c6-4b0c-b40c-d4942bc2a12f,S
2019-10-28 00:41:30,9af2419e-77c6-4b0c-b40c-d4942bc2a12f,A
2019-10-28 00:44:30,9af2419e-77c6-4b0c-b40c-d4942bc2a12f,S
2019-10-28 00:45:58,9af2419e-77c6-4b0c-b40c-d4942bc2a12f,A
2019-10-28 00:47:41,9af2419e-77c6-4b0c-b40c-d4942bc2a12f,S
2019-10-28 00:57:21,9af2419e-77c6-4b0c-b40c-d4942bc2a12f,A
2019-10-28 01:02:12,9af2419e-77c6-4b0c-b40c-d4942bc2a12f,S
2019-10-28 01:03:55,9af2419e-77c6-4b0c-b40c-d4942bc2a12f,A
2019-10-28 01:04:51,9af2419e-77c6-4b0c-b40c-d4942bc2a12f,S
2019-10-28 01:10:19,9af2419e-77c6-4b0c-b40c-d4942bc2a12f,A
2019-10-28 01:14:54,9af2419e-77c6-4b0c-b40c-d4942bc2a12f,S
2019-10-28 01:19:35,9af2419e-77c6-4b0c-b40c-d4942bc2a12f,A
2019-10-28 01:27:35,9af2419e-77c6-4b0c-b40c-d4942bc2a12f,S
2019-10-28 01:32:47,9af2419e-77c6-4b0c-b40c-d4942bc2a12f,A
2019-10-28 01:36:07,9af2419e-77c6-4b0c-b40c-d4942bc2a12f,S
2019-10-28 01:48:53,9af2419e-77c6-4b0c-b40c-d4942bc2a12f,A
2019-10-27 23:55:16,ac798d93-e886-4a3b-878f-217667e756a4,S
2019-10-28 00:00:13,ac798d93-e886-4a3b-878f-217667e756a4,A
2019-10-28 00:00:35,ac798d93-e886-4a3b-878f-217667e756a4,S
2019-10-28 00:05:20,ac798d93-e886-4a3b-878f-217667e756a4,A
2019-10-28 00:10:17,ac798d93-e886-4a3b-878f-217667e756a4,S
2019-10-28 00:12:19,ac798d93-e886-4a3b-878f-217667e756a4,A
2019-10-28 00:22:24,ac798d93-e886-4a3b-878f-217667e756a4,S
2019-10-28 00:25:05,ac798d93-e886-4a3b-878f-217667e756a4,A
2019-10-28 00:26:00,ac798d93-e886-4a3b-878f-217667e756a4,S
2019-10-28 00:34:01,ac798d93-e886-4a3b-878f-217667e756a4,A
2019-10-28 00:42:50,ac798d93-e886-4a3b-878f-217667e756a4,S
2019-10-28 00:45:00,ac798d93-e886-4a3b-878f-217667e756a4,A
2019-10-28 00:45:09,ac798d93-e886-4a3b-878f-217667e756a4,S
2019-10-28 01:04:26,ac798d93-e886-4a3b-878f-217667e756a4,A
2019-10-28 01:06:39,ac798d93-e886-4a3b-878f-217667e756a4,S
2019-10-28 01:24:14,ac798d93-e886-4a3b-878f-217667e756a4,A
2019-10-28 01:34:25,ac798d93-e886-4a3b-878f-217667e756a4,S
2019-10-28 01:50:16,ac798d93-e886-4a3b-878f-217667e756a4,A
2019-10-28 01:51:29,ac798d93-e886-4a3b-878f-217667e756a4,S
2019-10-28 00:17:27,ef356120-524c-4a55-8e58-175e8486c8e4,S
2019-10-28 00:18:09,ef356120-524c-4a55-8e58-175e8486c8e4,A
2019-10-28 00:33:49,ef356120-524c-4a55-8e58-175e8486c8e4,S
2019-10-28 00:41:04,ef356120-524c-4a55-8e58-175e8486c8e4,A
2019-10-28 00:41:26,ef356120-524c-4a55-8e58-175e8486c8e4,S
2019-10-28 00:41:55,ef356120-524c-4a55-8e58-175e8486c8e4,A
2019-10-28 00:43:02,ef356120-524c-4a55-8e58-175e8486c8e4,S
2019-10-28 00:50:50,ef356120-524c-4a55-8e58-175e8486c8e4,A
2019-10-28 00:53:19,ef356120-524c-4a55-8e58-175e8486c8e4,S
2019-10-28 00:54:18,ef356120-524c-4a55-8e58-175e8486c8e4,A
2019-10-28 00:59:16,ef356120-524c-4a55-8e58-175e8486c8e4,S
2019-10-28 01:02:42,ef356120-524c-4a55-8e58-175e8486c8e4,A
2019-10-28 01:10:25,ef356120-524c-4a55-8e58-175e8486c8e4,S
2019-10-28 01:13:57,ef356120-524c-4a55-8e58-175e8486c8e4,A
2019-10-28 01:15:01,ef356120-524c-4a55-8e58-175e8486c8e4,S
2019-10-28 01:16:19,ef356120-524c-4a55-8e58-175e8486c8e4,A
2019-10-28 01:25:28,ef356120-524c-4a55-8e58-175e8486c8e4,S
2019-10-28 01:26:35,ef356120-524c-4a55-8e58-175e8486c8e4,A
2019-10-28 01:29:12,ef356120-524c-4a55-8e58-175e8486c8e4,S
2019-10-28 01:31:19,ef356120-524c-4a55-8e58-175e8486c8e4,A
2019-10-28 01:39:52,ef356120-524c-4a55-8e58-175e8486c8e4,S
2019-10-28 01:42:05,ef356120-524c-4a55-8e58-175e8486c8e4,A
2019-10-28 01:47:03,ef356120-524c-4a55-8e58-175e8486c8e4,S
2019-10-28 01:50:30,ef356120-524c-4a55-8e58-175e8486c8e4,A
2019-10-28 01:51:05,ef356120-524c-4a55-8e58-175e8486c8e4,S
2019-10-28 01:52:37,ef356120-524c-4a55-8e58-175e8486c8e4,A
2019-10-27 23:55:09,858e43b6-4aa3-4875-b2dc-e3095c7f21cc,S
2019-10-27 23:58:37,858e43b6-4aa3-4875-b2dc-e3095c7f21cc,A
2019-10-28 00:04:39,858e43b6-4aa3-4875-b2dc-e3095c7f21cc,S
2019-10-28 00:14:36,858e43b6-4aa3-4875-b2dc-e3095c7f21cc,A
2019-10-28 00:34:44,858e43b6-4aa3-4875-b2dc-e3095c7f21cc,S
2019-10-28 00:40:40,858e43b6-4aa3-4875-b2dc-e3095c7f21cc,A
2019-10-28 00:51:29,858e43b6-4aa3-4875-b2dc-e3095c7f21cc,S
2019-10-28 00:56:55,858e43b6-4aa3-4875-b2dc-e3095c7f21cc,A
2019-10-28 01:01:11,858e43b6-4aa3-4875-b2dc-e3095c7f21cc,S
2019-10-28 01:06:45,858e43b6-4aa3-4875-b2dc-e3095c7f21cc,A
2019-10-28 01:06:56,858e43b6-4aa3-4875-b2dc-e3095c7f21cc,S
2019-10-28 01:08:40,858e43b6-4aa3-4875-b2dc-e3095c7f21cc,A
2019-10-28 01:14:35,858e43b6-4aa3-4875-b2dc-e3095c7f21cc,S
2019-10-28 01:16:17,858e43b6-4aa3-4875-b2dc-e3095c7f21cc,A
2019-10-28 01:20:49,858e43b6-4aa3-4875-b2dc-e3095c7f21cc,S
2019-10-28 01:24:23,858e43b6-4aa3-4875-b2dc-e3095c7f21cc,A
2019-10-28 01:29:42,858e43b6-4aa3-4875-b2dc-e3095c7f21cc,S
2019-10-28 01:37:25,858e43b6-4aa3-4875-b2dc-e3095c7f21cc,A
2019-10-28 00:13:47,d4ddb968-71ee-4f39-849f-00abc8691d25,S
2019-10-28 00:18:05,d4ddb968-71ee-4f39-849f-00abc8691d25,A
2019-10-28 00:31:48,d4ddb968-71ee-4f39-849f-00abc8691d25,S
2019-10-28 00:32:12,d4ddb968-71ee-4f39-849f-00abc8691d25,A
2019-10-28 00:36:48,d4ddb968-71ee-4f39-849f-00abc8691d25,S
2019-10-28 00:40:07,d4ddb968-71ee-4f39-849f-00abc8691d25,A
2019-10-28 00:43:13,d4ddb968-71ee-4f39-849f-00abc8691d25,S
2019-10-28 00:47:45,d4ddb968-71ee-4f39-849f-00abc8691d25,A
2019-10-28 00:50:58,d4ddb968-71ee-4f39-849f-00abc8691d25,S
2019-10-28 00:54:35,d4ddb968-71ee-4f39-849f-00abc8691d25,A
2019-10-28 01:10:26,d4ddb968-71ee-4f39-849f-00abc8691d25,S
2019-10-28 01:14:43,d4ddb968-71ee-4f39-849f-00abc8691d25,A
2019-10-28 01:15:05,d4ddb968-71ee-4f39-849f-00abc8691d25,S
2019-10-28 01:20:11,d4ddb968-71ee-4f39-849f-00abc8691d25,A
2019-10-28 01:27:30,d4ddb968-71ee-4f39-849f-00abc8691d25,S
2019-10-28 01:40:37,d4ddb968-71ee-4f39-849f-00abc8691d25,A
2019-10-28 01:41:38,d4ddb968-71ee-4f39-849f-00abc8691d25,S
2019-10-28 00:17:35,7d5bccff-ae90-4625-b03d-9c1b695de885,A
2019-10-28 00:29:06,7d5bccff-ae90-4625-b03d-9c1b695de885,S
2019-10-28 00:39:02,7d5bccff-ae90-4625-b03d-9c1b695de885,A
2019-10-28 00:44:29,7d5bccff-ae90-4625-b03d-9c1b695de885,S
2019-10-28 00:45:12,7d5bccff-ae90-4625-b03d-9c1b695de885,A
2019-10-28 00:46:09,7d5bccff-ae90-4625-b03d-9c1b695de885,S
2019-10-28 00:48:06,7d5bccff-ae90-4625-b03d-9c1b695de885,A
2019-10-28 00:49:27,7d5bccff-ae90-4625-b03d-9c1b695de885,S
2019-10-28 00:56:46,7d5bccff-ae90-4625-b03d-9c1b695de885,A
2019-10-28 00:58:40,7d5bccff-ae90-4625-b03d-9c1b695de885,S
2019-10-28 01:00:23,7d5bccff-ae90-4625-b03d-9c1b695de885,A
2019-10-28 01:15:47,7d5bccff-ae90-4625-b03d-9c1b695de885,S
2019-10-28 01:21:41,7d5bccff-ae90-4625-b03d-9c1b695de885,A
2019-10-28 01:26:14,7d5bccff-ae90-4625-b03d-9c1b695de885,S
2019-10-28 01:27:17,7d5bccff-ae90-4625-b03d-9c1b695de885,A
2019-10-28 01:29:37,7d5bccff-ae90-4625-b03d-9c1b695de885,S
2019-10-28 01:33:17,7d5bccff-ae90-4625-b03d-9c1b695de885,A
2019-10-28 01:35:18,7d5bccff-ae90-4625-b03d-9c1b695de885,S
2019-10-28 01:35:25,7d5bccff-ae90-4625-b03d-9c1b695de885,A
2019-10-28 01:44:32,7d5bccff-ae90-4625-b03d-9c1b695de885,S
2019-10-28 01:50:51,7d5bccff-ae90-4625-b03d-9c1b695de885,A
2019-10-28 01:51:57,7d5bccff-ae90-4625-b03d-9c1b695de885,S
2019-10-28 01:52:50,7d5bccff-ae90-4625-b03d-9c1b695de885,A
2019-10-28 01:55:48,7d5bccff-ae90-4625-b03d-9c1b695de885,S
2019-10-28 00:26:48,e9c38982-3d66-4edf-adbb-dcbedf01c745,A
2019-10-28 00:25:53,defd6588-ba71-48e8-87f0-9c3d84be6233,S
2019-10-28 00:27:48,defd6588-ba71-48e8-87f0-9c3d84be6233,A
2019-10-28 00:28:17,defd6588-ba71-48e8-87f0-9c3d84be6233,S
2019-10-28 00:36:35,defd6588-ba71-48e8-87f0-9c3d84be6233,A
2019-10-28 00:39:27,defd6588-ba71-48e8-87f0-9c3d84be6233,S
2019-10-28 00:45:48,defd6588-ba71-48e8-87f0-9c3d84be6233,A
2019-10-28 00:50:24,defd6588-ba71-48e8-87f0-9c3d84be6233,S
2019-10-28 00:51:38,defd6588-ba71-48e8-87f0-9c3d84be6233,A
2019-10-28 01:00:21,defd6588-ba71-48e8-87f0-9c3d84be6233,S
2019-10-28 01:01:56,defd6588-ba71-48e8-87f0-9c3d84be6233,A
2019-10-28 01:09:57,defd6588-ba71-48e8-87f0-9c3d84be6233,S
2019-10-28 01:10:10,defd6588-ba71-48e8-87f0-9c3d84be6233,A
2019-10-28 01:16:45,defd6588-ba71-48e8-87f0-9c3d84be6233,S
2019-10-28 01:21:39,defd6588-ba71-48e8-87f0-9c3d84be6233,A
2019-10-28 01:22:34,defd6588-ba71-48e8-87f0-9c3d84be6233,S
2019-10-28 01:24:31,defd6588-ba71-48e8-87f0-9c3d84be6233,A
2019-10-28 01:24:33,defd6588-ba71-48e8-87f0-9c3d84be6233,S
2019-10-28 01:25:53,defd6588-ba71-48e8-87f0-9c3d84be6233,A
2019-10-28 01:28:39,defd6588-ba71-48e8-87f0-9c3d84be6233,S
2019-10-28 01:36:05,defd6588-ba71-48e8-87f0-9c3d84be6233,A
2019-10-28 01:37:38,defd6588-ba71-48e8-87f0-9c3d84be6233,S
2019-10-28 01:38:14,defd6588-ba71-48e8-87f0-9c3d84be6233,A
2019-10-28 01:45:16,defd6588-ba71-48e8-87f0-9c3d84be6233,S
2019-10-28 01:48:45,defd6588-ba71-48e8-87f0-9c3d84be6233,A
2019-10-28 01:56:52,defd6588-ba71-48e8-87f0-9c3d84be6233,S
2019-10-27 23:55:49,3b35c954-5768-4944-848d-486a972ba400,S
2019-10-28 00:11:56,3b35c954-5768-4944-848d-486a972ba400,A
2019-10-28 00:13:09,3b35c954-5768-4944-848d-486a972ba400,S
2019-10-28 00:17:58,3b35c954-5768-4944-848d-486a972ba400,A
2019-10-28 00:19:03,3b35c954-5768-4944-848d-486a972ba400,S
2019-10-28 00:21:51,3b35c954-5768-4944-848d-486a972ba400,A
2019-10-28 00:27:03,3b35c954-5768-4944-848d-486a972ba400,S
2019-10-28 00:29:13,3b35c954-5768-4944-848d-486a972ba400,A
2019-10-28 00:32:42,3b35c954-5768-4944-848d-486a972ba400,S
2019-10-28 00:38:17,3b35c954-5768-4944-848d-486a972ba400,A
2019-10-28 00:48:48,3b35c954-5768-4944-848d-486a972ba400,S
2019-10-28 00:54:28,3b35c954-5768-4944-848d-486a972ba400,A
2019-10-28 00:56:26,3b35c954-5768-4944-848d-486a972ba400,S
2019-10-28 00:58:28,3b35c954-5768-4944-848d-486a972ba400,A
2019-10-28 01:06:45,3b35c954-5768-4944-848d-486a972ba400,S
2019-10-28 01:08:55,3b35c954-5768-4944-848d-486a972ba400,A
2019-10-28 01:13:49,3b35c954-5768-4944-848d-486a972ba400,S
2019-10-28 01:16:48,3b35c954-5768-4944-848d-486a972ba400,A
2019-10-28 01:17:55,3b35c954-5768-4944-848d-486a972ba400,S
2019-10-28 01:22:51,3b35c954-5768-4944-848d-486a972ba400,A
2019-10-28 01:25:43,3b35c954-5768-4944-848d-486a972ba400,S
2019-10-28 01:29:32,3b35c954-5768-4944-848d-486a972ba400,A
2019-10-28 01:31:53,3b35c954-5768-4944-848d-486a972ba400,S
2019-10-28 01:35:39,3b35c954-5768-4944-848d-486a972ba400,A
2019-10-28 01:41:04,3b35c954-5768-4944-848d-486a972ba400,S
2019-10-28 01:42:11,3b35c954-5768-4944-848d-486a972ba400,A
2019-10-28 01:47:55,3b35c954-5768-4944-848d-486a972ba400,S
2019-10-28 01:48:53,3b35c954-5768-4944-848d-486a972ba400,A
2019-10-28 01:50:23,3b35c954-5768-4944-848d-486a972ba400,S
2019-10-28 01:50:55,3b35c954-5768-4944-848d-486a972ba400,A
2019-10-28 01:54:14,3b35c954-5768-4944-848d-486a972ba400,S
2019-10-28 01:55:43,3b35c954-5768-4944-848d-486a972ba400,A
2019-10-28 00:13:45,422e21a2-7482-4195-8b8d-60410ee87fb8,A
2019-10-28 00:32:38,422e21a2-7482-4195-8b8d-60410ee87fb8,S
2019-10-28 00:32:59,422e21a2-7482-4195-8b8d-60410ee87fb8,A
2019-10-28 00:35:43,422e21a2-7482-4195-8b8d-60410ee87fb8,S
2019-10-28 00:39:44,422e21a2-7482-4195-8b8d-60410ee87fb8,A
2019-10-28 00:40:13,422e21a2-7482-4195-8b8d-60410ee87fb8,S
2019-10-28 00:43:15,422e21a2-7482-4195-8b8d-60410ee87fb8,A
2019-10-28 00:44:53,422e21a2-7482-4195-8b8d-60410ee87fb8,S
2019-10-28 00:59:22,422e21a2-7482-4195-8b8d-60410ee87fb8,A
2019-10-28 01:00:59,422e21a2-7482-4195-8b8d-60410ee87fb8,S
2019-10-28 01:01:05,422e21a2-7482-4195-8b8d-60410ee87fb8,A
2019-10-28 01:03:25,422e21a2-7482-4195-8b8d-60410ee87fb8,S
2019-10-28 01:03:32,422e21a2-7482-4195-8b8d-60410ee87fb8,A
2019-10-28 01:05:35,422e21a2-7482-4195-8b8d-60410ee87fb8,S
2019-10-28 01:09:36,422e21a2-7482-4195-8b8d-60410ee87fb8,A
2019-10-27 23:59:41,70a970c9-0be6-4fc0-b462-f49785eeb707,A
2019-10-28 00:02:32,70a970c9-0be6-4fc0-b462-f49785eeb707,S
2019-10-28 00:07:39,70a970c9-0be6-4fc0-b462-f49785eeb707,A
2019-10-28 00:23:06,70a970c9-0be6-4fc0-b462-f49785eeb707,S
2019-10-28 00:32:09,70a970c9-0be6-4fc0-b462-f49785eeb707,A
2019-10-28 00:41:52,70a970c9-0be6-4fc0-b462-f49785eeb707,S
2019-10-28 00:50:22,70a970c9-0be6-4fc0-b462-f49785eeb707,A
2019-10-28 00:51:08,70a970c9-0be6-4fc0-b462-f49785eeb707,S
2019-10-28 00:51:27,70a970c9-0be6-4fc0-b462-f49785eeb707,A
2019-10-28 01:00:06,70a970c9-0be6-4fc0-b462-f49785eeb707,S
2019-10-28 01:03:05,70a970c9-0be6-4fc0-b462-f49785eeb707,A
2019-10-28 01:03:07,70a970c9-0be6-4fc0-b462-f49785eeb707,S
2019-10-28 01:04:19,70a970c9-0be6-4fc0-b462-f49785eeb707,A
2019-10-28 01:06:08,70a970c9-0be6-4fc0-b462-f49785eeb707,S
2019-10-28 01:07:59,70a970c9-0be6-4fc0-b462-f49785eeb707,A
2019-10-28 01:08:58,70a970c9-0be6-4fc0-b462-f49785eeb707,S
2019-10-28 01:10:41,70a970c9-0be6-4fc0-b462-f49785eeb707,A
2019-10-28 01:19:57,70a970c9-0be6-4fc0-b462-f49785eeb707,S
2019-10-28 01:22:04,70a970c9-0be6-4fc0-b462-f49785eeb707,A
2019-10-28 01:23:02,70a970c9-0be6-4fc0-b462-f49785eeb707,S
2019-10-28 01:25:29,70a970c9-0be6-4fc0-b462-f49785eeb707,A
2019-10-28 01:34:15,70a970c9-0be6-4fc0-b462-f49785eeb707,S
2019-10-28 01:36:32,70a970c9-0be6-4fc0-b462-f49785eeb707,A
2019-10-28 01:41:24,70a970c9-0be6-4fc0-b462-f49785eeb707,S
2019-10-28 01:41:32,70a970c9-0be6-4fc0-b462-f49785eeb707,A
2019-10-28 01:42:10,70a970c9-0be6-4fc0-b462-f49785eeb707,S
2019-10-28 01:45:40,70a970c9-0be6-4fc0-b462-f49785eeb707,A
2019-10-28 01:47:06,70a970c9-0be6-4fc0-b462-f49785eeb707,S
2019-10-28 01:52:45,70a970c9-0be6-4fc0-b462-f49785eeb707,A
2019-10-28 01:53:14,70a970c9-0be6-4fc0-b462-f49785eeb707,S
