actor,node
535360db-4e59-4b61-a88f-99c6652537e6,90442c01-da15-4948-ba58-2567be5602bf
089a5067-d765-42fa-a499-4a008c2285f1,f66d6857-edc9-4bcd-abc0-2bfb5dd8b32b
91702f1c-a9c3-4195-9c31-bb0d14283ace,f66d6857-edc9-4bcd-abc0-2bfb5dd8b32b
9e519949-bc53-47ac-9770-336075d24c33,358a7d3b-2e29-4f1d-b95e-91c80b51e0c3
2b59ed6e-f69e-4583-9c14-d309d8bda8a0,32ac500f-4790-4fe8-9dc2-b63e40dffbc5
0dbf8a66-e6e0-4ed8-ab6f-1f1cba2b93e3,32ac500f-4790-4fe8-9dc2-b63e40dffbc5
e4ae4317-6646-4ba2-b003-bae01a3409ae,969f31c9-415a-4008-ad22-c97b6b4e725d
764572c0-6236-4636-87b8-437ec9b5aae0,5d52bdcd-36ff-45f3-b9a3-0d6497bfabfd
422292ed-825f-4b22-bfd7-916fee61579d,5d52bdcd-36ff-45f3-b9a3-0d6497bfabfd
ffd0221d-3ad2-4546-87e7-fe824b6f16ed,ae74abca-9dc4-478a-a120-bb1a7736729f
71087063-a580-4a3f-9114-c8f7ef0d8d01,ecb3ce46-5414-4893-865f-f10bab0a9bc4
a37d18d6-840b-40f7-a1e1-1da81adddc67,ae74abca-9dc4-478a-a120-bb1a7736729f
182713bf-0f70-4147-8ca7-6b7f00d38f52,b76565bc-7ef8-4cf6-94c0-e10eeb652a16
602490dd-59a8-44cd-b33d-eab7269809c1,b76565bc-7ef8-4cf6-94c0-e10eeb652a16
5924e8b7-fb04-454b-ae31-5e7a4aa72e80,72d7ccb5-36cc-4af0-b427-c6fe19db6b91
6d9187dc-771a-45b4-a64c-338fd7e123c5,4c018004-6e7a-4994-bbfc-d79b7a1327a2
62a7d767-f917-49fc-a18d-1ecc521ab242,4c018004-6e7a-4994-bbfc-d79b7a1327a2
f1c9d604-1ff5-426a-89e1-5ee6f47232a8,3ab94322-3669-4c9c-a57a-61d4fe1f8086
709d17c1-bf95-4997-893f-4bb8ea13e09b,91641562-448f-44e9-a1ab-17dcf4649bff
bf3290c7-283d-4f5d-b383-de6251af02a0,91641562-448f-44e9-a1ab-17dcf4649bff
8aab139f-40e3-4293-b7a1-c60ee8f0b8cc,2ae9e595-5cd1-4ab5-819d-c375d3700330
6e9f021f-7a95-4029-88e0-41c3923b86bb,01e76e56-4eaa-4afd-ac3a-761b8c42fe76
15e9ff77-3009-4f2d-a3a1-25c354bef4e3,0126da18-dd57-42b2-b1f5-dc2a29b55ee5
6615af19-3ed7-4f1c-a608-55e0b10f1ac3,0126da18-dd57-42b2-b1f5-dc2a29b55ee5
80b6d640-1a2e-4b7c-b908-258288060483,16a29f65-ed95-481d-be56-feff3af532b7
3d99700b-45e8-4667-bcc2-ea7f8c719ad2,16a29f65-ed95-481d-be56-feff3af532b7
b1b5b13b-a013-4356-a29d-efc75d1df1e4,b2bcaaf6-eb88-4fca-98fb-39936b6ac745
5495088a-afa8-4454-9965-23604894815d,2582c687-4be2-4c7f-8fed-8054c60e8531
7320061e-284d-41fb-b828-51f49abe0cbf,e397ebc3-c5ca-4583-9130-48850cef16cf
5d43d93a-27ec-4dd7-8352-bd007e68acb9,e397ebc3-c5ca-4583-9130-48850cef16cf
53c21e15-eb05-493e-925e-f2c274fc9f56,0bfbfdab-5e91-4476-82c9-adad3769e1ab
10c7d8a6-5b7d-4925-80a7-d30536aa3205,1cece3e0-9969-4cd6-acd0-7b011ae9bbc2
e6349c99-4ad5-4ea9-ab0d-3c5b7b366ca6,1cece3e0-9969-4cd6-acd0-7b011ae9bbc2
f9254417-b954-4d7a-8a40-ea77e260ff1b,d234a7d7-d5f3-44ea-8946-72af61bd4414
fd4c652e-078b-468f-98c8-a09f81022a5e,e9cf3ddd-6927-40eb-bd5b-1b032e632b62
e569162e-38cd-4502-b005-1e91fd96d8bc,e9cf3ddd-6927-40eb-bd5b-1b032e632b62
8cfbb672-6410-4e64-9194-bd019614fe0d,8806d9d9-fff6-4fc6-8a6e-56020dd22ddb
f356c3ee-28ba-4542-907e-0fa65c80a90b,8806d9d9-fff6-4fc6-8a6e-56020dd22ddb
2047d844-ccde-40b8-a19e-fee46051a173,ae604623-fa7c-4399-aa23-006d7d7dc735
359f8039-b82c-444f-bc0a-ffe363281473,0d38d7a5-cdc3-4df9-a816-dbfef97f2764
f875f1c8-4488-471a-8977-9d30cc20d6d7,5eccc601-6525-479b-98c5-7b5832d3d067
89e63198-af00-437e-98ec-54fb225de891,5eccc601-6525-479b-98c5-7b5832d3d067
371c11c6-22e3-4cb3-9c96-7e8cd5a3cbfc,014b3e02-bac2-4c8a-a5ff-bed2c5851171
0babbcec-ab19-4441-8cc4-fae24a3fd140,69beb7d1-5fe7-48be-9a4f-b11cbc274ca0
e9ad670a-ce8d-42b0-801a-51373cd3809c,014b3e02-bac2-4c8a-a5ff-bed2c5851171
b687303e-88e4-4934-b484-b5e5ae7c4084,682af9ba-06c2-4d80-8d0c-09d0f28978ba
65b13de1-c129-4d99-b362-9fe256f23edb,f66d6857-edc9-4bcd-abc0-2bfb5dd8b32b
86af2472-15be-4d93-8616-83cc4847c515,f66d6857-edc9-4bcd-abc0-2bfb5dd8b32b
d37f77a8-3950-490f-af40-f0fb9db94341,4090cc6f-afb0-4bb6-91c4-cf77f3e6945a
ffef4191-c915-4a41-ace5-6a9c645b2e43,32ac500f-4790-4fe8-9dc2-b63e40dffbc5
589833c2-6356-4756-ac59-625683e6a68d,32ac500f-4790-4fe8-9dc2-b63e40dffbc5
803c1734-88b4-4293-bc7c-58bf8f14fc62,497cc4c4-70cd-45a3-bd54-2bba5bd57672
804b07a7-ad9c-46b9-b12b-a78edcfffe76,5d52bdcd-36ff-45f3-b9a3-0d6497bfabfd
a3479388-dc50-45b7-8266-802489f1dab1,5d52bdcd-36ff-45f3-b9a3-0d6497bfabfd
8e3aaa15-e910-48ad-b0ac-c72dfea3188c,2c1c69ee-c3b4-40c3-8ac5-4262eb3e5994
df1f11ff-0a4e-45f9-b06c-360b20ceaf3b,ae74abca-9dc4-478a-a120-bb1a7736729f
bd7e3420-c2a6-4058-ab26-7e66efcc2f7c,ae74abca-9dc4-478a-a120-bb1a7736729f
56872ee4-4ab2-47a7-89b9-08548419af33,b76565bc-7ef8-4cf6-94c0-e10eeb652a16
86ed5627-6aad-4e54-8fa8-b0e6598bbcde,67147f00-20f9-4d1a-bdc2-3bda98779906
4378563f-31ad-4830-81e4-53cd06dfd7a1,b76565bc-7ef8-4cf6-94c0-e10eeb652a16
4abba1da-1725-41e6-b1a3-ff870d43dd79,4c018004-6e7a-4994-bbfc-d79b7a1327a2
72d99a1c-1543-457c-b8d2-383eef66bd0c,d791726f-c53f-496d-86b7-76efc6661e78
61840473-151b-4d6d-aa90-ef693b67433e,4c018004-6e7a-4994-bbfc-d79b7a1327a2
5abdf9c6-97f9-4124-b754-68fc51471c7b,91641562-448f-44e9-a1ab-17dcf4649bff
449d9325-9c67-48d1-b0bc-132a6e1f3ab0,91641562-448f-44e9-a1ab-17dcf4649bff
62cb84e8-b2ae-467a-9ef4-af6913b5a374,5512c1ea-5d5c-4641-8090-3a65c00da928
058a1e03-e25e-4381-9c5f-1e67b83876c2,0126da18-dd57-42b2-b1f5-dc2a29b55ee5
ab018e7d-5be8-4af3-81a0-974de1e40d0c,0126da18-dd57-42b2-b1f5-dc2a29b55ee5
b1b030f7-c85e-46e6-b9e1-77a39971325e,704e0976-24ac-4ddd-8e6e-c1f873b8d04e
c5956ea8-951a-4d8c-ac19-02031baf2268,16a29f65-ed95-481d-be56-feff3af532b7
311ce40b-7923-4fa4-8cab-582396b919f2,16a29f65-ed95-481d-be56-feff3af532b7
db5a07ef-00eb-4675-80d1-ef1950ad4549,4b3c5b78-fd3c-45dc-bf67-38c239d31446
a0d6c7a4-52dd-4cf1-adfe-b8053e0478da,e397ebc3-c5ca-4583-9130-48850cef16cf
144ad058-5898-4b4f-820a-1101d02478c3,e396467b-c83b-4459-97e1-5fa1d359da9a
2ce1601b-5141-4ca0-bab5-aadb9cfb0b2a,e397ebc3-c5ca-4583-9130-48850cef16cf
21745566-480d-4001-9001-2383ffefd049,1cece3e0-9969-4cd6-acd0-7b011ae9bbc2
3eef53de-fb6e-4684-9f39-b0f1bb51d1b9,187c91ec-2fcc-497e-a09c-702da1b2ef95
1ce873ac-4526-4f38-b1d7-83b82098336f,1cece3e0-9969-4cd6-acd0-7b011ae9bbc2
a562e7a1-9c31-4a8d-8e90-140b441140ad,e9cf3ddd-6927-40eb-bd5b-1b032e632b62
ad22eda3-97a4-4322-afc1-c6fd14dee322,1400bdd0-1d77-4f4e-8bd0-695d6b2ee734
40e0f3f7-4ff3-4cb2-bff3-bfb0c7f2e5ed,e9cf3ddd-6927-40eb-bd5b-1b032e632b62
a8ec893b-fa69-4e0c-a004-db7d159e8556,8806d9d9-fff6-4fc6-8a6e-56020dd22ddb
30079297-0131-463b-93e2-e1c479c1902b,8806d9d9-fff6-4fc6-8a6e-56020dd22ddb
8cfebeb9-430a-45ec-b1ef-0b6a7f3f9d26,8f807a34-02d2-4f2b-a4ac-1ad4b98462e8
c108ae3b-d24a-460a-804c-3b46eacc5aa8,5eccc601-6525-479b-98c5-7b5832d3d067
c8e80074-a337-4c1e-89cc-3531e5b18f1b,fc97274d-717b-4e10-9de6-d452c822402e
08ec9eeb-183f-4dfc-b35b-38461f8516ac,5eccc601-6525-479b-98c5-7b5832d3d067
7e20c8e4-43c2-43cb-ba22-00fc6afb9295,014b3e02-bac2-4c8a-a5ff-bed2c5851171
eb94f637-6fe9-4cbe-8750-dd03681ed608,b65c5efc-bfed-4f16-81a9-c602f6cf4c4e
99feb5ae-dea8-47cd-b7e7-5d73e765756c,014b3e02-bac2-4c8a-a5ff-bed2c5851171
7320d877-bbf8-4977-92fb-26bcba64aa06,3f423477-737d-449d-be33-d8677d9065de
04dd5e4d-52e7-40ec-9d84-5e7ec464a546,f66d6857-edc9-4bcd-abc0-2bfb5dd8b32b
c5e13ec5-a8ab-4a44-b913-78cd0a2b3577,f66d6857-edc9-4bcd-abc0-2bfb5dd8b32b
a06f193b-12e0-438b-bdd2-292efecac877,32ac500f-4790-4fe8-9dc2-b63e40dffbc5
c3bd99d7-2fd0-4d92-a581-b0e9cfcfbbf5,32ac500f-4790-4fe8-9dc2-b63e40dffbc5
d8e4ae24-5bfb-4409-a6cd-6027e7f27a89,3bbcd325-e2fb-4c13-b7fc-f201809a9a6f
0ac59b24-eba6-443c-a1f7-d0e357b7ef52,5d52bdcd-36ff-45f3-b9a3-0d6497bfabfd
27edf32f-b9e9-443d-b441-624606579e3a,5d52bdcd-36ff-45f3-b9a3-0d6497bfabfd
3f4d263a-2b15-4809-84a3-da5db37593ca,32118364-6ca9-4b35-b152-a12ee99e60fd
f7714a1f-0acc-40d7-87c8-01de42e0be83,9fbf0966-960c-4d53-b022-a0c24465d428
b355e434-10d0-42fb-a125-54f03748ccc3,ae74abca-9dc4-478a-a120-bb1a7736729f
b013c50e-97d7-4879-9287-c6cb1c2ac3fd,ae74abca-9dc4-478a-a120-bb1a7736729f
8c8135bc-916c-41a0-ac27-9fb1a232a8d6,b76565bc-7ef8-4cf6-94c0-e10eeb652a16
4f2e925b-f0df-43e9-afe6-92f71033d7cc,b76565bc-7ef8-4cf6-94c0-e10eeb652a16
72352a7c-7b8c-4bdf-ab73-c766860f9bd5,b69e3a7c-5a9d-4444-9083-6b4c3277534f
39002a5a-97ce-42f2-8600-c575ee257993,b0b59937-827a-43b1-b226-060ca523b3a4
a4f183e4-fc92-4fe3-8c2a-7d737a8e0ebf,4c018004-6e7a-4994-bbfc-d79b7a1327a2
69c21b11-57e1-4c3a-b676-51071101fb9a,4c018004-6e7a-4994-bbfc-d79b7a1327a2
ae99e9fa-fde4-4a22-a4d2-300e4b6f4357,645a2a54-8f4e-4f11-ba99-d54d58e44caf
71fd0225-a583-418b-b5ac-344705b5e526,91641562-448f-44e9-a1ab-17dcf4649bff
50c89a88-4896-4237-9546-ce3e849043e6,91641562-448f-44e9-a1ab-17dcf4649bff
70ca48b6-dffb-418f-a438-15dda06810df,4ec2fc43-b78f-4fe0-a76d-50278257d74f
8a4f8f98-e64b-4d19-a883-c43f2e40f6f9,0126da18-dd57-42b2-b1f5-dc2a29b55ee5
045a85da-3888-412e-a22d-4d0a33ab366b,0126da18-dd57-42b2-b1f5-dc2a29b55ee5
76f300e2-b972-406a-b57b-a3dd6dde7545,16a29f65-ed95-481d-be56-feff3af532b7
fabaeb2c-bae8-4cbe-912f-9909a6534aa7,16a29f65-ed95-481d-be56-feff3af532b7
9efd2832-3454-4f9f-85fd-8fec4b95580b,5648b6ac-d7b9-4847-b515-bfa999c29882
e4197108-196c-47fd-ba4a-69e209ea5c8e,93aaa86d-afd1-4ef3-86bf-35d4c3692b6c
eadc5ec2-1a0e-4aa1-834c-df653395f071,e397ebc3-c5ca-4583-9130-48850cef16cf
9c85ef9b-eddc-4637-9257-dc9a04afe3ac,e397ebc3-c5ca-4583-9130-48850cef16cf
90978686-c7d2-408c-b3fd-3d654b9b15a6,1cece3e0-9969-4cd6-acd0-7b011ae9bbc2
51035186-e3b8-4a0d-a666-280cf1f6a8ac,8ba404bd-6eff-4ca6-8672-ca534a7934e4
5b008084-e01e-4518-a543-6de03be8ebdf,1cece3e0-9969-4cd6-acd0-7b011ae9bbc2
084646fb-b8c1-4533-bb9d-0a631c351252,f5b1e34d-f8d0-42aa-a4d2-9fd910f9bcd7
b888af7b-303a-4e5c-be0e-47d7e1b6be16,e9cf3ddd-6927-40eb-bd5b-1b032e632b62
748b6182-226b-474e-95cd-f9cc6e03dba0,e9cf3ddd-6927-40eb-bd5b-1b032e632b62
1264e673-e6f0-4128-b7c6-f5299f6af417,8806d9d9-fff6-4fc6-8a6e-56020dd22ddb
62225f3f-480b-444c-ab2b-20aeb24e8fdf,2a471a27-69e2-4cba-9c35-d3604d73bf8e
adcdbb81-df5a-4045-9a52-c4f194f4d999,8806d9d9-fff6-4fc6-8a6e-56020dd22ddb
6e25f537-e44f-469c-b420-1f2fe2097f7c,5eccc601-6525-479b-98c5-7b5832d3d067
7297ea7e-a3b2-43af-9746-6fc0116203cb,9d93c42f-583b-40b0-95dd-1fd6fd1e2b1d
5421388b-e861-4f31-94ac-948da3792486,5eccc601-6525-479b-98c5-7b5832d3d067
019760be-531c-4fdd-8fc9-17004c0d9087,43e8af06-faa7-499e-83c8-36c31ef23bdd
a228cbf4-5aa8-4f41-9668-412750e45bc3,014b3e02-bac2-4c8a-a5ff-bed2c5851171
9154d391-88b2-4ef4-a7b7-1f8adea3e7ea,014b3e02-bac2-4c8a-a5ff-bed2c5851171
d4948d81-2818-4380-9ae2-7f33d727ff66,f66d6857-edc9-4bcd-abc0-2bfb5dd8b32b
0686a661-5b91-446c-8726-e6701a076041,f66d6857-edc9-4bcd-abc0-2bfb5dd8b32b
9f626d15-383b-4172-a311-2f994f4d67c2,cf79d371-e241-48ec-8648-ff2e46896f7d
30ede476-8f34-42e2-8f7e-bb7e350742f5,ac20a1f4-91b7-451e-bf0c-ab3a1fa6bc5f
a769d2c3-ab75-4a10-b807-6cb1891729cc,32ac500f-4790-4fe8-9dc2-b63e40dffbc5
39ddc90d-7768-486a-9d5a-d97aba74c72c,32ac500f-4790-4fe8-9dc2-b63e40dffbc5
01e1da05-33a7-47fb-aa17-d0c9aeb94344,5d52bdcd-36ff-45f3-b9a3-0d6497bfabfd
491fe140-a215-4596-b48b-7cf8b7310867,5d52bdcd-36ff-45f3-b9a3-0d6497bfabfd
5071fbaa-a5d1-419c-b3da-9d3fea7ea872,8ae0b2f2-f009-4cdc-8d5e-4becd84e150d
a15f91c9-a57a-4b51-a873-eb17458bd266,ae74abca-9dc4-478a-a120-bb1a7736729f
23c42f9b-9f69-43c9-9c05-971ef81ddf54,fcf11a78-ab8c-4ac0-b164-e40d6697a05e
082b9962-913c-4137-bb6d-2804fcf3171d,ae74abca-9dc4-478a-a120-bb1a7736729f
94066d8a-acd9-4b27-8434-d78c7a659dac,b76565bc-7ef8-4cf6-94c0-e10eeb652a16
6d2974b7-defa-48eb-9663-d889211c2e42,b76565bc-7ef8-4cf6-94c0-e10eeb652a16
5ada8e6a-8e17-4ad6-8cc7-4332350b5485,d409ff49-3367-45c6-b0d1-d6df1447c669
