node,ip,uuid
node-a8-199.grenoble.iot-lab.info,172.20.64.1,9fbf0966-960c-4d53-b022-a0c24465d428
node-a8-200.grenoble.iot-lab.info,172.20.64.2,90442c01-da15-4948-ba58-2567be5602bf
node-a8-201.grenoble.iot-lab.info,172.20.64.3,497cc4c4-70cd-45a3-bd54-2bba5bd57672
node-a8-202.grenoble.iot-lab.info,172.20.64.4,b69e3a7c-5a9d-4444-9083-6b4c3277534f
node-a8-204.grenoble.iot-lab.info,172.20.64.5,358a7d3b-2e29-4f1d-b95e-91c80b51e0c3
node-a8-205.grenoble.iot-lab.info,172.20.64.6,2c1c69ee-c3b4-40c3-8ac5-4262eb3e5994
node-a8-206.grenoble.iot-lab.info,172.20.64.7,b0b59937-827a-43b1-b226-060ca523b3a4
node-a8-207.grenoble.iot-lab.info,172.20.64.8,969f31c9-415a-4008-ad22-c97b6b4e725d
node-a8-208.grenoble.iot-lab.info,172.20.64.9,67147f00-20f9-4d1a-bdc2-3bda98779906
node-a8-209.grenoble.iot-lab.info,172.20.64.10,645a2a54-8f4e-4f11-ba99-d54d58e44caf
node-a8-210.grenoble.iot-lab.info,172.20.64.11,ecb3ce46-5414-4893-865f-f10bab0a9bc4
node-a8-211.grenoble.iot-lab.info,172.20.64.12,d791726f-c53f-496d-86b7-76efc6661e78
node-a8-212.grenoble.iot-lab.info,172.20.64.13,4ec2fc43-b78f-4fe0-a76d-50278257d74f
node-a8-214.grenoble.iot-lab.info,172.20.64.14,72d7ccb5-36cc-4af0-b427-c6fe19db6b91
node-a8-216.grenoble.iot-lab.info,172.20.64.15,5512c1ea-5d5c-4641-8090-3a65c00da928
node-a8-217.grenoble.iot-lab.info,172.20.64.16,5648b6ac-d7b9-4847-b515-bfa999c29882
node-a8-218.grenoble.iot-lab.info,172.20.64.17,3ab94322-3669-4c9c-a57a-61d4fe1f8086
node-a8-219.grenoble.iot-lab.info,172.20.64.18,704e0976-24ac-4ddd-8e6e-c1f873b8d04e
node-a8-220.grenoble.iot-lab.info,172.20.64.19,93aaa86d-afd1-4ef3-86bf-35d4c3692b6c
node-a8-221.grenoble.iot-lab.info,172.20.64.20,2ae9e595-5cd1-4ab5-819d-c375d3700330
node-a8-165.grenoble.iot-lab.info,172.20.64.21,4b3c5b78-fd3c-45dc-bf67-38c239d31446
node-a8-166.grenoble.iot-lab.info,172.20.64.22,8ba404bd-6eff-4ca6-8672-ca534a7934e4
node-a8-167.grenoble.iot-lab.info,172.20.64.23,01e76e56-4eaa-4afd-ac3a-761b8c42fe76
node-a8-168.grenoble.iot-lab.info,172.20.64.24,e396467b-c83b-4459-97e1-5fa1d359da9a
node-a8-169.grenoble.iot-lab.info,172.20.64.25,f5b1e34d-f8d0-42aa-a4d2-9fd910f9bcd7
node-a8-170.grenoble.iot-lab.info,172.20.64.26,b2bcaaf6-eb88-4fca-98fb-39936b6ac745
node-a8-171.grenoble.iot-lab.info,172.20.64.27,187c91ec-2fcc-497e-a09c-702da1b2ef95
node-a8-173.grenoble.iot-lab.info,172.20.64.28,2a471a27-69e2-4cba-9c35-d3604d73bf8e
node-a8-174.grenoble.iot-lab.info,172.20.64.29,2582c687-4be2-4c7f-8fed-8054c60e8531
node-a8-175.grenoble.iot-lab.info,172.20.64.30,1400bdd0-1d77-4f4e-8bd0-695d6b2ee734
node-a8-176.grenoble.iot-lab.info,172.20.64.31,9d93c42f-583b-40b0-95dd-1fd6fd1e2b1d
node-a8-177.grenoble.iot-lab.info,172.20.64.32,0bfbfdab-5e91-4476-82c9-adad3769e1ab
node-a8-179.grenoble.iot-lab.info,172.20.64.33,8f807a34-02d2-4f2b-a4ac-1ad4b98462e8
node-a8-180.grenoble.iot-lab.info,172.20.64.34,43e8af06-faa7-499e-83c8-36c31ef23bdd
node-a8-181.grenoble.iot-lab.info,172.20.64.35,d234a7d7-d5f3-44ea-8946-72af61bd4414
node-a8-182.grenoble.iot-lab.info,172.20.64.36,fc97274d-717b-4e10-9de6-d452c822402e
node-a8-183.grenoble.iot-lab.info,172.20.64.37,cf79d371-e241-48ec-8648-ff2e46896f7d
node-a8-184.grenoble.iot-lab.info,172.20.64.38,ae604623-fa7c-4399-aa23-006d7d7dc735
node-a8-185.grenoble.iot-lab.info,172.20.64.39,b65c5efc-bfed-4f16-81a9-c602f6cf4c4e
node-a8-187.grenoble.iot-lab.info,172.20.64.40,ac20a1f4-91b7-451e-bf0c-ab3a1fa6bc5f
node-a8-188.grenoble.iot-lab.info,172.20.64.41,0d38d7a5-cdc3-4df9-a816-dbfef97f2764
node-a8-189.grenoble.iot-lab.info,172.20.64.42,3f423477-737d-449d-be33-d8677d9065de
node-a8-190.grenoble.iot-lab.info,172.20.64.43,8ae0b2f2-f009-4cdc-8d5e-4becd84e150d
node-a8-191.grenoble.iot-lab.info,172.20.64.44,69beb7d1-5fe7-48be-9a4f-b11cbc274ca0
node-a8-192.grenoble.iot-lab.info,172.20.64.45,3bbcd325-e2fb-4c13-b7fc-f201809a9a6f
node-a8-193.grenoble.iot-lab.info,172.20.64.46,fcf11a78-ab8c-4ac0-b164-e40d6697a05e
node-a8-194.grenoble.iot-lab.info,172.20.64.47,682af9ba-06c2-4d80-8d0c-09d0f28978ba
node-a8-195.grenoble.iot-lab.info,172.20.64.48,32118364-6ca9-4b35-b152-a12ee99e60fd
node-a8-197.grenoble.iot-lab.info,172.20.64.49,d409ff49-3367-45c6-b0d1-d6df1447c669
node-a8-198.grenoble.iot-lab.info,172.20.64.50,4090cc6f-afb0-4bb6-91c4-cf77f3e6945a
uvb-22.sophia.grid5000.fr,172.16.132.22,cddb8820-c0c9-4fbb-bdb6-c12b6eb61e2b
uvb-28.sophia.grid5000.fr,172.16.132.28,f66d6857-edc9-4bcd-abc0-2bfb5dd8b32b
uvb-33.sophia.grid5000.fr,172.16.132.33,32ac500f-4790-4fe8-9dc2-b63e40dffbc5
uvb-34.sophia.grid5000.fr,172.16.132.34,5d52bdcd-36ff-45f3-b9a3-0d6497bfabfd
uvb-35.sophia.grid5000.fr,172.16.132.35,ae74abca-9dc4-478a-a120-bb1a7736729f
uvb-36.sophia.grid5000.fr,172.16.132.36,b76565bc-7ef8-4cf6-94c0-e10eeb652a16
uvb-37.sophia.grid5000.fr,172.16.132.37,4c018004-6e7a-4994-bbfc-d79b7a1327a2
uvb-38.sophia.grid5000.fr,172.16.132.38,91641562-448f-44e9-a1ab-17dcf4649bff
uvb-4.sophia.grid5000.fr,172.16.132.4,e9cf3ddd-6927-40eb-bd5b-1b032e632b62
uvb-41.sophia.grid5000.fr,172.16.132.41,0126da18-dd57-42b2-b1f5-dc2a29b55ee5
uvb-42.sophia.grid5000.fr,172.16.132.42,16a29f65-ed95-481d-be56-feff3af532b7
uvb-43.sophia.grid5000.fr,172.16.132.43,e397ebc3-c5ca-4583-9130-48850cef16cf
uvb-44.sophia.grid5000.fr,172.16.132.44,1cece3e0-9969-4cd6-acd0-7b011ae9bbc2
uvb-5.sophia.grid5000.fr,172.16.132.5,8806d9d9-fff6-4fc6-8a6e-56020dd22ddb
uvb-6.sophia.grid5000.fr,172.16.132.6,5eccc601-6525-479b-98c5-7b5832d3d067
uvb-8.sophia.grid5000.fr,172.16.132.8,014b3e02-bac2-4c8a-a5ff-bed2c5851171
