date,trigger,state
2019-10-26 22:45:09,66fb318d-c570-4d84-a126-a1e31f2a7c3b,S
2019-10-26 22:54:54,66fb318d-c570-4d84-a126-a1e31f2a7c3b,A
2019-10-26 22:56:19,66fb318d-c570-4d84-a126-a1e31f2a7c3b,S
2019-10-26 23:04:32,66fb318d-c570-4d84-a126-a1e31f2a7c3b,A
2019-10-26 23:05:24,66fb318d-c570-4d84-a126-a1e31f2a7c3b,S
2019-10-26 23:06:06,66fb318d-c570-4d84-a126-a1e31f2a7c3b,A
2019-10-26 23:09:33,66fb318d-c570-4d84-a126-a1e31f2a7c3b,S
2019-10-26 23:17:20,66fb318d-c570-4d84-a126-a1e31f2a7c3b,A
2019-10-26 23:17:34,66fb318d-c570-4d84-a126-a1e31f2a7c3b,S
2019-10-26 23:23:20,66fb318d-c570-4d84-a126-a1e31f2a7c3b,A
2019-10-26 23:25:56,66fb318d-c570-4d84-a126-a1e31f2a7c3b,S
2019-10-26 23:26:02,66fb318d-c570-4d84-a126-a1e31f2a7c3b,A
2019-10-26 23:29:09,66fb318d-c570-4d84-a126-a1e31f2a7c3b,S
2019-10-26 23:29:36,66fb318d-c570-4d84-a126-a1e31f2a7c3b,A
2019-10-26 23:41:19,66fb318d-c570-4d84-a126-a1e31f2a7c3b,S
2019-10-26 23:43:49,66fb318d-c570-4d84-a126-a1e31f2a7c3b,A
2019-10-26 23:46:43,66fb318d-c570-4d84-a126-a1e31f2a7c3b,S
2019-10-26 23:46:50,66fb318d-c570-4d84-a126-a1e31f2a7c3b,A
2019-10-26 23:51:06,66fb318d-c570-4d84-a126-a1e31f2a7c3b,S
2019-10-26 23:53:24,66fb318d-c570-4d84-a126-a1e31f2a7c3b,A
2019-10-27 00:01:06,66fb318d-c570-4d84-a126-a1e31f2a7c3b,S
2019-10-27 00:10:24,66fb318d-c570-4d84-a126-a1e31f2a7c3b,A
2019-10-27 00:14:45,66fb318d-c570-4d84-a126-a1e31f2a7c3b,S
2019-10-26 22:40:13,9ff707ad-b37e-4476-92e1-b215d9c7a378,S
2019-10-26 22:48:04,9ff707ad-b37e-4476-92e1-b215d9c7a378,A
2019-10-26 23:04:30,9ff707ad-b37e-4476-92e1-b215d9c7a378,S
2019-10-26 23:30:14,9ff707ad-b37e-4476-92e1-b215d9c7a378,A
2019-10-26 23:39:50,9ff707ad-b37e-4476-92e1-b215d9c7a378,S
2019-10-26 23:39:58,9ff707ad-b37e-4476-92e1-b215d9c7a378,A
2019-10-26 23:52:31,9ff707ad-b37e-4476-92e1-b215d9c7a378,S
2019-10-26 23:55:34,9ff707ad-b37e-4476-92e1-b215d9c7a378,A
2019-10-27 00:02:38,9ff707ad-b37e-4476-92e1-b215d9c7a378,S
2019-10-27 00:07:37,9ff707ad-b37e-4476-92e1-b215d9c7a378,A
2019-10-27 00:08:08,9ff707ad-b37e-4476-92e1-b215d9c7a378,S
2019-10-27 00:15:34,9ff707ad-b37e-4476-92e1-b215d9c7a378,A
2019-10-26 22:50:45,7f94b864-86a2-4ae1-8b4c-03ea6c900671,A
2019-10-26 22:52:00,7f94b864-86a2-4ae1-8b4c-03ea6c900671,S
2019-10-26 23:03:16,7f94b864-86a2-4ae1-8b4c-03ea6c900671,A
2019-10-26 23:13:33,7f94b864-86a2-4ae1-8b4c-03ea6c900671,S
2019-10-26 23:15:46,7f94b864-86a2-4ae1-8b4c-03ea6c900671,A
2019-10-26 23:20:18,7f94b864-86a2-4ae1-8b4c-03ea6c900671,S
2019-10-26 23:20:49,7f94b864-86a2-4ae1-8b4c-03ea6c900671,A
2019-10-26 23:28:01,7f94b864-86a2-4ae1-8b4c-03ea6c900671,S
2019-10-26 23:28:51,7f94b864-86a2-4ae1-8b4c-03ea6c900671,A
2019-10-26 23:34:13,7f94b864-86a2-4ae1-8b4c-03ea6c900671,S
2019-10-26 23:36:37,7f94b864-86a2-4ae1-8b4c-03ea6c900671,A
2019-10-26 23:37:21,7f94b864-86a2-4ae1-8b4c-03ea6c900671,S
2019-10-26 23:37:34,7f94b864-86a2-4ae1-8b4c-03ea6c900671,A
2019-10-26 23:39:28,7f94b864-86a2-4ae1-8b4c-03ea6c900671,S
2019-10-26 23:47:09,7f94b864-86a2-4ae1-8b4c-03ea6c900671,A
2019-10-26 23:54:58,7f94b864-86a2-4ae1-8b4c-03ea6c900671,S
2019-10-26 23:56:29,7f94b864-86a2-4ae1-8b4c-03ea6c900671,A
2019-10-26 23:59:06,7f94b864-86a2-4ae1-8b4c-03ea6c900671,S
2019-10-27 00:03:47,7f94b864-86a2-4ae1-8b4c-03ea6c900671,A
2019-10-26 23:13:41,69476aa1-faf9-41ce-ade9-6752be299108,A
2019-10-26 23:23:53,69476aa1-faf9-41ce-ade9-6752be299108,S
2019-10-26 23:29:03,69476aa1-faf9-41ce-ade9-6752be299108,A
2019-10-26 23:34:50,69476aa1-faf9-41ce-ade9-6752be299108,S
2019-10-26 23:43:42,69476aa1-faf9-41ce-ade9-6752be299108,A
2019-10-26 23:52:37,69476aa1-faf9-41ce-ade9-6752be299108,S
2019-10-27 00:09:55,69476aa1-faf9-41ce-ade9-6752be299108,A
2019-10-27 00:13:56,69476aa1-faf9-41ce-ade9-6752be299108,S
2019-10-27 00:15:39,69476aa1-faf9-41ce-ade9-6752be299108,A
2019-10-26 22:40:29,989a55bf-584d-4257-a18e-ffb0186539fb,A
2019-10-26 22:41:57,989a55bf-584d-4257-a18e-ffb0186539fb,S
2019-10-26 22:45:25,989a55bf-584d-4257-a18e-ffb0186539fb,A
2019-10-26 22:46:38,989a55bf-584d-4257-a18e-ffb0186539fb,S
2019-10-26 22:49:06,989a55bf-584d-4257-a18e-ffb0186539fb,A
2019-10-26 22:54:17,989a55bf-584d-4257-a18e-ffb0186539fb,S
2019-10-26 23:00:11,989a55bf-584d-4257-a18e-ffb0186539fb,A
2019-10-26 23:13:31,989a55bf-584d-4257-a18e-ffb0186539fb,S
2019-10-26 23:18:09,989a55bf-584d-4257-a18e-ffb0186539fb,A
2019-10-26 23:20:38,989a55bf-584d-4257-a18e-ffb0186539fb,S
2019-10-26 23:29:53,989a55bf-584d-4257-a18e-ffb0186539fb,A
2019-10-26 23:30:50,989a55bf-584d-4257-a18e-ffb0186539fb,S
2019-10-26 23:34:20,989a55bf-584d-4257-a18e-ffb0186539fb,A
2019-10-26 23:35:59,989a55bf-584d-4257-a18e-ffb0186539fb,S
2019-10-26 23:41:33,989a55bf-584d-4257-a18e-ffb0186539fb,A
2019-10-26 23:46:42,989a55bf-584d-4257-a18e-ffb0186539fb,S
2019-10-26 23:49:35,989a55bf-584d-4257-a18e-ffb0186539fb,A
2019-10-27 00:04:11,989a55bf-584d-4257-a18e-ffb0186539fb,S
2019-10-27 00:07:36,989a55bf-584d-4257-a18e-ffb0186539fb,A
2019-10-27 00:12:41,989a55bf-584d-4257-a18e-ffb0186539fb,S
2019-10-27 00:14:32,989a55bf-584d-4257-a18e-ffb0186539fb,A
2019-10-26 23:07:18,77d1e839-7dab-424a-9f13-139ce3b93f3b,S
2019-10-26 23:07:20,77d1e839-7dab-424a-9f13-139ce3b93f3b,A
2019-10-26 23:15:15,77d1e839-7dab-424a-9f13-139ce3b93f3b,S
2019-10-26 23:23:46,77d1e839-7dab-424a-9f13-139ce3b93f3b,A
2019-10-26 23:25:30,77d1e839-7dab-424a-9f13-139ce3b93f3b,S
2019-10-26 23:26:55,77d1e839-7dab-424a-9f13-139ce3b93f3b,A
2019-10-26 23:26:56,77d1e839-7dab-424a-9f13-139ce3b93f3b,S
2019-10-26 23:27:04,77d1e839-7dab-424a-9f13-139ce3b93f3b,A
2019-10-26 23:27:37,77d1e839-7dab-424a-9f13-139ce3b93f3b,S
2019-10-26 23:39:44,77d1e839-7dab-424a-9f13-139ce3b93f3b,A
2019-10-26 23:55:21,77d1e839-7dab-424a-9f13-139ce3b93f3b,S
2019-10-26 23:57:56,77d1e839-7dab-424a-9f13-139ce3b93f3b,A
2019-10-27 00:11:35,77d1e839-7dab-424a-9f13-139ce3b93f3b,S
2019-10-27 00:15:04,77d1e839-7dab-424a-9f13-139ce3b93f3b,A
2019-10-26 22:46:21,e04055b1-6fb8-4e04-b383-82d37ba887d9,S
2019-10-26 22:48:01,e04055b1-6fb8-4e04-b383-82d37ba887d9,A
2019-10-26 23:09:44,e04055b1-6fb8-4e04-b383-82d37ba887d9,S
2019-10-26 23:11:00,e04055b1-6fb8-4e04-b383-82d37ba887d9,A
2019-10-26 23:11:41,e04055b1-6fb8-4e04-b383-82d37ba887d9,S
2019-10-26 23:11:44,e04055b1-6fb8-4e04-b383-82d37ba887d9,A
2019-10-26 23:17:15,e04055b1-6fb8-4e04-b383-82d37ba887d9,S
2019-10-26 23:21:20,e04055b1-6fb8-4e04-b383-82d37ba887d9,A
2019-10-26 23:31:43,e04055b1-6fb8-4e04-b383-82d37ba887d9,S
2019-10-26 23:35:24,e04055b1-6fb8-4e04-b383-82d37ba887d9,A
2019-10-26 23:38:07,e04055b1-6fb8-4e04-b383-82d37ba887d9,S
2019-10-26 23:40:04,e04055b1-6fb8-4e04-b383-82d37ba887d9,A
2019-10-26 23:42:28,e04055b1-6fb8-4e04-b383-82d37ba887d9,S
2019-10-26 23:49:00,e04055b1-6fb8-4e04-b383-82d37ba887d9,A
2019-10-26 23:52:49,e04055b1-6fb8-4e04-b383-82d37ba887d9,S
2019-10-26 23:59:01,e04055b1-6fb8-4e04-b383-82d37ba887d9,A
2019-10-27 00:03:25,e04055b1-6fb8-4e04-b383-82d37ba887d9,S
2019-10-27 00:13:57,e04055b1-6fb8-4e04-b383-82d37ba887d9,A
2019-10-27 00:14:17,e04055b1-6fb8-4e04-b383-82d37ba887d9,S
2019-10-26 22:49:42,2b171411-a8b4-4b62-b41c-7eb6f68e8b7a,S
2019-10-26 22:50:18,2b171411-a8b4-4b62-b41c-7eb6f68e8b7a,A
2019-10-26 22:52:53,2b171411-a8b4-4b62-b41c-7eb6f68e8b7a,S
2019-10-26 22:58:02,2b171411-a8b4-4b62-b41c-7eb6f68e8b7a,A
2019-10-26 23:21:58,2b171411-a8b4-4b62-b41c-7eb6f68e8b7a,S
2019-10-26 23:25:59,2b171411-a8b4-4b62-b41c-7eb6f68e8b7a,A
2019-10-26 23:26:28,2b171411-a8b4-4b62-b41c-7eb6f68e8b7a,S
2019-10-26 23:34:07,2b171411-a8b4-4b62-b41c-7eb6f68e8b7a,A
2019-10-26 23:35:00,2b171411-a8b4-4b62-b41c-7eb6f68e8b7a,S
2019-10-26 23:38:20,2b171411-a8b4-4b62-b41c-7eb6f68e8b7a,A
2019-10-26 23:49:18,2b171411-a8b4-4b62-b41c-7eb6f68e8b7a,S
2019-10-26 23:49:44,2b171411-a8b4-4b62-b41c-7eb6f68e8b7a,A
2019-10-26 23:58:43,2b171411-a8b4-4b62-b41c-7eb6f68e8b7a,S
2019-10-27 00:00:39,2b171411-a8b4-4b62-b41c-7eb6f68e8b7a,A
2019-10-27 00:04:53,2b171411-a8b4-4b62-b41c-7eb6f68e8b7a,S
2019-10-27 00:10:57,2b171411-a8b4-4b62-b41c-7eb6f68e8b7a,A
2019-10-27 00:13:44,2b171411-a8b4-4b62-b41c-7eb6f68e8b7a,S
2019-10-27 00:14:23,2b171411-a8b4-4b62-b41c-7eb6f68e8b7a,A
2019-10-27 00:15:08,2b171411-a8b4-4b62-b41c-7eb6f68e8b7a,S
2019-10-26 22:46:18,98013fc2-fc76-4e7f-9229-4af7645e70a2,A
2019-10-26 22:47:36,98013fc2-fc76-4e7f-9229-4af7645e70a2,S
2019-10-26 22:56:39,98013fc2-fc76-4e7f-9229-4af7645e70a2,A
2019-10-26 22:58:52,98013fc2-fc76-4e7f-9229-4af7645e70a2,S
2019-10-26 22:59:32,98013fc2-fc76-4e7f-9229-4af7645e70a2,A
2019-10-26 22:59:40,98013fc2-fc76-4e7f-9229-4af7645e70a2,S
2019-10-26 23:04:39,98013fc2-fc76-4e7f-9229-4af7645e70a2,A
2019-10-26 23:07:51,98013fc2-fc76-4e7f-9229-4af7645e70a2,S
2019-10-26 23:09:18,98013fc2-fc76-4e7f-9229-4af7645e70a2,A
2019-10-26 23:19:23,98013fc2-fc76-4e7f-9229-4af7645e70a2,S
2019-10-26 23:21:04,98013fc2-fc76-4e7f-9229-4af7645e70a2,A
2019-10-26 23:27:57,98013fc2-fc76-4e7f-9229-4af7645e70a2,S
2019-10-26 23:31:00,98013fc2-fc76-4e7f-9229-4af7645e70a2,A
2019-10-26 23:37:30,98013fc2-fc76-4e7f-9229-4af7645e70a2,S
2019-10-26 23:44:19,98013fc2-fc76-4e7f-9229-4af7645e70a2,A
2019-10-26 23:56:14,98013fc2-fc76-4e7f-9229-4af7645e70a2,S
2019-10-26 23:56:33,98013fc2-fc76-4e7f-9229-4af7645e70a2,A
2019-10-27 00:11:57,98013fc2-fc76-4e7f-9229-4af7645e70a2,S
2019-10-27 00:14:49,98013fc2-fc76-4e7f-9229-4af7645e70a2,A
2019-10-27 00:16:49,98013fc2-fc76-4e7f-9229-4af7645e70a2,S
2019-10-26 23:02:05,290ba55f-872a-424b-9d95-c3d7dc57e506,S
2019-10-26 23:06:28,290ba55f-872a-424b-9d95-c3d7dc57e506,A
2019-10-26 23:07:26,290ba55f-872a-424b-9d95-c3d7dc57e506,S
2019-10-26 23:10:42,290ba55f-872a-424b-9d95-c3d7dc57e506,A
2019-10-26 23:11:06,290ba55f-872a-424b-9d95-c3d7dc57e506,S
2019-10-26 23:14:04,290ba55f-872a-424b-9d95-c3d7dc57e506,A
2019-10-26 23:18:04,290ba55f-872a-424b-9d95-c3d7dc57e506,S
2019-10-26 23:20:18,290ba55f-872a-424b-9d95-c3d7dc57e506,A
2019-10-26 23:22:24,290ba55f-872a-424b-9d95-c3d7dc57e506,S
2019-10-26 23:26:34,290ba55f-872a-424b-9d95-c3d7dc57e506,A
2019-10-26 23:31:12,290ba55f-872a-424b-9d95-c3d7dc57e506,S
2019-10-26 23:34:16,290ba55f-872a-424b-9d95-c3d7dc57e506,A
2019-10-26 23:36:26,290ba55f-872a-424b-9d95-c3d7dc57e506,S
2019-10-26 23:42:29,290ba55f-872a-424b-9d95-c3d7dc57e506,A
2019-10-26 23:44:59,290ba55f-872a-424b-9d95-c3d7dc57e506,S
2019-10-26 23:45:44,290ba55f-872a-424b-9d95-c3d7dc57e506,A
2019-10-26 23:45:47,290ba55f-872a-424b-9d95-c3d7dc57e506,S
2019-10-26 23:48:37,290ba55f-872a-424b-9d95-c3d7dc57e506,A
2019-10-26 23:56:53,290ba55f-872a-424b-9d95-c3d7dc57e506,S
2019-10-26 23:59:39,290ba55f-872a-424b-9d95-c3d7dc57e506,A
2019-10-26 23:59:42,290ba55f-872a-424b-9d95-c3d7dc57e506,S
2019-10-27 00:05:47,290ba55f-872a-424b-9d95-c3d7dc57e506,A
2019-10-27 00:10:10,290ba55f-872a-424b-9d95-c3d7dc57e506,S
2019-10-26 22:42:30,edb37726-6b45-4990-bfee-568e0f588947,A
2019-10-26 22:52:27,edb37726-6b45-4990-bfee-568e0f588947,S
2019-10-26 22:53:48,edb37726-6b45-4990-bfee-568e0f588947,A
2019-10-26 22:58:32,edb37726-6b45-4990-bfee-568e0f588947,S
2019-10-26 23:11:03,edb37726-6b45-4990-bfee-568e0f588947,A
2019-10-26 23:14:02,edb37726-6b45-4990-bfee-568e0f588947,S
2019-10-26 23:20:16,edb37726-6b45-4990-bfee-568e0f588947,A
2019-10-26 23:23:50,edb37726-6b45-4990-bfee-568e0f588947,S
2019-10-26 23:29:25,edb37726-6b45-4990-bfee-568e0f588947,A
2019-10-26 23:31:44,edb37726-6b45-4990-bfee-568e0f588947,S
2019-10-26 23:37:57,edb37726-6b45-4990-bfee-568e0f588947,A
2019-10-26 23:41:16,edb37726-6b45-4990-bfee-568e0f588947,S
2019-10-26 23:42:02,edb37726-6b45-4990-bfee-568e0f588947,A
2019-10-26 23:50:12,edb37726-6b45-4990-bfee-568e0f588947,S
2019-10-26 23:50:14,edb37726-6b45-4990-bfee-568e0f588947,A
2019-10-26 23:51:47,edb37726-6b45-4990-bfee-568e0f588947,S
2019-10-26 23:52:36,edb37726-6b45-4990-bfee-568e0f588947,A
2019-10-26 23:52:41,edb37726-6b45-4990-bfee-568e0f588947,S
2019-10-26 23:52:47,edb37726-6b45-4990-bfee-568e0f588947,A
2019-10-26 23:53:12,edb37726-6b45-4990-bfee-568e0f588947,S
2019-10-26 23:57:57,edb37726-6b45-4990-bfee-568e0f588947,A
2019-10-27 00:02:05,edb37726-6b45-4990-bfee-568e0f588947,S
2019-10-27 00:03:53,edb37726-6b45-4990-bfee-568e0f588947,A
2019-10-27 00:06:07,edb37726-6b45-4990-bfee-568e0f588947,S
2019-10-27 00:16:44,edb37726-6b45-4990-bfee-568e0f588947,A
2019-10-26 22:41:26,d62367e5-76f8-41e8-b5df-7f6b8f0fdb6c,S
2019-10-26 22:42:12,d62367e5-76f8-41e8-b5df-7f6b8f0fdb6c,A
2019-10-26 22:49:23,d62367e5-76f8-41e8-b5df-7f6b8f0fdb6c,S
2019-10-26 22:53:21,d62367e5-76f8-41e8-b5df-7f6b8f0fdb6c,A
2019-10-26 22:54:09,d62367e5-76f8-41e8-b5df-7f6b8f0fdb6c,S
2019-10-26 22:55:15,d62367e5-76f8-41e8-b5df-7f6b8f0fdb6c,A
2019-10-26 23:12:11,d62367e5-76f8-41e8-b5df-7f6b8f0fdb6c,S
2019-10-26 23:12:12,d62367e5-76f8-41e8-b5df-7f6b8f0fdb6c,A
2019-10-26 23:14:14,d62367e5-76f8-41e8-b5df-7f6b8f0fdb6c,S
2019-10-26 23:15:51,d62367e5-76f8-41e8-b5df-7f6b8f0fdb6c,A
2019-10-26 23:22:42,d62367e5-76f8-41e8-b5df-7f6b8f0fdb6c,S
2019-10-26 23:22:54,d62367e5-76f8-41e8-b5df-7f6b8f0fdb6c,A
2019-10-26 23:37:58,d62367e5-76f8-41e8-b5df-7f6b8f0fdb6c,S
2019-10-26 23:42:59,d62367e5-76f8-41e8-b5df-7f6b8f0fdb6c,A
2019-10-26 23:46:51,d62367e5-76f8-41e8-b5df-7f6b8f0fdb6c,S
2019-10-26 23:58:10,d62367e5-76f8-41e8-b5df-7f6b8f0fdb6c,A
2019-10-27 00:06:01,d62367e5-76f8-41e8-b5df-7f6b8f0fdb6c,S
2019-10-27 00:08:23,d62367e5-76f8-41e8-b5df-7f6b8f0fdb6c,A
2019-10-27 00:12:26,d62367e5-76f8-41e8-b5df-7f6b8f0fdb6c,S
2019-10-27 00:13:16,d62367e5-76f8-41e8-b5df-7f6b8f0fdb6c,A
2019-10-26 22:52:47,bad1e317-d0a3-4fcd-a597-1325053841d7,S
2019-10-26 23:13:56,bad1e317-d0a3-4fcd-a597-1325053841d7,A
2019-10-26 23:22:32,bad1e317-d0a3-4fcd-a597-1325053841d7,S
2019-10-26 23:45:47,bad1e317-d0a3-4fcd-a597-1325053841d7,A
2019-10-26 23:45:57,bad1e317-d0a3-4fcd-a597-1325053841d7,S
2019-10-26 23:49:09,bad1e317-d0a3-4fcd-a597-1325053841d7,A
2019-10-26 23:58:57,bad1e317-d0a3-4fcd-a597-1325053841d7,S
2019-10-27 00:04:50,bad1e317-d0a3-4fcd-a597-1325053841d7,A
2019-10-27 00:06:02,bad1e317-d0a3-4fcd-a597-1325053841d7,S
2019-10-27 00:12:27,bad1e317-d0a3-4fcd-a597-1325053841d7,A
2019-10-27 00:16:30,bad1e317-d0a3-4fcd-a597-1325053841d7,S
2019-10-26 22:52:41,1131dcdf-b864-4443-a7f3-5e6705510079,A
2019-10-26 22:58:04,1131dcdf-b864-4443-a7f3-5e6705510079,S
2019-10-26 23:07:33,1131dcdf-b864-4443-a7f3-5e6705510079,A
2019-10-26 23:10:59,1131dcdf-b864-4443-a7f3-5e6705510079,S
2019-10-26 23:14:32,1131dcdf-b864-4443-a7f3-5e6705510079,A
2019-10-26 23:25:37,1131dcdf-b864-4443-a7f3-5e6705510079,S
2019-10-26 23:32:05,1131dcdf-b864-4443-a7f3-5e6705510079,A
2019-10-26 23:42:55,1131dcdf-b864-4443-a7f3-5e6705510079,S
2019-10-26 23:44:48,1131dcdf-b864-4443-a7f3-5e6705510079,A
2019-10-26 23:45:05,1131dcdf-b864-4443-a7f3-5e6705510079,S
2019-10-27 00:00:24,1131dcdf-b864-4443-a7f3-5e6705510079,A
2019-10-27 00:02:02,1131dcdf-b864-4443-a7f3-5e6705510079,S
2019-10-27 00:06:07,1131dcdf-b864-4443-a7f3-5e6705510079,A
2019-10-27 00:07:52,1131dcdf-b864-4443-a7f3-5e6705510079,S
2019-10-27 00:12:52,1131dcdf-b864-4443-a7f3-5e6705510079,A
2019-10-26 22:56:42,33c53e25-bd2b-40f7-be73-4f30262c190e,S
2019-10-26 23:00:11,33c53e25-bd2b-40f7-be73-4f30262c190e,A
2019-10-26 23:01:37,33c53e25-bd2b-40f7-be73-4f30262c190e,S
2019-10-26 23:15:48,33c53e25-bd2b-40f7-be73-4f30262c190e,A
2019-10-26 23:21:29,33c53e25-bd2b-40f7-be73-4f30262c190e,S
2019-10-26 23:39:49,33c53e25-bd2b-40f7-be73-4f30262c190e,A
2019-10-26 23:40:44,33c53e25-bd2b-40f7-be73-4f30262c190e,S
2019-10-26 23:48:36,33c53e25-bd2b-40f7-be73-4f30262c190e,A
2019-10-27 00:02:10,33c53e25-bd2b-40f7-be73-4f30262c190e,S
2019-10-27 00:03:00,33c53e25-bd2b-40f7-be73-4f30262c190e,A
2019-10-27 00:05:40,33c53e25-bd2b-40f7-be73-4f30262c190e,S
2019-10-26 22:39:11,e4f4be00-2bde-4421-8e19-f533cec340fb,A
2019-10-26 22:41:07,e4f4be00-2bde-4421-8e19-f533cec340fb,S
2019-10-26 22:42:52,e4f4be00-2bde-4421-8e19-f533cec340fb,A
2019-10-26 22:45:26,e4f4be00-2bde-4421-8e19-f533cec340fb,S
2019-10-26 22:48:51,e4f4be00-2bde-4421-8e19-f533cec340fb,A
2019-10-26 22:56:02,e4f4be00-2bde-4421-8e19-f533cec340fb,S
2019-10-26 22:57:30,e4f4be00-2bde-4421-8e19-f533cec340fb,A
2019-10-26 23:11:04,e4f4be00-2bde-4421-8e19-f533cec340fb,S
2019-10-26 23:11:35,e4f4be00-2bde-4421-8e19-f533cec340fb,A
2019-10-26 23:16:12,e4f4be00-2bde-4421-8e19-f533cec340fb,S
2019-10-26 23:16:49,e4f4be00-2bde-4421-8e19-f533cec340fb,A
2019-10-26 23:23:23,e4f4be00-2bde-4421-8e19-f533cec340fb,S
2019-10-26 23:23:51,e4f4be00-2bde-4421-8e19-f533cec340fb,A
2019-10-26 23:23:55,e4f4be00-2bde-4421-8e19-f533cec340fb,S
2019-10-26 23:35:05,e4f4be00-2bde-4421-8e19-f533cec340fb,A
2019-10-26 23:35:51,e4f4be00-2bde-4421-8e19-f533cec340fb,S
2019-10-26 23:38:31,e4f4be00-2bde-4421-8e19-f533cec340fb,A
2019-10-26 23:43:14,e4f4be00-2bde-4421-8e19-f533cec340fb,S
2019-10-26 23:59:17,e4f4be00-2bde-4421-8e19-f533cec340fb,A
2019-10-27 00:02:31,e4f4be00-2bde-4421-8e19-f533cec340fb,S
2019-10-27 00:05:17,e4f4be00-2bde-4421-8e19-f533cec340fb,A
2019-10-27 00:05:47,e4f4be00-2bde-4421-8e19-f533cec340fb,S
2019-10-26 22:58:57,1c0f7cc8-f3e2-49e9-b583-2f14e58aa221,S
2019-10-26 23:07:20,1c0f7cc8-f3e2-49e9-b583-2f14e58aa221,A
2019-10-26 23:07:30,1c0f7cc8-f3e2-49e9-b583-2f14e58aa221,S
2019-10-26 23:10:28,1c0f7cc8-f3e2-49e9-b583-2f14e58aa221,A
2019-10-26 23:12:19,1c0f7cc8-f3e2-49e9-b583-2f14e58aa221,S
2019-10-26 23:12:47,1c0f7cc8-f3e2-49e9-b583-2f14e58aa221,A
2019-10-26 23:24:10,1c0f7cc8-f3e2-49e9-b583-2f14e58aa221,S
2019-10-26 23:30:56,1c0f7cc8-f3e2-49e9-b583-2f14e58aa221,A
2019-10-26 23:54:21,1c0f7cc8-f3e2-49e9-b583-2f14e58aa221,S
2019-10-27 00:04:36,1c0f7cc8-f3e2-49e9-b583-2f14e58aa221,A
2019-10-27 00:12:43,1c0f7cc8-f3e2-49e9-b583-2f14e58aa221,S
2019-10-27 00:13:38,1c0f7cc8-f3e2-49e9-b583-2f14e58aa221,A
2019-10-27 00:16:57,1c0f7cc8-f3e2-49e9-b583-2f14e58aa221,S
2019-10-27 00:18:37,1c0f7cc8-f3e2-49e9-b583-2f14e58aa221,A
2019-10-26 22:54:40,a888c254-961f-48a5-b194-ee1c74c819aa,A
2019-10-26 22:56:34,a888c254-961f-48a5-b194-ee1c74c819aa,S
2019-10-26 22:59:42,a888c254-961f-48a5-b194-ee1c74c819aa,A
2019-10-26 23:30:15,a888c254-961f-48a5-b194-ee1c74c819aa,S
2019-10-26 23:32:14,a888c254-961f-48a5-b194-ee1c74c819aa,A
2019-10-26 23:38:17,a888c254-961f-48a5-b194-ee1c74c819aa,S
2019-10-26 23:39:04,a888c254-961f-48a5-b194-ee1c74c819aa,A
2019-10-26 23:40:12,a888c254-961f-48a5-b194-ee1c74c819aa,S
2019-10-26 23:52:55,a888c254-961f-48a5-b194-ee1c74c819aa,A
2019-10-26 23:53:31,a888c254-961f-48a5-b194-ee1c74c819aa,S
2019-10-26 23:57:56,a888c254-961f-48a5-b194-ee1c74c819aa,A
2019-10-27 00:05:35,a888c254-961f-48a5-b194-ee1c74c819aa,S
2019-10-27 00:09:34,a888c254-961f-48a5-b194-ee1c74c819aa,A
2019-10-27 00:10:17,a888c254-961f-48a5-b194-ee1c74c819aa,S
2019-10-27 00:10:52,a888c254-961f-48a5-b194-ee1c74c819aa,A
2019-10-27 00:13:55,a888c254-961f-48a5-b194-ee1c74c819aa,S
2019-10-27 00:14:12,a888c254-961f-48a5-b194-ee1c74c819aa,A
2019-10-27 00:16:40,a888c254-961f-48a5-b194-ee1c74c819aa,S
2019-10-26 22:41:03,21921d3a-1e6e-4398-b6a3-41f2ca83b96a,A
2019-10-26 22:47:43,21921d3a-1e6e-4398-b6a3-41f2ca83b96a,S
2019-10-26 22:54:02,21921d3a-1e6e-4398-b6a3-41f2ca83b96a,A
2019-10-26 22:56:42,21921d3a-1e6e-4398-b6a3-41f2ca83b96a,S
2019-10-26 23:06:08,21921d3a-1e6e-4398-b6a3-41f2ca83b96a,A
2019-10-26 23:12:10,21921d3a-1e6e-4398-b6a3-41f2ca83b96a,S
2019-10-26 23:16:26,21921d3a-1e6e-4398-b6a3-41f2ca83b96a,A
2019-10-26 23:22:11,21921d3a-1e6e-4398-b6a3-41f2ca83b96a,S
2019-10-26 23:23:45,21921d3a-1e6e-4398-b6a3-41f2ca83b96a,A
2019-10-26 23:25:22,21921d3a-1e6e-4398-b6a3-41f2ca83b96a,S
2019-10-26 23:28:24,21921d3a-1e6e-4398-b6a3-41f2ca83b96a,A
2019-10-26 23:33:12,21921d3a-1e6e-4398-b6a3-41f2ca83b96a,S
2019-10-26 23:34:17,21921d3a-1e6e-4398-b6a3-41f2ca83b96a,A
2019-10-26 23:37:34,21921d3a-1e6e-4398-b6a3-41f2ca83b96a,S
2019-10-26 23:39:33,21921d3a-1e6e-4398-b6a3-41f2ca83b96a,A
2019-10-26 23:40:37,21921d3a-1e6e-4398-b6a3-41f2ca83b96a,S
2019-10-26 23:48:23,21921d3a-1e6e-4398-b6a3-41f2ca83b96a,A
2019-10-26 23:56:27,21921d3a-1e6e-4398-b6a3-41f2ca83b96a,S
2019-10-27 00:01:11,21921d3a-1e6e-4398-b6a3-41f2ca83b96a,A
2019-10-27 00:06:08,21921d3a-1e6e-4398-b6a3-41f2ca83b96a,S
2019-10-27 00:08:10,21921d3a-1e6e-4398-b6a3-41f2ca83b96a,A
2019-10-27 00:18:15,21921d3a-1e6e-4398-b6a3-41f2ca83b96a,S
2019-10-26 23:16:20,14a01e61-c9f3-409c-810f-596b45b3154e,A
2019-10-26 23:20:58,14a01e61-c9f3-409c-810f-596b45b3154e,S
2019-10-26 23:40:29,14a01e61-c9f3-409c-810f-596b45b3154e,A
2019-10-26 23:45:00,14a01e61-c9f3-409c-810f-596b45b3154e,S
2019-10-26 23:46:43,14a01e61-c9f3-409c-810f-596b45b3154e,A
2019-10-26 23:51:20,14a01e61-c9f3-409c-810f-596b45b3154e,S
2019-10-26 23:51:25,14a01e61-c9f3-409c-810f-596b45b3154e,A
2019-10-26 23:54:17,14a01e61-c9f3-409c-810f-596b45b3154e,S
2019-10-26 23:55:38,14a01e61-c9f3-409c-810f-596b45b3154e,A
2019-10-26 23:56:44,14a01e61-c9f3-409c-810f-596b45b3154e,S
2019-10-26 23:56:58,14a01e61-c9f3-409c-810f-596b45b3154e,A
2019-10-27 00:01:16,14a01e61-c9f3-409c-810f-596b45b3154e,S
2019-10-27 00:13:09,14a01e61-c9f3-409c-810f-596b45b3154e,A
2019-10-27 00:13:51,14a01e61-c9f3-409c-810f-596b45b3154e,S
2019-10-26 22:44:26,a3058f7c-d97f-45bb-b418-a2e38589009d,A
2019-10-26 22:45:01,a3058f7c-d97f-45bb-b418-a2e38589009d,S
2019-10-26 22:54:38,a3058f7c-d97f-45bb-b418-a2e38589009d,A
2019-10-26 23:05:25,a3058f7c-d97f-45bb-b418-a2e38589009d,S
2019-10-26 23:11:52,a3058f7c-d97f-45bb-b418-a2e38589009d,A
2019-10-26 23:13:00,a3058f7c-d97f-45bb-b418-a2e38589009d,S
2019-10-26 23:25:13,a3058f7c-d97f-45bb-b418-a2e38589009d,A
2019-10-26 23:27:08,a3058f7c-d97f-45bb-b418-a2e38589009d,S
2019-10-26 23:35:49,a3058f7c-d97f-45bb-b418-a2e38589009d,A
2019-10-26 23:38:21,a3058f7c-d97f-45bb-b418-a2e38589009d,S
2019-10-26 23:38:36,a3058f7c-d97f-45bb-b418-a2e38589009d,A
2019-10-26 23:40:07,a3058f7c-d97f-45bb-b418-a2e38589009d,S
2019-10-26 23:48:16,a3058f7c-d97f-45bb-b418-a2e38589009d,A
2019-10-26 23:52:05,a3058f7c-d97f-45bb-b418-a2e38589009d,S
2019-10-26 23:55:29,a3058f7c-d97f-45bb-b418-a2e38589009d,A
2019-10-26 23:58:56,a3058f7c-d97f-45bb-b418-a2e38589009d,S
2019-10-27 00:04:58,a3058f7c-d97f-45bb-b418-a2e38589009d,A
2019-10-27 00:14:55,a3058f7c-d97f-45bb-b418-a2e38589009d,S
2019-10-26 22:47:50,462f816b-b420-4571-9a0b-b843fc9f8e15,S
2019-10-26 22:51:59,462f816b-b420-4571-9a0b-b843fc9f8e15,A
2019-10-26 22:51:54,162f4011-13ae-4949-8a89-e6e03f106e86,S
2019-10-26 22:52:46,162f4011-13ae-4949-8a89-e6e03f106e86,A
2019-10-26 22:55:51,162f4011-13ae-4949-8a89-e6e03f106e86,S
2019-10-26 23:05:48,162f4011-13ae-4949-8a89-e6e03f106e86,A
2019-10-26 23:08:25,162f4011-13ae-4949-8a89-e6e03f106e86,S
2019-10-26 23:14:48,162f4011-13ae-4949-8a89-e6e03f106e86,A
2019-10-26 23:19:51,162f4011-13ae-4949-8a89-e6e03f106e86,S
2019-10-26 23:20:43,162f4011-13ae-4949-8a89-e6e03f106e86,A
2019-10-26 23:31:18,162f4011-13ae-4949-8a89-e6e03f106e86,S
2019-10-26 23:34:49,162f4011-13ae-4949-8a89-e6e03f106e86,A
2019-10-26 23:35:07,162f4011-13ae-4949-8a89-e6e03f106e86,S
2019-10-26 23:35:23,162f4011-13ae-4949-8a89-e6e03f106e86,A
2019-10-26 23:41:03,162f4011-13ae-4949-8a89-e6e03f106e86,S
2019-10-26 23:48:49,162f4011-13ae-4949-8a89-e6e03f106e86,A
2019-10-26 23:53:55,162f4011-13ae-4949-8a89-e6e03f106e86,S
2019-10-27 00:10:03,162f4011-13ae-4949-8a89-e6e03f106e86,A
2019-10-27 00:11:15,162f4011-13ae-4949-8a89-e6e03f106e86,S
2019-10-27 00:16:04,162f4011-13ae-4949-8a89-e6e03f106e86,A
2019-10-27 00:17:10,162f4011-13ae-4949-8a89-e6e03f106e86,S
2019-10-26 23:02:26,43c5bc19-7b56-4df5-8f6c-d58019df91d9,A
2019-10-26 23:05:42,43c5bc19-7b56-4df5-8f6c-d58019df91d9,S
2019-10-26 23:10:46,43c5bc19-7b56-4df5-8f6c-d58019df91d9,A
2019-10-26 23:19:22,43c5bc19-7b56-4df5-8f6c-d58019df91d9,S
2019-10-26 23:23:49,43c5bc19-7b56-4df5-8f6c-d58019df91d9,A
2019-10-26 23:26:57,43c5bc19-7b56-4df5-8f6c-d58019df91d9,S
2019-10-26 23:27:48,43c5bc19-7b56-4df5-8f6c-d58019df91d9,A
2019-10-26 23:29:11,43c5bc19-7b56-4df5-8f6c-d58019df91d9,S
2019-10-26 23:34:25,43c5bc19-7b56-4df5-8f6c-d58019df91d9,A
2019-10-26 23:40:02,43c5bc19-7b56-4df5-8f6c-d58019df91d9,S
2019-10-26 23:51:24,43c5bc19-7b56-4df5-8f6c-d58019df91d9,A
2019-10-26 23:51:28,43c5bc19-7b56-4df5-8f6c-d58019df91d9,S
2019-10-26 23:58:38,43c5bc19-7b56-4df5-8f6c-d58019df91d9,A
2019-10-27 00:10:08,43c5bc19-7b56-4df5-8f6c-d58019df91d9,S
2019-10-27 00:11:44,43c5bc19-7b56-4df5-8f6c-d58019df91d9,A
2019-10-27 00:14:52,43c5bc19-7b56-4df5-8f6c-d58019df91d9,S
2019-10-27 00:15:08,43c5bc19-7b56-4df5-8f6c-d58019df91d9,A
2019-10-26 22:53:21,f0b51990-858e-4b9f-8df0-1a42cd51d1e6,A
2019-10-26 22:54:32,f0b51990-858e-4b9f-8df0-1a42cd51d1e6,S
2019-10-26 22:55:56,f0b51990-858e-4b9f-8df0-1a42cd51d1e6,A
2019-10-26 23:02:23,f0b51990-858e-4b9f-8df0-1a42cd51d1e6,S
2019-10-26 23:05:48,f0b51990-858e-4b9f-8df0-1a42cd51d1e6,A
2019-10-26 23:08:42,f0b51990-858e-4b9f-8df0-1a42cd51d1e6,S
2019-10-26 23:09:49,f0b51990-858e-4b9f-8df0-1a42cd51d1e6,A
2019-10-26 23:12:21,f0b51990-858e-4b9f-8df0-1a42cd51d1e6,S
2019-10-26 23:13:20,f0b51990-858e-4b9f-8df0-1a42cd51d1e6,A
2019-10-26 23:15:25,f0b51990-858e-4b9f-8df0-1a42cd51d1e6,S
2019-10-26 23:16:47,f0b51990-858e-4b9f-8df0-1a42cd51d1e6,A
2019-10-26 23:23:20,f0b51990-858e-4b9f-8df0-1a42cd51d1e6,S
2019-10-26 23:24:47,f0b51990-858e-4b9f-8df0-1a42cd51d1e6,A
2019-10-26 23:25:36,f0b51990-858e-4b9f-8df0-1a42cd51d1e6,S
2019-10-26 23:26:05,f0b51990-858e-4b9f-8df0-1a42cd51d1e6,A
2019-10-26 23:28:56,f0b51990-858e-4b9f-8df0-1a42cd51d1e6,S
2019-10-26 23:34:03,f0b51990-858e-4b9f-8df0-1a42cd51d1e6,A
2019-10-26 23:49:30,f0b51990-858e-4b9f-8df0-1a42cd51d1e6,S
2019-10-26 23:58:33,f0b51990-858e-4b9f-8df0-1a42cd51d1e6,A
2019-10-27 00:08:16,f0b51990-858e-4b9f-8df0-1a42cd51d1e6,S
2019-10-27 00:16:46,f0b51990-858e-4b9f-8df0-1a42cd51d1e6,A
2019-10-27 00:17:32,f0b51990-858e-4b9f-8df0-1a42cd51d1e6,S
2019-10-27 00:17:51,f0b51990-858e-4b9f-8df0-1a42cd51d1e6,A
