app_number,app_id,trigger,burn,sink,deploy_date,token_interval
1,b45a541a-529c-4504-94b6-81a0290a2888,57b12215-4f64-4f6f-9325-0992624fed71,cc099c62-de51-433a-81bf-4a2fe3e275c5,38634527-fc55-4b66-8eef-4c0056695f74,2019-10-26 10:39:10,1.000000
2,682e562f-23a6-4cb6-900b-f4f818ce0858,7cf734bf-f927-41ce-b5d5-9ab5f0051e15,b7f0bd48-8756-403b-bfa0-74d3d1427708,42bd8ac4-ae1d-498c-92ac-2697dd6b4c7a,2019-10-26 10:40:14,1.000000
3,d0713362-e654-4aa1-9414-2d96115c0ee8,ee5456a2-c3ea-4e97-8a04-42834af30c93,8a5d3c49-ae2d-4f2a-863e-0df855afe92b,1f45856f-8c65-4dac-a91a-20ab2d112a4e,2019-10-26 10:41:17,1.000000
4,6928e359-0756-43a5-affe-19330c8196ec,53d73af0-9df9-4cfb-8dda-283ccdea712a,caee6424-c8d3-4159-8609-466d31bc539a,5eb5c7cb-0f76-4024-aed9-9726507ab9b0,2019-10-26 10:42:21,0.200000
5,da07641f-ab8a-4b97-b779-73f4d2dfd95d,73fd6bc8-2350-4121-bcba-99c390cf2047,0df6a651-192f-4f63-9bf4-a624d82dc6ea,8a9c755d-88c3-4931-824a-6c0fc81ac7f2,2019-10-26 10:43:24,0.200000
6,2945c2da-3a03-4b0a-9f0f-6177d499a1d6,1b372fda-d33d-4d5c-921a-f3cbed8e8a54,c498d83c-adc5-4859-89ca-2d5703d17258,217d724c-2c57-4ee2-911b-da91c3859492,2019-10-26 10:44:28,0.200000
7,0b5b37fd-6dcb-4bba-a0d0-4c886c73c72f,7aca85f0-a550-47e6-bd75-7470b6c8f53d,bc351d1b-c4f6-4fc5-96a5-3e0895046c22,53aeac61-4af8-4b5b-b142-5ccd56b945dd,2019-10-26 10:45:32,0.200000
8,c7a2bed7-e6f5-4ec4-b9f6-2e42d7ef3935,0e58bb67-cd6f-4485-8ecc-20f6e04f71ba,b75c3c72-cc16-4bd2-b744-a09fd785f443,461f0069-06ca-429f-b6c1-12c470772fe5,2019-10-26 10:46:35,1.000000
9,606c1b61-2deb-482d-802c-b32888e5c31b,1844aa19-50ba-4990-8a24-9302848dc1cf,7b9b77ee-da4e-45a8-a3cf-1fe6407e6699,bbcee06c-13b3-4126-a1ae-d17935c9e734,2019-10-26 10:47:39,0.200000
10,a92b797c-ef17-4f2b-9aae-3e00a04c1b1e,2509d0db-0b40-4b56-a1fd-7738f363b307,24b7e7f4-63a7-42ce-b9d2-7d58b8acd291,9c625683-b63f-4368-bef0-e8b04ee5e4ec,2019-10-26 10:48:43,0.200000
11,241909fe-086f-40ec-b16a-1456ab70108b,8c401cd6-fea7-49af-bca6-9f57825d4df6,63d1db2b-68be-48c7-a2a4-7b8ac43601bb,85cd4f5a-509e-4b4e-8f50-ef0629993193,2019-10-26 10:49:46,0.200000
12,ecad00e3-803b-4c44-83b5-d9772062295a,0281c3c2-37b1-4632-9057-b176858dbf83,ae5f71ae-a812-4477-b06a-16b88ebce849,ed615f41-7b2b-4297-951e-e9081dc69771,2019-10-26 10:50:50,1.000000
13,9a8c2e82-c808-4f38-a747-98e69e69abb7,c35d054c-142b-45f6-917f-4913570ab3e6,26923517-81ed-4cd5-bd3f-1e95fac31fd5,3a790c36-3999-43f8-ad9a-a5c41d433e4b,2019-10-26 10:51:54,0.200000
14,3df80a13-d70a-418f-9d36-66a646dd3368,d5cd1632-dc73-4f72-9e8b-fa6f526a0a21,6f3dce45-ff6e-45b8-9509-807dc88aee77,d12fe94a-db0b-4ed8-8d91-3d43a0fc5f9a,2019-10-26 10:52:57,0.200000
15,bbafa7fc-25dd-411b-9055-c3aab850f62c,27d4ce53-a379-4dd1-a4c0-a15110546b86,07ece705-dfbc-4e7d-b09f-6392c16e68ba,aaca2fc9-f9ff-49e4-9235-711e6df3d6fb,2019-10-26 10:54:01,1.000000
16,cc25a20c-ee06-488f-8e02-cf2464486223,fb24f5da-f6fe-4944-b0a0-d9a14826afbf,f12a2ddf-d825-4218-b40d-831216ffb1d4,9e948bf2-ba1b-4fdc-bef6-80a898839a42,2019-10-26 10:55:04,1.000000
17,6dff799c-9d44-4701-b0f3-da22bde52589,619f2ae8-11f1-4c75-9857-a68968b3f6db,ef1440a7-2c4c-4a79-b395-bb83042bb707,a1d25fd0-cd8f-4937-96ab-1faac5f9cea7,2019-10-26 10:56:08,0.200000
18,ae4dfe40-59fd-473d-916b-089396d9b6e7,b34d2200-6f8f-4de1-b396-a9d0d8aba3dd,fb116d05-9614-4e81-9644-aaa34396e623,23d58863-b7cb-4d05-aa3e-868f6099c267,2019-10-26 10:57:12,1.000000
19,26e0ef0e-d7ed-45c1-8a88-8e5263104525,029ad6e1-56f7-4e90-87ed-0f28010091c0,7da752dc-1288-4c7d-b9c7-8cfc3ddbded3,12108d83-bf61-4847-9ae6-e3b5a585fa8d,2019-10-26 10:58:16,0.200000
20,c3783abb-8fee-475e-9081-31b39b3c2349,3870f291-f3d5-40d4-aa09-3cebbe6772bd,10108d2a-60fa-49fa-89fe-bbc2828e1900,479b63f4-3c9a-4ae2-bb88-72844d4b38d2,2019-10-26 10:59:20,1.000000
21,51beb8a7-b644-4ec1-be4b-88b10d2350ca,df3bcdf6-501e-4019-98b4-ab0f61d38152,e4a73ba5-a77f-4576-b4e3-d64973205e37,32638520-431e-4484-aa71-1d4ac5071eaa,2019-10-26 11:00:24,0.200000
22,9efd78ad-7a17-492d-b59c-41dacec2ae6b,2c79762b-deae-4d2c-961c-facd73beb9bf,183a7a56-e5ac-4760-90f6-44fed7902d6d,076028e0-d209-4323-8d30-e7c0556f269c,2019-10-26 11:01:27,0.200000
23,7fe419ac-3cfa-42de-b6b5-a27bc99906a2,174970ce-31e6-4bdc-85d8-a9843b53e8af,d823be0e-f333-45b5-86f3-d76167174ac0,98425a73-a1c1-44b8-a821-b5802152ee04,2019-10-26 11:02:31,0.200000
24,68b080f5-132b-4857-9f12-31343d1f1627,44165330-132d-437b-8a5b-7ebead09d8eb,5c02f967-596f-47b7-8b53-2cafae920546,9f387123-9471-44b5-beee-fdc1f2309f88,2019-10-26 11:03:35,1.000000
25,8628c753-1d75-43ca-a94f-61f658f9bcb4,33a0bf9b-a314-4b94-9308-da2cdfa3782b,ef067a7b-9f28-45be-805e-eaada3c1c33b,0a293d3c-69dc-4e14-bc8d-0a55213dd519,2019-10-26 11:04:39,1.000000
26,1972078d-45b4-4a94-995f-8aac8e4455f4,a6bdf79d-0349-4743-90ce-ffe59176ae1b,1bde0d0a-0ba7-4865-82be-8b5d45fc13e2,2f63f083-d1fe-4b75-b250-a3df01b718b5,2019-10-26 11:05:42,1.000000
27,fe957fd4-b4a8-406a-97ab-7a24cde80397,fe20a56a-b51f-4a76-b77e-463b448c60a4,df52c88d-f7ed-43b9-b0a2-2d29df88fbe4,12f2f83c-02b0-4805-9599-6dec6e9b0b01,2019-10-26 11:06:46,0.200000
28,1a9e8f60-4f86-4a17-954c-66561f5f9ccd,d7977233-d87f-4bd8-b7d9-24946e813380,5108fdfb-dd09-4f32-8a40-281181c5e5ff,5c0bec9a-7808-41e3-9fe4-e77aa006c908,2019-10-26 11:07:50,1.000000
29,df2cb17d-247f-4810-8b4b-4c885449d2bb,589a3ce0-660e-4468-a1f3-a53f27c17ef0,65acee49-3835-4def-9401-dd6e745fea07,bb30a391-d42e-46e2-b4b0-ac25b76a61aa,2019-10-26 11:08:54,1.000000
30,4f90f43c-45de-4e37-ad6c-5a627e369c62,d4646c7f-7a39-4954-86d4-e1ff417edfa0,f4bb425d-73d4-449d-a34d-81590d177f27,e2507d51-bd1b-4677-8691-4bbf71d17eb7,2019-10-26 11:09:58,1.000000
31,db201eca-4a97-4e5b-8b08-d61ce87736eb,42b2db18-b917-40d9-88b2-02b5f5f8280b,35dbd86a-3100-4a51-a965-acd4aa9572c4,0424f427-ac7c-4607-b331-b3e972148d19,2019-10-26 11:11:02,1.000000
32,dfa54211-448d-4258-b320-ee8e3484ceba,2399182f-8af1-4c2d-8e56-c224c686086c,9ab26b93-7390-4c42-98e0-bc8a629e5db8,d0d2b8bd-9312-488a-a642-5c59f2092565,2019-10-26 11:12:06,0.200000
33,91dd34de-b053-4104-b275-832e807ec2ae,45b5b755-08b7-4f2f-bd48-e77a97d6a1c2,43d58a6e-f824-4001-a736-20643af476c4,81d6306d-1653-45cd-b591-90a0cb77d21a,2019-10-26 11:13:09,1.000000
34,ed8746cf-90d8-4201-9b77-333569a31df4,99aa2899-7f9b-4adf-bfd1-5431de620d80,6ce4c45f-9f71-4e95-b379-baa01150e0aa,ab3677dd-7805-4ef2-87aa-dcd620dea398,2019-10-26 11:14:12,0.200000
35,fa88c339-6f63-401e-a392-780b5fd46bec,311016dc-b0c5-418e-a11a-9cf4bd5cdac4,648dd5c1-518a-4c69-9dd9-6fe467f7c53b,f6b25d06-0d20-4e92-8c63-e9a205cc3636,2019-10-26 11:15:16,1.000000
36,9a840754-8f65-4dcb-9f96-3834a33b791a,21af8853-79f8-49bb-89fb-a2d02693b3b2,19cf4c7f-fa2f-4549-a7d4-abb9682741a8,a3ef104a-5a04-4732-aa15-0db871bb601e,2019-10-26 11:16:20,0.200000
37,00de6f99-6f29-4d64-a32f-e011e3c10c79,407d173f-1b46-4c6a-8131-8ac50ce71d47,3295ef20-c062-4e51-829b-7d4e85062964,9ce562e5-6ece-4b58-8d37-0a2b0d97900f,2019-10-26 11:17:24,1.000000
38,6e925de5-3acd-4503-b3c5-9b249882c675,a3d0872f-a387-42fc-8a7e-f5a3ee0dcfff,41d59f42-ae99-4080-8677-9fc64adc0ecd,29faf508-5628-46ea-8a27-499418c7d5bd,2019-10-26 11:18:27,1.000000
39,ac01a366-20a7-427c-a191-b35471e946e9,74ec3279-aa77-4407-bb8e-7c9b1f993325,13c4bfb4-efb3-47cc-9593-ad914efe2a86,372233fd-332c-4b42-bae6-4b1bb78e6cab,2019-10-26 11:19:31,0.200000
40,595c71bc-00f0-4c31-b8e3-a072f3418d2e,cd3e7c53-1933-4f30-9a29-aa868c63ed93,838cc52d-d25d-4a72-b1d4-bbfcf0234d22,9e4578d1-70c3-4695-a02c-b81c1681b7ff,2019-10-26 11:20:35,0.200000
41,c07cc84a-3eca-4f9a-951e-b5369fae4020,855f1d61-b37a-44f8-8473-60638b557f87,95c81e19-620b-4242-ad5b-8be9a98438cf,409475ae-6d3b-4e6d-90aa-aa0508b070bd,2019-10-26 11:21:39,1.000000
42,fbb592ba-4852-42dc-b7b6-f01bdcf4fa57,25c96aac-ff40-4552-bf85-6a42c19044e3,d493340c-1360-463a-9c46-84c225e4d220,7961ecf5-a078-427a-88c8-1a225fb69e6b,2019-10-26 11:22:43,0.200000
43,83d03c0a-f9c6-41ca-9c5e-ee91eb5bcbb8,ca007116-6d19-47b0-95ec-5395aa795d05,074b4353-26c7-43d1-82ed-777a0ed634d4,da0751ac-de36-41dd-b10d-a1b8312a6f36,2019-10-26 11:23:47,0.200000
44,0c0e7c80-0a63-4873-8231-babcafc3c580,af0c3e51-96db-4eb2-8614-9530d284282c,30269724-439f-468a-bcbf-bbbe3f6c2dab,de77dffd-4173-40ad-ae82-ee50a361ef2e,2019-10-26 11:24:50,0.200000
45,e55927e5-4f37-483d-99f4-da3bc7dde0fc,2adb4eb0-f3b5-458f-8aab-5a37f92f1416,0ba4adcd-5ba3-4d26-aa64-e80669b5a214,831717a7-7829-4bd7-82b8-89ed3a782743,2019-10-26 11:25:54,1.000000
46,def95b67-cf7a-4031-99a0-3b1be5dd6294,ea843c2d-4614-4cbe-895e-0b4915903e80,a1da5b62-0d2c-45ed-a864-fe5c83810ae0,b6de3f59-9db1-4b05-aaa2-d23fcbf69717,2019-10-26 11:26:58,0.200000
47,d81636d8-9be6-4d09-a9fc-ef206e85eca9,c48bbde1-6376-4727-83a5-01f1e02d6551,3e94485d-2e14-46b1-a6cd-78daa2e841df,c0eb24b5-7c56-47b4-8316-513f8fec2062,2019-10-26 11:28:02,0.200000
48,1a8cf649-04c8-430f-af17-8ea68222a834,7bade85b-cd6b-4ebf-ad1f-f6bb66183aa8,66a403cb-d725-46e0-a879-88242564966f,7732324c-e1ea-46f0-a8c8-7dc463e27b1a,2019-10-26 11:29:06,1.000000
49,e9cebfc7-629b-449f-9719-e356937c1f6d,73fafaf4-b6e3-40a9-91e2-4028eebc4ec7,15a4b579-dcdc-44e4-b662-c36dc7e337c9,04ebb489-967f-4733-b4db-b61811617bb6,2019-10-26 11:30:10,0.200000
50,94899bdb-13a5-4152-8160-bafff15e0b4e,da6386cc-aca7-4707-b609-052bfd2b9ddb,d0a6de69-bc83-4970-b00f-0c24b243b8a1,03417968-1eaf-4e15-8d81-3e776789fce6,2019-10-26 11:31:14,1.000000
