app_number,app_id,trigger,burn,sink,deploy_date,token_interval
1,123ee9b9-fdc1-4a88-b102-04af20c4d7cd,401c134a-e44d-4989-bd84-6913583c67f7,1f4aa65d-53fb-4bd2-879e-00bc5bd2e0ae,36e82511-7e36-47b0-8477-e4e1e9ad2921,2019-09-09 22:19:40,1.000000
2,b22b911e-8d20-4bf8-83ce-5fd344846284,5d6d3f78-ec1e-492a-b313-16918184ba69,ff180dd6-a77f-4184-9b52-6ccc583c4369,16e3aff5-e089-4836-8fe9-d6ffd9ba27d5,2019-09-09 22:20:44,1.000000
3,a68f06cc-29c2-42cd-98fa-7a6bdfd888af,8373e087-3b70-460c-9464-ec9a4d82ec3d,08ea1f72-b21d-4b70-8933-7c3410953532,2437235a-1b0c-41bd-bed9-7b0c385ccb4a,2019-09-09 22:21:48,1.000000
4,3f0808cc-5332-4af3-945d-d4238e18de72,1b746647-c7e5-4da8-8543-62e1c692c46c,e14a148b-2d58-440e-8317-55bfbe1fdf10,a73d059e-06de-4354-b10f-621011c4d61f,2019-09-09 22:22:52,0.200000
5,fbaea64d-aeb1-4c96-ba84-aeed2bea417a,4509955a-1859-485c-84e0-fbea187e1a7a,9a068d9e-13e8-45a2-82cf-30150882df93,83f90ae2-3162-4e86-b813-31f9d46569ee,2019-09-09 22:23:56,0.200000
6,b22c3717-e03c-4736-af53-20fdd43fa153,0dab07cf-23dc-47a6-ba42-43e91c3acb58,9c1c7b8f-4831-4eee-ae5e-7932f2cd10c2,27e0d211-8750-4f55-bdba-1d7563bcebe5,2019-09-09 22:25:00,0.200000
7,87fb470d-7b2e-4ab6-a2f7-a9103dda956d,e9ecc2cb-57d2-4459-b4d0-d2ad8add3f5d,ce1fd2d6-3100-4173-9185-f2b3dc941c53,b341f711-fb31-424a-b4c7-4536cd23e4e0,2019-09-09 22:26:04,0.200000
8,99745561-208f-46ed-8acb-9c36ea6ead10,6dc9804c-f300-4c62-bf5f-7c22127d6e90,211b5d9c-f763-4cb2-bf38-8b3dc4916663,572befeb-2d8e-458d-a56b-3bbd1d0835df,2019-09-09 22:27:08,1.000000
9,bcfd0190-895e-4289-b8f1-1133d84eabe1,b8b551ae-9a90-4a1c-966a-608a97d69dbb,2696ea41-c25e-4577-846a-627aff9fb7f7,2cf12632-31d0-4eea-8344-0b76a6f1db11,2019-09-09 22:28:12,0.200000
10,f5b1f27c-37cf-4199-9ead-e095d5d23b2a,fd0d5ca2-6764-493b-9402-48c88689b509,9878ad06-e7a6-4a9b-9e73-81146b4ab16f,ee0e2995-d88a-4465-a756-93f6aeb359c9,2019-09-09 22:29:16,0.200000
11,ca0cd67b-d539-4225-93f1-773f04c073ad,3128b3cc-a17d-4c2c-aaac-b9225c2d21bd,6f8783e3-f241-40d5-ac44-974d5cb019c4,6c97c071-5b52-409c-bd93-533031950447,2019-09-09 22:30:19,0.200000
12,47b6161b-ef9c-450e-adc8-a537d35a8ecb,74afa3c2-be9f-420b-9359-fd0277b28d30,95936f6d-d1c7-4d13-b1cd-a8f2d623c2ce,c6bc7e59-068d-46bb-a643-bede15713bfb,2019-09-09 22:31:23,1.000000
13,7ae4e7d2-7a6a-4d07-a01f-5e61384ad780,f667dabd-42df-45d3-be71-7a4118960e2b,ddd7d2ca-0d4b-4c70-a971-0cd03ce4e676,9c7b4b63-02e4-4ea1-8386-79d51e6203c5,2019-09-09 22:32:27,0.200000
14,2eea4718-0921-4718-9a6a-6eecf31834d2,294ec6ef-8b45-4463-959c-9f9fc468b046,e1e52ce4-7eec-4ad0-8588-12447d22c71b,e33a17f1-14c8-4485-8ddd-4b8ca19545c2,2019-09-09 22:33:30,0.200000
15,7fdd1294-462e-4b3a-92ad-251f8cb4af06,7fc7ee7c-a776-48ef-ac02-6988b5cce07a,cd5d6cc1-7885-48fd-8c45-ff187d35a522,5ddd395e-8013-4a4e-96e1-7517f5fbed28,2019-09-09 22:34:34,1.000000
16,2a2e5be8-a433-4fe2-a8be-8599ddb8b317,79d3430a-8607-4de0-b900-473f86e7070d,c71500f7-0866-44d6-bcc5-b386f61427dd,a8c121a2-c852-43b4-b9b9-d9c05fbcca73,2019-09-09 22:35:38,1.000000
17,ac075589-4176-40ba-af29-8e509ba32645,ad760f2f-a176-4d69-8b79-6f16cc1b9056,bfd67d15-bb08-4f5b-9083-ca2df584ab86,3f3f6848-1c42-458f-951d-7ba5476ec87c,2019-09-09 22:36:42,0.200000
18,2b94f372-241b-4bc2-b9df-7285680337ca,33526076-9d90-4ef7-ba3e-be57bea73336,0ea5e09c-d46b-477b-8e1b-ad35cfd2bcb2,3861dd6a-aa79-4c56-bbfa-7a9039edd715,2019-09-09 22:37:46,1.000000
19,75572806-d1f9-4255-8f19-fe6d97bd41b9,acbd8668-d99f-4f0f-8ac6-8a5462e5bfd0,4b9fb10b-34ca-45bb-93a7-68af5cae2af6,ddab0dbd-8665-42e9-af7f-8a065659ec6f,2019-09-09 22:38:50,0.200000
20,0ada8f92-ce5e-44bc-ab23-8e81bd1df59c,6d16bf51-7979-47e8-8cb7-f547c26ff418,e922616e-2fb2-4138-9e0f-e4a83a45a3f1,474c0591-859f-46d3-869a-e83fcefe2e6d,2019-09-09 22:39:54,1.000000
21,f6bee7c1-be04-4e2c-9b56-e4d556ced353,217cdeea-34e7-4c19-8138-6e9d88565816,4bd75bc0-cf36-42e1-834d-787a34a8d9fe,de19829b-e95d-4bb4-a32d-47678cfe8a93,2019-09-09 22:40:57,0.200000
22,53986688-9084-441f-8807-c7fe93dfcab9,f52e5f4a-7775-4440-a24b-eae2b6ad0693,c2886256-0a1d-48e6-84f1-c6214d861931,4e8c12dc-cd5e-4043-aff0-5e407e0f1ecb,2019-09-09 22:42:01,0.200000
23,dfb4f221-de7e-421c-8521-d99da4422b28,e536c3a4-69a4-4d35-a442-a10af6e43629,121aaf55-0953-438c-966f-8f2f16f0a02b,0e038dad-5371-4916-9fa6-29f105a55cb0,2019-09-09 22:43:05,0.200000
24,34cd7dd5-4771-43ed-8ce2-d3e705b3ab0f,d46c57de-5db3-4902-a068-3c21b31c3d20,5bb47f10-679b-4fbb-a35c-50e47c22044b,5cf62665-ab11-4fcf-a1a5-3ca3bf54923f,2019-09-09 22:44:09,1.000000
25,bea5b0a2-181d-49fb-8f01-fd43d581f017,741777be-ab9b-4084-8817-ce5ce46a8dbf,62c2c011-add4-4da6-b6d6-d84f39b3052a,c8d483b4-456c-491c-9327-e24b79847d9b,2019-09-09 22:45:13,1.000000
26,68a0dc51-54e6-4839-9b21-9442fc08e840,e04ae53c-ef54-47bc-9116-59d2bc6e1d6d,95580590-14c2-44f6-92b9-42d6282e5ca4,59bb80f0-26a6-49cf-9297-049d608ee52a,2019-09-09 22:46:17,1.000000
27,65146c9a-db04-4e61-8254-cc52c727c332,76c9d113-a15a-4f90-8038-c445b9f84fa0,e01a1645-fe0b-4bc6-a912-a2ce3272013f,ea541e77-dc08-4702-ae07-8c357a9144d0,2019-09-09 22:47:20,0.200000
28,efa2c677-5011-4268-9f9f-2726d8e7a010,b000f4de-f812-4bfc-8b59-498564f8dc34,8b111343-e7a4-43ee-a79d-df9c41741230,2076ad54-ad9b-4eb5-a930-2dc1870f72d2,2019-09-09 22:48:24,1.000000
29,f6ccda79-77ab-4ff3-bd33-3f83ce072911,458628f6-7d92-45b2-9729-6c705ff12faf,42e6362d-b126-42e5-a793-e7672bf507c6,32171575-585e-45d7-9e6b-0f92aa5b0a42,2019-09-09 22:49:27,1.000000
30,6bf216da-b171-4daf-9960-d964f287ec9f,0f705b3e-4148-4981-aa10-fa3f9fff460c,315cb270-0375-48e8-a92f-dbd5109f2e06,a62e1646-c3f0-4b10-8352-b45a59d1092b,2019-09-09 22:50:32,1.000000
31,7a25e93f-59df-4673-aa2d-7e222334e7b4,9188729a-eebc-40a6-969a-84f10e69bc2f,f04d0202-a1b6-4517-ad22-8da9e52a70e1,05b2ccd9-2d4a-4ecc-b71a-d0e7ae9dec3e,2019-09-09 22:51:36,1.000000
32,f8c098a9-f553-4a58-a964-0330acde00a2,04ce265b-ff4d-4621-90e4-f41eea7ac030,8b3b9623-7b7e-49d1-8d93-f831722a376a,099db416-3fec-4e74-bc78-e82d1c934357,2019-09-09 22:52:40,0.200000
33,059d9a7d-8764-49eb-8f48-61b0c1ee5184,6d152aaf-80dd-4fdd-8cbd-53b5d5ac7249,7e265276-c284-4777-8109-6ca634a41612,bb955987-e310-46a0-bd20-4bd81d38ca4c,2019-09-09 22:53:44,1.000000
34,0748aca9-941a-4fcd-be64-2121c8e9ca1c,33fef8a6-46a0-44bf-b3be-b6c59861a0fb,4fd6216b-e882-4228-b72c-57b108130fff,5867dd46-fa08-4604-bf7f-8cc0d5270aa5,2019-09-09 22:54:48,0.200000
35,eb755fba-023c-49ca-8c80-7a11d3393c3b,263f0454-6157-4e8d-9e70-9bf81cb745f1,b3261217-1f5b-40cc-886a-2e568ab4c238,e43cdbb9-74b4-409e-b2b5-6b9dd20f537a,2019-09-09 22:55:51,1.000000
36,492e973e-6bc3-4a98-8142-42977555a7c5,fd89540a-1e16-45af-9964-e0ba706861a2,7765db86-9b5d-442b-a134-14f4f4cdf4e0,0437b9d6-a05f-4b7d-86e1-833eb21549a3,2019-09-09 22:56:55,0.200000
37,de4ef2b8-064d-4beb-8031-0957e85653ca,5a8a887f-92d4-4d62-969e-4f85cc840e53,f1cea3ee-ea0c-4e8b-92d7-5ee92826dc27,4dcaa903-751b-4d18-8a9a-853d2a0038f6,2019-09-09 22:57:59,1.000000
38,91c4f022-0bdd-453c-8146-6bc6411286e1,82294ab4-cd0a-42b0-a392-28e922453a7c,5c2fb3ac-139f-4b95-a7e1-7f0e057aa3f3,5142ef5c-ebb4-4401-b235-3eca909cbb86,2019-09-09 22:59:03,1.000000
39,5e7e4735-5683-4e0e-8675-2105523c9ad2,c9742003-1986-493c-95d6-14e400609686,6bf9810e-8231-4b19-9ead-39b9950db4e0,db820285-686e-4040-a75f-dbef20ea763e,2019-09-09 23:00:07,0.200000
40,922973bb-0f14-4777-bdf4-6562351f5be5,64990e63-1ddf-4601-9873-f00023519c1e,24153013-d8e2-4080-a35c-fdd0c530991c,6416ef40-a9f3-43c6-9f2b-5754234a8bfa,2019-09-09 23:01:11,0.200000
41,2b638f26-ef4a-4368-b8a8-09adc411dbef,80d4d160-b006-425c-8e6d-b0a94e21b0ee,58680e63-aced-48d3-8978-10e97006168d,6fb03deb-e8c6-4475-9d19-15819039cd36,2019-09-09 23:02:14,1.000000
42,4aeb7eef-11a0-4b6e-a569-5028abed34e0,faac25e0-b5d8-4a2a-b13c-3f593a2ba94b,ea1d616e-6610-412a-a47b-bd7e9f253a85,170eab56-cb18-4226-9cf2-b7ba25d6ea24,2019-09-09 23:03:18,0.200000
43,efcc124c-1d8f-42bd-afd5-0773e324ebca,004fcdaa-f2ab-4a37-af83-5174630c86cd,6102c7b9-f7fa-4305-a1b3-652e2ebb2d16,5e3fb888-d507-4c32-9de8-7bac508b0f1b,2019-09-09 23:04:22,0.200000
44,3ecf54c1-11b0-4cdb-bfd1-1564bb66464b,7d581441-5a83-464c-b06b-00bfc75bf906,37fcd8cc-f7af-48ef-a9fc-83163feb7804,2fc5a13e-cfe6-4b13-8965-5f8b1e53bdf1,2019-09-09 23:05:26,0.200000
45,30d07488-fef3-413f-b86a-d5f7e5cc6a21,dd6c2093-7525-4618-8a52-e730901c72fe,fd06d7ec-ec18-4fe0-ba17-97ee8150cb92,c5f45047-b832-40e7-8267-e204b3989730,2019-09-09 23:06:30,1.000000
46,8e49a6a0-8dc8-47bf-a055-183b08cf5650,6b83bd58-61f9-408a-b1fd-32496820f338,c78b32f5-8ca2-46bd-845b-2fefcaea0634,b0f46b6c-468a-4610-b8de-2dbef371af15,2019-09-09 23:07:34,0.200000
47,4008acc4-77d7-4e7c-80fe-d9b7f16d9452,a0d93d84-a7d8-4fbb-9695-90128956aefd,9767a037-b2e5-415a-b798-663e81d7d271,2b48abc4-d788-45b1-b403-02c97ab520b7,2019-09-09 23:08:38,0.200000
48,7a4f39f3-109c-41d8-a039-50944cb74885,826958c5-e78c-4f8b-9922-ea0af0f6460b,e436009c-e8ab-459e-b675-9b308d2c820f,2c10ae30-b6c6-4c6f-b73f-edd4652333e0,2019-09-09 23:09:41,1.000000
49,36245649-18c5-4633-9456-8b9352898a70,21224f89-bc94-49d9-a84a-30b3f0e698e7,d494744b-34e6-435f-a633-67d222facab0,95c67ca5-5942-4f47-83d7-2c9bd16d18f2,2019-09-09 23:10:45,0.200000
50,1d6763e0-9db0-488f-8d6f-a935d1542fc3,df45f067-e138-45d8-8e9f-d64d8a68fbac,42c88c58-12f1-4ed4-a32a-3ad632467c82,64fcf8ea-fce0-4153-9176-a79a9a9f513d,2019-09-09 23:11:49,1.000000
