date,trigger,state
2019-09-09 22:33:21,b8b551ae-9a90-4a1c-966a-608a97d69dbb,S
2019-09-09 22:49:29,b8b551ae-9a90-4a1c-966a-608a97d69dbb,A
2019-09-09 22:50:41,b8b551ae-9a90-4a1c-966a-608a97d69dbb,S
2019-09-09 22:55:30,b8b551ae-9a90-4a1c-966a-608a97d69dbb,A
2019-09-09 22:56:35,b8b551ae-9a90-4a1c-966a-608a97d69dbb,S
2019-09-09 22:59:23,b8b551ae-9a90-4a1c-966a-608a97d69dbb,A
2019-09-09 23:04:35,b8b551ae-9a90-4a1c-966a-608a97d69dbb,S
2019-09-09 23:06:45,b8b551ae-9a90-4a1c-966a-608a97d69dbb,A
2019-09-09 23:10:14,b8b551ae-9a90-4a1c-966a-608a97d69dbb,S
2019-09-09 23:15:49,b8b551ae-9a90-4a1c-966a-608a97d69dbb,A
2019-09-09 22:47:25,741777be-ab9b-4084-8817-ce5ce46a8dbf,A
2019-09-09 22:53:28,741777be-ab9b-4084-8817-ce5ce46a8dbf,S
2019-09-09 22:55:59,741777be-ab9b-4084-8817-ce5ce46a8dbf,A
2019-09-09 22:56:43,741777be-ab9b-4084-8817-ce5ce46a8dbf,S
2019-09-09 22:56:46,741777be-ab9b-4084-8817-ce5ce46a8dbf,A
2019-09-09 22:59:36,741777be-ab9b-4084-8817-ce5ce46a8dbf,S
2019-09-09 23:07:52,741777be-ab9b-4084-8817-ce5ce46a8dbf,A
2019-09-09 23:10:38,741777be-ab9b-4084-8817-ce5ce46a8dbf,S
2019-09-09 23:10:41,741777be-ab9b-4084-8817-ce5ce46a8dbf,A
2019-09-09 23:16:47,741777be-ab9b-4084-8817-ce5ce46a8dbf,S
2019-09-09 23:21:09,741777be-ab9b-4084-8817-ce5ce46a8dbf,A
2019-09-09 23:28:30,741777be-ab9b-4084-8817-ce5ce46a8dbf,S
2019-09-09 23:29:40,741777be-ab9b-4084-8817-ce5ce46a8dbf,A
2019-09-09 23:33:36,741777be-ab9b-4084-8817-ce5ce46a8dbf,S
2019-09-09 23:34:23,741777be-ab9b-4084-8817-ce5ce46a8dbf,A
2019-09-09 23:34:41,741777be-ab9b-4084-8817-ce5ce46a8dbf,S
2019-09-09 23:45:14,741777be-ab9b-4084-8817-ce5ce46a8dbf,A
2019-09-09 23:46:37,741777be-ab9b-4084-8817-ce5ce46a8dbf,S
2019-09-09 23:52:22,741777be-ab9b-4084-8817-ce5ce46a8dbf,A
2019-09-09 23:56:48,741777be-ab9b-4084-8817-ce5ce46a8dbf,S
2019-09-09 23:58:07,741777be-ab9b-4084-8817-ce5ce46a8dbf,A
2019-09-10 00:00:55,741777be-ab9b-4084-8817-ce5ce46a8dbf,S
2019-09-10 00:02:19,741777be-ab9b-4084-8817-ce5ce46a8dbf,A
2019-09-10 00:11:08,741777be-ab9b-4084-8817-ce5ce46a8dbf,S
2019-09-10 00:12:38,741777be-ab9b-4084-8817-ce5ce46a8dbf,A
2019-09-10 00:16:17,741777be-ab9b-4084-8817-ce5ce46a8dbf,S
2019-09-10 00:16:34,741777be-ab9b-4084-8817-ce5ce46a8dbf,A
2019-09-10 00:20:32,741777be-ab9b-4084-8817-ce5ce46a8dbf,S
2019-09-09 22:51:02,76c9d113-a15a-4f90-8038-c445b9f84fa0,S
2019-09-09 22:56:18,76c9d113-a15a-4f90-8038-c445b9f84fa0,A
2019-09-09 23:03:01,76c9d113-a15a-4f90-8038-c445b9f84fa0,S
2019-09-09 23:08:01,76c9d113-a15a-4f90-8038-c445b9f84fa0,A
2019-09-09 23:08:57,76c9d113-a15a-4f90-8038-c445b9f84fa0,S
2019-09-09 23:15:43,76c9d113-a15a-4f90-8038-c445b9f84fa0,A
2019-09-09 23:17:59,76c9d113-a15a-4f90-8038-c445b9f84fa0,S
2019-09-09 23:24:05,76c9d113-a15a-4f90-8038-c445b9f84fa0,A
2019-09-09 23:24:07,76c9d113-a15a-4f90-8038-c445b9f84fa0,S
2019-09-09 23:24:51,76c9d113-a15a-4f90-8038-c445b9f84fa0,A
2019-09-09 23:28:44,76c9d113-a15a-4f90-8038-c445b9f84fa0,S
2019-09-09 23:34:21,76c9d113-a15a-4f90-8038-c445b9f84fa0,A
2019-09-09 23:36:22,76c9d113-a15a-4f90-8038-c445b9f84fa0,S
2019-09-09 23:39:35,76c9d113-a15a-4f90-8038-c445b9f84fa0,A
2019-09-09 23:42:26,76c9d113-a15a-4f90-8038-c445b9f84fa0,S
2019-09-09 23:45:41,76c9d113-a15a-4f90-8038-c445b9f84fa0,A
2019-09-09 23:54:42,76c9d113-a15a-4f90-8038-c445b9f84fa0,S
2019-09-09 23:58:16,76c9d113-a15a-4f90-8038-c445b9f84fa0,A
2019-09-09 23:59:15,76c9d113-a15a-4f90-8038-c445b9f84fa0,S
2019-09-10 00:02:42,76c9d113-a15a-4f90-8038-c445b9f84fa0,A
2019-09-10 00:04:39,76c9d113-a15a-4f90-8038-c445b9f84fa0,S
2019-09-10 00:05:21,76c9d113-a15a-4f90-8038-c445b9f84fa0,A
2019-09-10 00:12:30,76c9d113-a15a-4f90-8038-c445b9f84fa0,S
2019-09-10 00:14:54,76c9d113-a15a-4f90-8038-c445b9f84fa0,A
2019-09-09 22:42:25,6d16bf51-7979-47e8-8cb7-f547c26ff418,A
2019-09-09 22:46:06,6d16bf51-7979-47e8-8cb7-f547c26ff418,S
2019-09-09 22:49:26,6d16bf51-7979-47e8-8cb7-f547c26ff418,A
2019-09-09 22:51:05,6d16bf51-7979-47e8-8cb7-f547c26ff418,S
2019-09-09 23:06:36,6d16bf51-7979-47e8-8cb7-f547c26ff418,A
2019-09-09 23:08:20,6d16bf51-7979-47e8-8cb7-f547c26ff418,S
2019-09-09 23:08:43,6d16bf51-7979-47e8-8cb7-f547c26ff418,A
2019-09-09 23:30:31,6d16bf51-7979-47e8-8cb7-f547c26ff418,S
2019-09-09 23:37:41,6d16bf51-7979-47e8-8cb7-f547c26ff418,A
2019-09-09 23:42:02,6d16bf51-7979-47e8-8cb7-f547c26ff418,S
2019-09-09 23:42:42,6d16bf51-7979-47e8-8cb7-f547c26ff418,A
2019-09-09 23:46:57,6d16bf51-7979-47e8-8cb7-f547c26ff418,S
2019-09-09 23:48:47,6d16bf51-7979-47e8-8cb7-f547c26ff418,A
2019-09-09 23:51:30,6d16bf51-7979-47e8-8cb7-f547c26ff418,S
2019-09-10 00:00:44,6d16bf51-7979-47e8-8cb7-f547c26ff418,A
2019-09-10 00:08:20,6d16bf51-7979-47e8-8cb7-f547c26ff418,S
2019-09-10 00:13:17,6d16bf51-7979-47e8-8cb7-f547c26ff418,A
2019-09-10 00:19:54,6d16bf51-7979-47e8-8cb7-f547c26ff418,S
2019-09-09 23:04:23,faac25e0-b5d8-4a2a-b13c-3f593a2ba94b,A
2019-09-09 23:19:06,faac25e0-b5d8-4a2a-b13c-3f593a2ba94b,S
2019-09-09 23:21:12,faac25e0-b5d8-4a2a-b13c-3f593a2ba94b,A
2019-09-09 23:30:18,faac25e0-b5d8-4a2a-b13c-3f593a2ba94b,S
2019-09-09 23:41:51,faac25e0-b5d8-4a2a-b13c-3f593a2ba94b,A
2019-09-09 23:48:03,faac25e0-b5d8-4a2a-b13c-3f593a2ba94b,S
2019-09-09 23:54:44,faac25e0-b5d8-4a2a-b13c-3f593a2ba94b,A
2019-09-09 23:55:07,faac25e0-b5d8-4a2a-b13c-3f593a2ba94b,S
2019-09-09 23:56:14,faac25e0-b5d8-4a2a-b13c-3f593a2ba94b,A
2019-09-10 00:00:33,faac25e0-b5d8-4a2a-b13c-3f593a2ba94b,S
2019-09-10 00:01:05,faac25e0-b5d8-4a2a-b13c-3f593a2ba94b,A
2019-09-10 00:07:45,faac25e0-b5d8-4a2a-b13c-3f593a2ba94b,S
2019-09-10 00:10:28,faac25e0-b5d8-4a2a-b13c-3f593a2ba94b,A
2019-09-10 00:12:15,faac25e0-b5d8-4a2a-b13c-3f593a2ba94b,S
2019-09-10 00:16:02,faac25e0-b5d8-4a2a-b13c-3f593a2ba94b,A
2019-09-10 00:22:17,faac25e0-b5d8-4a2a-b13c-3f593a2ba94b,S
2019-09-10 00:22:30,faac25e0-b5d8-4a2a-b13c-3f593a2ba94b,A
2019-09-10 00:25:06,faac25e0-b5d8-4a2a-b13c-3f593a2ba94b,S
2019-09-09 22:37:10,3128b3cc-a17d-4c2c-aaac-b9225c2d21bd,S
2019-09-09 22:49:06,3128b3cc-a17d-4c2c-aaac-b9225c2d21bd,A
2019-09-09 22:49:24,3128b3cc-a17d-4c2c-aaac-b9225c2d21bd,S
2019-09-09 23:04:48,3128b3cc-a17d-4c2c-aaac-b9225c2d21bd,A
2019-09-09 23:07:41,3128b3cc-a17d-4c2c-aaac-b9225c2d21bd,S
2019-09-09 23:09:41,3128b3cc-a17d-4c2c-aaac-b9225c2d21bd,A
2019-09-09 23:17:47,3128b3cc-a17d-4c2c-aaac-b9225c2d21bd,S
2019-09-09 23:18:43,3128b3cc-a17d-4c2c-aaac-b9225c2d21bd,A
2019-09-09 23:20:56,3128b3cc-a17d-4c2c-aaac-b9225c2d21bd,S
2019-09-09 23:35:21,3128b3cc-a17d-4c2c-aaac-b9225c2d21bd,A
2019-09-09 23:40:39,3128b3cc-a17d-4c2c-aaac-b9225c2d21bd,S
2019-09-09 23:42:12,3128b3cc-a17d-4c2c-aaac-b9225c2d21bd,A
2019-09-09 23:43:00,3128b3cc-a17d-4c2c-aaac-b9225c2d21bd,S
2019-09-09 23:44:57,3128b3cc-a17d-4c2c-aaac-b9225c2d21bd,A
2019-09-09 23:48:14,3128b3cc-a17d-4c2c-aaac-b9225c2d21bd,S
2019-09-09 23:48:21,3128b3cc-a17d-4c2c-aaac-b9225c2d21bd,A
2019-09-10 00:00:40,3128b3cc-a17d-4c2c-aaac-b9225c2d21bd,S
2019-09-10 00:02:00,3128b3cc-a17d-4c2c-aaac-b9225c2d21bd,A
2019-09-10 00:06:53,3128b3cc-a17d-4c2c-aaac-b9225c2d21bd,S
2019-09-10 00:10:19,3128b3cc-a17d-4c2c-aaac-b9225c2d21bd,A
2019-09-10 00:11:33,3128b3cc-a17d-4c2c-aaac-b9225c2d21bd,S
2019-09-10 00:12:15,3128b3cc-a17d-4c2c-aaac-b9225c2d21bd,A
2019-09-10 00:24:55,3128b3cc-a17d-4c2c-aaac-b9225c2d21bd,S
2019-09-10 00:26:23,3128b3cc-a17d-4c2c-aaac-b9225c2d21bd,A
2019-09-10 00:27:37,3128b3cc-a17d-4c2c-aaac-b9225c2d21bd,S
2019-09-09 23:09:11,a0d93d84-a7d8-4fbb-9695-90128956aefd,S
2019-09-09 23:14:34,a0d93d84-a7d8-4fbb-9695-90128956aefd,A
2019-09-09 23:15:59,a0d93d84-a7d8-4fbb-9695-90128956aefd,S
2019-09-09 23:18:09,a0d93d84-a7d8-4fbb-9695-90128956aefd,A
2019-09-09 23:25:11,a0d93d84-a7d8-4fbb-9695-90128956aefd,S
2019-09-09 23:31:18,a0d93d84-a7d8-4fbb-9695-90128956aefd,A
2019-09-09 23:35:12,a0d93d84-a7d8-4fbb-9695-90128956aefd,S
2019-09-09 23:38:34,a0d93d84-a7d8-4fbb-9695-90128956aefd,A
2019-09-09 23:40:09,a0d93d84-a7d8-4fbb-9695-90128956aefd,S
2019-09-09 23:40:19,a0d93d84-a7d8-4fbb-9695-90128956aefd,A
2019-09-09 23:42:39,a0d93d84-a7d8-4fbb-9695-90128956aefd,S
2019-09-09 23:46:56,a0d93d84-a7d8-4fbb-9695-90128956aefd,A
2019-09-09 23:49:50,a0d93d84-a7d8-4fbb-9695-90128956aefd,S
2019-09-09 23:50:45,a0d93d84-a7d8-4fbb-9695-90128956aefd,A
2019-09-10 00:01:09,a0d93d84-a7d8-4fbb-9695-90128956aefd,S
2019-09-10 00:01:12,a0d93d84-a7d8-4fbb-9695-90128956aefd,A
2019-09-10 00:01:44,a0d93d84-a7d8-4fbb-9695-90128956aefd,S
2019-09-10 00:02:13,a0d93d84-a7d8-4fbb-9695-90128956aefd,A
2019-09-10 00:02:26,a0d93d84-a7d8-4fbb-9695-90128956aefd,S
2019-09-10 00:06:22,a0d93d84-a7d8-4fbb-9695-90128956aefd,A
2019-09-10 00:14:10,a0d93d84-a7d8-4fbb-9695-90128956aefd,S
2019-09-10 00:20:09,a0d93d84-a7d8-4fbb-9695-90128956aefd,A
2019-09-10 00:23:02,a0d93d84-a7d8-4fbb-9695-90128956aefd,S
2019-09-10 00:25:02,a0d93d84-a7d8-4fbb-9695-90128956aefd,A
2019-09-09 23:00:45,6d152aaf-80dd-4fdd-8cbd-53b5d5ac7249,S
2019-09-09 23:02:40,6d152aaf-80dd-4fdd-8cbd-53b5d5ac7249,A
2019-09-09 23:05:49,6d152aaf-80dd-4fdd-8cbd-53b5d5ac7249,S
2019-09-09 23:06:18,6d152aaf-80dd-4fdd-8cbd-53b5d5ac7249,A
2019-09-09 23:09:27,6d152aaf-80dd-4fdd-8cbd-53b5d5ac7249,S
2019-09-09 23:11:27,6d152aaf-80dd-4fdd-8cbd-53b5d5ac7249,A
2019-09-09 23:15:43,6d152aaf-80dd-4fdd-8cbd-53b5d5ac7249,S
2019-09-09 23:16:40,6d152aaf-80dd-4fdd-8cbd-53b5d5ac7249,A
2019-09-09 23:17:30,6d152aaf-80dd-4fdd-8cbd-53b5d5ac7249,S
2019-09-09 23:24:57,6d152aaf-80dd-4fdd-8cbd-53b5d5ac7249,A
2019-09-09 23:27:09,6d152aaf-80dd-4fdd-8cbd-53b5d5ac7249,S
2019-09-09 23:30:41,6d152aaf-80dd-4fdd-8cbd-53b5d5ac7249,A
2019-09-09 23:38:57,6d152aaf-80dd-4fdd-8cbd-53b5d5ac7249,S
2019-09-09 23:46:22,6d152aaf-80dd-4fdd-8cbd-53b5d5ac7249,A
2019-09-09 23:48:24,6d152aaf-80dd-4fdd-8cbd-53b5d5ac7249,S
2019-09-09 23:51:09,6d152aaf-80dd-4fdd-8cbd-53b5d5ac7249,A
2019-09-09 23:52:14,6d152aaf-80dd-4fdd-8cbd-53b5d5ac7249,S
2019-09-09 23:53:32,6d152aaf-80dd-4fdd-8cbd-53b5d5ac7249,A
2019-09-09 23:55:04,6d152aaf-80dd-4fdd-8cbd-53b5d5ac7249,S
2019-09-10 00:03:11,6d152aaf-80dd-4fdd-8cbd-53b5d5ac7249,A
2019-09-10 00:03:22,6d152aaf-80dd-4fdd-8cbd-53b5d5ac7249,S
2019-09-10 00:03:33,6d152aaf-80dd-4fdd-8cbd-53b5d5ac7249,A
2019-09-10 00:07:24,6d152aaf-80dd-4fdd-8cbd-53b5d5ac7249,S
2019-09-10 00:09:48,6d152aaf-80dd-4fdd-8cbd-53b5d5ac7249,A
2019-09-10 00:10:32,6d152aaf-80dd-4fdd-8cbd-53b5d5ac7249,S
2019-09-10 00:11:50,6d152aaf-80dd-4fdd-8cbd-53b5d5ac7249,A
2019-09-10 00:12:44,6d152aaf-80dd-4fdd-8cbd-53b5d5ac7249,S
2019-09-10 00:21:06,6d152aaf-80dd-4fdd-8cbd-53b5d5ac7249,A
2019-09-10 00:22:20,6d152aaf-80dd-4fdd-8cbd-53b5d5ac7249,S
2019-09-09 22:57:01,458628f6-7d92-45b2-9729-6c705ff12faf,S
2019-09-09 22:59:20,458628f6-7d92-45b2-9729-6c705ff12faf,A
2019-09-09 23:04:31,458628f6-7d92-45b2-9729-6c705ff12faf,S
2019-09-09 23:12:37,458628f6-7d92-45b2-9729-6c705ff12faf,A
2019-09-09 23:20:01,458628f6-7d92-45b2-9729-6c705ff12faf,S
2019-09-09 23:20:23,458628f6-7d92-45b2-9729-6c705ff12faf,A
2019-09-09 23:25:56,458628f6-7d92-45b2-9729-6c705ff12faf,S
2019-09-09 23:36:59,458628f6-7d92-45b2-9729-6c705ff12faf,A
2019-09-09 23:41:24,458628f6-7d92-45b2-9729-6c705ff12faf,S
2019-09-09 23:44:11,458628f6-7d92-45b2-9729-6c705ff12faf,A
2019-09-09 23:50:53,458628f6-7d92-45b2-9729-6c705ff12faf,S
2019-09-09 23:51:43,458628f6-7d92-45b2-9729-6c705ff12faf,A
2019-09-09 23:54:29,458628f6-7d92-45b2-9729-6c705ff12faf,S
2019-09-09 23:58:19,458628f6-7d92-45b2-9729-6c705ff12faf,A
2019-09-10 00:04:47,458628f6-7d92-45b2-9729-6c705ff12faf,S
2019-09-10 00:07:52,458628f6-7d92-45b2-9729-6c705ff12faf,A
2019-09-10 00:20:12,458628f6-7d92-45b2-9729-6c705ff12faf,S
2019-09-10 00:24:59,458628f6-7d92-45b2-9729-6c705ff12faf,A
2019-09-10 00:27:03,458628f6-7d92-45b2-9729-6c705ff12faf,S
2019-09-09 23:03:37,82294ab4-cd0a-42b0-a392-28e922453a7c,S
2019-09-09 23:04:20,82294ab4-cd0a-42b0-a392-28e922453a7c,A
2019-09-09 23:07:51,82294ab4-cd0a-42b0-a392-28e922453a7c,S
2019-09-09 23:11:53,82294ab4-cd0a-42b0-a392-28e922453a7c,A
2019-09-09 23:19:42,82294ab4-cd0a-42b0-a392-28e922453a7c,S
2019-09-09 23:26:11,82294ab4-cd0a-42b0-a392-28e922453a7c,A
2019-09-09 23:30:22,82294ab4-cd0a-42b0-a392-28e922453a7c,S
2019-09-09 23:31:47,82294ab4-cd0a-42b0-a392-28e922453a7c,A
2019-09-09 23:42:12,82294ab4-cd0a-42b0-a392-28e922453a7c,S
2019-09-09 23:42:27,82294ab4-cd0a-42b0-a392-28e922453a7c,A
2019-09-09 23:42:43,82294ab4-cd0a-42b0-a392-28e922453a7c,S
2019-09-09 23:44:13,82294ab4-cd0a-42b0-a392-28e922453a7c,A
2019-09-09 23:52:03,82294ab4-cd0a-42b0-a392-28e922453a7c,S
2019-09-09 23:56:00,82294ab4-cd0a-42b0-a392-28e922453a7c,A
2019-09-09 23:58:38,82294ab4-cd0a-42b0-a392-28e922453a7c,S
2019-09-10 00:01:06,82294ab4-cd0a-42b0-a392-28e922453a7c,A
2019-09-10 00:03:13,82294ab4-cd0a-42b0-a392-28e922453a7c,S
2019-09-10 00:07:53,82294ab4-cd0a-42b0-a392-28e922453a7c,A
2019-09-10 00:14:15,82294ab4-cd0a-42b0-a392-28e922453a7c,S
2019-09-10 00:14:25,82294ab4-cd0a-42b0-a392-28e922453a7c,A
2019-09-10 00:15:04,82294ab4-cd0a-42b0-a392-28e922453a7c,S
2019-09-10 00:17:22,82294ab4-cd0a-42b0-a392-28e922453a7c,A
2019-09-09 23:10:56,21224f89-bc94-49d9-a84a-30b3f0e698e7,S
2019-09-09 23:24:30,21224f89-bc94-49d9-a84a-30b3f0e698e7,A
2019-09-09 23:29:23,21224f89-bc94-49d9-a84a-30b3f0e698e7,S
2019-09-09 23:29:56,21224f89-bc94-49d9-a84a-30b3f0e698e7,A
2019-09-09 23:33:48,21224f89-bc94-49d9-a84a-30b3f0e698e7,S
2019-09-09 23:34:29,21224f89-bc94-49d9-a84a-30b3f0e698e7,A
2019-09-09 23:43:08,21224f89-bc94-49d9-a84a-30b3f0e698e7,S
2019-09-09 23:44:11,21224f89-bc94-49d9-a84a-30b3f0e698e7,A
2019-09-09 23:46:27,21224f89-bc94-49d9-a84a-30b3f0e698e7,S
2019-09-09 23:48:37,21224f89-bc94-49d9-a84a-30b3f0e698e7,A
2019-09-09 23:50:58,21224f89-bc94-49d9-a84a-30b3f0e698e7,S
2019-09-09 23:54:50,21224f89-bc94-49d9-a84a-30b3f0e698e7,A
2019-09-09 23:56:01,21224f89-bc94-49d9-a84a-30b3f0e698e7,S
2019-09-09 23:56:52,21224f89-bc94-49d9-a84a-30b3f0e698e7,A
2019-09-09 23:59:02,21224f89-bc94-49d9-a84a-30b3f0e698e7,S
2019-09-09 23:59:24,21224f89-bc94-49d9-a84a-30b3f0e698e7,A
2019-09-09 23:59:41,21224f89-bc94-49d9-a84a-30b3f0e698e7,S
2019-09-10 00:04:12,21224f89-bc94-49d9-a84a-30b3f0e698e7,A
2019-09-10 00:05:02,21224f89-bc94-49d9-a84a-30b3f0e698e7,S
2019-09-10 00:14:34,21224f89-bc94-49d9-a84a-30b3f0e698e7,A
2019-09-10 00:20:37,21224f89-bc94-49d9-a84a-30b3f0e698e7,S
2019-09-10 00:28:35,21224f89-bc94-49d9-a84a-30b3f0e698e7,A
2019-09-09 22:24:53,4509955a-1859-485c-84e0-fbea187e1a7a,S
2019-09-09 22:28:56,4509955a-1859-485c-84e0-fbea187e1a7a,A
2019-09-09 22:29:46,4509955a-1859-485c-84e0-fbea187e1a7a,S
2019-09-09 22:34:59,4509955a-1859-485c-84e0-fbea187e1a7a,A
2019-09-09 22:39:52,4509955a-1859-485c-84e0-fbea187e1a7a,S
2019-09-09 22:44:50,4509955a-1859-485c-84e0-fbea187e1a7a,A
2019-09-09 22:47:25,4509955a-1859-485c-84e0-fbea187e1a7a,S
2019-09-09 22:48:11,4509955a-1859-485c-84e0-fbea187e1a7a,A
2019-09-09 22:58:47,4509955a-1859-485c-84e0-fbea187e1a7a,S
2019-09-09 22:59:11,4509955a-1859-485c-84e0-fbea187e1a7a,A
2019-09-09 23:06:49,4509955a-1859-485c-84e0-fbea187e1a7a,S
2019-09-09 23:12:09,4509955a-1859-485c-84e0-fbea187e1a7a,A
2019-09-09 23:12:35,4509955a-1859-485c-84e0-fbea187e1a7a,S
2019-09-09 23:19:00,4509955a-1859-485c-84e0-fbea187e1a7a,A
2019-09-09 23:21:05,4509955a-1859-485c-84e0-fbea187e1a7a,S
2019-09-09 23:21:18,4509955a-1859-485c-84e0-fbea187e1a7a,A
2019-09-09 23:26:21,4509955a-1859-485c-84e0-fbea187e1a7a,S
2019-09-09 23:27:02,4509955a-1859-485c-84e0-fbea187e1a7a,A
2019-09-09 23:44:09,4509955a-1859-485c-84e0-fbea187e1a7a,S
2019-09-09 23:46:25,4509955a-1859-485c-84e0-fbea187e1a7a,A
2019-09-09 23:46:45,4509955a-1859-485c-84e0-fbea187e1a7a,S
2019-09-09 23:50:11,4509955a-1859-485c-84e0-fbea187e1a7a,A
2019-09-09 23:50:21,4509955a-1859-485c-84e0-fbea187e1a7a,S
2019-09-09 23:57:23,4509955a-1859-485c-84e0-fbea187e1a7a,A
2019-09-10 00:03:11,4509955a-1859-485c-84e0-fbea187e1a7a,S
2019-09-10 00:23:54,4509955a-1859-485c-84e0-fbea187e1a7a,A
2019-09-10 00:25:10,4509955a-1859-485c-84e0-fbea187e1a7a,S
2019-09-09 23:09:12,7d581441-5a83-464c-b06b-00bfc75bf906,S
2019-09-09 23:11:23,7d581441-5a83-464c-b06b-00bfc75bf906,A
2019-09-09 23:14:09,7d581441-5a83-464c-b06b-00bfc75bf906,S
2019-09-09 23:31:05,7d581441-5a83-464c-b06b-00bfc75bf906,A
2019-09-09 23:32:45,7d581441-5a83-464c-b06b-00bfc75bf906,S
2019-09-09 23:33:52,7d581441-5a83-464c-b06b-00bfc75bf906,A
2019-09-09 23:39:06,7d581441-5a83-464c-b06b-00bfc75bf906,S
2019-09-09 23:47:44,7d581441-5a83-464c-b06b-00bfc75bf906,A
2019-09-09 23:49:42,7d581441-5a83-464c-b06b-00bfc75bf906,S
2019-09-09 23:57:17,7d581441-5a83-464c-b06b-00bfc75bf906,A
2019-09-09 23:58:06,7d581441-5a83-464c-b06b-00bfc75bf906,S
2019-09-10 00:09:53,7d581441-5a83-464c-b06b-00bfc75bf906,A
2019-09-10 00:17:45,7d581441-5a83-464c-b06b-00bfc75bf906,S
2019-09-10 00:19:23,7d581441-5a83-464c-b06b-00bfc75bf906,A
2019-09-10 00:23:13,7d581441-5a83-464c-b06b-00bfc75bf906,S
2019-09-10 00:25:31,7d581441-5a83-464c-b06b-00bfc75bf906,A
2019-09-09 22:55:09,9188729a-eebc-40a6-969a-84f10e69bc2f,A
2019-09-09 23:06:40,9188729a-eebc-40a6-969a-84f10e69bc2f,S
2019-09-09 23:16:36,9188729a-eebc-40a6-969a-84f10e69bc2f,A
2019-09-09 23:22:04,9188729a-eebc-40a6-969a-84f10e69bc2f,S
2019-09-09 23:22:46,9188729a-eebc-40a6-969a-84f10e69bc2f,A
2019-09-09 23:23:43,9188729a-eebc-40a6-969a-84f10e69bc2f,S
2019-09-09 23:25:41,9188729a-eebc-40a6-969a-84f10e69bc2f,A
2019-09-09 23:27:01,9188729a-eebc-40a6-969a-84f10e69bc2f,S
2019-09-09 23:34:21,9188729a-eebc-40a6-969a-84f10e69bc2f,A
2019-09-09 23:36:14,9188729a-eebc-40a6-969a-84f10e69bc2f,S
2019-09-09 23:37:57,9188729a-eebc-40a6-969a-84f10e69bc2f,A
2019-09-09 23:53:21,9188729a-eebc-40a6-969a-84f10e69bc2f,S
2019-09-09 23:59:15,9188729a-eebc-40a6-969a-84f10e69bc2f,A
2019-09-10 00:03:48,9188729a-eebc-40a6-969a-84f10e69bc2f,S
2019-09-10 00:04:52,9188729a-eebc-40a6-969a-84f10e69bc2f,A
2019-09-10 00:07:12,9188729a-eebc-40a6-969a-84f10e69bc2f,S
2019-09-10 00:10:51,9188729a-eebc-40a6-969a-84f10e69bc2f,A
2019-09-10 00:12:52,9188729a-eebc-40a6-969a-84f10e69bc2f,S
2019-09-10 00:13:00,9188729a-eebc-40a6-969a-84f10e69bc2f,A
2019-09-10 00:22:06,9188729a-eebc-40a6-969a-84f10e69bc2f,S
2019-09-10 00:28:25,9188729a-eebc-40a6-969a-84f10e69bc2f,A
2019-09-09 23:12:36,df45f067-e138-45d8-8e9f-d64d8a68fbac,S
2019-09-09 23:14:55,df45f067-e138-45d8-8e9f-d64d8a68fbac,A
2019-09-09 23:21:25,df45f067-e138-45d8-8e9f-d64d8a68fbac,S
2019-09-09 23:22:24,df45f067-e138-45d8-8e9f-d64d8a68fbac,A
2019-09-09 23:22:44,df45f067-e138-45d8-8e9f-d64d8a68fbac,S
2019-09-09 23:27:54,df45f067-e138-45d8-8e9f-d64d8a68fbac,A
2019-09-09 23:32:47,df45f067-e138-45d8-8e9f-d64d8a68fbac,S
2019-09-09 23:37:27,df45f067-e138-45d8-8e9f-d64d8a68fbac,A
2019-09-09 23:50:27,df45f067-e138-45d8-8e9f-d64d8a68fbac,S
2019-09-10 00:07:56,df45f067-e138-45d8-8e9f-d64d8a68fbac,A
2019-09-10 00:12:39,df45f067-e138-45d8-8e9f-d64d8a68fbac,S
2019-09-10 00:14:48,df45f067-e138-45d8-8e9f-d64d8a68fbac,A
2019-09-10 00:16:02,df45f067-e138-45d8-8e9f-d64d8a68fbac,S
2019-09-10 00:17:24,df45f067-e138-45d8-8e9f-d64d8a68fbac,A
2019-09-10 00:18:07,df45f067-e138-45d8-8e9f-d64d8a68fbac,S
2019-09-10 00:18:40,df45f067-e138-45d8-8e9f-d64d8a68fbac,A
2019-09-10 00:19:45,df45f067-e138-45d8-8e9f-d64d8a68fbac,S
2019-09-10 00:26:26,df45f067-e138-45d8-8e9f-d64d8a68fbac,A
2019-09-10 00:26:45,df45f067-e138-45d8-8e9f-d64d8a68fbac,S
2019-09-10 00:27:33,df45f067-e138-45d8-8e9f-d64d8a68fbac,A
2019-09-10 00:27:34,df45f067-e138-45d8-8e9f-d64d8a68fbac,S
2019-09-09 23:08:26,dd6c2093-7525-4618-8a52-e730901c72fe,A
2019-09-09 23:13:32,dd6c2093-7525-4618-8a52-e730901c72fe,S
2019-09-09 23:14:36,dd6c2093-7525-4618-8a52-e730901c72fe,A
2019-09-09 23:16:31,dd6c2093-7525-4618-8a52-e730901c72fe,S
2019-09-09 23:24:06,dd6c2093-7525-4618-8a52-e730901c72fe,A
2019-09-09 23:25:31,dd6c2093-7525-4618-8a52-e730901c72fe,S
2019-09-09 23:35:24,dd6c2093-7525-4618-8a52-e730901c72fe,A
2019-09-09 23:37:13,dd6c2093-7525-4618-8a52-e730901c72fe,S
2019-09-09 23:42:06,dd6c2093-7525-4618-8a52-e730901c72fe,A
2019-09-09 23:46:30,dd6c2093-7525-4618-8a52-e730901c72fe,S
2019-09-09 23:55:15,dd6c2093-7525-4618-8a52-e730901c72fe,A
2019-09-09 23:56:46,dd6c2093-7525-4618-8a52-e730901c72fe,S
2019-09-09 23:58:40,dd6c2093-7525-4618-8a52-e730901c72fe,A
2019-09-10 00:01:07,dd6c2093-7525-4618-8a52-e730901c72fe,S
2019-09-10 00:05:21,dd6c2093-7525-4618-8a52-e730901c72fe,A
2019-09-10 00:11:10,dd6c2093-7525-4618-8a52-e730901c72fe,S
2019-09-10 00:16:40,dd6c2093-7525-4618-8a52-e730901c72fe,A
2019-09-10 00:25:53,dd6c2093-7525-4618-8a52-e730901c72fe,S
2019-09-09 23:10:00,e04ae53c-ef54-47bc-9116-59d2bc6e1d6d,A
2019-09-09 23:43:46,e04ae53c-ef54-47bc-9116-59d2bc6e1d6d,S
2019-09-09 23:44:14,e04ae53c-ef54-47bc-9116-59d2bc6e1d6d,A
2019-09-10 00:13:31,e04ae53c-ef54-47bc-9116-59d2bc6e1d6d,S
2019-09-10 00:16:34,e04ae53c-ef54-47bc-9116-59d2bc6e1d6d,A
2019-09-10 00:19:02,e04ae53c-ef54-47bc-9116-59d2bc6e1d6d,S
2019-09-10 00:20:34,e04ae53c-ef54-47bc-9116-59d2bc6e1d6d,A
2019-09-10 00:21:20,e04ae53c-ef54-47bc-9116-59d2bc6e1d6d,S
2019-09-10 00:24:35,e04ae53c-ef54-47bc-9116-59d2bc6e1d6d,A
2019-09-09 22:58:15,5a8a887f-92d4-4d62-969e-4f85cc840e53,A
2019-09-09 22:58:44,5a8a887f-92d4-4d62-969e-4f85cc840e53,S
2019-09-09 23:07:14,5a8a887f-92d4-4d62-969e-4f85cc840e53,A
2019-09-09 23:08:33,5a8a887f-92d4-4d62-969e-4f85cc840e53,S
2019-09-09 23:08:33,5a8a887f-92d4-4d62-969e-4f85cc840e53,A
2019-09-09 23:17:10,5a8a887f-92d4-4d62-969e-4f85cc840e53,S
2019-09-09 23:18:24,5a8a887f-92d4-4d62-969e-4f85cc840e53,A
2019-09-09 23:19:14,5a8a887f-92d4-4d62-969e-4f85cc840e53,S
2019-09-09 23:23:02,5a8a887f-92d4-4d62-969e-4f85cc840e53,A
2019-09-09 23:24:08,5a8a887f-92d4-4d62-969e-4f85cc840e53,S
2019-09-09 23:24:20,5a8a887f-92d4-4d62-969e-4f85cc840e53,A
2019-09-09 23:29:53,5a8a887f-92d4-4d62-969e-4f85cc840e53,S
2019-09-09 23:35:12,5a8a887f-92d4-4d62-969e-4f85cc840e53,A
2019-09-09 23:47:27,5a8a887f-92d4-4d62-969e-4f85cc840e53,S
2019-09-09 23:47:43,5a8a887f-92d4-4d62-969e-4f85cc840e53,A
2019-09-09 23:51:53,5a8a887f-92d4-4d62-969e-4f85cc840e53,S
2019-09-10 00:01:29,5a8a887f-92d4-4d62-969e-4f85cc840e53,A
2019-09-10 00:13:35,5a8a887f-92d4-4d62-969e-4f85cc840e53,S
2019-09-10 00:17:04,5a8a887f-92d4-4d62-969e-4f85cc840e53,A
2019-09-10 00:21:27,5a8a887f-92d4-4d62-969e-4f85cc840e53,S
2019-09-10 00:22:51,5a8a887f-92d4-4d62-969e-4f85cc840e53,A
2019-09-10 00:23:27,5a8a887f-92d4-4d62-969e-4f85cc840e53,S
2019-09-09 22:55:50,33fef8a6-46a0-44bf-b3be-b6c59861a0fb,S
2019-09-09 23:08:04,33fef8a6-46a0-44bf-b3be-b6c59861a0fb,A
2019-09-09 23:18:13,33fef8a6-46a0-44bf-b3be-b6c59861a0fb,S
2019-09-09 23:19:31,33fef8a6-46a0-44bf-b3be-b6c59861a0fb,A
2019-09-09 23:21:30,33fef8a6-46a0-44bf-b3be-b6c59861a0fb,S
2019-09-09 23:28:09,33fef8a6-46a0-44bf-b3be-b6c59861a0fb,A
2019-09-09 23:28:56,33fef8a6-46a0-44bf-b3be-b6c59861a0fb,S
2019-09-09 23:31:18,33fef8a6-46a0-44bf-b3be-b6c59861a0fb,A
2019-09-09 23:32:09,33fef8a6-46a0-44bf-b3be-b6c59861a0fb,S
2019-09-09 23:32:31,33fef8a6-46a0-44bf-b3be-b6c59861a0fb,A
2019-09-09 23:32:49,33fef8a6-46a0-44bf-b3be-b6c59861a0fb,S
2019-09-09 23:39:46,33fef8a6-46a0-44bf-b3be-b6c59861a0fb,A
2019-09-09 23:52:36,33fef8a6-46a0-44bf-b3be-b6c59861a0fb,S
2019-09-09 23:57:13,33fef8a6-46a0-44bf-b3be-b6c59861a0fb,A
2019-09-09 23:57:52,33fef8a6-46a0-44bf-b3be-b6c59861a0fb,S
2019-09-10 00:14:47,33fef8a6-46a0-44bf-b3be-b6c59861a0fb,A
2019-09-10 00:17:07,33fef8a6-46a0-44bf-b3be-b6c59861a0fb,S
2019-09-10 00:17:21,33fef8a6-46a0-44bf-b3be-b6c59861a0fb,A
2019-09-10 00:18:40,33fef8a6-46a0-44bf-b3be-b6c59861a0fb,S
2019-09-10 00:21:07,33fef8a6-46a0-44bf-b3be-b6c59861a0fb,A
2019-09-10 00:26:35,33fef8a6-46a0-44bf-b3be-b6c59861a0fb,S
2019-09-10 00:29:38,33fef8a6-46a0-44bf-b3be-b6c59861a0fb,A
2019-09-09 22:33:48,f667dabd-42df-45d3-be71-7a4118960e2b,S
2019-09-09 22:37:55,f667dabd-42df-45d3-be71-7a4118960e2b,A
2019-09-09 22:48:19,f667dabd-42df-45d3-be71-7a4118960e2b,S
2019-09-09 22:49:53,f667dabd-42df-45d3-be71-7a4118960e2b,A
2019-09-09 22:57:23,f667dabd-42df-45d3-be71-7a4118960e2b,S
2019-09-09 22:57:38,f667dabd-42df-45d3-be71-7a4118960e2b,A
2019-09-09 22:59:04,f667dabd-42df-45d3-be71-7a4118960e2b,S
2019-09-09 23:16:20,f667dabd-42df-45d3-be71-7a4118960e2b,A
2019-09-09 23:22:06,f667dabd-42df-45d3-be71-7a4118960e2b,S
2019-09-09 23:25:41,f667dabd-42df-45d3-be71-7a4118960e2b,A
2019-09-09 23:28:53,f667dabd-42df-45d3-be71-7a4118960e2b,S
2019-09-09 23:29:09,f667dabd-42df-45d3-be71-7a4118960e2b,A
2019-09-09 23:47:44,f667dabd-42df-45d3-be71-7a4118960e2b,S
2019-09-09 23:48:10,f667dabd-42df-45d3-be71-7a4118960e2b,A
2019-09-09 23:51:01,f667dabd-42df-45d3-be71-7a4118960e2b,S
2019-09-10 00:04:34,f667dabd-42df-45d3-be71-7a4118960e2b,A
2019-09-10 00:07:52,f667dabd-42df-45d3-be71-7a4118960e2b,S
2019-09-10 00:10:19,f667dabd-42df-45d3-be71-7a4118960e2b,A
2019-09-10 00:10:57,f667dabd-42df-45d3-be71-7a4118960e2b,S
2019-09-10 00:16:10,f667dabd-42df-45d3-be71-7a4118960e2b,A
2019-09-10 00:20:51,f667dabd-42df-45d3-be71-7a4118960e2b,S
2019-09-10 00:24:47,f667dabd-42df-45d3-be71-7a4118960e2b,A
2019-09-10 00:26:39,f667dabd-42df-45d3-be71-7a4118960e2b,S
2019-09-10 00:27:37,f667dabd-42df-45d3-be71-7a4118960e2b,A
2019-09-09 22:43:22,79d3430a-8607-4de0-b900-473f86e7070d,A
2019-09-09 22:51:11,79d3430a-8607-4de0-b900-473f86e7070d,S
2019-09-09 22:52:42,79d3430a-8607-4de0-b900-473f86e7070d,A
2019-09-09 22:55:20,79d3430a-8607-4de0-b900-473f86e7070d,S
2019-09-09 23:00:01,79d3430a-8607-4de0-b900-473f86e7070d,A
2019-09-09 23:14:42,79d3430a-8607-4de0-b900-473f86e7070d,S
2019-09-09 23:15:17,79d3430a-8607-4de0-b900-473f86e7070d,A
2019-09-09 23:20:48,79d3430a-8607-4de0-b900-473f86e7070d,S
2019-09-09 23:28:00,79d3430a-8607-4de0-b900-473f86e7070d,A
2019-09-09 23:28:36,79d3430a-8607-4de0-b900-473f86e7070d,S
2019-09-09 23:40:26,79d3430a-8607-4de0-b900-473f86e7070d,A
2019-09-09 23:43:34,79d3430a-8607-4de0-b900-473f86e7070d,S
2019-09-09 23:55:24,79d3430a-8607-4de0-b900-473f86e7070d,A
2019-09-10 00:07:21,79d3430a-8607-4de0-b900-473f86e7070d,S
2019-09-10 00:12:13,79d3430a-8607-4de0-b900-473f86e7070d,A
2019-09-10 00:12:46,79d3430a-8607-4de0-b900-473f86e7070d,S
2019-09-10 00:13:04,79d3430a-8607-4de0-b900-473f86e7070d,A
2019-09-10 00:13:15,79d3430a-8607-4de0-b900-473f86e7070d,S
2019-09-10 00:14:25,79d3430a-8607-4de0-b900-473f86e7070d,A
2019-09-10 00:18:07,79d3430a-8607-4de0-b900-473f86e7070d,S
2019-09-10 00:26:58,79d3430a-8607-4de0-b900-473f86e7070d,A
2019-09-09 22:51:19,0f705b3e-4148-4981-aa10-fa3f9fff460c,A
2019-09-09 23:10:12,0f705b3e-4148-4981-aa10-fa3f9fff460c,S
2019-09-09 23:10:33,0f705b3e-4148-4981-aa10-fa3f9fff460c,A
2019-09-09 23:13:17,0f705b3e-4148-4981-aa10-fa3f9fff460c,S
2019-09-09 23:17:17,0f705b3e-4148-4981-aa10-fa3f9fff460c,A
2019-09-09 23:17:47,0f705b3e-4148-4981-aa10-fa3f9fff460c,S
2019-09-09 23:20:49,0f705b3e-4148-4981-aa10-fa3f9fff460c,A
2019-09-09 23:22:27,0f705b3e-4148-4981-aa10-fa3f9fff460c,S
2019-09-09 23:36:56,0f705b3e-4148-4981-aa10-fa3f9fff460c,A
2019-09-09 23:38:33,0f705b3e-4148-4981-aa10-fa3f9fff460c,S
2019-09-09 23:38:38,0f705b3e-4148-4981-aa10-fa3f9fff460c,A
2019-09-09 23:40:59,0f705b3e-4148-4981-aa10-fa3f9fff460c,S
2019-09-09 23:41:06,0f705b3e-4148-4981-aa10-fa3f9fff460c,A
2019-09-09 23:43:09,0f705b3e-4148-4981-aa10-fa3f9fff460c,S
2019-09-09 23:47:09,0f705b3e-4148-4981-aa10-fa3f9fff460c,A
2019-09-09 23:57:52,0f705b3e-4148-4981-aa10-fa3f9fff460c,S
2019-09-10 00:03:36,0f705b3e-4148-4981-aa10-fa3f9fff460c,A
2019-09-10 00:05:51,0f705b3e-4148-4981-aa10-fa3f9fff460c,S
2019-09-10 00:09:16,0f705b3e-4148-4981-aa10-fa3f9fff460c,A
2019-09-10 00:12:49,0f705b3e-4148-4981-aa10-fa3f9fff460c,S
2019-09-09 23:03:27,fd89540a-1e16-45af-9964-e0ba706861a2,S
2019-09-09 23:05:22,fd89540a-1e16-45af-9964-e0ba706861a2,A
2019-09-09 23:05:51,fd89540a-1e16-45af-9964-e0ba706861a2,S
2019-09-09 23:14:09,fd89540a-1e16-45af-9964-e0ba706861a2,A
2019-09-09 23:17:01,fd89540a-1e16-45af-9964-e0ba706861a2,S
2019-09-09 23:23:22,fd89540a-1e16-45af-9964-e0ba706861a2,A
2019-09-09 23:27:58,fd89540a-1e16-45af-9964-e0ba706861a2,S
2019-09-09 23:29:12,fd89540a-1e16-45af-9964-e0ba706861a2,A
2019-09-09 23:37:55,fd89540a-1e16-45af-9964-e0ba706861a2,S
2019-09-09 23:39:30,fd89540a-1e16-45af-9964-e0ba706861a2,A
2019-09-09 23:47:32,fd89540a-1e16-45af-9964-e0ba706861a2,S
2019-09-09 23:47:44,fd89540a-1e16-45af-9964-e0ba706861a2,A
2019-09-09 23:54:19,fd89540a-1e16-45af-9964-e0ba706861a2,S
2019-09-09 23:59:14,fd89540a-1e16-45af-9964-e0ba706861a2,A
2019-09-10 00:00:08,fd89540a-1e16-45af-9964-e0ba706861a2,S
2019-09-10 00:02:05,fd89540a-1e16-45af-9964-e0ba706861a2,A
2019-09-10 00:02:07,fd89540a-1e16-45af-9964-e0ba706861a2,S
2019-09-10 00:03:27,fd89540a-1e16-45af-9964-e0ba706861a2,A
2019-09-10 00:06:13,fd89540a-1e16-45af-9964-e0ba706861a2,S
2019-09-10 00:13:40,fd89540a-1e16-45af-9964-e0ba706861a2,A
2019-09-10 00:15:12,fd89540a-1e16-45af-9964-e0ba706861a2,S
2019-09-10 00:15:48,fd89540a-1e16-45af-9964-e0ba706861a2,A
2019-09-10 00:22:50,fd89540a-1e16-45af-9964-e0ba706861a2,S
2019-09-10 00:26:20,fd89540a-1e16-45af-9964-e0ba706861a2,A
2019-09-09 22:53:31,04ce265b-ff4d-4621-90e4-f41eea7ac030,S
2019-09-09 22:57:40,04ce265b-ff4d-4621-90e4-f41eea7ac030,A
2019-09-09 23:05:08,04ce265b-ff4d-4621-90e4-f41eea7ac030,S
2019-09-09 23:09:20,04ce265b-ff4d-4621-90e4-f41eea7ac030,A
2019-09-09 23:09:34,04ce265b-ff4d-4621-90e4-f41eea7ac030,S
2019-09-09 23:19:03,04ce265b-ff4d-4621-90e4-f41eea7ac030,A
2019-09-09 23:22:04,04ce265b-ff4d-4621-90e4-f41eea7ac030,S
2019-09-09 23:23:31,04ce265b-ff4d-4621-90e4-f41eea7ac030,A
2019-09-09 23:25:15,04ce265b-ff4d-4621-90e4-f41eea7ac030,S
2019-09-09 23:34:55,04ce265b-ff4d-4621-90e4-f41eea7ac030,A
2019-09-09 23:39:46,04ce265b-ff4d-4621-90e4-f41eea7ac030,S
2019-09-09 23:41:29,04ce265b-ff4d-4621-90e4-f41eea7ac030,A
2019-09-09 23:42:25,04ce265b-ff4d-4621-90e4-f41eea7ac030,S
2019-09-09 23:47:53,04ce265b-ff4d-4621-90e4-f41eea7ac030,A
2019-09-09 23:52:27,04ce265b-ff4d-4621-90e4-f41eea7ac030,S
2019-09-09 23:57:09,04ce265b-ff4d-4621-90e4-f41eea7ac030,A
2019-09-10 00:05:09,04ce265b-ff4d-4621-90e4-f41eea7ac030,S
2019-09-10 00:10:21,04ce265b-ff4d-4621-90e4-f41eea7ac030,A
2019-09-10 00:13:40,04ce265b-ff4d-4621-90e4-f41eea7ac030,S
2019-09-10 00:26:27,04ce265b-ff4d-4621-90e4-f41eea7ac030,A
2019-09-09 22:20:54,5d6d3f78-ec1e-492a-b313-16918184ba69,A
2019-09-09 22:25:10,5d6d3f78-ec1e-492a-b313-16918184ba69,S
2019-09-09 22:27:27,5d6d3f78-ec1e-492a-b313-16918184ba69,A
2019-09-09 22:35:10,5d6d3f78-ec1e-492a-b313-16918184ba69,S
2019-09-09 22:44:28,5d6d3f78-ec1e-492a-b313-16918184ba69,A
2019-09-09 22:48:49,5d6d3f78-ec1e-492a-b313-16918184ba69,S
2019-09-09 22:53:23,5d6d3f78-ec1e-492a-b313-16918184ba69,A
2019-09-09 23:08:40,5d6d3f78-ec1e-492a-b313-16918184ba69,S
2019-09-09 23:13:33,5d6d3f78-ec1e-492a-b313-16918184ba69,A
2019-09-09 23:26:22,5d6d3f78-ec1e-492a-b313-16918184ba69,S
2019-09-09 23:26:50,5d6d3f78-ec1e-492a-b313-16918184ba69,A
2019-09-09 23:34:03,5d6d3f78-ec1e-492a-b313-16918184ba69,S
2019-09-09 23:41:58,5d6d3f78-ec1e-492a-b313-16918184ba69,A
2019-09-09 23:43:08,5d6d3f78-ec1e-492a-b313-16918184ba69,S
2019-09-09 23:44:41,5d6d3f78-ec1e-492a-b313-16918184ba69,A
2019-09-09 23:45:18,5d6d3f78-ec1e-492a-b313-16918184ba69,S
2019-09-09 23:46:50,5d6d3f78-ec1e-492a-b313-16918184ba69,A
2019-09-09 23:47:26,5d6d3f78-ec1e-492a-b313-16918184ba69,S
2019-09-09 23:47:32,5d6d3f78-ec1e-492a-b313-16918184ba69,A
2019-09-09 23:47:54,5d6d3f78-ec1e-492a-b313-16918184ba69,S
2019-09-09 23:48:51,5d6d3f78-ec1e-492a-b313-16918184ba69,A
2019-09-09 23:56:15,5d6d3f78-ec1e-492a-b313-16918184ba69,S
2019-09-10 00:08:34,5d6d3f78-ec1e-492a-b313-16918184ba69,A
2019-09-10 00:09:12,5d6d3f78-ec1e-492a-b313-16918184ba69,S
2019-09-10 00:27:41,5d6d3f78-ec1e-492a-b313-16918184ba69,A
2019-09-09 23:10:25,6b83bd58-61f9-408a-b1fd-32496820f338,S
2019-09-09 23:11:15,6b83bd58-61f9-408a-b1fd-32496820f338,A
2019-09-09 23:23:50,6b83bd58-61f9-408a-b1fd-32496820f338,S
2019-09-09 23:24:57,6b83bd58-61f9-408a-b1fd-32496820f338,A
2019-09-09 23:27:02,6b83bd58-61f9-408a-b1fd-32496820f338,S
2019-09-09 23:51:54,6b83bd58-61f9-408a-b1fd-32496820f338,A
2019-09-10 00:03:45,6b83bd58-61f9-408a-b1fd-32496820f338,S
2019-09-10 00:08:05,6b83bd58-61f9-408a-b1fd-32496820f338,A
2019-09-10 00:08:06,6b83bd58-61f9-408a-b1fd-32496820f338,S
2019-09-10 00:12:16,6b83bd58-61f9-408a-b1fd-32496820f338,A
2019-09-10 00:16:28,6b83bd58-61f9-408a-b1fd-32496820f338,S
2019-09-10 00:25:50,6b83bd58-61f9-408a-b1fd-32496820f338,A
2019-09-10 00:31:00,6b83bd58-61f9-408a-b1fd-32496820f338,S
2019-09-09 22:40:26,33526076-9d90-4ef7-ba3e-be57bea73336,S
2019-09-09 22:52:31,33526076-9d90-4ef7-ba3e-be57bea73336,A
2019-09-09 23:10:52,33526076-9d90-4ef7-ba3e-be57bea73336,S
2019-09-09 23:13:16,33526076-9d90-4ef7-ba3e-be57bea73336,A
2019-09-09 23:16:34,33526076-9d90-4ef7-ba3e-be57bea73336,S
2019-09-09 23:19:54,33526076-9d90-4ef7-ba3e-be57bea73336,A
2019-09-09 23:31:23,33526076-9d90-4ef7-ba3e-be57bea73336,S
2019-09-09 23:32:13,33526076-9d90-4ef7-ba3e-be57bea73336,A
2019-09-09 23:33:52,33526076-9d90-4ef7-ba3e-be57bea73336,S
2019-09-09 23:34:44,33526076-9d90-4ef7-ba3e-be57bea73336,A
2019-09-09 23:52:09,33526076-9d90-4ef7-ba3e-be57bea73336,S
2019-09-09 23:52:14,33526076-9d90-4ef7-ba3e-be57bea73336,A
2019-09-09 23:55:24,33526076-9d90-4ef7-ba3e-be57bea73336,S
2019-09-09 23:58:51,33526076-9d90-4ef7-ba3e-be57bea73336,A
2019-09-10 00:01:05,33526076-9d90-4ef7-ba3e-be57bea73336,S
2019-09-10 00:07:01,33526076-9d90-4ef7-ba3e-be57bea73336,A
2019-09-10 00:08:24,33526076-9d90-4ef7-ba3e-be57bea73336,S
2019-09-10 00:12:19,33526076-9d90-4ef7-ba3e-be57bea73336,A
2019-09-10 00:17:53,33526076-9d90-4ef7-ba3e-be57bea73336,S
2019-09-10 00:29:25,33526076-9d90-4ef7-ba3e-be57bea73336,A
2019-09-09 22:39:37,7fc7ee7c-a776-48ef-ac02-6988b5cce07a,A
2019-09-09 22:46:29,7fc7ee7c-a776-48ef-ac02-6988b5cce07a,S
2019-09-09 22:51:16,7fc7ee7c-a776-48ef-ac02-6988b5cce07a,A
2019-09-09 22:57:50,7fc7ee7c-a776-48ef-ac02-6988b5cce07a,S
2019-09-09 23:03:44,7fc7ee7c-a776-48ef-ac02-6988b5cce07a,A
2019-09-09 23:14:22,7fc7ee7c-a776-48ef-ac02-6988b5cce07a,S
2019-09-09 23:21:37,7fc7ee7c-a776-48ef-ac02-6988b5cce07a,A
2019-09-09 23:24:04,7fc7ee7c-a776-48ef-ac02-6988b5cce07a,S
2019-09-09 23:25:45,7fc7ee7c-a776-48ef-ac02-6988b5cce07a,A
2019-09-09 23:30:23,7fc7ee7c-a776-48ef-ac02-6988b5cce07a,S
2019-09-09 23:35:23,7fc7ee7c-a776-48ef-ac02-6988b5cce07a,A
2019-09-09 23:45:18,7fc7ee7c-a776-48ef-ac02-6988b5cce07a,S
2019-09-09 23:45:22,7fc7ee7c-a776-48ef-ac02-6988b5cce07a,A
2019-09-09 23:50:02,7fc7ee7c-a776-48ef-ac02-6988b5cce07a,S
2019-09-09 23:51:46,7fc7ee7c-a776-48ef-ac02-6988b5cce07a,A
2019-09-09 23:58:29,7fc7ee7c-a776-48ef-ac02-6988b5cce07a,S
2019-09-09 23:58:36,7fc7ee7c-a776-48ef-ac02-6988b5cce07a,A
2019-09-10 00:01:18,7fc7ee7c-a776-48ef-ac02-6988b5cce07a,S
2019-09-10 00:08:11,7fc7ee7c-a776-48ef-ac02-6988b5cce07a,A
2019-09-10 00:29:05,7fc7ee7c-a776-48ef-ac02-6988b5cce07a,S
2019-09-09 23:03:32,c9742003-1986-493c-95d6-14e400609686,A
2019-09-09 23:05:23,c9742003-1986-493c-95d6-14e400609686,S
2019-09-09 23:14:51,c9742003-1986-493c-95d6-14e400609686,A
2019-09-09 23:28:58,c9742003-1986-493c-95d6-14e400609686,S
2019-09-09 23:30:34,c9742003-1986-493c-95d6-14e400609686,A
2019-09-09 23:32:08,c9742003-1986-493c-95d6-14e400609686,S
2019-09-09 23:34:01,c9742003-1986-493c-95d6-14e400609686,A
2019-09-09 23:40:29,c9742003-1986-493c-95d6-14e400609686,S
2019-09-09 23:45:23,c9742003-1986-493c-95d6-14e400609686,A
2019-09-09 23:52:54,c9742003-1986-493c-95d6-14e400609686,S
2019-09-09 23:52:57,c9742003-1986-493c-95d6-14e400609686,A
2019-09-09 23:53:16,c9742003-1986-493c-95d6-14e400609686,S
2019-09-09 23:55:37,c9742003-1986-493c-95d6-14e400609686,A
2019-09-09 23:58:48,c9742003-1986-493c-95d6-14e400609686,S
2019-09-09 23:59:34,c9742003-1986-493c-95d6-14e400609686,A
2019-09-10 00:10:35,c9742003-1986-493c-95d6-14e400609686,S
2019-09-10 00:11:23,c9742003-1986-493c-95d6-14e400609686,A
2019-09-10 00:11:48,c9742003-1986-493c-95d6-14e400609686,S
2019-09-10 00:14:01,c9742003-1986-493c-95d6-14e400609686,A
2019-09-10 00:16:15,c9742003-1986-493c-95d6-14e400609686,S
2019-09-10 00:16:34,c9742003-1986-493c-95d6-14e400609686,A
2019-09-10 00:25:59,c9742003-1986-493c-95d6-14e400609686,S
2019-09-10 00:30:43,c9742003-1986-493c-95d6-14e400609686,A
2019-09-09 23:02:36,64990e63-1ddf-4601-9873-f00023519c1e,A
2019-09-09 23:09:50,64990e63-1ddf-4601-9873-f00023519c1e,S
2019-09-09 23:11:44,64990e63-1ddf-4601-9873-f00023519c1e,A
2019-09-09 23:16:34,64990e63-1ddf-4601-9873-f00023519c1e,S
2019-09-09 23:23:49,64990e63-1ddf-4601-9873-f00023519c1e,A
2019-09-09 23:30:46,64990e63-1ddf-4601-9873-f00023519c1e,S
2019-09-09 23:31:19,64990e63-1ddf-4601-9873-f00023519c1e,A
2019-09-09 23:31:44,64990e63-1ddf-4601-9873-f00023519c1e,S
2019-09-09 23:33:08,64990e63-1ddf-4601-9873-f00023519c1e,A
2019-09-09 23:33:46,64990e63-1ddf-4601-9873-f00023519c1e,S
2019-09-09 23:36:02,64990e63-1ddf-4601-9873-f00023519c1e,A
2019-09-09 23:42:24,64990e63-1ddf-4601-9873-f00023519c1e,S
2019-09-09 23:43:47,64990e63-1ddf-4601-9873-f00023519c1e,A
2019-09-09 23:46:29,64990e63-1ddf-4601-9873-f00023519c1e,S
2019-09-09 23:47:04,64990e63-1ddf-4601-9873-f00023519c1e,A
2019-09-09 23:48:24,64990e63-1ddf-4601-9873-f00023519c1e,S
2019-09-10 00:07:45,64990e63-1ddf-4601-9873-f00023519c1e,A
2019-09-10 00:25:46,64990e63-1ddf-4601-9873-f00023519c1e,S
2019-09-10 00:26:49,64990e63-1ddf-4601-9873-f00023519c1e,A
2019-09-09 22:52:22,217cdeea-34e7-4c19-8138-6e9d88565816,S
2019-09-09 22:52:26,217cdeea-34e7-4c19-8138-6e9d88565816,A
2019-09-09 22:59:37,217cdeea-34e7-4c19-8138-6e9d88565816,S
2019-09-09 23:11:07,217cdeea-34e7-4c19-8138-6e9d88565816,A
2019-09-09 23:12:43,217cdeea-34e7-4c19-8138-6e9d88565816,S
2019-09-09 23:15:50,217cdeea-34e7-4c19-8138-6e9d88565816,A
2019-09-09 22:51:21,b000f4de-f812-4bfc-8b59-498564f8dc34,S
2019-09-09 22:55:39,b000f4de-f812-4bfc-8b59-498564f8dc34,A
2019-09-09 23:09:21,b000f4de-f812-4bfc-8b59-498564f8dc34,S
2019-09-09 23:09:45,b000f4de-f812-4bfc-8b59-498564f8dc34,A
2019-09-09 23:14:22,b000f4de-f812-4bfc-8b59-498564f8dc34,S
2019-09-09 23:17:40,b000f4de-f812-4bfc-8b59-498564f8dc34,A
2019-09-09 23:20:46,b000f4de-f812-4bfc-8b59-498564f8dc34,S
2019-09-09 23:25:19,b000f4de-f812-4bfc-8b59-498564f8dc34,A
2019-09-09 23:28:32,b000f4de-f812-4bfc-8b59-498564f8dc34,S
2019-09-09 23:32:09,b000f4de-f812-4bfc-8b59-498564f8dc34,A
2019-09-09 23:48:00,b000f4de-f812-4bfc-8b59-498564f8dc34,S
2019-09-09 23:52:17,b000f4de-f812-4bfc-8b59-498564f8dc34,A
2019-09-09 23:52:38,b000f4de-f812-4bfc-8b59-498564f8dc34,S
2019-09-09 23:57:45,b000f4de-f812-4bfc-8b59-498564f8dc34,A
2019-09-10 00:05:03,b000f4de-f812-4bfc-8b59-498564f8dc34,S
2019-09-10 00:18:10,b000f4de-f812-4bfc-8b59-498564f8dc34,A
2019-09-10 00:19:12,b000f4de-f812-4bfc-8b59-498564f8dc34,S
2019-09-09 22:41:56,acbd8668-d99f-4f0f-8ac6-8a5462e5bfd0,S
2019-09-09 22:49:34,acbd8668-d99f-4f0f-8ac6-8a5462e5bfd0,A
2019-09-09 22:51:30,acbd8668-d99f-4f0f-8ac6-8a5462e5bfd0,S
2019-09-09 23:02:48,acbd8668-d99f-4f0f-8ac6-8a5462e5bfd0,A
2019-09-09 23:04:38,acbd8668-d99f-4f0f-8ac6-8a5462e5bfd0,S
2019-09-09 23:05:19,acbd8668-d99f-4f0f-8ac6-8a5462e5bfd0,A
2019-09-09 23:14:50,acbd8668-d99f-4f0f-8ac6-8a5462e5bfd0,S
2019-09-09 23:18:05,acbd8668-d99f-4f0f-8ac6-8a5462e5bfd0,A
2019-09-09 23:18:41,acbd8668-d99f-4f0f-8ac6-8a5462e5bfd0,S
2019-09-09 23:19:12,acbd8668-d99f-4f0f-8ac6-8a5462e5bfd0,A
2019-09-09 23:24:16,acbd8668-d99f-4f0f-8ac6-8a5462e5bfd0,S
2019-09-09 23:24:41,acbd8668-d99f-4f0f-8ac6-8a5462e5bfd0,A
2019-09-09 23:25:04,acbd8668-d99f-4f0f-8ac6-8a5462e5bfd0,S
2019-09-09 23:25:49,acbd8668-d99f-4f0f-8ac6-8a5462e5bfd0,A
2019-09-09 23:27:40,acbd8668-d99f-4f0f-8ac6-8a5462e5bfd0,S
2019-09-09 23:28:32,acbd8668-d99f-4f0f-8ac6-8a5462e5bfd0,A
2019-09-09 23:39:06,acbd8668-d99f-4f0f-8ac6-8a5462e5bfd0,S
2019-09-09 23:40:18,acbd8668-d99f-4f0f-8ac6-8a5462e5bfd0,A
2019-09-09 23:47:11,acbd8668-d99f-4f0f-8ac6-8a5462e5bfd0,S
2019-09-09 23:55:51,acbd8668-d99f-4f0f-8ac6-8a5462e5bfd0,A
2019-09-09 23:58:59,acbd8668-d99f-4f0f-8ac6-8a5462e5bfd0,S
2019-09-10 00:02:34,acbd8668-d99f-4f0f-8ac6-8a5462e5bfd0,A
2019-09-10 00:02:50,acbd8668-d99f-4f0f-8ac6-8a5462e5bfd0,S
2019-09-10 00:09:55,acbd8668-d99f-4f0f-8ac6-8a5462e5bfd0,A
2019-09-10 00:10:03,acbd8668-d99f-4f0f-8ac6-8a5462e5bfd0,S
2019-09-10 00:10:29,acbd8668-d99f-4f0f-8ac6-8a5462e5bfd0,A
2019-09-10 00:11:06,acbd8668-d99f-4f0f-8ac6-8a5462e5bfd0,S
2019-09-10 00:13:11,acbd8668-d99f-4f0f-8ac6-8a5462e5bfd0,A
2019-09-10 00:13:14,acbd8668-d99f-4f0f-8ac6-8a5462e5bfd0,S
2019-09-10 00:25:00,acbd8668-d99f-4f0f-8ac6-8a5462e5bfd0,A
2019-09-10 00:28:24,acbd8668-d99f-4f0f-8ac6-8a5462e5bfd0,S
2019-09-10 00:30:16,acbd8668-d99f-4f0f-8ac6-8a5462e5bfd0,A
2019-09-09 22:57:52,263f0454-6157-4e8d-9e70-9bf81cb745f1,A
2019-09-09 22:58:31,263f0454-6157-4e8d-9e70-9bf81cb745f1,S
2019-09-09 23:00:06,263f0454-6157-4e8d-9e70-9bf81cb745f1,A
2019-09-09 23:14:19,263f0454-6157-4e8d-9e70-9bf81cb745f1,S
2019-09-09 23:16:26,263f0454-6157-4e8d-9e70-9bf81cb745f1,A
2019-09-09 23:18:53,263f0454-6157-4e8d-9e70-9bf81cb745f1,S
2019-09-09 23:26:31,263f0454-6157-4e8d-9e70-9bf81cb745f1,A
2019-09-09 23:30:11,263f0454-6157-4e8d-9e70-9bf81cb745f1,S
2019-09-09 23:33:32,263f0454-6157-4e8d-9e70-9bf81cb745f1,A
2019-09-09 23:44:23,263f0454-6157-4e8d-9e70-9bf81cb745f1,S
2019-09-09 23:44:26,263f0454-6157-4e8d-9e70-9bf81cb745f1,A
2019-09-09 23:53:57,263f0454-6157-4e8d-9e70-9bf81cb745f1,S
2019-09-10 00:14:26,263f0454-6157-4e8d-9e70-9bf81cb745f1,A
2019-09-10 00:21:41,263f0454-6157-4e8d-9e70-9bf81cb745f1,S
2019-09-10 00:25:40,263f0454-6157-4e8d-9e70-9bf81cb745f1,A
2019-09-09 22:24:25,401c134a-e44d-4989-bd84-6913583c67f7,A
2019-09-09 22:40:28,401c134a-e44d-4989-bd84-6913583c67f7,S
2019-09-09 22:43:42,401c134a-e44d-4989-bd84-6913583c67f7,A
2019-09-09 22:46:28,401c134a-e44d-4989-bd84-6913583c67f7,S
2019-09-09 22:46:59,401c134a-e44d-4989-bd84-6913583c67f7,A
2019-09-09 23:00:56,401c134a-e44d-4989-bd84-6913583c67f7,S
2019-09-09 23:04:26,401c134a-e44d-4989-bd84-6913583c67f7,A
2019-09-09 23:07:17,401c134a-e44d-4989-bd84-6913583c67f7,S
2019-09-09 23:11:17,401c134a-e44d-4989-bd84-6913583c67f7,A
2019-09-09 23:24:41,401c134a-e44d-4989-bd84-6913583c67f7,S
2019-09-09 23:24:52,401c134a-e44d-4989-bd84-6913583c67f7,A
2019-09-09 23:33:34,401c134a-e44d-4989-bd84-6913583c67f7,S
2019-09-09 23:37:50,401c134a-e44d-4989-bd84-6913583c67f7,A
2019-09-09 23:44:27,401c134a-e44d-4989-bd84-6913583c67f7,S
2019-09-09 23:46:59,401c134a-e44d-4989-bd84-6913583c67f7,A
2019-09-09 23:58:10,401c134a-e44d-4989-bd84-6913583c67f7,S
2019-09-10 00:00:04,401c134a-e44d-4989-bd84-6913583c67f7,A
2019-09-10 00:01:02,401c134a-e44d-4989-bd84-6913583c67f7,S
2019-09-10 00:03:54,401c134a-e44d-4989-bd84-6913583c67f7,A
2019-09-10 00:09:53,401c134a-e44d-4989-bd84-6913583c67f7,S
2019-09-10 00:18:41,401c134a-e44d-4989-bd84-6913583c67f7,A
2019-09-10 00:21:44,401c134a-e44d-4989-bd84-6913583c67f7,S
2019-09-10 00:23:35,401c134a-e44d-4989-bd84-6913583c67f7,A
2019-09-10 00:25:45,401c134a-e44d-4989-bd84-6913583c67f7,S
2019-09-09 22:46:18,f52e5f4a-7775-4440-a24b-eae2b6ad0693,S
2019-09-09 22:55:20,f52e5f4a-7775-4440-a24b-eae2b6ad0693,A
2019-09-09 23:00:32,f52e5f4a-7775-4440-a24b-eae2b6ad0693,S
2019-09-09 23:13:18,f52e5f4a-7775-4440-a24b-eae2b6ad0693,A
2019-09-09 23:14:17,f52e5f4a-7775-4440-a24b-eae2b6ad0693,S
2019-09-09 23:25:29,f52e5f4a-7775-4440-a24b-eae2b6ad0693,A
2019-09-09 23:25:43,f52e5f4a-7775-4440-a24b-eae2b6ad0693,S
2019-09-09 23:29:10,f52e5f4a-7775-4440-a24b-eae2b6ad0693,A
2019-09-09 23:40:13,f52e5f4a-7775-4440-a24b-eae2b6ad0693,S
2019-09-09 23:43:14,f52e5f4a-7775-4440-a24b-eae2b6ad0693,A
2019-09-09 23:03:00,80d4d160-b006-425c-8e6d-b0a94e21b0ee,A
2019-09-09 23:06:29,80d4d160-b006-425c-8e6d-b0a94e21b0ee,S
2019-09-09 23:09:32,80d4d160-b006-425c-8e6d-b0a94e21b0ee,A
2019-09-09 23:18:29,80d4d160-b006-425c-8e6d-b0a94e21b0ee,S
2019-09-09 23:33:26,80d4d160-b006-425c-8e6d-b0a94e21b0ee,A
2019-09-09 23:34:28,80d4d160-b006-425c-8e6d-b0a94e21b0ee,S
2019-09-09 23:34:58,80d4d160-b006-425c-8e6d-b0a94e21b0ee,A
2019-09-09 23:35:37,80d4d160-b006-425c-8e6d-b0a94e21b0ee,S
2019-09-09 23:42:41,80d4d160-b006-425c-8e6d-b0a94e21b0ee,A
2019-09-09 23:47:51,80d4d160-b006-425c-8e6d-b0a94e21b0ee,S
2019-09-10 00:06:42,80d4d160-b006-425c-8e6d-b0a94e21b0ee,A
2019-09-10 00:08:50,80d4d160-b006-425c-8e6d-b0a94e21b0ee,S
2019-09-10 00:15:57,80d4d160-b006-425c-8e6d-b0a94e21b0ee,A
2019-09-10 00:19:26,80d4d160-b006-425c-8e6d-b0a94e21b0ee,S
2019-09-10 00:32:15,80d4d160-b006-425c-8e6d-b0a94e21b0ee,A
2019-09-09 22:37:47,294ec6ef-8b45-4463-959c-9f9fc468b046,A
2019-09-09 22:43:51,294ec6ef-8b45-4463-959c-9f9fc468b046,S
2019-09-09 22:46:38,294ec6ef-8b45-4463-959c-9f9fc468b046,A
2019-09-09 22:47:17,294ec6ef-8b45-4463-959c-9f9fc468b046,S
2019-09-09 22:48:02,294ec6ef-8b45-4463-959c-9f9fc468b046,A
2019-09-09 22:57:17,294ec6ef-8b45-4463-959c-9f9fc468b046,S
2019-09-09 22:57:43,294ec6ef-8b45-4463-959c-9f9fc468b046,A
2019-09-09 22:58:33,294ec6ef-8b45-4463-959c-9f9fc468b046,S
2019-09-09 23:03:27,294ec6ef-8b45-4463-959c-9f9fc468b046,A
2019-09-09 23:08:26,294ec6ef-8b45-4463-959c-9f9fc468b046,S
2019-09-09 23:08:39,294ec6ef-8b45-4463-959c-9f9fc468b046,A
2019-09-09 23:09:23,294ec6ef-8b45-4463-959c-9f9fc468b046,S
2019-09-09 23:11:43,294ec6ef-8b45-4463-959c-9f9fc468b046,A
2019-09-09 23:14:43,294ec6ef-8b45-4463-959c-9f9fc468b046,S
2019-09-09 23:15:59,294ec6ef-8b45-4463-959c-9f9fc468b046,A
2019-09-09 23:16:03,294ec6ef-8b45-4463-959c-9f9fc468b046,S
2019-09-09 23:24:09,294ec6ef-8b45-4463-959c-9f9fc468b046,A
2019-09-09 23:27:26,294ec6ef-8b45-4463-959c-9f9fc468b046,S
2019-09-09 23:29:19,294ec6ef-8b45-4463-959c-9f9fc468b046,A
2019-09-09 23:36:41,294ec6ef-8b45-4463-959c-9f9fc468b046,S
2019-09-09 23:46:55,294ec6ef-8b45-4463-959c-9f9fc468b046,A
2019-09-10 00:02:23,294ec6ef-8b45-4463-959c-9f9fc468b046,S
2019-09-10 00:04:45,294ec6ef-8b45-4463-959c-9f9fc468b046,A
2019-09-10 00:04:57,294ec6ef-8b45-4463-959c-9f9fc468b046,S
2019-09-10 00:13:02,294ec6ef-8b45-4463-959c-9f9fc468b046,A
2019-09-10 00:13:25,294ec6ef-8b45-4463-959c-9f9fc468b046,S
2019-09-10 00:21:45,294ec6ef-8b45-4463-959c-9f9fc468b046,A
2019-09-10 00:30:11,294ec6ef-8b45-4463-959c-9f9fc468b046,S
2019-09-09 22:55:00,e536c3a4-69a4-4d35-a442-a10af6e43629,S
2019-09-09 22:55:42,e536c3a4-69a4-4d35-a442-a10af6e43629,A
2019-09-09 23:11:23,e536c3a4-69a4-4d35-a442-a10af6e43629,S
2019-09-09 23:18:37,e536c3a4-69a4-4d35-a442-a10af6e43629,A
2019-09-09 23:18:59,e536c3a4-69a4-4d35-a442-a10af6e43629,S
2019-09-09 23:19:29,e536c3a4-69a4-4d35-a442-a10af6e43629,A
2019-09-09 23:20:35,e536c3a4-69a4-4d35-a442-a10af6e43629,S
2019-09-09 23:28:24,e536c3a4-69a4-4d35-a442-a10af6e43629,A
2019-09-09 23:30:53,e536c3a4-69a4-4d35-a442-a10af6e43629,S
2019-09-09 23:31:51,e536c3a4-69a4-4d35-a442-a10af6e43629,A
2019-09-09 23:36:50,e536c3a4-69a4-4d35-a442-a10af6e43629,S
2019-09-09 23:40:16,e536c3a4-69a4-4d35-a442-a10af6e43629,A
2019-09-09 23:47:58,e536c3a4-69a4-4d35-a442-a10af6e43629,S
2019-09-09 23:51:30,e536c3a4-69a4-4d35-a442-a10af6e43629,A
2019-09-09 23:52:34,e536c3a4-69a4-4d35-a442-a10af6e43629,S
2019-09-09 23:53:53,e536c3a4-69a4-4d35-a442-a10af6e43629,A
2019-09-10 00:03:01,e536c3a4-69a4-4d35-a442-a10af6e43629,S
2019-09-10 00:04:08,e536c3a4-69a4-4d35-a442-a10af6e43629,A
2019-09-10 00:06:46,e536c3a4-69a4-4d35-a442-a10af6e43629,S
2019-09-10 00:08:53,e536c3a4-69a4-4d35-a442-a10af6e43629,A
2019-09-10 00:17:25,e536c3a4-69a4-4d35-a442-a10af6e43629,S
2019-09-10 00:19:39,e536c3a4-69a4-4d35-a442-a10af6e43629,A
2019-09-10 00:24:36,e536c3a4-69a4-4d35-a442-a10af6e43629,S
2019-09-10 00:28:03,e536c3a4-69a4-4d35-a442-a10af6e43629,A
2019-09-10 00:28:38,e536c3a4-69a4-4d35-a442-a10af6e43629,S
2019-09-10 00:30:11,e536c3a4-69a4-4d35-a442-a10af6e43629,A
2019-09-09 22:26:54,e9ecc2cb-57d2-4459-b4d0-d2ad8add3f5d,A
2019-09-09 22:30:22,e9ecc2cb-57d2-4459-b4d0-d2ad8add3f5d,S
2019-09-09 22:38:56,e9ecc2cb-57d2-4459-b4d0-d2ad8add3f5d,A
2019-09-09 22:41:59,e9ecc2cb-57d2-4459-b4d0-d2ad8add3f5d,S
2019-09-09 22:42:15,e9ecc2cb-57d2-4459-b4d0-d2ad8add3f5d,A
2019-09-09 22:44:44,e9ecc2cb-57d2-4459-b4d0-d2ad8add3f5d,S
2019-09-09 22:50:04,e9ecc2cb-57d2-4459-b4d0-d2ad8add3f5d,A
2019-09-09 22:53:59,e9ecc2cb-57d2-4459-b4d0-d2ad8add3f5d,S
2019-09-09 22:56:43,e9ecc2cb-57d2-4459-b4d0-d2ad8add3f5d,A
2019-09-09 23:07:31,e9ecc2cb-57d2-4459-b4d0-d2ad8add3f5d,S
2019-09-09 23:13:09,e9ecc2cb-57d2-4459-b4d0-d2ad8add3f5d,A
2019-09-09 23:35:43,e9ecc2cb-57d2-4459-b4d0-d2ad8add3f5d,S
2019-09-10 00:00:04,e9ecc2cb-57d2-4459-b4d0-d2ad8add3f5d,A
2019-09-10 00:06:38,e9ecc2cb-57d2-4459-b4d0-d2ad8add3f5d,S
2019-09-10 00:10:05,e9ecc2cb-57d2-4459-b4d0-d2ad8add3f5d,A
2019-09-10 00:12:59,e9ecc2cb-57d2-4459-b4d0-d2ad8add3f5d,S
2019-09-10 00:17:44,e9ecc2cb-57d2-4459-b4d0-d2ad8add3f5d,A
2019-09-10 00:30:48,e9ecc2cb-57d2-4459-b4d0-d2ad8add3f5d,S
2019-09-10 00:32:21,e9ecc2cb-57d2-4459-b4d0-d2ad8add3f5d,A
2019-09-09 22:37:14,ad760f2f-a176-4d69-8b79-6f16cc1b9056,A
2019-09-09 22:40:05,ad760f2f-a176-4d69-8b79-6f16cc1b9056,S
2019-09-09 22:45:12,ad760f2f-a176-4d69-8b79-6f16cc1b9056,A
2019-09-09 23:00:39,ad760f2f-a176-4d69-8b79-6f16cc1b9056,S
2019-09-09 23:09:42,ad760f2f-a176-4d69-8b79-6f16cc1b9056,A
2019-09-09 23:19:25,ad760f2f-a176-4d69-8b79-6f16cc1b9056,S
2019-09-09 23:27:56,ad760f2f-a176-4d69-8b79-6f16cc1b9056,A
2019-09-09 23:28:42,ad760f2f-a176-4d69-8b79-6f16cc1b9056,S
2019-09-09 23:29:00,ad760f2f-a176-4d69-8b79-6f16cc1b9056,A
2019-09-09 23:37:39,ad760f2f-a176-4d69-8b79-6f16cc1b9056,S
2019-09-09 23:40:38,ad760f2f-a176-4d69-8b79-6f16cc1b9056,A
2019-09-09 23:40:40,ad760f2f-a176-4d69-8b79-6f16cc1b9056,S
2019-09-09 23:41:52,ad760f2f-a176-4d69-8b79-6f16cc1b9056,A
2019-09-09 23:43:42,ad760f2f-a176-4d69-8b79-6f16cc1b9056,S
2019-09-09 23:45:32,ad760f2f-a176-4d69-8b79-6f16cc1b9056,A
2019-09-09 23:46:31,ad760f2f-a176-4d69-8b79-6f16cc1b9056,S
2019-09-09 23:48:15,ad760f2f-a176-4d69-8b79-6f16cc1b9056,A
2019-09-09 23:57:30,ad760f2f-a176-4d69-8b79-6f16cc1b9056,S
2019-09-09 23:59:37,ad760f2f-a176-4d69-8b79-6f16cc1b9056,A
2019-09-10 00:00:36,ad760f2f-a176-4d69-8b79-6f16cc1b9056,S
2019-09-10 00:03:03,ad760f2f-a176-4d69-8b79-6f16cc1b9056,A
2019-09-10 00:11:48,ad760f2f-a176-4d69-8b79-6f16cc1b9056,S
2019-09-10 00:14:05,ad760f2f-a176-4d69-8b79-6f16cc1b9056,A
2019-09-10 00:18:57,ad760f2f-a176-4d69-8b79-6f16cc1b9056,S
2019-09-10 00:19:05,ad760f2f-a176-4d69-8b79-6f16cc1b9056,A
2019-09-10 00:19:44,ad760f2f-a176-4d69-8b79-6f16cc1b9056,S
2019-09-10 00:23:13,ad760f2f-a176-4d69-8b79-6f16cc1b9056,A
2019-09-10 00:24:39,ad760f2f-a176-4d69-8b79-6f16cc1b9056,S
2019-09-10 00:30:18,ad760f2f-a176-4d69-8b79-6f16cc1b9056,A
2019-09-10 00:30:47,ad760f2f-a176-4d69-8b79-6f16cc1b9056,S
2019-09-09 23:04:32,004fcdaa-f2ab-4a37-af83-5174630c86cd,A
2019-09-09 23:13:27,004fcdaa-f2ab-4a37-af83-5174630c86cd,S
2019-09-09 23:24:11,004fcdaa-f2ab-4a37-af83-5174630c86cd,A
2019-09-09 23:29:43,004fcdaa-f2ab-4a37-af83-5174630c86cd,S
2019-09-09 23:32:21,004fcdaa-f2ab-4a37-af83-5174630c86cd,A
2019-09-09 23:33:05,004fcdaa-f2ab-4a37-af83-5174630c86cd,S
2019-09-09 23:37:45,004fcdaa-f2ab-4a37-af83-5174630c86cd,A
2019-09-09 23:39:35,004fcdaa-f2ab-4a37-af83-5174630c86cd,S
2019-09-09 23:52:50,004fcdaa-f2ab-4a37-af83-5174630c86cd,A
2019-09-09 23:54:43,004fcdaa-f2ab-4a37-af83-5174630c86cd,S
2019-09-10 00:00:55,004fcdaa-f2ab-4a37-af83-5174630c86cd,A
2019-09-10 00:03:43,004fcdaa-f2ab-4a37-af83-5174630c86cd,S
2019-09-10 00:05:30,004fcdaa-f2ab-4a37-af83-5174630c86cd,A
2019-09-10 00:05:54,004fcdaa-f2ab-4a37-af83-5174630c86cd,S
2019-09-10 00:06:33,004fcdaa-f2ab-4a37-af83-5174630c86cd,A
2019-09-10 00:19:03,004fcdaa-f2ab-4a37-af83-5174630c86cd,S
2019-09-10 00:19:05,004fcdaa-f2ab-4a37-af83-5174630c86cd,A
2019-09-10 00:19:41,004fcdaa-f2ab-4a37-af83-5174630c86cd,S
2019-09-10 00:20:10,004fcdaa-f2ab-4a37-af83-5174630c86cd,A
2019-09-10 00:33:33,004fcdaa-f2ab-4a37-af83-5174630c86cd,S
2019-09-09 22:22:04,8373e087-3b70-460c-9464-ec9a4d82ec3d,S
2019-09-09 22:23:10,8373e087-3b70-460c-9464-ec9a4d82ec3d,A
2019-09-09 22:24:24,8373e087-3b70-460c-9464-ec9a4d82ec3d,S
2019-09-09 22:28:03,8373e087-3b70-460c-9464-ec9a4d82ec3d,A
2019-09-09 22:30:47,8373e087-3b70-460c-9464-ec9a4d82ec3d,S
2019-09-09 22:35:57,8373e087-3b70-460c-9464-ec9a4d82ec3d,A
2019-09-09 22:37:15,8373e087-3b70-460c-9464-ec9a4d82ec3d,S
2019-09-09 22:43:14,8373e087-3b70-460c-9464-ec9a4d82ec3d,A
2019-09-09 22:54:31,8373e087-3b70-460c-9464-ec9a4d82ec3d,S
2019-09-09 22:58:11,8373e087-3b70-460c-9464-ec9a4d82ec3d,A
2019-09-09 23:02:43,8373e087-3b70-460c-9464-ec9a4d82ec3d,S
2019-09-09 23:14:11,8373e087-3b70-460c-9464-ec9a4d82ec3d,A
2019-09-09 23:27:37,8373e087-3b70-460c-9464-ec9a4d82ec3d,S
2019-09-09 23:28:36,8373e087-3b70-460c-9464-ec9a4d82ec3d,A
2019-09-09 23:30:08,8373e087-3b70-460c-9464-ec9a4d82ec3d,S
2019-09-09 23:30:54,8373e087-3b70-460c-9464-ec9a4d82ec3d,A
2019-09-09 23:32:04,8373e087-3b70-460c-9464-ec9a4d82ec3d,S
2019-09-09 23:40:39,8373e087-3b70-460c-9464-ec9a4d82ec3d,A
2019-09-09 23:42:37,8373e087-3b70-460c-9464-ec9a4d82ec3d,S
2019-09-09 23:44:26,8373e087-3b70-460c-9464-ec9a4d82ec3d,A
2019-09-09 23:49:13,8373e087-3b70-460c-9464-ec9a4d82ec3d,S
2019-09-09 23:58:06,8373e087-3b70-460c-9464-ec9a4d82ec3d,A
2019-09-10 00:08:59,8373e087-3b70-460c-9464-ec9a4d82ec3d,S
2019-09-10 00:12:55,8373e087-3b70-460c-9464-ec9a4d82ec3d,A
2019-09-10 00:13:12,8373e087-3b70-460c-9464-ec9a4d82ec3d,S
2019-09-10 00:18:51,8373e087-3b70-460c-9464-ec9a4d82ec3d,A
2019-09-10 00:25:17,8373e087-3b70-460c-9464-ec9a4d82ec3d,S
2019-09-10 00:25:17,8373e087-3b70-460c-9464-ec9a4d82ec3d,A
2019-09-10 00:27:16,8373e087-3b70-460c-9464-ec9a4d82ec3d,S
2019-09-10 00:29:54,8373e087-3b70-460c-9464-ec9a4d82ec3d,A
2019-09-10 00:31:43,8373e087-3b70-460c-9464-ec9a4d82ec3d,S
2019-09-09 23:12:41,826958c5-e78c-4f8b-9922-ea0af0f6460b,S
2019-09-09 23:13:55,826958c5-e78c-4f8b-9922-ea0af0f6460b,A
2019-09-09 23:19:40,826958c5-e78c-4f8b-9922-ea0af0f6460b,S
2019-09-09 23:33:00,826958c5-e78c-4f8b-9922-ea0af0f6460b,A
2019-09-09 23:40:45,826958c5-e78c-4f8b-9922-ea0af0f6460b,S
2019-09-09 23:43:16,826958c5-e78c-4f8b-9922-ea0af0f6460b,A
2019-09-09 23:59:38,826958c5-e78c-4f8b-9922-ea0af0f6460b,S
2019-09-10 00:05:45,826958c5-e78c-4f8b-9922-ea0af0f6460b,A
2019-09-10 00:20:34,826958c5-e78c-4f8b-9922-ea0af0f6460b,S
2019-09-10 00:25:48,826958c5-e78c-4f8b-9922-ea0af0f6460b,A
2019-09-10 00:28:22,826958c5-e78c-4f8b-9922-ea0af0f6460b,S
2019-09-10 00:31:46,826958c5-e78c-4f8b-9922-ea0af0f6460b,A
2019-09-09 22:27:13,6dc9804c-f300-4c62-bf5f-7c22127d6e90,S
2019-09-09 22:28:45,6dc9804c-f300-4c62-bf5f-7c22127d6e90,A
2019-09-09 22:29:34,6dc9804c-f300-4c62-bf5f-7c22127d6e90,S
2019-09-09 22:29:40,6dc9804c-f300-4c62-bf5f-7c22127d6e90,A
2019-09-09 22:29:46,6dc9804c-f300-4c62-bf5f-7c22127d6e90,S
2019-09-09 22:30:10,6dc9804c-f300-4c62-bf5f-7c22127d6e90,A
2019-09-09 22:34:55,6dc9804c-f300-4c62-bf5f-7c22127d6e90,S
2019-09-09 22:39:03,6dc9804c-f300-4c62-bf5f-7c22127d6e90,A
2019-09-09 22:40:52,6dc9804c-f300-4c62-bf5f-7c22127d6e90,S
2019-09-09 22:43:05,6dc9804c-f300-4c62-bf5f-7c22127d6e90,A
2019-09-09 22:53:43,6dc9804c-f300-4c62-bf5f-7c22127d6e90,S
2019-09-09 22:55:45,6dc9804c-f300-4c62-bf5f-7c22127d6e90,A
2019-09-09 23:04:55,6dc9804c-f300-4c62-bf5f-7c22127d6e90,S
2019-09-09 23:07:30,6dc9804c-f300-4c62-bf5f-7c22127d6e90,A
2019-09-09 23:16:06,6dc9804c-f300-4c62-bf5f-7c22127d6e90,S
2019-09-09 23:18:07,6dc9804c-f300-4c62-bf5f-7c22127d6e90,A
2019-09-09 23:19:56,6dc9804c-f300-4c62-bf5f-7c22127d6e90,S
2019-09-09 23:23:00,6dc9804c-f300-4c62-bf5f-7c22127d6e90,A
2019-09-09 23:23:07,6dc9804c-f300-4c62-bf5f-7c22127d6e90,S
2019-09-09 23:35:11,6dc9804c-f300-4c62-bf5f-7c22127d6e90,A
2019-09-09 23:38:49,6dc9804c-f300-4c62-bf5f-7c22127d6e90,S
2019-09-09 23:50:33,6dc9804c-f300-4c62-bf5f-7c22127d6e90,A
2019-09-09 23:51:18,6dc9804c-f300-4c62-bf5f-7c22127d6e90,S
2019-09-09 23:58:11,6dc9804c-f300-4c62-bf5f-7c22127d6e90,A
2019-09-09 23:59:31,6dc9804c-f300-4c62-bf5f-7c22127d6e90,S
2019-09-10 00:01:58,6dc9804c-f300-4c62-bf5f-7c22127d6e90,A
2019-09-10 00:10:23,6dc9804c-f300-4c62-bf5f-7c22127d6e90,S
2019-09-10 00:18:33,6dc9804c-f300-4c62-bf5f-7c22127d6e90,A
2019-09-10 00:28:42,6dc9804c-f300-4c62-bf5f-7c22127d6e90,S
2019-09-10 00:30:40,6dc9804c-f300-4c62-bf5f-7c22127d6e90,A
2019-09-09 22:32:48,0dab07cf-23dc-47a6-ba42-43e91c3acb58,S
2019-09-09 22:37:45,0dab07cf-23dc-47a6-ba42-43e91c3acb58,A
2019-09-09 22:38:07,0dab07cf-23dc-47a6-ba42-43e91c3acb58,S
2019-09-09 22:42:51,0dab07cf-23dc-47a6-ba42-43e91c3acb58,A
2019-09-09 22:47:49,0dab07cf-23dc-47a6-ba42-43e91c3acb58,S
2019-09-09 22:49:51,0dab07cf-23dc-47a6-ba42-43e91c3acb58,A
2019-09-09 22:59:55,0dab07cf-23dc-47a6-ba42-43e91c3acb58,S
2019-09-09 23:02:37,0dab07cf-23dc-47a6-ba42-43e91c3acb58,A
2019-09-09 23:03:32,0dab07cf-23dc-47a6-ba42-43e91c3acb58,S
2019-09-09 23:11:33,0dab07cf-23dc-47a6-ba42-43e91c3acb58,A
2019-09-09 23:20:21,0dab07cf-23dc-47a6-ba42-43e91c3acb58,S
2019-09-09 23:22:32,0dab07cf-23dc-47a6-ba42-43e91c3acb58,A
2019-09-09 23:22:41,0dab07cf-23dc-47a6-ba42-43e91c3acb58,S
2019-09-09 23:41:58,0dab07cf-23dc-47a6-ba42-43e91c3acb58,A
2019-09-09 23:44:11,0dab07cf-23dc-47a6-ba42-43e91c3acb58,S
2019-09-10 00:01:46,0dab07cf-23dc-47a6-ba42-43e91c3acb58,A
2019-09-10 00:11:57,0dab07cf-23dc-47a6-ba42-43e91c3acb58,S
2019-09-10 00:27:48,0dab07cf-23dc-47a6-ba42-43e91c3acb58,A
2019-09-10 00:29:01,0dab07cf-23dc-47a6-ba42-43e91c3acb58,S
2019-09-09 22:35:13,74afa3c2-be9f-420b-9359-fd0277b28d30,S
2019-09-09 22:41:26,74afa3c2-be9f-420b-9359-fd0277b28d30,A
2019-09-09 22:45:49,74afa3c2-be9f-420b-9359-fd0277b28d30,S
2019-09-09 22:56:22,74afa3c2-be9f-420b-9359-fd0277b28d30,A
2019-09-09 22:56:41,74afa3c2-be9f-420b-9359-fd0277b28d30,S
2019-09-09 23:02:10,74afa3c2-be9f-420b-9359-fd0277b28d30,A
2019-09-09 23:02:44,74afa3c2-be9f-420b-9359-fd0277b28d30,S
2019-09-09 23:03:22,74afa3c2-be9f-420b-9359-fd0277b28d30,A
2019-09-09 23:05:54,74afa3c2-be9f-420b-9359-fd0277b28d30,S
2019-09-09 23:06:13,74afa3c2-be9f-420b-9359-fd0277b28d30,A
2019-09-09 23:07:05,74afa3c2-be9f-420b-9359-fd0277b28d30,S
2019-09-09 23:22:38,74afa3c2-be9f-420b-9359-fd0277b28d30,A
2019-09-09 23:23:57,74afa3c2-be9f-420b-9359-fd0277b28d30,S
2019-09-09 23:27:05,74afa3c2-be9f-420b-9359-fd0277b28d30,A
2019-09-09 23:38:59,74afa3c2-be9f-420b-9359-fd0277b28d30,S
2019-09-09 23:40:25,74afa3c2-be9f-420b-9359-fd0277b28d30,A
2019-09-09 23:41:35,74afa3c2-be9f-420b-9359-fd0277b28d30,S
2019-09-09 23:42:26,74afa3c2-be9f-420b-9359-fd0277b28d30,A
2019-09-09 23:42:48,74afa3c2-be9f-420b-9359-fd0277b28d30,S
2019-09-09 23:49:18,74afa3c2-be9f-420b-9359-fd0277b28d30,A
2019-09-10 00:19:58,74afa3c2-be9f-420b-9359-fd0277b28d30,S
2019-09-10 00:23:44,74afa3c2-be9f-420b-9359-fd0277b28d30,A
2019-09-10 00:32:25,74afa3c2-be9f-420b-9359-fd0277b28d30,S
2019-09-09 22:57:51,d46c57de-5db3-4902-a068-3c21b31c3d20,A
2019-09-09 23:01:20,d46c57de-5db3-4902-a068-3c21b31c3d20,S
2019-09-09 23:03:36,d46c57de-5db3-4902-a068-3c21b31c3d20,A
2019-09-09 23:05:37,d46c57de-5db3-4902-a068-3c21b31c3d20,S
2019-09-09 23:06:12,d46c57de-5db3-4902-a068-3c21b31c3d20,A
2019-09-09 23:08:47,d46c57de-5db3-4902-a068-3c21b31c3d20,S
2019-09-09 23:15:39,d46c57de-5db3-4902-a068-3c21b31c3d20,A
2019-09-09 23:17:06,d46c57de-5db3-4902-a068-3c21b31c3d20,S
2019-09-09 23:27:22,d46c57de-5db3-4902-a068-3c21b31c3d20,A
2019-09-10 00:06:27,d46c57de-5db3-4902-a068-3c21b31c3d20,S
2019-09-10 00:16:21,d46c57de-5db3-4902-a068-3c21b31c3d20,A
2019-09-10 00:16:25,d46c57de-5db3-4902-a068-3c21b31c3d20,S
2019-09-10 00:17:07,d46c57de-5db3-4902-a068-3c21b31c3d20,A
2019-09-10 00:20:11,d46c57de-5db3-4902-a068-3c21b31c3d20,S
2019-09-10 00:21:33,d46c57de-5db3-4902-a068-3c21b31c3d20,A
2019-09-10 00:22:54,d46c57de-5db3-4902-a068-3c21b31c3d20,S
2019-09-10 00:27:03,d46c57de-5db3-4902-a068-3c21b31c3d20,A
2019-09-10 00:28:38,d46c57de-5db3-4902-a068-3c21b31c3d20,S
2019-09-10 00:28:43,d46c57de-5db3-4902-a068-3c21b31c3d20,A
2019-09-09 22:37:30,1b746647-c7e5-4da8-8543-62e1c692c46c,A
2019-09-09 22:40:56,1b746647-c7e5-4da8-8543-62e1c692c46c,S
2019-09-09 22:46:01,1b746647-c7e5-4da8-8543-62e1c692c46c,A
2019-09-09 22:47:51,1b746647-c7e5-4da8-8543-62e1c692c46c,S
2019-09-09 22:58:22,1b746647-c7e5-4da8-8543-62e1c692c46c,A
2019-09-09 22:58:57,1b746647-c7e5-4da8-8543-62e1c692c46c,S
2019-09-09 23:07:22,1b746647-c7e5-4da8-8543-62e1c692c46c,A
2019-09-09 23:09:42,1b746647-c7e5-4da8-8543-62e1c692c46c,S
2019-09-09 23:18:06,1b746647-c7e5-4da8-8543-62e1c692c46c,A
2019-09-09 23:36:32,1b746647-c7e5-4da8-8543-62e1c692c46c,S
2019-09-09 23:37:48,1b746647-c7e5-4da8-8543-62e1c692c46c,A
2019-09-09 23:37:59,1b746647-c7e5-4da8-8543-62e1c692c46c,S
2019-09-09 23:41:11,1b746647-c7e5-4da8-8543-62e1c692c46c,A
2019-09-09 23:50:01,1b746647-c7e5-4da8-8543-62e1c692c46c,S
2019-09-10 00:05:07,1b746647-c7e5-4da8-8543-62e1c692c46c,A
2019-09-10 00:05:24,1b746647-c7e5-4da8-8543-62e1c692c46c,S
2019-09-10 00:15:56,1b746647-c7e5-4da8-8543-62e1c692c46c,A
2019-09-10 00:28:55,1b746647-c7e5-4da8-8543-62e1c692c46c,S
2019-09-10 00:29:55,1b746647-c7e5-4da8-8543-62e1c692c46c,A
2019-09-10 00:30:20,1b746647-c7e5-4da8-8543-62e1c692c46c,S
2019-09-09 22:32:42,fd0d5ca2-6764-493b-9402-48c88689b509,S
2019-09-09 22:36:09,fd0d5ca2-6764-493b-9402-48c88689b509,A
2019-09-09 22:42:11,fd0d5ca2-6764-493b-9402-48c88689b509,S
2019-09-09 22:52:08,fd0d5ca2-6764-493b-9402-48c88689b509,A
2019-09-09 23:12:16,fd0d5ca2-6764-493b-9402-48c88689b509,S
2019-09-09 23:18:12,fd0d5ca2-6764-493b-9402-48c88689b509,A
2019-09-09 23:29:01,fd0d5ca2-6764-493b-9402-48c88689b509,S
2019-09-09 23:34:26,fd0d5ca2-6764-493b-9402-48c88689b509,A
2019-09-09 23:38:43,fd0d5ca2-6764-493b-9402-48c88689b509,S
2019-09-09 23:44:17,fd0d5ca2-6764-493b-9402-48c88689b509,A
2019-09-09 23:44:28,fd0d5ca2-6764-493b-9402-48c88689b509,S
2019-09-09 23:46:12,fd0d5ca2-6764-493b-9402-48c88689b509,A
2019-09-09 23:52:07,fd0d5ca2-6764-493b-9402-48c88689b509,S
2019-09-09 23:53:49,fd0d5ca2-6764-493b-9402-48c88689b509,A
2019-09-09 23:58:21,fd0d5ca2-6764-493b-9402-48c88689b509,S
2019-09-10 00:01:55,fd0d5ca2-6764-493b-9402-48c88689b509,A
2019-09-10 00:07:14,fd0d5ca2-6764-493b-9402-48c88689b509,S
2019-09-10 00:14:57,fd0d5ca2-6764-493b-9402-48c88689b509,A
