actor,node
51817d91-537f-4130-8e97-03644f3cc33d,5ad6da54-5a72-42bb-b261-cefea65d678a
34a7244e-3b14-4d7a-8e17-91d32fef5d3c,5bd2da1a-b026-41be-843f-eddc25c6ec82
5d1077bb-c491-47a2-8eb7-56978acda54d,5bd2da1a-b026-41be-843f-eddc25c6ec82
2c2bdfdc-6731-4a1b-be7c-0a67d24b5ba4,cfb60f3a-8d3c-4a93-9d66-ce895b8bde53
9e1c560f-4e56-4f47-84bd-395832311499,cfb60f3a-8d3c-4a93-9d66-ce895b8bde53
6a453e6f-5d0f-4640-bd82-fb3ba6615433,59e22715-0337-4174-b504-d72cf169d628
2493b601-312c-4530-a58c-80185e37bf22,5c8cc820-c758-42fc-90d2-cc6c10b53236
1cb679e9-5ffb-477f-bf35-86f664bba7ed,7cc439c1-01c3-4bd9-ac2a-06fe560c3195
317624a6-1af9-43ff-b851-4b898a8bd8f1,7cc439c1-01c3-4bd9-ac2a-06fe560c3195
c25cacfb-9137-48fa-835d-34e7a69e6835,0a9eb1f2-9f3f-456e-861d-113dd94f2ea6
95fef29e-e67d-4c15-808a-c9982369c7fe,7cc439c1-01c3-4bd9-ac2a-06fe560c3195
f56fe8d1-5dda-4006-a9dd-81de8b34a844,7cc439c1-01c3-4bd9-ac2a-06fe560c3195
b9791640-6887-423c-9577-463ef615ab41,dd05ea55-fdbd-4064-9ebc-686baf364b41
8bbd1fd9-fb70-4b0c-853a-009d1b70bf80,cdf0a67d-70c5-47f8-8a36-40b724943349
d254f753-6e19-45b6-b49b-27b68d2d0976,fb605e13-b6e8-4cfd-b92f-8f1798e1e604
97809cd0-cffb-4c06-8fd5-8ef54c1e10a7,a7cd43d7-2a69-43ad-a358-7b198165ab0a
afac5137-2271-472b-b346-c4159ecf3a56,c0209152-9065-4347-a165-f20f30130ca7
49109a96-4382-4506-b85c-d2e74d02d89a,fb605e13-b6e8-4cfd-b92f-8f1798e1e604
b55fa139-8b1d-405f-994b-daabd9c35e9f,59f27c0c-9538-432d-98b5-34ed0423ba3a
9e7bb423-75ef-48f2-8dbd-74b6221b4e5a,59f27c0c-9538-432d-98b5-34ed0423ba3a
9e74c519-fd7a-4d94-8fdc-bf4489a307bd,5771d4a2-0f3c-4bbc-b091-1bbd241268eb
c0a72dcc-741b-49d7-a405-cdfebc35c3b6,0a062320-9f1e-4c0b-b4f7-084ee38a0526
88f4422b-75ae-4908-a167-0ecc9d66215c,0a062320-9f1e-4c0b-b4f7-084ee38a0526
c1436ac8-6505-4322-a360-dbd0f62e7cdb,901b1d30-d813-41f9-8ab1-1ddc13eeb2f1
934ff57d-071c-4674-ac25-0ca7b6d4ef92,e24f9699-1a7e-415b-957c-78d974ad9b16
4b3544ef-8cd9-4553-8e82-1a7df3727282,7f9c4619-e1f4-4e81-944e-b8dc5f04790b
b949cf96-6bc1-47b7-97cb-fd2218addf2c,e24f9699-1a7e-415b-957c-78d974ad9b16
25a87069-b9ef-413c-a034-6e94fd19d63d,cfb60f3a-8d3c-4a93-9d66-ce895b8bde53
f364fe9f-98f5-48df-928f-df00b3076db5,af2cfaa5-f75d-4b37-aa45-b06b6f7e2c6f
8e1de99f-44c0-495c-b467-ce12a6e2135f,cfb60f3a-8d3c-4a93-9d66-ce895b8bde53
f1712605-1ead-4a82-9324-9feec25b1190,c1fa9c22-fe0b-49bf-939e-6b150576b5fb
0e985812-4a15-493c-bca2-d674fe462339,a7cd43d7-2a69-43ad-a358-7b198165ab0a
096af783-cc00-4947-9d42-55dfa8cd68e4,fb605e13-b6e8-4cfd-b92f-8f1798e1e604
87ee1e11-6f7e-466d-95b7-f054e28a628c,fb605e13-b6e8-4cfd-b92f-8f1798e1e604
ac4d63b1-6d6c-4a2c-99fd-c493176bdba8,000f3c4d-c60f-4515-acb9-2c88f18b7e96
c2ce00f5-ce38-478c-9697-2944f5663fc5,95dcb39f-fb85-424f-a121-e182125c9fc8
3eeb319f-b474-431f-bd8c-31ccaf1b4b28,a7cd43d7-2a69-43ad-a358-7b198165ab0a
34fbb7d6-c391-442d-9c41-63d18cf8d452,a7cd43d7-2a69-43ad-a358-7b198165ab0a
a4465151-4e39-44b0-819c-3d59cf206967,4694e3f4-508e-4b44-b779-8d594694ee63
7d94dc2d-07f6-46ea-817c-4fc39d2f50b9,802bd3b1-78c9-4629-bd30-5a29977aad7e
db51697b-48bf-4aa0-b292-a9902fe34bd8,7cc439c1-01c3-4bd9-ac2a-06fe560c3195
14677e42-a44e-4653-a2b2-721bd931976d,7cc439c1-01c3-4bd9-ac2a-06fe560c3195
287dbe45-2106-49e8-b9aa-3c22e4a6fb20,fc3794a4-cce8-43fa-bc5c-656064ee8945
44ea6a7f-17c2-424c-836c-448c9929f2f9,95dcb39f-fb85-424f-a121-e182125c9fc8
d34d8561-e178-41a9-9979-6629eac78076,fb605e13-b6e8-4cfd-b92f-8f1798e1e604
75899b1b-6433-49df-ab44-40495ab17463,31ee4de6-16c9-4068-b0ba-65ffb3995447
bc256453-b50b-45d1-ac66-836dcf0b4382,95dcb39f-fb85-424f-a121-e182125c9fc8
2bb7347b-67ee-44ac-84e6-72fb5fae9f0b,95dcb39f-fb85-424f-a121-e182125c9fc8
86c3e8ff-4788-4176-93be-7b694c675c7f,dc222148-80bc-45ea-86c5-b0b98d489ebf
913c8858-b030-465b-bf38-d946fceed422,dc222148-80bc-45ea-86c5-b0b98d489ebf
8e21e152-2213-4f53-9436-ce0432f9e2d9,3272b92c-7aed-404f-95f4-deb52b2a1ba4
bf775375-2756-45d5-9653-0b2a220c9b23,f626d0ce-8324-4828-9baa-8ae8a3f0f2cb
799044f3-3fd9-4eda-8557-62796d1499eb,0633f749-3ff3-4d1b-be18-1cfccd433424
278b043b-6796-4cc1-a2c0-9cd71d98614e,0633f749-3ff3-4d1b-be18-1cfccd433424
7505ba32-74c1-488c-bc29-b20bfbc74107,16d5c5f4-65b9-45c2-a17b-513668591842
fb1410f7-d8ab-4427-97ec-cdb807119286,95dcb39f-fb85-424f-a121-e182125c9fc8
0c7d24dc-7b79-4103-b0dd-6a838c5430fa,e24f9699-1a7e-415b-957c-78d974ad9b16
2246d957-2e10-4963-8d79-936572930408,a3e892fe-90c7-4599-baf4-7254ba28d9c4
24b3783a-847f-4802-864a-0e472df4ab80,a3e892fe-90c7-4599-baf4-7254ba28d9c4
e65f4034-37c1-4793-9430-1fe662e223b7,a0978ea3-3bd2-45de-88d5-3ca2a24d8a94
c3296ec7-315a-40be-8a18-e99106d6def8,5d8fa5e3-4821-47ca-8696-ef2bd03cd3b8
efed4f0b-a279-48a5-bef3-8ca839097b84,083c1662-ecf7-4d38-9757-b799c6708013
54f56957-0d46-453e-b112-3e4131760cc1,5d8fa5e3-4821-47ca-8696-ef2bd03cd3b8
5678ceb9-6588-46a4-9896-562151887c8b,dd05ea55-fdbd-4064-9ebc-686baf364b41
974f25b3-cf2a-46d2-8224-cbe471d540c3,269657c9-e810-47bd-a82c-a47eca70bfbd
293ffe65-6ffb-450f-b241-04e3ccb308c7,dd05ea55-fdbd-4064-9ebc-686baf364b41
575b6424-1c52-4f7d-997e-f04f24732489,1ced4ed7-db3e-46f7-8c70-81bb1e2d4ba6
61e71483-2c61-4da7-8fd5-42a4c1dbeb98,1ced4ed7-db3e-46f7-8c70-81bb1e2d4ba6
bb0bf3fc-3c99-4217-b956-84b2f0583b06,e4375c85-e872-4669-89cb-a6795269f337
d13dfddf-aa6c-4e9a-8a0c-8c0acb7dc984,cfb60f3a-8d3c-4a93-9d66-ce895b8bde53
3da20cf1-bcdc-473b-9920-e14154495ad3,cfb60f3a-8d3c-4a93-9d66-ce895b8bde53
3a2ff1d5-1dde-4b8d-859f-f1ce5bb2603e,0e293c41-51a3-40b9-8479-8caab105d25b
4275fa82-3e4d-42ee-9ccb-5bc3b96d205f,e24f9699-1a7e-415b-957c-78d974ad9b16
1ea1eb96-5933-483a-93cc-80d3ebbc4c43,e24f9699-1a7e-415b-957c-78d974ad9b16
d98a9e03-43ca-410c-b344-7704452ee676,24ff8865-944d-44ab-99a0-2472a5cb3eb8
8196afba-3ee9-416b-8cc9-3d1bfb1a7acb,a7cd43d7-2a69-43ad-a358-7b198165ab0a
c0f37bc2-3ccf-459d-a964-8219536b4a84,a7cd43d7-2a69-43ad-a358-7b198165ab0a
cbc16551-6fba-4c5e-8898-3820e7aeb771,762c3a6f-3cd7-46a1-bc4b-9cce932bd6d4
c923f8af-b17a-4eef-9362-be85917d36b1,5d8fa5e3-4821-47ca-8696-ef2bd03cd3b8
d7213126-d9ed-44bf-949a-b52e878672b1,5d8fa5e3-4821-47ca-8696-ef2bd03cd3b8
36d4c8a1-6330-4aae-9616-119a0efec9e4,cfe7eaba-bbda-47df-ac5c-12a4d7d7b3dc
56731889-1938-4fa8-af86-4f9748eaa8d4,87e20c75-0d19-47fb-a630-a88c5700606a
423837c1-8795-4c11-9c58-de18c3721129,a3e892fe-90c7-4599-baf4-7254ba28d9c4
46f134af-0f9a-49b8-ba4d-bf3ef60985fc,a3e892fe-90c7-4599-baf4-7254ba28d9c4
a1ec60b5-8053-4d38-8120-6b2af568fa81,a3e892fe-90c7-4599-baf4-7254ba28d9c4
91208af3-c178-48bc-8df3-3f0ccf63c86e,a3e892fe-90c7-4599-baf4-7254ba28d9c4
671c019c-2803-4c1b-b082-323ff9818584,1701c593-f974-4e40-9a24-6d02dc6f5c39
5a74da19-f15d-407e-a9cf-237b94fad2d2,7cc439c1-01c3-4bd9-ac2a-06fe560c3195
4cb15d07-d78b-4fa6-96de-d04d7386325c,9b701de3-23a4-48ba-a368-23b081972a6e
7e527afe-4616-4fb7-9be5-570798b5f794,7cc439c1-01c3-4bd9-ac2a-06fe560c3195
158df648-6544-4116-8181-a2a60657d8c9,7cc439c1-01c3-4bd9-ac2a-06fe560c3195
c18a312a-f45a-4ec6-bd7a-e24f4c737ed3,7cc439c1-01c3-4bd9-ac2a-06fe560c3195
37b182c9-4aff-4235-bff9-2182e0fda659,0e2a2155-1a41-4e5d-aebf-f26c619fd3d3
68407a91-d7d6-47a6-bc92-8009917b446c,95dcb39f-fb85-424f-a121-e182125c9fc8
738e7cbd-9f8c-425e-a9a2-e28a7f7030da,dab519df-97c4-45bd-9ffa-478b493cff90
55bc6081-21ea-4284-adfa-d7b004fdd24d,e24f9699-1a7e-415b-957c-78d974ad9b16
595235f7-d382-451f-ac85-f369181f6d6e,a3e892fe-90c7-4599-baf4-7254ba28d9c4
767a1d6a-84ad-4ee5-b414-b8a9c6e004be,5e802872-1907-4eb2-bd31-33577311d0ed
770768db-9916-4818-a00b-a85ac826bd2b,a3e892fe-90c7-4599-baf4-7254ba28d9c4
fc85d1f3-fc27-4b5c-84f9-8bad2246a681,faae1a7f-edc0-44e0-a84b-8beae3b99cad
42f1bed8-b9e6-4abe-8b88-bea253276de2,a7cd43d7-2a69-43ad-a358-7b198165ab0a
0513fd4f-dbe6-49da-af5d-85c442d30e08,a7cd43d7-2a69-43ad-a358-7b198165ab0a
cd00beec-46ea-441c-9d05-f5a0a66489f4,59f27c0c-9538-432d-98b5-34ed0423ba3a
bbf87b35-da62-40d8-8d21-e1e91320600f,292922de-76e2-4696-940e-ffd42a0ddb03
3e9fcf80-32ab-42c1-9bd0-30b96126e57c,59f27c0c-9538-432d-98b5-34ed0423ba3a
1302f48a-4916-4280-877e-35999054d16b,5f2580dd-fd7a-4ac1-b8f0-b041fc3f820a
3c435a38-9ca3-417d-ad3b-4326a257ef11,e24f9699-1a7e-415b-957c-78d974ad9b16
cad351d1-525b-45ca-812d-17358cff91b9,e24f9699-1a7e-415b-957c-78d974ad9b16
1322a422-f7c1-4d25-9f0b-7d1abf7b8d47,f9ff2330-33f3-48b8-9693-67ef3bcc4b1c
d6e45b0f-e385-4f64-9870-83cd8d52283d,95dcb39f-fb85-424f-a121-e182125c9fc8
c454924e-30bc-43e3-854b-3719039f53b5,95dcb39f-fb85-424f-a121-e182125c9fc8
1862bdb5-88ed-4d9f-a190-c6bbfc14ee41,5bd2da1a-b026-41be-843f-eddc25c6ec82
e2fce55f-6654-47d5-8cd5-36508fab1195,a0bf5c59-0cc9-41da-ba2f-76197b8de548
74692510-abd9-475f-86f2-003d537f4de9,5bd2da1a-b026-41be-843f-eddc25c6ec82
5a559c13-fa95-40b6-b616-b6112bcfe6b4,ecd2210f-825f-4fa9-9c93-66fc2a4fcf1e
9ee92438-8617-43cf-b90c-305ea02ca1e1,5d8fa5e3-4821-47ca-8696-ef2bd03cd3b8
5eda3974-bdc0-4a35-9567-0056b7cb9f59,5d8fa5e3-4821-47ca-8696-ef2bd03cd3b8
1f5b2bd9-bc50-4d1a-adc5-17cfb2398dcf,a7cd43d7-2a69-43ad-a358-7b198165ab0a
b03ea431-b437-42b3-a6ce-621e17811179,a7cd43d7-2a69-43ad-a358-7b198165ab0a
693c389a-d0b1-4b80-9c7d-93aeacd45db7,f84fce9d-048f-4a9d-ab1d-5dffcfd5a18f
5a07fd79-a594-4089-bed1-cb897b884616,a7cd43d7-2a69-43ad-a358-7b198165ab0a
7c3e40de-f4dd-47e6-a802-d5749f4c5b35,034e48f6-08fe-4f64-aba8-9c6c32441803
c310e829-6ef1-483d-b155-8dcc05826ba8,a7cd43d7-2a69-43ad-a358-7b198165ab0a
2968d129-15cc-42b0-b706-784cb4b14cf3,dd05ea55-fdbd-4064-9ebc-686baf364b41
45b2ecea-a254-4e36-b931-4c8d4269cd08,dd05ea55-fdbd-4064-9ebc-686baf364b41
fadee6d9-4f9e-4f2e-920c-0f76bc39f636,d49d8c40-2ae6-46ac-85c5-3aa64b500606
6011c509-b55b-4e85-ac65-86b870cce5d6,1ced4ed7-db3e-46f7-8c70-81bb1e2d4ba6
f522596b-27a5-4ae3-8414-780f583812ac,e6085a97-dcf3-43ae-8f83-be9a3eb35c16
7c843030-caf5-4170-a249-ed1334b9c055,1ced4ed7-db3e-46f7-8c70-81bb1e2d4ba6
a9906f23-a1df-40e4-951c-b4b9c9094f29,e24f9699-1a7e-415b-957c-78d974ad9b16
4b515053-1ede-43de-973a-625ccc780c0c,e24f9699-1a7e-415b-957c-78d974ad9b16
3d84a7e2-8d7f-4f86-9740-fba0f5b44fe4,a9ded4ff-937b-4a22-bf5b-e702cfa16f2e
d080581e-33d2-44c5-b53a-85702f0cea1b,6813651b-50ca-4c88-ae2f-4e21179442bd
eeb57aae-8ac7-4b64-aad3-fd22ef6b8661,e24f9699-1a7e-415b-957c-78d974ad9b16
c98f0995-0863-4ac3-a0d7-ed4d95d9e0ed,e24f9699-1a7e-415b-957c-78d974ad9b16
1eba3094-d27e-4921-b9cf-9bc27e7bc245,02bc04df-7f85-49e5-8e51-eeacec33dc85
c012a0b4-e1e7-47f6-96ef-ca6e3380fbbf,e24f9699-1a7e-415b-957c-78d974ad9b16
ec1e8370-c36a-421a-961b-4cdacaa285a5,e24f9699-1a7e-415b-957c-78d974ad9b16
256e77d5-d72f-469f-883c-b88ea7bc1a53,5d8fa5e3-4821-47ca-8696-ef2bd03cd3b8
f5bb65a6-eb6c-448f-8b07-767f0b340ac1,5d8fa5e3-4821-47ca-8696-ef2bd03cd3b8
659bc947-ce83-4ae4-99d9-5f9bd9d01169,deca600a-46d4-4f7c-947b-d4d065be248f
70b613f2-cb7b-4fbf-9f30-42ceb201c856,5bd2da1a-b026-41be-843f-eddc25c6ec82
6daa35e6-551b-4d0e-a200-72eaed521f5a,c6077770-7f15-4aec-850a-b292340ebb85
e1800841-5695-4ea1-ae81-0b9bdbb994d3,5bd2da1a-b026-41be-843f-eddc25c6ec82
2edf77e6-9142-4ab7-bc40-b9f3e70f9684,59f27c0c-9538-432d-98b5-34ed0423ba3a
301d5317-a09a-40ce-8fd7-880fb3b9d314,59f27c0c-9538-432d-98b5-34ed0423ba3a
293ec0bb-3d35-40ca-92b0-9f00d05e1e11,fe74c2df-53ef-40e7-b6c6-f800b4b33fac
1c8c2651-f7a6-493d-b527-b2f15570d421,a3e892fe-90c7-4599-baf4-7254ba28d9c4
0c1f6cd7-3293-459d-86b1-64019cf3504e,a3e892fe-90c7-4599-baf4-7254ba28d9c4
f15d01f4-f68f-4563-ae0b-f2bada28db7f,28c921b8-56e2-4c7f-a529-1f7b664a8cf1
