date,trigger,state
2019-08-04 01:18:39,ebe2d5af-c19c-40fb-90bd-551c166898e5,S
2019-08-04 01:23:55,ebe2d5af-c19c-40fb-90bd-551c166898e5,A
2019-08-04 01:30:39,ebe2d5af-c19c-40fb-90bd-551c166898e5,S
2019-08-04 01:35:38,ebe2d5af-c19c-40fb-90bd-551c166898e5,A
2019-08-04 01:36:34,ebe2d5af-c19c-40fb-90bd-551c166898e5,S
2019-08-04 01:43:21,ebe2d5af-c19c-40fb-90bd-551c166898e5,A
2019-08-04 01:45:36,ebe2d5af-c19c-40fb-90bd-551c166898e5,S
2019-08-04 01:51:42,ebe2d5af-c19c-40fb-90bd-551c166898e5,A
2019-08-04 01:51:44,ebe2d5af-c19c-40fb-90bd-551c166898e5,S
2019-08-04 01:52:29,ebe2d5af-c19c-40fb-90bd-551c166898e5,A
2019-08-04 01:56:22,ebe2d5af-c19c-40fb-90bd-551c166898e5,S
2019-08-04 02:01:58,ebe2d5af-c19c-40fb-90bd-551c166898e5,A
2019-08-04 02:03:59,ebe2d5af-c19c-40fb-90bd-551c166898e5,S
2019-08-04 02:07:12,ebe2d5af-c19c-40fb-90bd-551c166898e5,A
2019-08-04 02:10:04,ebe2d5af-c19c-40fb-90bd-551c166898e5,S
2019-08-04 02:13:18,ebe2d5af-c19c-40fb-90bd-551c166898e5,A
2019-08-04 02:22:20,ebe2d5af-c19c-40fb-90bd-551c166898e5,S
2019-08-04 02:25:53,ebe2d5af-c19c-40fb-90bd-551c166898e5,A
2019-08-04 02:26:52,ebe2d5af-c19c-40fb-90bd-551c166898e5,S
2019-08-04 02:30:19,ebe2d5af-c19c-40fb-90bd-551c166898e5,A
2019-08-04 02:32:17,ebe2d5af-c19c-40fb-90bd-551c166898e5,S
2019-08-04 02:32:58,ebe2d5af-c19c-40fb-90bd-551c166898e5,A
2019-08-04 00:52:04,d3efdda7-b9c4-43d5-b99d-f08c0d811d88,A
2019-08-04 01:08:07,d3efdda7-b9c4-43d5-b99d-f08c0d811d88,S
2019-08-04 01:11:21,d3efdda7-b9c4-43d5-b99d-f08c0d811d88,A
2019-08-04 01:14:07,d3efdda7-b9c4-43d5-b99d-f08c0d811d88,S
2019-08-04 01:14:37,d3efdda7-b9c4-43d5-b99d-f08c0d811d88,A
2019-08-04 01:28:35,d3efdda7-b9c4-43d5-b99d-f08c0d811d88,S
2019-08-04 01:32:05,d3efdda7-b9c4-43d5-b99d-f08c0d811d88,A
2019-08-04 01:34:56,d3efdda7-b9c4-43d5-b99d-f08c0d811d88,S
2019-08-04 01:38:56,d3efdda7-b9c4-43d5-b99d-f08c0d811d88,A
2019-08-04 01:52:20,d3efdda7-b9c4-43d5-b99d-f08c0d811d88,S
2019-08-04 01:52:31,d3efdda7-b9c4-43d5-b99d-f08c0d811d88,A
2019-08-04 02:01:13,d3efdda7-b9c4-43d5-b99d-f08c0d811d88,S
2019-08-04 02:05:29,d3efdda7-b9c4-43d5-b99d-f08c0d811d88,A
2019-08-04 02:12:06,d3efdda7-b9c4-43d5-b99d-f08c0d811d88,S
2019-08-04 02:14:37,d3efdda7-b9c4-43d5-b99d-f08c0d811d88,A
2019-08-04 02:25:48,d3efdda7-b9c4-43d5-b99d-f08c0d811d88,S
2019-08-04 02:27:43,d3efdda7-b9c4-43d5-b99d-f08c0d811d88,A
2019-08-04 02:28:41,d3efdda7-b9c4-43d5-b99d-f08c0d811d88,S
2019-08-04 02:31:33,d3efdda7-b9c4-43d5-b99d-f08c0d811d88,A
2019-08-04 02:37:32,d3efdda7-b9c4-43d5-b99d-f08c0d811d88,S
2019-08-04 02:46:20,d3efdda7-b9c4-43d5-b99d-f08c0d811d88,A
2019-08-04 02:49:23,d3efdda7-b9c4-43d5-b99d-f08c0d811d88,S
2019-08-04 02:51:14,d3efdda7-b9c4-43d5-b99d-f08c0d811d88,A
2019-08-04 02:53:23,d3efdda7-b9c4-43d5-b99d-f08c0d811d88,S
2019-08-04 01:02:51,f7c9b65a-6591-4aad-be1c-e3f0602cbbd3,S
2019-08-04 01:09:04,f7c9b65a-6591-4aad-be1c-e3f0602cbbd3,A
2019-08-04 01:13:27,f7c9b65a-6591-4aad-be1c-e3f0602cbbd3,S
2019-08-04 01:23:59,f7c9b65a-6591-4aad-be1c-e3f0602cbbd3,A
2019-08-04 01:24:19,f7c9b65a-6591-4aad-be1c-e3f0602cbbd3,S
2019-08-04 01:29:48,f7c9b65a-6591-4aad-be1c-e3f0602cbbd3,A
2019-08-04 01:30:22,f7c9b65a-6591-4aad-be1c-e3f0602cbbd3,S
2019-08-04 01:30:59,f7c9b65a-6591-4aad-be1c-e3f0602cbbd3,A
2019-08-04 01:33:31,f7c9b65a-6591-4aad-be1c-e3f0602cbbd3,S
2019-08-04 01:33:51,f7c9b65a-6591-4aad-be1c-e3f0602cbbd3,A
2019-08-04 01:34:43,f7c9b65a-6591-4aad-be1c-e3f0602cbbd3,S
2019-08-04 01:50:16,f7c9b65a-6591-4aad-be1c-e3f0602cbbd3,A
2019-08-04 01:51:35,f7c9b65a-6591-4aad-be1c-e3f0602cbbd3,S
2019-08-04 01:54:43,f7c9b65a-6591-4aad-be1c-e3f0602cbbd3,A
2019-08-04 02:06:37,f7c9b65a-6591-4aad-be1c-e3f0602cbbd3,S
2019-08-04 02:08:03,f7c9b65a-6591-4aad-be1c-e3f0602cbbd3,A
2019-08-04 02:09:12,f7c9b65a-6591-4aad-be1c-e3f0602cbbd3,S
2019-08-04 02:10:04,f7c9b65a-6591-4aad-be1c-e3f0602cbbd3,A
2019-08-04 02:10:26,f7c9b65a-6591-4aad-be1c-e3f0602cbbd3,S
2019-08-04 02:16:56,f7c9b65a-6591-4aad-be1c-e3f0602cbbd3,A
2019-08-04 02:47:36,f7c9b65a-6591-4aad-be1c-e3f0602cbbd3,S
2019-08-04 02:51:21,f7c9b65a-6591-4aad-be1c-e3f0602cbbd3,A
2019-08-04 00:54:51,2d073f10-982c-445b-8439-8be65fa1f0d3,S
2019-08-04 00:56:23,2d073f10-982c-445b-8439-8be65fa1f0d3,A
2019-08-04 00:57:12,2d073f10-982c-445b-8439-8be65fa1f0d3,S
2019-08-04 00:57:18,2d073f10-982c-445b-8439-8be65fa1f0d3,A
2019-08-04 00:57:24,2d073f10-982c-445b-8439-8be65fa1f0d3,S
2019-08-04 00:57:48,2d073f10-982c-445b-8439-8be65fa1f0d3,A
2019-08-04 01:02:33,2d073f10-982c-445b-8439-8be65fa1f0d3,S
2019-08-04 01:06:41,2d073f10-982c-445b-8439-8be65fa1f0d3,A
2019-08-04 01:08:29,2d073f10-982c-445b-8439-8be65fa1f0d3,S
2019-08-04 01:10:43,2d073f10-982c-445b-8439-8be65fa1f0d3,A
2019-08-04 01:21:21,2d073f10-982c-445b-8439-8be65fa1f0d3,S
2019-08-04 01:23:23,2d073f10-982c-445b-8439-8be65fa1f0d3,A
2019-08-04 01:32:32,2d073f10-982c-445b-8439-8be65fa1f0d3,S
2019-08-04 01:35:08,2d073f10-982c-445b-8439-8be65fa1f0d3,A
2019-08-04 01:43:43,2d073f10-982c-445b-8439-8be65fa1f0d3,S
2019-08-04 01:45:45,2d073f10-982c-445b-8439-8be65fa1f0d3,A
2019-08-04 01:47:34,2d073f10-982c-445b-8439-8be65fa1f0d3,S
2019-08-04 01:50:38,2d073f10-982c-445b-8439-8be65fa1f0d3,A
2019-08-04 01:50:45,2d073f10-982c-445b-8439-8be65fa1f0d3,S
2019-08-04 02:02:49,2d073f10-982c-445b-8439-8be65fa1f0d3,A
2019-08-04 02:06:27,2d073f10-982c-445b-8439-8be65fa1f0d3,S
2019-08-04 02:18:11,2d073f10-982c-445b-8439-8be65fa1f0d3,A
2019-08-04 02:18:56,2d073f10-982c-445b-8439-8be65fa1f0d3,S
2019-08-04 02:25:49,2d073f10-982c-445b-8439-8be65fa1f0d3,A
2019-08-04 02:27:09,2d073f10-982c-445b-8439-8be65fa1f0d3,S
2019-08-04 02:29:36,2d073f10-982c-445b-8439-8be65fa1f0d3,A
2019-08-04 02:38:01,2d073f10-982c-445b-8439-8be65fa1f0d3,S
2019-08-04 02:46:10,2d073f10-982c-445b-8439-8be65fa1f0d3,A
2019-08-04 01:36:01,07314d69-a11c-4992-8f7e-a3c8111742ec,A
2019-08-04 01:41:08,07314d69-a11c-4992-8f7e-a3c8111742ec,S
2019-08-04 01:42:11,07314d69-a11c-4992-8f7e-a3c8111742ec,A
2019-08-04 01:44:07,07314d69-a11c-4992-8f7e-a3c8111742ec,S
2019-08-04 01:51:42,07314d69-a11c-4992-8f7e-a3c8111742ec,A
2019-08-04 01:53:06,07314d69-a11c-4992-8f7e-a3c8111742ec,S
2019-08-04 02:03:00,07314d69-a11c-4992-8f7e-a3c8111742ec,A
2019-08-04 02:04:48,07314d69-a11c-4992-8f7e-a3c8111742ec,S
2019-08-04 02:09:42,07314d69-a11c-4992-8f7e-a3c8111742ec,A
2019-08-04 02:14:06,07314d69-a11c-4992-8f7e-a3c8111742ec,S
2019-08-04 02:22:50,07314d69-a11c-4992-8f7e-a3c8111742ec,A
2019-08-04 02:24:21,07314d69-a11c-4992-8f7e-a3c8111742ec,S
2019-08-04 02:26:15,07314d69-a11c-4992-8f7e-a3c8111742ec,A
2019-08-04 02:28:42,07314d69-a11c-4992-8f7e-a3c8111742ec,S
2019-08-04 02:32:56,07314d69-a11c-4992-8f7e-a3c8111742ec,A
2019-08-04 02:38:45,07314d69-a11c-4992-8f7e-a3c8111742ec,S
2019-08-04 02:44:15,07314d69-a11c-4992-8f7e-a3c8111742ec,A
2019-08-04 02:53:28,07314d69-a11c-4992-8f7e-a3c8111742ec,S
2019-08-04 00:48:33,5034eae5-51bc-4135-ba74-a20aef7fb1e3,A
2019-08-04 00:52:49,5034eae5-51bc-4135-ba74-a20aef7fb1e3,S
2019-08-04 00:55:06,5034eae5-51bc-4135-ba74-a20aef7fb1e3,A
2019-08-04 01:02:49,5034eae5-51bc-4135-ba74-a20aef7fb1e3,S
2019-08-04 01:12:07,5034eae5-51bc-4135-ba74-a20aef7fb1e3,A
2019-08-04 01:16:28,5034eae5-51bc-4135-ba74-a20aef7fb1e3,S
2019-08-04 01:21:02,5034eae5-51bc-4135-ba74-a20aef7fb1e3,A
2019-08-04 01:36:19,5034eae5-51bc-4135-ba74-a20aef7fb1e3,S
2019-08-04 01:41:11,5034eae5-51bc-4135-ba74-a20aef7fb1e3,A
2019-08-04 01:54:01,5034eae5-51bc-4135-ba74-a20aef7fb1e3,S
2019-08-04 01:54:29,5034eae5-51bc-4135-ba74-a20aef7fb1e3,A
2019-08-04 02:01:42,5034eae5-51bc-4135-ba74-a20aef7fb1e3,S
2019-08-04 02:09:37,5034eae5-51bc-4135-ba74-a20aef7fb1e3,A
2019-08-04 02:10:46,5034eae5-51bc-4135-ba74-a20aef7fb1e3,S
2019-08-04 02:12:19,5034eae5-51bc-4135-ba74-a20aef7fb1e3,A
2019-08-04 02:12:56,5034eae5-51bc-4135-ba74-a20aef7fb1e3,S
2019-08-04 02:14:29,5034eae5-51bc-4135-ba74-a20aef7fb1e3,A
2019-08-04 02:15:05,5034eae5-51bc-4135-ba74-a20aef7fb1e3,S
2019-08-04 02:15:11,5034eae5-51bc-4135-ba74-a20aef7fb1e3,A
2019-08-04 02:15:32,5034eae5-51bc-4135-ba74-a20aef7fb1e3,S
2019-08-04 02:16:29,5034eae5-51bc-4135-ba74-a20aef7fb1e3,A
2019-08-04 02:23:54,5034eae5-51bc-4135-ba74-a20aef7fb1e3,S
2019-08-04 02:36:12,5034eae5-51bc-4135-ba74-a20aef7fb1e3,A
2019-08-04 02:36:51,5034eae5-51bc-4135-ba74-a20aef7fb1e3,S
2019-08-04 01:13:54,ca02f3ca-b336-4e9b-b3c0-9044118d39a3,S
2019-08-04 01:22:56,ca02f3ca-b336-4e9b-b3c0-9044118d39a3,A
2019-08-04 01:28:08,ca02f3ca-b336-4e9b-b3c0-9044118d39a3,S
2019-08-04 01:40:54,ca02f3ca-b336-4e9b-b3c0-9044118d39a3,A
2019-08-04 01:41:53,ca02f3ca-b336-4e9b-b3c0-9044118d39a3,S
2019-08-04 01:53:06,ca02f3ca-b336-4e9b-b3c0-9044118d39a3,A
2019-08-04 01:53:20,ca02f3ca-b336-4e9b-b3c0-9044118d39a3,S
2019-08-04 01:56:46,ca02f3ca-b336-4e9b-b3c0-9044118d39a3,A
2019-08-04 02:07:50,ca02f3ca-b336-4e9b-b3c0-9044118d39a3,S
2019-08-04 02:10:51,ca02f3ca-b336-4e9b-b3c0-9044118d39a3,A
2019-08-04 02:17:27,ca02f3ca-b336-4e9b-b3c0-9044118d39a3,S
2019-08-04 02:19:23,ca02f3ca-b336-4e9b-b3c0-9044118d39a3,A
2019-08-04 02:26:48,ca02f3ca-b336-4e9b-b3c0-9044118d39a3,S
2019-08-04 02:30:55,ca02f3ca-b336-4e9b-b3c0-9044118d39a3,A
2019-08-04 02:31:36,ca02f3ca-b336-4e9b-b3c0-9044118d39a3,S
2019-08-04 02:31:58,ca02f3ca-b336-4e9b-b3c0-9044118d39a3,A
2019-08-04 02:35:21,ca02f3ca-b336-4e9b-b3c0-9044118d39a3,S
2019-08-04 02:38:26,ca02f3ca-b336-4e9b-b3c0-9044118d39a3,A
2019-08-04 02:51:37,ca02f3ca-b336-4e9b-b3c0-9044118d39a3,S
2019-08-04 01:32:08,8cfd816c-86be-4481-a6a5-c41bf66db0d3,A
2019-08-04 01:41:03,8cfd816c-86be-4481-a6a5-c41bf66db0d3,S
2019-08-04 01:51:46,8cfd816c-86be-4481-a6a5-c41bf66db0d3,A
2019-08-04 01:57:18,8cfd816c-86be-4481-a6a5-c41bf66db0d3,S
2019-08-04 01:59:56,8cfd816c-86be-4481-a6a5-c41bf66db0d3,A
2019-08-04 02:00:41,8cfd816c-86be-4481-a6a5-c41bf66db0d3,S
2019-08-04 02:05:21,8cfd816c-86be-4481-a6a5-c41bf66db0d3,A
2019-08-04 02:07:11,8cfd816c-86be-4481-a6a5-c41bf66db0d3,S
2019-08-04 02:20:26,8cfd816c-86be-4481-a6a5-c41bf66db0d3,A
2019-08-04 02:22:19,8cfd816c-86be-4481-a6a5-c41bf66db0d3,S
2019-08-04 02:28:31,8cfd816c-86be-4481-a6a5-c41bf66db0d3,A
2019-08-04 02:31:19,8cfd816c-86be-4481-a6a5-c41bf66db0d3,S
2019-08-04 02:33:06,8cfd816c-86be-4481-a6a5-c41bf66db0d3,A
2019-08-04 02:33:29,8cfd816c-86be-4481-a6a5-c41bf66db0d3,S
2019-08-04 02:34:09,8cfd816c-86be-4481-a6a5-c41bf66db0d3,A
2019-08-04 02:46:39,8cfd816c-86be-4481-a6a5-c41bf66db0d3,S
2019-08-04 02:46:41,8cfd816c-86be-4481-a6a5-c41bf66db0d3,A
2019-08-04 02:47:17,8cfd816c-86be-4481-a6a5-c41bf66db0d3,S
2019-08-04 02:47:46,8cfd816c-86be-4481-a6a5-c41bf66db0d3,A
2019-08-04 01:31:08,5a24ec85-6c12-45ba-bcb1-8c0aa97e2e2a,A
2019-08-04 01:32:59,5a24ec85-6c12-45ba-bcb1-8c0aa97e2e2a,S
2019-08-04 01:42:27,5a24ec85-6c12-45ba-bcb1-8c0aa97e2e2a,A
2019-08-04 01:56:35,5a24ec85-6c12-45ba-bcb1-8c0aa97e2e2a,S
2019-08-04 01:58:10,5a24ec85-6c12-45ba-bcb1-8c0aa97e2e2a,A
2019-08-04 01:59:45,5a24ec85-6c12-45ba-bcb1-8c0aa97e2e2a,S
2019-08-04 02:01:38,5a24ec85-6c12-45ba-bcb1-8c0aa97e2e2a,A
2019-08-04 02:08:05,5a24ec85-6c12-45ba-bcb1-8c0aa97e2e2a,S
2019-08-04 02:12:59,5a24ec85-6c12-45ba-bcb1-8c0aa97e2e2a,A
2019-08-04 02:20:30,5a24ec85-6c12-45ba-bcb1-8c0aa97e2e2a,S
2019-08-04 02:20:33,5a24ec85-6c12-45ba-bcb1-8c0aa97e2e2a,A
2019-08-04 02:20:52,5a24ec85-6c12-45ba-bcb1-8c0aa97e2e2a,S
2019-08-04 02:23:13,5a24ec85-6c12-45ba-bcb1-8c0aa97e2e2a,A
2019-08-04 02:26:24,5a24ec85-6c12-45ba-bcb1-8c0aa97e2e2a,S
2019-08-04 02:27:10,5a24ec85-6c12-45ba-bcb1-8c0aa97e2e2a,A
2019-08-04 02:38:11,5a24ec85-6c12-45ba-bcb1-8c0aa97e2e2a,S
2019-08-04 02:38:59,5a24ec85-6c12-45ba-bcb1-8c0aa97e2e2a,A
2019-08-04 02:39:25,5a24ec85-6c12-45ba-bcb1-8c0aa97e2e2a,S
2019-08-04 02:41:38,5a24ec85-6c12-45ba-bcb1-8c0aa97e2e2a,A
2019-08-04 02:43:52,5a24ec85-6c12-45ba-bcb1-8c0aa97e2e2a,S
2019-08-04 02:44:10,5a24ec85-6c12-45ba-bcb1-8c0aa97e2e2a,A
2019-08-04 02:53:36,5a24ec85-6c12-45ba-bcb1-8c0aa97e2e2a,S
2019-08-04 01:30:12,efd2a081-6d2a-4f4b-9653-27f888594ca1,A
2019-08-04 01:37:26,efd2a081-6d2a-4f4b-9653-27f888594ca1,S
2019-08-04 01:39:21,efd2a081-6d2a-4f4b-9653-27f888594ca1,A
2019-08-04 01:44:11,efd2a081-6d2a-4f4b-9653-27f888594ca1,S
2019-08-04 01:51:26,efd2a081-6d2a-4f4b-9653-27f888594ca1,A
2019-08-04 01:58:23,efd2a081-6d2a-4f4b-9653-27f888594ca1,S
2019-08-04 01:58:56,efd2a081-6d2a-4f4b-9653-27f888594ca1,A
2019-08-04 01:59:21,efd2a081-6d2a-4f4b-9653-27f888594ca1,S
2019-08-04 02:00:45,efd2a081-6d2a-4f4b-9653-27f888594ca1,A
2019-08-04 02:01:23,efd2a081-6d2a-4f4b-9653-27f888594ca1,S
2019-08-04 02:03:39,efd2a081-6d2a-4f4b-9653-27f888594ca1,A
2019-08-04 02:10:01,efd2a081-6d2a-4f4b-9653-27f888594ca1,S
2019-08-04 02:11:24,efd2a081-6d2a-4f4b-9653-27f888594ca1,A
2019-08-04 02:14:06,efd2a081-6d2a-4f4b-9653-27f888594ca1,S
2019-08-04 02:14:41,efd2a081-6d2a-4f4b-9653-27f888594ca1,A
2019-08-04 02:16:00,efd2a081-6d2a-4f4b-9653-27f888594ca1,S
2019-08-04 02:35:22,efd2a081-6d2a-4f4b-9653-27f888594ca1,A
2019-08-04 02:53:22,efd2a081-6d2a-4f4b-9653-27f888594ca1,S
2019-08-04 02:54:26,efd2a081-6d2a-4f4b-9653-27f888594ca1,A
2019-08-04 01:37:38,0b2d711f-fa1f-4397-a120-76be0417605d,A
2019-08-04 02:11:24,0b2d711f-fa1f-4397-a120-76be0417605d,S
2019-08-04 02:11:51,0b2d711f-fa1f-4397-a120-76be0417605d,A
2019-08-04 02:41:08,0b2d711f-fa1f-4397-a120-76be0417605d,S
2019-08-04 02:44:11,0b2d711f-fa1f-4397-a120-76be0417605d,A
2019-08-04 02:46:39,0b2d711f-fa1f-4397-a120-76be0417605d,S
2019-08-04 02:48:11,0b2d711f-fa1f-4397-a120-76be0417605d,A
2019-08-04 02:48:57,0b2d711f-fa1f-4397-a120-76be0417605d,S
2019-08-04 02:52:12,0b2d711f-fa1f-4397-a120-76be0417605d,A
2019-08-04 00:49:43,60439383-5137-40f9-86e0-c7a6dcd87de7,S
2019-08-04 00:50:48,60439383-5137-40f9-86e0-c7a6dcd87de7,A
2019-08-04 00:52:03,60439383-5137-40f9-86e0-c7a6dcd87de7,S
2019-08-04 00:55:41,60439383-5137-40f9-86e0-c7a6dcd87de7,A
2019-08-04 00:58:25,60439383-5137-40f9-86e0-c7a6dcd87de7,S
2019-08-04 01:03:35,60439383-5137-40f9-86e0-c7a6dcd87de7,A
2019-08-04 01:04:53,60439383-5137-40f9-86e0-c7a6dcd87de7,S
2019-08-04 01:10:52,60439383-5137-40f9-86e0-c7a6dcd87de7,A
2019-08-04 01:22:09,60439383-5137-40f9-86e0-c7a6dcd87de7,S
2019-08-04 01:25:50,60439383-5137-40f9-86e0-c7a6dcd87de7,A
2019-08-04 01:30:21,60439383-5137-40f9-86e0-c7a6dcd87de7,S
2019-08-04 01:41:49,60439383-5137-40f9-86e0-c7a6dcd87de7,A
2019-08-04 01:55:16,60439383-5137-40f9-86e0-c7a6dcd87de7,S
2019-08-04 01:56:14,60439383-5137-40f9-86e0-c7a6dcd87de7,A
2019-08-04 01:57:47,60439383-5137-40f9-86e0-c7a6dcd87de7,S
2019-08-04 01:58:33,60439383-5137-40f9-86e0-c7a6dcd87de7,A
2019-08-04 01:59:42,60439383-5137-40f9-86e0-c7a6dcd87de7,S
2019-08-04 02:08:18,60439383-5137-40f9-86e0-c7a6dcd87de7,A
2019-08-04 02:10:16,60439383-5137-40f9-86e0-c7a6dcd87de7,S
2019-08-04 02:12:04,60439383-5137-40f9-86e0-c7a6dcd87de7,A
2019-08-04 02:16:52,60439383-5137-40f9-86e0-c7a6dcd87de7,S
2019-08-04 02:25:45,60439383-5137-40f9-86e0-c7a6dcd87de7,A
2019-08-04 02:36:37,60439383-5137-40f9-86e0-c7a6dcd87de7,S
2019-08-04 02:40:33,60439383-5137-40f9-86e0-c7a6dcd87de7,A
2019-08-04 02:40:50,60439383-5137-40f9-86e0-c7a6dcd87de7,S
2019-08-04 02:46:30,60439383-5137-40f9-86e0-c7a6dcd87de7,A
2019-08-04 02:52:55,60439383-5137-40f9-86e0-c7a6dcd87de7,S
2019-08-04 02:52:56,60439383-5137-40f9-86e0-c7a6dcd87de7,A
2019-08-04 02:54:55,60439383-5137-40f9-86e0-c7a6dcd87de7,S
2019-08-04 01:10:01,2bbf85f6-f1da-470d-9547-47faf207572a,A
2019-08-04 01:13:43,2bbf85f6-f1da-470d-9547-47faf207572a,S
2019-08-04 01:17:02,2bbf85f6-f1da-470d-9547-47faf207572a,A
2019-08-04 01:18:42,2bbf85f6-f1da-470d-9547-47faf207572a,S
2019-08-04 01:34:12,2bbf85f6-f1da-470d-9547-47faf207572a,A
2019-08-04 01:35:57,2bbf85f6-f1da-470d-9547-47faf207572a,S
2019-08-04 01:36:19,2bbf85f6-f1da-470d-9547-47faf207572a,A
2019-08-04 01:58:07,2bbf85f6-f1da-470d-9547-47faf207572a,S
2019-08-04 02:05:18,2bbf85f6-f1da-470d-9547-47faf207572a,A
2019-08-04 02:09:39,2bbf85f6-f1da-470d-9547-47faf207572a,S
2019-08-04 02:10:19,2bbf85f6-f1da-470d-9547-47faf207572a,A
2019-08-04 02:14:34,2bbf85f6-f1da-470d-9547-47faf207572a,S
2019-08-04 02:16:24,2bbf85f6-f1da-470d-9547-47faf207572a,A
2019-08-04 02:19:06,2bbf85f6-f1da-470d-9547-47faf207572a,S
2019-08-04 02:28:21,2bbf85f6-f1da-470d-9547-47faf207572a,A
2019-08-04 02:35:57,2bbf85f6-f1da-470d-9547-47faf207572a,S
2019-08-04 02:40:53,2bbf85f6-f1da-470d-9547-47faf207572a,A
2019-08-04 02:47:31,2bbf85f6-f1da-470d-9547-47faf207572a,S
2019-08-04 01:40:11,4f142552-9fba-4d55-ba48-3b1d694e91f9,S
2019-08-04 01:42:30,4f142552-9fba-4d55-ba48-3b1d694e91f9,A
2019-08-04 01:49:01,4f142552-9fba-4d55-ba48-3b1d694e91f9,S
2019-08-04 01:49:59,4f142552-9fba-4d55-ba48-3b1d694e91f9,A
2019-08-04 01:50:19,4f142552-9fba-4d55-ba48-3b1d694e91f9,S
2019-08-04 01:55:29,4f142552-9fba-4d55-ba48-3b1d694e91f9,A
2019-08-04 02:00:22,4f142552-9fba-4d55-ba48-3b1d694e91f9,S
2019-08-04 02:05:02,4f142552-9fba-4d55-ba48-3b1d694e91f9,A
2019-08-04 02:18:02,4f142552-9fba-4d55-ba48-3b1d694e91f9,S
2019-08-04 02:35:31,4f142552-9fba-4d55-ba48-3b1d694e91f9,A
2019-08-04 02:40:14,4f142552-9fba-4d55-ba48-3b1d694e91f9,S
2019-08-04 02:42:23,4f142552-9fba-4d55-ba48-3b1d694e91f9,A
2019-08-04 02:43:37,4f142552-9fba-4d55-ba48-3b1d694e91f9,S
2019-08-04 02:44:59,4f142552-9fba-4d55-ba48-3b1d694e91f9,A
2019-08-04 02:45:43,4f142552-9fba-4d55-ba48-3b1d694e91f9,S
2019-08-04 02:46:15,4f142552-9fba-4d55-ba48-3b1d694e91f9,A
2019-08-04 02:47:20,4f142552-9fba-4d55-ba48-3b1d694e91f9,S
2019-08-04 02:54:01,4f142552-9fba-4d55-ba48-3b1d694e91f9,A
2019-08-04 02:54:20,4f142552-9fba-4d55-ba48-3b1d694e91f9,S
2019-08-04 02:55:08,4f142552-9fba-4d55-ba48-3b1d694e91f9,A
2019-08-04 02:55:09,4f142552-9fba-4d55-ba48-3b1d694e91f9,S
2019-08-04 00:52:32,2ac4577d-adfe-4680-8555-d02db1159052,S
2019-08-04 00:56:35,2ac4577d-adfe-4680-8555-d02db1159052,A
2019-08-04 00:57:24,2ac4577d-adfe-4680-8555-d02db1159052,S
2019-08-04 01:02:37,2ac4577d-adfe-4680-8555-d02db1159052,A
2019-08-04 01:07:30,2ac4577d-adfe-4680-8555-d02db1159052,S
2019-08-04 01:12:29,2ac4577d-adfe-4680-8555-d02db1159052,A
2019-08-04 01:15:04,2ac4577d-adfe-4680-8555-d02db1159052,S
2019-08-04 01:15:50,2ac4577d-adfe-4680-8555-d02db1159052,A
2019-08-04 01:26:26,2ac4577d-adfe-4680-8555-d02db1159052,S
2019-08-04 01:26:49,2ac4577d-adfe-4680-8555-d02db1159052,A
2019-08-04 01:34:27,2ac4577d-adfe-4680-8555-d02db1159052,S
2019-08-04 01:39:47,2ac4577d-adfe-4680-8555-d02db1159052,A
2019-08-04 01:40:14,2ac4577d-adfe-4680-8555-d02db1159052,S
2019-08-04 01:46:39,2ac4577d-adfe-4680-8555-d02db1159052,A
2019-08-04 01:48:43,2ac4577d-adfe-4680-8555-d02db1159052,S
2019-08-04 01:48:56,2ac4577d-adfe-4680-8555-d02db1159052,A
2019-08-04 01:53:59,2ac4577d-adfe-4680-8555-d02db1159052,S
2019-08-04 01:54:41,2ac4577d-adfe-4680-8555-d02db1159052,A
2019-08-04 02:11:47,2ac4577d-adfe-4680-8555-d02db1159052,S
2019-08-04 02:14:04,2ac4577d-adfe-4680-8555-d02db1159052,A
2019-08-04 02:14:26,2ac4577d-adfe-4680-8555-d02db1159052,S
2019-08-04 02:17:49,2ac4577d-adfe-4680-8555-d02db1159052,A
2019-08-04 02:18:00,2ac4577d-adfe-4680-8555-d02db1159052,S
2019-08-04 02:25:01,2ac4577d-adfe-4680-8555-d02db1159052,A
2019-08-04 02:30:50,2ac4577d-adfe-4680-8555-d02db1159052,S
2019-08-04 02:51:32,2ac4577d-adfe-4680-8555-d02db1159052,A
2019-08-04 02:52:49,2ac4577d-adfe-4680-8555-d02db1159052,S
2019-08-04 01:25:28,90d57e19-75e7-45f9-9403-d55ff4c48a62,A
2019-08-04 01:28:57,90d57e19-75e7-45f9-9403-d55ff4c48a62,S
2019-08-04 01:31:13,90d57e19-75e7-45f9-9403-d55ff4c48a62,A
2019-08-04 01:33:14,90d57e19-75e7-45f9-9403-d55ff4c48a62,S
2019-08-04 01:33:49,90d57e19-75e7-45f9-9403-d55ff4c48a62,A
2019-08-04 01:36:24,90d57e19-75e7-45f9-9403-d55ff4c48a62,S
2019-08-04 01:43:16,90d57e19-75e7-45f9-9403-d55ff4c48a62,A
2019-08-04 01:44:43,90d57e19-75e7-45f9-9403-d55ff4c48a62,S
2019-08-04 01:54:59,90d57e19-75e7-45f9-9403-d55ff4c48a62,A
2019-08-04 02:34:04,90d57e19-75e7-45f9-9403-d55ff4c48a62,S
2019-08-04 02:43:58,90d57e19-75e7-45f9-9403-d55ff4c48a62,A
2019-08-04 02:44:02,90d57e19-75e7-45f9-9403-d55ff4c48a62,S
2019-08-04 02:44:44,90d57e19-75e7-45f9-9403-d55ff4c48a62,A
2019-08-04 02:47:48,90d57e19-75e7-45f9-9403-d55ff4c48a62,S
2019-08-04 02:49:10,90d57e19-75e7-45f9-9403-d55ff4c48a62,A
2019-08-04 02:50:30,90d57e19-75e7-45f9-9403-d55ff4c48a62,S
2019-08-04 02:54:40,90d57e19-75e7-45f9-9403-d55ff4c48a62,A
2019-08-04 02:56:14,90d57e19-75e7-45f9-9403-d55ff4c48a62,S
2019-08-04 02:56:20,90d57e19-75e7-45f9-9403-d55ff4c48a62,A
2019-08-04 01:22:46,78c78be0-ab74-4425-8c91-6e4986b04729,A
2019-08-04 01:34:17,78c78be0-ab74-4425-8c91-6e4986b04729,S
2019-08-04 01:44:13,78c78be0-ab74-4425-8c91-6e4986b04729,A
2019-08-04 01:49:41,78c78be0-ab74-4425-8c91-6e4986b04729,S
2019-08-04 01:50:23,78c78be0-ab74-4425-8c91-6e4986b04729,A
2019-08-04 01:51:20,78c78be0-ab74-4425-8c91-6e4986b04729,S
2019-08-04 01:53:18,78c78be0-ab74-4425-8c91-6e4986b04729,A
2019-08-04 01:54:38,78c78be0-ab74-4425-8c91-6e4986b04729,S
2019-08-04 02:01:57,78c78be0-ab74-4425-8c91-6e4986b04729,A
2019-08-04 02:03:51,78c78be0-ab74-4425-8c91-6e4986b04729,S
2019-08-04 02:05:34,78c78be0-ab74-4425-8c91-6e4986b04729,A
2019-08-04 02:20:58,78c78be0-ab74-4425-8c91-6e4986b04729,S
2019-08-04 02:26:52,78c78be0-ab74-4425-8c91-6e4986b04729,A
2019-08-04 02:31:25,78c78be0-ab74-4425-8c91-6e4986b04729,S
2019-08-04 02:32:29,78c78be0-ab74-4425-8c91-6e4986b04729,A
2019-08-04 02:34:49,78c78be0-ab74-4425-8c91-6e4986b04729,S
2019-08-04 02:38:28,78c78be0-ab74-4425-8c91-6e4986b04729,A
2019-08-04 02:40:29,78c78be0-ab74-4425-8c91-6e4986b04729,S
2019-08-04 02:40:37,78c78be0-ab74-4425-8c91-6e4986b04729,A
2019-08-04 02:49:43,78c78be0-ab74-4425-8c91-6e4986b04729,S
2019-08-04 02:56:02,78c78be0-ab74-4425-8c91-6e4986b04729,A
2019-08-04 01:22:38,fe6cf2f2-2b75-48bc-b135-1e4404aea47c,S
2019-08-04 01:23:19,fe6cf2f2-2b75-48bc-b135-1e4404aea47c,A
2019-08-04 01:39:00,fe6cf2f2-2b75-48bc-b135-1e4404aea47c,S
2019-08-04 01:46:15,fe6cf2f2-2b75-48bc-b135-1e4404aea47c,A
2019-08-04 01:46:36,fe6cf2f2-2b75-48bc-b135-1e4404aea47c,S
2019-08-04 01:47:06,fe6cf2f2-2b75-48bc-b135-1e4404aea47c,A
2019-08-04 01:48:13,fe6cf2f2-2b75-48bc-b135-1e4404aea47c,S
2019-08-04 01:56:01,fe6cf2f2-2b75-48bc-b135-1e4404aea47c,A
2019-08-04 01:58:30,fe6cf2f2-2b75-48bc-b135-1e4404aea47c,S
2019-08-04 01:59:28,fe6cf2f2-2b75-48bc-b135-1e4404aea47c,A
2019-08-04 02:04:27,fe6cf2f2-2b75-48bc-b135-1e4404aea47c,S
2019-08-04 02:07:53,fe6cf2f2-2b75-48bc-b135-1e4404aea47c,A
2019-08-04 02:15:35,fe6cf2f2-2b75-48bc-b135-1e4404aea47c,S
2019-08-04 02:19:08,fe6cf2f2-2b75-48bc-b135-1e4404aea47c,A
2019-08-04 02:20:12,fe6cf2f2-2b75-48bc-b135-1e4404aea47c,S
2019-08-04 02:21:30,fe6cf2f2-2b75-48bc-b135-1e4404aea47c,A
2019-08-04 02:30:39,fe6cf2f2-2b75-48bc-b135-1e4404aea47c,S
2019-08-04 02:31:45,fe6cf2f2-2b75-48bc-b135-1e4404aea47c,A
2019-08-04 02:34:23,fe6cf2f2-2b75-48bc-b135-1e4404aea47c,S
2019-08-04 02:36:30,fe6cf2f2-2b75-48bc-b135-1e4404aea47c,A
2019-08-04 02:45:02,fe6cf2f2-2b75-48bc-b135-1e4404aea47c,S
2019-08-04 02:47:16,fe6cf2f2-2b75-48bc-b135-1e4404aea47c,A
2019-08-04 02:52:13,fe6cf2f2-2b75-48bc-b135-1e4404aea47c,S
2019-08-04 02:55:41,fe6cf2f2-2b75-48bc-b135-1e4404aea47c,A
2019-08-04 02:56:21,fe6cf2f2-2b75-48bc-b135-1e4404aea47c,S
2019-08-04 01:05:25,011087e5-b4f1-4442-8a00-326db10e8e37,A
2019-08-04 01:11:28,011087e5-b4f1-4442-8a00-326db10e8e37,S
2019-08-04 01:14:16,011087e5-b4f1-4442-8a00-326db10e8e37,A
2019-08-04 01:14:55,011087e5-b4f1-4442-8a00-326db10e8e37,S
2019-08-04 01:15:40,011087e5-b4f1-4442-8a00-326db10e8e37,A
2019-08-04 01:24:55,011087e5-b4f1-4442-8a00-326db10e8e37,S
2019-08-04 01:25:20,011087e5-b4f1-4442-8a00-326db10e8e37,A
2019-08-04 01:26:11,011087e5-b4f1-4442-8a00-326db10e8e37,S
2019-08-04 01:31:04,011087e5-b4f1-4442-8a00-326db10e8e37,A
2019-08-04 01:36:04,011087e5-b4f1-4442-8a00-326db10e8e37,S
2019-08-04 01:36:16,011087e5-b4f1-4442-8a00-326db10e8e37,A
2019-08-04 01:37:00,011087e5-b4f1-4442-8a00-326db10e8e37,S
2019-08-04 01:39:21,011087e5-b4f1-4442-8a00-326db10e8e37,A
2019-08-04 01:42:21,011087e5-b4f1-4442-8a00-326db10e8e37,S
2019-08-04 01:43:37,011087e5-b4f1-4442-8a00-326db10e8e37,A
2019-08-04 01:43:41,011087e5-b4f1-4442-8a00-326db10e8e37,S
2019-08-04 01:51:47,011087e5-b4f1-4442-8a00-326db10e8e37,A
2019-08-04 01:55:04,011087e5-b4f1-4442-8a00-326db10e8e37,S
2019-08-04 01:56:56,011087e5-b4f1-4442-8a00-326db10e8e37,A
2019-08-04 02:04:18,011087e5-b4f1-4442-8a00-326db10e8e37,S
2019-08-04 02:14:33,011087e5-b4f1-4442-8a00-326db10e8e37,A
2019-08-04 02:30:00,011087e5-b4f1-4442-8a00-326db10e8e37,S
2019-08-04 02:32:23,011087e5-b4f1-4442-8a00-326db10e8e37,A
2019-08-04 02:32:34,011087e5-b4f1-4442-8a00-326db10e8e37,S
2019-08-04 02:40:40,011087e5-b4f1-4442-8a00-326db10e8e37,A
2019-08-04 02:41:03,011087e5-b4f1-4442-8a00-326db10e8e37,S
2019-08-04 02:49:22,011087e5-b4f1-4442-8a00-326db10e8e37,A
2019-08-04 01:31:14,6176a43e-a4ec-4f4a-8396-15bdbe455bf7,S
2019-08-04 01:31:57,6176a43e-a4ec-4f4a-8396-15bdbe455bf7,A
2019-08-04 01:35:28,6176a43e-a4ec-4f4a-8396-15bdbe455bf7,S
2019-08-04 01:39:30,6176a43e-a4ec-4f4a-8396-15bdbe455bf7,A
2019-08-04 01:47:19,6176a43e-a4ec-4f4a-8396-15bdbe455bf7,S
2019-08-04 01:53:49,6176a43e-a4ec-4f4a-8396-15bdbe455bf7,A
2019-08-04 01:57:59,6176a43e-a4ec-4f4a-8396-15bdbe455bf7,S
2019-08-04 01:59:24,6176a43e-a4ec-4f4a-8396-15bdbe455bf7,A
2019-08-04 02:09:49,6176a43e-a4ec-4f4a-8396-15bdbe455bf7,S
2019-08-04 02:10:04,6176a43e-a4ec-4f4a-8396-15bdbe455bf7,A
2019-08-04 02:10:20,6176a43e-a4ec-4f4a-8396-15bdbe455bf7,S
2019-08-04 02:11:50,6176a43e-a4ec-4f4a-8396-15bdbe455bf7,A
2019-08-04 02:19:40,6176a43e-a4ec-4f4a-8396-15bdbe455bf7,S
2019-08-04 02:23:37,6176a43e-a4ec-4f4a-8396-15bdbe455bf7,A
2019-08-04 02:26:15,6176a43e-a4ec-4f4a-8396-15bdbe455bf7,S
2019-08-04 02:28:43,6176a43e-a4ec-4f4a-8396-15bdbe455bf7,A
2019-08-04 02:30:50,6176a43e-a4ec-4f4a-8396-15bdbe455bf7,S
2019-08-04 02:35:30,6176a43e-a4ec-4f4a-8396-15bdbe455bf7,A
2019-08-04 02:41:52,6176a43e-a4ec-4f4a-8396-15bdbe455bf7,S
2019-08-04 02:42:02,6176a43e-a4ec-4f4a-8396-15bdbe455bf7,A
2019-08-04 02:42:41,6176a43e-a4ec-4f4a-8396-15bdbe455bf7,S
2019-08-04 02:44:59,6176a43e-a4ec-4f4a-8396-15bdbe455bf7,A
2019-08-04 01:05:08,7c3261a8-9eaa-4805-9253-59e993b7532f,A
2019-08-04 01:08:34,7c3261a8-9eaa-4805-9253-59e993b7532f,S
2019-08-04 01:13:39,7c3261a8-9eaa-4805-9253-59e993b7532f,A
2019-08-04 01:15:30,7c3261a8-9eaa-4805-9253-59e993b7532f,S
2019-08-04 01:26:01,7c3261a8-9eaa-4805-9253-59e993b7532f,A
2019-08-04 01:26:36,7c3261a8-9eaa-4805-9253-59e993b7532f,S
2019-08-04 01:35:00,7c3261a8-9eaa-4805-9253-59e993b7532f,A
2019-08-04 01:37:21,7c3261a8-9eaa-4805-9253-59e993b7532f,S
2019-08-04 01:45:44,7c3261a8-9eaa-4805-9253-59e993b7532f,A
2019-08-04 02:04:10,7c3261a8-9eaa-4805-9253-59e993b7532f,S
2019-08-04 02:05:26,7c3261a8-9eaa-4805-9253-59e993b7532f,A
2019-08-04 02:05:37,7c3261a8-9eaa-4805-9253-59e993b7532f,S
2019-08-04 02:08:50,7c3261a8-9eaa-4805-9253-59e993b7532f,A
2019-08-04 02:17:40,7c3261a8-9eaa-4805-9253-59e993b7532f,S
2019-08-04 02:32:45,7c3261a8-9eaa-4805-9253-59e993b7532f,A
2019-08-04 02:33:03,7c3261a8-9eaa-4805-9253-59e993b7532f,S
2019-08-04 02:43:34,7c3261a8-9eaa-4805-9253-59e993b7532f,A
2019-08-04 02:56:34,7c3261a8-9eaa-4805-9253-59e993b7532f,S
2019-08-04 01:00:19,2088c4d8-44dd-49a8-a230-1a65da0ed9be,S
2019-08-04 01:03:47,2088c4d8-44dd-49a8-a230-1a65da0ed9be,A
2019-08-04 01:09:49,2088c4d8-44dd-49a8-a230-1a65da0ed9be,S
2019-08-04 01:19:46,2088c4d8-44dd-49a8-a230-1a65da0ed9be,A
2019-08-04 01:39:54,2088c4d8-44dd-49a8-a230-1a65da0ed9be,S
2019-08-04 01:45:50,2088c4d8-44dd-49a8-a230-1a65da0ed9be,A
2019-08-04 01:56:39,2088c4d8-44dd-49a8-a230-1a65da0ed9be,S
2019-08-04 02:02:04,2088c4d8-44dd-49a8-a230-1a65da0ed9be,A
2019-08-04 02:06:21,2088c4d8-44dd-49a8-a230-1a65da0ed9be,S
2019-08-04 02:11:54,2088c4d8-44dd-49a8-a230-1a65da0ed9be,A
2019-08-04 02:12:06,2088c4d8-44dd-49a8-a230-1a65da0ed9be,S
2019-08-04 02:13:50,2088c4d8-44dd-49a8-a230-1a65da0ed9be,A
2019-08-04 02:19:44,2088c4d8-44dd-49a8-a230-1a65da0ed9be,S
2019-08-04 02:21:27,2088c4d8-44dd-49a8-a230-1a65da0ed9be,A
2019-08-04 02:25:58,2088c4d8-44dd-49a8-a230-1a65da0ed9be,S
2019-08-04 02:29:33,2088c4d8-44dd-49a8-a230-1a65da0ed9be,A
2019-08-04 02:34:51,2088c4d8-44dd-49a8-a230-1a65da0ed9be,S
2019-08-04 02:42:35,2088c4d8-44dd-49a8-a230-1a65da0ed9be,A
2019-08-04 01:19:59,607ca981-8627-474a-8510-91112ee383a3,S
2019-08-04 01:20:03,607ca981-8627-474a-8510-91112ee383a3,A
2019-08-04 01:27:13,607ca981-8627-474a-8510-91112ee383a3,S
2019-08-04 01:38:43,607ca981-8627-474a-8510-91112ee383a3,A
2019-08-04 01:40:20,607ca981-8627-474a-8510-91112ee383a3,S
2019-08-04 01:43:27,607ca981-8627-474a-8510-91112ee383a3,A
2019-08-04 01:43:44,607ca981-8627-474a-8510-91112ee383a3,S
2019-08-04 02:01:42,607ca981-8627-474a-8510-91112ee383a3,A
2019-08-04 02:04:06,607ca981-8627-474a-8510-91112ee383a3,S
2019-08-04 02:16:28,607ca981-8627-474a-8510-91112ee383a3,A
2019-08-04 02:28:36,607ca981-8627-474a-8510-91112ee383a3,S
2019-08-04 02:34:07,607ca981-8627-474a-8510-91112ee383a3,A
2019-08-04 02:34:34,607ca981-8627-474a-8510-91112ee383a3,S
2019-08-04 02:36:49,607ca981-8627-474a-8510-91112ee383a3,A
2019-08-04 02:40:28,607ca981-8627-474a-8510-91112ee383a3,S
2019-08-04 02:43:48,607ca981-8627-474a-8510-91112ee383a3,A
2019-08-04 02:48:18,607ca981-8627-474a-8510-91112ee383a3,S
2019-08-04 02:49:15,607ca981-8627-474a-8510-91112ee383a3,A
2019-08-04 02:49:36,607ca981-8627-474a-8510-91112ee383a3,S
2019-08-04 02:50:35,607ca981-8627-474a-8510-91112ee383a3,A
2019-08-04 01:36:46,3a7d6c20-b472-4aab-93fb-bebb6e992249,S
2019-08-04 01:42:09,3a7d6c20-b472-4aab-93fb-bebb6e992249,A
2019-08-04 01:43:34,3a7d6c20-b472-4aab-93fb-bebb6e992249,S
2019-08-04 01:45:45,3a7d6c20-b472-4aab-93fb-bebb6e992249,A
2019-08-04 01:52:47,3a7d6c20-b472-4aab-93fb-bebb6e992249,S
2019-08-04 01:58:53,3a7d6c20-b472-4aab-93fb-bebb6e992249,A
2019-08-04 02:02:48,3a7d6c20-b472-4aab-93fb-bebb6e992249,S
2019-08-04 02:06:10,3a7d6c20-b472-4aab-93fb-bebb6e992249,A
2019-08-04 02:07:44,3a7d6c20-b472-4aab-93fb-bebb6e992249,S
2019-08-04 02:07:55,3a7d6c20-b472-4aab-93fb-bebb6e992249,A
2019-08-04 02:10:15,3a7d6c20-b472-4aab-93fb-bebb6e992249,S
2019-08-04 02:14:31,3a7d6c20-b472-4aab-93fb-bebb6e992249,A
2019-08-04 02:17:25,3a7d6c20-b472-4aab-93fb-bebb6e992249,S
2019-08-04 02:18:20,3a7d6c20-b472-4aab-93fb-bebb6e992249,A
2019-08-04 02:28:44,3a7d6c20-b472-4aab-93fb-bebb6e992249,S
2019-08-04 02:28:48,3a7d6c20-b472-4aab-93fb-bebb6e992249,A
2019-08-04 02:29:20,3a7d6c20-b472-4aab-93fb-bebb6e992249,S
2019-08-04 02:29:49,3a7d6c20-b472-4aab-93fb-bebb6e992249,A
2019-08-04 02:30:02,3a7d6c20-b472-4aab-93fb-bebb6e992249,S
2019-08-04 02:33:57,3a7d6c20-b472-4aab-93fb-bebb6e992249,A
2019-08-04 02:41:46,3a7d6c20-b472-4aab-93fb-bebb6e992249,S
2019-08-04 02:47:44,3a7d6c20-b472-4aab-93fb-bebb6e992249,A
2019-08-04 02:50:38,3a7d6c20-b472-4aab-93fb-bebb6e992249,S
2019-08-04 02:52:37,3a7d6c20-b472-4aab-93fb-bebb6e992249,A
2019-08-04 01:00:58,2bdbbe8f-8ad0-4207-9bd1-c7e8065f583e,S
2019-08-04 01:17:06,2bdbbe8f-8ad0-4207-9bd1-c7e8065f583e,A
2019-08-04 01:18:18,2bdbbe8f-8ad0-4207-9bd1-c7e8065f583e,S
2019-08-04 01:23:07,2bdbbe8f-8ad0-4207-9bd1-c7e8065f583e,A
2019-08-04 01:24:13,2bdbbe8f-8ad0-4207-9bd1-c7e8065f583e,S
2019-08-04 01:27:00,2bdbbe8f-8ad0-4207-9bd1-c7e8065f583e,A
2019-08-04 01:32:12,2bdbbe8f-8ad0-4207-9bd1-c7e8065f583e,S
2019-08-04 01:34:22,2bdbbe8f-8ad0-4207-9bd1-c7e8065f583e,A
2019-08-04 01:37:51,2bdbbe8f-8ad0-4207-9bd1-c7e8065f583e,S
2019-08-04 01:43:26,2bdbbe8f-8ad0-4207-9bd1-c7e8065f583e,A
2019-08-04 01:53:57,2bdbbe8f-8ad0-4207-9bd1-c7e8065f583e,S
2019-08-04 01:59:38,2bdbbe8f-8ad0-4207-9bd1-c7e8065f583e,A
2019-08-04 02:01:35,2bdbbe8f-8ad0-4207-9bd1-c7e8065f583e,S
2019-08-04 02:03:37,2bdbbe8f-8ad0-4207-9bd1-c7e8065f583e,A
2019-08-04 02:11:54,2bdbbe8f-8ad0-4207-9bd1-c7e8065f583e,S
2019-08-04 02:14:04,2bdbbe8f-8ad0-4207-9bd1-c7e8065f583e,A
2019-08-04 02:18:58,2bdbbe8f-8ad0-4207-9bd1-c7e8065f583e,S
2019-08-04 02:21:57,2bdbbe8f-8ad0-4207-9bd1-c7e8065f583e,A
2019-08-04 02:23:05,2bdbbe8f-8ad0-4207-9bd1-c7e8065f583e,S
2019-08-04 02:28:00,2bdbbe8f-8ad0-4207-9bd1-c7e8065f583e,A
2019-08-04 02:30:52,2bdbbe8f-8ad0-4207-9bd1-c7e8065f583e,S
2019-08-04 02:34:42,2bdbbe8f-8ad0-4207-9bd1-c7e8065f583e,A
2019-08-04 02:37:02,2bdbbe8f-8ad0-4207-9bd1-c7e8065f583e,S
2019-08-04 02:40:48,2bdbbe8f-8ad0-4207-9bd1-c7e8065f583e,A
2019-08-04 02:46:13,2bdbbe8f-8ad0-4207-9bd1-c7e8065f583e,S
2019-08-04 02:47:20,2bdbbe8f-8ad0-4207-9bd1-c7e8065f583e,A
2019-08-04 02:53:05,2bdbbe8f-8ad0-4207-9bd1-c7e8065f583e,S
2019-08-04 02:54:02,2bdbbe8f-8ad0-4207-9bd1-c7e8065f583e,A
2019-08-04 02:55:32,2bdbbe8f-8ad0-4207-9bd1-c7e8065f583e,S
2019-08-04 02:56:04,2bdbbe8f-8ad0-4207-9bd1-c7e8065f583e,A
2019-08-04 01:38:01,ac9658fb-5117-4f9e-8095-63789141d3eb,S
2019-08-04 01:38:50,ac9658fb-5117-4f9e-8095-63789141d3eb,A
2019-08-04 01:51:25,ac9658fb-5117-4f9e-8095-63789141d3eb,S
2019-08-04 01:52:32,ac9658fb-5117-4f9e-8095-63789141d3eb,A
2019-08-04 01:54:37,ac9658fb-5117-4f9e-8095-63789141d3eb,S
2019-08-04 02:19:29,ac9658fb-5117-4f9e-8095-63789141d3eb,A
2019-08-04 02:31:20,ac9658fb-5117-4f9e-8095-63789141d3eb,S
2019-08-04 02:35:41,ac9658fb-5117-4f9e-8095-63789141d3eb,A
2019-08-04 02:35:42,ac9658fb-5117-4f9e-8095-63789141d3eb,S
2019-08-04 02:39:51,ac9658fb-5117-4f9e-8095-63789141d3eb,A
2019-08-04 02:44:03,ac9658fb-5117-4f9e-8095-63789141d3eb,S
2019-08-04 02:53:25,ac9658fb-5117-4f9e-8095-63789141d3eb,A
2019-08-04 01:18:56,b80fd12e-1370-4e8d-88a5-f41ff52f7f16,A
2019-08-04 01:37:49,b80fd12e-1370-4e8d-88a5-f41ff52f7f16,S
2019-08-04 01:38:11,b80fd12e-1370-4e8d-88a5-f41ff52f7f16,A
2019-08-04 01:40:55,b80fd12e-1370-4e8d-88a5-f41ff52f7f16,S
2019-08-04 01:44:55,b80fd12e-1370-4e8d-88a5-f41ff52f7f16,A
2019-08-04 01:45:25,b80fd12e-1370-4e8d-88a5-f41ff52f7f16,S
2019-08-04 01:48:26,b80fd12e-1370-4e8d-88a5-f41ff52f7f16,A
2019-08-04 01:50:05,b80fd12e-1370-4e8d-88a5-f41ff52f7f16,S
2019-08-04 02:04:34,b80fd12e-1370-4e8d-88a5-f41ff52f7f16,A
2019-08-04 02:06:10,b80fd12e-1370-4e8d-88a5-f41ff52f7f16,S
2019-08-04 02:06:16,b80fd12e-1370-4e8d-88a5-f41ff52f7f16,A
2019-08-04 02:08:36,b80fd12e-1370-4e8d-88a5-f41ff52f7f16,S
2019-08-04 02:08:43,b80fd12e-1370-4e8d-88a5-f41ff52f7f16,A
2019-08-04 02:10:46,b80fd12e-1370-4e8d-88a5-f41ff52f7f16,S
2019-08-04 02:14:47,b80fd12e-1370-4e8d-88a5-f41ff52f7f16,A
2019-08-04 02:25:30,b80fd12e-1370-4e8d-88a5-f41ff52f7f16,S
2019-08-04 02:31:14,b80fd12e-1370-4e8d-88a5-f41ff52f7f16,A
2019-08-04 02:33:28,b80fd12e-1370-4e8d-88a5-f41ff52f7f16,S
2019-08-04 02:36:54,b80fd12e-1370-4e8d-88a5-f41ff52f7f16,A
2019-08-04 02:40:27,b80fd12e-1370-4e8d-88a5-f41ff52f7f16,S
2019-08-04 02:58:12,b80fd12e-1370-4e8d-88a5-f41ff52f7f16,A
2019-08-04 01:25:28,cf0c753d-8722-4bde-926d-3bcf27af9575,A
2019-08-04 01:26:08,cf0c753d-8722-4bde-926d-3bcf27af9575,S
2019-08-04 01:27:43,cf0c753d-8722-4bde-926d-3bcf27af9575,A
2019-08-04 01:41:56,cf0c753d-8722-4bde-926d-3bcf27af9575,S
2019-08-04 01:44:03,cf0c753d-8722-4bde-926d-3bcf27af9575,A
2019-08-04 01:46:30,cf0c753d-8722-4bde-926d-3bcf27af9575,S
2019-08-04 01:54:07,cf0c753d-8722-4bde-926d-3bcf27af9575,A
2019-08-04 01:57:47,cf0c753d-8722-4bde-926d-3bcf27af9575,S
2019-08-04 02:01:09,cf0c753d-8722-4bde-926d-3bcf27af9575,A
2019-08-04 02:11:59,cf0c753d-8722-4bde-926d-3bcf27af9575,S
2019-08-04 02:12:03,cf0c753d-8722-4bde-926d-3bcf27af9575,A
2019-08-04 02:21:34,cf0c753d-8722-4bde-926d-3bcf27af9575,S
2019-08-04 02:42:02,cf0c753d-8722-4bde-926d-3bcf27af9575,A
2019-08-04 02:49:17,cf0c753d-8722-4bde-926d-3bcf27af9575,S
2019-08-04 02:53:16,cf0c753d-8722-4bde-926d-3bcf27af9575,A
2019-08-04 01:40:16,8e5cb82e-1f8b-4afa-b98f-adb5ef6fc563,S
2019-08-04 01:41:30,8e5cb82e-1f8b-4afa-b98f-adb5ef6fc563,A
2019-08-04 01:47:15,8e5cb82e-1f8b-4afa-b98f-adb5ef6fc563,S
2019-08-04 02:00:35,8e5cb82e-1f8b-4afa-b98f-adb5ef6fc563,A
2019-08-04 02:08:20,8e5cb82e-1f8b-4afa-b98f-adb5ef6fc563,S
2019-08-04 02:10:51,8e5cb82e-1f8b-4afa-b98f-adb5ef6fc563,A
2019-08-04 02:27:13,8e5cb82e-1f8b-4afa-b98f-adb5ef6fc563,S
2019-08-04 02:33:21,8e5cb82e-1f8b-4afa-b98f-adb5ef6fc563,A
2019-08-04 02:48:09,8e5cb82e-1f8b-4afa-b98f-adb5ef6fc563,S
2019-08-04 02:53:24,8e5cb82e-1f8b-4afa-b98f-adb5ef6fc563,A
2019-08-04 02:55:57,8e5cb82e-1f8b-4afa-b98f-adb5ef6fc563,S
2019-08-04 01:08:02,fa3c4b98-63fe-49ed-8718-99086c19a536,S
2019-08-04 01:20:07,fa3c4b98-63fe-49ed-8718-99086c19a536,A
2019-08-04 01:38:28,fa3c4b98-63fe-49ed-8718-99086c19a536,S
2019-08-04 01:40:52,fa3c4b98-63fe-49ed-8718-99086c19a536,A
2019-08-04 01:44:10,fa3c4b98-63fe-49ed-8718-99086c19a536,S
2019-08-04 01:47:30,fa3c4b98-63fe-49ed-8718-99086c19a536,A
2019-08-04 01:59:00,fa3c4b98-63fe-49ed-8718-99086c19a536,S
2019-08-04 01:59:49,fa3c4b98-63fe-49ed-8718-99086c19a536,A
2019-08-04 02:01:28,fa3c4b98-63fe-49ed-8718-99086c19a536,S
2019-08-04 02:02:21,fa3c4b98-63fe-49ed-8718-99086c19a536,A
2019-08-04 02:19:45,fa3c4b98-63fe-49ed-8718-99086c19a536,S
2019-08-04 02:19:51,fa3c4b98-63fe-49ed-8718-99086c19a536,A
2019-08-04 02:23:00,fa3c4b98-63fe-49ed-8718-99086c19a536,S
2019-08-04 02:26:27,fa3c4b98-63fe-49ed-8718-99086c19a536,A
2019-08-04 02:28:41,fa3c4b98-63fe-49ed-8718-99086c19a536,S
2019-08-04 02:34:38,fa3c4b98-63fe-49ed-8718-99086c19a536,A
2019-08-04 02:36:00,fa3c4b98-63fe-49ed-8718-99086c19a536,S
2019-08-04 02:39:56,fa3c4b98-63fe-49ed-8718-99086c19a536,A
2019-08-04 02:45:29,fa3c4b98-63fe-49ed-8718-99086c19a536,S
2019-08-04 02:57:01,fa3c4b98-63fe-49ed-8718-99086c19a536,A
2019-08-04 01:31:59,33ae58b3-083f-4223-8165-c4bb4897eb1e,A
2019-08-04 01:46:42,33ae58b3-083f-4223-8165-c4bb4897eb1e,S
2019-08-04 01:48:48,33ae58b3-083f-4223-8165-c4bb4897eb1e,A
2019-08-04 01:57:54,33ae58b3-083f-4223-8165-c4bb4897eb1e,S
2019-08-04 02:09:27,33ae58b3-083f-4223-8165-c4bb4897eb1e,A
2019-08-04 02:15:39,33ae58b3-083f-4223-8165-c4bb4897eb1e,S
2019-08-04 02:22:20,33ae58b3-083f-4223-8165-c4bb4897eb1e,A
2019-08-04 02:22:43,33ae58b3-083f-4223-8165-c4bb4897eb1e,S
2019-08-04 02:23:50,33ae58b3-083f-4223-8165-c4bb4897eb1e,A
2019-08-04 02:28:09,33ae58b3-083f-4223-8165-c4bb4897eb1e,S
2019-08-04 02:28:41,33ae58b3-083f-4223-8165-c4bb4897eb1e,A
2019-08-04 02:35:20,33ae58b3-083f-4223-8165-c4bb4897eb1e,S
2019-08-04 02:38:04,33ae58b3-083f-4223-8165-c4bb4897eb1e,A
2019-08-04 02:39:51,33ae58b3-083f-4223-8165-c4bb4897eb1e,S
2019-08-04 02:43:38,33ae58b3-083f-4223-8165-c4bb4897eb1e,A
2019-08-04 02:49:53,33ae58b3-083f-4223-8165-c4bb4897eb1e,S
2019-08-04 02:50:06,33ae58b3-083f-4223-8165-c4bb4897eb1e,A
2019-08-04 02:52:42,33ae58b3-083f-4223-8165-c4bb4897eb1e,S
2019-08-04 01:04:52,812a2ce7-d27e-4854-98ef-71ad8791f34e,A
2019-08-04 01:07:42,812a2ce7-d27e-4854-98ef-71ad8791f34e,S
2019-08-04 01:12:49,812a2ce7-d27e-4854-98ef-71ad8791f34e,A
2019-08-04 01:28:17,812a2ce7-d27e-4854-98ef-71ad8791f34e,S
2019-08-04 01:37:19,812a2ce7-d27e-4854-98ef-71ad8791f34e,A
2019-08-04 01:47:02,812a2ce7-d27e-4854-98ef-71ad8791f34e,S
2019-08-04 01:55:33,812a2ce7-d27e-4854-98ef-71ad8791f34e,A
2019-08-04 01:56:19,812a2ce7-d27e-4854-98ef-71ad8791f34e,S
2019-08-04 01:56:37,812a2ce7-d27e-4854-98ef-71ad8791f34e,A
2019-08-04 02:05:16,812a2ce7-d27e-4854-98ef-71ad8791f34e,S
2019-08-04 02:08:15,812a2ce7-d27e-4854-98ef-71ad8791f34e,A
2019-08-04 02:08:18,812a2ce7-d27e-4854-98ef-71ad8791f34e,S
2019-08-04 02:09:29,812a2ce7-d27e-4854-98ef-71ad8791f34e,A
2019-08-04 02:11:19,812a2ce7-d27e-4854-98ef-71ad8791f34e,S
2019-08-04 02:13:09,812a2ce7-d27e-4854-98ef-71ad8791f34e,A
2019-08-04 02:14:09,812a2ce7-d27e-4854-98ef-71ad8791f34e,S
2019-08-04 02:15:52,812a2ce7-d27e-4854-98ef-71ad8791f34e,A
2019-08-04 02:25:07,812a2ce7-d27e-4854-98ef-71ad8791f34e,S
2019-08-04 02:27:14,812a2ce7-d27e-4854-98ef-71ad8791f34e,A
2019-08-04 02:28:13,812a2ce7-d27e-4854-98ef-71ad8791f34e,S
2019-08-04 02:30:40,812a2ce7-d27e-4854-98ef-71ad8791f34e,A
2019-08-04 02:39:25,812a2ce7-d27e-4854-98ef-71ad8791f34e,S
2019-08-04 02:41:42,812a2ce7-d27e-4854-98ef-71ad8791f34e,A
2019-08-04 02:46:35,812a2ce7-d27e-4854-98ef-71ad8791f34e,S
2019-08-04 02:46:42,812a2ce7-d27e-4854-98ef-71ad8791f34e,A
2019-08-04 02:47:21,812a2ce7-d27e-4854-98ef-71ad8791f34e,S
2019-08-04 02:50:50,812a2ce7-d27e-4854-98ef-71ad8791f34e,A
2019-08-04 02:52:16,812a2ce7-d27e-4854-98ef-71ad8791f34e,S
2019-08-04 02:57:56,812a2ce7-d27e-4854-98ef-71ad8791f34e,A
2019-08-04 02:58:24,812a2ce7-d27e-4854-98ef-71ad8791f34e,S
2019-08-04 01:07:14,78a00563-d377-40f1-a972-2748d7674e2e,A
2019-08-04 01:14:07,78a00563-d377-40f1-a972-2748d7674e2e,S
2019-08-04 01:18:53,78a00563-d377-40f1-a972-2748d7674e2e,A
2019-08-04 01:25:27,78a00563-d377-40f1-a972-2748d7674e2e,S
2019-08-04 01:31:21,78a00563-d377-40f1-a972-2748d7674e2e,A
2019-08-04 01:41:59,78a00563-d377-40f1-a972-2748d7674e2e,S
2019-08-04 01:49:15,78a00563-d377-40f1-a972-2748d7674e2e,A
2019-08-04 01:51:41,78a00563-d377-40f1-a972-2748d7674e2e,S
2019-08-04 01:53:22,78a00563-d377-40f1-a972-2748d7674e2e,A
2019-08-04 01:58:00,78a00563-d377-40f1-a972-2748d7674e2e,S
2019-08-04 02:03:00,78a00563-d377-40f1-a972-2748d7674e2e,A
2019-08-04 02:12:56,78a00563-d377-40f1-a972-2748d7674e2e,S
2019-08-04 02:12:59,78a00563-d377-40f1-a972-2748d7674e2e,A
2019-08-04 02:17:39,78a00563-d377-40f1-a972-2748d7674e2e,S
2019-08-04 02:19:24,78a00563-d377-40f1-a972-2748d7674e2e,A
2019-08-04 02:26:07,78a00563-d377-40f1-a972-2748d7674e2e,S
2019-08-04 02:26:13,78a00563-d377-40f1-a972-2748d7674e2e,A
2019-08-04 02:28:55,78a00563-d377-40f1-a972-2748d7674e2e,S
2019-08-04 02:35:48,78a00563-d377-40f1-a972-2748d7674e2e,A
2019-08-04 02:56:42,78a00563-d377-40f1-a972-2748d7674e2e,S
2019-08-04 01:10:59,72402e5c-f1bf-42c6-8745-68c51473769d,A
2019-08-04 01:18:48,72402e5c-f1bf-42c6-8745-68c51473769d,S
2019-08-04 01:20:19,72402e5c-f1bf-42c6-8745-68c51473769d,A
2019-08-04 01:22:56,72402e5c-f1bf-42c6-8745-68c51473769d,S
2019-08-04 01:27:37,72402e5c-f1bf-42c6-8745-68c51473769d,A
2019-08-04 01:42:19,72402e5c-f1bf-42c6-8745-68c51473769d,S
2019-08-04 01:42:54,72402e5c-f1bf-42c6-8745-68c51473769d,A
2019-08-04 01:48:25,72402e5c-f1bf-42c6-8745-68c51473769d,S
2019-08-04 01:55:37,72402e5c-f1bf-42c6-8745-68c51473769d,A
2019-08-04 01:56:13,72402e5c-f1bf-42c6-8745-68c51473769d,S
2019-08-04 02:08:03,72402e5c-f1bf-42c6-8745-68c51473769d,A
2019-08-04 02:11:11,72402e5c-f1bf-42c6-8745-68c51473769d,S
2019-08-04 02:23:01,72402e5c-f1bf-42c6-8745-68c51473769d,A
2019-08-04 02:34:58,72402e5c-f1bf-42c6-8745-68c51473769d,S
2019-08-04 02:39:50,72402e5c-f1bf-42c6-8745-68c51473769d,A
2019-08-04 02:40:23,72402e5c-f1bf-42c6-8745-68c51473769d,S
2019-08-04 02:40:41,72402e5c-f1bf-42c6-8745-68c51473769d,A
2019-08-04 02:40:52,72402e5c-f1bf-42c6-8745-68c51473769d,S
2019-08-04 02:42:02,72402e5c-f1bf-42c6-8745-68c51473769d,A
2019-08-04 02:45:43,72402e5c-f1bf-42c6-8745-68c51473769d,S
2019-08-04 02:54:35,72402e5c-f1bf-42c6-8745-68c51473769d,A
2019-08-04 02:58:47,72402e5c-f1bf-42c6-8745-68c51473769d,S
2019-08-04 01:36:47,0578354f-4aed-4f74-b4e8-39e1bf774e4a,S
2019-08-04 01:38:59,0578354f-4aed-4f74-b4e8-39e1bf774e4a,A
2019-08-04 01:41:44,0578354f-4aed-4f74-b4e8-39e1bf774e4a,S
2019-08-04 01:58:40,0578354f-4aed-4f74-b4e8-39e1bf774e4a,A
2019-08-04 02:00:20,0578354f-4aed-4f74-b4e8-39e1bf774e4a,S
2019-08-04 02:01:27,0578354f-4aed-4f74-b4e8-39e1bf774e4a,A
2019-08-04 02:06:41,0578354f-4aed-4f74-b4e8-39e1bf774e4a,S
2019-08-04 02:15:20,0578354f-4aed-4f74-b4e8-39e1bf774e4a,A
2019-08-04 02:17:21,0578354f-4aed-4f74-b4e8-39e1bf774e4a,S
2019-08-04 02:24:52,0578354f-4aed-4f74-b4e8-39e1bf774e4a,A
2019-08-04 02:25:41,0578354f-4aed-4f74-b4e8-39e1bf774e4a,S
2019-08-04 02:37:28,0578354f-4aed-4f74-b4e8-39e1bf774e4a,A
2019-08-04 02:45:20,0578354f-4aed-4f74-b4e8-39e1bf774e4a,S
2019-08-04 02:46:59,0578354f-4aed-4f74-b4e8-39e1bf774e4a,A
2019-08-04 02:50:48,0578354f-4aed-4f74-b4e8-39e1bf774e4a,S
2019-08-04 02:53:06,0578354f-4aed-4f74-b4e8-39e1bf774e4a,A
2019-08-04 01:04:48,97dab8c7-b34e-430b-825d-1bd193e62747,S
2019-08-04 01:16:44,97dab8c7-b34e-430b-825d-1bd193e62747,A
2019-08-04 01:17:02,97dab8c7-b34e-430b-825d-1bd193e62747,S
2019-08-04 01:32:26,97dab8c7-b34e-430b-825d-1bd193e62747,A
2019-08-04 01:35:19,97dab8c7-b34e-430b-825d-1bd193e62747,S
2019-08-04 01:37:19,97dab8c7-b34e-430b-825d-1bd193e62747,A
2019-08-04 01:45:25,97dab8c7-b34e-430b-825d-1bd193e62747,S
2019-08-04 01:46:21,97dab8c7-b34e-430b-825d-1bd193e62747,A
2019-08-04 01:48:34,97dab8c7-b34e-430b-825d-1bd193e62747,S
2019-08-04 02:02:59,97dab8c7-b34e-430b-825d-1bd193e62747,A
2019-08-04 02:08:17,97dab8c7-b34e-430b-825d-1bd193e62747,S
2019-08-04 02:09:50,97dab8c7-b34e-430b-825d-1bd193e62747,A
2019-08-04 02:10:38,97dab8c7-b34e-430b-825d-1bd193e62747,S
2019-08-04 02:12:35,97dab8c7-b34e-430b-825d-1bd193e62747,A
2019-08-04 02:15:52,97dab8c7-b34e-430b-825d-1bd193e62747,S
2019-08-04 02:15:59,97dab8c7-b34e-430b-825d-1bd193e62747,A
2019-08-04 02:28:18,97dab8c7-b34e-430b-825d-1bd193e62747,S
2019-08-04 02:29:39,97dab8c7-b34e-430b-825d-1bd193e62747,A
2019-08-04 02:34:31,97dab8c7-b34e-430b-825d-1bd193e62747,S
2019-08-04 02:37:57,97dab8c7-b34e-430b-825d-1bd193e62747,A
2019-08-04 02:39:11,97dab8c7-b34e-430b-825d-1bd193e62747,S
2019-08-04 02:39:53,97dab8c7-b34e-430b-825d-1bd193e62747,A
2019-08-04 02:52:33,97dab8c7-b34e-430b-825d-1bd193e62747,S
2019-08-04 02:54:01,97dab8c7-b34e-430b-825d-1bd193e62747,A
2019-08-04 02:55:15,97dab8c7-b34e-430b-825d-1bd193e62747,S
2019-08-04 02:57:51,97dab8c7-b34e-430b-825d-1bd193e62747,A
2019-08-04 01:30:36,fb4e6e47-e9fa-4efe-ac3f-110ae3ddd4ac,A
2019-08-04 01:34:05,fb4e6e47-e9fa-4efe-ac3f-110ae3ddd4ac,S
2019-08-04 01:37:08,fb4e6e47-e9fa-4efe-ac3f-110ae3ddd4ac,A
2019-08-04 01:46:05,fb4e6e47-e9fa-4efe-ac3f-110ae3ddd4ac,S
2019-08-04 02:01:02,fb4e6e47-e9fa-4efe-ac3f-110ae3ddd4ac,A
2019-08-04 02:02:05,fb4e6e47-e9fa-4efe-ac3f-110ae3ddd4ac,S
2019-08-04 02:02:34,fb4e6e47-e9fa-4efe-ac3f-110ae3ddd4ac,A
2019-08-04 02:03:13,fb4e6e47-e9fa-4efe-ac3f-110ae3ddd4ac,S
2019-08-04 02:10:17,fb4e6e47-e9fa-4efe-ac3f-110ae3ddd4ac,A
2019-08-04 02:15:27,fb4e6e47-e9fa-4efe-ac3f-110ae3ddd4ac,S
2019-08-04 02:34:19,fb4e6e47-e9fa-4efe-ac3f-110ae3ddd4ac,A
2019-08-04 02:36:26,fb4e6e47-e9fa-4efe-ac3f-110ae3ddd4ac,S
2019-08-04 02:43:33,fb4e6e47-e9fa-4efe-ac3f-110ae3ddd4ac,A
2019-08-04 02:47:02,fb4e6e47-e9fa-4efe-ac3f-110ae3ddd4ac,S
2019-08-04 02:59:51,fb4e6e47-e9fa-4efe-ac3f-110ae3ddd4ac,A
2019-08-04 01:00:26,276b934d-b10b-4816-93db-f32d0ab2631d,S
2019-08-04 01:05:23,276b934d-b10b-4816-93db-f32d0ab2631d,A
2019-08-04 01:05:45,276b934d-b10b-4816-93db-f32d0ab2631d,S
2019-08-04 01:10:30,276b934d-b10b-4816-93db-f32d0ab2631d,A
2019-08-04 01:15:27,276b934d-b10b-4816-93db-f32d0ab2631d,S
2019-08-04 01:17:29,276b934d-b10b-4816-93db-f32d0ab2631d,A
2019-08-04 01:27:33,276b934d-b10b-4816-93db-f32d0ab2631d,S
2019-08-04 01:30:15,276b934d-b10b-4816-93db-f32d0ab2631d,A
2019-08-04 01:31:10,276b934d-b10b-4816-93db-f32d0ab2631d,S
2019-08-04 01:39:11,276b934d-b10b-4816-93db-f32d0ab2631d,A
2019-08-04 01:47:59,276b934d-b10b-4816-93db-f32d0ab2631d,S
2019-08-04 01:50:10,276b934d-b10b-4816-93db-f32d0ab2631d,A
2019-08-04 01:50:19,276b934d-b10b-4816-93db-f32d0ab2631d,S
2019-08-04 02:09:36,276b934d-b10b-4816-93db-f32d0ab2631d,A
2019-08-04 02:11:49,276b934d-b10b-4816-93db-f32d0ab2631d,S
2019-08-04 02:29:24,276b934d-b10b-4816-93db-f32d0ab2631d,A
2019-08-04 02:39:35,276b934d-b10b-4816-93db-f32d0ab2631d,S
2019-08-04 02:55:26,276b934d-b10b-4816-93db-f32d0ab2631d,A
2019-08-04 02:56:39,276b934d-b10b-4816-93db-f32d0ab2631d,S
2019-08-04 01:24:39,721e7a81-8760-4f46-afc0-a76f00c3ed53,S
2019-08-04 01:26:57,721e7a81-8760-4f46-afc0-a76f00c3ed53,A
2019-08-04 01:32:09,721e7a81-8760-4f46-afc0-a76f00c3ed53,S
2019-08-04 01:40:14,721e7a81-8760-4f46-afc0-a76f00c3ed53,A
2019-08-04 01:47:38,721e7a81-8760-4f46-afc0-a76f00c3ed53,S
2019-08-04 01:48:00,721e7a81-8760-4f46-afc0-a76f00c3ed53,A
2019-08-04 01:53:33,721e7a81-8760-4f46-afc0-a76f00c3ed53,S
2019-08-04 02:04:36,721e7a81-8760-4f46-afc0-a76f00c3ed53,A
2019-08-04 02:09:01,721e7a81-8760-4f46-afc0-a76f00c3ed53,S
2019-08-04 02:11:48,721e7a81-8760-4f46-afc0-a76f00c3ed53,A
2019-08-04 02:18:30,721e7a81-8760-4f46-afc0-a76f00c3ed53,S
2019-08-04 02:19:21,721e7a81-8760-4f46-afc0-a76f00c3ed53,A
2019-08-04 02:22:06,721e7a81-8760-4f46-afc0-a76f00c3ed53,S
2019-08-04 02:25:57,721e7a81-8760-4f46-afc0-a76f00c3ed53,A
2019-08-04 02:32:25,721e7a81-8760-4f46-afc0-a76f00c3ed53,S
2019-08-04 02:35:29,721e7a81-8760-4f46-afc0-a76f00c3ed53,A
2019-08-04 02:47:50,721e7a81-8760-4f46-afc0-a76f00c3ed53,S
2019-08-04 02:52:36,721e7a81-8760-4f46-afc0-a76f00c3ed53,A
2019-08-04 02:54:40,721e7a81-8760-4f46-afc0-a76f00c3ed53,S
2019-08-04 02:58:29,721e7a81-8760-4f46-afc0-a76f00c3ed53,A
2019-08-04 01:28:21,2582999d-8f85-400b-a535-0e7f8ebd2b61,S
2019-08-04 01:30:16,2582999d-8f85-400b-a535-0e7f8ebd2b61,A
2019-08-04 01:33:25,2582999d-8f85-400b-a535-0e7f8ebd2b61,S
2019-08-04 01:33:54,2582999d-8f85-400b-a535-0e7f8ebd2b61,A
2019-08-04 01:37:03,2582999d-8f85-400b-a535-0e7f8ebd2b61,S
2019-08-04 01:39:03,2582999d-8f85-400b-a535-0e7f8ebd2b61,A
2019-08-04 01:43:19,2582999d-8f85-400b-a535-0e7f8ebd2b61,S
2019-08-04 01:44:17,2582999d-8f85-400b-a535-0e7f8ebd2b61,A
2019-08-04 01:45:06,2582999d-8f85-400b-a535-0e7f8ebd2b61,S
2019-08-04 01:52:33,2582999d-8f85-400b-a535-0e7f8ebd2b61,A
2019-08-04 01:54:46,2582999d-8f85-400b-a535-0e7f8ebd2b61,S
2019-08-04 01:58:17,2582999d-8f85-400b-a535-0e7f8ebd2b61,A
2019-08-04 02:06:34,2582999d-8f85-400b-a535-0e7f8ebd2b61,S
2019-08-04 02:13:58,2582999d-8f85-400b-a535-0e7f8ebd2b61,A
2019-08-04 02:16:00,2582999d-8f85-400b-a535-0e7f8ebd2b61,S
2019-08-04 02:18:45,2582999d-8f85-400b-a535-0e7f8ebd2b61,A
2019-08-04 02:19:50,2582999d-8f85-400b-a535-0e7f8ebd2b61,S
2019-08-04 02:21:08,2582999d-8f85-400b-a535-0e7f8ebd2b61,A
2019-08-04 02:22:40,2582999d-8f85-400b-a535-0e7f8ebd2b61,S
2019-08-04 02:30:47,2582999d-8f85-400b-a535-0e7f8ebd2b61,A
2019-08-04 02:30:58,2582999d-8f85-400b-a535-0e7f8ebd2b61,S
2019-08-04 02:31:09,2582999d-8f85-400b-a535-0e7f8ebd2b61,A
2019-08-04 02:35:00,2582999d-8f85-400b-a535-0e7f8ebd2b61,S
2019-08-04 02:37:24,2582999d-8f85-400b-a535-0e7f8ebd2b61,A
2019-08-04 02:38:09,2582999d-8f85-400b-a535-0e7f8ebd2b61,S
2019-08-04 02:39:26,2582999d-8f85-400b-a535-0e7f8ebd2b61,A
2019-08-04 02:40:20,2582999d-8f85-400b-a535-0e7f8ebd2b61,S
2019-08-04 02:48:43,2582999d-8f85-400b-a535-0e7f8ebd2b61,A
2019-08-04 02:49:56,2582999d-8f85-400b-a535-0e7f8ebd2b61,S
2019-08-04 02:58:55,2582999d-8f85-400b-a535-0e7f8ebd2b61,A
2019-08-04 01:23:26,e0463442-e157-4dc0-bdc6-2e372abaca91,S
2019-08-04 01:35:41,e0463442-e157-4dc0-bdc6-2e372abaca91,A
2019-08-04 01:45:50,e0463442-e157-4dc0-bdc6-2e372abaca91,S
2019-08-04 01:47:08,e0463442-e157-4dc0-bdc6-2e372abaca91,A
2019-08-04 01:49:07,e0463442-e157-4dc0-bdc6-2e372abaca91,S
2019-08-04 01:55:46,e0463442-e157-4dc0-bdc6-2e372abaca91,A
2019-08-04 01:56:32,e0463442-e157-4dc0-bdc6-2e372abaca91,S
2019-08-04 01:58:54,e0463442-e157-4dc0-bdc6-2e372abaca91,A
2019-08-04 01:59:45,e0463442-e157-4dc0-bdc6-2e372abaca91,S
2019-08-04 02:00:07,e0463442-e157-4dc0-bdc6-2e372abaca91,A
2019-08-04 02:00:26,e0463442-e157-4dc0-bdc6-2e372abaca91,S
2019-08-04 02:07:22,e0463442-e157-4dc0-bdc6-2e372abaca91,A
2019-08-04 02:20:12,e0463442-e157-4dc0-bdc6-2e372abaca91,S
2019-08-04 02:24:50,e0463442-e157-4dc0-bdc6-2e372abaca91,A
2019-08-04 02:25:28,e0463442-e157-4dc0-bdc6-2e372abaca91,S
2019-08-04 02:42:24,e0463442-e157-4dc0-bdc6-2e372abaca91,A
2019-08-04 02:44:44,e0463442-e157-4dc0-bdc6-2e372abaca91,S
2019-08-04 02:44:58,e0463442-e157-4dc0-bdc6-2e372abaca91,A
2019-08-04 02:46:17,e0463442-e157-4dc0-bdc6-2e372abaca91,S
2019-08-04 02:48:43,e0463442-e157-4dc0-bdc6-2e372abaca91,A
2019-08-04 02:54:11,e0463442-e157-4dc0-bdc6-2e372abaca91,S
2019-08-04 02:57:15,e0463442-e157-4dc0-bdc6-2e372abaca91,A
2019-08-04 01:18:59,1b2401ba-24d3-488f-84c8-933e7234f9b7,S
2019-08-04 01:23:17,1b2401ba-24d3-488f-84c8-933e7234f9b7,A
2019-08-04 01:36:59,1b2401ba-24d3-488f-84c8-933e7234f9b7,S
2019-08-04 01:37:23,1b2401ba-24d3-488f-84c8-933e7234f9b7,A
2019-08-04 01:41:59,1b2401ba-24d3-488f-84c8-933e7234f9b7,S
2019-08-04 01:45:18,1b2401ba-24d3-488f-84c8-933e7234f9b7,A
2019-08-04 01:48:24,1b2401ba-24d3-488f-84c8-933e7234f9b7,S
2019-08-04 01:52:57,1b2401ba-24d3-488f-84c8-933e7234f9b7,A
2019-08-04 01:56:10,1b2401ba-24d3-488f-84c8-933e7234f9b7,S
2019-08-04 01:59:46,1b2401ba-24d3-488f-84c8-933e7234f9b7,A
2019-08-04 02:15:38,1b2401ba-24d3-488f-84c8-933e7234f9b7,S
2019-08-04 02:19:55,1b2401ba-24d3-488f-84c8-933e7234f9b7,A
2019-08-04 02:20:16,1b2401ba-24d3-488f-84c8-933e7234f9b7,S
2019-08-04 02:25:22,1b2401ba-24d3-488f-84c8-933e7234f9b7,A
2019-08-04 02:32:41,1b2401ba-24d3-488f-84c8-933e7234f9b7,S
2019-08-04 02:45:48,1b2401ba-24d3-488f-84c8-933e7234f9b7,A
2019-08-04 02:46:50,1b2401ba-24d3-488f-84c8-933e7234f9b7,S
2019-08-04 01:09:32,2efdfe5d-4b47-4822-80e2-0ff8d15ee609,S
2019-08-04 01:17:11,2efdfe5d-4b47-4822-80e2-0ff8d15ee609,A
2019-08-04 01:19:07,2efdfe5d-4b47-4822-80e2-0ff8d15ee609,S
2019-08-04 01:30:25,2efdfe5d-4b47-4822-80e2-0ff8d15ee609,A
2019-08-04 01:32:14,2efdfe5d-4b47-4822-80e2-0ff8d15ee609,S
2019-08-04 01:32:56,2efdfe5d-4b47-4822-80e2-0ff8d15ee609,A
2019-08-04 01:42:27,2efdfe5d-4b47-4822-80e2-0ff8d15ee609,S
2019-08-04 01:45:42,2efdfe5d-4b47-4822-80e2-0ff8d15ee609,A
2019-08-04 01:46:18,2efdfe5d-4b47-4822-80e2-0ff8d15ee609,S
2019-08-04 01:46:49,2efdfe5d-4b47-4822-80e2-0ff8d15ee609,A
2019-08-04 01:51:53,2efdfe5d-4b47-4822-80e2-0ff8d15ee609,S
2019-08-04 01:52:18,2efdfe5d-4b47-4822-80e2-0ff8d15ee609,A
2019-08-04 01:52:41,2efdfe5d-4b47-4822-80e2-0ff8d15ee609,S
2019-08-04 01:53:25,2efdfe5d-4b47-4822-80e2-0ff8d15ee609,A
2019-08-04 01:55:17,2efdfe5d-4b47-4822-80e2-0ff8d15ee609,S
2019-08-04 01:56:09,2efdfe5d-4b47-4822-80e2-0ff8d15ee609,A
2019-08-04 02:06:43,2efdfe5d-4b47-4822-80e2-0ff8d15ee609,S
2019-08-04 02:07:55,2efdfe5d-4b47-4822-80e2-0ff8d15ee609,A
2019-08-04 02:14:47,2efdfe5d-4b47-4822-80e2-0ff8d15ee609,S
2019-08-04 02:23:28,2efdfe5d-4b47-4822-80e2-0ff8d15ee609,A
2019-08-04 02:26:35,2efdfe5d-4b47-4822-80e2-0ff8d15ee609,S
2019-08-04 02:30:11,2efdfe5d-4b47-4822-80e2-0ff8d15ee609,A
2019-08-04 02:30:27,2efdfe5d-4b47-4822-80e2-0ff8d15ee609,S
2019-08-04 02:37:32,2efdfe5d-4b47-4822-80e2-0ff8d15ee609,A
2019-08-04 02:37:40,2efdfe5d-4b47-4822-80e2-0ff8d15ee609,S
2019-08-04 02:38:05,2efdfe5d-4b47-4822-80e2-0ff8d15ee609,A
2019-08-04 02:38:43,2efdfe5d-4b47-4822-80e2-0ff8d15ee609,S
2019-08-04 02:40:47,2efdfe5d-4b47-4822-80e2-0ff8d15ee609,A
2019-08-04 02:40:51,2efdfe5d-4b47-4822-80e2-0ff8d15ee609,S
2019-08-04 02:52:37,2efdfe5d-4b47-4822-80e2-0ff8d15ee609,A
2019-08-04 02:56:01,2efdfe5d-4b47-4822-80e2-0ff8d15ee609,S
2019-08-04 02:57:53,2efdfe5d-4b47-4822-80e2-0ff8d15ee609,A
2019-08-04 01:15:02,5027e283-1895-454b-b9c8-d993bab66159,A
2019-08-04 01:21:05,5027e283-1895-454b-b9c8-d993bab66159,S
2019-08-04 01:23:35,5027e283-1895-454b-b9c8-d993bab66159,A
2019-08-04 01:24:20,5027e283-1895-454b-b9c8-d993bab66159,S
2019-08-04 01:24:23,5027e283-1895-454b-b9c8-d993bab66159,A
2019-08-04 01:27:13,5027e283-1895-454b-b9c8-d993bab66159,S
2019-08-04 01:35:29,5027e283-1895-454b-b9c8-d993bab66159,A
2019-08-04 01:38:15,5027e283-1895-454b-b9c8-d993bab66159,S
2019-08-04 01:38:18,5027e283-1895-454b-b9c8-d993bab66159,A
2019-08-04 01:44:24,5027e283-1895-454b-b9c8-d993bab66159,S
2019-08-04 01:48:46,5027e283-1895-454b-b9c8-d993bab66159,A
2019-08-04 01:56:07,5027e283-1895-454b-b9c8-d993bab66159,S
2019-08-04 01:57:17,5027e283-1895-454b-b9c8-d993bab66159,A
2019-08-04 02:01:13,5027e283-1895-454b-b9c8-d993bab66159,S
2019-08-04 02:02:00,5027e283-1895-454b-b9c8-d993bab66159,A
2019-08-04 02:02:18,5027e283-1895-454b-b9c8-d993bab66159,S
2019-08-04 02:12:51,5027e283-1895-454b-b9c8-d993bab66159,A
2019-08-04 02:14:14,5027e283-1895-454b-b9c8-d993bab66159,S
2019-08-04 02:19:58,5027e283-1895-454b-b9c8-d993bab66159,A
2019-08-04 02:24:25,5027e283-1895-454b-b9c8-d993bab66159,S
2019-08-04 02:25:44,5027e283-1895-454b-b9c8-d993bab66159,A
2019-08-04 02:28:31,5027e283-1895-454b-b9c8-d993bab66159,S
2019-08-04 02:29:56,5027e283-1895-454b-b9c8-d993bab66159,A
2019-08-04 02:38:45,5027e283-1895-454b-b9c8-d993bab66159,S
2019-08-04 02:40:15,5027e283-1895-454b-b9c8-d993bab66159,A
2019-08-04 02:43:53,5027e283-1895-454b-b9c8-d993bab66159,S
2019-08-04 02:44:11,5027e283-1895-454b-b9c8-d993bab66159,A
2019-08-04 02:48:09,5027e283-1895-454b-b9c8-d993bab66159,S
2019-08-04 01:01:26,55d6bb99-b15f-43aa-83f1-da8f42d617d8,S
2019-08-04 01:05:33,55d6bb99-b15f-43aa-83f1-da8f42d617d8,A
2019-08-04 01:15:56,55d6bb99-b15f-43aa-83f1-da8f42d617d8,S
2019-08-04 01:17:30,55d6bb99-b15f-43aa-83f1-da8f42d617d8,A
2019-08-04 01:25:01,55d6bb99-b15f-43aa-83f1-da8f42d617d8,S
2019-08-04 01:25:15,55d6bb99-b15f-43aa-83f1-da8f42d617d8,A
2019-08-04 01:26:41,55d6bb99-b15f-43aa-83f1-da8f42d617d8,S
2019-08-04 01:43:58,55d6bb99-b15f-43aa-83f1-da8f42d617d8,A
2019-08-04 01:49:44,55d6bb99-b15f-43aa-83f1-da8f42d617d8,S
2019-08-04 01:53:18,55d6bb99-b15f-43aa-83f1-da8f42d617d8,A
2019-08-04 01:56:30,55d6bb99-b15f-43aa-83f1-da8f42d617d8,S
2019-08-04 01:56:47,55d6bb99-b15f-43aa-83f1-da8f42d617d8,A
2019-08-04 02:15:22,55d6bb99-b15f-43aa-83f1-da8f42d617d8,S
2019-08-04 02:15:47,55d6bb99-b15f-43aa-83f1-da8f42d617d8,A
2019-08-04 02:18:38,55d6bb99-b15f-43aa-83f1-da8f42d617d8,S
2019-08-04 02:32:11,55d6bb99-b15f-43aa-83f1-da8f42d617d8,A
2019-08-04 02:35:29,55d6bb99-b15f-43aa-83f1-da8f42d617d8,S
2019-08-04 02:37:57,55d6bb99-b15f-43aa-83f1-da8f42d617d8,A
2019-08-04 02:38:34,55d6bb99-b15f-43aa-83f1-da8f42d617d8,S
2019-08-04 02:43:47,55d6bb99-b15f-43aa-83f1-da8f42d617d8,A
2019-08-04 02:48:28,55d6bb99-b15f-43aa-83f1-da8f42d617d8,S
2019-08-04 02:52:24,55d6bb99-b15f-43aa-83f1-da8f42d617d8,A
2019-08-04 02:54:17,55d6bb99-b15f-43aa-83f1-da8f42d617d8,S
2019-08-04 02:55:15,55d6bb99-b15f-43aa-83f1-da8f42d617d8,A
2019-08-04 00:54:32,79236f81-e216-485a-bde5-298706e579eb,A
2019-08-04 00:58:00,79236f81-e216-485a-bde5-298706e579eb,S
2019-08-04 01:06:34,79236f81-e216-485a-bde5-298706e579eb,A
2019-08-04 01:09:37,79236f81-e216-485a-bde5-298706e579eb,S
2019-08-04 01:09:54,79236f81-e216-485a-bde5-298706e579eb,A
2019-08-04 01:12:22,79236f81-e216-485a-bde5-298706e579eb,S
2019-08-04 01:17:42,79236f81-e216-485a-bde5-298706e579eb,A
2019-08-04 01:21:37,79236f81-e216-485a-bde5-298706e579eb,S
2019-08-04 01:24:22,79236f81-e216-485a-bde5-298706e579eb,A
2019-08-04 01:35:09,79236f81-e216-485a-bde5-298706e579eb,S
2019-08-04 01:40:47,79236f81-e216-485a-bde5-298706e579eb,A
2019-08-04 02:03:21,79236f81-e216-485a-bde5-298706e579eb,S
2019-08-04 02:27:42,79236f81-e216-485a-bde5-298706e579eb,A
2019-08-04 02:34:16,79236f81-e216-485a-bde5-298706e579eb,S
2019-08-04 02:37:43,79236f81-e216-485a-bde5-298706e579eb,A
2019-08-04 02:40:37,79236f81-e216-485a-bde5-298706e579eb,S
2019-08-04 02:45:22,79236f81-e216-485a-bde5-298706e579eb,A
2019-08-04 02:58:26,79236f81-e216-485a-bde5-298706e579eb,S
2019-08-04 02:59:59,79236f81-e216-485a-bde5-298706e579eb,A
2019-08-04 01:38:31,c196b937-ea09-4972-9a9e-f9361c3f218f,S
2019-08-04 01:52:06,c196b937-ea09-4972-9a9e-f9361c3f218f,A
2019-08-04 01:56:59,c196b937-ea09-4972-9a9e-f9361c3f218f,S
2019-08-04 01:57:32,c196b937-ea09-4972-9a9e-f9361c3f218f,A
2019-08-04 02:01:24,c196b937-ea09-4972-9a9e-f9361c3f218f,S
2019-08-04 02:02:05,c196b937-ea09-4972-9a9e-f9361c3f218f,A
2019-08-04 02:10:44,c196b937-ea09-4972-9a9e-f9361c3f218f,S
2019-08-04 02:11:47,c196b937-ea09-4972-9a9e-f9361c3f218f,A
2019-08-04 02:14:03,c196b937-ea09-4972-9a9e-f9361c3f218f,S
2019-08-04 02:16:12,c196b937-ea09-4972-9a9e-f9361c3f218f,A
2019-08-04 02:18:34,c196b937-ea09-4972-9a9e-f9361c3f218f,S
2019-08-04 02:22:26,c196b937-ea09-4972-9a9e-f9361c3f218f,A
2019-08-04 02:23:37,c196b937-ea09-4972-9a9e-f9361c3f218f,S
2019-08-04 02:24:28,c196b937-ea09-4972-9a9e-f9361c3f218f,A
2019-08-04 02:26:37,c196b937-ea09-4972-9a9e-f9361c3f218f,S
2019-08-04 02:27:00,c196b937-ea09-4972-9a9e-f9361c3f218f,A
2019-08-04 02:27:16,c196b937-ea09-4972-9a9e-f9361c3f218f,S
2019-08-04 02:31:48,c196b937-ea09-4972-9a9e-f9361c3f218f,A
2019-08-04 02:32:38,c196b937-ea09-4972-9a9e-f9361c3f218f,S
2019-08-04 02:42:10,c196b937-ea09-4972-9a9e-f9361c3f218f,A
2019-08-04 02:48:13,c196b937-ea09-4972-9a9e-f9361c3f218f,S
2019-08-04 02:56:11,c196b937-ea09-4972-9a9e-f9361c3f218f,A
2019-08-04 02:59:40,c196b937-ea09-4972-9a9e-f9361c3f218f,S
2019-08-04 03:00:16,c196b937-ea09-4972-9a9e-f9361c3f218f,A
2019-08-04 01:21:08,9a3832e5-6d71-4e50-add3-beb258fbfca1,S
2019-08-04 01:25:17,9a3832e5-6d71-4e50-add3-beb258fbfca1,A
2019-08-04 01:32:45,9a3832e5-6d71-4e50-add3-beb258fbfca1,S
2019-08-04 01:36:57,9a3832e5-6d71-4e50-add3-beb258fbfca1,A
2019-08-04 01:37:11,9a3832e5-6d71-4e50-add3-beb258fbfca1,S
2019-08-04 01:46:40,9a3832e5-6d71-4e50-add3-beb258fbfca1,A
2019-08-04 01:49:41,9a3832e5-6d71-4e50-add3-beb258fbfca1,S
2019-08-04 01:51:08,9a3832e5-6d71-4e50-add3-beb258fbfca1,A
2019-08-04 01:52:52,9a3832e5-6d71-4e50-add3-beb258fbfca1,S
2019-08-04 02:02:32,9a3832e5-6d71-4e50-add3-beb258fbfca1,A
2019-08-04 02:07:23,9a3832e5-6d71-4e50-add3-beb258fbfca1,S
2019-08-04 02:09:06,9a3832e5-6d71-4e50-add3-beb258fbfca1,A
2019-08-04 02:10:13,9a3832e5-6d71-4e50-add3-beb258fbfca1,S
2019-08-04 02:15:30,9a3832e5-6d71-4e50-add3-beb258fbfca1,A
2019-08-04 02:20:05,9a3832e5-6d71-4e50-add3-beb258fbfca1,S
2019-08-04 02:24:46,9a3832e5-6d71-4e50-add3-beb258fbfca1,A
2019-08-04 02:32:46,9a3832e5-6d71-4e50-add3-beb258fbfca1,S
2019-08-04 02:37:58,9a3832e5-6d71-4e50-add3-beb258fbfca1,A
2019-08-04 02:41:17,9a3832e5-6d71-4e50-add3-beb258fbfca1,S
2019-08-04 02:54:04,9a3832e5-6d71-4e50-add3-beb258fbfca1,A
2019-08-04 01:31:04,075af999-c84b-4fd7-90c3-42524cd92f64,S
2019-08-04 01:32:59,075af999-c84b-4fd7-90c3-42524cd92f64,A
2019-08-04 01:33:28,075af999-c84b-4fd7-90c3-42524cd92f64,S
2019-08-04 01:41:47,075af999-c84b-4fd7-90c3-42524cd92f64,A
2019-08-04 01:44:38,075af999-c84b-4fd7-90c3-42524cd92f64,S
2019-08-04 01:51:00,075af999-c84b-4fd7-90c3-42524cd92f64,A
2019-08-04 01:55:35,075af999-c84b-4fd7-90c3-42524cd92f64,S
2019-08-04 01:56:49,075af999-c84b-4fd7-90c3-42524cd92f64,A
2019-08-04 02:05:32,075af999-c84b-4fd7-90c3-42524cd92f64,S
2019-08-04 02:07:07,075af999-c84b-4fd7-90c3-42524cd92f64,A
2019-08-04 02:15:09,075af999-c84b-4fd7-90c3-42524cd92f64,S
2019-08-04 02:15:21,075af999-c84b-4fd7-90c3-42524cd92f64,A
2019-08-04 02:21:57,075af999-c84b-4fd7-90c3-42524cd92f64,S
2019-08-04 02:26:51,075af999-c84b-4fd7-90c3-42524cd92f64,A
2019-08-04 02:27:47,075af999-c84b-4fd7-90c3-42524cd92f64,S
2019-08-04 02:29:42,075af999-c84b-4fd7-90c3-42524cd92f64,A
2019-08-04 02:29:44,075af999-c84b-4fd7-90c3-42524cd92f64,S
2019-08-04 02:31:04,075af999-c84b-4fd7-90c3-42524cd92f64,A
2019-08-04 02:33:50,075af999-c84b-4fd7-90c3-42524cd92f64,S
2019-08-04 02:41:17,075af999-c84b-4fd7-90c3-42524cd92f64,A
2019-08-04 02:42:50,075af999-c84b-4fd7-90c3-42524cd92f64,S
2019-08-04 02:43:25,075af999-c84b-4fd7-90c3-42524cd92f64,A
2019-08-04 02:50:28,075af999-c84b-4fd7-90c3-42524cd92f64,S
2019-08-04 02:53:57,075af999-c84b-4fd7-90c3-42524cd92f64,A
2019-08-04 01:25:51,bb4fdcfa-6799-4264-9c87-c191b61c3b06,A
2019-08-04 01:26:21,bb4fdcfa-6799-4264-9c87-c191b61c3b06,S
2019-08-04 01:34:50,bb4fdcfa-6799-4264-9c87-c191b61c3b06,A
2019-08-04 01:36:10,bb4fdcfa-6799-4264-9c87-c191b61c3b06,S
2019-08-04 01:36:10,bb4fdcfa-6799-4264-9c87-c191b61c3b06,A
2019-08-04 01:44:47,bb4fdcfa-6799-4264-9c87-c191b61c3b06,S
2019-08-04 01:46:01,bb4fdcfa-6799-4264-9c87-c191b61c3b06,A
2019-08-04 01:46:51,bb4fdcfa-6799-4264-9c87-c191b61c3b06,S
2019-08-04 01:50:38,bb4fdcfa-6799-4264-9c87-c191b61c3b06,A
2019-08-04 01:51:44,bb4fdcfa-6799-4264-9c87-c191b61c3b06,S
2019-08-04 01:51:57,bb4fdcfa-6799-4264-9c87-c191b61c3b06,A
2019-08-04 01:57:30,bb4fdcfa-6799-4264-9c87-c191b61c3b06,S
2019-08-04 02:02:49,bb4fdcfa-6799-4264-9c87-c191b61c3b06,A
2019-08-04 02:15:04,bb4fdcfa-6799-4264-9c87-c191b61c3b06,S
2019-08-04 02:15:19,bb4fdcfa-6799-4264-9c87-c191b61c3b06,A
2019-08-04 02:19:30,bb4fdcfa-6799-4264-9c87-c191b61c3b06,S
2019-08-04 02:29:06,bb4fdcfa-6799-4264-9c87-c191b61c3b06,A
2019-08-04 02:41:11,bb4fdcfa-6799-4264-9c87-c191b61c3b06,S
2019-08-04 02:44:41,bb4fdcfa-6799-4264-9c87-c191b61c3b06,A
2019-08-04 02:49:04,bb4fdcfa-6799-4264-9c87-c191b61c3b06,S
2019-08-04 02:50:28,bb4fdcfa-6799-4264-9c87-c191b61c3b06,A
2019-08-04 02:51:04,bb4fdcfa-6799-4264-9c87-c191b61c3b06,S
2019-08-04 02:58:04,bb4fdcfa-6799-4264-9c87-c191b61c3b06,A
2019-08-04 02:59:32,bb4fdcfa-6799-4264-9c87-c191b61c3b06,S
2019-08-04 03:00:04,bb4fdcfa-6799-4264-9c87-c191b61c3b06,A
