date,actor,success,from,to
2019-07-21 08:16:44,65c23ec8-9eee-4575-82e4-8018a945b4c9,1,ce96ffef-901a-4384-921a-87012f85a9d5,82a889d3-22ac-40f4-8b2d-2a896537bad4
2019-07-21 08:16:46,7397c02c-af48-461b-b344-47741384b044,1,ce96ffef-901a-4384-921a-87012f85a9d5,82a889d3-22ac-40f4-8b2d-2a896537bad4
2019-07-21 08:43:44,dcb8e342-eef9-426f-b338-3ecd6ed7e028,1,ce96ffef-901a-4384-921a-87012f85a9d5,bcabeb85-a736-447f-8eb3-6ca0588e10a8
2019-07-21 08:49:01,65c23ec8-9eee-4575-82e4-8018a945b4c9,1,ce96ffef-901a-4384-921a-87012f85a9d5,baca5b53-639c-4f64-91b5-c165fabe49c3
2019-07-21 08:49:01,d2bb5659-4a75-4d08-bb56-de8aba97da02,1,ce96ffef-901a-4384-921a-87012f85a9d5,baca5b53-639c-4f64-91b5-c165fabe49c3
2019-07-21 08:55:19,6e08a0e4-f4d1-4ef9-8b97-278c453f0235,1,ce96ffef-901a-4384-921a-87012f85a9d5,baca5b53-639c-4f64-91b5-c165fabe49c3
2019-07-21 08:55:19,a90f1531-13bc-4ccf-8833-5355f6e3a4ce,1,ce96ffef-901a-4384-921a-87012f85a9d5,baca5b53-639c-4f64-91b5-c165fabe49c3
2019-07-21 08:55:29,5e8d7902-a758-4999-9e66-a9761b5a12f5,1,ce96ffef-901a-4384-921a-87012f85a9d5,bcabeb85-a736-447f-8eb3-6ca0588e10a8
2019-07-21 08:55:29,d7fd416e-a49e-4964-b647-9743611ce872,1,ce96ffef-901a-4384-921a-87012f85a9d5,bcabeb85-a736-447f-8eb3-6ca0588e10a8
2019-07-21 09:04:09,7c40cb4c-3e5f-4c55-9fee-80761afc4a1f,1,ce96ffef-901a-4384-921a-87012f85a9d5,d840282c-003d-4193-be5f-175e012cd6d1
2019-07-21 09:04:09,f44e0fe8-085b-4c8e-9e0b-fd116371650b,1,ce96ffef-901a-4384-921a-87012f85a9d5,d840282c-003d-4193-be5f-175e012cd6d1
2019-07-21 09:04:20,e833a4a4-d117-459a-8bb7-ebbbefa73d81,1,ce96ffef-901a-4384-921a-87012f85a9d5,96a02e4d-d2a4-4326-8354-598ef354a6da
2019-07-21 09:04:20,116bd966-f349-47de-beec-68b381b4f9de,1,ce96ffef-901a-4384-921a-87012f85a9d5,96a02e4d-d2a4-4326-8354-598ef354a6da
2019-07-21 09:30:42,cc5a1980-175f-4200-bcd2-a74197f9aa79,1,ce96ffef-901a-4384-921a-87012f85a9d5,30d2d5bc-1286-4d67-84bd-450b4457e5ee
2019-07-21 09:30:42,9ccca8ef-6e39-4729-a658-9281c8a6c091,1,ce96ffef-901a-4384-921a-87012f85a9d5,30d2d5bc-1286-4d67-84bd-450b4457e5ee
2019-07-21 09:30:58,4a517f2d-2125-454d-95cf-49989d3572ee,1,ce96ffef-901a-4384-921a-87012f85a9d5,cf5e66a5-091c-462b-a5ac-c4fa85da0a30
2019-07-21 09:30:58,38fe3025-ae89-4680-8485-13d6eff19b76,1,ce96ffef-901a-4384-921a-87012f85a9d5,cf5e66a5-091c-462b-a5ac-c4fa85da0a30
2019-07-21 09:31:29,23ebd8eb-885a-455e-9ed0-c49accda6442,1,ce96ffef-901a-4384-921a-87012f85a9d5,babc1bc4-ea3a-4fbf-ba7b-22860380b305
2019-07-21 09:31:29,733c3760-0453-49dd-9453-a199bd23733d,1,ce96ffef-901a-4384-921a-87012f85a9d5,babc1bc4-ea3a-4fbf-ba7b-22860380b305
2019-07-21 09:43:52,4f0a02f0-c422-4260-9e5f-e41521e94e2e,1,ce96ffef-901a-4384-921a-87012f85a9d5,6c08d55d-ddcb-401d-83ea-042652b1eb23
2019-07-21 09:43:52,07f2564d-347a-4be4-bb19-6a765e843a04,1,ce96ffef-901a-4384-921a-87012f85a9d5,6c08d55d-ddcb-401d-83ea-042652b1eb23
2019-07-21 09:58:55,4f0a02f0-c422-4260-9e5f-e41521e94e2e,1,ce96ffef-901a-4384-921a-87012f85a9d5,b64e7026-20cc-46d6-9b9e-d18192656391
2019-07-21 09:58:55,07f2564d-347a-4be4-bb19-6a765e843a04,1,ce96ffef-901a-4384-921a-87012f85a9d5,b64e7026-20cc-46d6-9b9e-d18192656391
2019-07-21 08:17:19,6079d3f0-a8c6-4d3d-bbe8-927a6f740487,1,bcabeb85-a736-447f-8eb3-6ca0588e10a8,30d2d5bc-1286-4d67-84bd-450b4457e5ee
2019-07-21 08:50:39,21aeb5fa-5350-44e2-9387-2ff4f64eec55,1,bcabeb85-a736-447f-8eb3-6ca0588e10a8,babc1bc4-ea3a-4fbf-ba7b-22860380b305
2019-07-21 08:50:39,dcb8e342-eef9-426f-b338-3ecd6ed7e028,1,bcabeb85-a736-447f-8eb3-6ca0588e10a8,babc1bc4-ea3a-4fbf-ba7b-22860380b305
2019-07-21 08:55:41,6e08a0e4-f4d1-4ef9-8b97-278c453f0235,1,bcabeb85-a736-447f-8eb3-6ca0588e10a8,b64e7026-20cc-46d6-9b9e-d18192656391
2019-07-21 08:55:41,a90f1531-13bc-4ccf-8833-5355f6e3a4ce,1,bcabeb85-a736-447f-8eb3-6ca0588e10a8,b64e7026-20cc-46d6-9b9e-d18192656391
2019-07-21 09:04:56,4f0a02f0-c422-4260-9e5f-e41521e94e2e,1,bcabeb85-a736-447f-8eb3-6ca0588e10a8,babc1bc4-ea3a-4fbf-ba7b-22860380b305
2019-07-21 09:04:56,07f2564d-347a-4be4-bb19-6a765e843a04,1,bcabeb85-a736-447f-8eb3-6ca0588e10a8,babc1bc4-ea3a-4fbf-ba7b-22860380b305
2019-07-21 09:05:16,07f2564d-347a-4be4-bb19-6a765e843a04,1,bcabeb85-a736-447f-8eb3-6ca0588e10a8,30f8548e-cf60-476a-a9b7-14a4ba2ae1c2
2019-07-21 09:05:28,4f0a02f0-c422-4260-9e5f-e41521e94e2e,1,bcabeb85-a736-447f-8eb3-6ca0588e10a8,30f8548e-cf60-476a-a9b7-14a4ba2ae1c2
2019-07-21 09:10:41,0ad74135-b7f9-4350-b65c-b4c04b6b775e,1,bcabeb85-a736-447f-8eb3-6ca0588e10a8,d840282c-003d-4193-be5f-175e012cd6d1
2019-07-21 09:10:41,2efeb8f8-c38e-4f86-a790-0d9f91a98c0e,1,bcabeb85-a736-447f-8eb3-6ca0588e10a8,d840282c-003d-4193-be5f-175e012cd6d1
2019-07-21 09:15:29,b45fda85-6938-4827-8621-d3abfa3097b4,1,bcabeb85-a736-447f-8eb3-6ca0588e10a8,babc1bc4-ea3a-4fbf-ba7b-22860380b305
2019-07-21 09:17:04,aed3c026-3fc4-4f27-b7c9-02c4748732a1,1,bcabeb85-a736-447f-8eb3-6ca0588e10a8,baca5b53-639c-4f64-91b5-c165fabe49c3
2019-07-21 09:19:07,79a318d9-f9ae-4933-8e53-7358b1ed7dd8,1,bcabeb85-a736-447f-8eb3-6ca0588e10a8,b64e7026-20cc-46d6-9b9e-d18192656391
2019-07-21 09:19:07,18fcd590-7c2a-4282-94cc-e3c61fe6b024,1,bcabeb85-a736-447f-8eb3-6ca0588e10a8,b64e7026-20cc-46d6-9b9e-d18192656391
2019-07-21 09:19:42,4a517f2d-2125-454d-95cf-49989d3572ee,1,bcabeb85-a736-447f-8eb3-6ca0588e10a8,baca5b53-639c-4f64-91b5-c165fabe49c3
2019-07-21 09:19:43,38fe3025-ae89-4680-8485-13d6eff19b76,1,bcabeb85-a736-447f-8eb3-6ca0588e10a8,baca5b53-639c-4f64-91b5-c165fabe49c3
2019-07-21 09:26:14,0ad74135-b7f9-4350-b65c-b4c04b6b775e,1,bcabeb85-a736-447f-8eb3-6ca0588e10a8,6c08d55d-ddcb-401d-83ea-042652b1eb23
2019-07-21 09:26:14,2efeb8f8-c38e-4f86-a790-0d9f91a98c0e,1,bcabeb85-a736-447f-8eb3-6ca0588e10a8,6c08d55d-ddcb-401d-83ea-042652b1eb23
2019-07-21 09:28:07,b45fda85-6938-4827-8621-d3abfa3097b4,1,bcabeb85-a736-447f-8eb3-6ca0588e10a8,babc1bc4-ea3a-4fbf-ba7b-22860380b305
2019-07-21 09:28:07,aed3c026-3fc4-4f27-b7c9-02c4748732a1,1,bcabeb85-a736-447f-8eb3-6ca0588e10a8,babc1bc4-ea3a-4fbf-ba7b-22860380b305
2019-07-21 09:30:49,4a517f2d-2125-454d-95cf-49989d3572ee,1,bcabeb85-a736-447f-8eb3-6ca0588e10a8,ce96ffef-901a-4384-921a-87012f85a9d5
2019-07-21 09:30:50,38fe3025-ae89-4680-8485-13d6eff19b76,1,bcabeb85-a736-447f-8eb3-6ca0588e10a8,ce96ffef-901a-4384-921a-87012f85a9d5
2019-07-21 09:41:07,7c40cb4c-3e5f-4c55-9fee-80761afc4a1f,1,bcabeb85-a736-447f-8eb3-6ca0588e10a8,babc1bc4-ea3a-4fbf-ba7b-22860380b305
2019-07-21 09:41:07,f44e0fe8-085b-4c8e-9e0b-fd116371650b,1,bcabeb85-a736-447f-8eb3-6ca0588e10a8,babc1bc4-ea3a-4fbf-ba7b-22860380b305
2019-07-21 09:45:47,590ef9ed-8f00-4071-af3e-2ce0c50b0d2e,1,bcabeb85-a736-447f-8eb3-6ca0588e10a8,baca5b53-639c-4f64-91b5-c165fabe49c3
2019-07-21 09:45:48,33c6b02a-35e1-4000-8ff8-bfa3ce326650,1,bcabeb85-a736-447f-8eb3-6ca0588e10a8,baca5b53-639c-4f64-91b5-c165fabe49c3
2019-07-21 09:55:26,b45fda85-6938-4827-8621-d3abfa3097b4,1,bcabeb85-a736-447f-8eb3-6ca0588e10a8,cf5e66a5-091c-462b-a5ac-c4fa85da0a30
2019-07-21 09:55:27,aed3c026-3fc4-4f27-b7c9-02c4748732a1,1,bcabeb85-a736-447f-8eb3-6ca0588e10a8,cf5e66a5-091c-462b-a5ac-c4fa85da0a30
2019-07-21 09:55:46,07f2564d-347a-4be4-bb19-6a765e843a04,1,bcabeb85-a736-447f-8eb3-6ca0588e10a8,d840282c-003d-4193-be5f-175e012cd6d1
2019-07-21 09:56:42,07f2564d-347a-4be4-bb19-6a765e843a04,1,bcabeb85-a736-447f-8eb3-6ca0588e10a8,62791ea5-793c-4e0c-8d0d-ba8a3cd708a4
2019-07-21 09:56:51,69b05d1c-4be8-49a3-bed3-b52a9b597cb9,1,bcabeb85-a736-447f-8eb3-6ca0588e10a8,83e0268f-4f6c-4407-9beb-402c88577a69
2019-07-21 10:00:56,21aeb5fa-5350-44e2-9387-2ff4f64eec55,1,bcabeb85-a736-447f-8eb3-6ca0588e10a8,32d5f924-10c6-4198-ae0b-f76d6ef4a284
2019-07-21 10:00:56,dcb8e342-eef9-426f-b338-3ecd6ed7e028,1,bcabeb85-a736-447f-8eb3-6ca0588e10a8,bcabeb85-a736-447f-8eb3-6ca0588e10a8
2019-07-21 10:01:04,dcb8e342-eef9-426f-b338-3ecd6ed7e028,1,bcabeb85-a736-447f-8eb3-6ca0588e10a8,32d5f924-10c6-4198-ae0b-f76d6ef4a284
2019-07-21 10:01:25,21aeb5fa-5350-44e2-9387-2ff4f64eec55,1,bcabeb85-a736-447f-8eb3-6ca0588e10a8,32d5f924-10c6-4198-ae0b-f76d6ef4a284
2019-07-21 10:02:10,dcb8e342-eef9-426f-b338-3ecd6ed7e028,1,bcabeb85-a736-447f-8eb3-6ca0588e10a8,32d5f924-10c6-4198-ae0b-f76d6ef4a284
2019-07-21 10:02:12,5e8d7902-a758-4999-9e66-a9761b5a12f5,1,bcabeb85-a736-447f-8eb3-6ca0588e10a8,32d5f924-10c6-4198-ae0b-f76d6ef4a284
2019-07-21 10:02:13,d7fd416e-a49e-4964-b647-9743611ce872,1,bcabeb85-a736-447f-8eb3-6ca0588e10a8,32d5f924-10c6-4198-ae0b-f76d6ef4a284
2019-07-21 07:58:47,af716788-d52d-4f34-bdbd-e4ae993a76ea,1,63a82b02-fa1e-4329-8c64-0194370b5e21,babc1bc4-ea3a-4fbf-ba7b-22860380b305
2019-07-21 07:58:47,c2f6544b-56d6-489e-a4f8-72aadb53add5,1,63a82b02-fa1e-4329-8c64-0194370b5e21,afecf20b-5c1e-4f05-b46f-7adcc3c0ae9b
2019-07-21 07:58:47,264c9a1a-0851-4146-a8b3-d654c7719c5a,1,63a82b02-fa1e-4329-8c64-0194370b5e21,6bb4bb80-d33b-49bf-98ad-7e15e4a3988a
2019-07-21 07:59:50,40a7be58-61be-4be4-9cc4-9094c23b9d63,1,63a82b02-fa1e-4329-8c64-0194370b5e21,30f8548e-cf60-476a-a9b7-14a4ba2ae1c2
2019-07-21 07:59:50,95825177-99c3-4198-a289-d8ab4a4b0bee,1,63a82b02-fa1e-4329-8c64-0194370b5e21,30f8548e-cf60-476a-a9b7-14a4ba2ae1c2
2019-07-21 07:59:50,de949d0f-c4cc-42f9-a59e-61abc895f962,1,63a82b02-fa1e-4329-8c64-0194370b5e21,b997f916-30cf-4351-a90b-028c4fd04a32
2019-07-21 08:00:54,4e5b4ef5-47dd-49f2-9f09-95c57c5adb17,1,63a82b02-fa1e-4329-8c64-0194370b5e21,abf5e1b0-7e5b-4816-a37d-ce6ec1a52d62
2019-07-21 08:00:54,20f2dec2-786e-42ab-ba23-45a143e2df54,1,63a82b02-fa1e-4329-8c64-0194370b5e21,afecf20b-5c1e-4f05-b46f-7adcc3c0ae9b
2019-07-21 08:00:54,37ace749-4f4a-4d66-8678-9933023f4120,1,63a82b02-fa1e-4329-8c64-0194370b5e21,bcabeb85-a736-447f-8eb3-6ca0588e10a8
2019-07-21 08:01:58,7397c02c-af48-461b-b344-47741384b044,1,63a82b02-fa1e-4329-8c64-0194370b5e21,ce96ffef-901a-4384-921a-87012f85a9d5
2019-07-21 08:01:58,69b05d1c-4be8-49a3-bed3-b52a9b597cb9,1,63a82b02-fa1e-4329-8c64-0194370b5e21,afecf20b-5c1e-4f05-b46f-7adcc3c0ae9b
2019-07-21 08:01:58,95529963-3acd-4127-b105-db05df7fb551,1,63a82b02-fa1e-4329-8c64-0194370b5e21,a50a834b-4849-43a7-98b8-53f0bbbc3d81
2019-07-21 08:03:02,6079d3f0-a8c6-4d3d-bbe8-927a6f740487,1,63a82b02-fa1e-4329-8c64-0194370b5e21,bcabeb85-a736-447f-8eb3-6ca0588e10a8
2019-07-21 08:03:02,7e90cf8a-ff6a-485b-9859-cafd0e82664f,1,63a82b02-fa1e-4329-8c64-0194370b5e21,23f2a238-02d4-44e5-a742-294750558ab4
2019-07-21 08:03:02,dce32b29-9bf5-4d90-b42e-cf41696684d6,1,63a82b02-fa1e-4329-8c64-0194370b5e21,afecf20b-5c1e-4f05-b46f-7adcc3c0ae9b
2019-07-21 08:04:05,dbb573ad-f230-46ed-af24-dbe6f5d2fcde,1,63a82b02-fa1e-4329-8c64-0194370b5e21,59587e11-3ed1-48ac-81b3-81c1825afdb3
2019-07-21 08:04:05,33c6b02a-35e1-4000-8ff8-bfa3ce326650,1,63a82b02-fa1e-4329-8c64-0194370b5e21,6c08d55d-ddcb-401d-83ea-042652b1eb23
2019-07-21 08:04:05,590ef9ed-8f00-4071-af3e-2ce0c50b0d2e,1,63a82b02-fa1e-4329-8c64-0194370b5e21,6c08d55d-ddcb-401d-83ea-042652b1eb23
2019-07-21 08:05:09,6e08a0e4-f4d1-4ef9-8b97-278c453f0235,1,63a82b02-fa1e-4329-8c64-0194370b5e21,30d2d5bc-1286-4d67-84bd-450b4457e5ee
2019-07-21 08:05:09,a90f1531-13bc-4ccf-8833-5355f6e3a4ce,1,63a82b02-fa1e-4329-8c64-0194370b5e21,d840282c-003d-4193-be5f-175e012cd6d1
2019-07-21 08:05:09,442a799e-9da2-4f8d-b435-3af1da81d522,1,63a82b02-fa1e-4329-8c64-0194370b5e21,ee4cc8a1-98a1-4684-bd8b-5d6344065945
2019-07-21 08:06:13,a172e545-1ad8-4eda-b929-bc93c7e6d8ce,1,63a82b02-fa1e-4329-8c64-0194370b5e21,83e0268f-4f6c-4407-9beb-402c88577a69
2019-07-21 08:06:13,399f16b9-39cc-40ea-b555-6b23de9c5e40,1,63a82b02-fa1e-4329-8c64-0194370b5e21,d840282c-003d-4193-be5f-175e012cd6d1
2019-07-21 08:06:13,5e1b44e5-905d-4f48-bddb-b585cb892b84,1,63a82b02-fa1e-4329-8c64-0194370b5e21,d840282c-003d-4193-be5f-175e012cd6d1
2019-07-21 08:07:17,5a1d1f8f-a821-47da-b20e-967be52f217d,1,63a82b02-fa1e-4329-8c64-0194370b5e21,82a889d3-22ac-40f4-8b2d-2a896537bad4
2019-07-21 08:07:17,4ea95266-6cbc-43c3-ba60-064568287cbe,1,63a82b02-fa1e-4329-8c64-0194370b5e21,18f2a74c-debe-4e4e-9f3b-c80502cd39b1
2019-07-21 08:07:17,5ff8bbd2-d50b-415b-afe6-0fe9b0ef0bb1,1,63a82b02-fa1e-4329-8c64-0194370b5e21,82a889d3-22ac-40f4-8b2d-2a896537bad4
2019-07-21 08:08:20,8e47f7cc-55cb-4522-8825-45f6eff987ea,1,63a82b02-fa1e-4329-8c64-0194370b5e21,a5f51636-28ee-4c09-8349-8b3259b6d0ba
2019-07-21 08:08:20,cc5a1980-175f-4200-bcd2-a74197f9aa79,1,63a82b02-fa1e-4329-8c64-0194370b5e21,b64e7026-20cc-46d6-9b9e-d18192656391
2019-07-21 08:08:20,9ccca8ef-6e39-4729-a658-9281c8a6c091,1,63a82b02-fa1e-4329-8c64-0194370b5e21,b64e7026-20cc-46d6-9b9e-d18192656391
2019-07-21 08:09:24,cb741bed-dbce-495b-b92f-736c574f2311,1,63a82b02-fa1e-4329-8c64-0194370b5e21,cf5e66a5-091c-462b-a5ac-c4fa85da0a30
2019-07-21 08:09:24,c72ecb8d-511f-4000-b172-ea8002b18782,1,63a82b02-fa1e-4329-8c64-0194370b5e21,b4ed2950-41bb-4072-96be-41f3462eeb83
2019-07-21 08:09:24,10f5d03f-acbf-4257-9a5a-2fec580452f4,1,63a82b02-fa1e-4329-8c64-0194370b5e21,32d5f924-10c6-4198-ae0b-f76d6ef4a284
2019-07-21 08:10:28,b062e9f9-ae75-4631-a77f-d15092336f21,1,63a82b02-fa1e-4329-8c64-0194370b5e21,38b7f7a2-0b10-48af-ada5-8a7afa675837
2019-07-21 08:10:28,3695328c-1f1e-4ae2-9f5a-6eeded1449ba,1,63a82b02-fa1e-4329-8c64-0194370b5e21,32d5f924-10c6-4198-ae0b-f76d6ef4a284
2019-07-21 08:10:28,c0454eab-94c5-4ecf-9dac-823a9228ea3c,1,63a82b02-fa1e-4329-8c64-0194370b5e21,32d5f924-10c6-4198-ae0b-f76d6ef4a284
2019-07-21 08:11:32,3bc44907-2a55-4e1c-b6a0-ab188179ac40,1,63a82b02-fa1e-4329-8c64-0194370b5e21,ff555b6f-ddec-4a20-863c-17fe853da037
2019-07-21 08:11:32,4f0a02f0-c422-4260-9e5f-e41521e94e2e,1,63a82b02-fa1e-4329-8c64-0194370b5e21,bcabeb85-a736-447f-8eb3-6ca0588e10a8
2019-07-21 08:11:32,07f2564d-347a-4be4-bb19-6a765e843a04,1,63a82b02-fa1e-4329-8c64-0194370b5e21,bcabeb85-a736-447f-8eb3-6ca0588e10a8
2019-07-21 08:12:36,74653b38-682a-4067-9219-a5d58fd5def9,1,63a82b02-fa1e-4329-8c64-0194370b5e21,baca5b53-639c-4f64-91b5-c165fabe49c3
2019-07-21 08:12:36,0724323c-87d7-4a19-a6ba-b06b46be5da0,1,63a82b02-fa1e-4329-8c64-0194370b5e21,650df1d3-7edb-4fcc-a866-4d40cb23501f
2019-07-21 08:12:36,9e5b32a9-0cc4-42d1-9e29-b6b41f6bcbfd,1,63a82b02-fa1e-4329-8c64-0194370b5e21,baca5b53-639c-4f64-91b5-c165fabe49c3
2019-07-21 08:13:39,c2385578-5b7a-4d95-8a1d-07c0ad54a4fb,1,63a82b02-fa1e-4329-8c64-0194370b5e21,30f8548e-cf60-476a-a9b7-14a4ba2ae1c2
2019-07-21 08:13:39,1abcb1a3-2090-4a90-8e4b-46d353d86d2c,1,63a82b02-fa1e-4329-8c64-0194370b5e21,97e93ccf-b1d7-4a9d-9e6e-2397ebb8db81
2019-07-21 08:13:39,8fd6a4f1-ec6c-4d3f-a4dc-100aadfe838b,1,63a82b02-fa1e-4329-8c64-0194370b5e21,30f8548e-cf60-476a-a9b7-14a4ba2ae1c2
2019-07-21 08:14:43,1e6bbe26-e2ce-4ad7-9ec4-e3e492300353,1,63a82b02-fa1e-4329-8c64-0194370b5e21,7c72cb3d-f685-45fb-aedc-e013bab4f3b3
2019-07-21 08:14:43,b43eab5a-570a-4ceb-9d36-ed4ed5384391,1,63a82b02-fa1e-4329-8c64-0194370b5e21,cf5e66a5-091c-462b-a5ac-c4fa85da0a30
2019-07-21 08:14:43,faf7444c-e6c2-424c-90da-5482c972ed22,1,63a82b02-fa1e-4329-8c64-0194370b5e21,6c08d55d-ddcb-401d-83ea-042652b1eb23
2019-07-21 08:15:47,65c23ec8-9eee-4575-82e4-8018a945b4c9,1,63a82b02-fa1e-4329-8c64-0194370b5e21,ce96ffef-901a-4384-921a-87012f85a9d5
2019-07-21 08:15:47,143b4d5d-f4ac-45e2-a5d3-820a1942d22f,1,63a82b02-fa1e-4329-8c64-0194370b5e21,a905fc78-3379-4906-b276-f0cd6da6f4e6
2019-07-21 08:15:47,d2bb5659-4a75-4d08-bb56-de8aba97da02,1,63a82b02-fa1e-4329-8c64-0194370b5e21,6c08d55d-ddcb-401d-83ea-042652b1eb23
2019-07-21 08:16:51,c4b4c40f-bb69-441c-8e99-2b68862b6d36,1,63a82b02-fa1e-4329-8c64-0194370b5e21,30d2d5bc-1286-4d67-84bd-450b4457e5ee
2019-07-21 08:16:51,1034d8d0-5929-4ab6-9f0b-4792c24f0f38,1,63a82b02-fa1e-4329-8c64-0194370b5e21,30d2d5bc-1286-4d67-84bd-450b4457e5ee
2019-07-21 08:16:51,e2a312d3-ec10-478f-ba18-edd99e433f08,1,63a82b02-fa1e-4329-8c64-0194370b5e21,5b4809fd-05c9-44a8-8e1d-e9a9477ac5ef
2019-07-21 08:17:54,6a589ea3-9908-4230-a3e7-84abc9d68ec4,1,63a82b02-fa1e-4329-8c64-0194370b5e21,9ef96fac-67b2-4812-b434-6df56cf27701
2019-07-21 08:17:54,f4fbbfd5-13bc-412e-975a-f643d7a96cc6,1,63a82b02-fa1e-4329-8c64-0194370b5e21,6c08d55d-ddcb-401d-83ea-042652b1eb23
2019-07-21 08:17:54,649f9a4e-d271-451f-aa71-161eb26bbd32,1,63a82b02-fa1e-4329-8c64-0194370b5e21,6c08d55d-ddcb-401d-83ea-042652b1eb23
2019-07-21 08:18:58,b16ca281-5302-4113-8b7c-8178d1fe1282,1,63a82b02-fa1e-4329-8c64-0194370b5e21,96a02e4d-d2a4-4326-8354-598ef354a6da
2019-07-21 08:18:58,4b355bd9-128b-4c17-9580-62c6b683420b,1,63a82b02-fa1e-4329-8c64-0194370b5e21,96a02e4d-d2a4-4326-8354-598ef354a6da
2019-07-21 08:18:58,0060ea92-b253-48c8-a641-d54088112db0,1,63a82b02-fa1e-4329-8c64-0194370b5e21,eaf2d11c-28c1-4dcd-8b4d-4e9c7dd81009
2019-07-21 08:20:01,5e8d7902-a758-4999-9e66-a9761b5a12f5,1,63a82b02-fa1e-4329-8c64-0194370b5e21,babc1bc4-ea3a-4fbf-ba7b-22860380b305
2019-07-21 08:20:02,d7fd416e-a49e-4964-b647-9743611ce872,1,63a82b02-fa1e-4329-8c64-0194370b5e21,babc1bc4-ea3a-4fbf-ba7b-22860380b305
2019-07-21 08:20:02,a94c1998-db21-45fb-a543-757723f12722,1,63a82b02-fa1e-4329-8c64-0194370b5e21,78459ac6-a50a-4666-929d-da713b766c33
2019-07-21 08:21:05,c44dbbd5-182c-40a7-9589-bda3b3ed3e48,1,63a82b02-fa1e-4329-8c64-0194370b5e21,e6b29ff3-a913-40b9-a006-a6af873b0ed9
2019-07-21 08:21:05,c66fcbc0-edcc-471e-bb6d-c1a385b5d499,1,63a82b02-fa1e-4329-8c64-0194370b5e21,cf5e66a5-091c-462b-a5ac-c4fa85da0a30
2019-07-21 08:21:05,bd4acd75-fc10-40d4-992a-99c94e2e0e7d,1,63a82b02-fa1e-4329-8c64-0194370b5e21,cf5e66a5-091c-462b-a5ac-c4fa85da0a30
2019-07-21 08:22:09,4a517f2d-2125-454d-95cf-49989d3572ee,1,63a82b02-fa1e-4329-8c64-0194370b5e21,d840282c-003d-4193-be5f-175e012cd6d1
2019-07-21 08:22:09,38fe3025-ae89-4680-8485-13d6eff19b76,1,63a82b02-fa1e-4329-8c64-0194370b5e21,d840282c-003d-4193-be5f-175e012cd6d1
2019-07-21 08:22:09,b666a259-aa5e-4155-b923-6a545271e8f9,1,63a82b02-fa1e-4329-8c64-0194370b5e21,69d20fd6-f1a4-4a0c-a07b-ccd6b78c1459
2019-07-21 08:23:13,9149a897-f125-41e9-a10d-6687e939d182,1,63a82b02-fa1e-4329-8c64-0194370b5e21,30d2d5bc-1286-4d67-84bd-450b4457e5ee
2019-07-21 08:23:13,fc481692-12f6-4240-a2ed-d541e6576a20,1,63a82b02-fa1e-4329-8c64-0194370b5e21,30d2d5bc-1286-4d67-84bd-450b4457e5ee
2019-07-21 08:23:13,31dba910-5867-4dc5-a769-5c3bb9aa92d1,1,63a82b02-fa1e-4329-8c64-0194370b5e21,46a1473b-c914-4d18-823e-95fc1e759daf
2019-07-21 08:24:17,79e2a133-c766-45b0-9a41-2bfeecd3d870,1,63a82b02-fa1e-4329-8c64-0194370b5e21,b64e7026-20cc-46d6-9b9e-d18192656391
2019-07-21 08:24:17,2f59e76a-e33f-4e05-8ee2-ae21dbaa3cf9,1,63a82b02-fa1e-4329-8c64-0194370b5e21,b64e7026-20cc-46d6-9b9e-d18192656391
2019-07-21 08:24:17,96b11118-dec9-4411-8c87-d5c7c6099c58,1,63a82b02-fa1e-4329-8c64-0194370b5e21,fc0fbc42-b9e6-4c49-b5d3-e08520451916
2019-07-21 08:25:21,677fef3e-f919-43b1-a865-ee5efcc3fd57,1,63a82b02-fa1e-4329-8c64-0194370b5e21,32d5f924-10c6-4198-ae0b-f76d6ef4a284
2019-07-21 08:25:21,51f4e713-27ef-4524-a3ce-6d3b18df9da9,1,63a82b02-fa1e-4329-8c64-0194370b5e21,f8d0f1bf-a335-4d99-b529-8a23a12977a1
2019-07-21 08:25:21,10a319aa-6266-48b9-bbf1-b9618720a026,1,63a82b02-fa1e-4329-8c64-0194370b5e21,32d5f924-10c6-4198-ae0b-f76d6ef4a284
2019-07-21 08:26:24,3ce6bbd4-0bbc-48a9-a6ef-aaad6c7e62ca,1,63a82b02-fa1e-4329-8c64-0194370b5e21,b85059ef-bd08-47c7-ad44-b7e31a4e0f4e
2019-07-21 08:26:24,d8902529-c95a-4722-acf5-5fc3bf99b070,1,63a82b02-fa1e-4329-8c64-0194370b5e21,d840282c-003d-4193-be5f-175e012cd6d1
2019-07-21 08:26:24,82c26abe-0a4d-43a9-9534-c468370dae1b,1,63a82b02-fa1e-4329-8c64-0194370b5e21,d840282c-003d-4193-be5f-175e012cd6d1
2019-07-21 08:27:28,8f0015b1-1f21-4b22-ab1a-8bc142d30a0d,1,63a82b02-fa1e-4329-8c64-0194370b5e21,d840282c-003d-4193-be5f-175e012cd6d1
2019-07-21 08:27:28,4beead42-1002-4220-a607-286730626cdf,1,63a82b02-fa1e-4329-8c64-0194370b5e21,d840282c-003d-4193-be5f-175e012cd6d1
2019-07-21 08:27:28,9e71e1ce-d4fb-4b1b-ae03-b3cbf6cbb4bc,1,63a82b02-fa1e-4329-8c64-0194370b5e21,59a1e202-985c-4ee7-aa2c-01e4845e1171
2019-07-21 08:28:32,8c55c6f9-39e4-4666-84ba-ac96f2aadfaa,1,63a82b02-fa1e-4329-8c64-0194370b5e21,b8641801-9d0f-4f21-9e9b-97ea11f30115
2019-07-21 08:28:32,487f5846-24b5-4f41-80df-1c9f5978aa89,1,63a82b02-fa1e-4329-8c64-0194370b5e21,30d2d5bc-1286-4d67-84bd-450b4457e5ee
2019-07-21 08:28:32,86fd9475-f943-4bcf-8356-21d1d13ce25b,1,63a82b02-fa1e-4329-8c64-0194370b5e21,32d5f924-10c6-4198-ae0b-f76d6ef4a284
2019-07-21 08:29:36,4d6315c4-682c-4062-9734-113e4f54b13d,1,63a82b02-fa1e-4329-8c64-0194370b5e21,30f8548e-cf60-476a-a9b7-14a4ba2ae1c2
2019-07-21 08:29:36,22093a47-9635-42e8-aaa0-db489520300f,1,63a82b02-fa1e-4329-8c64-0194370b5e21,30f8548e-cf60-476a-a9b7-14a4ba2ae1c2
2019-07-21 08:29:36,49410dbd-b38f-4505-af57-3bd08cc63dda,1,63a82b02-fa1e-4329-8c64-0194370b5e21,346abda8-6aa2-4ddb-b878-edd65adc631d
2019-07-21 08:30:40,f1cc4048-88d1-4486-bb25-cea6879686d0,1,63a82b02-fa1e-4329-8c64-0194370b5e21,c4356b98-37db-4195-bd6a-a1424efe30a2
2019-07-21 08:30:40,41cde358-f11d-402e-9ac0-902cd264e976,1,63a82b02-fa1e-4329-8c64-0194370b5e21,30f8548e-cf60-476a-a9b7-14a4ba2ae1c2
2019-07-21 08:30:40,a541a45c-640b-4806-97d4-f1782fe4912d,1,63a82b02-fa1e-4329-8c64-0194370b5e21,30f8548e-cf60-476a-a9b7-14a4ba2ae1c2
2019-07-21 08:31:44,a5a8883a-43df-48d1-bff4-88e908bdc54b,1,63a82b02-fa1e-4329-8c64-0194370b5e21,30d2d5bc-1286-4d67-84bd-450b4457e5ee
2019-07-21 08:31:44,883939d5-0e6f-477d-9ba1-44b349388b0f,1,63a82b02-fa1e-4329-8c64-0194370b5e21,30d2d5bc-1286-4d67-84bd-450b4457e5ee
2019-07-21 08:31:44,31b23a67-7fb4-4af7-bf13-1c4b6b782294,1,63a82b02-fa1e-4329-8c64-0194370b5e21,0c9af223-5da7-4346-a5e5-9b418f35e343
2019-07-21 08:32:47,3677dcd6-ce53-4f56-aef0-8bfa38ade6fc,1,63a82b02-fa1e-4329-8c64-0194370b5e21,359d291b-5265-4d87-9ec2-0c981743bfa0
2019-07-21 08:32:47,33cd02e5-2c19-4323-b241-d4eb3f4d8de9,1,63a82b02-fa1e-4329-8c64-0194370b5e21,afecf20b-5c1e-4f05-b46f-7adcc3c0ae9b
2019-07-21 08:32:47,c59869df-c96e-4b86-b98f-aca6a61bc720,1,63a82b02-fa1e-4329-8c64-0194370b5e21,afecf20b-5c1e-4f05-b46f-7adcc3c0ae9b
2019-07-21 08:33:51,97d74301-8123-4f8a-bf4c-97829c2a1997,1,63a82b02-fa1e-4329-8c64-0194370b5e21,a39809c5-3594-4e57-a5e7-efa4038f5f0b
2019-07-21 08:33:51,79a318d9-f9ae-4933-8e53-7358b1ed7dd8,1,63a82b02-fa1e-4329-8c64-0194370b5e21,afecf20b-5c1e-4f05-b46f-7adcc3c0ae9b
2019-07-21 08:33:51,18fcd590-7c2a-4282-94cc-e3c61fe6b024,1,63a82b02-fa1e-4329-8c64-0194370b5e21,6c08d55d-ddcb-401d-83ea-042652b1eb23
2019-07-21 08:34:55,631c8bd2-3b89-485a-8842-5299177c0b8d,1,63a82b02-fa1e-4329-8c64-0194370b5e21,22c2b2c8-153a-4232-9112-e76adebefaa1
2019-07-21 08:34:55,b5861101-fc2d-4054-a1a2-1387f2ff88c5,1,63a82b02-fa1e-4329-8c64-0194370b5e21,32d5f924-10c6-4198-ae0b-f76d6ef4a284
2019-07-21 08:34:55,687d625d-6dfa-403b-82c7-c80b4b1f67a4,1,63a82b02-fa1e-4329-8c64-0194370b5e21,82a889d3-22ac-40f4-8b2d-2a896537bad4
2019-07-21 08:35:59,e833a4a4-d117-459a-8bb7-ebbbefa73d81,1,63a82b02-fa1e-4329-8c64-0194370b5e21,6c08d55d-ddcb-401d-83ea-042652b1eb23
2019-07-21 08:35:59,94dc2daa-6507-4ee6-8764-fc303a8c5c24,1,63a82b02-fa1e-4329-8c64-0194370b5e21,871c8334-4039-4465-b729-1119befdcb26
2019-07-21 08:35:59,116bd966-f349-47de-beec-68b381b4f9de,1,63a82b02-fa1e-4329-8c64-0194370b5e21,6c08d55d-ddcb-401d-83ea-042652b1eb23
2019-07-21 08:37:03,0accb169-ba3f-423c-b2bf-6e7fd04f8481,1,63a82b02-fa1e-4329-8c64-0194370b5e21,baca5b53-639c-4f64-91b5-c165fabe49c3
2019-07-21 08:37:03,68fd2d8d-8c96-43b6-a261-84dac76a5e49,1,63a82b02-fa1e-4329-8c64-0194370b5e21,baca5b53-639c-4f64-91b5-c165fabe49c3
2019-07-21 08:37:03,6cb499c0-ef98-4b56-a18f-2abd298655c9,1,63a82b02-fa1e-4329-8c64-0194370b5e21,5acfcf4e-0aac-4567-9ab1-a845522bb0bb
2019-07-21 08:38:06,2f8a56e8-0858-45c9-8fa9-b27647d97eca,1,63a82b02-fa1e-4329-8c64-0194370b5e21,afecf20b-5c1e-4f05-b46f-7adcc3c0ae9b
2019-07-21 08:38:06,8fa33697-b919-4f92-8bcb-075d1a5520ac,1,63a82b02-fa1e-4329-8c64-0194370b5e21,3c7bc767-e1bf-4bb3-a5ee-cf57c9ffbe12
2019-07-21 08:38:06,a66bb3f1-3577-4043-86b1-8ab6ec9ebe04,1,63a82b02-fa1e-4329-8c64-0194370b5e21,afecf20b-5c1e-4f05-b46f-7adcc3c0ae9b
2019-07-21 08:39:10,c80c5b3e-6731-4d13-9e2d-defda6b94428,1,63a82b02-fa1e-4329-8c64-0194370b5e21,3e7c86ae-87dc-4fdb-acfd-d7b6ef00c98f
2019-07-21 08:39:10,41262172-531e-46fb-a29b-38b2920ef825,1,63a82b02-fa1e-4329-8c64-0194370b5e21,afecf20b-5c1e-4f05-b46f-7adcc3c0ae9b
2019-07-21 08:39:10,de8270fa-30e1-4dc8-a51a-e3b21774a8f3,1,63a82b02-fa1e-4329-8c64-0194370b5e21,afecf20b-5c1e-4f05-b46f-7adcc3c0ae9b
2019-07-21 08:40:14,198164ff-8f5b-456e-9e22-bc885258d460,1,63a82b02-fa1e-4329-8c64-0194370b5e21,5c33b7ef-f3f4-4ab1-85fb-a634a4ac96d8
2019-07-21 08:40:14,ed6faad8-0099-4219-949a-cc39aad61fe6,1,63a82b02-fa1e-4329-8c64-0194370b5e21,6c08d55d-ddcb-401d-83ea-042652b1eb23
2019-07-21 08:40:14,0df382a0-ebc5-44e5-82a6-78f87043049a,1,63a82b02-fa1e-4329-8c64-0194370b5e21,62791ea5-793c-4e0c-8d0d-ba8a3cd708a4
2019-07-21 08:41:18,a4e4fec9-bdc8-4d49-af66-df3b54f9966b,1,63a82b02-fa1e-4329-8c64-0194370b5e21,bb1a229f-164d-4872-ab00-91de57264552
2019-07-21 08:41:18,08655212-3dbc-4350-9a18-932687202c8b,1,63a82b02-fa1e-4329-8c64-0194370b5e21,ce96ffef-901a-4384-921a-87012f85a9d5
2019-07-21 08:41:18,bd7f254e-0df6-4dde-83bf-c9c831e3aba2,1,63a82b02-fa1e-4329-8c64-0194370b5e21,afecf20b-5c1e-4f05-b46f-7adcc3c0ae9b
2019-07-21 08:42:22,21aeb5fa-5350-44e2-9387-2ff4f64eec55,1,63a82b02-fa1e-4329-8c64-0194370b5e21,baca5b53-639c-4f64-91b5-c165fabe49c3
2019-07-21 08:42:22,4f477258-a251-4534-92ba-54f8e10ba919,1,63a82b02-fa1e-4329-8c64-0194370b5e21,5edb7ee8-6544-4453-b00a-80ee1553c096
2019-07-21 08:42:22,dcb8e342-eef9-426f-b338-3ecd6ed7e028,1,63a82b02-fa1e-4329-8c64-0194370b5e21,ce96ffef-901a-4384-921a-87012f85a9d5
2019-07-21 08:43:25,7c40cb4c-3e5f-4c55-9fee-80761afc4a1f,1,63a82b02-fa1e-4329-8c64-0194370b5e21,ce96ffef-901a-4384-921a-87012f85a9d5
2019-07-21 08:43:25,072f31bd-e572-4cc9-b159-560538dcc780,1,63a82b02-fa1e-4329-8c64-0194370b5e21,736ca8b3-bbfb-44ef-9a3d-8cac56aada22
2019-07-21 08:43:25,f44e0fe8-085b-4c8e-9e0b-fd116371650b,1,63a82b02-fa1e-4329-8c64-0194370b5e21,ce96ffef-901a-4384-921a-87012f85a9d5
2019-07-21 08:44:29,b45fda85-6938-4827-8621-d3abfa3097b4,1,63a82b02-fa1e-4329-8c64-0194370b5e21,bcabeb85-a736-447f-8eb3-6ca0588e10a8
2019-07-21 08:44:29,aed3c026-3fc4-4f27-b7c9-02c4748732a1,1,63a82b02-fa1e-4329-8c64-0194370b5e21,bcabeb85-a736-447f-8eb3-6ca0588e10a8
2019-07-21 08:44:29,354cf832-32a7-41ef-b4d2-5ae4f7e15af2,1,63a82b02-fa1e-4329-8c64-0194370b5e21,0039d546-45ae-4847-9c8b-31507405dc27
2019-07-21 08:45:33,c54e7c80-4eaf-4674-abe6-ada5ad452fc8,1,63a82b02-fa1e-4329-8c64-0194370b5e21,3f2351ee-7512-4b3a-a400-8702fc1422f6
2019-07-21 08:45:33,460ea30e-71aa-4e4a-a078-6583eaefb686,1,63a82b02-fa1e-4329-8c64-0194370b5e21,82a889d3-22ac-40f4-8b2d-2a896537bad4
2019-07-21 08:45:33,183c45e8-0591-48c7-96e8-56ca01b645cd,1,63a82b02-fa1e-4329-8c64-0194370b5e21,82a889d3-22ac-40f4-8b2d-2a896537bad4
2019-07-21 08:46:37,ff222fda-5b45-4a03-9488-f8c44c771558,1,63a82b02-fa1e-4329-8c64-0194370b5e21,1fdc52ea-026b-46c5-ac87-6085ac010972
2019-07-21 08:46:37,23ebd8eb-885a-455e-9ed0-c49accda6442,1,63a82b02-fa1e-4329-8c64-0194370b5e21,62791ea5-793c-4e0c-8d0d-ba8a3cd708a4
2019-07-21 08:46:37,733c3760-0453-49dd-9453-a199bd23733d,1,63a82b02-fa1e-4329-8c64-0194370b5e21,62791ea5-793c-4e0c-8d0d-ba8a3cd708a4
2019-07-21 08:47:40,e077300d-7908-4583-8c5a-06ebe9e45a15,1,63a82b02-fa1e-4329-8c64-0194370b5e21,c123bcbc-ba7c-4b0e-824e-d778e6a74a2f
2019-07-21 08:47:40,0ad74135-b7f9-4350-b65c-b4c04b6b775e,1,63a82b02-fa1e-4329-8c64-0194370b5e21,32d5f924-10c6-4198-ae0b-f76d6ef4a284
2019-07-21 08:47:40,2efeb8f8-c38e-4f86-a790-0d9f91a98c0e,1,63a82b02-fa1e-4329-8c64-0194370b5e21,32d5f924-10c6-4198-ae0b-f76d6ef4a284
2019-07-21 08:48:44,4718d067-d554-4b5a-b45d-c75e3a10e5ed,1,63a82b02-fa1e-4329-8c64-0194370b5e21,89119f80-202d-475a-9a04-b42857157502
2019-07-21 08:48:44,5c40c464-98d4-4fba-8807-2f997e366f67,1,63a82b02-fa1e-4329-8c64-0194370b5e21,cf5e66a5-091c-462b-a5ac-c4fa85da0a30
2019-07-21 08:48:44,7c0d1e28-feb2-4c33-ab35-e1a36492c029,1,63a82b02-fa1e-4329-8c64-0194370b5e21,cf5e66a5-091c-462b-a5ac-c4fa85da0a30
2019-07-21 08:49:48,4bdb6e3e-1e78-4410-8ce1-203bed19f02b,1,63a82b02-fa1e-4329-8c64-0194370b5e21,5c4ac6e5-8651-4c21-b0fd-b6b24c11e451
2019-07-21 08:49:48,1c1ad470-7fe7-4b62-bbbe-829f4439447f,1,63a82b02-fa1e-4329-8c64-0194370b5e21,32d5f924-10c6-4198-ae0b-f76d6ef4a284
2019-07-21 08:49:48,944a07aa-2c81-476d-af4b-a94fc085e7bb,1,63a82b02-fa1e-4329-8c64-0194370b5e21,32d5f924-10c6-4198-ae0b-f76d6ef4a284
2019-07-21 08:50:52,375c33d1-44e5-4adf-be3e-f8d6d924cfc5,1,63a82b02-fa1e-4329-8c64-0194370b5e21,784b689e-dbcc-4372-9dac-fae818505db6
2019-07-21 08:50:52,5d380215-e3f3-4cf8-b95a-0905f187b185,1,63a82b02-fa1e-4329-8c64-0194370b5e21,32d5f924-10c6-4198-ae0b-f76d6ef4a284
2019-07-21 08:50:52,9ca5e809-102a-4951-a6bb-4b2b2632073a,1,63a82b02-fa1e-4329-8c64-0194370b5e21,32d5f924-10c6-4198-ae0b-f76d6ef4a284
2019-07-21 08:31:27,6079d3f0-a8c6-4d3d-bbe8-927a6f740487,1,b64e7026-20cc-46d6-9b9e-d18192656391,babc1bc4-ea3a-4fbf-ba7b-22860380b305
2019-07-21 08:31:27,dce32b29-9bf5-4d90-b42e-cf41696684d6,1,b64e7026-20cc-46d6-9b9e-d18192656391,babc1bc4-ea3a-4fbf-ba7b-22860380b305
2019-07-21 08:55:51,6e08a0e4-f4d1-4ef9-8b97-278c453f0235,1,b64e7026-20cc-46d6-9b9e-d18192656391,b64e7026-20cc-46d6-9b9e-d18192656391
2019-07-21 08:55:51,a90f1531-13bc-4ccf-8833-5355f6e3a4ce,1,b64e7026-20cc-46d6-9b9e-d18192656391,baca5b53-639c-4f64-91b5-c165fabe49c3
2019-07-21 08:57:31,6e08a0e4-f4d1-4ef9-8b97-278c453f0235,1,b64e7026-20cc-46d6-9b9e-d18192656391,baca5b53-639c-4f64-91b5-c165fabe49c3
2019-07-21 09:04:49,c66fcbc0-edcc-471e-bb6d-c1a385b5d499,1,b64e7026-20cc-46d6-9b9e-d18192656391,30f8548e-cf60-476a-a9b7-14a4ba2ae1c2
2019-07-21 09:04:49,bd4acd75-fc10-40d4-992a-99c94e2e0e7d,1,b64e7026-20cc-46d6-9b9e-d18192656391,30f8548e-cf60-476a-a9b7-14a4ba2ae1c2
2019-07-21 09:13:40,4a517f2d-2125-454d-95cf-49989d3572ee,1,b64e7026-20cc-46d6-9b9e-d18192656391,30d2d5bc-1286-4d67-84bd-450b4457e5ee
2019-07-21 09:13:40,38fe3025-ae89-4680-8485-13d6eff19b76,1,b64e7026-20cc-46d6-9b9e-d18192656391,30d2d5bc-1286-4d67-84bd-450b4457e5ee
2019-07-21 09:15:42,10f5d03f-acbf-4257-9a5a-2fec580452f4,1,b64e7026-20cc-46d6-9b9e-d18192656391,62791ea5-793c-4e0c-8d0d-ba8a3cd708a4
2019-07-21 09:30:31,cc5a1980-175f-4200-bcd2-a74197f9aa79,1,b64e7026-20cc-46d6-9b9e-d18192656391,ce96ffef-901a-4384-921a-87012f85a9d5
2019-07-21 09:30:31,9ccca8ef-6e39-4729-a658-9281c8a6c091,1,b64e7026-20cc-46d6-9b9e-d18192656391,ce96ffef-901a-4384-921a-87012f85a9d5
2019-07-21 09:45:45,4f0a02f0-c422-4260-9e5f-e41521e94e2e,1,b64e7026-20cc-46d6-9b9e-d18192656391,baca5b53-639c-4f64-91b5-c165fabe49c3
2019-07-21 09:45:45,07f2564d-347a-4be4-bb19-6a765e843a04,1,b64e7026-20cc-46d6-9b9e-d18192656391,baca5b53-639c-4f64-91b5-c165fabe49c3
2019-07-21 09:51:56,2efeb8f8-c38e-4f86-a790-0d9f91a98c0e,1,b64e7026-20cc-46d6-9b9e-d18192656391,cf5e66a5-091c-462b-a5ac-c4fa85da0a30
2019-07-21 09:51:56,0ad74135-b7f9-4350-b65c-b4c04b6b775e,1,b64e7026-20cc-46d6-9b9e-d18192656391,cf5e66a5-091c-462b-a5ac-c4fa85da0a30
2019-07-21 10:03:56,6079d3f0-a8c6-4d3d-bbe8-927a6f740487,1,b64e7026-20cc-46d6-9b9e-d18192656391,30f8548e-cf60-476a-a9b7-14a4ba2ae1c2
2019-07-21 10:03:56,dce32b29-9bf5-4d90-b42e-cf41696684d6,1,b64e7026-20cc-46d6-9b9e-d18192656391,30f8548e-cf60-476a-a9b7-14a4ba2ae1c2
2019-07-21 10:04:08,4f0a02f0-c422-4260-9e5f-e41521e94e2e,1,b64e7026-20cc-46d6-9b9e-d18192656391,6c08d55d-ddcb-401d-83ea-042652b1eb23
2019-07-21 10:04:08,07f2564d-347a-4be4-bb19-6a765e843a04,1,b64e7026-20cc-46d6-9b9e-d18192656391,6c08d55d-ddcb-401d-83ea-042652b1eb23
2019-07-21 10:04:20,f4fbbfd5-13bc-412e-975a-f643d7a96cc6,1,b64e7026-20cc-46d6-9b9e-d18192656391,96a02e4d-d2a4-4326-8354-598ef354a6da
2019-07-21 10:04:20,649f9a4e-d271-451f-aa71-161eb26bbd32,1,b64e7026-20cc-46d6-9b9e-d18192656391,96a02e4d-d2a4-4326-8354-598ef354a6da
2019-07-21 08:41:52,0df382a0-ebc5-44e5-82a6-78f87043049a,1,62791ea5-793c-4e0c-8d0d-ba8a3cd708a4,babc1bc4-ea3a-4fbf-ba7b-22860380b305
2019-07-21 08:51:00,23ebd8eb-885a-455e-9ed0-c49accda6442,1,62791ea5-793c-4e0c-8d0d-ba8a3cd708a4,32d5f924-10c6-4198-ae0b-f76d6ef4a284
2019-07-21 08:51:00,733c3760-0453-49dd-9453-a199bd23733d,1,62791ea5-793c-4e0c-8d0d-ba8a3cd708a4,32d5f924-10c6-4198-ae0b-f76d6ef4a284
2019-07-21 08:58:54,590ef9ed-8f00-4071-af3e-2ce0c50b0d2e,1,62791ea5-793c-4e0c-8d0d-ba8a3cd708a4,6c08d55d-ddcb-401d-83ea-042652b1eb23
2019-07-21 08:58:54,33c6b02a-35e1-4000-8ff8-bfa3ce326650,1,62791ea5-793c-4e0c-8d0d-ba8a3cd708a4,6c08d55d-ddcb-401d-83ea-042652b1eb23
2019-07-21 09:15:33,10f5d03f-acbf-4257-9a5a-2fec580452f4,1,62791ea5-793c-4e0c-8d0d-ba8a3cd708a4,b64e7026-20cc-46d6-9b9e-d18192656391
2019-07-21 09:29:02,7397c02c-af48-461b-b344-47741384b044,1,62791ea5-793c-4e0c-8d0d-ba8a3cd708a4,cf5e66a5-091c-462b-a5ac-c4fa85da0a30
2019-07-21 09:29:02,69b05d1c-4be8-49a3-bed3-b52a9b597cb9,1,62791ea5-793c-4e0c-8d0d-ba8a3cd708a4,cf5e66a5-091c-462b-a5ac-c4fa85da0a30
2019-07-21 09:37:07,dce32b29-9bf5-4d90-b42e-cf41696684d6,1,62791ea5-793c-4e0c-8d0d-ba8a3cd708a4,baca5b53-639c-4f64-91b5-c165fabe49c3
2019-07-21 09:49:34,b45fda85-6938-4827-8621-d3abfa3097b4,1,62791ea5-793c-4e0c-8d0d-ba8a3cd708a4,82a889d3-22ac-40f4-8b2d-2a896537bad4
2019-07-21 09:49:34,aed3c026-3fc4-4f27-b7c9-02c4748732a1,1,62791ea5-793c-4e0c-8d0d-ba8a3cd708a4,82a889d3-22ac-40f4-8b2d-2a896537bad4
2019-07-21 09:49:59,f4fbbfd5-13bc-412e-975a-f643d7a96cc6,1,62791ea5-793c-4e0c-8d0d-ba8a3cd708a4,afecf20b-5c1e-4f05-b46f-7adcc3c0ae9b
2019-07-21 09:49:59,649f9a4e-d271-451f-aa71-161eb26bbd32,1,62791ea5-793c-4e0c-8d0d-ba8a3cd708a4,afecf20b-5c1e-4f05-b46f-7adcc3c0ae9b
2019-07-21 09:51:45,2efeb8f8-c38e-4f86-a790-0d9f91a98c0e,1,62791ea5-793c-4e0c-8d0d-ba8a3cd708a4,b64e7026-20cc-46d6-9b9e-d18192656391
2019-07-21 09:51:45,0ad74135-b7f9-4350-b65c-b4c04b6b775e,1,62791ea5-793c-4e0c-8d0d-ba8a3cd708a4,b64e7026-20cc-46d6-9b9e-d18192656391
2019-07-21 09:58:39,07f2564d-347a-4be4-bb19-6a765e843a04,1,62791ea5-793c-4e0c-8d0d-ba8a3cd708a4,ce96ffef-901a-4384-921a-87012f85a9d5
2019-07-21 10:04:53,4f0a02f0-c422-4260-9e5f-e41521e94e2e,1,62791ea5-793c-4e0c-8d0d-ba8a3cd708a4,96a02e4d-d2a4-4326-8354-598ef354a6da
2019-07-21 10:04:53,07f2564d-347a-4be4-bb19-6a765e843a04,1,62791ea5-793c-4e0c-8d0d-ba8a3cd708a4,96a02e4d-d2a4-4326-8354-598ef354a6da
2019-07-21 08:31:37,6079d3f0-a8c6-4d3d-bbe8-927a6f740487,1,babc1bc4-ea3a-4fbf-ba7b-22860380b305,afecf20b-5c1e-4f05-b46f-7adcc3c0ae9b
2019-07-21 08:31:37,dce32b29-9bf5-4d90-b42e-cf41696684d6,1,babc1bc4-ea3a-4fbf-ba7b-22860380b305,afecf20b-5c1e-4f05-b46f-7adcc3c0ae9b
2019-07-21 08:50:54,21aeb5fa-5350-44e2-9387-2ff4f64eec55,1,babc1bc4-ea3a-4fbf-ba7b-22860380b305,96a02e4d-d2a4-4326-8354-598ef354a6da
2019-07-21 08:50:54,dcb8e342-eef9-426f-b338-3ecd6ed7e028,1,babc1bc4-ea3a-4fbf-ba7b-22860380b305,96a02e4d-d2a4-4326-8354-598ef354a6da
2019-07-21 08:51:07,5e8d7902-a758-4999-9e66-a9761b5a12f5,1,babc1bc4-ea3a-4fbf-ba7b-22860380b305,96a02e4d-d2a4-4326-8354-598ef354a6da
2019-07-21 08:51:07,d7fd416e-a49e-4964-b647-9743611ce872,1,babc1bc4-ea3a-4fbf-ba7b-22860380b305,96a02e4d-d2a4-4326-8354-598ef354a6da
2019-07-21 08:58:26,23ebd8eb-885a-455e-9ed0-c49accda6442,1,babc1bc4-ea3a-4fbf-ba7b-22860380b305,ce96ffef-901a-4384-921a-87012f85a9d5
2019-07-21 08:58:26,733c3760-0453-49dd-9453-a199bd23733d,1,babc1bc4-ea3a-4fbf-ba7b-22860380b305,ce96ffef-901a-4384-921a-87012f85a9d5
2019-07-21 09:03:05,ed6faad8-0099-4219-949a-cc39aad61fe6,1,babc1bc4-ea3a-4fbf-ba7b-22860380b305,cf5e66a5-091c-462b-a5ac-c4fa85da0a30
2019-07-21 09:03:05,0df382a0-ebc5-44e5-82a6-78f87043049a,1,babc1bc4-ea3a-4fbf-ba7b-22860380b305,cf5e66a5-091c-462b-a5ac-c4fa85da0a30
2019-07-21 09:05:06,4f0a02f0-c422-4260-9e5f-e41521e94e2e,1,babc1bc4-ea3a-4fbf-ba7b-22860380b305,bcabeb85-a736-447f-8eb3-6ca0588e10a8
2019-07-21 09:05:06,07f2564d-347a-4be4-bb19-6a765e843a04,1,babc1bc4-ea3a-4fbf-ba7b-22860380b305,bcabeb85-a736-447f-8eb3-6ca0588e10a8
2019-07-21 09:07:48,79a318d9-f9ae-4933-8e53-7358b1ed7dd8,1,babc1bc4-ea3a-4fbf-ba7b-22860380b305,96a02e4d-d2a4-4326-8354-598ef354a6da
2019-07-21 09:07:48,18fcd590-7c2a-4282-94cc-e3c61fe6b024,1,babc1bc4-ea3a-4fbf-ba7b-22860380b305,96a02e4d-d2a4-4326-8354-598ef354a6da
2019-07-21 09:17:04,b45fda85-6938-4827-8621-d3abfa3097b4,1,babc1bc4-ea3a-4fbf-ba7b-22860380b305,baca5b53-639c-4f64-91b5-c165fabe49c3
2019-07-21 09:28:15,b45fda85-6938-4827-8621-d3abfa3097b4,1,babc1bc4-ea3a-4fbf-ba7b-22860380b305,cf5e66a5-091c-462b-a5ac-c4fa85da0a30
2019-07-21 09:28:15,aed3c026-3fc4-4f27-b7c9-02c4748732a1,1,babc1bc4-ea3a-4fbf-ba7b-22860380b305,babc1bc4-ea3a-4fbf-ba7b-22860380b305
2019-07-21 09:35:04,f4fbbfd5-13bc-412e-975a-f643d7a96cc6,1,babc1bc4-ea3a-4fbf-ba7b-22860380b305,96a02e4d-d2a4-4326-8354-598ef354a6da
2019-07-21 09:35:04,649f9a4e-d271-451f-aa71-161eb26bbd32,1,babc1bc4-ea3a-4fbf-ba7b-22860380b305,96a02e4d-d2a4-4326-8354-598ef354a6da
2019-07-21 09:36:30,aed3c026-3fc4-4f27-b7c9-02c4748732a1,1,babc1bc4-ea3a-4fbf-ba7b-22860380b305,82a889d3-22ac-40f4-8b2d-2a896537bad4
2019-07-21 09:36:31,23ebd8eb-885a-455e-9ed0-c49accda6442,1,babc1bc4-ea3a-4fbf-ba7b-22860380b305,82a889d3-22ac-40f4-8b2d-2a896537bad4
2019-07-21 09:36:31,733c3760-0453-49dd-9453-a199bd23733d,1,babc1bc4-ea3a-4fbf-ba7b-22860380b305,82a889d3-22ac-40f4-8b2d-2a896537bad4
2019-07-21 09:37:40,6079d3f0-a8c6-4d3d-bbe8-927a6f740487,1,babc1bc4-ea3a-4fbf-ba7b-22860380b305,b64e7026-20cc-46d6-9b9e-d18192656391
2019-07-21 09:37:40,dce32b29-9bf5-4d90-b42e-cf41696684d6,1,babc1bc4-ea3a-4fbf-ba7b-22860380b305,b64e7026-20cc-46d6-9b9e-d18192656391
2019-07-21 09:41:46,733c3760-0453-49dd-9453-a199bd23733d,1,babc1bc4-ea3a-4fbf-ba7b-22860380b305,6c08d55d-ddcb-401d-83ea-042652b1eb23
2019-07-21 09:56:43,69b05d1c-4be8-49a3-bed3-b52a9b597cb9,1,babc1bc4-ea3a-4fbf-ba7b-22860380b305,bcabeb85-a736-447f-8eb3-6ca0588e10a8
2019-07-21 09:57:23,7397c02c-af48-461b-b344-47741384b044,1,babc1bc4-ea3a-4fbf-ba7b-22860380b305,ce96ffef-901a-4384-921a-87012f85a9d5
2019-07-21 09:59:40,21aeb5fa-5350-44e2-9387-2ff4f64eec55,1,babc1bc4-ea3a-4fbf-ba7b-22860380b305,6c08d55d-ddcb-401d-83ea-042652b1eb23
2019-07-21 10:00:14,dcb8e342-eef9-426f-b338-3ecd6ed7e028,1,babc1bc4-ea3a-4fbf-ba7b-22860380b305,bcabeb85-a736-447f-8eb3-6ca0588e10a8
2019-07-21 08:51:37,65c23ec8-9eee-4575-82e4-8018a945b4c9,1,30f8548e-cf60-476a-a9b7-14a4ba2ae1c2,30f8548e-cf60-476a-a9b7-14a4ba2ae1c2
2019-07-21 08:51:37,d2bb5659-4a75-4d08-bb56-de8aba97da02,1,30f8548e-cf60-476a-a9b7-14a4ba2ae1c2,d840282c-003d-4193-be5f-175e012cd6d1
2019-07-21 09:05:28,07f2564d-347a-4be4-bb19-6a765e843a04,1,30f8548e-cf60-476a-a9b7-14a4ba2ae1c2,96a02e4d-d2a4-4326-8354-598ef354a6da
2019-07-21 09:07:09,65c23ec8-9eee-4575-82e4-8018a945b4c9,1,30f8548e-cf60-476a-a9b7-14a4ba2ae1c2,ce96ffef-901a-4384-921a-87012f85a9d5
2019-07-21 09:07:10,4f0a02f0-c422-4260-9e5f-e41521e94e2e,1,30f8548e-cf60-476a-a9b7-14a4ba2ae1c2,ce96ffef-901a-4384-921a-87012f85a9d5
2019-07-21 09:07:10,07f2564d-347a-4be4-bb19-6a765e843a04,1,30f8548e-cf60-476a-a9b7-14a4ba2ae1c2,ce96ffef-901a-4384-921a-87012f85a9d5
2019-07-21 10:04:29,6079d3f0-a8c6-4d3d-bbe8-927a6f740487,1,30f8548e-cf60-476a-a9b7-14a4ba2ae1c2,62791ea5-793c-4e0c-8d0d-ba8a3cd708a4
2019-07-21 10:04:29,dce32b29-9bf5-4d90-b42e-cf41696684d6,1,30f8548e-cf60-476a-a9b7-14a4ba2ae1c2,62791ea5-793c-4e0c-8d0d-ba8a3cd708a4
2019-07-21 08:52:32,c66fcbc0-edcc-471e-bb6d-c1a385b5d499,1,cf5e66a5-091c-462b-a5ac-c4fa85da0a30,96a02e4d-d2a4-4326-8354-598ef354a6da
2019-07-21 08:52:32,bd4acd75-fc10-40d4-992a-99c94e2e0e7d,1,cf5e66a5-091c-462b-a5ac-c4fa85da0a30,96a02e4d-d2a4-4326-8354-598ef354a6da
2019-07-21 09:00:46,6079d3f0-a8c6-4d3d-bbe8-927a6f740487,1,cf5e66a5-091c-462b-a5ac-c4fa85da0a30,30d2d5bc-1286-4d67-84bd-450b4457e5ee
2019-07-21 09:00:46,dce32b29-9bf5-4d90-b42e-cf41696684d6,1,cf5e66a5-091c-462b-a5ac-c4fa85da0a30,30d2d5bc-1286-4d67-84bd-450b4457e5ee
2019-07-21 09:01:12,6079d3f0-a8c6-4d3d-bbe8-927a6f740487,1,cf5e66a5-091c-462b-a5ac-c4fa85da0a30,baca5b53-639c-4f64-91b5-c165fabe49c3
2019-07-21 09:01:12,dce32b29-9bf5-4d90-b42e-cf41696684d6,1,cf5e66a5-091c-462b-a5ac-c4fa85da0a30,baca5b53-639c-4f64-91b5-c165fabe49c3
2019-07-21 09:15:15,cb741bed-dbce-495b-b92f-736c574f2311,1,cf5e66a5-091c-462b-a5ac-c4fa85da0a30,82a889d3-22ac-40f4-8b2d-2a896537bad4
2019-07-21 09:18:08,ed6faad8-0099-4219-949a-cc39aad61fe6,1,cf5e66a5-091c-462b-a5ac-c4fa85da0a30,30d2d5bc-1286-4d67-84bd-450b4457e5ee
2019-07-21 09:18:08,0df382a0-ebc5-44e5-82a6-78f87043049a,1,cf5e66a5-091c-462b-a5ac-c4fa85da0a30,30d2d5bc-1286-4d67-84bd-450b4457e5ee
2019-07-21 09:26:07,0ad74135-b7f9-4350-b65c-b4c04b6b775e,1,cf5e66a5-091c-462b-a5ac-c4fa85da0a30,bcabeb85-a736-447f-8eb3-6ca0588e10a8
2019-07-21 09:26:07,2efeb8f8-c38e-4f86-a790-0d9f91a98c0e,1,cf5e66a5-091c-462b-a5ac-c4fa85da0a30,bcabeb85-a736-447f-8eb3-6ca0588e10a8
2019-07-21 09:31:08,4a517f2d-2125-454d-95cf-49989d3572ee,1,cf5e66a5-091c-462b-a5ac-c4fa85da0a30,ce96ffef-901a-4384-921a-87012f85a9d5
2019-07-21 09:31:09,38fe3025-ae89-4680-8485-13d6eff19b76,1,cf5e66a5-091c-462b-a5ac-c4fa85da0a30,ce96ffef-901a-4384-921a-87012f85a9d5
2019-07-21 09:36:30,b45fda85-6938-4827-8621-d3abfa3097b4,1,cf5e66a5-091c-462b-a5ac-c4fa85da0a30,82a889d3-22ac-40f4-8b2d-2a896537bad4
2019-07-21 09:44:15,7397c02c-af48-461b-b344-47741384b044,1,cf5e66a5-091c-462b-a5ac-c4fa85da0a30,babc1bc4-ea3a-4fbf-ba7b-22860380b305
2019-07-21 09:44:15,69b05d1c-4be8-49a3-bed3-b52a9b597cb9,1,cf5e66a5-091c-462b-a5ac-c4fa85da0a30,babc1bc4-ea3a-4fbf-ba7b-22860380b305
2019-07-21 09:55:40,b45fda85-6938-4827-8621-d3abfa3097b4,1,cf5e66a5-091c-462b-a5ac-c4fa85da0a30,a50a834b-4849-43a7-98b8-53f0bbbc3d81
2019-07-21 09:56:02,aed3c026-3fc4-4f27-b7c9-02c4748732a1,1,cf5e66a5-091c-462b-a5ac-c4fa85da0a30,6c08d55d-ddcb-401d-83ea-042652b1eb23
2019-07-21 09:59:23,21aeb5fa-5350-44e2-9387-2ff4f64eec55,1,cf5e66a5-091c-462b-a5ac-c4fa85da0a30,babc1bc4-ea3a-4fbf-ba7b-22860380b305
2019-07-21 09:59:23,dcb8e342-eef9-426f-b338-3ecd6ed7e028,1,cf5e66a5-091c-462b-a5ac-c4fa85da0a30,babc1bc4-ea3a-4fbf-ba7b-22860380b305
2019-07-21 10:02:30,21aeb5fa-5350-44e2-9387-2ff4f64eec55,1,cf5e66a5-091c-462b-a5ac-c4fa85da0a30,96a02e4d-d2a4-4326-8354-598ef354a6da
2019-07-21 10:02:30,dcb8e342-eef9-426f-b338-3ecd6ed7e028,1,cf5e66a5-091c-462b-a5ac-c4fa85da0a30,96a02e4d-d2a4-4326-8354-598ef354a6da
2019-07-21 08:16:46,69b05d1c-4be8-49a3-bed3-b52a9b597cb9,1,afecf20b-5c1e-4f05-b46f-7adcc3c0ae9b,82a889d3-22ac-40f4-8b2d-2a896537bad4
2019-07-21 08:17:19,dce32b29-9bf5-4d90-b42e-cf41696684d6,1,afecf20b-5c1e-4f05-b46f-7adcc3c0ae9b,30d2d5bc-1286-4d67-84bd-450b4457e5ee
2019-07-21 08:31:45,6079d3f0-a8c6-4d3d-bbe8-927a6f740487,1,afecf20b-5c1e-4f05-b46f-7adcc3c0ae9b,30d2d5bc-1286-4d67-84bd-450b4457e5ee
2019-07-21 08:31:45,dce32b29-9bf5-4d90-b42e-cf41696684d6,1,afecf20b-5c1e-4f05-b46f-7adcc3c0ae9b,30d2d5bc-1286-4d67-84bd-450b4457e5ee
2019-07-21 08:57:21,f4fbbfd5-13bc-412e-975a-f643d7a96cc6,1,afecf20b-5c1e-4f05-b46f-7adcc3c0ae9b,babc1bc4-ea3a-4fbf-ba7b-22860380b305
2019-07-21 08:57:21,649f9a4e-d271-451f-aa71-161eb26bbd32,1,afecf20b-5c1e-4f05-b46f-7adcc3c0ae9b,babc1bc4-ea3a-4fbf-ba7b-22860380b305
2019-07-21 09:07:24,79a318d9-f9ae-4933-8e53-7358b1ed7dd8,1,afecf20b-5c1e-4f05-b46f-7adcc3c0ae9b,babc1bc4-ea3a-4fbf-ba7b-22860380b305
2019-07-21 09:08:34,4a517f2d-2125-454d-95cf-49989d3572ee,1,afecf20b-5c1e-4f05-b46f-7adcc3c0ae9b,b64e7026-20cc-46d6-9b9e-d18192656391
2019-07-21 09:08:34,38fe3025-ae89-4680-8485-13d6eff19b76,1,afecf20b-5c1e-4f05-b46f-7adcc3c0ae9b,b64e7026-20cc-46d6-9b9e-d18192656391
2019-07-21 09:21:21,33c6b02a-35e1-4000-8ff8-bfa3ce326650,1,afecf20b-5c1e-4f05-b46f-7adcc3c0ae9b,bcabeb85-a736-447f-8eb3-6ca0588e10a8
2019-07-21 09:21:21,590ef9ed-8f00-4071-af3e-2ce0c50b0d2e,1,afecf20b-5c1e-4f05-b46f-7adcc3c0ae9b,bcabeb85-a736-447f-8eb3-6ca0588e10a8
2019-07-21 09:24:34,21aeb5fa-5350-44e2-9387-2ff4f64eec55,1,afecf20b-5c1e-4f05-b46f-7adcc3c0ae9b,d840282c-003d-4193-be5f-175e012cd6d1
2019-07-21 09:24:34,dcb8e342-eef9-426f-b338-3ecd6ed7e028,1,afecf20b-5c1e-4f05-b46f-7adcc3c0ae9b,d840282c-003d-4193-be5f-175e012cd6d1
2019-07-21 09:50:10,f4fbbfd5-13bc-412e-975a-f643d7a96cc6,1,afecf20b-5c1e-4f05-b46f-7adcc3c0ae9b,b64e7026-20cc-46d6-9b9e-d18192656391
2019-07-21 09:50:10,649f9a4e-d271-451f-aa71-161eb26bbd32,1,afecf20b-5c1e-4f05-b46f-7adcc3c0ae9b,b64e7026-20cc-46d6-9b9e-d18192656391
2019-07-21 08:16:44,d2bb5659-4a75-4d08-bb56-de8aba97da02,1,6c08d55d-ddcb-401d-83ea-042652b1eb23,ce96ffef-901a-4384-921a-87012f85a9d5
2019-07-21 08:18:20,6e08a0e4-f4d1-4ef9-8b97-278c453f0235,1,6c08d55d-ddcb-401d-83ea-042652b1eb23,32d5f924-10c6-4198-ae0b-f76d6ef4a284
2019-07-21 08:18:20,a90f1531-13bc-4ccf-8833-5355f6e3a4ce,1,6c08d55d-ddcb-401d-83ea-042652b1eb23,32d5f924-10c6-4198-ae0b-f76d6ef4a284
2019-07-21 08:24:08,590ef9ed-8f00-4071-af3e-2ce0c50b0d2e,1,6c08d55d-ddcb-401d-83ea-042652b1eb23,62791ea5-793c-4e0c-8d0d-ba8a3cd708a4
2019-07-21 08:24:08,33c6b02a-35e1-4000-8ff8-bfa3ce326650,1,6c08d55d-ddcb-401d-83ea-042652b1eb23,62791ea5-793c-4e0c-8d0d-ba8a3cd708a4
2019-07-21 08:28:51,6079d3f0-a8c6-4d3d-bbe8-927a6f740487,1,6c08d55d-ddcb-401d-83ea-042652b1eb23,30d2d5bc-1286-4d67-84bd-450b4457e5ee
2019-07-21 08:28:51,dce32b29-9bf5-4d90-b42e-cf41696684d6,1,6c08d55d-ddcb-401d-83ea-042652b1eb23,32d5f924-10c6-4198-ae0b-f76d6ef4a284
2019-07-21 08:41:52,ed6faad8-0099-4219-949a-cc39aad61fe6,1,6c08d55d-ddcb-401d-83ea-042652b1eb23,babc1bc4-ea3a-4fbf-ba7b-22860380b305
2019-07-21 08:44:44,e833a4a4-d117-459a-8bb7-ebbbefa73d81,1,6c08d55d-ddcb-401d-83ea-042652b1eb23,d840282c-003d-4193-be5f-175e012cd6d1
2019-07-21 08:44:44,116bd966-f349-47de-beec-68b381b4f9de,1,6c08d55d-ddcb-401d-83ea-042652b1eb23,d840282c-003d-4193-be5f-175e012cd6d1
2019-07-21 08:47:21,f4fbbfd5-13bc-412e-975a-f643d7a96cc6,1,6c08d55d-ddcb-401d-83ea-042652b1eb23,afecf20b-5c1e-4f05-b46f-7adcc3c0ae9b
2019-07-21 08:47:21,649f9a4e-d271-451f-aa71-161eb26bbd32,1,6c08d55d-ddcb-401d-83ea-042652b1eb23,afecf20b-5c1e-4f05-b46f-7adcc3c0ae9b
2019-07-21 08:59:03,590ef9ed-8f00-4071-af3e-2ce0c50b0d2e,1,6c08d55d-ddcb-401d-83ea-042652b1eb23,baca5b53-639c-4f64-91b5-c165fabe49c3
2019-07-21 08:59:03,33c6b02a-35e1-4000-8ff8-bfa3ce326650,1,6c08d55d-ddcb-401d-83ea-042652b1eb23,baca5b53-639c-4f64-91b5-c165fabe49c3
2019-07-21 09:07:24,18fcd590-7c2a-4282-94cc-e3c61fe6b024,1,6c08d55d-ddcb-401d-83ea-042652b1eb23,babc1bc4-ea3a-4fbf-ba7b-22860380b305
2019-07-21 09:36:40,6079d3f0-a8c6-4d3d-bbe8-927a6f740487,1,6c08d55d-ddcb-401d-83ea-042652b1eb23,d840282c-003d-4193-be5f-175e012cd6d1
2019-07-21 09:36:40,dce32b29-9bf5-4d90-b42e-cf41696684d6,1,6c08d55d-ddcb-401d-83ea-042652b1eb23,d840282c-003d-4193-be5f-175e012cd6d1
2019-07-21 09:45:35,4f0a02f0-c422-4260-9e5f-e41521e94e2e,1,6c08d55d-ddcb-401d-83ea-042652b1eb23,b64e7026-20cc-46d6-9b9e-d18192656391
2019-07-21 09:45:35,07f2564d-347a-4be4-bb19-6a765e843a04,1,6c08d55d-ddcb-401d-83ea-042652b1eb23,b64e7026-20cc-46d6-9b9e-d18192656391
2019-07-21 09:51:31,2efeb8f8-c38e-4f86-a790-0d9f91a98c0e,1,6c08d55d-ddcb-401d-83ea-042652b1eb23,62791ea5-793c-4e0c-8d0d-ba8a3cd708a4
2019-07-21 09:51:31,0ad74135-b7f9-4350-b65c-b4c04b6b775e,1,6c08d55d-ddcb-401d-83ea-042652b1eb23,62791ea5-793c-4e0c-8d0d-ba8a3cd708a4
2019-07-21 09:56:09,07f2564d-347a-4be4-bb19-6a765e843a04,1,6c08d55d-ddcb-401d-83ea-042652b1eb23,82a889d3-22ac-40f4-8b2d-2a896537bad4
2019-07-21 09:58:39,4f0a02f0-c422-4260-9e5f-e41521e94e2e,1,6c08d55d-ddcb-401d-83ea-042652b1eb23,ce96ffef-901a-4384-921a-87012f85a9d5
2019-07-21 09:59:53,21aeb5fa-5350-44e2-9387-2ff4f64eec55,1,6c08d55d-ddcb-401d-83ea-042652b1eb23,96a02e4d-d2a4-4326-8354-598ef354a6da
2019-07-21 10:04:30,4f0a02f0-c422-4260-9e5f-e41521e94e2e,1,6c08d55d-ddcb-401d-83ea-042652b1eb23,62791ea5-793c-4e0c-8d0d-ba8a3cd708a4
2019-07-21 10:04:30,07f2564d-347a-4be4-bb19-6a765e843a04,1,6c08d55d-ddcb-401d-83ea-042652b1eb23,62791ea5-793c-4e0c-8d0d-ba8a3cd708a4
2019-07-21 10:05:08,23ebd8eb-885a-455e-9ed0-c49accda6442,1,6c08d55d-ddcb-401d-83ea-042652b1eb23,ce96ffef-901a-4384-921a-87012f85a9d5
2019-07-21 10:05:08,733c3760-0453-49dd-9453-a199bd23733d,1,6c08d55d-ddcb-401d-83ea-042652b1eb23,ce96ffef-901a-4384-921a-87012f85a9d5
2019-07-21 08:29:15,6079d3f0-a8c6-4d3d-bbe8-927a6f740487,1,82a889d3-22ac-40f4-8b2d-2a896537bad4,b64e7026-20cc-46d6-9b9e-d18192656391
2019-07-21 08:29:15,dce32b29-9bf5-4d90-b42e-cf41696684d6,1,82a889d3-22ac-40f4-8b2d-2a896537bad4,b64e7026-20cc-46d6-9b9e-d18192656391
2019-07-21 08:46:43,7397c02c-af48-461b-b344-47741384b044,1,82a889d3-22ac-40f4-8b2d-2a896537bad4,62791ea5-793c-4e0c-8d0d-ba8a3cd708a4
2019-07-21 08:46:43,69b05d1c-4be8-49a3-bed3-b52a9b597cb9,1,82a889d3-22ac-40f4-8b2d-2a896537bad4,62791ea5-793c-4e0c-8d0d-ba8a3cd708a4
2019-07-21 08:55:06,6e08a0e4-f4d1-4ef9-8b97-278c453f0235,1,82a889d3-22ac-40f4-8b2d-2a896537bad4,ce96ffef-901a-4384-921a-87012f85a9d5
2019-07-21 08:55:06,a90f1531-13bc-4ccf-8833-5355f6e3a4ce,1,82a889d3-22ac-40f4-8b2d-2a896537bad4,ce96ffef-901a-4384-921a-87012f85a9d5
2019-07-21 09:15:25,10f5d03f-acbf-4257-9a5a-2fec580452f4,1,82a889d3-22ac-40f4-8b2d-2a896537bad4,62791ea5-793c-4e0c-8d0d-ba8a3cd708a4
2019-07-21 09:15:42,cb741bed-dbce-495b-b92f-736c574f2311,1,82a889d3-22ac-40f4-8b2d-2a896537bad4,62791ea5-793c-4e0c-8d0d-ba8a3cd708a4
2019-07-21 09:18:58,79a318d9-f9ae-4933-8e53-7358b1ed7dd8,1,82a889d3-22ac-40f4-8b2d-2a896537bad4,bcabeb85-a736-447f-8eb3-6ca0588e10a8
2019-07-21 09:18:58,18fcd590-7c2a-4282-94cc-e3c61fe6b024,1,82a889d3-22ac-40f4-8b2d-2a896537bad4,bcabeb85-a736-447f-8eb3-6ca0588e10a8
2019-07-21 09:36:41,b45fda85-6938-4827-8621-d3abfa3097b4,1,82a889d3-22ac-40f4-8b2d-2a896537bad4,d840282c-003d-4193-be5f-175e012cd6d1
2019-07-21 09:36:41,aed3c026-3fc4-4f27-b7c9-02c4748732a1,1,82a889d3-22ac-40f4-8b2d-2a896537bad4,d840282c-003d-4193-be5f-175e012cd6d1
2019-07-21 09:39:38,23ebd8eb-885a-455e-9ed0-c49accda6442,1,82a889d3-22ac-40f4-8b2d-2a896537bad4,96a02e4d-d2a4-4326-8354-598ef354a6da
2019-07-21 09:39:38,733c3760-0453-49dd-9453-a199bd23733d,1,82a889d3-22ac-40f4-8b2d-2a896537bad4,96a02e4d-d2a4-4326-8354-598ef354a6da
2019-07-21 09:46:10,590ef9ed-8f00-4071-af3e-2ce0c50b0d2e,1,82a889d3-22ac-40f4-8b2d-2a896537bad4,32d5f924-10c6-4198-ae0b-f76d6ef4a284
2019-07-21 09:46:10,33c6b02a-35e1-4000-8ff8-bfa3ce326650,1,82a889d3-22ac-40f4-8b2d-2a896537bad4,82a889d3-22ac-40f4-8b2d-2a896537bad4
2019-07-21 09:46:19,33c6b02a-35e1-4000-8ff8-bfa3ce326650,1,82a889d3-22ac-40f4-8b2d-2a896537bad4,96a02e4d-d2a4-4326-8354-598ef354a6da
2019-07-21 09:52:29,b45fda85-6938-4827-8621-d3abfa3097b4,1,82a889d3-22ac-40f4-8b2d-2a896537bad4,bcabeb85-a736-447f-8eb3-6ca0588e10a8
2019-07-21 09:52:29,aed3c026-3fc4-4f27-b7c9-02c4748732a1,1,82a889d3-22ac-40f4-8b2d-2a896537bad4,bcabeb85-a736-447f-8eb3-6ca0588e10a8
2019-07-21 09:56:27,07f2564d-347a-4be4-bb19-6a765e843a04,1,82a889d3-22ac-40f4-8b2d-2a896537bad4,bcabeb85-a736-447f-8eb3-6ca0588e10a8
2019-07-21 10:01:14,21aeb5fa-5350-44e2-9387-2ff4f64eec55,1,82a889d3-22ac-40f4-8b2d-2a896537bad4,bcabeb85-a736-447f-8eb3-6ca0588e10a8
2019-07-21 08:18:10,a90f1531-13bc-4ccf-8833-5355f6e3a4ce,1,d840282c-003d-4193-be5f-175e012cd6d1,6c08d55d-ddcb-401d-83ea-042652b1eb23
2019-07-21 08:35:32,4a517f2d-2125-454d-95cf-49989d3572ee,1,d840282c-003d-4193-be5f-175e012cd6d1,96a02e4d-d2a4-4326-8354-598ef354a6da
2019-07-21 08:35:32,38fe3025-ae89-4680-8485-13d6eff19b76,1,d840282c-003d-4193-be5f-175e012cd6d1,96a02e4d-d2a4-4326-8354-598ef354a6da
2019-07-21 08:55:00,e833a4a4-d117-459a-8bb7-ebbbefa73d81,1,d840282c-003d-4193-be5f-175e012cd6d1,ce96ffef-901a-4384-921a-87012f85a9d5
2019-07-21 08:55:00,116bd966-f349-47de-beec-68b381b4f9de,1,d840282c-003d-4193-be5f-175e012cd6d1,ce96ffef-901a-4384-921a-87012f85a9d5
2019-07-21 09:04:22,7c40cb4c-3e5f-4c55-9fee-80761afc4a1f,1,d840282c-003d-4193-be5f-175e012cd6d1,96a02e4d-d2a4-4326-8354-598ef354a6da
2019-07-21 09:04:22,f44e0fe8-085b-4c8e-9e0b-fd116371650b,1,d840282c-003d-4193-be5f-175e012cd6d1,96a02e4d-d2a4-4326-8354-598ef354a6da
2019-07-21 09:07:09,d2bb5659-4a75-4d08-bb56-de8aba97da02,1,d840282c-003d-4193-be5f-175e012cd6d1,ce96ffef-901a-4384-921a-87012f85a9d5
2019-07-21 09:13:38,2efeb8f8-c38e-4f86-a790-0d9f91a98c0e,1,d840282c-003d-4193-be5f-175e012cd6d1,cf5e66a5-091c-462b-a5ac-c4fa85da0a30
2019-07-21 09:13:38,0ad74135-b7f9-4350-b65c-b4c04b6b775e,1,d840282c-003d-4193-be5f-175e012cd6d1,cf5e66a5-091c-462b-a5ac-c4fa85da0a30
2019-07-21 09:21:12,33c6b02a-35e1-4000-8ff8-bfa3ce326650,1,d840282c-003d-4193-be5f-175e012cd6d1,afecf20b-5c1e-4f05-b46f-7adcc3c0ae9b
2019-07-21 09:21:12,590ef9ed-8f00-4071-af3e-2ce0c50b0d2e,1,d840282c-003d-4193-be5f-175e012cd6d1,afecf20b-5c1e-4f05-b46f-7adcc3c0ae9b
2019-07-21 09:24:42,21aeb5fa-5350-44e2-9387-2ff4f64eec55,1,d840282c-003d-4193-be5f-175e012cd6d1,cf5e66a5-091c-462b-a5ac-c4fa85da0a30
2019-07-21 09:24:42,dcb8e342-eef9-426f-b338-3ecd6ed7e028,1,d840282c-003d-4193-be5f-175e012cd6d1,cf5e66a5-091c-462b-a5ac-c4fa85da0a30
2019-07-21 09:36:54,dce32b29-9bf5-4d90-b42e-cf41696684d6,1,d840282c-003d-4193-be5f-175e012cd6d1,62791ea5-793c-4e0c-8d0d-ba8a3cd708a4
2019-07-21 09:37:32,6079d3f0-a8c6-4d3d-bbe8-927a6f740487,1,d840282c-003d-4193-be5f-175e012cd6d1,babc1bc4-ea3a-4fbf-ba7b-22860380b305
2019-07-21 09:49:06,b45fda85-6938-4827-8621-d3abfa3097b4,1,d840282c-003d-4193-be5f-175e012cd6d1,62791ea5-793c-4e0c-8d0d-ba8a3cd708a4
2019-07-21 09:49:07,aed3c026-3fc4-4f27-b7c9-02c4748732a1,1,d840282c-003d-4193-be5f-175e012cd6d1,62791ea5-793c-4e0c-8d0d-ba8a3cd708a4
2019-07-21 09:56:00,07f2564d-347a-4be4-bb19-6a765e843a04,1,d840282c-003d-4193-be5f-175e012cd6d1,6c08d55d-ddcb-401d-83ea-042652b1eb23
2019-07-21 10:02:21,21aeb5fa-5350-44e2-9387-2ff4f64eec55,1,d840282c-003d-4193-be5f-175e012cd6d1,cf5e66a5-091c-462b-a5ac-c4fa85da0a30
2019-07-21 08:51:03,21aeb5fa-5350-44e2-9387-2ff4f64eec55,1,96a02e4d-d2a4-4326-8354-598ef354a6da,30d2d5bc-1286-4d67-84bd-450b4457e5ee
2019-07-21 08:51:03,dcb8e342-eef9-426f-b338-3ecd6ed7e028,1,96a02e4d-d2a4-4326-8354-598ef354a6da,30d2d5bc-1286-4d67-84bd-450b4457e5ee
2019-07-21 08:51:29,65c23ec8-9eee-4575-82e4-8018a945b4c9,1,96a02e4d-d2a4-4326-8354-598ef354a6da,30f8548e-cf60-476a-a9b7-14a4ba2ae1c2
2019-07-21 08:51:29,d2bb5659-4a75-4d08-bb56-de8aba97da02,1,96a02e4d-d2a4-4326-8354-598ef354a6da,30f8548e-cf60-476a-a9b7-14a4ba2ae1c2
2019-07-21 08:52:44,c66fcbc0-edcc-471e-bb6d-c1a385b5d499,1,96a02e4d-d2a4-4326-8354-598ef354a6da,b64e7026-20cc-46d6-9b9e-d18192656391
2019-07-21 08:52:44,bd4acd75-fc10-40d4-992a-99c94e2e0e7d,1,96a02e4d-d2a4-4326-8354-598ef354a6da,b64e7026-20cc-46d6-9b9e-d18192656391
2019-07-21 08:55:07,5e8d7902-a758-4999-9e66-a9761b5a12f5,1,96a02e4d-d2a4-4326-8354-598ef354a6da,ce96ffef-901a-4384-921a-87012f85a9d5
2019-07-21 08:55:07,d7fd416e-a49e-4964-b647-9743611ce872,1,96a02e4d-d2a4-4326-8354-598ef354a6da,ce96ffef-901a-4384-921a-87012f85a9d5
2019-07-21 08:57:54,23ebd8eb-885a-455e-9ed0-c49accda6442,1,96a02e4d-d2a4-4326-8354-598ef354a6da,babc1bc4-ea3a-4fbf-ba7b-22860380b305
2019-07-21 08:57:54,733c3760-0453-49dd-9453-a199bd23733d,1,96a02e4d-d2a4-4326-8354-598ef354a6da,babc1bc4-ea3a-4fbf-ba7b-22860380b305
2019-07-21 09:04:36,7c40cb4c-3e5f-4c55-9fee-80761afc4a1f,1,96a02e4d-d2a4-4326-8354-598ef354a6da,bcabeb85-a736-447f-8eb3-6ca0588e10a8
2019-07-21 09:04:36,f44e0fe8-085b-4c8e-9e0b-fd116371650b,1,96a02e4d-d2a4-4326-8354-598ef354a6da,bcabeb85-a736-447f-8eb3-6ca0588e10a8
2019-07-21 09:05:36,07f2564d-347a-4be4-bb19-6a765e843a04,1,96a02e4d-d2a4-4326-8354-598ef354a6da,30f8548e-cf60-476a-a9b7-14a4ba2ae1c2
2019-07-21 09:07:59,79a318d9-f9ae-4933-8e53-7358b1ed7dd8,1,96a02e4d-d2a4-4326-8354-598ef354a6da,82a889d3-22ac-40f4-8b2d-2a896537bad4
2019-07-21 09:07:59,18fcd590-7c2a-4282-94cc-e3c61fe6b024,1,96a02e4d-d2a4-4326-8354-598ef354a6da,82a889d3-22ac-40f4-8b2d-2a896537bad4
2019-07-21 09:08:25,4a517f2d-2125-454d-95cf-49989d3572ee,1,96a02e4d-d2a4-4326-8354-598ef354a6da,afecf20b-5c1e-4f05-b46f-7adcc3c0ae9b
2019-07-21 09:08:25,38fe3025-ae89-4680-8485-13d6eff19b76,1,96a02e4d-d2a4-4326-8354-598ef354a6da,afecf20b-5c1e-4f05-b46f-7adcc3c0ae9b
2019-07-21 09:37:32,dce32b29-9bf5-4d90-b42e-cf41696684d6,1,96a02e4d-d2a4-4326-8354-598ef354a6da,babc1bc4-ea3a-4fbf-ba7b-22860380b305
2019-07-21 09:39:48,23ebd8eb-885a-455e-9ed0-c49accda6442,1,96a02e4d-d2a4-4326-8354-598ef354a6da,96a02e4d-d2a4-4326-8354-598ef354a6da
2019-07-21 09:39:48,733c3760-0453-49dd-9453-a199bd23733d,1,96a02e4d-d2a4-4326-8354-598ef354a6da,babc1bc4-ea3a-4fbf-ba7b-22860380b305
2019-07-21 09:41:46,23ebd8eb-885a-455e-9ed0-c49accda6442,1,96a02e4d-d2a4-4326-8354-598ef354a6da,6c08d55d-ddcb-401d-83ea-042652b1eb23
2019-07-21 09:49:46,f4fbbfd5-13bc-412e-975a-f643d7a96cc6,1,96a02e4d-d2a4-4326-8354-598ef354a6da,62791ea5-793c-4e0c-8d0d-ba8a3cd708a4
2019-07-21 09:49:46,649f9a4e-d271-451f-aa71-161eb26bbd32,1,96a02e4d-d2a4-4326-8354-598ef354a6da,62791ea5-793c-4e0c-8d0d-ba8a3cd708a4
2019-07-21 10:00:05,21aeb5fa-5350-44e2-9387-2ff4f64eec55,1,96a02e4d-d2a4-4326-8354-598ef354a6da,32d5f924-10c6-4198-ae0b-f76d6ef4a284
2019-07-21 10:04:28,f4fbbfd5-13bc-412e-975a-f643d7a96cc6,1,96a02e4d-d2a4-4326-8354-598ef354a6da,62791ea5-793c-4e0c-8d0d-ba8a3cd708a4
2019-07-21 10:04:28,649f9a4e-d271-451f-aa71-161eb26bbd32,1,96a02e4d-d2a4-4326-8354-598ef354a6da,62791ea5-793c-4e0c-8d0d-ba8a3cd708a4
2019-07-21 10:05:03,4f0a02f0-c422-4260-9e5f-e41521e94e2e,1,96a02e4d-d2a4-4326-8354-598ef354a6da,ce96ffef-901a-4384-921a-87012f85a9d5
2019-07-21 10:05:03,07f2564d-347a-4be4-bb19-6a765e843a04,1,96a02e4d-d2a4-4326-8354-598ef354a6da,ce96ffef-901a-4384-921a-87012f85a9d5
2019-07-21 10:05:29,23ebd8eb-885a-455e-9ed0-c49accda6442,1,96a02e4d-d2a4-4326-8354-598ef354a6da,82a889d3-22ac-40f4-8b2d-2a896537bad4
2019-07-21 10:05:29,733c3760-0453-49dd-9453-a199bd23733d,1,96a02e4d-d2a4-4326-8354-598ef354a6da,82a889d3-22ac-40f4-8b2d-2a896537bad4
2019-07-21 08:43:44,21aeb5fa-5350-44e2-9387-2ff4f64eec55,1,baca5b53-639c-4f64-91b5-c165fabe49c3,bcabeb85-a736-447f-8eb3-6ca0588e10a8
2019-07-21 08:50:59,65c23ec8-9eee-4575-82e4-8018a945b4c9,1,baca5b53-639c-4f64-91b5-c165fabe49c3,32d5f924-10c6-4198-ae0b-f76d6ef4a284
2019-07-21 08:50:59,d2bb5659-4a75-4d08-bb56-de8aba97da02,1,baca5b53-639c-4f64-91b5-c165fabe49c3,32d5f924-10c6-4198-ae0b-f76d6ef4a284
2019-07-21 08:55:26,6e08a0e4-f4d1-4ef9-8b97-278c453f0235,1,baca5b53-639c-4f64-91b5-c165fabe49c3,bcabeb85-a736-447f-8eb3-6ca0588e10a8
2019-07-21 08:55:26,a90f1531-13bc-4ccf-8833-5355f6e3a4ce,1,baca5b53-639c-4f64-91b5-c165fabe49c3,bcabeb85-a736-447f-8eb3-6ca0588e10a8
2019-07-21 08:57:31,a90f1531-13bc-4ccf-8833-5355f6e3a4ce,1,baca5b53-639c-4f64-91b5-c165fabe49c3,ce96ffef-901a-4384-921a-87012f85a9d5
2019-07-21 08:59:11,590ef9ed-8f00-4071-af3e-2ce0c50b0d2e,1,baca5b53-639c-4f64-91b5-c165fabe49c3,d840282c-003d-4193-be5f-175e012cd6d1
2019-07-21 08:59:11,33c6b02a-35e1-4000-8ff8-bfa3ce326650,1,baca5b53-639c-4f64-91b5-c165fabe49c3,d840282c-003d-4193-be5f-175e012cd6d1
2019-07-21 09:03:24,6079d3f0-a8c6-4d3d-bbe8-927a6f740487,1,baca5b53-639c-4f64-91b5-c165fabe49c3,6c08d55d-ddcb-401d-83ea-042652b1eb23
2019-07-21 09:03:24,dce32b29-9bf5-4d90-b42e-cf41696684d6,1,baca5b53-639c-4f64-91b5-c165fabe49c3,6c08d55d-ddcb-401d-83ea-042652b1eb23
2019-07-21 09:26:13,4a517f2d-2125-454d-95cf-49989d3572ee,1,baca5b53-639c-4f64-91b5-c165fabe49c3,bcabeb85-a736-447f-8eb3-6ca0588e10a8
2019-07-21 09:26:13,38fe3025-ae89-4680-8485-13d6eff19b76,1,baca5b53-639c-4f64-91b5-c165fabe49c3,bcabeb85-a736-447f-8eb3-6ca0588e10a8
2019-07-21 09:27:25,b45fda85-6938-4827-8621-d3abfa3097b4,1,baca5b53-639c-4f64-91b5-c165fabe49c3,bcabeb85-a736-447f-8eb3-6ca0588e10a8
2019-07-21 09:27:25,aed3c026-3fc4-4f27-b7c9-02c4748732a1,1,baca5b53-639c-4f64-91b5-c165fabe49c3,bcabeb85-a736-447f-8eb3-6ca0588e10a8
2019-07-21 09:37:21,dce32b29-9bf5-4d90-b42e-cf41696684d6,1,baca5b53-639c-4f64-91b5-c165fabe49c3,96a02e4d-d2a4-4326-8354-598ef354a6da
2019-07-21 09:46:00,590ef9ed-8f00-4071-af3e-2ce0c50b0d2e,1,baca5b53-639c-4f64-91b5-c165fabe49c3,82a889d3-22ac-40f4-8b2d-2a896537bad4
2019-07-21 09:46:00,33c6b02a-35e1-4000-8ff8-bfa3ce326650,1,baca5b53-639c-4f64-91b5-c165fabe49c3,82a889d3-22ac-40f4-8b2d-2a896537bad4
2019-07-21 09:55:33,07f2564d-347a-4be4-bb19-6a765e843a04,1,baca5b53-639c-4f64-91b5-c165fabe49c3,bcabeb85-a736-447f-8eb3-6ca0588e10a8
2019-07-21 09:56:00,4f0a02f0-c422-4260-9e5f-e41521e94e2e,1,baca5b53-639c-4f64-91b5-c165fabe49c3,6c08d55d-ddcb-401d-83ea-042652b1eb23
2019-07-21 10:02:06,74653b38-682a-4067-9219-a5d58fd5def9,1,baca5b53-639c-4f64-91b5-c165fabe49c3,bcabeb85-a736-447f-8eb3-6ca0588e10a8
2019-07-21 10:02:06,9e5b32a9-0cc4-42d1-9e29-b6b41f6bcbfd,1,baca5b53-639c-4f64-91b5-c165fabe49c3,bcabeb85-a736-447f-8eb3-6ca0588e10a8
2019-07-21 08:18:10,6e08a0e4-f4d1-4ef9-8b97-278c453f0235,1,30d2d5bc-1286-4d67-84bd-450b4457e5ee,6c08d55d-ddcb-401d-83ea-042652b1eb23
2019-07-21 08:18:11,6079d3f0-a8c6-4d3d-bbe8-927a6f740487,1,30d2d5bc-1286-4d67-84bd-450b4457e5ee,6c08d55d-ddcb-401d-83ea-042652b1eb23
2019-07-21 08:18:11,dce32b29-9bf5-4d90-b42e-cf41696684d6,1,30d2d5bc-1286-4d67-84bd-450b4457e5ee,6c08d55d-ddcb-401d-83ea-042652b1eb23
2019-07-21 08:28:58,6079d3f0-a8c6-4d3d-bbe8-927a6f740487,1,30d2d5bc-1286-4d67-84bd-450b4457e5ee,82a889d3-22ac-40f4-8b2d-2a896537bad4
2019-07-21 08:36:55,a5a8883a-43df-48d1-bff4-88e908bdc54b,1,30d2d5bc-1286-4d67-84bd-450b4457e5ee,6c08d55d-ddcb-401d-83ea-042652b1eb23
2019-07-21 08:36:55,883939d5-0e6f-477d-9ba1-44b349388b0f,1,30d2d5bc-1286-4d67-84bd-450b4457e5ee,6c08d55d-ddcb-401d-83ea-042652b1eb23
2019-07-21 09:00:36,6079d3f0-a8c6-4d3d-bbe8-927a6f740487,1,30d2d5bc-1286-4d67-84bd-450b4457e5ee,cf5e66a5-091c-462b-a5ac-c4fa85da0a30
2019-07-21 09:00:36,dce32b29-9bf5-4d90-b42e-cf41696684d6,1,30d2d5bc-1286-4d67-84bd-450b4457e5ee,cf5e66a5-091c-462b-a5ac-c4fa85da0a30
2019-07-21 09:01:02,6079d3f0-a8c6-4d3d-bbe8-927a6f740487,1,30d2d5bc-1286-4d67-84bd-450b4457e5ee,cf5e66a5-091c-462b-a5ac-c4fa85da0a30
2019-07-21 09:01:02,dce32b29-9bf5-4d90-b42e-cf41696684d6,1,30d2d5bc-1286-4d67-84bd-450b4457e5ee,cf5e66a5-091c-462b-a5ac-c4fa85da0a30
2019-07-21 09:19:32,4a517f2d-2125-454d-95cf-49989d3572ee,1,30d2d5bc-1286-4d67-84bd-450b4457e5ee,bcabeb85-a736-447f-8eb3-6ca0588e10a8
2019-07-21 09:19:32,38fe3025-ae89-4680-8485-13d6eff19b76,1,30d2d5bc-1286-4d67-84bd-450b4457e5ee,bcabeb85-a736-447f-8eb3-6ca0588e10a8
2019-07-21 09:21:04,21aeb5fa-5350-44e2-9387-2ff4f64eec55,1,30d2d5bc-1286-4d67-84bd-450b4457e5ee,afecf20b-5c1e-4f05-b46f-7adcc3c0ae9b
2019-07-21 09:21:05,dcb8e342-eef9-426f-b338-3ecd6ed7e028,1,30d2d5bc-1286-4d67-84bd-450b4457e5ee,afecf20b-5c1e-4f05-b46f-7adcc3c0ae9b
2019-07-21 09:54:12,cc5a1980-175f-4200-bcd2-a74197f9aa79,1,30d2d5bc-1286-4d67-84bd-450b4457e5ee,baca5b53-639c-4f64-91b5-c165fabe49c3
2019-07-21 09:54:12,9ccca8ef-6e39-4729-a658-9281c8a6c091,1,30d2d5bc-1286-4d67-84bd-450b4457e5ee,baca5b53-639c-4f64-91b5-c165fabe49c3
2019-07-21 08:28:58,dce32b29-9bf5-4d90-b42e-cf41696684d6,1,32d5f924-10c6-4198-ae0b-f76d6ef4a284,82a889d3-22ac-40f4-8b2d-2a896537bad4
2019-07-21 08:51:16,65c23ec8-9eee-4575-82e4-8018a945b4c9,1,32d5f924-10c6-4198-ae0b-f76d6ef4a284,96a02e4d-d2a4-4326-8354-598ef354a6da
2019-07-21 08:51:16,d2bb5659-4a75-4d08-bb56-de8aba97da02,1,32d5f924-10c6-4198-ae0b-f76d6ef4a284,96a02e4d-d2a4-4326-8354-598ef354a6da
2019-07-21 08:52:27,23ebd8eb-885a-455e-9ed0-c49accda6442,1,32d5f924-10c6-4198-ae0b-f76d6ef4a284,96a02e4d-d2a4-4326-8354-598ef354a6da
2019-07-21 08:52:27,733c3760-0453-49dd-9453-a199bd23733d,1,32d5f924-10c6-4198-ae0b-f76d6ef4a284,96a02e4d-d2a4-4326-8354-598ef354a6da
2019-07-21 08:53:49,6e08a0e4-f4d1-4ef9-8b97-278c453f0235,1,32d5f924-10c6-4198-ae0b-f76d6ef4a284,82a889d3-22ac-40f4-8b2d-2a896537bad4
2019-07-21 08:53:49,a90f1531-13bc-4ccf-8833-5355f6e3a4ce,1,32d5f924-10c6-4198-ae0b-f76d6ef4a284,82a889d3-22ac-40f4-8b2d-2a896537bad4
2019-07-21 09:04:12,2efeb8f8-c38e-4f86-a790-0d9f91a98c0e,1,32d5f924-10c6-4198-ae0b-f76d6ef4a284,bcabeb85-a736-447f-8eb3-6ca0588e10a8
2019-07-21 09:04:12,0ad74135-b7f9-4350-b65c-b4c04b6b775e,1,32d5f924-10c6-4198-ae0b-f76d6ef4a284,bcabeb85-a736-447f-8eb3-6ca0588e10a8
2019-07-21 09:15:14,10f5d03f-acbf-4257-9a5a-2fec580452f4,1,32d5f924-10c6-4198-ae0b-f76d6ef4a284,82a889d3-22ac-40f4-8b2d-2a896537bad4
2019-07-21 09:46:19,590ef9ed-8f00-4071-af3e-2ce0c50b0d2e,1,32d5f924-10c6-4198-ae0b-f76d6ef4a284,96a02e4d-d2a4-4326-8354-598ef354a6da
2019-07-21 10:00:14,21aeb5fa-5350-44e2-9387-2ff4f64eec55,1,32d5f924-10c6-4198-ae0b-f76d6ef4a284,bcabeb85-a736-447f-8eb3-6ca0588e10a8
2019-07-21 10:01:04,21aeb5fa-5350-44e2-9387-2ff4f64eec55,1,32d5f924-10c6-4198-ae0b-f76d6ef4a284,82a889d3-22ac-40f4-8b2d-2a896537bad4
2019-07-21 10:01:25,dcb8e342-eef9-426f-b338-3ecd6ed7e028,1,32d5f924-10c6-4198-ae0b-f76d6ef4a284,bcabeb85-a736-447f-8eb3-6ca0588e10a8
2019-07-21 10:02:09,21aeb5fa-5350-44e2-9387-2ff4f64eec55,1,32d5f924-10c6-4198-ae0b-f76d6ef4a284,d840282c-003d-4193-be5f-175e012cd6d1
2019-07-21 10:02:21,dcb8e342-eef9-426f-b338-3ecd6ed7e028,1,32d5f924-10c6-4198-ae0b-f76d6ef4a284,cf5e66a5-091c-462b-a5ac-c4fa85da0a30
2019-07-21 09:36:40,7e90cf8a-ff6a-485b-9859-cafd0e82664f,1,23f2a238-02d4-44e5-a742-294750558ab4,23f2a238-02d4-44e5-a742-294750558ab4
2019-07-21 09:36:54,7e90cf8a-ff6a-485b-9859-cafd0e82664f,1,23f2a238-02d4-44e5-a742-294750558ab4,23f2a238-02d4-44e5-a742-294750558ab4
2019-07-21 09:37:07,7e90cf8a-ff6a-485b-9859-cafd0e82664f,1,23f2a238-02d4-44e5-a742-294750558ab4,23f2a238-02d4-44e5-a742-294750558ab4
2019-07-21 09:37:21,7e90cf8a-ff6a-485b-9859-cafd0e82664f,1,23f2a238-02d4-44e5-a742-294750558ab4,23f2a238-02d4-44e5-a742-294750558ab4
2019-07-21 09:37:32,7e90cf8a-ff6a-485b-9859-cafd0e82664f,1,23f2a238-02d4-44e5-a742-294750558ab4,23f2a238-02d4-44e5-a742-294750558ab4
2019-07-21 09:37:40,7e90cf8a-ff6a-485b-9859-cafd0e82664f,1,23f2a238-02d4-44e5-a742-294750558ab4,23f2a238-02d4-44e5-a742-294750558ab4
2019-07-21 10:03:56,7e90cf8a-ff6a-485b-9859-cafd0e82664f,1,23f2a238-02d4-44e5-a742-294750558ab4,23f2a238-02d4-44e5-a742-294750558ab4
2019-07-21 09:21:12,dbb573ad-f230-46ed-af24-dbe6f5d2fcde,1,59587e11-3ed1-48ac-81b3-81c1825afdb3,59587e11-3ed1-48ac-81b3-81c1825afdb3
2019-07-21 09:21:21,dbb573ad-f230-46ed-af24-dbe6f5d2fcde,1,59587e11-3ed1-48ac-81b3-81c1825afdb3,59587e11-3ed1-48ac-81b3-81c1825afdb3
2019-07-21 09:08:25,b666a259-aa5e-4155-b923-6a545271e8f9,1,69d20fd6-f1a4-4a0c-a07b-ccd6b78c1459,69d20fd6-f1a4-4a0c-a07b-ccd6b78c1459
2019-07-21 09:08:34,b666a259-aa5e-4155-b923-6a545271e8f9,1,69d20fd6-f1a4-4a0c-a07b-ccd6b78c1459,69d20fd6-f1a4-4a0c-a07b-ccd6b78c1459
2019-07-21 09:19:31,b666a259-aa5e-4155-b923-6a545271e8f9,1,69d20fd6-f1a4-4a0c-a07b-ccd6b78c1459,69d20fd6-f1a4-4a0c-a07b-ccd6b78c1459
2019-07-21 09:19:42,b666a259-aa5e-4155-b923-6a545271e8f9,1,69d20fd6-f1a4-4a0c-a07b-ccd6b78c1459,69d20fd6-f1a4-4a0c-a07b-ccd6b78c1459
2019-07-21 09:30:49,b666a259-aa5e-4155-b923-6a545271e8f9,1,69d20fd6-f1a4-4a0c-a07b-ccd6b78c1459,69d20fd6-f1a4-4a0c-a07b-ccd6b78c1459
2019-07-21 09:30:57,b666a259-aa5e-4155-b923-6a545271e8f9,1,69d20fd6-f1a4-4a0c-a07b-ccd6b78c1459,69d20fd6-f1a4-4a0c-a07b-ccd6b78c1459
2019-07-21 09:31:09,b666a259-aa5e-4155-b923-6a545271e8f9,1,69d20fd6-f1a4-4a0c-a07b-ccd6b78c1459,69d20fd6-f1a4-4a0c-a07b-ccd6b78c1459
2019-07-21 09:07:24,97d74301-8123-4f8a-bf4c-97829c2a1997,1,a39809c5-3594-4e57-a5e7-efa4038f5f0b,a39809c5-3594-4e57-a5e7-efa4038f5f0b
2019-07-21 09:07:48,97d74301-8123-4f8a-bf4c-97829c2a1997,1,a39809c5-3594-4e57-a5e7-efa4038f5f0b,a39809c5-3594-4e57-a5e7-efa4038f5f0b
2019-07-21 09:07:59,97d74301-8123-4f8a-bf4c-97829c2a1997,1,a39809c5-3594-4e57-a5e7-efa4038f5f0b,a39809c5-3594-4e57-a5e7-efa4038f5f0b
2019-07-21 09:18:58,97d74301-8123-4f8a-bf4c-97829c2a1997,1,a39809c5-3594-4e57-a5e7-efa4038f5f0b,a39809c5-3594-4e57-a5e7-efa4038f5f0b
2019-07-21 09:19:07,97d74301-8123-4f8a-bf4c-97829c2a1997,1,a39809c5-3594-4e57-a5e7-efa4038f5f0b,a39809c5-3594-4e57-a5e7-efa4038f5f0b
2019-07-21 09:57:23,69b05d1c-4be8-49a3-bed3-b52a9b597cb9,1,83e0268f-4f6c-4407-9beb-402c88577a69,ce96ffef-901a-4384-921a-87012f85a9d5
2019-07-21 08:41:52,198164ff-8f5b-456e-9e22-bc885258d460,1,5c33b7ef-f3f4-4ab1-85fb-a634a4ac96d8,5c33b7ef-f3f4-4ab1-85fb-a634a4ac96d8
2019-07-21 09:03:05,198164ff-8f5b-456e-9e22-bc885258d460,1,5c33b7ef-f3f4-4ab1-85fb-a634a4ac96d8,5c33b7ef-f3f4-4ab1-85fb-a634a4ac96d8
2019-07-21 08:18:09,442a799e-9da2-4f8d-b435-3af1da81d522,1,ee4cc8a1-98a1-4684-bd8b-5d6344065945,ee4cc8a1-98a1-4684-bd8b-5d6344065945
2019-07-21 08:18:20,442a799e-9da2-4f8d-b435-3af1da81d522,1,ee4cc8a1-98a1-4684-bd8b-5d6344065945,ee4cc8a1-98a1-4684-bd8b-5d6344065945
2019-07-21 08:43:44,4f477258-a251-4534-92ba-54f8e10ba919,1,5edb7ee8-6544-4453-b00a-80ee1553c096,5edb7ee8-6544-4453-b00a-80ee1553c096
2019-07-21 09:21:04,4f477258-a251-4534-92ba-54f8e10ba919,1,5edb7ee8-6544-4453-b00a-80ee1553c096,5edb7ee8-6544-4453-b00a-80ee1553c096
2019-07-21 08:57:21,6a589ea3-9908-4230-a3e7-84abc9d68ec4,1,9ef96fac-67b2-4812-b434-6df56cf27701,9ef96fac-67b2-4812-b434-6df56cf27701
2019-07-21 09:35:03,6a589ea3-9908-4230-a3e7-84abc9d68ec4,1,9ef96fac-67b2-4812-b434-6df56cf27701,9ef96fac-67b2-4812-b434-6df56cf27701
2019-07-21 09:49:45,6a589ea3-9908-4230-a3e7-84abc9d68ec4,1,9ef96fac-67b2-4812-b434-6df56cf27701,9ef96fac-67b2-4812-b434-6df56cf27701
2019-07-21 09:49:59,6a589ea3-9908-4230-a3e7-84abc9d68ec4,1,9ef96fac-67b2-4812-b434-6df56cf27701,9ef96fac-67b2-4812-b434-6df56cf27701
2019-07-21 09:50:10,6a589ea3-9908-4230-a3e7-84abc9d68ec4,1,9ef96fac-67b2-4812-b434-6df56cf27701,9ef96fac-67b2-4812-b434-6df56cf27701
2019-07-21 10:04:20,6a589ea3-9908-4230-a3e7-84abc9d68ec4,1,9ef96fac-67b2-4812-b434-6df56cf27701,9ef96fac-67b2-4812-b434-6df56cf27701
2019-07-21 10:04:28,6a589ea3-9908-4230-a3e7-84abc9d68ec4,1,9ef96fac-67b2-4812-b434-6df56cf27701,9ef96fac-67b2-4812-b434-6df56cf27701
2019-07-21 08:16:46,95529963-3acd-4127-b105-db05df7fb551,1,a50a834b-4849-43a7-98b8-53f0bbbc3d81,a50a834b-4849-43a7-98b8-53f0bbbc3d81
2019-07-21 08:46:42,95529963-3acd-4127-b105-db05df7fb551,1,a50a834b-4849-43a7-98b8-53f0bbbc3d81,a50a834b-4849-43a7-98b8-53f0bbbc3d81
2019-07-21 09:44:15,95529963-3acd-4127-b105-db05df7fb551,1,a50a834b-4849-43a7-98b8-53f0bbbc3d81,a50a834b-4849-43a7-98b8-53f0bbbc3d81
2019-07-21 09:56:01,b45fda85-6938-4827-8621-d3abfa3097b4,1,a50a834b-4849-43a7-98b8-53f0bbbc3d81,6c08d55d-ddcb-401d-83ea-042652b1eb23
2019-07-21 08:44:44,94dc2daa-6507-4ee6-8764-fc303a8c5c24,1,871c8334-4039-4465-b729-1119befdcb26,871c8334-4039-4465-b729-1119befdcb26
2019-07-21 08:51:00,ff222fda-5b45-4a03-9488-f8c44c771558,1,1fdc52ea-026b-46c5-ac87-6085ac010972,1fdc52ea-026b-46c5-ac87-6085ac010972
2019-07-21 09:31:29,ff222fda-5b45-4a03-9488-f8c44c771558,1,1fdc52ea-026b-46c5-ac87-6085ac010972,1fdc52ea-026b-46c5-ac87-6085ac010972
2019-07-21 10:05:08,ff222fda-5b45-4a03-9488-f8c44c771558,1,1fdc52ea-026b-46c5-ac87-6085ac010972,1fdc52ea-026b-46c5-ac87-6085ac010972
2019-07-21 10:05:20,ff222fda-5b45-4a03-9488-f8c44c771558,1,1fdc52ea-026b-46c5-ac87-6085ac010972,1fdc52ea-026b-46c5-ac87-6085ac010972
2019-07-21 10:05:29,ff222fda-5b45-4a03-9488-f8c44c771558,1,1fdc52ea-026b-46c5-ac87-6085ac010972,1fdc52ea-026b-46c5-ac87-6085ac010972
2019-07-21 10:05:41,ff222fda-5b45-4a03-9488-f8c44c771558,1,1fdc52ea-026b-46c5-ac87-6085ac010972,1fdc52ea-026b-46c5-ac87-6085ac010972
2019-07-21 09:04:56,3bc44907-2a55-4e1c-b6a0-ab188179ac40,1,ff555b6f-ddec-4a20-863c-17fe853da037,ff555b6f-ddec-4a20-863c-17fe853da037
2019-07-21 09:05:06,3bc44907-2a55-4e1c-b6a0-ab188179ac40,1,ff555b6f-ddec-4a20-863c-17fe853da037,ff555b6f-ddec-4a20-863c-17fe853da037
2019-07-21 09:05:16,3bc44907-2a55-4e1c-b6a0-ab188179ac40,1,ff555b6f-ddec-4a20-863c-17fe853da037,ff555b6f-ddec-4a20-863c-17fe853da037
2019-07-21 09:05:28,3bc44907-2a55-4e1c-b6a0-ab188179ac40,1,ff555b6f-ddec-4a20-863c-17fe853da037,ff555b6f-ddec-4a20-863c-17fe853da037
2019-07-21 09:05:36,3bc44907-2a55-4e1c-b6a0-ab188179ac40,1,ff555b6f-ddec-4a20-863c-17fe853da037,ff555b6f-ddec-4a20-863c-17fe853da037
2019-07-21 09:43:51,3bc44907-2a55-4e1c-b6a0-ab188179ac40,1,ff555b6f-ddec-4a20-863c-17fe853da037,ff555b6f-ddec-4a20-863c-17fe853da037
2019-07-21 09:55:33,3bc44907-2a55-4e1c-b6a0-ab188179ac40,1,ff555b6f-ddec-4a20-863c-17fe853da037,ff555b6f-ddec-4a20-863c-17fe853da037
2019-07-21 09:55:46,3bc44907-2a55-4e1c-b6a0-ab188179ac40,1,ff555b6f-ddec-4a20-863c-17fe853da037,ff555b6f-ddec-4a20-863c-17fe853da037
2019-07-21 09:56:00,3bc44907-2a55-4e1c-b6a0-ab188179ac40,1,ff555b6f-ddec-4a20-863c-17fe853da037,ff555b6f-ddec-4a20-863c-17fe853da037
2019-07-21 09:56:09,3bc44907-2a55-4e1c-b6a0-ab188179ac40,1,ff555b6f-ddec-4a20-863c-17fe853da037,ff555b6f-ddec-4a20-863c-17fe853da037
2019-07-21 10:04:08,3bc44907-2a55-4e1c-b6a0-ab188179ac40,1,ff555b6f-ddec-4a20-863c-17fe853da037,ff555b6f-ddec-4a20-863c-17fe853da037
2019-07-21 10:04:30,3bc44907-2a55-4e1c-b6a0-ab188179ac40,1,ff555b6f-ddec-4a20-863c-17fe853da037,ff555b6f-ddec-4a20-863c-17fe853da037
2019-07-21 10:04:53,3bc44907-2a55-4e1c-b6a0-ab188179ac40,1,ff555b6f-ddec-4a20-863c-17fe853da037,ff555b6f-ddec-4a20-863c-17fe853da037
2019-07-21 10:05:03,3bc44907-2a55-4e1c-b6a0-ab188179ac40,1,ff555b6f-ddec-4a20-863c-17fe853da037,ff555b6f-ddec-4a20-863c-17fe853da037
2019-07-21 09:54:12,8e47f7cc-55cb-4522-8825-45f6eff987ea,1,a5f51636-28ee-4c09-8349-8b3259b6d0ba,a5f51636-28ee-4c09-8349-8b3259b6d0ba
2019-07-21 10:07:52,4bdb6e3e-1e78-4410-8ce1-203bed19f02b,1,5c4ac6e5-8651-4c21-b0fd-b6b24c11e451,5c4ac6e5-8651-4c21-b0fd-b6b24c11e451
2019-07-21 10:08:10,4bdb6e3e-1e78-4410-8ce1-203bed19f02b,1,5c4ac6e5-8651-4c21-b0fd-b6b24c11e451,5c4ac6e5-8651-4c21-b0fd-b6b24c11e451
2019-07-21 10:08:24,4bdb6e3e-1e78-4410-8ce1-203bed19f02b,1,5c4ac6e5-8651-4c21-b0fd-b6b24c11e451,5c4ac6e5-8651-4c21-b0fd-b6b24c11e451
2019-07-21 08:52:32,c44dbbd5-182c-40a7-9589-bda3b3ed3e48,1,e6b29ff3-a913-40b9-a006-a6af873b0ed9,e6b29ff3-a913-40b9-a006-a6af873b0ed9
2019-07-21 08:52:44,c44dbbd5-182c-40a7-9589-bda3b3ed3e48,1,e6b29ff3-a913-40b9-a006-a6af873b0ed9,e6b29ff3-a913-40b9-a006-a6af873b0ed9
2019-07-21 09:04:49,c44dbbd5-182c-40a7-9589-bda3b3ed3e48,1,e6b29ff3-a913-40b9-a006-a6af873b0ed9,e6b29ff3-a913-40b9-a006-a6af873b0ed9
2019-07-21 10:07:28,c44dbbd5-182c-40a7-9589-bda3b3ed3e48,1,e6b29ff3-a913-40b9-a006-a6af873b0ed9,e6b29ff3-a913-40b9-a006-a6af873b0ed9
2019-07-21 08:16:44,143b4d5d-f4ac-45e2-a5d3-820a1942d22f,1,a905fc78-3379-4906-b276-f0cd6da6f4e6,a905fc78-3379-4906-b276-f0cd6da6f4e6
2019-07-21 08:49:01,143b4d5d-f4ac-45e2-a5d3-820a1942d22f,1,a905fc78-3379-4906-b276-f0cd6da6f4e6,a905fc78-3379-4906-b276-f0cd6da6f4e6
2019-07-21 09:07:09,143b4d5d-f4ac-45e2-a5d3-820a1942d22f,1,a905fc78-3379-4906-b276-f0cd6da6f4e6,a905fc78-3379-4906-b276-f0cd6da6f4e6
2019-07-21 09:04:09,072f31bd-e572-4cc9-b159-560538dcc780,1,736ca8b3-bbfb-44ef-9a3d-8cac56aada22,736ca8b3-bbfb-44ef-9a3d-8cac56aada22
2019-07-21 09:04:22,072f31bd-e572-4cc9-b159-560538dcc780,1,736ca8b3-bbfb-44ef-9a3d-8cac56aada22,736ca8b3-bbfb-44ef-9a3d-8cac56aada22
2019-07-21 08:36:55,31b23a67-7fb4-4af7-bf13-1c4b6b782294,1,0c9af223-5da7-4346-a5e5-9b418f35e343,0c9af223-5da7-4346-a5e5-9b418f35e343
2019-07-21 09:10:41,e077300d-7908-4583-8c5a-06ebe9e45a15,1,c123bcbc-ba7c-4b0e-824e-d778e6a74a2f,c123bcbc-ba7c-4b0e-824e-d778e6a74a2f
2019-07-21 09:26:07,e077300d-7908-4583-8c5a-06ebe9e45a15,1,c123bcbc-ba7c-4b0e-824e-d778e6a74a2f,c123bcbc-ba7c-4b0e-824e-d778e6a74a2f
2019-07-21 09:26:14,e077300d-7908-4583-8c5a-06ebe9e45a15,1,c123bcbc-ba7c-4b0e-824e-d778e6a74a2f,c123bcbc-ba7c-4b0e-824e-d778e6a74a2f
2019-07-21 08:51:07,a94c1998-db21-45fb-a543-757723f12722,1,78459ac6-a50a-4666-929d-da713b766c33,78459ac6-a50a-4666-929d-da713b766c33
2019-07-21 08:55:07,a94c1998-db21-45fb-a543-757723f12722,1,78459ac6-a50a-4666-929d-da713b766c33,78459ac6-a50a-4666-929d-da713b766c33
2019-07-21 08:55:29,a94c1998-db21-45fb-a543-757723f12722,1,78459ac6-a50a-4666-929d-da713b766c33,78459ac6-a50a-4666-929d-da713b766c33
2019-07-21 10:02:12,a94c1998-db21-45fb-a543-757723f12722,1,78459ac6-a50a-4666-929d-da713b766c33,78459ac6-a50a-4666-929d-da713b766c33
2019-07-21 09:15:15,c72ecb8d-511f-4000-b172-ea8002b18782,1,b4ed2950-41bb-4072-96be-41f3462eeb83,b4ed2950-41bb-4072-96be-41f3462eeb83
2019-07-21 09:15:25,c72ecb8d-511f-4000-b172-ea8002b18782,1,b4ed2950-41bb-4072-96be-41f3462eeb83,b4ed2950-41bb-4072-96be-41f3462eeb83
2019-07-21 09:15:33,c72ecb8d-511f-4000-b172-ea8002b18782,1,b4ed2950-41bb-4072-96be-41f3462eeb83,b4ed2950-41bb-4072-96be-41f3462eeb83
2019-07-21 09:27:25,354cf832-32a7-41ef-b4d2-5ae4f7e15af2,1,0039d546-45ae-4847-9c8b-31507405dc27,0039d546-45ae-4847-9c8b-31507405dc27
2019-07-21 09:36:30,354cf832-32a7-41ef-b4d2-5ae4f7e15af2,1,0039d546-45ae-4847-9c8b-31507405dc27,0039d546-45ae-4847-9c8b-31507405dc27
2019-07-21 09:36:41,354cf832-32a7-41ef-b4d2-5ae4f7e15af2,1,0039d546-45ae-4847-9c8b-31507405dc27,0039d546-45ae-4847-9c8b-31507405dc27
2019-07-21 09:49:06,354cf832-32a7-41ef-b4d2-5ae4f7e15af2,1,0039d546-45ae-4847-9c8b-31507405dc27,0039d546-45ae-4847-9c8b-31507405dc27
2019-07-21 09:49:34,354cf832-32a7-41ef-b4d2-5ae4f7e15af2,1,0039d546-45ae-4847-9c8b-31507405dc27,0039d546-45ae-4847-9c8b-31507405dc27
2019-07-21 10:08:05,631c8bd2-3b89-485a-8842-5299177c0b8d,1,22c2b2c8-153a-4232-9112-e76adebefaa1,22c2b2c8-153a-4232-9112-e76adebefaa1
2019-07-21 08:17:19,7e90cf8a-ff6a-485b-9859-cafd0e82664f,0,NA,NA
2019-07-21 08:18:11,7e90cf8a-ff6a-485b-9859-cafd0e82664f,0,NA,NA
2019-07-21 08:24:08,dbb573ad-f230-46ed-af24-dbe6f5d2fcde,0,NA,NA
2019-07-21 08:28:51,7e90cf8a-ff6a-485b-9859-cafd0e82664f,0,NA,NA
2019-07-21 08:28:58,7e90cf8a-ff6a-485b-9859-cafd0e82664f,0,NA,NA
2019-07-21 08:29:15,7e90cf8a-ff6a-485b-9859-cafd0e82664f,0,NA,NA
2019-07-21 08:31:27,7e90cf8a-ff6a-485b-9859-cafd0e82664f,0,NA,NA
2019-07-21 08:31:37,7e90cf8a-ff6a-485b-9859-cafd0e82664f,0,NA,NA
2019-07-21 08:31:45,7e90cf8a-ff6a-485b-9859-cafd0e82664f,0,NA,NA
2019-07-21 08:35:32,b666a259-aa5e-4155-b923-6a545271e8f9,0,NA,NA
2019-07-21 08:47:21,6a589ea3-9908-4230-a3e7-84abc9d68ec4,0,NA,NA
2019-07-21 08:50:39,4f477258-a251-4534-92ba-54f8e10ba919,0,NA,NA
2019-07-21 08:50:54,4f477258-a251-4534-92ba-54f8e10ba919,0,NA,NA
2019-07-21 08:50:59,143b4d5d-f4ac-45e2-a5d3-820a1942d22f,0,NA,NA
2019-07-21 08:51:03,4f477258-a251-4534-92ba-54f8e10ba919,0,NA,NA
2019-07-21 08:51:16,143b4d5d-f4ac-45e2-a5d3-820a1942d22f,0,NA,NA
2019-07-21 08:51:29,143b4d5d-f4ac-45e2-a5d3-820a1942d22f,0,NA,NA
2019-07-21 08:51:37,143b4d5d-f4ac-45e2-a5d3-820a1942d22f,0,NA,NA
2019-07-21 08:52:27,ff222fda-5b45-4a03-9488-f8c44c771558,0,NA,NA
2019-07-21 08:53:48,442a799e-9da2-4f8d-b435-3af1da81d522,0,NA,NA
2019-07-21 08:55:00,94dc2daa-6507-4ee6-8764-fc303a8c5c24,0,NA,NA
2019-07-21 08:55:05,442a799e-9da2-4f8d-b435-3af1da81d522,0,NA,NA
2019-07-21 08:55:19,442a799e-9da2-4f8d-b435-3af1da81d522,0,NA,NA
2019-07-21 08:55:26,442a799e-9da2-4f8d-b435-3af1da81d522,0,NA,NA
2019-07-21 08:55:41,442a799e-9da2-4f8d-b435-3af1da81d522,0,NA,NA
2019-07-21 08:55:51,442a799e-9da2-4f8d-b435-3af1da81d522,0,NA,NA
2019-07-21 08:57:31,442a799e-9da2-4f8d-b435-3af1da81d522,0,NA,NA
2019-07-21 08:57:54,ff222fda-5b45-4a03-9488-f8c44c771558,0,NA,NA
2019-07-21 08:58:26,ff222fda-5b45-4a03-9488-f8c44c771558,0,NA,NA
2019-07-21 08:58:54,dbb573ad-f230-46ed-af24-dbe6f5d2fcde,0,NA,NA
2019-07-21 08:59:02,dbb573ad-f230-46ed-af24-dbe6f5d2fcde,0,NA,NA
2019-07-21 08:59:11,dbb573ad-f230-46ed-af24-dbe6f5d2fcde,0,NA,NA
2019-07-21 09:00:36,7e90cf8a-ff6a-485b-9859-cafd0e82664f,0,NA,NA
2019-07-21 09:00:46,7e90cf8a-ff6a-485b-9859-cafd0e82664f,0,NA,NA
2019-07-21 09:01:01,7e90cf8a-ff6a-485b-9859-cafd0e82664f,0,NA,NA
2019-07-21 09:01:12,7e90cf8a-ff6a-485b-9859-cafd0e82664f,0,NA,NA
2019-07-21 09:03:24,7e90cf8a-ff6a-485b-9859-cafd0e82664f,0,NA,NA
2019-07-21 09:04:12,e077300d-7908-4583-8c5a-06ebe9e45a15,0,NA,NA
2019-07-21 09:04:20,94dc2daa-6507-4ee6-8764-fc303a8c5c24,0,NA,NA
2019-07-21 09:04:36,072f31bd-e572-4cc9-b159-560538dcc780,0,NA,NA
2019-07-21 09:05:16,4f0a02f0-c422-4260-9e5f-e41521e94e2e,0,NA,NA
2019-07-21 09:05:36,4f0a02f0-c422-4260-9e5f-e41521e94e2e,0,NA,NA
2019-07-21 09:07:10,3bc44907-2a55-4e1c-b6a0-ab188179ac40,0,NA,NA
2019-07-21 09:13:37,e077300d-7908-4583-8c5a-06ebe9e45a15,0,NA,NA
2019-07-21 09:13:40,b666a259-aa5e-4155-b923-6a545271e8f9,0,NA,NA
2019-07-21 09:15:25,cb741bed-dbce-495b-b92f-736c574f2311,0,NA,NA
2019-07-21 09:15:29,aed3c026-3fc4-4f27-b7c9-02c4748732a1,0,NA,NA
2019-07-21 09:15:29,354cf832-32a7-41ef-b4d2-5ae4f7e15af2,0,NA,NA
2019-07-21 09:15:33,cb741bed-dbce-495b-b92f-736c574f2311,0,NA,NA
2019-07-21 09:15:42,c72ecb8d-511f-4000-b172-ea8002b18782,0,NA,NA
2019-07-21 09:17:04,354cf832-32a7-41ef-b4d2-5ae4f7e15af2,0,NA,NA
2019-07-21 09:18:08,198164ff-8f5b-456e-9e22-bc885258d460,0,NA,NA
2019-07-21 09:24:34,4f477258-a251-4534-92ba-54f8e10ba919,0,NA,NA
2019-07-21 09:24:42,4f477258-a251-4534-92ba-54f8e10ba919,0,NA,NA
2019-07-21 09:26:13,b666a259-aa5e-4155-b923-6a545271e8f9,0,NA,NA
2019-07-21 09:28:06,354cf832-32a7-41ef-b4d2-5ae4f7e15af2,0,NA,NA
2019-07-21 09:28:15,354cf832-32a7-41ef-b4d2-5ae4f7e15af2,0,NA,NA
2019-07-21 09:29:02,95529963-3acd-4127-b105-db05df7fb551,0,NA,NA
2019-07-21 09:30:31,8e47f7cc-55cb-4522-8825-45f6eff987ea,0,NA,NA
2019-07-21 09:30:42,8e47f7cc-55cb-4522-8825-45f6eff987ea,0,NA,NA
2019-07-21 09:36:30,ff222fda-5b45-4a03-9488-f8c44c771558,0,NA,NA
2019-07-21 09:36:54,6079d3f0-a8c6-4d3d-bbe8-927a6f740487,0,NA,NA
2019-07-21 09:37:07,6079d3f0-a8c6-4d3d-bbe8-927a6f740487,0,NA,NA
2019-07-21 09:37:21,6079d3f0-a8c6-4d3d-bbe8-927a6f740487,0,NA,NA
2019-07-21 09:39:38,ff222fda-5b45-4a03-9488-f8c44c771558,0,NA,NA
2019-07-21 09:39:48,ff222fda-5b45-4a03-9488-f8c44c771558,0,NA,NA
2019-07-21 09:41:07,072f31bd-e572-4cc9-b159-560538dcc780,0,NA,NA
2019-07-21 09:41:45,ff222fda-5b45-4a03-9488-f8c44c771558,0,NA,NA
2019-07-21 09:45:35,3bc44907-2a55-4e1c-b6a0-ab188179ac40,0,NA,NA
2019-07-21 09:45:45,3bc44907-2a55-4e1c-b6a0-ab188179ac40,0,NA,NA
2019-07-21 09:45:47,dbb573ad-f230-46ed-af24-dbe6f5d2fcde,0,NA,NA
2019-07-21 09:46:00,dbb573ad-f230-46ed-af24-dbe6f5d2fcde,0,NA,NA
2019-07-21 09:46:10,dbb573ad-f230-46ed-af24-dbe6f5d2fcde,0,NA,NA
2019-07-21 09:46:19,dbb573ad-f230-46ed-af24-dbe6f5d2fcde,0,NA,NA
2019-07-21 09:51:31,e077300d-7908-4583-8c5a-06ebe9e45a15,0,NA,NA
2019-07-21 09:51:45,e077300d-7908-4583-8c5a-06ebe9e45a15,0,NA,NA
2019-07-21 09:51:56,e077300d-7908-4583-8c5a-06ebe9e45a15,0,NA,NA
2019-07-21 09:52:29,354cf832-32a7-41ef-b4d2-5ae4f7e15af2,0,NA,NA
2019-07-21 09:55:26,354cf832-32a7-41ef-b4d2-5ae4f7e15af2,0,NA,NA
2019-07-21 09:55:32,4f0a02f0-c422-4260-9e5f-e41521e94e2e,0,NA,NA
2019-07-21 09:55:40,aed3c026-3fc4-4f27-b7c9-02c4748732a1,0,NA,NA
2019-07-21 09:55:40,354cf832-32a7-41ef-b4d2-5ae4f7e15af2,0,NA,NA
2019-07-21 09:55:46,4f0a02f0-c422-4260-9e5f-e41521e94e2e,0,NA,NA
2019-07-21 09:56:01,354cf832-32a7-41ef-b4d2-5ae4f7e15af2,0,NA,NA
2019-07-21 09:56:08,4f0a02f0-c422-4260-9e5f-e41521e94e2e,0,NA,NA
2019-07-21 09:56:27,3bc44907-2a55-4e1c-b6a0-ab188179ac40,0,NA,NA
2019-07-21 09:56:27,4f0a02f0-c422-4260-9e5f-e41521e94e2e,0,NA,NA
2019-07-21 09:56:41,3bc44907-2a55-4e1c-b6a0-ab188179ac40,0,NA,NA
2019-07-21 09:56:41,4f0a02f0-c422-4260-9e5f-e41521e94e2e,0,NA,NA
2019-07-21 09:56:43,7397c02c-af48-461b-b344-47741384b044,0,NA,NA
2019-07-21 09:56:43,95529963-3acd-4127-b105-db05df7fb551,0,NA,NA
2019-07-21 09:56:51,7397c02c-af48-461b-b344-47741384b044,0,NA,NA
2019-07-21 09:56:51,95529963-3acd-4127-b105-db05df7fb551,0,NA,NA
2019-07-21 09:57:23,95529963-3acd-4127-b105-db05df7fb551,0,NA,NA
2019-07-21 09:58:39,3bc44907-2a55-4e1c-b6a0-ab188179ac40,0,NA,NA
2019-07-21 09:58:55,3bc44907-2a55-4e1c-b6a0-ab188179ac40,0,NA,NA
2019-07-21 09:59:22,4f477258-a251-4534-92ba-54f8e10ba919,0,NA,NA
2019-07-21 09:59:39,4f477258-a251-4534-92ba-54f8e10ba919,0,NA,NA
2019-07-21 09:59:39,dcb8e342-eef9-426f-b338-3ecd6ed7e028,0,NA,NA
2019-07-21 09:59:53,4f477258-a251-4534-92ba-54f8e10ba919,0,NA,NA
2019-07-21 09:59:53,dcb8e342-eef9-426f-b338-3ecd6ed7e028,0,NA,NA
2019-07-21 10:00:05,4f477258-a251-4534-92ba-54f8e10ba919,0,NA,NA
2019-07-21 10:00:05,dcb8e342-eef9-426f-b338-3ecd6ed7e028,0,NA,NA
2019-07-21 10:00:14,4f477258-a251-4534-92ba-54f8e10ba919,0,NA,NA
2019-07-21 10:00:56,4f477258-a251-4534-92ba-54f8e10ba919,0,NA,NA
2019-07-21 10:01:04,4f477258-a251-4534-92ba-54f8e10ba919,0,NA,NA
2019-07-21 10:01:14,4f477258-a251-4534-92ba-54f8e10ba919,0,NA,NA
2019-07-21 10:01:14,dcb8e342-eef9-426f-b338-3ecd6ed7e028,0,NA,NA
2019-07-21 10:01:25,4f477258-a251-4534-92ba-54f8e10ba919,0,NA,NA
2019-07-21 10:02:05,0724323c-87d7-4a19-a6ba-b06b46be5da0,0,NA,NA
2019-07-21 10:02:09,4f477258-a251-4534-92ba-54f8e10ba919,0,NA,NA
2019-07-21 10:02:21,4f477258-a251-4534-92ba-54f8e10ba919,0,NA,NA
2019-07-21 10:02:29,4f477258-a251-4534-92ba-54f8e10ba919,0,NA,NA
2019-07-21 10:04:29,7e90cf8a-ff6a-485b-9859-cafd0e82664f,0,NA,NA
