actor,node
28c2b908-a4de-42f3-824a-0ee6dee56e6c,eb7293c6-600a-4ee6-ba2c-8a877e521cff
8a05717d-6a16-4f34-a281-de7b3920286d,ea67f23e-efed-4967-9220-7df1f5cb2e7c
cadf9cb4-01c3-4174-a010-15d1e09986f2,eb7293c6-600a-4ee6-ba2c-8a877e521cff
130bac5f-53cc-4e01-819b-325487088542,ca1f888e-358b-4950-9f36-f8e158822238
ca34e3c3-ed85-44b6-b9e7-a0426e1c5335,ca1f888e-358b-4950-9f36-f8e158822238
88ebe75b-ab63-4a78-9034-b2e26b1ffb89,f92e496a-b98a-41e5-8459-325f3ffeed65
d60cd49b-cddb-4d5e-8801-4bfd0fa0ea16,bcf4c6ed-2131-4de6-8cb7-4e8e25fed263
40d8d59c-9faf-4cbb-b030-35e575bccc1f,63569f61-894c-4ab4-a838-5d8e2e45be2c
f72bbd86-d8b2-4c67-8e07-94842e0ba2aa,bcf4c6ed-2131-4de6-8cb7-4e8e25fed263
e2e6069d-4ff6-4ab0-a3fe-5bbb392295b1,07448ca7-7b0f-4b15-8bdc-bad5c53c224a
c61652a0-3334-4ddc-846e-e42103397428,70b8f99a-574b-43c3-bcc0-e64b8ea29880
c6ecc973-b3b9-480b-acbd-42f1a650dbf2,70b8f99a-574b-43c3-bcc0-e64b8ea29880
4e2061c1-ff8b-4468-82b2-a4459561bbc0,3b329acd-edde-46d5-8121-f5d396df10af
397ac85e-ad19-4313-af99-dc75306449dc,638a2ab6-9f87-44a2-88d4-a757427cc4af
726cd3e2-beb6-4446-a678-8f419c38d08c,638a2ab6-9f87-44a2-88d4-a757427cc4af
3e1e4939-1ef9-46c8-aff0-7eae20510a57,25062f2b-7a38-4373-8fd4-a2afc490f6d5
72397b42-ee74-4425-99a8-107531160b08,046b885b-6a96-4a08-b899-13e9c05f8f34
4f8f82a5-ed3a-4e8f-bf12-742688c0fcb5,25062f2b-7a38-4373-8fd4-a2afc490f6d5
26de60bd-7921-4a07-86be-65a24e7c3f9a,c05029ca-b8e0-41c3-9f12-0ed376eaa466
d0de007e-c120-49b2-8d87-fbf1fa593fea,cda48ecd-d3b7-48f2-af20-c4ed94172043
c47f3d56-d67a-48ba-aa29-1e07c01a93c5,cda48ecd-d3b7-48f2-af20-c4ed94172043
51cedb28-686a-40c3-a357-328fed60d155,47d66b27-039b-4af1-8f8a-6d59d16e8d5a
acc08ebe-3e50-45fe-96ae-e27429c83761,4863905c-f898-4c07-92dd-6c2417a411c9
838ecfc5-c480-47c8-b838-63954ae586e4,47d66b27-039b-4af1-8f8a-6d59d16e8d5a
73e09445-00d5-4373-a598-9fce2ef04d28,0302b7c5-21f6-42e7-9809-039fec1aebe3
7c511639-2784-4c8c-a314-7b019e8fb31f,a8d2fdc0-620e-45e8-8911-953da9b6e1cb
d5ddf0d1-3544-44ec-86e6-c3995389a56d,0302b7c5-21f6-42e7-9809-039fec1aebe3
7222a282-7b33-422c-af18-6c278ce499bb,95f53a40-24b4-4353-b85a-4ed772cca41f
e329fb42-e868-4e00-ad5c-855a5e83fb4b,0a845652-e116-4729-8f18-e3766d790c26
5827ee2c-9ac3-4a2d-aca7-004ae369bd45,0a845652-e116-4729-8f18-e3766d790c26
d894fd6d-5d04-4d11-bdfb-7f44f2ff45d2,c958b6f5-897c-4c02-94a3-4815cebbaa40
e095f0a5-83b5-4cd1-897a-bb711a7880b1,3a24c7d3-de0e-4ad7-b22b-7204ff8ca85b
859aff74-877f-4fcb-98a8-83afddc474e8,c958b6f5-897c-4c02-94a3-4815cebbaa40
805bc7d4-7353-4db0-b55c-761554140780,1d20ad9e-5601-4915-bde7-5a14cad274e5
55904a84-e3ed-41ee-be14-5b600572c6b7,873d9fea-cdf5-4eb2-8e42-faf1a55fec82
51422f72-e161-40f7-9533-9442f07cf016,873d9fea-cdf5-4eb2-8e42-faf1a55fec82
8e7634a7-a342-4d4a-99c4-47b5ae297e63,132751e7-40f5-4e97-9ea7-c28f928ccb65
16b4d31e-3dcb-4dbc-80a0-2b88f953c398,de12b7eb-0465-4dda-bf87-e24cbfdbd9bf
7e1ed7f0-d35d-4e0f-a6e4-da215e08b52b,de12b7eb-0465-4dda-bf87-e24cbfdbd9bf
c131a06e-2444-43af-b0fb-cac35fd5ffcf,333b8a75-3c86-4dbe-b3b0-c2582bf6d1ed
fbbbf6a4-d627-491d-9545-d1ed4cdad446,69b35d5f-ab50-4a5c-a835-752aa0f324d3
0cbd76f1-fcd9-4e38-a619-ab79ece8eb77,333b8a75-3c86-4dbe-b3b0-c2582bf6d1ed
b6275b0d-f5bd-4a58-bc4b-655596017c6d,eb7293c6-600a-4ee6-ba2c-8a877e521cff
2a6b09e3-def5-420b-977f-b9d84c9b5fb7,a17a5718-000c-4bc5-a6f1-e64f6044221a
20c43dcc-ac6e-40a7-90a4-7f62f2f9d5b1,eb7293c6-600a-4ee6-ba2c-8a877e521cff
43d9d929-e219-4206-a665-fa84d50008c4,ca1f888e-358b-4950-9f36-f8e158822238
3ec3c954-b3db-4505-a018-248a72263be0,ca1f888e-358b-4950-9f36-f8e158822238
81b7bdeb-66a9-410a-be43-891445e6b8a3,6d9c8305-4582-400e-baf0-62bed4f395f8
cb4a2b4c-d249-4a12-b2f7-60da1cae3ea7,962a22de-1dd4-46be-bb5a-8a4320937fdb
1ae0c947-b24b-471f-ab99-7062f10852dd,bcf4c6ed-2131-4de6-8cb7-4e8e25fed263
5dd9abbd-072f-42ca-b646-ce2122d60e2d,bcf4c6ed-2131-4de6-8cb7-4e8e25fed263
29e8dcf4-0107-4ff0-a15b-88483f73ed80,52dee749-a5da-4a40-8a90-500d40912e77
332fb84d-799e-49b6-ae8b-ea605f976534,70b8f99a-574b-43c3-bcc0-e64b8ea29880
703d0d77-a007-4711-8a9d-a5e01cc6ea15,70b8f99a-574b-43c3-bcc0-e64b8ea29880
5c6fbd7f-6b3b-4cfd-bcb5-22c27a513992,9e4dc76a-ee53-48fa-97de-51aa64c18c55
54a4aaab-6829-4f16-9c01-3f16f079bdef,638a2ab6-9f87-44a2-88d4-a757427cc4af
8925c0fa-36d5-4554-b94a-4a12d2692121,638a2ab6-9f87-44a2-88d4-a757427cc4af
c7fcb350-3756-40fb-890b-5c5ceaa3d36e,25062f2b-7a38-4373-8fd4-a2afc490f6d5
6595b2af-e1d3-4de9-9d44-65c7daaa278a,25062f2b-7a38-4373-8fd4-a2afc490f6d5
3d8de982-b2c2-4453-b012-b8d2fe5992e5,fc040899-d37c-40d5-9b2c-c37a08e296e1
65ef5b3a-c5e3-441d-8ad5-ed8d8e5d8836,cda48ecd-d3b7-48f2-af20-c4ed94172043
24a4a007-1280-42a4-b01d-b7ddf2ae9d87,bdf7327d-4039-4fe7-b505-b3ef7b873179
a1c76eea-59d1-478b-87bd-e181c7ac5a85,cda48ecd-d3b7-48f2-af20-c4ed94172043
f8bbbed1-3fdf-4abb-a2ca-6fcd37aac9c1,9ce0303a-8f3f-42bb-b483-a7123ba96654
a328a253-5f68-42bf-9e03-99c09bbda643,47d66b27-039b-4af1-8f8a-6d59d16e8d5a
15140091-86c5-47c8-9b79-6f0e9e30e3b7,47d66b27-039b-4af1-8f8a-6d59d16e8d5a
df5f846b-a02b-418b-bb26-9b0f286f13b5,0302b7c5-21f6-42e7-9809-039fec1aebe3
827496fa-4fa3-4578-9c1f-0d96155661db,0302b7c5-21f6-42e7-9809-039fec1aebe3
34dcbee1-2d36-4489-a0f0-c3a7e65cfee7,48bf19bd-fbcb-46a0-99c8-f307a93a6dc4
b068f2ad-1ba7-4a10-8314-4252edf1aee2,0a845652-e116-4729-8f18-e3766d790c26
2d279e97-5826-4143-8638-136bbb3dee22,0a845652-e116-4729-8f18-e3766d790c26
913e14d7-93b3-4383-b930-56ca478377e4,bc87174b-e37e-4657-90bd-a237d1db417a
72d39e7e-3fe9-49c2-9f6a-c83e4bcd5727,c958b6f5-897c-4c02-94a3-4815cebbaa40
ed84c97b-42e7-40b2-9ee3-1fac567f55d1,c51cc7c4-54ce-48d5-9655-e02be1cb646a
ada47e9e-d733-45ce-9568-7e671b0f0aec,c958b6f5-897c-4c02-94a3-4815cebbaa40
b6d72b33-fed8-454b-ad3e-531a2320a5f2,873d9fea-cdf5-4eb2-8e42-faf1a55fec82
64e70f6b-d7ea-4218-bfec-bd0846e79b89,5d202b2a-21ae-4069-bdca-4271e5e7dc3b
c992149a-80b2-4714-9336-62ceb8961c95,873d9fea-cdf5-4eb2-8e42-faf1a55fec82
021ceddc-782d-4b4f-8dbf-5b95992a5240,2f83e95d-d250-47ef-81e3-ec4a856bf574
6762a049-3932-4644-aa53-daca1ba8919f,de12b7eb-0465-4dda-bf87-e24cbfdbd9bf
84d5f22d-891f-4220-9383-9e5f59f5d774,de12b7eb-0465-4dda-bf87-e24cbfdbd9bf
292e9305-614d-4adf-b226-1ee6409bd1da,333b8a75-3c86-4dbe-b3b0-c2582bf6d1ed
0169c7a0-2273-4dac-9945-6f4a8bbc766e,333b8a75-3c86-4dbe-b3b0-c2582bf6d1ed
e156a4c6-13e2-43e2-9e52-0fa0afb0e559,4e391985-c582-4301-a172-e74377924c9b
78bb16d3-44e9-4f2e-a22a-f10b2304b109,e7bcc48b-a80b-4108-821c-a8524477a234
e5cfea49-05e8-4645-8eca-4d073e295d41,eb7293c6-600a-4ee6-ba2c-8a877e521cff
df05d3d6-75df-4327-aff4-792d41cd57a5,eb7293c6-600a-4ee6-ba2c-8a877e521cff
81466bc7-8e8c-4111-8add-48945b642ff4,ca1f888e-358b-4950-9f36-f8e158822238
66f000a4-7efb-44c4-8367-1c6f1f6918fd,ca1f888e-358b-4950-9f36-f8e158822238
ce2fa701-15a0-4d81-8196-a00a58e75ea9,e6ecb36a-ad0c-44a2-ac40-71b27bbec074
aedca517-0a8b-4877-9a30-2a9089fb3fe7,41ac7f0b-7a75-4658-b2fd-945313195139
e73f5920-fc4f-4464-9dea-d7ab6c4289d3,bcf4c6ed-2131-4de6-8cb7-4e8e25fed263
f9b68424-b0c6-4f0a-9ea2-c26563e5d87d,bcf4c6ed-2131-4de6-8cb7-4e8e25fed263
2d3a4e28-d731-476d-8ef1-0e417a6eff27,70b8f99a-574b-43c3-bcc0-e64b8ea29880
abd020a1-c4ae-4357-8232-d7b465a43356,c4d7b838-1f12-4709-b8c5-4b39d2fa0c16
a7d6300d-9a27-4181-a571-fa83f3443647,70b8f99a-574b-43c3-bcc0-e64b8ea29880
2daf61f9-d094-46f6-8444-bf128e3456b6,638a2ab6-9f87-44a2-88d4-a757427cc4af
3a844d0b-f432-441d-8a8e-bbf98ad8e15e,80532906-c941-46d4-8f0a-7e96bfd6dd1f
12d1848e-f475-47b2-963f-8ff77381a21b,638a2ab6-9f87-44a2-88d4-a757427cc4af
c8c44f05-09c9-4269-bddf-97bb46398f65,84078b86-dca8-4fba-aa6d-037667523f8b
9a3810f2-11d7-4633-800f-100d2c4c7ac2,25062f2b-7a38-4373-8fd4-a2afc490f6d5
9600c1ba-c3f6-4b0e-b383-4bec894c8280,25062f2b-7a38-4373-8fd4-a2afc490f6d5
e0a65142-bdca-4045-a314-a82957234989,cda48ecd-d3b7-48f2-af20-c4ed94172043
e6073c58-8157-48d6-bf8b-4946cd073955,cda48ecd-d3b7-48f2-af20-c4ed94172043
3fb8f74e-9a21-41cc-914e-68a38b242bf0,3dd8bc5b-e9dc-484c-9262-dd5815736de4
4058c725-cb22-4bd8-8926-43525b74fcfd,47d66b27-039b-4af1-8f8a-6d59d16e8d5a
d29b3f8d-1987-424a-981e-50bce9d07aa5,50751171-35d4-4f97-ba8a-c8b3f15daec7
4aa8cba8-48d5-4786-bca4-4bcb7abb9991,47d66b27-039b-4af1-8f8a-6d59d16e8d5a
8edd21d9-6099-4eb1-8841-bb203fa2d3c9,0302b7c5-21f6-42e7-9809-039fec1aebe3
1e5df0c5-539c-496f-8d99-6dc13d4ac6e9,0302b7c5-21f6-42e7-9809-039fec1aebe3
ad1bcb0b-4b2b-4cd4-b94c-f18cde8fe88a,9c2384db-3163-406b-8b37-b7d559e26cbc
c5377d53-c561-48d8-939d-152da7daa567,88223a73-57da-46d8-81c5-f09951e52105
9d54457a-4791-4919-8d13-e3280ba29632,0a845652-e116-4729-8f18-e3766d790c26
064dc0f0-3a81-4998-90dc-c1249b2161b4,0a845652-e116-4729-8f18-e3766d790c26
7558f2af-ca46-43a7-89a0-9d6beef5c3f3,c958b6f5-897c-4c02-94a3-4815cebbaa40
64a85c09-e2e0-4e7d-9887-d3438db306ca,9735c4a2-cf95-4f98-a7d8-ee4ff82da04e
46cc55a0-de78-41ee-b893-33e35d4260ff,c958b6f5-897c-4c02-94a3-4815cebbaa40
22dcf03f-157e-475c-bbf2-90e4e38ecd53,873d9fea-cdf5-4eb2-8e42-faf1a55fec82
9ab8397d-17aa-4efb-bd53-dfe76f5744a8,e403ae2b-fbe9-4e32-9b25-c33da6ccb9e7
13753df6-3140-43a8-b1d7-9c088fcd4f55,873d9fea-cdf5-4eb2-8e42-faf1a55fec82
934b3285-008e-4cc9-81cd-97b6a5bd4767,603573ba-e778-40a6-bfb3-738a6693965e
7322b925-0736-4eb5-8130-2da2d3b8420a,de12b7eb-0465-4dda-bf87-e24cbfdbd9bf
33724b36-33ca-403e-b578-721493e67bbe,de12b7eb-0465-4dda-bf87-e24cbfdbd9bf
efe434be-0477-4123-b98d-b1de69ec6b9e,333b8a75-3c86-4dbe-b3b0-c2582bf6d1ed
ea40c8a2-9db4-42b1-b401-872eb066f8b3,cb224079-cf04-4890-bda3-ecef6bb48987
380bb484-3ba2-4399-9e4e-ff9fd1856251,333b8a75-3c86-4dbe-b3b0-c2582bf6d1ed
dd1c277d-6ae9-4086-b151-e77d25f44143,a2413a32-1345-4b3f-ada3-35d14f87a47a
93afe501-ea06-4cfc-8f01-525155501da9,eb7293c6-600a-4ee6-ba2c-8a877e521cff
33e8e207-71fa-4fc8-a095-52bd7c727ef5,eb7293c6-600a-4ee6-ba2c-8a877e521cff
9f0c0083-11d5-464d-9e46-d1f4533cca4a,9ca1c49b-5979-422d-b0b9-6740759639b0
7c7a9ab8-7542-4a7e-a228-f91997c2a42d,ca1f888e-358b-4950-9f36-f8e158822238
49831d9b-cafc-478c-baf9-5adca1bc7c5b,ca1f888e-358b-4950-9f36-f8e158822238
362ec605-ac18-4b6d-9330-8e7da93431f4,bcf4c6ed-2131-4de6-8cb7-4e8e25fed263
eb36788d-6396-47bb-b518-b574fcda721d,bcf4c6ed-2131-4de6-8cb7-4e8e25fed263
aff9d5bf-0885-4668-a335-4ca094839ac8,ead43783-77b7-4ac5-9309-63c8b93811eb
48e7ede9-34a9-4c07-b538-0405ac6a40da,e34fdea1-0b94-44d6-877a-6ae72a6d7c8f
7e473e7b-529a-4704-9ce6-a6a2564e7ae7,70b8f99a-574b-43c3-bcc0-e64b8ea29880
8df3bdec-1629-4d88-a635-ccb87fb0f30e,70b8f99a-574b-43c3-bcc0-e64b8ea29880
c8767415-9b7e-4372-953d-bdd8f73f3a43,e8229233-dcce-4174-afb5-4adc8a213137
b83986a6-81d3-4f0a-b38f-401197c575e2,638a2ab6-9f87-44a2-88d4-a757427cc4af
dc723576-347c-4831-8cec-afc72c304b93,638a2ab6-9f87-44a2-88d4-a757427cc4af
48c53c48-ba27-4984-955f-278912f37296,25062f2b-7a38-4373-8fd4-a2afc490f6d5
a25b2a5d-4905-4387-87a3-9975e6204a1d,25062f2b-7a38-4373-8fd4-a2afc490f6d5
4f4e0e0b-325b-4aac-9836-dd5cfa7a3ac4,445fde3b-96ca-4853-8b45-91ed9baa83fe
03b2302f-5db7-4e04-802b-4cda65557600,0b975d9b-cac5-4841-9e7a-bff34ae2f13c
042fdf7f-df3c-489c-9bc3-6a0f73e7b716,cda48ecd-d3b7-48f2-af20-c4ed94172043
989c82db-54cf-4e4c-beac-09b555de7353,cda48ecd-d3b7-48f2-af20-c4ed94172043
5bcdbead-368f-40e3-ac9d-d0abbdc2dafd,47d66b27-039b-4af1-8f8a-6d59d16e8d5a
354bed40-3693-4a10-a664-9ac46c7494a9,47d66b27-039b-4af1-8f8a-6d59d16e8d5a
0278e061-65be-48cc-a165-673436babe95,af6f7414-85e5-4c2c-a206-72c681c6f211
