date,actor,success,from,to
2020-03-08 15:24:24,ef46aa78-3ffa-4034-be45-66135d0fbf01,1,80b36a5d-11ca-40bc-9062-de133ef3a3b5,9e14d203-d223-407a-b64a-cd4e0798970f
2020-03-08 15:24:24,6f870eca-5e7f-4ea0-85bc-3df15f6aec69,1,80b36a5d-11ca-40bc-9062-de133ef3a3b5,9e14d203-d223-407a-b64a-cd4e0798970f
2020-03-08 15:34:18,ef46aa78-3ffa-4034-be45-66135d0fbf01,1,80b36a5d-11ca-40bc-9062-de133ef3a3b5,723286f2-a9f1-4bd3-8e6b-43c41c718f31
2020-03-08 15:34:18,6f870eca-5e7f-4ea0-85bc-3df15f6aec69,1,80b36a5d-11ca-40bc-9062-de133ef3a3b5,723286f2-a9f1-4bd3-8e6b-43c41c718f31
2020-03-08 15:46:13,72e0cba8-96d3-427f-924a-580bdce5d043,1,80b36a5d-11ca-40bc-9062-de133ef3a3b5,b4fb2f8d-39db-4ed1-b82d-f222aee77e21
2020-03-08 15:46:13,c3255595-704b-46ca-83f0-721377c54e1c,1,80b36a5d-11ca-40bc-9062-de133ef3a3b5,b4fb2f8d-39db-4ed1-b82d-f222aee77e21
2020-03-08 15:46:23,022bd7b0-9ec3-4465-8c05-cebfcfa8d6f7,1,80b36a5d-11ca-40bc-9062-de133ef3a3b5,723286f2-a9f1-4bd3-8e6b-43c41c718f31
2020-03-08 15:46:23,134f0ac4-fb8b-4b89-bec9-767a14753e4d,1,80b36a5d-11ca-40bc-9062-de133ef3a3b5,723286f2-a9f1-4bd3-8e6b-43c41c718f31
2020-03-08 15:46:32,481a63d9-a83a-4213-a07e-5304dff38ef2,1,80b36a5d-11ca-40bc-9062-de133ef3a3b5,9e14d203-d223-407a-b64a-cd4e0798970f
2020-03-08 15:46:32,46eb9e79-7140-425c-9b70-335df3171464,1,80b36a5d-11ca-40bc-9062-de133ef3a3b5,9e14d203-d223-407a-b64a-cd4e0798970f
2020-03-08 15:46:42,09edf68b-377d-4fb8-99f3-58381f0caa5a,1,80b36a5d-11ca-40bc-9062-de133ef3a3b5,723286f2-a9f1-4bd3-8e6b-43c41c718f31
2020-03-08 15:46:42,a9e7bb11-7e27-464c-b44f-e26d41035c28,1,80b36a5d-11ca-40bc-9062-de133ef3a3b5,723286f2-a9f1-4bd3-8e6b-43c41c718f31
2020-03-08 16:36:37,85b458b8-b187-4961-ad4e-107d7c72ff9b,1,80b36a5d-11ca-40bc-9062-de133ef3a3b5,c430595f-8464-475c-8f37-8bfef57f9124
2020-03-08 16:36:37,b61602a5-aac8-4c9f-b3f6-a672e0d25390,1,80b36a5d-11ca-40bc-9062-de133ef3a3b5,c430595f-8464-475c-8f37-8bfef57f9124
2020-03-08 15:24:48,ef46aa78-3ffa-4034-be45-66135d0fbf01,1,9e14d203-d223-407a-b64a-cd4e0798970f,723286f2-a9f1-4bd3-8e6b-43c41c718f31
2020-03-08 15:24:48,6f870eca-5e7f-4ea0-85bc-3df15f6aec69,1,9e14d203-d223-407a-b64a-cd4e0798970f,723286f2-a9f1-4bd3-8e6b-43c41c718f31
2020-03-08 15:25:00,f7a9c6c5-4033-41fc-880e-48b0c090c9bf,1,9e14d203-d223-407a-b64a-cd4e0798970f,0b2c21ad-4a5a-401c-9133-eea9e175f70a
2020-03-08 15:25:00,00452647-88d8-437c-9f3b-1f0d56cd3b81,1,9e14d203-d223-407a-b64a-cd4e0798970f,0b2c21ad-4a5a-401c-9133-eea9e175f70a
2020-03-08 15:31:02,db7ce211-13e4-4951-8cb0-ee3d7afce0bb,1,9e14d203-d223-407a-b64a-cd4e0798970f,9ef53302-88ef-47ff-9b1a-bf894f6e31cb
2020-03-08 15:31:02,ea270e9b-e059-42fc-b4d0-27a39080614a,1,9e14d203-d223-407a-b64a-cd4e0798970f,9ef53302-88ef-47ff-9b1a-bf894f6e31cb
2020-03-08 15:31:12,3472d7f6-5b4f-4e92-b5f9-db9bdfd9a0ba,1,9e14d203-d223-407a-b64a-cd4e0798970f,2deb7878-c38f-4bb0-8482-20ad9736e171
2020-03-08 15:31:12,27795352-874d-418e-a7ea-777c6e22e2e8,1,9e14d203-d223-407a-b64a-cd4e0798970f,2deb7878-c38f-4bb0-8482-20ad9736e171
2020-03-08 15:31:24,dd904d5a-0198-4c1d-898e-a9db5df6a928,1,9e14d203-d223-407a-b64a-cd4e0798970f,0b2c21ad-4a5a-401c-9133-eea9e175f70a
2020-03-08 15:31:24,0f532bf0-d3b8-47b8-b452-028bfaf579d0,1,9e14d203-d223-407a-b64a-cd4e0798970f,0b2c21ad-4a5a-401c-9133-eea9e175f70a
2020-03-08 15:33:00,db7ce211-13e4-4951-8cb0-ee3d7afce0bb,1,9e14d203-d223-407a-b64a-cd4e0798970f,75faf598-81cf-4456-a7c2-5688e258577e
2020-03-08 15:33:00,ea270e9b-e059-42fc-b4d0-27a39080614a,1,9e14d203-d223-407a-b64a-cd4e0798970f,75faf598-81cf-4456-a7c2-5688e258577e
2020-03-08 15:46:49,72e0cba8-96d3-427f-924a-580bdce5d043,1,9e14d203-d223-407a-b64a-cd4e0798970f,cfd5154b-5d21-4a2a-97d9-f08ab0d949ea
2020-03-08 15:46:49,c3255595-704b-46ca-83f0-721377c54e1c,1,9e14d203-d223-407a-b64a-cd4e0798970f,cfd5154b-5d21-4a2a-97d9-f08ab0d949ea
2020-03-08 15:46:59,481a63d9-a83a-4213-a07e-5304dff38ef2,1,9e14d203-d223-407a-b64a-cd4e0798970f,3934131b-0907-49c5-a15e-84e131da419c
2020-03-08 15:46:59,46eb9e79-7140-425c-9b70-335df3171464,1,9e14d203-d223-407a-b64a-cd4e0798970f,3934131b-0907-49c5-a15e-84e131da419c
2020-03-08 15:47:10,b90fbaeb-9dbb-4857-8b44-013db6496dea,1,9e14d203-d223-407a-b64a-cd4e0798970f,cfd5154b-5d21-4a2a-97d9-f08ab0d949ea
2020-03-08 15:47:10,4bed4126-a116-4709-bf88-d54f692cd1bc,1,9e14d203-d223-407a-b64a-cd4e0798970f,cfd5154b-5d21-4a2a-97d9-f08ab0d949ea
2020-03-08 15:49:08,ed7274f4-146a-471a-84a9-fd9d899b0c49,1,9e14d203-d223-407a-b64a-cd4e0798970f,723286f2-a9f1-4bd3-8e6b-43c41c718f31
2020-03-08 15:49:08,871c4dfb-f581-4a9f-a4c1-e9b1712aacab,1,9e14d203-d223-407a-b64a-cd4e0798970f,723286f2-a9f1-4bd3-8e6b-43c41c718f31
2020-03-08 15:49:20,b90fbaeb-9dbb-4857-8b44-013db6496dea,1,9e14d203-d223-407a-b64a-cd4e0798970f,cfd5154b-5d21-4a2a-97d9-f08ab0d949ea
2020-03-08 15:49:20,4bed4126-a116-4709-bf88-d54f692cd1bc,1,9e14d203-d223-407a-b64a-cd4e0798970f,cfd5154b-5d21-4a2a-97d9-f08ab0d949ea
2020-03-08 15:49:27,d40ea9ac-b0b7-4834-a3e9-9e7df3f66f70,1,9e14d203-d223-407a-b64a-cd4e0798970f,d4307c34-1419-4c0e-97d1-032f523d4c44
2020-03-08 15:49:27,9d90e847-9d2d-4cbb-a4ec-6718a9da3499,1,9e14d203-d223-407a-b64a-cd4e0798970f,d4307c34-1419-4c0e-97d1-032f523d4c44
2020-03-08 15:50:29,b90fbaeb-9dbb-4857-8b44-013db6496dea,1,9e14d203-d223-407a-b64a-cd4e0798970f,cfd5154b-5d21-4a2a-97d9-f08ab0d949ea
2020-03-08 15:50:29,4bed4126-a116-4709-bf88-d54f692cd1bc,1,9e14d203-d223-407a-b64a-cd4e0798970f,cfd5154b-5d21-4a2a-97d9-f08ab0d949ea
2020-03-08 15:50:39,ed7274f4-146a-471a-84a9-fd9d899b0c49,1,9e14d203-d223-407a-b64a-cd4e0798970f,9ef53302-88ef-47ff-9b1a-bf894f6e31cb
2020-03-08 15:50:39,871c4dfb-f581-4a9f-a4c1-e9b1712aacab,1,9e14d203-d223-407a-b64a-cd4e0798970f,9ef53302-88ef-47ff-9b1a-bf894f6e31cb
2020-03-08 15:51:31,b90fbaeb-9dbb-4857-8b44-013db6496dea,1,9e14d203-d223-407a-b64a-cd4e0798970f,3d9dab9b-6c7e-4f27-ae30-27a67202ba9b
2020-03-08 15:51:31,4bed4126-a116-4709-bf88-d54f692cd1bc,1,9e14d203-d223-407a-b64a-cd4e0798970f,3d9dab9b-6c7e-4f27-ae30-27a67202ba9b
2020-03-08 16:06:51,90b46624-9dc9-4aa6-9d85-29594ddbf1b0,1,9e14d203-d223-407a-b64a-cd4e0798970f,3934131b-0907-49c5-a15e-84e131da419c
2020-03-08 16:06:51,34a3b63a-8996-4a04-ae70-72b59e27e560,1,9e14d203-d223-407a-b64a-cd4e0798970f,3934131b-0907-49c5-a15e-84e131da419c
2020-03-08 15:21:00,fad43610-34e6-49e0-9c8e-08ee4d4e1c4a,1,3934131b-0907-49c5-a15e-84e131da419c,d4307c34-1419-4c0e-97d1-032f523d4c44
2020-03-08 15:21:00,4fe0b266-40b6-4eb3-a129-bf76a08423ac,1,3934131b-0907-49c5-a15e-84e131da419c,d4307c34-1419-4c0e-97d1-032f523d4c44
2020-03-08 15:21:08,9ce559f1-52b8-48ea-99ab-8972c6bf9dd7,1,3934131b-0907-49c5-a15e-84e131da419c,d4307c34-1419-4c0e-97d1-032f523d4c44
2020-03-08 15:21:09,7e641ad4-573d-4efc-9613-6f6ad165d403,1,3934131b-0907-49c5-a15e-84e131da419c,d4307c34-1419-4c0e-97d1-032f523d4c44
2020-03-08 15:25:55,9ce559f1-52b8-48ea-99ab-8972c6bf9dd7,1,3934131b-0907-49c5-a15e-84e131da419c,9ef53302-88ef-47ff-9b1a-bf894f6e31cb
2020-03-08 15:25:55,7e641ad4-573d-4efc-9613-6f6ad165d403,1,3934131b-0907-49c5-a15e-84e131da419c,9ef53302-88ef-47ff-9b1a-bf894f6e31cb
2020-03-08 16:06:07,90b46624-9dc9-4aa6-9d85-29594ddbf1b0,1,3934131b-0907-49c5-a15e-84e131da419c,3d9dab9b-6c7e-4f27-ae30-27a67202ba9b
2020-03-08 16:06:07,34a3b63a-8996-4a04-ae70-72b59e27e560,1,3934131b-0907-49c5-a15e-84e131da419c,3d9dab9b-6c7e-4f27-ae30-27a67202ba9b
2020-03-08 16:06:18,481a63d9-a83a-4213-a07e-5304dff38ef2,1,3934131b-0907-49c5-a15e-84e131da419c,3d9dab9b-6c7e-4f27-ae30-27a67202ba9b
2020-03-08 16:06:18,46eb9e79-7140-425c-9b70-335df3171464,1,3934131b-0907-49c5-a15e-84e131da419c,3d9dab9b-6c7e-4f27-ae30-27a67202ba9b
2020-03-08 16:36:25,db7ce211-13e4-4951-8cb0-ee3d7afce0bb,1,3934131b-0907-49c5-a15e-84e131da419c,d4307c34-1419-4c0e-97d1-032f523d4c44
2020-03-08 16:36:26,ea270e9b-e059-42fc-b4d0-27a39080614a,1,3934131b-0907-49c5-a15e-84e131da419c,d4307c34-1419-4c0e-97d1-032f523d4c44
2020-03-08 16:46:24,481a63d9-a83a-4213-a07e-5304dff38ef2,1,3934131b-0907-49c5-a15e-84e131da419c,3d9dab9b-6c7e-4f27-ae30-27a67202ba9b
2020-03-08 16:46:24,46eb9e79-7140-425c-9b70-335df3171464,1,3934131b-0907-49c5-a15e-84e131da419c,3d9dab9b-6c7e-4f27-ae30-27a67202ba9b
2020-03-08 16:46:35,e964958c-f958-4fa9-b497-efeed5b78491,1,3934131b-0907-49c5-a15e-84e131da419c,9ef53302-88ef-47ff-9b1a-bf894f6e31cb
2020-03-08 16:46:35,168b4dcd-98b1-4d0d-91fc-bb4b95d96c9d,1,3934131b-0907-49c5-a15e-84e131da419c,9ef53302-88ef-47ff-9b1a-bf894f6e31cb
2020-03-08 15:23:46,ef46aa78-3ffa-4034-be45-66135d0fbf01,1,d4307c34-1419-4c0e-97d1-032f523d4c44,c430595f-8464-475c-8f37-8bfef57f9124
2020-03-08 15:23:46,6f870eca-5e7f-4ea0-85bc-3df15f6aec69,1,d4307c34-1419-4c0e-97d1-032f523d4c44,c430595f-8464-475c-8f37-8bfef57f9124
2020-03-08 15:23:55,0171a1a5-a4f2-49d0-9867-dcbf195d5ee9,1,d4307c34-1419-4c0e-97d1-032f523d4c44,c430595f-8464-475c-8f37-8bfef57f9124
2020-03-08 15:23:55,3502d4e4-5827-44b6-b3c5-71b056b72e95,1,d4307c34-1419-4c0e-97d1-032f523d4c44,c430595f-8464-475c-8f37-8bfef57f9124
2020-03-08 15:24:02,6524bd5e-027a-4a07-b868-4b3d1e702b25,1,d4307c34-1419-4c0e-97d1-032f523d4c44,75faf598-81cf-4456-a7c2-5688e258577e
2020-03-08 15:24:02,49e31177-577c-457e-9a9b-51229b936ab3,1,d4307c34-1419-4c0e-97d1-032f523d4c44,75faf598-81cf-4456-a7c2-5688e258577e
2020-03-08 15:25:27,9ce559f1-52b8-48ea-99ab-8972c6bf9dd7,1,d4307c34-1419-4c0e-97d1-032f523d4c44,723286f2-a9f1-4bd3-8e6b-43c41c718f31
2020-03-08 15:25:27,7e641ad4-573d-4efc-9613-6f6ad165d403,1,d4307c34-1419-4c0e-97d1-032f523d4c44,723286f2-a9f1-4bd3-8e6b-43c41c718f31
2020-03-08 15:25:38,f65d767f-c925-4e05-9025-35c2b2ec6ec9,1,d4307c34-1419-4c0e-97d1-032f523d4c44,723286f2-a9f1-4bd3-8e6b-43c41c718f31
2020-03-08 15:25:38,ca28a988-59e3-4333-834c-7d196b8ff73c,1,d4307c34-1419-4c0e-97d1-032f523d4c44,723286f2-a9f1-4bd3-8e6b-43c41c718f31
2020-03-08 16:37:17,db7ce211-13e4-4951-8cb0-ee3d7afce0bb,1,d4307c34-1419-4c0e-97d1-032f523d4c44,cfd5154b-5d21-4a2a-97d9-f08ab0d949ea
2020-03-08 16:37:17,ea270e9b-e059-42fc-b4d0-27a39080614a,1,d4307c34-1419-4c0e-97d1-032f523d4c44,cfd5154b-5d21-4a2a-97d9-f08ab0d949ea
2020-03-08 16:37:29,6524bd5e-027a-4a07-b868-4b3d1e702b25,1,d4307c34-1419-4c0e-97d1-032f523d4c44,75faf598-81cf-4456-a7c2-5688e258577e
2020-03-08 16:37:29,49e31177-577c-457e-9a9b-51229b936ab3,1,d4307c34-1419-4c0e-97d1-032f523d4c44,75faf598-81cf-4456-a7c2-5688e258577e
2020-03-08 16:37:43,09edf68b-377d-4fb8-99f3-58381f0caa5a,1,d4307c34-1419-4c0e-97d1-032f523d4c44,75faf598-81cf-4456-a7c2-5688e258577e
2020-03-08 16:37:43,a9e7bb11-7e27-464c-b44f-e26d41035c28,1,d4307c34-1419-4c0e-97d1-032f523d4c44,75faf598-81cf-4456-a7c2-5688e258577e
2020-03-08 16:37:53,1418ee40-a782-4c15-9121-871657987193,1,d4307c34-1419-4c0e-97d1-032f523d4c44,cfd5154b-5d21-4a2a-97d9-f08ab0d949ea
2020-03-08 16:37:53,c7653b7d-f231-44b5-8fcd-3212c75dfb1f,1,d4307c34-1419-4c0e-97d1-032f523d4c44,cfd5154b-5d21-4a2a-97d9-f08ab0d949ea
2020-03-08 16:38:00,d40ea9ac-b0b7-4834-a3e9-9e7df3f66f70,1,d4307c34-1419-4c0e-97d1-032f523d4c44,b4fb2f8d-39db-4ed1-b82d-f222aee77e21
2020-03-08 16:38:00,9d90e847-9d2d-4cbb-a4ec-6718a9da3499,1,d4307c34-1419-4c0e-97d1-032f523d4c44,b4fb2f8d-39db-4ed1-b82d-f222aee77e21
2020-03-08 15:31:37,55be9499-a98c-4848-a157-4f969fbefc2a,1,832e4b14-d858-4c6b-ab9f-abeff3464ea4,c430595f-8464-475c-8f37-8bfef57f9124
2020-03-08 15:31:37,dc0c2067-0d3b-405e-89be-57798f9da4dc,1,832e4b14-d858-4c6b-ab9f-abeff3464ea4,c430595f-8464-475c-8f37-8bfef57f9124
2020-03-08 15:31:48,49aade86-e8e5-4132-b1bc-9072a5db8c20,1,832e4b14-d858-4c6b-ab9f-abeff3464ea4,2deb7878-c38f-4bb0-8482-20ad9736e171
2020-03-08 15:31:48,4ccba644-df58-41bb-a06c-98d011ee9964,1,832e4b14-d858-4c6b-ab9f-abeff3464ea4,2deb7878-c38f-4bb0-8482-20ad9736e171
2020-03-08 15:31:57,9ce559f1-52b8-48ea-99ab-8972c6bf9dd7,1,832e4b14-d858-4c6b-ab9f-abeff3464ea4,80b36a5d-11ca-40bc-9062-de133ef3a3b5
2020-03-08 15:31:57,7e641ad4-573d-4efc-9613-6f6ad165d403,1,832e4b14-d858-4c6b-ab9f-abeff3464ea4,80b36a5d-11ca-40bc-9062-de133ef3a3b5
2020-03-08 15:49:54,b90fbaeb-9dbb-4857-8b44-013db6496dea,1,832e4b14-d858-4c6b-ab9f-abeff3464ea4,0b2c21ad-4a5a-401c-9133-eea9e175f70a
2020-03-08 15:49:54,4bed4126-a116-4709-bf88-d54f692cd1bc,1,832e4b14-d858-4c6b-ab9f-abeff3464ea4,0b2c21ad-4a5a-401c-9133-eea9e175f70a
2020-03-08 15:50:11,022bd7b0-9ec3-4465-8c05-cebfcfa8d6f7,1,832e4b14-d858-4c6b-ab9f-abeff3464ea4,3d9dab9b-6c7e-4f27-ae30-27a67202ba9b
2020-03-08 15:50:11,134f0ac4-fb8b-4b89-bec9-767a14753e4d,1,832e4b14-d858-4c6b-ab9f-abeff3464ea4,3d9dab9b-6c7e-4f27-ae30-27a67202ba9b
2020-03-08 15:51:18,ed7274f4-146a-471a-84a9-fd9d899b0c49,1,832e4b14-d858-4c6b-ab9f-abeff3464ea4,9e14d203-d223-407a-b64a-cd4e0798970f
2020-03-08 15:51:18,871c4dfb-f581-4a9f-a4c1-e9b1712aacab,1,832e4b14-d858-4c6b-ab9f-abeff3464ea4,9e14d203-d223-407a-b64a-cd4e0798970f
2020-03-08 16:33:31,022bd7b0-9ec3-4465-8c05-cebfcfa8d6f7,1,832e4b14-d858-4c6b-ab9f-abeff3464ea4,9ef53302-88ef-47ff-9b1a-bf894f6e31cb
2020-03-08 16:33:31,134f0ac4-fb8b-4b89-bec9-767a14753e4d,1,832e4b14-d858-4c6b-ab9f-abeff3464ea4,9ef53302-88ef-47ff-9b1a-bf894f6e31cb
2020-03-08 14:29:29,a5e368aa-3bc7-48ed-a1c2-b853c1264e95,1,2f9d4fd5-6eb8-4e9b-9a91-25013bd6238b,80b36a5d-11ca-40bc-9062-de133ef3a3b5
2020-03-08 14:29:29,3c143f15-685c-4339-bcb7-815bffd274d0,1,2f9d4fd5-6eb8-4e9b-9a91-25013bd6238b,80b36a5d-11ca-40bc-9062-de133ef3a3b5
2020-03-08 14:29:29,fc6bedc5-682b-44b3-9982-7d385123263c,1,2f9d4fd5-6eb8-4e9b-9a91-25013bd6238b,9556a522-4dc4-4cf2-8418-4f2162dd9d71
2020-03-08 14:30:32,9e300bfd-04ab-4017-8d19-e1ae41fd9868,1,2f9d4fd5-6eb8-4e9b-9a91-25013bd6238b,832e4b14-d858-4c6b-ab9f-abeff3464ea4
2020-03-08 14:30:32,c27b4ab4-8a9a-47a4-9c9f-a40c22963427,1,2f9d4fd5-6eb8-4e9b-9a91-25013bd6238b,832e4b14-d858-4c6b-ab9f-abeff3464ea4
2020-03-08 14:30:32,645ed865-7d9c-42a4-b525-41cfbedc324c,1,2f9d4fd5-6eb8-4e9b-9a91-25013bd6238b,08a815a6-489e-4cad-a665-9e3f3356a23e
2020-03-08 14:31:35,abcc7e3d-3b69-47e8-9366-b3ad5f9aa6b5,1,2f9d4fd5-6eb8-4e9b-9a91-25013bd6238b,b4fb2f8d-39db-4ed1-b82d-f222aee77e21
2020-03-08 14:31:35,a7e16126-a03f-41ec-bb43-ce723a719748,1,2f9d4fd5-6eb8-4e9b-9a91-25013bd6238b,75dda66a-e60f-44c3-a550-e4c97722cc0f
2020-03-08 14:31:35,831ff276-8f1c-4841-af35-50dfae333aab,1,2f9d4fd5-6eb8-4e9b-9a91-25013bd6238b,b4fb2f8d-39db-4ed1-b82d-f222aee77e21
2020-03-08 14:32:38,dd904d5a-0198-4c1d-898e-a9db5df6a928,1,2f9d4fd5-6eb8-4e9b-9a91-25013bd6238b,cfd5154b-5d21-4a2a-97d9-f08ab0d949ea
2020-03-08 14:32:38,a09a5306-34e8-4531-b4ea-329da2d51bf6,1,2f9d4fd5-6eb8-4e9b-9a91-25013bd6238b,ded46837-0c88-4380-a94f-1912a03759aa
2020-03-08 14:32:38,0f532bf0-d3b8-47b8-b452-028bfaf579d0,1,2f9d4fd5-6eb8-4e9b-9a91-25013bd6238b,cfd5154b-5d21-4a2a-97d9-f08ab0d949ea
2020-03-08 14:33:41,ef46aa78-3ffa-4034-be45-66135d0fbf01,1,2f9d4fd5-6eb8-4e9b-9a91-25013bd6238b,d4307c34-1419-4c0e-97d1-032f523d4c44
2020-03-08 14:33:41,6f870eca-5e7f-4ea0-85bc-3df15f6aec69,1,2f9d4fd5-6eb8-4e9b-9a91-25013bd6238b,d4307c34-1419-4c0e-97d1-032f523d4c44
2020-03-08 14:33:41,47485248-caaf-4061-a3a5-06a182e1dcd8,1,2f9d4fd5-6eb8-4e9b-9a91-25013bd6238b,c19ddb69-3504-41de-9830-e7e77f1c8842
2020-03-08 14:34:44,db7ce211-13e4-4951-8cb0-ee3d7afce0bb,1,2f9d4fd5-6eb8-4e9b-9a91-25013bd6238b,9e14d203-d223-407a-b64a-cd4e0798970f
2020-03-08 14:34:44,ea270e9b-e059-42fc-b4d0-27a39080614a,1,2f9d4fd5-6eb8-4e9b-9a91-25013bd6238b,9e14d203-d223-407a-b64a-cd4e0798970f
2020-03-08 14:34:44,17a6835d-945d-4890-9f38-83e9e74ca5d4,1,2f9d4fd5-6eb8-4e9b-9a91-25013bd6238b,7d08e54d-c291-4441-82a9-24b2c8e5b5a3
2020-03-08 14:35:47,1418ee40-a782-4c15-9121-871657987193,1,2f9d4fd5-6eb8-4e9b-9a91-25013bd6238b,75faf598-81cf-4456-a7c2-5688e258577e
2020-03-08 14:35:47,66c7e5e3-8e69-456a-8fdf-f8b6fdec4a2f,1,2f9d4fd5-6eb8-4e9b-9a91-25013bd6238b,85b79a0a-e88f-4fc0-94df-726fa094aadf
2020-03-08 14:35:47,c7653b7d-f231-44b5-8fcd-3212c75dfb1f,1,2f9d4fd5-6eb8-4e9b-9a91-25013bd6238b,75faf598-81cf-4456-a7c2-5688e258577e
2020-03-08 14:36:49,eb10dcaf-723b-4edc-a57f-95664cb595a4,1,2f9d4fd5-6eb8-4e9b-9a91-25013bd6238b,9ef53302-88ef-47ff-9b1a-bf894f6e31cb
2020-03-08 14:36:49,cd40445c-f3ea-41c0-94be-d176a692d9d9,1,2f9d4fd5-6eb8-4e9b-9a91-25013bd6238b,d5de2062-197d-43fa-934a-e4159c4ddbf9
2020-03-08 14:36:49,eb8a5da0-b1f6-4e61-ac98-4b206c442cef,1,2f9d4fd5-6eb8-4e9b-9a91-25013bd6238b,9ef53302-88ef-47ff-9b1a-bf894f6e31cb
2020-03-08 14:37:52,72e0cba8-96d3-427f-924a-580bdce5d043,1,2f9d4fd5-6eb8-4e9b-9a91-25013bd6238b,3d9dab9b-6c7e-4f27-ae30-27a67202ba9b
2020-03-08 14:37:52,040edaef-255b-4321-91f8-663e768bdaef,1,2f9d4fd5-6eb8-4e9b-9a91-25013bd6238b,231d94e1-3764-45a8-b931-18a3e25fbf8e
2020-03-08 14:37:52,c3255595-704b-46ca-83f0-721377c54e1c,1,2f9d4fd5-6eb8-4e9b-9a91-25013bd6238b,3d9dab9b-6c7e-4f27-ae30-27a67202ba9b
2020-03-08 14:38:55,4d16867b-878a-4faa-991b-d36c17701b87,1,2f9d4fd5-6eb8-4e9b-9a91-25013bd6238b,0b2c21ad-4a5a-401c-9133-eea9e175f70a
2020-03-08 14:38:55,6407cd11-3e87-4492-b14b-5c120da90ffe,1,2f9d4fd5-6eb8-4e9b-9a91-25013bd6238b,0b2c21ad-4a5a-401c-9133-eea9e175f70a
2020-03-08 14:38:55,0834e562-2cf6-4334-a030-f3a2cde916a9,1,2f9d4fd5-6eb8-4e9b-9a91-25013bd6238b,3920fd71-7f52-4a31-92eb-78a9bcdb099a
2020-03-08 14:39:58,263fc140-5020-4dc3-96db-c7128231b3af,1,2f9d4fd5-6eb8-4e9b-9a91-25013bd6238b,c430595f-8464-475c-8f37-8bfef57f9124
2020-03-08 14:39:58,b8e280b9-bdbb-4315-8302-8452eca0262f,1,2f9d4fd5-6eb8-4e9b-9a91-25013bd6238b,ff804f44-4418-4829-b448-e5814cb43779
2020-03-08 14:39:58,f48246ef-bf52-48b3-ba65-bf2ca9e21087,1,2f9d4fd5-6eb8-4e9b-9a91-25013bd6238b,c430595f-8464-475c-8f37-8bfef57f9124
2020-03-08 14:41:01,501bfe3a-2a91-49eb-899f-1ef1f1eb2c77,1,2f9d4fd5-6eb8-4e9b-9a91-25013bd6238b,52c2c5d1-2dea-44a8-b197-e3a1007cb9f1
2020-03-08 14:41:01,539172bd-5b78-46fe-966f-053dba90103a,1,2f9d4fd5-6eb8-4e9b-9a91-25013bd6238b,723286f2-a9f1-4bd3-8e6b-43c41c718f31
2020-03-08 14:41:01,1e5a3ef5-2197-456c-9157-6fd09bbfcbd5,1,2f9d4fd5-6eb8-4e9b-9a91-25013bd6238b,723286f2-a9f1-4bd3-8e6b-43c41c718f31
2020-03-08 14:42:04,9ce559f1-52b8-48ea-99ab-8972c6bf9dd7,1,2f9d4fd5-6eb8-4e9b-9a91-25013bd6238b,3934131b-0907-49c5-a15e-84e131da419c
2020-03-08 14:42:04,050cb758-1fdb-42dd-b594-fa97133e9c33,1,2f9d4fd5-6eb8-4e9b-9a91-25013bd6238b,f519a51a-9034-4b8f-9aac-abf312b19ae1
2020-03-08 14:42:04,7e641ad4-573d-4efc-9613-6f6ad165d403,1,2f9d4fd5-6eb8-4e9b-9a91-25013bd6238b,3934131b-0907-49c5-a15e-84e131da419c
2020-03-08 14:43:06,63e10a2f-50a4-4e8a-82d3-8f8f50995887,1,2f9d4fd5-6eb8-4e9b-9a91-25013bd6238b,19542827-b907-4a59-a21d-506e6adab01b
2020-03-08 14:43:06,8a337fea-f337-4ce0-b048-3e2d72345d15,1,2f9d4fd5-6eb8-4e9b-9a91-25013bd6238b,2deb7878-c38f-4bb0-8482-20ad9736e171
2020-03-08 14:43:06,67e92463-2e0b-404b-b040-762bf70d8e66,1,2f9d4fd5-6eb8-4e9b-9a91-25013bd6238b,2deb7878-c38f-4bb0-8482-20ad9736e171
2020-03-08 14:44:09,3b44498e-4ed6-4d5e-bb69-e775366372d9,1,2f9d4fd5-6eb8-4e9b-9a91-25013bd6238b,80b36a5d-11ca-40bc-9062-de133ef3a3b5
2020-03-08 14:44:09,0e0f3bb3-d9a6-46ca-81c6-1c4e72e123ee,1,2f9d4fd5-6eb8-4e9b-9a91-25013bd6238b,80b36a5d-11ca-40bc-9062-de133ef3a3b5
2020-03-08 14:44:09,43c63807-53ba-40ee-a235-c20125d8f3f3,1,2f9d4fd5-6eb8-4e9b-9a91-25013bd6238b,77609ce7-b7d0-4226-8b3e-a1b6765dd084
2020-03-08 14:45:12,7e2150d4-b6a3-42ce-9db1-2e4c8a4312e0,1,2f9d4fd5-6eb8-4e9b-9a91-25013bd6238b,832e4b14-d858-4c6b-ab9f-abeff3464ea4
2020-03-08 14:45:12,39dcf248-660f-490e-a5e8-f0ff1ef48788,1,2f9d4fd5-6eb8-4e9b-9a91-25013bd6238b,aaf4945a-6a6d-4a92-b7f6-250444f5bd4c
2020-03-08 14:45:12,71ccc4b4-6dfe-43dd-b2fe-95cf7167e172,1,2f9d4fd5-6eb8-4e9b-9a91-25013bd6238b,832e4b14-d858-4c6b-ab9f-abeff3464ea4
2020-03-08 14:46:15,c32e7b00-31f1-4fa8-8f38-17f26b2c774d,1,2f9d4fd5-6eb8-4e9b-9a91-25013bd6238b,8fc5c60d-26be-45df-a3c5-e5a16aa287ef
2020-03-08 14:46:15,c78c3ee2-bf34-4a40-9f69-a7ccba4a70f7,1,2f9d4fd5-6eb8-4e9b-9a91-25013bd6238b,b4fb2f8d-39db-4ed1-b82d-f222aee77e21
2020-03-08 14:46:15,962f8fc2-da8d-4ef2-af76-c4037fda80e0,1,2f9d4fd5-6eb8-4e9b-9a91-25013bd6238b,b4fb2f8d-39db-4ed1-b82d-f222aee77e21
2020-03-08 14:47:18,09edf68b-377d-4fb8-99f3-58381f0caa5a,1,2f9d4fd5-6eb8-4e9b-9a91-25013bd6238b,cfd5154b-5d21-4a2a-97d9-f08ab0d949ea
2020-03-08 14:47:18,a9e7bb11-7e27-464c-b44f-e26d41035c28,1,2f9d4fd5-6eb8-4e9b-9a91-25013bd6238b,cfd5154b-5d21-4a2a-97d9-f08ab0d949ea
2020-03-08 14:47:18,38947dbf-973e-4b0b-aa69-c165f10e5e79,1,2f9d4fd5-6eb8-4e9b-9a91-25013bd6238b,f1cb77fd-891e-4d7a-8e3f-95e7bd5f758e
2020-03-08 14:48:20,0a03db49-aa1c-4169-9d08-16c7c3cbf517,1,2f9d4fd5-6eb8-4e9b-9a91-25013bd6238b,80dd88b9-2d14-460a-ac12-945fd4d18e84
2020-03-08 14:48:20,5363e422-db06-416f-b0ed-3c370c2d64da,1,2f9d4fd5-6eb8-4e9b-9a91-25013bd6238b,d4307c34-1419-4c0e-97d1-032f523d4c44
2020-03-08 14:48:20,33335bef-9a6c-4932-bdfa-a4c72b0aea54,1,2f9d4fd5-6eb8-4e9b-9a91-25013bd6238b,d4307c34-1419-4c0e-97d1-032f523d4c44
2020-03-08 14:49:23,d40ea9ac-b0b7-4834-a3e9-9e7df3f66f70,1,2f9d4fd5-6eb8-4e9b-9a91-25013bd6238b,9e14d203-d223-407a-b64a-cd4e0798970f
2020-03-08 14:49:23,45d48ca3-351a-459d-b5ea-6738dda7047b,1,2f9d4fd5-6eb8-4e9b-9a91-25013bd6238b,3485476a-c448-44ec-8c94-c7b73269d5b2
2020-03-08 14:49:23,9d90e847-9d2d-4cbb-a4ec-6718a9da3499,1,2f9d4fd5-6eb8-4e9b-9a91-25013bd6238b,9e14d203-d223-407a-b64a-cd4e0798970f
2020-03-08 14:50:26,8163c659-a1aa-4678-87e2-915993686ecd,1,2f9d4fd5-6eb8-4e9b-9a91-25013bd6238b,75faf598-81cf-4456-a7c2-5688e258577e
2020-03-08 14:50:26,48a44fa9-cef4-43c0-bb06-c6a6c3ff9114,1,2f9d4fd5-6eb8-4e9b-9a91-25013bd6238b,75faf598-81cf-4456-a7c2-5688e258577e
2020-03-08 14:50:26,32f5a3af-6192-4b47-987f-331de70223b0,1,2f9d4fd5-6eb8-4e9b-9a91-25013bd6238b,c46d986a-f3a8-4602-8cdb-19e7d67b9900
2020-03-08 14:51:29,ed7274f4-146a-471a-84a9-fd9d899b0c49,1,2f9d4fd5-6eb8-4e9b-9a91-25013bd6238b,9ef53302-88ef-47ff-9b1a-bf894f6e31cb
2020-03-08 14:51:29,ba44c071-01fe-40eb-a3ef-ff3be816cb38,1,2f9d4fd5-6eb8-4e9b-9a91-25013bd6238b,17f643e1-001c-483b-b70a-8c758eec02de
2020-03-08 14:51:29,871c4dfb-f581-4a9f-a4c1-e9b1712aacab,1,2f9d4fd5-6eb8-4e9b-9a91-25013bd6238b,9ef53302-88ef-47ff-9b1a-bf894f6e31cb
2020-03-08 14:52:32,481a63d9-a83a-4213-a07e-5304dff38ef2,1,2f9d4fd5-6eb8-4e9b-9a91-25013bd6238b,3d9dab9b-6c7e-4f27-ae30-27a67202ba9b
2020-03-08 14:52:32,2eb37249-362f-4ddd-aa33-79f0427290e4,1,2f9d4fd5-6eb8-4e9b-9a91-25013bd6238b,20d07d41-02e5-4eee-8b00-716de2edd3f0
2020-03-08 14:52:32,46eb9e79-7140-425c-9b70-335df3171464,1,2f9d4fd5-6eb8-4e9b-9a91-25013bd6238b,3d9dab9b-6c7e-4f27-ae30-27a67202ba9b
2020-03-08 14:53:35,413b54f7-9c32-478a-bccd-0f69f3d3d7ab,1,2f9d4fd5-6eb8-4e9b-9a91-25013bd6238b,19ee0567-0cab-4c4f-980b-359ecbfa9c76
2020-03-08 14:53:35,749c0b8c-4707-4e28-8213-e024f19237a2,1,2f9d4fd5-6eb8-4e9b-9a91-25013bd6238b,0b2c21ad-4a5a-401c-9133-eea9e175f70a
2020-03-08 14:53:35,9c7fb129-212c-4215-b422-b1053183377b,1,2f9d4fd5-6eb8-4e9b-9a91-25013bd6238b,0b2c21ad-4a5a-401c-9133-eea9e175f70a
2020-03-08 14:54:38,fa7a3f66-3382-4714-92f2-42c10ca220ec,1,2f9d4fd5-6eb8-4e9b-9a91-25013bd6238b,4b4b324b-a558-4439-b780-0251b542835a
2020-03-08 14:54:38,a9e0ef37-b8a0-4e9e-aa12-86f44db9294e,1,2f9d4fd5-6eb8-4e9b-9a91-25013bd6238b,c430595f-8464-475c-8f37-8bfef57f9124
2020-03-08 14:54:38,68500e64-2adc-43c3-a544-e5a7287c8ec2,1,2f9d4fd5-6eb8-4e9b-9a91-25013bd6238b,c430595f-8464-475c-8f37-8bfef57f9124
2020-03-08 14:55:41,552e39d7-782d-40de-837e-b637deeac44a,1,2f9d4fd5-6eb8-4e9b-9a91-25013bd6238b,723286f2-a9f1-4bd3-8e6b-43c41c718f31
2020-03-08 14:55:41,f04bab17-f392-4198-9f54-92a8e6d721ab,1,2f9d4fd5-6eb8-4e9b-9a91-25013bd6238b,de818176-9198-4d11-a06a-7c67dfd24a27
2020-03-08 14:55:41,d8f153a8-32d2-4294-980a-63a344bae226,1,2f9d4fd5-6eb8-4e9b-9a91-25013bd6238b,723286f2-a9f1-4bd3-8e6b-43c41c718f31
2020-03-08 14:56:44,4a2559a6-aed1-47c6-a831-916fc7c36c54,1,2f9d4fd5-6eb8-4e9b-9a91-25013bd6238b,1ebbb750-6ee1-407a-9a57-48a5845a8d38
2020-03-08 14:56:44,90b46624-9dc9-4aa6-9d85-29594ddbf1b0,1,2f9d4fd5-6eb8-4e9b-9a91-25013bd6238b,3934131b-0907-49c5-a15e-84e131da419c
2020-03-08 14:56:44,34a3b63a-8996-4a04-ae70-72b59e27e560,1,2f9d4fd5-6eb8-4e9b-9a91-25013bd6238b,3934131b-0907-49c5-a15e-84e131da419c
2020-03-08 14:57:46,d2bc1451-4c03-4fb9-942b-4a6e407ec023,1,2f9d4fd5-6eb8-4e9b-9a91-25013bd6238b,2deb7878-c38f-4bb0-8482-20ad9736e171
2020-03-08 14:57:46,5734fa64-95b1-4ef1-9327-b098881859dd,1,2f9d4fd5-6eb8-4e9b-9a91-25013bd6238b,2deb7878-c38f-4bb0-8482-20ad9736e171
2020-03-08 14:57:46,a83e5a3a-fe35-40a9-9721-b5721da58221,1,2f9d4fd5-6eb8-4e9b-9a91-25013bd6238b,6df0dbcf-470a-4b23-9ac2-f7538a6c8aaa
2020-03-08 14:58:49,f5fa657c-ac6e-4af5-b43d-1802259fe05e,1,2f9d4fd5-6eb8-4e9b-9a91-25013bd6238b,1fba978e-4048-4ad3-a933-a7f9758a12b1
2020-03-08 14:58:49,f8b7593d-df43-432a-846c-e716c273f8cd,1,2f9d4fd5-6eb8-4e9b-9a91-25013bd6238b,80b36a5d-11ca-40bc-9062-de133ef3a3b5
2020-03-08 14:58:49,35a0845d-a2d8-4897-a97b-d9efe0414645,1,2f9d4fd5-6eb8-4e9b-9a91-25013bd6238b,80b36a5d-11ca-40bc-9062-de133ef3a3b5
2020-03-08 14:59:52,7485d28e-d327-4c3c-a306-e3d536dca178,1,2f9d4fd5-6eb8-4e9b-9a91-25013bd6238b,e9e8f2da-02bb-494a-9743-d06e9cce753a
2020-03-08 14:59:52,49aade86-e8e5-4132-b1bc-9072a5db8c20,1,2f9d4fd5-6eb8-4e9b-9a91-25013bd6238b,832e4b14-d858-4c6b-ab9f-abeff3464ea4
2020-03-08 14:59:52,4ccba644-df58-41bb-a06c-98d011ee9964,1,2f9d4fd5-6eb8-4e9b-9a91-25013bd6238b,832e4b14-d858-4c6b-ab9f-abeff3464ea4
2020-03-08 15:00:55,ea6118c7-b3e9-4494-9123-2f3ab4cc587e,1,2f9d4fd5-6eb8-4e9b-9a91-25013bd6238b,ff115bd9-784f-4f15-b1f8-b7c840b6599a
2020-03-08 15:00:55,6663f754-434f-4ef1-afb6-8687c4f039e1,1,2f9d4fd5-6eb8-4e9b-9a91-25013bd6238b,b4fb2f8d-39db-4ed1-b82d-f222aee77e21
2020-03-08 15:00:55,99a5e6ea-d3dc-4318-8915-985f8a00c6e8,1,2f9d4fd5-6eb8-4e9b-9a91-25013bd6238b,b4fb2f8d-39db-4ed1-b82d-f222aee77e21
2020-03-08 15:01:58,9c67290b-6d80-4962-985a-d365263dceb6,1,2f9d4fd5-6eb8-4e9b-9a91-25013bd6238b,57f81524-eb5c-49dd-afa0-c594142a704f
2020-03-08 15:01:58,f65d767f-c925-4e05-9025-35c2b2ec6ec9,1,2f9d4fd5-6eb8-4e9b-9a91-25013bd6238b,cfd5154b-5d21-4a2a-97d9-f08ab0d949ea
2020-03-08 15:01:58,ca28a988-59e3-4333-834c-7d196b8ff73c,1,2f9d4fd5-6eb8-4e9b-9a91-25013bd6238b,cfd5154b-5d21-4a2a-97d9-f08ab0d949ea
2020-03-08 15:03:00,6524bd5e-027a-4a07-b868-4b3d1e702b25,1,2f9d4fd5-6eb8-4e9b-9a91-25013bd6238b,d4307c34-1419-4c0e-97d1-032f523d4c44
2020-03-08 15:03:00,49e31177-577c-457e-9a9b-51229b936ab3,1,2f9d4fd5-6eb8-4e9b-9a91-25013bd6238b,d4307c34-1419-4c0e-97d1-032f523d4c44
2020-03-08 15:03:00,796309a3-a5c8-421f-8a3d-abf8f14f57cc,1,2f9d4fd5-6eb8-4e9b-9a91-25013bd6238b,158e5217-466d-4ad6-bf0c-c62f996bcd4e
2020-03-08 15:04:03,f7a9c6c5-4033-41fc-880e-48b0c090c9bf,1,2f9d4fd5-6eb8-4e9b-9a91-25013bd6238b,9e14d203-d223-407a-b64a-cd4e0798970f
2020-03-08 15:04:03,00452647-88d8-437c-9f3b-1f0d56cd3b81,1,2f9d4fd5-6eb8-4e9b-9a91-25013bd6238b,9e14d203-d223-407a-b64a-cd4e0798970f
2020-03-08 15:04:03,bf54a95a-dd65-43ff-b4dd-3a47dcf20e3a,1,2f9d4fd5-6eb8-4e9b-9a91-25013bd6238b,2ea845b1-8a39-4eae-8103-8188eb752176
2020-03-08 15:05:06,eb3d619c-3993-4673-b7aa-f3d5b6e3a113,1,2f9d4fd5-6eb8-4e9b-9a91-25013bd6238b,75faf598-81cf-4456-a7c2-5688e258577e
2020-03-08 15:05:06,17bf7adc-71ce-4790-8936-58adbf174925,1,2f9d4fd5-6eb8-4e9b-9a91-25013bd6238b,2b13df64-37d2-47a8-8ec4-a49e0884cc0a
2020-03-08 15:05:06,4a5df7ad-9139-4749-a47d-23a687ba45ac,1,2f9d4fd5-6eb8-4e9b-9a91-25013bd6238b,75faf598-81cf-4456-a7c2-5688e258577e
2020-03-08 15:06:09,b90fbaeb-9dbb-4857-8b44-013db6496dea,1,2f9d4fd5-6eb8-4e9b-9a91-25013bd6238b,9ef53302-88ef-47ff-9b1a-bf894f6e31cb
2020-03-08 15:06:09,4bed4126-a116-4709-bf88-d54f692cd1bc,1,2f9d4fd5-6eb8-4e9b-9a91-25013bd6238b,9ef53302-88ef-47ff-9b1a-bf894f6e31cb
2020-03-08 15:06:09,fccae7ff-96d7-48bd-9b5d-ece7cb263fef,1,2f9d4fd5-6eb8-4e9b-9a91-25013bd6238b,a7293b52-dd8e-4ab3-8385-d3a0ff177fef
2020-03-08 15:07:12,fb1e739a-e3df-4cea-9e50-1e5be22fc531,1,2f9d4fd5-6eb8-4e9b-9a91-25013bd6238b,3d9dab9b-6c7e-4f27-ae30-27a67202ba9b
2020-03-08 15:07:12,6fda2498-eb65-4848-9f1d-7273bc430f2e,1,2f9d4fd5-6eb8-4e9b-9a91-25013bd6238b,3d9dab9b-6c7e-4f27-ae30-27a67202ba9b
2020-03-08 15:07:12,b2accefd-3793-4f0c-9e6e-5a598dfc3ea5,1,2f9d4fd5-6eb8-4e9b-9a91-25013bd6238b,0ba67d39-a697-49b8-b326-c2fb56865a4f
2020-03-08 15:08:14,2588fb5d-d83c-47a5-9df6-bc625ed48064,1,2f9d4fd5-6eb8-4e9b-9a91-25013bd6238b,0b2c21ad-4a5a-401c-9133-eea9e175f70a
2020-03-08 15:08:14,9d98d12e-ecba-404a-92f7-f9db98814c69,1,2f9d4fd5-6eb8-4e9b-9a91-25013bd6238b,efcff6c1-db3a-4143-ae81-44e17e2522bb
2020-03-08 15:08:14,3e4c3a31-cd7e-4da3-969b-682538e72b36,1,2f9d4fd5-6eb8-4e9b-9a91-25013bd6238b,0b2c21ad-4a5a-401c-9133-eea9e175f70a
2020-03-08 15:09:17,becb930e-e856-4d5b-8987-e5e505ae6800,1,2f9d4fd5-6eb8-4e9b-9a91-25013bd6238b,c430595f-8464-475c-8f37-8bfef57f9124
2020-03-08 15:09:17,cea7050f-1164-441f-a823-1a41a590fd34,1,2f9d4fd5-6eb8-4e9b-9a91-25013bd6238b,c430595f-8464-475c-8f37-8bfef57f9124
2020-03-08 15:09:17,2375eedf-03b1-4c35-af95-a983200ceca7,1,2f9d4fd5-6eb8-4e9b-9a91-25013bd6238b,1c0a0d75-50a9-443c-b76b-f7b577dff2b7
2020-03-08 15:10:20,84788182-71b8-4a50-b786-a81617e8a311,1,2f9d4fd5-6eb8-4e9b-9a91-25013bd6238b,3965dba9-ac85-4354-8c42-c29bbe67d95e
2020-03-08 15:10:20,11e3e1bc-dc68-4c78-85f3-adceb500339e,1,2f9d4fd5-6eb8-4e9b-9a91-25013bd6238b,723286f2-a9f1-4bd3-8e6b-43c41c718f31
2020-03-08 15:10:20,54377748-7350-4280-b870-969bdf387d22,1,2f9d4fd5-6eb8-4e9b-9a91-25013bd6238b,723286f2-a9f1-4bd3-8e6b-43c41c718f31
2020-03-08 15:11:23,b7d00e92-0eb5-4736-a0f6-785edc80cb77,1,2f9d4fd5-6eb8-4e9b-9a91-25013bd6238b,bb4c8ee9-8f04-4ae4-b643-f34b58be1c9d
2020-03-08 15:11:23,fad43610-34e6-49e0-9c8e-08ee4d4e1c4a,1,2f9d4fd5-6eb8-4e9b-9a91-25013bd6238b,3934131b-0907-49c5-a15e-84e131da419c
2020-03-08 15:11:23,4fe0b266-40b6-4eb3-a129-bf76a08423ac,1,2f9d4fd5-6eb8-4e9b-9a91-25013bd6238b,3934131b-0907-49c5-a15e-84e131da419c
2020-03-08 15:12:26,85b458b8-b187-4961-ad4e-107d7c72ff9b,1,2f9d4fd5-6eb8-4e9b-9a91-25013bd6238b,2deb7878-c38f-4bb0-8482-20ad9736e171
2020-03-08 15:12:26,b61602a5-aac8-4c9f-b3f6-a672e0d25390,1,2f9d4fd5-6eb8-4e9b-9a91-25013bd6238b,2deb7878-c38f-4bb0-8482-20ad9736e171
2020-03-08 15:12:26,16d7ddb4-44e6-4cce-97c8-99d681f69093,1,2f9d4fd5-6eb8-4e9b-9a91-25013bd6238b,69c80b64-8404-41ac-9107-e373c8365e94
2020-03-08 15:13:29,022bd7b0-9ec3-4465-8c05-cebfcfa8d6f7,1,2f9d4fd5-6eb8-4e9b-9a91-25013bd6238b,80b36a5d-11ca-40bc-9062-de133ef3a3b5
2020-03-08 15:13:29,bb7352af-8214-4515-b735-f17214265793,1,2f9d4fd5-6eb8-4e9b-9a91-25013bd6238b,830e48cc-40b5-416c-a524-c1b4516ffc8a
2020-03-08 15:13:29,134f0ac4-fb8b-4b89-bec9-767a14753e4d,1,2f9d4fd5-6eb8-4e9b-9a91-25013bd6238b,80b36a5d-11ca-40bc-9062-de133ef3a3b5
2020-03-08 15:14:32,95f5dfb8-6385-47d5-a2fa-3c62a23b045c,1,2f9d4fd5-6eb8-4e9b-9a91-25013bd6238b,5ac7c2a0-e155-4224-acd2-079f6105da1f
2020-03-08 15:14:32,55be9499-a98c-4848-a157-4f969fbefc2a,1,2f9d4fd5-6eb8-4e9b-9a91-25013bd6238b,832e4b14-d858-4c6b-ab9f-abeff3464ea4
2020-03-08 15:14:32,dc0c2067-0d3b-405e-89be-57798f9da4dc,1,2f9d4fd5-6eb8-4e9b-9a91-25013bd6238b,832e4b14-d858-4c6b-ab9f-abeff3464ea4
2020-03-08 15:15:34,d61395a7-cae1-4286-a8c9-478e344222a4,1,2f9d4fd5-6eb8-4e9b-9a91-25013bd6238b,b4fb2f8d-39db-4ed1-b82d-f222aee77e21
2020-03-08 15:15:34,171bdcaa-5972-4a1f-830c-1113b5fe5cba,1,2f9d4fd5-6eb8-4e9b-9a91-25013bd6238b,092999ba-e2bd-4857-89db-4a787d784f3e
2020-03-08 15:15:34,0dbb5349-1d72-4329-b110-592f42ad9dac,1,2f9d4fd5-6eb8-4e9b-9a91-25013bd6238b,b4fb2f8d-39db-4ed1-b82d-f222aee77e21
2020-03-08 15:16:37,ab9a4db7-a261-405f-aa69-70382623a901,1,2f9d4fd5-6eb8-4e9b-9a91-25013bd6238b,cfd5154b-5d21-4a2a-97d9-f08ab0d949ea
2020-03-08 15:16:37,42db2e4e-e6cf-4cfc-9f76-646222316ce4,1,2f9d4fd5-6eb8-4e9b-9a91-25013bd6238b,a39736b7-5cc0-4e68-9a78-3d80e5c2c0a3
2020-03-08 15:16:37,6c576d6b-e70e-457c-817e-c494514f7fb3,1,2f9d4fd5-6eb8-4e9b-9a91-25013bd6238b,cfd5154b-5d21-4a2a-97d9-f08ab0d949ea
2020-03-08 15:17:40,0171a1a5-a4f2-49d0-9867-dcbf195d5ee9,1,2f9d4fd5-6eb8-4e9b-9a91-25013bd6238b,d4307c34-1419-4c0e-97d1-032f523d4c44
2020-03-08 15:17:40,3502d4e4-5827-44b6-b3c5-71b056b72e95,1,2f9d4fd5-6eb8-4e9b-9a91-25013bd6238b,d4307c34-1419-4c0e-97d1-032f523d4c44
2020-03-08 15:17:40,453b1ce9-bd65-4c16-8245-f1bb4e94d4bd,1,2f9d4fd5-6eb8-4e9b-9a91-25013bd6238b,d5fe121c-746d-426c-b10c-f292a0451ab4
2020-03-08 15:18:43,3472d7f6-5b4f-4e92-b5f9-db9bdfd9a0ba,1,2f9d4fd5-6eb8-4e9b-9a91-25013bd6238b,9e14d203-d223-407a-b64a-cd4e0798970f
2020-03-08 15:18:43,17d95f46-9c8c-4f49-a663-c6ac130835b4,1,2f9d4fd5-6eb8-4e9b-9a91-25013bd6238b,4624a324-7782-4de4-ba92-54c945078fbe
2020-03-08 15:18:43,27795352-874d-418e-a7ea-777c6e22e2e8,1,2f9d4fd5-6eb8-4e9b-9a91-25013bd6238b,9e14d203-d223-407a-b64a-cd4e0798970f
2020-03-08 15:19:46,2891c9a7-d19d-4897-b27f-9df608f3a199,1,2f9d4fd5-6eb8-4e9b-9a91-25013bd6238b,9006c278-3db7-4745-a935-7ffd78a34ebe
2020-03-08 15:19:46,e964958c-f958-4fa9-b497-efeed5b78491,1,2f9d4fd5-6eb8-4e9b-9a91-25013bd6238b,75faf598-81cf-4456-a7c2-5688e258577e
2020-03-08 15:19:46,168b4dcd-98b1-4d0d-91fc-bb4b95d96c9d,1,2f9d4fd5-6eb8-4e9b-9a91-25013bd6238b,75faf598-81cf-4456-a7c2-5688e258577e
2020-03-08 15:20:49,75ad4a25-c576-42e8-bff9-7c632d1dfe7c,1,2f9d4fd5-6eb8-4e9b-9a91-25013bd6238b,9ef53302-88ef-47ff-9b1a-bf894f6e31cb
2020-03-08 15:20:49,78725e6c-e59d-4e27-9548-1b005f3bbd2f,1,2f9d4fd5-6eb8-4e9b-9a91-25013bd6238b,9ef53302-88ef-47ff-9b1a-bf894f6e31cb
2020-03-08 15:20:49,c231c9d9-729a-4573-92ce-4d43014d1279,1,2f9d4fd5-6eb8-4e9b-9a91-25013bd6238b,ed7f6aac-3b41-4115-99c0-fafdcbd9f7ed
2020-03-08 15:20:57,ca28a988-59e3-4333-834c-7d196b8ff73c,1,cfd5154b-5d21-4a2a-97d9-f08ab0d949ea,d4307c34-1419-4c0e-97d1-032f523d4c44
2020-03-08 15:20:57,f65d767f-c925-4e05-9025-35c2b2ec6ec9,1,cfd5154b-5d21-4a2a-97d9-f08ab0d949ea,d4307c34-1419-4c0e-97d1-032f523d4c44
2020-03-08 15:29:48,dd904d5a-0198-4c1d-898e-a9db5df6a928,1,cfd5154b-5d21-4a2a-97d9-f08ab0d949ea,75faf598-81cf-4456-a7c2-5688e258577e
2020-03-08 15:29:48,0f532bf0-d3b8-47b8-b452-028bfaf579d0,1,cfd5154b-5d21-4a2a-97d9-f08ab0d949ea,75faf598-81cf-4456-a7c2-5688e258577e
2020-03-08 15:30:00,ab9a4db7-a261-405f-aa69-70382623a901,1,cfd5154b-5d21-4a2a-97d9-f08ab0d949ea,b4fb2f8d-39db-4ed1-b82d-f222aee77e21
2020-03-08 15:30:00,6c576d6b-e70e-457c-817e-c494514f7fb3,1,cfd5154b-5d21-4a2a-97d9-f08ab0d949ea,b4fb2f8d-39db-4ed1-b82d-f222aee77e21
2020-03-08 15:30:08,09edf68b-377d-4fb8-99f3-58381f0caa5a,1,cfd5154b-5d21-4a2a-97d9-f08ab0d949ea,0b2c21ad-4a5a-401c-9133-eea9e175f70a
2020-03-08 15:30:08,a9e7bb11-7e27-464c-b44f-e26d41035c28,1,cfd5154b-5d21-4a2a-97d9-f08ab0d949ea,0b2c21ad-4a5a-401c-9133-eea9e175f70a
2020-03-08 15:41:17,f7a9c6c5-4033-41fc-880e-48b0c090c9bf,1,cfd5154b-5d21-4a2a-97d9-f08ab0d949ea,9e14d203-d223-407a-b64a-cd4e0798970f
2020-03-08 15:41:17,00452647-88d8-437c-9f3b-1f0d56cd3b81,1,cfd5154b-5d21-4a2a-97d9-f08ab0d949ea,9e14d203-d223-407a-b64a-cd4e0798970f
2020-03-08 15:41:25,b90fbaeb-9dbb-4857-8b44-013db6496dea,1,cfd5154b-5d21-4a2a-97d9-f08ab0d949ea,9e14d203-d223-407a-b64a-cd4e0798970f
2020-03-08 15:41:25,4bed4126-a116-4709-bf88-d54f692cd1bc,1,cfd5154b-5d21-4a2a-97d9-f08ab0d949ea,9e14d203-d223-407a-b64a-cd4e0798970f
2020-03-08 15:47:05,72e0cba8-96d3-427f-924a-580bdce5d043,1,cfd5154b-5d21-4a2a-97d9-f08ab0d949ea,9ef53302-88ef-47ff-9b1a-bf894f6e31cb
2020-03-08 15:47:05,c3255595-704b-46ca-83f0-721377c54e1c,1,cfd5154b-5d21-4a2a-97d9-f08ab0d949ea,9ef53302-88ef-47ff-9b1a-bf894f6e31cb
2020-03-08 15:48:38,022bd7b0-9ec3-4465-8c05-cebfcfa8d6f7,1,cfd5154b-5d21-4a2a-97d9-f08ab0d949ea,b4fb2f8d-39db-4ed1-b82d-f222aee77e21
2020-03-08 15:48:38,134f0ac4-fb8b-4b89-bec9-767a14753e4d,1,cfd5154b-5d21-4a2a-97d9-f08ab0d949ea,b4fb2f8d-39db-4ed1-b82d-f222aee77e21
2020-03-08 15:48:46,b90fbaeb-9dbb-4857-8b44-013db6496dea,1,cfd5154b-5d21-4a2a-97d9-f08ab0d949ea,9e14d203-d223-407a-b64a-cd4e0798970f
2020-03-08 15:48:46,4bed4126-a116-4709-bf88-d54f692cd1bc,1,cfd5154b-5d21-4a2a-97d9-f08ab0d949ea,9e14d203-d223-407a-b64a-cd4e0798970f
2020-03-08 15:49:42,b90fbaeb-9dbb-4857-8b44-013db6496dea,1,cfd5154b-5d21-4a2a-97d9-f08ab0d949ea,832e4b14-d858-4c6b-ab9f-abeff3464ea4
2020-03-08 15:49:42,4bed4126-a116-4709-bf88-d54f692cd1bc,1,cfd5154b-5d21-4a2a-97d9-f08ab0d949ea,832e4b14-d858-4c6b-ab9f-abeff3464ea4
2020-03-08 15:49:55,022bd7b0-9ec3-4465-8c05-cebfcfa8d6f7,1,cfd5154b-5d21-4a2a-97d9-f08ab0d949ea,832e4b14-d858-4c6b-ab9f-abeff3464ea4
2020-03-08 15:49:55,134f0ac4-fb8b-4b89-bec9-767a14753e4d,1,cfd5154b-5d21-4a2a-97d9-f08ab0d949ea,832e4b14-d858-4c6b-ab9f-abeff3464ea4
2020-03-08 15:50:06,ed7274f4-146a-471a-84a9-fd9d899b0c49,1,cfd5154b-5d21-4a2a-97d9-f08ab0d949ea,9e14d203-d223-407a-b64a-cd4e0798970f
2020-03-08 15:50:06,871c4dfb-f581-4a9f-a4c1-e9b1712aacab,1,cfd5154b-5d21-4a2a-97d9-f08ab0d949ea,9e14d203-d223-407a-b64a-cd4e0798970f
2020-03-08 15:50:41,b90fbaeb-9dbb-4857-8b44-013db6496dea,1,cfd5154b-5d21-4a2a-97d9-f08ab0d949ea,9ef53302-88ef-47ff-9b1a-bf894f6e31cb
2020-03-08 15:50:41,4bed4126-a116-4709-bf88-d54f692cd1bc,1,cfd5154b-5d21-4a2a-97d9-f08ab0d949ea,9ef53302-88ef-47ff-9b1a-bf894f6e31cb
2020-03-08 16:32:28,022bd7b0-9ec3-4465-8c05-cebfcfa8d6f7,1,cfd5154b-5d21-4a2a-97d9-f08ab0d949ea,3d9dab9b-6c7e-4f27-ae30-27a67202ba9b
2020-03-08 16:32:28,134f0ac4-fb8b-4b89-bec9-767a14753e4d,1,cfd5154b-5d21-4a2a-97d9-f08ab0d949ea,3d9dab9b-6c7e-4f27-ae30-27a67202ba9b
2020-03-08 16:33:15,022bd7b0-9ec3-4465-8c05-cebfcfa8d6f7,1,cfd5154b-5d21-4a2a-97d9-f08ab0d949ea,832e4b14-d858-4c6b-ab9f-abeff3464ea4
2020-03-08 16:33:15,134f0ac4-fb8b-4b89-bec9-767a14753e4d,1,cfd5154b-5d21-4a2a-97d9-f08ab0d949ea,832e4b14-d858-4c6b-ab9f-abeff3464ea4
2020-03-08 16:37:40,db7ce211-13e4-4951-8cb0-ee3d7afce0bb,1,cfd5154b-5d21-4a2a-97d9-f08ab0d949ea,75faf598-81cf-4456-a7c2-5688e258577e
2020-03-08 16:37:40,ea270e9b-e059-42fc-b4d0-27a39080614a,1,cfd5154b-5d21-4a2a-97d9-f08ab0d949ea,75faf598-81cf-4456-a7c2-5688e258577e
2020-03-08 15:26:49,1418ee40-a782-4c15-9121-871657987193,1,75faf598-81cf-4456-a7c2-5688e258577e,d4307c34-1419-4c0e-97d1-032f523d4c44
2020-03-08 15:26:49,c7653b7d-f231-44b5-8fcd-3212c75dfb1f,1,75faf598-81cf-4456-a7c2-5688e258577e,d4307c34-1419-4c0e-97d1-032f523d4c44
2020-03-08 15:26:59,9ce559f1-52b8-48ea-99ab-8972c6bf9dd7,1,75faf598-81cf-4456-a7c2-5688e258577e,832e4b14-d858-4c6b-ab9f-abeff3464ea4
2020-03-08 15:26:59,7e641ad4-573d-4efc-9613-6f6ad165d403,1,75faf598-81cf-4456-a7c2-5688e258577e,832e4b14-d858-4c6b-ab9f-abeff3464ea4
2020-03-08 15:27:07,eb3d619c-3993-4673-b7aa-f3d5b6e3a113,1,75faf598-81cf-4456-a7c2-5688e258577e,d4307c34-1419-4c0e-97d1-032f523d4c44
2020-03-08 15:27:07,4a5df7ad-9139-4749-a47d-23a687ba45ac,1,75faf598-81cf-4456-a7c2-5688e258577e,d4307c34-1419-4c0e-97d1-032f523d4c44
2020-03-08 15:30:05,dd904d5a-0198-4c1d-898e-a9db5df6a928,1,75faf598-81cf-4456-a7c2-5688e258577e,c430595f-8464-475c-8f37-8bfef57f9124
2020-03-08 15:30:05,0f532bf0-d3b8-47b8-b452-028bfaf579d0,1,75faf598-81cf-4456-a7c2-5688e258577e,c430595f-8464-475c-8f37-8bfef57f9124
2020-03-08 15:30:41,dd904d5a-0198-4c1d-898e-a9db5df6a928,1,75faf598-81cf-4456-a7c2-5688e258577e,9e14d203-d223-407a-b64a-cd4e0798970f
2020-03-08 15:30:41,0f532bf0-d3b8-47b8-b452-028bfaf579d0,1,75faf598-81cf-4456-a7c2-5688e258577e,9e14d203-d223-407a-b64a-cd4e0798970f
2020-03-08 16:36:00,db7ce211-13e4-4951-8cb0-ee3d7afce0bb,1,75faf598-81cf-4456-a7c2-5688e258577e,3934131b-0907-49c5-a15e-84e131da419c
2020-03-08 16:36:00,ea270e9b-e059-42fc-b4d0-27a39080614a,1,75faf598-81cf-4456-a7c2-5688e258577e,3934131b-0907-49c5-a15e-84e131da419c
2020-03-08 16:36:15,85b458b8-b187-4961-ad4e-107d7c72ff9b,1,75faf598-81cf-4456-a7c2-5688e258577e,80b36a5d-11ca-40bc-9062-de133ef3a3b5
2020-03-08 16:36:15,b61602a5-aac8-4c9f-b3f6-a672e0d25390,1,75faf598-81cf-4456-a7c2-5688e258577e,80b36a5d-11ca-40bc-9062-de133ef3a3b5
2020-03-08 16:36:30,6524bd5e-027a-4a07-b868-4b3d1e702b25,1,75faf598-81cf-4456-a7c2-5688e258577e,d4307c34-1419-4c0e-97d1-032f523d4c44
2020-03-08 16:36:30,49e31177-577c-457e-9a9b-51229b936ab3,1,75faf598-81cf-4456-a7c2-5688e258577e,d4307c34-1419-4c0e-97d1-032f523d4c44
2020-03-08 16:36:38,e964958c-f958-4fa9-b497-efeed5b78491,1,75faf598-81cf-4456-a7c2-5688e258577e,3934131b-0907-49c5-a15e-84e131da419c
2020-03-08 16:36:38,168b4dcd-98b1-4d0d-91fc-bb4b95d96c9d,1,75faf598-81cf-4456-a7c2-5688e258577e,3934131b-0907-49c5-a15e-84e131da419c
2020-03-08 15:25:06,ef46aa78-3ffa-4034-be45-66135d0fbf01,1,723286f2-a9f1-4bd3-8e6b-43c41c718f31,9ef53302-88ef-47ff-9b1a-bf894f6e31cb
2020-03-08 15:25:06,6f870eca-5e7f-4ea0-85bc-3df15f6aec69,1,723286f2-a9f1-4bd3-8e6b-43c41c718f31,9ef53302-88ef-47ff-9b1a-bf894f6e31cb
2020-03-08 15:25:41,9ce559f1-52b8-48ea-99ab-8972c6bf9dd7,1,723286f2-a9f1-4bd3-8e6b-43c41c718f31,3934131b-0907-49c5-a15e-84e131da419c
2020-03-08 15:25:41,7e641ad4-573d-4efc-9613-6f6ad165d403,1,723286f2-a9f1-4bd3-8e6b-43c41c718f31,3934131b-0907-49c5-a15e-84e131da419c
2020-03-08 15:32:26,db7ce211-13e4-4951-8cb0-ee3d7afce0bb,1,723286f2-a9f1-4bd3-8e6b-43c41c718f31,9ef53302-88ef-47ff-9b1a-bf894f6e31cb
2020-03-08 15:32:26,ea270e9b-e059-42fc-b4d0-27a39080614a,1,723286f2-a9f1-4bd3-8e6b-43c41c718f31,9ef53302-88ef-47ff-9b1a-bf894f6e31cb
2020-03-08 15:32:34,dd904d5a-0198-4c1d-898e-a9db5df6a928,1,723286f2-a9f1-4bd3-8e6b-43c41c718f31,9ef53302-88ef-47ff-9b1a-bf894f6e31cb
2020-03-08 15:32:35,0f532bf0-d3b8-47b8-b452-028bfaf579d0,1,723286f2-a9f1-4bd3-8e6b-43c41c718f31,9ef53302-88ef-47ff-9b1a-bf894f6e31cb
2020-03-08 15:33:29,dd904d5a-0198-4c1d-898e-a9db5df6a928,1,723286f2-a9f1-4bd3-8e6b-43c41c718f31,b4fb2f8d-39db-4ed1-b82d-f222aee77e21
2020-03-08 15:33:29,0f532bf0-d3b8-47b8-b452-028bfaf579d0,1,723286f2-a9f1-4bd3-8e6b-43c41c718f31,b4fb2f8d-39db-4ed1-b82d-f222aee77e21
2020-03-08 15:34:30,ef46aa78-3ffa-4034-be45-66135d0fbf01,1,723286f2-a9f1-4bd3-8e6b-43c41c718f31,3d9dab9b-6c7e-4f27-ae30-27a67202ba9b
2020-03-08 15:34:30,6f870eca-5e7f-4ea0-85bc-3df15f6aec69,1,723286f2-a9f1-4bd3-8e6b-43c41c718f31,3d9dab9b-6c7e-4f27-ae30-27a67202ba9b
2020-03-08 15:48:07,022bd7b0-9ec3-4465-8c05-cebfcfa8d6f7,1,723286f2-a9f1-4bd3-8e6b-43c41c718f31,9ef53302-88ef-47ff-9b1a-bf894f6e31cb
2020-03-08 15:48:07,134f0ac4-fb8b-4b89-bec9-767a14753e4d,1,723286f2-a9f1-4bd3-8e6b-43c41c718f31,9ef53302-88ef-47ff-9b1a-bf894f6e31cb
2020-03-08 15:48:16,539172bd-5b78-46fe-966f-053dba90103a,1,723286f2-a9f1-4bd3-8e6b-43c41c718f31,cfd5154b-5d21-4a2a-97d9-f08ab0d949ea
2020-03-08 15:48:16,1e5a3ef5-2197-456c-9157-6fd09bbfcbd5,1,723286f2-a9f1-4bd3-8e6b-43c41c718f31,cfd5154b-5d21-4a2a-97d9-f08ab0d949ea
2020-03-08 15:48:29,09edf68b-377d-4fb8-99f3-58381f0caa5a,1,723286f2-a9f1-4bd3-8e6b-43c41c718f31,d4307c34-1419-4c0e-97d1-032f523d4c44
2020-03-08 15:48:29,a9e7bb11-7e27-464c-b44f-e26d41035c28,1,723286f2-a9f1-4bd3-8e6b-43c41c718f31,d4307c34-1419-4c0e-97d1-032f523d4c44
2020-03-08 15:48:37,11e3e1bc-dc68-4c78-85f3-adceb500339e,1,723286f2-a9f1-4bd3-8e6b-43c41c718f31,b4fb2f8d-39db-4ed1-b82d-f222aee77e21
2020-03-08 15:48:37,54377748-7350-4280-b870-969bdf387d22,1,723286f2-a9f1-4bd3-8e6b-43c41c718f31,b4fb2f8d-39db-4ed1-b82d-f222aee77e21
2020-03-08 15:49:23,ed7274f4-146a-471a-84a9-fd9d899b0c49,1,723286f2-a9f1-4bd3-8e6b-43c41c718f31,cfd5154b-5d21-4a2a-97d9-f08ab0d949ea
2020-03-08 15:49:23,871c4dfb-f581-4a9f-a4c1-e9b1712aacab,1,723286f2-a9f1-4bd3-8e6b-43c41c718f31,cfd5154b-5d21-4a2a-97d9-f08ab0d949ea
2020-03-08 15:45:35,ef46aa78-3ffa-4034-be45-66135d0fbf01,1,3d9dab9b-6c7e-4f27-ae30-27a67202ba9b,9ef53302-88ef-47ff-9b1a-bf894f6e31cb
2020-03-08 15:45:35,6f870eca-5e7f-4ea0-85bc-3df15f6aec69,1,3d9dab9b-6c7e-4f27-ae30-27a67202ba9b,9ef53302-88ef-47ff-9b1a-bf894f6e31cb
2020-03-08 15:45:46,72e0cba8-96d3-427f-924a-580bdce5d043,1,3d9dab9b-6c7e-4f27-ae30-27a67202ba9b,80b36a5d-11ca-40bc-9062-de133ef3a3b5
2020-03-08 15:45:46,c3255595-704b-46ca-83f0-721377c54e1c,1,3d9dab9b-6c7e-4f27-ae30-27a67202ba9b,80b36a5d-11ca-40bc-9062-de133ef3a3b5
2020-03-08 15:45:55,481a63d9-a83a-4213-a07e-5304dff38ef2,1,3d9dab9b-6c7e-4f27-ae30-27a67202ba9b,80b36a5d-11ca-40bc-9062-de133ef3a3b5
2020-03-08 15:45:55,46eb9e79-7140-425c-9b70-335df3171464,1,3d9dab9b-6c7e-4f27-ae30-27a67202ba9b,80b36a5d-11ca-40bc-9062-de133ef3a3b5
2020-03-08 15:49:17,022bd7b0-9ec3-4465-8c05-cebfcfa8d6f7,1,3d9dab9b-6c7e-4f27-ae30-27a67202ba9b,cfd5154b-5d21-4a2a-97d9-f08ab0d949ea
2020-03-08 15:49:17,134f0ac4-fb8b-4b89-bec9-767a14753e4d,1,3d9dab9b-6c7e-4f27-ae30-27a67202ba9b,cfd5154b-5d21-4a2a-97d9-f08ab0d949ea
2020-03-08 15:51:49,b90fbaeb-9dbb-4857-8b44-013db6496dea,1,3d9dab9b-6c7e-4f27-ae30-27a67202ba9b,75faf598-81cf-4456-a7c2-5688e258577e
2020-03-08 15:51:49,4bed4126-a116-4709-bf88-d54f692cd1bc,1,3d9dab9b-6c7e-4f27-ae30-27a67202ba9b,75faf598-81cf-4456-a7c2-5688e258577e
2020-03-08 15:54:44,022bd7b0-9ec3-4465-8c05-cebfcfa8d6f7,1,3d9dab9b-6c7e-4f27-ae30-27a67202ba9b,2deb7878-c38f-4bb0-8482-20ad9736e171
2020-03-08 15:54:44,134f0ac4-fb8b-4b89-bec9-767a14753e4d,1,3d9dab9b-6c7e-4f27-ae30-27a67202ba9b,2deb7878-c38f-4bb0-8482-20ad9736e171
2020-03-08 16:06:33,90b46624-9dc9-4aa6-9d85-29594ddbf1b0,1,3d9dab9b-6c7e-4f27-ae30-27a67202ba9b,9e14d203-d223-407a-b64a-cd4e0798970f
2020-03-08 16:06:33,34a3b63a-8996-4a04-ae70-72b59e27e560,1,3d9dab9b-6c7e-4f27-ae30-27a67202ba9b,9e14d203-d223-407a-b64a-cd4e0798970f
2020-03-08 16:06:45,481a63d9-a83a-4213-a07e-5304dff38ef2,1,3d9dab9b-6c7e-4f27-ae30-27a67202ba9b,3934131b-0907-49c5-a15e-84e131da419c
2020-03-08 16:06:45,46eb9e79-7140-425c-9b70-335df3171464,1,3d9dab9b-6c7e-4f27-ae30-27a67202ba9b,3934131b-0907-49c5-a15e-84e131da419c
2020-03-08 16:32:46,022bd7b0-9ec3-4465-8c05-cebfcfa8d6f7,1,3d9dab9b-6c7e-4f27-ae30-27a67202ba9b,9ef53302-88ef-47ff-9b1a-bf894f6e31cb
2020-03-08 16:32:46,134f0ac4-fb8b-4b89-bec9-767a14753e4d,1,3d9dab9b-6c7e-4f27-ae30-27a67202ba9b,9ef53302-88ef-47ff-9b1a-bf894f6e31cb
2020-03-08 16:32:58,3472d7f6-5b4f-4e92-b5f9-db9bdfd9a0ba,1,3d9dab9b-6c7e-4f27-ae30-27a67202ba9b,cfd5154b-5d21-4a2a-97d9-f08ab0d949ea
2020-03-08 16:32:58,27795352-874d-418e-a7ea-777c6e22e2e8,1,3d9dab9b-6c7e-4f27-ae30-27a67202ba9b,cfd5154b-5d21-4a2a-97d9-f08ab0d949ea
2020-03-08 16:33:09,85b458b8-b187-4961-ad4e-107d7c72ff9b,1,3d9dab9b-6c7e-4f27-ae30-27a67202ba9b,75faf598-81cf-4456-a7c2-5688e258577e
2020-03-08 16:33:09,b61602a5-aac8-4c9f-b3f6-a672e0d25390,1,3d9dab9b-6c7e-4f27-ae30-27a67202ba9b,75faf598-81cf-4456-a7c2-5688e258577e
2020-03-08 16:33:16,fb1e739a-e3df-4cea-9e50-1e5be22fc531,1,3d9dab9b-6c7e-4f27-ae30-27a67202ba9b,832e4b14-d858-4c6b-ab9f-abeff3464ea4
2020-03-08 16:33:16,6fda2498-eb65-4848-9f1d-7273bc430f2e,1,3d9dab9b-6c7e-4f27-ae30-27a67202ba9b,832e4b14-d858-4c6b-ab9f-abeff3464ea4
2020-03-08 16:46:45,481a63d9-a83a-4213-a07e-5304dff38ef2,1,3d9dab9b-6c7e-4f27-ae30-27a67202ba9b,0b2c21ad-4a5a-401c-9133-eea9e175f70a
2020-03-08 16:46:45,46eb9e79-7140-425c-9b70-335df3171464,1,3d9dab9b-6c7e-4f27-ae30-27a67202ba9b,0b2c21ad-4a5a-401c-9133-eea9e175f70a
2020-03-08 16:52:31,022bd7b0-9ec3-4465-8c05-cebfcfa8d6f7,1,3d9dab9b-6c7e-4f27-ae30-27a67202ba9b,832e4b14-d858-4c6b-ab9f-abeff3464ea4
2020-03-08 16:52:31,134f0ac4-fb8b-4b89-bec9-767a14753e4d,1,3d9dab9b-6c7e-4f27-ae30-27a67202ba9b,832e4b14-d858-4c6b-ab9f-abeff3464ea4
2020-03-08 15:27:22,becb930e-e856-4d5b-8987-e5e505ae6800,1,b4fb2f8d-39db-4ed1-b82d-f222aee77e21,c430595f-8464-475c-8f37-8bfef57f9124
2020-03-08 15:27:22,cea7050f-1164-441f-a823-1a41a590fd34,1,b4fb2f8d-39db-4ed1-b82d-f222aee77e21,c430595f-8464-475c-8f37-8bfef57f9124
2020-03-08 15:27:34,abcc7e3d-3b69-47e8-9366-b3ad5f9aa6b5,1,b4fb2f8d-39db-4ed1-b82d-f222aee77e21,c430595f-8464-475c-8f37-8bfef57f9124
2020-03-08 15:27:34,831ff276-8f1c-4841-af35-50dfae333aab,1,b4fb2f8d-39db-4ed1-b82d-f222aee77e21,c430595f-8464-475c-8f37-8bfef57f9124
2020-03-08 15:27:42,c78c3ee2-bf34-4a40-9f69-a7ccba4a70f7,1,b4fb2f8d-39db-4ed1-b82d-f222aee77e21,c430595f-8464-475c-8f37-8bfef57f9124
2020-03-08 15:27:42,962f8fc2-da8d-4ef2-af76-c4037fda80e0,1,b4fb2f8d-39db-4ed1-b82d-f222aee77e21,c430595f-8464-475c-8f37-8bfef57f9124
2020-03-08 15:33:53,ef46aa78-3ffa-4034-be45-66135d0fbf01,1,b4fb2f8d-39db-4ed1-b82d-f222aee77e21,c430595f-8464-475c-8f37-8bfef57f9124
2020-03-08 15:33:53,6f870eca-5e7f-4ea0-85bc-3df15f6aec69,1,b4fb2f8d-39db-4ed1-b82d-f222aee77e21,c430595f-8464-475c-8f37-8bfef57f9124
2020-03-08 15:34:06,dd904d5a-0198-4c1d-898e-a9db5df6a928,1,b4fb2f8d-39db-4ed1-b82d-f222aee77e21,c430595f-8464-475c-8f37-8bfef57f9124
2020-03-08 15:34:06,0f532bf0-d3b8-47b8-b452-028bfaf579d0,1,b4fb2f8d-39db-4ed1-b82d-f222aee77e21,c430595f-8464-475c-8f37-8bfef57f9124
2020-03-08 15:34:13,d61395a7-cae1-4286-a8c9-478e344222a4,1,b4fb2f8d-39db-4ed1-b82d-f222aee77e21,832e4b14-d858-4c6b-ab9f-abeff3464ea4
2020-03-08 15:34:13,0dbb5349-1d72-4329-b110-592f42ad9dac,1,b4fb2f8d-39db-4ed1-b82d-f222aee77e21,832e4b14-d858-4c6b-ab9f-abeff3464ea4
2020-03-08 15:46:31,72e0cba8-96d3-427f-924a-580bdce5d043,1,b4fb2f8d-39db-4ed1-b82d-f222aee77e21,9e14d203-d223-407a-b64a-cd4e0798970f
2020-03-08 15:46:31,c3255595-704b-46ca-83f0-721377c54e1c,1,b4fb2f8d-39db-4ed1-b82d-f222aee77e21,9e14d203-d223-407a-b64a-cd4e0798970f
2020-03-08 15:49:00,022bd7b0-9ec3-4465-8c05-cebfcfa8d6f7,1,b4fb2f8d-39db-4ed1-b82d-f222aee77e21,3d9dab9b-6c7e-4f27-ae30-27a67202ba9b
2020-03-08 15:49:00,134f0ac4-fb8b-4b89-bec9-767a14753e4d,1,b4fb2f8d-39db-4ed1-b82d-f222aee77e21,3d9dab9b-6c7e-4f27-ae30-27a67202ba9b
2020-03-08 15:49:10,11e3e1bc-dc68-4c78-85f3-adceb500339e,1,b4fb2f8d-39db-4ed1-b82d-f222aee77e21,723286f2-a9f1-4bd3-8e6b-43c41c718f31
2020-03-08 15:49:11,54377748-7350-4280-b870-969bdf387d22,1,b4fb2f8d-39db-4ed1-b82d-f222aee77e21,723286f2-a9f1-4bd3-8e6b-43c41c718f31
2020-03-08 15:26:19,9ce559f1-52b8-48ea-99ab-8972c6bf9dd7,1,9ef53302-88ef-47ff-9b1a-bf894f6e31cb,75faf598-81cf-4456-a7c2-5688e258577e
2020-03-08 15:26:19,7e641ad4-573d-4efc-9613-6f6ad165d403,1,9ef53302-88ef-47ff-9b1a-bf894f6e31cb,75faf598-81cf-4456-a7c2-5688e258577e
2020-03-08 15:27:44,becb930e-e856-4d5b-8987-e5e505ae6800,1,9ef53302-88ef-47ff-9b1a-bf894f6e31cb,c430595f-8464-475c-8f37-8bfef57f9124
2020-03-08 15:27:44,cea7050f-1164-441f-a823-1a41a590fd34,1,9ef53302-88ef-47ff-9b1a-bf894f6e31cb,c430595f-8464-475c-8f37-8bfef57f9124
2020-03-08 15:31:21,db7ce211-13e4-4951-8cb0-ee3d7afce0bb,1,9ef53302-88ef-47ff-9b1a-bf894f6e31cb,0b2c21ad-4a5a-401c-9133-eea9e175f70a
2020-03-08 15:31:21,ea270e9b-e059-42fc-b4d0-27a39080614a,1,9ef53302-88ef-47ff-9b1a-bf894f6e31cb,0b2c21ad-4a5a-401c-9133-eea9e175f70a
2020-03-08 15:32:43,db7ce211-13e4-4951-8cb0-ee3d7afce0bb,1,9ef53302-88ef-47ff-9b1a-bf894f6e31cb,9e14d203-d223-407a-b64a-cd4e0798970f
2020-03-08 15:32:43,ea270e9b-e059-42fc-b4d0-27a39080614a,1,9ef53302-88ef-47ff-9b1a-bf894f6e31cb,9e14d203-d223-407a-b64a-cd4e0798970f
2020-03-08 15:32:53,ed7274f4-146a-471a-84a9-fd9d899b0c49,1,9ef53302-88ef-47ff-9b1a-bf894f6e31cb,9e14d203-d223-407a-b64a-cd4e0798970f
2020-03-08 15:32:53,871c4dfb-f581-4a9f-a4c1-e9b1712aacab,1,9ef53302-88ef-47ff-9b1a-bf894f6e31cb,9e14d203-d223-407a-b64a-cd4e0798970f
2020-03-08 15:33:06,ef46aa78-3ffa-4034-be45-66135d0fbf01,1,9ef53302-88ef-47ff-9b1a-bf894f6e31cb,c430595f-8464-475c-8f37-8bfef57f9124
2020-03-08 15:33:06,6f870eca-5e7f-4ea0-85bc-3df15f6aec69,1,9ef53302-88ef-47ff-9b1a-bf894f6e31cb,c430595f-8464-475c-8f37-8bfef57f9124
2020-03-08 15:33:15,dd904d5a-0198-4c1d-898e-a9db5df6a928,1,9ef53302-88ef-47ff-9b1a-bf894f6e31cb,723286f2-a9f1-4bd3-8e6b-43c41c718f31
2020-03-08 15:33:16,0f532bf0-d3b8-47b8-b452-028bfaf579d0,1,9ef53302-88ef-47ff-9b1a-bf894f6e31cb,723286f2-a9f1-4bd3-8e6b-43c41c718f31
2020-03-08 15:40:15,b90fbaeb-9dbb-4857-8b44-013db6496dea,1,9ef53302-88ef-47ff-9b1a-bf894f6e31cb,cfd5154b-5d21-4a2a-97d9-f08ab0d949ea
2020-03-08 15:40:15,4bed4126-a116-4709-bf88-d54f692cd1bc,1,9ef53302-88ef-47ff-9b1a-bf894f6e31cb,cfd5154b-5d21-4a2a-97d9-f08ab0d949ea
2020-03-08 15:45:54,ef46aa78-3ffa-4034-be45-66135d0fbf01,1,9ef53302-88ef-47ff-9b1a-bf894f6e31cb,80b36a5d-11ca-40bc-9062-de133ef3a3b5
2020-03-08 15:45:54,6f870eca-5e7f-4ea0-85bc-3df15f6aec69,1,9ef53302-88ef-47ff-9b1a-bf894f6e31cb,80b36a5d-11ca-40bc-9062-de133ef3a3b5
2020-03-08 15:47:20,72e0cba8-96d3-427f-924a-580bdce5d043,1,9ef53302-88ef-47ff-9b1a-bf894f6e31cb,3d9dab9b-6c7e-4f27-ae30-27a67202ba9b
2020-03-08 15:47:20,c3255595-704b-46ca-83f0-721377c54e1c,1,9ef53302-88ef-47ff-9b1a-bf894f6e31cb,3d9dab9b-6c7e-4f27-ae30-27a67202ba9b
2020-03-08 15:48:18,022bd7b0-9ec3-4465-8c05-cebfcfa8d6f7,1,9ef53302-88ef-47ff-9b1a-bf894f6e31cb,cfd5154b-5d21-4a2a-97d9-f08ab0d949ea
2020-03-08 15:48:18,134f0ac4-fb8b-4b89-bec9-767a14753e4d,1,9ef53302-88ef-47ff-9b1a-bf894f6e31cb,cfd5154b-5d21-4a2a-97d9-f08ab0d949ea
2020-03-08 15:51:04,ed7274f4-146a-471a-84a9-fd9d899b0c49,1,9ef53302-88ef-47ff-9b1a-bf894f6e31cb,832e4b14-d858-4c6b-ab9f-abeff3464ea4
2020-03-08 15:51:04,871c4dfb-f581-4a9f-a4c1-e9b1712aacab,1,9ef53302-88ef-47ff-9b1a-bf894f6e31cb,832e4b14-d858-4c6b-ab9f-abeff3464ea4
2020-03-08 15:51:16,b90fbaeb-9dbb-4857-8b44-013db6496dea,1,9ef53302-88ef-47ff-9b1a-bf894f6e31cb,9e14d203-d223-407a-b64a-cd4e0798970f
2020-03-08 15:51:16,4bed4126-a116-4709-bf88-d54f692cd1bc,1,9ef53302-88ef-47ff-9b1a-bf894f6e31cb,9e14d203-d223-407a-b64a-cd4e0798970f
2020-03-08 15:51:22,75ad4a25-c576-42e8-bff9-7c632d1dfe7c,1,9ef53302-88ef-47ff-9b1a-bf894f6e31cb,723286f2-a9f1-4bd3-8e6b-43c41c718f31
2020-03-08 15:51:22,78725e6c-e59d-4e27-9548-1b005f3bbd2f,1,9ef53302-88ef-47ff-9b1a-bf894f6e31cb,723286f2-a9f1-4bd3-8e6b-43c41c718f31
2020-03-08 16:33:02,022bd7b0-9ec3-4465-8c05-cebfcfa8d6f7,1,9ef53302-88ef-47ff-9b1a-bf894f6e31cb,cfd5154b-5d21-4a2a-97d9-f08ab0d949ea
2020-03-08 16:33:02,134f0ac4-fb8b-4b89-bec9-767a14753e4d,1,9ef53302-88ef-47ff-9b1a-bf894f6e31cb,cfd5154b-5d21-4a2a-97d9-f08ab0d949ea
2020-03-08 16:52:13,022bd7b0-9ec3-4465-8c05-cebfcfa8d6f7,1,9ef53302-88ef-47ff-9b1a-bf894f6e31cb,3d9dab9b-6c7e-4f27-ae30-27a67202ba9b
2020-03-08 16:52:14,134f0ac4-fb8b-4b89-bec9-767a14753e4d,1,9ef53302-88ef-47ff-9b1a-bf894f6e31cb,3d9dab9b-6c7e-4f27-ae30-27a67202ba9b
2020-03-08 16:52:21,e964958c-f958-4fa9-b497-efeed5b78491,1,9ef53302-88ef-47ff-9b1a-bf894f6e31cb,d4307c34-1419-4c0e-97d1-032f523d4c44
2020-03-08 16:52:21,168b4dcd-98b1-4d0d-91fc-bb4b95d96c9d,1,9ef53302-88ef-47ff-9b1a-bf894f6e31cb,d4307c34-1419-4c0e-97d1-032f523d4c44
2020-03-08 15:25:18,f7a9c6c5-4033-41fc-880e-48b0c090c9bf,1,0b2c21ad-4a5a-401c-9133-eea9e175f70a,c430595f-8464-475c-8f37-8bfef57f9124
2020-03-08 15:25:18,00452647-88d8-437c-9f3b-1f0d56cd3b81,1,0b2c21ad-4a5a-401c-9133-eea9e175f70a,c430595f-8464-475c-8f37-8bfef57f9124
2020-03-08 15:31:47,db7ce211-13e4-4951-8cb0-ee3d7afce0bb,1,0b2c21ad-4a5a-401c-9133-eea9e175f70a,2deb7878-c38f-4bb0-8482-20ad9736e171
2020-03-08 15:31:47,ea270e9b-e059-42fc-b4d0-27a39080614a,1,0b2c21ad-4a5a-401c-9133-eea9e175f70a,2deb7878-c38f-4bb0-8482-20ad9736e171
2020-03-08 15:31:59,09edf68b-377d-4fb8-99f3-58381f0caa5a,1,0b2c21ad-4a5a-401c-9133-eea9e175f70a,80b36a5d-11ca-40bc-9062-de133ef3a3b5
2020-03-08 15:31:59,a9e7bb11-7e27-464c-b44f-e26d41035c28,1,0b2c21ad-4a5a-401c-9133-eea9e175f70a,80b36a5d-11ca-40bc-9062-de133ef3a3b5
2020-03-08 15:32:07,dd904d5a-0198-4c1d-898e-a9db5df6a928,1,0b2c21ad-4a5a-401c-9133-eea9e175f70a,723286f2-a9f1-4bd3-8e6b-43c41c718f31
2020-03-08 15:32:07,0f532bf0-d3b8-47b8-b452-028bfaf579d0,1,0b2c21ad-4a5a-401c-9133-eea9e175f70a,723286f2-a9f1-4bd3-8e6b-43c41c718f31
2020-03-08 15:50:07,b90fbaeb-9dbb-4857-8b44-013db6496dea,1,0b2c21ad-4a5a-401c-9133-eea9e175f70a,9e14d203-d223-407a-b64a-cd4e0798970f
2020-03-08 15:50:07,4bed4126-a116-4709-bf88-d54f692cd1bc,1,0b2c21ad-4a5a-401c-9133-eea9e175f70a,9e14d203-d223-407a-b64a-cd4e0798970f
2020-03-08 15:32:05,db7ce211-13e4-4951-8cb0-ee3d7afce0bb,1,2deb7878-c38f-4bb0-8482-20ad9736e171,723286f2-a9f1-4bd3-8e6b-43c41c718f31
2020-03-08 15:32:05,ea270e9b-e059-42fc-b4d0-27a39080614a,1,2deb7878-c38f-4bb0-8482-20ad9736e171,723286f2-a9f1-4bd3-8e6b-43c41c718f31
2020-03-08 16:32:07,022bd7b0-9ec3-4465-8c05-cebfcfa8d6f7,1,2deb7878-c38f-4bb0-8482-20ad9736e171,cfd5154b-5d21-4a2a-97d9-f08ab0d949ea
2020-03-08 16:32:07,134f0ac4-fb8b-4b89-bec9-767a14753e4d,1,2deb7878-c38f-4bb0-8482-20ad9736e171,cfd5154b-5d21-4a2a-97d9-f08ab0d949ea
2020-03-08 16:32:15,3472d7f6-5b4f-4e92-b5f9-db9bdfd9a0ba,1,2deb7878-c38f-4bb0-8482-20ad9736e171,3d9dab9b-6c7e-4f27-ae30-27a67202ba9b
2020-03-08 16:32:15,27795352-874d-418e-a7ea-777c6e22e2e8,1,2deb7878-c38f-4bb0-8482-20ad9736e171,3d9dab9b-6c7e-4f27-ae30-27a67202ba9b
2020-03-08 16:32:28,85b458b8-b187-4961-ad4e-107d7c72ff9b,1,2deb7878-c38f-4bb0-8482-20ad9736e171,3d9dab9b-6c7e-4f27-ae30-27a67202ba9b
2020-03-08 16:32:28,b61602a5-aac8-4c9f-b3f6-a672e0d25390,1,2deb7878-c38f-4bb0-8482-20ad9736e171,3d9dab9b-6c7e-4f27-ae30-27a67202ba9b
2020-03-08 16:32:35,49aade86-e8e5-4132-b1bc-9072a5db8c20,1,2deb7878-c38f-4bb0-8482-20ad9736e171,3934131b-0907-49c5-a15e-84e131da419c
2020-03-08 16:32:35,4ccba644-df58-41bb-a06c-98d011ee9964,1,2deb7878-c38f-4bb0-8482-20ad9736e171,3934131b-0907-49c5-a15e-84e131da419c
2020-03-08 15:21:21,263fc140-5020-4dc3-96db-c7128231b3af,1,c430595f-8464-475c-8f37-8bfef57f9124,b4fb2f8d-39db-4ed1-b82d-f222aee77e21
2020-03-08 15:21:21,f48246ef-bf52-48b3-ba65-bf2ca9e21087,1,c430595f-8464-475c-8f37-8bfef57f9124,b4fb2f8d-39db-4ed1-b82d-f222aee77e21
2020-03-08 15:21:29,becb930e-e856-4d5b-8987-e5e505ae6800,1,c430595f-8464-475c-8f37-8bfef57f9124,b4fb2f8d-39db-4ed1-b82d-f222aee77e21
2020-03-08 15:21:29,cea7050f-1164-441f-a823-1a41a590fd34,1,c430595f-8464-475c-8f37-8bfef57f9124,b4fb2f8d-39db-4ed1-b82d-f222aee77e21
2020-03-08 15:24:08,ef46aa78-3ffa-4034-be45-66135d0fbf01,1,c430595f-8464-475c-8f37-8bfef57f9124,80b36a5d-11ca-40bc-9062-de133ef3a3b5
2020-03-08 15:24:08,6f870eca-5e7f-4ea0-85bc-3df15f6aec69,1,c430595f-8464-475c-8f37-8bfef57f9124,80b36a5d-11ca-40bc-9062-de133ef3a3b5
2020-03-08 15:27:32,becb930e-e856-4d5b-8987-e5e505ae6800,1,c430595f-8464-475c-8f37-8bfef57f9124,9ef53302-88ef-47ff-9b1a-bf894f6e31cb
2020-03-08 15:27:32,cea7050f-1164-441f-a823-1a41a590fd34,1,c430595f-8464-475c-8f37-8bfef57f9124,9ef53302-88ef-47ff-9b1a-bf894f6e31cb
2020-03-08 15:30:24,dd904d5a-0198-4c1d-898e-a9db5df6a928,1,c430595f-8464-475c-8f37-8bfef57f9124,75faf598-81cf-4456-a7c2-5688e258577e
2020-03-08 15:30:25,0f532bf0-d3b8-47b8-b452-028bfaf579d0,1,c430595f-8464-475c-8f37-8bfef57f9124,75faf598-81cf-4456-a7c2-5688e258577e
2020-03-08 15:30:36,abcc7e3d-3b69-47e8-9366-b3ad5f9aa6b5,1,c430595f-8464-475c-8f37-8bfef57f9124,75faf598-81cf-4456-a7c2-5688e258577e
2020-03-08 15:30:36,831ff276-8f1c-4841-af35-50dfae333aab,1,c430595f-8464-475c-8f37-8bfef57f9124,75faf598-81cf-4456-a7c2-5688e258577e
2020-03-08 15:30:45,f7a9c6c5-4033-41fc-880e-48b0c090c9bf,1,c430595f-8464-475c-8f37-8bfef57f9124,cfd5154b-5d21-4a2a-97d9-f08ab0d949ea
2020-03-08 15:30:45,00452647-88d8-437c-9f3b-1f0d56cd3b81,1,c430595f-8464-475c-8f37-8bfef57f9124,cfd5154b-5d21-4a2a-97d9-f08ab0d949ea
2020-03-08 15:30:53,a9e0ef37-b8a0-4e9e-aa12-86f44db9294e,1,c430595f-8464-475c-8f37-8bfef57f9124,9ef53302-88ef-47ff-9b1a-bf894f6e31cb
2020-03-08 15:30:53,68500e64-2adc-43c3-a544-e5a7287c8ec2,1,c430595f-8464-475c-8f37-8bfef57f9124,9ef53302-88ef-47ff-9b1a-bf894f6e31cb
2020-03-08 15:31:49,55be9499-a98c-4848-a157-4f969fbefc2a,1,c430595f-8464-475c-8f37-8bfef57f9124,2deb7878-c38f-4bb0-8482-20ad9736e171
2020-03-08 15:31:49,dc0c2067-0d3b-405e-89be-57798f9da4dc,1,c430595f-8464-475c-8f37-8bfef57f9124,2deb7878-c38f-4bb0-8482-20ad9736e171
2020-03-08 15:33:27,ef46aa78-3ffa-4034-be45-66135d0fbf01,1,c430595f-8464-475c-8f37-8bfef57f9124,b4fb2f8d-39db-4ed1-b82d-f222aee77e21
2020-03-08 15:33:27,6f870eca-5e7f-4ea0-85bc-3df15f6aec69,1,c430595f-8464-475c-8f37-8bfef57f9124,b4fb2f8d-39db-4ed1-b82d-f222aee77e21
2020-03-08 15:34:07,ef46aa78-3ffa-4034-be45-66135d0fbf01,1,c430595f-8464-475c-8f37-8bfef57f9124,80b36a5d-11ca-40bc-9062-de133ef3a3b5
2020-03-08 15:34:07,6f870eca-5e7f-4ea0-85bc-3df15f6aec69,1,c430595f-8464-475c-8f37-8bfef57f9124,80b36a5d-11ca-40bc-9062-de133ef3a3b5
2020-03-08 15:34:23,dd904d5a-0198-4c1d-898e-a9db5df6a928,1,c430595f-8464-475c-8f37-8bfef57f9124,b4fb2f8d-39db-4ed1-b82d-f222aee77e21
2020-03-08 15:34:23,0f532bf0-d3b8-47b8-b452-028bfaf579d0,1,c430595f-8464-475c-8f37-8bfef57f9124,b4fb2f8d-39db-4ed1-b82d-f222aee77e21
2020-03-08 15:26:50,66c7e5e3-8e69-456a-8fdf-f8b6fdec4a2f,1,85b79a0a-e88f-4fc0-94df-726fa094aadf,85b79a0a-e88f-4fc0-94df-726fa094aadf
2020-03-08 16:37:54,66c7e5e3-8e69-456a-8fdf-f8b6fdec4a2f,1,85b79a0a-e88f-4fc0-94df-726fa094aadf,85b79a0a-e88f-4fc0-94df-726fa094aadf
2020-03-08 15:45:47,040edaef-255b-4321-91f8-663e768bdaef,1,231d94e1-3764-45a8-b931-18a3e25fbf8e,231d94e1-3764-45a8-b931-18a3e25fbf8e
2020-03-08 15:46:14,040edaef-255b-4321-91f8-663e768bdaef,1,231d94e1-3764-45a8-b931-18a3e25fbf8e,231d94e1-3764-45a8-b931-18a3e25fbf8e
2020-03-08 15:46:32,040edaef-255b-4321-91f8-663e768bdaef,1,231d94e1-3764-45a8-b931-18a3e25fbf8e,231d94e1-3764-45a8-b931-18a3e25fbf8e
2020-03-08 15:46:50,040edaef-255b-4321-91f8-663e768bdaef,1,231d94e1-3764-45a8-b931-18a3e25fbf8e,231d94e1-3764-45a8-b931-18a3e25fbf8e
2020-03-08 15:47:05,040edaef-255b-4321-91f8-663e768bdaef,1,231d94e1-3764-45a8-b931-18a3e25fbf8e,231d94e1-3764-45a8-b931-18a3e25fbf8e
2020-03-08 15:47:21,040edaef-255b-4321-91f8-663e768bdaef,1,231d94e1-3764-45a8-b931-18a3e25fbf8e,231d94e1-3764-45a8-b931-18a3e25fbf8e
2020-03-08 15:31:14,17d95f46-9c8c-4f49-a663-c6ac130835b4,1,4624a324-7782-4de4-ba92-54c945078fbe,4624a324-7782-4de4-ba92-54c945078fbe
2020-03-08 16:32:16,17d95f46-9c8c-4f49-a663-c6ac130835b4,1,4624a324-7782-4de4-ba92-54c945078fbe,4624a324-7782-4de4-ba92-54c945078fbe
2020-03-08 16:32:59,17d95f46-9c8c-4f49-a663-c6ac130835b4,1,4624a324-7782-4de4-ba92-54c945078fbe,4624a324-7782-4de4-ba92-54c945078fbe
2020-03-08 15:24:02,796309a3-a5c8-421f-8a3d-abf8f14f57cc,1,158e5217-466d-4ad6-bf0c-c62f996bcd4e,158e5217-466d-4ad6-bf0c-c62f996bcd4e
2020-03-08 16:36:30,796309a3-a5c8-421f-8a3d-abf8f14f57cc,1,158e5217-466d-4ad6-bf0c-c62f996bcd4e,158e5217-466d-4ad6-bf0c-c62f996bcd4e
2020-03-08 16:37:30,796309a3-a5c8-421f-8a3d-abf8f14f57cc,1,158e5217-466d-4ad6-bf0c-c62f996bcd4e,158e5217-466d-4ad6-bf0c-c62f996bcd4e
2020-03-08 15:34:14,171bdcaa-5972-4a1f-830c-1113b5fe5cba,1,092999ba-e2bd-4857-89db-4a787d784f3e,092999ba-e2bd-4857-89db-4a787d784f3e
2020-03-08 15:27:35,a7e16126-a03f-41ec-bb43-ce723a719748,1,75dda66a-e60f-44c3-a550-e4c97722cc0f,75dda66a-e60f-44c3-a550-e4c97722cc0f
2020-03-08 15:30:37,a7e16126-a03f-41ec-bb43-ce723a719748,1,75dda66a-e60f-44c3-a550-e4c97722cc0f,75dda66a-e60f-44c3-a550-e4c97722cc0f
2020-03-08 15:25:38,9c67290b-6d80-4962-985a-d365263dceb6,1,57f81524-eb5c-49dd-afa0-c594142a704f,57f81524-eb5c-49dd-afa0-c594142a704f
2020-03-08 16:06:09,4a2559a6-aed1-47c6-a831-916fc7c36c54,1,1ebbb750-6ee1-407a-9a57-48a5845a8d38,1ebbb750-6ee1-407a-9a57-48a5845a8d38
2020-03-08 16:06:34,4a2559a6-aed1-47c6-a831-916fc7c36c54,1,1ebbb750-6ee1-407a-9a57-48a5845a8d38,1ebbb750-6ee1-407a-9a57-48a5845a8d38
2020-03-08 16:06:51,4a2559a6-aed1-47c6-a831-916fc7c36c54,1,1ebbb750-6ee1-407a-9a57-48a5845a8d38,1ebbb750-6ee1-407a-9a57-48a5845a8d38
2020-03-08 15:48:38,84788182-71b8-4a50-b786-a81617e8a311,1,3965dba9-ac85-4354-8c42-c29bbe67d95e,3965dba9-ac85-4354-8c42-c29bbe67d95e
2020-03-08 15:49:11,84788182-71b8-4a50-b786-a81617e8a311,1,3965dba9-ac85-4354-8c42-c29bbe67d95e,3965dba9-ac85-4354-8c42-c29bbe67d95e
2020-03-08 15:23:55,453b1ce9-bd65-4c16-8245-f1bb4e94d4bd,1,d5fe121c-746d-426c-b10c-f292a0451ab4,d5fe121c-746d-426c-b10c-f292a0451ab4
2020-03-08 16:33:16,b2accefd-3793-4f0c-9e6e-5a598dfc3ea5,1,0ba67d39-a697-49b8-b326-c2fb56865a4f,0ba67d39-a697-49b8-b326-c2fb56865a4f
2020-03-08 15:21:21,b8e280b9-bdbb-4315-8302-8452eca0262f,1,ff804f44-4418-4829-b448-e5814cb43779,ff804f44-4418-4829-b448-e5814cb43779
2020-03-08 15:31:03,17a6835d-945d-4890-9f38-83e9e74ca5d4,1,7d08e54d-c291-4441-82a9-24b2c8e5b5a3,7d08e54d-c291-4441-82a9-24b2c8e5b5a3
2020-03-08 15:31:21,17a6835d-945d-4890-9f38-83e9e74ca5d4,1,7d08e54d-c291-4441-82a9-24b2c8e5b5a3,7d08e54d-c291-4441-82a9-24b2c8e5b5a3
2020-03-08 15:31:48,17a6835d-945d-4890-9f38-83e9e74ca5d4,1,7d08e54d-c291-4441-82a9-24b2c8e5b5a3,7d08e54d-c291-4441-82a9-24b2c8e5b5a3
2020-03-08 15:32:05,17a6835d-945d-4890-9f38-83e9e74ca5d4,1,7d08e54d-c291-4441-82a9-24b2c8e5b5a3,7d08e54d-c291-4441-82a9-24b2c8e5b5a3
2020-03-08 15:32:27,17a6835d-945d-4890-9f38-83e9e74ca5d4,1,7d08e54d-c291-4441-82a9-24b2c8e5b5a3,7d08e54d-c291-4441-82a9-24b2c8e5b5a3
2020-03-08 15:32:44,17a6835d-945d-4890-9f38-83e9e74ca5d4,1,7d08e54d-c291-4441-82a9-24b2c8e5b5a3,7d08e54d-c291-4441-82a9-24b2c8e5b5a3
2020-03-08 15:33:01,17a6835d-945d-4890-9f38-83e9e74ca5d4,1,7d08e54d-c291-4441-82a9-24b2c8e5b5a3,7d08e54d-c291-4441-82a9-24b2c8e5b5a3
2020-03-08 16:36:00,17a6835d-945d-4890-9f38-83e9e74ca5d4,1,7d08e54d-c291-4441-82a9-24b2c8e5b5a3,7d08e54d-c291-4441-82a9-24b2c8e5b5a3
2020-03-08 16:36:26,17a6835d-945d-4890-9f38-83e9e74ca5d4,1,7d08e54d-c291-4441-82a9-24b2c8e5b5a3,7d08e54d-c291-4441-82a9-24b2c8e5b5a3
2020-03-08 16:37:19,17a6835d-945d-4890-9f38-83e9e74ca5d4,1,7d08e54d-c291-4441-82a9-24b2c8e5b5a3,7d08e54d-c291-4441-82a9-24b2c8e5b5a3
2020-03-08 16:37:41,17a6835d-945d-4890-9f38-83e9e74ca5d4,1,7d08e54d-c291-4441-82a9-24b2c8e5b5a3,7d08e54d-c291-4441-82a9-24b2c8e5b5a3
2020-03-08 15:21:00,b7d00e92-0eb5-4736-a0f6-785edc80cb77,1,bb4c8ee9-8f04-4ae4-b643-f34b58be1c9d,bb4c8ee9-8f04-4ae4-b643-f34b58be1c9d
2020-03-08 15:31:38,95f5dfb8-6385-47d5-a2fa-3c62a23b045c,1,5ac7c2a0-e155-4224-acd2-079f6105da1f,5ac7c2a0-e155-4224-acd2-079f6105da1f
2020-03-08 15:31:49,95f5dfb8-6385-47d5-a2fa-3c62a23b045c,1,5ac7c2a0-e155-4224-acd2-079f6105da1f,5ac7c2a0-e155-4224-acd2-079f6105da1f
2020-03-08 15:30:01,42db2e4e-e6cf-4cfc-9f76-646222316ce4,1,a39736b7-5cc0-4e68-9a78-3d80e5c2c0a3,a39736b7-5cc0-4e68-9a78-3d80e5c2c0a3
2020-03-08 15:27:42,c32e7b00-31f1-4fa8-8f38-17f26b2c774d,1,8fc5c60d-26be-45df-a3c5-e5a16aa287ef,8fc5c60d-26be-45df-a3c5-e5a16aa287ef
2020-03-08 15:21:29,2375eedf-03b1-4c35-af95-a983200ceca7,1,1c0a0d75-50a9-443c-b76b-f7b577dff2b7,1c0a0d75-50a9-443c-b76b-f7b577dff2b7
2020-03-08 15:27:23,2375eedf-03b1-4c35-af95-a983200ceca7,1,1c0a0d75-50a9-443c-b76b-f7b577dff2b7,1c0a0d75-50a9-443c-b76b-f7b577dff2b7
2020-03-08 15:27:32,2375eedf-03b1-4c35-af95-a983200ceca7,1,1c0a0d75-50a9-443c-b76b-f7b577dff2b7,1c0a0d75-50a9-443c-b76b-f7b577dff2b7
2020-03-08 15:27:44,2375eedf-03b1-4c35-af95-a983200ceca7,1,1c0a0d75-50a9-443c-b76b-f7b577dff2b7,1c0a0d75-50a9-443c-b76b-f7b577dff2b7
2020-03-08 15:30:53,fa7a3f66-3382-4714-92f2-42c10ca220ec,1,4b4b324b-a558-4439-b780-0251b542835a,4b4b324b-a558-4439-b780-0251b542835a
2020-03-08 15:40:15,fccae7ff-96d7-48bd-9b5d-ece7cb263fef,1,a7293b52-dd8e-4ab3-8385-d3a0ff177fef,a7293b52-dd8e-4ab3-8385-d3a0ff177fef
2020-03-08 15:41:25,fccae7ff-96d7-48bd-9b5d-ece7cb263fef,1,a7293b52-dd8e-4ab3-8385-d3a0ff177fef,a7293b52-dd8e-4ab3-8385-d3a0ff177fef
2020-03-08 15:47:10,fccae7ff-96d7-48bd-9b5d-ece7cb263fef,1,a7293b52-dd8e-4ab3-8385-d3a0ff177fef,a7293b52-dd8e-4ab3-8385-d3a0ff177fef
2020-03-08 15:48:46,fccae7ff-96d7-48bd-9b5d-ece7cb263fef,1,a7293b52-dd8e-4ab3-8385-d3a0ff177fef,a7293b52-dd8e-4ab3-8385-d3a0ff177fef
2020-03-08 15:49:20,fccae7ff-96d7-48bd-9b5d-ece7cb263fef,1,a7293b52-dd8e-4ab3-8385-d3a0ff177fef,a7293b52-dd8e-4ab3-8385-d3a0ff177fef
2020-03-08 15:49:43,fccae7ff-96d7-48bd-9b5d-ece7cb263fef,1,a7293b52-dd8e-4ab3-8385-d3a0ff177fef,a7293b52-dd8e-4ab3-8385-d3a0ff177fef
2020-03-08 15:49:54,fccae7ff-96d7-48bd-9b5d-ece7cb263fef,1,a7293b52-dd8e-4ab3-8385-d3a0ff177fef,a7293b52-dd8e-4ab3-8385-d3a0ff177fef
2020-03-08 15:50:08,fccae7ff-96d7-48bd-9b5d-ece7cb263fef,1,a7293b52-dd8e-4ab3-8385-d3a0ff177fef,a7293b52-dd8e-4ab3-8385-d3a0ff177fef
2020-03-08 15:50:29,fccae7ff-96d7-48bd-9b5d-ece7cb263fef,1,a7293b52-dd8e-4ab3-8385-d3a0ff177fef,a7293b52-dd8e-4ab3-8385-d3a0ff177fef
2020-03-08 15:50:41,fccae7ff-96d7-48bd-9b5d-ece7cb263fef,1,a7293b52-dd8e-4ab3-8385-d3a0ff177fef,a7293b52-dd8e-4ab3-8385-d3a0ff177fef
2020-03-08 15:51:16,fccae7ff-96d7-48bd-9b5d-ece7cb263fef,1,a7293b52-dd8e-4ab3-8385-d3a0ff177fef,a7293b52-dd8e-4ab3-8385-d3a0ff177fef
2020-03-08 15:51:32,fccae7ff-96d7-48bd-9b5d-ece7cb263fef,1,a7293b52-dd8e-4ab3-8385-d3a0ff177fef,a7293b52-dd8e-4ab3-8385-d3a0ff177fef
2020-03-08 15:51:49,fccae7ff-96d7-48bd-9b5d-ece7cb263fef,1,a7293b52-dd8e-4ab3-8385-d3a0ff177fef,a7293b52-dd8e-4ab3-8385-d3a0ff177fef
2020-03-08 16:36:38,2891c9a7-d19d-4897-b27f-9df608f3a199,1,9006c278-3db7-4745-a935-7ffd78a34ebe,9006c278-3db7-4745-a935-7ffd78a34ebe
2020-03-08 16:46:35,2891c9a7-d19d-4897-b27f-9df608f3a199,1,9006c278-3db7-4745-a935-7ffd78a34ebe,9006c278-3db7-4745-a935-7ffd78a34ebe
2020-03-08 16:52:21,2891c9a7-d19d-4897-b27f-9df608f3a199,1,9006c278-3db7-4745-a935-7ffd78a34ebe,9006c278-3db7-4745-a935-7ffd78a34ebe
2020-03-08 15:31:49,7485d28e-d327-4c3c-a306-e3d536dca178,1,e9e8f2da-02bb-494a-9743-d06e9cce753a,e9e8f2da-02bb-494a-9743-d06e9cce753a
2020-03-08 16:32:35,7485d28e-d327-4c3c-a306-e3d536dca178,1,e9e8f2da-02bb-494a-9743-d06e9cce753a,e9e8f2da-02bb-494a-9743-d06e9cce753a
2020-03-08 15:21:09,050cb758-1fdb-42dd-b594-fa97133e9c33,1,f519a51a-9034-4b8f-9aac-abf312b19ae1,f519a51a-9034-4b8f-9aac-abf312b19ae1
2020-03-08 15:25:28,050cb758-1fdb-42dd-b594-fa97133e9c33,1,f519a51a-9034-4b8f-9aac-abf312b19ae1,f519a51a-9034-4b8f-9aac-abf312b19ae1
2020-03-08 15:25:41,050cb758-1fdb-42dd-b594-fa97133e9c33,1,f519a51a-9034-4b8f-9aac-abf312b19ae1,f519a51a-9034-4b8f-9aac-abf312b19ae1
2020-03-08 15:25:56,050cb758-1fdb-42dd-b594-fa97133e9c33,1,f519a51a-9034-4b8f-9aac-abf312b19ae1,f519a51a-9034-4b8f-9aac-abf312b19ae1
2020-03-08 15:26:19,050cb758-1fdb-42dd-b594-fa97133e9c33,1,f519a51a-9034-4b8f-9aac-abf312b19ae1,f519a51a-9034-4b8f-9aac-abf312b19ae1
2020-03-08 15:27:00,050cb758-1fdb-42dd-b594-fa97133e9c33,1,f519a51a-9034-4b8f-9aac-abf312b19ae1,f519a51a-9034-4b8f-9aac-abf312b19ae1
2020-03-08 15:31:57,050cb758-1fdb-42dd-b594-fa97133e9c33,1,f519a51a-9034-4b8f-9aac-abf312b19ae1,f519a51a-9034-4b8f-9aac-abf312b19ae1
2020-03-08 15:27:07,17bf7adc-71ce-4790-8936-58adbf174925,1,2b13df64-37d2-47a8-8ec4-a49e0884cc0a,2b13df64-37d2-47a8-8ec4-a49e0884cc0a
2020-03-08 15:23:47,47485248-caaf-4061-a3a5-06a182e1dcd8,1,c19ddb69-3504-41de-9830-e7e77f1c8842,c19ddb69-3504-41de-9830-e7e77f1c8842
2020-03-08 15:24:09,47485248-caaf-4061-a3a5-06a182e1dcd8,1,c19ddb69-3504-41de-9830-e7e77f1c8842,c19ddb69-3504-41de-9830-e7e77f1c8842
2020-03-08 15:24:24,47485248-caaf-4061-a3a5-06a182e1dcd8,1,c19ddb69-3504-41de-9830-e7e77f1c8842,c19ddb69-3504-41de-9830-e7e77f1c8842
2020-03-08 15:24:49,47485248-caaf-4061-a3a5-06a182e1dcd8,1,c19ddb69-3504-41de-9830-e7e77f1c8842,c19ddb69-3504-41de-9830-e7e77f1c8842
2020-03-08 15:25:06,47485248-caaf-4061-a3a5-06a182e1dcd8,1,c19ddb69-3504-41de-9830-e7e77f1c8842,c19ddb69-3504-41de-9830-e7e77f1c8842
2020-03-08 15:33:08,47485248-caaf-4061-a3a5-06a182e1dcd8,1,c19ddb69-3504-41de-9830-e7e77f1c8842,c19ddb69-3504-41de-9830-e7e77f1c8842
2020-03-08 15:33:27,47485248-caaf-4061-a3a5-06a182e1dcd8,1,c19ddb69-3504-41de-9830-e7e77f1c8842,c19ddb69-3504-41de-9830-e7e77f1c8842
2020-03-08 15:33:54,47485248-caaf-4061-a3a5-06a182e1dcd8,1,c19ddb69-3504-41de-9830-e7e77f1c8842,c19ddb69-3504-41de-9830-e7e77f1c8842
2020-03-08 15:34:07,47485248-caaf-4061-a3a5-06a182e1dcd8,1,c19ddb69-3504-41de-9830-e7e77f1c8842,c19ddb69-3504-41de-9830-e7e77f1c8842
2020-03-08 15:34:18,47485248-caaf-4061-a3a5-06a182e1dcd8,1,c19ddb69-3504-41de-9830-e7e77f1c8842,c19ddb69-3504-41de-9830-e7e77f1c8842
2020-03-08 15:34:30,47485248-caaf-4061-a3a5-06a182e1dcd8,1,c19ddb69-3504-41de-9830-e7e77f1c8842,c19ddb69-3504-41de-9830-e7e77f1c8842
2020-03-08 15:45:36,47485248-caaf-4061-a3a5-06a182e1dcd8,1,c19ddb69-3504-41de-9830-e7e77f1c8842,c19ddb69-3504-41de-9830-e7e77f1c8842
2020-03-08 15:45:54,47485248-caaf-4061-a3a5-06a182e1dcd8,1,c19ddb69-3504-41de-9830-e7e77f1c8842,c19ddb69-3504-41de-9830-e7e77f1c8842
2020-03-08 15:48:18,501bfe3a-2a91-49eb-899f-1ef1f1eb2c77,1,52c2c5d1-2dea-44a8-b197-e3a1007cb9f1,52c2c5d1-2dea-44a8-b197-e3a1007cb9f1
2020-03-08 15:51:22,c231c9d9-729a-4573-92ce-4d43014d1279,1,ed7f6aac-3b41-4115-99c0-fafdcbd9f7ed,ed7f6aac-3b41-4115-99c0-fafdcbd9f7ed
2020-03-08 15:29:49,a09a5306-34e8-4531-b4ea-329da2d51bf6,1,ded46837-0c88-4380-a94f-1912a03759aa,ded46837-0c88-4380-a94f-1912a03759aa
2020-03-08 15:30:05,a09a5306-34e8-4531-b4ea-329da2d51bf6,1,ded46837-0c88-4380-a94f-1912a03759aa,ded46837-0c88-4380-a94f-1912a03759aa
2020-03-08 15:30:25,a09a5306-34e8-4531-b4ea-329da2d51bf6,1,ded46837-0c88-4380-a94f-1912a03759aa,ded46837-0c88-4380-a94f-1912a03759aa
2020-03-08 15:30:41,a09a5306-34e8-4531-b4ea-329da2d51bf6,1,ded46837-0c88-4380-a94f-1912a03759aa,ded46837-0c88-4380-a94f-1912a03759aa
2020-03-08 15:31:24,a09a5306-34e8-4531-b4ea-329da2d51bf6,1,ded46837-0c88-4380-a94f-1912a03759aa,ded46837-0c88-4380-a94f-1912a03759aa
2020-03-08 15:32:07,a09a5306-34e8-4531-b4ea-329da2d51bf6,1,ded46837-0c88-4380-a94f-1912a03759aa,ded46837-0c88-4380-a94f-1912a03759aa
2020-03-08 15:32:35,a09a5306-34e8-4531-b4ea-329da2d51bf6,1,ded46837-0c88-4380-a94f-1912a03759aa,ded46837-0c88-4380-a94f-1912a03759aa
2020-03-08 15:33:16,a09a5306-34e8-4531-b4ea-329da2d51bf6,1,ded46837-0c88-4380-a94f-1912a03759aa,ded46837-0c88-4380-a94f-1912a03759aa
2020-03-08 15:33:30,a09a5306-34e8-4531-b4ea-329da2d51bf6,1,ded46837-0c88-4380-a94f-1912a03759aa,ded46837-0c88-4380-a94f-1912a03759aa
2020-03-08 15:34:06,a09a5306-34e8-4531-b4ea-329da2d51bf6,1,ded46837-0c88-4380-a94f-1912a03759aa,ded46837-0c88-4380-a94f-1912a03759aa
2020-03-08 15:34:23,a09a5306-34e8-4531-b4ea-329da2d51bf6,1,ded46837-0c88-4380-a94f-1912a03759aa,ded46837-0c88-4380-a94f-1912a03759aa
2020-03-08 15:32:53,ba44c071-01fe-40eb-a3ef-ff3be816cb38,1,17f643e1-001c-483b-b70a-8c758eec02de,17f643e1-001c-483b-b70a-8c758eec02de
2020-03-08 15:49:08,ba44c071-01fe-40eb-a3ef-ff3be816cb38,1,17f643e1-001c-483b-b70a-8c758eec02de,17f643e1-001c-483b-b70a-8c758eec02de
2020-03-08 15:49:23,ba44c071-01fe-40eb-a3ef-ff3be816cb38,1,17f643e1-001c-483b-b70a-8c758eec02de,17f643e1-001c-483b-b70a-8c758eec02de
2020-03-08 15:50:06,ba44c071-01fe-40eb-a3ef-ff3be816cb38,1,17f643e1-001c-483b-b70a-8c758eec02de,17f643e1-001c-483b-b70a-8c758eec02de
2020-03-08 15:50:39,ba44c071-01fe-40eb-a3ef-ff3be816cb38,1,17f643e1-001c-483b-b70a-8c758eec02de,17f643e1-001c-483b-b70a-8c758eec02de
2020-03-08 15:51:05,ba44c071-01fe-40eb-a3ef-ff3be816cb38,1,17f643e1-001c-483b-b70a-8c758eec02de,17f643e1-001c-483b-b70a-8c758eec02de
2020-03-08 15:51:18,ba44c071-01fe-40eb-a3ef-ff3be816cb38,1,17f643e1-001c-483b-b70a-8c758eec02de,17f643e1-001c-483b-b70a-8c758eec02de
2020-03-08 16:32:28,16d7ddb4-44e6-4cce-97c8-99d681f69093,1,69c80b64-8404-41ac-9107-e373c8365e94,69c80b64-8404-41ac-9107-e373c8365e94
2020-03-08 16:33:09,16d7ddb4-44e6-4cce-97c8-99d681f69093,1,69c80b64-8404-41ac-9107-e373c8365e94,69c80b64-8404-41ac-9107-e373c8365e94
2020-03-08 16:36:16,16d7ddb4-44e6-4cce-97c8-99d681f69093,1,69c80b64-8404-41ac-9107-e373c8365e94,69c80b64-8404-41ac-9107-e373c8365e94
2020-03-08 16:36:37,16d7ddb4-44e6-4cce-97c8-99d681f69093,1,69c80b64-8404-41ac-9107-e373c8365e94,69c80b64-8404-41ac-9107-e373c8365e94
2020-03-08 15:30:08,38947dbf-973e-4b0b-aa69-c165f10e5e79,1,f1cb77fd-891e-4d7a-8e3f-95e7bd5f758e,f1cb77fd-891e-4d7a-8e3f-95e7bd5f758e
2020-03-08 15:32:00,38947dbf-973e-4b0b-aa69-c165f10e5e79,1,f1cb77fd-891e-4d7a-8e3f-95e7bd5f758e,f1cb77fd-891e-4d7a-8e3f-95e7bd5f758e
2020-03-08 15:46:43,38947dbf-973e-4b0b-aa69-c165f10e5e79,1,f1cb77fd-891e-4d7a-8e3f-95e7bd5f758e,f1cb77fd-891e-4d7a-8e3f-95e7bd5f758e
2020-03-08 15:48:30,38947dbf-973e-4b0b-aa69-c165f10e5e79,1,f1cb77fd-891e-4d7a-8e3f-95e7bd5f758e,f1cb77fd-891e-4d7a-8e3f-95e7bd5f758e
2020-03-08 16:37:45,38947dbf-973e-4b0b-aa69-c165f10e5e79,1,f1cb77fd-891e-4d7a-8e3f-95e7bd5f758e,f1cb77fd-891e-4d7a-8e3f-95e7bd5f758e
2020-03-08 15:46:24,bb7352af-8214-4515-b735-f17214265793,1,830e48cc-40b5-416c-a524-c1b4516ffc8a,830e48cc-40b5-416c-a524-c1b4516ffc8a
2020-03-08 15:48:08,bb7352af-8214-4515-b735-f17214265793,1,830e48cc-40b5-416c-a524-c1b4516ffc8a,830e48cc-40b5-416c-a524-c1b4516ffc8a
2020-03-08 15:48:18,bb7352af-8214-4515-b735-f17214265793,1,830e48cc-40b5-416c-a524-c1b4516ffc8a,830e48cc-40b5-416c-a524-c1b4516ffc8a
2020-03-08 15:48:40,bb7352af-8214-4515-b735-f17214265793,1,830e48cc-40b5-416c-a524-c1b4516ffc8a,830e48cc-40b5-416c-a524-c1b4516ffc8a
2020-03-08 15:49:01,bb7352af-8214-4515-b735-f17214265793,1,830e48cc-40b5-416c-a524-c1b4516ffc8a,830e48cc-40b5-416c-a524-c1b4516ffc8a
2020-03-08 15:49:17,bb7352af-8214-4515-b735-f17214265793,1,830e48cc-40b5-416c-a524-c1b4516ffc8a,830e48cc-40b5-416c-a524-c1b4516ffc8a
2020-03-08 15:49:56,bb7352af-8214-4515-b735-f17214265793,1,830e48cc-40b5-416c-a524-c1b4516ffc8a,830e48cc-40b5-416c-a524-c1b4516ffc8a
2020-03-08 15:50:11,bb7352af-8214-4515-b735-f17214265793,1,830e48cc-40b5-416c-a524-c1b4516ffc8a,830e48cc-40b5-416c-a524-c1b4516ffc8a
2020-03-08 15:54:44,bb7352af-8214-4515-b735-f17214265793,1,830e48cc-40b5-416c-a524-c1b4516ffc8a,830e48cc-40b5-416c-a524-c1b4516ffc8a
2020-03-08 16:32:08,bb7352af-8214-4515-b735-f17214265793,1,830e48cc-40b5-416c-a524-c1b4516ffc8a,830e48cc-40b5-416c-a524-c1b4516ffc8a
2020-03-08 16:32:28,bb7352af-8214-4515-b735-f17214265793,1,830e48cc-40b5-416c-a524-c1b4516ffc8a,830e48cc-40b5-416c-a524-c1b4516ffc8a
2020-03-08 16:32:47,bb7352af-8214-4515-b735-f17214265793,1,830e48cc-40b5-416c-a524-c1b4516ffc8a,830e48cc-40b5-416c-a524-c1b4516ffc8a
2020-03-08 16:33:02,bb7352af-8214-4515-b735-f17214265793,1,830e48cc-40b5-416c-a524-c1b4516ffc8a,830e48cc-40b5-416c-a524-c1b4516ffc8a
2020-03-08 16:33:15,bb7352af-8214-4515-b735-f17214265793,1,830e48cc-40b5-416c-a524-c1b4516ffc8a,830e48cc-40b5-416c-a524-c1b4516ffc8a
2020-03-08 16:33:32,bb7352af-8214-4515-b735-f17214265793,1,830e48cc-40b5-416c-a524-c1b4516ffc8a,830e48cc-40b5-416c-a524-c1b4516ffc8a
2020-03-08 16:52:15,bb7352af-8214-4515-b735-f17214265793,1,830e48cc-40b5-416c-a524-c1b4516ffc8a,830e48cc-40b5-416c-a524-c1b4516ffc8a
2020-03-08 16:52:31,bb7352af-8214-4515-b735-f17214265793,1,830e48cc-40b5-416c-a524-c1b4516ffc8a,830e48cc-40b5-416c-a524-c1b4516ffc8a
2020-03-08 15:25:00,bf54a95a-dd65-43ff-b4dd-3a47dcf20e3a,1,2ea845b1-8a39-4eae-8103-8188eb752176,2ea845b1-8a39-4eae-8103-8188eb752176
2020-03-08 15:25:18,bf54a95a-dd65-43ff-b4dd-3a47dcf20e3a,1,2ea845b1-8a39-4eae-8103-8188eb752176,2ea845b1-8a39-4eae-8103-8188eb752176
2020-03-08 15:30:45,bf54a95a-dd65-43ff-b4dd-3a47dcf20e3a,1,2ea845b1-8a39-4eae-8103-8188eb752176,2ea845b1-8a39-4eae-8103-8188eb752176
2020-03-08 15:41:19,bf54a95a-dd65-43ff-b4dd-3a47dcf20e3a,1,2ea845b1-8a39-4eae-8103-8188eb752176,2ea845b1-8a39-4eae-8103-8188eb752176
2020-03-08 15:45:55,2eb37249-362f-4ddd-aa33-79f0427290e4,1,20d07d41-02e5-4eee-8b00-716de2edd3f0,20d07d41-02e5-4eee-8b00-716de2edd3f0
2020-03-08 15:46:34,2eb37249-362f-4ddd-aa33-79f0427290e4,1,20d07d41-02e5-4eee-8b00-716de2edd3f0,20d07d41-02e5-4eee-8b00-716de2edd3f0
2020-03-08 15:46:59,2eb37249-362f-4ddd-aa33-79f0427290e4,1,20d07d41-02e5-4eee-8b00-716de2edd3f0,20d07d41-02e5-4eee-8b00-716de2edd3f0
2020-03-08 16:06:18,2eb37249-362f-4ddd-aa33-79f0427290e4,1,20d07d41-02e5-4eee-8b00-716de2edd3f0,20d07d41-02e5-4eee-8b00-716de2edd3f0
2020-03-08 16:06:45,2eb37249-362f-4ddd-aa33-79f0427290e4,1,20d07d41-02e5-4eee-8b00-716de2edd3f0,20d07d41-02e5-4eee-8b00-716de2edd3f0
2020-03-08 16:46:25,2eb37249-362f-4ddd-aa33-79f0427290e4,1,20d07d41-02e5-4eee-8b00-716de2edd3f0,20d07d41-02e5-4eee-8b00-716de2edd3f0
2020-03-08 16:46:45,2eb37249-362f-4ddd-aa33-79f0427290e4,1,20d07d41-02e5-4eee-8b00-716de2edd3f0,20d07d41-02e5-4eee-8b00-716de2edd3f0
2020-03-08 15:49:27,45d48ca3-351a-459d-b5ea-6738dda7047b,1,3485476a-c448-44ec-8c94-c7b73269d5b2,3485476a-c448-44ec-8c94-c7b73269d5b2
2020-03-08 16:38:00,45d48ca3-351a-459d-b5ea-6738dda7047b,1,3485476a-c448-44ec-8c94-c7b73269d5b2,3485476a-c448-44ec-8c94-c7b73269d5b2
2020-03-08 15:20:57,9c67290b-6d80-4962-985a-d365263dceb6,0,NA,NA
