actor,node
47aab2e4-f5e4-4b3e-b87c-10c33cafd56d,49897c2b-053b-46e4-bb16-b7d3bf60d262
a7855bae-cc5f-4d16-834f-331e7c2a89a6,c85e2245-f7f4-497b-b129-81fe2723b9b6
a2dd0356-a0dc-4fed-a5fd-760c8619678b,49897c2b-053b-46e4-bb16-b7d3bf60d262
41d59663-ecdc-4e17-9b36-2b7b46a48ab4,f79e8b06-bb65-4cb2-b55f-be026ea5ce6f
a660f1c1-1f0d-4996-94ce-af8a6462eb5f,2004b541-feb2-4f21-8b0f-dd5881a9d0ba
93c722a1-2e58-4721-ba8d-7af5607fa935,2004b541-feb2-4f21-8b0f-dd5881a9d0ba
8c96f90d-dc24-480b-a1d0-0787ea4b5d10,37beb555-6a2b-4eea-9ca9-dcfcb9029127
20600ebe-4467-4a0a-ac9e-457203b1140d,30787dd5-3f2c-4e34-ae2e-a8286419703a
a5a9b8ef-b0c5-4f94-a929-093febe7229d,37beb555-6a2b-4eea-9ca9-dcfcb9029127
1c0c9360-ec6c-43e1-a4ee-6e07d141072a,7334cd8e-6932-486c-9ad7-a9ee84e9e530
a1f915bd-02d4-4912-b106-0846e8f20930,2987845d-3cb0-485f-992e-55a5b0bb18c5
c33e2a14-d478-4b57-9fae-233f7e8405bd,7334cd8e-6932-486c-9ad7-a9ee84e9e530
0517f59d-75a0-4b9e-8e6b-dd5ebd7a5879,bf6ccecc-12d1-4243-a0c6-f43d8f06a9c1
19f2e24e-9159-4e82-857e-8ba981c304dc,e302893e-9975-4ea8-88ea-b2b0c9776008
ee15d121-1a31-4cf1-ba95-71f919c47a96,bf6ccecc-12d1-4243-a0c6-f43d8f06a9c1
96803db2-a5da-4802-bef8-a0aa91268ce6,0513fbe2-589f-4ed4-9319-5b2aa3da7f2b
aabc9766-9193-4bf3-a2cb-48f860da5f42,07727cb5-3e70-4842-8d9e-280273034eae
7fb926af-be92-4eb8-94d7-664a920ffa4f,07727cb5-3e70-4842-8d9e-280273034eae
d2078314-6042-49c7-b9fb-5b0a9d3db818,19a15c3f-76d0-4a11-8a94-428da642513a
79fb9880-8768-4954-88bc-c78802ec06aa,19a15c3f-76d0-4a11-8a94-428da642513a
ac025249-99cb-4ec8-8d86-bdbf3c818115,05d3b864-83c0-4529-a459-71d7c278924e
15482365-0423-4c24-856e-fa9da9b4c540,9af02a03-2f8f-4043-a7b1-f4e87dd0e9bf
54307c10-c617-41db-941e-4ff4c069a720,783d2ffb-ce52-4c9f-9516-f75e9aa25464
1db585dc-f1bb-4fcc-a899-f920c7281261,783d2ffb-ce52-4c9f-9516-f75e9aa25464
da2f0adb-4823-4a19-bba4-5ae32155e841,a74a8350-8cc8-4658-976f-4951a4a8dd8e
91f6a57b-ed1f-4d3e-b380-c950d3ceb0ea,61defc89-d80f-4e94-b3fd-bb764101a810
f5e3de9f-51c3-421c-adbf-bd87728f0297,a74a8350-8cc8-4658-976f-4951a4a8dd8e
0fe2df59-8ca2-4ce0-b606-b697adfbbeb9,1e20ba9d-ab0d-4327-a8d8-539541f983a3
c2d228dc-7aeb-40bd-94a3-8923dac834e5,1e20ba9d-ab0d-4327-a8d8-539541f983a3
f4a85c6d-4073-43a3-8105-cd00c8721152,b975a054-8d73-4003-8833-6208d92fe5fc
bb89a46f-1f07-4468-a88e-b5a522a856c0,903e6e14-7053-41c3-8f83-b9812bbcc04c
1e08bff6-8a1d-4462-ba27-d0655fedbc64,903e6e14-7053-41c3-8f83-b9812bbcc04c
0afcd377-a793-4570-83fc-0311ba318c81,1fb1f41e-c9f5-432f-a170-edcbbcc348df
71d953f3-3844-44d8-ad98-870030b269a5,2efd0b97-6754-47c3-bdfe-637f5958f9bc
88b0c0a1-6af0-4c33-b648-dde5b24410ae,2efd0b97-6754-47c3-bdfe-637f5958f9bc
8b370b93-1f8a-42b1-9ac0-fc52785975ec,fc2bb658-2a38-41f0-96a9-911e06dcc0a6
718a9380-9165-4f01-a302-89e8768f846c,dc2406e2-fd7e-48f5-a5ab-44128f937196
34dfff4d-09bf-4750-90c2-33e18d33048f,d199adac-5217-41fb-872a-9f43e8cbf0c4
1f43700b-d5d4-4e22-a1d5-c84f9af51bd3,dc2406e2-fd7e-48f5-a5ab-44128f937196
6fb6308a-8918-4056-90f7-753fe8ba5063,4c6f4ccf-ee24-4f66-a396-05c9d995fa78
37883a61-85a3-40a7-9750-5b9288fbd254,c1023457-0e12-47c4-ad9d-49e7fc537153
6bfb49b6-bce4-447c-a0d3-873e2143e1f1,c1023457-0e12-47c4-ad9d-49e7fc537153
d3bce13b-cf83-4a4e-856c-91ffe47f902f,ca71d10c-3069-43ef-9799-a0588e817a1b
ddc20746-f022-4c31-bd2e-0bdb7e116e0a,1d3dfbd4-3058-4919-8ae3-1c01dfe29c14
fe464ae4-bea6-4f8e-81e0-5bf836dbc3b7,1d3dfbd4-3058-4919-8ae3-1c01dfe29c14
4e8bad34-9799-44e9-82df-372521566d63,49897c2b-053b-46e4-bb16-b7d3bf60d262
2ca3069d-b6a7-469f-9897-06f8ed8683fe,a8fef3b6-fcb3-4553-95cb-232338fbb8e8
7ffa4907-3669-41f8-81c5-e324cfe5d5a3,49897c2b-053b-46e4-bb16-b7d3bf60d262
6d7b5970-2456-4864-803b-90280cc7e59f,2004b541-feb2-4f21-8b0f-dd5881a9d0ba
f1534884-478e-4cf3-8118-0cd626c4a80d,2004b541-feb2-4f21-8b0f-dd5881a9d0ba
1bef1758-e057-432f-9410-ffcac927e3d7,97ef85aa-d872-4ca4-8a06-572f3da0a1be
15e1cb8d-b17a-4424-9aad-39386083c11f,37beb555-6a2b-4eea-9ca9-dcfcb9029127
083c4fcc-a337-4973-9659-3dadc29edba0,f78cc88b-a1e5-4c3b-bb00-ef3041e5d8a0
9afa0422-c431-42ff-83e6-ca1a3cf4c55a,37beb555-6a2b-4eea-9ca9-dcfcb9029127
5bbb6fe9-9c94-4c8a-8d9a-0d8cbaf36ec5,c1a1b1ee-4e4a-43c9-9145-95bd43ba9863
6ddd6b28-2675-4098-b922-591b42ca53e2,7334cd8e-6932-486c-9ad7-a9ee84e9e530
8643d67e-b5f8-4dff-962e-fb42f547ef7c,7334cd8e-6932-486c-9ad7-a9ee84e9e530
43ef8910-57c9-4de0-a0be-a9d1be6e3055,fcf239ac-9903-4d9b-8dcf-289ad66eef1d
33f178df-45aa-4fd8-b7bf-a787868468ab,bf6ccecc-12d1-4243-a0c6-f43d8f06a9c1
acd50c44-f94c-4aa0-8f1d-9dd5c7c6e500,bf6ccecc-12d1-4243-a0c6-f43d8f06a9c1
81a94494-d7e6-4714-b0e3-68b503075ac4,07727cb5-3e70-4842-8d9e-280273034eae
71a652ef-3cde-4884-a88b-a9ee11d0e916,07727cb5-3e70-4842-8d9e-280273034eae
130d9fa7-6d34-4f23-8953-b3705d2a2eee,d8811900-74e3-4afb-8f18-772b344db25a
0a0314bd-e7d6-4585-a062-8fc5e310cc33,2688f913-4684-4a22-8f16-9c52a44ed14e
d6af2fea-8bb6-4cf2-a00c-0d5567ff2733,19a15c3f-76d0-4a11-8a94-428da642513a
a987ebee-5b9e-4742-a434-d6148e06708f,19a15c3f-76d0-4a11-8a94-428da642513a
484441b7-92b5-4bb5-a439-cbe9c3896c14,375c7510-8910-48b1-9877-18701795658b
9b3ec1a8-1021-4b2e-bc85-b70660a00ab3,783d2ffb-ce52-4c9f-9516-f75e9aa25464
ee1cf82c-10f2-4a11-b9b4-89a4bc1a530c,783d2ffb-ce52-4c9f-9516-f75e9aa25464
2d6edf00-b7f0-48ad-aae4-8caa6459c1be,a74a8350-8cc8-4658-976f-4951a4a8dd8e
507e81de-1e58-4b8e-8a26-33690ca874ec,a74a8350-8cc8-4658-976f-4951a4a8dd8e
30c7b7a5-0272-4050-91e8-cc8f27b2f6c4,1498db40-bf71-41ff-98a3-ebd3f109c9c5
8d11614d-72da-4d7f-9ad2-cccd3fefc3fc,8079a8c6-86cc-4470-9bd9-107f020d9ec8
bcdc6a86-f75f-4e97-a8f9-970483584c85,1e20ba9d-ab0d-4327-a8d8-539541f983a3
ddf3f5aa-7fd6-4436-8ac6-c86fe681038a,1e20ba9d-ab0d-4327-a8d8-539541f983a3
4cbc4069-373d-4c55-a3d4-8d0379502403,1912e951-d996-4709-89e7-b55a1e35df38
5c7a826c-1aa6-4337-8dba-def2d1445802,903e6e14-7053-41c3-8f83-b9812bbcc04c
7757bb8c-1813-4e5e-94a5-e1fca43958e0,903e6e14-7053-41c3-8f83-b9812bbcc04c
b33b8e34-d96e-4bbd-93ae-b2cb3df66ead,c316b8f8-68d1-4bef-9f65-1ad84f54fdd7
30299331-0395-401b-947f-68716ab14609,2efd0b97-6754-47c3-bdfe-637f5958f9bc
4859d864-3363-419b-8225-32aa13fc0d78,2efd0b97-6754-47c3-bdfe-637f5958f9bc
103fbc8b-8739-423c-8dd8-ff9440db3b63,5d132a38-02a7-4efe-8970-e7439d9529ee
852b838f-91dd-4ad4-9c95-941a9fc66a98,dc2406e2-fd7e-48f5-a5ab-44128f937196
58900803-2e4e-4d68-b42e-053a2fb5a11d,dc2406e2-fd7e-48f5-a5ab-44128f937196
6c13db58-30e0-44a6-aea6-ea5111ad8740,c1023457-0e12-47c4-ad9d-49e7fc537153
d4e5b7a1-be5c-44d9-a545-3c093e9beafc,c1023457-0e12-47c4-ad9d-49e7fc537153
3febb001-2415-481a-8185-a76e1df0ec18,f2a57972-e988-4046-ac57-10bbe146ec93
bf099009-19c6-4e95-adb8-35d9b92a5649,eb028295-9a10-47a4-bde9-881a3bf9c891
2c3ac5d1-783a-4c20-b5b8-8a16edc1f0e5,1d3dfbd4-3058-4919-8ae3-1c01dfe29c14
2f1bfe92-5057-4b2c-8517-6675e6bae66a,1d3dfbd4-3058-4919-8ae3-1c01dfe29c14
3b31ed9d-3648-4fcc-9d49-ab1b09e203ef,49897c2b-053b-46e4-bb16-b7d3bf60d262
85e8ecdf-f0f3-4c84-a347-5cbceb5db8c1,133dd980-04d2-471b-a017-c8354e814221
b1392ac6-d432-41bd-b905-ba949fed3a84,49897c2b-053b-46e4-bb16-b7d3bf60d262
bd6ce540-9eda-4a37-91b4-d412138d9f78,2560c6bb-3492-4090-bda5-b36632b97a07
51d8847a-5472-4112-bbb6-73bdd8259dce,2004b541-feb2-4f21-8b0f-dd5881a9d0ba
db4b06f4-c77c-44c2-afda-651fa58d63d0,2004b541-feb2-4f21-8b0f-dd5881a9d0ba
c3f749dc-420f-40c8-a4ae-158bb3a0c8d0,37beb555-6a2b-4eea-9ca9-dcfcb9029127
3a8cce1b-3fcf-414e-b77e-075b03c94172,3ef50521-16ce-416d-b289-bdd922b4bce2
8128dbee-1e91-49c0-bb69-96c5f9f4ef9d,37beb555-6a2b-4eea-9ca9-dcfcb9029127
73dd7630-bc1c-4159-b77a-fcc39a65d9d6,7334cd8e-6932-486c-9ad7-a9ee84e9e530
40a1a5f5-9f30-45ac-8388-1b578f5679b7,7334cd8e-6932-486c-9ad7-a9ee84e9e530
fc755d11-50f7-4214-b519-f37065f2b981,fca70298-abc0-4487-b009-c8f802f63511
542fd822-a2b8-4254-8138-53a319c1d85f,bf6ccecc-12d1-4243-a0c6-f43d8f06a9c1
802c4c16-031e-463f-8475-0bfd21960b97,9bce67de-f0ef-4cc7-b15f-81c458dc089b
35fa79cc-9500-4a20-b072-65ba02683985,bf6ccecc-12d1-4243-a0c6-f43d8f06a9c1
40308272-0c6d-4668-bb48-93569af00bd3,07727cb5-3e70-4842-8d9e-280273034eae
8f7b8926-0ccc-4572-883c-325bfdcdb3e0,07727cb5-3e70-4842-8d9e-280273034eae
f74f1ea2-5519-49d4-aa18-d3b9e1baab89,c68f359a-0236-4411-85d5-fd99f8c7648e
cdd4e91a-7cd9-4755-9278-a6a322cc0604,19a15c3f-76d0-4a11-8a94-428da642513a
dad0cec8-2000-4295-aa6b-5896459c9119,53fea678-1441-42dc-9d95-06fa12f9a0a1
7110f70c-d6c4-4a78-9e51-1bc8cfbfbe36,19a15c3f-76d0-4a11-8a94-428da642513a
1d4758dd-ca10-4473-a1b6-572990ce8ecd,783d2ffb-ce52-4c9f-9516-f75e9aa25464
b76dea11-67f0-4b43-bb84-3ed31aea8b09,f1feeb6c-8479-4d25-908a-77251db12cc8
8bc72ddd-c2f3-4a19-b0ad-57f23f55ee53,783d2ffb-ce52-4c9f-9516-f75e9aa25464
783ca862-699d-4a35-bb43-1d5fa4fe0c8e,a74a8350-8cc8-4658-976f-4951a4a8dd8e
bbfcbb59-c254-4263-86df-6fbfddd43bde,ee48540f-dd12-4234-93e7-3e49cfc24a52
7a7b6ad7-f62e-4845-a40e-eb608a09a843,a74a8350-8cc8-4658-976f-4951a4a8dd8e
ffc3e04d-fccd-42a6-9fcb-e809c4d7b139,eea1b9da-6f35-425d-981b-caa298fd192b
52ef4faa-17d6-4040-8ae0-0d32c39403a4,1e20ba9d-ab0d-4327-a8d8-539541f983a3
02ce20c0-d5f0-4bb6-9aa2-f287557b306e,1e20ba9d-ab0d-4327-a8d8-539541f983a3
836d8297-c678-46b3-b31b-e9c8c0577816,903e6e14-7053-41c3-8f83-b9812bbcc04c
5a17858d-78a0-4d78-abdf-9b81220ee77a,8ca7411e-dde0-45a3-8c09-0dde0faef41c
3e62f7fd-037b-453e-bcb7-06ebaed0813f,903e6e14-7053-41c3-8f83-b9812bbcc04c
32dafb7f-06fd-400b-921b-868bd8b346b2,2f69f355-b0a6-4b66-850d-2dd54872b55e
ef1ad18a-3e03-42fb-b03c-88e081c68703,2efd0b97-6754-47c3-bdfe-637f5958f9bc
626e8e92-a193-4389-9ca5-26eb0ab9fecf,2efd0b97-6754-47c3-bdfe-637f5958f9bc
d5a3e101-a687-4880-a11e-81fb51422bf2,95c0f427-8061-49f5-82d3-079fd495f7a4
6f4a3efc-a140-4bbf-aa22-4f642fd2cef1,dc2406e2-fd7e-48f5-a5ab-44128f937196
96f8aefa-5903-495a-a17c-787259a621ac,dc2406e2-fd7e-48f5-a5ab-44128f937196
685535c2-ffb1-4f62-aec5-d3f4fb983368,c763b562-c4e0-4c02-9695-b5220fcb2d61
d436c20a-0dd1-46ee-91ea-8b30578cd49b,c1023457-0e12-47c4-ad9d-49e7fc537153
06d9c680-0999-4d18-bb1d-50d0fe523cb3,c1023457-0e12-47c4-ad9d-49e7fc537153
719fe1e1-0465-4839-8a10-bbffe8079721,8659e199-c7c2-4053-8266-b930a6949758
44ef19e5-e45a-4bee-b09b-0022c487e57f,1d3dfbd4-3058-4919-8ae3-1c01dfe29c14
b4237ecc-98a8-4f3a-84b1-6e21e6168a62,1d3dfbd4-3058-4919-8ae3-1c01dfe29c14
1209757e-b63c-4e1e-9f9a-807ee15cbff8,97152df8-8566-4c37-a677-6fc83627461f
dd62ec40-afec-49c7-baff-5bba618b8eee,49897c2b-053b-46e4-bb16-b7d3bf60d262
c42864a3-048d-44ba-9ff9-a066c8f5da7f,49897c2b-053b-46e4-bb16-b7d3bf60d262
b02b5111-f66d-4c8b-b3af-d484c1d063e9,2004b541-feb2-4f21-8b0f-dd5881a9d0ba
ac1acf73-6df5-43d2-9ab8-de1bd18e1041,64bbdd8c-d129-42e9-aba2-752e12f5c85d
65e65568-34ef-436b-977a-e24efb89b84e,2004b541-feb2-4f21-8b0f-dd5881a9d0ba
a5da48f8-e94f-4966-b3de-7148b824a383,37beb555-6a2b-4eea-9ca9-dcfcb9029127
25f40844-82fe-419b-884b-b27d8701ce71,6d4cdd9d-27b0-41b6-b0cb-cf3617be7066
c8bd3b79-1d0e-46cc-abc7-fa9e2e7f7857,37beb555-6a2b-4eea-9ca9-dcfcb9029127
666a3875-5d76-4ffd-ad3a-3571bc91aae5,7334cd8e-6932-486c-9ad7-a9ee84e9e530
4bb52a2e-8134-4b6e-a054-5558eaea66fa,7448e835-63a6-4314-864f-437d21018eb6
f51b389b-4bf7-425d-85ab-e786fb9c7f13,1d3dfbd4-3058-4919-8ae3-1c01dfe29c14
7351abe8-0858-4446-8237-1cd436085a2f,1172cce2-8ba9-48a1-a6ad-6889468d861b
d508de3f-f027-4251-aa9d-6736cdee518b,bf6ccecc-12d1-4243-a0c6-f43d8f06a9c1
9a5b4ab6-b0f3-4015-af95-97170c232f0e,bf6ccecc-12d1-4243-a0c6-f43d8f06a9c1
