node,ip,uuid
node-a8-199.grenoble.iot-lab.info,172.20.64.1,81eeb451-321f-41f1-ab2e-5a8755cb1570
node-a8-200.grenoble.iot-lab.info,172.20.64.2,7411908b-96ca-406b-bb62-90b8ec34ebe3
node-a8-201.grenoble.iot-lab.info,172.20.64.3,826ac1bd-cf6a-46f1-b1bc-2509d44f1f26
node-a8-202.grenoble.iot-lab.info,172.20.64.4,b3b6506a-0c1a-4408-9b2c-1fc5d696ce1c
node-a8-204.grenoble.iot-lab.info,172.20.64.5,d4a00131-55ea-463a-b39c-33d6b2513e0e
node-a8-205.grenoble.iot-lab.info,172.20.64.6,dffa2a84-bae3-498d-acbe-3a46a8f9d26d
node-a8-206.grenoble.iot-lab.info,172.20.64.7,f323a088-a7d8-40bf-a771-759e6e9325a4
node-a8-207.grenoble.iot-lab.info,172.20.64.8,1ef99ea9-8e2f-4e11-93d4-8554a3cc703c
node-a8-208.grenoble.iot-lab.info,172.20.64.9,7a58b0a8-083b-4378-b011-fd97627d890c
node-a8-209.grenoble.iot-lab.info,172.20.64.10,068ff0dc-3525-43f1-83c9-6474d7b3e4c6
node-a8-210.grenoble.iot-lab.info,172.20.64.11,45e27b8d-25b6-4fc7-8575-06f3e09672a1
node-a8-211.grenoble.iot-lab.info,172.20.64.12,a66be49a-b0f7-4d4e-a22b-e8a0ed0e2d51
node-a8-212.grenoble.iot-lab.info,172.20.64.13,b441a315-2ccf-4303-a9f9-25043a0d72e9
node-a8-214.grenoble.iot-lab.info,172.20.64.14,1ea23ca5-21e4-4b3a-9137-0502140d899e
node-a8-216.grenoble.iot-lab.info,172.20.64.15,1809ce63-7c92-4f03-a5db-3504d34eb282
node-a8-217.grenoble.iot-lab.info,172.20.64.16,0e89412f-56ca-4008-9f35-a0ccaf60b9ea
node-a8-218.grenoble.iot-lab.info,172.20.64.17,4a0cdd72-b6d4-45da-a505-22676806d630
node-a8-219.grenoble.iot-lab.info,172.20.64.18,2585ac7a-f222-434c-bd5c-25fddbd04c87
node-a8-220.grenoble.iot-lab.info,172.20.64.19,23a512f2-48e6-4786-8995-5b28f51c9c8d
node-a8-221.grenoble.iot-lab.info,172.20.64.20,d4718b83-d396-40f2-84d9-e7c5fd81afb4
node-a8-165.grenoble.iot-lab.info,172.20.64.21,d2f39f63-6c0c-4beb-9d58-427916c8e98d
node-a8-166.grenoble.iot-lab.info,172.20.64.22,82c275c2-544c-4cd6-82ea-fa64a9d8e497
node-a8-167.grenoble.iot-lab.info,172.20.64.23,4d9939e2-e923-4b6a-badf-5106fc21bfed
node-a8-168.grenoble.iot-lab.info,172.20.64.24,07f8d340-7a57-4624-a49c-74bc7658ccaa
node-a8-169.grenoble.iot-lab.info,172.20.64.25,278eff14-af53-4f7e-a057-32a694e4ac3f
node-a8-170.grenoble.iot-lab.info,172.20.64.26,42bbab6b-84ba-4487-ab33-2f524c17853b
node-a8-171.grenoble.iot-lab.info,172.20.64.27,9b2e5873-f2b2-4962-aee9-7b816ce8df0f
node-a8-173.grenoble.iot-lab.info,172.20.64.28,c269c93f-5cd2-4fcc-a3e9-0b1afbe49c9b
node-a8-174.grenoble.iot-lab.info,172.20.64.29,e98035ce-d2c1-493b-aa9e-ef19484daee3
node-a8-175.grenoble.iot-lab.info,172.20.64.30,fd23f57b-cda5-4113-9b10-ac6d0a337dbd
node-a8-176.grenoble.iot-lab.info,172.20.64.31,7214359d-64e7-4029-9077-1d65328e884c
node-a8-177.grenoble.iot-lab.info,172.20.64.32,bf3a6654-4865-4abb-9231-82b6a2c1c5e4
node-a8-179.grenoble.iot-lab.info,172.20.64.33,8bcdb6b4-2653-47f7-9c00-976361560a34
node-a8-180.grenoble.iot-lab.info,172.20.64.34,0173413a-4304-490c-ba60-810511a9b346
node-a8-181.grenoble.iot-lab.info,172.20.64.35,e38737ab-5f56-4276-aa72-f09cb5558a5a
node-a8-182.grenoble.iot-lab.info,172.20.64.36,b0b337e8-a318-4c48-972c-083f735882e8
node-a8-183.grenoble.iot-lab.info,172.20.64.37,a712a1a3-2675-4928-81ea-2f6c21018284
node-a8-184.grenoble.iot-lab.info,172.20.64.38,0764d4ae-bb11-49bb-962b-ed6d8c1521fb
node-a8-185.grenoble.iot-lab.info,172.20.64.39,e0bf3f54-e7a2-4da4-99fc-5f7966b8ef23
node-a8-187.grenoble.iot-lab.info,172.20.64.40,42a88d3d-817f-4086-ac0e-d008f36197fb
node-a8-188.grenoble.iot-lab.info,172.20.64.41,bfc0a742-275e-4854-9a11-6673b956de78
node-a8-189.grenoble.iot-lab.info,172.20.64.42,1f324973-f259-4e90-a35c-7db0ad719f4d
node-a8-190.grenoble.iot-lab.info,172.20.64.43,4847c907-44e7-4ca9-add0-d9f4123dcf64
node-a8-191.grenoble.iot-lab.info,172.20.64.44,c2ba9457-5723-482f-89c2-bc0c8bb781f2
node-a8-192.grenoble.iot-lab.info,172.20.64.45,8b16b9ea-b58c-4c39-b2a3-da46f9879db4
node-a8-193.grenoble.iot-lab.info,172.20.64.46,ec88c6b8-3c39-4602-bc3c-bc4d50f8a18f
node-a8-194.grenoble.iot-lab.info,172.20.64.47,3661c5de-c2b3-4b65-9bd3-d451ed34499b
node-a8-195.grenoble.iot-lab.info,172.20.64.48,298bdb38-b1ea-4b7b-8cb4-da73806cfd46
node-a8-197.grenoble.iot-lab.info,172.20.64.49,009431f3-f327-4240-a8af-9613262c0d5e
node-a8-198.grenoble.iot-lab.info,172.20.64.50,468e2823-9038-4815-84f9-c0b5a9f931af
suno-11.sophia.grid5000.fr,172.16.130.11,5ec2c502-5dc9-4a29-95f7-20e4c550d3e3
suno-14.sophia.grid5000.fr,172.16.130.14,09385312-e172-455e-bf36-3284308bd2a2
suno-15.sophia.grid5000.fr,172.16.130.15,a4653155-5932-42ea-9125-8d6b849b116a
suno-2.sophia.grid5000.fr,172.16.130.2,b43d7bea-3ac1-4627-82f7-523c30a81b18
suno-25.sophia.grid5000.fr,172.16.130.25,ccd848a3-6769-4d3a-95bc-ca9219903b3f
suno-27.sophia.grid5000.fr,172.16.130.27,1c38b265-4cd1-44ca-a899-7aac6371aa31
suno-28.sophia.grid5000.fr,172.16.130.28,4d524382-c54c-4010-9073-afb7236bcff5
suno-30.sophia.grid5000.fr,172.16.130.30,04ea45cf-0b38-4390-b507-2c568ae10bd1
suno-32.sophia.grid5000.fr,172.16.130.32,eb049b1d-0a7c-4aaf-8318-06530d6558e2
suno-33.sophia.grid5000.fr,172.16.130.33,e5e44dbf-046e-45bc-b471-b9a101398983
suno-34.sophia.grid5000.fr,172.16.130.34,de1adaa2-f08d-415d-99a7-ad37f193fc78
suno-36.sophia.grid5000.fr,172.16.130.36,3f948455-8a60-44c3-9147-d50f24443a8e
suno-37.sophia.grid5000.fr,172.16.130.37,ece5824e-5f7e-43cd-b620-599abefba32f
suno-43.sophia.grid5000.fr,172.16.130.43,fe93f4a3-30a1-48de-84c2-bdf028ae993f
suno-44.sophia.grid5000.fr,172.16.130.44,9bc33760-5c6c-422f-9174-bafcfd92b1c8
suno-8.sophia.grid5000.fr,172.16.130.8,831ad403-363e-42da-b68d-2a807ade199b
