date,trigger,state
2019-11-24 18:06:27,91596119-e261-4971-9829-aa4a8a6680b8,A
2019-11-24 18:17:57,91596119-e261-4971-9829-aa4a8a6680b8,S
2019-11-24 18:27:54,91596119-e261-4971-9829-aa4a8a6680b8,A
2019-11-24 18:33:21,91596119-e261-4971-9829-aa4a8a6680b8,S
2019-11-24 18:34:04,91596119-e261-4971-9829-aa4a8a6680b8,A
2019-11-24 18:35:01,91596119-e261-4971-9829-aa4a8a6680b8,S
2019-11-24 18:36:58,91596119-e261-4971-9829-aa4a8a6680b8,A
2019-11-24 18:38:19,91596119-e261-4971-9829-aa4a8a6680b8,S
2019-11-24 18:45:38,91596119-e261-4971-9829-aa4a8a6680b8,A
2019-11-24 18:47:32,91596119-e261-4971-9829-aa4a8a6680b8,S
2019-11-24 18:49:15,91596119-e261-4971-9829-aa4a8a6680b8,A
2019-11-24 19:04:39,91596119-e261-4971-9829-aa4a8a6680b8,S
2019-11-24 19:10:33,91596119-e261-4971-9829-aa4a8a6680b8,A
2019-11-24 19:15:06,91596119-e261-4971-9829-aa4a8a6680b8,S
2019-11-24 19:16:09,91596119-e261-4971-9829-aa4a8a6680b8,A
2019-11-24 19:18:29,91596119-e261-4971-9829-aa4a8a6680b8,S
2019-11-24 19:22:09,91596119-e261-4971-9829-aa4a8a6680b8,A
2019-11-24 19:24:10,91596119-e261-4971-9829-aa4a8a6680b8,S
2019-11-24 19:24:17,91596119-e261-4971-9829-aa4a8a6680b8,A
2019-11-24 19:33:24,91596119-e261-4971-9829-aa4a8a6680b8,S
2019-11-24 17:33:50,c2f290f2-8cb8-4ddd-8253-ba7ad0a0cd3f,S
2019-11-24 17:34:56,c2f290f2-8cb8-4ddd-8253-ba7ad0a0cd3f,A
2019-11-24 17:36:10,c2f290f2-8cb8-4ddd-8253-ba7ad0a0cd3f,S
2019-11-24 17:39:49,c2f290f2-8cb8-4ddd-8253-ba7ad0a0cd3f,A
2019-11-24 17:42:33,c2f290f2-8cb8-4ddd-8253-ba7ad0a0cd3f,S
2019-11-24 17:47:43,c2f290f2-8cb8-4ddd-8253-ba7ad0a0cd3f,A
2019-11-24 17:49:01,c2f290f2-8cb8-4ddd-8253-ba7ad0a0cd3f,S
2019-11-24 17:55:00,c2f290f2-8cb8-4ddd-8253-ba7ad0a0cd3f,A
2019-11-24 18:06:17,c2f290f2-8cb8-4ddd-8253-ba7ad0a0cd3f,S
2019-11-24 18:09:57,c2f290f2-8cb8-4ddd-8253-ba7ad0a0cd3f,A
2019-11-24 18:14:29,c2f290f2-8cb8-4ddd-8253-ba7ad0a0cd3f,S
2019-11-24 18:25:56,c2f290f2-8cb8-4ddd-8253-ba7ad0a0cd3f,A
2019-11-24 18:39:23,c2f290f2-8cb8-4ddd-8253-ba7ad0a0cd3f,S
2019-11-24 18:40:21,c2f290f2-8cb8-4ddd-8253-ba7ad0a0cd3f,A
2019-11-24 18:41:54,c2f290f2-8cb8-4ddd-8253-ba7ad0a0cd3f,S
2019-11-24 18:42:40,c2f290f2-8cb8-4ddd-8253-ba7ad0a0cd3f,A
2019-11-24 18:43:49,c2f290f2-8cb8-4ddd-8253-ba7ad0a0cd3f,S
2019-11-24 18:52:25,c2f290f2-8cb8-4ddd-8253-ba7ad0a0cd3f,A
2019-11-24 18:54:23,c2f290f2-8cb8-4ddd-8253-ba7ad0a0cd3f,S
2019-11-24 18:56:12,c2f290f2-8cb8-4ddd-8253-ba7ad0a0cd3f,A
2019-11-24 19:00:59,c2f290f2-8cb8-4ddd-8253-ba7ad0a0cd3f,S
2019-11-24 19:09:52,c2f290f2-8cb8-4ddd-8253-ba7ad0a0cd3f,A
2019-11-24 19:20:45,c2f290f2-8cb8-4ddd-8253-ba7ad0a0cd3f,S
2019-11-24 19:24:41,c2f290f2-8cb8-4ddd-8253-ba7ad0a0cd3f,A
2019-11-24 19:24:58,c2f290f2-8cb8-4ddd-8253-ba7ad0a0cd3f,S
2019-11-24 19:30:37,c2f290f2-8cb8-4ddd-8253-ba7ad0a0cd3f,A
2019-11-24 19:37:02,c2f290f2-8cb8-4ddd-8253-ba7ad0a0cd3f,S
2019-11-24 19:37:03,c2f290f2-8cb8-4ddd-8253-ba7ad0a0cd3f,A
2019-11-24 17:53:25,3e0463ba-f194-476f-9f58-90b79dcab1e3,S
2019-11-24 18:01:03,3e0463ba-f194-476f-9f58-90b79dcab1e3,A
2019-11-24 18:02:59,3e0463ba-f194-476f-9f58-90b79dcab1e3,S
2019-11-24 18:14:17,3e0463ba-f194-476f-9f58-90b79dcab1e3,A
2019-11-24 18:16:07,3e0463ba-f194-476f-9f58-90b79dcab1e3,S
2019-11-24 18:16:48,3e0463ba-f194-476f-9f58-90b79dcab1e3,A
2019-11-24 18:26:19,3e0463ba-f194-476f-9f58-90b79dcab1e3,S
2019-11-24 18:29:34,3e0463ba-f194-476f-9f58-90b79dcab1e3,A
2019-11-24 18:30:10,3e0463ba-f194-476f-9f58-90b79dcab1e3,S
2019-11-24 18:30:41,3e0463ba-f194-476f-9f58-90b79dcab1e3,A
2019-11-24 18:35:45,3e0463ba-f194-476f-9f58-90b79dcab1e3,S
2019-11-24 18:36:10,3e0463ba-f194-476f-9f58-90b79dcab1e3,A
2019-11-24 18:36:34,3e0463ba-f194-476f-9f58-90b79dcab1e3,S
2019-11-24 18:37:18,3e0463ba-f194-476f-9f58-90b79dcab1e3,A
2019-11-24 18:39:10,3e0463ba-f194-476f-9f58-90b79dcab1e3,S
2019-11-24 18:40:02,3e0463ba-f194-476f-9f58-90b79dcab1e3,A
2019-11-24 18:50:36,3e0463ba-f194-476f-9f58-90b79dcab1e3,S
2019-11-24 18:51:48,3e0463ba-f194-476f-9f58-90b79dcab1e3,A
2019-11-24 18:58:40,3e0463ba-f194-476f-9f58-90b79dcab1e3,S
2019-11-24 19:07:20,3e0463ba-f194-476f-9f58-90b79dcab1e3,A
2019-11-24 19:10:28,3e0463ba-f194-476f-9f58-90b79dcab1e3,S
2019-11-24 19:14:03,3e0463ba-f194-476f-9f58-90b79dcab1e3,A
2019-11-24 19:14:19,3e0463ba-f194-476f-9f58-90b79dcab1e3,S
2019-11-24 19:21:24,3e0463ba-f194-476f-9f58-90b79dcab1e3,A
2019-11-24 19:21:33,3e0463ba-f194-476f-9f58-90b79dcab1e3,S
2019-11-24 19:21:58,3e0463ba-f194-476f-9f58-90b79dcab1e3,A
2019-11-24 19:22:35,3e0463ba-f194-476f-9f58-90b79dcab1e3,S
2019-11-24 19:24:40,3e0463ba-f194-476f-9f58-90b79dcab1e3,A
2019-11-24 19:24:43,3e0463ba-f194-476f-9f58-90b79dcab1e3,S
2019-11-24 19:36:29,3e0463ba-f194-476f-9f58-90b79dcab1e3,A
2019-11-24 18:21:23,f0854a3f-a0ea-4b4f-8a73-88fde5d01563,A
2019-11-24 18:55:09,f0854a3f-a0ea-4b4f-8a73-88fde5d01563,S
2019-11-24 18:55:37,f0854a3f-a0ea-4b4f-8a73-88fde5d01563,A
2019-11-24 19:24:54,f0854a3f-a0ea-4b4f-8a73-88fde5d01563,S
2019-11-24 19:27:57,f0854a3f-a0ea-4b4f-8a73-88fde5d01563,A
2019-11-24 19:30:25,f0854a3f-a0ea-4b4f-8a73-88fde5d01563,S
2019-11-24 19:31:57,f0854a3f-a0ea-4b4f-8a73-88fde5d01563,A
2019-11-24 19:32:43,f0854a3f-a0ea-4b4f-8a73-88fde5d01563,S
2019-11-24 19:35:58,f0854a3f-a0ea-4b4f-8a73-88fde5d01563,A
2019-11-24 18:09:27,84cdc4bd-9760-4abd-84b2-535b3a6d0e3d,A
2019-11-24 18:09:56,84cdc4bd-9760-4abd-84b2-535b3a6d0e3d,S
2019-11-24 18:18:26,84cdc4bd-9760-4abd-84b2-535b3a6d0e3d,A
2019-11-24 18:19:45,84cdc4bd-9760-4abd-84b2-535b3a6d0e3d,S
2019-11-24 18:19:45,84cdc4bd-9760-4abd-84b2-535b3a6d0e3d,A
2019-11-24 18:28:22,84cdc4bd-9760-4abd-84b2-535b3a6d0e3d,S
2019-11-24 18:29:36,84cdc4bd-9760-4abd-84b2-535b3a6d0e3d,A
2019-11-24 18:30:26,84cdc4bd-9760-4abd-84b2-535b3a6d0e3d,S
2019-11-24 18:34:14,84cdc4bd-9760-4abd-84b2-535b3a6d0e3d,A
2019-11-24 18:35:20,84cdc4bd-9760-4abd-84b2-535b3a6d0e3d,S
2019-11-24 18:35:32,84cdc4bd-9760-4abd-84b2-535b3a6d0e3d,A
2019-11-24 18:41:05,84cdc4bd-9760-4abd-84b2-535b3a6d0e3d,S
2019-11-24 18:46:24,84cdc4bd-9760-4abd-84b2-535b3a6d0e3d,A
2019-11-24 18:58:39,84cdc4bd-9760-4abd-84b2-535b3a6d0e3d,S
2019-11-24 18:58:55,84cdc4bd-9760-4abd-84b2-535b3a6d0e3d,A
2019-11-24 19:03:05,84cdc4bd-9760-4abd-84b2-535b3a6d0e3d,S
2019-11-24 19:12:41,84cdc4bd-9760-4abd-84b2-535b3a6d0e3d,A
2019-11-24 19:24:47,84cdc4bd-9760-4abd-84b2-535b3a6d0e3d,S
2019-11-24 19:28:16,84cdc4bd-9760-4abd-84b2-535b3a6d0e3d,A
2019-11-24 19:32:39,84cdc4bd-9760-4abd-84b2-535b3a6d0e3d,S
2019-11-24 19:34:03,84cdc4bd-9760-4abd-84b2-535b3a6d0e3d,A
2019-11-24 19:34:39,84cdc4bd-9760-4abd-84b2-535b3a6d0e3d,S
2019-11-24 17:36:37,1aaf2deb-e844-42ee-bdf1-a5fff0156a62,S
2019-11-24 17:40:40,1aaf2deb-e844-42ee-bdf1-a5fff0156a62,A
2019-11-24 17:41:29,1aaf2deb-e844-42ee-bdf1-a5fff0156a62,S
2019-11-24 17:46:43,1aaf2deb-e844-42ee-bdf1-a5fff0156a62,A
2019-11-24 17:51:36,1aaf2deb-e844-42ee-bdf1-a5fff0156a62,S
2019-11-24 17:56:34,1aaf2deb-e844-42ee-bdf1-a5fff0156a62,A
2019-11-24 17:59:09,1aaf2deb-e844-42ee-bdf1-a5fff0156a62,S
2019-11-24 17:59:55,1aaf2deb-e844-42ee-bdf1-a5fff0156a62,A
2019-11-24 18:10:31,1aaf2deb-e844-42ee-bdf1-a5fff0156a62,S
2019-11-24 18:10:55,1aaf2deb-e844-42ee-bdf1-a5fff0156a62,A
2019-11-24 18:18:33,1aaf2deb-e844-42ee-bdf1-a5fff0156a62,S
2019-11-24 18:23:53,1aaf2deb-e844-42ee-bdf1-a5fff0156a62,A
2019-11-24 18:24:19,1aaf2deb-e844-42ee-bdf1-a5fff0156a62,S
2019-11-24 18:30:44,1aaf2deb-e844-42ee-bdf1-a5fff0156a62,A
2019-11-24 18:32:49,1aaf2deb-e844-42ee-bdf1-a5fff0156a62,S
2019-11-24 18:33:02,1aaf2deb-e844-42ee-bdf1-a5fff0156a62,A
2019-11-24 18:38:05,1aaf2deb-e844-42ee-bdf1-a5fff0156a62,S
2019-11-24 18:38:46,1aaf2deb-e844-42ee-bdf1-a5fff0156a62,A
2019-11-24 18:55:52,1aaf2deb-e844-42ee-bdf1-a5fff0156a62,S
2019-11-24 18:58:09,1aaf2deb-e844-42ee-bdf1-a5fff0156a62,A
2019-11-24 18:58:29,1aaf2deb-e844-42ee-bdf1-a5fff0156a62,S
2019-11-24 19:01:54,1aaf2deb-e844-42ee-bdf1-a5fff0156a62,A
2019-11-24 19:02:05,1aaf2deb-e844-42ee-bdf1-a5fff0156a62,S
2019-11-24 19:09:07,1aaf2deb-e844-42ee-bdf1-a5fff0156a62,A
2019-11-24 19:14:55,1aaf2deb-e844-42ee-bdf1-a5fff0156a62,S
2019-11-24 19:35:38,1aaf2deb-e844-42ee-bdf1-a5fff0156a62,A
2019-11-24 19:36:54,1aaf2deb-e844-42ee-bdf1-a5fff0156a62,S
2019-11-24 18:21:56,9dd17877-a266-42d9-a5c1-144e510f867d,S
2019-11-24 18:35:31,9dd17877-a266-42d9-a5c1-144e510f867d,A
2019-11-24 18:40:24,9dd17877-a266-42d9-a5c1-144e510f867d,S
2019-11-24 18:40:57,9dd17877-a266-42d9-a5c1-144e510f867d,A
2019-11-24 18:44:49,9dd17877-a266-42d9-a5c1-144e510f867d,S
2019-11-24 18:45:30,9dd17877-a266-42d9-a5c1-144e510f867d,A
2019-11-24 18:54:09,9dd17877-a266-42d9-a5c1-144e510f867d,S
2019-11-24 18:55:12,9dd17877-a266-42d9-a5c1-144e510f867d,A
2019-11-24 18:57:28,9dd17877-a266-42d9-a5c1-144e510f867d,S
2019-11-24 18:59:37,9dd17877-a266-42d9-a5c1-144e510f867d,A
2019-11-24 19:01:59,9dd17877-a266-42d9-a5c1-144e510f867d,S
2019-11-24 19:05:51,9dd17877-a266-42d9-a5c1-144e510f867d,A
2019-11-24 19:07:02,9dd17877-a266-42d9-a5c1-144e510f867d,S
2019-11-24 19:07:53,9dd17877-a266-42d9-a5c1-144e510f867d,A
2019-11-24 19:10:02,9dd17877-a266-42d9-a5c1-144e510f867d,S
2019-11-24 19:10:25,9dd17877-a266-42d9-a5c1-144e510f867d,A
2019-11-24 19:10:41,9dd17877-a266-42d9-a5c1-144e510f867d,S
2019-11-24 19:15:13,9dd17877-a266-42d9-a5c1-144e510f867d,A
2019-11-24 19:16:03,9dd17877-a266-42d9-a5c1-144e510f867d,S
2019-11-24 19:25:35,9dd17877-a266-42d9-a5c1-144e510f867d,A
2019-11-24 19:31:38,9dd17877-a266-42d9-a5c1-144e510f867d,S
2019-11-24 18:02:24,bde5c298-445e-4a4a-be95-93b511f40614,S
2019-11-24 18:07:40,bde5c298-445e-4a4a-be95-93b511f40614,A
2019-11-24 18:14:24,bde5c298-445e-4a4a-be95-93b511f40614,S
2019-11-24 18:19:23,bde5c298-445e-4a4a-be95-93b511f40614,A
2019-11-24 18:20:19,bde5c298-445e-4a4a-be95-93b511f40614,S
2019-11-24 18:27:06,bde5c298-445e-4a4a-be95-93b511f40614,A
2019-11-24 18:29:21,bde5c298-445e-4a4a-be95-93b511f40614,S
2019-11-24 18:35:28,bde5c298-445e-4a4a-be95-93b511f40614,A
2019-11-24 18:35:29,bde5c298-445e-4a4a-be95-93b511f40614,S
2019-11-24 18:36:14,bde5c298-445e-4a4a-be95-93b511f40614,A
2019-11-24 18:40:07,bde5c298-445e-4a4a-be95-93b511f40614,S
2019-11-24 18:45:43,bde5c298-445e-4a4a-be95-93b511f40614,A
2019-11-24 18:47:44,bde5c298-445e-4a4a-be95-93b511f40614,S
2019-11-24 18:50:57,bde5c298-445e-4a4a-be95-93b511f40614,A
2019-11-24 18:53:49,bde5c298-445e-4a4a-be95-93b511f40614,S
2019-11-24 18:57:03,bde5c298-445e-4a4a-be95-93b511f40614,A
2019-11-24 19:06:05,bde5c298-445e-4a4a-be95-93b511f40614,S
2019-11-24 19:09:38,bde5c298-445e-4a4a-be95-93b511f40614,A
2019-11-24 19:10:37,bde5c298-445e-4a4a-be95-93b511f40614,S
2019-11-24 19:14:04,bde5c298-445e-4a4a-be95-93b511f40614,A
2019-11-24 19:16:02,bde5c298-445e-4a4a-be95-93b511f40614,S
2019-11-24 19:16:43,bde5c298-445e-4a4a-be95-93b511f40614,A
2019-11-24 19:23:52,bde5c298-445e-4a4a-be95-93b511f40614,S
2019-11-24 19:26:16,bde5c298-445e-4a4a-be95-93b511f40614,A
2019-11-24 18:20:16,e22702b2-b05a-496f-8e09-23ce4f67d033,S
2019-11-24 18:22:27,e22702b2-b05a-496f-8e09-23ce4f67d033,A
2019-11-24 18:25:13,e22702b2-b05a-496f-8e09-23ce4f67d033,S
2019-11-24 18:42:09,e22702b2-b05a-496f-8e09-23ce4f67d033,A
2019-11-24 18:43:49,e22702b2-b05a-496f-8e09-23ce4f67d033,S
2019-11-24 18:44:56,e22702b2-b05a-496f-8e09-23ce4f67d033,A
2019-11-24 18:50:10,e22702b2-b05a-496f-8e09-23ce4f67d033,S
2019-11-24 18:58:49,e22702b2-b05a-496f-8e09-23ce4f67d033,A
2019-11-24 19:00:46,e22702b2-b05a-496f-8e09-23ce4f67d033,S
2019-11-24 19:08:21,e22702b2-b05a-496f-8e09-23ce4f67d033,A
2019-11-24 19:09:10,e22702b2-b05a-496f-8e09-23ce4f67d033,S
2019-11-24 19:20:57,e22702b2-b05a-496f-8e09-23ce4f67d033,A
2019-11-24 19:28:49,e22702b2-b05a-496f-8e09-23ce4f67d033,S
2019-11-24 19:30:28,e22702b2-b05a-496f-8e09-23ce4f67d033,A
2019-11-24 19:34:17,e22702b2-b05a-496f-8e09-23ce4f67d033,S
2019-11-24 19:36:35,e22702b2-b05a-496f-8e09-23ce4f67d033,A
2019-11-24 18:03:50,54f1d012-069a-40a0-a508-6e9d6b7778e0,S
2019-11-24 18:03:54,54f1d012-069a-40a0-a508-6e9d6b7778e0,A
2019-11-24 18:11:04,54f1d012-069a-40a0-a508-6e9d6b7778e0,S
2019-11-24 18:22:35,54f1d012-069a-40a0-a508-6e9d6b7778e0,A
2019-11-24 18:24:11,54f1d012-069a-40a0-a508-6e9d6b7778e0,S
2019-11-24 18:27:18,54f1d012-069a-40a0-a508-6e9d6b7778e0,A
2019-11-24 18:27:35,54f1d012-069a-40a0-a508-6e9d6b7778e0,S
2019-11-24 18:45:33,54f1d012-069a-40a0-a508-6e9d6b7778e0,A
2019-11-24 18:47:58,54f1d012-069a-40a0-a508-6e9d6b7778e0,S
2019-11-24 19:00:19,54f1d012-069a-40a0-a508-6e9d6b7778e0,A
2019-11-24 19:12:27,54f1d012-069a-40a0-a508-6e9d6b7778e0,S
2019-11-24 19:17:58,54f1d012-069a-40a0-a508-6e9d6b7778e0,A
2019-11-24 19:18:25,54f1d012-069a-40a0-a508-6e9d6b7778e0,S
2019-11-24 19:20:40,54f1d012-069a-40a0-a508-6e9d6b7778e0,A
2019-11-24 19:24:19,54f1d012-069a-40a0-a508-6e9d6b7778e0,S
2019-11-24 19:27:39,54f1d012-069a-40a0-a508-6e9d6b7778e0,A
2019-11-24 19:32:09,54f1d012-069a-40a0-a508-6e9d6b7778e0,S
2019-11-24 19:33:06,54f1d012-069a-40a0-a508-6e9d6b7778e0,A
2019-11-24 19:33:27,54f1d012-069a-40a0-a508-6e9d6b7778e0,S
2019-11-24 19:34:26,54f1d012-069a-40a0-a508-6e9d6b7778e0,A
2019-11-24 18:04:48,a524fab9-83c1-4862-9dab-1829ac496e00,S
2019-11-24 18:08:57,a524fab9-83c1-4862-9dab-1829ac496e00,A
2019-11-24 18:16:25,a524fab9-83c1-4862-9dab-1829ac496e00,S
2019-11-24 18:20:37,a524fab9-83c1-4862-9dab-1829ac496e00,A
2019-11-24 18:20:51,a524fab9-83c1-4862-9dab-1829ac496e00,S
2019-11-24 18:30:20,a524fab9-83c1-4862-9dab-1829ac496e00,A
2019-11-24 18:33:21,a524fab9-83c1-4862-9dab-1829ac496e00,S
2019-11-24 18:34:48,a524fab9-83c1-4862-9dab-1829ac496e00,A
2019-11-24 18:36:32,a524fab9-83c1-4862-9dab-1829ac496e00,S
2019-11-24 18:46:12,a524fab9-83c1-4862-9dab-1829ac496e00,A
2019-11-24 18:51:03,a524fab9-83c1-4862-9dab-1829ac496e00,S
2019-11-24 18:52:46,a524fab9-83c1-4862-9dab-1829ac496e00,A
2019-11-24 18:53:42,a524fab9-83c1-4862-9dab-1829ac496e00,S
2019-11-24 18:59:09,a524fab9-83c1-4862-9dab-1829ac496e00,A
2019-11-24 19:03:44,a524fab9-83c1-4862-9dab-1829ac496e00,S
2019-11-24 19:08:25,a524fab9-83c1-4862-9dab-1829ac496e00,A
2019-11-24 19:16:26,a524fab9-83c1-4862-9dab-1829ac496e00,S
2019-11-24 19:21:38,a524fab9-83c1-4862-9dab-1829ac496e00,A
2019-11-24 19:24:57,a524fab9-83c1-4862-9dab-1829ac496e00,S
2019-11-24 19:37:44,a524fab9-83c1-4862-9dab-1829ac496e00,A
2019-11-24 18:02:42,67babe76-ba5e-4e6b-be98-6bcd9cbf894b,S
2019-11-24 18:07:00,67babe76-ba5e-4e6b-be98-6bcd9cbf894b,A
2019-11-24 18:20:43,67babe76-ba5e-4e6b-be98-6bcd9cbf894b,S
2019-11-24 18:21:07,67babe76-ba5e-4e6b-be98-6bcd9cbf894b,A
2019-11-24 18:25:43,67babe76-ba5e-4e6b-be98-6bcd9cbf894b,S
2019-11-24 18:29:02,67babe76-ba5e-4e6b-be98-6bcd9cbf894b,A
2019-11-24 18:32:08,67babe76-ba5e-4e6b-be98-6bcd9cbf894b,S
2019-11-24 18:36:41,67babe76-ba5e-4e6b-be98-6bcd9cbf894b,A
2019-11-24 18:39:54,67babe76-ba5e-4e6b-be98-6bcd9cbf894b,S
2019-11-24 18:43:31,67babe76-ba5e-4e6b-be98-6bcd9cbf894b,A
2019-11-24 18:59:21,67babe76-ba5e-4e6b-be98-6bcd9cbf894b,S
2019-11-24 19:03:38,67babe76-ba5e-4e6b-be98-6bcd9cbf894b,A
2019-11-24 19:04:00,67babe76-ba5e-4e6b-be98-6bcd9cbf894b,S
2019-11-24 19:09:06,67babe76-ba5e-4e6b-be98-6bcd9cbf894b,A
2019-11-24 19:16:25,67babe76-ba5e-4e6b-be98-6bcd9cbf894b,S
2019-11-24 19:29:32,67babe76-ba5e-4e6b-be98-6bcd9cbf894b,A
2019-11-24 19:30:33,67babe76-ba5e-4e6b-be98-6bcd9cbf894b,S
2019-11-24 18:09:16,d7f0aae5-1993-4889-b71b-fe728607d888,A
2019-11-24 18:12:45,d7f0aae5-1993-4889-b71b-fe728607d888,S
2019-11-24 18:15:00,d7f0aae5-1993-4889-b71b-fe728607d888,A
2019-11-24 18:17:02,d7f0aae5-1993-4889-b71b-fe728607d888,S
2019-11-24 18:17:37,d7f0aae5-1993-4889-b71b-fe728607d888,A
2019-11-24 18:20:12,d7f0aae5-1993-4889-b71b-fe728607d888,S
2019-11-24 18:27:03,d7f0aae5-1993-4889-b71b-fe728607d888,A
2019-11-24 18:28:31,d7f0aae5-1993-4889-b71b-fe728607d888,S
2019-11-24 18:38:47,d7f0aae5-1993-4889-b71b-fe728607d888,A
2019-11-24 19:17:52,d7f0aae5-1993-4889-b71b-fe728607d888,S
2019-11-24 19:27:46,d7f0aae5-1993-4889-b71b-fe728607d888,A
2019-11-24 19:27:50,d7f0aae5-1993-4889-b71b-fe728607d888,S
2019-11-24 19:28:32,d7f0aae5-1993-4889-b71b-fe728607d888,A
2019-11-24 19:31:36,d7f0aae5-1993-4889-b71b-fe728607d888,S
2019-11-24 19:32:57,d7f0aae5-1993-4889-b71b-fe728607d888,A
2019-11-24 19:34:18,d7f0aae5-1993-4889-b71b-fe728607d888,S
2019-11-24 19:38:28,d7f0aae5-1993-4889-b71b-fe728607d888,A
2019-11-24 17:57:44,4fec1a11-6eb8-4e61-9034-1f91146733b7,S
2019-11-24 18:06:46,4fec1a11-6eb8-4e61-9034-1f91146733b7,A
2019-11-24 18:11:58,4fec1a11-6eb8-4e61-9034-1f91146733b7,S
2019-11-24 18:24:44,4fec1a11-6eb8-4e61-9034-1f91146733b7,A
2019-11-24 18:25:43,4fec1a11-6eb8-4e61-9034-1f91146733b7,S
2019-11-24 18:36:56,4fec1a11-6eb8-4e61-9034-1f91146733b7,A
2019-11-24 18:37:09,4fec1a11-6eb8-4e61-9034-1f91146733b7,S
2019-11-24 18:40:36,4fec1a11-6eb8-4e61-9034-1f91146733b7,A
2019-11-24 18:51:39,4fec1a11-6eb8-4e61-9034-1f91146733b7,S
2019-11-24 18:54:41,4fec1a11-6eb8-4e61-9034-1f91146733b7,A
2019-11-24 19:01:17,4fec1a11-6eb8-4e61-9034-1f91146733b7,S
2019-11-24 19:03:13,4fec1a11-6eb8-4e61-9034-1f91146733b7,A
2019-11-24 19:10:38,4fec1a11-6eb8-4e61-9034-1f91146733b7,S
2019-11-24 19:14:44,4fec1a11-6eb8-4e61-9034-1f91146733b7,A
2019-11-24 19:15:26,4fec1a11-6eb8-4e61-9034-1f91146733b7,S
2019-11-24 19:15:48,4fec1a11-6eb8-4e61-9034-1f91146733b7,A
2019-11-24 19:19:11,4fec1a11-6eb8-4e61-9034-1f91146733b7,S
2019-11-24 19:22:16,4fec1a11-6eb8-4e61-9034-1f91146733b7,A
2019-11-24 19:35:26,4fec1a11-6eb8-4e61-9034-1f91146733b7,S
2019-11-24 18:14:41,b19045c1-b512-4bff-a98a-b902b8c9880b,A
2019-11-24 18:16:33,b19045c1-b512-4bff-a98a-b902b8c9880b,S
2019-11-24 18:26:01,b19045c1-b512-4bff-a98a-b902b8c9880b,A
2019-11-24 18:40:08,b19045c1-b512-4bff-a98a-b902b8c9880b,S
2019-11-24 18:41:44,b19045c1-b512-4bff-a98a-b902b8c9880b,A
2019-11-24 18:43:18,b19045c1-b512-4bff-a98a-b902b8c9880b,S
2019-11-24 18:45:11,b19045c1-b512-4bff-a98a-b902b8c9880b,A
2019-11-24 18:51:39,b19045c1-b512-4bff-a98a-b902b8c9880b,S
2019-11-24 18:56:33,b19045c1-b512-4bff-a98a-b902b8c9880b,A
2019-11-24 19:04:04,b19045c1-b512-4bff-a98a-b902b8c9880b,S
2019-11-24 19:04:07,b19045c1-b512-4bff-a98a-b902b8c9880b,A
2019-11-24 19:04:26,b19045c1-b512-4bff-a98a-b902b8c9880b,S
2019-11-24 19:06:46,b19045c1-b512-4bff-a98a-b902b8c9880b,A
2019-11-24 19:09:58,b19045c1-b512-4bff-a98a-b902b8c9880b,S
2019-11-24 19:10:44,b19045c1-b512-4bff-a98a-b902b8c9880b,A
2019-11-24 19:21:45,b19045c1-b512-4bff-a98a-b902b8c9880b,S
2019-11-24 19:22:32,b19045c1-b512-4bff-a98a-b902b8c9880b,A
2019-11-24 19:22:58,b19045c1-b512-4bff-a98a-b902b8c9880b,S
2019-11-24 19:25:11,b19045c1-b512-4bff-a98a-b902b8c9880b,A
2019-11-24 19:27:25,b19045c1-b512-4bff-a98a-b902b8c9880b,S
2019-11-24 19:27:44,b19045c1-b512-4bff-a98a-b902b8c9880b,A
2019-11-24 19:37:09,b19045c1-b512-4bff-a98a-b902b8c9880b,S
2019-11-24 18:15:38,bf848ca5-9e1b-4caa-8643-095bb9779b38,A
2019-11-24 18:24:33,bf848ca5-9e1b-4caa-8643-095bb9779b38,S
2019-11-24 18:35:16,bf848ca5-9e1b-4caa-8643-095bb9779b38,A
2019-11-24 18:40:48,bf848ca5-9e1b-4caa-8643-095bb9779b38,S
2019-11-24 18:43:26,bf848ca5-9e1b-4caa-8643-095bb9779b38,A
2019-11-24 18:44:11,bf848ca5-9e1b-4caa-8643-095bb9779b38,S
2019-11-24 18:48:51,bf848ca5-9e1b-4caa-8643-095bb9779b38,A
2019-11-24 18:50:41,bf848ca5-9e1b-4caa-8643-095bb9779b38,S
2019-11-24 19:03:56,bf848ca5-9e1b-4caa-8643-095bb9779b38,A
2019-11-24 19:05:49,bf848ca5-9e1b-4caa-8643-095bb9779b38,S
2019-11-24 19:12:01,bf848ca5-9e1b-4caa-8643-095bb9779b38,A
2019-11-24 19:14:48,bf848ca5-9e1b-4caa-8643-095bb9779b38,S
2019-11-24 19:16:36,bf848ca5-9e1b-4caa-8643-095bb9779b38,A
2019-11-24 19:16:59,bf848ca5-9e1b-4caa-8643-095bb9779b38,S
2019-11-24 19:17:39,bf848ca5-9e1b-4caa-8643-095bb9779b38,A
2019-11-24 19:30:09,bf848ca5-9e1b-4caa-8643-095bb9779b38,S
2019-11-24 19:30:11,bf848ca5-9e1b-4caa-8643-095bb9779b38,A
2019-11-24 19:30:47,bf848ca5-9e1b-4caa-8643-095bb9779b38,S
2019-11-24 19:31:15,bf848ca5-9e1b-4caa-8643-095bb9779b38,A
2019-11-24 17:58:49,d3837b81-158c-4237-8ffe-f6742c68c557,A
2019-11-24 18:04:52,d3837b81-158c-4237-8ffe-f6742c68c557,S
2019-11-24 18:07:22,d3837b81-158c-4237-8ffe-f6742c68c557,A
2019-11-24 18:08:07,d3837b81-158c-4237-8ffe-f6742c68c557,S
2019-11-24 18:08:10,d3837b81-158c-4237-8ffe-f6742c68c557,A
2019-11-24 18:11:00,d3837b81-158c-4237-8ffe-f6742c68c557,S
2019-11-24 18:19:16,d3837b81-158c-4237-8ffe-f6742c68c557,A
2019-11-24 18:22:02,d3837b81-158c-4237-8ffe-f6742c68c557,S
2019-11-24 18:22:05,d3837b81-158c-4237-8ffe-f6742c68c557,A
2019-11-24 18:28:10,d3837b81-158c-4237-8ffe-f6742c68c557,S
2019-11-24 18:32:33,d3837b81-158c-4237-8ffe-f6742c68c557,A
2019-11-24 18:39:54,d3837b81-158c-4237-8ffe-f6742c68c557,S
2019-11-24 18:41:03,d3837b81-158c-4237-8ffe-f6742c68c557,A
2019-11-24 18:45:00,d3837b81-158c-4237-8ffe-f6742c68c557,S
2019-11-24 18:45:47,d3837b81-158c-4237-8ffe-f6742c68c557,A
2019-11-24 18:46:04,d3837b81-158c-4237-8ffe-f6742c68c557,S
2019-11-24 18:56:37,d3837b81-158c-4237-8ffe-f6742c68c557,A
2019-11-24 18:58:00,d3837b81-158c-4237-8ffe-f6742c68c557,S
2019-11-24 19:03:45,d3837b81-158c-4237-8ffe-f6742c68c557,A
2019-11-24 19:08:11,d3837b81-158c-4237-8ffe-f6742c68c557,S
2019-11-24 19:09:31,d3837b81-158c-4237-8ffe-f6742c68c557,A
2019-11-24 19:12:18,d3837b81-158c-4237-8ffe-f6742c68c557,S
2019-11-24 19:13:42,d3837b81-158c-4237-8ffe-f6742c68c557,A
2019-11-24 19:22:32,d3837b81-158c-4237-8ffe-f6742c68c557,S
2019-11-24 19:24:01,d3837b81-158c-4237-8ffe-f6742c68c557,A
2019-11-24 19:27:40,d3837b81-158c-4237-8ffe-f6742c68c557,S
2019-11-24 19:27:57,d3837b81-158c-4237-8ffe-f6742c68c557,A
2019-11-24 19:31:55,d3837b81-158c-4237-8ffe-f6742c68c557,S
2019-11-24 18:20:13,8f4d4ee9-ff79-49fc-9c35-a4472dd3aaa6,S
2019-11-24 18:25:36,8f4d4ee9-ff79-49fc-9c35-a4472dd3aaa6,A
2019-11-24 18:27:01,8f4d4ee9-ff79-49fc-9c35-a4472dd3aaa6,S
2019-11-24 18:29:11,8f4d4ee9-ff79-49fc-9c35-a4472dd3aaa6,A
2019-11-24 18:36:14,8f4d4ee9-ff79-49fc-9c35-a4472dd3aaa6,S
2019-11-24 18:42:20,8f4d4ee9-ff79-49fc-9c35-a4472dd3aaa6,A
2019-11-24 18:46:14,8f4d4ee9-ff79-49fc-9c35-a4472dd3aaa6,S
2019-11-24 18:49:36,8f4d4ee9-ff79-49fc-9c35-a4472dd3aaa6,A
2019-11-24 18:51:11,8f4d4ee9-ff79-49fc-9c35-a4472dd3aaa6,S
2019-11-24 18:51:21,8f4d4ee9-ff79-49fc-9c35-a4472dd3aaa6,A
2019-11-24 18:53:42,8f4d4ee9-ff79-49fc-9c35-a4472dd3aaa6,S
2019-11-24 18:57:58,8f4d4ee9-ff79-49fc-9c35-a4472dd3aaa6,A
2019-11-24 19:00:52,8f4d4ee9-ff79-49fc-9c35-a4472dd3aaa6,S
2019-11-24 19:01:47,8f4d4ee9-ff79-49fc-9c35-a4472dd3aaa6,A
2019-11-24 19:12:11,8f4d4ee9-ff79-49fc-9c35-a4472dd3aaa6,S
2019-11-24 19:12:15,8f4d4ee9-ff79-49fc-9c35-a4472dd3aaa6,A
2019-11-24 19:12:46,8f4d4ee9-ff79-49fc-9c35-a4472dd3aaa6,S
2019-11-24 19:13:15,8f4d4ee9-ff79-49fc-9c35-a4472dd3aaa6,A
2019-11-24 19:13:29,8f4d4ee9-ff79-49fc-9c35-a4472dd3aaa6,S
2019-11-24 19:17:24,8f4d4ee9-ff79-49fc-9c35-a4472dd3aaa6,A
2019-11-24 19:25:12,8f4d4ee9-ff79-49fc-9c35-a4472dd3aaa6,S
2019-11-24 19:31:11,8f4d4ee9-ff79-49fc-9c35-a4472dd3aaa6,A
2019-11-24 19:34:04,8f4d4ee9-ff79-49fc-9c35-a4472dd3aaa6,S
2019-11-24 19:36:04,8f4d4ee9-ff79-49fc-9c35-a4472dd3aaa6,A
2019-11-24 17:45:24,64da06ab-b77d-4a5e-b0ba-82184b1ec9f1,S
2019-11-24 17:49:31,64da06ab-b77d-4a5e-b0ba-82184b1ec9f1,A
2019-11-24 17:59:55,64da06ab-b77d-4a5e-b0ba-82184b1ec9f1,S
2019-11-24 18:01:29,64da06ab-b77d-4a5e-b0ba-82184b1ec9f1,A
2019-11-24 18:08:59,64da06ab-b77d-4a5e-b0ba-82184b1ec9f1,S
2019-11-24 18:09:14,64da06ab-b77d-4a5e-b0ba-82184b1ec9f1,A
2019-11-24 18:10:39,64da06ab-b77d-4a5e-b0ba-82184b1ec9f1,S
2019-11-24 18:27:56,64da06ab-b77d-4a5e-b0ba-82184b1ec9f1,A
2019-11-24 17:48:48,7b18541d-d5ff-452b-8268-a687e91f8c50,S
2019-11-24 18:00:44,7b18541d-d5ff-452b-8268-a687e91f8c50,A
2019-11-24 18:01:02,7b18541d-d5ff-452b-8268-a687e91f8c50,S
2019-11-24 18:16:26,7b18541d-d5ff-452b-8268-a687e91f8c50,A
2019-11-24 18:19:19,7b18541d-d5ff-452b-8268-a687e91f8c50,S
2019-11-24 18:21:19,7b18541d-d5ff-452b-8268-a687e91f8c50,A
2019-11-24 18:29:25,7b18541d-d5ff-452b-8268-a687e91f8c50,S
2019-11-24 18:30:21,7b18541d-d5ff-452b-8268-a687e91f8c50,A
2019-11-24 18:32:34,7b18541d-d5ff-452b-8268-a687e91f8c50,S
2019-11-24 18:46:59,7b18541d-d5ff-452b-8268-a687e91f8c50,A
2019-11-24 18:52:17,7b18541d-d5ff-452b-8268-a687e91f8c50,S
2019-11-24 18:53:50,7b18541d-d5ff-452b-8268-a687e91f8c50,A
2019-11-24 18:54:38,7b18541d-d5ff-452b-8268-a687e91f8c50,S
2019-11-24 18:56:35,7b18541d-d5ff-452b-8268-a687e91f8c50,A
2019-11-24 18:59:52,7b18541d-d5ff-452b-8268-a687e91f8c50,S
2019-11-24 18:59:59,7b18541d-d5ff-452b-8268-a687e91f8c50,A
2019-11-24 19:12:18,7b18541d-d5ff-452b-8268-a687e91f8c50,S
2019-11-24 19:13:39,7b18541d-d5ff-452b-8268-a687e91f8c50,A
2019-11-24 19:18:31,7b18541d-d5ff-452b-8268-a687e91f8c50,S
2019-11-24 19:21:57,7b18541d-d5ff-452b-8268-a687e91f8c50,A
2019-11-24 19:23:11,7b18541d-d5ff-452b-8268-a687e91f8c50,S
2019-11-24 19:23:53,7b18541d-d5ff-452b-8268-a687e91f8c50,A
2019-11-24 19:36:33,7b18541d-d5ff-452b-8268-a687e91f8c50,S
2019-11-24 19:38:01,7b18541d-d5ff-452b-8268-a687e91f8c50,A
2019-11-24 19:39:15,7b18541d-d5ff-452b-8268-a687e91f8c50,S
2019-11-24 18:15:30,a829aa77-9812-486f-9352-46b29b651fea,A
2019-11-24 18:30:13,a829aa77-9812-486f-9352-46b29b651fea,S
2019-11-24 18:32:19,a829aa77-9812-486f-9352-46b29b651fea,A
2019-11-24 18:41:25,a829aa77-9812-486f-9352-46b29b651fea,S
2019-11-24 18:52:58,a829aa77-9812-486f-9352-46b29b651fea,A
2019-11-24 18:59:10,a829aa77-9812-486f-9352-46b29b651fea,S
2019-11-24 19:05:51,a829aa77-9812-486f-9352-46b29b651fea,A
2019-11-24 19:06:14,a829aa77-9812-486f-9352-46b29b651fea,S
2019-11-24 19:07:21,a829aa77-9812-486f-9352-46b29b651fea,A
2019-11-24 19:11:41,a829aa77-9812-486f-9352-46b29b651fea,S
2019-11-24 19:12:12,a829aa77-9812-486f-9352-46b29b651fea,A
2019-11-24 19:18:51,a829aa77-9812-486f-9352-46b29b651fea,S
2019-11-24 19:21:35,a829aa77-9812-486f-9352-46b29b651fea,A
2019-11-24 19:23:21,a829aa77-9812-486f-9352-46b29b651fea,S
2019-11-24 19:27:09,a829aa77-9812-486f-9352-46b29b651fea,A
2019-11-24 19:33:24,a829aa77-9812-486f-9352-46b29b651fea,S
2019-11-24 19:33:37,a829aa77-9812-486f-9352-46b29b651fea,A
2019-11-24 19:36:13,a829aa77-9812-486f-9352-46b29b651fea,S
2019-11-24 18:21:28,21ec9b32-cccb-4320-9b34-9869b824d89f,S
2019-11-24 18:22:18,21ec9b32-cccb-4320-9b34-9869b824d89f,A
2019-11-24 18:34:53,21ec9b32-cccb-4320-9b34-9869b824d89f,S
2019-11-24 18:36:00,21ec9b32-cccb-4320-9b34-9869b824d89f,A
2019-11-24 18:38:05,21ec9b32-cccb-4320-9b34-9869b824d89f,S
2019-11-24 19:02:57,21ec9b32-cccb-4320-9b34-9869b824d89f,A
2019-11-24 19:14:47,21ec9b32-cccb-4320-9b34-9869b824d89f,S
2019-11-24 19:19:08,21ec9b32-cccb-4320-9b34-9869b824d89f,A
2019-11-24 19:19:09,21ec9b32-cccb-4320-9b34-9869b824d89f,S
2019-11-24 19:23:19,21ec9b32-cccb-4320-9b34-9869b824d89f,A
2019-11-24 19:27:30,21ec9b32-cccb-4320-9b34-9869b824d89f,S
2019-11-24 19:36:53,21ec9b32-cccb-4320-9b34-9869b824d89f,A
2019-11-24 18:14:41,9adac5a5-51dc-4fb6-a0ef-383d8eb85237,S
2019-11-24 18:16:36,9adac5a5-51dc-4fb6-a0ef-383d8eb85237,A
2019-11-24 18:17:05,9adac5a5-51dc-4fb6-a0ef-383d8eb85237,S
2019-11-24 18:25:23,9adac5a5-51dc-4fb6-a0ef-383d8eb85237,A
2019-11-24 18:28:15,9adac5a5-51dc-4fb6-a0ef-383d8eb85237,S
2019-11-24 18:34:36,9adac5a5-51dc-4fb6-a0ef-383d8eb85237,A
2019-11-24 18:39:12,9adac5a5-51dc-4fb6-a0ef-383d8eb85237,S
2019-11-24 18:40:25,9adac5a5-51dc-4fb6-a0ef-383d8eb85237,A
2019-11-24 18:49:09,9adac5a5-51dc-4fb6-a0ef-383d8eb85237,S
2019-11-24 18:50:44,9adac5a5-51dc-4fb6-a0ef-383d8eb85237,A
2019-11-24 18:58:45,9adac5a5-51dc-4fb6-a0ef-383d8eb85237,S
2019-11-24 18:58:58,9adac5a5-51dc-4fb6-a0ef-383d8eb85237,A
2019-11-24 19:05:33,9adac5a5-51dc-4fb6-a0ef-383d8eb85237,S
2019-11-24 19:10:27,9adac5a5-51dc-4fb6-a0ef-383d8eb85237,A
2019-11-24 19:11:22,9adac5a5-51dc-4fb6-a0ef-383d8eb85237,S
2019-11-24 19:13:19,9adac5a5-51dc-4fb6-a0ef-383d8eb85237,A
2019-11-24 19:13:21,9adac5a5-51dc-4fb6-a0ef-383d8eb85237,S
2019-11-24 19:14:41,9adac5a5-51dc-4fb6-a0ef-383d8eb85237,A
2019-11-24 19:17:27,9adac5a5-51dc-4fb6-a0ef-383d8eb85237,S
2019-11-24 19:24:53,9adac5a5-51dc-4fb6-a0ef-383d8eb85237,A
2019-11-24 19:26:26,9adac5a5-51dc-4fb6-a0ef-383d8eb85237,S
2019-11-24 19:27:02,9adac5a5-51dc-4fb6-a0ef-383d8eb85237,A
2019-11-24 19:34:04,9adac5a5-51dc-4fb6-a0ef-383d8eb85237,S
2019-11-24 19:37:33,9adac5a5-51dc-4fb6-a0ef-383d8eb85237,A
2019-11-24 17:54:55,b27fd413-5d20-45cd-bdcb-8006b67bd484,A
2019-11-24 18:02:44,b27fd413-5d20-45cd-bdcb-8006b67bd484,S
2019-11-24 18:04:14,b27fd413-5d20-45cd-bdcb-8006b67bd484,A
2019-11-24 18:06:52,b27fd413-5d20-45cd-bdcb-8006b67bd484,S
2019-11-24 18:11:33,b27fd413-5d20-45cd-bdcb-8006b67bd484,A
2019-11-24 18:26:15,b27fd413-5d20-45cd-bdcb-8006b67bd484,S
2019-11-24 18:26:50,b27fd413-5d20-45cd-bdcb-8006b67bd484,A
2019-11-24 18:32:20,b27fd413-5d20-45cd-bdcb-8006b67bd484,S
2019-11-24 18:39:33,b27fd413-5d20-45cd-bdcb-8006b67bd484,A
2019-11-24 18:40:08,b27fd413-5d20-45cd-bdcb-8006b67bd484,S
2019-11-24 18:51:58,b27fd413-5d20-45cd-bdcb-8006b67bd484,A
2019-11-24 18:55:07,b27fd413-5d20-45cd-bdcb-8006b67bd484,S
2019-11-24 19:06:56,b27fd413-5d20-45cd-bdcb-8006b67bd484,A
2019-11-24 19:18:53,b27fd413-5d20-45cd-bdcb-8006b67bd484,S
2019-11-24 19:23:46,b27fd413-5d20-45cd-bdcb-8006b67bd484,A
2019-11-24 19:24:18,b27fd413-5d20-45cd-bdcb-8006b67bd484,S
2019-11-24 19:24:36,b27fd413-5d20-45cd-bdcb-8006b67bd484,A
2019-11-24 19:24:47,b27fd413-5d20-45cd-bdcb-8006b67bd484,S
2019-11-24 19:25:58,b27fd413-5d20-45cd-bdcb-8006b67bd484,A
2019-11-24 19:29:39,b27fd413-5d20-45cd-bdcb-8006b67bd484,S
2019-11-24 19:38:30,b27fd413-5d20-45cd-bdcb-8006b67bd484,A
2019-11-24 17:44:31,e7e963a5-642e-4660-900a-a5cd60421687,S
2019-11-24 17:49:28,e7e963a5-642e-4660-900a-a5cd60421687,A
2019-11-24 17:49:50,e7e963a5-642e-4660-900a-a5cd60421687,S
2019-11-24 17:54:34,e7e963a5-642e-4660-900a-a5cd60421687,A
2019-11-24 17:59:32,e7e963a5-642e-4660-900a-a5cd60421687,S
2019-11-24 18:01:34,e7e963a5-642e-4660-900a-a5cd60421687,A
2019-11-24 18:11:38,e7e963a5-642e-4660-900a-a5cd60421687,S
2019-11-24 18:14:19,e7e963a5-642e-4660-900a-a5cd60421687,A
2019-11-24 18:15:14,e7e963a5-642e-4660-900a-a5cd60421687,S
2019-11-24 18:23:16,e7e963a5-642e-4660-900a-a5cd60421687,A
2019-11-24 18:32:04,e7e963a5-642e-4660-900a-a5cd60421687,S
2019-11-24 18:34:14,e7e963a5-642e-4660-900a-a5cd60421687,A
2019-11-24 18:34:24,e7e963a5-642e-4660-900a-a5cd60421687,S
2019-11-24 18:53:41,e7e963a5-642e-4660-900a-a5cd60421687,A
2019-11-24 18:55:54,e7e963a5-642e-4660-900a-a5cd60421687,S
2019-11-24 19:13:29,e7e963a5-642e-4660-900a-a5cd60421687,A
2019-11-24 19:23:39,e7e963a5-642e-4660-900a-a5cd60421687,S
2019-11-24 19:39:31,e7e963a5-642e-4660-900a-a5cd60421687,A
2019-11-24 17:48:46,17daee2e-16a7-43d8-ba85-5a5335f81424,A
2019-11-24 17:51:36,17daee2e-16a7-43d8-ba85-5a5335f81424,S
2019-11-24 17:56:43,17daee2e-16a7-43d8-ba85-5a5335f81424,A
2019-11-24 18:12:11,17daee2e-16a7-43d8-ba85-5a5335f81424,S
2019-11-24 18:21:14,17daee2e-16a7-43d8-ba85-5a5335f81424,A
2019-11-24 18:30:57,17daee2e-16a7-43d8-ba85-5a5335f81424,S
2019-11-24 18:39:27,17daee2e-16a7-43d8-ba85-5a5335f81424,A
2019-11-24 18:40:13,17daee2e-16a7-43d8-ba85-5a5335f81424,S
2019-11-24 18:40:32,17daee2e-16a7-43d8-ba85-5a5335f81424,A
2019-11-24 18:49:10,17daee2e-16a7-43d8-ba85-5a5335f81424,S
2019-11-24 18:52:09,17daee2e-16a7-43d8-ba85-5a5335f81424,A
2019-11-24 18:52:12,17daee2e-16a7-43d8-ba85-5a5335f81424,S
2019-11-24 18:53:23,17daee2e-16a7-43d8-ba85-5a5335f81424,A
2019-11-24 18:55:13,17daee2e-16a7-43d8-ba85-5a5335f81424,S
2019-11-24 18:57:04,17daee2e-16a7-43d8-ba85-5a5335f81424,A
2019-11-24 18:58:03,17daee2e-16a7-43d8-ba85-5a5335f81424,S
2019-11-24 18:59:46,17daee2e-16a7-43d8-ba85-5a5335f81424,A
2019-11-24 19:09:01,17daee2e-16a7-43d8-ba85-5a5335f81424,S
2019-11-24 19:11:09,17daee2e-16a7-43d8-ba85-5a5335f81424,A
2019-11-24 19:12:07,17daee2e-16a7-43d8-ba85-5a5335f81424,S
2019-11-24 19:14:34,17daee2e-16a7-43d8-ba85-5a5335f81424,A
2019-11-24 19:23:20,17daee2e-16a7-43d8-ba85-5a5335f81424,S
2019-11-24 19:25:36,17daee2e-16a7-43d8-ba85-5a5335f81424,A
2019-11-24 19:30:29,17daee2e-16a7-43d8-ba85-5a5335f81424,S
2019-11-24 19:30:36,17daee2e-16a7-43d8-ba85-5a5335f81424,A
2019-11-24 19:31:15,17daee2e-16a7-43d8-ba85-5a5335f81424,S
2019-11-24 19:34:44,17daee2e-16a7-43d8-ba85-5a5335f81424,A
2019-11-24 19:36:12,17daee2e-16a7-43d8-ba85-5a5335f81424,S
2019-11-24 18:19:30,af9c207c-d159-4f30-b85e-5a289e2d885b,A
2019-11-24 18:24:40,af9c207c-d159-4f30-b85e-5a289e2d885b,S
2019-11-24 18:25:39,af9c207c-d159-4f30-b85e-5a289e2d885b,A
2019-11-24 18:27:35,af9c207c-d159-4f30-b85e-5a289e2d885b,S
2019-11-24 18:35:10,af9c207c-d159-4f30-b85e-5a289e2d885b,A
2019-11-24 18:36:34,af9c207c-d159-4f30-b85e-5a289e2d885b,S
2019-11-24 18:46:28,af9c207c-d159-4f30-b85e-5a289e2d885b,A
2019-11-24 18:48:16,af9c207c-d159-4f30-b85e-5a289e2d885b,S
2019-11-24 18:53:10,af9c207c-d159-4f30-b85e-5a289e2d885b,A
2019-11-24 18:57:34,af9c207c-d159-4f30-b85e-5a289e2d885b,S
2019-11-24 19:06:18,af9c207c-d159-4f30-b85e-5a289e2d885b,A
2019-11-24 19:07:49,af9c207c-d159-4f30-b85e-5a289e2d885b,S
2019-11-24 19:09:43,af9c207c-d159-4f30-b85e-5a289e2d885b,A
2019-11-24 19:12:10,af9c207c-d159-4f30-b85e-5a289e2d885b,S
2019-11-24 19:16:24,af9c207c-d159-4f30-b85e-5a289e2d885b,A
2019-11-24 19:22:13,af9c207c-d159-4f30-b85e-5a289e2d885b,S
2019-11-24 19:27:43,af9c207c-d159-4f30-b85e-5a289e2d885b,A
2019-11-24 19:36:56,af9c207c-d159-4f30-b85e-5a289e2d885b,S
2019-11-24 17:44:20,cb0dece8-4444-4113-a06c-ff02bf5bc254,S
2019-11-24 17:47:47,cb0dece8-4444-4113-a06c-ff02bf5bc254,A
2019-11-24 17:53:50,cb0dece8-4444-4113-a06c-ff02bf5bc254,S
2019-11-24 18:03:46,cb0dece8-4444-4113-a06c-ff02bf5bc254,A
2019-11-24 18:23:55,cb0dece8-4444-4113-a06c-ff02bf5bc254,S
2019-11-24 18:29:50,cb0dece8-4444-4113-a06c-ff02bf5bc254,A
2019-11-24 18:40:39,cb0dece8-4444-4113-a06c-ff02bf5bc254,S
2019-11-24 18:46:05,cb0dece8-4444-4113-a06c-ff02bf5bc254,A
2019-11-24 18:50:22,cb0dece8-4444-4113-a06c-ff02bf5bc254,S
2019-11-24 18:55:55,cb0dece8-4444-4113-a06c-ff02bf5bc254,A
2019-11-24 18:56:07,cb0dece8-4444-4113-a06c-ff02bf5bc254,S
2019-11-24 18:57:51,cb0dece8-4444-4113-a06c-ff02bf5bc254,A
2019-11-24 19:03:45,cb0dece8-4444-4113-a06c-ff02bf5bc254,S
2019-11-24 19:05:28,cb0dece8-4444-4113-a06c-ff02bf5bc254,A
2019-11-24 19:09:59,cb0dece8-4444-4113-a06c-ff02bf5bc254,S
2019-11-24 19:13:34,cb0dece8-4444-4113-a06c-ff02bf5bc254,A
2019-11-24 19:18:52,cb0dece8-4444-4113-a06c-ff02bf5bc254,S
2019-11-24 19:26:36,cb0dece8-4444-4113-a06c-ff02bf5bc254,A
2019-11-24 17:38:53,0e054d74-a273-4b47-b0b7-b295c54ae7f0,S
2019-11-24 17:40:26,0e054d74-a273-4b47-b0b7-b295c54ae7f0,A
2019-11-24 17:41:14,0e054d74-a273-4b47-b0b7-b295c54ae7f0,S
2019-11-24 17:41:21,0e054d74-a273-4b47-b0b7-b295c54ae7f0,A
2019-11-24 17:41:26,0e054d74-a273-4b47-b0b7-b295c54ae7f0,S
2019-11-24 17:41:51,0e054d74-a273-4b47-b0b7-b295c54ae7f0,A
2019-11-24 17:46:36,0e054d74-a273-4b47-b0b7-b295c54ae7f0,S
2019-11-24 17:50:44,0e054d74-a273-4b47-b0b7-b295c54ae7f0,A
2019-11-24 17:52:32,0e054d74-a273-4b47-b0b7-b295c54ae7f0,S
2019-11-24 17:54:45,0e054d74-a273-4b47-b0b7-b295c54ae7f0,A
2019-11-24 18:05:24,0e054d74-a273-4b47-b0b7-b295c54ae7f0,S
2019-11-24 18:07:26,0e054d74-a273-4b47-b0b7-b295c54ae7f0,A
2019-11-24 18:16:35,0e054d74-a273-4b47-b0b7-b295c54ae7f0,S
2019-11-24 18:19:11,0e054d74-a273-4b47-b0b7-b295c54ae7f0,A
2019-11-24 18:27:46,0e054d74-a273-4b47-b0b7-b295c54ae7f0,S
2019-11-24 18:29:48,0e054d74-a273-4b47-b0b7-b295c54ae7f0,A
2019-11-24 18:31:37,0e054d74-a273-4b47-b0b7-b295c54ae7f0,S
2019-11-24 18:34:40,0e054d74-a273-4b47-b0b7-b295c54ae7f0,A
2019-11-24 18:34:48,0e054d74-a273-4b47-b0b7-b295c54ae7f0,S
2019-11-24 18:46:51,0e054d74-a273-4b47-b0b7-b295c54ae7f0,A
2019-11-24 18:50:30,0e054d74-a273-4b47-b0b7-b295c54ae7f0,S
2019-11-24 19:02:14,0e054d74-a273-4b47-b0b7-b295c54ae7f0,A
2019-11-24 19:02:58,0e054d74-a273-4b47-b0b7-b295c54ae7f0,S
2019-11-24 19:09:51,0e054d74-a273-4b47-b0b7-b295c54ae7f0,A
2019-11-24 19:11:12,0e054d74-a273-4b47-b0b7-b295c54ae7f0,S
2019-11-24 19:13:39,0e054d74-a273-4b47-b0b7-b295c54ae7f0,A
2019-11-24 19:22:04,0e054d74-a273-4b47-b0b7-b295c54ae7f0,S
2019-11-24 19:30:13,0e054d74-a273-4b47-b0b7-b295c54ae7f0,A
2019-11-24 19:40:23,0e054d74-a273-4b47-b0b7-b295c54ae7f0,S
2019-11-24 18:23:35,a3b1ee7f-c6c3-4593-865d-7b3a2097f24d,S
2019-11-24 18:25:54,a3b1ee7f-c6c3-4593-865d-7b3a2097f24d,A
2019-11-24 18:32:25,a3b1ee7f-c6c3-4593-865d-7b3a2097f24d,S
2019-11-24 18:33:23,a3b1ee7f-c6c3-4593-865d-7b3a2097f24d,A
2019-11-24 18:33:43,a3b1ee7f-c6c3-4593-865d-7b3a2097f24d,S
2019-11-24 18:38:53,a3b1ee7f-c6c3-4593-865d-7b3a2097f24d,A
2019-11-24 18:43:46,a3b1ee7f-c6c3-4593-865d-7b3a2097f24d,S
2019-11-24 18:48:26,a3b1ee7f-c6c3-4593-865d-7b3a2097f24d,A
2019-11-24 19:01:26,a3b1ee7f-c6c3-4593-865d-7b3a2097f24d,S
2019-11-24 19:18:55,a3b1ee7f-c6c3-4593-865d-7b3a2097f24d,A
2019-11-24 19:23:38,a3b1ee7f-c6c3-4593-865d-7b3a2097f24d,S
2019-11-24 19:25:47,a3b1ee7f-c6c3-4593-865d-7b3a2097f24d,A
2019-11-24 19:27:01,a3b1ee7f-c6c3-4593-865d-7b3a2097f24d,S
2019-11-24 19:28:23,a3b1ee7f-c6c3-4593-865d-7b3a2097f24d,A
2019-11-24 19:29:07,a3b1ee7f-c6c3-4593-865d-7b3a2097f24d,S
2019-11-24 19:29:39,a3b1ee7f-c6c3-4593-865d-7b3a2097f24d,A
2019-11-24 19:30:44,a3b1ee7f-c6c3-4593-865d-7b3a2097f24d,S
2019-11-24 19:37:25,a3b1ee7f-c6c3-4593-865d-7b3a2097f24d,A
2019-11-24 19:37:44,a3b1ee7f-c6c3-4593-865d-7b3a2097f24d,S
2019-11-24 19:38:32,a3b1ee7f-c6c3-4593-865d-7b3a2097f24d,A
2019-11-24 19:38:33,a3b1ee7f-c6c3-4593-865d-7b3a2097f24d,S
2019-11-24 18:08:22,e13dc995-487b-4554-81d7-1d9eb05fed92,S
2019-11-24 18:10:40,e13dc995-487b-4554-81d7-1d9eb05fed92,A
2019-11-24 18:15:52,e13dc995-487b-4554-81d7-1d9eb05fed92,S
2019-11-24 18:23:57,e13dc995-487b-4554-81d7-1d9eb05fed92,A
2019-11-24 18:31:21,e13dc995-487b-4554-81d7-1d9eb05fed92,S
2019-11-24 18:31:44,e13dc995-487b-4554-81d7-1d9eb05fed92,A
2019-11-24 18:37:16,e13dc995-487b-4554-81d7-1d9eb05fed92,S
2019-11-24 18:48:19,e13dc995-487b-4554-81d7-1d9eb05fed92,A
2019-11-24 18:52:44,e13dc995-487b-4554-81d7-1d9eb05fed92,S
2019-11-24 18:55:31,e13dc995-487b-4554-81d7-1d9eb05fed92,A
2019-11-24 19:02:13,e13dc995-487b-4554-81d7-1d9eb05fed92,S
2019-11-24 19:03:03,e13dc995-487b-4554-81d7-1d9eb05fed92,A
2019-11-24 19:05:49,e13dc995-487b-4554-81d7-1d9eb05fed92,S
2019-11-24 19:09:40,e13dc995-487b-4554-81d7-1d9eb05fed92,A
2019-11-24 19:16:07,e13dc995-487b-4554-81d7-1d9eb05fed92,S
2019-11-24 19:19:12,e13dc995-487b-4554-81d7-1d9eb05fed92,A
2019-11-24 19:31:32,e13dc995-487b-4554-81d7-1d9eb05fed92,S
2019-11-24 19:36:19,e13dc995-487b-4554-81d7-1d9eb05fed92,A
2019-11-24 19:38:23,e13dc995-487b-4554-81d7-1d9eb05fed92,S
2019-11-24 17:45:00,e44e600b-2c64-42e7-87be-45ab398192eb,S
2019-11-24 18:01:07,e44e600b-2c64-42e7-87be-45ab398192eb,A
2019-11-24 18:02:20,e44e600b-2c64-42e7-87be-45ab398192eb,S
2019-11-24 18:07:09,e44e600b-2c64-42e7-87be-45ab398192eb,A
2019-11-24 18:08:14,e44e600b-2c64-42e7-87be-45ab398192eb,S
2019-11-24 18:11:02,e44e600b-2c64-42e7-87be-45ab398192eb,A
2019-11-24 18:16:14,e44e600b-2c64-42e7-87be-45ab398192eb,S
2019-11-24 18:18:24,e44e600b-2c64-42e7-87be-45ab398192eb,A
2019-11-24 18:21:53,e44e600b-2c64-42e7-87be-45ab398192eb,S
2019-11-24 18:27:28,e44e600b-2c64-42e7-87be-45ab398192eb,A
2019-11-24 18:37:59,e44e600b-2c64-42e7-87be-45ab398192eb,S
2019-11-24 18:43:39,e44e600b-2c64-42e7-87be-45ab398192eb,A
2019-11-24 18:45:37,e44e600b-2c64-42e7-87be-45ab398192eb,S
2019-11-24 18:47:39,e44e600b-2c64-42e7-87be-45ab398192eb,A
2019-11-24 18:55:56,e44e600b-2c64-42e7-87be-45ab398192eb,S
2019-11-24 18:58:06,e44e600b-2c64-42e7-87be-45ab398192eb,A
2019-11-24 19:03:00,e44e600b-2c64-42e7-87be-45ab398192eb,S
2019-11-24 19:05:59,e44e600b-2c64-42e7-87be-45ab398192eb,A
2019-11-24 19:07:06,e44e600b-2c64-42e7-87be-45ab398192eb,S
2019-11-24 19:12:02,e44e600b-2c64-42e7-87be-45ab398192eb,A
2019-11-24 19:14:54,e44e600b-2c64-42e7-87be-45ab398192eb,S
2019-11-24 19:18:43,e44e600b-2c64-42e7-87be-45ab398192eb,A
2019-11-24 19:21:03,e44e600b-2c64-42e7-87be-45ab398192eb,S
2019-11-24 19:24:50,e44e600b-2c64-42e7-87be-45ab398192eb,A
2019-11-24 19:30:15,e44e600b-2c64-42e7-87be-45ab398192eb,S
2019-11-24 19:31:22,e44e600b-2c64-42e7-87be-45ab398192eb,A
2019-11-24 19:37:06,e44e600b-2c64-42e7-87be-45ab398192eb,S
2019-11-24 19:38:04,e44e600b-2c64-42e7-87be-45ab398192eb,A
2019-11-24 19:39:34,e44e600b-2c64-42e7-87be-45ab398192eb,S
2019-11-24 19:40:05,e44e600b-2c64-42e7-87be-45ab398192eb,A
2019-11-24 17:32:41,bc427b52-401f-4730-b185-a750a7c763e1,A
2019-11-24 17:36:57,bc427b52-401f-4730-b185-a750a7c763e1,S
2019-11-24 17:39:14,bc427b52-401f-4730-b185-a750a7c763e1,A
2019-11-24 17:46:57,bc427b52-401f-4730-b185-a750a7c763e1,S
2019-11-24 17:56:15,bc427b52-401f-4730-b185-a750a7c763e1,A
2019-11-24 18:00:36,bc427b52-401f-4730-b185-a750a7c763e1,S
2019-11-24 18:05:10,bc427b52-401f-4730-b185-a750a7c763e1,A
2019-11-24 18:20:27,bc427b52-401f-4730-b185-a750a7c763e1,S
2019-11-24 18:25:20,bc427b52-401f-4730-b185-a750a7c763e1,A
2019-11-24 18:38:09,bc427b52-401f-4730-b185-a750a7c763e1,S
2019-11-24 18:38:37,bc427b52-401f-4730-b185-a750a7c763e1,A
2019-11-24 18:45:50,bc427b52-401f-4730-b185-a750a7c763e1,S
2019-11-24 18:53:45,bc427b52-401f-4730-b185-a750a7c763e1,A
2019-11-24 18:54:55,bc427b52-401f-4730-b185-a750a7c763e1,S
2019-11-24 18:56:28,bc427b52-401f-4730-b185-a750a7c763e1,A
2019-11-24 18:57:04,bc427b52-401f-4730-b185-a750a7c763e1,S
2019-11-24 18:58:37,bc427b52-401f-4730-b185-a750a7c763e1,A
2019-11-24 18:59:13,bc427b52-401f-4730-b185-a750a7c763e1,S
2019-11-24 18:59:19,bc427b52-401f-4730-b185-a750a7c763e1,A
2019-11-24 18:59:41,bc427b52-401f-4730-b185-a750a7c763e1,S
2019-11-24 19:00:38,bc427b52-401f-4730-b185-a750a7c763e1,A
2019-11-24 19:08:03,bc427b52-401f-4730-b185-a750a7c763e1,S
2019-11-24 19:20:21,bc427b52-401f-4730-b185-a750a7c763e1,A
2019-11-24 19:20:59,bc427b52-401f-4730-b185-a750a7c763e1,S
2019-11-24 19:39:28,bc427b52-401f-4730-b185-a750a7c763e1,A
2019-11-24 17:49:15,b82ccb97-ab11-46da-ab96-c2ae9b85ced7,A
2019-11-24 17:52:40,b82ccb97-ab11-46da-ab96-c2ae9b85ced7,S
2019-11-24 17:57:45,b82ccb97-ab11-46da-ab96-c2ae9b85ced7,A
2019-11-24 17:59:36,b82ccb97-ab11-46da-ab96-c2ae9b85ced7,S
2019-11-24 18:10:07,b82ccb97-ab11-46da-ab96-c2ae9b85ced7,A
2019-11-24 18:10:42,b82ccb97-ab11-46da-ab96-c2ae9b85ced7,S
2019-11-24 18:19:07,b82ccb97-ab11-46da-ab96-c2ae9b85ced7,A
2019-11-24 18:21:27,b82ccb97-ab11-46da-ab96-c2ae9b85ced7,S
2019-11-24 18:29:50,b82ccb97-ab11-46da-ab96-c2ae9b85ced7,A
2019-11-24 18:48:17,b82ccb97-ab11-46da-ab96-c2ae9b85ced7,S
2019-11-24 18:49:32,b82ccb97-ab11-46da-ab96-c2ae9b85ced7,A
2019-11-24 18:49:44,b82ccb97-ab11-46da-ab96-c2ae9b85ced7,S
2019-11-24 18:52:56,b82ccb97-ab11-46da-ab96-c2ae9b85ced7,A
2019-11-24 19:01:46,b82ccb97-ab11-46da-ab96-c2ae9b85ced7,S
2019-11-24 19:16:51,b82ccb97-ab11-46da-ab96-c2ae9b85ced7,A
2019-11-24 19:17:09,b82ccb97-ab11-46da-ab96-c2ae9b85ced7,S
2019-11-24 19:27:41,b82ccb97-ab11-46da-ab96-c2ae9b85ced7,A
2019-11-24 19:40:40,b82ccb97-ab11-46da-ab96-c2ae9b85ced7,S
2019-11-24 17:46:51,b79b5c40-c792-47b0-96b7-d5c37472989d,S
2019-11-24 17:53:03,b79b5c40-c792-47b0-96b7-d5c37472989d,A
2019-11-24 17:57:27,b79b5c40-c792-47b0-96b7-d5c37472989d,S
2019-11-24 18:07:59,b79b5c40-c792-47b0-96b7-d5c37472989d,A
2019-11-24 18:08:18,b79b5c40-c792-47b0-96b7-d5c37472989d,S
2019-11-24 18:13:47,b79b5c40-c792-47b0-96b7-d5c37472989d,A
2019-11-24 18:14:22,b79b5c40-c792-47b0-96b7-d5c37472989d,S
2019-11-24 18:14:59,b79b5c40-c792-47b0-96b7-d5c37472989d,A
2019-11-24 18:17:31,b79b5c40-c792-47b0-96b7-d5c37472989d,S
2019-11-24 18:17:51,b79b5c40-c792-47b0-96b7-d5c37472989d,A
2019-11-24 18:18:42,b79b5c40-c792-47b0-96b7-d5c37472989d,S
2019-11-24 18:34:15,b79b5c40-c792-47b0-96b7-d5c37472989d,A
2019-11-24 18:35:34,b79b5c40-c792-47b0-96b7-d5c37472989d,S
2019-11-24 18:38:42,b79b5c40-c792-47b0-96b7-d5c37472989d,A
2019-11-24 18:50:36,b79b5c40-c792-47b0-96b7-d5c37472989d,S
2019-11-24 18:52:03,b79b5c40-c792-47b0-96b7-d5c37472989d,A
2019-11-24 18:53:12,b79b5c40-c792-47b0-96b7-d5c37472989d,S
2019-11-24 18:54:03,b79b5c40-c792-47b0-96b7-d5c37472989d,A
2019-11-24 18:54:26,b79b5c40-c792-47b0-96b7-d5c37472989d,S
2019-11-24 19:00:56,b79b5c40-c792-47b0-96b7-d5c37472989d,A
2019-11-24 19:31:35,b79b5c40-c792-47b0-96b7-d5c37472989d,S
2019-11-24 19:35:21,b79b5c40-c792-47b0-96b7-d5c37472989d,A
2019-11-24 18:13:44,96049e86-1fc2-4aef-a477-fe289299984c,A
2019-11-24 18:20:59,96049e86-1fc2-4aef-a477-fe289299984c,S
2019-11-24 18:22:53,96049e86-1fc2-4aef-a477-fe289299984c,A
2019-11-24 18:27:43,96049e86-1fc2-4aef-a477-fe289299984c,S
2019-11-24 18:34:58,96049e86-1fc2-4aef-a477-fe289299984c,A
2019-11-24 18:41:55,96049e86-1fc2-4aef-a477-fe289299984c,S
2019-11-24 18:42:28,96049e86-1fc2-4aef-a477-fe289299984c,A
2019-11-24 18:42:53,96049e86-1fc2-4aef-a477-fe289299984c,S
2019-11-24 18:44:17,96049e86-1fc2-4aef-a477-fe289299984c,A
2019-11-24 18:44:55,96049e86-1fc2-4aef-a477-fe289299984c,S
2019-11-24 18:47:11,96049e86-1fc2-4aef-a477-fe289299984c,A
2019-11-24 18:53:33,96049e86-1fc2-4aef-a477-fe289299984c,S
2019-11-24 18:54:56,96049e86-1fc2-4aef-a477-fe289299984c,A
2019-11-24 18:57:38,96049e86-1fc2-4aef-a477-fe289299984c,S
2019-11-24 18:58:13,96049e86-1fc2-4aef-a477-fe289299984c,A
2019-11-24 18:59:33,96049e86-1fc2-4aef-a477-fe289299984c,S
2019-11-24 19:18:54,96049e86-1fc2-4aef-a477-fe289299984c,A
2019-11-24 19:36:54,96049e86-1fc2-4aef-a477-fe289299984c,S
2019-11-24 19:37:58,96049e86-1fc2-4aef-a477-fe289299984c,A
2019-11-24 18:12:00,a974842c-3ecd-4710-a5c7-701ecbe1fd49,S
2019-11-24 18:13:56,a974842c-3ecd-4710-a5c7-701ecbe1fd49,A
2019-11-24 18:17:04,a974842c-3ecd-4710-a5c7-701ecbe1fd49,S
2019-11-24 18:17:34,a974842c-3ecd-4710-a5c7-701ecbe1fd49,A
2019-11-24 18:20:42,a974842c-3ecd-4710-a5c7-701ecbe1fd49,S
2019-11-24 18:22:42,a974842c-3ecd-4710-a5c7-701ecbe1fd49,A
2019-11-24 18:26:58,a974842c-3ecd-4710-a5c7-701ecbe1fd49,S
2019-11-24 18:27:56,a974842c-3ecd-4710-a5c7-701ecbe1fd49,A
2019-11-24 18:28:45,a974842c-3ecd-4710-a5c7-701ecbe1fd49,S
2019-11-24 18:36:12,a974842c-3ecd-4710-a5c7-701ecbe1fd49,A
2019-11-24 18:38:25,a974842c-3ecd-4710-a5c7-701ecbe1fd49,S
2019-11-24 18:41:57,a974842c-3ecd-4710-a5c7-701ecbe1fd49,A
2019-11-24 18:50:13,a974842c-3ecd-4710-a5c7-701ecbe1fd49,S
2019-11-24 18:57:37,a974842c-3ecd-4710-a5c7-701ecbe1fd49,A
2019-11-24 18:59:40,a974842c-3ecd-4710-a5c7-701ecbe1fd49,S
2019-11-24 19:02:25,a974842c-3ecd-4710-a5c7-701ecbe1fd49,A
2019-11-24 19:03:29,a974842c-3ecd-4710-a5c7-701ecbe1fd49,S
2019-11-24 19:04:47,a974842c-3ecd-4710-a5c7-701ecbe1fd49,A
2019-11-24 19:06:19,a974842c-3ecd-4710-a5c7-701ecbe1fd49,S
2019-11-24 19:14:27,a974842c-3ecd-4710-a5c7-701ecbe1fd49,A
2019-11-24 19:14:37,a974842c-3ecd-4710-a5c7-701ecbe1fd49,S
2019-11-24 19:14:49,a974842c-3ecd-4710-a5c7-701ecbe1fd49,A
2019-11-24 19:18:39,a974842c-3ecd-4710-a5c7-701ecbe1fd49,S
2019-11-24 19:21:03,a974842c-3ecd-4710-a5c7-701ecbe1fd49,A
2019-11-24 19:21:48,a974842c-3ecd-4710-a5c7-701ecbe1fd49,S
2019-11-24 19:23:06,a974842c-3ecd-4710-a5c7-701ecbe1fd49,A
2019-11-24 19:23:59,a974842c-3ecd-4710-a5c7-701ecbe1fd49,S
2019-11-24 19:32:22,a974842c-3ecd-4710-a5c7-701ecbe1fd49,A
2019-11-24 19:33:35,a974842c-3ecd-4710-a5c7-701ecbe1fd49,S
2019-11-24 18:07:05,8c838322-30ce-4360-af70-ffac9918b7db,S
2019-11-24 18:19:19,8c838322-30ce-4360-af70-ffac9918b7db,A
2019-11-24 18:29:28,8c838322-30ce-4360-af70-ffac9918b7db,S
2019-11-24 18:30:46,8c838322-30ce-4360-af70-ffac9918b7db,A
2019-11-24 18:32:45,8c838322-30ce-4360-af70-ffac9918b7db,S
2019-11-24 18:39:24,8c838322-30ce-4360-af70-ffac9918b7db,A
2019-11-24 18:40:11,8c838322-30ce-4360-af70-ffac9918b7db,S
2019-11-24 18:42:33,8c838322-30ce-4360-af70-ffac9918b7db,A
2019-11-24 18:43:24,8c838322-30ce-4360-af70-ffac9918b7db,S
2019-11-24 18:43:46,8c838322-30ce-4360-af70-ffac9918b7db,A
2019-11-24 18:44:05,8c838322-30ce-4360-af70-ffac9918b7db,S
2019-11-24 18:51:01,8c838322-30ce-4360-af70-ffac9918b7db,A
2019-11-24 19:03:51,8c838322-30ce-4360-af70-ffac9918b7db,S
2019-11-24 19:08:28,8c838322-30ce-4360-af70-ffac9918b7db,A
2019-11-24 19:09:07,8c838322-30ce-4360-af70-ffac9918b7db,S
2019-11-24 19:26:02,8c838322-30ce-4360-af70-ffac9918b7db,A
2019-11-24 19:28:23,8c838322-30ce-4360-af70-ffac9918b7db,S
2019-11-24 19:28:36,8c838322-30ce-4360-af70-ffac9918b7db,A
2019-11-24 19:29:56,8c838322-30ce-4360-af70-ffac9918b7db,S
2019-11-24 19:32:22,8c838322-30ce-4360-af70-ffac9918b7db,A
2019-11-24 19:37:50,8c838322-30ce-4360-af70-ffac9918b7db,S
2019-11-24 19:40:53,8c838322-30ce-4360-af70-ffac9918b7db,A
2019-11-24 17:51:11,79f32946-d43f-4335-a2de-9e4735b24ed8,A
2019-11-24 17:58:03,79f32946-d43f-4335-a2de-9e4735b24ed8,S
2019-11-24 18:02:50,79f32946-d43f-4335-a2de-9e4735b24ed8,A
2019-11-24 18:09:24,79f32946-d43f-4335-a2de-9e4735b24ed8,S
2019-11-24 18:15:18,79f32946-d43f-4335-a2de-9e4735b24ed8,A
2019-11-24 18:25:56,79f32946-d43f-4335-a2de-9e4735b24ed8,S
2019-11-24 18:33:11,79f32946-d43f-4335-a2de-9e4735b24ed8,A
2019-11-24 18:35:38,79f32946-d43f-4335-a2de-9e4735b24ed8,S
2019-11-24 18:37:19,79f32946-d43f-4335-a2de-9e4735b24ed8,A
2019-11-24 18:41:57,79f32946-d43f-4335-a2de-9e4735b24ed8,S
2019-11-24 18:46:57,79f32946-d43f-4335-a2de-9e4735b24ed8,A
2019-11-24 18:56:52,79f32946-d43f-4335-a2de-9e4735b24ed8,S
2019-11-24 18:56:56,79f32946-d43f-4335-a2de-9e4735b24ed8,A
2019-11-24 19:01:36,79f32946-d43f-4335-a2de-9e4735b24ed8,S
2019-11-24 19:03:20,79f32946-d43f-4335-a2de-9e4735b24ed8,A
2019-11-24 19:10:03,79f32946-d43f-4335-a2de-9e4735b24ed8,S
2019-11-24 19:10:10,79f32946-d43f-4335-a2de-9e4735b24ed8,A
2019-11-24 19:12:52,79f32946-d43f-4335-a2de-9e4735b24ed8,S
2019-11-24 19:19:45,79f32946-d43f-4335-a2de-9e4735b24ed8,A
2019-11-24 19:40:39,79f32946-d43f-4335-a2de-9e4735b24ed8,S
2019-11-24 18:23:42,759f2ced-040c-47cc-9b01-23900702ab28,S
2019-11-24 18:24:56,759f2ced-040c-47cc-9b01-23900702ab28,A
2019-11-24 18:30:41,759f2ced-040c-47cc-9b01-23900702ab28,S
2019-11-24 18:44:01,759f2ced-040c-47cc-9b01-23900702ab28,A
2019-11-24 18:51:46,759f2ced-040c-47cc-9b01-23900702ab28,S
2019-11-24 18:54:17,759f2ced-040c-47cc-9b01-23900702ab28,A
2019-11-24 19:10:39,759f2ced-040c-47cc-9b01-23900702ab28,S
2019-11-24 19:16:46,759f2ced-040c-47cc-9b01-23900702ab28,A
2019-11-24 19:31:35,759f2ced-040c-47cc-9b01-23900702ab28,S
2019-11-24 19:36:50,759f2ced-040c-47cc-9b01-23900702ab28,A
2019-11-24 19:39:23,759f2ced-040c-47cc-9b01-23900702ab28,S
2019-11-24 17:53:54,6eaea359-53e0-4c39-97de-000a5dfeae7e,A
2019-11-24 17:57:35,6eaea359-53e0-4c39-97de-000a5dfeae7e,S
2019-11-24 18:00:54,6eaea359-53e0-4c39-97de-000a5dfeae7e,A
2019-11-24 18:02:34,6eaea359-53e0-4c39-97de-000a5dfeae7e,S
2019-11-24 18:18:05,6eaea359-53e0-4c39-97de-000a5dfeae7e,A
2019-11-24 18:19:49,6eaea359-53e0-4c39-97de-000a5dfeae7e,S
2019-11-24 18:20:12,6eaea359-53e0-4c39-97de-000a5dfeae7e,A
2019-11-24 18:42:00,6eaea359-53e0-4c39-97de-000a5dfeae7e,S
2019-11-24 18:49:10,6eaea359-53e0-4c39-97de-000a5dfeae7e,A
2019-11-24 18:14:08,3a5357b6-44b1-411c-a5be-b5fd796dda48,A
2019-11-24 18:17:37,3a5357b6-44b1-411c-a5be-b5fd796dda48,S
2019-11-24 18:20:40,3a5357b6-44b1-411c-a5be-b5fd796dda48,A
2019-11-24 18:29:37,3a5357b6-44b1-411c-a5be-b5fd796dda48,S
2019-11-24 18:44:34,3a5357b6-44b1-411c-a5be-b5fd796dda48,A
2019-11-24 18:45:36,3a5357b6-44b1-411c-a5be-b5fd796dda48,S
2019-11-24 18:46:06,3a5357b6-44b1-411c-a5be-b5fd796dda48,A
2019-11-24 18:46:45,3a5357b6-44b1-411c-a5be-b5fd796dda48,S
2019-11-24 18:53:48,3a5357b6-44b1-411c-a5be-b5fd796dda48,A
2019-11-24 18:58:59,3a5357b6-44b1-411c-a5be-b5fd796dda48,S
2019-11-24 19:17:50,3a5357b6-44b1-411c-a5be-b5fd796dda48,A
2019-11-24 19:19:57,3a5357b6-44b1-411c-a5be-b5fd796dda48,S
2019-11-24 19:27:04,3a5357b6-44b1-411c-a5be-b5fd796dda48,A
2019-11-24 19:30:34,3a5357b6-44b1-411c-a5be-b5fd796dda48,S
2019-11-24 18:09:06,bf5b8602-5841-4403-bf1d-e0ad2a2deb44,A
2019-11-24 18:09:45,bf5b8602-5841-4403-bf1d-e0ad2a2deb44,S
2019-11-24 18:11:20,bf5b8602-5841-4403-bf1d-e0ad2a2deb44,A
2019-11-24 18:25:34,bf5b8602-5841-4403-bf1d-e0ad2a2deb44,S
2019-11-24 18:27:40,bf5b8602-5841-4403-bf1d-e0ad2a2deb44,A
2019-11-24 18:30:07,bf5b8602-5841-4403-bf1d-e0ad2a2deb44,S
2019-11-24 18:37:45,bf5b8602-5841-4403-bf1d-e0ad2a2deb44,A
2019-11-24 18:41:25,bf5b8602-5841-4403-bf1d-e0ad2a2deb44,S
2019-11-24 18:44:46,bf5b8602-5841-4403-bf1d-e0ad2a2deb44,A
2019-11-24 18:55:37,bf5b8602-5841-4403-bf1d-e0ad2a2deb44,S
2019-11-24 18:55:40,bf5b8602-5841-4403-bf1d-e0ad2a2deb44,A
2019-11-24 19:05:11,bf5b8602-5841-4403-bf1d-e0ad2a2deb44,S
2019-11-24 19:25:40,bf5b8602-5841-4403-bf1d-e0ad2a2deb44,A
2019-11-24 19:32:55,bf5b8602-5841-4403-bf1d-e0ad2a2deb44,S
2019-11-24 19:36:54,bf5b8602-5841-4403-bf1d-e0ad2a2deb44,A
2019-11-24 17:49:22,b7e4ff92-30aa-4d5e-a21a-dcfb2503fa5a,A
2019-11-24 17:55:25,b7e4ff92-30aa-4d5e-a21a-dcfb2503fa5a,S
2019-11-24 17:58:13,b7e4ff92-30aa-4d5e-a21a-dcfb2503fa5a,A
2019-11-24 17:58:52,b7e4ff92-30aa-4d5e-a21a-dcfb2503fa5a,S
2019-11-24 17:59:37,b7e4ff92-30aa-4d5e-a21a-dcfb2503fa5a,A
2019-11-24 18:08:52,b7e4ff92-30aa-4d5e-a21a-dcfb2503fa5a,S
2019-11-24 18:09:18,b7e4ff92-30aa-4d5e-a21a-dcfb2503fa5a,A
2019-11-24 18:10:08,b7e4ff92-30aa-4d5e-a21a-dcfb2503fa5a,S
2019-11-24 18:15:02,b7e4ff92-30aa-4d5e-a21a-dcfb2503fa5a,A
2019-11-24 18:20:01,b7e4ff92-30aa-4d5e-a21a-dcfb2503fa5a,S
2019-11-24 18:20:13,b7e4ff92-30aa-4d5e-a21a-dcfb2503fa5a,A
2019-11-24 18:20:58,b7e4ff92-30aa-4d5e-a21a-dcfb2503fa5a,S
2019-11-24 18:23:18,b7e4ff92-30aa-4d5e-a21a-dcfb2503fa5a,A
2019-11-24 18:26:18,b7e4ff92-30aa-4d5e-a21a-dcfb2503fa5a,S
2019-11-24 18:27:34,b7e4ff92-30aa-4d5e-a21a-dcfb2503fa5a,A
2019-11-24 18:27:38,b7e4ff92-30aa-4d5e-a21a-dcfb2503fa5a,S
2019-11-24 18:35:44,b7e4ff92-30aa-4d5e-a21a-dcfb2503fa5a,A
2019-11-24 18:39:01,b7e4ff92-30aa-4d5e-a21a-dcfb2503fa5a,S
2019-11-24 18:40:54,b7e4ff92-30aa-4d5e-a21a-dcfb2503fa5a,A
2019-11-24 18:48:16,b7e4ff92-30aa-4d5e-a21a-dcfb2503fa5a,S
2019-11-24 18:58:30,b7e4ff92-30aa-4d5e-a21a-dcfb2503fa5a,A
2019-11-24 19:13:58,b7e4ff92-30aa-4d5e-a21a-dcfb2503fa5a,S
2019-11-24 19:16:20,b7e4ff92-30aa-4d5e-a21a-dcfb2503fa5a,A
2019-11-24 19:16:32,b7e4ff92-30aa-4d5e-a21a-dcfb2503fa5a,S
2019-11-24 19:24:37,b7e4ff92-30aa-4d5e-a21a-dcfb2503fa5a,A
2019-11-24 19:25:00,b7e4ff92-30aa-4d5e-a21a-dcfb2503fa5a,S
2019-11-24 19:33:20,b7e4ff92-30aa-4d5e-a21a-dcfb2503fa5a,A
2019-11-24 17:51:55,a1386c85-e5ab-4199-ac7d-6568855a1635,S
2019-11-24 18:04:00,a1386c85-e5ab-4199-ac7d-6568855a1635,A
2019-11-24 18:22:22,a1386c85-e5ab-4199-ac7d-6568855a1635,S
2019-11-24 18:24:45,a1386c85-e5ab-4199-ac7d-6568855a1635,A
2019-11-24 18:28:04,a1386c85-e5ab-4199-ac7d-6568855a1635,S
2019-11-24 18:31:23,a1386c85-e5ab-4199-ac7d-6568855a1635,A
2019-11-24 18:06:26,562616f3-b321-48d5-80ff-f93ff59a24df,S
2019-11-24 18:07:08,562616f3-b321-48d5-80ff-f93ff59a24df,A
2019-11-24 18:22:49,562616f3-b321-48d5-80ff-f93ff59a24df,S
2019-11-24 18:30:03,562616f3-b321-48d5-80ff-f93ff59a24df,A
2019-11-24 18:30:25,562616f3-b321-48d5-80ff-f93ff59a24df,S
2019-11-24 18:30:55,562616f3-b321-48d5-80ff-f93ff59a24df,A
2019-11-24 18:32:01,562616f3-b321-48d5-80ff-f93ff59a24df,S
2019-11-24 18:39:49,562616f3-b321-48d5-80ff-f93ff59a24df,A
2019-11-24 18:42:19,562616f3-b321-48d5-80ff-f93ff59a24df,S
2019-11-24 18:43:17,562616f3-b321-48d5-80ff-f93ff59a24df,A
2019-11-24 18:48:16,562616f3-b321-48d5-80ff-f93ff59a24df,S
2019-11-24 18:51:42,562616f3-b321-48d5-80ff-f93ff59a24df,A
2019-11-24 18:59:24,562616f3-b321-48d5-80ff-f93ff59a24df,S
2019-11-24 19:02:56,562616f3-b321-48d5-80ff-f93ff59a24df,A
2019-11-24 19:04:00,562616f3-b321-48d5-80ff-f93ff59a24df,S
2019-11-24 19:05:18,562616f3-b321-48d5-80ff-f93ff59a24df,A
2019-11-24 19:14:27,562616f3-b321-48d5-80ff-f93ff59a24df,S
2019-11-24 19:15:34,562616f3-b321-48d5-80ff-f93ff59a24df,A
2019-11-24 19:18:12,562616f3-b321-48d5-80ff-f93ff59a24df,S
2019-11-24 19:20:18,562616f3-b321-48d5-80ff-f93ff59a24df,A
2019-11-24 19:28:51,562616f3-b321-48d5-80ff-f93ff59a24df,S
2019-11-24 19:31:05,562616f3-b321-48d5-80ff-f93ff59a24df,A
2019-11-24 19:36:02,562616f3-b321-48d5-80ff-f93ff59a24df,S
2019-11-24 19:39:29,562616f3-b321-48d5-80ff-f93ff59a24df,A
2019-11-24 19:40:04,562616f3-b321-48d5-80ff-f93ff59a24df,S
2019-11-24 19:41:37,562616f3-b321-48d5-80ff-f93ff59a24df,A
2019-11-24 17:36:13,8dce1303-eac2-4f68-834c-e9c112ee2e80,A
2019-11-24 17:52:16,8dce1303-eac2-4f68-834c-e9c112ee2e80,S
2019-11-24 17:55:30,8dce1303-eac2-4f68-834c-e9c112ee2e80,A
2019-11-24 17:58:16,8dce1303-eac2-4f68-834c-e9c112ee2e80,S
2019-11-24 17:58:47,8dce1303-eac2-4f68-834c-e9c112ee2e80,A
2019-11-24 18:12:44,8dce1303-eac2-4f68-834c-e9c112ee2e80,S
2019-11-24 18:16:14,8dce1303-eac2-4f68-834c-e9c112ee2e80,A
2019-11-24 18:19:05,8dce1303-eac2-4f68-834c-e9c112ee2e80,S
2019-11-24 18:23:05,8dce1303-eac2-4f68-834c-e9c112ee2e80,A
2019-11-24 18:36:29,8dce1303-eac2-4f68-834c-e9c112ee2e80,S
2019-11-24 18:36:40,8dce1303-eac2-4f68-834c-e9c112ee2e80,A
2019-11-24 18:45:22,8dce1303-eac2-4f68-834c-e9c112ee2e80,S
2019-11-24 18:49:38,8dce1303-eac2-4f68-834c-e9c112ee2e80,A
2019-11-24 18:56:15,8dce1303-eac2-4f68-834c-e9c112ee2e80,S
2019-11-24 18:58:47,8dce1303-eac2-4f68-834c-e9c112ee2e80,A
2019-11-24 19:09:58,8dce1303-eac2-4f68-834c-e9c112ee2e80,S
2019-11-24 19:11:52,8dce1303-eac2-4f68-834c-e9c112ee2e80,A
2019-11-24 19:12:50,8dce1303-eac2-4f68-834c-e9c112ee2e80,S
2019-11-24 19:15:42,8dce1303-eac2-4f68-834c-e9c112ee2e80,A
2019-11-24 19:21:41,8dce1303-eac2-4f68-834c-e9c112ee2e80,S
2019-11-24 19:30:29,8dce1303-eac2-4f68-834c-e9c112ee2e80,A
2019-11-24 19:33:32,8dce1303-eac2-4f68-834c-e9c112ee2e80,S
2019-11-24 19:35:23,8dce1303-eac2-4f68-834c-e9c112ee2e80,A
2019-11-24 19:37:33,8dce1303-eac2-4f68-834c-e9c112ee2e80,S
2019-11-24 17:38:36,cdc4496e-23ad-411d-bc8d-c5c518b0cc8f,A
2019-11-24 17:42:04,cdc4496e-23ad-411d-bc8d-c5c518b0cc8f,S
2019-11-24 17:50:37,cdc4496e-23ad-411d-bc8d-c5c518b0cc8f,A
2019-11-24 17:53:40,cdc4496e-23ad-411d-bc8d-c5c518b0cc8f,S
2019-11-24 17:53:57,cdc4496e-23ad-411d-bc8d-c5c518b0cc8f,A
2019-11-24 17:56:26,cdc4496e-23ad-411d-bc8d-c5c518b0cc8f,S
2019-11-24 18:01:45,cdc4496e-23ad-411d-bc8d-c5c518b0cc8f,A
2019-11-24 18:05:41,cdc4496e-23ad-411d-bc8d-c5c518b0cc8f,S
2019-11-24 18:08:25,cdc4496e-23ad-411d-bc8d-c5c518b0cc8f,A
2019-11-24 18:19:13,cdc4496e-23ad-411d-bc8d-c5c518b0cc8f,S
2019-11-24 18:24:51,cdc4496e-23ad-411d-bc8d-c5c518b0cc8f,A
2019-11-24 18:47:25,cdc4496e-23ad-411d-bc8d-c5c518b0cc8f,S
2019-11-24 19:11:46,cdc4496e-23ad-411d-bc8d-c5c518b0cc8f,A
2019-11-24 19:18:20,cdc4496e-23ad-411d-bc8d-c5c518b0cc8f,S
2019-11-24 19:21:46,cdc4496e-23ad-411d-bc8d-c5c518b0cc8f,A
2019-11-24 19:24:41,cdc4496e-23ad-411d-bc8d-c5c518b0cc8f,S
2019-11-24 19:29:26,cdc4496e-23ad-411d-bc8d-c5c518b0cc8f,A
2019-11-24 18:02:38,7aa36c35-4e50-4364-941b-9c57ac82f24c,A
2019-11-24 18:21:31,7aa36c35-4e50-4364-941b-9c57ac82f24c,S
2019-11-24 18:21:52,7aa36c35-4e50-4364-941b-9c57ac82f24c,A
2019-11-24 18:24:37,7aa36c35-4e50-4364-941b-9c57ac82f24c,S
2019-11-24 18:28:37,7aa36c35-4e50-4364-941b-9c57ac82f24c,A
2019-11-24 18:29:06,7aa36c35-4e50-4364-941b-9c57ac82f24c,S
2019-11-24 18:32:08,7aa36c35-4e50-4364-941b-9c57ac82f24c,A
2019-11-24 18:33:46,7aa36c35-4e50-4364-941b-9c57ac82f24c,S
2019-11-24 18:48:16,7aa36c35-4e50-4364-941b-9c57ac82f24c,A
2019-11-24 18:49:52,7aa36c35-4e50-4364-941b-9c57ac82f24c,S
2019-11-24 18:49:58,7aa36c35-4e50-4364-941b-9c57ac82f24c,A
2019-11-24 18:52:18,7aa36c35-4e50-4364-941b-9c57ac82f24c,S
2019-11-24 18:52:25,7aa36c35-4e50-4364-941b-9c57ac82f24c,A
2019-11-24 18:54:28,7aa36c35-4e50-4364-941b-9c57ac82f24c,S
2019-11-24 18:58:29,7aa36c35-4e50-4364-941b-9c57ac82f24c,A
2019-11-24 19:09:12,7aa36c35-4e50-4364-941b-9c57ac82f24c,S
2019-11-24 19:14:56,7aa36c35-4e50-4364-941b-9c57ac82f24c,A
2019-11-24 19:17:10,7aa36c35-4e50-4364-941b-9c57ac82f24c,S
2019-11-24 19:20:35,7aa36c35-4e50-4364-941b-9c57ac82f24c,A
2019-11-24 19:24:08,7aa36c35-4e50-4364-941b-9c57ac82f24c,S
2019-11-24 19:41:54,7aa36c35-4e50-4364-941b-9c57ac82f24c,A
2019-11-24 18:14:48,b15e6e8f-8764-4e5e-9811-50e134bdf145,S
2019-11-24 18:15:32,b15e6e8f-8764-4e5e-9811-50e134bdf145,A
2019-11-24 18:19:02,b15e6e8f-8764-4e5e-9811-50e134bdf145,S
2019-11-24 18:23:05,b15e6e8f-8764-4e5e-9811-50e134bdf145,A
2019-11-24 18:30:53,b15e6e8f-8764-4e5e-9811-50e134bdf145,S
2019-11-24 18:37:23,b15e6e8f-8764-4e5e-9811-50e134bdf145,A
2019-11-24 18:41:33,b15e6e8f-8764-4e5e-9811-50e134bdf145,S
2019-11-24 18:42:59,b15e6e8f-8764-4e5e-9811-50e134bdf145,A
2019-11-24 18:53:23,b15e6e8f-8764-4e5e-9811-50e134bdf145,S
2019-11-24 18:53:39,b15e6e8f-8764-4e5e-9811-50e134bdf145,A
2019-11-24 18:53:55,b15e6e8f-8764-4e5e-9811-50e134bdf145,S
2019-11-24 18:55:24,b15e6e8f-8764-4e5e-9811-50e134bdf145,A
2019-11-24 19:03:14,b15e6e8f-8764-4e5e-9811-50e134bdf145,S
2019-11-24 19:07:11,b15e6e8f-8764-4e5e-9811-50e134bdf145,A
2019-11-24 19:09:49,b15e6e8f-8764-4e5e-9811-50e134bdf145,S
2019-11-24 19:12:17,b15e6e8f-8764-4e5e-9811-50e134bdf145,A
2019-11-24 19:14:24,b15e6e8f-8764-4e5e-9811-50e134bdf145,S
2019-11-24 19:19:04,b15e6e8f-8764-4e5e-9811-50e134bdf145,A
2019-11-24 19:25:26,b15e6e8f-8764-4e5e-9811-50e134bdf145,S
2019-11-24 19:25:36,b15e6e8f-8764-4e5e-9811-50e134bdf145,A
2019-11-24 19:26:15,b15e6e8f-8764-4e5e-9811-50e134bdf145,S
2019-11-24 19:28:33,b15e6e8f-8764-4e5e-9811-50e134bdf145,A
