actor,node
a8c88a72-2054-44e0-bd98-2dcc0dfab345,82ccdd73-e1b2-451d-9a13-e77e1ad1bc38
9270e7f7-01e3-4eab-a8e4-282c5cdb7551,992e7300-a4d1-4045-a817-97d7615d73e6
2fa4e649-a06f-49d6-a46e-b3517fa535a1,3b0052d8-d2cb-4d51-8f82-878d139e27b7
679ddbb5-6265-4461-b434-4bdd3985da88,d9b4f464-6292-45d2-a944-d6667dae7a23
4d3889c0-9ee8-41c3-a64a-3d4ddb6e2d19,9e7bb9b6-65d6-41d7-9871-0640b28a053b
35ea3e88-c5a3-4e59-b557-f261dcf2ff8b,9e7bb9b6-65d6-41d7-9871-0640b28a053b
c508ec84-a500-4c91-ab7d-5f23813642ec,68b4b1ac-3f2c-4cfe-9855-b0db89eec98b
db972a27-522a-4003-93f1-f55b1c5582d5,68b4b1ac-3f2c-4cfe-9855-b0db89eec98b
0f093fe7-726c-45b0-9ec3-466e45f9ddd9,56e204c9-f2f3-40a2-b7a3-bdb05a536fa5
196174fe-d204-4f84-b135-4e1e155917bc,dee2dea8-9865-4a21-b954-181b694cedf7
cb16486f-ba09-4ced-b593-429588cce9f7,68b4b1ac-3f2c-4cfe-9855-b0db89eec98b
e3d217be-35c1-47c6-9a4a-86cc114e3163,68b4b1ac-3f2c-4cfe-9855-b0db89eec98b
55dcb8cb-025c-424c-834e-9a289b0d274a,c91c9d71-24ba-451d-aa0a-b22271934a3d
5aef3404-939c-4841-af7e-6484f326a3c8,82ccdd73-e1b2-451d-9a13-e77e1ad1bc38
f483bd4a-1b8e-4077-b65f-05fab39c27f4,f4e3076a-e823-474e-a02f-e885910494c9
015d3868-3b05-4b0f-b2d3-52e0578458a0,7c2ad2fc-0fb6-4278-ae9c-e958f5610ecd
c839669e-7eb3-452f-a4d8-a89f9f107931,55cf88c3-878f-4f49-9917-d9f55295eba2
fa189c7b-f109-4389-8d25-315d2aed6879,55cf88c3-878f-4f49-9917-d9f55295eba2
cadd1f24-8116-4008-8157-bd4ad7b58327,237a6524-aad3-4ae3-a90a-4ed8db5f784a
db1f8849-80ef-4cfb-a7ca-815a83272dc6,bd93eafd-a485-4d85-980f-2e8f024e5541
310056d3-c20f-4f9a-ade1-ca8a5edf9757,bd93eafd-a485-4d85-980f-2e8f024e5541
164fab69-9cf1-4f38-a306-859d5bf8b3cf,8f317fae-e5b0-44b0-8914-66436ab3033a
17ac756d-ad52-4d4d-a0ee-655de8c795e4,c164854a-5cb7-40f0-8879-a20d2071137d
c8ec5512-d854-4922-a86d-2c55ec0931a6,8f317fae-e5b0-44b0-8914-66436ab3033a
f5bcb34c-dee9-4a67-92d0-55eb83229857,7957ac3a-b8b7-4cf6-83b2-7b28ceda83f4
01f04f04-acb8-4f33-8490-c71f8b790f26,7957ac3a-b8b7-4cf6-83b2-7b28ceda83f4
84d6ac13-70f6-46fb-b8d0-1c10f4c73318,a9e50f5d-bd9f-4b92-b86f-7313bd7ca0c2
85cc36ff-01d6-442b-83ea-c34f5c67b20f,e4d5de4a-929d-4459-a771-4d1e846a28fa
7c1ee0cc-b4ff-4e72-a879-f41b2efeedd8,676a7ae0-5df1-4472-9e3a-d7a82b69dd74
36c2886c-03b0-468b-b1bb-8cbe1d661d3c,676a7ae0-5df1-4472-9e3a-d7a82b69dd74
31936867-1d26-4fb9-af75-04b1ba0f6eda,15ffd531-0f0b-44c5-819c-40eb39a18635
402c3058-3906-4385-96fc-bac2fcb00394,10745cca-eaf8-47ae-9ebf-e3508be263ba
fc337203-0974-4669-9dc2-039bd8dfd6cb,15ffd531-0f0b-44c5-819c-40eb39a18635
b3a391a1-0016-4acd-89c0-e1a05d505224,676a7ae0-5df1-4472-9e3a-d7a82b69dd74
87f7899d-89ef-4944-8d3d-99d82389c2b8,676a7ae0-5df1-4472-9e3a-d7a82b69dd74
201819f9-f6f8-4cad-8e15-c9d19abe888e,401b731b-05da-4f84-ad48-ebdba75a9f1c
0c10087f-92aa-40b1-8721-ad9116aa0474,02f289a3-4f11-4621-b67e-97436d8e96e3
98e5e963-242d-426a-b3f6-b86295cdfa6d,02f289a3-4f11-4621-b67e-97436d8e96e3
e7d37e81-f128-4dc8-86c0-36431ace0b53,5b9aec1b-2861-483c-8d03-8135d124c32d
e8d9b935-16da-4afe-848d-789651e8c487,15ffd531-0f0b-44c5-819c-40eb39a18635
59e4ba70-2fdd-48f4-b70e-24d681390d1b,c43bec08-f5e3-4115-b8ba-b2b85c420bd0
b4e298b0-72d4-447e-bfd6-90470bce7185,15ffd531-0f0b-44c5-819c-40eb39a18635
9579010e-a239-47e1-8293-8a40a478561d,9e7bb9b6-65d6-41d7-9871-0640b28a053b
b454cb4a-8607-4da7-908a-4a1571e00eb7,9e7bb9b6-65d6-41d7-9871-0640b28a053b
f210cbe3-ee29-4597-968e-4dda5e270e5a,3cc73ec7-b030-4877-8fba-b78ed40facd2
5ab9bd16-22cc-4e3c-b783-72c29a39e505,9e7bb9b6-65d6-41d7-9871-0640b28a053b
6cfe980e-4a49-49f1-91cb-e6ebf745f966,9e7bb9b6-65d6-41d7-9871-0640b28a053b
e3140143-a500-47d2-a900-93048889d836,d4e65c9f-f6cf-4b54-ae2b-4a2626f70861
01489d20-3f34-4e7b-86b0-aa17c52ac40f,ab21ee67-85ad-45f9-b42a-c742b1e607c2
4307f31e-3130-4151-a609-8a73c07ea9fd,ab21ee67-85ad-45f9-b42a-c742b1e607c2
bcc9bbc2-01f1-4bff-873f-ea371a4d6f18,89aff4bb-d6cb-41a9-9852-0503ca00c1a7
a8dddd86-3ca4-40c0-afa0-a979d927420a,d58acaa8-87ad-475f-a06c-c8601cc8a161
e9c7911f-b753-496c-8985-cb97122c0b39,ab21ee67-85ad-45f9-b42a-c742b1e607c2
ddaeff7d-3016-4349-b670-badfc67388a2,ab21ee67-85ad-45f9-b42a-c742b1e607c2
35bfc912-d494-49db-88f2-53ca8b40383c,82ccdd73-e1b2-451d-9a13-e77e1ad1bc38
a21ece67-3a20-4f19-a9ef-a97e8c43ff57,82ccdd73-e1b2-451d-9a13-e77e1ad1bc38
b64cb86b-a37c-4674-8ffe-b62192704759,6153a2cc-4670-4152-9c02-2d24928c73ac
052c2dc6-52d2-4327-b64c-66412d39a7d6,cde7990c-d87e-471e-ac91-68e756086808
6d2c2ac7-7ca6-4ad4-a76f-5bc19aafd9ab,2498277f-d3c0-499c-9167-a00c32ff5864
d5428dda-9e04-4746-8a2d-2682eb7bdb8c,cde7990c-d87e-471e-ac91-68e756086808
94ab4239-a7b8-4c22-b01a-c7c40c33c79b,cd534df5-73cf-4e02-a4a8-cddb7795d757
a7fbbc9d-56e1-4e96-be8c-b4bc756c1c3d,cde7990c-d87e-471e-ac91-68e756086808
ccc65037-a03e-4a94-84bf-606550f6f65a,cde7990c-d87e-471e-ac91-68e756086808
07c186e6-4567-4ba2-8432-1d656b48eeb3,cde7990c-d87e-471e-ac91-68e756086808
fbffa9b5-d118-4029-b7d9-09ee7c7e4ca2,cde7990c-d87e-471e-ac91-68e756086808
f6465191-a4b5-4bfd-923b-da03ab1eab3a,689f153d-9ca0-481f-b125-7c94f0f9328f
5ebb4a76-ba28-41ce-8d58-a0eac7c426c8,b7fb4ae1-87f0-4082-a227-0f8753fc7c3e
cb0b72d0-b159-4956-b56a-e68c7363ceab,82ccdd73-e1b2-451d-9a13-e77e1ad1bc38
1510b9ea-2a47-4c38-b3bf-fe930034ed99,82ccdd73-e1b2-451d-9a13-e77e1ad1bc38
92766e81-944f-4baa-acb3-7174ae3a39c2,bd93eafd-a485-4d85-980f-2e8f024e5541
4564c073-75d5-4a52-a2f5-a107c7a970dc,c533afc0-1199-475b-b509-719f21ac8b59
f049371e-cdd8-40bb-a284-2f4caddd9e82,bd93eafd-a485-4d85-980f-2e8f024e5541
ddc96d16-b8fc-4d8a-a9e6-506ed13e068a,eb64e29d-63f3-462f-b907-95771db71ed1
22e1ebb1-8328-4374-a8ee-52e05a03f954,610fc14e-5d0d-4b6b-bd43-677f91718717
e8243854-bc08-4546-a043-800b7e1029d4,610fc14e-5d0d-4b6b-bd43-677f91718717
