date,actor,success,from,to
2019-10-27 19:03:10,e9ac83a2-bbca-4b05-9f5e-149c6e192778,1,fff1decc-805e-4b27-a73f-a084a12ac5df,a65f3c1b-b018-4b0c-8a6b-64e152e34059
2019-10-27 19:13:00,4fc40521-3801-4d26-888e-6d196d041242,1,fff1decc-805e-4b27-a73f-a084a12ac5df,57b2957f-9dfc-44cd-b6c0-84299ec898a7
2019-10-27 19:19:11,f5efa9db-bc24-4f9b-86eb-e106fb460814,1,fff1decc-805e-4b27-a73f-a084a12ac5df,a65f3c1b-b018-4b0c-8a6b-64e152e34059
2019-10-27 19:19:22,c7012026-93b0-4d02-9175-4d88baea888f,1,fff1decc-805e-4b27-a73f-a084a12ac5df,00edc77d-ab3e-4d9e-a0d6-52ae29e49afc
2019-10-27 19:31:25,f17d3ae8-b462-4e9f-8618-0c8511f2c41b,1,fff1decc-805e-4b27-a73f-a084a12ac5df,213f2504-ff77-4ecc-96f5-1cd1e91f3d40
2019-10-27 19:35:05,e7e11e94-8a5b-4b70-b5f5-da173dca4a7f,1,fff1decc-805e-4b27-a73f-a084a12ac5df,58a3a551-b123-4901-9063-a4b6cbeda735
2019-10-27 19:46:32,f17d3ae8-b462-4e9f-8618-0c8511f2c41b,1,fff1decc-805e-4b27-a73f-a084a12ac5df,b7ddc5c6-b21f-40a7-a2b0-98b5e2fa3767
2019-10-27 19:51:13,8cb05896-15f4-4c2a-a003-f960fc147b57,1,fff1decc-805e-4b27-a73f-a084a12ac5df,f942d3c1-e5a3-4832-8860-693adee77e38
2019-10-27 19:58:44,c7012026-93b0-4d02-9175-4d88baea888f,1,fff1decc-805e-4b27-a73f-a084a12ac5df,a65f3c1b-b018-4b0c-8a6b-64e152e34059
2019-10-27 20:15:03,e7e11e94-8a5b-4b70-b5f5-da173dca4a7f,1,fff1decc-805e-4b27-a73f-a084a12ac5df,b7ddc5c6-b21f-40a7-a2b0-98b5e2fa3767
2019-10-27 20:36:36,e7e11e94-8a5b-4b70-b5f5-da173dca4a7f,1,fff1decc-805e-4b27-a73f-a084a12ac5df,d23f36b7-ac5a-44c1-ab62-dfe11365769e
2019-10-27 19:19:50,1114cafb-6011-4fc2-b2f5-ad3663763c44,1,b7ddc5c6-b21f-40a7-a2b0-98b5e2fa3767,aaf302b3-2e98-47b5-9c2c-3abb53c2d0db
2019-10-27 19:22:53,52bac267-9246-44cc-8527-efa1917382d1,1,b7ddc5c6-b21f-40a7-a2b0-98b5e2fa3767,3a63796a-cf77-45cd-bbb4-28068d92d656
2019-10-27 19:34:16,48da7ae4-ed07-4013-8b9c-2a820bf883ea,1,b7ddc5c6-b21f-40a7-a2b0-98b5e2fa3767,57b2957f-9dfc-44cd-b6c0-84299ec898a7
2019-10-27 19:35:34,1114cafb-6011-4fc2-b2f5-ad3663763c44,1,b7ddc5c6-b21f-40a7-a2b0-98b5e2fa3767,ac9dc19b-86cd-44e0-b8d6-2bc8de912800
2019-10-27 19:38:58,154b3f97-a3ee-44ae-bf81-77c1c10d7105,1,b7ddc5c6-b21f-40a7-a2b0-98b5e2fa3767,f942d3c1-e5a3-4832-8860-693adee77e38
2019-10-27 19:39:37,e7e11e94-8a5b-4b70-b5f5-da173dca4a7f,1,b7ddc5c6-b21f-40a7-a2b0-98b5e2fa3767,cd494ef8-ae9d-4ec8-aa06-14f8b35a5c1e
2019-10-27 19:51:47,5066af26-f4e2-4a1f-aec6-8d8d5758d63e,1,b7ddc5c6-b21f-40a7-a2b0-98b5e2fa3767,cd494ef8-ae9d-4ec8-aa06-14f8b35a5c1e
2019-10-27 20:08:29,8b00810b-4e20-4953-b436-2b685ef8081b,1,b7ddc5c6-b21f-40a7-a2b0-98b5e2fa3767,a65f3c1b-b018-4b0c-8a6b-64e152e34059
2019-10-27 20:13:01,f17d3ae8-b462-4e9f-8618-0c8511f2c41b,1,b7ddc5c6-b21f-40a7-a2b0-98b5e2fa3767,58a3a551-b123-4901-9063-a4b6cbeda735
2019-10-27 20:13:05,e3c95602-8b07-4f83-b94f-1308a12cf6a3,1,b7ddc5c6-b21f-40a7-a2b0-98b5e2fa3767,58a3a551-b123-4901-9063-a4b6cbeda735
2019-10-27 20:13:34,1114cafb-6011-4fc2-b2f5-ad3663763c44,1,b7ddc5c6-b21f-40a7-a2b0-98b5e2fa3767,ac9dc19b-86cd-44e0-b8d6-2bc8de912800
2019-10-27 20:17:15,e7e11e94-8a5b-4b70-b5f5-da173dca4a7f,1,b7ddc5c6-b21f-40a7-a2b0-98b5e2fa3767,d23f36b7-ac5a-44c1-ab62-dfe11365769e
2019-10-27 20:18:35,5066af26-f4e2-4a1f-aec6-8d8d5758d63e,1,b7ddc5c6-b21f-40a7-a2b0-98b5e2fa3767,d23f36b7-ac5a-44c1-ab62-dfe11365769e
2019-10-27 20:19:24,f17d3ae8-b462-4e9f-8618-0c8511f2c41b,1,b7ddc5c6-b21f-40a7-a2b0-98b5e2fa3767,213f2504-ff77-4ecc-96f5-1cd1e91f3d40
2019-10-27 20:22:25,8b00810b-4e20-4953-b436-2b685ef8081b,1,b7ddc5c6-b21f-40a7-a2b0-98b5e2fa3767,3a63796a-cf77-45cd-bbb4-28068d92d656
2019-10-27 20:27:18,5066af26-f4e2-4a1f-aec6-8d8d5758d63e,1,b7ddc5c6-b21f-40a7-a2b0-98b5e2fa3767,aaf302b3-2e98-47b5-9c2c-3abb53c2d0db
2019-10-27 19:01:59,f5efa9db-bc24-4f9b-86eb-e106fb460814,1,213f2504-ff77-4ecc-96f5-1cd1e91f3d40,f942d3c1-e5a3-4832-8860-693adee77e38
2019-10-27 19:17:41,8b00810b-4e20-4953-b436-2b685ef8081b,1,213f2504-ff77-4ecc-96f5-1cd1e91f3d40,a65f3c1b-b018-4b0c-8a6b-64e152e34059
2019-10-27 19:29:13,f17d3ae8-b462-4e9f-8618-0c8511f2c41b,1,213f2504-ff77-4ecc-96f5-1cd1e91f3d40,fff1decc-805e-4b27-a73f-a084a12ac5df
2019-10-27 19:31:15,8b00810b-4e20-4953-b436-2b685ef8081b,1,213f2504-ff77-4ecc-96f5-1cd1e91f3d40,3a63796a-cf77-45cd-bbb4-28068d92d656
2019-10-27 19:38:08,f17d3ae8-b462-4e9f-8618-0c8511f2c41b,1,213f2504-ff77-4ecc-96f5-1cd1e91f3d40,a65f3c1b-b018-4b0c-8a6b-64e152e34059
2019-10-27 19:46:23,4fc40521-3801-4d26-888e-6d196d041242,1,213f2504-ff77-4ecc-96f5-1cd1e91f3d40,58a3a551-b123-4901-9063-a4b6cbeda735
2019-10-27 20:21:35,f17d3ae8-b462-4e9f-8618-0c8511f2c41b,1,213f2504-ff77-4ecc-96f5-1cd1e91f3d40,a65f3c1b-b018-4b0c-8a6b-64e152e34059
2019-10-27 20:31:18,4fc40521-3801-4d26-888e-6d196d041242,1,213f2504-ff77-4ecc-96f5-1cd1e91f3d40,d23f36b7-ac5a-44c1-ab62-dfe11365769e
2019-10-27 19:03:49,5237e2a9-f51a-4a6f-90c3-f191e74ca96e,1,58a3a551-b123-4901-9063-a4b6cbeda735,d23f36b7-ac5a-44c1-ab62-dfe11365769e
2019-10-27 19:32:14,e7e11e94-8a5b-4b70-b5f5-da173dca4a7f,1,58a3a551-b123-4901-9063-a4b6cbeda735,fff1decc-805e-4b27-a73f-a084a12ac5df
2019-10-27 19:36:55,5e00cb1c-31ee-4e60-91f7-b2abb06369f4,1,58a3a551-b123-4901-9063-a4b6cbeda735,3a63796a-cf77-45cd-bbb4-28068d92d656
2019-10-27 19:36:55,74bedd1b-8d2f-4a83-8817-099490498e4c,1,58a3a551-b123-4901-9063-a4b6cbeda735,ec82316d-696b-4e69-a612-8dfe36ef0259
2019-10-27 19:37:26,e7e11e94-8a5b-4b70-b5f5-da173dca4a7f,1,58a3a551-b123-4901-9063-a4b6cbeda735,b7ddc5c6-b21f-40a7-a2b0-98b5e2fa3767
2019-10-27 19:41:39,5e00cb1c-31ee-4e60-91f7-b2abb06369f4,1,58a3a551-b123-4901-9063-a4b6cbeda735,3a63796a-cf77-45cd-bbb4-28068d92d656
2019-10-27 19:41:39,74bedd1b-8d2f-4a83-8817-099490498e4c,1,58a3a551-b123-4901-9063-a4b6cbeda735,f942d3c1-e5a3-4832-8860-693adee77e38
2019-10-27 19:48:51,5e00cb1c-31ee-4e60-91f7-b2abb06369f4,1,58a3a551-b123-4901-9063-a4b6cbeda735,00edc77d-ab3e-4d9e-a0d6-52ae29e49afc
2019-10-27 19:49:10,e3c95602-8b07-4f83-b94f-1308a12cf6a3,1,58a3a551-b123-4901-9063-a4b6cbeda735,b7ddc5c6-b21f-40a7-a2b0-98b5e2fa3767
2019-10-27 19:53:46,4fc40521-3801-4d26-888e-6d196d041242,1,58a3a551-b123-4901-9063-a4b6cbeda735,d23f36b7-ac5a-44c1-ab62-dfe11365769e
2019-10-27 20:10:41,e7e11e94-8a5b-4b70-b5f5-da173dca4a7f,1,58a3a551-b123-4901-9063-a4b6cbeda735,d23f36b7-ac5a-44c1-ab62-dfe11365769e
2019-10-27 20:15:12,f17d3ae8-b462-4e9f-8618-0c8511f2c41b,1,58a3a551-b123-4901-9063-a4b6cbeda735,b7ddc5c6-b21f-40a7-a2b0-98b5e2fa3767
2019-10-27 20:16:44,9d35a95e-e659-4c82-aa0b-7b13341b7f52,1,58a3a551-b123-4901-9063-a4b6cbeda735,cd494ef8-ae9d-4ec8-aa06-14f8b35a5c1e
2019-10-27 19:10:50,c7012026-93b0-4d02-9175-4d88baea888f,1,a65f3c1b-b018-4b0c-8a6b-64e152e34059,d23f36b7-ac5a-44c1-ab62-dfe11365769e
2019-10-27 19:13:30,14a36314-ffbf-439e-a591-74602a4984fd,1,a65f3c1b-b018-4b0c-8a6b-64e152e34059,0e1f1277-f7a8-4c55-bcab-5411ae77d64d
2019-10-27 19:24:42,f5efa9db-bc24-4f9b-86eb-e106fb460814,1,a65f3c1b-b018-4b0c-8a6b-64e152e34059,aaf302b3-2e98-47b5-9c2c-3abb53c2d0db
2019-10-27 19:27:24,c7012026-93b0-4d02-9175-4d88baea888f,1,a65f3c1b-b018-4b0c-8a6b-64e152e34059,fff1decc-805e-4b27-a73f-a084a12ac5df
2019-10-27 19:29:03,8b00810b-4e20-4953-b436-2b685ef8081b,1,a65f3c1b-b018-4b0c-8a6b-64e152e34059,213f2504-ff77-4ecc-96f5-1cd1e91f3d40
2019-10-27 19:34:26,f5efa9db-bc24-4f9b-86eb-e106fb460814,1,a65f3c1b-b018-4b0c-8a6b-64e152e34059,f942d3c1-e5a3-4832-8860-693adee77e38
2019-10-27 19:41:01,e9ac83a2-bbca-4b05-9f5e-149c6e192778,1,a65f3c1b-b018-4b0c-8a6b-64e152e34059,ec82316d-696b-4e69-a612-8dfe36ef0259
2019-10-27 19:41:51,8b00810b-4e20-4953-b436-2b685ef8081b,1,a65f3c1b-b018-4b0c-8a6b-64e152e34059,b7ddc5c6-b21f-40a7-a2b0-98b5e2fa3767
2019-10-27 19:44:22,f17d3ae8-b462-4e9f-8618-0c8511f2c41b,1,a65f3c1b-b018-4b0c-8a6b-64e152e34059,fff1decc-805e-4b27-a73f-a084a12ac5df
2019-10-27 19:49:37,14a36314-ffbf-439e-a591-74602a4984fd,1,a65f3c1b-b018-4b0c-8a6b-64e152e34059,ec82316d-696b-4e69-a612-8dfe36ef0259
2019-10-27 19:53:06,e9ac83a2-bbca-4b05-9f5e-149c6e192778,1,a65f3c1b-b018-4b0c-8a6b-64e152e34059,f942d3c1-e5a3-4832-8860-693adee77e38
2019-10-27 20:03:56,f5efa9db-bc24-4f9b-86eb-e106fb460814,1,a65f3c1b-b018-4b0c-8a6b-64e152e34059,f942d3c1-e5a3-4832-8860-693adee77e38
2019-10-27 20:10:39,8b00810b-4e20-4953-b436-2b685ef8081b,1,a65f3c1b-b018-4b0c-8a6b-64e152e34059,3a63796a-cf77-45cd-bbb4-28068d92d656
2019-10-27 20:13:27,c7012026-93b0-4d02-9175-4d88baea888f,1,a65f3c1b-b018-4b0c-8a6b-64e152e34059,00edc77d-ab3e-4d9e-a0d6-52ae29e49afc
2019-10-27 20:30:18,14a36314-ffbf-439e-a591-74602a4984fd,1,a65f3c1b-b018-4b0c-8a6b-64e152e34059,f942d3c1-e5a3-4832-8860-693adee77e38
2019-10-27 20:34:29,f17d3ae8-b462-4e9f-8618-0c8511f2c41b,1,a65f3c1b-b018-4b0c-8a6b-64e152e34059,b7ddc5c6-b21f-40a7-a2b0-98b5e2fa3767
2019-10-27 19:05:09,14a36314-ffbf-439e-a591-74602a4984fd,1,aaf302b3-2e98-47b5-9c2c-3abb53c2d0db,a65f3c1b-b018-4b0c-8a6b-64e152e34059
2019-10-27 19:30:14,f5efa9db-bc24-4f9b-86eb-e106fb460814,1,aaf302b3-2e98-47b5-9c2c-3abb53c2d0db,a65f3c1b-b018-4b0c-8a6b-64e152e34059
2019-10-27 19:30:14,e3c95602-8b07-4f83-b94f-1308a12cf6a3,1,aaf302b3-2e98-47b5-9c2c-3abb53c2d0db,ec82316d-696b-4e69-a612-8dfe36ef0259
2019-10-27 19:30:53,1114cafb-6011-4fc2-b2f5-ad3663763c44,1,aaf302b3-2e98-47b5-9c2c-3abb53c2d0db,57b2957f-9dfc-44cd-b6c0-84299ec898a7
2019-10-27 19:40:18,d30e4cab-c550-48bf-8da7-e7b75b8a1e02,1,aaf302b3-2e98-47b5-9c2c-3abb53c2d0db,ec82316d-696b-4e69-a612-8dfe36ef0259
2019-10-27 19:43:19,e3c95602-8b07-4f83-b94f-1308a12cf6a3,1,aaf302b3-2e98-47b5-9c2c-3abb53c2d0db,58a3a551-b123-4901-9063-a4b6cbeda735
2019-10-27 20:24:47,5066af26-f4e2-4a1f-aec6-8d8d5758d63e,1,aaf302b3-2e98-47b5-9c2c-3abb53c2d0db,b7ddc5c6-b21f-40a7-a2b0-98b5e2fa3767
2019-10-27 20:25:38,1114cafb-6011-4fc2-b2f5-ad3663763c44,1,aaf302b3-2e98-47b5-9c2c-3abb53c2d0db,00edc77d-ab3e-4d9e-a0d6-52ae29e49afc
2019-10-27 20:29:29,5066af26-f4e2-4a1f-aec6-8d8d5758d63e,1,aaf302b3-2e98-47b5-9c2c-3abb53c2d0db,d23f36b7-ac5a-44c1-ab62-dfe11365769e
2019-10-27 19:07:10,3aca13c1-1129-4e06-9471-9e7ebbd1ac83,1,cd494ef8-ae9d-4ec8-aa06-14f8b35a5c1e,3a63796a-cf77-45cd-bbb4-28068d92d656
2019-10-27 19:43:10,e7e11e94-8a5b-4b70-b5f5-da173dca4a7f,1,cd494ef8-ae9d-4ec8-aa06-14f8b35a5c1e,58a3a551-b123-4901-9063-a4b6cbeda735
2019-10-27 19:43:10,dc913357-8cf3-41a5-971f-4b78af27e84a,1,cd494ef8-ae9d-4ec8-aa06-14f8b35a5c1e,ec82316d-696b-4e69-a612-8dfe36ef0259
2019-10-27 20:10:13,5066af26-f4e2-4a1f-aec6-8d8d5758d63e,1,cd494ef8-ae9d-4ec8-aa06-14f8b35a5c1e,d23f36b7-ac5a-44c1-ab62-dfe11365769e
2019-10-27 20:11:11,9d35a95e-e659-4c82-aa0b-7b13341b7f52,1,cd494ef8-ae9d-4ec8-aa06-14f8b35a5c1e,58a3a551-b123-4901-9063-a4b6cbeda735
2019-10-27 20:29:22,dc913357-8cf3-41a5-971f-4b78af27e84a,1,cd494ef8-ae9d-4ec8-aa06-14f8b35a5c1e,ac9dc19b-86cd-44e0-b8d6-2bc8de912800
2019-10-27 20:32:44,9d35a95e-e659-4c82-aa0b-7b13341b7f52,1,cd494ef8-ae9d-4ec8-aa06-14f8b35a5c1e,ac9dc19b-86cd-44e0-b8d6-2bc8de912800
2019-10-27 19:15:30,d30e4cab-c550-48bf-8da7-e7b75b8a1e02,1,3a63796a-cf77-45cd-bbb4-28068d92d656,aaf302b3-2e98-47b5-9c2c-3abb53c2d0db
2019-10-27 19:16:00,971cfb01-5a20-4c65-a1d0-7ec1ab33cc07,1,3a63796a-cf77-45cd-bbb4-28068d92d656,0e1f1277-f7a8-4c55-bcab-5411ae77d64d
2019-10-27 19:23:41,3aca13c1-1129-4e06-9471-9e7ebbd1ac83,1,3a63796a-cf77-45cd-bbb4-28068d92d656,0e1f1277-f7a8-4c55-bcab-5411ae77d64d
2019-10-27 19:36:07,8b00810b-4e20-4953-b436-2b685ef8081b,1,3a63796a-cf77-45cd-bbb4-28068d92d656,a65f3c1b-b018-4b0c-8a6b-64e152e34059
2019-10-27 19:38:37,5e00cb1c-31ee-4e60-91f7-b2abb06369f4,1,3a63796a-cf77-45cd-bbb4-28068d92d656,f942d3c1-e5a3-4832-8860-693adee77e38
2019-10-27 19:38:38,52bac267-9246-44cc-8527-efa1917382d1,1,3a63796a-cf77-45cd-bbb4-28068d92d656,b7ddc5c6-b21f-40a7-a2b0-98b5e2fa3767
2019-10-27 19:43:50,5e00cb1c-31ee-4e60-91f7-b2abb06369f4,1,3a63796a-cf77-45cd-bbb4-28068d92d656,f942d3c1-e5a3-4832-8860-693adee77e38
2019-10-27 20:20:14,8b00810b-4e20-4953-b436-2b685ef8081b,1,3a63796a-cf77-45cd-bbb4-28068d92d656,b7ddc5c6-b21f-40a7-a2b0-98b5e2fa3767
2019-10-27 20:24:36,8b00810b-4e20-4953-b436-2b685ef8081b,1,3a63796a-cf77-45cd-bbb4-28068d92d656,a65f3c1b-b018-4b0c-8a6b-64e152e34059
2019-10-27 19:16:12,c7012026-93b0-4d02-9175-4d88baea888f,1,d23f36b7-ac5a-44c1-ab62-dfe11365769e,fff1decc-805e-4b27-a73f-a084a12ac5df
2019-10-27 19:29:05,4fc40521-3801-4d26-888e-6d196d041242,1,d23f36b7-ac5a-44c1-ab62-dfe11365769e,213f2504-ff77-4ecc-96f5-1cd1e91f3d40
2019-10-27 19:36:38,dc913357-8cf3-41a5-971f-4b78af27e84a,1,d23f36b7-ac5a-44c1-ab62-dfe11365769e,ec82316d-696b-4e69-a612-8dfe36ef0259
2019-10-27 19:50:41,5237e2a9-f51a-4a6f-90c3-f191e74ca96e,1,d23f36b7-ac5a-44c1-ab62-dfe11365769e,fff1decc-805e-4b27-a73f-a084a12ac5df
2019-10-27 20:05:31,4fc40521-3801-4d26-888e-6d196d041242,1,d23f36b7-ac5a-44c1-ab62-dfe11365769e,213f2504-ff77-4ecc-96f5-1cd1e91f3d40
2019-10-27 20:12:52,e7e11e94-8a5b-4b70-b5f5-da173dca4a7f,1,d23f36b7-ac5a-44c1-ab62-dfe11365769e,fff1decc-805e-4b27-a73f-a084a12ac5df
2019-10-27 20:14:14,5066af26-f4e2-4a1f-aec6-8d8d5758d63e,1,d23f36b7-ac5a-44c1-ab62-dfe11365769e,0e1f1277-f7a8-4c55-bcab-5411ae77d64d
2019-10-27 20:22:36,5066af26-f4e2-4a1f-aec6-8d8d5758d63e,1,d23f36b7-ac5a-44c1-ab62-dfe11365769e,aaf302b3-2e98-47b5-9c2c-3abb53c2d0db
2019-10-27 20:32:24,e7e11e94-8a5b-4b70-b5f5-da173dca4a7f,1,d23f36b7-ac5a-44c1-ab62-dfe11365769e,fff1decc-805e-4b27-a73f-a084a12ac5df
2019-10-27 20:34:30,c7012026-93b0-4d02-9175-4d88baea888f,1,d23f36b7-ac5a-44c1-ab62-dfe11365769e,00edc77d-ab3e-4d9e-a0d6-52ae29e49afc
2019-10-27 20:35:30,5066af26-f4e2-4a1f-aec6-8d8d5758d63e,1,d23f36b7-ac5a-44c1-ab62-dfe11365769e,b7ddc5c6-b21f-40a7-a2b0-98b5e2fa3767
2019-10-27 19:09:00,74bedd1b-8d2f-4a83-8817-099490498e4c,1,ec82316d-696b-4e69-a612-8dfe36ef0259,58a3a551-b123-4901-9063-a4b6cbeda735
2019-10-27 19:25:12,5e00cb1c-31ee-4e60-91f7-b2abb06369f4,1,ec82316d-696b-4e69-a612-8dfe36ef0259,00edc77d-ab3e-4d9e-a0d6-52ae29e49afc
2019-10-27 19:30:03,e7e11e94-8a5b-4b70-b5f5-da173dca4a7f,1,ec82316d-696b-4e69-a612-8dfe36ef0259,58a3a551-b123-4901-9063-a4b6cbeda735
2019-10-27 19:36:25,9d35a95e-e659-4c82-aa0b-7b13341b7f52,1,ec82316d-696b-4e69-a612-8dfe36ef0259,ac9dc19b-86cd-44e0-b8d6-2bc8de912800
2019-10-27 19:40:17,e3c95602-8b07-4f83-b94f-1308a12cf6a3,1,ec82316d-696b-4e69-a612-8dfe36ef0259,aaf302b3-2e98-47b5-9c2c-3abb53c2d0db
2019-10-27 19:40:48,d30e4cab-c550-48bf-8da7-e7b75b8a1e02,1,ec82316d-696b-4e69-a612-8dfe36ef0259,a65f3c1b-b018-4b0c-8a6b-64e152e34059
2019-10-27 19:40:48,74bedd1b-8d2f-4a83-8817-099490498e4c,1,ec82316d-696b-4e69-a612-8dfe36ef0259,f942d3c1-e5a3-4832-8860-693adee77e38
2019-10-27 19:40:49,dc913357-8cf3-41a5-971f-4b78af27e84a,1,ec82316d-696b-4e69-a612-8dfe36ef0259,cd494ef8-ae9d-4ec8-aa06-14f8b35a5c1e
2019-10-27 19:44:52,e9ac83a2-bbca-4b05-9f5e-149c6e192778,1,ec82316d-696b-4e69-a612-8dfe36ef0259,a65f3c1b-b018-4b0c-8a6b-64e152e34059
2019-10-27 20:14:19,dc913357-8cf3-41a5-971f-4b78af27e84a,1,ec82316d-696b-4e69-a612-8dfe36ef0259,0e1f1277-f7a8-4c55-bcab-5411ae77d64d
2019-10-27 20:17:15,14a36314-ffbf-439e-a591-74602a4984fd,1,ec82316d-696b-4e69-a612-8dfe36ef0259,a65f3c1b-b018-4b0c-8a6b-64e152e34059
2019-10-27 19:10:49,1114cafb-6011-4fc2-b2f5-ad3663763c44,1,00edc77d-ab3e-4d9e-a0d6-52ae29e49afc,b7ddc5c6-b21f-40a7-a2b0-98b5e2fa3767
2019-10-27 19:21:31,48da7ae4-ed07-4013-8b9c-2a820bf883ea,1,00edc77d-ab3e-4d9e-a0d6-52ae29e49afc,57b2957f-9dfc-44cd-b6c0-84299ec898a7
2019-10-27 19:25:14,c7012026-93b0-4d02-9175-4d88baea888f,1,00edc77d-ab3e-4d9e-a0d6-52ae29e49afc,a65f3c1b-b018-4b0c-8a6b-64e152e34059
2019-10-27 19:25:42,5e00cb1c-31ee-4e60-91f7-b2abb06369f4,1,00edc77d-ab3e-4d9e-a0d6-52ae29e49afc,ac9dc19b-86cd-44e0-b8d6-2bc8de912800
2019-10-27 19:30:02,5066af26-f4e2-4a1f-aec6-8d8d5758d63e,1,00edc77d-ab3e-4d9e-a0d6-52ae29e49afc,b7ddc5c6-b21f-40a7-a2b0-98b5e2fa3767
2019-10-27 19:49:24,3aca13c1-1129-4e06-9471-9e7ebbd1ac83,1,00edc77d-ab3e-4d9e-a0d6-52ae29e49afc,cd494ef8-ae9d-4ec8-aa06-14f8b35a5c1e
2019-10-27 19:49:50,48da7ae4-ed07-4013-8b9c-2a820bf883ea,1,00edc77d-ab3e-4d9e-a0d6-52ae29e49afc,ac9dc19b-86cd-44e0-b8d6-2bc8de912800
2019-10-27 19:57:15,5e00cb1c-31ee-4e60-91f7-b2abb06369f4,1,00edc77d-ab3e-4d9e-a0d6-52ae29e49afc,3a63796a-cf77-45cd-bbb4-28068d92d656
2019-10-27 20:09:14,48da7ae4-ed07-4013-8b9c-2a820bf883ea,1,00edc77d-ab3e-4d9e-a0d6-52ae29e49afc,ac9dc19b-86cd-44e0-b8d6-2bc8de912800
2019-10-27 20:26:29,c7012026-93b0-4d02-9175-4d88baea888f,1,00edc77d-ab3e-4d9e-a0d6-52ae29e49afc,d23f36b7-ac5a-44c1-ab62-dfe11365769e
2019-10-27 19:13:29,e3c95602-8b07-4f83-b94f-1308a12cf6a3,1,0e1f1277-f7a8-4c55-bcab-5411ae77d64d,aaf302b3-2e98-47b5-9c2c-3abb53c2d0db
2019-10-27 19:15:29,48da7ae4-ed07-4013-8b9c-2a820bf883ea,1,0e1f1277-f7a8-4c55-bcab-5411ae77d64d,00edc77d-ab3e-4d9e-a0d6-52ae29e49afc
2019-10-27 19:19:41,14a36314-ffbf-439e-a591-74602a4984fd,1,0e1f1277-f7a8-4c55-bcab-5411ae77d64d,f942d3c1-e5a3-4832-8860-693adee77e38
2019-10-27 19:24:01,3aca13c1-1129-4e06-9471-9e7ebbd1ac83,1,0e1f1277-f7a8-4c55-bcab-5411ae77d64d,00edc77d-ab3e-4d9e-a0d6-52ae29e49afc
2019-10-27 19:39:38,971cfb01-5a20-4c65-a1d0-7ec1ab33cc07,1,0e1f1277-f7a8-4c55-bcab-5411ae77d64d,f942d3c1-e5a3-4832-8860-693adee77e38
2019-10-27 20:16:25,5066af26-f4e2-4a1f-aec6-8d8d5758d63e,1,0e1f1277-f7a8-4c55-bcab-5411ae77d64d,b7ddc5c6-b21f-40a7-a2b0-98b5e2fa3767
2019-10-27 20:23:31,dc913357-8cf3-41a5-971f-4b78af27e84a,1,0e1f1277-f7a8-4c55-bcab-5411ae77d64d,cd494ef8-ae9d-4ec8-aa06-14f8b35a5c1e
2019-10-27 19:05:19,f5efa9db-bc24-4f9b-86eb-e106fb460814,1,f942d3c1-e5a3-4832-8860-693adee77e38,fff1decc-805e-4b27-a73f-a084a12ac5df
2019-10-27 19:14:40,80435396-bc17-40b1-bd9e-3dc174dd38bb,1,f942d3c1-e5a3-4832-8860-693adee77e38,57b2957f-9dfc-44cd-b6c0-84299ec898a7
2019-10-27 19:39:17,5e00cb1c-31ee-4e60-91f7-b2abb06369f4,1,f942d3c1-e5a3-4832-8860-693adee77e38,58a3a551-b123-4901-9063-a4b6cbeda735
2019-10-27 19:39:58,971cfb01-5a20-4c65-a1d0-7ec1ab33cc07,1,f942d3c1-e5a3-4832-8860-693adee77e38,aaf302b3-2e98-47b5-9c2c-3abb53c2d0db
2019-10-27 19:41:08,74bedd1b-8d2f-4a83-8817-099490498e4c,1,f942d3c1-e5a3-4832-8860-693adee77e38,58a3a551-b123-4901-9063-a4b6cbeda735
2019-10-27 19:41:09,154b3f97-a3ee-44ae-bf81-77c1c10d7105,1,f942d3c1-e5a3-4832-8860-693adee77e38,ac9dc19b-86cd-44e0-b8d6-2bc8de912800
2019-10-27 19:45:26,14a36314-ffbf-439e-a591-74602a4984fd,1,f942d3c1-e5a3-4832-8860-693adee77e38,a65f3c1b-b018-4b0c-8a6b-64e152e34059
2019-10-27 19:46:41,5e00cb1c-31ee-4e60-91f7-b2abb06369f4,1,f942d3c1-e5a3-4832-8860-693adee77e38,ac9dc19b-86cd-44e0-b8d6-2bc8de912800
2019-10-27 19:49:33,f5efa9db-bc24-4f9b-86eb-e106fb460814,1,f942d3c1-e5a3-4832-8860-693adee77e38,a65f3c1b-b018-4b0c-8a6b-64e152e34059
2019-10-27 19:55:03,74bedd1b-8d2f-4a83-8817-099490498e4c,1,f942d3c1-e5a3-4832-8860-693adee77e38,ec82316d-696b-4e69-a612-8dfe36ef0259
2019-10-27 19:55:04,8cb05896-15f4-4c2a-a003-f960fc147b57,1,f942d3c1-e5a3-4832-8860-693adee77e38,00edc77d-ab3e-4d9e-a0d6-52ae29e49afc
2019-10-27 20:06:07,f5efa9db-bc24-4f9b-86eb-e106fb460814,1,f942d3c1-e5a3-4832-8860-693adee77e38,a65f3c1b-b018-4b0c-8a6b-64e152e34059
2019-10-27 19:17:20,8cb05896-15f4-4c2a-a003-f960fc147b57,1,ac9dc19b-86cd-44e0-b8d6-2bc8de912800,fff1decc-805e-4b27-a73f-a084a12ac5df
2019-10-27 19:36:35,5e00cb1c-31ee-4e60-91f7-b2abb06369f4,1,ac9dc19b-86cd-44e0-b8d6-2bc8de912800,58a3a551-b123-4901-9063-a4b6cbeda735
2019-10-27 19:37:44,1114cafb-6011-4fc2-b2f5-ad3663763c44,1,ac9dc19b-86cd-44e0-b8d6-2bc8de912800,57b2957f-9dfc-44cd-b6c0-84299ec898a7
2019-10-27 19:39:06,80ba9f59-a88f-459b-b2a1-f0c57d822867,1,ac9dc19b-86cd-44e0-b8d6-2bc8de912800,0e1f1277-f7a8-4c55-bcab-5411ae77d64d
2019-10-27 19:41:18,48da7ae4-ed07-4013-8b9c-2a820bf883ea,1,ac9dc19b-86cd-44e0-b8d6-2bc8de912800,00edc77d-ab3e-4d9e-a0d6-52ae29e49afc
2019-10-27 19:41:18,9d35a95e-e659-4c82-aa0b-7b13341b7f52,1,ac9dc19b-86cd-44e0-b8d6-2bc8de912800,cd494ef8-ae9d-4ec8-aa06-14f8b35a5c1e
2019-10-27 19:47:21,5e00cb1c-31ee-4e60-91f7-b2abb06369f4,1,ac9dc19b-86cd-44e0-b8d6-2bc8de912800,58a3a551-b123-4901-9063-a4b6cbeda735
2019-10-27 19:58:41,48da7ae4-ed07-4013-8b9c-2a820bf883ea,1,ac9dc19b-86cd-44e0-b8d6-2bc8de912800,00edc77d-ab3e-4d9e-a0d6-52ae29e49afc
2019-10-27 20:23:27,1114cafb-6011-4fc2-b2f5-ad3663763c44,1,ac9dc19b-86cd-44e0-b8d6-2bc8de912800,aaf302b3-2e98-47b5-9c2c-3abb53c2d0db
2019-10-27 20:25:00,48da7ae4-ed07-4013-8b9c-2a820bf883ea,1,ac9dc19b-86cd-44e0-b8d6-2bc8de912800,00edc77d-ab3e-4d9e-a0d6-52ae29e49afc
2019-10-27 20:33:05,9d35a95e-e659-4c82-aa0b-7b13341b7f52,1,ac9dc19b-86cd-44e0-b8d6-2bc8de912800,57b2957f-9dfc-44cd-b6c0-84299ec898a7
2019-10-27 20:37:03,dc913357-8cf3-41a5-971f-4b78af27e84a,1,ac9dc19b-86cd-44e0-b8d6-2bc8de912800,213f2504-ff77-4ecc-96f5-1cd1e91f3d40
2019-10-27 18:57:07,f5efa9db-bc24-4f9b-86eb-e106fb460814,1,8aa407ea-a609-4358-bf3a-0326b602428a,213f2504-ff77-4ecc-96f5-1cd1e91f3d40
2019-10-27 18:57:07,03f05cb3-aba3-40c3-bcbc-b9149f375874,1,8aa407ea-a609-4358-bf3a-0326b602428a,213f2504-ff77-4ecc-96f5-1cd1e91f3d40
2019-10-27 18:57:07,1fa33865-ae2b-42f1-8a26-71720dfe478c,1,8aa407ea-a609-4358-bf3a-0326b602428a,f0cf8177-3684-4b37-acca-e96f425090a8
2019-10-27 18:58:11,8b00810b-4e20-4953-b436-2b685ef8081b,1,8aa407ea-a609-4358-bf3a-0326b602428a,213f2504-ff77-4ecc-96f5-1cd1e91f3d40
2019-10-27 18:58:11,7d309c10-2cd4-49d2-90b9-cca693fb288a,1,8aa407ea-a609-4358-bf3a-0326b602428a,213f2504-ff77-4ecc-96f5-1cd1e91f3d40
2019-10-27 18:58:11,1df2cca8-6752-4d30-80a3-95197ade7fc0,1,8aa407ea-a609-4358-bf3a-0326b602428a,ae767122-96da-41ba-b9fb-21ad4d4370c9
2019-10-27 18:59:15,d5f24cbd-79a2-4870-936c-fab5e1086a51,1,8aa407ea-a609-4358-bf3a-0326b602428a,a65f3c1b-b018-4b0c-8a6b-64e152e34059
2019-10-27 18:59:15,72c22ad3-280e-404f-935e-0db1c6a4198c,1,8aa407ea-a609-4358-bf3a-0326b602428a,c1456af5-1ee4-45b6-8fe6-5ec26c8bd2c2
2019-10-27 18:59:15,c7012026-93b0-4d02-9175-4d88baea888f,1,8aa407ea-a609-4358-bf3a-0326b602428a,a65f3c1b-b018-4b0c-8a6b-64e152e34059
2019-10-27 19:00:19,d20fe04e-4ca5-4554-ad69-e8689109a2f6,1,8aa407ea-a609-4358-bf3a-0326b602428a,0961cff8-9979-4f6e-bc78-3cd578d75c96
2019-10-27 19:00:19,e9ac83a2-bbca-4b05-9f5e-149c6e192778,1,8aa407ea-a609-4358-bf3a-0326b602428a,fff1decc-805e-4b27-a73f-a084a12ac5df
2019-10-27 19:00:19,3bc4313e-bc78-4661-98b8-373609f8391d,1,8aa407ea-a609-4358-bf3a-0326b602428a,fff1decc-805e-4b27-a73f-a084a12ac5df
2019-10-27 19:01:22,fbde3684-5d3c-458f-8552-16cf6f275346,1,8aa407ea-a609-4358-bf3a-0326b602428a,58a3a551-b123-4901-9063-a4b6cbeda735
2019-10-27 19:01:22,dda40b63-3fb5-4e2a-9666-5167e9895678,1,8aa407ea-a609-4358-bf3a-0326b602428a,cc489c49-e4d4-487a-b613-e532f8e7f23c
2019-10-27 19:01:22,154b3f97-a3ee-44ae-bf81-77c1c10d7105,1,8aa407ea-a609-4358-bf3a-0326b602428a,57b2957f-9dfc-44cd-b6c0-84299ec898a7
2019-10-27 19:02:26,4ad69695-25ae-4107-84cc-531425c8b22d,1,8aa407ea-a609-4358-bf3a-0326b602428a,58a3a551-b123-4901-9063-a4b6cbeda735
2019-10-27 19:02:26,5aaabc06-c6c2-4c9f-ac3e-63f989334e32,1,8aa407ea-a609-4358-bf3a-0326b602428a,ffe5f3af-7752-42d9-92cd-c81ae3fdabc1
2019-10-27 19:02:26,5237e2a9-f51a-4a6f-90c3-f191e74ca96e,1,8aa407ea-a609-4358-bf3a-0326b602428a,58a3a551-b123-4901-9063-a4b6cbeda735
2019-10-27 19:03:30,ee91d2f6-5a25-4487-8cac-237c3a82dc89,1,8aa407ea-a609-4358-bf3a-0326b602428a,156135a5-6a96-48f1-960b-84ced09acb04
2019-10-27 19:03:30,8cb05896-15f4-4c2a-a003-f960fc147b57,1,8aa407ea-a609-4358-bf3a-0326b602428a,ac9dc19b-86cd-44e0-b8d6-2bc8de912800
2019-10-27 19:03:30,8f178232-2bad-4083-b824-0f5f4ce0356f,1,8aa407ea-a609-4358-bf3a-0326b602428a,ac9dc19b-86cd-44e0-b8d6-2bc8de912800
2019-10-27 19:04:34,17ed1b19-51c4-4726-b9c0-219caf3d42e2,1,8aa407ea-a609-4358-bf3a-0326b602428a,aaf302b3-2e98-47b5-9c2c-3abb53c2d0db
2019-10-27 19:04:34,bb76c665-4017-4d83-aa81-42344fa2109b,1,8aa407ea-a609-4358-bf3a-0326b602428a,46639f87-0f89-4aa0-9154-5447353f163b
2019-10-27 19:04:34,14a36314-ffbf-439e-a591-74602a4984fd,1,8aa407ea-a609-4358-bf3a-0326b602428a,aaf302b3-2e98-47b5-9c2c-3abb53c2d0db
2019-10-27 19:05:38,9a2d6999-915b-4356-bbf4-df4cb4473401,1,8aa407ea-a609-4358-bf3a-0326b602428a,3a63796a-cf77-45cd-bbb4-28068d92d656
2019-10-27 19:05:38,d30e4cab-c550-48bf-8da7-e7b75b8a1e02,1,8aa407ea-a609-4358-bf3a-0326b602428a,3a63796a-cf77-45cd-bbb4-28068d92d656
2019-10-27 19:05:38,717adeff-5042-4040-a847-d601e9057370,1,8aa407ea-a609-4358-bf3a-0326b602428a,b10c1e49-4182-46f8-93b9-c1fd2e5b50a6
2019-10-27 19:06:41,d2da0ea2-4cdd-4f70-bd29-13446760eb5f,1,8aa407ea-a609-4358-bf3a-0326b602428a,cd494ef8-ae9d-4ec8-aa06-14f8b35a5c1e
2019-10-27 19:06:41,b499163e-fdb2-4b66-a152-f6e2604e0a4b,1,8aa407ea-a609-4358-bf3a-0326b602428a,e787a37e-9214-49f8-95a2-6e8ba6af50ce
2019-10-27 19:06:41,3aca13c1-1129-4e06-9471-9e7ebbd1ac83,1,8aa407ea-a609-4358-bf3a-0326b602428a,cd494ef8-ae9d-4ec8-aa06-14f8b35a5c1e
2019-10-27 19:07:44,74bedd1b-8d2f-4a83-8817-099490498e4c,1,8aa407ea-a609-4358-bf3a-0326b602428a,ec82316d-696b-4e69-a612-8dfe36ef0259
2019-10-27 19:07:44,4da39e82-0c09-4a01-b84e-37cca17e9763,1,8aa407ea-a609-4358-bf3a-0326b602428a,0176cf6b-20c3-452b-b010-e3d98fa33525
2019-10-27 19:07:44,e293e8e5-677a-4202-979c-26df64b16434,1,8aa407ea-a609-4358-bf3a-0326b602428a,ec82316d-696b-4e69-a612-8dfe36ef0259
2019-10-27 19:08:48,1114cafb-6011-4fc2-b2f5-ad3663763c44,1,8aa407ea-a609-4358-bf3a-0326b602428a,00edc77d-ab3e-4d9e-a0d6-52ae29e49afc
2019-10-27 19:08:48,ccfc3fe1-a8d9-4bca-8e3c-474214bdfb3e,1,8aa407ea-a609-4358-bf3a-0326b602428a,6df63fed-3e0e-4776-b269-7b5059fe8e43
2019-10-27 19:08:48,66126d25-da4e-4c89-97b2-6ddbfc50653d,1,8aa407ea-a609-4358-bf3a-0326b602428a,00edc77d-ab3e-4d9e-a0d6-52ae29e49afc
2019-10-27 19:09:52,dec6d9ca-1fa0-40dd-9450-c1bf2faf5c6e,1,8aa407ea-a609-4358-bf3a-0326b602428a,f942d3c1-e5a3-4832-8860-693adee77e38
2019-10-27 19:09:52,f6340b32-4120-4aab-a836-d483b766f197,1,8aa407ea-a609-4358-bf3a-0326b602428a,8d8f0321-03ec-453a-b394-8b5848389615
2019-10-27 19:09:52,80435396-bc17-40b1-bd9e-3dc174dd38bb,1,8aa407ea-a609-4358-bf3a-0326b602428a,f942d3c1-e5a3-4832-8860-693adee77e38
2019-10-27 19:10:56,83c94d27-78ac-4936-a7cb-e1e7ec0f5550,1,8aa407ea-a609-4358-bf3a-0326b602428a,60d76c62-6f0b-4f9e-bfb7-c52cb31d9eaf
2019-10-27 19:10:56,09626cbb-5451-4fd6-a3b6-f2e744fd0904,1,8aa407ea-a609-4358-bf3a-0326b602428a,fff1decc-805e-4b27-a73f-a084a12ac5df
2019-10-27 19:10:56,4fc40521-3801-4d26-888e-6d196d041242,1,8aa407ea-a609-4358-bf3a-0326b602428a,fff1decc-805e-4b27-a73f-a084a12ac5df
2019-10-27 19:12:00,48da7ae4-ed07-4013-8b9c-2a820bf883ea,1,8aa407ea-a609-4358-bf3a-0326b602428a,0e1f1277-f7a8-4c55-bcab-5411ae77d64d
2019-10-27 19:12:00,3e0c2d52-83d5-4aa1-b6e2-e4340e7cef8f,1,8aa407ea-a609-4358-bf3a-0326b602428a,0e1f1277-f7a8-4c55-bcab-5411ae77d64d
2019-10-27 19:12:00,06e0902d-e3bc-4e11-ac6f-47384f41fd7f,1,8aa407ea-a609-4358-bf3a-0326b602428a,3f500855-d50f-4391-b363-f3d813e6c8fd
2019-10-27 19:13:04,81c5db0a-efa0-4702-a6df-18678d4e7d25,1,8aa407ea-a609-4358-bf3a-0326b602428a,60e2fd9c-9240-42ef-8a70-16f77a3d7772
2019-10-27 19:13:04,b6da9079-bb96-4626-bf4b-6a0b8aa5b937,1,8aa407ea-a609-4358-bf3a-0326b602428a,0e1f1277-f7a8-4c55-bcab-5411ae77d64d
2019-10-27 19:13:04,e3c95602-8b07-4f83-b94f-1308a12cf6a3,1,8aa407ea-a609-4358-bf3a-0326b602428a,0e1f1277-f7a8-4c55-bcab-5411ae77d64d
2019-10-27 19:14:07,971cfb01-5a20-4c65-a1d0-7ec1ab33cc07,1,8aa407ea-a609-4358-bf3a-0326b602428a,3a63796a-cf77-45cd-bbb4-28068d92d656
2019-10-27 19:14:08,038d0860-9152-46c5-8d78-98b8533d77c3,1,8aa407ea-a609-4358-bf3a-0326b602428a,3a63796a-cf77-45cd-bbb4-28068d92d656
2019-10-27 19:14:08,d229a1ff-70ac-47fa-839f-3214e1c134e0,1,8aa407ea-a609-4358-bf3a-0326b602428a,8c719591-f451-4af7-8347-aaeafbab9fa2
2019-10-27 19:15:11,dc913357-8cf3-41a5-971f-4b78af27e84a,1,8aa407ea-a609-4358-bf3a-0326b602428a,d23f36b7-ac5a-44c1-ab62-dfe11365769e
2019-10-27 19:15:11,399a9518-4289-4e05-b814-6887d88273ea,1,8aa407ea-a609-4358-bf3a-0326b602428a,d08c6b39-f28d-48dd-a65b-605bf99423a0
2019-10-27 19:15:11,f08234b0-34c2-42df-a2bb-d1a318ccfafe,1,8aa407ea-a609-4358-bf3a-0326b602428a,d23f36b7-ac5a-44c1-ab62-dfe11365769e
2019-10-27 19:16:15,0b938a74-babe-43b6-8119-400ebe085246,1,8aa407ea-a609-4358-bf3a-0326b602428a,67611144-deaf-43e6-b493-9c55357559b6
2019-10-27 19:16:15,2d16ff28-1920-4875-bb75-0dd1befe1096,1,8aa407ea-a609-4358-bf3a-0326b602428a,b7ddc5c6-b21f-40a7-a2b0-98b5e2fa3767
2019-10-27 19:16:15,52bac267-9246-44cc-8527-efa1917382d1,1,8aa407ea-a609-4358-bf3a-0326b602428a,b7ddc5c6-b21f-40a7-a2b0-98b5e2fa3767
2019-10-27 19:17:19,e7e11e94-8a5b-4b70-b5f5-da173dca4a7f,1,8aa407ea-a609-4358-bf3a-0326b602428a,ec82316d-696b-4e69-a612-8dfe36ef0259
2019-10-27 19:17:19,6ae5ae5a-75e0-4043-927c-ec2ce0a2322a,1,8aa407ea-a609-4358-bf3a-0326b602428a,a2672112-b759-472e-83c5-b01dd8404c92
2019-10-27 19:17:19,b2a9af5a-c2f9-4f85-a9f9-0282f468e85d,1,8aa407ea-a609-4358-bf3a-0326b602428a,ec82316d-696b-4e69-a612-8dfe36ef0259
2019-10-27 19:18:22,5e00cb1c-31ee-4e60-91f7-b2abb06369f4,1,8aa407ea-a609-4358-bf3a-0326b602428a,ec82316d-696b-4e69-a612-8dfe36ef0259
2019-10-27 19:18:22,1d524e6b-2022-4d9d-89e2-627ff1ac68b8,1,8aa407ea-a609-4358-bf3a-0326b602428a,b3179f48-b3e0-40e4-9202-381ad0d282ab
2019-10-27 19:18:22,405f289d-67af-4226-8c45-6c78b8ba2783,1,8aa407ea-a609-4358-bf3a-0326b602428a,ec82316d-696b-4e69-a612-8dfe36ef0259
2019-10-27 19:19:26,28e58899-ecac-4c80-be9b-ca9ec7c92bf5,1,8aa407ea-a609-4358-bf3a-0326b602428a,e3e8f2a5-3496-4716-a2b2-e4406199c273
2019-10-27 19:19:26,6b7b5a60-6534-4d11-93f1-c81b73f78c72,1,8aa407ea-a609-4358-bf3a-0326b602428a,ec82316d-696b-4e69-a612-8dfe36ef0259
2019-10-27 19:19:26,9d35a95e-e659-4c82-aa0b-7b13341b7f52,1,8aa407ea-a609-4358-bf3a-0326b602428a,ec82316d-696b-4e69-a612-8dfe36ef0259
2019-10-27 19:20:30,edf8ddce-b855-4e1a-be95-98618ab0c327,1,8aa407ea-a609-4358-bf3a-0326b602428a,60259afe-4f03-4118-abd2-a2411dfbcc07
2019-10-27 19:20:30,aca36ad5-5b62-43e5-a895-1192117b8b8a,1,8aa407ea-a609-4358-bf3a-0326b602428a,ac9dc19b-86cd-44e0-b8d6-2bc8de912800
2019-10-27 19:20:30,80ba9f59-a88f-459b-b2a1-f0c57d822867,1,8aa407ea-a609-4358-bf3a-0326b602428a,ac9dc19b-86cd-44e0-b8d6-2bc8de912800
2019-10-27 19:21:34,9e4c437f-f571-4218-a890-179481d4975a,1,8aa407ea-a609-4358-bf3a-0326b602428a,9af803d2-d164-42bc-9164-7247329a444e
2019-10-27 19:21:34,c6c52d78-5015-49d1-9c05-3dd00fedfd20,1,8aa407ea-a609-4358-bf3a-0326b602428a,00edc77d-ab3e-4d9e-a0d6-52ae29e49afc
2019-10-27 19:21:34,5066af26-f4e2-4a1f-aec6-8d8d5758d63e,1,8aa407ea-a609-4358-bf3a-0326b602428a,00edc77d-ab3e-4d9e-a0d6-52ae29e49afc
2019-10-27 19:22:38,280d1ae4-888b-47fe-843a-dbb32c3f6f3e,1,8aa407ea-a609-4358-bf3a-0326b602428a,382e0682-d6b6-43fd-a831-373ade831998
2019-10-27 19:22:38,f17d3ae8-b462-4e9f-8618-0c8511f2c41b,1,8aa407ea-a609-4358-bf3a-0326b602428a,213f2504-ff77-4ecc-96f5-1cd1e91f3d40
2019-10-27 19:22:38,2e281c0c-9649-403e-ad45-11c82c75dbbc,1,8aa407ea-a609-4358-bf3a-0326b602428a,213f2504-ff77-4ecc-96f5-1cd1e91f3d40
2019-10-27 19:04:59,154b3f97-a3ee-44ae-bf81-77c1c10d7105,1,57b2957f-9dfc-44cd-b6c0-84299ec898a7,b7ddc5c6-b21f-40a7-a2b0-98b5e2fa3767
2019-10-27 19:14:51,4fc40521-3801-4d26-888e-6d196d041242,1,57b2957f-9dfc-44cd-b6c0-84299ec898a7,d23f36b7-ac5a-44c1-ab62-dfe11365769e
2019-10-27 19:32:05,48da7ae4-ed07-4013-8b9c-2a820bf883ea,1,57b2957f-9dfc-44cd-b6c0-84299ec898a7,b7ddc5c6-b21f-40a7-a2b0-98b5e2fa3767
2019-10-27 19:33:03,1114cafb-6011-4fc2-b2f5-ad3663763c44,1,57b2957f-9dfc-44cd-b6c0-84299ec898a7,b7ddc5c6-b21f-40a7-a2b0-98b5e2fa3767
2019-10-27 19:39:07,48da7ae4-ed07-4013-8b9c-2a820bf883ea,1,57b2957f-9dfc-44cd-b6c0-84299ec898a7,ac9dc19b-86cd-44e0-b8d6-2bc8de912800
2019-10-27 19:39:54,1114cafb-6011-4fc2-b2f5-ad3663763c44,1,57b2957f-9dfc-44cd-b6c0-84299ec898a7,b7ddc5c6-b21f-40a7-a2b0-98b5e2fa3767
2019-10-27 19:56:49,80435396-bc17-40b1-bd9e-3dc174dd38bb,1,57b2957f-9dfc-44cd-b6c0-84299ec898a7,d23f36b7-ac5a-44c1-ab62-dfe11365769e
