date,trigger,state
2019-10-27 19:07:46,1df2cca8-6752-4d30-80a3-95197ade7fc0,S
2019-10-27 19:17:31,1df2cca8-6752-4d30-80a3-95197ade7fc0,A
2019-10-27 19:18:56,1df2cca8-6752-4d30-80a3-95197ade7fc0,S
2019-10-27 19:27:10,1df2cca8-6752-4d30-80a3-95197ade7fc0,A
2019-10-27 19:28:01,1df2cca8-6752-4d30-80a3-95197ade7fc0,S
2019-10-27 19:28:43,1df2cca8-6752-4d30-80a3-95197ade7fc0,A
2019-10-27 19:32:10,1df2cca8-6752-4d30-80a3-95197ade7fc0,S
2019-10-27 19:39:57,1df2cca8-6752-4d30-80a3-95197ade7fc0,A
2019-10-27 19:40:11,1df2cca8-6752-4d30-80a3-95197ade7fc0,S
2019-10-27 19:45:57,1df2cca8-6752-4d30-80a3-95197ade7fc0,A
2019-10-27 19:48:33,1df2cca8-6752-4d30-80a3-95197ade7fc0,S
2019-10-27 19:48:39,1df2cca8-6752-4d30-80a3-95197ade7fc0,A
2019-10-27 19:51:46,1df2cca8-6752-4d30-80a3-95197ade7fc0,S
2019-10-27 19:52:13,1df2cca8-6752-4d30-80a3-95197ade7fc0,A
2019-10-27 20:03:56,1df2cca8-6752-4d30-80a3-95197ade7fc0,S
2019-10-27 20:06:26,1df2cca8-6752-4d30-80a3-95197ade7fc0,A
2019-10-27 20:09:20,1df2cca8-6752-4d30-80a3-95197ade7fc0,S
2019-10-27 20:09:27,1df2cca8-6752-4d30-80a3-95197ade7fc0,A
2019-10-27 20:13:43,1df2cca8-6752-4d30-80a3-95197ade7fc0,S
2019-10-27 20:16:00,1df2cca8-6752-4d30-80a3-95197ade7fc0,A
2019-10-27 20:23:43,1df2cca8-6752-4d30-80a3-95197ade7fc0,S
2019-10-27 20:33:02,1df2cca8-6752-4d30-80a3-95197ade7fc0,A
2019-10-27 20:37:22,1df2cca8-6752-4d30-80a3-95197ade7fc0,S
2019-10-27 19:02:50,72c22ad3-280e-404f-935e-0db1c6a4198c,S
2019-10-27 19:10:42,72c22ad3-280e-404f-935e-0db1c6a4198c,A
2019-10-27 19:27:07,72c22ad3-280e-404f-935e-0db1c6a4198c,S
2019-10-27 19:52:51,72c22ad3-280e-404f-935e-0db1c6a4198c,A
2019-10-27 20:02:27,72c22ad3-280e-404f-935e-0db1c6a4198c,S
2019-10-27 20:02:35,72c22ad3-280e-404f-935e-0db1c6a4198c,A
2019-10-27 20:15:08,72c22ad3-280e-404f-935e-0db1c6a4198c,S
2019-10-27 20:18:11,72c22ad3-280e-404f-935e-0db1c6a4198c,A
2019-10-27 20:25:15,72c22ad3-280e-404f-935e-0db1c6a4198c,S
2019-10-27 20:30:14,72c22ad3-280e-404f-935e-0db1c6a4198c,A
2019-10-27 20:30:44,72c22ad3-280e-404f-935e-0db1c6a4198c,S
2019-10-27 20:38:11,72c22ad3-280e-404f-935e-0db1c6a4198c,A
2019-10-27 19:24:44,280d1ae4-888b-47fe-843a-dbb32c3f6f3e,S
2019-10-27 19:29:07,280d1ae4-888b-47fe-843a-dbb32c3f6f3e,A
2019-10-27 19:30:05,280d1ae4-888b-47fe-843a-dbb32c3f6f3e,S
2019-10-27 19:33:21,280d1ae4-888b-47fe-843a-dbb32c3f6f3e,A
2019-10-27 19:33:45,280d1ae4-888b-47fe-843a-dbb32c3f6f3e,S
2019-10-27 19:36:43,280d1ae4-888b-47fe-843a-dbb32c3f6f3e,A
2019-10-27 19:40:43,280d1ae4-888b-47fe-843a-dbb32c3f6f3e,S
2019-10-27 19:42:57,280d1ae4-888b-47fe-843a-dbb32c3f6f3e,A
2019-10-27 19:45:03,280d1ae4-888b-47fe-843a-dbb32c3f6f3e,S
2019-10-27 19:49:13,280d1ae4-888b-47fe-843a-dbb32c3f6f3e,A
2019-10-27 19:53:51,280d1ae4-888b-47fe-843a-dbb32c3f6f3e,S
2019-10-27 19:56:55,280d1ae4-888b-47fe-843a-dbb32c3f6f3e,A
2019-10-27 19:59:05,280d1ae4-888b-47fe-843a-dbb32c3f6f3e,S
2019-10-27 20:05:08,280d1ae4-888b-47fe-843a-dbb32c3f6f3e,A
2019-10-27 20:07:38,280d1ae4-888b-47fe-843a-dbb32c3f6f3e,S
2019-10-27 20:08:23,280d1ae4-888b-47fe-843a-dbb32c3f6f3e,A
2019-10-27 20:08:26,280d1ae4-888b-47fe-843a-dbb32c3f6f3e,S
2019-10-27 20:11:16,280d1ae4-888b-47fe-843a-dbb32c3f6f3e,A
2019-10-27 20:19:32,280d1ae4-888b-47fe-843a-dbb32c3f6f3e,S
2019-10-27 20:22:18,280d1ae4-888b-47fe-843a-dbb32c3f6f3e,A
2019-10-27 20:22:21,280d1ae4-888b-47fe-843a-dbb32c3f6f3e,S
2019-10-27 20:28:26,280d1ae4-888b-47fe-843a-dbb32c3f6f3e,A
2019-10-27 20:32:49,280d1ae4-888b-47fe-843a-dbb32c3f6f3e,S
2019-10-27 19:03:06,d20fe04e-4ca5-4554-ad69-e8689109a2f6,A
2019-10-27 19:04:34,d20fe04e-4ca5-4554-ad69-e8689109a2f6,S
2019-10-27 19:08:02,d20fe04e-4ca5-4554-ad69-e8689109a2f6,A
2019-10-27 19:09:16,d20fe04e-4ca5-4554-ad69-e8689109a2f6,S
2019-10-27 19:11:43,d20fe04e-4ca5-4554-ad69-e8689109a2f6,A
2019-10-27 19:16:55,d20fe04e-4ca5-4554-ad69-e8689109a2f6,S
2019-10-27 19:22:48,d20fe04e-4ca5-4554-ad69-e8689109a2f6,A
2019-10-27 19:36:09,d20fe04e-4ca5-4554-ad69-e8689109a2f6,S
2019-10-27 19:40:47,d20fe04e-4ca5-4554-ad69-e8689109a2f6,A
2019-10-27 19:43:16,d20fe04e-4ca5-4554-ad69-e8689109a2f6,S
2019-10-27 19:52:30,d20fe04e-4ca5-4554-ad69-e8689109a2f6,A
2019-10-27 19:53:27,d20fe04e-4ca5-4554-ad69-e8689109a2f6,S
2019-10-27 19:56:57,d20fe04e-4ca5-4554-ad69-e8689109a2f6,A
2019-10-27 19:58:36,d20fe04e-4ca5-4554-ad69-e8689109a2f6,S
2019-10-27 20:04:10,d20fe04e-4ca5-4554-ad69-e8689109a2f6,A
2019-10-27 20:09:19,d20fe04e-4ca5-4554-ad69-e8689109a2f6,S
2019-10-27 20:12:13,d20fe04e-4ca5-4554-ad69-e8689109a2f6,A
2019-10-27 20:26:48,d20fe04e-4ca5-4554-ad69-e8689109a2f6,S
2019-10-27 20:30:14,d20fe04e-4ca5-4554-ad69-e8689109a2f6,A
2019-10-27 20:35:19,d20fe04e-4ca5-4554-ad69-e8689109a2f6,S
2019-10-27 20:37:09,d20fe04e-4ca5-4554-ad69-e8689109a2f6,A
2019-10-27 19:29:57,9e4c437f-f571-4218-a890-179481d4975a,S
2019-10-27 19:29:58,9e4c437f-f571-4218-a890-179481d4975a,A
2019-10-27 19:37:54,9e4c437f-f571-4218-a890-179481d4975a,S
2019-10-27 19:46:24,9e4c437f-f571-4218-a890-179481d4975a,A
2019-10-27 19:48:08,9e4c437f-f571-4218-a890-179481d4975a,S
2019-10-27 19:49:33,9e4c437f-f571-4218-a890-179481d4975a,A
2019-10-27 19:49:34,9e4c437f-f571-4218-a890-179481d4975a,S
2019-10-27 19:49:43,9e4c437f-f571-4218-a890-179481d4975a,A
2019-10-27 19:50:15,9e4c437f-f571-4218-a890-179481d4975a,S
2019-10-27 20:02:23,9e4c437f-f571-4218-a890-179481d4975a,A
2019-10-27 20:17:59,9e4c437f-f571-4218-a890-179481d4975a,S
2019-10-27 20:20:34,9e4c437f-f571-4218-a890-179481d4975a,A
2019-10-27 20:34:14,9e4c437f-f571-4218-a890-179481d4975a,S
2019-10-27 20:37:42,9e4c437f-f571-4218-a890-179481d4975a,A
2019-10-27 19:08:59,ccfc3fe1-a8d9-4bca-8e3c-474214bdfb3e,S
2019-10-27 19:10:40,ccfc3fe1-a8d9-4bca-8e3c-474214bdfb3e,A
2019-10-27 19:32:22,ccfc3fe1-a8d9-4bca-8e3c-474214bdfb3e,S
2019-10-27 19:33:37,ccfc3fe1-a8d9-4bca-8e3c-474214bdfb3e,A
2019-10-27 19:34:19,ccfc3fe1-a8d9-4bca-8e3c-474214bdfb3e,S
2019-10-27 19:34:22,ccfc3fe1-a8d9-4bca-8e3c-474214bdfb3e,A
2019-10-27 19:39:53,ccfc3fe1-a8d9-4bca-8e3c-474214bdfb3e,S
2019-10-27 19:43:58,ccfc3fe1-a8d9-4bca-8e3c-474214bdfb3e,A
2019-10-27 19:54:21,ccfc3fe1-a8d9-4bca-8e3c-474214bdfb3e,S
2019-10-27 19:58:03,ccfc3fe1-a8d9-4bca-8e3c-474214bdfb3e,A
2019-10-27 20:00:45,ccfc3fe1-a8d9-4bca-8e3c-474214bdfb3e,S
2019-10-27 20:02:42,ccfc3fe1-a8d9-4bca-8e3c-474214bdfb3e,A
2019-10-27 20:05:06,ccfc3fe1-a8d9-4bca-8e3c-474214bdfb3e,S
2019-10-27 20:11:39,ccfc3fe1-a8d9-4bca-8e3c-474214bdfb3e,A
2019-10-27 20:15:27,ccfc3fe1-a8d9-4bca-8e3c-474214bdfb3e,S
2019-10-27 20:21:40,ccfc3fe1-a8d9-4bca-8e3c-474214bdfb3e,A
2019-10-27 19:12:19,83c94d27-78ac-4936-a7cb-e1e7ec0f5550,S
2019-10-27 19:12:56,83c94d27-78ac-4936-a7cb-e1e7ec0f5550,A
2019-10-27 19:15:31,83c94d27-78ac-4936-a7cb-e1e7ec0f5550,S
2019-10-27 19:20:40,83c94d27-78ac-4936-a7cb-e1e7ec0f5550,A
2019-10-27 19:44:36,83c94d27-78ac-4936-a7cb-e1e7ec0f5550,S
2019-10-27 19:48:36,83c94d27-78ac-4936-a7cb-e1e7ec0f5550,A
2019-10-27 19:49:06,83c94d27-78ac-4936-a7cb-e1e7ec0f5550,S
2019-10-27 19:56:45,83c94d27-78ac-4936-a7cb-e1e7ec0f5550,A
2019-10-27 19:57:37,83c94d27-78ac-4936-a7cb-e1e7ec0f5550,S
2019-10-27 20:00:58,83c94d27-78ac-4936-a7cb-e1e7ec0f5550,A
2019-10-27 20:11:56,83c94d27-78ac-4936-a7cb-e1e7ec0f5550,S
2019-10-27 20:12:22,83c94d27-78ac-4936-a7cb-e1e7ec0f5550,A
2019-10-27 20:21:21,83c94d27-78ac-4936-a7cb-e1e7ec0f5550,S
2019-10-27 20:23:17,83c94d27-78ac-4936-a7cb-e1e7ec0f5550,A
2019-10-27 20:27:31,83c94d27-78ac-4936-a7cb-e1e7ec0f5550,S
2019-10-27 20:33:34,83c94d27-78ac-4936-a7cb-e1e7ec0f5550,A
2019-10-27 20:36:22,83c94d27-78ac-4936-a7cb-e1e7ec0f5550,S
2019-10-27 20:37:01,83c94d27-78ac-4936-a7cb-e1e7ec0f5550,A
2019-10-27 20:37:46,83c94d27-78ac-4936-a7cb-e1e7ec0f5550,S
2019-10-27 19:13:22,81c5db0a-efa0-4702-a6df-18678d4e7d25,A
2019-10-27 19:14:38,81c5db0a-efa0-4702-a6df-18678d4e7d25,S
2019-10-27 19:25:54,81c5db0a-efa0-4702-a6df-18678d4e7d25,A
2019-10-27 19:36:11,81c5db0a-efa0-4702-a6df-18678d4e7d25,S
2019-10-27 19:38:23,81c5db0a-efa0-4702-a6df-18678d4e7d25,A
2019-10-27 19:42:56,81c5db0a-efa0-4702-a6df-18678d4e7d25,S
2019-10-27 19:43:26,81c5db0a-efa0-4702-a6df-18678d4e7d25,A
2019-10-27 19:50:39,81c5db0a-efa0-4702-a6df-18678d4e7d25,S
2019-10-27 19:51:28,81c5db0a-efa0-4702-a6df-18678d4e7d25,A
2019-10-27 19:56:51,81c5db0a-efa0-4702-a6df-18678d4e7d25,S
2019-10-27 19:59:15,81c5db0a-efa0-4702-a6df-18678d4e7d25,A
2019-10-27 19:59:59,81c5db0a-efa0-4702-a6df-18678d4e7d25,S
2019-10-27 20:00:11,81c5db0a-efa0-4702-a6df-18678d4e7d25,A
2019-10-27 20:02:06,81c5db0a-efa0-4702-a6df-18678d4e7d25,S
2019-10-27 20:09:47,81c5db0a-efa0-4702-a6df-18678d4e7d25,A
2019-10-27 20:17:36,81c5db0a-efa0-4702-a6df-18678d4e7d25,S
2019-10-27 20:19:07,81c5db0a-efa0-4702-a6df-18678d4e7d25,A
2019-10-27 20:21:44,81c5db0a-efa0-4702-a6df-18678d4e7d25,S
2019-10-27 20:26:25,81c5db0a-efa0-4702-a6df-18678d4e7d25,A
2019-10-27 19:05:07,bb76c665-4017-4d83-aa81-42344fa2109b,A
2019-10-27 19:15:04,bb76c665-4017-4d83-aa81-42344fa2109b,S
2019-10-27 19:16:25,bb76c665-4017-4d83-aa81-42344fa2109b,A
2019-10-27 19:21:10,bb76c665-4017-4d83-aa81-42344fa2109b,S
2019-10-27 19:33:40,bb76c665-4017-4d83-aa81-42344fa2109b,A
2019-10-27 19:36:39,bb76c665-4017-4d83-aa81-42344fa2109b,S
2019-10-27 19:42:53,bb76c665-4017-4d83-aa81-42344fa2109b,A
2019-10-27 19:46:27,bb76c665-4017-4d83-aa81-42344fa2109b,S
2019-10-27 19:52:02,bb76c665-4017-4d83-aa81-42344fa2109b,A
2019-10-27 19:54:21,bb76c665-4017-4d83-aa81-42344fa2109b,S
2019-10-27 20:00:34,bb76c665-4017-4d83-aa81-42344fa2109b,A
2019-10-27 20:03:53,bb76c665-4017-4d83-aa81-42344fa2109b,S
2019-10-27 20:04:39,bb76c665-4017-4d83-aa81-42344fa2109b,A
2019-10-27 20:12:50,bb76c665-4017-4d83-aa81-42344fa2109b,S
2019-10-27 20:12:51,bb76c665-4017-4d83-aa81-42344fa2109b,A
2019-10-27 20:14:24,bb76c665-4017-4d83-aa81-42344fa2109b,S
2019-10-27 20:15:13,bb76c665-4017-4d83-aa81-42344fa2109b,A
2019-10-27 20:15:19,bb76c665-4017-4d83-aa81-42344fa2109b,S
2019-10-27 20:15:25,bb76c665-4017-4d83-aa81-42344fa2109b,A
2019-10-27 20:15:49,bb76c665-4017-4d83-aa81-42344fa2109b,S
2019-10-27 20:20:34,bb76c665-4017-4d83-aa81-42344fa2109b,A
2019-10-27 20:24:42,bb76c665-4017-4d83-aa81-42344fa2109b,S
2019-10-27 20:26:31,bb76c665-4017-4d83-aa81-42344fa2109b,A
2019-10-27 20:28:44,bb76c665-4017-4d83-aa81-42344fa2109b,S
2019-10-27 20:39:22,bb76c665-4017-4d83-aa81-42344fa2109b,A
2019-10-27 19:15:26,399a9518-4289-4e05-b814-6887d88273ea,S
2019-10-27 19:36:35,399a9518-4289-4e05-b814-6887d88273ea,A
2019-10-27 19:45:11,399a9518-4289-4e05-b814-6887d88273ea,S
2019-10-27 20:08:26,399a9518-4289-4e05-b814-6887d88273ea,A
2019-10-27 20:08:36,399a9518-4289-4e05-b814-6887d88273ea,S
2019-10-27 20:11:48,399a9518-4289-4e05-b814-6887d88273ea,A
2019-10-27 20:21:37,399a9518-4289-4e05-b814-6887d88273ea,S
2019-10-27 20:27:29,399a9518-4289-4e05-b814-6887d88273ea,A
2019-10-27 20:28:41,399a9518-4289-4e05-b814-6887d88273ea,S
2019-10-27 20:35:07,399a9518-4289-4e05-b814-6887d88273ea,A
2019-10-27 20:39:09,399a9518-4289-4e05-b814-6887d88273ea,S
2019-10-27 19:15:19,06e0902d-e3bc-4e11-ac6f-47384f41fd7f,A
2019-10-27 19:20:42,06e0902d-e3bc-4e11-ac6f-47384f41fd7f,S
2019-10-27 19:30:11,06e0902d-e3bc-4e11-ac6f-47384f41fd7f,A
2019-10-27 19:33:37,06e0902d-e3bc-4e11-ac6f-47384f41fd7f,S
2019-10-27 19:37:10,06e0902d-e3bc-4e11-ac6f-47384f41fd7f,A
2019-10-27 19:48:16,06e0902d-e3bc-4e11-ac6f-47384f41fd7f,S
2019-10-27 19:54:43,06e0902d-e3bc-4e11-ac6f-47384f41fd7f,A
2019-10-27 20:05:33,06e0902d-e3bc-4e11-ac6f-47384f41fd7f,S
2019-10-27 20:07:26,06e0902d-e3bc-4e11-ac6f-47384f41fd7f,A
2019-10-27 20:07:43,06e0902d-e3bc-4e11-ac6f-47384f41fd7f,S
2019-10-27 20:23:03,06e0902d-e3bc-4e11-ac6f-47384f41fd7f,A
2019-10-27 20:24:41,06e0902d-e3bc-4e11-ac6f-47384f41fd7f,S
2019-10-27 20:28:45,06e0902d-e3bc-4e11-ac6f-47384f41fd7f,A
2019-10-27 20:30:30,06e0902d-e3bc-4e11-ac6f-47384f41fd7f,S
2019-10-27 20:35:30,06e0902d-e3bc-4e11-ac6f-47384f41fd7f,A
2019-10-27 19:36:19,28e58899-ecac-4c80-be9b-ca9ec7c92bf5,A
2019-10-27 19:46:30,28e58899-ecac-4c80-be9b-ca9ec7c92bf5,S
2019-10-27 19:51:40,28e58899-ecac-4c80-be9b-ca9ec7c92bf5,A
2019-10-27 19:57:27,28e58899-ecac-4c80-be9b-ca9ec7c92bf5,S
2019-10-27 20:06:20,28e58899-ecac-4c80-be9b-ca9ec7c92bf5,A
2019-10-27 20:15:14,28e58899-ecac-4c80-be9b-ca9ec7c92bf5,S
2019-10-27 20:32:33,28e58899-ecac-4c80-be9b-ca9ec7c92bf5,A
2019-10-27 20:36:33,28e58899-ecac-4c80-be9b-ca9ec7c92bf5,S
2019-10-27 20:38:16,28e58899-ecac-4c80-be9b-ca9ec7c92bf5,A
2019-10-27 19:04:03,dda40b63-3fb5-4e2a-9666-5167e9895678,S
2019-10-27 19:04:49,dda40b63-3fb5-4e2a-9666-5167e9895678,A
2019-10-27 19:12:00,dda40b63-3fb5-4e2a-9666-5167e9895678,S
2019-10-27 19:15:58,dda40b63-3fb5-4e2a-9666-5167e9895678,A
2019-10-27 19:16:46,dda40b63-3fb5-4e2a-9666-5167e9895678,S
2019-10-27 19:17:52,dda40b63-3fb5-4e2a-9666-5167e9895678,A
2019-10-27 19:34:48,dda40b63-3fb5-4e2a-9666-5167e9895678,S
2019-10-27 19:34:49,dda40b63-3fb5-4e2a-9666-5167e9895678,A
2019-10-27 19:36:51,dda40b63-3fb5-4e2a-9666-5167e9895678,S
2019-10-27 19:38:28,dda40b63-3fb5-4e2a-9666-5167e9895678,A
2019-10-27 19:45:19,dda40b63-3fb5-4e2a-9666-5167e9895678,S
2019-10-27 19:45:31,dda40b63-3fb5-4e2a-9666-5167e9895678,A
2019-10-27 20:00:35,dda40b63-3fb5-4e2a-9666-5167e9895678,S
2019-10-27 20:05:37,dda40b63-3fb5-4e2a-9666-5167e9895678,A
2019-10-27 20:09:28,dda40b63-3fb5-4e2a-9666-5167e9895678,S
2019-10-27 20:20:47,dda40b63-3fb5-4e2a-9666-5167e9895678,A
2019-10-27 20:28:38,dda40b63-3fb5-4e2a-9666-5167e9895678,S
2019-10-27 20:31:00,dda40b63-3fb5-4e2a-9666-5167e9895678,A
2019-10-27 20:35:03,dda40b63-3fb5-4e2a-9666-5167e9895678,S
2019-10-27 20:35:53,dda40b63-3fb5-4e2a-9666-5167e9895678,A
2019-10-27 19:25:04,1d524e6b-2022-4d9d-89e2-627ff1ac68b8,A
2019-10-27 19:28:20,1d524e6b-2022-4d9d-89e2-627ff1ac68b8,S
2019-10-27 19:33:24,1d524e6b-2022-4d9d-89e2-627ff1ac68b8,A
2019-10-27 19:42:00,1d524e6b-2022-4d9d-89e2-627ff1ac68b8,S
2019-10-27 19:46:27,1d524e6b-2022-4d9d-89e2-627ff1ac68b8,A
2019-10-27 19:49:35,1d524e6b-2022-4d9d-89e2-627ff1ac68b8,S
2019-10-27 19:50:26,1d524e6b-2022-4d9d-89e2-627ff1ac68b8,A
2019-10-27 19:51:49,1d524e6b-2022-4d9d-89e2-627ff1ac68b8,S
2019-10-27 19:57:03,1d524e6b-2022-4d9d-89e2-627ff1ac68b8,A
2019-10-27 20:02:40,1d524e6b-2022-4d9d-89e2-627ff1ac68b8,S
2019-10-27 20:14:02,1d524e6b-2022-4d9d-89e2-627ff1ac68b8,A
2019-10-27 20:14:06,1d524e6b-2022-4d9d-89e2-627ff1ac68b8,S
2019-10-27 20:21:16,1d524e6b-2022-4d9d-89e2-627ff1ac68b8,A
2019-10-27 20:32:46,1d524e6b-2022-4d9d-89e2-627ff1ac68b8,S
2019-10-27 20:34:23,1d524e6b-2022-4d9d-89e2-627ff1ac68b8,A
2019-10-27 20:37:30,1d524e6b-2022-4d9d-89e2-627ff1ac68b8,S
2019-10-27 20:37:46,1d524e6b-2022-4d9d-89e2-627ff1ac68b8,A
2019-10-27 19:19:20,0b938a74-babe-43b6-8119-400ebe085246,S
2019-10-27 19:22:50,0b938a74-babe-43b6-8119-400ebe085246,A
2019-10-27 19:24:16,0b938a74-babe-43b6-8119-400ebe085246,S
2019-10-27 19:38:27,0b938a74-babe-43b6-8119-400ebe085246,A
2019-10-27 19:44:08,0b938a74-babe-43b6-8119-400ebe085246,S
2019-10-27 20:02:28,0b938a74-babe-43b6-8119-400ebe085246,A
2019-10-27 20:03:22,0b938a74-babe-43b6-8119-400ebe085246,S
2019-10-27 20:11:15,0b938a74-babe-43b6-8119-400ebe085246,A
2019-10-27 20:24:49,0b938a74-babe-43b6-8119-400ebe085246,S
2019-10-27 20:25:38,0b938a74-babe-43b6-8119-400ebe085246,A
2019-10-27 20:28:18,0b938a74-babe-43b6-8119-400ebe085246,S
2019-10-27 19:01:48,1fa33865-ae2b-42f1-8a26-71720dfe478c,A
2019-10-27 19:03:43,1fa33865-ae2b-42f1-8a26-71720dfe478c,S
2019-10-27 19:05:28,1fa33865-ae2b-42f1-8a26-71720dfe478c,A
2019-10-27 19:08:03,1fa33865-ae2b-42f1-8a26-71720dfe478c,S
2019-10-27 19:11:28,1fa33865-ae2b-42f1-8a26-71720dfe478c,A
2019-10-27 19:18:38,1fa33865-ae2b-42f1-8a26-71720dfe478c,S
2019-10-27 19:20:06,1fa33865-ae2b-42f1-8a26-71720dfe478c,A
2019-10-27 19:33:40,1fa33865-ae2b-42f1-8a26-71720dfe478c,S
2019-10-27 19:34:11,1fa33865-ae2b-42f1-8a26-71720dfe478c,A
2019-10-27 19:38:49,1fa33865-ae2b-42f1-8a26-71720dfe478c,S
2019-10-27 19:39:26,1fa33865-ae2b-42f1-8a26-71720dfe478c,A
2019-10-27 19:45:59,1fa33865-ae2b-42f1-8a26-71720dfe478c,S
2019-10-27 19:46:27,1fa33865-ae2b-42f1-8a26-71720dfe478c,A
2019-10-27 19:46:32,1fa33865-ae2b-42f1-8a26-71720dfe478c,S
2019-10-27 19:57:42,1fa33865-ae2b-42f1-8a26-71720dfe478c,A
2019-10-27 19:58:27,1fa33865-ae2b-42f1-8a26-71720dfe478c,S
2019-10-27 20:01:08,1fa33865-ae2b-42f1-8a26-71720dfe478c,A
2019-10-27 20:05:50,1fa33865-ae2b-42f1-8a26-71720dfe478c,S
2019-10-27 20:21:53,1fa33865-ae2b-42f1-8a26-71720dfe478c,A
2019-10-27 20:25:07,1fa33865-ae2b-42f1-8a26-71720dfe478c,S
2019-10-27 20:27:53,1fa33865-ae2b-42f1-8a26-71720dfe478c,A
2019-10-27 20:28:24,1fa33865-ae2b-42f1-8a26-71720dfe478c,S
2019-10-27 19:21:35,6ae5ae5a-75e0-4043-927c-ec2ce0a2322a,S
2019-10-27 19:29:59,6ae5ae5a-75e0-4043-927c-ec2ce0a2322a,A
2019-10-27 19:30:08,6ae5ae5a-75e0-4043-927c-ec2ce0a2322a,S
2019-10-27 19:33:07,6ae5ae5a-75e0-4043-927c-ec2ce0a2322a,A
2019-10-27 19:34:57,6ae5ae5a-75e0-4043-927c-ec2ce0a2322a,S
2019-10-27 19:35:26,6ae5ae5a-75e0-4043-927c-ec2ce0a2322a,A
2019-10-27 19:46:48,6ae5ae5a-75e0-4043-927c-ec2ce0a2322a,S
2019-10-27 19:53:35,6ae5ae5a-75e0-4043-927c-ec2ce0a2322a,A
2019-10-27 20:17:00,6ae5ae5a-75e0-4043-927c-ec2ce0a2322a,S
2019-10-27 20:27:14,6ae5ae5a-75e0-4043-927c-ec2ce0a2322a,A
2019-10-27 20:35:22,6ae5ae5a-75e0-4043-927c-ec2ce0a2322a,S
2019-10-27 20:36:16,6ae5ae5a-75e0-4043-927c-ec2ce0a2322a,A
2019-10-27 20:39:36,6ae5ae5a-75e0-4043-927c-ec2ce0a2322a,S
2019-10-27 20:41:15,6ae5ae5a-75e0-4043-927c-ec2ce0a2322a,A
2019-10-27 19:08:56,4da39e82-0c09-4a01-b84e-37cca17e9763,A
2019-10-27 19:10:14,4da39e82-0c09-4a01-b84e-37cca17e9763,S
2019-10-27 19:19:17,4da39e82-0c09-4a01-b84e-37cca17e9763,A
2019-10-27 19:21:30,4da39e82-0c09-4a01-b84e-37cca17e9763,S
2019-10-27 19:22:10,4da39e82-0c09-4a01-b84e-37cca17e9763,A
2019-10-27 19:22:18,4da39e82-0c09-4a01-b84e-37cca17e9763,S
2019-10-27 19:27:18,4da39e82-0c09-4a01-b84e-37cca17e9763,A
2019-10-27 19:30:29,4da39e82-0c09-4a01-b84e-37cca17e9763,S
2019-10-27 19:31:56,4da39e82-0c09-4a01-b84e-37cca17e9763,A
2019-10-27 19:42:01,4da39e82-0c09-4a01-b84e-37cca17e9763,S
2019-10-27 19:43:42,4da39e82-0c09-4a01-b84e-37cca17e9763,A
2019-10-27 19:50:35,4da39e82-0c09-4a01-b84e-37cca17e9763,S
2019-10-27 19:53:38,4da39e82-0c09-4a01-b84e-37cca17e9763,A
2019-10-27 20:00:08,4da39e82-0c09-4a01-b84e-37cca17e9763,S
2019-10-27 20:06:57,4da39e82-0c09-4a01-b84e-37cca17e9763,A
2019-10-27 20:18:53,4da39e82-0c09-4a01-b84e-37cca17e9763,S
2019-10-27 20:19:11,4da39e82-0c09-4a01-b84e-37cca17e9763,A
2019-10-27 20:34:35,4da39e82-0c09-4a01-b84e-37cca17e9763,S
2019-10-27 20:37:28,4da39e82-0c09-4a01-b84e-37cca17e9763,A
2019-10-27 20:39:27,4da39e82-0c09-4a01-b84e-37cca17e9763,S
2019-10-27 19:17:17,ee91d2f6-5a25-4487-8cac-237c3a82dc89,A
2019-10-27 19:19:11,ee91d2f6-5a25-4487-8cac-237c3a82dc89,S
2019-10-27 19:22:19,ee91d2f6-5a25-4487-8cac-237c3a82dc89,A
2019-10-27 19:52:52,ee91d2f6-5a25-4487-8cac-237c3a82dc89,S
2019-10-27 19:54:50,ee91d2f6-5a25-4487-8cac-237c3a82dc89,A
2019-10-27 20:00:55,ee91d2f6-5a25-4487-8cac-237c3a82dc89,S
2019-10-27 20:01:41,ee91d2f6-5a25-4487-8cac-237c3a82dc89,A
2019-10-27 20:02:49,ee91d2f6-5a25-4487-8cac-237c3a82dc89,S
2019-10-27 20:15:32,ee91d2f6-5a25-4487-8cac-237c3a82dc89,A
2019-10-27 20:16:08,ee91d2f6-5a25-4487-8cac-237c3a82dc89,S
2019-10-27 20:20:33,ee91d2f6-5a25-4487-8cac-237c3a82dc89,A
2019-10-27 20:28:12,ee91d2f6-5a25-4487-8cac-237c3a82dc89,S
2019-10-27 20:32:11,ee91d2f6-5a25-4487-8cac-237c3a82dc89,A
2019-10-27 20:32:55,ee91d2f6-5a25-4487-8cac-237c3a82dc89,S
2019-10-27 20:33:29,ee91d2f6-5a25-4487-8cac-237c3a82dc89,A
2019-10-27 20:36:32,ee91d2f6-5a25-4487-8cac-237c3a82dc89,S
2019-10-27 20:36:49,ee91d2f6-5a25-4487-8cac-237c3a82dc89,A
2019-10-27 20:39:17,ee91d2f6-5a25-4487-8cac-237c3a82dc89,S
2019-10-27 19:10:28,f6340b32-4120-4aab-a836-d483b766f197,S
2019-10-27 19:14:37,f6340b32-4120-4aab-a836-d483b766f197,A
2019-10-27 19:32:32,f6340b32-4120-4aab-a836-d483b766f197,S
2019-10-27 19:34:26,f6340b32-4120-4aab-a836-d483b766f197,A
2019-10-27 19:40:51,f6340b32-4120-4aab-a836-d483b766f197,S
2019-10-27 19:42:19,f6340b32-4120-4aab-a836-d483b766f197,A
2019-10-27 19:46:52,f6340b32-4120-4aab-a836-d483b766f197,S
2019-10-27 19:47:21,f6340b32-4120-4aab-a836-d483b766f197,A
2019-10-27 19:50:18,f6340b32-4120-4aab-a836-d483b766f197,S
2019-10-27 19:50:31,f6340b32-4120-4aab-a836-d483b766f197,A
2019-10-27 19:52:17,f6340b32-4120-4aab-a836-d483b766f197,S
2019-10-27 19:52:49,f6340b32-4120-4aab-a836-d483b766f197,A
2019-10-27 19:54:38,f6340b32-4120-4aab-a836-d483b766f197,S
2019-10-27 19:59:36,f6340b32-4120-4aab-a836-d483b766f197,A
2019-10-27 20:00:55,f6340b32-4120-4aab-a836-d483b766f197,S
2019-10-27 20:05:02,f6340b32-4120-4aab-a836-d483b766f197,A
2019-10-27 20:15:25,f6340b32-4120-4aab-a836-d483b766f197,S
2019-10-27 20:16:59,f6340b32-4120-4aab-a836-d483b766f197,A
2019-10-27 20:24:30,f6340b32-4120-4aab-a836-d483b766f197,S
2019-10-27 20:24:45,f6340b32-4120-4aab-a836-d483b766f197,A
2019-10-27 20:26:10,f6340b32-4120-4aab-a836-d483b766f197,S
2019-10-27 19:15:59,d229a1ff-70ac-47fa-839f-3214e1c134e0,A
2019-10-27 19:17:10,d229a1ff-70ac-47fa-839f-3214e1c134e0,S
2019-10-27 19:18:34,d229a1ff-70ac-47fa-839f-3214e1c134e0,A
2019-10-27 19:25:02,d229a1ff-70ac-47fa-839f-3214e1c134e0,S
2019-10-27 19:28:26,d229a1ff-70ac-47fa-839f-3214e1c134e0,A
2019-10-27 19:31:20,d229a1ff-70ac-47fa-839f-3214e1c134e0,S
2019-10-27 19:32:27,d229a1ff-70ac-47fa-839f-3214e1c134e0,A
2019-10-27 19:34:59,d229a1ff-70ac-47fa-839f-3214e1c134e0,S
2019-10-27 19:35:58,d229a1ff-70ac-47fa-839f-3214e1c134e0,A
2019-10-27 19:38:03,d229a1ff-70ac-47fa-839f-3214e1c134e0,S
2019-10-27 19:39:25,d229a1ff-70ac-47fa-839f-3214e1c134e0,A
2019-10-27 19:45:58,d229a1ff-70ac-47fa-839f-3214e1c134e0,S
2019-10-27 19:47:25,d229a1ff-70ac-47fa-839f-3214e1c134e0,A
2019-10-27 19:48:14,d229a1ff-70ac-47fa-839f-3214e1c134e0,S
2019-10-27 19:48:43,d229a1ff-70ac-47fa-839f-3214e1c134e0,A
2019-10-27 19:51:34,d229a1ff-70ac-47fa-839f-3214e1c134e0,S
2019-10-27 19:56:41,d229a1ff-70ac-47fa-839f-3214e1c134e0,A
2019-10-27 20:12:08,d229a1ff-70ac-47fa-839f-3214e1c134e0,S
2019-10-27 20:21:11,d229a1ff-70ac-47fa-839f-3214e1c134e0,A
2019-10-27 20:30:54,d229a1ff-70ac-47fa-839f-3214e1c134e0,S
2019-10-27 20:39:25,d229a1ff-70ac-47fa-839f-3214e1c134e0,A
2019-10-27 20:40:10,d229a1ff-70ac-47fa-839f-3214e1c134e0,S
2019-10-27 20:40:29,d229a1ff-70ac-47fa-839f-3214e1c134e0,A
2019-10-27 19:03:40,5aaabc06-c6c2-4c9f-ac3e-63f989334e32,A
2019-10-27 19:10:20,5aaabc06-c6c2-4c9f-ac3e-63f989334e32,S
2019-10-27 19:16:39,5aaabc06-c6c2-4c9f-ac3e-63f989334e32,A
2019-10-27 19:19:19,5aaabc06-c6c2-4c9f-ac3e-63f989334e32,S
2019-10-27 19:28:45,5aaabc06-c6c2-4c9f-ac3e-63f989334e32,A
2019-10-27 19:34:47,5aaabc06-c6c2-4c9f-ac3e-63f989334e32,S
2019-10-27 19:39:03,5aaabc06-c6c2-4c9f-ac3e-63f989334e32,A
2019-10-27 19:44:48,5aaabc06-c6c2-4c9f-ac3e-63f989334e32,S
2019-10-27 19:46:22,5aaabc06-c6c2-4c9f-ac3e-63f989334e32,A
2019-10-27 19:47:59,5aaabc06-c6c2-4c9f-ac3e-63f989334e32,S
2019-10-27 19:51:02,5aaabc06-c6c2-4c9f-ac3e-63f989334e32,A
2019-10-27 19:55:49,5aaabc06-c6c2-4c9f-ac3e-63f989334e32,S
2019-10-27 19:56:54,5aaabc06-c6c2-4c9f-ac3e-63f989334e32,A
2019-10-27 20:00:12,5aaabc06-c6c2-4c9f-ac3e-63f989334e32,S
2019-10-27 20:02:10,5aaabc06-c6c2-4c9f-ac3e-63f989334e32,A
2019-10-27 20:03:14,5aaabc06-c6c2-4c9f-ac3e-63f989334e32,S
2019-10-27 20:11:00,5aaabc06-c6c2-4c9f-ac3e-63f989334e32,A
2019-10-27 20:19:04,5aaabc06-c6c2-4c9f-ac3e-63f989334e32,S
2019-10-27 20:23:48,5aaabc06-c6c2-4c9f-ac3e-63f989334e32,A
2019-10-27 20:28:46,5aaabc06-c6c2-4c9f-ac3e-63f989334e32,S
2019-10-27 20:30:47,5aaabc06-c6c2-4c9f-ac3e-63f989334e32,A
2019-10-27 20:40:52,5aaabc06-c6c2-4c9f-ac3e-63f989334e32,S
2019-10-27 19:38:58,edf8ddce-b855-4e1a-be95-98618ab0c327,A
2019-10-27 19:43:36,edf8ddce-b855-4e1a-be95-98618ab0c327,S
2019-10-27 20:03:07,edf8ddce-b855-4e1a-be95-98618ab0c327,A
2019-10-27 20:07:39,edf8ddce-b855-4e1a-be95-98618ab0c327,S
2019-10-27 20:09:21,edf8ddce-b855-4e1a-be95-98618ab0c327,A
2019-10-27 20:13:58,edf8ddce-b855-4e1a-be95-98618ab0c327,S
2019-10-27 20:14:03,edf8ddce-b855-4e1a-be95-98618ab0c327,A
2019-10-27 20:16:55,edf8ddce-b855-4e1a-be95-98618ab0c327,S
2019-10-27 20:18:16,edf8ddce-b855-4e1a-be95-98618ab0c327,A
2019-10-27 20:19:22,edf8ddce-b855-4e1a-be95-98618ab0c327,S
2019-10-27 20:19:36,edf8ddce-b855-4e1a-be95-98618ab0c327,A
2019-10-27 20:23:54,edf8ddce-b855-4e1a-be95-98618ab0c327,S
2019-10-27 20:35:47,edf8ddce-b855-4e1a-be95-98618ab0c327,A
2019-10-27 20:36:29,edf8ddce-b855-4e1a-be95-98618ab0c327,S
2019-10-27 19:07:04,b499163e-fdb2-4b66-a152-f6e2604e0a4b,A
2019-10-27 19:07:39,b499163e-fdb2-4b66-a152-f6e2604e0a4b,S
2019-10-27 19:17:17,b499163e-fdb2-4b66-a152-f6e2604e0a4b,A
2019-10-27 19:28:03,b499163e-fdb2-4b66-a152-f6e2604e0a4b,S
2019-10-27 19:34:31,b499163e-fdb2-4b66-a152-f6e2604e0a4b,A
2019-10-27 19:35:39,b499163e-fdb2-4b66-a152-f6e2604e0a4b,S
2019-10-27 19:47:51,b499163e-fdb2-4b66-a152-f6e2604e0a4b,A
2019-10-27 19:49:46,b499163e-fdb2-4b66-a152-f6e2604e0a4b,S
2019-10-27 19:58:28,b499163e-fdb2-4b66-a152-f6e2604e0a4b,A
2019-10-27 20:00:59,b499163e-fdb2-4b66-a152-f6e2604e0a4b,S
2019-10-27 20:01:14,b499163e-fdb2-4b66-a152-f6e2604e0a4b,A
2019-10-27 20:02:45,b499163e-fdb2-4b66-a152-f6e2604e0a4b,S
2019-10-27 20:10:55,b499163e-fdb2-4b66-a152-f6e2604e0a4b,A
2019-10-27 20:14:43,b499163e-fdb2-4b66-a152-f6e2604e0a4b,S
2019-10-27 20:18:07,b499163e-fdb2-4b66-a152-f6e2604e0a4b,A
2019-10-27 20:21:34,b499163e-fdb2-4b66-a152-f6e2604e0a4b,S
2019-10-27 20:27:37,b499163e-fdb2-4b66-a152-f6e2604e0a4b,A
2019-10-27 20:37:33,b499163e-fdb2-4b66-a152-f6e2604e0a4b,S
2019-10-27 19:14:32,717adeff-5042-4040-a847-d601e9057370,S
2019-10-27 19:15:24,717adeff-5042-4040-a847-d601e9057370,A
2019-10-27 19:18:29,717adeff-5042-4040-a847-d601e9057370,S
2019-10-27 19:28:26,717adeff-5042-4040-a847-d601e9057370,A
2019-10-27 19:31:03,717adeff-5042-4040-a847-d601e9057370,S
2019-10-27 19:37:26,717adeff-5042-4040-a847-d601e9057370,A
2019-10-27 19:42:29,717adeff-5042-4040-a847-d601e9057370,S
2019-10-27 19:43:21,717adeff-5042-4040-a847-d601e9057370,A
2019-10-27 19:53:56,717adeff-5042-4040-a847-d601e9057370,S
2019-10-27 19:57:27,717adeff-5042-4040-a847-d601e9057370,A
2019-10-27 19:57:46,717adeff-5042-4040-a847-d601e9057370,S
2019-10-27 19:58:01,717adeff-5042-4040-a847-d601e9057370,A
2019-10-27 20:03:41,717adeff-5042-4040-a847-d601e9057370,S
2019-10-27 20:11:27,717adeff-5042-4040-a847-d601e9057370,A
2019-10-27 20:16:33,717adeff-5042-4040-a847-d601e9057370,S
2019-10-27 20:32:41,717adeff-5042-4040-a847-d601e9057370,A
2019-10-27 20:33:53,717adeff-5042-4040-a847-d601e9057370,S
2019-10-27 20:38:42,717adeff-5042-4040-a847-d601e9057370,A
2019-10-27 20:39:48,717adeff-5042-4040-a847-d601e9057370,S
2019-10-27 20:42:35,717adeff-5042-4040-a847-d601e9057370,A
