date,trigger,state
2020-02-23 12:53:07,20878cbd-8880-4a6b-b1b7-c955a32605e0,S
2020-02-23 13:05:02,20878cbd-8880-4a6b-b1b7-c955a32605e0,A
2020-02-23 13:05:20,20878cbd-8880-4a6b-b1b7-c955a32605e0,S
2020-02-23 13:20:44,20878cbd-8880-4a6b-b1b7-c955a32605e0,A
2020-02-23 13:23:37,20878cbd-8880-4a6b-b1b7-c955a32605e0,S
2020-02-23 13:25:37,20878cbd-8880-4a6b-b1b7-c955a32605e0,A
2020-02-23 13:33:43,20878cbd-8880-4a6b-b1b7-c955a32605e0,S
2020-02-23 13:34:39,20878cbd-8880-4a6b-b1b7-c955a32605e0,A
2020-02-23 13:36:52,20878cbd-8880-4a6b-b1b7-c955a32605e0,S
2020-02-23 13:51:17,20878cbd-8880-4a6b-b1b7-c955a32605e0,A
2020-02-23 13:56:35,20878cbd-8880-4a6b-b1b7-c955a32605e0,S
2020-02-23 13:58:08,20878cbd-8880-4a6b-b1b7-c955a32605e0,A
2020-02-23 13:58:56,20878cbd-8880-4a6b-b1b7-c955a32605e0,S
2020-02-23 14:00:53,20878cbd-8880-4a6b-b1b7-c955a32605e0,A
2020-02-23 14:04:10,20878cbd-8880-4a6b-b1b7-c955a32605e0,S
2020-02-23 14:04:17,20878cbd-8880-4a6b-b1b7-c955a32605e0,A
2020-02-23 14:16:36,20878cbd-8880-4a6b-b1b7-c955a32605e0,S
2020-02-23 14:17:57,20878cbd-8880-4a6b-b1b7-c955a32605e0,A
2020-02-23 14:22:49,20878cbd-8880-4a6b-b1b7-c955a32605e0,S
2020-02-23 14:26:15,20878cbd-8880-4a6b-b1b7-c955a32605e0,A
2020-02-23 14:27:29,20878cbd-8880-4a6b-b1b7-c955a32605e0,S
2020-02-23 14:28:11,20878cbd-8880-4a6b-b1b7-c955a32605e0,A
2020-02-23 14:40:51,20878cbd-8880-4a6b-b1b7-c955a32605e0,S
2020-02-23 14:42:19,20878cbd-8880-4a6b-b1b7-c955a32605e0,A
2020-02-23 13:06:50,1dc34812-db0e-4543-9233-36bdc99ad904,S
2020-02-23 13:12:05,1dc34812-db0e-4543-9233-36bdc99ad904,A
2020-02-23 12:36:55,d77aa365-5e7a-463a-9c26-63631e4c1dbc,A
2020-02-23 12:41:11,d77aa365-5e7a-463a-9c26-63631e4c1dbc,S
2020-02-23 12:43:28,d77aa365-5e7a-463a-9c26-63631e4c1dbc,A
2020-02-23 12:51:11,d77aa365-5e7a-463a-9c26-63631e4c1dbc,S
2020-02-23 13:00:29,d77aa365-5e7a-463a-9c26-63631e4c1dbc,A
2020-02-23 13:04:50,d77aa365-5e7a-463a-9c26-63631e4c1dbc,S
2020-02-23 13:09:24,d77aa365-5e7a-463a-9c26-63631e4c1dbc,A
2020-02-23 13:24:41,d77aa365-5e7a-463a-9c26-63631e4c1dbc,S
2020-02-23 13:29:33,d77aa365-5e7a-463a-9c26-63631e4c1dbc,A
2020-02-23 13:42:22,d77aa365-5e7a-463a-9c26-63631e4c1dbc,S
2020-02-23 13:42:51,d77aa365-5e7a-463a-9c26-63631e4c1dbc,A
2020-02-23 13:50:04,d77aa365-5e7a-463a-9c26-63631e4c1dbc,S
2020-02-23 13:57:59,d77aa365-5e7a-463a-9c26-63631e4c1dbc,A
2020-02-23 13:59:08,d77aa365-5e7a-463a-9c26-63631e4c1dbc,S
2020-02-23 14:00:41,d77aa365-5e7a-463a-9c26-63631e4c1dbc,A
2020-02-23 14:01:18,d77aa365-5e7a-463a-9c26-63631e4c1dbc,S
2020-02-23 14:02:51,d77aa365-5e7a-463a-9c26-63631e4c1dbc,A
2020-02-23 14:03:27,d77aa365-5e7a-463a-9c26-63631e4c1dbc,S
2020-02-23 14:03:33,d77aa365-5e7a-463a-9c26-63631e4c1dbc,A
2020-02-23 14:03:54,d77aa365-5e7a-463a-9c26-63631e4c1dbc,S
2020-02-23 14:04:51,d77aa365-5e7a-463a-9c26-63631e4c1dbc,A
2020-02-23 14:12:16,d77aa365-5e7a-463a-9c26-63631e4c1dbc,S
2020-02-23 14:24:34,d77aa365-5e7a-463a-9c26-63631e4c1dbc,A
2020-02-23 14:25:13,d77aa365-5e7a-463a-9c26-63631e4c1dbc,S
2020-02-23 12:38:05,9b4ce120-a227-4997-b316-141aa287c6f8,S
2020-02-23 12:39:10,9b4ce120-a227-4997-b316-141aa287c6f8,A
2020-02-23 12:40:24,9b4ce120-a227-4997-b316-141aa287c6f8,S
2020-02-23 12:44:03,9b4ce120-a227-4997-b316-141aa287c6f8,A
2020-02-23 12:46:47,9b4ce120-a227-4997-b316-141aa287c6f8,S
2020-02-23 12:51:57,9b4ce120-a227-4997-b316-141aa287c6f8,A
2020-02-23 12:53:15,9b4ce120-a227-4997-b316-141aa287c6f8,S
2020-02-23 12:59:14,9b4ce120-a227-4997-b316-141aa287c6f8,A
2020-02-23 13:10:31,9b4ce120-a227-4997-b316-141aa287c6f8,S
2020-02-23 13:14:11,9b4ce120-a227-4997-b316-141aa287c6f8,A
2020-02-23 13:18:43,9b4ce120-a227-4997-b316-141aa287c6f8,S
2020-02-23 13:30:11,9b4ce120-a227-4997-b316-141aa287c6f8,A
2020-02-23 13:43:37,9b4ce120-a227-4997-b316-141aa287c6f8,S
2020-02-23 13:44:36,9b4ce120-a227-4997-b316-141aa287c6f8,A
2020-02-23 13:46:09,9b4ce120-a227-4997-b316-141aa287c6f8,S
2020-02-23 13:46:55,9b4ce120-a227-4997-b316-141aa287c6f8,A
2020-02-23 13:48:04,9b4ce120-a227-4997-b316-141aa287c6f8,S
2020-02-23 13:56:40,9b4ce120-a227-4997-b316-141aa287c6f8,A
2020-02-23 13:58:38,9b4ce120-a227-4997-b316-141aa287c6f8,S
2020-02-23 14:00:26,9b4ce120-a227-4997-b316-141aa287c6f8,A
2020-02-23 14:05:13,9b4ce120-a227-4997-b316-141aa287c6f8,S
2020-02-23 14:14:06,9b4ce120-a227-4997-b316-141aa287c6f8,A
2020-02-23 14:24:59,9b4ce120-a227-4997-b316-141aa287c6f8,S
2020-02-23 14:28:55,9b4ce120-a227-4997-b316-141aa287c6f8,A
2020-02-23 14:29:12,9b4ce120-a227-4997-b316-141aa287c6f8,S
2020-02-23 14:34:52,9b4ce120-a227-4997-b316-141aa287c6f8,A
2020-02-23 14:41:17,9b4ce120-a227-4997-b316-141aa287c6f8,S
2020-02-23 14:41:17,9b4ce120-a227-4997-b316-141aa287c6f8,A
2020-02-23 13:12:48,4861033a-dda8-4c18-97ca-3f2078c593d5,S
2020-02-23 13:15:06,4861033a-dda8-4c18-97ca-3f2078c593d5,A
2020-02-23 13:20:18,4861033a-dda8-4c18-97ca-3f2078c593d5,S
2020-02-23 13:28:23,4861033a-dda8-4c18-97ca-3f2078c593d5,A
2020-02-23 13:35:47,4861033a-dda8-4c18-97ca-3f2078c593d5,S
2020-02-23 13:36:09,4861033a-dda8-4c18-97ca-3f2078c593d5,A
2020-02-23 13:41:42,4861033a-dda8-4c18-97ca-3f2078c593d5,S
2020-02-23 13:52:45,4861033a-dda8-4c18-97ca-3f2078c593d5,A
2020-02-23 13:57:10,4861033a-dda8-4c18-97ca-3f2078c593d5,S
2020-02-23 13:59:57,4861033a-dda8-4c18-97ca-3f2078c593d5,A
2020-02-23 14:06:39,4861033a-dda8-4c18-97ca-3f2078c593d5,S
2020-02-23 14:07:29,4861033a-dda8-4c18-97ca-3f2078c593d5,A
2020-02-23 14:10:15,4861033a-dda8-4c18-97ca-3f2078c593d5,S
2020-02-23 14:14:06,4861033a-dda8-4c18-97ca-3f2078c593d5,A
2020-02-23 14:20:34,4861033a-dda8-4c18-97ca-3f2078c593d5,S
2020-02-23 14:23:38,4861033a-dda8-4c18-97ca-3f2078c593d5,A
2020-02-23 14:35:58,4861033a-dda8-4c18-97ca-3f2078c593d5,S
2020-02-23 14:40:45,4861033a-dda8-4c18-97ca-3f2078c593d5,A
2020-02-23 14:42:49,4861033a-dda8-4c18-97ca-3f2078c593d5,S
2020-02-23 12:58:15,c877cd2b-422f-41a3-88c5-667ae2d5273b,A
2020-02-23 13:01:57,c877cd2b-422f-41a3-88c5-667ae2d5273b,S
2020-02-23 13:05:16,c877cd2b-422f-41a3-88c5-667ae2d5273b,A
2020-02-23 13:06:56,c877cd2b-422f-41a3-88c5-667ae2d5273b,S
2020-02-23 13:22:26,c877cd2b-422f-41a3-88c5-667ae2d5273b,A
2020-02-23 13:24:11,c877cd2b-422f-41a3-88c5-667ae2d5273b,S
2020-02-23 13:24:33,c877cd2b-422f-41a3-88c5-667ae2d5273b,A
2020-02-23 13:46:22,c877cd2b-422f-41a3-88c5-667ae2d5273b,S
2020-02-23 13:53:32,c877cd2b-422f-41a3-88c5-667ae2d5273b,A
2020-02-23 13:57:52,c877cd2b-422f-41a3-88c5-667ae2d5273b,S
2020-02-23 13:58:33,c877cd2b-422f-41a3-88c5-667ae2d5273b,A
2020-02-23 14:02:47,c877cd2b-422f-41a3-88c5-667ae2d5273b,S
2020-02-23 14:04:38,c877cd2b-422f-41a3-88c5-667ae2d5273b,A
2020-02-23 14:07:20,c877cd2b-422f-41a3-88c5-667ae2d5273b,S
2020-02-23 14:16:34,c877cd2b-422f-41a3-88c5-667ae2d5273b,A
2020-02-23 14:24:11,c877cd2b-422f-41a3-88c5-667ae2d5273b,S
2020-02-23 14:29:07,c877cd2b-422f-41a3-88c5-667ae2d5273b,A
2020-02-23 14:35:45,c877cd2b-422f-41a3-88c5-667ae2d5273b,S
2020-02-23 13:11:33,bd238d91-903d-4c6b-86ae-d5e5a230fb89,S
2020-02-23 13:23:47,bd238d91-903d-4c6b-86ae-d5e5a230fb89,A
2020-02-23 13:09:16,ca5f7967-3d27-414f-8178-853a50750e25,S
2020-02-23 13:13:25,ca5f7967-3d27-414f-8178-853a50750e25,A
2020-02-23 13:20:53,ca5f7967-3d27-414f-8178-853a50750e25,S
2020-02-23 13:25:05,ca5f7967-3d27-414f-8178-853a50750e25,A
2020-02-23 13:25:19,ca5f7967-3d27-414f-8178-853a50750e25,S
2020-02-23 13:34:48,ca5f7967-3d27-414f-8178-853a50750e25,A
2020-02-23 13:37:49,ca5f7967-3d27-414f-8178-853a50750e25,S
2020-02-23 13:39:16,ca5f7967-3d27-414f-8178-853a50750e25,A
2020-02-23 13:41:00,ca5f7967-3d27-414f-8178-853a50750e25,S
2020-02-23 13:50:40,ca5f7967-3d27-414f-8178-853a50750e25,A
2020-02-23 13:55:30,ca5f7967-3d27-414f-8178-853a50750e25,S
2020-02-23 13:57:13,ca5f7967-3d27-414f-8178-853a50750e25,A
2020-02-23 13:58:10,ca5f7967-3d27-414f-8178-853a50750e25,S
2020-02-23 14:03:37,ca5f7967-3d27-414f-8178-853a50750e25,A
2020-02-23 14:08:12,ca5f7967-3d27-414f-8178-853a50750e25,S
2020-02-23 14:12:53,ca5f7967-3d27-414f-8178-853a50750e25,A
2020-02-23 14:20:54,ca5f7967-3d27-414f-8178-853a50750e25,S
2020-02-23 14:26:05,ca5f7967-3d27-414f-8178-853a50750e25,A
2020-02-23 14:29:25,ca5f7967-3d27-414f-8178-853a50750e25,S
2020-02-23 14:42:11,ca5f7967-3d27-414f-8178-853a50750e25,A
2020-02-23 13:18:38,0dd4ae3b-49cc-4300-855a-041aa7ac16aa,A
2020-02-23 13:22:07,0dd4ae3b-49cc-4300-855a-041aa7ac16aa,S
2020-02-23 13:25:11,0dd4ae3b-49cc-4300-855a-041aa7ac16aa,A
2020-02-23 13:34:08,0dd4ae3b-49cc-4300-855a-041aa7ac16aa,S
2020-02-23 13:49:05,0dd4ae3b-49cc-4300-855a-041aa7ac16aa,A
2020-02-23 13:50:07,0dd4ae3b-49cc-4300-855a-041aa7ac16aa,S
2020-02-23 13:50:36,0dd4ae3b-49cc-4300-855a-041aa7ac16aa,A
2020-02-23 13:51:15,0dd4ae3b-49cc-4300-855a-041aa7ac16aa,S
2020-02-23 13:58:19,0dd4ae3b-49cc-4300-855a-041aa7ac16aa,A
2020-02-23 14:03:29,0dd4ae3b-49cc-4300-855a-041aa7ac16aa,S
2020-02-23 14:22:21,0dd4ae3b-49cc-4300-855a-041aa7ac16aa,A
2020-02-23 14:24:28,0dd4ae3b-49cc-4300-855a-041aa7ac16aa,S
2020-02-23 14:31:35,0dd4ae3b-49cc-4300-855a-041aa7ac16aa,A
2020-02-23 14:35:05,0dd4ae3b-49cc-4300-855a-041aa7ac16aa,S
2020-02-23 12:56:17,9e4d837b-ee44-41b3-a51c-9f6644d1f0c7,S
2020-02-23 13:08:22,9e4d837b-ee44-41b3-a51c-9f6644d1f0c7,A
2020-02-23 13:26:43,9e4d837b-ee44-41b3-a51c-9f6644d1f0c7,S
2020-02-23 13:29:07,9e4d837b-ee44-41b3-a51c-9f6644d1f0c7,A
2020-02-23 13:32:25,9e4d837b-ee44-41b3-a51c-9f6644d1f0c7,S
2020-02-23 13:35:44,9e4d837b-ee44-41b3-a51c-9f6644d1f0c7,A
2020-02-23 13:47:14,9e4d837b-ee44-41b3-a51c-9f6644d1f0c7,S
2020-02-23 13:48:04,9e4d837b-ee44-41b3-a51c-9f6644d1f0c7,A
2020-02-23 13:49:43,9e4d837b-ee44-41b3-a51c-9f6644d1f0c7,S
2020-02-23 13:50:35,9e4d837b-ee44-41b3-a51c-9f6644d1f0c7,A
2020-02-23 14:08:00,9e4d837b-ee44-41b3-a51c-9f6644d1f0c7,S
2020-02-23 14:08:05,9e4d837b-ee44-41b3-a51c-9f6644d1f0c7,A
2020-02-23 14:11:15,9e4d837b-ee44-41b3-a51c-9f6644d1f0c7,S
2020-02-23 14:14:42,9e4d837b-ee44-41b3-a51c-9f6644d1f0c7,A
2020-02-23 14:16:56,9e4d837b-ee44-41b3-a51c-9f6644d1f0c7,S
2020-02-23 14:22:52,9e4d837b-ee44-41b3-a51c-9f6644d1f0c7,A
2020-02-23 14:24:15,9e4d837b-ee44-41b3-a51c-9f6644d1f0c7,S
2020-02-23 14:28:10,9e4d837b-ee44-41b3-a51c-9f6644d1f0c7,A
2020-02-23 14:33:44,9e4d837b-ee44-41b3-a51c-9f6644d1f0c7,S
2020-02-23 12:42:52,d14a8938-471c-4510-a97e-6cce05f1d9ef,A
2020-02-23 12:46:19,d14a8938-471c-4510-a97e-6cce05f1d9ef,S
2020-02-23 12:54:53,d14a8938-471c-4510-a97e-6cce05f1d9ef,A
2020-02-23 12:57:56,d14a8938-471c-4510-a97e-6cce05f1d9ef,S
2020-02-23 12:58:13,d14a8938-471c-4510-a97e-6cce05f1d9ef,A
2020-02-23 13:00:41,d14a8938-471c-4510-a97e-6cce05f1d9ef,S
2020-02-23 13:06:01,d14a8938-471c-4510-a97e-6cce05f1d9ef,A
2020-02-23 13:09:56,d14a8938-471c-4510-a97e-6cce05f1d9ef,S
2020-02-23 13:12:41,d14a8938-471c-4510-a97e-6cce05f1d9ef,A
2020-02-23 13:23:29,d14a8938-471c-4510-a97e-6cce05f1d9ef,S
2020-02-23 13:29:06,d14a8938-471c-4510-a97e-6cce05f1d9ef,A
2020-02-23 13:51:40,d14a8938-471c-4510-a97e-6cce05f1d9ef,S
2020-02-23 14:16:01,d14a8938-471c-4510-a97e-6cce05f1d9ef,A
2020-02-23 14:22:36,d14a8938-471c-4510-a97e-6cce05f1d9ef,S
2020-02-23 14:26:02,d14a8938-471c-4510-a97e-6cce05f1d9ef,A
2020-02-23 14:28:56,d14a8938-471c-4510-a97e-6cce05f1d9ef,S
2020-02-23 14:33:41,d14a8938-471c-4510-a97e-6cce05f1d9ef,A
2020-02-23 12:53:29,ab4b47b2-f75b-4a0d-a8f5-b5db652ce5c1,A
2020-02-23 12:56:55,ab4b47b2-f75b-4a0d-a8f5-b5db652ce5c1,S
2020-02-23 13:02:00,ab4b47b2-f75b-4a0d-a8f5-b5db652ce5c1,A
2020-02-23 13:03:51,ab4b47b2-f75b-4a0d-a8f5-b5db652ce5c1,S
2020-02-23 13:14:22,ab4b47b2-f75b-4a0d-a8f5-b5db652ce5c1,A
2020-02-23 13:14:57,ab4b47b2-f75b-4a0d-a8f5-b5db652ce5c1,S
2020-02-23 13:23:21,ab4b47b2-f75b-4a0d-a8f5-b5db652ce5c1,A
2020-02-23 13:25:42,ab4b47b2-f75b-4a0d-a8f5-b5db652ce5c1,S
2020-02-23 13:34:05,ab4b47b2-f75b-4a0d-a8f5-b5db652ce5c1,A
2020-02-23 13:52:31,ab4b47b2-f75b-4a0d-a8f5-b5db652ce5c1,S
2020-02-23 13:53:47,ab4b47b2-f75b-4a0d-a8f5-b5db652ce5c1,A
2020-02-23 13:53:58,ab4b47b2-f75b-4a0d-a8f5-b5db652ce5c1,S
2020-02-23 13:57:11,ab4b47b2-f75b-4a0d-a8f5-b5db652ce5c1,A
2020-02-23 14:06:01,ab4b47b2-f75b-4a0d-a8f5-b5db652ce5c1,S
2020-02-23 14:21:06,ab4b47b2-f75b-4a0d-a8f5-b5db652ce5c1,A
2020-02-23 14:21:24,ab4b47b2-f75b-4a0d-a8f5-b5db652ce5c1,S
2020-02-23 14:31:55,ab4b47b2-f75b-4a0d-a8f5-b5db652ce5c1,A
2020-02-23 13:07:04,36af1c17-4ecc-48e6-9738-ba9f4c26ab2f,A
2020-02-23 13:25:57,36af1c17-4ecc-48e6-9738-ba9f4c26ab2f,S
2020-02-23 13:26:19,36af1c17-4ecc-48e6-9738-ba9f4c26ab2f,A
2020-02-23 13:29:03,36af1c17-4ecc-48e6-9738-ba9f4c26ab2f,S
2020-02-23 13:33:03,36af1c17-4ecc-48e6-9738-ba9f4c26ab2f,A
2020-02-23 13:33:33,36af1c17-4ecc-48e6-9738-ba9f4c26ab2f,S
2020-02-23 13:36:34,36af1c17-4ecc-48e6-9738-ba9f4c26ab2f,A
2020-02-23 13:38:13,36af1c17-4ecc-48e6-9738-ba9f4c26ab2f,S
2020-02-23 13:52:42,36af1c17-4ecc-48e6-9738-ba9f4c26ab2f,A
2020-02-23 13:54:18,36af1c17-4ecc-48e6-9738-ba9f4c26ab2f,S
2020-02-23 13:54:24,36af1c17-4ecc-48e6-9738-ba9f4c26ab2f,A
2020-02-23 13:56:44,36af1c17-4ecc-48e6-9738-ba9f4c26ab2f,S
2020-02-23 13:56:52,36af1c17-4ecc-48e6-9738-ba9f4c26ab2f,A
2020-02-23 13:58:54,36af1c17-4ecc-48e6-9738-ba9f4c26ab2f,S
2020-02-23 14:02:55,36af1c17-4ecc-48e6-9738-ba9f4c26ab2f,A
2020-02-23 14:13:38,36af1c17-4ecc-48e6-9738-ba9f4c26ab2f,S
2020-02-23 14:19:22,36af1c17-4ecc-48e6-9738-ba9f4c26ab2f,A
2020-02-23 14:21:36,36af1c17-4ecc-48e6-9738-ba9f4c26ab2f,S
2020-02-23 14:25:02,36af1c17-4ecc-48e6-9738-ba9f4c26ab2f,A
2020-02-23 14:28:34,36af1c17-4ecc-48e6-9738-ba9f4c26ab2f,S
2020-02-23 13:20:09,23edaf5b-b73d-46c2-b7b5-c380002330df,A
2020-02-23 13:29:05,23edaf5b-b73d-46c2-b7b5-c380002330df,S
2020-02-23 13:39:48,23edaf5b-b73d-46c2-b7b5-c380002330df,A
2020-02-23 13:45:20,23edaf5b-b73d-46c2-b7b5-c380002330df,S
2020-02-23 13:47:58,23edaf5b-b73d-46c2-b7b5-c380002330df,A
2020-02-23 13:48:42,23edaf5b-b73d-46c2-b7b5-c380002330df,S
2020-02-23 13:53:22,23edaf5b-b73d-46c2-b7b5-c380002330df,A
2020-02-23 13:55:13,23edaf5b-b73d-46c2-b7b5-c380002330df,S
2020-02-23 14:08:28,23edaf5b-b73d-46c2-b7b5-c380002330df,A
2020-02-23 14:10:21,23edaf5b-b73d-46c2-b7b5-c380002330df,S
2020-02-23 14:16:32,23edaf5b-b73d-46c2-b7b5-c380002330df,A
2020-02-23 14:19:20,23edaf5b-b73d-46c2-b7b5-c380002330df,S
2020-02-23 14:21:08,23edaf5b-b73d-46c2-b7b5-c380002330df,A
2020-02-23 14:21:31,23edaf5b-b73d-46c2-b7b5-c380002330df,S
2020-02-23 14:22:10,23edaf5b-b73d-46c2-b7b5-c380002330df,A
2020-02-23 14:34:41,23edaf5b-b73d-46c2-b7b5-c380002330df,S
2020-02-23 14:34:42,23edaf5b-b73d-46c2-b7b5-c380002330df,A
2020-02-23 14:35:19,23edaf5b-b73d-46c2-b7b5-c380002330df,S
2020-02-23 14:35:47,23edaf5b-b73d-46c2-b7b5-c380002330df,A
2020-02-23 12:55:30,e04e46ce-3939-4199-bc12-811d4a298801,A
2020-02-23 13:02:23,e04e46ce-3939-4199-bc12-811d4a298801,S
2020-02-23 13:07:09,e04e46ce-3939-4199-bc12-811d4a298801,A
2020-02-23 13:13:43,e04e46ce-3939-4199-bc12-811d4a298801,S
2020-02-23 13:19:38,e04e46ce-3939-4199-bc12-811d4a298801,A
2020-02-23 13:30:16,e04e46ce-3939-4199-bc12-811d4a298801,S
2020-02-23 13:37:31,e04e46ce-3939-4199-bc12-811d4a298801,A
2020-02-23 13:39:58,e04e46ce-3939-4199-bc12-811d4a298801,S
2020-02-23 13:41:39,e04e46ce-3939-4199-bc12-811d4a298801,A
2020-02-23 13:46:16,e04e46ce-3939-4199-bc12-811d4a298801,S
2020-02-23 13:51:17,e04e46ce-3939-4199-bc12-811d4a298801,A
2020-02-23 14:01:12,e04e46ce-3939-4199-bc12-811d4a298801,S
2020-02-23 14:01:16,e04e46ce-3939-4199-bc12-811d4a298801,A
2020-02-23 14:05:56,e04e46ce-3939-4199-bc12-811d4a298801,S
2020-02-23 14:07:40,e04e46ce-3939-4199-bc12-811d4a298801,A
2020-02-23 14:14:23,e04e46ce-3939-4199-bc12-811d4a298801,S
2020-02-23 14:14:29,e04e46ce-3939-4199-bc12-811d4a298801,A
2020-02-23 14:17:12,e04e46ce-3939-4199-bc12-811d4a298801,S
2020-02-23 14:24:05,e04e46ce-3939-4199-bc12-811d4a298801,A
2020-02-23 13:26:02,39c2a2bb-186e-403a-9dd8-e150346de600,S
2020-02-23 13:26:51,39c2a2bb-186e-403a-9dd8-e150346de600,A
2020-02-23 13:39:27,39c2a2bb-186e-403a-9dd8-e150346de600,S
2020-02-23 13:40:33,39c2a2bb-186e-403a-9dd8-e150346de600,A
2020-02-23 13:42:38,39c2a2bb-186e-403a-9dd8-e150346de600,S
2020-02-23 14:07:31,39c2a2bb-186e-403a-9dd8-e150346de600,A
2020-02-23 14:19:21,39c2a2bb-186e-403a-9dd8-e150346de600,S
2020-02-23 14:23:42,39c2a2bb-186e-403a-9dd8-e150346de600,A
2020-02-23 14:23:43,39c2a2bb-186e-403a-9dd8-e150346de600,S
2020-02-23 14:27:52,39c2a2bb-186e-403a-9dd8-e150346de600,A
2020-02-23 14:32:04,39c2a2bb-186e-403a-9dd8-e150346de600,S
2020-02-23 14:41:26,39c2a2bb-186e-403a-9dd8-e150346de600,A
2020-02-23 13:24:47,b98f8c31-f02a-4d11-98a7-c206e5bb7d85,S
2020-02-23 13:30:10,b98f8c31-f02a-4d11-98a7-c206e5bb7d85,A
2020-02-23 13:31:35,b98f8c31-f02a-4d11-98a7-c206e5bb7d85,S
2020-02-23 13:33:45,b98f8c31-f02a-4d11-98a7-c206e5bb7d85,A
2020-02-23 13:40:47,b98f8c31-f02a-4d11-98a7-c206e5bb7d85,S
2020-02-23 13:46:53,b98f8c31-f02a-4d11-98a7-c206e5bb7d85,A
2020-02-23 13:50:49,b98f8c31-f02a-4d11-98a7-c206e5bb7d85,S
2020-02-23 13:54:10,b98f8c31-f02a-4d11-98a7-c206e5bb7d85,A
2020-02-23 13:55:45,b98f8c31-f02a-4d11-98a7-c206e5bb7d85,S
2020-02-23 13:55:55,b98f8c31-f02a-4d11-98a7-c206e5bb7d85,A
2020-02-23 13:58:15,b98f8c31-f02a-4d11-98a7-c206e5bb7d85,S
2020-02-23 14:02:32,b98f8c31-f02a-4d11-98a7-c206e5bb7d85,A
2020-02-23 14:05:26,b98f8c31-f02a-4d11-98a7-c206e5bb7d85,S
2020-02-23 14:06:21,b98f8c31-f02a-4d11-98a7-c206e5bb7d85,A
2020-02-23 14:16:45,b98f8c31-f02a-4d11-98a7-c206e5bb7d85,S
2020-02-23 14:16:48,b98f8c31-f02a-4d11-98a7-c206e5bb7d85,A
2020-02-23 14:17:20,b98f8c31-f02a-4d11-98a7-c206e5bb7d85,S
2020-02-23 14:17:49,b98f8c31-f02a-4d11-98a7-c206e5bb7d85,A
2020-02-23 14:18:02,b98f8c31-f02a-4d11-98a7-c206e5bb7d85,S
2020-02-23 14:21:57,b98f8c31-f02a-4d11-98a7-c206e5bb7d85,A
2020-02-23 14:29:46,b98f8c31-f02a-4d11-98a7-c206e5bb7d85,S
2020-02-23 14:35:45,b98f8c31-f02a-4d11-98a7-c206e5bb7d85,A
2020-02-23 14:38:38,b98f8c31-f02a-4d11-98a7-c206e5bb7d85,S
2020-02-23 14:40:38,b98f8c31-f02a-4d11-98a7-c206e5bb7d85,A
2020-02-23 13:26:31,19466008-d0c0-4cf6-b6ec-149395ea34cc,S
2020-02-23 13:40:05,19466008-d0c0-4cf6-b6ec-149395ea34cc,A
2020-02-23 13:44:58,19466008-d0c0-4cf6-b6ec-149395ea34cc,S
2020-02-23 13:45:31,19466008-d0c0-4cf6-b6ec-149395ea34cc,A
2020-02-23 13:49:23,19466008-d0c0-4cf6-b6ec-149395ea34cc,S
2020-02-23 13:50:04,19466008-d0c0-4cf6-b6ec-149395ea34cc,A
2020-02-23 13:58:43,19466008-d0c0-4cf6-b6ec-149395ea34cc,S
2020-02-23 13:59:46,19466008-d0c0-4cf6-b6ec-149395ea34cc,A
2020-02-23 14:02:02,19466008-d0c0-4cf6-b6ec-149395ea34cc,S
2020-02-23 14:04:12,19466008-d0c0-4cf6-b6ec-149395ea34cc,A
2020-02-23 14:06:34,19466008-d0c0-4cf6-b6ec-149395ea34cc,S
2020-02-23 14:10:25,19466008-d0c0-4cf6-b6ec-149395ea34cc,A
2020-02-23 14:11:36,19466008-d0c0-4cf6-b6ec-149395ea34cc,S
2020-02-23 14:12:27,19466008-d0c0-4cf6-b6ec-149395ea34cc,A
2020-02-23 14:14:36,19466008-d0c0-4cf6-b6ec-149395ea34cc,S
2020-02-23 14:14:59,19466008-d0c0-4cf6-b6ec-149395ea34cc,A
2020-02-23 14:15:15,19466008-d0c0-4cf6-b6ec-149395ea34cc,S
2020-02-23 14:19:47,19466008-d0c0-4cf6-b6ec-149395ea34cc,A
2020-02-23 14:20:37,19466008-d0c0-4cf6-b6ec-149395ea34cc,S
2020-02-23 14:30:09,19466008-d0c0-4cf6-b6ec-149395ea34cc,A
2020-02-23 14:36:12,19466008-d0c0-4cf6-b6ec-149395ea34cc,S
2020-02-23 14:44:10,19466008-d0c0-4cf6-b6ec-149395ea34cc,A
2020-02-23 13:16:28,dd57fcdd-4038-4055-add9-fc5e2f4a1a54,S
2020-02-23 13:18:23,dd57fcdd-4038-4055-add9-fc5e2f4a1a54,A
2020-02-23 13:21:32,dd57fcdd-4038-4055-add9-fc5e2f4a1a54,S
2020-02-23 13:22:01,dd57fcdd-4038-4055-add9-fc5e2f4a1a54,A
2020-02-23 13:25:10,dd57fcdd-4038-4055-add9-fc5e2f4a1a54,S
2020-02-23 13:27:10,dd57fcdd-4038-4055-add9-fc5e2f4a1a54,A
2020-02-23 13:31:26,dd57fcdd-4038-4055-add9-fc5e2f4a1a54,S
2020-02-23 13:32:23,dd57fcdd-4038-4055-add9-fc5e2f4a1a54,A
2020-02-23 13:33:13,dd57fcdd-4038-4055-add9-fc5e2f4a1a54,S
2020-02-23 13:40:40,dd57fcdd-4038-4055-add9-fc5e2f4a1a54,A
2020-02-23 13:42:52,dd57fcdd-4038-4055-add9-fc5e2f4a1a54,S
2020-02-23 13:46:24,dd57fcdd-4038-4055-add9-fc5e2f4a1a54,A
2020-02-23 13:54:41,dd57fcdd-4038-4055-add9-fc5e2f4a1a54,S
2020-02-23 14:02:05,dd57fcdd-4038-4055-add9-fc5e2f4a1a54,A
2020-02-23 14:04:07,dd57fcdd-4038-4055-add9-fc5e2f4a1a54,S
2020-02-23 14:06:52,dd57fcdd-4038-4055-add9-fc5e2f4a1a54,A
2020-02-23 14:07:57,dd57fcdd-4038-4055-add9-fc5e2f4a1a54,S
2020-02-23 14:09:15,dd57fcdd-4038-4055-add9-fc5e2f4a1a54,A
2020-02-23 14:10:47,dd57fcdd-4038-4055-add9-fc5e2f4a1a54,S
2020-02-23 14:18:54,dd57fcdd-4038-4055-add9-fc5e2f4a1a54,A
2020-02-23 14:19:05,dd57fcdd-4038-4055-add9-fc5e2f4a1a54,S
2020-02-23 14:19:16,dd57fcdd-4038-4055-add9-fc5e2f4a1a54,A
2020-02-23 14:23:07,dd57fcdd-4038-4055-add9-fc5e2f4a1a54,S
2020-02-23 14:25:31,dd57fcdd-4038-4055-add9-fc5e2f4a1a54,A
2020-02-23 14:26:15,dd57fcdd-4038-4055-add9-fc5e2f4a1a54,S
2020-02-23 14:27:33,dd57fcdd-4038-4055-add9-fc5e2f4a1a54,A
2020-02-23 14:28:27,dd57fcdd-4038-4055-add9-fc5e2f4a1a54,S
2020-02-23 14:36:49,dd57fcdd-4038-4055-add9-fc5e2f4a1a54,A
2020-02-23 14:38:03,dd57fcdd-4038-4055-add9-fc5e2f4a1a54,S
2020-02-23 12:40:27,8b1dde7c-55d8-499f-9663-1a3b1f744168,A
2020-02-23 12:56:30,8b1dde7c-55d8-499f-9663-1a3b1f744168,S
2020-02-23 12:59:43,8b1dde7c-55d8-499f-9663-1a3b1f744168,A
2020-02-23 13:02:29,8b1dde7c-55d8-499f-9663-1a3b1f744168,S
2020-02-23 13:03:00,8b1dde7c-55d8-499f-9663-1a3b1f744168,A
2020-02-23 13:16:58,8b1dde7c-55d8-499f-9663-1a3b1f744168,S
2020-02-23 13:20:27,8b1dde7c-55d8-499f-9663-1a3b1f744168,A
2020-02-23 13:23:19,8b1dde7c-55d8-499f-9663-1a3b1f744168,S
2020-02-23 13:27:19,8b1dde7c-55d8-499f-9663-1a3b1f744168,A
2020-02-23 13:40:43,8b1dde7c-55d8-499f-9663-1a3b1f744168,S
2020-02-23 13:40:53,8b1dde7c-55d8-499f-9663-1a3b1f744168,A
2020-02-23 13:49:35,8b1dde7c-55d8-499f-9663-1a3b1f744168,S
2020-02-23 13:53:52,8b1dde7c-55d8-499f-9663-1a3b1f744168,A
2020-02-23 14:00:28,8b1dde7c-55d8-499f-9663-1a3b1f744168,S
2020-02-23 14:03:00,8b1dde7c-55d8-499f-9663-1a3b1f744168,A
2020-02-23 14:14:11,8b1dde7c-55d8-499f-9663-1a3b1f744168,S
2020-02-23 14:16:06,8b1dde7c-55d8-499f-9663-1a3b1f744168,A
2020-02-23 14:17:03,8b1dde7c-55d8-499f-9663-1a3b1f744168,S
2020-02-23 14:19:56,8b1dde7c-55d8-499f-9663-1a3b1f744168,A
2020-02-23 14:25:55,8b1dde7c-55d8-499f-9663-1a3b1f744168,S
2020-02-23 14:34:42,8b1dde7c-55d8-499f-9663-1a3b1f744168,A
2020-02-23 14:37:45,8b1dde7c-55d8-499f-9663-1a3b1f744168,S
2020-02-23 14:39:37,8b1dde7c-55d8-499f-9663-1a3b1f744168,A
2020-02-23 14:41:46,8b1dde7c-55d8-499f-9663-1a3b1f744168,S
2020-02-23 13:28:16,090cde35-e033-40ba-a3de-e468ca527bcb,S
2020-02-23 13:29:30,090cde35-e033-40ba-a3de-e468ca527bcb,A
2020-02-23 13:35:15,090cde35-e033-40ba-a3de-e468ca527bcb,S
2020-02-23 13:48:35,090cde35-e033-40ba-a3de-e468ca527bcb,A
2020-02-23 13:56:20,090cde35-e033-40ba-a3de-e468ca527bcb,S
2020-02-23 13:58:51,090cde35-e033-40ba-a3de-e468ca527bcb,A
2020-02-23 14:15:14,090cde35-e033-40ba-a3de-e468ca527bcb,S
2020-02-23 14:21:21,090cde35-e033-40ba-a3de-e468ca527bcb,A
2020-02-23 14:36:10,090cde35-e033-40ba-a3de-e468ca527bcb,S
2020-02-23 14:41:24,090cde35-e033-40ba-a3de-e468ca527bcb,A
2020-02-23 14:43:58,090cde35-e033-40ba-a3de-e468ca527bcb,S
2020-02-23 13:24:48,fd7d26c2-9af5-4cea-a04c-b353585c101c,S
2020-02-23 13:27:00,fd7d26c2-9af5-4cea-a04c-b353585c101c,A
2020-02-23 13:29:45,fd7d26c2-9af5-4cea-a04c-b353585c101c,S
2020-02-23 13:46:41,fd7d26c2-9af5-4cea-a04c-b353585c101c,A
2020-02-23 13:48:22,fd7d26c2-9af5-4cea-a04c-b353585c101c,S
2020-02-23 13:49:28,fd7d26c2-9af5-4cea-a04c-b353585c101c,A
2020-02-23 13:54:43,fd7d26c2-9af5-4cea-a04c-b353585c101c,S
2020-02-23 14:03:21,fd7d26c2-9af5-4cea-a04c-b353585c101c,A
2020-02-23 14:05:18,fd7d26c2-9af5-4cea-a04c-b353585c101c,S
2020-02-23 14:12:53,fd7d26c2-9af5-4cea-a04c-b353585c101c,A
2020-02-23 14:13:42,fd7d26c2-9af5-4cea-a04c-b353585c101c,S
2020-02-23 14:25:29,fd7d26c2-9af5-4cea-a04c-b353585c101c,A
2020-02-23 14:33:21,fd7d26c2-9af5-4cea-a04c-b353585c101c,S
2020-02-23 14:35:00,fd7d26c2-9af5-4cea-a04c-b353585c101c,A
2020-02-23 14:38:49,fd7d26c2-9af5-4cea-a04c-b353585c101c,S
2020-02-23 14:41:07,fd7d26c2-9af5-4cea-a04c-b353585c101c,A
2020-02-23 12:48:38,267632e1-b152-4fb7-a57f-9e6213fc142d,S
2020-02-23 12:52:05,267632e1-b152-4fb7-a57f-9e6213fc142d,A
2020-02-23 12:58:07,267632e1-b152-4fb7-a57f-9e6213fc142d,S
2020-02-23 13:08:04,267632e1-b152-4fb7-a57f-9e6213fc142d,A
2020-02-23 13:28:12,267632e1-b152-4fb7-a57f-9e6213fc142d,S
2020-02-23 13:34:08,267632e1-b152-4fb7-a57f-9e6213fc142d,A
2020-02-23 13:44:57,267632e1-b152-4fb7-a57f-9e6213fc142d,S
2020-02-23 13:50:23,267632e1-b152-4fb7-a57f-9e6213fc142d,A
2020-02-23 13:54:39,267632e1-b152-4fb7-a57f-9e6213fc142d,S
2020-02-23 14:00:13,267632e1-b152-4fb7-a57f-9e6213fc142d,A
2020-02-23 14:00:24,267632e1-b152-4fb7-a57f-9e6213fc142d,S
2020-02-23 14:02:08,267632e1-b152-4fb7-a57f-9e6213fc142d,A
2020-02-23 14:08:03,267632e1-b152-4fb7-a57f-9e6213fc142d,S
2020-02-23 14:09:46,267632e1-b152-4fb7-a57f-9e6213fc142d,A
2020-02-23 14:14:17,267632e1-b152-4fb7-a57f-9e6213fc142d,S
2020-02-23 14:17:51,267632e1-b152-4fb7-a57f-9e6213fc142d,A
2020-02-23 14:23:10,267632e1-b152-4fb7-a57f-9e6213fc142d,S
2020-02-23 14:30:54,267632e1-b152-4fb7-a57f-9e6213fc142d,A
2020-02-23 13:13:56,40eb08ea-4a94-4422-81ac-8c3d88e7a0b9,A
2020-02-23 13:14:25,40eb08ea-4a94-4422-81ac-8c3d88e7a0b9,S
2020-02-23 13:22:55,40eb08ea-4a94-4422-81ac-8c3d88e7a0b9,A
2020-02-23 13:10:49,7caaeaf4-719e-4c90-bdb0-e6b24605fcd0,S
2020-02-23 13:11:31,7caaeaf4-719e-4c90-bdb0-e6b24605fcd0,A
2020-02-23 13:27:12,7caaeaf4-719e-4c90-bdb0-e6b24605fcd0,S
2020-02-23 13:34:26,7caaeaf4-719e-4c90-bdb0-e6b24605fcd0,A
2020-02-23 13:34:48,7caaeaf4-719e-4c90-bdb0-e6b24605fcd0,S
2020-02-23 13:35:18,7caaeaf4-719e-4c90-bdb0-e6b24605fcd0,A
2020-02-23 13:36:24,7caaeaf4-719e-4c90-bdb0-e6b24605fcd0,S
2020-02-23 13:44:12,7caaeaf4-719e-4c90-bdb0-e6b24605fcd0,A
2020-02-23 13:46:42,7caaeaf4-719e-4c90-bdb0-e6b24605fcd0,S
2020-02-23 13:47:40,7caaeaf4-719e-4c90-bdb0-e6b24605fcd0,A
2020-02-23 13:52:39,7caaeaf4-719e-4c90-bdb0-e6b24605fcd0,S
2020-02-23 13:56:05,7caaeaf4-719e-4c90-bdb0-e6b24605fcd0,A
2020-02-23 14:03:47,7caaeaf4-719e-4c90-bdb0-e6b24605fcd0,S
2020-02-23 14:07:19,7caaeaf4-719e-4c90-bdb0-e6b24605fcd0,A
2020-02-23 14:08:23,7caaeaf4-719e-4c90-bdb0-e6b24605fcd0,S
2020-02-23 14:09:41,7caaeaf4-719e-4c90-bdb0-e6b24605fcd0,A
2020-02-23 14:18:50,7caaeaf4-719e-4c90-bdb0-e6b24605fcd0,S
2020-02-23 14:19:57,7caaeaf4-719e-4c90-bdb0-e6b24605fcd0,A
2020-02-23 14:22:35,7caaeaf4-719e-4c90-bdb0-e6b24605fcd0,S
2020-02-23 14:24:41,7caaeaf4-719e-4c90-bdb0-e6b24605fcd0,A
2020-02-23 14:33:14,7caaeaf4-719e-4c90-bdb0-e6b24605fcd0,S
2020-02-23 14:35:28,7caaeaf4-719e-4c90-bdb0-e6b24605fcd0,A
2020-02-23 14:40:25,7caaeaf4-719e-4c90-bdb0-e6b24605fcd0,S
2020-02-23 14:43:52,7caaeaf4-719e-4c90-bdb0-e6b24605fcd0,A
2020-02-23 14:44:27,7caaeaf4-719e-4c90-bdb0-e6b24605fcd0,S
2020-02-23 13:25:48,d03a91a8-e19b-41ee-9577-7c3e4bcd8821,A
2020-02-23 13:59:34,d03a91a8-e19b-41ee-9577-7c3e4bcd8821,S
2020-02-23 14:00:02,d03a91a8-e19b-41ee-9577-7c3e4bcd8821,A
2020-02-23 14:29:18,d03a91a8-e19b-41ee-9577-7c3e4bcd8821,S
2020-02-23 14:32:22,d03a91a8-e19b-41ee-9577-7c3e4bcd8821,A
2020-02-23 14:34:50,d03a91a8-e19b-41ee-9577-7c3e4bcd8821,S
2020-02-23 14:36:22,d03a91a8-e19b-41ee-9577-7c3e4bcd8821,A
2020-02-23 14:37:08,d03a91a8-e19b-41ee-9577-7c3e4bcd8821,S
2020-02-23 14:40:23,d03a91a8-e19b-41ee-9577-7c3e4bcd8821,A
2020-02-23 12:49:43,953030fc-8d05-4754-a9c6-fa2658071b1f,S
2020-02-23 12:53:50,953030fc-8d05-4754-a9c6-fa2658071b1f,A
2020-02-23 13:04:14,953030fc-8d05-4754-a9c6-fa2658071b1f,S
2020-02-23 13:05:48,953030fc-8d05-4754-a9c6-fa2658071b1f,A
2020-02-23 13:13:18,953030fc-8d05-4754-a9c6-fa2658071b1f,S
2020-02-23 13:13:33,953030fc-8d05-4754-a9c6-fa2658071b1f,A
2020-02-23 13:14:58,953030fc-8d05-4754-a9c6-fa2658071b1f,S
2020-02-23 13:32:15,953030fc-8d05-4754-a9c6-fa2658071b1f,A
2020-02-23 13:38:01,953030fc-8d05-4754-a9c6-fa2658071b1f,S
2020-02-23 13:41:36,953030fc-8d05-4754-a9c6-fa2658071b1f,A
2020-02-23 13:44:47,953030fc-8d05-4754-a9c6-fa2658071b1f,S
2020-02-23 13:45:04,953030fc-8d05-4754-a9c6-fa2658071b1f,A
2020-02-23 14:03:39,953030fc-8d05-4754-a9c6-fa2658071b1f,S
2020-02-23 14:04:05,953030fc-8d05-4754-a9c6-fa2658071b1f,A
2020-02-23 14:06:56,953030fc-8d05-4754-a9c6-fa2658071b1f,S
2020-02-23 14:20:29,953030fc-8d05-4754-a9c6-fa2658071b1f,A
2020-02-23 14:23:47,953030fc-8d05-4754-a9c6-fa2658071b1f,S
2020-02-23 14:26:14,953030fc-8d05-4754-a9c6-fa2658071b1f,A
2020-02-23 14:26:51,953030fc-8d05-4754-a9c6-fa2658071b1f,S
2020-02-23 14:32:05,953030fc-8d05-4754-a9c6-fa2658071b1f,A
2020-02-23 14:36:45,953030fc-8d05-4754-a9c6-fa2658071b1f,S
2020-02-23 14:40:42,953030fc-8d05-4754-a9c6-fa2658071b1f,A
2020-02-23 14:42:34,953030fc-8d05-4754-a9c6-fa2658071b1f,S
2020-02-23 14:43:32,953030fc-8d05-4754-a9c6-fa2658071b1f,A
2020-02-23 12:49:17,c2d4eded-edd1-4d22-b057-d163186210be,S
2020-02-23 13:05:25,c2d4eded-edd1-4d22-b057-d163186210be,A
2020-02-23 13:06:37,c2d4eded-edd1-4d22-b057-d163186210be,S
2020-02-23 13:11:26,c2d4eded-edd1-4d22-b057-d163186210be,A
2020-02-23 13:12:32,c2d4eded-edd1-4d22-b057-d163186210be,S
2020-02-23 13:15:19,c2d4eded-edd1-4d22-b057-d163186210be,A
2020-02-23 13:20:31,c2d4eded-edd1-4d22-b057-d163186210be,S
2020-02-23 13:22:41,c2d4eded-edd1-4d22-b057-d163186210be,A
2020-02-23 13:26:10,c2d4eded-edd1-4d22-b057-d163186210be,S
2020-02-23 13:31:45,c2d4eded-edd1-4d22-b057-d163186210be,A
2020-02-23 13:42:16,c2d4eded-edd1-4d22-b057-d163186210be,S
2020-02-23 13:47:57,c2d4eded-edd1-4d22-b057-d163186210be,A
2020-02-23 13:49:54,c2d4eded-edd1-4d22-b057-d163186210be,S
2020-02-23 13:51:56,c2d4eded-edd1-4d22-b057-d163186210be,A
2020-02-23 14:00:13,c2d4eded-edd1-4d22-b057-d163186210be,S
2020-02-23 14:02:23,c2d4eded-edd1-4d22-b057-d163186210be,A
2020-02-23 14:07:17,c2d4eded-edd1-4d22-b057-d163186210be,S
2020-02-23 14:10:16,c2d4eded-edd1-4d22-b057-d163186210be,A
2020-02-23 14:11:24,c2d4eded-edd1-4d22-b057-d163186210be,S
2020-02-23 14:16:19,c2d4eded-edd1-4d22-b057-d163186210be,A
2020-02-23 14:19:11,c2d4eded-edd1-4d22-b057-d163186210be,S
2020-02-23 14:23:01,c2d4eded-edd1-4d22-b057-d163186210be,A
2020-02-23 14:25:21,c2d4eded-edd1-4d22-b057-d163186210be,S
2020-02-23 14:29:07,c2d4eded-edd1-4d22-b057-d163186210be,A
2020-02-23 14:34:32,c2d4eded-edd1-4d22-b057-d163186210be,S
2020-02-23 14:35:39,c2d4eded-edd1-4d22-b057-d163186210be,A
2020-02-23 14:41:24,c2d4eded-edd1-4d22-b057-d163186210be,S
2020-02-23 14:42:21,c2d4eded-edd1-4d22-b057-d163186210be,A
2020-02-23 14:43:51,c2d4eded-edd1-4d22-b057-d163186210be,S
2020-02-23 14:44:23,c2d4eded-edd1-4d22-b057-d163186210be,A
2020-02-23 13:03:13,62f58d57-ccdd-4612-b0e9-981577aec849,A
2020-02-23 13:09:16,62f58d57-ccdd-4612-b0e9-981577aec849,S
2020-02-23 13:11:47,62f58d57-ccdd-4612-b0e9-981577aec849,A
2020-02-23 13:12:31,62f58d57-ccdd-4612-b0e9-981577aec849,S
2020-02-23 13:12:34,62f58d57-ccdd-4612-b0e9-981577aec849,A
2020-02-23 13:15:25,62f58d57-ccdd-4612-b0e9-981577aec849,S
2020-02-23 13:23:41,62f58d57-ccdd-4612-b0e9-981577aec849,A
2020-02-23 13:26:26,62f58d57-ccdd-4612-b0e9-981577aec849,S
2020-02-23 13:26:29,62f58d57-ccdd-4612-b0e9-981577aec849,A
2020-02-23 13:32:35,62f58d57-ccdd-4612-b0e9-981577aec849,S
2020-02-23 13:36:58,62f58d57-ccdd-4612-b0e9-981577aec849,A
2020-02-23 13:44:18,62f58d57-ccdd-4612-b0e9-981577aec849,S
2020-02-23 13:45:28,62f58d57-ccdd-4612-b0e9-981577aec849,A
2020-02-23 13:49:24,62f58d57-ccdd-4612-b0e9-981577aec849,S
2020-02-23 13:50:11,62f58d57-ccdd-4612-b0e9-981577aec849,A
2020-02-23 13:50:29,62f58d57-ccdd-4612-b0e9-981577aec849,S
2020-02-23 14:01:02,62f58d57-ccdd-4612-b0e9-981577aec849,A
2020-02-23 14:02:25,62f58d57-ccdd-4612-b0e9-981577aec849,S
2020-02-23 14:08:10,62f58d57-ccdd-4612-b0e9-981577aec849,A
2020-02-23 14:12:36,62f58d57-ccdd-4612-b0e9-981577aec849,S
2020-02-23 14:13:55,62f58d57-ccdd-4612-b0e9-981577aec849,A
2020-02-23 14:16:43,62f58d57-ccdd-4612-b0e9-981577aec849,S
2020-02-23 14:18:07,62f58d57-ccdd-4612-b0e9-981577aec849,A
2020-02-23 14:26:56,62f58d57-ccdd-4612-b0e9-981577aec849,S
2020-02-23 14:28:26,62f58d57-ccdd-4612-b0e9-981577aec849,A
2020-02-23 14:32:05,62f58d57-ccdd-4612-b0e9-981577aec849,S
2020-02-23 14:32:22,62f58d57-ccdd-4612-b0e9-981577aec849,A
2020-02-23 14:36:20,62f58d57-ccdd-4612-b0e9-981577aec849,S
2020-02-23 13:19:18,618a43fc-5612-4544-8807-3dbb5efdbf89,S
2020-02-23 13:20:01,618a43fc-5612-4544-8807-3dbb5efdbf89,A
2020-02-23 13:23:32,618a43fc-5612-4544-8807-3dbb5efdbf89,S
2020-02-23 13:27:34,618a43fc-5612-4544-8807-3dbb5efdbf89,A
2020-02-23 13:35:23,618a43fc-5612-4544-8807-3dbb5efdbf89,S
2020-02-23 13:41:52,618a43fc-5612-4544-8807-3dbb5efdbf89,A
2020-02-23 13:46:03,618a43fc-5612-4544-8807-3dbb5efdbf89,S
2020-02-23 13:47:28,618a43fc-5612-4544-8807-3dbb5efdbf89,A
2020-02-23 13:57:52,618a43fc-5612-4544-8807-3dbb5efdbf89,S
2020-02-23 13:58:08,618a43fc-5612-4544-8807-3dbb5efdbf89,A
2020-02-23 13:58:24,618a43fc-5612-4544-8807-3dbb5efdbf89,S
2020-02-23 13:59:53,618a43fc-5612-4544-8807-3dbb5efdbf89,A
2020-02-23 14:07:44,618a43fc-5612-4544-8807-3dbb5efdbf89,S
2020-02-23 14:11:40,618a43fc-5612-4544-8807-3dbb5efdbf89,A
2020-02-23 14:14:19,618a43fc-5612-4544-8807-3dbb5efdbf89,S
2020-02-23 14:16:46,618a43fc-5612-4544-8807-3dbb5efdbf89,A
2020-02-23 14:18:53,618a43fc-5612-4544-8807-3dbb5efdbf89,S
2020-02-23 14:23:34,618a43fc-5612-4544-8807-3dbb5efdbf89,A
2020-02-23 14:29:55,618a43fc-5612-4544-8807-3dbb5efdbf89,S
2020-02-23 14:30:05,618a43fc-5612-4544-8807-3dbb5efdbf89,A
2020-02-23 14:30:45,618a43fc-5612-4544-8807-3dbb5efdbf89,S
2020-02-23 14:33:03,618a43fc-5612-4544-8807-3dbb5efdbf89,A
2020-02-23 13:20:01,32cbe983-4483-45d9-a7f0-ee0704dacaa4,A
2020-02-23 13:34:44,32cbe983-4483-45d9-a7f0-ee0704dacaa4,S
2020-02-23 13:36:50,32cbe983-4483-45d9-a7f0-ee0704dacaa4,A
2020-02-23 13:45:56,32cbe983-4483-45d9-a7f0-ee0704dacaa4,S
2020-02-23 13:57:28,32cbe983-4483-45d9-a7f0-ee0704dacaa4,A
2020-02-23 14:03:40,32cbe983-4483-45d9-a7f0-ee0704dacaa4,S
2020-02-23 14:10:21,32cbe983-4483-45d9-a7f0-ee0704dacaa4,A
2020-02-23 14:10:45,32cbe983-4483-45d9-a7f0-ee0704dacaa4,S
2020-02-23 14:11:52,32cbe983-4483-45d9-a7f0-ee0704dacaa4,A
2020-02-23 14:16:11,32cbe983-4483-45d9-a7f0-ee0704dacaa4,S
2020-02-23 14:16:43,32cbe983-4483-45d9-a7f0-ee0704dacaa4,A
2020-02-23 14:23:22,32cbe983-4483-45d9-a7f0-ee0704dacaa4,S
2020-02-23 14:26:05,32cbe983-4483-45d9-a7f0-ee0704dacaa4,A
2020-02-23 14:27:52,32cbe983-4483-45d9-a7f0-ee0704dacaa4,S
2020-02-23 14:31:39,32cbe983-4483-45d9-a7f0-ee0704dacaa4,A
2020-02-23 14:37:55,32cbe983-4483-45d9-a7f0-ee0704dacaa4,S
2020-02-23 14:38:08,32cbe983-4483-45d9-a7f0-ee0704dacaa4,A
2020-02-23 14:40:44,32cbe983-4483-45d9-a7f0-ee0704dacaa4,S
2020-02-23 12:53:07,6228dbe0-773b-4615-87a0-27ea445b0c3a,A
2020-02-23 12:55:57,6228dbe0-773b-4615-87a0-27ea445b0c3a,S
2020-02-23 13:01:04,6228dbe0-773b-4615-87a0-27ea445b0c3a,A
2020-02-23 13:16:32,6228dbe0-773b-4615-87a0-27ea445b0c3a,S
2020-02-23 13:25:34,6228dbe0-773b-4615-87a0-27ea445b0c3a,A
2020-02-23 13:35:17,6228dbe0-773b-4615-87a0-27ea445b0c3a,S
2020-02-23 13:43:48,6228dbe0-773b-4615-87a0-27ea445b0c3a,A
2020-02-23 13:44:34,6228dbe0-773b-4615-87a0-27ea445b0c3a,S
2020-02-23 13:44:52,6228dbe0-773b-4615-87a0-27ea445b0c3a,A
2020-02-23 13:53:31,6228dbe0-773b-4615-87a0-27ea445b0c3a,S
2020-02-23 13:56:30,6228dbe0-773b-4615-87a0-27ea445b0c3a,A
2020-02-23 13:56:32,6228dbe0-773b-4615-87a0-27ea445b0c3a,S
2020-02-23 13:57:44,6228dbe0-773b-4615-87a0-27ea445b0c3a,A
2020-02-23 13:59:34,6228dbe0-773b-4615-87a0-27ea445b0c3a,S
2020-02-23 14:01:24,6228dbe0-773b-4615-87a0-27ea445b0c3a,A
2020-02-23 14:02:24,6228dbe0-773b-4615-87a0-27ea445b0c3a,S
2020-02-23 14:04:07,6228dbe0-773b-4615-87a0-27ea445b0c3a,A
2020-02-23 14:13:22,6228dbe0-773b-4615-87a0-27ea445b0c3a,S
2020-02-23 14:15:29,6228dbe0-773b-4615-87a0-27ea445b0c3a,A
2020-02-23 14:16:28,6228dbe0-773b-4615-87a0-27ea445b0c3a,S
2020-02-23 14:18:55,6228dbe0-773b-4615-87a0-27ea445b0c3a,A
2020-02-23 14:27:40,6228dbe0-773b-4615-87a0-27ea445b0c3a,S
2020-02-23 14:29:57,6228dbe0-773b-4615-87a0-27ea445b0c3a,A
2020-02-23 14:34:50,6228dbe0-773b-4615-87a0-27ea445b0c3a,S
2020-02-23 14:34:57,6228dbe0-773b-4615-87a0-27ea445b0c3a,A
2020-02-23 14:35:36,6228dbe0-773b-4615-87a0-27ea445b0c3a,S
2020-02-23 14:39:05,6228dbe0-773b-4615-87a0-27ea445b0c3a,A
2020-02-23 14:40:31,6228dbe0-773b-4615-87a0-27ea445b0c3a,S
2020-02-23 14:46:11,6228dbe0-773b-4615-87a0-27ea445b0c3a,A
2020-02-23 14:46:39,6228dbe0-773b-4615-87a0-27ea445b0c3a,S
2020-02-23 13:18:14,c1df9232-bafb-4a40-a91c-29b15dd8ba44,A
2020-02-23 13:24:03,14ae37e2-9ec5-45e4-aa25-9bbcfb60a18b,A
2020-02-23 12:43:10,29a1441c-926f-4a93-a493-a74bd67383ca,S
2020-02-23 12:44:42,29a1441c-926f-4a93-a493-a74bd67383ca,A
2020-02-23 12:45:32,29a1441c-926f-4a93-a493-a74bd67383ca,S
2020-02-23 12:45:37,29a1441c-926f-4a93-a493-a74bd67383ca,A
2020-02-23 12:45:43,29a1441c-926f-4a93-a493-a74bd67383ca,S
2020-02-23 12:46:07,29a1441c-926f-4a93-a493-a74bd67383ca,A
2020-02-23 12:50:52,29a1441c-926f-4a93-a493-a74bd67383ca,S
2020-02-23 12:55:01,29a1441c-926f-4a93-a493-a74bd67383ca,A
2020-02-23 12:56:49,29a1441c-926f-4a93-a493-a74bd67383ca,S
2020-02-23 12:59:02,29a1441c-926f-4a93-a493-a74bd67383ca,A
2020-02-23 13:09:40,29a1441c-926f-4a93-a493-a74bd67383ca,S
2020-02-23 13:11:43,29a1441c-926f-4a93-a493-a74bd67383ca,A
2020-02-23 13:20:52,29a1441c-926f-4a93-a493-a74bd67383ca,S
2020-02-23 13:23:27,29a1441c-926f-4a93-a493-a74bd67383ca,A
2020-02-23 13:32:03,29a1441c-926f-4a93-a493-a74bd67383ca,S
2020-02-23 13:34:05,29a1441c-926f-4a93-a493-a74bd67383ca,A
2020-02-23 13:35:53,29a1441c-926f-4a93-a493-a74bd67383ca,S
2020-02-23 13:38:57,29a1441c-926f-4a93-a493-a74bd67383ca,A
2020-02-23 13:39:04,29a1441c-926f-4a93-a493-a74bd67383ca,S
2020-02-23 13:51:08,29a1441c-926f-4a93-a493-a74bd67383ca,A
2020-02-23 13:54:46,29a1441c-926f-4a93-a493-a74bd67383ca,S
2020-02-23 14:06:30,29a1441c-926f-4a93-a493-a74bd67383ca,A
2020-02-23 14:07:15,29a1441c-926f-4a93-a493-a74bd67383ca,S
2020-02-23 14:14:08,29a1441c-926f-4a93-a493-a74bd67383ca,A
2020-02-23 14:15:28,29a1441c-926f-4a93-a493-a74bd67383ca,S
2020-02-23 14:17:55,29a1441c-926f-4a93-a493-a74bd67383ca,A
2020-02-23 14:26:20,29a1441c-926f-4a93-a493-a74bd67383ca,S
2020-02-23 14:34:30,29a1441c-926f-4a93-a493-a74bd67383ca,A
2020-02-23 14:44:39,29a1441c-926f-4a93-a493-a74bd67383ca,S
2020-02-23 14:46:37,29a1441c-926f-4a93-a493-a74bd67383ca,A
2020-02-23 13:19:09,8db5572b-05da-4b5c-8953-d4bc43a092bd,S
2020-02-23 13:21:04,8db5572b-05da-4b5c-8953-d4bc43a092bd,A
2020-02-23 13:21:33,8db5572b-05da-4b5c-8953-d4bc43a092bd,S
2020-02-23 13:29:52,8db5572b-05da-4b5c-8953-d4bc43a092bd,A
2020-02-23 13:32:44,8db5572b-05da-4b5c-8953-d4bc43a092bd,S
2020-02-23 13:39:05,8db5572b-05da-4b5c-8953-d4bc43a092bd,A
2020-02-23 13:43:40,8db5572b-05da-4b5c-8953-d4bc43a092bd,S
2020-02-23 13:44:54,8db5572b-05da-4b5c-8953-d4bc43a092bd,A
2020-02-23 13:53:37,8db5572b-05da-4b5c-8953-d4bc43a092bd,S
2020-02-23 13:55:12,8db5572b-05da-4b5c-8953-d4bc43a092bd,A
2020-02-23 14:03:14,8db5572b-05da-4b5c-8953-d4bc43a092bd,S
2020-02-23 14:03:26,8db5572b-05da-4b5c-8953-d4bc43a092bd,A
2020-02-23 14:10:02,8db5572b-05da-4b5c-8953-d4bc43a092bd,S
2020-02-23 14:14:56,8db5572b-05da-4b5c-8953-d4bc43a092bd,A
2020-02-23 14:15:51,8db5572b-05da-4b5c-8953-d4bc43a092bd,S
2020-02-23 14:17:47,8db5572b-05da-4b5c-8953-d4bc43a092bd,A
2020-02-23 14:17:49,8db5572b-05da-4b5c-8953-d4bc43a092bd,S
2020-02-23 14:19:09,8db5572b-05da-4b5c-8953-d4bc43a092bd,A
2020-02-23 14:21:55,8db5572b-05da-4b5c-8953-d4bc43a092bd,S
2020-02-23 14:29:22,8db5572b-05da-4b5c-8953-d4bc43a092bd,A
2020-02-23 14:30:55,8db5572b-05da-4b5c-8953-d4bc43a092bd,S
2020-02-23 14:31:30,8db5572b-05da-4b5c-8953-d4bc43a092bd,A
2020-02-23 14:38:33,8db5572b-05da-4b5c-8953-d4bc43a092bd,S
2020-02-23 14:42:02,8db5572b-05da-4b5c-8953-d4bc43a092bd,A
2020-02-23 12:48:46,23215ae0-44f3-4e4a-b006-6b6519ef2b89,S
2020-02-23 12:53:44,23215ae0-44f3-4e4a-b006-6b6519ef2b89,A
2020-02-23 12:54:05,23215ae0-44f3-4e4a-b006-6b6519ef2b89,S
2020-02-23 12:58:50,23215ae0-44f3-4e4a-b006-6b6519ef2b89,A
2020-02-23 13:03:47,23215ae0-44f3-4e4a-b006-6b6519ef2b89,S
2020-02-23 13:05:49,23215ae0-44f3-4e4a-b006-6b6519ef2b89,A
2020-02-23 13:15:54,23215ae0-44f3-4e4a-b006-6b6519ef2b89,S
2020-02-23 13:18:35,23215ae0-44f3-4e4a-b006-6b6519ef2b89,A
2020-02-23 13:19:30,23215ae0-44f3-4e4a-b006-6b6519ef2b89,S
2020-02-23 13:27:32,23215ae0-44f3-4e4a-b006-6b6519ef2b89,A
2020-02-23 13:36:20,23215ae0-44f3-4e4a-b006-6b6519ef2b89,S
2020-02-23 13:38:30,23215ae0-44f3-4e4a-b006-6b6519ef2b89,A
2020-02-23 13:38:39,23215ae0-44f3-4e4a-b006-6b6519ef2b89,S
2020-02-23 13:57:56,23215ae0-44f3-4e4a-b006-6b6519ef2b89,A
2020-02-23 14:00:10,23215ae0-44f3-4e4a-b006-6b6519ef2b89,S
2020-02-23 14:17:44,23215ae0-44f3-4e4a-b006-6b6519ef2b89,A
2020-02-23 14:27:55,23215ae0-44f3-4e4a-b006-6b6519ef2b89,S
2020-02-23 14:43:46,23215ae0-44f3-4e4a-b006-6b6519ef2b89,A
2020-02-23 14:44:59,23215ae0-44f3-4e4a-b006-6b6519ef2b89,S
2020-02-23 12:57:46,ad7fc419-ec7d-4ccc-bc0f-0f37361cf59f,S
2020-02-23 13:05:25,ad7fc419-ec7d-4ccc-bc0f-0f37361cf59f,A
2020-02-23 13:07:21,ad7fc419-ec7d-4ccc-bc0f-0f37361cf59f,S
2020-02-23 13:18:39,ad7fc419-ec7d-4ccc-bc0f-0f37361cf59f,A
2020-02-23 13:20:29,ad7fc419-ec7d-4ccc-bc0f-0f37361cf59f,S
2020-02-23 13:21:10,ad7fc419-ec7d-4ccc-bc0f-0f37361cf59f,A
2020-02-23 13:30:41,ad7fc419-ec7d-4ccc-bc0f-0f37361cf59f,S
2020-02-23 13:33:56,ad7fc419-ec7d-4ccc-bc0f-0f37361cf59f,A
2020-02-23 13:34:32,ad7fc419-ec7d-4ccc-bc0f-0f37361cf59f,S
2020-02-23 13:35:03,ad7fc419-ec7d-4ccc-bc0f-0f37361cf59f,A
2020-02-23 13:40:07,ad7fc419-ec7d-4ccc-bc0f-0f37361cf59f,S
2020-02-23 13:40:32,ad7fc419-ec7d-4ccc-bc0f-0f37361cf59f,A
2020-02-23 13:40:55,ad7fc419-ec7d-4ccc-bc0f-0f37361cf59f,S
2020-02-23 13:41:40,ad7fc419-ec7d-4ccc-bc0f-0f37361cf59f,A
2020-02-23 13:43:31,ad7fc419-ec7d-4ccc-bc0f-0f37361cf59f,S
2020-02-23 13:44:23,ad7fc419-ec7d-4ccc-bc0f-0f37361cf59f,A
2020-02-23 13:54:57,ad7fc419-ec7d-4ccc-bc0f-0f37361cf59f,S
2020-02-23 13:56:09,ad7fc419-ec7d-4ccc-bc0f-0f37361cf59f,A
2020-02-23 14:03:01,ad7fc419-ec7d-4ccc-bc0f-0f37361cf59f,S
2020-02-23 14:11:42,ad7fc419-ec7d-4ccc-bc0f-0f37361cf59f,A
2020-02-23 14:14:49,ad7fc419-ec7d-4ccc-bc0f-0f37361cf59f,S
2020-02-23 14:18:25,ad7fc419-ec7d-4ccc-bc0f-0f37361cf59f,A
2020-02-23 14:18:41,ad7fc419-ec7d-4ccc-bc0f-0f37361cf59f,S
2020-02-23 14:25:46,ad7fc419-ec7d-4ccc-bc0f-0f37361cf59f,A
2020-02-23 14:25:54,ad7fc419-ec7d-4ccc-bc0f-0f37361cf59f,S
2020-02-23 14:26:20,ad7fc419-ec7d-4ccc-bc0f-0f37361cf59f,A
2020-02-23 14:26:57,ad7fc419-ec7d-4ccc-bc0f-0f37361cf59f,S
2020-02-23 14:29:02,ad7fc419-ec7d-4ccc-bc0f-0f37361cf59f,A
2020-02-23 14:29:05,ad7fc419-ec7d-4ccc-bc0f-0f37361cf59f,S
2020-02-23 14:40:51,ad7fc419-ec7d-4ccc-bc0f-0f37361cf59f,A
2020-02-23 14:44:15,ad7fc419-ec7d-4ccc-bc0f-0f37361cf59f,S
2020-02-23 14:46:07,ad7fc419-ec7d-4ccc-bc0f-0f37361cf59f,A
2020-02-23 12:51:09,25319355-ec7b-4f04-a3e3-7ddb7e274d31,S
2020-02-23 12:57:21,25319355-ec7b-4f04-a3e3-7ddb7e274d31,A
2020-02-23 13:01:45,25319355-ec7b-4f04-a3e3-7ddb7e274d31,S
2020-02-23 13:12:17,25319355-ec7b-4f04-a3e3-7ddb7e274d31,A
2020-02-23 13:12:37,25319355-ec7b-4f04-a3e3-7ddb7e274d31,S
2020-02-23 13:18:05,25319355-ec7b-4f04-a3e3-7ddb7e274d31,A
2020-02-23 13:18:40,25319355-ec7b-4f04-a3e3-7ddb7e274d31,S
2020-02-23 13:19:17,25319355-ec7b-4f04-a3e3-7ddb7e274d31,A
2020-02-23 13:21:49,25319355-ec7b-4f04-a3e3-7ddb7e274d31,S
2020-02-23 13:22:09,25319355-ec7b-4f04-a3e3-7ddb7e274d31,A
2020-02-23 13:23:00,25319355-ec7b-4f04-a3e3-7ddb7e274d31,S
2020-02-23 13:38:33,25319355-ec7b-4f04-a3e3-7ddb7e274d31,A
2020-02-23 13:39:52,25319355-ec7b-4f04-a3e3-7ddb7e274d31,S
2020-02-23 13:43:01,25319355-ec7b-4f04-a3e3-7ddb7e274d31,A
2020-02-23 13:54:54,25319355-ec7b-4f04-a3e3-7ddb7e274d31,S
2020-02-23 13:56:21,25319355-ec7b-4f04-a3e3-7ddb7e274d31,A
2020-02-23 13:57:30,25319355-ec7b-4f04-a3e3-7ddb7e274d31,S
2020-02-23 13:58:21,25319355-ec7b-4f04-a3e3-7ddb7e274d31,A
2020-02-23 13:58:44,25319355-ec7b-4f04-a3e3-7ddb7e274d31,S
2020-02-23 14:05:14,25319355-ec7b-4f04-a3e3-7ddb7e274d31,A
2020-02-23 14:35:53,25319355-ec7b-4f04-a3e3-7ddb7e274d31,S
2020-02-23 14:39:39,25319355-ec7b-4f04-a3e3-7ddb7e274d31,A
2020-02-23 13:10:54,bb493158-ad58-4430-bf97-44666fe1da86,A
2020-02-23 13:22:25,bb493158-ad58-4430-bf97-44666fe1da86,S
2020-02-23 13:32:21,bb493158-ad58-4430-bf97-44666fe1da86,A
2020-02-23 13:37:48,bb493158-ad58-4430-bf97-44666fe1da86,S
2020-02-23 13:38:31,bb493158-ad58-4430-bf97-44666fe1da86,A
2020-02-23 13:39:28,bb493158-ad58-4430-bf97-44666fe1da86,S
2020-02-23 13:41:25,bb493158-ad58-4430-bf97-44666fe1da86,A
2020-02-23 13:42:46,bb493158-ad58-4430-bf97-44666fe1da86,S
2020-02-23 13:50:05,bb493158-ad58-4430-bf97-44666fe1da86,A
2020-02-23 13:51:59,bb493158-ad58-4430-bf97-44666fe1da86,S
2020-02-23 13:53:42,bb493158-ad58-4430-bf97-44666fe1da86,A
2020-02-23 14:09:06,bb493158-ad58-4430-bf97-44666fe1da86,S
2020-02-23 14:15:00,bb493158-ad58-4430-bf97-44666fe1da86,A
2020-02-23 14:19:33,bb493158-ad58-4430-bf97-44666fe1da86,S
2020-02-23 14:20:36,bb493158-ad58-4430-bf97-44666fe1da86,A
2020-02-23 14:22:57,bb493158-ad58-4430-bf97-44666fe1da86,S
2020-02-23 14:26:36,bb493158-ad58-4430-bf97-44666fe1da86,A
2020-02-23 14:28:37,bb493158-ad58-4430-bf97-44666fe1da86,S
2020-02-23 14:28:45,bb493158-ad58-4430-bf97-44666fe1da86,A
2020-02-23 14:37:51,bb493158-ad58-4430-bf97-44666fe1da86,S
2020-02-23 14:44:10,bb493158-ad58-4430-bf97-44666fe1da86,A
2020-02-23 14:45:16,bb493158-ad58-4430-bf97-44666fe1da86,S
2020-02-23 14:46:09,bb493158-ad58-4430-bf97-44666fe1da86,A
2020-02-23 12:53:41,7489245c-a90a-4bc8-bc99-8895b5840a41,A
2020-02-23 12:59:44,7489245c-a90a-4bc8-bc99-8895b5840a41,S
2020-02-23 13:02:32,7489245c-a90a-4bc8-bc99-8895b5840a41,A
2020-02-23 13:03:11,7489245c-a90a-4bc8-bc99-8895b5840a41,S
2020-02-23 13:03:56,7489245c-a90a-4bc8-bc99-8895b5840a41,A
2020-02-23 13:13:11,7489245c-a90a-4bc8-bc99-8895b5840a41,S
2020-02-23 13:13:37,7489245c-a90a-4bc8-bc99-8895b5840a41,A
2020-02-23 13:14:27,7489245c-a90a-4bc8-bc99-8895b5840a41,S
2020-02-23 13:19:21,7489245c-a90a-4bc8-bc99-8895b5840a41,A
2020-02-23 13:24:20,7489245c-a90a-4bc8-bc99-8895b5840a41,S
2020-02-23 13:24:32,7489245c-a90a-4bc8-bc99-8895b5840a41,A
2020-02-23 13:25:17,7489245c-a90a-4bc8-bc99-8895b5840a41,S
2020-02-23 13:27:37,7489245c-a90a-4bc8-bc99-8895b5840a41,A
2020-02-23 13:30:37,7489245c-a90a-4bc8-bc99-8895b5840a41,S
2020-02-23 13:31:53,7489245c-a90a-4bc8-bc99-8895b5840a41,A
2020-02-23 13:31:57,7489245c-a90a-4bc8-bc99-8895b5840a41,S
2020-02-23 13:40:03,7489245c-a90a-4bc8-bc99-8895b5840a41,A
2020-02-23 13:43:20,7489245c-a90a-4bc8-bc99-8895b5840a41,S
2020-02-23 13:45:13,7489245c-a90a-4bc8-bc99-8895b5840a41,A
2020-02-23 13:52:35,7489245c-a90a-4bc8-bc99-8895b5840a41,S
2020-02-23 14:02:49,7489245c-a90a-4bc8-bc99-8895b5840a41,A
2020-02-23 14:18:17,7489245c-a90a-4bc8-bc99-8895b5840a41,S
2020-02-23 14:20:39,7489245c-a90a-4bc8-bc99-8895b5840a41,A
2020-02-23 14:20:51,7489245c-a90a-4bc8-bc99-8895b5840a41,S
2020-02-23 14:28:56,7489245c-a90a-4bc8-bc99-8895b5840a41,A
2020-02-23 14:29:19,7489245c-a90a-4bc8-bc99-8895b5840a41,S
2020-02-23 14:37:39,7489245c-a90a-4bc8-bc99-8895b5840a41,A
2020-02-23 14:46:05,7489245c-a90a-4bc8-bc99-8895b5840a41,S
2020-02-23 12:59:15,84a4babc-b85f-4cd4-b0b6-7205e1f8509d,A
2020-02-23 13:07:04,84a4babc-b85f-4cd4-b0b6-7205e1f8509d,S
2020-02-23 13:08:35,84a4babc-b85f-4cd4-b0b6-7205e1f8509d,A
2020-02-23 13:11:12,84a4babc-b85f-4cd4-b0b6-7205e1f8509d,S
2020-02-23 13:15:53,84a4babc-b85f-4cd4-b0b6-7205e1f8509d,A
2020-02-23 13:30:35,84a4babc-b85f-4cd4-b0b6-7205e1f8509d,S
2020-02-23 13:31:10,84a4babc-b85f-4cd4-b0b6-7205e1f8509d,A
2020-02-23 13:36:40,84a4babc-b85f-4cd4-b0b6-7205e1f8509d,S
2020-02-23 13:43:53,84a4babc-b85f-4cd4-b0b6-7205e1f8509d,A
2020-02-23 13:44:28,84a4babc-b85f-4cd4-b0b6-7205e1f8509d,S
2020-02-23 13:56:18,84a4babc-b85f-4cd4-b0b6-7205e1f8509d,A
2020-02-23 13:59:26,84a4babc-b85f-4cd4-b0b6-7205e1f8509d,S
2020-02-23 14:11:17,84a4babc-b85f-4cd4-b0b6-7205e1f8509d,A
2020-02-23 14:23:14,84a4babc-b85f-4cd4-b0b6-7205e1f8509d,S
2020-02-23 14:28:06,84a4babc-b85f-4cd4-b0b6-7205e1f8509d,A
2020-02-23 14:28:39,84a4babc-b85f-4cd4-b0b6-7205e1f8509d,S
2020-02-23 14:28:57,84a4babc-b85f-4cd4-b0b6-7205e1f8509d,A
2020-02-23 14:29:07,84a4babc-b85f-4cd4-b0b6-7205e1f8509d,S
2020-02-23 14:30:18,84a4babc-b85f-4cd4-b0b6-7205e1f8509d,A
2020-02-23 14:33:59,84a4babc-b85f-4cd4-b0b6-7205e1f8509d,S
2020-02-23 14:42:50,84a4babc-b85f-4cd4-b0b6-7205e1f8509d,A
2020-02-23 14:47:03,84a4babc-b85f-4cd4-b0b6-7205e1f8509d,S
2020-02-23 13:02:07,61056a53-2827-44c0-bf1a-3e4a8aad13d2,S
2020-02-23 13:11:09,61056a53-2827-44c0-bf1a-3e4a8aad13d2,A
2020-02-23 13:16:21,61056a53-2827-44c0-bf1a-3e4a8aad13d2,S
2020-02-23 13:29:07,61056a53-2827-44c0-bf1a-3e4a8aad13d2,A
2020-02-23 13:30:06,61056a53-2827-44c0-bf1a-3e4a8aad13d2,S
2020-02-23 13:41:19,61056a53-2827-44c0-bf1a-3e4a8aad13d2,A
2020-02-23 13:41:32,61056a53-2827-44c0-bf1a-3e4a8aad13d2,S
2020-02-23 13:44:59,61056a53-2827-44c0-bf1a-3e4a8aad13d2,A
2020-02-23 13:56:03,61056a53-2827-44c0-bf1a-3e4a8aad13d2,S
2020-02-23 13:59:04,61056a53-2827-44c0-bf1a-3e4a8aad13d2,A
2020-02-23 14:05:40,61056a53-2827-44c0-bf1a-3e4a8aad13d2,S
2020-02-23 14:07:36,61056a53-2827-44c0-bf1a-3e4a8aad13d2,A
2020-02-23 14:15:01,61056a53-2827-44c0-bf1a-3e4a8aad13d2,S
2020-02-23 14:19:07,61056a53-2827-44c0-bf1a-3e4a8aad13d2,A
2020-02-23 14:19:49,61056a53-2827-44c0-bf1a-3e4a8aad13d2,S
2020-02-23 14:20:11,61056a53-2827-44c0-bf1a-3e4a8aad13d2,A
2020-02-23 14:23:34,61056a53-2827-44c0-bf1a-3e4a8aad13d2,S
2020-02-23 14:26:39,61056a53-2827-44c0-bf1a-3e4a8aad13d2,A
2020-02-23 14:39:49,61056a53-2827-44c0-bf1a-3e4a8aad13d2,S
2020-02-23 14:44:00,61056a53-2827-44c0-bf1a-3e4a8aad13d2,A
2020-02-23 14:44:06,61056a53-2827-44c0-bf1a-3e4a8aad13d2,S
2020-02-23 13:13:34,11238932-9c2a-4e84-b1a2-2e0fb77e2e4b,A
2020-02-23 13:14:13,11238932-9c2a-4e84-b1a2-2e0fb77e2e4b,S
2020-02-23 13:15:49,11238932-9c2a-4e84-b1a2-2e0fb77e2e4b,A
2020-02-23 13:30:02,11238932-9c2a-4e84-b1a2-2e0fb77e2e4b,S
2020-02-23 13:32:09,11238932-9c2a-4e84-b1a2-2e0fb77e2e4b,A
2020-02-23 13:34:35,11238932-9c2a-4e84-b1a2-2e0fb77e2e4b,S
2020-02-23 13:42:13,11238932-9c2a-4e84-b1a2-2e0fb77e2e4b,A
2020-02-23 13:45:53,11238932-9c2a-4e84-b1a2-2e0fb77e2e4b,S
2020-02-23 13:49:15,11238932-9c2a-4e84-b1a2-2e0fb77e2e4b,A
2020-02-23 14:00:05,11238932-9c2a-4e84-b1a2-2e0fb77e2e4b,S
2020-02-23 14:00:09,11238932-9c2a-4e84-b1a2-2e0fb77e2e4b,A
2020-02-23 14:09:40,11238932-9c2a-4e84-b1a2-2e0fb77e2e4b,S
2020-02-23 14:30:08,11238932-9c2a-4e84-b1a2-2e0fb77e2e4b,A
2020-02-23 14:37:23,11238932-9c2a-4e84-b1a2-2e0fb77e2e4b,S
2020-02-23 14:41:22,11238932-9c2a-4e84-b1a2-2e0fb77e2e4b,A
2020-02-23 13:28:10,da888624-c94f-4040-a7e5-a53a78e4ab0f,S
2020-02-23 13:30:29,da888624-c94f-4040-a7e5-a53a78e4ab0f,A
2020-02-23 13:37:00,da888624-c94f-4040-a7e5-a53a78e4ab0f,S
2020-02-23 13:37:58,da888624-c94f-4040-a7e5-a53a78e4ab0f,A
2020-02-23 13:38:18,da888624-c94f-4040-a7e5-a53a78e4ab0f,S
2020-02-23 13:43:28,da888624-c94f-4040-a7e5-a53a78e4ab0f,A
2020-02-23 13:48:21,da888624-c94f-4040-a7e5-a53a78e4ab0f,S
2020-02-23 13:53:01,da888624-c94f-4040-a7e5-a53a78e4ab0f,A
2020-02-23 14:06:01,da888624-c94f-4040-a7e5-a53a78e4ab0f,S
2020-02-23 14:23:30,da888624-c94f-4040-a7e5-a53a78e4ab0f,A
2020-02-23 14:28:13,da888624-c94f-4040-a7e5-a53a78e4ab0f,S
2020-02-23 14:30:22,da888624-c94f-4040-a7e5-a53a78e4ab0f,A
2020-02-23 14:31:36,da888624-c94f-4040-a7e5-a53a78e4ab0f,S
2020-02-23 14:32:58,da888624-c94f-4040-a7e5-a53a78e4ab0f,A
2020-02-23 14:33:42,da888624-c94f-4040-a7e5-a53a78e4ab0f,S
2020-02-23 14:34:14,da888624-c94f-4040-a7e5-a53a78e4ab0f,A
2020-02-23 14:35:19,da888624-c94f-4040-a7e5-a53a78e4ab0f,S
2020-02-23 14:42:00,da888624-c94f-4040-a7e5-a53a78e4ab0f,A
2020-02-23 14:42:19,da888624-c94f-4040-a7e5-a53a78e4ab0f,S
2020-02-23 14:43:07,da888624-c94f-4040-a7e5-a53a78e4ab0f,A
2020-02-23 14:43:08,da888624-c94f-4040-a7e5-a53a78e4ab0f,S
2020-02-23 13:08:13,69c4eb1d-c988-4d0b-81b8-445f36f946d0,S
2020-02-23 13:08:17,69c4eb1d-c988-4d0b-81b8-445f36f946d0,A
2020-02-23 13:15:27,69c4eb1d-c988-4d0b-81b8-445f36f946d0,S
2020-02-23 13:26:57,69c4eb1d-c988-4d0b-81b8-445f36f946d0,A
2020-02-23 13:28:34,69c4eb1d-c988-4d0b-81b8-445f36f946d0,S
2020-02-23 13:31:41,69c4eb1d-c988-4d0b-81b8-445f36f946d0,A
2020-02-23 13:31:57,69c4eb1d-c988-4d0b-81b8-445f36f946d0,S
2020-02-23 13:49:56,69c4eb1d-c988-4d0b-81b8-445f36f946d0,A
2020-02-23 13:52:20,69c4eb1d-c988-4d0b-81b8-445f36f946d0,S
2020-02-23 14:04:42,69c4eb1d-c988-4d0b-81b8-445f36f946d0,A
2020-02-23 14:16:50,69c4eb1d-c988-4d0b-81b8-445f36f946d0,S
2020-02-23 14:22:21,69c4eb1d-c988-4d0b-81b8-445f36f946d0,A
2020-02-23 14:22:47,69c4eb1d-c988-4d0b-81b8-445f36f946d0,S
2020-02-23 14:25:03,69c4eb1d-c988-4d0b-81b8-445f36f946d0,A
2020-02-23 14:28:42,69c4eb1d-c988-4d0b-81b8-445f36f946d0,S
2020-02-23 14:32:02,69c4eb1d-c988-4d0b-81b8-445f36f946d0,A
2020-02-23 14:36:32,69c4eb1d-c988-4d0b-81b8-445f36f946d0,S
2020-02-23 14:37:29,69c4eb1d-c988-4d0b-81b8-445f36f946d0,A
2020-02-23 14:37:50,69c4eb1d-c988-4d0b-81b8-445f36f946d0,S
2020-02-23 14:38:48,69c4eb1d-c988-4d0b-81b8-445f36f946d0,A
2020-02-23 13:19:11,2093c655-2dc2-4796-80bc-ea910ef86256,A
2020-02-23 13:13:39,8b35df92-616c-408d-9349-99d40d6f3cc9,A
2020-02-23 13:17:08,8b35df92-616c-408d-9349-99d40d6f3cc9,S
2020-02-23 13:19:24,8b35df92-616c-408d-9349-99d40d6f3cc9,A
2020-02-23 13:21:26,8b35df92-616c-408d-9349-99d40d6f3cc9,S
2020-02-23 13:22:00,8b35df92-616c-408d-9349-99d40d6f3cc9,A
2020-02-23 13:24:35,8b35df92-616c-408d-9349-99d40d6f3cc9,S
2020-02-23 13:31:27,8b35df92-616c-408d-9349-99d40d6f3cc9,A
2020-02-23 13:32:55,8b35df92-616c-408d-9349-99d40d6f3cc9,S
2020-02-23 13:43:10,8b35df92-616c-408d-9349-99d40d6f3cc9,A
2020-02-23 14:22:15,8b35df92-616c-408d-9349-99d40d6f3cc9,S
2020-02-23 14:32:10,8b35df92-616c-408d-9349-99d40d6f3cc9,A
2020-02-23 14:32:13,8b35df92-616c-408d-9349-99d40d6f3cc9,S
2020-02-23 14:32:56,8b35df92-616c-408d-9349-99d40d6f3cc9,A
2020-02-23 14:35:59,8b35df92-616c-408d-9349-99d40d6f3cc9,S
2020-02-23 14:37:21,8b35df92-616c-408d-9349-99d40d6f3cc9,A
2020-02-23 14:38:42,8b35df92-616c-408d-9349-99d40d6f3cc9,S
2020-02-23 14:42:52,8b35df92-616c-408d-9349-99d40d6f3cc9,A
2020-02-23 14:44:26,8b35df92-616c-408d-9349-99d40d6f3cc9,S
2020-02-23 14:44:31,8b35df92-616c-408d-9349-99d40d6f3cc9,A
2020-02-23 12:40:52,74a817fa-e8e7-4be2-8a4b-458385eff814,S
2020-02-23 12:44:55,74a817fa-e8e7-4be2-8a4b-458385eff814,A
2020-02-23 12:45:44,74a817fa-e8e7-4be2-8a4b-458385eff814,S
2020-02-23 12:50:58,74a817fa-e8e7-4be2-8a4b-458385eff814,A
2020-02-23 12:55:51,74a817fa-e8e7-4be2-8a4b-458385eff814,S
2020-02-23 13:00:49,74a817fa-e8e7-4be2-8a4b-458385eff814,A
2020-02-23 13:03:24,74a817fa-e8e7-4be2-8a4b-458385eff814,S
2020-02-23 13:04:10,74a817fa-e8e7-4be2-8a4b-458385eff814,A
2020-02-23 13:14:46,74a817fa-e8e7-4be2-8a4b-458385eff814,S
2020-02-23 13:15:10,74a817fa-e8e7-4be2-8a4b-458385eff814,A
2020-02-23 13:22:48,74a817fa-e8e7-4be2-8a4b-458385eff814,S
2020-02-23 13:28:08,74a817fa-e8e7-4be2-8a4b-458385eff814,A
2020-02-23 13:28:34,74a817fa-e8e7-4be2-8a4b-458385eff814,S
2020-02-23 13:34:59,74a817fa-e8e7-4be2-8a4b-458385eff814,A
2020-02-23 13:37:04,74a817fa-e8e7-4be2-8a4b-458385eff814,S
2020-02-23 13:37:17,74a817fa-e8e7-4be2-8a4b-458385eff814,A
2020-02-23 13:42:20,74a817fa-e8e7-4be2-8a4b-458385eff814,S
2020-02-23 13:43:01,74a817fa-e8e7-4be2-8a4b-458385eff814,A
2020-02-23 14:00:07,74a817fa-e8e7-4be2-8a4b-458385eff814,S
2020-02-23 14:02:24,74a817fa-e8e7-4be2-8a4b-458385eff814,A
2020-02-23 14:02:44,74a817fa-e8e7-4be2-8a4b-458385eff814,S
2020-02-23 14:06:09,74a817fa-e8e7-4be2-8a4b-458385eff814,A
2020-02-23 14:06:20,74a817fa-e8e7-4be2-8a4b-458385eff814,S
2020-02-23 14:13:22,74a817fa-e8e7-4be2-8a4b-458385eff814,A
2020-02-23 14:19:10,74a817fa-e8e7-4be2-8a4b-458385eff814,S
2020-02-23 14:39:53,74a817fa-e8e7-4be2-8a4b-458385eff814,A
2020-02-23 14:41:09,74a817fa-e8e7-4be2-8a4b-458385eff814,S
2020-02-23 13:07:08,323a3205-1354-4d29-887f-59d8070d32f4,S
2020-02-23 13:11:26,323a3205-1354-4d29-887f-59d8070d32f4,A
2020-02-23 13:25:09,323a3205-1354-4d29-887f-59d8070d32f4,S
2020-02-23 13:25:33,323a3205-1354-4d29-887f-59d8070d32f4,A
2020-02-23 13:30:09,323a3205-1354-4d29-887f-59d8070d32f4,S
2020-02-23 13:33:28,323a3205-1354-4d29-887f-59d8070d32f4,A
2020-02-23 13:36:34,323a3205-1354-4d29-887f-59d8070d32f4,S
2020-02-23 13:41:07,323a3205-1354-4d29-887f-59d8070d32f4,A
2020-02-23 13:44:20,323a3205-1354-4d29-887f-59d8070d32f4,S
2020-02-23 13:47:56,323a3205-1354-4d29-887f-59d8070d32f4,A
2020-02-23 14:03:47,323a3205-1354-4d29-887f-59d8070d32f4,S
2020-02-23 14:08:04,323a3205-1354-4d29-887f-59d8070d32f4,A
2020-02-23 14:08:26,323a3205-1354-4d29-887f-59d8070d32f4,S
2020-02-23 14:13:32,323a3205-1354-4d29-887f-59d8070d32f4,A
2020-02-23 14:20:51,323a3205-1354-4d29-887f-59d8070d32f4,S
2020-02-23 14:33:58,323a3205-1354-4d29-887f-59d8070d32f4,A
2020-02-23 14:34:59,323a3205-1354-4d29-887f-59d8070d32f4,S
