actor,node
34217d0b-d352-428c-b28d-49626304775c,4e592d21-c351-4bb2-86a0-95bbc627388c
3b038dc5-153b-43a0-b1e9-907cc9f9d4fa,9b74ce0e-174f-474d-96df-ca00c0083e32
4b495c5d-8d6e-4627-b7d0-8f92c72a4066,4e592d21-c351-4bb2-86a0-95bbc627388c
0578d1f3-5281-4256-8849-edbe4a967bc7,974946f4-6502-451a-b93d-3556af9a4856
165d8e90-33ab-4804-9cd9-892c0a5cf425,974946f4-6502-451a-b93d-3556af9a4856
0fc6d9f1-6131-4f03-accd-0622d84c5b27,f6a363e2-a206-420d-aa55-4ddf0935786c
cb3854d8-e6e1-4844-8a3b-8830183c452b,6d36d0ac-df6b-45da-a799-1de88cf4bafc
2ae8c7fa-0483-4542-92e9-43deb8baef40,013e7a7f-f313-44dd-8b3b-5764a7e8940b
6c62105b-9f43-45f1-8f8b-212fdd4776b5,6d36d0ac-df6b-45da-a799-1de88cf4bafc
37a94576-4b85-491f-bee3-f169379f5416,78eea2c8-a56b-4cb4-8d80-c895c47381b4
6e0771e5-e9bd-43cd-b2a0-ffb36786ac12,af0cc2e2-4c34-4911-b55e-a8425325a21e
8cd9c384-4596-4cfb-af50-cd484c3d9b3a,af0cc2e2-4c34-4911-b55e-a8425325a21e
77bb637d-d85d-4bd2-9920-aec20d2ed621,80a7e659-b464-4845-869b-c1aee78ee58f
8934c49f-1d1b-4b44-858a-b728724a383c,c7aa95fa-065b-45bc-ae85-c4571d568b76
d8ac75fd-3e33-4c58-b004-6d37f5d2b9d9,80a7e659-b464-4845-869b-c1aee78ee58f
dbe7a2e1-41c4-466e-9ba6-fc1b686f38ed,89c8c82a-fac0-4e27-b761-80256d272841
ea7d98f0-dece-49d7-af24-81e56cf26ec7,7f998363-5cdb-4ae3-884a-db41e7d38738
39594a13-906f-4de7-9241-bf2831c1d355,7f998363-5cdb-4ae3-884a-db41e7d38738
6c356909-b8ee-4732-a7b9-946444819572,7949d868-5e03-44fa-8f10-ff304db0195d
11da3a4a-0f6e-41f2-8958-803e1a877a62,7949d868-5e03-44fa-8f10-ff304db0195d
c3e139b0-6ede-4eee-a935-de2e6ba8cf88,02882d00-733c-459a-9b3a-cb6d616b762a
ae0c8957-9b2c-44fb-8aa1-732b2477e05c,52ba3713-f788-4206-976d-24bc2a5e0416
9e713885-2e95-4946-890a-952de2455602,f82de679-24f9-47de-994f-29f0fdbae294
ccf4582d-63e4-488d-8788-7e48e63a7c5d,f82de679-24f9-47de-994f-29f0fdbae294
5e772eea-667c-4ebb-bdbd-2af0a97cc495,c5e4b977-459b-47e6-843e-d9c5d5d47d2e
c2a76718-f884-41d6-939a-5e58a02acd9e,c5e4b977-459b-47e6-843e-d9c5d5d47d2e
8f111d3c-b722-489a-b58e-5675cf305193,0b23a531-3d05-4439-827e-0939fd5a053e
48ae3bb8-4b34-4dde-b82a-062edd0cd062,1e034b22-a026-40e7-aff7-d64a348aa439
36b8eb97-59a2-4fb9-8f82-df380a79e96c,ea9598f0-b475-4cf2-a08b-10c30211ec7c
464b146b-ac4d-472c-ad34-9fcea52ee183,1e034b22-a026-40e7-aff7-d64a348aa439
286e32b0-602b-4150-8bb0-12a1380a611b,2feb7152-1d18-493d-b237-626a2c4ff26a
6d437c66-05b5-4fd9-94b0-56dbb18770eb,606dfdef-9ccc-44ed-964e-df15bd11fe50
25e371ed-7ecf-4098-b2f6-38504f99161a,2feb7152-1d18-493d-b237-626a2c4ff26a
ea0e6e54-5c16-464f-97c7-fe917d5bff2c,ebcb614d-eea5-4f78-a405-5cb489e17468
7c14d9a9-5282-42cf-afef-ddeaa26b6733,74ecf433-5cf8-4623-9d69-fdf2559433ec
5ae84874-c788-49b2-bd48-23ab0f39dd26,ebcb614d-eea5-4f78-a405-5cb489e17468
307bff56-c129-4834-bee5-b91dff8173cf,371f31de-d2a2-4956-949c-d48db11df62d
5dbad762-a489-40ce-8536-7bf86da1813a,ad4d9b96-7cef-49e2-8243-a637dc466c42
e91f7994-ed6c-4a16-a791-97b4f3db2b8d,371f31de-d2a2-4956-949c-d48db11df62d
7adc048d-bbf3-4dfb-8852-1931884ff424,80f94906-cbc8-4acc-8566-52d58490b4f3
ef54dad1-9e72-4656-b3ea-b0cc82f1064e,80f94906-cbc8-4acc-8566-52d58490b4f3
e669590e-71e7-47d3-aed6-d58fd4e6b7d9,98421d53-504a-47e6-aca8-90ace14f20f6
788a3368-11e5-4787-b55a-f8f708900e7b,89e5843f-b9be-4885-841a-858b6e05e40d
1edae001-7b0d-44a5-a16f-2cb7919e0890,45ff3dd3-c8fa-4115-be00-4f6f710b2095
58be8af8-f9e6-43fc-865b-7b491c983175,89e5843f-b9be-4885-841a-858b6e05e40d
a068fcfd-91a0-4852-9f5f-8254224ea3f4,281fbf54-c3b9-4168-8508-931834698e18
4ef22550-51d3-499b-92a7-3fe7b9b0f2a3,4e592d21-c351-4bb2-86a0-95bbc627388c
56164e52-fbf0-44ea-a16d-0c73ab93c7a4,4e592d21-c351-4bb2-86a0-95bbc627388c
7671df94-1532-48cb-abaa-027548999384,974946f4-6502-451a-b93d-3556af9a4856
1e3c75ea-0287-4ce0-ac6a-224a82ac41e7,974946f4-6502-451a-b93d-3556af9a4856
4b9d5acd-97d8-454f-8e56-dccc96857055,97b4e29a-a079-4b4c-8f40-87a9186faecc
9fc8b6d1-476d-4933-a57f-15c3c6aff9de,6d36d0ac-df6b-45da-a799-1de88cf4bafc
147dc8c9-9b37-40db-92ab-884cb36323e9,6d36d0ac-df6b-45da-a799-1de88cf4bafc
a56b1fb5-76db-4bb6-a7d3-59afcef3a04d,02ea0c2e-7f24-4389-8f4d-7e69174f0210
3a814e0f-93fc-4b83-98cf-2d368823d2c3,af0cc2e2-4c34-4911-b55e-a8425325a21e
3e22b7ce-3e5e-4f4b-980b-ea10ea82518c,e290b334-3b11-4250-a36a-85bfedca8d98
e67c9905-12bc-4d1e-aef7-f868c941d3c8,af0cc2e2-4c34-4911-b55e-a8425325a21e
1595b799-c30d-4899-abb9-4b2f361ae750,acdfc53c-e3f9-4ba3-98d8-316bdb3a6cfb
6e24b136-a038-4099-b571-9b8a90f89dc4,80a7e659-b464-4845-869b-c1aee78ee58f
f6805851-5a36-41dd-a1fa-d508498341c4,80a7e659-b464-4845-869b-c1aee78ee58f
c8eabead-a3c2-44cb-a071-a426724ea0eb,2403ab62-edd5-4c97-ba06-2f469bc6fe22
d84f449a-6882-4d04-a628-14435c8f06aa,7f998363-5cdb-4ae3-884a-db41e7d38738
df764f2b-9d7b-4628-b184-14659da633e3,7f998363-5cdb-4ae3-884a-db41e7d38738
88b13d87-7af0-4a80-8db8-a630eb04f481,ad8f18e8-5b06-4af8-8ef9-56552484d701
e633dd6b-e046-4a3d-8fb6-e75e73594d49,7949d868-5e03-44fa-8f10-ff304db0195d
35dd9526-e755-4784-a81a-42cea3199f80,7949d868-5e03-44fa-8f10-ff304db0195d
2b73d354-181a-483e-8449-2b55e722393f,f82de679-24f9-47de-994f-29f0fdbae294
b6f3fe17-d78a-4888-9c1b-72a78c164364,f82de679-24f9-47de-994f-29f0fdbae294
3466679b-1e80-4bd7-8f8a-48bae9c531f5,926e0de0-730a-48fa-8fb5-f6f9658f3b89
16e4118d-5489-4452-bdc4-4ac94479efcc,c5e4b977-459b-47e6-843e-d9c5d5d47d2e
3449ec9c-1fdb-4bc0-ac14-ff59cd501b33,17442b11-7166-4303-b7d8-60cc25013763
0f019930-3760-4ee9-96a1-b2f183382e59,c5e4b977-459b-47e6-843e-d9c5d5d47d2e
6fe98b95-13b7-46ee-8acc-c3c8ffaff81c,1e034b22-a026-40e7-aff7-d64a348aa439
c4bb9774-b224-4ef0-b298-30c7bf966009,1e034b22-a026-40e7-aff7-d64a348aa439
39a1ddfd-f62e-47bb-8d30-e4bae1c07e8b,d6536d4e-e6ec-486d-ae30-075b10064705
ac97fb02-cc38-43ca-8bff-870c9e3f639e,2feb7152-1d18-493d-b237-626a2c4ff26a
2e962aea-3fed-4368-ad02-4a70e06ababa,4e2b9e48-5d7a-42f3-a359-8e5f6b5ec832
c42d4835-a19f-4324-b7ab-14dcb9a6891b,2feb7152-1d18-493d-b237-626a2c4ff26a
8ef75b9d-514a-48a1-b69a-19e94a41186e,2ab0cc7f-8148-4644-9242-9ac8b0e4c11f
bbb3549e-635d-4fd5-9429-bfc91bfb6789,ebcb614d-eea5-4f78-a405-5cb489e17468
4c7975a5-b2b5-4934-aef4-c3567e0ead19,ebcb614d-eea5-4f78-a405-5cb489e17468
c748abd2-5ea9-4f46-9059-d8cb23f221f1,92eff870-1129-490e-bbf4-c8675a1a9dd9
4f723e1e-ef60-4201-badb-e4732d042c1b,371f31de-d2a2-4956-949c-d48db11df62d
58268c00-de28-46bb-8070-7884732a4565,371f31de-d2a2-4956-949c-d48db11df62d
6af46a4f-2584-4b41-afb5-8a03021e2f16,80f94906-cbc8-4acc-8566-52d58490b4f3
82517c12-aef8-4231-879f-349f563f9fac,ba64f7fb-d24f-4d58-b515-fae38bce257a
0890ab91-1794-48b6-a7e8-c7a7ed811b08,80f94906-cbc8-4acc-8566-52d58490b4f3
50d1753f-7b79-49ec-826e-6335981ee7e9,89e5843f-b9be-4885-841a-858b6e05e40d
3706dcca-df2d-4f75-9d4f-ae651be39df3,a2d4cd03-4289-4a1f-a766-1c0c6715b349
5d690d5d-d49d-4f1e-8ef9-e00c4c9fb062,89e5843f-b9be-4885-841a-858b6e05e40d
2b34dc82-9362-41ae-bf42-bf5609c62a3e,4e592d21-c351-4bb2-86a0-95bbc627388c
3c032290-743d-4866-911c-fe2dedcbbc6d,4e592d21-c351-4bb2-86a0-95bbc627388c
65e1ca27-7a1b-485b-aef0-122947dfd206,2b72cdb3-8f52-4bb1-9216-68423bda8136
654d5557-f56c-4d45-a6df-290a245d43e4,974946f4-6502-451a-b93d-3556af9a4856
90267015-8b4c-4dca-9205-48c14af06cef,80379de1-1a85-4e7a-99cc-a04c012c6325
517b3459-2cb1-49e6-aa8c-533e1685e139,974946f4-6502-451a-b93d-3556af9a4856
ecf73d22-3e5c-4e44-8f55-e3bf81571c1e,6d36d0ac-df6b-45da-a799-1de88cf4bafc
12078150-6307-4bba-b3c3-6db2c4b3c316,d52231ff-d33f-4675-bd7f-9abd89a1ff00
d39c2469-3d95-4836-8196-4193fd282fff,6d36d0ac-df6b-45da-a799-1de88cf4bafc
be13c1a6-2b83-435c-9bd6-6b5f2c7b6c29,af0cc2e2-4c34-4911-b55e-a8425325a21e
6b80f11c-cc2a-4fa6-8574-c760a08050eb,af0cc2e2-4c34-4911-b55e-a8425325a21e
79998535-9a10-4965-86bd-ad15d17a08d8,2cd7b289-5806-42bd-914d-c50d1d32b417
64d5fa0d-d4f8-4156-9c1b-bfdd6f3a85a6,80a7e659-b464-4845-869b-c1aee78ee58f
37e2af1c-8898-4c10-9ab3-45be92bf14ad,510c6988-1657-4ef3-a208-ca73408ab52a
96e76f85-e557-4222-b4a1-f67af24b41c3,80a7e659-b464-4845-869b-c1aee78ee58f
f2f8ba50-178a-4f32-9ec2-44b3f44f6e5a,7f998363-5cdb-4ae3-884a-db41e7d38738
40670490-2f81-472d-a3b5-23409e12d4f8,7f998363-5cdb-4ae3-884a-db41e7d38738
3967542f-e59a-4696-ab2b-570a88b36af4,655a4954-f4cb-4175-a0a5-99cea2aeab0f
f75d9933-da1d-4965-a903-ba4e9908b064,7949d868-5e03-44fa-8f10-ff304db0195d
66254d3d-3abc-474f-9394-8b0edf9397f0,96fa6769-ec4f-42ba-907d-104471bb8912
a604d640-d19e-4422-9c96-11a29718ccb3,7949d868-5e03-44fa-8f10-ff304db0195d
28808a19-9880-49af-8c1f-dafecd646556,f82de679-24f9-47de-994f-29f0fdbae294
5cf5bad5-8c80-4110-ae8f-71e7de95f90d,e6fcc89c-4ea5-4232-a461-aebb20e7dd81
5ca20c6c-5a75-4773-86ad-85f13a708252,f82de679-24f9-47de-994f-29f0fdbae294
0cd208c1-70ec-48d7-8c6a-9509c44fc4ca,c5e4b977-459b-47e6-843e-d9c5d5d47d2e
180a4e0c-b20a-4e39-908d-a36d84dd7188,48986016-591f-4b07-b9ca-5fecbaa1ed27
b9949db1-7021-42bf-8e12-e43ba502d0de,c5e4b977-459b-47e6-843e-d9c5d5d47d2e
91a956be-44b8-4cf7-a830-8aebc9bf20a4,edbbd21e-3f6b-46a0-b098-530b0b93c913
527d03c6-03cb-4807-ba98-724aa872819f,1e034b22-a026-40e7-aff7-d64a348aa439
3d207da1-e286-45b8-b0c4-1d3a2b9d7054,1e034b22-a026-40e7-aff7-d64a348aa439
1fdf3a2c-f365-414e-b0ba-9e951f79c05e,2feb7152-1d18-493d-b237-626a2c4ff26a
1c78b611-407f-4686-a1d5-018c27a93a96,989de42e-63ba-4966-803d-5c9db603f0d2
783f42c9-bf87-482d-a4e9-e3cf7b161100,2feb7152-1d18-493d-b237-626a2c4ff26a
094960b3-76d3-4b2d-907f-6e354747dfe4,79b486ca-5c72-4876-9bfc-381ab32ee8e1
289cff71-d889-45b8-98ce-b0f81647185f,ebcb614d-eea5-4f78-a405-5cb489e17468
9d3114f2-a0bf-4a83-b38f-8da1a4c59608,ebcb614d-eea5-4f78-a405-5cb489e17468
c6847279-8995-4efb-bd82-3c6bd58a9a49,dd2d9d8b-61b0-4e1f-bebf-5aa1d77524e4
f7fdf4b5-b823-4311-bc7d-61a3cb4263ba,371f31de-d2a2-4956-949c-d48db11df62d
64f4b12c-4fb4-4149-a666-a2411ec5e0d2,371f31de-d2a2-4956-949c-d48db11df62d
c7161628-0e1e-4bd3-92ac-9dabbd320362,80f94906-cbc8-4acc-8566-52d58490b4f3
ba637f2c-47ec-4d3b-a48b-da5af6ebaee1,10f2a79b-c70d-4b7e-959f-9267faa6b8e8
88341d51-0b41-4b97-a85d-b49e34c5cfb2,80f94906-cbc8-4acc-8566-52d58490b4f3
5059e708-be0c-4607-b267-4abafe49a901,89e5843f-b9be-4885-841a-858b6e05e40d
7d88d5c1-082a-413f-8953-a820c8151acb,48d71008-a0ac-4d4a-a527-9e2b7cfe5b64
033a9cce-51e8-4f10-a435-d3fda145c375,89e5843f-b9be-4885-841a-858b6e05e40d
cce7f6fa-b1d0-41a9-836e-4f7536705c7f,876fc3a8-502c-43bb-9a5a-de508e629238
92f8553d-c914-46d3-acc7-8f6970b88201,4e592d21-c351-4bb2-86a0-95bbc627388c
d6be3846-33dc-4453-9b9c-444cfc29c155,4e592d21-c351-4bb2-86a0-95bbc627388c
8e381ed2-db32-4d1e-85e6-06fcafa40aab,974946f4-6502-451a-b93d-3556af9a4856
9fc2ab4b-5398-4b44-a814-c436ddd05c45,974946f4-6502-451a-b93d-3556af9a4856
035c7184-867c-48b6-bf8b-56c54041941c,f4d70e4f-8659-4c21-b6e0-d0650ab80787
f81ba8b0-09b4-436f-9dd2-a0ceafa495b5,6d36d0ac-df6b-45da-a799-1de88cf4bafc
b90b4383-5123-43b3-8d8a-78445df1ed05,53523028-2d7a-47a4-a4da-36295661fbe2
5f0b5656-d936-421b-aef4-db877f8193e9,6d36d0ac-df6b-45da-a799-1de88cf4bafc
95ab16df-2efd-4ae6-8d38-60c8d60b77be,af0cc2e2-4c34-4911-b55e-a8425325a21e
d6baf641-6540-4308-93e5-519a3ba877fc,af0cc2e2-4c34-4911-b55e-a8425325a21e
559b5c77-dce4-4961-b325-e9ca120c5367,ae9287aa-2480-4a70-8669-430d2e81e9cd
be202be5-3a91-4f92-b02d-b88c8f942152,80a7e659-b464-4845-869b-c1aee78ee58f
cca6fbb3-b120-43fc-a0c5-a310152cf409,80a7e659-b464-4845-869b-c1aee78ee58f
b061ef5a-3e23-4de1-bac5-9a95bb967152,aa8ff6c0-bf00-4e89-9f27-20080cbfdf5b
