date,actor,success,from,to
2019-03-20 22:53:25,dea9bbd3-6efc-4ba1-9bb9-671c93add3c8,1,515e3b63-2950-4641-a70e-3f90432541fd,84d3ebdf-743a-494c-ad5c-cc07a2964662
2019-03-20 22:52:24,dea9bbd3-6efc-4ba1-9bb9-671c93add3c8,0,NA,NA
2019-03-20 22:48:44,1e140a44-da2e-4b13-b3ef-bbcee18c568e,0,NA,NA
2019-03-20 22:49:01,1e140a44-da2e-4b13-b3ef-bbcee18c568e,0,NA,NA
2019-03-20 22:50:51,1e140a44-da2e-4b13-b3ef-bbcee18c568e,0,NA,NA
2019-03-20 22:51:11,b7637b63-a68d-42cc-946f-6b2e26d45fa4,0,NA,NA
2019-03-20 22:51:12,1e140a44-da2e-4b13-b3ef-bbcee18c568e,0,NA,NA
2019-03-20 22:53:10,1e140a44-da2e-4b13-b3ef-bbcee18c568e,0,NA,NA
