date,trigger,state
2019-11-10 02:39:38,ecb11247-b981-4962-bcef-911bcda7843c,S
2019-11-10 02:51:53,ecb11247-b981-4962-bcef-911bcda7843c,A
2019-11-10 03:02:01,ecb11247-b981-4962-bcef-911bcda7843c,S
2019-11-10 03:03:19,ecb11247-b981-4962-bcef-911bcda7843c,A
2019-11-10 03:05:18,ecb11247-b981-4962-bcef-911bcda7843c,S
2019-11-10 03:11:57,ecb11247-b981-4962-bcef-911bcda7843c,A
2019-11-10 03:12:45,ecb11247-b981-4962-bcef-911bcda7843c,S
2019-11-10 03:15:06,ecb11247-b981-4962-bcef-911bcda7843c,A
2019-11-10 03:15:57,ecb11247-b981-4962-bcef-911bcda7843c,S
2019-11-10 03:16:19,ecb11247-b981-4962-bcef-911bcda7843c,A
2019-11-10 03:16:38,ecb11247-b981-4962-bcef-911bcda7843c,S
2019-11-10 03:23:34,ecb11247-b981-4962-bcef-911bcda7843c,A
2019-11-10 03:36:24,ecb11247-b981-4962-bcef-911bcda7843c,S
2019-11-10 03:41:01,ecb11247-b981-4962-bcef-911bcda7843c,A
2019-11-10 03:41:40,ecb11247-b981-4962-bcef-911bcda7843c,S
2019-11-10 03:58:35,ecb11247-b981-4962-bcef-911bcda7843c,A
2019-11-10 04:00:56,ecb11247-b981-4962-bcef-911bcda7843c,S
2019-11-10 04:01:09,ecb11247-b981-4962-bcef-911bcda7843c,A
2019-11-10 04:02:29,ecb11247-b981-4962-bcef-911bcda7843c,S
2019-11-10 04:04:55,ecb11247-b981-4962-bcef-911bcda7843c,A
2019-11-10 02:47:22,e31ba6f2-7cdd-4d8a-916f-07a7ec64d3c4,S
2019-11-10 02:48:05,e31ba6f2-7cdd-4d8a-916f-07a7ec64d3c4,A
2019-11-10 02:51:36,e31ba6f2-7cdd-4d8a-916f-07a7ec64d3c4,S
2019-11-10 02:55:39,e31ba6f2-7cdd-4d8a-916f-07a7ec64d3c4,A
2019-11-10 03:03:27,e31ba6f2-7cdd-4d8a-916f-07a7ec64d3c4,S
2019-11-10 03:09:57,e31ba6f2-7cdd-4d8a-916f-07a7ec64d3c4,A
2019-11-10 03:14:07,e31ba6f2-7cdd-4d8a-916f-07a7ec64d3c4,S
2019-11-10 03:15:33,e31ba6f2-7cdd-4d8a-916f-07a7ec64d3c4,A
2019-11-10 03:25:57,e31ba6f2-7cdd-4d8a-916f-07a7ec64d3c4,S
2019-11-10 03:26:13,e31ba6f2-7cdd-4d8a-916f-07a7ec64d3c4,A
2019-11-10 03:26:29,e31ba6f2-7cdd-4d8a-916f-07a7ec64d3c4,S
2019-11-10 03:27:58,e31ba6f2-7cdd-4d8a-916f-07a7ec64d3c4,A
2019-11-10 03:35:48,e31ba6f2-7cdd-4d8a-916f-07a7ec64d3c4,S
2019-11-10 03:39:45,e31ba6f2-7cdd-4d8a-916f-07a7ec64d3c4,A
2019-11-10 03:42:23,e31ba6f2-7cdd-4d8a-916f-07a7ec64d3c4,S
2019-11-10 03:44:51,e31ba6f2-7cdd-4d8a-916f-07a7ec64d3c4,A
2019-11-10 03:46:58,e31ba6f2-7cdd-4d8a-916f-07a7ec64d3c4,S
2019-11-10 03:51:38,e31ba6f2-7cdd-4d8a-916f-07a7ec64d3c4,A
2019-11-10 03:58:00,e31ba6f2-7cdd-4d8a-916f-07a7ec64d3c4,S
2019-11-10 03:58:10,e31ba6f2-7cdd-4d8a-916f-07a7ec64d3c4,A
2019-11-10 03:58:49,e31ba6f2-7cdd-4d8a-916f-07a7ec64d3c4,S
2019-11-10 04:01:07,e31ba6f2-7cdd-4d8a-916f-07a7ec64d3c4,A
2019-11-10 02:25:59,ef9a7ffc-e61f-4878-9cdf-1d50decdd0cc,S
2019-11-10 02:33:37,ef9a7ffc-e61f-4878-9cdf-1d50decdd0cc,A
2019-11-10 02:35:33,ef9a7ffc-e61f-4878-9cdf-1d50decdd0cc,S
2019-11-10 02:46:51,ef9a7ffc-e61f-4878-9cdf-1d50decdd0cc,A
2019-11-10 02:48:41,ef9a7ffc-e61f-4878-9cdf-1d50decdd0cc,S
2019-11-10 02:49:22,ef9a7ffc-e61f-4878-9cdf-1d50decdd0cc,A
2019-11-10 02:58:53,ef9a7ffc-e61f-4878-9cdf-1d50decdd0cc,S
2019-11-10 03:02:08,ef9a7ffc-e61f-4878-9cdf-1d50decdd0cc,A
2019-11-10 03:02:44,ef9a7ffc-e61f-4878-9cdf-1d50decdd0cc,S
2019-11-10 03:03:15,ef9a7ffc-e61f-4878-9cdf-1d50decdd0cc,A
2019-11-10 03:08:19,ef9a7ffc-e61f-4878-9cdf-1d50decdd0cc,S
2019-11-10 03:08:44,ef9a7ffc-e61f-4878-9cdf-1d50decdd0cc,A
2019-11-10 03:09:07,ef9a7ffc-e61f-4878-9cdf-1d50decdd0cc,S
2019-11-10 03:09:52,ef9a7ffc-e61f-4878-9cdf-1d50decdd0cc,A
2019-11-10 03:11:43,ef9a7ffc-e61f-4878-9cdf-1d50decdd0cc,S
2019-11-10 03:12:36,ef9a7ffc-e61f-4878-9cdf-1d50decdd0cc,A
2019-11-10 03:23:10,ef9a7ffc-e61f-4878-9cdf-1d50decdd0cc,S
2019-11-10 03:24:21,ef9a7ffc-e61f-4878-9cdf-1d50decdd0cc,A
2019-11-10 03:31:14,ef9a7ffc-e61f-4878-9cdf-1d50decdd0cc,S
2019-11-10 03:39:54,ef9a7ffc-e61f-4878-9cdf-1d50decdd0cc,A
2019-11-10 03:43:02,ef9a7ffc-e61f-4878-9cdf-1d50decdd0cc,S
2019-11-10 03:46:37,ef9a7ffc-e61f-4878-9cdf-1d50decdd0cc,A
2019-11-10 03:46:53,ef9a7ffc-e61f-4878-9cdf-1d50decdd0cc,S
2019-11-10 03:53:58,ef9a7ffc-e61f-4878-9cdf-1d50decdd0cc,A
2019-11-10 03:54:06,ef9a7ffc-e61f-4878-9cdf-1d50decdd0cc,S
2019-11-10 03:54:32,ef9a7ffc-e61f-4878-9cdf-1d50decdd0cc,A
2019-11-10 03:55:09,ef9a7ffc-e61f-4878-9cdf-1d50decdd0cc,S
2019-11-10 03:57:14,ef9a7ffc-e61f-4878-9cdf-1d50decdd0cc,A
2019-11-10 03:57:17,ef9a7ffc-e61f-4878-9cdf-1d50decdd0cc,S
2019-11-10 04:09:03,ef9a7ffc-e61f-4878-9cdf-1d50decdd0cc,A
2019-11-10 02:11:27,838945fd-9fe0-475a-a3e7-2068e9801303,S
2019-11-10 02:13:00,838945fd-9fe0-475a-a3e7-2068e9801303,A
2019-11-10 02:13:48,838945fd-9fe0-475a-a3e7-2068e9801303,S
2019-11-10 02:13:54,838945fd-9fe0-475a-a3e7-2068e9801303,A
2019-11-10 02:14:00,838945fd-9fe0-475a-a3e7-2068e9801303,S
2019-11-10 02:14:25,838945fd-9fe0-475a-a3e7-2068e9801303,A
2019-11-10 02:19:10,838945fd-9fe0-475a-a3e7-2068e9801303,S
2019-11-10 02:23:18,838945fd-9fe0-475a-a3e7-2068e9801303,A
2019-11-10 02:25:06,838945fd-9fe0-475a-a3e7-2068e9801303,S
2019-11-10 02:27:19,838945fd-9fe0-475a-a3e7-2068e9801303,A
2019-11-10 02:37:57,838945fd-9fe0-475a-a3e7-2068e9801303,S
2019-11-10 02:40:00,838945fd-9fe0-475a-a3e7-2068e9801303,A
2019-11-10 02:49:09,838945fd-9fe0-475a-a3e7-2068e9801303,S
2019-11-10 02:51:44,838945fd-9fe0-475a-a3e7-2068e9801303,A
2019-11-10 03:00:20,838945fd-9fe0-475a-a3e7-2068e9801303,S
2019-11-10 03:02:22,838945fd-9fe0-475a-a3e7-2068e9801303,A
2019-11-10 03:04:10,838945fd-9fe0-475a-a3e7-2068e9801303,S
2019-11-10 03:07:14,838945fd-9fe0-475a-a3e7-2068e9801303,A
2019-11-10 03:07:21,838945fd-9fe0-475a-a3e7-2068e9801303,S
2019-11-10 03:19:25,838945fd-9fe0-475a-a3e7-2068e9801303,A
2019-11-10 03:23:04,838945fd-9fe0-475a-a3e7-2068e9801303,S
2019-11-10 03:34:47,838945fd-9fe0-475a-a3e7-2068e9801303,A
2019-11-10 03:35:32,838945fd-9fe0-475a-a3e7-2068e9801303,S
2019-11-10 03:42:25,838945fd-9fe0-475a-a3e7-2068e9801303,A
2019-11-10 03:43:45,838945fd-9fe0-475a-a3e7-2068e9801303,S
2019-11-10 03:46:13,838945fd-9fe0-475a-a3e7-2068e9801303,A
2019-11-10 03:54:38,838945fd-9fe0-475a-a3e7-2068e9801303,S
2019-11-10 04:02:47,838945fd-9fe0-475a-a3e7-2068e9801303,A
2019-11-10 02:35:12,4e87e19e-08f1-48bb-a296-6e526fcba3ee,A
2019-11-10 02:54:05,4e87e19e-08f1-48bb-a296-6e526fcba3ee,S
2019-11-10 02:54:27,4e87e19e-08f1-48bb-a296-6e526fcba3ee,A
2019-11-10 02:57:11,4e87e19e-08f1-48bb-a296-6e526fcba3ee,S
2019-11-10 03:01:11,4e87e19e-08f1-48bb-a296-6e526fcba3ee,A
2019-11-10 03:01:40,4e87e19e-08f1-48bb-a296-6e526fcba3ee,S
2019-11-10 03:04:42,4e87e19e-08f1-48bb-a296-6e526fcba3ee,A
2019-11-10 03:06:21,4e87e19e-08f1-48bb-a296-6e526fcba3ee,S
2019-11-10 03:20:50,4e87e19e-08f1-48bb-a296-6e526fcba3ee,A
2019-11-10 03:22:26,4e87e19e-08f1-48bb-a296-6e526fcba3ee,S
2019-11-10 03:22:32,4e87e19e-08f1-48bb-a296-6e526fcba3ee,A
2019-11-10 03:24:52,4e87e19e-08f1-48bb-a296-6e526fcba3ee,S
2019-11-10 03:24:59,4e87e19e-08f1-48bb-a296-6e526fcba3ee,A
2019-11-10 03:27:02,4e87e19e-08f1-48bb-a296-6e526fcba3ee,S
2019-11-10 03:31:03,4e87e19e-08f1-48bb-a296-6e526fcba3ee,A
2019-11-10 03:41:46,4e87e19e-08f1-48bb-a296-6e526fcba3ee,S
2019-11-10 03:47:30,4e87e19e-08f1-48bb-a296-6e526fcba3ee,A
2019-11-10 03:49:44,4e87e19e-08f1-48bb-a296-6e526fcba3ee,S
2019-11-10 03:53:10,4e87e19e-08f1-48bb-a296-6e526fcba3ee,A
2019-11-10 03:56:42,4e87e19e-08f1-48bb-a296-6e526fcba3ee,S
2019-11-10 02:26:27,3545624b-4f0d-4e3b-a777-30ac3872af60,A
2019-11-10 02:30:08,3545624b-4f0d-4e3b-a777-30ac3872af60,S
2019-11-10 02:33:28,3545624b-4f0d-4e3b-a777-30ac3872af60,A
2019-11-10 02:35:08,3545624b-4f0d-4e3b-a777-30ac3872af60,S
2019-11-10 02:50:38,3545624b-4f0d-4e3b-a777-30ac3872af60,A
2019-11-10 02:52:22,3545624b-4f0d-4e3b-a777-30ac3872af60,S
2019-11-10 02:52:45,3545624b-4f0d-4e3b-a777-30ac3872af60,A
2019-11-10 03:14:33,3545624b-4f0d-4e3b-a777-30ac3872af60,S
2019-11-10 03:21:44,3545624b-4f0d-4e3b-a777-30ac3872af60,A
2019-11-10 03:26:04,3545624b-4f0d-4e3b-a777-30ac3872af60,S
2019-11-10 03:26:44,3545624b-4f0d-4e3b-a777-30ac3872af60,A
2019-11-10 03:30:59,3545624b-4f0d-4e3b-a777-30ac3872af60,S
2019-11-10 03:32:49,3545624b-4f0d-4e3b-a777-30ac3872af60,A
2019-11-10 03:35:32,3545624b-4f0d-4e3b-a777-30ac3872af60,S
2019-11-10 03:44:46,3545624b-4f0d-4e3b-a777-30ac3872af60,A
2019-11-10 03:52:22,3545624b-4f0d-4e3b-a777-30ac3872af60,S
2019-11-10 03:57:19,3545624b-4f0d-4e3b-a777-30ac3872af60,A
2019-11-10 04:03:56,3545624b-4f0d-4e3b-a777-30ac3872af60,S
2019-11-10 02:46:42,842d67c3-bbf7-4bbd-b3c0-e767f96043c8,A
2019-11-10 02:50:11,842d67c3-bbf7-4bbd-b3c0-e767f96043c8,S
2019-11-10 02:53:14,842d67c3-bbf7-4bbd-b3c0-e767f96043c8,A
2019-11-10 03:02:11,842d67c3-bbf7-4bbd-b3c0-e767f96043c8,S
2019-11-10 03:17:09,842d67c3-bbf7-4bbd-b3c0-e767f96043c8,A
2019-11-10 03:18:11,842d67c3-bbf7-4bbd-b3c0-e767f96043c8,S
2019-11-10 03:18:40,842d67c3-bbf7-4bbd-b3c0-e767f96043c8,A
2019-11-10 03:19:19,842d67c3-bbf7-4bbd-b3c0-e767f96043c8,S
2019-11-10 03:26:23,842d67c3-bbf7-4bbd-b3c0-e767f96043c8,A
2019-11-10 03:31:33,842d67c3-bbf7-4bbd-b3c0-e767f96043c8,S
2019-11-10 03:50:25,842d67c3-bbf7-4bbd-b3c0-e767f96043c8,A
2019-11-10 03:52:32,842d67c3-bbf7-4bbd-b3c0-e767f96043c8,S
2019-11-10 03:59:39,842d67c3-bbf7-4bbd-b3c0-e767f96043c8,A
2019-11-10 04:03:09,842d67c3-bbf7-4bbd-b3c0-e767f96043c8,S
2019-11-10 02:17:58,40309d2a-0554-4b35-971e-3152565942b5,S
2019-11-10 02:22:05,40309d2a-0554-4b35-971e-3152565942b5,A
2019-11-10 02:32:28,40309d2a-0554-4b35-971e-3152565942b5,S
2019-11-10 02:34:02,40309d2a-0554-4b35-971e-3152565942b5,A
2019-11-10 02:41:33,40309d2a-0554-4b35-971e-3152565942b5,S
2019-11-10 02:41:48,40309d2a-0554-4b35-971e-3152565942b5,A
2019-11-10 02:43:13,40309d2a-0554-4b35-971e-3152565942b5,S
2019-11-10 03:00:30,40309d2a-0554-4b35-971e-3152565942b5,A
2019-11-10 03:06:16,40309d2a-0554-4b35-971e-3152565942b5,S
2019-11-10 03:09:50,40309d2a-0554-4b35-971e-3152565942b5,A
2019-11-10 03:13:02,40309d2a-0554-4b35-971e-3152565942b5,S
2019-11-10 03:13:19,40309d2a-0554-4b35-971e-3152565942b5,A
2019-11-10 03:31:54,40309d2a-0554-4b35-971e-3152565942b5,S
2019-11-10 03:32:20,40309d2a-0554-4b35-971e-3152565942b5,A
2019-11-10 03:35:10,40309d2a-0554-4b35-971e-3152565942b5,S
2019-11-10 03:48:43,40309d2a-0554-4b35-971e-3152565942b5,A
2019-11-10 03:52:01,40309d2a-0554-4b35-971e-3152565942b5,S
2019-11-10 03:54:29,40309d2a-0554-4b35-971e-3152565942b5,A
2019-11-10 03:55:06,40309d2a-0554-4b35-971e-3152565942b5,S
2019-11-10 04:00:20,40309d2a-0554-4b35-971e-3152565942b5,A
2019-11-10 04:05:00,40309d2a-0554-4b35-971e-3152565942b5,S
2019-11-10 04:08:56,40309d2a-0554-4b35-971e-3152565942b5,A
2019-11-10 04:10:49,40309d2a-0554-4b35-971e-3152565942b5,S
2019-11-10 02:05:15,586ee10b-e0ce-48ac-9221-2256aad85db3,A
2019-11-10 02:09:31,586ee10b-e0ce-48ac-9221-2256aad85db3,S
2019-11-10 02:11:48,586ee10b-e0ce-48ac-9221-2256aad85db3,A
2019-11-10 02:19:31,586ee10b-e0ce-48ac-9221-2256aad85db3,S
2019-11-10 02:28:49,586ee10b-e0ce-48ac-9221-2256aad85db3,A
2019-11-10 02:33:10,586ee10b-e0ce-48ac-9221-2256aad85db3,S
2019-11-10 02:37:44,586ee10b-e0ce-48ac-9221-2256aad85db3,A
2019-11-10 02:53:01,586ee10b-e0ce-48ac-9221-2256aad85db3,S
2019-11-10 02:57:54,586ee10b-e0ce-48ac-9221-2256aad85db3,A
2019-11-10 03:10:43,586ee10b-e0ce-48ac-9221-2256aad85db3,S
2019-11-10 03:11:11,586ee10b-e0ce-48ac-9221-2256aad85db3,A
2019-11-10 03:18:25,586ee10b-e0ce-48ac-9221-2256aad85db3,S
2019-11-10 03:26:19,586ee10b-e0ce-48ac-9221-2256aad85db3,A
2019-11-10 03:27:29,586ee10b-e0ce-48ac-9221-2256aad85db3,S
2019-11-10 03:29:02,586ee10b-e0ce-48ac-9221-2256aad85db3,A
2019-11-10 03:29:39,586ee10b-e0ce-48ac-9221-2256aad85db3,S
2019-11-10 03:31:11,586ee10b-e0ce-48ac-9221-2256aad85db3,A
2019-11-10 03:31:47,586ee10b-e0ce-48ac-9221-2256aad85db3,S
2019-11-10 03:31:53,586ee10b-e0ce-48ac-9221-2256aad85db3,A
2019-11-10 03:32:15,586ee10b-e0ce-48ac-9221-2256aad85db3,S
2019-11-10 03:33:12,586ee10b-e0ce-48ac-9221-2256aad85db3,A
2019-11-10 03:40:37,586ee10b-e0ce-48ac-9221-2256aad85db3,S
2019-11-10 03:52:55,586ee10b-e0ce-48ac-9221-2256aad85db3,A
2019-11-10 03:53:33,586ee10b-e0ce-48ac-9221-2256aad85db3,S
2019-11-10 02:19:24,fee462bb-613b-402f-a422-e91434f0006d,S
2019-11-10 02:25:37,fee462bb-613b-402f-a422-e91434f0006d,A
2019-11-10 02:30:00,fee462bb-613b-402f-a422-e91434f0006d,S
2019-11-10 02:40:33,fee462bb-613b-402f-a422-e91434f0006d,A
2019-11-10 02:40:52,fee462bb-613b-402f-a422-e91434f0006d,S
2019-11-10 02:46:21,fee462bb-613b-402f-a422-e91434f0006d,A
2019-11-10 02:46:55,fee462bb-613b-402f-a422-e91434f0006d,S
2019-11-10 02:47:33,fee462bb-613b-402f-a422-e91434f0006d,A
2019-11-10 02:50:04,fee462bb-613b-402f-a422-e91434f0006d,S
2019-11-10 02:50:24,fee462bb-613b-402f-a422-e91434f0006d,A
2019-11-10 02:51:16,fee462bb-613b-402f-a422-e91434f0006d,S
2019-11-10 03:06:49,fee462bb-613b-402f-a422-e91434f0006d,A
2019-11-10 03:08:08,fee462bb-613b-402f-a422-e91434f0006d,S
2019-11-10 03:11:16,fee462bb-613b-402f-a422-e91434f0006d,A
2019-11-10 03:23:10,fee462bb-613b-402f-a422-e91434f0006d,S
2019-11-10 03:24:36,fee462bb-613b-402f-a422-e91434f0006d,A
2019-11-10 03:25:45,fee462bb-613b-402f-a422-e91434f0006d,S
2019-11-10 03:26:37,fee462bb-613b-402f-a422-e91434f0006d,A
2019-11-10 03:26:59,fee462bb-613b-402f-a422-e91434f0006d,S
2019-11-10 03:33:29,fee462bb-613b-402f-a422-e91434f0006d,A
2019-11-10 04:04:09,fee462bb-613b-402f-a422-e91434f0006d,S
2019-11-10 04:07:55,fee462bb-613b-402f-a422-e91434f0006d,A
2019-11-10 02:37:22,791e6f65-1fd6-47b8-b46f-d020bdd719dd,S
2019-11-10 02:41:31,791e6f65-1fd6-47b8-b46f-d020bdd719dd,A
2019-11-10 02:48:59,791e6f65-1fd6-47b8-b46f-d020bdd719dd,S
2019-11-10 02:53:11,791e6f65-1fd6-47b8-b46f-d020bdd719dd,A
2019-11-10 02:53:25,791e6f65-1fd6-47b8-b46f-d020bdd719dd,S
2019-11-10 03:02:54,791e6f65-1fd6-47b8-b46f-d020bdd719dd,A
2019-11-10 03:05:55,791e6f65-1fd6-47b8-b46f-d020bdd719dd,S
2019-11-10 03:07:22,791e6f65-1fd6-47b8-b46f-d020bdd719dd,A
2019-11-10 03:09:06,791e6f65-1fd6-47b8-b46f-d020bdd719dd,S
2019-11-10 03:18:46,791e6f65-1fd6-47b8-b46f-d020bdd719dd,A
2019-11-10 03:23:36,791e6f65-1fd6-47b8-b46f-d020bdd719dd,S
2019-11-10 03:25:19,791e6f65-1fd6-47b8-b46f-d020bdd719dd,A
2019-11-10 03:26:16,791e6f65-1fd6-47b8-b46f-d020bdd719dd,S
2019-11-10 03:31:43,791e6f65-1fd6-47b8-b46f-d020bdd719dd,A
2019-11-10 03:36:18,791e6f65-1fd6-47b8-b46f-d020bdd719dd,S
2019-11-10 03:40:59,791e6f65-1fd6-47b8-b46f-d020bdd719dd,A
2019-11-10 03:49:00,791e6f65-1fd6-47b8-b46f-d020bdd719dd,S
2019-11-10 03:54:11,791e6f65-1fd6-47b8-b46f-d020bdd719dd,A
2019-11-10 03:57:31,791e6f65-1fd6-47b8-b46f-d020bdd719dd,S
2019-11-10 04:10:17,791e6f65-1fd6-47b8-b46f-d020bdd719dd,A
2019-11-10 02:48:12,86c76aad-a526-42fe-b4ee-bf2a5bc0e8ff,A
2019-11-10 02:57:07,86c76aad-a526-42fe-b4ee-bf2a5bc0e8ff,S
2019-11-10 03:07:51,86c76aad-a526-42fe-b4ee-bf2a5bc0e8ff,A
2019-11-10 03:13:23,86c76aad-a526-42fe-b4ee-bf2a5bc0e8ff,S
2019-11-10 03:16:01,86c76aad-a526-42fe-b4ee-bf2a5bc0e8ff,A
2019-11-10 03:16:45,86c76aad-a526-42fe-b4ee-bf2a5bc0e8ff,S
2019-11-10 03:21:25,86c76aad-a526-42fe-b4ee-bf2a5bc0e8ff,A
2019-11-10 03:23:15,86c76aad-a526-42fe-b4ee-bf2a5bc0e8ff,S
2019-11-10 03:36:30,86c76aad-a526-42fe-b4ee-bf2a5bc0e8ff,A
2019-11-10 03:38:23,86c76aad-a526-42fe-b4ee-bf2a5bc0e8ff,S
2019-11-10 03:44:35,86c76aad-a526-42fe-b4ee-bf2a5bc0e8ff,A
2019-11-10 03:47:23,86c76aad-a526-42fe-b4ee-bf2a5bc0e8ff,S
2019-11-10 03:49:11,86c76aad-a526-42fe-b4ee-bf2a5bc0e8ff,A
2019-11-10 03:49:34,86c76aad-a526-42fe-b4ee-bf2a5bc0e8ff,S
2019-11-10 03:50:13,86c76aad-a526-42fe-b4ee-bf2a5bc0e8ff,A
2019-11-10 04:02:44,86c76aad-a526-42fe-b4ee-bf2a5bc0e8ff,S
2019-11-10 04:02:45,86c76aad-a526-42fe-b4ee-bf2a5bc0e8ff,A
2019-11-10 04:03:21,86c76aad-a526-42fe-b4ee-bf2a5bc0e8ff,S
2019-11-10 04:03:50,86c76aad-a526-42fe-b4ee-bf2a5bc0e8ff,A
2019-11-10 02:40:56,8f84e9c0-4ae7-4392-93f9-7393ad1ad5c1,S
2019-11-10 02:43:14,8f84e9c0-4ae7-4392-93f9-7393ad1ad5c1,A
2019-11-10 02:48:26,8f84e9c0-4ae7-4392-93f9-7393ad1ad5c1,S
2019-11-10 02:56:31,8f84e9c0-4ae7-4392-93f9-7393ad1ad5c1,A
2019-11-10 03:03:55,8f84e9c0-4ae7-4392-93f9-7393ad1ad5c1,S
2019-11-10 03:04:17,8f84e9c0-4ae7-4392-93f9-7393ad1ad5c1,A
2019-11-10 03:09:50,8f84e9c0-4ae7-4392-93f9-7393ad1ad5c1,S
2019-11-10 03:20:54,8f84e9c0-4ae7-4392-93f9-7393ad1ad5c1,A
2019-11-10 03:25:18,8f84e9c0-4ae7-4392-93f9-7393ad1ad5c1,S
2019-11-10 03:28:05,8f84e9c0-4ae7-4392-93f9-7393ad1ad5c1,A
2019-11-10 03:34:47,8f84e9c0-4ae7-4392-93f9-7393ad1ad5c1,S
2019-11-10 03:35:38,8f84e9c0-4ae7-4392-93f9-7393ad1ad5c1,A
2019-11-10 03:38:23,8f84e9c0-4ae7-4392-93f9-7393ad1ad5c1,S
2019-11-10 03:42:14,8f84e9c0-4ae7-4392-93f9-7393ad1ad5c1,A
2019-11-10 03:48:42,8f84e9c0-4ae7-4392-93f9-7393ad1ad5c1,S
2019-11-10 03:51:46,8f84e9c0-4ae7-4392-93f9-7393ad1ad5c1,A
2019-11-10 04:04:07,8f84e9c0-4ae7-4392-93f9-7393ad1ad5c1,S
2019-11-10 04:08:53,8f84e9c0-4ae7-4392-93f9-7393ad1ad5c1,A
2019-11-10 04:10:57,8f84e9c0-4ae7-4392-93f9-7393ad1ad5c1,S
2019-11-10 02:06:25,d1358d39-d4ed-4d20-8052-000f12812488,S
2019-11-10 02:07:30,d1358d39-d4ed-4d20-8052-000f12812488,A
2019-11-10 02:08:44,d1358d39-d4ed-4d20-8052-000f12812488,S
2019-11-10 02:12:23,d1358d39-d4ed-4d20-8052-000f12812488,A
2019-11-10 02:15:07,d1358d39-d4ed-4d20-8052-000f12812488,S
2019-11-10 02:20:17,d1358d39-d4ed-4d20-8052-000f12812488,A
2019-11-10 02:21:35,d1358d39-d4ed-4d20-8052-000f12812488,S
2019-11-10 02:27:34,d1358d39-d4ed-4d20-8052-000f12812488,A
2019-11-10 02:38:51,d1358d39-d4ed-4d20-8052-000f12812488,S
2019-11-10 02:42:31,d1358d39-d4ed-4d20-8052-000f12812488,A
2019-11-10 02:47:03,d1358d39-d4ed-4d20-8052-000f12812488,S
2019-11-10 02:58:31,d1358d39-d4ed-4d20-8052-000f12812488,A
2019-11-10 03:11:57,d1358d39-d4ed-4d20-8052-000f12812488,S
2019-11-10 03:12:56,d1358d39-d4ed-4d20-8052-000f12812488,A
2019-11-10 03:14:28,d1358d39-d4ed-4d20-8052-000f12812488,S
2019-11-10 03:15:14,d1358d39-d4ed-4d20-8052-000f12812488,A
2019-11-10 03:16:24,d1358d39-d4ed-4d20-8052-000f12812488,S
2019-11-10 03:25:00,d1358d39-d4ed-4d20-8052-000f12812488,A
2019-11-10 03:26:58,d1358d39-d4ed-4d20-8052-000f12812488,S
2019-11-10 03:28:46,d1358d39-d4ed-4d20-8052-000f12812488,A
2019-11-10 03:33:34,d1358d39-d4ed-4d20-8052-000f12812488,S
2019-11-10 03:42:26,d1358d39-d4ed-4d20-8052-000f12812488,A
2019-11-10 03:53:19,d1358d39-d4ed-4d20-8052-000f12812488,S
2019-11-10 03:57:15,d1358d39-d4ed-4d20-8052-000f12812488,A
2019-11-10 03:57:32,d1358d39-d4ed-4d20-8052-000f12812488,S
2019-11-10 04:03:12,d1358d39-d4ed-4d20-8052-000f12812488,A
2019-11-10 04:09:37,d1358d39-d4ed-4d20-8052-000f12812488,S
2019-11-10 04:09:37,d1358d39-d4ed-4d20-8052-000f12812488,A
2019-11-10 04:11:36,d1358d39-d4ed-4d20-8052-000f12812488,S
2019-11-10 02:27:29,83918075-3e8a-4b53-8426-d2e1f093deb9,A
2019-11-10 02:35:17,83918075-3e8a-4b53-8426-d2e1f093deb9,S
2019-11-10 02:36:48,83918075-3e8a-4b53-8426-d2e1f093deb9,A
2019-11-10 02:39:26,83918075-3e8a-4b53-8426-d2e1f093deb9,S
2019-11-10 02:44:07,83918075-3e8a-4b53-8426-d2e1f093deb9,A
2019-11-10 02:58:49,83918075-3e8a-4b53-8426-d2e1f093deb9,S
2019-11-10 02:59:24,83918075-3e8a-4b53-8426-d2e1f093deb9,A
2019-11-10 03:04:54,83918075-3e8a-4b53-8426-d2e1f093deb9,S
2019-11-10 03:12:07,83918075-3e8a-4b53-8426-d2e1f093deb9,A
2019-11-10 03:12:42,83918075-3e8a-4b53-8426-d2e1f093deb9,S
2019-11-10 03:24:32,83918075-3e8a-4b53-8426-d2e1f093deb9,A
2019-11-10 03:27:40,83918075-3e8a-4b53-8426-d2e1f093deb9,S
2019-11-10 03:39:30,83918075-3e8a-4b53-8426-d2e1f093deb9,A
2019-11-10 03:51:27,83918075-3e8a-4b53-8426-d2e1f093deb9,S
2019-11-10 03:56:20,83918075-3e8a-4b53-8426-d2e1f093deb9,A
2019-11-10 03:56:52,83918075-3e8a-4b53-8426-d2e1f093deb9,S
2019-11-10 03:57:11,83918075-3e8a-4b53-8426-d2e1f093deb9,A
2019-11-10 03:57:21,83918075-3e8a-4b53-8426-d2e1f093deb9,S
2019-11-10 03:58:31,83918075-3e8a-4b53-8426-d2e1f093deb9,A
2019-11-10 04:02:13,83918075-3e8a-4b53-8426-d2e1f093deb9,S
2019-11-10 04:11:04,83918075-3e8a-4b53-8426-d2e1f093deb9,A
2019-11-10 02:56:10,af49b3c3-97e0-4d3f-8ebf-0016ad5aa24c,S
2019-11-10 02:58:29,af49b3c3-97e0-4d3f-8ebf-0016ad5aa24c,A
2019-11-10 03:05:00,af49b3c3-97e0-4d3f-8ebf-0016ad5aa24c,S
2019-11-10 03:05:58,af49b3c3-97e0-4d3f-8ebf-0016ad5aa24c,A
2019-11-10 03:06:19,af49b3c3-97e0-4d3f-8ebf-0016ad5aa24c,S
2019-11-10 03:11:28,af49b3c3-97e0-4d3f-8ebf-0016ad5aa24c,A
2019-11-10 03:16:22,af49b3c3-97e0-4d3f-8ebf-0016ad5aa24c,S
2019-11-10 03:21:02,af49b3c3-97e0-4d3f-8ebf-0016ad5aa24c,A
2019-11-10 03:34:01,af49b3c3-97e0-4d3f-8ebf-0016ad5aa24c,S
2019-11-10 03:51:31,af49b3c3-97e0-4d3f-8ebf-0016ad5aa24c,A
2019-11-10 03:56:14,af49b3c3-97e0-4d3f-8ebf-0016ad5aa24c,S
2019-11-10 03:58:22,af49b3c3-97e0-4d3f-8ebf-0016ad5aa24c,A
2019-11-10 03:59:36,af49b3c3-97e0-4d3f-8ebf-0016ad5aa24c,S
2019-11-10 04:00:58,af49b3c3-97e0-4d3f-8ebf-0016ad5aa24c,A
2019-11-10 04:01:42,af49b3c3-97e0-4d3f-8ebf-0016ad5aa24c,S
2019-11-10 04:02:15,af49b3c3-97e0-4d3f-8ebf-0016ad5aa24c,A
2019-11-10 04:03:20,af49b3c3-97e0-4d3f-8ebf-0016ad5aa24c,S
2019-11-10 04:10:00,af49b3c3-97e0-4d3f-8ebf-0016ad5aa24c,A
2019-11-10 04:10:20,af49b3c3-97e0-4d3f-8ebf-0016ad5aa24c,S
2019-11-10 04:11:07,af49b3c3-97e0-4d3f-8ebf-0016ad5aa24c,A
2019-11-10 04:11:09,af49b3c3-97e0-4d3f-8ebf-0016ad5aa24c,S
2019-11-10 02:23:44,73def29e-3b44-4480-b54c-98d20c2ca565,A
2019-11-10 02:30:37,73def29e-3b44-4480-b54c-98d20c2ca565,S
2019-11-10 02:35:23,73def29e-3b44-4480-b54c-98d20c2ca565,A
2019-11-10 02:41:57,73def29e-3b44-4480-b54c-98d20c2ca565,S
2019-11-10 02:47:52,73def29e-3b44-4480-b54c-98d20c2ca565,A
2019-11-10 02:58:30,73def29e-3b44-4480-b54c-98d20c2ca565,S
2019-11-10 03:05:45,73def29e-3b44-4480-b54c-98d20c2ca565,A
2019-11-10 03:08:12,73def29e-3b44-4480-b54c-98d20c2ca565,S
2019-11-10 03:09:53,73def29e-3b44-4480-b54c-98d20c2ca565,A
2019-11-10 03:14:30,73def29e-3b44-4480-b54c-98d20c2ca565,S
2019-11-10 03:19:30,73def29e-3b44-4480-b54c-98d20c2ca565,A
2019-11-10 03:29:26,73def29e-3b44-4480-b54c-98d20c2ca565,S
2019-11-10 03:29:30,73def29e-3b44-4480-b54c-98d20c2ca565,A
2019-11-10 03:34:10,73def29e-3b44-4480-b54c-98d20c2ca565,S
2019-11-10 03:35:54,73def29e-3b44-4480-b54c-98d20c2ca565,A
2019-11-10 03:42:37,73def29e-3b44-4480-b54c-98d20c2ca565,S
2019-11-10 03:42:43,73def29e-3b44-4480-b54c-98d20c2ca565,A
2019-11-10 03:45:26,73def29e-3b44-4480-b54c-98d20c2ca565,S
2019-11-10 03:52:19,73def29e-3b44-4480-b54c-98d20c2ca565,A
2019-11-10 02:56:17,fca91de2-dc34-4332-a6d6-9143555143be,S
2019-11-10 02:57:31,fca91de2-dc34-4332-a6d6-9143555143be,A
2019-11-10 03:03:16,fca91de2-dc34-4332-a6d6-9143555143be,S
2019-11-10 03:16:36,fca91de2-dc34-4332-a6d6-9143555143be,A
2019-11-10 03:24:21,fca91de2-dc34-4332-a6d6-9143555143be,S
2019-11-10 03:26:52,fca91de2-dc34-4332-a6d6-9143555143be,A
2019-11-10 03:43:14,fca91de2-dc34-4332-a6d6-9143555143be,S
2019-11-10 03:49:22,fca91de2-dc34-4332-a6d6-9143555143be,A
2019-11-10 04:04:10,fca91de2-dc34-4332-a6d6-9143555143be,S
2019-11-10 04:09:25,fca91de2-dc34-4332-a6d6-9143555143be,A
2019-11-10 04:11:58,fca91de2-dc34-4332-a6d6-9143555143be,S
2019-11-10 02:52:04,a5c26802-2a5c-40a7-80a5-d0bccbb03cf6,A
2019-11-10 02:57:10,a5c26802-2a5c-40a7-80a5-d0bccbb03cf6,S
2019-11-10 02:58:14,a5c26802-2a5c-40a7-80a5-d0bccbb03cf6,A
2019-11-10 03:00:09,a5c26802-2a5c-40a7-80a5-d0bccbb03cf6,S
2019-11-10 03:07:44,a5c26802-2a5c-40a7-80a5-d0bccbb03cf6,A
2019-11-10 03:09:09,a5c26802-2a5c-40a7-80a5-d0bccbb03cf6,S
2019-11-10 03:19:02,a5c26802-2a5c-40a7-80a5-d0bccbb03cf6,A
2019-11-10 03:20:51,a5c26802-2a5c-40a7-80a5-d0bccbb03cf6,S
2019-11-10 03:25:44,a5c26802-2a5c-40a7-80a5-d0bccbb03cf6,A
2019-11-10 03:30:08,a5c26802-2a5c-40a7-80a5-d0bccbb03cf6,S
2019-11-10 03:38:53,a5c26802-2a5c-40a7-80a5-d0bccbb03cf6,A
2019-11-10 03:40:24,a5c26802-2a5c-40a7-80a5-d0bccbb03cf6,S
2019-11-10 03:42:18,a5c26802-2a5c-40a7-80a5-d0bccbb03cf6,A
2019-11-10 03:44:45,a5c26802-2a5c-40a7-80a5-d0bccbb03cf6,S
2019-11-10 03:48:59,a5c26802-2a5c-40a7-80a5-d0bccbb03cf6,A
2019-11-10 03:54:48,a5c26802-2a5c-40a7-80a5-d0bccbb03cf6,S
2019-11-10 04:00:18,a5c26802-2a5c-40a7-80a5-d0bccbb03cf6,A
2019-11-10 04:09:31,a5c26802-2a5c-40a7-80a5-d0bccbb03cf6,S
2019-11-10 02:08:47,c6920521-29be-45f3-91f6-5fe37a33da58,A
2019-11-10 02:24:50,c6920521-29be-45f3-91f6-5fe37a33da58,S
2019-11-10 02:28:04,c6920521-29be-45f3-91f6-5fe37a33da58,A
2019-11-10 02:30:50,c6920521-29be-45f3-91f6-5fe37a33da58,S
2019-11-10 02:31:21,c6920521-29be-45f3-91f6-5fe37a33da58,A
2019-11-10 02:45:19,c6920521-29be-45f3-91f6-5fe37a33da58,S
2019-11-10 02:48:48,c6920521-29be-45f3-91f6-5fe37a33da58,A
2019-11-10 02:51:39,c6920521-29be-45f3-91f6-5fe37a33da58,S
2019-11-10 02:55:40,c6920521-29be-45f3-91f6-5fe37a33da58,A
2019-11-10 03:09:03,c6920521-29be-45f3-91f6-5fe37a33da58,S
2019-11-10 03:09:14,c6920521-29be-45f3-91f6-5fe37a33da58,A
2019-11-10 03:17:56,c6920521-29be-45f3-91f6-5fe37a33da58,S
2019-11-10 03:22:12,c6920521-29be-45f3-91f6-5fe37a33da58,A
2019-11-10 03:28:49,c6920521-29be-45f3-91f6-5fe37a33da58,S
2019-11-10 03:31:21,c6920521-29be-45f3-91f6-5fe37a33da58,A
2019-11-10 03:42:32,c6920521-29be-45f3-91f6-5fe37a33da58,S
2019-11-10 03:44:26,c6920521-29be-45f3-91f6-5fe37a33da58,A
2019-11-10 03:45:24,c6920521-29be-45f3-91f6-5fe37a33da58,S
2019-11-10 03:48:17,c6920521-29be-45f3-91f6-5fe37a33da58,A
2019-11-10 03:54:15,c6920521-29be-45f3-91f6-5fe37a33da58,S
2019-11-10 04:03:03,c6920521-29be-45f3-91f6-5fe37a33da58,A
2019-11-10 04:06:06,c6920521-29be-45f3-91f6-5fe37a33da58,S
2019-11-10 04:07:57,c6920521-29be-45f3-91f6-5fe37a33da58,A
2019-11-10 04:10:07,c6920521-29be-45f3-91f6-5fe37a33da58,S
2019-11-10 02:54:03,ec6235ae-082d-452a-a183-e77a08d8391d,S
2019-11-10 02:54:52,ec6235ae-082d-452a-a183-e77a08d8391d,A
2019-11-10 03:07:28,ec6235ae-082d-452a-a183-e77a08d8391d,S
2019-11-10 03:08:34,ec6235ae-082d-452a-a183-e77a08d8391d,A
2019-11-10 03:10:39,ec6235ae-082d-452a-a183-e77a08d8391d,S
2019-11-10 03:35:32,ec6235ae-082d-452a-a183-e77a08d8391d,A
2019-11-10 03:47:22,ec6235ae-082d-452a-a183-e77a08d8391d,S
2019-11-10 03:51:43,ec6235ae-082d-452a-a183-e77a08d8391d,A
2019-11-10 03:51:44,ec6235ae-082d-452a-a183-e77a08d8391d,S
2019-11-10 03:55:53,ec6235ae-082d-452a-a183-e77a08d8391d,A
2019-11-10 04:00:05,ec6235ae-082d-452a-a183-e77a08d8391d,S
2019-11-10 04:09:28,ec6235ae-082d-452a-a183-e77a08d8391d,A
2019-11-10 02:24:29,0df39227-de41-4864-961d-6f9303ac373f,S
2019-11-10 02:36:34,0df39227-de41-4864-961d-6f9303ac373f,A
2019-11-10 02:54:56,0df39227-de41-4864-961d-6f9303ac373f,S
2019-11-10 02:57:19,0df39227-de41-4864-961d-6f9303ac373f,A
2019-11-10 03:00:38,0df39227-de41-4864-961d-6f9303ac373f,S
2019-11-10 03:03:57,0df39227-de41-4864-961d-6f9303ac373f,A
2019-11-10 03:15:27,0df39227-de41-4864-961d-6f9303ac373f,S
2019-11-10 03:16:16,0df39227-de41-4864-961d-6f9303ac373f,A
2019-11-10 03:17:56,0df39227-de41-4864-961d-6f9303ac373f,S
2019-11-10 03:18:48,0df39227-de41-4864-961d-6f9303ac373f,A
2019-11-10 03:36:12,0df39227-de41-4864-961d-6f9303ac373f,S
2019-11-10 03:36:18,0df39227-de41-4864-961d-6f9303ac373f,A
2019-11-10 03:39:27,0df39227-de41-4864-961d-6f9303ac373f,S
2019-11-10 03:42:54,0df39227-de41-4864-961d-6f9303ac373f,A
2019-11-10 03:45:08,0df39227-de41-4864-961d-6f9303ac373f,S
2019-11-10 03:51:05,0df39227-de41-4864-961d-6f9303ac373f,A
2019-11-10 03:52:28,0df39227-de41-4864-961d-6f9303ac373f,S
2019-11-10 03:56:23,0df39227-de41-4864-961d-6f9303ac373f,A
2019-11-10 04:01:57,0df39227-de41-4864-961d-6f9303ac373f,S
2019-11-10 02:52:50,16b39e52-6d69-4f82-8e2d-8493e4430bba,S
2019-11-10 02:55:02,16b39e52-6d69-4f82-8e2d-8493e4430bba,A
2019-11-10 02:57:47,16b39e52-6d69-4f82-8e2d-8493e4430bba,S
2019-11-10 03:14:43,16b39e52-6d69-4f82-8e2d-8493e4430bba,A
2019-11-10 03:16:23,16b39e52-6d69-4f82-8e2d-8493e4430bba,S
2019-11-10 03:17:30,16b39e52-6d69-4f82-8e2d-8493e4430bba,A
2019-11-10 03:22:45,16b39e52-6d69-4f82-8e2d-8493e4430bba,S
2019-11-10 03:31:23,16b39e52-6d69-4f82-8e2d-8493e4430bba,A
2019-11-10 03:33:20,16b39e52-6d69-4f82-8e2d-8493e4430bba,S
2019-11-10 03:40:56,16b39e52-6d69-4f82-8e2d-8493e4430bba,A
2019-11-10 03:41:44,16b39e52-6d69-4f82-8e2d-8493e4430bba,S
2019-11-10 03:53:31,16b39e52-6d69-4f82-8e2d-8493e4430bba,A
2019-11-10 04:01:23,16b39e52-6d69-4f82-8e2d-8493e4430bba,S
2019-11-10 04:03:02,16b39e52-6d69-4f82-8e2d-8493e4430bba,A
2019-11-10 04:06:51,16b39e52-6d69-4f82-8e2d-8493e4430bba,S
2019-11-10 04:09:09,16b39e52-6d69-4f82-8e2d-8493e4430bba,A
2019-11-10 02:48:04,87fd4e1b-e6bb-4b37-8a3c-2e21e762bfcd,A
2019-11-10 03:02:47,87fd4e1b-e6bb-4b37-8a3c-2e21e762bfcd,S
2019-11-10 03:04:53,87fd4e1b-e6bb-4b37-8a3c-2e21e762bfcd,A
2019-11-10 03:13:59,87fd4e1b-e6bb-4b37-8a3c-2e21e762bfcd,S
2019-11-10 03:25:32,87fd4e1b-e6bb-4b37-8a3c-2e21e762bfcd,A
2019-11-10 03:31:44,87fd4e1b-e6bb-4b37-8a3c-2e21e762bfcd,S
2019-11-10 03:38:25,87fd4e1b-e6bb-4b37-8a3c-2e21e762bfcd,A
2019-11-10 03:38:48,87fd4e1b-e6bb-4b37-8a3c-2e21e762bfcd,S
2019-11-10 03:39:55,87fd4e1b-e6bb-4b37-8a3c-2e21e762bfcd,A
2019-11-10 03:44:14,87fd4e1b-e6bb-4b37-8a3c-2e21e762bfcd,S
2019-11-10 03:44:46,87fd4e1b-e6bb-4b37-8a3c-2e21e762bfcd,A
2019-11-10 03:51:25,87fd4e1b-e6bb-4b37-8a3c-2e21e762bfcd,S
2019-11-10 03:54:08,87fd4e1b-e6bb-4b37-8a3c-2e21e762bfcd,A
2019-11-10 03:55:55,87fd4e1b-e6bb-4b37-8a3c-2e21e762bfcd,S
2019-11-10 03:59:42,87fd4e1b-e6bb-4b37-8a3c-2e21e762bfcd,A
2019-11-10 04:05:58,87fd4e1b-e6bb-4b37-8a3c-2e21e762bfcd,S
2019-11-10 04:06:11,87fd4e1b-e6bb-4b37-8a3c-2e21e762bfcd,A
2019-11-10 04:08:47,87fd4e1b-e6bb-4b37-8a3c-2e21e762bfcd,S
2019-11-10 02:30:18,03c15350-65b6-490e-81b4-8315a9483062,S
2019-11-10 02:39:20,03c15350-65b6-490e-81b4-8315a9483062,A
2019-11-10 02:44:32,03c15350-65b6-490e-81b4-8315a9483062,S
2019-11-10 02:57:18,03c15350-65b6-490e-81b4-8315a9483062,A
2019-11-10 02:58:17,03c15350-65b6-490e-81b4-8315a9483062,S
2019-11-10 03:09:30,03c15350-65b6-490e-81b4-8315a9483062,A
2019-11-10 03:09:43,03c15350-65b6-490e-81b4-8315a9483062,S
2019-11-10 03:13:10,03c15350-65b6-490e-81b4-8315a9483062,A
2019-11-10 03:24:14,03c15350-65b6-490e-81b4-8315a9483062,S
2019-11-10 03:27:15,03c15350-65b6-490e-81b4-8315a9483062,A
2019-11-10 03:33:51,03c15350-65b6-490e-81b4-8315a9483062,S
2019-11-10 03:35:47,03c15350-65b6-490e-81b4-8315a9483062,A
2019-11-10 03:43:12,03c15350-65b6-490e-81b4-8315a9483062,S
2019-11-10 03:47:18,03c15350-65b6-490e-81b4-8315a9483062,A
2019-11-10 03:48:00,03c15350-65b6-490e-81b4-8315a9483062,S
2019-11-10 03:48:22,03c15350-65b6-490e-81b4-8315a9483062,A
2019-11-10 03:51:45,03c15350-65b6-490e-81b4-8315a9483062,S
2019-11-10 03:54:49,03c15350-65b6-490e-81b4-8315a9483062,A
2019-11-10 04:08:00,03c15350-65b6-490e-81b4-8315a9483062,S
2019-11-10 04:12:10,03c15350-65b6-490e-81b4-8315a9483062,A
2019-11-10 04:12:17,03c15350-65b6-490e-81b4-8315a9483062,S
2019-11-10 02:09:11,021eb705-2382-43a1-a0d0-9d7742b25009,S
2019-11-10 02:13:14,021eb705-2382-43a1-a0d0-9d7742b25009,A
2019-11-10 02:14:03,021eb705-2382-43a1-a0d0-9d7742b25009,S
2019-11-10 02:19:17,021eb705-2382-43a1-a0d0-9d7742b25009,A
2019-11-10 02:24:10,021eb705-2382-43a1-a0d0-9d7742b25009,S
2019-11-10 02:29:08,021eb705-2382-43a1-a0d0-9d7742b25009,A
2019-11-10 02:31:43,021eb705-2382-43a1-a0d0-9d7742b25009,S
2019-11-10 02:32:29,021eb705-2382-43a1-a0d0-9d7742b25009,A
2019-11-10 02:43:05,021eb705-2382-43a1-a0d0-9d7742b25009,S
2019-11-10 02:43:29,021eb705-2382-43a1-a0d0-9d7742b25009,A
2019-11-10 02:51:07,021eb705-2382-43a1-a0d0-9d7742b25009,S
2019-11-10 02:56:27,021eb705-2382-43a1-a0d0-9d7742b25009,A
2019-11-10 02:56:53,021eb705-2382-43a1-a0d0-9d7742b25009,S
2019-11-10 03:03:18,021eb705-2382-43a1-a0d0-9d7742b25009,A
2019-11-10 03:05:22,021eb705-2382-43a1-a0d0-9d7742b25009,S
2019-11-10 03:05:36,021eb705-2382-43a1-a0d0-9d7742b25009,A
2019-11-10 03:10:39,021eb705-2382-43a1-a0d0-9d7742b25009,S
2019-11-10 03:11:20,021eb705-2382-43a1-a0d0-9d7742b25009,A
2019-11-10 03:28:26,021eb705-2382-43a1-a0d0-9d7742b25009,S
2019-11-10 03:30:43,021eb705-2382-43a1-a0d0-9d7742b25009,A
2019-11-10 03:31:03,021eb705-2382-43a1-a0d0-9d7742b25009,S
2019-11-10 03:34:28,021eb705-2382-43a1-a0d0-9d7742b25009,A
2019-11-10 03:34:39,021eb705-2382-43a1-a0d0-9d7742b25009,S
2019-11-10 03:41:40,021eb705-2382-43a1-a0d0-9d7742b25009,A
2019-11-10 03:47:29,021eb705-2382-43a1-a0d0-9d7742b25009,S
2019-11-10 04:08:11,021eb705-2382-43a1-a0d0-9d7742b25009,A
2019-11-10 04:09:28,021eb705-2382-43a1-a0d0-9d7742b25009,S
2019-11-10 02:53:57,15fe5cbb-cb6a-418e-8b53-7c1176924037,A
2019-11-10 03:27:43,15fe5cbb-cb6a-418e-8b53-7c1176924037,S
2019-11-10 03:28:11,15fe5cbb-cb6a-418e-8b53-7c1176924037,A
2019-11-10 03:57:27,15fe5cbb-cb6a-418e-8b53-7c1176924037,S
2019-11-10 04:00:31,15fe5cbb-cb6a-418e-8b53-7c1176924037,A
2019-11-10 04:02:59,15fe5cbb-cb6a-418e-8b53-7c1176924037,S
2019-11-10 04:04:31,15fe5cbb-cb6a-418e-8b53-7c1176924037,A
2019-11-10 04:05:17,15fe5cbb-cb6a-418e-8b53-7c1176924037,S
2019-11-10 04:08:32,15fe5cbb-cb6a-418e-8b53-7c1176924037,A
2019-11-10 02:54:31,ad3061e0-649f-4087-b19d-6d8ad81269f5,S
2019-11-10 03:08:06,ad3061e0-649f-4087-b19d-6d8ad81269f5,A
2019-11-10 03:12:59,ad3061e0-649f-4087-b19d-6d8ad81269f5,S
2019-11-10 03:13:32,ad3061e0-649f-4087-b19d-6d8ad81269f5,A
2019-11-10 03:17:23,ad3061e0-649f-4087-b19d-6d8ad81269f5,S
2019-11-10 03:18:05,ad3061e0-649f-4087-b19d-6d8ad81269f5,A
2019-11-10 03:26:44,ad3061e0-649f-4087-b19d-6d8ad81269f5,S
2019-11-10 03:27:47,ad3061e0-649f-4087-b19d-6d8ad81269f5,A
2019-11-10 03:30:03,ad3061e0-649f-4087-b19d-6d8ad81269f5,S
2019-11-10 03:32:12,ad3061e0-649f-4087-b19d-6d8ad81269f5,A
2019-11-10 03:34:34,ad3061e0-649f-4087-b19d-6d8ad81269f5,S
2019-11-10 03:38:25,ad3061e0-649f-4087-b19d-6d8ad81269f5,A
2019-11-10 03:39:37,ad3061e0-649f-4087-b19d-6d8ad81269f5,S
2019-11-10 03:40:28,ad3061e0-649f-4087-b19d-6d8ad81269f5,A
2019-11-10 03:42:37,ad3061e0-649f-4087-b19d-6d8ad81269f5,S
2019-11-10 03:43:00,ad3061e0-649f-4087-b19d-6d8ad81269f5,A
2019-11-10 03:43:16,ad3061e0-649f-4087-b19d-6d8ad81269f5,S
2019-11-10 03:47:47,ad3061e0-649f-4087-b19d-6d8ad81269f5,A
2019-11-10 03:48:38,ad3061e0-649f-4087-b19d-6d8ad81269f5,S
2019-11-10 03:58:10,ad3061e0-649f-4087-b19d-6d8ad81269f5,A
2019-11-10 04:04:12,ad3061e0-649f-4087-b19d-6d8ad81269f5,S
2019-11-10 04:12:11,ad3061e0-649f-4087-b19d-6d8ad81269f5,A
2019-11-10 02:17:05,145ffb79-a4ee-47c5-877e-5f20b274c50c,S
2019-11-10 02:22:02,145ffb79-a4ee-47c5-877e-5f20b274c50c,A
2019-11-10 02:22:24,145ffb79-a4ee-47c5-877e-5f20b274c50c,S
2019-11-10 02:27:08,145ffb79-a4ee-47c5-877e-5f20b274c50c,A
2019-11-10 02:32:06,145ffb79-a4ee-47c5-877e-5f20b274c50c,S
2019-11-10 02:34:08,145ffb79-a4ee-47c5-877e-5f20b274c50c,A
2019-11-10 02:44:12,145ffb79-a4ee-47c5-877e-5f20b274c50c,S
2019-11-10 02:46:53,145ffb79-a4ee-47c5-877e-5f20b274c50c,A
2019-11-10 02:47:48,145ffb79-a4ee-47c5-877e-5f20b274c50c,S
2019-11-10 02:55:50,145ffb79-a4ee-47c5-877e-5f20b274c50c,A
2019-11-10 03:04:38,145ffb79-a4ee-47c5-877e-5f20b274c50c,S
2019-11-10 03:06:48,145ffb79-a4ee-47c5-877e-5f20b274c50c,A
2019-11-10 03:06:58,145ffb79-a4ee-47c5-877e-5f20b274c50c,S
2019-11-10 03:26:15,145ffb79-a4ee-47c5-877e-5f20b274c50c,A
2019-11-10 03:28:28,145ffb79-a4ee-47c5-877e-5f20b274c50c,S
2019-11-10 03:46:03,145ffb79-a4ee-47c5-877e-5f20b274c50c,A
2019-11-10 03:56:13,145ffb79-a4ee-47c5-877e-5f20b274c50c,S
2019-11-10 04:12:05,145ffb79-a4ee-47c5-877e-5f20b274c50c,A
2019-11-10 04:13:18,145ffb79-a4ee-47c5-877e-5f20b274c50c,S
2019-11-10 02:42:00,f5e41a9e-16a6-4951-98a5-1aad32694447,A
2019-11-10 02:42:30,f5e41a9e-16a6-4951-98a5-1aad32694447,S
2019-11-10 02:50:59,f5e41a9e-16a6-4951-98a5-1aad32694447,A
2019-11-10 02:52:19,f5e41a9e-16a6-4951-98a5-1aad32694447,S
2019-11-10 02:52:19,f5e41a9e-16a6-4951-98a5-1aad32694447,A
2019-11-10 03:00:56,f5e41a9e-16a6-4951-98a5-1aad32694447,S
2019-11-10 03:02:10,f5e41a9e-16a6-4951-98a5-1aad32694447,A
2019-11-10 03:03:00,f5e41a9e-16a6-4951-98a5-1aad32694447,S
2019-11-10 03:06:47,f5e41a9e-16a6-4951-98a5-1aad32694447,A
2019-11-10 03:07:53,f5e41a9e-16a6-4951-98a5-1aad32694447,S
2019-11-10 03:08:06,f5e41a9e-16a6-4951-98a5-1aad32694447,A
2019-11-10 03:13:39,f5e41a9e-16a6-4951-98a5-1aad32694447,S
2019-11-10 03:18:58,f5e41a9e-16a6-4951-98a5-1aad32694447,A
2019-11-10 03:31:13,f5e41a9e-16a6-4951-98a5-1aad32694447,S
2019-11-10 03:31:28,f5e41a9e-16a6-4951-98a5-1aad32694447,A
2019-11-10 03:35:39,f5e41a9e-16a6-4951-98a5-1aad32694447,S
2019-11-10 03:45:15,f5e41a9e-16a6-4951-98a5-1aad32694447,A
2019-11-10 03:57:20,f5e41a9e-16a6-4951-98a5-1aad32694447,S
2019-11-10 04:00:50,f5e41a9e-16a6-4951-98a5-1aad32694447,A
2019-11-10 04:05:13,f5e41a9e-16a6-4951-98a5-1aad32694447,S
2019-11-10 04:06:37,f5e41a9e-16a6-4951-98a5-1aad32694447,A
2019-11-10 04:07:13,f5e41a9e-16a6-4951-98a5-1aad32694447,S
2019-11-10 02:47:15,47ace167-da1d-4c8e-a458-8b484e5ae9f3,A
2019-11-10 02:49:07,47ace167-da1d-4c8e-a458-8b484e5ae9f3,S
2019-11-10 02:58:35,47ace167-da1d-4c8e-a458-8b484e5ae9f3,A
2019-11-10 03:12:42,47ace167-da1d-4c8e-a458-8b484e5ae9f3,S
2019-11-10 03:14:18,47ace167-da1d-4c8e-a458-8b484e5ae9f3,A
2019-11-10 03:15:52,47ace167-da1d-4c8e-a458-8b484e5ae9f3,S
2019-11-10 03:17:45,47ace167-da1d-4c8e-a458-8b484e5ae9f3,A
2019-11-10 03:24:13,47ace167-da1d-4c8e-a458-8b484e5ae9f3,S
2019-11-10 03:29:07,47ace167-da1d-4c8e-a458-8b484e5ae9f3,A
2019-11-10 03:36:38,47ace167-da1d-4c8e-a458-8b484e5ae9f3,S
2019-11-10 03:36:41,47ace167-da1d-4c8e-a458-8b484e5ae9f3,A
2019-11-10 03:37:00,47ace167-da1d-4c8e-a458-8b484e5ae9f3,S
2019-11-10 03:39:20,47ace167-da1d-4c8e-a458-8b484e5ae9f3,A
2019-11-10 03:42:32,47ace167-da1d-4c8e-a458-8b484e5ae9f3,S
2019-11-10 03:43:18,47ace167-da1d-4c8e-a458-8b484e5ae9f3,A
2019-11-10 03:54:18,47ace167-da1d-4c8e-a458-8b484e5ae9f3,S
2019-11-10 03:55:06,47ace167-da1d-4c8e-a458-8b484e5ae9f3,A
2019-11-10 03:55:32,47ace167-da1d-4c8e-a458-8b484e5ae9f3,S
2019-11-10 03:57:45,47ace167-da1d-4c8e-a458-8b484e5ae9f3,A
2019-11-10 03:59:59,47ace167-da1d-4c8e-a458-8b484e5ae9f3,S
2019-11-10 04:00:18,47ace167-da1d-4c8e-a458-8b484e5ae9f3,A
2019-11-10 04:09:43,47ace167-da1d-4c8e-a458-8b484e5ae9f3,S
2019-11-10 02:21:49,eb534934-d9ed-4d54-a97d-45e008d4a681,A
2019-11-10 02:25:15,eb534934-d9ed-4d54-a97d-45e008d4a681,S
2019-11-10 02:30:20,eb534934-d9ed-4d54-a97d-45e008d4a681,A
2019-11-10 02:32:10,eb534934-d9ed-4d54-a97d-45e008d4a681,S
2019-11-10 02:42:41,eb534934-d9ed-4d54-a97d-45e008d4a681,A
2019-11-10 02:43:16,eb534934-d9ed-4d54-a97d-45e008d4a681,S
2019-11-10 02:51:41,eb534934-d9ed-4d54-a97d-45e008d4a681,A
2019-11-10 02:54:01,eb534934-d9ed-4d54-a97d-45e008d4a681,S
2019-11-10 03:02:25,eb534934-d9ed-4d54-a97d-45e008d4a681,A
2019-11-10 03:20:51,eb534934-d9ed-4d54-a97d-45e008d4a681,S
2019-11-10 03:22:06,eb534934-d9ed-4d54-a97d-45e008d4a681,A
2019-11-10 03:22:18,eb534934-d9ed-4d54-a97d-45e008d4a681,S
2019-11-10 03:25:30,eb534934-d9ed-4d54-a97d-45e008d4a681,A
2019-11-10 03:34:21,eb534934-d9ed-4d54-a97d-45e008d4a681,S
2019-11-10 03:49:25,eb534934-d9ed-4d54-a97d-45e008d4a681,A
2019-11-10 03:49:43,eb534934-d9ed-4d54-a97d-45e008d4a681,S
2019-11-10 04:00:15,eb534934-d9ed-4d54-a97d-45e008d4a681,A
2019-11-10 04:13:14,eb534934-d9ed-4d54-a97d-45e008d4a681,S
2019-11-10 04:14:14,eb534934-d9ed-4d54-a97d-45e008d4a681,A
2019-11-10 02:21:20,2a683875-fa4b-4c95-ae98-3e4f82384860,A
2019-11-10 02:24:11,2a683875-fa4b-4c95-ae98-3e4f82384860,S
2019-11-10 02:29:17,2a683875-fa4b-4c95-ae98-3e4f82384860,A
2019-11-10 02:44:45,2a683875-fa4b-4c95-ae98-3e4f82384860,S
2019-11-10 02:53:48,2a683875-fa4b-4c95-ae98-3e4f82384860,A
2019-11-10 03:03:31,2a683875-fa4b-4c95-ae98-3e4f82384860,S
2019-11-10 03:12:01,2a683875-fa4b-4c95-ae98-3e4f82384860,A
2019-11-10 03:12:47,2a683875-fa4b-4c95-ae98-3e4f82384860,S
2019-11-10 03:13:06,2a683875-fa4b-4c95-ae98-3e4f82384860,A
2019-11-10 03:21:44,2a683875-fa4b-4c95-ae98-3e4f82384860,S
2019-11-10 03:24:43,2a683875-fa4b-4c95-ae98-3e4f82384860,A
2019-11-10 03:24:46,2a683875-fa4b-4c95-ae98-3e4f82384860,S
2019-11-10 03:25:57,2a683875-fa4b-4c95-ae98-3e4f82384860,A
2019-11-10 03:27:47,2a683875-fa4b-4c95-ae98-3e4f82384860,S
2019-11-10 03:29:38,2a683875-fa4b-4c95-ae98-3e4f82384860,A
2019-11-10 03:30:37,2a683875-fa4b-4c95-ae98-3e4f82384860,S
2019-11-10 03:32:20,2a683875-fa4b-4c95-ae98-3e4f82384860,A
2019-11-10 03:41:36,2a683875-fa4b-4c95-ae98-3e4f82384860,S
2019-11-10 03:43:43,2a683875-fa4b-4c95-ae98-3e4f82384860,A
2019-11-10 03:44:41,2a683875-fa4b-4c95-ae98-3e4f82384860,S
2019-11-10 03:47:08,2a683875-fa4b-4c95-ae98-3e4f82384860,A
2019-11-10 03:55:54,2a683875-fa4b-4c95-ae98-3e4f82384860,S
2019-11-10 03:58:11,2a683875-fa4b-4c95-ae98-3e4f82384860,A
2019-11-10 04:03:03,2a683875-fa4b-4c95-ae98-3e4f82384860,S
2019-11-10 04:03:10,2a683875-fa4b-4c95-ae98-3e4f82384860,A
2019-11-10 04:03:49,2a683875-fa4b-4c95-ae98-3e4f82384860,S
2019-11-10 04:07:18,2a683875-fa4b-4c95-ae98-3e4f82384860,A
2019-11-10 04:08:44,2a683875-fa4b-4c95-ae98-3e4f82384860,S
2019-11-10 04:14:24,2a683875-fa4b-4c95-ae98-3e4f82384860,A
2019-11-10 02:11:10,e9d0fa12-31eb-42c9-b7b9-5747afec588c,A
2019-11-10 02:14:38,e9d0fa12-31eb-42c9-b7b9-5747afec588c,S
2019-11-10 02:23:11,e9d0fa12-31eb-42c9-b7b9-5747afec588c,A
2019-11-10 02:26:14,e9d0fa12-31eb-42c9-b7b9-5747afec588c,S
2019-11-10 02:26:31,e9d0fa12-31eb-42c9-b7b9-5747afec588c,A
2019-11-10 02:28:59,e9d0fa12-31eb-42c9-b7b9-5747afec588c,S
2019-11-10 02:34:19,e9d0fa12-31eb-42c9-b7b9-5747afec588c,A
2019-11-10 02:38:14,e9d0fa12-31eb-42c9-b7b9-5747afec588c,S
2019-11-10 02:40:59,e9d0fa12-31eb-42c9-b7b9-5747afec588c,A
2019-11-10 02:51:47,e9d0fa12-31eb-42c9-b7b9-5747afec588c,S
2019-11-10 02:57:24,e9d0fa12-31eb-42c9-b7b9-5747afec588c,A
2019-11-10 03:19:59,e9d0fa12-31eb-42c9-b7b9-5747afec588c,S
2019-11-10 03:44:20,e9d0fa12-31eb-42c9-b7b9-5747afec588c,A
2019-11-10 03:50:54,e9d0fa12-31eb-42c9-b7b9-5747afec588c,S
2019-11-10 03:54:20,e9d0fa12-31eb-42c9-b7b9-5747afec588c,A
2019-11-10 03:57:14,e9d0fa12-31eb-42c9-b7b9-5747afec588c,S
2019-11-10 04:01:59,e9d0fa12-31eb-42c9-b7b9-5747afec588c,A
2019-11-10 02:46:18,78585925-cd87-4d02-affd-09115810c46d,A
2019-11-10 02:53:32,78585925-cd87-4d02-affd-09115810c46d,S
2019-11-10 02:55:27,78585925-cd87-4d02-affd-09115810c46d,A
2019-11-10 03:00:17,78585925-cd87-4d02-affd-09115810c46d,S
2019-11-10 03:07:32,78585925-cd87-4d02-affd-09115810c46d,A
2019-11-10 03:14:29,78585925-cd87-4d02-affd-09115810c46d,S
2019-11-10 03:15:02,78585925-cd87-4d02-affd-09115810c46d,A
2019-11-10 03:15:27,78585925-cd87-4d02-affd-09115810c46d,S
2019-11-10 03:16:51,78585925-cd87-4d02-affd-09115810c46d,A
2019-11-10 03:17:29,78585925-cd87-4d02-affd-09115810c46d,S
2019-11-10 03:19:45,78585925-cd87-4d02-affd-09115810c46d,A
2019-11-10 03:26:07,78585925-cd87-4d02-affd-09115810c46d,S
2019-11-10 03:27:30,78585925-cd87-4d02-affd-09115810c46d,A
2019-11-10 03:30:12,78585925-cd87-4d02-affd-09115810c46d,S
2019-11-10 03:30:47,78585925-cd87-4d02-affd-09115810c46d,A
2019-11-10 03:32:06,78585925-cd87-4d02-affd-09115810c46d,S
2019-11-10 03:51:28,78585925-cd87-4d02-affd-09115810c46d,A
2019-11-10 04:09:28,78585925-cd87-4d02-affd-09115810c46d,S
2019-11-10 04:10:32,78585925-cd87-4d02-affd-09115810c46d,A
2019-11-10 02:16:54,9966b439-f241-4c37-8de5-0534b5896b91,S
2019-11-10 02:20:21,9966b439-f241-4c37-8de5-0534b5896b91,A
2019-11-10 02:26:24,9966b439-f241-4c37-8de5-0534b5896b91,S
2019-11-10 02:36:20,9966b439-f241-4c37-8de5-0534b5896b91,A
2019-11-10 02:56:29,9966b439-f241-4c37-8de5-0534b5896b91,S
2019-11-10 03:02:24,9966b439-f241-4c37-8de5-0534b5896b91,A
2019-11-10 03:13:13,9966b439-f241-4c37-8de5-0534b5896b91,S
2019-11-10 03:18:39,9966b439-f241-4c37-8de5-0534b5896b91,A
2019-11-10 03:22:56,9966b439-f241-4c37-8de5-0534b5896b91,S
2019-11-10 03:28:29,9966b439-f241-4c37-8de5-0534b5896b91,A
2019-11-10 03:28:41,9966b439-f241-4c37-8de5-0534b5896b91,S
2019-11-10 03:30:25,9966b439-f241-4c37-8de5-0534b5896b91,A
2019-11-10 03:36:19,9966b439-f241-4c37-8de5-0534b5896b91,S
2019-11-10 03:38:02,9966b439-f241-4c37-8de5-0534b5896b91,A
2019-11-10 03:42:33,9966b439-f241-4c37-8de5-0534b5896b91,S
2019-11-10 03:46:07,9966b439-f241-4c37-8de5-0534b5896b91,A
2019-11-10 03:51:26,9966b439-f241-4c37-8de5-0534b5896b91,S
2019-11-10 03:59:10,9966b439-f241-4c37-8de5-0534b5896b91,A
2019-11-10 02:39:01,d97e8b89-a2e4-4bad-9054-19c72664b8ee,A
2019-11-10 02:50:32,d97e8b89-a2e4-4bad-9054-19c72664b8ee,S
2019-11-10 03:00:28,d97e8b89-a2e4-4bad-9054-19c72664b8ee,A
2019-11-10 03:05:55,d97e8b89-a2e4-4bad-9054-19c72664b8ee,S
2019-11-10 03:06:38,d97e8b89-a2e4-4bad-9054-19c72664b8ee,A
2019-11-10 03:07:35,d97e8b89-a2e4-4bad-9054-19c72664b8ee,S
2019-11-10 03:09:33,d97e8b89-a2e4-4bad-9054-19c72664b8ee,A
2019-11-10 03:10:53,d97e8b89-a2e4-4bad-9054-19c72664b8ee,S
2019-11-10 03:18:12,d97e8b89-a2e4-4bad-9054-19c72664b8ee,A
2019-11-10 03:20:06,d97e8b89-a2e4-4bad-9054-19c72664b8ee,S
2019-11-10 03:21:49,d97e8b89-a2e4-4bad-9054-19c72664b8ee,A
2019-11-10 03:37:13,d97e8b89-a2e4-4bad-9054-19c72664b8ee,S
2019-11-10 03:43:07,d97e8b89-a2e4-4bad-9054-19c72664b8ee,A
2019-11-10 03:47:40,d97e8b89-a2e4-4bad-9054-19c72664b8ee,S
2019-11-10 03:48:43,d97e8b89-a2e4-4bad-9054-19c72664b8ee,A
2019-11-10 03:51:03,d97e8b89-a2e4-4bad-9054-19c72664b8ee,S
2019-11-10 03:54:43,d97e8b89-a2e4-4bad-9054-19c72664b8ee,A
2019-11-10 03:56:44,d97e8b89-a2e4-4bad-9054-19c72664b8ee,S
2019-11-10 03:56:52,d97e8b89-a2e4-4bad-9054-19c72664b8ee,A
2019-11-10 04:05:58,d97e8b89-a2e4-4bad-9054-19c72664b8ee,S
2019-11-10 04:12:17,d97e8b89-a2e4-4bad-9054-19c72664b8ee,A
2019-11-10 04:13:23,d97e8b89-a2e4-4bad-9054-19c72664b8ee,S
2019-11-10 04:14:16,d97e8b89-a2e4-4bad-9054-19c72664b8ee,A
2019-11-10 02:21:56,8d8f3139-1159-41d7-aed3-f739c482f462,A
2019-11-10 02:27:59,8d8f3139-1159-41d7-aed3-f739c482f462,S
2019-11-10 02:30:47,8d8f3139-1159-41d7-aed3-f739c482f462,A
2019-11-10 02:31:26,8d8f3139-1159-41d7-aed3-f739c482f462,S
2019-11-10 02:32:11,8d8f3139-1159-41d7-aed3-f739c482f462,A
2019-11-10 02:41:26,8d8f3139-1159-41d7-aed3-f739c482f462,S
2019-11-10 02:41:52,8d8f3139-1159-41d7-aed3-f739c482f462,A
2019-11-10 02:42:42,8d8f3139-1159-41d7-aed3-f739c482f462,S
2019-11-10 02:47:36,8d8f3139-1159-41d7-aed3-f739c482f462,A
2019-11-10 02:52:35,8d8f3139-1159-41d7-aed3-f739c482f462,S
2019-11-10 02:52:47,8d8f3139-1159-41d7-aed3-f739c482f462,A
2019-11-10 02:53:32,8d8f3139-1159-41d7-aed3-f739c482f462,S
2019-11-10 02:55:52,8d8f3139-1159-41d7-aed3-f739c482f462,A
2019-11-10 02:58:52,8d8f3139-1159-41d7-aed3-f739c482f462,S
2019-11-10 03:00:08,8d8f3139-1159-41d7-aed3-f739c482f462,A
2019-11-10 03:00:12,8d8f3139-1159-41d7-aed3-f739c482f462,S
2019-11-10 03:08:18,8d8f3139-1159-41d7-aed3-f739c482f462,A
2019-11-10 03:11:35,8d8f3139-1159-41d7-aed3-f739c482f462,S
2019-11-10 03:13:28,8d8f3139-1159-41d7-aed3-f739c482f462,A
2019-11-10 03:20:50,8d8f3139-1159-41d7-aed3-f739c482f462,S
2019-11-10 03:31:04,8d8f3139-1159-41d7-aed3-f739c482f462,A
2019-11-10 03:46:32,8d8f3139-1159-41d7-aed3-f739c482f462,S
2019-11-10 03:48:54,8d8f3139-1159-41d7-aed3-f739c482f462,A
2019-11-10 03:49:06,8d8f3139-1159-41d7-aed3-f739c482f462,S
2019-11-10 03:57:11,8d8f3139-1159-41d7-aed3-f739c482f462,A
2019-11-10 03:57:35,8d8f3139-1159-41d7-aed3-f739c482f462,S
2019-11-10 04:05:54,8d8f3139-1159-41d7-aed3-f739c482f462,A
2019-11-10 04:14:20,8d8f3139-1159-41d7-aed3-f739c482f462,S
2019-11-10 02:17:35,dc46b319-d720-4a69-be0c-d4835e935bf9,S
2019-11-10 02:33:42,dc46b319-d720-4a69-be0c-d4835e935bf9,A
2019-11-10 02:34:54,dc46b319-d720-4a69-be0c-d4835e935bf9,S
2019-11-10 02:39:43,dc46b319-d720-4a69-be0c-d4835e935bf9,A
2019-11-10 02:40:49,dc46b319-d720-4a69-be0c-d4835e935bf9,S
2019-11-10 02:43:36,dc46b319-d720-4a69-be0c-d4835e935bf9,A
2019-11-10 02:48:48,dc46b319-d720-4a69-be0c-d4835e935bf9,S
2019-11-10 02:50:58,dc46b319-d720-4a69-be0c-d4835e935bf9,A
2019-11-10 02:54:27,dc46b319-d720-4a69-be0c-d4835e935bf9,S
2019-11-10 03:00:03,dc46b319-d720-4a69-be0c-d4835e935bf9,A
2019-11-10 03:10:33,dc46b319-d720-4a69-be0c-d4835e935bf9,S
2019-11-10 03:16:14,dc46b319-d720-4a69-be0c-d4835e935bf9,A
2019-11-10 03:18:12,dc46b319-d720-4a69-be0c-d4835e935bf9,S
2019-11-10 03:20:13,dc46b319-d720-4a69-be0c-d4835e935bf9,A
2019-11-10 03:28:30,dc46b319-d720-4a69-be0c-d4835e935bf9,S
2019-11-10 03:30:40,dc46b319-d720-4a69-be0c-d4835e935bf9,A
2019-11-10 03:35:35,dc46b319-d720-4a69-be0c-d4835e935bf9,S
2019-11-10 03:38:33,dc46b319-d720-4a69-be0c-d4835e935bf9,A
2019-11-10 03:39:41,dc46b319-d720-4a69-be0c-d4835e935bf9,S
2019-11-10 03:44:36,dc46b319-d720-4a69-be0c-d4835e935bf9,A
2019-11-10 03:47:28,dc46b319-d720-4a69-be0c-d4835e935bf9,S
2019-11-10 03:51:18,dc46b319-d720-4a69-be0c-d4835e935bf9,A
2019-11-10 03:53:38,dc46b319-d720-4a69-be0c-d4835e935bf9,S
2019-11-10 03:57:24,dc46b319-d720-4a69-be0c-d4835e935bf9,A
2019-11-10 04:02:50,dc46b319-d720-4a69-be0c-d4835e935bf9,S
2019-11-10 04:03:56,dc46b319-d720-4a69-be0c-d4835e935bf9,A
2019-11-10 04:09:41,dc46b319-d720-4a69-be0c-d4835e935bf9,S
2019-11-10 04:10:38,dc46b319-d720-4a69-be0c-d4835e935bf9,A
2019-11-10 04:12:08,dc46b319-d720-4a69-be0c-d4835e935bf9,S
2019-11-10 04:12:40,dc46b319-d720-4a69-be0c-d4835e935bf9,A
2019-11-10 04:15:59,dc46b319-d720-4a69-be0c-d4835e935bf9,S
2019-11-10 02:41:39,2aec2c4a-3b28-4ae7-a92e-5ad1e3743fac,A
2019-11-10 02:42:18,2aec2c4a-3b28-4ae7-a92e-5ad1e3743fac,S
2019-11-10 02:43:54,2aec2c4a-3b28-4ae7-a92e-5ad1e3743fac,A
2019-11-10 02:58:07,2aec2c4a-3b28-4ae7-a92e-5ad1e3743fac,S
2019-11-10 03:00:13,2aec2c4a-3b28-4ae7-a92e-5ad1e3743fac,A
2019-11-10 03:02:40,2aec2c4a-3b28-4ae7-a92e-5ad1e3743fac,S
2019-11-10 03:10:18,2aec2c4a-3b28-4ae7-a92e-5ad1e3743fac,A
2019-11-10 03:13:58,2aec2c4a-3b28-4ae7-a92e-5ad1e3743fac,S
2019-11-10 03:17:20,2aec2c4a-3b28-4ae7-a92e-5ad1e3743fac,A
2019-11-10 03:28:10,2aec2c4a-3b28-4ae7-a92e-5ad1e3743fac,S
2019-11-10 03:28:14,2aec2c4a-3b28-4ae7-a92e-5ad1e3743fac,A
2019-11-10 03:37:45,2aec2c4a-3b28-4ae7-a92e-5ad1e3743fac,S
2019-11-10 03:58:13,2aec2c4a-3b28-4ae7-a92e-5ad1e3743fac,A
2019-11-10 04:05:28,2aec2c4a-3b28-4ae7-a92e-5ad1e3743fac,S
2019-11-10 04:09:27,2aec2c4a-3b28-4ae7-a92e-5ad1e3743fac,A
2019-11-10 02:34:58,af2c37b6-a30d-4228-baad-31c28212e103,S
2019-11-10 02:40:14,af2c37b6-a30d-4228-baad-31c28212e103,A
2019-11-10 02:46:57,af2c37b6-a30d-4228-baad-31c28212e103,S
2019-11-10 02:51:57,af2c37b6-a30d-4228-baad-31c28212e103,A
2019-11-10 02:52:52,af2c37b6-a30d-4228-baad-31c28212e103,S
2019-11-10 02:59:40,af2c37b6-a30d-4228-baad-31c28212e103,A
2019-11-10 03:01:55,af2c37b6-a30d-4228-baad-31c28212e103,S
2019-11-10 03:08:01,af2c37b6-a30d-4228-baad-31c28212e103,A
2019-11-10 03:08:03,af2c37b6-a30d-4228-baad-31c28212e103,S
2019-11-10 03:08:47,af2c37b6-a30d-4228-baad-31c28212e103,A
2019-11-10 03:12:40,af2c37b6-a30d-4228-baad-31c28212e103,S
2019-11-10 03:18:17,af2c37b6-a30d-4228-baad-31c28212e103,A
2019-11-10 03:20:18,af2c37b6-a30d-4228-baad-31c28212e103,S
2019-11-10 03:23:31,af2c37b6-a30d-4228-baad-31c28212e103,A
2019-11-10 03:26:23,af2c37b6-a30d-4228-baad-31c28212e103,S
2019-11-10 03:29:37,af2c37b6-a30d-4228-baad-31c28212e103,A
2019-11-10 03:38:38,af2c37b6-a30d-4228-baad-31c28212e103,S
2019-11-10 03:42:12,af2c37b6-a30d-4228-baad-31c28212e103,A
2019-11-10 03:43:11,af2c37b6-a30d-4228-baad-31c28212e103,S
2019-11-10 03:46:37,af2c37b6-a30d-4228-baad-31c28212e103,A
2019-11-10 03:48:35,af2c37b6-a30d-4228-baad-31c28212e103,S
2019-11-10 03:49:17,af2c37b6-a30d-4228-baad-31c28212e103,A
2019-11-10 03:56:26,af2c37b6-a30d-4228-baad-31c28212e103,S
2019-11-10 03:58:50,af2c37b6-a30d-4228-baad-31c28212e103,A
2019-11-10 04:12:41,af2c37b6-a30d-4228-baad-31c28212e103,S
2019-11-10 04:15:40,af2c37b6-a30d-4228-baad-31c28212e103,A
2019-11-10 02:47:14,b9962eb2-c95e-4681-93a3-6e58d11d80f8,S
2019-11-10 02:49:09,b9962eb2-c95e-4681-93a3-6e58d11d80f8,A
2019-11-10 02:49:38,b9962eb2-c95e-4681-93a3-6e58d11d80f8,S
2019-11-10 02:57:56,b9962eb2-c95e-4681-93a3-6e58d11d80f8,A
2019-11-10 03:00:48,b9962eb2-c95e-4681-93a3-6e58d11d80f8,S
2019-11-10 03:07:09,b9962eb2-c95e-4681-93a3-6e58d11d80f8,A
2019-11-10 03:11:45,b9962eb2-c95e-4681-93a3-6e58d11d80f8,S
2019-11-10 03:12:59,b9962eb2-c95e-4681-93a3-6e58d11d80f8,A
2019-11-10 03:21:42,b9962eb2-c95e-4681-93a3-6e58d11d80f8,S
2019-11-10 03:23:17,b9962eb2-c95e-4681-93a3-6e58d11d80f8,A
2019-11-10 03:31:19,b9962eb2-c95e-4681-93a3-6e58d11d80f8,S
2019-11-10 03:31:31,b9962eb2-c95e-4681-93a3-6e58d11d80f8,A
2019-11-10 03:38:06,b9962eb2-c95e-4681-93a3-6e58d11d80f8,S
2019-11-10 03:43:01,b9962eb2-c95e-4681-93a3-6e58d11d80f8,A
2019-11-10 03:43:55,b9962eb2-c95e-4681-93a3-6e58d11d80f8,S
2019-11-10 03:45:52,b9962eb2-c95e-4681-93a3-6e58d11d80f8,A
2019-11-10 03:45:54,b9962eb2-c95e-4681-93a3-6e58d11d80f8,S
2019-11-10 03:47:14,b9962eb2-c95e-4681-93a3-6e58d11d80f8,A
2019-11-10 03:50:00,b9962eb2-c95e-4681-93a3-6e58d11d80f8,S
2019-11-10 03:57:27,b9962eb2-c95e-4681-93a3-6e58d11d80f8,A
2019-11-10 03:59:00,b9962eb2-c95e-4681-93a3-6e58d11d80f8,S
2019-11-10 03:59:35,b9962eb2-c95e-4681-93a3-6e58d11d80f8,A
2019-11-10 04:06:37,b9962eb2-c95e-4681-93a3-6e58d11d80f8,S
2019-11-10 04:10:06,b9962eb2-c95e-4681-93a3-6e58d11d80f8,A
2019-11-10 02:52:48,148bee43-6426-4aa7-865f-1f330ab88d3f,S
2019-11-10 02:58:11,148bee43-6426-4aa7-865f-1f330ab88d3f,A
2019-11-10 02:59:36,148bee43-6426-4aa7-865f-1f330ab88d3f,S
2019-11-10 03:01:46,148bee43-6426-4aa7-865f-1f330ab88d3f,A
2019-11-10 03:08:48,148bee43-6426-4aa7-865f-1f330ab88d3f,S
2019-11-10 03:14:54,148bee43-6426-4aa7-865f-1f330ab88d3f,A
2019-11-10 03:18:49,148bee43-6426-4aa7-865f-1f330ab88d3f,S
2019-11-10 03:22:11,148bee43-6426-4aa7-865f-1f330ab88d3f,A
2019-11-10 03:23:46,148bee43-6426-4aa7-865f-1f330ab88d3f,S
2019-11-10 03:23:56,148bee43-6426-4aa7-865f-1f330ab88d3f,A
2019-11-10 03:26:16,148bee43-6426-4aa7-865f-1f330ab88d3f,S
2019-11-10 03:30:33,148bee43-6426-4aa7-865f-1f330ab88d3f,A
2019-11-10 03:33:27,148bee43-6426-4aa7-865f-1f330ab88d3f,S
2019-11-10 03:34:22,148bee43-6426-4aa7-865f-1f330ab88d3f,A
2019-11-10 03:44:45,148bee43-6426-4aa7-865f-1f330ab88d3f,S
2019-11-10 03:44:49,148bee43-6426-4aa7-865f-1f330ab88d3f,A
2019-11-10 03:45:21,148bee43-6426-4aa7-865f-1f330ab88d3f,S
2019-11-10 03:45:50,148bee43-6426-4aa7-865f-1f330ab88d3f,A
2019-11-10 03:46:03,148bee43-6426-4aa7-865f-1f330ab88d3f,S
2019-11-10 03:49:58,148bee43-6426-4aa7-865f-1f330ab88d3f,A
2019-11-10 03:57:47,148bee43-6426-4aa7-865f-1f330ab88d3f,S
2019-11-10 04:03:46,148bee43-6426-4aa7-865f-1f330ab88d3f,A
2019-11-10 04:06:39,148bee43-6426-4aa7-865f-1f330ab88d3f,S
2019-11-10 04:08:38,148bee43-6426-4aa7-865f-1f330ab88d3f,A
2019-11-10 04:15:08,148bee43-6426-4aa7-865f-1f330ab88d3f,S
2019-11-10 02:41:50,8915241c-0e2b-4041-82a4-23db487e4e4b,A
2019-11-10 02:45:18,8915241c-0e2b-4041-82a4-23db487e4e4b,S
2019-11-10 02:47:34,8915241c-0e2b-4041-82a4-23db487e4e4b,A
2019-11-10 02:49:36,8915241c-0e2b-4041-82a4-23db487e4e4b,S
2019-11-10 02:50:10,8915241c-0e2b-4041-82a4-23db487e4e4b,A
2019-11-10 02:52:46,8915241c-0e2b-4041-82a4-23db487e4e4b,S
2019-11-10 02:59:37,8915241c-0e2b-4041-82a4-23db487e4e4b,A
2019-11-10 03:01:05,8915241c-0e2b-4041-82a4-23db487e4e4b,S
2019-11-10 03:11:20,8915241c-0e2b-4041-82a4-23db487e4e4b,A
2019-11-10 03:50:26,8915241c-0e2b-4041-82a4-23db487e4e4b,S
2019-11-10 04:00:20,8915241c-0e2b-4041-82a4-23db487e4e4b,A
2019-11-10 04:00:24,8915241c-0e2b-4041-82a4-23db487e4e4b,S
2019-11-10 04:01:06,8915241c-0e2b-4041-82a4-23db487e4e4b,A
2019-11-10 04:04:10,8915241c-0e2b-4041-82a4-23db487e4e4b,S
2019-11-10 04:05:31,8915241c-0e2b-4041-82a4-23db487e4e4b,A
2019-11-10 04:06:52,8915241c-0e2b-4041-82a4-23db487e4e4b,S
2019-11-10 04:11:02,8915241c-0e2b-4041-82a4-23db487e4e4b,A
2019-11-10 04:12:36,8915241c-0e2b-4041-82a4-23db487e4e4b,S
2019-11-10 04:12:42,8915241c-0e2b-4041-82a4-23db487e4e4b,A
2019-11-10 02:35:16,f45747d9-2550-4b41-8dd5-8fc0ed7d17c1,S
2019-11-10 02:39:34,f45747d9-2550-4b41-8dd5-8fc0ed7d17c1,A
2019-11-10 02:53:17,f45747d9-2550-4b41-8dd5-8fc0ed7d17c1,S
2019-11-10 02:53:41,f45747d9-2550-4b41-8dd5-8fc0ed7d17c1,A
2019-11-10 02:58:17,f45747d9-2550-4b41-8dd5-8fc0ed7d17c1,S
2019-11-10 03:01:36,f45747d9-2550-4b41-8dd5-8fc0ed7d17c1,A
2019-11-10 03:04:42,f45747d9-2550-4b41-8dd5-8fc0ed7d17c1,S
2019-11-10 03:09:14,f45747d9-2550-4b41-8dd5-8fc0ed7d17c1,A
2019-11-10 03:12:28,f45747d9-2550-4b41-8dd5-8fc0ed7d17c1,S
2019-11-10 03:16:04,f45747d9-2550-4b41-8dd5-8fc0ed7d17c1,A
2019-11-10 03:31:55,f45747d9-2550-4b41-8dd5-8fc0ed7d17c1,S
2019-11-10 03:36:12,f45747d9-2550-4b41-8dd5-8fc0ed7d17c1,A
2019-11-10 03:36:34,f45747d9-2550-4b41-8dd5-8fc0ed7d17c1,S
2019-11-10 03:41:40,f45747d9-2550-4b41-8dd5-8fc0ed7d17c1,A
2019-11-10 03:48:59,f45747d9-2550-4b41-8dd5-8fc0ed7d17c1,S
2019-11-10 04:02:06,f45747d9-2550-4b41-8dd5-8fc0ed7d17c1,A
2019-11-10 04:03:07,f45747d9-2550-4b41-8dd5-8fc0ed7d17c1,S
2019-11-10 02:36:24,b604130f-71f0-4299-a746-4bf6eb6e5759,S
2019-11-10 02:36:28,b604130f-71f0-4299-a746-4bf6eb6e5759,A
2019-11-10 02:43:38,b604130f-71f0-4299-a746-4bf6eb6e5759,S
2019-11-10 02:55:09,b604130f-71f0-4299-a746-4bf6eb6e5759,A
2019-11-10 02:56:45,b604130f-71f0-4299-a746-4bf6eb6e5759,S
2019-11-10 02:59:52,b604130f-71f0-4299-a746-4bf6eb6e5759,A
2019-11-10 03:00:09,b604130f-71f0-4299-a746-4bf6eb6e5759,S
2019-11-10 03:18:07,b604130f-71f0-4299-a746-4bf6eb6e5759,A
2019-11-10 03:20:31,b604130f-71f0-4299-a746-4bf6eb6e5759,S
2019-11-10 03:32:53,b604130f-71f0-4299-a746-4bf6eb6e5759,A
2019-11-10 03:45:01,b604130f-71f0-4299-a746-4bf6eb6e5759,S
2019-11-10 03:50:32,b604130f-71f0-4299-a746-4bf6eb6e5759,A
2019-11-10 03:50:59,b604130f-71f0-4299-a746-4bf6eb6e5759,S
2019-11-10 03:53:14,b604130f-71f0-4299-a746-4bf6eb6e5759,A
2019-11-10 03:56:53,b604130f-71f0-4299-a746-4bf6eb6e5759,S
2019-11-10 04:00:13,b604130f-71f0-4299-a746-4bf6eb6e5759,A
2019-11-10 04:04:43,b604130f-71f0-4299-a746-4bf6eb6e5759,S
2019-11-10 04:05:40,b604130f-71f0-4299-a746-4bf6eb6e5759,A
2019-11-10 04:06:01,b604130f-71f0-4299-a746-4bf6eb6e5759,S
2019-11-10 04:07:00,b604130f-71f0-4299-a746-4bf6eb6e5759,A
2019-11-10 02:39:00,5651e9fa-fe21-4b77-a230-0e6f88d7146d,S
2019-11-10 02:39:42,5651e9fa-fe21-4b77-a230-0e6f88d7146d,A
2019-11-10 02:55:23,5651e9fa-fe21-4b77-a230-0e6f88d7146d,S
2019-11-10 03:02:37,5651e9fa-fe21-4b77-a230-0e6f88d7146d,A
2019-11-10 03:02:59,5651e9fa-fe21-4b77-a230-0e6f88d7146d,S
2019-11-10 03:03:29,5651e9fa-fe21-4b77-a230-0e6f88d7146d,A
2019-11-10 03:04:35,5651e9fa-fe21-4b77-a230-0e6f88d7146d,S
2019-11-10 03:12:23,5651e9fa-fe21-4b77-a230-0e6f88d7146d,A
2019-11-10 03:14:53,5651e9fa-fe21-4b77-a230-0e6f88d7146d,S
2019-11-10 03:15:51,5651e9fa-fe21-4b77-a230-0e6f88d7146d,A
2019-11-10 03:20:50,5651e9fa-fe21-4b77-a230-0e6f88d7146d,S
2019-11-10 03:24:16,5651e9fa-fe21-4b77-a230-0e6f88d7146d,A
2019-11-10 03:31:58,5651e9fa-fe21-4b77-a230-0e6f88d7146d,S
2019-11-10 03:35:30,5651e9fa-fe21-4b77-a230-0e6f88d7146d,A
2019-11-10 03:36:34,5651e9fa-fe21-4b77-a230-0e6f88d7146d,S
2019-11-10 03:37:52,5651e9fa-fe21-4b77-a230-0e6f88d7146d,A
2019-11-10 03:47:01,5651e9fa-fe21-4b77-a230-0e6f88d7146d,S
2019-11-10 03:48:08,5651e9fa-fe21-4b77-a230-0e6f88d7146d,A
2019-11-10 03:50:46,5651e9fa-fe21-4b77-a230-0e6f88d7146d,S
2019-11-10 03:52:52,5651e9fa-fe21-4b77-a230-0e6f88d7146d,A
2019-11-10 04:01:25,5651e9fa-fe21-4b77-a230-0e6f88d7146d,S
2019-11-10 04:03:39,5651e9fa-fe21-4b77-a230-0e6f88d7146d,A
2019-11-10 04:08:36,5651e9fa-fe21-4b77-a230-0e6f88d7146d,S
2019-11-10 04:12:03,5651e9fa-fe21-4b77-a230-0e6f88d7146d,A
2019-11-10 04:12:38,5651e9fa-fe21-4b77-a230-0e6f88d7146d,S
2019-11-10 04:14:11,5651e9fa-fe21-4b77-a230-0e6f88d7146d,A
2019-11-10 02:31:23,1151e2e1-12e3-414d-b911-a837f84f618a,A
2019-11-10 02:37:26,1151e2e1-12e3-414d-b911-a837f84f618a,S
2019-11-10 02:39:56,1151e2e1-12e3-414d-b911-a837f84f618a,A
2019-11-10 02:40:41,1151e2e1-12e3-414d-b911-a837f84f618a,S
2019-11-10 02:40:44,1151e2e1-12e3-414d-b911-a837f84f618a,A
2019-11-10 02:43:34,1151e2e1-12e3-414d-b911-a837f84f618a,S
2019-11-10 02:51:50,1151e2e1-12e3-414d-b911-a837f84f618a,A
2019-11-10 02:54:36,1151e2e1-12e3-414d-b911-a837f84f618a,S
2019-11-10 02:54:39,1151e2e1-12e3-414d-b911-a837f84f618a,A
2019-11-10 03:00:44,1151e2e1-12e3-414d-b911-a837f84f618a,S
2019-11-10 03:05:07,1151e2e1-12e3-414d-b911-a837f84f618a,A
2019-11-10 03:12:28,1151e2e1-12e3-414d-b911-a837f84f618a,S
2019-11-10 03:13:37,1151e2e1-12e3-414d-b911-a837f84f618a,A
2019-11-10 03:17:34,1151e2e1-12e3-414d-b911-a837f84f618a,S
2019-11-10 03:18:21,1151e2e1-12e3-414d-b911-a837f84f618a,A
2019-11-10 03:18:38,1151e2e1-12e3-414d-b911-a837f84f618a,S
2019-11-10 03:29:11,1151e2e1-12e3-414d-b911-a837f84f618a,A
2019-11-10 03:30:34,1151e2e1-12e3-414d-b911-a837f84f618a,S
2019-11-10 03:36:19,1151e2e1-12e3-414d-b911-a837f84f618a,A
2019-11-10 03:40:45,1151e2e1-12e3-414d-b911-a837f84f618a,S
2019-11-10 03:42:05,1151e2e1-12e3-414d-b911-a837f84f618a,A
2019-11-10 03:44:52,1151e2e1-12e3-414d-b911-a837f84f618a,S
2019-11-10 03:46:16,1151e2e1-12e3-414d-b911-a837f84f618a,A
2019-11-10 03:55:06,1151e2e1-12e3-414d-b911-a837f84f618a,S
2019-11-10 03:56:35,1151e2e1-12e3-414d-b911-a837f84f618a,A
2019-11-10 04:00:14,1151e2e1-12e3-414d-b911-a837f84f618a,S
2019-11-10 04:00:31,1151e2e1-12e3-414d-b911-a837f84f618a,A
2019-11-10 04:04:29,1151e2e1-12e3-414d-b911-a837f84f618a,S
2019-11-10 02:21:22,3364fac9-8b95-434d-b799-8e9c1b6cc2e0,S
2019-11-10 02:33:17,3364fac9-8b95-434d-b799-8e9c1b6cc2e0,A
2019-11-10 02:33:36,3364fac9-8b95-434d-b799-8e9c1b6cc2e0,S
2019-11-10 02:49:00,3364fac9-8b95-434d-b799-8e9c1b6cc2e0,A
2019-11-10 02:51:52,3364fac9-8b95-434d-b799-8e9c1b6cc2e0,S
2019-11-10 02:53:52,3364fac9-8b95-434d-b799-8e9c1b6cc2e0,A
2019-11-10 03:01:59,3364fac9-8b95-434d-b799-8e9c1b6cc2e0,S
2019-11-10 03:02:55,3364fac9-8b95-434d-b799-8e9c1b6cc2e0,A
2019-11-10 03:05:08,3364fac9-8b95-434d-b799-8e9c1b6cc2e0,S
2019-11-10 03:19:32,3364fac9-8b95-434d-b799-8e9c1b6cc2e0,A
2019-11-10 03:24:51,3364fac9-8b95-434d-b799-8e9c1b6cc2e0,S
2019-11-10 03:26:24,3364fac9-8b95-434d-b799-8e9c1b6cc2e0,A
2019-11-10 03:27:11,3364fac9-8b95-434d-b799-8e9c1b6cc2e0,S
2019-11-10 03:29:09,3364fac9-8b95-434d-b799-8e9c1b6cc2e0,A
2019-11-10 03:32:26,3364fac9-8b95-434d-b799-8e9c1b6cc2e0,S
2019-11-10 03:32:33,3364fac9-8b95-434d-b799-8e9c1b6cc2e0,A
2019-11-10 03:44:52,3364fac9-8b95-434d-b799-8e9c1b6cc2e0,S
2019-11-10 03:46:12,3364fac9-8b95-434d-b799-8e9c1b6cc2e0,A
2019-11-10 03:51:04,3364fac9-8b95-434d-b799-8e9c1b6cc2e0,S
2019-11-10 03:54:30,3364fac9-8b95-434d-b799-8e9c1b6cc2e0,A
2019-11-10 03:55:44,3364fac9-8b95-434d-b799-8e9c1b6cc2e0,S
2019-11-10 03:56:26,3364fac9-8b95-434d-b799-8e9c1b6cc2e0,A
2019-11-10 04:09:07,3364fac9-8b95-434d-b799-8e9c1b6cc2e0,S
2019-11-10 04:10:35,3364fac9-8b95-434d-b799-8e9c1b6cc2e0,A
2019-11-10 04:11:48,3364fac9-8b95-434d-b799-8e9c1b6cc2e0,S
2019-11-10 04:14:25,3364fac9-8b95-434d-b799-8e9c1b6cc2e0,A
2019-11-10 02:44:34,c834f82c-9708-4981-a0d3-1c51de1b51ec,S
2019-11-10 02:46:30,c834f82c-9708-4981-a0d3-1c51de1b51ec,A
2019-11-10 02:49:38,c834f82c-9708-4981-a0d3-1c51de1b51ec,S
2019-11-10 02:50:07,c834f82c-9708-4981-a0d3-1c51de1b51ec,A
2019-11-10 02:53:16,c834f82c-9708-4981-a0d3-1c51de1b51ec,S
2019-11-10 02:55:16,c834f82c-9708-4981-a0d3-1c51de1b51ec,A
2019-11-10 02:59:32,c834f82c-9708-4981-a0d3-1c51de1b51ec,S
2019-11-10 03:00:30,c834f82c-9708-4981-a0d3-1c51de1b51ec,A
2019-11-10 03:01:19,c834f82c-9708-4981-a0d3-1c51de1b51ec,S
2019-11-10 03:08:46,c834f82c-9708-4981-a0d3-1c51de1b51ec,A
2019-11-10 03:10:59,c834f82c-9708-4981-a0d3-1c51de1b51ec,S
2019-11-10 03:14:30,c834f82c-9708-4981-a0d3-1c51de1b51ec,A
2019-11-10 03:22:47,c834f82c-9708-4981-a0d3-1c51de1b51ec,S
2019-11-10 03:30:11,c834f82c-9708-4981-a0d3-1c51de1b51ec,A
2019-11-10 03:32:14,c834f82c-9708-4981-a0d3-1c51de1b51ec,S
2019-11-10 03:34:58,c834f82c-9708-4981-a0d3-1c51de1b51ec,A
2019-11-10 03:36:03,c834f82c-9708-4981-a0d3-1c51de1b51ec,S
2019-11-10 03:37:21,c834f82c-9708-4981-a0d3-1c51de1b51ec,A
2019-11-10 03:38:53,c834f82c-9708-4981-a0d3-1c51de1b51ec,S
2019-11-10 03:47:00,c834f82c-9708-4981-a0d3-1c51de1b51ec,A
2019-11-10 03:47:11,c834f82c-9708-4981-a0d3-1c51de1b51ec,S
2019-11-10 03:47:22,c834f82c-9708-4981-a0d3-1c51de1b51ec,A
2019-11-10 03:51:13,c834f82c-9708-4981-a0d3-1c51de1b51ec,S
2019-11-10 03:53:37,c834f82c-9708-4981-a0d3-1c51de1b51ec,A
2019-11-10 03:54:22,c834f82c-9708-4981-a0d3-1c51de1b51ec,S
2019-11-10 03:55:40,c834f82c-9708-4981-a0d3-1c51de1b51ec,A
2019-11-10 03:56:33,c834f82c-9708-4981-a0d3-1c51de1b51ec,S
2019-11-10 04:04:56,c834f82c-9708-4981-a0d3-1c51de1b51ec,A
2019-11-10 04:06:09,c834f82c-9708-4981-a0d3-1c51de1b51ec,S
2019-11-10 04:15:08,c834f82c-9708-4981-a0d3-1c51de1b51ec,A
