date,actor,success,from,to
2019-09-07 21:08:28,6853b66c-b438-4bba-94a8-0a13cb1441fa,1,a05f94f0-4d77-4828-9c30-982096d12a5a,22f5b57a-4adb-4611-b44e-ec0c384e9c68
2019-09-07 21:08:28,8ba796c8-608d-49d5-98c5-c62037fa40cc,1,a05f94f0-4d77-4828-9c30-982096d12a5a,22f5b57a-4adb-4611-b44e-ec0c384e9c68
2019-09-07 21:08:29,76aba427-468b-4aa7-826a-93b8464ec949,1,a05f94f0-4d77-4828-9c30-982096d12a5a,22f5b57a-4adb-4611-b44e-ec0c384e9c68
2019-09-07 21:10:24,6a245571-15e7-4f27-8705-f8c8b3ea3ad5,1,a05f94f0-4d77-4828-9c30-982096d12a5a,209f8be6-f803-47fe-a2e8-5cacaab4a3e8
2019-09-07 21:10:24,45797550-70ed-41d0-bbdf-ed2a9362c40c,1,a05f94f0-4d77-4828-9c30-982096d12a5a,209f8be6-f803-47fe-a2e8-5cacaab4a3e8
2019-09-07 21:50:43,cdec0bd2-272c-4e05-af2c-4856befda3a3,1,24e953f4-978a-4883-ae06-35f9479edae0,22f5b57a-4adb-4611-b44e-ec0c384e9c68
2019-09-07 21:50:43,9cff43fd-b3cd-43b9-8c32-024bae7e8ff6,1,24e953f4-978a-4883-ae06-35f9479edae0,22f5b57a-4adb-4611-b44e-ec0c384e9c68
2019-09-07 20:26:18,49580417-7a97-4d68-b751-547924b27acd,1,be4b4bfc-1b2e-4d61-a093-873e2bf4c9c1,e064ddec-746e-4ba3-b66c-21d91248ef85
2019-09-07 20:26:18,cf1a7dcd-cf6f-4c7b-a0c3-ae49608e5621,1,be4b4bfc-1b2e-4d61-a093-873e2bf4c9c1,ca5cfc4a-150f-4889-87cc-758075c59dad
2019-09-07 20:26:18,ad0a543f-0e13-4873-8b8d-a42c08c50404,1,be4b4bfc-1b2e-4d61-a093-873e2bf4c9c1,fbc115a8-5085-4f00-b51f-c6bc7616829c
2019-09-07 20:27:21,bc2f1493-ec48-4db8-9bed-9bc52d9a4f99,1,be4b4bfc-1b2e-4d61-a093-873e2bf4c9c1,3b874a95-ee1e-42c6-9570-b347ac86e683
2019-09-07 20:27:21,d04cb4b3-dadd-4eaf-9bdd-3d1326c606b0,1,be4b4bfc-1b2e-4d61-a093-873e2bf4c9c1,3b874a95-ee1e-42c6-9570-b347ac86e683
2019-09-07 20:27:21,ef4bd178-43b9-49fa-ba32-cd79104bde7c,1,be4b4bfc-1b2e-4d61-a093-873e2bf4c9c1,076b2cf5-e714-4f75-821c-65d9887dd838
2019-09-07 20:28:25,0494120c-16fd-48aa-9803-66ba455fa593,1,be4b4bfc-1b2e-4d61-a093-873e2bf4c9c1,e064ddec-746e-4ba3-b66c-21d91248ef85
2019-09-07 20:28:25,5d44e08c-42e6-42b3-a006-b82dcffc1c92,1,be4b4bfc-1b2e-4d61-a093-873e2bf4c9c1,e064ddec-746e-4ba3-b66c-21d91248ef85
2019-09-07 20:28:25,a3ba76f1-917e-4d84-9fb6-4786a8243830,1,be4b4bfc-1b2e-4d61-a093-873e2bf4c9c1,9085cf7c-599e-4704-8192-d36e5197fb42
2019-09-07 20:29:29,6a245571-15e7-4f27-8705-f8c8b3ea3ad5,1,be4b4bfc-1b2e-4d61-a093-873e2bf4c9c1,22f5b57a-4adb-4611-b44e-ec0c384e9c68
2019-09-07 20:29:29,45797550-70ed-41d0-bbdf-ed2a9362c40c,1,be4b4bfc-1b2e-4d61-a093-873e2bf4c9c1,3b874a95-ee1e-42c6-9570-b347ac86e683
2019-09-07 20:29:29,3675daad-3252-4c51-915f-38f8391889af,1,be4b4bfc-1b2e-4d61-a093-873e2bf4c9c1,73cff2fe-bc83-451e-a01f-1b54e0dbcf28
2019-09-07 20:30:33,239f866d-4b06-48cf-835c-cab024eae8aa,1,be4b4bfc-1b2e-4d61-a093-873e2bf4c9c1,e064ddec-746e-4ba3-b66c-21d91248ef85
2019-09-07 20:30:33,39a73de4-5425-4344-b57e-6e32e0af6c21,1,be4b4bfc-1b2e-4d61-a093-873e2bf4c9c1,e25e0cf7-53ae-4d73-a88b-3cc6a0c16661
2019-09-07 20:30:33,0d7e614c-1532-4bf5-ac57-b76f06b8381d,1,be4b4bfc-1b2e-4d61-a093-873e2bf4c9c1,e064ddec-746e-4ba3-b66c-21d91248ef85
2019-09-07 20:31:37,76aba427-468b-4aa7-826a-93b8464ec949,1,be4b4bfc-1b2e-4d61-a093-873e2bf4c9c1,a05f94f0-4d77-4828-9c30-982096d12a5a
2019-09-07 20:31:37,4d765b8f-7d5b-418a-a15e-8df9fba259ad,1,be4b4bfc-1b2e-4d61-a093-873e2bf4c9c1,6ddbbf18-3233-4bf3-add3-50d05ecafdd9
2019-09-07 20:31:37,f01fba19-a1f4-40ce-81ad-48b3bd6f5915,1,be4b4bfc-1b2e-4d61-a093-873e2bf4c9c1,56d117ca-4207-4bb3-be7e-52c667cf3ed5
2019-09-07 20:32:40,739c5ee8-c82c-4edd-a78b-97749ad3997a,1,be4b4bfc-1b2e-4d61-a093-873e2bf4c9c1,6ddbbf18-3233-4bf3-add3-50d05ecafdd9
2019-09-07 20:32:40,8d9791c9-8d45-40e9-82dc-784c938d8fa3,1,be4b4bfc-1b2e-4d61-a093-873e2bf4c9c1,53983ee5-feeb-4605-913f-79ff05576a2c
2019-09-07 20:32:40,82f5bf77-3b7f-4eed-935f-6fabf2ff98b4,1,be4b4bfc-1b2e-4d61-a093-873e2bf4c9c1,6ddbbf18-3233-4bf3-add3-50d05ecafdd9
2019-09-07 20:33:44,06613a40-4e7d-4c68-b95f-1fda7f59e21d,1,be4b4bfc-1b2e-4d61-a093-873e2bf4c9c1,209f8be6-f803-47fe-a2e8-5cacaab4a3e8
2019-09-07 20:33:44,b66e3003-497c-4280-a34c-a6d8e2596653,1,be4b4bfc-1b2e-4d61-a093-873e2bf4c9c1,8c63c257-f9b2-4779-b2c1-9e97dd45a727
2019-09-07 20:33:44,3103ac50-35a8-40b3-92f3-4a77efb8e4d4,1,be4b4bfc-1b2e-4d61-a093-873e2bf4c9c1,209f8be6-f803-47fe-a2e8-5cacaab4a3e8
2019-09-07 20:34:48,ac867479-7ec3-41c2-b80e-e46d33f12f11,1,be4b4bfc-1b2e-4d61-a093-873e2bf4c9c1,6ea7f56e-8914-4941-af1d-6f2b9fc19415
2019-09-07 20:34:48,a1ebc0a6-40fd-4cb2-8ac5-e71369f4e19b,1,be4b4bfc-1b2e-4d61-a093-873e2bf4c9c1,6ea7f56e-8914-4941-af1d-6f2b9fc19415
2019-09-07 20:34:48,9ce93648-ab7c-4315-a541-97bad1472278,1,be4b4bfc-1b2e-4d61-a093-873e2bf4c9c1,797ef6fe-7e27-441c-9bce-a9ad14bb7d19
2019-09-07 20:35:52,cdec0bd2-272c-4e05-af2c-4856befda3a3,1,be4b4bfc-1b2e-4d61-a093-873e2bf4c9c1,209f8be6-f803-47fe-a2e8-5cacaab4a3e8
2019-09-07 20:35:52,faa591ac-01e7-4d2c-92c4-e9fa63c1925b,1,be4b4bfc-1b2e-4d61-a093-873e2bf4c9c1,feaf3391-f6b7-4599-8fa2-b88b4730ec2f
2019-09-07 20:35:52,9cff43fd-b3cd-43b9-8c32-024bae7e8ff6,1,be4b4bfc-1b2e-4d61-a093-873e2bf4c9c1,209f8be6-f803-47fe-a2e8-5cacaab4a3e8
2019-09-07 20:36:56,6104d3c8-1638-4f44-a7a2-3ce2001aef44,1,be4b4bfc-1b2e-4d61-a093-873e2bf4c9c1,31a77745-054f-4d9d-bf0a-9af5f03f9274
2019-09-07 20:36:56,089e6822-6c86-42ef-b248-18a176f89192,1,be4b4bfc-1b2e-4d61-a093-873e2bf4c9c1,0c348785-2281-496f-8520-4357513ead70
2019-09-07 20:36:56,5ff1107b-58b9-45bd-9468-e3d8c03b8855,1,be4b4bfc-1b2e-4d61-a093-873e2bf4c9c1,0971bfd4-c0d7-4ff9-991f-5ce2ea1f5bc4
2019-09-07 20:37:59,6622f2e9-d64e-473e-8b62-7747d32655a8,1,be4b4bfc-1b2e-4d61-a093-873e2bf4c9c1,ca0df680-ec1b-454b-93bf-63e7a33b979f
2019-09-07 20:37:59,c1454db8-bcdf-42b6-b6b2-ba89c7721824,1,be4b4bfc-1b2e-4d61-a093-873e2bf4c9c1,0971bfd4-c0d7-4ff9-991f-5ce2ea1f5bc4
2019-09-07 20:37:59,5f6916d4-96bc-4768-84c9-719a41092d72,1,be4b4bfc-1b2e-4d61-a093-873e2bf4c9c1,0971bfd4-c0d7-4ff9-991f-5ce2ea1f5bc4
2019-09-07 20:39:03,c976baba-6db2-4943-ba13-92c731ccf98e,1,be4b4bfc-1b2e-4d61-a093-873e2bf4c9c1,939d8dd5-8199-4e53-83f5-15e54b00b11d
2019-09-07 20:39:03,9194f1df-4fb8-4e52-9e8a-7a568fad6948,1,be4b4bfc-1b2e-4d61-a093-873e2bf4c9c1,939d8dd5-8199-4e53-83f5-15e54b00b11d
2019-09-07 20:39:03,42f69f4e-f711-4b1f-a20a-2d556cad4edf,1,be4b4bfc-1b2e-4d61-a093-873e2bf4c9c1,50febb1f-9e68-45aa-9dee-1255ea314a58
2019-09-07 20:40:06,4058e8c4-4557-4e66-a6eb-39234a7520ee,1,be4b4bfc-1b2e-4d61-a093-873e2bf4c9c1,4a049def-5c55-4c6f-8e05-a9841f580c0f
2019-09-07 20:40:06,dffd80f9-b4d5-4a26-9f2b-6b8f2c11aa83,1,be4b4bfc-1b2e-4d61-a093-873e2bf4c9c1,e48459e8-edc7-48c9-a740-1a1beb43f5d1
2019-09-07 20:40:06,8955f422-085d-4bb5-ae3f-e723d7712456,1,be4b4bfc-1b2e-4d61-a093-873e2bf4c9c1,4a049def-5c55-4c6f-8e05-a9841f580c0f
2019-09-07 20:41:09,930b6d22-cd32-4762-9389-ecfe8db5b764,1,be4b4bfc-1b2e-4d61-a093-873e2bf4c9c1,6ea7f56e-8914-4941-af1d-6f2b9fc19415
2019-09-07 20:41:09,03a5b655-86b3-4e5c-981f-971f0fac5d15,1,be4b4bfc-1b2e-4d61-a093-873e2bf4c9c1,6ea7f56e-8914-4941-af1d-6f2b9fc19415
2019-09-07 20:41:09,4e588864-b2de-4695-8ca0-485084958f18,1,be4b4bfc-1b2e-4d61-a093-873e2bf4c9c1,6a4ef742-acd5-4c28-bcfc-11c550b2b91c
2019-09-07 20:42:13,f0d29f2f-cb7e-4cc3-8ffe-93a45202b215,1,be4b4bfc-1b2e-4d61-a093-873e2bf4c9c1,fbc115a8-5085-4f00-b51f-c6bc7616829c
2019-09-07 20:42:13,74cc5057-1a46-45a9-a214-14042f0983cd,1,be4b4bfc-1b2e-4d61-a093-873e2bf4c9c1,04cfc5bc-0661-492a-85d3-a775520fe6f1
2019-09-07 20:42:13,a52d452d-57ed-442d-b816-499e917d341f,1,be4b4bfc-1b2e-4d61-a093-873e2bf4c9c1,fbc115a8-5085-4f00-b51f-c6bc7616829c
2019-09-07 20:43:17,9f4f73d3-bebb-4a7d-8c4c-a6dc9414c870,1,be4b4bfc-1b2e-4d61-a093-873e2bf4c9c1,939d8dd5-8199-4e53-83f5-15e54b00b11d
2019-09-07 20:43:17,e192ad6d-441c-43be-8685-9c26d0a2fb8e,1,be4b4bfc-1b2e-4d61-a093-873e2bf4c9c1,939d8dd5-8199-4e53-83f5-15e54b00b11d
2019-09-07 20:43:17,db31885b-57d2-4e35-ae8c-8f7d4487fa63,1,be4b4bfc-1b2e-4d61-a093-873e2bf4c9c1,b12674b0-1749-4c9e-aaca-fd5194aa1978
2019-09-07 20:44:21,fdc9f1be-0273-49ab-8cc5-40676a8e05e8,1,be4b4bfc-1b2e-4d61-a093-873e2bf4c9c1,64311692-9334-4898-a7e0-6924bccb3f3d
2019-09-07 20:44:21,7cee2660-655f-4b89-a1e6-80aa7d3884e4,1,be4b4bfc-1b2e-4d61-a093-873e2bf4c9c1,f1656eb0-54f4-4cb2-a432-872db5431f46
2019-09-07 20:44:21,3709d1be-bfb3-4390-952b-0c9cd39c5aef,1,be4b4bfc-1b2e-4d61-a093-873e2bf4c9c1,64311692-9334-4898-a7e0-6924bccb3f3d
2019-09-07 20:45:25,0b39ac12-f3cc-4035-abdb-3adebcaba325,1,be4b4bfc-1b2e-4d61-a093-873e2bf4c9c1,b7d1b6fe-5aff-40f8-84b7-fffba9c4a73b
2019-09-07 20:45:25,f781bc4e-2db9-4045-a0e2-3ff0a587dc23,1,be4b4bfc-1b2e-4d61-a093-873e2bf4c9c1,64311692-9334-4898-a7e0-6924bccb3f3d
2019-09-07 20:45:25,611e705e-4d49-4422-bb82-dc182852897f,1,be4b4bfc-1b2e-4d61-a093-873e2bf4c9c1,64311692-9334-4898-a7e0-6924bccb3f3d
2019-09-07 20:46:28,9b90ea2f-0ccc-4ed5-b1c8-27cbef77e0ff,1,be4b4bfc-1b2e-4d61-a093-873e2bf4c9c1,64311692-9334-4898-a7e0-6924bccb3f3d
2019-09-07 20:46:28,2c5c6f24-93df-4dcc-873c-c716c1b6cb16,1,be4b4bfc-1b2e-4d61-a093-873e2bf4c9c1,e58d99ae-1194-4c4a-b613-8773a4024f7e
2019-09-07 20:46:28,9a55e0ae-37aa-4a14-9fa4-371548e4ae0c,1,be4b4bfc-1b2e-4d61-a093-873e2bf4c9c1,64311692-9334-4898-a7e0-6924bccb3f3d
2019-09-07 20:47:32,84dd5d3e-d2fb-44b6-b87a-c68e6c8599d0,1,be4b4bfc-1b2e-4d61-a093-873e2bf4c9c1,24e953f4-978a-4883-ae06-35f9479edae0
2019-09-07 20:47:32,5b6df8a5-602e-4b81-bf40-ddaafc3ced26,1,be4b4bfc-1b2e-4d61-a093-873e2bf4c9c1,87043a8a-3092-47e2-aa99-d5d8d4cce341
2019-09-07 20:47:32,3ef2a56c-1fcb-4967-b361-a0e360c95dee,1,be4b4bfc-1b2e-4d61-a093-873e2bf4c9c1,24e953f4-978a-4883-ae06-35f9479edae0
2019-09-07 20:48:36,6853b66c-b438-4bba-94a8-0a13cb1441fa,1,be4b4bfc-1b2e-4d61-a093-873e2bf4c9c1,31a77745-054f-4d9d-bf0a-9af5f03f9274
2019-09-07 20:48:36,8ba796c8-608d-49d5-98c5-c62037fa40cc,1,be4b4bfc-1b2e-4d61-a093-873e2bf4c9c1,0971bfd4-c0d7-4ff9-991f-5ce2ea1f5bc4
2019-09-07 20:48:36,6f54390c-6f1f-4ba4-b5d8-c60d47cd3dd4,1,be4b4bfc-1b2e-4d61-a093-873e2bf4c9c1,f928a3ab-1110-487e-b616-0c2784a9e8de
2019-09-07 20:49:39,9ad68a50-ddce-486b-8bc8-6a79564e0017,1,be4b4bfc-1b2e-4d61-a093-873e2bf4c9c1,51228c03-931f-4c0b-8a12-a5a7dbf32566
2019-09-07 20:49:39,a0ae731f-a47f-4705-bb73-199c7909d318,1,be4b4bfc-1b2e-4d61-a093-873e2bf4c9c1,fbc115a8-5085-4f00-b51f-c6bc7616829c
2019-09-07 20:49:39,db68eb2d-1ca3-446a-8c50-cdefe2e1388a,1,be4b4bfc-1b2e-4d61-a093-873e2bf4c9c1,fbc115a8-5085-4f00-b51f-c6bc7616829c
2019-09-07 20:50:43,97274106-eb44-46ab-996c-6b2da92f5156,1,be4b4bfc-1b2e-4d61-a093-873e2bf4c9c1,3b874a95-ee1e-42c6-9570-b347ac86e683
2019-09-07 20:50:43,9c6099d5-7545-4038-9b95-5f66e2544a6f,1,be4b4bfc-1b2e-4d61-a093-873e2bf4c9c1,3b874a95-ee1e-42c6-9570-b347ac86e683
2019-09-07 20:50:43,91da1fac-5490-4dd1-af34-14930fd1d728,1,be4b4bfc-1b2e-4d61-a093-873e2bf4c9c1,2558022f-bd1f-4bbc-9ab3-bd93f8e923b9
2019-09-07 20:51:47,830de0ac-8506-4bdb-9b33-15a0b488c70d,1,be4b4bfc-1b2e-4d61-a093-873e2bf4c9c1,fbc115a8-5085-4f00-b51f-c6bc7616829c
2019-09-07 20:51:47,7bfaa6ca-1363-4db7-898b-730821f6a49b,1,be4b4bfc-1b2e-4d61-a093-873e2bf4c9c1,fbc115a8-5085-4f00-b51f-c6bc7616829c
2019-09-07 20:51:47,bef94db1-0403-4b47-80fc-1a9814f59f11,1,be4b4bfc-1b2e-4d61-a093-873e2bf4c9c1,b8fa676e-77b9-4d4f-984c-03c62dd3c494
2019-09-07 20:45:49,9f4f73d3-bebb-4a7d-8c4c-a6dc9414c870,1,939d8dd5-8199-4e53-83f5-15e54b00b11d,6ddbbf18-3233-4bf3-add3-50d05ecafdd9
2019-09-07 20:45:49,e192ad6d-441c-43be-8685-9c26d0a2fb8e,1,939d8dd5-8199-4e53-83f5-15e54b00b11d,6ddbbf18-3233-4bf3-add3-50d05ecafdd9
2019-09-07 21:05:50,6853b66c-b438-4bba-94a8-0a13cb1441fa,1,31a77745-054f-4d9d-bf0a-9af5f03f9274,a05f94f0-4d77-4828-9c30-982096d12a5a
2019-09-07 21:08:41,76aba427-468b-4aa7-826a-93b8464ec949,1,22f5b57a-4adb-4611-b44e-ec0c384e9c68,209f8be6-f803-47fe-a2e8-5cacaab4a3e8
2019-09-07 21:08:41,4d765b8f-7d5b-418a-a15e-8df9fba259ad,1,22f5b57a-4adb-4611-b44e-ec0c384e9c68,209f8be6-f803-47fe-a2e8-5cacaab4a3e8
2019-09-07 21:10:12,6a245571-15e7-4f27-8705-f8c8b3ea3ad5,1,22f5b57a-4adb-4611-b44e-ec0c384e9c68,a05f94f0-4d77-4828-9c30-982096d12a5a
2019-09-07 21:10:14,6853b66c-b438-4bba-94a8-0a13cb1441fa,1,22f5b57a-4adb-4611-b44e-ec0c384e9c68,a05f94f0-4d77-4828-9c30-982096d12a5a
2019-09-07 21:10:14,8ba796c8-608d-49d5-98c5-c62037fa40cc,1,22f5b57a-4adb-4611-b44e-ec0c384e9c68,a05f94f0-4d77-4828-9c30-982096d12a5a
2019-09-07 20:53:56,739c5ee8-c82c-4edd-a78b-97749ad3997a,1,6ddbbf18-3233-4bf3-add3-50d05ecafdd9,fbc115a8-5085-4f00-b51f-c6bc7616829c
2019-09-07 20:53:56,82f5bf77-3b7f-4eed-935f-6fabf2ff98b4,1,6ddbbf18-3233-4bf3-add3-50d05ecafdd9,6ea7f56e-8914-4941-af1d-6f2b9fc19415
2019-09-07 21:08:29,4d765b8f-7d5b-418a-a15e-8df9fba259ad,1,6ddbbf18-3233-4bf3-add3-50d05ecafdd9,22f5b57a-4adb-4611-b44e-ec0c384e9c68
2019-09-07 21:05:50,8ba796c8-608d-49d5-98c5-c62037fa40cc,1,0971bfd4-c0d7-4ff9-991f-5ce2ea1f5bc4,a05f94f0-4d77-4828-9c30-982096d12a5a
2019-09-07 21:10:12,45797550-70ed-41d0-bbdf-ed2a9362c40c,1,3b874a95-ee1e-42c6-9570-b347ac86e683,a05f94f0-4d77-4828-9c30-982096d12a5a
2019-09-07 21:08:49,76aba427-468b-4aa7-826a-93b8464ec949,1,209f8be6-f803-47fe-a2e8-5cacaab4a3e8,3b874a95-ee1e-42c6-9570-b347ac86e683
2019-09-07 21:08:49,4d765b8f-7d5b-418a-a15e-8df9fba259ad,1,209f8be6-f803-47fe-a2e8-5cacaab4a3e8,3b874a95-ee1e-42c6-9570-b347ac86e683
2019-09-07 21:41:40,cdec0bd2-272c-4e05-af2c-4856befda3a3,1,209f8be6-f803-47fe-a2e8-5cacaab4a3e8,24e953f4-978a-4883-ae06-35f9479edae0
2019-09-07 21:41:40,9cff43fd-b3cd-43b9-8c32-024bae7e8ff6,1,209f8be6-f803-47fe-a2e8-5cacaab4a3e8,24e953f4-978a-4883-ae06-35f9479edae0
2019-09-07 21:08:30,f01fba19-a1f4-40ce-81ad-48b3bd6f5915,1,56d117ca-4207-4bb3-be7e-52c667cf3ed5,56d117ca-4207-4bb3-be7e-52c667cf3ed5
2019-09-07 21:08:41,f01fba19-a1f4-40ce-81ad-48b3bd6f5915,1,56d117ca-4207-4bb3-be7e-52c667cf3ed5,56d117ca-4207-4bb3-be7e-52c667cf3ed5
2019-09-07 21:08:49,f01fba19-a1f4-40ce-81ad-48b3bd6f5915,1,56d117ca-4207-4bb3-be7e-52c667cf3ed5,56d117ca-4207-4bb3-be7e-52c667cf3ed5
2019-09-07 20:45:49,db31885b-57d2-4e35-ae8c-8f7d4487fa63,1,b12674b0-1749-4c9e-aaca-fd5194aa1978,b12674b0-1749-4c9e-aaca-fd5194aa1978
2019-09-07 21:10:12,3675daad-3252-4c51-915f-38f8391889af,1,73cff2fe-bc83-451e-a01f-1b54e0dbcf28,73cff2fe-bc83-451e-a01f-1b54e0dbcf28
2019-09-07 21:10:24,3675daad-3252-4c51-915f-38f8391889af,1,73cff2fe-bc83-451e-a01f-1b54e0dbcf28,73cff2fe-bc83-451e-a01f-1b54e0dbcf28
2019-09-07 21:05:51,6f54390c-6f1f-4ba4-b5d8-c60d47cd3dd4,1,f928a3ab-1110-487e-b616-0c2784a9e8de,f928a3ab-1110-487e-b616-0c2784a9e8de
2019-09-07 21:08:28,6f54390c-6f1f-4ba4-b5d8-c60d47cd3dd4,0,NA,NA
2019-09-07 21:50:43,faa591ac-01e7-4d2c-92c4-e9fa63c1925b,0,NA,NA
2019-09-07 21:10:14,6f54390c-6f1f-4ba4-b5d8-c60d47cd3dd4,0,NA,NA
2019-09-07 20:53:56,8d9791c9-8d45-40e9-82dc-784c938d8fa3,0,NA,NA
2019-09-07 21:41:40,faa591ac-01e7-4d2c-92c4-e9fa63c1925b,0,NA,NA
