app_number,app_id,trigger,burn,sink,deploy_date,token_interval
1,f4fe3bf4-eb2d-4672-b10c-54b5da3830c1,28f2dea0-bd69-4dcb-ab74-a5e90c27802e,815f04f1-1660-4a3b-93e9-0dc8a2073873,5a834736-4764-4b61-ba39-58f211c39927,2020-02-29 22:10:47,2.000000
2,1525e2f6-4778-4451-9d5f-882bb21c5fdb,23988f74-d703-44b3-9541-9a9e20c0564d,7683573b-4f3e-473d-9c25-af4f04d0619d,2883af1b-f342-4ea9-881f-1d294cd2c2a7,2020-02-29 22:11:50,2.000000
3,f422bd78-ec9d-4dc7-92ae-048d056937ca,7d0c5b66-5adb-4b03-aea8-e7be673d037d,8c6efcd0-b29e-4816-9fb7-fb48b2a75c13,94b11b32-44c7-41f5-b85c-5f5e92823f62,2020-02-29 22:12:53,2.000000
4,5c5d8c24-79a2-4135-9040-474498ee61b5,6385755d-e799-475b-aa7f-305626cdf4b0,d421d2d9-a6c8-48e0-9a19-e752a7ffb949,a37a6fd1-edd0-472d-8820-e257ac3ed815,2020-02-29 22:13:56,1.000000
5,a19b8bd8-0967-4faf-96f7-c1f6204d0cbe,2130d674-4720-4465-b63a-f78e7e471fa2,3e71571c-192d-49a8-97b2-232e2e28ebc6,75ec3f42-7972-471b-a86b-5d8ec29b471b,2020-02-29 22:14:59,1.000000
6,2102b747-0f6f-4161-b48f-363d973b34a1,c828e59d-0459-4907-a60f-9cd753881d7d,5bc20231-e2ae-46c8-9e2c-a53384874ab2,586d6e42-1fda-4a0f-8a4a-97e322768ba6,2020-02-29 22:16:02,1.000000
7,ae5e4a6e-8836-4bde-b3c1-13472b4336ff,cdb5471a-310a-424f-8dbb-6c0a8af4f05d,66375e86-58ad-49fa-ba01-e6c104029fff,2d9747b7-63f8-4305-b1e9-51ba46a81082,2020-02-29 22:17:04,1.000000
8,31efae1b-8c53-48e2-8781-f2b847c0a290,a729b568-13b9-461b-87eb-34cecfad98ec,be7f0840-4ae2-422e-a048-3709016542f5,b4362a8e-7f2d-4dfa-bb82-8a1702736e26,2020-02-29 22:18:07,2.000000
9,14b9105c-c7f7-4e65-9a66-fce02f69c427,b1d4fba8-4f4b-43ce-90a4-5e28ed5fd0f8,6a30a9b6-89e7-412f-bf88-4987c9015b9d,d7303640-e364-4d00-be27-3e1eb1457d78,2020-02-29 22:19:10,1.000000
10,6c285536-fa8b-4b8b-8252-96b0e4afb787,b4b2cba7-3e08-49f4-904b-0ce8591f3426,7ce6c92f-fdc3-4e4e-9082-8d445358644c,9da1b70d-fbb6-4789-b2cb-3019a7387e6f,2020-02-29 22:20:13,1.000000
11,d681fb37-ad40-4ca4-b73b-c1ce56f1d84a,9f2c613e-db12-4167-94d0-32df3c56ba7d,3b660071-0dbd-47bf-935f-f30d4317eba1,a20b6a60-265d-41dc-829c-4f3fb4e335d6,2020-02-29 22:21:16,1.000000
12,858608e8-5b9c-45df-a855-b5a2dcd42478,66f8b2f9-371b-4576-a69b-e2386f6b8a0b,8f7960f4-60f4-419f-9462-eb111e132384,aab21ba6-0ecc-4be1-9190-c76bc14ba835,2020-02-29 22:22:19,2.000000
13,8a1263db-0b74-4f70-961c-803142ce814c,0aec40e8-709e-4785-a431-107d35dd3039,bb0c505e-b7db-4de4-bf6f-e477446cdc3a,f967d6c8-f30a-4bc6-9677-bb69312f2ea7,2020-02-29 22:23:22,1.000000
14,4f8745a9-62bc-414b-b7fd-c09dcfed8757,329993ab-25dd-46d9-98c0-724baea272d9,c90df0d0-ed3f-4b0e-aa39-157d85f00bb5,c8a0ee53-b000-4942-a5bd-3823608a0da5,2020-02-29 22:24:24,1.000000
15,96537738-54a7-4c6b-88e6-b28791a63b9c,936d4797-99c2-4a91-b3cf-e35cbcd5da9e,6dc6803c-4538-4da2-a48a-fa520f584a18,ecf400d5-42a0-4c1e-8480-20a83e7ac738,2020-02-29 22:25:27,2.000000
16,97ff16dc-8c51-4a53-bcf0-bfa4ef20a3d9,4d8b474a-fe89-403f-ac20-fddef8b18757,061d264a-84b3-4a16-9c43-c663849130ce,09ac4ab3-b8d2-46b1-8cbc-6b3db6f14b6d,2020-02-29 22:26:30,2.000000
17,c177aef1-f5c4-4793-8097-a9b100c22af9,7c3eb520-bbb4-4677-84c4-9b92e6fb80b4,a9930daf-e877-425b-a800-67f4357db210,1b2e358e-3556-4209-a9c6-15b52d8e0ec2,2020-02-29 22:27:33,1.000000
18,c7eea8ff-9329-4568-9d79-d6364cad6705,b086193e-2db2-4746-9111-a9b4b03762af,caaca7d6-0a95-4962-9f30-108fe06845e9,7c4e54e2-2580-4b0b-8a5b-63485ea89679,2020-02-29 22:28:36,2.000000
19,70d29e0b-5c37-4a42-a034-2be22abbc439,9afc3171-4f39-4688-9d71-826d40ae0fb8,fb72fcd2-f6be-4d51-b1c7-c7a6d53ea65f,88fb035a-cbc1-4ef3-8208-ee0fdb621b7c,2020-02-29 22:29:39,1.000000
20,05703766-567c-4aca-813a-fac91f5140d5,d4af773e-1731-4c4e-be5a-3e06dc974aec,434e2594-b737-4cbb-8aff-b56b95a25668,83a855f8-30e0-45f3-a278-f49c0294f901,2020-02-29 22:30:42,2.000000
21,8b25ad3e-8f6a-4030-a539-0aef413960a2,8fb9b4d1-a06d-4275-95ac-333c815f610f,a2cc1456-efd4-41db-a896-98adfe6a6746,3182260e-7abc-4f51-8c4a-fd62774fde93,2020-02-29 22:31:45,1.000000
22,eac3b124-e64c-4941-93ba-a1a52c6ed32f,63f651f1-a205-42da-be7b-3a70b8f0c390,bbf418ae-21dc-494c-9467-d63a98b81c42,693ca7ab-ab3f-49a7-8697-9bbf3632b23c,2020-02-29 22:32:48,1.000000
23,33bee153-1599-4a67-b4df-b20d5be4dd41,bfc5de25-e3cb-4ac4-a127-61fa4f705cf1,66e3ee11-7b8e-44f9-a4ef-32c63a1efff0,08d8cabf-d25d-4e93-98c8-fa50c3a4cd5e,2020-02-29 22:33:50,1.000000
24,8b1ee197-10de-4367-900b-3fae8f6bb1c5,2cf9649a-bf89-4fa2-959a-bf7b89f5bed9,f3bd1fd3-48f7-4467-b234-7a26cac3e43b,ae5392de-0fb4-4864-836d-c0b006da3e3a,2020-02-29 22:34:53,2.000000
25,ba5b09f7-f158-42a5-a1fd-60a5e8ef2616,5fc5fc4f-474a-4559-81d1-0077d7216bf0,aa56df37-b997-4b09-bfb4-7d166a3fe3b3,53944229-8762-4e56-a2c1-ceb4bf1a29e7,2020-02-29 22:35:56,2.000000
26,92226f54-a2ea-42dd-9c1d-b90d9f6de9e4,055b2c33-9823-49b3-b797-c1a28c9a84c9,c3714750-7377-4904-b2f9-42e1b195e927,dfb95a5d-b999-471a-9b75-bb29bec06c08,2020-02-29 22:36:59,2.000000
27,2bbcbd98-937d-499c-bc27-a0c5b264a81f,92065462-d1ba-42f9-81c8-55bdff0d0b05,52176127-5192-4da7-aae9-3aaad6027263,f80d8ec5-1829-4118-a6b7-f19c0cac54f7,2020-02-29 22:38:02,1.000000
28,c7a2688a-8fff-4e51-98b5-cd3af851ff58,72910dea-578a-4bd0-8843-ab439b1beff9,20c09eb2-ef1d-4670-a50d-68e191d81437,d8a9c40c-124b-438a-87ec-9d22b99fafab,2020-02-29 22:39:05,2.000000
29,dd66c4a6-7102-4c36-98ab-9c623a5dadc4,b55cba67-ef44-4627-97e9-d498f79cd673,a5e611ee-f900-4318-bdef-461d34bf621f,798dc264-276b-4232-b548-8b3c55a0b3a0,2020-02-29 22:40:08,2.000000
30,4a8bc8cf-3be7-4436-a478-ab2968521832,2efa7c69-ef2c-4647-b651-b9814d2536a2,d7b08108-1d8f-43d7-9031-6610b6108509,be82c285-4cac-40f2-8313-7cea565a625a,2020-02-29 22:41:10,2.000000
31,a886961a-a11e-4910-8942-f1b89d1b9a83,54f5a928-8c20-408b-8f6c-5609c829c0ab,ed0afa0d-e8d4-4a3f-aa34-b120d87ac5a8,86b916b5-3d22-458b-a443-6d85f15f298c,2020-02-29 22:42:13,2.000000
32,a7852e98-d4be-4b73-befb-53aa0eec2d32,5a491aca-9a05-42f6-a3b0-209c85e862c0,a62fb0d9-e1d0-4e0f-b1bf-68c9c2b29789,8fd12972-7a73-421f-9812-4ef5dc05a0ee,2020-02-29 22:43:16,1.000000
33,9b86d32d-b849-42dd-9385-e29a11038b34,7fe94533-1780-487f-9916-e192a24b64d2,b9e7388b-05a5-46dd-8262-f642cf63a3ba,909af7ad-986a-4af3-bda4-c5b4ecd3c8b0,2020-02-29 22:44:19,2.000000
34,fe05e948-b8d4-4eaf-be34-38be12c6f854,0af70dd6-4c9b-4212-a665-719d86c0ac76,8188e806-b42f-48d4-bf9c-a7adadcbf2c1,7d322c16-d608-4a7e-ae3c-813a83ab142b,2020-02-29 22:45:22,1.000000
35,0f80fc5c-4bcc-4699-a60c-c11c47e5d0dd,40546aea-0f8d-4a3a-a32e-96999b27b2d2,55a4e46f-a16b-4e23-b34a-549ea86112a6,6c354915-794b-414a-9934-76e4c1763a37,2020-02-29 22:46:25,2.000000
36,39a3823e-743e-4f43-9662-a50f1bfcd15b,22fd8e72-8674-4cff-bdd9-5e32208cb060,97275215-1323-4133-93d0-780d0e77149c,50659fb8-fa7d-42c7-b8c8-370e96268b52,2020-02-29 22:47:27,1.000000
37,6cb905e4-b5c1-40d5-8d50-aa55cc1b3362,a5902f44-4226-401c-b993-f15d50acdbf9,1a485712-aa7a-4d80-a445-0d82ed3ee14e,01a39e29-273b-46ce-9440-86a39a47989a,2020-02-29 22:48:30,2.000000
38,c3118f5a-91df-4e22-8599-50c1566e914b,88fba429-dc50-47d0-bef6-6c974d841887,a8284daa-34c0-44a2-9bdb-7c1285cb197d,43ca87c5-3eac-4aa2-ac2d-5223c3be4959,2020-02-29 22:49:33,2.000000
39,4cc09816-c020-432d-ab54-084e06e38bda,2bc87581-33bb-4f24-aa4d-23f279fee957,a2e6f393-267a-4885-bbd1-6e0a17592ef9,4e89d0eb-5ef6-4464-a9a9-b6a0b383a205,2020-02-29 22:50:36,1.000000
40,9c9c43bd-6369-4a5f-8435-e1f3a1ab2c1c,f57cc265-26c1-4c42-8246-6513419b72c5,8444ede1-d900-4400-b188-f601e80b048f,61f4801a-96a9-43cf-a82b-4aaad1262eb5,2020-02-29 22:51:39,1.000000
41,c68d514d-d853-4ae1-a784-3292939c0fd7,ccbb7912-7c41-4bfc-8d31-aa4ea835ba81,0378d6ee-1119-43cd-a119-8d4a201d8157,ac344368-ea70-4a62-b5f8-6cc88bfea92f,2020-02-29 22:52:42,2.000000
42,6d5b9af5-b0fc-45b1-a8e5-8f56ff06f914,818e60a4-f966-4eea-a902-bb38f968f1fb,f625576e-9324-4930-bfad-9bd9d4886cf1,ca3b7100-aa1f-4def-a68f-fe52c0dddb69,2020-02-29 22:53:44,1.000000
43,66309d1f-8e6c-4e39-889d-4d1c720549fe,1dac75db-0a83-46b7-a54c-cb0e5aba09dc,8298fbda-dc52-47d3-b5c2-5b54f11dcf1b,b89eb167-827c-402b-8b57-aa18cbb8e438,2020-02-29 22:54:47,1.000000
44,abdc5a8c-6002-4866-acbd-76b7dc23903e,68be9114-49a4-45d6-8d0f-57f17caa2e50,4f6a8a7c-1aac-4ec8-855f-b05ef6689896,c452811d-4a32-4f2f-9612-719f2060fa3a,2020-02-29 22:55:50,1.000000
45,617e4f2f-f497-46ee-b6b3-6b5c839b6e94,807700ea-47d5-4159-846c-7c3b0190b87a,f294da99-3ead-4a50-8ef5-968d5ab85324,9272c8fd-89af-40f8-bc50-cfd49a3fa0bd,2020-02-29 22:56:53,2.000000
46,bf40fffa-397d-49be-9408-2b5afd495b55,486b9d0b-1652-4c4d-bd08-7dbc042aa5f4,f74a9aa0-3982-4f56-a762-6814f9abd8ee,399416ca-c2f1-46e0-b36d-0b4a4bcac75d,2020-02-29 22:57:56,1.000000
47,ad660f05-edf3-496d-a0bf-d60ca8fcb3ba,e799d8ba-41f4-483c-acab-aa51f188ad46,93b533cf-56f0-49c7-a341-cf1c44acc903,9d33948a-e81f-4fd5-a5d7-a85905a860fb,2020-02-29 22:58:59,1.000000
48,856b8518-dc68-4919-a502-0a7362d2c8d9,3a525305-22ff-4600-beff-de63778af643,0fd67bc4-fce8-475b-8f6b-a775302ad697,caba83d8-83a9-4ce6-bdc1-057cf8f95823,2020-02-29 23:00:02,2.000000
49,302f49c5-10e5-4b09-ba02-9f1aa267d4c7,f77e258a-9c5d-4a95-884e-c80f878c16be,74287413-17cf-474e-a549-c339166c9d32,6588dfe9-deca-45d7-a04f-426b9713f881,2020-02-29 23:01:05,1.000000
50,722125ef-e00d-4852-8884-ab24cc8be91e,9539fa5d-a568-4b93-84f8-f0fa048b8272,751f5bdc-2ed7-49d9-9ebd-c8c0a86e2e67,c9797f8e-15ff-4427-bd55-1cf0e64df588,2020-02-29 23:02:07,2.000000
