app_number,app_id,trigger,burn,sink,deploy_date,token_interval
1,7d7147a6-a0a5-4fd1-9d6d-f823b3db3083,56879e6c-6248-42e5-b433-0c477029f1f0,f01dda85-2453-4c8b-a15f-75583e36c8ef,dc341d29-8cc8-4a2e-b3c6-c37de05546d6,2019-11-01 15:59:34,1.000000
2,42e910d0-5ea8-4254-adac-2ac67bfa836f,c1a54ad9-8d4d-43dc-b853-9dfe774b1e06,55ac537c-817a-4e47-bf2c-57fc99e47ac9,89180e91-657f-44f5-99ac-8bd8087d09a5,2019-11-01 16:00:38,1.000000
3,f5c78957-a18f-4d3b-a011-74c2b9617c6f,3edd5919-51f7-43fa-9ad6-188bd2160765,64a749fa-13b8-47f0-a5a1-dc4b71295e4d,9e3bf23b-39ba-4f3c-bcaf-28a657a6e1f4,2019-11-01 16:01:41,1.000000
4,9a8b836c-b04c-4a6f-b2d5-e89eef56508a,38cbca85-333c-4deb-ae4e-aa03df626a9e,5d374dbb-e2ff-4427-9193-6c7ee793d7ba,245f70d9-88cb-43a6-a867-f6eb6969039f,2019-11-01 16:02:45,0.200000
5,6badc489-cb49-4739-afcc-b0d0c207b2af,ca7c72d3-5b3e-4e4c-9aea-625366befa83,3b966136-46f5-49a4-bb70-c6d45ce31711,715f7dbf-1348-4d95-b40d-2871b4aa0ab1,2019-11-01 16:03:49,0.200000
6,88c884c2-30f3-47c0-b2e1-c88bb038b118,eb1f8591-b3f5-4de4-9a18-da8d440550d6,2c68bf31-fe35-4104-a590-0d2d891d30cd,5f54e628-0b1b-4f67-a6e3-f95ccbc0f743,2019-11-01 16:04:53,0.200000
7,ae0b6656-22d6-4138-b2d1-5301727dc66c,b68b8994-0717-43b4-902f-d6dd963b3ad0,024ed4b5-fed1-4f26-893c-890350ca5976,c86d57b8-af0f-4b59-b0dd-51f1dab0c784,2019-11-01 16:05:56,0.200000
8,d0f0fe5e-48df-469f-8c39-65dbdea04071,8c46b579-90df-460f-bae5-ab940ce10b95,62dc308d-ce2f-4134-8497-ce46834a6497,1ed4d8be-74fb-4b01-9902-aea0429cd242,2019-11-01 16:07:00,1.000000
9,94f49571-6028-416c-b971-a17ef22cef1e,03fa7033-4b56-4c3f-943f-9dfc30b90e95,737b8477-4aab-480d-80f2-c9e9e3ba5ee0,f5954db2-2280-4b74-8edf-031eb376a117,2019-11-01 16:08:04,0.200000
10,ce39a869-8312-4dab-ae73-995f494047b4,fc162359-45a7-4eb6-ae12-4750dd64d962,b1495439-3c46-442b-8220-9c3004787cbb,87e954b4-1c64-4b12-b40a-b8b97ba93aaf,2019-11-01 16:09:08,0.200000
11,70653499-284c-42bb-a495-f4497b8e8ada,79ce4874-849c-47e6-b90b-0b404bf37096,989cf4f3-14fa-4b02-84b3-df09b91886d5,45c7e849-440a-4bfe-9702-34597d600f4f,2019-11-01 16:10:11,0.200000
12,01f0ec36-f2ea-4d36-affa-9009e7bd989c,6835ff4f-d1e3-4a72-a629-e19b4df6589a,cbeabbae-1a80-40d6-9b2c-dd8897535a7a,5cfe0fb2-aa5e-46b1-834f-8d09e0e3f7cd,2019-11-01 16:11:15,1.000000
13,b652c27c-afd3-459c-aad4-16865d7bf869,da9ff9ad-ec99-4017-a731-be272bf4efb2,fa8b0f46-aad8-44ea-801c-da73c3b7a316,19794c14-5ab5-4297-bbd6-75bc65ce4363,2019-11-01 16:12:19,0.200000
14,0c35fa91-933a-4772-8ff0-28c56d7d0540,7c35fcd2-e82e-4a1c-ad82-fff801d82254,aa62a0ef-f4cd-479b-944c-a60db6a8713e,00b6798c-9f2b-44a4-a977-3c19f632b941,2019-11-01 16:13:23,0.200000
15,26183416-0c6f-41ff-9157-d661d659040a,98769b49-866e-425f-81f0-de93ea9b56af,81407f0e-52c4-4659-82f4-a0ded3e2e750,0a790fb0-4be5-4582-89c9-aec872d28108,2019-11-01 16:14:26,1.000000
16,e90092db-a1c2-453d-9f8f-30848a87f93a,5c850205-b587-4b9d-8ce7-d86e09040928,ca07c2ed-5797-4548-b68f-f5ea9cbeedf5,7935d461-ec6e-4bfa-9da0-7b35174c7a53,2019-11-01 16:15:30,1.000000
17,f6e4ea05-d686-4cc8-86aa-91526288d963,caf1f2d7-035b-41b1-ac7e-6e43ff3a5269,30e94de0-e054-4c2c-a26c-763cceb0fa7e,486841ae-9e3a-4b82-8317-42c1e6938692,2019-11-01 16:16:34,0.200000
18,952f6c1e-dd99-44c0-b6dc-611ee93b8fe5,dc4f6024-9e8c-4774-a784-056dc5dd51b6,a2f7684f-eb7c-4542-b69c-9c79d87d6db9,bc347f28-e5ca-4395-b5e2-48da1d2f3831,2019-11-01 16:17:38,1.000000
19,70a88ae0-591e-4a4f-9192-879d641ff519,2f36cb8f-b4a4-4eda-b3dd-39b8296a7566,8ebe9af8-405c-4851-a16c-a4e66f1a3787,e4b1a327-ae4f-4879-981f-0bd543c77b5d,2019-11-01 16:18:42,0.200000
20,7855a793-e681-4894-9545-dcc017722239,74395842-2ccd-4a88-89a8-ae055ff2e829,621fb95d-b464-49d3-a9c0-43883d9bd44f,dc9bca28-4a98-46e5-8aad-32839ce97915,2019-11-01 16:19:46,1.000000
21,ca495f95-e394-45c5-907b-ff04dcf726f3,19e51595-757e-459c-8d6d-fbb9f3fb103e,e7ec3aa4-5b31-40ab-a1b3-f0ddbe07bdf2,6783ae07-a127-4a35-91ee-3cabed244bfc,2019-11-01 16:20:49,0.200000
22,450243b8-6374-43e3-9bf4-c06cf2a190f0,9fcb237e-4608-48a1-a140-7df7f0647c97,a0e59cf0-dd53-481f-b55b-39a7589f8605,413f11e1-0315-46f2-b8f3-3a26dd1563bc,2019-11-01 16:21:53,0.200000
23,c63939c4-54be-4169-a7ce-a2566030f7f3,dfe60018-adb4-45d3-acf1-02b42d9efe1c,c15fa9ec-efd6-4fe2-95ed-985bf019f67f,d29ce0b9-5684-4a21-8f62-0abaccd0dd35,2019-11-01 16:22:57,0.200000
24,b8419b28-622e-4b9b-8cf9-039ac0bb64d9,d92ddfa7-8811-4898-a31b-08ab44934ebb,13db5ee3-d508-444a-88f0-881bd9c5a736,6e4d13a0-2686-486b-bc20-363af54778a1,2019-11-01 16:24:01,1.000000
25,4a592f35-2d6f-4367-9246-e2307ce47a06,bec03fd1-19bd-47af-9623-e46637e63a40,42e85f51-e489-4121-8f33-618d280d9c71,b50cab4f-6f44-4d6e-b2a7-6992b4d58a99,2019-11-01 16:25:05,1.000000
26,76643eff-e4c8-442c-8a72-38b09e65e2bc,468e6446-6665-422f-950c-c16bac480792,4caacf58-bb65-4191-af26-d88ef9bd20fb,4f2a524b-2537-4a19-bb36-5d2555bff546,2019-11-01 16:26:08,1.000000
27,738eb5ba-36aa-43ef-bd93-c641af7d15fd,20bedd9c-2830-4d80-add1-2abde2108b40,851ad728-0d71-4594-93ce-cc2263153aa6,c7d83565-31da-4f10-8765-f552eb5b91f3,2019-11-01 16:27:12,0.200000
28,321a3a26-9910-4344-8a05-43f4befe185d,aa105917-f546-417c-b022-77c8bc58b885,8b6beaee-3cc5-4055-bd33-10f00ec4f6d5,0d542c45-da40-4833-b650-e5fca8662de1,2019-11-01 16:28:16,1.000000
29,79dd9af4-7cf2-4cd8-89c8-2f2bf273f293,4fa955dd-5153-4aeb-8d66-8ce1d60f1ff1,60ed2a64-d93b-4aa2-a339-a2fdd01d54a3,afb943e7-4355-4e59-9013-22e9ac492b83,2019-11-01 16:29:20,1.000000
30,ea828b3e-95c0-4689-87ad-88d2c7bbc39a,a75f6334-9d54-4fc5-90ea-ebb5efcc0367,bfd46f3c-4247-4a7e-80d1-e979beed85bc,36a02dbc-d46b-48e1-b52a-aa95cd240e2a,2019-11-01 16:30:23,1.000000
31,dd5f99c9-1cbf-47a0-83dd-699a41394704,8b7174d2-0909-4430-9c8b-465fe761349f,b737fe0b-ffec-410b-9b2f-a3c81c8b5971,dc40c759-edad-42f8-aab6-ea80dedf661f,2019-11-01 16:31:27,1.000000
32,667f0234-1867-4e1b-97d8-339008e7554c,046c8336-06a9-422c-b25c-32b811ccdc65,13b66800-9d48-48c9-95b9-07bfa65e597c,85e7ec4b-1e5c-45d3-9008-c98e9434f429,2019-11-01 16:32:31,0.200000
33,68a905c7-d88f-4c9e-a251-e544afd4ba49,a63f3464-f8c8-4de2-b804-4f3abcbe320f,839d6f30-1476-4979-9ba2-26cf23fd7eaf,4cec22e6-3fa4-4372-8c7f-60f3b29c7290,2019-11-01 16:33:35,1.000000
34,648a860b-4602-46fb-9071-353165f89c5e,6938bca6-6a1a-4c7d-806e-162059e9a265,143562f0-d4dc-486a-82d8-6e993393c8f9,f46df531-aa83-43de-839d-99e511f5f1ec,2019-11-01 16:34:39,0.200000
35,ccc7dcdf-8024-44d2-bcae-f9455792909a,f596cfdb-a917-408a-a397-a9da24ee86df,d6bebcab-5568-496c-a5c8-8915646bb4d8,a60ec4eb-9d0f-492a-bb37-f5df96784fed,2019-11-01 16:35:43,1.000000
36,d55808ca-22f4-4741-aa28-d99c6f31dcfb,16a07c4f-f9c3-402e-aa4f-a3e466b8fb01,d21c07d0-3b5d-4be5-b88c-7a991ca45f54,76b589cf-991d-4d8e-9769-cb08be55476e,2019-11-01 16:36:46,0.200000
37,46ce1c86-48b7-4693-bf64-06c73855936a,6bfa2276-830e-4df4-b2e5-6b3dd51456f1,f59e1611-e4fb-4f09-aa5c-2f4f72d7e932,5738a909-7672-4d5a-901e-84a5013ffe7f,2019-11-01 16:37:50,1.000000
38,2260f13e-9baf-4b64-b50a-1201b6782945,30099f77-e3f2-43fe-ba07-a10b4ea73022,a3fe7d50-397b-4e9b-9f53-e958c2084efb,faecba0f-63ba-4249-a2f0-cb5ddd996e51,2019-11-01 16:38:54,1.000000
39,5f247812-3961-47e9-9894-4e827ba66189,c11538ad-08bb-4719-a467-19390911ff59,b9626eb5-4061-4967-a790-16eeb5692024,d2d8c115-f137-4561-a5a9-576c732a91b8,2019-11-01 16:39:58,0.200000
40,22e8cbf1-24cd-46ac-b844-e1c569f6b77f,1e5915ac-a96a-465d-b578-f2fc476baa99,bc0a7233-3ff0-4b25-84b0-97b3e131d4cd,87e07f72-e906-4239-b7df-1c86978c1cf4,2019-11-01 16:41:02,0.200000
41,09734f0d-e710-4ac7-83a7-e1f22c12d387,e873e637-eab0-444d-b85f-b4f48a3edcb6,9aa994f6-32f2-46df-849a-64ce21102c13,64b9e373-8567-4f6c-9b03-f672ce4d5069,2019-11-01 16:42:06,1.000000
42,ce555365-c6dc-4154-84da-f9c7c3a39fed,5107345a-7963-4355-8607-0d3a74dff0aa,22cd5105-19ba-40e1-83f3-17978b9ddb8b,c48be5b2-43c1-4830-ba21-c3ed6f354a76,2019-11-01 16:43:10,0.200000
43,6939082e-8f8b-472b-a937-fbc7ad5db588,7a9a7598-d2f6-4250-9b90-9cb2dec026b7,1ddf6bba-d54c-415e-a456-cbb4795a4709,d23737a0-cfc4-4fbd-91b8-703ceb8f38b7,2019-11-01 16:44:13,0.200000
44,57834426-e5ab-4b1f-b054-efcd9d9f61f2,c2fcacd4-1f25-4ad1-ae96-6556761af7cd,337d734f-1441-4a03-95c7-a5d847a866c5,fbd49337-838e-42ce-a53a-4a878b92e6f5,2019-11-01 16:45:16,0.200000
45,733cf0d9-4f14-4d55-9934-57f78f3772ed,9fef15f2-44c8-49fc-b08d-6084c69a3f88,bf94afa0-52e9-4076-a635-30e60e329bcb,b7a29e21-1527-4773-a15c-31d296efeb94,2019-11-01 16:46:21,1.000000
46,563cf505-52a7-445b-a88b-98f2f0798867,888f06e6-9806-4b81-ae09-15e19268be15,e125e490-5706-46a1-86c5-831d0adea2b4,7dc11ccb-5faa-4718-9f1f-1a7bf60c7c25,2019-11-01 16:47:25,0.200000
47,bf0d4c57-3677-43c1-9e49-071f4af5ed88,9bbccf63-3f71-4a71-963a-3827c52570b8,74f7c153-9599-4d6b-8158-08790a9fbb7f,d9ab139a-653d-4324-804a-6b9e45c4d4a5,2019-11-01 16:48:29,0.200000
48,aee994b1-5471-41f1-9dbf-553799c10c6d,6f57d622-46b1-41d7-99e0-4366131898fe,742f563b-492c-4018-bf54-d0d27859b035,6ae748fe-2f78-44d2-9b07-d25a16309968,2019-11-01 16:49:32,1.000000
49,94443ae0-3618-4e07-a361-4e4789462733,ed520778-a338-4736-8442-b949e9abd82d,a541a59d-c05c-49c2-8a36-c844608a33a0,c0f7eba2-a20b-426f-92b0-a093c7a841fd,2019-11-01 16:50:36,0.200000
50,1cb88247-7ab9-4bcb-bace-806cd5421686,0cd478d9-9f3b-450e-92ae-464f1b70b4ba,a91ad35c-f6c1-4147-a9d5-b8dfb5385a14,7995ce3f-5bfa-4387-9cb0-ee40976b3fa4,2019-11-01 16:51:40,1.000000
