actor,node
499feba6-e880-4c34-b644-6dc60c75c033,629721b6-dab2-48f3-9d97-e3d329e2e1a3
b669bf73-27d4-4840-a79f-c5e6de35445d,b5cc0486-fb0e-4dfe-a5da-b68af27d71f5
9e09f9ce-fcdb-4e23-a1c6-688b765105ba,b5cc0486-fb0e-4dfe-a5da-b68af27d71f5
9cafcf97-3771-4247-b7ce-ca82f1f805fc,1146d6d4-aeab-40c6-bd3d-84d022d343eb
3788d39b-0716-47d2-9c89-b02b0ab4890d,546a9dc4-82df-4d23-9410-c713026985c7
d87a6bbc-d1d1-4295-88e6-b4c773268009,546a9dc4-82df-4d23-9410-c713026985c7
5b9c5d55-9689-4f5f-b7db-d11c84068b51,11d19c5d-bcd5-4eda-b4c2-7e4a80e108cc
bc8f336e-7b1b-48a7-a7bb-87db96cf6269,f6795636-9450-458f-bfbd-9bdb0f08af76
b77935bb-8a25-4da3-8bf6-4129c1f977db,f6795636-9450-458f-bfbd-9bdb0f08af76
aa9267f1-760d-4e04-b86d-b1abe522c0b6,8ac48064-08f8-4d76-81b5-508e0872f0bc
95490135-491a-46ab-adda-3a17ce91c545,8ac48064-08f8-4d76-81b5-508e0872f0bc
c9db44d1-234f-48fb-838b-0c029a8d71dd,aeb3337e-f6b6-4731-8607-c56c9f3f2875
294893fe-6ed5-4283-8882-2032b91a8801,2e3bea00-6c69-4be4-8df5-aaced22bacd1
0335815d-9bce-472f-8a31-3e83f433961e,ab4084e0-9baf-4df9-ba13-f7daab60f86f
6a6f7577-a709-4910-add0-82d5ceb30066,ab4084e0-9baf-4df9-ba13-f7daab60f86f
aa5d43af-1eac-4c7d-8e52-4a171a9fdfa6,7143f9cb-42a1-4303-abc6-f068338bc857
27b11769-f936-4388-9435-fdec684e44d5,60d65b73-301b-48cd-81ed-26eabd166d40
a1295024-f5b2-4c63-abcc-3fd08a93e4a2,60d65b73-301b-48cd-81ed-26eabd166d40
9125b2b3-a83f-4952-b607-4bd397e6b735,be1125e5-7d19-406e-a8fe-c92a8f57c87b
8e8b84e9-a3c4-47af-9bac-b3bbfe1bf05a,4519f1db-56d2-47d8-9774-084aff0e65a4
10b40722-42a8-427f-b82c-448cfca85127,be1125e5-7d19-406e-a8fe-c92a8f57c87b
3ae657e7-5943-4a89-b843-3492ef7085e7,df9f9bce-d567-425b-ba14-530d45275183
6b8e19a2-f84d-4404-9eea-978b1cac6530,df9f9bce-d567-425b-ba14-530d45275183
962b6192-f655-4a83-ace7-1958784a7857,c3a483ea-4545-418c-a5c9-c93bad726ee9
84556923-0572-4a98-a05f-f7a783c816cd,3d2e81d0-3a63-4bda-af15-50b42312b31b
41958913-e8a1-4632-bb3a-fba21da6bc53,2c0935a4-c50d-4bf7-8228-8729816c9e59
2ab1a5d2-6178-4bcc-a256-cb87474ca0ce,2c0935a4-c50d-4bf7-8228-8729816c9e59
e3bd5901-72e3-4bdd-9be0-60fe34922d36,814f9619-ee53-48d8-944b-9cf3fdd3b745
39647963-edd4-4e53-b293-466f9daa3e5c,7d22eb57-7bca-4827-b6ee-74f6c0cb43fe
0b5a2961-655e-40ad-8b12-8d9d0a6ee36d,7d22eb57-7bca-4827-b6ee-74f6c0cb43fe
ee09563c-1106-43b0-8b99-e76586d2d53e,77a49101-a457-4bfc-b84b-5e6aa3b2991c
82b09a97-f8ec-4e02-8083-c63765cd400b,77a49101-a457-4bfc-b84b-5e6aa3b2991c
fbc0af10-4393-4bb6-b0e9-b7196d70d2fc,166f85c3-66b8-43bf-a356-ffaba46299fa
fcf47f62-75f1-4be6-84f8-f18937cfb148,b24f582d-8d62-4f73-9593-1db6e740358b
a4197dc9-cbd8-4890-997c-b87164ee7813,8a3e8a69-d845-4f30-97d9-5b9cd5a5b1d1
f320c285-ac17-49c6-8181-ac1cf3be2913,8a3e8a69-d845-4f30-97d9-5b9cd5a5b1d1
9f152d5a-2259-40b8-aeeb-4c7a0445817a,0d0dd2c3-3c24-4749-aaab-f7f95fd153cb
7ec64dd7-3ca2-44a6-a0ef-571ba7e877c1,e9e1b00c-a4ff-4caf-a33d-a2f8375245b6
4e9b9596-60eb-4d01-a109-428a7ee24ec3,e9e1b00c-a4ff-4caf-a33d-a2f8375245b6
52cd3959-44ab-4fd1-a231-489e8008d14b,b21fd893-fa50-461f-8e09-c770073a8f21
0085d035-42aa-4d37-b32c-ccf3d2b2c477,3c96244b-2935-4a57-a7da-f45b721b6b67
402bcf2d-71e5-4562-8807-8e2e32a3525c,b21fd893-fa50-461f-8e09-c770073a8f21
360b0fe7-f43b-4b49-9407-61e11980b6de,be855b5e-6628-41f6-af8f-5e3b70a7a4a9
34dd3997-7e78-41ff-9807-fcaccce64a7b,ed5b29d4-cbd0-439b-993a-3e2f9d9b99c5
02258535-3c46-4ccf-80ff-a73a29d06c2b,ed5b29d4-cbd0-439b-993a-3e2f9d9b99c5
d1d6cea8-4fef-462f-9f38-ffb1db1cdfec,b5cc0486-fb0e-4dfe-a5da-b68af27d71f5
210eeb6c-47ac-4908-9f40-b46f86ac6e3e,b5cc0486-fb0e-4dfe-a5da-b68af27d71f5
8cba68c7-6db0-4d39-b281-152629c4126d,944df215-8a53-4a41-a16b-d2be6f85c89d
65668841-6188-4dff-a6c7-3f3bab64228c,546a9dc4-82df-4d23-9410-c713026985c7
e51efd8c-dfe7-4794-89cd-99b2f1f02071,5b10bc2d-6ff1-48d7-aa62-d763ce6ca6ea
525b9342-9a45-4d75-87b9-2c447ca9df43,546a9dc4-82df-4d23-9410-c713026985c7
5e20c071-c5f4-4c6a-884a-c71ad771dcbb,f6795636-9450-458f-bfbd-9bdb0f08af76
fced7487-7de9-4c1f-95ff-860e5548c5e5,28cfec4c-d4f7-4079-b01d-312a010a8c7d
d149784e-cb7e-405f-9be6-935aac29d2c4,f6795636-9450-458f-bfbd-9bdb0f08af76
5f40296a-351f-43ba-a45a-792cbc37d1aa,10da25b9-66db-4c9b-9913-b9b892381f3a
bd823eaa-a2c1-4fcb-b427-e0c09b94e098,8ac48064-08f8-4d76-81b5-508e0872f0bc
6c5d2f0c-344e-4cbd-9c99-b4baa269eed5,8ac48064-08f8-4d76-81b5-508e0872f0bc
0b090391-80a8-47b1-91fe-76d1492ee747,1ee4ee2d-c673-41a4-8065-71c3b76cb4db
a5817d7c-2d4b-410c-9526-03d7f1fe8996,ab4084e0-9baf-4df9-ba13-f7daab60f86f
27f74ac5-f36f-4ddf-9834-8a06e071f53b,ab4084e0-9baf-4df9-ba13-f7daab60f86f
ac20cc5f-24fd-4859-b447-2c1b7938a17f,60d65b73-301b-48cd-81ed-26eabd166d40
39af8a61-44a9-41a7-bd87-5bad95ace054,60d65b73-301b-48cd-81ed-26eabd166d40
1e4ed2d6-a349-4ae2-a47c-44fc366d8e84,50bf9179-4550-4e78-8c98-feaa7707ab9e
fc9a84f9-2ae4-486c-bbc3-5758f045e358,be1125e5-7d19-406e-a8fe-c92a8f57c87b
0983369f-1d02-454b-a096-506bb936461a,f8786cf2-ae87-40a7-855c-de7083eb2027
cdd5e947-66f3-4a23-b61b-3dcac8631276,be1125e5-7d19-406e-a8fe-c92a8f57c87b
fd661246-ec64-413f-b8c1-d23bff2df14d,009741fb-2607-4dc3-8af3-69accf0f8583
63a7ddfb-8a34-4e07-a908-354c22ba6616,df9f9bce-d567-425b-ba14-530d45275183
45b92567-801f-4036-89b8-25f7fedb14b8,df9f9bce-d567-425b-ba14-530d45275183
d9c861b8-0334-494a-b60c-840416371119,2c0935a4-c50d-4bf7-8228-8729816c9e59
8c040e66-1683-44e4-b4ab-91411d9e5366,d160049c-2a6d-48e3-bc6d-31f30afffb5f
6d4c1069-0a60-4942-9f51-94242f5299d9,2c0935a4-c50d-4bf7-8228-8729816c9e59
5bdf3294-5dd6-4b64-b2ad-b854c9cb4e83,7d22eb57-7bca-4827-b6ee-74f6c0cb43fe
d24a1599-3fb2-4ffd-91fc-e350aa1c53fb,252fe32d-b109-4f45-8fdc-daa625e68ded
60af04f1-ce0b-44a4-b4ad-7738b394c5d2,7d22eb57-7bca-4827-b6ee-74f6c0cb43fe
52b6b65a-0913-41e0-966a-bc975545880f,77a49101-a457-4bfc-b84b-5e6aa3b2991c
eef195a0-890e-4f3d-a636-62dbde3667aa,77a49101-a457-4bfc-b84b-5e6aa3b2991c
137083e3-5891-42a7-82fa-51e9563cbf26,9da289ef-7b6c-4015-9b70-ef3d489a2184
4003c237-c9a3-4ebf-b6be-b665b06d8188,8a3e8a69-d845-4f30-97d9-5b9cd5a5b1d1
295295b1-9fe3-4a8b-a5a2-03adc38131de,ab87f112-5f7f-4660-a03a-9557790511ab
79f6b2bd-2dfa-4ed2-b3b0-69b4c9eb76c6,8a3e8a69-d845-4f30-97d9-5b9cd5a5b1d1
cf37f442-a5f0-4493-aa27-a0d12893894d,e9e1b00c-a4ff-4caf-a33d-a2f8375245b6
40e1ab71-0f50-4b2a-bafb-1417f01d5573,5323b4e0-a14d-4297-93fd-56edb60f823f
797f3c93-3b29-4361-8b03-3cceb44a6c51,e9e1b00c-a4ff-4caf-a33d-a2f8375245b6
d463cc15-e335-4946-b693-04b1feeb21ee,b21fd893-fa50-461f-8e09-c770073a8f21
6546fc03-6438-478a-997b-7b94c25d248f,5ed213e8-0438-459c-8c6e-a5e70fe16840
f0215ca6-4ed1-42ed-8939-39ee031ea76d,b21fd893-fa50-461f-8e09-c770073a8f21
abbf34c2-3937-45ac-9119-3f5519d2f0ce,ed5b29d4-cbd0-439b-993a-3e2f9d9b99c5
87e19503-8ac5-4a83-b2a0-6878c5fcccd1,5041a8ae-e1e2-48b9-bc06-0bc7daa1de12
4a233e6c-8912-4929-b7d6-48320a439b35,ed5b29d4-cbd0-439b-993a-3e2f9d9b99c5
0892aeb9-719c-4aad-b4aa-ac8f3afe4749,b5cc0486-fb0e-4dfe-a5da-b68af27d71f5
1cda0811-364e-4b96-bda7-1ae756eab1c1,b5cc0486-fb0e-4dfe-a5da-b68af27d71f5
aea17e60-563c-465a-a2cf-3972b9a25277,48740012-dbc6-40df-ab59-e6cdbcac032e
6300ec96-d77d-45df-8d5a-c01782e8420b,09c119fa-d385-42c2-acd7-84e5878352fc
6ac41cdf-a1a8-424a-98ed-da7e32ef3c82,546a9dc4-82df-4d23-9410-c713026985c7
b7bbaaca-04db-4407-8f01-f81b0c2bd68b,546a9dc4-82df-4d23-9410-c713026985c7
c0acd748-6cf3-4b71-a1a9-ada964766c53,f6795636-9450-458f-bfbd-9bdb0f08af76
d958badd-4dae-40db-b813-9b012aa9a728,ce8e3fc7-b621-4b4f-b933-01c187beb230
8f8347d8-cc81-4540-8707-374927171430,f6795636-9450-458f-bfbd-9bdb0f08af76
d49614ba-4c1b-4531-8c84-a9d5b46fb3dc,8ac48064-08f8-4d76-81b5-508e0872f0bc
c9d70f27-4f64-46c2-b949-5b52ca78a94c,8ac48064-08f8-4d76-81b5-508e0872f0bc
71c24ce9-5fa8-4bcc-9efd-47bd2136d721,4fc0a4ff-1bf0-4220-aba8-661bedd624f4
793e1b53-eaa4-4d84-8112-3021a958b58d,ab4084e0-9baf-4df9-ba13-f7daab60f86f
0ed2b564-9439-4c8a-8303-159fd96234ef,94885565-2e6d-4d2a-b079-da28646f325e
9637328f-0da6-42c8-b25e-77b192082346,ab4084e0-9baf-4df9-ba13-f7daab60f86f
799a7d2f-b5f7-4f14-b5ea-67eced1fd581,60d65b73-301b-48cd-81ed-26eabd166d40
a80bd3d7-9b4e-41a7-ada0-86c3ee64f059,ff1b9b3e-3ac6-4808-897f-65a34d542d38
1c5d77a1-315e-40b4-938c-088c6880454b,60d65b73-301b-48cd-81ed-26eabd166d40
6cf8f9fa-7ac5-4dac-80de-00b83d3e54f7,be1125e5-7d19-406e-a8fe-c92a8f57c87b
73c20f69-ad17-4eda-858f-2f2782b059ca,be1125e5-7d19-406e-a8fe-c92a8f57c87b
7f97efbb-cbe3-4636-81df-341faa116b0c,355cde8f-2c4b-4a36-a96c-6574f7a6a202
1e5590d1-8e0d-4afd-a3a6-5401037fe7ab,5c329aac-76b0-4658-bfc8-a5849cc11821
1cb4e3e4-23e8-4153-a6cc-248e7b6d92aa,df9f9bce-d567-425b-ba14-530d45275183
da4fa9ae-525c-47b7-aa5d-27d7cad94c83,df9f9bce-d567-425b-ba14-530d45275183
7e9270b9-3f26-4068-a9a6-08678557a106,2c0935a4-c50d-4bf7-8228-8729816c9e59
2a811485-852a-4e04-b962-1db349530014,b4eb44f1-ef4e-442b-81d3-6ad6e02b6502
24a658a0-0b3a-4b6b-acb5-d1c4db97835c,2c0935a4-c50d-4bf7-8228-8729816c9e59
e9b1bb4e-9b17-400a-93ab-220ec1027b2c,7d22eb57-7bca-4827-b6ee-74f6c0cb43fe
14125471-2b03-4b4f-a1a8-f2290d8ed43e,7d22eb57-7bca-4827-b6ee-74f6c0cb43fe
dcc34517-e238-40e9-9ead-9de1fda9c4a4,95ac4bfc-c7bd-4470-bb88-fd73bdddb8e5
aa68c952-41de-4c87-b7cf-38d1aaa844a1,77a49101-a457-4bfc-b84b-5e6aa3b2991c
3a18b5fd-0e88-4ee9-9bc7-38d1725d5f09,af659369-5eb5-490e-a227-c1b6ce789bed
45b9a14a-12ac-4844-8070-e666d8c5cc2c,77a49101-a457-4bfc-b84b-5e6aa3b2991c
5a9a8ce4-dbdd-427e-a385-d7afc0d673cd,0dbd8a13-3226-4535-995b-86b0e51ff948
2fd7399c-593a-49f8-ac9b-39cb746cb8d6,8a3e8a69-d845-4f30-97d9-5b9cd5a5b1d1
5e886038-281d-4d72-8247-fb2b20f7029c,8a3e8a69-d845-4f30-97d9-5b9cd5a5b1d1
09f3ab63-6b70-4e02-a6f9-e2446526330d,e9e1b00c-a4ff-4caf-a33d-a2f8375245b6
0df803d1-165d-43e4-8928-2aaadfd68c26,d4621246-e6c8-4303-b4c4-fb6cf45bff05
383e55db-a9c8-4967-b2ba-70fa9ad3e1cb,e9e1b00c-a4ff-4caf-a33d-a2f8375245b6
613563dd-4c12-408d-97ec-106f67b9773a,b21fd893-fa50-461f-8e09-c770073a8f21
37f06fd5-23cc-4a1b-9dac-bca03da0a1e1,b21fd893-fa50-461f-8e09-c770073a8f21
617bf7c7-7ec2-43a5-82a2-1d726826a1ab,9ee41eea-24df-45d7-a946-7f27d057b5bc
d089c8a2-2b13-4b60-a301-37967595c436,6a641f43-4038-494a-bff8-e280a22e8ed5
66c22a74-431b-4cff-95de-b8f5857889c4,ed5b29d4-cbd0-439b-993a-3e2f9d9b99c5
8a793430-35b4-4666-b36a-fc0654dfc349,ed5b29d4-cbd0-439b-993a-3e2f9d9b99c5
7b2d5947-2b0c-4c95-93fa-061cc26e3b39,b5cc0486-fb0e-4dfe-a5da-b68af27d71f5
1e9b4ce3-0640-40e6-8384-86043e512e45,b5cc0486-fb0e-4dfe-a5da-b68af27d71f5
69a285b3-41af-441d-9e9d-1f375247ea7f,e190ea26-df7b-4176-bc0f-002bef881861
5ddc9819-34a8-4f52-9548-75df4611823e,546a9dc4-82df-4d23-9410-c713026985c7
07e26f78-1f60-432e-8ac5-f6dbdbb0e567,d4f29334-2693-40cd-ad46-58ccfa4e2eab
e6aa45a7-dfb3-4fae-8d73-b0618f1fe61f,546a9dc4-82df-4d23-9410-c713026985c7
07dd3914-c44d-4b57-a159-c2b4703fa994,f6795636-9450-458f-bfbd-9bdb0f08af76
4c8666d0-a5e3-48b8-a9dc-c448ba823ecb,f6795636-9450-458f-bfbd-9bdb0f08af76
247b3ace-a964-4ce5-b8ae-75b558b23f5b,1962fa5c-fe6a-44b5-a524-d4a221c7d397
8df1b0fd-7d43-4075-9d06-c003944d2523,8ac48064-08f8-4d76-81b5-508e0872f0bc
b44899b6-3b36-4e44-a04c-5fbee5a6cac1,a8d81c52-af6c-413f-9561-1810bd763661
7bb4957a-c5cc-4e0a-9549-e5213df490e8,8ac48064-08f8-4d76-81b5-508e0872f0bc
f9431ebd-eb31-4067-a2a4-56402f261ce3,ab4084e0-9baf-4df9-ba13-f7daab60f86f
313ce7d4-6529-474d-abb1-7cc374a5eb87,f8997d4c-a08f-4580-becb-b5e2d2baa3ef
f80efe6d-784b-4a3d-8cd5-fd38a6f62527,ab4084e0-9baf-4df9-ba13-f7daab60f86f
