node,ip,uuid
node-a8-199.grenoble.iot-lab.info,172.20.64.1,8a4c3599-ef7e-48c9-b745-11d83fc72304
node-a8-200.grenoble.iot-lab.info,172.20.64.2,ce0dd280-91f7-4812-be4c-ddb446c263e9
node-a8-201.grenoble.iot-lab.info,172.20.64.3,b0616d99-f5ca-454d-bbb6-05eb0202388e
node-a8-202.grenoble.iot-lab.info,172.20.64.4,0df92be3-0996-4954-8f97-b112e2d310d1
node-a8-204.grenoble.iot-lab.info,172.20.64.5,548faad9-f70e-42e5-b315-7c9941d8560f
node-a8-205.grenoble.iot-lab.info,172.20.64.6,dccd78b7-5758-4e5d-a3a2-f288c905412c
node-a8-206.grenoble.iot-lab.info,172.20.64.7,7eff06f2-e438-494b-b27a-59db6738df90
node-a8-207.grenoble.iot-lab.info,172.20.64.8,a1ead011-ac13-45bb-8016-fcc7fbae4ae7
node-a8-208.grenoble.iot-lab.info,172.20.64.9,e18e3300-22fc-4f71-9f3f-0647f273f3c2
node-a8-209.grenoble.iot-lab.info,172.20.64.10,dd89fcaf-cdd2-499c-8414-2dc251a662c2
node-a8-210.grenoble.iot-lab.info,172.20.64.11,cea8defc-00dd-414e-8869-1c0cf3d60cbe
node-a8-211.grenoble.iot-lab.info,172.20.64.12,641d46b3-df1f-44e4-b80f-70a5b7b358ea
node-a8-212.grenoble.iot-lab.info,172.20.64.13,791e7121-efcd-41d6-a759-99167b66bdb9
node-a8-214.grenoble.iot-lab.info,172.20.64.14,8daf9a17-9572-4118-aa8b-791021f1858a
node-a8-216.grenoble.iot-lab.info,172.20.64.15,eed00c7a-5ff3-4297-8a28-dddb2ce24fa9
node-a8-217.grenoble.iot-lab.info,172.20.64.16,0af06d39-2b78-482c-8e42-358530294ff0
node-a8-218.grenoble.iot-lab.info,172.20.64.17,24762618-4d29-4141-bd93-cce986057a29
node-a8-219.grenoble.iot-lab.info,172.20.64.18,42205609-5e68-4e75-b036-4a623daba010
node-a8-220.grenoble.iot-lab.info,172.20.64.19,5846a0e9-b82d-491f-8a28-e9296f74ba6a
node-a8-221.grenoble.iot-lab.info,172.20.64.20,cf3cd51f-52aa-46f7-bdd4-a5a64aff8614
node-a8-165.grenoble.iot-lab.info,172.20.64.21,3c74d585-9181-46b5-8fb6-7e978a39fbeb
node-a8-166.grenoble.iot-lab.info,172.20.64.22,0ff301a6-ebf0-4dce-b85f-078bfed88603
node-a8-167.grenoble.iot-lab.info,172.20.64.23,540ec170-54eb-42d7-9a52-f4cdac60241b
node-a8-168.grenoble.iot-lab.info,172.20.64.24,619d4dbd-25bf-4e62-8d4b-a4620931cae3
node-a8-169.grenoble.iot-lab.info,172.20.64.25,7085cba4-bbe6-40d4-a7fe-f405bbf9970f
node-a8-170.grenoble.iot-lab.info,172.20.64.26,58a07298-08d9-4657-a587-0a3472ef85cb
node-a8-171.grenoble.iot-lab.info,172.20.64.27,571703c8-a601-48f7-b601-75cb13168acf
node-a8-173.grenoble.iot-lab.info,172.20.64.28,5c07b9cc-6ffb-4872-b75e-9f5db3d86743
node-a8-174.grenoble.iot-lab.info,172.20.64.29,0f057c1e-f7cc-4da6-9460-f4fca1f645c6
node-a8-175.grenoble.iot-lab.info,172.20.64.30,ea80cae0-c183-4125-9a76-13f712de932f
node-a8-176.grenoble.iot-lab.info,172.20.64.31,2dd7cbbb-1d5d-44f0-ae3f-aec3052201f9
node-a8-177.grenoble.iot-lab.info,172.20.64.32,74720af8-0ce2-4a3b-aa0f-81470550d0d4
node-a8-179.grenoble.iot-lab.info,172.20.64.33,6624b2d3-fd7a-4bf6-841a-c85da1422ad2
node-a8-180.grenoble.iot-lab.info,172.20.64.34,2f397312-cbbe-4d60-b5ca-554bf2ee792c
node-a8-181.grenoble.iot-lab.info,172.20.64.35,64f390fe-0a5d-4ada-aab3-d2093ed0cd4f
node-a8-182.grenoble.iot-lab.info,172.20.64.36,6559dda3-47f1-4613-8574-cdce53ad296e
node-a8-183.grenoble.iot-lab.info,172.20.64.37,21e2e270-1be9-48f6-9947-1649a01845e8
node-a8-184.grenoble.iot-lab.info,172.20.64.38,8c53f426-9477-4857-84be-9cb9f73cc7e8
node-a8-185.grenoble.iot-lab.info,172.20.64.39,77bafdd1-113d-4ac2-82b4-2305255d5c52
node-a8-187.grenoble.iot-lab.info,172.20.64.40,c2e5be8f-9fbe-4345-a8f5-2ce2e9e823e2
node-a8-188.grenoble.iot-lab.info,172.20.64.41,976f561f-7ded-4536-b8fa-15c6c733e660
node-a8-189.grenoble.iot-lab.info,172.20.64.42,e23f10bb-7877-42ed-a289-93fefa4a3ff3
node-a8-190.grenoble.iot-lab.info,172.20.64.43,ac6a8df9-e679-4322-beb0-e198788e0a01
node-a8-191.grenoble.iot-lab.info,172.20.64.44,4559055b-8cbd-47b7-a815-f2f62791ddc6
node-a8-192.grenoble.iot-lab.info,172.20.64.45,094677cc-36d1-4679-8a23-007367d86689
node-a8-193.grenoble.iot-lab.info,172.20.64.46,ac370294-7547-497a-b99d-6fa07eacc217
node-a8-194.grenoble.iot-lab.info,172.20.64.47,8e615f13-024c-4053-9123-9c5950dc19c1
node-a8-195.grenoble.iot-lab.info,172.20.64.48,a3b106c8-c5e9-4f94-b216-5cc58ebcbb31
node-a8-197.grenoble.iot-lab.info,172.20.64.49,87499598-d3cb-4a8e-9234-41ce57aa995d
node-a8-198.grenoble.iot-lab.info,172.20.64.50,cdc41318-50a5-448c-a17d-bbd3eaf4c582
suno-11.sophia.grid5000.fr,172.16.130.11,55f55265-c352-47f9-9bbb-b7f3f0b06c59
suno-14.sophia.grid5000.fr,172.16.130.14,e2f819c4-559b-4d44-b764-f28fb50fcda2
suno-15.sophia.grid5000.fr,172.16.130.15,fc2e3a10-81f4-4ff5-ad41-5281e9264d32
suno-2.sophia.grid5000.fr,172.16.130.2,880c8893-288b-4e30-8d51-178bd0ed6a22
suno-25.sophia.grid5000.fr,172.16.130.25,59003e6a-f169-4c72-925b-f5e7b428e256
suno-27.sophia.grid5000.fr,172.16.130.27,f1eb23c7-0d9b-48d4-b1b6-89d05962157f
suno-28.sophia.grid5000.fr,172.16.130.28,0ca59d43-0b45-4299-92a3-93aab3334697
suno-30.sophia.grid5000.fr,172.16.130.30,acdba490-6fa9-43ee-b9c1-9030314f07be
suno-32.sophia.grid5000.fr,172.16.130.32,5af98087-75f8-4e21-b4bf-26c387ddd352
suno-33.sophia.grid5000.fr,172.16.130.33,cb03e982-0b9a-47fe-9cc5-82f222a34d15
suno-34.sophia.grid5000.fr,172.16.130.34,d430e47d-7435-417e-9200-ea71f45fabf5
suno-36.sophia.grid5000.fr,172.16.130.36,2331d518-1694-4338-9605-6ebf4d7a0348
suno-37.sophia.grid5000.fr,172.16.130.37,1a515137-a7f4-4fe1-b7c0-aa7bec36c87d
suno-43.sophia.grid5000.fr,172.16.130.43,499d7434-d83b-4d03-8856-f9d719f4aa0c
suno-44.sophia.grid5000.fr,172.16.130.44,6045b5fc-70b4-45db-b642-f0ca73031c5f
suno-8.sophia.grid5000.fr,172.16.130.8,313ead2f-0b5a-44ae-bf4c-fd82c64ae34b
