actor,node
23e19606-e827-4626-aba4-250fa732f367,8f39de72-9197-4f4c-9317-1f9dabffdb0a
4dde5e30-9096-48e0-a658-3a6689087918,ab2ff3e0-0fa8-4a1a-80d8-3091a2c09e2f
4dad6207-bf54-4374-a677-90b29441a7c8,ab2ff3e0-0fa8-4a1a-80d8-3091a2c09e2f
7b8999fc-2318-4d0d-82fb-017712572ef7,b505f5c6-8b5b-48c2-aadf-db0d57fc7428
79e3a52a-36c4-415f-aeba-ef094e1f4788,51414706-6796-4c34-8e03-b68c138d7584
1e391e4c-7d78-4159-a9c2-9edc036e7970,b505f5c6-8b5b-48c2-aadf-db0d57fc7428
9ab74fe8-4e5e-4b2d-85a1-f53c3972849e,d8be27e5-ea3a-4937-ba97-64869385ead4
e1ebce07-9093-4f7d-b280-42f276506789,7bda2f69-c1d5-46cc-abe2-35a59fc55ec2
5859f9e0-dd96-4c67-b46e-2b9070056a48,7bda2f69-c1d5-46cc-abe2-35a59fc55ec2
bf87dabe-8a06-47f5-83af-32307b2713e9,75aa30b9-e15e-4d0c-b144-9b7dc5fa3cbc
7f0f0c9e-042f-4974-880b-8d6006a8c76e,e95c64aa-728d-4068-9a87-60e48e053e48
e1dbda62-60f8-4975-b601-297482e22592,e95c64aa-728d-4068-9a87-60e48e053e48
64647ad3-d857-4565-914b-4daa00bb0314,4a149457-92ef-4c99-8b97-e027581653ed
771f6ee8-7e42-4d76-b66f-8e7b5056c9ea,4a149457-92ef-4c99-8b97-e027581653ed
d0695dec-d7a3-4fb5-99b9-660d8f4f06a7,6c3c2093-4d76-433b-b7a5-21eb52f2dcf9
7f03eb56-e800-42bd-b924-5f7a064e9a9f,809d2e92-98f6-4c51-b43f-deb63fc716b4
ff9d190d-5998-477f-8070-04271fcff910,243c1a81-57a7-4359-b0d8-f33714b25ec1
7310b979-9b77-40ea-ac4e-a4a4be8596aa,809d2e92-98f6-4c51-b43f-deb63fc716b4
c79f29c4-93e2-431a-aba9-4a13f4a2d73e,ca4241eb-04ef-42a4-acbb-4a7f2e2556e5
6790f2b4-f287-48a0-8b68-85541639357d,b0c818c7-705c-4218-bb5f-be127e3c2722
740489ac-1880-4a45-b9c9-6a44833c444d,ca4241eb-04ef-42a4-acbb-4a7f2e2556e5
4cbab20e-6dca-428f-8cdd-e917ef3926aa,31335cfd-5b73-4916-ae9c-2eb8822fc6ca
7c6db74d-76c3-41e2-9e80-497f8fb15c72,31335cfd-5b73-4916-ae9c-2eb8822fc6ca
297418a8-bbe7-4b8b-85cb-97da566e1b23,8af68358-1abc-4814-801b-fa0abae4cab9
35deba68-dc5a-4f28-9977-7e08c645b2f7,789f50e7-e872-4af2-9217-31796f3dc9e9
f8c44292-f027-448e-8bb0-5f646f2ea0f9,e80cfde4-b15c-4602-aeee-fcfdd534a3a3
e41a483c-8281-4aba-8421-1bcbdd9f9da8,e80cfde4-b15c-4602-aeee-fcfdd534a3a3
3696cf80-adcd-458c-8111-dc5f50433dea,61a031cc-76e8-4ce4-8830-434404372cf4
084cb523-bbfc-4c09-b38b-56fb21f401e6,0109e2e8-ec4c-44a4-8ca2-c2befa0e6bb8
032b5f18-34da-40b2-9391-e1fd87690bec,0109e2e8-ec4c-44a4-8ca2-c2befa0e6bb8
224a70ce-1327-4b8a-896c-0d80097801ab,ca25a230-105a-4898-a924-163242d7cd18
0f97763b-ad41-4746-93db-1a5e9e9ffc2e,667621ba-ee12-471a-9485-8f4930f4b010
bb04b7f8-5f42-45dc-bc77-ae7940092142,ca25a230-105a-4898-a924-163242d7cd18
8948a2d5-ac89-4a34-92f4-16e55a45e5fd,844218f7-ce8f-4230-81cb-1a7a7f0b277c
6768b73d-9a5e-4f2a-b495-2f14a16d4ea7,844218f7-ce8f-4230-81cb-1a7a7f0b277c
40aba2f8-3fe1-491e-9b60-f8b81c1a4808,c36d2a09-b7b3-44b3-9c9b-fee9e61a4817
42846391-a61a-4297-92cb-f2ac01fb7e43,fa30cc66-1126-4ce3-8d02-682ce8cc6841
887d4147-a41c-4193-a85c-ccf0ead982f7,4acb66a6-43ea-42de-b9be-50b0ca55f46e
bf58c505-72f0-4a0e-af69-ba256a4c2db8,4acb66a6-43ea-42de-b9be-50b0ca55f46e
1172db5a-613f-4a10-82b4-b70806df172d,62b3aaed-895b-4e9f-9463-a14f17d19a50
7be61d97-a464-4db6-9da6-9b68363cd3e0,7f4625e8-4a2d-4db4-8d42-d9181a16408c
64990ea4-b09a-42c7-a9fd-936593d66588,7f4625e8-4a2d-4db4-8d42-d9181a16408c
3ff6edcb-a119-49f0-bcfe-6598aefe0a1b,0b2ea7c5-d326-4e55-846e-509e1e867b4f
cc411ab8-81c9-4fdf-846a-e04c48b208c9,c2a731d1-81ea-43a5-b1ff-6e7075d709a7
ca2f02f6-18dd-4e10-9ca5-5e35e5467696,0b2ea7c5-d326-4e55-846e-509e1e867b4f
15ee2cdf-7c6f-4824-a299-2abb5c568632,ab2ff3e0-0fa8-4a1a-80d8-3091a2c09e2f
527b486d-d49b-4e9f-825e-54213b296946,ab2ff3e0-0fa8-4a1a-80d8-3091a2c09e2f
6507b180-2dbd-424d-97bb-315a2e5f310d,3f1327e2-7099-41df-871e-9aa188303e47
2c012b16-168c-4f9b-8b15-5f9660b7e27f,b505f5c6-8b5b-48c2-aadf-db0d57fc7428
5725f174-d030-4a3b-bdc4-a10f9a3dbd4f,89794e98-a2d2-4a17-a69e-3a8834dcb663
042694b7-a056-41a1-b35c-2585e1b98ead,b505f5c6-8b5b-48c2-aadf-db0d57fc7428
059793cc-4fb7-444f-b3a8-bd3ec07e417e,7bda2f69-c1d5-46cc-abe2-35a59fc55ec2
013649ba-9f3e-4df5-9ec0-69a882bafcda,7bda2f69-c1d5-46cc-abe2-35a59fc55ec2
a8f3f535-5e5d-4cd8-b51a-f6b828312a55,932e77a9-043f-4e62-81a2-2ec1b1cf055f
f5af969d-aae1-4d2d-83f3-e01113fbfbaa,1700896e-c32d-4dca-a907-2d0bad6262d3
f8029300-8bec-4764-ad54-dbd7c6cc3924,e95c64aa-728d-4068-9a87-60e48e053e48
0bf41e26-1003-49d6-aeb6-9538c350facd,e95c64aa-728d-4068-9a87-60e48e053e48
45e3f7df-0ca4-4797-9c07-76b49662910c,4a149457-92ef-4c99-8b97-e027581653ed
a2eb96bc-5104-4157-ab6f-9351260711fe,4a149457-92ef-4c99-8b97-e027581653ed
ff14aca8-8a88-4c89-ad10-5036ad347072,b8a1f417-b36a-4684-b2aa-b8fc54d6f896
fa901264-feae-432b-b2e2-385364e0fe97,809d2e92-98f6-4c51-b43f-deb63fc716b4
1f6f84f2-fc62-493a-9384-39875ab950fa,b012c8ab-da9d-458f-9c26-fdfa7d3dae96
a3d936d1-7c30-488a-8818-c9ebdd0bd57f,809d2e92-98f6-4c51-b43f-deb63fc716b4
5c6ad8c4-d194-4556-b191-ecb10d9c69db,ca4241eb-04ef-42a4-acbb-4a7f2e2556e5
ed3b3191-4363-4fcf-b856-d30659582eda,ca4241eb-04ef-42a4-acbb-4a7f2e2556e5
7d3ce98e-6f7a-41ff-acf5-c696f4f542a5,36c1a5d2-c3ad-42ef-a3eb-4f0f45226965
0c8e08d2-4994-432a-af2c-74d2d5df3f79,31335cfd-5b73-4916-ae9c-2eb8822fc6ca
6a98e965-c981-4212-995c-faf67f0a6336,4e21e77d-ab48-44a2-9281-95fcb97e307d
c0a436c1-5ffa-48f1-92d1-c8b6178ef329,31335cfd-5b73-4916-ae9c-2eb8822fc6ca
06bd8857-4f92-453d-a211-8448402e4b4e,99bbd063-625a-4e0c-bf0f-8a33dbc6edb6
e64e543b-356b-40f9-ac25-7d16bde78045,e80cfde4-b15c-4602-aeee-fcfdd534a3a3
7ac4ffbf-6719-4725-8636-87b9c7b67163,e80cfde4-b15c-4602-aeee-fcfdd534a3a3
f87766fd-a93d-4d44-8d5f-be6c2e0a0d62,0109e2e8-ec4c-44a4-8ca2-c2befa0e6bb8
dfa3b339-7b6b-4316-8b4a-7ddb985e89d8,0109e2e8-ec4c-44a4-8ca2-c2befa0e6bb8
0a52dab7-50cd-4211-90ad-9eef03508e63,e15b96b9-cd8e-4016-b492-a3e16681ea9d
9a7ec627-1a9f-4e08-a488-fe15c14bc978,d3ed0725-ba5d-41a5-8027-cb3ee259fe0a
60259b14-f722-4b63-8c74-eae00511e74c,ca25a230-105a-4898-a924-163242d7cd18
e613f312-291d-4640-89fc-710f42bfc237,ca25a230-105a-4898-a924-163242d7cd18
bc7a28ce-4d5c-4f62-90e0-b2846c122654,844218f7-ce8f-4230-81cb-1a7a7f0b277c
4227afc7-a761-4d60-a012-d11d66065e9c,62ff5298-ceb4-4728-a584-b9b100899577
5171831d-ad32-4fc2-9fea-0433b115aceb,844218f7-ce8f-4230-81cb-1a7a7f0b277c
e9a2d260-6567-498f-a980-c067c4d3d048,881e388e-0faa-4e4c-8856-c00945a9bfd6
7044de14-249a-41b6-b1a0-e90eac893b22,4acb66a6-43ea-42de-b9be-50b0ca55f46e
fc168256-fc05-4327-8751-041ab664b84f,4acb66a6-43ea-42de-b9be-50b0ca55f46e
6d0f98cd-58f7-4218-81be-1ef49002294c,7f4625e8-4a2d-4db4-8d42-d9181a16408c
0b246fde-8fd8-43c8-9639-9ba880185348,898fae29-2f21-495d-bb33-4b4315120152
91154bbc-c9e0-4dd3-b4b9-e1e7945cd3fa,7f4625e8-4a2d-4db4-8d42-d9181a16408c
e69f25a1-aba0-4c72-94e7-20930d8d6223,0b2ea7c5-d326-4e55-846e-509e1e867b4f
eccb5798-374e-4a9b-9f9c-a80a9921da2d,5c08509c-0edc-4d6f-8101-00a9515f0ac4
2f57e323-0ad1-446e-a4d8-8ab7c5d31b07,0b2ea7c5-d326-4e55-846e-509e1e867b4f
5bae3356-5584-4d0a-9171-98c30efff903,ab2ff3e0-0fa8-4a1a-80d8-3091a2c09e2f
b07aab1a-4ba1-43bd-a037-2d65b296d3c5,ab2ff3e0-0fa8-4a1a-80d8-3091a2c09e2f
3137b217-f9f2-4593-b17f-8fce4f9ab94b,72c4f5e0-3794-47b5-bbab-4787a6425684
2a638976-b6a8-44d1-8349-8696d43d6f80,b505f5c6-8b5b-48c2-aadf-db0d57fc7428
3f5843a3-976f-4f33-90d7-560cfda7318a,c05901ad-b126-4ede-b786-d7d0a2e39547
f71807a0-cdfc-488d-9806-3b0e9749db6e,b505f5c6-8b5b-48c2-aadf-db0d57fc7428
bf5d8414-f772-432d-a3d8-979755c41c19,7bda2f69-c1d5-46cc-abe2-35a59fc55ec2
220f5af5-01ed-4872-9047-54ba46ee5eed,7bda2f69-c1d5-46cc-abe2-35a59fc55ec2
6f4d9cdd-a43e-4316-b211-7dc0d2f19fed,b446b1ee-4c47-4445-a19f-9482124cd39c
1c43fc06-d1e4-480b-83ea-2f375a2dcfa6,e95c64aa-728d-4068-9a87-60e48e053e48
e92bae95-268f-4e88-9da2-76c9117b7486,e95c64aa-728d-4068-9a87-60e48e053e48
61176124-b59c-4726-9d77-732defab931f,fd2cb31a-b504-403a-9da1-1b644155d4a1
cb9dd19f-5321-4986-8adb-010580221491,2e11652c-832a-4799-af6e-8c0c7f5363c7
1ee134b8-9b2c-4a02-8f03-fbbb94c248eb,4a149457-92ef-4c99-8b97-e027581653ed
92f1923b-a0d8-412b-bc7d-496f257dd5bc,4a149457-92ef-4c99-8b97-e027581653ed
06edc29b-3a1e-4254-b17b-2b18d3520c40,809d2e92-98f6-4c51-b43f-deb63fc716b4
29df87c2-9588-494c-b41c-da2b6263bc28,c865acd1-2fae-48cd-a134-800e94f69ae2
9e7e4b62-23a7-4a45-ae4e-f8f9fec34c21,809d2e92-98f6-4c51-b43f-deb63fc716b4
d8043994-5d6c-490a-ac1e-3ea31584835f,860e87bc-8440-4731-b194-3794af64a3a8
2dd3ccf3-9f3e-46fd-8309-4cb6c1f8240d,ca4241eb-04ef-42a4-acbb-4a7f2e2556e5
a05ad2ce-64fe-4715-8e24-0b6e625c3b8c,ca4241eb-04ef-42a4-acbb-4a7f2e2556e5
51d08b56-c4de-4a8d-b20d-9298cc4ce099,31335cfd-5b73-4916-ae9c-2eb8822fc6ca
41ae9d2b-e254-4fb2-b68b-1c8e7f10c7e9,31335cfd-5b73-4916-ae9c-2eb8822fc6ca
2b9b261e-5ad3-4024-a562-c86c89275d22,bdf91fa5-ccaa-4ebd-aca5-81a4522cadb5
ee858f22-bcbf-44c4-ba2a-1ee53864353f,e80cfde4-b15c-4602-aeee-fcfdd534a3a3
77eb9003-9176-4fc0-8c11-d6892c894293,e80cfde4-b15c-4602-aeee-fcfdd534a3a3
9cc64558-b337-46b6-9b59-4a72f8448897,c8f32872-9d87-4504-9abc-542b595e2fb8
6491eec7-7db5-437c-ad65-546e6fd70d85,fa4d3d71-6971-411d-944f-4d0170ab6039
dd5116cf-26d9-4ea6-852b-f6f179be8ec1,0109e2e8-ec4c-44a4-8ca2-c2befa0e6bb8
88b14009-892e-4202-b32b-23236c2cd3b0,0109e2e8-ec4c-44a4-8ca2-c2befa0e6bb8
27c77f83-4226-4ebd-af2c-a6d96b22f282,ca25a230-105a-4898-a924-163242d7cd18
f9b7b798-e269-4837-b667-31275b80b67f,ca25a230-105a-4898-a924-163242d7cd18
03cf456a-1b88-4c07-a1e0-ad23c64e7345,dc3da010-0723-4fcc-9d30-0d5b96e06963
e9a3887b-62d3-43e0-a925-ff0f5aaf0f21,87076fc5-ebdb-45ce-9767-4f67cd355b75
fc358807-3c7d-434d-94d2-27592b740984,844218f7-ce8f-4230-81cb-1a7a7f0b277c
bd690995-9012-45ce-9452-d572c22a387f,844218f7-ce8f-4230-81cb-1a7a7f0b277c
76770449-50a4-49d3-874b-bb6bf695b0fc,4acb66a6-43ea-42de-b9be-50b0ca55f46e
05539546-a3db-4f78-b648-d6ea76dd8249,dd42dbab-8f13-4d2d-aa98-f1e69a8ea8fd
2bf2950e-a480-40a2-b5f2-daad4be3b8e5,4acb66a6-43ea-42de-b9be-50b0ca55f46e
af9dc291-e95c-4e25-97a4-c5e2ff625917,7f4625e8-4a2d-4db4-8d42-d9181a16408c
3c14b4a6-0e84-4375-a07a-2e9b1b0e7278,7f4625e8-4a2d-4db4-8d42-d9181a16408c
3e6c710e-3361-49a0-b9ed-490483339290,9c4cd83f-22d5-4ae3-87bb-587cf37a05db
d24b3257-3e5f-43fe-bc31-eb444a07f2ff,98af51ed-127a-440b-a0d4-4cd5838a093c
b3c7ef84-8d6b-45ca-9477-03a1fd5cba67,0b2ea7c5-d326-4e55-846e-509e1e867b4f
ef28397d-ed5b-42f7-9999-48b69eef58fb,0b2ea7c5-d326-4e55-846e-509e1e867b4f
77d11479-b669-4306-8f63-4df7ad23b655,ab2ff3e0-0fa8-4a1a-80d8-3091a2c09e2f
87d2d385-670a-4cdf-aaa2-2022d8c3772a,ab2ff3e0-0fa8-4a1a-80d8-3091a2c09e2f
91544a4b-7486-4196-9b6e-28735996bfcd,9a84d958-133f-4755-848e-5ed08dc550aa
b12cb976-868f-4687-ad72-d8b8ae321164,0da92107-1b25-432c-a103-ce73e6ccee78
ac163818-8da4-4d06-8db0-b0560108d8fd,b505f5c6-8b5b-48c2-aadf-db0d57fc7428
f9a5f10c-44a6-4205-a4da-af7d454ee862,b505f5c6-8b5b-48c2-aadf-db0d57fc7428
ac78f735-939f-4826-b6f3-0d1fe405eb6d,7bda2f69-c1d5-46cc-abe2-35a59fc55ec2
5089e999-6797-4ba5-b3e0-f0443b5f80d9,7bda2f69-c1d5-46cc-abe2-35a59fc55ec2
ecaf1bb3-6001-4f6f-870e-18befbeb7ea1,80052179-0cc1-469a-8d21-57350721b2bb
e5b9fbdc-ada7-4a85-aff1-8b8dd4ba10e0,602ad71e-0a1f-4faa-a331-b6e126cada26
c588d1d6-3f3f-4907-baf1-1882e93379d0,e95c64aa-728d-4068-9a87-60e48e053e48
a7a73e09-5f23-40f3-8c72-36312062a97e,e95c64aa-728d-4068-9a87-60e48e053e48
4e47e474-7ab4-4aa5-b6b0-bfd7baa2e4ea,076955a2-9b91-46b5-b853-9a22caab5175
548d2622-06b2-4d8e-8843-2005c416b76e,4a149457-92ef-4c99-8b97-e027581653ed
60d3126e-199d-47dc-9359-027ba5d8f8a9,4a149457-92ef-4c99-8b97-e027581653ed
