app_number,app_id,trigger,burn,sink,deploy_date,token_interval
1,079ce5a3-4190-41d1-a223-ba2f783e65b3,23e19606-e827-4626-aba4-250fa732f367,4dde5e30-9096-48e0-a658-3a6689087918,4dad6207-bf54-4374-a677-90b29441a7c8,2019-12-11 01:42:04,2.000000
2,d3ba3f3f-5d1c-4a8f-ae66-032480935182,79e3a52a-36c4-415f-aeba-ef094e1f4788,1e391e4c-7d78-4159-a9c2-9edc036e7970,7b8999fc-2318-4d0d-82fb-017712572ef7,2019-12-11 01:43:07,2.000000
3,548d78a0-b7db-4b2b-961d-4ab17a74bd0c,9ab74fe8-4e5e-4b2d-85a1-f53c3972849e,5859f9e0-dd96-4c67-b46e-2b9070056a48,e1ebce07-9093-4f7d-b280-42f276506789,2019-12-11 01:44:09,2.000000
4,e2d6634e-e7d5-48ba-b823-d1581a24da18,bf87dabe-8a06-47f5-83af-32307b2713e9,e1dbda62-60f8-4975-b601-297482e22592,7f0f0c9e-042f-4974-880b-8d6006a8c76e,2019-12-11 01:45:12,1.000000
5,2af7e3d9-f514-4532-a153-c23386ce7f08,d0695dec-d7a3-4fb5-99b9-660d8f4f06a7,64647ad3-d857-4565-914b-4daa00bb0314,771f6ee8-7e42-4d76-b66f-8e7b5056c9ea,2019-12-11 01:46:15,1.000000
6,1864c79a-c11f-4d40-8fb3-95f4802bf22b,ff9d190d-5998-477f-8070-04271fcff910,7310b979-9b77-40ea-ac4e-a4a4be8596aa,7f03eb56-e800-42bd-b924-5f7a064e9a9f,2019-12-11 01:47:18,1.000000
7,7bc3a085-e331-4bca-8337-765a5919c19e,6790f2b4-f287-48a0-8b68-85541639357d,740489ac-1880-4a45-b9c9-6a44833c444d,c79f29c4-93e2-431a-aba9-4a13f4a2d73e,2019-12-11 01:48:21,1.000000
8,b3c23ab2-1030-4b97-ad2f-27783e249a43,297418a8-bbe7-4b8b-85cb-97da566e1b23,4cbab20e-6dca-428f-8cdd-e917ef3926aa,7c6db74d-76c3-41e2-9e80-497f8fb15c72,2019-12-11 01:49:24,2.000000
9,9bc087db-12e2-47cc-9158-c22ed5505dec,35deba68-dc5a-4f28-9977-7e08c645b2f7,e41a483c-8281-4aba-8421-1bcbdd9f9da8,f8c44292-f027-448e-8bb0-5f646f2ea0f9,2019-12-11 01:50:27,1.000000
10,748649b1-fd27-447e-8316-6971e0adaa55,3696cf80-adcd-458c-8111-dc5f50433dea,084cb523-bbfc-4c09-b38b-56fb21f401e6,032b5f18-34da-40b2-9391-e1fd87690bec,2019-12-11 01:51:30,1.000000
11,8abe5fd5-7f25-40f6-9005-fbc86ab61a31,0f97763b-ad41-4746-93db-1a5e9e9ffc2e,bb04b7f8-5f42-45dc-bc77-ae7940092142,224a70ce-1327-4b8a-896c-0d80097801ab,2019-12-11 01:52:33,1.000000
12,9731af8c-d515-4abf-a1fa-e1dadf2b3ef9,40aba2f8-3fe1-491e-9b60-f8b81c1a4808,8948a2d5-ac89-4a34-92f4-16e55a45e5fd,6768b73d-9a5e-4f2a-b495-2f14a16d4ea7,2019-12-11 01:53:36,2.000000
13,63d83d2f-1c51-44d6-a53d-5844dad13456,42846391-a61a-4297-92cb-f2ac01fb7e43,887d4147-a41c-4193-a85c-ccf0ead982f7,bf58c505-72f0-4a0e-af69-ba256a4c2db8,2019-12-11 01:54:38,1.000000
14,e50b1887-bf4e-4ef0-a489-58600b83cc26,1172db5a-613f-4a10-82b4-b70806df172d,64990ea4-b09a-42c7-a9fd-936593d66588,7be61d97-a464-4db6-9da6-9b68363cd3e0,2019-12-11 01:55:41,1.000000
15,ef58e46f-bb56-441c-9b19-1c67cf13c967,cc411ab8-81c9-4fdf-846a-e04c48b208c9,ca2f02f6-18dd-4e10-9ca5-5e35e5467696,3ff6edcb-a119-49f0-bcfe-6598aefe0a1b,2019-12-11 01:56:44,2.000000
16,e62b3110-258a-4ce4-9dd7-3add14bbbc2b,6507b180-2dbd-424d-97bb-315a2e5f310d,15ee2cdf-7c6f-4824-a299-2abb5c568632,527b486d-d49b-4e9f-825e-54213b296946,2019-12-11 01:57:47,2.000000
17,6e810e44-d2c0-4712-a057-63aee539cfec,5725f174-d030-4a3b-bdc4-a10f9a3dbd4f,042694b7-a056-41a1-b35c-2585e1b98ead,2c012b16-168c-4f9b-8b15-5f9660b7e27f,2019-12-11 01:58:50,1.000000
18,2bce2a21-9667-4f39-a5c9-b4fa0c3c035c,a8f3f535-5e5d-4cd8-b51a-f6b828312a55,013649ba-9f3e-4df5-9ec0-69a882bafcda,059793cc-4fb7-444f-b3a8-bd3ec07e417e,2019-12-11 01:59:53,2.000000
19,fa01fa8f-1ab5-4db5-8be4-b4d58d383100,f5af969d-aae1-4d2d-83f3-e01113fbfbaa,0bf41e26-1003-49d6-aeb6-9538c350facd,f8029300-8bec-4764-ad54-dbd7c6cc3924,2019-12-11 02:00:56,1.000000
20,91d9866e-5da7-418a-8e24-8f1c2e8b2e14,ff14aca8-8a88-4c89-ad10-5036ad347072,a2eb96bc-5104-4157-ab6f-9351260711fe,45e3f7df-0ca4-4797-9c07-76b49662910c,2019-12-11 02:01:58,2.000000
21,0a52bef4-90bc-43ae-9cee-b8ae117f7f96,1f6f84f2-fc62-493a-9384-39875ab950fa,a3d936d1-7c30-488a-8818-c9ebdd0bd57f,fa901264-feae-432b-b2e2-385364e0fe97,2019-12-11 02:03:01,1.000000
22,842178a3-19f4-4e1e-a832-f0e5568d1f7e,7d3ce98e-6f7a-41ff-acf5-c696f4f542a5,5c6ad8c4-d194-4556-b191-ecb10d9c69db,ed3b3191-4363-4fcf-b856-d30659582eda,2019-12-11 02:04:04,1.000000
23,54ab9129-e78e-49ec-8229-20c5904ac0dc,6a98e965-c981-4212-995c-faf67f0a6336,0c8e08d2-4994-432a-af2c-74d2d5df3f79,c0a436c1-5ffa-48f1-92d1-c8b6178ef329,2019-12-11 02:05:07,1.000000
24,2adfcf49-95c9-46ad-b65e-eb7a0570da77,06bd8857-4f92-453d-a211-8448402e4b4e,e64e543b-356b-40f9-ac25-7d16bde78045,7ac4ffbf-6719-4725-8636-87b9c7b67163,2019-12-11 02:06:10,2.000000
25,e82271d3-3010-4bcc-b7a1-0b82113b89b7,0a52dab7-50cd-4211-90ad-9eef03508e63,f87766fd-a93d-4d44-8d5f-be6c2e0a0d62,dfa3b339-7b6b-4316-8b4a-7ddb985e89d8,2019-12-11 02:07:13,2.000000
26,d267454c-4671-4525-8d5d-e161531c1262,9a7ec627-1a9f-4e08-a488-fe15c14bc978,60259b14-f722-4b63-8c74-eae00511e74c,e613f312-291d-4640-89fc-710f42bfc237,2019-12-11 02:08:15,2.000000
27,5d537a6c-2d75-453a-a8a1-392ab5cf198d,4227afc7-a761-4d60-a012-d11d66065e9c,bc7a28ce-4d5c-4f62-90e0-b2846c122654,5171831d-ad32-4fc2-9fea-0433b115aceb,2019-12-11 02:09:18,1.000000
28,2648f785-d883-460e-92de-e9e9aeb34ff6,e9a2d260-6567-498f-a980-c067c4d3d048,7044de14-249a-41b6-b1a0-e90eac893b22,fc168256-fc05-4327-8751-041ab664b84f,2019-12-11 02:10:20,2.000000
29,b3cf43c7-39f7-4d3b-8046-bd9a70533be3,0b246fde-8fd8-43c8-9639-9ba880185348,91154bbc-c9e0-4dd3-b4b9-e1e7945cd3fa,6d0f98cd-58f7-4218-81be-1ef49002294c,2019-12-11 02:11:23,2.000000
30,19e64a45-2dbc-4f5c-8950-f9bf2420c418,eccb5798-374e-4a9b-9f9c-a80a9921da2d,2f57e323-0ad1-446e-a4d8-8ab7c5d31b07,e69f25a1-aba0-4c72-94e7-20930d8d6223,2019-12-11 02:12:26,2.000000
31,0570028a-3456-4ca9-9858-dd49a44ee5fb,3137b217-f9f2-4593-b17f-8fce4f9ab94b,b07aab1a-4ba1-43bd-a037-2d65b296d3c5,5bae3356-5584-4d0a-9171-98c30efff903,2019-12-11 02:13:29,2.000000
32,90718f70-b26a-433d-b9f6-1ded48abaa8d,3f5843a3-976f-4f33-90d7-560cfda7318a,f71807a0-cdfc-488d-9806-3b0e9749db6e,2a638976-b6a8-44d1-8349-8696d43d6f80,2019-12-11 02:14:32,1.000000
33,d403e14c-5626-4933-be8d-be4dbc77e86e,6f4d9cdd-a43e-4316-b211-7dc0d2f19fed,220f5af5-01ed-4872-9047-54ba46ee5eed,bf5d8414-f772-432d-a3d8-979755c41c19,2019-12-11 02:15:35,2.000000
34,4243caf0-e419-4601-a0e3-8e7439a21866,61176124-b59c-4726-9d77-732defab931f,e92bae95-268f-4e88-9da2-76c9117b7486,1c43fc06-d1e4-480b-83ea-2f375a2dcfa6,2019-12-11 02:16:37,1.000000
35,c7e45417-9f3e-41f7-8c9c-e057e7beeb7e,cb9dd19f-5321-4986-8adb-010580221491,92f1923b-a0d8-412b-bc7d-496f257dd5bc,1ee134b8-9b2c-4a02-8f03-fbbb94c248eb,2019-12-11 02:17:40,2.000000
36,7e29844a-e5c2-475d-b081-da7e4dac7ee5,29df87c2-9588-494c-b41c-da2b6263bc28,06edc29b-3a1e-4254-b17b-2b18d3520c40,9e7e4b62-23a7-4a45-ae4e-f8f9fec34c21,2019-12-11 02:18:43,1.000000
37,36dbb4ba-05db-424e-a668-258459e285a6,d8043994-5d6c-490a-ac1e-3ea31584835f,2dd3ccf3-9f3e-46fd-8309-4cb6c1f8240d,a05ad2ce-64fe-4715-8e24-0b6e625c3b8c,2019-12-11 02:19:46,2.000000
38,5ba2b847-17f7-4bbb-add8-edd80e096903,2b9b261e-5ad3-4024-a562-c86c89275d22,41ae9d2b-e254-4fb2-b68b-1c8e7f10c7e9,51d08b56-c4de-4a8d-b20d-9298cc4ce099,2019-12-11 02:20:49,2.000000
39,9a63d596-cbcf-4e2a-b4cc-f3252e976e75,9cc64558-b337-46b6-9b59-4a72f8448897,ee858f22-bcbf-44c4-ba2a-1ee53864353f,77eb9003-9176-4fc0-8c11-d6892c894293,2019-12-11 02:21:52,1.000000
40,c5c1410c-b7c5-4161-8f23-f1ae1ad46c27,6491eec7-7db5-437c-ad65-546e6fd70d85,dd5116cf-26d9-4ea6-852b-f6f179be8ec1,88b14009-892e-4202-b32b-23236c2cd3b0,2019-12-11 02:22:55,1.000000
41,35b75363-b3fc-443b-a752-30ed8bef9b5a,03cf456a-1b88-4c07-a1e0-ad23c64e7345,f9b7b798-e269-4837-b667-31275b80b67f,27c77f83-4226-4ebd-af2c-a6d96b22f282,2019-12-11 02:23:58,2.000000
42,5450a9c6-1a33-4ceb-81b2-a18a56f713bb,e9a3887b-62d3-43e0-a925-ff0f5aaf0f21,fc358807-3c7d-434d-94d2-27592b740984,bd690995-9012-45ce-9452-d572c22a387f,2019-12-11 02:25:01,1.000000
43,b45f5a44-7797-4f3f-a452-8eea120538b8,05539546-a3db-4f78-b648-d6ea76dd8249,76770449-50a4-49d3-874b-bb6bf695b0fc,2bf2950e-a480-40a2-b5f2-daad4be3b8e5,2019-12-11 02:26:03,1.000000
44,0a91001e-6ea9-4c21-a7e3-c2dab31d07f3,3e6c710e-3361-49a0-b9ed-490483339290,af9dc291-e95c-4e25-97a4-c5e2ff625917,3c14b4a6-0e84-4375-a07a-2e9b1b0e7278,2019-12-11 02:27:06,1.000000
45,0365d73a-619f-40ba-9df0-927c9611b56e,d24b3257-3e5f-43fe-bc31-eb444a07f2ff,b3c7ef84-8d6b-45ca-9477-03a1fd5cba67,ef28397d-ed5b-42f7-9999-48b69eef58fb,2019-12-11 02:28:09,2.000000
46,41958cf7-8c56-4acb-9582-d5840350cad7,91544a4b-7486-4196-9b6e-28735996bfcd,77d11479-b669-4306-8f63-4df7ad23b655,87d2d385-670a-4cdf-aaa2-2022d8c3772a,2019-12-11 02:29:11,1.000000
47,180e9cdd-6802-4c79-b0e0-77635c43ee89,b12cb976-868f-4687-ad72-d8b8ae321164,f9a5f10c-44a6-4205-a4da-af7d454ee862,ac163818-8da4-4d06-8db0-b0560108d8fd,2019-12-11 02:30:14,1.000000
48,7a2f98ad-13ee-4ec6-be98-bf0d84008ae8,ecaf1bb3-6001-4f6f-870e-18befbeb7ea1,5089e999-6797-4ba5-b3e0-f0443b5f80d9,ac78f735-939f-4826-b6f3-0d1fe405eb6d,2019-12-11 02:31:17,2.000000
49,306757c8-180f-4192-9484-a57734266579,e5b9fbdc-ada7-4a85-aff1-8b8dd4ba10e0,c588d1d6-3f3f-4907-baf1-1882e93379d0,a7a73e09-5f23-40f3-8c72-36312062a97e,2019-12-11 02:32:20,1.000000
50,7457a37f-32a6-43f3-b891-0e871fe89b15,4e47e474-7ab4-4aa5-b6b0-bfd7baa2e4ea,548d2622-06b2-4d8e-8843-2005c416b76e,60d3126e-199d-47dc-9359-027ba5d8f8a9,2019-12-11 02:33:23,2.000000
