date,actor,success,from,to
2019-07-20 22:26:24,d97faa62-22de-4044-b7f5-2a42b42b7c82,1,ce96ffef-901a-4384-921a-87012f85a9d5,82a889d3-22ac-40f4-8b2d-2a896537bad4
2019-07-20 22:26:24,60968dcd-45d0-4845-bc95-af9f423fc7ff,1,ce96ffef-901a-4384-921a-87012f85a9d5,82a889d3-22ac-40f4-8b2d-2a896537bad4
2019-07-20 22:27:49,dda2f67b-a7de-4e50-9625-9227ae297d49,1,ce96ffef-901a-4384-921a-87012f85a9d5,afecf20b-5c1e-4f05-b46f-7adcc3c0ae9b
2019-07-20 22:27:49,2523a2ee-98dd-4d92-aa29-d50a59c9ab00,1,ce96ffef-901a-4384-921a-87012f85a9d5,afecf20b-5c1e-4f05-b46f-7adcc3c0ae9b
2019-07-20 22:29:25,3776f2b0-1e78-4a16-b05d-32280e3dc1da,1,ce96ffef-901a-4384-921a-87012f85a9d5,30d2d5bc-1286-4d67-84bd-450b4457e5ee
2019-07-20 22:29:25,6607a3cd-ecc8-4ca3-9436-ce87df9660f5,1,ce96ffef-901a-4384-921a-87012f85a9d5,30d2d5bc-1286-4d67-84bd-450b4457e5ee
2019-07-20 22:35:20,814b4dfa-e476-4b31-81cb-dffa1fa8e125,1,ce96ffef-901a-4384-921a-87012f85a9d5,cf5e66a5-091c-462b-a5ac-c4fa85da0a30
2019-07-20 22:35:20,44da6ec3-e633-4313-b2d0-a2b6b6b5433c,1,ce96ffef-901a-4384-921a-87012f85a9d5,cf5e66a5-091c-462b-a5ac-c4fa85da0a30
2019-07-20 22:47:36,d97faa62-22de-4044-b7f5-2a42b42b7c82,1,ce96ffef-901a-4384-921a-87012f85a9d5,baca5b53-639c-4f64-91b5-c165fabe49c3
2019-07-20 22:47:37,60968dcd-45d0-4845-bc95-af9f423fc7ff,1,ce96ffef-901a-4384-921a-87012f85a9d5,baca5b53-639c-4f64-91b5-c165fabe49c3
2019-07-20 22:47:56,39b61913-eea0-4c66-8886-3ea855c10375,1,ce96ffef-901a-4384-921a-87012f85a9d5,d840282c-003d-4193-be5f-175e012cd6d1
2019-07-20 22:47:56,84b05212-3367-44bb-82e7-69db9100acca,1,ce96ffef-901a-4384-921a-87012f85a9d5,d840282c-003d-4193-be5f-175e012cd6d1
2019-07-20 23:37:43,39b61913-eea0-4c66-8886-3ea855c10375,1,ce96ffef-901a-4384-921a-87012f85a9d5,6c08d55d-ddcb-401d-83ea-042652b1eb23
2019-07-20 23:40:08,691351e6-c871-41c1-8654-0f9ad7f39814,1,ce96ffef-901a-4384-921a-87012f85a9d5,32d5f924-10c6-4198-ae0b-f76d6ef4a284
2019-07-20 23:40:08,097284ce-a27a-47a0-b1be-bb45f4f21a1c,1,ce96ffef-901a-4384-921a-87012f85a9d5,ce96ffef-901a-4384-921a-87012f85a9d5
2019-07-20 22:33:40,417cf525-b979-4357-8b15-431dbe2523e6,1,30f8548e-cf60-476a-a9b7-14a4ba2ae1c2,30d2d5bc-1286-4d67-84bd-450b4457e5ee
2019-07-20 22:33:40,8c41072a-dab0-4be9-9a39-5fd785a642a9,1,30f8548e-cf60-476a-a9b7-14a4ba2ae1c2,30d2d5bc-1286-4d67-84bd-450b4457e5ee
2019-07-20 22:38:35,d4c99be6-8608-4650-b5e1-03b5f71863a6,1,30f8548e-cf60-476a-a9b7-14a4ba2ae1c2,d840282c-003d-4193-be5f-175e012cd6d1
2019-07-20 22:38:36,b517d5bd-5e3e-4c6f-9ec0-00adbbe31850,1,30f8548e-cf60-476a-a9b7-14a4ba2ae1c2,d840282c-003d-4193-be5f-175e012cd6d1
2019-07-20 22:38:50,3a4aca7a-5489-4d95-a41d-369a13064ec5,1,30f8548e-cf60-476a-a9b7-14a4ba2ae1c2,ce96ffef-901a-4384-921a-87012f85a9d5
2019-07-20 22:38:51,738db443-8812-413f-875a-f26e46047118,1,30f8548e-cf60-476a-a9b7-14a4ba2ae1c2,ce96ffef-901a-4384-921a-87012f85a9d5
2019-07-20 22:54:51,3d3416d0-709e-4b5e-9dee-0932651c620b,1,30f8548e-cf60-476a-a9b7-14a4ba2ae1c2,32d5f924-10c6-4198-ae0b-f76d6ef4a284
2019-07-20 22:54:51,016b1b4b-082b-4cad-9ba4-ad9446a35288,1,30f8548e-cf60-476a-a9b7-14a4ba2ae1c2,32d5f924-10c6-4198-ae0b-f76d6ef4a284
2019-07-20 23:07:37,39b61913-eea0-4c66-8886-3ea855c10375,1,30f8548e-cf60-476a-a9b7-14a4ba2ae1c2,d840282c-003d-4193-be5f-175e012cd6d1
2019-07-20 23:07:37,84b05212-3367-44bb-82e7-69db9100acca,1,30f8548e-cf60-476a-a9b7-14a4ba2ae1c2,d840282c-003d-4193-be5f-175e012cd6d1
2019-07-20 23:37:08,1e0c5ef3-7677-4201-aa6e-35f4c9bc350f,1,30f8548e-cf60-476a-a9b7-14a4ba2ae1c2,30f8548e-cf60-476a-a9b7-14a4ba2ae1c2
2019-07-20 23:37:08,5a176ddb-c9f5-4bf8-b4a7-7b3040aa7a5c,1,30f8548e-cf60-476a-a9b7-14a4ba2ae1c2,cf5e66a5-091c-462b-a5ac-c4fa85da0a30
2019-07-20 23:37:18,1e0c5ef3-7677-4201-aa6e-35f4c9bc350f,1,30f8548e-cf60-476a-a9b7-14a4ba2ae1c2,30f8548e-cf60-476a-a9b7-14a4ba2ae1c2
2019-07-20 23:37:23,39b61913-eea0-4c66-8886-3ea855c10375,1,30f8548e-cf60-476a-a9b7-14a4ba2ae1c2,6c08d55d-ddcb-401d-83ea-042652b1eb23
2019-07-20 23:37:33,84b05212-3367-44bb-82e7-69db9100acca,1,30f8548e-cf60-476a-a9b7-14a4ba2ae1c2,6c08d55d-ddcb-401d-83ea-042652b1eb23
2019-07-20 23:45:18,ff2ca6c7-b983-47fc-a918-2172fee8725f,1,30f8548e-cf60-476a-a9b7-14a4ba2ae1c2,d840282c-003d-4193-be5f-175e012cd6d1
2019-07-20 23:45:19,430db2f6-3b31-47da-a871-88a730d35a5a,1,30f8548e-cf60-476a-a9b7-14a4ba2ae1c2,d840282c-003d-4193-be5f-175e012cd6d1
2019-07-20 21:39:05,472d4c3d-5ff3-4593-9378-db9c77482b61,1,63a82b02-fa1e-4329-8c64-0194370b5e21,6bb4bb80-d33b-49bf-98ad-7e15e4a3988a
2019-07-20 21:39:05,8a395cc8-391c-4b86-ba74-d0534b5be58a,1,63a82b02-fa1e-4329-8c64-0194370b5e21,30f8548e-cf60-476a-a9b7-14a4ba2ae1c2
2019-07-20 21:39:05,d0b8a989-887b-488e-85f9-e33dd7607844,1,63a82b02-fa1e-4329-8c64-0194370b5e21,ce96ffef-901a-4384-921a-87012f85a9d5
2019-07-20 21:40:08,bc94cdee-64a1-4b34-a565-c49501d28f65,1,63a82b02-fa1e-4329-8c64-0194370b5e21,b997f916-30cf-4351-a90b-028c4fd04a32
2019-07-20 21:40:08,bb90f6e0-b9eb-4f3a-9763-725abd102b3c,1,63a82b02-fa1e-4329-8c64-0194370b5e21,6c08d55d-ddcb-401d-83ea-042652b1eb23
2019-07-20 21:40:08,bf2b705f-6040-48f3-a86f-db67bd8e219e,1,63a82b02-fa1e-4329-8c64-0194370b5e21,ce96ffef-901a-4384-921a-87012f85a9d5
2019-07-20 21:41:12,a3026e0f-af80-4db0-a924-b2d154ff26de,1,63a82b02-fa1e-4329-8c64-0194370b5e21,abf5e1b0-7e5b-4816-a37d-ce6ec1a52d62
2019-07-20 21:41:12,b483928e-a301-4706-b7ed-10bd12b4ed4d,1,63a82b02-fa1e-4329-8c64-0194370b5e21,30f8548e-cf60-476a-a9b7-14a4ba2ae1c2
2019-07-20 21:41:12,19f2d7b9-3450-4663-be7f-5aca82104ca1,1,63a82b02-fa1e-4329-8c64-0194370b5e21,30f8548e-cf60-476a-a9b7-14a4ba2ae1c2
2019-07-20 21:42:16,1e0c5ef3-7677-4201-aa6e-35f4c9bc350f,1,63a82b02-fa1e-4329-8c64-0194370b5e21,30d2d5bc-1286-4d67-84bd-450b4457e5ee
2019-07-20 21:42:16,99a771d1-fc18-4e0c-8311-4dd169a9d7ee,1,63a82b02-fa1e-4329-8c64-0194370b5e21,a50a834b-4849-43a7-98b8-53f0bbbc3d81
2019-07-20 21:42:16,5a176ddb-c9f5-4bf8-b4a7-7b3040aa7a5c,1,63a82b02-fa1e-4329-8c64-0194370b5e21,baca5b53-639c-4f64-91b5-c165fabe49c3
2019-07-20 21:43:20,215596fc-6bc2-42e4-94dc-160de9c9a0b6,1,63a82b02-fa1e-4329-8c64-0194370b5e21,23f2a238-02d4-44e5-a742-294750558ab4
2019-07-20 21:43:20,d4c99be6-8608-4650-b5e1-03b5f71863a6,1,63a82b02-fa1e-4329-8c64-0194370b5e21,d840282c-003d-4193-be5f-175e012cd6d1
2019-07-20 21:43:20,b517d5bd-5e3e-4c6f-9ec0-00adbbe31850,1,63a82b02-fa1e-4329-8c64-0194370b5e21,b64e7026-20cc-46d6-9b9e-d18192656391
2019-07-20 21:44:24,08a7a626-5ee6-4b0f-a22e-4898df94ee0f,1,63a82b02-fa1e-4329-8c64-0194370b5e21,d840282c-003d-4193-be5f-175e012cd6d1
2019-07-20 21:44:24,ba6f8409-c051-45db-be5b-d2f35ab79122,1,63a82b02-fa1e-4329-8c64-0194370b5e21,59587e11-3ed1-48ac-81b3-81c1825afdb3
2019-07-20 21:44:24,713ab3be-ff75-4041-91fb-8d493a8059c0,1,63a82b02-fa1e-4329-8c64-0194370b5e21,babc1bc4-ea3a-4fbf-ba7b-22860380b305
2019-07-20 21:45:28,87974faf-a6c0-46cd-965e-1d47f32566a1,1,63a82b02-fa1e-4329-8c64-0194370b5e21,6c08d55d-ddcb-401d-83ea-042652b1eb23
2019-07-20 21:45:28,965931ee-0c28-4278-90ff-e20e9480536c,1,63a82b02-fa1e-4329-8c64-0194370b5e21,ee4cc8a1-98a1-4684-bd8b-5d6344065945
2019-07-20 21:45:28,b1748291-955b-4db1-be11-527dd3f4dd38,1,63a82b02-fa1e-4329-8c64-0194370b5e21,6c08d55d-ddcb-401d-83ea-042652b1eb23
2019-07-20 21:46:32,ba1e0bee-2761-4f70-9f96-38781b7c7db6,1,63a82b02-fa1e-4329-8c64-0194370b5e21,32d5f924-10c6-4198-ae0b-f76d6ef4a284
2019-07-20 21:46:32,deb4af95-a0f2-4a17-ab5a-5c73916c3faf,1,63a82b02-fa1e-4329-8c64-0194370b5e21,83e0268f-4f6c-4407-9beb-402c88577a69
2019-07-20 21:46:32,046d9bb7-eed8-43e5-8e6d-050385d356ae,1,63a82b02-fa1e-4329-8c64-0194370b5e21,82a889d3-22ac-40f4-8b2d-2a896537bad4
2019-07-20 21:47:35,dda2f67b-a7de-4e50-9625-9227ae297d49,1,63a82b02-fa1e-4329-8c64-0194370b5e21,bcabeb85-a736-447f-8eb3-6ca0588e10a8
2019-07-20 21:47:35,4e2dd5a2-12b5-4d0e-818a-becd76ec6cae,1,63a82b02-fa1e-4329-8c64-0194370b5e21,18f2a74c-debe-4e4e-9f3b-c80502cd39b1
2019-07-20 21:47:35,2523a2ee-98dd-4d92-aa29-d50a59c9ab00,1,63a82b02-fa1e-4329-8c64-0194370b5e21,bcabeb85-a736-447f-8eb3-6ca0588e10a8
2019-07-20 21:48:39,c01db000-1a07-47c2-8739-2670c95d5c6b,1,63a82b02-fa1e-4329-8c64-0194370b5e21,a5f51636-28ee-4c09-8349-8b3259b6d0ba
2019-07-20 21:48:39,a1c17184-7edb-4ebd-bed3-d9578bb1c2d2,1,63a82b02-fa1e-4329-8c64-0194370b5e21,62791ea5-793c-4e0c-8d0d-ba8a3cd708a4
2019-07-20 21:48:39,25d5394d-eeb4-4741-8f37-141637329c9f,1,63a82b02-fa1e-4329-8c64-0194370b5e21,d840282c-003d-4193-be5f-175e012cd6d1
2019-07-20 21:49:43,8f209176-8199-47a6-84b0-a1183e9b129f,1,63a82b02-fa1e-4329-8c64-0194370b5e21,d840282c-003d-4193-be5f-175e012cd6d1
2019-07-20 21:49:43,e26f3704-c398-4343-99c7-2267a676dd63,1,63a82b02-fa1e-4329-8c64-0194370b5e21,b4ed2950-41bb-4072-96be-41f3462eeb83
2019-07-20 21:49:43,edeb8d77-d4e0-452f-8ab0-151d9507c797,1,63a82b02-fa1e-4329-8c64-0194370b5e21,d840282c-003d-4193-be5f-175e012cd6d1
2019-07-20 21:50:47,0f674fa3-4914-4d78-9ccd-c6ef41075317,1,63a82b02-fa1e-4329-8c64-0194370b5e21,38b7f7a2-0b10-48af-ada5-8a7afa675837
2019-07-20 21:50:47,450730f0-737a-451b-a783-dfbbc79ff296,1,63a82b02-fa1e-4329-8c64-0194370b5e21,bcabeb85-a736-447f-8eb3-6ca0588e10a8
2019-07-20 21:50:47,d00ad635-62fc-433a-87e5-afac5e007502,1,63a82b02-fa1e-4329-8c64-0194370b5e21,bcabeb85-a736-447f-8eb3-6ca0588e10a8
2019-07-20 21:51:51,1b3588e7-c115-4b0e-a3f8-130049693474,1,63a82b02-fa1e-4329-8c64-0194370b5e21,ff555b6f-ddec-4a20-863c-17fe853da037
2019-07-20 21:51:51,4e96b575-aeb4-4bdf-9b27-462d7bf25129,1,63a82b02-fa1e-4329-8c64-0194370b5e21,cf5e66a5-091c-462b-a5ac-c4fa85da0a30
2019-07-20 21:51:51,33f83f6f-3195-4d5d-976b-9e3d95a2fda4,1,63a82b02-fa1e-4329-8c64-0194370b5e21,cf5e66a5-091c-462b-a5ac-c4fa85da0a30
2019-07-20 21:52:55,461063b9-62f4-4e15-961a-2199b5b95b7e,1,63a82b02-fa1e-4329-8c64-0194370b5e21,6c08d55d-ddcb-401d-83ea-042652b1eb23
2019-07-20 21:52:55,f39104dc-2461-4e45-8c6a-983a5f198f71,1,63a82b02-fa1e-4329-8c64-0194370b5e21,96a02e4d-d2a4-4326-8354-598ef354a6da
2019-07-20 21:52:55,b20392e1-7763-46c6-a56f-124237e2c904,1,63a82b02-fa1e-4329-8c64-0194370b5e21,650df1d3-7edb-4fcc-a866-4d40cb23501f
2019-07-20 21:53:59,afeed0e3-97c5-4075-b67e-2ac45a348a33,1,63a82b02-fa1e-4329-8c64-0194370b5e21,afecf20b-5c1e-4f05-b46f-7adcc3c0ae9b
2019-07-20 21:53:59,81212167-1886-4447-a93d-407a237b3563,1,63a82b02-fa1e-4329-8c64-0194370b5e21,97e93ccf-b1d7-4a9d-9e6e-2397ebb8db81
2019-07-20 21:53:59,bc57553d-c2d3-464c-b30d-88eaa9d1d224,1,63a82b02-fa1e-4329-8c64-0194370b5e21,afecf20b-5c1e-4f05-b46f-7adcc3c0ae9b
2019-07-20 21:55:03,e534d762-deb2-4570-958f-26aa67526c1c,1,63a82b02-fa1e-4329-8c64-0194370b5e21,7c72cb3d-f685-45fb-aedc-e013bab4f3b3
2019-07-20 21:55:03,1531b5fa-30ab-46bc-99ca-2be5c7867837,1,63a82b02-fa1e-4329-8c64-0194370b5e21,baca5b53-639c-4f64-91b5-c165fabe49c3
2019-07-20 21:55:03,bfb2ac33-dba8-48fa-b5e8-cbc11d17171b,1,63a82b02-fa1e-4329-8c64-0194370b5e21,baca5b53-639c-4f64-91b5-c165fabe49c3
2019-07-20 21:56:07,738db443-8812-413f-875a-f26e46047118,1,63a82b02-fa1e-4329-8c64-0194370b5e21,baca5b53-639c-4f64-91b5-c165fabe49c3
2019-07-20 21:56:07,da65c165-6f57-4365-a6be-d5e85e3fdbef,1,63a82b02-fa1e-4329-8c64-0194370b5e21,a905fc78-3379-4906-b276-f0cd6da6f4e6
2019-07-20 21:56:07,3a4aca7a-5489-4d95-a41d-369a13064ec5,1,63a82b02-fa1e-4329-8c64-0194370b5e21,baca5b53-639c-4f64-91b5-c165fabe49c3
2019-07-20 21:57:11,35c511f2-454a-4ed6-9d9b-5c3ce1186d62,1,63a82b02-fa1e-4329-8c64-0194370b5e21,6c08d55d-ddcb-401d-83ea-042652b1eb23
2019-07-20 21:57:11,74401d22-0d12-473f-9eee-bd483073b0a5,1,63a82b02-fa1e-4329-8c64-0194370b5e21,bcabeb85-a736-447f-8eb3-6ca0588e10a8
2019-07-20 21:57:11,460eefa3-659d-4727-aefd-b7c34fb5b3cc,1,63a82b02-fa1e-4329-8c64-0194370b5e21,5b4809fd-05c9-44a8-8e1d-e9a9477ac5ef
2019-07-20 21:58:14,907b4ba6-b57b-4dee-b8d4-95321a399293,1,63a82b02-fa1e-4329-8c64-0194370b5e21,afecf20b-5c1e-4f05-b46f-7adcc3c0ae9b
2019-07-20 21:58:14,f3e2cf7d-b5ac-47f1-83d6-b4d49b4e0995,1,63a82b02-fa1e-4329-8c64-0194370b5e21,9ef96fac-67b2-4812-b434-6df56cf27701
2019-07-20 21:58:14,a42f94c9-0f36-489c-bc94-53abe6f20c76,1,63a82b02-fa1e-4329-8c64-0194370b5e21,afecf20b-5c1e-4f05-b46f-7adcc3c0ae9b
2019-07-20 21:59:18,af112622-f451-42ef-b237-45b0e481d7c2,1,63a82b02-fa1e-4329-8c64-0194370b5e21,30f8548e-cf60-476a-a9b7-14a4ba2ae1c2
2019-07-20 21:59:18,15ce6383-1be2-4f72-bc16-a38d50bebae4,1,63a82b02-fa1e-4329-8c64-0194370b5e21,eaf2d11c-28c1-4dcd-8b4d-4e9c7dd81009
2019-07-20 21:59:18,c5cdd62e-c01c-41c2-94d6-08c51c894402,1,63a82b02-fa1e-4329-8c64-0194370b5e21,30f8548e-cf60-476a-a9b7-14a4ba2ae1c2
2019-07-20 22:00:22,1354a6ef-9572-451f-ad4d-88353d25a4ca,1,63a82b02-fa1e-4329-8c64-0194370b5e21,32d5f924-10c6-4198-ae0b-f76d6ef4a284
2019-07-20 22:00:22,61143f6b-a52e-476d-8bb1-5324512e1730,1,63a82b02-fa1e-4329-8c64-0194370b5e21,78459ac6-a50a-4666-929d-da713b766c33
2019-07-20 22:00:22,dc72ae98-e704-4399-8bf2-e9e476d1b4bc,1,63a82b02-fa1e-4329-8c64-0194370b5e21,babc1bc4-ea3a-4fbf-ba7b-22860380b305
2019-07-20 22:01:26,3d3416d0-709e-4b5e-9dee-0932651c620b,1,63a82b02-fa1e-4329-8c64-0194370b5e21,bcabeb85-a736-447f-8eb3-6ca0588e10a8
2019-07-20 22:01:26,016b1b4b-082b-4cad-9ba4-ad9446a35288,1,63a82b02-fa1e-4329-8c64-0194370b5e21,bcabeb85-a736-447f-8eb3-6ca0588e10a8
2019-07-20 22:01:26,37f822e2-4284-4133-a0ac-f3bfb79ee287,1,63a82b02-fa1e-4329-8c64-0194370b5e21,e6b29ff3-a913-40b9-a006-a6af873b0ed9
2019-07-20 22:02:29,a0415b52-584b-4aef-bbda-4d17488e7cf1,1,63a82b02-fa1e-4329-8c64-0194370b5e21,bcabeb85-a736-447f-8eb3-6ca0588e10a8
2019-07-20 22:02:29,4b6c0ccf-68a4-4a0c-922f-7384feff1a5b,1,63a82b02-fa1e-4329-8c64-0194370b5e21,69d20fd6-f1a4-4a0c-a07b-ccd6b78c1459
2019-07-20 22:02:29,5b9d18e7-58e2-402f-b567-0f2c6cbf35d3,1,63a82b02-fa1e-4329-8c64-0194370b5e21,bcabeb85-a736-447f-8eb3-6ca0588e10a8
2019-07-20 22:03:33,6c902fa2-484a-4850-b326-7776ad523421,1,63a82b02-fa1e-4329-8c64-0194370b5e21,46a1473b-c914-4d18-823e-95fc1e759daf
2019-07-20 22:03:33,80a79370-e402-478f-864a-3ec2c009dc31,1,63a82b02-fa1e-4329-8c64-0194370b5e21,b64e7026-20cc-46d6-9b9e-d18192656391
2019-07-20 22:03:33,97a99132-b366-4f5d-a342-e4eaadc7f1b0,1,63a82b02-fa1e-4329-8c64-0194370b5e21,32d5f924-10c6-4198-ae0b-f76d6ef4a284
2019-07-20 22:04:37,27cd6603-718e-47df-b1bd-754c23c96e9a,1,63a82b02-fa1e-4329-8c64-0194370b5e21,96a02e4d-d2a4-4326-8354-598ef354a6da
2019-07-20 22:04:37,a91abb3d-b23e-4f5a-922f-b2541fdb2c45,1,63a82b02-fa1e-4329-8c64-0194370b5e21,96a02e4d-d2a4-4326-8354-598ef354a6da
2019-07-20 22:04:37,c9065f3b-1ac2-4eb7-9bbf-7221774ba422,1,63a82b02-fa1e-4329-8c64-0194370b5e21,fc0fbc42-b9e6-4c49-b5d3-e08520451916
2019-07-20 22:05:41,6c1d7aba-a1b4-43ee-b7ec-ad23acdec0aa,1,63a82b02-fa1e-4329-8c64-0194370b5e21,32d5f924-10c6-4198-ae0b-f76d6ef4a284
2019-07-20 22:05:41,e3a72610-8b86-40e9-817f-f1c85b7cd7c5,1,63a82b02-fa1e-4329-8c64-0194370b5e21,f8d0f1bf-a335-4d99-b529-8a23a12977a1
2019-07-20 22:05:41,e09e115a-f468-4915-9e37-875e7a714f40,1,63a82b02-fa1e-4329-8c64-0194370b5e21,32d5f924-10c6-4198-ae0b-f76d6ef4a284
2019-07-20 22:06:45,814b4dfa-e476-4b31-81cb-dffa1fa8e125,1,63a82b02-fa1e-4329-8c64-0194370b5e21,ce96ffef-901a-4384-921a-87012f85a9d5
2019-07-20 22:06:45,2cfd86cf-2e2d-4167-b229-b8e3cd11c580,1,63a82b02-fa1e-4329-8c64-0194370b5e21,b85059ef-bd08-47c7-ad44-b7e31a4e0f4e
2019-07-20 22:06:45,44da6ec3-e633-4313-b2d0-a2b6b6b5433c,1,63a82b02-fa1e-4329-8c64-0194370b5e21,ce96ffef-901a-4384-921a-87012f85a9d5
2019-07-20 22:07:48,5fa445c1-9b24-43ce-ae5b-71b555f79381,1,63a82b02-fa1e-4329-8c64-0194370b5e21,59a1e202-985c-4ee7-aa2c-01e4845e1171
2019-07-20 22:07:48,37facf77-73ec-46ef-ab83-475d417980a8,1,63a82b02-fa1e-4329-8c64-0194370b5e21,bcabeb85-a736-447f-8eb3-6ca0588e10a8
2019-07-20 22:07:48,4182e622-9d76-4759-9ac5-78d9828200a9,1,63a82b02-fa1e-4329-8c64-0194370b5e21,bcabeb85-a736-447f-8eb3-6ca0588e10a8
2019-07-20 22:08:52,a25ff0f7-2deb-4719-92d0-288d3f635e72,1,63a82b02-fa1e-4329-8c64-0194370b5e21,b8641801-9d0f-4f21-9e9b-97ea11f30115
2019-07-20 22:08:52,fbba51fc-3e3e-4a71-aa0a-85aaded17e52,1,63a82b02-fa1e-4329-8c64-0194370b5e21,32d5f924-10c6-4198-ae0b-f76d6ef4a284
2019-07-20 22:08:52,37eb682e-c55d-405e-b853-711553af5a09,1,63a82b02-fa1e-4329-8c64-0194370b5e21,ce96ffef-901a-4384-921a-87012f85a9d5
2019-07-20 22:09:56,0ad9372e-40eb-4b7d-91c8-e18fa6541088,1,63a82b02-fa1e-4329-8c64-0194370b5e21,30d2d5bc-1286-4d67-84bd-450b4457e5ee
2019-07-20 22:09:56,6446c15e-9a3a-44d6-9bd7-a306402b5fef,1,63a82b02-fa1e-4329-8c64-0194370b5e21,30d2d5bc-1286-4d67-84bd-450b4457e5ee
2019-07-20 22:09:56,b9c31aab-bf58-4bac-b22c-2e497ad00367,1,63a82b02-fa1e-4329-8c64-0194370b5e21,346abda8-6aa2-4ddb-b878-edd65adc631d
2019-07-20 22:11:00,b9a68d2c-a559-4e1d-818a-9028ac890d00,1,63a82b02-fa1e-4329-8c64-0194370b5e21,62791ea5-793c-4e0c-8d0d-ba8a3cd708a4
2019-07-20 22:11:00,01cb8740-fb96-4562-870a-b40facb4fa19,1,63a82b02-fa1e-4329-8c64-0194370b5e21,c4356b98-37db-4195-bd6a-a1424efe30a2
2019-07-20 22:11:00,112079a1-307a-4676-954b-7c942989329e,1,63a82b02-fa1e-4329-8c64-0194370b5e21,62791ea5-793c-4e0c-8d0d-ba8a3cd708a4
2019-07-20 22:12:04,425a1612-64b3-4377-97b5-fb72f40ab12f,1,63a82b02-fa1e-4329-8c64-0194370b5e21,82a889d3-22ac-40f4-8b2d-2a896537bad4
2019-07-20 22:12:04,fb3bc2c8-4104-40a6-8d3a-149afa892f76,1,63a82b02-fa1e-4329-8c64-0194370b5e21,82a889d3-22ac-40f4-8b2d-2a896537bad4
2019-07-20 22:12:04,515955ca-1cad-479b-b8a1-d6f87da8913b,1,63a82b02-fa1e-4329-8c64-0194370b5e21,0c9af223-5da7-4346-a5e5-9b418f35e343
2019-07-20 22:13:08,0c676a82-5a80-4789-8587-60c5da22bfae,1,63a82b02-fa1e-4329-8c64-0194370b5e21,32d5f924-10c6-4198-ae0b-f76d6ef4a284
2019-07-20 22:13:08,95779592-7ae0-4ac0-8dcd-c7fe0e590c3e,1,63a82b02-fa1e-4329-8c64-0194370b5e21,32d5f924-10c6-4198-ae0b-f76d6ef4a284
2019-07-20 22:13:08,0745ab1a-4430-4ede-8f06-f55655df5233,1,63a82b02-fa1e-4329-8c64-0194370b5e21,359d291b-5265-4d87-9ec2-0c981743bfa0
2019-07-20 22:14:11,450b3eb4-39a7-4058-b32f-2912ad990bf3,1,63a82b02-fa1e-4329-8c64-0194370b5e21,a39809c5-3594-4e57-a5e7-efa4038f5f0b
2019-07-20 22:14:11,39b61913-eea0-4c66-8886-3ea855c10375,1,63a82b02-fa1e-4329-8c64-0194370b5e21,32d5f924-10c6-4198-ae0b-f76d6ef4a284
2019-07-20 22:14:11,84b05212-3367-44bb-82e7-69db9100acca,1,63a82b02-fa1e-4329-8c64-0194370b5e21,32d5f924-10c6-4198-ae0b-f76d6ef4a284
2019-07-20 22:15:15,ef4c86f7-0c7a-4e7d-acc1-6f0c5e00e130,1,63a82b02-fa1e-4329-8c64-0194370b5e21,22c2b2c8-153a-4232-9112-e76adebefaa1
2019-07-20 22:15:15,3b669280-6c1e-4073-9a0f-043d35e52cbb,1,63a82b02-fa1e-4329-8c64-0194370b5e21,32d5f924-10c6-4198-ae0b-f76d6ef4a284
2019-07-20 22:15:15,00c2354b-b89e-48ca-934f-ccebb56a6488,1,63a82b02-fa1e-4329-8c64-0194370b5e21,32d5f924-10c6-4198-ae0b-f76d6ef4a284
2019-07-20 22:16:18,5ac2d69a-0dbd-4c31-a021-3bc113e891e9,1,63a82b02-fa1e-4329-8c64-0194370b5e21,871c8334-4039-4465-b729-1119befdcb26
2019-07-20 22:16:18,417cf525-b979-4357-8b15-431dbe2523e6,1,63a82b02-fa1e-4329-8c64-0194370b5e21,30f8548e-cf60-476a-a9b7-14a4ba2ae1c2
2019-07-20 22:16:18,8c41072a-dab0-4be9-9a39-5fd785a642a9,1,63a82b02-fa1e-4329-8c64-0194370b5e21,30f8548e-cf60-476a-a9b7-14a4ba2ae1c2
2019-07-20 22:17:22,b1a13920-904a-4fc5-ab33-c402d02526ee,1,63a82b02-fa1e-4329-8c64-0194370b5e21,5acfcf4e-0aac-4567-9ab1-a845522bb0bb
2019-07-20 22:17:22,d5b1cdb5-39f3-40f3-a3be-a8617d467a9c,1,63a82b02-fa1e-4329-8c64-0194370b5e21,30f8548e-cf60-476a-a9b7-14a4ba2ae1c2
2019-07-20 22:17:22,8651ce07-af16-4f33-b449-9d11ab790000,1,63a82b02-fa1e-4329-8c64-0194370b5e21,30f8548e-cf60-476a-a9b7-14a4ba2ae1c2
2019-07-20 22:18:26,10beb36b-cca3-42a4-a4fa-a66d17c75a48,1,63a82b02-fa1e-4329-8c64-0194370b5e21,afecf20b-5c1e-4f05-b46f-7adcc3c0ae9b
2019-07-20 22:18:26,81eeb67a-4186-47dc-aa86-c59201c33f6e,1,63a82b02-fa1e-4329-8c64-0194370b5e21,afecf20b-5c1e-4f05-b46f-7adcc3c0ae9b
2019-07-20 22:18:26,83b12f06-c898-4684-991d-00cf18284181,1,63a82b02-fa1e-4329-8c64-0194370b5e21,3c7bc767-e1bf-4bb3-a5ee-cf57c9ffbe12
2019-07-20 22:19:29,fcc978f3-3a63-443f-a417-44a248dc6d79,1,63a82b02-fa1e-4329-8c64-0194370b5e21,afecf20b-5c1e-4f05-b46f-7adcc3c0ae9b
2019-07-20 22:19:29,c91b8a2b-b88f-4102-b3ee-b580251a1b26,1,63a82b02-fa1e-4329-8c64-0194370b5e21,afecf20b-5c1e-4f05-b46f-7adcc3c0ae9b
2019-07-20 22:19:29,2a132566-a3a3-4c8e-9222-5de5499a8afd,1,63a82b02-fa1e-4329-8c64-0194370b5e21,3e7c86ae-87dc-4fdb-acfd-d7b6ef00c98f
2019-07-20 22:20:33,f1c21729-dcbb-437f-88ed-84ce0a6f2e2e,1,63a82b02-fa1e-4329-8c64-0194370b5e21,5c33b7ef-f3f4-4ab1-85fb-a634a4ac96d8
2019-07-20 22:20:33,691351e6-c871-41c1-8654-0f9ad7f39814,1,63a82b02-fa1e-4329-8c64-0194370b5e21,babc1bc4-ea3a-4fbf-ba7b-22860380b305
2019-07-20 22:20:33,097284ce-a27a-47a0-b1be-bb45f4f21a1c,1,63a82b02-fa1e-4329-8c64-0194370b5e21,babc1bc4-ea3a-4fbf-ba7b-22860380b305
2019-07-20 22:21:37,d6286700-c479-4d18-a13b-cdb89e13d6c1,1,63a82b02-fa1e-4329-8c64-0194370b5e21,babc1bc4-ea3a-4fbf-ba7b-22860380b305
2019-07-20 22:21:37,4ae137ae-fda1-4279-9ed3-8c819c938248,1,63a82b02-fa1e-4329-8c64-0194370b5e21,bb1a229f-164d-4872-ab00-91de57264552
2019-07-20 22:21:37,49dd008e-b1b5-4aaa-b927-07d35c72459e,1,63a82b02-fa1e-4329-8c64-0194370b5e21,babc1bc4-ea3a-4fbf-ba7b-22860380b305
2019-07-20 22:22:41,3776f2b0-1e78-4a16-b05d-32280e3dc1da,1,63a82b02-fa1e-4329-8c64-0194370b5e21,30d2d5bc-1286-4d67-84bd-450b4457e5ee
2019-07-20 22:22:41,ebdeef90-0323-483c-b988-ef67f0342967,1,63a82b02-fa1e-4329-8c64-0194370b5e21,5edb7ee8-6544-4453-b00a-80ee1553c096
2019-07-20 22:22:41,6607a3cd-ecc8-4ca3-9436-ce87df9660f5,1,63a82b02-fa1e-4329-8c64-0194370b5e21,30d2d5bc-1286-4d67-84bd-450b4457e5ee
2019-07-20 22:23:44,d97faa62-22de-4044-b7f5-2a42b42b7c82,1,63a82b02-fa1e-4329-8c64-0194370b5e21,ce96ffef-901a-4384-921a-87012f85a9d5
2019-07-20 22:23:44,f28bf1f8-b8c7-46d7-8024-b6659b024de7,1,63a82b02-fa1e-4329-8c64-0194370b5e21,736ca8b3-bbfb-44ef-9a3d-8cac56aada22
2019-07-20 22:23:44,60968dcd-45d0-4845-bc95-af9f423fc7ff,1,63a82b02-fa1e-4329-8c64-0194370b5e21,ce96ffef-901a-4384-921a-87012f85a9d5
2019-07-20 22:24:48,d75386d8-b4aa-45ab-95ca-779cbab9b1c6,1,63a82b02-fa1e-4329-8c64-0194370b5e21,0039d546-45ae-4847-9c8b-31507405dc27
2019-07-20 22:24:48,5da2a781-e6e6-475a-9a80-fb2005d7a466,1,63a82b02-fa1e-4329-8c64-0194370b5e21,82a889d3-22ac-40f4-8b2d-2a896537bad4
2019-07-20 22:24:48,4013c2dd-8c10-470d-8085-da2c731167fc,1,63a82b02-fa1e-4329-8c64-0194370b5e21,82a889d3-22ac-40f4-8b2d-2a896537bad4
2019-07-20 22:25:52,9a59882a-24c4-45b0-8cf9-8b5ce4f8bf2f,1,63a82b02-fa1e-4329-8c64-0194370b5e21,82a889d3-22ac-40f4-8b2d-2a896537bad4
2019-07-20 22:25:52,dfc2858b-0d7d-47ba-934f-2f4353bf2288,1,63a82b02-fa1e-4329-8c64-0194370b5e21,3f2351ee-7512-4b3a-a400-8702fc1422f6
2019-07-20 22:25:52,d65bb338-f988-4480-afb9-f47900aed4d3,1,63a82b02-fa1e-4329-8c64-0194370b5e21,82a889d3-22ac-40f4-8b2d-2a896537bad4
2019-07-20 22:26:56,cdaa0da6-b836-4454-beaf-fb15845cba9f,1,63a82b02-fa1e-4329-8c64-0194370b5e21,1fdc52ea-026b-46c5-ac87-6085ac010972
2019-07-20 22:26:56,ff2ca6c7-b983-47fc-a918-2172fee8725f,1,63a82b02-fa1e-4329-8c64-0194370b5e21,baca5b53-639c-4f64-91b5-c165fabe49c3
2019-07-20 22:26:56,430db2f6-3b31-47da-a871-88a730d35a5a,1,63a82b02-fa1e-4329-8c64-0194370b5e21,baca5b53-639c-4f64-91b5-c165fabe49c3
2019-07-20 22:28:00,0a124935-203d-41f5-afec-519ea4b19eef,1,63a82b02-fa1e-4329-8c64-0194370b5e21,30d2d5bc-1286-4d67-84bd-450b4457e5ee
2019-07-20 22:28:00,bb0ed2e8-438a-4686-84a2-c2f91929cf54,1,63a82b02-fa1e-4329-8c64-0194370b5e21,c123bcbc-ba7c-4b0e-824e-d778e6a74a2f
2019-07-20 22:28:00,036b6699-e389-4460-93d8-6b58175eb63f,1,63a82b02-fa1e-4329-8c64-0194370b5e21,30d2d5bc-1286-4d67-84bd-450b4457e5ee
2019-07-20 22:29:04,59213203-8872-40c6-be99-b2d851faeb6c,1,63a82b02-fa1e-4329-8c64-0194370b5e21,ce96ffef-901a-4384-921a-87012f85a9d5
2019-07-20 22:29:04,0a50dd21-9b9c-4147-8139-83ed44f1947e,1,63a82b02-fa1e-4329-8c64-0194370b5e21,ce96ffef-901a-4384-921a-87012f85a9d5
2019-07-20 22:29:04,00925e0e-91e3-4bd1-9aec-0f89c3942eb9,1,63a82b02-fa1e-4329-8c64-0194370b5e21,89119f80-202d-475a-9a04-b42857157502
2019-07-20 22:30:07,c1eb163f-aec6-4e1b-bb21-2509d8a6a5d8,1,63a82b02-fa1e-4329-8c64-0194370b5e21,5c4ac6e5-8651-4c21-b0fd-b6b24c11e451
2019-07-20 22:30:07,62e19573-e183-42c8-941d-fc678c2025c5,1,63a82b02-fa1e-4329-8c64-0194370b5e21,b64e7026-20cc-46d6-9b9e-d18192656391
2019-07-20 22:30:07,cb51434d-aecd-470f-be8b-e527a9b70325,1,63a82b02-fa1e-4329-8c64-0194370b5e21,30d2d5bc-1286-4d67-84bd-450b4457e5ee
2019-07-20 22:31:12,d01aad62-82bb-493d-8ed3-58322b1bea13,1,63a82b02-fa1e-4329-8c64-0194370b5e21,96a02e4d-d2a4-4326-8354-598ef354a6da
2019-07-20 22:31:12,cd7af6b6-c8bf-4e40-a22c-757f21b3a825,1,63a82b02-fa1e-4329-8c64-0194370b5e21,784b689e-dbcc-4372-9dac-fae818505db6
2019-07-20 22:31:12,476941ef-c140-45dd-b3c8-9e276d478a6b,1,63a82b02-fa1e-4329-8c64-0194370b5e21,96a02e4d-d2a4-4326-8354-598ef354a6da
2019-07-20 22:30:55,d97faa62-22de-4044-b7f5-2a42b42b7c82,1,b64e7026-20cc-46d6-9b9e-d18192656391,ce96ffef-901a-4384-921a-87012f85a9d5
2019-07-20 22:30:55,60968dcd-45d0-4845-bc95-af9f423fc7ff,1,b64e7026-20cc-46d6-9b9e-d18192656391,ce96ffef-901a-4384-921a-87012f85a9d5
2019-07-20 22:31:45,3a4aca7a-5489-4d95-a41d-369a13064ec5,1,b64e7026-20cc-46d6-9b9e-d18192656391,30f8548e-cf60-476a-a9b7-14a4ba2ae1c2
2019-07-20 22:31:45,738db443-8812-413f-875a-f26e46047118,1,b64e7026-20cc-46d6-9b9e-d18192656391,30f8548e-cf60-476a-a9b7-14a4ba2ae1c2
2019-07-20 22:31:50,b517d5bd-5e3e-4c6f-9ec0-00adbbe31850,1,b64e7026-20cc-46d6-9b9e-d18192656391,30f8548e-cf60-476a-a9b7-14a4ba2ae1c2
2019-07-20 22:39:00,dda2f67b-a7de-4e50-9625-9227ae297d49,1,b64e7026-20cc-46d6-9b9e-d18192656391,babc1bc4-ea3a-4fbf-ba7b-22860380b305
2019-07-20 22:39:00,2523a2ee-98dd-4d92-aa29-d50a59c9ab00,1,b64e7026-20cc-46d6-9b9e-d18192656391,babc1bc4-ea3a-4fbf-ba7b-22860380b305
2019-07-20 22:44:06,62e19573-e183-42c8-941d-fc678c2025c5,1,b64e7026-20cc-46d6-9b9e-d18192656391,baca5b53-639c-4f64-91b5-c165fabe49c3
2019-07-20 23:18:57,d4c99be6-8608-4650-b5e1-03b5f71863a6,1,b64e7026-20cc-46d6-9b9e-d18192656391,babc1bc4-ea3a-4fbf-ba7b-22860380b305
2019-07-20 23:18:58,b517d5bd-5e3e-4c6f-9ec0-00adbbe31850,1,b64e7026-20cc-46d6-9b9e-d18192656391,babc1bc4-ea3a-4fbf-ba7b-22860380b305
2019-07-20 23:23:32,417cf525-b979-4357-8b15-431dbe2523e6,1,b64e7026-20cc-46d6-9b9e-d18192656391,d840282c-003d-4193-be5f-175e012cd6d1
2019-07-20 23:23:33,8c41072a-dab0-4be9-9a39-5fd785a642a9,1,b64e7026-20cc-46d6-9b9e-d18192656391,d840282c-003d-4193-be5f-175e012cd6d1
2019-07-20 23:26:03,08a7a626-5ee6-4b0f-a22e-4898df94ee0f,1,b64e7026-20cc-46d6-9b9e-d18192656391,baca5b53-639c-4f64-91b5-c165fabe49c3
2019-07-20 23:26:03,713ab3be-ff75-4041-91fb-8d493a8059c0,1,b64e7026-20cc-46d6-9b9e-d18192656391,baca5b53-639c-4f64-91b5-c165fabe49c3
2019-07-20 23:29:23,08a7a626-5ee6-4b0f-a22e-4898df94ee0f,1,b64e7026-20cc-46d6-9b9e-d18192656391,babc1bc4-ea3a-4fbf-ba7b-22860380b305
2019-07-20 23:29:24,713ab3be-ff75-4041-91fb-8d493a8059c0,1,b64e7026-20cc-46d6-9b9e-d18192656391,babc1bc4-ea3a-4fbf-ba7b-22860380b305
2019-07-20 23:29:38,5da2a781-e6e6-475a-9a80-fb2005d7a466,1,b64e7026-20cc-46d6-9b9e-d18192656391,82a889d3-22ac-40f4-8b2d-2a896537bad4
2019-07-20 23:29:38,4013c2dd-8c10-470d-8085-da2c731167fc,1,b64e7026-20cc-46d6-9b9e-d18192656391,82a889d3-22ac-40f4-8b2d-2a896537bad4
2019-07-20 23:35:53,1e0c5ef3-7677-4201-aa6e-35f4c9bc350f,1,b64e7026-20cc-46d6-9b9e-d18192656391,afecf20b-5c1e-4f05-b46f-7adcc3c0ae9b
2019-07-20 23:35:53,5a176ddb-c9f5-4bf8-b4a7-7b3040aa7a5c,1,b64e7026-20cc-46d6-9b9e-d18192656391,afecf20b-5c1e-4f05-b46f-7adcc3c0ae9b
2019-07-20 22:33:10,39b61913-eea0-4c66-8886-3ea855c10375,1,62791ea5-793c-4e0c-8d0d-ba8a3cd708a4,30d2d5bc-1286-4d67-84bd-450b4457e5ee
2019-07-20 22:33:10,84b05212-3367-44bb-82e7-69db9100acca,1,62791ea5-793c-4e0c-8d0d-ba8a3cd708a4,30d2d5bc-1286-4d67-84bd-450b4457e5ee
2019-07-20 22:37:45,a1c17184-7edb-4ebd-bed3-d9578bb1c2d2,1,62791ea5-793c-4e0c-8d0d-ba8a3cd708a4,bcabeb85-a736-447f-8eb3-6ca0588e10a8
2019-07-20 22:55:46,1354a6ef-9572-451f-ad4d-88353d25a4ca,1,62791ea5-793c-4e0c-8d0d-ba8a3cd708a4,cf5e66a5-091c-462b-a5ac-c4fa85da0a30
2019-07-20 22:56:11,417cf525-b979-4357-8b15-431dbe2523e6,1,62791ea5-793c-4e0c-8d0d-ba8a3cd708a4,cf5e66a5-091c-462b-a5ac-c4fa85da0a30
2019-07-20 23:19:43,dc72ae98-e704-4399-8bf2-e9e476d1b4bc,1,62791ea5-793c-4e0c-8d0d-ba8a3cd708a4,b64e7026-20cc-46d6-9b9e-d18192656391
2019-07-20 23:29:53,691351e6-c871-41c1-8654-0f9ad7f39814,1,62791ea5-793c-4e0c-8d0d-ba8a3cd708a4,32d5f924-10c6-4198-ae0b-f76d6ef4a284
2019-07-20 23:29:53,097284ce-a27a-47a0-b1be-bb45f4f21a1c,1,62791ea5-793c-4e0c-8d0d-ba8a3cd708a4,32d5f924-10c6-4198-ae0b-f76d6ef4a284
2019-07-20 23:36:08,39b61913-eea0-4c66-8886-3ea855c10375,1,62791ea5-793c-4e0c-8d0d-ba8a3cd708a4,30f8548e-cf60-476a-a9b7-14a4ba2ae1c2
2019-07-20 23:36:08,84b05212-3367-44bb-82e7-69db9100acca,1,62791ea5-793c-4e0c-8d0d-ba8a3cd708a4,62791ea5-793c-4e0c-8d0d-ba8a3cd708a4
2019-07-20 23:36:33,5a176ddb-c9f5-4bf8-b4a7-7b3040aa7a5c,1,62791ea5-793c-4e0c-8d0d-ba8a3cd708a4,afecf20b-5c1e-4f05-b46f-7adcc3c0ae9b
2019-07-20 23:36:58,1e0c5ef3-7677-4201-aa6e-35f4c9bc350f,1,62791ea5-793c-4e0c-8d0d-ba8a3cd708a4,30f8548e-cf60-476a-a9b7-14a4ba2ae1c2
2019-07-20 23:37:23,84b05212-3367-44bb-82e7-69db9100acca,1,62791ea5-793c-4e0c-8d0d-ba8a3cd708a4,30f8548e-cf60-476a-a9b7-14a4ba2ae1c2
2019-07-20 22:12:06,dc72ae98-e704-4399-8bf2-e9e476d1b4bc,1,babc1bc4-ea3a-4fbf-ba7b-22860380b305,82a889d3-22ac-40f4-8b2d-2a896537bad4
2019-07-20 22:22:13,713ab3be-ff75-4041-91fb-8d493a8059c0,1,babc1bc4-ea3a-4fbf-ba7b-22860380b305,baca5b53-639c-4f64-91b5-c165fabe49c3
2019-07-20 22:31:20,691351e6-c871-41c1-8654-0f9ad7f39814,1,babc1bc4-ea3a-4fbf-ba7b-22860380b305,6c08d55d-ddcb-401d-83ea-042652b1eb23
2019-07-20 22:31:20,097284ce-a27a-47a0-b1be-bb45f4f21a1c,1,babc1bc4-ea3a-4fbf-ba7b-22860380b305,6c08d55d-ddcb-401d-83ea-042652b1eb23
2019-07-20 22:35:25,1354a6ef-9572-451f-ad4d-88353d25a4ca,1,babc1bc4-ea3a-4fbf-ba7b-22860380b305,cf5e66a5-091c-462b-a5ac-c4fa85da0a30
2019-07-20 22:35:25,dc72ae98-e704-4399-8bf2-e9e476d1b4bc,1,babc1bc4-ea3a-4fbf-ba7b-22860380b305,cf5e66a5-091c-462b-a5ac-c4fa85da0a30
2019-07-20 22:39:15,dda2f67b-a7de-4e50-9625-9227ae297d49,1,babc1bc4-ea3a-4fbf-ba7b-22860380b305,32d5f924-10c6-4198-ae0b-f76d6ef4a284
2019-07-20 22:39:15,2523a2ee-98dd-4d92-aa29-d50a59c9ab00,1,babc1bc4-ea3a-4fbf-ba7b-22860380b305,32d5f924-10c6-4198-ae0b-f76d6ef4a284
2019-07-20 22:43:01,417cf525-b979-4357-8b15-431dbe2523e6,1,babc1bc4-ea3a-4fbf-ba7b-22860380b305,cf5e66a5-091c-462b-a5ac-c4fa85da0a30
2019-07-20 22:43:01,8c41072a-dab0-4be9-9a39-5fd785a642a9,1,babc1bc4-ea3a-4fbf-ba7b-22860380b305,cf5e66a5-091c-462b-a5ac-c4fa85da0a30
2019-07-20 23:06:06,a1c17184-7edb-4ebd-bed3-d9578bb1c2d2,1,babc1bc4-ea3a-4fbf-ba7b-22860380b305,bcabeb85-a736-447f-8eb3-6ca0588e10a8
2019-07-20 23:06:06,25d5394d-eeb4-4741-8f37-141637329c9f,1,babc1bc4-ea3a-4fbf-ba7b-22860380b305,bcabeb85-a736-447f-8eb3-6ca0588e10a8
2019-07-20 23:06:21,d4c99be6-8608-4650-b5e1-03b5f71863a6,1,babc1bc4-ea3a-4fbf-ba7b-22860380b305,d840282c-003d-4193-be5f-175e012cd6d1
2019-07-20 23:06:22,b517d5bd-5e3e-4c6f-9ec0-00adbbe31850,1,babc1bc4-ea3a-4fbf-ba7b-22860380b305,d840282c-003d-4193-be5f-175e012cd6d1
2019-07-20 23:16:58,5da2a781-e6e6-475a-9a80-fb2005d7a466,1,babc1bc4-ea3a-4fbf-ba7b-22860380b305,b64e7026-20cc-46d6-9b9e-d18192656391
2019-07-20 23:16:58,4013c2dd-8c10-470d-8085-da2c731167fc,1,babc1bc4-ea3a-4fbf-ba7b-22860380b305,b64e7026-20cc-46d6-9b9e-d18192656391
2019-07-20 23:21:18,08a7a626-5ee6-4b0f-a22e-4898df94ee0f,1,babc1bc4-ea3a-4fbf-ba7b-22860380b305,cf5e66a5-091c-462b-a5ac-c4fa85da0a30
2019-07-20 23:29:48,08a7a626-5ee6-4b0f-a22e-4898df94ee0f,1,babc1bc4-ea3a-4fbf-ba7b-22860380b305,d840282c-003d-4193-be5f-175e012cd6d1
2019-07-20 23:29:48,713ab3be-ff75-4041-91fb-8d493a8059c0,1,babc1bc4-ea3a-4fbf-ba7b-22860380b305,d840282c-003d-4193-be5f-175e012cd6d1
2019-07-20 23:35:58,39b61913-eea0-4c66-8886-3ea855c10375,1,babc1bc4-ea3a-4fbf-ba7b-22860380b305,62791ea5-793c-4e0c-8d0d-ba8a3cd708a4
2019-07-20 23:35:58,84b05212-3367-44bb-82e7-69db9100acca,1,babc1bc4-ea3a-4fbf-ba7b-22860380b305,62791ea5-793c-4e0c-8d0d-ba8a3cd708a4
2019-07-20 23:41:38,3d3416d0-709e-4b5e-9dee-0932651c620b,1,babc1bc4-ea3a-4fbf-ba7b-22860380b305,96a02e4d-d2a4-4326-8354-598ef354a6da
2019-07-20 23:41:38,016b1b4b-082b-4cad-9ba4-ad9446a35288,1,babc1bc4-ea3a-4fbf-ba7b-22860380b305,96a02e4d-d2a4-4326-8354-598ef354a6da
2019-07-20 23:43:38,d4c99be6-8608-4650-b5e1-03b5f71863a6,1,babc1bc4-ea3a-4fbf-ba7b-22860380b305,30d2d5bc-1286-4d67-84bd-450b4457e5ee
2019-07-20 23:43:38,b517d5bd-5e3e-4c6f-9ec0-00adbbe31850,1,babc1bc4-ea3a-4fbf-ba7b-22860380b305,30d2d5bc-1286-4d67-84bd-450b4457e5ee
2019-07-20 22:15:07,dda2f67b-a7de-4e50-9625-9227ae297d49,1,bcabeb85-a736-447f-8eb3-6ca0588e10a8,6c08d55d-ddcb-401d-83ea-042652b1eb23
2019-07-20 22:15:07,2523a2ee-98dd-4d92-aa29-d50a59c9ab00,1,bcabeb85-a736-447f-8eb3-6ca0588e10a8,6c08d55d-ddcb-401d-83ea-042652b1eb23
2019-07-20 22:15:22,3d3416d0-709e-4b5e-9dee-0932651c620b,1,bcabeb85-a736-447f-8eb3-6ca0588e10a8,32d5f924-10c6-4198-ae0b-f76d6ef4a284
2019-07-20 22:15:22,016b1b4b-082b-4cad-9ba4-ad9446a35288,1,bcabeb85-a736-447f-8eb3-6ca0588e10a8,32d5f924-10c6-4198-ae0b-f76d6ef4a284
2019-07-20 22:38:15,a0415b52-584b-4aef-bbda-4d17488e7cf1,1,bcabeb85-a736-447f-8eb3-6ca0588e10a8,6c08d55d-ddcb-401d-83ea-042652b1eb23
2019-07-20 22:38:15,5b9d18e7-58e2-402f-b567-0f2c6cbf35d3,1,bcabeb85-a736-447f-8eb3-6ca0588e10a8,6c08d55d-ddcb-401d-83ea-042652b1eb23
2019-07-20 22:54:36,1354a6ef-9572-451f-ad4d-88353d25a4ca,1,bcabeb85-a736-447f-8eb3-6ca0588e10a8,32d5f924-10c6-4198-ae0b-f76d6ef4a284
2019-07-20 23:03:52,39b61913-eea0-4c66-8886-3ea855c10375,1,bcabeb85-a736-447f-8eb3-6ca0588e10a8,30d2d5bc-1286-4d67-84bd-450b4457e5ee
2019-07-20 23:03:52,84b05212-3367-44bb-82e7-69db9100acca,1,bcabeb85-a736-447f-8eb3-6ca0588e10a8,30d2d5bc-1286-4d67-84bd-450b4457e5ee
2019-07-20 23:04:07,a1c17184-7edb-4ebd-bed3-d9578bb1c2d2,1,bcabeb85-a736-447f-8eb3-6ca0588e10a8,babc1bc4-ea3a-4fbf-ba7b-22860380b305
2019-07-20 23:04:07,25d5394d-eeb4-4741-8f37-141637329c9f,1,bcabeb85-a736-447f-8eb3-6ca0588e10a8,babc1bc4-ea3a-4fbf-ba7b-22860380b305
2019-07-20 23:34:33,691351e6-c871-41c1-8654-0f9ad7f39814,1,bcabeb85-a736-447f-8eb3-6ca0588e10a8,30d2d5bc-1286-4d67-84bd-450b4457e5ee
2019-07-20 23:34:34,097284ce-a27a-47a0-b1be-bb45f4f21a1c,1,bcabeb85-a736-447f-8eb3-6ca0588e10a8,30d2d5bc-1286-4d67-84bd-450b4457e5ee
2019-07-20 22:39:45,907b4ba6-b57b-4dee-b8d4-95321a399293,1,cf5e66a5-091c-462b-a5ac-c4fa85da0a30,32d5f924-10c6-4198-ae0b-f76d6ef4a284
2019-07-20 22:39:45,a42f94c9-0f36-489c-bc94-53abe6f20c76,1,cf5e66a5-091c-462b-a5ac-c4fa85da0a30,32d5f924-10c6-4198-ae0b-f76d6ef4a284
2019-07-20 22:44:30,417cf525-b979-4357-8b15-431dbe2523e6,1,cf5e66a5-091c-462b-a5ac-c4fa85da0a30,96a02e4d-d2a4-4326-8354-598ef354a6da
2019-07-20 22:44:30,8c41072a-dab0-4be9-9a39-5fd785a642a9,1,cf5e66a5-091c-462b-a5ac-c4fa85da0a30,96a02e4d-d2a4-4326-8354-598ef354a6da
2019-07-20 22:47:21,4e96b575-aeb4-4bdf-9b27-462d7bf25129,1,cf5e66a5-091c-462b-a5ac-c4fa85da0a30,baca5b53-639c-4f64-91b5-c165fabe49c3
2019-07-20 22:47:21,33f83f6f-3195-4d5d-976b-9e3d95a2fda4,1,cf5e66a5-091c-462b-a5ac-c4fa85da0a30,baca5b53-639c-4f64-91b5-c165fabe49c3
2019-07-20 22:53:41,417cf525-b979-4357-8b15-431dbe2523e6,1,cf5e66a5-091c-462b-a5ac-c4fa85da0a30,afecf20b-5c1e-4f05-b46f-7adcc3c0ae9b
2019-07-20 22:53:41,8c41072a-dab0-4be9-9a39-5fd785a642a9,1,cf5e66a5-091c-462b-a5ac-c4fa85da0a30,afecf20b-5c1e-4f05-b46f-7adcc3c0ae9b
2019-07-20 22:54:11,1354a6ef-9572-451f-ad4d-88353d25a4ca,1,cf5e66a5-091c-462b-a5ac-c4fa85da0a30,baca5b53-639c-4f64-91b5-c165fabe49c3
2019-07-20 22:54:11,dc72ae98-e704-4399-8bf2-e9e476d1b4bc,1,cf5e66a5-091c-462b-a5ac-c4fa85da0a30,baca5b53-639c-4f64-91b5-c165fabe49c3
2019-07-20 22:56:01,417cf525-b979-4357-8b15-431dbe2523e6,1,cf5e66a5-091c-462b-a5ac-c4fa85da0a30,62791ea5-793c-4e0c-8d0d-ba8a3cd708a4
2019-07-20 22:59:11,3d3416d0-709e-4b5e-9dee-0932651c620b,1,cf5e66a5-091c-462b-a5ac-c4fa85da0a30,82a889d3-22ac-40f4-8b2d-2a896537bad4
2019-07-20 22:59:12,016b1b4b-082b-4cad-9ba4-ad9446a35288,1,cf5e66a5-091c-462b-a5ac-c4fa85da0a30,82a889d3-22ac-40f4-8b2d-2a896537bad4
2019-07-20 23:01:31,417cf525-b979-4357-8b15-431dbe2523e6,1,cf5e66a5-091c-462b-a5ac-c4fa85da0a30,82a889d3-22ac-40f4-8b2d-2a896537bad4
2019-07-20 23:05:17,417cf525-b979-4357-8b15-431dbe2523e6,1,cf5e66a5-091c-462b-a5ac-c4fa85da0a30,baca5b53-639c-4f64-91b5-c165fabe49c3
2019-07-20 23:05:17,8c41072a-dab0-4be9-9a39-5fd785a642a9,1,cf5e66a5-091c-462b-a5ac-c4fa85da0a30,baca5b53-639c-4f64-91b5-c165fabe49c3
2019-07-20 23:19:43,1354a6ef-9572-451f-ad4d-88353d25a4ca,1,cf5e66a5-091c-462b-a5ac-c4fa85da0a30,b64e7026-20cc-46d6-9b9e-d18192656391
2019-07-20 23:25:38,08a7a626-5ee6-4b0f-a22e-4898df94ee0f,1,cf5e66a5-091c-462b-a5ac-c4fa85da0a30,30d2d5bc-1286-4d67-84bd-450b4457e5ee
2019-07-20 23:25:38,713ab3be-ff75-4041-91fb-8d493a8059c0,1,cf5e66a5-091c-462b-a5ac-c4fa85da0a30,30d2d5bc-1286-4d67-84bd-450b4457e5ee
2019-07-20 23:36:58,5a176ddb-c9f5-4bf8-b4a7-7b3040aa7a5c,1,cf5e66a5-091c-462b-a5ac-c4fa85da0a30,30f8548e-cf60-476a-a9b7-14a4ba2ae1c2
2019-07-20 23:37:18,5a176ddb-c9f5-4bf8-b4a7-7b3040aa7a5c,1,cf5e66a5-091c-462b-a5ac-c4fa85da0a30,30f8548e-cf60-476a-a9b7-14a4ba2ae1c2
2019-07-20 22:22:53,907b4ba6-b57b-4dee-b8d4-95321a399293,1,afecf20b-5c1e-4f05-b46f-7adcc3c0ae9b,30d2d5bc-1286-4d67-84bd-450b4457e5ee
2019-07-20 22:22:53,a42f94c9-0f36-489c-bc94-53abe6f20c76,1,afecf20b-5c1e-4f05-b46f-7adcc3c0ae9b,30d2d5bc-1286-4d67-84bd-450b4457e5ee
2019-07-20 22:23:23,dda2f67b-a7de-4e50-9625-9227ae297d49,1,afecf20b-5c1e-4f05-b46f-7adcc3c0ae9b,30d2d5bc-1286-4d67-84bd-450b4457e5ee
2019-07-20 22:23:23,2523a2ee-98dd-4d92-aa29-d50a59c9ab00,1,afecf20b-5c1e-4f05-b46f-7adcc3c0ae9b,30d2d5bc-1286-4d67-84bd-450b4457e5ee
2019-07-20 22:35:30,dda2f67b-a7de-4e50-9625-9227ae297d49,1,afecf20b-5c1e-4f05-b46f-7adcc3c0ae9b,b64e7026-20cc-46d6-9b9e-d18192656391
2019-07-20 22:35:30,2523a2ee-98dd-4d92-aa29-d50a59c9ab00,1,afecf20b-5c1e-4f05-b46f-7adcc3c0ae9b,b64e7026-20cc-46d6-9b9e-d18192656391
2019-07-20 22:43:50,461063b9-62f4-4e15-961a-2199b5b95b7e,1,afecf20b-5c1e-4f05-b46f-7adcc3c0ae9b,baca5b53-639c-4f64-91b5-c165fabe49c3
2019-07-20 22:43:50,f39104dc-2461-4e45-8c6a-983a5f198f71,1,afecf20b-5c1e-4f05-b46f-7adcc3c0ae9b,baca5b53-639c-4f64-91b5-c165fabe49c3
2019-07-20 22:54:01,417cf525-b979-4357-8b15-431dbe2523e6,1,afecf20b-5c1e-4f05-b46f-7adcc3c0ae9b,baca5b53-639c-4f64-91b5-c165fabe49c3
2019-07-20 22:54:01,8c41072a-dab0-4be9-9a39-5fd785a642a9,1,afecf20b-5c1e-4f05-b46f-7adcc3c0ae9b,baca5b53-639c-4f64-91b5-c165fabe49c3
2019-07-20 22:57:17,d97faa62-22de-4044-b7f5-2a42b42b7c82,1,afecf20b-5c1e-4f05-b46f-7adcc3c0ae9b,d840282c-003d-4193-be5f-175e012cd6d1
2019-07-20 22:57:17,60968dcd-45d0-4845-bc95-af9f423fc7ff,1,afecf20b-5c1e-4f05-b46f-7adcc3c0ae9b,d840282c-003d-4193-be5f-175e012cd6d1
2019-07-20 23:20:32,d97faa62-22de-4044-b7f5-2a42b42b7c82,1,afecf20b-5c1e-4f05-b46f-7adcc3c0ae9b,baca5b53-639c-4f64-91b5-c165fabe49c3
2019-07-20 23:20:33,60968dcd-45d0-4845-bc95-af9f423fc7ff,1,afecf20b-5c1e-4f05-b46f-7adcc3c0ae9b,baca5b53-639c-4f64-91b5-c165fabe49c3
2019-07-20 23:36:13,1e0c5ef3-7677-4201-aa6e-35f4c9bc350f,1,afecf20b-5c1e-4f05-b46f-7adcc3c0ae9b,62791ea5-793c-4e0c-8d0d-ba8a3cd708a4
2019-07-20 23:36:13,5a176ddb-c9f5-4bf8-b4a7-7b3040aa7a5c,1,afecf20b-5c1e-4f05-b46f-7adcc3c0ae9b,62791ea5-793c-4e0c-8d0d-ba8a3cd708a4
2019-07-20 23:36:43,5a176ddb-c9f5-4bf8-b4a7-7b3040aa7a5c,1,afecf20b-5c1e-4f05-b46f-7adcc3c0ae9b,cf5e66a5-091c-462b-a5ac-c4fa85da0a30
2019-07-20 22:19:38,dda2f67b-a7de-4e50-9625-9227ae297d49,1,6c08d55d-ddcb-401d-83ea-042652b1eb23,afecf20b-5c1e-4f05-b46f-7adcc3c0ae9b
2019-07-20 22:19:38,2523a2ee-98dd-4d92-aa29-d50a59c9ab00,1,6c08d55d-ddcb-401d-83ea-042652b1eb23,afecf20b-5c1e-4f05-b46f-7adcc3c0ae9b
2019-07-20 22:31:30,461063b9-62f4-4e15-961a-2199b5b95b7e,1,6c08d55d-ddcb-401d-83ea-042652b1eb23,afecf20b-5c1e-4f05-b46f-7adcc3c0ae9b
2019-07-20 22:31:55,ff2ca6c7-b983-47fc-a918-2172fee8725f,1,6c08d55d-ddcb-401d-83ea-042652b1eb23,96a02e4d-d2a4-4326-8354-598ef354a6da
2019-07-20 22:31:55,430db2f6-3b31-47da-a871-88a730d35a5a,1,6c08d55d-ddcb-401d-83ea-042652b1eb23,96a02e4d-d2a4-4326-8354-598ef354a6da
2019-07-20 22:32:50,87974faf-a6c0-46cd-965e-1d47f32566a1,1,6c08d55d-ddcb-401d-83ea-042652b1eb23,62791ea5-793c-4e0c-8d0d-ba8a3cd708a4
2019-07-20 22:32:50,b1748291-955b-4db1-be11-527dd3f4dd38,1,6c08d55d-ddcb-401d-83ea-042652b1eb23,62791ea5-793c-4e0c-8d0d-ba8a3cd708a4
2019-07-20 22:48:01,691351e6-c871-41c1-8654-0f9ad7f39814,1,6c08d55d-ddcb-401d-83ea-042652b1eb23,32d5f924-10c6-4198-ae0b-f76d6ef4a284
2019-07-20 22:48:01,097284ce-a27a-47a0-b1be-bb45f4f21a1c,1,6c08d55d-ddcb-401d-83ea-042652b1eb23,32d5f924-10c6-4198-ae0b-f76d6ef4a284
2019-07-20 22:55:51,417cf525-b979-4357-8b15-431dbe2523e6,1,6c08d55d-ddcb-401d-83ea-042652b1eb23,cf5e66a5-091c-462b-a5ac-c4fa85da0a30
2019-07-20 23:11:07,39b61913-eea0-4c66-8886-3ea855c10375,1,6c08d55d-ddcb-401d-83ea-042652b1eb23,82a889d3-22ac-40f4-8b2d-2a896537bad4
2019-07-20 23:11:07,84b05212-3367-44bb-82e7-69db9100acca,1,6c08d55d-ddcb-401d-83ea-042652b1eb23,82a889d3-22ac-40f4-8b2d-2a896537bad4
2019-07-20 23:13:28,d97faa62-22de-4044-b7f5-2a42b42b7c82,1,6c08d55d-ddcb-401d-83ea-042652b1eb23,afecf20b-5c1e-4f05-b46f-7adcc3c0ae9b
2019-07-20 23:13:28,60968dcd-45d0-4845-bc95-af9f423fc7ff,1,6c08d55d-ddcb-401d-83ea-042652b1eb23,afecf20b-5c1e-4f05-b46f-7adcc3c0ae9b
2019-07-20 23:25:08,d97faa62-22de-4044-b7f5-2a42b42b7c82,1,6c08d55d-ddcb-401d-83ea-042652b1eb23,baca5b53-639c-4f64-91b5-c165fabe49c3
2019-07-20 23:25:08,60968dcd-45d0-4845-bc95-af9f423fc7ff,1,6c08d55d-ddcb-401d-83ea-042652b1eb23,baca5b53-639c-4f64-91b5-c165fabe49c3
2019-07-20 23:37:33,39b61913-eea0-4c66-8886-3ea855c10375,1,6c08d55d-ddcb-401d-83ea-042652b1eb23,ce96ffef-901a-4384-921a-87012f85a9d5
2019-07-20 23:39:58,691351e6-c871-41c1-8654-0f9ad7f39814,1,6c08d55d-ddcb-401d-83ea-042652b1eb23,ce96ffef-901a-4384-921a-87012f85a9d5
2019-07-20 23:39:59,097284ce-a27a-47a0-b1be-bb45f4f21a1c,1,6c08d55d-ddcb-401d-83ea-042652b1eb23,ce96ffef-901a-4384-921a-87012f85a9d5
2019-07-20 23:43:43,a0415b52-584b-4aef-bbda-4d17488e7cf1,1,6c08d55d-ddcb-401d-83ea-042652b1eb23,30d2d5bc-1286-4d67-84bd-450b4457e5ee
2019-07-20 23:43:44,5b9d18e7-58e2-402f-b567-0f2c6cbf35d3,1,6c08d55d-ddcb-401d-83ea-042652b1eb23,30d2d5bc-1286-4d67-84bd-450b4457e5ee
2019-07-20 22:17:32,425a1612-64b3-4377-97b5-fb72f40ab12f,1,82a889d3-22ac-40f4-8b2d-2a896537bad4,30f8548e-cf60-476a-a9b7-14a4ba2ae1c2
2019-07-20 22:17:32,fb3bc2c8-4104-40a6-8d3a-149afa892f76,1,82a889d3-22ac-40f4-8b2d-2a896537bad4,30f8548e-cf60-476a-a9b7-14a4ba2ae1c2
2019-07-20 22:30:40,d97faa62-22de-4044-b7f5-2a42b42b7c82,1,82a889d3-22ac-40f4-8b2d-2a896537bad4,b64e7026-20cc-46d6-9b9e-d18192656391
2019-07-20 22:30:40,60968dcd-45d0-4845-bc95-af9f423fc7ff,1,82a889d3-22ac-40f4-8b2d-2a896537bad4,b64e7026-20cc-46d6-9b9e-d18192656391
2019-07-20 22:31:00,1354a6ef-9572-451f-ad4d-88353d25a4ca,1,82a889d3-22ac-40f4-8b2d-2a896537bad4,babc1bc4-ea3a-4fbf-ba7b-22860380b305
2019-07-20 22:31:00,dc72ae98-e704-4399-8bf2-e9e476d1b4bc,1,82a889d3-22ac-40f4-8b2d-2a896537bad4,babc1bc4-ea3a-4fbf-ba7b-22860380b305
2019-07-20 22:34:05,417cf525-b979-4357-8b15-431dbe2523e6,1,82a889d3-22ac-40f4-8b2d-2a896537bad4,babc1bc4-ea3a-4fbf-ba7b-22860380b305
2019-07-20 22:34:05,8c41072a-dab0-4be9-9a39-5fd785a642a9,1,82a889d3-22ac-40f4-8b2d-2a896537bad4,babc1bc4-ea3a-4fbf-ba7b-22860380b305
2019-07-20 22:45:25,907b4ba6-b57b-4dee-b8d4-95321a399293,1,82a889d3-22ac-40f4-8b2d-2a896537bad4,baca5b53-639c-4f64-91b5-c165fabe49c3
2019-07-20 22:45:25,a42f94c9-0f36-489c-bc94-53abe6f20c76,1,82a889d3-22ac-40f4-8b2d-2a896537bad4,baca5b53-639c-4f64-91b5-c165fabe49c3
2019-07-20 22:50:46,417cf525-b979-4357-8b15-431dbe2523e6,1,82a889d3-22ac-40f4-8b2d-2a896537bad4,cf5e66a5-091c-462b-a5ac-c4fa85da0a30
2019-07-20 22:50:46,8c41072a-dab0-4be9-9a39-5fd785a642a9,1,82a889d3-22ac-40f4-8b2d-2a896537bad4,cf5e66a5-091c-462b-a5ac-c4fa85da0a30
2019-07-20 22:55:31,3d3416d0-709e-4b5e-9dee-0932651c620b,1,82a889d3-22ac-40f4-8b2d-2a896537bad4,30d2d5bc-1286-4d67-84bd-450b4457e5ee
2019-07-20 23:02:51,417cf525-b979-4357-8b15-431dbe2523e6,1,82a889d3-22ac-40f4-8b2d-2a896537bad4,cf5e66a5-091c-462b-a5ac-c4fa85da0a30
2019-07-20 23:02:51,8c41072a-dab0-4be9-9a39-5fd785a642a9,1,82a889d3-22ac-40f4-8b2d-2a896537bad4,cf5e66a5-091c-462b-a5ac-c4fa85da0a30
2019-07-20 23:07:17,5da2a781-e6e6-475a-9a80-fb2005d7a466,1,82a889d3-22ac-40f4-8b2d-2a896537bad4,babc1bc4-ea3a-4fbf-ba7b-22860380b305
2019-07-20 23:07:17,4013c2dd-8c10-470d-8085-da2c731167fc,1,82a889d3-22ac-40f4-8b2d-2a896537bad4,babc1bc4-ea3a-4fbf-ba7b-22860380b305
2019-07-20 23:11:22,39b61913-eea0-4c66-8886-3ea855c10375,1,82a889d3-22ac-40f4-8b2d-2a896537bad4,96a02e4d-d2a4-4326-8354-598ef354a6da
2019-07-20 23:11:22,84b05212-3367-44bb-82e7-69db9100acca,1,82a889d3-22ac-40f4-8b2d-2a896537bad4,96a02e4d-d2a4-4326-8354-598ef354a6da
2019-07-20 23:23:18,417cf525-b979-4357-8b15-431dbe2523e6,1,82a889d3-22ac-40f4-8b2d-2a896537bad4,b64e7026-20cc-46d6-9b9e-d18192656391
2019-07-20 23:23:18,8c41072a-dab0-4be9-9a39-5fd785a642a9,1,82a889d3-22ac-40f4-8b2d-2a896537bad4,b64e7026-20cc-46d6-9b9e-d18192656391
2019-07-20 23:30:27,3d3416d0-709e-4b5e-9dee-0932651c620b,1,82a889d3-22ac-40f4-8b2d-2a896537bad4,babc1bc4-ea3a-4fbf-ba7b-22860380b305
2019-07-20 23:30:28,016b1b4b-082b-4cad-9ba4-ad9446a35288,1,82a889d3-22ac-40f4-8b2d-2a896537bad4,babc1bc4-ea3a-4fbf-ba7b-22860380b305
2019-07-20 22:22:13,08a7a626-5ee6-4b0f-a22e-4898df94ee0f,1,d840282c-003d-4193-be5f-175e012cd6d1,babc1bc4-ea3a-4fbf-ba7b-22860380b305
2019-07-20 22:31:50,d4c99be6-8608-4650-b5e1-03b5f71863a6,1,d840282c-003d-4193-be5f-175e012cd6d1,30f8548e-cf60-476a-a9b7-14a4ba2ae1c2
2019-07-20 22:37:45,25d5394d-eeb4-4741-8f37-141637329c9f,1,d840282c-003d-4193-be5f-175e012cd6d1,bcabeb85-a736-447f-8eb3-6ca0588e10a8
2019-07-20 22:38:55,d4c99be6-8608-4650-b5e1-03b5f71863a6,1,d840282c-003d-4193-be5f-175e012cd6d1,babc1bc4-ea3a-4fbf-ba7b-22860380b305
2019-07-20 22:38:56,b517d5bd-5e3e-4c6f-9ec0-00adbbe31850,1,d840282c-003d-4193-be5f-175e012cd6d1,babc1bc4-ea3a-4fbf-ba7b-22860380b305
2019-07-20 22:51:31,39b61913-eea0-4c66-8886-3ea855c10375,1,d840282c-003d-4193-be5f-175e012cd6d1,bcabeb85-a736-447f-8eb3-6ca0588e10a8
2019-07-20 22:51:31,84b05212-3367-44bb-82e7-69db9100acca,1,d840282c-003d-4193-be5f-175e012cd6d1,bcabeb85-a736-447f-8eb3-6ca0588e10a8
2019-07-20 22:55:01,8f209176-8199-47a6-84b0-a1183e9b129f,1,d840282c-003d-4193-be5f-175e012cd6d1,62791ea5-793c-4e0c-8d0d-ba8a3cd708a4
2019-07-20 23:07:52,39b61913-eea0-4c66-8886-3ea855c10375,1,d840282c-003d-4193-be5f-175e012cd6d1,6c08d55d-ddcb-401d-83ea-042652b1eb23
2019-07-20 23:07:52,84b05212-3367-44bb-82e7-69db9100acca,1,d840282c-003d-4193-be5f-175e012cd6d1,6c08d55d-ddcb-401d-83ea-042652b1eb23
2019-07-20 23:12:27,d97faa62-22de-4044-b7f5-2a42b42b7c82,1,d840282c-003d-4193-be5f-175e012cd6d1,6c08d55d-ddcb-401d-83ea-042652b1eb23
2019-07-20 23:12:27,60968dcd-45d0-4845-bc95-af9f423fc7ff,1,d840282c-003d-4193-be5f-175e012cd6d1,6c08d55d-ddcb-401d-83ea-042652b1eb23
2019-07-20 23:18:47,d4c99be6-8608-4650-b5e1-03b5f71863a6,1,d840282c-003d-4193-be5f-175e012cd6d1,b64e7026-20cc-46d6-9b9e-d18192656391
2019-07-20 23:18:48,b517d5bd-5e3e-4c6f-9ec0-00adbbe31850,1,d840282c-003d-4193-be5f-175e012cd6d1,b64e7026-20cc-46d6-9b9e-d18192656391
2019-07-20 23:24:23,461063b9-62f4-4e15-961a-2199b5b95b7e,1,d840282c-003d-4193-be5f-175e012cd6d1,babc1bc4-ea3a-4fbf-ba7b-22860380b305
2019-07-20 23:24:23,f39104dc-2461-4e45-8c6a-983a5f198f71,1,d840282c-003d-4193-be5f-175e012cd6d1,babc1bc4-ea3a-4fbf-ba7b-22860380b305
2019-07-20 22:31:25,ff2ca6c7-b983-47fc-a918-2172fee8725f,1,96a02e4d-d2a4-4326-8354-598ef354a6da,6c08d55d-ddcb-401d-83ea-042652b1eb23
2019-07-20 22:31:25,430db2f6-3b31-47da-a871-88a730d35a5a,1,96a02e4d-d2a4-4326-8354-598ef354a6da,6c08d55d-ddcb-401d-83ea-042652b1eb23
2019-07-20 22:31:30,f39104dc-2461-4e45-8c6a-983a5f198f71,1,96a02e4d-d2a4-4326-8354-598ef354a6da,afecf20b-5c1e-4f05-b46f-7adcc3c0ae9b
2019-07-20 22:44:45,417cf525-b979-4357-8b15-431dbe2523e6,1,96a02e4d-d2a4-4326-8354-598ef354a6da,82a889d3-22ac-40f4-8b2d-2a896537bad4
2019-07-20 22:44:45,8c41072a-dab0-4be9-9a39-5fd785a642a9,1,96a02e4d-d2a4-4326-8354-598ef354a6da,82a889d3-22ac-40f4-8b2d-2a896537bad4
2019-07-20 23:11:37,39b61913-eea0-4c66-8886-3ea855c10375,1,96a02e4d-d2a4-4326-8354-598ef354a6da,babc1bc4-ea3a-4fbf-ba7b-22860380b305
2019-07-20 23:11:37,84b05212-3367-44bb-82e7-69db9100acca,1,96a02e4d-d2a4-4326-8354-598ef354a6da,babc1bc4-ea3a-4fbf-ba7b-22860380b305
2019-07-20 23:30:23,691351e6-c871-41c1-8654-0f9ad7f39814,1,96a02e4d-d2a4-4326-8354-598ef354a6da,bcabeb85-a736-447f-8eb3-6ca0588e10a8
2019-07-20 23:30:23,097284ce-a27a-47a0-b1be-bb45f4f21a1c,1,96a02e4d-d2a4-4326-8354-598ef354a6da,bcabeb85-a736-447f-8eb3-6ca0588e10a8
2019-07-20 23:35:43,ff2ca6c7-b983-47fc-a918-2172fee8725f,1,96a02e4d-d2a4-4326-8354-598ef354a6da,30f8548e-cf60-476a-a9b7-14a4ba2ae1c2
2019-07-20 23:35:43,430db2f6-3b31-47da-a871-88a730d35a5a,1,96a02e4d-d2a4-4326-8354-598ef354a6da,30f8548e-cf60-476a-a9b7-14a4ba2ae1c2
2019-07-20 23:41:48,3d3416d0-709e-4b5e-9dee-0932651c620b,1,96a02e4d-d2a4-4326-8354-598ef354a6da,ce96ffef-901a-4384-921a-87012f85a9d5
2019-07-20 23:41:48,016b1b4b-082b-4cad-9ba4-ad9446a35288,1,96a02e4d-d2a4-4326-8354-598ef354a6da,96a02e4d-d2a4-4326-8354-598ef354a6da
2019-07-20 22:27:04,5a176ddb-c9f5-4bf8-b4a7-7b3040aa7a5c,1,baca5b53-639c-4f64-91b5-c165fabe49c3,b64e7026-20cc-46d6-9b9e-d18192656391
2019-07-20 22:29:15,3776f2b0-1e78-4a16-b05d-32280e3dc1da,1,baca5b53-639c-4f64-91b5-c165fabe49c3,ce96ffef-901a-4384-921a-87012f85a9d5
2019-07-20 22:29:15,6607a3cd-ecc8-4ca3-9436-ce87df9660f5,1,baca5b53-639c-4f64-91b5-c165fabe49c3,ce96ffef-901a-4384-921a-87012f85a9d5
2019-07-20 22:30:50,3a4aca7a-5489-4d95-a41d-369a13064ec5,1,baca5b53-639c-4f64-91b5-c165fabe49c3,b64e7026-20cc-46d6-9b9e-d18192656391
2019-07-20 22:30:50,738db443-8812-413f-875a-f26e46047118,1,baca5b53-639c-4f64-91b5-c165fabe49c3,b64e7026-20cc-46d6-9b9e-d18192656391
2019-07-20 22:31:12,ff2ca6c7-b983-47fc-a918-2172fee8725f,1,baca5b53-639c-4f64-91b5-c165fabe49c3,96a02e4d-d2a4-4326-8354-598ef354a6da
2019-07-20 22:31:12,430db2f6-3b31-47da-a871-88a730d35a5a,1,baca5b53-639c-4f64-91b5-c165fabe49c3,96a02e4d-d2a4-4326-8354-598ef354a6da
2019-07-20 22:44:00,461063b9-62f4-4e15-961a-2199b5b95b7e,1,baca5b53-639c-4f64-91b5-c165fabe49c3,d840282c-003d-4193-be5f-175e012cd6d1
2019-07-20 22:44:01,f39104dc-2461-4e45-8c6a-983a5f198f71,1,baca5b53-639c-4f64-91b5-c165fabe49c3,d840282c-003d-4193-be5f-175e012cd6d1
2019-07-20 22:45:35,907b4ba6-b57b-4dee-b8d4-95321a399293,1,baca5b53-639c-4f64-91b5-c165fabe49c3,baca5b53-639c-4f64-91b5-c165fabe49c3
2019-07-20 22:45:35,a42f94c9-0f36-489c-bc94-53abe6f20c76,1,baca5b53-639c-4f64-91b5-c165fabe49c3,30d2d5bc-1286-4d67-84bd-450b4457e5ee
2019-07-20 22:47:30,4e96b575-aeb4-4bdf-9b27-462d7bf25129,1,baca5b53-639c-4f64-91b5-c165fabe49c3,96a02e4d-d2a4-4326-8354-598ef354a6da
2019-07-20 22:47:30,33f83f6f-3195-4d5d-976b-9e3d95a2fda4,1,baca5b53-639c-4f64-91b5-c165fabe49c3,96a02e4d-d2a4-4326-8354-598ef354a6da
2019-07-20 22:47:51,d97faa62-22de-4044-b7f5-2a42b42b7c82,1,baca5b53-639c-4f64-91b5-c165fabe49c3,30d2d5bc-1286-4d67-84bd-450b4457e5ee
2019-07-20 22:47:51,60968dcd-45d0-4845-bc95-af9f423fc7ff,1,baca5b53-639c-4f64-91b5-c165fabe49c3,30d2d5bc-1286-4d67-84bd-450b4457e5ee
2019-07-20 22:54:22,1354a6ef-9572-451f-ad4d-88353d25a4ca,1,baca5b53-639c-4f64-91b5-c165fabe49c3,bcabeb85-a736-447f-8eb3-6ca0588e10a8
2019-07-20 22:54:36,dc72ae98-e704-4399-8bf2-e9e476d1b4bc,1,baca5b53-639c-4f64-91b5-c165fabe49c3,32d5f924-10c6-4198-ae0b-f76d6ef4a284
2019-07-20 22:55:41,417cf525-b979-4357-8b15-431dbe2523e6,1,baca5b53-639c-4f64-91b5-c165fabe49c3,6c08d55d-ddcb-401d-83ea-042652b1eb23
2019-07-20 22:56:06,691351e6-c871-41c1-8654-0f9ad7f39814,1,baca5b53-639c-4f64-91b5-c165fabe49c3,62791ea5-793c-4e0c-8d0d-ba8a3cd708a4
2019-07-20 22:56:07,097284ce-a27a-47a0-b1be-bb45f4f21a1c,1,baca5b53-639c-4f64-91b5-c165fabe49c3,62791ea5-793c-4e0c-8d0d-ba8a3cd708a4
2019-07-20 23:01:32,8c41072a-dab0-4be9-9a39-5fd785a642a9,1,baca5b53-639c-4f64-91b5-c165fabe49c3,82a889d3-22ac-40f4-8b2d-2a896537bad4
2019-07-20 23:21:18,713ab3be-ff75-4041-91fb-8d493a8059c0,1,baca5b53-639c-4f64-91b5-c165fabe49c3,cf5e66a5-091c-462b-a5ac-c4fa85da0a30
2019-07-20 23:23:03,417cf525-b979-4357-8b15-431dbe2523e6,1,baca5b53-639c-4f64-91b5-c165fabe49c3,82a889d3-22ac-40f4-8b2d-2a896537bad4
2019-07-20 23:23:03,8c41072a-dab0-4be9-9a39-5fd785a642a9,1,baca5b53-639c-4f64-91b5-c165fabe49c3,82a889d3-22ac-40f4-8b2d-2a896537bad4
2019-07-20 23:23:23,d97faa62-22de-4044-b7f5-2a42b42b7c82,1,baca5b53-639c-4f64-91b5-c165fabe49c3,6c08d55d-ddcb-401d-83ea-042652b1eb23
2019-07-20 23:23:23,60968dcd-45d0-4845-bc95-af9f423fc7ff,1,baca5b53-639c-4f64-91b5-c165fabe49c3,6c08d55d-ddcb-401d-83ea-042652b1eb23
2019-07-20 23:26:18,08a7a626-5ee6-4b0f-a22e-4898df94ee0f,1,baca5b53-639c-4f64-91b5-c165fabe49c3,b64e7026-20cc-46d6-9b9e-d18192656391
2019-07-20 23:26:18,713ab3be-ff75-4041-91fb-8d493a8059c0,1,baca5b53-639c-4f64-91b5-c165fabe49c3,b64e7026-20cc-46d6-9b9e-d18192656391
2019-07-20 22:23:03,907b4ba6-b57b-4dee-b8d4-95321a399293,1,30d2d5bc-1286-4d67-84bd-450b4457e5ee,cf5e66a5-091c-462b-a5ac-c4fa85da0a30
2019-07-20 22:23:03,a42f94c9-0f36-489c-bc94-53abe6f20c76,1,30d2d5bc-1286-4d67-84bd-450b4457e5ee,cf5e66a5-091c-462b-a5ac-c4fa85da0a30
2019-07-20 22:23:58,dda2f67b-a7de-4e50-9625-9227ae297d49,1,30d2d5bc-1286-4d67-84bd-450b4457e5ee,ce96ffef-901a-4384-921a-87012f85a9d5
2019-07-20 22:23:58,2523a2ee-98dd-4d92-aa29-d50a59c9ab00,1,30d2d5bc-1286-4d67-84bd-450b4457e5ee,ce96ffef-901a-4384-921a-87012f85a9d5
2019-07-20 22:26:59,3776f2b0-1e78-4a16-b05d-32280e3dc1da,1,30d2d5bc-1286-4d67-84bd-450b4457e5ee,baca5b53-639c-4f64-91b5-c165fabe49c3
2019-07-20 22:26:59,6607a3cd-ecc8-4ca3-9436-ce87df9660f5,1,30d2d5bc-1286-4d67-84bd-450b4457e5ee,baca5b53-639c-4f64-91b5-c165fabe49c3
2019-07-20 22:27:04,1e0c5ef3-7677-4201-aa6e-35f4c9bc350f,1,30d2d5bc-1286-4d67-84bd-450b4457e5ee,b64e7026-20cc-46d6-9b9e-d18192656391
2019-07-20 22:33:55,417cf525-b979-4357-8b15-431dbe2523e6,1,30d2d5bc-1286-4d67-84bd-450b4457e5ee,82a889d3-22ac-40f4-8b2d-2a896537bad4
2019-07-20 22:33:55,8c41072a-dab0-4be9-9a39-5fd785a642a9,1,30d2d5bc-1286-4d67-84bd-450b4457e5ee,82a889d3-22ac-40f4-8b2d-2a896537bad4
2019-07-20 22:34:40,39b61913-eea0-4c66-8886-3ea855c10375,1,30d2d5bc-1286-4d67-84bd-450b4457e5ee,ce96ffef-901a-4384-921a-87012f85a9d5
2019-07-20 22:34:40,84b05212-3367-44bb-82e7-69db9100acca,1,30d2d5bc-1286-4d67-84bd-450b4457e5ee,ce96ffef-901a-4384-921a-87012f85a9d5
2019-07-20 22:44:06,cb51434d-aecd-470f-be8b-e527a9b70325,1,30d2d5bc-1286-4d67-84bd-450b4457e5ee,baca5b53-639c-4f64-91b5-c165fabe49c3
2019-07-20 22:52:31,d97faa62-22de-4044-b7f5-2a42b42b7c82,1,30d2d5bc-1286-4d67-84bd-450b4457e5ee,afecf20b-5c1e-4f05-b46f-7adcc3c0ae9b
2019-07-20 22:52:31,60968dcd-45d0-4845-bc95-af9f423fc7ff,1,30d2d5bc-1286-4d67-84bd-450b4457e5ee,afecf20b-5c1e-4f05-b46f-7adcc3c0ae9b
2019-07-20 22:55:16,3d3416d0-709e-4b5e-9dee-0932651c620b,1,30d2d5bc-1286-4d67-84bd-450b4457e5ee,82a889d3-22ac-40f4-8b2d-2a896537bad4
2019-07-20 22:55:36,1354a6ef-9572-451f-ad4d-88353d25a4ca,1,30d2d5bc-1286-4d67-84bd-450b4457e5ee,62791ea5-793c-4e0c-8d0d-ba8a3cd708a4
2019-07-20 22:58:26,3d3416d0-709e-4b5e-9dee-0932651c620b,1,30d2d5bc-1286-4d67-84bd-450b4457e5ee,cf5e66a5-091c-462b-a5ac-c4fa85da0a30
2019-07-20 22:58:27,016b1b4b-082b-4cad-9ba4-ad9446a35288,1,30d2d5bc-1286-4d67-84bd-450b4457e5ee,cf5e66a5-091c-462b-a5ac-c4fa85da0a30
2019-07-20 23:06:32,39b61913-eea0-4c66-8886-3ea855c10375,1,30d2d5bc-1286-4d67-84bd-450b4457e5ee,30f8548e-cf60-476a-a9b7-14a4ba2ae1c2
2019-07-20 23:06:32,84b05212-3367-44bb-82e7-69db9100acca,1,30d2d5bc-1286-4d67-84bd-450b4457e5ee,30f8548e-cf60-476a-a9b7-14a4ba2ae1c2
2019-07-20 23:25:48,08a7a626-5ee6-4b0f-a22e-4898df94ee0f,1,30d2d5bc-1286-4d67-84bd-450b4457e5ee,b64e7026-20cc-46d6-9b9e-d18192656391
2019-07-20 23:25:48,713ab3be-ff75-4041-91fb-8d493a8059c0,1,30d2d5bc-1286-4d67-84bd-450b4457e5ee,b64e7026-20cc-46d6-9b9e-d18192656391
2019-07-20 23:39:43,691351e6-c871-41c1-8654-0f9ad7f39814,1,30d2d5bc-1286-4d67-84bd-450b4457e5ee,6c08d55d-ddcb-401d-83ea-042652b1eb23
2019-07-20 23:39:43,097284ce-a27a-47a0-b1be-bb45f4f21a1c,1,30d2d5bc-1286-4d67-84bd-450b4457e5ee,6c08d55d-ddcb-401d-83ea-042652b1eb23
2019-07-20 23:44:03,a0415b52-584b-4aef-bbda-4d17488e7cf1,1,30d2d5bc-1286-4d67-84bd-450b4457e5ee,d840282c-003d-4193-be5f-175e012cd6d1
2019-07-20 23:44:03,5b9d18e7-58e2-402f-b567-0f2c6cbf35d3,1,30d2d5bc-1286-4d67-84bd-450b4457e5ee,d840282c-003d-4193-be5f-175e012cd6d1
2019-07-20 22:12:06,1354a6ef-9572-451f-ad4d-88353d25a4ca,1,32d5f924-10c6-4198-ae0b-f76d6ef4a284,82a889d3-22ac-40f4-8b2d-2a896537bad4
2019-07-20 22:32:55,39b61913-eea0-4c66-8886-3ea855c10375,1,32d5f924-10c6-4198-ae0b-f76d6ef4a284,62791ea5-793c-4e0c-8d0d-ba8a3cd708a4
2019-07-20 22:32:55,84b05212-3367-44bb-82e7-69db9100acca,1,32d5f924-10c6-4198-ae0b-f76d6ef4a284,62791ea5-793c-4e0c-8d0d-ba8a3cd708a4
2019-07-20 22:39:55,907b4ba6-b57b-4dee-b8d4-95321a399293,1,32d5f924-10c6-4198-ae0b-f76d6ef4a284,82a889d3-22ac-40f4-8b2d-2a896537bad4
2019-07-20 22:39:55,a42f94c9-0f36-489c-bc94-53abe6f20c76,1,32d5f924-10c6-4198-ae0b-f76d6ef4a284,82a889d3-22ac-40f4-8b2d-2a896537bad4
2019-07-20 22:45:05,3d3416d0-709e-4b5e-9dee-0932651c620b,1,32d5f924-10c6-4198-ae0b-f76d6ef4a284,30f8548e-cf60-476a-a9b7-14a4ba2ae1c2
2019-07-20 22:45:05,016b1b4b-082b-4cad-9ba4-ad9446a35288,1,32d5f924-10c6-4198-ae0b-f76d6ef4a284,30f8548e-cf60-476a-a9b7-14a4ba2ae1c2
2019-07-20 22:48:11,691351e6-c871-41c1-8654-0f9ad7f39814,1,32d5f924-10c6-4198-ae0b-f76d6ef4a284,baca5b53-639c-4f64-91b5-c165fabe49c3
2019-07-20 22:48:11,097284ce-a27a-47a0-b1be-bb45f4f21a1c,1,32d5f924-10c6-4198-ae0b-f76d6ef4a284,baca5b53-639c-4f64-91b5-c165fabe49c3
2019-07-20 22:55:06,3d3416d0-709e-4b5e-9dee-0932651c620b,1,32d5f924-10c6-4198-ae0b-f76d6ef4a284,30d2d5bc-1286-4d67-84bd-450b4457e5ee
2019-07-20 22:55:21,1354a6ef-9572-451f-ad4d-88353d25a4ca,1,32d5f924-10c6-4198-ae0b-f76d6ef4a284,30d2d5bc-1286-4d67-84bd-450b4457e5ee
2019-07-20 22:55:31,016b1b4b-082b-4cad-9ba4-ad9446a35288,1,32d5f924-10c6-4198-ae0b-f76d6ef4a284,30d2d5bc-1286-4d67-84bd-450b4457e5ee
2019-07-20 22:55:37,dc72ae98-e704-4399-8bf2-e9e476d1b4bc,1,32d5f924-10c6-4198-ae0b-f76d6ef4a284,62791ea5-793c-4e0c-8d0d-ba8a3cd708a4
2019-07-20 23:30:03,691351e6-c871-41c1-8654-0f9ad7f39814,1,32d5f924-10c6-4198-ae0b-f76d6ef4a284,96a02e4d-d2a4-4326-8354-598ef354a6da
2019-07-20 23:30:03,097284ce-a27a-47a0-b1be-bb45f4f21a1c,1,32d5f924-10c6-4198-ae0b-f76d6ef4a284,96a02e4d-d2a4-4326-8354-598ef354a6da
2019-07-20 22:31:50,215596fc-6bc2-42e4-94dc-160de9c9a0b6,1,23f2a238-02d4-44e5-a742-294750558ab4,23f2a238-02d4-44e5-a742-294750558ab4
2019-07-20 22:38:35,215596fc-6bc2-42e4-94dc-160de9c9a0b6,1,23f2a238-02d4-44e5-a742-294750558ab4,23f2a238-02d4-44e5-a742-294750558ab4
2019-07-20 22:38:55,215596fc-6bc2-42e4-94dc-160de9c9a0b6,1,23f2a238-02d4-44e5-a742-294750558ab4,23f2a238-02d4-44e5-a742-294750558ab4
2019-07-20 23:06:21,215596fc-6bc2-42e4-94dc-160de9c9a0b6,1,23f2a238-02d4-44e5-a742-294750558ab4,23f2a238-02d4-44e5-a742-294750558ab4
2019-07-20 23:43:38,215596fc-6bc2-42e4-94dc-160de9c9a0b6,1,23f2a238-02d4-44e5-a742-294750558ab4,23f2a238-02d4-44e5-a742-294750558ab4
2019-07-20 22:22:13,ba6f8409-c051-45db-be5b-d2f35ab79122,1,59587e11-3ed1-48ac-81b3-81c1825afdb3,59587e11-3ed1-48ac-81b3-81c1825afdb3
2019-07-20 23:21:18,ba6f8409-c051-45db-be5b-d2f35ab79122,1,59587e11-3ed1-48ac-81b3-81c1825afdb3,59587e11-3ed1-48ac-81b3-81c1825afdb3
2019-07-20 22:38:15,4b6c0ccf-68a4-4a0c-922f-7384feff1a5b,1,69d20fd6-f1a4-4a0c-a07b-ccd6b78c1459,69d20fd6-f1a4-4a0c-a07b-ccd6b78c1459
2019-07-20 22:47:55,450b3eb4-39a7-4058-b32f-2912ad990bf3,1,a39809c5-3594-4e57-a5e7-efa4038f5f0b,a39809c5-3594-4e57-a5e7-efa4038f5f0b
2019-07-20 22:51:31,450b3eb4-39a7-4058-b32f-2912ad990bf3,1,a39809c5-3594-4e57-a5e7-efa4038f5f0b,a39809c5-3594-4e57-a5e7-efa4038f5f0b
2019-07-20 22:31:20,f1c21729-dcbb-437f-88ed-84ce0a6f2e2e,1,5c33b7ef-f3f4-4ab1-85fb-a634a4ac96d8,5c33b7ef-f3f4-4ab1-85fb-a634a4ac96d8
2019-07-20 22:56:06,f1c21729-dcbb-437f-88ed-84ce0a6f2e2e,1,5c33b7ef-f3f4-4ab1-85fb-a634a4ac96d8,5c33b7ef-f3f4-4ab1-85fb-a634a4ac96d8
2019-07-20 22:32:50,965931ee-0c28-4278-90ff-e20e9480536c,1,ee4cc8a1-98a1-4684-bd8b-5d6344065945,ee4cc8a1-98a1-4684-bd8b-5d6344065945
2019-07-20 22:27:04,99a771d1-fc18-4e0c-8311-4dd169a9d7ee,1,a50a834b-4849-43a7-98b8-53f0bbbc3d81,a50a834b-4849-43a7-98b8-53f0bbbc3d81
2019-07-20 23:35:53,99a771d1-fc18-4e0c-8311-4dd169a9d7ee,1,a50a834b-4849-43a7-98b8-53f0bbbc3d81,a50a834b-4849-43a7-98b8-53f0bbbc3d81
2019-07-20 23:36:13,99a771d1-fc18-4e0c-8311-4dd169a9d7ee,1,a50a834b-4849-43a7-98b8-53f0bbbc3d81,a50a834b-4849-43a7-98b8-53f0bbbc3d81
2019-07-20 23:36:33,99a771d1-fc18-4e0c-8311-4dd169a9d7ee,1,a50a834b-4849-43a7-98b8-53f0bbbc3d81,a50a834b-4849-43a7-98b8-53f0bbbc3d81
2019-07-20 22:33:40,5ac2d69a-0dbd-4c31-a021-3bc113e891e9,1,871c8334-4039-4465-b729-1119befdcb26,871c8334-4039-4465-b729-1119befdcb26
2019-07-20 22:33:55,5ac2d69a-0dbd-4c31-a021-3bc113e891e9,1,871c8334-4039-4465-b729-1119befdcb26,871c8334-4039-4465-b729-1119befdcb26
2019-07-20 22:34:05,5ac2d69a-0dbd-4c31-a021-3bc113e891e9,1,871c8334-4039-4465-b729-1119befdcb26,871c8334-4039-4465-b729-1119befdcb26
2019-07-20 22:43:01,5ac2d69a-0dbd-4c31-a021-3bc113e891e9,1,871c8334-4039-4465-b729-1119befdcb26,871c8334-4039-4465-b729-1119befdcb26
2019-07-20 23:23:03,5ac2d69a-0dbd-4c31-a021-3bc113e891e9,1,871c8334-4039-4465-b729-1119befdcb26,871c8334-4039-4465-b729-1119befdcb26
2019-07-20 23:23:18,5ac2d69a-0dbd-4c31-a021-3bc113e891e9,1,871c8334-4039-4465-b729-1119befdcb26,871c8334-4039-4465-b729-1119befdcb26
2019-07-20 23:46:03,5ac2d69a-0dbd-4c31-a021-3bc113e891e9,1,871c8334-4039-4465-b729-1119befdcb26,871c8334-4039-4465-b729-1119befdcb26
2019-07-20 23:45:18,cdaa0da6-b836-4454-beaf-fb15845cba9f,1,1fdc52ea-026b-46c5-ac87-6085ac010972,1fdc52ea-026b-46c5-ac87-6085ac010972
2019-07-20 22:35:20,2cfd86cf-2e2d-4167-b229-b8e3cd11c580,1,b85059ef-bd08-47c7-ad44-b7e31a4e0f4e,b85059ef-bd08-47c7-ad44-b7e31a4e0f4e
2019-07-20 22:37:45,c01db000-1a07-47c2-8739-2670c95d5c6b,1,a5f51636-28ee-4c09-8349-8b3259b6d0ba,a5f51636-28ee-4c09-8349-8b3259b6d0ba
2019-07-20 23:04:07,c01db000-1a07-47c2-8739-2670c95d5c6b,1,a5f51636-28ee-4c09-8349-8b3259b6d0ba,a5f51636-28ee-4c09-8349-8b3259b6d0ba
2019-07-20 23:06:07,c01db000-1a07-47c2-8739-2670c95d5c6b,1,a5f51636-28ee-4c09-8349-8b3259b6d0ba,a5f51636-28ee-4c09-8349-8b3259b6d0ba
2019-07-20 22:44:06,c1eb163f-aec6-4e1b-bb21-2509d8a6a5d8,1,5c4ac6e5-8651-4c21-b0fd-b6b24c11e451,5c4ac6e5-8651-4c21-b0fd-b6b24c11e451
2019-07-20 22:15:22,37f822e2-4284-4133-a0ac-f3bfb79ee287,1,e6b29ff3-a913-40b9-a006-a6af873b0ed9,e6b29ff3-a913-40b9-a006-a6af873b0ed9
2019-07-20 22:45:05,37f822e2-4284-4133-a0ac-f3bfb79ee287,1,e6b29ff3-a913-40b9-a006-a6af873b0ed9,e6b29ff3-a913-40b9-a006-a6af873b0ed9
2019-07-20 23:30:28,37f822e2-4284-4133-a0ac-f3bfb79ee287,1,e6b29ff3-a913-40b9-a006-a6af873b0ed9,e6b29ff3-a913-40b9-a006-a6af873b0ed9
2019-07-20 23:49:54,da65c165-6f57-4365-a6be-d5e85e3fdbef,1,a905fc78-3379-4906-b276-f0cd6da6f4e6,a905fc78-3379-4906-b276-f0cd6da6f4e6
2019-07-20 23:50:14,da65c165-6f57-4365-a6be-d5e85e3fdbef,1,a905fc78-3379-4906-b276-f0cd6da6f4e6,a905fc78-3379-4906-b276-f0cd6da6f4e6
2019-07-20 22:57:16,f28bf1f8-b8c7-46d7-8024-b6659b024de7,1,736ca8b3-bbfb-44ef-9a3d-8cac56aada22,736ca8b3-bbfb-44ef-9a3d-8cac56aada22
2019-07-20 23:12:27,f28bf1f8-b8c7-46d7-8024-b6659b024de7,1,736ca8b3-bbfb-44ef-9a3d-8cac56aada22,736ca8b3-bbfb-44ef-9a3d-8cac56aada22
2019-07-20 23:13:27,f28bf1f8-b8c7-46d7-8024-b6659b024de7,1,736ca8b3-bbfb-44ef-9a3d-8cac56aada22,736ca8b3-bbfb-44ef-9a3d-8cac56aada22
2019-07-20 23:20:32,f28bf1f8-b8c7-46d7-8024-b6659b024de7,1,736ca8b3-bbfb-44ef-9a3d-8cac56aada22,736ca8b3-bbfb-44ef-9a3d-8cac56aada22
2019-07-20 23:25:08,f28bf1f8-b8c7-46d7-8024-b6659b024de7,1,736ca8b3-bbfb-44ef-9a3d-8cac56aada22,736ca8b3-bbfb-44ef-9a3d-8cac56aada22
2019-07-20 22:17:32,515955ca-1cad-479b-b8a1-d6f87da8913b,1,0c9af223-5da7-4346-a5e5-9b418f35e343,0c9af223-5da7-4346-a5e5-9b418f35e343
2019-07-20 23:46:13,515955ca-1cad-479b-b8a1-d6f87da8913b,1,0c9af223-5da7-4346-a5e5-9b418f35e343,0c9af223-5da7-4346-a5e5-9b418f35e343
2019-07-20 22:15:07,4e2dd5a2-12b5-4d0e-818a-becd76ec6cae,1,18f2a74c-debe-4e4e-9f3b-c80502cd39b1,18f2a74c-debe-4e4e-9f3b-c80502cd39b1
2019-07-20 22:19:38,4e2dd5a2-12b5-4d0e-818a-becd76ec6cae,1,18f2a74c-debe-4e4e-9f3b-c80502cd39b1,18f2a74c-debe-4e4e-9f3b-c80502cd39b1
2019-07-20 22:35:30,4e2dd5a2-12b5-4d0e-818a-becd76ec6cae,1,18f2a74c-debe-4e4e-9f3b-c80502cd39b1,18f2a74c-debe-4e4e-9f3b-c80502cd39b1
2019-07-20 22:31:30,b20392e1-7763-46c6-a56f-124237e2c904,1,650df1d3-7edb-4fcc-a866-4d40cb23501f,650df1d3-7edb-4fcc-a866-4d40cb23501f
2019-07-20 22:43:50,b20392e1-7763-46c6-a56f-124237e2c904,1,650df1d3-7edb-4fcc-a866-4d40cb23501f,650df1d3-7edb-4fcc-a866-4d40cb23501f
2019-07-20 22:44:00,b20392e1-7763-46c6-a56f-124237e2c904,1,650df1d3-7edb-4fcc-a866-4d40cb23501f,650df1d3-7edb-4fcc-a866-4d40cb23501f
2019-07-20 23:24:23,b20392e1-7763-46c6-a56f-124237e2c904,1,650df1d3-7edb-4fcc-a866-4d40cb23501f,650df1d3-7edb-4fcc-a866-4d40cb23501f
2019-07-20 22:12:06,61143f6b-a52e-476d-8bb1-5324512e1730,1,78459ac6-a50a-4666-929d-da713b766c33,78459ac6-a50a-4666-929d-da713b766c33
2019-07-20 22:31:00,61143f6b-a52e-476d-8bb1-5324512e1730,1,78459ac6-a50a-4666-929d-da713b766c33,78459ac6-a50a-4666-929d-da713b766c33
2019-07-20 22:35:25,61143f6b-a52e-476d-8bb1-5324512e1730,1,78459ac6-a50a-4666-929d-da713b766c33,78459ac6-a50a-4666-929d-da713b766c33
2019-07-20 22:55:01,e26f3704-c398-4343-99c7-2267a676dd63,1,b4ed2950-41bb-4072-96be-41f3462eeb83,b4ed2950-41bb-4072-96be-41f3462eeb83
2019-07-20 23:07:17,d75386d8-b4aa-45ab-95ca-779cbab9b1c6,1,0039d546-45ae-4847-9c8b-31507405dc27,0039d546-45ae-4847-9c8b-31507405dc27
2019-07-20 23:16:58,d75386d8-b4aa-45ab-95ca-779cbab9b1c6,1,0039d546-45ae-4847-9c8b-31507405dc27,0039d546-45ae-4847-9c8b-31507405dc27
2019-07-20 23:29:38,d75386d8-b4aa-45ab-95ca-779cbab9b1c6,1,0039d546-45ae-4847-9c8b-31507405dc27,0039d546-45ae-4847-9c8b-31507405dc27
2019-07-20 22:22:53,f3e2cf7d-b5ac-47f1-83d6-b4d49b4e0995,0,NA,NA
2019-07-20 22:23:03,f3e2cf7d-b5ac-47f1-83d6-b4d49b4e0995,0,NA,NA
2019-07-20 22:23:23,4e2dd5a2-12b5-4d0e-818a-becd76ec6cae,0,NA,NA
2019-07-20 22:23:58,4e2dd5a2-12b5-4d0e-818a-becd76ec6cae,0,NA,NA
2019-07-20 22:26:24,f28bf1f8-b8c7-46d7-8024-b6659b024de7,0,NA,NA
2019-07-20 22:26:59,ebdeef90-0323-483c-b988-ef67f0342967,0,NA,NA
2019-07-20 22:27:49,4e2dd5a2-12b5-4d0e-818a-becd76ec6cae,0,NA,NA
2019-07-20 22:29:14,ebdeef90-0323-483c-b988-ef67f0342967,0,NA,NA
2019-07-20 22:29:24,ebdeef90-0323-483c-b988-ef67f0342967,0,NA,NA
2019-07-20 22:30:40,f28bf1f8-b8c7-46d7-8024-b6659b024de7,0,NA,NA
2019-07-20 22:30:50,da65c165-6f57-4365-a6be-d5e85e3fdbef,0,NA,NA
2019-07-20 22:30:55,f28bf1f8-b8c7-46d7-8024-b6659b024de7,0,NA,NA
2019-07-20 22:31:10,cdaa0da6-b836-4454-beaf-fb15845cba9f,0,NA,NA
2019-07-20 22:31:25,cdaa0da6-b836-4454-beaf-fb15845cba9f,0,NA,NA
2019-07-20 22:31:45,da65c165-6f57-4365-a6be-d5e85e3fdbef,0,NA,NA
2019-07-20 22:31:54,cdaa0da6-b836-4454-beaf-fb15845cba9f,0,NA,NA
2019-07-20 22:32:55,450b3eb4-39a7-4058-b32f-2912ad990bf3,0,NA,NA
2019-07-20 22:33:10,450b3eb4-39a7-4058-b32f-2912ad990bf3,0,NA,NA
2019-07-20 22:34:40,450b3eb4-39a7-4058-b32f-2912ad990bf3,0,NA,NA
2019-07-20 22:38:50,da65c165-6f57-4365-a6be-d5e85e3fdbef,0,NA,NA
2019-07-20 22:39:00,4e2dd5a2-12b5-4d0e-818a-becd76ec6cae,0,NA,NA
2019-07-20 22:39:15,4e2dd5a2-12b5-4d0e-818a-becd76ec6cae,0,NA,NA
2019-07-20 22:39:45,f3e2cf7d-b5ac-47f1-83d6-b4d49b4e0995,0,NA,NA
2019-07-20 22:39:55,f3e2cf7d-b5ac-47f1-83d6-b4d49b4e0995,0,NA,NA
2019-07-20 22:44:30,5ac2d69a-0dbd-4c31-a021-3bc113e891e9,0,NA,NA
2019-07-20 22:44:45,5ac2d69a-0dbd-4c31-a021-3bc113e891e9,0,NA,NA
2019-07-20 22:45:25,f3e2cf7d-b5ac-47f1-83d6-b4d49b4e0995,0,NA,NA
2019-07-20 22:45:35,f3e2cf7d-b5ac-47f1-83d6-b4d49b4e0995,0,NA,NA
2019-07-20 22:47:21,1b3588e7-c115-4b0e-a3f8-130049693474,0,NA,NA
2019-07-20 22:47:30,1b3588e7-c115-4b0e-a3f8-130049693474,0,NA,NA
2019-07-20 22:47:36,f28bf1f8-b8c7-46d7-8024-b6659b024de7,0,NA,NA
2019-07-20 22:47:51,f28bf1f8-b8c7-46d7-8024-b6659b024de7,0,NA,NA
2019-07-20 22:48:01,f1c21729-dcbb-437f-88ed-84ce0a6f2e2e,0,NA,NA
2019-07-20 22:48:11,f1c21729-dcbb-437f-88ed-84ce0a6f2e2e,0,NA,NA
2019-07-20 22:50:46,5ac2d69a-0dbd-4c31-a021-3bc113e891e9,0,NA,NA
2019-07-20 22:52:31,f28bf1f8-b8c7-46d7-8024-b6659b024de7,0,NA,NA
2019-07-20 22:53:41,5ac2d69a-0dbd-4c31-a021-3bc113e891e9,0,NA,NA
2019-07-20 22:54:01,5ac2d69a-0dbd-4c31-a021-3bc113e891e9,0,NA,NA
2019-07-20 22:54:11,61143f6b-a52e-476d-8bb1-5324512e1730,0,NA,NA
2019-07-20 22:54:21,61143f6b-a52e-476d-8bb1-5324512e1730,0,NA,NA
2019-07-20 22:54:21,dc72ae98-e704-4399-8bf2-e9e476d1b4bc,0,NA,NA
2019-07-20 22:54:36,61143f6b-a52e-476d-8bb1-5324512e1730,0,NA,NA
2019-07-20 22:54:51,37f822e2-4284-4133-a0ac-f3bfb79ee287,0,NA,NA
2019-07-20 22:55:01,edeb8d77-d4e0-452f-8ab0-151d9507c797,0,NA,NA
2019-07-20 22:55:06,016b1b4b-082b-4cad-9ba4-ad9446a35288,0,NA,NA
2019-07-20 22:55:06,37f822e2-4284-4133-a0ac-f3bfb79ee287,0,NA,NA
2019-07-20 22:55:16,016b1b4b-082b-4cad-9ba4-ad9446a35288,0,NA,NA
2019-07-20 22:55:16,37f822e2-4284-4133-a0ac-f3bfb79ee287,0,NA,NA
2019-07-20 22:55:21,61143f6b-a52e-476d-8bb1-5324512e1730,0,NA,NA
2019-07-20 22:55:21,dc72ae98-e704-4399-8bf2-e9e476d1b4bc,0,NA,NA
2019-07-20 22:55:31,37f822e2-4284-4133-a0ac-f3bfb79ee287,0,NA,NA
2019-07-20 22:55:36,61143f6b-a52e-476d-8bb1-5324512e1730,0,NA,NA
2019-07-20 22:55:41,5ac2d69a-0dbd-4c31-a021-3bc113e891e9,0,NA,NA
2019-07-20 22:55:41,8c41072a-dab0-4be9-9a39-5fd785a642a9,0,NA,NA
2019-07-20 22:55:46,61143f6b-a52e-476d-8bb1-5324512e1730,0,NA,NA
2019-07-20 22:55:46,dc72ae98-e704-4399-8bf2-e9e476d1b4bc,0,NA,NA
2019-07-20 22:55:51,5ac2d69a-0dbd-4c31-a021-3bc113e891e9,0,NA,NA
2019-07-20 22:55:51,8c41072a-dab0-4be9-9a39-5fd785a642a9,0,NA,NA
2019-07-20 22:56:01,5ac2d69a-0dbd-4c31-a021-3bc113e891e9,0,NA,NA
2019-07-20 22:56:01,8c41072a-dab0-4be9-9a39-5fd785a642a9,0,NA,NA
2019-07-20 22:56:11,5ac2d69a-0dbd-4c31-a021-3bc113e891e9,0,NA,NA
2019-07-20 22:56:11,8c41072a-dab0-4be9-9a39-5fd785a642a9,0,NA,NA
2019-07-20 22:58:26,37f822e2-4284-4133-a0ac-f3bfb79ee287,0,NA,NA
2019-07-20 22:59:11,37f822e2-4284-4133-a0ac-f3bfb79ee287,0,NA,NA
2019-07-20 23:01:31,5ac2d69a-0dbd-4c31-a021-3bc113e891e9,0,NA,NA
2019-07-20 23:02:51,5ac2d69a-0dbd-4c31-a021-3bc113e891e9,0,NA,NA
2019-07-20 23:03:51,450b3eb4-39a7-4058-b32f-2912ad990bf3,0,NA,NA
2019-07-20 23:05:17,5ac2d69a-0dbd-4c31-a021-3bc113e891e9,0,NA,NA
2019-07-20 23:06:31,450b3eb4-39a7-4058-b32f-2912ad990bf3,0,NA,NA
2019-07-20 23:07:37,450b3eb4-39a7-4058-b32f-2912ad990bf3,0,NA,NA
2019-07-20 23:07:52,450b3eb4-39a7-4058-b32f-2912ad990bf3,0,NA,NA
2019-07-20 23:11:07,450b3eb4-39a7-4058-b32f-2912ad990bf3,0,NA,NA
2019-07-20 23:11:22,450b3eb4-39a7-4058-b32f-2912ad990bf3,0,NA,NA
2019-07-20 23:11:37,450b3eb4-39a7-4058-b32f-2912ad990bf3,0,NA,NA
2019-07-20 23:18:47,215596fc-6bc2-42e4-94dc-160de9c9a0b6,0,NA,NA
2019-07-20 23:18:57,215596fc-6bc2-42e4-94dc-160de9c9a0b6,0,NA,NA
2019-07-20 23:19:42,61143f6b-a52e-476d-8bb1-5324512e1730,0,NA,NA
2019-07-20 23:23:22,f28bf1f8-b8c7-46d7-8024-b6659b024de7,0,NA,NA
2019-07-20 23:23:32,5ac2d69a-0dbd-4c31-a021-3bc113e891e9,0,NA,NA
2019-07-20 23:25:38,ba6f8409-c051-45db-be5b-d2f35ab79122,0,NA,NA
2019-07-20 23:25:48,ba6f8409-c051-45db-be5b-d2f35ab79122,0,NA,NA
2019-07-20 23:26:02,ba6f8409-c051-45db-be5b-d2f35ab79122,0,NA,NA
2019-07-20 23:26:18,ba6f8409-c051-45db-be5b-d2f35ab79122,0,NA,NA
2019-07-20 23:29:23,ba6f8409-c051-45db-be5b-d2f35ab79122,0,NA,NA
2019-07-20 23:29:48,ba6f8409-c051-45db-be5b-d2f35ab79122,0,NA,NA
2019-07-20 23:29:53,f1c21729-dcbb-437f-88ed-84ce0a6f2e2e,0,NA,NA
2019-07-20 23:30:03,f1c21729-dcbb-437f-88ed-84ce0a6f2e2e,0,NA,NA
2019-07-20 23:30:23,f1c21729-dcbb-437f-88ed-84ce0a6f2e2e,0,NA,NA
2019-07-20 23:34:33,f1c21729-dcbb-437f-88ed-84ce0a6f2e2e,0,NA,NA
2019-07-20 23:35:43,cdaa0da6-b836-4454-beaf-fb15845cba9f,0,NA,NA
2019-07-20 23:35:58,450b3eb4-39a7-4058-b32f-2912ad990bf3,0,NA,NA
2019-07-20 23:36:08,450b3eb4-39a7-4058-b32f-2912ad990bf3,0,NA,NA
2019-07-20 23:36:33,1e0c5ef3-7677-4201-aa6e-35f4c9bc350f,0,NA,NA
2019-07-20 23:36:43,1e0c5ef3-7677-4201-aa6e-35f4c9bc350f,0,NA,NA
2019-07-20 23:36:43,99a771d1-fc18-4e0c-8311-4dd169a9d7ee,0,NA,NA
2019-07-20 23:36:58,99a771d1-fc18-4e0c-8311-4dd169a9d7ee,0,NA,NA
2019-07-20 23:37:08,99a771d1-fc18-4e0c-8311-4dd169a9d7ee,0,NA,NA
2019-07-20 23:37:18,99a771d1-fc18-4e0c-8311-4dd169a9d7ee,0,NA,NA
2019-07-20 23:37:23,450b3eb4-39a7-4058-b32f-2912ad990bf3,0,NA,NA
2019-07-20 23:37:33,450b3eb4-39a7-4058-b32f-2912ad990bf3,0,NA,NA
2019-07-20 23:37:43,450b3eb4-39a7-4058-b32f-2912ad990bf3,0,NA,NA
2019-07-20 23:37:43,84b05212-3367-44bb-82e7-69db9100acca,0,NA,NA
2019-07-20 23:39:43,f1c21729-dcbb-437f-88ed-84ce0a6f2e2e,0,NA,NA
2019-07-20 23:39:58,f1c21729-dcbb-437f-88ed-84ce0a6f2e2e,0,NA,NA
2019-07-20 23:40:07,f1c21729-dcbb-437f-88ed-84ce0a6f2e2e,0,NA,NA
2019-07-20 23:41:38,37f822e2-4284-4133-a0ac-f3bfb79ee287,0,NA,NA
2019-07-20 23:41:48,37f822e2-4284-4133-a0ac-f3bfb79ee287,0,NA,NA
2019-07-20 23:43:43,4b6c0ccf-68a4-4a0c-922f-7384feff1a5b,0,NA,NA
2019-07-20 23:44:03,4b6c0ccf-68a4-4a0c-922f-7384feff1a5b,0,NA,NA
