actor,node
3292d655-b495-420f-844d-c4a524b25ffb,010fbab5-bcae-49ad-982a-667e9defa9a8
e40ba73a-83db-4170-b3fc-ed3dc0f62176,a19b5f5e-05db-40ca-94e0-0e60dcf66af0
d4793733-0794-49dd-a57c-fadbf4a95dcd,a19b5f5e-05db-40ca-94e0-0e60dcf66af0
be47875c-4159-4a8c-b877-6a609a8742c5,bb476c06-87a2-4ddd-b0fa-60593570ff95
995db312-c8a9-47cb-b14a-a59c6b5faecf,f2b19f66-6c4a-4cd7-b0cf-c3dadae4c54b
a6a8360d-782d-456f-a448-71ec05810e50,f2b19f66-6c4a-4cd7-b0cf-c3dadae4c54b
05fe26b8-d724-40de-8a00-a5f2c3659e22,84be05c0-bd0e-4909-a8cc-bbbbff392245
6ff7d095-16af-4178-b440-66a1fd04cb5e,3d630d58-3fda-4055-9997-92d5771515fb
910d3909-18ed-4b69-8ab3-9c26fbd69cf9,3d630d58-3fda-4055-9997-92d5771515fb
9220ffd0-c02d-4c3f-8f1a-87cb50ccd5f9,07a37c5d-6d71-471d-be32-5e23e7a4f4b7
d1cc88a6-34f5-46de-aa36-3e6af1b096bc,dfd6b3ce-c904-44fd-beb0-453030ad6452
8dc41015-f413-454c-8c04-437a4cc20791,07a37c5d-6d71-471d-be32-5e23e7a4f4b7
a34ef0b2-2861-4c8a-8dd2-646d903bd443,9321dc8a-2a27-4da1-8e53-0e32554b1991
cdcd4bc9-a56e-43f9-bef4-23ae44e4f8fa,d5090720-135f-44a1-a7c4-d47405fe9f81
b7f779e7-ef6e-44eb-a9ae-60feb72c48a2,9321dc8a-2a27-4da1-8e53-0e32554b1991
33f6ec44-ce41-4c9e-9d58-b12cf2884d86,92ba6a79-cf1e-4e15-8c8e-75b56477a75e
825e3f13-f402-4acc-a2e2-798fa20811bf,e72f68f8-23f3-4422-a7b8-539cfbb47ff2
0c203c34-1df2-4030-8fda-940683dbbaea,92ba6a79-cf1e-4e15-8c8e-75b56477a75e
4cdb4ad8-a8d0-4917-8b94-8e2ebc6de6f5,4482d8c4-f88a-4cdb-8f3c-ead011063f02
901d5ddc-5860-4a9a-a7bf-a4d634b9cc52,4482d8c4-f88a-4cdb-8f3c-ead011063f02
d9c30d99-e2d9-46cc-8369-da6581de8385,6f7a2df5-ddf9-4462-b1a1-fd12a4c6c91a
a8539e19-d0a9-44b2-ac19-e5315a629891,79c81196-f984-4011-996e-b1118513755d
0fa07c81-31ab-4aa1-94d9-51aaea02a052,79c81196-f984-4011-996e-b1118513755d
eb8e69ac-d0bd-4573-8e02-31ed76c27fa2,77dbb15a-fae4-4334-8c3c-c9139843cb8c
64d04104-ebc2-4084-8dbb-dd85ad86982b,31a0a2b3-93c5-4947-8e4c-c1186546c904
9c7f65e8-7880-43be-aea5-aee6683ad30c,22a93181-1807-468b-8b5d-9d7dbd456c1e
ab162e51-4a6e-47dc-a3b8-7158b75cbef1,31a0a2b3-93c5-4947-8e4c-c1186546c904
d9c7d4cc-26d2-4ba7-b5a0-a9d8bd27b6c4,b1588545-9789-4c82-b3e7-af56e798a0c3
07a52ad3-f195-4bcf-867e-d473d8f6e1cf,b1588545-9789-4c82-b3e7-af56e798a0c3
07600012-64bf-4a04-8976-8b99621729c8,4579ec55-5c81-4304-a376-a6c7cd527cd1
84e2a4b3-bb83-43b7-adad-0937b0a2f59d,1b802772-278d-41f6-b97f-7439d905cc46
0fc131fa-3e18-4a41-809f-e726a1ef8157,2247fbd6-e4b2-404e-8ab9-968e605a8514
077366e9-8234-43ff-bfb7-e46acf11dd5c,2247fbd6-e4b2-404e-8ab9-968e605a8514
a78e23f3-bdf4-4247-803e-be509c8bdb97,2d9411d6-5d9f-47e0-905c-dbbaee38c597
8662efdc-debf-4cea-a358-5808899b9a8e,063f4d1f-6048-4a9d-95a2-06bf540130b2
396743be-176d-462b-9812-73520a977fae,063f4d1f-6048-4a9d-95a2-06bf540130b2
dac87d67-7f2d-4cdf-8587-b1f41129848e,61f2384f-19d0-4daf-990e-c17364d57b6b
c215ec82-9668-42aa-b454-e49d3213e6c0,a1a62421-c9ca-4413-b975-f45897c84474
ca039d4f-951b-4bc1-8133-534373800b6f,a1a62421-c9ca-4413-b975-f45897c84474
db6239de-e407-46d0-9b8f-42f3f56fc07d,afe5d62c-e338-403a-b4d2-fd5750107e1e
267246f0-ef0e-4d07-80ec-3523a05ce75a,8fdbe9c2-d7bc-46c8-b1c5-90a0248d6bde
621e0276-9f0d-4e48-8f9e-62ba174c7d7b,8fdbe9c2-d7bc-46c8-b1c5-90a0248d6bde
1494c5e1-bc42-4e28-8021-67fa5950af0a,914ee151-124c-4ea0-a560-ecb26562a806
6f3d24e7-8505-465f-b23d-299d488b63cb,914ee151-124c-4ea0-a560-ecb26562a806
514a1970-3b9c-4645-9df9-b2f1b440103b,1b3d73c5-0c22-49dd-95d7-e4aa4bf106ef
bca352a0-2c51-4b7f-9ebe-1ae6597def51,a19b5f5e-05db-40ca-94e0-0e60dcf66af0
e695cbad-5a00-4a69-9614-30d825767f92,c1fa5cf4-6caf-4994-bef0-e582bffd5b3a
fc657a4c-f2d2-4424-9c71-538f290f963e,a19b5f5e-05db-40ca-94e0-0e60dcf66af0
83ea47a6-a79c-4c1c-b912-ed6a5a3cacf6,a3a1d9a8-3a7b-42b3-8fca-31c2258541b5
a2bd1bf3-0af9-4fcf-a5a6-daa270a4d9f8,f2b19f66-6c4a-4cd7-b0cf-c3dadae4c54b
aa57fc42-9d68-4bf6-bd56-70bc3e4ef15a,f2b19f66-6c4a-4cd7-b0cf-c3dadae4c54b
b01f523e-4484-420c-b849-994e2803b3d7,3d630d58-3fda-4055-9997-92d5771515fb
532b1bed-23d9-42ee-af16-0af28946ec24,3d630d58-3fda-4055-9997-92d5771515fb
1f925270-b18a-4e34-b5d3-7d839aa07656,4242dafa-2a64-4148-a9bc-0cc9cc6a77fc
cb453c86-ae32-4f5f-b7ea-f552a1244f43,07a37c5d-6d71-471d-be32-5e23e7a4f4b7
b790ec4b-5662-45b6-8b0a-5d0200d8841a,07a37c5d-6d71-471d-be32-5e23e7a4f4b7
1beb70c3-644f-46c1-acef-dd8447461279,bf2fbd6c-96f6-4b5b-a800-9b7eadc40627
3076fe01-47a8-4b57-81d5-a7150b4cb616,d5e69b43-67ed-45a9-9169-f84a0a68035d
0371b605-6c3a-4de2-84d0-62e890a6a16e,9321dc8a-2a27-4da1-8e53-0e32554b1991
5a967348-099c-4633-b498-8567b569c63a,9321dc8a-2a27-4da1-8e53-0e32554b1991
29098b95-b40c-4f1e-b0fb-9df69ce5e4e6,92ba6a79-cf1e-4e15-8c8e-75b56477a75e
98580306-3b3b-4417-97de-242fccad8589,3b2c4d49-c598-4058-b628-39c8df0763cf
47d2aed2-1de4-4b3e-ab83-9d8c55dc3141,92ba6a79-cf1e-4e15-8c8e-75b56477a75e
cfcab172-a4d9-4f4c-a31b-b4aaa6ea7b10,4482d8c4-f88a-4cdb-8f3c-ead011063f02
cad24977-f0b3-4438-8eaf-7d6dfba33659,4d85798a-3227-488a-b0c6-26d34f0b03d9
5e3812cb-48b3-46f4-8abd-a66b51364c1d,4482d8c4-f88a-4cdb-8f3c-ead011063f02
948d9e40-b062-46c6-88ed-f58e6b94e687,79c81196-f984-4011-996e-b1118513755d
8eafab99-8182-49cf-a32a-d4864098ca32,a3cf30fc-425e-4e29-bf5e-4cad8a47dd29
a2f630fa-421c-43ad-9f55-df50e5499ee9,79c81196-f984-4011-996e-b1118513755d
9de0ece4-9a69-4268-b938-41b1d67e273a,31a0a2b3-93c5-4947-8e4c-c1186546c904
3debd351-ce08-4588-9559-9a3377cf7a81,9816e50d-2f40-40d7-b26d-56ac2789077c
f3131e5c-ea73-45db-b793-8a4c36459494,31a0a2b3-93c5-4947-8e4c-c1186546c904
ba535c44-be10-4e03-880a-b705ea761f8b,b1588545-9789-4c82-b3e7-af56e798a0c3
1d8ce5e6-503c-4027-8a9c-41d82e821afa,b1588545-9789-4c82-b3e7-af56e798a0c3
0d8d4df2-10ba-479b-bac4-4d39dc3630a5,b89a0fb0-fb66-4442-a9e4-8f610fa26973
bc2443ee-1a96-4f2b-acb3-d02e7709ed97,2247fbd6-e4b2-404e-8ab9-968e605a8514
fb248092-1ad2-415b-8e0f-8cc3bd49f852,2247fbd6-e4b2-404e-8ab9-968e605a8514
a45c9106-407e-45c7-a344-96fb53d85c8f,8e0cccdc-2587-42de-b781-4e005867f95f
d9606268-649c-46dc-8641-7b4479a71c62,063f4d1f-6048-4a9d-95a2-06bf540130b2
34e86b9b-9639-4b6b-975e-c41cf10e8325,063f4d1f-6048-4a9d-95a2-06bf540130b2
1678168f-e1d1-42ab-a841-7cabd9eb18f7,7d8ae0bb-7223-421d-b6b8-c1f89944e8ea
d68821fd-3e84-40ea-bbd2-cdf12795dfa0,a1a62421-c9ca-4413-b975-f45897c84474
1d8c5ade-8c63-42ec-b894-5637457e410a,a1a62421-c9ca-4413-b975-f45897c84474
659cff5d-ec59-45a7-8204-28c374e62f03,9328a97a-7965-4cb0-ad36-cf9a3da01031
ec8ceae5-0bf8-45dc-8ba2-c92a5f10d1c4,8fdbe9c2-d7bc-46c8-b1c5-90a0248d6bde
37647fbc-05a3-4ca1-9ffe-969f30cd14c2,55d0e9fe-4766-4381-9225-716f2c4c88f9
23a0b868-4aa4-4400-b5b4-79ee6e3c770c,8fdbe9c2-d7bc-46c8-b1c5-90a0248d6bde
eeaa9d3f-ec85-412c-825b-c4a361defd6e,1ac1e997-bbfe-4521-be0d-75de7803e461
a4b9a23c-1cff-4df0-b902-481fe14de5f8,914ee151-124c-4ea0-a560-ecb26562a806
d29ea0c5-7851-458f-9703-5399bfa5f0ca,914ee151-124c-4ea0-a560-ecb26562a806
30b2ce99-4b64-4f0c-8faf-d61ea5c65325,a19b5f5e-05db-40ca-94e0-0e60dcf66af0
9531de0b-5e93-4196-963e-016224ba0b31,a19b5f5e-05db-40ca-94e0-0e60dcf66af0
e156a354-6921-4695-be5c-7b438ea6d836,064fe3df-55d7-4e87-bf45-dbe5bfc64b10
2580da40-ca19-451d-ac09-dc31e8238f3d,f2b19f66-6c4a-4cd7-b0cf-c3dadae4c54b
6032b25b-f005-4911-b728-2d60217c1437,032f2d52-ab9f-467a-9dfa-0982fa136d06
d810d4b0-49c4-4a83-b066-eddc68870942,f2b19f66-6c4a-4cd7-b0cf-c3dadae4c54b
80522939-e846-4b3b-8501-be2f9d6794ef,c98a71d0-280d-4028-b90b-dea7fe6b530b
772c5c31-479b-4e80-95a6-ea4ca3d6655e,3d630d58-3fda-4055-9997-92d5771515fb
23534dbb-f2c4-4363-98fb-a1f96c9551ea,3d630d58-3fda-4055-9997-92d5771515fb
e311f891-5f6f-4212-9cb0-776c6bf59702,07a37c5d-6d71-471d-be32-5e23e7a4f4b7
bac02650-317b-43c9-a977-6f6b38411854,07a37c5d-6d71-471d-be32-5e23e7a4f4b7
39381412-2ade-48cd-883c-50ba4fc6e30a,5d0a311a-9c16-4f78-898c-2d6afa18ab07
8137034e-69a0-4ce6-9693-b059ec27b033,81c7e135-75c3-4b67-8ff7-d8e0db9fc9f6
0fb5808f-37c1-45df-92af-5fc26dda78d2,9321dc8a-2a27-4da1-8e53-0e32554b1991
5b4c7ae8-9b61-40cf-b237-d5817d39c0be,9321dc8a-2a27-4da1-8e53-0e32554b1991
a9e615e7-7a8a-46c1-88f3-f479d6eeadf0,88836d10-4589-47c1-a038-b47c1bf44ec1
f9468e90-e87a-40d5-aa9a-a29a97d90cbb,92ba6a79-cf1e-4e15-8c8e-75b56477a75e
822a0b9c-932b-446e-821c-5b8b5048b76a,92ba6a79-cf1e-4e15-8c8e-75b56477a75e
5e1dee3c-697f-4548-9243-44830b9ddad0,4482d8c4-f88a-4cdb-8f3c-ead011063f02
7de15a73-040c-4e8b-ba9a-072b2095e7df,c1b18c35-32dc-40a0-9530-af549c60bc53
1d503d93-e68f-4db5-818e-ccfa0308c159,4482d8c4-f88a-4cdb-8f3c-ead011063f02
6c052bc2-5da5-47f9-a190-8d0546d49f1b,79c81196-f984-4011-996e-b1118513755d
d5ac7667-da0b-4f83-9313-2436e05ca52d,79c81196-f984-4011-996e-b1118513755d
003ec9d1-d19a-47fc-939b-fc956f20afd1,d0a73964-4396-433a-a3d4-9202b9729650
8364393b-1002-472f-995a-eb8d840c1fd5,6e4f2e46-e69f-4cf3-8560-fa1267f71eb7
87cdcd79-56ed-4af6-9a0d-f2e148031bb8,31a0a2b3-93c5-4947-8e4c-c1186546c904
846dc393-58ad-4e00-a16b-da08ca713c59,31a0a2b3-93c5-4947-8e4c-c1186546c904
bbb93d8c-8c04-4f6e-9281-3993fcf3171c,b1588545-9789-4c82-b3e7-af56e798a0c3
5343c049-e4d0-455a-842f-09210b1b0cc4,b1588545-9789-4c82-b3e7-af56e798a0c3
b2d1a46d-f0ec-48fd-8a7f-d320aad38e71,f5374264-d93f-4981-ad4e-ad0659c28d2b
c212a60f-d3a6-4068-abba-7fdd8001d8dd,2247fbd6-e4b2-404e-8ab9-968e605a8514
ce19def4-3ed1-425d-9d87-8c4d68c23a94,2247fbd6-e4b2-404e-8ab9-968e605a8514
f485a3c8-6d0b-4f90-9924-c69d95644912,09760db1-cedf-45c4-9646-f51665c5707a
8b342a2f-31d6-4c01-a170-21787844367e,063f4d1f-6048-4a9d-95a2-06bf540130b2
771968f6-31f0-48f6-a750-5977b299fd2d,063f4d1f-6048-4a9d-95a2-06bf540130b2
421ddcb8-592c-4cfb-8016-b4d1e775a2f8,b91cc6ac-8506-485c-b508-1bda95014b4e
070ff8ee-f0ab-4fd9-b944-ffbfe343ec23,a1a62421-c9ca-4413-b975-f45897c84474
852e941a-a404-4a8b-ac45-2d390d8c7be5,6b7126b1-0f57-4fb9-b4d8-a3dd056fc84c
66cf86c5-6e99-4d37-9754-6f714933b8d7,a1a62421-c9ca-4413-b975-f45897c84474
ed4975dc-b762-4310-a0b4-2ba8fc6665aa,b6757b03-94bb-4b3f-a369-1466a305b1e2
b0d48b2e-b18d-4f82-be32-7bc5081da183,8fdbe9c2-d7bc-46c8-b1c5-90a0248d6bde
0f24f60f-be33-4bdf-8973-68c69e3426c0,8fdbe9c2-d7bc-46c8-b1c5-90a0248d6bde
e09dc30b-5b96-4f51-be58-d0fd018939a0,914ee151-124c-4ea0-a560-ecb26562a806
72492071-0cce-4b37-b572-8a6b53c96eef,914ee151-124c-4ea0-a560-ecb26562a806
e26c736a-7a41-42c5-af92-fb1fc1a00718,1c42b32c-0470-4997-8530-d25e111ff62d
8136944b-d425-44c5-b9c7-6bddc8fc57d5,a92d2f42-fc4b-4b7f-a442-35365296dc34
9c9ccc15-af39-4993-9a83-31b0ab481b64,a19b5f5e-05db-40ca-94e0-0e60dcf66af0
f1bd42d2-5bac-4c58-8947-156d12fbdf34,a19b5f5e-05db-40ca-94e0-0e60dcf66af0
751a7ae5-b0af-4d28-aad0-e3e7e8614d13,f2b19f66-6c4a-4cd7-b0cf-c3dadae4c54b
56332f11-84df-4821-aadc-7af9fd4df678,780d0f2e-68b2-4997-bcc7-7e929e8569af
ddf05c2b-e6f4-4556-b300-3e9ed649c0c5,f2b19f66-6c4a-4cd7-b0cf-c3dadae4c54b
0104b5e9-c092-423e-b874-859b94f2e7fc,3b3d9c01-e11f-4213-b18d-870947dae725
3c4b07d4-ca32-41b8-bd1f-9a9c51160429,3d630d58-3fda-4055-9997-92d5771515fb
6d7d38d8-6519-46ae-95ff-f47ec12a10b8,3d630d58-3fda-4055-9997-92d5771515fb
68103d1b-f4fb-4198-b5d5-70d68713dc57,176dce30-8a67-41ca-965c-0306f1b87acd
e7908a0a-d6cd-4b15-b317-782ef9bd5298,07a37c5d-6d71-471d-be32-5e23e7a4f4b7
6fe12ec4-85e6-4b16-a4ef-ef0c4e46711e,07a37c5d-6d71-471d-be32-5e23e7a4f4b7
2a8c94f2-54a7-4734-8c86-b400db30257b,9321dc8a-2a27-4da1-8e53-0e32554b1991
f3bcc25d-7105-4a0b-9c3d-de578aacafec,52c7f619-e756-415d-bec7-14d1544726f6
a23853a3-03e4-4ef7-b4aa-793b0193211d,9321dc8a-2a27-4da1-8e53-0e32554b1991
