app_number,app_id,trigger,burn,sink,deploy_date,token_interval
1,06c4892c-81b5-4a3f-9613-64ccc6c92bc7,3292d655-b495-420f-844d-c4a524b25ffb,e40ba73a-83db-4170-b3fc-ed3dc0f62176,d4793733-0794-49dd-a57c-fadbf4a95dcd,2019-12-02 22:02:00,2.000000
2,f1ac6b1a-4d45-467c-a52c-3457b3389d4f,be47875c-4159-4a8c-b877-6a609a8742c5,a6a8360d-782d-456f-a448-71ec05810e50,995db312-c8a9-47cb-b14a-a59c6b5faecf,2019-12-02 22:03:03,2.000000
3,5a98f365-1325-410f-8d82-b192d46c855f,05fe26b8-d724-40de-8a00-a5f2c3659e22,6ff7d095-16af-4178-b440-66a1fd04cb5e,910d3909-18ed-4b69-8ab3-9c26fbd69cf9,2019-12-02 22:04:06,2.000000
4,ae38cae1-9dbe-4642-b503-fcfb273d1965,d1cc88a6-34f5-46de-aa36-3e6af1b096bc,9220ffd0-c02d-4c3f-8f1a-87cb50ccd5f9,8dc41015-f413-454c-8c04-437a4cc20791,2019-12-02 22:05:09,1.000000
5,e71fa3da-2ba5-453b-80ad-7a8f01bdc85d,cdcd4bc9-a56e-43f9-bef4-23ae44e4f8fa,a34ef0b2-2861-4c8a-8dd2-646d903bd443,b7f779e7-ef6e-44eb-a9ae-60feb72c48a2,2019-12-02 22:06:12,1.000000
6,7afcc68f-85c3-46ef-b5c4-c1a616d013c1,825e3f13-f402-4acc-a2e2-798fa20811bf,0c203c34-1df2-4030-8fda-940683dbbaea,33f6ec44-ce41-4c9e-9d58-b12cf2884d86,2019-12-02 22:07:15,1.000000
7,6149b429-8c61-4115-91e3-46acc22e2e16,d9c30d99-e2d9-46cc-8369-da6581de8385,901d5ddc-5860-4a9a-a7bf-a4d634b9cc52,4cdb4ad8-a8d0-4917-8b94-8e2ebc6de6f5,2019-12-02 22:08:18,1.000000
8,e0e6fbfe-3157-4220-91ab-5a8575475dd2,eb8e69ac-d0bd-4573-8e02-31ed76c27fa2,0fa07c81-31ab-4aa1-94d9-51aaea02a052,a8539e19-d0a9-44b2-ac19-e5315a629891,2019-12-02 22:09:21,2.000000
9,4511cb03-80c9-4dbb-9b9f-e72733942e29,9c7f65e8-7880-43be-aea5-aee6683ad30c,64d04104-ebc2-4084-8dbb-dd85ad86982b,ab162e51-4a6e-47dc-a3b8-7158b75cbef1,2019-12-02 22:10:24,1.000000
10,02e9de78-14d0-40c9-9944-f68638ca7761,07600012-64bf-4a04-8976-8b99621729c8,07a52ad3-f195-4bcf-867e-d473d8f6e1cf,d9c7d4cc-26d2-4ba7-b5a0-a9d8bd27b6c4,2019-12-02 22:11:27,1.000000
11,d12bbbbd-ed1f-400a-85ea-e6d71190cd24,84e2a4b3-bb83-43b7-adad-0937b0a2f59d,077366e9-8234-43ff-bfb7-e46acf11dd5c,0fc131fa-3e18-4a41-809f-e726a1ef8157,2019-12-02 22:12:30,1.000000
12,9a2809d1-2748-4f60-b388-fc13a055b971,a78e23f3-bdf4-4247-803e-be509c8bdb97,396743be-176d-462b-9812-73520a977fae,8662efdc-debf-4cea-a358-5808899b9a8e,2019-12-02 22:13:32,2.000000
13,49485cbe-ffde-4cd3-a099-9ce501694e52,dac87d67-7f2d-4cdf-8587-b1f41129848e,ca039d4f-951b-4bc1-8133-534373800b6f,c215ec82-9668-42aa-b454-e49d3213e6c0,2019-12-02 22:14:35,1.000000
14,cc707932-bfa6-4caa-8768-ded4ccb76238,db6239de-e407-46d0-9b8f-42f3f56fc07d,267246f0-ef0e-4d07-80ec-3523a05ce75a,621e0276-9f0d-4e48-8f9e-62ba174c7d7b,2019-12-02 22:15:38,1.000000
15,103a4204-c32b-4adf-96cb-2a07cfd56ec7,514a1970-3b9c-4645-9df9-b2f1b440103b,6f3d24e7-8505-465f-b23d-299d488b63cb,1494c5e1-bc42-4e28-8021-67fa5950af0a,2019-12-02 22:16:41,2.000000
16,c9abbfc8-055f-471e-ae16-ce1b89471d00,e695cbad-5a00-4a69-9614-30d825767f92,bca352a0-2c51-4b7f-9ebe-1ae6597def51,fc657a4c-f2d2-4424-9c71-538f290f963e,2019-12-02 22:17:44,2.000000
17,e30e5bd1-dd03-4264-abc1-4d0ac69ef8ad,83ea47a6-a79c-4c1c-b912-ed6a5a3cacf6,aa57fc42-9d68-4bf6-bd56-70bc3e4ef15a,a2bd1bf3-0af9-4fcf-a5a6-daa270a4d9f8,2019-12-02 22:18:46,1.000000
18,86a0e9c5-8c97-4903-aa07-640e06fe4148,1f925270-b18a-4e34-b5d3-7d839aa07656,b01f523e-4484-420c-b849-994e2803b3d7,532b1bed-23d9-42ee-af16-0af28946ec24,2019-12-02 22:19:49,2.000000
19,c569ba6c-f4b2-4405-8d2a-3f67a1ccdb86,1beb70c3-644f-46c1-acef-dd8447461279,cb453c86-ae32-4f5f-b7ea-f552a1244f43,b790ec4b-5662-45b6-8b0a-5d0200d8841a,2019-12-02 22:20:52,1.000000
20,cec99caf-25be-41d0-b477-f9412a802442,3076fe01-47a8-4b57-81d5-a7150b4cb616,5a967348-099c-4633-b498-8567b569c63a,0371b605-6c3a-4de2-84d0-62e890a6a16e,2019-12-02 22:21:55,2.000000
21,20e585d5-d238-4920-a6c8-c62c48df8abf,98580306-3b3b-4417-97de-242fccad8589,29098b95-b40c-4f1e-b0fb-9df69ce5e4e6,47d2aed2-1de4-4b3e-ab83-9d8c55dc3141,2019-12-02 22:22:58,1.000000
22,900e918e-28e4-4e4c-acea-a49030da6d4c,cad24977-f0b3-4438-8eaf-7d6dfba33659,5e3812cb-48b3-46f4-8abd-a66b51364c1d,cfcab172-a4d9-4f4c-a31b-b4aaa6ea7b10,2019-12-02 22:24:01,1.000000
23,1c236daf-bb35-46c3-8362-07693ece7d19,8eafab99-8182-49cf-a32a-d4864098ca32,948d9e40-b062-46c6-88ed-f58e6b94e687,a2f630fa-421c-43ad-9f55-df50e5499ee9,2019-12-02 22:25:04,1.000000
24,0649dae3-613f-4750-8586-b5ba8774aa5b,3debd351-ce08-4588-9559-9a3377cf7a81,9de0ece4-9a69-4268-b938-41b1d67e273a,f3131e5c-ea73-45db-b793-8a4c36459494,2019-12-02 22:26:06,2.000000
25,2c185889-5bed-4460-acf3-ed17b21240ec,0d8d4df2-10ba-479b-bac4-4d39dc3630a5,ba535c44-be10-4e03-880a-b705ea761f8b,1d8ce5e6-503c-4027-8a9c-41d82e821afa,2019-12-02 22:27:09,2.000000
26,7191e52d-42b1-4980-9e95-57d3e724a8b6,a45c9106-407e-45c7-a344-96fb53d85c8f,bc2443ee-1a96-4f2b-acb3-d02e7709ed97,fb248092-1ad2-415b-8e0f-8cc3bd49f852,2019-12-02 22:28:12,2.000000
27,b3368742-4c0a-4c43-89c1-a597da7df384,1678168f-e1d1-42ab-a841-7cabd9eb18f7,34e86b9b-9639-4b6b-975e-c41cf10e8325,d9606268-649c-46dc-8641-7b4479a71c62,2019-12-02 22:29:14,1.000000
28,859e4c61-ee71-4fb4-8cab-9e042919b7af,659cff5d-ec59-45a7-8204-28c374e62f03,1d8c5ade-8c63-42ec-b894-5637457e410a,d68821fd-3e84-40ea-bbd2-cdf12795dfa0,2019-12-02 22:30:17,2.000000
29,c8193bbd-b28d-4af5-ae79-804be0f30cd8,37647fbc-05a3-4ca1-9ffe-969f30cd14c2,ec8ceae5-0bf8-45dc-8ba2-c92a5f10d1c4,23a0b868-4aa4-4400-b5b4-79ee6e3c770c,2019-12-02 22:31:20,2.000000
30,1b376beb-e155-4f63-9ab6-063eb26f0118,eeaa9d3f-ec85-412c-825b-c4a361defd6e,d29ea0c5-7851-458f-9703-5399bfa5f0ca,a4b9a23c-1cff-4df0-b902-481fe14de5f8,2019-12-02 22:32:22,2.000000
31,a3b30210-40a0-42bc-b4a4-72d19f520a94,e156a354-6921-4695-be5c-7b438ea6d836,9531de0b-5e93-4196-963e-016224ba0b31,30b2ce99-4b64-4f0c-8faf-d61ea5c65325,2019-12-02 22:33:25,2.000000
32,01882697-bfa5-4de0-a5b6-92fae90e2c19,6032b25b-f005-4911-b728-2d60217c1437,2580da40-ca19-451d-ac09-dc31e8238f3d,d810d4b0-49c4-4a83-b066-eddc68870942,2019-12-02 22:34:28,1.000000
33,b0fe1c8c-f9a7-4d39-953d-4df0e9a9fe82,80522939-e846-4b3b-8501-be2f9d6794ef,23534dbb-f2c4-4363-98fb-a1f96c9551ea,772c5c31-479b-4e80-95a6-ea4ca3d6655e,2019-12-02 22:35:31,2.000000
34,cff7562f-bf37-41d3-b601-cb92a2d099d5,39381412-2ade-48cd-883c-50ba4fc6e30a,bac02650-317b-43c9-a977-6f6b38411854,e311f891-5f6f-4212-9cb0-776c6bf59702,2019-12-02 22:36:34,1.000000
35,bb56d712-bf59-4181-9b6e-7c09064bfc4e,8137034e-69a0-4ce6-9693-b059ec27b033,5b4c7ae8-9b61-40cf-b237-d5817d39c0be,0fb5808f-37c1-45df-92af-5fc26dda78d2,2019-12-02 22:37:37,2.000000
36,b597a003-0aa5-45b9-bb9f-d37824fc6a65,a9e615e7-7a8a-46c1-88f3-f479d6eeadf0,822a0b9c-932b-446e-821c-5b8b5048b76a,f9468e90-e87a-40d5-aa9a-a29a97d90cbb,2019-12-02 22:38:40,1.000000
37,c00cc016-8d66-4c7c-b521-c953500865e4,7de15a73-040c-4e8b-ba9a-072b2095e7df,5e1dee3c-697f-4548-9243-44830b9ddad0,1d503d93-e68f-4db5-818e-ccfa0308c159,2019-12-02 22:39:43,2.000000
38,1af39bf0-46c1-49de-8bd9-a55216ee71ca,003ec9d1-d19a-47fc-939b-fc956f20afd1,6c052bc2-5da5-47f9-a190-8d0546d49f1b,d5ac7667-da0b-4f83-9313-2436e05ca52d,2019-12-02 22:40:45,2.000000
39,782d4934-0f6d-44aa-9933-4c666e11044a,8364393b-1002-472f-995a-eb8d840c1fd5,87cdcd79-56ed-4af6-9a0d-f2e148031bb8,846dc393-58ad-4e00-a16b-da08ca713c59,2019-12-02 22:41:48,1.000000
40,49c150df-db29-4c1d-9997-148af13cf5a0,b2d1a46d-f0ec-48fd-8a7f-d320aad38e71,5343c049-e4d0-455a-842f-09210b1b0cc4,bbb93d8c-8c04-4f6e-9281-3993fcf3171c,2019-12-02 22:42:51,1.000000
41,be078220-275a-45d9-ab50-f6677e52ebf3,f485a3c8-6d0b-4f90-9924-c69d95644912,c212a60f-d3a6-4068-abba-7fdd8001d8dd,ce19def4-3ed1-425d-9d87-8c4d68c23a94,2019-12-02 22:43:54,2.000000
42,c1c48edf-0b73-4f5b-bfb4-bcb2183ef93a,421ddcb8-592c-4cfb-8016-b4d1e775a2f8,8b342a2f-31d6-4c01-a170-21787844367e,771968f6-31f0-48f6-a750-5977b299fd2d,2019-12-02 22:44:56,1.000000
43,31ef0d20-d6cc-4b4b-9cbb-7b2f2fa9346a,852e941a-a404-4a8b-ac45-2d390d8c7be5,66cf86c5-6e99-4d37-9754-6f714933b8d7,070ff8ee-f0ab-4fd9-b944-ffbfe343ec23,2019-12-02 22:45:59,1.000000
44,0d3bb0eb-d413-4455-9267-92cbee531307,ed4975dc-b762-4310-a0b4-2ba8fc6665aa,b0d48b2e-b18d-4f82-be32-7bc5081da183,0f24f60f-be33-4bdf-8973-68c69e3426c0,2019-12-02 22:47:02,1.000000
45,eec2e523-f9b4-4b0f-8b96-be820dbf35d2,e26c736a-7a41-42c5-af92-fb1fc1a00718,e09dc30b-5b96-4f51-be58-d0fd018939a0,72492071-0cce-4b37-b572-8a6b53c96eef,2019-12-02 22:48:05,2.000000
46,3f099da5-525e-4e6d-97ce-a4fcad8c6a4b,8136944b-d425-44c5-b9c7-6bddc8fc57d5,f1bd42d2-5bac-4c58-8947-156d12fbdf34,9c9ccc15-af39-4993-9a83-31b0ab481b64,2019-12-02 22:49:08,1.000000
47,2eed25b0-60e8-4b7f-84c5-67f281b42f3e,56332f11-84df-4821-aadc-7af9fd4df678,751a7ae5-b0af-4d28-aad0-e3e7e8614d13,ddf05c2b-e6f4-4556-b300-3e9ed649c0c5,2019-12-02 22:50:11,1.000000
48,ff4cec85-e0d5-48a4-a460-21f76084e032,0104b5e9-c092-423e-b874-859b94f2e7fc,6d7d38d8-6519-46ae-95ff-f47ec12a10b8,3c4b07d4-ca32-41b8-bd1f-9a9c51160429,2019-12-02 22:51:14,2.000000
49,c6dce5b4-aa5d-4557-86ed-5ad26968b4d3,68103d1b-f4fb-4198-b5d5-70d68713dc57,6fe12ec4-85e6-4b16-a4ef-ef0c4e46711e,e7908a0a-d6cd-4b15-b317-782ef9bd5298,2019-12-02 22:52:17,1.000000
50,830a34ed-6589-4729-916d-5fa0762b6e72,f3bcc25d-7105-4a0b-9c3d-de578aacafec,2a8c94f2-54a7-4734-8c86-b400db30257b,a23853a3-03e4-4ef7-b4aa-793b0193211d,2019-12-02 22:53:20,2.000000
