date,trigger,state
2019-07-15 22:50:48,b9170d30-3bbb-4fa8-a45f-b79dfa4ceaf0,A
2019-07-15 22:59:43,b9170d30-3bbb-4fa8-a45f-b79dfa4ceaf0,S
2019-07-15 23:10:27,b9170d30-3bbb-4fa8-a45f-b79dfa4ceaf0,A
2019-07-15 23:15:59,b9170d30-3bbb-4fa8-a45f-b79dfa4ceaf0,S
2019-07-15 23:18:37,b9170d30-3bbb-4fa8-a45f-b79dfa4ceaf0,A
2019-07-15 23:19:21,b9170d30-3bbb-4fa8-a45f-b79dfa4ceaf0,S
2019-07-15 23:24:01,b9170d30-3bbb-4fa8-a45f-b79dfa4ceaf0,A
2019-07-15 23:25:51,b9170d30-3bbb-4fa8-a45f-b79dfa4ceaf0,S
2019-07-15 23:39:06,b9170d30-3bbb-4fa8-a45f-b79dfa4ceaf0,A
2019-07-15 23:40:59,b9170d30-3bbb-4fa8-a45f-b79dfa4ceaf0,S
2019-07-15 23:47:11,b9170d30-3bbb-4fa8-a45f-b79dfa4ceaf0,A
2019-07-15 23:49:59,b9170d30-3bbb-4fa8-a45f-b79dfa4ceaf0,S
2019-07-15 23:51:47,b9170d30-3bbb-4fa8-a45f-b79dfa4ceaf0,A
2019-07-15 23:52:10,b9170d30-3bbb-4fa8-a45f-b79dfa4ceaf0,S
2019-07-15 23:52:49,b9170d30-3bbb-4fa8-a45f-b79dfa4ceaf0,A
2019-07-16 00:05:20,b9170d30-3bbb-4fa8-a45f-b79dfa4ceaf0,S
2019-07-16 00:05:21,b9170d30-3bbb-4fa8-a45f-b79dfa4ceaf0,A
2019-07-16 00:05:57,b9170d30-3bbb-4fa8-a45f-b79dfa4ceaf0,S
2019-07-16 00:06:26,b9170d30-3bbb-4fa8-a45f-b79dfa4ceaf0,A
2019-07-15 22:25:54,3e75297f-5f57-4475-931b-f1f21d69dbf1,A
2019-07-15 22:32:46,3e75297f-5f57-4475-931b-f1f21d69dbf1,S
2019-07-15 22:37:33,3e75297f-5f57-4475-931b-f1f21d69dbf1,A
2019-07-15 22:44:07,3e75297f-5f57-4475-931b-f1f21d69dbf1,S
2019-07-15 22:50:01,3e75297f-5f57-4475-931b-f1f21d69dbf1,A
2019-07-15 23:00:39,3e75297f-5f57-4475-931b-f1f21d69dbf1,S
2019-07-15 23:07:54,3e75297f-5f57-4475-931b-f1f21d69dbf1,A
2019-07-15 23:10:21,3e75297f-5f57-4475-931b-f1f21d69dbf1,S
2019-07-15 23:12:02,3e75297f-5f57-4475-931b-f1f21d69dbf1,A
2019-07-15 23:16:40,3e75297f-5f57-4475-931b-f1f21d69dbf1,S
2019-07-15 23:21:40,3e75297f-5f57-4475-931b-f1f21d69dbf1,A
2019-07-15 23:31:35,3e75297f-5f57-4475-931b-f1f21d69dbf1,S
2019-07-15 23:31:39,3e75297f-5f57-4475-931b-f1f21d69dbf1,A
2019-07-15 23:36:19,3e75297f-5f57-4475-931b-f1f21d69dbf1,S
2019-07-15 23:38:04,3e75297f-5f57-4475-931b-f1f21d69dbf1,A
2019-07-15 23:44:46,3e75297f-5f57-4475-931b-f1f21d69dbf1,S
2019-07-15 23:44:53,3e75297f-5f57-4475-931b-f1f21d69dbf1,A
2019-07-15 23:47:35,3e75297f-5f57-4475-931b-f1f21d69dbf1,S
2019-07-15 23:54:28,3e75297f-5f57-4475-931b-f1f21d69dbf1,A
2019-07-15 22:56:41,0907edf8-2ccb-42f9-a98a-e6199539c25c,S
2019-07-15 22:57:30,0907edf8-2ccb-42f9-a98a-e6199539c25c,A
2019-07-15 23:10:06,0907edf8-2ccb-42f9-a98a-e6199539c25c,S
2019-07-15 23:11:12,0907edf8-2ccb-42f9-a98a-e6199539c25c,A
2019-07-15 23:13:17,0907edf8-2ccb-42f9-a98a-e6199539c25c,S
2019-07-15 23:38:10,0907edf8-2ccb-42f9-a98a-e6199539c25c,A
2019-07-15 23:50:00,0907edf8-2ccb-42f9-a98a-e6199539c25c,S
2019-07-15 23:54:21,0907edf8-2ccb-42f9-a98a-e6199539c25c,A
2019-07-15 23:54:22,0907edf8-2ccb-42f9-a98a-e6199539c25c,S
2019-07-15 23:58:31,0907edf8-2ccb-42f9-a98a-e6199539c25c,A
2019-07-16 00:02:43,0907edf8-2ccb-42f9-a98a-e6199539c25c,S
2019-07-16 00:12:05,0907edf8-2ccb-42f9-a98a-e6199539c25c,A
2019-07-15 22:37:39,d8aa263b-7876-44ac-aa77-2b1b281f6bb1,S
2019-07-15 22:41:57,d8aa263b-7876-44ac-aa77-2b1b281f6bb1,A
2019-07-15 22:55:40,d8aa263b-7876-44ac-aa77-2b1b281f6bb1,S
2019-07-15 22:56:03,d8aa263b-7876-44ac-aa77-2b1b281f6bb1,A
2019-07-15 23:00:40,d8aa263b-7876-44ac-aa77-2b1b281f6bb1,S
2019-07-15 23:03:58,d8aa263b-7876-44ac-aa77-2b1b281f6bb1,A
2019-07-15 23:07:04,d8aa263b-7876-44ac-aa77-2b1b281f6bb1,S
2019-07-15 23:11:37,d8aa263b-7876-44ac-aa77-2b1b281f6bb1,A
2019-07-15 23:14:50,d8aa263b-7876-44ac-aa77-2b1b281f6bb1,S
2019-07-15 23:18:27,d8aa263b-7876-44ac-aa77-2b1b281f6bb1,A
2019-07-15 23:34:18,d8aa263b-7876-44ac-aa77-2b1b281f6bb1,S
2019-07-15 23:38:35,d8aa263b-7876-44ac-aa77-2b1b281f6bb1,A
2019-07-15 23:38:56,d8aa263b-7876-44ac-aa77-2b1b281f6bb1,S
2019-07-15 23:44:03,d8aa263b-7876-44ac-aa77-2b1b281f6bb1,A
2019-07-15 23:51:21,d8aa263b-7876-44ac-aa77-2b1b281f6bb1,S
2019-07-16 00:04:29,d8aa263b-7876-44ac-aa77-2b1b281f6bb1,A
2019-07-16 00:05:30,d8aa263b-7876-44ac-aa77-2b1b281f6bb1,S
2019-07-15 22:56:17,b55a9fd8-7526-4baa-916a-5a18c4013c3c,A
2019-07-15 23:30:03,b55a9fd8-7526-4baa-916a-5a18c4013c3c,S
2019-07-15 23:30:30,b55a9fd8-7526-4baa-916a-5a18c4013c3c,A
2019-07-15 23:59:47,b55a9fd8-7526-4baa-916a-5a18c4013c3c,S
2019-07-16 00:02:51,b55a9fd8-7526-4baa-916a-5a18c4013c3c,A
2019-07-16 00:05:19,b55a9fd8-7526-4baa-916a-5a18c4013c3c,S
2019-07-16 00:06:51,b55a9fd8-7526-4baa-916a-5a18c4013c3c,A
2019-07-16 00:07:37,b55a9fd8-7526-4baa-916a-5a18c4013c3c,S
2019-07-16 00:10:52,b55a9fd8-7526-4baa-916a-5a18c4013c3c,A
2019-07-15 22:23:47,7be1f9e8-ac23-40fd-8107-8140fffe401c,A
2019-07-15 22:27:12,7be1f9e8-ac23-40fd-8107-8140fffe401c,S
2019-07-15 22:32:17,7be1f9e8-ac23-40fd-8107-8140fffe401c,A
2019-07-15 22:34:08,7be1f9e8-ac23-40fd-8107-8140fffe401c,S
2019-07-15 22:44:39,7be1f9e8-ac23-40fd-8107-8140fffe401c,A
2019-07-15 22:45:14,7be1f9e8-ac23-40fd-8107-8140fffe401c,S
2019-07-15 22:53:38,7be1f9e8-ac23-40fd-8107-8140fffe401c,A
2019-07-15 22:55:59,7be1f9e8-ac23-40fd-8107-8140fffe401c,S
2019-07-15 23:04:22,7be1f9e8-ac23-40fd-8107-8140fffe401c,A
2019-07-15 23:22:49,7be1f9e8-ac23-40fd-8107-8140fffe401c,S
2019-07-15 23:24:04,7be1f9e8-ac23-40fd-8107-8140fffe401c,A
2019-07-15 23:24:15,7be1f9e8-ac23-40fd-8107-8140fffe401c,S
2019-07-15 23:27:28,7be1f9e8-ac23-40fd-8107-8140fffe401c,A
2019-07-15 23:36:18,7be1f9e8-ac23-40fd-8107-8140fffe401c,S
2019-07-15 23:51:23,7be1f9e8-ac23-40fd-8107-8140fffe401c,A
2019-07-15 23:51:41,7be1f9e8-ac23-40fd-8107-8140fffe401c,S
2019-07-16 00:02:13,7be1f9e8-ac23-40fd-8107-8140fffe401c,A
2019-07-15 22:29:39,82095e02-4a18-4112-9315-d436d52d3f76,A
2019-07-15 22:37:28,82095e02-4a18-4112-9315-d436d52d3f76,S
2019-07-15 22:38:58,82095e02-4a18-4112-9315-d436d52d3f76,A
2019-07-15 22:41:36,82095e02-4a18-4112-9315-d436d52d3f76,S
2019-07-15 22:46:17,82095e02-4a18-4112-9315-d436d52d3f76,A
2019-07-15 23:00:59,82095e02-4a18-4112-9315-d436d52d3f76,S
2019-07-15 23:01:34,82095e02-4a18-4112-9315-d436d52d3f76,A
2019-07-15 23:07:04,82095e02-4a18-4112-9315-d436d52d3f76,S
2019-07-15 23:14:17,82095e02-4a18-4112-9315-d436d52d3f76,A
2019-07-15 23:14:52,82095e02-4a18-4112-9315-d436d52d3f76,S
2019-07-15 23:26:42,82095e02-4a18-4112-9315-d436d52d3f76,A
2019-07-15 23:29:50,82095e02-4a18-4112-9315-d436d52d3f76,S
2019-07-15 23:41:40,82095e02-4a18-4112-9315-d436d52d3f76,A
2019-07-15 23:53:37,82095e02-4a18-4112-9315-d436d52d3f76,S
2019-07-15 23:58:30,82095e02-4a18-4112-9315-d436d52d3f76,A
2019-07-15 23:59:03,82095e02-4a18-4112-9315-d436d52d3f76,S
2019-07-15 23:59:21,82095e02-4a18-4112-9315-d436d52d3f76,A
2019-07-15 23:59:31,82095e02-4a18-4112-9315-d436d52d3f76,S
2019-07-16 00:00:42,82095e02-4a18-4112-9315-d436d52d3f76,A
2019-07-16 00:04:23,82095e02-4a18-4112-9315-d436d52d3f76,S
2019-07-16 00:13:14,82095e02-4a18-4112-9315-d436d52d3f76,A
2019-07-15 22:32:34,608540de-07a5-4e37-bea0-408a2d113fe6,S
2019-07-15 22:41:36,608540de-07a5-4e37-bea0-408a2d113fe6,A
2019-07-15 22:46:48,608540de-07a5-4e37-bea0-408a2d113fe6,S
2019-07-15 22:59:34,608540de-07a5-4e37-bea0-408a2d113fe6,A
2019-07-15 23:00:33,608540de-07a5-4e37-bea0-408a2d113fe6,S
2019-07-15 23:11:45,608540de-07a5-4e37-bea0-408a2d113fe6,A
2019-07-15 23:11:59,608540de-07a5-4e37-bea0-408a2d113fe6,S
2019-07-15 23:15:26,608540de-07a5-4e37-bea0-408a2d113fe6,A
2019-07-15 23:26:29,608540de-07a5-4e37-bea0-408a2d113fe6,S
2019-07-15 23:29:30,608540de-07a5-4e37-bea0-408a2d113fe6,A
2019-07-15 23:36:06,608540de-07a5-4e37-bea0-408a2d113fe6,S
2019-07-15 23:38:02,608540de-07a5-4e37-bea0-408a2d113fe6,A
2019-07-15 23:45:28,608540de-07a5-4e37-bea0-408a2d113fe6,S
2019-07-15 23:49:34,608540de-07a5-4e37-bea0-408a2d113fe6,A
2019-07-15 23:50:15,608540de-07a5-4e37-bea0-408a2d113fe6,S
2019-07-15 23:50:38,608540de-07a5-4e37-bea0-408a2d113fe6,A
2019-07-15 23:54:01,608540de-07a5-4e37-bea0-408a2d113fe6,S
2019-07-15 23:57:05,608540de-07a5-4e37-bea0-408a2d113fe6,A
2019-07-16 00:10:16,608540de-07a5-4e37-bea0-408a2d113fe6,S
2019-07-16 00:14:26,608540de-07a5-4e37-bea0-408a2d113fe6,A
2019-07-15 22:33:42,397cea48-7e25-4db7-9227-017d7603a58b,A
2019-07-15 22:39:44,397cea48-7e25-4db7-9227-017d7603a58b,S
2019-07-15 22:42:15,397cea48-7e25-4db7-9227-017d7603a58b,A
2019-07-15 22:42:59,397cea48-7e25-4db7-9227-017d7603a58b,S
2019-07-15 22:43:03,397cea48-7e25-4db7-9227-017d7603a58b,A
2019-07-15 22:45:53,397cea48-7e25-4db7-9227-017d7603a58b,S
2019-07-15 22:54:09,397cea48-7e25-4db7-9227-017d7603a58b,A
2019-07-15 22:56:55,397cea48-7e25-4db7-9227-017d7603a58b,S
2019-07-15 22:56:57,397cea48-7e25-4db7-9227-017d7603a58b,A
2019-07-15 23:03:03,397cea48-7e25-4db7-9227-017d7603a58b,S
2019-07-15 23:07:26,397cea48-7e25-4db7-9227-017d7603a58b,A
2019-07-15 23:14:47,397cea48-7e25-4db7-9227-017d7603a58b,S
2019-07-15 23:15:56,397cea48-7e25-4db7-9227-017d7603a58b,A
2019-07-15 23:19:52,397cea48-7e25-4db7-9227-017d7603a58b,S
2019-07-15 23:20:40,397cea48-7e25-4db7-9227-017d7603a58b,A
2019-07-15 23:20:57,397cea48-7e25-4db7-9227-017d7603a58b,S
2019-07-15 23:31:30,397cea48-7e25-4db7-9227-017d7603a58b,A
2019-07-15 23:32:53,397cea48-7e25-4db7-9227-017d7603a58b,S
2019-07-15 23:38:38,397cea48-7e25-4db7-9227-017d7603a58b,A
2019-07-15 23:43:04,397cea48-7e25-4db7-9227-017d7603a58b,S
2019-07-15 23:44:23,397cea48-7e25-4db7-9227-017d7603a58b,A
2019-07-15 23:47:11,397cea48-7e25-4db7-9227-017d7603a58b,S
2019-07-15 23:48:35,397cea48-7e25-4db7-9227-017d7603a58b,A
2019-07-15 23:57:25,397cea48-7e25-4db7-9227-017d7603a58b,S
2019-07-15 23:58:54,397cea48-7e25-4db7-9227-017d7603a58b,A
2019-07-16 00:02:33,397cea48-7e25-4db7-9227-017d7603a58b,S
2019-07-16 00:02:50,397cea48-7e25-4db7-9227-017d7603a58b,A
2019-07-16 00:06:48,397cea48-7e25-4db7-9227-017d7603a58b,S
2019-07-15 22:49:48,e046676f-a890-462e-8254-c55d5cd15707,A
2019-07-15 22:51:39,e046676f-a890-462e-8254-c55d5cd15707,S
2019-07-15 23:01:07,e046676f-a890-462e-8254-c55d5cd15707,A
2019-07-15 23:15:14,e046676f-a890-462e-8254-c55d5cd15707,S
2019-07-15 23:16:50,e046676f-a890-462e-8254-c55d5cd15707,A
2019-07-15 23:18:25,e046676f-a890-462e-8254-c55d5cd15707,S
2019-07-15 23:20:18,e046676f-a890-462e-8254-c55d5cd15707,A
2019-07-15 23:26:45,e046676f-a890-462e-8254-c55d5cd15707,S
2019-07-15 23:31:39,e046676f-a890-462e-8254-c55d5cd15707,A
2019-07-15 23:39:10,e046676f-a890-462e-8254-c55d5cd15707,S
2019-07-15 23:39:13,e046676f-a890-462e-8254-c55d5cd15707,A
2019-07-15 23:39:32,e046676f-a890-462e-8254-c55d5cd15707,S
2019-07-15 23:41:53,e046676f-a890-462e-8254-c55d5cd15707,A
2019-07-15 23:45:04,e046676f-a890-462e-8254-c55d5cd15707,S
2019-07-15 23:45:50,e046676f-a890-462e-8254-c55d5cd15707,A
2019-07-15 23:56:51,e046676f-a890-462e-8254-c55d5cd15707,S
2019-07-15 23:57:39,e046676f-a890-462e-8254-c55d5cd15707,A
2019-07-15 23:58:05,e046676f-a890-462e-8254-c55d5cd15707,S
2019-07-16 00:00:18,e046676f-a890-462e-8254-c55d5cd15707,A
2019-07-16 00:02:32,e046676f-a890-462e-8254-c55d5cd15707,S
2019-07-16 00:02:50,e046676f-a890-462e-8254-c55d5cd15707,A
2019-07-16 00:12:15,e046676f-a890-462e-8254-c55d5cd15707,S
2019-07-15 22:44:31,aa259e51-4440-4c94-b01f-b8fd818b796e,A
2019-07-15 22:45:00,aa259e51-4440-4c94-b01f-b8fd818b796e,S
2019-07-15 22:53:30,aa259e51-4440-4c94-b01f-b8fd818b796e,A
2019-07-15 22:54:49,aa259e51-4440-4c94-b01f-b8fd818b796e,S
2019-07-15 23:03:26,aa259e51-4440-4c94-b01f-b8fd818b796e,S
2019-07-15 23:04:41,aa259e51-4440-4c94-b01f-b8fd818b796e,A
2019-07-15 23:05:31,aa259e51-4440-4c94-b01f-b8fd818b796e,S
2019-07-15 23:09:18,aa259e51-4440-4c94-b01f-b8fd818b796e,A
2019-07-15 23:10:24,aa259e51-4440-4c94-b01f-b8fd818b796e,S
2019-07-15 23:10:36,aa259e51-4440-4c94-b01f-b8fd818b796e,A
2019-07-15 23:16:09,aa259e51-4440-4c94-b01f-b8fd818b796e,S
2019-07-15 23:21:28,aa259e51-4440-4c94-b01f-b8fd818b796e,A
2019-07-15 23:33:44,aa259e51-4440-4c94-b01f-b8fd818b796e,S
2019-07-15 23:33:59,aa259e51-4440-4c94-b01f-b8fd818b796e,A
2019-07-15 23:38:09,aa259e51-4440-4c94-b01f-b8fd818b796e,S
2019-07-15 23:47:46,aa259e51-4440-4c94-b01f-b8fd818b796e,A
2019-07-15 23:59:51,aa259e51-4440-4c94-b01f-b8fd818b796e,S
2019-07-16 00:03:20,aa259e51-4440-4c94-b01f-b8fd818b796e,A
2019-07-16 00:07:43,aa259e51-4440-4c94-b01f-b8fd818b796e,S
2019-07-16 00:09:08,aa259e51-4440-4c94-b01f-b8fd818b796e,A
2019-07-16 00:09:43,aa259e51-4440-4c94-b01f-b8fd818b796e,S
2019-07-15 22:50:39,d70c129c-c667-4682-a297-8fe0c11794f2,A
2019-07-15 23:05:22,d70c129c-c667-4682-a297-8fe0c11794f2,S
2019-07-15 23:07:28,d70c129c-c667-4682-a297-8fe0c11794f2,A
2019-07-15 23:16:34,d70c129c-c667-4682-a297-8fe0c11794f2,S
2019-07-15 23:28:06,d70c129c-c667-4682-a297-8fe0c11794f2,A
2019-07-15 23:34:21,d70c129c-c667-4682-a297-8fe0c11794f2,S
2019-07-15 23:41:00,d70c129c-c667-4682-a297-8fe0c11794f2,A
2019-07-15 23:41:23,d70c129c-c667-4682-a297-8fe0c11794f2,S
2019-07-15 23:42:30,d70c129c-c667-4682-a297-8fe0c11794f2,A
2019-07-15 23:46:49,d70c129c-c667-4682-a297-8fe0c11794f2,S
2019-07-15 23:47:21,d70c129c-c667-4682-a297-8fe0c11794f2,A
2019-07-15 23:54:00,d70c129c-c667-4682-a297-8fe0c11794f2,S
2019-07-15 23:56:43,d70c129c-c667-4682-a297-8fe0c11794f2,A
2019-07-15 23:58:30,d70c129c-c667-4682-a297-8fe0c11794f2,S
2019-07-16 00:02:17,d70c129c-c667-4682-a297-8fe0c11794f2,A
2019-07-16 00:08:33,d70c129c-c667-4682-a297-8fe0c11794f2,S
2019-07-16 00:08:46,d70c129c-c667-4682-a297-8fe0c11794f2,A
2019-07-16 00:11:21,d70c129c-c667-4682-a297-8fe0c11794f2,S
2019-07-15 22:43:18,6ed28c7b-4687-47a1-87b9-738232fccf7a,S
2019-07-15 22:45:37,6ed28c7b-4687-47a1-87b9-738232fccf7a,A
2019-07-15 22:50:49,6ed28c7b-4687-47a1-87b9-738232fccf7a,S
2019-07-15 22:58:54,6ed28c7b-4687-47a1-87b9-738232fccf7a,A
2019-07-15 23:06:18,6ed28c7b-4687-47a1-87b9-738232fccf7a,S
2019-07-15 23:06:40,6ed28c7b-4687-47a1-87b9-738232fccf7a,A
2019-07-15 23:12:13,6ed28c7b-4687-47a1-87b9-738232fccf7a,S
2019-07-15 23:23:16,6ed28c7b-4687-47a1-87b9-738232fccf7a,A
2019-07-15 23:27:41,6ed28c7b-4687-47a1-87b9-738232fccf7a,S
2019-07-15 23:30:28,6ed28c7b-4687-47a1-87b9-738232fccf7a,A
2019-07-15 23:37:10,6ed28c7b-4687-47a1-87b9-738232fccf7a,S
2019-07-15 23:38:00,6ed28c7b-4687-47a1-87b9-738232fccf7a,A
2019-07-15 23:40:46,6ed28c7b-4687-47a1-87b9-738232fccf7a,S
2019-07-15 23:44:36,6ed28c7b-4687-47a1-87b9-738232fccf7a,A
2019-07-15 23:51:04,6ed28c7b-4687-47a1-87b9-738232fccf7a,S
2019-07-15 23:54:09,6ed28c7b-4687-47a1-87b9-738232fccf7a,A
2019-07-16 00:06:29,6ed28c7b-4687-47a1-87b9-738232fccf7a,S
2019-07-16 00:11:16,6ed28c7b-4687-47a1-87b9-738232fccf7a,A
2019-07-16 00:13:20,6ed28c7b-4687-47a1-87b9-738232fccf7a,S
2019-07-15 22:28:11,657daed1-a1c5-42fb-b330-d7209157fe21,S
2019-07-15 22:35:50,657daed1-a1c5-42fb-b330-d7209157fe21,A
2019-07-15 22:37:46,657daed1-a1c5-42fb-b330-d7209157fe21,S
2019-07-15 22:49:04,657daed1-a1c5-42fb-b330-d7209157fe21,A
2019-07-15 22:50:53,657daed1-a1c5-42fb-b330-d7209157fe21,S
2019-07-15 22:51:35,657daed1-a1c5-42fb-b330-d7209157fe21,A
2019-07-15 23:01:06,657daed1-a1c5-42fb-b330-d7209157fe21,S
2019-07-15 23:04:21,657daed1-a1c5-42fb-b330-d7209157fe21,A
2019-07-15 23:04:57,657daed1-a1c5-42fb-b330-d7209157fe21,S
2019-07-15 23:05:28,657daed1-a1c5-42fb-b330-d7209157fe21,A
2019-07-15 23:10:32,657daed1-a1c5-42fb-b330-d7209157fe21,S
2019-07-15 23:10:57,657daed1-a1c5-42fb-b330-d7209157fe21,A
2019-07-15 23:11:20,657daed1-a1c5-42fb-b330-d7209157fe21,S
2019-07-15 23:12:04,657daed1-a1c5-42fb-b330-d7209157fe21,A
2019-07-15 23:13:56,657daed1-a1c5-42fb-b330-d7209157fe21,S
2019-07-15 23:14:48,657daed1-a1c5-42fb-b330-d7209157fe21,A
2019-07-15 23:25:22,657daed1-a1c5-42fb-b330-d7209157fe21,S
2019-07-15 23:26:34,657daed1-a1c5-42fb-b330-d7209157fe21,A
2019-07-15 23:33:26,657daed1-a1c5-42fb-b330-d7209157fe21,S
2019-07-15 23:42:07,657daed1-a1c5-42fb-b330-d7209157fe21,A
2019-07-15 23:45:14,657daed1-a1c5-42fb-b330-d7209157fe21,S
2019-07-15 23:48:50,657daed1-a1c5-42fb-b330-d7209157fe21,A
2019-07-15 23:49:06,657daed1-a1c5-42fb-b330-d7209157fe21,S
2019-07-15 23:56:11,657daed1-a1c5-42fb-b330-d7209157fe21,A
2019-07-15 23:56:19,657daed1-a1c5-42fb-b330-d7209157fe21,S
2019-07-15 23:56:44,657daed1-a1c5-42fb-b330-d7209157fe21,A
2019-07-15 23:57:22,657daed1-a1c5-42fb-b330-d7209157fe21,S
2019-07-15 23:59:27,657daed1-a1c5-42fb-b330-d7209157fe21,A
2019-07-15 23:59:30,657daed1-a1c5-42fb-b330-d7209157fe21,S
2019-07-16 00:11:16,657daed1-a1c5-42fb-b330-d7209157fe21,A
2019-07-16 00:14:40,657daed1-a1c5-42fb-b330-d7209157fe21,S
2019-07-15 22:57:12,8e8d87fd-fdb5-42ce-809c-dd7db5d2448e,S
2019-07-15 23:10:46,8e8d87fd-fdb5-42ce-809c-dd7db5d2448e,A
2019-07-15 23:15:40,8e8d87fd-fdb5-42ce-809c-dd7db5d2448e,S
2019-07-15 23:16:12,8e8d87fd-fdb5-42ce-809c-dd7db5d2448e,A
2019-07-15 23:20:04,8e8d87fd-fdb5-42ce-809c-dd7db5d2448e,S
2019-07-15 23:20:45,8e8d87fd-fdb5-42ce-809c-dd7db5d2448e,A
2019-07-15 23:29:24,8e8d87fd-fdb5-42ce-809c-dd7db5d2448e,S
2019-07-15 23:30:28,8e8d87fd-fdb5-42ce-809c-dd7db5d2448e,A
2019-07-15 23:32:43,8e8d87fd-fdb5-42ce-809c-dd7db5d2448e,S
2019-07-15 23:34:53,8e8d87fd-fdb5-42ce-809c-dd7db5d2448e,A
2019-07-15 23:37:15,8e8d87fd-fdb5-42ce-809c-dd7db5d2448e,S
2019-07-15 23:41:06,8e8d87fd-fdb5-42ce-809c-dd7db5d2448e,A
2019-07-15 23:42:18,8e8d87fd-fdb5-42ce-809c-dd7db5d2448e,S
2019-07-15 23:43:08,8e8d87fd-fdb5-42ce-809c-dd7db5d2448e,A
2019-07-15 23:45:18,8e8d87fd-fdb5-42ce-809c-dd7db5d2448e,S
2019-07-15 23:45:41,8e8d87fd-fdb5-42ce-809c-dd7db5d2448e,A
2019-07-15 23:45:57,8e8d87fd-fdb5-42ce-809c-dd7db5d2448e,S
2019-07-15 23:50:28,8e8d87fd-fdb5-42ce-809c-dd7db5d2448e,A
2019-07-15 23:51:18,8e8d87fd-fdb5-42ce-809c-dd7db5d2448e,S
2019-07-16 00:00:50,8e8d87fd-fdb5-42ce-809c-dd7db5d2448e,A
2019-07-16 00:06:53,8e8d87fd-fdb5-42ce-809c-dd7db5d2448e,S
2019-07-16 00:14:52,8e8d87fd-fdb5-42ce-809c-dd7db5d2448e,A
2019-07-15 22:39:48,1bb0abae-e586-4859-aa32-9977ac78f700,S
2019-07-15 22:43:57,1bb0abae-e586-4859-aa32-9977ac78f700,A
2019-07-15 22:51:25,1bb0abae-e586-4859-aa32-9977ac78f700,S
2019-07-15 22:55:37,1bb0abae-e586-4859-aa32-9977ac78f700,A
2019-07-15 22:55:51,1bb0abae-e586-4859-aa32-9977ac78f700,S
2019-07-15 23:05:20,1bb0abae-e586-4859-aa32-9977ac78f700,A
2019-07-15 23:08:21,1bb0abae-e586-4859-aa32-9977ac78f700,S
2019-07-15 23:09:49,1bb0abae-e586-4859-aa32-9977ac78f700,A
2019-07-15 23:11:32,1bb0abae-e586-4859-aa32-9977ac78f700,S
2019-07-15 23:21:12,1bb0abae-e586-4859-aa32-9977ac78f700,A
2019-07-15 23:26:03,1bb0abae-e586-4859-aa32-9977ac78f700,S
2019-07-15 23:27:46,1bb0abae-e586-4859-aa32-9977ac78f700,A
2019-07-15 23:28:42,1bb0abae-e586-4859-aa32-9977ac78f700,S
2019-07-15 23:34:10,1bb0abae-e586-4859-aa32-9977ac78f700,A
2019-07-15 23:38:44,1bb0abae-e586-4859-aa32-9977ac78f700,S
2019-07-15 23:43:26,1bb0abae-e586-4859-aa32-9977ac78f700,A
2019-07-15 23:51:26,1bb0abae-e586-4859-aa32-9977ac78f700,S
2019-07-15 23:56:38,1bb0abae-e586-4859-aa32-9977ac78f700,A
2019-07-15 23:59:57,1bb0abae-e586-4859-aa32-9977ac78f700,S
2019-07-16 00:12:44,1bb0abae-e586-4859-aa32-9977ac78f700,A
2019-07-15 22:42:06,d938ab62-2547-4774-a15f-1e5ca0d7a811,S
2019-07-15 22:54:20,d938ab62-2547-4774-a15f-1e5ca0d7a811,A
2019-07-15 23:04:29,d938ab62-2547-4774-a15f-1e5ca0d7a811,S
2019-07-15 23:05:47,d938ab62-2547-4774-a15f-1e5ca0d7a811,A
2019-07-15 23:07:46,d938ab62-2547-4774-a15f-1e5ca0d7a811,S
2019-07-15 23:14:25,d938ab62-2547-4774-a15f-1e5ca0d7a811,A
2019-07-15 23:15:12,d938ab62-2547-4774-a15f-1e5ca0d7a811,S
2019-07-15 23:17:34,d938ab62-2547-4774-a15f-1e5ca0d7a811,A
2019-07-15 23:18:25,d938ab62-2547-4774-a15f-1e5ca0d7a811,S
2019-07-15 23:18:47,d938ab62-2547-4774-a15f-1e5ca0d7a811,A
2019-07-15 23:19:05,d938ab62-2547-4774-a15f-1e5ca0d7a811,S
2019-07-15 23:26:02,d938ab62-2547-4774-a15f-1e5ca0d7a811,A
2019-07-15 23:38:52,d938ab62-2547-4774-a15f-1e5ca0d7a811,S
2019-07-15 23:43:29,d938ab62-2547-4774-a15f-1e5ca0d7a811,A
2019-07-15 23:44:08,d938ab62-2547-4774-a15f-1e5ca0d7a811,S
2019-07-16 00:01:03,d938ab62-2547-4774-a15f-1e5ca0d7a811,A
2019-07-16 00:03:24,d938ab62-2547-4774-a15f-1e5ca0d7a811,S
2019-07-16 00:03:37,d938ab62-2547-4774-a15f-1e5ca0d7a811,A
2019-07-16 00:04:57,d938ab62-2547-4774-a15f-1e5ca0d7a811,S
2019-07-16 00:07:23,d938ab62-2547-4774-a15f-1e5ca0d7a811,A
2019-07-16 00:12:51,d938ab62-2547-4774-a15f-1e5ca0d7a811,S
2019-07-15 22:38:38,2b38ad86-bd27-4068-ae81-84c8cb6805f2,S
2019-07-15 22:38:42,2b38ad86-bd27-4068-ae81-84c8cb6805f2,A
2019-07-15 22:45:52,2b38ad86-bd27-4068-ae81-84c8cb6805f2,S
2019-07-15 22:57:23,2b38ad86-bd27-4068-ae81-84c8cb6805f2,A
2019-07-15 22:58:59,2b38ad86-bd27-4068-ae81-84c8cb6805f2,S
2019-07-15 23:02:06,2b38ad86-bd27-4068-ae81-84c8cb6805f2,A
2019-07-15 23:02:23,2b38ad86-bd27-4068-ae81-84c8cb6805f2,S
2019-07-15 23:20:21,2b38ad86-bd27-4068-ae81-84c8cb6805f2,A
2019-07-15 23:22:45,2b38ad86-bd27-4068-ae81-84c8cb6805f2,S
2019-07-15 23:35:07,2b38ad86-bd27-4068-ae81-84c8cb6805f2,A
2019-07-15 23:47:15,2b38ad86-bd27-4068-ae81-84c8cb6805f2,S
2019-07-15 23:52:46,2b38ad86-bd27-4068-ae81-84c8cb6805f2,A
2019-07-15 23:53:13,2b38ad86-bd27-4068-ae81-84c8cb6805f2,S
2019-07-15 23:55:28,2b38ad86-bd27-4068-ae81-84c8cb6805f2,A
2019-07-15 23:59:07,2b38ad86-bd27-4068-ae81-84c8cb6805f2,S
2019-07-16 00:02:27,2b38ad86-bd27-4068-ae81-84c8cb6805f2,A
2019-07-16 00:06:57,2b38ad86-bd27-4068-ae81-84c8cb6805f2,S
2019-07-16 00:07:54,2b38ad86-bd27-4068-ae81-84c8cb6805f2,A
2019-07-16 00:08:16,2b38ad86-bd27-4068-ae81-84c8cb6805f2,S
2019-07-16 00:09:14,2b38ad86-bd27-4068-ae81-84c8cb6805f2,A
2019-07-15 22:55:27,a190c041-79ec-4371-be80-b6615be78374,S
2019-07-15 23:00:50,a190c041-79ec-4371-be80-b6615be78374,A
2019-07-15 23:02:15,a190c041-79ec-4371-be80-b6615be78374,S
2019-07-15 23:04:26,a190c041-79ec-4371-be80-b6615be78374,A
2019-07-15 23:11:28,a190c041-79ec-4371-be80-b6615be78374,S
2019-07-15 23:17:34,a190c041-79ec-4371-be80-b6615be78374,A
2019-07-15 23:21:29,a190c041-79ec-4371-be80-b6615be78374,S
2019-07-15 23:24:51,a190c041-79ec-4371-be80-b6615be78374,A
2019-07-15 23:26:25,a190c041-79ec-4371-be80-b6615be78374,S
2019-07-15 23:26:35,a190c041-79ec-4371-be80-b6615be78374,A
2019-07-15 23:28:56,a190c041-79ec-4371-be80-b6615be78374,S
2019-07-15 23:33:12,a190c041-79ec-4371-be80-b6615be78374,A
2019-07-15 23:36:06,a190c041-79ec-4371-be80-b6615be78374,S
2019-07-15 23:37:01,a190c041-79ec-4371-be80-b6615be78374,A
2019-07-15 23:47:25,a190c041-79ec-4371-be80-b6615be78374,S
2019-07-15 23:47:29,a190c041-79ec-4371-be80-b6615be78374,A
2019-07-15 23:48:00,a190c041-79ec-4371-be80-b6615be78374,S
2019-07-15 23:48:29,a190c041-79ec-4371-be80-b6615be78374,A
2019-07-15 23:48:43,a190c041-79ec-4371-be80-b6615be78374,S
2019-07-15 23:52:38,a190c041-79ec-4371-be80-b6615be78374,A
2019-07-16 00:00:27,a190c041-79ec-4371-be80-b6615be78374,S
2019-07-16 00:06:25,a190c041-79ec-4371-be80-b6615be78374,A
2019-07-16 00:09:18,a190c041-79ec-4371-be80-b6615be78374,S
2019-07-16 00:11:18,a190c041-79ec-4371-be80-b6615be78374,A
2019-07-15 22:54:41,310361ac-f235-4047-9698-76e40865a9f5,A
2019-07-15 22:59:48,310361ac-f235-4047-9698-76e40865a9f5,S
2019-07-15 23:00:51,310361ac-f235-4047-9698-76e40865a9f5,A
2019-07-15 23:02:47,310361ac-f235-4047-9698-76e40865a9f5,S
2019-07-15 23:10:22,310361ac-f235-4047-9698-76e40865a9f5,A
2019-07-15 23:11:46,310361ac-f235-4047-9698-76e40865a9f5,S
2019-07-15 23:21:40,310361ac-f235-4047-9698-76e40865a9f5,A
2019-07-15 23:23:28,310361ac-f235-4047-9698-76e40865a9f5,S
2019-07-15 23:28:22,310361ac-f235-4047-9698-76e40865a9f5,A
2019-07-15 23:32:46,310361ac-f235-4047-9698-76e40865a9f5,S
2019-07-15 23:41:30,310361ac-f235-4047-9698-76e40865a9f5,A
2019-07-15 23:43:01,310361ac-f235-4047-9698-76e40865a9f5,S
2019-07-15 23:44:55,310361ac-f235-4047-9698-76e40865a9f5,A
2019-07-15 23:47:22,310361ac-f235-4047-9698-76e40865a9f5,S
2019-07-15 23:51:36,310361ac-f235-4047-9698-76e40865a9f5,A
2019-07-15 23:57:25,310361ac-f235-4047-9698-76e40865a9f5,S
2019-07-16 00:02:55,310361ac-f235-4047-9698-76e40865a9f5,A
2019-07-16 00:12:08,310361ac-f235-4047-9698-76e40865a9f5,S
2019-07-15 22:26:42,3b77f824-762e-48da-95eb-5a77b74af06c,S
2019-07-15 22:38:46,3b77f824-762e-48da-95eb-5a77b74af06c,A
2019-07-15 22:57:08,3b77f824-762e-48da-95eb-5a77b74af06c,S
2019-07-15 22:59:31,3b77f824-762e-48da-95eb-5a77b74af06c,A
2019-07-15 23:02:50,3b77f824-762e-48da-95eb-5a77b74af06c,S
2019-07-15 23:06:09,3b77f824-762e-48da-95eb-5a77b74af06c,A
2019-07-15 23:17:39,3b77f824-762e-48da-95eb-5a77b74af06c,S
2019-07-15 23:18:29,3b77f824-762e-48da-95eb-5a77b74af06c,A
2019-07-15 23:20:08,3b77f824-762e-48da-95eb-5a77b74af06c,S
2019-07-15 23:21:00,3b77f824-762e-48da-95eb-5a77b74af06c,A
2019-07-15 23:38:25,3b77f824-762e-48da-95eb-5a77b74af06c,S
2019-07-15 23:38:30,3b77f824-762e-48da-95eb-5a77b74af06c,A
2019-07-15 23:41:39,3b77f824-762e-48da-95eb-5a77b74af06c,S
2019-07-15 23:45:06,3b77f824-762e-48da-95eb-5a77b74af06c,A
2019-07-15 23:47:20,3b77f824-762e-48da-95eb-5a77b74af06c,S
2019-07-15 23:53:17,3b77f824-762e-48da-95eb-5a77b74af06c,A
2019-07-15 23:54:40,3b77f824-762e-48da-95eb-5a77b74af06c,S
2019-07-15 23:58:35,3b77f824-762e-48da-95eb-5a77b74af06c,A
2019-07-16 00:04:09,3b77f824-762e-48da-95eb-5a77b74af06c,S
2019-07-16 00:15:41,3b77f824-762e-48da-95eb-5a77b74af06c,A
2019-07-15 22:13:11,75d11967-a449-4d00-a6fb-14ed3ca8e846,A
2019-07-15 22:16:39,75d11967-a449-4d00-a6fb-14ed3ca8e846,S
2019-07-15 22:25:12,75d11967-a449-4d00-a6fb-14ed3ca8e846,A
2019-07-15 22:28:15,75d11967-a449-4d00-a6fb-14ed3ca8e846,S
2019-07-15 22:28:32,75d11967-a449-4d00-a6fb-14ed3ca8e846,A
2019-07-15 22:31:01,75d11967-a449-4d00-a6fb-14ed3ca8e846,S
2019-07-15 22:36:20,75d11967-a449-4d00-a6fb-14ed3ca8e846,A
2019-07-15 22:40:16,75d11967-a449-4d00-a6fb-14ed3ca8e846,S
2019-07-15 22:43:00,75d11967-a449-4d00-a6fb-14ed3ca8e846,A
2019-07-15 22:53:48,75d11967-a449-4d00-a6fb-14ed3ca8e846,S
2019-07-15 22:59:26,75d11967-a449-4d00-a6fb-14ed3ca8e846,A
2019-07-15 23:22:00,75d11967-a449-4d00-a6fb-14ed3ca8e846,S
2019-07-15 23:46:21,75d11967-a449-4d00-a6fb-14ed3ca8e846,A
2019-07-15 23:52:55,75d11967-a449-4d00-a6fb-14ed3ca8e846,S
2019-07-15 23:56:22,75d11967-a449-4d00-a6fb-14ed3ca8e846,A
2019-07-15 23:59:16,75d11967-a449-4d00-a6fb-14ed3ca8e846,S
2019-07-16 00:04:01,75d11967-a449-4d00-a6fb-14ed3ca8e846,A
2019-07-15 22:21:31,010ee46e-7dfa-451b-93e4-0470939be058,S
2019-07-15 22:27:43,010ee46e-7dfa-451b-93e4-0470939be058,A
2019-07-15 22:32:07,010ee46e-7dfa-451b-93e4-0470939be058,S
2019-07-15 22:42:39,010ee46e-7dfa-451b-93e4-0470939be058,A
2019-07-15 22:42:59,010ee46e-7dfa-451b-93e4-0470939be058,S
2019-07-15 22:48:27,010ee46e-7dfa-451b-93e4-0470939be058,A
2019-07-15 22:49:02,010ee46e-7dfa-451b-93e4-0470939be058,S
2019-07-15 22:49:39,010ee46e-7dfa-451b-93e4-0470939be058,A
2019-07-15 22:52:11,010ee46e-7dfa-451b-93e4-0470939be058,S
2019-07-15 22:52:31,010ee46e-7dfa-451b-93e4-0470939be058,A
2019-07-15 22:53:22,010ee46e-7dfa-451b-93e4-0470939be058,S
2019-07-15 23:08:55,010ee46e-7dfa-451b-93e4-0470939be058,A
2019-07-15 23:10:14,010ee46e-7dfa-451b-93e4-0470939be058,S
2019-07-15 23:13:23,010ee46e-7dfa-451b-93e4-0470939be058,A
2019-07-15 23:25:16,010ee46e-7dfa-451b-93e4-0470939be058,S
2019-07-15 23:26:43,010ee46e-7dfa-451b-93e4-0470939be058,A
2019-07-15 23:27:52,010ee46e-7dfa-451b-93e4-0470939be058,S
2019-07-15 23:28:43,010ee46e-7dfa-451b-93e4-0470939be058,A
2019-07-15 23:29:06,010ee46e-7dfa-451b-93e4-0470939be058,S
2019-07-15 23:35:36,010ee46e-7dfa-451b-93e4-0470939be058,A
2019-07-16 00:06:15,010ee46e-7dfa-451b-93e4-0470939be058,S
2019-07-16 00:10:01,010ee46e-7dfa-451b-93e4-0470939be058,A
2019-07-15 22:49:53,eef5b70e-2b02-4cb9-bb4c-9e50678a48a5,S
2019-07-15 22:50:36,eef5b70e-2b02-4cb9-bb4c-9e50678a48a5,A
2019-07-15 22:54:07,eef5b70e-2b02-4cb9-bb4c-9e50678a48a5,S
2019-07-15 22:58:09,eef5b70e-2b02-4cb9-bb4c-9e50678a48a5,A
2019-07-15 23:05:58,eef5b70e-2b02-4cb9-bb4c-9e50678a48a5,S
2019-07-15 23:12:28,eef5b70e-2b02-4cb9-bb4c-9e50678a48a5,A
2019-07-15 23:16:38,eef5b70e-2b02-4cb9-bb4c-9e50678a48a5,S
2019-07-15 23:18:04,eef5b70e-2b02-4cb9-bb4c-9e50678a48a5,A
2019-07-15 23:28:28,eef5b70e-2b02-4cb9-bb4c-9e50678a48a5,S
2019-07-15 23:28:43,eef5b70e-2b02-4cb9-bb4c-9e50678a48a5,A
2019-07-15 23:29:00,eef5b70e-2b02-4cb9-bb4c-9e50678a48a5,S
2019-07-15 23:30:29,eef5b70e-2b02-4cb9-bb4c-9e50678a48a5,A
2019-07-15 23:38:19,eef5b70e-2b02-4cb9-bb4c-9e50678a48a5,S
2019-07-15 23:42:16,eef5b70e-2b02-4cb9-bb4c-9e50678a48a5,A
2019-07-15 23:44:54,eef5b70e-2b02-4cb9-bb4c-9e50678a48a5,S
2019-07-15 23:47:22,eef5b70e-2b02-4cb9-bb4c-9e50678a48a5,A
2019-07-15 23:49:29,eef5b70e-2b02-4cb9-bb4c-9e50678a48a5,S
2019-07-15 23:54:09,eef5b70e-2b02-4cb9-bb4c-9e50678a48a5,A
2019-07-16 00:00:31,eef5b70e-2b02-4cb9-bb4c-9e50678a48a5,S
2019-07-16 00:00:41,eef5b70e-2b02-4cb9-bb4c-9e50678a48a5,A
2019-07-16 00:01:20,eef5b70e-2b02-4cb9-bb4c-9e50678a48a5,S
2019-07-16 00:03:38,eef5b70e-2b02-4cb9-bb4c-9e50678a48a5,A
2019-07-15 22:49:44,e1cf6ae6-f163-4617-b735-7616a628e812,S
2019-07-15 22:51:39,e1cf6ae6-f163-4617-b735-7616a628e812,A
2019-07-15 22:52:08,e1cf6ae6-f163-4617-b735-7616a628e812,S
2019-07-15 23:00:26,e1cf6ae6-f163-4617-b735-7616a628e812,A
2019-07-15 23:03:18,e1cf6ae6-f163-4617-b735-7616a628e812,S
2019-07-15 23:09:39,e1cf6ae6-f163-4617-b735-7616a628e812,A
2019-07-15 23:14:15,e1cf6ae6-f163-4617-b735-7616a628e812,S
2019-07-15 23:15:29,e1cf6ae6-f163-4617-b735-7616a628e812,A
2019-07-15 23:24:12,e1cf6ae6-f163-4617-b735-7616a628e812,S
2019-07-15 23:25:47,e1cf6ae6-f163-4617-b735-7616a628e812,A
2019-07-15 23:33:49,e1cf6ae6-f163-4617-b735-7616a628e812,S
2019-07-15 23:34:01,e1cf6ae6-f163-4617-b735-7616a628e812,A
2019-07-15 23:40:36,e1cf6ae6-f163-4617-b735-7616a628e812,S
2019-07-15 23:45:31,e1cf6ae6-f163-4617-b735-7616a628e812,A
2019-07-15 23:46:25,e1cf6ae6-f163-4617-b735-7616a628e812,S
2019-07-15 23:48:22,e1cf6ae6-f163-4617-b735-7616a628e812,A
2019-07-15 23:48:24,e1cf6ae6-f163-4617-b735-7616a628e812,S
2019-07-15 23:49:44,e1cf6ae6-f163-4617-b735-7616a628e812,A
2019-07-15 23:52:30,e1cf6ae6-f163-4617-b735-7616a628e812,S
2019-07-15 23:59:56,e1cf6ae6-f163-4617-b735-7616a628e812,A
2019-07-16 00:01:29,e1cf6ae6-f163-4617-b735-7616a628e812,S
2019-07-16 00:02:05,e1cf6ae6-f163-4617-b735-7616a628e812,A
2019-07-16 00:09:07,e1cf6ae6-f163-4617-b735-7616a628e812,S
2019-07-16 00:12:36,e1cf6ae6-f163-4617-b735-7616a628e812,A
2019-07-15 22:23:27,31d4f881-6ed3-47b9-b7b9-b54f10c2df36,S
2019-07-15 22:35:22,31d4f881-6ed3-47b9-b7b9-b54f10c2df36,A
2019-07-15 22:35:41,31d4f881-6ed3-47b9-b7b9-b54f10c2df36,S
2019-07-15 22:51:05,31d4f881-6ed3-47b9-b7b9-b54f10c2df36,A
2019-07-15 22:53:58,31d4f881-6ed3-47b9-b7b9-b54f10c2df36,S
2019-07-15 22:55:57,31d4f881-6ed3-47b9-b7b9-b54f10c2df36,A
2019-07-15 23:04:04,31d4f881-6ed3-47b9-b7b9-b54f10c2df36,S
2019-07-15 23:05:00,31d4f881-6ed3-47b9-b7b9-b54f10c2df36,A
2019-07-15 23:07:13,31d4f881-6ed3-47b9-b7b9-b54f10c2df36,S
2019-07-15 23:21:37,31d4f881-6ed3-47b9-b7b9-b54f10c2df36,A
2019-07-15 23:26:56,31d4f881-6ed3-47b9-b7b9-b54f10c2df36,S
2019-07-15 23:28:29,31d4f881-6ed3-47b9-b7b9-b54f10c2df36,A
2019-07-15 23:29:17,31d4f881-6ed3-47b9-b7b9-b54f10c2df36,S
2019-07-15 23:31:14,31d4f881-6ed3-47b9-b7b9-b54f10c2df36,A
2019-07-15 23:34:31,31d4f881-6ed3-47b9-b7b9-b54f10c2df36,S
2019-07-15 23:34:38,31d4f881-6ed3-47b9-b7b9-b54f10c2df36,A
2019-07-15 23:46:57,31d4f881-6ed3-47b9-b7b9-b54f10c2df36,S
2019-07-15 23:48:17,31d4f881-6ed3-47b9-b7b9-b54f10c2df36,A
2019-07-15 23:53:10,31d4f881-6ed3-47b9-b7b9-b54f10c2df36,S
2019-07-15 23:56:35,31d4f881-6ed3-47b9-b7b9-b54f10c2df36,A
2019-07-15 23:57:49,31d4f881-6ed3-47b9-b7b9-b54f10c2df36,S
2019-07-15 23:58:32,31d4f881-6ed3-47b9-b7b9-b54f10c2df36,A
2019-07-16 00:11:12,31d4f881-6ed3-47b9-b7b9-b54f10c2df36,S
2019-07-16 00:12:40,31d4f881-6ed3-47b9-b7b9-b54f10c2df36,A
2019-07-16 00:13:53,31d4f881-6ed3-47b9-b7b9-b54f10c2df36,S
2019-07-16 00:16:30,31d4f881-6ed3-47b9-b7b9-b54f10c2df36,A
2019-07-15 22:58:56,465f5df7-396f-48b1-8de8-a31df8f35507,S
2019-07-15 23:00:10,465f5df7-396f-48b1-8de8-a31df8f35507,A
2019-07-15 23:05:56,465f5df7-396f-48b1-8de8-a31df8f35507,S
2019-07-15 23:19:15,465f5df7-396f-48b1-8de8-a31df8f35507,A
2019-07-15 23:27:01,465f5df7-396f-48b1-8de8-a31df8f35507,S
2019-07-15 23:29:31,465f5df7-396f-48b1-8de8-a31df8f35507,A
2019-07-15 23:45:54,465f5df7-396f-48b1-8de8-a31df8f35507,S
2019-07-15 23:52:01,465f5df7-396f-48b1-8de8-a31df8f35507,A
2019-07-16 00:06:50,465f5df7-396f-48b1-8de8-a31df8f35507,S
2019-07-16 00:12:04,465f5df7-396f-48b1-8de8-a31df8f35507,A
2019-07-16 00:14:38,465f5df7-396f-48b1-8de8-a31df8f35507,S
2019-07-15 22:55:27,c96809f2-5258-4ce6-aef9-c685b530f5e8,S
2019-07-15 22:57:39,c96809f2-5258-4ce6-aef9-c685b530f5e8,A
2019-07-15 23:00:24,c96809f2-5258-4ce6-aef9-c685b530f5e8,S
2019-07-15 23:17:20,c96809f2-5258-4ce6-aef9-c685b530f5e8,A
2019-07-15 23:19:00,c96809f2-5258-4ce6-aef9-c685b530f5e8,S
2019-07-15 23:20:07,c96809f2-5258-4ce6-aef9-c685b530f5e8,A
2019-07-15 23:25:22,c96809f2-5258-4ce6-aef9-c685b530f5e8,S
2019-07-15 23:34:00,c96809f2-5258-4ce6-aef9-c685b530f5e8,A
2019-07-15 23:35:57,c96809f2-5258-4ce6-aef9-c685b530f5e8,S
2019-07-15 23:43:32,c96809f2-5258-4ce6-aef9-c685b530f5e8,A
2019-07-15 23:44:21,c96809f2-5258-4ce6-aef9-c685b530f5e8,S
2019-07-15 23:56:08,c96809f2-5258-4ce6-aef9-c685b530f5e8,A
2019-07-16 00:04:00,c96809f2-5258-4ce6-aef9-c685b530f5e8,S
2019-07-16 00:05:39,c96809f2-5258-4ce6-aef9-c685b530f5e8,A
2019-07-16 00:09:28,c96809f2-5258-4ce6-aef9-c685b530f5e8,S
2019-07-16 00:11:46,c96809f2-5258-4ce6-aef9-c685b530f5e8,A
2019-07-15 22:10:42,9f941d82-a94b-4fca-a851-534921386896,A
2019-07-15 22:26:45,9f941d82-a94b-4fca-a851-534921386896,S
2019-07-15 22:29:59,9f941d82-a94b-4fca-a851-534921386896,A
2019-07-15 22:32:45,9f941d82-a94b-4fca-a851-534921386896,S
2019-07-15 22:33:15,9f941d82-a94b-4fca-a851-534921386896,A
2019-07-15 22:47:14,9f941d82-a94b-4fca-a851-534921386896,S
2019-07-15 22:50:43,9f941d82-a94b-4fca-a851-534921386896,A
2019-07-15 22:53:34,9f941d82-a94b-4fca-a851-534921386896,S
2019-07-15 22:57:34,9f941d82-a94b-4fca-a851-534921386896,A
2019-07-15 23:10:58,9f941d82-a94b-4fca-a851-534921386896,S
2019-07-15 23:11:09,9f941d82-a94b-4fca-a851-534921386896,A
2019-07-15 23:19:51,9f941d82-a94b-4fca-a851-534921386896,S
2019-07-15 23:24:07,9f941d82-a94b-4fca-a851-534921386896,A
2019-07-15 23:30:44,9f941d82-a94b-4fca-a851-534921386896,S
2019-07-15 23:33:16,9f941d82-a94b-4fca-a851-534921386896,A
2019-07-15 23:44:27,9f941d82-a94b-4fca-a851-534921386896,S
2019-07-15 23:46:21,9f941d82-a94b-4fca-a851-534921386896,A
2019-07-15 23:47:19,9f941d82-a94b-4fca-a851-534921386896,S
2019-07-15 23:50:11,9f941d82-a94b-4fca-a851-534921386896,A
2019-07-15 23:56:10,9f941d82-a94b-4fca-a851-534921386896,S
2019-07-16 00:04:58,9f941d82-a94b-4fca-a851-534921386896,A
2019-07-16 00:08:01,9f941d82-a94b-4fca-a851-534921386896,S
2019-07-16 00:09:52,9f941d82-a94b-4fca-a851-534921386896,A
2019-07-16 00:12:02,9f941d82-a94b-4fca-a851-534921386896,S
2019-07-15 22:41:26,8195b95a-984d-4ca8-b849-5d807fa876ca,A
2019-07-15 22:52:56,8195b95a-984d-4ca8-b849-5d807fa876ca,S
2019-07-15 23:02:53,8195b95a-984d-4ca8-b849-5d807fa876ca,A
2019-07-15 23:08:20,8195b95a-984d-4ca8-b849-5d807fa876ca,S
2019-07-15 23:09:03,8195b95a-984d-4ca8-b849-5d807fa876ca,A
2019-07-15 23:10:00,8195b95a-984d-4ca8-b849-5d807fa876ca,S
2019-07-15 23:11:57,8195b95a-984d-4ca8-b849-5d807fa876ca,A
2019-07-15 23:13:18,8195b95a-984d-4ca8-b849-5d807fa876ca,S
2019-07-15 23:20:37,8195b95a-984d-4ca8-b849-5d807fa876ca,A
2019-07-15 23:22:31,8195b95a-984d-4ca8-b849-5d807fa876ca,S
2019-07-15 23:24:14,8195b95a-984d-4ca8-b849-5d807fa876ca,A
2019-07-15 23:39:38,8195b95a-984d-4ca8-b849-5d807fa876ca,S
2019-07-15 23:45:32,8195b95a-984d-4ca8-b849-5d807fa876ca,A
2019-07-15 23:50:05,8195b95a-984d-4ca8-b849-5d807fa876ca,S
2019-07-15 23:51:08,8195b95a-984d-4ca8-b849-5d807fa876ca,A
2019-07-15 23:53:28,8195b95a-984d-4ca8-b849-5d807fa876ca,S
2019-07-15 23:57:08,8195b95a-984d-4ca8-b849-5d807fa876ca,A
2019-07-15 23:59:09,8195b95a-984d-4ca8-b849-5d807fa876ca,S
2019-07-15 23:59:16,8195b95a-984d-4ca8-b849-5d807fa876ca,A
2019-07-16 00:08:23,8195b95a-984d-4ca8-b849-5d807fa876ca,S
2019-07-16 00:14:42,8195b95a-984d-4ca8-b849-5d807fa876ca,A
2019-07-16 00:15:48,8195b95a-984d-4ca8-b849-5d807fa876ca,S
2019-07-16 00:16:41,8195b95a-984d-4ca8-b849-5d807fa876ca,A
2019-07-15 22:41:16,56ffc223-5bf6-48d8-a4e8-4db578f97dc5,S
2019-07-15 22:41:58,56ffc223-5bf6-48d8-a4e8-4db578f97dc5,A
2019-07-15 22:57:39,56ffc223-5bf6-48d8-a4e8-4db578f97dc5,S
2019-07-15 23:04:54,56ffc223-5bf6-48d8-a4e8-4db578f97dc5,A
2019-07-15 23:05:15,56ffc223-5bf6-48d8-a4e8-4db578f97dc5,S
2019-07-15 23:05:45,56ffc223-5bf6-48d8-a4e8-4db578f97dc5,A
2019-07-15 23:06:51,56ffc223-5bf6-48d8-a4e8-4db578f97dc5,S
2019-07-15 23:14:40,56ffc223-5bf6-48d8-a4e8-4db578f97dc5,A
2019-07-15 23:17:09,56ffc223-5bf6-48d8-a4e8-4db578f97dc5,S
2019-07-15 23:18:07,56ffc223-5bf6-48d8-a4e8-4db578f97dc5,A
2019-07-15 23:23:06,56ffc223-5bf6-48d8-a4e8-4db578f97dc5,S
2019-07-15 23:26:32,56ffc223-5bf6-48d8-a4e8-4db578f97dc5,A
2019-07-15 23:34:14,56ffc223-5bf6-48d8-a4e8-4db578f97dc5,S
2019-07-15 23:37:46,56ffc223-5bf6-48d8-a4e8-4db578f97dc5,A
2019-07-15 23:38:51,56ffc223-5bf6-48d8-a4e8-4db578f97dc5,S
2019-07-15 23:40:09,56ffc223-5bf6-48d8-a4e8-4db578f97dc5,A
2019-07-15 23:49:17,56ffc223-5bf6-48d8-a4e8-4db578f97dc5,S
2019-07-15 23:50:24,56ffc223-5bf6-48d8-a4e8-4db578f97dc5,A
2019-07-15 23:53:02,56ffc223-5bf6-48d8-a4e8-4db578f97dc5,S
2019-07-15 23:55:09,56ffc223-5bf6-48d8-a4e8-4db578f97dc5,A
2019-07-16 00:03:41,56ffc223-5bf6-48d8-a4e8-4db578f97dc5,S
2019-07-16 00:05:55,56ffc223-5bf6-48d8-a4e8-4db578f97dc5,A
2019-07-16 00:10:52,56ffc223-5bf6-48d8-a4e8-4db578f97dc5,S
2019-07-16 00:14:20,56ffc223-5bf6-48d8-a4e8-4db578f97dc5,A
2019-07-16 00:14:55,56ffc223-5bf6-48d8-a4e8-4db578f97dc5,S
2019-07-16 00:16:27,56ffc223-5bf6-48d8-a4e8-4db578f97dc5,A
2019-07-15 22:11:10,37f17c4c-5f53-4718-b8c5-4236b813484d,S
2019-07-15 22:15:13,37f17c4c-5f53-4718-b8c5-4236b813484d,A
2019-07-15 22:16:02,37f17c4c-5f53-4718-b8c5-4236b813484d,S
2019-07-15 22:21:15,37f17c4c-5f53-4718-b8c5-4236b813484d,A
2019-07-15 22:26:08,37f17c4c-5f53-4718-b8c5-4236b813484d,S
2019-07-15 22:31:07,37f17c4c-5f53-4718-b8c5-4236b813484d,A
2019-07-15 22:33:42,37f17c4c-5f53-4718-b8c5-4236b813484d,S
2019-07-15 22:34:28,37f17c4c-5f53-4718-b8c5-4236b813484d,A
2019-07-15 22:45:04,37f17c4c-5f53-4718-b8c5-4236b813484d,S
2019-07-15 22:45:27,37f17c4c-5f53-4718-b8c5-4236b813484d,A
2019-07-15 22:53:05,37f17c4c-5f53-4718-b8c5-4236b813484d,S
2019-07-15 22:58:25,37f17c4c-5f53-4718-b8c5-4236b813484d,A
2019-07-15 22:58:51,37f17c4c-5f53-4718-b8c5-4236b813484d,S
2019-07-15 23:05:17,37f17c4c-5f53-4718-b8c5-4236b813484d,A
2019-07-15 23:07:21,37f17c4c-5f53-4718-b8c5-4236b813484d,S
2019-07-15 23:07:34,37f17c4c-5f53-4718-b8c5-4236b813484d,A
2019-07-15 23:12:37,37f17c4c-5f53-4718-b8c5-4236b813484d,S
2019-07-15 23:13:19,37f17c4c-5f53-4718-b8c5-4236b813484d,A
2019-07-15 23:30:25,37f17c4c-5f53-4718-b8c5-4236b813484d,S
2019-07-15 23:32:42,37f17c4c-5f53-4718-b8c5-4236b813484d,A
2019-07-15 23:33:02,37f17c4c-5f53-4718-b8c5-4236b813484d,S
2019-07-15 23:36:27,37f17c4c-5f53-4718-b8c5-4236b813484d,A
2019-07-15 23:36:38,37f17c4c-5f53-4718-b8c5-4236b813484d,S
2019-07-15 23:43:39,37f17c4c-5f53-4718-b8c5-4236b813484d,A
2019-07-15 22:28:41,525aeda8-e7c1-471a-be7e-f2345b7f8c43,A
2019-07-15 22:32:22,525aeda8-e7c1-471a-be7e-f2345b7f8c43,S
2019-07-15 22:35:41,525aeda8-e7c1-471a-be7e-f2345b7f8c43,A
2019-07-15 22:37:21,525aeda8-e7c1-471a-be7e-f2345b7f8c43,S
2019-07-15 22:52:52,525aeda8-e7c1-471a-be7e-f2345b7f8c43,A
2019-07-15 22:54:36,525aeda8-e7c1-471a-be7e-f2345b7f8c43,S
2019-07-15 22:54:59,525aeda8-e7c1-471a-be7e-f2345b7f8c43,A
2019-07-15 23:16:47,525aeda8-e7c1-471a-be7e-f2345b7f8c43,S
2019-07-15 23:23:57,525aeda8-e7c1-471a-be7e-f2345b7f8c43,A
2019-07-15 23:28:18,525aeda8-e7c1-471a-be7e-f2345b7f8c43,S
2019-07-15 23:28:58,525aeda8-e7c1-471a-be7e-f2345b7f8c43,A
2019-07-15 23:33:13,525aeda8-e7c1-471a-be7e-f2345b7f8c43,S
2019-07-15 23:35:03,525aeda8-e7c1-471a-be7e-f2345b7f8c43,A
2019-07-15 23:37:46,525aeda8-e7c1-471a-be7e-f2345b7f8c43,S
2019-07-15 23:47:00,525aeda8-e7c1-471a-be7e-f2345b7f8c43,A
2019-07-15 23:54:36,525aeda8-e7c1-471a-be7e-f2345b7f8c43,S
2019-07-15 23:59:33,525aeda8-e7c1-471a-be7e-f2345b7f8c43,A
2019-07-16 00:06:10,525aeda8-e7c1-471a-be7e-f2345b7f8c43,S
2019-07-15 22:47:01,d40c90aa-425c-4861-b869-45edf9d217e3,S
2019-07-15 22:48:56,d40c90aa-425c-4861-b869-45edf9d217e3,A
2019-07-15 22:52:05,d40c90aa-425c-4861-b869-45edf9d217e3,S
2019-07-15 22:52:34,d40c90aa-425c-4861-b869-45edf9d217e3,A
2019-07-15 22:55:43,d40c90aa-425c-4861-b869-45edf9d217e3,S
2019-07-15 22:57:43,d40c90aa-425c-4861-b869-45edf9d217e3,A
2019-07-15 23:01:59,d40c90aa-425c-4861-b869-45edf9d217e3,S
2019-07-15 23:02:56,d40c90aa-425c-4861-b869-45edf9d217e3,A
2019-07-15 23:03:46,d40c90aa-425c-4861-b869-45edf9d217e3,S
2019-07-15 23:11:13,d40c90aa-425c-4861-b869-45edf9d217e3,A
2019-07-15 23:13:25,d40c90aa-425c-4861-b869-45edf9d217e3,S
2019-07-15 23:16:57,d40c90aa-425c-4861-b869-45edf9d217e3,A
2019-07-15 23:25:14,d40c90aa-425c-4861-b869-45edf9d217e3,S
2019-07-15 23:32:38,d40c90aa-425c-4861-b869-45edf9d217e3,A
2019-07-15 23:34:40,d40c90aa-425c-4861-b869-45edf9d217e3,S
2019-07-15 23:37:25,d40c90aa-425c-4861-b869-45edf9d217e3,A
2019-07-15 23:38:30,d40c90aa-425c-4861-b869-45edf9d217e3,S
2019-07-15 23:39:48,d40c90aa-425c-4861-b869-45edf9d217e3,A
2019-07-15 23:41:20,d40c90aa-425c-4861-b869-45edf9d217e3,S
2019-07-15 23:49:27,d40c90aa-425c-4861-b869-45edf9d217e3,A
2019-07-15 23:49:38,d40c90aa-425c-4861-b869-45edf9d217e3,S
2019-07-15 23:49:49,d40c90aa-425c-4861-b869-45edf9d217e3,A
2019-07-15 23:53:40,d40c90aa-425c-4861-b869-45edf9d217e3,S
2019-07-15 23:56:04,d40c90aa-425c-4861-b869-45edf9d217e3,A
2019-07-15 23:56:48,d40c90aa-425c-4861-b869-45edf9d217e3,S
2019-07-15 23:58:06,d40c90aa-425c-4861-b869-45edf9d217e3,A
2019-07-15 23:59:00,d40c90aa-425c-4861-b869-45edf9d217e3,S
2019-07-16 00:07:22,d40c90aa-425c-4861-b869-45edf9d217e3,A
2019-07-16 00:08:36,d40c90aa-425c-4861-b869-45edf9d217e3,S
2019-07-16 00:17:34,d40c90aa-425c-4861-b869-45edf9d217e3,A
2019-07-15 22:07:11,44cf8b0a-2fe1-4149-8e7f-aa76f2e329f8,A
2019-07-15 22:11:28,44cf8b0a-2fe1-4149-8e7f-aa76f2e329f8,S
2019-07-15 22:13:44,44cf8b0a-2fe1-4149-8e7f-aa76f2e329f8,A
2019-07-15 22:21:27,44cf8b0a-2fe1-4149-8e7f-aa76f2e329f8,S
2019-07-15 22:30:45,44cf8b0a-2fe1-4149-8e7f-aa76f2e329f8,A
2019-07-15 22:35:06,44cf8b0a-2fe1-4149-8e7f-aa76f2e329f8,S
2019-07-15 22:39:40,44cf8b0a-2fe1-4149-8e7f-aa76f2e329f8,A
2019-07-15 22:54:57,44cf8b0a-2fe1-4149-8e7f-aa76f2e329f8,S
2019-07-15 22:59:50,44cf8b0a-2fe1-4149-8e7f-aa76f2e329f8,A
2019-07-15 23:12:39,44cf8b0a-2fe1-4149-8e7f-aa76f2e329f8,S
2019-07-15 23:13:08,44cf8b0a-2fe1-4149-8e7f-aa76f2e329f8,A
2019-07-15 23:20:21,44cf8b0a-2fe1-4149-8e7f-aa76f2e329f8,S
2019-07-15 23:28:15,44cf8b0a-2fe1-4149-8e7f-aa76f2e329f8,A
2019-07-15 23:29:25,44cf8b0a-2fe1-4149-8e7f-aa76f2e329f8,S
2019-07-15 23:30:58,44cf8b0a-2fe1-4149-8e7f-aa76f2e329f8,A
2019-07-15 23:31:35,44cf8b0a-2fe1-4149-8e7f-aa76f2e329f8,S
2019-07-15 23:33:08,44cf8b0a-2fe1-4149-8e7f-aa76f2e329f8,A
2019-07-15 23:33:43,44cf8b0a-2fe1-4149-8e7f-aa76f2e329f8,S
2019-07-15 23:33:49,44cf8b0a-2fe1-4149-8e7f-aa76f2e329f8,A
2019-07-15 23:34:11,44cf8b0a-2fe1-4149-8e7f-aa76f2e329f8,S
2019-07-15 23:35:08,44cf8b0a-2fe1-4149-8e7f-aa76f2e329f8,A
2019-07-15 23:42:33,44cf8b0a-2fe1-4149-8e7f-aa76f2e329f8,S
2019-07-15 23:54:51,44cf8b0a-2fe1-4149-8e7f-aa76f2e329f8,A
2019-07-15 23:55:29,44cf8b0a-2fe1-4149-8e7f-aa76f2e329f8,S
2019-07-16 00:13:59,44cf8b0a-2fe1-4149-8e7f-aa76f2e329f8,A
2019-07-15 22:37:36,8a433ce6-b07a-4b56-aad3-590fa8298d70,A
2019-07-15 22:56:29,8a433ce6-b07a-4b56-aad3-590fa8298d70,S
2019-07-15 22:56:50,8a433ce6-b07a-4b56-aad3-590fa8298d70,A
2019-07-15 22:59:35,8a433ce6-b07a-4b56-aad3-590fa8298d70,S
2019-07-15 23:03:35,8a433ce6-b07a-4b56-aad3-590fa8298d70,A
2019-07-15 23:04:04,8a433ce6-b07a-4b56-aad3-590fa8298d70,S
2019-07-15 23:07:06,8a433ce6-b07a-4b56-aad3-590fa8298d70,A
2019-07-15 23:08:44,8a433ce6-b07a-4b56-aad3-590fa8298d70,S
2019-07-15 23:23:14,8a433ce6-b07a-4b56-aad3-590fa8298d70,A
2019-07-15 23:24:50,8a433ce6-b07a-4b56-aad3-590fa8298d70,S
2019-07-15 23:24:56,8a433ce6-b07a-4b56-aad3-590fa8298d70,A
2019-07-15 23:27:16,8a433ce6-b07a-4b56-aad3-590fa8298d70,S
2019-07-15 23:27:23,8a433ce6-b07a-4b56-aad3-590fa8298d70,A
2019-07-15 23:29:26,8a433ce6-b07a-4b56-aad3-590fa8298d70,S
2019-07-15 23:33:27,8a433ce6-b07a-4b56-aad3-590fa8298d70,A
2019-07-15 23:44:10,8a433ce6-b07a-4b56-aad3-590fa8298d70,S
2019-07-15 23:49:53,8a433ce6-b07a-4b56-aad3-590fa8298d70,A
2019-07-15 23:52:08,8a433ce6-b07a-4b56-aad3-590fa8298d70,S
2019-07-15 23:55:33,8a433ce6-b07a-4b56-aad3-590fa8298d70,A
2019-07-15 23:59:06,8a433ce6-b07a-4b56-aad3-590fa8298d70,S
2019-07-16 00:16:52,8a433ce6-b07a-4b56-aad3-590fa8298d70,A
2019-07-15 22:48:51,66abe1c8-d29c-4dbc-b155-f3c35ca5b963,A
2019-07-15 22:56:06,66abe1c8-d29c-4dbc-b155-f3c35ca5b963,S
2019-07-15 22:58:00,66abe1c8-d29c-4dbc-b155-f3c35ca5b963,A
2019-07-15 23:02:50,66abe1c8-d29c-4dbc-b155-f3c35ca5b963,S
2019-07-15 23:10:05,66abe1c8-d29c-4dbc-b155-f3c35ca5b963,A
2019-07-15 23:17:02,66abe1c8-d29c-4dbc-b155-f3c35ca5b963,S
2019-07-15 23:17:35,66abe1c8-d29c-4dbc-b155-f3c35ca5b963,A
2019-07-15 23:18:00,66abe1c8-d29c-4dbc-b155-f3c35ca5b963,S
2019-07-15 23:19:24,66abe1c8-d29c-4dbc-b155-f3c35ca5b963,A
2019-07-15 23:20:02,66abe1c8-d29c-4dbc-b155-f3c35ca5b963,S
2019-07-15 23:22:18,66abe1c8-d29c-4dbc-b155-f3c35ca5b963,A
2019-07-15 23:28:40,66abe1c8-d29c-4dbc-b155-f3c35ca5b963,S
2019-07-15 23:30:03,66abe1c8-d29c-4dbc-b155-f3c35ca5b963,A
2019-07-15 23:32:45,66abe1c8-d29c-4dbc-b155-f3c35ca5b963,S
2019-07-15 23:33:20,66abe1c8-d29c-4dbc-b155-f3c35ca5b963,A
2019-07-15 23:34:40,66abe1c8-d29c-4dbc-b155-f3c35ca5b963,S
2019-07-15 23:54:01,66abe1c8-d29c-4dbc-b155-f3c35ca5b963,A
2019-07-15 22:18:58,d4213758-9564-4ddb-ae0e-87cd426b437c,S
2019-07-15 22:22:25,d4213758-9564-4ddb-ae0e-87cd426b437c,A
2019-07-15 22:28:28,d4213758-9564-4ddb-ae0e-87cd426b437c,S
2019-07-15 22:38:25,d4213758-9564-4ddb-ae0e-87cd426b437c,A
2019-07-15 22:58:33,d4213758-9564-4ddb-ae0e-87cd426b437c,S
2019-07-15 23:04:29,d4213758-9564-4ddb-ae0e-87cd426b437c,A
2019-07-15 23:15:18,d4213758-9564-4ddb-ae0e-87cd426b437c,S
2019-07-15 23:20:43,d4213758-9564-4ddb-ae0e-87cd426b437c,A
2019-07-15 23:25:00,d4213758-9564-4ddb-ae0e-87cd426b437c,S
2019-07-15 23:30:33,d4213758-9564-4ddb-ae0e-87cd426b437c,A
2019-07-15 23:30:45,d4213758-9564-4ddb-ae0e-87cd426b437c,S
2019-07-15 23:32:29,d4213758-9564-4ddb-ae0e-87cd426b437c,A
2019-07-15 23:38:24,d4213758-9564-4ddb-ae0e-87cd426b437c,S
2019-07-15 23:40:06,d4213758-9564-4ddb-ae0e-87cd426b437c,A
2019-07-15 23:44:37,d4213758-9564-4ddb-ae0e-87cd426b437c,S
2019-07-15 23:48:12,d4213758-9564-4ddb-ae0e-87cd426b437c,A
2019-07-15 23:53:30,d4213758-9564-4ddb-ae0e-87cd426b437c,S
2019-07-16 00:01:14,d4213758-9564-4ddb-ae0e-87cd426b437c,A
2019-07-15 22:13:29,d2bb610b-b0d7-4fc7-94e5-f373d168e45a,S
2019-07-15 22:15:02,d2bb610b-b0d7-4fc7-94e5-f373d168e45a,A
2019-07-15 22:15:50,d2bb610b-b0d7-4fc7-94e5-f373d168e45a,S
2019-07-15 22:15:57,d2bb610b-b0d7-4fc7-94e5-f373d168e45a,A
2019-07-15 22:16:02,d2bb610b-b0d7-4fc7-94e5-f373d168e45a,S
2019-07-15 22:16:27,d2bb610b-b0d7-4fc7-94e5-f373d168e45a,A
2019-07-15 22:21:12,d2bb610b-b0d7-4fc7-94e5-f373d168e45a,S
2019-07-15 22:25:20,d2bb610b-b0d7-4fc7-94e5-f373d168e45a,A
2019-07-15 22:27:08,d2bb610b-b0d7-4fc7-94e5-f373d168e45a,S
2019-07-15 22:29:21,d2bb610b-b0d7-4fc7-94e5-f373d168e45a,A
2019-07-15 22:40:00,d2bb610b-b0d7-4fc7-94e5-f373d168e45a,S
2019-07-15 22:42:02,d2bb610b-b0d7-4fc7-94e5-f373d168e45a,A
2019-07-15 22:51:11,d2bb610b-b0d7-4fc7-94e5-f373d168e45a,S
2019-07-15 22:53:47,d2bb610b-b0d7-4fc7-94e5-f373d168e45a,A
2019-07-15 23:02:22,d2bb610b-b0d7-4fc7-94e5-f373d168e45a,S
2019-07-15 23:04:24,d2bb610b-b0d7-4fc7-94e5-f373d168e45a,A
2019-07-15 23:06:12,d2bb610b-b0d7-4fc7-94e5-f373d168e45a,S
2019-07-15 23:09:16,d2bb610b-b0d7-4fc7-94e5-f373d168e45a,A
2019-07-15 23:09:24,d2bb610b-b0d7-4fc7-94e5-f373d168e45a,S
2019-07-15 23:21:27,d2bb610b-b0d7-4fc7-94e5-f373d168e45a,A
2019-07-15 23:25:06,d2bb610b-b0d7-4fc7-94e5-f373d168e45a,S
2019-07-15 23:36:50,d2bb610b-b0d7-4fc7-94e5-f373d168e45a,A
2019-07-15 23:37:34,d2bb610b-b0d7-4fc7-94e5-f373d168e45a,S
2019-07-15 23:44:28,d2bb610b-b0d7-4fc7-94e5-f373d168e45a,A
2019-07-15 23:45:48,d2bb610b-b0d7-4fc7-94e5-f373d168e45a,S
2019-07-15 23:48:15,d2bb610b-b0d7-4fc7-94e5-f373d168e45a,A
2019-07-15 23:56:40,d2bb610b-b0d7-4fc7-94e5-f373d168e45a,S
2019-07-16 00:04:49,d2bb610b-b0d7-4fc7-94e5-f373d168e45a,A
2019-07-16 00:14:59,d2bb610b-b0d7-4fc7-94e5-f373d168e45a,S
2019-07-16 00:16:57,d2bb610b-b0d7-4fc7-94e5-f373d168e45a,A
2019-07-15 22:44:08,b158a709-608b-4518-8b85-e4ba111ebce5,A
2019-07-15 22:44:47,b158a709-608b-4518-8b85-e4ba111ebce5,S
2019-07-15 22:46:22,b158a709-608b-4518-8b85-e4ba111ebce5,A
2019-07-15 23:00:35,b158a709-608b-4518-8b85-e4ba111ebce5,S
2019-07-15 23:02:42,b158a709-608b-4518-8b85-e4ba111ebce5,A
2019-07-15 23:05:09,b158a709-608b-4518-8b85-e4ba111ebce5,S
2019-07-15 23:12:47,b158a709-608b-4518-8b85-e4ba111ebce5,A
2019-07-15 23:16:27,b158a709-608b-4518-8b85-e4ba111ebce5,S
2019-07-15 23:19:48,b158a709-608b-4518-8b85-e4ba111ebce5,A
2019-07-15 23:30:39,b158a709-608b-4518-8b85-e4ba111ebce5,S
2019-07-15 23:30:42,b158a709-608b-4518-8b85-e4ba111ebce5,A
2019-07-15 23:40:13,b158a709-608b-4518-8b85-e4ba111ebce5,S
2019-07-16 00:00:42,b158a709-608b-4518-8b85-e4ba111ebce5,A
2019-07-16 00:07:57,b158a709-608b-4518-8b85-e4ba111ebce5,S
2019-07-16 00:11:56,b158a709-608b-4518-8b85-e4ba111ebce5,A
2019-07-15 22:19:04,176eeaa6-1cdc-4987-aacd-8c9c962d48bc,S
2019-07-15 22:24:02,176eeaa6-1cdc-4987-aacd-8c9c962d48bc,A
2019-07-15 22:24:23,176eeaa6-1cdc-4987-aacd-8c9c962d48bc,S
2019-07-15 22:29:08,176eeaa6-1cdc-4987-aacd-8c9c962d48bc,A
2019-07-15 22:34:05,176eeaa6-1cdc-4987-aacd-8c9c962d48bc,S
2019-07-15 22:36:07,176eeaa6-1cdc-4987-aacd-8c9c962d48bc,A
2019-07-15 22:08:21,d8d06aca-38ec-4940-bd23-cf5579528130,S
2019-07-15 22:09:27,d8d06aca-38ec-4940-bd23-cf5579528130,A
2019-07-15 22:10:41,d8d06aca-38ec-4940-bd23-cf5579528130,S
2019-07-15 22:14:20,d8d06aca-38ec-4940-bd23-cf5579528130,A
2019-07-15 22:17:04,d8d06aca-38ec-4940-bd23-cf5579528130,S
2019-07-15 22:22:14,d8d06aca-38ec-4940-bd23-cf5579528130,A
2019-07-15 22:23:32,d8d06aca-38ec-4940-bd23-cf5579528130,S
2019-07-15 22:29:31,d8d06aca-38ec-4940-bd23-cf5579528130,A
2019-07-15 22:40:48,d8d06aca-38ec-4940-bd23-cf5579528130,S
2019-07-15 22:44:28,d8d06aca-38ec-4940-bd23-cf5579528130,A
2019-07-15 22:49:00,d8d06aca-38ec-4940-bd23-cf5579528130,S
2019-07-15 23:00:27,d8d06aca-38ec-4940-bd23-cf5579528130,A
2019-07-15 23:13:54,d8d06aca-38ec-4940-bd23-cf5579528130,S
2019-07-15 23:14:52,d8d06aca-38ec-4940-bd23-cf5579528130,A
2019-07-15 23:16:25,d8d06aca-38ec-4940-bd23-cf5579528130,S
2019-07-15 23:17:11,d8d06aca-38ec-4940-bd23-cf5579528130,A
2019-07-15 23:18:20,d8d06aca-38ec-4940-bd23-cf5579528130,S
2019-07-15 23:26:56,d8d06aca-38ec-4940-bd23-cf5579528130,A
2019-07-15 23:28:54,d8d06aca-38ec-4940-bd23-cf5579528130,S
2019-07-15 23:30:42,d8d06aca-38ec-4940-bd23-cf5579528130,A
2019-07-15 23:35:30,d8d06aca-38ec-4940-bd23-cf5579528130,S
2019-07-15 23:44:23,d8d06aca-38ec-4940-bd23-cf5579528130,A
2019-07-15 23:55:16,d8d06aca-38ec-4940-bd23-cf5579528130,S
2019-07-15 23:59:12,d8d06aca-38ec-4940-bd23-cf5579528130,A
2019-07-15 23:59:29,d8d06aca-38ec-4940-bd23-cf5579528130,S
2019-07-16 00:05:08,d8d06aca-38ec-4940-bd23-cf5579528130,A
2019-07-16 00:11:34,d8d06aca-38ec-4940-bd23-cf5579528130,S
2019-07-16 00:11:34,d8d06aca-38ec-4940-bd23-cf5579528130,A
2019-07-16 00:13:33,d8d06aca-38ec-4940-bd23-cf5579528130,S
2019-07-16 00:16:11,d8d06aca-38ec-4940-bd23-cf5579528130,A
2019-07-16 00:18:00,d8d06aca-38ec-4940-bd23-cf5579528130,S
2019-07-15 22:49:16,fd03ae81-bf3d-46d2-998c-001307a39a03,A
2019-07-15 22:52:45,fd03ae81-bf3d-46d2-998c-001307a39a03,S
2019-07-15 22:55:49,fd03ae81-bf3d-46d2-998c-001307a39a03,A
2019-07-15 23:04:45,fd03ae81-bf3d-46d2-998c-001307a39a03,S
2019-07-15 23:19:42,fd03ae81-bf3d-46d2-998c-001307a39a03,A
2019-07-15 23:20:45,fd03ae81-bf3d-46d2-998c-001307a39a03,S
2019-07-15 23:21:14,fd03ae81-bf3d-46d2-998c-001307a39a03,A
2019-07-15 23:21:53,fd03ae81-bf3d-46d2-998c-001307a39a03,S
2019-07-15 23:28:57,fd03ae81-bf3d-46d2-998c-001307a39a03,A
2019-07-15 23:34:07,fd03ae81-bf3d-46d2-998c-001307a39a03,S
2019-07-15 23:52:59,fd03ae81-bf3d-46d2-998c-001307a39a03,A
2019-07-15 23:55:06,fd03ae81-bf3d-46d2-998c-001307a39a03,S
2019-07-16 00:02:13,fd03ae81-bf3d-46d2-998c-001307a39a03,A
2019-07-16 00:05:43,fd03ae81-bf3d-46d2-998c-001307a39a03,S
2019-07-16 00:18:31,fd03ae81-bf3d-46d2-998c-001307a39a03,A
2019-07-16 00:19:14,fd03ae81-bf3d-46d2-998c-001307a39a03,S
2019-07-15 22:19:37,5260c211-d969-467d-945b-387b67a52dea,S
2019-07-15 22:35:45,5260c211-d969-467d-945b-387b67a52dea,A
2019-07-15 22:36:57,5260c211-d969-467d-945b-387b67a52dea,S
2019-07-15 22:41:46,5260c211-d969-467d-945b-387b67a52dea,A
2019-07-15 22:42:52,5260c211-d969-467d-945b-387b67a52dea,S
2019-07-15 22:45:39,5260c211-d969-467d-945b-387b67a52dea,A
2019-07-15 22:50:51,5260c211-d969-467d-945b-387b67a52dea,S
2019-07-15 22:53:01,5260c211-d969-467d-945b-387b67a52dea,A
2019-07-15 22:56:30,5260c211-d969-467d-945b-387b67a52dea,S
2019-07-15 23:02:05,5260c211-d969-467d-945b-387b67a52dea,A
2019-07-15 23:12:36,5260c211-d969-467d-945b-387b67a52dea,S
2019-07-15 23:18:16,5260c211-d969-467d-945b-387b67a52dea,A
2019-07-15 23:20:14,5260c211-d969-467d-945b-387b67a52dea,S
2019-07-15 23:22:16,5260c211-d969-467d-945b-387b67a52dea,A
2019-07-15 23:30:33,5260c211-d969-467d-945b-387b67a52dea,S
2019-07-15 23:32:43,5260c211-d969-467d-945b-387b67a52dea,A
2019-07-15 23:37:37,5260c211-d969-467d-945b-387b67a52dea,S
2019-07-15 23:40:36,5260c211-d969-467d-945b-387b67a52dea,A
2019-07-15 23:41:44,5260c211-d969-467d-945b-387b67a52dea,S
2019-07-15 23:46:39,5260c211-d969-467d-945b-387b67a52dea,A
2019-07-15 23:49:31,5260c211-d969-467d-945b-387b67a52dea,S
2019-07-15 23:53:21,5260c211-d969-467d-945b-387b67a52dea,A
2019-07-15 23:55:41,5260c211-d969-467d-945b-387b67a52dea,S
2019-07-15 23:59:27,5260c211-d969-467d-945b-387b67a52dea,A
2019-07-16 00:04:52,5260c211-d969-467d-945b-387b67a52dea,S
2019-07-16 00:05:59,5260c211-d969-467d-945b-387b67a52dea,A
2019-07-16 00:11:44,5260c211-d969-467d-945b-387b67a52dea,S
2019-07-16 00:12:41,5260c211-d969-467d-945b-387b67a52dea,A
2019-07-16 00:14:11,5260c211-d969-467d-945b-387b67a52dea,S
2019-07-16 00:14:43,5260c211-d969-467d-945b-387b67a52dea,A
2019-07-16 00:18:02,5260c211-d969-467d-945b-387b67a52dea,S
2019-07-16 00:19:31,5260c211-d969-467d-945b-387b67a52dea,A
2019-07-15 22:58:51,cd2e27e5-d21b-47c2-a8bc-4b8528a281d4,S
2019-07-15 23:01:10,cd2e27e5-d21b-47c2-a8bc-4b8528a281d4,A
2019-07-15 23:07:41,cd2e27e5-d21b-47c2-a8bc-4b8528a281d4,S
2019-07-15 23:08:39,cd2e27e5-d21b-47c2-a8bc-4b8528a281d4,A
2019-07-15 23:08:59,cd2e27e5-d21b-47c2-a8bc-4b8528a281d4,S
2019-07-15 23:14:09,cd2e27e5-d21b-47c2-a8bc-4b8528a281d4,A
2019-07-15 23:19:03,cd2e27e5-d21b-47c2-a8bc-4b8528a281d4,S
2019-07-15 23:23:43,cd2e27e5-d21b-47c2-a8bc-4b8528a281d4,A
2019-07-15 23:36:42,cd2e27e5-d21b-47c2-a8bc-4b8528a281d4,S
2019-07-15 23:54:11,cd2e27e5-d21b-47c2-a8bc-4b8528a281d4,A
2019-07-15 23:58:55,cd2e27e5-d21b-47c2-a8bc-4b8528a281d4,S
2019-07-16 00:01:03,cd2e27e5-d21b-47c2-a8bc-4b8528a281d4,A
2019-07-16 00:02:17,cd2e27e5-d21b-47c2-a8bc-4b8528a281d4,S
2019-07-16 00:03:39,cd2e27e5-d21b-47c2-a8bc-4b8528a281d4,A
2019-07-16 00:04:23,cd2e27e5-d21b-47c2-a8bc-4b8528a281d4,S
2019-07-16 00:04:56,cd2e27e5-d21b-47c2-a8bc-4b8528a281d4,A
2019-07-16 00:06:00,cd2e27e5-d21b-47c2-a8bc-4b8528a281d4,S
2019-07-16 00:12:41,cd2e27e5-d21b-47c2-a8bc-4b8528a281d4,A
2019-07-16 00:13:00,cd2e27e5-d21b-47c2-a8bc-4b8528a281d4,S
2019-07-16 00:13:48,cd2e27e5-d21b-47c2-a8bc-4b8528a281d4,A
2019-07-16 00:13:50,cd2e27e5-d21b-47c2-a8bc-4b8528a281d4,S
2019-07-15 22:37:19,44d9cf52-95ee-4578-b4f9-46b4a8404d34,S
2019-07-15 22:42:35,44d9cf52-95ee-4578-b4f9-46b4a8404d34,A
2019-07-15 22:49:18,44d9cf52-95ee-4578-b4f9-46b4a8404d34,S
2019-07-15 22:54:18,44d9cf52-95ee-4578-b4f9-46b4a8404d34,A
2019-07-15 22:55:14,44d9cf52-95ee-4578-b4f9-46b4a8404d34,S
2019-07-15 23:02:01,44d9cf52-95ee-4578-b4f9-46b4a8404d34,A
2019-07-15 23:04:16,44d9cf52-95ee-4578-b4f9-46b4a8404d34,S
2019-07-15 23:10:22,44d9cf52-95ee-4578-b4f9-46b4a8404d34,A
2019-07-15 23:10:24,44d9cf52-95ee-4578-b4f9-46b4a8404d34,S
2019-07-15 23:11:09,44d9cf52-95ee-4578-b4f9-46b4a8404d34,A
2019-07-15 23:15:02,44d9cf52-95ee-4578-b4f9-46b4a8404d34,S
2019-07-15 23:20:38,44d9cf52-95ee-4578-b4f9-46b4a8404d34,A
2019-07-15 23:22:39,44d9cf52-95ee-4578-b4f9-46b4a8404d34,S
2019-07-15 23:25:52,44d9cf52-95ee-4578-b4f9-46b4a8404d34,A
2019-07-15 23:28:44,44d9cf52-95ee-4578-b4f9-46b4a8404d34,S
2019-07-15 23:31:58,44d9cf52-95ee-4578-b4f9-46b4a8404d34,A
2019-07-15 23:40:59,44d9cf52-95ee-4578-b4f9-46b4a8404d34,S
2019-07-15 23:44:33,44d9cf52-95ee-4578-b4f9-46b4a8404d34,A
2019-07-15 22:44:08,4d82b6e5-7620-4dbc-8ee3-6d05530b18a1,A
2019-07-15 22:47:37,4d82b6e5-7620-4dbc-8ee3-6d05530b18a1,S
2019-07-15 22:49:52,4d82b6e5-7620-4dbc-8ee3-6d05530b18a1,A
2019-07-15 22:51:54,4d82b6e5-7620-4dbc-8ee3-6d05530b18a1,S
2019-07-15 22:52:29,4d82b6e5-7620-4dbc-8ee3-6d05530b18a1,A
2019-07-15 22:55:04,4d82b6e5-7620-4dbc-8ee3-6d05530b18a1,S
2019-07-15 23:01:55,4d82b6e5-7620-4dbc-8ee3-6d05530b18a1,A
2019-07-15 23:03:23,4d82b6e5-7620-4dbc-8ee3-6d05530b18a1,S
2019-07-15 23:13:39,4d82b6e5-7620-4dbc-8ee3-6d05530b18a1,A
2019-07-15 23:52:44,4d82b6e5-7620-4dbc-8ee3-6d05530b18a1,S
2019-07-16 00:02:38,4d82b6e5-7620-4dbc-8ee3-6d05530b18a1,A
2019-07-16 00:02:42,4d82b6e5-7620-4dbc-8ee3-6d05530b18a1,S
2019-07-16 00:03:24,4d82b6e5-7620-4dbc-8ee3-6d05530b18a1,A
2019-07-16 00:06:28,4d82b6e5-7620-4dbc-8ee3-6d05530b18a1,S
2019-07-16 00:07:49,4d82b6e5-7620-4dbc-8ee3-6d05530b18a1,A
2019-07-16 00:09:10,4d82b6e5-7620-4dbc-8ee3-6d05530b18a1,S
2019-07-16 00:13:20,4d82b6e5-7620-4dbc-8ee3-6d05530b18a1,A
2019-07-16 00:14:54,4d82b6e5-7620-4dbc-8ee3-6d05530b18a1,S
2019-07-16 00:15:00,4d82b6e5-7620-4dbc-8ee3-6d05530b18a1,A
2019-07-15 22:24:04,e2eedf3e-f084-4274-8997-356b8b599358,A
2019-07-15 22:30:07,e2eedf3e-f084-4274-8997-356b8b599358,S
2019-07-15 22:32:55,e2eedf3e-f084-4274-8997-356b8b599358,A
2019-07-15 22:33:34,e2eedf3e-f084-4274-8997-356b8b599358,S
2019-07-15 22:34:19,e2eedf3e-f084-4274-8997-356b8b599358,A
2019-07-15 22:43:34,e2eedf3e-f084-4274-8997-356b8b599358,S
2019-07-15 22:44:00,e2eedf3e-f084-4274-8997-356b8b599358,A
2019-07-15 22:44:50,e2eedf3e-f084-4274-8997-356b8b599358,S
2019-07-15 22:49:44,e2eedf3e-f084-4274-8997-356b8b599358,A
2019-07-15 22:54:43,e2eedf3e-f084-4274-8997-356b8b599358,S
2019-07-15 22:54:56,e2eedf3e-f084-4274-8997-356b8b599358,A
2019-07-15 22:55:40,e2eedf3e-f084-4274-8997-356b8b599358,S
2019-07-15 22:58:00,e2eedf3e-f084-4274-8997-356b8b599358,A
2019-07-15 23:01:00,e2eedf3e-f084-4274-8997-356b8b599358,S
2019-07-15 23:02:16,e2eedf3e-f084-4274-8997-356b8b599358,A
2019-07-15 23:02:20,e2eedf3e-f084-4274-8997-356b8b599358,S
2019-07-15 23:10:26,e2eedf3e-f084-4274-8997-356b8b599358,A
2019-07-15 23:13:43,e2eedf3e-f084-4274-8997-356b8b599358,S
2019-07-15 23:15:36,e2eedf3e-f084-4274-8997-356b8b599358,A
2019-07-15 23:22:58,e2eedf3e-f084-4274-8997-356b8b599358,S
2019-07-15 23:33:12,e2eedf3e-f084-4274-8997-356b8b599358,A
2019-07-15 23:48:40,e2eedf3e-f084-4274-8997-356b8b599358,S
2019-07-15 23:51:02,e2eedf3e-f084-4274-8997-356b8b599358,A
2019-07-15 23:51:14,e2eedf3e-f084-4274-8997-356b8b599358,S
2019-07-15 23:59:19,e2eedf3e-f084-4274-8997-356b8b599358,A
2019-07-15 23:59:42,e2eedf3e-f084-4274-8997-356b8b599358,S
2019-07-16 00:08:02,e2eedf3e-f084-4274-8997-356b8b599358,A
2019-07-16 00:16:29,e2eedf3e-f084-4274-8997-356b8b599358,S
2019-07-15 22:20:06,30ce9684-36c9-4993-8782-d7467daaa7b5,S
2019-07-15 22:24:13,30ce9684-36c9-4993-8782-d7467daaa7b5,A
2019-07-15 22:34:36,30ce9684-36c9-4993-8782-d7467daaa7b5,S
2019-07-15 22:36:10,30ce9684-36c9-4993-8782-d7467daaa7b5,A
2019-07-15 22:43:41,30ce9684-36c9-4993-8782-d7467daaa7b5,S
2019-07-15 22:43:55,30ce9684-36c9-4993-8782-d7467daaa7b5,A
2019-07-15 22:45:21,30ce9684-36c9-4993-8782-d7467daaa7b5,S
2019-07-15 23:02:38,30ce9684-36c9-4993-8782-d7467daaa7b5,A
2019-07-15 23:08:24,30ce9684-36c9-4993-8782-d7467daaa7b5,S
2019-07-15 23:11:58,30ce9684-36c9-4993-8782-d7467daaa7b5,A
2019-07-15 23:15:10,30ce9684-36c9-4993-8782-d7467daaa7b5,S
2019-07-15 23:15:27,30ce9684-36c9-4993-8782-d7467daaa7b5,A
2019-07-15 23:34:02,30ce9684-36c9-4993-8782-d7467daaa7b5,S
2019-07-15 23:34:27,30ce9684-36c9-4993-8782-d7467daaa7b5,A
2019-07-15 23:37:18,30ce9684-36c9-4993-8782-d7467daaa7b5,S
2019-07-15 23:50:51,30ce9684-36c9-4993-8782-d7467daaa7b5,A
2019-07-15 23:54:09,30ce9684-36c9-4993-8782-d7467daaa7b5,S
2019-07-15 23:56:37,30ce9684-36c9-4993-8782-d7467daaa7b5,A
2019-07-15 23:57:14,30ce9684-36c9-4993-8782-d7467daaa7b5,S
2019-07-16 00:02:27,30ce9684-36c9-4993-8782-d7467daaa7b5,A
2019-07-16 00:07:08,30ce9684-36c9-4993-8782-d7467daaa7b5,S
2019-07-16 00:11:04,30ce9684-36c9-4993-8782-d7467daaa7b5,A
2019-07-16 00:12:57,30ce9684-36c9-4993-8782-d7467daaa7b5,S
2019-07-16 00:13:55,30ce9684-36c9-4993-8782-d7467daaa7b5,A
2019-07-15 22:23:31,4147fc5e-a00b-447d-8b02-e5af55236d56,A
2019-07-15 22:26:21,4147fc5e-a00b-447d-8b02-e5af55236d56,S
2019-07-15 22:31:28,4147fc5e-a00b-447d-8b02-e5af55236d56,A
2019-07-15 22:46:56,4147fc5e-a00b-447d-8b02-e5af55236d56,S
2019-07-15 22:55:58,4147fc5e-a00b-447d-8b02-e5af55236d56,A
2019-07-15 23:05:41,4147fc5e-a00b-447d-8b02-e5af55236d56,S
2019-07-15 23:14:12,4147fc5e-a00b-447d-8b02-e5af55236d56,A
2019-07-15 23:14:58,4147fc5e-a00b-447d-8b02-e5af55236d56,S
2019-07-15 23:15:17,4147fc5e-a00b-447d-8b02-e5af55236d56,A
2019-07-15 23:23:55,4147fc5e-a00b-447d-8b02-e5af55236d56,S
2019-07-15 23:26:54,4147fc5e-a00b-447d-8b02-e5af55236d56,A
2019-07-15 23:26:57,4147fc5e-a00b-447d-8b02-e5af55236d56,S
2019-07-15 23:28:08,4147fc5e-a00b-447d-8b02-e5af55236d56,A
2019-07-15 23:29:58,4147fc5e-a00b-447d-8b02-e5af55236d56,S
2019-07-15 23:31:48,4147fc5e-a00b-447d-8b02-e5af55236d56,A
2019-07-15 23:32:48,4147fc5e-a00b-447d-8b02-e5af55236d56,S
2019-07-15 23:34:31,4147fc5e-a00b-447d-8b02-e5af55236d56,A
2019-07-15 23:43:46,4147fc5e-a00b-447d-8b02-e5af55236d56,S
2019-07-15 23:45:53,4147fc5e-a00b-447d-8b02-e5af55236d56,A
2019-07-15 23:46:52,4147fc5e-a00b-447d-8b02-e5af55236d56,S
2019-07-15 23:49:19,4147fc5e-a00b-447d-8b02-e5af55236d56,A
2019-07-15 23:58:04,4147fc5e-a00b-447d-8b02-e5af55236d56,S
2019-07-16 00:00:21,4147fc5e-a00b-447d-8b02-e5af55236d56,A
2019-07-16 00:05:13,4147fc5e-a00b-447d-8b02-e5af55236d56,S
2019-07-16 00:05:21,4147fc5e-a00b-447d-8b02-e5af55236d56,A
2019-07-16 00:06:00,4147fc5e-a00b-447d-8b02-e5af55236d56,S
2019-07-16 00:09:29,4147fc5e-a00b-447d-8b02-e5af55236d56,A
2019-07-16 00:10:55,4147fc5e-a00b-447d-8b02-e5af55236d56,S
2019-07-16 00:16:35,4147fc5e-a00b-447d-8b02-e5af55236d56,A
2019-07-16 00:17:03,4147fc5e-a00b-447d-8b02-e5af55236d56,S
