node,ip,uuid
node-a8-199.grenoble.iot-lab.info,172.20.64.1,e435462f-a090-4a26-b7ed-c80042ab6039
node-a8-200.grenoble.iot-lab.info,172.20.64.2,d4ead65c-96ad-4c5e-8549-0c74af352039
node-a8-201.grenoble.iot-lab.info,172.20.64.3,bad807f1-b61e-41ab-92e6-1550ef89ed7d
node-a8-202.grenoble.iot-lab.info,172.20.64.4,4669b3f0-9ebe-4034-8c40-1b99e3a4ac79
node-a8-204.grenoble.iot-lab.info,172.20.64.5,4ef67ffe-6dad-465e-9918-8ebc5c93372e
node-a8-205.grenoble.iot-lab.info,172.20.64.6,0db28c0c-7cf4-406e-ac86-d16d9ad52eef
node-a8-206.grenoble.iot-lab.info,172.20.64.7,67d20b14-b65c-43e0-9c21-28b6cf296d1d
node-a8-207.grenoble.iot-lab.info,172.20.64.8,ebde4ad3-82d7-44e0-bada-5905b9dead08
node-a8-208.grenoble.iot-lab.info,172.20.64.9,5916530e-9831-4d64-941a-53a60a11069d
node-a8-209.grenoble.iot-lab.info,172.20.64.10,83b81ad5-1dff-4e99-b544-5f550deda2a0
node-a8-210.grenoble.iot-lab.info,172.20.64.11,5b660390-db69-4d64-912c-3ee8729d351c
node-a8-211.grenoble.iot-lab.info,172.20.64.12,616dac4d-4061-4e42-9a78-2b147191736c
node-a8-212.grenoble.iot-lab.info,172.20.64.13,785c5f88-bb52-453d-b652-7d9f934b69e2
node-a8-214.grenoble.iot-lab.info,172.20.64.14,6b97cdd6-d92d-4bfb-b81a-3bf0c241ecce
node-a8-216.grenoble.iot-lab.info,172.20.64.15,530dc56e-18d3-4830-b602-ca37483ed95b
node-a8-217.grenoble.iot-lab.info,172.20.64.16,dfb16c44-2b65-42bf-8345-349ab605efff
node-a8-218.grenoble.iot-lab.info,172.20.64.17,b6ab7640-ce40-443b-9c2d-9f0a6ed892e6
node-a8-219.grenoble.iot-lab.info,172.20.64.18,865ef287-b9c0-48aa-9ac0-55e74bd86411
node-a8-220.grenoble.iot-lab.info,172.20.64.19,1d6fe50c-94a7-4a9a-8c5c-f719048f9ef2
node-a8-221.grenoble.iot-lab.info,172.20.64.20,fadaef46-08de-41c9-aaa2-cea18d598f0e
node-a8-165.grenoble.iot-lab.info,172.20.64.21,67040d41-ef10-497c-9870-14babcee56ee
node-a8-166.grenoble.iot-lab.info,172.20.64.22,a5abced7-8fc6-446f-ba3b-22d157f33038
node-a8-167.grenoble.iot-lab.info,172.20.64.23,f2e35432-bd42-4d6f-a4a4-286b89c5d7b7
node-a8-168.grenoble.iot-lab.info,172.20.64.24,1a8b7516-5eaa-4cd1-b184-86cd09d3d163
node-a8-169.grenoble.iot-lab.info,172.20.64.25,1d762d50-6130-4e1f-a8e6-876527c01ccd
node-a8-170.grenoble.iot-lab.info,172.20.64.26,3e059431-fa89-483a-aff0-493475752797
node-a8-171.grenoble.iot-lab.info,172.20.64.27,07a94a4e-2aa8-4529-a0be-42fac62de7b3
node-a8-173.grenoble.iot-lab.info,172.20.64.28,21cc39a0-b10c-4314-9141-b6c0ee6038f2
node-a8-174.grenoble.iot-lab.info,172.20.64.29,88284847-16aa-4c2f-892f-55872df76cc3
node-a8-175.grenoble.iot-lab.info,172.20.64.30,a9499897-3a5f-4a50-8fea-938e48bfcf77
node-a8-176.grenoble.iot-lab.info,172.20.64.31,b674aef4-70a9-4606-a5e5-69bc9fb9a81b
node-a8-177.grenoble.iot-lab.info,172.20.64.32,67ec11b5-fa78-4856-a64f-0c3c03215498
node-a8-179.grenoble.iot-lab.info,172.20.64.33,8efb62ca-9710-4a2c-96bc-19153e2f79b1
node-a8-180.grenoble.iot-lab.info,172.20.64.34,8736df10-aeb4-4fa8-ab46-a7f4b6c5d022
node-a8-181.grenoble.iot-lab.info,172.20.64.35,37a9789c-68da-4d0f-9211-bf51819e665b
node-a8-182.grenoble.iot-lab.info,172.20.64.36,b4c2c23d-e44a-4199-8366-bf647b29e709
node-a8-183.grenoble.iot-lab.info,172.20.64.37,0f214ffe-57c0-4bd4-8ce5-bfa61b0792db
node-a8-184.grenoble.iot-lab.info,172.20.64.38,f6cc48a3-e371-4fd7-9527-4e697edf27ea
node-a8-185.grenoble.iot-lab.info,172.20.64.39,bcedbeea-3af5-4a5f-b176-16a723e2c17b
node-a8-187.grenoble.iot-lab.info,172.20.64.40,9dffb339-0cea-4fc1-b336-883ee0963d04
node-a8-188.grenoble.iot-lab.info,172.20.64.41,4b25d53e-1032-43e6-9ff1-5503676ab448
node-a8-189.grenoble.iot-lab.info,172.20.64.42,95efdbe2-4733-4b19-864c-f77c1e61938e
node-a8-190.grenoble.iot-lab.info,172.20.64.43,8607e17b-b6b9-4b5e-8eb0-358dfc9b4e33
node-a8-191.grenoble.iot-lab.info,172.20.64.44,256733f3-a3ea-4ca8-b047-6f65bbf8b29c
node-a8-192.grenoble.iot-lab.info,172.20.64.45,d26eb4e0-a7b6-428c-aa3e-ee2b9646c706
node-a8-193.grenoble.iot-lab.info,172.20.64.46,2ff799d7-dbdd-4d62-a748-8ef89d549446
node-a8-194.grenoble.iot-lab.info,172.20.64.47,e8e0c2e8-d606-44f8-b4c7-b7d5eb0d21c0
node-a8-195.grenoble.iot-lab.info,172.20.64.48,9395d131-d048-43b4-bf91-bb2c4756c624
node-a8-197.grenoble.iot-lab.info,172.20.64.49,a7a82856-43fa-4459-874e-b54aa35b3dfa
node-a8-198.grenoble.iot-lab.info,172.20.64.50,2a529ed5-e059-4979-a991-d88f358e3814
suno-14.sophia.grid5000.fr,172.16.130.14,6fe0459e-3cd2-48ee-a8ad-f86e4467c564
suno-15.sophia.grid5000.fr,172.16.130.15,14b6028a-a9aa-458f-b123-57c28aa9c4cb
suno-2.sophia.grid5000.fr,172.16.130.2,d4c923a3-e238-4d72-b89b-3d750ee70794
suno-24.sophia.grid5000.fr,172.16.130.24,99b21f57-196e-4a73-8031-46e10cfd9c39
suno-25.sophia.grid5000.fr,172.16.130.25,f1cc536c-3875-4ce7-be24-e51f39b235e5
suno-27.sophia.grid5000.fr,172.16.130.27,d9a71cf8-73c3-4841-855d-b88ccbcd65e3
suno-28.sophia.grid5000.fr,172.16.130.28,a6a53bfc-653d-4067-8b06-7ebdd180c142
suno-30.sophia.grid5000.fr,172.16.130.30,4e4c4ab0-abec-48e3-8269-653726fb9241
suno-32.sophia.grid5000.fr,172.16.130.32,5b7c576a-1dc6-4556-ac8c-af971236e1c2
suno-33.sophia.grid5000.fr,172.16.130.33,2441ec17-7f8f-435c-8d14-5b317fde7970
suno-34.sophia.grid5000.fr,172.16.130.34,74a4d0c0-cc48-424b-8649-ef3d18cbe801
suno-36.sophia.grid5000.fr,172.16.130.36,80f54195-bba5-463f-889e-3fcb94691e7c
suno-37.sophia.grid5000.fr,172.16.130.37,92cb56af-0dac-4cac-ad3e-d735e465488d
suno-43.sophia.grid5000.fr,172.16.130.43,ae0449d5-19c2-4e97-9344-d252e89aa326
suno-44.sophia.grid5000.fr,172.16.130.44,44c69c38-b5ce-4396-8485-8f6a41541c1b
suno-8.sophia.grid5000.fr,172.16.130.8,fc705e60-e838-4d15-b33f-b592489b931c
