app_number,app_id,trigger,burn,sink,deploy_date,token_interval
1,7eff5fc0-a431-4d57-9b46-298acea1bb04,aa45e89a-e2ca-4364-9d06-3f0ac29221c2,9f8b002d-64cf-4435-a576-13f6eab8655a,e2484f46-11c0-4d91-ae18-146543280680,2019-07-21 13:08:33,1.000000
2,82779ae2-540b-4add-b46d-748ee95a32eb,52dee9fe-9cf7-47d1-94d9-a33ae2c5147a,44e2b7bf-1f70-4a23-9b95-6dc4a22294b5,012cd560-3bf8-40be-9286-295d8e8debb1,2019-07-21 13:09:37,1.000000
3,37f93ca2-7e01-4669-a447-d443d65eca8e,14db74b8-3e02-4427-8c5b-267bb739fccf,1388e785-0376-4c23-9aae-59046692dcc8,72cc664b-36ba-4fe8-9688-faed1254c23b,2019-07-21 13:10:41,1.000000
4,4f36836e-9c0d-4850-8df3-de570bb4b93a,708333b7-c1e7-43bd-9178-32165efac754,cd8dda48-64f2-4005-8170-decc41ba88d0,72589c6e-6222-40ea-aff7-09cdcd436bc1,2019-07-21 13:11:44,0.200000
5,a7ed941d-cfbe-47c6-a3ea-7b521a2cb1d8,f7d0d160-4549-4ecc-ba31-ec49916cd181,5b29c4b3-6cf8-4644-a5ba-024f5ed18cbf,7abb6255-4f61-4ec0-87eb-af2c2fed5b60,2019-07-21 13:12:48,0.200000
6,fee3198e-ca5f-4cfe-b5de-61d1c76899b3,0c353634-99a3-4680-8008-515e526a5ba0,f769420f-7a0f-4074-ba07-e80742a7f7b9,ebf1ea4a-a24b-4ac9-8cf6-6f4a98dd6a43,2019-07-21 13:13:52,0.200000
7,be277f5e-f967-4d3d-af3f-4c1239d343c0,20339ab6-9f17-4dcc-8310-569e77b617d7,55eefd69-d8cf-47c4-bec5-d83e589cdf3f,174ec6ee-4255-4916-b5e1-cc503820efdc,2019-07-21 13:14:56,0.200000
8,15cf5eb5-b960-49a5-8dae-932f419a34c3,a089880e-1ee1-4a96-a56a-e8d9bcee3f3f,603c7f10-a3bb-4a65-a260-68d0907fd0a5,81d33411-5995-4697-9344-14b5ae346367,2019-07-21 13:16:00,1.000000
9,e6359d2f-7c78-4392-b604-c58944803935,116e481d-0da5-4f08-917a-c2e6021dc84e,c257cdd0-a232-454b-9d85-4271b7f510a1,e85c3f81-8918-4cae-a09e-a3831a86d089,2019-07-21 13:17:04,0.200000
10,5dea3620-1073-4351-86ee-f2ad98638d6e,a6d4f83c-e810-4f5d-9a62-2c788c0ce6cf,b35ff99a-81d2-46a1-8216-161de77571ca,b3b52531-0051-4f9e-bad1-b54b6e3328b2,2019-07-21 13:18:08,0.200000
11,27e73809-4352-4817-b41d-30bf47a57828,7014c217-feb2-438f-aba4-bdbcea255be7,d5acd449-a8c8-44b2-9664-8452c31119f4,d91deb81-e558-49fe-ad1c-d5d8bb41787f,2019-07-21 13:19:12,0.200000
12,c7f246cd-3565-4db0-ae9d-bafa8e20f834,15ae7161-c15e-4437-8dcc-4f755e17a79f,27acd98f-23ca-4079-97f0-fad9ba228147,5cf14cbb-4fc5-4ff3-b6ed-efdd38a8ae98,2019-07-21 13:20:16,1.000000
13,e5f46bcd-1a26-48bc-917a-76eccf0a0906,ca0a70d7-e32d-4cb9-850e-4e59f0269439,a109f2d3-879d-4bc4-aa43-b4ba6d08c4e8,863de0e9-2c48-4016-a755-c85e077c7a00,2019-07-21 13:21:20,0.200000
14,2bd15eed-33ae-4b33-8455-f49c35c9c7b5,b39a8f83-eded-4d7e-abcc-2b30e5d2c6f0,c56d0c01-d804-4714-b02d-76991a2689a7,700ee7d4-3f94-4231-a2ec-7d1d4e3216e3,2019-07-21 13:22:23,0.200000
15,26ef7e11-e8d4-4bcf-a3b9-6a8700791a20,1532a47c-3938-4ab5-b321-745bde0e8a00,4e1f436b-c6f1-40a8-9fec-0fdbb34a5c2c,1c339e6e-0322-4a8f-99cc-96c0f0ec18f1,2019-07-21 13:23:27,1.000000
16,299b95eb-5b22-4e7e-bda7-b6480bbe9d3c,0083b5fe-a726-4763-bedc-8764b3734588,8d9b2add-84ed-4681-b431-8c27ce584ebd,2ef16a4b-29f5-4bb1-9f59-4854714bdfe5,2019-07-21 13:24:31,1.000000
17,6072901c-3903-4f86-a874-58793c41b53f,e4384ca1-a5e9-4932-b313-aad281e9fa82,4348f3c5-b55c-41d2-b634-68ac582d7316,65f34f72-3dff-4c0f-911e-58cdf7b3efdc,2019-07-21 13:25:35,0.200000
18,6b8242d9-ea62-4e49-b542-ab5694f2e58d,33aad86c-81d3-4ba1-aaa2-586d354325cd,831f72ec-fe07-449c-b5a7-7a5c46ee8d4a,54ec7b31-05a3-483a-9f87-84f3fe3f2809,2019-07-21 13:26:39,1.000000
19,afd73dcb-09aa-41a8-92bc-b6385f6694ac,927338e5-71ea-48d4-a448-645e344f179d,07cab479-4f7c-41ba-becd-488e4f0bf232,e8ee262f-6fd5-4a0f-8b8f-7144f57b51e3,2019-07-21 13:27:42,0.200000
20,bf01a1f4-d3ae-40f5-a0ca-a56d9e39b31b,8d5d2ce9-a8e2-4e1e-9889-9cea5383ec1a,10549d8c-feac-4110-9c43-01ac5cfa6370,2328e5c7-16ef-4789-b1e0-d32013a81388,2019-07-21 13:28:46,1.000000
21,1871cd33-516b-42f8-8cd6-36db6768e4eb,834187d9-71c2-4c59-b48b-d2e45a3c9d4e,9118a95c-8e35-41c8-bdc2-a1d31e49c3ae,c33681ab-189b-4136-8c62-798f069521b2,2019-07-21 13:29:50,0.200000
22,97696cb1-3019-4db4-9847-9397530d39fa,3d232b77-a0df-4e48-bd61-34ad63e7f186,63908bf1-3c1b-40fd-a7f0-20d4ea4252bd,e0c5e224-cdf8-4399-8466-753ca90ec0a2,2019-07-21 13:30:53,0.200000
23,da746526-6466-416c-99d2-6266ae55faff,91cd50d7-f766-44ea-9839-e8e5f8fce43f,de7ae3ac-e491-493b-8bd3-d460c5f52830,9b954473-3d8a-47e8-b338-620c146620fe,2019-07-21 13:31:57,0.200000
24,f01a13f0-d161-48b9-9752-d12798ae5fcc,3680c2ce-e939-42f1-8884-fafc8befbeeb,87d05d6b-a8d9-4e51-9a4a-2b8fe22d96bf,1f7c23dc-0898-4baf-ad06-1f001900a2c4,2019-07-21 13:33:01,1.000000
25,44895599-fa3b-48d7-b268-0e8663bb8337,57eba80d-2d40-424f-8ffa-5ca11d61ec3e,98bfe7b9-6f9f-4b28-a09d-7a730ee1fc01,9b66a77c-9f15-4ee7-b37e-f6a79373e976,2019-07-21 13:34:05,1.000000
26,e77375c2-b785-405a-aa61-00e4ce1ad7e1,c48c53cb-793a-4e8a-8508-17e7e118ce93,efc121f6-44fb-48fc-806b-89cb4012cdf1,19f7df84-919c-49dc-a5a9-ac2441e06bf0,2019-07-21 13:35:09,1.000000
27,a781492a-f914-4441-a7ed-be00471294c0,98c02cb7-a4bc-4372-8c82-5815ba72a583,cd07e702-477b-4278-afb2-432bd8f77dac,3d0c18c8-0f58-4cf5-a848-942974130272,2019-07-21 13:36:13,0.200000
28,27147b56-7f0e-4115-9294-1cfb7e6ffe98,3f258298-8d21-4402-9ccc-dc6e0d67b6d4,672ddc47-12f0-4d05-b17f-1028a4bf19c6,ca97f052-f40b-4305-8dc3-265c40a67735,2019-07-21 13:37:16,1.000000
29,0c47ca3b-1566-4e34-bd87-c50703fe8899,993f9aba-3910-4c9e-a0bc-8cdbec589bb2,709dc4d1-76da-4697-b3cc-777238cdb8e2,b548a96e-b554-4dd6-9e54-cd18fc7360c1,2019-07-21 13:38:20,1.000000
30,a22ec844-dced-4996-b3f6-adbaf0954c1a,d8e29c68-24e4-4639-afb0-f73fb069e9fb,af3ecf83-059e-45ae-8afd-56ad93ea24f3,dc14f02e-927c-4302-90a2-d9add3fd1fd5,2019-07-21 13:39:24,1.000000
31,93502f20-e474-4c16-a6c1-989b778332e7,89edf5c8-db27-4635-ac80-26ab7c85f58a,7a3b9498-6e4a-4897-99d5-94213b1cc736,25e6714e-a308-42d8-af32-2d098be08f2a,2019-07-21 13:40:28,1.000000
32,1a5a3d1e-cf73-4ce5-9e28-7f3195e0f9d2,343a2c12-af99-4ae8-89f4-7df1fb7dc7a6,876f091e-6464-4bf8-8f4f-4b75f6ebcebc,1244e954-aaf1-4123-96ee-21d383e3afd4,2019-07-21 13:41:32,0.200000
33,f972d0cd-3ad7-4d70-91a5-498081a7acb7,706594f1-1052-463d-a841-d4e3d3c50f0b,6de2530f-2ab6-47bf-8901-50efdbcef4f8,1f660218-7683-49a2-91d8-98f1469e66b2,2019-07-21 13:42:35,1.000000
34,4212ba35-1103-4156-849b-a4d44b32c436,16cb6452-f235-4b00-899f-105bd007e3d3,93870656-68cc-4a16-9cc1-711538ef5207,27e0e5e5-89b0-4a2e-87be-8b895b156032,2019-07-21 13:43:39,0.200000
35,527a81a2-f08f-4af4-b805-523a004dab9a,5b28fc13-c037-4bfd-830d-b2e6043c18b0,c5eb07d0-1742-45c0-b040-0de6a758d83e,c0ecf6d9-0e2f-4dfd-9480-7d69f50a3449,2019-07-21 13:44:43,1.000000
36,5e92d9c2-1dd0-4ce1-af63-df7177188bf8,a06cfa7e-6c14-473a-afee-e509e95f5ba8,13ac28d4-d1d8-4b44-83c6-6c5592a9e657,7ce7462a-f9bd-4db2-8e91-fb76df979125,2019-07-21 13:45:47,0.200000
37,b726fb0d-2e97-49eb-9e0d-2efa036cd7c9,ec0cb0ed-8c21-4d54-9782-3002c1dea0d9,4c89b060-c5b6-4867-b3c9-2e5e8b4089a0,8cef583e-2386-48a9-af89-3b8c424f8206,2019-07-21 13:46:51,1.000000
38,934af7f3-9f84-4ec6-85ed-0d34f6d569d9,202d621a-828a-4069-a5ae-a1865bdb87cf,6d1e9ccf-ca3d-43b5-8564-9539d1c24597,b8fe69a4-d4ea-45f1-acc9-2de2ce8abf28,2019-07-21 13:47:55,1.000000
39,193df5df-7f1d-4760-910f-13523ef6e657,c85899d4-3394-49d8-ac53-3c3a1aaa7e8c,62a57391-7bb0-4e2a-b127-134a7a6a5371,0d98471d-0573-4755-8f04-dce3f3a54af1,2019-07-21 13:48:59,0.200000
40,8ed8e58e-f348-45e7-934b-ba9c5298d61a,2cb27237-220e-40e1-8cf6-6c2c8e962c94,a7b34e55-b973-4032-a19e-7e6ffaa8fa51,a40cc24e-afc9-4043-a3b0-404f49df9cf5,2019-07-21 13:50:02,0.200000
41,89ecd0d3-021a-4ef1-8ef5-2b6e192c84f0,a8aa3275-292e-48d3-b951-bd202be5f037,a057e76b-6673-4709-88ae-98f49066b574,f3971c79-5923-483a-889c-7d3581bc3523,2019-07-21 13:51:06,1.000000
42,be2ef4c6-2ff3-4a96-a93c-9a52cf73f5de,7aa4f6ab-b618-436e-b033-a3dd7ea3816a,ffb8c1df-ef08-493f-82ba-9ee4a9f81fb6,08fb41a8-703d-4a81-b502-42cb65ad3538,2019-07-21 13:52:10,0.200000
43,d8b24709-be63-470e-8e45-00c787e7a23e,e5626b36-dfbe-4001-86f4-19cf05a77334,89adc9ed-dbeb-47d3-89a2-37608a09198a,ec50642a-3bf4-4e63-b54c-e3f0ac8843bd,2019-07-21 13:53:13,0.200000
44,804bbc21-2e7b-484d-befc-1a4e1ad1e8dd,a28030a5-f822-441b-8f57-ceb475412a33,07736c77-e109-4fe7-ba1e-adb94a551440,9bb3553a-dc1f-4bb1-963e-46360b16050b,2019-07-21 13:54:17,0.200000
45,349e5b01-f174-4895-907a-da8e31518da4,5320d940-ac9e-444b-84fa-b440778d1f1a,51911a58-fb91-4d17-ae59-c56317016cb2,af31f357-bf43-4e0f-b286-aad0e5fde17a,2019-07-21 13:55:21,1.000000
46,d52c182b-8fc9-4c0d-9eda-8aebdeb312f9,589473a4-4ffa-490e-8d95-78d076671f8c,44a4f71c-d0fc-47d8-8b71-26824fcb6853,3764d821-b3ec-4988-bcc8-06af086a71dd,2019-07-21 13:56:25,0.200000
47,aed3eed1-8037-40d1-9d2d-661366bf8cb9,547a7099-2d85-4fb3-9fc9-faf963145c0f,f352e1d5-9cdf-4ef2-a7d4-78e268cd26b6,c31eada7-20c5-401b-b0dd-c58224a04896,2019-07-21 13:57:29,0.200000
48,414b681a-e7e7-4661-b829-4731e988d4e2,afc1a8be-576e-496a-98ae-910520842d18,915e56da-7c81-43d3-902e-90d018ac3d6d,090d7941-9156-4daf-a683-ec4baa273bbd,2019-07-21 13:58:32,1.000000
49,d255c690-a14a-45e2-99b3-92a05563a75e,804e1fea-34ee-41ae-b9e2-456d8bda8ac8,088b5fa7-a08f-4ab7-b926-70be62a5bc17,dbcc11f4-f749-4c87-bc37-9201b8c38a3c,2019-07-21 13:59:36,0.200000
50,88409ddc-9f43-4f1c-9485-60e407e6de90,e6eae096-886b-427b-8fd0-40921fc54098,ecd25b11-cae2-4b1c-a8f0-d43470044981,5706dba7-0446-4385-b410-93c911808f80,2019-07-21 14:00:40,1.000000
