date,trigger,state
2019-10-26 16:37:44,3ce27d9b-e422-4d03-a993-2b4244972283,A
2019-10-26 16:41:12,3ce27d9b-e422-4d03-a993-2b4244972283,S
2019-10-26 16:44:16,3ce27d9b-e422-4d03-a993-2b4244972283,A
2019-10-26 16:53:13,3ce27d9b-e422-4d03-a993-2b4244972283,S
2019-10-26 17:08:10,3ce27d9b-e422-4d03-a993-2b4244972283,A
2019-10-26 17:09:12,3ce27d9b-e422-4d03-a993-2b4244972283,S
2019-10-26 17:09:41,3ce27d9b-e422-4d03-a993-2b4244972283,A
2019-10-26 17:10:21,3ce27d9b-e422-4d03-a993-2b4244972283,S
2019-10-26 17:17:24,3ce27d9b-e422-4d03-a993-2b4244972283,A
2019-10-26 17:22:34,3ce27d9b-e422-4d03-a993-2b4244972283,S
2019-10-26 17:41:26,3ce27d9b-e422-4d03-a993-2b4244972283,A
2019-10-26 17:43:33,3ce27d9b-e422-4d03-a993-2b4244972283,S
2019-10-26 17:50:40,3ce27d9b-e422-4d03-a993-2b4244972283,A
2019-10-26 17:54:10,3ce27d9b-e422-4d03-a993-2b4244972283,S
2019-10-26 15:55:43,ddf0dd31-0dc0-42aa-9849-76b699c0e3e9,A
2019-10-26 15:59:59,ddf0dd31-0dc0-42aa-9849-76b699c0e3e9,S
2019-10-26 16:02:16,ddf0dd31-0dc0-42aa-9849-76b699c0e3e9,A
2019-10-26 16:09:59,ddf0dd31-0dc0-42aa-9849-76b699c0e3e9,S
2019-10-26 16:19:17,ddf0dd31-0dc0-42aa-9849-76b699c0e3e9,A
2019-10-26 16:23:38,ddf0dd31-0dc0-42aa-9849-76b699c0e3e9,S
2019-10-26 16:28:12,ddf0dd31-0dc0-42aa-9849-76b699c0e3e9,A
2019-10-26 16:43:29,ddf0dd31-0dc0-42aa-9849-76b699c0e3e9,S
2019-10-26 16:48:21,ddf0dd31-0dc0-42aa-9849-76b699c0e3e9,A
2019-10-26 17:01:11,ddf0dd31-0dc0-42aa-9849-76b699c0e3e9,S
2019-10-26 17:01:39,ddf0dd31-0dc0-42aa-9849-76b699c0e3e9,A
2019-10-26 17:08:52,ddf0dd31-0dc0-42aa-9849-76b699c0e3e9,S
2019-10-26 17:16:47,ddf0dd31-0dc0-42aa-9849-76b699c0e3e9,A
2019-10-26 17:17:56,ddf0dd31-0dc0-42aa-9849-76b699c0e3e9,S
2019-10-26 17:19:30,ddf0dd31-0dc0-42aa-9849-76b699c0e3e9,A
2019-10-26 17:20:06,ddf0dd31-0dc0-42aa-9849-76b699c0e3e9,S
2019-10-26 17:21:39,ddf0dd31-0dc0-42aa-9849-76b699c0e3e9,A
2019-10-26 17:22:15,ddf0dd31-0dc0-42aa-9849-76b699c0e3e9,S
2019-10-26 17:22:21,ddf0dd31-0dc0-42aa-9849-76b699c0e3e9,A
2019-10-26 17:22:42,ddf0dd31-0dc0-42aa-9849-76b699c0e3e9,S
2019-10-26 17:23:40,ddf0dd31-0dc0-42aa-9849-76b699c0e3e9,A
2019-10-26 17:31:04,ddf0dd31-0dc0-42aa-9849-76b699c0e3e9,S
2019-10-26 17:43:22,ddf0dd31-0dc0-42aa-9849-76b699c0e3e9,A
2019-10-26 17:44:01,ddf0dd31-0dc0-42aa-9849-76b699c0e3e9,S
2019-10-26 18:02:30,ddf0dd31-0dc0-42aa-9849-76b699c0e3e9,A
2019-10-26 15:56:54,af298be4-7d84-4be7-814f-0e82d5986b33,S
2019-10-26 15:57:59,af298be4-7d84-4be7-814f-0e82d5986b33,A
2019-10-26 15:59:13,af298be4-7d84-4be7-814f-0e82d5986b33,S
2019-10-26 16:02:52,af298be4-7d84-4be7-814f-0e82d5986b33,A
2019-10-26 16:05:36,af298be4-7d84-4be7-814f-0e82d5986b33,S
2019-10-26 16:10:46,af298be4-7d84-4be7-814f-0e82d5986b33,A
2019-10-26 16:12:04,af298be4-7d84-4be7-814f-0e82d5986b33,S
2019-10-26 16:18:03,af298be4-7d84-4be7-814f-0e82d5986b33,A
2019-10-26 16:29:20,af298be4-7d84-4be7-814f-0e82d5986b33,S
2019-10-26 16:33:00,af298be4-7d84-4be7-814f-0e82d5986b33,A
2019-10-26 16:37:32,af298be4-7d84-4be7-814f-0e82d5986b33,S
2019-10-26 16:49:00,af298be4-7d84-4be7-814f-0e82d5986b33,A
2019-10-26 17:02:26,af298be4-7d84-4be7-814f-0e82d5986b33,S
2019-10-26 17:03:25,af298be4-7d84-4be7-814f-0e82d5986b33,A
2019-10-26 17:04:57,af298be4-7d84-4be7-814f-0e82d5986b33,S
2019-10-26 17:05:43,af298be4-7d84-4be7-814f-0e82d5986b33,A
2019-10-26 17:06:53,af298be4-7d84-4be7-814f-0e82d5986b33,S
2019-10-26 17:15:29,af298be4-7d84-4be7-814f-0e82d5986b33,A
2019-10-26 17:17:27,af298be4-7d84-4be7-814f-0e82d5986b33,S
2019-10-26 17:19:15,af298be4-7d84-4be7-814f-0e82d5986b33,A
2019-10-26 17:24:03,af298be4-7d84-4be7-814f-0e82d5986b33,S
2019-10-26 17:32:56,af298be4-7d84-4be7-814f-0e82d5986b33,A
2019-10-26 17:43:48,af298be4-7d84-4be7-814f-0e82d5986b33,S
2019-10-26 17:47:44,af298be4-7d84-4be7-814f-0e82d5986b33,A
2019-10-26 17:48:01,af298be4-7d84-4be7-814f-0e82d5986b33,S
2019-10-26 17:53:41,af298be4-7d84-4be7-814f-0e82d5986b33,A
2019-10-26 18:00:06,af298be4-7d84-4be7-814f-0e82d5986b33,S
2019-10-26 18:00:06,af298be4-7d84-4be7-814f-0e82d5986b33,A
2019-10-26 18:02:05,af298be4-7d84-4be7-814f-0e82d5986b33,S
2019-10-26 16:18:10,9174d1d1-45da-487b-a850-eba348f4f0f4,A
2019-10-26 16:25:59,9174d1d1-45da-487b-a850-eba348f4f0f4,S
2019-10-26 16:27:30,9174d1d1-45da-487b-a850-eba348f4f0f4,A
2019-10-26 16:30:07,9174d1d1-45da-487b-a850-eba348f4f0f4,S
2019-10-26 16:34:48,9174d1d1-45da-487b-a850-eba348f4f0f4,A
2019-10-26 16:49:30,9174d1d1-45da-487b-a850-eba348f4f0f4,S
2019-10-26 16:50:05,9174d1d1-45da-487b-a850-eba348f4f0f4,A
2019-10-26 16:55:35,9174d1d1-45da-487b-a850-eba348f4f0f4,S
2019-10-26 17:02:48,9174d1d1-45da-487b-a850-eba348f4f0f4,A
2019-10-26 17:03:24,9174d1d1-45da-487b-a850-eba348f4f0f4,S
2019-10-26 17:15:14,9174d1d1-45da-487b-a850-eba348f4f0f4,A
2019-10-26 17:18:22,9174d1d1-45da-487b-a850-eba348f4f0f4,S
2019-10-26 17:30:12,9174d1d1-45da-487b-a850-eba348f4f0f4,A
2019-10-26 17:42:09,9174d1d1-45da-487b-a850-eba348f4f0f4,S
2019-10-26 17:47:01,9174d1d1-45da-487b-a850-eba348f4f0f4,A
2019-10-26 17:47:34,9174d1d1-45da-487b-a850-eba348f4f0f4,S
2019-10-26 17:47:52,9174d1d1-45da-487b-a850-eba348f4f0f4,A
2019-10-26 17:48:02,9174d1d1-45da-487b-a850-eba348f4f0f4,S
2019-10-26 17:49:13,9174d1d1-45da-487b-a850-eba348f4f0f4,A
2019-10-26 17:52:54,9174d1d1-45da-487b-a850-eba348f4f0f4,S
2019-10-26 18:01:46,9174d1d1-45da-487b-a850-eba348f4f0f4,A
2019-10-26 16:47:19,240279b0-9c6d-4144-882a-42a1f1815e9b,S
2019-10-26 16:49:37,240279b0-9c6d-4144-882a-42a1f1815e9b,A
2019-10-26 16:56:08,240279b0-9c6d-4144-882a-42a1f1815e9b,S
2019-10-26 16:57:07,240279b0-9c6d-4144-882a-42a1f1815e9b,A
2019-10-26 16:57:27,240279b0-9c6d-4144-882a-42a1f1815e9b,S
2019-10-26 17:02:37,240279b0-9c6d-4144-882a-42a1f1815e9b,A
2019-10-26 17:07:30,240279b0-9c6d-4144-882a-42a1f1815e9b,S
2019-10-26 17:12:10,240279b0-9c6d-4144-882a-42a1f1815e9b,A
2019-10-26 17:25:10,240279b0-9c6d-4144-882a-42a1f1815e9b,S
2019-10-26 17:42:39,240279b0-9c6d-4144-882a-42a1f1815e9b,A
2019-10-26 17:47:22,240279b0-9c6d-4144-882a-42a1f1815e9b,S
2019-10-26 17:49:31,240279b0-9c6d-4144-882a-42a1f1815e9b,A
2019-10-26 17:50:45,240279b0-9c6d-4144-882a-42a1f1815e9b,S
2019-10-26 17:52:07,240279b0-9c6d-4144-882a-42a1f1815e9b,A
2019-10-26 17:52:50,240279b0-9c6d-4144-882a-42a1f1815e9b,S
2019-10-26 17:53:23,240279b0-9c6d-4144-882a-42a1f1815e9b,A
2019-10-26 17:54:28,240279b0-9c6d-4144-882a-42a1f1815e9b,S
2019-10-26 18:01:09,240279b0-9c6d-4144-882a-42a1f1815e9b,A
2019-10-26 18:01:28,240279b0-9c6d-4144-882a-42a1f1815e9b,S
2019-10-26 18:02:16,240279b0-9c6d-4144-882a-42a1f1815e9b,A
2019-10-26 18:02:17,240279b0-9c6d-4144-882a-42a1f1815e9b,S
2019-10-26 16:12:18,e5476508-7cfd-4194-9a51-597f6de0229e,A
2019-10-26 16:15:44,e5476508-7cfd-4194-9a51-597f6de0229e,S
2019-10-26 16:20:49,e5476508-7cfd-4194-9a51-597f6de0229e,A
2019-10-26 16:22:40,e5476508-7cfd-4194-9a51-597f6de0229e,S
2019-10-26 16:33:11,e5476508-7cfd-4194-9a51-597f6de0229e,A
2019-10-26 16:33:46,e5476508-7cfd-4194-9a51-597f6de0229e,S
2019-10-26 16:42:10,e5476508-7cfd-4194-9a51-597f6de0229e,A
2019-10-26 16:44:31,e5476508-7cfd-4194-9a51-597f6de0229e,S
2019-10-26 16:52:54,e5476508-7cfd-4194-9a51-597f6de0229e,A
2019-10-26 17:11:20,e5476508-7cfd-4194-9a51-597f6de0229e,S
2019-10-26 17:12:36,e5476508-7cfd-4194-9a51-597f6de0229e,A
2019-10-26 17:12:47,e5476508-7cfd-4194-9a51-597f6de0229e,S
2019-10-26 17:16:00,e5476508-7cfd-4194-9a51-597f6de0229e,A
2019-10-26 17:24:50,e5476508-7cfd-4194-9a51-597f6de0229e,S
2019-10-26 17:39:55,e5476508-7cfd-4194-9a51-597f6de0229e,A
2019-10-26 17:40:13,e5476508-7cfd-4194-9a51-597f6de0229e,S
2019-10-26 17:50:44,e5476508-7cfd-4194-9a51-597f6de0229e,A
2019-10-26 16:32:37,58ab0076-4dc0-4a61-95a7-4355e1dea5ca,A
2019-10-26 16:36:06,58ab0076-4dc0-4a61-95a7-4355e1dea5ca,S
2019-10-26 16:38:22,58ab0076-4dc0-4a61-95a7-4355e1dea5ca,A
2019-10-26 16:40:23,58ab0076-4dc0-4a61-95a7-4355e1dea5ca,S
2019-10-26 16:40:58,58ab0076-4dc0-4a61-95a7-4355e1dea5ca,A
2019-10-26 16:43:33,58ab0076-4dc0-4a61-95a7-4355e1dea5ca,S
2019-10-26 16:50:25,58ab0076-4dc0-4a61-95a7-4355e1dea5ca,A
2019-10-26 16:51:53,58ab0076-4dc0-4a61-95a7-4355e1dea5ca,S
2019-10-26 17:02:08,58ab0076-4dc0-4a61-95a7-4355e1dea5ca,A
2019-10-26 17:41:13,58ab0076-4dc0-4a61-95a7-4355e1dea5ca,S
2019-10-26 17:51:07,58ab0076-4dc0-4a61-95a7-4355e1dea5ca,A
2019-10-26 17:51:11,58ab0076-4dc0-4a61-95a7-4355e1dea5ca,S
2019-10-26 17:51:53,58ab0076-4dc0-4a61-95a7-4355e1dea5ca,A
2019-10-26 17:54:57,58ab0076-4dc0-4a61-95a7-4355e1dea5ca,S
2019-10-26 17:56:19,58ab0076-4dc0-4a61-95a7-4355e1dea5ca,A
2019-10-26 17:57:40,58ab0076-4dc0-4a61-95a7-4355e1dea5ca,S
2019-10-26 18:01:49,58ab0076-4dc0-4a61-95a7-4355e1dea5ca,A
2019-10-26 16:32:59,5428f51e-c180-4b58-a3d1-2983e837e81c,A
2019-10-26 16:33:28,5428f51e-c180-4b58-a3d1-2983e837e81c,S
2019-10-26 16:41:58,5428f51e-c180-4b58-a3d1-2983e837e81c,A
2019-10-26 16:43:17,5428f51e-c180-4b58-a3d1-2983e837e81c,S
2019-10-26 16:43:17,5428f51e-c180-4b58-a3d1-2983e837e81c,A
2019-10-26 16:51:54,5428f51e-c180-4b58-a3d1-2983e837e81c,S
2019-10-26 16:53:09,5428f51e-c180-4b58-a3d1-2983e837e81c,A
2019-10-26 16:53:59,5428f51e-c180-4b58-a3d1-2983e837e81c,S
2019-10-26 16:57:46,5428f51e-c180-4b58-a3d1-2983e837e81c,A
2019-10-26 16:58:52,5428f51e-c180-4b58-a3d1-2983e837e81c,S
2019-10-26 16:59:04,5428f51e-c180-4b58-a3d1-2983e837e81c,A
2019-10-26 17:04:37,5428f51e-c180-4b58-a3d1-2983e837e81c,S
2019-10-26 17:09:56,5428f51e-c180-4b58-a3d1-2983e837e81c,A
2019-10-26 17:22:12,5428f51e-c180-4b58-a3d1-2983e837e81c,S
2019-10-26 17:22:27,5428f51e-c180-4b58-a3d1-2983e837e81c,A
2019-10-26 17:26:37,5428f51e-c180-4b58-a3d1-2983e837e81c,S
2019-10-26 17:36:14,5428f51e-c180-4b58-a3d1-2983e837e81c,A
2019-10-26 17:48:19,5428f51e-c180-4b58-a3d1-2983e837e81c,S
2019-10-26 17:51:48,5428f51e-c180-4b58-a3d1-2983e837e81c,A
2019-10-26 17:56:11,5428f51e-c180-4b58-a3d1-2983e837e81c,S
2019-10-26 17:57:36,5428f51e-c180-4b58-a3d1-2983e837e81c,A
2019-10-26 17:58:11,5428f51e-c180-4b58-a3d1-2983e837e81c,S
2019-10-26 16:37:19,17eb8b2d-ba69-4efe-8a95-a905c1ce520c,A
2019-10-26 16:44:33,17eb8b2d-ba69-4efe-8a95-a905c1ce520c,S
2019-10-26 16:46:28,17eb8b2d-ba69-4efe-8a95-a905c1ce520c,A
2019-10-26 16:51:18,17eb8b2d-ba69-4efe-8a95-a905c1ce520c,S
2019-10-26 16:58:33,17eb8b2d-ba69-4efe-8a95-a905c1ce520c,A
2019-10-26 17:05:30,17eb8b2d-ba69-4efe-8a95-a905c1ce520c,S
2019-10-26 17:06:03,17eb8b2d-ba69-4efe-8a95-a905c1ce520c,A
2019-10-26 17:06:28,17eb8b2d-ba69-4efe-8a95-a905c1ce520c,S
2019-10-26 17:07:52,17eb8b2d-ba69-4efe-8a95-a905c1ce520c,A
2019-10-26 17:08:30,17eb8b2d-ba69-4efe-8a95-a905c1ce520c,S
2019-10-26 17:10:46,17eb8b2d-ba69-4efe-8a95-a905c1ce520c,A
2019-10-26 17:17:08,17eb8b2d-ba69-4efe-8a95-a905c1ce520c,S
2019-10-26 17:18:31,17eb8b2d-ba69-4efe-8a95-a905c1ce520c,A
2019-10-26 17:21:13,17eb8b2d-ba69-4efe-8a95-a905c1ce520c,S
2019-10-26 17:21:48,17eb8b2d-ba69-4efe-8a95-a905c1ce520c,A
2019-10-26 17:23:07,17eb8b2d-ba69-4efe-8a95-a905c1ce520c,S
2019-10-26 17:42:29,17eb8b2d-ba69-4efe-8a95-a905c1ce520c,A
2019-10-26 18:00:29,17eb8b2d-ba69-4efe-8a95-a905c1ce520c,S
2019-10-26 18:01:33,17eb8b2d-ba69-4efe-8a95-a905c1ce520c,A
2019-10-26 16:44:47,b7ed29fe-d7b6-44e1-8402-3ec365f70154,A
2019-10-26 17:18:33,b7ed29fe-d7b6-44e1-8402-3ec365f70154,S
2019-10-26 17:19:00,b7ed29fe-d7b6-44e1-8402-3ec365f70154,A
2019-10-26 17:48:17,b7ed29fe-d7b6-44e1-8402-3ec365f70154,S
2019-10-26 17:51:20,b7ed29fe-d7b6-44e1-8402-3ec365f70154,A
2019-10-26 17:53:48,b7ed29fe-d7b6-44e1-8402-3ec365f70154,S
2019-10-26 17:55:20,b7ed29fe-d7b6-44e1-8402-3ec365f70154,A
2019-10-26 17:56:06,b7ed29fe-d7b6-44e1-8402-3ec365f70154,S
2019-10-26 17:59:21,b7ed29fe-d7b6-44e1-8402-3ec365f70154,A
2019-10-26 16:45:08,b92dc4ab-fc55-44c2-b605-612417cac19e,S
2019-10-26 16:45:57,b92dc4ab-fc55-44c2-b605-612417cac19e,A
2019-10-26 16:58:33,b92dc4ab-fc55-44c2-b605-612417cac19e,S
2019-10-26 16:59:39,b92dc4ab-fc55-44c2-b605-612417cac19e,A
2019-10-26 17:01:44,b92dc4ab-fc55-44c2-b605-612417cac19e,S
2019-10-26 17:26:37,b92dc4ab-fc55-44c2-b605-612417cac19e,A
2019-10-26 17:38:27,b92dc4ab-fc55-44c2-b605-612417cac19e,S
2019-10-26 17:42:48,b92dc4ab-fc55-44c2-b605-612417cac19e,A
2019-10-26 17:42:49,b92dc4ab-fc55-44c2-b605-612417cac19e,S
2019-10-26 17:46:58,b92dc4ab-fc55-44c2-b605-612417cac19e,A
2019-10-26 17:51:10,b92dc4ab-fc55-44c2-b605-612417cac19e,S
2019-10-26 18:00:32,b92dc4ab-fc55-44c2-b605-612417cac19e,A
2019-10-26 16:12:36,00a4cd9b-1b00-4f1e-ab2b-a18daacef217,A
2019-10-26 16:18:39,00a4cd9b-1b00-4f1e-ab2b-a18daacef217,S
2019-10-26 16:21:26,00a4cd9b-1b00-4f1e-ab2b-a18daacef217,A
2019-10-26 16:22:05,00a4cd9b-1b00-4f1e-ab2b-a18daacef217,S
2019-10-26 16:22:50,00a4cd9b-1b00-4f1e-ab2b-a18daacef217,A
2019-10-26 16:32:05,00a4cd9b-1b00-4f1e-ab2b-a18daacef217,S
2019-10-26 16:32:31,00a4cd9b-1b00-4f1e-ab2b-a18daacef217,A
2019-10-26 16:33:21,00a4cd9b-1b00-4f1e-ab2b-a18daacef217,S
2019-10-26 16:38:15,00a4cd9b-1b00-4f1e-ab2b-a18daacef217,A
2019-10-26 16:43:15,00a4cd9b-1b00-4f1e-ab2b-a18daacef217,S
2019-10-26 16:43:27,00a4cd9b-1b00-4f1e-ab2b-a18daacef217,A
2019-10-26 16:44:11,00a4cd9b-1b00-4f1e-ab2b-a18daacef217,S
2019-10-26 16:46:31,00a4cd9b-1b00-4f1e-ab2b-a18daacef217,A
2019-10-26 16:49:31,00a4cd9b-1b00-4f1e-ab2b-a18daacef217,S
2019-10-26 16:50:48,00a4cd9b-1b00-4f1e-ab2b-a18daacef217,A
2019-10-26 16:50:52,00a4cd9b-1b00-4f1e-ab2b-a18daacef217,S
2019-10-26 16:58:57,00a4cd9b-1b00-4f1e-ab2b-a18daacef217,A
2019-10-26 17:02:14,00a4cd9b-1b00-4f1e-ab2b-a18daacef217,S
2019-10-26 17:04:07,00a4cd9b-1b00-4f1e-ab2b-a18daacef217,A
2019-10-26 17:11:29,00a4cd9b-1b00-4f1e-ab2b-a18daacef217,S
2019-10-26 17:21:43,00a4cd9b-1b00-4f1e-ab2b-a18daacef217,A
2019-10-26 17:37:11,00a4cd9b-1b00-4f1e-ab2b-a18daacef217,S
2019-10-26 17:39:34,00a4cd9b-1b00-4f1e-ab2b-a18daacef217,A
2019-10-26 17:39:45,00a4cd9b-1b00-4f1e-ab2b-a18daacef217,S
2019-10-26 17:47:51,00a4cd9b-1b00-4f1e-ab2b-a18daacef217,A
2019-10-26 17:48:14,00a4cd9b-1b00-4f1e-ab2b-a18daacef217,S
2019-10-26 17:56:33,00a4cd9b-1b00-4f1e-ab2b-a18daacef217,A
2019-10-26 16:43:54,f566840b-0379-4d22-af26-e46bf2ff2c4a,S
2019-10-26 16:49:17,f566840b-0379-4d22-af26-e46bf2ff2c4a,A
2019-10-26 16:50:42,f566840b-0379-4d22-af26-e46bf2ff2c4a,S
2019-10-26 16:52:52,f566840b-0379-4d22-af26-e46bf2ff2c4a,A
2019-10-26 16:59:54,f566840b-0379-4d22-af26-e46bf2ff2c4a,S
2019-10-26 17:06:01,f566840b-0379-4d22-af26-e46bf2ff2c4a,A
2019-10-26 17:09:55,f566840b-0379-4d22-af26-e46bf2ff2c4a,S
2019-10-26 17:13:17,f566840b-0379-4d22-af26-e46bf2ff2c4a,A
2019-10-26 17:14:52,f566840b-0379-4d22-af26-e46bf2ff2c4a,S
2019-10-26 17:15:02,f566840b-0379-4d22-af26-e46bf2ff2c4a,A
2019-10-26 17:17:23,f566840b-0379-4d22-af26-e46bf2ff2c4a,S
2019-10-26 17:21:39,f566840b-0379-4d22-af26-e46bf2ff2c4a,A
2019-10-26 17:24:33,f566840b-0379-4d22-af26-e46bf2ff2c4a,S
2019-10-26 17:25:28,f566840b-0379-4d22-af26-e46bf2ff2c4a,A
2019-10-26 17:35:52,f566840b-0379-4d22-af26-e46bf2ff2c4a,S
2019-10-26 17:35:55,f566840b-0379-4d22-af26-e46bf2ff2c4a,A
2019-10-26 17:36:27,f566840b-0379-4d22-af26-e46bf2ff2c4a,S
2019-10-26 17:36:56,f566840b-0379-4d22-af26-e46bf2ff2c4a,A
2019-10-26 17:37:10,f566840b-0379-4d22-af26-e46bf2ff2c4a,S
2019-10-26 17:41:05,f566840b-0379-4d22-af26-e46bf2ff2c4a,A
2019-10-26 17:48:53,f566840b-0379-4d22-af26-e46bf2ff2c4a,S
2019-10-26 17:54:52,f566840b-0379-4d22-af26-e46bf2ff2c4a,A
2019-10-26 17:57:45,f566840b-0379-4d22-af26-e46bf2ff2c4a,S
2019-10-26 17:59:45,f566840b-0379-4d22-af26-e46bf2ff2c4a,A
2019-10-26 16:38:21,90e4df78-161d-4e53-966b-1b8a19270279,S
2019-10-26 16:39:04,90e4df78-161d-4e53-966b-1b8a19270279,A
2019-10-26 16:42:35,90e4df78-161d-4e53-966b-1b8a19270279,S
2019-10-26 16:46:37,90e4df78-161d-4e53-966b-1b8a19270279,A
2019-10-26 16:54:26,90e4df78-161d-4e53-966b-1b8a19270279,S
2019-10-26 17:00:56,90e4df78-161d-4e53-966b-1b8a19270279,A
2019-10-26 17:05:06,90e4df78-161d-4e53-966b-1b8a19270279,S
2019-10-26 17:06:32,90e4df78-161d-4e53-966b-1b8a19270279,A
2019-10-26 17:16:56,90e4df78-161d-4e53-966b-1b8a19270279,S
2019-10-26 17:17:11,90e4df78-161d-4e53-966b-1b8a19270279,A
2019-10-26 17:17:27,90e4df78-161d-4e53-966b-1b8a19270279,S
2019-10-26 17:18:57,90e4df78-161d-4e53-966b-1b8a19270279,A
2019-10-26 17:26:47,90e4df78-161d-4e53-966b-1b8a19270279,S
2019-10-26 17:30:44,90e4df78-161d-4e53-966b-1b8a19270279,A
2019-10-26 17:33:22,90e4df78-161d-4e53-966b-1b8a19270279,S
2019-10-26 17:35:50,90e4df78-161d-4e53-966b-1b8a19270279,A
2019-10-26 17:37:57,90e4df78-161d-4e53-966b-1b8a19270279,S
2019-10-26 17:42:37,90e4df78-161d-4e53-966b-1b8a19270279,A
2019-10-26 17:48:59,90e4df78-161d-4e53-966b-1b8a19270279,S
2019-10-26 17:49:09,90e4df78-161d-4e53-966b-1b8a19270279,A
2019-10-26 17:49:48,90e4df78-161d-4e53-966b-1b8a19270279,S
2019-10-26 17:52:06,90e4df78-161d-4e53-966b-1b8a19270279,A
2019-10-26 16:32:36,7bb99b75-fb6d-4715-ac3c-c86370974c2c,A
2019-10-26 16:33:16,7bb99b75-fb6d-4715-ac3c-c86370974c2c,S
2019-10-26 16:34:51,7bb99b75-fb6d-4715-ac3c-c86370974c2c,A
2019-10-26 16:49:04,7bb99b75-fb6d-4715-ac3c-c86370974c2c,S
2019-10-26 16:51:11,7bb99b75-fb6d-4715-ac3c-c86370974c2c,A
2019-10-26 16:53:38,7bb99b75-fb6d-4715-ac3c-c86370974c2c,S
2019-10-26 17:01:15,7bb99b75-fb6d-4715-ac3c-c86370974c2c,A
2019-10-26 17:04:55,7bb99b75-fb6d-4715-ac3c-c86370974c2c,S
2019-10-26 17:08:17,7bb99b75-fb6d-4715-ac3c-c86370974c2c,A
2019-10-26 17:19:07,7bb99b75-fb6d-4715-ac3c-c86370974c2c,S
2019-10-26 17:19:11,7bb99b75-fb6d-4715-ac3c-c86370974c2c,A
2019-10-26 17:28:42,7bb99b75-fb6d-4715-ac3c-c86370974c2c,S
2019-10-26 17:49:10,7bb99b75-fb6d-4715-ac3c-c86370974c2c,A
2019-10-26 17:56:25,7bb99b75-fb6d-4715-ac3c-c86370974c2c,S
2019-10-26 18:00:24,7bb99b75-fb6d-4715-ac3c-c86370974c2c,A
2019-10-26 16:43:55,89ca6c01-1a40-4676-8fe0-10bfa6f724d1,S
2019-10-26 16:46:06,89ca6c01-1a40-4676-8fe0-10bfa6f724d1,A
2019-10-26 16:48:52,89ca6c01-1a40-4676-8fe0-10bfa6f724d1,S
2019-10-26 17:05:48,89ca6c01-1a40-4676-8fe0-10bfa6f724d1,A
2019-10-26 17:07:28,89ca6c01-1a40-4676-8fe0-10bfa6f724d1,S
2019-10-26 17:08:35,89ca6c01-1a40-4676-8fe0-10bfa6f724d1,A
2019-10-26 17:13:49,89ca6c01-1a40-4676-8fe0-10bfa6f724d1,S
2019-10-26 17:22:27,89ca6c01-1a40-4676-8fe0-10bfa6f724d1,A
2019-10-26 17:24:25,89ca6c01-1a40-4676-8fe0-10bfa6f724d1,S
2019-10-26 17:32:00,89ca6c01-1a40-4676-8fe0-10bfa6f724d1,A
2019-10-26 17:32:48,89ca6c01-1a40-4676-8fe0-10bfa6f724d1,S
2019-10-26 17:44:36,89ca6c01-1a40-4676-8fe0-10bfa6f724d1,A
2019-10-26 17:52:28,89ca6c01-1a40-4676-8fe0-10bfa6f724d1,S
2019-10-26 17:54:06,89ca6c01-1a40-4676-8fe0-10bfa6f724d1,A
2019-10-26 17:57:55,89ca6c01-1a40-4676-8fe0-10bfa6f724d1,S
2019-10-26 18:00:14,89ca6c01-1a40-4676-8fe0-10bfa6f724d1,A
2019-10-26 16:22:11,f28321b4-bcdd-4578-9b26-f11d967f9f05,A
2019-10-26 16:28:14,f28321b4-bcdd-4578-9b26-f11d967f9f05,S
2019-10-26 16:30:45,f28321b4-bcdd-4578-9b26-f11d967f9f05,A
2019-10-26 16:31:29,f28321b4-bcdd-4578-9b26-f11d967f9f05,S
2019-10-26 16:31:32,f28321b4-bcdd-4578-9b26-f11d967f9f05,A
2019-10-26 16:34:22,f28321b4-bcdd-4578-9b26-f11d967f9f05,S
2019-10-26 16:42:38,f28321b4-bcdd-4578-9b26-f11d967f9f05,A
2019-10-26 16:45:24,f28321b4-bcdd-4578-9b26-f11d967f9f05,S
2019-10-26 16:45:27,f28321b4-bcdd-4578-9b26-f11d967f9f05,A
2019-10-26 16:51:32,f28321b4-bcdd-4578-9b26-f11d967f9f05,S
2019-10-26 16:55:55,f28321b4-bcdd-4578-9b26-f11d967f9f05,A
2019-10-26 17:03:16,f28321b4-bcdd-4578-9b26-f11d967f9f05,S
2019-10-26 17:04:26,f28321b4-bcdd-4578-9b26-f11d967f9f05,A
2019-10-26 17:08:22,f28321b4-bcdd-4578-9b26-f11d967f9f05,S
2019-10-26 17:09:09,f28321b4-bcdd-4578-9b26-f11d967f9f05,A
2019-10-26 17:09:27,f28321b4-bcdd-4578-9b26-f11d967f9f05,S
2019-10-26 17:20:00,f28321b4-bcdd-4578-9b26-f11d967f9f05,A
2019-10-26 17:21:23,f28321b4-bcdd-4578-9b26-f11d967f9f05,S
2019-10-26 17:27:07,f28321b4-bcdd-4578-9b26-f11d967f9f05,A
2019-10-26 17:31:34,f28321b4-bcdd-4578-9b26-f11d967f9f05,S
2019-10-26 17:32:53,f28321b4-bcdd-4578-9b26-f11d967f9f05,A
2019-10-26 17:35:40,f28321b4-bcdd-4578-9b26-f11d967f9f05,S
2019-10-26 17:37:05,f28321b4-bcdd-4578-9b26-f11d967f9f05,A
2019-10-26 17:45:54,f28321b4-bcdd-4578-9b26-f11d967f9f05,S
2019-10-26 17:47:24,f28321b4-bcdd-4578-9b26-f11d967f9f05,A
2019-10-26 17:51:02,f28321b4-bcdd-4578-9b26-f11d967f9f05,S
2019-10-26 17:51:20,f28321b4-bcdd-4578-9b26-f11d967f9f05,A
2019-10-26 17:55:18,f28321b4-bcdd-4578-9b26-f11d967f9f05,S
2019-10-26 16:02:01,a9c1d51d-5139-4d9a-8e34-92ac012d3b11,S
2019-10-26 16:03:33,a9c1d51d-5139-4d9a-8e34-92ac012d3b11,A
2019-10-26 16:04:22,a9c1d51d-5139-4d9a-8e34-92ac012d3b11,S
2019-10-26 16:04:28,a9c1d51d-5139-4d9a-8e34-92ac012d3b11,A
2019-10-26 16:04:34,a9c1d51d-5139-4d9a-8e34-92ac012d3b11,S
2019-10-26 16:04:58,a9c1d51d-5139-4d9a-8e34-92ac012d3b11,A
2019-10-26 16:09:43,a9c1d51d-5139-4d9a-8e34-92ac012d3b11,S
2019-10-26 16:13:51,a9c1d51d-5139-4d9a-8e34-92ac012d3b11,A
2019-10-26 16:15:39,a9c1d51d-5139-4d9a-8e34-92ac012d3b11,S
2019-10-26 16:17:53,a9c1d51d-5139-4d9a-8e34-92ac012d3b11,A
2019-10-26 16:28:31,a9c1d51d-5139-4d9a-8e34-92ac012d3b11,S
2019-10-26 16:30:33,a9c1d51d-5139-4d9a-8e34-92ac012d3b11,A
2019-10-26 16:39:42,a9c1d51d-5139-4d9a-8e34-92ac012d3b11,S
2019-10-26 16:42:18,a9c1d51d-5139-4d9a-8e34-92ac012d3b11,A
2019-10-26 16:50:53,a9c1d51d-5139-4d9a-8e34-92ac012d3b11,S
2019-10-26 16:52:55,a9c1d51d-5139-4d9a-8e34-92ac012d3b11,A
2019-10-26 16:54:44,a9c1d51d-5139-4d9a-8e34-92ac012d3b11,S
2019-10-26 16:57:47,a9c1d51d-5139-4d9a-8e34-92ac012d3b11,A
2019-10-26 16:57:55,a9c1d51d-5139-4d9a-8e34-92ac012d3b11,S
2019-10-26 17:09:58,a9c1d51d-5139-4d9a-8e34-92ac012d3b11,A
2019-10-26 17:13:37,a9c1d51d-5139-4d9a-8e34-92ac012d3b11,S
2019-10-26 17:25:21,a9c1d51d-5139-4d9a-8e34-92ac012d3b11,A
2019-10-26 17:26:05,a9c1d51d-5139-4d9a-8e34-92ac012d3b11,S
2019-10-26 17:32:59,a9c1d51d-5139-4d9a-8e34-92ac012d3b11,A
2019-10-26 17:34:19,a9c1d51d-5139-4d9a-8e34-92ac012d3b11,S
2019-10-26 17:36:46,a9c1d51d-5139-4d9a-8e34-92ac012d3b11,A
2019-10-26 17:45:11,a9c1d51d-5139-4d9a-8e34-92ac012d3b11,S
2019-10-26 17:53:20,a9c1d51d-5139-4d9a-8e34-92ac012d3b11,A
2019-10-26 18:03:30,a9c1d51d-5139-4d9a-8e34-92ac012d3b11,S
2019-10-26 16:43:09,bdcf5e52-7848-475c-a6f3-2557bda5eec4,A
2019-10-26 16:48:15,bdcf5e52-7848-475c-a6f3-2557bda5eec4,S
2019-10-26 16:49:18,bdcf5e52-7848-475c-a6f3-2557bda5eec4,A
2019-10-26 16:51:14,bdcf5e52-7848-475c-a6f3-2557bda5eec4,S
2019-10-26 16:58:49,bdcf5e52-7848-475c-a6f3-2557bda5eec4,A
2019-10-26 17:00:13,bdcf5e52-7848-475c-a6f3-2557bda5eec4,S
2019-10-26 17:10:07,bdcf5e52-7848-475c-a6f3-2557bda5eec4,A
2019-10-26 17:11:55,bdcf5e52-7848-475c-a6f3-2557bda5eec4,S
2019-10-26 17:16:49,bdcf5e52-7848-475c-a6f3-2557bda5eec4,A
2019-10-26 17:21:13,bdcf5e52-7848-475c-a6f3-2557bda5eec4,S
2019-10-26 17:29:57,bdcf5e52-7848-475c-a6f3-2557bda5eec4,A
2019-10-26 17:31:28,bdcf5e52-7848-475c-a6f3-2557bda5eec4,S
2019-10-26 17:33:22,bdcf5e52-7848-475c-a6f3-2557bda5eec4,A
2019-10-26 17:35:49,bdcf5e52-7848-475c-a6f3-2557bda5eec4,S
2019-10-26 17:40:03,bdcf5e52-7848-475c-a6f3-2557bda5eec4,A
2019-10-26 17:45:52,bdcf5e52-7848-475c-a6f3-2557bda5eec4,S
2019-10-26 17:51:22,bdcf5e52-7848-475c-a6f3-2557bda5eec4,A
2019-10-26 18:00:35,bdcf5e52-7848-475c-a6f3-2557bda5eec4,S
2019-10-26 16:31:47,171054c2-f1c1-4db8-bbc7-12e5fa5985d4,S
2019-10-26 16:34:06,171054c2-f1c1-4db8-bbc7-12e5fa5985d4,A
2019-10-26 16:39:17,171054c2-f1c1-4db8-bbc7-12e5fa5985d4,S
2019-10-26 16:47:23,171054c2-f1c1-4db8-bbc7-12e5fa5985d4,A
2019-10-26 16:54:47,171054c2-f1c1-4db8-bbc7-12e5fa5985d4,S
2019-10-26 16:55:09,171054c2-f1c1-4db8-bbc7-12e5fa5985d4,A
2019-10-26 17:00:42,171054c2-f1c1-4db8-bbc7-12e5fa5985d4,S
2019-10-26 17:11:45,171054c2-f1c1-4db8-bbc7-12e5fa5985d4,A
2019-10-26 17:16:10,171054c2-f1c1-4db8-bbc7-12e5fa5985d4,S
2019-10-26 17:18:57,171054c2-f1c1-4db8-bbc7-12e5fa5985d4,A
2019-10-26 17:25:39,171054c2-f1c1-4db8-bbc7-12e5fa5985d4,S
2019-10-26 17:26:30,171054c2-f1c1-4db8-bbc7-12e5fa5985d4,A
2019-10-26 17:29:15,171054c2-f1c1-4db8-bbc7-12e5fa5985d4,S
2019-10-26 17:33:05,171054c2-f1c1-4db8-bbc7-12e5fa5985d4,A
2019-10-26 17:39:33,171054c2-f1c1-4db8-bbc7-12e5fa5985d4,S
2019-10-26 17:42:38,171054c2-f1c1-4db8-bbc7-12e5fa5985d4,A
2019-10-26 17:54:58,171054c2-f1c1-4db8-bbc7-12e5fa5985d4,S
2019-10-26 17:59:45,171054c2-f1c1-4db8-bbc7-12e5fa5985d4,A
2019-10-26 18:01:49,171054c2-f1c1-4db8-bbc7-12e5fa5985d4,S
2019-10-26 15:59:42,9eccb193-b0e1-421b-aa71-601d1cc979fd,S
2019-10-26 16:03:45,9eccb193-b0e1-421b-aa71-601d1cc979fd,A
2019-10-26 16:04:34,9eccb193-b0e1-421b-aa71-601d1cc979fd,S
2019-10-26 16:09:47,9eccb193-b0e1-421b-aa71-601d1cc979fd,A
2019-10-26 16:14:40,9eccb193-b0e1-421b-aa71-601d1cc979fd,S
2019-10-26 16:19:39,9eccb193-b0e1-421b-aa71-601d1cc979fd,A
2019-10-26 16:22:14,9eccb193-b0e1-421b-aa71-601d1cc979fd,S
2019-10-26 16:23:00,9eccb193-b0e1-421b-aa71-601d1cc979fd,A
2019-10-26 16:33:36,9eccb193-b0e1-421b-aa71-601d1cc979fd,S
2019-10-26 16:33:59,9eccb193-b0e1-421b-aa71-601d1cc979fd,A
2019-10-26 16:41:38,9eccb193-b0e1-421b-aa71-601d1cc979fd,S
2019-10-26 16:46:57,9eccb193-b0e1-421b-aa71-601d1cc979fd,A
2019-10-26 16:47:24,9eccb193-b0e1-421b-aa71-601d1cc979fd,S
2019-10-26 16:53:49,9eccb193-b0e1-421b-aa71-601d1cc979fd,A
2019-10-26 16:55:53,9eccb193-b0e1-421b-aa71-601d1cc979fd,S
2019-10-26 16:56:06,9eccb193-b0e1-421b-aa71-601d1cc979fd,A
2019-10-26 17:01:09,9eccb193-b0e1-421b-aa71-601d1cc979fd,S
2019-10-26 17:01:51,9eccb193-b0e1-421b-aa71-601d1cc979fd,A
2019-10-26 17:18:57,9eccb193-b0e1-421b-aa71-601d1cc979fd,S
2019-10-26 17:21:14,9eccb193-b0e1-421b-aa71-601d1cc979fd,A
2019-10-26 17:21:33,9eccb193-b0e1-421b-aa71-601d1cc979fd,S
2019-10-26 17:24:59,9eccb193-b0e1-421b-aa71-601d1cc979fd,A
2019-10-26 17:25:10,9eccb193-b0e1-421b-aa71-601d1cc979fd,S
2019-10-26 17:32:11,9eccb193-b0e1-421b-aa71-601d1cc979fd,A
2019-10-26 17:38:00,9eccb193-b0e1-421b-aa71-601d1cc979fd,S
2019-10-26 17:58:42,9eccb193-b0e1-421b-aa71-601d1cc979fd,A
2019-10-26 17:59:59,9eccb193-b0e1-421b-aa71-601d1cc979fd,S
2019-10-26 16:38:15,7b0b3e12-00e1-4102-ae19-efc005201d5b,A
2019-10-26 16:40:06,7b0b3e12-00e1-4102-ae19-efc005201d5b,S
2019-10-26 16:49:34,7b0b3e12-00e1-4102-ae19-efc005201d5b,A
2019-10-26 17:03:42,7b0b3e12-00e1-4102-ae19-efc005201d5b,S
2019-10-26 17:05:18,7b0b3e12-00e1-4102-ae19-efc005201d5b,A
2019-10-26 17:06:52,7b0b3e12-00e1-4102-ae19-efc005201d5b,S
2019-10-26 17:08:45,7b0b3e12-00e1-4102-ae19-efc005201d5b,A
2019-10-26 17:15:13,7b0b3e12-00e1-4102-ae19-efc005201d5b,S
2019-10-26 17:20:07,7b0b3e12-00e1-4102-ae19-efc005201d5b,A
2019-10-26 17:27:38,7b0b3e12-00e1-4102-ae19-efc005201d5b,S
2019-10-26 17:27:40,7b0b3e12-00e1-4102-ae19-efc005201d5b,A
2019-10-26 17:28:00,7b0b3e12-00e1-4102-ae19-efc005201d5b,S
2019-10-26 17:30:20,7b0b3e12-00e1-4102-ae19-efc005201d5b,A
2019-10-26 17:33:32,7b0b3e12-00e1-4102-ae19-efc005201d5b,S
2019-10-26 17:34:18,7b0b3e12-00e1-4102-ae19-efc005201d5b,A
2019-10-26 17:45:18,7b0b3e12-00e1-4102-ae19-efc005201d5b,S
2019-10-26 17:46:06,7b0b3e12-00e1-4102-ae19-efc005201d5b,A
2019-10-26 17:46:32,7b0b3e12-00e1-4102-ae19-efc005201d5b,S
2019-10-26 17:48:45,7b0b3e12-00e1-4102-ae19-efc005201d5b,A
2019-10-26 17:50:59,7b0b3e12-00e1-4102-ae19-efc005201d5b,S
2019-10-26 17:51:18,7b0b3e12-00e1-4102-ae19-efc005201d5b,A
2019-10-26 18:00:43,7b0b3e12-00e1-4102-ae19-efc005201d5b,S
2019-10-26 18:05:27,7b0b3e12-00e1-4102-ae19-efc005201d5b,A
2019-10-26 16:15:13,94538143-0612-4210-917f-8e1be077c669,S
2019-10-26 16:27:18,94538143-0612-4210-917f-8e1be077c669,A
2019-10-26 16:45:39,94538143-0612-4210-917f-8e1be077c669,S
2019-10-26 16:48:03,94538143-0612-4210-917f-8e1be077c669,A
2019-10-26 16:51:21,94538143-0612-4210-917f-8e1be077c669,S
2019-10-26 16:54:41,94538143-0612-4210-917f-8e1be077c669,A
2019-10-26 17:06:11,94538143-0612-4210-917f-8e1be077c669,S
2019-10-26 17:07:00,94538143-0612-4210-917f-8e1be077c669,A
2019-10-26 17:08:39,94538143-0612-4210-917f-8e1be077c669,S
2019-10-26 17:09:32,94538143-0612-4210-917f-8e1be077c669,A
2019-10-26 17:26:56,94538143-0612-4210-917f-8e1be077c669,S
2019-10-26 17:27:02,94538143-0612-4210-917f-8e1be077c669,A
2019-10-26 17:30:11,94538143-0612-4210-917f-8e1be077c669,S
2019-10-26 17:33:38,94538143-0612-4210-917f-8e1be077c669,A
2019-10-26 17:35:52,94538143-0612-4210-917f-8e1be077c669,S
2019-10-26 17:41:49,94538143-0612-4210-917f-8e1be077c669,A
2019-10-26 17:43:11,94538143-0612-4210-917f-8e1be077c669,S
2019-10-26 17:47:07,94538143-0612-4210-917f-8e1be077c669,A
2019-10-26 17:52:40,94538143-0612-4210-917f-8e1be077c669,S
2019-10-26 18:04:12,94538143-0612-4210-917f-8e1be077c669,A
2019-10-26 16:14:25,de851b3c-8c64-4ce2-9903-8d68709e256e,A
2019-10-26 16:21:17,de851b3c-8c64-4ce2-9903-8d68709e256e,S
2019-10-26 16:26:04,de851b3c-8c64-4ce2-9903-8d68709e256e,A
2019-10-26 16:32:38,de851b3c-8c64-4ce2-9903-8d68709e256e,S
2019-10-26 16:38:32,de851b3c-8c64-4ce2-9903-8d68709e256e,A
2019-10-26 16:49:10,de851b3c-8c64-4ce2-9903-8d68709e256e,S
2019-10-26 16:56:25,de851b3c-8c64-4ce2-9903-8d68709e256e,A
2019-10-26 16:58:52,de851b3c-8c64-4ce2-9903-8d68709e256e,S
2019-10-26 17:00:33,de851b3c-8c64-4ce2-9903-8d68709e256e,A
2019-10-26 17:05:11,de851b3c-8c64-4ce2-9903-8d68709e256e,S
2019-10-26 17:10:11,de851b3c-8c64-4ce2-9903-8d68709e256e,A
2019-10-26 17:20:06,de851b3c-8c64-4ce2-9903-8d68709e256e,S
2019-10-26 17:20:10,de851b3c-8c64-4ce2-9903-8d68709e256e,A
2019-10-26 17:24:50,de851b3c-8c64-4ce2-9903-8d68709e256e,S
2019-10-26 17:26:35,de851b3c-8c64-4ce2-9903-8d68709e256e,A
2019-10-26 17:33:17,de851b3c-8c64-4ce2-9903-8d68709e256e,S
2019-10-26 17:33:24,de851b3c-8c64-4ce2-9903-8d68709e256e,A
2019-10-26 17:36:06,de851b3c-8c64-4ce2-9903-8d68709e256e,S
2019-10-26 17:42:59,de851b3c-8c64-4ce2-9903-8d68709e256e,A
2019-10-26 18:03:53,de851b3c-8c64-4ce2-9903-8d68709e256e,S
2019-10-26 16:21:04,64d7e41c-78b3-4b84-9af0-e1296ae316a0,S
2019-10-26 16:30:06,64d7e41c-78b3-4b84-9af0-e1296ae316a0,A
2019-10-26 16:35:18,64d7e41c-78b3-4b84-9af0-e1296ae316a0,S
2019-10-26 16:48:04,64d7e41c-78b3-4b84-9af0-e1296ae316a0,A
2019-10-26 16:49:03,64d7e41c-78b3-4b84-9af0-e1296ae316a0,S
2019-10-26 17:00:16,64d7e41c-78b3-4b84-9af0-e1296ae316a0,A
2019-10-26 17:00:29,64d7e41c-78b3-4b84-9af0-e1296ae316a0,S
2019-10-26 17:03:56,64d7e41c-78b3-4b84-9af0-e1296ae316a0,A
2019-10-26 17:14:59,64d7e41c-78b3-4b84-9af0-e1296ae316a0,S
2019-10-26 17:18:01,64d7e41c-78b3-4b84-9af0-e1296ae316a0,A
2019-10-26 17:24:37,64d7e41c-78b3-4b84-9af0-e1296ae316a0,S
2019-10-26 17:26:33,64d7e41c-78b3-4b84-9af0-e1296ae316a0,A
2019-10-26 17:33:58,64d7e41c-78b3-4b84-9af0-e1296ae316a0,S
2019-10-26 17:38:04,64d7e41c-78b3-4b84-9af0-e1296ae316a0,A
2019-10-26 17:38:46,64d7e41c-78b3-4b84-9af0-e1296ae316a0,S
2019-10-26 17:39:08,64d7e41c-78b3-4b84-9af0-e1296ae316a0,A
2019-10-26 17:42:31,64d7e41c-78b3-4b84-9af0-e1296ae316a0,S
2019-10-26 17:45:36,64d7e41c-78b3-4b84-9af0-e1296ae316a0,A
2019-10-26 17:58:46,64d7e41c-78b3-4b84-9af0-e1296ae316a0,S
2019-10-26 18:02:56,64d7e41c-78b3-4b84-9af0-e1296ae316a0,A
2019-10-26 18:03:03,64d7e41c-78b3-4b84-9af0-e1296ae316a0,S
2019-10-26 16:30:35,6f40a226-8d06-4d49-9aab-37e731e4406f,S
2019-10-26 16:42:49,6f40a226-8d06-4d49-9aab-37e731e4406f,A
2019-10-26 16:52:58,6f40a226-8d06-4d49-9aab-37e731e4406f,S
2019-10-26 16:54:16,6f40a226-8d06-4d49-9aab-37e731e4406f,A
2019-10-26 16:56:15,6f40a226-8d06-4d49-9aab-37e731e4406f,S
2019-10-26 17:02:54,6f40a226-8d06-4d49-9aab-37e731e4406f,A
2019-10-26 17:03:41,6f40a226-8d06-4d49-9aab-37e731e4406f,S
2019-10-26 17:06:03,6f40a226-8d06-4d49-9aab-37e731e4406f,A
2019-10-26 17:06:54,6f40a226-8d06-4d49-9aab-37e731e4406f,S
2019-10-26 17:07:16,6f40a226-8d06-4d49-9aab-37e731e4406f,A
2019-10-26 17:07:34,6f40a226-8d06-4d49-9aab-37e731e4406f,S
2019-10-26 17:14:31,6f40a226-8d06-4d49-9aab-37e731e4406f,A
2019-10-26 17:27:21,6f40a226-8d06-4d49-9aab-37e731e4406f,S
2019-10-26 17:31:58,6f40a226-8d06-4d49-9aab-37e731e4406f,A
2019-10-26 17:32:37,6f40a226-8d06-4d49-9aab-37e731e4406f,S
2019-10-26 17:49:32,6f40a226-8d06-4d49-9aab-37e731e4406f,A
2019-10-26 17:51:53,6f40a226-8d06-4d49-9aab-37e731e4406f,S
2019-10-26 17:52:06,6f40a226-8d06-4d49-9aab-37e731e4406f,A
2019-10-26 17:53:26,6f40a226-8d06-4d49-9aab-37e731e4406f,S
2019-10-26 17:55:52,6f40a226-8d06-4d49-9aab-37e731e4406f,A
2019-10-26 18:01:20,6f40a226-8d06-4d49-9aab-37e731e4406f,S
2019-10-26 18:04:23,6f40a226-8d06-4d49-9aab-37e731e4406f,A
2019-10-26 16:39:15,f04ec080-491a-476f-947a-475c9d8ef29d,A
2019-10-26 16:48:10,f04ec080-491a-476f-947a-475c9d8ef29d,S
2019-10-26 16:58:54,f04ec080-491a-476f-947a-475c9d8ef29d,A
2019-10-26 17:04:25,f04ec080-491a-476f-947a-475c9d8ef29d,S
2019-10-26 17:07:04,f04ec080-491a-476f-947a-475c9d8ef29d,A
2019-10-26 17:07:48,f04ec080-491a-476f-947a-475c9d8ef29d,S
2019-10-26 17:12:28,f04ec080-491a-476f-947a-475c9d8ef29d,A
2019-10-26 17:14:18,f04ec080-491a-476f-947a-475c9d8ef29d,S
2019-10-26 17:27:33,f04ec080-491a-476f-947a-475c9d8ef29d,A
2019-10-26 17:29:26,f04ec080-491a-476f-947a-475c9d8ef29d,S
2019-10-26 17:35:38,f04ec080-491a-476f-947a-475c9d8ef29d,A
2019-10-26 17:38:26,f04ec080-491a-476f-947a-475c9d8ef29d,S
2019-10-26 17:40:13,f04ec080-491a-476f-947a-475c9d8ef29d,A
2019-10-26 17:40:37,f04ec080-491a-476f-947a-475c9d8ef29d,S
2019-10-26 17:41:16,f04ec080-491a-476f-947a-475c9d8ef29d,A
2019-10-26 17:53:46,f04ec080-491a-476f-947a-475c9d8ef29d,S
2019-10-26 17:53:48,f04ec080-491a-476f-947a-475c9d8ef29d,A
2019-10-26 17:54:24,f04ec080-491a-476f-947a-475c9d8ef29d,S
2019-10-26 17:54:53,f04ec080-491a-476f-947a-475c9d8ef29d,A
2019-10-26 16:10:01,32aa95cb-19e2-4dca-8018-fcf8a99f5345,S
2019-10-26 16:16:14,32aa95cb-19e2-4dca-8018-fcf8a99f5345,A
2019-10-26 16:20:38,32aa95cb-19e2-4dca-8018-fcf8a99f5345,S
2019-10-26 16:31:10,32aa95cb-19e2-4dca-8018-fcf8a99f5345,A
2019-10-26 16:31:29,32aa95cb-19e2-4dca-8018-fcf8a99f5345,S
2019-10-26 16:36:58,32aa95cb-19e2-4dca-8018-fcf8a99f5345,A
2019-10-26 16:37:33,32aa95cb-19e2-4dca-8018-fcf8a99f5345,S
2019-10-26 16:38:10,32aa95cb-19e2-4dca-8018-fcf8a99f5345,A
2019-10-26 16:40:42,32aa95cb-19e2-4dca-8018-fcf8a99f5345,S
2019-10-26 16:41:01,32aa95cb-19e2-4dca-8018-fcf8a99f5345,A
2019-10-26 16:41:53,32aa95cb-19e2-4dca-8018-fcf8a99f5345,S
2019-10-26 16:57:26,32aa95cb-19e2-4dca-8018-fcf8a99f5345,A
2019-10-26 16:58:45,32aa95cb-19e2-4dca-8018-fcf8a99f5345,S
2019-10-26 17:01:53,32aa95cb-19e2-4dca-8018-fcf8a99f5345,A
2019-10-26 17:13:47,32aa95cb-19e2-4dca-8018-fcf8a99f5345,S
2019-10-26 17:15:14,32aa95cb-19e2-4dca-8018-fcf8a99f5345,A
2019-10-26 17:16:23,32aa95cb-19e2-4dca-8018-fcf8a99f5345,S
2019-10-26 17:17:14,32aa95cb-19e2-4dca-8018-fcf8a99f5345,A
2019-10-26 17:17:37,32aa95cb-19e2-4dca-8018-fcf8a99f5345,S
2019-10-26 17:24:07,32aa95cb-19e2-4dca-8018-fcf8a99f5345,A
2019-10-26 17:54:46,32aa95cb-19e2-4dca-8018-fcf8a99f5345,S
2019-10-26 17:58:32,32aa95cb-19e2-4dca-8018-fcf8a99f5345,A
2019-10-26 16:27:09,45cf505c-a501-4954-9400-1d0d6723bed0,S
2019-10-26 16:27:13,45cf505c-a501-4954-9400-1d0d6723bed0,A
2019-10-26 16:34:24,45cf505c-a501-4954-9400-1d0d6723bed0,S
2019-10-26 16:45:54,45cf505c-a501-4954-9400-1d0d6723bed0,A
2019-10-26 16:47:30,45cf505c-a501-4954-9400-1d0d6723bed0,S
2019-10-26 16:50:37,45cf505c-a501-4954-9400-1d0d6723bed0,A
2019-10-26 16:50:54,45cf505c-a501-4954-9400-1d0d6723bed0,S
2019-10-26 17:08:53,45cf505c-a501-4954-9400-1d0d6723bed0,A
2019-10-26 17:11:17,45cf505c-a501-4954-9400-1d0d6723bed0,S
2019-10-26 17:23:39,45cf505c-a501-4954-9400-1d0d6723bed0,A
2019-10-26 17:35:46,45cf505c-a501-4954-9400-1d0d6723bed0,S
2019-10-26 17:41:18,45cf505c-a501-4954-9400-1d0d6723bed0,A
2019-10-26 17:41:44,45cf505c-a501-4954-9400-1d0d6723bed0,S
2019-10-26 17:43:59,45cf505c-a501-4954-9400-1d0d6723bed0,A
2019-10-26 17:47:38,45cf505c-a501-4954-9400-1d0d6723bed0,S
2019-10-26 17:50:58,45cf505c-a501-4954-9400-1d0d6723bed0,A
2019-10-26 17:55:29,45cf505c-a501-4954-9400-1d0d6723bed0,S
2019-10-26 17:56:25,45cf505c-a501-4954-9400-1d0d6723bed0,A
2019-10-26 17:56:47,45cf505c-a501-4954-9400-1d0d6723bed0,S
2019-10-26 17:57:45,45cf505c-a501-4954-9400-1d0d6723bed0,A
2019-10-26 16:25:48,c9302685-8839-4d3e-9a8e-e60139a718fa,S
2019-10-26 16:31:04,c9302685-8839-4d3e-9a8e-e60139a718fa,A
2019-10-26 16:37:47,c9302685-8839-4d3e-9a8e-e60139a718fa,S
2019-10-26 16:42:47,c9302685-8839-4d3e-9a8e-e60139a718fa,A
2019-10-26 16:43:43,c9302685-8839-4d3e-9a8e-e60139a718fa,S
2019-10-26 16:50:30,c9302685-8839-4d3e-9a8e-e60139a718fa,A
2019-10-26 16:52:45,c9302685-8839-4d3e-9a8e-e60139a718fa,S
2019-10-26 16:58:51,c9302685-8839-4d3e-9a8e-e60139a718fa,A
2019-10-26 16:58:53,c9302685-8839-4d3e-9a8e-e60139a718fa,S
2019-10-26 16:59:37,c9302685-8839-4d3e-9a8e-e60139a718fa,A
2019-10-26 17:03:31,c9302685-8839-4d3e-9a8e-e60139a718fa,S
2019-10-26 17:09:07,c9302685-8839-4d3e-9a8e-e60139a718fa,A
2019-10-26 17:11:08,c9302685-8839-4d3e-9a8e-e60139a718fa,S
2019-10-26 17:14:21,c9302685-8839-4d3e-9a8e-e60139a718fa,A
2019-10-26 17:17:13,c9302685-8839-4d3e-9a8e-e60139a718fa,S
2019-10-26 17:20:27,c9302685-8839-4d3e-9a8e-e60139a718fa,A
2019-10-26 17:29:28,c9302685-8839-4d3e-9a8e-e60139a718fa,S
2019-10-26 17:33:02,c9302685-8839-4d3e-9a8e-e60139a718fa,A
2019-10-26 17:34:01,c9302685-8839-4d3e-9a8e-e60139a718fa,S
2019-10-26 17:37:28,c9302685-8839-4d3e-9a8e-e60139a718fa,A
2019-10-26 17:39:26,c9302685-8839-4d3e-9a8e-e60139a718fa,S
2019-10-26 17:40:07,c9302685-8839-4d3e-9a8e-e60139a718fa,A
2019-10-26 17:47:16,c9302685-8839-4d3e-9a8e-e60139a718fa,S
2019-10-26 17:49:40,c9302685-8839-4d3e-9a8e-e60139a718fa,A
2019-10-26 18:03:31,c9302685-8839-4d3e-9a8e-e60139a718fa,S
2019-10-26 18:06:31,c9302685-8839-4d3e-9a8e-e60139a718fa,A
2019-10-26 16:16:43,dfecf112-51f3-4eb4-91f3-667270db2b1a,S
2019-10-26 16:24:22,dfecf112-51f3-4eb4-91f3-667270db2b1a,A
2019-10-26 16:26:17,dfecf112-51f3-4eb4-91f3-667270db2b1a,S
2019-10-26 16:37:35,dfecf112-51f3-4eb4-91f3-667270db2b1a,A
2019-10-26 16:39:25,dfecf112-51f3-4eb4-91f3-667270db2b1a,S
2019-10-26 16:40:06,dfecf112-51f3-4eb4-91f3-667270db2b1a,A
2019-10-26 16:49:37,dfecf112-51f3-4eb4-91f3-667270db2b1a,S
2019-10-26 16:52:52,dfecf112-51f3-4eb4-91f3-667270db2b1a,A
2019-10-26 16:53:28,dfecf112-51f3-4eb4-91f3-667270db2b1a,S
2019-10-26 16:53:59,dfecf112-51f3-4eb4-91f3-667270db2b1a,A
2019-10-26 16:59:03,dfecf112-51f3-4eb4-91f3-667270db2b1a,S
2019-10-26 16:59:28,dfecf112-51f3-4eb4-91f3-667270db2b1a,A
2019-10-26 16:59:52,dfecf112-51f3-4eb4-91f3-667270db2b1a,S
2019-10-26 17:00:36,dfecf112-51f3-4eb4-91f3-667270db2b1a,A
2019-10-26 17:02:28,dfecf112-51f3-4eb4-91f3-667270db2b1a,S
2019-10-26 17:03:20,dfecf112-51f3-4eb4-91f3-667270db2b1a,A
2019-10-26 17:13:54,dfecf112-51f3-4eb4-91f3-667270db2b1a,S
2019-10-26 17:15:06,dfecf112-51f3-4eb4-91f3-667270db2b1a,A
2019-10-26 17:21:58,dfecf112-51f3-4eb4-91f3-667270db2b1a,S
2019-10-26 17:30:38,dfecf112-51f3-4eb4-91f3-667270db2b1a,A
2019-10-26 17:33:46,dfecf112-51f3-4eb4-91f3-667270db2b1a,S
2019-10-26 17:37:21,dfecf112-51f3-4eb4-91f3-667270db2b1a,A
2019-10-26 17:37:37,dfecf112-51f3-4eb4-91f3-667270db2b1a,S
2019-10-26 17:44:42,dfecf112-51f3-4eb4-91f3-667270db2b1a,A
2019-10-26 17:44:51,dfecf112-51f3-4eb4-91f3-667270db2b1a,S
2019-10-26 17:45:16,dfecf112-51f3-4eb4-91f3-667270db2b1a,A
2019-10-26 17:45:53,dfecf112-51f3-4eb4-91f3-667270db2b1a,S
2019-10-26 17:47:58,dfecf112-51f3-4eb4-91f3-667270db2b1a,A
2019-10-26 17:48:01,dfecf112-51f3-4eb4-91f3-667270db2b1a,S
2019-10-26 17:59:47,dfecf112-51f3-4eb4-91f3-667270db2b1a,A
2019-10-26 18:03:11,dfecf112-51f3-4eb4-91f3-667270db2b1a,S
2019-10-26 18:05:03,dfecf112-51f3-4eb4-91f3-667270db2b1a,A
2019-10-26 16:08:09,ca67fb2a-13b5-406c-8eb5-c994a16028da,S
2019-10-26 16:24:16,ca67fb2a-13b5-406c-8eb5-c994a16028da,A
2019-10-26 16:25:28,ca67fb2a-13b5-406c-8eb5-c994a16028da,S
2019-10-26 16:30:17,ca67fb2a-13b5-406c-8eb5-c994a16028da,A
2019-10-26 16:31:23,ca67fb2a-13b5-406c-8eb5-c994a16028da,S
2019-10-26 16:34:10,ca67fb2a-13b5-406c-8eb5-c994a16028da,A
2019-10-26 16:39:22,ca67fb2a-13b5-406c-8eb5-c994a16028da,S
2019-10-26 16:41:32,ca67fb2a-13b5-406c-8eb5-c994a16028da,A
2019-10-26 16:45:01,ca67fb2a-13b5-406c-8eb5-c994a16028da,S
2019-10-26 16:50:37,ca67fb2a-13b5-406c-8eb5-c994a16028da,A
2019-10-26 17:01:07,ca67fb2a-13b5-406c-8eb5-c994a16028da,S
2019-10-26 17:06:48,ca67fb2a-13b5-406c-8eb5-c994a16028da,A
2019-10-26 17:08:46,ca67fb2a-13b5-406c-8eb5-c994a16028da,S
2019-10-26 17:10:47,ca67fb2a-13b5-406c-8eb5-c994a16028da,A
2019-10-26 17:19:04,ca67fb2a-13b5-406c-8eb5-c994a16028da,S
2019-10-26 17:21:14,ca67fb2a-13b5-406c-8eb5-c994a16028da,A
2019-10-26 17:26:08,ca67fb2a-13b5-406c-8eb5-c994a16028da,S
2019-10-26 17:29:07,ca67fb2a-13b5-406c-8eb5-c994a16028da,A
2019-10-26 17:30:15,ca67fb2a-13b5-406c-8eb5-c994a16028da,S
2019-10-26 17:35:10,ca67fb2a-13b5-406c-8eb5-c994a16028da,A
2019-10-26 17:38:02,ca67fb2a-13b5-406c-8eb5-c994a16028da,S
2019-10-26 17:41:52,ca67fb2a-13b5-406c-8eb5-c994a16028da,A
2019-10-26 17:44:12,ca67fb2a-13b5-406c-8eb5-c994a16028da,S
2019-10-26 17:47:58,ca67fb2a-13b5-406c-8eb5-c994a16028da,A
2019-10-26 17:53:23,ca67fb2a-13b5-406c-8eb5-c994a16028da,S
2019-10-26 17:54:30,ca67fb2a-13b5-406c-8eb5-c994a16028da,A
2019-10-26 18:00:15,ca67fb2a-13b5-406c-8eb5-c994a16028da,S
2019-10-26 18:01:12,ca67fb2a-13b5-406c-8eb5-c994a16028da,A
2019-10-26 18:02:42,ca67fb2a-13b5-406c-8eb5-c994a16028da,S
2019-10-26 18:03:14,ca67fb2a-13b5-406c-8eb5-c994a16028da,A
2019-10-26 18:06:33,ca67fb2a-13b5-406c-8eb5-c994a16028da,S
2019-10-26 16:35:30,911d5be1-f7f5-4a72-b8e0-df23618c7599,S
2019-10-26 16:37:25,911d5be1-f7f5-4a72-b8e0-df23618c7599,A
2019-10-26 16:40:34,911d5be1-f7f5-4a72-b8e0-df23618c7599,S
2019-10-26 16:41:03,911d5be1-f7f5-4a72-b8e0-df23618c7599,A
2019-10-26 16:44:12,911d5be1-f7f5-4a72-b8e0-df23618c7599,S
2019-10-26 16:46:12,911d5be1-f7f5-4a72-b8e0-df23618c7599,A
2019-10-26 16:50:28,911d5be1-f7f5-4a72-b8e0-df23618c7599,S
2019-10-26 16:51:25,911d5be1-f7f5-4a72-b8e0-df23618c7599,A
2019-10-26 16:52:15,911d5be1-f7f5-4a72-b8e0-df23618c7599,S
2019-10-26 16:59:42,911d5be1-f7f5-4a72-b8e0-df23618c7599,A
2019-10-26 17:01:54,911d5be1-f7f5-4a72-b8e0-df23618c7599,S
2019-10-26 17:05:26,911d5be1-f7f5-4a72-b8e0-df23618c7599,A
2019-10-26 17:13:43,911d5be1-f7f5-4a72-b8e0-df23618c7599,S
2019-10-26 17:21:07,911d5be1-f7f5-4a72-b8e0-df23618c7599,A
2019-10-26 17:23:09,911d5be1-f7f5-4a72-b8e0-df23618c7599,S
2019-10-26 17:25:54,911d5be1-f7f5-4a72-b8e0-df23618c7599,A
2019-10-26 17:26:59,911d5be1-f7f5-4a72-b8e0-df23618c7599,S
2019-10-26 17:28:17,911d5be1-f7f5-4a72-b8e0-df23618c7599,A
2019-10-26 17:29:49,911d5be1-f7f5-4a72-b8e0-df23618c7599,S
2019-10-26 17:37:56,911d5be1-f7f5-4a72-b8e0-df23618c7599,A
2019-10-26 17:38:07,911d5be1-f7f5-4a72-b8e0-df23618c7599,S
2019-10-26 17:38:18,911d5be1-f7f5-4a72-b8e0-df23618c7599,A
2019-10-26 17:42:09,911d5be1-f7f5-4a72-b8e0-df23618c7599,S
2019-10-26 17:44:33,911d5be1-f7f5-4a72-b8e0-df23618c7599,A
2019-10-26 17:45:17,911d5be1-f7f5-4a72-b8e0-df23618c7599,S
2019-10-26 17:46:35,911d5be1-f7f5-4a72-b8e0-df23618c7599,A
2019-10-26 17:47:29,911d5be1-f7f5-4a72-b8e0-df23618c7599,S
2019-10-26 17:55:51,911d5be1-f7f5-4a72-b8e0-df23618c7599,A
2019-10-26 17:57:05,911d5be1-f7f5-4a72-b8e0-df23618c7599,S
2019-10-26 18:06:03,911d5be1-f7f5-4a72-b8e0-df23618c7599,A
2019-10-26 15:59:15,6f017fa7-4df8-4b2d-a880-fc038182f686,A
2019-10-26 16:15:18,6f017fa7-4df8-4b2d-a880-fc038182f686,S
2019-10-26 16:18:31,6f017fa7-4df8-4b2d-a880-fc038182f686,A
2019-10-26 16:21:17,6f017fa7-4df8-4b2d-a880-fc038182f686,S
2019-10-26 16:21:48,6f017fa7-4df8-4b2d-a880-fc038182f686,A
2019-10-26 16:35:46,6f017fa7-4df8-4b2d-a880-fc038182f686,S
2019-10-26 16:39:15,6f017fa7-4df8-4b2d-a880-fc038182f686,A
2019-10-26 16:42:07,6f017fa7-4df8-4b2d-a880-fc038182f686,S
2019-10-26 16:46:07,6f017fa7-4df8-4b2d-a880-fc038182f686,A
2019-10-26 16:59:31,6f017fa7-4df8-4b2d-a880-fc038182f686,S
2019-10-26 16:59:41,6f017fa7-4df8-4b2d-a880-fc038182f686,A
2019-10-26 17:08:23,6f017fa7-4df8-4b2d-a880-fc038182f686,S
2019-10-26 17:12:40,6f017fa7-4df8-4b2d-a880-fc038182f686,A
2019-10-26 17:19:16,6f017fa7-4df8-4b2d-a880-fc038182f686,S
2019-10-26 17:21:48,6f017fa7-4df8-4b2d-a880-fc038182f686,A
2019-10-26 17:32:59,6f017fa7-4df8-4b2d-a880-fc038182f686,S
2019-10-26 17:34:54,6f017fa7-4df8-4b2d-a880-fc038182f686,A
2019-10-26 17:35:51,6f017fa7-4df8-4b2d-a880-fc038182f686,S
2019-10-26 17:38:44,6f017fa7-4df8-4b2d-a880-fc038182f686,A
2019-10-26 17:44:42,6f017fa7-4df8-4b2d-a880-fc038182f686,S
2019-10-26 17:53:31,6f017fa7-4df8-4b2d-a880-fc038182f686,A
2019-10-26 17:56:33,6f017fa7-4df8-4b2d-a880-fc038182f686,S
2019-10-26 17:58:24,6f017fa7-4df8-4b2d-a880-fc038182f686,A
2019-10-26 18:00:34,6f017fa7-4df8-4b2d-a880-fc038182f686,S
2019-10-26 16:17:12,ff5e9e7d-21c5-4634-91ac-6507d49f4165,A
2019-10-26 16:20:54,ff5e9e7d-21c5-4634-91ac-6507d49f4165,S
2019-10-26 16:24:13,ff5e9e7d-21c5-4634-91ac-6507d49f4165,A
2019-10-26 16:25:53,ff5e9e7d-21c5-4634-91ac-6507d49f4165,S
2019-10-26 16:41:23,ff5e9e7d-21c5-4634-91ac-6507d49f4165,A
2019-10-26 16:43:08,ff5e9e7d-21c5-4634-91ac-6507d49f4165,S
2019-10-26 16:43:30,ff5e9e7d-21c5-4634-91ac-6507d49f4165,A
2019-10-26 17:05:18,ff5e9e7d-21c5-4634-91ac-6507d49f4165,S
2019-10-26 17:12:29,ff5e9e7d-21c5-4634-91ac-6507d49f4165,A
2019-10-26 17:16:49,ff5e9e7d-21c5-4634-91ac-6507d49f4165,S
2019-10-26 17:17:30,ff5e9e7d-21c5-4634-91ac-6507d49f4165,A
2019-10-26 17:21:44,ff5e9e7d-21c5-4634-91ac-6507d49f4165,S
2019-10-26 17:23:35,ff5e9e7d-21c5-4634-91ac-6507d49f4165,A
2019-10-26 17:26:17,ff5e9e7d-21c5-4634-91ac-6507d49f4165,S
2019-10-26 17:35:31,ff5e9e7d-21c5-4634-91ac-6507d49f4165,A
2019-10-26 17:43:08,ff5e9e7d-21c5-4634-91ac-6507d49f4165,S
2019-10-26 17:48:04,ff5e9e7d-21c5-4634-91ac-6507d49f4165,A
2019-10-26 17:54:42,ff5e9e7d-21c5-4634-91ac-6507d49f4165,S
2019-10-26 16:11:58,b5f5846b-4d0b-45ff-b020-66e232c887b6,S
2019-10-26 16:23:54,b5f5846b-4d0b-45ff-b020-66e232c887b6,A
2019-10-26 16:24:12,b5f5846b-4d0b-45ff-b020-66e232c887b6,S
2019-10-26 16:39:36,b5f5846b-4d0b-45ff-b020-66e232c887b6,A
2019-10-26 16:42:29,b5f5846b-4d0b-45ff-b020-66e232c887b6,S
2019-10-26 16:44:29,b5f5846b-4d0b-45ff-b020-66e232c887b6,A
2019-10-26 16:52:35,b5f5846b-4d0b-45ff-b020-66e232c887b6,S
2019-10-26 16:53:31,b5f5846b-4d0b-45ff-b020-66e232c887b6,A
2019-10-26 16:55:44,b5f5846b-4d0b-45ff-b020-66e232c887b6,S
2019-10-26 17:10:09,b5f5846b-4d0b-45ff-b020-66e232c887b6,A
2019-10-26 17:15:27,b5f5846b-4d0b-45ff-b020-66e232c887b6,S
2019-10-26 17:17:00,b5f5846b-4d0b-45ff-b020-66e232c887b6,A
2019-10-26 17:17:48,b5f5846b-4d0b-45ff-b020-66e232c887b6,S
2019-10-26 17:19:45,b5f5846b-4d0b-45ff-b020-66e232c887b6,A
2019-10-26 17:23:02,b5f5846b-4d0b-45ff-b020-66e232c887b6,S
2019-10-26 17:23:09,b5f5846b-4d0b-45ff-b020-66e232c887b6,A
2019-10-26 16:45:38,c0d520c9-168a-4dc5-a33e-680b7a624e9a,S
2019-10-26 16:59:13,c0d520c9-168a-4dc5-a33e-680b7a624e9a,A
2019-10-26 17:04:06,c0d520c9-168a-4dc5-a33e-680b7a624e9a,S
2019-10-26 17:04:39,c0d520c9-168a-4dc5-a33e-680b7a624e9a,A
2019-10-26 17:08:31,c0d520c9-168a-4dc5-a33e-680b7a624e9a,S
2019-10-26 17:09:12,c0d520c9-168a-4dc5-a33e-680b7a624e9a,A
2019-10-26 17:17:51,c0d520c9-168a-4dc5-a33e-680b7a624e9a,S
2019-10-26 17:18:54,c0d520c9-168a-4dc5-a33e-680b7a624e9a,A
2019-10-26 17:21:10,c0d520c9-168a-4dc5-a33e-680b7a624e9a,S
2019-10-26 17:23:20,c0d520c9-168a-4dc5-a33e-680b7a624e9a,A
2019-10-26 17:25:41,c0d520c9-168a-4dc5-a33e-680b7a624e9a,S
2019-10-26 17:29:33,c0d520c9-168a-4dc5-a33e-680b7a624e9a,A
2019-10-26 17:30:45,c0d520c9-168a-4dc5-a33e-680b7a624e9a,S
2019-10-26 17:31:35,c0d520c9-168a-4dc5-a33e-680b7a624e9a,A
2019-10-26 17:33:44,c0d520c9-168a-4dc5-a33e-680b7a624e9a,S
2019-10-26 17:34:07,c0d520c9-168a-4dc5-a33e-680b7a624e9a,A
2019-10-26 17:34:23,c0d520c9-168a-4dc5-a33e-680b7a624e9a,S
2019-10-26 17:38:55,c0d520c9-168a-4dc5-a33e-680b7a624e9a,A
2019-10-26 17:39:45,c0d520c9-168a-4dc5-a33e-680b7a624e9a,S
2019-10-26 17:49:17,c0d520c9-168a-4dc5-a33e-680b7a624e9a,A
2019-10-26 17:55:20,c0d520c9-168a-4dc5-a33e-680b7a624e9a,S
2019-10-26 18:03:18,c0d520c9-168a-4dc5-a33e-680b7a624e9a,A
2019-10-26 18:06:48,c0d520c9-168a-4dc5-a33e-680b7a624e9a,S
2019-10-26 18:07:23,c0d520c9-168a-4dc5-a33e-680b7a624e9a,A
2019-10-26 16:47:24,6ab27231-3037-4e94-a883-542a550184a8,S
2019-10-26 16:48:38,6ab27231-3037-4e94-a883-542a550184a8,A
2019-10-26 16:54:23,6ab27231-3037-4e94-a883-542a550184a8,S
2019-10-26 17:07:43,6ab27231-3037-4e94-a883-542a550184a8,A
2019-10-26 17:15:28,6ab27231-3037-4e94-a883-542a550184a8,S
2019-10-26 17:17:59,6ab27231-3037-4e94-a883-542a550184a8,A
2019-10-26 17:34:21,6ab27231-3037-4e94-a883-542a550184a8,S
2019-10-26 17:40:28,6ab27231-3037-4e94-a883-542a550184a8,A
2019-10-26 17:55:17,6ab27231-3037-4e94-a883-542a550184a8,S
2019-10-26 18:00:31,6ab27231-3037-4e94-a883-542a550184a8,A
2019-10-26 18:03:05,6ab27231-3037-4e94-a883-542a550184a8,S
2019-10-26 18:06:30,6ab27231-3037-4e94-a883-542a550184a8,A
2019-10-26 16:08:37,66199030-4edf-468d-810a-0ab0274b651e,S
2019-10-26 16:12:44,66199030-4edf-468d-810a-0ab0274b651e,A
2019-10-26 16:23:07,66199030-4edf-468d-810a-0ab0274b651e,S
2019-10-26 16:24:41,66199030-4edf-468d-810a-0ab0274b651e,A
2019-10-26 16:32:12,66199030-4edf-468d-810a-0ab0274b651e,S
2019-10-26 16:32:27,66199030-4edf-468d-810a-0ab0274b651e,A
2019-10-26 16:33:52,66199030-4edf-468d-810a-0ab0274b651e,S
2019-10-26 16:51:09,66199030-4edf-468d-810a-0ab0274b651e,A
2019-10-26 16:56:55,66199030-4edf-468d-810a-0ab0274b651e,S
2019-10-26 17:00:29,66199030-4edf-468d-810a-0ab0274b651e,A
2019-10-26 17:03:41,66199030-4edf-468d-810a-0ab0274b651e,S
2019-10-26 17:03:58,66199030-4edf-468d-810a-0ab0274b651e,A
2019-10-26 17:22:33,66199030-4edf-468d-810a-0ab0274b651e,S
2019-10-26 17:22:59,66199030-4edf-468d-810a-0ab0274b651e,A
2019-10-26 17:25:49,66199030-4edf-468d-810a-0ab0274b651e,S
2019-10-26 17:39:22,66199030-4edf-468d-810a-0ab0274b651e,A
2019-10-26 17:42:40,66199030-4edf-468d-810a-0ab0274b651e,S
2019-10-26 17:45:08,66199030-4edf-468d-810a-0ab0274b651e,A
2019-10-26 17:45:45,66199030-4edf-468d-810a-0ab0274b651e,S
2019-10-26 17:50:58,66199030-4edf-468d-810a-0ab0274b651e,A
2019-10-26 17:55:39,66199030-4edf-468d-810a-0ab0274b651e,S
2019-10-26 17:59:35,66199030-4edf-468d-810a-0ab0274b651e,A
2019-10-26 18:01:28,66199030-4edf-468d-810a-0ab0274b651e,S
2019-10-26 18:02:26,66199030-4edf-468d-810a-0ab0274b651e,A
2019-10-26 16:28:16,9000f929-6b70-432c-9b4e-6d5d69c0b460,S
2019-10-26 16:32:26,9000f929-6b70-432c-9b4e-6d5d69c0b460,A
2019-10-26 16:39:54,9000f929-6b70-432c-9b4e-6d5d69c0b460,S
2019-10-26 16:44:06,9000f929-6b70-432c-9b4e-6d5d69c0b460,A
2019-10-26 16:44:20,9000f929-6b70-432c-9b4e-6d5d69c0b460,S
2019-10-26 16:53:49,9000f929-6b70-432c-9b4e-6d5d69c0b460,A
2019-10-26 16:56:49,9000f929-6b70-432c-9b4e-6d5d69c0b460,S
2019-10-26 16:58:17,9000f929-6b70-432c-9b4e-6d5d69c0b460,A
2019-10-26 17:00:00,9000f929-6b70-432c-9b4e-6d5d69c0b460,S
2019-10-26 17:09:41,9000f929-6b70-432c-9b4e-6d5d69c0b460,A
2019-10-26 17:14:31,9000f929-6b70-432c-9b4e-6d5d69c0b460,S
2019-10-26 17:16:14,9000f929-6b70-432c-9b4e-6d5d69c0b460,A
2019-10-26 17:17:10,9000f929-6b70-432c-9b4e-6d5d69c0b460,S
2019-10-26 17:22:38,9000f929-6b70-432c-9b4e-6d5d69c0b460,A
2019-10-26 17:27:13,9000f929-6b70-432c-9b4e-6d5d69c0b460,S
2019-10-26 17:31:54,9000f929-6b70-432c-9b4e-6d5d69c0b460,A
2019-10-26 17:39:55,9000f929-6b70-432c-9b4e-6d5d69c0b460,S
2019-10-26 17:45:06,9000f929-6b70-432c-9b4e-6d5d69c0b460,A
2019-10-26 17:48:26,9000f929-6b70-432c-9b4e-6d5d69c0b460,S
2019-10-26 18:01:12,9000f929-6b70-432c-9b4e-6d5d69c0b460,A
2019-10-26 16:07:36,ce3b7928-b6d8-4000-bf92-cf57f7eb3c6a,S
2019-10-26 16:12:33,ce3b7928-b6d8-4000-bf92-cf57f7eb3c6a,A
2019-10-26 16:12:55,ce3b7928-b6d8-4000-bf92-cf57f7eb3c6a,S
2019-10-26 16:17:40,ce3b7928-b6d8-4000-bf92-cf57f7eb3c6a,A
2019-10-26 16:22:37,ce3b7928-b6d8-4000-bf92-cf57f7eb3c6a,S
2019-10-26 16:24:39,ce3b7928-b6d8-4000-bf92-cf57f7eb3c6a,A
2019-10-26 16:34:44,ce3b7928-b6d8-4000-bf92-cf57f7eb3c6a,S
2019-10-26 16:37:25,ce3b7928-b6d8-4000-bf92-cf57f7eb3c6a,A
2019-10-26 16:38:20,ce3b7928-b6d8-4000-bf92-cf57f7eb3c6a,S
2019-10-26 16:46:21,ce3b7928-b6d8-4000-bf92-cf57f7eb3c6a,A
2019-10-26 16:55:10,ce3b7928-b6d8-4000-bf92-cf57f7eb3c6a,S
2019-10-26 16:57:20,ce3b7928-b6d8-4000-bf92-cf57f7eb3c6a,A
2019-10-26 16:57:29,ce3b7928-b6d8-4000-bf92-cf57f7eb3c6a,S
2019-10-26 17:16:46,ce3b7928-b6d8-4000-bf92-cf57f7eb3c6a,A
2019-10-26 17:18:59,ce3b7928-b6d8-4000-bf92-cf57f7eb3c6a,S
2019-10-26 17:36:34,ce3b7928-b6d8-4000-bf92-cf57f7eb3c6a,A
2019-10-26 17:46:45,ce3b7928-b6d8-4000-bf92-cf57f7eb3c6a,S
2019-10-26 18:02:36,ce3b7928-b6d8-4000-bf92-cf57f7eb3c6a,A
2019-10-26 18:03:49,ce3b7928-b6d8-4000-bf92-cf57f7eb3c6a,S
2019-10-26 16:29:46,51021963-9843-4544-bf9c-d9fd3d32ecd2,S
2019-10-26 16:30:28,51021963-9843-4544-bf9c-d9fd3d32ecd2,A
2019-10-26 16:46:09,51021963-9843-4544-bf9c-d9fd3d32ecd2,S
2019-10-26 16:53:23,51021963-9843-4544-bf9c-d9fd3d32ecd2,A
2019-10-26 16:53:45,51021963-9843-4544-bf9c-d9fd3d32ecd2,S
2019-10-26 16:07:29,50cdc34b-cdcf-4bed-817c-71e2d96fedec,S
2019-10-26 16:10:57,50cdc34b-cdcf-4bed-817c-71e2d96fedec,A
2019-10-26 16:16:59,50cdc34b-cdcf-4bed-817c-71e2d96fedec,S
2019-10-26 16:26:56,50cdc34b-cdcf-4bed-817c-71e2d96fedec,A
2019-10-26 16:47:04,50cdc34b-cdcf-4bed-817c-71e2d96fedec,S
2019-10-26 16:52:59,50cdc34b-cdcf-4bed-817c-71e2d96fedec,A
2019-10-26 17:03:49,50cdc34b-cdcf-4bed-817c-71e2d96fedec,S
2019-10-26 17:09:14,50cdc34b-cdcf-4bed-817c-71e2d96fedec,A
2019-10-26 17:13:31,50cdc34b-cdcf-4bed-817c-71e2d96fedec,S
2019-10-26 17:19:04,50cdc34b-cdcf-4bed-817c-71e2d96fedec,A
2019-10-26 17:19:16,50cdc34b-cdcf-4bed-817c-71e2d96fedec,S
2019-10-26 17:21:00,50cdc34b-cdcf-4bed-817c-71e2d96fedec,A
2019-10-26 17:26:54,50cdc34b-cdcf-4bed-817c-71e2d96fedec,S
2019-10-26 17:28:37,50cdc34b-cdcf-4bed-817c-71e2d96fedec,A
2019-10-26 17:33:08,50cdc34b-cdcf-4bed-817c-71e2d96fedec,S
2019-10-26 17:36:43,50cdc34b-cdcf-4bed-817c-71e2d96fedec,A
2019-10-26 17:42:01,50cdc34b-cdcf-4bed-817c-71e2d96fedec,S
2019-10-26 17:49:45,50cdc34b-cdcf-4bed-817c-71e2d96fedec,A
2019-10-26 16:26:08,3afcd5be-9931-4acb-a28d-8ef481d08beb,S
2019-10-26 16:30:26,3afcd5be-9931-4acb-a28d-8ef481d08beb,A
2019-10-26 16:44:09,3afcd5be-9931-4acb-a28d-8ef481d08beb,S
2019-10-26 16:44:32,3afcd5be-9931-4acb-a28d-8ef481d08beb,A
2019-10-26 16:49:09,3afcd5be-9931-4acb-a28d-8ef481d08beb,S
2019-10-26 16:52:27,3afcd5be-9931-4acb-a28d-8ef481d08beb,A
2019-10-26 16:55:33,3afcd5be-9931-4acb-a28d-8ef481d08beb,S
2019-10-26 17:00:06,3afcd5be-9931-4acb-a28d-8ef481d08beb,A
2019-10-26 17:03:19,3afcd5be-9931-4acb-a28d-8ef481d08beb,S
2019-10-26 17:06:56,3afcd5be-9931-4acb-a28d-8ef481d08beb,A
2019-10-26 17:22:47,3afcd5be-9931-4acb-a28d-8ef481d08beb,S
2019-10-26 17:27:04,3afcd5be-9931-4acb-a28d-8ef481d08beb,A
2019-10-26 17:27:25,3afcd5be-9931-4acb-a28d-8ef481d08beb,S
2019-10-26 17:32:32,3afcd5be-9931-4acb-a28d-8ef481d08beb,A
2019-10-26 17:39:50,3afcd5be-9931-4acb-a28d-8ef481d08beb,S
2019-10-26 17:52:58,3afcd5be-9931-4acb-a28d-8ef481d08beb,A
2019-10-26 17:53:59,3afcd5be-9931-4acb-a28d-8ef481d08beb,S
2019-10-26 16:29:54,7dffae0d-3681-4769-aebb-51ff216eac8b,A
2019-10-26 16:41:25,7dffae0d-3681-4769-aebb-51ff216eac8b,S
2019-10-26 16:51:21,7dffae0d-3681-4769-aebb-51ff216eac8b,A
2019-10-26 16:56:49,7dffae0d-3681-4769-aebb-51ff216eac8b,S
2019-10-26 16:57:31,7dffae0d-3681-4769-aebb-51ff216eac8b,A
2019-10-26 16:58:28,7dffae0d-3681-4769-aebb-51ff216eac8b,S
2019-10-26 17:00:26,7dffae0d-3681-4769-aebb-51ff216eac8b,A
2019-10-26 17:01:46,7dffae0d-3681-4769-aebb-51ff216eac8b,S
2019-10-26 17:09:06,7dffae0d-3681-4769-aebb-51ff216eac8b,A
2019-10-26 17:10:59,7dffae0d-3681-4769-aebb-51ff216eac8b,S
2019-10-26 17:12:42,7dffae0d-3681-4769-aebb-51ff216eac8b,A
2019-10-26 17:28:07,7dffae0d-3681-4769-aebb-51ff216eac8b,S
2019-10-26 17:34:00,7dffae0d-3681-4769-aebb-51ff216eac8b,A
2019-10-26 17:38:33,7dffae0d-3681-4769-aebb-51ff216eac8b,S
2019-10-26 17:39:37,7dffae0d-3681-4769-aebb-51ff216eac8b,A
2019-10-26 17:41:57,7dffae0d-3681-4769-aebb-51ff216eac8b,S
2019-10-26 17:45:36,7dffae0d-3681-4769-aebb-51ff216eac8b,A
2019-10-26 17:47:37,7dffae0d-3681-4769-aebb-51ff216eac8b,S
2019-10-26 17:47:45,7dffae0d-3681-4769-aebb-51ff216eac8b,A
2019-10-26 17:56:51,7dffae0d-3681-4769-aebb-51ff216eac8b,S
2019-10-26 18:03:10,7dffae0d-3681-4769-aebb-51ff216eac8b,A
2019-10-26 18:04:16,7dffae0d-3681-4769-aebb-51ff216eac8b,S
2019-10-26 18:05:09,7dffae0d-3681-4769-aebb-51ff216eac8b,A
2019-10-26 18:08:08,7dffae0d-3681-4769-aebb-51ff216eac8b,S
2019-10-26 16:39:06,b7ceaf43-6710-43d4-9d1e-a3891983a3b0,A
2019-10-26 16:53:49,b7ceaf43-6710-43d4-9d1e-a3891983a3b0,S
2019-10-26 16:55:55,b7ceaf43-6710-43d4-9d1e-a3891983a3b0,A
2019-10-26 17:05:01,b7ceaf43-6710-43d4-9d1e-a3891983a3b0,S
2019-10-26 17:16:33,b7ceaf43-6710-43d4-9d1e-a3891983a3b0,A
2019-10-26 17:22:46,b7ceaf43-6710-43d4-9d1e-a3891983a3b0,S
2019-10-26 17:29:27,b7ceaf43-6710-43d4-9d1e-a3891983a3b0,A
2019-10-26 17:29:50,b7ceaf43-6710-43d4-9d1e-a3891983a3b0,S
2019-10-26 17:30:57,b7ceaf43-6710-43d4-9d1e-a3891983a3b0,A
2019-10-26 17:35:16,b7ceaf43-6710-43d4-9d1e-a3891983a3b0,S
2019-10-26 17:35:48,b7ceaf43-6710-43d4-9d1e-a3891983a3b0,A
2019-10-26 17:42:27,b7ceaf43-6710-43d4-9d1e-a3891983a3b0,S
2019-10-26 17:45:10,b7ceaf43-6710-43d4-9d1e-a3891983a3b0,A
2019-10-26 17:46:57,b7ceaf43-6710-43d4-9d1e-a3891983a3b0,S
2019-10-26 17:50:44,b7ceaf43-6710-43d4-9d1e-a3891983a3b0,A
2019-10-26 17:57:00,b7ceaf43-6710-43d4-9d1e-a3891983a3b0,S
2019-10-26 17:57:13,b7ceaf43-6710-43d4-9d1e-a3891983a3b0,A
2019-10-26 17:59:49,b7ceaf43-6710-43d4-9d1e-a3891983a3b0,S
2019-10-26 16:38:12,3b08363b-fef8-49f4-8e9f-7c157b28521a,S
2019-10-26 16:40:07,3b08363b-fef8-49f4-8e9f-7c157b28521a,A
2019-10-26 16:40:36,3b08363b-fef8-49f4-8e9f-7c157b28521a,S
2019-10-26 16:48:54,3b08363b-fef8-49f4-8e9f-7c157b28521a,A
2019-10-26 16:51:46,3b08363b-fef8-49f4-8e9f-7c157b28521a,S
2019-10-26 16:58:07,3b08363b-fef8-49f4-8e9f-7c157b28521a,A
2019-10-26 17:02:43,3b08363b-fef8-49f4-8e9f-7c157b28521a,S
2019-10-26 17:03:57,3b08363b-fef8-49f4-8e9f-7c157b28521a,A
2019-10-26 17:12:40,3b08363b-fef8-49f4-8e9f-7c157b28521a,S
2019-10-26 17:14:15,3b08363b-fef8-49f4-8e9f-7c157b28521a,A
2019-10-26 17:22:16,3b08363b-fef8-49f4-8e9f-7c157b28521a,S
2019-10-26 17:22:29,3b08363b-fef8-49f4-8e9f-7c157b28521a,A
2019-10-26 17:29:04,3b08363b-fef8-49f4-8e9f-7c157b28521a,S
2019-10-26 17:33:58,3b08363b-fef8-49f4-8e9f-7c157b28521a,A
2019-10-26 17:34:53,3b08363b-fef8-49f4-8e9f-7c157b28521a,S
2019-10-26 17:36:50,3b08363b-fef8-49f4-8e9f-7c157b28521a,A
2019-10-26 17:36:51,3b08363b-fef8-49f4-8e9f-7c157b28521a,S
2019-10-26 17:38:12,3b08363b-fef8-49f4-8e9f-7c157b28521a,A
2019-10-26 17:40:58,3b08363b-fef8-49f4-8e9f-7c157b28521a,S
2019-10-26 17:48:24,3b08363b-fef8-49f4-8e9f-7c157b28521a,A
2019-10-26 17:49:57,3b08363b-fef8-49f4-8e9f-7c157b28521a,S
2019-10-26 17:50:33,3b08363b-fef8-49f4-8e9f-7c157b28521a,A
2019-10-26 17:57:35,3b08363b-fef8-49f4-8e9f-7c157b28521a,S
2019-10-26 18:01:04,3b08363b-fef8-49f4-8e9f-7c157b28521a,A
2019-10-26 18:09:11,3b08363b-fef8-49f4-8e9f-7c157b28521a,S
2019-10-26 16:01:42,8e8e4110-670d-4fde-8143-d8b03a0d303a,A
2019-10-26 16:05:10,8e8e4110-670d-4fde-8143-d8b03a0d303a,S
2019-10-26 16:13:43,8e8e4110-670d-4fde-8143-d8b03a0d303a,A
2019-10-26 16:16:46,8e8e4110-670d-4fde-8143-d8b03a0d303a,S
2019-10-26 16:17:03,8e8e4110-670d-4fde-8143-d8b03a0d303a,A
2019-10-26 16:19:31,8e8e4110-670d-4fde-8143-d8b03a0d303a,S
2019-10-26 16:24:51,8e8e4110-670d-4fde-8143-d8b03a0d303a,A
2019-10-26 16:28:47,8e8e4110-670d-4fde-8143-d8b03a0d303a,S
2019-10-26 16:31:31,8e8e4110-670d-4fde-8143-d8b03a0d303a,A
2019-10-26 16:42:19,8e8e4110-670d-4fde-8143-d8b03a0d303a,S
2019-10-26 16:47:57,8e8e4110-670d-4fde-8143-d8b03a0d303a,A
2019-10-26 17:10:31,8e8e4110-670d-4fde-8143-d8b03a0d303a,S
2019-10-26 17:34:52,8e8e4110-670d-4fde-8143-d8b03a0d303a,A
2019-10-26 17:41:26,8e8e4110-670d-4fde-8143-d8b03a0d303a,S
2019-10-26 17:44:52,8e8e4110-670d-4fde-8143-d8b03a0d303a,A
2019-10-26 17:47:47,8e8e4110-670d-4fde-8143-d8b03a0d303a,S
2019-10-26 17:52:31,8e8e4110-670d-4fde-8143-d8b03a0d303a,A
2019-10-26 18:05:36,8e8e4110-670d-4fde-8143-d8b03a0d303a,S
2019-10-26 18:07:08,8e8e4110-670d-4fde-8143-d8b03a0d303a,A
2019-10-26 16:26:05,fc60410d-4379-4cf2-8de6-bbfa7033a604,A
2019-10-26 16:44:58,fc60410d-4379-4cf2-8de6-bbfa7033a604,S
2019-10-26 16:45:19,fc60410d-4379-4cf2-8de6-bbfa7033a604,A
2019-10-26 16:48:04,fc60410d-4379-4cf2-8de6-bbfa7033a604,S
2019-10-26 16:52:04,fc60410d-4379-4cf2-8de6-bbfa7033a604,A
2019-10-26 16:52:33,fc60410d-4379-4cf2-8de6-bbfa7033a604,S
2019-10-26 16:55:35,fc60410d-4379-4cf2-8de6-bbfa7033a604,A
2019-10-26 16:57:13,fc60410d-4379-4cf2-8de6-bbfa7033a604,S
2019-10-26 17:11:43,fc60410d-4379-4cf2-8de6-bbfa7033a604,A
2019-10-26 17:13:19,fc60410d-4379-4cf2-8de6-bbfa7033a604,S
2019-10-26 17:13:25,fc60410d-4379-4cf2-8de6-bbfa7033a604,A
2019-10-26 17:15:45,fc60410d-4379-4cf2-8de6-bbfa7033a604,S
2019-10-26 17:15:52,fc60410d-4379-4cf2-8de6-bbfa7033a604,A
2019-10-26 17:17:55,fc60410d-4379-4cf2-8de6-bbfa7033a604,S
2019-10-26 17:21:56,fc60410d-4379-4cf2-8de6-bbfa7033a604,A
2019-10-26 17:32:39,fc60410d-4379-4cf2-8de6-bbfa7033a604,S
2019-10-26 17:38:22,fc60410d-4379-4cf2-8de6-bbfa7033a604,A
2019-10-26 17:40:37,fc60410d-4379-4cf2-8de6-bbfa7033a604,S
2019-10-26 17:44:02,fc60410d-4379-4cf2-8de6-bbfa7033a604,A
2019-10-26 17:47:35,fc60410d-4379-4cf2-8de6-bbfa7033a604,S
2019-10-26 18:05:21,fc60410d-4379-4cf2-8de6-bbfa7033a604,A
2019-10-26 16:12:02,447a076c-eaeb-4bda-9fae-fa30a8ca1044,A
2019-10-26 16:14:52,447a076c-eaeb-4bda-9fae-fa30a8ca1044,S
2019-10-26 16:19:59,447a076c-eaeb-4bda-9fae-fa30a8ca1044,A
2019-10-26 16:35:27,447a076c-eaeb-4bda-9fae-fa30a8ca1044,S
2019-10-26 16:44:29,447a076c-eaeb-4bda-9fae-fa30a8ca1044,A
2019-10-26 16:54:13,447a076c-eaeb-4bda-9fae-fa30a8ca1044,S
2019-10-26 17:02:43,447a076c-eaeb-4bda-9fae-fa30a8ca1044,A
2019-10-26 17:03:29,447a076c-eaeb-4bda-9fae-fa30a8ca1044,S
2019-10-26 17:03:48,447a076c-eaeb-4bda-9fae-fa30a8ca1044,A
2019-10-26 17:12:26,447a076c-eaeb-4bda-9fae-fa30a8ca1044,S
2019-10-26 17:15:25,447a076c-eaeb-4bda-9fae-fa30a8ca1044,A
2019-10-26 17:15:28,447a076c-eaeb-4bda-9fae-fa30a8ca1044,S
2019-10-26 17:16:39,447a076c-eaeb-4bda-9fae-fa30a8ca1044,A
2019-10-26 17:18:29,447a076c-eaeb-4bda-9fae-fa30a8ca1044,S
2019-10-26 17:20:20,447a076c-eaeb-4bda-9fae-fa30a8ca1044,A
2019-10-26 17:21:19,447a076c-eaeb-4bda-9fae-fa30a8ca1044,S
2019-10-26 17:23:02,447a076c-eaeb-4bda-9fae-fa30a8ca1044,A
2019-10-26 17:32:17,447a076c-eaeb-4bda-9fae-fa30a8ca1044,S
2019-10-26 17:34:24,447a076c-eaeb-4bda-9fae-fa30a8ca1044,A
2019-10-26 17:35:23,447a076c-eaeb-4bda-9fae-fa30a8ca1044,S
2019-10-26 17:37:50,447a076c-eaeb-4bda-9fae-fa30a8ca1044,A
2019-10-26 17:46:35,447a076c-eaeb-4bda-9fae-fa30a8ca1044,S
2019-10-26 17:48:52,447a076c-eaeb-4bda-9fae-fa30a8ca1044,A
2019-10-26 17:53:45,447a076c-eaeb-4bda-9fae-fa30a8ca1044,S
2019-10-26 17:53:52,447a076c-eaeb-4bda-9fae-fa30a8ca1044,A
2019-10-26 17:54:31,447a076c-eaeb-4bda-9fae-fa30a8ca1044,S
2019-10-26 17:58:00,447a076c-eaeb-4bda-9fae-fa30a8ca1044,A
2019-10-26 17:59:26,447a076c-eaeb-4bda-9fae-fa30a8ca1044,S
2019-10-26 18:05:06,447a076c-eaeb-4bda-9fae-fa30a8ca1044,A
2019-10-26 18:05:34,447a076c-eaeb-4bda-9fae-fa30a8ca1044,S
