date,actor,success,from,to
2019-10-26 08:37:29,9a946097-bbc3-44d8-af98-a990be619308,1,fff1decc-805e-4b27-a73f-a084a12ac5df,213f2504-ff77-4ecc-96f5-1cd1e91f3d40
2019-10-26 08:38:49,c6d0427c-af53-4ceb-b31a-ee1a1080a561,1,fff1decc-805e-4b27-a73f-a084a12ac5df,cd494ef8-ae9d-4ec8-aa06-14f8b35a5c1e
2019-10-26 08:48:32,fc92d900-2269-48a8-80a6-e763afebec85,1,fff1decc-805e-4b27-a73f-a084a12ac5df,aaf302b3-2e98-47b5-9c2c-3abb53c2d0db
2019-10-26 08:53:15,e21a85bd-c692-48e7-9d1f-31330170750c,1,fff1decc-805e-4b27-a73f-a084a12ac5df,cd494ef8-ae9d-4ec8-aa06-14f8b35a5c1e
2019-10-26 08:59:09,c6d0427c-af53-4ceb-b31a-ee1a1080a561,1,fff1decc-805e-4b27-a73f-a084a12ac5df,00edc77d-ab3e-4d9e-a0d6-52ae29e49afc
2019-10-26 08:59:42,3358c5e9-1538-44bb-8003-1389d7838e07,1,fff1decc-805e-4b27-a73f-a084a12ac5df,00edc77d-ab3e-4d9e-a0d6-52ae29e49afc
2019-10-26 09:17:27,62ec346b-c724-4cb8-b503-85c5838edbfd,1,b7ddc5c6-b21f-40a7-a2b0-98b5e2fa3767,ec82316d-696b-4e69-a612-8dfe36ef0259
2019-10-26 09:21:47,965d63b8-0fa0-427a-b21c-893161b70b9a,1,b7ddc5c6-b21f-40a7-a2b0-98b5e2fa3767,d23f36b7-ac5a-44c1-ab62-dfe11365769e
2019-10-26 09:21:48,62ec346b-c724-4cb8-b503-85c5838edbfd,1,b7ddc5c6-b21f-40a7-a2b0-98b5e2fa3767,213f2504-ff77-4ecc-96f5-1cd1e91f3d40
2019-10-26 09:22:32,50c301cc-7175-4ef0-8de7-44a18c10b36d,1,b7ddc5c6-b21f-40a7-a2b0-98b5e2fa3767,d23f36b7-ac5a-44c1-ab62-dfe11365769e
2019-10-26 09:29:45,e6984b63-1749-41d0-b260-59f8b7269e10,1,b7ddc5c6-b21f-40a7-a2b0-98b5e2fa3767,aaf302b3-2e98-47b5-9c2c-3abb53c2d0db
2019-10-26 09:31:04,0f612a71-73a7-47b5-917d-05cbda5b5947,1,b7ddc5c6-b21f-40a7-a2b0-98b5e2fa3767,0e1f1277-f7a8-4c55-bcab-5411ae77d64d
2019-10-26 09:48:09,0f612a71-73a7-47b5-917d-05cbda5b5947,1,b7ddc5c6-b21f-40a7-a2b0-98b5e2fa3767,0e1f1277-f7a8-4c55-bcab-5411ae77d64d
2019-10-26 09:56:42,0f612a71-73a7-47b5-917d-05cbda5b5947,1,b7ddc5c6-b21f-40a7-a2b0-98b5e2fa3767,00edc77d-ab3e-4d9e-a0d6-52ae29e49afc
2019-10-26 10:05:02,62ec346b-c724-4cb8-b503-85c5838edbfd,1,b7ddc5c6-b21f-40a7-a2b0-98b5e2fa3767,ec82316d-696b-4e69-a612-8dfe36ef0259
2019-10-26 10:13:09,e6984b63-1749-41d0-b260-59f8b7269e10,1,b7ddc5c6-b21f-40a7-a2b0-98b5e2fa3767,00edc77d-ab3e-4d9e-a0d6-52ae29e49afc
2019-10-26 08:49:02,9a946097-bbc3-44d8-af98-a990be619308,1,213f2504-ff77-4ecc-96f5-1cd1e91f3d40,aaf302b3-2e98-47b5-9c2c-3abb53c2d0db
2019-10-26 08:51:39,39ecaebc-ae46-4613-ad54-63a2db1b7862,1,213f2504-ff77-4ecc-96f5-1cd1e91f3d40,00edc77d-ab3e-4d9e-a0d6-52ae29e49afc
2019-10-26 09:02:54,42e1d549-78f5-4543-b2d9-058b551f1b95,1,213f2504-ff77-4ecc-96f5-1cd1e91f3d40,ec82316d-696b-4e69-a612-8dfe36ef0259
2019-10-26 09:10:26,9a946097-bbc3-44d8-af98-a990be619308,1,213f2504-ff77-4ecc-96f5-1cd1e91f3d40,cd494ef8-ae9d-4ec8-aa06-14f8b35a5c1e
2019-10-26 09:14:26,62ec346b-c724-4cb8-b503-85c5838edbfd,1,213f2504-ff77-4ecc-96f5-1cd1e91f3d40,b7ddc5c6-b21f-40a7-a2b0-98b5e2fa3767
2019-10-26 09:37:05,9a946097-bbc3-44d8-af98-a990be619308,1,213f2504-ff77-4ecc-96f5-1cd1e91f3d40,cd494ef8-ae9d-4ec8-aa06-14f8b35a5c1e
2019-10-26 09:45:55,62ec346b-c724-4cb8-b503-85c5838edbfd,1,213f2504-ff77-4ecc-96f5-1cd1e91f3d40,d23f36b7-ac5a-44c1-ab62-dfe11365769e
2019-10-26 09:58:46,42e1d549-78f5-4543-b2d9-058b551f1b95,1,213f2504-ff77-4ecc-96f5-1cd1e91f3d40,cd494ef8-ae9d-4ec8-aa06-14f8b35a5c1e
2019-10-26 10:09:49,42e1d549-78f5-4543-b2d9-058b551f1b95,1,213f2504-ff77-4ecc-96f5-1cd1e91f3d40,00edc77d-ab3e-4d9e-a0d6-52ae29e49afc
2019-10-26 08:44:39,5ccd7ee0-b03f-46eb-aab3-99174bc56476,1,58a3a551-b123-4901-9063-a4b6cbeda735,cd494ef8-ae9d-4ec8-aa06-14f8b35a5c1e
2019-10-26 09:00:42,c49be232-8270-4fe0-b8e0-ba8aba006703,1,58a3a551-b123-4901-9063-a4b6cbeda735,aaf302b3-2e98-47b5-9c2c-3abb53c2d0db
2019-10-26 08:39:18,f6e35ab6-59dc-4958-a366-eeb0d6c88ba7,1,a65f3c1b-b018-4b0c-8a6b-64e152e34059,ec82316d-696b-4e69-a612-8dfe36ef0259
2019-10-26 08:40:29,e9437972-c537-4b9e-b80b-6dd21ced9c29,1,a65f3c1b-b018-4b0c-8a6b-64e152e34059,57b2957f-9dfc-44cd-b6c0-84299ec898a7
2019-10-26 08:46:20,42e1d549-78f5-4543-b2d9-058b551f1b95,1,a65f3c1b-b018-4b0c-8a6b-64e152e34059,00edc77d-ab3e-4d9e-a0d6-52ae29e49afc
2019-10-26 09:04:53,d111db2a-ad39-4387-bdcd-3e0bb53c6afe,1,a65f3c1b-b018-4b0c-8a6b-64e152e34059,aaf302b3-2e98-47b5-9c2c-3abb53c2d0db
2019-10-26 09:05:45,e6984b63-1749-41d0-b260-59f8b7269e10,1,a65f3c1b-b018-4b0c-8a6b-64e152e34059,00edc77d-ab3e-4d9e-a0d6-52ae29e49afc
2019-10-26 09:05:54,965d63b8-0fa0-427a-b21c-893161b70b9a,1,a65f3c1b-b018-4b0c-8a6b-64e152e34059,b7ddc5c6-b21f-40a7-a2b0-98b5e2fa3767
2019-10-26 09:14:35,450f1128-23c0-4d37-a04b-5d52d6d358e1,1,a65f3c1b-b018-4b0c-8a6b-64e152e34059,3a63796a-cf77-45cd-bbb4-28068d92d656
2019-10-26 08:48:59,965d63b8-0fa0-427a-b21c-893161b70b9a,1,aaf302b3-2e98-47b5-9c2c-3abb53c2d0db,ac9dc19b-86cd-44e0-b8d6-2bc8de912800
2019-10-26 08:50:34,fc92d900-2269-48a8-80a6-e763afebec85,1,aaf302b3-2e98-47b5-9c2c-3abb53c2d0db,ac9dc19b-86cd-44e0-b8d6-2bc8de912800
2019-10-26 09:01:02,7b1a50fc-7e1a-4b3f-9f61-debb28a855ae,1,aaf302b3-2e98-47b5-9c2c-3abb53c2d0db,f942d3c1-e5a3-4832-8860-693adee77e38
2019-10-26 09:01:02,c49be232-8270-4fe0-b8e0-ba8aba006703,1,aaf302b3-2e98-47b5-9c2c-3abb53c2d0db,213f2504-ff77-4ecc-96f5-1cd1e91f3d40
2019-10-26 09:01:20,9a946097-bbc3-44d8-af98-a990be619308,1,aaf302b3-2e98-47b5-9c2c-3abb53c2d0db,d23f36b7-ac5a-44c1-ab62-dfe11365769e
2019-10-26 09:05:43,9a946097-bbc3-44d8-af98-a990be619308,1,aaf302b3-2e98-47b5-9c2c-3abb53c2d0db,213f2504-ff77-4ecc-96f5-1cd1e91f3d40
2019-10-26 09:09:04,d111db2a-ad39-4387-bdcd-3e0bb53c6afe,1,aaf302b3-2e98-47b5-9c2c-3abb53c2d0db,3a63796a-cf77-45cd-bbb4-28068d92d656
2019-10-26 09:40:11,7b1a50fc-7e1a-4b3f-9f61-debb28a855ae,1,aaf302b3-2e98-47b5-9c2c-3abb53c2d0db,0e1f1277-f7a8-4c55-bcab-5411ae77d64d
2019-10-26 09:48:41,e6984b63-1749-41d0-b260-59f8b7269e10,1,aaf302b3-2e98-47b5-9c2c-3abb53c2d0db,0e1f1277-f7a8-4c55-bcab-5411ae77d64d
2019-10-26 10:00:14,e6984b63-1749-41d0-b260-59f8b7269e10,1,aaf302b3-2e98-47b5-9c2c-3abb53c2d0db,00edc77d-ab3e-4d9e-a0d6-52ae29e49afc
2019-10-26 08:46:31,c6d0427c-af53-4ceb-b31a-ee1a1080a561,1,cd494ef8-ae9d-4ec8-aa06-14f8b35a5c1e,fff1decc-805e-4b27-a73f-a084a12ac5df
2019-10-26 08:58:32,3358c5e9-1538-44bb-8003-1389d7838e07,1,cd494ef8-ae9d-4ec8-aa06-14f8b35a5c1e,fff1decc-805e-4b27-a73f-a084a12ac5df
2019-10-26 09:04:42,e21a85bd-c692-48e7-9d1f-31330170750c,1,cd494ef8-ae9d-4ec8-aa06-14f8b35a5c1e,fff1decc-805e-4b27-a73f-a084a12ac5df
2019-10-26 09:12:15,62ec346b-c724-4cb8-b503-85c5838edbfd,1,cd494ef8-ae9d-4ec8-aa06-14f8b35a5c1e,213f2504-ff77-4ecc-96f5-1cd1e91f3d40
2019-10-26 09:14:37,9a946097-bbc3-44d8-af98-a990be619308,1,cd494ef8-ae9d-4ec8-aa06-14f8b35a5c1e,213f2504-ff77-4ecc-96f5-1cd1e91f3d40
2019-10-26 09:44:23,42e1d549-78f5-4543-b2d9-058b551f1b95,1,cd494ef8-ae9d-4ec8-aa06-14f8b35a5c1e,ec82316d-696b-4e69-a612-8dfe36ef0259
2019-10-26 09:52:31,0f612a71-73a7-47b5-917d-05cbda5b5947,1,cd494ef8-ae9d-4ec8-aa06-14f8b35a5c1e,b7ddc5c6-b21f-40a7-a2b0-98b5e2fa3767
2019-10-26 10:00:57,42e1d549-78f5-4543-b2d9-058b551f1b95,1,cd494ef8-ae9d-4ec8-aa06-14f8b35a5c1e,213f2504-ff77-4ecc-96f5-1cd1e91f3d40
2019-10-26 10:01:18,9a946097-bbc3-44d8-af98-a990be619308,1,cd494ef8-ae9d-4ec8-aa06-14f8b35a5c1e,aaf302b3-2e98-47b5-9c2c-3abb53c2d0db
2019-10-26 08:40:49,50c301cc-7175-4ef0-8de7-44a18c10b36d,1,3a63796a-cf77-45cd-bbb4-28068d92d656,ac9dc19b-86cd-44e0-b8d6-2bc8de912800
2019-10-26 08:54:51,51a5672d-50a5-4a25-a614-5696b0c50182,1,3a63796a-cf77-45cd-bbb4-28068d92d656,f942d3c1-e5a3-4832-8860-693adee77e38
2019-10-26 09:05:03,51a5672d-50a5-4a25-a614-5696b0c50182,1,3a63796a-cf77-45cd-bbb4-28068d92d656,f942d3c1-e5a3-4832-8860-693adee77e38
2019-10-26 09:13:08,50c301cc-7175-4ef0-8de7-44a18c10b36d,1,3a63796a-cf77-45cd-bbb4-28068d92d656,ac9dc19b-86cd-44e0-b8d6-2bc8de912800
2019-10-26 09:13:35,51a5672d-50a5-4a25-a614-5696b0c50182,1,3a63796a-cf77-45cd-bbb4-28068d92d656,ac9dc19b-86cd-44e0-b8d6-2bc8de912800
2019-10-26 09:21:27,51a5672d-50a5-4a25-a614-5696b0c50182,1,3a63796a-cf77-45cd-bbb4-28068d92d656,58a3a551-b123-4901-9063-a4b6cbeda735
2019-10-26 09:58:03,50c301cc-7175-4ef0-8de7-44a18c10b36d,1,3a63796a-cf77-45cd-bbb4-28068d92d656,00edc77d-ab3e-4d9e-a0d6-52ae29e49afc
2019-10-26 08:46:19,51a5672d-50a5-4a25-a614-5696b0c50182,1,d23f36b7-ac5a-44c1-ab62-dfe11365769e,3a63796a-cf77-45cd-bbb4-28068d92d656
2019-10-26 08:51:00,5cd12bbe-7dc5-44c4-a8b8-b02555d6c273,1,d23f36b7-ac5a-44c1-ab62-dfe11365769e,ec82316d-696b-4e69-a612-8dfe36ef0259
2019-10-26 09:03:32,9a946097-bbc3-44d8-af98-a990be619308,1,d23f36b7-ac5a-44c1-ab62-dfe11365769e,aaf302b3-2e98-47b5-9c2c-3abb53c2d0db
2019-10-26 09:12:02,a2485582-bd5f-456e-9af0-97ea0b747316,1,d23f36b7-ac5a-44c1-ab62-dfe11365769e,ec82316d-696b-4e69-a612-8dfe36ef0259
2019-10-26 09:52:52,50c301cc-7175-4ef0-8de7-44a18c10b36d,1,d23f36b7-ac5a-44c1-ab62-dfe11365769e,3a63796a-cf77-45cd-bbb4-28068d92d656
2019-10-26 09:58:45,965d63b8-0fa0-427a-b21c-893161b70b9a,1,d23f36b7-ac5a-44c1-ab62-dfe11365769e,b7ddc5c6-b21f-40a7-a2b0-98b5e2fa3767
2019-10-26 10:00:41,62ec346b-c724-4cb8-b503-85c5838edbfd,1,d23f36b7-ac5a-44c1-ab62-dfe11365769e,b7ddc5c6-b21f-40a7-a2b0-98b5e2fa3767
2019-10-26 10:02:25,50c301cc-7175-4ef0-8de7-44a18c10b36d,1,d23f36b7-ac5a-44c1-ab62-dfe11365769e,ac9dc19b-86cd-44e0-b8d6-2bc8de912800
2019-10-26 08:54:10,5cd12bbe-7dc5-44c4-a8b8-b02555d6c273,1,ec82316d-696b-4e69-a612-8dfe36ef0259,57b2957f-9dfc-44cd-b6c0-84299ec898a7
2019-10-26 09:14:52,a2485582-bd5f-456e-9af0-97ea0b747316,1,ec82316d-696b-4e69-a612-8dfe36ef0259,f942d3c1-e5a3-4832-8860-693adee77e38
2019-10-26 09:19:38,62ec346b-c724-4cb8-b503-85c5838edbfd,1,ec82316d-696b-4e69-a612-8dfe36ef0259,b7ddc5c6-b21f-40a7-a2b0-98b5e2fa3767
2019-10-26 09:30:20,42e1d549-78f5-4543-b2d9-058b551f1b95,1,ec82316d-696b-4e69-a612-8dfe36ef0259,cd494ef8-ae9d-4ec8-aa06-14f8b35a5c1e
2019-10-26 09:48:34,42e1d549-78f5-4543-b2d9-058b551f1b95,1,ec82316d-696b-4e69-a612-8dfe36ef0259,213f2504-ff77-4ecc-96f5-1cd1e91f3d40
2019-10-26 08:50:19,7b1a50fc-7e1a-4b3f-9f61-debb28a855ae,1,00edc77d-ab3e-4d9e-a0d6-52ae29e49afc,aaf302b3-2e98-47b5-9c2c-3abb53c2d0db
2019-10-26 08:58:03,42e1d549-78f5-4543-b2d9-058b551f1b95,1,00edc77d-ab3e-4d9e-a0d6-52ae29e49afc,213f2504-ff77-4ecc-96f5-1cd1e91f3d40
2019-10-26 08:59:29,c6d0427c-af53-4ceb-b31a-ee1a1080a561,1,00edc77d-ab3e-4d9e-a0d6-52ae29e49afc,fff1decc-805e-4b27-a73f-a084a12ac5df
2019-10-26 09:00:12,3358c5e9-1538-44bb-8003-1389d7838e07,1,00edc77d-ab3e-4d9e-a0d6-52ae29e49afc,a65f3c1b-b018-4b0c-8a6b-64e152e34059
2019-10-26 09:09:47,e6984b63-1749-41d0-b260-59f8b7269e10,1,00edc77d-ab3e-4d9e-a0d6-52ae29e49afc,57b2957f-9dfc-44cd-b6c0-84299ec898a7
2019-10-26 10:00:15,50c301cc-7175-4ef0-8de7-44a18c10b36d,1,00edc77d-ab3e-4d9e-a0d6-52ae29e49afc,d23f36b7-ac5a-44c1-ab62-dfe11365769e
2019-10-26 10:02:25,e6984b63-1749-41d0-b260-59f8b7269e10,1,00edc77d-ab3e-4d9e-a0d6-52ae29e49afc,b7ddc5c6-b21f-40a7-a2b0-98b5e2fa3767
2019-10-26 10:11:56,0f612a71-73a7-47b5-917d-05cbda5b5947,1,00edc77d-ab3e-4d9e-a0d6-52ae29e49afc,cd494ef8-ae9d-4ec8-aa06-14f8b35a5c1e
2019-10-26 09:10:34,7b1a50fc-7e1a-4b3f-9f61-debb28a855ae,1,0e1f1277-f7a8-4c55-bcab-5411ae77d64d,f942d3c1-e5a3-4832-8860-693adee77e38
2019-10-26 09:25:24,5cd12bbe-7dc5-44c4-a8b8-b02555d6c273,1,0e1f1277-f7a8-4c55-bcab-5411ae77d64d,f942d3c1-e5a3-4832-8860-693adee77e38
2019-10-26 09:35:56,0f612a71-73a7-47b5-917d-05cbda5b5947,1,0e1f1277-f7a8-4c55-bcab-5411ae77d64d,b7ddc5c6-b21f-40a7-a2b0-98b5e2fa3767
2019-10-26 09:46:44,7b1a50fc-7e1a-4b3f-9f61-debb28a855ae,1,0e1f1277-f7a8-4c55-bcab-5411ae77d64d,aaf302b3-2e98-47b5-9c2c-3abb53c2d0db
2019-10-26 09:50:21,0f612a71-73a7-47b5-917d-05cbda5b5947,1,0e1f1277-f7a8-4c55-bcab-5411ae77d64d,cd494ef8-ae9d-4ec8-aa06-14f8b35a5c1e
2019-10-26 09:58:03,e6984b63-1749-41d0-b260-59f8b7269e10,1,0e1f1277-f7a8-4c55-bcab-5411ae77d64d,aaf302b3-2e98-47b5-9c2c-3abb53c2d0db
2019-10-26 08:42:49,5ecdb6ed-002d-4371-98cb-5c1cc36030cf,1,f942d3c1-e5a3-4832-8860-693adee77e38,0e1f1277-f7a8-4c55-bcab-5411ae77d64d
2019-10-26 09:02:53,51a5672d-50a5-4a25-a614-5696b0c50182,1,f942d3c1-e5a3-4832-8860-693adee77e38,3a63796a-cf77-45cd-bbb4-28068d92d656
2019-10-26 09:05:44,0f612a71-73a7-47b5-917d-05cbda5b5947,1,f942d3c1-e5a3-4832-8860-693adee77e38,b7ddc5c6-b21f-40a7-a2b0-98b5e2fa3767
2019-10-26 09:07:14,51a5672d-50a5-4a25-a614-5696b0c50182,1,f942d3c1-e5a3-4832-8860-693adee77e38,ac9dc19b-86cd-44e0-b8d6-2bc8de912800
2019-10-26 09:09:54,7b1a50fc-7e1a-4b3f-9f61-debb28a855ae,1,f942d3c1-e5a3-4832-8860-693adee77e38,0e1f1277-f7a8-4c55-bcab-5411ae77d64d
2019-10-26 09:15:25,7b1a50fc-7e1a-4b3f-9f61-debb28a855ae,1,f942d3c1-e5a3-4832-8860-693adee77e38,aaf302b3-2e98-47b5-9c2c-3abb53c2d0db
2019-10-26 09:32:15,5cd12bbe-7dc5-44c4-a8b8-b02555d6c273,1,f942d3c1-e5a3-4832-8860-693adee77e38,58a3a551-b123-4901-9063-a4b6cbeda735
2019-10-26 08:51:10,965d63b8-0fa0-427a-b21c-893161b70b9a,1,ac9dc19b-86cd-44e0-b8d6-2bc8de912800,a65f3c1b-b018-4b0c-8a6b-64e152e34059
2019-10-26 08:53:02,8e98abd8-ccef-4e13-885b-3e8aaeea10a7,1,ac9dc19b-86cd-44e0-b8d6-2bc8de912800,3a63796a-cf77-45cd-bbb4-28068d92d656
2019-10-26 08:58:12,50c301cc-7175-4ef0-8de7-44a18c10b36d,1,ac9dc19b-86cd-44e0-b8d6-2bc8de912800,3a63796a-cf77-45cd-bbb4-28068d92d656
2019-10-26 09:09:25,51a5672d-50a5-4a25-a614-5696b0c50182,1,ac9dc19b-86cd-44e0-b8d6-2bc8de912800,3a63796a-cf77-45cd-bbb4-28068d92d656
2019-10-26 09:15:46,51a5672d-50a5-4a25-a614-5696b0c50182,1,ac9dc19b-86cd-44e0-b8d6-2bc8de912800,3a63796a-cf77-45cd-bbb4-28068d92d656
2019-10-26 09:20:21,50c301cc-7175-4ef0-8de7-44a18c10b36d,1,ac9dc19b-86cd-44e0-b8d6-2bc8de912800,b7ddc5c6-b21f-40a7-a2b0-98b5e2fa3767
2019-10-26 08:32:42,040c2a2f-9502-407c-bc2c-d1c2b805b58e,1,8aa407ea-a609-4358-bf3a-0326b602428a,f0cf8177-3684-4b37-acca-e96f425090a8
2019-10-26 08:32:42,9a946097-bbc3-44d8-af98-a990be619308,1,8aa407ea-a609-4358-bf3a-0326b602428a,fff1decc-805e-4b27-a73f-a084a12ac5df
2019-10-26 08:32:42,c80753c6-4c39-4aee-b74d-832ab4e197bd,1,8aa407ea-a609-4358-bf3a-0326b602428a,fff1decc-805e-4b27-a73f-a084a12ac5df
2019-10-26 08:33:46,e21a85bd-c692-48e7-9d1f-31330170750c,1,8aa407ea-a609-4358-bf3a-0326b602428a,fff1decc-805e-4b27-a73f-a084a12ac5df
2019-10-26 08:33:46,4b95fcae-ff80-48ef-b7f3-1637889ad7d2,1,8aa407ea-a609-4358-bf3a-0326b602428a,ae767122-96da-41ba-b9fb-21ad4d4370c9
2019-10-26 08:33:46,0500aad2-0c8b-485b-b484-53cd47edb5bf,1,8aa407ea-a609-4358-bf3a-0326b602428a,fff1decc-805e-4b27-a73f-a084a12ac5df
2019-10-26 08:34:49,42e1d549-78f5-4543-b2d9-058b551f1b95,1,8aa407ea-a609-4358-bf3a-0326b602428a,a65f3c1b-b018-4b0c-8a6b-64e152e34059
2019-10-26 08:34:49,d70a05b6-8d13-4d27-b051-a96f86409394,1,8aa407ea-a609-4358-bf3a-0326b602428a,b7ddc5c6-b21f-40a7-a2b0-98b5e2fa3767
2019-10-26 08:34:49,d6f5b6e2-5743-4002-91a4-9260c9ac36f0,1,8aa407ea-a609-4358-bf3a-0326b602428a,c1456af5-1ee4-45b6-8fe6-5ec26c8bd2c2
2019-10-26 08:35:53,f22526f1-1e19-47a1-a833-c8c9a0a0e5e7,1,8aa407ea-a609-4358-bf3a-0326b602428a,0961cff8-9979-4f6e-bc78-3cd578d75c96
2019-10-26 08:35:53,4d77ded2-8c71-4cb1-94cb-55a9b74a0500,1,8aa407ea-a609-4358-bf3a-0326b602428a,fff1decc-805e-4b27-a73f-a084a12ac5df
2019-10-26 08:35:53,c6d0427c-af53-4ceb-b31a-ee1a1080a561,1,8aa407ea-a609-4358-bf3a-0326b602428a,fff1decc-805e-4b27-a73f-a084a12ac5df
2019-10-26 08:36:57,3d576511-c99b-43e8-bd7c-86411015ecb6,1,8aa407ea-a609-4358-bf3a-0326b602428a,b7ddc5c6-b21f-40a7-a2b0-98b5e2fa3767
2019-10-26 08:36:57,ef1c58b1-df39-4b6a-a1fe-ee3deefc2ce4,1,8aa407ea-a609-4358-bf3a-0326b602428a,cc489c49-e4d4-487a-b613-e532f8e7f23c
2019-10-26 08:36:57,e9437972-c537-4b9e-b80b-6dd21ced9c29,1,8aa407ea-a609-4358-bf3a-0326b602428a,a65f3c1b-b018-4b0c-8a6b-64e152e34059
2019-10-26 08:38:01,c6aed407-736c-47b0-af7b-be38f20c42aa,1,8aa407ea-a609-4358-bf3a-0326b602428a,ffe5f3af-7752-42d9-92cd-c81ae3fdabc1
2019-10-26 08:38:01,f6e35ab6-59dc-4958-a366-eeb0d6c88ba7,1,8aa407ea-a609-4358-bf3a-0326b602428a,a65f3c1b-b018-4b0c-8a6b-64e152e34059
2019-10-26 08:38:01,7fd7d194-e2ec-4582-8fcb-07260e536dd3,1,8aa407ea-a609-4358-bf3a-0326b602428a,a65f3c1b-b018-4b0c-8a6b-64e152e34059
2019-10-26 08:39:04,dc0d35bc-bce4-4c12-a320-1f2284c51568,1,8aa407ea-a609-4358-bf3a-0326b602428a,b7ddc5c6-b21f-40a7-a2b0-98b5e2fa3767
2019-10-26 08:39:04,8e98abd8-ccef-4e13-885b-3e8aaeea10a7,1,8aa407ea-a609-4358-bf3a-0326b602428a,ac9dc19b-86cd-44e0-b8d6-2bc8de912800
2019-10-26 08:39:04,60543ea6-e8ee-43f4-8869-e67fd6754637,1,8aa407ea-a609-4358-bf3a-0326b602428a,156135a5-6a96-48f1-960b-84ced09acb04
2019-10-26 08:40:08,8b13dcda-361f-4a85-9b0a-1c37d45c46bd,1,8aa407ea-a609-4358-bf3a-0326b602428a,46639f87-0f89-4aa0-9154-5447353f163b
2019-10-26 08:40:08,b5572d8b-c34b-425f-b7c9-2a8c4605f886,1,8aa407ea-a609-4358-bf3a-0326b602428a,3a63796a-cf77-45cd-bbb4-28068d92d656
2019-10-26 08:40:08,50c301cc-7175-4ef0-8de7-44a18c10b36d,1,8aa407ea-a609-4358-bf3a-0326b602428a,3a63796a-cf77-45cd-bbb4-28068d92d656
2019-10-26 08:41:12,90f4299b-8ade-41b9-ab87-1bf253aef8a5,1,8aa407ea-a609-4358-bf3a-0326b602428a,b10c1e49-4182-46f8-93b9-c1fd2e5b50a6
2019-10-26 08:41:12,ca6aa0b5-1c0f-4836-a28e-c48712f3647e,1,8aa407ea-a609-4358-bf3a-0326b602428a,57b2957f-9dfc-44cd-b6c0-84299ec898a7
2019-10-26 08:41:12,f4b1cc24-2768-44dc-bb60-d6517ce03db0,1,8aa407ea-a609-4358-bf3a-0326b602428a,57b2957f-9dfc-44cd-b6c0-84299ec898a7
2019-10-26 08:42:15,c75e65a9-d06b-4d13-b4fc-c993591ecbae,1,8aa407ea-a609-4358-bf3a-0326b602428a,e787a37e-9214-49f8-95a2-6e8ba6af50ce
2019-10-26 08:42:15,063714ad-c8ab-4249-9c59-30e6b4655940,1,8aa407ea-a609-4358-bf3a-0326b602428a,f942d3c1-e5a3-4832-8860-693adee77e38
2019-10-26 08:42:15,5ecdb6ed-002d-4371-98cb-5c1cc36030cf,1,8aa407ea-a609-4358-bf3a-0326b602428a,f942d3c1-e5a3-4832-8860-693adee77e38
2019-10-26 08:43:19,ae6edfa6-f647-4c8b-9c08-945d5d341717,1,8aa407ea-a609-4358-bf3a-0326b602428a,0176cf6b-20c3-452b-b010-e3d98fa33525
2019-10-26 08:43:19,5ccd7ee0-b03f-46eb-aab3-99174bc56476,1,8aa407ea-a609-4358-bf3a-0326b602428a,58a3a551-b123-4901-9063-a4b6cbeda735
2019-10-26 08:43:19,c5bca695-3bd9-41c5-990e-7c637af44271,1,8aa407ea-a609-4358-bf3a-0326b602428a,58a3a551-b123-4901-9063-a4b6cbeda735
2019-10-26 08:44:23,51a5672d-50a5-4a25-a614-5696b0c50182,1,8aa407ea-a609-4358-bf3a-0326b602428a,d23f36b7-ac5a-44c1-ab62-dfe11365769e
2019-10-26 08:44:23,0084e408-6b8a-49c9-9f20-233ba3e0a40e,1,8aa407ea-a609-4358-bf3a-0326b602428a,58a3a551-b123-4901-9063-a4b6cbeda735
2019-10-26 08:44:23,cc784adb-2562-411e-a012-c3a6863dd56b,1,8aa407ea-a609-4358-bf3a-0326b602428a,6df63fed-3e0e-4776-b269-7b5059fe8e43
2019-10-26 08:45:26,43b180ce-49f7-4b33-b9e0-8af1105121de,1,8aa407ea-a609-4358-bf3a-0326b602428a,00edc77d-ab3e-4d9e-a0d6-52ae29e49afc
2019-10-26 08:45:26,7b1a50fc-7e1a-4b3f-9f61-debb28a855ae,1,8aa407ea-a609-4358-bf3a-0326b602428a,00edc77d-ab3e-4d9e-a0d6-52ae29e49afc
2019-10-26 08:45:26,bbe47207-8a11-4afd-a66d-1fd29355bb8b,1,8aa407ea-a609-4358-bf3a-0326b602428a,8d8f0321-03ec-453a-b394-8b5848389615
2019-10-26 08:46:30,fc92d900-2269-48a8-80a6-e763afebec85,1,8aa407ea-a609-4358-bf3a-0326b602428a,fff1decc-805e-4b27-a73f-a084a12ac5df
2019-10-26 08:46:30,e9fb23f0-892a-4a4e-914e-e9bc4c237251,1,8aa407ea-a609-4358-bf3a-0326b602428a,fff1decc-805e-4b27-a73f-a084a12ac5df
2019-10-26 08:46:30,f0706ad7-4011-4af7-8169-f6bc8e5a8c76,1,8aa407ea-a609-4358-bf3a-0326b602428a,60d76c62-6f0b-4f9e-bfb7-c52cb31d9eaf
2019-10-26 08:47:34,f4b36e4c-8177-4a30-93fa-313e09ab6e11,1,8aa407ea-a609-4358-bf3a-0326b602428a,3f500855-d50f-4391-b363-f3d813e6c8fd
2019-10-26 08:47:34,5cd12bbe-7dc5-44c4-a8b8-b02555d6c273,1,8aa407ea-a609-4358-bf3a-0326b602428a,d23f36b7-ac5a-44c1-ab62-dfe11365769e
2019-10-26 08:47:34,3df13b42-8cc7-4af3-8e0a-26bf8672f460,1,8aa407ea-a609-4358-bf3a-0326b602428a,d23f36b7-ac5a-44c1-ab62-dfe11365769e
2019-10-26 08:48:38,3ba9f48f-f04c-4ca9-bf08-e0c0cd9f3692,1,8aa407ea-a609-4358-bf3a-0326b602428a,aaf302b3-2e98-47b5-9c2c-3abb53c2d0db
2019-10-26 08:48:38,a0f7f3c4-cb7c-4768-adc4-32f07d6b847a,1,8aa407ea-a609-4358-bf3a-0326b602428a,60e2fd9c-9240-42ef-8a70-16f77a3d7772
2019-10-26 08:48:38,965d63b8-0fa0-427a-b21c-893161b70b9a,1,8aa407ea-a609-4358-bf3a-0326b602428a,aaf302b3-2e98-47b5-9c2c-3abb53c2d0db
2019-10-26 08:49:42,ea875a59-1807-4ec1-8659-d0f546da3853,1,8aa407ea-a609-4358-bf3a-0326b602428a,213f2504-ff77-4ecc-96f5-1cd1e91f3d40
2019-10-26 08:49:42,8e8f71cf-7a23-4a1a-b97b-63d368e4b3ac,1,8aa407ea-a609-4358-bf3a-0326b602428a,8c719591-f451-4af7-8347-aaeafbab9fa2
2019-10-26 08:49:42,39ecaebc-ae46-4613-ad54-63a2db1b7862,1,8aa407ea-a609-4358-bf3a-0326b602428a,213f2504-ff77-4ecc-96f5-1cd1e91f3d40
2019-10-26 08:50:45,0a71ea34-d84a-4702-b071-b7e4cdfe9bff,1,8aa407ea-a609-4358-bf3a-0326b602428a,d08c6b39-f28d-48dd-a65b-605bf99423a0
2019-10-26 08:50:45,7b791315-8a59-4e8b-8f55-abe7647f4a58,1,8aa407ea-a609-4358-bf3a-0326b602428a,cd494ef8-ae9d-4ec8-aa06-14f8b35a5c1e
2019-10-26 08:50:45,62ec346b-c724-4cb8-b503-85c5838edbfd,1,8aa407ea-a609-4358-bf3a-0326b602428a,cd494ef8-ae9d-4ec8-aa06-14f8b35a5c1e
2019-10-26 08:51:49,5071ed19-b292-4525-8155-4454a00906d1,1,8aa407ea-a609-4358-bf3a-0326b602428a,67611144-deaf-43e6-b493-9c55357559b6
2019-10-26 08:51:49,3358c5e9-1538-44bb-8003-1389d7838e07,1,8aa407ea-a609-4358-bf3a-0326b602428a,cd494ef8-ae9d-4ec8-aa06-14f8b35a5c1e
2019-10-26 08:51:49,9832586c-4db3-42c6-9140-09b9fcb7cfac,1,8aa407ea-a609-4358-bf3a-0326b602428a,3a63796a-cf77-45cd-bbb4-28068d92d656
2019-10-26 08:52:53,f69fd7c7-f9f3-4a26-9c03-5074134535f6,1,8aa407ea-a609-4358-bf3a-0326b602428a,a2672112-b759-472e-83c5-b01dd8404c92
2019-10-26 08:52:53,0f612a71-73a7-47b5-917d-05cbda5b5947,1,8aa407ea-a609-4358-bf3a-0326b602428a,f942d3c1-e5a3-4832-8860-693adee77e38
2019-10-26 08:52:53,b221de5c-8f48-4b6b-aab6-457bc281c228,1,8aa407ea-a609-4358-bf3a-0326b602428a,f942d3c1-e5a3-4832-8860-693adee77e38
2019-10-26 08:53:57,f8c450fa-4003-4841-9493-b4b862e7de10,1,8aa407ea-a609-4358-bf3a-0326b602428a,58a3a551-b123-4901-9063-a4b6cbeda735
2019-10-26 08:53:57,f1c98630-e81c-45dd-bf33-e27c479daccf,1,8aa407ea-a609-4358-bf3a-0326b602428a,b3179f48-b3e0-40e4-9202-381ad0d282ab
2019-10-26 08:53:57,c49be232-8270-4fe0-b8e0-ba8aba006703,1,8aa407ea-a609-4358-bf3a-0326b602428a,58a3a551-b123-4901-9063-a4b6cbeda735
2019-10-26 08:55:01,a2485582-bd5f-456e-9af0-97ea0b747316,1,8aa407ea-a609-4358-bf3a-0326b602428a,d23f36b7-ac5a-44c1-ab62-dfe11365769e
2019-10-26 08:55:01,96aeb84f-7611-4ea8-ac6e-bc736c132fec,1,8aa407ea-a609-4358-bf3a-0326b602428a,e3e8f2a5-3496-4716-a2b2-e4406199c273
2019-10-26 08:55:01,f179f762-74dc-4439-a7c0-8c8808e0e3c1,1,8aa407ea-a609-4358-bf3a-0326b602428a,d23f36b7-ac5a-44c1-ab62-dfe11365769e
2019-10-26 08:56:04,5d80976e-ee1f-4771-aa36-8e6b11f593f4,1,8aa407ea-a609-4358-bf3a-0326b602428a,a65f3c1b-b018-4b0c-8a6b-64e152e34059
2019-10-26 08:56:04,450f1128-23c0-4d37-a04b-5d52d6d358e1,1,8aa407ea-a609-4358-bf3a-0326b602428a,a65f3c1b-b018-4b0c-8a6b-64e152e34059
2019-10-26 08:56:04,8578e521-132c-4494-b783-ea66f3b9d9fe,1,8aa407ea-a609-4358-bf3a-0326b602428a,60259afe-4f03-4118-abd2-a2411dfbcc07
2019-10-26 08:57:08,deaf9521-f190-486b-9df6-9e1c08780ddb,1,8aa407ea-a609-4358-bf3a-0326b602428a,3a63796a-cf77-45cd-bbb4-28068d92d656
2019-10-26 08:57:08,eadd9e19-51ce-4e8a-90cf-e85b877186f0,1,8aa407ea-a609-4358-bf3a-0326b602428a,9af803d2-d164-42bc-9164-7247329a444e
2019-10-26 08:57:08,e6984b63-1749-41d0-b260-59f8b7269e10,1,8aa407ea-a609-4358-bf3a-0326b602428a,a65f3c1b-b018-4b0c-8a6b-64e152e34059
2019-10-26 08:58:12,d111db2a-ad39-4387-bdcd-3e0bb53c6afe,1,8aa407ea-a609-4358-bf3a-0326b602428a,a65f3c1b-b018-4b0c-8a6b-64e152e34059
2019-10-26 08:58:12,baff1ade-aaad-474d-90a0-ebc1eacbb36c,1,8aa407ea-a609-4358-bf3a-0326b602428a,382e0682-d6b6-43fd-a831-373ade831998
2019-10-26 08:58:12,254244ba-b313-4311-b133-de94da2f2d9e,1,8aa407ea-a609-4358-bf3a-0326b602428a,a65f3c1b-b018-4b0c-8a6b-64e152e34059
2019-10-26 08:51:02,ca6aa0b5-1c0f-4836-a28e-c48712f3647e,1,57b2957f-9dfc-44cd-b6c0-84299ec898a7,a65f3c1b-b018-4b0c-8a6b-64e152e34059
2019-10-26 08:56:20,5cd12bbe-7dc5-44c4-a8b8-b02555d6c273,1,57b2957f-9dfc-44cd-b6c0-84299ec898a7,0e1f1277-f7a8-4c55-bcab-5411ae77d64d
2019-10-26 09:13:58,e6984b63-1749-41d0-b260-59f8b7269e10,1,57b2957f-9dfc-44cd-b6c0-84299ec898a7,b7ddc5c6-b21f-40a7-a2b0-98b5e2fa3767
