app_number,app_id,trigger,burn,sink,deploy_date,token_interval
1,f3a936ce-dc0d-4843-91f3-c6823d01ca78,040c2a2f-9502-407c-bc2c-d1c2b805b58e,9a946097-bbc3-44d8-af98-a990be619308,c80753c6-4c39-4aee-b74d-832ab4e197bd,2019-10-26 08:32:38,1.000000
2,259bd530-b092-477d-9799-2febd8fbfa2a,4b95fcae-ff80-48ef-b7f3-1637889ad7d2,e21a85bd-c692-48e7-9d1f-31330170750c,0500aad2-0c8b-485b-b484-53cd47edb5bf,2019-10-26 08:33:42,1.000000
3,0f5fea8a-1a34-497c-a6c6-83b852aff846,d6f5b6e2-5743-4002-91a4-9260c9ac36f0,42e1d549-78f5-4543-b2d9-058b551f1b95,d70a05b6-8d13-4d27-b051-a96f86409394,2019-10-26 08:34:46,1.000000
4,2d42b6c6-fdc5-446c-995d-b288c56a118f,f22526f1-1e19-47a1-a833-c8c9a0a0e5e7,c6d0427c-af53-4ceb-b31a-ee1a1080a561,4d77ded2-8c71-4cb1-94cb-55a9b74a0500,2019-10-26 08:35:50,0.200000
5,5f85cb61-6170-458c-81df-950a006623a8,ef1c58b1-df39-4b6a-a1fe-ee3deefc2ce4,e9437972-c537-4b9e-b80b-6dd21ced9c29,3d576511-c99b-43e8-bd7c-86411015ecb6,2019-10-26 08:36:53,0.200000
6,0e196ca3-143c-4761-a10f-8eb712d17766,c6aed407-736c-47b0-af7b-be38f20c42aa,f6e35ab6-59dc-4958-a366-eeb0d6c88ba7,7fd7d194-e2ec-4582-8fcb-07260e536dd3,2019-10-26 08:37:57,0.200000
7,bdd5133e-0c1c-4825-b596-a8a6cf4dbc7c,60543ea6-e8ee-43f4-8869-e67fd6754637,8e98abd8-ccef-4e13-885b-3e8aaeea10a7,dc0d35bc-bce4-4c12-a320-1f2284c51568,2019-10-26 08:39:01,0.200000
8,ad9624fe-1737-4aa0-8e99-4e9a6382d551,8b13dcda-361f-4a85-9b0a-1c37d45c46bd,50c301cc-7175-4ef0-8de7-44a18c10b36d,b5572d8b-c34b-425f-b7c9-2a8c4605f886,2019-10-26 08:40:05,1.000000
9,7f94fbe4-1d21-4c9e-a956-158df90187c5,90f4299b-8ade-41b9-ab87-1bf253aef8a5,ca6aa0b5-1c0f-4836-a28e-c48712f3647e,f4b1cc24-2768-44dc-bb60-d6517ce03db0,2019-10-26 08:41:08,0.200000
10,d08f69b0-4d3d-46b6-a0f5-5209504173ac,c75e65a9-d06b-4d13-b4fc-c993591ecbae,5ecdb6ed-002d-4371-98cb-5c1cc36030cf,063714ad-c8ab-4249-9c59-30e6b4655940,2019-10-26 08:42:12,0.200000
11,2637b8ab-633e-448e-9383-9b3cd727c928,ae6edfa6-f647-4c8b-9c08-945d5d341717,5ccd7ee0-b03f-46eb-aab3-99174bc56476,c5bca695-3bd9-41c5-990e-7c637af44271,2019-10-26 08:43:16,0.200000
12,93b2b74d-b55c-47cc-b8f6-8014cf3762ea,cc784adb-2562-411e-a012-c3a6863dd56b,51a5672d-50a5-4a25-a614-5696b0c50182,0084e408-6b8a-49c9-9f20-233ba3e0a40e,2019-10-26 08:44:19,1.000000
13,6fd85d15-f409-434a-bf7b-0f29e5c34d60,bbe47207-8a11-4afd-a66d-1fd29355bb8b,7b1a50fc-7e1a-4b3f-9f61-debb28a855ae,43b180ce-49f7-4b33-b9e0-8af1105121de,2019-10-26 08:45:23,0.200000
14,dee72fc7-fe3b-481d-8164-c4a9a32485d5,f0706ad7-4011-4af7-8169-f6bc8e5a8c76,fc92d900-2269-48a8-80a6-e763afebec85,e9fb23f0-892a-4a4e-914e-e9bc4c237251,2019-10-26 08:46:27,0.200000
15,8d6bb8a0-67d9-4024-8226-4986d561001a,f4b36e4c-8177-4a30-93fa-313e09ab6e11,5cd12bbe-7dc5-44c4-a8b8-b02555d6c273,3df13b42-8cc7-4af3-8e0a-26bf8672f460,2019-10-26 08:47:30,1.000000
16,742e8d55-e564-48e5-b6ae-170e566d2624,a0f7f3c4-cb7c-4768-adc4-32f07d6b847a,965d63b8-0fa0-427a-b21c-893161b70b9a,3ba9f48f-f04c-4ca9-bf08-e0c0cd9f3692,2019-10-26 08:48:34,1.000000
17,741a93fc-c6cf-4b35-9473-377ab7c84d82,8e8f71cf-7a23-4a1a-b97b-63d368e4b3ac,39ecaebc-ae46-4613-ad54-63a2db1b7862,ea875a59-1807-4ec1-8659-d0f546da3853,2019-10-26 08:49:38,0.200000
18,abda9265-5341-4f54-aac8-00ba15e80c86,0a71ea34-d84a-4702-b071-b7e4cdfe9bff,62ec346b-c724-4cb8-b503-85c5838edbfd,7b791315-8a59-4e8b-8f55-abe7647f4a58,2019-10-26 08:50:42,1.000000
19,2a03c672-7224-4be1-998c-6c464fc0e884,5071ed19-b292-4525-8155-4454a00906d1,3358c5e9-1538-44bb-8003-1389d7838e07,9832586c-4db3-42c6-9140-09b9fcb7cfac,2019-10-26 08:51:46,0.200000
20,833fc058-ea97-42cf-bcbe-adb1693830a8,f69fd7c7-f9f3-4a26-9c03-5074134535f6,0f612a71-73a7-47b5-917d-05cbda5b5947,b221de5c-8f48-4b6b-aab6-457bc281c228,2019-10-26 08:52:49,1.000000
21,cfce93da-d6de-4cde-b2ff-9e99ba1427be,f1c98630-e81c-45dd-bf33-e27c479daccf,c49be232-8270-4fe0-b8e0-ba8aba006703,f8c450fa-4003-4841-9493-b4b862e7de10,2019-10-26 08:53:53,0.200000
22,2f583f5f-dbbe-4a55-90aa-232d13285c66,96aeb84f-7611-4ea8-ac6e-bc736c132fec,a2485582-bd5f-456e-9af0-97ea0b747316,f179f762-74dc-4439-a7c0-8c8808e0e3c1,2019-10-26 08:54:57,0.200000
23,25f76f33-b36a-423e-b336-e368f642d0b2,8578e521-132c-4494-b783-ea66f3b9d9fe,450f1128-23c0-4d37-a04b-5d52d6d358e1,5d80976e-ee1f-4771-aa36-8e6b11f593f4,2019-10-26 08:56:01,0.200000
24,32aa39fe-127c-4393-b1f1-8e63c4683b15,eadd9e19-51ce-4e8a-90cf-e85b877186f0,e6984b63-1749-41d0-b260-59f8b7269e10,deaf9521-f190-486b-9df6-9e1c08780ddb,2019-10-26 08:57:05,1.000000
25,cbd288cc-7865-4261-8343-6323033122d6,baff1ade-aaad-474d-90a0-ebc1eacbb36c,d111db2a-ad39-4387-bdcd-3e0bb53c6afe,254244ba-b313-4311-b133-de94da2f2d9e,2019-10-26 08:58:08,1.000000
